{
  "Circuit execution durations [ms]": [1.0408, 1.0472000000000001, 1.0471, 1.0361, 1.0249, 1.0433000000000001, 1.0173999999999999, 1.0304, 1.034, 1.0264, 1.0409, 1.0329, 1.0279, 1.0191, 1.0246000000000002, 1.0402, 1.0328, 1.0230000000000001, 1.0332, 1.0211000000000001, 1.0430000000000001, 1.0903, 1.0308, 1.0344, 1.0177999999999998, 1.0333, 1.0205, 1.0161, 1.1714, 1.0230000000000001, 1.0322, 1.3869, 1.125, 1.0154999999999998, 1.034, 1.0171, 1.1347, 1.032, 1.0312999999999999, 1.317, 0.9892, 1.1116, 1.0264, 1.0254, 1.0398, 1.1129, 0.9429, 1.1658, 1.0259, 1.0315999999999999, 1.2013, 1.1728, 1.0257, 1.3086, 1.0283, 1.026, 1.0362, 0.9794, 1.0209, 1.0273999999999999, 1.0376, 1.0362, 1.1046, 1.0188000000000001, 1.0279, 1.0402, 1.0265, 1.0268, 1.0251, 1.0606, 1.0367, 1.0276, 1.0269000000000001, 1.0412, 1.0195, 1.0247, 1.02, 1.0252, 1.0269000000000001, 1.0337, 1.0226, 1.035, 1.0462],
  "Depth": 149.0,
  "Expectation Value": -10.558704376220703,
  "Optimal Expectation Value": -12.0,
  "Optimizer durations [ms]": [11.008, 10.997, 10.985, 10.985, 10.813, 10.687, 10.744, 10.782, 11.037, 10.697, 10.943, 10.883, 10.662, 10.952, 10.631, 10.753, 10.814, 10.886, 10.698, 10.943, 10.838, 11.443, 10.786, 11.087, 10.607, 11.011, 10.745, 10.512, 12.23, 11.053, 10.811, 14.233, 11.745, 10.646, 11.054, 11.026, 11.783, 10.951, 10.521, 13.935, 17.175, 11.455, 10.937, 10.607, 10.951, 11.769, 19.468, 12.243, 10.749, 10.65, 12.504, 12.597, 20.292, 16.945, 10.851, 10.713, 10.856, 15.11, 10.824, 10.901, 10.81, 11.008, 11.39, 10.724, 10.825, 10.878, 10.698, 10.952, 10.801, 11.29, 10.819, 10.67, 11.048, 10.688, 10.938, 10.734, 10.569, 10.759, 10.903, 10.629, 10.992, 10.669, 11.118],
  "Optimizer iterations": 83,
  "Optimizer params": [0.866189728210809, 0.054509014953231974, 0.5831275430289964, 0.11802568732413247, 0.8358244586401559, 0.49609562853102307],
  "P": 3,
  "Problem": "MCP",
  "QJob durations [ms]": [1.0408, 1.0472000000000001, 1.0471, 1.0361, 1.0249, 1.0433000000000001, 1.0173999999999999, 1.0304, 1.034, 1.0264, 1.0409, 1.0329, 1.0279, 1.0191, 1.0246000000000002, 1.0402, 1.0328, 1.0230000000000001, 1.0332, 1.0211000000000001, 1.0430000000000001, 1.0903, 1.0308, 1.0344, 1.0177999999999998, 1.0333, 1.0205, 1.0161, 1.1714, 1.0230000000000001, 1.0322, 1.3869, 1.125, 1.0154999999999998, 1.034, 1.0171, 1.1347, 1.032, 1.0312999999999999, 1.317, 0.9892, 1.1116, 1.0264, 1.0254, 1.0398, 1.1129, 0.9429, 1.1658, 1.0259, 1.0315999999999999, 1.2013, 1.1728, 1.0257, 1.3086, 1.0283, 1.026, 1.0362, 0.9794, 1.0209, 1.0273999999999999, 1.0376, 1.0362, 1.1046, 1.0188000000000001, 1.0279, 1.0402, 1.0265, 1.0268, 1.0251, 1.0606, 1.0367, 1.0276, 1.0269000000000001, 1.0412, 1.0195, 1.0247, 1.02, 1.0252, 1.0269000000000001, 1.0337, 1.0226, 1.035, 1.0462],
  "QPU": "7000000",
  "Qubits": 8,
  "Queue durations [ms]": [0.0, 0.0, 0.0, 0.0, 0.0, 0.0, 0.0, 0.0, 0.0, 0.0, 0.0, 0.0, 0.0, 0.0, 0.0, 0.0, 0.0, 0.0, 0.0, 0.0, 0.0, 0.0, 0.0, 0.0, 0.0, 0.0, 0.0, 0.0, 0.0, 0.0, 0.0, 0.0, 0.0, 0.0, 0.0, 0.0, 0.0, 0.0, 0.0, 0.0, 0.0, 0.0, 0.0, 0.0, 0.0, 0.0, 0.0, 0.0, 0.0, 0.0, 0.0, 0.0, 0.0, 0.0, 0.0, 0.0, 0.0, 0.0, 0.0, 0.0, 0.0, 0.0, 0.0, 0.0, 0.0, 0.0, 0.0, 0.0, 0.0, 0.0, 0.0, 0.0, 0.0, 0.0, 0.0, 0.0, 0.0, 0.0, 0.0, 0.0, 0.0, 0.0, 0.0],
  "Shots": 4096,
  "Size": 8,
  "Total Algorithm duration [s]": 0.951,
  "Total Classic duration [s]": 0.8636618,
  "Total Quantum duration [s]": 0.08733819999999998
}
