{
  "Circuit execution durations [ms]": [1.0324, 1.0675000000000001, 1.0002, 1.0111, 1.049, 1.0287, 1.038, 1.0114, 1.0353999999999999, 1.0228, 1.0484, 1.0243, 1.0204, 1.0207, 1.0238, 1.0166000000000002, 1.0230000000000001, 1.0315999999999999, 1.0942, 1.3551, 1.108, 1.0296999999999998, 1.0246000000000002, 1.0176, 1.0208000000000002, 1.0393, 1.0475, 1.042, 1.0797, 1.0182, 1.021, 1.0402, 1.0365000000000002, 1.0262, 1.0432, 1.0327, 1.0325, 1.0402, 1.0262, 1.0288000000000002, 1.0250000000000001, 1.0184, 1.0498, 1.0413, 1.0509, 1.0176, 1.0447, 1.0106, 1.024, 1.0225, 0.9415, 1.0278, 1.0249, 1.0425, 1.0262, 1.0115, 1.0327, 1.0288000000000002, 1.0381, 1.0376999999999998, 1.0555, 1.0338, 1.0449000000000002, 1.0312, 1.0203, 1.0395, 1.0273999999999999, 1.0268, 1.0407000000000002, 1.0437, 1.0429, 1.0342, 1.0408, 1.0367, 1.0165, 1.0334999999999999, 1.0352000000000001, 1.0327, 1.0354999999999999, 1.0208000000000002, 1.0296999999999998, 1.0381, 1.0395, 1.0975, 1.0312, 1.0298, 1.0165, 1.0356, 1.0854000000000001, 1.0338999999999998, 1.0278, 1.0415, 1.035, 1.0267, 1.0116, 1.0383, 1.0323, 1.0363, 1.0292000000000001],
  "Depth": 149.0,
  "Expectation Value": -9.795419692993164,
  "Optimal Expectation Value": -12.0,
  "Optimizer durations [ms]": [10.913, 10.926, 10.561, 10.774, 11.014, 10.831, 10.98, 10.582, 10.695, 11.135, 10.855, 10.939, 10.569, 10.799, 10.744, 10.571, 10.993, 10.724, 11.518, 16.457, 18.669, 10.959, 10.651, 10.522, 10.8, 11.107, 10.87, 11.207, 11.172, 10.748, 10.785, 10.847, 11.008, 10.707, 10.892, 10.868, 10.906, 10.878, 10.597, 11.171, 10.628, 11.051, 10.733, 11.329, 10.72, 11.018, 10.718, 10.832, 10.699, 10.747, 14.766, 10.706, 10.897, 10.682, 10.988, 10.866, 10.832, 10.762, 10.75, 10.808, 11.25, 10.719, 11.155, 10.761, 10.641, 10.907, 10.762, 10.613, 11.095, 10.872, 11.133, 10.897, 10.901, 10.727, 10.911, 10.619, 10.894, 11.033, 10.84, 10.574, 10.941, 10.768, 11.162, 11.256, 10.963, 10.56, 10.915, 10.6, 11.788, 10.766, 10.719, 10.959, 10.815, 10.8, 10.51, 10.842, 10.707, 11.014, 10.592],
  "Optimizer iterations": 99,
  "Optimizer params": [0.7837098537543216, 0.7165026657757063, 0.8619527470704789, 0.4411173339965337, 0.362871795997852, 0.3207445965519327],
  "P": 3,
  "Problem": "MCP",
  "QJob durations [ms]": [1.0324, 1.0675000000000001, 1.0002, 1.0111, 1.049, 1.0287, 1.038, 1.0114, 1.0353999999999999, 1.0228, 1.0484, 1.0243, 1.0204, 1.0207, 1.0238, 1.0166000000000002, 1.0230000000000001, 1.0315999999999999, 1.0942, 1.3551, 1.108, 1.0296999999999998, 1.0246000000000002, 1.0176, 1.0208000000000002, 1.0393, 1.0475, 1.042, 1.0797, 1.0182, 1.021, 1.0402, 1.0365000000000002, 1.0262, 1.0432, 1.0327, 1.0325, 1.0402, 1.0262, 1.0288000000000002, 1.0250000000000001, 1.0184, 1.0498, 1.0413, 1.0509, 1.0176, 1.0447, 1.0106, 1.024, 1.0225, 0.9415, 1.0278, 1.0249, 1.0425, 1.0262, 1.0115, 1.0327, 1.0288000000000002, 1.0381, 1.0376999999999998, 1.0555, 1.0338, 1.0449000000000002, 1.0312, 1.0203, 1.0395, 1.0273999999999999, 1.0268, 1.0407000000000002, 1.0437, 1.0429, 1.0342, 1.0408, 1.0367, 1.0165, 1.0334999999999999, 1.0352000000000001, 1.0327, 1.0354999999999999, 1.0208000000000002, 1.0296999999999998, 1.0381, 1.0395, 1.0975, 1.0312, 1.0298, 1.0165, 1.0356, 1.0854000000000001, 1.0338999999999998, 1.0278, 1.0415, 1.035, 1.0267, 1.0116, 1.0383, 1.0323, 1.0363, 1.0292000000000001],
  "QPU": "7000000",
  "Qubits": 8,
  "Queue durations [ms]": [0.0, 0.0, 0.0, 0.0, 0.0, 0.0, 0.0, 0.0, 0.0, 0.0, 0.0, 0.0, 0.0, 0.0, 0.0, 0.0, 0.0, 0.0, 0.0, 0.0, 0.0, 0.0, 0.0, 0.0, 0.0, 0.0, 0.0, 0.0, 0.0, 0.0, 0.0, 0.0, 0.0, 0.0, 0.0, 0.0, 0.0, 0.0, 0.0, 0.0, 0.0, 0.0, 0.0, 0.0, 0.0, 0.0, 0.0, 0.0, 0.0, 0.0, 0.0, 0.0, 0.0, 0.0, 0.0, 0.0, 0.0, 0.0, 0.0, 0.0, 0.0, 0.0, 0.0, 0.0, 0.0, 0.0, 0.0, 0.0, 0.0, 0.0, 0.0, 0.0, 0.0, 0.0, 0.0, 0.0, 0.0, 0.0, 0.0, 0.0, 0.0, 0.0, 0.0, 0.0, 0.0, 0.0, 0.0, 0.0, 0.0, 0.0, 0.0, 0.0, 0.0, 0.0, 0.0, 0.0, 0.0, 0.0, 0.0],
  "Shots": 4096,
  "Size": 8,
  "Total Algorithm duration [s]": 1.092,
  "Total Classic duration [s]": 0.9893655000000001,
  "Total Quantum duration [s]": 0.1026345
}
