{
  "Circuit execution durations [ms]": [1.0690000000000002, 1.0337, 1.0337, 1.052, 1.0151999999999999, 1.0189000000000001, 1.0208000000000002, 1.0250000000000001, 1.0323, 1.1775, 1.1802, 1.3192, 1.3324, 1.1789999999999998, 0.9997999999999999, 1.1075, 1.0986, 1.0352000000000001, 1.0672, 1.037, 1.0295, 1.044, 1.0379, 1.0518, 1.0594999999999999, 1.0276, 1.0504, 1.026, 1.0478, 1.0401, 1.0689, 1.0352000000000001, 1.0151999999999999, 1.059, 1.0278, 1.0518999999999998, 1.0309, 1.0331, 1.0191, 1.0366, 1.0591000000000002, 1.0245, 1.0430000000000001, 1.0446, 1.054, 1.0334, 1.0278, 1.4143999999999999, 1.3072, 1.0443, 1.0848, 1.0601, 1.0487, 1.0828, 1.0203, 1.0443, 1.018, 1.0330000000000001, 1.0357999999999998, 1.0196, 1.0560999999999998, 1.0163, 1.0331, 1.0418999999999998, 1.0509, 1.0472000000000001, 1.0217, 1.1247, 1.0548, 1.0333, 1.0254, 1.0132999999999999, 1.0256, 0.7863, 1.0608, 1.0154999999999998, 1.0126, 1.0184, 1.039, 1.0317, 1.0401, 1.0277, 1.0222, 1.0261, 1.0312, 1.062, 1.0176, 1.0315, 1.053, 1.0556, 1.0478],
  "Depth": 149.0,
  "Expectation Value": -9.272357940673828,
  "Optimal Expectation Value": -12.0,
  "Optimizer durations [ms]": [11.069, 11.037, 10.805, 11.062, 10.646, 10.732, 10.817, 10.735, 10.778, 16.177, 12.283, 19.367, 13.794, 17.297, 19.834, 15.046, 19.113, 10.859, 11.326, 10.998, 10.68, 10.972, 10.81, 11.028, 11.213, 10.75, 10.966, 10.557, 11.264, 10.632, 11.442, 10.817, 10.678, 11.139, 10.567, 11.265, 10.716, 10.993, 10.739, 10.574, 11.249, 11.005, 10.78, 11.087, 10.815, 11.097, 16.128, 15.906, 14.148, 10.979, 11.108, 11.234, 10.948, 11.059, 11.053, 10.804, 10.801, 10.729, 10.879, 10.592, 11.085, 10.751, 10.775, 10.711, 11.159, 11.008, 10.631, 11.757, 11.165, 10.886, 10.749, 10.463, 10.916, 8.585, 11.298, 10.464, 10.647, 10.806, 11.216, 10.749, 11.065, 10.725, 10.47, 11.05, 10.584, 11.256, 10.655, 10.859, 10.786, 11.282, 10.961],
  "Optimizer iterations": 91,
  "Optimizer params": [0.35581502736036447, 0.1736860004849101, 0.5693910597797994, 0.8904407441325288, 0.18614937162861944, 0.2587713238787278],
  "P": 3,
  "Problem": "MCP",
  "QJob durations [ms]": [1.0690000000000002, 1.0337, 1.0337, 1.052, 1.0151999999999999, 1.0189000000000001, 1.0208000000000002, 1.0250000000000001, 1.0323, 1.1775, 1.1802, 1.3192, 1.3324, 1.1789999999999998, 0.9997999999999999, 1.1075, 1.0986, 1.0352000000000001, 1.0672, 1.037, 1.0295, 1.044, 1.0379, 1.0518, 1.0594999999999999, 1.0276, 1.0504, 1.026, 1.0478, 1.0401, 1.0689, 1.0352000000000001, 1.0151999999999999, 1.059, 1.0278, 1.0518999999999998, 1.0309, 1.0331, 1.0191, 1.0366, 1.0591000000000002, 1.0245, 1.0430000000000001, 1.0446, 1.054, 1.0334, 1.0278, 1.4143999999999999, 1.3072, 1.0443, 1.0848, 1.0601, 1.0487, 1.0828, 1.0203, 1.0443, 1.018, 1.0330000000000001, 1.0357999999999998, 1.0196, 1.0560999999999998, 1.0163, 1.0331, 1.0418999999999998, 1.0509, 1.0472000000000001, 1.0217, 1.1247, 1.0548, 1.0333, 1.0254, 1.0132999999999999, 1.0256, 0.7863, 1.0608, 1.0154999999999998, 1.0126, 1.0184, 1.039, 1.0317, 1.0401, 1.0277, 1.0222, 1.0261, 1.0312, 1.062, 1.0176, 1.0315, 1.053, 1.0556, 1.0478],
  "QPU": "7000000",
  "Qubits": 8,
  "Queue durations [ms]": [0.0, 0.0, 0.0, 0.0, 0.0, 0.0, 0.0, 0.0, 0.0, 0.0, 0.0, 0.0, 0.0, 0.0, 0.0, 0.0, 0.0, 0.0, 0.0, 0.0, 0.0, 0.0, 0.0, 0.0, 0.0, 0.0, 0.0, 0.0, 0.0, 0.0, 0.0, 0.0, 0.0, 0.0, 0.0, 0.0, 0.0, 0.0, 0.0, 0.0, 0.0, 0.0, 0.0, 0.0, 0.0, 0.0, 0.0, 0.0, 0.0, 0.0, 0.0, 0.0, 0.0, 0.0, 0.0, 0.0, 0.0, 0.0, 0.0, 0.0, 0.0, 0.0, 0.0, 0.0, 0.0, 0.0, 0.0, 0.0, 0.0, 0.0, 0.0, 0.0, 0.0, 0.0, 0.0, 0.0, 0.0, 0.0, 0.0, 0.0, 0.0, 0.0, 0.0, 0.0, 0.0, 0.0, 0.0, 0.0, 0.0, 0.0, 0.0],
  "Shots": 4096,
  "Size": 8,
  "Total Algorithm duration [s]": 1.049,
  "Total Classic duration [s]": 0.9529504,
  "Total Quantum duration [s]": 0.0960496
}
