{
  "Circuit execution durations [ms]": [1.0430000000000001, 1.0134, 1.1037, 1.1119, 1.2679, 1.1284, 1.0413, 1.0315999999999999, 1.0344, 1.0457999999999998, 1.0234, 1.0305, 1.048, 1.0514000000000001, 1.0304, 1.0172, 1.0192999999999999, 1.0265, 1.0301, 1.0143000000000002, 1.0271, 1.1221, 1.0407000000000002, 1.0447, 1.0264, 1.0579, 1.0281, 1.0395999999999999, 1.0575, 1.029, 1.0874000000000001, 1.0376999999999998, 1.0109, 1.0434, 1.0188000000000001, 1.0597, 1.0267, 1.0394, 1.0432, 1.0793000000000001, 1.0357999999999998, 1.0269000000000001, 1.0292000000000001, 1.0594999999999999, 1.0264, 1.0171, 1.0493, 1.0296999999999998, 1.0495, 1.0252, 1.0499, 1.0142, 1.0268, 1.0383, 1.0455, 1.0417, 1.0476, 1.0353, 1.0244, 1.0312999999999999, 1.0169000000000001, 1.0467, 1.0476, 1.0346000000000002, 1.0304, 1.0189000000000001, 1.0356, 1.0394, 1.0409, 1.0324, 1.0332, 1.0244, 1.0219999999999998, 1.0393, 1.0398, 1.0486, 1.0426, 1.0607, 1.0534, 1.0617999999999999, 1.0395999999999999, 1.0484, 1.0606, 1.0283, 1.0231000000000001, 1.0375, 1.0281, 1.0639, 1.0476999999999999, 1.0181, 1.0299, 1.0142, 1.0396999999999998, 1.2574999999999998, 1.0613000000000001, 1.0177999999999998, 0.9415, 1.0484, 1.0425, 1.2142, 1.0425],
  "Depth": 149.0,
  "Expectation Value": -9.038167953491211,
  "Optimal Expectation Value": -12.0,
  "Optimizer durations [ms]": [10.729, 10.751, 11.718, 16.374, 17.96, 11.733, 11.013, 10.793, 10.785, 11.099, 10.71, 10.712, 11.12, 11.019, 10.57, 11.073, 10.682, 10.621, 10.808, 10.577, 11.042, 11.801, 10.92, 11.014, 10.693, 11.143, 10.688, 10.848, 11.271, 10.719, 11.269, 10.907, 10.763, 10.831, 14.144, 11.092, 10.684, 11.061, 10.64, 11.366, 10.971, 10.519, 10.93, 11.11, 10.742, 10.683, 11.189, 10.812, 10.908, 10.654, 10.831, 10.781, 10.728, 10.902, 11.181, 10.686, 11.113, 10.742, 10.659, 11.078, 10.752, 10.954, 11.233, 10.797, 10.918, 10.651, 10.943, 10.794, 10.979, 10.859, 10.753, 10.911, 10.534, 10.877, 10.881, 11.082, 10.738, 11.079, 11.337, 10.864, 11.053, 11.164, 10.967, 10.725, 11.033, 10.823, 10.894, 11.148, 10.995, 10.415, 10.744, 10.93, 10.992, 13.06, 11.149, 10.52, 19.271, 11.047, 14.608, 12.517, 11.013],
  "Optimizer iterations": 101,
  "Optimizer params": [0.16709391837966064, 0.5900537241485423, 0.030230895568828037, 0.37082355024825503, 0.2417441046765653, 0.4512269821733262],
  "P": 3,
  "Problem": "MCP",
  "QJob durations [ms]": [1.0430000000000001, 1.0134, 1.1037, 1.1119, 1.2679, 1.1284, 1.0413, 1.0315999999999999, 1.0344, 1.0457999999999998, 1.0234, 1.0305, 1.048, 1.0514000000000001, 1.0304, 1.0172, 1.0192999999999999, 1.0265, 1.0301, 1.0143000000000002, 1.0271, 1.1221, 1.0407000000000002, 1.0447, 1.0264, 1.0579, 1.0281, 1.0395999999999999, 1.0575, 1.029, 1.0874000000000001, 1.0376999999999998, 1.0109, 1.0434, 1.0188000000000001, 1.0597, 1.0267, 1.0394, 1.0432, 1.0793000000000001, 1.0357999999999998, 1.0269000000000001, 1.0292000000000001, 1.0594999999999999, 1.0264, 1.0171, 1.0493, 1.0296999999999998, 1.0495, 1.0252, 1.0499, 1.0142, 1.0268, 1.0383, 1.0455, 1.0417, 1.0476, 1.0353, 1.0244, 1.0312999999999999, 1.0169000000000001, 1.0467, 1.0476, 1.0346000000000002, 1.0304, 1.0189000000000001, 1.0356, 1.0394, 1.0409, 1.0324, 1.0332, 1.0244, 1.0219999999999998, 1.0393, 1.0398, 1.0486, 1.0426, 1.0607, 1.0534, 1.0617999999999999, 1.0395999999999999, 1.0484, 1.0606, 1.0283, 1.0231000000000001, 1.0375, 1.0281, 1.0639, 1.0476999999999999, 1.0181, 1.0299, 1.0142, 1.0396999999999998, 1.2574999999999998, 1.0613000000000001, 1.0177999999999998, 0.9415, 1.0484, 1.0425, 1.2142, 1.0425],
  "QPU": "7000000",
  "Qubits": 8,
  "Queue durations [ms]": [0.0, 0.0, 0.0, 0.0, 0.0, 0.0, 0.0, 0.0, 0.0, 0.0, 0.0, 0.0, 0.0, 0.0, 0.0, 0.0, 0.0, 0.0, 0.0, 0.0, 0.0, 0.0, 0.0, 0.0, 0.0, 0.0, 0.0, 0.0, 0.0, 0.0, 0.0, 0.0, 0.0, 0.0, 0.0, 0.0, 0.0, 0.0, 0.0, 0.0, 0.0, 0.0, 0.0, 0.0, 0.0, 0.0, 0.0, 0.0, 0.0, 0.0, 0.0, 0.0, 0.0, 0.0, 0.0, 0.0, 0.0, 0.0, 0.0, 0.0, 0.0, 0.0, 0.0, 0.0, 0.0, 0.0, 0.0, 0.0, 0.0, 0.0, 0.0, 0.0, 0.0, 0.0, 0.0, 0.0, 0.0, 0.0, 0.0, 0.0, 0.0, 0.0, 0.0, 0.0, 0.0, 0.0, 0.0, 0.0, 0.0, 0.0, 0.0, 0.0, 0.0, 0.0, 0.0, 0.0, 0.0, 0.0, 0.0, 0.0, 0.0],
  "Shots": 4096,
  "Size": 8,
  "Total Algorithm duration [s]": 1.134,
  "Total Classic duration [s]": 1.0283902999999999,
  "Total Quantum duration [s]": 0.10560969999999997
}
