{
  "Circuit execution durations [ms]": [0.16449999384349212, 0.1499499994679354, 0.15224999879137613, 0.16084999879240058, 0.1503000021330081, 0.1480999999330379, 0.15925000116112642, 0.14894999912939966, 0.15189999976428226, 0.1477999976486899, 0.1522999991721008, 0.1512000017100945, 0.14960000407882035, 0.14834999819868244, 0.15749999874969944, 0.1496499971835874, 0.14939999891794287, 0.149500003317371, 0.14910000390955247, 0.14704999921377748, 0.14700000247103162, 0.15474999963771552, 0.14769999688724056, 0.15559999883407727, 0.14940000255592167, 0.15264999819919467, 0.14984999870648608, 0.1541499987069983, 0.15395000082207844, 0.14744999862159602, 0.1480999999330379, 0.1524500039522536, 0.14729999747942202, 0.15485000039916486, 0.14709999959450215, 0.1468499976908788, 0.14815000031376258, 0.15010000424808823, 0.14939999527996406, 0.15100000018719584, 0.15039999561849982, 0.15565000649075955, 0.1496500008215662, 0.14924999777576886, 0.2536999963922426, 0.2340499995625578, 0.25069999537663534, 0.20685000345110893, 0.15780000103404745, 0.15264999819919467, 0.15675000031478703, 0.1586500002304092, 0.1538500000606291, 0.14880000162520446, 0.1628499994694721, 0.14690000170958228, 0.1464000015403144, 0.14760000340174884, 0.15484999676118605, 0.1497999983257614, 0.14724999709869735, 0.14739999824087135, 0.156149995746091, 0.14815000031376258, 0.15759999951114878, 0.14874999760650098, 0.1516499978606589, 0.1482499974372331, 0.14819999705650844, 0.1479499987908639, 0.14999999984866008, 0.15034999887575395, 0.14940000255592167, 0.14980000196374021, 0.1472000003559515, 0.14759999612579122, 0.14844999896013178, 0.14844999896013178, 0.1473499978601467, 0.14709999595652334, 0.14815000395174138, 0.1512000017100945, 0.14849999934085645, 0.1510500042058993, 0.14894999912939966, 0.1503000021330081, 0.15225000242935494, 0.1532500027678907, 0.1496499971835874, 0.15320000238716602, 0.1477999976486899, 0.14759999976377003, 0.15714999972260557, 0.14880000162520446, 0.14754999938304536, 0.14755000302102417, 0.14690000170958228, 0.14789999841013923, 0.15284999972209334, 0.1501500046288129, 0.15890000213403255, 0.1504499996372033, 0.15320000238716602, 0.15424999583046883, 0.15485000039916486, 0.14830000145593658, 0.15604999862262048, 0.1569499981997069, 0.1501500009908341, 0.14909999663359486, 0.1472000039939303, 0.14854999972158112, 0.14910000027157366, 0.14755000302102417, 0.15055000039865263, 0.1569500018376857, 0.1473500014981255, 0.14695000209030695, 0.1468499976908788, 0.15440000424860045, 0.14815000031376258, 0.14815000395174138, 0.15044999599922448, 0.1483999985794071, 0.1475000026402995, 0.16124999820021912, 0.15575000361423008, 0.15439999697264284, 0.14769999688724056, 0.14804999955231324, 0.1501500009908341, 0.1493499985372182, 0.14915000065229833, 0.15904999600024894, 0.1597500013303943, 0.14925000505172648, 0.14939999891794287, 0.15010000061010942, 0.18079999790643342, 0.14970000484026968, 0.15719999646535143, 0.15824999718461186, 0.15085000268300064, 0.148899998748675, 0.15735000488348305, 0.1514999967184849, 0.15024999811430462, 0.16254999718512408, 0.15829999756533653, 0.1484500025981106, 0.14954999642213807, 0.15314999473048374, 0.1512000017100945, 0.14834999819868244, 0.152299995534122, 0.15485000039916486, 0.15619999612681568, 0.1505999971413985, 0.14685000496683642, 0.1545999984955415, 0.14954999642213807, 0.14984999870648608, 0.14915000429027714, 0.15239999629557133, 0.15165000149863772, 0.15825000446056947, 0.14754999938304536, 0.15535000420641154, 0.15809999968041666, 0.14834999819868244, 0.1474999990023207, 0.14775000090594403, 0.1473500014981255, 0.1493499985372182, 0.15069999790284783, 0.147149996337248, 0.1482499974372331, 0.14819999705650844, 0.1618999958736822, 0.1501500009908341, 0.14754999938304536, 0.14804999955231324, 0.1482500010752119, 0.14744999862159602, 0.14784999802941456, 0.1478000012866687, 0.14729999747942202, 0.14924999777576886, 0.14865000048303045, 0.15485000403714366, 0.15509999502683058, 0.14774999726796523, 0.1479500024288427, 0.15549999807262793, 0.14835000183666125, 0.14864999684505165, 0.14834999819868244, 0.1504500032751821, 0.14855000335955992, 0.14740000187885016, 0.1476500001444947, 0.1511999980721157, 0.14969999756431207, 0.1496499971835874, 0.1552500034449622, 0.15535000056843273, 0.14874999760650098, 0.1501500046288129, 0.18030000137514435, 0.15530000382568687, 0.25839999216259457, 0.13944999955128878, 0.15330000314861536, 0.15039999925647862, 0.15160000111791305, 0.15124999845284037, 0.1477999976486899, 0.1535499977762811, 0.1475000026402995, 0.14770000052521937, 0.15054999676067382, 0.14965000445954502, 0.14910000390955247, 0.14555000234395266, 0.15770000391057692, 0.15005000022938475, 0.14754999574506655, 0.14760000340174884, 0.14900000314810313, 0.15024999811430462, 0.14929999815649353, 0.15410000196425244, 0.15445000462932512, 0.1499499994679354, 0.15434999659191817, 0.14955000006011687, 0.14970000120229088, 0.14885000200592913, 0.14910000390955247, 0.1621999981580302, 0.15029999849502929, 0.15040000289445743, 0.14804999955231324, 0.15944999540806748, 0.15469999925699085, 0.149049999890849, 0.1534000002720859, 0.15219999841065146, 0.14930000179447234, 0.1499499994679354, 0.1591500040376559, 0.15084999904502183, 0.14974999794503674, 0.14939999891794287, 0.1509000030637253, 0.14834999819868244, 0.15160000111791305, 0.15195000014500692, 0.18700000509852543, 0.15065000116010197, 0.15270000221789815, 0.1558500007377006, 0.15809999604243785, 0.1612999985809438, 0.14914999701431952, 0.14685000132885762, 0.1555499984533526, 0.1473499978601467, 0.14759999976377003, 0.14729999747942202, 0.15269999857991934, 0.15125000209081918, 0.14714999997522682, 0.1642499992158264, 0.15305000124499202, 0.14944999929866754, 0.14880000162520446, 0.1474999990023207, 0.14944999566068873, 0.15014999735285528, 0.14960000044084154, 0.15464999887626618, 0.1509000030637253, 0.15029999849502929, 0.18025000099441968, 0.2706000013859011, 0.2225499993073754, 0.21839999681105837, 0.15490000077988952, 0.15025000175228342, 0.14815000031376258, 0.3265000050305389, 0.16065000090748072, 0.15070000154082663, 0.1522999991721008, 0.1516499978606589, 0.15024999811430462, 0.15035000251373276, 0.15154999709920958, 0.14939999891794287, 0.15020000137155876, 0.1531000052636955, 0.14895000276737846, 0.14929999815649353, 0.1508999994257465, 0.1597500013303943, 0.15490000077988952, 0.15580000035697594, 0.1482499974372331, 0.14804999955231324, 0.14885000200592913, 0.15024999811430462, 0.1521500016679056, 0.16504999803146347, 0.15534999693045393, 0.15249999705702066, 0.15064999752212316, 0.149049999890849, 0.15175000226008706, 0.16645000141579658, 0.1496499971835874, 0.1493499948992394, 0.14869999722577631, 0.14895000276737846, 0.1494999996793922, 0.1494999960414134, 0.14859999646432698, 0.14870000086375512, 0.15640000492567196, 0.14880000162520446, 0.1538500000606291, 0.14844999896013178, 0.14690000170958228, 0.1474999990023207, 0.14644999828306027, 0.14784999802941456, 0.14770000052521937, 0.1479500024288427, 0.14464999549090862, 0.14680000094813295, 0.1508999994257465, 0.148899998748675, 0.1504499996372033, 0.1540000012028031, 0.156299996888265, 0.15474999963771552, 0.1503000021330081, 0.15295000048354268, 0.15159999747993425, 0.158500002726214, 0.16080000204965472, 0.16694999794708565, 0.1552500034449622, 0.14709999959450215, 0.1514999967184849, 0.1493499985372182, 0.1476500001444947, 0.14729999747942202, 0.15859999984968454, 0.1575499991304241, 0.16375000268453732, 0.1499499994679354, 0.14924999777576886, 0.14989999908721074, 0.15115000132936984, 0.15259999781847, 0.15904999600024894, 0.15625000378349796, 0.14865000048303045, 0.1556999995955266, 0.15559999883407727, 0.15544999769190326, 0.1773000039975159, 0.15239999993355013, 0.15130000247154385, 0.1483000050939154, 0.1583499979460612, 0.14989999908721074, 0.15615000302204862, 0.14969999756431207, 0.14990000272518955, 0.15344999701483175, 0.15160000111791305, 0.1520000041637104, 0.15284999972209334, 0.15085000268300064, 0.15080000230227597, 0.1510500005679205, 0.15115000132936984, 0.15139999595703557, 0.15314999836846255, 0.1558500007377006, 0.15020000137155876, 0.14945000293664634, 0.14974999794503674, 0.15435000022989698, 0.14959999680286273, 0.14945000293664634, 0.1489000023866538, 0.15985000209184363, 0.15484999676118605, 0.15024999811430462, 0.15040000289445743, 0.14899999951012433, 0.14690000170958228, 0.1489000023866538, 0.15029999849502929, 0.15034999887575395, 0.1491999973950442, 0.14789999841013923, 0.1474999990023207, 0.1576000031491276, 0.15195000014500692, 0.15500000154133886, 0.1624000033189077, 0.1545999984955415, 0.15555000572931021, 0.15254999743774533, 0.16119999781949446, 0.15535000056843273, 0.1571000029798597, 0.15490000077988952, 0.14999999984866008, 0.1482500010752119, 0.1514999967184849, 0.1520000005257316, 0.1473499978601467, 0.14800000280956738, 0.1478000012866687, 0.15139999959501438, 0.14759999976377003, 0.14744999862159602, 0.1526000014564488, 0.15559999883407727, 0.15334999989136122, 0.15514999540755525, 0.15010000061010942, 0.18244999955641106, 0.17530000332044438, 0.14955000006011687, 0.15005000386736356, 0.15374999929917976, 0.1504500032751821, 0.15460000213352032, 0.15934999828459695, 0.1504500032751821, 0.1513499992142897, 0.14974999794503674, 0.15314999473048374, 0.14880000162520446, 0.1568000006955117, 0.15039999561849982, 0.15020000137155876, 0.15345000429078937, 0.15464999887626618, 0.1491999973950442, 0.1499499958299566, 0.13364999904297292, 0.1571000029798597, 0.15020000137155876, 0.13870000111637637, 0.1507500019215513, 0.1479499987908639, 0.14849999570287764, 0.1513499992142897, 0.15064999752212316, 0.14939999891794287, 0.15225000242935494, 0.14914999701431952, 0.1587999977346044, 0.19940000129281543, 0.14940000255592167, 0.15449999773409218, 0.14960000407882035, 0.14895000276737846, 0.1499499994679354, 0.14869999722577631, 0.17180000577354804, 0.15130000247154385, 0.14755000302102417, 0.15509999502683058, 0.15225000242935494, 0.15239999629557133, 0.15330000314861536, 0.1508999957877677, 0.15219999841065146, 0.15049999637994915, 0.15139999959501438, 0.14884999836795032, 0.15265000183717348, 0.15055000039865263, 0.15699999858043157, 0.15345000065281056, 0.1520000005257316, 0.14924999777576886, 0.14990000272518955, 0.15034999887575395, 0.15139999959501438, 0.1497999983257614, 0.14974999794503674, 0.1552499998069834, 0.15705000259913504, 0.15010000061010942, 0.14849999934085645, 0.15279999934136868, 0.149049999890849, 0.1494999996793922, 0.15800000255694613, 0.15939999866532162, 0.15689999781898223, 0.15210000128718093, 0.14899999951012433, 0.15514999904553406, 0.1597500013303943, 0.1505999971413985, 0.14969999756431207, 0.15519999578827992, 0.14974999794503674, 0.15814999642316252, 0.23689999943599105, 0.15034999887575395, 0.1483999985794071, 0.149500003317371, 0.15024999811430462, 0.15004999659140594, 0.14914999701431952, 0.13564999972004443, 0.1596000001882203, 0.1506000007793773, 0.15430000348715112, 0.15970000094966963, 0.17120000120485201, 0.15239999993355013, 0.15139999959501438, 0.1532500027678907, 0.15065000116010197, 0.1524500003142748, 0.15094999980647117, 0.16089999917312525, 0.15100000382517464, 0.15080000230227597, 0.14944999566068873, 0.15195000378298573, 0.14850000297883525, 0.14784999802941456, 0.14769999688724056, 0.15020000137155876, 0.14789999841013923, 0.1474999990023207, 0.15029999849502929, 0.14770000052521937, 0.15070000154082663, 0.20974999642930925, 0.15240000357152894, 0.15079999866429716, 0.15654999879188836, 0.1510499969299417, 0.1500999969721306, 0.15249999705702066, 0.15115000132936984, 0.15500000154133886, 0.15549999807262793, 0.15715000336058438, 0.15115000132936984, 0.1467000001866836, 0.15025000175228342, 0.1511999980721157, 0.1507500019215513, 0.2079499972751364, 0.15685000107623637, 0.15080000230227597, 0.1504500032751821, 0.15124999845284037, 0.15895000251475722, 0.15205000090645626, 0.1496499971835874, 0.1491999973950442, 0.15094999980647117, 0.14990000272518955, 0.14974999794503674, 0.15005000022938475, 0.15319999874918722, 0.14959999680286273, 0.14815000031376258, 0.1493499985372182, 0.1535499977762811, 0.3138499960186891, 0.15420000272570178, 0.15859999984968454, 0.15100000382517464, 0.1518499993835576, 0.16534999303985387, 0.15055000039865263, 0.1514999967184849, 0.15080000230227597, 0.15174999862210825, 0.23175000023911707, 0.203950003196951, 0.28690000908682123, 0.23599999258294702, 0.1621999981580302, 0.1594499990460463, 0.1581999968038872, 0.15264999819919467, 0.15705000259913504, 0.15375000657513738, 0.15025000175228342, 0.15065000116010197, 0.15425000310642645, 0.15389999680337496, 0.15534999693045393, 0.15365000217570923, 0.15690000145696104, 0.15810000331839547, 0.15824999718461186, 0.15969999367371202, 0.18714999896474183, 0.15469999925699085, 0.152749998960644, 0.15675000031478703, 0.15269999857991934, 0.16169999435078353, 0.15564999921480194, 0.16325000251526944, 0.15150000399444252, 0.15284999972209334, 0.14989999908721074, 0.15590000111842528, 0.1536999989184551, 0.15145000361371785, 0.15124999845284037, 0.15194999650702812, 0.15209999764920212, 0.1517000018793624, 0.1541500023449771, 0.152900000102818, 0.15434999659191817, 0.15234999955282547, 0.15010000061010942, 0.15025000175228342, 0.1496499971835874, 0.15039999925647862, 0.17079999815905467, 0.15080000230227597, 0.1506000007793773, 0.1520000005257316, 0.1535500050522387, 0.15160000475589186, 0.1518499993835576, 0.1545999984955415, 0.15139999959501438, 0.15365000581368804, 0.15020000137155876, 0.15239999993355013, 0.15365000217570923, 0.15379999967990443, 0.1491999973950442, 0.1508999994257465, 0.15020000137155876, 0.15100000018719584, 0.16940000205067918, 0.15800000255694613, 0.14984999506850727, 0.1594500063220039, 0.1614499997231178, 0.15169999824138358, 0.15810000331839547, 0.1580500029376708, 0.1588000013725832, 0.15169999824138358, 0.15084999904502183, 0.15070000517880544, 0.1501500009908341, 0.15079999866429716, 0.15049999637994915, 0.1496500008215662, 0.15159999747993425, 0.15264999819919467, 0.15049999637994915, 0.15440000424860045, 0.16709999908925965, 0.1578499941388145, 0.15544999769190326, 0.15314999836846255, 0.19954999515903182, 0.15205000090645626, 0.15110000458662398, 0.15299999722628854, 0.15125000209081918, 0.1517000018793624, 0.1516499978606589, 0.1506000007793773, 0.16044999938458204, 0.14959999680286273, 0.14984999506850727, 0.149049999890849, 0.14969999756431207, 0.1501500009908341, 0.14939999891794287, 0.16245000006165355, 0.1535500014142599, 0.15600000187987462, 0.15954999980749562, 0.1552499998069834, 0.15070000154082663, 0.1535500014142599, 0.15184999574557878, 0.15175000226008706, 0.1506000044173561, 0.15115000132936984, 0.15559999883407727, 0.15035000251373276, 0.15055000039865263, 0.1644000003580004, 0.15305000124499202, 0.1510500005679205, 0.1522999991721008, 0.15335000352934003, 0.15205000090645626, 0.1521499980299268, 0.152449996676296, 0.15839999832678586, 0.1513499955763109, 0.15204999726847745, 0.15284999972209334, 0.1542999962111935, 0.1580500029376708, 0.15775000065332279, 0.1588000013725832, 0.1531000016257167, 0.15160000475589186, 0.15039999925647862, 0.16015000437619165, 0.15204999726847745, 0.15854999946895987, 0.15329999587265775, 0.16569999570492655, 0.15165000149863772, 0.15314999836846255, 0.1507500019215513, 0.1516499978606589, 0.16320000213454477, 0.15654999879188836, 0.2598999999463558, 0.27925000904360786, 0.2498500034562312, 0.15980000171111897, 0.15690000145696104, 0.15800000255694613, 0.15600000187987462, 0.1531000016257167, 0.15180000264081173, 0.15019999773357995, 0.15099999654921703, 0.15234999591484666, 0.15255000471370295, 0.1521500016679056, 0.15530000018770806, 0.1568000043334905, 0.15239999993355013, 0.15295000048354268, 0.16655000217724591, 0.1524500003142748, 0.15070000517880544, 0.1541500023449771, 0.1507499982835725, 0.1517000018793624, 0.15100000018719584, 0.15520000306423753, 0.15439999697264284, 0.15160000111791305, 0.1513499992142897, 0.15179999900283292, 0.1588000013725832, 0.15055000403663144, 0.14980000196374021, 0.15319999874918722, 0.1594499990460463, 0.1530499976070132, 0.16685000446159393, 0.15859999984968454, 0.16154999320860952, 0.15344999701483175, 0.15595000149914995, 0.15284999972209334, 0.15209999764920212, 0.1531000016257167, 0.15189999976428226],
  "Depth": 2.0,
  "Expectation Value": -5.879319667816162,
  "Optimal Expectation Value": -5.893400192260742,
  "Optimizer durations [ms]": [5.016, 4.124, 4.098, 4.391, 4.073, 4.039, 4.343, 4.065, 4.179, 4.033, 4.019, 3.962, 3.898, 3.96, 4.252, 4.051, 3.904, 3.947, 3.998, 4.06, 4.0, 4.131, 4.075, 4.091, 4.11, 4.048, 3.935, 4.331, 4.275, 4.029, 3.948, 4.216, 4.033, 4.201, 3.997, 4.024, 4.104, 3.961, 3.898, 3.94, 3.938, 4.043, 3.907, 3.864, 6.097, 15.336, 8.981, 6.097, 4.377, 4.189, 4.203, 4.18, 4.176, 4.1, 4.308, 4.024, 4.018, 3.983, 4.212, 4.081, 4.027, 4.035, 4.222, 4.113, 4.472, 3.998, 4.11, 4.068, 3.988, 4.102, 3.904, 3.904, 4.003, 4.065, 3.995, 4.029, 4.069, 4.066, 4.032, 4.0, 4.047, 4.023, 4.075, 4.098, 4.039, 4.87, 4.229, 4.181, 4.101, 4.197, 4.088, 4.046, 4.214, 4.043, 4.059, 4.004, 4.02, 4.038, 4.238, 4.182, 4.204, 4.12, 4.165, 4.35, 4.218, 4.074, 4.281, 4.124, 3.937, 3.962, 4.023, 3.994, 4.14, 4.075, 4.073, 4.257, 4.073, 4.018, 4.024, 4.123, 4.047, 4.076, 4.097, 4.05, 4.064, 4.281, 4.051, 8.221, 4.057, 4.005, 3.901, 3.962, 3.903, 4.302, 4.528, 4.117, 4.308, 3.923, 4.557, 3.991, 5.227, 4.431, 4.154, 4.041, 4.176, 3.927, 3.958, 4.214, 4.138, 4.016, 4.062, 4.127, 4.096, 4.035, 4.115, 4.179, 4.21, 4.098, 3.98, 3.999, 3.935, 3.898, 3.882, 3.944, 4.184, 4.214, 4.593, 4.214, 4.318, 4.037, 4.003, 4.004, 4.017, 3.982, 4.176, 3.997, 4.047, 4.087, 4.267, 4.073, 4.013, 4.138, 4.027, 4.021, 4.037, 4.018, 4.027, 4.049, 4.204, 4.387, 4.301, 4.032, 4.025, 4.191, 4.033, 4.029, 4.053, 4.137, 4.033, 4.005, 4.086, 3.941, 3.926, 3.938, 4.292, 4.242, 4.052, 4.079, 4.737, 4.207, 6.108, 13.571, 4.115, 3.98, 3.954, 3.934, 4.125, 4.185, 4.046, 4.025, 4.014, 3.926, 4.067, 3.981, 4.235, 4.094, 4.039, 4.031, 4.97, 3.931, 3.901, 4.213, 4.008, 3.9, 3.987, 4.015, 3.895, 3.894, 3.899, 4.398, 3.963, 3.848, 3.99, 4.194, 4.271, 4.043, 4.203, 4.082, 3.906, 3.987, 4.512, 3.975, 3.892, 3.939, 4.019, 4.035, 4.263, 4.255, 4.778, 3.926, 4.0, 4.056, 4.454, 4.362, 4.052, 4.031, 4.161, 4.03, 4.031, 4.075, 4.414, 4.16, 4.018, 4.337, 4.124, 4.061, 4.026, 3.971, 4.017, 4.028, 4.024, 4.156, 4.079, 4.041, 5.285, 11.033, 15.49, 5.672, 4.373, 4.028, 3.99, 7.334, 4.512, 4.049, 4.008, 4.012, 3.961, 3.98, 4.461, 3.97, 4.031, 4.071, 3.99, 3.969, 4.152, 4.318, 4.174, 4.297, 3.948, 3.929, 3.989, 3.976, 4.128, 4.483, 4.169, 4.054, 4.02, 4.081, 4.072, 4.537, 4.062, 3.996, 3.968, 3.97, 3.98, 3.988, 3.976, 4.025, 4.206, 4.01, 4.109, 3.999, 3.955, 3.931, 3.923, 3.944, 4.204, 3.95, 3.893, 3.978, 4.029, 3.986, 3.989, 4.032, 4.378, 4.217, 4.075, 4.025, 3.989, 4.247, 4.344, 4.543, 4.176, 3.969, 4.185, 3.986, 3.931, 3.952, 4.169, 4.351, 4.527, 4.029, 4.137, 7.126, 4.045, 4.03, 4.297, 4.19, 4.006, 4.255, 4.214, 4.266, 4.581, 4.248, 3.996, 3.914, 4.261, 4.057, 4.175, 3.999, 4.068, 4.157, 4.073, 3.986, 3.999, 3.975, 3.979, 3.968, 4.159, 4.061, 4.169, 4.308, 4.022, 3.998, 4.002, 4.098, 4.036, 4.017, 4.011, 4.291, 4.186, 4.032, 4.019, 4.0, 3.956, 4.015, 3.988, 4.126, 3.976, 3.961, 4.079, 4.286, 4.196, 4.189, 4.42, 4.164, 4.307, 4.065, 4.309, 4.218, 4.162, 4.257, 4.028, 3.935, 4.032, 4.015, 3.917, 3.929, 3.947, 4.001, 3.936, 3.946, 4.24, 4.24, 4.147, 4.257, 4.024, 4.648, 4.554, 4.01, 4.037, 4.116, 4.083, 4.247, 4.355, 4.038, 3.954, 3.938, 4.093, 3.987, 4.257, 3.939, 3.934, 4.169, 4.21, 4.264, 4.924, 17.182, 4.267, 4.065, 6.753, 4.017, 3.954, 4.035, 4.073, 3.974, 3.986, 4.093, 3.984, 4.17, 4.99, 4.133, 4.109, 4.001, 4.039, 3.999, 3.965, 4.556, 4.072, 4.049, 4.064, 4.062, 4.108, 4.087, 3.986, 4.135, 4.06, 3.971, 3.988, 4.071, 4.034, 4.315, 4.178, 4.279, 3.963, 3.962, 4.027, 4.044, 4.008, 3.985, 4.383, 4.168, 3.972, 3.956, 4.058, 3.988, 4.009, 4.199, 4.287, 4.169, 4.0, 3.983, 4.313, 4.34, 4.032, 4.016, 4.148, 4.022, 4.257, 5.449, 7.816, 4.02, 4.171, 4.04, 4.024, 4.021, 6.573, 8.964, 4.092, 4.249, 4.369, 4.567, 7.246, 4.053, 4.035, 4.07, 4.072, 4.046, 4.261, 5.213, 3.962, 3.91, 3.971, 3.963, 3.937, 3.945, 3.994, 6.616, 3.928, 13.078, 3.933, 4.012, 5.29, 4.095, 4.217, 4.31, 4.031, 3.992, 4.138, 4.066, 4.089, 4.171, 4.121, 3.965, 3.915, 4.009, 4.056, 3.941, 5.134, 4.355, 4.024, 3.986, 4.049, 4.125, 4.067, 3.996, 17.269, 3.995, 4.048, 3.978, 4.197, 4.399, 4.037, 4.013, 3.976, 4.071, 7.012, 4.565, 5.177, 4.03, 4.022, 4.501, 3.952, 4.056, 3.969, 3.975, 5.6, 16.975, 10.146, 5.95, 4.497, 4.215, 4.264, 4.093, 4.279, 4.114, 4.039, 4.04, 4.135, 4.189, 4.199, 4.037, 4.124, 4.176, 4.167, 4.305, 4.877, 4.173, 4.03, 4.288, 4.046, 4.431, 4.1, 4.337, 4.023, 4.062, 3.993, 4.174, 4.185, 4.114, 4.099, 4.067, 4.191, 4.151, 4.114, 4.029, 4.109, 4.086, 4.025, 4.068, 4.056, 4.054, 4.496, 3.991, 4.013, 4.027, 4.073, 4.022, 4.002, 4.252, 4.056, 4.173, 4.042, 4.234, 4.237, 4.131, 4.057, 4.343, 4.093, 4.09, 4.453, 4.174, 4.046, 4.291, 4.369, 4.083, 4.219, 4.203, 4.468, 4.065, 4.004, 4.006, 4.054, 4.195, 4.035, 4.943, 16.597, 4.156, 4.075, 4.078, 4.417, 4.278, 4.182, 4.06, 5.001, 4.023, 3.977, 4.058, 3.978, 3.988, 3.998, 4.073, 4.256, 4.01, 4.058, 4.029, 4.024, 4.033, 4.176, 4.46, 4.096, 4.283, 4.241, 4.148, 4.097, 4.123, 4.17, 4.061, 4.023, 4.145, 4.153, 4.116, 4.069, 4.305, 4.094, 4.048, 4.003, 4.059, 4.02, 4.022, 3.997, 4.141, 4.041, 4.01, 4.03, 4.581, 4.156, 4.177, 4.27, 4.099, 4.065, 3.988, 4.214, 4.023, 4.309, 4.069, 4.315, 4.152, 4.254, 4.067, 4.138, 4.256, 4.34, 6.097, 20.632, 6.849, 4.268, 4.281, 4.247, 4.137, 4.149, 4.118, 4.026, 4.048, 4.001, 4.01, 4.0, 4.08, 4.214, 4.084, 4.159, 4.464, 4.101, 4.066, 4.766, 4.014, 4.047, 4.025, 4.203, 4.072, 4.002, 4.047, 4.147, 4.262, 4.061, 4.048, 4.279, 4.321, 4.079, 4.623, 4.343, 4.46, 4.112, 4.134, 4.083, 4.056, 4.125, 4.115],
  "Optimizer iterations": 788,
  "Optimizer params": [0.008659887691584857, 0.500141520608939, 0.9986440366728678, 0.4985523596018712, 0.502430815596983, 0.004335223783981167, 0.5042334618330592, 0.45398312374038613, 0.999062706022511, 0.4959112635646723],
  "P": 0,
  "Problem": "RH",
  "QJob durations [ms]": [0.16449999384349212, 0.1499499994679354, 0.15224999879137613, 0.16084999879240058, 0.1503000021330081, 0.1480999999330379, 0.15925000116112642, 0.14894999912939966, 0.15189999976428226, 0.1477999976486899, 0.1522999991721008, 0.1512000017100945, 0.14960000407882035, 0.14834999819868244, 0.15749999874969944, 0.1496499971835874, 0.14939999891794287, 0.149500003317371, 0.14910000390955247, 0.14704999921377748, 0.14700000247103162, 0.15474999963771552, 0.14769999688724056, 0.15559999883407727, 0.14940000255592167, 0.15264999819919467, 0.14984999870648608, 0.1541499987069983, 0.15395000082207844, 0.14744999862159602, 0.1480999999330379, 0.1524500039522536, 0.14729999747942202, 0.15485000039916486, 0.14709999959450215, 0.1468499976908788, 0.14815000031376258, 0.15010000424808823, 0.14939999527996406, 0.15100000018719584, 0.15039999561849982, 0.15565000649075955, 0.1496500008215662, 0.14924999777576886, 0.2536999963922426, 0.2340499995625578, 0.25069999537663534, 0.20685000345110893, 0.15780000103404745, 0.15264999819919467, 0.15675000031478703, 0.1586500002304092, 0.1538500000606291, 0.14880000162520446, 0.1628499994694721, 0.14690000170958228, 0.1464000015403144, 0.14760000340174884, 0.15484999676118605, 0.1497999983257614, 0.14724999709869735, 0.14739999824087135, 0.156149995746091, 0.14815000031376258, 0.15759999951114878, 0.14874999760650098, 0.1516499978606589, 0.1482499974372331, 0.14819999705650844, 0.1479499987908639, 0.14999999984866008, 0.15034999887575395, 0.14940000255592167, 0.14980000196374021, 0.1472000003559515, 0.14759999612579122, 0.14844999896013178, 0.14844999896013178, 0.1473499978601467, 0.14709999595652334, 0.14815000395174138, 0.1512000017100945, 0.14849999934085645, 0.1510500042058993, 0.14894999912939966, 0.1503000021330081, 0.15225000242935494, 0.1532500027678907, 0.1496499971835874, 0.15320000238716602, 0.1477999976486899, 0.14759999976377003, 0.15714999972260557, 0.14880000162520446, 0.14754999938304536, 0.14755000302102417, 0.14690000170958228, 0.14789999841013923, 0.15284999972209334, 0.1501500046288129, 0.15890000213403255, 0.1504499996372033, 0.15320000238716602, 0.15424999583046883, 0.15485000039916486, 0.14830000145593658, 0.15604999862262048, 0.1569499981997069, 0.1501500009908341, 0.14909999663359486, 0.1472000039939303, 0.14854999972158112, 0.14910000027157366, 0.14755000302102417, 0.15055000039865263, 0.1569500018376857, 0.1473500014981255, 0.14695000209030695, 0.1468499976908788, 0.15440000424860045, 0.14815000031376258, 0.14815000395174138, 0.15044999599922448, 0.1483999985794071, 0.1475000026402995, 0.16124999820021912, 0.15575000361423008, 0.15439999697264284, 0.14769999688724056, 0.14804999955231324, 0.1501500009908341, 0.1493499985372182, 0.14915000065229833, 0.15904999600024894, 0.1597500013303943, 0.14925000505172648, 0.14939999891794287, 0.15010000061010942, 0.18079999790643342, 0.14970000484026968, 0.15719999646535143, 0.15824999718461186, 0.15085000268300064, 0.148899998748675, 0.15735000488348305, 0.1514999967184849, 0.15024999811430462, 0.16254999718512408, 0.15829999756533653, 0.1484500025981106, 0.14954999642213807, 0.15314999473048374, 0.1512000017100945, 0.14834999819868244, 0.152299995534122, 0.15485000039916486, 0.15619999612681568, 0.1505999971413985, 0.14685000496683642, 0.1545999984955415, 0.14954999642213807, 0.14984999870648608, 0.14915000429027714, 0.15239999629557133, 0.15165000149863772, 0.15825000446056947, 0.14754999938304536, 0.15535000420641154, 0.15809999968041666, 0.14834999819868244, 0.1474999990023207, 0.14775000090594403, 0.1473500014981255, 0.1493499985372182, 0.15069999790284783, 0.147149996337248, 0.1482499974372331, 0.14819999705650844, 0.1618999958736822, 0.1501500009908341, 0.14754999938304536, 0.14804999955231324, 0.1482500010752119, 0.14744999862159602, 0.14784999802941456, 0.1478000012866687, 0.14729999747942202, 0.14924999777576886, 0.14865000048303045, 0.15485000403714366, 0.15509999502683058, 0.14774999726796523, 0.1479500024288427, 0.15549999807262793, 0.14835000183666125, 0.14864999684505165, 0.14834999819868244, 0.1504500032751821, 0.14855000335955992, 0.14740000187885016, 0.1476500001444947, 0.1511999980721157, 0.14969999756431207, 0.1496499971835874, 0.1552500034449622, 0.15535000056843273, 0.14874999760650098, 0.1501500046288129, 0.18030000137514435, 0.15530000382568687, 0.25839999216259457, 0.13944999955128878, 0.15330000314861536, 0.15039999925647862, 0.15160000111791305, 0.15124999845284037, 0.1477999976486899, 0.1535499977762811, 0.1475000026402995, 0.14770000052521937, 0.15054999676067382, 0.14965000445954502, 0.14910000390955247, 0.14555000234395266, 0.15770000391057692, 0.15005000022938475, 0.14754999574506655, 0.14760000340174884, 0.14900000314810313, 0.15024999811430462, 0.14929999815649353, 0.15410000196425244, 0.15445000462932512, 0.1499499994679354, 0.15434999659191817, 0.14955000006011687, 0.14970000120229088, 0.14885000200592913, 0.14910000390955247, 0.1621999981580302, 0.15029999849502929, 0.15040000289445743, 0.14804999955231324, 0.15944999540806748, 0.15469999925699085, 0.149049999890849, 0.1534000002720859, 0.15219999841065146, 0.14930000179447234, 0.1499499994679354, 0.1591500040376559, 0.15084999904502183, 0.14974999794503674, 0.14939999891794287, 0.1509000030637253, 0.14834999819868244, 0.15160000111791305, 0.15195000014500692, 0.18700000509852543, 0.15065000116010197, 0.15270000221789815, 0.1558500007377006, 0.15809999604243785, 0.1612999985809438, 0.14914999701431952, 0.14685000132885762, 0.1555499984533526, 0.1473499978601467, 0.14759999976377003, 0.14729999747942202, 0.15269999857991934, 0.15125000209081918, 0.14714999997522682, 0.1642499992158264, 0.15305000124499202, 0.14944999929866754, 0.14880000162520446, 0.1474999990023207, 0.14944999566068873, 0.15014999735285528, 0.14960000044084154, 0.15464999887626618, 0.1509000030637253, 0.15029999849502929, 0.18025000099441968, 0.2706000013859011, 0.2225499993073754, 0.21839999681105837, 0.15490000077988952, 0.15025000175228342, 0.14815000031376258, 0.3265000050305389, 0.16065000090748072, 0.15070000154082663, 0.1522999991721008, 0.1516499978606589, 0.15024999811430462, 0.15035000251373276, 0.15154999709920958, 0.14939999891794287, 0.15020000137155876, 0.1531000052636955, 0.14895000276737846, 0.14929999815649353, 0.1508999994257465, 0.1597500013303943, 0.15490000077988952, 0.15580000035697594, 0.1482499974372331, 0.14804999955231324, 0.14885000200592913, 0.15024999811430462, 0.1521500016679056, 0.16504999803146347, 0.15534999693045393, 0.15249999705702066, 0.15064999752212316, 0.149049999890849, 0.15175000226008706, 0.16645000141579658, 0.1496499971835874, 0.1493499948992394, 0.14869999722577631, 0.14895000276737846, 0.1494999996793922, 0.1494999960414134, 0.14859999646432698, 0.14870000086375512, 0.15640000492567196, 0.14880000162520446, 0.1538500000606291, 0.14844999896013178, 0.14690000170958228, 0.1474999990023207, 0.14644999828306027, 0.14784999802941456, 0.14770000052521937, 0.1479500024288427, 0.14464999549090862, 0.14680000094813295, 0.1508999994257465, 0.148899998748675, 0.1504499996372033, 0.1540000012028031, 0.156299996888265, 0.15474999963771552, 0.1503000021330081, 0.15295000048354268, 0.15159999747993425, 0.158500002726214, 0.16080000204965472, 0.16694999794708565, 0.1552500034449622, 0.14709999959450215, 0.1514999967184849, 0.1493499985372182, 0.1476500001444947, 0.14729999747942202, 0.15859999984968454, 0.1575499991304241, 0.16375000268453732, 0.1499499994679354, 0.14924999777576886, 0.14989999908721074, 0.15115000132936984, 0.15259999781847, 0.15904999600024894, 0.15625000378349796, 0.14865000048303045, 0.1556999995955266, 0.15559999883407727, 0.15544999769190326, 0.1773000039975159, 0.15239999993355013, 0.15130000247154385, 0.1483000050939154, 0.1583499979460612, 0.14989999908721074, 0.15615000302204862, 0.14969999756431207, 0.14990000272518955, 0.15344999701483175, 0.15160000111791305, 0.1520000041637104, 0.15284999972209334, 0.15085000268300064, 0.15080000230227597, 0.1510500005679205, 0.15115000132936984, 0.15139999595703557, 0.15314999836846255, 0.1558500007377006, 0.15020000137155876, 0.14945000293664634, 0.14974999794503674, 0.15435000022989698, 0.14959999680286273, 0.14945000293664634, 0.1489000023866538, 0.15985000209184363, 0.15484999676118605, 0.15024999811430462, 0.15040000289445743, 0.14899999951012433, 0.14690000170958228, 0.1489000023866538, 0.15029999849502929, 0.15034999887575395, 0.1491999973950442, 0.14789999841013923, 0.1474999990023207, 0.1576000031491276, 0.15195000014500692, 0.15500000154133886, 0.1624000033189077, 0.1545999984955415, 0.15555000572931021, 0.15254999743774533, 0.16119999781949446, 0.15535000056843273, 0.1571000029798597, 0.15490000077988952, 0.14999999984866008, 0.1482500010752119, 0.1514999967184849, 0.1520000005257316, 0.1473499978601467, 0.14800000280956738, 0.1478000012866687, 0.15139999959501438, 0.14759999976377003, 0.14744999862159602, 0.1526000014564488, 0.15559999883407727, 0.15334999989136122, 0.15514999540755525, 0.15010000061010942, 0.18244999955641106, 0.17530000332044438, 0.14955000006011687, 0.15005000386736356, 0.15374999929917976, 0.1504500032751821, 0.15460000213352032, 0.15934999828459695, 0.1504500032751821, 0.1513499992142897, 0.14974999794503674, 0.15314999473048374, 0.14880000162520446, 0.1568000006955117, 0.15039999561849982, 0.15020000137155876, 0.15345000429078937, 0.15464999887626618, 0.1491999973950442, 0.1499499958299566, 0.13364999904297292, 0.1571000029798597, 0.15020000137155876, 0.13870000111637637, 0.1507500019215513, 0.1479499987908639, 0.14849999570287764, 0.1513499992142897, 0.15064999752212316, 0.14939999891794287, 0.15225000242935494, 0.14914999701431952, 0.1587999977346044, 0.19940000129281543, 0.14940000255592167, 0.15449999773409218, 0.14960000407882035, 0.14895000276737846, 0.1499499994679354, 0.14869999722577631, 0.17180000577354804, 0.15130000247154385, 0.14755000302102417, 0.15509999502683058, 0.15225000242935494, 0.15239999629557133, 0.15330000314861536, 0.1508999957877677, 0.15219999841065146, 0.15049999637994915, 0.15139999959501438, 0.14884999836795032, 0.15265000183717348, 0.15055000039865263, 0.15699999858043157, 0.15345000065281056, 0.1520000005257316, 0.14924999777576886, 0.14990000272518955, 0.15034999887575395, 0.15139999959501438, 0.1497999983257614, 0.14974999794503674, 0.1552499998069834, 0.15705000259913504, 0.15010000061010942, 0.14849999934085645, 0.15279999934136868, 0.149049999890849, 0.1494999996793922, 0.15800000255694613, 0.15939999866532162, 0.15689999781898223, 0.15210000128718093, 0.14899999951012433, 0.15514999904553406, 0.1597500013303943, 0.1505999971413985, 0.14969999756431207, 0.15519999578827992, 0.14974999794503674, 0.15814999642316252, 0.23689999943599105, 0.15034999887575395, 0.1483999985794071, 0.149500003317371, 0.15024999811430462, 0.15004999659140594, 0.14914999701431952, 0.13564999972004443, 0.1596000001882203, 0.1506000007793773, 0.15430000348715112, 0.15970000094966963, 0.17120000120485201, 0.15239999993355013, 0.15139999959501438, 0.1532500027678907, 0.15065000116010197, 0.1524500003142748, 0.15094999980647117, 0.16089999917312525, 0.15100000382517464, 0.15080000230227597, 0.14944999566068873, 0.15195000378298573, 0.14850000297883525, 0.14784999802941456, 0.14769999688724056, 0.15020000137155876, 0.14789999841013923, 0.1474999990023207, 0.15029999849502929, 0.14770000052521937, 0.15070000154082663, 0.20974999642930925, 0.15240000357152894, 0.15079999866429716, 0.15654999879188836, 0.1510499969299417, 0.1500999969721306, 0.15249999705702066, 0.15115000132936984, 0.15500000154133886, 0.15549999807262793, 0.15715000336058438, 0.15115000132936984, 0.1467000001866836, 0.15025000175228342, 0.1511999980721157, 0.1507500019215513, 0.2079499972751364, 0.15685000107623637, 0.15080000230227597, 0.1504500032751821, 0.15124999845284037, 0.15895000251475722, 0.15205000090645626, 0.1496499971835874, 0.1491999973950442, 0.15094999980647117, 0.14990000272518955, 0.14974999794503674, 0.15005000022938475, 0.15319999874918722, 0.14959999680286273, 0.14815000031376258, 0.1493499985372182, 0.1535499977762811, 0.3138499960186891, 0.15420000272570178, 0.15859999984968454, 0.15100000382517464, 0.1518499993835576, 0.16534999303985387, 0.15055000039865263, 0.1514999967184849, 0.15080000230227597, 0.15174999862210825, 0.23175000023911707, 0.203950003196951, 0.28690000908682123, 0.23599999258294702, 0.1621999981580302, 0.1594499990460463, 0.1581999968038872, 0.15264999819919467, 0.15705000259913504, 0.15375000657513738, 0.15025000175228342, 0.15065000116010197, 0.15425000310642645, 0.15389999680337496, 0.15534999693045393, 0.15365000217570923, 0.15690000145696104, 0.15810000331839547, 0.15824999718461186, 0.15969999367371202, 0.18714999896474183, 0.15469999925699085, 0.152749998960644, 0.15675000031478703, 0.15269999857991934, 0.16169999435078353, 0.15564999921480194, 0.16325000251526944, 0.15150000399444252, 0.15284999972209334, 0.14989999908721074, 0.15590000111842528, 0.1536999989184551, 0.15145000361371785, 0.15124999845284037, 0.15194999650702812, 0.15209999764920212, 0.1517000018793624, 0.1541500023449771, 0.152900000102818, 0.15434999659191817, 0.15234999955282547, 0.15010000061010942, 0.15025000175228342, 0.1496499971835874, 0.15039999925647862, 0.17079999815905467, 0.15080000230227597, 0.1506000007793773, 0.1520000005257316, 0.1535500050522387, 0.15160000475589186, 0.1518499993835576, 0.1545999984955415, 0.15139999959501438, 0.15365000581368804, 0.15020000137155876, 0.15239999993355013, 0.15365000217570923, 0.15379999967990443, 0.1491999973950442, 0.1508999994257465, 0.15020000137155876, 0.15100000018719584, 0.16940000205067918, 0.15800000255694613, 0.14984999506850727, 0.1594500063220039, 0.1614499997231178, 0.15169999824138358, 0.15810000331839547, 0.1580500029376708, 0.1588000013725832, 0.15169999824138358, 0.15084999904502183, 0.15070000517880544, 0.1501500009908341, 0.15079999866429716, 0.15049999637994915, 0.1496500008215662, 0.15159999747993425, 0.15264999819919467, 0.15049999637994915, 0.15440000424860045, 0.16709999908925965, 0.1578499941388145, 0.15544999769190326, 0.15314999836846255, 0.19954999515903182, 0.15205000090645626, 0.15110000458662398, 0.15299999722628854, 0.15125000209081918, 0.1517000018793624, 0.1516499978606589, 0.1506000007793773, 0.16044999938458204, 0.14959999680286273, 0.14984999506850727, 0.149049999890849, 0.14969999756431207, 0.1501500009908341, 0.14939999891794287, 0.16245000006165355, 0.1535500014142599, 0.15600000187987462, 0.15954999980749562, 0.1552499998069834, 0.15070000154082663, 0.1535500014142599, 0.15184999574557878, 0.15175000226008706, 0.1506000044173561, 0.15115000132936984, 0.15559999883407727, 0.15035000251373276, 0.15055000039865263, 0.1644000003580004, 0.15305000124499202, 0.1510500005679205, 0.1522999991721008, 0.15335000352934003, 0.15205000090645626, 0.1521499980299268, 0.152449996676296, 0.15839999832678586, 0.1513499955763109, 0.15204999726847745, 0.15284999972209334, 0.1542999962111935, 0.1580500029376708, 0.15775000065332279, 0.1588000013725832, 0.1531000016257167, 0.15160000475589186, 0.15039999925647862, 0.16015000437619165, 0.15204999726847745, 0.15854999946895987, 0.15329999587265775, 0.16569999570492655, 0.15165000149863772, 0.15314999836846255, 0.1507500019215513, 0.1516499978606589, 0.16320000213454477, 0.15654999879188836, 0.2598999999463558, 0.27925000904360786, 0.2498500034562312, 0.15980000171111897, 0.15690000145696104, 0.15800000255694613, 0.15600000187987462, 0.1531000016257167, 0.15180000264081173, 0.15019999773357995, 0.15099999654921703, 0.15234999591484666, 0.15255000471370295, 0.1521500016679056, 0.15530000018770806, 0.1568000043334905, 0.15239999993355013, 0.15295000048354268, 0.16655000217724591, 0.1524500003142748, 0.15070000517880544, 0.1541500023449771, 0.1507499982835725, 0.1517000018793624, 0.15100000018719584, 0.15520000306423753, 0.15439999697264284, 0.15160000111791305, 0.1513499992142897, 0.15179999900283292, 0.1588000013725832, 0.15055000403663144, 0.14980000196374021, 0.15319999874918722, 0.1594499990460463, 0.1530499976070132, 0.16685000446159393, 0.15859999984968454, 0.16154999320860952, 0.15344999701483175, 0.15595000149914995, 0.15284999972209334, 0.15209999764920212, 0.1531000016257167, 0.15189999976428226],
  "QPU": "7000000",
  "Qubits": 10,
  "Queue durations [ms]": [0.0, 0.0, 0.0, 0.0, 0.0, 0.0, 0.0, 0.0, 0.0, 0.0, 0.0, 0.0, 0.0, 0.0, 0.0, 0.0, 0.0, 0.0, 0.0, 0.0, 0.0, 0.0, 0.0, 0.0, 0.0, 0.0, 0.0, 0.0, 0.0, 0.0, 0.0, 0.0, 0.0, 0.0, 0.0, 0.0, 0.0, 0.0, 0.0, 0.0, 0.0, 0.0, 0.0, 0.0, 0.0, 0.0, 0.0, 0.0, 0.0, 0.0, 0.0, 0.0, 0.0, 0.0, 0.0, 0.0, 0.0, 0.0, 0.0, 0.0, 0.0, 0.0, 0.0, 0.0, 0.0, 0.0, 0.0, 0.0, 0.0, 0.0, 0.0, 0.0, 0.0, 0.0, 0.0, 0.0, 0.0, 0.0, 0.0, 0.0, 0.0, 0.0, 0.0, 0.0, 0.0, 0.0, 0.0, 0.0, 0.0, 0.0, 0.0, 0.0, 0.0, 0.0, 0.0, 0.0, 0.0, 0.0, 0.0, 0.0, 0.0, 0.0, 0.0, 0.0, 0.0, 0.0, 0.0, 0.0, 0.0, 0.0, 0.0, 0.0, 0.0, 0.0, 0.0, 0.0, 0.0, 0.0, 0.0, 0.0, 0.0, 0.0, 0.0, 0.0, 0.0, 0.0, 0.0, 0.0, 0.0, 0.0, 0.0, 0.0, 0.0, 0.0, 0.0, 0.0, 0.0, 0.0, 0.0, 0.0, 0.0, 0.0, 0.0, 0.0, 0.0, 0.0, 0.0, 0.0, 0.0, 0.0, 0.0, 0.0, 0.0, 0.0, 0.0, 0.0, 0.0, 0.0, 0.0, 0.0, 0.0, 0.0, 0.0, 0.0, 0.0, 0.0, 0.0, 0.0, 0.0, 0.0, 0.0, 0.0, 0.0, 0.0, 0.0, 0.0, 0.0, 0.0, 0.0, 0.0, 0.0, 0.0, 0.0, 0.0, 0.0, 0.0, 0.0, 0.0, 0.0, 0.0, 0.0, 0.0, 0.0, 0.0, 0.0, 0.0, 0.0, 0.0, 0.0, 0.0, 0.0, 0.0, 0.0, 0.0, 0.0, 0.0, 0.0, 0.0, 0.0, 0.0, 0.0, 0.0, 0.0, 0.0, 0.0, 0.0, 0.0, 0.0, 0.0, 0.0, 0.0, 0.0, 0.0, 0.0, 0.0, 0.0, 0.0, 0.0, 0.0, 0.0, 0.0, 0.0, 0.0, 0.0, 0.0, 0.0, 0.0, 0.0, 0.0, 0.0, 0.0, 0.0, 0.0, 0.0, 0.0, 0.0, 0.0, 0.0, 0.0, 0.0, 0.0, 0.0, 0.0, 0.0, 0.0, 0.0, 0.0, 0.0, 0.0, 0.0, 0.0, 0.0, 0.0, 0.0, 0.0, 0.0, 0.0, 0.0, 0.0, 0.0, 0.0, 0.0, 0.0, 0.0, 0.0, 0.0, 0.0, 0.0, 0.0, 0.0, 0.0, 0.0, 0.0, 0.0, 0.0, 0.0, 0.0, 0.0, 0.0, 0.0, 0.0, 0.0, 0.0, 0.0, 0.0, 0.0, 0.0, 0.0, 0.0, 0.0, 0.0, 0.0, 0.0, 0.0, 0.0, 0.0, 0.0, 0.0, 0.0, 0.0, 0.0, 0.0, 0.0, 0.0, 0.0, 0.0, 0.0, 0.0, 0.0, 0.0, 0.0, 0.0, 0.0, 0.0, 0.0, 0.0, 0.0, 0.0, 0.0, 0.0, 0.0, 0.0, 0.0, 0.0, 0.0, 0.0, 0.0, 0.0, 0.0, 0.0, 0.0, 0.0, 0.0, 0.0, 0.0, 0.0, 0.0, 0.0, 0.0, 0.0, 0.0, 0.0, 0.0, 0.0, 0.0, 0.0, 0.0, 0.0, 0.0, 0.0, 0.0, 0.0, 0.0, 0.0, 0.0, 0.0, 0.0, 0.0, 0.0, 0.0, 0.0, 0.0, 0.0, 0.0, 0.0, 0.0, 0.0, 0.0, 0.0, 0.0, 0.0, 0.0, 0.0, 0.0, 0.0, 0.0, 0.0, 0.0, 0.0, 0.0, 0.0, 0.0, 0.0, 0.0, 0.0, 0.0, 0.0, 0.0, 0.0, 0.0, 0.0, 0.0, 0.0, 0.0, 0.0, 0.0, 0.0, 0.0, 0.0, 0.0, 0.0, 0.0, 0.0, 0.0, 0.0, 0.0, 0.0, 0.0, 0.0, 0.0, 0.0, 0.0, 0.0, 0.0, 0.0, 0.0, 0.0, 0.0, 0.0, 0.0, 0.0, 0.0, 0.0, 0.0, 0.0, 0.0, 0.0, 0.0, 0.0, 0.0, 0.0, 0.0, 0.0, 0.0, 0.0, 0.0, 0.0, 0.0, 0.0, 0.0, 0.0, 0.0, 0.0, 0.0, 0.0, 0.0, 0.0, 0.0, 0.0, 0.0, 0.0, 0.0, 0.0, 0.0, 0.0, 0.0, 0.0, 0.0, 0.0, 0.0, 0.0, 0.0, 0.0, 0.0, 0.0, 0.0, 0.0, 0.0, 0.0, 0.0, 0.0, 0.0, 0.0, 0.0, 0.0, 0.0, 0.0, 0.0, 0.0, 0.0, 0.0, 0.0, 0.0, 0.0, 0.0, 0.0, 0.0, 0.0, 0.0, 0.0, 0.0, 0.0, 0.0, 0.0, 0.0, 0.0, 0.0, 0.0, 0.0, 0.0, 0.0, 0.0, 0.0, 0.0, 0.0, 0.0, 0.0, 0.0, 0.0, 0.0, 0.0, 0.0, 0.0, 0.0, 0.0, 0.0, 0.0, 0.0, 0.0, 0.0, 0.0, 0.0, 0.0, 0.0, 0.0, 0.0, 0.0, 0.0, 0.0, 0.0, 0.0, 0.0, 0.0, 0.0, 0.0, 0.0, 0.0, 0.0, 0.0, 0.0, 0.0, 0.0, 0.0, 0.0, 0.0, 0.0, 0.0, 0.0, 0.0, 0.0, 0.0, 0.0, 0.0, 0.0, 0.0, 0.0, 0.0, 0.0, 0.0, 0.0, 0.0, 0.0, 0.0, 0.0, 0.0, 0.0, 0.0, 0.0, 0.0, 0.0, 0.0, 0.0, 0.0, 0.0, 0.0, 0.0, 0.0, 0.0, 0.0, 0.0, 0.0, 0.0, 0.0, 0.0, 0.0, 0.0, 0.0, 0.0, 0.0, 0.0, 0.0, 0.0, 0.0, 0.0, 0.0, 0.0, 0.0, 0.0, 0.0, 0.0, 0.0, 0.0, 0.0, 0.0, 0.0, 0.0, 0.0, 0.0, 0.0, 0.0, 0.0, 0.0, 0.0, 0.0, 0.0, 0.0, 0.0, 0.0, 0.0, 0.0, 0.0, 0.0, 0.0, 0.0, 0.0, 0.0, 0.0, 0.0, 0.0, 0.0, 0.0, 0.0, 0.0, 0.0, 0.0, 0.0, 0.0, 0.0, 0.0, 0.0, 0.0, 0.0, 0.0, 0.0, 0.0, 0.0, 0.0, 0.0, 0.0, 0.0, 0.0, 0.0, 0.0, 0.0, 0.0, 0.0, 0.0, 0.0, 0.0, 0.0, 0.0, 0.0, 0.0, 0.0, 0.0, 0.0, 0.0, 0.0, 0.0, 0.0, 0.0, 0.0, 0.0, 0.0, 0.0, 0.0, 0.0, 0.0, 0.0, 0.0, 0.0, 0.0, 0.0, 0.0, 0.0, 0.0, 0.0, 0.0, 0.0, 0.0, 0.0, 0.0, 0.0, 0.0, 0.0, 0.0, 0.0, 0.0, 0.0, 0.0, 0.0, 0.0, 0.0, 0.0, 0.0, 0.0, 0.0, 0.0, 0.0, 0.0, 0.0, 0.0, 0.0, 0.0, 0.0, 0.0, 0.0, 0.0, 0.0, 0.0, 0.0, 0.0, 0.0, 0.0, 0.0, 0.0, 0.0, 0.0, 0.0, 0.0, 0.0, 0.0, 0.0, 0.0, 0.0, 0.0, 0.0, 0.0, 0.0, 0.0, 0.0, 0.0, 0.0, 0.0, 0.0, 0.0, 0.0, 0.0, 0.0, 0.0, 0.0, 0.0, 0.0, 0.0, 0.0, 0.0, 0.0, 0.0, 0.0, 0.0, 0.0, 0.0, 0.0, 0.0, 0.0, 0.0, 0.0, 0.0, 0.0, 0.0, 0.0, 0.0, 0.0, 0.0, 0.0, 0.0, 0.0, 0.0],
  "Shots": 4096,
  "Size": 10,
  "Total Algorithm duration [s]": 3.425,
  "Total Classic duration [s]": 3.302871950044209,
  "Total Quantum duration [s]": 0.12212804995579063
}
