{
  "Circuit execution durations [ms]": [0.1696499966783449, 0.1579000017954968, 0.1566499995533377, 0.1576999966346193, 0.15250000433297828, 0.15225000242935494, 0.15150000035646372, 0.1464000051782932, 0.14944999566068873, 0.1517000018793624, 0.14990000272518955, 0.1490499962528702, 0.14914999701431952, 0.1569499981997069, 0.1479499987908639, 0.14664999980595894, 0.14930000179447234, 0.15919999714242294, 0.148899998748675, 0.1575499991304241, 0.1548000000184402, 0.16134999896166846, 0.1490499962528702, 0.15379999967990443, 0.1478000012866687, 0.1474999990023207, 0.15249999705702066, 0.14689999807160348, 0.148899998748675, 0.1467000001866836, 0.14854999972158112, 0.1500999969721306, 0.16170000162674114, 0.1489000023866538, 0.14914999701431952, 0.1483999985794071, 0.14999999984866008, 0.1482499974372331, 0.14829999781795777, 0.14819999705650844, 0.1629999969736673, 0.14774999726796523, 0.14744999862159602, 0.1474999990023207, 0.15890000213403255, 0.14785000166739337, 0.1474999990023207, 0.15595000149914995, 0.14995000310591422, 0.14910000027157366, 0.149200001033023, 0.25049999385373667, 0.15270000221789815, 0.1499499994679354, 0.15115000132936984, 0.15255000107572414, 0.1521500016679056, 0.15264999819919467, 0.2620999985083472, 0.1521500016679056, 0.20850000146310776, 0.16645000141579658, 0.15374999929917976, 0.26870000147027895, 0.15544999769190326, 0.14984999870648608, 0.1997500039578881, 0.1478000012866687, 0.15269999857991934, 0.15035000251373276, 0.29540000105043873, 0.15604999498464167, 0.154650002514245, 0.21109999943291768, 0.15859999984968454, 0.1496500008215662, 0.25520000417600386, 0.13084999955026433, 0.15110000094864517, 0.14650000230176374, 0.14789999841013923, 0.15279999934136868, 0.15110000458662398, 0.15205000090645626, 0.2611499949125573, 0.15425000310642645, 0.14680000458611175, 0.20094999854336493, 0.15374999929917976, 0.1479500024288427, 0.14769999688724056, 0.1344500014965888, 0.14674999692942947, 0.1512000017100945, 0.1480999999330379, 0.2111000067088753, 0.15210000128718093, 0.15110000094864517, 0.15055000039865263, 0.2917500023613684, 0.15885000175330788, 0.14885000200592913, 0.20524999854387715, 0.15139999959501438, 0.14774999726796523, 0.24235000455519184, 0.1556999995955266, 0.1931000006152317, 0.21750000450992957, 0.15159999747993425, 0.14774999726796523, 0.15160000111791305, 0.15660000281059183, 0.15165000149863772, 0.14974999794503674, 0.1476500001444947, 0.14775000090594403, 0.1473499978601467, 0.14759999976377003, 0.14725000073667616, 0.1545999984955415, 0.14754999574506655, 0.1479500024288427, 0.14990000272518955, 0.15659999917261302, 0.15494999388465658, 0.2245499999844469, 0.14014999760547653, 0.14945000293664634, 0.1487500012444798, 0.14910000390955247, 0.16235000293818302, 0.14879999798722565, 0.14784999802941456, 0.14759999976377003, 0.1490499962528702, 0.14840000221738592, 0.14835000183666125, 0.14619999637943693, 0.14999999621068127, 0.14714999997522682, 0.1538500000606291, 0.14754999938304536, 0.15625000014551915, 0.15319999874918722, 0.15330000314861536, 0.14634999752161093, 0.14534999718307517, 0.14775000090594403, 0.1486000037402846, 0.19844999769702554, 0.15010000061010942, 0.14989999544923194, 0.1499499994679354, 0.15114999769139104, 0.14709999959450215, 0.1473499978601467, 0.1414500002283603, 0.14970000120229088, 0.14774999726796523, 0.14650000230176374, 0.14914999701431952, 0.1554000045871362, 0.14884999836795032, 0.1473499978601467, 0.15729999722680077, 0.15634999726898968, 0.14690000170958228, 0.14885000200592913, 0.15439999697264284, 0.14954999642213807, 0.14675000056740828, 0.14704999557579868, 0.14754999938304536, 0.14774999726796523, 0.1482499974372331, 0.1530499976070132, 0.15279999934136868, 0.1528999964648392, 0.14699999883305281, 0.14729999747942202, 0.15189999976428226, 0.14775000090594403, 0.14730000111740083, 0.1511999980721157, 0.15109999731066637, 0.14895000276737846, 0.1531999951112084, 0.1482500010752119, 0.15279999934136868, 0.15520000306423753, 0.14744999862159602, 0.15775000065332279, 0.1523000028100796, 0.14989999544923194, 0.1493499985372182, 0.146999995195074, 0.14635000115958974, 0.1472000003559515, 0.1542999998491723, 0.1480999962950591, 0.1484500025981106, 0.1491999973950442, 0.1490500035288278, 0.14864999684505165, 0.14695000209030695, 0.15450000137207098, 0.15160000111791305, 0.15669999993406236, 0.15439999697264284, 0.14930000179447234, 0.15330000314861536, 0.1488499947299715, 0.14879999798722565, 0.1493499985372182, 0.14899999951012433, 0.14969999756431207, 0.1489000023866538, 0.1505999971413985, 0.15130000247154385, 0.1504499996372033, 0.15029999849502929, 0.15005000022938475, 0.1505999971413985, 0.1510500005679205, 0.1532500027678907, 0.15720000374130905, 0.1531999951112084, 0.15435000386787578, 0.16619999951217324, 0.1569500018376857],
  "Depth": 2.0,
  "Expectation Value": -5.892985820770264,
  "Optimal Expectation Value": -5.893400192260742,
  "Optimizer durations [ms]": [4.733, 4.369, 4.216, 4.192, 4.059, 4.13, 4.033, 3.877, 3.914, 3.954, 3.909, 3.914, 3.918, 4.119, 4.056, 4.042, 4.033, 4.259, 4.06, 4.411, 4.203, 4.285, 4.084, 4.265, 4.08, 4.057, 4.195, 4.017, 4.104, 4.049, 4.019, 3.97, 4.142, 3.885, 3.878, 3.843, 3.894, 3.866, 4.027, 4.068, 4.631, 4.048, 4.036, 4.035, 4.322, 4.082, 4.045, 4.157, 3.934, 3.879, 3.913, 5.911, 5.006, 3.881, 4.993, 3.995, 3.937, 3.937, 5.905, 11.257, 5.203, 5.088, 4.002, 6.274, 4.459, 4.114, 5.105, 4.118, 4.006, 3.916, 6.694, 4.617, 4.202, 5.272, 4.473, 4.078, 5.813, 11.112, 8.81, 4.015, 5.068, 4.014, 3.964, 3.94, 6.021, 4.265, 4.033, 5.063, 4.543, 4.05, 4.016, 7.1, 14.943, 4.161, 4.021, 5.115, 4.215, 3.948, 3.907, 6.749, 4.482, 4.078, 5.04, 4.177, 4.013, 5.534, 10.1, 12.343, 6.351, 4.364, 4.056, 4.013, 4.07, 4.095, 4.097, 4.026, 4.043, 4.005, 4.038, 4.006, 4.21, 4.027, 4.066, 4.08, 4.186, 4.455, 5.432, 17.649, 3.968, 3.908, 4.034, 4.289, 3.897, 3.901, 3.889, 3.918, 3.89, 3.913, 3.953, 4.053, 3.879, 4.041, 3.905, 4.058, 4.353, 4.27, 4.01, 3.919, 4.065, 4.029, 5.067, 3.962, 3.97, 4.007, 4.045, 4.003, 4.017, 3.897, 4.037, 4.012, 3.977, 3.977, 4.55, 4.123, 4.024, 4.365, 4.346, 4.055, 4.128, 4.113, 4.079, 4.059, 4.012, 4.037, 4.068, 4.072, 4.153, 4.186, 4.183, 4.003, 3.948, 4.001, 3.891, 3.867, 4.036, 4.012, 3.904, 4.199, 4.081, 5.05, 4.377, 4.036, 4.188, 4.023, 4.025, 4.016, 4.018, 4.007, 4.01, 4.241, 4.015, 3.982, 3.917, 3.93, 3.973, 3.856, 4.076, 4.176, 4.388, 4.202, 3.995, 4.029, 3.896, 3.93, 3.934, 3.922, 3.909, 3.92, 3.992, 3.96, 3.956, 3.952, 3.959, 4.127, 4.058, 4.571, 4.107, 4.095, 4.097, 4.491, 4.234],
  "Optimizer iterations": 231,
  "Optimizer params": [0.9998455593625981, 0.49841188811488885, 0.9994422094937687, 0.5039643273491075, 0.497509378988227, 0.9945269764871246, 0.5046940913619349, 0.4992846853476483, 0.004610491229536105, 0.5049188667605685],
  "P": 0,
  "Problem": "RH",
  "QJob durations [ms]": [0.1696499966783449, 0.1579000017954968, 0.1566499995533377, 0.1576999966346193, 0.15250000433297828, 0.15225000242935494, 0.15150000035646372, 0.1464000051782932, 0.14944999566068873, 0.1517000018793624, 0.14990000272518955, 0.1490499962528702, 0.14914999701431952, 0.1569499981997069, 0.1479499987908639, 0.14664999980595894, 0.14930000179447234, 0.15919999714242294, 0.148899998748675, 0.1575499991304241, 0.1548000000184402, 0.16134999896166846, 0.1490499962528702, 0.15379999967990443, 0.1478000012866687, 0.1474999990023207, 0.15249999705702066, 0.14689999807160348, 0.148899998748675, 0.1467000001866836, 0.14854999972158112, 0.1500999969721306, 0.16170000162674114, 0.1489000023866538, 0.14914999701431952, 0.1483999985794071, 0.14999999984866008, 0.1482499974372331, 0.14829999781795777, 0.14819999705650844, 0.1629999969736673, 0.14774999726796523, 0.14744999862159602, 0.1474999990023207, 0.15890000213403255, 0.14785000166739337, 0.1474999990023207, 0.15595000149914995, 0.14995000310591422, 0.14910000027157366, 0.149200001033023, 0.25049999385373667, 0.15270000221789815, 0.1499499994679354, 0.15115000132936984, 0.15255000107572414, 0.1521500016679056, 0.15264999819919467, 0.2620999985083472, 0.1521500016679056, 0.20850000146310776, 0.16645000141579658, 0.15374999929917976, 0.26870000147027895, 0.15544999769190326, 0.14984999870648608, 0.1997500039578881, 0.1478000012866687, 0.15269999857991934, 0.15035000251373276, 0.29540000105043873, 0.15604999498464167, 0.154650002514245, 0.21109999943291768, 0.15859999984968454, 0.1496500008215662, 0.25520000417600386, 0.13084999955026433, 0.15110000094864517, 0.14650000230176374, 0.14789999841013923, 0.15279999934136868, 0.15110000458662398, 0.15205000090645626, 0.2611499949125573, 0.15425000310642645, 0.14680000458611175, 0.20094999854336493, 0.15374999929917976, 0.1479500024288427, 0.14769999688724056, 0.1344500014965888, 0.14674999692942947, 0.1512000017100945, 0.1480999999330379, 0.2111000067088753, 0.15210000128718093, 0.15110000094864517, 0.15055000039865263, 0.2917500023613684, 0.15885000175330788, 0.14885000200592913, 0.20524999854387715, 0.15139999959501438, 0.14774999726796523, 0.24235000455519184, 0.1556999995955266, 0.1931000006152317, 0.21750000450992957, 0.15159999747993425, 0.14774999726796523, 0.15160000111791305, 0.15660000281059183, 0.15165000149863772, 0.14974999794503674, 0.1476500001444947, 0.14775000090594403, 0.1473499978601467, 0.14759999976377003, 0.14725000073667616, 0.1545999984955415, 0.14754999574506655, 0.1479500024288427, 0.14990000272518955, 0.15659999917261302, 0.15494999388465658, 0.2245499999844469, 0.14014999760547653, 0.14945000293664634, 0.1487500012444798, 0.14910000390955247, 0.16235000293818302, 0.14879999798722565, 0.14784999802941456, 0.14759999976377003, 0.1490499962528702, 0.14840000221738592, 0.14835000183666125, 0.14619999637943693, 0.14999999621068127, 0.14714999997522682, 0.1538500000606291, 0.14754999938304536, 0.15625000014551915, 0.15319999874918722, 0.15330000314861536, 0.14634999752161093, 0.14534999718307517, 0.14775000090594403, 0.1486000037402846, 0.19844999769702554, 0.15010000061010942, 0.14989999544923194, 0.1499499994679354, 0.15114999769139104, 0.14709999959450215, 0.1473499978601467, 0.1414500002283603, 0.14970000120229088, 0.14774999726796523, 0.14650000230176374, 0.14914999701431952, 0.1554000045871362, 0.14884999836795032, 0.1473499978601467, 0.15729999722680077, 0.15634999726898968, 0.14690000170958228, 0.14885000200592913, 0.15439999697264284, 0.14954999642213807, 0.14675000056740828, 0.14704999557579868, 0.14754999938304536, 0.14774999726796523, 0.1482499974372331, 0.1530499976070132, 0.15279999934136868, 0.1528999964648392, 0.14699999883305281, 0.14729999747942202, 0.15189999976428226, 0.14775000090594403, 0.14730000111740083, 0.1511999980721157, 0.15109999731066637, 0.14895000276737846, 0.1531999951112084, 0.1482500010752119, 0.15279999934136868, 0.15520000306423753, 0.14744999862159602, 0.15775000065332279, 0.1523000028100796, 0.14989999544923194, 0.1493499985372182, 0.146999995195074, 0.14635000115958974, 0.1472000003559515, 0.1542999998491723, 0.1480999962950591, 0.1484500025981106, 0.1491999973950442, 0.1490500035288278, 0.14864999684505165, 0.14695000209030695, 0.15450000137207098, 0.15160000111791305, 0.15669999993406236, 0.15439999697264284, 0.14930000179447234, 0.15330000314861536, 0.1488499947299715, 0.14879999798722565, 0.1493499985372182, 0.14899999951012433, 0.14969999756431207, 0.1489000023866538, 0.1505999971413985, 0.15130000247154385, 0.1504499996372033, 0.15029999849502929, 0.15005000022938475, 0.1505999971413985, 0.1510500005679205, 0.1532500027678907, 0.15720000374130905, 0.1531999951112084, 0.15435000386787578, 0.16619999951217324, 0.1569500018376857],
  "QPU": "7000000",
  "Qubits": 10,
  "Queue durations [ms]": [0.0, 0.0, 0.0, 0.0, 0.0, 0.0, 0.0, 0.0, 0.0, 0.0, 0.0, 0.0, 0.0, 0.0, 0.0, 0.0, 0.0, 0.0, 0.0, 0.0, 0.0, 0.0, 0.0, 0.0, 0.0, 0.0, 0.0, 0.0, 0.0, 0.0, 0.0, 0.0, 0.0, 0.0, 0.0, 0.0, 0.0, 0.0, 0.0, 0.0, 0.0, 0.0, 0.0, 0.0, 0.0, 0.0, 0.0, 0.0, 0.0, 0.0, 0.0, 0.0, 0.0, 0.0, 0.0, 0.0, 0.0, 0.0, 0.0, 0.0, 0.0, 0.0, 0.0, 0.0, 0.0, 0.0, 0.0, 0.0, 0.0, 0.0, 0.0, 0.0, 0.0, 0.0, 0.0, 0.0, 0.0, 0.0, 0.0, 0.0, 0.0, 0.0, 0.0, 0.0, 0.0, 0.0, 0.0, 0.0, 0.0, 0.0, 0.0, 0.0, 0.0, 0.0, 0.0, 0.0, 0.0, 0.0, 0.0, 0.0, 0.0, 0.0, 0.0, 0.0, 0.0, 0.0, 0.0, 0.0, 0.0, 0.0, 0.0, 0.0, 0.0, 0.0, 0.0, 0.0, 0.0, 0.0, 0.0, 0.0, 0.0, 0.0, 0.0, 0.0, 0.0, 0.0, 0.0, 0.0, 0.0, 0.0, 0.0, 0.0, 0.0, 0.0, 0.0, 0.0, 0.0, 0.0, 0.0, 0.0, 0.0, 0.0, 0.0, 0.0, 0.0, 0.0, 0.0, 0.0, 0.0, 0.0, 0.0, 0.0, 0.0, 0.0, 0.0, 0.0, 0.0, 0.0, 0.0, 0.0, 0.0, 0.0, 0.0, 0.0, 0.0, 0.0, 0.0, 0.0, 0.0, 0.0, 0.0, 0.0, 0.0, 0.0, 0.0, 0.0, 0.0, 0.0, 0.0, 0.0, 0.0, 0.0, 0.0, 0.0, 0.0, 0.0, 0.0, 0.0, 0.0, 0.0, 0.0, 0.0, 0.0, 0.0, 0.0, 0.0, 0.0, 0.0, 0.0, 0.0, 0.0, 0.0, 0.0, 0.0, 0.0, 0.0, 0.0, 0.0, 0.0, 0.0, 0.0, 0.0, 0.0, 0.0, 0.0, 0.0, 0.0, 0.0, 0.0, 0.0, 0.0, 0.0, 0.0, 0.0, 0.0, 0.0, 0.0, 0.0, 0.0, 0.0, 0.0],
  "Shots": 4096,
  "Size": 10,
  "Total Algorithm duration [s]": 1.034,
  "Total Classic duration [s]": 0.9976906500600162,
  "Total Quantum duration [s]": 0.036309349939983804
}
