{
  "Circuit execution durations [ms]": [0.1631499981158413, 0.17534999642521143, 0.15279999934136868, 0.15130000247154385, 0.1568000006955117, 0.15550000534858555, 0.1584999990882352, 0.15345000429078937, 0.14895000276737846, 0.14784999802941456, 0.15390000044135377, 0.19049999900744297, 0.14955000006011687, 0.1476500037824735, 0.15109999367268756, 0.1507500019215513, 0.14754999938304536, 0.1476499965065159, 0.1475000026402995, 0.14924999777576886, 0.14874999760650098, 0.15434999659191817, 0.14849999934085645, 0.15279999934136868, 0.1479499987908639, 0.14789999841013923, 0.14784999802941456, 0.1500999969721306, 0.14844999896013178, 0.1518499993835576, 0.15579999671899714, 0.15854999946895987, 0.1534000002720859, 0.1568000006955117, 0.15720000374130905, 0.15305000488297082, 0.15854999946895987, 0.15084999904502183, 0.14899999951012433, 0.14944999929866754, 0.14860000010230578, 0.14969999756431207, 0.1487500012444798, 0.14899999951012433, 0.1511999980721157, 0.15829999756533653, 0.1520000041637104, 0.14855000335955992, 0.14880000162520446, 0.15139999959501438, 0.14984999870648608, 0.15194999650702812, 0.1489000023866538, 0.1473499978601467, 0.14954999642213807, 0.14849999570287764, 0.16525000319234096, 0.15490000077988952, 0.15474999963771552, 0.15345000429078937, 0.14910000027157366, 0.14894999912939966, 0.14974999794503674, 0.14759999976377003, 0.14820000069448724, 0.14849999934085645, 0.1475000026402995, 0.14630000077886507, 0.15020000137155876, 0.1473499978601467, 0.14680000094813295, 0.14630000077886507, 0.14869999722577631, 0.20094999490538612, 0.14620000001741573, 0.1594499990460463, 0.1487500012444798, 0.1476500037824735, 0.1480999999330379, 0.1509000030637253, 0.14820000069448724, 0.1483999985794071, 0.14589999773306772, 0.14789999841013923, 0.14799999553360976, 0.14730000111740083, 0.15690000145696104, 0.1645499942242168, 0.1505999971413985, 0.1484500025981106, 0.1581999968038872, 0.15039999925647862, 0.14945000293664634, 0.2500500013411511, 0.15455000175279565, 0.15100000382517464, 0.14975000158301555, 0.15039999925647862, 0.1572500004840549, 0.1507500019215513, 0.1500999969721306, 0.15039999925647862, 0.154950004798593, 0.15010000061010942, 0.15669999993406236, 0.14939999891794287, 0.14865000048303045, 0.14940000255592167, 0.15214999439194798, 0.14969999756431207, 0.15440000424860045, 0.16030000188038684, 0.1500999969721306, 0.1508999994257465, 0.15350000467151403, 0.14885000200592913, 0.14820000069448724, 0.14829999781795777, 0.1474999990023207, 0.14925000141374767, 0.1500999969721306, 0.15529999654972926, 0.14910000027157366, 0.14969999756431207, 0.149350002175197, 0.15685000107623637, 0.148899998748675, 0.14879999798722565, 0.14910000390955247, 0.152900000102818, 0.14894999549142085, 0.15005000386736356, 0.16209999739658087, 0.15115000496734865, 0.15050000365590677, 0.15485000039916486, 0.17269999807467684, 0.1507500019215513, 0.1503000021330081, 0.14899999951012433, 0.15914999676169828, 0.1482500010752119, 0.14959999680286273, 0.1552499961690046, 0.3538000019034371, 0.1706000039121136, 0.20954999490641057, 0.15330000314861536, 0.1508999994257465, 0.15100000018719584, 0.2706500054046046, 0.1651499987929128, 0.2466000005370006, 0.15770000027259812, 0.1507500019215513, 0.1367999975627754, 0.15064999752212316, 0.15010000061010942, 0.14929999815649353, 0.14960000044084154, 0.14819999705650844, 0.14645000192103907, 0.27335000049788505, 0.15785000141477212, 0.15085000268300064, 0.20199999562464654, 0.1506000007793773, 0.15144999997573905, 0.22694999643135816, 0.13465000301948749, 0.15100000018719584, 0.14860000010230578, 0.1520000005257316, 0.1497999983257614, 0.14929999815649353, 0.14895000276737846, 0.2692499983822927, 0.1507500019215513, 0.14959999680286273, 0.2028500020969659, 0.14939999891794287, 0.14915000065229833, 0.15039999925647862, 0.1338500042038504, 0.1583499979460612, 0.14974999794503674, 0.15050000001792796, 0.20349999977042899, 0.1510500005679205, 0.1506000044173561, 0.23069999588187784, 0.15110000094864517, 0.14909999663359486, 0.15269999857991934, 0.21765000565210357, 0.15195000014500692, 0.15004999659140594, 0.2712499990593642, 0.17264999769395217, 0.23769999825162813, 0.17769999976735562, 0.18000000272877514, 0.15094999980647117, 0.15085000268300064, 0.17180000577354804, 0.16000000323401764, 0.1571000029798597, 0.15979999807314016, 0.15115000132936984, 0.15005000022938475, 0.15659999917261302, 0.19560000146157108, 0.15034999887575395, 0.15050000365590677, 0.15699999858043157, 0.15824999718461186, 0.1526000014564488, 0.1646999953663908, 0.15669999993406236, 0.1540000048407819, 0.15814999642316252, 0.15299999722628854, 0.15364999853773043, 0.15085000268300064, 0.14969999756431207, 0.16650000179652125, 0.15080000230227597, 0.14990000272518955, 0.15155000073718838, 0.1534000039100647, 0.14770000052521937, 0.1477999976486899, 0.14784999802941456, 0.1573999979882501, 0.1503000021330081, 0.15049999637994915, 0.1507500019215513, 0.15020000137155876, 0.15980000171111897, 0.15305000124499202, 0.15290000374079682, 0.1558500007377006, 0.1535500014142599, 0.15439999697264284, 0.15150000035646372, 0.1508999994257465, 0.14894999912939966, 0.14894999912939966, 0.15485000039916486, 0.14770000052521937, 0.14914999701431952, 0.1539999975648243, 0.16769999638199806, 0.15634999726898968],
  "Depth": 2.0,
  "Expectation Value": -5.8863606452941895,
  "Optimal Expectation Value": -5.893400192260742,
  "Optimizer durations [ms]": [4.622, 4.622, 9.293, 4.041, 4.424, 4.183, 4.206, 4.174, 4.027, 3.967, 4.145, 4.792, 4.096, 3.982, 4.053, 4.063, 3.982, 3.987, 3.99, 4.021, 4.026, 4.094, 3.936, 4.097, 3.985, 4.007, 3.968, 4.269, 4.033, 4.221, 4.257, 4.411, 4.142, 4.408, 4.558, 4.229, 4.41, 4.262, 4.089, 4.022, 4.008, 4.063, 4.007, 4.02, 4.262, 4.269, 4.152, 4.028, 4.025, 4.114, 4.047, 4.178, 4.041, 4.015, 4.082, 3.999, 4.367, 4.102, 4.125, 4.125, 4.03, 4.044, 4.04, 4.006, 4.244, 4.034, 3.956, 3.912, 3.971, 3.92, 3.925, 3.932, 3.942, 4.985, 6.353, 4.26, 4.03, 3.983, 3.997, 4.082, 4.02, 3.984, 3.887, 3.984, 3.949, 3.93, 4.252, 4.507, 3.977, 3.92, 4.356, 4.076, 4.013, 6.049, 15.461, 3.971, 3.91, 3.923, 4.087, 3.953, 3.933, 3.933, 4.087, 4.138, 4.212, 4.009, 4.037, 4.029, 4.046, 4.012, 4.182, 4.422, 4.043, 4.278, 4.198, 3.999, 3.961, 3.945, 3.924, 4.018, 4.015, 4.114, 4.004, 4.015, 3.987, 4.129, 4.025, 4.065, 4.003, 4.089, 3.987, 4.002, 4.36, 4.166, 4.151, 4.248, 4.663, 4.031, 4.033, 3.991, 4.178, 4.035, 4.145, 4.22, 7.759, 4.78, 5.289, 4.136, 4.022, 3.948, 6.042, 10.98, 5.903, 4.433, 4.044, 7.193, 4.091, 4.035, 5.052, 4.004, 3.932, 3.879, 6.375, 4.367, 4.051, 5.025, 4.063, 4.03, 5.243, 17.311, 4.084, 3.988, 4.15, 5.03, 4.004, 4.032, 6.213, 4.137, 4.007, 5.055, 4.028, 4.025, 4.009, 6.714, 16.514, 3.989, 3.962, 5.214, 4.317, 4.018, 5.625, 4.791, 3.993, 4.124, 5.191, 4.369, 4.071, 6.389, 16.857, 6.938, 4.965, 4.625, 4.077, 4.026, 4.558, 4.43, 4.198, 4.31, 4.034, 3.987, 4.16, 4.878, 4.126, 4.027, 4.225, 4.295, 4.137, 4.429, 4.12, 4.09, 4.278, 4.155, 4.242, 7.178, 3.991, 4.349, 4.043, 4.005, 4.136, 4.101, 3.909, 3.949, 3.904, 4.18, 3.993, 3.931, 3.985, 4.071, 4.323, 4.125, 4.145, 4.275, 4.131, 4.159, 4.165, 4.005, 3.944, 3.987, 4.111, 3.955, 3.965, 4.141, 4.459, 4.195],
  "Optimizer iterations": 254,
  "Optimizer params": [0.9921172817293665, 0.5020370273091456, 0.025641771455452017, 0.5067971948610535, 0.4997281559694451, 0.9914696556959156, 0.4964971777187958, 0.4858697727877616, 0.9983180598380844, 0.5007561510488983],
  "P": 0,
  "Problem": "RH",
  "QJob durations [ms]": [0.1631499981158413, 0.17534999642521143, 0.15279999934136868, 0.15130000247154385, 0.1568000006955117, 0.15550000534858555, 0.1584999990882352, 0.15345000429078937, 0.14895000276737846, 0.14784999802941456, 0.15390000044135377, 0.19049999900744297, 0.14955000006011687, 0.1476500037824735, 0.15109999367268756, 0.1507500019215513, 0.14754999938304536, 0.1476499965065159, 0.1475000026402995, 0.14924999777576886, 0.14874999760650098, 0.15434999659191817, 0.14849999934085645, 0.15279999934136868, 0.1479499987908639, 0.14789999841013923, 0.14784999802941456, 0.1500999969721306, 0.14844999896013178, 0.1518499993835576, 0.15579999671899714, 0.15854999946895987, 0.1534000002720859, 0.1568000006955117, 0.15720000374130905, 0.15305000488297082, 0.15854999946895987, 0.15084999904502183, 0.14899999951012433, 0.14944999929866754, 0.14860000010230578, 0.14969999756431207, 0.1487500012444798, 0.14899999951012433, 0.1511999980721157, 0.15829999756533653, 0.1520000041637104, 0.14855000335955992, 0.14880000162520446, 0.15139999959501438, 0.14984999870648608, 0.15194999650702812, 0.1489000023866538, 0.1473499978601467, 0.14954999642213807, 0.14849999570287764, 0.16525000319234096, 0.15490000077988952, 0.15474999963771552, 0.15345000429078937, 0.14910000027157366, 0.14894999912939966, 0.14974999794503674, 0.14759999976377003, 0.14820000069448724, 0.14849999934085645, 0.1475000026402995, 0.14630000077886507, 0.15020000137155876, 0.1473499978601467, 0.14680000094813295, 0.14630000077886507, 0.14869999722577631, 0.20094999490538612, 0.14620000001741573, 0.1594499990460463, 0.1487500012444798, 0.1476500037824735, 0.1480999999330379, 0.1509000030637253, 0.14820000069448724, 0.1483999985794071, 0.14589999773306772, 0.14789999841013923, 0.14799999553360976, 0.14730000111740083, 0.15690000145696104, 0.1645499942242168, 0.1505999971413985, 0.1484500025981106, 0.1581999968038872, 0.15039999925647862, 0.14945000293664634, 0.2500500013411511, 0.15455000175279565, 0.15100000382517464, 0.14975000158301555, 0.15039999925647862, 0.1572500004840549, 0.1507500019215513, 0.1500999969721306, 0.15039999925647862, 0.154950004798593, 0.15010000061010942, 0.15669999993406236, 0.14939999891794287, 0.14865000048303045, 0.14940000255592167, 0.15214999439194798, 0.14969999756431207, 0.15440000424860045, 0.16030000188038684, 0.1500999969721306, 0.1508999994257465, 0.15350000467151403, 0.14885000200592913, 0.14820000069448724, 0.14829999781795777, 0.1474999990023207, 0.14925000141374767, 0.1500999969721306, 0.15529999654972926, 0.14910000027157366, 0.14969999756431207, 0.149350002175197, 0.15685000107623637, 0.148899998748675, 0.14879999798722565, 0.14910000390955247, 0.152900000102818, 0.14894999549142085, 0.15005000386736356, 0.16209999739658087, 0.15115000496734865, 0.15050000365590677, 0.15485000039916486, 0.17269999807467684, 0.1507500019215513, 0.1503000021330081, 0.14899999951012433, 0.15914999676169828, 0.1482500010752119, 0.14959999680286273, 0.1552499961690046, 0.3538000019034371, 0.1706000039121136, 0.20954999490641057, 0.15330000314861536, 0.1508999994257465, 0.15100000018719584, 0.2706500054046046, 0.1651499987929128, 0.2466000005370006, 0.15770000027259812, 0.1507500019215513, 0.1367999975627754, 0.15064999752212316, 0.15010000061010942, 0.14929999815649353, 0.14960000044084154, 0.14819999705650844, 0.14645000192103907, 0.27335000049788505, 0.15785000141477212, 0.15085000268300064, 0.20199999562464654, 0.1506000007793773, 0.15144999997573905, 0.22694999643135816, 0.13465000301948749, 0.15100000018719584, 0.14860000010230578, 0.1520000005257316, 0.1497999983257614, 0.14929999815649353, 0.14895000276737846, 0.2692499983822927, 0.1507500019215513, 0.14959999680286273, 0.2028500020969659, 0.14939999891794287, 0.14915000065229833, 0.15039999925647862, 0.1338500042038504, 0.1583499979460612, 0.14974999794503674, 0.15050000001792796, 0.20349999977042899, 0.1510500005679205, 0.1506000044173561, 0.23069999588187784, 0.15110000094864517, 0.14909999663359486, 0.15269999857991934, 0.21765000565210357, 0.15195000014500692, 0.15004999659140594, 0.2712499990593642, 0.17264999769395217, 0.23769999825162813, 0.17769999976735562, 0.18000000272877514, 0.15094999980647117, 0.15085000268300064, 0.17180000577354804, 0.16000000323401764, 0.1571000029798597, 0.15979999807314016, 0.15115000132936984, 0.15005000022938475, 0.15659999917261302, 0.19560000146157108, 0.15034999887575395, 0.15050000365590677, 0.15699999858043157, 0.15824999718461186, 0.1526000014564488, 0.1646999953663908, 0.15669999993406236, 0.1540000048407819, 0.15814999642316252, 0.15299999722628854, 0.15364999853773043, 0.15085000268300064, 0.14969999756431207, 0.16650000179652125, 0.15080000230227597, 0.14990000272518955, 0.15155000073718838, 0.1534000039100647, 0.14770000052521937, 0.1477999976486899, 0.14784999802941456, 0.1573999979882501, 0.1503000021330081, 0.15049999637994915, 0.1507500019215513, 0.15020000137155876, 0.15980000171111897, 0.15305000124499202, 0.15290000374079682, 0.1558500007377006, 0.1535500014142599, 0.15439999697264284, 0.15150000035646372, 0.1508999994257465, 0.14894999912939966, 0.14894999912939966, 0.15485000039916486, 0.14770000052521937, 0.14914999701431952, 0.1539999975648243, 0.16769999638199806, 0.15634999726898968],
  "QPU": "7000000",
  "Qubits": 10,
  "Queue durations [ms]": [0.0, 0.0, 0.0, 0.0, 0.0, 0.0, 0.0, 0.0, 0.0, 0.0, 0.0, 0.0, 0.0, 0.0, 0.0, 0.0, 0.0, 0.0, 0.0, 0.0, 0.0, 0.0, 0.0, 0.0, 0.0, 0.0, 0.0, 0.0, 0.0, 0.0, 0.0, 0.0, 0.0, 0.0, 0.0, 0.0, 0.0, 0.0, 0.0, 0.0, 0.0, 0.0, 0.0, 0.0, 0.0, 0.0, 0.0, 0.0, 0.0, 0.0, 0.0, 0.0, 0.0, 0.0, 0.0, 0.0, 0.0, 0.0, 0.0, 0.0, 0.0, 0.0, 0.0, 0.0, 0.0, 0.0, 0.0, 0.0, 0.0, 0.0, 0.0, 0.0, 0.0, 0.0, 0.0, 0.0, 0.0, 0.0, 0.0, 0.0, 0.0, 0.0, 0.0, 0.0, 0.0, 0.0, 0.0, 0.0, 0.0, 0.0, 0.0, 0.0, 0.0, 0.0, 0.0, 0.0, 0.0, 0.0, 0.0, 0.0, 0.0, 0.0, 0.0, 0.0, 0.0, 0.0, 0.0, 0.0, 0.0, 0.0, 0.0, 0.0, 0.0, 0.0, 0.0, 0.0, 0.0, 0.0, 0.0, 0.0, 0.0, 0.0, 0.0, 0.0, 0.0, 0.0, 0.0, 0.0, 0.0, 0.0, 0.0, 0.0, 0.0, 0.0, 0.0, 0.0, 0.0, 0.0, 0.0, 0.0, 0.0, 0.0, 0.0, 0.0, 0.0, 0.0, 0.0, 0.0, 0.0, 0.0, 0.0, 0.0, 0.0, 0.0, 0.0, 0.0, 0.0, 0.0, 0.0, 0.0, 0.0, 0.0, 0.0, 0.0, 0.0, 0.0, 0.0, 0.0, 0.0, 0.0, 0.0, 0.0, 0.0, 0.0, 0.0, 0.0, 0.0, 0.0, 0.0, 0.0, 0.0, 0.0, 0.0, 0.0, 0.0, 0.0, 0.0, 0.0, 0.0, 0.0, 0.0, 0.0, 0.0, 0.0, 0.0, 0.0, 0.0, 0.0, 0.0, 0.0, 0.0, 0.0, 0.0, 0.0, 0.0, 0.0, 0.0, 0.0, 0.0, 0.0, 0.0, 0.0, 0.0, 0.0, 0.0, 0.0, 0.0, 0.0, 0.0, 0.0, 0.0, 0.0, 0.0, 0.0, 0.0, 0.0, 0.0, 0.0, 0.0, 0.0, 0.0, 0.0, 0.0, 0.0, 0.0, 0.0, 0.0, 0.0, 0.0, 0.0, 0.0, 0.0, 0.0, 0.0, 0.0, 0.0, 0.0, 0.0, 0.0, 0.0, 0.0, 0.0, 0.0, 0.0],
  "Shots": 4096,
  "Size": 10,
  "Total Algorithm duration [s]": 1.148,
  "Total Classic duration [s]": 1.1078206500122614,
  "Total Quantum duration [s]": 0.04017934998773853
}
