{
  "Circuit execution durations [ms]": [0.16645000141579658, 0.16305000463034958, 0.15285000336007215, 0.15270000221789815, 0.15254999743774533, 0.1579000017954968, 0.1523000028100796, 0.15025000175228342, 0.15320000238716602, 0.1542999998491723, 0.15169999824138358, 0.15100000382517464, 0.15054999676067382, 0.15219999841065146, 0.15094999980647117, 0.14960000044084154, 0.15330000314861536, 0.15095000344444998, 0.15080000230227597, 0.15125000209081918, 0.15055000039865263, 0.15184999574557878, 0.15150000035646372, 0.14804999955231324, 0.15689999781898223, 0.1522999991721008, 0.16364999828510918, 0.15249999705702066, 0.15845000234548934, 0.15095000344444998, 0.14960000044084154, 0.1510500042058993, 0.15379999967990443, 0.15239999993355013, 0.1509000030637253, 0.15070000154082663, 0.15010000061010942, 0.15129999883356504, 0.15484999676118605, 0.15295000048354268, 0.15159999747993425, 0.15165000149863772, 0.15144999997573905, 0.15505000192206353, 0.15809999604243785, 0.15725000412203372, 0.15775000065332279, 0.15685000107623637, 0.15140000323299319, 0.1508999994257465, 0.1500999969721306, 0.15144999997573905, 0.1507500019215513, 0.15179999900283292, 0.15259999781847, 0.15574999997625127, 0.1545999984955415, 0.15515000268351287, 0.15050000001792796, 0.1552500034449622, 0.15110000458662398, 0.15169999824138358, 0.15144999633776024, 0.1517000018793624, 0.1516499978606589, 0.1523000028100796, 0.15270000221789815, 0.15130000247154385, 0.15470000653294846, 0.152449996676296, 0.1552500034449622, 0.15174999862210825, 0.15154999709920958, 0.15115000132936984, 0.1523000028100796, 0.15039999561849982, 0.15110000458662398, 0.15195000014500692, 0.15360000543296337, 0.1527500025986228, 0.16585000048507936, 0.15654999879188836, 0.15590000111842528, 0.15115000132936984, 0.15290000374079682, 0.15419999544974416, 0.15269999857991934, 0.15209999764920212, 0.15359999815700576, 0.1983499969355762, 0.15549999807262793, 0.15309999798773788, 0.15619999612681568, 0.15110000458662398, 0.14959999680286273, 0.15040000289445743, 0.15084999904502183, 0.15890000213403255, 0.15965000056894496, 0.16194999625440687, 0.16134999896166846, 0.1505999971413985, 0.14990000272518955, 0.13659999967785552, 0.2718499963521026, 0.17405000107828528, 0.1588000013725832, 0.15430000348715112, 0.152900000102818, 0.15440000424860045, 0.15425000310642645, 0.15380000331788324, 0.1579000017954968, 0.15299999722628854, 0.1558500007377006, 0.1521499980299268, 0.15235000319080427, 0.1522999991721008, 0.15624999650754035, 0.15529999654972926, 0.15474999963771552, 0.15339999663410708, 0.1518500030215364, 0.1527500025986228, 0.15320000238716602, 0.16075000166893005, 0.1604999997653067, 0.1524500039522536, 0.15334999989136122, 0.18219999765278772, 0.15364999853773043, 0.15204999726847745, 0.15160000111791305, 0.16399999731220305, 0.1507499982835725, 0.15745000200695358, 0.15560000247205608, 0.15375000657513738, 0.15114999769139104, 0.1508999994257465, 0.1538500000606291, 0.15305000124499202, 0.15239999629557133, 0.15169999824138358, 0.1598999951966107, 0.15499999790336005, 0.15319999874918722, 0.1594499990460463, 0.15334999625338241, 0.16065000454545952, 0.15835000158404, 0.16714999946998432, 0.1580500029376708, 0.15210000128718093, 0.14925000141374767, 0.1531999951112084, 0.1521499980299268, 0.15130000247154385, 0.15065000116010197, 0.15315000200644135, 0.14959999680286273, 0.1504499996372033, 0.1514999967184849],
  "Depth": 2.0,
  "Expectation Value": -4.223554611206055,
  "Optimal Expectation Value": -5.893400192260742,
  "Optimizer durations [ms]": [4.77, 4.497, 4.055, 4.04, 4.038, 4.289, 4.029, 3.996, 4.029, 4.1, 4.053, 4.015, 3.972, 4.065, 3.977, 3.988, 4.092, 4.036, 3.986, 4.012, 4.02, 4.066, 4.006, 3.979, 4.154, 4.154, 4.464, 4.047, 4.146, 3.981, 4.021, 3.985, 4.169, 4.096, 4.009, 4.018, 4.046, 4.0, 4.139, 4.069, 4.049, 4.064, 4.032, 4.121, 4.185, 4.188, 4.286, 4.252, 4.078, 4.03, 3.962, 4.492, 4.032, 4.156, 4.079, 4.253, 4.389, 4.132, 3.993, 4.199, 4.03, 4.042, 4.078, 4.039, 4.003, 4.053, 4.029, 3.992, 4.303, 4.137, 4.11, 4.025, 4.039, 4.038, 4.062, 4.046, 4.093, 4.134, 4.109, 4.121, 4.333, 4.19, 4.103, 4.0, 4.049, 4.085, 4.005, 4.016, 4.078, 5.281, 4.249, 4.11, 4.204, 4.092, 4.037, 4.045, 4.084, 4.583, 4.429, 4.827, 4.437, 4.096, 4.033, 7.095, 17.765, 5.129, 4.419, 4.063, 4.047, 4.044, 4.167, 4.134, 4.257, 4.046, 4.125, 4.034, 4.016, 4.037, 4.101, 4.19, 4.161, 4.038, 4.021, 4.019, 4.054, 4.22, 4.449, 4.055, 4.064, 4.704, 4.096, 4.007, 4.001, 4.452, 4.05, 4.172, 4.093, 4.204, 4.04, 4.041, 4.235, 4.067, 4.061, 4.031, 4.213, 4.061, 4.046, 4.389, 4.028, 4.309, 4.233, 4.463, 4.243, 4.099, 4.026, 4.031, 4.002, 4.002, 3.993, 4.045, 4.013, 3.998, 4.01],
  "Optimizer iterations": 163,
  "Optimizer params": [0.004831766316832065, 0.973079293166318, 0.995677889995141, 0.5031451578147486, 0.502232396006639, 0.9993562693565203, 0.4959984705099411, 0.49616584715285184, 0.02047194869642063, 0.4964513742121936],
  "P": 0,
  "Problem": "RH",
  "QJob durations [ms]": [0.16645000141579658, 0.16305000463034958, 0.15285000336007215, 0.15270000221789815, 0.15254999743774533, 0.1579000017954968, 0.1523000028100796, 0.15025000175228342, 0.15320000238716602, 0.1542999998491723, 0.15169999824138358, 0.15100000382517464, 0.15054999676067382, 0.15219999841065146, 0.15094999980647117, 0.14960000044084154, 0.15330000314861536, 0.15095000344444998, 0.15080000230227597, 0.15125000209081918, 0.15055000039865263, 0.15184999574557878, 0.15150000035646372, 0.14804999955231324, 0.15689999781898223, 0.1522999991721008, 0.16364999828510918, 0.15249999705702066, 0.15845000234548934, 0.15095000344444998, 0.14960000044084154, 0.1510500042058993, 0.15379999967990443, 0.15239999993355013, 0.1509000030637253, 0.15070000154082663, 0.15010000061010942, 0.15129999883356504, 0.15484999676118605, 0.15295000048354268, 0.15159999747993425, 0.15165000149863772, 0.15144999997573905, 0.15505000192206353, 0.15809999604243785, 0.15725000412203372, 0.15775000065332279, 0.15685000107623637, 0.15140000323299319, 0.1508999994257465, 0.1500999969721306, 0.15144999997573905, 0.1507500019215513, 0.15179999900283292, 0.15259999781847, 0.15574999997625127, 0.1545999984955415, 0.15515000268351287, 0.15050000001792796, 0.1552500034449622, 0.15110000458662398, 0.15169999824138358, 0.15144999633776024, 0.1517000018793624, 0.1516499978606589, 0.1523000028100796, 0.15270000221789815, 0.15130000247154385, 0.15470000653294846, 0.152449996676296, 0.1552500034449622, 0.15174999862210825, 0.15154999709920958, 0.15115000132936984, 0.1523000028100796, 0.15039999561849982, 0.15110000458662398, 0.15195000014500692, 0.15360000543296337, 0.1527500025986228, 0.16585000048507936, 0.15654999879188836, 0.15590000111842528, 0.15115000132936984, 0.15290000374079682, 0.15419999544974416, 0.15269999857991934, 0.15209999764920212, 0.15359999815700576, 0.1983499969355762, 0.15549999807262793, 0.15309999798773788, 0.15619999612681568, 0.15110000458662398, 0.14959999680286273, 0.15040000289445743, 0.15084999904502183, 0.15890000213403255, 0.15965000056894496, 0.16194999625440687, 0.16134999896166846, 0.1505999971413985, 0.14990000272518955, 0.13659999967785552, 0.2718499963521026, 0.17405000107828528, 0.1588000013725832, 0.15430000348715112, 0.152900000102818, 0.15440000424860045, 0.15425000310642645, 0.15380000331788324, 0.1579000017954968, 0.15299999722628854, 0.1558500007377006, 0.1521499980299268, 0.15235000319080427, 0.1522999991721008, 0.15624999650754035, 0.15529999654972926, 0.15474999963771552, 0.15339999663410708, 0.1518500030215364, 0.1527500025986228, 0.15320000238716602, 0.16075000166893005, 0.1604999997653067, 0.1524500039522536, 0.15334999989136122, 0.18219999765278772, 0.15364999853773043, 0.15204999726847745, 0.15160000111791305, 0.16399999731220305, 0.1507499982835725, 0.15745000200695358, 0.15560000247205608, 0.15375000657513738, 0.15114999769139104, 0.1508999994257465, 0.1538500000606291, 0.15305000124499202, 0.15239999629557133, 0.15169999824138358, 0.1598999951966107, 0.15499999790336005, 0.15319999874918722, 0.1594499990460463, 0.15334999625338241, 0.16065000454545952, 0.15835000158404, 0.16714999946998432, 0.1580500029376708, 0.15210000128718093, 0.14925000141374767, 0.1531999951112084, 0.1521499980299268, 0.15130000247154385, 0.15065000116010197, 0.15315000200644135, 0.14959999680286273, 0.1504499996372033, 0.1514999967184849],
  "QPU": "7000000",
  "Qubits": 10,
  "Queue durations [ms]": [0.0, 0.0, 0.0, 0.0, 0.0, 0.0, 0.0, 0.0, 0.0, 0.0, 0.0, 0.0, 0.0, 0.0, 0.0, 0.0, 0.0, 0.0, 0.0, 0.0, 0.0, 0.0, 0.0, 0.0, 0.0, 0.0, 0.0, 0.0, 0.0, 0.0, 0.0, 0.0, 0.0, 0.0, 0.0, 0.0, 0.0, 0.0, 0.0, 0.0, 0.0, 0.0, 0.0, 0.0, 0.0, 0.0, 0.0, 0.0, 0.0, 0.0, 0.0, 0.0, 0.0, 0.0, 0.0, 0.0, 0.0, 0.0, 0.0, 0.0, 0.0, 0.0, 0.0, 0.0, 0.0, 0.0, 0.0, 0.0, 0.0, 0.0, 0.0, 0.0, 0.0, 0.0, 0.0, 0.0, 0.0, 0.0, 0.0, 0.0, 0.0, 0.0, 0.0, 0.0, 0.0, 0.0, 0.0, 0.0, 0.0, 0.0, 0.0, 0.0, 0.0, 0.0, 0.0, 0.0, 0.0, 0.0, 0.0, 0.0, 0.0, 0.0, 0.0, 0.0, 0.0, 0.0, 0.0, 0.0, 0.0, 0.0, 0.0, 0.0, 0.0, 0.0, 0.0, 0.0, 0.0, 0.0, 0.0, 0.0, 0.0, 0.0, 0.0, 0.0, 0.0, 0.0, 0.0, 0.0, 0.0, 0.0, 0.0, 0.0, 0.0, 0.0, 0.0, 0.0, 0.0, 0.0, 0.0, 0.0, 0.0, 0.0, 0.0, 0.0, 0.0, 0.0, 0.0, 0.0, 0.0, 0.0, 0.0, 0.0, 0.0, 0.0, 0.0, 0.0, 0.0, 0.0, 0.0, 0.0, 0.0, 0.0, 0.0],
  "Shots": 4096,
  "Size": 10,
  "Total Algorithm duration [s]": 0.69,
  "Total Classic duration [s]": 0.6647509999615431,
  "Total Quantum duration [s]": 0.02524900003845687
}
