{
  "Circuit execution durations [ms]": [0.17474999913247302, 0.15970000094966963, 0.16294999659294263, 0.15375000293715857, 0.15675000031478703, 0.15239999629557133, 0.15174999862210825, 0.14999999621068127, 0.15509999502683058, 0.1507500019215513, 0.1507499982835725, 0.1507500019215513, 0.1529500041215215, 0.1551000023027882, 0.15454999811481684, 0.15225000242935494, 0.1520000005257316, 0.1507500019215513, 0.15085000268300064, 0.15109999731066637, 0.15080000230227597, 0.15039999925647862, 0.1506000007793773, 0.15159999747993425, 0.148899998748675, 0.15564999921480194, 0.15555000572931021, 0.15264999819919467, 0.15239999993355013, 0.15139999959501438, 0.15155000073718838, 0.15359999815700576, 0.15070000154082663, 0.14984999870648608, 0.16365000192308798, 0.15460000577149913, 0.14954999642213807, 0.15259999781847, 0.15320000238716602, 0.15980000171111897, 0.15985000209184363, 0.15875000099185854, 0.1645500015001744, 0.14954999642213807, 0.14969999756431207, 0.1497999983257614, 0.1517999953648541, 0.1517000018793624, 0.15070000154082663, 0.24120000307448208, 0.14519999967887998, 0.13479999688570388, 0.13514999955077656, 0.16560000221943483, 0.15779999375808984, 0.15689999781898223, 0.16139999934239313, 0.152299995534122, 0.15464999887626618, 0.16544999743928201, 0.15255000107572414, 0.1528999964648392, 0.1510500005679205, 0.1531000016257167, 0.15729999722680077, 0.15094999616849236, 0.15035000251373276, 0.1535499977762811, 0.15285000336007215, 0.1542999962111935, 0.15284999972209334, 0.15669999993406236, 0.1800500031094998, 0.15174999862210825, 0.15454999811481684, 0.15190000340226106, 0.15500000154133886, 0.1507500019215513, 0.1535499977762811, 0.15890000213403255, 0.1534000039100647, 0.1579000017954968, 0.16340000001946464, 0.1514999967184849, 0.15305000124499202, 0.15885000175330788, 0.15490000077988952, 0.15240000357152894, 0.15175000226008706, 0.20230000518495217, 0.15255000107572414, 0.16139999934239313, 0.15474999963771552, 0.15279999934136868, 0.14989999908721074, 0.14999999984866008, 0.14995000310591422, 0.15434999659191817, 0.1510499969299417, 0.14960000044084154, 0.22905000878381543, 0.15980000171111897, 0.22980000358074903, 0.15900000289548188, 0.1551000023027882, 0.1569500018376857, 0.15704999532317743, 0.1569500018376857, 0.15580000399495475, 0.1586500002304092, 0.15580000035697594, 0.1519999968877528, 0.1520000005257316, 0.15174999862210825, 0.15615000302204862, 0.15069999790284783, 0.1600500036147423, 0.16355000479961745, 0.15320000238716602, 0.15249999705702066, 0.1563500009069685, 0.1555499984533526, 0.15150000035646372, 0.16125000183819793, 0.15254999743774533, 0.15420000272570178, 0.16294999659294263, 0.15234999591484666, 0.1518499993835576, 0.16134999896166846, 0.15234999955282547, 0.1506000007793773, 0.19700000120792538, 0.1505999971413985, 0.1499499958299566, 0.15154999709920958, 0.14974999794503674, 0.14980000196374021, 0.1494999996793922, 0.15485000039916486, 0.1506000007793773, 0.16664999566273764, 0.1528999964648392, 0.15139999959501438, 0.15019999773357995, 0.1526000014564488, 0.1492000046710018, 0.15189999976428226, 0.14870000086375512, 0.1530499976070132, 0.15224999879137613, 0.15255000471370295, 0.15145000361371785, 0.15619999976479448, 0.16179999511223286, 0.15255000107572414, 0.1512000017100945, 0.15319999874918722, 0.15689999418100342, 0.15334999625338241, 0.15565000649075955, 0.1520000041637104, 0.17145000310847536, 0.15715000336058438, 0.15129999883356504, 0.15115000132936984, 0.2363500025239773, 0.1375499996356666, 0.1526000014564488, 0.15169999824138358, 0.15379999967990443, 0.15299999722628854, 0.1542999998491723, 0.15365000581368804, 0.1506000007793773, 0.1568000006955117, 0.15224999879137613, 0.1530499976070132, 0.16260000120382756, 0.15055000039865263, 0.15639999764971435, 0.15049999637994915, 0.16434999997727573, 0.15014999735285528, 0.15125000209081918, 0.1535500014142599, 0.1538500000606291, 0.14900000314810313, 0.15654999879188836, 0.15549999807262793, 0.15070000154082663, 0.14804999591433443, 0.15094999616849236, 0.1518499993835576, 0.15095000344444998, 0.1614500033610966, 0.1509000030637253, 0.1500000034866389, 0.15329999587265775, 0.16110000069602393, 0.15279999934136868, 0.1530499976070132, 0.15070000154082663, 0.17934999777935445, 0.15144999997573905, 0.15194999650702812, 0.1572499968460761, 0.15100000382517464, 0.15124999845284037, 0.14984999870648608, 0.14980000196374021, 0.149500003317371, 0.1518499993835576, 0.15020000137155876, 0.14970000120229088, 0.15029999849502929, 0.15519999578827992, 0.15615000302204862, 0.17284999921685085, 0.1517000018793624, 0.15970000094966963, 0.1555500020913314, 0.1500999969721306, 0.14940000255592167, 0.14924999777576886, 0.15010000424808823, 0.14910000390955247, 0.1496500008215662, 0.1508999994257465, 0.15550000171060674, 0.15220000204863027, 0.15065000116010197, 0.15300000086426735, 0.15985000209184363, 0.15019999773357995, 0.14770000052521937, 0.1552499998069834, 0.16155000048456714, 0.14954999642213807, 0.14980000196374021, 0.15110000094864517, 0.1550999986648094, 0.15550000534858555, 0.1569499945617281, 0.1579000017954968, 0.15630000052624382, 0.15145000361371785, 0.15010000061010942, 0.15154999709920958, 0.1520000005257316, 0.14965000445954502, 0.15109999731066637, 0.149200001033023, 0.14880000162520446, 0.15750000238767825, 0.15874999735387973, 0.15135000285226852, 0.1479500024288427, 0.14680000094813295, 0.15020000137155876, 0.14854999972158112, 0.1479499987908639, 0.1634500004001893, 0.1562000034027733, 0.15284999972209334, 0.1552499961690046, 0.1596000001882203, 0.15154999709920958, 0.156299996888265, 0.15314999836846255],
  "Depth": 2.0,
  "Expectation Value": -5.890707492828369,
  "Optimal Expectation Value": -5.893400192260742,
  "Optimizer durations [ms]": [5.134, 4.224, 4.329, 4.054, 4.128, 4.056, 4.02, 3.96, 4.053, 3.955, 3.987, 4.236, 4.028, 4.189, 4.21, 4.073, 4.03, 3.964, 4.042, 3.973, 4.001, 3.993, 3.958, 4.114, 4.01, 4.236, 4.199, 4.023, 4.006, 4.012, 4.202, 4.276, 4.069, 4.048, 4.389, 4.215, 4.049, 4.108, 4.129, 4.237, 4.254, 4.204, 4.293, 3.967, 3.95, 4.115, 4.062, 4.023, 3.975, 5.594, 19.666, 22.78, 18.702, 4.556, 4.313, 4.249, 4.284, 4.152, 4.077, 4.492, 4.062, 4.019, 4.04, 4.048, 4.232, 4.039, 4.154, 4.119, 4.034, 4.058, 4.039, 4.131, 4.586, 4.124, 4.17, 4.151, 4.106, 3.979, 4.062, 4.242, 4.046, 4.15, 4.34, 4.064, 4.19, 4.292, 4.172, 4.018, 4.001, 5.084, 4.436, 4.423, 4.106, 4.138, 4.053, 4.018, 4.032, 4.105, 4.032, 3.997, 5.299, 22.801, 6.509, 4.451, 4.121, 4.109, 4.451, 4.245, 4.263, 4.248, 4.152, 4.01, 4.009, 4.035, 4.105, 3.898, 4.36, 4.353, 4.052, 4.02, 4.275, 4.202, 4.021, 4.356, 4.068, 4.153, 4.45, 4.229, 4.496, 4.32, 4.147, 4.045, 4.984, 4.087, 4.073, 4.083, 4.974, 4.431, 4.023, 4.118, 4.117, 4.384, 4.031, 3.99, 3.973, 4.06, 4.016, 4.1, 4.005, 4.135, 4.023, 4.181, 3.991, 4.193, 4.368, 4.057, 3.983, 4.095, 4.114, 4.029, 4.148, 4.235, 4.589, 4.113, 4.008, 3.995, 5.583, 14.06, 4.09, 4.063, 4.107, 4.172, 4.156, 4.087, 4.053, 4.251, 4.092, 4.166, 4.459, 4.016, 4.365, 4.39, 4.849, 4.062, 4.076, 4.059, 8.136, 3.961, 4.184, 4.435, 4.077, 4.184, 4.273, 4.11, 4.014, 4.211, 4.059, 3.98, 4.072, 4.369, 4.104, 4.187, 4.078, 4.832, 4.184, 4.244, 4.196, 4.074, 4.066, 4.03, 4.038, 4.032, 4.143, 4.091, 4.082, 4.052, 4.17, 4.189, 4.512, 4.039, 4.426, 4.172, 4.063, 4.003, 4.015, 4.034, 4.032, 4.096, 4.049, 4.5, 4.048, 3.983, 4.075, 4.188, 4.063, 4.024, 4.137, 4.874, 4.05, 4.043, 4.047, 4.331, 4.241, 4.277, 4.227, 4.138, 4.039, 4.028, 4.084, 4.16, 4.013, 4.117, 4.012, 3.995, 4.169, 4.232, 4.095, 4.009, 4.018, 4.025, 4.003, 4.0, 4.494, 4.289, 4.149, 4.258, 4.263, 4.078, 4.229, 4.096],
  "Optimizer iterations": 270,
  "Optimizer params": [0.0013783486700000474, 0.4971388938155774, 0.9954270872898092, 0.5022814933657216, 0.4982834939611034, 0.9968957023608433, 0.485416348610546, 0.5006710710528116, 0.9972892015215783, 0.4986408755707006],
  "P": 0,
  "Problem": "RH",
  "QJob durations [ms]": [0.17474999913247302, 0.15970000094966963, 0.16294999659294263, 0.15375000293715857, 0.15675000031478703, 0.15239999629557133, 0.15174999862210825, 0.14999999621068127, 0.15509999502683058, 0.1507500019215513, 0.1507499982835725, 0.1507500019215513, 0.1529500041215215, 0.1551000023027882, 0.15454999811481684, 0.15225000242935494, 0.1520000005257316, 0.1507500019215513, 0.15085000268300064, 0.15109999731066637, 0.15080000230227597, 0.15039999925647862, 0.1506000007793773, 0.15159999747993425, 0.148899998748675, 0.15564999921480194, 0.15555000572931021, 0.15264999819919467, 0.15239999993355013, 0.15139999959501438, 0.15155000073718838, 0.15359999815700576, 0.15070000154082663, 0.14984999870648608, 0.16365000192308798, 0.15460000577149913, 0.14954999642213807, 0.15259999781847, 0.15320000238716602, 0.15980000171111897, 0.15985000209184363, 0.15875000099185854, 0.1645500015001744, 0.14954999642213807, 0.14969999756431207, 0.1497999983257614, 0.1517999953648541, 0.1517000018793624, 0.15070000154082663, 0.24120000307448208, 0.14519999967887998, 0.13479999688570388, 0.13514999955077656, 0.16560000221943483, 0.15779999375808984, 0.15689999781898223, 0.16139999934239313, 0.152299995534122, 0.15464999887626618, 0.16544999743928201, 0.15255000107572414, 0.1528999964648392, 0.1510500005679205, 0.1531000016257167, 0.15729999722680077, 0.15094999616849236, 0.15035000251373276, 0.1535499977762811, 0.15285000336007215, 0.1542999962111935, 0.15284999972209334, 0.15669999993406236, 0.1800500031094998, 0.15174999862210825, 0.15454999811481684, 0.15190000340226106, 0.15500000154133886, 0.1507500019215513, 0.1535499977762811, 0.15890000213403255, 0.1534000039100647, 0.1579000017954968, 0.16340000001946464, 0.1514999967184849, 0.15305000124499202, 0.15885000175330788, 0.15490000077988952, 0.15240000357152894, 0.15175000226008706, 0.20230000518495217, 0.15255000107572414, 0.16139999934239313, 0.15474999963771552, 0.15279999934136868, 0.14989999908721074, 0.14999999984866008, 0.14995000310591422, 0.15434999659191817, 0.1510499969299417, 0.14960000044084154, 0.22905000878381543, 0.15980000171111897, 0.22980000358074903, 0.15900000289548188, 0.1551000023027882, 0.1569500018376857, 0.15704999532317743, 0.1569500018376857, 0.15580000399495475, 0.1586500002304092, 0.15580000035697594, 0.1519999968877528, 0.1520000005257316, 0.15174999862210825, 0.15615000302204862, 0.15069999790284783, 0.1600500036147423, 0.16355000479961745, 0.15320000238716602, 0.15249999705702066, 0.1563500009069685, 0.1555499984533526, 0.15150000035646372, 0.16125000183819793, 0.15254999743774533, 0.15420000272570178, 0.16294999659294263, 0.15234999591484666, 0.1518499993835576, 0.16134999896166846, 0.15234999955282547, 0.1506000007793773, 0.19700000120792538, 0.1505999971413985, 0.1499499958299566, 0.15154999709920958, 0.14974999794503674, 0.14980000196374021, 0.1494999996793922, 0.15485000039916486, 0.1506000007793773, 0.16664999566273764, 0.1528999964648392, 0.15139999959501438, 0.15019999773357995, 0.1526000014564488, 0.1492000046710018, 0.15189999976428226, 0.14870000086375512, 0.1530499976070132, 0.15224999879137613, 0.15255000471370295, 0.15145000361371785, 0.15619999976479448, 0.16179999511223286, 0.15255000107572414, 0.1512000017100945, 0.15319999874918722, 0.15689999418100342, 0.15334999625338241, 0.15565000649075955, 0.1520000041637104, 0.17145000310847536, 0.15715000336058438, 0.15129999883356504, 0.15115000132936984, 0.2363500025239773, 0.1375499996356666, 0.1526000014564488, 0.15169999824138358, 0.15379999967990443, 0.15299999722628854, 0.1542999998491723, 0.15365000581368804, 0.1506000007793773, 0.1568000006955117, 0.15224999879137613, 0.1530499976070132, 0.16260000120382756, 0.15055000039865263, 0.15639999764971435, 0.15049999637994915, 0.16434999997727573, 0.15014999735285528, 0.15125000209081918, 0.1535500014142599, 0.1538500000606291, 0.14900000314810313, 0.15654999879188836, 0.15549999807262793, 0.15070000154082663, 0.14804999591433443, 0.15094999616849236, 0.1518499993835576, 0.15095000344444998, 0.1614500033610966, 0.1509000030637253, 0.1500000034866389, 0.15329999587265775, 0.16110000069602393, 0.15279999934136868, 0.1530499976070132, 0.15070000154082663, 0.17934999777935445, 0.15144999997573905, 0.15194999650702812, 0.1572499968460761, 0.15100000382517464, 0.15124999845284037, 0.14984999870648608, 0.14980000196374021, 0.149500003317371, 0.1518499993835576, 0.15020000137155876, 0.14970000120229088, 0.15029999849502929, 0.15519999578827992, 0.15615000302204862, 0.17284999921685085, 0.1517000018793624, 0.15970000094966963, 0.1555500020913314, 0.1500999969721306, 0.14940000255592167, 0.14924999777576886, 0.15010000424808823, 0.14910000390955247, 0.1496500008215662, 0.1508999994257465, 0.15550000171060674, 0.15220000204863027, 0.15065000116010197, 0.15300000086426735, 0.15985000209184363, 0.15019999773357995, 0.14770000052521937, 0.1552499998069834, 0.16155000048456714, 0.14954999642213807, 0.14980000196374021, 0.15110000094864517, 0.1550999986648094, 0.15550000534858555, 0.1569499945617281, 0.1579000017954968, 0.15630000052624382, 0.15145000361371785, 0.15010000061010942, 0.15154999709920958, 0.1520000005257316, 0.14965000445954502, 0.15109999731066637, 0.149200001033023, 0.14880000162520446, 0.15750000238767825, 0.15874999735387973, 0.15135000285226852, 0.1479500024288427, 0.14680000094813295, 0.15020000137155876, 0.14854999972158112, 0.1479499987908639, 0.1634500004001893, 0.1562000034027733, 0.15284999972209334, 0.1552499961690046, 0.1596000001882203, 0.15154999709920958, 0.156299996888265, 0.15314999836846255],
  "QPU": "7000000",
  "Qubits": 10,
  "Queue durations [ms]": [0.0, 0.0, 0.0, 0.0, 0.0, 0.0, 0.0, 0.0, 0.0, 0.0, 0.0, 0.0, 0.0, 0.0, 0.0, 0.0, 0.0, 0.0, 0.0, 0.0, 0.0, 0.0, 0.0, 0.0, 0.0, 0.0, 0.0, 0.0, 0.0, 0.0, 0.0, 0.0, 0.0, 0.0, 0.0, 0.0, 0.0, 0.0, 0.0, 0.0, 0.0, 0.0, 0.0, 0.0, 0.0, 0.0, 0.0, 0.0, 0.0, 0.0, 0.0, 0.0, 0.0, 0.0, 0.0, 0.0, 0.0, 0.0, 0.0, 0.0, 0.0, 0.0, 0.0, 0.0, 0.0, 0.0, 0.0, 0.0, 0.0, 0.0, 0.0, 0.0, 0.0, 0.0, 0.0, 0.0, 0.0, 0.0, 0.0, 0.0, 0.0, 0.0, 0.0, 0.0, 0.0, 0.0, 0.0, 0.0, 0.0, 0.0, 0.0, 0.0, 0.0, 0.0, 0.0, 0.0, 0.0, 0.0, 0.0, 0.0, 0.0, 0.0, 0.0, 0.0, 0.0, 0.0, 0.0, 0.0, 0.0, 0.0, 0.0, 0.0, 0.0, 0.0, 0.0, 0.0, 0.0, 0.0, 0.0, 0.0, 0.0, 0.0, 0.0, 0.0, 0.0, 0.0, 0.0, 0.0, 0.0, 0.0, 0.0, 0.0, 0.0, 0.0, 0.0, 0.0, 0.0, 0.0, 0.0, 0.0, 0.0, 0.0, 0.0, 0.0, 0.0, 0.0, 0.0, 0.0, 0.0, 0.0, 0.0, 0.0, 0.0, 0.0, 0.0, 0.0, 0.0, 0.0, 0.0, 0.0, 0.0, 0.0, 0.0, 0.0, 0.0, 0.0, 0.0, 0.0, 0.0, 0.0, 0.0, 0.0, 0.0, 0.0, 0.0, 0.0, 0.0, 0.0, 0.0, 0.0, 0.0, 0.0, 0.0, 0.0, 0.0, 0.0, 0.0, 0.0, 0.0, 0.0, 0.0, 0.0, 0.0, 0.0, 0.0, 0.0, 0.0, 0.0, 0.0, 0.0, 0.0, 0.0, 0.0, 0.0, 0.0, 0.0, 0.0, 0.0, 0.0, 0.0, 0.0, 0.0, 0.0, 0.0, 0.0, 0.0, 0.0, 0.0, 0.0, 0.0, 0.0, 0.0, 0.0, 0.0, 0.0, 0.0, 0.0, 0.0, 0.0, 0.0, 0.0, 0.0, 0.0, 0.0, 0.0, 0.0, 0.0, 0.0, 0.0, 0.0, 0.0, 0.0, 0.0, 0.0, 0.0, 0.0, 0.0, 0.0, 0.0, 0.0, 0.0, 0.0, 0.0, 0.0, 0.0, 0.0, 0.0, 0.0, 0.0, 0.0, 0.0, 0.0, 0.0, 0.0, 0.0, 0.0, 0.0, 0.0, 0.0, 0.0],
  "Shots": 4096,
  "Size": 10,
  "Total Algorithm duration [s]": 1.21,
  "Total Classic duration [s]": 1.1680672499687352,
  "Total Quantum duration [s]": 0.04193275003126473
}
