{
  "Circuit execution durations [ms]": [0.18370000179857016, 0.17115000082412735, 0.15239999629557133, 0.15449999773409218, 0.15019999773357995, 0.149049999890849, 0.1476499965065159, 0.15564999921480194, 0.1517000018793624, 0.14914999701431952, 0.14834999819868244, 0.14929999815649353, 0.1480999999330379, 0.14725000437465496, 0.14820000069448724, 0.1564999984111637, 0.14724999709869735, 0.1501500009908341, 0.1535499977762811, 0.14939999891794287, 0.14894999912939966, 0.14880000162520446, 0.15025000175228342, 0.14909999663359486, 0.14989999908721074, 0.15029999849502929, 0.16015000073821284, 0.15010000061010942, 0.149350002175197, 0.149500003317371, 0.15904999963822775, 0.14894999912939966, 0.1482500010752119, 0.15130000247154385, 0.15294999684556387, 0.15534999693045393, 0.1535500014142599, 0.15035000251373276, 0.14719999671797268, 0.14730000111740083, 0.1473499978601467, 0.1647000026423484, 0.15019999773357995, 0.14974999794503674, 0.15279999934136868, 0.14975000158301555, 0.15175000226008706, 0.15095000344444998, 0.15154999709920958, 0.16214999777730554, 0.15014999735285528, 0.15315000200644135, 0.15135000285226852, 0.20370000129332766, 0.15435000386787578, 0.1480999999330379, 0.15904999963822775, 0.15324999912991188, 0.1491999973950442, 0.14895000276737846, 0.1519999968877528, 0.1472000003559515, 0.14974999794503674, 0.1494999996793922, 0.14914999701431952, 0.14840000221738592, 0.149200001033023, 0.14820000433246605, 0.15324999549193308, 0.1545000050100498, 0.14840000221738592, 0.14929999815649353, 0.14835000183666125, 0.14929999815649353, 0.14849999934085645, 0.14864999684505165, 0.1553999973111786, 0.15129999519558623, 0.15784999777679332, 0.15189999976428226, 0.14804999591433443, 0.15095000344444998, 0.1483999985794071, 0.14799999917158857, 0.1551000023027882, 0.15099999654921703, 0.15189999976428226, 0.15380000331788324, 0.15519999578827992, 0.15195000014500692, 0.15269999857991934, 0.1504499996372033, 0.15305000124499202, 0.14770000052521937, 0.1516499978606589, 0.14695000209030695, 0.14759999976377003, 0.1480999962950591, 0.14759999976377003, 0.15619999612681568, 0.15069999790284783, 0.15655000242986716, 0.14969999756431207, 0.14885000200592913, 0.1490499962528702, 0.1503000021330081, 0.1797500008251518, 0.14664999980595894, 0.1472000003559515, 0.17980000120587647, 0.1494999996793922, 0.1491999973950442, 0.1487500012444798, 0.14924999777576886, 0.15189999612630345, 0.15140000323299319, 0.15334999625338241, 0.1501500009908341, 0.1494999960414134, 0.14850000297883525, 0.15209999764920212, 0.14900000314810313, 0.15500000154133886, 0.14929999815649353, 0.14620000365539454, 0.15055000403663144, 0.14739999824087135, 0.1480999999330379, 0.1496499971835874, 0.14955000006011687, 0.15110000094864517, 0.14804999955231324, 0.26619999698596075, 0.13839999883202836, 0.15224999879137613, 0.14775000090594403, 0.16280000272672623, 0.1482500010752119, 0.16619999951217324, 0.14955000369809568, 0.15044999599922448, 0.14810000357101671, 0.14754999938304536, 0.14680000094813295, 0.14724999709869735, 0.14830000145593658, 0.14740000187885016, 0.14754999938304536, 0.15005000022938475, 0.1476500001444947, 0.14944999929866754, 0.17129999832832254, 0.15154999709920958, 0.14840000221738592, 0.1482499974372331, 0.14754999938304536, 0.14754999574506655, 0.1490500035288278, 0.14944999929866754, 0.15020000137155876, 0.1751000017975457, 0.14930000179447234, 0.1486000037402846, 0.1487500048824586, 0.14894999549142085, 0.14885000200592913, 0.1477999976486899, 0.1524500039522536, 0.14810000357101671, 0.14840000221738592, 0.14775000090594403, 0.1524500039522536, 0.14715000361320563, 0.1473500014981255, 0.1564999984111637, 0.15424999583046883, 0.14944999929866754, 0.14999999621068127, 0.15024999811430462, 0.14759999976377003, 0.1477999976486899, 0.1548000000184402, 0.15485000039916486, 0.1532500027678907, 0.15365000217570923, 0.145800004247576, 0.15445000462932512, 0.14709999959450215, 0.1465500026824884, 0.1572500004840549, 0.14879999798722565, 0.14589999773306772, 0.1473500014981255, 0.14960000044084154, 0.14900000314810313, 0.14695000209030695, 0.14675000056740828, 0.14634999752161093, 0.14675000056740828, 0.15179999900283292, 0.1500999969721306, 0.1552499998069834, 0.15359999815700576, 0.1458000006095972, 0.15070000154082663, 0.1500999969721306, 0.15084999904502183, 0.14974999794503674, 0.14985000234446488, 0.14925000141374767, 0.14730000111740083, 0.14744999862159602, 0.15259999781847, 0.14939999891794287, 0.15024999811430462, 0.14729999747942202, 0.2690500004973728, 0.1541500023449771, 0.1510499969299417, 0.17009999646688811, 0.15735000124550425, 0.14865000412100926, 0.15065000116010197, 0.20334999862825498, 0.15580000035697594, 0.15055000403663144, 0.14990000272518955, 0.14664999980595894, 0.1476500037824735, 0.14820000433246605, 0.14770000052521937, 0.18219999765278772, 0.1503000021330081, 0.15040000289445743, 0.15390000044135377, 0.15580000035697594, 0.15420000272570178, 0.15109999731066637, 0.1643999967200216, 0.14955000006011687, 0.15494999388465658, 0.15430000348715112, 0.1552499998069834, 0.14785000166739337, 0.15150000399444252, 0.1600499963387847, 0.14930000179447234, 0.14995000310591422, 0.14975000158301555, 0.15405000158352777, 0.15039999925647862, 0.14754999574506655, 0.1479500024288427, 0.15674999667680822, 0.14929999815649353, 0.14955000006011687, 0.14930000179447234, 0.210899997910019, 0.1632999992580153, 0.15240000357152894, 0.15174999862210825, 0.1536999989184551, 0.15279999570338987, 0.15234999955282547, 0.20655000480473973, 0.2916000012191944, 0.15174999862210825, 0.15225000242935494, 0.15789999815751798, 0.15269999857991934, 0.15410000196425244, 0.16200000391108915, 0.15324999912991188, 0.16199999663513154, 0.15409999468829483, 0.15320000238716602, 0.15889999849605374, 0.1538500000606291, 0.15319999874918722, 0.15669999993406236, 0.15420000272570178, 0.1496499971835874, 0.13844999921275303, 0.15320000238716602, 0.1491999973950442, 0.22135000472189859, 0.2370999936829321, 0.15900000289548188, 0.1563500045449473, 0.16509999841218814, 0.15529999654972926, 0.15204999726847745, 0.15600000187987462, 0.15260000509442762, 0.15005000022938475, 0.15190000340226106, 0.15084999904502183, 0.15529999654972926, 0.1503000021330081, 0.15979999443516135, 0.15174999862210825, 0.15110000458662398, 0.15035000251373276, 0.14879999798722565, 0.1544499973533675, 0.15509999502683058, 0.1509000030637253, 0.15055000403663144, 0.15110000094864517, 0.15580000035697594, 0.15150000035646372, 0.1504499996372033, 0.15129999883356504, 0.15189999976428226, 0.152900000102818, 0.15205000454443507, 0.15095000344444998, 0.15080000230227597, 0.15315000200644135, 0.15194999650702812, 0.15270000221789815, 0.15085000268300064, 0.167350000992883, 0.15064999752212316, 0.15239999993355013, 0.15404999794554897, 0.1523000028100796, 0.1513499955763109, 0.1849999971454963, 0.1538500000606291, 0.15615000302204862, 0.15254999743774533, 0.1508999994257465, 0.16214999777730554, 0.15099999654921703, 0.15044999599922448, 0.15265000183717348, 0.15345000065281056, 0.15144999633776024, 0.14909999663359486, 0.15010000061010942, 0.1524500003142748, 0.15464999887626618, 0.1524500039522536, 0.1538500000606291, 0.15379999967990443, 0.15484999676118605, 0.16080000204965472, 0.16360000154236332, 0.1594499990460463, 0.15220000204863027, 0.15445000462932512, 0.1540000012028031, 0.15070000154082663, 0.15100000382517464, 0.1529500041215215, 0.1552499961690046, 0.15124999845284037, 0.15305000124499202, 0.1552499998069834, 0.15174999862210825, 0.15155000073718838, 0.1512000017100945, 0.15550000171060674, 0.15144999997573905, 0.15039999925647862, 0.14975000158301555, 0.15050000001792796, 0.1509000030637253, 0.1506000044173561, 0.15050000365590677, 0.1620499970158562, 0.14939999891794287, 0.15564999921480194, 0.15044999599922448, 0.15179999900283292, 0.15175000226008706, 0.15094999980647117, 0.16000000323401764, 0.15844999870751053, 0.1555499984533526, 0.1499499958299566, 0.16569999570492655, 0.15064999752212316, 0.15050000365590677, 0.15559999883407727, 0.1531000016257167, 0.15174999862210825, 0.1531000016257167, 0.15514999904553406, 0.15270000585587695, 0.15365000217570923, 0.15139999959501438, 0.15464999887626618, 0.15145000361371785, 0.1521499980299268, 0.15179999900283292, 0.1613000022189226, 0.15239999993355013, 0.15180000264081173, 0.15024999811430462, 0.1701500004855916, 0.15344999701483175, 0.15160000111791305, 0.15125000209081918, 0.15174999862210825, 0.1520000005257316, 0.15129999883356504, 0.1704500027699396, 0.15379999967990443, 0.1513499992142897, 0.15374999929917976, 0.15345000065281056, 0.1540000012028031, 0.15224999879137613, 0.15319999874918722, 0.1520000005257316, 0.1536999989184551, 0.1534000039100647, 0.15614999938406982, 0.15184999574557878, 0.15130000247154385, 0.15169999824138358, 0.16245000006165355, 0.15175000226008706, 0.18039999849861488, 0.15165000149863772, 0.15295000048354268, 0.15209999764920212, 0.1544499973533675, 0.16060000052675605, 0.1662499998928979, 0.15500000154133886, 0.1510500042058993, 0.16394999693147838, 0.1522999991721008, 0.15050000001792796, 0.1514999967184849, 0.17880000450531952, 0.14864999684505165, 0.2259499960928224, 0.24855000083334744, 0.15280000297934748, 0.15235000319080427, 0.152749998960644, 0.1564999984111637, 0.15615000302204862, 0.1545999984955415, 0.16339999638148583, 0.15350000467151403, 0.17689999731373973, 0.15264999819919467, 0.15644999803043902, 0.15279999934136868, 0.15195000378298573, 0.1545999984955415, 0.15249999705702066, 0.15840000196476467, 0.15859999984968454, 0.15730000450275838, 0.15350000103353523, 0.1516499978606589, 0.15024999811430462, 0.15905000327620655, 0.1532500027678907, 0.15500000154133886, 0.16519999553565867, 0.19470000552246347, 0.15085000268300064, 0.16585000048507936, 0.15379999967990443, 0.1562000034027733, 0.1535499977762811, 0.15064999752212316, 0.1510500042058993, 0.15809999968041666, 0.152749998960644, 0.15129999883356504, 0.15315000200644135, 0.15580000035697594, 0.15885000175330788, 0.167350000992883, 0.15334999989136122, 0.1569499981997069, 0.15904999600024894, 0.1604999997653067, 0.15574999997625127, 0.15454999811481684, 0.15594999786117114, 0.15995000285329297, 0.15919999714242294, 0.15094999980647117, 0.14999999984866008, 0.1500000034866389, 0.14974999794503674, 0.1494999996793922, 0.15500000154133886, 0.15195000378298573, 0.20485000641201623, 0.15729999722680077, 0.1569500018376857, 0.15530000382568687, 0.15139999959501438, 0.15360000179498456, 0.1531000016257167, 0.15610000264132395, 0.15069999790284783, 0.1521499980299268, 0.16789999790489674, 0.15390000044135377, 0.15050000365590677, 0.16864999633980915, 0.15490000441786833, 0.152749998960644, 0.1504499996372033, 0.1506000044173561, 0.1496499971835874, 0.15020000137155876, 0.1509000030637253, 0.15065000116010197, 0.15250000433297828, 0.17190000289701857, 0.15359999815700576, 0.1519999968877528, 0.15224999879137613, 0.1513499992142897, 0.15654999879188836, 0.1534000039100647, 0.15474999963771552, 0.15014999735285528, 0.1494999996793922, 0.15125000209081918, 0.15070000154082663, 0.16125000547617674, 0.1529500041215215, 0.15574999997625127, 0.1556999995955266, 0.20950000180164352, 0.1590999963809736, 0.15425000310642645, 0.15080000230227597, 0.14929999815649353, 0.14850000297883525, 0.1741499982017558, 0.152900000102818, 0.14685000496683642, 0.14645000192103907, 0.146999995195074, 0.14789999477216043, 0.1486000037402846, 0.14759999612579122, 0.14785000166739337, 0.14664999980595894, 0.1551000023027882, 0.14704999557579868, 0.1606499972695019, 0.14874999760650098, 0.14990000272518955, 0.14980000196374021, 0.14834999819868244, 0.15295000048354268, 0.15300000086426735, 0.1491999973950442, 0.15024999811430462, 0.17979999392991886, 0.14910000390955247, 0.14885000200592913, 0.16109999705804512, 0.15014999735285528, 0.14854999972158112, 0.14729999747942202, 0.152299995534122, 0.1497999946877826, 0.14974999794503674, 0.149350002175197, 0.16559999858145602, 0.1462499967601616, 0.15055000403663144, 0.17329999900539406, 0.1473500014981255, 0.14804999955231324, 0.1507499982835725, 0.15144999633776024, 0.14719999671797268, 0.1959000001079403, 0.1513499992142897, 0.15345000065281056, 0.14860000010230578, 0.14635000115958974, 0.1508999994257465, 0.15004999659140594, 0.14784999802941456, 0.1608500024303794, 0.1535499977762811, 0.147149996337248, 0.1476499965065159, 0.14729999747942202, 0.14730000475537963, 0.15659999917261302, 0.1482500010752119, 0.15579999308101833, 0.14944999929866754, 0.17474999913247302, 0.15870000061113387, 0.1484500025981106, 0.1499499958299566, 0.14620000001741573, 0.1534000002720859, 0.152900000102818, 0.1521499980299268, 0.1491999973950442, 0.14719999671797268, 0.14704999921377748, 0.14859999646432698, 0.1592499975231476, 0.17824999667936936, 0.14939999891794287, 0.1540000012028031, 0.1479500024288427, 0.14784999802941456, 0.1476499965065159, 0.15039999925647862, 0.15915000039967708, 0.1480999962950591, 0.14810000357101671, 0.1476499965065159, 0.15654999879188836, 0.15405000158352777, 0.1508999994257465, 0.15259999781847, 0.1470500028517563, 0.15004999659140594, 0.1532500027678907, 0.15669999993406236, 0.1545000050100498, 0.15469999925699085, 0.15999999959603883, 0.15500000154133886, 0.14985000234446488, 0.14819999705650844, 0.14815000031376258, 0.15154999709920958, 0.1478000012866687, 0.149500003317371, 0.14899999951012433, 0.14899999951012433, 0.14899999587214552, 0.1480999999330379, 0.14505000217468478, 0.15729999722680077, 0.1477999976486899, 0.14744999862159602, 0.14804999955231324, 0.15249999705702066, 0.14725000073667616, 0.16929999401327223, 0.14989999908721074, 0.14939999527996406, 0.14965000445954502, 0.14974999794503674, 0.1508999994257465, 0.15345000429078937, 0.14740000187885016, 0.14744999862159602, 0.15005000022938475, 0.14754999574506655, 0.14635000115958974, 0.1467000001866836, 0.1501500009908341, 0.14899999951012433, 0.15425000310642645, 0.15004999659140594, 0.3395999883650802, 0.2755999958026223, 0.2490499973646365, 0.1535500050522387, 0.15040000289445743, 0.15069999790284783, 0.22325000099954195, 0.16165000124601647, 0.15350000467151403, 0.1485499960836023, 0.1506000007793773, 0.1508999957877677, 0.15150000035646372, 0.15339999663410708, 0.15509999502683058, 0.15644999803043902, 0.15759999951114878, 0.15324999549193308, 0.1474999990023207, 0.1596000001882203, 0.15070000154082663, 0.1601999974809587, 0.14894999912939966, 0.14784999802941456, 0.1470500028517563, 0.14754999574506655, 0.14759999612579122, 0.14805000319029205, 0.1940500042110216, 0.14815000031376258, 0.1503000021330081, 0.14830000145593658, 0.1668499971856363, 0.14884999836795032, 0.1496500008215662, 0.14945000293664634, 0.14709999959450215, 0.1480999999330379, 0.15339999663410708, 0.1518499993835576, 0.14895000276737846, 0.1476500001444947, 0.14789999841013923, 0.14714999997522682, 0.1479499987908639, 0.14789999841013923, 0.1479500024288427, 0.1480999999330379, 0.15255000107572414, 0.15124999845284037, 0.14840000221738592, 0.1558500007377006, 0.14924999777576886, 0.15264999819919467, 0.1489000023866538, 0.15410000196425244, 0.15934999828459695, 0.14784999802941456, 0.15100000018719584, 0.18349999299971387, 0.1513499992142897, 0.1555500020913314, 0.1625500008231029, 0.15615000302204862, 0.15390000044135377, 0.15404999794554897, 0.1536999989184551, 0.15500000154133886, 0.1520000005257316, 0.1697000043350272, 0.1503000021330081, 0.14775000090594403, 0.14709999959450215, 0.14910000027157366, 0.14804999955231324, 0.1483999949414283, 0.15784999777679332, 0.15409999832627364, 0.14789999841013923, 0.14769999688724056, 0.15829999756533653, 0.1501500046288129, 0.14789999841013923, 0.1484500025981106, 0.14939999891794287, 0.14910000390955247, 0.15654999879188836, 0.148899998748675, 0.23709999732091092, 0.15084999904502183, 0.1497999983257614, 0.15144999997573905, 0.1496499971835874, 0.14900000314810313, 0.14970000120229088, 0.1508999994257465, 0.15744999473099597, 0.15390000044135377, 0.1478000049246475, 0.15189999976428226, 0.15509999502683058, 0.1599000024725683, 0.15305000488297082, 0.1524500039522536, 0.1518499993835576, 0.15020000137155876, 0.15534999693045393, 0.14999999621068127, 0.14659999942523427, 0.149500003317371, 0.1504499996372033, 0.15039999925647862, 0.15010000061010942, 0.14939999891794287, 0.15824999718461186, 0.1497999983257614, 0.1501500009908341, 0.152449996676296, 0.16125000547617674, 0.15100000382517464, 0.15109999731066637, 0.15785000141477212, 0.152900000102818, 0.1507500019215513, 0.14999999984866008, 0.14775000090594403, 0.14844999896013178, 0.14830000145593658, 0.14815000031376258, 0.1518500030215364, 0.1473499978601467, 0.149200001033023, 0.14755000302102417, 0.14999999621068127, 0.15019999773357995, 0.14974999794503674, 0.15010000061010942, 0.15050000001792796, 0.14760000340174884, 0.15454999811481684, 0.152449996676296, 0.1499499994679354, 0.15139999959501438, 0.15024999811430462, 0.152900000102818, 0.1537000025564339, 0.14929999815649353, 0.15140000323299319, 0.149200001033023, 0.15514999540755525, 0.14799999917158857, 0.1472000003559515, 0.14754999938304536, 0.1482500010752119, 0.147149996337248, 0.14975000158301555, 0.1544499973533675, 0.1506000007793773, 0.1506000007793773, 0.148899998748675, 0.3271000023232773, 0.15644999803043902, 0.1503000021330081, 0.1489000023866538, 0.1521500016679056, 0.15129999883356504, 0.15139999959501438, 0.15269999857991934, 0.149350002175197, 0.1480999999330379, 0.14754999938304536, 0.14739999824087135, 0.14870000086375512, 0.15025000175228342, 0.15080000230227597, 0.1493499985372182, 0.15209999764920212, 0.14834999819868244, 0.1598999988345895, 0.14855000335955992, 0.14960000407882035, 0.14970000120229088, 0.15010000061010942, 0.15314999836846255, 0.15210000128718093, 0.14775000090594403, 0.1473499978601467, 0.14985000234446488, 0.14854999972158112, 0.14599999849451706, 0.14739999460289255, 0.14754999938304536, 0.1489000023866538, 0.14664999980595894, 0.14739999824087135, 0.14880000162520446, 0.14719999671797268, 0.14644999828306027, 0.14820000069448724, 0.16950000281212851, 0.14814999667578377, 0.14744999862159602, 0.15745000200695358, 0.1507500019215513, 0.1500999969721306, 0.1535500050522387, 0.14980000196374021, 0.14835000183666125, 0.14674999692942947, 0.1476500001444947, 0.15284999608411454, 0.15445000462932512, 0.15720000374130905, 0.15065000116010197, 0.15095000344444998, 0.14955000006011687, 0.1534000039100647, 0.15329999951063655, 0.15084999904502183, 0.15809999604243785, 0.15619999612681568, 0.16090000281110406, 0.15469999925699085, 0.15500000154133886, 0.1527500025986228, 0.19564999820431694, 0.1500999969721306, 0.15020000137155876, 0.1513499992142897, 0.1503000021330081, 0.14755000302102417, 0.14915000429027714, 0.15279999570338987, 0.1513499992142897, 0.14999999621068127, 0.149200001033023, 0.16070000128820539, 0.1592499975231476, 0.15470000653294846, 0.181950003025122, 0.16185000276891515, 0.1532500027678907, 0.15445000099134631, 0.15439999697264284, 0.15034999887575395, 0.20884999685222283, 0.15234999955282547, 0.1531999951112084, 0.1535500014142599, 0.1524500003142748, 0.15139999959501438, 0.15469999925699085, 0.1507499982835725, 0.15070000154082663, 0.1505999971413985, 0.15140000323299319, 0.1634500004001893, 0.1513499955763109, 0.16379999942728318, 0.1540000012028031, 0.1552499998069834, 0.15329999951063655, 0.15165000149863772, 0.22495000303024426, 0.16265000158455223, 0.15645000530639663, 0.15265000183717348, 0.1510500042058993, 0.15220000204863027, 0.15264999819919467, 0.15180000264081173, 0.15085000268300064, 0.14914999701431952, 0.15050000365590677, 0.20954999490641057, 0.1535500050522387, 0.15094999980647117, 0.15020000137155876, 0.15020000137155876, 0.1532500027678907, 0.15249999705702066, 0.15279999934136868, 0.15135000285226852, 0.2994500027853064, 0.22245000582188368, 0.15364999853773043, 0.1878000002761837, 0.257849991612602, 0.1573999979882501, 0.15644999803043902, 0.2125999963027425, 0.15500000154133886, 0.15265000183717348, 0.15210000128718093, 0.15084999904502183, 0.13129999933880754, 0.20420000510057434, 0.24229999689850956, 0.15269999857991934, 0.15219999841065146, 0.15474999963771552, 0.15514999540755525, 0.15240000357152894, 0.15094999980647117, 0.15815000006114133, 0.15280000297934748, 0.15784999777679332, 0.15239999629557133, 0.18234999879496172, 0.15050000001792796, 0.1504500032751821, 0.15094999980647117, 0.15135000285226852, 0.1507500019215513, 0.15324999912991188, 0.1575499991304241, 0.15965000056894496, 0.16065000090748072, 0.15780000103404745, 0.15175000226008706, 0.15154999709920958, 0.1524500003142748, 0.15150000399444252, 0.1540000012028031, 0.15139999959501438, 0.1548000000184402, 0.15250000069499947, 0.1507499982835725, 0.15220000204863027, 0.15029999849502929, 0.1523000028100796, 0.15615000302204862, 0.15345000429078937, 0.1539999939268455, 0.1524500003142748, 0.15125000209081918, 0.15255000107572414, 0.16239999968092889, 0.15264999819919467, 0.15085000268300064, 0.1532500027678907, 0.1724499998090323, 0.15069999790284783, 0.15095000344444998, 0.1540000012028031, 0.15010000424808823, 0.15165000149863772, 0.1573999979882501, 0.15655000606784597, 0.1524500003142748, 0.15744999836897478, 0.15279999934136868, 0.15405000158352777, 0.15179999900283292, 0.15249999705702066, 0.15070000154082663, 0.15239999629557133, 0.1506000044173561, 0.15029999849502929, 0.15254999743774533, 0.15179999900283292, 0.1579000017954968, 0.1540000012028031, 0.15795000217622146, 0.15639999764971435, 0.15235000319080427, 0.15729999722680077, 0.15744999836897478, 0.21289999858709052, 0.13719999697059393, 0.15485000039916486, 0.152449996676296, 0.1570999957039021, 0.15314999836846255, 0.1536999989184551, 0.15165000149863772, 0.15239999629557133, 0.1522999991721008, 0.15159999747993425, 0.16065000090748072, 0.1540000012028031, 0.1659500048845075, 0.1520000005257316, 0.15669999993406236, 0.15240000357152894, 0.15140000323299319, 0.16400000095018186, 0.1528999964648392, 0.15809999604243785, 0.15110000094864517, 0.14939999891794287, 0.15254999743774533, 0.1541500023449771, 0.1530499976070132, 0.1613000022189226, 0.1513499992142897, 0.1517000018793624, 0.15210000128718093, 0.15379999967990443, 0.1513499992142897, 0.15630000416422263, 0.15300000086426735, 0.156299996888265, 0.1548000000184402, 0.15189999612630345, 0.1510500005679205, 0.16060000052675605, 0.15324999912991188, 0.1535499977762811, 0.1493499985372182, 0.1522999991721008, 0.1508999957877677, 0.1521499980299268, 0.1564999984111637, 0.15224999879137613, 0.15284999608411454, 0.15144999997573905, 0.14995000310591422, 0.15085000268300064, 0.14955000006011687, 0.1542999998491723, 0.16039999900385737, 0.15870000061113387, 0.15605000226059929, 0.15144999997573905, 0.19685000006575137, 0.15339999663410708, 0.15169999824138358, 0.17224999464815482, 0.15374999929917976, 0.15334999625338241, 0.15474999963771552, 0.15609999536536634, 0.15239999993355013, 0.15190000340226106, 0.15349999739555642, 0.15454999811481684, 0.15135000285226852, 0.1524500003142748, 0.15434999659191817, 0.16235000293818302, 0.152299995534122, 0.15255000471370295, 0.15234999955282547, 0.15159999747993425, 0.15070000154082663, 0.15195000014500692, 0.15519999578827992, 0.1531000016257167, 0.16365000192308798, 0.15024999811430462, 0.18320000526728109, 0.15285000336007215, 0.1507499982835725, 0.16065000090748072, 0.16445000073872507, 0.15029999849502929, 0.15125000209081918, 0.2704500038817059, 0.3463500033831224, 0.2375999974901788, 0.22214999626157805, 0.15004999659140594, 0.15254999743774533, 0.1538499964226503, 0.16375000268453732, 0.15644999803043902, 0.1534000039100647, 0.15129999883356504, 0.2813000028254464, 0.17699999443721026, 0.15330000314861536, 0.15350000103353523, 0.15770000027259812, 0.1591500040376559, 0.17870000010589138, 0.15824999718461186, 0.15269999857991934, 0.15565000285278074, 0.1520000005257316, 0.14970000120229088, 0.15264999819919467, 0.15135000285226852, 0.15125000209081918, 0.15615000302204862, 0.15594999422319233, 0.1598999951966107, 0.15195000014500692, 0.15114999769139104, 0.15165000149863772, 0.15115000132936984, 0.15050000001792796, 0.14810000357101671, 0.1487500012444798, 0.15050000365590677, 0.14915000065229833, 0.1496500008215662, 0.152900000102818, 0.1521500016679056, 0.1523000028100796, 0.15144999633776024, 0.15365000217570923, 0.15250000069499947, 0.15175000226008706, 0.15005000386736356, 0.1523000028100796, 0.16009999671950936, 0.15350000103353523, 0.14999999984866008, 0.15079999866429716, 0.149049999890849, 0.1503000021330081, 0.15344999701483175, 0.15684999380027875, 0.1520000005257316, 0.1659500012465287, 0.15330000314861536, 0.1508999994257465, 0.15874999371590093, 0.15690000145696104, 0.15305000124499202, 0.15150000399444252, 0.14884999836795032, 0.1511999980721157, 0.15100000382517464, 0.15050000001792796, 0.15910000001895241, 0.16010000399546698, 0.16009999671950936, 0.1599000024725683, 0.1562000034027733, 0.1625500008231029, 0.15054999676067382, 0.1516499978606589, 0.1483999985794071, 0.15039999925647862, 0.14999999984866008, 0.1496500008215662, 0.14844999532215297, 0.15005000022938475, 0.1477999976486899, 0.14804999955231324, 0.14680000094813295, 0.14804999955231324, 0.14744999862159602, 0.14944999929866754, 0.1540000012028031, 0.1507499982835725, 0.1571000029798597, 0.15334999989136122, 0.1523000028100796, 0.14975000158301555, 0.14784999802941456, 0.15069999790284783, 0.1506000007793773, 0.1637499954085797, 0.149200001033023, 0.15219999841065146, 0.15625000378349796, 0.1503000021330081, 0.15139999959501438, 0.1496500008215662, 0.14820000069448724, 0.1476500001444947, 0.15150000035646372, 0.14840000221738592, 0.149200001033023, 0.1540000012028031, 0.15029999849502929, 0.14940000255592167, 0.14899999587214552, 0.14854999972158112, 0.15660000644857064, 0.1484500025981106, 0.14984999870648608, 0.15264999819919467, 0.1599000024725683, 0.14959999680286273, 0.14989999544923194, 0.18145000649383292, 0.15580000035697594, 0.15644999803043902, 0.15374999929917976, 0.1513499992142897, 0.14960000044084154, 0.14960000407882035, 0.14944999566068873, 0.15004999659140594, 0.24219999613706023, 0.15770000027259812, 0.15295000048354268, 0.1508999957877677, 0.14954999642213807, 0.15949999942677096, 0.148899998748675, 0.27119999867863953, 0.1556999995955266, 0.14854999972158112, 0.15084999904502183, 0.15070000154082663, 0.14800000280956738, 0.14880000162520446, 0.14865000048303045, 0.1482500010752119, 0.14855000335955992, 0.149049999890849, 0.16360000154236332, 0.15110000094864517, 0.15595000149914995, 0.1542999998491723, 0.16124999820021912, 0.15434999659191817, 0.1549500011606142, 0.156299996888265, 0.15150000035646372, 0.15150000399444252, 0.1512000017100945, 0.15279999934136868, 0.14834999819868244, 0.14885000200592913, 0.1497999983257614, 0.15054999676067382, 0.14835000183666125, 0.14740000187885016, 0.14834999819868244, 0.14910000027157366, 0.149200001033023, 0.15360000179498456, 0.1484500025981106, 0.15344999701483175, 0.14899999587214552, 0.14894999912939966, 0.14939999891794287, 0.16084999879240058, 0.15055000039865263, 0.14954999642213807, 0.19774999236688018, 0.1489000023866538, 0.1507499982835725, 0.1545000050100498, 0.15600000187987462, 0.15309999434975907, 0.14775000090594403, 0.14724999709869735, 0.15079999866429716, 0.14855000335955992, 0.14755000302102417, 0.14759999612579122, 0.15210000128718093, 0.15425000310642645, 0.15920000078040175, 0.15110000094864517, 0.14999999984866008, 0.14924999777576886, 0.149500003317371, 0.15305000124499202, 0.14959999680286273, 0.14910000027157366, 0.14909999663359486, 0.14850000297883525, 0.14675000056740828, 0.14635000115958974, 0.14999999621068127, 0.1494999996793922, 0.14740000187885016, 0.14830000145593658, 0.14619999637943693, 0.1569500018376857, 0.14799999917158857, 0.16105000031529926, 0.16725000023143366, 0.1489000023866538, 0.14759999612579122, 0.14800000280956738, 0.15249999705702066, 0.14775000090594403, 0.14825000471319072, 0.15314999836846255, 0.15005000022938475, 0.14859999646432698, 0.15365000217570923, 0.1535500014142599, 0.1544499973533675, 0.15374999929917976, 0.15290000374079682, 0.1526000014564488, 0.14999999984866008, 0.15050000001792796, 0.15014999735285528, 0.15455000175279565, 0.15195000014500692, 0.15284999972209334, 0.1611499974387698, 0.3239999932702631, 0.12460000289138407, 0.22200000239536166, 0.1603499986231327, 0.1518500030215364, 0.1507500019215513, 0.14914999701431952, 0.15150000035646372, 0.1507500019215513, 0.14975000158301555, 0.14759999612579122, 0.2248499949928373, 0.16865000361576676, 0.15080000230227597, 0.15024999811430462, 0.15140000323299319],
  "Depth": 2.0,
  "Expectation Value": -5.8483099937438965,
  "Optimal Expectation Value": -5.893400192260742,
  "Optimizer durations [ms]": [5.254, 4.713, 4.286, 4.314, 4.106, 4.07, 4.019, 4.167, 3.953, 3.883, 4.06, 4.039, 4.021, 4.081, 4.05, 4.313, 4.044, 4.035, 3.989, 3.893, 3.88, 3.905, 4.08, 3.948, 3.982, 3.894, 4.163, 3.931, 3.899, 3.887, 4.338, 4.117, 4.029, 4.098, 4.231, 4.239, 4.202, 4.135, 4.051, 4.044, 4.032, 4.322, 3.928, 5.067, 4.028, 3.928, 4.001, 3.944, 3.918, 4.181, 3.909, 3.982, 3.953, 5.032, 4.214, 4.053, 4.184, 4.023, 3.898, 3.914, 4.033, 3.946, 4.08, 4.085, 4.06, 4.034, 4.072, 4.032, 4.022, 6.455, 3.942, 3.895, 3.924, 3.937, 3.961, 4.089, 4.209, 4.112, 4.321, 4.086, 4.075, 4.242, 4.054, 4.051, 4.251, 4.125, 4.144, 4.18, 4.207, 4.107, 4.098, 4.131, 4.206, 4.052, 4.114, 4.045, 4.038, 4.094, 4.039, 4.219, 3.953, 4.094, 3.966, 3.904, 3.984, 3.974, 4.745, 3.993, 4.032, 4.563, 3.935, 3.906, 3.913, 3.9, 4.136, 4.187, 4.097, 3.946, 3.935, 3.878, 4.097, 4.095, 4.355, 4.012, 4.022, 4.194, 4.015, 4.071, 4.266, 3.965, 4.11, 4.054, 6.232, 14.555, 4.005, 3.971, 4.32, 4.069, 4.475, 4.082, 4.121, 4.045, 4.101, 4.032, 4.029, 4.048, 4.007, 4.104, 3.955, 3.865, 3.948, 4.389, 3.968, 3.89, 3.9, 3.851, 3.868, 3.922, 3.941, 3.981, 4.824, 3.965, 3.888, 4.033, 3.903, 3.931, 3.95, 4.217, 4.057, 4.041, 4.038, 4.14, 3.999, 4.052, 4.173, 4.305, 4.153, 4.097, 4.105, 4.079, 4.036, 4.374, 4.216, 4.2, 4.242, 3.968, 4.157, 4.035, 4.019, 4.467, 4.127, 3.989, 4.058, 4.015, 4.0, 4.03, 3.995, 4.036, 3.952, 4.013, 3.931, 4.336, 4.173, 3.998, 4.123, 3.938, 3.993, 3.939, 4.036, 4.015, 4.089, 4.034, 4.155, 4.012, 4.014, 4.084, 6.43, 4.084, 3.954, 4.445, 4.343, 4.036, 4.171, 5.108, 11.635, 4.08, 4.055, 3.991, 4.041, 8.197, 4.011, 4.722, 4.006, 4.009, 4.159, 4.238, 4.956, 4.151, 4.568, 4.389, 4.271, 4.301, 4.12, 8.351, 14.347, 4.463, 5.099, 4.831, 3.937, 3.994, 4.01, 4.071, 4.024, 4.206, 4.066, 4.037, 4.095, 5.188, 4.605, 4.011, 4.097, 4.065, 4.036, 3.995, 5.153, 17.774, 4.212, 4.039, 4.187, 4.031, 4.055, 4.429, 4.693, 4.435, 4.214, 4.233, 4.174, 4.109, 6.839, 5.291, 4.265, 4.121, 7.139, 14.316, 4.014, 7.682, 5.891, 4.561, 4.238, 4.515, 4.221, 4.109, 4.199, 8.442, 3.988, 4.132, 4.022, 4.187, 4.074, 4.214, 4.067, 3.997, 3.987, 4.012, 4.261, 4.097, 3.998, 4.036, 4.027, 4.318, 4.08, 4.071, 4.017, 4.075, 4.201, 4.075, 3.985, 4.014, 4.058, 4.064, 4.122, 4.063, 4.335, 4.01, 4.074, 4.056, 4.071, 4.097, 4.975, 16.425, 4.233, 4.088, 4.053, 4.311, 4.101, 4.022, 4.098, 4.083, 4.06, 4.026, 3.967, 4.605, 4.604, 4.049, 4.276, 4.085, 4.277, 4.365, 4.387, 4.453, 4.153, 4.135, 4.08, 4.022, 3.997, 4.175, 4.26, 4.167, 4.109, 4.132, 4.074, 4.029, 4.037, 4.137, 4.049, 4.016, 3.979, 4.056, 4.018, 4.047, 4.075, 4.279, 4.005, 4.163, 4.593, 4.037, 4.049, 4.029, 4.32, 4.26, 4.175, 4.058, 4.599, 4.013, 4.007, 4.293, 4.098, 4.077, 4.062, 4.163, 4.059, 4.081, 4.027, 4.083, 4.037, 4.028, 4.04, 4.234, 4.083, 4.055, 4.058, 4.493, 4.053, 4.03, 4.087, 4.035, 4.123, 4.051, 4.597, 4.058, 4.157, 4.077, 4.324, 4.056, 4.084, 4.057, 4.051, 4.165, 4.192, 4.229, 4.043, 4.063, 4.013, 4.361, 4.085, 4.698, 4.028, 4.094, 4.044, 4.156, 4.324, 4.449, 4.164, 4.042, 4.295, 4.024, 4.036, 4.063, 6.675, 17.417, 6.245, 6.332, 4.29, 3.99, 4.05, 4.155, 4.247, 4.095, 4.338, 4.088, 4.556, 4.079, 4.22, 4.139, 4.146, 4.195, 4.043, 4.168, 4.216, 4.301, 4.18, 4.075, 3.992, 4.279, 4.16, 4.225, 4.361, 4.967, 4.092, 4.385, 4.068, 4.127, 4.042, 4.011, 4.041, 4.227, 4.065, 4.002, 4.158, 4.224, 4.244, 4.508, 4.178, 4.206, 4.222, 4.311, 4.107, 4.19, 4.187, 4.252, 4.239, 4.133, 4.066, 4.028, 4.012, 4.011, 4.643, 4.118, 5.174, 4.334, 4.231, 4.304, 4.053, 4.145, 4.036, 4.136, 4.119, 4.043, 4.509, 4.056, 4.032, 4.479, 4.14, 4.152, 4.244, 4.084, 4.049, 4.053, 4.063, 4.034, 4.088, 4.526, 4.331, 4.042, 4.048, 4.02, 4.13, 6.19, 4.118, 4.652, 4.071, 4.013, 4.014, 4.186, 4.077, 4.154, 4.116, 5.342, 4.151, 3.989, 3.931, 4.044, 4.062, 4.542, 4.121, 3.996, 4.061, 4.204, 4.045, 4.066, 4.03, 4.018, 4.015, 4.245, 4.026, 4.232, 4.111, 4.054, 4.083, 4.979, 15.51, 4.069, 4.044, 4.126, 4.774, 4.106, 4.211, 4.253, 3.938, 4.044, 4.012, 3.961, 3.912, 3.9, 3.894, 4.545, 4.01, 4.188, 4.527, 4.086, 4.031, 4.065, 4.076, 4.022, 5.01, 8.125, 4.224, 4.076, 4.242, 3.958, 3.959, 4.03, 4.231, 4.283, 4.06, 4.026, 4.06, 4.024, 4.316, 4.088, 4.365, 4.174, 4.516, 4.232, 4.097, 4.088, 4.0, 4.322, 4.182, 4.175, 4.088, 4.058, 4.021, 4.025, 4.177, 4.733, 4.22, 4.256, 3.994, 4.034, 4.062, 4.183, 4.28, 3.947, 4.0, 4.015, 4.181, 4.219, 4.217, 4.256, 4.005, 3.935, 4.001, 4.042, 4.081, 4.048, 4.205, 4.081, 3.92, 3.875, 3.872, 3.979, 3.891, 3.893, 3.872, 4.439, 4.029, 4.049, 3.961, 4.235, 4.06, 4.076, 4.006, 3.988, 4.006, 4.558, 4.004, 3.943, 3.917, 3.911, 4.181, 4.295, 4.031, 4.011, 4.106, 4.044, 4.047, 4.035, 3.984, 4.016, 4.442, 4.15, 7.924, 16.327, 6.365, 5.366, 4.145, 4.139, 5.42, 4.47, 4.194, 4.129, 4.092, 4.111, 4.116, 4.068, 4.057, 4.144, 4.089, 4.164, 4.021, 4.133, 3.951, 4.307, 4.093, 4.016, 4.055, 4.128, 4.022, 4.03, 4.926, 4.649, 4.151, 4.041, 4.43, 4.076, 4.057, 4.092, 4.015, 4.048, 4.178, 4.448, 4.069, 4.047, 4.076, 4.103, 4.012, 4.038, 4.047, 4.111, 4.172, 4.048, 4.04, 4.221, 4.059, 4.24, 4.038, 4.247, 4.403, 4.058, 4.069, 4.82, 3.933, 4.07, 4.301, 4.08, 4.053, 4.054, 4.039, 4.053, 3.998, 4.809, 4.081, 4.053, 4.061, 4.252, 4.052, 4.042, 4.349, 4.287, 4.086, 4.086, 4.222, 4.059, 4.085, 4.071, 3.99, 3.95, 4.56, 4.125, 5.462, 5.906, 3.932, 3.964, 3.961, 3.906, 3.907, 4.061, 4.297, 4.267, 4.024, 4.041, 4.068, 4.407, 4.093, 3.954, 3.941, 3.9, 4.052, 4.082, 3.988, 4.05, 3.997, 3.916, 3.903, 3.945, 4.1, 3.911, 4.121, 4.153, 4.372, 4.107, 4.573, 4.24, 4.127, 4.165, 4.067, 4.057, 4.043, 4.037, 4.07, 4.147, 4.019, 4.016, 4.05, 3.92, 3.937, 3.891, 4.023, 4.023, 4.054, 4.174, 4.269, 3.923, 4.136, 4.1, 4.053, 4.025, 3.866, 4.196, 4.052, 4.171, 4.049, 4.063, 4.055, 4.035, 4.067, 4.13, 4.049, 3.933, 3.909, 3.9, 7.212, 13.511, 4.152, 4.038, 4.08, 4.087, 4.009, 3.976, 3.927, 4.057, 4.045, 4.003, 4.206, 3.919, 3.98, 3.873, 4.207, 4.06, 4.297, 4.058, 3.924, 4.021, 3.901, 4.462, 4.117, 4.057, 4.035, 4.069, 4.056, 3.981, 4.015, 4.102, 4.085, 4.028, 4.009, 4.06, 4.022, 3.983, 4.033, 4.638, 4.06, 4.063, 4.148, 3.951, 3.903, 4.257, 4.124, 4.11, 4.013, 4.008, 4.372, 4.212, 4.504, 4.16, 4.088, 3.979, 4.071, 4.042, 3.974, 4.453, 4.162, 4.26, 4.219, 4.258, 4.018, 4.96, 4.105, 4.13, 4.104, 4.077, 3.988, 4.004, 4.078, 4.033, 4.032, 4.021, 6.268, 4.573, 4.089, 4.688, 4.326, 4.117, 4.279, 4.165, 10.772, 5.231, 4.297, 4.054, 4.035, 7.022, 4.073, 4.095, 4.173, 4.017, 4.037, 4.03, 5.739, 4.033, 4.475, 4.784, 4.057, 4.03, 4.028, 9.839, 15.539, 5.394, 4.153, 4.062, 4.021, 4.22, 7.137, 4.059, 4.012, 4.056, 5.321, 4.24, 4.068, 4.063, 4.098, 4.13, 4.049, 4.017, 4.008, 16.784, 5.669, 4.212, 4.81, 5.835, 4.615, 4.26, 5.28, 4.11, 4.114, 4.092, 4.539, 13.798, 11.516, 6.078, 4.121, 4.08, 4.108, 4.109, 4.061, 3.968, 4.167, 4.027, 4.209, 4.171, 4.694, 4.091, 4.023, 4.545, 8.841, 4.037, 4.167, 4.2, 4.194, 4.214, 4.127, 4.011, 3.998, 4.14, 4.01, 4.144, 4.045, 4.061, 4.041, 3.964, 4.033, 4.021, 4.033, 4.299, 4.207, 4.208, 4.192, 4.172, 4.169, 4.367, 4.077, 3.993, 4.078, 4.513, 4.074, 4.075, 4.111, 4.04, 4.062, 4.268, 4.19, 4.001, 4.136, 4.164, 4.047, 4.049, 4.085, 4.077, 4.123, 4.053, 4.046, 3.999, 4.123, 4.351, 4.118, 4.302, 4.25, 4.154, 4.189, 4.172, 5.294, 12.162, 4.281, 4.057, 4.119, 4.077, 4.038, 3.994, 4.134, 4.011, 3.979, 4.207, 4.072, 4.428, 4.03, 4.185, 4.02, 3.974, 4.329, 4.267, 4.269, 4.075, 4.034, 4.086, 4.105, 4.037, 4.254, 3.99, 4.046, 4.005, 4.041, 3.999, 4.329, 4.116, 4.275, 4.131, 4.0, 3.983, 4.224, 4.212, 4.19, 4.14, 3.998, 4.052, 4.081, 4.163, 4.072, 4.065, 4.077, 4.037, 4.049, 3.986, 4.149, 4.253, 4.183, 4.105, 3.962, 4.971, 4.088, 4.011, 4.748, 4.231, 4.058, 4.187, 4.1, 4.01, 4.01, 4.059, 4.059, 3.994, 4.027, 4.052, 4.235, 4.049, 4.069, 4.063, 4.024, 4.036, 3.963, 4.077, 4.043, 4.428, 4.061, 4.75, 4.117, 4.039, 4.255, 4.259, 3.978, 3.999, 6.334, 14.048, 9.906, 5.526, 4.299, 4.056, 4.064, 4.436, 4.231, 4.062, 4.85, 7.555, 4.713, 4.12, 4.146, 4.389, 4.442, 4.673, 4.183, 4.063, 4.121, 4.084, 4.031, 4.039, 3.991, 3.994, 4.282, 4.275, 4.275, 4.064, 4.011, 4.019, 4.098, 4.059, 4.004, 4.083, 4.033, 3.996, 4.03, 4.053, 4.025, 3.991, 4.001, 4.074, 4.017, 4.089, 3.974, 4.061, 4.552, 4.237, 4.074, 4.074, 4.015, 4.043, 4.14, 4.807, 3.987, 4.344, 4.116, 4.244, 4.365, 4.339, 4.159, 4.003, 3.947, 4.217, 4.032, 4.01, 4.342, 4.423, 4.375, 4.349, 4.221, 4.286, 4.037, 4.051, 4.13, 4.241, 3.99, 4.015, 3.999, 4.016, 3.971, 3.962, 4.008, 3.975, 3.944, 3.994, 4.509, 7.336, 4.329, 4.291, 4.069, 3.995, 4.001, 4.02, 4.007, 4.577, 4.042, 4.207, 4.187, 4.002, 4.043, 3.962, 3.958, 3.974, 4.053, 4.003, 4.007, 4.164, 4.107, 3.983, 4.03, 3.877, 4.229, 4.008, 3.989, 4.142, 4.288, 4.069, 4.098, 4.652, 4.156, 4.188, 4.111, 4.129, 4.005, 4.016, 3.99, 4.06, 5.933, 14.458, 4.169, 4.139, 4.02, 4.305, 4.003, 6.384, 4.178, 3.962, 4.041, 4.006, 3.97, 3.97, 3.962, 3.923, 3.975, 4.052, 4.48, 4.102, 4.281, 4.174, 4.327, 4.18, 4.146, 4.253, 4.112, 4.024, 3.988, 4.075, 4.055, 3.993, 4.096, 4.016, 3.948, 4.01, 3.987, 4.238, 3.932, 4.132, 4.129, 4.137, 3.938, 3.922, 3.936, 4.275, 4.043, 4.008, 4.974, 4.007, 4.04, 4.106, 4.433, 4.141, 3.97, 4.053, 4.008, 3.933, 3.935, 3.914, 4.16, 4.167, 4.283, 4.098, 4.013, 4.016, 4.027, 4.121, 4.076, 4.014, 3.991, 3.951, 3.901, 3.903, 4.085, 4.025, 3.951, 3.982, 3.925, 4.751, 3.989, 4.38, 4.4, 4.023, 4.014, 4.002, 4.292, 3.937, 4.092, 4.218, 4.116, 4.019, 4.232, 4.174, 4.208, 4.162, 4.241, 4.099, 4.0, 4.043, 3.956, 4.085, 4.19, 4.137, 4.512, 7.5, 13.551, 7.02, 4.674, 4.031, 4.032, 3.985, 4.03, 4.04, 4.043, 4.001, 5.169, 4.678, 4.048, 4.122, 3.994],
  "Optimizer iterations": 1381,
  "Optimizer params": [0.9993718341032019, 0.4990854674364414, 0.00029347622771043176, 0.4982486100512253, 0.5030072935767743, 0.9965886863866947, 0.44197349806689123, 0.5021669863495164, 0.9995514726932605, 0.49854290702841364],
  "P": 0,
  "Problem": "RH",
  "QJob durations [ms]": [0.18370000179857016, 0.17115000082412735, 0.15239999629557133, 0.15449999773409218, 0.15019999773357995, 0.149049999890849, 0.1476499965065159, 0.15564999921480194, 0.1517000018793624, 0.14914999701431952, 0.14834999819868244, 0.14929999815649353, 0.1480999999330379, 0.14725000437465496, 0.14820000069448724, 0.1564999984111637, 0.14724999709869735, 0.1501500009908341, 0.1535499977762811, 0.14939999891794287, 0.14894999912939966, 0.14880000162520446, 0.15025000175228342, 0.14909999663359486, 0.14989999908721074, 0.15029999849502929, 0.16015000073821284, 0.15010000061010942, 0.149350002175197, 0.149500003317371, 0.15904999963822775, 0.14894999912939966, 0.1482500010752119, 0.15130000247154385, 0.15294999684556387, 0.15534999693045393, 0.1535500014142599, 0.15035000251373276, 0.14719999671797268, 0.14730000111740083, 0.1473499978601467, 0.1647000026423484, 0.15019999773357995, 0.14974999794503674, 0.15279999934136868, 0.14975000158301555, 0.15175000226008706, 0.15095000344444998, 0.15154999709920958, 0.16214999777730554, 0.15014999735285528, 0.15315000200644135, 0.15135000285226852, 0.20370000129332766, 0.15435000386787578, 0.1480999999330379, 0.15904999963822775, 0.15324999912991188, 0.1491999973950442, 0.14895000276737846, 0.1519999968877528, 0.1472000003559515, 0.14974999794503674, 0.1494999996793922, 0.14914999701431952, 0.14840000221738592, 0.149200001033023, 0.14820000433246605, 0.15324999549193308, 0.1545000050100498, 0.14840000221738592, 0.14929999815649353, 0.14835000183666125, 0.14929999815649353, 0.14849999934085645, 0.14864999684505165, 0.1553999973111786, 0.15129999519558623, 0.15784999777679332, 0.15189999976428226, 0.14804999591433443, 0.15095000344444998, 0.1483999985794071, 0.14799999917158857, 0.1551000023027882, 0.15099999654921703, 0.15189999976428226, 0.15380000331788324, 0.15519999578827992, 0.15195000014500692, 0.15269999857991934, 0.1504499996372033, 0.15305000124499202, 0.14770000052521937, 0.1516499978606589, 0.14695000209030695, 0.14759999976377003, 0.1480999962950591, 0.14759999976377003, 0.15619999612681568, 0.15069999790284783, 0.15655000242986716, 0.14969999756431207, 0.14885000200592913, 0.1490499962528702, 0.1503000021330081, 0.1797500008251518, 0.14664999980595894, 0.1472000003559515, 0.17980000120587647, 0.1494999996793922, 0.1491999973950442, 0.1487500012444798, 0.14924999777576886, 0.15189999612630345, 0.15140000323299319, 0.15334999625338241, 0.1501500009908341, 0.1494999960414134, 0.14850000297883525, 0.15209999764920212, 0.14900000314810313, 0.15500000154133886, 0.14929999815649353, 0.14620000365539454, 0.15055000403663144, 0.14739999824087135, 0.1480999999330379, 0.1496499971835874, 0.14955000006011687, 0.15110000094864517, 0.14804999955231324, 0.26619999698596075, 0.13839999883202836, 0.15224999879137613, 0.14775000090594403, 0.16280000272672623, 0.1482500010752119, 0.16619999951217324, 0.14955000369809568, 0.15044999599922448, 0.14810000357101671, 0.14754999938304536, 0.14680000094813295, 0.14724999709869735, 0.14830000145593658, 0.14740000187885016, 0.14754999938304536, 0.15005000022938475, 0.1476500001444947, 0.14944999929866754, 0.17129999832832254, 0.15154999709920958, 0.14840000221738592, 0.1482499974372331, 0.14754999938304536, 0.14754999574506655, 0.1490500035288278, 0.14944999929866754, 0.15020000137155876, 0.1751000017975457, 0.14930000179447234, 0.1486000037402846, 0.1487500048824586, 0.14894999549142085, 0.14885000200592913, 0.1477999976486899, 0.1524500039522536, 0.14810000357101671, 0.14840000221738592, 0.14775000090594403, 0.1524500039522536, 0.14715000361320563, 0.1473500014981255, 0.1564999984111637, 0.15424999583046883, 0.14944999929866754, 0.14999999621068127, 0.15024999811430462, 0.14759999976377003, 0.1477999976486899, 0.1548000000184402, 0.15485000039916486, 0.1532500027678907, 0.15365000217570923, 0.145800004247576, 0.15445000462932512, 0.14709999959450215, 0.1465500026824884, 0.1572500004840549, 0.14879999798722565, 0.14589999773306772, 0.1473500014981255, 0.14960000044084154, 0.14900000314810313, 0.14695000209030695, 0.14675000056740828, 0.14634999752161093, 0.14675000056740828, 0.15179999900283292, 0.1500999969721306, 0.1552499998069834, 0.15359999815700576, 0.1458000006095972, 0.15070000154082663, 0.1500999969721306, 0.15084999904502183, 0.14974999794503674, 0.14985000234446488, 0.14925000141374767, 0.14730000111740083, 0.14744999862159602, 0.15259999781847, 0.14939999891794287, 0.15024999811430462, 0.14729999747942202, 0.2690500004973728, 0.1541500023449771, 0.1510499969299417, 0.17009999646688811, 0.15735000124550425, 0.14865000412100926, 0.15065000116010197, 0.20334999862825498, 0.15580000035697594, 0.15055000403663144, 0.14990000272518955, 0.14664999980595894, 0.1476500037824735, 0.14820000433246605, 0.14770000052521937, 0.18219999765278772, 0.1503000021330081, 0.15040000289445743, 0.15390000044135377, 0.15580000035697594, 0.15420000272570178, 0.15109999731066637, 0.1643999967200216, 0.14955000006011687, 0.15494999388465658, 0.15430000348715112, 0.1552499998069834, 0.14785000166739337, 0.15150000399444252, 0.1600499963387847, 0.14930000179447234, 0.14995000310591422, 0.14975000158301555, 0.15405000158352777, 0.15039999925647862, 0.14754999574506655, 0.1479500024288427, 0.15674999667680822, 0.14929999815649353, 0.14955000006011687, 0.14930000179447234, 0.210899997910019, 0.1632999992580153, 0.15240000357152894, 0.15174999862210825, 0.1536999989184551, 0.15279999570338987, 0.15234999955282547, 0.20655000480473973, 0.2916000012191944, 0.15174999862210825, 0.15225000242935494, 0.15789999815751798, 0.15269999857991934, 0.15410000196425244, 0.16200000391108915, 0.15324999912991188, 0.16199999663513154, 0.15409999468829483, 0.15320000238716602, 0.15889999849605374, 0.1538500000606291, 0.15319999874918722, 0.15669999993406236, 0.15420000272570178, 0.1496499971835874, 0.13844999921275303, 0.15320000238716602, 0.1491999973950442, 0.22135000472189859, 0.2370999936829321, 0.15900000289548188, 0.1563500045449473, 0.16509999841218814, 0.15529999654972926, 0.15204999726847745, 0.15600000187987462, 0.15260000509442762, 0.15005000022938475, 0.15190000340226106, 0.15084999904502183, 0.15529999654972926, 0.1503000021330081, 0.15979999443516135, 0.15174999862210825, 0.15110000458662398, 0.15035000251373276, 0.14879999798722565, 0.1544499973533675, 0.15509999502683058, 0.1509000030637253, 0.15055000403663144, 0.15110000094864517, 0.15580000035697594, 0.15150000035646372, 0.1504499996372033, 0.15129999883356504, 0.15189999976428226, 0.152900000102818, 0.15205000454443507, 0.15095000344444998, 0.15080000230227597, 0.15315000200644135, 0.15194999650702812, 0.15270000221789815, 0.15085000268300064, 0.167350000992883, 0.15064999752212316, 0.15239999993355013, 0.15404999794554897, 0.1523000028100796, 0.1513499955763109, 0.1849999971454963, 0.1538500000606291, 0.15615000302204862, 0.15254999743774533, 0.1508999994257465, 0.16214999777730554, 0.15099999654921703, 0.15044999599922448, 0.15265000183717348, 0.15345000065281056, 0.15144999633776024, 0.14909999663359486, 0.15010000061010942, 0.1524500003142748, 0.15464999887626618, 0.1524500039522536, 0.1538500000606291, 0.15379999967990443, 0.15484999676118605, 0.16080000204965472, 0.16360000154236332, 0.1594499990460463, 0.15220000204863027, 0.15445000462932512, 0.1540000012028031, 0.15070000154082663, 0.15100000382517464, 0.1529500041215215, 0.1552499961690046, 0.15124999845284037, 0.15305000124499202, 0.1552499998069834, 0.15174999862210825, 0.15155000073718838, 0.1512000017100945, 0.15550000171060674, 0.15144999997573905, 0.15039999925647862, 0.14975000158301555, 0.15050000001792796, 0.1509000030637253, 0.1506000044173561, 0.15050000365590677, 0.1620499970158562, 0.14939999891794287, 0.15564999921480194, 0.15044999599922448, 0.15179999900283292, 0.15175000226008706, 0.15094999980647117, 0.16000000323401764, 0.15844999870751053, 0.1555499984533526, 0.1499499958299566, 0.16569999570492655, 0.15064999752212316, 0.15050000365590677, 0.15559999883407727, 0.1531000016257167, 0.15174999862210825, 0.1531000016257167, 0.15514999904553406, 0.15270000585587695, 0.15365000217570923, 0.15139999959501438, 0.15464999887626618, 0.15145000361371785, 0.1521499980299268, 0.15179999900283292, 0.1613000022189226, 0.15239999993355013, 0.15180000264081173, 0.15024999811430462, 0.1701500004855916, 0.15344999701483175, 0.15160000111791305, 0.15125000209081918, 0.15174999862210825, 0.1520000005257316, 0.15129999883356504, 0.1704500027699396, 0.15379999967990443, 0.1513499992142897, 0.15374999929917976, 0.15345000065281056, 0.1540000012028031, 0.15224999879137613, 0.15319999874918722, 0.1520000005257316, 0.1536999989184551, 0.1534000039100647, 0.15614999938406982, 0.15184999574557878, 0.15130000247154385, 0.15169999824138358, 0.16245000006165355, 0.15175000226008706, 0.18039999849861488, 0.15165000149863772, 0.15295000048354268, 0.15209999764920212, 0.1544499973533675, 0.16060000052675605, 0.1662499998928979, 0.15500000154133886, 0.1510500042058993, 0.16394999693147838, 0.1522999991721008, 0.15050000001792796, 0.1514999967184849, 0.17880000450531952, 0.14864999684505165, 0.2259499960928224, 0.24855000083334744, 0.15280000297934748, 0.15235000319080427, 0.152749998960644, 0.1564999984111637, 0.15615000302204862, 0.1545999984955415, 0.16339999638148583, 0.15350000467151403, 0.17689999731373973, 0.15264999819919467, 0.15644999803043902, 0.15279999934136868, 0.15195000378298573, 0.1545999984955415, 0.15249999705702066, 0.15840000196476467, 0.15859999984968454, 0.15730000450275838, 0.15350000103353523, 0.1516499978606589, 0.15024999811430462, 0.15905000327620655, 0.1532500027678907, 0.15500000154133886, 0.16519999553565867, 0.19470000552246347, 0.15085000268300064, 0.16585000048507936, 0.15379999967990443, 0.1562000034027733, 0.1535499977762811, 0.15064999752212316, 0.1510500042058993, 0.15809999968041666, 0.152749998960644, 0.15129999883356504, 0.15315000200644135, 0.15580000035697594, 0.15885000175330788, 0.167350000992883, 0.15334999989136122, 0.1569499981997069, 0.15904999600024894, 0.1604999997653067, 0.15574999997625127, 0.15454999811481684, 0.15594999786117114, 0.15995000285329297, 0.15919999714242294, 0.15094999980647117, 0.14999999984866008, 0.1500000034866389, 0.14974999794503674, 0.1494999996793922, 0.15500000154133886, 0.15195000378298573, 0.20485000641201623, 0.15729999722680077, 0.1569500018376857, 0.15530000382568687, 0.15139999959501438, 0.15360000179498456, 0.1531000016257167, 0.15610000264132395, 0.15069999790284783, 0.1521499980299268, 0.16789999790489674, 0.15390000044135377, 0.15050000365590677, 0.16864999633980915, 0.15490000441786833, 0.152749998960644, 0.1504499996372033, 0.1506000044173561, 0.1496499971835874, 0.15020000137155876, 0.1509000030637253, 0.15065000116010197, 0.15250000433297828, 0.17190000289701857, 0.15359999815700576, 0.1519999968877528, 0.15224999879137613, 0.1513499992142897, 0.15654999879188836, 0.1534000039100647, 0.15474999963771552, 0.15014999735285528, 0.1494999996793922, 0.15125000209081918, 0.15070000154082663, 0.16125000547617674, 0.1529500041215215, 0.15574999997625127, 0.1556999995955266, 0.20950000180164352, 0.1590999963809736, 0.15425000310642645, 0.15080000230227597, 0.14929999815649353, 0.14850000297883525, 0.1741499982017558, 0.152900000102818, 0.14685000496683642, 0.14645000192103907, 0.146999995195074, 0.14789999477216043, 0.1486000037402846, 0.14759999612579122, 0.14785000166739337, 0.14664999980595894, 0.1551000023027882, 0.14704999557579868, 0.1606499972695019, 0.14874999760650098, 0.14990000272518955, 0.14980000196374021, 0.14834999819868244, 0.15295000048354268, 0.15300000086426735, 0.1491999973950442, 0.15024999811430462, 0.17979999392991886, 0.14910000390955247, 0.14885000200592913, 0.16109999705804512, 0.15014999735285528, 0.14854999972158112, 0.14729999747942202, 0.152299995534122, 0.1497999946877826, 0.14974999794503674, 0.149350002175197, 0.16559999858145602, 0.1462499967601616, 0.15055000403663144, 0.17329999900539406, 0.1473500014981255, 0.14804999955231324, 0.1507499982835725, 0.15144999633776024, 0.14719999671797268, 0.1959000001079403, 0.1513499992142897, 0.15345000065281056, 0.14860000010230578, 0.14635000115958974, 0.1508999994257465, 0.15004999659140594, 0.14784999802941456, 0.1608500024303794, 0.1535499977762811, 0.147149996337248, 0.1476499965065159, 0.14729999747942202, 0.14730000475537963, 0.15659999917261302, 0.1482500010752119, 0.15579999308101833, 0.14944999929866754, 0.17474999913247302, 0.15870000061113387, 0.1484500025981106, 0.1499499958299566, 0.14620000001741573, 0.1534000002720859, 0.152900000102818, 0.1521499980299268, 0.1491999973950442, 0.14719999671797268, 0.14704999921377748, 0.14859999646432698, 0.1592499975231476, 0.17824999667936936, 0.14939999891794287, 0.1540000012028031, 0.1479500024288427, 0.14784999802941456, 0.1476499965065159, 0.15039999925647862, 0.15915000039967708, 0.1480999962950591, 0.14810000357101671, 0.1476499965065159, 0.15654999879188836, 0.15405000158352777, 0.1508999994257465, 0.15259999781847, 0.1470500028517563, 0.15004999659140594, 0.1532500027678907, 0.15669999993406236, 0.1545000050100498, 0.15469999925699085, 0.15999999959603883, 0.15500000154133886, 0.14985000234446488, 0.14819999705650844, 0.14815000031376258, 0.15154999709920958, 0.1478000012866687, 0.149500003317371, 0.14899999951012433, 0.14899999951012433, 0.14899999587214552, 0.1480999999330379, 0.14505000217468478, 0.15729999722680077, 0.1477999976486899, 0.14744999862159602, 0.14804999955231324, 0.15249999705702066, 0.14725000073667616, 0.16929999401327223, 0.14989999908721074, 0.14939999527996406, 0.14965000445954502, 0.14974999794503674, 0.1508999994257465, 0.15345000429078937, 0.14740000187885016, 0.14744999862159602, 0.15005000022938475, 0.14754999574506655, 0.14635000115958974, 0.1467000001866836, 0.1501500009908341, 0.14899999951012433, 0.15425000310642645, 0.15004999659140594, 0.3395999883650802, 0.2755999958026223, 0.2490499973646365, 0.1535500050522387, 0.15040000289445743, 0.15069999790284783, 0.22325000099954195, 0.16165000124601647, 0.15350000467151403, 0.1485499960836023, 0.1506000007793773, 0.1508999957877677, 0.15150000035646372, 0.15339999663410708, 0.15509999502683058, 0.15644999803043902, 0.15759999951114878, 0.15324999549193308, 0.1474999990023207, 0.1596000001882203, 0.15070000154082663, 0.1601999974809587, 0.14894999912939966, 0.14784999802941456, 0.1470500028517563, 0.14754999574506655, 0.14759999612579122, 0.14805000319029205, 0.1940500042110216, 0.14815000031376258, 0.1503000021330081, 0.14830000145593658, 0.1668499971856363, 0.14884999836795032, 0.1496500008215662, 0.14945000293664634, 0.14709999959450215, 0.1480999999330379, 0.15339999663410708, 0.1518499993835576, 0.14895000276737846, 0.1476500001444947, 0.14789999841013923, 0.14714999997522682, 0.1479499987908639, 0.14789999841013923, 0.1479500024288427, 0.1480999999330379, 0.15255000107572414, 0.15124999845284037, 0.14840000221738592, 0.1558500007377006, 0.14924999777576886, 0.15264999819919467, 0.1489000023866538, 0.15410000196425244, 0.15934999828459695, 0.14784999802941456, 0.15100000018719584, 0.18349999299971387, 0.1513499992142897, 0.1555500020913314, 0.1625500008231029, 0.15615000302204862, 0.15390000044135377, 0.15404999794554897, 0.1536999989184551, 0.15500000154133886, 0.1520000005257316, 0.1697000043350272, 0.1503000021330081, 0.14775000090594403, 0.14709999959450215, 0.14910000027157366, 0.14804999955231324, 0.1483999949414283, 0.15784999777679332, 0.15409999832627364, 0.14789999841013923, 0.14769999688724056, 0.15829999756533653, 0.1501500046288129, 0.14789999841013923, 0.1484500025981106, 0.14939999891794287, 0.14910000390955247, 0.15654999879188836, 0.148899998748675, 0.23709999732091092, 0.15084999904502183, 0.1497999983257614, 0.15144999997573905, 0.1496499971835874, 0.14900000314810313, 0.14970000120229088, 0.1508999994257465, 0.15744999473099597, 0.15390000044135377, 0.1478000049246475, 0.15189999976428226, 0.15509999502683058, 0.1599000024725683, 0.15305000488297082, 0.1524500039522536, 0.1518499993835576, 0.15020000137155876, 0.15534999693045393, 0.14999999621068127, 0.14659999942523427, 0.149500003317371, 0.1504499996372033, 0.15039999925647862, 0.15010000061010942, 0.14939999891794287, 0.15824999718461186, 0.1497999983257614, 0.1501500009908341, 0.152449996676296, 0.16125000547617674, 0.15100000382517464, 0.15109999731066637, 0.15785000141477212, 0.152900000102818, 0.1507500019215513, 0.14999999984866008, 0.14775000090594403, 0.14844999896013178, 0.14830000145593658, 0.14815000031376258, 0.1518500030215364, 0.1473499978601467, 0.149200001033023, 0.14755000302102417, 0.14999999621068127, 0.15019999773357995, 0.14974999794503674, 0.15010000061010942, 0.15050000001792796, 0.14760000340174884, 0.15454999811481684, 0.152449996676296, 0.1499499994679354, 0.15139999959501438, 0.15024999811430462, 0.152900000102818, 0.1537000025564339, 0.14929999815649353, 0.15140000323299319, 0.149200001033023, 0.15514999540755525, 0.14799999917158857, 0.1472000003559515, 0.14754999938304536, 0.1482500010752119, 0.147149996337248, 0.14975000158301555, 0.1544499973533675, 0.1506000007793773, 0.1506000007793773, 0.148899998748675, 0.3271000023232773, 0.15644999803043902, 0.1503000021330081, 0.1489000023866538, 0.1521500016679056, 0.15129999883356504, 0.15139999959501438, 0.15269999857991934, 0.149350002175197, 0.1480999999330379, 0.14754999938304536, 0.14739999824087135, 0.14870000086375512, 0.15025000175228342, 0.15080000230227597, 0.1493499985372182, 0.15209999764920212, 0.14834999819868244, 0.1598999988345895, 0.14855000335955992, 0.14960000407882035, 0.14970000120229088, 0.15010000061010942, 0.15314999836846255, 0.15210000128718093, 0.14775000090594403, 0.1473499978601467, 0.14985000234446488, 0.14854999972158112, 0.14599999849451706, 0.14739999460289255, 0.14754999938304536, 0.1489000023866538, 0.14664999980595894, 0.14739999824087135, 0.14880000162520446, 0.14719999671797268, 0.14644999828306027, 0.14820000069448724, 0.16950000281212851, 0.14814999667578377, 0.14744999862159602, 0.15745000200695358, 0.1507500019215513, 0.1500999969721306, 0.1535500050522387, 0.14980000196374021, 0.14835000183666125, 0.14674999692942947, 0.1476500001444947, 0.15284999608411454, 0.15445000462932512, 0.15720000374130905, 0.15065000116010197, 0.15095000344444998, 0.14955000006011687, 0.1534000039100647, 0.15329999951063655, 0.15084999904502183, 0.15809999604243785, 0.15619999612681568, 0.16090000281110406, 0.15469999925699085, 0.15500000154133886, 0.1527500025986228, 0.19564999820431694, 0.1500999969721306, 0.15020000137155876, 0.1513499992142897, 0.1503000021330081, 0.14755000302102417, 0.14915000429027714, 0.15279999570338987, 0.1513499992142897, 0.14999999621068127, 0.149200001033023, 0.16070000128820539, 0.1592499975231476, 0.15470000653294846, 0.181950003025122, 0.16185000276891515, 0.1532500027678907, 0.15445000099134631, 0.15439999697264284, 0.15034999887575395, 0.20884999685222283, 0.15234999955282547, 0.1531999951112084, 0.1535500014142599, 0.1524500003142748, 0.15139999959501438, 0.15469999925699085, 0.1507499982835725, 0.15070000154082663, 0.1505999971413985, 0.15140000323299319, 0.1634500004001893, 0.1513499955763109, 0.16379999942728318, 0.1540000012028031, 0.1552499998069834, 0.15329999951063655, 0.15165000149863772, 0.22495000303024426, 0.16265000158455223, 0.15645000530639663, 0.15265000183717348, 0.1510500042058993, 0.15220000204863027, 0.15264999819919467, 0.15180000264081173, 0.15085000268300064, 0.14914999701431952, 0.15050000365590677, 0.20954999490641057, 0.1535500050522387, 0.15094999980647117, 0.15020000137155876, 0.15020000137155876, 0.1532500027678907, 0.15249999705702066, 0.15279999934136868, 0.15135000285226852, 0.2994500027853064, 0.22245000582188368, 0.15364999853773043, 0.1878000002761837, 0.257849991612602, 0.1573999979882501, 0.15644999803043902, 0.2125999963027425, 0.15500000154133886, 0.15265000183717348, 0.15210000128718093, 0.15084999904502183, 0.13129999933880754, 0.20420000510057434, 0.24229999689850956, 0.15269999857991934, 0.15219999841065146, 0.15474999963771552, 0.15514999540755525, 0.15240000357152894, 0.15094999980647117, 0.15815000006114133, 0.15280000297934748, 0.15784999777679332, 0.15239999629557133, 0.18234999879496172, 0.15050000001792796, 0.1504500032751821, 0.15094999980647117, 0.15135000285226852, 0.1507500019215513, 0.15324999912991188, 0.1575499991304241, 0.15965000056894496, 0.16065000090748072, 0.15780000103404745, 0.15175000226008706, 0.15154999709920958, 0.1524500003142748, 0.15150000399444252, 0.1540000012028031, 0.15139999959501438, 0.1548000000184402, 0.15250000069499947, 0.1507499982835725, 0.15220000204863027, 0.15029999849502929, 0.1523000028100796, 0.15615000302204862, 0.15345000429078937, 0.1539999939268455, 0.1524500003142748, 0.15125000209081918, 0.15255000107572414, 0.16239999968092889, 0.15264999819919467, 0.15085000268300064, 0.1532500027678907, 0.1724499998090323, 0.15069999790284783, 0.15095000344444998, 0.1540000012028031, 0.15010000424808823, 0.15165000149863772, 0.1573999979882501, 0.15655000606784597, 0.1524500003142748, 0.15744999836897478, 0.15279999934136868, 0.15405000158352777, 0.15179999900283292, 0.15249999705702066, 0.15070000154082663, 0.15239999629557133, 0.1506000044173561, 0.15029999849502929, 0.15254999743774533, 0.15179999900283292, 0.1579000017954968, 0.1540000012028031, 0.15795000217622146, 0.15639999764971435, 0.15235000319080427, 0.15729999722680077, 0.15744999836897478, 0.21289999858709052, 0.13719999697059393, 0.15485000039916486, 0.152449996676296, 0.1570999957039021, 0.15314999836846255, 0.1536999989184551, 0.15165000149863772, 0.15239999629557133, 0.1522999991721008, 0.15159999747993425, 0.16065000090748072, 0.1540000012028031, 0.1659500048845075, 0.1520000005257316, 0.15669999993406236, 0.15240000357152894, 0.15140000323299319, 0.16400000095018186, 0.1528999964648392, 0.15809999604243785, 0.15110000094864517, 0.14939999891794287, 0.15254999743774533, 0.1541500023449771, 0.1530499976070132, 0.1613000022189226, 0.1513499992142897, 0.1517000018793624, 0.15210000128718093, 0.15379999967990443, 0.1513499992142897, 0.15630000416422263, 0.15300000086426735, 0.156299996888265, 0.1548000000184402, 0.15189999612630345, 0.1510500005679205, 0.16060000052675605, 0.15324999912991188, 0.1535499977762811, 0.1493499985372182, 0.1522999991721008, 0.1508999957877677, 0.1521499980299268, 0.1564999984111637, 0.15224999879137613, 0.15284999608411454, 0.15144999997573905, 0.14995000310591422, 0.15085000268300064, 0.14955000006011687, 0.1542999998491723, 0.16039999900385737, 0.15870000061113387, 0.15605000226059929, 0.15144999997573905, 0.19685000006575137, 0.15339999663410708, 0.15169999824138358, 0.17224999464815482, 0.15374999929917976, 0.15334999625338241, 0.15474999963771552, 0.15609999536536634, 0.15239999993355013, 0.15190000340226106, 0.15349999739555642, 0.15454999811481684, 0.15135000285226852, 0.1524500003142748, 0.15434999659191817, 0.16235000293818302, 0.152299995534122, 0.15255000471370295, 0.15234999955282547, 0.15159999747993425, 0.15070000154082663, 0.15195000014500692, 0.15519999578827992, 0.1531000016257167, 0.16365000192308798, 0.15024999811430462, 0.18320000526728109, 0.15285000336007215, 0.1507499982835725, 0.16065000090748072, 0.16445000073872507, 0.15029999849502929, 0.15125000209081918, 0.2704500038817059, 0.3463500033831224, 0.2375999974901788, 0.22214999626157805, 0.15004999659140594, 0.15254999743774533, 0.1538499964226503, 0.16375000268453732, 0.15644999803043902, 0.1534000039100647, 0.15129999883356504, 0.2813000028254464, 0.17699999443721026, 0.15330000314861536, 0.15350000103353523, 0.15770000027259812, 0.1591500040376559, 0.17870000010589138, 0.15824999718461186, 0.15269999857991934, 0.15565000285278074, 0.1520000005257316, 0.14970000120229088, 0.15264999819919467, 0.15135000285226852, 0.15125000209081918, 0.15615000302204862, 0.15594999422319233, 0.1598999951966107, 0.15195000014500692, 0.15114999769139104, 0.15165000149863772, 0.15115000132936984, 0.15050000001792796, 0.14810000357101671, 0.1487500012444798, 0.15050000365590677, 0.14915000065229833, 0.1496500008215662, 0.152900000102818, 0.1521500016679056, 0.1523000028100796, 0.15144999633776024, 0.15365000217570923, 0.15250000069499947, 0.15175000226008706, 0.15005000386736356, 0.1523000028100796, 0.16009999671950936, 0.15350000103353523, 0.14999999984866008, 0.15079999866429716, 0.149049999890849, 0.1503000021330081, 0.15344999701483175, 0.15684999380027875, 0.1520000005257316, 0.1659500012465287, 0.15330000314861536, 0.1508999994257465, 0.15874999371590093, 0.15690000145696104, 0.15305000124499202, 0.15150000399444252, 0.14884999836795032, 0.1511999980721157, 0.15100000382517464, 0.15050000001792796, 0.15910000001895241, 0.16010000399546698, 0.16009999671950936, 0.1599000024725683, 0.1562000034027733, 0.1625500008231029, 0.15054999676067382, 0.1516499978606589, 0.1483999985794071, 0.15039999925647862, 0.14999999984866008, 0.1496500008215662, 0.14844999532215297, 0.15005000022938475, 0.1477999976486899, 0.14804999955231324, 0.14680000094813295, 0.14804999955231324, 0.14744999862159602, 0.14944999929866754, 0.1540000012028031, 0.1507499982835725, 0.1571000029798597, 0.15334999989136122, 0.1523000028100796, 0.14975000158301555, 0.14784999802941456, 0.15069999790284783, 0.1506000007793773, 0.1637499954085797, 0.149200001033023, 0.15219999841065146, 0.15625000378349796, 0.1503000021330081, 0.15139999959501438, 0.1496500008215662, 0.14820000069448724, 0.1476500001444947, 0.15150000035646372, 0.14840000221738592, 0.149200001033023, 0.1540000012028031, 0.15029999849502929, 0.14940000255592167, 0.14899999587214552, 0.14854999972158112, 0.15660000644857064, 0.1484500025981106, 0.14984999870648608, 0.15264999819919467, 0.1599000024725683, 0.14959999680286273, 0.14989999544923194, 0.18145000649383292, 0.15580000035697594, 0.15644999803043902, 0.15374999929917976, 0.1513499992142897, 0.14960000044084154, 0.14960000407882035, 0.14944999566068873, 0.15004999659140594, 0.24219999613706023, 0.15770000027259812, 0.15295000048354268, 0.1508999957877677, 0.14954999642213807, 0.15949999942677096, 0.148899998748675, 0.27119999867863953, 0.1556999995955266, 0.14854999972158112, 0.15084999904502183, 0.15070000154082663, 0.14800000280956738, 0.14880000162520446, 0.14865000048303045, 0.1482500010752119, 0.14855000335955992, 0.149049999890849, 0.16360000154236332, 0.15110000094864517, 0.15595000149914995, 0.1542999998491723, 0.16124999820021912, 0.15434999659191817, 0.1549500011606142, 0.156299996888265, 0.15150000035646372, 0.15150000399444252, 0.1512000017100945, 0.15279999934136868, 0.14834999819868244, 0.14885000200592913, 0.1497999983257614, 0.15054999676067382, 0.14835000183666125, 0.14740000187885016, 0.14834999819868244, 0.14910000027157366, 0.149200001033023, 0.15360000179498456, 0.1484500025981106, 0.15344999701483175, 0.14899999587214552, 0.14894999912939966, 0.14939999891794287, 0.16084999879240058, 0.15055000039865263, 0.14954999642213807, 0.19774999236688018, 0.1489000023866538, 0.1507499982835725, 0.1545000050100498, 0.15600000187987462, 0.15309999434975907, 0.14775000090594403, 0.14724999709869735, 0.15079999866429716, 0.14855000335955992, 0.14755000302102417, 0.14759999612579122, 0.15210000128718093, 0.15425000310642645, 0.15920000078040175, 0.15110000094864517, 0.14999999984866008, 0.14924999777576886, 0.149500003317371, 0.15305000124499202, 0.14959999680286273, 0.14910000027157366, 0.14909999663359486, 0.14850000297883525, 0.14675000056740828, 0.14635000115958974, 0.14999999621068127, 0.1494999996793922, 0.14740000187885016, 0.14830000145593658, 0.14619999637943693, 0.1569500018376857, 0.14799999917158857, 0.16105000031529926, 0.16725000023143366, 0.1489000023866538, 0.14759999612579122, 0.14800000280956738, 0.15249999705702066, 0.14775000090594403, 0.14825000471319072, 0.15314999836846255, 0.15005000022938475, 0.14859999646432698, 0.15365000217570923, 0.1535500014142599, 0.1544499973533675, 0.15374999929917976, 0.15290000374079682, 0.1526000014564488, 0.14999999984866008, 0.15050000001792796, 0.15014999735285528, 0.15455000175279565, 0.15195000014500692, 0.15284999972209334, 0.1611499974387698, 0.3239999932702631, 0.12460000289138407, 0.22200000239536166, 0.1603499986231327, 0.1518500030215364, 0.1507500019215513, 0.14914999701431952, 0.15150000035646372, 0.1507500019215513, 0.14975000158301555, 0.14759999612579122, 0.2248499949928373, 0.16865000361576676, 0.15080000230227597, 0.15024999811430462, 0.15140000323299319],
  "QPU": "7000000",
  "Qubits": 10,
  "Queue durations [ms]": [0.0, 0.0, 0.0, 0.0, 0.0, 0.0, 0.0, 0.0, 0.0, 0.0, 0.0, 0.0, 0.0, 0.0, 0.0, 0.0, 0.0, 0.0, 0.0, 0.0, 0.0, 0.0, 0.0, 0.0, 0.0, 0.0, 0.0, 0.0, 0.0, 0.0, 0.0, 0.0, 0.0, 0.0, 0.0, 0.0, 0.0, 0.0, 0.0, 0.0, 0.0, 0.0, 0.0, 0.0, 0.0, 0.0, 0.0, 0.0, 0.0, 0.0, 0.0, 0.0, 0.0, 0.0, 0.0, 0.0, 0.0, 0.0, 0.0, 0.0, 0.0, 0.0, 0.0, 0.0, 0.0, 0.0, 0.0, 0.0, 0.0, 0.0, 0.0, 0.0, 0.0, 0.0, 0.0, 0.0, 0.0, 0.0, 0.0, 0.0, 0.0, 0.0, 0.0, 0.0, 0.0, 0.0, 0.0, 0.0, 0.0, 0.0, 0.0, 0.0, 0.0, 0.0, 0.0, 0.0, 0.0, 0.0, 0.0, 0.0, 0.0, 0.0, 0.0, 0.0, 0.0, 0.0, 0.0, 0.0, 0.0, 0.0, 0.0, 0.0, 0.0, 0.0, 0.0, 0.0, 0.0, 0.0, 0.0, 0.0, 0.0, 0.0, 0.0, 0.0, 0.0, 0.0, 0.0, 0.0, 0.0, 0.0, 0.0, 0.0, 0.0, 0.0, 0.0, 0.0, 0.0, 0.0, 0.0, 0.0, 0.0, 0.0, 0.0, 0.0, 0.0, 0.0, 0.0, 0.0, 0.0, 0.0, 0.0, 0.0, 0.0, 0.0, 0.0, 0.0, 0.0, 0.0, 0.0, 0.0, 0.0, 0.0, 0.0, 0.0, 0.0, 0.0, 0.0, 0.0, 0.0, 0.0, 0.0, 0.0, 0.0, 0.0, 0.0, 0.0, 0.0, 0.0, 0.0, 0.0, 0.0, 0.0, 0.0, 0.0, 0.0, 0.0, 0.0, 0.0, 0.0, 0.0, 0.0, 0.0, 0.0, 0.0, 0.0, 0.0, 0.0, 0.0, 0.0, 0.0, 0.0, 0.0, 0.0, 0.0, 0.0, 0.0, 0.0, 0.0, 0.0, 0.0, 0.0, 0.0, 0.0, 0.0, 0.0, 0.0, 0.0, 0.0, 0.0, 0.0, 0.0, 0.0, 0.0, 0.0, 0.0, 0.0, 0.0, 0.0, 0.0, 0.0, 0.0, 0.0, 0.0, 0.0, 0.0, 0.0, 0.0, 0.0, 0.0, 0.0, 0.0, 0.0, 0.0, 0.0, 0.0, 0.0, 0.0, 0.0, 0.0, 0.0, 0.0, 0.0, 0.0, 0.0, 0.0, 0.0, 0.0, 0.0, 0.0, 0.0, 0.0, 0.0, 0.0, 0.0, 0.0, 0.0, 0.0, 0.0, 0.0, 0.0, 0.0, 0.0, 0.0, 0.0, 0.0, 0.0, 0.0, 0.0, 0.0, 0.0, 0.0, 0.0, 0.0, 0.0, 0.0, 0.0, 0.0, 0.0, 0.0, 0.0, 0.0, 0.0, 0.0, 0.0, 0.0, 0.0, 0.0, 0.0, 0.0, 0.0, 0.0, 0.0, 0.0, 0.0, 0.0, 0.0, 0.0, 0.0, 0.0, 0.0, 0.0, 0.0, 0.0, 0.0, 0.0, 0.0, 0.0, 0.0, 0.0, 0.0, 0.0, 0.0, 0.0, 0.0, 0.0, 0.0, 0.0, 0.0, 0.0, 0.0, 0.0, 0.0, 0.0, 0.0, 0.0, 0.0, 0.0, 0.0, 0.0, 0.0, 0.0, 0.0, 0.0, 0.0, 0.0, 0.0, 0.0, 0.0, 0.0, 0.0, 0.0, 0.0, 0.0, 0.0, 0.0, 0.0, 0.0, 0.0, 0.0, 0.0, 0.0, 0.0, 0.0, 0.0, 0.0, 0.0, 0.0, 0.0, 0.0, 0.0, 0.0, 0.0, 0.0, 0.0, 0.0, 0.0, 0.0, 0.0, 0.0, 0.0, 0.0, 0.0, 0.0, 0.0, 0.0, 0.0, 0.0, 0.0, 0.0, 0.0, 0.0, 0.0, 0.0, 0.0, 0.0, 0.0, 0.0, 0.0, 0.0, 0.0, 0.0, 0.0, 0.0, 0.0, 0.0, 0.0, 0.0, 0.0, 0.0, 0.0, 0.0, 0.0, 0.0, 0.0, 0.0, 0.0, 0.0, 0.0, 0.0, 0.0, 0.0, 0.0, 0.0, 0.0, 0.0, 0.0, 0.0, 0.0, 0.0, 0.0, 0.0, 0.0, 0.0, 0.0, 0.0, 0.0, 0.0, 0.0, 0.0, 0.0, 0.0, 0.0, 0.0, 0.0, 0.0, 0.0, 0.0, 0.0, 0.0, 0.0, 0.0, 0.0, 0.0, 0.0, 0.0, 0.0, 0.0, 0.0, 0.0, 0.0, 0.0, 0.0, 0.0, 0.0, 0.0, 0.0, 0.0, 0.0, 0.0, 0.0, 0.0, 0.0, 0.0, 0.0, 0.0, 0.0, 0.0, 0.0, 0.0, 0.0, 0.0, 0.0, 0.0, 0.0, 0.0, 0.0, 0.0, 0.0, 0.0, 0.0, 0.0, 0.0, 0.0, 0.0, 0.0, 0.0, 0.0, 0.0, 0.0, 0.0, 0.0, 0.0, 0.0, 0.0, 0.0, 0.0, 0.0, 0.0, 0.0, 0.0, 0.0, 0.0, 0.0, 0.0, 0.0, 0.0, 0.0, 0.0, 0.0, 0.0, 0.0, 0.0, 0.0, 0.0, 0.0, 0.0, 0.0, 0.0, 0.0, 0.0, 0.0, 0.0, 0.0, 0.0, 0.0, 0.0, 0.0, 0.0, 0.0, 0.0, 0.0, 0.0, 0.0, 0.0, 0.0, 0.0, 0.0, 0.0, 0.0, 0.0, 0.0, 0.0, 0.0, 0.0, 0.0, 0.0, 0.0, 0.0, 0.0, 0.0, 0.0, 0.0, 0.0, 0.0, 0.0, 0.0, 0.0, 0.0, 0.0, 0.0, 0.0, 0.0, 0.0, 0.0, 0.0, 0.0, 0.0, 0.0, 0.0, 0.0, 0.0, 0.0, 0.0, 0.0, 0.0, 0.0, 0.0, 0.0, 0.0, 0.0, 0.0, 0.0, 0.0, 0.0, 0.0, 0.0, 0.0, 0.0, 0.0, 0.0, 0.0, 0.0, 0.0, 0.0, 0.0, 0.0, 0.0, 0.0, 0.0, 0.0, 0.0, 0.0, 0.0, 0.0, 0.0, 0.0, 0.0, 0.0, 0.0, 0.0, 0.0, 0.0, 0.0, 0.0, 0.0, 0.0, 0.0, 0.0, 0.0, 0.0, 0.0, 0.0, 0.0, 0.0, 0.0, 0.0, 0.0, 0.0, 0.0, 0.0, 0.0, 0.0, 0.0, 0.0, 0.0, 0.0, 0.0, 0.0, 0.0, 0.0, 0.0, 0.0, 0.0, 0.0, 0.0, 0.0, 0.0, 0.0, 0.0, 0.0, 0.0, 0.0, 0.0, 0.0, 0.0, 0.0, 0.0, 0.0, 0.0, 0.0, 0.0, 0.0, 0.0, 0.0, 0.0, 0.0, 0.0, 0.0, 0.0, 0.0, 0.0, 0.0, 0.0, 0.0, 0.0, 0.0, 0.0, 0.0, 0.0, 0.0, 0.0, 0.0, 0.0, 0.0, 0.0, 0.0, 0.0, 0.0, 0.0, 0.0, 0.0, 0.0, 0.0, 0.0, 0.0, 0.0, 0.0, 0.0, 0.0, 0.0, 0.0, 0.0, 0.0, 0.0, 0.0, 0.0, 0.0, 0.0, 0.0, 0.0, 0.0, 0.0, 0.0, 0.0, 0.0, 0.0, 0.0, 0.0, 0.0, 0.0, 0.0, 0.0, 0.0, 0.0, 0.0, 0.0, 0.0, 0.0, 0.0, 0.0, 0.0, 0.0, 0.0, 0.0, 0.0, 0.0, 0.0, 0.0, 0.0, 0.0, 0.0, 0.0, 0.0, 0.0, 0.0, 0.0, 0.0, 0.0, 0.0, 0.0, 0.0, 0.0, 0.0, 0.0, 0.0, 0.0, 0.0, 0.0, 0.0, 0.0, 0.0, 0.0, 0.0, 0.0, 0.0, 0.0, 0.0, 0.0, 0.0, 0.0, 0.0, 0.0, 0.0, 0.0, 0.0, 0.0, 0.0, 0.0, 0.0, 0.0, 0.0, 0.0, 0.0, 0.0, 0.0, 0.0, 0.0, 0.0, 0.0, 0.0, 0.0, 0.0, 0.0, 0.0, 0.0, 0.0, 0.0, 0.0, 0.0, 0.0, 0.0, 0.0, 0.0, 0.0, 0.0, 0.0, 0.0, 0.0, 0.0, 0.0, 0.0, 0.0, 0.0, 0.0, 0.0, 0.0, 0.0, 0.0, 0.0, 0.0, 0.0, 0.0, 0.0, 0.0, 0.0, 0.0, 0.0, 0.0, 0.0, 0.0, 0.0, 0.0, 0.0, 0.0, 0.0, 0.0, 0.0, 0.0, 0.0, 0.0, 0.0, 0.0, 0.0, 0.0, 0.0, 0.0, 0.0, 0.0, 0.0, 0.0, 0.0, 0.0, 0.0, 0.0, 0.0, 0.0, 0.0, 0.0, 0.0, 0.0, 0.0, 0.0, 0.0, 0.0, 0.0, 0.0, 0.0, 0.0, 0.0, 0.0, 0.0, 0.0, 0.0, 0.0, 0.0, 0.0, 0.0, 0.0, 0.0, 0.0, 0.0, 0.0, 0.0, 0.0, 0.0, 0.0, 0.0, 0.0, 0.0, 0.0, 0.0, 0.0, 0.0, 0.0, 0.0, 0.0, 0.0, 0.0, 0.0, 0.0, 0.0, 0.0, 0.0, 0.0, 0.0, 0.0, 0.0, 0.0, 0.0, 0.0, 0.0, 0.0, 0.0, 0.0, 0.0, 0.0, 0.0, 0.0, 0.0, 0.0, 0.0, 0.0, 0.0, 0.0, 0.0, 0.0, 0.0, 0.0, 0.0, 0.0, 0.0, 0.0, 0.0, 0.0, 0.0, 0.0, 0.0, 0.0, 0.0, 0.0, 0.0, 0.0, 0.0, 0.0, 0.0, 0.0, 0.0, 0.0, 0.0, 0.0, 0.0, 0.0, 0.0, 0.0, 0.0, 0.0, 0.0, 0.0, 0.0, 0.0, 0.0, 0.0, 0.0, 0.0, 0.0, 0.0, 0.0, 0.0, 0.0, 0.0, 0.0, 0.0, 0.0, 0.0, 0.0, 0.0, 0.0, 0.0, 0.0, 0.0, 0.0, 0.0, 0.0, 0.0, 0.0, 0.0, 0.0, 0.0, 0.0, 0.0, 0.0, 0.0, 0.0, 0.0, 0.0, 0.0, 0.0, 0.0, 0.0, 0.0, 0.0, 0.0, 0.0, 0.0, 0.0, 0.0, 0.0, 0.0, 0.0, 0.0, 0.0, 0.0, 0.0, 0.0, 0.0, 0.0, 0.0, 0.0, 0.0, 0.0, 0.0, 0.0, 0.0, 0.0, 0.0, 0.0, 0.0, 0.0, 0.0, 0.0, 0.0, 0.0, 0.0, 0.0, 0.0, 0.0, 0.0, 0.0, 0.0, 0.0, 0.0, 0.0, 0.0, 0.0, 0.0, 0.0, 0.0, 0.0, 0.0, 0.0, 0.0, 0.0, 0.0, 0.0, 0.0, 0.0, 0.0, 0.0, 0.0, 0.0, 0.0, 0.0, 0.0, 0.0, 0.0, 0.0, 0.0, 0.0, 0.0, 0.0, 0.0, 0.0, 0.0, 0.0, 0.0, 0.0, 0.0, 0.0, 0.0, 0.0, 0.0, 0.0, 0.0, 0.0, 0.0, 0.0, 0.0, 0.0, 0.0, 0.0, 0.0, 0.0, 0.0, 0.0, 0.0, 0.0, 0.0, 0.0, 0.0, 0.0, 0.0, 0.0, 0.0, 0.0, 0.0, 0.0, 0.0, 0.0, 0.0, 0.0, 0.0, 0.0, 0.0, 0.0, 0.0, 0.0, 0.0, 0.0, 0.0, 0.0, 0.0, 0.0, 0.0, 0.0, 0.0, 0.0, 0.0, 0.0, 0.0, 0.0, 0.0, 0.0, 0.0, 0.0, 0.0, 0.0, 0.0, 0.0, 0.0, 0.0, 0.0, 0.0, 0.0, 0.0, 0.0, 0.0, 0.0, 0.0, 0.0, 0.0, 0.0, 0.0, 0.0, 0.0, 0.0, 0.0, 0.0, 0.0, 0.0, 0.0, 0.0, 0.0, 0.0, 0.0, 0.0, 0.0, 0.0, 0.0, 0.0, 0.0, 0.0, 0.0, 0.0, 0.0, 0.0, 0.0, 0.0, 0.0, 0.0, 0.0, 0.0, 0.0, 0.0, 0.0, 0.0, 0.0, 0.0, 0.0, 0.0, 0.0, 0.0, 0.0, 0.0, 0.0, 0.0, 0.0, 0.0, 0.0, 0.0, 0.0, 0.0, 0.0, 0.0, 0.0, 0.0, 0.0, 0.0, 0.0, 0.0, 0.0, 0.0, 0.0, 0.0, 0.0, 0.0, 0.0, 0.0, 0.0, 0.0, 0.0, 0.0, 0.0, 0.0, 0.0, 0.0, 0.0, 0.0, 0.0, 0.0, 0.0, 0.0, 0.0, 0.0, 0.0, 0.0, 0.0, 0.0, 0.0, 0.0, 0.0, 0.0, 0.0, 0.0, 0.0, 0.0, 0.0, 0.0, 0.0, 0.0, 0.0, 0.0, 0.0, 0.0, 0.0, 0.0, 0.0, 0.0, 0.0, 0.0, 0.0, 0.0, 0.0, 0.0, 0.0, 0.0, 0.0, 0.0, 0.0, 0.0, 0.0, 0.0, 0.0, 0.0, 0.0, 0.0, 0.0, 0.0, 0.0, 0.0, 0.0, 0.0, 0.0, 0.0, 0.0, 0.0, 0.0, 0.0, 0.0, 0.0, 0.0, 0.0, 0.0, 0.0, 0.0, 0.0, 0.0, 0.0, 0.0, 0.0, 0.0, 0.0, 0.0, 0.0, 0.0, 0.0, 0.0, 0.0, 0.0, 0.0, 0.0, 0.0, 0.0, 0.0, 0.0, 0.0, 0.0, 0.0, 0.0, 0.0, 0.0, 0.0, 0.0, 0.0, 0.0, 0.0, 0.0, 0.0, 0.0, 0.0, 0.0, 0.0, 0.0, 0.0, 0.0, 0.0, 0.0, 0.0, 0.0, 0.0, 0.0, 0.0, 0.0, 0.0, 0.0, 0.0, 0.0, 0.0, 0.0, 0.0, 0.0, 0.0, 0.0, 0.0, 0.0, 0.0, 0.0, 0.0, 0.0, 0.0, 0.0, 0.0, 0.0, 0.0, 0.0, 0.0, 0.0, 0.0, 0.0, 0.0, 0.0, 0.0],
  "Shots": 4096,
  "Size": 10,
  "Total Algorithm duration [s]": 6.019,
  "Total Classic duration [s]": 5.80427635007049,
  "Total Quantum duration [s]": 0.21472364992951043
}
