{
  "Circuit execution durations [ms]": [49.05712604522705, 48.72560501098633, 45.81725597381592, 49.90875720977783, 46.18382453918457, 47.83451557159424, 46.593666076660156, 45.76873779296875, 46.48005962371826, 48.886656761169434, 51.16164684295654, 47.78432846069336, 45.145273208618164, 47.07002639770508, 44.99459266662598, 44.01659965515137, 47.68490791320801, 47.3780632019043, 47.913312911987305, 48.714399337768555, 47.34241962432861, 45.03214359283447, 49.19135570526123, 45.91858386993408, 45.279502868652344, 44.37398910522461, 45.648932456970215, 48.82633686065674, 46.74649238586426, 49.17705059051514, 46.87488079071045, 47.363996505737305, 47.55747318267822, 48.982858657836914, 48.956871032714844, 48.75016212463379, 47.17385768890381, 46.67043685913086, 46.20695114135742, 45.75145244598389, 45.931458473205566, 49.65996742248535, 45.31288146972656, 47.831058502197266, 46.80657386779785, 45.5775260925293, 46.54812812805176, 45.26364803314209, 49.00860786437988, 45.584917068481445, 49.248456954956055, 43.82824897766113, 46.875834465026855, 47.752976417541504, 45.034170150756836, 48.74110221862793, 47.26433753967285, 45.56763172149658, 49.546003341674805, 49.059152603149414, 47.347068786621094, 48.23160171508789, 46.468138694763184, 44.57807540893555, 44.875144958496094, 46.54252529144287, 48.12431335449219, 45.93813419342041, 44.93880271911621, 43.524980545043945, 46.10717296600342, 47.820448875427246, 46.98646068572998, 45.95816135406494, 49.0032434463501, 45.13907432556152, 47.998905181884766, 47.61612415313721, 48.87211322784424, 47.16229438781738, 46.61977291107178, 46.538591384887695, 47.98233509063721, 48.281311988830566, 46.29051685333252, 46.75412178039551, 49.16810989379883, 45.95482349395752, 47.41501808166504, 46.02169990539551],
  "Depth": 6.5,
  "Expectation Value": -1.96435546875,
  "Optimal Expectation Value": -2.2360680103302,
  "Optimizer durations [ms]": [486.639, 493.09, 484.506, 536.006, 485.85, 483.172, 488.229, 484.093, 531.251, 491.663, 490.746, 491.641, 483.25, 531.686, 480.799, 475.698, 489.22, 487.783, 532.749, 491.245, 482.789, 485.61, 491.226, 528.931, 482.333, 476.796, 485.647, 491.873, 528.676, 491.647, 481.211, 490.456, 486.998, 534.617, 491.556, 485.243, 489.919, 486.345, 528.888, 484.101, 479.099, 496.62, 483.957, 532.479, 485.822, 478.736, 488.179, 483.183, 536.621, 483.267, 490.71, 483.181, 486.553, 531.578, 484.113, 488.038, 490.724, 483.887, 536.988, 495.119, 489.523, 491.394, 486.88, 525.899, 481.645, 481.912, 492.93, 484.639, 525.85, 479.066, 479.41, 490.554, 488.51, 529.859, 490.826, 477.768, 493.127, 489.338, 535.739, 487.696, 482.091, 488.848, 489.872, 533.616, 486.863, 481.535, 493.564, 484.929, 534.211, 484.166],
  "Optimizer iterations": 90,
  "Optimizer params": [0.0056920299504633195, 0.792867220126064, 0.9993478807476083, 0.494093843445183, 0.9988855236353603, 0.7739493652349901, 0.25053355037925573, 0.6474176133416033],
  "P": 0,
  "Problem": "IC",
  "QJob durations [ms]": [58.94172191619873, 58.64107608795166, 55.940866470336914, 59.77523326873779, 56.081414222717285, 57.73317813873291, 56.578755378723145, 55.84359169006348, 56.44714832305908, 58.844923973083496, 61.057090759277344, 57.7092170715332, 55.297255516052246, 57.1669340133667, 54.90076541900635, 53.853392601013184, 57.55209922790527, 57.52086639404297, 57.829976081848145, 58.58731269836426, 57.23083019256592, 54.95584011077881, 59.296488761901855, 55.82082271575928, 55.11033535003662, 54.25071716308594, 55.5647611618042, 58.89880657196045, 56.59687519073486, 59.107184410095215, 56.761860847473145, 57.591915130615234, 57.62672424316406, 58.893680572509766, 58.85171890258789, 58.646321296691895, 57.11686611175537, 56.787729263305664, 56.143760681152344, 55.70828914642334, 55.768370628356934, 59.682369232177734, 55.43816089630127, 57.76774883270264, 56.705594062805176, 55.40645122528076, 56.427717208862305, 55.354952812194824, 58.93385410308838, 55.518388748168945, 59.09144878387451, 53.725481033325195, 56.95152282714844, 57.65354633331299, 54.89230155944824, 58.691978454589844, 57.19327926635742, 55.669307708740234, 59.6003532409668, 58.99631977081299, 57.35659599304199, 58.07530879974365, 56.57696723937988, 54.4811487197876, 54.744839668273926, 56.561946868896484, 58.06291103363037, 56.06675148010254, 54.827332496643066, 53.43151092529297, 55.94933032989502, 57.73615837097168, 57.08301067352295, 55.86123466491699, 58.92181396484375, 55.00483512878418, 57.86752700805664, 57.69503116607666, 58.77959728240967, 57.04021453857422, 56.77664279937744, 56.485652923583984, 58.09175968170166, 58.208584785461426, 56.221723556518555, 56.63907527923584, 59.10348892211914, 56.06436729431152, 57.33597278594971, 55.922746658325195],
  "QPU": "3000017",
  "Qubits": 2,
  "Queue durations [ms]": [0.0, 0.0, 0.0, 0.0, 0.0, 0.0, 0.0, 0.0, 0.0, 0.0, 0.0, 0.0, 0.0, 0.0, 0.0, 0.0, 0.0, 0.0, 0.0, 0.0, 0.0, 0.0, 0.0, 0.0, 0.0, 0.0, 0.0, 0.0, 0.0, 0.0, 0.0, 0.0, 0.0, 0.0, 0.0, 0.0, 0.0, 0.0, 0.0, 0.0, 0.0, 0.0, 0.0, 0.0, 0.0, 0.0, 0.0, 0.0, 0.0, 0.0, 0.0, 0.0, 0.0, 0.0, 0.0, 0.0, 0.0, 0.0, 0.0, 0.0, 0.0, 0.0, 0.0, 0.0, 0.0, 0.0, 0.0, 0.0, 0.0, 0.0, 0.0, 0.0, 0.0, 0.0, 0.0, 0.0, 0.0, 0.0, 0.0, 0.0, 0.0, 0.0, 0.0, 0.0, 0.0, 0.0, 0.0, 0.0, 0.0, 0.0],
  "Shots": 4096,
  "Size": 2,
  "Total Algorithm duration [s]": 44.605,
  "Total Classic duration [s]": 39.47529242515564,
  "Total Quantum duration [s]": 5.12970757484436
}
