{
  "Circuit execution durations [ms]": [0.11639999866019934, 0.11294999785604887, 0.11200000153621659, 0.12900000001536682, 0.11124999582534656, 0.11114999870187603, 0.12240000432939269, 0.11620000077527948, 0.13204999777371995, 0.11355000242474489, 0.11504999565659091, 0.1147499970102217, 0.11714999709511176, 0.11034999624826014, 0.1097999993362464, 0.10974999895552173, 0.11504999929456972, 0.11729999823728576, 0.11499999891384505, 0.11170000288984738, 0.11225000343983993, 0.11034999988623895, 0.11525000081746839, 0.11359999916749075, 0.11034999988623895, 0.11509999603731558, 0.11249999806750566, 0.12214999878779054, 0.11549999908311293, 0.11230000018258579, 0.11239999730605632, 0.12375000005704351, 0.1490500035288278, 0.11535000157891773, 0.11295000149402767, 0.11084999641752802, 0.12205000166432001, 0.11335000453982502, 0.11180000001331791, 0.11489999815239571, 0.25970000206143595, 0.11889999586855993, 0.2197499998146668, 0.1800499958335422, 0.1155499994638376, 0.11210000229766592, 0.11099999755970202, 0.11114999870187603, 0.11100000119768083, 0.15264999819919467, 0.11684999844874255, 0.11460000314400531, 0.1634499967622105, 0.11810000069090165, 0.10880000263568945, 0.112900001113303, 0.12015000174869783, 0.12440000136848539, 0.11035000352421775, 0.1175500001409091, 0.11270000322838314, 0.11435000124038197, 0.11340000128257088, 0.11204999827896245, 0.11299999823677354, 0.11345000166329555, 0.11440000162110664, 0.10954999743262306, 0.11045000064768828, 0.12045000039506704, 0.11155000174767338, 0.11895000352524221, 0.11450000238255598, 0.11375000030966476, 0.11354999878676608, 0.1207999957841821, 0.11129999620607123, 0.11219999942113645, 0.1143000008596573, 0.12959999730810523, 0.1173999989987351, 0.11275000360910781, 0.11295000149402767, 0.1127499963331502, 0.11494999853312038, 0.11594999887165613, 0.11119999544462189, 0.1110500015784055, 0.11094999717897736, 0.11404999895603396, 0.1141499997174833, 0.11285000437055714, 0.1200500009872485, 0.11965000157942995, 0.12169999899924733, 0.11109999832115136, 0.11139999696752056, 0.11624999751802534, 0.11309999899822287, 0.11210000229766592, 0.11140000060549937, 0.1095000006898772, 0.11084999641752802, 0.15395000082207844, 0.11945000369451009, 0.11154999810969457, 0.10800000018207356, 0.10974999895552173, 0.14859999646432698, 0.14509999891743064, 0.10945000030915253, 0.109350003185682, 0.10974999895552173],
  "Depth": 2.0,
  "Expectation Value": -3.5910966396331787,
  "Optimal Expectation Value": -3.5925002098083496,
  "Optimizer durations [ms]": [3.512, 3.208, 3.178, 4.346, 3.2, 3.001, 3.575, 3.391, 3.708, 3.292, 3.269, 3.31, 3.438, 4.029, 3.156, 3.129, 3.408, 3.321, 3.262, 3.89, 3.216, 3.199, 3.274, 3.345, 3.124, 3.304, 3.212, 3.735, 3.426, 3.19, 3.243, 3.476, 4.029, 3.305, 3.331, 3.15, 3.408, 3.317, 3.185, 4.009, 6.142, 16.29, 5.999, 5.54, 3.678, 3.203, 3.179, 3.184, 3.176, 4.223, 3.366, 3.25, 4.282, 3.402, 3.091, 3.333, 3.545, 3.529, 3.15, 3.377, 3.296, 3.851, 3.197, 3.181, 3.198, 3.291, 3.651, 3.153, 3.047, 3.532, 3.213, 3.316, 3.235, 3.936, 3.253, 3.457, 3.15, 3.309, 3.459, 3.705, 3.337, 3.215, 3.197, 3.261, 3.321, 3.264, 3.18, 3.177, 3.151, 3.232, 3.461, 3.235, 3.402, 3.367, 3.429, 3.255, 3.297, 3.513, 3.817, 3.31, 3.182, 3.138, 3.231, 4.053, 3.484, 3.282, 3.182, 3.19, 3.986, 3.982, 3.154, 3.275, 3.284],
  "Optimizer iterations": 113,
  "Optimizer params": [0.01196593346870017, 0.5021620046092977, 0.9969162911480571, 0.49656683821944314, 0.49660613173892515, 0.997162479194794],
  "P": 0,
  "Problem": "RH",
  "QJob durations [ms]": [0.11639999866019934, 0.11294999785604887, 0.11200000153621659, 0.12900000001536682, 0.11124999582534656, 0.11114999870187603, 0.12240000432939269, 0.11620000077527948, 0.13204999777371995, 0.11355000242474489, 0.11504999565659091, 0.1147499970102217, 0.11714999709511176, 0.11034999624826014, 0.1097999993362464, 0.10974999895552173, 0.11504999929456972, 0.11729999823728576, 0.11499999891384505, 0.11170000288984738, 0.11225000343983993, 0.11034999988623895, 0.11525000081746839, 0.11359999916749075, 0.11034999988623895, 0.11509999603731558, 0.11249999806750566, 0.12214999878779054, 0.11549999908311293, 0.11230000018258579, 0.11239999730605632, 0.12375000005704351, 0.1490500035288278, 0.11535000157891773, 0.11295000149402767, 0.11084999641752802, 0.12205000166432001, 0.11335000453982502, 0.11180000001331791, 0.11489999815239571, 0.25970000206143595, 0.11889999586855993, 0.2197499998146668, 0.1800499958335422, 0.1155499994638376, 0.11210000229766592, 0.11099999755970202, 0.11114999870187603, 0.11100000119768083, 0.15264999819919467, 0.11684999844874255, 0.11460000314400531, 0.1634499967622105, 0.11810000069090165, 0.10880000263568945, 0.112900001113303, 0.12015000174869783, 0.12440000136848539, 0.11035000352421775, 0.1175500001409091, 0.11270000322838314, 0.11435000124038197, 0.11340000128257088, 0.11204999827896245, 0.11299999823677354, 0.11345000166329555, 0.11440000162110664, 0.10954999743262306, 0.11045000064768828, 0.12045000039506704, 0.11155000174767338, 0.11895000352524221, 0.11450000238255598, 0.11375000030966476, 0.11354999878676608, 0.1207999957841821, 0.11129999620607123, 0.11219999942113645, 0.1143000008596573, 0.12959999730810523, 0.1173999989987351, 0.11275000360910781, 0.11295000149402767, 0.1127499963331502, 0.11494999853312038, 0.11594999887165613, 0.11119999544462189, 0.1110500015784055, 0.11094999717897736, 0.11404999895603396, 0.1141499997174833, 0.11285000437055714, 0.1200500009872485, 0.11965000157942995, 0.12169999899924733, 0.11109999832115136, 0.11139999696752056, 0.11624999751802534, 0.11309999899822287, 0.11210000229766592, 0.11140000060549937, 0.1095000006898772, 0.11084999641752802, 0.15395000082207844, 0.11945000369451009, 0.11154999810969457, 0.10800000018207356, 0.10974999895552173, 0.14859999646432698, 0.14509999891743064, 0.10945000030915253, 0.109350003185682, 0.10974999895552173],
  "QPU": "7000000",
  "Qubits": 6,
  "Queue durations [ms]": [0.0, 0.0, 0.0, 0.0, 0.0, 0.0, 0.0, 0.0, 0.0, 0.0, 0.0, 0.0, 0.0, 0.0, 0.0, 0.0, 0.0, 0.0, 0.0, 0.0, 0.0, 0.0, 0.0, 0.0, 0.0, 0.0, 0.0, 0.0, 0.0, 0.0, 0.0, 0.0, 0.0, 0.0, 0.0, 0.0, 0.0, 0.0, 0.0, 0.0, 0.0, 0.0, 0.0, 0.0, 0.0, 0.0, 0.0, 0.0, 0.0, 0.0, 0.0, 0.0, 0.0, 0.0, 0.0, 0.0, 0.0, 0.0, 0.0, 0.0, 0.0, 0.0, 0.0, 0.0, 0.0, 0.0, 0.0, 0.0, 0.0, 0.0, 0.0, 0.0, 0.0, 0.0, 0.0, 0.0, 0.0, 0.0, 0.0, 0.0, 0.0, 0.0, 0.0, 0.0, 0.0, 0.0, 0.0, 0.0, 0.0, 0.0, 0.0, 0.0, 0.0, 0.0, 0.0, 0.0, 0.0, 0.0, 0.0, 0.0, 0.0, 0.0, 0.0, 0.0, 0.0, 0.0, 0.0, 0.0, 0.0, 0.0, 0.0, 0.0, 0.0],
  "Shots": 4096,
  "Size": 6,
  "Total Algorithm duration [s]": 0.403,
  "Total Classic duration [s]": 0.38952500002935997,
  "Total Quantum duration [s]": 0.013474999970640056
}
