{
  "Circuit execution durations [ms]": [59.49842929840088, 83.50133895874023, 83.23097229003906, 58.78329277038574, 59.31544303894043, 60.410380363464355, 57.11472034454346, 59.72158908843994, 58.46595764160156, 63.04287910461426, 59.2801570892334, 85.63435077667236, 84.30397510528564, 57.277560234069824, 58.70246887207031, 59.540390968322754, 58.72499942779541, 56.7624568939209, 60.70911884307861, 60.21678447723389, 60.79399585723877, 84.80370044708252, 83.22107791900635, 61.16282939910889, 59.370994567871094, 60.545921325683594, 62.41762638092041, 60.434818267822266, 58.32326412200928, 59.323787689208984, 61.45358085632324, 83.548903465271, 84.37693119049072, 63.936471939086914, 62.95287609100342, 62.78526782989502, 61.63918972015381, 63.5758638381958, 67.0785903930664, 66.28942489624023, 66.0707950592041, 93.48583221435547, 96.20928764343262, 65.7271146774292, 63.87460231781006, 61.85758113861084, 69.08750534057617, 67.99352169036865, 61.66672706604004, 60.81056594848633, 61.24162673950195, 95.98088264465332, 90.91711044311523, 62.348365783691406, 68.50850582122803, 64.62955474853516, 70.26529312133789, 70.34015655517578, 64.76354598999023, 70.35672664642334, 66.78569316864014, 89.19155597686768, 94.61855888366699, 67.58403778076172, 65.44303894042969, 61.41674518585205, 64.93377685546875, 65.92714786529541, 63.02070617675781, 57.79922008514404, 56.96737766265869, 84.41948890686035, 86.02535724639893, 57.19602108001709, 58.39085578918457, 58.75658988952637, 60.15431880950928, 60.74261665344238, 59.13281440734863, 59.163451194763184, 59.86297130584717, 84.04695987701416, 84.69533920288086, 57.6016902923584, 59.665560722351074, 58.82608890533447, 59.574127197265625, 61.14387512207031, 61.017751693725586, 61.54501438140869, 61.28549575805664, 85.37173271179199, 86.07327938079834, 60.21690368652344, 57.45577812194824, 58.43055248260498, 59.94999408721924, 56.40387535095215, 61.16080284118652, 60.45126914978027, 59.200406074523926, 84.58828926086426],
  "Depth": 2.0,
  "Expectation Value": -2.460998773574829,
  "Optimal Expectation Value": -3.5925002098083496,
  "Optimizer durations [ms]": [569.723, 571.075, 617.927, 572.701, 570.919, 574.815, 607.464, 564.933, 573.4, 633.866, 576.883, 576.464, 625.207, 568.722, 563.558, 572.867, 613.318, 563.407, 589.121, 635.687, 581.253, 575.736, 623.235, 583.305, 569.444, 607.064, 625.4, 574.863, 583.2, 619.201, 575.507, 573.094, 622.448, 599.619, 606.412, 586.529, 624.694, 594.487, 624.987, 659.088, 606.743, 601.914, 656.994, 609.707, 625.053, 639.465, 682.174, 601.955, 619.192, 658.615, 595.806, 609.804, 672.175, 599.404, 611.188, 605.443, 658.338, 611.059, 624.151, 679.408, 608.903, 613.143, 670.82, 604.686, 613.182, 593.121, 672.384, 602.678, 593.433, 623.883, 571.208, 574.557, 623.352, 569.708, 566.035, 570.439, 617.543, 573.632, 574.233, 619.074, 571.546, 571.234, 626.078, 566.382, 567.319, 571.243, 613.795, 569.194, 574.142, 625.383, 571.476, 573.317, 628.108, 576.516, 562.234, 572.456, 620.289, 565.31, 577.651, 623.374, 575.348, 575.384],
  "Optimizer iterations": 102,
  "Optimizer params": [0.9978936191660971, 0.4785694977598858, 0.9974307495500842, 0.5046467318390507, 0.005134124495416898, 0.999994819834578],
  "P": 0,
  "Problem": "RH",
  "QJob durations [ms]": [69.79572772979736, 94.13564205169678, 93.91236305236816, 69.3119764328003, 69.82064247131348, 71.30491733551025, 67.43288040161133, 70.00899314880371, 68.80795955657959, 73.55034351348877, 69.76437568664551, 95.97337245941162, 94.74313259124756, 67.8187608718872, 69.06867027282715, 70.04880905151367, 69.04911994934082, 67.05999374389648, 71.37417793273926, 70.83165645599365, 71.21610641479492, 95.35574913024902, 94.08795833587646, 71.87926769256592, 70.19424438476563, 72.10659980773926, 72.78084754943848, 70.82116603851318, 68.87543201446533, 69.75710391998291, 71.9294548034668, 93.85931491851807, 94.8948860168457, 74.40304756164551, 74.64218139648438, 73.44937324523926, 71.89798355102539, 74.18358325958252, 77.68511772155762, 77.08358764648438, 76.63559913635254, 104.25209999084473, 107.40101337432861, 76.26783847808838, 75.31464099884033, 74.16009902954102, 79.69224452972412, 78.89676094055176, 72.41690158843994, 73.71652126312256, 72.5032091140747, 106.56321048736572, 103.91724109649658, 73.08745384216309, 79.29348945617676, 75.30391216278076, 81.22599124908447, 80.79016208648682, 75.59716701507568, 81.16662502288818, 77.25262641906738, 104.0722131729126, 105.30364513397217, 78.07505130767822, 78.84478569030762, 73.73905181884766, 75.51968097686768, 76.41136646270752, 73.70877265930176, 68.09961795806885, 67.57652759552002, 94.7037935256958, 96.29309177398682, 67.59893894195557, 68.64666938781738, 69.1220760345459, 70.8094835281372, 71.11811637878418, 69.90182399749756, 69.64218616485596, 70.1601505279541, 94.87879276275635, 96.19927406311035, 67.85249710083008, 69.9927806854248, 69.4807767868042, 69.88680362701416, 71.4329481124878, 71.36666774749756, 72.0529556274414, 71.56336307525635, 95.74806690216064, 96.40812873840332, 70.5329179763794, 67.97254085540771, 68.74823570251465, 70.2141523361206, 66.84231758117676, 71.9454288482666, 70.75881958007813, 69.52977180480957, 95.21925449371338],
  "QPU": "300001B",
  "Qubits": 6,
  "Queue durations [ms]": [0.0, 0.0, 0.0, 0.0, 0.0, 0.0, 0.0, 0.0, 0.0, 0.0, 0.0, 0.0, 0.0, 0.0, 0.0, 0.0, 0.0, 0.0, 0.0, 0.0, 0.0, 0.0, 0.0, 0.0, 0.0, 0.0, 0.0, 0.0, 0.0, 0.0, 0.0, 0.0, 0.0, 0.0, 0.0, 0.0, 0.0, 0.0, 0.0, 0.0, 0.0, 0.0, 0.0, 0.0, 0.0, 0.0, 0.0, 0.0, 0.0, 0.0, 0.0, 0.0, 0.0, 0.0, 0.0, 0.0, 0.0, 0.0, 0.0, 0.0, 0.0, 0.0, 0.0, 0.0, 0.0, 0.0, 0.0, 0.0, 0.0, 0.0, 0.0, 0.0, 0.0, 0.0, 0.0, 0.0, 0.0, 0.0, 0.0, 0.0, 0.0, 0.0, 0.0, 0.0, 0.0, 0.0, 0.0, 0.0, 0.0, 0.0, 0.0, 0.0, 0.0, 0.0, 0.0, 0.0, 0.0, 0.0, 0.0, 0.0, 0.0, 0.0],
  "Shots": 4096,
  "Size": 6,
  "Total Algorithm duration [s]": 61.255,
  "Total Classic duration [s]": 53.34665513515473,
  "Total Quantum duration [s]": 7.908344864845276
}
