{
  "Circuit execution durations [ms]": [1.1471, 1.2064000000000001, 1.1544, 1.1604, 1.1315, 1.1401000000000001, 1.131, 1.1312, 1.1387, 1.141, 1.1696, 1.1354, 1.1594000000000002, 1.1511, 1.1554, 1.149, 1.1576, 1.1535, 1.1717, 1.1360000000000001, 1.1492, 1.1447, 1.138, 1.1695, 1.1534, 1.1502000000000001, 1.1433, 1.1536, 1.1820000000000002, 1.1574, 1.1441999999999999, 1.1467999999999998, 1.1376, 1.1581, 1.1367, 1.1522, 1.2133, 1.1516, 1.1286, 1.1607, 1.1473, 1.1862000000000001, 1.1218000000000001, 1.1425999999999998, 1.1401000000000001, 1.1405, 1.1579, 1.1325, 1.2026000000000001, 1.1461, 1.1369, 1.1581, 1.1432, 1.1433, 1.1355, 1.214, 1.1522999999999999, 1.1494, 1.4893, 1.1193, 1.3422, 1.1498000000000002, 1.1497, 1.1502000000000001, 1.168, 1.1188, 1.1524, 1.1472, 1.1391, 1.1788, 1.1372000000000002, 1.3917000000000002, 1.2392, 1.1502000000000001, 1.1755, 1.1495, 1.1605, 1.1453, 1.4514, 1.1394, 1.1421999999999999, 1.1456000000000002, 1.1364, 1.1508, 1.1554, 1.149, 1.1479000000000001, 1.1596, 1.1402, 1.1823000000000001, 1.1601000000000001, 1.1506999999999998, 1.1454, 1.1406, 1.1459000000000001, 1.1932, 1.1599, 1.1397, 1.1556, 1.1576, 1.148, 1.1427],
  "Depth": 167.0,
  "Expectation Value": -11.016597747802734,
  "Optimal Expectation Value": -12.0,
  "Optimizer durations [ms]": [11.822, 13.084, 12.188, 11.974, 11.943, 11.729, 12.114, 11.956, 11.652, 12.047, 12.316, 12.01, 12.072, 12.198, 12.075, 11.858, 12.007, 12.125, 12.361, 11.835, 12.074, 11.96, 11.852, 12.266, 12.123, 11.936, 12.106, 12.065, 12.093, 12.5, 11.78, 12.11, 11.902, 12.214, 11.866, 12.044, 12.4, 12.391, 11.692, 12.246, 11.829, 12.242, 12.024, 12.045, 11.971, 11.935, 12.205, 11.903, 12.515, 11.857, 11.996, 11.907, 12.214, 11.673, 12.233, 12.696, 12.045, 11.874, 15.681, 11.911, 14.06, 11.978, 12.296, 12.188, 12.242, 11.724, 16.842, 11.83, 12.008, 12.21, 12.038, 14.434, 18.581, 13.058, 12.127, 12.334, 11.924, 21.716, 19.632, 11.84, 12.202, 11.953, 14.889, 12.046, 12.044, 12.187, 11.715, 12.529, 12.124, 12.162, 12.432, 11.75, 12.11, 11.996, 12.026, 12.447, 12.154, 11.712, 12.305, 11.96, 12.119, 12.117],
  "Optimizer iterations": 102,
  "Optimizer params": [0.05534700832052973, 0.8746133264888016, 0.13978010612879935, 0.6711981505983559, 0.13745780942082836, 0.39897102979729426],
  "P": 3,
  "Problem": "MCP",
  "QJob durations [ms]": [1.1471, 1.2064000000000001, 1.1544, 1.1604, 1.1315, 1.1401000000000001, 1.131, 1.1312, 1.1387, 1.141, 1.1696, 1.1354, 1.1594000000000002, 1.1511, 1.1554, 1.149, 1.1576, 1.1535, 1.1717, 1.1360000000000001, 1.1492, 1.1447, 1.138, 1.1695, 1.1534, 1.1502000000000001, 1.1433, 1.1536, 1.1820000000000002, 1.1574, 1.1441999999999999, 1.1467999999999998, 1.1376, 1.1581, 1.1367, 1.1522, 1.2133, 1.1516, 1.1286, 1.1607, 1.1473, 1.1862000000000001, 1.1218000000000001, 1.1425999999999998, 1.1401000000000001, 1.1405, 1.1579, 1.1325, 1.2026000000000001, 1.1461, 1.1369, 1.1581, 1.1432, 1.1433, 1.1355, 1.214, 1.1522999999999999, 1.1494, 1.4893, 1.1193, 1.3422, 1.1498000000000002, 1.1497, 1.1502000000000001, 1.168, 1.1188, 1.1524, 1.1472, 1.1391, 1.1788, 1.1372000000000002, 1.3917000000000002, 1.2392, 1.1502000000000001, 1.1755, 1.1495, 1.1605, 1.1453, 1.4514, 1.1394, 1.1421999999999999, 1.1456000000000002, 1.1364, 1.1508, 1.1554, 1.149, 1.1479000000000001, 1.1596, 1.1402, 1.1823000000000001, 1.1601000000000001, 1.1506999999999998, 1.1454, 1.1406, 1.1459000000000001, 1.1932, 1.1599, 1.1397, 1.1556, 1.1576, 1.148, 1.1427],
  "QPU": "7000000",
  "Qubits": 9,
  "Queue durations [ms]": [0.0, 0.0, 0.0, 0.0, 0.0, 0.0, 0.0, 0.0, 0.0, 0.0, 0.0, 0.0, 0.0, 0.0, 0.0, 0.0, 0.0, 0.0, 0.0, 0.0, 0.0, 0.0, 0.0, 0.0, 0.0, 0.0, 0.0, 0.0, 0.0, 0.0, 0.0, 0.0, 0.0, 0.0, 0.0, 0.0, 0.0, 0.0, 0.0, 0.0, 0.0, 0.0, 0.0, 0.0, 0.0, 0.0, 0.0, 0.0, 0.0, 0.0, 0.0, 0.0, 0.0, 0.0, 0.0, 0.0, 0.0, 0.0, 0.0, 0.0, 0.0, 0.0, 0.0, 0.0, 0.0, 0.0, 0.0, 0.0, 0.0, 0.0, 0.0, 0.0, 0.0, 0.0, 0.0, 0.0, 0.0, 0.0, 0.0, 0.0, 0.0, 0.0, 0.0, 0.0, 0.0, 0.0, 0.0, 0.0, 0.0, 0.0, 0.0, 0.0, 0.0, 0.0, 0.0, 0.0, 0.0, 0.0, 0.0, 0.0, 0.0, 0.0],
  "Shots": 4096,
  "Size": 9,
  "Total Algorithm duration [s]": 1.271,
  "Total Classic duration [s]": 1.1523645999999999,
  "Total Quantum duration [s]": 0.1186354
}
