{
  "Circuit execution durations [ms]": [1.1553, 1.1617000000000002, 1.1374, 1.1520000000000001, 1.1461, 1.1475000000000002, 1.139, 1.13, 1.1387, 1.1231, 1.1566, 1.1538, 1.1409, 1.1747, 1.1506999999999998, 1.1561, 1.1540000000000001, 1.1460000000000001, 1.3821, 1.1528, 1.1405, 1.1854, 1.1419, 1.1566, 1.2212, 1.1547, 1.1573, 1.1589, 1.1464999999999999, 1.1339, 1.1464999999999999, 1.1532, 1.1348, 1.1428, 1.1591, 1.1520000000000001, 1.2051, 1.1766999999999999, 1.1662000000000001, 1.1345999999999998, 1.1448, 1.1498000000000002, 1.1433, 1.1402, 1.1300999999999999, 1.1433, 1.1496, 1.1773, 1.1698, 1.2579, 1.1444999999999999, 1.1427, 1.1453, 1.1689999999999998, 1.1565, 1.1337000000000002, 1.1392, 1.1676, 1.1258, 1.1425999999999998, 1.1563, 1.1691, 1.1499, 1.1529, 1.1576, 1.1418000000000001, 1.1329999999999998, 1.1361999999999999, 1.1546, 1.1457, 1.1471, 1.1378, 1.1627, 1.2731999999999999, 1.1605],
  "Depth": 167.0,
  "Expectation Value": -11.451104164123535,
  "Optimal Expectation Value": -12.0,
  "Optimizer durations [ms]": [11.931, 12.206, 12.098, 12.273, 12.306, 12.018, 11.927, 11.663, 12.197, 11.827, 12.029, 11.892, 12.117, 12.405, 12.027, 12.167, 11.975, 12.046, 14.145, 12.152, 11.965, 12.568, 11.913, 12.09, 12.77, 11.922, 12.242, 12.099, 11.915, 11.954, 11.999, 11.842, 12.467, 11.902, 12.013, 12.179, 12.731, 12.374, 11.971, 12.146, 11.973, 11.873, 12.115, 11.847, 11.753, 12.134, 11.922, 12.303, 21.827, 17.187, 12.055, 11.996, 11.933, 12.26, 12.017, 11.937, 11.992, 12.222, 11.522, 12.275, 12.075, 12.015, 12.272, 12.096, 12.183, 12.039, 11.843, 11.756, 12.218, 11.985, 12.03, 11.883, 12.003, 13.481, 11.942],
  "Optimizer iterations": 75,
  "Optimizer params": [0.9919749895516552, 0.7191953128444578, 0.5290358321894522, 0.41029993108575036, 0.38410919365383095, 0.4562684015384817],
  "P": 3,
  "Problem": "MCP",
  "QJob durations [ms]": [1.1553, 1.1617000000000002, 1.1374, 1.1520000000000001, 1.1461, 1.1475000000000002, 1.139, 1.13, 1.1387, 1.1231, 1.1566, 1.1538, 1.1409, 1.1747, 1.1506999999999998, 1.1561, 1.1540000000000001, 1.1460000000000001, 1.3821, 1.1528, 1.1405, 1.1854, 1.1419, 1.1566, 1.2212, 1.1547, 1.1573, 1.1589, 1.1464999999999999, 1.1339, 1.1464999999999999, 1.1532, 1.1348, 1.1428, 1.1591, 1.1520000000000001, 1.2051, 1.1766999999999999, 1.1662000000000001, 1.1345999999999998, 1.1448, 1.1498000000000002, 1.1433, 1.1402, 1.1300999999999999, 1.1433, 1.1496, 1.1773, 1.1698, 1.2579, 1.1444999999999999, 1.1427, 1.1453, 1.1689999999999998, 1.1565, 1.1337000000000002, 1.1392, 1.1676, 1.1258, 1.1425999999999998, 1.1563, 1.1691, 1.1499, 1.1529, 1.1576, 1.1418000000000001, 1.1329999999999998, 1.1361999999999999, 1.1546, 1.1457, 1.1471, 1.1378, 1.1627, 1.2731999999999999, 1.1605],
  "QPU": "7000000",
  "Qubits": 9,
  "Queue durations [ms]": [0.0, 0.0, 0.0, 0.0, 0.0, 0.0, 0.0, 0.0, 0.0, 0.0, 0.0, 0.0, 0.0, 0.0, 0.0, 0.0, 0.0, 0.0, 0.0, 0.0, 0.0, 0.0, 0.0, 0.0, 0.0, 0.0, 0.0, 0.0, 0.0, 0.0, 0.0, 0.0, 0.0, 0.0, 0.0, 0.0, 0.0, 0.0, 0.0, 0.0, 0.0, 0.0, 0.0, 0.0, 0.0, 0.0, 0.0, 0.0, 0.0, 0.0, 0.0, 0.0, 0.0, 0.0, 0.0, 0.0, 0.0, 0.0, 0.0, 0.0, 0.0, 0.0, 0.0, 0.0, 0.0, 0.0, 0.0, 0.0, 0.0, 0.0, 0.0, 0.0, 0.0, 0.0, 0.0],
  "Shots": 4096,
  "Size": 9,
  "Total Algorithm duration [s]": 0.923,
  "Total Classic duration [s]": 0.8361822,
  "Total Quantum duration [s]": 0.08681780000000001
}
