{
  "Circuit execution durations [ms]": [1.148, 1.1708, 1.1699, 1.1264, 1.4439, 1.4051, 1.3783, 1.1363, 1.0775, 1.1702, 1.145, 1.1541, 1.1598, 1.1483, 1.1502999999999999, 1.1356000000000002, 1.1367, 1.2026999999999999, 1.1734, 1.16, 1.0574, 1.1552, 1.1328, 1.1658, 1.1479000000000001, 1.1482, 1.1692, 1.153, 1.1846, 1.1612, 1.1248, 1.135, 1.158, 1.1747999999999998, 1.1303999999999998, 1.1544, 1.1345, 1.1617000000000002, 1.1636000000000002, 1.1417000000000002, 1.1401000000000001, 1.1416, 1.1481, 1.1539, 1.1673, 1.1704, 1.1387, 1.1381, 1.1596, 1.2024, 1.1698, 1.1332, 1.157, 1.15, 1.1401000000000001, 1.1677, 1.1477, 1.1381, 1.1631, 1.1427, 1.1593, 1.153, 1.1595, 1.1583999999999999, 1.1341999999999999, 1.1429, 1.1492, 1.2149, 1.1473, 1.1628, 1.1583999999999999, 1.1435, 1.1383, 1.1308, 1.1448999999999998, 1.1488, 1.2503, 1.1521000000000001, 1.1467999999999998, 1.1527, 1.1471, 1.1428, 1.1463999999999999, 1.1335, 1.1482, 1.1681000000000001, 1.2895, 1.1478, 1.4102999999999999, 1.1486999999999998, 1.1435, 1.1586, 1.1538, 1.1300999999999999, 1.1614, 1.206, 1.1341999999999999, 1.1418000000000001, 1.1406999999999998],
  "Depth": 167.0,
  "Expectation Value": -11.639445304870605,
  "Optimal Expectation Value": -12.0,
  "Optimizer durations [ms]": [12.106, 12.214, 12.019, 11.846, 15.292, 21.188, 15.151, 11.915, 11.365, 12.305, 11.841, 11.965, 12.155, 12.336, 12.057, 11.869, 11.741, 12.513, 12.337, 12.364, 11.089, 11.889, 12.09, 12.029, 12.218, 11.918, 12.441, 11.957, 12.536, 12.012, 11.84, 11.832, 12.162, 12.302, 11.884, 11.816, 11.929, 12.393, 12.238, 11.671, 11.946, 12.111, 12.047, 11.933, 12.241, 12.251, 11.802, 12.159, 11.912, 12.721, 12.126, 11.973, 11.874, 12.118, 12.093, 12.13, 12.192, 11.89, 12.263, 11.97, 12.051, 12.221, 12.093, 11.979, 11.973, 11.866, 12.017, 12.651, 12.04, 12.287, 12.081, 12.11, 11.9, 11.802, 11.85, 12.038, 13.273, 12.139, 11.848, 12.138, 11.829, 12.133, 12.137, 11.739, 12.078, 12.178, 13.589, 21.393, 16.65, 12.211, 11.849, 12.208, 11.821, 11.902, 12.392, 12.332, 12.22, 11.777, 11.923],
  "Optimizer iterations": 99,
  "Optimizer params": [0.44785793109588157, 0.08149139421997044, 0.061782354675765455, 0.31067709977465463, 0.9999762828307227, 0.9268052944809552],
  "P": 3,
  "Problem": "MCP",
  "QJob durations [ms]": [1.148, 1.1708, 1.1699, 1.1264, 1.4439, 1.4051, 1.3783, 1.1363, 1.0775, 1.1702, 1.145, 1.1541, 1.1598, 1.1483, 1.1502999999999999, 1.1356000000000002, 1.1367, 1.2026999999999999, 1.1734, 1.16, 1.0574, 1.1552, 1.1328, 1.1658, 1.1479000000000001, 1.1482, 1.1692, 1.153, 1.1846, 1.1612, 1.1248, 1.135, 1.158, 1.1747999999999998, 1.1303999999999998, 1.1544, 1.1345, 1.1617000000000002, 1.1636000000000002, 1.1417000000000002, 1.1401000000000001, 1.1416, 1.1481, 1.1539, 1.1673, 1.1704, 1.1387, 1.1381, 1.1596, 1.2024, 1.1698, 1.1332, 1.157, 1.15, 1.1401000000000001, 1.1677, 1.1477, 1.1381, 1.1631, 1.1427, 1.1593, 1.153, 1.1595, 1.1583999999999999, 1.1341999999999999, 1.1429, 1.1492, 1.2149, 1.1473, 1.1628, 1.1583999999999999, 1.1435, 1.1383, 1.1308, 1.1448999999999998, 1.1488, 1.2503, 1.1521000000000001, 1.1467999999999998, 1.1527, 1.1471, 1.1428, 1.1463999999999999, 1.1335, 1.1482, 1.1681000000000001, 1.2895, 1.1478, 1.4102999999999999, 1.1486999999999998, 1.1435, 1.1586, 1.1538, 1.1300999999999999, 1.1614, 1.206, 1.1341999999999999, 1.1418000000000001, 1.1406999999999998],
  "QPU": "7000000",
  "Qubits": 9,
  "Queue durations [ms]": [0.0, 0.0, 0.0, 0.0, 0.0, 0.0, 0.0, 0.0, 0.0, 0.0, 0.0, 0.0, 0.0, 0.0, 0.0, 0.0, 0.0, 0.0, 0.0, 0.0, 0.0, 0.0, 0.0, 0.0, 0.0, 0.0, 0.0, 0.0, 0.0, 0.0, 0.0, 0.0, 0.0, 0.0, 0.0, 0.0, 0.0, 0.0, 0.0, 0.0, 0.0, 0.0, 0.0, 0.0, 0.0, 0.0, 0.0, 0.0, 0.0, 0.0, 0.0, 0.0, 0.0, 0.0, 0.0, 0.0, 0.0, 0.0, 0.0, 0.0, 0.0, 0.0, 0.0, 0.0, 0.0, 0.0, 0.0, 0.0, 0.0, 0.0, 0.0, 0.0, 0.0, 0.0, 0.0, 0.0, 0.0, 0.0, 0.0, 0.0, 0.0, 0.0, 0.0, 0.0, 0.0, 0.0, 0.0, 0.0, 0.0, 0.0, 0.0, 0.0, 0.0, 0.0, 0.0, 0.0, 0.0, 0.0, 0.0],
  "Shots": 4096,
  "Size": 9,
  "Total Algorithm duration [s]": 1.225,
  "Total Classic duration [s]": 1.1097833000000001,
  "Total Quantum duration [s]": 0.1152167
}
