{
  "Circuit execution durations [ms]": [1.1781000000000001, 1.1486, 1.1039, 1.2252999999999998, 1.3172, 1.149, 1.1516, 1.0674000000000001, 1.216, 1.1613, 1.1557, 1.2392, 1.2204, 1.2055, 1.3889, 1.1504, 1.1583999999999999, 1.1721, 1.1652, 1.1521000000000001, 1.1406, 1.161, 1.1477, 1.1602, 1.1605999999999999, 1.1513, 1.1399, 1.1393, 1.1439, 1.1509999999999998, 1.1562000000000001, 1.2203, 1.1498000000000002, 1.1602, 1.1534, 1.158, 1.1797000000000002, 1.1366, 1.1341, 1.1567, 1.135, 1.1419, 1.1425999999999998, 1.1295000000000002, 1.1460000000000001, 1.1448, 1.1394, 1.1499, 1.1529, 1.1613, 1.1552, 1.1273, 1.2096, 1.1432, 1.1282, 1.1501000000000001, 1.1521000000000001, 1.1820000000000002, 1.1708, 1.1336, 1.1659000000000002, 1.1502000000000001, 1.1303, 1.1467, 1.1483, 1.1406, 1.1593, 1.1635, 1.1486, 1.1512, 1.1616, 1.1865, 1.4498, 1.4285999999999999, 1.149, 1.1473, 1.1398000000000001, 1.1372000000000002, 1.1429, 1.147, 1.2133, 1.139, 1.1444, 1.1417000000000002, 1.1602999999999999, 1.1347, 1.1524, 1.1711, 1.1836, 1.1651, 1.1546, 1.1448999999999998, 1.1447, 1.1482, 1.1476, 1.1441999999999999, 1.1554, 1.147, 1.1764, 1.1424, 1.1412],
  "Depth": 167.0,
  "Expectation Value": -11.888372421264648,
  "Optimal Expectation Value": -12.0,
  "Optimizer durations [ms]": [12.29, 12.117, 20.001, 13.017, 13.694, 12.033, 12.049, 20.604, 12.802, 12.23, 12.118, 12.992, 12.871, 17.658, 18.635, 12.135, 12.157, 12.344, 12.483, 12.183, 11.97, 12.162, 11.873, 12.254, 12.076, 11.91, 12.243, 11.938, 12.072, 12.071, 11.9, 12.722, 11.932, 12.382, 12.086, 12.027, 12.43, 11.617, 12.097, 12.143, 11.968, 11.941, 11.684, 12.033, 11.965, 11.93, 11.913, 11.754, 12.205, 12.226, 11.852, 11.909, 12.661, 11.921, 11.88, 11.852, 12.116, 12.514, 12.248, 11.83, 12.378, 12.01, 11.606, 12.056, 11.754, 12.17, 12.233, 12.245, 11.949, 12.094, 12.05, 12.307, 21.127, 18.828, 12.194, 11.873, 12.057, 11.853, 11.81, 12.311, 12.741, 11.791, 11.984, 12.197, 12.097, 11.887, 11.807, 12.472, 12.562, 11.97, 12.293, 11.688, 12.172, 12.172, 12.007, 11.922, 12.042, 11.96, 12.391, 11.685, 14.172],
  "Optimizer iterations": 101,
  "Optimizer params": [0.4054830374151796, 0.5463059323118511, 0.727189288981709, 0.37697755930015614, 0.33773316824924077, 0.5197031402212045],
  "P": 3,
  "Problem": "MCP",
  "QJob durations [ms]": [1.1781000000000001, 1.1486, 1.1039, 1.2252999999999998, 1.3172, 1.149, 1.1516, 1.0674000000000001, 1.216, 1.1613, 1.1557, 1.2392, 1.2204, 1.2055, 1.3889, 1.1504, 1.1583999999999999, 1.1721, 1.1652, 1.1521000000000001, 1.1406, 1.161, 1.1477, 1.1602, 1.1605999999999999, 1.1513, 1.1399, 1.1393, 1.1439, 1.1509999999999998, 1.1562000000000001, 1.2203, 1.1498000000000002, 1.1602, 1.1534, 1.158, 1.1797000000000002, 1.1366, 1.1341, 1.1567, 1.135, 1.1419, 1.1425999999999998, 1.1295000000000002, 1.1460000000000001, 1.1448, 1.1394, 1.1499, 1.1529, 1.1613, 1.1552, 1.1273, 1.2096, 1.1432, 1.1282, 1.1501000000000001, 1.1521000000000001, 1.1820000000000002, 1.1708, 1.1336, 1.1659000000000002, 1.1502000000000001, 1.1303, 1.1467, 1.1483, 1.1406, 1.1593, 1.1635, 1.1486, 1.1512, 1.1616, 1.1865, 1.4498, 1.4285999999999999, 1.149, 1.1473, 1.1398000000000001, 1.1372000000000002, 1.1429, 1.147, 1.2133, 1.139, 1.1444, 1.1417000000000002, 1.1602999999999999, 1.1347, 1.1524, 1.1711, 1.1836, 1.1651, 1.1546, 1.1448999999999998, 1.1447, 1.1482, 1.1476, 1.1441999999999999, 1.1554, 1.147, 1.1764, 1.1424, 1.1412],
  "QPU": "7000000",
  "Qubits": 9,
  "Queue durations [ms]": [0.0, 0.0, 0.0, 0.0, 0.0, 0.0, 0.0, 0.0, 0.0, 0.0, 0.0, 0.0, 0.0, 0.0, 0.0, 0.0, 0.0, 0.0, 0.0, 0.0, 0.0, 0.0, 0.0, 0.0, 0.0, 0.0, 0.0, 0.0, 0.0, 0.0, 0.0, 0.0, 0.0, 0.0, 0.0, 0.0, 0.0, 0.0, 0.0, 0.0, 0.0, 0.0, 0.0, 0.0, 0.0, 0.0, 0.0, 0.0, 0.0, 0.0, 0.0, 0.0, 0.0, 0.0, 0.0, 0.0, 0.0, 0.0, 0.0, 0.0, 0.0, 0.0, 0.0, 0.0, 0.0, 0.0, 0.0, 0.0, 0.0, 0.0, 0.0, 0.0, 0.0, 0.0, 0.0, 0.0, 0.0, 0.0, 0.0, 0.0, 0.0, 0.0, 0.0, 0.0, 0.0, 0.0, 0.0, 0.0, 0.0, 0.0, 0.0, 0.0, 0.0, 0.0, 0.0, 0.0, 0.0, 0.0, 0.0, 0.0, 0.0],
  "Shots": 4096,
  "Size": 9,
  "Total Algorithm duration [s]": 1.271,
  "Total Classic duration [s]": 1.1533312999999998,
  "Total Quantum duration [s]": 0.11766870000000001
}
