{
  "Circuit execution durations [ms]": [1.1607, 1.1324, 1.1541, 1.1546, 1.1509999999999998, 1.1508, 1.1471, 1.1436, 1.1383, 1.1368, 1.1322, 1.1457, 1.1291, 1.1963, 1.1417000000000002, 1.1538, 1.1541, 1.1628, 1.1417000000000002, 1.1504, 1.1642, 1.1448999999999998, 1.1448999999999998, 1.3056999999999999, 1.406, 1.082, 1.4014, 1.1793, 1.137, 1.1405, 1.1455, 1.15, 1.2001, 1.1546, 1.1543, 1.1552, 1.1406, 1.1973, 1.1493, 1.1383999999999999, 1.1577, 1.1608, 1.1803, 1.1388, 1.1549, 1.1582999999999999, 1.1785999999999999, 1.1425, 1.1406999999999998, 1.1892999999999998, 1.1542, 1.4194, 1.177, 1.3515000000000001, 1.1432, 1.1438, 1.1459000000000001, 1.1447, 1.1522, 1.1522, 1.1434, 1.1522999999999999, 1.1636000000000002, 1.1455, 1.159, 1.1405, 1.1444, 1.1364, 1.1467999999999998, 1.1518, 1.1425999999999998, 1.1595, 1.1518, 1.1451, 1.1381, 1.1373, 1.1512],
  "Depth": 167.0,
  "Expectation Value": -11.915887832641602,
  "Optimal Expectation Value": -12.0,
  "Optimizer durations [ms]": [14.321, 12.238, 12.038, 11.891, 12.134, 12.098, 11.717, 12.252, 11.854, 11.81, 11.666, 11.989, 11.964, 12.372, 12.082, 12.207, 12.179, 12.128, 11.94, 12.076, 11.984, 12.228, 11.703, 19.268, 18.072, 21.115, 17.023, 12.339, 11.664, 12.254, 11.865, 12.151, 12.283, 12.12, 12.071, 11.949, 12.134, 12.458, 12.338, 11.678, 12.403, 11.893, 12.401, 11.857, 12.22, 12.092, 12.077, 12.184, 11.999, 12.388, 12.093, 14.53, 21.674, 14.63, 12.104, 12.244, 11.731, 12.233, 11.888, 11.97, 12.377, 12.085, 11.906, 12.198, 12.022, 12.189, 11.893, 12.086, 12.058, 11.921, 11.799, 12.188, 12.187, 12.094, 11.918, 11.842, 11.859],
  "Optimizer iterations": 77,
  "Optimizer params": [0.9481775515239595, 0.5535045614417896, 0.26168885070248976, 0.8569651973485304, 0.3248680600846121, 0.5203862029519326],
  "P": 3,
  "Problem": "MCP",
  "QJob durations [ms]": [1.1607, 1.1324, 1.1541, 1.1546, 1.1509999999999998, 1.1508, 1.1471, 1.1436, 1.1383, 1.1368, 1.1322, 1.1457, 1.1291, 1.1963, 1.1417000000000002, 1.1538, 1.1541, 1.1628, 1.1417000000000002, 1.1504, 1.1642, 1.1448999999999998, 1.1448999999999998, 1.3056999999999999, 1.406, 1.082, 1.4014, 1.1793, 1.137, 1.1405, 1.1455, 1.15, 1.2001, 1.1546, 1.1543, 1.1552, 1.1406, 1.1973, 1.1493, 1.1383999999999999, 1.1577, 1.1608, 1.1803, 1.1388, 1.1549, 1.1582999999999999, 1.1785999999999999, 1.1425, 1.1406999999999998, 1.1892999999999998, 1.1542, 1.4194, 1.177, 1.3515000000000001, 1.1432, 1.1438, 1.1459000000000001, 1.1447, 1.1522, 1.1522, 1.1434, 1.1522999999999999, 1.1636000000000002, 1.1455, 1.159, 1.1405, 1.1444, 1.1364, 1.1467999999999998, 1.1518, 1.1425999999999998, 1.1595, 1.1518, 1.1451, 1.1381, 1.1373, 1.1512],
  "QPU": "7000000",
  "Qubits": 9,
  "Queue durations [ms]": [0.0, 0.0, 0.0, 0.0, 0.0, 0.0, 0.0, 0.0, 0.0, 0.0, 0.0, 0.0, 0.0, 0.0, 0.0, 0.0, 0.0, 0.0, 0.0, 0.0, 0.0, 0.0, 0.0, 0.0, 0.0, 0.0, 0.0, 0.0, 0.0, 0.0, 0.0, 0.0, 0.0, 0.0, 0.0, 0.0, 0.0, 0.0, 0.0, 0.0, 0.0, 0.0, 0.0, 0.0, 0.0, 0.0, 0.0, 0.0, 0.0, 0.0, 0.0, 0.0, 0.0, 0.0, 0.0, 0.0, 0.0, 0.0, 0.0, 0.0, 0.0, 0.0, 0.0, 0.0, 0.0, 0.0, 0.0, 0.0, 0.0, 0.0, 0.0, 0.0, 0.0, 0.0, 0.0, 0.0, 0.0],
  "Shots": 4096,
  "Size": 9,
  "Total Algorithm duration [s]": 0.972,
  "Total Classic duration [s]": 0.8822363,
  "Total Quantum duration [s]": 0.08976369999999997
}
