{
  "Circuit execution durations [ms]": [1.1509999999999998, 1.16, 1.1686, 1.1402999999999999, 1.124, 1.135, 1.1348, 1.1360000000000001, 1.1458, 1.1532, 1.1336, 1.1352, 1.1433, 1.1493, 1.1832, 1.1466, 1.1355, 1.1608, 1.1988999999999999, 1.1466, 1.1633, 1.1133, 1.202, 1.1428, 1.1558, 1.1463999999999999, 1.1397, 1.1329999999999998, 1.1376, 1.1339, 1.1326, 1.1508, 1.1403999999999999, 1.1441999999999999, 1.157, 1.1537, 1.1335, 1.1509, 1.1459000000000001, 1.1643999999999999, 1.1494, 1.1769, 1.5101, 1.3816, 1.1514, 1.157, 1.1463999999999999, 1.1354, 1.1869999999999998, 1.145, 1.1337000000000002, 1.1643999999999999, 1.1432, 1.1481, 1.1614, 1.1598, 1.1375, 1.1769, 1.2102, 1.1619, 1.1521000000000001, 1.1627, 1.1716, 1.1522999999999999, 1.1396, 1.2233, 1.1421000000000001, 1.1865999999999999, 1.158, 1.1378, 1.1599, 1.1448999999999998, 1.1375, 1.1604, 1.1489, 1.135, 1.1617000000000002, 1.1612, 1.1652, 1.1495, 1.1431, 1.1527, 1.1676],
  "Depth": 167.0,
  "Expectation Value": -11.63380241394043,
  "Optimal Expectation Value": -12.0,
  "Optimizer durations [ms]": [11.999, 12.037, 12.255, 12.044, 11.899, 11.871, 11.934, 11.837, 11.811, 12.396, 11.777, 11.897, 12.208, 11.787, 12.591, 11.779, 12.738, 12.206, 12.576, 11.944, 11.949, 11.753, 12.685, 11.929, 11.995, 12.072, 11.73, 12.139, 11.836, 11.895, 11.789, 11.925, 12.039, 12.125, 11.876, 12.202, 11.991, 12.19, 12.002, 12.021, 12.117, 12.356, 20.968, 19.521, 12.046, 11.892, 12.187, 11.813, 12.505, 12.061, 11.648, 12.35, 11.827, 12.077, 12.091, 12.1, 12.038, 12.208, 12.615, 12.172, 11.87, 12.396, 11.992, 12.239, 12.057, 12.498, 12.185, 12.525, 12.074, 11.787, 14.821, 11.936, 11.898, 12.26, 11.842, 11.85, 12.338, 12.185, 11.917, 12.194, 12.046, 12.049, 11.973],
  "Optimizer iterations": 83,
  "Optimizer params": [0.9207814556214083, 0.4930750592394245, 0.5447574128322332, 0.6475622172085984, 0.3509914432883323, 0.9337321464016968],
  "P": 3,
  "Problem": "MCP",
  "QJob durations [ms]": [1.1509999999999998, 1.16, 1.1686, 1.1402999999999999, 1.124, 1.135, 1.1348, 1.1360000000000001, 1.1458, 1.1532, 1.1336, 1.1352, 1.1433, 1.1493, 1.1832, 1.1466, 1.1355, 1.1608, 1.1988999999999999, 1.1466, 1.1633, 1.1133, 1.202, 1.1428, 1.1558, 1.1463999999999999, 1.1397, 1.1329999999999998, 1.1376, 1.1339, 1.1326, 1.1508, 1.1403999999999999, 1.1441999999999999, 1.157, 1.1537, 1.1335, 1.1509, 1.1459000000000001, 1.1643999999999999, 1.1494, 1.1769, 1.5101, 1.3816, 1.1514, 1.157, 1.1463999999999999, 1.1354, 1.1869999999999998, 1.145, 1.1337000000000002, 1.1643999999999999, 1.1432, 1.1481, 1.1614, 1.1598, 1.1375, 1.1769, 1.2102, 1.1619, 1.1521000000000001, 1.1627, 1.1716, 1.1522999999999999, 1.1396, 1.2233, 1.1421000000000001, 1.1865999999999999, 1.158, 1.1378, 1.1599, 1.1448999999999998, 1.1375, 1.1604, 1.1489, 1.135, 1.1617000000000002, 1.1612, 1.1652, 1.1495, 1.1431, 1.1527, 1.1676],
  "QPU": "7000000",
  "Qubits": 9,
  "Queue durations [ms]": [0.0, 0.0, 0.0, 0.0, 0.0, 0.0, 0.0, 0.0, 0.0, 0.0, 0.0, 0.0, 0.0, 0.0, 0.0, 0.0, 0.0, 0.0, 0.0, 0.0, 0.0, 0.0, 0.0, 0.0, 0.0, 0.0, 0.0, 0.0, 0.0, 0.0, 0.0, 0.0, 0.0, 0.0, 0.0, 0.0, 0.0, 0.0, 0.0, 0.0, 0.0, 0.0, 0.0, 0.0, 0.0, 0.0, 0.0, 0.0, 0.0, 0.0, 0.0, 0.0, 0.0, 0.0, 0.0, 0.0, 0.0, 0.0, 0.0, 0.0, 0.0, 0.0, 0.0, 0.0, 0.0, 0.0, 0.0, 0.0, 0.0, 0.0, 0.0, 0.0, 0.0, 0.0, 0.0, 0.0, 0.0, 0.0, 0.0, 0.0, 0.0, 0.0, 0.0],
  "Shots": 4096,
  "Size": 9,
  "Total Algorithm duration [s]": 1.021,
  "Total Classic duration [s]": 0.9247261,
  "Total Quantum duration [s]": 0.09627389999999997
}
