{
  "Circuit execution durations [ms]": [1.1555, 1.2293, 1.1596, 1.1477, 1.0765, 1.1661, 1.1528, 1.1514, 1.349, 1.2468, 1.1615, 1.462, 1.1378, 1.1522999999999999, 1.1578000000000002, 1.2409000000000001, 1.3179999999999998, 1.1724999999999999, 1.1459000000000001, 1.1508, 1.1364999999999998, 1.2455, 1.3827, 1.2122000000000002, 1.3538999999999999, 1.1553, 1.1586, 1.1373, 1.15, 1.1495, 1.1596, 1.1544999999999999, 1.1602, 1.1512, 1.1418000000000001, 1.1474, 1.1358, 1.1498000000000002, 1.1569, 1.1438, 1.1299000000000001, 1.2246, 1.1586, 1.1549, 1.1318000000000001, 1.153, 1.1543, 1.141, 1.1324, 1.1369, 1.1576, 1.1578000000000002, 1.1595, 1.1417000000000002, 1.1293, 1.1572, 1.1343, 1.1455, 1.1263, 1.1542, 1.1642, 1.1486999999999998, 1.2242, 1.1483999999999999, 1.1555, 1.1471, 1.2114, 1.1631, 1.1824999999999999, 1.1574, 1.1643000000000001, 1.159, 1.1425999999999998, 1.1731, 1.1579, 1.1418000000000001, 1.216, 1.1661, 1.1396, 1.1405, 1.1663999999999999],
  "Depth": 167.0,
  "Expectation Value": -11.897195816040039,
  "Optimal Expectation Value": -12.0,
  "Optimizer durations [ms]": [11.95, 13.118, 12.092, 11.944, 19.867, 12.203, 13.332, 12.283, 13.879, 12.952, 12.291, 18.734, 11.989, 12.149, 13.019, 12.998, 13.81, 13.146, 11.999, 12.214, 13.197, 13.102, 14.458, 13.745, 19.968, 12.033, 12.104, 11.817, 14.035, 12.127, 12.175, 11.826, 12.219, 12.203, 11.829, 11.846, 12.248, 11.948, 12.093, 12.101, 11.548, 12.987, 12.136, 12.008, 11.988, 12.051, 11.997, 11.964, 11.711, 12.089, 12.051, 12.032, 12.284, 11.681, 11.973, 12.257, 11.744, 11.91, 11.946, 12.053, 12.119, 12.191, 12.812, 11.938, 12.002, 12.285, 12.567, 11.944, 12.438, 12.142, 11.932, 12.232, 11.856, 12.404, 11.856, 12.264, 12.564, 12.343, 11.87, 11.999, 12.206],
  "Optimizer iterations": 81,
  "Optimizer params": [0.1244231846135217, 0.6245201898486112, 0.8145130828533633, 0.9671844835910626, 0.5411968101960536, 0.7592181239075008],
  "P": 3,
  "Problem": "MCP",
  "QJob durations [ms]": [1.1555, 1.2293, 1.1596, 1.1477, 1.0765, 1.1661, 1.1528, 1.1514, 1.349, 1.2468, 1.1615, 1.462, 1.1378, 1.1522999999999999, 1.1578000000000002, 1.2409000000000001, 1.3179999999999998, 1.1724999999999999, 1.1459000000000001, 1.1508, 1.1364999999999998, 1.2455, 1.3827, 1.2122000000000002, 1.3538999999999999, 1.1553, 1.1586, 1.1373, 1.15, 1.1495, 1.1596, 1.1544999999999999, 1.1602, 1.1512, 1.1418000000000001, 1.1474, 1.1358, 1.1498000000000002, 1.1569, 1.1438, 1.1299000000000001, 1.2246, 1.1586, 1.1549, 1.1318000000000001, 1.153, 1.1543, 1.141, 1.1324, 1.1369, 1.1576, 1.1578000000000002, 1.1595, 1.1417000000000002, 1.1293, 1.1572, 1.1343, 1.1455, 1.1263, 1.1542, 1.1642, 1.1486999999999998, 1.2242, 1.1483999999999999, 1.1555, 1.1471, 1.2114, 1.1631, 1.1824999999999999, 1.1574, 1.1643000000000001, 1.159, 1.1425999999999998, 1.1731, 1.1579, 1.1418000000000001, 1.216, 1.1661, 1.1396, 1.1405, 1.1663999999999999],
  "QPU": "7000000",
  "Qubits": 9,
  "Queue durations [ms]": [0.0, 0.0, 0.0, 0.0, 0.0, 0.0, 0.0, 0.0, 0.0, 0.0, 0.0, 0.0, 0.0, 0.0, 0.0, 0.0, 0.0, 0.0, 0.0, 0.0, 0.0, 0.0, 0.0, 0.0, 0.0, 0.0, 0.0, 0.0, 0.0, 0.0, 0.0, 0.0, 0.0, 0.0, 0.0, 0.0, 0.0, 0.0, 0.0, 0.0, 0.0, 0.0, 0.0, 0.0, 0.0, 0.0, 0.0, 0.0, 0.0, 0.0, 0.0, 0.0, 0.0, 0.0, 0.0, 0.0, 0.0, 0.0, 0.0, 0.0, 0.0, 0.0, 0.0, 0.0, 0.0, 0.0, 0.0, 0.0, 0.0, 0.0, 0.0, 0.0, 0.0, 0.0, 0.0, 0.0, 0.0, 0.0, 0.0, 0.0, 0.0],
  "Shots": 4096,
  "Size": 9,
  "Total Algorithm duration [s]": 1.019,
  "Total Classic duration [s]": 0.9240326999999999,
  "Total Quantum duration [s]": 0.09496729999999999
}
