{
  "Circuit execution durations [ms]": [1.1428, 1.1476, 1.1525999999999998, 1.1463, 1.1438, 1.1378, 1.1385, 1.1328, 1.1475000000000002, 1.157, 1.132, 1.1588, 1.1485, 1.1333, 1.138, 1.1515, 1.1506999999999998, 1.1670999999999998, 1.1498000000000002, 1.1483999999999999, 1.1533, 1.1338, 1.1558, 1.1378, 1.1589, 1.1561, 1.1416, 1.1547, 1.158, 1.1536, 1.1359, 1.1411, 1.1417000000000002, 1.2195, 1.1532, 1.1519, 1.1505, 1.1417000000000002, 1.1689999999999998, 1.1367, 1.1498000000000002, 1.1260000000000001, 1.142, 1.1773, 1.1555, 1.1533, 1.1417000000000002, 1.1271, 1.1518, 1.1272, 1.1428, 1.1644999999999999, 1.2233, 1.1505, 1.3409, 1.1364, 1.1643000000000001, 1.1537, 1.1704, 1.1619, 1.1333, 1.147, 1.1444, 1.1236, 1.1958, 1.1444999999999999, 1.137],
  "Depth": 167.0,
  "Expectation Value": -9.14538860321045,
  "Optimal Expectation Value": -12.0,
  "Optimizer durations [ms]": [11.97, 12.125, 11.919, 12.159, 12.038, 11.768, 11.972, 11.644, 12.217, 12.012, 11.998, 11.836, 12.334, 11.906, 11.841, 12.128, 11.968, 12.312, 12.005, 11.934, 12.145, 11.767, 12.407, 11.916, 11.87, 12.265, 11.714, 12.284, 12.211, 11.985, 11.912, 11.894, 11.986, 12.52, 12.121, 12.175, 11.984, 11.936, 12.119, 11.854, 12.003, 11.936, 12.092, 12.037, 12.2, 12.259, 11.787, 11.834, 12.006, 11.839, 12.115, 12.184, 12.635, 21.434, 17.495, 11.883, 12.073, 12.031, 12.449, 11.96, 12.086, 11.962, 11.725, 12.098, 12.646, 11.894, 11.741],
  "Optimizer iterations": 67,
  "Optimizer params": [0.8334768239414855, 0.05082783532665814, 0.178607378157192, 0.5327929291898214, 0.7471461772144352, 0.23709069205478128],
  "P": 3,
  "Problem": "MCP",
  "QJob durations [ms]": [1.1428, 1.1476, 1.1525999999999998, 1.1463, 1.1438, 1.1378, 1.1385, 1.1328, 1.1475000000000002, 1.157, 1.132, 1.1588, 1.1485, 1.1333, 1.138, 1.1515, 1.1506999999999998, 1.1670999999999998, 1.1498000000000002, 1.1483999999999999, 1.1533, 1.1338, 1.1558, 1.1378, 1.1589, 1.1561, 1.1416, 1.1547, 1.158, 1.1536, 1.1359, 1.1411, 1.1417000000000002, 1.2195, 1.1532, 1.1519, 1.1505, 1.1417000000000002, 1.1689999999999998, 1.1367, 1.1498000000000002, 1.1260000000000001, 1.142, 1.1773, 1.1555, 1.1533, 1.1417000000000002, 1.1271, 1.1518, 1.1272, 1.1428, 1.1644999999999999, 1.2233, 1.1505, 1.3409, 1.1364, 1.1643000000000001, 1.1537, 1.1704, 1.1619, 1.1333, 1.147, 1.1444, 1.1236, 1.1958, 1.1444999999999999, 1.137],
  "QPU": "7000000",
  "Qubits": 9,
  "Queue durations [ms]": [0.0, 0.0, 0.0, 0.0, 0.0, 0.0, 0.0, 0.0, 0.0, 0.0, 0.0, 0.0, 0.0, 0.0, 0.0, 0.0, 0.0, 0.0, 0.0, 0.0, 0.0, 0.0, 0.0, 0.0, 0.0, 0.0, 0.0, 0.0, 0.0, 0.0, 0.0, 0.0, 0.0, 0.0, 0.0, 0.0, 0.0, 0.0, 0.0, 0.0, 0.0, 0.0, 0.0, 0.0, 0.0, 0.0, 0.0, 0.0, 0.0, 0.0, 0.0, 0.0, 0.0, 0.0, 0.0, 0.0, 0.0, 0.0, 0.0, 0.0, 0.0, 0.0, 0.0, 0.0, 0.0, 0.0, 0.0],
  "Shots": 4096,
  "Size": 9,
  "Total Algorithm duration [s]": 0.821,
  "Total Classic duration [s]": 0.7437444,
  "Total Quantum duration [s]": 0.07725560000000001
}
