{
  "Circuit execution durations [ms]": [47.779202461242676, 47.12235927581787, 47.039151191711426, 45.822858810424805, 49.87800121307373, 47.608256340026855, 46.15950584411621, 47.496676445007324, 44.972777366638184, 45.71402072906494, 71.66838645935059, 47.95396327972412, 73.02188873291016, 47.606706619262695, 47.05357551574707, 70.81234455108643, 46.660542488098145, 45.14443874359131, 47.042250633239746, 47.034621238708496, 48.00724983215332, 47.867536544799805],
  "Depth": 2.0,
  "Expectation Value": -1.276066780090332,
  "Optimal Expectation Value": -1.4114999771118164,
  "Optimizer durations [ms]": [484.197, 487.82, 488.529, 531.35, 495.444, 484.624, 489.345, 487.36, 528.324, 483.526, 489.013, 491.034, 536.253, 488.69, 484.492, 487.238, 487.464, 534.384, 485.937, 484.637, 489.867, 489.315],
  "Optimizer iterations": 22,
  "Optimizer params": [0.08181560408514982, 0.47950059481194235],
  "P": 0,
  "Problem": "RH",
  "QJob durations [ms]": [54.721832275390625, 54.09371852874756, 54.09598350524902, 52.86216735839844, 57.119011878967285, 54.656386375427246, 53.188204765319824, 54.723262786865234, 51.926255226135254, 52.75416374206543, 78.67014408111572, 54.929137229919434, 80.06954193115234, 54.545044898986816, 54.01265621185303, 77.81481742858887, 53.6426305770874, 52.23679542541504, 53.975820541381836, 54.0543794631958, 55.002689361572266, 54.90255355834961],
  "QPU": "3000017",
  "Qubits": 2,
  "Queue durations [ms]": [0.0, 0.0, 0.0, 0.0, 0.0, 0.0, 0.0, 0.0, 0.0, 0.0, 0.0, 0.0, 0.0, 0.0, 0.0, 0.0, 0.0, 0.0, 0.0, 0.0, 0.0, 0.0],
  "Shots": 4096,
  "Size": 2,
  "Total Algorithm duration [s]": 10.908,
  "Total Classic duration [s]": 9.644002802848815,
  "Total Quantum duration [s]": 1.263997197151184
}
