{
  "Circuit execution durations [ms]": [2.9196999999999997, 2.8623, 2.8379999999999996, 2.8484000000000003, 2.8775, 2.8785999999999996, 2.8628, 2.8498, 2.9383999999999997, 2.9821, 2.9238, 2.8609, 2.888, 2.856, 2.8526, 2.8545, 2.8614, 2.8442, 2.8565, 2.8484000000000003, 2.8417999999999997, 2.875, 2.8448, 2.8714, 2.8617999999999997, 2.9166000000000003, 2.8592, 2.9375999999999998, 2.8738, 2.8462, 2.8449, 2.8879, 2.8947000000000003, 2.9095, 2.8878, 2.9019, 2.8207, 2.8317, 2.8736, 2.8827000000000003, 2.8693999999999997, 2.8684000000000003, 2.9461, 3.0847, 2.8847, 2.8491, 2.9015999999999997, 2.8973, 2.8771999999999998, 2.8538, 2.8943, 2.8698, 2.8804999999999996, 2.9042999999999997, 2.9034999999999997, 2.8679, 2.8468, 2.8763, 2.9029, 2.8832, 2.8999, 2.8272000000000004, 2.8427000000000002, 2.8952999999999998, 2.8447, 2.8898, 2.9009, 2.8722000000000003, 2.8756, 2.8885, 2.8433, 2.8295999999999997, 2.8468, 2.8367, 2.8511, 2.8555, 2.862, 2.8828, 2.8896, 2.8762000000000003, 2.8482, 2.8581000000000003, 2.8689, 2.8703000000000003, 2.8749000000000002, 2.9741, 2.9209, 2.9474, 2.8257999999999996, 2.8551, 2.8666, 2.8417, 2.8578, 2.8672, 2.9737999999999998, 2.8798, 2.9028, 2.8458, 2.8392, 2.8701, 2.8696, 2.8830999999999998, 2.8436, 2.8494, 2.8881, 2.8749000000000002, 2.9840999999999998, 2.8945, 2.8945, 2.866, 3.0257, 3.1067, 2.8687, 2.8693999999999997, 2.8653, 2.8427000000000002, 2.8977999999999997, 2.8902, 2.8564, 2.8373, 2.8402000000000003, 2.8673, 2.8701, 2.8321, 2.8482, 2.9059, 2.9019, 2.8804, 2.9277, 2.8481, 2.8601, 2.868, 2.8687, 2.8467000000000002, 2.8717, 2.8495999999999997, 2.8552999999999997, 2.8701, 2.856, 2.8674999999999997, 2.8378, 2.8513, 2.879, 2.8576, 3.2064, 2.9223, 2.8714999999999997, 2.868, 2.8762000000000003, 2.8902, 2.8743000000000003, 2.8564, 2.8684000000000003, 2.8852, 2.8537, 2.8499, 2.8874999999999997, 2.8866, 2.871, 2.8907, 2.8733999999999997, 2.8674, 2.8744, 2.8695, 2.8893, 2.8608000000000002, 2.8845, 2.8756, 2.9372000000000003, 2.9243, 2.8855999999999997, 2.8456, 2.8777999999999997, 2.8983, 2.9299999999999997, 2.8541, 2.8442, 2.8541, 2.8611999999999997, 2.8456, 2.8930000000000002, 2.852, 2.8379999999999996, 2.9132],
  "Depth": 457.0,
  "Expectation Value": -3.038442611694336,
  "Optimal Expectation Value": -4.0,
  "Optimizer durations [ms]": [29.779, 29.161, 28.902, 28.941, 29.575, 29.232, 29.129, 29.119, 29.824, 40.047, 30.127, 29.046, 29.751, 28.826, 29.117, 29.117, 29.064, 28.949, 29.067, 29.017, 33.824, 29.254, 29.0, 29.212, 29.136, 29.474, 29.468, 29.789, 29.347, 28.907, 28.965, 29.512, 29.47, 29.598, 29.381, 29.594, 28.59, 29.047, 29.246, 29.186, 29.441, 29.192, 30.091, 36.08, 29.422, 29.347, 29.497, 29.57, 29.037, 29.307, 29.354, 29.151, 29.464, 29.47, 34.008, 29.148, 29.207, 29.289, 29.432, 29.366, 29.592, 28.692, 28.819, 29.716, 28.933, 29.606, 29.464, 29.252, 29.293, 29.335, 28.92, 28.718, 29.05, 29.149, 28.737, 29.116, 29.179, 29.303, 31.125, 29.581, 29.041, 33.87, 29.252, 34.086, 37.493, 30.288, 39.257, 30.254, 28.582, 29.279, 29.163, 28.888, 28.994, 29.172, 30.363, 29.298, 29.55, 28.941, 29.061, 29.038, 29.206, 29.919, 28.943, 29.128, 29.413, 29.022, 30.531, 29.447, 29.544, 29.293, 35.555, 32.87, 29.196, 29.196, 29.071, 29.154, 29.436, 29.378, 29.159, 29.062, 28.689, 29.377, 29.152, 28.63, 29.051, 29.561, 29.539, 29.597, 29.875, 28.991, 28.989, 29.314, 29.092, 29.171, 29.438, 28.818, 29.255, 29.296, 29.038, 29.135, 28.961, 28.959, 29.307, 29.19, 32.559, 34.534, 29.431, 29.056, 29.255, 29.441, 29.17, 29.068, 29.173, 29.465, 29.219, 28.92, 29.395, 29.583, 29.125, 29.513, 29.182, 29.208, 29.209, 29.323, 29.225, 29.935, 29.049, 29.549, 29.95, 29.465, 29.507, 28.816, 29.474, 29.485, 29.697, 29.159, 29.011, 29.102, 28.987, 29.211, 29.482, 28.882, 28.96, 33.292],
  "Optimizer iterations": 184,
  "Optimizer params": [0.39451799252880826, 0.8214105603667828, 0.18867219623641848, 0.4049848263907552, 0.7978102871004558, 0.5210785817009712],
  "P": 3,
  "Problem": "DSP",
  "QJob durations [ms]": [2.9196999999999997, 2.8623, 2.8379999999999996, 2.8484000000000003, 2.8775, 2.8785999999999996, 2.8628, 2.8498, 2.9383999999999997, 2.9821, 2.9238, 2.8609, 2.888, 2.856, 2.8526, 2.8545, 2.8614, 2.8442, 2.8565, 2.8484000000000003, 2.8417999999999997, 2.875, 2.8448, 2.8714, 2.8617999999999997, 2.9166000000000003, 2.8592, 2.9375999999999998, 2.8738, 2.8462, 2.8449, 2.8879, 2.8947000000000003, 2.9095, 2.8878, 2.9019, 2.8207, 2.8317, 2.8736, 2.8827000000000003, 2.8693999999999997, 2.8684000000000003, 2.9461, 3.0847, 2.8847, 2.8491, 2.9015999999999997, 2.8973, 2.8771999999999998, 2.8538, 2.8943, 2.8698, 2.8804999999999996, 2.9042999999999997, 2.9034999999999997, 2.8679, 2.8468, 2.8763, 2.9029, 2.8832, 2.8999, 2.8272000000000004, 2.8427000000000002, 2.8952999999999998, 2.8447, 2.8898, 2.9009, 2.8722000000000003, 2.8756, 2.8885, 2.8433, 2.8295999999999997, 2.8468, 2.8367, 2.8511, 2.8555, 2.862, 2.8828, 2.8896, 2.8762000000000003, 2.8482, 2.8581000000000003, 2.8689, 2.8703000000000003, 2.8749000000000002, 2.9741, 2.9209, 2.9474, 2.8257999999999996, 2.8551, 2.8666, 2.8417, 2.8578, 2.8672, 2.9737999999999998, 2.8798, 2.9028, 2.8458, 2.8392, 2.8701, 2.8696, 2.8830999999999998, 2.8436, 2.8494, 2.8881, 2.8749000000000002, 2.9840999999999998, 2.8945, 2.8945, 2.866, 3.0257, 3.1067, 2.8687, 2.8693999999999997, 2.8653, 2.8427000000000002, 2.8977999999999997, 2.8902, 2.8564, 2.8373, 2.8402000000000003, 2.8673, 2.8701, 2.8321, 2.8482, 2.9059, 2.9019, 2.8804, 2.9277, 2.8481, 2.8601, 2.868, 2.8687, 2.8467000000000002, 2.8717, 2.8495999999999997, 2.8552999999999997, 2.8701, 2.856, 2.8674999999999997, 2.8378, 2.8513, 2.879, 2.8576, 3.2064, 2.9223, 2.8714999999999997, 2.868, 2.8762000000000003, 2.8902, 2.8743000000000003, 2.8564, 2.8684000000000003, 2.8852, 2.8537, 2.8499, 2.8874999999999997, 2.8866, 2.871, 2.8907, 2.8733999999999997, 2.8674, 2.8744, 2.8695, 2.8893, 2.8608000000000002, 2.8845, 2.8756, 2.9372000000000003, 2.9243, 2.8855999999999997, 2.8456, 2.8777999999999997, 2.8983, 2.9299999999999997, 2.8541, 2.8442, 2.8541, 2.8611999999999997, 2.8456, 2.8930000000000002, 2.852, 2.8379999999999996, 2.9132],
  "QPU": "7000000",
  "Qubits": 11,
  "Queue durations [ms]": [0.0, 0.0, 0.0, 0.0, 0.0, 0.0, 0.0, 0.0, 0.0, 0.0, 0.0, 0.0, 0.0, 0.0, 0.0, 0.0, 0.0, 0.0, 0.0, 0.0, 0.0, 0.0, 0.0, 0.0, 0.0, 0.0, 0.0, 0.0, 0.0, 0.0, 0.0, 0.0, 0.0, 0.0, 0.0, 0.0, 0.0, 0.0, 0.0, 0.0, 0.0, 0.0, 0.0, 0.0, 0.0, 0.0, 0.0, 0.0, 0.0, 0.0, 0.0, 0.0, 0.0, 0.0, 0.0, 0.0, 0.0, 0.0, 0.0, 0.0, 0.0, 0.0, 0.0, 0.0, 0.0, 0.0, 0.0, 0.0, 0.0, 0.0, 0.0, 0.0, 0.0, 0.0, 0.0, 0.0, 0.0, 0.0, 0.0, 0.0, 0.0, 0.0, 0.0, 0.0, 0.0, 0.0, 0.0, 0.0, 0.0, 0.0, 0.0, 0.0, 0.0, 0.0, 0.0, 0.0, 0.0, 0.0, 0.0, 0.0, 0.0, 0.0, 0.0, 0.0, 0.0, 0.0, 0.0, 0.0, 0.0, 0.0, 0.0, 0.0, 0.0, 0.0, 0.0, 0.0, 0.0, 0.0, 0.0, 0.0, 0.0, 0.0, 0.0, 0.0, 0.0, 0.0, 0.0, 0.0, 0.0, 0.0, 0.0, 0.0, 0.0, 0.0, 0.0, 0.0, 0.0, 0.0, 0.0, 0.0, 0.0, 0.0, 0.0, 0.0, 0.0, 0.0, 0.0, 0.0, 0.0, 0.0, 0.0, 0.0, 0.0, 0.0, 0.0, 0.0, 0.0, 0.0, 0.0, 0.0, 0.0, 0.0, 0.0, 0.0, 0.0, 0.0, 0.0, 0.0, 0.0, 0.0, 0.0, 0.0, 0.0, 0.0, 0.0, 0.0, 0.0, 0.0, 0.0, 0.0, 0.0, 0.0, 0.0, 0.0],
  "Shots": 4096,
  "Size": 6,
  "Total Algorithm duration [s]": 5.465,
  "Total Classic duration [s]": 4.9351951,
  "Total Quantum duration [s]": 0.5298048999999998
}
