{
  "Circuit execution durations [ms]": [2.8381000000000003, 2.8513, 2.8757, 2.8673, 2.863, 2.7372, 2.8788, 2.8432, 2.8571, 2.8981, 2.9868, 2.9002, 2.8698, 2.8775, 2.8776, 2.8629, 2.8920999999999997, 2.8539, 2.8494, 2.8752, 2.8857000000000004, 2.8638, 2.8538, 2.8857000000000004, 2.8626, 2.872, 2.8433, 2.8487999999999998, 2.8648, 2.8735000000000004, 2.8931999999999998, 2.862, 2.8506, 2.8737, 3.1203, 2.8167999999999997, 2.8649, 2.8712999999999997, 2.8385, 2.8769, 2.8441, 2.8589, 2.8511, 2.8543000000000003, 2.8578, 2.8936, 2.8723, 2.8576, 2.856, 2.8983, 2.8887, 2.8822, 2.9188, 2.8551, 2.8821, 2.8392, 2.8617999999999997, 2.8383000000000003, 2.8356000000000003, 2.8577, 2.8729, 2.8930000000000002, 2.8615, 2.8274, 2.8552999999999997, 2.8604, 2.9219, 2.8582, 3.1712, 2.8124000000000002, 2.885, 2.8389, 2.9124, 2.8634, 2.8504, 2.8817999999999997, 2.8230999999999997, 2.8701, 2.8323, 2.8819000000000004, 2.8449, 2.8487999999999998, 2.8822, 2.8752999999999997, 2.9158, 2.8611999999999997, 2.8482, 2.8429, 2.8948, 2.8685, 2.875, 2.8796, 2.8704, 2.8623, 2.8672, 2.8436, 2.8867, 2.869, 2.8879, 2.8390999999999997, 2.9008, 2.8365, 2.9696000000000002, 2.8769, 2.8563, 2.8624, 2.8598999999999997, 2.8561, 2.836, 2.8696, 2.8745, 2.9175, 2.9014],
  "Depth": 457.0,
  "Expectation Value": -3.079802989959717,
  "Optimal Expectation Value": -4.0,
  "Optimizer durations [ms]": [28.693, 29.415, 29.184, 29.106, 29.16, 37.339, 29.373, 29.145, 29.225, 29.488, 39.979, 34.536, 29.099, 29.201, 29.478, 29.15, 29.489, 29.108, 29.026, 28.987, 29.515, 29.347, 28.757, 29.631, 29.18, 29.083, 29.0, 28.896, 29.205, 29.286, 29.19, 29.391, 28.976, 29.437, 31.608, 38.419, 29.091, 29.131, 29.018, 29.542, 28.656, 29.473, 29.011, 28.911, 29.105, 33.021, 29.391, 29.049, 29.251, 29.54, 29.426, 29.209, 29.704, 29.181, 29.525, 28.652, 29.255, 28.787, 28.889, 29.152, 29.52, 29.178, 29.366, 28.624, 29.211, 29.149, 29.847, 29.049, 32.165, 38.23, 29.463, 28.768, 29.812, 29.229, 28.973, 29.38, 28.724, 29.178, 28.751, 31.986, 29.033, 29.1, 29.216, 29.352, 29.639, 29.227, 28.939, 29.074, 29.467, 29.113, 29.255, 29.335, 29.322, 28.842, 29.239, 28.903, 29.63, 28.947, 29.737, 28.823, 29.545, 28.771, 30.385, 29.361, 28.882, 29.244, 29.206, 29.42, 29.842, 34.066, 29.234, 29.705, 39.166],
  "Optimizer iterations": 113,
  "Optimizer params": [0.9992062195361548, 0.967687354935422, 0.6073757540087932, 0.5348799021401779, 0.3208251200481678, 0.945296934199202],
  "P": 3,
  "Problem": "DSP",
  "QJob durations [ms]": [2.8381000000000003, 2.8513, 2.8757, 2.8673, 2.863, 2.7372, 2.8788, 2.8432, 2.8571, 2.8981, 2.9868, 2.9002, 2.8698, 2.8775, 2.8776, 2.8629, 2.8920999999999997, 2.8539, 2.8494, 2.8752, 2.8857000000000004, 2.8638, 2.8538, 2.8857000000000004, 2.8626, 2.872, 2.8433, 2.8487999999999998, 2.8648, 2.8735000000000004, 2.8931999999999998, 2.862, 2.8506, 2.8737, 3.1203, 2.8167999999999997, 2.8649, 2.8712999999999997, 2.8385, 2.8769, 2.8441, 2.8589, 2.8511, 2.8543000000000003, 2.8578, 2.8936, 2.8723, 2.8576, 2.856, 2.8983, 2.8887, 2.8822, 2.9188, 2.8551, 2.8821, 2.8392, 2.8617999999999997, 2.8383000000000003, 2.8356000000000003, 2.8577, 2.8729, 2.8930000000000002, 2.8615, 2.8274, 2.8552999999999997, 2.8604, 2.9219, 2.8582, 3.1712, 2.8124000000000002, 2.885, 2.8389, 2.9124, 2.8634, 2.8504, 2.8817999999999997, 2.8230999999999997, 2.8701, 2.8323, 2.8819000000000004, 2.8449, 2.8487999999999998, 2.8822, 2.8752999999999997, 2.9158, 2.8611999999999997, 2.8482, 2.8429, 2.8948, 2.8685, 2.875, 2.8796, 2.8704, 2.8623, 2.8672, 2.8436, 2.8867, 2.869, 2.8879, 2.8390999999999997, 2.9008, 2.8365, 2.9696000000000002, 2.8769, 2.8563, 2.8624, 2.8598999999999997, 2.8561, 2.836, 2.8696, 2.8745, 2.9175, 2.9014],
  "QPU": "7000000",
  "Qubits": 11,
  "Queue durations [ms]": [0.0, 0.0, 0.0, 0.0, 0.0, 0.0, 0.0, 0.0, 0.0, 0.0, 0.0, 0.0, 0.0, 0.0, 0.0, 0.0, 0.0, 0.0, 0.0, 0.0, 0.0, 0.0, 0.0, 0.0, 0.0, 0.0, 0.0, 0.0, 0.0, 0.0, 0.0, 0.0, 0.0, 0.0, 0.0, 0.0, 0.0, 0.0, 0.0, 0.0, 0.0, 0.0, 0.0, 0.0, 0.0, 0.0, 0.0, 0.0, 0.0, 0.0, 0.0, 0.0, 0.0, 0.0, 0.0, 0.0, 0.0, 0.0, 0.0, 0.0, 0.0, 0.0, 0.0, 0.0, 0.0, 0.0, 0.0, 0.0, 0.0, 0.0, 0.0, 0.0, 0.0, 0.0, 0.0, 0.0, 0.0, 0.0, 0.0, 0.0, 0.0, 0.0, 0.0, 0.0, 0.0, 0.0, 0.0, 0.0, 0.0, 0.0, 0.0, 0.0, 0.0, 0.0, 0.0, 0.0, 0.0, 0.0, 0.0, 0.0, 0.0, 0.0, 0.0, 0.0, 0.0, 0.0, 0.0, 0.0, 0.0, 0.0, 0.0, 0.0, 0.0],
  "Shots": 4096,
  "Size": 6,
  "Total Algorithm duration [s]": 3.37,
  "Total Classic duration [s]": 3.0454647,
  "Total Quantum duration [s]": 0.32453530000000014
}
