{
  "Circuit execution durations [ms]": [2.8895, 2.8487999999999998, 2.8861, 2.8742, 2.8313, 2.8861999999999997, 2.8331, 2.8566, 2.913, 2.8406, 2.8582, 2.8692, 2.8506, 2.8588, 2.8268999999999997, 2.8733999999999997, 2.8757, 2.8839, 2.8887, 2.8442, 3.0909, 2.9742, 2.8592, 2.8629, 2.8687, 2.8498, 2.8297, 2.8472, 2.8511, 2.8895, 2.8720999999999997, 2.8733999999999997, 2.8292, 2.8906, 2.8489, 2.8667, 2.8468, 2.8463999999999996, 2.9484, 2.8664, 2.8781000000000003, 2.8603, 2.8432, 2.8727, 2.843, 2.8544, 2.848, 2.8525, 2.9061, 2.8407, 2.83, 2.8432, 2.8692, 2.85, 2.9791000000000003, 2.9547000000000003, 2.8905, 2.848, 2.8649999999999998, 2.9003, 2.8390999999999997, 2.9253, 2.8494, 2.8549, 2.8562000000000003, 2.859, 2.8716000000000004, 2.8739999999999997, 2.8667, 2.8792, 2.8463999999999996, 2.8413000000000004, 2.8708, 2.8731, 2.859, 2.8596, 2.8436, 2.8603, 2.852, 2.899, 2.8576, 2.8639, 2.8555, 2.8566, 2.868, 2.8687, 2.8745, 2.8294, 2.9209, 2.826, 2.814, 2.8377, 2.8588, 2.7645999999999997],
  "Depth": 457.0,
  "Expectation Value": -3.8015267848968506,
  "Optimal Expectation Value": -4.0,
  "Optimizer durations [ms]": [29.498, 29.017, 29.216, 29.364, 28.643, 29.65, 28.561, 29.047, 29.735, 28.64, 29.352, 29.297, 29.084, 29.098, 28.606, 29.311, 29.176, 29.432, 29.463, 29.002, 31.457, 35.073, 29.18, 29.087, 29.04, 29.183, 28.87, 29.102, 29.085, 29.146, 29.212, 29.594, 28.5, 29.353, 28.948, 29.365, 29.357, 28.819, 29.861, 29.353, 29.273, 28.96, 29.035, 29.118, 29.244, 29.149, 28.692, 29.26, 29.514, 28.792, 29.076, 28.933, 29.045, 29.25, 30.156, 39.621, 29.223, 29.281, 29.189, 29.348, 28.985, 29.907, 28.857, 29.186, 28.984, 28.828, 29.354, 29.264, 29.243, 29.241, 28.769, 29.152, 29.328, 29.364, 28.816, 29.212, 29.05, 29.096, 29.145, 29.21, 29.409, 28.951, 29.175, 29.142, 28.914, 29.356, 29.297, 28.585, 29.977, 28.741, 35.009, 28.812, 29.125, 37.628],
  "Optimizer iterations": 94,
  "Optimizer params": [0.06659827063886116, 0.9172543942664038, 0.9313294145311956, 0.4383715362462646, 0.9879957412831464, 0.3186563161843792],
  "P": 3,
  "Problem": "DSP",
  "QJob durations [ms]": [2.8895, 2.8487999999999998, 2.8861, 2.8742, 2.8313, 2.8861999999999997, 2.8331, 2.8566, 2.913, 2.8406, 2.8582, 2.8692, 2.8506, 2.8588, 2.8268999999999997, 2.8733999999999997, 2.8757, 2.8839, 2.8887, 2.8442, 3.0909, 2.9742, 2.8592, 2.8629, 2.8687, 2.8498, 2.8297, 2.8472, 2.8511, 2.8895, 2.8720999999999997, 2.8733999999999997, 2.8292, 2.8906, 2.8489, 2.8667, 2.8468, 2.8463999999999996, 2.9484, 2.8664, 2.8781000000000003, 2.8603, 2.8432, 2.8727, 2.843, 2.8544, 2.848, 2.8525, 2.9061, 2.8407, 2.83, 2.8432, 2.8692, 2.85, 2.9791000000000003, 2.9547000000000003, 2.8905, 2.848, 2.8649999999999998, 2.9003, 2.8390999999999997, 2.9253, 2.8494, 2.8549, 2.8562000000000003, 2.859, 2.8716000000000004, 2.8739999999999997, 2.8667, 2.8792, 2.8463999999999996, 2.8413000000000004, 2.8708, 2.8731, 2.859, 2.8596, 2.8436, 2.8603, 2.852, 2.899, 2.8576, 2.8639, 2.8555, 2.8566, 2.868, 2.8687, 2.8745, 2.8294, 2.9209, 2.826, 2.814, 2.8377, 2.8588, 2.7645999999999997],
  "QPU": "7000000",
  "Qubits": 11,
  "Queue durations [ms]": [0.0, 0.0, 0.0, 0.0, 0.0, 0.0, 0.0, 0.0, 0.0, 0.0, 0.0, 0.0, 0.0, 0.0, 0.0, 0.0, 0.0, 0.0, 0.0, 0.0, 0.0, 0.0, 0.0, 0.0, 0.0, 0.0, 0.0, 0.0, 0.0, 0.0, 0.0, 0.0, 0.0, 0.0, 0.0, 0.0, 0.0, 0.0, 0.0, 0.0, 0.0, 0.0, 0.0, 0.0, 0.0, 0.0, 0.0, 0.0, 0.0, 0.0, 0.0, 0.0, 0.0, 0.0, 0.0, 0.0, 0.0, 0.0, 0.0, 0.0, 0.0, 0.0, 0.0, 0.0, 0.0, 0.0, 0.0, 0.0, 0.0, 0.0, 0.0, 0.0, 0.0, 0.0, 0.0, 0.0, 0.0, 0.0, 0.0, 0.0, 0.0, 0.0, 0.0, 0.0, 0.0, 0.0, 0.0, 0.0, 0.0, 0.0, 0.0, 0.0, 0.0, 0.0],
  "Shots": 4096,
  "Size": 6,
  "Total Algorithm duration [s]": 2.774,
  "Total Classic duration [s]": 2.5044932,
  "Total Quantum duration [s]": 0.26950679999999994
}
