{
  "Circuit execution durations [ms]": [2.863, 2.8897, 2.8854, 2.8557, 2.8571, 2.8792, 2.8594, 2.859, 2.8763, 2.9107, 2.848, 2.9005, 2.9288, 2.8771999999999998, 3.0032, 2.8955, 2.9266, 2.8512, 2.9205, 2.8563, 2.8630999999999998, 2.8884000000000003, 2.9068, 2.9124, 2.9271000000000003, 2.9471, 2.9039, 2.8476999999999997, 2.8977, 2.8571, 2.8707, 2.9091, 2.9607, 2.8893999999999997, 2.8771999999999998, 2.8489, 2.8968000000000003, 2.8725, 2.8613000000000004, 2.8958, 2.885, 2.9071000000000002, 2.9213, 2.8665000000000003, 2.8784, 2.8822, 2.864, 2.8476999999999997, 3.0096, 2.9263000000000003, 2.863, 2.85, 2.9027, 2.859, 2.8562000000000003, 2.8505000000000003, 2.9053, 2.8494, 2.8828, 2.8911000000000002, 2.8857000000000004, 2.8474, 2.8902, 2.8841, 2.8491, 2.8945, 2.8768000000000002, 2.8706, 2.8592999999999997, 2.8508, 2.8528, 2.8588, 2.8885, 2.9014, 2.8742, 2.9486, 2.859, 2.835, 2.8688, 2.8706, 2.8571999999999997, 2.8777, 2.8538, 3.2293, 2.779, 3.1500999999999997, 2.7881, 3.2288, 3.1909, 3.1978000000000004, 3.2065, 2.9253, 3.1611000000000002, 3.2107, 3.2058, 3.1884, 3.221, 3.2409000000000003, 3.1566, 3.0606, 3.234, 2.9013, 2.8459000000000003, 2.9121, 2.9158999999999997, 2.8747, 2.9875000000000003, 2.941, 2.9121, 2.8692, 2.8608000000000002, 2.9439, 2.8762000000000003, 2.9746, 3.0544000000000002, 3.0893, 2.974, 3.2241, 3.3585, 3.1296000000000004, 2.8626, 2.8803, 2.8699, 2.9112, 2.8822, 2.8602, 2.8698, 2.8912999999999998, 2.8318000000000003],
  "Depth": 457.0,
  "Expectation Value": -3.298452377319336,
  "Optimal Expectation Value": -4.0,
  "Optimizer durations [ms]": [29.106, 29.608, 29.063, 29.101, 29.284, 29.015, 29.148, 29.36, 29.083, 29.735, 28.813, 29.598, 29.526, 29.295, 30.686, 39.0, 29.858, 28.767, 29.901, 29.008, 29.31, 29.278, 29.636, 29.676, 29.798, 29.982, 29.476, 29.187, 29.556, 28.782, 29.437, 29.648, 30.063, 29.495, 29.189, 28.969, 29.358, 29.417, 29.033, 29.624, 29.206, 29.773, 29.741, 29.097, 29.371, 29.311, 29.184, 29.038, 30.485, 35.045, 29.055, 28.892, 29.898, 29.124, 28.905, 28.872, 29.578, 29.238, 29.251, 29.513, 29.226, 28.902, 29.406, 29.419, 29.056, 29.442, 29.229, 29.158, 29.36, 28.902, 29.168, 29.196, 29.147, 29.708, 29.406, 29.721, 29.403, 28.952, 28.913, 29.566, 28.797, 29.284, 29.434, 32.978, 34.911, 34.917, 36.494, 32.865, 33.226, 32.781, 33.111, 39.254, 38.349, 32.736, 32.692, 32.685, 33.379, 32.863, 32.541, 34.255, 32.951, 34.483, 38.783, 29.444, 29.765, 29.324, 30.341, 29.85, 29.797, 29.085, 29.288, 29.986, 29.189, 30.318, 35.781, 32.555, 31.001, 35.215, 35.388, 32.802, 30.633, 29.213, 29.005, 30.008, 29.447, 29.041, 29.148, 29.433, 28.738],
  "Optimizer iterations": 129,
  "Optimizer params": [0.6088864978858778, 0.6219620212707336, 0.03194848419042637, 0.6729222795838391, 0.5519310923134477, 0.3100899566675393],
  "P": 3,
  "Problem": "DSP",
  "QJob durations [ms]": [2.863, 2.8897, 2.8854, 2.8557, 2.8571, 2.8792, 2.8594, 2.859, 2.8763, 2.9107, 2.848, 2.9005, 2.9288, 2.8771999999999998, 3.0032, 2.8955, 2.9266, 2.8512, 2.9205, 2.8563, 2.8630999999999998, 2.8884000000000003, 2.9068, 2.9124, 2.9271000000000003, 2.9471, 2.9039, 2.8476999999999997, 2.8977, 2.8571, 2.8707, 2.9091, 2.9607, 2.8893999999999997, 2.8771999999999998, 2.8489, 2.8968000000000003, 2.8725, 2.8613000000000004, 2.8958, 2.885, 2.9071000000000002, 2.9213, 2.8665000000000003, 2.8784, 2.8822, 2.864, 2.8476999999999997, 3.0096, 2.9263000000000003, 2.863, 2.85, 2.9027, 2.859, 2.8562000000000003, 2.8505000000000003, 2.9053, 2.8494, 2.8828, 2.8911000000000002, 2.8857000000000004, 2.8474, 2.8902, 2.8841, 2.8491, 2.8945, 2.8768000000000002, 2.8706, 2.8592999999999997, 2.8508, 2.8528, 2.8588, 2.8885, 2.9014, 2.8742, 2.9486, 2.859, 2.835, 2.8688, 2.8706, 2.8571999999999997, 2.8777, 2.8538, 3.2293, 2.779, 3.1500999999999997, 2.7881, 3.2288, 3.1909, 3.1978000000000004, 3.2065, 2.9253, 3.1611000000000002, 3.2107, 3.2058, 3.1884, 3.221, 3.2409000000000003, 3.1566, 3.0606, 3.234, 2.9013, 2.8459000000000003, 2.9121, 2.9158999999999997, 2.8747, 2.9875000000000003, 2.941, 2.9121, 2.8692, 2.8608000000000002, 2.9439, 2.8762000000000003, 2.9746, 3.0544000000000002, 3.0893, 2.974, 3.2241, 3.3585, 3.1296000000000004, 2.8626, 2.8803, 2.8699, 2.9112, 2.8822, 2.8602, 2.8698, 2.8912999999999998, 2.8318000000000003],
  "QPU": "7000000",
  "Qubits": 11,
  "Queue durations [ms]": [0.0, 0.0, 0.0, 0.0, 0.0, 0.0, 0.0, 0.0, 0.0, 0.0, 0.0, 0.0, 0.0, 0.0, 0.0, 0.0, 0.0, 0.0, 0.0, 0.0, 0.0, 0.0, 0.0, 0.0, 0.0, 0.0, 0.0, 0.0, 0.0, 0.0, 0.0, 0.0, 0.0, 0.0, 0.0, 0.0, 0.0, 0.0, 0.0, 0.0, 0.0, 0.0, 0.0, 0.0, 0.0, 0.0, 0.0, 0.0, 0.0, 0.0, 0.0, 0.0, 0.0, 0.0, 0.0, 0.0, 0.0, 0.0, 0.0, 0.0, 0.0, 0.0, 0.0, 0.0, 0.0, 0.0, 0.0, 0.0, 0.0, 0.0, 0.0, 0.0, 0.0, 0.0, 0.0, 0.0, 0.0, 0.0, 0.0, 0.0, 0.0, 0.0, 0.0, 0.0, 0.0, 0.0, 0.0, 0.0, 0.0, 0.0, 0.0, 0.0, 0.0, 0.0, 0.0, 0.0, 0.0, 0.0, 0.0, 0.0, 0.0, 0.0, 0.0, 0.0, 0.0, 0.0, 0.0, 0.0, 0.0, 0.0, 0.0, 0.0, 0.0, 0.0, 0.0, 0.0, 0.0, 0.0, 0.0, 0.0, 0.0, 0.0, 0.0, 0.0, 0.0, 0.0, 0.0, 0.0, 0.0],
  "Shots": 4096,
  "Size": 6,
  "Total Algorithm duration [s]": 3.931,
  "Total Classic duration [s]": 3.5527907,
  "Total Quantum duration [s]": 0.37820929999999997
}
