{
  "Depth": 185.0,
  "Job durations [ms]": [15789.645671844482, 15825.824499130249, 15650.733232498169, 15598.027229309082, 15532.956838607788, 15735.707998275757, 15779.848337173462, 15564.746856689453, 15549.766063690186, 15568.249225616455, 15530.796527862549, 15552.892208099365, 15583.79316329956, 15582.780361175537, 15806.521892547607, 15493.01528930664, 15731.401681900024, 15621.644735336304, 15529.367685317993, 15454.021215438843, 15610.41808128357, 15664.73126411438, 15614.44640159607, 15722.302913665771, 15789.645433425903, 15518.4326171875, 15533.568143844604, 15500.044584274292, 15555.66668510437, 15540.803909301758, 15887.561321258545, 15718.792915344238, 15720.750093460083, 15549.683809280396, 15742.958545684814, 15600.273847579956, 15692.426204681396, 15595.292329788208, 15653.573274612427, 15473.918199539185, 15466.02725982666, 15706.363439559937, 15689.670085906982, 15682.724714279175, 15557.698249816895, 15794.453620910645, 15548.732995986938, 15648.669958114624, 15577.755451202393, 15584.773778915405, 15870.535612106323, 15485.36205291748, 15643.432140350342, 15674.717426300049, 15572.101593017578, 15497.108697891235, 15541.754722595215, 15607.982635498047, 15712.778091430664, 15790.143966674805, 15499.971151351929, 15531.800270080566, 15455.863237380981, 15581.7551612854, 15567.651987075806, 15656.390190124512, 15656.177043914795, 15600.324630737305, 15613.654613494873, 15483.564376831055, 15558.050394058228, 15577.995538711548, 15579.786777496338, 15501.124382019043, 15730.005502700806, 15772.388219833374],
  "Optimizer durations [ms]": [18773.999, 18859.555, 18648.279, 18629.188, 18594.743, 18746.519, 18759.069, 18589.811, 18561.879, 18601.505, 18529.05, 18548.259, 18563.597, 18564.352, 18888.986, 18484.66, 18716.478, 18635.249, 18548.262, 18456.523, 18667.527, 18657.615, 18628.854, 18708.3, 18784.299, 18526.074, 18530.337, 18493.055, 18574.925, 18538.116, 18883.806, 18758.849, 18754.509, 18570.692, 18719.703, 18606.061, 18674.003, 18583.537, 18668.48, 18454.852, 18485.744, 18692.762, 18747.955, 18658.819, 18602.225, 18803.516, 18547.799, 18699.416, 18606.048, 18567.724, 18890.032, 18532.454, 18663.355, 18691.757, 18573.509, 18508.122, 18591.646, 18588.61, 18761.948, 18820.028, 18483.829, 18552.792, 18490.175, 18576.858, 18625.977, 18694.677, 18646.822, 18594.89, 18631.899, 18522.018, 18534.365, 18587.301, 18587.063, 18526.062, 18729.017, 18781.607],
  "Optimizer iterations": 76,
  "Qubits": 10,
  "Total Algorithm duration [s]": 1416.082,
  "Total Classic duration [s]": 228.89567874145519,
  "Total Quantum duration [s]": 1187.186321258545,
  "Expectation Value": -12.50830078125,
  "Optimal Expectation Value": -14.0,
  "Optimizer params": [0.9964289159576168, 0.5954809273148663, 0.4031714613295467, 0.4636698503375429, 0.025028452741707178, 0.905133884045508],
  "QPU": "6010003",
  "Problem": "MCP",
  "Size": 10,
  "P": 3,
  "Shots": 4096
}