{
  "Depth": 2.0,
  "Job durations [ms]": [7.81095027923584, 7.918000221252441, 7.859945297241211, 7.980823516845703, 8.057951927185059, 7.854700088500977, 8.867383003234863, 7.9735517501831055, 8.235692977905273, 8.066534996032715, 8.538126945495605, 8.050918579101562, 7.982850074768066, 7.844448089599609, 8.131742477416992, 7.884621620178223, 7.89952278137207, 7.8411102294921875, 8.124589920043945, 8.176207542419434, 8.914947509765625, 8.014082908630371, 7.945418357849121, 8.005380630493164, 7.9555511474609375, 7.954835891723633, 7.896065711975098, 7.897019386291504, 7.839560508728027, 8.198738098144531, 8.059859275817871, 7.938027381896973, 8.028507232666016, 7.874131202697754, 8.085012435913086, 8.249521255493164, 7.971525192260742, 8.088827133178711, 7.951498031616211, 8.007168769836426, 7.9555511474609375, 8.038520812988281, 7.824063301086426, 7.938265800476074, 8.256077766418457, 7.982969284057617, 7.991790771484375, 8.693218231201172, 8.004426956176758, 7.862329483032227, 7.924675941467285, 7.915735244750977, 7.763862609863281, 8.52358341217041, 9.570479393005371, 8.016824722290039, 7.972478866577148],
  "Optimizer durations [ms]": [192.28, 121.249, 119.047, 121.618, 167.56, 120.302, 124.16, 134.579, 185.683, 130.319, 129.024, 118.854, 171.072, 120.632, 118.918, 119.971, 167.644, 119.922, 121.256, 127.422, 183.665, 126.03, 127.583, 120.504, 183.866, 121.583, 119.623, 120.7, 170.651, 122.575, 120.51, 121.014, 181.849, 117.252, 117.6, 118.272, 170.706, 119.514, 116.906, 117.376, 166.896, 119.054, 118.903, 119.861, 165.624, 138.477, 116.248, 121.272, 165.172, 116.368, 128.881, 119.071, 170.022, 119.186, 128.513, 120.652, 169.401],
  "Optimizer iterations": 57,
  "Qubits": 4,
  "Total Algorithm duration [s]": 7.732,
  "Total Classic duration [s]": 7.2717897958755495,
  "Total Quantum duration [s]": 0.4602102041244507,
  "Expectation Value": -2.2735390663146973,
  "Optimal Expectation Value": -2.2741000652313232,
  "Optimizer params": [0.9958273614799454, 0.5003454445243195, 0.9994959100486861, 0.5035175056399692],
  "QPU": "3010002",
  "Problem": "RH",
  "Size": 4,
  "P": 0,
  "Shots": 4096
}