{
  "Circuit execution durations [ms]": [2.8246, 2.82, 2.8689, 2.8545, 2.9495, 2.9264, 2.9111, 2.8944, 2.9359, 2.8821, 2.9283, 2.9026, 2.8790999999999998, 2.8542, 2.9584, 2.8975, 2.8592, 2.8750999999999998, 2.8552999999999997, 2.8581000000000003, 2.8863, 2.9383999999999997, 2.8825000000000003, 2.8655, 2.8541, 2.8731, 2.8699, 2.9004, 2.8806000000000003, 2.9177999999999997, 3.0913, 2.9456, 2.8785999999999996, 2.8424, 2.8563, 2.8833, 2.8636999999999997, 2.9447, 2.8705, 2.8933999999999997, 2.8002000000000002, 2.9351999999999996, 2.8793, 2.9298, 3.0181, 2.8652, 2.901, 2.8341, 2.9439, 2.8739999999999997, 2.8575, 2.9158, 2.9182, 2.8795, 2.8518, 2.9151, 2.867, 2.8869, 2.8919, 2.9278, 2.8739, 2.8574, 3.0128, 2.8901, 2.8511, 2.869, 2.8785999999999996, 2.8958999999999997, 2.8648, 2.8649999999999998, 2.87, 2.904, 2.906, 2.8619000000000003, 2.9209, 2.883, 2.8659, 2.8506, 2.9194, 2.8919, 2.8493, 2.9823, 2.8765, 2.8709000000000002, 2.8938, 2.908, 2.895, 2.9072, 2.8893999999999997, 2.9514, 2.892, 2.9014, 2.926, 2.8764, 2.8471, 2.8628, 2.9280999999999997, 2.9227, 2.8897, 2.856, 2.9276, 2.8544, 2.8785999999999996, 2.7626, 2.9232, 3.1037, 2.843, 2.7822, 2.8944, 2.881, 2.933, 2.8838000000000004, 2.8945, 2.8714999999999997, 2.913, 2.8649, 2.8771, 2.8489999999999998, 2.8844, 2.877, 2.8841, 2.9645, 2.8669, 2.9048, 2.8892, 2.8892, 2.8668, 2.9009, 2.9108, 3.1239000000000003, 2.8886, 2.869, 2.9405, 2.9085, 2.8708, 2.8425, 2.9358, 2.8787000000000003, 2.8462, 2.8348, 2.9369, 2.8354, 2.8941000000000003, 2.8331, 2.8639, 2.8564, 2.8623, 2.9147000000000003, 2.979],
  "Depth": 457.0,
  "Expectation Value": -2.9497289657592773,
  "Optimal Expectation Value": -4.0,
  "Optimizer durations [ms]": [34.83, 30.513, 33.747, 29.335, 30.146, 39.14, 29.853, 29.612, 29.962, 29.432, 29.675, 29.672, 29.542, 29.15, 30.066, 29.622, 28.997, 29.107, 29.343, 29.044, 29.451, 29.858, 29.424, 29.199, 28.92, 29.619, 29.219, 29.616, 29.279, 39.443, 31.538, 29.771, 29.232, 29.841, 28.907, 29.532, 29.06, 30.063, 29.191, 29.354, 33.379, 29.889, 29.381, 29.572, 30.851, 29.175, 29.508, 29.047, 30.132, 29.249, 28.835, 30.026, 29.744, 29.314, 29.094, 29.626, 29.019, 29.554, 29.394, 29.977, 29.259, 29.046, 30.801, 39.055, 28.938, 29.319, 29.011, 29.635, 29.461, 29.081, 29.295, 29.653, 29.46, 29.226, 29.84, 29.279, 28.954, 29.153, 29.959, 29.279, 29.257, 30.087, 29.342, 29.367, 29.412, 29.688, 29.241, 29.802, 29.304, 29.951, 29.54, 29.541, 29.684, 29.15, 29.122, 29.385, 29.723, 29.936, 29.36, 29.155, 31.134, 32.755, 30.679, 37.906, 29.875, 31.604, 38.582, 33.238, 29.517, 31.198, 30.077, 29.225, 29.347, 29.489, 29.676, 29.057, 29.285, 29.062, 29.502, 29.17, 29.326, 30.139, 29.266, 29.412, 29.702, 29.167, 29.37, 29.515, 29.697, 31.546, 39.296, 29.225, 29.813, 29.697, 29.294, 28.914, 30.045, 29.154, 28.873, 28.995, 30.062, 28.684, 29.599, 28.721, 29.206, 29.289, 29.214, 29.672, 30.432],
  "Optimizer iterations": 149,
  "Optimizer params": [0.16888939022361565, 0.4592275451540525, 0.6303469487796914, 0.4499488858123375, 0.6878154451637564, 0.033358506550962445],
  "P": 3,
  "Problem": "DSP",
  "QJob durations [ms]": [2.8246, 2.82, 2.8689, 2.8545, 2.9495, 2.9264, 2.9111, 2.8944, 2.9359, 2.8821, 2.9283, 2.9026, 2.8790999999999998, 2.8542, 2.9584, 2.8975, 2.8592, 2.8750999999999998, 2.8552999999999997, 2.8581000000000003, 2.8863, 2.9383999999999997, 2.8825000000000003, 2.8655, 2.8541, 2.8731, 2.8699, 2.9004, 2.8806000000000003, 2.9177999999999997, 3.0913, 2.9456, 2.8785999999999996, 2.8424, 2.8563, 2.8833, 2.8636999999999997, 2.9447, 2.8705, 2.8933999999999997, 2.8002000000000002, 2.9351999999999996, 2.8793, 2.9298, 3.0181, 2.8652, 2.901, 2.8341, 2.9439, 2.8739999999999997, 2.8575, 2.9158, 2.9182, 2.8795, 2.8518, 2.9151, 2.867, 2.8869, 2.8919, 2.9278, 2.8739, 2.8574, 3.0128, 2.8901, 2.8511, 2.869, 2.8785999999999996, 2.8958999999999997, 2.8648, 2.8649999999999998, 2.87, 2.904, 2.906, 2.8619000000000003, 2.9209, 2.883, 2.8659, 2.8506, 2.9194, 2.8919, 2.8493, 2.9823, 2.8765, 2.8709000000000002, 2.8938, 2.908, 2.895, 2.9072, 2.8893999999999997, 2.9514, 2.892, 2.9014, 2.926, 2.8764, 2.8471, 2.8628, 2.9280999999999997, 2.9227, 2.8897, 2.856, 2.9276, 2.8544, 2.8785999999999996, 2.7626, 2.9232, 3.1037, 2.843, 2.7822, 2.8944, 2.881, 2.933, 2.8838000000000004, 2.8945, 2.8714999999999997, 2.913, 2.8649, 2.8771, 2.8489999999999998, 2.8844, 2.877, 2.8841, 2.9645, 2.8669, 2.9048, 2.8892, 2.8892, 2.8668, 2.9009, 2.9108, 3.1239000000000003, 2.8886, 2.869, 2.9405, 2.9085, 2.8708, 2.8425, 2.9358, 2.8787000000000003, 2.8462, 2.8348, 2.9369, 2.8354, 2.8941000000000003, 2.8331, 2.8639, 2.8564, 2.8623, 2.9147000000000003, 2.979],
  "QPU": "7000000",
  "Qubits": 11,
  "Queue durations [ms]": [0.0, 0.0, 0.0, 0.0, 0.0, 0.0, 0.0, 0.0, 0.0, 0.0, 0.0, 0.0, 0.0, 0.0, 0.0, 0.0, 0.0, 0.0, 0.0, 0.0, 0.0, 0.0, 0.0, 0.0, 0.0, 0.0, 0.0, 0.0, 0.0, 0.0, 0.0, 0.0, 0.0, 0.0, 0.0, 0.0, 0.0, 0.0, 0.0, 0.0, 0.0, 0.0, 0.0, 0.0, 0.0, 0.0, 0.0, 0.0, 0.0, 0.0, 0.0, 0.0, 0.0, 0.0, 0.0, 0.0, 0.0, 0.0, 0.0, 0.0, 0.0, 0.0, 0.0, 0.0, 0.0, 0.0, 0.0, 0.0, 0.0, 0.0, 0.0, 0.0, 0.0, 0.0, 0.0, 0.0, 0.0, 0.0, 0.0, 0.0, 0.0, 0.0, 0.0, 0.0, 0.0, 0.0, 0.0, 0.0, 0.0, 0.0, 0.0, 0.0, 0.0, 0.0, 0.0, 0.0, 0.0, 0.0, 0.0, 0.0, 0.0, 0.0, 0.0, 0.0, 0.0, 0.0, 0.0, 0.0, 0.0, 0.0, 0.0, 0.0, 0.0, 0.0, 0.0, 0.0, 0.0, 0.0, 0.0, 0.0, 0.0, 0.0, 0.0, 0.0, 0.0, 0.0, 0.0, 0.0, 0.0, 0.0, 0.0, 0.0, 0.0, 0.0, 0.0, 0.0, 0.0, 0.0, 0.0, 0.0, 0.0, 0.0, 0.0, 0.0, 0.0, 0.0, 0.0, 0.0, 0.0],
  "Shots": 4096,
  "Size": 6,
  "Total Algorithm duration [s]": 4.479,
  "Total Classic duration [s]": 4.0480847,
  "Total Quantum duration [s]": 0.43091529999999983
}
