{
  "Circuit execution durations [ms]": [52.378177642822266, 51.86200141906738, 52.06727981567383, 53.228139877319336, 52.863240242004395, 49.129366874694824, 51.37920379638672, 54.116010665893555, 76.90560817718506, 51.55682563781738, 76.31731033325195, 53.12526226043701, 75.07932186126709, 52.12068557739258, 74.67544078826904, 51.91946029663086, 50.54759979248047, 51.924943923950195, 52.710652351379395, 53.78878116607666, 50.48203468322754, 52.08122730255127, 49.88133907318115, 52.483201026916504, 77.04901695251465, 53.82680892944336, 78.5377025604248, 50.79090595245361, 75.17635822296143, 53.90167236328125, 76.48301124572754, 53.17342281341553, 52.474260330200195, 51.694393157958984, 49.965500831604004, 51.13673210144043, 52.63185501098633, 49.808502197265625, 50.42707920074463, 53.43759059906006, 50.65000057220459, 77.99911499023438, 51.34475231170654, 77.58545875549316, 51.793575286865234, 81.42125606536865, 52.019476890563965, 73.15146923065186, 51.19037628173828, 49.84128475189209, 52.197933197021484, 53.94876003265381, 52.033185958862305, 51.05876922607422, 50.57716369628906, 53.177595138549805, 52.28245258331299, 80.71041107177734, 51.43535137176514, 79.12993431091309, 51.928162574768066, 78.18138599395752, 53.64274978637695, 76.99131965637207, 53.11715602874756, 52.54662036895752, 54.03435230255127, 51.28681659698486, 54.257750511169434, 55.13477325439453, 51.65731906890869, 53.17676067352295, 50.01270771026611, 51.70762538909912, 76.73370838165283, 51.99694633483887, 79.49113845825195],
  "Depth": 4.5,
  "Expectation Value": -0.9462890625,
  "Optimal Expectation Value": -1.0,
  "Optimizer durations [ms]": [1754.031, 622.152, 572.076, 624.107, 570.108, 618.737, 566.654, 624.431, 581.551, 620.392, 577.774, 624.26, 574.678, 618.915, 573.332, 618.165, 575.386, 617.831, 580.6, 617.043, 574.421, 616.908, 570.524, 613.491, 625.628, 577.795, 629.759, 570.626, 620.516, 578.363, 625.651, 572.074, 626.101, 571.09, 617.893, 567.901, 620.531, 564.015, 618.691, 574.012, 616.574, 580.643, 621.141, 579.586, 619.893, 587.188, 619.903, 573.608, 615.476, 571.9, 617.153, 583.133, 614.606, 577.01, 615.16, 578.473, 614.809, 635.024, 571.935, 632.742, 572.872, 626.348, 576.521, 625.094, 575.86, 627.258, 575.909, 620.388, 573.29, 629.075, 570.201, 627.315, 568.509, 621.334, 579.272, 621.953, 583.818],
  "Optimizer iterations": 77,
  "Optimizer params": [1.0, 0.9928484331034566, 1.0, 3.4211388289180104e-49],
  "P": 0,
  "Problem": "IC",
  "QJob durations [ms]": [59.42702293395996, 59.005022048950195, 59.39769744873047, 60.4473352432251, 60.01484394073486, 56.32925033569336, 58.41493606567383, 61.23244762420654, 84.13159847259521, 58.66694450378418, 83.43827724456787, 60.26875972747803, 82.21817016601563, 59.221744537353516, 81.77268505096436, 59.21733379364014, 57.71756172180176, 59.07273292541504, 60.034871101379395, 60.843467712402344, 57.594895362854004, 59.21626091003418, 56.937217712402344, 59.551358222961426, 84.1379165649414, 61.017751693725586, 85.69252490997314, 57.90078639984131, 82.28874206542969, 61.05470657348633, 83.6784839630127, 60.269951820373535, 59.77821350097656, 58.86948108673096, 57.38639831542969, 58.43949317932129, 59.79561805725098, 56.95986747741699, 57.51228332519531, 60.545921325683594, 57.717084884643555, 85.09683609008789, 58.451294898986816, 84.71226692199707, 58.95841121673584, 88.55557441711426, 59.10444259643555, 80.34718036651611, 58.45165252685547, 56.929945945739746, 59.35680866241455, 61.289072036743164, 59.12673473358154, 58.24923515319824, 57.729244232177734, 60.327887535095215, 59.46910381317139, 87.94665336608887, 58.58790874481201, 86.36069297790527, 59.023261070251465, 85.25729179382324, 60.75453758239746, 83.99796485900879, 60.27233600616455, 59.86297130584717, 61.1262321472168, 58.394670486450195, 61.51223182678223, 62.2633695602417, 58.8608980178833, 60.34278869628906, 57.184576988220215, 58.83491039276123, 83.88245105743408, 59.11421775817871, 86.59577369689941],
  "QPU": "3000010",
  "Qubits": 1,
  "Queue durations [ms]": [0.0, 0.0, 0.0, 0.0, 0.0, 0.0, 0.0, 0.0, 0.0, 0.0, 0.0, 0.0, 0.0, 0.0, 0.0, 0.0, 0.0, 0.0, 0.0, 0.0, 0.0, 0.0, 0.0, 0.0, 0.0, 0.0, 0.0, 0.0, 0.0, 0.0, 0.0, 0.0, 0.0, 0.0, 0.0, 0.0, 0.0, 0.0, 0.0, 0.0, 0.0, 0.0, 0.0, 0.0, 0.0, 0.0, 0.0, 0.0, 0.0, 0.0, 0.0, 0.0, 0.0, 0.0, 0.0, 0.0, 0.0, 0.0, 0.0, 0.0, 0.0, 0.0, 0.0, 0.0, 0.0, 0.0, 0.0, 0.0, 0.0, 0.0, 0.0, 0.0, 0.0, 0.0, 0.0, 0.0, 0.0],
  "Shots": 4096,
  "Size": 1,
  "Total Algorithm duration [s]": 47.269,
  "Total Classic duration [s]": 42.255450910568236,
  "Total Quantum duration [s]": 5.013549089431763
}
