{
  "Circuit execution durations [ms]": [43.010592460632324, 43.67804527282715, 43.082237243652344, 43.04218292236328, 43.05613040924072, 42.32680797576904, 43.16389560699463, 42.98579692840576, 42.910099029541016, 43.360114097595215, 42.95849800109863, 42.59848594665527, 42.89066791534424, 43.37120056152344, 43.90358924865723, 47.35255241394043, 42.97637939453125, 43.02191734313965, 42.859792709350586, 42.63269901275635, 42.772769927978516, 43.80631446838379, 43.88427734375, 43.47348213195801, 43.599843978881836, 43.14613342285156, 43.204665184020996, 42.870521545410156, 42.999982833862305, 43.243408203125, 43.834686279296875, 43.68793964385986, 43.13766956329346, 43.67685317993164, 198.26829433441162, 43.33925247192383, 42.94431209564209, 42.8471565246582, 43.277740478515625, 43.19894313812256, 42.923688888549805, 43.267130851745605, 42.690396308898926, 42.830586433410645, 43.40469837188721, 42.99771785736084, 43.78950595855713, 42.95241832733154, 42.75071620941162, 43.34568977355957, 43.259620666503906, 43.15078258514404, 43.30301284790039, 43.084025382995605, 43.436408042907715, 43.312668800354004, 43.01285743713379, 42.844176292419434, 48.56395721435547, 42.93239116668701, 43.27106475830078, 43.331265449523926, 43.02394390106201, 43.03598403930664, 43.37036609649658, 43.45738887786865, 194.05710697174072, 44.08705234527588, 42.64962673187256, 43.604373931884766, 42.95313358306885, 43.73204708099365, 42.96696186065674, 43.236732482910156, 43.222665786743164, 42.66095161437988, 43.42162609100342, 42.91844367980957, 43.48886013031006, 42.86766052246094, 43.08176040649414, 43.209075927734375, 43.84040832519531, 43.24948787689209, 43.39456558227539, 194.64898109436035, 42.994141578674316, 42.859435081481934, 43.349623680114746, 43.17975044250488, 42.687416076660156, 42.763590812683105, 43.56217384338379, 43.47372055053711, 43.24662685394287, 44.18337345123291, 43.805837631225586, 42.95814037322998, 43.253421783447266, 42.937397956848145],
  "Depth": 6.5,
  "Expectation Value": -2.19482421875,
  "Optimal Expectation Value": -2.2360680103302,
  "Optimizer durations [ms]": [1541.007, 1508.878, 1539.278, 1535.174, 1557.999, 1529.683, 1536.832, 1547.653, 1520.985, 1530.073, 1554.246, 1501.875, 1535.16, 1542.401, 1536.654, 1517.898, 1533.713, 1559.7, 1510.634, 1536.304, 1537.395, 1537.5, 1536.206, 1535.341, 1536.577, 1534.043, 1539.545, 1506.996, 1539.085, 1534.908, 1560.487, 1505.715, 1536.195, 1539.523, 1842.543, 1539.539, 1528.358, 1533.891, 1545.074, 1526.586, 1517.91, 1538.03, 1540.483, 1566.261, 1511.788, 1533.158, 1533.081, 1534.058, 1511.007, 1554.757, 1540.749, 1534.654, 1543.867, 1510.582, 1538.037, 1539.311, 1553.286, 1537.387, 1527.758, 1531.517, 1535.244, 1536.194, 1530.385, 1538.6, 1536.894, 1534.816, 1839.123, 1514.429, 1539.94, 1560.043, 1536.722, 1505.823, 1534.99, 1542.37, 1535.019, 1566.128, 1505.297, 1537.089, 1539.034, 1546.327, 1510.602, 1541.883, 1561.757, 1508.48, 1541.252, 1842.56, 1529.307, 1515.806, 1562.028, 1544.785, 1535.805, 1508.822, 1542.071, 1539.82, 1512.933, 1558.815, 1541.006, 1531.887, 1508.214, 1541.669],
  "Optimizer iterations": 100,
  "Optimizer params": [0.5851325825324014, 0.8994876755940788, 0.4907052721429765, 0.0015680853690967181, 0.4520748374058753, 0.38531483976911823, 0.890143112122931, 0.059042559335659],
  "P": 0,
  "Problem": "IC",
  "QJob durations [ms]": [759.7349882125854, 743.9548969268799, 759.0783834457397, 756.9155693054199, 756.7659616470337, 754.4084787368774, 757.8009366989136, 763.1100416183472, 750.0419616699219, 754.4608116149902, 755.0702095031738, 740.4071092605591, 757.0216655731201, 760.6416940689087, 757.8080892562866, 748.3599185943604, 756.1975717544556, 757.5151920318604, 744.760274887085, 757.7314376831055, 758.2182884216309, 758.3918571472168, 757.3109865188599, 745.8876371383667, 757.834792137146, 756.1835050582886, 759.2532634735107, 742.7647113800049, 759.0957880020142, 756.7323446273804, 758.5448026657104, 742.2884702682495, 757.5119733810425, 759.3832015991211, 910.9064340591431, 759.2902183532715, 742.4212694168091, 756.4784288406372, 761.8929147720337, 752.9356479644775, 748.3659982681274, 758.5790157318115, 759.5586776733398, 761.3192796707153, 745.285153388977, 756.1870813369751, 755.8764219284058, 756.3329935073853, 745.1435327529907, 755.7346820831299, 759.8587274551392, 756.9866180419922, 761.2357139587402, 744.7471618652344, 758.4284543991089, 759.0961456298828, 754.874587059021, 758.2833766937256, 753.2435655593872, 755.4094791412354, 757.3505640029907, 757.5912475585938, 743.3137893676758, 758.6086988449097, 757.79128074646, 756.8320035934448, 909.1681241989136, 746.7694282531738, 759.29856300354, 757.8223943710327, 757.906436920166, 742.3288822174072, 756.9228410720825, 760.5851888656616, 756.8901777267456, 760.3409290313721, 741.8545484542847, 757.8220367431641, 759.0219974517822, 762.3827457427979, 744.7401285171509, 760.4748010635376, 758.716344833374, 743.4860467910767, 760.2618932723999, 910.6597900390625, 754.1952133178711, 747.3351955413818, 759.2271566390991, 761.6751194000244, 757.3287487030029, 743.9157962799072, 760.5859041213989, 759.3289613723755, 745.9213733673096, 757.5472593307495, 759.6553564071655, 755.4988861083984, 743.5297966003418, 760.3551149368286],
  "QPU": "6010013",
  "Qubits": 2,
  "Queue durations [ms]": [0.0, 0.0, 0.0, 0.0, 0.0, 0.0, 0.0, 0.0, 0.0, 0.0, 0.0, 0.0, 0.0, 0.0, 0.0, 0.0, 0.0, 0.0, 0.0, 0.0, 0.0, 0.0, 0.0, 0.0, 0.0, 0.0, 0.0, 0.0, 0.0, 0.0, 0.0, 0.0, 0.0, 0.0, 0.0, 0.0, 0.0, 0.0, 0.0, 0.0, 0.0, 0.0, 0.0, 0.0, 0.0, 0.0, 0.0, 0.0, 0.0, 0.0, 0.0, 0.0, 0.0, 0.0, 0.0, 0.0, 0.0, 0.0, 0.0, 0.0, 0.0, 0.0, 0.0, 0.0, 0.0, 0.0, 0.0, 0.0, 0.0, 0.0, 0.0, 0.0, 0.0, 0.0, 0.0, 0.0, 0.0, 0.0, 0.0, 0.0, 0.0, 0.0, 0.0, 0.0, 0.0, 0.0, 0.0, 0.0, 0.0, 0.0, 0.0, 0.0, 0.0, 0.0, 0.0, 0.0, 0.0, 0.0, 0.0, 0.0],
  "Shots": 4096,
  "Size": 2,
  "Total Algorithm duration [s]": 154.363,
  "Total Classic duration [s]": 78.40830084133148,
  "Total Quantum duration [s]": 75.95469915866852
}
