{
  "Circuit execution durations [ms]": [69.04816627502441, 70.23262977600098, 69.23770904541016, 69.27859783172607, 70.0981616973877, 69.82243061065674, 69.8695182800293, 69.84901428222656, 70.10674476623535, 69.53346729278564, 70.59180736541748, 69.7094202041626, 65.44113159179688, 69.57197189331055, 66.96128845214844, 69.61190700531006, 66.11216068267822, 69.85163688659668, 69.34988498687744, 84.56635475158691, 69.39005851745605, 66.21551513671875, 70.85812091827393, 73.403000831604, 66.60580635070801, 83.39643478393555, 223.74975681304932, 66.45619869232178, 66.99943542480469, 69.51642036437988, 217.51916408538818, 81.13431930541992, 69.32437419891357, 74.60129261016846, 69.16177272796631, 69.0525770187378, 69.0608024597168, 80.08372783660889, 68.60697269439697, 64.96024131774902, 68.97997856140137, 64.93175029754639, 64.86749649047852, 236.89401149749756, 68.99917125701904, 69.76795196533203, 68.92311573028564, 69.03409957885742, 68.75026226043701, 65.33646583557129, 68.76623630523682, 68.43626499176025, 68.87233257293701, 65.29021263122559, 68.84026527404785, 69.04280185699463, 69.46063041687012, 68.76158714294434, 65.13166427612305, 69.44513320922852, 68.55988502502441, 69.46063041687012, 68.89486312866211, 69.3591833114624, 68.85826587677002, 68.6805248260498, 68.67766380310059, 68.93789768218994, 68.83466243743896, 68.45271587371826, 68.71247291564941, 65.57178497314453, 68.56942176818848, 69.94092464447021, 66.44058227539063, 69.15366649627686, 69.47290897369385, 69.37503814697266, 68.8704252243042, 65.13988971710205, 69.06986236572266, 68.45414638519287, 69.06020641326904, 68.9842700958252, 72.68917560577393, 65.28341770172119],
  "Depth": 2.0,
  "Expectation Value": -2.740980863571167,
  "Optimal Expectation Value": -2.7446999549865723,
  "Optimizer durations [ms]": [1607.144, 1600.762, 1616.839, 1617.246, 1601.586, 1585.132, 1608.956, 1647.002, 1587.445, 1617.775, 1617.934, 1597.477, 1575.275, 1633.275, 1599.173, 1607.148, 1571.775, 1608.076, 1613.319, 1638.558, 1619.378, 1573.592, 1626.102, 1685.018, 1598.831, 1664.63, 1911.651, 1622.85, 1647.218, 1604.659, 1913.701, 1749.549, 1583.395, 1621.589, 1604.445, 1602.664, 1605.52, 1596.939, 1601.388, 1596.589, 1609.407, 1600.098, 1558.064, 1934.215, 1607.13, 1582.784, 1606.053, 1598.816, 1603.622, 1611.376, 1600.774, 1573.185, 1609.049, 1592.18, 1573.115, 1623.099, 1608.262, 1598.98, 1559.565, 1602.003, 1599.197, 1594.288, 1602.254, 1602.556, 1602.52, 1618.203, 1567.879, 1622.548, 1598.683, 1595.466, 1603.848, 1569.796, 1604.636, 1642.959, 1600.057, 1611.802, 1566.632, 1602.296, 1594.693, 1604.606, 1569.33, 1593.15, 1597.753, 1607.265, 1579.717, 1608.419],
  "Optimizer iterations": 86,
  "Optimizer params": [9.961107459710572e-19, 0.4969539418551293, 0.9797487756780645, 0.5031225042993668, 0.4928390877448365],
  "P": 0,
  "Problem": "RH",
  "QJob durations [ms]": [788.0023717880249, 772.9123830795288, 793.1084632873535, 793.5312986373901, 785.5318784713745, 777.4472236633301, 788.9062166213989, 808.0867528915405, 778.6699533462524, 793.5202121734619, 793.921947479248, 783.4233045578003, 772.4552154541016, 800.9622097015381, 784.2786312103271, 787.778377532959, 770.4671621322632, 788.949728012085, 791.5036678314209, 803.9077520370483, 794.12841796875, 771.0850238800049, 797.1303462982178, 826.5163898468018, 784.2285633087158, 817.0373439788818, 940.0562047958374, 796.0981130599976, 807.7164888381958, 786.7605686187744, 941.5141344070435, 859.7249984741211, 776.5039205551147, 794.9936389923096, 786.658525466919, 786.0250473022461, 787.6155376434326, 783.1659317016602, 785.5018377304077, 782.9493284225464, 789.2791032791138, 784.773588180542, 763.7372016906738, 951.8730640411377, 788.3533239364624, 776.154637336731, 787.7336740493774, 784.1436862945557, 786.4793539047241, 779.3130874633789, 784.9980592727661, 771.3502645492554, 789.2717123031616, 780.6140184402466, 771.2177038192749, 784.9041223526001, 788.7192964553833, 784.2111587524414, 764.6178007125854, 785.54368019104, 784.1122150421143, 770.4561948776245, 785.8719825744629, 785.8133316040039, 785.8428955078125, 793.6649322509766, 768.5178518295288, 784.1289043426514, 784.0067148208618, 782.2985649108887, 786.5281105041504, 769.6388959884644, 786.6270542144775, 793.0028438568115, 784.3227386474609, 790.5919551849365, 767.9494619369507, 785.5914831161499, 781.9728851318359, 786.7441177368164, 768.966555595398, 781.0982465744019, 783.360481262207, 788.0451679229736, 774.4073867797852, 788.7340784072876],
  "QPU": "6010013",
  "Qubits": 5,
  "Queue durations [ms]": [0.0, 0.0, 0.0, 0.0, 0.0, 0.0, 0.0, 0.0, 0.0, 0.0, 0.0, 0.0, 0.0, 0.0, 0.0, 0.0, 0.0, 0.0, 0.0, 0.0, 0.0, 0.0, 0.0, 0.0, 0.0, 0.0, 0.0, 0.0, 0.0, 0.0, 0.0, 0.0, 0.0, 0.0, 0.0, 0.0, 0.0, 0.0, 0.0, 0.0, 0.0, 0.0, 0.0, 0.0, 0.0, 0.0, 0.0, 0.0, 0.0, 0.0, 0.0, 0.0, 0.0, 0.0, 0.0, 0.0, 0.0, 0.0, 0.0, 0.0, 0.0, 0.0, 0.0, 0.0, 0.0, 0.0, 0.0, 0.0, 0.0, 0.0, 0.0, 0.0, 0.0, 0.0, 0.0, 0.0, 0.0, 0.0, 0.0, 0.0, 0.0, 0.0, 0.0, 0.0, 0.0, 0.0],
  "Shots": 4096,
  "Size": 5,
  "Total Algorithm duration [s]": 138.994,
  "Total Classic duration [s]": 70.89164130115509,
  "Total Quantum duration [s]": 68.10235869884491
}
