{
  "Depth": 344.0,
  "Expectation Value": -1.816162109375,
  "Job durations [ms]": [14.985799789428711, 15.114784240722656, 15.097618103027344, 14.933109283447266, 15.023469924926758, 15.418291091918945, 15.151023864746094, 15.042304992675781, 15.19775390625, 14.931201934814453, 15.117883682250977, 15.297412872314453, 14.840364456176758, 15.119075775146484, 15.18559455871582, 14.942646026611328, 15.078306198120117, 15.13981819152832, 15.189886093139648, 15.332698822021484, 15.076398849487305, 14.976978302001953, 15.110969543457031, 14.969587326049805, 15.232324600219727, 15.25735855102539, 15.255212783813477, 15.050411224365234, 15.090465545654297, 15.090465545654297, 15.306949615478516, 15.015840530395508, 15.056610107421875, 15.016555786132813, 15.14744758605957, 14.969825744628906, 15.163421630859375, 15.073299407958984, 15.295267105102539, 15.40517807006836, 15.276908874511719, 15.208244323730469, 15.343189239501953, 15.023231506347656, 15.237808227539063, 15.221118927001953, 15.171289443969727, 15.069007873535156, 15.055179595947266, 15.271186828613281, 15.386104583740234, 15.37013053894043, 14.981985092163086, 15.170574188232422, 15.122413635253906, 15.336990356445313, 15.331745147705078, 14.971017837524414, 15.065670013427734, 14.890670776367188, 15.012502670288086, 15.196084976196289, 15.382528305053711, 15.308618545532227, 15.17176628112793, 15.020132064819336, 15.210390090942383, 15.299320220947266, 14.966487884521484, 14.887332916259766, 15.01917839050293, 15.182971954345703, 15.106678009033203, 15.292882919311523, 15.032768249511719, 15.360832214355469, 15.278339385986328, 15.271186828613281, 15.162944793701172, 15.099763870239258, 15.31529426574707, 15.066146850585938, 14.839410781860352],
  "Optimal Expectation Value": -2.0,
  "Optimizer durations [ms]": [243.109, 283.524, 242.368, 287.035, 241.93, 284.439, 243.827, 242.26, 283.171, 241.961, 285.227, 242.928, 283.374, 242.251, 283.485, 241.649, 242.326, 285.621, 242.247, 282.927, 242.279, 283.923, 242.363, 242.54, 284.273, 242.996, 286.243, 242.262, 283.438, 242.757, 243.111, 283.143, 242.206, 284.754, 242.558, 283.697, 242.48, 284.034, 242.128, 242.932, 284.925, 242.299, 283.029, 242.145, 284.907, 243.198, 242.036, 283.082, 244.031, 286.359, 242.155, 284.081, 242.581, 242.611, 282.381, 243.185, 285.536, 242.4, 283.277, 242.207, 284.955, 242.507, 242.43, 284.024, 242.349, 282.134, 242.214, 284.195, 242.427, 242.103, 283.665, 243.086, 285.972, 242.3, 283.906, 244.133, 242.554, 283.824, 241.927, 286.485, 242.645, 282.485, 242.295],
  "Optimizer iterations": 83,
  "Optimizer params": [0.5837802330913618, 0.5482405461483306, 0.7405799509519212, 0.7870014542066183, 0.9166307832870932, 0.20822189851638576],
  "P": 3,
  "Problem": "MIS",
  "QPU": "3010002",
  "Qubits": 9,
  "Shots": 4096,
  "Size": 6,
  "Total Algorithm duration [s]": 21.63,
  "Total Classic duration [s]": 20.3733123588562,
  "Total Quantum duration [s]": 1.2566876411437988
}
