{
  "Depth": 532.0,
  "Expectation Value": -3.690688371658325,
  "Job durations [ms]": [3.2366, 3.4152, 3.3727, 3.2294, 3.2855, 3.3094, 3.2488, 3.3094, 3.2776, 3.3017, 3.3787000000000003, 3.2702, 3.2648, 3.3185, 3.3931, 3.278, 3.4076000000000004, 3.4240999999999997, 3.2709, 3.2866000000000004, 3.3417999999999997, 3.3893, 3.0009, 3.2173000000000003, 3.4265, 3.3070999999999997, 3.2520000000000002, 3.3849, 3.3146999999999998, 3.3181, 3.2225, 3.3076999999999996, 3.4147000000000003, 3.3322, 3.2729999999999997, 3.3695, 3.362, 3.2596000000000003, 3.2705, 3.2969000000000004, 3.2536, 3.2908999999999997, 3.2929, 3.3234, 3.2644, 3.2867, 3.3161, 3.2786, 3.2341, 3.2423, 3.3682, 3.2733, 3.2156, 3.3035, 3.3024999999999998, 3.5027, 3.3064999999999998, 3.319, 3.4749999999999996, 3.314, 3.3263, 3.2862, 3.2823, 3.7692, 3.3029, 3.2693000000000003, 3.2927999999999997, 3.2572, 3.3301, 3.388, 3.3015000000000003, 3.2415, 3.2811, 3.2681, 3.2380999999999998, 3.3582, 3.1155000000000004, 3.3955, 3.2727, 3.2824999999999998, 3.3051, 3.4332, 3.3044, 3.2883, 3.2942, 3.2683, 3.3076, 3.2781, 3.3508999999999998, 3.2870999999999997, 3.3930000000000002, 3.1226000000000003, 3.2918000000000003, 3.2735, 3.6279, 3.3070999999999997, 3.2712000000000003, 3.3349, 3.2615000000000003, 3.4041, 3.2939000000000003, 3.2908, 3.3630999999999998, 3.2443, 3.4032, 3.3967, 3.2502999999999997, 3.2364, 3.2729, 3.3139, 3.2867, 3.4825, 3.3096, 3.3044, 3.3062, 3.4072, 3.3081, 3.3145000000000002, 3.2915, 3.2776, 3.3034000000000003, 3.3037, 3.31, 3.2375, 3.3038, 3.3183000000000002, 3.2046, 3.2742999999999998, 3.4088, 3.2969000000000004, 3.3411, 3.2612, 3.2944, 3.3989, 3.432],
  "Optimal Expectation Value": -5.0,
  "Optimizer durations [ms]": [42.639, 39.464, 39.139, 42.563, 43.136, 43.217, 42.894, 43.391, 42.93, 43.171, 39.249, 42.721, 43.188, 43.317, 39.224, 43.283, 39.564, 39.805, 42.951, 43.329, 38.919, 39.537, 35.389, 42.28, 39.725, 43.408, 42.928, 39.275, 43.374, 43.682, 42.467, 38.617, 39.422, 43.67, 43.144, 38.903, 39.241, 42.627, 43.255, 42.973, 42.97, 43.294, 43.021, 43.447, 43.015, 43.193, 43.324, 43.1, 42.338, 42.627, 39.178, 43.293, 42.528, 43.331, 43.146, 40.424, 41.892, 43.45, 40.188, 43.598, 41.998, 42.958, 43.008, 42.964, 43.454, 42.783, 43.416, 42.923, 43.402, 39.57, 43.397, 42.499, 43.355, 42.669, 42.728, 38.837, 41.859, 39.203, 43.041, 43.282, 43.359, 39.718, 43.482, 43.171, 43.244, 42.803, 43.331, 42.878, 43.702, 43.345, 39.465, 36.589, 43.302, 42.871, 42.735, 43.507, 42.653, 43.625, 42.595, 39.558, 42.989, 43.208, 43.693, 42.863, 39.222, 39.531, 42.681, 42.58, 42.792, 42.409, 43.072, 40.36, 43.281, 43.442, 43.348, 39.55, 43.331, 43.609, 43.166, 43.024, 43.387, 43.254, 43.225, 42.456, 43.392, 43.262, 42.667, 42.864, 39.569, 43.021, 43.886, 42.721, 43.075, 39.599, 39.956],
  "Optimizer iterations": 135,
  "Optimizer params": [0.41103492654045615, 0.953087826932807, 0.4836642717544642, 0.5060892857094647, 0.9013825108004108, 0.8122709183818274],
  "P": 3,
  "Problem": "DSP",
  "QPU": "7000000",
  "Qubits": 12,
  "Shots": 4096,
  "Size": 7,
  "Total Algorithm duration [s]": 5.691,
  "Total Classic duration [s]": 5.243790199999999,
  "Total Quantum duration [s]": 0.44720980000000016
}
