{
  "Depth": 532.0,
  "Expectation Value": -3.6939632892608643,
  "Job durations [ms]": [3.2526, 3.3222, 3.2805, 3.2683, 3.2644, 3.2613, 3.3232, 3.2641, 3.2746, 3.3533, 3.4002, 3.2831, 3.251, 3.2807, 3.2878, 3.2828000000000004, 3.3385, 3.395, 3.3051, 3.2548999999999997, 3.2477, 3.2674000000000003, 3.2877, 3.2452, 3.2582, 3.2626999999999997, 3.2813, 3.3416, 3.2609000000000004, 3.2664999999999997, 3.2288, 3.261, 3.2941, 3.2729999999999997, 3.3943, 3.3718, 3.2666, 3.2607, 3.3027, 3.2451, 3.2547, 3.4625, 3.1578, 3.3535, 3.2702999999999998, 3.2515, 3.3068, 3.2964, 3.3234, 3.2805999999999997, 3.2819, 3.285, 3.2837, 3.3023000000000002, 3.2544, 3.2901, 3.2681, 3.4546, 3.2677, 3.2915, 3.3133, 3.2673, 3.2732, 3.3506, 3.2772, 3.2563, 3.2478, 3.3057, 3.2992999999999997, 3.2939000000000003, 3.2178, 3.271, 3.281, 3.2575999999999996, 3.2380999999999998, 3.2717, 3.2308, 3.2513, 3.2584, 3.2828000000000004, 3.2533000000000003, 3.2572, 3.3973, 3.3054, 3.4614, 3.2997, 3.4017, 3.2907, 3.2645, 3.2623, 3.3185, 3.2632999999999996, 3.2937000000000003, 3.2778, 3.2373, 3.2488, 3.2215, 3.2558000000000002, 3.3444, 3.265, 3.1975, 3.2506000000000004, 3.215, 3.2942, 3.2951, 3.2349, 3.2705, 3.2784, 3.3081, 3.2514000000000003, 3.2392, 3.2629, 3.4389, 3.2117999999999998, 3.2571000000000003, 3.2258999999999998, 3.3218, 3.2328, 3.2921, 3.266, 3.2525000000000004, 3.2721, 3.271, 3.2948999999999997],
  "Optimal Expectation Value": -5.0,
  "Optimizer durations [ms]": [42.616, 43.264, 43.079, 42.894, 42.704, 43.069, 43.265, 43.0, 43.202, 38.88, 39.393, 42.885, 43.103, 43.137, 42.985, 43.53, 43.556, 39.445, 43.13, 43.177, 42.76, 42.988, 42.943, 42.536, 42.902, 42.97, 42.894, 43.77, 42.724, 42.758, 42.472, 42.656, 43.362, 42.841, 39.371, 39.305, 43.089, 42.785, 43.277, 42.731, 42.873, 39.935, 41.864, 39.056, 42.959, 42.754, 43.16, 43.48, 43.444, 43.332, 42.869, 42.973, 43.087, 43.548, 42.728, 43.427, 42.92, 39.852, 43.06, 42.999, 43.558, 42.966, 43.171, 44.38, 43.179, 42.93, 42.721, 43.12, 43.377, 42.964, 42.271, 42.973, 43.141, 42.685, 42.617, 43.132, 42.683, 42.851, 42.814, 42.808, 42.531, 42.99, 39.486, 43.384, 39.923, 43.512, 39.493, 43.366, 42.932, 42.998, 43.318, 43.1, 43.209, 43.19, 42.418, 42.826, 42.401, 42.681, 43.892, 43.02, 42.206, 42.744, 42.201, 43.343, 43.236, 42.486, 43.436, 43.028, 43.48, 42.587, 43.099, 42.968, 39.824, 42.068, 43.163, 42.444, 43.341, 42.772, 43.042, 43.232, 42.602, 43.174, 43.033, 43.28],
  "Optimizer iterations": 124,
  "Optimizer params": [0.5450244597083608, 0.9325602586842905, 0.20165629787005365, 0.965254680406984, 0.08791107501697625, 0.23745566319898626],
  "P": 3,
  "Problem": "DSP",
  "QPU": "7000000",
  "Qubits": 12,
  "Shots": 4096,
  "Size": 7,
  "Total Algorithm duration [s]": 5.289,
  "Total Classic duration [s]": 4.8817029,
  "Total Quantum duration [s]": 0.4072971000000001
}
