{
  "Depth": 532.0,
  "Expectation Value": -2.8589839935302734,
  "Job durations [ms]": [3.2406, 3.2826, 3.2438, 3.2265, 3.2994, 3.2166, 3.2451, 3.6052, 3.2009, 3.2355, 3.2742999999999998, 3.2764, 3.2131, 3.2573, 3.2236000000000002, 3.2588, 3.1936999999999998, 3.2786, 3.2186, 3.2649, 3.2528, 3.2382, 3.2889999999999997, 3.2921, 3.3378, 3.3202000000000003, 3.2304, 3.3421000000000003, 3.2817, 3.271, 3.279, 3.2605, 3.1807, 3.2338, 3.2664999999999997, 3.2318, 3.2845999999999997, 3.2346, 3.2148, 3.2786999999999997, 3.218, 3.2908999999999997, 3.2579000000000002, 3.2439, 3.3338, 3.2689, 3.2472999999999996, 3.2763, 3.2645, 3.2797, 3.3042000000000002, 3.2819, 3.262, 3.2499000000000002, 3.2978, 3.2510999999999997, 3.3375000000000004, 3.2526, 3.2436000000000003, 3.2648, 3.2380999999999998, 3.3308999999999997, 3.3143000000000002, 3.2611, 3.2751, 3.2798, 3.3101, 3.3822, 3.2523999999999997, 3.2946999999999997, 3.2735, 3.2812, 3.1675, 3.2072, 3.2207999999999997, 3.296, 3.2792, 3.2531, 3.3024999999999998, 3.2161, 3.2306, 3.2337, 3.2813, 3.2967],
  "Optimal Expectation Value": -5.0,
  "Optimizer durations [ms]": [42.76, 42.969, 42.476, 42.293, 43.126, 42.713, 42.738, 42.461, 42.24, 42.857, 43.078, 43.05, 42.184, 42.869, 42.291, 43.018, 42.163, 42.999, 42.423, 43.15, 42.986, 42.655, 43.13, 43.238, 43.552, 43.789, 42.725, 43.619, 43.032, 43.2, 42.831, 42.98, 42.062, 42.744, 43.006, 42.487, 43.313, 42.398, 42.506, 43.305, 42.15, 43.307, 42.835, 42.971, 38.743, 42.835, 42.698, 42.805, 42.98, 43.142, 43.204, 42.867, 42.879, 42.93, 43.366, 42.885, 38.801, 42.957, 42.775, 42.814, 42.872, 43.637, 43.424, 43.1, 42.809, 43.132, 43.429, 39.14, 42.632, 43.41, 42.953, 42.815, 42.178, 42.413, 42.378, 43.379, 43.163, 42.544, 43.026, 42.637, 42.427, 42.914, 43.125, 43.208],
  "Optimizer iterations": 84,
  "Optimizer params": [0.985248852328116, 0.32210387525351647, 0.012610428904722921, 0.9750484407892839, 0.47231706158132813, 0.12581194745623328],
  "P": 3,
  "Problem": "DSP",
  "QPU": "7000000",
  "Qubits": 12,
  "Shots": 4096,
  "Size": 7,
  "Total Algorithm duration [s]": 3.59,
  "Total Classic duration [s]": 3.3155194999999997,
  "Total Quantum duration [s]": 0.27448049999999996
}
