{
  "Depth": 532.0,
  "Expectation Value": -3.2002978324890137,
  "Job durations [ms]": [3.3348, 3.443, 3.4090000000000003, 3.2965, 3.3087, 3.2895, 3.2999, 3.3019, 3.3788, 3.3253, 3.3416, 3.2385, 3.5987, 3.3089, 3.2899000000000003, 3.7326, 3.3308999999999997, 3.4191, 3.4278, 3.291, 3.2951, 3.2883, 3.2821000000000002, 3.2815000000000003, 3.337, 3.2836, 3.3898, 3.4402999999999997, 3.3336, 3.3527, 3.3863, 3.2799, 3.2725, 3.286, 3.2927999999999997, 3.2893000000000003, 3.3848, 3.1991, 3.4033, 3.1689000000000003, 3.5631, 3.2605999999999997, 3.2875, 3.3204, 3.3061000000000003, 3.2838, 3.1421, 3.2271, 3.3949000000000003, 3.3136, 3.2769, 3.2527, 3.2716, 3.4996, 3.3416, 3.4955, 3.2915, 3.3177, 3.3727, 3.3089, 3.3215, 3.4914, 3.3032999999999997, 3.3800000000000003, 3.4302, 3.2913, 3.454, 3.3379999999999996, 3.3011999999999997, 3.3082, 3.4254, 3.3024999999999998, 3.2873, 3.3019, 3.3096, 3.4199, 3.355, 3.2912000000000003, 3.2590000000000003, 3.4708, 3.4455, 3.3076, 3.356, 3.279, 3.4080999999999997, 3.5755, 3.4226, 3.2996000000000003, 3.3030999999999997, 3.3963, 3.3137000000000003, 3.4233000000000002, 3.3318000000000003, 3.4052000000000002, 3.4114, 3.2702999999999998, 3.3922000000000003, 3.4144, 3.2788, 3.2866000000000004, 3.3992],
  "Optimal Expectation Value": -5.0,
  "Optimizer durations [ms]": [43.615, 39.926, 39.714, 43.232, 43.237, 43.188, 43.297, 43.323, 39.178, 43.294, 43.764, 42.755, 42.629, 43.454, 43.06, 42.978, 43.694, 39.616, 39.73, 43.031, 43.362, 43.311, 43.281, 43.05, 43.772, 43.128, 39.421, 40.001, 43.652, 43.583, 39.688, 43.229, 43.025, 42.825, 43.22, 43.426, 39.243, 37.41, 39.314, 42.166, 40.981, 42.962, 43.329, 43.568, 43.327, 43.026, 36.603, 37.801, 39.406, 43.119, 43.224, 42.537, 42.938, 40.161, 38.969, 40.202, 43.279, 43.65, 39.11, 43.573, 43.568, 40.165, 43.526, 39.235, 39.683, 43.218, 40.254, 43.75, 43.322, 43.4, 39.683, 43.171, 43.235, 43.392, 43.291, 39.806, 43.67, 43.155, 42.674, 40.205, 40.086, 43.493, 43.933, 43.078, 44.563, 42.419, 39.461, 43.251, 43.551, 39.232, 43.707, 39.782, 43.718, 34.694, 39.37, 43.222, 39.171, 39.714, 43.177, 43.111, 39.358],
  "Optimizer iterations": 101,
  "Optimizer params": [0.6130176162234549, 0.5766837110910886, 0.6233922939938941, 0.34238679884740514, 0.26359982066399673, 0.4448613708861429],
  "P": 3,
  "Problem": "DSP",
  "QPU": "7000000",
  "Qubits": 12,
  "Shots": 4096,
  "Size": 7,
  "Total Algorithm duration [s]": 4.233,
  "Total Classic duration [s]": 3.8950968999999995,
  "Total Quantum duration [s]": 0.33790309999999996
}
