{
  "Depth": 532.0,
  "Expectation Value": -3.3632543087005615,
  "Job durations [ms]": [3.2742, 3.3566999999999996, 3.4145, 3.2127000000000003, 3.2744, 3.4478, 3.2977000000000003, 3.4243, 3.4481, 3.3092, 3.3813, 3.2441, 3.4290000000000003, 3.2559, 3.3146999999999998, 3.3221000000000003, 3.3203, 3.2472, 3.3416, 3.4215999999999998, 3.2551, 3.3859, 3.2467, 3.4053999999999998, 3.4237, 3.4346, 3.2372, 3.3338, 3.3059000000000003, 3.3263, 3.2796000000000003, 3.232, 3.2803, 3.3354, 3.451, 3.2804, 3.2842000000000002, 3.2607, 3.3024, 3.4812, 3.3349, 3.4209, 3.2455000000000003, 3.3993, 3.3936, 3.4142, 3.2192000000000003, 3.3492, 3.2815000000000003, 3.4449, 3.2504, 3.3716000000000004, 3.4108, 3.2948999999999997, 3.3552999999999997, 3.4259999999999997, 3.3086, 3.2944, 3.4156999999999997, 3.3059000000000003, 3.298, 3.2734, 3.3858, 3.2639, 3.3132, 3.3952, 3.4648, 3.4036, 3.4545, 3.2765, 3.2943, 3.2603, 3.3977999999999997, 3.3264, 3.4065, 3.2986, 3.2905, 3.2903, 3.4383, 3.2828000000000004, 3.2793, 3.2823, 3.2908, 3.4567, 3.3852, 3.2875, 3.2916, 3.2509, 3.2647, 3.2848, 3.3911000000000002],
  "Optimal Expectation Value": -5.0,
  "Optimizer durations [ms]": [42.802, 44.091, 39.587, 37.542, 43.112, 39.782, 43.471, 39.713, 39.94, 43.281, 44.174, 42.597, 40.015, 42.68, 43.834, 38.43, 43.47, 42.801, 38.64, 39.712, 42.841, 39.387, 42.653, 39.549, 39.753, 39.905, 42.51, 43.707, 43.175, 43.809, 42.88, 42.926, 43.238, 43.742, 39.914, 43.171, 43.148, 42.926, 43.411, 40.558, 43.764, 39.442, 37.718, 39.456, 39.257, 39.602, 42.581, 38.956, 43.126, 39.818, 42.737, 39.182, 39.683, 43.38, 42.747, 39.476, 43.325, 43.286, 39.782, 43.449, 43.185, 43.3, 39.635, 42.966, 43.46, 39.367, 40.084, 39.502, 40.901, 43.054, 43.233, 42.79, 39.298, 43.579, 39.528, 43.081, 43.449, 43.109, 39.927, 43.159, 43.177, 42.954, 43.417, 40.611, 39.34, 43.014, 43.325, 42.775, 43.091, 43.207, 40.672],
  "Optimizer iterations": 91,
  "Optimizer params": [0.5903041606351268, 0.9999957193710014, 0.7210218475142052, 0.29145503970976816, 0.22274385112896036, 0.020390723372813693],
  "P": 3,
  "Problem": "DSP",
  "QPU": "7000000",
  "Qubits": 12,
  "Shots": 4096,
  "Size": 7,
  "Total Algorithm duration [s]": 3.795,
  "Total Classic duration [s]": 3.4915043999999997,
  "Total Quantum duration [s]": 0.30349560000000003
}
