{
  "Depth": 2.0,
  "Expectation Value": -5.571199893951416,
  "Job durations [ms]": [0.14165000175125897, 0.3466500056674704, 0.12599999899975955, 0.12365000293357298, 0.12395000157994218, 0.2948000037577003, 0.14570000348612666, 0.12104999768780544, 0.13904999650549144, 0.3106500007561408, 0.127350002003368, 0.1295000001846347, 0.12395000157994218, 0.22370000078808516, 0.13095000031171367, 0.22499999613501132, 0.14054999701329507, 0.12459999925340526, 0.12885000251117162, 0.1260999997612089, 0.1230000052601099, 0.12879999485448934, 0.1238999975612387, 0.19240000256104395, 0.12224999591126107, 0.12129999595344998, 0.1234500014106743, 0.11654999980237335, 0.1384999995934777, 0.12314999912632629, 0.2974499948322773, 0.12230000356794335, 0.12089999654563144, 0.13980000221636146, 0.13480000052368268, 0.13475000014295802, 0.2719999974942766, 0.12380000407574698, 0.12319999950705096, 0.12534999768831767, 0.27075000252807513, 0.12564999997266568, 0.13065000166534446, 0.13099999705445953, 0.3133999925921671, 0.12070000229869038, 0.11730000187526457, 0.12789999527740292, 0.14295000073616393, 0.11764999726437964, 0.11820000145235099, 0.12449999849195592, 0.11905000428669155, 0.24530000519007444, 0.13235000369604677, 0.13025000225752592, 0.12635000166483223, 0.11575000098673627, 0.13535000107367523, 0.2777999980025925, 0.17890000162879005, 0.26709999656304717, 0.11730000187526457, 0.1338499969278928, 0.13184999988880008, 0.13084999591228552, 0.1259500022570137, 0.12664999667322263, 0.11760000052163377, 0.14650000230176374, 0.13854999997420236, 0.1414500002283603, 0.1223499966727104, 0.12379999679978937, 0.14264999845181592, 0.14124999870546162, 0.21364999702200294, 0.1245500025106594, 0.12110000170650892, 0.12369999967631884, 0.2073499927064404, 0.19470000552246347, 0.12094999692635611, 0.17190000653499737, 0.13034999938099645, 0.14630000077886507, 0.14179999925545417, 0.13044999650446698, 0.12269999933778308, 0.1314999972237274, 0.12929999866173603, 0.12415000310284086, 0.12494999828049913, 0.12210000204504468, 0.1629999969736673, 0.14114999794401228, 0.1447000031475909, 0.1946499978657812, 0.12229999629198574, 0.20375000167405233, 0.3268000000389293, 0.12324999988777563, 0.3188499977113679, 0.12769999739248306, 0.2571500081103295, 0.13490000128513202, 0.15344999701483175, 0.18305000412510708, 0.12675000107265078, 0.15464999887626618, 0.12959999730810523, 0.13184999625082128, 0.1173999989987351, 0.13014999785809778, 0.12545000208774582, 0.1497999983257614, 0.1531000016257167, 0.1655000014579855, 0.1260999997612089, 0.13145000048098154, 0.1332500032731332, 0.125149996165419, 0.11715000073309056, 0.12185000014142133, 0.12760000026901253, 0.11974999870290048, 0.12589999823831022, 0.12070000229869038, 0.1274999995075632, 0.1200500009872485, 0.13354999828152359, 0.28804999601561576, 0.27045000751968473, 0.17210000078193843, 0.12720000086119398, 0.12564999997266568, 0.12319999950705096, 0.2625999986776151, 0.15154999709920958, 0.181950003025122, 0.1950999940163456, 0.1250000022992026, 0.12459999925340526, 0.13464999574352987, 0.11665000056382269, 0.11954999718000181, 0.14375000318977982, 0.12294999760342762, 0.1253000009455718, 0.14099999680183828, 0.11579999772948213, 0.12290000086068176, 0.13065000166534446, 0.18560000171419233, 0.14574999659089372, 0.11834999531856738, 0.24964999465737492],
  "Optimal Expectation Value": -5.571199893951416,
  "Optimizer durations [ms]": [23.048, 20.288, 18.111, 19.957, 22.929, 20.334, 22.423, 15.647, 22.921, 18.865, 18.397, 22.186, 15.35, 19.87, 19.713, 18.858, 14.405, 20.891, 22.853, 16.105, 20.185, 21.19, 22.471, 21.475, 19.019, 15.68, 17.859, 20.176, 18.815, 22.373, 20.457, 17.241, 15.146, 21.117, 18.487, 22.887, 19.211, 17.824, 21.549, 16.117, 22.263, 22.814, 19.383, 17.31, 18.779, 18.49, 22.54, 19.502, 11.07, 18.866, 18.693, 18.909, 18.306, 22.512, 17.745, 22.761, 16.984, 22.458, 20.277, 20.057, 18.595, 22.218, 22.733, 19.263, 19.448, 20.955, 22.15, 21.924, 17.336, 16.701, 13.789, 14.799, 15.929, 22.791, 15.137, 21.164, 18.175, 18.618, 17.902, 22.535, 22.164, 16.463, 18.691, 20.342, 19.106, 14.749, 13.943, 17.453, 22.386, 19.379, 22.336, 22.299, 18.414, 16.864, 20.659, 22.199, 17.121, 22.133, 15.022, 15.942, 18.541, 18.735, 18.785, 16.477, 17.942, 20.351, 16.854, 12.555, 22.545, 14.919, 20.468, 21.885, 16.779, 17.794, 19.223, 13.255, 8.967, 17.99, 22.895, 17.335, 21.924, 22.25, 16.182, 22.574, 19.488, 17.984, 15.516, 20.448, 22.413, 22.609, 18.919, 22.288, 18.909, 19.288, 18.686, 18.245, 19.543, 22.499, 18.805, 19.133, 22.335, 22.713, 19.777, 20.59, 16.556, 22.047, 12.267, 13.98, 21.439, 22.822, 22.394, 20.079, 17.914, 16.008, 19.144, 20.691, 19.344],
  "Optimizer iterations": 157,
  "Optimizer params": [0.9999999999999999, 0.5010232176618756, 0.9980999328587732, 0.497202370734671, 0.4993685234040475, 1.0, 0.499192002222628, 0.5047407328296405, 0.9965029800547647],
  "P": 0,
  "Problem": "RH",
  "QPU": "7000000",
  "Qubits": 9,
  "Shots": 4096,
  "Size": 9,
  "Total Algorithm duration [s]": 3.014,
  "Total Classic duration [s]": 2.9900187500360187,
  "Total Quantum duration [s]": 0.0239812499639811
}
