{
  "Depth": 2.0,
  "Expectation Value": -5.571199893951416,
  "Job durations [ms]": [0.12975000208825804, 0.12789999527740292, 0.13830000170855783, 0.25289999757660553, 0.12700000297627412, 0.17505000141682103, 0.1344500014965888, 0.25129999994533136, 0.12369999603834003, 0.12360000255284831, 0.1217500030179508, 0.13780000153928995, 0.12379999679978937, 0.14555000234395266, 0.148899998748675, 0.13645000217366032, 0.14475000352831557, 0.1464000015403144, 0.1442499997210689, 0.1393999955325853, 0.12074999904143624, 0.12014999811071903, 0.11145000098622404, 0.12879999849246815, 0.152900000102818, 0.15100000018719584, 0.121749999379972, 0.24355000641662627, 0.1446999958716333, 0.12925000191899016, 0.13514999955077656, 0.11744999574148096, 0.15654999879188836, 0.13339999713934958, 0.13550000221584924, 0.2173000029870309, 0.13025000225752592, 0.12820000119972974, 0.12889999561593868, 0.11470000026747584, 0.14229999578674324, 0.11914999777218327, 0.14965000445954502, 0.13145000411896035, 0.1420499975210987, 0.1368000012007542, 0.12940000306116417, 0.12754999988828786, 0.1299499999731779, 0.12325000352575444, 0.14024999836692587, 0.13100000069243833, 0.1233000002685003, 0.1880999989225529, 0.1399000029778108, 0.19954999879701063, 0.118350002594525, 0.11945000369451009, 0.23185000463854522, 0.1331999992544297, 0.12199999764561653, 0.12614999650395475, 0.12474999675760046, 0.22560000070370734, 0.12249999781488441, 0.11504999929456972, 0.15334999989136122, 0.12970000170753337, 0.14429999646381475, 0.20935000793542713, 0.13594999836641364, 0.14525000005960464, 0.1296499976888299, 0.1220499980263412, 0.13615000352729112, 0.12970000170753337, 0.14785000166739337, 0.17419999858248048, 0.12955000420333818, 0.125149996165419, 0.32640000426908955, 0.31910000689094886, 0.12220000280649401, 0.1276500006497372, 0.12360000255284831, 0.12634999802685343, 0.1143000008596573, 0.16399999731220305, 0.14620000001741573, 0.13765000039711595, 0.12800000331480987, 0.12835000234190375, 0.13070000204606913, 0.20724999922094867, 0.1256500036106445, 0.12974999845027924, 0.13405000208877027, 0.11600000289035961, 0.1341500028502196, 0.13655000293510966, 0.28419999580364674, 0.12034999599563889, 0.3182500076945871, 0.3292500114184804, 0.121749999379972, 0.13314999887370504, 0.30980000883573666, 0.3404500021133572, 0.13734999811276793, 0.11884999912581407, 0.13670000043930486, 0.125149996165419, 0.12119999882997945, 0.12029999925289303, 0.11779999840655364, 0.13870000111637637, 0.12229999629198574, 0.34559999767225236, 0.1353999978164211, 0.14214999828254804, 0.14289999671746045, 0.14989999908721074, 0.1548000000184402, 0.1405000002705492, 0.14955000369809568, 0.13854999997420236, 0.1955499974428676, 0.3551500049070455, 0.22924999939277768, 0.12635000166483223, 0.1277999981539324, 0.1428499999747146, 0.3431000004638918, 0.13365000268095173, 0.2600499938125722, 0.13580000086221844, 0.21565000497503206, 0.12505000267992727, 0.13985000259708613, 0.13284999658935703, 0.14899999951012433, 0.13330000365385786, 0.27204999059904367, 0.13744999887421727, 0.1353999978164211, 0.134299996716436, 0.1141499997174833, 0.1333499967586249, 0.12789999891538173, 0.1322999960393645, 0.12674999743467197, 0.23960000544320792, 0.32574999931966886, 0.12910000077681616, 0.13580000086221844, 0.13454999862005934, 0.11664999692584388],
  "Optimal Expectation Value": -5.571199893951416,
  "Optimizer durations [ms]": [23.001, 20.375, 23.032, 15.016, 21.665, 21.117, 18.405, 16.94, 15.894, 18.837, 19.443, 17.66, 16.527, 23.104, 13.171, 20.745, 18.09, 9.964, 16.506, 22.834, 19.671, 17.972, 19.091, 20.143, 18.844, 15.188, 18.486, 18.775, 22.114, 20.535, 21.343, 21.25, 14.626, 19.329, 15.035, 19.905, 17.215, 18.842, 22.695, 17.609, 15.08, 18.877, 14.446, 22.577, 16.471, 21.411, 11.438, 16.513, 21.294, 14.645, 15.181, 21.356, 17.723, 17.923, 18.898, 22.251, 17.754, 19.128, 19.305, 18.95, 18.764, 14.105, 14.672, 21.703, 18.96, 19.246, 14.103, 18.017, 15.149, 18.416, 21.791, 17.211, 22.436, 20.01, 21.973, 23.012, 13.874, 17.71, 16.255, 11.874, 22.282, 14.245, 23.127, 18.093, 20.368, 19.856, 22.679, 18.749, 20.335, 19.614, 22.783, 22.0, 20.997, 19.175, 18.658, 19.949, 20.629, 17.886, 20.396, 21.171, 17.714, 20.964, 22.531, 20.415, 22.524, 21.777, 18.127, 19.037, 20.64, 14.981, 22.995, 16.189, 18.818, 21.152, 22.719, 22.986, 21.641, 18.006, 23.336, 23.84, 23.388, 19.623, 21.011, 23.259, 23.378, 20.474, 17.368, 19.357, 19.891, 21.216, 17.979, 21.024, 18.382, 18.975, 18.053, 20.406, 19.768, 23.154, 20.236, 16.318, 19.704, 22.892, 19.865, 23.228, 21.454, 22.737, 22.356, 22.723, 20.179, 20.168, 22.798, 22.407, 22.347, 19.966, 18.995, 21.168, 22.548],
  "Optimizer iterations": 157,
  "Optimizer params": [0.9999999999999999, 0.5010232176618756, 0.9980999328587732, 0.497202370734671, 0.4993685234040475, 1.0, 0.499192002222628, 0.5047407328296405, 0.9965029800547647],
  "P": 0,
  "Problem": "RH",
  "QPU": "7000000",
  "Qubits": 9,
  "Shots": 4096,
  "Size": 9,
  "Total Algorithm duration [s]": 3.053,
  "Total Classic duration [s]": 3.0284873999663686,
  "Total Quantum duration [s]": 0.024512600033631315
}
