{
  "Depth": 2.0,
  "Expectation Value": -5.571199893951416,
  "Job durations [ms]": [0.1324500008195173, 0.12430000060703605, 0.12704999971901998, 0.12719999722321518, 0.15685000107623637, 0.272850003966596, 0.13394999768934213, 0.13069999840809032, 0.1433000034012366, 0.12974999845027924, 0.1296499976888299, 0.12899999637738802, 0.19895000150427222, 0.1251500034413766, 0.2565000031609088, 0.12170000263722613, 0.13780000153928995, 0.12414999946486205, 0.13169999510864727, 0.15605000226059929, 0.13550000221584924, 0.1287500017497223, 0.127350002003368, 0.13375000344240107, 0.11744999937945977, 0.16229999891947955, 0.12119999882997945, 0.13454999862005934, 0.12464999599615112, 0.12324999988777563, 0.13005000073462725, 0.1431499986210838, 0.3301000106148422, 0.1352500039502047, 0.2824000039254315, 0.12630000492208637, 0.11884999912581407, 0.290149990178179, 0.1262500009033829, 0.152900000102818, 0.1327499994658865, 0.139899999339832, 0.12760000026901253, 0.13560000297729857, 0.12139999671489932, 0.13330000001587905, 0.12029999925289303, 0.12274999608052894, 0.12109999806853011, 0.222100003156811, 0.15290000374079682, 0.12079999942216091, 0.11859999722219072, 0.11680000170599669, 0.12134999997215346, 0.12449999849195592, 0.14335000378196128, 0.14680000458611175, 0.14235000344342552, 0.12170000263722613, 0.27370000316295773, 0.1463999979023356, 0.2516000022296794, 0.14770000416319817, 0.1625500008231029, 0.21750000450992957, 0.3132999991066754, 0.12849999984609894, 0.15020000137155876, 0.13160000162315555, 0.31024999771034345, 0.25599999935366213, 0.1581999968038872, 0.12180000339867547, 0.29134999931557104, 0.13440000475384295, 0.2632000032463111, 0.13465000301948749, 0.1386500007356517, 0.1592499975231476, 0.14199999714037403, 0.1176999976451043, 0.15020000137155876, 0.145800004247576, 0.12115000208723359, 0.29299999732756987, 0.1367999975627754, 0.11525000081746839, 0.11889999950653873, 0.30220000189729035, 0.11995000022579916, 0.2194500048062764, 0.1425500013283454, 0.12149999747634865, 0.12775000504916534, 0.12179999976069666, 0.2115499955834821, 0.12630000128410757, 0.12124999921070412, 0.13884999862057157, 0.24639999901410192, 0.12534999768831767, 0.11969999832217582, 0.1343000003544148, 0.25975000608013943, 0.12100000094505958, 0.264749993220903, 0.13250000120024197, 0.1276500006497372, 0.13900000340072438, 0.14259999807109125, 0.25815000117290765, 0.2411499954177998, 0.2023999986704439, 0.11694999921019189, 0.1616000008652918, 0.2524500014260411, 0.13019999823882245, 0.12319999950705096, 0.136650003696559, 0.12459999561542645, 0.11989999620709568, 0.11485000504762866, 0.12355000217212364, 0.16055000014603138, 0.12030000289087184, 0.1155499994638376, 0.14124999870546162, 0.13295000098878518, 0.13069999840809032, 0.12065000191796571, 0.14415000259759836, 0.13095000031171367, 0.13559999933931977, 0.26154999795835465, 0.13410000246949494, 0.2395999981672503, 0.13129999933880754, 0.2677000084077008, 0.2227000004495494, 0.13519999629352242, 0.11505000293254852, 0.298850005492568, 0.12350000179139897, 0.14224999904399738, 0.1545999984955415, 0.12889999925391749, 0.11854999684146605, 0.127350002003368, 0.1248500011570286, 0.2854499907698482, 0.12375000005704351, 0.3168499970342964, 0.25520000053802505, 0.25785000616451725, 0.12944999980391003, 0.1247000000148546],
  "Optimal Expectation Value": -5.571199893951416,
  "Optimizer durations [ms]": [22.932, 20.223, 15.205, 22.921, 11.861, 22.225, 18.609, 18.131, 10.342, 19.054, 19.955, 17.355, 17.313, 15.938, 19.409, 16.749, 21.425, 17.626, 22.335, 13.827, 21.253, 22.344, 22.677, 16.14, 23.005, 19.457, 17.796, 19.382, 19.339, 13.613, 18.763, 15.277, 19.183, 22.858, 18.867, 18.177, 15.543, 16.024, 20.425, 11.613, 19.299, 21.452, 21.555, 19.456, 18.695, 18.476, 18.158, 20.041, 19.161, 16.697, 15.908, 18.898, 22.33, 15.239, 18.158, 19.955, 10.709, 15.111, 9.902, 19.509, 20.263, 14.712, 19.508, 12.216, 18.399, 18.398, 18.782, 17.027, 14.28, 20.553, 17.62, 17.815, 14.995, 15.096, 20.006, 23.445, 19.61, 21.531, 23.107, 19.911, 16.575, 22.263, 15.545, 18.074, 19.2, 12.252, 18.889, 21.881, 18.327, 18.232, 19.503, 20.418, 22.49, 14.558, 16.033, 22.898, 17.496, 20.697, 18.166, 22.854, 17.789, 18.327, 20.106, 19.772, 17.451, 18.174, 17.107, 20.302, 19.284, 15.577, 22.228, 22.185, 22.325, 21.415, 13.85, 19.14, 22.076, 17.124, 22.681, 19.994, 20.308, 17.904, 18.276, 14.456, 14.848, 18.054, 16.876, 16.638, 19.043, 22.878, 20.262, 13.855, 12.416, 22.969, 19.937, 21.816, 18.862, 22.769, 18.25, 22.192, 22.021, 19.822, 16.87, 19.13, 15.31, 20.454, 22.02, 22.262, 11.419, 20.168, 17.464, 19.907, 17.471, 13.413, 15.917, 15.205, 16.977],
  "Optimizer iterations": 157,
  "Optimizer params": [0.9999999999999999, 0.5010232176618756, 0.9980999328587732, 0.497202370734671, 0.4993685234040475, 1.0, 0.499192002222628, 0.5047407328296405, 0.9965029800547647],
  "P": 0,
  "Problem": "RH",
  "QPU": "7000000",
  "Qubits": 9,
  "Shots": 4096,
  "Size": 9,
  "Total Algorithm duration [s]": 2.903,
  "Total Classic duration [s]": 2.8777254999419966,
  "Total Quantum duration [s]": 0.02527450005800347
}
