{
  "Depth": 62.0,
  "Expectation Value": -0.22705078125,
  "Job durations [ms]": [37.08, 35.824000000000005, 35.246, 36.265, 35.227000000000004, 35.772, 35.913000000000004, 35.645, 35.509, 36.086, 35.704, 35.359, 35.501999999999995, 35.537, 35.359, 35.21, 110.872, 35.995, 35.37, 35.58, 35.434, 35.21, 35.354, 35.645, 35.473, 35.927, 35.321, 35.653999999999996, 35.556, 35.305, 35.338, 36.847, 35.424, 35.638000000000005, 35.772, 35.163, 35.412, 35.278999999999996, 35.333000000000006, 35.825, 35.315, 35.748000000000005, 35.254, 35.822, 35.765, 35.465, 35.687000000000005, 35.964000000000006, 35.534000000000006, 35.873000000000005, 35.387, 35.233, 35.447, 108.817, 35.507999999999996, 35.415, 35.721999999999994, 35.412, 35.11, 35.079, 35.365, 35.238, 35.486999999999995, 35.507, 35.751, 35.635, 35.393, 36.386, 35.56, 35.605, 35.304, 35.675, 35.356, 35.365, 35.721999999999994, 35.724, 35.729, 35.747, 36.111999999999995, 35.315, 35.395, 35.964000000000006, 35.762, 35.187000000000005, 36.23, 35.519000000000005, 36.003, 35.775, 35.835, 35.569],
  "Optimal Expectation Value": -3.0,
  "Optimizer durations [ms]": [46.376, 45.127, 44.322, 45.236, 44.281, 44.897, 45.065, 44.774, 44.476, 45.186, 44.686, 44.48, 44.498, 44.659, 44.473, 44.317, 119.926, 45.15, 44.43, 44.794, 44.652, 44.34, 44.482, 44.846, 44.686, 45.16, 44.597, 44.888, 44.683, 44.493, 44.502, 46.112, 44.645, 44.888, 44.869, 44.313, 44.685, 44.505, 44.541, 45.003, 44.499, 44.994, 44.448, 45.025, 44.985, 44.74, 44.818, 45.217, 44.726, 45.138, 44.648, 44.413, 44.56, 118.245, 44.846, 44.601, 44.698, 44.572, 44.343, 44.216, 44.453, 44.455, 44.654, 44.832, 44.982, 44.748, 44.505, 45.61, 44.909, 44.782, 44.564, 44.993, 44.692, 44.619, 44.863, 44.821, 44.967, 44.965, 45.396, 44.429, 44.633, 45.101, 44.881, 44.282, 45.312, 44.636, 45.165, 44.976, 45.0, 45.006],
  "Optimizer iterations": 90,
  "Optimizer params": [0.9999683346813772, 0.17050716907876243, 0.2559155642999803, 0.8686290246855609, 0.6136457685271315, 0.06377713919435363],
  "P": 3,
  "Problem": "TSP",
  "QPU": "9000001",
  "Qubits": 9,
  "Shots": 4096,
  "Size": 3,
  "Total Algorithm duration [s]": 4.179,
  "Total Classic duration [s]": 0.8262629999999986,
  "Total Quantum duration [s]": 3.3527370000000016
}
