{
  "Depth": 62.0,
  "Expectation Value": -0.324462890625,
  "Job durations [ms]": [36.855, 36.716, 36.388, 35.512, 36.178000000000004, 35.856, 35.366, 35.661, 35.885, 35.483000000000004, 35.354, 35.495, 35.766, 35.181, 35.462, 36.195, 35.619, 35.849, 35.598, 35.721000000000004, 35.228, 35.763999999999996, 36.017, 35.464000000000006, 35.518, 35.638000000000005, 111.71499999999999, 35.833, 35.467, 35.395, 35.569, 35.416000000000004, 35.031, 35.803000000000004, 35.631, 35.455, 35.756, 35.138999999999996, 35.517, 35.108, 35.556999999999995, 35.406, 35.686, 35.324, 36.017, 35.748000000000005, 36.032000000000004, 35.157000000000004, 35.41, 34.957, 35.687999999999995, 35.55, 35.213, 35.481, 35.481, 35.335, 35.575, 35.61, 35.886, 35.647999999999996, 35.984, 35.634, 35.721000000000004, 35.387, 35.495, 108.637, 36.05, 35.727000000000004, 35.079, 35.963, 37.135, 35.587, 35.841, 35.838, 35.926, 34.823, 35.964999999999996, 35.231, 35.419, 36.18],
  "Optimal Expectation Value": -3.0,
  "Optimizer durations [ms]": [46.256, 46.497, 45.55, 44.575, 45.253, 44.932, 44.432, 44.889, 45.021, 44.53, 44.396, 44.591, 44.853, 44.175, 44.514, 45.385, 44.743, 44.851, 44.806, 44.884, 44.241, 44.915, 45.174, 44.671, 44.52, 44.828, 121.003, 45.22, 44.557, 44.493, 44.572, 44.493, 44.15, 44.881, 44.754, 44.638, 44.906, 44.156, 44.67, 44.247, 44.708, 44.519, 44.972, 44.594, 45.166, 44.85, 45.044, 44.229, 44.458, 44.09, 44.854, 44.752, 44.4, 44.652, 44.651, 44.509, 44.857, 44.874, 45.094, 44.881, 45.039, 44.901, 44.909, 44.625, 44.676, 117.972, 45.556, 44.83, 44.174, 45.039, 46.406, 44.702, 44.994, 45.008, 45.128, 43.976, 45.147, 44.444, 44.469, 45.39],
  "Optimizer iterations": 80,
  "Optimizer params": [0.7666783377046007, 0.18723384278650998, 0.980037210040679, 0.9381098335040291, 0.9034072574910245, 0.2501502927727211],
  "P": 3,
  "Problem": "TSP",
  "QPU": "9000001",
  "Qubits": 9,
  "Shots": 4096,
  "Size": 3,
  "Total Algorithm duration [s]": 3.733,
  "Total Classic duration [s]": 0.7320129999999989,
  "Total Quantum duration [s]": 3.000987000000001
}
