{
  "Depth": 344.0,
  "Expectation Value": -1.768459677696228,
  "Job durations [ms]": [2.1242, 2.1787, 2.0969, 2.0583, 2.0861, 2.0336999999999996, 2.0335, 2.059, 2.0722, 2.0566999999999998, 2.0778, 2.1441, 2.0766999999999998, 2.0439, 2.0621, 2.1275, 2.0741, 2.1595, 2.0791999999999997, 2.07, 2.1454999999999997, 2.0823, 2.0726, 2.0858, 2.0892, 1.9139000000000002, 2.1797, 2.0597, 2.0658, 2.0416000000000003, 2.0747, 2.061, 2.0972, 2.0749, 2.0747, 2.0850999999999997, 2.0862, 2.0815, 2.0844, 2.045, 2.077, 2.0694, 2.0868, 2.0709, 2.4737999999999998, 2.0809, 2.1028000000000002, 2.0917000000000003, 2.1925999999999997, 2.0647, 2.0466, 2.0505, 2.0532, 2.3096, 2.0674, 2.0547, 2.3028, 2.2601, 2.061, 2.0728, 2.0317, 2.0849, 2.0702, 2.0537, 2.1006, 2.1341, 2.0741, 2.0734, 2.0911, 2.0873, 2.0755, 2.0783, 2.0656, 2.0484, 2.085, 2.0671, 2.0738000000000003, 2.0641000000000003, 2.4467999999999996, 2.0724, 2.0783, 2.3148, 2.3785999999999996, 2.0455, 2.0721, 2.0707, 2.0608, 2.0598, 2.115, 2.1075, 2.0743, 2.1499, 2.2704999999999997, 2.1649, 2.0765, 2.0809, 2.0883, 2.0453, 2.0617, 2.0759, 1.9019, 2.0788, 2.0818999999999996, 2.3351, 2.1142000000000003, 2.093, 2.078, 2.2504, 2.1037, 2.074, 2.111],
  "Optimal Expectation Value": -2.0,
  "Optimizer durations [ms]": [31.269, 31.889, 31.055, 30.77, 31.256, 27.637, 30.534, 30.668, 30.88, 30.764, 30.973, 26.759, 28.087, 30.578, 30.743, 26.778, 28.295, 26.993, 31.071, 30.929, 23.758, 31.05, 30.811, 31.191, 31.238, 24.526, 27.271, 30.553, 28.024, 30.419, 30.864, 30.973, 31.194, 31.092, 30.905, 30.822, 31.331, 30.805, 30.96, 30.664, 27.851, 30.944, 31.043, 31.015, 27.618, 31.037, 31.054, 29.272, 27.304, 30.927, 30.619, 30.805, 30.693, 27.654, 30.729, 30.713, 30.305, 27.488, 30.876, 30.895, 30.735, 31.238, 30.869, 30.909, 31.218, 31.457, 30.922, 30.898, 31.206, 30.908, 31.106, 31.283, 30.648, 30.686, 30.971, 30.711, 30.802, 30.906, 27.446, 30.99, 30.902, 30.621, 27.235, 30.741, 30.711, 30.834, 31.042, 30.828, 31.351, 31.347, 30.951, 26.576, 28.263, 26.931, 28.377, 31.005, 31.193, 30.85, 30.548, 31.023, 24.458, 31.099, 30.937, 27.458, 31.342, 31.168, 30.811, 27.483, 31.21, 31.066, 31.325],
  "Optimizer iterations": 111,
  "Optimizer params": [1.0, 0.6728394853377709, 0.30737887269067043, 0.9416805410866728, 0.32669589936119525, 0.1137950111226185],
  "P": 3,
  "Problem": "MIS",
  "QPU": "7000000",
  "Qubits": 9,
  "Shots": 4096,
  "Size": 6,
  "Total Algorithm duration [s]": 3.34,
  "Total Classic duration [s]": 3.1067042999999996,
  "Total Quantum duration [s]": 0.23329570000000008
}
