{
  "Depth": 344.0,
  "Expectation Value": -1.759598970413208,
  "Job durations [ms]": [2.2596000000000003, 2.0872, 2.0869, 2.3165999999999998, 2.0615, 2.0623, 2.07, 2.0738000000000003, 2.1378, 2.1062, 2.0223, 2.1006, 2.0474, 2.0828, 2.1034, 2.0628, 2.1045, 2.092, 2.0775, 2.1329000000000002, 2.0809, 2.0690999999999997, 2.0702, 2.1383, 2.1228000000000002, 2.1814999999999998, 2.0435000000000003, 2.0776000000000003, 2.1994, 2.0816, 2.0549, 2.084, 2.0688, 2.0539, 2.1087, 2.0877, 2.0500000000000003, 2.0780999999999996, 2.0874, 2.1104000000000003, 2.0761, 2.0780999999999996, 2.099, 2.0789, 2.058, 2.0836, 2.0677, 2.0812999999999997, 2.091, 2.0714, 2.0412999999999997, 2.0249, 2.083, 2.0753, 2.0595000000000003, 2.0699, 2.0902999999999996, 2.2851999999999997, 2.0762, 2.0802, 2.0812, 2.0509, 2.1456, 1.9589999999999999, 2.0856999999999997, 2.301, 2.0853, 2.0602, 2.4708, 2.0395, 2.053, 2.0579, 2.1500999999999997, 2.1700999999999997, 2.1119, 2.0983, 2.0896999999999997, 2.0751, 2.0653, 2.1121999999999996, 2.0997, 2.0789, 2.0796, 2.0833000000000004, 2.0861, 2.0617, 2.2276000000000002, 2.0761, 2.0401, 2.0679000000000003, 2.0815, 2.2565, 2.0601, 2.0608, 2.0167, 2.231, 2.0864, 2.1050999999999997, 2.0617, 2.2125],
  "Optimal Expectation Value": -2.0,
  "Optimizer durations [ms]": [27.931, 31.095, 30.988, 28.859, 30.714, 30.809, 30.688, 30.988, 31.258, 31.179, 30.295, 31.233, 30.656, 30.779, 31.248, 30.885, 31.014, 31.25, 30.849, 31.563, 31.015, 30.873, 30.721, 31.66, 31.235, 27.13, 30.709, 30.835, 24.81, 31.26, 30.691, 30.828, 30.899, 30.561, 31.267, 31.096, 30.77, 31.082, 30.92, 31.538, 30.743, 31.118, 31.271, 31.028, 31.042, 31.058, 30.977, 30.775, 31.196, 30.904, 30.442, 30.683, 31.018, 28.439, 30.844, 30.843, 30.446, 30.707, 31.112, 30.943, 26.594, 30.601, 26.753, 24.659, 31.018, 29.969, 30.982, 30.783, 30.208, 30.559, 30.531, 30.881, 26.783, 26.892, 31.165, 28.445, 31.187, 30.869, 29.885, 31.569, 31.164, 31.033, 30.885, 30.867, 30.999, 30.82, 27.548, 30.84, 30.832, 30.759, 31.091, 27.446, 31.09, 30.571, 30.377, 26.828, 30.837, 31.372, 30.632, 32.382],
  "Optimizer iterations": 100,
  "Optimizer params": [1.0, 0.686968204871783, 0.50155940096024, 0.9973912428129257, 0.0688374984120019, 0.00015931244223139635],
  "P": 3,
  "Problem": "MIS",
  "QPU": "7000000",
  "Qubits": 9,
  "Shots": 4096,
  "Size": 6,
  "Total Algorithm duration [s]": 3.038,
  "Total Classic duration [s]": 2.8280561,
  "Total Quantum duration [s]": 0.20994389999999996
}
