{
  "Depth": 344.0,
  "Expectation Value": -1.8498777151107788,
  "Job durations [ms]": [2.0812, 2.1101, 2.092, 2.0555, 2.1069, 2.0197000000000003, 2.384, 2.0717000000000003, 2.1403, 2.2774, 2.0622000000000003, 2.0536, 2.1042, 2.1155000000000004, 2.1716, 2.1062, 2.1207000000000003, 2.19, 2.1614, 2.1088, 2.0845, 2.3227, 2.2390000000000003, 2.0787, 2.0674, 2.312, 2.0694, 2.0576000000000003, 2.0473000000000003, 2.3032, 2.1028000000000002, 2.0726, 2.0585999999999998, 2.1704, 2.1029, 2.085, 2.0833000000000004, 2.1027, 2.1006, 2.0718, 2.0997, 2.0331, 2.1053, 2.0604999999999998, 2.141, 2.062, 2.0833000000000004, 2.0806, 2.1503, 2.0674, 2.1374, 2.1633999999999998, 2.0625, 2.0846, 2.0606, 2.083, 2.1178999999999997, 2.0827, 2.0719, 2.1069999999999998, 2.0408, 2.0496, 2.0837, 2.1372, 2.0843, 2.0875, 2.0698000000000003, 2.0783, 2.1266000000000003, 2.1675, 2.1628, 2.0541, 2.0683, 2.0864, 2.1001000000000003, 2.0982000000000003, 2.0831, 2.0865, 2.0788, 2.0524, 2.1003, 2.1115, 2.1676, 2.0431999999999997, 2.099, 2.2794, 2.0460000000000003, 2.075, 2.1014, 2.072, 2.0589, 2.0494, 2.1006, 2.1162, 2.0818999999999996, 2.0829, 2.0786, 2.1471, 2.1374, 2.0631999999999997, 2.0666, 2.0758, 2.0957, 2.0682, 2.1651000000000002, 2.0534, 2.1093, 2.0796, 2.0546, 2.1416, 2.0461, 2.0978, 2.0715, 2.3463999999999996, 2.0514, 2.0827, 2.1145, 2.1091, 2.1287, 2.0892, 2.5523, 2.1183, 2.0827, 2.0481000000000003, 2.0698000000000003, 2.0489, 2.0397000000000003, 2.1092, 2.1202, 2.1603, 2.0672, 2.0902, 2.503, 2.0391, 2.0989, 2.2289, 2.4301, 2.1643, 2.0949, 2.0668, 2.1456, 2.0668, 2.0886, 2.1033, 2.0641000000000003, 2.0787, 2.1308, 2.0902, 2.2701000000000002, 2.1300999999999997, 2.1112, 2.2396, 2.0844, 2.1635, 2.3074, 2.1973000000000003, 2.0633, 2.0447, 2.0883999999999996, 2.0899, 2.0927, 2.1037, 2.0458999999999996, 2.0741, 2.0934, 2.2345, 2.095, 2.1569, 2.06, 2.1591, 2.1105, 2.0923000000000003, 2.0810999999999997, 2.0726, 2.1837, 2.0874, 2.0684, 2.3024999999999998, 2.079, 2.0798, 2.3699, 2.0749, 2.0774, 2.0624, 2.3261000000000003, 2.0603000000000002, 2.0641000000000003, 2.0753, 2.0867],
  "Optimal Expectation Value": -2.0,
  "Optimizer durations [ms]": [30.844, 31.41, 31.134, 30.868, 31.399, 30.132, 28.212, 30.663, 31.563, 30.307, 27.705, 25.972, 31.276, 31.293, 26.996, 31.278, 31.387, 24.057, 31.947, 31.138, 31.108, 27.579, 27.699, 31.059, 30.996, 27.283, 30.914, 30.662, 30.786, 27.669, 31.071, 31.03, 30.776, 27.0, 31.469, 31.043, 31.119, 31.577, 31.115, 30.879, 31.472, 30.199, 31.17, 30.756, 23.976, 29.652, 30.942, 30.915, 31.817, 30.908, 31.913, 31.625, 30.677, 30.939, 30.696, 30.971, 31.309, 31.004, 31.014, 31.217, 30.489, 30.836, 31.029, 31.623, 31.113, 30.839, 30.973, 30.913, 31.462, 27.015, 26.961, 30.639, 28.412, 31.083, 31.22, 31.264, 30.938, 30.884, 26.094, 30.846, 30.986, 31.521, 24.01, 30.621, 31.338, 27.302, 30.363, 30.85, 31.228, 30.882, 30.556, 30.892, 31.213, 31.28, 31.212, 31.022, 31.269, 26.697, 23.607, 26.357, 30.75, 30.784, 28.529, 30.762, 27.202, 30.567, 31.077, 31.173, 30.696, 26.8, 30.715, 31.437, 30.973, 27.589, 30.916, 30.79, 31.414, 28.54, 31.652, 30.795, 28.392, 31.49, 31.138, 30.718, 30.718, 30.71, 30.353, 31.377, 31.156, 26.96, 30.898, 31.437, 27.726, 30.662, 30.878, 30.25, 27.073, 26.867, 31.252, 30.962, 28.86, 30.743, 31.031, 30.345, 28.083, 31.043, 31.609, 28.479, 26.263, 31.557, 31.349, 27.704, 31.219, 26.965, 27.46, 27.292, 31.067, 30.452, 31.254, 31.239, 31.164, 28.265, 30.662, 30.095, 30.977, 30.526, 31.193, 26.664, 30.74, 31.477, 31.33, 31.183, 30.856, 31.03, 27.175, 30.86, 31.005, 27.008, 31.081, 31.016, 30.831, 27.823, 31.165, 30.819, 27.488, 30.95, 30.828, 30.809, 31.103],
  "Optimizer iterations": 189,
  "Optimizer params": [0.9818834477016007, 0.785011010013374, 0.47203031610880675, 0.23397097796535724, 0.7287304783653128, 0.680429300824789],
  "P": 3,
  "Problem": "MIS",
  "QPU": "7000000",
  "Qubits": 9,
  "Shots": 4096,
  "Size": 6,
  "Total Algorithm duration [s]": 5.687,
  "Total Classic duration [s]": 5.2870648000000005,
  "Total Quantum duration [s]": 0.39993519999999994
}
