{
  "Depth": 344.0,
  "Expectation Value": -1.7718826532363892,
  "Job durations [ms]": [2.113, 2.1021, 2.1113, 2.0877, 2.0419, 2.0709, 2.0994, 2.0964, 2.0693, 2.0659, 2.0612999999999997, 2.0765, 2.0417, 2.0772999999999997, 2.0584000000000002, 2.0726, 2.0802, 2.2765, 2.3116, 2.0963000000000003, 2.2103, 2.1309, 2.0669, 2.1572, 2.0712, 2.0817, 2.0385999999999997, 2.0696, 2.0779, 2.0579, 2.1936999999999998, 2.0711000000000004, 2.0681, 2.0744000000000002, 2.1055, 2.0629, 2.0713, 2.0549, 2.0856999999999997, 2.0205, 2.0762, 2.1259, 2.0676, 2.074, 2.1292, 2.1109, 2.1004, 2.0741, 2.0991, 2.3245, 2.0907999999999998, 2.1103, 2.2260999999999997, 2.1613, 2.0494, 2.0547999999999997, 2.0628, 2.0712, 2.0747999999999998, 2.0532, 2.3484000000000003, 2.1547, 2.0999, 2.2763, 2.3105, 2.0833000000000004, 2.0785, 2.28, 2.1147, 2.1012, 2.0411, 2.0957, 2.0874, 2.0672, 2.0984, 2.0687, 2.0643, 2.0715, 2.2986999999999997, 2.0655, 2.0722, 2.0914, 2.1391, 2.0439999999999996, 2.1151999999999997, 2.0734, 2.0668, 2.0995, 2.0715999999999997, 2.0625999999999998, 2.1589, 2.4846, 2.0439, 2.0461, 2.1624, 2.0619, 2.0755, 2.0801000000000003, 2.1848, 2.4554, 2.0649, 2.2483, 2.199, 2.0868, 2.0871, 2.0650999999999997, 2.0621, 2.0751, 2.0899, 2.0783, 2.0598, 2.1603999999999997],
  "Optimal Expectation Value": -2.0,
  "Optimizer durations [ms]": [31.425, 31.114, 30.997, 30.884, 30.812, 30.888, 30.887, 31.101, 30.844, 30.984, 30.759, 31.025, 30.44, 31.117, 28.0, 30.69, 30.799, 30.509, 30.59, 31.478, 27.496, 30.905, 30.939, 26.853, 30.897, 30.844, 30.799, 27.782, 31.102, 30.903, 29.681, 28.545, 30.896, 30.884, 28.592, 30.63, 31.23, 30.735, 30.893, 30.372, 30.747, 31.339, 31.043, 30.828, 31.578, 28.632, 29.296, 30.821, 30.34, 29.88, 30.888, 31.681, 28.381, 27.151, 30.725, 30.866, 30.556, 30.712, 30.941, 30.795, 27.98, 31.657, 31.232, 30.109, 27.34, 31.189, 30.903, 27.078, 31.244, 31.309, 30.455, 31.178, 31.235, 30.81, 31.181, 30.87, 30.775, 31.085, 27.27, 30.75, 30.986, 30.118, 29.877, 30.622, 26.266, 30.093, 30.607, 31.039, 30.983, 30.828, 26.852, 27.91, 30.771, 30.703, 26.867, 27.671, 31.03, 31.024, 27.472, 27.418, 30.933, 27.991, 32.102, 31.065, 31.175, 30.827, 30.723, 30.724, 31.011, 30.862, 30.749, 27.046],
  "Optimizer iterations": 112,
  "Optimizer params": [1.0, 0.7474413936733423, 1.9081958235744884e-17, 0.9976141266607129, 0.5975383068812152, 0.9999999999999999],
  "P": 3,
  "Problem": "MIS",
  "QPU": "7000000",
  "Qubits": 9,
  "Shots": 4096,
  "Size": 6,
  "Total Algorithm duration [s]": 3.383,
  "Total Classic duration [s]": 3.1464106000000003,
  "Total Quantum duration [s]": 0.23658939999999995
}
