{
  "Depth": 344.0,
  "Expectation Value": -1.7589242458343506,
  "Job durations [ms]": [2.0808, 2.0469, 2.1058000000000003, 2.2526, 2.0531, 1.8674, 2.0449, 2.1313999999999997, 2.0263, 2.0882, 2.4671, 2.1406, 2.0648, 2.1492, 2.0534, 2.0833000000000004, 2.0831999999999997, 2.148, 2.0332000000000003, 2.1046, 2.1513, 2.0736, 2.0271, 2.0732, 2.1116, 2.0915999999999997, 2.0988, 2.0365, 2.0439, 2.0514, 2.1848, 1.9597999999999998, 2.1037, 2.0612999999999997, 2.1475999999999997, 2.0161, 2.0447, 2.0642, 2.0578, 2.0734999999999997, 2.2350999999999996, 2.1744999999999997, 2.1465, 2.1619, 2.2894, 2.0604, 2.064, 2.0662, 2.0852, 2.0444, 2.0803000000000003, 2.0345, 2.0699, 2.0854, 2.0663, 2.0809, 2.1663, 2.0893, 2.1978, 2.0917000000000003, 2.0844, 2.1611, 2.1246, 2.0703, 2.1756, 2.0966, 2.1001000000000003, 2.2583, 2.1557, 2.0772999999999997, 2.0677999999999996, 2.1516, 2.063, 2.0468, 2.006, 2.5144, 2.0387, 2.0633, 2.0762, 2.1191, 2.0621, 2.0525, 2.1549, 2.0856999999999997, 2.058, 2.2744000000000004, 2.0858, 2.0518, 2.0656, 2.0753, 2.0088, 2.084, 2.0666, 2.0758, 2.054, 2.0952, 2.1523, 2.1424, 2.0778, 2.3266, 2.1121, 2.0627000000000004, 2.0618, 2.0718, 2.0536, 2.0732, 2.0623],
  "Optimal Expectation Value": -2.0,
  "Optimizer durations [ms]": [30.984, 30.53, 31.416, 27.629, 30.702, 23.792, 30.65, 23.661, 30.404, 31.041, 28.117, 31.292, 30.969, 26.608, 30.661, 31.008, 28.44, 26.618, 30.736, 30.554, 27.019, 31.053, 30.465, 30.898, 31.319, 30.992, 28.573, 30.531, 29.611, 30.944, 27.866, 29.763, 31.313, 28.458, 26.639, 30.548, 30.39, 28.067, 30.819, 30.891, 29.943, 24.652, 26.6, 27.149, 27.77, 30.686, 30.754, 30.993, 30.924, 30.277, 30.695, 30.704, 30.566, 31.051, 28.12, 31.296, 26.769, 29.696, 30.557, 31.042, 31.089, 26.711, 31.184, 31.257, 24.308, 30.924, 26.562, 29.866, 26.644, 30.863, 30.793, 26.919, 30.872, 30.439, 29.395, 30.706, 30.684, 30.925, 31.054, 31.121, 30.914, 30.676, 26.771, 30.759, 31.033, 28.073, 31.035, 30.607, 30.791, 28.193, 30.04, 31.051, 30.636, 30.87, 30.765, 30.863, 26.998, 26.741, 31.082, 27.871, 31.159, 30.922, 30.956, 30.942, 30.773, 30.904, 30.568],
  "Optimizer iterations": 107,
  "Optimizer params": [1.0, 0.06547939715695067, 0.5596210740879424, 1.0, 1.734723475976807e-18, 0.08580098613796737],
  "P": 3,
  "Problem": "MIS",
  "QPU": "7000000",
  "Qubits": 9,
  "Shots": 4096,
  "Size": 6,
  "Total Algorithm duration [s]": 3.176,
  "Total Classic duration [s]": 2.9512147000000004,
  "Total Quantum duration [s]": 0.22478529999999994
}
