{
  "Depth": 344.0,
  "Expectation Value": -1.7352077960968018,
  "Job durations [ms]": [2.0725000000000002, 2.0921999999999996, 2.076, 2.4483, 2.0713, 2.0460000000000003, 2.0981, 2.0676, 2.0968, 2.1033, 2.0820000000000003, 2.1627, 2.1418, 2.1189999999999998, 2.0513, 2.081, 2.0581, 2.0919, 2.0653, 2.0668, 2.4846999999999997, 2.0799999999999996, 2.0747999999999998, 2.0300000000000002, 2.0956, 2.0795000000000003, 2.0718, 2.0877, 2.078, 2.0515, 2.0531, 2.0944000000000003, 2.0962, 2.1064, 2.0915999999999997, 2.111, 2.1191, 2.0753, 2.0650999999999997, 2.1725, 2.1115, 2.063, 2.0718, 2.0389000000000004, 2.1367000000000003, 2.0793999999999997, 2.1645000000000003, 2.0786, 2.1023, 2.0905, 2.0758, 2.0764, 2.0902, 2.0799, 2.0951, 2.1044, 2.0625999999999998, 2.1619, 2.0874, 2.0581, 2.1584, 2.0972999999999997, 2.0796, 2.04, 2.0628, 2.1098, 2.0734999999999997, 2.0844, 2.0808, 2.0938, 2.0696999999999997, 2.0504, 2.0623, 2.5113000000000003, 2.4947, 2.0918, 2.1256999999999997, 2.1522, 2.0656, 2.0719, 2.0705, 2.0730000000000004, 2.1447, 2.0565, 2.1565, 2.0849, 2.0286000000000004, 2.0753999999999997, 2.0878],
  "Optimal Expectation Value": -2.0,
  "Optimizer durations [ms]": [30.708, 31.083, 30.908, 27.505, 30.655, 30.766, 31.167, 30.736, 31.166, 31.164, 31.181, 26.928, 26.806, 31.516, 27.827, 31.005, 30.72, 31.094, 30.645, 30.714, 30.274, 30.967, 31.076, 30.605, 31.227, 30.954, 28.221, 31.03, 31.004, 30.751, 30.502, 30.772, 27.877, 31.166, 31.116, 28.437, 26.723, 31.011, 30.725, 23.968, 26.388, 30.9, 30.771, 30.465, 31.579, 31.045, 31.799, 31.003, 31.27, 30.775, 30.948, 31.048, 30.817, 28.583, 30.991, 31.131, 29.961, 29.957, 30.884, 30.778, 25.737, 30.872, 31.01, 30.617, 30.727, 31.311, 30.947, 30.966, 31.022, 30.886, 30.804, 31.019, 30.73, 27.544, 30.575, 31.0, 31.74, 26.87, 28.509, 31.007, 30.864, 30.868, 27.054, 30.679, 26.974, 28.298, 30.427, 30.724, 31.069],
  "Optimizer iterations": 89,
  "Optimizer params": [0.009173336313552596, 0.23039420186834672, 0.39107401750048715, 0.9546647038855098, 1.0, 0.9999666435938097],
  "P": 3,
  "Problem": "MIS",
  "QPU": "7000000",
  "Qubits": 9,
  "Shots": 4096,
  "Size": 6,
  "Total Algorithm duration [s]": 2.684,
  "Total Classic duration [s]": 2.4966068000000003,
  "Total Quantum duration [s]": 0.1873932
}
