{
  "Depth": 344.0,
  "Expectation Value": -1.7748717069625854,
  "Job durations [ms]": [2.0821, 2.0728999999999997, 2.0943, 2.0941, 2.0391, 2.0848, 2.1229, 2.0642, 2.0354, 2.1073, 2.0699, 2.0355999999999996, 2.053, 2.0787, 2.4945000000000004, 2.0752, 2.0214, 2.0537, 2.3063, 2.0835, 2.0758, 2.0810999999999997, 2.0382, 2.0577, 2.093, 2.0674, 2.0604, 2.1009, 2.165, 2.0512, 2.0733, 2.0615, 2.0824, 2.0437, 2.0661, 2.0522, 2.1205, 2.0703, 2.0761, 2.1107, 2.0782000000000003, 2.0507, 2.059, 2.0933, 2.0977, 2.0686, 2.0979, 2.0715999999999997, 2.062, 2.0756, 2.0885000000000002, 2.1149, 2.0804, 2.0782000000000003, 2.0682, 2.5379, 2.1523, 2.1193, 2.0431, 2.3348, 2.1356, 2.0803000000000003, 2.081, 2.1396, 2.1231, 2.1197, 2.1159999999999997, 2.1213, 2.0869999999999997, 2.0397000000000003, 2.0418, 2.1028000000000002, 2.1489, 2.079, 2.0963000000000003, 2.0728999999999997, 2.0759, 2.0733, 2.2947, 2.4796, 2.0779, 2.2322, 2.0562, 2.0966, 2.0985, 2.0514, 2.0717000000000003, 2.1237, 2.299, 2.0725000000000002, 2.0686, 2.0860000000000003, 2.0888, 2.154, 2.0648, 2.5281000000000002, 2.0711000000000004, 2.0431, 2.0923000000000003, 2.095, 2.0547999999999997, 2.0488, 2.0352, 2.0402, 2.3988, 2.0639, 2.0788, 2.1048, 2.2885, 2.1473, 2.0881, 2.1029999999999998, 2.0848, 2.0967, 2.0921, 2.1748000000000003, 2.1098, 2.0602, 2.1088, 2.0843, 2.0634, 2.1044],
  "Optimal Expectation Value": -2.0,
  "Optimizer durations [ms]": [30.745, 31.031, 30.854, 31.367, 30.521, 30.821, 31.182, 30.837, 30.534, 31.294, 30.753, 30.402, 30.653, 30.983, 27.875, 30.969, 30.323, 30.311, 28.379, 31.251, 30.888, 27.996, 30.69, 30.583, 30.964, 30.853, 30.736, 31.109, 27.066, 30.387, 28.095, 30.561, 31.092, 30.749, 28.01, 30.636, 31.453, 30.995, 30.743, 31.451, 30.824, 30.63, 30.814, 31.128, 31.278, 30.668, 31.109, 31.021, 27.936, 30.871, 31.166, 30.385, 28.592, 30.915, 30.809, 28.333, 26.832, 31.495, 30.605, 27.518, 31.878, 30.778, 31.168, 27.618, 31.533, 31.223, 31.266, 27.637, 30.869, 30.616, 30.376, 31.253, 26.891, 31.02, 30.952, 27.794, 30.862, 31.003, 30.477, 27.803, 30.958, 27.736, 30.914, 31.134, 31.165, 30.799, 30.915, 31.421, 27.829, 30.884, 31.065, 30.152, 30.793, 31.792, 30.976, 30.236, 29.248, 30.522, 31.336, 30.556, 26.018, 30.739, 30.234, 30.464, 26.591, 30.923, 31.19, 31.049, 28.049, 26.934, 30.927, 31.335, 31.315, 31.077, 31.111, 32.037, 31.273, 30.483, 31.192, 30.727, 30.949, 31.184],
  "Optimizer iterations": 122,
  "Optimizer params": [0.9999999999999998, 0.9926914984663792, 0.5266566509224823, 0.944600553626912, 0.1846145816908619, 0.24389926502706308],
  "P": 3,
  "Problem": "MIS",
  "QPU": "7000000",
  "Qubits": 9,
  "Shots": 4096,
  "Size": 6,
  "Total Algorithm duration [s]": 3.698,
  "Total Classic duration [s]": 3.4405999,
  "Total Quantum duration [s]": 0.2574001
}
