{
  "Depth": 344.0,
  "Expectation Value": -1.653076171875,
  "Job durations [ms]": [72.799, 72.207, 72.225, 72.312, 72.102, 72.21900000000001, 72.307, 72.13, 148.03900000000002, 72.78, 72.407, 72.325, 72.44, 72.438, 72.01, 72.03099999999999, 72.37599999999999, 72.037, 72.15299999999999, 72.25, 147.524, 72.272, 72.04, 72.284, 72.21900000000001, 71.957, 72.10600000000001, 72.302, 72.184, 72.118, 72.23599999999999, 72.417, 147.35899999999998, 72.45500000000001, 72.279, 72.28999999999999, 71.947, 72.298, 72.29299999999999, 72.468, 72.401, 72.397, 72.28, 71.86099999999999, 147.701, 72.01299999999999, 71.78800000000001, 72.436, 72.13, 72.187, 72.315, 72.316, 72.244, 72.343, 72.181, 72.068, 71.961, 72.125, 72.33000000000001, 72.351, 72.4, 72.295, 72.284, 72.222, 71.94200000000001, 72.115, 71.931, 72.267, 72.212, 147.218, 72.45100000000001, 72.404, 72.422, 72.107, 71.702, 72.203, 72.11, 72.3, 72.52300000000001, 72.59500000000001, 72.53099999999999, 147.226, 72.31700000000001, 72.20899999999999, 72.255, 71.812, 71.982, 72.31700000000001, 72.62, 72.245, 72.70500000000001, 72.02699999999999, 72.02, 147.25, 72.28800000000001, 72.812],
  "Optimal Expectation Value": -2.0,
  "Optimizer durations [ms]": [90.739, 89.731, 89.703, 90.035, 89.766, 89.774, 89.863, 89.604, 165.694, 90.609, 90.447, 90.143, 90.084, 90.059, 89.675, 89.822, 89.864, 89.715, 89.645, 89.973, 165.529, 90.292, 89.803, 89.953, 89.895, 89.637, 89.682, 89.972, 89.659, 89.699, 89.807, 90.106, 165.166, 90.131, 90.258, 90.014, 89.583, 89.796, 89.911, 90.09, 89.954, 90.168, 90.028, 89.54, 165.44, 89.659, 89.531, 90.004, 89.65, 89.748, 89.852, 90.182, 90.256, 90.118, 89.842, 89.735, 89.748, 89.867, 163.731, 89.925, 90.113, 89.972, 90.008, 89.885, 89.651, 89.894, 89.697, 89.841, 89.838, 164.854, 90.148, 90.102, 90.083, 89.739, 89.484, 90.029, 89.735, 89.849, 90.184, 90.172, 90.142, 164.907, 89.987, 89.943, 90.093, 89.43, 89.673, 89.949, 90.067, 89.721, 90.336, 89.808, 89.608, 164.997, 90.276, 90.428],
  "Optimizer iterations": 96,
  "Optimizer params": [0.06421473596911004, 0.9802254844236804, 1.0, 0.31631751730669794, 0.14371006283660406, 0.0008966477856179814],
  "P": 3,
  "Problem": "MIS",
  "QPU": "9000001",
  "Qubits": 9,
  "Shots": 4096,
  "Size": 6,
  "Total Algorithm duration [s]": 9.233,
  "Total Classic duration [s]": 1.7706180000000025,
  "Total Quantum duration [s]": 7.462381999999998
}
