{
  "Depth": 2.0,
  "Job durations [ms]": [5.220174789428711, 5.349397659301758, 5.45048713684082, 5.157709121704102, 5.290865898132324, 5.283594131469727, 5.508303642272949, 5.219578742980957],
  "Optimizer durations [ms]": [103.137, 102.65, 157.822, 106.817, 104.435, 104.762, 154.057, 100.52],
  "Optimizer iterations": 8,
  "Qubits": 1,
  "Total Algorithm duration [s]": 0.934,
  "Total Classic duration [s]": 0.8915198888778687,
  "Total Quantum duration [s]": 0.04248011112213135,
  "Expectation Value": -0.574400007724762,
  "Optimal Expectation Value": -0.574400007724762,
  "Optimizer params": [1.0],
  "QPU": "3010008",
  "Problem": "RH",
  "Size": 1,
  "P": 0,
  "Shots": 4096
}