{
  "Circuit execution durations [ms]": [51.93829536437988, 49.56400394439697, 51.02574825286865, 75.89733600616455, 52.514076232910156, 51.43868923187256, 50.86469650268555, 79.35118675231934, 52.18839645385742, 49.92091655731201, 47.939419746398926, 75.87826251983643, 52.38461494445801, 49.06749725341797, 50.667643547058105, 74.54454898834229, 49.84426498413086, 49.98636245727539, 52.614808082580566, 76.09236240386963, 50.6749153137207, 52.0482063293457, 48.84505271911621, 73.61578941345215, 53.15279960632324, 52.870988845825195, 48.70784282684326, 75.76167583465576, 53.02929878234863, 50.448060035705566, 51.71942710876465, 78.0569314956665, 49.81577396392822, 52.616238594055176, 47.86860942840576, 76.61473751068115, 49.48163032531738, 51.59199237823486, 51.0563850402832, 73.4860897064209, 50.255775451660156, 48.19297790527344, 52.967190742492676, 73.98247718811035, 51.4674186706543, 51.755309104919434, 51.64003372192383, 74.54180717468262, 51.0251522064209, 52.10435390472412, 51.57744884490967, 74.17702674865723, 52.68418788909912, 52.281737327575684, 49.36718940734863, 75.73699951171875, 50.916194915771484, 50.45604705810547, 51.5519380569458, 76.41816139221191, 50.78303813934326, 50.797104835510254, 49.59559440612793, 76.09391212463379, 50.53830146789551, 51.114678382873535, 53.64418029785156, 76.38168334960938, 51.80788040161133, 49.54993724822998, 50.8960485458374, 74.82647895812988, 52.698612213134766, 50.55069923400879, 50.03035068511963, 75.02305507659912, 47.762274742126465, 50.9641170501709, 52.52981185913086],
  "Depth": 2.0,
  "Expectation Value": -2.046066999435425,
  "Optimal Expectation Value": -2.2741000652313232,
  "Optimizer durations [ms]": [555.098, 544.365, 552.694, 602.096, 558.458, 549.196, 559.649, 607.794, 556.868, 547.885, 547.256, 606.517, 555.937, 544.479, 551.22, 597.607, 551.005, 547.015, 560.673, 601.393, 553.11, 549.816, 549.569, 594.993, 557.754, 551.456, 552.549, 601.087, 556.689, 547.748, 555.983, 609.909, 552.258, 552.596, 552.857, 602.825, 549.803, 550.706, 554.547, 596.161, 552.398, 542.587, 556.412, 598.09, 553.882, 555.645, 553.991, 598.59, 554.71, 551.047, 555.131, 597.358, 559.772, 550.145, 549.719, 600.638, 553.57, 546.757, 556.033, 603.023, 553.104, 549.506, 551.058, 599.87, 558.142, 549.62, 557.782, 602.473, 556.704, 546.424, 558.681, 597.852, 558.856, 569.388, 554.594, 604.111, 548.445, 550.928, 557.169],
  "Optimizer iterations": 79,
  "Optimizer params": [0.9919260267907046, 0.5149838594591936, 0.02056951574046414, 0.4782867114307922],
  "P": 0,
  "Problem": "RH",
  "QJob durations [ms]": [61.00785732269287, 58.63142013549805, 60.306429862976074, 85.10386943817139, 61.56444549560547, 60.50395965576172, 61.566829681396484, 88.44292163848877, 61.26892566680908, 59.66067314147949, 57.31856822967529, 85.10923385620117, 61.47158145904541, 58.1439733505249, 60.04154682159424, 83.65821838378906, 59.29088592529297, 59.065818786621094, 61.910033226013184, 85.21604537963867, 59.969425201416016, 61.0576868057251, 58.22265148162842, 82.81755447387695, 62.32404708862305, 61.966538429260254, 58.098554611206055, 84.86676216125488, 62.18695640563965, 59.53872203826904, 61.07282638549805, 87.23831176757813, 58.91227722167969, 61.731934547424316, 57.26456642150879, 85.74676513671875, 58.542490005493164, 60.68146228790283, 60.3945255279541, 82.59809017181396, 59.304118156433105, 57.30152130126953, 62.26372718811035, 83.17077159881592, 60.57858467102051, 60.92572212219238, 61.110615730285645, 83.71436595916748, 60.19186973571777, 61.22112274169922, 60.971617698669434, 83.30309391021729, 61.756253242492676, 61.36155128479004, 58.672308921813965, 84.85674858093262, 60.01687049865723, 59.50319766998291, 60.9133243560791, 85.56675910949707, 59.90135669708252, 59.893131256103516, 59.549927711486816, 85.17146110534668, 59.6088171005249, 60.248732566833496, 62.987565994262695, 85.49165725708008, 60.936570167541504, 58.67588520050049, 60.2412223815918, 83.95266532897949, 61.82408332824707, 60.03069877624512, 59.446096420288086, 84.20610427856445, 56.87308311462402, 60.0663423538208, 62.36565113067627],
  "QPU": "3000010",
  "Qubits": 4,
  "Queue durations [ms]": [0.0, 0.0, 0.0, 0.0, 0.0, 0.0, 0.0, 0.0, 0.0, 0.0, 0.0, 0.0, 0.0, 0.0, 0.0, 0.0, 0.0, 0.0, 0.0, 0.0, 0.0, 0.0, 0.0, 0.0, 0.0, 0.0, 0.0, 0.0, 0.0, 0.0, 0.0, 0.0, 0.0, 0.0, 0.0, 0.0, 0.0, 0.0, 0.0, 0.0, 0.0, 0.0, 0.0, 0.0, 0.0, 0.0, 0.0, 0.0, 0.0, 0.0, 0.0, 0.0, 0.0, 0.0, 0.0, 0.0, 0.0, 0.0, 0.0, 0.0, 0.0, 0.0, 0.0, 0.0, 0.0, 0.0, 0.0, 0.0, 0.0, 0.0, 0.0, 0.0, 0.0, 0.0, 0.0, 0.0, 0.0, 0.0, 0.0],
  "Shots": 4096,
  "Size": 4,
  "Total Algorithm duration [s]": 44.603,
  "Total Classic duration [s]": 39.38030941772461,
  "Total Quantum duration [s]": 5.222690582275391
}
