{
  "Circuit execution durations [ms]": [4057.4684143066406, 4000.946283340454, 4039.443254470825, 4114.941835403442, 4059.448719024658, 4050.684928894043, 4081.293821334839, 4014.493942260742, 4090.128183364868, 4062.5555515289307, 4027.556896209717, 4080.2831649780273, 4043.532371520996, 4015.0065422058105, 4072.094678878784, 4066.502332687378, 4093.9440727233887, 4033.977508544922, 4050.7965087890625, 4041.822910308838, 4059.1537952423096, 4090.4316902160645, 4052.9792308807373, 4049.2284297943115, 4094.012975692749, 4007.359743118286, 4074.547290802002, 4103.193283081055, 4020.0979709625244, 4072.3555088043213, 4022.434949874878, 4057.8150749206543, 4063.9452934265137, 4064.4540786743164, 4022.000312805176, 4034.8386764526367, 4099.774122238159, 4065.6018257141113, 4036.3125801086426, 4109.899282455444, 4107.375621795654, 4096.599340438843, 4107.871532440186, 4022.860288619995, 4085.4437351226807, 4117.114543914795, 4035.165548324585, 4065.196990966797, 4044.785737991333, 4086.400032043457, 4040.8713817596436, 4030.670642852783, 4036.8754863739014, 4011.3775730133057, 4129.0624141693115, 4025.5613327026367, 4073.209047317505, 4077.178955078125, 4052.56986618042, 4063.6255741119385, 4042.8242683410645, 4012.096643447876, 4071.2828636169434, 4099.6716022491455, 4041.0454273223877, 4058.371067047119, 4054.0671348571777, 4027.5821685791016, 4142.450332641602, 4046.430826187134, 4021.568536758423, 4054.1999340057373, 4038.731813430786, 4054.2352199554443, 4046.73171043396, 4087.4087810516357, 4038.9270782470703, 4056.5810203552246, 4011.6024017333984, 4032.700777053833, 4038.9060974121094, 4001.6627311706543, 4064.1510486602783, 4050.8317947387695, 4063.856601715088, 4032.9678058624268, 4072.7438926696777, 4061.128854751587, 4043.508529663086],
  "Depth": 167.0,
  "Expectation Value": -11.42578125,
  "Optimal Expectation Value": -12.0,
  "Optimizer durations [ms]": [6793.92, 6758.692, 6798.643, 6844.231, 6825.707, 6826.213, 6800.282, 6737.669, 6838.925, 6798.46, 6785.973, 6843.44, 6780.804, 6736.126, 6835.533, 6847.048, 6843.003, 6837.08, 6762.346, 6764.463, 6812.823, 6805.344, 6812.436, 6786.622, 6811.654, 6780.067, 6797.023, 6861.658, 6795.462, 6778.093, 6776.433, 6807.248, 6817.306, 6793.585, 6800.403, 6800.576, 6809.232, 6805.965, 6780.265, 6879.995, 6818.007, 6846.51, 6844.11, 6753.483, 6801.962, 6873.388, 6748.734, 6802.242, 6813.953, 6822.471, 6796.639, 6804.855, 6781.35, 6783.266, 6848.865, 6791.256, 6807.682, 6855.652, 6809.26, 6792.97, 6805.25, 6735.699, 6864.862, 6842.124, 6788.94, 6784.933, 6796.777, 6788.406, 6862.692, 6785.799, 6777.565, 6763.079, 6751.642, 6821.327, 6816.333, 6811.463, 6795.046, 6789.98, 6732.323, 6763.086, 6835.095, 6724.341, 6837.731, 6799.886, 6779.176, 6790.829, 6857.617, 6808.26, 6768.152],
  "Optimizer iterations": 89,
  "Optimizer params": [0.988898743264096, 0.9898012293580897, 0.19085653338179767, 0.9735901484912929, 0.5829746007126374, 0.3861504545671818],
  "P": 3,
  "Problem": "MCP",
  "QJob durations [ms]": [6782.411813735962, 6746.938705444336, 6786.868095397949, 6832.4244022369385, 6814.082384109497, 6814.553260803223, 6788.470506668091, 6725.886106491089, 6826.780080795288, 6786.544322967529, 6773.877143859863, 6831.40754699707, 6768.977403640747, 6724.381685256958, 6823.693513870239, 6835.363149642944, 6831.271648406982, 6825.242042541504, 6750.340223312378, 6752.420902252197, 6800.76789855957, 6793.322801589966, 6800.654888153076, 6774.420738220215, 6799.8247146606445, 6768.244743347168, 6785.42685508728, 6849.84564781189, 6783.479452133179, 6766.287565231323, 6764.291763305664, 6795.204639434814, 6805.465936660767, 6781.785011291504, 6788.836717605591, 6788.626909255981, 6797.395467758179, 6794.182062149048, 6768.22566986084, 6824.043989181519, 6806.098461151123, 6834.743499755859, 6832.038164138794, 6741.69659614563, 6789.860486984253, 6861.727714538574, 6737.069845199585, 6790.288686752319, 6802.229404449463, 6810.548543930054, 6784.544229507446, 6792.598009109497, 6769.23394203186, 6771.520614624023, 6836.988687515259, 6779.8051834106445, 6795.63570022583, 6843.909978866577, 6797.125816345215, 6781.228303909302, 6792.935609817505, 6723.6785888671875, 6807.602882385254, 6830.451011657715, 6777.0490646362305, 6772.958040237427, 6784.9671840667725, 6776.350736618042, 6851.1412143707275, 6773.972272872925, 6765.563011169434, 6751.009464263916, 6739.518642425537, 6809.256076812744, 6803.611278533936, 6799.80993270874, 6783.372402191162, 6778.0773639678955, 6720.348834991455, 6751.47271156311, 6822.973251342773, 6712.546825408936, 6825.64115524292, 6787.975788116455, 6767.382860183716, 6779.006242752075, 6846.047163009644, 6796.571969985962, 6756.514549255371],
  "QPU": "6010013",
  "Qubits": 9,
  "Queue durations [ms]": [0.0, 0.0, 0.0, 0.0, 0.0, 0.0, 0.0, 0.0, 0.0, 0.0, 0.0, 0.0, 0.0, 0.0, 0.0, 0.0, 0.0, 0.0, 0.0, 0.0, 0.0, 0.0, 0.0, 0.0, 0.0, 0.0, 0.0, 0.0, 0.0, 0.0, 0.0, 0.0, 0.0, 0.0, 0.0, 0.0, 0.0, 0.0, 0.0, 0.0, 0.0, 0.0, 0.0, 0.0, 0.0, 0.0, 0.0, 0.0, 0.0, 0.0, 0.0, 0.0, 0.0, 0.0, 0.0, 0.0, 0.0, 0.0, 0.0, 0.0, 0.0, 0.0, 0.0, 0.0, 0.0, 0.0, 0.0, 0.0, 0.0, 0.0, 0.0, 0.0, 0.0, 0.0, 0.0, 0.0, 0.0, 0.0, 0.0, 0.0, 0.0, 0.0, 0.0, 0.0, 0.0, 0.0, 0.0, 0.0, 0.0],
  "Shots": 4096,
  "Size": 9,
  "Total Algorithm duration [s]": 605.445,
  "Total Classic duration [s]": 1.1460335922241711,
  "Total Quantum duration [s]": 604.2989664077759
}
