{
  "Depth": 167.0,
  "Job durations [ms]": [10815.072298049927, 10708.377122879028, 10611.36507987976, 10692.220211029053, 10753.890752792358, 10699.321031570435, 10611.765146255493, 10786.296129226685, 10684.888124465942, 10670.867443084717, 10756.459474563599, 10696.470499038696, 10628.733396530151, 10757.251739501953, 10643.345355987549, 10985.044717788696, 10611.825227737427, 10973.039627075195, 10763.120889663696, 10684.170007705688, 10740.766763687134, 10800.342798233032, 10647.790670394897, 10664.505958557129, 10742.706775665283, 10819.77128982544, 10614.840984344482, 10786.808013916016, 10802.109241485596, 10689.499855041504, 10816.295146942139, 10803.48515510559, 10643.35322380066, 10707.002639770508, 10673.346281051636, 10975.116729736328, 10710.038900375366, 10659.592390060425, 10719.993352890015, 10667.778730392456, 10722.219467163086, 10833.864688873291, 10765.033721923828, 11047.266960144043, 10890.814542770386, 10832.510948181152, 10668.627977371216, 10737.922668457031, 10759.667873382568, 10621.002674102783, 10725.749731063843, 10604.738473892212, 10687.912702560425, 10808.3336353302, 10617.470502853394, 11062.814235687256, 10718.810558319092, 10668.351173400879, 10680.427312850952, 10745.862245559692, 10774.028539657593, 10744.714736938477, 10603.14393043518, 10601.901769638062, 10807.913780212402, 10823.795318603516, 10780.37691116333, 10784.68108177185, 10754.279613494873, 10731.402397155762, 10687.769174575806, 10932.639122009277, 10699.175357818604, 10747.31731414795, 10741.525173187256, 10632.479429244995, 10771.549463272095, 10715.78574180603, 10705.371618270874, 10694.887638092041, 10675.004959106445, 10627.650499343872, 10733.73818397522, 10739.574670791626, 10732.159614562988, 10673.077583312988, 10661.375045776367, 10714.322090148926],
  "Optimizer durations [ms]": [13533.067, 13437.716, 13311.488, 13447.817, 13460.333, 13417.141, 13346.866, 13506.015, 13430.936, 13395.689, 13473.007, 13480.531, 13352.925, 13510.026, 13367.608, 13701.17, 13351.845, 13692.612, 13524.881, 13439.609, 13474.402, 13535.038, 13400.486, 13460.621, 13501.888, 13565.507, 13334.126, 13543.073, 13517.181, 13442.392, 13554.731, 13514.672, 13394.947, 13423.802, 13381.255, 13735.213, 13432.912, 13374.071, 13432.486, 13417.151, 13437.827, 13624.656, 13538.996, 13769.041, 13653.927, 13531.492, 13406.566, 13506.675, 13472.718, 13317.646, 13437.675, 13341.749, 13453.897, 13518.56, 13369.034, 13763.161, 13492.525, 13379.886, 13419.67, 13532.831, 13498.579, 13490.856, 13319.066, 13313.791, 13553.204, 13583.808, 13499.09, 13540.975, 13478.026, 13436.523, 13424.366, 13704.92, 13415.38, 13500.831, 13465.695, 13363.753, 13492.49, 13487.608, 13445.866, 13411.911, 13423.834, 13349.039, 13504.492, 13478.11, 13451.206, 13386.621, 13403.086, 13412.214],
  "Optimizer iterations": 88,
  "Qubits": 9,
  "Total Algorithm duration [s]": 1185.421,
  "Total Classic duration [s]": 240.71128797149663,
  "Total Quantum duration [s]": 944.7097120285034,
  "Expectation Value": -11.67724609375,
  "Optimal Expectation Value": -12.0,
  "Optimizer params": [0.9630703037018025, 0.8883946772123086, 0.6776798636206487, 0.07141987551156764, 0.4395808828865497, 0.5964301793882082],
  "QPU": "6010003",
  "Problem": "MCP",
  "Size": 9,
  "P": 3,
  "Shots": 4096
}