{
  "Circuit execution durations [ms]": [1.6335, 1.6467, 1.5836, 1.5862999999999998, 1.6000999999999999, 1.5593, 1.5566, 1.5616, 1.5623, 1.5862, 1.5643, 1.5734, 1.552, 1.5605, 1.5897000000000001, 1.6109, 1.6056, 1.57, 1.5595999999999999, 1.8474, 1.7699, 1.5711, 1.5476999999999999, 1.5648000000000002, 1.5707, 1.591, 1.5643, 1.5562, 1.5914, 1.5812000000000002, 1.4913999999999998, 1.5608, 1.6033, 1.5537999999999998, 1.5644, 1.5873, 1.5897000000000001, 1.7695, 1.5652000000000001, 1.5658, 1.5587000000000002, 1.5743, 1.5584, 1.5523, 1.5501, 1.5584, 1.6261999999999999, 1.6513, 1.5692, 1.5591, 1.5532, 1.5591, 1.5598999999999998, 1.5569, 1.5583, 1.5616, 1.5807, 1.5768, 1.6151, 1.5971, 1.5855000000000001, 1.5652000000000001, 1.5724999999999998, 1.5507, 1.5635000000000001, 1.5478, 1.5514000000000001, 1.5739, 1.641, 1.5449000000000002, 1.6729, 1.5590000000000002, 1.5731, 1.5769, 1.5704, 1.5510000000000002, 1.549, 1.6961000000000002, 1.6292, 1.4488999999999999, 1.5467, 1.6165, 1.7325000000000002, 1.5644, 1.4485999999999999, 1.6864, 1.8055, 1.5686, 1.4642, 1.6694, 1.5504, 1.5724, 1.5287, 1.7754999999999999, 1.5603, 1.5512, 1.5932, 1.5326, 1.6084999999999998, 1.5628, 1.5565, 1.5453000000000001, 1.5529000000000002, 1.673, 1.5917, 1.6927, 1.5666, 1.5422, 1.5449000000000002, 1.5984, 1.5722, 1.5811, 1.5595999999999999, 1.556, 1.5518, 1.5937, 1.5806, 1.5634, 1.5341, 1.5628, 1.5649],
  "Depth": 221.0,
  "Expectation Value": -16.281553268432617,
  "Optimal Expectation Value": -18.0,
  "Optimizer durations [ms]": [17.704, 17.749, 16.942, 17.122, 16.978, 16.794, 16.779, 16.652, 16.558, 18.006, 16.857, 16.92, 16.755, 16.495, 16.958, 17.016, 17.117, 16.686, 16.728, 21.609, 24.884, 16.885, 16.599, 16.682, 16.912, 17.835, 16.762, 16.634, 17.212, 16.95, 20.039, 16.809, 17.025, 16.582, 16.767, 16.93, 17.009, 18.854, 16.881, 16.628, 16.54, 16.996, 16.743, 16.664, 16.667, 16.729, 17.256, 17.719, 16.764, 16.49, 16.778, 16.634, 18.048, 16.799, 16.725, 16.796, 16.882, 16.851, 17.281, 16.951, 16.915, 16.724, 17.008, 16.743, 16.844, 16.642, 16.54, 17.027, 17.488, 16.611, 17.756, 16.862, 16.959, 16.963, 18.733, 16.55, 16.679, 18.076, 17.424, 25.317, 16.603, 17.365, 18.498, 16.967, 25.361, 18.026, 19.301, 16.936, 25.472, 17.707, 18.889, 16.905, 22.691, 23.417, 18.009, 16.405, 17.047, 16.496, 16.996, 16.722, 16.627, 16.387, 16.603, 17.672, 16.909, 18.357, 16.812, 16.362, 16.459, 16.968, 16.989, 17.031, 16.684, 17.032, 16.696, 17.257, 17.128, 16.682, 16.572, 16.766, 17.462],
  "Optimizer iterations": 121,
  "Optimizer params": [0.8731800983939848, 0.070666403164131, 0.33836995691309585, 0.5985372259444095, 0.599878346505871, 0.9688697165535594],
  "P": 3,
  "Problem": "MCP",
  "QJob durations [ms]": [1.6335, 1.6467, 1.5836, 1.5862999999999998, 1.6000999999999999, 1.5593, 1.5566, 1.5616, 1.5623, 1.5862, 1.5643, 1.5734, 1.552, 1.5605, 1.5897000000000001, 1.6109, 1.6056, 1.57, 1.5595999999999999, 1.8474, 1.7699, 1.5711, 1.5476999999999999, 1.5648000000000002, 1.5707, 1.591, 1.5643, 1.5562, 1.5914, 1.5812000000000002, 1.4913999999999998, 1.5608, 1.6033, 1.5537999999999998, 1.5644, 1.5873, 1.5897000000000001, 1.7695, 1.5652000000000001, 1.5658, 1.5587000000000002, 1.5743, 1.5584, 1.5523, 1.5501, 1.5584, 1.6261999999999999, 1.6513, 1.5692, 1.5591, 1.5532, 1.5591, 1.5598999999999998, 1.5569, 1.5583, 1.5616, 1.5807, 1.5768, 1.6151, 1.5971, 1.5855000000000001, 1.5652000000000001, 1.5724999999999998, 1.5507, 1.5635000000000001, 1.5478, 1.5514000000000001, 1.5739, 1.641, 1.5449000000000002, 1.6729, 1.5590000000000002, 1.5731, 1.5769, 1.5704, 1.5510000000000002, 1.549, 1.6961000000000002, 1.6292, 1.4488999999999999, 1.5467, 1.6165, 1.7325000000000002, 1.5644, 1.4485999999999999, 1.6864, 1.8055, 1.5686, 1.4642, 1.6694, 1.5504, 1.5724, 1.5287, 1.7754999999999999, 1.5603, 1.5512, 1.5932, 1.5326, 1.6084999999999998, 1.5628, 1.5565, 1.5453000000000001, 1.5529000000000002, 1.673, 1.5917, 1.6927, 1.5666, 1.5422, 1.5449000000000002, 1.5984, 1.5722, 1.5811, 1.5595999999999999, 1.556, 1.5518, 1.5937, 1.5806, 1.5634, 1.5341, 1.5628, 1.5649],
  "QPU": "7000000",
  "Qubits": 12,
  "Queue durations [ms]": [0.0, 0.0, 0.0, 0.0, 0.0, 0.0, 0.0, 0.0, 0.0, 0.0, 0.0, 0.0, 0.0, 0.0, 0.0, 0.0, 0.0, 0.0, 0.0, 0.0, 0.0, 0.0, 0.0, 0.0, 0.0, 0.0, 0.0, 0.0, 0.0, 0.0, 0.0, 0.0, 0.0, 0.0, 0.0, 0.0, 0.0, 0.0, 0.0, 0.0, 0.0, 0.0, 0.0, 0.0, 0.0, 0.0, 0.0, 0.0, 0.0, 0.0, 0.0, 0.0, 0.0, 0.0, 0.0, 0.0, 0.0, 0.0, 0.0, 0.0, 0.0, 0.0, 0.0, 0.0, 0.0, 0.0, 0.0, 0.0, 0.0, 0.0, 0.0, 0.0, 0.0, 0.0, 0.0, 0.0, 0.0, 0.0, 0.0, 0.0, 0.0, 0.0, 0.0, 0.0, 0.0, 0.0, 0.0, 0.0, 0.0, 0.0, 0.0, 0.0, 0.0, 0.0, 0.0, 0.0, 0.0, 0.0, 0.0, 0.0, 0.0, 0.0, 0.0, 0.0, 0.0, 0.0, 0.0, 0.0, 0.0, 0.0, 0.0, 0.0, 0.0, 0.0, 0.0, 0.0, 0.0, 0.0, 0.0, 0.0, 0.0],
  "Shots": 4096,
  "Size": 12,
  "Total Algorithm duration [s]": 2.114,
  "Total Classic duration [s]": 1.9223085,
  "Total Quantum duration [s]": 0.1916915
}
