{
  "Depth": 287.0,
  "Expectation Value": -1.0,
  "Job durations [ms]": [1.7761, 1.8423999999999998, 1.7374999999999998, 1.7386000000000001, 1.8411, 1.7529, 1.7422, 1.7231, 1.7359, 1.7173, 1.7022000000000002, 1.7242, 1.6808999999999998, 1.9680000000000002, 1.8291, 1.7456, 1.7179, 1.7217, 1.9913, 1.7756, 1.833, 1.7829, 1.7585000000000002, 1.735, 1.8427, 1.7544, 1.751, 1.7341, 1.754, 2.2062000000000004, 1.7535, 1.8475, 1.7412, 1.7183000000000002, 1.7183000000000002, 1.7641, 1.7129, 1.7362, 1.7224, 1.7776, 1.7267000000000001, 1.7302000000000002, 1.758, 1.7301, 1.7286000000000001, 1.7125000000000001, 1.7537, 1.7317, 1.7352999999999998, 1.7611, 1.8377999999999999, 1.8673, 1.7830000000000001, 1.729, 1.8336999999999999, 1.7505000000000002, 1.8334, 2.17, 1.7501, 1.7017, 2.1517, 1.7548, 1.7564, 1.729, 1.7077, 1.7318, 1.7226, 1.6856, 1.6925, 1.7409000000000001, 2.1292, 1.7351, 1.7359, 1.7644, 1.7083000000000002],
  "Optimal Expectation Value": -1.0,
  "Optimizer durations [ms]": [27.919, 23.701, 27.408, 27.362, 20.895, 27.772, 27.624, 27.29, 27.632, 27.21, 24.462, 27.464, 26.982, 24.863, 21.065, 23.165, 27.139, 27.416, 24.305, 27.788, 23.877, 22.97, 24.515, 27.713, 26.969, 23.305, 27.716, 27.646, 27.117, 27.248, 27.919, 23.913, 26.599, 27.44, 27.375, 27.82, 24.827, 27.462, 27.492, 27.753, 24.696, 27.788, 27.586, 27.628, 24.007, 27.328, 27.55, 24.81, 27.124, 27.897, 23.702, 24.833, 28.035, 27.796, 23.62, 27.813, 23.683, 24.424, 27.514, 27.416, 26.908, 25.182, 27.679, 27.276, 27.415, 27.538, 24.402, 27.463, 22.358, 26.874, 24.934, 23.189, 27.754, 27.564, 24.373],
  "Optimizer iterations": 75,
  "Optimizer params": [0.8633296666271856, 0.36643296480178833, 0.5965070297059021, 0.21473279607466264, 0.535482839236761, 0.5983488194307137],
  "P": 3,
  "Problem": "MIS",
  "QPU": "7000000",
  "Qubits": 8,
  "Shots": 4096,
  "Size": 5,
  "Total Algorithm duration [s]": 1.963,
  "Total Classic duration [s]": 1.8295223,
  "Total Quantum duration [s]": 0.13347769999999995
}
