{
  "Depth": 287.0,
  "Expectation Value": -1.0,
  "Job durations [ms]": [1.748, 1.7937, 1.7857999999999998, 1.8259999999999998, 1.7212, 1.7015, 1.7191999999999998, 1.7183000000000002, 1.7074, 1.7106999999999999, 1.732, 1.9653, 1.7074, 1.7717, 1.7068, 1.8383, 1.7939, 1.74, 1.8449, 1.83, 1.7417, 1.9448, 1.7492, 1.8365, 1.9327, 1.7258, 1.7773999999999999, 1.6996, 1.7490999999999999, 1.7479, 1.7467, 1.7515, 1.7049999999999998, 1.7113, 1.7207999999999999, 1.7268, 1.5769, 1.7579, 1.7307, 2.1305, 2.1441, 1.7448, 1.7341, 2.0439999999999996, 1.83, 1.7203, 1.7582, 1.7667, 1.7388, 1.7366000000000001, 1.7347000000000001, 1.7115, 2.0728999999999997, 1.7418, 1.7478, 1.7218, 1.717, 1.8438, 1.6967, 1.7933000000000001, 1.7184, 1.8494, 1.7409000000000001, 1.7367000000000001, 1.7588000000000001, 1.7087, 1.7273, 1.7983, 1.7621, 1.7712999999999999, 1.6927999999999999, 1.9759, 1.8295, 1.796, 1.8324, 1.7418],
  "Optimal Expectation Value": -1.0,
  "Optimizer durations [ms]": [27.617, 23.279, 23.118, 21.198, 27.376, 26.992, 27.256, 27.379, 27.435, 27.449, 27.434, 23.999, 27.474, 27.209, 27.23, 21.005, 27.874, 27.352, 24.05, 23.711, 27.322, 24.107, 27.712, 23.314, 27.271, 24.479, 27.672, 26.865, 25.753, 27.55, 27.614, 27.564, 24.795, 27.293, 27.089, 26.684, 18.981, 27.735, 27.391, 24.044, 27.036, 27.511, 27.505, 25.605, 28.321, 27.185, 27.819, 27.66, 24.937, 27.542, 27.522, 26.971, 24.259, 27.373, 27.437, 27.156, 27.352, 23.481, 27.195, 23.32, 27.415, 23.723, 25.087, 27.745, 27.787, 26.244, 27.257, 28.222, 25.823, 23.178, 27.24, 27.063, 20.104, 19.278, 23.352, 27.578],
  "Optimizer iterations": 76,
  "Optimizer params": [0.07651103313310319, 0.5925454757557354, 0.9999999999999999, 0.9999999999999997, 0.031142998850384174, 0.995466214870866],
  "P": 3,
  "Problem": "MIS",
  "QPU": "7000000",
  "Qubits": 8,
  "Shots": 4096,
  "Size": 5,
  "Total Algorithm duration [s]": 1.978,
  "Total Classic duration [s]": 1.8427359,
  "Total Quantum duration [s]": 0.1352641
}
