{
  "Depth": 287.0,
  "Expectation Value": -1.0,
  "Job durations [ms]": [1.9013, 1.7456, 1.7937999999999998, 1.7206000000000001, 1.8203, 1.7573, 1.8433, 1.9377000000000002, 1.8121, 1.8845, 1.7412, 1.7346, 1.7309999999999999, 1.8037, 1.7379, 1.7275, 1.7238, 1.737, 1.8305, 1.7290999999999999, 1.7521, 1.7551, 1.766, 1.9217, 1.8345, 1.8191, 1.9047999999999998, 1.7519, 1.7534, 1.8329, 1.8353, 1.7016, 1.7199, 2.0636, 1.7561, 1.8306, 1.7306000000000001, 1.8342, 1.7329999999999999, 1.8306, 1.7171, 1.8737000000000001, 1.7252999999999998, 1.8152000000000001, 1.9411, 1.739, 1.9523, 1.8325, 1.7254, 1.8684999999999998, 1.9883000000000002, 1.74, 1.7367000000000001, 1.8362, 1.84, 1.8139, 1.9883000000000002, 1.8339, 1.9837000000000002, 1.7229, 1.8449, 1.7944, 1.7630000000000001, 1.7326, 1.7351, 1.8384, 1.8339, 1.7223, 1.7378, 1.7519, 1.728, 1.5831, 1.7651, 1.7175999999999998, 1.7546, 1.6833, 1.8594, 1.7332, 1.6946, 1.7209, 1.9613999999999998, 1.7429, 1.8117, 1.8084, 1.7307, 1.7348000000000001, 1.7197, 1.7052],
  "Optimal Expectation Value": -1.0,
  "Optimizer durations [ms]": [24.464, 27.717, 28.028, 24.633, 25.993, 27.81, 23.568, 24.268, 21.603, 24.388, 27.543, 27.643, 27.478, 23.217, 24.589, 27.415, 27.245, 27.77, 23.66, 27.591, 27.389, 25.304, 27.745, 24.52, 23.702, 20.443, 21.729, 25.268, 27.965, 23.681, 23.365, 27.482, 27.241, 24.201, 27.761, 23.378, 27.61, 21.226, 27.532, 20.085, 27.192, 22.357, 27.295, 23.443, 24.76, 27.561, 24.128, 23.654, 27.634, 23.97, 26.192, 27.348, 27.669, 19.262, 23.966, 23.461, 26.914, 20.987, 26.815, 27.416, 23.947, 25.581, 27.436, 27.507, 27.724, 23.696, 21.04, 24.089, 27.749, 27.64, 27.46, 18.171, 27.85, 27.133, 27.689, 26.958, 23.695, 24.869, 26.874, 27.621, 27.091, 27.734, 23.436, 27.715, 26.456, 23.837, 27.289, 27.535],
  "Optimizer iterations": 88,
  "Optimizer params": [0.14330852354506435, 0.37965909783516855, 0.7414067423997626, 1.0, 0.10157830036462379, 0.9878134606371465],
  "P": 3,
  "Problem": "MIS",
  "QPU": "7000000",
  "Qubits": 8,
  "Shots": 4096,
  "Size": 5,
  "Total Algorithm duration [s]": 2.242,
  "Total Classic duration [s]": 2.0842773,
  "Total Quantum duration [s]": 0.1577227
}
