{
  "Depth": 287.0,
  "Expectation Value": -1.0,
  "Job durations [ms]": [1.7363000000000002, 1.8305, 1.7546, 1.7205, 1.7189, 1.8222, 2.0713, 1.873, 1.8024, 1.929, 1.7687, 1.7489999999999999, 1.736, 1.7525, 1.7528000000000001, 1.756, 1.8525, 1.8301, 1.7606, 1.7348000000000001, 1.7262, 1.8216, 1.7478, 1.8795000000000002, 1.8295, 1.7601, 1.7233, 1.8427, 1.75, 1.7743, 1.7705, 1.9296, 1.7502, 1.7461, 1.7347000000000001, 1.739, 1.8277, 1.7125000000000001, 1.7511, 1.685, 1.6872, 1.828, 1.7650000000000001, 1.7251, 1.7, 1.9870999999999999, 1.7521, 1.5567, 1.8526, 1.7423, 1.5383, 1.9374, 1.7638, 1.8140999999999998, 2.0296, 1.9827, 2.0004, 1.9657, 1.7181, 1.7278, 1.8457000000000001, 1.732, 1.7384],
  "Optimal Expectation Value": -1.0,
  "Optimizer durations [ms]": [27.651, 23.693, 27.488, 27.239, 27.45, 23.812, 23.259, 24.065, 28.244, 24.362, 25.9, 27.707, 27.675, 27.467, 24.754, 27.513, 24.152, 23.505, 25.018, 27.775, 27.393, 23.335, 27.694, 24.392, 20.656, 27.765, 27.181, 23.99, 24.547, 28.158, 27.99, 24.114, 24.631, 25.496, 27.55, 27.576, 28.438, 24.193, 27.859, 27.014, 27.307, 20.643, 27.896, 27.522, 27.353, 27.376, 27.791, 18.145, 21.274, 27.568, 20.697, 24.208, 27.935, 23.295, 27.06, 27.018, 27.1, 24.88, 27.56, 27.369, 20.4, 22.916, 27.505],
  "Optimizer iterations": 63,
  "Optimizer params": [0.2291126687055442, 0.2815127372741699, 0.45157992055704055, 0.8588625091844153, 0.3310778228464104, 0.1014917033866674],
  "P": 3,
  "Problem": "MIS",
  "QPU": "7000000",
  "Qubits": 8,
  "Shots": 4096,
  "Size": 5,
  "Total Algorithm duration [s]": 1.619,
  "Total Classic duration [s]": 1.5061568,
  "Total Quantum duration [s]": 0.11284319999999999
}
