{
  "Depth": 287.0,
  "Expectation Value": -1.0,
  "Job durations [ms]": [1.7737, 1.8313, 1.7449, 1.8649, 1.8586, 1.7598, 1.5549, 1.7651, 1.841, 1.7332999999999998, 1.835, 1.7256, 1.7864, 1.8441, 1.8149, 1.7049999999999998, 1.7165, 1.8344, 1.7097, 1.8491, 1.7471999999999999, 1.7708000000000002, 1.7609, 1.7341, 1.8500999999999999, 1.7481, 1.9300000000000002, 1.8458999999999999, 1.7463, 1.7412, 1.9271, 1.7417, 1.8058, 1.699, 1.8105, 1.6464999999999999, 2.0763000000000003, 1.7242, 1.5532, 1.6818, 1.9018, 1.706, 1.73, 1.7364, 1.7227, 1.9747, 1.7478, 1.7584, 1.8259999999999998, 1.7115, 1.7487, 1.737, 1.8508, 1.7149, 1.7522, 1.7688000000000001, 1.8178, 1.9884999999999997, 1.76, 1.8377999999999999, 1.7596999999999998, 1.7209, 1.9637, 1.7103000000000002, 1.8197, 1.8066, 2.0176, 1.7883, 1.7194, 1.7684, 1.7133999999999998, 1.7362, 1.7209, 1.6374, 1.8595000000000002, 1.7213, 1.7431, 1.7233, 2.0749, 1.7481, 1.7577, 1.9946, 1.7451, 1.7925, 1.8366, 1.8227, 1.8362999999999998, 1.5943, 1.7184, 2.0014, 1.825, 1.7987000000000002, 1.7973, 1.8127, 1.739, 1.7971000000000001],
  "Optimal Expectation Value": -1.0,
  "Optimizer durations [ms]": [27.903, 23.756, 27.591, 24.111, 23.994, 27.654, 18.16, 27.765, 23.586, 27.779, 23.474, 27.329, 27.903, 20.066, 21.475, 27.212, 24.272, 23.637, 27.371, 23.846, 24.878, 23.956, 22.865, 27.317, 23.91, 25.034, 24.666, 23.92, 27.672, 24.715, 24.941, 27.545, 23.493, 27.109, 23.504, 21.904, 24.903, 24.892, 18.505, 26.043, 26.393, 27.207, 25.679, 27.261, 27.317, 27.301, 24.837, 23.99, 25.551, 23.862, 27.672, 27.528, 23.942, 24.912, 27.805, 27.752, 23.104, 25.172, 27.52, 23.855, 27.719, 27.465, 23.834, 27.606, 23.617, 23.395, 24.573, 28.074, 27.169, 27.933, 24.168, 27.465, 27.289, 26.46, 19.41, 23.925, 27.676, 27.447, 24.644, 27.795, 27.778, 26.567, 24.891, 27.973, 23.715, 23.619, 23.695, 21.356, 27.31, 22.636, 20.094, 23.22, 23.328, 26.886, 26.427, 27.063],
  "Optimizer iterations": 96,
  "Optimizer params": [0.9976208890487936, 0.3166578837498798, 0.9910890070158794, 0.9994522714735681, 0.7937762364016226, 0.5012438120853846],
  "P": 3,
  "Problem": "MIS",
  "QPU": "7000000",
  "Qubits": 8,
  "Shots": 4096,
  "Size": 5,
  "Total Algorithm duration [s]": 2.423,
  "Total Classic duration [s]": 2.2514972,
  "Total Quantum duration [s]": 0.1715028
}
