{
  "Depth": 287.0,
  "Expectation Value": -1.0,
  "Job durations [ms]": [1.807, 1.7754999999999999, 1.7321000000000002, 1.7438, 1.8293000000000001, 1.7509, 1.8361, 1.6951, 1.9511, 1.7862, 1.7803, 1.7389000000000001, 1.868, 1.8009, 1.8769, 1.7441, 1.7544, 1.8027, 1.8760999999999999, 1.7407, 1.7376, 1.8267, 1.7607, 1.7348000000000001, 1.8253, 2.0875, 1.7442, 1.742, 1.8573000000000002, 1.8356, 1.653, 1.8519999999999999, 1.7721, 1.8437, 1.7355, 1.8348, 1.8568, 1.8648, 1.7062, 1.692, 1.9082999999999999, 2.1349, 1.8039, 1.7823, 1.7516999999999998, 1.7197, 1.7437, 1.8002, 1.9816999999999998, 1.719, 1.7455, 1.8029000000000002, 1.7163, 1.9234, 1.8523999999999998, 1.8558, 1.7516999999999998, 1.7432, 1.7213, 1.8274000000000001, 1.7199, 1.8262, 1.746, 1.8021, 1.8232000000000002, 1.7286000000000001, 1.7493, 1.8484, 1.7425, 1.7249999999999999, 1.8668, 1.7477, 1.7881, 1.8325],
  "Optimal Expectation Value": -1.0,
  "Optimizer durations [ms]": [28.145, 27.759, 27.769, 24.636, 23.866, 27.781, 23.587, 27.369, 26.937, 24.779, 28.076, 27.415, 24.282, 23.475, 23.99, 27.765, 27.804, 21.875, 23.005, 27.471, 27.666, 22.593, 25.382, 27.494, 23.78, 25.134, 26.413, 27.741, 24.016, 23.776, 19.234, 23.469, 27.677, 23.834, 24.112, 24.024, 23.714, 21.216, 26.969, 27.427, 24.177, 24.035, 20.968, 25.797, 25.809, 27.522, 27.745, 23.315, 24.414, 27.375, 27.525, 28.225, 23.874, 24.64, 24.133, 26.675, 25.675, 23.182, 27.343, 26.816, 27.255, 21.07, 27.787, 19.038, 23.359, 27.407, 27.687, 23.731, 27.756, 27.506, 24.015, 27.559, 28.147, 20.821],
  "Optimizer iterations": 74,
  "Optimizer params": [0.1452614218863886, 0.6247653658105136, 0.847795696251886, 0.4621148082763237, 0.3284960845704179, 0.9775290287754858],
  "P": 3,
  "Problem": "MIS",
  "QPU": "7000000",
  "Qubits": 8,
  "Shots": 4096,
  "Size": 5,
  "Total Algorithm duration [s]": 1.875,
  "Total Classic duration [s]": 1.7419157,
  "Total Quantum duration [s]": 0.13308430000000002
}
