{
  "Depth": 32.0,
  "Expectation Value": -1.73779296875,
  "Job durations [ms]": [4543.217658996582, 4699.231386184692, 4810.189962387085, 4528.324842453003, 4542.591094970703, 5020.790815353394, 4425.623178482056, 4527.3027420043945, 4472.350120544434, 4500.463485717773, 4541.387319564819, 4469.189882278442, 4706.186056137085, 4482.317924499512, 4625.539541244507, 4653.770446777344, 4580.540657043457, 4477.120399475098, 4490.98539352417, 4538.965463638306, 4449.837446212769, 4543.072700500488, 4633.628129959106, 4507.558345794678, 4357.888221740723, 4637.101888656616, 4485.071420669556, 4527.8167724609375, 4525.628566741943, 4462.045907974243, 4473.426818847656, 4647.241592407227, 4740.04340171814, 4579.281568527222, 4469.536781311035, 4835.211515426636, 4813.481092453003, 4721.219778060913, 4358.336448669434, 4515.398979187012, 4445.866107940674, 4408.928871154785, 4443.985939025879, 4481.066942214966, 4445.358037948608, 4499.040126800537, 4529.061555862427, 4472.575426101685, 4571.830272674561, 4384.733200073242, 4659.575939178467, 4462.241888046265, 4615.2660846710205, 4446.229457855225, 4602.27370262146, 4776.3800621032715, 4567.686080932617, 4690.028429031372, 4484.711408615112, 4622.65944480896, 4602.1130084991455, 4463.198184967041, 4602.41436958313, 4489.185810089111, 4545.228958129883, 4628.9660930633545, 4431.195259094238, 4505.281448364258, 4531.991720199585, 4560.140132904053, 4654.004812240601, 4429.174184799194, 4298.21515083313, 4677.339792251587, 4576.289653778076, 4615.832328796387, 4506.016969680786, 4842.698335647583, 4689.993381500244, 4545.177698135376, 4544.228315353394, 4665.739059448242, 4857.006311416626, 4502.598762512207, 4475.999116897583],
  "Optimal Expectation Value": -2.0,
  "Optimizer durations [ms]": [20567.469, 19633.69, 19750.334, 20450.192, 19400.814, 20193.635, 20284.045, 20197.167, 19368.83, 20410.329, 20671.15, 19848.458, 19019.8, 20059.89, 20439.693, 19936.515, 19878.139, 19647.027, 20659.913, 19574.9, 20375.824, 19297.995, 20758.285, 19464.104, 19995.836, 20186.746, 20258.362, 19495.092, 20847.415, 18992.617, 20714.574, 20250.844, 19754.029, 19711.997, 19889.54, 19869.084, 20255.954, 22814.323, 17427.156, 24296.7, 15554.285, 19776.889, 19691.318, 20248.523, 19801.597, 20276.45, 23907.497, 15709.725, 20661.881, 19664.924, 20264.097, 19794.735, 20301.401, 19512.679, 20992.475, 140180.947, 19295.819, 19781.413, 20377.953, 19559.558, 20539.588, 20383.208, 19885.108, 19141.622, 19782.414, 20238.945, 22050.319, 18115.629, 20037.338, 21522.977, 19559.293, 18799.251, 20673.927, 19992.407, 18905.172, 20473.233, 19961.225, 20492.904, 20579.115, 19953.019, 18946.84, 20222.662, 20719.08, 18907.786, 20246.756],
  "Optimizer iterations": 85,
  "Optimizer params": [0.678761284716284, 0.9066830365897894, 0.46240467352107667, 0.7503582671853717, 0.6220755238566381, 0.03736544090511162],
  "P": 3,
  "Problem": "MCP",
  "QPU": "402002E",
  "Qubits": 3,
  "Shots": 4096,
  "Size": 3,
  "Total Algorithm duration [s]": 1820.132,
  "Total Classic duration [s]": 1432.363556415558,
  "Total Quantum duration [s]": 387.76844358444214
}
