{
  "Depth": 686.0,
  "Expectation Value": -3.2797529697418213,
  "Job durations [ms]": [5.0138, 4.9191, 4.9598, 4.9346, 4.904999999999999, 4.934799999999999, 4.9226, 4.8992, 5.0668, 4.763, 5.0264999999999995, 4.9493, 5.0008, 4.8942, 4.9273, 4.9403, 4.9221, 4.9611, 4.9211, 4.9524, 4.9668, 4.981, 4.9059, 4.9572, 4.9996, 4.9417, 4.915, 4.9062, 5.2004, 4.7292000000000005, 4.9222, 4.944999999999999, 4.9381, 4.9449000000000005, 4.9046, 4.8747, 4.8596, 4.922499999999999, 4.9086, 4.9064, 4.897399999999999, 4.897, 4.898300000000001, 4.926200000000001, 4.9604, 4.9385, 4.9673, 4.9402, 5.0079, 4.9203, 4.9750000000000005, 4.95, 4.6686000000000005, 5.0512999999999995, 4.7568, 4.9911, 4.9638, 4.9251, 4.937600000000001, 5.0352, 4.9215, 4.959899999999999, 4.9589, 4.9235, 4.8862000000000005, 4.9823, 4.9661, 5.1024, 5.1239, 4.9498, 4.948799999999999, 4.9353, 4.9197, 4.953, 4.942, 4.9316, 4.940499999999999, 4.9372, 4.9695, 4.9157, 4.9474, 4.9940999999999995, 4.931299999999999, 4.9671, 4.948799999999999, 4.9402, 4.9119, 5.1309, 4.7603, 5.0194, 4.9968, 5.0613, 4.9608, 4.9748, 4.963900000000001, 4.9388000000000005, 4.8757, 4.902100000000001, 4.954400000000001, 4.9379, 4.9298, 4.9624, 4.924600000000001, 4.9333, 5.4531, 5.209499999999999, 5.5248, 5.1802, 4.8585, 5.1850000000000005, 4.9451, 5.460999999999999, 5.0811, 5.2202, 5.7289, 5.5541, 5.0625, 4.9939, 5.399100000000001, 5.3326, 5.0026, 5.485399999999999, 5.5239, 5.4714, 5.023, 5.0469, 5.4059, 5.3364, 5.4549, 5.4986999999999995, 5.1794, 5.0523, 4.948799999999999, 4.9378, 4.9484, 4.9628, 4.909400000000001, 4.9306, 4.993799999999999, 4.9708, 4.8946, 4.8814, 4.9966, 5.1736, 4.6948, 4.9216, 4.8418, 4.940499999999999, 4.9364, 4.8865, 4.9754, 5.0234, 5.001, 4.9233, 4.9878, 4.9828, 4.9753, 5.2116999999999996, 4.9516, 4.9326],
  "Optimal Expectation Value": -4.0,
  "Optimizer durations [ms]": [51.233, 50.228, 50.772, 50.513, 50.121, 50.54, 50.455, 49.995, 52.043, 57.177, 51.418, 50.862, 51.145, 50.165, 50.3, 50.727, 50.279, 50.7, 50.413, 50.657, 53.297, 51.083, 50.088, 50.551, 51.128, 50.749, 50.333, 50.369, 53.093, 54.546, 50.427, 50.78, 50.577, 50.451, 50.315, 50.09, 50.619, 50.18, 50.166, 50.366, 50.299, 50.181, 50.112, 50.442, 50.902, 50.63, 51.009, 51.351, 53.47, 50.185, 51.108, 50.75, 57.691, 51.846, 57.581, 50.925, 51.002, 50.248, 50.634, 51.566, 50.41, 50.718, 50.938, 50.46, 49.968, 50.844, 50.831, 52.114, 57.898, 50.593, 50.649, 50.376, 50.287, 50.775, 50.434, 50.399, 50.592, 50.569, 50.84, 54.627, 50.544, 51.03, 50.526, 50.841, 50.605, 50.58, 50.1, 52.334, 55.384, 51.489, 51.372, 51.855, 50.958, 50.793, 50.916, 50.599, 49.985, 50.207, 50.629, 50.593, 50.566, 50.759, 50.502, 50.411, 56.142, 62.12, 64.123, 63.255, 59.578, 53.893, 56.664, 55.755, 57.153, 63.009, 60.809, 60.945, 61.615, 56.719, 55.238, 54.517, 51.379, 56.248, 56.318, 56.139, 56.779, 51.69, 55.399, 54.913, 55.717, 56.278, 53.127, 51.9, 50.801, 50.533, 50.467, 50.616, 50.342, 50.5, 50.92, 50.947, 50.169, 49.938, 51.002, 53.116, 53.639, 50.541, 49.689, 50.404, 50.324, 50.114, 50.965, 51.647, 51.261, 50.472, 50.878, 51.663, 50.937, 53.327, 50.737, 50.292],
  "Optimizer iterations": 160,
  "Optimizer params": [0.5505114449818893, 0.9273690835258414, 0.9098337365754677, 0.496357623221804, 0.9999999999999999, 1.0],
  "P": 3,
  "Problem": "MIS",
  "QPU": "7000000",
  "Qubits": 15,
  "Shots": 4096,
  "Size": 12,
  "Total Algorithm duration [s]": 8.342,
  "Total Classic duration [s]": 7.541507300000001,
  "Total Quantum duration [s]": 0.8004927
}
