{
  "Circuit execution durations [ms]": [46.63801193237305, 47.064781188964844, 46.90384864807129, 47.0433235168457, 46.87857627868652, 46.84877395629883, 46.97227478027344, 47.127485275268555, 46.872615814208984, 47.07741737365723, 46.98634147644043, 46.89359664916992, 46.9365119934082, 47.14822769165039, 47.10865020751953, 46.915531158447266, 47.14155197143555, 47.17707633972168, 47.00970649719238, 47.03783988952637, 47.019243240356445, 47.15371131896973, 46.97704315185547, 46.80299758911133, 47.03068733215332, 46.94652557373047, 46.98514938354492, 46.758413314819336, 47.04022407531738, 47.39069938659668, 46.90217971801758, 46.91267013549805, 47.083377838134766, 47.06907272338867, 47.016143798828125, 46.62585258483887, 47.31273651123047, 46.8297004699707, 47.1651554107666, 46.944379806518555, 46.948909759521484, 46.81253433227539, 47.00040817260742, 47.019004821777344, 46.942949295043945, 47.06382751464844, 46.77462577819824, 46.965837478637695, 47.103166580200195, 46.845436096191406, 46.7984676361084, 47.464609146118164, 47.194480895996094, 46.8292236328125, 47.052860260009766, 47.077178955078125, 46.91457748413086, 47.0118522644043, 46.94843292236328, 47.11413383483887, 47.06311225891113, 47.01948165893555, 47.03235626220703, 47.17564582824707, 47.098398208618164, 47.7747917175293, 47.02162742614746, 46.99826240539551, 47.34015464782715, 47.2865104675293, 46.89383506774902, 47.23334312438965, 46.827077865600586, 46.804189682006836, 47.19948768615723, 47.2719669342041, 46.99444770812988, 47.12033271789551, 47.14059829711914, 46.90957069396973, 47.18208312988281, 47.081947326660156, 46.95940017700195, 46.93150520324707, 47.044992446899414, 46.94771766662598, 47.17564582824707, 46.86260223388672, 46.853065490722656, 46.8297004699707, 47.01566696166992, 46.929359436035156, 46.86689376831055, 47.1649169921875, 47.698974609375, 47.086477279663086, 46.936988830566406, 47.0118522644043, 46.83351516723633, 46.810150146484375, 46.88310623168945, 47.03664779663086],
  "Depth": 629.0,
  "Expectation Value": -2.89501953125,
  "Optimal Expectation Value": -3.0,
  "Optimizer durations [ms]": [523.854, 517.265, 434.492, 520.559, 520.674, 436.196, 521.772, 517.818, 433.691, 519.086, 519.545, 436.146, 518.604, 519.863, 432.504, 523.198, 521.426, 434.977, 520.531, 522.18, 437.161, 517.314, 515.141, 436.398, 513.671, 518.904, 437.045, 519.613, 515.366, 518.027, 437.201, 524.356, 517.51, 432.72, 523.849, 520.379, 433.02, 519.829, 518.678, 433.008, 518.787, 516.008, 432.603, 518.816, 518.178, 432.86, 519.712, 518.573, 432.66, 520.333, 520.838, 434.365, 518.118, 516.042, 432.645, 514.277, 514.226, 435.609, 516.962, 515.086, 518.763, 433.26, 522.26, 519.221, 437.137, 521.619, 518.956, 432.377, 522.53, 520.774, 437.314, 520.58, 516.688, 435.147, 519.496, 520.623, 436.132, 526.077, 520.875, 435.06, 521.165, 518.434, 432.546, 518.101, 518.984, 435.834, 515.633, 520.323, 437.278, 520.889, 518.428, 518.793, 432.285, 520.271, 523.202, 440.518, 520.468, 521.904, 433.027, 519.542, 519.139, 433.456],
  "Optimizer iterations": 102,
  "Optimizer params": [1.0, 0.1377411633351307, 0.023321704501742913, 0.8597305657494144, 0.2080658387311317, 0.14139684812997744],
  "P": 3,
  "Problem": "MIS",
  "QJob durations [ms]": [301.0711669921875, 383.46171379089355, 300.4467487335205, 298.0070114135742, 386.2934112548828, 301.4519214630127, 300.66514015197754, 383.9418888092041, 298.94542694091797, 299.8173236846924, 384.6707344055176, 301.03015899658203, 298.1686592102051, 384.25254821777344, 297.93429374694824, 300.95863342285156, 386.2020969390869, 300.1868724822998, 297.76668548583984, 386.34347915649414, 301.87535285949707, 297.9307174682617, 298.8579273223877, 300.45413970947266, 296.9839572906494, 301.65886878967285, 301.358699798584, 301.3761043548584, 298.71058464050293, 382.98511505126953, 301.8338680267334, 301.2075424194336, 383.7428092956543, 298.6934185028076, 298.61927032470703, 385.0436210632324, 298.2056140899658, 299.0860939025879, 384.16481018066406, 298.6571788787842, 298.24352264404297, 381.8378448486328, 298.30217361450195, 298.3832359313965, 383.3143711090088, 298.68626594543457, 297.94812202453613, 384.411096572876, 298.3074188232422, 297.95265197753906, 385.69188117980957, 299.591064453125, 297.69444465637207, 299.17168617248535, 298.11668395996094, 297.67465591430664, 298.77495765686035, 300.7986545562744, 298.73037338256836, 299.06153678894043, 384.1686248779297, 298.05707931518555, 299.6249198913574, 384.1683864593506, 301.95021629333496, 299.06487464904785, 384.14835929870605, 298.25544357299805, 300.9488582611084, 385.21885871887207, 301.1949062347412, 299.99685287475586, 382.83324241638184, 299.8616695404053, 298.54702949523926, 385.5776786804199, 301.64170265197754, 302.0055294036865, 385.4539394378662, 300.31585693359375, 298.16508293151855, 383.9085102081299, 298.25305938720703, 299.3032932281494, 301.0404109954834, 300.9037971496582, 298.26831817626953, 302.03938484191895, 301.68867111206055, 301.0289669036865, 301.74827575683594, 384.0060234069824, 297.8229522705078, 297.95169830322266, 385.67304611206055, 304.3384552001953, 297.8522777557373, 386.8565559387207, 298.6757755279541, 298.27094078063965, 384.36150550842285, 298.8903522491455],
  "QPU": "3010008",
  "Qubits": 14,
  "Queue durations [ms]": [0.0, 0.0, 0.0, 0.0, 0.0, 0.0, 0.0, 0.0, 0.0, 0.0, 0.0, 0.0, 0.0, 0.0, 0.0, 0.0, 0.0, 0.0, 0.0, 0.0, 0.0, 0.0, 0.0, 0.0, 0.0, 0.0, 0.0, 0.0, 0.0, 0.0, 0.0, 0.0, 0.0, 0.0, 0.0, 0.0, 0.0, 0.0, 0.0, 0.0, 0.0, 0.0, 0.0, 0.0, 0.0, 0.0, 0.0, 0.0, 0.0, 0.0, 0.0, 0.0, 0.0, 0.0, 0.0, 0.0, 0.0, 0.0, 0.0, 0.0, 0.0, 0.0, 0.0, 0.0, 0.0, 0.0, 0.0, 0.0, 0.0, 0.0, 0.0, 0.0, 0.0, 0.0, 0.0, 0.0, 0.0, 0.0, 0.0, 0.0, 0.0, 0.0, 0.0, 0.0, 0.0, 0.0, 0.0, 0.0, 0.0, 0.0, 0.0, 0.0, 0.0, 0.0, 0.0, 0.0, 0.0, 0.0, 0.0, 0.0, 0.0, 0.0],
  "Shots": 4096,
  "Size": 11,
  "Total Algorithm duration [s]": 50.185,
  "Total Classic duration [s]": 17.335164365768435,
  "Total Quantum duration [s]": 32.84983563423157
}
