{
  "Depth": 22.5,
  "Expectation Value": -11.725332260131836,
  "Job durations [ms]": [0.5280000041238964, 0.7111999730113894, 0.5271500267554075, 0.6916999991517514, 0.5262999911792576, 0.5211500101722777, 0.5249000096227974, 0.5187499918974936, 0.5303499929141253, 0.5352000007405877, 0.5264999927021563, 0.5140500143170357, 0.5161000153748319, 0.5184999899938703, 0.5182999884709716, 0.531450001290068, 0.5200000014156103, 0.5070500046713278, 0.5147500050952658, 0.5267999949865043, 0.5252000119071454, 0.5242500046733767, 0.526549993082881, 0.5096499953651801, 0.6426500040106475, 0.5157000268809497, 0.6969999813009053, 0.5306499951984733, 0.5535999953281134, 0.5196499987505376, 0.6362000131048262, 0.5262999911792576, 0.5202499887673184, 0.5217500001890585, 0.558649975573644, 0.6977499870117754, 0.7084500102791935, 0.6811499770265073, 0.535300001502037, 0.5262500199023634, 0.529199984157458, 0.554949976503849, 0.5201000021770597, 0.618099991697818, 0.5673999839928001, 0.5140500143170357, 0.6049999792594463, 0.530999997863546, 0.523599999723956, 0.5777000042144209, 0.5307499959599227, 0.6836499960627407, 0.5293000140227377, 0.7209500181488693, 0.45000000682193786, 0.521250010933727, 0.6084500055294484, 0.5212499818298966, 0.5013500194763765, 0.6680500227957964, 0.53190000471659, 0.5156999977771193, 0.5935999797657132, 0.524350005434826, 0.5426499992609024, 0.5187999922782183, 0.5301500204950571, 0.6742000114172697, 0.5221999890636653, 0.5263000202830881, 0.516800006153062, 0.6240499787963927, 0.7132999890018255, 0.5362499796319753, 0.5327999824658036, 0.6336500227916986, 0.5217999860178679, 0.5701499758288264, 0.51045001600869, 0.7184999994933605, 0.5243499763309956, 0.5355500034056604, 0.5157999985385686, 0.5540999991353601, 0.6939500162843615, 0.5911000189371407, 0.5393500032369047, 0.6362000131048262, 0.4975500050932169, 0.523599999723956, 0.524500006577, 0.5813000025227666, 0.6141999911051244, 0.6207500118762255, 0.5491500196512789, 0.5635999841615558, 0.6395500095095485, 0.5423000256996602, 0.5253500130493194, 0.6911000236868858, 0.6056000129319727, 0.5648999940603971, 0.5420000234153122, 0.5344000237528235, 0.526849995367229, 0.5104999872855842, 0.513250008225441, 0.5259500176180154, 0.5243000050541013, 0.5788500129710883, 0.5172999808564782, 0.5252499831840396, 0.5191999953240156, 0.527149997651577, 0.5270500259939581, 0.6844500021543354, 0.5278500029817224, 0.5769999988842756, 0.5196999991312623, 0.5362499796319753, 0.5293999856803566, 0.5172000091988593, 0.5128999764565378, 0.5234500276856124, 0.522399990586564, 0.6212999869603664, 0.52525001228787, 0.6250000151339918, 0.5120499845361337, 0.6544500065501779, 0.69114999496378, 0.6299499946180731, 0.5309499974828213, 0.5699000030290335, 0.5372500163502991, 0.7095499895513058, 0.5284000071696937, 0.7139500230550766, 0.5329999839887023, 0.5191500240471214, 0.7192000048235059, 0.5220499879214913, 0.5204000044614077, 0.5673500127159059, 0.5171500088181347, 0.5477500089909881, 0.6397000106517226, 0.5201000021770597, 0.5136500112712383, 0.535150000359863, 0.6547499797306955, 0.5383499956224114, 0.5185499903745949, 0.6179999909363687, 0.687299994751811, 0.7022999925538898, 0.600049999775365, 0.5923999997321516, 0.524050003150478, 0.5839499935973436, 0.5228999943938106, 0.527900003362447, 0.5250499816611409, 0.5408500146586448, 0.6430500070564449, 0.5190499941818416, 0.5786500114481896, 0.5230999959167093, 0.530849996721372, 0.6939999875612557, 0.5258999881334603, 0.527299998793751, 0.5130500067025423, 0.7145499985199422, 0.5558500124607235, 0.6850500067230314, 0.5358000053092837, 0.6716499920003116, 0.686699990183115, 0.5369499849621207, 0.5210000090301037, 0.5047000158810988, 0.526249990798533, 0.524200004292652, 0.5362500087358057, 0.5232499970588833, 0.528350006788969, 0.5462999979499727, 0.5227000219747424, 0.5296999879647046, 0.590000010561198, 0.5679500172846019, 0.5855000053998083, 0.5294499860610813, 0.5329500127118081, 0.496899985591881, 0.7054500165395439, 0.5266000225674361, 0.521100009791553, 0.5141000146977603, 0.547849980648607, 0.530099991010502, 0.5239500023890287, 0.5032999906688929, 0.528650009073317, 0.5233999982010573, 0.6402000144589692, 0.675299990689382, 0.6859000131953508, 0.534549995791167, 0.6153499998617917, 0.5987000185996294, 0.5967500037513673, 0.5331500142347068, 0.5251500115264207, 0.6196499743964523, 0.6680000224150717, 0.5117499968037009, 0.5643500189762563, 0.5800999933853745, 0.535150000359863, 0.5339000199455768, 0.5175000114832073, 0.661850004689768, 0.6704000115860254, 0.5189499934203923, 0.5231999966781586, 0.5630999803543091, 0.5124000017531216, 0.5110500060254708, 0.5164499889360741, 0.5156500119483098, 0.5181999877095222, 0.6143000209704041, 0.6677000201307237, 0.6279500084929168, 0.6802499992772937, 0.5828999856021255, 0.5320499767549336, 0.522849994013086, 0.5278000026009977, 0.5125499883433804, 0.5269500252325088, 0.5699000030290335, 0.5297499883454293, 0.5586500046774745, 0.5233999982010573, 0.5133500089868903, 0.5339999916031957, 0.5176999839022756, 0.5162499874131754, 0.5149999924469739, 0.5229499947745353, 0.6327499868348241, 0.5315500020515174, 0.5235499993432313, 0.5281500052660704, 0.5304499936755747, 0.5609999934677035, 0.5390000005718321, 0.7123000104911625, 0.5298499891068786, 0.5335000168997794, 0.5300500197336078, 0.5658500012941658, 0.528650009073317, 0.6853000086266547, 0.6272500031627715, 0.5299000185914338, 0.5233499978203326, 0.536149978870526, 0.5337499896995723, 0.5956999957561493, 0.5209000082686543, 0.5736000020988286, 0.5836000200361013, 0.5329000123310834, 0.5196999991312623, 0.5099999834783375, 0.5247999797575176, 0.521100009791553, 0.674450013320893, 0.6852000078652054, 0.5250000103842467, 0.5614499968942255, 0.5303499929141253, 0.5332500149961561, 0.5326500104274601, 0.7362000178545713, 0.512350001372397, 0.5149999924469739, 0.5285499792080373, 0.5243499763309956, 0.5142499867361039, 0.5232000257819891, 0.520650006365031, 0.68964998354204, 0.5263000202830881, 0.6969999813009053, 0.523299997439608, 0.5640000163111836, 0.5298999894876033, 0.524050003150478, 0.5611999949906021, 0.5437000072561204, 0.5086499877506867, 0.5381500086514279, 0.6891000084578991, 0.513250008225441, 0.51635000272654, 0.5183499888516963, 0.5220999883022159, 0.5267999949865043, 0.7006999803707004, 0.523900002008304, 0.6408999906852841, 0.519599998369813, 0.5192500248085707, 0.5267499946057796, 0.5636999849230051, 0.6469000072684139, 0.5682499904651195, 0.5264499923214316, 0.6249500147532672, 0.575200014282018, 0.5913499917369336, 0.521400012075901, 0.662150006974116, 0.5325499805621803, 0.5248999805189669, 0.5323500081431121, 0.5195499979890883, 0.5271999980323017, 0.5266000225674361, 0.5425999988801777, 0.6965000065974891, 0.5786500114481896, 0.7074500026647002, 0.5403500108513981, 0.5554999806918204, 0.5180999869480729, 0.6682999955955893, 0.5441000103019178, 0.7057999901007861, 0.5327500111889094, 0.6653000018559396, 0.7118000066839159, 0.525400013430044, 0.6199500057846308, 0.5798500205855817, 0.7023999933153391, 0.5368499842006713, 0.5174999823793769, 0.7433499849867076, 0.5240999744273722, 0.5176999839022756, 0.519299996085465, 0.7068999984767288, 0.5810500006191432, 0.5641999887302518, 0.5275500006973743, 0.5137500120326877, 0.6204500095918775, 0.6343999993987381, 0.5252499831840396, 0.530099991010502, 0.5538499972317368, 0.5460000247694552, 0.5628499784506857, 0.5572999943979084, 0.5574499955400825, 0.5344000237528235, 0.527449999935925, 0.5269499961286783, 0.5276500014588237, 0.526849995367229, 0.5805999971926212, 0.5215999844949692, 0.7050499843899161, 0.5194000259507447, 0.6206500111147761, 0.6426500040106475, 0.5758999905083328, 0.5677499866578728, 0.524500006577, 0.5114999949000776, 0.6740500102750957, 0.7526999979745597, 0.5287000094540417, 0.5324500089045614, 0.524350005434826, 0.5254999850876629, 0.6491999956779182, 0.621499988483265, 0.5558000120799989, 0.5141000001458451, 0.5793000163976103, 0.5173500103410333, 0.5352000007405877, 0.6981999904382974, 0.5601500160992146, 0.5166000046301633, 0.516800006153062, 0.5217999860178679, 0.6665999826509506, 0.5338499904610217, 0.5111500067869201, 0.7221499981824309, 0.6431000074371696, 0.5151500226929784, 0.5167500057723373, 0.5673999839928001, 0.4588499868987128, 0.5115499952808022, 0.5299000185914338, 0.5379999929573387, 0.5176000122446567, 0.5222000036155805, 0.5178499995963648, 0.5164000031072646, 0.5132499936735258, 0.5396000051405281, 0.5295999872032553, 0.5378000205382705, 0.5128499906277284, 0.49604999367147684, 0.5317000031936914, 0.5245500069577247, 0.7152499747462571, 0.5216999852564186, 0.5286000086925924, 0.5502999993041158, 0.7261499995365739, 0.5665000062435865, 0.5296000163070858, 0.524200004292652, 0.5209499795455486, 0.5156499973963946, 0.5176499835215509, 0.5195500125410035, 0.5576499970629811, 0.5361500079743564, 0.6343999993987381, 0.601250008912757, 0.5131000216351822, 0.5210499803069979, 0.5269000248517841, 0.535300001502037, 0.5139499844517559, 0.523449998581782, 0.5232499970588833, 0.524800008861348, 0.5846499989274889, 0.5204499757383019, 0.5250499962130561, 0.6467500061262399, 0.6575000006705523, 0.5288000102154911, 0.5601500160992146, 0.5534500232897699, 0.7201499829534441, 0.6286499847192317, 0.46454998664557934, 0.5628000071737915, 0.5352500011213124, 0.5253999988781288, 0.5307999963406473, 0.523900002008304, 0.7298999989870936, 0.6197500042617321, 0.6399000121746212, 0.514750019647181, 0.5290499975671992, 0.51785001414828, 0.5284000071696937, 0.5686499935109168, 0.5180499865673482, 0.6178999901749194, 0.5212999822106212, 0.7016500167082995, 0.6391500064637512, 0.6247999845072627, 0.5273999995552003, 0.5323499790392816, 0.5258000164758414, 0.6709499866701663, 0.5242500046733767, 0.603449996560812, 0.5207500071264803, 0.5201500025577843, 0.5288000102154911, 0.6623499793931842, 0.5341999931260943, 0.5386499979067594, 0.5196999991312623, 0.5415999912656844, 0.5262500199023634, 0.5231999966781586, 0.5402500100899488, 0.5894499772693962, 0.6069499941077083, 0.5620000010821968, 0.5883999983780086, 0.7193999772425741, 0.582600012421608, 0.5102500144857913, 0.5676499858964235, 0.6296999927144498, 0.5320000054780394, 0.5637500144075602, 0.5202999891480431, 0.5476500082295388, 0.590750016272068, 0.5813000025227666, 0.5250500107649714, 0.5773500015493482, 0.521250010933727, 0.5594500107690692, 0.5271999980323017, 0.5728999967686832, 0.540149980224669, 0.5358500056900084, 0.5306000239215791, 0.528350006788969, 0.5304499936755747, 0.5823999817948788, 0.5621500022243708, 0.5323499790392816, 0.5609999934677035, 0.5325500096660107, 0.711249973392114, 0.5731999990530312, 0.5230500246398151, 0.5321500066202134, 0.5215499841142446, 0.6326500151772052, 0.5296000163070858, 0.5132999795023352, 0.5304500227794051, 0.5830999871250242, 0.5454499914776534, 0.5187999922782183, 0.5234000127529725, 0.5942499847151339, 0.5149499920662493, 0.6294999911915511, 0.5558000120799989, 0.512650003656745, 0.5248499801382422, 0.6863500166218728, 0.5158499989192933, 0.7153000042308122, 0.534399994648993, 0.5885499995201826, 0.5293000140227377, 0.525949988514185, 0.5151499935891479, 0.5095000087749213, 0.5000499950256199, 0.738300004741177, 0.6350500043481588, 0.5260499892756343, 0.5338999908417463, 0.519749999511987, 0.5602000164799392, 0.7181999972090125, 0.5889000021852553, 0.5537999968510121, 0.5766999965999275, 0.5175000114832073, 0.5270499968901277, 0.5157999985385686, 0.6958000012673438, 0.530999997863546, 0.6145500228740275, 0.7157499785535038, 0.5296000163070858, 0.5173000099603087, 0.5444999842438847, 0.5617499991785735, 0.530699995579198, 0.6753000197932124, 0.5638000147882849, 0.5438000080175698, 0.7020500197540969, 0.5258999881334603, 0.5287000094540417, 0.5306499951984733, 0.5344500241335481, 0.5339000199455768, 0.5172999954083934, 0.5672000115737319, 0.5752500146627426, 0.6969499809201807, 0.6554499850608408, 0.6636000180151314, 0.5188999930396676, 0.5646000208798796, 0.530699995579198, 0.5269499961286783, 0.5299999902490526, 0.5390500009525567, 0.6174500158522278, 0.5358000053092837, 0.590300012845546, 0.6928000075276941, 0.5902500124648213, 0.6928500079084188, 0.5288499814923853, 0.6237500056158751, 0.5230999959167093, 0.6454999966081232, 0.5214999837335199, 0.518300017574802, 0.5198500002734363, 0.5649499944411218, 0.6959000020287931, 0.7243999862112105, 0.6075499986764044, 0.5685499927494675, 0.5147000192664564, 0.6119000026956201, 0.7031999994069338, 0.5245500069577247, 0.5301499913912266, 0.5195499979890883, 0.5297500174492598, 0.5982000147923827, 0.5217999860178679, 0.5248500092420727, 0.7267000037245452, 0.5746499809902161, 0.7385000062640756, 0.5716999876312912, 0.5925500008743256, 0.5579499993473291, 0.5571499932557344, 0.5731499986723065, 0.5738500040024519, 0.5587500054389238, 0.5597500130534172, 0.5630000086966902, 0.5608999927062541, 0.5712500133085996, 0.5545000021811575, 0.5687999946530908, 0.5681499897036701, 0.5730999982915819, 0.5587500054389238, 0.5611000233329833, 0.5637999856844544, 0.5621500022243708, 0.5633000109810382, 0.5651999963447452, 0.5706500087399036, 0.5638499860651791, 0.5555000097956508, 0.6502500036731362, 0.5913999921176583, 0.6255499902181327, 0.5375999899115413, 0.5058499809820205, 0.6358500104397535, 0.6853000086266547, 0.5227999936323613],
  "Optimal Expectation Value": -12.381489753723145,
  "Optimizer durations [ms]": [30.973, 27.748, 26.351, 27.039, 26.639, 27.655, 30.76, 27.518, 24.981, 30.951, 30.882, 27.967, 25.528, 27.968, 25.964, 23.889, 27.074, 30.536, 23.714, 30.168, 28.777, 30.802, 26.248, 30.62, 23.063, 27.68, 24.68, 27.624, 26.374, 30.728, 22.843, 30.929, 27.881, 28.324, 25.286, 26.69, 25.483, 25.975, 27.442, 26.825, 29.974, 22.408, 30.846, 25.277, 23.931, 26.287, 30.316, 24.629, 30.812, 24.996, 26.103, 24.221, 30.284, 25.887, 20.274, 28.689, 30.605, 31.057, 28.506, 25.952, 26.479, 25.15, 27.105, 23.757, 30.665, 28.466, 27.421, 26.443, 28.888, 26.577, 24.094, 26.659, 26.838, 26.485, 30.16, 25.819, 27.823, 29.127, 30.825, 23.425, 31.008, 23.806, 31.047, 24.7, 24.239, 26.403, 29.089, 29.467, 30.294, 24.869, 26.002, 25.026, 27.18, 25.851, 28.967, 29.095, 28.747, 26.335, 30.998, 26.484, 30.389, 19.488, 26.609, 27.623, 29.891, 24.692, 26.05, 30.053, 23.081, 30.442, 29.806, 26.244, 28.437, 25.864, 21.953, 30.549, 31.051, 23.443, 31.061, 27.645, 24.725, 30.925, 24.334, 23.876, 25.874, 28.771, 27.79, 29.643, 30.858, 26.922, 29.957, 24.446, 26.454, 23.295, 31.241, 22.625, 27.39, 26.585, 22.496, 28.977, 24.456, 28.231, 31.003, 24.675, 26.331, 31.148, 27.735, 29.14, 29.277, 25.148, 29.976, 31.248, 25.259, 30.576, 27.639, 29.634, 25.743, 28.394, 28.614, 29.334, 29.085, 20.468, 30.665, 31.196, 25.546, 31.22, 19.994, 23.947, 26.321, 25.61, 26.627, 25.006, 25.877, 27.225, 28.502, 26.181, 26.846, 30.208, 26.837, 27.715, 30.613, 28.4, 26.192, 27.311, 23.052, 26.425, 25.648, 29.54, 28.157, 26.923, 24.185, 25.163, 27.613, 29.867, 26.584, 30.131, 25.87, 26.307, 27.457, 30.52, 22.753, 29.815, 30.565, 22.331, 30.991, 26.671, 25.558, 30.507, 30.685, 26.303, 25.562, 29.329, 30.621, 28.451, 27.713, 28.816, 23.268, 25.921, 29.53, 28.82, 29.927, 29.258, 28.719, 30.213, 26.557, 30.549, 28.907, 28.078, 30.529, 28.455, 30.39, 29.003, 27.956, 28.295, 25.903, 30.113, 27.886, 24.895, 20.522, 21.867, 29.735, 26.995, 26.088, 25.28, 28.67, 29.88, 31.093, 25.075, 27.614, 24.699, 30.492, 23.926, 25.479, 28.032, 26.869, 26.897, 25.611, 23.77, 19.613, 25.486, 26.122, 27.404, 29.54, 25.191, 27.166, 28.253, 25.91, 30.23, 29.258, 26.838, 30.603, 26.924, 28.53, 26.975, 23.65, 22.632, 28.254, 31.155, 30.711, 27.219, 28.46, 29.318, 27.041, 30.893, 29.589, 30.331, 24.21, 27.499, 26.665, 30.426, 28.223, 30.969, 23.523, 30.799, 25.631, 24.636, 28.019, 29.391, 27.312, 26.382, 24.144, 21.79, 26.654, 22.847, 25.836, 30.035, 30.459, 24.968, 26.544, 26.982, 30.677, 27.41, 28.141, 26.746, 23.882, 29.509, 30.735, 25.738, 28.963, 26.111, 25.652, 24.548, 21.128, 30.305, 27.407, 28.883, 29.317, 30.082, 25.495, 30.781, 23.553, 30.991, 26.076, 28.574, 31.047, 26.994, 21.923, 27.298, 27.736, 28.394, 26.851, 30.112, 30.776, 30.776, 27.508, 30.618, 26.299, 26.601, 26.137, 19.099, 25.899, 26.381, 27.687, 25.61, 28.19, 27.566, 30.276, 25.004, 29.834, 26.721, 31.09, 24.869, 27.176, 30.348, 25.382, 22.32, 16.953, 25.866, 22.501, 24.194, 21.005, 28.82, 30.164, 30.554, 23.312, 24.612, 22.347, 25.868, 30.169, 22.691, 30.114, 25.166, 24.703, 22.376, 26.168, 26.514, 30.411, 17.918, 31.061, 26.919, 25.722, 31.101, 23.731, 25.956, 27.814, 25.768, 23.315, 28.811, 28.845, 30.316, 18.678, 30.873, 26.333, 26.418, 27.481, 27.45, 27.402, 26.064, 25.234, 30.909, 30.752, 26.116, 19.644, 30.222, 30.522, 26.761, 26.457, 31.047, 27.233, 30.384, 30.414, 27.032, 28.81, 29.656, 30.717, 28.49, 23.163, 31.1, 27.995, 30.401, 31.102, 26.44, 24.236, 26.995, 23.35, 26.611, 28.357, 28.588, 28.617, 30.518, 30.602, 30.388, 28.409, 29.139, 26.083, 28.764, 25.264, 30.1, 30.514, 27.028, 25.606, 28.052, 27.345, 21.97, 30.129, 30.45, 29.813, 23.771, 21.968, 23.624, 27.852, 28.178, 20.803, 21.992, 25.079, 30.735, 27.179, 31.115, 26.834, 28.246, 23.225, 25.611, 27.559, 25.539, 31.237, 24.321, 29.495, 30.186, 23.508, 26.212, 29.824, 26.327, 30.766, 28.138, 26.112, 26.409, 30.664, 23.341, 26.835, 27.296, 28.607, 27.604, 31.235, 30.938, 30.73, 23.807, 26.482, 25.806, 25.663, 20.381, 27.348, 26.258, 23.74, 30.272, 28.412, 29.614, 23.918, 28.554, 29.36, 27.876, 22.45, 25.599, 30.389, 28.287, 26.526, 21.048, 30.893, 24.134, 28.147, 22.209, 30.226, 26.468, 26.785, 28.571, 30.461, 28.417, 23.268, 31.256, 22.182, 26.332, 27.896, 30.451, 25.681, 25.974, 26.32, 30.027, 21.011, 28.561, 29.777, 21.181, 28.143, 30.024, 29.481, 23.742, 27.408, 26.616, 23.01, 25.591, 28.573, 30.299, 28.181, 28.63, 29.818, 23.331, 31.13, 27.932, 25.769, 30.846, 27.823, 29.452, 26.631, 27.345, 26.048, 28.308, 28.38, 30.15, 24.105, 24.049, 30.084, 28.495, 25.404, 29.688, 23.334, 30.964, 24.632, 28.394, 25.077, 28.21, 23.445, 22.499, 24.493, 26.416, 20.148, 22.187, 30.676, 27.949, 27.889, 27.995, 30.769, 25.894, 27.069, 24.836, 25.433, 25.717, 28.712, 27.167, 29.456, 28.646, 28.291, 26.178, 21.879, 26.359, 26.567, 31.04, 25.297, 27.195, 30.201, 27.021, 31.191, 22.881, 25.099, 25.38, 25.718, 24.139, 27.125, 22.583, 27.577, 26.636, 30.001, 29.09, 26.529, 23.975, 28.285, 25.203, 26.876, 27.687, 30.874, 27.132, 28.38, 27.04, 27.164, 26.434, 17.116, 11.993, 13.094, 12.034, 16.484, 12.45, 12.117, 12.271, 12.031, 12.143, 12.662, 12.414, 11.983, 12.129, 12.529, 12.397, 11.702, 12.118, 12.239, 12.119, 12.377, 12.287, 12.411, 12.482, 11.848, 14.057, 21.855, 23.81, 24.199, 24.52, 21.895, 22.547, 28.46],
  "Optimizer iterations": 665,
  "Optimizer params": [0.6246633813274521, 0.7531435198648029, 0.8825860291625288, 0.5973132603870538, 0.9138193802899177, 0.5786732725204399, 0.9210416233010846, 0.5739268894455781, 0.928750541362174, 0.5230347464923389, 0.5881368420089945, 0.5082296774788189, 0.48515929615642994, 0.5075802453453513, 0.49166272855972865, 0.5109443987220287, 0.47707914212655306, 0.4832561162654332, 0.5118755819999761, 0.8182522703283708, 0.49592421412823146, 0.5113117389548966, 0.5125491607497626, 0.5059737689895625, 0.5168099523337403, 0.5390403239953934, 0.5419495138967398, 0.5470675863715656, 0.5446238932575402, 0.5377223286427739, 0.5851332838289995, 0.5348002789275812, 0.5214684786159155, 0.5197846587524925, 0.5032244079669423, 0.4956381987432077, 0.526496988094955, 0.5004025263005667, 0.49077288021883403, 0.46767341173047183],
  "P": 0,
  "Problem": "IC",
  "QPU": "7000000",
  "Qubits": 10,
  "Shots": 4096,
  "Size": 10,
  "Total Algorithm duration [s]": 17.686,
  "Total Classic duration [s]": 17.309728149585077,
  "Total Quantum duration [s]": 0.3762718504149234
}
