{
  "Depth": 22.5,
  "Expectation Value": -11.725332260131836,
  "Job durations [ms]": [0.5329000123310834, 0.6089000089559704, 0.5171500088181347, 0.5885499995201826, 0.5285500083118677, 0.6318500090856105, 0.5076499801361933, 0.6881000008434057, 0.5364500102587044, 0.5227499932516366, 0.5218000151216984, 0.5811500013805926, 0.5214999837335199, 0.5258499877527356, 0.5212999967625365, 0.528350006788969, 0.6294499908108264, 0.5629500083159655, 0.534099992364645, 0.6166499806568027, 0.523900002008304, 0.6966500077396631, 0.5288000102154911, 0.5289000109769404, 0.7008000102359802, 0.5922999989707023, 0.5265999934636056, 0.520350004080683, 0.5194999976083636, 0.5292500136420131, 0.5575999966822565, 0.5325499805621803, 0.6352500058710575, 0.6208000122569501, 0.5247500084806234, 0.52964998758398, 0.5165999755263329, 0.5146000039530918, 0.5244000058155507, 0.5786999827250838, 0.519149994943291, 0.6566499941982329, 0.5161499720998108, 0.5213500116951764, 0.5038999952375889, 0.512800004798919, 0.5236500001046807, 0.5164000031072646, 0.5712999845854938, 0.5369500140659511, 0.5278500029817224, 0.5168999778106809, 0.6373499927576631, 0.5337500188034028, 0.5254499847069383, 0.7182499975897372, 0.580400024773553, 0.693799986038357, 0.5412999889813364, 0.5885999999009073, 0.5218499863985926, 0.5724500224459916, 0.6335499929264188, 0.7047999824862927, 0.5338499904610217, 0.5168500065337867, 0.5042999982833862, 0.6743500125594437, 0.6498000002466142, 0.533199985511601, 0.5221000174060464, 0.5620000010821968, 0.5136500112712383, 0.548299984075129, 0.5204500048421323, 0.5324000085238367, 0.5631000094581395, 0.5227499932516366, 0.5670999817084521, 0.6325500144157559, 0.5311999993864447, 0.6875499966554344, 0.5211499810684472, 0.5169499781914055, 0.597250007558614, 0.5201000021770597, 0.49965000653173774, 0.5218499863985926, 0.5276500014588237, 0.679749995470047, 0.5281999765429646, 0.6316500075627118, 0.7237500103656203, 0.5015499918954447, 0.7363000186160207, 0.5335999885573983, 0.6574500002898276, 0.7133500184863806, 0.5372000159695745, 0.6745500140823424, 0.5252999981166795, 0.599599996348843, 0.6630999851040542, 0.524800008861348, 0.5415499908849597, 0.6417499971576035, 0.5057999806012958, 0.5217999860178679, 0.5708000098820776, 0.6082500040065497, 0.5648999940603971, 0.5159499996807426, 0.519149994943291, 0.5208500078879297, 0.5218000151216984, 0.5453999910969287, 0.599299994064495, 0.6007000047247857, 0.5237500154180452, 0.527299998793751, 0.6701499805785716, 0.5355500034056604, 0.5152499943505973, 0.7137499924283475, 0.6622500077355653, 0.5332000146154314, 0.5217999860178679, 0.5700499750673771, 0.6610499985981733, 0.5596499831881374, 0.5282500060275197, 0.5112000071676448, 0.51120002171956, 0.5238000012468547, 0.5151999939698726, 0.5244000058155507, 0.5651499959640205, 0.5688499950338155, 0.5272499984130263, 0.6310500029940158, 0.5304499936755747, 0.5420499946922064, 0.5779500061180443, 0.7144999981392175, 0.5236500001046807, 0.5226500215940177, 0.5578499985858798, 0.5323500081431121, 0.5729499971494079, 0.528200005646795, 0.5244000058155507, 0.5633499822579324, 0.5797000194434077, 0.5235499993432313, 0.5293500144034624, 0.5287000094540417, 0.7055500173009932, 0.7194500067271292, 0.5455499922391027, 0.5273999995552003, 0.6425000028684735, 0.51860001985915, 0.5665000062435865, 0.5255000141914934, 0.5804999964311719, 0.5667500081472099, 0.5204999761190265, 0.5273000278975815, 0.5262000195216388, 0.529349985299632, 0.5168499919818714, 0.5330500134732574, 0.5183500179555267, 0.530249992152676, 0.5304500082274899, 0.45924998994451016, 0.516050000442192, 0.5870499880984426, 0.5225500208325684, 0.5379500216804445, 0.7042000070214272, 0.5196000129217282, 0.523449998581782, 0.5289500113576651, 0.7391999824903905, 0.5493000207934529, 0.6839499983470887, 0.7202999840956181, 0.6157000025268644, 0.675899995258078, 0.537949992576614, 0.525400013430044, 0.5057500093244016, 0.5264999927021563, 0.5867999861948192, 0.5407000135164708, 0.5310000269673765, 0.5208499787840992, 0.5295999872032553, 0.523449998581782, 0.6593000143766403, 0.5818500067107379, 0.5295499868225306, 0.6894499820191413, 0.5352000007405877, 0.5138999840710312, 0.524650007719174, 0.5468500021379441, 0.5025499995099381, 0.5177999992156401, 0.518450018716976, 0.51635000272654, 0.5273000278975815, 0.5141999863553792, 0.53114999900572, 0.5149999924469739, 0.5610999942291528, 0.5115500243846327, 0.5772000004071742, 0.6247000128496438, 0.7334499969147146, 0.5277000018395483, 0.5253499839454889, 0.536599982297048, 0.5363500094972551, 0.523900002008304, 0.5280000041238964, 0.5084500007797033, 0.5353499727789313, 0.7232499774545431, 0.5551999784074724, 0.738000002456829, 0.5247000080998987, 0.5675000138580799, 0.526549993082881, 0.5371499864850193, 0.5129999917699024, 0.5558499833568931, 0.6754000205546618, 0.526849995367229, 0.6392999785020947, 0.5641499883495271, 0.5380499933380634, 0.5641000170726329, 0.5258999881334603, 0.5242499755695462, 0.5247000080998987, 0.728100014384836, 0.5318500043358654, 0.5523999861907214, 0.5235499993432313, 0.6475499831140041, 0.5873499903827906, 0.614699994912371, 0.5253999843262136, 0.6394500087480992, 0.7175999926403165, 0.72825001552701, 0.5214500124566257, 0.5800499930046499, 0.5247500084806234, 0.5173000099603087, 0.595749996136874, 0.5247499793767929, 0.5609999934677035, 0.5249999812804163, 0.530999997863546, 0.6118500023148954, 0.5301499913912266, 0.5145999894011766, 0.7210499898064882, 0.5769499985035509, 0.5433500045910478, 0.5491500196512789, 0.528350006788969, 0.5527499888557941, 0.521550013218075, 0.5185000190977007, 0.5356500041671097, 0.52299999515526, 0.6124000065028667, 0.527750002220273, 0.5333000153768808, 0.5320000054780394, 0.5594000103883445, 0.5215499841142446, 0.5907499871682376, 0.599599996348843, 0.7068499980960041, 0.5676499858964235, 0.5160000000614673, 0.5533499934244901, 0.5338999908417463, 0.6844500021543354, 0.521700014360249, 0.5620000010821968, 0.519299996085465, 0.7003000064287335, 0.7505999819841236, 0.7071500003803521, 0.516500003868714, 0.7111000013537705, 0.519449997227639, 0.7186500006355345, 0.5184999899938703, 0.5219000158831477, 0.5229499947745353, 0.58970000827685, 0.5331000138539821, 0.5771500000264496, 0.6872000230941921, 0.5685999931301922, 0.5264500068733469, 0.502450013300404, 0.5186000053072348, 0.587350019486621, 0.5242500046733767, 0.5248500092420727, 0.5087000026833266, 0.5730999982915819, 0.5973499792162329, 0.5362499796319753, 0.5914499924983829, 0.5280000041238964, 0.5264999927021563, 0.5312499997671694, 0.5349499988369644, 0.6168500112835318, 0.5239500023890287, 0.6055000121705234, 0.6152499991003424, 0.7190000033006072, 0.616899982560426, 0.6319999811239541, 0.5503499996848404, 0.6993499991949648, 0.5187999922782183, 0.6398999830707908, 0.537649990292266, 0.535150000359863, 0.5582000012509525, 0.6101999897509813, 0.5646500212606043, 0.5261500191409141, 0.532749982085079, 0.6962500046938658, 0.52525001228787, 0.52375000086613, 0.5310499982442707, 0.5317000177456066, 0.5550500063691288, 0.5927000020164996, 0.5074499931652099, 0.6356000085361302, 0.6385500018950552, 0.5434500053524971, 0.5151000223122537, 0.5086500023026019, 0.48874999629333615, 0.5619000003207475, 0.534399994648993, 0.5248500092420727, 0.5128499760758132, 0.5899500101804733, 0.603599997702986, 0.5099499976495281, 0.61554997228086, 0.6135500152595341, 0.5320999916875735, 0.5133499944349751, 0.5023500125389546, 0.5106999888084829, 0.5993499944452196, 0.662150006974116, 0.5198499857215211, 0.5238500016275793, 0.5141999863553792, 0.5252999835647643, 0.5165999755263329, 0.5387999990489334, 0.5487999878823757, 0.515899999300018, 0.5153500242158771, 0.5434999766293913, 0.6321500113699585, 0.5145499890204519, 0.5335000168997794, 0.5153999954927713, 0.5683500203303993, 0.5157999985385686, 0.6476999842561781, 0.5325500096660107, 0.6055000121705234, 0.5303500220179558, 0.5312499997671694, 0.5088499892735854, 0.5718500178772956, 0.5384999967645854, 0.5201000021770597, 0.5763999943155795, 0.5249999812804163, 0.524650007719174, 0.6631000142078847, 0.5967500037513673, 0.5181999877095222, 0.5080500122858211, 0.538699998287484, 0.5168999778106809, 0.5266000225674361, 0.5129499768372625, 0.5142499867361039, 0.5200000014156103, 0.5205500056035817, 0.5164499743841588, 0.5118999979458749, 0.5232499970588833, 0.5165499751456082, 0.5259000026853755, 0.5935000081080943, 0.5990999925415963, 0.6719999946653843, 0.5034500209148973, 0.5185499903745949, 0.5162500019650906, 0.7099999929778278, 0.4786000063177198, 0.7044500089250505, 0.5115000094519928, 0.6169000116642565, 0.5814000032842159, 0.5142500158399343, 0.5167500057723373, 0.5198499857215211, 0.5268000240903348, 0.5124500021338463, 0.5247000080998987, 0.5399500078056008, 0.509400008013472, 0.6285500130616128, 0.5165500042494386, 0.5217499856371433, 0.6422500009648502, 0.5298499891068786, 0.5185499903745949, 0.5754999874625355, 0.5196999991312623, 0.5750500131398439, 0.516950007295236, 0.512800004798919, 0.5141499859746546, 0.524650007719174, 0.5107500037411228, 0.5455999926198274, 0.6960499740671366, 0.5735500017181039, 0.521550013218075, 0.5217500147409737, 0.6564999930560589, 0.7022000208962709, 0.6836499960627407, 0.6259500223677605, 0.5617499991785735, 0.5220500170253217, 0.5151499935891479, 0.6880000000819564, 0.5518999823834747, 0.5212999822106212, 0.672950001899153, 0.6627999828197062, 0.5133999802637845, 0.5089000042062253, 0.7295999967027456, 0.5292000132612884, 0.6913999968674034, 0.7135500200092793, 0.6579000037163496, 0.533499987795949, 0.5247499793767929, 0.5137499974807724, 0.5789499846287072, 0.5174499819986522, 0.5257499869912863, 0.5341500218492001, 0.6818000110797584, 0.5213000113144517, 0.5220500170253217, 0.5166000046301633, 0.5149999924469739, 0.5151499935891479, 0.5211499956203625, 0.7037500035949051, 0.610699993558228, 0.520650006365031, 0.5199500010348856, 0.5236500001046807, 0.6230500002857298, 0.5102499999338761, 0.7244499865919352, 0.6224499957170337, 0.5395000043790787, 0.7038000039756298, 0.5259500176180154, 0.517550011863932, 0.5178999854251742, 0.5257499869912863, 0.5250000103842467, 0.6404999876394868, 0.6438500131480396, 0.5321500066202134, 0.5085000011604279, 0.5322000070009381, 0.530549994437024, 0.5254500138107687, 0.6694500043522567, 0.5158499989192933, 0.6304999988060445, 0.5211500101722777, 0.555399979930371, 0.5234999989625067, 0.5207500071264803, 0.6856000109110028, 0.5277000018395483, 0.5291500128805637, 0.5222499894443899, 0.5188000213820487, 0.5148999916855246, 0.5230999959167093, 0.5667499790433794, 0.6385000015143305, 0.731200008885935, 0.5184499896131456, 0.5876999930478632, 0.5360499781090766, 0.5088000034447759, 0.5093500076327473, 0.5116499960422516, 0.6624499801546335, 0.5134499806445092, 0.505700008943677, 0.681100005749613, 0.5984499875921756, 0.5244500061962754, 0.521850015502423, 0.5219499871600419, 0.6337999948300421, 0.6412000220734626, 0.5277000163914636, 0.5125500028952956, 0.5173999816179276, 0.5472500051837415, 0.6842500006314367, 0.5013999907532707, 0.5630500090774149, 0.5145499890204519, 0.6120500038377941, 0.5157499836059287, 0.5079999973531812, 0.5233499978203326, 0.6390000053215772, 0.48904999857768416, 0.528050004504621, 0.5123000155435875, 0.5328000115696341, 0.5184000037843361, 0.5254999850876629, 0.5170999793335795, 0.524650007719174, 0.5446499853860587, 0.5187999922782183, 0.6030499935150146, 0.5402500100899488, 0.5262999911792576, 0.6568999961018562, 0.5154500104254112, 0.5573999951593578, 0.5196499987505376, 0.5212999822106212, 0.5324500089045614, 0.5613499961327761, 0.5588500062003732, 0.5358500056900084, 0.5182500171940774, 0.6169499829411507, 0.5176500126253814, 0.5207500071264803, 0.5614499968942255, 0.6962000043131411, 0.5130000063218176, 0.5188000213820487, 0.5184000037843361, 0.6773000059183687, 0.5006000137655064, 0.5586999759543687, 0.5113500083098188, 0.6571499980054796, 0.6001500005368143, 0.5140499852132052, 0.6525999924633652, 0.5066999874543399, 0.5637499853037298, 0.49855001270771027, 0.5735499726142734, 0.6835499953012913, 0.5784999812021852, 0.681100005749613, 0.5502499989233911, 0.5074000073364004, 0.5182500026421621, 0.527149997651577, 0.5244500061962754, 0.6444999889936298, 0.5175999976927415, 0.537349988007918, 0.5483500135596842, 0.5104499869048595, 0.5254499847069383, 0.5733500001952052, 0.5108499899506569, 0.6051000091247261, 0.6324499845504761, 0.6087500078137964, 0.5021500110160559, 0.5869499873369932, 0.5222499894443899, 0.5138499836903065, 0.5053999921074137, 0.5593500100076199, 0.5139999848324805, 0.6390000053215772, 0.6986499938648194, 0.5098499823361635, 0.5187499918974936, 0.6372499919962138, 0.6796499947085977, 0.6714999908581376, 0.7153000042308122, 0.5267499946057796, 0.5155499966349453, 0.510900019435212, 0.6097499863244593, 0.5120999849168584, 0.5752999859396368, 0.5187000060686842, 0.7135000196285546, 0.5222499894443899, 0.5337499896995723, 0.5072500061942264, 0.6262999959290028, 0.5591500084847212, 0.5491000192705542, 0.5565999890677631, 0.5201500025577843, 0.5097500106785446, 0.5023999838158488, 0.5672999832313508, 0.6022000161465257, 0.5270999972708523, 0.6055999838281423, 0.5143500166013837, 0.5112499929964542, 0.592650001635775, 0.5267499946057796, 0.5680499889422208, 0.5189999938011169, 0.5281000194372609],
  "Optimal Expectation Value": -12.381489753723145,
  "Optimizer durations [ms]": [30.926, 27.924, 30.527, 27.714, 30.66, 23.297, 30.88, 25.861, 27.653, 29.343, 30.828, 21.232, 30.966, 23.084, 29.072, 26.328, 27.364, 25.649, 28.184, 26.205, 27.821, 29.013, 23.172, 27.17, 30.694, 24.508, 30.786, 28.729, 25.941, 27.334, 26.029, 27.776, 23.695, 26.817, 27.38, 27.475, 27.24, 26.803, 21.148, 23.276, 19.255, 28.108, 25.427, 24.879, 30.693, 29.873, 27.56, 27.638, 22.347, 24.612, 30.899, 26.921, 25.013, 31.21, 23.233, 26.108, 26.233, 30.304, 31.34, 26.954, 20.833, 17.493, 28.466, 24.019, 31.259, 29.069, 25.062, 27.096, 28.643, 25.334, 27.57, 22.572, 31.106, 27.116, 26.409, 29.483, 26.108, 26.955, 27.113, 26.845, 30.799, 23.536, 30.75, 27.477, 30.693, 24.965, 30.147, 24.484, 27.012, 26.685, 28.302, 23.086, 25.271, 29.387, 23.302, 30.781, 28.162, 29.895, 23.777, 25.592, 25.599, 26.768, 27.663, 27.58, 26.34, 25.135, 25.755, 23.2, 19.235, 25.252, 22.783, 27.325, 26.831, 23.343, 25.594, 27.711, 26.145, 30.259, 28.32, 31.045, 31.258, 31.31, 27.422, 22.037, 26.45, 29.018, 29.01, 24.399, 26.619, 23.016, 27.527, 26.44, 25.122, 31.15, 28.61, 28.729, 20.755, 22.333, 29.419, 30.191, 23.764, 28.936, 18.023, 26.509, 27.357, 27.786, 22.914, 26.554, 25.92, 25.428, 27.447, 22.911, 28.579, 28.572, 30.28, 26.981, 30.151, 29.257, 27.013, 30.339, 27.323, 27.799, 21.757, 26.873, 21.443, 23.338, 25.571, 23.093, 28.726, 28.074, 26.162, 22.172, 23.484, 26.03, 30.324, 20.489, 27.819, 27.62, 25.828, 27.95, 23.058, 24.259, 22.969, 23.703, 28.338, 25.454, 28.916, 24.478, 27.076, 29.083, 27.376, 31.075, 29.328, 28.809, 22.997, 29.677, 29.847, 24.361, 30.989, 24.86, 27.789, 23.688, 26.639, 25.983, 23.661, 30.045, 27.203, 24.137, 25.74, 30.914, 27.036, 27.245, 27.511, 26.632, 27.12, 27.129, 18.245, 28.375, 21.191, 26.317, 26.408, 24.45, 26.767, 22.269, 22.657, 26.194, 26.656, 29.013, 28.706, 26.743, 27.353, 26.694, 27.24, 23.056, 24.527, 30.691, 25.516, 26.836, 25.354, 26.267, 28.518, 27.275, 30.225, 24.448, 31.157, 23.665, 20.602, 26.787, 26.309, 25.758, 29.609, 27.588, 22.581, 29.957, 29.256, 29.709, 27.637, 29.604, 29.188, 23.662, 27.522, 24.837, 25.747, 28.101, 30.513, 28.086, 26.676, 28.144, 25.48, 23.675, 29.578, 23.768, 27.235, 31.548, 26.189, 26.414, 30.949, 23.386, 26.177, 28.336, 22.381, 26.397, 26.681, 27.493, 17.973, 27.876, 27.038, 26.94, 30.608, 23.048, 28.156, 18.847, 27.768, 30.046, 30.931, 19.289, 30.652, 23.447, 30.901, 25.331, 29.897, 25.073, 27.858, 25.613, 30.705, 27.17, 27.396, 27.619, 26.312, 18.705, 29.995, 24.428, 27.335, 29.701, 23.756, 23.395, 28.299, 28.384, 28.483, 30.331, 26.547, 31.237, 23.173, 22.863, 28.02, 24.585, 29.023, 24.784, 31.291, 27.978, 30.134, 27.759, 30.891, 22.918, 31.593, 33.899, 30.837, 24.922, 30.881, 24.548, 27.683, 28.315, 30.689, 28.379, 27.301, 30.462, 23.875, 31.133, 29.367, 30.357, 25.443, 29.018, 30.42, 28.246, 25.824, 27.74, 27.04, 31.292, 27.998, 26.429, 29.923, 31.132, 28.096, 30.253, 22.367, 29.061, 28.8, 28.315, 25.524, 30.815, 26.097, 22.878, 24.243, 27.487, 28.929, 30.931, 25.647, 27.249, 30.773, 26.14, 22.007, 28.943, 29.3, 28.57, 28.074, 27.151, 31.236, 28.042, 21.631, 30.985, 28.017, 29.382, 25.488, 24.696, 27.555, 25.768, 24.507, 28.995, 28.938, 26.09, 25.073, 28.235, 23.575, 30.351, 19.262, 30.529, 22.8, 28.905, 30.737, 29.144, 26.315, 28.531, 27.794, 26.136, 25.988, 28.341, 29.848, 24.449, 30.376, 30.121, 26.397, 26.554, 27.914, 25.552, 30.162, 29.972, 27.607, 26.393, 28.702, 26.503, 27.437, 29.079, 25.926, 29.125, 24.663, 30.331, 27.681, 27.52, 26.303, 21.579, 24.025, 30.253, 27.816, 28.25, 22.3, 26.604, 26.322, 25.617, 25.257, 23.815, 28.08, 25.785, 27.376, 25.759, 25.913, 27.123, 24.59, 27.104, 26.393, 30.106, 30.313, 20.878, 26.906, 26.852, 27.362, 26.377, 29.306, 30.353, 25.615, 24.78, 28.556, 25.11, 21.761, 30.392, 25.761, 27.547, 23.41, 26.136, 26.604, 23.865, 29.924, 24.769, 28.62, 24.822, 23.995, 26.49, 27.361, 25.412, 28.576, 26.642, 25.51, 27.578, 30.734, 22.629, 30.993, 25.062, 30.452, 29.932, 30.124, 27.9, 29.19, 28.174, 28.278, 23.071, 30.73, 28.419, 28.535, 25.21, 26.497, 26.146, 29.064, 27.264, 28.467, 25.776, 30.6, 25.347, 25.17, 24.262, 26.189, 28.446, 24.236, 24.951, 29.354, 27.149, 27.14, 27.686, 28.277, 20.855, 28.292, 30.427, 27.895, 30.346, 24.392, 27.51, 25.958, 24.594, 29.507, 23.477, 29.98, 26.484, 29.732, 30.1, 28.108, 27.691, 29.86, 30.21, 25.208, 23.386, 30.789, 30.416, 27.971, 29.082, 20.752, 25.513, 25.204, 26.207, 24.318, 29.684, 25.527, 30.295, 27.355, 26.841, 31.322, 24.053, 30.338, 28.911, 26.848, 23.24, 31.045, 24.626, 25.857, 28.717, 23.351, 23.458, 25.034, 28.895, 31.225, 26.194, 19.432, 27.084, 26.735, 30.832, 26.045, 27.405, 30.919, 24.364, 30.368, 26.91, 28.861, 25.446, 27.452, 30.716, 30.028, 30.663, 28.056, 28.845, 27.13, 26.512, 26.726, 26.054, 28.767, 29.715, 30.324, 23.774, 27.045, 22.302, 25.89, 27.748, 30.675, 26.958, 24.722, 28.039, 27.506, 30.227, 30.076, 28.289, 25.918, 26.97, 25.939, 23.019, 29.971, 29.65, 25.223, 29.907, 28.567, 24.679, 20.31, 24.203, 30.121, 26.396, 26.062, 30.423, 27.658, 26.058, 30.337, 27.317, 29.993, 27.964, 24.741, 22.591, 26.352, 23.926, 22.005, 28.619, 24.429, 31.29, 22.035, 25.844, 20.947, 20.914, 24.945, 23.497, 26.654, 26.88, 23.675, 23.053, 30.891, 29.863, 27.03, 26.805, 29.302, 24.438, 23.76, 27.703, 30.759],
  "Optimizer iterations": 665,
  "Optimizer params": [0.6246633813274521, 0.7531435198648029, 0.8825860291625288, 0.5973132603870538, 0.9138193802899177, 0.5786732725204399, 0.9210416233010846, 0.5739268894455781, 0.928750541362174, 0.5230347464923389, 0.5881368420089945, 0.5082296774788189, 0.48515929615642994, 0.5075802453453513, 0.49166272855972865, 0.5109443987220287, 0.47707914212655306, 0.4832561162654332, 0.5118755819999761, 0.8182522703283708, 0.49592421412823146, 0.5113117389548966, 0.5125491607497626, 0.5059737689895625, 0.5168099523337403, 0.5390403239953934, 0.5419495138967398, 0.5470675863715656, 0.5446238932575402, 0.5377223286427739, 0.5851332838289995, 0.5348002789275812, 0.5214684786159155, 0.5197846587524925, 0.5032244079669423, 0.4956381987432077, 0.526496988094955, 0.5004025263005667, 0.49077288021883403, 0.46767341173047183],
  "P": 0,
  "Problem": "IC",
  "QPU": "7000000",
  "Qubits": 10,
  "Shots": 4096,
  "Size": 10,
  "Total Algorithm duration [s]": 17.918,
  "Total Classic duration [s]": 17.54349465027405,
  "Total Quantum duration [s]": 0.3745053497259505
}
