{
  "Depth": 22.5,
  "Expectation Value": -11.725332260131836,
  "Job durations [ms]": [0.5310499982442707, 0.6823500152677298, 0.5123000155435875, 0.522549991728738, 0.529199984157458, 0.6877999985590577, 0.5249499808996916, 0.6140000186860561, 0.5330999847501516, 0.6766000005882233, 0.5081500130472705, 0.5984999879729003, 0.5493999924510717, 0.6189499981701374, 0.5271999980323017, 0.607449997914955, 0.4980500089004636, 0.5776500038336962, 0.5257499869912863, 0.4737999988719821, 0.5837000207975507, 0.5190999945625663, 0.525100011145696, 0.6862500158604234, 0.5298000178299844, 0.6182999932207167, 0.5270999972708523, 0.5641499883495271, 0.6523499905597419, 0.5327999824658036, 0.5112499929964542, 0.5636999849230051, 0.6949999951757491, 0.5170500080566853, 0.5267999949865043, 0.5135999963385984, 0.5229000089457259, 0.5182000168133527, 0.7234999793581665, 0.5281500052660704, 0.6170500128064305, 0.5169499781914055, 0.6194000015966594, 0.5191500240471214, 0.6659499777015299, 0.5667000077664852, 0.6689000001642853, 0.5245500069577247, 0.7230500050354749, 0.5100499838590622, 0.526999996509403, 0.5247500084806234, 0.6373999931383878, 0.52525001228787, 0.6440999859478325, 0.5159499996807426, 0.5193499964661896, 0.5371500155888498, 0.5133500089868903, 0.5255999858491123, 0.5108500190544873, 0.5186499911360443, 0.5247500084806234, 0.5157500272616744, 0.5186500056879595, 0.5878499941900373, 0.6637499900534749, 0.687149993609637, 0.5699999746866524, 0.526699994225055, 0.5149499920662493, 0.516650005010888, 0.7142500253394246, 0.671599991619587, 0.68450000253506, 0.5470000032801181, 0.6800999981351197, 0.6383500003721565, 0.7151000027079135, 0.5770499992650002, 0.5207999784033746, 0.5343000229913741, 0.5221999890636653, 0.653150025755167, 0.5247499793767929, 0.5185500194784254, 0.5246000073384494, 0.6171000131871551, 0.5281000048853457, 0.5270499968901277, 0.58895000256598, 0.5160000000614673, 0.6145999941509217, 0.6164000078570098, 0.5996999971102923, 0.5347999976947904, 0.5339500203263015, 0.5093500076327473, 0.521250010933727, 0.5414499901235104, 0.5231999966781586, 0.6013999809511006, 0.5501999985426664, 0.5248499801382422, 0.5247500084806234, 0.5254999850876629, 0.7272500079125166, 0.5213000113144517, 0.7098500209394842, 0.5287499807309359, 0.5338999908417463, 0.5185999907553196, 0.5288500105962157, 0.534549995791167, 0.5231999966781586, 0.524350005434826, 0.7184999994933605, 0.5196999991312623, 0.6264499970711768, 0.5215499841142446, 0.6036999984644353, 0.5141000146977603, 0.5289500113576651, 0.5912500200793147, 0.5268999957479537, 0.5014500056859106, 0.5293000140227377, 0.5150000215508044, 0.5173500103410333, 0.5132499936735258, 0.6337500235531479, 0.5177499988349155, 0.515749998157844, 0.5343499942682683, 0.521400012075901, 0.53039999329485, 0.5128499760758132, 0.528200005646795, 0.5270999972708523, 0.6894000107422471, 0.5130999925313517, 0.5448499869089574, 0.5760000203736126, 0.5308999971020967, 0.5435999773908406, 0.6890000076964498, 0.7089500140864402, 0.5197999998927116, 0.5332499858923256, 0.5192499957047403, 0.5716999876312912, 0.5309500265866518, 0.5597999843303114, 0.5128999910084531, 0.5184000037843361, 0.5238500161794946, 0.5158000130904838, 0.6547000084538013, 0.5375999899115413, 0.5187999922782183, 0.5326499813236296, 0.5163000023458153, 0.5341500218492001, 0.527600001078099, 0.5325000092852861, 0.537349988007918, 0.6370999908540398, 0.526099989656359, 0.6845500029157847, 0.60224998742342, 0.5116499960422516, 0.5296000163070858, 0.5706000083591789, 0.6909499934408814, 0.5242500046733767, 0.511050020577386, 0.5210999806877226, 0.5308999971020967, 0.5525999877136201, 0.516200001584366, 0.6018500134814531, 0.5778500053565949, 0.5653499974869192, 0.5706500087399036, 0.5257000157143921, 0.7060499920044094, 0.6148999964352697, 0.541049987077713, 0.6489999941550195, 0.5228500231169164, 0.5617499991785735, 0.5111500067869201, 0.43790000199805945, 0.5050000036135316, 0.5224999913480133, 0.5017499934183434, 0.5122500151628628, 0.7022000208962709, 0.512800004798919, 0.6008500058669597, 0.5563999875448644, 0.6059999868739396, 0.5248500092420727, 0.5203000036999583, 0.5666999786626548, 0.5594000103883445, 0.5712500133085996, 0.541049987077713, 0.5221500177867711, 0.5725999944843352, 0.5289500113576651, 0.5315500020515174, 0.5327000108081847, 0.5363000091165304, 0.5098000110592693, 0.530099991010502, 0.5310500273481011, 0.5220999883022159, 0.5631500098388642, 0.5905500147491693, 0.5148500204086304, 0.6071999960113317, 0.5986000178381801, 0.5339999916031957, 0.5188000213820487, 0.5690999969374388, 0.592199998209253, 0.7165500137489289, 0.520350004080683, 0.5710500117857009, 0.6448000203818083, 0.5224999913480133, 0.7436999876517802, 0.5296500166878104, 0.6101000180933625, 0.529199984157458, 0.5518999823834747, 0.5154999962542206, 0.5217500147409737, 0.5210999806877226, 0.6646999972872436, 0.5212000105530024, 0.523449998581782, 0.535300001502037, 0.641450023977086, 0.5891500040888786, 0.6348000024445355, 0.5499499966390431, 0.5620500014629215, 0.6735000060871243, 0.5310499982442707, 0.5653999978676438, 0.6321499822661281, 0.5130500067025423, 0.5564500170294195, 0.5144999886397272, 0.5260500183794647, 0.5222000181674957, 0.5987500189803541, 0.5195499979890883, 0.5244000058155507, 0.5089500045869499, 0.5202500033192337, 0.524050003150478, 0.5304999940562993, 0.5172999808564782, 0.5255499854683876, 0.5158500280231237, 0.7007500098552555, 0.5873999907635152, 0.5501999985426664, 0.6375499942805618, 0.5301499913912266, 0.7471000135410577, 0.5219500162638724, 0.5277000018395483, 0.6645499961450696, 0.7125999836716801, 0.5512000061571598, 0.5201000021770597, 0.5247500084806234, 0.45264999789651483, 0.5094500083941966, 0.45849999878555536, 0.5151999939698726, 0.5449999880511314, 0.48945001617539674, 0.5335999885573983, 0.5062999989604577, 0.48160000005736947, 0.49164998927153647, 0.49664998368825763, 0.5898000090382993, 0.5628500075545162, 0.5289500113576651, 0.6610500277020037, 0.5238000012468547, 0.5192499957047403, 0.5337000038707629, 0.5664999771397561, 0.6570499972440302, 0.5134999810252339, 0.6059500155970454, 0.5171999946469441, 0.5608500214293599, 0.5077500100014731, 0.5069999897386879, 0.5143000016687438, 0.6481500167865306, 0.524650007719174, 0.7355500129051507, 0.5116500105941668, 0.5119499983265996, 0.5084000003989786, 0.526249990798533, 0.5244999774731696, 0.6471499800682068, 0.5118000117363408, 0.5562500155065209, 0.5236500001046807, 0.5451500182971358, 0.5072499916423112, 0.5135000101290643, 0.6945999921299517, 0.5062000127509236, 0.620749982772395, 0.4755000118166208, 0.5032999906688929, 0.5714999861083925, 0.6203499797265977, 0.6448000203818083, 0.545049988431856, 0.5877000221516937, 0.5109000048832968, 0.5153999954927713, 0.5273500137263909, 0.5114500090712681, 0.6938000151421875, 0.5256499862298369, 0.5098999972688034, 0.7179999956861138, 0.5223499902058393, 0.5356000037863851, 0.5425499984994531, 0.6173000147100538, 0.6450500222854316, 0.5821999802719802, 0.7190000033006072, 0.5200000014156103, 0.4910499992547557, 0.5019999953219667, 0.5561500147450715, 0.5055499932495877, 0.5193499964661896, 0.5085499869892374, 0.5113999941386282, 0.5195500125410035, 0.5252999835647643, 0.5273499991744757, 0.519149994943291, 0.524200004292652, 0.5238000012468547, 0.7133499893825501, 0.595449993852526, 0.5327000108081847, 0.5269499961286783, 0.6638499908149242, 0.5353500018827617, 0.530699995579198, 0.5342999938875437, 0.5247500084806234, 0.5298499891068786, 0.6130000110715628, 0.5346499965526164, 0.5256500153336674, 0.5099500122014433, 0.5406500131357461, 0.5579999997280538, 0.6453499954659492, 0.5209000082686543, 0.5340500210877508, 0.6968500092625618, 0.5320000054780394, 0.5285500083118677, 0.5172499804757535, 0.5349499988369644, 0.602099986281246, 0.5304999940562993, 0.5219500162638724, 0.597700010985136, 0.534549995791167, 0.5343000229913741, 0.6676999910268933, 0.527900003362447, 0.5329499981598929, 0.530249992152676, 0.5326000100467354, 0.5408500146586448, 0.5483499844558537, 0.6222999945748597, 0.5297499883454293, 0.5662499752361327, 0.6313000048976392, 0.5341499927453697, 0.5669000092893839, 0.5323500081431121, 0.5672000115737319, 0.5426999996416271, 0.5288500105962157, 0.5288000102154911, 0.5319999763742089, 0.6201500073075294, 0.544899987289682, 0.521400012075901, 0.6238500063773245, 0.525799987372011, 0.5246499786153436, 0.5333999870344996, 0.5367000121623278, 0.5256499862298369, 0.5436000064946711, 0.5547500040847808, 0.6096999859437346, 0.7091499865055084, 0.523449998581782, 0.7140500238165259, 0.5380000220611691, 0.5637500144075602, 0.5315000016707927, 0.52375000086613, 0.5267999949865043, 0.4915000172331929, 0.5080000119050965, 0.5436500068753958, 0.5599000141955912, 0.5241000035312027, 0.528050004504621, 0.7144999981392175, 0.5362499796319753, 0.612449977779761, 0.5340499919839203, 0.620149978203699, 0.5326000100467354, 0.5788499838672578, 0.521250010933727, 0.6233000021893531, 0.5228999943938106, 0.6162000063341111, 0.5620500014629215, 0.5336999893188477, 0.5243000050541013, 0.6820499838795513, 0.5360000068321824, 0.5364500102587044, 0.6959500024095178, 0.5252999981166795, 0.5418999935500324, 0.5560499848797917, 0.5590500077232718, 0.6616500031668693, 0.6530999962706119, 0.5135000101290643, 0.587200018344447, 0.6104499916546047, 0.5267999949865043, 0.5739999760407954, 0.5116499960422516, 0.5396000051405281, 0.5709499819204211, 0.5578499985858798, 0.49140000191982836, 0.6549499812535942, 0.6467000057455152, 0.5247500084806234, 0.520950008649379, 0.5791999865323305, 0.5160000000614673, 0.5041499971412122, 0.5674500134773552, 0.5629000079352409, 0.680650002323091, 0.535300001502037, 0.7348000071942806, 0.523599999723956, 0.5301499913912266, 0.5380500224418938, 0.6390999769791961, 0.5738000036217272, 0.7023499929346144, 0.5255499854683876, 0.513700011651963, 0.5292500136420131, 0.7200500112958252, 0.5641499883495271, 0.5739000043831766, 0.5151499935891479, 0.5094499938422814, 0.5289500113576651, 0.7393499836325645, 0.5336999893188477, 0.5684999923687428, 0.5278000026009977, 0.5739500047639012, 0.6023000169079751, 0.5574999959208071, 0.5187000206205994, 0.5297500174492598, 0.5694000283256173, 0.5388999998103827, 0.6445999897550792, 0.530699995579198, 0.525949988514185, 0.5243000050541013, 0.5312499997671694, 0.5230999959167093, 0.5202500033192337, 0.5295500159263611, 0.604650005698204, 0.5718999891541898, 0.5264500214252621, 0.5591500084847212, 0.6481499876827002, 0.527600001078099, 0.5439499800559133, 0.5757500184699893, 0.6481499876827002, 0.599449995206669, 0.5689499957952648, 0.6468000065069646, 0.5334499874152243, 0.5456999933812767, 0.5315000016707927, 0.5792999872937799, 0.5191999953240156, 0.5824999825563282, 0.5575999966822565, 0.5453999910969287, 0.5353500018827617, 0.5150999932084233, 0.5738000036217272, 0.6104499916546047, 0.5689999961759895, 0.6740500102750957, 0.52299999515526, 0.6607999966945499, 0.5246999789960682, 0.6592500139959157, 0.519299996085465, 0.599449995206669, 0.6500500021502376, 0.6616500031668693, 0.5256999866105616, 0.5624500045087188, 0.5313500005286187, 0.6502000032924116, 0.5316500028129667, 0.6140499899629503, 0.5173000099603087, 0.7322000165004283, 0.5743500078096986, 0.5415999912656844, 0.5754499870818108, 0.5304999940562993, 0.6813500076532364, 0.5365499819163233, 0.5323000077623874, 0.5308999971020967, 0.7297499978449196, 0.7183499983511865, 0.5565000174101442, 0.5352000007405877, 0.7240000122692436, 0.541949993930757, 0.5343000229913741, 0.531450001290068, 0.5056000081822276, 0.5256500153336674, 0.5751500139012933, 0.5120499990880489, 0.5105999880470335, 0.6818999827373773, 0.5361999938031659, 0.5539999983739108, 0.6886000046506524, 0.5442000110633671, 0.516200001584366, 0.5348999984562397, 0.5168500065337867, 0.527900003362447, 0.603899999987334, 0.5336999893188477, 0.5371000152081251, 0.5288500105962157, 0.5283000064082444, 0.5263000202830881, 0.5605499900411814, 0.5294000147841871, 0.5815000040456653, 0.5224499909672886, 0.5524499865714461, 0.7002500060480088, 0.5713000136893243, 0.5339999916031957, 0.5439499800559133, 0.6784999859519303, 0.5466000002343208, 0.5470000032801181, 0.5557999829761684, 0.5211500101722777, 0.534399994648993, 0.6404499872587621, 0.537649990292266, 0.6398999830707908, 0.5952499923296273, 0.5889000021852553, 0.5386499979067594, 0.6109499954618514, 0.535150000359863, 0.5308999971020967, 0.6558500172104686, 0.5119499983265996, 0.7042000070214272, 0.5395000043790787, 0.5781500076409429, 0.5991999933030456, 0.5254999850876629, 0.6047500064596534, 0.5320499767549336, 0.6987999950069934, 0.523900002008304, 0.6600500200875103, 0.5633000109810382, 0.5596000119112432, 0.5207000067457557, 0.6750499887857586, 0.5132999795023352, 0.5359500064514577, 0.60964998556301, 0.5340499919839203, 0.52299999515526, 0.7226000016089529, 0.5140499852132052, 0.521700014360249, 0.5411499878391623, 0.5151500081410632, 0.659950019326061, 0.6135999865364283, 0.5465499998535961, 0.5996999971102923, 0.5275500006973743, 0.5926000012550503, 0.5284499784465879, 0.5175000114832073, 0.5325500096660107, 0.655950017971918, 0.5448499869089574, 0.5242500046733767, 0.5235499993432313, 0.5620000010821968, 0.5315500020515174, 0.5170000076759607, 0.512350001372397, 0.6532999977935106, 0.5261499900370836, 0.5249000096227974],
  "Optimal Expectation Value": -12.381489753723145,
  "Optimizer durations [ms]": [31.039, 27.792, 30.071, 28.374, 26.099, 27.64, 26.14, 28.506, 29.815, 25.082, 29.567, 21.322, 26.103, 27.123, 27.898, 25.436, 27.133, 27.177, 28.354, 27.278, 26.81, 27.536, 27.574, 25.813, 29.849, 24.074, 30.03, 22.166, 19.763, 30.819, 22.359, 19.045, 29.895, 23.862, 23.845, 30.986, 24.897, 27.049, 30.244, 30.349, 28.154, 25.264, 28.253, 28.167, 24.075, 27.057, 27.882, 30.811, 28.82, 28.599, 29.0, 25.388, 28.702, 26.163, 29.84, 30.453, 28.52, 26.849, 28.112, 26.907, 24.03, 27.99, 29.801, 22.128, 25.868, 27.277, 26.119, 26.907, 23.263, 23.142, 30.692, 26.708, 26.849, 30.36, 27.351, 27.397, 30.445, 26.085, 28.399, 21.612, 24.696, 26.781, 30.542, 24.652, 28.071, 26.374, 25.655, 24.772, 23.162, 26.476, 25.739, 27.792, 27.711, 30.272, 30.088, 23.533, 31.095, 23.563, 30.495, 29.055, 26.257, 29.518, 24.015, 30.069, 22.367, 30.95, 22.391, 30.992, 22.383, 31.024, 24.479, 24.446, 28.615, 31.351, 26.467, 27.917, 29.913, 29.009, 28.377, 25.952, 26.771, 26.015, 26.007, 26.883, 30.914, 27.029, 30.649, 26.286, 29.056, 24.608, 29.374, 30.806, 25.656, 21.853, 23.475, 27.391, 30.656, 29.055, 28.781, 24.635, 29.096, 27.961, 24.909, 30.549, 31.074, 27.219, 30.183, 28.216, 29.045, 25.445, 26.933, 27.932, 26.732, 23.375, 23.395, 24.687, 26.49, 29.926, 26.783, 30.788, 21.927, 26.648, 22.901, 27.497, 28.946, 30.562, 29.104, 28.715, 29.275, 29.399, 27.693, 26.301, 26.022, 27.841, 25.876, 30.504, 23.334, 30.814, 22.858, 27.047, 25.544, 26.218, 27.085, 25.406, 28.419, 30.149, 23.903, 31.22, 29.96, 31.05, 22.446, 26.878, 29.486, 28.422, 27.56, 30.488, 26.267, 24.283, 30.679, 24.797, 16.904, 30.058, 26.207, 24.306, 25.791, 28.943, 23.876, 22.631, 24.386, 25.163, 26.186, 29.095, 28.873, 29.855, 23.889, 25.371, 30.85, 22.211, 22.85, 23.501, 28.892, 26.824, 27.387, 28.314, 25.388, 25.006, 24.931, 28.628, 30.188, 21.001, 30.64, 26.488, 31.249, 24.96, 30.42, 25.923, 23.45, 23.074, 26.611, 30.511, 26.354, 27.905, 28.84, 30.919, 30.462, 29.462, 25.968, 27.351, 22.748, 30.45, 29.619, 22.13, 30.06, 26.715, 27.214, 28.581, 27.808, 29.947, 27.573, 22.058, 26.335, 30.055, 25.498, 27.425, 27.427, 26.968, 27.082, 27.56, 26.029, 19.402, 27.694, 23.678, 22.412, 26.85, 26.825, 22.547, 26.949, 30.844, 31.853, 31.185, 27.565, 29.641, 27.907, 29.77, 28.405, 33.238, 31.031, 31.888, 29.808, 30.026, 25.866, 26.723, 27.317, 22.949, 25.841, 25.357, 30.952, 26.602, 28.924, 23.823, 23.888, 27.421, 23.635, 27.532, 26.898, 30.399, 25.887, 30.94, 26.402, 30.604, 28.294, 26.059, 26.365, 29.431, 24.103, 29.35, 28.854, 30.679, 25.188, 26.811, 27.605, 25.311, 28.952, 24.118, 30.702, 25.612, 24.873, 29.869, 26.842, 28.498, 29.828, 21.873, 26.577, 24.298, 25.513, 26.773, 26.792, 25.334, 22.9, 25.264, 27.365, 30.55, 24.028, 26.819, 28.588, 26.023, 25.419, 27.25, 25.697, 28.473, 29.727, 24.533, 22.848, 29.82, 26.806, 28.479, 30.456, 24.273, 19.752, 26.755, 27.247, 27.113, 15.752, 16.437, 25.41, 29.483, 24.295, 29.36, 23.221, 28.254, 29.927, 31.161, 25.441, 26.379, 22.691, 21.936, 29.012, 30.837, 26.458, 27.718, 23.828, 25.264, 28.406, 28.056, 28.342, 26.964, 23.913, 30.837, 28.059, 30.812, 29.201, 26.7, 27.704, 30.652, 30.806, 29.711, 26.978, 25.648, 24.06, 27.603, 26.93, 21.109, 26.306, 30.643, 26.577, 23.709, 26.555, 26.283, 23.825, 26.032, 27.595, 23.945, 31.048, 23.484, 26.311, 27.944, 30.659, 27.336, 30.271, 29.062, 27.377, 30.183, 24.85, 24.482, 31.016, 27.281, 29.899, 24.962, 22.954, 26.351, 18.526, 26.884, 29.119, 25.663, 25.584, 23.021, 26.479, 26.714, 30.914, 25.367, 28.961, 25.252, 23.95, 26.717, 31.041, 30.481, 27.02, 27.536, 26.992, 30.771, 23.448, 23.882, 27.89, 26.618, 30.129, 23.491, 26.404, 23.209, 23.841, 29.48, 29.519, 28.007, 24.23, 29.969, 24.91, 23.051, 29.851, 26.022, 18.592, 31.1, 25.419, 27.894, 30.279, 24.691, 27.193, 28.098, 30.675, 26.393, 23.035, 26.86, 21.102, 28.957, 27.754, 28.96, 24.621, 26.623, 27.445, 25.923, 28.319, 30.846, 22.423, 28.665, 25.131, 24.813, 26.074, 28.356, 27.273, 27.998, 30.1, 28.737, 20.874, 24.011, 26.755, 21.483, 26.964, 30.058, 30.756, 24.842, 27.315, 26.88, 27.024, 27.412, 28.932, 21.47, 29.984, 29.433, 25.274, 29.951, 25.803, 30.899, 29.164, 29.782, 29.485, 25.145, 19.981, 28.461, 20.636, 26.157, 26.293, 28.007, 28.504, 30.966, 22.891, 30.595, 28.328, 20.89, 28.381, 29.866, 28.942, 24.462, 26.238, 27.073, 26.956, 28.799, 28.035, 28.758, 26.831, 28.031, 26.255, 29.992, 27.334, 28.679, 18.864, 27.207, 29.92, 27.81, 26.701, 30.739, 24.206, 18.67, 26.658, 17.717, 30.82, 25.608, 26.606, 29.234, 30.108, 30.067, 27.771, 23.398, 28.512, 26.182, 29.266, 27.96, 28.394, 25.982, 21.751, 21.88, 22.723, 27.418, 30.299, 28.043, 28.661, 28.874, 26.722, 28.776, 30.057, 25.839, 29.019, 26.573, 23.193, 26.638, 28.2, 25.194, 29.136, 22.244, 24.642, 27.183, 27.892, 29.529, 28.165, 25.227, 26.206, 29.854, 24.034, 22.377, 28.245, 22.058, 26.792, 28.738, 28.136, 25.886, 29.923, 27.759, 27.44, 28.433, 26.978, 21.805, 30.462, 30.208, 25.456, 23.678, 26.155, 26.559, 28.537, 23.509, 26.399, 30.91, 27.019, 30.655, 27.446, 21.507, 22.863, 26.078, 30.269, 28.169, 25.927, 29.963, 28.395, 28.224, 29.941, 28.137, 30.538, 31.069, 28.352, 23.027, 28.731, 30.36, 29.042, 26.611, 24.833, 27.34, 30.212, 26.013, 29.537, 29.44, 25.096, 24.089, 29.686, 29.128, 30.419, 28.005, 28.084, 25.778, 29.966],
  "Optimizer iterations": 665,
  "Optimizer params": [0.6246633813274521, 0.7531435198648029, 0.8825860291625288, 0.5973132603870538, 0.9138193802899177, 0.5786732725204399, 0.9210416233010846, 0.5739268894455781, 0.928750541362174, 0.5230347464923389, 0.5881368420089945, 0.5082296774788189, 0.48515929615642994, 0.5075802453453513, 0.49166272855972865, 0.5109443987220287, 0.47707914212655306, 0.4832561162654332, 0.5118755819999761, 0.8182522703283708, 0.49592421412823146, 0.5113117389548966, 0.5125491607497626, 0.5059737689895625, 0.5168099523337403, 0.5390403239953934, 0.5419495138967398, 0.5470675863715656, 0.5446238932575402, 0.5377223286427739, 0.5851332838289995, 0.5348002789275812, 0.5214684786159155, 0.5197846587524925, 0.5032244079669423, 0.4956381987432077, 0.526496988094955, 0.5004025263005667, 0.49077288021883403, 0.46767341173047183],
  "P": 0,
  "Problem": "IC",
  "QPU": "7000000",
  "Qubits": 10,
  "Shots": 4096,
  "Size": 10,
  "Total Algorithm duration [s]": 17.966,
  "Total Classic duration [s]": 17.591427699589637,
  "Total Quantum duration [s]": 0.3745723004103638
}
