{
  "Depth": 22.5,
  "Expectation Value": -11.725332260131836,
  "Job durations [ms]": [0.524200004292652, 0.5726999952457845, 0.5274499853840098, 0.5473000055644661, 0.5426499992609024, 0.5785499815829098, 0.5299500189721584, 0.5187999922782183, 0.5435500061139464, 0.5589500069618225, 0.6512500112876296, 0.523299997439608, 0.5761499924119562, 0.6287999858614057, 0.5172000091988593, 0.5951500206720084, 0.5256000149529427, 0.5364500102587044, 0.6941000174265355, 0.5275000003166497, 0.5246000073384494, 0.5290499830152839, 0.5387000273913145, 0.5303500220179558, 0.5193999968469143, 0.5840999947395176, 0.5668000085279346, 0.652550021186471, 0.5621000018436462, 0.5264499923214316, 0.6189999985508621, 0.5043499986641109, 0.5735500017181039, 0.5270999972708523, 0.5405000119935721, 0.5115999956615269, 0.6174499867483974, 0.617649988271296, 0.5252499831840396, 0.5089500045869499, 0.5333999870344996, 0.5321000062394887, 0.7161999819800258, 0.5286000086925924, 0.6621999782510102, 0.5249000096227974, 0.5158499989192933, 0.7234000077005476, 0.5390500009525567, 0.7309000066015869, 0.51710000843741, 0.5091500061098486, 0.5200000014156103, 0.5452499899547547, 0.5310499982442707, 0.5592500092461705, 0.5131499783601612, 0.5181499873287976, 0.527299998793751, 0.5642000178340822, 0.5308999971020967, 0.5648999940603971, 0.5788000125903636, 0.6494999979622662, 0.5213999829720706, 0.5238999729044735, 0.5262500199023634, 0.5171999946469441, 0.6250000151339918, 0.5194999976083636, 0.519299996085465, 0.4993999900761992, 0.7281499856617302, 0.538249994860962, 0.6403500156011432, 0.5135999817866832, 0.5294499860610813, 0.6469000072684139, 0.527900003362447, 0.512800004798919, 0.5391000013332814, 0.594600016484037, 0.524650007719174, 0.5916499940212816, 0.6492499960586429, 0.5156999977771193, 0.5658500012941658, 0.5770499992650002, 0.528050004504621, 0.5171499797143042, 0.5224500200711191, 0.7131000165827572, 0.536149978870526, 0.5330000130925328, 0.7005499792285264, 0.5356500041671097, 0.6924000044818968, 0.6708500150125474, 0.5341499927453697, 0.5943999858573079, 0.5985000170767307, 0.5403500108513981, 0.5701500049326569, 0.5595499824266881, 0.6915499980095774, 0.5423999973572791, 0.5693999992217869, 0.5112500075483695, 0.5588000058196485, 0.520950008649379, 0.5614000256173313, 0.527149997651577, 0.5782500084023923, 0.5184999899938703, 0.5230499955359846, 0.516650005010888, 0.5712499842047691, 0.5307499959599227, 0.6089499802328646, 0.521400012075901, 0.6758499948773533, 0.531600002432242, 0.7309500069823116, 0.5702000053133816, 0.6842500006314367, 0.6892999808769673, 0.5256499862298369, 0.6157500029075891, 0.5245499778538942, 0.5375500186346471, 0.6852500082459301, 0.5207000067457557, 0.5716000159736723, 0.6551000114995986, 0.7271000067703426, 0.5226499924901873, 0.5186999915167689, 0.6573499995283782, 0.5255999858491123, 0.5424500268418342, 0.520800007507205, 0.5257000157143921, 0.7030999986454844, 0.5487999878823757, 0.617349985986948, 0.7315499824471772, 0.4960999940522015, 0.6403999868780375, 0.5259000172372907, 0.6546500080730766, 0.5188000068301335, 0.5132499936735258, 0.5371500155888498, 0.5193499964661896, 0.5122000002302229, 0.5303499929141253, 0.6740500102750957, 0.5712000129278749, 0.542099995072931, 0.5172499804757535, 0.5219499871600419, 0.5246000073384494, 0.5819000070914626, 0.5339000199455768, 0.5216999998083338, 0.5260499892756343, 0.5158499989192933, 0.5247000080998987, 0.5914999928791076, 0.6373999931383878, 0.5432500038295984, 0.5169999785721302, 0.5218000151216984, 0.528500007931143, 0.5514499789569527, 0.5179000145290047, 0.516950007295236, 0.5766999965999275, 0.4658499965444207, 0.5185999907553196, 0.5150999932084233, 0.519449997227639, 0.5198500002734363, 0.59785001212731, 0.5712999845854938, 0.5176500126253814, 0.6157000025268644, 0.5362500087358057, 0.5387999990489334, 0.5312499997671694, 0.5702500056941062, 0.6404500163625926, 0.5688499950338155, 0.5423499969765544, 0.5352500011213124, 0.5706500087399036, 0.607599999057129, 0.5155999824637547, 0.5297500174492598, 0.5655999993905425, 0.5250500107649714, 0.5399500078056008, 0.5174499965505674, 0.5193000251892954, 0.530249992152676, 0.544149981578812, 0.516050000442192, 0.5690999969374388, 0.5596000119112432, 0.5225000204518437, 0.5240000027697533, 0.5073499924037606, 0.5187999922782183, 0.5199500010348856, 0.5249000096227974, 0.7074500026647002, 0.5586500046774745, 0.5224500200711191, 0.5194999976083636, 0.527900003362447, 0.5215499841142446, 0.5616999987978488, 0.5371000152081251, 0.5310999986249954, 0.521250010933727, 0.6625500100199133, 0.514000013936311, 0.5600999866146594, 0.5118999979458749, 0.5456499930005521, 0.6919500010553747, 0.5210999806877226, 0.662450009258464, 0.6944499909877777, 0.523149996297434, 0.5172499950276688, 0.6292999896686524, 0.530849996721372, 0.5362000083550811, 0.7371499959845096, 0.5275000003166497, 0.7212499913293868, 0.5244499916443601, 0.5302000208757818, 0.5310999986249954, 0.5371000152081251, 0.6884500035084784, 0.519900000654161, 0.5297500174492598, 0.5170000076759607, 0.5589500069618225, 0.5267999949865043, 0.5594500107690692, 0.5258000164758414, 0.5184000183362514, 0.5177500133868307, 0.5933000065851957, 0.509049990796484, 0.5514000076800585, 0.5140499997651204, 0.530999997863546, 0.5310499982442707, 0.5295999872032553, 0.5160000000614673, 0.5043999990448356, 0.5606499908026308, 0.510600017150864, 0.5683000199496746, 0.7033000001683831, 0.5296999879647046, 0.5392500024754554, 0.5837499920744449, 0.7203000131994486, 0.6181499920785427, 0.5407000135164708, 0.5097999965073541, 0.5136999971000478, 0.7081000076141208, 0.7142999966163188, 0.530699995579198, 0.5249999812804163, 0.5276500014588237, 0.5475500074680895, 0.5294000147841871, 0.592049997067079, 0.5270499968901277, 0.5153000092832372, 0.60374999884516, 0.519149994943291, 0.6708500150125474, 0.5635500128846616, 0.5407999997260049, 0.6798499962314963, 0.5372500163502991, 0.5166000046301633, 0.7298499986063689, 0.5258499877527356, 0.5565499886870384, 0.5185999907553196, 0.6441999867092818, 0.6679999933112413, 0.523900002008304, 0.5178000137675554, 0.5227499932516366, 0.6203000084497035, 0.5190499941818416, 0.5437000072561204, 0.547849980648607, 0.5281500052660704, 0.530699995579198, 0.5767999973613769, 0.7128499855753034, 0.5970500060357153, 0.7393000123556703, 0.5663500051014125, 0.5193499964661896, 0.5671999824699014, 0.7283499871846288, 0.6152499991003424, 0.522849994013086, 0.5295999872032553, 0.5293500144034624, 0.5642499891109765, 0.5081499984953552, 0.5453000194393098, 0.5016999930376187, 0.7110000005923212, 0.5069999897386879, 0.5807499983347952, 0.5430500023066998, 0.6647999980486929, 0.5762999935541302, 0.6123500061221421, 0.5318000039551407, 0.5263499915599823, 0.530699995579198, 0.5211500101722777, 0.5245500069577247, 0.5881999968551099, 0.690849992679432, 0.6834500236436725, 0.5308999971020967, 0.7095499895513058, 0.5152499943505973, 0.5359000060707331, 0.5699999746866524, 0.5241000035312027, 0.530249992152676, 0.5209499795455486, 0.5545500025618821, 0.5215000128373504, 0.5556500109378248, 0.525100011145696, 0.593100005062297, 0.5778500053565949, 0.6665999826509506, 0.7099999929778278, 0.6402999861165881, 0.5227999936323613, 0.5121499998494983, 0.5756999889854342, 0.5166499759070575, 0.524950010003522, 0.5125999741721898, 0.518150016432628, 0.5074500222690403, 0.5155500111868605, 0.5084000003989786, 0.5738000036217272, 0.6968500092625618, 0.5815500044263899, 0.7083000091370195, 0.5794000171590596, 0.5180499865673482, 0.5140999855939299, 0.5018500087317079, 0.5657500005327165, 0.5031500040786341, 0.619549973635003, 0.5515500088222325, 0.5224999913480133, 0.659050012473017, 0.5205999768804759, 0.658300006762147, 0.5157999985385686, 0.686999992467463, 0.5671500111930072, 0.5218499863985926, 0.5150500073796138, 0.669250002829358, 0.5709500110242516, 0.6233000021893531, 0.5328000115696341, 0.6088500085752457, 0.5088000034447759, 0.6838499975856394, 0.5804499960504472, 0.6529499951284379, 0.5256999866105616, 0.6939999875612557, 0.5369000136852264, 0.524650007719174, 0.5679500172846019, 0.5779000057373196, 0.7023999933153391, 0.5165499751456082, 0.5199500010348856, 0.5469000025186688, 0.520650006365031, 0.6573499995283782, 0.7300500001292676, 0.5237000004854053, 0.5614499968942255, 0.5212999822106212, 0.585700006922707, 0.5223499902058393, 0.5178000137675554, 0.5243500199867412, 0.5592000088654459, 0.5578499985858798, 0.5267000233288854, 0.5612999957520515, 0.5179500149097294, 0.5262500199023634, 0.5247500084806234, 0.6211000145412982, 0.5314000009093434, 0.5119499983265996, 0.5251499824225903, 0.53039999329485, 0.6067500216886401, 0.7286999898497015, 0.528500007931143, 0.5838499928358942, 0.5311999993864447, 0.6578000029549003, 0.5736000020988286, 0.5252999835647643, 0.535300001502037, 0.5108000041218475, 0.5223000189289451, 0.5735500017181039, 0.5638500151690096, 0.5633499822579324, 0.5536499957088381, 0.6817499815952033, 0.5212499963818118, 0.5204000044614077, 0.5156499973963946, 0.5186500202398747, 0.537349988007918, 0.5358000053092837, 0.5687999946530908, 0.5795999895781279, 0.5255000141914934, 0.6066000205464661, 0.5147499905433506, 0.5223499902058393, 0.5161500157555565, 0.5708000098820776, 0.5727999960072339, 0.7216499943751842, 0.536899984581396, 0.5258500168565661, 0.5295499868225306, 0.5217999860178679, 0.5184999899938703, 0.5331000138539821, 0.5398500070441514, 0.5253500130493194, 0.5279500037431717, 0.5694499996025115, 0.5248999805189669, 0.6843000010121614, 0.5196999991312623, 0.582450011279434, 0.5057500093244016, 0.5462999979499727, 0.5289499822538346, 0.5145999894011766, 0.5155999970156699, 0.5144499882590026, 0.5753499863203615, 0.6757999944966286, 0.533199985511601, 0.5263499915599823, 0.5081999988760799, 0.5863500118721277, 0.5256500153336674, 0.5868999869562685, 0.6653500022366643, 0.5595999828074127, 0.5156000115675852, 0.7092499872669578, 0.7092500163707882, 0.5794499884359539, 0.5088500038255006, 0.5291500128805637, 0.5365500110201538, 0.5215000128373504, 0.5303000216372311, 0.520050001796335, 0.6458999996539205, 0.530999997863546, 0.6955499993637204, 0.5453999910969287, 0.5183999892324209, 0.638649973552674, 0.5695500003639609, 0.7013999857008457, 0.5838499928358942, 0.5300499906297773, 0.518000015290454, 0.5364999815355986, 0.7163000118453056, 0.5278500029817224, 0.586600013775751, 0.5692999984603375, 0.6157999741844833, 0.5272499984130263, 0.6343999993987381, 0.530549994437024, 0.5164000031072646, 0.522849994013086, 0.5308999971020967, 0.5673500127159059, 0.5380500224418938, 0.590300012845546, 0.5709500110242516, 0.6469499785453081, 0.5117499968037009, 0.5642000178340822, 0.4575000057229772, 0.6604499940294772, 0.5643499898724258, 0.652400020044297, 0.6047000060789287, 0.5667000077664852, 0.5418999935500324, 0.5322000070009381, 0.5219499871600419, 0.522549991728738, 0.6671000155620277, 0.5634000117424875, 0.5321500066202134, 0.6050999800208956, 0.5613999965135008, 0.5590999790001661, 0.5156499973963946, 0.5407500138971955, 0.5201499880058691, 0.6827499892096967, 0.5247000080998987, 0.5585000035353005, 0.5644500197377056, 0.5323500081431121, 0.524200004292652, 0.5242500046733767, 0.674150011036545, 0.5637999856844544, 0.5154500249773264, 0.5638499860651791, 0.5200000159675255, 0.5527999892365187, 0.5328500119503587, 0.6498500006273389, 0.5082999996375293, 0.6640999927185476, 0.6888000061735511, 0.5228000227361917, 0.517700013006106, 0.5218000151216984, 0.5280000186758116, 0.5426999996416271, 0.5702000053133816, 0.6221999938134104, 0.522000016644597, 0.5356500041671097, 0.7311000081244856, 0.6163000070955604, 0.5344000237528235, 0.5101000133436173, 0.596650002989918, 0.5130499921506271, 0.687449995893985, 0.5172000091988593, 0.522399990586564, 0.5630499799735844, 0.5202500033192337, 0.526849995367229, 0.5330500134732574, 0.5144999886397272, 0.5024999991292134, 0.6064499903004616, 0.6676999910268933, 0.5238499725237489, 0.5152999947313219, 0.5260500183794647, 0.5685000214725733, 0.506150012370199, 0.6897499843034893, 0.5522999854292721, 0.6017000123392791, 0.5284500075504184, 0.521550013218075, 0.5828999856021255, 0.519599998369813, 0.5451499891933054, 0.5455999926198274, 0.5627500067930669, 0.5229500238783658, 0.5296500166878104, 0.5222000036155805, 0.6931000098120421, 0.53190000471659, 0.5194999976083636, 0.5142500158399343, 0.5312499997671694, 0.5646499921567738, 0.5199500010348856, 0.6631499854847789, 0.5409499863162637, 0.5211500101722777, 0.6532999977935106, 0.5429500015452504, 0.6784000142943114, 0.5253999843262136, 0.6023499881848693, 0.5666000070050359, 0.5245500069577247, 0.5668500089086592, 0.5163000023458153, 0.5196000129217282, 0.7121000089682639, 0.516500003868714, 0.6917000282555819, 0.6409499910660088, 0.510000012582168, 0.5190999945625663, 0.6747999868821353, 0.5224499909672886, 0.5183499888516963, 0.5447000148706138, 0.5934999790042639, 0.5143000016687438, 0.5227499932516366, 0.727950013242662, 0.531300000147894, 0.5946499877609313, 0.5122000147821382, 0.5189999938011169, 0.5672000115737319, 0.5244500061962754, 0.7292499940376729, 0.5516499804798514, 0.5229500238783658, 0.5218499863985926, 0.6904500187374651, 0.6398999830707908, 0.5275500006973743, 0.6634499877691269, 0.527750002220273, 0.6517000147141516, 0.701199984177947, 0.5497499951161444],
  "Optimal Expectation Value": -12.381489753723145,
  "Optimizer durations [ms]": [30.924, 24.048, 25.904, 27.843, 26.133, 27.54, 26.368, 27.833, 28.657, 26.612, 22.877, 28.149, 22.09, 30.318, 28.02, 24.792, 28.384, 31.144, 26.498, 27.286, 27.041, 26.706, 23.502, 28.393, 25.998, 29.265, 26.073, 28.061, 21.603, 30.522, 23.957, 25.733, 23.864, 28.211, 22.43, 28.343, 25.612, 22.879, 30.779, 29.292, 30.842, 30.865, 26.649, 28.372, 29.41, 27.999, 30.916, 26.933, 30.899, 27.651, 24.627, 29.04, 28.222, 21.722, 25.328, 23.001, 30.445, 28.523, 27.295, 29.273, 24.964, 19.6, 23.205, 29.883, 27.389, 30.748, 27.184, 27.053, 26.594, 27.018, 26.342, 30.283, 22.727, 30.784, 28.588, 26.196, 28.426, 25.642, 27.339, 27.666, 30.152, 30.142, 25.563, 27.231, 25.815, 30.917, 22.164, 24.63, 28.296, 25.41, 28.834, 25.391, 24.003, 30.705, 26.37, 30.834, 24.422, 28.24, 25.647, 28.416, 28.406, 30.952, 21.223, 26.744, 24.348, 31.263, 23.643, 30.812, 23.874, 24.764, 29.018, 29.439, 27.266, 28.354, 27.475, 30.478, 22.775, 30.955, 27.228, 30.856, 22.939, 26.965, 26.681, 23.731, 25.124, 29.507, 28.788, 23.314, 30.229, 23.938, 28.389, 25.704, 26.013, 25.226, 26.387, 30.981, 24.683, 28.446, 30.208, 26.099, 23.358, 30.963, 27.762, 25.982, 30.294, 30.338, 30.4, 19.408, 25.916, 28.458, 26.181, 26.988, 28.246, 30.587, 27.07, 27.292, 23.738, 25.579, 27.934, 27.25, 26.972, 27.718, 23.294, 31.198, 29.89, 24.661, 25.784, 27.451, 26.53, 29.984, 29.068, 30.385, 26.54, 28.358, 25.135, 29.411, 30.599, 27.219, 30.206, 30.498, 30.537, 28.69, 29.413, 27.958, 22.618, 30.728, 22.687, 29.898, 30.103, 28.392, 20.861, 25.368, 20.56, 26.335, 31.195, 26.503, 29.858, 28.367, 29.569, 21.439, 25.648, 25.537, 22.915, 23.897, 23.563, 27.947, 26.247, 26.442, 21.092, 26.05, 22.964, 25.811, 30.632, 24.774, 28.047, 23.323, 31.784, 27.385, 30.447, 19.932, 27.357, 23.221, 28.002, 27.121, 22.514, 28.74, 27.005, 26.833, 26.519, 30.501, 25.302, 28.375, 25.274, 30.334, 24.655, 25.824, 25.668, 20.974, 26.929, 29.167, 31.138, 26.371, 28.525, 31.08, 29.332, 23.074, 28.852, 26.503, 27.13, 30.943, 24.83, 29.479, 23.875, 24.259, 29.054, 30.68, 27.761, 27.464, 21.628, 30.672, 27.91, 26.827, 28.387, 30.925, 27.618, 30.026, 28.674, 23.062, 29.128, 28.584, 26.334, 28.886, 24.608, 29.964, 28.476, 30.672, 28.114, 26.365, 25.324, 26.471, 25.12, 23.978, 30.195, 29.403, 28.54, 30.444, 20.39, 30.479, 22.446, 26.303, 24.425, 31.196, 26.89, 24.356, 25.466, 23.966, 26.469, 23.239, 24.922, 25.825, 27.274, 26.289, 21.246, 27.268, 27.826, 25.044, 27.11, 25.834, 23.721, 24.594, 27.593, 24.933, 26.32, 26.338, 18.597, 30.63, 27.675, 25.784, 25.639, 29.93, 28.516, 26.38, 27.02, 20.818, 30.823, 27.257, 27.587, 28.769, 27.693, 27.535, 25.584, 27.261, 27.682, 27.007, 30.948, 28.152, 22.385, 30.753, 25.798, 30.677, 27.024, 29.279, 30.069, 23.758, 26.708, 29.123, 27.748, 23.775, 24.855, 19.737, 24.261, 24.273, 25.154, 30.568, 26.489, 30.496, 27.191, 29.998, 29.219, 27.928, 21.094, 29.834, 27.132, 23.207, 22.25, 26.527, 27.263, 25.097, 26.632, 24.217, 25.285, 27.285, 27.593, 25.658, 28.179, 23.192, 28.816, 29.289, 23.008, 30.049, 25.873, 29.819, 28.367, 30.795, 30.812, 24.485, 20.096, 30.276, 30.867, 28.614, 27.058, 26.623, 30.843, 26.031, 26.277, 26.924, 22.894, 25.455, 27.754, 25.567, 26.823, 23.943, 26.24, 22.46, 26.251, 29.018, 25.597, 30.838, 26.045, 26.157, 24.398, 27.954, 20.715, 26.921, 25.849, 19.299, 30.692, 27.999, 28.654, 27.386, 27.106, 22.376, 28.347, 26.388, 28.847, 30.145, 27.223, 27.159, 28.831, 28.024, 29.782, 28.031, 25.021, 27.19, 30.796, 28.057, 23.932, 29.608, 30.052, 27.662, 25.107, 28.154, 30.056, 22.703, 30.379, 25.803, 28.534, 27.995, 29.224, 29.675, 26.565, 28.012, 22.824, 23.757, 29.711, 26.235, 28.962, 25.377, 28.91, 21.937, 27.677, 30.329, 24.113, 26.184, 25.746, 30.472, 28.127, 28.602, 26.983, 30.471, 23.468, 24.066, 26.645, 26.082, 26.769, 29.974, 27.16, 26.769, 23.644, 30.16, 27.547, 26.267, 24.46, 25.071, 30.186, 29.672, 30.427, 30.492, 27.985, 25.891, 29.963, 26.649, 25.413, 22.786, 29.795, 25.957, 27.844, 31.305, 25.587, 28.393, 29.214, 30.11, 29.852, 26.847, 25.158, 29.665, 24.792, 30.715, 19.675, 28.194, 23.694, 30.918, 24.103, 31.146, 27.267, 27.058, 27.939, 23.185, 26.927, 30.977, 26.945, 26.84, 26.791, 23.635, 27.247, 22.625, 31.204, 26.301, 18.566, 22.714, 26.665, 21.243, 24.662, 26.406, 30.089, 27.734, 26.408, 26.324, 26.969, 26.904, 29.664, 27.236, 25.071, 26.414, 29.703, 24.902, 23.58, 21.418, 29.137, 29.072, 29.701, 23.56, 30.006, 24.725, 31.741, 28.437, 24.761, 27.93, 28.807, 26.809, 27.504, 18.022, 27.476, 22.641, 27.654, 24.968, 29.779, 26.923, 23.522, 30.161, 23.16, 27.748, 25.672, 26.369, 24.989, 27.752, 30.923, 23.471, 30.53, 23.279, 26.724, 25.68, 24.761, 28.386, 29.708, 31.109, 28.275, 28.071, 28.663, 26.525, 25.257, 28.803, 24.316, 27.037, 22.063, 26.15, 31.132, 29.924, 27.542, 26.114, 26.224, 25.467, 30.735, 28.418, 29.435, 26.127, 26.989, 23.888, 30.327, 27.661, 26.492, 27.294, 30.615, 27.486, 31.033, 27.622, 29.948, 24.987, 26.63, 27.966, 26.63, 22.541, 30.542, 26.467, 27.34, 28.195, 29.967, 26.931, 30.865, 25.052, 22.614, 22.32, 25.951, 29.982, 28.348, 27.148, 25.912, 24.082, 30.474, 23.401, 25.024, 25.911, 28.855, 27.606, 30.216, 28.214, 26.626, 30.976, 27.922, 23.234, 30.848, 24.153, 29.583, 29.141, 23.901, 29.778, 22.68, 30.345, 23.298, 27.96, 24.352, 28.474, 26.804, 25.947, 26.589],
  "Optimizer iterations": 665,
  "Optimizer params": [0.6246633813274521, 0.7531435198648029, 0.8825860291625288, 0.5973132603870538, 0.9138193802899177, 0.5786732725204399, 0.9210416233010846, 0.5739268894455781, 0.928750541362174, 0.5230347464923389, 0.5881368420089945, 0.5082296774788189, 0.48515929615642994, 0.5075802453453513, 0.49166272855972865, 0.5109443987220287, 0.47707914212655306, 0.4832561162654332, 0.5118755819999761, 0.8182522703283708, 0.49592421412823146, 0.5113117389548966, 0.5125491607497626, 0.5059737689895625, 0.5168099523337403, 0.5390403239953934, 0.5419495138967398, 0.5470675863715656, 0.5446238932575402, 0.5377223286427739, 0.5851332838289995, 0.5348002789275812, 0.5214684786159155, 0.5197846587524925, 0.5032244079669423, 0.4956381987432077, 0.526496988094955, 0.5004025263005667, 0.49077288021883403, 0.46767341173047183],
  "P": 0,
  "Problem": "IC",
  "QPU": "7000000",
  "Qubits": 10,
  "Shots": 4096,
  "Size": 10,
  "Total Algorithm duration [s]": 17.945,
  "Total Classic duration [s]": 17.569006849582657,
  "Total Quantum duration [s]": 0.3759931504173437
}
