{
  "Depth": 22.5,
  "Expectation Value": -11.725332260131836,
  "Job durations [ms]": [0.5621000018436462, 0.5636499845422804, 0.5556500109378248, 0.5399500078056008, 0.5229499947745353, 0.6330500182230026, 0.5101499991724268, 0.5325499805621803, 0.5286999949021265, 0.5189500225242227, 0.5315500020515174, 0.5475000070873648, 0.5711000121664256, 0.6444999889936298, 0.5904499848838896, 0.6992500275373459, 0.5703000060748309, 0.5232499970588833, 0.5147499905433506, 0.6645000248681754, 0.526699994225055, 0.6969500100240111, 0.5256499862298369, 0.5458499945234507, 0.5525499873328954, 0.5736500024795532, 0.5522499850485474, 0.538399996003136, 0.753400003304705, 0.5022000113967806, 0.530099991010502, 0.6619000050704926, 0.5068000173196197, 0.7224000000860542, 0.5190999945625663, 0.5810500006191432, 0.5599999858532101, 0.5262000195216388, 0.6310000026132911, 0.5375999899115413, 0.6537500012200326, 0.5364500102587044, 0.5323500081431121, 0.5595500115305185, 0.6199500057846308, 0.5240000027697533, 0.5251499824225903, 0.6083000043872744, 0.517400010721758, 0.5179500003578141, 0.5513499781955034, 0.5799999926239252, 0.5261000042082742, 0.4984499973943457, 0.526399991940707, 0.5151499935891479, 0.7040500058792531, 0.5306500243023038, 0.5317499744705856, 0.5289500113576651, 0.5159499996807426, 0.5736000020988286, 0.6826500175520778, 0.5275500006973743, 0.6948999944142997, 0.5227499932516366, 0.665850006043911, 0.5168499774299562, 0.6498000002466142, 0.5299999902490526, 0.523599999723956, 0.5216000135987997, 0.5334499874152243, 0.522849994013086, 0.52375000086613, 0.46279998787213117, 0.6588499818462878, 0.5367500125430524, 0.5194000113988295, 0.5302000208757818, 0.5316999740898609, 0.5109499907121062, 0.5289000109769404, 0.5765499954577535, 0.5876000213902444, 0.5211500101722777, 0.5190500232856721, 0.5251500115264207, 0.676049996400252, 0.5187499918974936, 0.5201000021770597, 0.530849996721372, 0.5267000233288854, 0.5224999913480133, 0.536749983439222, 0.528500007931143, 0.5344999954104424, 0.5336999893188477, 0.52525001228787, 0.5202500033192337, 0.5437000072561204, 0.6861999863758683, 0.5336500180419534, 0.5133499798830599, 0.5246000073384494, 0.6543000054080039, 0.5443500122055411, 0.5168500065337867, 0.5528499896172434, 0.7218999962788075, 0.5898000090382993, 0.534549995791167, 0.6098000158090144, 0.6028999923728406, 0.51710000843741, 0.5313500005286187, 0.7288999913726002, 0.5294500151649117, 0.4863500071223825, 0.5326000100467354, 0.6190499989315867, 0.5557499825954437, 0.5130500067025423, 0.6896000122651458, 0.6566500233020633, 0.5156999977771193, 0.6634499877691269, 0.5321999778971076, 0.522399990586564, 0.524500006577, 0.661000027321279, 0.5690499965567142, 0.5263000202830881, 0.6007500051055104, 0.6981499900575727, 0.5038500094087794, 0.6597499886993319, 0.6286999850999564, 0.7032499997876585, 0.5254500138107687, 0.6018500134814531, 0.6598499894607812, 0.5250000103842467, 0.6475500122178346, 0.5368500133045018, 0.5288000102154911, 0.5643999902531505, 0.5275499715935439, 0.516200001584366, 0.5171500088181347, 0.5572999943979084, 0.5320000054780394, 0.6047000060789287, 0.53039999329485, 0.6160499760881066, 0.5780499777756631, 0.534249993506819, 0.5224499909672886, 0.5688499950338155, 0.5173500103410333, 0.5590000073425472, 0.5321500066202134, 0.5287500098347664, 0.5778499762527645, 0.5251499824225903, 0.6370999908540398, 0.5259999888949096, 0.5253499839454889, 0.5322499782778323, 0.6350500043481588, 0.5278500029817224, 0.7284499879460782, 0.6630000134464353, 0.5653499974869192, 0.6511500105261803, 0.5127000040374696, 0.5375000182539225, 0.5263499915599823, 0.5149999924469739, 0.7337999995797873, 0.5166499759070575, 0.6596000166609883, 0.5277000018395483, 0.6383500003721565, 0.5992499936837703, 0.5381500232033432, 0.5292000132612884, 0.5170499789528549, 0.5140499997651204, 0.7244500156957656, 0.5330999847501516, 0.5837499920744449, 0.5179500149097294, 0.5564499879255891, 0.520200002938509, 0.6493499968200922, 0.528050004504621, 0.6974000134505332, 0.5156999977771193, 0.611600000411272, 0.5289999826345593, 0.527149997651577, 0.7380500028375536, 0.6147000240162015, 0.5058000097051263, 0.6081000028643757, 0.5223000189289451, 0.6160500051919371, 0.5179499858058989, 0.6299999949987978, 0.5383500247262418, 0.589250004850328, 0.509100005729124, 0.5701000045519322, 0.534249993506819, 0.5711000121664256, 0.5278000026009977, 0.7073000015225261, 0.5659000016748905, 0.6266999989748001, 0.5251999828033149, 0.6600000197067857, 0.5461499968077987, 0.520950008649379, 0.5658500012941658, 0.5261000187601894, 0.721750024240464, 0.6391000060830265, 0.6021500157658011, 0.5288500105962157, 0.5006499995943159, 0.5549000052269548, 0.7143499969970435, 0.5260499892756343, 0.5688499950338155, 0.533949991222471, 0.5896999791730195, 0.5021500110160559, 0.7229999755509198, 0.5154000100446865, 0.5618499999400228, 0.5116500105941668, 0.5257500160951167, 0.524350005434826, 0.5366500117816031, 0.5278500029817224, 0.5153499951120466, 0.5324500089045614, 0.5768499977421016, 0.685799983330071, 0.5714999861083925, 0.6595999875571579, 0.531450001290068, 0.6516499852295965, 0.516500003868714, 0.5148000200279057, 0.5679000169038773, 0.5264999927021563, 0.5362499796319753, 0.5681499897036701, 0.5522000137716532, 0.5146499897819012, 0.5234000127529725, 0.594900018768385, 0.5341999931260943, 0.5344999954104424, 0.526099989656359, 0.5568500200752169, 0.527900003362447, 0.5217999860178679, 0.6855500105302781, 0.5706499796360731, 0.53114999900572, 0.5646499921567738, 0.5225000204518437, 0.5321500066202134, 0.5630000086966902, 0.6321499822661281, 0.5325500096660107, 0.51785001414828, 0.5224999913480133, 0.5887500010430813, 0.531750003574416, 0.7355500129051507, 0.5256999866105616, 0.5405500123742968, 0.523149996297434, 0.5241500039119273, 0.5265500076347962, 0.5221999890636653, 0.6397999823093414, 0.5234999989625067, 0.5262999911792576, 0.45355000474955887, 0.5159499996807426, 0.5559500132221729, 0.524350005434826, 0.50970001029782, 0.521250010933727, 0.5298999894876033, 0.6163500074762851, 0.5382999952416867, 0.5686000222340226, 0.7201500120572746, 0.5170500080566853, 0.523449998581782, 0.5282499769236892, 0.7125500123947859, 0.5971500067971647, 0.5311500135576352, 0.6067499925848097, 0.5426999996416271, 0.520800007507205, 0.5398500070441514, 0.6508999795187265, 0.7019500189926475, 0.5113000224810094, 0.7185499998740852, 0.5363500094972551, 0.6413999944925308, 0.5232499970588833, 0.5375000182539225, 0.5225999921094626, 0.520950008649379, 0.6664000102318823, 0.5366500117816031, 0.5747500108554959, 0.5238000012468547, 0.663500017253682, 0.5941999843344092, 0.6795499939471483, 0.5321500066202134, 0.5240999744273722, 0.5780500068794936, 0.531750003574416, 0.5595999828074127, 0.7258999976329505, 0.7110500009730458, 0.6826500175520778, 0.5104000010760501, 0.5288499814923853, 0.6061999883968383, 0.5828499852214009, 0.5305999948177487, 0.5258499877527356, 0.6331499898806214, 0.6832000217400491, 0.6327999872155488, 0.5190000083530322, 0.5032999906688929, 0.5233999982010573, 0.5264999927021563, 0.6868999917060137, 0.6682999955955893, 0.5316500028129667, 0.5757000180892646, 0.5208500078879297, 0.5098000110592693, 0.5352000007405877, 0.6643000233452767, 0.5251500115264207, 0.6294999911915511, 0.7427000091411173, 0.5362000083550811, 0.6067499925848097, 0.5234999989625067, 0.6030999938957393, 0.7230499759316444, 0.520200002938509, 0.7089499849826097, 0.5170500080566853, 0.5839999939780682, 0.7306000043172389, 0.5249499808996916, 0.5305999948177487, 0.6424500024877489, 0.5000500095775351, 0.7081500079948455, 0.5293000140227377, 0.6725499988533556, 0.5331500142347068, 0.5304499936755747, 0.5434000049717724, 0.5360000068321824, 0.5406499840319157, 0.518000015290454, 0.5215499841142446, 0.5373500171117485, 0.6461500015575439, 0.5239500023890287, 0.524350005434826, 0.5106999888084829, 0.545349990716204, 0.5253000126685947, 0.510300014866516, 0.5638500151690096, 0.5280499754007906, 0.540899985935539, 0.5563000158872455, 0.5270500259939581, 0.7012999849393964, 0.5402500100899488, 0.5769499985035509, 0.5264000210445374, 0.5909499886911362, 0.6389000045601279, 0.528200005646795, 0.5254500138107687, 0.5399000074248761, 0.516950007295236, 0.5386499979067594, 0.5318000039551407, 0.5149999924469739, 0.5215000128373504, 0.5662999756168574, 0.5754000158049166, 0.5446000141091645, 0.5226000212132931, 0.5710500117857009, 0.53114999900572, 0.519599998369813, 0.7298999989870936, 0.5175499973120168, 0.5055499932495877, 0.5282999773044139, 0.529949989868328, 0.5208499787840992, 0.5380499933380634, 0.5250500107649714, 0.534999999217689, 0.5210499803069979, 0.5164000031072646, 0.6901999877300113, 0.5611499946098775, 0.6527499936055392, 0.5253000126685947, 0.5119999987073243, 0.5520999839063734, 0.5220500170253217, 0.5143500166013837, 0.5248999805189669, 0.5121499998494983, 0.5214500124566257, 0.5964500014670193, 0.5222500185482204, 0.7290999928954989, 0.6369500188156962, 0.6900500156916678, 0.5221499886829406, 0.6349000032059848, 0.5722000205423683, 0.5676999862771481, 0.6967500085011125, 0.5183999892324209, 0.5675000138580799, 0.5244500061962754, 0.5728499963879585, 0.5673500127159059, 0.49684999976307154, 0.49289998423773795, 0.5510499759111553, 0.6074999982956797, 0.7092499872669578, 0.48689999675843865, 0.5181500018807128, 0.5251499824225903, 0.5452000186778605, 0.5264999927021563, 0.5676500150002539, 0.5341500218492001, 0.5685499927494675, 0.5703000060748309, 0.5288000102154911, 0.5454499914776534, 0.5396500055212528, 0.58305001584813, 0.5278999742586166, 0.6430500070564449, 0.5323500081431121, 0.5646499921567738, 0.5440500099211931, 0.5245500069577247, 0.6493499968200922, 0.5188499926589429, 0.6696500058751553, 0.5153000092832372, 0.5229499947745353, 0.6392000068444759, 0.5209499940974638, 0.6122500053606927, 0.526849995367229, 0.6935500132385641, 0.5339999916031957, 0.5285500083118677, 0.6101999897509813, 0.5640499875880778, 0.526099989656359, 0.5156999977771193, 0.5744500085711479, 0.5623000033665448, 0.6930500094313174, 0.5256500153336674, 0.5400500085670501, 0.5168499774299562, 0.6295999919530004, 0.5865500133950263, 0.529949989868328, 0.5789500137325376, 0.7029499975033104, 0.5232499970588833, 0.5220499879214913, 0.5348500271793455, 0.6852000078652054, 0.5287500098347664, 0.6623500084970146, 0.6327000155579299, 0.5701500049326569, 0.532050005858764, 0.6113999988883734, 0.538849999429658, 0.6224499957170337, 0.5315500020515174, 0.6485999911092222, 0.6716500211041421, 0.5230000242590904, 0.6952499970793724, 0.5114000086905435, 0.7059499912429601, 0.7070999999996275, 0.7044999802019447, 0.6757999944966286, 0.5110000201966614, 0.7323499885387719, 0.6586999807041138, 0.5127500044181943, 0.5838499928358942, 0.6230500002857298, 0.5308999971020967, 0.533799990080297, 0.5259999888949096, 0.5859500088263303, 0.5230499955359846, 0.5204499757383019, 0.607299996772781, 0.5090500053483993, 0.620149978203699, 0.548749987501651, 0.6067499925848097, 0.5374000174924731, 0.5659500020556152, 0.5382500239647925, 0.5418500222731382, 0.6041000015102327, 0.5879999953322113, 0.5233499978203326, 0.522549991728738, 0.5219000013312325, 0.5596500122919679, 0.5311999993864447, 0.5644499906338751, 0.6308500014711171, 0.5023999983677641, 0.5194000259507447, 0.7143999973777682, 0.5946999881416559, 0.6771499756723642, 0.7474499871022999, 0.520950008649379, 0.49930000386666507, 0.518300017574802, 0.5105500022182241, 0.515899999300018, 0.6628999835811555, 0.5181999877095222, 0.6121500045992434, 0.5206000059843063, 0.6017999839968979, 0.526099989656359, 0.5248500092420727, 0.6830999918747693, 0.5722000205423683, 0.5653499974869192, 0.7213499920908362, 0.6893999816384166, 0.5930000043008476, 0.5139000131748617, 0.5269499961286783, 0.7147500000428408, 0.5344999954104424, 0.6137000164017081, 0.5930500046815723, 0.7252499926835299, 0.5151500226929784, 0.5621000018436462, 0.5060500116087496, 0.5344999954104424, 0.5677999870385975, 0.5072000058135018, 0.5243000050541013, 0.5264000210445374, 0.5396000051405281, 0.5627500067930669, 0.5708000098820776, 0.7273499795701355, 0.5691999976988882, 0.5218499863985926, 0.679899996612221, 0.5407999851740897, 0.604350003413856, 0.519900000654161, 0.5144999886397272, 0.5304000223986804, 0.5372499872464687, 0.5359500064514577, 0.6637999904341996, 0.513250008225441, 0.5664500058628619, 0.5552500078920275, 0.5298500182107091, 0.534849998075515, 0.5815500044263899, 0.5713500140700489, 0.540749984793365, 0.5261999904178083, 0.5108000041218475, 0.5147499905433506, 0.6868999917060137, 0.527149997651577, 0.5276500014588237, 0.7288999913726002, 0.523900002008304, 0.7255499949678779, 0.5412999889813364, 0.6887500057928264, 0.6538500019814819, 0.5375500186346471, 0.516050000442192, 0.5314000009093434, 0.5272000271361321, 0.5277000018395483, 0.5143000016687438, 0.51635000272654, 0.528650009073317, 0.7042500074021518, 0.5603000172413886, 0.5714000144507736, 0.5332999862730503, 0.5117499968037009, 0.5189499934203923, 0.5315500020515174, 0.6669999856967479, 0.5455999926198274, 0.5657000001519918, 0.5658000009134412, 0.5249000096227974, 0.5099999834783375, 0.6903500179760158, 0.6078500009607524, 0.5227999936323613, 0.5187000206205994, 0.5092499923193827, 0.5102000141050667, 0.5617999995592982, 0.5234999989625067, 0.526699994225055],
  "Optimal Expectation Value": -12.381489753723145,
  "Optimizer durations [ms]": [31.687, 24.206, 21.788, 27.747, 25.816, 28.426, 25.135, 28.572, 31.177, 28.013, 29.656, 29.432, 27.533, 31.107, 30.166, 30.112, 24.325, 24.309, 30.737, 22.731, 30.786, 26.159, 26.979, 27.074, 21.966, 26.121, 30.074, 31.204, 27.255, 30.339, 30.846, 29.347, 29.276, 25.083, 23.515, 30.416, 22.042, 27.639, 27.939, 30.99, 29.956, 23.547, 23.16, 25.843, 30.81, 28.164, 28.529, 29.739, 29.614, 23.131, 28.975, 21.828, 27.292, 25.991, 28.749, 29.151, 30.142, 29.178, 24.702, 22.321, 23.672, 26.824, 22.682, 31.04, 28.042, 28.634, 28.858, 26.344, 27.04, 23.746, 28.042, 29.123, 22.185, 30.894, 26.773, 21.948, 24.143, 27.836, 30.722, 29.983, 27.949, 25.169, 26.111, 24.531, 30.202, 28.084, 30.528, 28.556, 28.045, 22.49, 28.204, 28.838, 29.151, 26.501, 28.931, 31.251, 31.676, 24.65, 27.571, 27.876, 25.772, 26.19, 31.309, 27.718, 26.612, 26.832, 23.727, 30.764, 22.574, 25.607, 29.142, 30.06, 24.954, 30.157, 23.229, 27.083, 24.082, 31.001, 24.003, 31.169, 25.977, 21.864, 27.896, 29.601, 29.848, 30.717, 24.3, 28.116, 26.665, 30.79, 23.112, 23.892, 31.197, 28.625, 30.158, 29.724, 24.16, 30.334, 26.72, 25.933, 27.776, 25.26, 30.649, 27.695, 28.641, 25.837, 23.273, 25.564, 24.376, 28.39, 29.643, 30.569, 20.516, 28.279, 25.42, 25.931, 26.334, 26.513, 23.769, 30.644, 23.098, 26.604, 27.901, 17.937, 26.612, 30.257, 22.371, 27.292, 29.03, 23.642, 28.01, 30.451, 30.227, 27.042, 30.645, 20.754, 31.007, 23.328, 29.804, 23.503, 30.775, 25.768, 30.966, 25.546, 26.733, 24.456, 26.458, 30.695, 30.793, 25.791, 21.933, 30.017, 30.75, 20.1, 30.554, 26.269, 27.875, 25.637, 28.112, 29.398, 31.241, 26.631, 27.352, 24.936, 30.68, 23.074, 31.297, 24.658, 24.543, 30.28, 28.617, 24.351, 28.697, 23.377, 22.23, 30.302, 27.787, 27.193, 22.793, 27.756, 27.889, 25.425, 27.062, 27.639, 22.393, 27.267, 30.069, 30.234, 25.402, 30.769, 26.604, 22.268, 27.582, 29.17, 22.645, 29.471, 23.325, 30.279, 27.827, 30.51, 24.531, 25.394, 30.948, 26.685, 29.533, 28.284, 26.815, 25.989, 26.931, 24.499, 25.735, 27.386, 27.221, 28.811, 28.24, 26.587, 27.102, 24.661, 28.0, 26.928, 30.235, 27.948, 31.398, 28.324, 30.269, 28.242, 26.42, 27.901, 31.324, 31.088, 29.448, 21.315, 29.354, 21.836, 30.884, 22.538, 27.034, 25.814, 28.39, 26.264, 30.857, 27.682, 28.921, 26.889, 26.984, 25.76, 29.643, 19.369, 28.919, 25.259, 25.869, 29.193, 29.96, 22.247, 23.175, 31.452, 27.249, 30.911, 23.454, 22.802, 29.962, 24.475, 30.639, 27.846, 26.387, 30.498, 23.968, 27.543, 24.689, 28.611, 25.344, 29.224, 28.968, 27.257, 27.571, 25.175, 29.771, 25.927, 26.193, 25.808, 27.865, 24.966, 31.064, 28.487, 27.514, 23.67, 27.18, 26.443, 27.047, 25.697, 27.894, 25.944, 22.202, 23.824, 25.304, 22.411, 27.769, 24.813, 29.891, 27.793, 25.593, 25.4, 24.801, 30.737, 27.683, 27.553, 30.212, 27.984, 27.159, 29.008, 30.777, 26.297, 25.855, 28.858, 30.929, 24.026, 27.549, 27.125, 26.463, 27.205, 31.114, 28.763, 30.303, 24.848, 28.235, 25.182, 30.273, 22.383, 27.242, 27.357, 31.034, 23.82, 30.32, 25.47, 27.523, 24.482, 26.492, 27.469, 30.701, 26.791, 26.799, 22.36, 27.473, 28.928, 25.033, 31.087, 26.745, 31.073, 25.1, 28.885, 30.237, 27.879, 31.183, 26.279, 28.75, 22.662, 25.534, 30.681, 22.584, 25.555, 30.284, 28.327, 23.758, 26.246, 25.892, 27.239, 29.752, 31.132, 28.405, 30.162, 22.83, 27.9, 30.255, 28.211, 26.35, 22.747, 26.485, 21.856, 24.976, 25.478, 30.511, 27.52, 27.419, 23.416, 29.859, 27.271, 27.377, 24.602, 30.406, 30.838, 30.513, 26.544, 26.519, 22.862, 27.177, 24.288, 23.822, 29.766, 30.088, 29.972, 27.824, 26.668, 29.629, 28.449, 23.973, 30.088, 27.798, 26.43, 26.221, 29.931, 25.284, 23.379, 30.367, 26.299, 28.043, 31.169, 27.296, 26.881, 30.332, 26.882, 30.887, 25.972, 28.463, 22.417, 26.034, 23.051, 30.52, 24.543, 25.056, 30.224, 23.789, 26.253, 29.342, 25.459, 31.345, 24.491, 31.079, 30.523, 30.918, 23.637, 23.682, 26.449, 30.652, 30.372, 30.132, 31.153, 27.704, 23.364, 30.665, 23.252, 27.84, 25.902, 26.795, 26.842, 24.574, 28.183, 27.428, 31.063, 23.007, 22.707, 26.005, 28.946, 31.009, 28.313, 26.474, 27.006, 27.593, 23.944, 25.821, 27.512, 29.096, 31.115, 23.257, 30.172, 25.503, 30.387, 22.231, 26.265, 27.067, 21.642, 27.028, 25.496, 28.08, 25.752, 29.979, 25.209, 26.952, 30.146, 30.279, 27.285, 28.52, 25.997, 29.01, 29.376, 22.352, 25.67, 26.839, 29.721, 27.594, 26.07, 21.708, 28.866, 25.928, 25.487, 28.141, 25.506, 25.505, 23.684, 29.271, 24.826, 26.172, 29.885, 30.406, 27.263, 25.059, 25.553, 27.123, 26.388, 22.524, 23.176, 24.794, 30.64, 25.445, 30.101, 22.856, 28.636, 28.873, 27.998, 27.527, 22.708, 29.208, 24.294, 29.585, 30.764, 30.473, 28.878, 25.933, 26.259, 28.035, 25.411, 28.101, 23.93, 30.012, 25.862, 29.963, 21.767, 30.398, 25.425, 26.683, 27.214, 24.397, 27.754, 28.29, 23.072, 29.449, 27.425, 23.073, 26.745, 26.567, 29.629, 30.985, 25.91, 20.19, 30.756, 23.866, 29.332, 27.814, 30.047, 28.365, 31.048, 27.465, 31.0, 23.374, 30.779, 27.748, 24.95, 23.746, 22.321, 26.56, 29.103, 28.64, 24.586, 25.611, 30.75, 28.15, 28.323, 28.029, 27.016, 28.711, 30.932, 27.875, 26.566, 31.2, 21.712, 26.5, 27.652, 30.643, 28.893, 27.583, 27.452, 28.589, 28.72, 29.387, 26.419, 25.174, 25.781, 25.98, 30.569, 25.913, 26.686, 30.193, 28.225, 24.319, 26.819, 29.07, 29.588, 28.205, 26.216, 30.809, 25.724, 28.389, 27.579, 22.631, 27.187, 27.697],
  "Optimizer iterations": 665,
  "Optimizer params": [0.6246633813274521, 0.7531435198648029, 0.8825860291625288, 0.5973132603870538, 0.9138193802899177, 0.5786732725204399, 0.9210416233010846, 0.5739268894455781, 0.928750541362174, 0.5230347464923389, 0.5881368420089945, 0.5082296774788189, 0.48515929615642994, 0.5075802453453513, 0.49166272855972865, 0.5109443987220287, 0.47707914212655306, 0.4832561162654332, 0.5118755819999761, 0.8182522703283708, 0.49592421412823146, 0.5113117389548966, 0.5125491607497626, 0.5059737689895625, 0.5168099523337403, 0.5390403239953934, 0.5419495138967398, 0.5470675863715656, 0.5446238932575402, 0.5377223286427739, 0.5851332838289995, 0.5348002789275812, 0.5214684786159155, 0.5197846587524925, 0.5032244079669423, 0.4956381987432077, 0.526496988094955, 0.5004025263005667, 0.49077288021883403, 0.46767341173047183],
  "P": 0,
  "Problem": "IC",
  "QPU": "7000000",
  "Qubits": 10,
  "Shots": 4096,
  "Size": 10,
  "Total Algorithm duration [s]": 18.092,
  "Total Classic duration [s]": 17.713611999435116,
  "Total Quantum duration [s]": 0.37838800056488253
}
