{
  "Depth": 22.5,
  "Expectation Value": -11.725332260131836,
  "Job durations [ms]": [0.533649988938123, 0.7021000201348215, 0.5333500157576054, 0.6231000006664544, 0.5137500120326877, 0.6284000119194388, 0.5660000024363399, 0.6804500008001924, 0.5240000027697533, 0.5851000023540109, 0.5318000039551407, 0.5673499836120754, 0.5160000000614673, 0.5186999915167689, 0.512149985297583, 0.7324999896809459, 0.5219000158831477, 0.5624000041279942, 0.5030000029364601, 0.5240000027697533, 0.7063499942887574, 0.5252000119071454, 0.5100499984109774, 0.4880499909631908, 0.519900000654161, 0.523599999723956, 0.6505999772343785, 0.5850500019732863, 0.6561999907717109, 0.5645999917760491, 0.5605499900411814, 0.5208999937167391, 0.5247999943094328, 0.58895000256598, 0.6527500227093697, 0.6310500029940158, 0.5318000039551407, 0.6527999939862639, 0.5219999875407666, 0.5824499821756035, 0.6382999999914318, 0.6847000040579587, 0.5222499894443899, 0.5277000018395483, 0.6847000040579587, 0.6972000119276345, 0.519749999511987, 0.5202999745961279, 0.5760999920312315, 0.5644000193569809, 0.5253999843262136, 0.5224000196903944, 0.5290000117383897, 0.52375000086613, 0.6516499852295965, 0.6354000070132315, 0.5183999892324209, 0.5264499923214316, 0.5211499810684472, 0.5622000026050955, 0.7104999967850745, 0.50970001029782, 0.6476499838754535, 0.525949988514185, 0.7025500235613436, 0.5251999828033149, 0.538699998287484, 0.7185499998740852, 0.531300000147894, 0.5296000163070858, 0.5304999940562993, 0.7177999941632152, 0.5822999810334295, 0.5208500078879297, 0.524500006577, 0.5493499920703471, 0.6162500067148358, 0.5335500172805041, 0.5163000023458153, 0.6479500152636319, 0.5243499763309956, 0.526399991940707, 0.523900002008304, 0.5176000122446567, 0.5999999993946403, 0.5783500091638416, 0.5207999784033746, 0.6907499919179827, 0.523149996297434, 0.5569499917328358, 0.5278500029817224, 0.5224499909672886, 0.5137500120326877, 0.5290000117383897, 0.6279499793890864, 0.5204000044614077, 0.5616999987978488, 0.5226499924901873, 0.592199998209253, 0.531750003574416, 0.6518500158563256, 0.5149499920662493, 0.5345000245142728, 0.5422999965958297, 0.5363499803934246, 0.5300499906297773, 0.5207000067457557, 0.5248500092420727, 0.6514500128105283, 0.7231000054161996, 0.6896999839227647, 0.5575500254053622, 0.529949989868328, 0.6714500195812434, 0.52299999515526, 0.5837999924551696, 0.5199500010348856, 0.534549995791167, 0.5003499973099679, 0.7326999912038445, 0.5320000054780394, 0.5193499964661896, 0.7237499812617898, 0.5645499913953245, 0.5610499938484281, 0.5241500039119273, 0.5318000039551407, 0.5424499977380037, 0.5986500182189047, 0.6427500047720969, 0.5286999803502113, 0.582750013563782, 0.5246999789960682, 0.5119999987073243, 0.5248500092420727, 0.6420499994419515, 0.5088500038255006, 0.7062000222504139, 0.5305999948177487, 0.5767499969806522, 0.5381999944802374, 0.5378999921958894, 0.5524499865714461, 0.5745000089518726, 0.6201500073075294, 0.5152499943505973, 0.5225000204518437, 0.5152499943505973, 0.5785500106867403, 0.5233999982010573, 0.5147999909240752, 0.6491499952971935, 0.5287000094540417, 0.7161500107031316, 0.5282999773044139, 0.514450017362833, 0.6876499974168837, 0.5279500037431717, 0.5324000085238367, 0.5587500054389238, 0.515749998157844, 0.521100009791553, 0.522849994013086, 0.5244999774731696, 0.5709499819204211, 0.6741999823134392, 0.6154000002425164, 0.7084000098984689, 0.6446999905165285, 0.522849994013086, 0.5254999850876629, 0.5329000123310834, 0.5615999980363995, 0.532050005858764, 0.5139000131748617, 0.525400013430044, 0.5406499840319157, 0.6028500210959464, 0.5601500160992146, 0.5599999858532101, 0.6428000051528215, 0.7161000103224069, 0.6568499957211316, 0.528200005646795, 0.5261499900370836, 0.6808500038459897, 0.5184000037843361, 0.5394500039983541, 0.6981999904382974, 0.5242999759502709, 0.5674500134773552, 0.5235499993432313, 0.5670000100508332, 0.5219999875407666, 0.5626500060316175, 0.5188999930396676, 0.5207999784033746, 0.6496499991044402, 0.5690999969374388, 0.5707500095013529, 0.5278500029817224, 0.5632499814964831, 0.682849989971146, 0.5275500006973743, 0.5528999899979681, 0.5350499995984137, 0.5306499951984733, 0.5218000151216984, 0.5183499888516963, 0.5253500130493194, 0.5257499869912863, 0.6293999904301018, 0.5257499869912863, 0.687599997036159, 0.5378999921958894, 0.5076499946881086, 0.5321000062394887, 0.5317000031936914, 0.6860499852336943, 0.5068000027677044, 0.525400013430044, 0.5119999987073243, 0.5215000128373504, 0.5492999916896224, 0.5679499881807715, 0.7159999804571271, 0.5204999761190265, 0.7046500104479492, 0.5244000058155507, 0.6871500227134675, 0.540449982509017, 0.6548000092152506, 0.519900000654161, 0.524500006577, 0.5386499979067594, 0.526549993082881, 0.5395000043790787, 0.7375999994110316, 0.527299998793751, 0.5397000059019774, 0.6489999941550195, 0.5614499968942255, 0.5337499896995723, 0.5915499932598323, 0.509049990796484, 0.5666500073857605, 0.5157499836059287, 0.5244500061962754, 0.5116499960422516, 0.526399991940707, 0.5163999885553494, 0.5368499842006713, 0.5015500064473599, 0.5196499987505376, 0.5167500057723373, 0.5468500021379441, 0.5614499968942255, 0.603899999987334, 0.5296500166878104, 0.5585000035353005, 0.5878499941900373, 0.5635999841615558, 0.5599999858532101, 0.5523499858099967, 0.6629499839618802, 0.5495499935932457, 0.5135000101290643, 0.5189500225242227, 0.5518000107258558, 0.5817499768454581, 0.5166999908396974, 0.509400008013472, 0.527299998793751, 0.5338999908417463, 0.5854500050190836, 0.5282500060275197, 0.5674999847542495, 0.6927500071469694, 0.6226999976206571, 0.6028500210959464, 0.5267499946057796, 0.6614000012632459, 0.5710999830625951, 0.6360000115819275, 0.585400004638359, 0.5298500182107091, 0.7127000135369599, 0.5181000160519034, 0.6997000018600374, 0.5267499946057796, 0.5306499951984733, 0.6338499952107668, 0.5277999734971672, 0.520950008649379, 0.5098999827168882, 0.5236500001046807, 0.528650009073317, 0.6368000176735222, 0.5977999826427549, 0.5181499873287976, 0.5323500081431121, 0.6412999937310815, 0.538699998287484, 0.5350999999791384, 0.5363999807741493, 0.6747500156052411, 0.5300499906297773, 0.5682999908458441, 0.5809499998576939, 0.6619500054512173, 0.651800015475601, 0.5409500154200941, 0.5275500006973743, 0.513850012794137, 0.5847499996889383, 0.6035499973222613, 0.5146999901626259, 0.5233999982010573, 0.519599998369813, 0.5443500122055411, 0.5288000102154911, 0.5130000063218176, 0.5207000067457557, 0.5250499816611409, 0.531600002432242, 0.5367000121623278, 0.5361999792512506, 0.5738000036217272, 0.6805500015616417, 0.607449997914955, 0.5615499976556748, 0.6131499831099063, 0.5108500045025721, 0.6790499901399016, 0.521550013218075, 0.5690999969374388, 0.6218499911483377, 0.5244000058155507, 0.5584000027738512, 0.5272499838611111, 0.520050001796335, 0.5207000067457557, 0.758399983169511, 0.5264499923214316, 0.6041000015102327, 0.5196999991312623, 0.6585999799426645, 0.7072500011418015, 0.519599998369813, 0.5179499858058989, 0.5776000034529716, 0.5199500010348856, 0.5154999962542206, 0.5016500072088093, 0.6402499857358634, 0.516950007295236, 0.520500005222857, 0.5241000035312027, 0.4941500083077699, 0.5368000129237771, 0.5245500069577247, 0.5264499923214316, 0.522000016644597, 0.5554999806918204, 0.5628500075545162, 0.5222499894443899, 0.6837500259280205, 0.6402000144589692, 0.5345999961718917, 0.5347999976947904, 0.537499989150092, 0.6300499953795224, 0.5363999807741493, 0.5838500219397247, 0.5421499954536557, 0.5474499921547249, 0.6358500104397535, 0.5178499850444496, 0.5188999930396676, 0.49909998779185116, 0.6065999914426357, 0.6266999989748001, 0.5188000213820487, 0.5189999938011169, 0.5222499894443899, 0.5711500125471503, 0.497499990160577, 0.5067500023869798, 0.6170000124257058, 0.5270500114420429, 0.530699995579198, 0.5914000212214887, 0.6574500002898276, 0.5466000002343208, 0.5511000053957105, 0.5326500104274601, 0.4882500070380047, 0.5085000011604279, 0.5923999997321516, 0.5730499979108572, 0.5186499911360443, 0.6271000020205975, 0.5373000167310238, 0.5537000251933932, 0.49810000928118825, 0.527750002220273, 0.5088500038255006, 0.5199500010348856, 0.533949991222471, 0.5117999971844256, 0.7158500084187835, 0.519149994943291, 0.5281000048853457, 0.5855000053998083, 0.5284999788273126, 0.5400500085670501, 0.5229000089457259, 0.7082500087562948, 0.6395499804057181, 0.523900002008304, 0.5184000037843361, 0.513100007083267, 0.5247500084806234, 0.5236500001046807, 0.534099992364645, 0.5253999843262136, 0.6244000105652958, 0.5252999981166795, 0.5291000124998391, 0.5330999847501516, 0.536599982297048, 0.53114999900572, 0.5123000155435875, 0.5580500001087785, 0.533349986653775, 0.5276500014588237, 0.518450018716976, 0.7172499899752438, 0.5105999880470335, 0.5739000043831766, 0.5153999954927713, 0.532050005858764, 0.614849996054545, 0.5198000144446269, 0.6010500073898584, 0.6412999937310815, 0.520800007507205, 0.7214000215753913, 0.6701000093016773, 0.6527499936055392, 0.5527999892365187, 0.5080000119050965, 0.5598000134341419, 0.5485000147018582, 0.5278500029817224, 0.6034999969415367, 0.5715500155929476, 0.5175999831408262, 0.53039999329485, 0.5704500072170049, 0.5240000027697533, 0.5720999906770885, 0.5310999986249954, 0.6802999996580184, 0.5203000036999583, 0.515899999300018, 0.5141000001458451, 0.533649988938123, 0.5644500197377056, 0.5219999875407666, 0.5349499988369644, 0.5110000056447461, 0.4962000093655661, 0.5275500006973743, 0.5225999921094626, 0.5683999916072935, 0.5091500061098486, 0.5854999762959778, 0.5319500050973147, 0.5965500022284687, 0.5106000025989488, 0.528200005646795, 0.5257000157143921, 0.5318499752320349, 0.5256000149529427, 0.5155499966349453, 0.6548000092152506, 0.5200000014156103, 0.5284999788273126, 0.582000007852912, 0.6057000136934221, 0.5764499946963042, 0.7049000123515725, 0.5234999989625067, 0.5302000208757818, 0.594600016484037, 0.5678499874193221, 0.5576499970629811, 0.7285499887075275, 0.5053500062786043, 0.524650007719174, 0.6020499859005213, 0.7213000062620267, 0.5326500104274601, 0.5221999890636653, 0.6780500116292387, 0.5662500043399632, 0.6353999779094011, 0.523449998581782, 0.5288499814923853, 0.5175000114832073, 0.520350004080683, 0.6852500082459301, 0.5106999888084829, 0.5285499792080373, 0.521850015502423, 0.5315000016707927, 0.7261999999172986, 0.5275000003166497, 0.5352000007405877, 0.521100009791553, 0.5759000196121633, 0.5222999898251146, 0.5144000169821084, 0.5256499862298369, 0.6010500073898584, 0.7081000076141208, 0.5189000075915828, 0.6204999808687717, 0.5632500106003135, 0.5371499864850193, 0.6134500144980848, 0.5179499858058989, 0.5658000009134412, 0.5216500139795244, 0.5375000182539225, 0.5276500014588237, 0.596049998421222, 0.528050004504621, 0.6920500018168241, 0.5366999830584973, 0.5245499778538942, 0.5602499877568334, 0.5190500087337568, 0.5364500102587044, 0.5719999899156392, 0.5469000025186688, 0.516500003868714, 0.526699994225055, 0.6617500039283186, 0.5180999869480729, 0.5051000189268962, 0.6788999889977276, 0.614249991485849, 0.528200005646795, 0.6640999927185476, 0.5260499892756343, 0.517550011863932, 0.6371999916154891, 0.4596499929903075, 0.5298499891068786, 0.5261999904178083, 0.5502999993041158, 0.624299980700016, 0.5289500113576651, 0.5377499910537153, 0.5273999995552003, 0.522699992870912, 0.7159999804571271, 0.6402500148396939, 0.5290000117383897, 0.6523499905597419, 0.7048499828670174, 0.5371499864850193, 0.521550013218075, 0.6596000166609883, 0.5060999828856438, 0.5089500045869499, 0.5191000091144815, 0.5679000169038773, 0.5175499973120168, 0.5063499993411824, 0.6185499951243401, 0.5263000202830881, 0.522699992870912, 0.5713500140700489, 0.5443500122055411, 0.6193000008352101, 0.6866499898023903, 0.5302999925334007, 0.5262500053504482, 0.5705500079784542, 0.5285999795887619, 0.5775499739684165, 0.6665999826509506, 0.5164500034879893, 0.5250000103842467, 0.5410500161815435, 0.5145499890204519, 0.691299996105954, 0.5746999813709408, 0.524350005434826, 0.5317000031936914, 0.7018000178504735, 0.5221499886829406, 0.5816499760840088, 0.6082500040065497, 0.5688499950338155, 0.5635000125039369, 0.6006999756209552, 0.5264999927021563, 0.6780000112485141, 0.5294499860610813, 0.5471500044222921, 0.5474000063259155, 0.5161000008229166, 0.5250999965937808, 0.5287500098347664, 0.6251500162761658, 0.5714499857276678, 0.5360500072129071, 0.5392000020947307, 0.6501500029116869, 0.5218499863985926, 0.5276499723549932, 0.6150499975774437, 0.5515500088222325, 0.6945000204723328, 0.5144000169821084, 0.6427999760489911, 0.5640000163111836, 0.6434500101022422, 0.5578999989666045, 0.5298499891068786, 0.691299996105954, 0.5675500142388046, 0.5276500014588237, 0.5294500151649117, 0.5247500084806234, 0.5309499974828213, 0.5342000222299248, 0.6407999899238348, 0.520950008649379, 0.5390000005718321, 0.5273499991744757, 0.6141499907243997, 0.5742500070482492, 0.593100005062297, 0.5939500115346164, 0.5669999809470028, 0.5102999857626855, 0.5097500106785446, 0.6770500040147454, 0.5230999959167093, 0.5447000148706138, 0.5621000018436462, 0.5623500037472695, 0.543849979294464, 0.5220500170253217, 0.5344499950297177, 0.5349499988369644, 0.5281000048853457, 0.6925500056240708, 0.6356500089168549, 0.5250500107649714],
  "Optimal Expectation Value": -12.381489753723145,
  "Optimizer durations [ms]": [31.187, 27.919, 31.073, 25.274, 28.248, 25.476, 31.541, 24.61, 26.135, 29.744, 28.215, 25.872, 30.573, 28.33, 27.526, 26.143, 29.82, 25.804, 26.623, 24.71, 30.728, 27.761, 30.396, 27.005, 31.009, 27.959, 28.286, 21.259, 28.884, 26.132, 23.899, 25.93, 25.262, 25.356, 24.315, 29.703, 30.013, 26.866, 25.943, 27.172, 28.7, 27.389, 29.825, 30.981, 26.66, 25.512, 24.176, 27.422, 23.326, 21.454, 26.748, 30.716, 30.39, 26.781, 29.801, 25.76, 29.008, 29.336, 26.595, 26.261, 26.784, 26.901, 29.908, 23.65, 30.323, 26.326, 30.387, 25.164, 29.185, 27.951, 26.321, 25.97, 24.458, 26.694, 29.95, 29.373, 28.998, 26.571, 27.549, 24.219, 26.445, 27.709, 26.193, 25.318, 30.503, 27.407, 22.365, 27.891, 29.125, 25.813, 21.685, 27.832, 28.541, 30.712, 28.363, 30.307, 24.618, 28.689, 24.398, 30.842, 26.859, 28.899, 29.04, 30.794, 24.651, 25.304, 28.975, 25.041, 26.992, 25.806, 27.463, 22.25, 29.999, 24.905, 24.509, 27.578, 29.085, 31.122, 30.503, 27.848, 26.223, 23.368, 26.534, 23.733, 28.626, 29.132, 29.132, 25.744, 26.015, 26.26, 29.91, 25.112, 29.706, 27.868, 26.086, 25.245, 30.297, 26.335, 26.379, 32.155, 27.873, 30.856, 20.621, 24.754, 23.35, 28.452, 25.768, 30.634, 19.714, 30.646, 23.069, 25.137, 25.672, 27.675, 25.941, 25.058, 30.107, 25.118, 27.292, 22.326, 26.603, 30.544, 28.514, 21.655, 19.339, 29.998, 27.24, 26.067, 26.832, 30.766, 28.498, 31.078, 30.134, 27.627, 24.033, 22.38, 21.893, 29.917, 15.715, 24.717, 26.64, 27.074, 24.672, 30.834, 23.414, 24.81, 23.354, 30.484, 30.072, 28.258, 22.81, 27.204, 25.375, 28.078, 25.159, 30.907, 31.085, 29.404, 23.402, 23.232, 28.236, 21.021, 26.733, 26.944, 24.881, 31.07, 29.752, 28.508, 27.657, 30.009, 29.164, 29.041, 29.309, 30.269, 27.633, 26.327, 24.206, 30.42, 22.404, 29.262, 30.646, 25.095, 28.17, 26.021, 24.265, 29.921, 30.625, 25.476, 25.972, 27.623, 28.204, 27.842, 28.284, 23.85, 27.467, 23.472, 26.823, 27.139, 26.139, 30.528, 26.358, 18.843, 29.05, 29.627, 26.532, 26.68, 28.44, 30.571, 27.709, 29.223, 30.985, 24.636, 30.58, 28.359, 27.753, 30.026, 24.76, 26.648, 28.511, 25.382, 25.285, 23.056, 22.894, 29.635, 30.375, 27.82, 24.085, 30.0, 20.285, 25.9, 26.088, 28.503, 24.969, 25.178, 27.155, 27.042, 23.658, 25.255, 27.009, 27.684, 22.871, 30.321, 27.23, 26.635, 26.441, 23.412, 23.43, 25.202, 28.272, 26.972, 27.658, 29.71, 31.093, 27.151, 26.332, 27.798, 26.377, 29.959, 25.503, 27.74, 27.906, 25.949, 30.982, 28.415, 29.122, 24.471, 23.355, 26.782, 27.245, 26.21, 29.38, 28.106, 26.722, 26.493, 24.098, 29.976, 30.879, 30.792, 25.764, 29.014, 27.642, 27.291, 30.562, 28.083, 25.754, 25.707, 29.343, 19.139, 30.142, 22.962, 21.729, 25.93, 26.04, 25.408, 27.92, 22.784, 23.713, 29.865, 20.233, 25.182, 27.309, 25.132, 30.86, 30.022, 28.304, 30.991, 26.484, 30.019, 27.836, 24.996, 25.802, 22.75, 27.184, 23.125, 28.166, 22.569, 27.197, 27.587, 30.095, 28.491, 26.407, 31.13, 28.094, 25.679, 25.637, 28.431, 30.035, 27.017, 30.987, 27.616, 30.177, 21.902, 27.519, 30.843, 26.444, 29.047, 29.231, 29.706, 28.661, 29.127, 24.37, 28.1, 27.919, 30.98, 24.822, 27.887, 26.048, 23.7, 24.523, 22.364, 31.41, 30.3, 28.126, 27.693, 31.213, 28.849, 28.472, 30.067, 30.609, 26.584, 22.535, 26.471, 31.44, 22.814, 30.163, 27.705, 27.237, 28.635, 28.227, 25.676, 25.769, 26.146, 23.332, 22.342, 25.441, 30.05, 22.265, 29.243, 25.778, 26.89, 27.134, 30.093, 26.274, 25.656, 28.939, 27.215, 27.172, 25.064, 29.495, 24.085, 25.625, 28.194, 25.671, 22.699, 24.461, 26.32, 27.904, 29.984, 27.901, 25.62, 30.1, 31.054, 22.664, 26.503, 24.167, 27.146, 27.478, 26.561, 27.796, 30.402, 23.41, 23.596, 23.774, 27.123, 30.82, 27.432, 26.625, 30.828, 24.933, 26.236, 30.825, 24.896, 26.202, 26.0, 27.149, 26.485, 30.559, 29.292, 21.017, 29.978, 28.519, 29.359, 30.406, 23.639, 27.908, 30.574, 28.28, 24.173, 26.545, 26.559, 25.606, 27.215, 26.202, 29.344, 26.405, 29.408, 23.909, 27.726, 28.859, 21.956, 28.051, 29.388, 27.522, 30.773, 28.848, 25.87, 28.421, 31.643, 26.346, 24.919, 22.775, 28.795, 34.868, 28.37, 26.345, 27.423, 22.334, 25.499, 30.463, 28.159, 26.072, 25.333, 30.51, 22.829, 29.108, 26.817, 30.545, 26.411, 22.889, 26.755, 26.194, 23.969, 26.839, 25.115, 26.223, 27.393, 29.73, 26.557, 30.382, 19.082, 19.004, 27.373, 30.686, 26.57, 31.14, 23.836, 26.176, 30.482, 28.107, 27.566, 31.058, 27.833, 23.976, 31.063, 24.431, 26.574, 26.206, 30.254, 28.277, 30.505, 25.354, 30.407, 20.986, 28.703, 29.605, 22.615, 26.186, 26.689, 27.713, 21.594, 23.215, 26.678, 26.835, 26.306, 27.516, 27.14, 30.383, 23.625, 30.72, 26.036, 26.736, 28.7, 28.434, 29.141, 28.969, 26.587, 30.956, 27.592, 25.237, 21.309, 23.981, 30.882, 27.229, 29.984, 27.419, 26.954, 31.337, 29.931, 28.077, 30.547, 27.863, 22.573, 28.217, 24.742, 28.051, 22.077, 31.06, 23.002, 27.428, 25.398, 24.442, 24.804, 31.341, 28.103, 25.761, 27.554, 30.267, 23.555, 30.498, 19.054, 23.183, 30.6, 27.408, 20.478, 23.259, 27.433, 26.155, 23.134, 26.202, 25.835, 22.655, 27.824, 26.227, 25.334, 26.041, 25.471, 26.651, 27.174, 27.202, 30.35, 19.973, 26.572, 22.612, 24.402, 30.153, 23.623, 26.93, 30.295, 23.235, 22.35, 24.334, 23.938, 28.083, 21.706, 25.664, 30.316, 20.671, 25.565, 29.947, 25.015, 20.589, 26.317, 28.67, 28.066, 31.59, 23.049, 31.602, 23.981, 29.971, 27.227, 27.448, 27.189, 26.231, 27.157, 25.743],
  "Optimizer iterations": 665,
  "Optimizer params": [0.6246633813274521, 0.7531435198648029, 0.8825860291625288, 0.5973132603870538, 0.9138193802899177, 0.5786732725204399, 0.9210416233010846, 0.5739268894455781, 0.928750541362174, 0.5230347464923389, 0.5881368420089945, 0.5082296774788189, 0.48515929615642994, 0.5075802453453513, 0.49166272855972865, 0.5109443987220287, 0.47707914212655306, 0.4832561162654332, 0.5118755819999761, 0.8182522703283708, 0.49592421412823146, 0.5113117389548966, 0.5125491607497626, 0.5059737689895625, 0.5168099523337403, 0.5390403239953934, 0.5419495138967398, 0.5470675863715656, 0.5446238932575402, 0.5377223286427739, 0.5851332838289995, 0.5348002789275812, 0.5214684786159155, 0.5197846587524925, 0.5032244079669423, 0.4956381987432077, 0.526496988094955, 0.5004025263005667, 0.49077288021883403, 0.46767341173047183],
  "P": 0,
  "Problem": "IC",
  "QPU": "7000000",
  "Qubits": 10,
  "Shots": 4096,
  "Size": 10,
  "Total Algorithm duration [s]": 17.944,
  "Total Classic duration [s]": 17.568335500149754,
  "Total Quantum duration [s]": 0.3756644998502452
}
