{
  "Depth": 22.5,
  "Expectation Value": -11.725332260131836,
  "Job durations [ms]": [0.5309499974828213, 0.5621500022243708, 0.5261500191409141, 0.5195499979890883, 0.5247499793767929, 0.7344499754253775, 0.5364000098779798, 0.6374999938998371, 0.5295999872032553, 0.5258000164758414, 0.5149499920662493, 0.6055999838281423, 0.5950500199105591, 0.5238500016275793, 0.5295999872032553, 0.5853000038769096, 0.5290999833960086, 0.5178499850444496, 0.5210000090301037, 0.5225000204518437, 0.5616499984171242, 0.5214500124566257, 0.5499499966390431, 0.525400013430044, 0.5553500086534768, 0.5362500087358057, 0.6225499964784831, 0.5549500056076795, 0.526999996509403, 0.5298499891068786, 0.51860001985915, 0.5657499714288861, 0.6863499875180423, 0.6672999879810959, 0.5708999815396965, 0.5126000032760203, 0.5199500010348856, 0.7027999963611364, 0.6006999756209552, 0.515749998157844, 0.5125999887241051, 0.5340000207070261, 0.5766499962192029, 0.5668499798048288, 0.527750002220273, 0.5297499883454293, 0.5212999822106212, 0.5217500147409737, 0.5378499918151647, 0.5741500062867999, 0.6381999992299825, 0.5621000018436462, 0.5357500049285591, 0.5153499951120466, 0.5617499991785735, 0.5677000153809786, 0.5113999941386282, 0.5862000107299536, 0.5292000132612884, 0.5281499761622399, 0.51635000272654, 0.5283000064082444, 0.6250500155147165, 0.519149994943291, 0.5308999971020967, 0.6144499930087477, 0.5401000089477748, 0.5675499851349741, 0.5212000105530024, 0.531600002432242, 0.7309499778784811, 0.5302999925334007, 0.527449999935925, 0.48284999502357095, 0.5676499858964235, 0.47265000466722995, 0.7136499916668981, 0.5096999957459047, 0.5357499903766438, 0.6229999999050051, 0.5193000251892954, 0.6491999956779182, 0.5297500174492598, 0.7051499851513654, 0.5242500046733767, 0.5659500020556152, 0.5304999940562993, 0.6599499902222306, 0.6119000026956201, 0.6497499998658895, 0.524650007719174, 0.5366000114008784, 0.7225000008475035, 0.688749976688996, 0.523599999723956, 0.600049999775365, 0.586600013775751, 0.5773500015493482, 0.7094500178936869, 0.514450017362833, 0.5118999979458749, 0.6022500165272504, 0.5222499894443899, 0.6010500073898584, 0.5184999899938703, 0.5222499894443899, 0.5226499924901873, 0.5293999856803566, 0.5167500057723373, 0.5894499772693962, 0.666300009470433, 0.6227499980013818, 0.5160000000614673, 0.5141000146977603, 0.5193499964661896, 0.531750003574416, 0.5229499947745353, 0.5548499757423997, 0.5188999930396676, 0.6336999940685928, 0.5688499950338155, 0.526699994225055, 0.7140000234358013, 0.5245499778538942, 0.515399980940856, 0.5333999870344996, 0.6889500073157251, 0.5139500135555863, 0.5213999829720706, 0.580250023631379, 0.528650009073317, 0.5334500165190548, 0.5390000005718321, 0.5030999891459942, 0.529199984157458, 0.5039999959990382, 0.5310499982442707, 0.5175000114832073, 0.5817000055685639, 0.5230999959167093, 0.6984499923419207, 0.5256000149529427, 0.5136499821674079, 0.5250000103842467, 0.7117000059224665, 0.523149996297434, 0.5117499968037009, 0.6505000055767596, 0.5108000041218475, 0.5235499993432313, 0.5780999781563878, 0.6609499978367239, 0.5282499769236892, 0.6264499970711768, 0.525100011145696, 0.5322499782778323, 0.5371000152081251, 0.5282999773044139, 0.5304499936755747, 0.6643499946221709, 0.6645499961450696, 0.5616500275209546, 0.5281499761622399, 0.5345999961718917, 0.5827499844599515, 0.5241500039119273, 0.612599978921935, 0.6804500008001924, 0.5267499946057796, 0.5622000026050955, 0.5225999921094626, 0.5196999991312623, 0.7161500107031316, 0.5432500038295984, 0.5229000234976411, 0.5830499867442995, 0.608050002483651, 0.5605000187642872, 0.6165000086184591, 0.5376999906729907, 0.5622500029858202, 0.7356000132858753, 0.5231999966781586, 0.5805999971926212, 0.746150006307289, 0.5492499913088977, 0.689199980115518, 0.5156999977771193, 0.5593499809037894, 0.520800007507205, 0.6210999854374677, 0.5610499938484281, 0.6172000139486045, 0.5356000037863851, 0.5357500049285591, 0.5299999902490526, 0.532899983227253, 0.5199500010348856, 0.5261499900370836, 0.6904000183567405, 0.5980500136502087, 0.5139000131748617, 0.5131999932928011, 0.7279499841388315, 0.5156999977771193, 0.7243499858304858, 0.5350499995984137, 0.5830499867442995, 0.6662499799858779, 0.5965500022284687, 0.5231000104686245, 0.5148000200279057, 0.5677500157617033, 0.6881500012241304, 0.6384000007528812, 0.5350499995984137, 0.5434499762486666, 0.6363500142470002, 0.528500007931143, 0.521550013218075, 0.5893999768886715, 0.5166499904589728, 0.5802999949082732, 0.5261499900370836, 0.5970000056549907, 0.6076999998185784, 0.5252999835647643, 0.5622500029858202, 0.5915999936405569, 0.5153999954927713, 0.5205500056035817, 0.5457000224851072, 0.6185500242281705, 0.516650005010888, 0.5781000072602183, 0.5328499828465283, 0.5747499817516655, 0.522549991728738, 0.5895000067539513, 0.5284499784465879, 0.5429000011645257, 0.6215999892447144, 0.5590999790001661, 0.5295000155456364, 0.6429000059142709, 0.5256000149529427, 0.5672999832313508, 0.7370499952230603, 0.5275000003166497, 0.5146499897819012, 0.5751999851781875, 0.5248999805189669, 0.541199988219887, 0.5109499907121062, 0.5155499966349453, 0.5176500126253814, 0.5213499825913459, 0.512950005941093, 0.5275500006973743, 0.6056000129319727, 0.5071999912615865, 0.5357500049285591, 0.512350001372397, 0.5095999949844554, 0.5036499933339655, 0.7080500072333962, 0.5135999817866832, 0.5953499930910766, 0.5199500010348856, 0.5376500193960965, 0.5183499888516963, 0.7228000031318516, 0.5418000218924135, 0.5719499895349145, 0.5288500105962157, 0.6886000046506524, 0.5716499872505665, 0.606549991061911, 0.53114999900572, 0.524650007719174, 0.6300500244833529, 0.5664500058628619, 0.5990999925415963, 0.5229000234976411, 0.7192499761004001, 0.675449991831556, 0.5278500029817224, 0.5258000164758414, 0.527149997651577, 0.5637000140268356, 0.545049988431856, 0.6386500026565045, 0.5740000051446259, 0.534399994648993, 0.530099991010502, 0.672649999614805, 0.6187499966472387, 0.5141999863553792, 0.5639499868266284, 0.5644499906338751, 0.5392000020947307, 0.5290499830152839, 0.5699500034097582, 0.5332500149961561, 0.5171999800950289, 0.51710000843741, 0.5385999975260347, 0.5077999958302826, 0.5188999930396676, 0.6423500017262995, 0.524500006577, 0.5768499977421016, 0.6465000042226166, 0.6686999986413866, 0.5546500033233315, 0.6065999914426357, 0.5262999911792576, 0.5693499988410622, 0.5329000123310834, 0.5970000056549907, 0.5312499997671694, 0.5670499813277274, 0.5307499959599227, 0.5693499988410622, 0.5170499935047701, 0.521400012075901, 0.5183999892324209, 0.5563500162679702, 0.5347499973140657, 0.5867499858140945, 0.5303499929141253, 0.519599998369813, 0.53114999900572, 0.5552000075113028, 0.5359500064514577, 0.6309500022325665, 0.5185999907553196, 0.5161999870324507, 0.6505500059574842, 0.5292999849189073, 0.5227499932516366, 0.5238000012468547, 0.5205500056035817, 0.51635000272654, 0.592349999351427, 0.521400012075901, 0.5207499780226499, 0.6432000081986189, 0.583200016990304, 0.5706499796360731, 0.7237499812617898, 0.6087500078137964, 0.5254500138107687, 0.5605000187642872, 0.5249999812804163, 0.5150499928276986, 0.5267000233288854, 0.5251499824225903, 0.5188500072108582, 0.5540499987546355, 0.5224500200711191, 0.5129499913891777, 0.6359000108204782, 0.5302999925334007, 0.5253500130493194, 0.6311500037554651, 0.5093000072520226, 0.5136499967193231, 0.5251499824225903, 0.5184000183362514, 0.5278500029817224, 0.6891000084578991, 0.5076999950688332, 0.7063999946694821, 0.5241000035312027, 0.6953499978408217, 0.5329500127118081, 0.5188499926589429, 0.6445999897550792, 0.5984000163152814, 0.5229499947745353, 0.5166000046301633, 0.5073999927844852, 0.7215499936137348, 0.5215000128373504, 0.6389000045601279, 0.5696000007446855, 0.6585000082850456, 0.7078000053297728, 0.5533999938052148, 0.5241500039119273, 0.725450023310259, 0.5659500020556152, 0.660850026179105, 0.5660000024363399, 0.5582000012509525, 0.5844999977853149, 0.5318500043358654, 0.6983500206843019, 0.5581000004895031, 0.5209000082686543, 0.5973000079393387, 0.5384999967645854, 0.5290499830152839, 0.6903500179760158, 0.5652499967254698, 0.7078500057104975, 0.528650009073317, 0.5153000238351524, 0.5410999874584377, 0.5263000202830881, 0.6265999982133508, 0.5241000035312027, 0.519749999511987, 0.6070999952498823, 0.6642999942414463, 0.5167000053916126, 0.5325500096660107, 0.5766499962192029, 0.534999999217689, 0.5225000204518437, 0.522699992870912, 0.6921000021975487, 0.5756999889854342, 0.5309499974828213, 0.5344999954104424, 0.5810000002384186, 0.5261999904178083, 0.6274500046856701, 0.5129000055603683, 0.7609000022057444, 0.5264500214252621, 0.5214500124566257, 0.5821999802719802, 0.5173999961698428, 0.5261000187601894, 0.5196999991312623, 0.6404000159818679, 0.5126000032760203, 0.5302999925334007, 0.5391000013332814, 0.6749500171281397, 0.5367500125430524, 0.530099991010502, 0.5284000071696937, 0.6627999828197062, 0.5293500144034624, 0.5197000136831775, 0.5527500179596245, 0.526699994225055, 0.6337500235531479, 0.5188999930396676, 0.6562000198755413, 0.5450000171549618, 0.6520500173792243, 0.5335999885573983, 0.5617999995592982, 0.5471000040415674, 0.5247999943094328, 0.5554499803110957, 0.5279500037431717, 0.6866500189062208, 0.7227500027511269, 0.5837500211782753, 0.5097499961266294, 0.6017000123392791, 0.517700013006106, 0.6692000024486333, 0.5219500162638724, 0.527149997651577, 0.6859000131953508, 0.6301499961409718, 0.6629999843426049, 0.6930500094313174, 0.5359499773476273, 0.5184499896131456, 0.5230999959167093, 0.6158000032883137, 0.5281000048853457, 0.5040000105509534, 0.526549993082881, 0.5248500092420727, 0.5143999878782779, 0.6411999929696321, 0.568700022995472, 0.6922499742358923, 0.5072000058135018, 0.6262500246521086, 0.5160000000614673, 0.528050004504621, 0.5655499990098178, 0.6878499989397824, 0.5315999733284116, 0.5216500139795244, 0.5679500172846019, 0.5173000099603087, 0.5611499946098775, 0.5300000193528831, 0.5252000119071454, 0.5242499755695462, 0.5341999931260943, 0.541349989362061, 0.531750003574416, 0.5278999742586166, 0.5207500071264803, 0.6197500042617321, 0.516950007295236, 0.5661500035785139, 0.5920000257901847, 0.5143999878782779, 0.5587500054389238, 0.52525001228787, 0.523900002008304, 0.5314000009093434, 0.5564999883063138, 0.5631499807350338, 0.516800006153062, 0.5149499920662493, 0.5259999888949096, 0.6149000255391002, 0.5719999899156392, 0.7343500037677586, 0.5612499953713268, 0.520050001796335, 0.5654999986290932, 0.542099995072931, 0.5251999828033149, 0.5116999964229763, 0.6661999796051532, 0.6581499765161425, 0.6152999994810671, 0.5263000202830881, 0.5281000048853457, 0.526099989656359, 0.680049997754395, 0.5199500010348856, 0.6655499746557325, 0.5352000007405877, 0.5611499946098775, 0.6365000153891742, 0.5677999870385975, 0.5344000237528235, 0.5244500061962754, 0.5703000060748309, 0.5368500133045018, 0.523149996297434, 0.5803999956697226, 0.5247499939287081, 0.5106500029796734, 0.533949991222471, 0.531750003574416, 0.5370000144466758, 0.5288000102154911, 0.5735000013373792, 0.5364500102587044, 0.6204000092111528, 0.519749999511987, 0.529949989868328, 0.5234999989625067, 0.5690999969374388, 0.5643499898724258, 0.5253499839454889, 0.5171500088181347, 0.6457999988924712, 0.5264999927021563, 0.6164999795146286, 0.49164998927153647, 0.7026499952189624, 0.5206499772612005, 0.6292500183917582, 0.5660499737132341, 0.6551500118803233, 0.5704999784938991, 0.6375500233843923, 0.5261000187601894, 0.6257499917410314, 0.5320000054780394, 0.7381000032182783, 0.52964998758398, 0.5304000223986804, 0.5222499894443899, 0.6299999949987978, 0.5835499905515462, 0.6480499869212508, 0.5305999948177487, 0.5075000080978498, 0.5031000036979094, 0.6867500196676701, 0.5234999989625067, 0.5234999989625067, 0.5113000224810094, 0.522849994013086, 0.5229499947745353, 0.5667000077664852, 0.5831499875057489, 0.5458999949041754, 0.6770500040147454, 0.5089999904157594, 0.5425999988801777, 0.5856499774381518, 0.6861500150989741, 0.5177499842830002, 0.7150999736040831, 0.6351499760057777, 0.4636999947251752, 0.6673999887425452, 0.5650999955832958, 0.5112500075483695, 0.5354000022634864, 0.5304499936755747, 0.5951999919489026, 0.6147499952930957, 0.5875500210095197, 0.6033999961800873, 0.5655500281136483, 0.5215499841142446, 0.5329499836079776, 0.5310499982442707, 0.505649994011037, 0.5237999721430242, 0.6923500041011721, 0.590750016272068, 0.5193999822949991, 0.6199500057846308, 0.5887000006623566, 0.6705000123474747, 0.5552000075113028, 0.526699994225055, 0.528500007931143, 0.5524999869521707, 0.7299999997485429, 0.7221999985631555, 0.5731999990530312, 0.5139500135555863, 0.6881500012241304, 0.5715500155929476, 0.6902999884914607, 0.5187000060686842, 0.6944000197108835, 0.5265999934636056, 0.530249992152676, 0.5219500162638724, 0.5737000028602779, 0.5223499902058393, 0.5654999986290932, 0.5296000163070858, 0.5082499992568046, 0.5240000173216686, 0.5086500023026019, 0.6340499967336655, 0.5153999954927713, 0.5187000206205994, 0.5769999988842756, 0.5137500120326877, 0.5275500006973743, 0.524950010003522, 0.5613499961327761, 0.5258499877527356, 0.5182500171940774, 0.583650020416826, 0.52964998758398, 0.5360000068321824, 0.6167500105220824, 0.5700500041712075, 0.6343499990180135],
  "Optimal Expectation Value": -12.381489753723145,
  "Optimizer durations [ms]": [30.819, 24.459, 26.371, 30.653, 28.272, 27.35, 31.214, 23.081, 30.129, 28.841, 30.347, 26.095, 28.565, 21.622, 28.534, 25.298, 26.677, 28.4, 20.953, 24.301, 23.258, 26.784, 19.781, 23.957, 26.41, 24.358, 30.403, 29.798, 23.534, 29.13, 24.708, 25.835, 24.566, 29.79, 26.847, 23.721, 30.089, 28.021, 30.236, 28.118, 28.685, 27.808, 30.528, 24.698, 27.9, 26.376, 27.628, 23.151, 26.381, 25.752, 25.86, 19.468, 26.483, 29.414, 29.806, 22.528, 24.704, 26.189, 27.706, 22.046, 27.894, 30.464, 28.554, 30.034, 23.755, 22.855, 31.318, 27.03, 23.494, 28.555, 30.764, 29.248, 30.738, 23.647, 20.861, 22.356, 30.01, 24.324, 31.023, 26.953, 29.04, 24.755, 31.032, 24.581, 30.973, 24.229, 26.419, 28.414, 24.698, 30.314, 28.465, 26.198, 30.491, 21.882, 24.0, 25.473, 21.641, 30.678, 30.157, 29.029, 30.595, 23.296, 29.526, 27.751, 26.003, 28.166, 27.23, 30.881, 27.051, 24.891, 29.434, 29.929, 27.98, 29.316, 24.378, 27.484, 26.857, 30.277, 23.378, 24.808, 19.998, 27.993, 29.889, 28.076, 26.353, 25.671, 29.155, 24.869, 24.336, 27.389, 31.068, 29.693, 29.184, 27.15, 31.196, 25.71, 26.115, 25.108, 21.624, 28.279, 30.277, 27.476, 29.818, 29.931, 26.701, 30.746, 27.173, 26.39, 28.635, 23.828, 22.244, 30.47, 27.195, 25.86, 22.633, 27.754, 24.758, 24.066, 27.291, 26.554, 29.907, 29.935, 26.69, 25.126, 28.816, 24.32, 26.519, 29.469, 21.712, 19.328, 23.98, 28.01, 25.518, 31.075, 28.003, 25.912, 27.396, 22.728, 24.111, 28.122, 24.287, 29.826, 28.353, 28.336, 30.016, 24.806, 28.427, 30.706, 27.42, 26.595, 26.787, 20.215, 29.231, 25.834, 23.451, 28.81, 30.596, 29.682, 27.755, 24.819, 26.773, 27.766, 26.419, 27.86, 25.893, 26.583, 31.439, 24.669, 27.384, 26.08, 31.158, 26.007, 20.333, 21.503, 30.374, 23.163, 22.512, 26.792, 28.302, 26.066, 23.604, 25.898, 26.251, 27.85, 24.971, 25.504, 27.345, 24.88, 28.297, 30.97, 23.596, 29.279, 25.455, 22.792, 30.003, 28.414, 29.86, 23.915, 25.55, 23.42, 31.434, 29.643, 30.105, 31.172, 21.513, 27.549, 21.378, 28.335, 27.097, 27.254, 27.002, 23.134, 26.761, 27.779, 26.987, 22.68, 30.888, 27.799, 30.771, 30.071, 28.985, 25.753, 29.288, 27.351, 30.714, 25.785, 28.82, 27.217, 30.718, 27.15, 31.09, 24.447, 28.282, 27.171, 27.587, 26.246, 23.995, 27.923, 27.278, 24.183, 30.045, 25.57, 30.287, 23.387, 28.902, 26.221, 27.555, 30.969, 26.997, 22.936, 31.319, 27.486, 27.361, 30.639, 25.347, 30.692, 23.768, 30.685, 18.872, 23.637, 28.324, 30.114, 23.671, 26.625, 26.862, 24.595, 27.921, 25.255, 30.894, 22.991, 30.087, 26.933, 30.569, 21.759, 30.35, 27.411, 30.24, 19.22, 29.734, 26.447, 27.5, 24.476, 27.752, 28.217, 30.901, 27.339, 30.991, 21.231, 31.56, 23.575, 25.231, 29.581, 29.812, 26.188, 27.075, 25.43, 27.549, 29.738, 22.618, 29.12, 26.68, 30.729, 22.544, 29.329, 26.011, 26.83, 25.473, 26.274, 27.148, 22.08, 27.38, 27.505, 26.835, 24.091, 23.373, 30.796, 25.353, 30.886, 23.296, 29.326, 24.823, 30.017, 21.22, 28.351, 29.122, 30.378, 24.765, 28.45, 25.761, 30.649, 24.962, 30.491, 27.077, 26.753, 28.366, 28.523, 30.983, 26.297, 30.431, 27.036, 26.483, 25.603, 28.672, 25.745, 26.997, 27.51, 22.083, 27.633, 27.48, 23.718, 27.782, 29.95, 25.965, 29.619, 24.032, 27.012, 24.314, 29.82, 30.352, 30.519, 27.447, 29.009, 27.521, 27.077, 25.773, 27.609, 27.224, 26.164, 26.579, 22.953, 29.925, 23.401, 27.198, 28.941, 28.69, 24.694, 25.364, 29.018, 28.16, 27.519, 27.493, 27.434, 27.711, 27.092, 28.459, 25.48, 25.532, 28.361, 26.04, 26.399, 27.527, 27.509, 26.37, 28.136, 26.524, 27.989, 29.161, 29.451, 30.573, 24.868, 25.522, 26.845, 26.873, 29.564, 31.302, 25.438, 30.713, 25.564, 26.632, 25.015, 29.999, 25.612, 30.538, 28.678, 30.398, 28.525, 27.093, 25.675, 26.354, 19.566, 30.734, 27.908, 26.657, 24.531, 26.77, 24.201, 28.173, 28.866, 26.771, 28.597, 22.456, 27.517, 26.163, 29.907, 28.712, 26.486, 28.236, 29.701, 30.494, 27.676, 26.221, 23.466, 31.018, 25.726, 20.771, 30.127, 30.731, 26.494, 27.256, 29.341, 27.128, 27.549, 27.233, 26.428, 25.67, 26.12, 22.818, 31.104, 27.36, 24.973, 28.339, 29.639, 30.732, 28.279, 25.859, 29.808, 22.817, 22.424, 24.771, 30.562, 24.35, 27.027, 23.358, 26.489, 26.88, 24.316, 26.472, 23.807, 30.458, 28.669, 21.406, 28.04, 25.776, 29.417, 20.253, 23.73, 27.649, 21.461, 25.323, 30.224, 24.381, 30.576, 28.421, 26.899, 26.216, 25.728, 24.682, 28.259, 20.044, 22.676, 24.401, 24.878, 26.755, 27.16, 27.78, 24.73, 25.901, 27.304, 29.526, 25.219, 31.212, 25.503, 30.956, 21.993, 27.61, 28.986, 26.747, 30.228, 24.268, 21.671, 22.269, 23.232, 27.602, 26.002, 30.945, 26.431, 28.081, 29.16, 26.745, 28.056, 22.591, 28.106, 21.615, 27.913, 30.642, 25.078, 27.609, 26.669, 31.289, 23.6, 31.031, 27.131, 29.946, 25.243, 27.051, 29.631, 26.922, 26.711, 27.247, 24.237, 28.228, 27.812, 26.429, 26.87, 21.343, 29.208, 31.539, 30.58, 24.409, 23.895, 25.944, 28.598, 24.581, 29.876, 22.729, 29.956, 26.483, 28.676, 25.544, 28.121, 23.39, 22.792, 27.556, 27.408, 26.757, 24.049, 31.314, 26.011, 29.945, 26.431, 21.641, 26.318, 27.708, 26.452, 26.258, 23.388, 20.879, 26.481, 25.957, 30.232, 23.504, 26.232, 29.084, 30.231, 26.223, 20.037, 22.45, 24.464, 27.779, 28.615, 30.601, 30.859, 25.83, 29.436, 25.821, 26.608, 30.712, 28.175, 26.092, 25.46, 27.316, 30.38, 25.355, 30.272, 26.091, 21.664, 24.043, 26.372, 28.534, 22.298, 27.359, 25.32, 28.016, 22.098, 27.782],
  "Optimizer iterations": 665,
  "Optimizer params": [0.6246633813274521, 0.7531435198648029, 0.8825860291625288, 0.5973132603870538, 0.9138193802899177, 0.5786732725204399, 0.9210416233010846, 0.5739268894455781, 0.928750541362174, 0.5230347464923389, 0.5881368420089945, 0.5082296774788189, 0.48515929615642994, 0.5075802453453513, 0.49166272855972865, 0.5109443987220287, 0.47707914212655306, 0.4832561162654332, 0.5118755819999761, 0.8182522703283708, 0.49592421412823146, 0.5113117389548966, 0.5125491607497626, 0.5059737689895625, 0.5168099523337403, 0.5390403239953934, 0.5419495138967398, 0.5470675863715656, 0.5446238932575402, 0.5377223286427739, 0.5851332838289995, 0.5348002789275812, 0.5214684786159155, 0.5197846587524925, 0.5032244079669423, 0.4956381987432077, 0.526496988094955, 0.5004025263005667, 0.49077288021883403, 0.46767341173047183],
  "P": 0,
  "Problem": "IC",
  "QPU": "7000000",
  "Qubits": 10,
  "Shots": 4096,
  "Size": 10,
  "Total Algorithm duration [s]": 17.895,
  "Total Classic duration [s]": 17.518266900118324,
  "Total Quantum duration [s]": 0.376733099881676
}
