{
  "Depth": 22.5,
  "Expectation Value": -11.725332260131836,
  "Job durations [ms]": [0.5513500072993338, 0.6195000023581088, 0.5199500155868009, 0.6579000037163496, 0.5441500106826425, 0.5723499925807118, 0.5196999991312623, 0.5443499831017107, 0.5471500044222921, 0.5778500053565949, 0.6784500146750361, 0.5309499974828213, 0.5154499958734959, 0.528050004504621, 0.5412500177044421, 0.5349499988369644, 0.5332999862730503, 0.5273499991744757, 0.6136999872978777, 0.5254999850876629, 0.5340499919839203, 0.5367500125430524, 0.5227499932516366, 0.6894500111229718, 0.5560500139836222, 0.5277000018395483, 0.5344999954104424, 0.529799988726154, 0.5217499856371433, 0.4745499900309369, 0.5236500001046807, 0.7175499922595918, 0.5147499905433506, 0.7129999867174774, 0.5145500035723671, 0.6855000101495534, 0.5335499881766737, 0.5301000201143324, 0.5132000078447163, 0.5191999953240156, 0.514750019647181, 0.5117500259075314, 0.529349985299632, 0.5783499800600111, 0.6140499899629503, 0.6921000021975487, 0.6931499810889363, 0.521850015502423, 0.5238999729044735, 0.535450002644211, 0.5252999835647643, 0.5562000151257962, 0.5335000168997794, 0.5613999965135008, 0.5036499933339655, 0.5205500056035817, 0.6324999849312007, 0.6544500065501779, 0.5139000131748617, 0.5670000100508332, 0.7382500043604523, 0.5646999925374985, 0.5280000041238964, 0.6492999964393675, 0.5235499993432313, 0.5170000076759607, 0.5622500029858202, 0.579650019062683, 0.5301000201143324, 0.5257500160951167, 0.5201000021770597, 0.6023500172886997, 0.6885500042699277, 0.7236500096041709, 0.5878499941900373, 0.681100005749613, 0.5226499924901873, 0.5079499969724566, 0.6550499820150435, 0.5915499932598323, 0.51710000843741, 0.53114999900572, 0.5278000026009977, 0.5147500050952658, 0.5304000223986804, 0.52964998758398, 0.5540499987546355, 0.676950003253296, 0.5221500177867711, 0.5229499947745353, 0.6829499907325953, 0.5245500069577247, 0.6988499953877181, 0.5128499906277284, 0.5373999883886427, 0.5335499881766737, 0.490699996589683, 0.5240000027697533, 0.5176999984541908, 0.598000013269484, 0.7040000054985285, 0.5322500073816627, 0.5148999916855246, 0.5169499927433208, 0.5293500144034624, 0.6591499841306359, 0.5136499967193231, 0.5220499879214913, 0.6147500243969262, 0.5399000074248761, 0.5697500018868595, 0.663500017253682, 0.5509000038728118, 0.5682000191882253, 0.7021500205155462, 0.5352500011213124, 0.5278500029817224, 0.5183499888516963, 0.7704999879933894, 0.5345999961718917, 0.524650007719174, 0.7306500046979636, 0.6719499942846596, 0.535150000359863, 0.6104500207584351, 0.5698000022675842, 0.5681499897036701, 0.7241999846883118, 0.5190999945625663, 0.5430000019259751, 0.527149997651577, 0.5325499805621803, 0.5243000050541013, 0.51710000843741, 0.5867999861948192, 0.5316500028129667, 0.5324999801814556, 0.5325000092852861, 0.5326999817043543, 0.5333500157576054, 0.5505000008270144, 0.5282499769236892, 0.5817500059492886, 0.5777500045951456, 0.5597999843303114, 0.534999999217689, 0.6862999871373177, 0.5284500075504184, 0.526699994225055, 0.5713500140700489, 0.5295000155456364, 0.7139999943319708, 0.7055999885778874, 0.5118499975651503, 0.5418000218924135, 0.5230500246398151, 0.6545999785885215, 0.5226499924901873, 0.5468500021379441, 0.5293000140227377, 0.6945000204723328, 0.6389500049408525, 0.6863499875180423, 0.5431500030681491, 0.6778499810025096, 0.5419000226538628, 0.51710000843741, 0.5344999954104424, 0.5100499984109774, 0.7025000231806189, 0.5255999858491123, 0.5241000035312027, 0.5216500139795244, 0.6740500102750957, 0.6669999856967479, 0.5265500221867114, 0.6665000109933317, 0.5184000037843361, 0.6350000039674342, 0.528500007931143, 0.5970500060357153, 0.5280000186758116, 0.519599998369813, 0.5301499913912266, 0.6331000186037272, 0.5261999904178083, 0.6155500013846904, 0.5303500220179558, 0.5970999773126096, 0.5364999815355986, 0.5275000003166497, 0.6582999776583165, 0.5219000013312325, 0.6531499966513366, 0.5341999931260943, 0.5628000071737915, 0.540599983651191, 0.5739500047639012, 0.5283000064082444, 0.523299997439608, 0.534999999217689, 0.5185500194784254, 0.5596499831881374, 0.5187499918974936, 0.5266500229481608, 0.5773000011686236, 0.5673499836120754, 0.7269499765243381, 0.531600002432242, 0.520350004080683, 0.5180500156711787, 0.6599499902222306, 0.6716500211041421, 0.5715999868698418, 0.5443499831017107, 0.5740500055253506, 0.5337500188034028, 0.528200005646795, 0.7165499846450984, 0.5308999971020967, 0.5256999866105616, 0.7143499969970435, 0.6089500093366951, 0.5150999932084233, 0.5322500073816627, 0.6502500036731362, 0.6673999887425452, 0.7105999975465238, 0.531300000147894, 0.6678999925497919, 0.5084500007797033, 0.5651999963447452, 0.5248500092420727, 0.5253999843262136, 0.5196999991312623, 0.5729999975301325, 0.5656499997712672, 0.7117500063031912, 0.5267499946057796, 0.6311000033747405, 0.5165499751456082, 0.6861000147182494, 0.5396000051405281, 0.5233499978203326, 0.5233999982010573, 0.7214499928522855, 0.5648500227835029, 0.5327500111889094, 0.6573999999091029, 0.7011499837972224, 0.535450002644211, 0.5171500088181347, 0.543999980436638, 0.7004000071901828, 0.7039500051178038, 0.6548500095959753, 0.7150500023271888, 0.598999991780147, 0.5146000039530918, 0.5222499894443899, 0.5232499970588833, 0.7105499971657991, 0.5289999826345593, 0.5329999839887023, 0.5145999894011766, 0.5387999990489334, 0.5238000157987699, 0.5136000108905137, 0.5224999913480133, 0.5307999963406473, 0.6625500100199133, 0.5426500283647329, 0.51860001985915, 0.6679000216536224, 0.5349499988369644, 0.5170000076759607, 0.530249992152676, 0.5747000104747713, 0.6514499837066978, 0.5664500058628619, 0.6754999922122806, 0.5201500025577843, 0.5254999850876629, 0.5425499984994531, 0.5314000009093434, 0.7114500040188432, 0.5733500001952052, 0.666600011754781, 0.6107499939389527, 0.5146500188857317, 0.5945999873802066, 0.5101499991724268, 0.7373499975074083, 0.5924500001128763, 0.7166000141296536, 0.5116500105941668, 0.5347999976947904, 0.5294000147841871, 0.5294000147841871, 0.6027999916113913, 0.5189999938011169, 0.5399500078056008, 0.5556499818339944, 0.5196999991312623, 0.586150010349229, 0.5226500215940177, 0.512500002514571, 0.514150015078485, 0.5345999961718917, 0.5352000007405877, 0.7251499919220805, 0.5552000075113028, 0.5193000106373802, 0.5262999911792576, 0.7537500059697777, 0.5737999745178968, 0.5246000073384494, 0.5257000157143921, 0.5295000155456364, 0.6097499863244593, 0.5052499909652397, 0.5542500002775341, 0.5176999984541908, 0.4912999866064638, 0.5650499952025712, 0.5146499897819012, 0.5047000013291836, 0.5228000081842765, 0.5229000234976411, 0.5133500089868903, 0.5328500119503587, 0.5315000016707927, 0.69114999496378, 0.5237000004854053, 0.5265500221867114, 0.5288500105962157, 0.5325500096660107, 0.5542500002775341, 0.5142999871168286, 0.527600001078099, 0.45840001257602125, 0.5632999818772078, 0.6573499995283782, 0.5201500025577843, 0.5774999735876918, 0.6827000179328024, 0.6739500095136464, 0.513100007083267, 0.7241999846883118, 0.517700013006106, 0.7012999849393964, 0.5810500006191432, 0.655050011118874, 0.5700500041712075, 0.5244500061962754, 0.5131999787408859, 0.5321999778971076, 0.540899985935539, 0.6537500012200326, 0.518300017574802, 0.5217499856371433, 0.5189499934203923, 0.6026000191923231, 0.5205500056035817, 0.5416999920271337, 0.5511999770533293, 0.516050000442192, 0.5341499927453697, 0.5270000256132334, 0.5645000201184303, 0.5281499761622399, 0.5095999949844554, 0.5253000126685947, 0.5225999921094626, 0.5247500084806234, 0.525100011145696, 0.5680999893229455, 0.538699998287484, 0.5187999922782183, 0.5205500056035817, 0.6908000214025378, 0.6163499783724546, 0.5628500075545162, 0.521250010933727, 0.5275500006973743, 0.6151999987196177, 0.5524999869521707, 0.5287500098347664, 0.5154999962542206, 0.526999996509403, 0.6872000230941921, 0.5323499790392816, 0.5207000067457557, 0.5141499859746546, 0.6365000153891742, 0.5313500005286187, 0.5208999791648239, 0.5676499858964235, 0.7000000041443855, 0.5646499921567738, 0.603299995418638, 0.5650999955832958, 0.6155500013846904, 0.5206000059843063, 0.5279499746393412, 0.7487499970011413, 0.6508000078611076, 0.5204000044614077, 0.6988499953877181, 0.6113500276114792, 0.5730999982915819, 0.5598499847110361, 0.5226500215940177, 0.5419999943114817, 0.5282500060275197, 0.6275500054471195, 0.5207500071264803, 0.6364500150084496, 0.5558500124607235, 0.5224000196903944, 0.5301000201143324, 0.6938000151421875, 0.5211499810684472, 0.521550013218075, 0.5897500086575747, 0.7149500015657395, 0.538099993718788, 0.5561500147450715, 0.5392500024754554, 0.5683000199496746, 0.5660000024363399, 0.5247000080998987, 0.5251499969745055, 0.5301499913912266, 0.531300000147894, 0.5120999994687736, 0.6915999983903021, 0.5511499766726047, 0.5270999972708523, 0.5175499973120168, 0.5248999805189669, 0.5512000061571598, 0.5323500081431121, 0.5372499872464687, 0.6852000078652054, 0.5299500189721584, 0.5325000092852861, 0.6416499963961542, 0.5567999905906618, 0.532050005858764, 0.5172999808564782, 0.5248500092420727, 0.5394000036176294, 0.5251500115264207, 0.5353999731596559, 0.5329499836079776, 0.5207000067457557, 0.5698500026483089, 0.5329999839887023, 0.5178499850444496, 0.7414499996230006, 0.600500003201887, 0.666450010612607, 0.672349997330457, 0.5831500166095793, 0.5840500234626234, 0.601250008912757, 0.532599980942905, 0.7182999979704618, 0.5208500078879297, 0.5700000037904829, 0.5247000080998987, 0.6277500069700181, 0.627999979769811, 0.5635499837808311, 0.5263000057311729, 0.6190999993123114, 0.5139500135555863, 0.5781999789178371, 0.5179500003578141, 0.536599982297048, 0.5635499837808311, 0.5936000088695437, 0.5132999795023352, 0.5567999905906618, 0.5383499956224114, 0.6864499882794917, 0.6730999739374965, 0.5244000058155507, 0.533799990080297, 0.6499500013887882, 0.5335500172805041, 0.5269499961286783, 0.5884999991394579, 0.48004998825490475, 0.5785000103060156, 0.5440000095404685, 0.5262000195216388, 0.5175000114832073, 0.6512999825645238, 0.535150000359863, 0.6434999813791364, 0.521550013218075, 0.5033500056015328, 0.6282000103965402, 0.5757000180892646, 0.6827499892096967, 0.5987500189803541, 0.5662500043399632, 0.5391000013332814, 0.5645499913953245, 0.5191000236663967, 0.6221499934326857, 0.5324500089045614, 0.5199500010348856, 0.6086000066716224, 0.6217000191099942, 0.527750002220273, 0.5187500064494088, 0.6160500051919371, 0.53039999329485, 0.530699995579198, 0.5163000023458153, 0.5376999906729907, 0.5332500149961561, 0.5764499946963042, 0.5231999966781586, 0.5226499924901873, 0.7164499838836491, 0.528200005646795, 0.5225999921094626, 0.524050003150478, 0.5769999988842756, 0.662750011542812, 0.6768499733880162, 0.5097499961266294, 0.5266500229481608, 0.5786499823443592, 0.5155499966349453, 0.529799988726154, 0.6745499849785119, 0.6103500199969858, 0.528200005646795, 0.5242500046733767, 0.45664999925065786, 0.513700011651963, 0.6981999904382974, 0.5261499900370836, 0.5048499879194424, 0.5101000133436173, 0.6141999911051244, 0.5358499911380932, 0.6849000055808574, 0.534849998075515, 0.5723999929614365, 0.5661500035785139, 0.6295000202953815, 0.5783500091638416, 0.7504000095650554, 0.5172999808564782, 0.5363000091165304, 0.5161500012036413, 0.5208500078879297, 0.6063499895390123, 0.5145999894011766, 0.5569000204559416, 0.5913499917369336, 0.5335499881766737, 0.5213000113144517, 0.5259000172372907, 0.5156999977771193, 0.5273999995552003, 0.5640499875880778, 0.5304499936755747, 0.5240000027697533, 0.6634499877691269, 0.5151499935891479, 0.5229499947745353, 0.5156999977771193, 0.515899999300018, 0.6557999877259135, 0.5901999829802662, 0.6036499980837107, 0.5591500084847212, 0.5323499790392816, 0.6781000120099634, 0.5836999916937202, 0.5266000225674361, 0.5184999899938703, 0.5746500100940466, 0.6474000110756606, 0.5482500127982348, 0.5327999824658036, 0.5441500106826425, 0.5431500030681491, 0.5808999994769692, 0.5574999959208071, 0.5661999748554081, 0.6578000029549003, 0.5601000157184899, 0.6981499900575727, 0.5339999916031957, 0.5259999888949096, 0.6100500177126378, 0.5319500050973147, 0.5224999913480133, 0.6467000057455152, 0.5247500084806234, 0.521250010933727, 0.6189499981701374, 0.7255499949678779, 0.5293999856803566, 0.7075000030454248, 0.5195499979890883, 0.530249992152676, 0.6984000210650265, 0.5045499856350943, 0.5377499910537153, 0.5221499886829406, 0.6587000098079443, 0.530099991010502, 0.5316500028129667, 0.5293999856803566, 0.5721500201616436, 0.5254999850876629, 0.5245500069577247, 0.7182499975897372, 0.5349499988369644, 0.6372999923769385, 0.5337499896995723, 0.524950010003522, 0.6829499907325953, 0.5566499894484878, 0.5171999800950289, 0.7177999941632152, 0.5503499996848404, 0.7239000115077943, 0.5335500027285889, 0.528350006788969, 0.5411000165622681, 0.527449999935925, 0.5224500200711191, 0.5184000037843361, 0.5153999954927713, 0.5139500135555863, 0.5389500001911074, 0.6920000014360994, 0.5457999941427261, 0.5293999856803566, 0.6201999785844237, 0.5167000199435279, 0.5648499936796725, 0.5675999855156988, 0.531450001290068, 0.6778499810025096, 0.5856500065419823, 0.5261999904178083, 0.4843499918933958, 0.5395999760366976, 0.5684999923687428, 0.49244999536313117, 0.6124500068835914, 0.5687499942723662, 0.5829999863635749, 0.5153499951120466],
  "Optimal Expectation Value": -12.381489753723145,
  "Optimizer durations [ms]": [31.17, 27.847, 30.759, 26.208, 30.228, 21.765, 29.026, 24.569, 21.973, 23.966, 28.679, 30.808, 29.555, 28.306, 31.119, 23.282, 29.593, 30.931, 26.895, 26.579, 27.014, 23.252, 30.988, 26.414, 23.669, 23.481, 30.921, 25.836, 30.84, 23.403, 30.517, 28.933, 28.649, 25.666, 30.223, 22.311, 27.859, 26.308, 26.822, 26.564, 27.192, 22.107, 27.638, 23.062, 24.57, 30.121, 21.612, 26.446, 26.962, 26.693, 27.939, 30.159, 25.646, 29.987, 25.266, 29.064, 27.477, 27.128, 26.792, 23.601, 30.252, 22.698, 30.864, 25.942, 25.875, 30.981, 20.03, 23.71, 28.339, 30.56, 21.937, 28.878, 27.159, 27.317, 15.061, 28.667, 30.257, 26.214, 30.196, 26.949, 25.991, 28.864, 28.931, 26.702, 27.016, 27.747, 22.572, 30.388, 26.959, 27.689, 30.504, 30.61, 30.056, 30.536, 28.536, 25.51, 25.349, 26.671, 27.745, 24.992, 27.526, 29.112, 30.48, 28.598, 26.297, 26.061, 29.333, 26.834, 29.977, 29.008, 30.539, 26.119, 27.41, 22.208, 27.625, 25.198, 24.421, 24.719, 29.937, 29.379, 30.168, 28.821, 24.059, 29.501, 24.341, 29.986, 19.744, 28.745, 29.181, 29.829, 30.518, 28.809, 25.097, 28.632, 19.971, 25.448, 25.973, 26.937, 27.345, 29.144, 28.355, 22.074, 20.351, 22.624, 24.952, 30.476, 26.806, 26.073, 21.674, 28.701, 28.436, 29.69, 30.18, 23.821, 28.332, 28.552, 29.449, 28.418, 29.003, 31.281, 27.766, 26.988, 26.282, 31.021, 28.042, 27.304, 24.272, 31.054, 23.068, 30.005, 27.21, 30.809, 23.738, 30.355, 27.592, 31.258, 23.776, 30.207, 28.582, 28.741, 24.954, 28.873, 27.384, 22.974, 26.947, 27.134, 30.199, 26.511, 30.521, 28.317, 29.686, 26.223, 26.723, 24.886, 27.795, 20.753, 29.582, 22.693, 19.385, 25.525, 28.736, 25.638, 24.832, 21.914, 28.771, 22.717, 26.977, 25.792, 28.633, 30.49, 30.672, 23.014, 30.604, 24.554, 27.523, 30.46, 28.746, 23.336, 30.242, 25.537, 26.457, 30.621, 30.253, 30.27, 24.924, 25.791, 25.597, 27.997, 25.238, 26.633, 25.924, 28.297, 26.475, 24.023, 30.181, 30.404, 18.943, 30.191, 24.371, 25.341, 28.195, 30.667, 27.357, 26.782, 25.814, 27.518, 19.698, 31.143, 24.874, 30.357, 24.282, 30.598, 26.697, 29.183, 22.651, 29.801, 28.775, 28.139, 26.646, 27.778, 29.098, 26.608, 28.68, 26.98, 27.496, 27.7, 25.675, 27.352, 30.712, 28.482, 27.956, 26.215, 30.816, 30.135, 25.006, 28.993, 26.576, 23.586, 29.685, 28.025, 29.371, 29.215, 19.848, 22.971, 22.808, 30.534, 19.089, 30.357, 22.25, 30.458, 28.047, 23.99, 25.683, 24.664, 28.29, 25.554, 29.017, 30.803, 28.165, 30.175, 26.019, 25.788, 23.94, 30.685, 24.845, 26.376, 29.879, 25.792, 28.143, 28.668, 27.152, 25.426, 28.465, 23.481, 28.259, 26.531, 31.199, 27.735, 26.805, 23.137, 25.18, 26.778, 25.88, 30.406, 26.098, 28.964, 26.879, 31.167, 26.271, 27.851, 25.622, 24.38, 28.265, 31.12, 28.306, 27.112, 26.576, 30.592, 28.426, 23.024, 21.007, 22.847, 28.085, 26.773, 24.249, 23.252, 23.484, 26.514, 23.383, 30.998, 29.77, 28.134, 28.12, 26.711, 27.328, 27.247, 29.465, 31.186, 25.77, 26.761, 23.089, 25.356, 25.868, 25.121, 27.962, 29.74, 28.145, 25.108, 29.617, 24.019, 30.381, 28.055, 25.905, 29.492, 29.547, 27.072, 19.175, 30.895, 23.617, 30.939, 30.164, 28.091, 23.204, 27.559, 23.114, 25.41, 30.939, 27.349, 25.004, 26.079, 26.955, 28.727, 29.544, 27.639, 27.382, 25.639, 26.633, 23.708, 30.457, 23.273, 29.173, 25.368, 28.376, 25.602, 30.99, 25.978, 25.219, 31.201, 26.624, 29.49, 27.305, 22.452, 27.548, 25.409, 25.297, 26.26, 22.268, 26.511, 28.006, 29.27, 29.12, 28.975, 25.183, 29.091, 27.233, 28.744, 28.472, 27.742, 30.269, 24.993, 27.949, 25.461, 20.132, 30.911, 26.82, 29.099, 24.386, 30.203, 31.253, 30.764, 28.756, 28.481, 25.657, 30.52, 25.637, 30.072, 26.076, 29.562, 30.214, 25.937, 27.87, 24.536, 22.448, 23.366, 30.828, 26.982, 27.325, 22.918, 27.84, 28.553, 25.123, 28.62, 25.06, 29.671, 27.21, 27.197, 30.398, 28.586, 30.463, 27.852, 23.746, 31.008, 24.496, 27.585, 22.482, 24.844, 24.34, 27.319, 30.218, 30.363, 30.992, 20.78, 29.028, 22.558, 27.333, 23.866, 30.58, 26.62, 30.815, 31.193, 30.625, 22.794, 30.303, 23.254, 22.333, 21.739, 25.507, 29.069, 29.5, 27.713, 27.41, 26.456, 26.487, 31.032, 21.513, 24.354, 27.759, 27.476, 23.053, 31.077, 21.696, 26.225, 27.658, 28.147, 28.151, 23.299, 25.727, 28.76, 30.597, 25.123, 31.258, 23.221, 27.65, 31.091, 23.79, 27.047, 27.346, 27.206, 27.119, 31.097, 27.005, 20.644, 30.183, 25.875, 26.321, 26.532, 27.692, 25.967, 30.529, 21.711, 30.346, 26.362, 22.508, 30.929, 20.619, 23.694, 29.064, 29.463, 28.946, 29.271, 25.249, 26.147, 28.931, 25.159, 25.638, 21.543, 30.481, 24.052, 23.438, 24.627, 22.135, 24.08, 27.727, 27.994, 30.242, 31.42, 27.408, 31.046, 28.262, 27.061, 28.05, 30.761, 21.502, 30.956, 26.262, 26.635, 27.09, 30.762, 28.009, 27.0, 26.994, 26.13, 26.767, 22.841, 29.699, 24.316, 23.968, 27.033, 29.862, 21.159, 30.295, 23.126, 31.271, 23.73, 30.559, 21.516, 27.005, 20.835, 26.127, 28.378, 30.111, 28.291, 30.896, 25.249, 27.776, 30.885, 26.591, 28.048, 30.99, 22.273, 30.564, 24.959, 26.103, 27.661, 28.958, 23.491, 27.195, 28.701, 27.216, 27.567, 26.876, 31.057, 24.14, 22.935, 25.698, 28.953, 26.282, 28.445, 27.058, 26.865, 27.198, 26.774, 27.517, 27.844, 26.366, 26.659, 28.557, 27.197, 26.688, 23.444, 30.294, 28.223, 26.129, 30.854, 23.479, 30.875, 22.698, 28.942, 29.044, 26.359, 23.024, 25.463, 24.76, 31.059, 30.632, 25.064, 26.419, 25.457, 28.624, 25.054, 23.948, 26.713, 20.324, 26.447, 30.774],
  "Optimizer iterations": 665,
  "Optimizer params": [0.6246633813274521, 0.7531435198648029, 0.8825860291625288, 0.5973132603870538, 0.9138193802899177, 0.5786732725204399, 0.9210416233010846, 0.5739268894455781, 0.928750541362174, 0.5230347464923389, 0.5881368420089945, 0.5082296774788189, 0.48515929615642994, 0.5075802453453513, 0.49166272855972865, 0.5109443987220287, 0.47707914212655306, 0.4832561162654332, 0.5118755819999761, 0.8182522703283708, 0.49592421412823146, 0.5113117389548966, 0.5125491607497626, 0.5059737689895625, 0.5168099523337403, 0.5390403239953934, 0.5419495138967398, 0.5470675863715656, 0.5446238932575402, 0.5377223286427739, 0.5851332838289995, 0.5348002789275812, 0.5214684786159155, 0.5197846587524925, 0.5032244079669423, 0.4956381987432077, 0.526496988094955, 0.5004025263005667, 0.49077288021883403, 0.46767341173047183],
  "P": 0,
  "Problem": "IC",
  "QPU": "7000000",
  "Qubits": 10,
  "Shots": 4096,
  "Size": 10,
  "Total Algorithm duration [s]": 17.987,
  "Total Classic duration [s]": 17.608710449879172,
  "Total Quantum duration [s]": 0.3782895501208259
}
