{
  "Depth": 22.5,
  "Expectation Value": -11.725332260131836,
  "Job durations [ms]": [0.5343499942682683, 0.7218499958980829, 0.5265000218059868, 0.5441000103019178, 0.519449997227639, 0.5160000000614673, 0.5148999916855246, 0.5086000019218773, 0.7242000137921423, 0.528200005646795, 0.594000011915341, 0.5307999963406473, 0.5734500009566545, 0.5255499854683876, 0.5307999963406473, 0.5760999920312315, 0.5718500178772956, 0.5304499936755747, 0.659050012473017, 0.5288000102154911, 0.593700009630993, 0.5256500153336674, 0.6313499761745334, 0.5213999829720706, 0.5493500211741775, 0.5287000094540417, 0.5274500144878402, 0.5370000144466758, 0.6092999828979373, 0.516050000442192, 0.6866499898023903, 0.5248500092420727, 0.5434499762486666, 0.6692000024486333, 0.5210499803069979, 0.5284500075504184, 0.5606499908026308, 0.6923500041011721, 0.526699994225055, 0.7198000093922019, 0.5407999851740897, 0.5091499915579334, 0.5271500267554075, 0.5909499886911362, 0.5124500021338463, 0.5646999925374985, 0.5131999932928011, 0.5606999911833555, 0.5186499911360443, 0.5310499982442707, 0.5875500210095197, 0.523599999723956, 0.5646499921567738, 0.509550009155646, 0.6947499932721257, 0.5166000046301633, 0.7134499901439995, 0.5459499952849001, 0.5197999998927116, 0.5166999762877822, 0.5873999907635152, 0.5241000035312027, 0.542099995072931, 0.5688000237569213, 0.541199988219887, 0.6717999931424856, 0.6099000165704638, 0.7073500019032508, 0.5163999740034342, 0.6050499796401709, 0.530699995579198, 0.525100011145696, 0.53114999900572, 0.6165000086184591, 0.5636500136461109, 0.5602499877568334, 0.5197999998927116, 0.523900002008304, 0.6966500077396631, 0.5369000136852264, 0.5462999979499727, 0.5088000034447759, 0.5326000100467354, 0.6588500109501183, 0.5040499963797629, 0.6130000110715628, 0.512449987581931, 0.5001500103389844, 0.5209999944781885, 0.6164999795146286, 0.5284499929985031, 0.6476500129792839, 0.5240499740466475, 0.5190499941818416, 0.520800007507205, 0.519900000654161, 0.6921500025782734, 0.5155499966349453, 0.535300001502037, 0.6858499837107956, 0.5138499836903065, 0.6022999878041446, 0.6173999863676727, 0.524200004292652, 0.5233999982010573, 0.6134500144980848, 0.606699992204085, 0.5167499766685069, 0.5862499820068479, 0.521250010933727, 0.6982500199228525, 0.5625500052701682, 0.5712500133085996, 0.6259499932639301, 0.5834999901708215, 0.520200002938509, 0.6761499971617013, 0.6261000235099345, 0.5266499938443303, 0.5088500183774158, 0.7064499950502068, 0.5677000153809786, 0.7156500068958849, 0.528650009073317, 0.5701000045519322, 0.5072000058135018, 0.5161000008229166, 0.7344000041484833, 0.519149994943291, 0.5224000196903944, 0.52525001228787, 0.5727499956265092, 0.5138000124134123, 0.5664500058628619, 0.5165500042494386, 0.5252499831840396, 0.5748499825131148, 0.6977499870117754, 0.5679000169038773, 0.5228000081842765, 0.5175499827601016, 0.5728999967686832, 0.7389500096905977, 0.5067500023869798, 0.6120000034570694, 0.513850012794137, 0.5216500139795244, 0.5139999848324805, 0.5135999963385984, 0.5109999910928309, 0.6332999910227954, 0.526099989656359, 0.5222000036155805, 0.5470000032801181, 0.6573999999091029, 0.7270499772857875, 0.5733500001952052, 0.5162500019650906, 0.5347500264178962, 0.6948499940335751, 0.526099989656359, 0.7208500173874199, 0.5187999922782183, 0.5315500020515174, 0.609199982136488, 0.6525999924633652, 0.5161500012036413, 0.5167999770492315, 0.5225000204518437, 0.7026999955996871, 0.5169000069145113, 0.528050004504621, 0.600350002059713, 0.5230999959167093, 0.671899993903935, 0.6902000168338418, 0.5876499926671386, 0.5073999927844852, 0.5589500069618225, 0.5262999911792576, 0.527600001078099, 0.6763499986846, 0.5179999861866236, 0.665550003759563, 0.5192500248085707, 0.6338999955914915, 0.5186499911360443, 0.53039999329485, 0.5115499952808022, 0.5211500101722777, 0.6396000098902732, 0.4929999849991873, 0.6858500128146261, 0.6044000037945807, 0.5269499961286783, 0.49515000137034804, 0.5630999803543091, 0.5270499968901277, 0.7201999833341688, 0.5052500055171549, 0.5247000080998987, 0.6932500109542161, 0.5003499973099679, 0.5595999828074127, 0.515749998157844, 0.5399500078056008, 0.5198500002734363, 0.5638000147882849, 0.5080999835627154, 0.5132999940542504, 0.5177499842830002, 0.6816500099375844, 0.7178999949246645, 0.5694499996025115, 0.5110500060254708, 0.5712500133085996, 0.48424999113194644, 0.6654500029981136, 0.5352000007405877, 0.5158499989192933, 0.5168500065337867, 0.5609499930869788, 0.7154000049922615, 0.5589000065810978, 0.7019999902695417, 0.5167999770492315, 0.5091500061098486, 0.6796499947085977, 0.5580500001087785, 0.5208500078879297, 0.7009500113781542, 0.5164500034879893, 0.6027999916113913, 0.5161500012036413, 0.6439000135287642, 0.5185499903745949, 0.6088500085752457, 0.5952500214334577, 0.5349499988369644, 0.6029000214766711, 0.6867999909445643, 0.5244500061962754, 0.6552500126417726, 0.5650999955832958, 0.6266999989748001, 0.5145499890204519, 0.7041500066407025, 0.5156499973963946, 0.6852499791420996, 0.5674999847542495, 0.5148999916855246, 0.5597499839495867, 0.5213999829720706, 0.6452999950852245, 0.582450011279434, 0.5247000080998987, 0.5112499929964542, 0.5202500033192337, 0.524200004292652, 0.5647999932989478, 0.5091500061098486, 0.5667000077664852, 0.5084000003989786, 0.5498499958775938, 0.5152499943505973, 0.5254499847069383, 0.5246000073384494, 0.7091999868862331, 0.6778000097256154, 0.5071499908808619, 0.5136000108905137, 0.5124000017531216, 0.6485999911092222, 0.5159499996807426, 0.5219500162638724, 0.6180000200401992, 0.505499992868863, 0.5184499896131456, 0.5172499950276688, 0.7236000092234462, 0.6851000071037561, 0.6300999957602471, 0.5173500103410333, 0.5328500119503587, 0.5524499865714461, 0.52525001228787, 0.5129499768372625, 0.5110000201966614, 0.7137999928090721, 0.5162500019650906, 0.5231999966781586, 0.5670499813277274, 0.5208500078879297, 0.5562000151257962, 0.6798499962314963, 0.5183500034036115, 0.5151499935891479, 0.7066500256769359, 0.6918500002939254, 0.5739500047639012, 0.6932500109542161, 0.532899983227253, 0.5754999874625355, 0.6816000095568597, 0.5275500006973743, 0.533799990080297, 0.49684999976307154, 0.5119499983265996, 0.5187499918974936, 0.6466500053647906, 0.5680499889422208, 0.7013999857008457, 0.527600001078099, 0.5506500019691885, 0.7166500145103782, 0.64160002511926, 0.5098499823361635, 0.5254999850876629, 0.7403499912470579, 0.6392500072252005, 0.5576499970629811, 0.5580500001087785, 0.6539500027429312, 0.6142999918665737, 0.5031000036979094, 0.5054000066593289, 0.5238000012468547, 0.7256999961100519, 0.5176499980734661, 0.5119000270497054, 0.5217500001890585, 0.6992499984335154, 0.5211999814491719, 0.5231999966781586, 0.5534500232897699, 0.523900002008304, 0.5519499827641994, 0.6015999824739993, 0.6745999853592366, 0.5242999759502709, 0.536899984581396, 0.5215000128373504, 0.5089500045869499, 0.5145000031916425, 0.5690999969374388, 0.6505000055767596, 0.6664000102318823, 0.5152999947313219, 0.5056999943917617, 0.5028500017942861, 0.5084000149508938, 0.6123500061221421, 0.5196499987505376, 0.5329000123310834, 0.5049000028520823, 0.5615499976556748, 0.530549994437024, 0.519900000654161, 0.5583000020124018, 0.7044999802019447, 0.4898999904980883, 0.5106999888084829, 0.5519500118680298, 0.6300999957602471, 0.5180500011192635, 0.6636499892920256, 0.5369500140659511, 0.5230499955359846, 0.518300017574802, 0.5574999959208071, 0.5258000019239262, 0.6236500048544258, 0.5205500056035817, 0.5024999991292134, 0.5142000154592097, 0.5613499961327761, 0.6391999777406454, 0.6033500249031931, 0.6043000030331314, 0.6532499974127859, 0.7290499925147742, 0.5158000130904838, 0.5204500048421323, 0.5260499892756343, 0.7202500128187239, 0.5676000146195292, 0.53039999329485, 0.5295500159263611, 0.6209500133991241, 0.53779999143444, 0.5122500151628628, 0.5307999963406473, 0.5119999987073243, 0.6389500049408525, 0.6991999980527908, 0.6461000011768192, 0.526549993082881, 0.5150999932084233, 0.5359000060707331, 0.5682499904651195, 0.527299998793751, 0.597550009842962, 0.5373999883886427, 0.5236500001046807, 0.5993999948259443, 0.5662499752361327, 0.5643500189762563, 0.6846000032965094, 0.7434499857481569, 0.5216500139795244, 0.6160500051919371, 0.51045001600869, 0.6399500125553459, 0.5146500188857317, 0.5246499786153436, 0.5086499877506867, 0.5254499847069383, 0.6110999966040254, 0.5162500019650906, 0.6389000045601279, 0.6020000146236271, 0.7218999962788075, 0.5275500006973743, 0.5539499979931861, 0.5347999976947904, 0.5271999980323017, 0.5650500243064016, 0.5269000248517841, 0.69039998925291, 0.5352500011213124, 0.5873999907635152, 0.5852000031154603, 0.5278000026009977, 0.5226000212132931, 0.6282500107772648, 0.5203000036999583, 0.7216999947559088, 0.5271999980323017, 0.5662000039592385, 0.5229000234976411, 0.6709500157739967, 0.5173500103410333, 0.5297500174492598, 0.5276500014588237, 0.5278500029817224, 0.5284499784465879, 0.5221999890636653, 0.5199500010348856, 0.5400999798439443, 0.7092999876476824, 0.5185499903745949, 0.5187499918974936, 0.5259500176180154, 0.519599998369813, 0.5208500078879297, 0.664949999190867, 0.5286000086925924, 0.6932499818503857, 0.5290999833960086, 0.5851500027347356, 0.5139999848324805, 0.5207000067457557, 0.5377000197768211, 0.6609499978367239, 0.5579999997280538, 0.5221999890636653, 0.5656499997712672, 0.5216500139795244, 0.5610999942291528, 0.6556499865837395, 0.5154999962542206, 0.5469999741762877, 0.5348999984562397, 0.5156999977771193, 0.6980500183999538, 0.7260999991558492, 0.6023000169079751, 0.523599999723956, 0.5220500170253217, 0.5299999902490526, 0.5229499947745353, 0.5391500017140061, 0.5626999773085117, 0.6830999918747693, 0.5473499768413603, 0.5893500056117773, 0.5229000089457259, 0.6386500026565045, 0.5297499883454293, 0.5668000085279346, 0.5199000152060762, 0.5706000083591789, 0.5292499845381826, 0.6342999986372888, 0.521700014360249, 0.520200002938509, 0.528650009073317, 0.5461999971885234, 0.5238500016275793, 0.6935000128578395, 0.5154999962542206, 0.5160000000614673, 0.5280499754007906, 0.605499983066693, 0.5780000064987689, 0.529199984157458, 0.5702000053133816, 0.5702000053133816, 0.5245499778538942, 0.5228999943938106, 0.6404999876394868, 0.5624499754048884, 0.6357500096783042, 0.521850015502423, 0.5279500037431717, 0.672049995046109, 0.5258999881334603, 0.520350004080683, 0.534699996933341, 0.5631000094581395, 0.5298999894876033, 0.5268999957479537, 0.5169000069145113, 0.6664999818895012, 0.5624000041279942, 0.5472000048030168, 0.7159499800764024, 0.5117500259075314, 0.5175999831408262, 0.5883999983780086, 0.5814000032842159, 0.5801499937660992, 0.5124000017531216, 0.5114499945193529, 0.5087000026833266, 0.533499987795949, 0.4790999955730513, 0.507800024934113, 0.49554998986423016, 0.5035999929532409, 0.5101999850012362, 0.5137499829288572, 0.5173000099603087, 0.52375000086613, 0.526849995367229, 0.49974999274127185, 0.5046500009484589, 0.6190999993123114, 0.5258999881334603, 0.7170999888330698, 0.5174499819986522, 0.5081499984953552, 0.5669500096701086, 0.606699992204085, 0.5619000003207475, 0.5257500160951167, 0.6572499987669289, 0.5086999881314114, 0.5086500023026019, 0.5399000074248761, 0.5090000049676746, 0.5169499781914055, 0.5001999961677939, 0.5186500056879595, 0.5216000135987997, 0.5103000003146008, 0.5079499824205413, 0.7060999923851341, 0.5668999801855534, 0.5189000221434981, 0.5134499806445092, 0.5546999746002257, 0.5187499918974936, 0.5315499874996021, 0.515899999300018, 0.5772000004071742, 0.5986000178381801, 0.518000015290454, 0.530249992152676, 0.5136499967193231, 0.6195500027388334, 0.5001500103389844, 0.7042500074021518, 0.5576499970629811, 0.5071499908808619, 0.7277999829966575, 0.6528999947477132, 0.5225500208325684, 0.5681499897036701, 0.5109500198159367, 0.510300014866516, 0.5243000050541013, 0.7233000069390982, 0.5148499913047999, 0.5106999888084829, 0.5415000196080655, 0.5116499960422516, 0.5187500064494088, 0.5347499973140657, 0.519449997227639, 0.524950010003522, 0.5232000257819891, 0.7052499859128147, 0.5184499896131456, 0.516200001584366, 0.694399990607053, 0.6767000013496727, 0.5072500207461417, 0.6058499857317656, 0.5504500004462898, 0.5747499817516655, 0.527600001078099, 0.6032499950379133, 0.5477999802678823, 0.5117499968037009, 0.50230001215823, 0.497649991302751, 0.548899988643825, 0.5741500062867999, 0.47990000166464597, 0.5143500166013837, 0.5214499979047105, 0.5651000246871263, 0.515899999300018, 0.5525999877136201, 0.5771500000264496, 0.5603499885182828, 0.5032999906688929, 0.5232500261627138, 0.500599984661676, 0.6489999941550195, 0.5815000040456653, 0.5050500039942563, 0.5098999827168882, 0.5163000023458153, 0.525949988514185, 0.5192499957047403, 0.623999978415668, 0.5258999881334603, 0.5445500137284398, 0.5075000080978498, 0.529799988726154, 0.5094499792903662, 0.4990499874111265, 0.5243499763309956, 0.5055999936303124, 0.5793499876745045, 0.5016000068280846, 0.5069500039098784, 0.7134000188671052, 0.5169499927433208, 0.7315999828279018, 0.5251500115264207, 0.5109499907121062, 0.5301999917719513, 0.5125500174472108, 0.5323000077623874, 0.5375999899115413, 0.5036500078858808, 0.5679499881807715, 0.5290499830152839, 0.6853999802842736, 0.6139999895822257, 0.7258499972522259, 0.522699992870912],
  "Optimal Expectation Value": -12.381489753723145,
  "Optimizer durations [ms]": [31.271, 27.78, 31.037, 23.385, 27.893, 30.697, 18.222, 26.857, 30.46, 31.069, 23.237, 26.628, 26.953, 27.928, 30.823, 24.691, 19.178, 31.013, 25.529, 27.124, 26.167, 28.697, 27.47, 28.453, 30.558, 28.813, 22.843, 23.148, 28.205, 25.138, 27.046, 22.046, 28.751, 27.66, 27.688, 25.572, 26.91, 27.434, 30.84, 25.219, 30.135, 26.523, 30.761, 22.035, 29.588, 22.779, 22.223, 28.889, 26.171, 24.888, 26.135, 28.402, 25.063, 26.745, 22.719, 26.223, 25.508, 26.956, 27.705, 30.721, 25.697, 27.423, 21.939, 22.789, 26.524, 29.599, 25.2, 30.284, 28.85, 27.252, 26.431, 27.132, 26.262, 27.36, 26.151, 25.543, 27.642, 26.611, 27.285, 31.14, 23.7, 30.694, 23.6, 29.5, 30.207, 29.044, 27.776, 29.593, 30.996, 24.734, 31.239, 24.796, 30.726, 27.183, 22.749, 30.025, 27.678, 30.942, 31.189, 28.59, 27.468, 26.097, 29.136, 26.872, 27.42, 26.069, 27.41, 28.771, 27.644, 29.792, 30.175, 27.112, 25.641, 27.376, 28.264, 30.6, 30.057, 30.536, 26.052, 26.668, 24.389, 24.642, 22.172, 28.273, 25.803, 24.5, 27.391, 21.578, 27.832, 28.078, 31.042, 24.526, 30.796, 20.028, 26.012, 24.187, 25.393, 28.114, 22.256, 27.274, 26.079, 21.649, 25.831, 26.875, 29.584, 27.651, 28.514, 22.667, 27.105, 30.266, 27.544, 26.342, 29.223, 30.672, 29.439, 28.977, 26.129, 28.272, 27.702, 18.106, 30.842, 26.323, 29.403, 30.87, 27.577, 27.339, 27.854, 20.701, 31.098, 27.817, 26.582, 27.394, 27.6, 25.665, 25.617, 28.302, 27.213, 27.678, 25.143, 26.201, 29.675, 22.645, 27.363, 30.376, 30.583, 28.051, 29.515, 24.518, 27.784, 25.853, 26.709, 30.019, 22.527, 24.635, 29.341, 30.06, 23.477, 30.363, 26.179, 24.078, 25.049, 24.386, 30.46, 26.021, 27.385, 28.707, 30.825, 23.149, 25.089, 29.305, 27.538, 26.474, 24.727, 28.344, 27.407, 26.834, 22.91, 24.881, 28.024, 30.826, 24.248, 26.887, 26.086, 30.352, 27.309, 22.474, 27.03, 29.949, 30.59, 27.98, 22.543, 30.762, 22.862, 30.55, 25.338, 28.236, 27.238, 30.477, 30.864, 24.491, 23.592, 31.068, 23.101, 26.438, 27.254, 27.154, 26.621, 27.226, 27.362, 26.929, 28.652, 26.823, 29.612, 30.176, 28.46, 25.46, 28.385, 28.004, 25.87, 21.833, 27.72, 23.715, 26.651, 30.43, 28.096, 31.013, 23.916, 27.798, 25.62, 27.863, 27.241, 25.953, 30.446, 25.527, 30.526, 27.867, 26.455, 27.062, 26.62, 27.327, 28.038, 30.464, 29.152, 27.394, 22.686, 31.132, 26.344, 26.639, 27.146, 30.243, 29.841, 26.945, 26.967, 30.215, 26.501, 26.885, 27.273, 25.882, 27.295, 24.865, 27.22, 26.087, 29.52, 25.212, 27.663, 27.524, 30.097, 23.6, 28.94, 27.239, 24.888, 25.903, 29.37, 27.758, 25.838, 28.572, 28.378, 27.864, 25.911, 30.495, 24.434, 21.327, 27.77, 29.899, 29.802, 27.366, 30.828, 27.014, 30.266, 28.558, 30.676, 22.992, 30.63, 25.923, 20.642, 30.195, 22.107, 30.099, 25.29, 30.921, 23.482, 27.439, 24.121, 29.547, 19.458, 28.468, 28.294, 30.634, 26.828, 30.684, 27.914, 29.73, 24.478, 29.94, 30.685, 24.564, 26.298, 27.813, 27.737, 29.824, 21.898, 26.365, 23.251, 24.975, 30.869, 29.551, 26.496, 27.488, 25.906, 26.202, 30.787, 25.689, 20.427, 26.694, 24.383, 26.703, 28.286, 27.43, 25.49, 30.465, 24.769, 26.532, 25.929, 26.984, 26.364, 19.711, 31.297, 27.256, 26.039, 27.386, 24.469, 23.002, 21.256, 25.395, 25.033, 25.911, 27.444, 26.908, 31.183, 30.075, 21.717, 26.871, 27.354, 26.437, 24.098, 22.647, 28.697, 26.225, 26.173, 25.833, 30.431, 24.404, 30.539, 23.377, 31.194, 20.13, 29.021, 23.696, 30.204, 26.978, 23.803, 30.048, 30.169, 24.614, 30.964, 29.424, 31.784, 27.664, 25.699, 27.55, 29.916, 26.343, 27.418, 30.744, 28.041, 26.709, 27.176, 29.392, 21.454, 22.68, 30.217, 30.597, 29.024, 27.485, 27.332, 29.701, 29.151, 23.719, 25.763, 25.659, 30.568, 29.359, 26.803, 21.862, 20.78, 28.387, 30.321, 27.401, 26.745, 23.955, 26.504, 28.028, 29.844, 26.829, 21.698, 26.563, 19.951, 25.466, 24.917, 29.126, 27.713, 27.6, 27.139, 22.012, 30.461, 22.436, 30.365, 28.579, 30.843, 27.81, 30.448, 23.224, 25.674, 23.068, 26.147, 29.734, 30.703, 24.727, 26.401, 20.407, 30.102, 27.489, 26.295, 30.243, 27.915, 30.405, 30.651, 26.26, 27.18, 30.068, 29.251, 30.959, 24.209, 24.245, 25.722, 30.934, 28.115, 24.168, 30.878, 28.666, 24.189, 25.923, 28.932, 28.5, 24.387, 30.802, 31.164, 26.604, 26.247, 23.99, 21.375, 28.775, 25.796, 30.125, 23.215, 24.021, 30.398, 30.907, 30.829, 28.759, 24.974, 31.442, 30.591, 30.684, 26.663, 26.581, 30.385, 30.491, 30.571, 27.377, 30.883, 25.23, 27.766, 25.483, 25.065, 30.607, 29.967, 25.909, 27.772, 30.251, 24.815, 23.642, 22.016, 28.983, 23.186, 30.981, 23.518, 26.86, 26.41, 27.686, 27.278, 26.67, 22.449, 30.885, 27.907, 25.75, 30.215, 27.599, 27.084, 26.613, 26.982, 23.176, 29.453, 27.547, 28.029, 23.939, 30.263, 26.33, 26.249, 29.941, 30.103, 23.034, 23.868, 20.735, 27.461, 26.036, 26.985, 26.335, 21.739, 30.678, 24.891, 30.532, 22.871, 27.83, 27.974, 30.056, 25.852, 30.719, 30.406, 28.08, 21.02, 26.893, 26.225, 27.63, 24.448, 30.176, 26.178, 29.755, 25.446, 27.314, 26.933, 28.102, 29.701, 26.472, 29.284, 27.374, 30.314, 19.457, 26.412, 23.088, 27.044, 27.004, 26.887, 30.553, 25.82, 30.165, 20.807, 29.545, 23.957, 27.923, 23.872, 30.212, 24.469, 30.611, 27.932, 27.715, 26.226, 26.576, 22.335, 24.671, 26.79, 26.799, 27.363, 30.468, 28.061, 27.517, 23.426, 29.562, 23.184, 21.948, 30.741, 30.217, 30.718, 27.047, 26.563, 27.19, 27.895, 23.509, 26.81, 26.945, 30.096, 25.488, 26.679, 29.989, 31.118],
  "Optimizer iterations": 665,
  "Optimizer params": [0.6246633813274521, 0.7531435198648029, 0.8825860291625288, 0.5973132603870538, 0.9138193802899177, 0.5786732725204399, 0.9210416233010846, 0.5739268894455781, 0.928750541362174, 0.5230347464923389, 0.5881368420089945, 0.5082296774788189, 0.48515929615642994, 0.5075802453453513, 0.49166272855972865, 0.5109443987220287, 0.47707914212655306, 0.4832561162654332, 0.5118755819999761, 0.8182522703283708, 0.49592421412823146, 0.5113117389548966, 0.5125491607497626, 0.5059737689895625, 0.5168099523337403, 0.5390403239953934, 0.5419495138967398, 0.5470675863715656, 0.5446238932575402, 0.5377223286427739, 0.5851332838289995, 0.5348002789275812, 0.5214684786159155, 0.5197846587524925, 0.5032244079669423, 0.4956381987432077, 0.526496988094955, 0.5004025263005667, 0.49077288021883403, 0.46767341173047183],
  "P": 0,
  "Problem": "IC",
  "QPU": "7000000",
  "Qubits": 10,
  "Shots": 4096,
  "Size": 10,
  "Total Algorithm duration [s]": 18.021,
  "Total Classic duration [s]": 17.645211850372377,
  "Total Quantum duration [s]": 0.3757881496276241
}
