{
  "Circuit execution durations [ms]": [83.131358, 72.00288, 70.07664500000001, 65.386356, 83.503018, 75.142894, 73.913249, 82.949988, 64.887209, 83.641465, 83.575716, 84.39327300000001, 80.069576, 72.92483600000001, 72.763546, 83.388513, 75.057318, 102.20178, 73.792599, 70.46267300000001, 73.91042, 66.063357, 73.524794, 74.334549, 85.23824, 81.201983, 76.15886099999999, 75.21544300000001, 81.59539000000001, 73.837111, 83.776557, 83.137149, 82.156362, 76.914127, 82.509182, 67.69103899999999, 68.1934, 64.97805500000001, 93.85319, 72.845258, 81.860591, 65.104912, 82.611809, 65.447312, 74.78831, 43.424398000000004, 72.921589, 85.73320500000001, 111.016868, 69.997529, 83.154594, 73.131964, 73.195842, 136.152225, 54.292389, 82.395037, 82.89854700000001, 65.54267399999999, 72.833309, 73.69350800000001, 73.987683, 82.317067, 82.318864, 82.241674, 65.254136, 73.041653, 66.659355, 79.426757, 81.521057, 84.021266, 82.607225, 82.57854400000001, 72.488519, 72.833034, 81.23035100000001, 82.58982900000001, 83.166247, 68.802977, 83.20493599999999, 81.795467, 83.329743, 71.03541200000001, 82.81949700000001, 42.6922, 83.367272, 72.9497, 83.275658, 75.101382, 80.083599, 43.111078, 46.101119000000004, 48.18951, 82.959134, 67.499429, 43.801133, 73.095327, 82.940729, 82.68901600000001, 72.989615, 75.200217, 64.617291, 83.12411999999999, 73.27932],
  "Depth": 257.0,
  "Expectation Value": -18.20947265625,
  "Optimal Expectation Value": -20.0,
  "Optimizer durations [ms]": [8588.996, 37483.572, 7643.228, 9482.369, 8034.332, 11217.025, 8074.941, 7980.664, 10623.372, 8919.948, 9106.637, 8418.175, 8139.572, 10159.558, 8035.917, 9781.041, 8396.836, 7191.069, 7640.512, 8199.471, 9332.155, 13020.762, 10755.192, 10622.548, 28180.916, 20059.989, 15152.058, 7962.401, 8168.183, 9778.964, 8586.509, 7571.99, 37253.989, 15608.976, 8281.567, 10058.181, 37641.018, 42620.176, 11572.398, 11846.276, 9573.339, 8684.169, 36019.345, 8813.524, 8789.61, 8344.948, 21124.791, 7370.245, 8233.339, 8093.546, 7925.746, 8252.739, 12480.178, 14356.179, 9959.877, 9360.692, 12748.233, 12290.601, 10143.834, 22519.643, 8329.826, 10325.985, 8489.116, 7694.726, 8811.254, 9337.01, 6749.107, 8767.834, 68857.362, 25894.25, 9764.432, 10394.601, 8575.571, 9217.898, 7546.894, 7688.978, 17747.717, 15709.294, 12142.342, 11688.575, 17050.675, 9332.564, 68473.749, 7944.91, 15029.052, 72573.205, 9122.964, 9351.18, 11777.865, 9597.587, 10570.486, 8218.708, 8330.704, 70700.216, 8944.617, 9435.623, 8986.777, 11457.32, 13904.811, 9062.979, 35870.013, 18651.755, 69724.571],
  "Optimizer iterations": 103,
  "Optimizer params": [0.5598813358013155, 0.9284695340129436, 0.5340266337120213, 0.2728974240992174, 0.9140873384194212, 0.919051048722171],
  "P": 3,
  "Problem": "MCP",
  "QJob durations [ms]": [8426.732540130615, 37384.32741165161, 7470.61562538147, 9388.38505744934, 7941.33186340332, 11119.133949279785, 7976.6411781311035, 7809.316873550415, 10528.779745101929, 8823.959112167358, 9013.905048370361, 8322.781562805176, 7972.793817520142, 10061.5234375, 7864.303112030029, 9685.510396957397, 8298.405408859253, 7087.576627731323, 7535.332202911377, 8028.184652328491, 9238.815784454346, 12839.266538619995, 10653.400659561157, 10524.521350860596, 28084.959745407104, 19968.65439414978, 14980.28302192688, 7873.743534088135, 8076.315402984619, 9674.816608428955, 8483.301401138306, 7400.667905807495, 37158.337116241455, 15515.061855316162, 8192.601442337036, 9969.951629638672, 37464.53380584717, 42516.56699180603, 11401.962041854858, 11748.714447021484, 9474.748373031616, 8582.785844802856, 35922.322034835815, 8631.368398666382, 8697.490930557251, 8255.789518356323, 21031.681060791016, 7267.240762710571, 8067.852973937988, 7994.068145751953, 7831.965684890747, 8154.561519622803, 12377.942085266113, 14185.614109039307, 9855.615139007568, 9188.374519348145, 12660.547018051147, 12192.837476730347, 10048.328638076782, 22419.862031936646, 8169.320344924927, 10225.780487060547, 8392.624616622925, 7596.141338348389, 8716.91608428955, 9163.840293884277, 6645.798921585083, 8660.825729370117, 68764.3871307373, 25791.202545166016, 9599.829912185669, 10297.60718345642, 8481.53018951416, 9128.295421600342, 7451.751947402954, 7521.6100215911865, 17658.87713432312, 15545.775651931763, 12044.641017913818, 11592.305660247803, 16949.641227722168, 9238.343477249146, 68305.12499809265, 7849.5283126831055, 14932.166576385498, 72473.6840724945, 9021.841287612915, 9181.893825531006, 11685.70876121521, 9504.47964668274, 10475.77953338623, 8118.612051010132, 8166.470766067505, 70613.14511299133, 8852.137088775635, 9341.562509536743, 8891.526460647583, 11296.781301498413, 13802.711009979248, 8882.482767105103, 35768.5112953186, 18546.467542648315, 69630.04398345947],
  "QPU": "4010001",
  "Qubits": 14,
  "Queue durations [ms]": [1806.0, 1614.0, 1376.0, 2426.0, 1161.0, 1767.0, 894.0, 1057.0, 1455.0, 1617.0, 2041.0, 888.0, 1302.0, 1465.0, 1444.0, 1552.0, 1331.0, 911.0, 958.0, 1250.0, 2415.0, 1440.0, 3129.0, 856.0, 1388.0, 2540.0, 2800.0, 1186.0, 991.0, 770.0, 2079.0, 1149.0, 30104.0, 5091.0, 1896.0, 891.0, 27702.0, 2133.0, 2831.0, 1116.0, 1972.0, 1542.0, 1621.0, 1095.0, 1196.0, 1460.0, 2825.0, 813.0, 1520.0, 1012.9999999999999, 1198.0, 1146.0, 1461.0, 1069.0, 2553.0, 2076.0, 3111.0, 2311.0, 2541.0, 15476.0, 1059.0, 2469.0, 1685.0, 1520.0, 1625.0, 915.0, 727.0, 1635.0, 62399.0, 18638.0, 1310.0, 2105.0, 1800.0, 1431.0, 611.0, 787.0, 2041.9999999999998, 1108.0, 1759.0, 2971.0, 1306.0, 878.0, 1265.0, 1216.0, 2095.0, 61729.0, 1348.0, 1772.0, 756.0, 1100.0, 1558.0, 1293.0, 1885.0, 56508.0, 1570.0, 773.0, 1824.0, 1080.0, 1059.0, 1402.0, 1173.0, 1411.0, 62855.0],
  "Shots": 4096,
  "Size": 14,
  "Total Algorithm duration [s]": 1560.121,
  "Total Classic duration [s]": 11.796283193588351,
  "Total Quantum duration [s]": 1548.3247168064117
}
