{
  "Depth": 221.0,
  "Job durations [ms]": [45006.11138343811, 45353.06692123413, 45988.76881599426, 44921.7255115509, 44860.04400253296, 45259.450912475586, 44669.07596588135, 45049.70073699951, 44829.65302467346, 45023.937463760376, 45812.54053115845, 45143.70131492615, 45079.792737960815, 45101.773262023926, 45166.28289222717, 45296.21958732605, 45498.63004684448, 45653.26714515686, 44989.638805389404, 45013.43536376953, 45098.2506275177, 44666.7423248291, 45193.59827041626, 45352.513551712036, 45466.225147247314, 45480.21936416626, 45172.56045341492, 44975.06546974182, 45398.407220840454, 45258.729696273804, 45175.06527900696, 45311.267375946045, 45224.62272644043, 45430.5682182312, 44906.59308433533, 45506.93321228027, 44941.50614738464, 45561.48982048035, 45215.853452682495, 45112.475872039795, 45367.93112754822, 45249.932050704956, 45153.4857749939, 45076.422929763794, 45437.17575073242, 44683.86459350586, 45185.80603599548, 45350.51965713501, 45188.1959438324, 45296.913146972656, 45336.15159988403, 44745.203733444214, 45034.663438797, 45723.67358207703, 45010.14566421509, 45125.00023841858, 45232.192277908325, 45122.395515441895, 44948.25744628906, 45549.54957962036, 44957.534313201904, 45099.30515289307, 45192.33846664429, 44827.34823226929, 45069.432735443115, 45242.74706840515, 45254.73403930664, 45343.55688095093, 45383.384466171265, 45233.37388038635, 44940.55414199829, 45370.99385261536, 44746.970891952515, 45386.736154556274, 44971.731424331665, 44838.48261833191, 44941.02692604065, 45235.339641571045, 45408.94913673401, 45399.36971664429, 44887.162923812866, 44997.40409851074, 45087.72563934326, 45380.661725997925, 45389.575719833374, 45497.528076171875, 45084.05137062073, 45154.468297958374, 45292.23561286926, 44965.16180038452, 45098.37460517883, 44940.43755531311, 45100.82507133484, 44786.6268157959, 45296.69547080994, 44907.64236450195, 44880.791425704956, 45202.85987854004, 45580.08360862732, 44837.9225730896, 45372.75719642639, 45319.09489631653, 44810.51278114319, 44974.70784187317, 45060.43457984924],
  "Optimizer durations [ms]": [48599.038, 48974.187, 49604.904, 48573.428, 48497.286, 48861.832, 48282.652, 48697.065, 48530.827, 48668.611, 49418.738, 48779.122, 48722.877, 48809.127, 48790.161, 48916.524, 49130.732, 49244.986, 48695.211, 48664.152, 48718.088, 48322.265, 48862.649, 48984.988, 49059.884, 49142.498, 48797.291, 48660.072, 49000.118, 48906.889, 48799.437, 48926.436, 48822.382, 49046.576, 48503.191, 49139.305, 48582.906, 49193.603, 48806.813, 48697.964, 48983.008, 48900.067, 48736.172, 48728.643, 49034.69, 48321.811, 48793.664, 49027.897, 48772.786, 48932.124, 48966.223, 48383.399, 48684.798, 49350.549, 48606.746, 48738.508, 48879.486, 48767.514, 48556.334, 49189.555, 48564.555, 48726.207, 48859.905, 48456.665, 48671.763, 48869.247, 48901.167, 49035.768, 49038.588, 48849.706, 48575.812, 49036.115, 48447.359, 49016.498, 48591.541, 48466.413, 48582.71, 48882.156, 49044.962, 48985.495, 48486.867, 48608.934, 48720.43, 49026.836, 49027.826, 49120.373, 48759.217, 48772.52, 48930.822, 48568.097, 48721.313, 48606.103, 48646.902, 48397.852, 48904.525, 48531.04, 48565.516, 48841.634, 49171.83, 48437.849, 48986.748, 48934.572, 48429.324, 48607.018, 48614.974],
  "Optimizer iterations": 105,
  "Qubits": 12,
  "Total Algorithm duration [s]": 5123.81,
  "Total Classic duration [s]": 381.0773645019535,
  "Total Quantum duration [s]": 4742.732635498047,
  "Expectation Value": -14.3662109375,
  "Optimal Expectation Value": -18.0,
  "Optimizer params": [0.5781054571184712, 0.5762655282418839, 0.3393280476778396, 0.3332889246404226, 0.7139001804408613, 0.861730290219516],
  "QPU": "6010003",
  "Problem": "MCP",
  "Size": 12,
  "P": 3,
  "Shots": 4096
}