{
  "Circuit execution durations [ms]": [0.1295000001846347, 0.1230000016221311, 0.14755000302102417, 0.12364999929559417, 0.11870000162161887, 0.12504999904194847, 0.12015000174869783, 0.11789999916800298, 0.11674999768729322, 0.11999999696854502, 0.12239999705343507, 0.12354999853414483, 0.11930000255233608, 0.12290000086068176, 0.11589999849093147, 0.11580000500543974, 0.12185000014142133, 0.11744999937945977, 0.11639999866019934, 0.23150000561145134, 0.1251499998033978, 0.1158499981102068, 0.11744999937945977, 0.1172499978565611, 0.11595000250963494, 0.11690000246744603, 0.11610000001383014, 0.11649999942164868, 0.11670000094454736, 0.12000000060652383, 0.11789999916800298, 0.11644999904092401, 0.12240000432939269, 0.11685000208672136, 0.1169500028481707, 0.12150000111432746, 0.11635000191745348, 0.11799999992945231, 0.11974999870290048, 0.12240000069141388, 0.22480000188807026, 0.12805000005755574, 0.12185000014142133, 0.1245500025106594, 0.11760000052163377, 0.12680000509135425, 0.11860000086016953, 0.11850000009872019, 0.11094999717897736, 0.12245000107213855, 0.11834999895654619, 0.12055000115651637, 0.11855000411742367, 0.31984999077394605, 0.12430000060703605, 0.12025000251014717, 0.12385000081849284, 0.11829999857582152, 0.12134999633417465, 0.12319999586907215, 0.11665000056382269, 0.12695000259554945, 0.11760000415961258, 0.11855000047944486, 0.11794999954872765, 0.11730000187526457, 0.11654999980237335, 0.1154000019596424, 0.12440000136848539, 0.11610000001383014, 0.11699999959091656, 0.11615000039455481, 0.11889999950653873, 0.11609999637585133, 0.11655000344035216, 0.13544999819714576, 0.11810000069090165, 0.11704999633366242, 0.11740000263671391, 0.11730000187526457, 0.11700000322889537, 0.12324999988777563, 0.11670000458252616, 0.11720000475179404, 0.13700000272365287, 0.11964999794145115, 0.12074999904143624, 0.11704999997164123, 0.12320000314502977, 0.11914999777218327, 0.11994999658782035, 0.11654999980237335, 0.11664999692584388, 0.11704999997164123, 0.1158500017481856, 0.11955000445595942, 0.11889999950653873, 0.11574999734875746, 0.11729999823728576, 0.12084999980288558, 0.12395000157994218, 0.12304999836487696, 0.13639999815495685, 0.1166500042018015, 0.11575000098673627, 0.11700000322889537, 0.130599997646641, 0.11869999798364006, 0.11844999971799552, 0.12045000403304584, 0.11719999747583643, 0.12000000060652383, 0.11604999963310547, 0.11745000301743858, 0.12360000255284831, 0.13100000069243833, 0.11859999722219072, 0.11709999671438709, 0.11680000170599669, 0.11859999722219072, 0.11844999608001672, 0.11684999481076375, 0.11694999921019189, 0.11700000322889537, 0.11719999747583643, 0.12334999701124616, 0.11825000183307566, 0.11575000098673627, 0.11709999671438709, 0.1159999992523808, 0.11689999519148842, 0.11620000077527948, 0.12000000424450263, 0.11784999878727831, 0.12915000115754083, 0.12320000314502977, 0.1189499998872634, 0.1213000032294076, 0.12100000094505958, 0.1203500032715965, 0.11659999654511921, 0.11850000009872019, 0.11855000047944486, 0.13344999752007425, 0.11875000200234354, 0.11984999582637101, 0.11984999582637101, 0.11969999832217582, 0.12065000191796571, 0.11995000022579916, 0.1178499951492995, 0.11965000157942995, 0.12069999866071157, 0.12629999764612876, 0.1259499986190349, 0.15895000251475722, 0.11934999929508194, 0.12379999679978937, 0.11830000221380033, 0.11680000170599669, 0.12120000246795826, 0.18629999249242246, 0.11929999891435727, 0.12084999980288558, 0.11889999950653873, 0.1188000023830682, 0.11925000217161141, 0.11765000090235844, 0.11709999671438709, 0.12084999980288558, 0.12409999908413738, 0.11899999663000926, 0.11774999802582897, 0.11660000018309802, 0.11644999904092401, 0.17359999765176326, 0.12170000263722613, 0.11834999531856738, 0.12145000073360279, 0.12070000229869038, 0.11799999629147351, 0.11549999908311293, 0.1238999975612387, 0.11780000204453245, 0.12155000513303094, 0.11649999942164868, 0.11699999959091656, 0.12084999980288558, 0.11900000390596688, 0.11690000246744603, 0.11549999908311293, 0.11699999595293775, 0.11660000018309802, 0.12285000047995709, 0.11694999921019189, 0.11844999971799552, 0.12349999815342017, 0.1220499980263412, 0.11804999667219818, 0.11665000056382269, 0.11635000191745348, 0.11645000267890282, 0.11675000132527202, 0.11630000153672881, 0.11744999937945977, 0.11959999756072648, 0.12214999878779054, 0.13494999802787788, 0.1233000039064791, 0.1159999992523808, 0.11679999806801789, 0.11804999667219818, 0.11609999637585133, 0.11610000001383014, 0.11610000365180895, 0.11650000305962749, 0.12030000289087184, 0.11509999967529438, 0.11594999887165613, 0.11694999921019189, 0.1253000009455718, 0.11610000001383014, 0.11620000077527948, 0.11665000056382269, 0.11550000272109173, 0.11689999882946722, 0.11674999768729322, 0.12099999730708078, 0.12700000297627412, 0.11600000289035961, 0.11900000026798807, 0.1158500017481856, 0.11620000077527948, 0.1313499997195322, 0.12334999701124616, 0.11510000331327319, 0.1172499978565611, 0.11559999984456226, 0.11639999866019934, 0.11824999819509685, 0.11709999671438709, 0.1169500028481707, 0.11689999882946722, 0.2366500011703465, 0.20519999816315249, 0.20084999414393678, 0.12749999586958438, 0.118500003736699, 0.1190999973914586, 0.11749999976018444, 0.11885000276379287, 0.12030000289087184, 0.12224999954923987, 0.11824999819509685, 0.11799999629147351, 0.11640000229817815, 0.11774999802582897, 0.11794999954872765, 0.12045000039506704, 0.12335000064922497, 0.13749999925494194, 0.12390000119921751, 0.11850000009872019, 0.11680000170599669, 0.11660000382107683, 0.12140000399085693],
  "Depth": 2.0,
  "Expectation Value": -4.2788310050964355,
  "Optimal Expectation Value": -4.281300067901611,
  "Optimizer durations [ms]": [3.802, 3.557, 3.985, 14.452, 6.871, 3.629, 3.458, 3.344, 3.308, 3.4, 3.44, 3.507, 3.338, 3.558, 3.337, 3.291, 3.363, 3.296, 3.305, 5.472, 3.883, 3.269, 3.336, 3.297, 3.312, 3.325, 3.291, 3.306, 3.322, 3.339, 3.34, 3.314, 10.687, 9.425, 3.315, 3.454, 3.327, 3.173, 3.415, 3.376, 5.22, 4.558, 3.712, 3.437, 4.242, 3.557, 3.32, 3.323, 20.497, 13.556, 3.515, 3.361, 3.369, 6.972, 3.636, 3.472, 3.542, 3.349, 3.426, 3.513, 3.305, 3.382, 3.293, 3.336, 3.339, 3.323, 3.303, 3.095, 3.587, 3.306, 3.402, 3.222, 3.437, 3.306, 3.287, 3.922, 3.345, 3.317, 3.347, 3.383, 3.309, 3.563, 3.297, 3.343, 3.854, 3.466, 3.395, 3.358, 3.563, 3.377, 3.328, 3.311, 3.305, 3.35, 3.279, 3.448, 3.381, 3.299, 3.307, 3.415, 3.49, 3.483, 3.723, 3.321, 3.309, 3.347, 3.937, 3.388, 3.371, 3.513, 3.383, 3.343, 3.311, 3.358, 3.549, 3.589, 3.279, 3.248, 3.258, 3.291, 3.293, 3.261, 3.27, 3.251, 3.254, 3.407, 3.298, 3.227, 3.226, 3.225, 3.195, 3.188, 3.394, 3.269, 3.572, 3.41, 3.342, 3.387, 3.387, 3.372, 3.553, 3.279, 3.206, 3.685, 3.333, 3.337, 3.34, 3.283, 3.46, 3.311, 3.256, 3.332, 3.531, 3.516, 3.466, 4.123, 3.354, 3.951, 3.373, 3.312, 3.444, 4.76, 3.286, 3.349, 3.312, 3.342, 3.329, 3.402, 3.32, 3.476, 3.43, 3.291, 3.325, 3.327, 3.337, 4.309, 3.31, 3.356, 3.471, 3.288, 3.314, 3.301, 3.726, 3.415, 3.565, 3.305, 3.447, 3.584, 3.361, 3.379, 3.309, 3.327, 3.371, 3.32, 3.303, 3.298, 3.357, 3.454, 3.234, 3.295, 3.342, 3.337, 3.304, 3.317, 3.345, 3.386, 3.446, 3.727, 3.491, 3.294, 3.337, 3.35, 3.294, 3.299, 3.303, 3.328, 3.382, 3.288, 3.311, 3.325, 3.472, 3.313, 3.312, 3.33, 3.307, 3.331, 3.291, 3.646, 3.487, 3.322, 3.555, 3.319, 3.325, 3.715, 3.478, 3.298, 3.359, 3.304, 3.315, 3.352, 3.326, 3.314, 3.333, 5.797, 20.206, 5.903, 4.038, 3.364, 3.334, 3.365, 3.355, 3.394, 3.64, 3.324, 3.347, 3.343, 3.349, 3.336, 3.303, 3.481, 3.619, 3.33, 3.316, 3.294, 3.317, 3.497],
  "Optimizer iterations": 266,
  "Optimizer params": [1.0763379079080426e-17, 0.506240161086442, 0.9999999999999998, 0.5144017886378647, 0.5026350277426141, 0.0028640284157531322, 0.4996446888865379],
  "P": 0,
  "Problem": "RH",
  "QJob durations [ms]": [0.1295000001846347, 0.1230000016221311, 0.14755000302102417, 0.12364999929559417, 0.11870000162161887, 0.12504999904194847, 0.12015000174869783, 0.11789999916800298, 0.11674999768729322, 0.11999999696854502, 0.12239999705343507, 0.12354999853414483, 0.11930000255233608, 0.12290000086068176, 0.11589999849093147, 0.11580000500543974, 0.12185000014142133, 0.11744999937945977, 0.11639999866019934, 0.23150000561145134, 0.1251499998033978, 0.1158499981102068, 0.11744999937945977, 0.1172499978565611, 0.11595000250963494, 0.11690000246744603, 0.11610000001383014, 0.11649999942164868, 0.11670000094454736, 0.12000000060652383, 0.11789999916800298, 0.11644999904092401, 0.12240000432939269, 0.11685000208672136, 0.1169500028481707, 0.12150000111432746, 0.11635000191745348, 0.11799999992945231, 0.11974999870290048, 0.12240000069141388, 0.22480000188807026, 0.12805000005755574, 0.12185000014142133, 0.1245500025106594, 0.11760000052163377, 0.12680000509135425, 0.11860000086016953, 0.11850000009872019, 0.11094999717897736, 0.12245000107213855, 0.11834999895654619, 0.12055000115651637, 0.11855000411742367, 0.31984999077394605, 0.12430000060703605, 0.12025000251014717, 0.12385000081849284, 0.11829999857582152, 0.12134999633417465, 0.12319999586907215, 0.11665000056382269, 0.12695000259554945, 0.11760000415961258, 0.11855000047944486, 0.11794999954872765, 0.11730000187526457, 0.11654999980237335, 0.1154000019596424, 0.12440000136848539, 0.11610000001383014, 0.11699999959091656, 0.11615000039455481, 0.11889999950653873, 0.11609999637585133, 0.11655000344035216, 0.13544999819714576, 0.11810000069090165, 0.11704999633366242, 0.11740000263671391, 0.11730000187526457, 0.11700000322889537, 0.12324999988777563, 0.11670000458252616, 0.11720000475179404, 0.13700000272365287, 0.11964999794145115, 0.12074999904143624, 0.11704999997164123, 0.12320000314502977, 0.11914999777218327, 0.11994999658782035, 0.11654999980237335, 0.11664999692584388, 0.11704999997164123, 0.1158500017481856, 0.11955000445595942, 0.11889999950653873, 0.11574999734875746, 0.11729999823728576, 0.12084999980288558, 0.12395000157994218, 0.12304999836487696, 0.13639999815495685, 0.1166500042018015, 0.11575000098673627, 0.11700000322889537, 0.130599997646641, 0.11869999798364006, 0.11844999971799552, 0.12045000403304584, 0.11719999747583643, 0.12000000060652383, 0.11604999963310547, 0.11745000301743858, 0.12360000255284831, 0.13100000069243833, 0.11859999722219072, 0.11709999671438709, 0.11680000170599669, 0.11859999722219072, 0.11844999608001672, 0.11684999481076375, 0.11694999921019189, 0.11700000322889537, 0.11719999747583643, 0.12334999701124616, 0.11825000183307566, 0.11575000098673627, 0.11709999671438709, 0.1159999992523808, 0.11689999519148842, 0.11620000077527948, 0.12000000424450263, 0.11784999878727831, 0.12915000115754083, 0.12320000314502977, 0.1189499998872634, 0.1213000032294076, 0.12100000094505958, 0.1203500032715965, 0.11659999654511921, 0.11850000009872019, 0.11855000047944486, 0.13344999752007425, 0.11875000200234354, 0.11984999582637101, 0.11984999582637101, 0.11969999832217582, 0.12065000191796571, 0.11995000022579916, 0.1178499951492995, 0.11965000157942995, 0.12069999866071157, 0.12629999764612876, 0.1259499986190349, 0.15895000251475722, 0.11934999929508194, 0.12379999679978937, 0.11830000221380033, 0.11680000170599669, 0.12120000246795826, 0.18629999249242246, 0.11929999891435727, 0.12084999980288558, 0.11889999950653873, 0.1188000023830682, 0.11925000217161141, 0.11765000090235844, 0.11709999671438709, 0.12084999980288558, 0.12409999908413738, 0.11899999663000926, 0.11774999802582897, 0.11660000018309802, 0.11644999904092401, 0.17359999765176326, 0.12170000263722613, 0.11834999531856738, 0.12145000073360279, 0.12070000229869038, 0.11799999629147351, 0.11549999908311293, 0.1238999975612387, 0.11780000204453245, 0.12155000513303094, 0.11649999942164868, 0.11699999959091656, 0.12084999980288558, 0.11900000390596688, 0.11690000246744603, 0.11549999908311293, 0.11699999595293775, 0.11660000018309802, 0.12285000047995709, 0.11694999921019189, 0.11844999971799552, 0.12349999815342017, 0.1220499980263412, 0.11804999667219818, 0.11665000056382269, 0.11635000191745348, 0.11645000267890282, 0.11675000132527202, 0.11630000153672881, 0.11744999937945977, 0.11959999756072648, 0.12214999878779054, 0.13494999802787788, 0.1233000039064791, 0.1159999992523808, 0.11679999806801789, 0.11804999667219818, 0.11609999637585133, 0.11610000001383014, 0.11610000365180895, 0.11650000305962749, 0.12030000289087184, 0.11509999967529438, 0.11594999887165613, 0.11694999921019189, 0.1253000009455718, 0.11610000001383014, 0.11620000077527948, 0.11665000056382269, 0.11550000272109173, 0.11689999882946722, 0.11674999768729322, 0.12099999730708078, 0.12700000297627412, 0.11600000289035961, 0.11900000026798807, 0.1158500017481856, 0.11620000077527948, 0.1313499997195322, 0.12334999701124616, 0.11510000331327319, 0.1172499978565611, 0.11559999984456226, 0.11639999866019934, 0.11824999819509685, 0.11709999671438709, 0.1169500028481707, 0.11689999882946722, 0.2366500011703465, 0.20519999816315249, 0.20084999414393678, 0.12749999586958438, 0.118500003736699, 0.1190999973914586, 0.11749999976018444, 0.11885000276379287, 0.12030000289087184, 0.12224999954923987, 0.11824999819509685, 0.11799999629147351, 0.11640000229817815, 0.11774999802582897, 0.11794999954872765, 0.12045000039506704, 0.12335000064922497, 0.13749999925494194, 0.12390000119921751, 0.11850000009872019, 0.11680000170599669, 0.11660000382107683, 0.12140000399085693],
  "QPU": "7000000",
  "Qubits": 7,
  "Queue durations [ms]": [0.0, 0.0, 0.0, 0.0, 0.0, 0.0, 0.0, 0.0, 0.0, 0.0, 0.0, 0.0, 0.0, 0.0, 0.0, 0.0, 0.0, 0.0, 0.0, 0.0, 0.0, 0.0, 0.0, 0.0, 0.0, 0.0, 0.0, 0.0, 0.0, 0.0, 0.0, 0.0, 0.0, 0.0, 0.0, 0.0, 0.0, 0.0, 0.0, 0.0, 0.0, 0.0, 0.0, 0.0, 0.0, 0.0, 0.0, 0.0, 0.0, 0.0, 0.0, 0.0, 0.0, 0.0, 0.0, 0.0, 0.0, 0.0, 0.0, 0.0, 0.0, 0.0, 0.0, 0.0, 0.0, 0.0, 0.0, 0.0, 0.0, 0.0, 0.0, 0.0, 0.0, 0.0, 0.0, 0.0, 0.0, 0.0, 0.0, 0.0, 0.0, 0.0, 0.0, 0.0, 0.0, 0.0, 0.0, 0.0, 0.0, 0.0, 0.0, 0.0, 0.0, 0.0, 0.0, 0.0, 0.0, 0.0, 0.0, 0.0, 0.0, 0.0, 0.0, 0.0, 0.0, 0.0, 0.0, 0.0, 0.0, 0.0, 0.0, 0.0, 0.0, 0.0, 0.0, 0.0, 0.0, 0.0, 0.0, 0.0, 0.0, 0.0, 0.0, 0.0, 0.0, 0.0, 0.0, 0.0, 0.0, 0.0, 0.0, 0.0, 0.0, 0.0, 0.0, 0.0, 0.0, 0.0, 0.0, 0.0, 0.0, 0.0, 0.0, 0.0, 0.0, 0.0, 0.0, 0.0, 0.0, 0.0, 0.0, 0.0, 0.0, 0.0, 0.0, 0.0, 0.0, 0.0, 0.0, 0.0, 0.0, 0.0, 0.0, 0.0, 0.0, 0.0, 0.0, 0.0, 0.0, 0.0, 0.0, 0.0, 0.0, 0.0, 0.0, 0.0, 0.0, 0.0, 0.0, 0.0, 0.0, 0.0, 0.0, 0.0, 0.0, 0.0, 0.0, 0.0, 0.0, 0.0, 0.0, 0.0, 0.0, 0.0, 0.0, 0.0, 0.0, 0.0, 0.0, 0.0, 0.0, 0.0, 0.0, 0.0, 0.0, 0.0, 0.0, 0.0, 0.0, 0.0, 0.0, 0.0, 0.0, 0.0, 0.0, 0.0, 0.0, 0.0, 0.0, 0.0, 0.0, 0.0, 0.0, 0.0, 0.0, 0.0, 0.0, 0.0, 0.0, 0.0, 0.0, 0.0, 0.0, 0.0, 0.0, 0.0, 0.0, 0.0, 0.0, 0.0, 0.0, 0.0, 0.0, 0.0, 0.0, 0.0, 0.0, 0.0, 0.0, 0.0, 0.0, 0.0, 0.0, 0.0, 0.0, 0.0, 0.0, 0.0, 0.0, 0.0, 0.0, 0.0, 0.0, 0.0, 0.0, 0.0],
  "Shots": 4096,
  "Size": 7,
  "Total Algorithm duration [s]": 0.991,
  "Total Classic duration [s]": 0.9583100999971211,
  "Total Quantum duration [s]": 0.03268990000287886
}
