{
  "Circuit execution durations [ms]": [0.12930000229971483, 0.12245000107213855, 0.12074999540345743, 0.1220499980263412, 0.12034999599563889, 0.12235000031068921, 0.12004999734926969, 0.12024999887216836, 0.1234500014106743, 0.12649999553104863, 0.11979999544564635, 0.11915000141016208, 0.11720000111381523, 0.11959999756072648, 0.11904999701073393, 0.11870000162161887, 0.11944999641855247, 0.1189499998872634, 0.11950000407523476, 0.11944999641855247, 0.11910000102943741, 0.11965000157942995, 0.1274999995075632, 0.12285000047995709, 0.11994999658782035, 0.11954999718000181, 0.11929999527637847, 0.12140000399085693, 0.12029999925289303, 0.12004999734926969, 0.11919999815290794, 0.12384999718051404, 0.11999999696854502, 0.12055000115651637, 0.1190999973914586, 0.11984999946434982, 0.12254999819560908, 0.127350002003368, 0.12570000035339035, 0.1218999968841672, 0.11965000157942995, 0.11830000221380033, 0.11834999895654619, 0.11789999916800298, 0.12834999870392494, 0.1221999991685152, 0.11955000081798062, 0.1189499962492846, 0.11900000026798807, 0.11834999895654619, 0.12325000352575444, 0.12010000136797316, 0.11895000352524221, 0.11905000064871274, 0.11849999646074139, 0.12014999811071903, 0.11750000339816324, 0.11920000179088674, 0.11840000297524966, 0.13209999815444462, 0.11965000157942995, 0.11889999950653873, 0.11944999641855247, 0.11925000217161141, 0.12000000060652383, 0.11889999950653873, 0.11864999760291539, 0.11900000026798807, 0.11930000255233608, 0.11929999891435727, 0.11985000310232863, 0.1190999973914586, 0.11915000141016208, 0.12525000056484714, 0.1280999968003016, 0.11860000449814834, 0.11860000449814834, 0.12095000056433491, 0.12185000014142133, 0.12065000191796571, 0.11925000217161141, 0.11915000141016208, 0.2603499960969202, 0.12195000454084948, 0.12084999980288558, 0.11789999916800298, 0.12100000458303839, 0.1192499985336326, 0.12010000136797316, 0.11945000369451009, 0.13169999874662608, 0.13110000145388767, 0.13055000454187393, 0.11904999701073393, 0.11840000297524966, 0.12120000246795826, 0.25299999470007606, 0.12054999751853757, 0.12134999997215346, 0.12095000420231372, 0.12294999760342762, 0.12165000225650147, 0.12110000170650892, 0.12715000048046932, 0.11949999679927714, 0.11895000352524221, 0.11845000335597433, 0.11804999667219818, 0.11904999701073393, 0.11799999629147351, 0.11775000166380778, 0.11840000297524966, 0.11875000200234354, 0.1199000034830533, 0.1192499985336326, 0.11955000445595942, 0.11440000162110664, 0.11870000162161887, 0.12104999768780544, 0.11825000183307566, 0.12009999772999436, 0.12690000221482478, 0.12015000174869783, 0.1192499985336326, 0.11919999815290794, 0.16930000128922984, 0.1203499996336177, 0.22739999621990137, 0.12314999548834749, 0.12695000259554945, 0.18399999680696055, 0.11860000086016953, 0.11985000310232863, 0.11994999658782035, 0.12555000284919515, 0.11975000234087929, 0.11925000217161141, 0.11910000102943741, 0.11864999760291539, 0.12334999701124616, 0.11955000445595942, 0.11785000242525712, 0.11900000026798807, 0.12055000115651637, 0.11984999582637101, 0.11979999908362515, 0.11984999582637101, 0.1245500025106594],
  "Depth": 2.0,
  "Expectation Value": -4.280282020568848,
  "Optimal Expectation Value": -4.281300067901611,
  "Optimizer durations [ms]": [3.728, 3.45, 3.357, 3.567, 3.832, 3.373, 3.301, 3.316, 3.387, 3.95, 4.317, 3.63, 3.26, 3.316, 3.303, 3.305, 3.291, 3.275, 3.389, 3.323, 3.326, 3.337, 4.657, 3.411, 3.328, 3.313, 3.329, 3.348, 3.343, 3.321, 3.298, 3.395, 3.315, 3.394, 3.354, 3.358, 3.444, 3.542, 3.481, 3.435, 3.335, 3.352, 3.3, 3.304, 3.521, 3.388, 3.324, 3.32, 3.294, 3.285, 3.399, 3.307, 3.28, 3.285, 3.266, 3.312, 3.282, 3.293, 3.266, 3.559, 3.318, 3.302, 3.318, 3.273, 3.354, 3.271, 3.304, 3.341, 3.411, 3.352, 3.3, 3.412, 3.313, 3.565, 3.607, 3.323, 3.443, 3.521, 3.394, 3.283, 3.281, 3.329, 6.166, 3.499, 3.29, 3.279, 3.855, 3.335, 3.336, 3.366, 3.576, 13.482, 4.583, 3.346, 3.297, 3.543, 5.81, 4.021, 3.35, 3.308, 3.388, 3.341, 3.371, 3.472, 3.359, 6.049, 3.299, 3.313, 3.316, 3.419, 3.281, 3.32, 3.353, 3.4, 7.074, 3.294, 15.414, 19.78, 5.269, 3.3, 3.315, 3.472, 3.302, 3.308, 3.289, 4.31, 3.331, 5.41, 17.609, 3.589, 4.776, 3.27, 3.335, 3.312, 3.456, 3.309, 3.32, 3.276, 4.087, 4.421, 3.809, 4.16, 3.309, 3.383, 3.315, 3.303, 3.284, 3.412],
  "Optimizer iterations": 148,
  "Optimizer params": [0.9968884168801175, 0.5043117015567783, 0.007862346327750177, 0.496846217466678, 0.5096105871998817, 0.9965699076324372, 0.4953210475207501],
  "P": 0,
  "Problem": "RH",
  "QJob durations [ms]": [0.12930000229971483, 0.12245000107213855, 0.12074999540345743, 0.1220499980263412, 0.12034999599563889, 0.12235000031068921, 0.12004999734926969, 0.12024999887216836, 0.1234500014106743, 0.12649999553104863, 0.11979999544564635, 0.11915000141016208, 0.11720000111381523, 0.11959999756072648, 0.11904999701073393, 0.11870000162161887, 0.11944999641855247, 0.1189499998872634, 0.11950000407523476, 0.11944999641855247, 0.11910000102943741, 0.11965000157942995, 0.1274999995075632, 0.12285000047995709, 0.11994999658782035, 0.11954999718000181, 0.11929999527637847, 0.12140000399085693, 0.12029999925289303, 0.12004999734926969, 0.11919999815290794, 0.12384999718051404, 0.11999999696854502, 0.12055000115651637, 0.1190999973914586, 0.11984999946434982, 0.12254999819560908, 0.127350002003368, 0.12570000035339035, 0.1218999968841672, 0.11965000157942995, 0.11830000221380033, 0.11834999895654619, 0.11789999916800298, 0.12834999870392494, 0.1221999991685152, 0.11955000081798062, 0.1189499962492846, 0.11900000026798807, 0.11834999895654619, 0.12325000352575444, 0.12010000136797316, 0.11895000352524221, 0.11905000064871274, 0.11849999646074139, 0.12014999811071903, 0.11750000339816324, 0.11920000179088674, 0.11840000297524966, 0.13209999815444462, 0.11965000157942995, 0.11889999950653873, 0.11944999641855247, 0.11925000217161141, 0.12000000060652383, 0.11889999950653873, 0.11864999760291539, 0.11900000026798807, 0.11930000255233608, 0.11929999891435727, 0.11985000310232863, 0.1190999973914586, 0.11915000141016208, 0.12525000056484714, 0.1280999968003016, 0.11860000449814834, 0.11860000449814834, 0.12095000056433491, 0.12185000014142133, 0.12065000191796571, 0.11925000217161141, 0.11915000141016208, 0.2603499960969202, 0.12195000454084948, 0.12084999980288558, 0.11789999916800298, 0.12100000458303839, 0.1192499985336326, 0.12010000136797316, 0.11945000369451009, 0.13169999874662608, 0.13110000145388767, 0.13055000454187393, 0.11904999701073393, 0.11840000297524966, 0.12120000246795826, 0.25299999470007606, 0.12054999751853757, 0.12134999997215346, 0.12095000420231372, 0.12294999760342762, 0.12165000225650147, 0.12110000170650892, 0.12715000048046932, 0.11949999679927714, 0.11895000352524221, 0.11845000335597433, 0.11804999667219818, 0.11904999701073393, 0.11799999629147351, 0.11775000166380778, 0.11840000297524966, 0.11875000200234354, 0.1199000034830533, 0.1192499985336326, 0.11955000445595942, 0.11440000162110664, 0.11870000162161887, 0.12104999768780544, 0.11825000183307566, 0.12009999772999436, 0.12690000221482478, 0.12015000174869783, 0.1192499985336326, 0.11919999815290794, 0.16930000128922984, 0.1203499996336177, 0.22739999621990137, 0.12314999548834749, 0.12695000259554945, 0.18399999680696055, 0.11860000086016953, 0.11985000310232863, 0.11994999658782035, 0.12555000284919515, 0.11975000234087929, 0.11925000217161141, 0.11910000102943741, 0.11864999760291539, 0.12334999701124616, 0.11955000445595942, 0.11785000242525712, 0.11900000026798807, 0.12055000115651637, 0.11984999582637101, 0.11979999908362515, 0.11984999582637101, 0.1245500025106594],
  "QPU": "7000000",
  "Qubits": 7,
  "Queue durations [ms]": [0.0, 0.0, 0.0, 0.0, 0.0, 0.0, 0.0, 0.0, 0.0, 0.0, 0.0, 0.0, 0.0, 0.0, 0.0, 0.0, 0.0, 0.0, 0.0, 0.0, 0.0, 0.0, 0.0, 0.0, 0.0, 0.0, 0.0, 0.0, 0.0, 0.0, 0.0, 0.0, 0.0, 0.0, 0.0, 0.0, 0.0, 0.0, 0.0, 0.0, 0.0, 0.0, 0.0, 0.0, 0.0, 0.0, 0.0, 0.0, 0.0, 0.0, 0.0, 0.0, 0.0, 0.0, 0.0, 0.0, 0.0, 0.0, 0.0, 0.0, 0.0, 0.0, 0.0, 0.0, 0.0, 0.0, 0.0, 0.0, 0.0, 0.0, 0.0, 0.0, 0.0, 0.0, 0.0, 0.0, 0.0, 0.0, 0.0, 0.0, 0.0, 0.0, 0.0, 0.0, 0.0, 0.0, 0.0, 0.0, 0.0, 0.0, 0.0, 0.0, 0.0, 0.0, 0.0, 0.0, 0.0, 0.0, 0.0, 0.0, 0.0, 0.0, 0.0, 0.0, 0.0, 0.0, 0.0, 0.0, 0.0, 0.0, 0.0, 0.0, 0.0, 0.0, 0.0, 0.0, 0.0, 0.0, 0.0, 0.0, 0.0, 0.0, 0.0, 0.0, 0.0, 0.0, 0.0, 0.0, 0.0, 0.0, 0.0, 0.0, 0.0, 0.0, 0.0, 0.0, 0.0, 0.0, 0.0, 0.0, 0.0, 0.0, 0.0, 0.0, 0.0, 0.0, 0.0, 0.0],
  "Shots": 4096,
  "Size": 7,
  "Total Algorithm duration [s]": 0.576,
  "Total Classic duration [s]": 0.5576399000046658,
  "Total Quantum duration [s]": 0.018360099995334167
}
