{
  "Circuit execution durations [ms]": [0.12269999933778308, 0.11965000157942995, 0.12004999734926969, 0.12799999603885226, 0.1265499959117733, 0.1199000034830533, 0.12009999772999436, 0.1189499998872634, 0.12040000001434237, 0.12805000369553454, 0.1307500024267938, 0.11895000352524221, 0.12510000306065194, 0.13544999819714576, 0.12195000090287067, 0.12194999726489186, 0.1190999973914586, 0.11870000162161887, 0.11960000119870529, 0.11884999912581407, 0.11984999946434982, 0.12054999751853757, 0.12525000056484714, 0.12309999874560162, 0.12015000174869783, 0.12164999861852266, 0.1199000034830533, 0.16119999781949446, 0.11915000141016208, 0.1202000021294225, 0.11949999679927714, 0.1263999984075781, 0.11910000102943741, 0.11905000064871274, 0.11919999815290794, 0.11934999565710314, 0.12340000466792844, 0.1199000034830533, 0.11964999794145115, 0.11884999912581407, 0.12040000001434237, 0.12570000035339035, 0.12579999747686088, 0.1250000022992026, 0.11800000356743112, 0.12169999899924733, 0.11975000234087929, 0.1202000021294225, 0.11884999912581407, 0.11915000141016208, 0.11955000081798062, 0.1186500012408942, 0.1188000023830682, 0.11860000086016953, 0.12125000284868293, 0.11959999756072648, 0.12364999929559417, 0.11969999832217582, 0.11900000390596688, 0.1349500016658567, 0.13139999646227807, 0.12069999866071157, 0.11904999701073393, 0.12140000035287812, 0.11860000086016953, 0.11945000005653128, 0.12229999992996454, 0.12155000149505213, 0.17585000023245811, 0.12199999764561653, 0.11929999891435727, 0.1220499980263412, 0.11889999950653873, 0.11985000310232863, 0.1189499998872634, 0.11874999836436473, 0.12074999540345743, 0.11970000196015462, 0.11810000069090165, 0.11900000390596688, 0.11875000200234354, 0.11920000179088674, 0.12099999730708078, 0.11910000102943741, 0.11810000069090165, 0.21269999706419185, 0.12535000132629648, 0.12604999938048422, 0.11970000196015462, 0.12004999734926969, 0.12095000056433491, 0.12115000208723359, 0.11970000196015462, 0.121900000522146, 0.12425000022631139, 0.1396000006934628, 0.12615000014193356],
  "Depth": 2.0,
  "Expectation Value": -4.280972480773926,
  "Optimal Expectation Value": -4.281300067901611,
  "Optimizer durations [ms]": [3.626, 3.318, 3.338, 3.782, 3.477, 3.329, 3.353, 3.32, 3.378, 3.638, 3.672, 3.304, 3.642, 3.677, 3.46, 3.382, 3.336, 3.341, 3.299, 3.269, 3.472, 3.334, 3.448, 3.409, 3.311, 3.367, 3.296, 4.178, 3.312, 3.32, 3.302, 3.483, 3.307, 3.295, 3.297, 3.345, 3.47, 3.312, 3.306, 3.311, 3.47, 3.563, 3.498, 3.441, 3.326, 3.459, 3.444, 3.347, 3.286, 3.426, 3.333, 3.273, 3.305, 3.296, 3.376, 3.313, 3.503, 3.309, 3.34, 3.661, 3.689, 3.345, 3.327, 3.362, 3.286, 3.331, 3.485, 3.521, 4.681, 3.38, 3.367, 3.545, 4.183, 3.567, 3.283, 3.288, 3.35, 3.374, 3.317, 3.319, 3.357, 3.406, 3.344, 3.321, 3.277, 5.433, 3.621, 3.546, 3.332, 3.348, 3.428, 3.385, 3.325, 3.405, 3.762, 3.755, 3.518],
  "Optimizer iterations": 97,
  "Optimizer params": [0.9999999999999999, 0.49626492337011885, 0.991908643117792, 0.4970977914629308, 0.5007200491825273, 0.9970911045611212, 0.4997409035396548],
  "P": 0,
  "Problem": "RH",
  "QJob durations [ms]": [0.12269999933778308, 0.11965000157942995, 0.12004999734926969, 0.12799999603885226, 0.1265499959117733, 0.1199000034830533, 0.12009999772999436, 0.1189499998872634, 0.12040000001434237, 0.12805000369553454, 0.1307500024267938, 0.11895000352524221, 0.12510000306065194, 0.13544999819714576, 0.12195000090287067, 0.12194999726489186, 0.1190999973914586, 0.11870000162161887, 0.11960000119870529, 0.11884999912581407, 0.11984999946434982, 0.12054999751853757, 0.12525000056484714, 0.12309999874560162, 0.12015000174869783, 0.12164999861852266, 0.1199000034830533, 0.16119999781949446, 0.11915000141016208, 0.1202000021294225, 0.11949999679927714, 0.1263999984075781, 0.11910000102943741, 0.11905000064871274, 0.11919999815290794, 0.11934999565710314, 0.12340000466792844, 0.1199000034830533, 0.11964999794145115, 0.11884999912581407, 0.12040000001434237, 0.12570000035339035, 0.12579999747686088, 0.1250000022992026, 0.11800000356743112, 0.12169999899924733, 0.11975000234087929, 0.1202000021294225, 0.11884999912581407, 0.11915000141016208, 0.11955000081798062, 0.1186500012408942, 0.1188000023830682, 0.11860000086016953, 0.12125000284868293, 0.11959999756072648, 0.12364999929559417, 0.11969999832217582, 0.11900000390596688, 0.1349500016658567, 0.13139999646227807, 0.12069999866071157, 0.11904999701073393, 0.12140000035287812, 0.11860000086016953, 0.11945000005653128, 0.12229999992996454, 0.12155000149505213, 0.17585000023245811, 0.12199999764561653, 0.11929999891435727, 0.1220499980263412, 0.11889999950653873, 0.11985000310232863, 0.1189499998872634, 0.11874999836436473, 0.12074999540345743, 0.11970000196015462, 0.11810000069090165, 0.11900000390596688, 0.11875000200234354, 0.11920000179088674, 0.12099999730708078, 0.11910000102943741, 0.11810000069090165, 0.21269999706419185, 0.12535000132629648, 0.12604999938048422, 0.11970000196015462, 0.12004999734926969, 0.12095000056433491, 0.12115000208723359, 0.11970000196015462, 0.121900000522146, 0.12425000022631139, 0.1396000006934628, 0.12615000014193356],
  "QPU": "7000000",
  "Qubits": 7,
  "Queue durations [ms]": [0.0, 0.0, 0.0, 0.0, 0.0, 0.0, 0.0, 0.0, 0.0, 0.0, 0.0, 0.0, 0.0, 0.0, 0.0, 0.0, 0.0, 0.0, 0.0, 0.0, 0.0, 0.0, 0.0, 0.0, 0.0, 0.0, 0.0, 0.0, 0.0, 0.0, 0.0, 0.0, 0.0, 0.0, 0.0, 0.0, 0.0, 0.0, 0.0, 0.0, 0.0, 0.0, 0.0, 0.0, 0.0, 0.0, 0.0, 0.0, 0.0, 0.0, 0.0, 0.0, 0.0, 0.0, 0.0, 0.0, 0.0, 0.0, 0.0, 0.0, 0.0, 0.0, 0.0, 0.0, 0.0, 0.0, 0.0, 0.0, 0.0, 0.0, 0.0, 0.0, 0.0, 0.0, 0.0, 0.0, 0.0, 0.0, 0.0, 0.0, 0.0, 0.0, 0.0, 0.0, 0.0, 0.0, 0.0, 0.0, 0.0, 0.0, 0.0, 0.0, 0.0, 0.0, 0.0, 0.0, 0.0],
  "Shots": 4096,
  "Size": 7,
  "Total Algorithm duration [s]": 0.335,
  "Total Classic duration [s]": 0.323020199987659,
  "Total Quantum duration [s]": 0.011979800012341002
}
