{
  "Circuit execution durations [ms]": [47.13034629821777, 48.27427864074707, 68.41850280761719, 46.245574951171875, 46.35965824127197, 45.14920711517334, 46.117424964904785, 45.71497440338135, 69.07343864440918, 46.90361022949219, 46.433448791503906, 68.76027584075928, 45.84550857543945, 46.35012149810791, 49.301862716674805, 50.14955997467041, 48.066139221191406, 74.13053512573242, 45.70651054382324, 47.12510108947754, 71.06137275695801, 46.396732330322266, 47.54006862640381, 45.13657093048096, 44.057250022888184, 45.369505882263184, 70.3197717666626, 43.99597644805908, 48.023104667663574, 70.4493522644043, 45.473694801330566, 45.64368724822998, 44.51477527618408, 45.16756534576416, 44.71790790557861, 68.93527507781982, 46.994805335998535, 45.82571983337402, 70.3657865524292, 46.5090274810791, 45.365095138549805, 46.33331298828125, 44.965267181396484, 47.350406646728516, 72.31676578521729],
  "Depth": 4.5,
  "Expectation Value": -0.97314453125,
  "Optimal Expectation Value": -1.0,
  "Optimizer durations [ms]": [519.119, 521.876, 517.494, 519.524, 562.222, 514.562, 513.899, 520.158, 561.408, 517.678, 512.672, 514.186, 514.8, 558.207, 587.638, 536.63, 547.115, 586.28, 515.622, 514.023, 519.524, 516.53, 561.095, 516.002, 505.742, 517.808, 566.105, 513.472, 520.059, 519.724, 517.48, 557.993, 511.988, 508.67, 514.496, 559.566, 520.561, 514.551, 518.362, 519.598, 558.17, 519.437, 512.15, 523.291, 569.645],
  "Optimizer iterations": 45,
  "Optimizer params": [0.9997679313713237, 0.9394605580106463, 0.003968578823691325, 0.7726375793149265],
  "P": 0,
  "Problem": "IC",
  "QJob durations [ms]": [54.16703224182129, 55.38046360015869, 75.52981376647949, 53.54797840118408, 53.43127250671387, 52.14858055114746, 53.31861972808838, 53.06077003479004, 76.17306709289551, 53.89571189880371, 53.47442626953125, 75.77168941497803, 52.85847187042236, 53.39479446411133, 57.17790126800537, 57.61253833770752, 55.593013763427734, 81.32266998291016, 52.727460861206055, 54.11040782928467, 78.07660102844238, 53.12645435333252, 54.60798740386963, 52.24919319152832, 51.03707313537598, 52.71422863006592, 77.43918895721436, 51.02694034576416, 54.993271827697754, 77.47018337249756, 52.55746841430664, 52.71637439727783, 51.61154270172119, 52.159786224365234, 52.06024646759033, 75.99139213562012, 54.029226303100586, 52.857398986816406, 77.40974426269531, 53.64060401916504, 52.495718002319336, 53.430914878845215, 52.012085914611816, 54.66818809509277, 79.4534683227539],
  "QPU": "300001B",
  "Qubits": 1,
  "Queue durations [ms]": [0.0, 0.0, 0.0, 0.0, 0.0, 0.0, 0.0, 0.0, 0.0, 0.0, 0.0, 0.0, 0.0, 0.0, 0.0, 0.0, 0.0, 0.0, 0.0, 0.0, 0.0, 0.0, 0.0, 0.0, 0.0, 0.0, 0.0, 0.0, 0.0, 0.0, 0.0, 0.0, 0.0, 0.0, 0.0, 0.0, 0.0, 0.0, 0.0, 0.0, 0.0, 0.0, 0.0, 0.0, 0.0],
  "Shots": 4096,
  "Size": 1,
  "Total Algorithm duration [s]": 23.837,
  "Total Classic duration [s]": 21.192468034744262,
  "Total Quantum duration [s]": 2.6445319652557373
}
