{
  "Circuit execution durations [ms]": [44.472694396972656, 48.37775230407715, 47.400593757629395, 68.74310970306396, 44.8908805847168, 49.21221733093262, 67.43133068084717, 44.92759704589844, 46.01705074310303, 43.72966289520264, 46.10157012939453, 46.60367965698242, 70.66619396209717, 46.59068584442139, 45.69363594055176, 70.89793682098389, 47.23775386810303, 46.01943492889404, 44.9444055557251, 45.19009590148926, 45.506954193115234, 69.96309757232666, 45.68290710449219, 45.2038049697876, 69.24378871917725, 46.091318130493164, 43.77937316894531, 46.31662368774414, 45.858025550842285, 45.58253288269043, 73.06993007659912, 46.181440353393555, 45.57609558105469, 70.26028633117676, 43.67721080780029, 45.49252986907959, 47.84655570983887, 44.547200202941895, 44.65651512145996, 70.61994075775146, 47.18327522277832, 47.252774238586426, 69.86284255981445],
  "Depth": 4.5,
  "Expectation Value": -0.96337890625,
  "Optimal Expectation Value": -1.0,
  "Optimizer durations [ms]": [514.613, 518.575, 521.911, 565.471, 518.305, 523.309, 515.358, 517.252, 560.086, 513.789, 514.108, 522.816, 565.836, 517.806, 515.215, 521.07, 519.698, 558.819, 514.868, 511.838, 518.833, 563.609, 517.088, 511.508, 519.408, 536.707, 560.216, 519.496, 513.331, 520.625, 571.331, 521.148, 513.703, 519.231, 514.728, 556.693, 519.266, 506.181, 516.438, 562.448, 519.379, 514.766, 518.868],
  "Optimizer iterations": 43,
  "Optimizer params": [0.6123259938159126, 0.5237067255839724, 0.6170334579432418, 0.8461459900917883],
  "P": 0,
  "Problem": "IC",
  "QJob durations [ms]": [51.62632465362549, 55.42802810668945, 54.767489433288574, 75.8676528930664, 51.981329917907715, 56.34260177612305, 74.5166540145874, 52.07335948944092, 53.11143398284912, 50.85277557373047, 53.13396453857422, 54.088592529296875, 77.75413990020752, 53.69400978088379, 52.71625518798828, 77.92222499847412, 54.29255962371826, 53.08234691619873, 52.055954933166504, 52.22880840301514, 52.875399589538574, 77.09288597106934, 52.75225639343262, 52.22928524017334, 76.42912864685059, 53.235769271850586, 50.90141296386719, 53.5353422164917, 52.97446250915527, 53.4818172454834, 80.19018173217773, 53.28249931335449, 53.03966999053955, 77.34918594360352, 50.771117210388184, 52.573442459106445, 55.028557777404785, 51.52416229248047, 52.01601982116699, 77.72338390350342, 54.20207977294922, 54.2902946472168, 76.91550254821777],
  "QPU": "300001B",
  "Qubits": 1,
  "Queue durations [ms]": [0.0, 0.0, 0.0, 0.0, 0.0, 0.0, 0.0, 0.0, 0.0, 0.0, 0.0, 0.0, 0.0, 0.0, 0.0, 0.0, 0.0, 0.0, 0.0, 0.0, 0.0, 0.0, 0.0, 0.0, 0.0, 0.0, 0.0, 0.0, 0.0, 0.0, 0.0, 0.0, 0.0, 0.0, 0.0, 0.0, 0.0, 0.0, 0.0, 0.0, 0.0, 0.0, 0.0],
  "Shots": 4096,
  "Size": 1,
  "Total Algorithm duration [s]": 22.665,
  "Total Classic duration [s]": 20.143049635887145,
  "Total Quantum duration [s]": 2.521950364112854
}
