{
  "Circuit execution durations [ms]": [15968.627214431763, 16393.369674682617, 16524.006366729736, 16109.2848777771, 15984.5290184021, 16467.923641204834, 16292.397737503052, 15899.156093597412, 16522.528648376465, 16357.074975967407, 15817.172527313232, 16409.21711921692, 16113.287210464478, 16118.647575378418, 16039.583921432495, 16296.35214805603, 16459.65051651001, 15928.493738174438, 16472.293853759766, 16003.176212310791, 15965.451717376709, 16621.944427490234, 16289.412260055542, 15972.516298294067, 15971.711158752441, 16423.08807373047, 16114.6240234375, 16261.640787124634, 16431.475400924683, 15956.666946411133, 16012.426376342773, 16482.869386672974, 16469.95759010315, 16187.431335449219, 16087.525606155396, 16385.266065597534, 16062.22677230835, 16159.026384353638, 16627.749919891357, 16171.235799789429, 16109.440565109253, 15875.393867492676, 16169.708251953125, 16141.066551208496, 15772.277116775513, 16318.48669052124, 16194.161891937256, 15672.022104263306, 16663.262605667114, 16133.965015411377, 15983.116388320923, 16526.144981384277, 16331.992864608765, 16499.603986740112, 15782.217025756836, 16349.018812179565, 16169.930458068848, 15803.51972579956, 16404.1268825531, 16171.446323394775, 16418.168544769287, 16498.4769821167, 16195.06287574768, 16191.429853439331, 15931.549072265625, 16265.20299911499, 15891.396045684814, 15954.818725585938, 16378.868103027344, 16028.33104133606, 15757.504224777222, 16830.175161361694, 16139.763832092285, 15843.043804168701, 16198.80223274231, 16180.365324020386, 15929.285526275635, 16141.948461532593, 16496.480464935303, 16204.0376663208, 15926.94091796875, 16729.175090789795, 16240.107536315918, 15860.153675079346, 16166.287899017334, 16583.829879760742, 15963.29116821289, 15831.16602897644, 16316.87593460083, 16119.205713272095, 15803.869009017944],
  "Depth": 287.0,
  "Expectation Value": -1.0,
  "Optimal Expectation Value": -1.0,
  "Optimizer durations [ms]": [29395.944, 29678.671, 29905.502, 29397.844, 29285.841, 29771.885, 29674.528, 29278.664, 29886.747, 29803.055, 29130.945, 29853.002, 29492.441, 29588.016, 29405.388, 29694.063, 29883.012, 29292.747, 29830.251, 29352.923, 29319.483, 29910.541, 29651.421, 29272.713, 29372.391, 29716.349, 29532.496, 29586.5, 29749.737, 29342.611, 29356.515, 29828.626, 29800.723, 29577.827, 29401.891, 29760.385, 29372.894, 29537.547, 29957.011, 29480.65, 29478.372, 29220.667, 29554.437, 29464.729, 29137.742, 29794.752, 29643.567, 29047.606, 29997.103, 29530.439, 29274.547, 29867.345, 29657.462, 29857.917, 29198.785, 29792.598, 29497.284, 29187.569, 29728.764, 29584.382, 29828.238, 29843.61, 29572.1, 29490.543, 29336.911, 29572.284, 29265.806, 29328.743, 29664.215, 29401.316, 29059.191, 30210.177, 29483.618, 29219.625, 29599.803, 29495.897, 29246.345, 29550.938, 29778.81, 29522.488, 29321.635, 30043.483, 29652.73, 29193.518, 29522.39, 29943.444, 29324.388, 29136.652, 29653.799, 29469.14, 29123.975],
  "Optimizer iterations": 91,
  "Optimizer params": [0.9291846660474086, 0.6998867511944562, 0.521456556994167, 0.7139840281173652, 0.5382874557270951, 0.42271630668165444],
  "P": 3,
  "Problem": "MIS",
  "QJob durations [ms]": [29349.169731140137, 29631.744146347046, 29858.980178833008, 29351.772785186768, 29239.328622817993, 29725.23045539856, 29628.275871276855, 29233.42204093933, 29840.355396270752, 29756.351709365845, 29084.457635879517, 29805.76753616333, 29446.64168357849, 29541.772603988647, 29358.728170394897, 29647.841930389404, 29836.45725250244, 29244.948387145996, 29783.135414123535, 29306.150436401367, 29272.691249847412, 29863.149404525757, 29604.883909225464, 29226.240873336792, 29325.718879699707, 29670.12071609497, 29485.89539527893, 29489.259719848633, 29702.988862991333, 29295.743465423584, 29309.013843536377, 29781.867742538452, 29754.053115844727, 29531.065464019775, 29355.20362854004, 29714.022874832153, 29326.420545578003, 29491.04380607605, 29910.450220108032, 29433.68411064148, 29432.192087173462, 29173.518896102905, 29507.457971572876, 29417.83595085144, 29090.455293655396, 29747.700691223145, 29596.61340713501, 28950.538635253906, 29950.265169143677, 29482.96046257019, 29227.829456329346, 29819.53525543213, 29610.939025878906, 29811.32459640503, 29152.565956115723, 29746.225595474243, 29449.76782798767, 29140.83957672119, 29683.756351470947, 29537.92643547058, 29781.857013702393, 29796.050786972046, 29525.562047958374, 29444.148540496826, 29290.348052978516, 29525.82836151123, 29218.64891052246, 29232.366800308228, 29616.560697555542, 29354.260444641113, 29012.49098777771, 30163.113355636597, 29437.50309944153, 29172.930002212524, 29552.881240844727, 29448.911666870117, 29199.357748031616, 29504.478931427002, 29732.652187347412, 29475.839853286743, 29274.91545677185, 29997.451066970825, 29606.67133331299, 29146.559476852417, 29476.175546646118, 29897.077798843384, 29277.942657470703, 29090.390920639038, 29607.401847839355, 29422.677516937256, 29077.22282409668],
  "QPU": "6010013",
  "Qubits": 8,
  "Queue durations [ms]": [0.0, 0.0, 0.0, 0.0, 0.0, 0.0, 0.0, 0.0, 0.0, 0.0, 0.0, 0.0, 0.0, 0.0, 0.0, 0.0, 0.0, 0.0, 0.0, 0.0, 0.0, 0.0, 0.0, 0.0, 0.0, 0.0, 0.0, 0.0, 0.0, 0.0, 0.0, 0.0, 0.0, 0.0, 0.0, 0.0, 0.0, 0.0, 0.0, 0.0, 0.0, 0.0, 0.0, 0.0, 0.0, 0.0, 0.0, 0.0, 0.0, 0.0, 0.0, 0.0, 0.0, 0.0, 0.0, 0.0, 0.0, 0.0, 0.0, 0.0, 0.0, 0.0, 0.0, 0.0, 0.0, 0.0, 0.0, 0.0, 0.0, 0.0, 0.0, 0.0, 0.0, 0.0, 0.0, 0.0, 0.0, 0.0, 0.0, 0.0, 0.0, 0.0, 0.0, 0.0, 0.0, 0.0, 0.0, 0.0, 0.0, 0.0, 0.0],
  "Shots": 4096,
  "Size": 5,
  "Total Algorithm duration [s]": 2688.501,
  "Total Classic duration [s]": 4.396424365997518,
  "Total Quantum duration [s]": 2684.1045756340027
}
