{
  "Circuit execution durations [ms]": [19.0, 17.0, 20.0, 24.0, 16.0, 23.0, 16.0, 18.0, 27.0, 20.0, 20.0, 21.0, 14.0, 14.0, 23.0, 18.0, 21.0, 16.0, 18.0, 21.0, 13.0, 17.0, 20.0, 14.0, 17.0, 15.0, 19.0, 17.0, 16.0, 22.0, 21.0, 17.0, 27.0, 15.0, 38.0, 16.0, 17.0, 16.0, 18.0, 15.0, 22.0, 22.0, 14.0, 17.0, 20.0, 18.0, 15.0, 13.0, 18.0, 17.0, 13.0, 21.0, 22.0, 15.0, 23.0, 15.0, 20.0, 19.0, 16.0, 22.0, 23.0, 20.0, 18.0, 23.0, 20.0, 18.0, 17.0, 20.0, 17.0, 19.0, 19.0, 25.0, 16.0, 21.0, 18.0, 19.0, 25.0, 18.0, 21.0, 20.0, 18.0, 17.0, 14.0, 22.0, 22.0, 19.0, 18.0, 19.0],
  "Depth": 32.0,
  "Expectation Value": -2.0,
  "Optimal Expectation Value": -2.0,
  "Optimizer durations [ms]": [5992.682, 5984.864, 5811.954, 5812.622, 5875.028, 5831.929, 6060.337, 5848.698, 5808.371, 5937.178, 5756.627, 5839.988, 5774.261, 5979.464, 5848.565, 5994.679, 5878.964, 5897.935, 5930.701, 5971.986, 5849.676, 16342.463, 5972.57, 5954.348, 5847.21, 5843.821, 5925.7, 5808.574, 5866.44, 5795.433, 5884.223, 5851.852, 5854.278, 5804.632, 5810.645, 6034.245, 5819.258, 5855.595, 5865.392, 6054.089, 5887.936, 5884.198, 6040.983, 5830.618, 6064.839, 5838.71, 5859.078, 5819.417, 5838.864, 5818.993, 5909.608, 5856.708, 5871.779, 5833.868, 5843.256, 6053.932, 5861.409, 5792.822, 5960.317, 5879.278, 5804.875, 5825.251, 5979.787, 5913.702, 5835.818, 5855.857, 6065.206, 5861.637, 5801.597, 5902.421, 5818.829, 5848.001, 6007.823, 5822.948, 5912.98, 5815.953, 5822.147, 5806.979, 5890.365, 5798.609, 5806.676, 5880.102, 6183.881, 5862.795, 6046.108, 5903.494, 5822.45, 5910.429],
  "Optimizer iterations": 88,
  "Optimizer params": [0.7015243116869524, 0.9353289828599732, 0.9324122328145465, 0.7447288687650908, 0.34719676535996397, 0.7219397656365348],
  "P": 3,
  "Problem": "MCP",
  "QJob durations [ms]": [5946.304798126221, 5874.4611740112305, 5759.225845336914, 5759.565114974976, 5823.712348937988, 5783.250093460083, 6007.312536239624, 5795.654535293579, 5756.587266921997, 5829.833984375, 5704.757213592529, 5790.264129638672, 5720.442771911621, 5926.970481872559, 5795.615196228027, 5940.510988235474, 5771.501302719116, 5845.7489013671875, 5876.351356506348, 5919.595241546631, 5796.70262336731, 16289.143323898315, 5922.657489776611, 5846.649169921875, 5795.9442138671875, 5791.407346725464, 5857.6624393463135, 5758.394956588745, 5811.734437942505, 5743.521690368652, 5774.847030639648, 5799.81803894043, 5801.92494392395, 5751.421928405762, 5757.48610496521, 5983.695507049561, 5769.445180892944, 5804.915189743042, 5754.078149795532, 6001.670122146606, 5833.905220031738, 5833.283185958862, 5990.2894496917725, 5781.449317932129, 6012.584686279297, 5729.303598403931, 5805.107593536377, 5767.829656600952, 5786.6411209106445, 5763.742446899414, 5857.96594619751, 5802.65736579895, 5759.665489196777, 5781.2440395355225, 5792.205333709717, 6002.06732749939, 5810.925006866455, 5742.299795150757, 5909.768342971802, 5772.033929824829, 5751.9965171813965, 5771.717071533203, 5924.818277359009, 5861.214876174927, 5783.736944198608, 5809.900283813477, 6013.090133666992, 5757.855653762817, 5746.405124664307, 5851.307392120361, 5764.76526260376, 5793.687582015991, 5954.200267791748, 5773.795366287231, 5799.467325210571, 5764.968633651733, 5770.39361000061, 5753.918886184692, 5839.1969203948975, 5746.225357055664, 5752.967357635498, 5772.279500961304, 6130.5084228515625, 5811.529159545898, 5995.4657554626465, 5852.145671844482, 5773.454189300537, 5857.998609542847],
  "QPU": "10000001",
  "Qubits": 3,
  "Queue durations [ms]": [0.0, 0.0, 0.0, 0.0, 0.0, 0.0, 0.0, 0.0, 0.0, 0.0, 0.0, 0.0, 0.0, 0.0, 0.0, 0.0, 0.0, 0.0, 0.0, 0.0, 0.0, 0.0, 0.0, 0.0, 0.0, 0.0, 0.0, 0.0, 0.0, 0.0, 0.0, 0.0, 0.0, 0.0, 0.0, 0.0, 0.0, 0.0, 0.0, 0.0, 0.0, 0.0, 0.0, 0.0, 0.0, 0.0, 0.0, 0.0, 0.0, 0.0, 0.0, 0.0, 0.0, 0.0, 0.0, 0.0, 0.0, 0.0, 0.0, 0.0, 0.0, 0.0, 0.0, 0.0, 0.0, 0.0, 0.0, 0.0, 0.0, 0.0, 0.0, 0.0, 0.0, 0.0, 0.0, 0.0, 0.0, 0.0, 0.0, 0.0, 0.0, 0.0, 0.0, 0.0, 0.0, 0.0, 0.0, 0.0],
  "Shots": 4096,
  "Size": 3,
  "Total Algorithm duration [s]": 528.43,
  "Total Classic duration [s]": 5.275235824584911,
  "Total Quantum duration [s]": 523.154764175415
}
