{
  "Circuit execution durations [ms]": [18.0, 18.0, 17.0, 17.0, 19.0, 18.0, 26.0, 17.0, 18.0, 27.0, 17.0, 18.0, 21.0, 20.0, 17.0, 23.0, 12.0, 22.0, 14.0, 15.0, 48.0, 19.0, 20.0, 17.0, 17.0, 21.0, 23.0, 15.0, 16.0, 17.0, 20.0, 18.0, 18.0, 15.0, 15.0, 23.0, 17.0, 22.0, 17.0, 17.0, 22.0, 20.0, 19.0, 20.0, 18.0, 17.0, 24.0, 18.0, 16.0, 17.0, 17.0, 14.0, 19.0, 17.0, 16.0, 12.0, 18.0, 17.0, 21.0, 19.0, 21.0, 17.0, 45.0, 17.0, 21.0, 20.0, 16.0, 18.0, 18.0, 13.0, 22.0, 20.0, 21.0, 22.0, 21.0, 20.0, 19.0, 17.0, 19.0, 16.0, 16.0, 14.0, 19.0, 35.0, 19.0, 19.0, 21.0, 18.0, 15.0, 15.0, 16.0, 31.0, 25.0],
  "Depth": 32.0,
  "Expectation Value": -1.99853515625,
  "Optimal Expectation Value": -2.0,
  "Optimizer durations [ms]": [5845.698, 5857.645, 5813.832, 5789.784, 5817.498, 6074.045, 6099.086, 5786.614, 5913.811, 6011.445, 5875.316, 6034.797, 5911.983, 6030.855, 5901.481, 5923.625, 5907.186, 5817.088, 5877.972, 5868.82, 5863.053, 5872.727, 6077.774, 5893.427, 5831.177, 6077.115, 5802.752, 5926.095, 6067.322, 5784.253, 5988.392, 5900.366, 5993.928, 5878.169, 5901.394, 5853.568, 5845.799, 6056.493, 6012.99, 6014.019, 6194.017, 5882.578, 5847.499, 5878.934, 5950.461, 5796.635, 5869.652, 5855.634, 5860.322, 5893.723, 6671.698, 6101.481, 5870.481, 5876.611, 5898.02, 6176.445, 5748.448, 5803.818, 5806.757, 5949.795, 5842.784, 5980.693, 5976.503, 5838.312, 5903.0, 5950.173, 5983.039, 5896.819, 5880.574, 5903.281, 5721.285, 5877.128, 5806.706, 5955.566, 5839.677, 5845.224, 5798.021, 5785.113, 5812.719, 5859.831, 5984.538, 5868.476, 5765.468, 6014.603, 5995.481, 6022.264, 5912.651, 5849.842, 6018.872, 5823.585, 5862.404, 5870.404, 5956.285],
  "Optimizer iterations": 93,
  "Optimizer params": [0.6256442397787279, 0.9213938389960586, 0.5737754761912234, 0.8867512415489818, 0.4429653720468735, 0.03694071193587325],
  "P": 3,
  "Problem": "MCP",
  "QJob durations [ms]": [5800.751447677612, 5748.212814331055, 5766.163349151611, 5738.643169403076, 5761.438608169556, 6022.198677062988, 6044.2774295806885, 5732.777833938599, 5805.026054382324, 5956.694841384888, 5829.278230667114, 5978.175640106201, 5858.660936355591, 5977.370977401733, 5852.464914321899, 5869.894981384277, 5852.979421615601, 5761.207103729248, 5824.989080429077, 5812.931299209595, 5810.9917640686035, 5819.080829620361, 6024.974584579468, 5786.568641662598, 5780.73787689209, 6024.140357971191, 5749.514102935791, 5874.23849105835, 6015.521764755249, 5734.4067096710205, 5878.34358215332, 5847.607851028442, 5938.3087158203125, 5826.68399810791, 5848.2465744018555, 5800.598859786987, 5792.98734664917, 5946.945667266846, 5961.910247802734, 5960.133075714111, 6141.155958175659, 5830.531120300293, 5794.92449760437, 5825.395107269287, 5897.952556610107, 5742.921829223633, 5813.900709152222, 5807.592153549194, 5806.044816970825, 5843.990087509155, 6619.9631690979, 6050.241947174072, 5763.032674789429, 5824.820041656494, 5846.635580062866, 6122.2217082977295, 5693.877458572388, 5752.628326416016, 5752.074956893921, 5841.38560295105, 5790.407657623291, 5925.383567810059, 5923.985958099365, 5785.886526107788, 5847.927570343018, 5897.743463516235, 5882.104873657227, 5847.008466720581, 5827.7692794799805, 5849.937915802002, 5668.0402755737305, 5823.681354522705, 5755.703449249268, 5905.355215072632, 5788.416385650635, 5789.324522018433, 5747.168302536011, 5731.759309768677, 5759.998321533203, 5808.775901794434, 5933.913469314575, 5760.982275009155, 5715.329170227051, 5964.204549789429, 5942.310810089111, 5972.481727600098, 5862.65230178833, 5797.205924987793, 5909.085035324097, 5771.657228469849, 5810.528993606567, 5815.498113632202, 5909.173250198364],
  "QPU": "10000001",
  "Qubits": 3,
  "Queue durations [ms]": [0.0, 0.0, 0.0, 0.0, 0.0, 0.0, 0.0, 0.0, 0.0, 0.0, 0.0, 0.0, 0.0, 0.0, 0.0, 0.0, 0.0, 0.0, 0.0, 0.0, 0.0, 0.0, 0.0, 0.0, 0.0, 0.0, 0.0, 0.0, 0.0, 0.0, 0.0, 0.0, 0.0, 0.0, 0.0, 0.0, 0.0, 0.0, 0.0, 0.0, 0.0, 0.0, 0.0, 0.0, 0.0, 0.0, 0.0, 0.0, 0.0, 0.0, 0.0, 0.0, 0.0, 0.0, 0.0, 0.0, 0.0, 0.0, 0.0, 0.0, 0.0, 0.0, 0.0, 0.0, 0.0, 0.0, 0.0, 0.0, 0.0, 0.0, 0.0, 0.0, 0.0, 0.0, 0.0, 0.0, 0.0, 0.0, 0.0, 0.0, 0.0, 0.0, 0.0, 0.0, 0.0, 0.0, 0.0, 0.0, 0.0, 0.0, 0.0, 0.0, 0.0],
  "Shots": 4096,
  "Size": 3,
  "Total Algorithm duration [s]": 550.133,
  "Total Classic duration [s]": 5.424230678558388,
  "Total Quantum duration [s]": 544.7087693214417
}
