{
  "Depth": 82.0,
  "Expectation Value": -0.397705078125,
  "Job durations [ms]": [6510.288715362549, 6138.33212852478, 6505.603075027466, 6784.101247787476, 7136.29150390625, 6409.939289093018, 6453.488349914551, 6653.272390365601, 6414.044141769409, 6315.373659133911, 6379.347324371338, 6434.864521026611, 6530.451059341431, 6320.232629776001, 6390.5274868011475, 6228.901624679565, 6493.999719619751, 6319.507360458374, 6576.417446136475, 6439.245939254761, 6361.403226852417, 6335.129976272583, 6798.250913619995, 6714.0936851501465, 6874.804496765137, 6751.827001571655, 6512.987852096558, 6460.322380065918, 6543.771266937256, 6437.204837799072, 6317.730188369751, 6978.723526000977, 6648.653507232666, 6523.507356643677, 6269.763708114624, 6468.4460163116455, 6277.532577514648, 6398.16951751709, 6486.405611038208, 6833.9996337890625, 6327.970266342163, 6650.100946426392, 6678.376913070679, 6251.593351364136, 6200.915098190308, 6602.452516555786, 6696.495056152344, 6946.76947593689, 6342.686653137207, 6421.201467514038, 6410.569906234741, 6358.358383178711, 6452.875137329102, 6197.740077972412, 6603.034973144531, 6559.224367141724, 6490.581274032593, 6659.741401672363, 6574.318408966064, 6508.97479057312, 6448.88973236084, 6218.490362167358, 6487.560749053955, 6616.077661514282, 6236.666679382324, 6442.6562786102295, 6132.757663726807, 6317.27409362793, 6697.528123855591, 6297.4793910980225, 6318.648815155029, 6229.342937469482, 6718.0798053741455, 6311.662435531616, 7146.592378616333, 6384.604454040527, 6557.858943939209, 6258.813858032227, 6338.382005691528, 6396.605968475342, 6666.043996810913, 6449.872970581055, 6778.529167175293, 6571.40040397644, 6231.807708740234],
  "Optimal Expectation Value": -1.0,
  "Optimizer durations [ms]": [19901.231, 21226.346, 19734.917, 29592.361, 20684.823, 18534.694, 19967.936, 19968.775, 20070.815, 19967.373, 20583.038, 20582.137, 20583.491, 18329.166, 19967.033, 19661.855, 21197.493, 20274.486, 19252.199, 20069.744, 20479.822, 18739.797, 21093.345, 19456.035, 20890.599, 19353.417, 20686.46, 18842.467, 21197.402, 19660.304, 19456.758, 46592.462, 21811.844, 20479.365, 19149.422, 19557.076, 21300.103, 19455.064, 19971.57, 27789.854, 22179.22, 29594.305, 20789.781, 19758.77, 19766.214, 20272.795, 30724.851, 19657.496, 19763.417, 20173.752, 19456.124, 20070.759, 20172.912, 19658.836, 20592.772, 21494.057, 18024.861, 19967.399, 20479.126, 21197.556, 18841.072, 19765.204, 19966.627, 20481.517, 19968.576, 29798.457, 19455.786, 20480.532, 29504.874, 20057.403, 19863.158, 20481.591, 19665.522, 19759.43, 19968.943, 21090.877, 27046.087, 23031.219, 18947.035, 20272.806, 20852.463, 18674.354, 20378.626, 20479.72, 19966.317],
  "Optimizer iterations": 85,
  "Optimizer params": [0.2011933177793508, 0.5637934306727344, 0.014954555654810532, 0.4343086392319991, 0.12607334601494596, 0.799229355448357],
  "P": 3,
  "Problem": "MIS",
  "QPU": "4020013",
  "Qubits": 4,
  "Shots": 4096,
  "Size": 3,
  "Total Algorithm duration [s]": 1798.706,
  "Total Classic duration [s]": 1247.0914360580443,
  "Total Quantum duration [s]": 551.6145639419556
}
