{
  "Circuit execution durations [ms]": [55.924415588378906, 55.27818202972412, 67.88623332977295, 55.64439296722412, 67.47949123382568, 55.966734886169434, 67.45719909667969, 55.40573596954346, 55.234432220458984, 54.87179756164551, 55.48882484436035, 54.868340492248535, 55.324435234069824, 55.60779571533203, 55.5950403213501, 210.54446697235107, 55.19235134124756, 55.32670021057129, 55.25481700897217, 54.85033988952637, 55.06742000579834, 210.9994888305664, 51.44309997558594, 55.23860454559326, 54.55505847930908, 54.86500263214111, 54.93474006652832, 54.59308624267578, 56.115150451660156, 54.898858070373535, 54.659247398376465, 54.924607276916504, 54.55482006072998, 54.635047912597656, 55.00948429107666, 54.995059967041016, 55.40013313293457, 54.755210876464844, 54.55362796783447, 54.737091064453125, 66.9165849685669, 54.80790138244629, 67.44396686553955, 54.856061935424805, 66.95699691772461, 54.78250980377197, 67.83711910247803, 59.49866771697998, 66.94221496582031, 54.825544357299805, 54.509758949279785, 55.171847343444824, 54.88765239715576, 54.39579486846924, 55.05013465881348, 54.999709129333496, 55.16517162322998, 54.99303340911865, 54.68642711639404, 54.4513463973999, 54.5731782913208, 54.529428482055664],
  "Depth": 2.0,
  "Expectation Value": -2.272883892059326,
  "Optimal Expectation Value": -2.2741000652313232,
  "Optimizer durations [ms]": [8000.644, 7844.219, 7864.676, 8106.482, 8160.78, 9165.773, 8184.433, 8163.306, 7957.981, 8064.671, 8242.486, 7917.893, 8539.332, 8160.242, 8418.94, 8168.44, 8168.332, 8096.462, 8247.701, 7776.057, 8038.148, 8613.813, 8439.431, 8006.395, 8020.628, 8223.115, 8583.894, 8030.051, 8415.536, 7747.324, 8337.048, 7985.48, 8055.337, 8026.106, 8159.691, 8136.756, 7926.037, 8145.377, 8183.581, 8146.896, 7927.214, 7850.137, 8165.728, 8057.746, 9330.278, 7978.754, 8099.04, 8022.131, 8245.534, 7987.264, 7885.605, 8000.41, 11085.191, 8152.046, 7763.273, 8100.144, 8078.153, 7825.471, 7999.602, 8209.175, 7788.316, 8803.639],
  "Optimizer iterations": 62,
  "Optimizer params": [0.003479528433364319, 0.4997098184649948, 0.015004717055266079, 0.49424414641979825],
  "P": 0,
  "Problem": "RH",
  "QJob durations [ms]": [3975.955367088318, 3909.5067977905273, 3919.8997020721436, 4040.1523113250732, 4067.870855331421, 4569.942235946655, 4079.4947147369385, 4069.444417953491, 3966.285228729248, 4019.5651054382324, 4108.496427536011, 3946.826934814453, 4257.252931594849, 4067.6214694976807, 4196.953296661377, 4071.108102798462, 4071.6423988342285, 4035.401463508606, 4110.855340957642, 3874.966621398926, 4005.955457687378, 4294.442176818848, 4206.875324249268, 3990.801215171814, 3997.805595397949, 4098.356246948242, 4279.362678527832, 4002.036929130554, 4195.071697235107, 3860.901713371277, 4155.936479568481, 3979.6794652938843, 4003.010153770447, 4000.1198053359985, 4054.6923875808716, 4056.0179948806763, 3938.6825561523438, 4059.9828958511353, 4067.3203468322754, 4060.0810050964355, 3951.161026954651, 3912.2512340545654, 4069.744110107422, 4015.924572944641, 4652.705669403076, 3977.015972137451, 4036.410093307495, 3998.105525970459, 4110.649585723877, 3980.5026054382324, 3930.383086204529, 3987.6439571380615, 5529.742240905762, 4063.5868310928345, 3868.761420249939, 4037.356376647949, 4026.808738708496, 3899.550676345825, 3987.210273742676, 4092.4201011657715, 3881.145238876343, 4389.567852020264],
  "QPU": "6000004",
  "Qubits": 4,
  "Queue durations [ms]": [0.0, 0.0, 0.0, 0.0, 0.0, 0.0, 0.0, 0.0, 0.0, 0.0, 0.0, 0.0, 0.0, 0.0, 0.0, 0.0, 0.0, 0.0, 0.0, 0.0, 0.0, 0.0, 0.0, 0.0, 0.0, 0.0, 0.0, 0.0, 0.0, 0.0, 0.0, 0.0, 0.0, 0.0, 0.0, 0.0, 0.0, 0.0, 0.0, 0.0, 0.0, 0.0, 0.0, 0.0, 0.0, 0.0, 0.0, 0.0, 0.0, 0.0, 0.0, 0.0, 0.0, 0.0, 0.0, 0.0, 0.0, 0.0, 0.0, 0.0, 0.0, 0.0],
  "Shots": 4096,
  "Size": 4,
  "Total Algorithm duration [s]": 507.825,
  "Total Classic duration [s]": 254.75997896194457,
  "Total Quantum duration [s]": 253.06502103805542
}
