{
  "Circuit execution durations [ms]": [55.112481117248535, 54.97729778289795, 211.5408182144165, 55.89425563812256, 55.4736852645874, 55.70375919342041, 55.6340217590332, 55.10401725769043, 52.472829818725586, 55.59945106506348, 55.536746978759766, 55.36067485809326, 55.39345741271973, 55.579543113708496, 55.46379089355469, 55.4804801940918, 55.986762046813965, 55.13143539428711, 51.810622215270996, 52.3449182510376, 54.879069328308105, 55.09793758392334, 207.33976364135742, 55.10878562927246, 55.54676055908203, 55.2983283996582, 64.31102752685547, 55.87482452392578, 67.11792945861816, 55.4051399230957, 64.21589851379395, 55.31764030456543, 67.88754463195801, 55.695176124572754, 65.65141677856445, 51.4223575592041, 55.206894874572754, 56.03134632110596, 54.92103099822998, 54.81696128845215, 54.73792552947998, 54.76212501525879, 54.953694343566895, 55.18293380737305, 55.39870262145996, 55.23276329040527, 55.46426773071289, 60.13023853302002, 54.43370342254639, 54.782748222351074, 206.87294006347656, 54.766058921813965, 54.59737777709961, 55.086493492126465, 54.894447326660156, 54.81851100921631, 55.123090744018555, 54.64208126068115, 54.96680736541748, 54.50570583343506, 54.84604835510254, 54.682135581970215, 54.80074882507324, 55.05573749542236, 54.901719093322754],
  "Depth": 2.0,
  "Expectation Value": -2.2706849575042725,
  "Optimal Expectation Value": -2.2741000652313232,
  "Optimizer durations [ms]": [8344.683, 9003.338, 8510.387, 8288.919, 8192.713, 8226.972, 8063.437, 8220.107, 7851.502, 9053.35, 8047.31, 8194.303, 8499.837, 7945.767, 8453.024, 10027.037, 8385.422, 8275.797, 8050.321, 8318.55, 8378.714, 7914.271, 8401.108, 8206.335, 8379.615, 8742.625, 9248.99, 7934.903, 8488.499, 7992.087, 8119.717, 8026.988, 8094.951, 8099.832, 8410.173, 8513.214, 7780.585, 8267.808, 8168.502, 8283.475, 7916.838, 8304.781, 8775.248, 8306.872, 8030.785, 8411.513, 8121.014, 8387.722, 8177.97, 8083.678, 8332.119, 8159.195, 7887.147, 9143.72, 10313.77, 8003.215, 8161.47, 8851.556, 8207.95, 8223.218, 8418.995, 9072.336, 8075.986, 8350.851, 8189.243],
  "Optimizer iterations": 65,
  "Optimizer params": [0.005762572654862422, 0.5001048288828988, 1.0, 0.5139874864780862],
  "P": 0,
  "Problem": "RH",
  "QJob durations [ms]": [4158.8921546936035, 4488.070011138916, 4241.5056228637695, 4130.516290664673, 4082.462191581726, 4099.836349487305, 4018.3725357055664, 4096.647024154663, 3912.0545387268066, 4513.521194458008, 4009.957194328308, 4083.6920738220215, 4236.175060272217, 3959.2565298080444, 4213.021039962769, 5000.111222267151, 4166.872262954712, 4124.262571334839, 3998.277187347412, 4145.60866355896, 4162.173509597778, 3943.6365365982056, 4174.624919891357, 4089.436411857605, 4164.174675941467, 4357.670307159424, 4610.9299659729, 3953.819990158081, 4230.546951293945, 3982.505440711975, 4046.046257019043, 4000.316619873047, 4034.333109855652, 4036.1173152923584, 4191.45131111145, 4242.597579956055, 3877.050995826721, 4119.886517524719, 4070.3045129776, 4128.416538238525, 3945.0438022613525, 4138.826370239258, 4373.859643936157, 4139.232158660889, 4001.9298791885376, 4192.269086837769, 4046.7135906219482, 4180.48620223999, 4075.6733417510986, 4028.5890102386475, 4151.99613571167, 4065.9711360931396, 3929.4527769088745, 4557.871699333191, 5143.50700378418, 3988.1027936935425, 4067.246198654175, 4411.520838737488, 4089.8783206939697, 4097.993493080139, 4195.621728897095, 4522.217869758606, 4024.696707725525, 4161.459445953369, 4080.5747509002686],
  "QPU": "6000004",
  "Qubits": 4,
  "Queue durations [ms]": [0.0, 0.0, 0.0, 0.0, 0.0, 0.0, 0.0, 0.0, 0.0, 0.0, 0.0, 0.0, 0.0, 0.0, 0.0, 0.0, 0.0, 0.0, 0.0, 0.0, 0.0, 0.0, 0.0, 0.0, 0.0, 0.0, 0.0, 0.0, 0.0, 0.0, 0.0, 0.0, 0.0, 0.0, 0.0, 0.0, 0.0, 0.0, 0.0, 0.0, 0.0, 0.0, 0.0, 0.0, 0.0, 0.0, 0.0, 0.0, 0.0, 0.0, 0.0, 0.0, 0.0, 0.0, 0.0, 0.0, 0.0, 0.0, 0.0, 0.0, 0.0, 0.0, 0.0, 0.0, 0.0],
  "Shots": 4096,
  "Size": 4,
  "Total Algorithm duration [s]": 543.312,
  "Total Classic duration [s]": 272.60611482810975,
  "Total Quantum duration [s]": 270.70588517189026
}
