{
  "Circuit execution durations [ms]": [117.98238754272461, 117.95663833618164, 117.9349422454834, 118.7143325805664, 117.99955368041992, 118.00074577331543, 117.30742454528809, 187.05010414123535, 116.89519882202148, 117.48647689819336, 117.75708198547363, 117.45190620422363, 117.99073219299316, 118.15810203552246, 117.47360229492188, 187.4852180480957, 117.90943145751953, 117.45047569274902, 117.84553527832031, 118.14403533935547, 117.74659156799316, 117.54941940307617, 117.8274154663086, 185.6837272644043, 117.5539493560791, 118.26443672180176, 117.43950843811035, 118.02983283996582, 118.38722229003906, 118.27230453491211, 186.9676113128662, 118.12925338745117, 117.34366416931152, 117.61760711669922, 117.19512939453125, 118.14165115356445, 118.16096305847168, 117.80452728271484, 186.21230125427246, 118.0567741394043, 119.08435821533203, 118.06678771972656, 118.79134178161621, 118.24321746826172, 117.55871772766113, 187.14213371276855, 118.02506446838379, 117.5684928894043, 117.87199974060059, 118.13497543334961, 117.84219741821289, 118.21651458740234, 118.27969551086426, 117.4473762512207, 117.84815788269043, 118.24584007263184, 117.46764183044434, 117.91729927062988, 118.01314353942871, 117.97332763671875, 186.5386962890625, 117.69437789916992, 117.57898330688477, 117.74277687072754, 118.10946464538574, 117.40875244140625, 118.14260482788086, 118.34216117858887, 187.0436668395996, 117.56300926208496, 117.90585517883301, 117.68150329589844, 117.67864227294922, 118.31998825073242, 118.05367469787598, 117.95663833618164, 185.88685989379883, 117.80309677124023, 117.47336387634277, 117.75946617126465, 117.4161434173584, 117.94114112854004, 117.87247657775879, 187.10732460021973, 118.15237998962402, 117.96140670776367, 117.77496337890625, 117.6002025604248, 117.53320693969727, 118.23177337646484, 118.72363090515137, 186.94019317626953, 117.41209030151367],
  "Depth": 532.0,
  "Expectation Value": -2.638671875,
  "Optimal Expectation Value": -5.0,
  "Optimizer durations [ms]": [224.471, 148.22, 148.254, 149.891, 149.226, 148.202, 148.073, 218.381, 147.498, 148.724, 148.851, 148.92, 149.382, 149.511, 148.807, 219.004, 149.162, 147.983, 148.395, 149.511, 148.834, 149.161, 148.878, 216.73, 148.283, 149.725, 148.391, 149.488, 147.696, 149.674, 218.327, 148.647, 148.907, 149.17, 149.136, 149.515, 149.367, 148.81, 217.845, 149.178, 150.646, 149.128, 149.824, 149.463, 147.985, 218.703, 148.643, 147.938, 148.933, 149.127, 148.735, 149.519, 149.422, 217.352, 149.056, 149.494, 148.67, 149.401, 149.352, 149.649, 218.062, 149.122, 148.517, 149.074, 149.109, 148.809, 149.034, 149.88, 218.334, 148.41, 149.742, 149.302, 149.234, 149.977, 149.137, 149.198, 217.367, 149.205, 148.876, 149.119, 148.814, 149.626, 149.157, 219.013, 149.313, 149.599, 148.93, 149.096, 148.603, 149.198, 150.322, 218.889, 148.9],
  "Optimizer iterations": 93,
  "Optimizer params": [0.9754059442875479, 0.8452122489191147, 0.38464372027399046, 0.4227052365243204, 0.7514155007020645, 0.47449944500035374],
  "P": 3,
  "Problem": "DSP",
  "QJob durations [ms]": [117.98238754272461, 117.95663833618164, 117.9349422454834, 118.7143325805664, 117.99955368041992, 118.00074577331543, 117.30742454528809, 187.05010414123535, 116.89519882202148, 117.48647689819336, 117.75708198547363, 117.45190620422363, 117.99073219299316, 118.15810203552246, 117.47360229492188, 187.4852180480957, 117.90943145751953, 117.45047569274902, 117.84553527832031, 118.14403533935547, 117.74659156799316, 117.54941940307617, 117.8274154663086, 185.6837272644043, 117.5539493560791, 118.26443672180176, 117.43950843811035, 118.02983283996582, 118.38722229003906, 118.27230453491211, 186.9676113128662, 118.12925338745117, 117.34366416931152, 117.61760711669922, 117.19512939453125, 118.14165115356445, 118.16096305847168, 117.80452728271484, 186.21230125427246, 118.0567741394043, 119.08435821533203, 118.06678771972656, 118.79134178161621, 118.24321746826172, 117.55871772766113, 187.14213371276855, 118.02506446838379, 117.5684928894043, 117.87199974060059, 118.13497543334961, 117.84219741821289, 118.21651458740234, 118.27969551086426, 117.4473762512207, 117.84815788269043, 118.24584007263184, 117.46764183044434, 117.91729927062988, 118.01314353942871, 117.97332763671875, 186.5386962890625, 117.69437789916992, 117.57898330688477, 117.74277687072754, 118.10946464538574, 117.40875244140625, 118.14260482788086, 118.34216117858887, 187.0436668395996, 117.56300926208496, 117.90585517883301, 117.68150329589844, 117.67864227294922, 118.31998825073242, 118.05367469787598, 117.95663833618164, 185.88685989379883, 117.80309677124023, 117.47336387634277, 117.75946617126465, 117.4161434173584, 117.94114112854004, 117.87247657775879, 187.10732460021973, 118.15237998962402, 117.96140670776367, 117.77496337890625, 117.6002025604248, 117.53320693969727, 118.23177337646484, 118.72363090515137, 186.94019317626953, 117.41209030151367],
  "QPU": "9000001",
  "Qubits": 12,
  "Queue durations [ms]": [0.0, 0.0, 0.0, 0.0, 0.0, 0.0, 0.0, 0.0, 0.0, 0.0, 0.0, 0.0, 0.0, 0.0, 0.0, 0.0, 0.0, 0.0, 0.0, 0.0, 0.0, 0.0, 0.0, 0.0, 0.0, 0.0, 0.0, 0.0, 0.0, 0.0, 0.0, 0.0, 0.0, 0.0, 0.0, 0.0, 0.0, 0.0, 0.0, 0.0, 0.0, 0.0, 0.0, 0.0, 0.0, 0.0, 0.0, 0.0, 0.0, 0.0, 0.0, 0.0, 0.0, 0.0, 0.0, 0.0, 0.0, 0.0, 0.0, 0.0, 0.0, 0.0, 0.0, 0.0, 0.0, 0.0, 0.0, 0.0, 0.0, 0.0, 0.0, 0.0, 0.0, 0.0, 0.0, 0.0, 0.0, 0.0, 0.0, 0.0, 0.0, 0.0, 0.0, 0.0, 0.0, 0.0, 0.0, 0.0, 0.0, 0.0, 0.0, 0.0, 0.0],
  "Shots": 4096,
  "Size": 7,
  "Total Algorithm duration [s]": 14.766,
  "Total Classic duration [s]": 3.0455333862304688,
  "Total Quantum duration [s]": 11.720466613769531
}
