{
  "Circuit execution durations [ms]": [118.96824836730957, 118.67237091064453, 119.35877799987793, 191.98346138000488, 117.89536476135254, 118.12353134155273, 117.70391464233398, 118.04699897766113, 118.56961250305176, 117.64979362487793, 117.94757843017578, 118.00384521484375, 117.73514747619629, 117.74969100952148, 118.0570125579834, 117.74158477783203, 117.7225112915039, 117.77400970458984, 186.40685081481934, 117.52724647521973, 117.95687675476074, 118.46923828125, 117.41423606872559, 118.9272403717041, 117.82646179199219, 117.55919456481934, 118.29614639282227, 117.33102798461914, 117.51556396484375, 119.13061141967773, 117.67244338989258, 118.18671226501465, 118.1175708770752, 185.74094772338867, 117.31076240539551, 117.70248413085938, 117.80142784118652, 117.82646179199219, 118.09182167053223, 117.70343780517578, 186.93137168884277, 117.96832084655762, 117.47598648071289, 117.5835132598877, 117.90013313293457, 117.88320541381836, 117.91610717773438, 118.08395385742188, 118.02005767822266, 117.51270294189453, 117.54131317138672, 117.48600006103516, 118.1337833404541, 118.19195747375488, 117.89846420288086, 186.4776611328125, 117.67745018005371, 117.49720573425293, 117.64383316040039, 118.09492111206055, 117.95806884765625, 117.80905723571777, 118.26133728027344, 187.0269775390625, 117.34485626220703, 117.80357360839844, 117.71059036254883, 117.69866943359375, 117.33126640319824, 117.45023727416992, 118.00432205200195, 185.1644515991211, 117.4156665802002, 117.59543418884277, 118.1480884552002, 117.32625961303711, 118.21937561035156, 117.8293228149414, 187.02936172485352, 118.37100982666016, 118.23105812072754, 117.56229400634766, 118.13020706176758, 118.24822425842285, 117.38896369934082, 118.02506446838379, 185.7442855834961, 117.80762672424316, 117.87605285644531, 118.38912963867188, 117.51294136047363],
  "Depth": 532.0,
  "Expectation Value": -3.6328125,
  "Optimal Expectation Value": -5.0,
  "Optimizer durations [ms]": [150.218, 149.383, 150.704, 222.45, 146.972, 147.861, 147.925, 147.336, 148.177, 147.704, 147.977, 215.082, 147.301, 147.313, 147.665, 147.909, 148.363, 147.273, 217.202, 147.503, 147.693, 148.904, 148.38, 149.331, 148.177, 148.478, 216.844, 148.663, 148.687, 150.485, 149.052, 149.792, 149.404, 216.938, 148.069, 148.7, 148.839, 149.334, 149.378, 148.762, 218.084, 148.877, 148.746, 148.797, 148.895, 148.717, 149.156, 149.358, 217.41, 148.362, 148.63, 148.748, 149.801, 149.52, 149.606, 218.833, 148.204, 148.773, 148.642, 149.253, 148.848, 149.26, 149.33, 218.193, 148.476, 148.992, 148.633, 149.266, 148.448, 148.646, 149.397, 216.239, 148.3, 148.784, 149.503, 149.049, 149.408, 149.32, 218.561, 149.369, 149.45, 148.781, 149.717, 149.12, 148.671, 149.376, 217.421, 148.4, 149.106, 149.587, 148.562],
  "Optimizer iterations": 91,
  "Optimizer params": [0.24804437088012504, 0.6170404591160088, 0.9205466770100692, 0.8413300205839513, 0.36187966382490994, 0.9051705333314174],
  "P": 3,
  "Problem": "DSP",
  "QJob durations [ms]": [118.96824836730957, 118.67237091064453, 119.35877799987793, 191.98346138000488, 117.89536476135254, 118.12353134155273, 117.70391464233398, 118.04699897766113, 118.56961250305176, 117.64979362487793, 117.94757843017578, 118.00384521484375, 117.73514747619629, 117.74969100952148, 118.0570125579834, 117.74158477783203, 117.7225112915039, 117.77400970458984, 186.40685081481934, 117.52724647521973, 117.95687675476074, 118.46923828125, 117.41423606872559, 118.9272403717041, 117.82646179199219, 117.55919456481934, 118.29614639282227, 117.33102798461914, 117.51556396484375, 119.13061141967773, 117.67244338989258, 118.18671226501465, 118.1175708770752, 185.74094772338867, 117.31076240539551, 117.70248413085938, 117.80142784118652, 117.82646179199219, 118.09182167053223, 117.70343780517578, 186.93137168884277, 117.96832084655762, 117.47598648071289, 117.5835132598877, 117.90013313293457, 117.88320541381836, 117.91610717773438, 118.08395385742188, 118.02005767822266, 117.51270294189453, 117.54131317138672, 117.48600006103516, 118.1337833404541, 118.19195747375488, 117.89846420288086, 186.4776611328125, 117.67745018005371, 117.49720573425293, 117.64383316040039, 118.09492111206055, 117.95806884765625, 117.80905723571777, 118.26133728027344, 187.0269775390625, 117.34485626220703, 117.80357360839844, 117.71059036254883, 117.69866943359375, 117.33126640319824, 117.45023727416992, 118.00432205200195, 185.1644515991211, 117.4156665802002, 117.59543418884277, 118.1480884552002, 117.32625961303711, 118.21937561035156, 117.8293228149414, 187.02936172485352, 118.37100982666016, 118.23105812072754, 117.56229400634766, 118.13020706176758, 118.24822425842285, 117.38896369934082, 118.02506446838379, 185.7442855834961, 117.80762672424316, 117.87605285644531, 118.38912963867188, 117.51294136047363],
  "QPU": "9000001",
  "Qubits": 12,
  "Queue durations [ms]": [0.0, 0.0, 0.0, 0.0, 0.0, 0.0, 0.0, 0.0, 0.0, 0.0, 0.0, 0.0, 0.0, 0.0, 0.0, 0.0, 0.0, 0.0, 0.0, 0.0, 0.0, 0.0, 0.0, 0.0, 0.0, 0.0, 0.0, 0.0, 0.0, 0.0, 0.0, 0.0, 0.0, 0.0, 0.0, 0.0, 0.0, 0.0, 0.0, 0.0, 0.0, 0.0, 0.0, 0.0, 0.0, 0.0, 0.0, 0.0, 0.0, 0.0, 0.0, 0.0, 0.0, 0.0, 0.0, 0.0, 0.0, 0.0, 0.0, 0.0, 0.0, 0.0, 0.0, 0.0, 0.0, 0.0, 0.0, 0.0, 0.0, 0.0, 0.0, 0.0, 0.0, 0.0, 0.0, 0.0, 0.0, 0.0, 0.0, 0.0, 0.0, 0.0, 0.0, 0.0, 0.0, 0.0, 0.0, 0.0, 0.0, 0.0, 0.0],
  "Shots": 4096,
  "Size": 7,
  "Total Algorithm duration [s]": 14.366,
  "Total Classic duration [s]": 3.015450063705444,
  "Total Quantum duration [s]": 11.350549936294556
}
