{
  "Circuit execution durations [ms]": [30.762434005737305, 95.43180465698242, 30.25341033935547, 30.202627182006836, 30.236482620239258, 29.871702194213867, 30.561447143554688, 30.420303344726563, 30.037879943847656, 30.304431915283203, 30.202627182006836, 30.135393142700195, 30.282258987426758, 30.141115188598633, 30.225753784179688, 30.12681007385254, 30.005216598510742, 30.211687088012695, 30.444622039794922, 30.2278995513916, 30.031204223632813, 30.375957489013672, 30.05242347717285, 30.312776565551758, 30.729055404663086, 30.496835708618164, 30.197620391845703, 30.004262924194336, 30.380964279174805, 30.009746551513672, 30.418872833251953, 30.0905704498291, 30.256032943725586, 30.431747436523438, 30.26294708251953, 29.95920181274414, 30.25674819946289, 93.59860420227051, 30.29179573059082, 31.46076202392578, 30.488014221191406, 30.014753341674805, 30.48253059387207, 30.15875816345215, 30.045509338378906, 30.657529830932617, 30.270814895629883, 30.031204223632813, 30.479907989501953, 30.548572540283203, 29.95467185974121, 30.233144760131836, 30.304431915283203, 29.987573623657227, 30.34043312072754, 30.38787841796875, 30.14397621154785, 30.452728271484375, 30.36212921142578, 30.08747100830078, 30.422210693359375, 30.24911880493164, 30.364513397216797, 29.937028884887695, 30.2731990814209, 30.211687088012695, 92.90742874145508, 30.31635284423828, 30.14397621154785, 30.345678329467773, 30.371665954589844, 30.064821243286133, 30.115127563476563, 30.327558517456055, 29.928922653198242, 30.371427536010742, 30.185222625732422, 30.187129974365234, 30.261516571044922, 30.05218505859375, 30.01546859741211, 30.11918067932129, 30.194520950317383, 29.933691024780273, 30.492782592773438, 30.11465072631836, 30.026912689208984, 30.407428741455078, 93.77789497375488, 30.12251853942871],
  "Depth": 113.0,
  "Expectation Value": -7.30908203125,
  "Optimal Expectation Value": -8.0,
  "Optimizer durations [ms]": [37.515, 102.093, 37.031, 36.883, 36.893, 36.441, 37.21, 36.99, 36.579, 36.982, 36.965, 36.669, 36.968, 36.83, 36.807, 36.877, 36.677, 36.78, 37.107, 36.802, 36.566, 36.93, 36.736, 36.973, 37.488, 37.146, 36.884, 36.68, 37.125, 37.783, 37.11, 36.768, 36.889, 37.099, 36.878, 36.618, 36.916, 100.322, 37.073, 38.128, 37.169, 36.641, 37.197, 36.806, 36.71, 37.304, 36.842, 36.519, 37.173, 37.197, 36.666, 36.96, 36.841, 36.743, 37.044, 37.057, 37.009, 37.157, 37.026, 36.771, 37.023, 36.787, 36.972, 36.577, 37.004, 36.793, 99.702, 37.054, 36.74, 37.016, 37.079, 36.712, 36.842, 36.896, 36.618, 37.054, 36.86, 36.829, 36.89, 36.741, 36.955, 36.59, 36.853, 36.569, 37.201, 36.81, 36.731, 37.087, 100.489, 36.958],
  "Optimizer iterations": 90,
  "Optimizer params": [0.7058546645224351, 0.715855830373125, 0.15282278634368673, 0.6919264254053099, 0.3595439038696461, 0.9568573371721529],
  "P": 3,
  "Problem": "MCP",
  "QJob durations [ms]": [30.762434005737305, 95.43180465698242, 30.25341033935547, 30.202627182006836, 30.236482620239258, 29.871702194213867, 30.561447143554688, 30.420303344726563, 30.037879943847656, 30.304431915283203, 30.202627182006836, 30.135393142700195, 30.282258987426758, 30.141115188598633, 30.225753784179688, 30.12681007385254, 30.005216598510742, 30.211687088012695, 30.444622039794922, 30.2278995513916, 30.031204223632813, 30.375957489013672, 30.05242347717285, 30.312776565551758, 30.729055404663086, 30.496835708618164, 30.197620391845703, 30.004262924194336, 30.380964279174805, 30.009746551513672, 30.418872833251953, 30.0905704498291, 30.256032943725586, 30.431747436523438, 30.26294708251953, 29.95920181274414, 30.25674819946289, 93.59860420227051, 30.29179573059082, 31.46076202392578, 30.488014221191406, 30.014753341674805, 30.48253059387207, 30.15875816345215, 30.045509338378906, 30.657529830932617, 30.270814895629883, 30.031204223632813, 30.479907989501953, 30.548572540283203, 29.95467185974121, 30.233144760131836, 30.304431915283203, 29.987573623657227, 30.34043312072754, 30.38787841796875, 30.14397621154785, 30.452728271484375, 30.36212921142578, 30.08747100830078, 30.422210693359375, 30.24911880493164, 30.364513397216797, 29.937028884887695, 30.2731990814209, 30.211687088012695, 92.90742874145508, 30.31635284423828, 30.14397621154785, 30.345678329467773, 30.371665954589844, 30.064821243286133, 30.115127563476563, 30.327558517456055, 29.928922653198242, 30.371427536010742, 30.185222625732422, 30.187129974365234, 30.261516571044922, 30.05218505859375, 30.01546859741211, 30.11918067932129, 30.194520950317383, 29.933691024780273, 30.492782592773438, 30.11465072631836, 30.026912689208984, 30.407428741455078, 93.77789497375488, 30.12251853942871],
  "QPU": "9000001",
  "Qubits": 6,
  "Queue durations [ms]": [0.0, 0.0, 0.0, 0.0, 0.0, 0.0, 0.0, 0.0, 0.0, 0.0, 0.0, 0.0, 0.0, 0.0, 0.0, 0.0, 0.0, 0.0, 0.0, 0.0, 0.0, 0.0, 0.0, 0.0, 0.0, 0.0, 0.0, 0.0, 0.0, 0.0, 0.0, 0.0, 0.0, 0.0, 0.0, 0.0, 0.0, 0.0, 0.0, 0.0, 0.0, 0.0, 0.0, 0.0, 0.0, 0.0, 0.0, 0.0, 0.0, 0.0, 0.0, 0.0, 0.0, 0.0, 0.0, 0.0, 0.0, 0.0, 0.0, 0.0, 0.0, 0.0, 0.0, 0.0, 0.0, 0.0, 0.0, 0.0, 0.0, 0.0, 0.0, 0.0, 0.0, 0.0, 0.0, 0.0, 0.0, 0.0, 0.0, 0.0, 0.0, 0.0, 0.0, 0.0, 0.0, 0.0, 0.0, 0.0, 0.0, 0.0],
  "Shots": 4096,
  "Size": 6,
  "Total Algorithm duration [s]": 3.578,
  "Total Classic duration [s]": 0.6006221084594725,
  "Total Quantum duration [s]": 2.9773778915405273
}
