{
  "Circuit execution durations [ms]": [31.373262405395508, 30.37714958190918, 30.28249740600586, 30.301809310913086, 30.18355369567871, 30.149459838867188, 30.3952693939209, 30.437946319580078, 30.240535736083984, 30.2431583404541, 30.399560928344727, 30.14063835144043, 30.515670776367188, 30.198335647583008, 30.295372009277344, 30.3192138671875, 30.284881591796875, 30.598878860473633, 30.109643936157227, 30.381441116333008, 30.55405616760254, 30.26413917541504, 30.66849708557129, 30.184268951416016, 30.437231063842773, 30.195236206054688, 30.498266220092773, 30.187606811523438, 30.101299285888672, 30.272722244262695, 30.60770034790039, 30.635595321655273, 30.29012680053711, 30.322551727294922, 30.225753784179688, 93.07217597961426, 30.55739402770996, 30.135631561279297, 30.612945556640625, 30.207157135009766, 30.256271362304688, 30.344009399414063, 30.139923095703125, 30.00640869140625, 30.05194664001465, 30.37714958190918, 30.29155731201172, 30.16042709350586, 30.09486198425293, 30.022382736206055, 30.28416633605957, 30.363082885742188, 30.097484588623047, 30.44748306274414, 30.160903930664063, 30.221223831176758, 30.225276947021484, 30.17902374267578, 30.536174774169922, 30.242204666137695, 30.335426330566406, 30.745983123779297, 30.2431583404541, 30.280590057373047, 93.43504905700684, 30.507326126098633, 30.390024185180664, 30.09343147277832, 30.1668643951416, 29.89792823791504, 30.034780502319336, 30.163288116455078, 30.32684326171875, 30.548810958862305, 30.16066551208496, 30.11488914489746, 30.510425567626953, 30.073881149291992, 30.2274227142334, 30.4412841796875, 30.267000198364258, 30.00354766845703, 30.351877212524414, 30.405044555664063, 30.074357986450195, 30.632495880126953, 93.5978889465332, 30.31754493713379, 30.071496963500977, 30.562877655029297, 30.359506607055664],
  "Depth": 113.0,
  "Expectation Value": -7.90576171875,
  "Optimal Expectation Value": -8.0,
  "Optimizer durations [ms]": [38.001, 102.459, 36.953, 36.942, 36.753, 36.846, 37.151, 37.119, 36.883, 36.883, 36.966, 36.817, 37.251, 36.88, 37.02, 37.046, 36.94, 37.299, 36.914, 36.996, 37.225, 36.919, 37.373, 36.841, 37.165, 36.78, 37.136, 36.767, 36.705, 36.866, 37.301, 37.345, 36.85, 36.907, 36.925, 99.82, 37.219, 36.766, 37.729, 36.848, 36.987, 37.056, 36.869, 36.679, 36.662, 37.071, 36.816, 36.939, 36.911, 36.585, 36.998, 37.116, 36.738, 37.064, 36.762, 36.882, 36.943, 36.874, 37.258, 36.815, 37.081, 37.426, 36.807, 36.924, 100.251, 37.266, 36.988, 36.977, 36.716, 36.527, 36.662, 36.71, 36.974, 37.154, 36.857, 36.829, 37.27, 36.676, 36.904, 37.107, 36.949, 36.658, 37.007, 37.041, 36.61, 37.209, 100.388, 37.102, 36.702, 37.53, 37.086],
  "Optimizer iterations": 91,
  "Optimizer params": [0.7454819259612833, 0.34389601404791365, 0.9229198808300503, 0.6768961575805987, 0.6459462008751405, 0.24188396907147158],
  "P": 3,
  "Problem": "MCP",
  "QJob durations [ms]": [31.373262405395508, 30.37714958190918, 30.28249740600586, 30.301809310913086, 30.18355369567871, 30.149459838867188, 30.3952693939209, 30.437946319580078, 30.240535736083984, 30.2431583404541, 30.399560928344727, 30.14063835144043, 30.515670776367188, 30.198335647583008, 30.295372009277344, 30.3192138671875, 30.284881591796875, 30.598878860473633, 30.109643936157227, 30.381441116333008, 30.55405616760254, 30.26413917541504, 30.66849708557129, 30.184268951416016, 30.437231063842773, 30.195236206054688, 30.498266220092773, 30.187606811523438, 30.101299285888672, 30.272722244262695, 30.60770034790039, 30.635595321655273, 30.29012680053711, 30.322551727294922, 30.225753784179688, 93.07217597961426, 30.55739402770996, 30.135631561279297, 30.612945556640625, 30.207157135009766, 30.256271362304688, 30.344009399414063, 30.139923095703125, 30.00640869140625, 30.05194664001465, 30.37714958190918, 30.29155731201172, 30.16042709350586, 30.09486198425293, 30.022382736206055, 30.28416633605957, 30.363082885742188, 30.097484588623047, 30.44748306274414, 30.160903930664063, 30.221223831176758, 30.225276947021484, 30.17902374267578, 30.536174774169922, 30.242204666137695, 30.335426330566406, 30.745983123779297, 30.2431583404541, 30.280590057373047, 93.43504905700684, 30.507326126098633, 30.390024185180664, 30.09343147277832, 30.1668643951416, 29.89792823791504, 30.034780502319336, 30.163288116455078, 30.32684326171875, 30.548810958862305, 30.16066551208496, 30.11488914489746, 30.510425567626953, 30.073881149291992, 30.2274227142334, 30.4412841796875, 30.267000198364258, 30.00354766845703, 30.351877212524414, 30.405044555664063, 30.074357986450195, 30.632495880126953, 93.5978889465332, 30.31754493713379, 30.071496963500977, 30.562877655029297, 30.359506607055664],
  "QPU": "9000001",
  "Qubits": 6,
  "Queue durations [ms]": [0.0, 0.0, 0.0, 0.0, 0.0, 0.0, 0.0, 0.0, 0.0, 0.0, 0.0, 0.0, 0.0, 0.0, 0.0, 0.0, 0.0, 0.0, 0.0, 0.0, 0.0, 0.0, 0.0, 0.0, 0.0, 0.0, 0.0, 0.0, 0.0, 0.0, 0.0, 0.0, 0.0, 0.0, 0.0, 0.0, 0.0, 0.0, 0.0, 0.0, 0.0, 0.0, 0.0, 0.0, 0.0, 0.0, 0.0, 0.0, 0.0, 0.0, 0.0, 0.0, 0.0, 0.0, 0.0, 0.0, 0.0, 0.0, 0.0, 0.0, 0.0, 0.0, 0.0, 0.0, 0.0, 0.0, 0.0, 0.0, 0.0, 0.0, 0.0, 0.0, 0.0, 0.0, 0.0, 0.0, 0.0, 0.0, 0.0, 0.0, 0.0, 0.0, 0.0, 0.0, 0.0, 0.0, 0.0, 0.0, 0.0, 0.0, 0.0],
  "Shots": 4096,
  "Size": 6,
  "Total Algorithm duration [s]": 3.62,
  "Total Classic duration [s]": 0.6728976917266847,
  "Total Quantum duration [s]": 2.9471023082733154
}
