{
  "Circuit execution durations [ms]": [0.29839998751413077, 0.3102000046055764, 0.2918999962275848, 0.3073999978369102, 0.3025499900104478, 0.301499996567145, 0.29594999796245247, 0.2999499993165955, 0.29164999432396144, 0.3020999865839258, 0.3030499938176945, 0.294850004138425, 0.29350000841077417, 0.29654998797923326, 0.2958999975817278, 0.29630000062752515, 0.31799999123904854, 0.29614999948535115, 0.3078500012634322, 0.301499996567145, 0.30544999754056334, 0.2945999876828864, 0.2936000091722235, 0.29255000117700547, 0.28750000637955964, 0.2927000023191795, 0.2932499919552356, 0.31060000765137374, 0.28539999038912356, 0.30189999961294234, 0.30115000845398754, 0.29984999855514616, 0.2896000078180805, 0.2955999952973798, 0.2934500080300495, 0.29409999842755497, 0.29865000396966934, 0.2912500058300793, 0.30074999085627496, 0.291300006210804, 0.3029500076081604, 0.2971499925479293, 0.3036999987671152, 0.2938999969046563, 0.2935999946203083, 0.2889500028686598, 0.2921999985119328, 0.2964999875985086, 0.2929500042228028, 0.2954499941552058, 0.29850000282749534, 0.301049993140623, 0.3020000003743917, 0.3002500016009435, 0.2943500003311783, 0.294850004138425, 0.3025499900104478, 0.29924999398645014, 0.29674998950213194, 0.3203000087523833, 0.302100001135841, 0.2962500002468005, 0.2889000024879351, 0.2935499942395836, 0.2969999914057553, 0.29689999064430594, 0.31844999466557056, 0.304899993352592, 0.291600008495152, 0.2925000007962808, 0.2965000021504238, 0.2982000005431473, 0.29329999233596027, 0.2955999952973798, 0.3008499916177243, 0.3125000075669959, 0.29185001039877534, 0.29429999995045364, 0.28974999440833926, 0.29414999880827963, 0.2945999876828864, 0.29170000925660133, 0.2935999946203083, 0.29830000130459666, 0.30405000143218786, 0.29549999453593045, 0.294850004138425, 0.29445000109262764, 0.31689999741502106, 0.295000005280599, 0.2964000013889745, 0.2928999892901629, 0.29394999728538096, 0.2970999921672046, 0.2938499965239316, 0.2994999958900735, 0.29590001213364303, 0.36550000368151814, 0.3079000016441569, 0.3105500072706491, 0.3001000004587695, 0.2995999966515228, 0.29164999432396144, 0.2987500047311187, 0.3080000024056062, 0.3259000077378005, 0.2957499964395538, 0.30494999373331666, 0.30005000007804483, 0.2932499919552356, 0.29460000223480165, 0.3071999963140115, 0.3304499987279996, 0.3034000110346824, 0.29659998835995793, 0.297949998639524, 0.2964000013889745, 0.2937499957624823, 0.3003000019816682, 0.2692499983822927, 0.3004500031238422, 0.3014000103576109, 0.30270000570453703, 0.29329999233596027, 0.3011499939020723, 0.2955999952973798, 0.3007000050274655, 0.2956500102300197, 0.2706500090425834, 0.2952999930130318, 0.3511499962769449, 0.29909999284427613, 0.4424499929882586, 0.29525000718422234, 0.3476999991107732, 0.28920000477228314, 0.4795499989995733, 0.4913999873679131, 0.4184499994153157, 0.2961999998660758, 0.3120500041404739, 0.30530001095030457, 0.3109499957645312, 0.29614999948535115, 0.29460000223480165, 0.29895000625401735, 0.2907499874709174, 0.29815000016242266, 0.29329999233596027, 0.3144000074826181, 0.2994999958900735, 0.2969499910250306, 0.3081500035477802, 0.3050500090466812, 0.29799999902024865, 0.301049993140623, 0.3178999904775992, 0.30015000083949417, 0.2928999892901629, 0.3037999995285645, 0.3060000017285347, 0.29584999720100313, 0.30899999546818435, 0.297949998639524, 0.2994999958900735, 0.3063000040128827, 0.2987500047311187, 0.3074500127695501, 0.3073499974561855, 0.2906500012613833, 0.29954999627079815, 0.3065999917453155, 0.2947499888250604, 0.30205000075511634, 0.29149999318178743, 0.29334999271668494, 0.2889500028686598, 0.29674998950213194, 0.304749992210418, 0.3004500031238422, 0.298850005492568, 0.2918499958468601, 0.29334999271668494, 0.29975001234561205, 0.3617999900598079, 0.2971500070998445, 0.2951499918708578, 0.2999499993165955, 0.29895000625401735, 0.30759999935980886, 0.3032999957213178, 0.2962500002468005, 0.2923499996541068, 0.2937499957624823, 0.3014499961864203, 0.2952999930130318, 0.3087999939452857, 0.29519999225158244, 0.30514999525621533, 0.3105500072706491, 0.2975999959744513, 0.30965000041760504, 0.34764999873004854, 0.29319999157451093, 0.301799998851493, 0.2979500131914392, 0.29799999902024865, 0.29984999855514616, 0.29845000244677067, 0.30345001141540706, 0.2963500010082498, 0.3101500042248517, 0.31194998882710934, 0.29754999559372663, 0.30080000578891486, 0.2943500003311783, 0.30425000295508653, 0.29930000891909003, 0.29399999766610563, 0.30080000578891486, 0.38124999264255166, 0.30130000959616154, 0.299000006634742, 0.3066500066779554, 0.29895000625401735, 0.30344999686349183, 0.29990001348778605, 0.3141000051982701, 0.2938499965239316, 0.29895000625401735, 0.30264999077189714, 0.29245000041555613, 0.29525000718422234, 0.2965000021504238, 0.304749992210418, 0.40830000943969935, 0.3965499927289784, 0.4581499961204827, 0.3044500044779852, 0.30559999868273735, 0.2996499970322475, 0.2906000008806586, 0.2973500086227432, 0.29909999284427613, 0.29594999796245247, 0.294550001854077, 0.29984999855514616, 0.2974499948322773, 0.301499996567145, 0.2900499966926873, 0.29754999559372663, 0.30980000155977905, 0.30015000083949417, 0.29779999749735, 0.2967000036733225, 0.29475000337697566, 0.29355000879149884, 0.29349999385885894, 0.30235000303946435, 0.29940000968053937, 0.2945000014733523, 0.29409999842755497, 0.2914000069722533, 0.2912499912781641, 0.2959500125143677, 0.2894999925047159, 0.30294999305624515, 0.2969000051962212, 0.3029500076081604, 0.2980499994009733, 0.2918999962275848, 0.2961999998660758, 0.30089999199844897, 0.2977499971166253, 0.29320000612642616, 0.29960001120343804, 0.294400000711903, 0.3020000003743917, 0.2972999936901033, 0.29740000900346786, 0.30440000409726053, 0.29490000451914966, 0.29654998797923326, 0.298400002066046, 0.2938999969046563, 0.29299999005161226, 0.30094999237917364, 0.2935499942395836, 0.30455000523943454, 0.3041000018129125, 0.30934999813325703, 0.3023000026587397, 0.29429999995045364, 0.2898500097217038, 0.29209999775048345, 0.2996499970322475, 0.3013500099768862, 0.2926500019384548, 0.2995500108227134, 0.3100000030826777, 0.2925000007962808, 0.3148499963572249, 0.29260000155773014, 0.28780000866390765, 0.298400002066046, 0.29579999682027847, 0.2978999982587993, 0.29400001221802086, 0.3097500011790544, 0.29490000451914966, 0.2899000101024285, 0.29209999775048345, 0.29370000993367285, 0.29409999842755497, 0.29639998683705926, 0.29320000612642616, 0.2998000127263367, 0.29194999660830945, 0.30450000485870987, 0.2994999958900735, 0.2913999924203381, 0.3701499954331666, 0.305800000205636, 0.3071000101044774, 0.2975999959744513, 0.298099999781698, 0.29960001120343804, 0.2964000013889745, 0.2938999969046563, 0.298700004350394, 0.30450000485870987, 0.2927000023191795, 0.29674998950213194, 0.3101499896729365, 0.29644998721778393, 0.2973500086227432, 0.295000005280599, 0.294850004138425, 0.30520001018885523, 0.29889999132137746, 0.30189999961294234, 0.3058500005863607, 0.33275000168941915, 0.3073499974561855, 0.29784999787807465, 0.30840000545140356, 0.2989999920828268, 0.30005000007804483, 0.29855000320822, 0.29755001014564186, 0.29409999842755497, 0.29954999627079815, 0.2902999985963106, 0.30309999419841915, 0.295450008707121, 0.30300000798888505, 0.3095499996561557, 0.29505000566132367, 0.2975999959744513, 0.3011499939020723, 0.2961999998660758, 0.2977499971166253, 0.3015999973285943, 0.29725000786129385, 0.3036499983863905, 0.2926500019384548, 0.3278499934822321, 0.30020000122021884, 0.2973000082420185, 0.31010000384412706, 0.3012500092154369, 0.3044500044779852, 0.2941999991890043, 0.294850004138425, 0.298099999781698, 0.4538000066531822, 0.3042499884031713, 0.4211000050418079, 0.29930000891909003, 0.29504999110940844, 0.2959500125143677, 0.29584999720100313, 0.2888000017264858, 0.2847499999916181, 0.3037999995285645, 0.29075000202283263, 0.2977499971166253, 0.3020000003743917, 0.3051000094274059, 0.2906000008806586, 0.3062000032514334, 0.3086500073550269, 0.2958999975817278, 0.29024999821558595, 0.2956500102300197, 0.2954499941552058, 0.2975999959744513, 0.2965500025311485, 0.294700002996251, 0.3036499983863905, 0.2918499958468601, 0.2965500025311485, 0.2920499973697588, 0.2952499926323071, 0.3031000087503344, 0.29260000155773014, 0.30020000122021884, 0.28905000363010913, 0.2875500067602843, 0.3031499945791438, 0.29379999614320695, 0.29590001213364303, 0.3002500016009435, 0.29260000155773014, 0.3001000004587695, 0.30145001073833555, 0.3001000004587695, 0.29429999995045364, 0.29129999165888876, 0.3156500024488196, 0.2945999876828864, 0.28994999593123794, 0.29925000853836536, 0.2932499919552356, 0.301349995424971, 0.2969999914057553, 0.2946499880636111, 0.3023000026587397, 0.3011499939020723, 0.2986000035889447, 0.312299991492182, 0.30344999686349183, 0.29520000680349767, 0.29255000117700547, 0.3032999957213178, 0.30759999935980886, 0.29385001107584685, 0.29105000430718064, 0.2994999958900735, 0.29784999787807465, 0.31194998882710934, 0.30249998962972313, 0.29349999385885894, 0.3179500054102391, 0.29170000925660133, 0.2988499909406528, 0.29340000764932483, 0.29599999834317714, 0.3040000010514632, 0.29504999110940844, 0.3025499900104478, 0.2932499919552356, 0.29889999132137746, 0.29939999512862414, 0.2945000014733523, 0.2960499987239018, 0.2900499966926873, 0.2978999982587993, 0.29939999512862414, 0.2927000023191795, 0.2857999934349209, 0.2935999946203083, 0.30154999694786966, 0.30520001018885523, 0.3205499961040914, 0.30339999648276716, 0.29429999995045364, 0.30359999800566584, 0.3071500104852021, 0.31535000016447157, 0.2970500063383952, 0.294550001854077, 0.29614999948535115, 0.297949998639524, 0.28980000934097916, 0.3061500028707087, 0.30205000075511634, 0.29090000316500664, 0.29490000451914966, 0.30470000638160855, 0.3067499928874895, 0.29179999546613544, 0.298400002066046, 0.2974499948322773, 0.29409999842755497, 0.30220000189729035, 0.2969000051962212, 0.3115500003332272, 0.3012000088347122, 0.301799998851493, 0.29769999673590064, 0.29660000291187316, 0.3029000072274357, 0.3168499970342964, 0.291600008495152, 0.2970000059576705, 0.29969999741297215, 0.29385001107584685, 0.29749999521300197, 0.2921999985119328, 0.32294999982696027, 0.28715000371448696, 0.3004500031238422, 0.29645000176969916, 0.2978999982587993, 0.291000003926456, 0.30255000456236303, 0.2898499951697886, 0.3039500006707385, 0.30485000752378255, 0.2974499948322773, 0.3011499939020723, 0.2993500092998147, 0.29630000062752515, 0.2917499950854108, 0.32360000477638096, 0.33129999064840376, 0.3220000071451068, 0.29429999995045364, 0.3068999940296635, 0.29960001120343804, 0.3100000030826777, 0.294550001854077, 0.3090999962296337, 0.31149999995250255, 0.30184999923221767, 0.29830000130459666, 0.301349995424971, 0.29394999728538096, 0.29335000726860017, 0.30479999259114265, 0.3005500038852915, 0.30574999982491136, 0.30860000697430223, 0.29215001268312335, 0.29689999064430594, 0.294700002996251, 0.30455000523943454, 0.295150006422773, 0.2906000008806586, 0.49425000906921923, 0.2975999959744513, 0.2910499897552654, 0.29784999787807465, 0.3032999957213178, 0.2925000007962808, 0.2994999958900735, 0.3073999978369102, 0.29385001107584685, 0.3234999894630164, 0.3105000068899244, 0.34449998929630965, 0.22775000252295285, 0.3001000004587695, 0.40889999945648015, 0.29355000879149884, 0.29340000764932483, 0.29340000764932483, 0.2943500003311783, 0.28965000819880515, 0.29495000489987433, 0.294700002996251, 0.29660000291187316, 0.2916999947046861, 0.2912500058300793, 0.3001000004587695, 0.3052500105695799, 0.3071500104852021, 0.3043000033358112, 0.2949499903479591, 0.2919000107795, 0.29924999398645014, 0.29499999072868377, 0.29370000993367285, 0.2918499958468601, 0.29290000384207815, 0.29489998996723443, 0.28819999715778977, 0.2997499977936968, 0.3006999904755503, 0.298400002066046, 0.3068000078201294, 0.2992000081576407, 0.29335000726860017, 0.2997999981744215, 0.3031000087503344, 0.2994999958900735, 0.29414999880827963, 0.2946500026155263, 0.295000005280599, 0.2964000013889745, 0.3020000003743917, 0.2941999991890043, 0.29534999339375645, 0.2937500103143975, 0.31114999728742987, 0.3739500098163262, 0.3141000051982701, 0.2990500070154667, 0.3002500016009435, 0.29260000155773014, 0.2966499887406826, 0.30050000350456685, 0.29489998996723443, 0.29534999339375645, 0.30020000122021884, 0.2931000053649768, 0.3015999973285943, 0.3062000032514334, 0.2921499981312081, 0.3306500002508983, 0.2955499949166551, 0.29165000887587667, 0.3021999873453751, 0.2973500086227432, 0.3028999926755205, 0.29999999969732016, 0.2963500010082498, 0.2957499964395538, 0.3005500038852915, 0.29105000430718064, 0.29830000130459666, 0.30205000075511634, 0.30450000485870987, 0.29290000384207815],
  "Depth": 14.5,
  "Expectation Value": -5.848499774932861,
  "Optimal Expectation Value": -7.296229839324951,
  "Optimizer durations [ms]": [6.893, 7.519, 6.789, 7.073, 7.284, 6.899, 6.988, 6.86, 8.995, 6.928, 7.216, 6.828, 7.054, 6.963, 7.039, 6.622, 7.316, 7.089, 7.211, 7.032, 7.099, 7.098, 6.53, 6.762, 6.772, 6.975, 6.707, 7.241, 6.795, 6.918, 7.345, 6.848, 7.002, 6.779, 6.725, 7.271, 6.922, 6.768, 7.061, 6.727, 7.351, 6.659, 7.107, 7.271, 6.668, 7.087, 6.717, 6.877, 7.033, 6.824, 6.779, 7.072, 7.102, 6.794, 6.989, 6.993, 13.823, 7.107, 6.769, 7.34, 7.163, 6.941, 6.982, 6.654, 6.931, 7.156, 7.18, 7.049, 7.026, 6.913, 6.671, 7.227, 6.742, 7.19, 6.709, 7.18, 6.937, 7.015, 6.669, 6.936, 6.801, 6.742, 7.041, 6.972, 7.309, 6.848, 6.98, 6.587, 7.245, 7.333, 6.889, 6.898, 6.818, 6.992, 6.754, 7.376, 6.926, 8.226, 7.08, 7.48, 6.997, 7.036, 6.912, 7.067, 9.818, 7.576, 6.68, 7.548, 15.45, 6.938, 6.917, 11.141, 7.408, 7.102, 7.1, 8.065, 6.968, 6.737, 7.011, 10.814, 15.435, 7.154, 7.201, 6.544, 9.928, 6.789, 6.866, 7.42, 22.297, 7.079, 8.125, 7.156, 9.597, 6.672, 8.019, 7.119, 10.427, 17.981, 9.675, 6.715, 7.398, 7.957, 7.353, 6.569, 7.148, 7.055, 6.831, 7.029, 6.824, 7.228, 7.217, 6.983, 7.251, 7.088, 6.982, 7.096, 7.441, 6.946, 6.871, 7.216, 7.031, 6.752, 7.327, 6.943, 6.986, 6.994, 6.974, 7.051, 7.002, 6.815, 6.981, 7.361, 6.851, 6.927, 7.261, 6.539, 7.069, 7.321, 7.032, 7.124, 6.714, 7.126, 6.734, 7.022, 8.3, 7.023, 7.111, 13.651, 7.052, 7.208, 7.296, 6.979, 6.723, 6.915, 6.998, 7.119, 7.081, 6.833, 7.813, 7.313, 7.892, 7.366, 8.028, 6.789, 7.177, 6.924, 6.956, 7.084, 6.96, 7.326, 6.883, 7.128, 7.176, 7.048, 7.017, 6.957, 7.195, 6.706, 7.137, 7.141, 8.258, 7.108, 6.949, 7.256, 6.871, 7.116, 7.156, 7.286, 6.783, 7.022, 7.181, 6.795, 7.07, 6.629, 7.484, 9.066, 18.492, 10.703, 7.309, 6.859, 7.051, 7.076, 6.673, 7.082, 6.805, 6.823, 7.113, 7.208, 6.933, 7.006, 7.043, 7.121, 6.949, 6.958, 6.772, 6.818, 6.888, 7.078, 6.869, 7.241, 6.859, 6.689, 6.891, 6.869, 6.903, 6.837, 7.125, 6.925, 6.947, 6.724, 7.077, 6.951, 7.203, 7.076, 6.956, 7.027, 6.964, 7.036, 6.788, 6.956, 10.39, 7.044, 6.989, 6.933, 6.822, 6.887, 7.154, 6.704, 7.248, 7.169, 7.257, 7.117, 6.947, 6.745, 6.883, 7.096, 7.112, 6.87, 7.051, 6.983, 6.844, 7.079, 6.851, 6.963, 6.763, 7.042, 6.756, 7.124, 7.176, 6.901, 6.906, 6.542, 7.183, 7.076, 6.966, 7.059, 6.817, 7.148, 7.111, 6.844, 6.989, 8.192, 7.177, 7.374, 6.781, 7.163, 13.489, 6.788, 7.051, 6.815, 7.123, 6.906, 6.874, 7.457, 6.962, 7.01, 6.926, 6.541, 7.416, 6.665, 7.082, 7.194, 7.509, 7.169, 6.931, 7.327, 6.956, 7.022, 7.041, 6.998, 6.827, 6.888, 7.062, 6.939, 6.973, 7.113, 7.416, 6.94, 7.035, 7.017, 6.995, 6.901, 6.784, 7.443, 6.821, 7.212, 7.483, 7.079, 6.745, 7.388, 7.092, 6.974, 7.046, 6.805, 7.107, 10.152, 17.337, 9.882, 6.999, 6.956, 7.012, 6.62, 6.776, 6.679, 7.1, 6.885, 6.912, 7.023, 6.966, 7.165, 6.831, 7.359, 6.727, 7.495, 6.747, 6.877, 7.224, 7.078, 6.843, 6.95, 7.064, 6.739, 7.058, 6.958, 6.812, 7.128, 7.017, 6.66, 6.973, 7.127, 7.13, 6.604, 7.109, 6.907, 6.734, 7.198, 7.132, 6.729, 6.653, 7.309, 10.21, 7.153, 6.681, 7.012, 7.263, 6.691, 6.733, 7.04, 7.201, 6.937, 7.147, 7.19, 6.561, 7.028, 6.916, 7.337, 6.77, 7.075, 6.773, 6.788, 7.478, 7.06, 6.814, 7.381, 6.533, 7.359, 6.809, 6.934, 7.21, 6.921, 6.755, 7.052, 7.047, 6.98, 6.718, 7.064, 6.602, 7.175, 7.057, 6.855, 6.663, 7.324, 6.727, 7.17, 7.308, 13.453, 6.894, 7.105, 7.298, 7.459, 6.558, 7.087, 7.139, 6.72, 6.918, 7.195, 7.105, 6.847, 6.918, 7.104, 6.962, 7.191, 6.748, 7.17, 6.913, 7.063, 6.651, 7.313, 7.018, 7.107, 6.899, 6.905, 7.274, 7.179, 6.909, 6.792, 7.098, 6.856, 7.003, 6.543, 7.632, 6.674, 7.306, 6.889, 6.943, 6.925, 7.255, 7.155, 7.293, 7.192, 6.748, 7.123, 7.1, 6.619, 7.054, 7.418, 9.509, 7.663, 6.78, 7.188, 14.721, 7.33, 6.934, 10.565, 7.143, 7.145, 6.89, 8.84, 6.88, 6.622, 7.395, 16.858, 9.17, 6.955, 7.262, 6.93, 8.883, 7.33, 6.661, 6.959, 10.721, 13.843, 7.08, 7.732, 7.166, 6.57, 8.516, 7.1, 6.59, 7.645, 18.622, 8.78, 5.58, 6.828, 9.058, 6.971, 6.809, 6.691, 7.081, 6.703, 7.132, 6.735, 6.981, 6.628, 7.054, 6.822, 7.473, 6.87, 7.402, 6.844, 7.118, 7.019, 7.122, 6.823, 6.568, 6.994, 6.786, 6.875, 7.163, 7.058, 7.177, 7.131, 6.865, 6.924, 6.96, 7.228, 6.832, 7.164, 6.61, 7.233, 6.944, 7.019, 6.92, 7.027, 6.568, 7.225, 8.548, 7.246, 12.925, 6.954, 6.936, 6.947, 6.973, 7.001, 7.094, 7.038, 6.817, 7.114, 7.114, 7.026, 7.704, 6.801, 7.047, 6.949, 6.728, 7.199, 6.825, 7.206, 6.942, 6.864, 7.057, 6.872, 7.016, 6.976, 7.036],
  "Optimizer iterations": 625,
  "Optimizer params": [0.2509985240297682, 0.9400215307084278, 0.5676548708583612, 0.5639687446545192, 0.43321041376466135, 0.601448286135347, 0.8782375791622843, 0.8661330222977499, 0.9884707381193142, 0.14249054608633616, 0.3221972419152616, 0.9961343855121312, 0.9719376716973054, 0.49736394363522013, 0.5302516629681833, 0.04674252907870078, 0.9747407540806327, 0.10412667314959982, 0.6800486796683596, 0.07235332172046183, 0.5728318392043933, 0.46107103027802454, 0.14562850976426892, 0.19151916505461464],
  "P": 0,
  "Problem": "IC",
  "QJob durations [ms]": [0.29839998751413077, 0.3102000046055764, 0.2918999962275848, 0.3073999978369102, 0.3025499900104478, 0.301499996567145, 0.29594999796245247, 0.2999499993165955, 0.29164999432396144, 0.3020999865839258, 0.3030499938176945, 0.294850004138425, 0.29350000841077417, 0.29654998797923326, 0.2958999975817278, 0.29630000062752515, 0.31799999123904854, 0.29614999948535115, 0.3078500012634322, 0.301499996567145, 0.30544999754056334, 0.2945999876828864, 0.2936000091722235, 0.29255000117700547, 0.28750000637955964, 0.2927000023191795, 0.2932499919552356, 0.31060000765137374, 0.28539999038912356, 0.30189999961294234, 0.30115000845398754, 0.29984999855514616, 0.2896000078180805, 0.2955999952973798, 0.2934500080300495, 0.29409999842755497, 0.29865000396966934, 0.2912500058300793, 0.30074999085627496, 0.291300006210804, 0.3029500076081604, 0.2971499925479293, 0.3036999987671152, 0.2938999969046563, 0.2935999946203083, 0.2889500028686598, 0.2921999985119328, 0.2964999875985086, 0.2929500042228028, 0.2954499941552058, 0.29850000282749534, 0.301049993140623, 0.3020000003743917, 0.3002500016009435, 0.2943500003311783, 0.294850004138425, 0.3025499900104478, 0.29924999398645014, 0.29674998950213194, 0.3203000087523833, 0.302100001135841, 0.2962500002468005, 0.2889000024879351, 0.2935499942395836, 0.2969999914057553, 0.29689999064430594, 0.31844999466557056, 0.304899993352592, 0.291600008495152, 0.2925000007962808, 0.2965000021504238, 0.2982000005431473, 0.29329999233596027, 0.2955999952973798, 0.3008499916177243, 0.3125000075669959, 0.29185001039877534, 0.29429999995045364, 0.28974999440833926, 0.29414999880827963, 0.2945999876828864, 0.29170000925660133, 0.2935999946203083, 0.29830000130459666, 0.30405000143218786, 0.29549999453593045, 0.294850004138425, 0.29445000109262764, 0.31689999741502106, 0.295000005280599, 0.2964000013889745, 0.2928999892901629, 0.29394999728538096, 0.2970999921672046, 0.2938499965239316, 0.2994999958900735, 0.29590001213364303, 0.36550000368151814, 0.3079000016441569, 0.3105500072706491, 0.3001000004587695, 0.2995999966515228, 0.29164999432396144, 0.2987500047311187, 0.3080000024056062, 0.3259000077378005, 0.2957499964395538, 0.30494999373331666, 0.30005000007804483, 0.2932499919552356, 0.29460000223480165, 0.3071999963140115, 0.3304499987279996, 0.3034000110346824, 0.29659998835995793, 0.297949998639524, 0.2964000013889745, 0.2937499957624823, 0.3003000019816682, 0.2692499983822927, 0.3004500031238422, 0.3014000103576109, 0.30270000570453703, 0.29329999233596027, 0.3011499939020723, 0.2955999952973798, 0.3007000050274655, 0.2956500102300197, 0.2706500090425834, 0.2952999930130318, 0.3511499962769449, 0.29909999284427613, 0.4424499929882586, 0.29525000718422234, 0.3476999991107732, 0.28920000477228314, 0.4795499989995733, 0.4913999873679131, 0.4184499994153157, 0.2961999998660758, 0.3120500041404739, 0.30530001095030457, 0.3109499957645312, 0.29614999948535115, 0.29460000223480165, 0.29895000625401735, 0.2907499874709174, 0.29815000016242266, 0.29329999233596027, 0.3144000074826181, 0.2994999958900735, 0.2969499910250306, 0.3081500035477802, 0.3050500090466812, 0.29799999902024865, 0.301049993140623, 0.3178999904775992, 0.30015000083949417, 0.2928999892901629, 0.3037999995285645, 0.3060000017285347, 0.29584999720100313, 0.30899999546818435, 0.297949998639524, 0.2994999958900735, 0.3063000040128827, 0.2987500047311187, 0.3074500127695501, 0.3073499974561855, 0.2906500012613833, 0.29954999627079815, 0.3065999917453155, 0.2947499888250604, 0.30205000075511634, 0.29149999318178743, 0.29334999271668494, 0.2889500028686598, 0.29674998950213194, 0.304749992210418, 0.3004500031238422, 0.298850005492568, 0.2918499958468601, 0.29334999271668494, 0.29975001234561205, 0.3617999900598079, 0.2971500070998445, 0.2951499918708578, 0.2999499993165955, 0.29895000625401735, 0.30759999935980886, 0.3032999957213178, 0.2962500002468005, 0.2923499996541068, 0.2937499957624823, 0.3014499961864203, 0.2952999930130318, 0.3087999939452857, 0.29519999225158244, 0.30514999525621533, 0.3105500072706491, 0.2975999959744513, 0.30965000041760504, 0.34764999873004854, 0.29319999157451093, 0.301799998851493, 0.2979500131914392, 0.29799999902024865, 0.29984999855514616, 0.29845000244677067, 0.30345001141540706, 0.2963500010082498, 0.3101500042248517, 0.31194998882710934, 0.29754999559372663, 0.30080000578891486, 0.2943500003311783, 0.30425000295508653, 0.29930000891909003, 0.29399999766610563, 0.30080000578891486, 0.38124999264255166, 0.30130000959616154, 0.299000006634742, 0.3066500066779554, 0.29895000625401735, 0.30344999686349183, 0.29990001348778605, 0.3141000051982701, 0.2938499965239316, 0.29895000625401735, 0.30264999077189714, 0.29245000041555613, 0.29525000718422234, 0.2965000021504238, 0.304749992210418, 0.40830000943969935, 0.3965499927289784, 0.4581499961204827, 0.3044500044779852, 0.30559999868273735, 0.2996499970322475, 0.2906000008806586, 0.2973500086227432, 0.29909999284427613, 0.29594999796245247, 0.294550001854077, 0.29984999855514616, 0.2974499948322773, 0.301499996567145, 0.2900499966926873, 0.29754999559372663, 0.30980000155977905, 0.30015000083949417, 0.29779999749735, 0.2967000036733225, 0.29475000337697566, 0.29355000879149884, 0.29349999385885894, 0.30235000303946435, 0.29940000968053937, 0.2945000014733523, 0.29409999842755497, 0.2914000069722533, 0.2912499912781641, 0.2959500125143677, 0.2894999925047159, 0.30294999305624515, 0.2969000051962212, 0.3029500076081604, 0.2980499994009733, 0.2918999962275848, 0.2961999998660758, 0.30089999199844897, 0.2977499971166253, 0.29320000612642616, 0.29960001120343804, 0.294400000711903, 0.3020000003743917, 0.2972999936901033, 0.29740000900346786, 0.30440000409726053, 0.29490000451914966, 0.29654998797923326, 0.298400002066046, 0.2938999969046563, 0.29299999005161226, 0.30094999237917364, 0.2935499942395836, 0.30455000523943454, 0.3041000018129125, 0.30934999813325703, 0.3023000026587397, 0.29429999995045364, 0.2898500097217038, 0.29209999775048345, 0.2996499970322475, 0.3013500099768862, 0.2926500019384548, 0.2995500108227134, 0.3100000030826777, 0.2925000007962808, 0.3148499963572249, 0.29260000155773014, 0.28780000866390765, 0.298400002066046, 0.29579999682027847, 0.2978999982587993, 0.29400001221802086, 0.3097500011790544, 0.29490000451914966, 0.2899000101024285, 0.29209999775048345, 0.29370000993367285, 0.29409999842755497, 0.29639998683705926, 0.29320000612642616, 0.2998000127263367, 0.29194999660830945, 0.30450000485870987, 0.2994999958900735, 0.2913999924203381, 0.3701499954331666, 0.305800000205636, 0.3071000101044774, 0.2975999959744513, 0.298099999781698, 0.29960001120343804, 0.2964000013889745, 0.2938999969046563, 0.298700004350394, 0.30450000485870987, 0.2927000023191795, 0.29674998950213194, 0.3101499896729365, 0.29644998721778393, 0.2973500086227432, 0.295000005280599, 0.294850004138425, 0.30520001018885523, 0.29889999132137746, 0.30189999961294234, 0.3058500005863607, 0.33275000168941915, 0.3073499974561855, 0.29784999787807465, 0.30840000545140356, 0.2989999920828268, 0.30005000007804483, 0.29855000320822, 0.29755001014564186, 0.29409999842755497, 0.29954999627079815, 0.2902999985963106, 0.30309999419841915, 0.295450008707121, 0.30300000798888505, 0.3095499996561557, 0.29505000566132367, 0.2975999959744513, 0.3011499939020723, 0.2961999998660758, 0.2977499971166253, 0.3015999973285943, 0.29725000786129385, 0.3036499983863905, 0.2926500019384548, 0.3278499934822321, 0.30020000122021884, 0.2973000082420185, 0.31010000384412706, 0.3012500092154369, 0.3044500044779852, 0.2941999991890043, 0.294850004138425, 0.298099999781698, 0.4538000066531822, 0.3042499884031713, 0.4211000050418079, 0.29930000891909003, 0.29504999110940844, 0.2959500125143677, 0.29584999720100313, 0.2888000017264858, 0.2847499999916181, 0.3037999995285645, 0.29075000202283263, 0.2977499971166253, 0.3020000003743917, 0.3051000094274059, 0.2906000008806586, 0.3062000032514334, 0.3086500073550269, 0.2958999975817278, 0.29024999821558595, 0.2956500102300197, 0.2954499941552058, 0.2975999959744513, 0.2965500025311485, 0.294700002996251, 0.3036499983863905, 0.2918499958468601, 0.2965500025311485, 0.2920499973697588, 0.2952499926323071, 0.3031000087503344, 0.29260000155773014, 0.30020000122021884, 0.28905000363010913, 0.2875500067602843, 0.3031499945791438, 0.29379999614320695, 0.29590001213364303, 0.3002500016009435, 0.29260000155773014, 0.3001000004587695, 0.30145001073833555, 0.3001000004587695, 0.29429999995045364, 0.29129999165888876, 0.3156500024488196, 0.2945999876828864, 0.28994999593123794, 0.29925000853836536, 0.2932499919552356, 0.301349995424971, 0.2969999914057553, 0.2946499880636111, 0.3023000026587397, 0.3011499939020723, 0.2986000035889447, 0.312299991492182, 0.30344999686349183, 0.29520000680349767, 0.29255000117700547, 0.3032999957213178, 0.30759999935980886, 0.29385001107584685, 0.29105000430718064, 0.2994999958900735, 0.29784999787807465, 0.31194998882710934, 0.30249998962972313, 0.29349999385885894, 0.3179500054102391, 0.29170000925660133, 0.2988499909406528, 0.29340000764932483, 0.29599999834317714, 0.3040000010514632, 0.29504999110940844, 0.3025499900104478, 0.2932499919552356, 0.29889999132137746, 0.29939999512862414, 0.2945000014733523, 0.2960499987239018, 0.2900499966926873, 0.2978999982587993, 0.29939999512862414, 0.2927000023191795, 0.2857999934349209, 0.2935999946203083, 0.30154999694786966, 0.30520001018885523, 0.3205499961040914, 0.30339999648276716, 0.29429999995045364, 0.30359999800566584, 0.3071500104852021, 0.31535000016447157, 0.2970500063383952, 0.294550001854077, 0.29614999948535115, 0.297949998639524, 0.28980000934097916, 0.3061500028707087, 0.30205000075511634, 0.29090000316500664, 0.29490000451914966, 0.30470000638160855, 0.3067499928874895, 0.29179999546613544, 0.298400002066046, 0.2974499948322773, 0.29409999842755497, 0.30220000189729035, 0.2969000051962212, 0.3115500003332272, 0.3012000088347122, 0.301799998851493, 0.29769999673590064, 0.29660000291187316, 0.3029000072274357, 0.3168499970342964, 0.291600008495152, 0.2970000059576705, 0.29969999741297215, 0.29385001107584685, 0.29749999521300197, 0.2921999985119328, 0.32294999982696027, 0.28715000371448696, 0.3004500031238422, 0.29645000176969916, 0.2978999982587993, 0.291000003926456, 0.30255000456236303, 0.2898499951697886, 0.3039500006707385, 0.30485000752378255, 0.2974499948322773, 0.3011499939020723, 0.2993500092998147, 0.29630000062752515, 0.2917499950854108, 0.32360000477638096, 0.33129999064840376, 0.3220000071451068, 0.29429999995045364, 0.3068999940296635, 0.29960001120343804, 0.3100000030826777, 0.294550001854077, 0.3090999962296337, 0.31149999995250255, 0.30184999923221767, 0.29830000130459666, 0.301349995424971, 0.29394999728538096, 0.29335000726860017, 0.30479999259114265, 0.3005500038852915, 0.30574999982491136, 0.30860000697430223, 0.29215001268312335, 0.29689999064430594, 0.294700002996251, 0.30455000523943454, 0.295150006422773, 0.2906000008806586, 0.49425000906921923, 0.2975999959744513, 0.2910499897552654, 0.29784999787807465, 0.3032999957213178, 0.2925000007962808, 0.2994999958900735, 0.3073999978369102, 0.29385001107584685, 0.3234999894630164, 0.3105000068899244, 0.34449998929630965, 0.22775000252295285, 0.3001000004587695, 0.40889999945648015, 0.29355000879149884, 0.29340000764932483, 0.29340000764932483, 0.2943500003311783, 0.28965000819880515, 0.29495000489987433, 0.294700002996251, 0.29660000291187316, 0.2916999947046861, 0.2912500058300793, 0.3001000004587695, 0.3052500105695799, 0.3071500104852021, 0.3043000033358112, 0.2949499903479591, 0.2919000107795, 0.29924999398645014, 0.29499999072868377, 0.29370000993367285, 0.2918499958468601, 0.29290000384207815, 0.29489998996723443, 0.28819999715778977, 0.2997499977936968, 0.3006999904755503, 0.298400002066046, 0.3068000078201294, 0.2992000081576407, 0.29335000726860017, 0.2997999981744215, 0.3031000087503344, 0.2994999958900735, 0.29414999880827963, 0.2946500026155263, 0.295000005280599, 0.2964000013889745, 0.3020000003743917, 0.2941999991890043, 0.29534999339375645, 0.2937500103143975, 0.31114999728742987, 0.3739500098163262, 0.3141000051982701, 0.2990500070154667, 0.3002500016009435, 0.29260000155773014, 0.2966499887406826, 0.30050000350456685, 0.29489998996723443, 0.29534999339375645, 0.30020000122021884, 0.2931000053649768, 0.3015999973285943, 0.3062000032514334, 0.2921499981312081, 0.3306500002508983, 0.2955499949166551, 0.29165000887587667, 0.3021999873453751, 0.2973500086227432, 0.3028999926755205, 0.29999999969732016, 0.2963500010082498, 0.2957499964395538, 0.3005500038852915, 0.29105000430718064, 0.29830000130459666, 0.30205000075511634, 0.30450000485870987, 0.29290000384207815],
  "QPU": "7000000",
  "Qubits": 6,
  "Queue durations [ms]": [0.0, 0.0, 0.0, 0.0, 0.0, 0.0, 0.0, 0.0, 0.0, 0.0, 0.0, 0.0, 0.0, 0.0, 0.0, 0.0, 0.0, 0.0, 0.0, 0.0, 0.0, 0.0, 0.0, 0.0, 0.0, 0.0, 0.0, 0.0, 0.0, 0.0, 0.0, 0.0, 0.0, 0.0, 0.0, 0.0, 0.0, 0.0, 0.0, 0.0, 0.0, 0.0, 0.0, 0.0, 0.0, 0.0, 0.0, 0.0, 0.0, 0.0, 0.0, 0.0, 0.0, 0.0, 0.0, 0.0, 0.0, 0.0, 0.0, 0.0, 0.0, 0.0, 0.0, 0.0, 0.0, 0.0, 0.0, 0.0, 0.0, 0.0, 0.0, 0.0, 0.0, 0.0, 0.0, 0.0, 0.0, 0.0, 0.0, 0.0, 0.0, 0.0, 0.0, 0.0, 0.0, 0.0, 0.0, 0.0, 0.0, 0.0, 0.0, 0.0, 0.0, 0.0, 0.0, 0.0, 0.0, 0.0, 0.0, 0.0, 0.0, 0.0, 0.0, 0.0, 0.0, 0.0, 0.0, 0.0, 0.0, 0.0, 0.0, 0.0, 0.0, 0.0, 0.0, 0.0, 0.0, 0.0, 0.0, 0.0, 0.0, 0.0, 0.0, 0.0, 0.0, 0.0, 0.0, 0.0, 0.0, 0.0, 0.0, 0.0, 0.0, 0.0, 0.0, 0.0, 0.0, 0.0, 0.0, 0.0, 0.0, 0.0, 0.0, 0.0, 0.0, 0.0, 0.0, 0.0, 0.0, 0.0, 0.0, 0.0, 0.0, 0.0, 0.0, 0.0, 0.0, 0.0, 0.0, 0.0, 0.0, 0.0, 0.0, 0.0, 0.0, 0.0, 0.0, 0.0, 0.0, 0.0, 0.0, 0.0, 0.0, 0.0, 0.0, 0.0, 0.0, 0.0, 0.0, 0.0, 0.0, 0.0, 0.0, 0.0, 0.0, 0.0, 0.0, 0.0, 0.0, 0.0, 0.0, 0.0, 0.0, 0.0, 0.0, 0.0, 0.0, 0.0, 0.0, 0.0, 0.0, 0.0, 0.0, 0.0, 0.0, 0.0, 0.0, 0.0, 0.0, 0.0, 0.0, 0.0, 0.0, 0.0, 0.0, 0.0, 0.0, 0.0, 0.0, 0.0, 0.0, 0.0, 0.0, 0.0, 0.0, 0.0, 0.0, 0.0, 0.0, 0.0, 0.0, 0.0, 0.0, 0.0, 0.0, 0.0, 0.0, 0.0, 0.0, 0.0, 0.0, 0.0, 0.0, 0.0, 0.0, 0.0, 0.0, 0.0, 0.0, 0.0, 0.0, 0.0, 0.0, 0.0, 0.0, 0.0, 0.0, 0.0, 0.0, 0.0, 0.0, 0.0, 0.0, 0.0, 0.0, 0.0, 0.0, 0.0, 0.0, 0.0, 0.0, 0.0, 0.0, 0.0, 0.0, 0.0, 0.0, 0.0, 0.0, 0.0, 0.0, 0.0, 0.0, 0.0, 0.0, 0.0, 0.0, 0.0, 0.0, 0.0, 0.0, 0.0, 0.0, 0.0, 0.0, 0.0, 0.0, 0.0, 0.0, 0.0, 0.0, 0.0, 0.0, 0.0, 0.0, 0.0, 0.0, 0.0, 0.0, 0.0, 0.0, 0.0, 0.0, 0.0, 0.0, 0.0, 0.0, 0.0, 0.0, 0.0, 0.0, 0.0, 0.0, 0.0, 0.0, 0.0, 0.0, 0.0, 0.0, 0.0, 0.0, 0.0, 0.0, 0.0, 0.0, 0.0, 0.0, 0.0, 0.0, 0.0, 0.0, 0.0, 0.0, 0.0, 0.0, 0.0, 0.0, 0.0, 0.0, 0.0, 0.0, 0.0, 0.0, 0.0, 0.0, 0.0, 0.0, 0.0, 0.0, 0.0, 0.0, 0.0, 0.0, 0.0, 0.0, 0.0, 0.0, 0.0, 0.0, 0.0, 0.0, 0.0, 0.0, 0.0, 0.0, 0.0, 0.0, 0.0, 0.0, 0.0, 0.0, 0.0, 0.0, 0.0, 0.0, 0.0, 0.0, 0.0, 0.0, 0.0, 0.0, 0.0, 0.0, 0.0, 0.0, 0.0, 0.0, 0.0, 0.0, 0.0, 0.0, 0.0, 0.0, 0.0, 0.0, 0.0, 0.0, 0.0, 0.0, 0.0, 0.0, 0.0, 0.0, 0.0, 0.0, 0.0, 0.0, 0.0, 0.0, 0.0, 0.0, 0.0, 0.0, 0.0, 0.0, 0.0, 0.0, 0.0, 0.0, 0.0, 0.0, 0.0, 0.0, 0.0, 0.0, 0.0, 0.0, 0.0, 0.0, 0.0, 0.0, 0.0, 0.0, 0.0, 0.0, 0.0, 0.0, 0.0, 0.0, 0.0, 0.0, 0.0, 0.0, 0.0, 0.0, 0.0, 0.0, 0.0, 0.0, 0.0, 0.0, 0.0, 0.0, 0.0, 0.0, 0.0, 0.0, 0.0, 0.0, 0.0, 0.0, 0.0, 0.0, 0.0, 0.0, 0.0, 0.0, 0.0, 0.0, 0.0, 0.0, 0.0, 0.0, 0.0, 0.0, 0.0, 0.0, 0.0, 0.0, 0.0, 0.0, 0.0, 0.0, 0.0, 0.0, 0.0, 0.0, 0.0, 0.0, 0.0, 0.0, 0.0, 0.0, 0.0, 0.0, 0.0, 0.0, 0.0, 0.0, 0.0, 0.0, 0.0, 0.0, 0.0, 0.0, 0.0, 0.0, 0.0, 0.0, 0.0, 0.0, 0.0, 0.0, 0.0, 0.0, 0.0, 0.0, 0.0, 0.0, 0.0, 0.0, 0.0, 0.0, 0.0, 0.0, 0.0, 0.0, 0.0, 0.0, 0.0, 0.0, 0.0, 0.0, 0.0, 0.0, 0.0, 0.0, 0.0, 0.0, 0.0, 0.0, 0.0, 0.0, 0.0, 0.0, 0.0, 0.0, 0.0, 0.0, 0.0, 0.0, 0.0, 0.0, 0.0, 0.0, 0.0, 0.0, 0.0, 0.0, 0.0, 0.0, 0.0, 0.0, 0.0, 0.0, 0.0, 0.0, 0.0, 0.0, 0.0, 0.0, 0.0, 0.0, 0.0, 0.0, 0.0, 0.0, 0.0, 0.0, 0.0, 0.0, 0.0, 0.0, 0.0, 0.0, 0.0, 0.0, 0.0, 0.0, 0.0, 0.0, 0.0, 0.0, 0.0, 0.0, 0.0, 0.0, 0.0, 0.0, 0.0, 0.0, 0.0, 0.0, 0.0, 0.0, 0.0, 0.0, 0.0, 0.0, 0.0, 0.0, 0.0, 0.0, 0.0, 0.0],
  "Shots": 4096,
  "Size": 6,
  "Total Algorithm duration [s]": 4.586,
  "Total Classic duration [s]": 4.397086249959772,
  "Total Quantum duration [s]": 0.18891375004022848
}
