{
  "Circuit execution durations [ms]": [0.31704999855719507, 0.2927000023191795, 0.2935999946203083, 0.30429998878389597, 0.2888000017264858, 0.3038499999092892, 0.29009999707341194, 0.30359999800566584, 0.30294999305624515, 0.29495000489987433, 0.29799999902024865, 0.302400003420189, 0.30690000858157873, 0.3259999939473346, 0.2970000059576705, 0.2991499932250008, 0.3117000014754012, 0.31429999216925353, 0.2957499964395538, 0.28959999326616526, 0.2938999969046563, 0.3036999987671152, 0.28464999923016876, 0.29784999787807465, 0.28795000980608165, 0.2926500019384548, 0.30354999762494117, 0.30294999305624515, 0.29764999635517597, 0.2878500090446323, 0.2958999975817278, 0.301799998851493, 0.29460000223480165, 0.3037000133190304, 0.29355000879149884, 0.2989000058732927, 0.2871999895432964, 0.30315000913105905, 0.30130000959616154, 0.3004000027431175, 0.294550001854077, 0.2961999998660758, 0.2963500010082498, 0.29255000117700547, 0.3051000094274059, 0.29704999178647995, 0.3037999995285645, 0.29499999072868377, 0.2935999946203083, 0.29429999995045364, 0.2980499994009733, 0.29399999766610563, 0.29484998958650976, 0.305800000205636, 0.304899993352592, 0.3005499893333763, 0.29614999948535115, 0.2965000021504238, 0.297949998639524, 0.29594999796245247, 0.30714999593328685, 0.29284998890943825, 0.2960999991046265, 0.2940499980468303, 0.3212000010535121, 0.2909499889938161, 0.2994999958900735, 0.2993500092998147, 0.3033499961020425, 0.30535001133102924, 0.30420000257436186, 0.29584999720100313, 0.29945001006126404, 0.2960999991046265, 0.30065000464674085, 0.30020000122021884, 0.29414999880827963, 0.298700004350394, 0.29630000062752515, 0.29414999880827963, 0.30259999039117247, 0.2938499965239316, 0.3126499941572547, 0.2937499957624823, 0.3020000003743917, 0.30300000798888505, 0.302250002278015, 0.30184999923221767, 0.3091500111622736, 0.2918499958468601, 0.2958999975817278, 0.3071500104852021, 0.29569999605882913, 0.30189999961294234, 0.294700002996251, 0.30595000134781003, 0.2993500092998147, 0.29569999605882913, 0.29150000773370266, 0.30174999847076833, 0.2906000008806586, 0.301949999993667, 0.3016500122612342, 0.29579999682027847, 0.2990500070154667, 0.3130999975837767, 0.29424999956972897, 0.299000006634742, 0.2912499912781641, 0.2872500044759363, 0.29850000282749534, 0.2917499950854108, 0.2963499864563346, 0.298250000923872, 0.29695000557694584, 0.29055000049993396, 0.3021500015165657, 0.294850004138425, 0.2950999914901331, 0.3192000003764406, 0.2940500125987455, 0.3055499983020127, 0.30309999419841915, 0.2947499888250604, 0.2909500035457313, 0.302250002278015, 0.29149999318178743, 0.2940499980468303, 0.2894999925047159, 0.2982000005431473, 0.28819999715778977, 0.2967999898828566, 0.2969499910250306, 0.2894500066759065, 0.298700004350394, 0.28830001247115433, 0.30339999648276716, 0.29255000117700547, 0.2921999985119328, 0.29319999157451093, 0.29185001039877534, 0.2996499970322475, 0.30610000248998404, 0.30145001073833555, 0.2974499948322773, 0.298099999781698, 0.27380000392440706, 0.29719999292865396, 0.3470499941613525, 0.30184999923221767, 0.2953999937744811, 0.2969999914057553, 0.29799999902024865, 0.30354999762494117, 0.3055499983020127, 0.28369999199640006, 0.43125000956933945, 0.29739999445155263, 0.305649999063462, 0.3009999927598983, 0.29510000604204834, 0.2972000074805692, 0.2909500035457313, 0.3031999949598685, 0.301949999993667, 0.30694999441038817, 0.2970500063383952, 0.3083000046899542, 0.29255000117700547, 0.29984999855514616, 0.29240000003483146, 0.30574999982491136, 0.29475000337697566, 0.2943500003311783, 0.2954499941552058, 0.3028499922947958, 0.30544999754056334, 0.294850004138425, 0.3052500105695799, 0.29645000176969916, 0.2914000069722533, 0.29969999741297215, 0.29079998785164207, 0.2953999937744811, 0.2955999952973798, 0.3147000097669661, 0.29490000451914966, 0.2977499971166253, 0.2884499990614131, 0.3003000019816682, 0.2965500025311485, 0.30759999935980886, 0.29590001213364303, 0.2929500042228028, 0.30050000350456685, 0.305499997921288, 0.29830000130459666, 0.29835000168532133, 0.2966499887406826, 0.29969999741297215, 0.3107999946223572, 0.29824998637195677, 0.2998999989358708, 0.2891000040108338, 0.31310001213569194, 0.29349999385885894, 0.2978999982587993, 0.3336999943712726, 0.2948000037577003, 0.29999999969732016, 0.2929500042228028, 0.301949999993667, 0.29689999064430594, 0.31364998721983284, 0.30514999525621533, 0.26869999419432133, 0.2712499990593642, 0.4733499954454601, 0.29799999902024865, 0.3878000134136528, 0.2963500010082498, 0.2908000024035573, 0.2919000107795, 0.2946500026155263, 0.30184999923221767, 0.29504999110940844, 0.29170000925660133, 0.2970000059576705, 0.3252500027883798, 0.29115000506863, 0.29170000925660133, 0.3047500067623332, 0.2946500026155263, 0.30839999089948833, 0.32619999547023326, 0.302250002278015, 0.29290000384207815, 0.29325000650715083, 0.2934499934781343, 0.3021999873453751, 0.2889000024879351, 0.3987499949289486, 0.301499996567145, 0.30605000210925937, 0.2929499896708876, 0.33910000638570637, 0.3165499947499484, 0.42394999763928354, 0.29504999110940844, 0.29710000671911985, 0.3074999985983595, 0.2936999953817576, 0.307999987853691, 0.3055499983020127, 0.2943500003311783, 0.2943500003311783, 0.30944999889470637, 0.2948000037577003, 0.2954499941552058, 0.2884999994421378, 0.2960499987239018, 0.2906500012613833, 0.3001999866683036, 0.29490000451914966, 0.29584999720100313, 0.3080999886151403, 0.297949998639524, 0.29164999432396144, 0.2957499964395538, 0.2928500034613535, 0.2935499942395836, 0.29129999165888876, 0.2970500063383952, 0.28744999144691974, 0.294400000711903, 0.2915499935625121, 0.2921499981312081, 0.2926500019384548, 0.29909999284427613, 0.3012000088347122, 0.3126499941572547, 0.2987500047311187, 0.3029500076081604, 0.29984999855514616, 0.2943500003311783, 0.2928500034613535, 0.30344999686349183, 0.2937499957624823, 0.2986999897984788, 0.3109499957645312, 0.3031999949598685, 0.3015000111190602, 0.28995001048315316, 0.29180001001805067, 0.2943500003311783, 0.29224999889265746, 0.2989499917021021, 0.29855000320822, 0.2982000005431473, 0.29085000278428197, 0.2892499906010926, 0.3096000000368804, 0.301949999993667, 0.29255000117700547, 0.29665000329259783, 0.29855000320822, 0.29305000498425215, 0.3030499938176945, 0.29415001336019486, 0.294550001854077, 0.2960499987239018, 0.2957499964395538, 0.2990500070154667, 0.299000006634742, 0.298099999781698, 0.2944499865407124, 0.30174999847076833, 0.2916999947046861, 0.2951499918708578, 0.29079998785164207, 0.29454998730216175, 0.2958999975817278, 0.2994499955093488, 0.28979999478906393, 0.29534999339375645, 0.2919999969890341, 0.2986000035889447, 0.3194499877281487, 0.30109999352134764, 0.29855000320822, 0.3005499893333763, 0.301349995424971, 0.2955499949166551, 0.29424999956972897, 0.29460000223480165, 0.29340000764932483, 0.30280000646598637, 0.2967999898828566, 0.29909999284427613, 0.3005500038852915, 0.29224999889265746, 0.2940499980468303, 0.2954499941552058, 0.28824999753851444, 0.29924999398645014, 0.2952999930130318, 0.2969000051962212, 0.2912499912781641, 0.299000006634742, 0.29549999453593045, 0.2936999953817576, 0.30590000096708536, 0.30079999123699963, 0.30374999914783984, 0.3005500038852915, 0.3015500114997849, 0.4020500055048615, 0.29475000337697566, 0.29815000016242266, 0.2974499948322773, 0.3005500038852915, 0.29409999842755497, 0.294550001854077, 0.29079998785164207, 0.2921499981312081, 0.29740000900346786, 0.29614999948535115, 0.31254999339580536, 0.2951499918708578, 0.31674999627284706, 0.3007500054081902, 0.3066000062972307, 0.2965500025311485, 0.2889500028686598, 0.2980499994009733, 0.3043000033358112, 0.30485000752378255, 0.29504999110940844, 0.29749999521300197, 0.29630000062752515, 0.30759999935980886, 0.29555000946857035, 0.32359999022446573, 0.3404999879421666, 0.29325000650715083, 0.2963500010082498, 0.3328999882796779, 0.3120500041404739, 0.45569999201688915, 0.29549999453593045, 0.29654998797923326, 0.29299999005161226, 0.29734999407082796, 0.2997999981744215, 0.2949499903479591, 0.29520000680349767, 0.3038499999092892, 0.29784999787807465, 0.2920499973697588, 0.29475000337697566, 0.2987500047311187, 0.301499996567145, 0.29760001052636653, 0.29290000384207815, 0.32204999297391623, 0.2975000097649172, 0.2896499936468899, 0.2906000008806586, 0.3070999955525622, 0.2926500019384548, 0.29564999567810446, 0.2921499981312081, 0.28905000363010913, 0.2943500003311783, 0.29675000405404717, 0.30590000096708536, 0.3249500005040318, 0.3010500076925382, 0.294850004138425, 0.29815000016242266, 0.30604998755734414, 0.30405000143218786, 0.30094999237917364, 0.29350000841077417, 0.3007500054081902, 0.2930000046035275, 0.302100001135841, 0.29850000282749534, 0.2904499997384846, 0.29719999292865396, 0.3096000000368804, 0.29305000498425215, 0.3007000050274655, 0.2960999991046265, 0.3005500038852915, 0.2893000055337325, 0.29490000451914966, 0.30494999373331666, 0.29660000291187316, 0.2907499874709174, 0.2965500025311485, 0.2918499958468601, 0.29510000604204834, 0.30109999352134764, 0.2992999943671748, 0.29414999880827963, 0.2963500010082498, 0.292200013063848, 0.3051000094274059, 0.2921499981312081, 0.29245000041555613, 0.2947999892057851, 0.29710000671911985, 0.2973500086227432, 0.29414999880827963, 0.2941999991890043, 0.2931500057457015, 0.30684999364893883, 0.2955499949166551, 0.30700000934302807, 0.2986000035889447, 0.30005000007804483, 0.29909999284427613, 0.2948000037577003, 0.2980499994009733, 0.30354999762494117, 0.2930499904323369, 0.2919999969890341, 0.30074999085627496, 0.295450008707121, 0.2945000014733523, 0.29399999766610563, 0.2962500002468005, 0.3023499884875491, 0.3090000100200996, 0.30169999809004366, 0.29674998950213194, 0.29835000168532133, 0.2912500058300793, 0.29734999407082796, 0.29055000049993396, 0.2952499926323071, 0.2893499913625419, 0.29525000718422234, 0.298400002066046, 0.2921999985119328, 0.2955999952973798, 0.2960999991046265, 0.29704999178647995, 0.2995999966515228, 0.30095000693108886, 0.29579999682027847, 0.30775000050198287, 0.2986000035889447, 0.2967000036733225, 0.29510000604204834, 0.30059998971410096],
  "Depth": 14.5,
  "Expectation Value": -7.030251979827881,
  "Optimal Expectation Value": -7.296229839324951,
  "Optimizer durations [ms]": [7.289, 7.018, 6.974, 6.989, 6.818, 7.056, 6.684, 7.159, 7.307, 6.784, 6.877, 6.976, 7.257, 7.567, 6.707, 7.172, 7.25, 7.407, 6.726, 6.945, 6.762, 7.032, 6.858, 7.974, 6.868, 6.72, 7.1, 6.907, 6.89, 7.131, 6.794, 7.269, 6.552, 7.25, 6.732, 6.972, 6.868, 7.145, 6.89, 7.012, 6.836, 6.978, 7.007, 6.569, 7.194, 6.733, 7.067, 7.129, 6.85, 6.927, 6.947, 7.097, 6.942, 7.157, 7.198, 6.974, 6.766, 6.993, 6.962, 6.929, 6.967, 7.025, 6.633, 7.03, 7.564, 6.733, 6.939, 7.169, 7.213, 7.109, 7.004, 6.969, 7.229, 6.8, 6.858, 7.057, 6.963, 7.049, 6.941, 6.664, 7.033, 7.049, 7.4, 6.681, 7.052, 7.202, 7.002, 6.947, 7.232, 6.591, 7.051, 7.402, 6.982, 6.843, 6.977, 6.995, 7.088, 7.149, 6.781, 7.127, 6.913, 7.03, 6.952, 7.088, 15.157, 7.474, 6.7, 7.115, 6.577, 6.921, 6.9, 6.869, 6.972, 6.799, 6.901, 7.064, 7.189, 6.749, 6.756, 7.54, 6.934, 10.662, 6.948, 7.171, 6.954, 16.271, 6.82, 6.734, 11.01, 6.835, 6.913, 7.137, 8.866, 7.213, 6.632, 6.832, 7.165, 18.551, 7.027, 6.726, 6.983, 6.843, 8.432, 7.047, 6.708, 6.806, 16.859, 7.362, 7.979, 7.368, 6.939, 8.133, 7.083, 7.083, 6.873, 23.646, 9.894, 7.51, 7.187, 6.9, 7.167, 6.802, 6.761, 7.033, 7.112, 7.093, 6.895, 7.264, 6.765, 6.959, 7.302, 7.159, 6.906, 7.07, 6.766, 6.786, 7.58, 6.85, 6.903, 7.373, 6.711, 6.761, 6.843, 7.037, 6.78, 8.321, 6.706, 6.917, 7.078, 6.926, 6.884, 7.174, 6.92, 6.972, 6.924, 7.14, 7.178, 6.686, 6.973, 6.766, 7.254, 6.983, 6.931, 6.703, 7.383, 6.887, 6.963, 7.534, 7.021, 6.947, 6.834, 7.175, 6.642, 7.687, 18.297, 23.042, 12.333, 10.514, 21.809, 17.459, 7.158, 6.719, 6.816, 6.908, 6.997, 7.026, 6.883, 6.871, 14.482, 6.716, 7.095, 7.043, 6.757, 7.211, 7.423, 7.165, 6.943, 7.072, 6.653, 7.142, 7.171, 8.594, 7.014, 7.356, 6.56, 8.027, 15.029, 13.86, 6.748, 7.148, 7.297, 6.59, 7.398, 6.939, 7.187, 7.057, 6.966, 7.184, 6.763, 6.938, 6.848, 6.768, 6.909, 7.038, 6.902, 7.462, 6.746, 7.149, 6.934, 6.963, 6.629, 6.922, 6.846, 7.015, 6.616, 6.8, 7.23, 6.9, 7.288, 6.909, 7.476, 6.687, 7.278, 6.934, 6.778, 6.706, 7.193, 6.917, 11.157, 6.911, 7.238, 6.986, 6.957, 6.849, 6.831, 6.91, 6.905, 6.782, 7.372, 6.535, 6.818, 7.204, 7.169, 7.001, 6.748, 7.09, 6.771, 7.153, 6.699, 6.841, 6.656, 7.032, 7.151, 7.145, 6.887, 6.985, 7.073, 6.768, 6.698, 7.078, 6.882, 6.853, 7.031, 6.865, 7.06, 6.947, 6.848, 7.792, 7.18, 6.842, 6.942, 7.17, 6.887, 7.078, 6.826, 6.971, 7.045, 6.964, 6.947, 7.21, 6.86, 6.903, 6.546, 6.938, 7.069, 6.893, 6.879, 6.985, 7.1, 7.044, 6.999, 6.865, 7.225, 6.894, 7.168, 6.959, 8.688, 6.736, 6.979, 7.274, 6.93, 7.2, 6.916, 6.698, 6.941, 6.838, 7.055, 7.163, 7.056, 7.502, 7.091, 6.855, 7.119, 6.632, 6.88, 7.256, 7.243, 6.977, 6.769, 7.031, 7.401, 6.755, 7.534, 7.654, 6.874, 7.378, 7.578, 9.298, 20.741, 6.788, 7.006, 6.795, 6.786, 7.288, 6.89, 6.674, 7.127, 7.095, 7.208, 6.827, 6.777, 7.371, 7.315, 6.725, 7.24, 7.382, 6.589, 6.591, 7.226, 6.768, 7.295, 6.606, 6.918, 6.914, 6.989, 7.073, 7.588, 7.06, 6.84, 6.953, 7.067, 7.353, 7.034, 6.87, 7.103, 6.672, 7.309, 6.83, 7.031, 9.029, 7.58, 6.77, 7.173, 6.923, 6.967, 6.677, 6.601, 7.334, 6.742, 7.07, 6.648, 7.001, 7.086, 6.731, 6.869, 6.905, 7.212, 6.871, 7.006, 6.921, 6.956, 6.789, 7.022, 7.034, 6.763, 6.899, 6.902, 6.951, 7.259, 7.154, 7.054, 6.903, 7.195, 6.823, 6.921, 7.18, 6.779, 6.754, 7.006, 6.673, 7.417, 6.81, 6.77, 7.1, 7.276, 7.143, 6.907, 7.033, 6.877, 6.769, 6.907, 6.675, 6.919, 6.7, 7.102, 6.725, 6.91, 7.213, 7.052, 6.989, 6.985, 6.847, 7.323, 6.867, 6.93, 6.711, 7.28],
  "Optimizer iterations": 497,
  "Optimizer params": [0.42767741299608697, 0.9353501887745409, 0.9499380875035937, 0.05076739790616677, 0.0967262454597483, 0.36903999175240754, 0.4218015917670631, 0.7028664568813894, 0.058631921325512475, 0.07011662930816874, 0.9678315005793551, 0.9811962938941493, 0.5103046086651716, 0.5005607735043731, 0.9965253948768503, 0.972884541407644, 0.9210702436756069, 0.6543911772973954, 0.34860294653585205, 0.07074922866283649, 0.2537279040973446, 0.1733604059738756, 0.7706716772188512, 0.7755271884635643],
  "P": 0,
  "Problem": "IC",
  "QJob durations [ms]": [0.31704999855719507, 0.2927000023191795, 0.2935999946203083, 0.30429998878389597, 0.2888000017264858, 0.3038499999092892, 0.29009999707341194, 0.30359999800566584, 0.30294999305624515, 0.29495000489987433, 0.29799999902024865, 0.302400003420189, 0.30690000858157873, 0.3259999939473346, 0.2970000059576705, 0.2991499932250008, 0.3117000014754012, 0.31429999216925353, 0.2957499964395538, 0.28959999326616526, 0.2938999969046563, 0.3036999987671152, 0.28464999923016876, 0.29784999787807465, 0.28795000980608165, 0.2926500019384548, 0.30354999762494117, 0.30294999305624515, 0.29764999635517597, 0.2878500090446323, 0.2958999975817278, 0.301799998851493, 0.29460000223480165, 0.3037000133190304, 0.29355000879149884, 0.2989000058732927, 0.2871999895432964, 0.30315000913105905, 0.30130000959616154, 0.3004000027431175, 0.294550001854077, 0.2961999998660758, 0.2963500010082498, 0.29255000117700547, 0.3051000094274059, 0.29704999178647995, 0.3037999995285645, 0.29499999072868377, 0.2935999946203083, 0.29429999995045364, 0.2980499994009733, 0.29399999766610563, 0.29484998958650976, 0.305800000205636, 0.304899993352592, 0.3005499893333763, 0.29614999948535115, 0.2965000021504238, 0.297949998639524, 0.29594999796245247, 0.30714999593328685, 0.29284998890943825, 0.2960999991046265, 0.2940499980468303, 0.3212000010535121, 0.2909499889938161, 0.2994999958900735, 0.2993500092998147, 0.3033499961020425, 0.30535001133102924, 0.30420000257436186, 0.29584999720100313, 0.29945001006126404, 0.2960999991046265, 0.30065000464674085, 0.30020000122021884, 0.29414999880827963, 0.298700004350394, 0.29630000062752515, 0.29414999880827963, 0.30259999039117247, 0.2938499965239316, 0.3126499941572547, 0.2937499957624823, 0.3020000003743917, 0.30300000798888505, 0.302250002278015, 0.30184999923221767, 0.3091500111622736, 0.2918499958468601, 0.2958999975817278, 0.3071500104852021, 0.29569999605882913, 0.30189999961294234, 0.294700002996251, 0.30595000134781003, 0.2993500092998147, 0.29569999605882913, 0.29150000773370266, 0.30174999847076833, 0.2906000008806586, 0.301949999993667, 0.3016500122612342, 0.29579999682027847, 0.2990500070154667, 0.3130999975837767, 0.29424999956972897, 0.299000006634742, 0.2912499912781641, 0.2872500044759363, 0.29850000282749534, 0.2917499950854108, 0.2963499864563346, 0.298250000923872, 0.29695000557694584, 0.29055000049993396, 0.3021500015165657, 0.294850004138425, 0.2950999914901331, 0.3192000003764406, 0.2940500125987455, 0.3055499983020127, 0.30309999419841915, 0.2947499888250604, 0.2909500035457313, 0.302250002278015, 0.29149999318178743, 0.2940499980468303, 0.2894999925047159, 0.2982000005431473, 0.28819999715778977, 0.2967999898828566, 0.2969499910250306, 0.2894500066759065, 0.298700004350394, 0.28830001247115433, 0.30339999648276716, 0.29255000117700547, 0.2921999985119328, 0.29319999157451093, 0.29185001039877534, 0.2996499970322475, 0.30610000248998404, 0.30145001073833555, 0.2974499948322773, 0.298099999781698, 0.27380000392440706, 0.29719999292865396, 0.3470499941613525, 0.30184999923221767, 0.2953999937744811, 0.2969999914057553, 0.29799999902024865, 0.30354999762494117, 0.3055499983020127, 0.28369999199640006, 0.43125000956933945, 0.29739999445155263, 0.305649999063462, 0.3009999927598983, 0.29510000604204834, 0.2972000074805692, 0.2909500035457313, 0.3031999949598685, 0.301949999993667, 0.30694999441038817, 0.2970500063383952, 0.3083000046899542, 0.29255000117700547, 0.29984999855514616, 0.29240000003483146, 0.30574999982491136, 0.29475000337697566, 0.2943500003311783, 0.2954499941552058, 0.3028499922947958, 0.30544999754056334, 0.294850004138425, 0.3052500105695799, 0.29645000176969916, 0.2914000069722533, 0.29969999741297215, 0.29079998785164207, 0.2953999937744811, 0.2955999952973798, 0.3147000097669661, 0.29490000451914966, 0.2977499971166253, 0.2884499990614131, 0.3003000019816682, 0.2965500025311485, 0.30759999935980886, 0.29590001213364303, 0.2929500042228028, 0.30050000350456685, 0.305499997921288, 0.29830000130459666, 0.29835000168532133, 0.2966499887406826, 0.29969999741297215, 0.3107999946223572, 0.29824998637195677, 0.2998999989358708, 0.2891000040108338, 0.31310001213569194, 0.29349999385885894, 0.2978999982587993, 0.3336999943712726, 0.2948000037577003, 0.29999999969732016, 0.2929500042228028, 0.301949999993667, 0.29689999064430594, 0.31364998721983284, 0.30514999525621533, 0.26869999419432133, 0.2712499990593642, 0.4733499954454601, 0.29799999902024865, 0.3878000134136528, 0.2963500010082498, 0.2908000024035573, 0.2919000107795, 0.2946500026155263, 0.30184999923221767, 0.29504999110940844, 0.29170000925660133, 0.2970000059576705, 0.3252500027883798, 0.29115000506863, 0.29170000925660133, 0.3047500067623332, 0.2946500026155263, 0.30839999089948833, 0.32619999547023326, 0.302250002278015, 0.29290000384207815, 0.29325000650715083, 0.2934499934781343, 0.3021999873453751, 0.2889000024879351, 0.3987499949289486, 0.301499996567145, 0.30605000210925937, 0.2929499896708876, 0.33910000638570637, 0.3165499947499484, 0.42394999763928354, 0.29504999110940844, 0.29710000671911985, 0.3074999985983595, 0.2936999953817576, 0.307999987853691, 0.3055499983020127, 0.2943500003311783, 0.2943500003311783, 0.30944999889470637, 0.2948000037577003, 0.2954499941552058, 0.2884999994421378, 0.2960499987239018, 0.2906500012613833, 0.3001999866683036, 0.29490000451914966, 0.29584999720100313, 0.3080999886151403, 0.297949998639524, 0.29164999432396144, 0.2957499964395538, 0.2928500034613535, 0.2935499942395836, 0.29129999165888876, 0.2970500063383952, 0.28744999144691974, 0.294400000711903, 0.2915499935625121, 0.2921499981312081, 0.2926500019384548, 0.29909999284427613, 0.3012000088347122, 0.3126499941572547, 0.2987500047311187, 0.3029500076081604, 0.29984999855514616, 0.2943500003311783, 0.2928500034613535, 0.30344999686349183, 0.2937499957624823, 0.2986999897984788, 0.3109499957645312, 0.3031999949598685, 0.3015000111190602, 0.28995001048315316, 0.29180001001805067, 0.2943500003311783, 0.29224999889265746, 0.2989499917021021, 0.29855000320822, 0.2982000005431473, 0.29085000278428197, 0.2892499906010926, 0.3096000000368804, 0.301949999993667, 0.29255000117700547, 0.29665000329259783, 0.29855000320822, 0.29305000498425215, 0.3030499938176945, 0.29415001336019486, 0.294550001854077, 0.2960499987239018, 0.2957499964395538, 0.2990500070154667, 0.299000006634742, 0.298099999781698, 0.2944499865407124, 0.30174999847076833, 0.2916999947046861, 0.2951499918708578, 0.29079998785164207, 0.29454998730216175, 0.2958999975817278, 0.2994499955093488, 0.28979999478906393, 0.29534999339375645, 0.2919999969890341, 0.2986000035889447, 0.3194499877281487, 0.30109999352134764, 0.29855000320822, 0.3005499893333763, 0.301349995424971, 0.2955499949166551, 0.29424999956972897, 0.29460000223480165, 0.29340000764932483, 0.30280000646598637, 0.2967999898828566, 0.29909999284427613, 0.3005500038852915, 0.29224999889265746, 0.2940499980468303, 0.2954499941552058, 0.28824999753851444, 0.29924999398645014, 0.2952999930130318, 0.2969000051962212, 0.2912499912781641, 0.299000006634742, 0.29549999453593045, 0.2936999953817576, 0.30590000096708536, 0.30079999123699963, 0.30374999914783984, 0.3005500038852915, 0.3015500114997849, 0.4020500055048615, 0.29475000337697566, 0.29815000016242266, 0.2974499948322773, 0.3005500038852915, 0.29409999842755497, 0.294550001854077, 0.29079998785164207, 0.2921499981312081, 0.29740000900346786, 0.29614999948535115, 0.31254999339580536, 0.2951499918708578, 0.31674999627284706, 0.3007500054081902, 0.3066000062972307, 0.2965500025311485, 0.2889500028686598, 0.2980499994009733, 0.3043000033358112, 0.30485000752378255, 0.29504999110940844, 0.29749999521300197, 0.29630000062752515, 0.30759999935980886, 0.29555000946857035, 0.32359999022446573, 0.3404999879421666, 0.29325000650715083, 0.2963500010082498, 0.3328999882796779, 0.3120500041404739, 0.45569999201688915, 0.29549999453593045, 0.29654998797923326, 0.29299999005161226, 0.29734999407082796, 0.2997999981744215, 0.2949499903479591, 0.29520000680349767, 0.3038499999092892, 0.29784999787807465, 0.2920499973697588, 0.29475000337697566, 0.2987500047311187, 0.301499996567145, 0.29760001052636653, 0.29290000384207815, 0.32204999297391623, 0.2975000097649172, 0.2896499936468899, 0.2906000008806586, 0.3070999955525622, 0.2926500019384548, 0.29564999567810446, 0.2921499981312081, 0.28905000363010913, 0.2943500003311783, 0.29675000405404717, 0.30590000096708536, 0.3249500005040318, 0.3010500076925382, 0.294850004138425, 0.29815000016242266, 0.30604998755734414, 0.30405000143218786, 0.30094999237917364, 0.29350000841077417, 0.3007500054081902, 0.2930000046035275, 0.302100001135841, 0.29850000282749534, 0.2904499997384846, 0.29719999292865396, 0.3096000000368804, 0.29305000498425215, 0.3007000050274655, 0.2960999991046265, 0.3005500038852915, 0.2893000055337325, 0.29490000451914966, 0.30494999373331666, 0.29660000291187316, 0.2907499874709174, 0.2965500025311485, 0.2918499958468601, 0.29510000604204834, 0.30109999352134764, 0.2992999943671748, 0.29414999880827963, 0.2963500010082498, 0.292200013063848, 0.3051000094274059, 0.2921499981312081, 0.29245000041555613, 0.2947999892057851, 0.29710000671911985, 0.2973500086227432, 0.29414999880827963, 0.2941999991890043, 0.2931500057457015, 0.30684999364893883, 0.2955499949166551, 0.30700000934302807, 0.2986000035889447, 0.30005000007804483, 0.29909999284427613, 0.2948000037577003, 0.2980499994009733, 0.30354999762494117, 0.2930499904323369, 0.2919999969890341, 0.30074999085627496, 0.295450008707121, 0.2945000014733523, 0.29399999766610563, 0.2962500002468005, 0.3023499884875491, 0.3090000100200996, 0.30169999809004366, 0.29674998950213194, 0.29835000168532133, 0.2912500058300793, 0.29734999407082796, 0.29055000049993396, 0.2952499926323071, 0.2893499913625419, 0.29525000718422234, 0.298400002066046, 0.2921999985119328, 0.2955999952973798, 0.2960999991046265, 0.29704999178647995, 0.2995999966515228, 0.30095000693108886, 0.29579999682027847, 0.30775000050198287, 0.2986000035889447, 0.2967000036733225, 0.29510000604204834, 0.30059998971410096],
  "QPU": "7000000",
  "Qubits": 6,
  "Queue durations [ms]": [0.0, 0.0, 0.0, 0.0, 0.0, 0.0, 0.0, 0.0, 0.0, 0.0, 0.0, 0.0, 0.0, 0.0, 0.0, 0.0, 0.0, 0.0, 0.0, 0.0, 0.0, 0.0, 0.0, 0.0, 0.0, 0.0, 0.0, 0.0, 0.0, 0.0, 0.0, 0.0, 0.0, 0.0, 0.0, 0.0, 0.0, 0.0, 0.0, 0.0, 0.0, 0.0, 0.0, 0.0, 0.0, 0.0, 0.0, 0.0, 0.0, 0.0, 0.0, 0.0, 0.0, 0.0, 0.0, 0.0, 0.0, 0.0, 0.0, 0.0, 0.0, 0.0, 0.0, 0.0, 0.0, 0.0, 0.0, 0.0, 0.0, 0.0, 0.0, 0.0, 0.0, 0.0, 0.0, 0.0, 0.0, 0.0, 0.0, 0.0, 0.0, 0.0, 0.0, 0.0, 0.0, 0.0, 0.0, 0.0, 0.0, 0.0, 0.0, 0.0, 0.0, 0.0, 0.0, 0.0, 0.0, 0.0, 0.0, 0.0, 0.0, 0.0, 0.0, 0.0, 0.0, 0.0, 0.0, 0.0, 0.0, 0.0, 0.0, 0.0, 0.0, 0.0, 0.0, 0.0, 0.0, 0.0, 0.0, 0.0, 0.0, 0.0, 0.0, 0.0, 0.0, 0.0, 0.0, 0.0, 0.0, 0.0, 0.0, 0.0, 0.0, 0.0, 0.0, 0.0, 0.0, 0.0, 0.0, 0.0, 0.0, 0.0, 0.0, 0.0, 0.0, 0.0, 0.0, 0.0, 0.0, 0.0, 0.0, 0.0, 0.0, 0.0, 0.0, 0.0, 0.0, 0.0, 0.0, 0.0, 0.0, 0.0, 0.0, 0.0, 0.0, 0.0, 0.0, 0.0, 0.0, 0.0, 0.0, 0.0, 0.0, 0.0, 0.0, 0.0, 0.0, 0.0, 0.0, 0.0, 0.0, 0.0, 0.0, 0.0, 0.0, 0.0, 0.0, 0.0, 0.0, 0.0, 0.0, 0.0, 0.0, 0.0, 0.0, 0.0, 0.0, 0.0, 0.0, 0.0, 0.0, 0.0, 0.0, 0.0, 0.0, 0.0, 0.0, 0.0, 0.0, 0.0, 0.0, 0.0, 0.0, 0.0, 0.0, 0.0, 0.0, 0.0, 0.0, 0.0, 0.0, 0.0, 0.0, 0.0, 0.0, 0.0, 0.0, 0.0, 0.0, 0.0, 0.0, 0.0, 0.0, 0.0, 0.0, 0.0, 0.0, 0.0, 0.0, 0.0, 0.0, 0.0, 0.0, 0.0, 0.0, 0.0, 0.0, 0.0, 0.0, 0.0, 0.0, 0.0, 0.0, 0.0, 0.0, 0.0, 0.0, 0.0, 0.0, 0.0, 0.0, 0.0, 0.0, 0.0, 0.0, 0.0, 0.0, 0.0, 0.0, 0.0, 0.0, 0.0, 0.0, 0.0, 0.0, 0.0, 0.0, 0.0, 0.0, 0.0, 0.0, 0.0, 0.0, 0.0, 0.0, 0.0, 0.0, 0.0, 0.0, 0.0, 0.0, 0.0, 0.0, 0.0, 0.0, 0.0, 0.0, 0.0, 0.0, 0.0, 0.0, 0.0, 0.0, 0.0, 0.0, 0.0, 0.0, 0.0, 0.0, 0.0, 0.0, 0.0, 0.0, 0.0, 0.0, 0.0, 0.0, 0.0, 0.0, 0.0, 0.0, 0.0, 0.0, 0.0, 0.0, 0.0, 0.0, 0.0, 0.0, 0.0, 0.0, 0.0, 0.0, 0.0, 0.0, 0.0, 0.0, 0.0, 0.0, 0.0, 0.0, 0.0, 0.0, 0.0, 0.0, 0.0, 0.0, 0.0, 0.0, 0.0, 0.0, 0.0, 0.0, 0.0, 0.0, 0.0, 0.0, 0.0, 0.0, 0.0, 0.0, 0.0, 0.0, 0.0, 0.0, 0.0, 0.0, 0.0, 0.0, 0.0, 0.0, 0.0, 0.0, 0.0, 0.0, 0.0, 0.0, 0.0, 0.0, 0.0, 0.0, 0.0, 0.0, 0.0, 0.0, 0.0, 0.0, 0.0, 0.0, 0.0, 0.0, 0.0, 0.0, 0.0, 0.0, 0.0, 0.0, 0.0, 0.0, 0.0, 0.0, 0.0, 0.0, 0.0, 0.0, 0.0, 0.0, 0.0, 0.0, 0.0, 0.0, 0.0, 0.0, 0.0, 0.0, 0.0, 0.0, 0.0, 0.0, 0.0, 0.0, 0.0, 0.0, 0.0, 0.0, 0.0, 0.0, 0.0, 0.0, 0.0, 0.0, 0.0, 0.0, 0.0, 0.0, 0.0, 0.0, 0.0, 0.0, 0.0, 0.0, 0.0, 0.0, 0.0, 0.0, 0.0, 0.0, 0.0, 0.0, 0.0, 0.0, 0.0, 0.0, 0.0, 0.0, 0.0, 0.0, 0.0, 0.0, 0.0, 0.0, 0.0, 0.0, 0.0, 0.0, 0.0, 0.0, 0.0, 0.0, 0.0, 0.0, 0.0, 0.0, 0.0, 0.0, 0.0, 0.0, 0.0, 0.0, 0.0, 0.0, 0.0, 0.0, 0.0, 0.0, 0.0, 0.0, 0.0, 0.0, 0.0, 0.0, 0.0, 0.0, 0.0, 0.0, 0.0, 0.0],
  "Shots": 4096,
  "Size": 6,
  "Total Algorithm duration [s]": 3.658,
  "Total Classic duration [s]": 3.508776450301055,
  "Total Quantum duration [s]": 0.14922354969894513
}
