{
  "Circuit execution durations [ms]": [0.29999999969732016, 0.29784999787807465, 0.3065499913645908, 0.33320000511594117, 0.2901999978348613, 0.29815000016242266, 0.2952999930130318, 0.29165000887587667, 0.29925000853836536, 0.2905000001192093, 0.2977499971166253, 0.301499996567145, 0.304749992210418, 0.29144999280106276, 0.2968500048154965, 0.30174999847076833, 0.29660000291187316, 0.30374999914783984, 0.29520000680349767, 0.3079499874729663, 0.29799999902024865, 0.30720001086592674, 0.29784999787807465, 0.4626500012818724, 0.27614999271463603, 0.41590000910218805, 0.3021999873453751, 0.2962500002468005, 0.30374999914783984, 0.30425000295508653, 0.29764999635517597, 0.3034999972442165, 0.30519999563694, 0.2955499949166551, 0.2938999969046563, 0.29260000155773014, 0.31864999618846923, 0.30169999809004366, 0.29334999271668494, 0.29505000566132367, 0.29874999017920345, 0.29510000604204834, 0.2882999979192391, 0.2921499981312081, 0.29925000853836536, 0.2968499902635813, 0.29105000430718064, 0.2972999936901033, 0.3054500120924786, 0.29764999635517597, 0.2910999901359901, 0.29585001175291836, 0.2929500042228028, 0.2960999991046265, 0.29519999225158244, 0.29484998958650976, 0.302250002278015, 0.3036499983863905, 0.2892500051530078, 0.31099999614525586, 0.30374999914783984, 0.29835000168532133, 0.29115000506863, 0.29600001289509237, 0.2982000005431473, 0.29695000557694584, 0.2884999994421378, 0.2940499980468303, 0.2960499987239018, 0.29764999635517597, 0.3154500009259209, 0.2940499980468303, 0.29305000498425215, 0.2994499955093488, 0.29824998637195677, 0.3064500051550567, 0.30015000083949417, 0.30050000350456685, 0.30005000007804483, 0.32219999411609024, 0.2965000021504238, 0.2986000035889447, 0.2932499919552356, 0.30035000236239284, 0.29510000604204834, 0.2958999975817278, 0.302100001135841, 0.29910000739619136, 0.3026000049430877, 0.30899999546818435, 0.3030499938176945, 0.29990001348778605, 0.30029998742975295, 0.2931000053649768, 0.299150007776916, 0.2955999952973798, 0.302400003420189, 0.2935999946203083, 0.2955499949166551, 0.29534999339375645, 0.2935999946203083, 0.3009999927598983, 0.29665000329259783, 0.294550001854077, 0.30995000270195305, 0.2993499947478995, 0.2997999981744215, 0.29445000109262764, 0.29510000604204834, 0.3199500060873106, 0.3048499929718673, 0.2900499966926873, 0.2955999952973798, 0.2955499949166551, 0.2923499996541068, 0.2951499918708578, 0.2968499902635813, 0.2977499971166253, 0.2960999991046265, 0.3105999930994585, 0.2953500079456717, 0.3044500044779852, 0.29385001107584685, 0.30184999923221767, 0.2896999940276146, 0.29584999720100313, 0.29680000443477184, 0.30470000638160855, 0.29084998823236674, 0.302100001135841, 0.3161999920848757, 0.2931500057457015, 0.3065999917453155, 0.298700004350394, 0.2972499933093786, 0.2922999992733821, 0.2967000036733225, 0.3058500005863607, 0.2975999959744513, 0.305800000205636, 0.3034999972442165, 0.3112999984296039, 0.29555000946857035, 0.32550000469200313, 0.301049993140623, 0.3077000001212582, 0.2949499903479591, 0.2948000037577003, 0.29815000016242266, 0.29719999292865396, 0.2963500010082498, 0.30315000913105905, 0.298850005492568, 0.29969999741297215, 0.3188499977113679, 0.29925000853836536, 0.29909999284427613, 0.2906000008806586, 0.30184999923221767, 0.2960499987239018, 0.29549999453593045, 0.2973000082420185, 0.29180001001805067, 0.42149999353569, 0.2961999998660758, 0.3384500014362857, 0.30085000616963953, 0.4262999864295125, 0.2977499971166253, 0.29314999119378626, 0.2906000008806586, 0.2973000082420185, 0.3174500016029924, 0.3025499900104478, 0.3083500050706789, 0.294700002996251, 0.3097500011790544, 0.2993500092998147, 0.474000014946796, 0.302250002278015, 0.3055499983020127, 0.2943500003311783, 0.2938999969046563, 0.29665000329259783, 0.3029500076081604, 0.2945999876828864, 0.29594999796245247, 0.4008499818155542, 0.3004000027431175, 0.33710000570863485, 0.294550001854077, 0.39149999793153256, 0.30139999580569565, 0.3405500028748065, 0.3001000004587695, 0.29660000291187316, 0.28345000464469194, 0.31259999377653, 0.39590000233147293, 0.30324999534059316, 0.29379999614320695, 0.2951499918708578, 0.2927000023191795, 0.3095499996561557, 0.2976500109070912, 0.3060999879380688, 0.297949998639524, 0.298700004350394, 0.3075499989790842, 0.2953500079456717, 0.30699999479111284, 0.2921499981312081, 0.3132999991066754, 0.29845000244677067, 0.2930999908130616, 0.29590001213364303, 0.2965500025311485, 0.29815000016242266, 0.3033499961020425, 0.30509999487549067, 0.2906000008806586, 0.2989499917021021, 0.298850005492568, 0.30649999098386616, 0.292050011921674, 0.2913999924203381, 0.2975999959744513, 0.2995000104419887, 0.29630000062752515, 0.2952999930130318, 0.3235500043956563, 0.28994999593123794, 0.29674998950213194, 0.30425000295508653, 0.309199996991083, 0.2893000055337325, 0.29695000557694584, 0.30380001408047974, 0.29414999880827963, 0.29519999225158244, 0.2983499871334061, 0.3195000026607886, 0.3007000050274655, 0.294400000711903, 0.29334999271668494, 0.30005000007804483, 0.29015001200605184, 0.29725000786129385, 0.29355000879149884, 0.29584999720100313, 0.30685000820085406, 0.2872500044759363, 0.2993499947478995, 0.2922999992733821, 0.29764999635517597, 0.30169999809004366, 0.2952499926323071, 0.301799998851493, 0.29394999728538096, 0.294550001854077, 0.29499999072868377, 0.30065000464674085, 0.2970000059576705, 0.3007500054081902, 0.3060000017285347, 0.29859998903702945, 0.29115000506863, 0.295600009849295, 0.29984999855514616, 0.2962500002468005, 0.2928500034613535, 0.29645000176969916, 0.3144000074826181, 0.29909999284427613, 0.29909999284427613, 0.3006000042660162, 0.295300007564947, 0.29245000041555613, 0.29680000443477184, 0.301649997709319, 0.29969999741297215, 0.3132499987259507, 0.2972499933093786, 0.30419998802244663, 0.2964999875985086, 0.29614999948535115, 0.291600008495152, 0.2980499994009733, 0.29645000176969916, 0.29614999948535115, 0.3083000046899542, 0.30610000248998404, 0.308749993564561, 0.29654998797923326, 0.3432000085012987, 0.30139999580569565, 0.4133000038564205, 0.48975001845974475, 0.41584999416954815, 0.295750010991469, 0.29505000566132367, 0.2965000021504238, 0.2960499987239018, 0.2902999985963106, 0.29675000405404717, 0.2980499994009733, 0.2958999975817278, 0.3012500092154369, 0.3077000001212582, 0.29090000316500664, 0.305499997921288, 0.2944499865407124, 0.2997999981744215, 0.28994999593123794, 0.29734999407082796, 0.29505000566132367, 0.2905000001192093, 0.2941999991890043, 0.2941999991890043, 0.29930000891909003, 0.2919999969890341, 0.2987500047311187, 0.2996499970322475, 0.2940499980468303, 0.29590001213364303, 0.29824998637195677, 0.29399999766610563, 0.2931000053649768, 0.3080500027863309, 0.29555000946857035, 0.2918999962275848, 0.3005499893333763, 0.299000006634742, 0.3087999939452857, 0.3032000095117837, 0.2955499949166551, 0.301949999993667, 0.30884999432601035, 0.30050000350456685, 0.304749992210418, 0.3007500054081902, 0.2961999998660758, 0.2920499973697588, 0.30744999821763486, 0.29055000049993396, 0.29409999842755497, 0.294550001854077, 0.3021500015165657, 0.30205000075511634, 0.2929500042228028, 0.2912500058300793, 0.29660000291187316, 0.30420000257436186, 0.29209999775048345, 0.29379999614320695, 0.29599999834317714, 0.287750008283183, 0.2993499947478995, 0.3047500067623332, 0.30280000646598637, 0.3012999950442463, 0.29569999605882913, 0.2980499994009733, 0.30139999580569565, 0.294700002996251, 0.30184999923221767, 0.29865000396966934, 0.2917499950854108, 0.28845001361332834, 0.29414999880827963, 0.29919999360572547, 0.2978999982587993, 0.29645000176969916, 0.29534999339375645, 0.29924999398645014, 0.294700002996251, 0.3042499884031713, 0.33525000617373735, 0.29564999567810446, 0.2969499910250306, 0.29680000443477184, 0.30870000773575157, 0.30079999123699963, 0.29754999559372663, 0.30205000075511634, 0.29630000062752515, 0.3036499983863905, 0.2970999921672046, 0.2989000058732927, 0.2913499920396134, 0.32714998815208673, 0.3038499999092892, 0.2968500048154965, 0.2931000053649768, 0.301349995424971, 0.30085000616963953, 0.2943500003311783, 0.3026999911526218, 0.30590000096708536, 0.2930000046035275, 0.29504999110940844, 0.3235000040149316, 0.3032500098925084, 0.28789999487344176, 0.2973500086227432, 0.2973500086227432, 0.29394999728538096, 0.3002499870490283, 0.29614999948535115, 0.2931000053649768, 0.3033499961020425, 0.30265000532381237, 0.31550000130664557, 0.30205000075511634, 0.2973000082420185, 0.2953500079456717, 0.324350010487251, 0.29855000320822, 0.29224999889265746, 0.29525000718422234, 0.2962500002468005, 0.29224999889265746, 0.29725000786129385, 0.30529999639838934, 0.29919999360572547, 0.30965000041760504, 0.2899999963119626, 0.3058500005863607, 0.29520000680349767, 0.29645000176969916, 0.294400000711903, 0.29830000130459666, 0.29475000337697566, 0.2928500034613535, 0.35650000791065395, 0.30344999686349183, 0.4261499998392537, 0.2766499965218827, 0.4606000002240762, 0.2958000113721937, 0.2941999991890043, 0.2939000114565715, 0.30294999305624515, 0.2937499957624823, 0.3048000071430579, 0.29594999796245247, 0.31185000261757523, 0.29799999902024865, 0.2989499917021021, 0.3041500021936372, 0.30259999039117247, 0.30020000122021884, 0.29460000223480165, 0.2906500012613833, 0.30590000096708536, 0.2967000036733225, 0.30059998971410096, 0.2937499957624823, 0.29725000786129385, 0.3067500074394047, 0.2939500118372962, 0.29719999292865396, 0.3333500062581152, 0.3040000010514632, 0.29115000506863, 0.295450008707121, 0.2962500002468005, 0.2996499970322475, 0.30130000959616154, 0.2941999991890043, 0.29815000016242266, 0.29799999902024865, 0.2963500010082498, 0.29725000786129385, 0.3024500038009137, 0.2964999875985086, 0.29599999834317714, 0.29919999360572547, 0.29850000282749534, 0.29855000320822, 0.3032999957213178, 0.3029000072274357, 0.30300000798888505, 0.30309999419841915, 0.29475000337697566, 0.3103500057477504, 0.29350000841077417, 0.29889999132137746, 0.29194999660830945, 0.2978999982587993, 0.30450000485870987, 0.30095000693108886, 0.2987999905599281, 0.2930999908130616, 0.29335000726860017, 0.2935999946203083, 0.2974499948322773, 0.2951499918708578, 0.3006999904755503, 0.2967000036733225, 0.2952499926323071, 0.301799998851493, 0.2977499971166253, 0.34020000020973384, 0.3007500054081902, 0.30265000532381237, 0.2911999908974394, 0.31099999614525586, 0.2964000013889745, 0.28935000591445714, 0.29325000650715083, 0.30154999694786966, 0.30005000007804483, 0.30699999479111284, 0.2987500047311187, 0.2928500034613535, 0.299000006634742, 0.2970000059576705, 0.29784999787807465, 0.2911000046879053, 0.29954999627079815, 0.29969999741297215, 0.298850005492568, 0.3150000120513141, 0.2965500025311485, 0.2937499957624823, 0.3009000065503642, 0.28989999555051327, 0.2960999991046265, 0.3072499966947362, 0.29525000718422234, 0.29540000832639635, 0.30524999601766467, 0.30174999847076833, 0.30065000464674085, 0.3021500015165657, 0.2941999991890043, 0.295300007564947, 0.30220000189729035, 0.2968499902635813, 0.29429999995045364, 0.2961500140372664, 0.2992999943671748, 0.2992999943671748, 0.2960499987239018, 0.2943500003311783, 0.29599999834317714, 0.30085000616963953, 0.30354999762494117, 0.29409999842755497, 0.2960999991046265, 0.29614999948535115, 0.29594999796245247, 0.29999999969732016, 0.2940499980468303, 0.29525000718422234, 0.3378999972483143, 0.29379999614320695, 0.2971499925479293, 0.2961999998660758, 0.3011499939020723, 0.29445000109262764, 0.29865000396966934, 0.2911999908974394, 0.298099999781698, 0.3042499884031713, 0.2952999930130318, 0.2993500092998147, 0.29275000269990414, 0.3009000065503642, 0.291750009637326, 0.29379999614320695, 0.29209999775048345, 0.29579999682027847, 0.3148500109091401, 0.29075000202283263, 0.42294999002479017, 0.29904999246355146, 0.29614999948535115, 0.2997499977936968, 0.30169999809004366, 0.29645000176969916, 0.2934499934781343, 0.29754999559372663, 0.2937499957624823, 0.3071000101044774, 0.30574999982491136, 0.3012500092154369, 0.31600000511389226, 0.295150006422773, 0.295600009849295, 0.31629999284632504, 0.2932499919552356, 0.2918499958468601, 0.2980499994009733, 0.3034999972442165, 0.28920000477228314, 0.2915499935625121, 0.3014499961864203, 0.304899993352592, 0.25585000548744574, 0.3014000103576109, 0.32315000134985894, 0.3040499868802726, 0.30169999809004366, 0.30094999237917364, 0.2970000059576705, 0.3046500060008839, 0.3014000103576109, 0.2864499983843416, 0.4518999921856448, 0.2924499858636409, 0.2962500002468005, 0.2903500135289505, 0.3056999994441867, 0.3007000050274655, 0.30315000913105905, 0.29159999394323677, 0.301649997709319, 0.29594999796245247, 0.30020000122021884, 0.30005000007804483, 0.2995999966515228, 0.3220999933546409, 0.3005500038852915, 0.30124999466352165, 0.298250000923872],
  "Depth": 14.5,
  "Expectation Value": -7.220138072967529,
  "Optimal Expectation Value": -7.296229839324951,
  "Optimizer durations [ms]": [7.002, 7.171, 7.05, 7.778, 6.771, 7.061, 6.649, 6.994, 6.818, 6.839, 6.935, 7.153, 7.036, 6.884, 6.912, 6.893, 7.043, 7.018, 7.028, 8.085, 6.855, 7.341, 7.015, 10.181, 19.079, 9.493, 6.905, 7.072, 7.224, 7.122, 7.184, 7.184, 6.906, 7.215, 6.908, 6.777, 7.618, 12.894, 6.92, 6.91, 6.787, 6.982, 6.936, 6.763, 6.885, 6.911, 6.993, 6.939, 7.489, 6.648, 7.065, 6.815, 7.025, 6.71, 6.989, 6.956, 7.094, 7.096, 6.78, 7.303, 7.19, 6.904, 7.003, 6.848, 6.737, 7.297, 6.607, 7.763, 7.238, 6.957, 7.05, 7.037, 6.696, 7.213, 7.036, 7.09, 7.149, 7.01, 6.753, 7.525, 7.256, 6.852, 6.884, 7.128, 6.962, 6.749, 7.045, 6.855, 7.146, 7.022, 7.456, 6.891, 7.098, 6.757, 7.174, 6.884, 7.032, 7.076, 6.638, 7.029, 6.649, 7.127, 6.971, 6.787, 7.19, 7.039, 7.073, 6.753, 7.283, 7.278, 6.925, 7.048, 6.768, 6.994, 7.051, 6.809, 7.064, 7.104, 6.918, 7.236, 6.879, 7.278, 6.915, 6.855, 7.049, 6.922, 6.68, 7.188, 6.873, 6.882, 7.596, 6.569, 7.25, 7.017, 7.013, 6.651, 6.953, 7.181, 6.697, 7.162, 7.247, 7.489, 6.834, 7.623, 6.753, 7.122, 6.995, 7.078, 6.693, 6.922, 7.039, 6.993, 6.787, 6.986, 7.693, 7.047, 6.902, 6.743, 7.023, 8.179, 6.825, 6.642, 7.091, 9.477, 6.845, 7.894, 6.951, 9.498, 10.063, 6.853, 6.803, 11.163, 7.259, 7.144, 7.334, 7.889, 7.337, 13.528, 10.297, 16.072, 7.292, 6.718, 7.019, 9.521, 6.977, 6.843, 7.29, 21.599, 7.129, 7.675, 6.829, 8.778, 7.153, 7.729, 6.784, 8.101, 16.97, 10.407, 8.875, 7.214, 10.947, 6.767, 6.963, 7.523, 6.925, 6.983, 7.083, 7.071, 7.316, 6.849, 6.998, 6.883, 7.687, 6.864, 6.956, 6.733, 6.967, 6.808, 7.228, 6.938, 6.99, 7.12, 6.726, 7.18, 7.044, 6.989, 6.809, 6.851, 7.201, 6.633, 7.596, 7.09, 6.695, 6.894, 7.07, 6.906, 7.167, 6.799, 7.039, 6.986, 6.914, 7.512, 7.078, 7.072, 6.932, 6.816, 7.102, 7.004, 6.85, 7.015, 7.303, 6.849, 6.703, 6.846, 7.247, 7.022, 6.765, 7.261, 6.865, 6.675, 6.99, 7.059, 6.829, 7.221, 7.039, 7.195, 6.751, 6.635, 7.307, 6.705, 6.86, 6.946, 7.066, 7.337, 6.822, 7.009, 6.726, 7.143, 6.871, 7.065, 7.031, 7.135, 7.261, 6.962, 7.105, 6.794, 7.112, 7.012, 6.881, 6.837, 7.019, 7.55, 7.113, 7.054, 7.652, 7.279, 9.202, 20.334, 9.495, 6.875, 6.697, 7.262, 6.698, 7.041, 6.921, 6.828, 7.202, 7.003, 13.019, 6.772, 7.266, 6.881, 6.983, 6.781, 6.872, 6.633, 7.014, 7.042, 6.595, 7.143, 6.86, 6.935, 6.864, 7.153, 6.864, 7.01, 6.828, 6.839, 7.39, 6.854, 6.83, 7.078, 6.818, 7.265, 7.117, 6.91, 7.074, 7.155, 7.108, 7.063, 10.491, 7.044, 6.792, 6.982, 6.882, 6.947, 6.992, 7.2, 7.122, 6.697, 7.043, 6.791, 7.195, 6.96, 6.884, 6.804, 6.824, 6.848, 7.054, 7.073, 7.247, 7.034, 6.841, 7.13, 6.753, 7.241, 7.087, 6.529, 6.82, 7.174, 6.913, 6.903, 7.116, 6.833, 6.905, 6.662, 7.261, 7.648, 6.968, 7.021, 6.793, 7.248, 7.18, 6.959, 7.022, 7.054, 7.118, 7.04, 6.76, 6.795, 7.792, 7.062, 6.741, 7.076, 7.059, 7.151, 6.821, 7.125, 6.88, 6.926, 6.789, 7.494, 6.986, 7.454, 6.923, 6.794, 7.049, 6.868, 7.048, 7.047, 7.18, 6.733, 7.496, 7.066, 7.053, 6.62, 7.699, 6.936, 6.924, 6.855, 6.961, 7.011, 6.68, 7.387, 7.126, 7.1, 6.94, 7.098, 7.047, 6.717, 7.009, 6.947, 6.986, 6.726, 8.196, 7.114, 9.545, 20.893, 10.334, 6.741, 7.12, 6.766, 7.004, 6.975, 7.295, 6.967, 7.147, 13.075, 7.097, 7.443, 6.811, 7.191, 6.782, 6.744, 7.055, 7.141, 6.892, 6.783, 6.942, 7.275, 6.717, 6.937, 7.669, 7.241, 6.834, 7.1, 6.672, 7.273, 6.955, 6.946, 7.102, 6.897, 7.173, 6.881, 7.148, 6.919, 6.926, 7.064, 6.792, 6.955, 7.312, 6.874, 6.926, 7.398, 6.958, 7.485, 7.02, 6.946, 6.766, 6.958, 7.103, 6.772, 7.162, 6.853, 6.885, 7.173, 6.85, 6.748, 7.13, 7.131, 6.923, 7.029, 7.008, 7.883, 6.996, 7.075, 6.749, 7.363, 6.927, 6.984, 6.539, 6.98, 7.139, 7.284, 6.968, 6.705, 7.201, 7.058, 6.704, 7.47, 7.326, 6.965, 6.875, 7.294, 7.15, 6.917, 6.753, 7.403, 6.859, 7.473, 6.619, 6.816, 7.242, 7.108, 7.072, 7.037, 6.782, 6.888, 7.027, 6.932, 6.979, 6.83, 7.169, 7.004, 6.858, 7.003, 6.579, 7.355, 6.905, 7.025, 6.968, 7.101, 6.921, 6.737, 7.082, 6.911, 7.687, 6.796, 7.232, 7.1, 6.824, 6.903, 7.137, 6.86, 7.021, 6.991, 6.71, 7.07, 7.084, 6.766, 7.069, 6.759, 6.845, 6.904, 7.058, 7.001, 9.487, 7.047, 6.834, 6.866, 6.856, 13.452, 7.053, 6.804, 10.762, 7.341, 7.01, 16.623, 7.677, 6.934, 6.783, 19.078, 6.599, 6.989, 6.921, 6.961, 8.689, 7.09, 7.051, 6.854, 19.682, 7.18, 7.323, 7.009, 7.034, 8.301, 7.155, 7.041, 7.084, 21.61, 10.871, 6.785, 6.94, 12.31, 7.473, 6.978, 7.134, 6.917, 6.827, 7.217, 6.872, 7.192, 6.892, 7.486, 7.165, 6.898, 6.835],
  "Optimizer iterations": 627,
  "Optimizer params": [0.9235548272639656, 0.08660318763119024, 0.5834500039474075, 0.4209338566916529, 0.42374565348946963, 0.511255456947413, 0.6528283478237445, 0.9954589576534978, 0.9637429039321559, 0.02083413013367965, 0.9958217423152828, 0.20998612462488514, 0.013971642857466137, 0.9966950080283081, 0.5225840422967112, 0.00972186775915444, 0.9896050507831525, 0.9895552666056222, 0.3464821998921075, 0.520702227980842, 0.9808826153657741, 0.9997262509467987, 0.9891796568588257, 0.04859946752400425],
  "P": 0,
  "Problem": "IC",
  "QJob durations [ms]": [0.29999999969732016, 0.29784999787807465, 0.3065499913645908, 0.33320000511594117, 0.2901999978348613, 0.29815000016242266, 0.2952999930130318, 0.29165000887587667, 0.29925000853836536, 0.2905000001192093, 0.2977499971166253, 0.301499996567145, 0.304749992210418, 0.29144999280106276, 0.2968500048154965, 0.30174999847076833, 0.29660000291187316, 0.30374999914783984, 0.29520000680349767, 0.3079499874729663, 0.29799999902024865, 0.30720001086592674, 0.29784999787807465, 0.4626500012818724, 0.27614999271463603, 0.41590000910218805, 0.3021999873453751, 0.2962500002468005, 0.30374999914783984, 0.30425000295508653, 0.29764999635517597, 0.3034999972442165, 0.30519999563694, 0.2955499949166551, 0.2938999969046563, 0.29260000155773014, 0.31864999618846923, 0.30169999809004366, 0.29334999271668494, 0.29505000566132367, 0.29874999017920345, 0.29510000604204834, 0.2882999979192391, 0.2921499981312081, 0.29925000853836536, 0.2968499902635813, 0.29105000430718064, 0.2972999936901033, 0.3054500120924786, 0.29764999635517597, 0.2910999901359901, 0.29585001175291836, 0.2929500042228028, 0.2960999991046265, 0.29519999225158244, 0.29484998958650976, 0.302250002278015, 0.3036499983863905, 0.2892500051530078, 0.31099999614525586, 0.30374999914783984, 0.29835000168532133, 0.29115000506863, 0.29600001289509237, 0.2982000005431473, 0.29695000557694584, 0.2884999994421378, 0.2940499980468303, 0.2960499987239018, 0.29764999635517597, 0.3154500009259209, 0.2940499980468303, 0.29305000498425215, 0.2994499955093488, 0.29824998637195677, 0.3064500051550567, 0.30015000083949417, 0.30050000350456685, 0.30005000007804483, 0.32219999411609024, 0.2965000021504238, 0.2986000035889447, 0.2932499919552356, 0.30035000236239284, 0.29510000604204834, 0.2958999975817278, 0.302100001135841, 0.29910000739619136, 0.3026000049430877, 0.30899999546818435, 0.3030499938176945, 0.29990001348778605, 0.30029998742975295, 0.2931000053649768, 0.299150007776916, 0.2955999952973798, 0.302400003420189, 0.2935999946203083, 0.2955499949166551, 0.29534999339375645, 0.2935999946203083, 0.3009999927598983, 0.29665000329259783, 0.294550001854077, 0.30995000270195305, 0.2993499947478995, 0.2997999981744215, 0.29445000109262764, 0.29510000604204834, 0.3199500060873106, 0.3048499929718673, 0.2900499966926873, 0.2955999952973798, 0.2955499949166551, 0.2923499996541068, 0.2951499918708578, 0.2968499902635813, 0.2977499971166253, 0.2960999991046265, 0.3105999930994585, 0.2953500079456717, 0.3044500044779852, 0.29385001107584685, 0.30184999923221767, 0.2896999940276146, 0.29584999720100313, 0.29680000443477184, 0.30470000638160855, 0.29084998823236674, 0.302100001135841, 0.3161999920848757, 0.2931500057457015, 0.3065999917453155, 0.298700004350394, 0.2972499933093786, 0.2922999992733821, 0.2967000036733225, 0.3058500005863607, 0.2975999959744513, 0.305800000205636, 0.3034999972442165, 0.3112999984296039, 0.29555000946857035, 0.32550000469200313, 0.301049993140623, 0.3077000001212582, 0.2949499903479591, 0.2948000037577003, 0.29815000016242266, 0.29719999292865396, 0.2963500010082498, 0.30315000913105905, 0.298850005492568, 0.29969999741297215, 0.3188499977113679, 0.29925000853836536, 0.29909999284427613, 0.2906000008806586, 0.30184999923221767, 0.2960499987239018, 0.29549999453593045, 0.2973000082420185, 0.29180001001805067, 0.42149999353569, 0.2961999998660758, 0.3384500014362857, 0.30085000616963953, 0.4262999864295125, 0.2977499971166253, 0.29314999119378626, 0.2906000008806586, 0.2973000082420185, 0.3174500016029924, 0.3025499900104478, 0.3083500050706789, 0.294700002996251, 0.3097500011790544, 0.2993500092998147, 0.474000014946796, 0.302250002278015, 0.3055499983020127, 0.2943500003311783, 0.2938999969046563, 0.29665000329259783, 0.3029500076081604, 0.2945999876828864, 0.29594999796245247, 0.4008499818155542, 0.3004000027431175, 0.33710000570863485, 0.294550001854077, 0.39149999793153256, 0.30139999580569565, 0.3405500028748065, 0.3001000004587695, 0.29660000291187316, 0.28345000464469194, 0.31259999377653, 0.39590000233147293, 0.30324999534059316, 0.29379999614320695, 0.2951499918708578, 0.2927000023191795, 0.3095499996561557, 0.2976500109070912, 0.3060999879380688, 0.297949998639524, 0.298700004350394, 0.3075499989790842, 0.2953500079456717, 0.30699999479111284, 0.2921499981312081, 0.3132999991066754, 0.29845000244677067, 0.2930999908130616, 0.29590001213364303, 0.2965500025311485, 0.29815000016242266, 0.3033499961020425, 0.30509999487549067, 0.2906000008806586, 0.2989499917021021, 0.298850005492568, 0.30649999098386616, 0.292050011921674, 0.2913999924203381, 0.2975999959744513, 0.2995000104419887, 0.29630000062752515, 0.2952999930130318, 0.3235500043956563, 0.28994999593123794, 0.29674998950213194, 0.30425000295508653, 0.309199996991083, 0.2893000055337325, 0.29695000557694584, 0.30380001408047974, 0.29414999880827963, 0.29519999225158244, 0.2983499871334061, 0.3195000026607886, 0.3007000050274655, 0.294400000711903, 0.29334999271668494, 0.30005000007804483, 0.29015001200605184, 0.29725000786129385, 0.29355000879149884, 0.29584999720100313, 0.30685000820085406, 0.2872500044759363, 0.2993499947478995, 0.2922999992733821, 0.29764999635517597, 0.30169999809004366, 0.2952499926323071, 0.301799998851493, 0.29394999728538096, 0.294550001854077, 0.29499999072868377, 0.30065000464674085, 0.2970000059576705, 0.3007500054081902, 0.3060000017285347, 0.29859998903702945, 0.29115000506863, 0.295600009849295, 0.29984999855514616, 0.2962500002468005, 0.2928500034613535, 0.29645000176969916, 0.3144000074826181, 0.29909999284427613, 0.29909999284427613, 0.3006000042660162, 0.295300007564947, 0.29245000041555613, 0.29680000443477184, 0.301649997709319, 0.29969999741297215, 0.3132499987259507, 0.2972499933093786, 0.30419998802244663, 0.2964999875985086, 0.29614999948535115, 0.291600008495152, 0.2980499994009733, 0.29645000176969916, 0.29614999948535115, 0.3083000046899542, 0.30610000248998404, 0.308749993564561, 0.29654998797923326, 0.3432000085012987, 0.30139999580569565, 0.4133000038564205, 0.48975001845974475, 0.41584999416954815, 0.295750010991469, 0.29505000566132367, 0.2965000021504238, 0.2960499987239018, 0.2902999985963106, 0.29675000405404717, 0.2980499994009733, 0.2958999975817278, 0.3012500092154369, 0.3077000001212582, 0.29090000316500664, 0.305499997921288, 0.2944499865407124, 0.2997999981744215, 0.28994999593123794, 0.29734999407082796, 0.29505000566132367, 0.2905000001192093, 0.2941999991890043, 0.2941999991890043, 0.29930000891909003, 0.2919999969890341, 0.2987500047311187, 0.2996499970322475, 0.2940499980468303, 0.29590001213364303, 0.29824998637195677, 0.29399999766610563, 0.2931000053649768, 0.3080500027863309, 0.29555000946857035, 0.2918999962275848, 0.3005499893333763, 0.299000006634742, 0.3087999939452857, 0.3032000095117837, 0.2955499949166551, 0.301949999993667, 0.30884999432601035, 0.30050000350456685, 0.304749992210418, 0.3007500054081902, 0.2961999998660758, 0.2920499973697588, 0.30744999821763486, 0.29055000049993396, 0.29409999842755497, 0.294550001854077, 0.3021500015165657, 0.30205000075511634, 0.2929500042228028, 0.2912500058300793, 0.29660000291187316, 0.30420000257436186, 0.29209999775048345, 0.29379999614320695, 0.29599999834317714, 0.287750008283183, 0.2993499947478995, 0.3047500067623332, 0.30280000646598637, 0.3012999950442463, 0.29569999605882913, 0.2980499994009733, 0.30139999580569565, 0.294700002996251, 0.30184999923221767, 0.29865000396966934, 0.2917499950854108, 0.28845001361332834, 0.29414999880827963, 0.29919999360572547, 0.2978999982587993, 0.29645000176969916, 0.29534999339375645, 0.29924999398645014, 0.294700002996251, 0.3042499884031713, 0.33525000617373735, 0.29564999567810446, 0.2969499910250306, 0.29680000443477184, 0.30870000773575157, 0.30079999123699963, 0.29754999559372663, 0.30205000075511634, 0.29630000062752515, 0.3036499983863905, 0.2970999921672046, 0.2989000058732927, 0.2913499920396134, 0.32714998815208673, 0.3038499999092892, 0.2968500048154965, 0.2931000053649768, 0.301349995424971, 0.30085000616963953, 0.2943500003311783, 0.3026999911526218, 0.30590000096708536, 0.2930000046035275, 0.29504999110940844, 0.3235000040149316, 0.3032500098925084, 0.28789999487344176, 0.2973500086227432, 0.2973500086227432, 0.29394999728538096, 0.3002499870490283, 0.29614999948535115, 0.2931000053649768, 0.3033499961020425, 0.30265000532381237, 0.31550000130664557, 0.30205000075511634, 0.2973000082420185, 0.2953500079456717, 0.324350010487251, 0.29855000320822, 0.29224999889265746, 0.29525000718422234, 0.2962500002468005, 0.29224999889265746, 0.29725000786129385, 0.30529999639838934, 0.29919999360572547, 0.30965000041760504, 0.2899999963119626, 0.3058500005863607, 0.29520000680349767, 0.29645000176969916, 0.294400000711903, 0.29830000130459666, 0.29475000337697566, 0.2928500034613535, 0.35650000791065395, 0.30344999686349183, 0.4261499998392537, 0.2766499965218827, 0.4606000002240762, 0.2958000113721937, 0.2941999991890043, 0.2939000114565715, 0.30294999305624515, 0.2937499957624823, 0.3048000071430579, 0.29594999796245247, 0.31185000261757523, 0.29799999902024865, 0.2989499917021021, 0.3041500021936372, 0.30259999039117247, 0.30020000122021884, 0.29460000223480165, 0.2906500012613833, 0.30590000096708536, 0.2967000036733225, 0.30059998971410096, 0.2937499957624823, 0.29725000786129385, 0.3067500074394047, 0.2939500118372962, 0.29719999292865396, 0.3333500062581152, 0.3040000010514632, 0.29115000506863, 0.295450008707121, 0.2962500002468005, 0.2996499970322475, 0.30130000959616154, 0.2941999991890043, 0.29815000016242266, 0.29799999902024865, 0.2963500010082498, 0.29725000786129385, 0.3024500038009137, 0.2964999875985086, 0.29599999834317714, 0.29919999360572547, 0.29850000282749534, 0.29855000320822, 0.3032999957213178, 0.3029000072274357, 0.30300000798888505, 0.30309999419841915, 0.29475000337697566, 0.3103500057477504, 0.29350000841077417, 0.29889999132137746, 0.29194999660830945, 0.2978999982587993, 0.30450000485870987, 0.30095000693108886, 0.2987999905599281, 0.2930999908130616, 0.29335000726860017, 0.2935999946203083, 0.2974499948322773, 0.2951499918708578, 0.3006999904755503, 0.2967000036733225, 0.2952499926323071, 0.301799998851493, 0.2977499971166253, 0.34020000020973384, 0.3007500054081902, 0.30265000532381237, 0.2911999908974394, 0.31099999614525586, 0.2964000013889745, 0.28935000591445714, 0.29325000650715083, 0.30154999694786966, 0.30005000007804483, 0.30699999479111284, 0.2987500047311187, 0.2928500034613535, 0.299000006634742, 0.2970000059576705, 0.29784999787807465, 0.2911000046879053, 0.29954999627079815, 0.29969999741297215, 0.298850005492568, 0.3150000120513141, 0.2965500025311485, 0.2937499957624823, 0.3009000065503642, 0.28989999555051327, 0.2960999991046265, 0.3072499966947362, 0.29525000718422234, 0.29540000832639635, 0.30524999601766467, 0.30174999847076833, 0.30065000464674085, 0.3021500015165657, 0.2941999991890043, 0.295300007564947, 0.30220000189729035, 0.2968499902635813, 0.29429999995045364, 0.2961500140372664, 0.2992999943671748, 0.2992999943671748, 0.2960499987239018, 0.2943500003311783, 0.29599999834317714, 0.30085000616963953, 0.30354999762494117, 0.29409999842755497, 0.2960999991046265, 0.29614999948535115, 0.29594999796245247, 0.29999999969732016, 0.2940499980468303, 0.29525000718422234, 0.3378999972483143, 0.29379999614320695, 0.2971499925479293, 0.2961999998660758, 0.3011499939020723, 0.29445000109262764, 0.29865000396966934, 0.2911999908974394, 0.298099999781698, 0.3042499884031713, 0.2952999930130318, 0.2993500092998147, 0.29275000269990414, 0.3009000065503642, 0.291750009637326, 0.29379999614320695, 0.29209999775048345, 0.29579999682027847, 0.3148500109091401, 0.29075000202283263, 0.42294999002479017, 0.29904999246355146, 0.29614999948535115, 0.2997499977936968, 0.30169999809004366, 0.29645000176969916, 0.2934499934781343, 0.29754999559372663, 0.2937499957624823, 0.3071000101044774, 0.30574999982491136, 0.3012500092154369, 0.31600000511389226, 0.295150006422773, 0.295600009849295, 0.31629999284632504, 0.2932499919552356, 0.2918499958468601, 0.2980499994009733, 0.3034999972442165, 0.28920000477228314, 0.2915499935625121, 0.3014499961864203, 0.304899993352592, 0.25585000548744574, 0.3014000103576109, 0.32315000134985894, 0.3040499868802726, 0.30169999809004366, 0.30094999237917364, 0.2970000059576705, 0.3046500060008839, 0.3014000103576109, 0.2864499983843416, 0.4518999921856448, 0.2924499858636409, 0.2962500002468005, 0.2903500135289505, 0.3056999994441867, 0.3007000050274655, 0.30315000913105905, 0.29159999394323677, 0.301649997709319, 0.29594999796245247, 0.30020000122021884, 0.30005000007804483, 0.2995999966515228, 0.3220999933546409, 0.3005500038852915, 0.30124999466352165, 0.298250000923872],
  "QPU": "7000000",
  "Qubits": 6,
  "Queue durations [ms]": [0.0, 0.0, 0.0, 0.0, 0.0, 0.0, 0.0, 0.0, 0.0, 0.0, 0.0, 0.0, 0.0, 0.0, 0.0, 0.0, 0.0, 0.0, 0.0, 0.0, 0.0, 0.0, 0.0, 0.0, 0.0, 0.0, 0.0, 0.0, 0.0, 0.0, 0.0, 0.0, 0.0, 0.0, 0.0, 0.0, 0.0, 0.0, 0.0, 0.0, 0.0, 0.0, 0.0, 0.0, 0.0, 0.0, 0.0, 0.0, 0.0, 0.0, 0.0, 0.0, 0.0, 0.0, 0.0, 0.0, 0.0, 0.0, 0.0, 0.0, 0.0, 0.0, 0.0, 0.0, 0.0, 0.0, 0.0, 0.0, 0.0, 0.0, 0.0, 0.0, 0.0, 0.0, 0.0, 0.0, 0.0, 0.0, 0.0, 0.0, 0.0, 0.0, 0.0, 0.0, 0.0, 0.0, 0.0, 0.0, 0.0, 0.0, 0.0, 0.0, 0.0, 0.0, 0.0, 0.0, 0.0, 0.0, 0.0, 0.0, 0.0, 0.0, 0.0, 0.0, 0.0, 0.0, 0.0, 0.0, 0.0, 0.0, 0.0, 0.0, 0.0, 0.0, 0.0, 0.0, 0.0, 0.0, 0.0, 0.0, 0.0, 0.0, 0.0, 0.0, 0.0, 0.0, 0.0, 0.0, 0.0, 0.0, 0.0, 0.0, 0.0, 0.0, 0.0, 0.0, 0.0, 0.0, 0.0, 0.0, 0.0, 0.0, 0.0, 0.0, 0.0, 0.0, 0.0, 0.0, 0.0, 0.0, 0.0, 0.0, 0.0, 0.0, 0.0, 0.0, 0.0, 0.0, 0.0, 0.0, 0.0, 0.0, 0.0, 0.0, 0.0, 0.0, 0.0, 0.0, 0.0, 0.0, 0.0, 0.0, 0.0, 0.0, 0.0, 0.0, 0.0, 0.0, 0.0, 0.0, 0.0, 0.0, 0.0, 0.0, 0.0, 0.0, 0.0, 0.0, 0.0, 0.0, 0.0, 0.0, 0.0, 0.0, 0.0, 0.0, 0.0, 0.0, 0.0, 0.0, 0.0, 0.0, 0.0, 0.0, 0.0, 0.0, 0.0, 0.0, 0.0, 0.0, 0.0, 0.0, 0.0, 0.0, 0.0, 0.0, 0.0, 0.0, 0.0, 0.0, 0.0, 0.0, 0.0, 0.0, 0.0, 0.0, 0.0, 0.0, 0.0, 0.0, 0.0, 0.0, 0.0, 0.0, 0.0, 0.0, 0.0, 0.0, 0.0, 0.0, 0.0, 0.0, 0.0, 0.0, 0.0, 0.0, 0.0, 0.0, 0.0, 0.0, 0.0, 0.0, 0.0, 0.0, 0.0, 0.0, 0.0, 0.0, 0.0, 0.0, 0.0, 0.0, 0.0, 0.0, 0.0, 0.0, 0.0, 0.0, 0.0, 0.0, 0.0, 0.0, 0.0, 0.0, 0.0, 0.0, 0.0, 0.0, 0.0, 0.0, 0.0, 0.0, 0.0, 0.0, 0.0, 0.0, 0.0, 0.0, 0.0, 0.0, 0.0, 0.0, 0.0, 0.0, 0.0, 0.0, 0.0, 0.0, 0.0, 0.0, 0.0, 0.0, 0.0, 0.0, 0.0, 0.0, 0.0, 0.0, 0.0, 0.0, 0.0, 0.0, 0.0, 0.0, 0.0, 0.0, 0.0, 0.0, 0.0, 0.0, 0.0, 0.0, 0.0, 0.0, 0.0, 0.0, 0.0, 0.0, 0.0, 0.0, 0.0, 0.0, 0.0, 0.0, 0.0, 0.0, 0.0, 0.0, 0.0, 0.0, 0.0, 0.0, 0.0, 0.0, 0.0, 0.0, 0.0, 0.0, 0.0, 0.0, 0.0, 0.0, 0.0, 0.0, 0.0, 0.0, 0.0, 0.0, 0.0, 0.0, 0.0, 0.0, 0.0, 0.0, 0.0, 0.0, 0.0, 0.0, 0.0, 0.0, 0.0, 0.0, 0.0, 0.0, 0.0, 0.0, 0.0, 0.0, 0.0, 0.0, 0.0, 0.0, 0.0, 0.0, 0.0, 0.0, 0.0, 0.0, 0.0, 0.0, 0.0, 0.0, 0.0, 0.0, 0.0, 0.0, 0.0, 0.0, 0.0, 0.0, 0.0, 0.0, 0.0, 0.0, 0.0, 0.0, 0.0, 0.0, 0.0, 0.0, 0.0, 0.0, 0.0, 0.0, 0.0, 0.0, 0.0, 0.0, 0.0, 0.0, 0.0, 0.0, 0.0, 0.0, 0.0, 0.0, 0.0, 0.0, 0.0, 0.0, 0.0, 0.0, 0.0, 0.0, 0.0, 0.0, 0.0, 0.0, 0.0, 0.0, 0.0, 0.0, 0.0, 0.0, 0.0, 0.0, 0.0, 0.0, 0.0, 0.0, 0.0, 0.0, 0.0, 0.0, 0.0, 0.0, 0.0, 0.0, 0.0, 0.0, 0.0, 0.0, 0.0, 0.0, 0.0, 0.0, 0.0, 0.0, 0.0, 0.0, 0.0, 0.0, 0.0, 0.0, 0.0, 0.0, 0.0, 0.0, 0.0, 0.0, 0.0, 0.0, 0.0, 0.0, 0.0, 0.0, 0.0, 0.0, 0.0, 0.0, 0.0, 0.0, 0.0, 0.0, 0.0, 0.0, 0.0, 0.0, 0.0, 0.0, 0.0, 0.0, 0.0, 0.0, 0.0, 0.0, 0.0, 0.0, 0.0, 0.0, 0.0, 0.0, 0.0, 0.0, 0.0, 0.0, 0.0, 0.0, 0.0, 0.0, 0.0, 0.0, 0.0, 0.0, 0.0, 0.0, 0.0, 0.0, 0.0, 0.0, 0.0, 0.0, 0.0, 0.0, 0.0, 0.0, 0.0, 0.0, 0.0, 0.0, 0.0, 0.0, 0.0, 0.0, 0.0, 0.0, 0.0, 0.0, 0.0, 0.0, 0.0, 0.0, 0.0, 0.0, 0.0, 0.0, 0.0, 0.0, 0.0, 0.0, 0.0, 0.0, 0.0, 0.0, 0.0, 0.0, 0.0, 0.0, 0.0, 0.0, 0.0, 0.0, 0.0, 0.0, 0.0, 0.0, 0.0, 0.0, 0.0, 0.0, 0.0, 0.0, 0.0, 0.0, 0.0, 0.0, 0.0, 0.0, 0.0, 0.0, 0.0, 0.0, 0.0, 0.0, 0.0, 0.0, 0.0, 0.0, 0.0, 0.0, 0.0, 0.0, 0.0, 0.0, 0.0, 0.0, 0.0, 0.0, 0.0, 0.0, 0.0, 0.0, 0.0, 0.0, 0.0, 0.0, 0.0, 0.0, 0.0, 0.0, 0.0, 0.0, 0.0, 0.0, 0.0, 0.0, 0.0],
  "Shots": 4096,
  "Size": 6,
  "Total Algorithm duration [s]": 4.623,
  "Total Classic duration [s]": 4.433327800012601,
  "Total Quantum duration [s]": 0.18967219998739893
}
