{
  "Circuit execution durations [ms]": [0.308899994706735, 0.29910000739619136, 0.3075499989790842, 0.29409999842755497, 0.30050000350456685, 0.2970000059576705, 0.29669998912140727, 0.29904999246355146, 0.29299999005161226, 0.30840000545140356, 0.2963500010082498, 0.3056999994441867, 0.301199994282797, 0.29799999902024865, 0.3090999962296337, 0.298250000923872, 0.29504999110940844, 0.29499999072868377, 0.301949999993667, 0.29564999567810446, 0.29939999512862414, 0.3029500076081604, 0.30444998992607, 0.29460000223480165, 0.291450007352978, 0.3047500067623332, 0.30810000316705555, 0.2974499948322773, 0.2951499918708578, 0.29665000329259783, 0.30860000697430223, 0.2961999998660758, 0.2989499917021021, 0.29784999787807465, 0.2997000119648874, 0.301949999993667, 0.301949999993667, 0.29549999453593045, 0.29144999280106276, 0.29584999720100313, 0.297949998639524, 0.30074999085627496, 0.3032999957213178, 0.295000005280599, 0.3052500105695799, 0.29105000430718064, 0.301649997709319, 0.3030499938176945, 0.3195000026607886, 0.31274999491870403, 0.2969000051962212, 0.29845000244677067, 0.29749999521300197, 0.2930999908130616, 0.2996499970322475, 0.3107999946223572, 0.30265000532381237, 0.2995500108227134, 0.2970000059576705, 0.294700002996251, 0.3029999934369698, 0.29775001166854054, 0.38204999873414636, 0.2969000051962212, 0.30154999694786966, 0.3034999972442165, 0.30995000270195305, 0.2941999991890043, 0.29784999787807465, 0.3093999985139817, 0.295150006422773, 0.47924998216331005, 0.295150006422773, 0.3016500122612342, 0.29540000832639635, 0.3031000087503344, 0.42969999776687473, 0.30425000295508653, 0.29115000506863, 0.2969999914057553, 0.49310000031255186, 0.30729999707546085, 0.3532999980961904, 0.30315000913105905, 0.29940000968053937, 0.2989000058732927, 0.3064500051550567, 0.29105000430718064, 0.2952999930130318, 0.30169999809004366, 0.29305000498425215, 0.30115000845398754, 0.30160001188050956, 0.30494999373331666, 0.29594999796245247, 0.2986000035889447, 0.3008499916177243, 0.2970500063383952, 0.2953999937744811, 0.2999500138685107, 0.29719999292865396, 0.30115000845398754, 0.2903499989770353, 0.2992000081576407, 0.295000005280599, 0.30095000693108886, 0.29799999902024865, 0.29969999741297215, 0.29024999821558595, 0.2914000069722533, 0.3068000078201294, 0.30074999085627496, 0.304899993352592, 0.2929500042228028, 0.302100001135841, 0.295450008707121, 0.29889999132137746, 0.295150006422773, 0.3028499922947958, 0.29075000202283263, 0.30169999809004366, 0.2974499948322773, 0.2938499965239316, 0.29534999339375645, 0.29105000430718064, 0.3036999987671152, 0.29975001234561205, 0.29409999842755497, 0.2997999981744215, 0.2903499989770353, 0.30559999868273735, 0.2912500058300793, 0.302400003420189, 0.29260000155773014, 0.295600009849295, 0.2965000021504238, 0.30605000210925937, 0.29784999787807465, 0.29880000511184335, 0.29599999834317714, 0.29725000786129385, 0.29594999796245247, 0.30169999809004366, 0.30529999639838934, 0.2941999991890043, 0.3005500038852915, 0.30399998649954796, 0.3031499945791438, 0.30169999809004366, 0.2945000014733523, 0.3150999982608482, 0.295000005280599, 0.2909500035457313, 0.3012000088347122, 0.3029500076081604, 0.29549999453593045, 0.302400003420189, 0.2938999969046563, 0.29739999445155263, 0.294550001854077, 0.29489998996723443, 0.31644999398849905, 0.29865000396966934, 0.3612000000430271, 0.2910499897552654, 0.2995999966515228, 0.2992999943671748, 0.30169999809004366, 0.2962500002468005, 0.3063999902224168, 0.2914000069722533, 0.29350000841077417, 0.30085000616963953, 0.30434998916462064, 0.29364999500103295, 0.2934499934781343, 0.29594999796245247, 0.2939500118372962, 0.29660000291187316, 0.29630000062752515, 0.2897500089602545, 0.30780000088270754, 0.3985999937867746, 0.30005000007804483, 0.29334999271668494, 0.2969499910250306, 0.29939999512862414, 0.30020000122021884, 0.29399999766610563, 0.2938499965239316, 0.2946500026155263, 0.29725000786129385, 0.2889500028686598, 0.2976500109070912, 0.30235000303946435, 0.2941999991890043, 0.30115000845398754, 0.3007500054081902, 0.3014000103576109, 0.2992999943671748, 0.29194999660830945, 0.29364999500103295, 0.295750010991469, 0.3020000003743917, 0.2994999958900735, 0.2952499926323071, 0.31119999766815454, 0.31784999009687454, 0.30080000578891486, 0.30949999927543104, 0.29245000041555613, 0.32360000477638096, 0.2935499942395836, 0.29185001039877534, 0.29584999720100313, 0.2970000059576705, 0.2962999860756099, 0.3030500083696097, 0.3039500006707385, 0.29645000176969916, 0.30344999686349183, 0.2967000036733225, 0.31524999940302223, 0.2907499874709174, 0.31370000215247273, 0.29399999766610563, 0.2995500108227134, 0.29070000164210796, 0.29904999246355146, 0.29504999110940844, 0.3065999917453155, 0.30174999847076833, 0.2960499987239018, 0.29760001052636653, 0.29654998797923326, 0.2928000030806288, 0.3036999987671152, 0.29394999728538096, 0.29240000003483146, 0.2929499896708876, 0.2936999953817576, 0.315849989419803, 0.29835000168532133, 0.30440000409726053, 0.2969000051962212, 0.298400002066046, 0.2995999966515228, 0.2972499933093786, 0.29830000130459666, 0.32654999813530594, 0.29240000003483146, 0.30729999707546085, 0.2930499904323369, 0.2995500108227134, 0.30435000371653587, 0.2950999914901331, 0.3037999995285645, 0.29319999157451093, 0.29334999271668494, 0.3031499945791438, 0.29105000430718064, 0.2912500058300793, 0.2997999981744215, 0.30184999923221767, 0.3030500083696097, 0.298400002066046, 0.29779999749735, 0.305349996779114, 0.2975000097649172, 0.29399999766610563, 0.2941999991890043, 0.30029998742975295, 0.29329999233596027, 0.29984999855514616, 0.2936999953817576, 0.2945000014733523, 0.3040499868802726, 0.2941999991890043, 0.3007000050274655, 0.29855000320822, 0.30530001095030457, 0.29540000832639635, 0.3082499897573143, 0.31200000375974923, 0.3032999957213178, 0.2972499933093786, 0.297949998639524, 0.2994999958900735, 0.29695000557694584, 0.29570001061074436, 0.2987500047311187, 0.29340000764932483, 0.2975000097649172, 0.2963499864563346, 0.29579999682027847, 0.30154999694786966, 0.29845000244677067, 0.2926499873865396, 0.2873499906854704, 0.304899993352592, 0.3005500038852915, 0.29675000405404717, 0.29779999749735, 0.30764999974053353, 0.29445000109262764, 0.2995000104419887, 0.2922999992733821, 0.29070000164210796, 0.29665000329259783, 0.2996499970322475, 0.29399999766610563, 0.2925000007962808, 0.3001000004587695, 0.29645000176969916, 0.301499996567145, 0.3075499989790842, 0.29969999741297215, 0.29549999453593045, 0.3071000101044774, 0.298250000923872, 0.3227499983040616, 0.28915000439155847, 0.36094999813940376, 0.301949999993667, 0.2936500095529482, 0.31084999500308186, 0.3034999972442165, 0.298700004350394, 0.29835000168532133, 0.29399999766610563, 0.302250002278015, 0.30315000913105905, 0.29769999673590064, 0.30494999373331666, 0.2929499896708876, 0.3028999926755205, 0.3014000103576109, 0.3014499961864203, 0.2930499904323369, 0.29185001039877534, 0.29680000443477184, 0.2960999991046265, 0.2990500070154667, 0.29224999889265746, 0.2983499871334061, 0.29695000557694584, 0.30354999762494117, 0.29409999842755497, 0.29799999902024865, 0.2967000036733225, 0.2918499958468601, 0.2905000001192093, 0.297949998639524, 0.3004500031238422, 0.2895499928854406, 0.2913999924203381, 0.2906000008806586, 0.3002500016009435, 0.2964000013889745, 0.29414999880827963, 0.2934499934781343, 0.3020000003743917, 0.29734999407082796, 0.29010001162532717, 0.2991499932250008, 0.2955999952973798, 0.305649999063462, 0.2937500103143975, 0.2980499994009733, 0.2933000068878755, 0.2943500003311783, 0.30029998742975295, 0.3061500028707087, 0.30264999077189714, 0.30479999259114265, 0.3004999889526516, 0.3014000103576109, 0.29850000282749534, 0.2917499950854108, 0.2925000007962808, 0.295300007564947, 0.2967999898828566, 0.29320000612642616, 0.4187500016996637, 0.2945000014733523, 0.3122000052826479, 0.3421500005060807, 0.30184999923221767, 0.3007500054081902, 0.2973500086227432, 0.29520000680349767, 0.2932499919552356, 0.3028499922947958, 0.3002500016009435, 0.2915499935625121, 0.2911999908974394, 0.29564999567810446, 0.30524999601766467, 0.3003000019816682, 0.2933000068878755, 0.29845000244677067, 0.29355000879149884, 0.2940499980468303, 0.2985499886563048, 0.29070000164210796, 0.29399999766610563, 0.2895499928854406, 0.29245000041555613, 0.2909499889938161, 0.2927000023191795, 0.3003000019816682, 0.28914998983964324, 0.3005499893333763, 0.29779999749735, 0.2990500070154667, 0.29194999660830945, 0.3031000087503344, 0.2951499918708578, 0.29754999559372663, 0.29909999284427613, 0.3074999985983595, 0.30479999259114265, 0.3126500087091699, 0.2930000046035275, 0.29734999407082796, 0.29510000604204834, 0.30089999199844897, 0.3097000007983297, 0.2992999943671748, 0.2974500093841925, 0.29990001348778605, 0.30759999935980886, 0.30130000959616154, 0.3004000027431175, 0.3029999934369698, 0.2982000005431473, 0.29490000451914966, 0.29939999512862414, 0.3230500005884096, 0.295150006422773, 0.2857999934349209, 0.30079999123699963, 0.31350000062957406, 0.3017000126419589, 0.29414999880827963, 0.2893999917432666, 0.29734999407082796, 0.30285000684671104, 0.3043000033358112, 0.304899993352592, 0.2969999914057553, 0.2989000058732927, 0.3064499906031415, 0.3029999934369698, 0.291000003926456, 0.29129999165888876, 0.302400003420189],
  "Depth": 14.5,
  "Expectation Value": -6.81676721572876,
  "Optimal Expectation Value": -7.296229839324951,
  "Optimizer durations [ms]": [7.197, 7.173, 7.245, 6.937, 6.918, 6.825, 7.026, 7.032, 6.851, 7.24, 6.877, 7.3, 6.942, 6.797, 7.282, 7.037, 6.931, 7.06, 6.839, 6.939, 7.136, 7.326, 7.085, 6.806, 6.547, 7.183, 7.066, 6.98, 6.939, 6.699, 7.202, 6.831, 6.987, 7.16, 7.041, 6.872, 6.893, 6.99, 6.759, 7.192, 6.68, 7.294, 7.025, 6.699, 7.392, 6.511, 7.363, 9.349, 7.22, 7.343, 6.911, 15.822, 6.891, 7.024, 10.709, 7.237, 7.128, 6.846, 9.204, 6.806, 6.977, 7.241, 15.894, 9.557, 6.825, 7.329, 7.3, 8.77, 7.039, 7.326, 6.681, 10.311, 14.32, 7.426, 6.938, 7.268, 9.087, 6.978, 8.096, 6.882, 10.791, 14.699, 8.189, 10.692, 6.942, 7.015, 7.068, 6.891, 6.881, 7.149, 6.656, 7.025, 7.052, 6.953, 13.08, 6.786, 7.207, 6.666, 6.969, 7.278, 6.931, 7.072, 6.682, 7.255, 6.653, 7.203, 6.952, 7.096, 6.713, 7.383, 7.556, 7.117, 6.836, 7.077, 7.139, 7.062, 6.749, 6.837, 6.942, 7.003, 7.258, 6.78, 7.027, 6.873, 6.763, 6.976, 6.975, 7.152, 6.932, 6.996, 7.064, 6.667, 7.262, 6.724, 6.904, 6.887, 7.301, 7.157, 6.785, 7.053, 7.01, 6.774, 7.125, 6.983, 7.154, 6.889, 7.296, 6.965, 7.279, 6.929, 7.284, 6.853, 7.055, 6.986, 7.18, 6.731, 7.128, 6.607, 7.188, 6.918, 6.955, 7.178, 7.002, 7.944, 7.129, 6.751, 6.852, 7.179, 6.721, 7.15, 6.874, 6.869, 6.844, 7.181, 6.863, 6.752, 6.95, 7.098, 6.733, 6.864, 7.024, 18.578, 12.116, 8.051, 6.723, 7.384, 6.977, 7.058, 6.805, 6.825, 6.967, 6.966, 7.125, 7.017, 7.114, 7.103, 7.258, 7.128, 6.966, 6.734, 7.076, 6.887, 6.59, 7.258, 6.826, 6.924, 7.685, 7.253, 7.166, 6.995, 6.658, 7.384, 6.913, 7.064, 6.915, 6.989, 6.707, 7.263, 7.092, 6.935, 7.214, 6.664, 7.336, 9.615, 7.178, 7.052, 7.125, 6.705, 7.047, 6.816, 7.425, 6.942, 15.142, 7.037, 6.805, 6.747, 7.186, 7.125, 6.846, 6.846, 6.647, 7.397, 6.709, 7.227, 6.811, 7.286, 7.035, 7.02, 6.85, 7.75, 6.718, 7.246, 6.695, 6.979, 6.944, 6.87, 7.223, 6.672, 7.086, 6.917, 6.776, 7.396, 6.797, 7.019, 7.267, 7.045, 6.725, 7.29, 6.795, 6.961, 6.654, 7.184, 6.758, 7.061, 6.815, 6.826, 7.224, 6.805, 7.109, 7.041, 7.187, 6.717, 7.479, 7.187, 7.139, 6.779, 7.115, 7.068, 7.031, 7.097, 7.107, 6.668, 7.24, 6.774, 7.059, 7.134, 7.009, 6.894, 6.766, 7.188, 7.258, 7.064, 6.828, 7.272, 6.783, 7.167, 6.755, 6.912, 6.838, 6.907, 7.09, 6.83, 7.155, 6.954, 6.958, 7.1, 7.019, 6.955, 7.276, 6.933, 7.487, 25.168, 8.568, 7.146, 7.03, 7.294, 6.92, 7.059, 6.678, 7.126, 7.017, 7.089, 6.936, 7.149, 6.947, 7.007, 7.142, 7.021, 7.018, 6.504, 7.074, 7.038, 7.264, 6.557, 6.979, 6.903, 7.018, 6.803, 6.866, 7.334, 6.745, 6.925, 6.731, 7.147, 6.734, 6.865, 6.836, 7.001, 6.823, 7.132, 6.743, 7.075, 6.909, 7.238, 6.967, 6.921, 7.302, 6.797, 6.997, 6.884, 6.788, 15.449, 6.918, 7.391, 6.947, 7.154, 6.9, 7.026, 7.191, 6.857, 6.898, 6.957, 6.724, 9.417, 6.787, 7.319, 7.812, 7.009, 6.908, 7.026, 6.845, 6.871, 6.964, 6.989, 7.006, 6.67, 7.071, 7.397, 6.999, 6.516, 7.221, 6.691, 7.228, 6.897, 6.867, 6.642, 7.001, 6.726, 6.785, 6.955, 6.879, 6.91, 6.991, 7.131, 6.683, 6.828, 7.261, 6.993, 6.866, 7.024, 7.291, 6.963, 7.398, 6.851, 7.11, 6.971, 6.908, 7.34, 6.856, 6.79, 7.187, 7.243, 6.881, 6.91, 7.106, 7.181, 6.733, 7.121, 7.26, 6.955, 7.006, 6.94, 7.311, 7.083, 6.753, 6.72, 7.14, 6.913, 7.252, 7.215, 6.681, 6.925, 7.312, 6.943, 6.911, 6.651, 7.098],
  "Optimizer iterations": 457,
  "Optimizer params": [0.4271426673426088, 0.9580939215950771, 0.9357453260645261, 1.0, 0.4265222758828543, 0.9964282584721617, 0.6452119694351716, 0.050627027607160584, 0.3252444817899911, 0.3319659174214172, 0.5954391634642545, 0.11334025320781041, 0.49786011899227456, 0.5128808054056472, 0.025949998660891538, 0.049347798567822856, 0.5608185903691721, 0.45928102066135557, 0.7037976841618651, 0.9496311527401099, 0.12923192457309274, 0.9997252812757939, 0.0672162748054598, 0.5261564119588894],
  "P": 0,
  "Problem": "IC",
  "QJob durations [ms]": [0.308899994706735, 0.29910000739619136, 0.3075499989790842, 0.29409999842755497, 0.30050000350456685, 0.2970000059576705, 0.29669998912140727, 0.29904999246355146, 0.29299999005161226, 0.30840000545140356, 0.2963500010082498, 0.3056999994441867, 0.301199994282797, 0.29799999902024865, 0.3090999962296337, 0.298250000923872, 0.29504999110940844, 0.29499999072868377, 0.301949999993667, 0.29564999567810446, 0.29939999512862414, 0.3029500076081604, 0.30444998992607, 0.29460000223480165, 0.291450007352978, 0.3047500067623332, 0.30810000316705555, 0.2974499948322773, 0.2951499918708578, 0.29665000329259783, 0.30860000697430223, 0.2961999998660758, 0.2989499917021021, 0.29784999787807465, 0.2997000119648874, 0.301949999993667, 0.301949999993667, 0.29549999453593045, 0.29144999280106276, 0.29584999720100313, 0.297949998639524, 0.30074999085627496, 0.3032999957213178, 0.295000005280599, 0.3052500105695799, 0.29105000430718064, 0.301649997709319, 0.3030499938176945, 0.3195000026607886, 0.31274999491870403, 0.2969000051962212, 0.29845000244677067, 0.29749999521300197, 0.2930999908130616, 0.2996499970322475, 0.3107999946223572, 0.30265000532381237, 0.2995500108227134, 0.2970000059576705, 0.294700002996251, 0.3029999934369698, 0.29775001166854054, 0.38204999873414636, 0.2969000051962212, 0.30154999694786966, 0.3034999972442165, 0.30995000270195305, 0.2941999991890043, 0.29784999787807465, 0.3093999985139817, 0.295150006422773, 0.47924998216331005, 0.295150006422773, 0.3016500122612342, 0.29540000832639635, 0.3031000087503344, 0.42969999776687473, 0.30425000295508653, 0.29115000506863, 0.2969999914057553, 0.49310000031255186, 0.30729999707546085, 0.3532999980961904, 0.30315000913105905, 0.29940000968053937, 0.2989000058732927, 0.3064500051550567, 0.29105000430718064, 0.2952999930130318, 0.30169999809004366, 0.29305000498425215, 0.30115000845398754, 0.30160001188050956, 0.30494999373331666, 0.29594999796245247, 0.2986000035889447, 0.3008499916177243, 0.2970500063383952, 0.2953999937744811, 0.2999500138685107, 0.29719999292865396, 0.30115000845398754, 0.2903499989770353, 0.2992000081576407, 0.295000005280599, 0.30095000693108886, 0.29799999902024865, 0.29969999741297215, 0.29024999821558595, 0.2914000069722533, 0.3068000078201294, 0.30074999085627496, 0.304899993352592, 0.2929500042228028, 0.302100001135841, 0.295450008707121, 0.29889999132137746, 0.295150006422773, 0.3028499922947958, 0.29075000202283263, 0.30169999809004366, 0.2974499948322773, 0.2938499965239316, 0.29534999339375645, 0.29105000430718064, 0.3036999987671152, 0.29975001234561205, 0.29409999842755497, 0.2997999981744215, 0.2903499989770353, 0.30559999868273735, 0.2912500058300793, 0.302400003420189, 0.29260000155773014, 0.295600009849295, 0.2965000021504238, 0.30605000210925937, 0.29784999787807465, 0.29880000511184335, 0.29599999834317714, 0.29725000786129385, 0.29594999796245247, 0.30169999809004366, 0.30529999639838934, 0.2941999991890043, 0.3005500038852915, 0.30399998649954796, 0.3031499945791438, 0.30169999809004366, 0.2945000014733523, 0.3150999982608482, 0.295000005280599, 0.2909500035457313, 0.3012000088347122, 0.3029500076081604, 0.29549999453593045, 0.302400003420189, 0.2938999969046563, 0.29739999445155263, 0.294550001854077, 0.29489998996723443, 0.31644999398849905, 0.29865000396966934, 0.3612000000430271, 0.2910499897552654, 0.2995999966515228, 0.2992999943671748, 0.30169999809004366, 0.2962500002468005, 0.3063999902224168, 0.2914000069722533, 0.29350000841077417, 0.30085000616963953, 0.30434998916462064, 0.29364999500103295, 0.2934499934781343, 0.29594999796245247, 0.2939500118372962, 0.29660000291187316, 0.29630000062752515, 0.2897500089602545, 0.30780000088270754, 0.3985999937867746, 0.30005000007804483, 0.29334999271668494, 0.2969499910250306, 0.29939999512862414, 0.30020000122021884, 0.29399999766610563, 0.2938499965239316, 0.2946500026155263, 0.29725000786129385, 0.2889500028686598, 0.2976500109070912, 0.30235000303946435, 0.2941999991890043, 0.30115000845398754, 0.3007500054081902, 0.3014000103576109, 0.2992999943671748, 0.29194999660830945, 0.29364999500103295, 0.295750010991469, 0.3020000003743917, 0.2994999958900735, 0.2952499926323071, 0.31119999766815454, 0.31784999009687454, 0.30080000578891486, 0.30949999927543104, 0.29245000041555613, 0.32360000477638096, 0.2935499942395836, 0.29185001039877534, 0.29584999720100313, 0.2970000059576705, 0.2962999860756099, 0.3030500083696097, 0.3039500006707385, 0.29645000176969916, 0.30344999686349183, 0.2967000036733225, 0.31524999940302223, 0.2907499874709174, 0.31370000215247273, 0.29399999766610563, 0.2995500108227134, 0.29070000164210796, 0.29904999246355146, 0.29504999110940844, 0.3065999917453155, 0.30174999847076833, 0.2960499987239018, 0.29760001052636653, 0.29654998797923326, 0.2928000030806288, 0.3036999987671152, 0.29394999728538096, 0.29240000003483146, 0.2929499896708876, 0.2936999953817576, 0.315849989419803, 0.29835000168532133, 0.30440000409726053, 0.2969000051962212, 0.298400002066046, 0.2995999966515228, 0.2972499933093786, 0.29830000130459666, 0.32654999813530594, 0.29240000003483146, 0.30729999707546085, 0.2930499904323369, 0.2995500108227134, 0.30435000371653587, 0.2950999914901331, 0.3037999995285645, 0.29319999157451093, 0.29334999271668494, 0.3031499945791438, 0.29105000430718064, 0.2912500058300793, 0.2997999981744215, 0.30184999923221767, 0.3030500083696097, 0.298400002066046, 0.29779999749735, 0.305349996779114, 0.2975000097649172, 0.29399999766610563, 0.2941999991890043, 0.30029998742975295, 0.29329999233596027, 0.29984999855514616, 0.2936999953817576, 0.2945000014733523, 0.3040499868802726, 0.2941999991890043, 0.3007000050274655, 0.29855000320822, 0.30530001095030457, 0.29540000832639635, 0.3082499897573143, 0.31200000375974923, 0.3032999957213178, 0.2972499933093786, 0.297949998639524, 0.2994999958900735, 0.29695000557694584, 0.29570001061074436, 0.2987500047311187, 0.29340000764932483, 0.2975000097649172, 0.2963499864563346, 0.29579999682027847, 0.30154999694786966, 0.29845000244677067, 0.2926499873865396, 0.2873499906854704, 0.304899993352592, 0.3005500038852915, 0.29675000405404717, 0.29779999749735, 0.30764999974053353, 0.29445000109262764, 0.2995000104419887, 0.2922999992733821, 0.29070000164210796, 0.29665000329259783, 0.2996499970322475, 0.29399999766610563, 0.2925000007962808, 0.3001000004587695, 0.29645000176969916, 0.301499996567145, 0.3075499989790842, 0.29969999741297215, 0.29549999453593045, 0.3071000101044774, 0.298250000923872, 0.3227499983040616, 0.28915000439155847, 0.36094999813940376, 0.301949999993667, 0.2936500095529482, 0.31084999500308186, 0.3034999972442165, 0.298700004350394, 0.29835000168532133, 0.29399999766610563, 0.302250002278015, 0.30315000913105905, 0.29769999673590064, 0.30494999373331666, 0.2929499896708876, 0.3028999926755205, 0.3014000103576109, 0.3014499961864203, 0.2930499904323369, 0.29185001039877534, 0.29680000443477184, 0.2960999991046265, 0.2990500070154667, 0.29224999889265746, 0.2983499871334061, 0.29695000557694584, 0.30354999762494117, 0.29409999842755497, 0.29799999902024865, 0.2967000036733225, 0.2918499958468601, 0.2905000001192093, 0.297949998639524, 0.3004500031238422, 0.2895499928854406, 0.2913999924203381, 0.2906000008806586, 0.3002500016009435, 0.2964000013889745, 0.29414999880827963, 0.2934499934781343, 0.3020000003743917, 0.29734999407082796, 0.29010001162532717, 0.2991499932250008, 0.2955999952973798, 0.305649999063462, 0.2937500103143975, 0.2980499994009733, 0.2933000068878755, 0.2943500003311783, 0.30029998742975295, 0.3061500028707087, 0.30264999077189714, 0.30479999259114265, 0.3004999889526516, 0.3014000103576109, 0.29850000282749534, 0.2917499950854108, 0.2925000007962808, 0.295300007564947, 0.2967999898828566, 0.29320000612642616, 0.4187500016996637, 0.2945000014733523, 0.3122000052826479, 0.3421500005060807, 0.30184999923221767, 0.3007500054081902, 0.2973500086227432, 0.29520000680349767, 0.2932499919552356, 0.3028499922947958, 0.3002500016009435, 0.2915499935625121, 0.2911999908974394, 0.29564999567810446, 0.30524999601766467, 0.3003000019816682, 0.2933000068878755, 0.29845000244677067, 0.29355000879149884, 0.2940499980468303, 0.2985499886563048, 0.29070000164210796, 0.29399999766610563, 0.2895499928854406, 0.29245000041555613, 0.2909499889938161, 0.2927000023191795, 0.3003000019816682, 0.28914998983964324, 0.3005499893333763, 0.29779999749735, 0.2990500070154667, 0.29194999660830945, 0.3031000087503344, 0.2951499918708578, 0.29754999559372663, 0.29909999284427613, 0.3074999985983595, 0.30479999259114265, 0.3126500087091699, 0.2930000046035275, 0.29734999407082796, 0.29510000604204834, 0.30089999199844897, 0.3097000007983297, 0.2992999943671748, 0.2974500093841925, 0.29990001348778605, 0.30759999935980886, 0.30130000959616154, 0.3004000027431175, 0.3029999934369698, 0.2982000005431473, 0.29490000451914966, 0.29939999512862414, 0.3230500005884096, 0.295150006422773, 0.2857999934349209, 0.30079999123699963, 0.31350000062957406, 0.3017000126419589, 0.29414999880827963, 0.2893999917432666, 0.29734999407082796, 0.30285000684671104, 0.3043000033358112, 0.304899993352592, 0.2969999914057553, 0.2989000058732927, 0.3064499906031415, 0.3029999934369698, 0.291000003926456, 0.29129999165888876, 0.302400003420189],
  "QPU": "7000000",
  "Qubits": 6,
  "Queue durations [ms]": [0.0, 0.0, 0.0, 0.0, 0.0, 0.0, 0.0, 0.0, 0.0, 0.0, 0.0, 0.0, 0.0, 0.0, 0.0, 0.0, 0.0, 0.0, 0.0, 0.0, 0.0, 0.0, 0.0, 0.0, 0.0, 0.0, 0.0, 0.0, 0.0, 0.0, 0.0, 0.0, 0.0, 0.0, 0.0, 0.0, 0.0, 0.0, 0.0, 0.0, 0.0, 0.0, 0.0, 0.0, 0.0, 0.0, 0.0, 0.0, 0.0, 0.0, 0.0, 0.0, 0.0, 0.0, 0.0, 0.0, 0.0, 0.0, 0.0, 0.0, 0.0, 0.0, 0.0, 0.0, 0.0, 0.0, 0.0, 0.0, 0.0, 0.0, 0.0, 0.0, 0.0, 0.0, 0.0, 0.0, 0.0, 0.0, 0.0, 0.0, 0.0, 0.0, 0.0, 0.0, 0.0, 0.0, 0.0, 0.0, 0.0, 0.0, 0.0, 0.0, 0.0, 0.0, 0.0, 0.0, 0.0, 0.0, 0.0, 0.0, 0.0, 0.0, 0.0, 0.0, 0.0, 0.0, 0.0, 0.0, 0.0, 0.0, 0.0, 0.0, 0.0, 0.0, 0.0, 0.0, 0.0, 0.0, 0.0, 0.0, 0.0, 0.0, 0.0, 0.0, 0.0, 0.0, 0.0, 0.0, 0.0, 0.0, 0.0, 0.0, 0.0, 0.0, 0.0, 0.0, 0.0, 0.0, 0.0, 0.0, 0.0, 0.0, 0.0, 0.0, 0.0, 0.0, 0.0, 0.0, 0.0, 0.0, 0.0, 0.0, 0.0, 0.0, 0.0, 0.0, 0.0, 0.0, 0.0, 0.0, 0.0, 0.0, 0.0, 0.0, 0.0, 0.0, 0.0, 0.0, 0.0, 0.0, 0.0, 0.0, 0.0, 0.0, 0.0, 0.0, 0.0, 0.0, 0.0, 0.0, 0.0, 0.0, 0.0, 0.0, 0.0, 0.0, 0.0, 0.0, 0.0, 0.0, 0.0, 0.0, 0.0, 0.0, 0.0, 0.0, 0.0, 0.0, 0.0, 0.0, 0.0, 0.0, 0.0, 0.0, 0.0, 0.0, 0.0, 0.0, 0.0, 0.0, 0.0, 0.0, 0.0, 0.0, 0.0, 0.0, 0.0, 0.0, 0.0, 0.0, 0.0, 0.0, 0.0, 0.0, 0.0, 0.0, 0.0, 0.0, 0.0, 0.0, 0.0, 0.0, 0.0, 0.0, 0.0, 0.0, 0.0, 0.0, 0.0, 0.0, 0.0, 0.0, 0.0, 0.0, 0.0, 0.0, 0.0, 0.0, 0.0, 0.0, 0.0, 0.0, 0.0, 0.0, 0.0, 0.0, 0.0, 0.0, 0.0, 0.0, 0.0, 0.0, 0.0, 0.0, 0.0, 0.0, 0.0, 0.0, 0.0, 0.0, 0.0, 0.0, 0.0, 0.0, 0.0, 0.0, 0.0, 0.0, 0.0, 0.0, 0.0, 0.0, 0.0, 0.0, 0.0, 0.0, 0.0, 0.0, 0.0, 0.0, 0.0, 0.0, 0.0, 0.0, 0.0, 0.0, 0.0, 0.0, 0.0, 0.0, 0.0, 0.0, 0.0, 0.0, 0.0, 0.0, 0.0, 0.0, 0.0, 0.0, 0.0, 0.0, 0.0, 0.0, 0.0, 0.0, 0.0, 0.0, 0.0, 0.0, 0.0, 0.0, 0.0, 0.0, 0.0, 0.0, 0.0, 0.0, 0.0, 0.0, 0.0, 0.0, 0.0, 0.0, 0.0, 0.0, 0.0, 0.0, 0.0, 0.0, 0.0, 0.0, 0.0, 0.0, 0.0, 0.0, 0.0, 0.0, 0.0, 0.0, 0.0, 0.0, 0.0, 0.0, 0.0, 0.0, 0.0, 0.0, 0.0, 0.0, 0.0, 0.0, 0.0, 0.0, 0.0, 0.0, 0.0, 0.0, 0.0, 0.0, 0.0, 0.0, 0.0, 0.0, 0.0, 0.0, 0.0, 0.0, 0.0, 0.0, 0.0, 0.0, 0.0, 0.0, 0.0, 0.0, 0.0, 0.0, 0.0, 0.0, 0.0, 0.0, 0.0, 0.0, 0.0, 0.0, 0.0, 0.0, 0.0, 0.0, 0.0, 0.0, 0.0, 0.0, 0.0, 0.0, 0.0, 0.0, 0.0, 0.0, 0.0, 0.0, 0.0, 0.0, 0.0, 0.0, 0.0, 0.0, 0.0, 0.0, 0.0, 0.0, 0.0, 0.0, 0.0, 0.0, 0.0, 0.0, 0.0, 0.0, 0.0, 0.0, 0.0, 0.0, 0.0, 0.0, 0.0, 0.0, 0.0, 0.0, 0.0, 0.0, 0.0, 0.0, 0.0, 0.0, 0.0, 0.0, 0.0, 0.0, 0.0, 0.0, 0.0, 0.0, 0.0, 0.0, 0.0],
  "Shots": 4096,
  "Size": 6,
  "Total Algorithm duration [s]": 3.326,
  "Total Classic duration [s]": 3.188405450126971,
  "Total Quantum duration [s]": 0.13759454987302888
}
