{
  "Circuit execution durations [ms]": [0.29379999614320695, 0.3075499989790842, 0.2997499977936968, 0.3023000026587397, 0.2955499949166551, 0.30059998971410096, 0.29290000384207815, 0.29579999682027847, 0.29790001281071454, 0.298700004350394, 0.2985499886563048, 0.2950999914901331, 0.2960999991046265, 0.301049993140623, 0.3072499966947362, 0.30094999237917364, 0.3122000052826479, 0.2938999969046563, 0.2910499897552654, 0.31165000109467655, 0.298850005492568, 0.413799993111752, 0.4386999935377389, 0.4055500030517578, 0.2989000058732927, 0.301799998851493, 0.29164999432396144, 0.29129999165888876, 0.2940499980468303, 0.298850005492568, 0.29740000900346786, 0.2952999930130318, 0.30870000773575157, 0.3021500015165657, 0.2968500048154965, 0.2929500042228028, 0.2975999959744513, 0.2997000119648874, 0.29320000612642616, 0.30425000295508653, 0.2998999989358708, 0.30669999250676483, 0.29224999889265746, 0.3025499900104478, 0.29660000291187316, 0.308449991280213, 0.2987999905599281, 0.30130000959616154, 0.2973500086227432, 0.29865000396966934, 0.2955999952973798, 0.30664999212604016, 0.30050000350456685, 0.29284998890943825, 0.2982000005431473, 0.3037999995285645, 0.29850000282749534, 0.298700004350394, 0.29754999559372663, 0.2969000051962212, 0.30154999694786966, 0.29675000405404717, 0.2945000014733523, 0.29590001213364303, 0.3844500024570152, 0.3037999995285645, 0.29594999796245247, 0.302250002278015, 0.3127000090898946, 0.2940499980468303, 0.3046000056201592, 0.29520000680349767, 0.29719999292865396, 0.29865000396966934, 0.2953999937744811, 0.29784999787807465, 0.2930000046035275, 0.29329999233596027, 0.3049500082852319, 0.30214998696465045, 0.29024999821558595, 0.301349995424971, 0.2970500063383952, 0.29815000016242266, 0.3037000133190304, 0.2980499994009733, 0.3027499915333465, 0.30080000578891486, 0.294550001854077, 0.2909500035457313, 0.30590000096708536, 0.2942500141216442, 0.2998999989358708, 0.2997999981744215, 0.3022499877260998, 0.29799999902024865, 0.2995999966515228, 0.3003999881912023, 0.2910499897552654, 0.2960499987239018, 0.2930000046035275, 0.309049995848909, 0.3068000078201294, 0.3007500054081902, 0.29904999246355146, 0.29314999119378626, 0.3043000033358112, 0.2970000059576705, 0.3021500015165657, 0.2963500010082498, 0.29984999855514616, 0.2919000107795, 0.29009999707341194, 0.29680000443477184, 0.31185000261757523, 0.30450000485870987, 0.297949998639524, 0.32080001255963, 0.29725000786129385, 0.30590000096708536, 0.2986999897984788, 0.30934999813325703, 0.29814998561050743, 0.2974499948322773, 0.3012500092154369, 0.3010500076925382, 0.2952499926323071, 0.30670000705868006, 0.30154999694786966, 0.3031000087503344, 0.3430499928072095, 0.29695000557694584, 0.30359999800566584, 0.29895000625401735, 0.30094999237917364, 0.29445000109262764, 0.2995999966515228, 0.298250000923872, 0.3007000050274655, 0.3001000004587695, 0.2959500125143677, 0.3193000011378899, 0.2931000053649768, 0.29969999741297215, 0.3031999949598685, 0.3029000072274357, 0.29105000430718064, 0.30359999800566584, 0.3060000017285347, 0.30875000811647624, 0.295000005280599, 0.29654998797923326, 0.30294999305624515, 0.29830000130459666, 0.3156500024488196, 0.2986499894177541, 0.2973500086227432, 0.294550001854077, 0.2963500010082498, 0.2978500124299899, 0.29525000718422234, 0.4801499890163541, 0.42284998926334083, 0.29475000337697566, 0.29209999775048345, 0.3080999886151403, 0.2955499949166551, 0.30124999466352165, 0.29665000329259783, 0.2945000014733523, 0.2930000046035275, 0.29710000671911985, 0.2922999992733821, 0.30339999648276716, 0.3081500035477802, 0.301199994282797, 0.2999499993165955, 0.29739999445155263, 0.29830000130459666, 0.29984999855514616, 0.29779999749735, 0.294700002996251, 0.29665000329259783, 0.29889999132137746, 0.30300000798888505, 0.2987500047311187, 0.2965000021504238, 0.298400002066046, 0.30625000363215804, 0.3034000110346824, 0.28295000083744526, 0.3012999950442463, 0.29414999880827963, 0.2870500029530376, 0.2974500093841925, 0.2901499974541366, 0.294850004138425, 0.4216000088490546, 0.3043000033358112, 0.338400001055561, 0.29630000062752515, 0.29349999385885894, 0.3001000004587695, 0.30029998742975295, 0.2943500003311783, 0.29630000062752515, 0.2976500109070912, 0.29614999948535115, 0.29865000396966934, 0.29749999521300197, 0.2921999985119328, 0.2938499965239316, 0.3001000004587695, 0.2940499980468303, 0.2933999930974096, 0.29409999842755497, 0.2992999943671748, 0.2878499944927171, 0.2987999905599281, 0.29784999787807465, 0.3097500011790544, 0.301199994282797, 0.3053999971598387, 0.29919999360572547, 0.2998000127263367, 0.298400002066046, 0.3031499945791438, 0.31045000650919974, 0.2971500070998445, 0.2977499971166253, 0.28839999868068844, 0.29695000557694584, 0.3071500104852021, 0.30714999593328685, 0.3065499913645908, 0.2960999991046265, 0.30405000143218786, 0.2891999902203679, 0.3021500015165657, 0.2990500070154667, 0.2970500063383952, 0.3071999963140115, 0.2902999985963106, 0.30189999961294234, 0.29845000244677067, 0.29954999627079815, 0.29984999855514616, 0.3124999930150807, 0.2960999991046265, 0.2926500019384548, 0.3013500099768862, 0.29469998844433576, 0.2913999924203381, 0.30764999974053353, 0.30500000866595656, 0.3345000004628673, 0.3260000084992498, 0.29385001107584685, 0.3132999991066754, 0.291450007352978, 0.291300006210804, 0.3005500038852915, 0.3099000023212284, 0.2968499902635813, 0.2999499993165955, 0.3071000101044774, 0.29460000223480165, 0.295300007564947, 0.2934500080300495, 0.31740000122226775, 0.2962500002468005, 0.2932499919552356, 0.2930000046035275, 0.29614999948535115, 0.2927000023191795, 0.29445000109262764, 0.2921999985119328, 0.2938999969046563, 0.29584999720100313, 0.2921499981312081, 0.3262999962316826, 0.29489998996723443, 0.30595000134781003, 0.29984999855514616, 0.2994499955093488, 0.29594999796245247, 0.29489998996723443, 0.3004500031238422, 0.291300006210804, 0.294700002996251, 0.2950999914901331, 0.2968499902635813, 0.2935999946203083, 0.2972499933093786, 0.29719999292865396, 0.2999499993165955, 0.29414999880827963, 0.291000003926456, 0.31099999614525586, 0.30270000570453703, 0.4189999890513718, 0.2939500118372962, 0.33540000731591135, 0.29815000016242266, 0.29275000269990414, 0.29880000511184335, 0.2943500003311783, 0.30255000456236303, 0.2965000021504238, 0.29224999889265746, 0.30455000523943454, 0.2934499934781343, 0.3001000004587695, 0.2987999905599281, 0.30544999754056334, 0.30420000257436186, 0.2587999988463707, 0.2928000030806288, 0.3037999995285645, 0.29454998730216175, 0.30425000295508653, 0.2756000030785799, 0.2935499942395836, 0.2991499932250008, 0.2718500036280602, 0.2923499996541068, 0.2936999953817576, 0.29519999225158244, 0.3038499999092892, 0.2958999975817278, 0.3001000004587695, 0.30285000684671104, 0.29835000168532133, 0.49015000695362687, 0.4354999982751906, 0.30235000303946435, 0.30590000096708536, 0.30005000007804483, 0.30169999809004366, 0.2938499965239316, 0.3049500082852319, 0.2968500048154965, 0.29644998721778393, 0.30205000075511634, 0.29734999407082796, 0.304899993352592, 0.30020000122021884, 0.2957499964395538, 0.2928000030806288, 0.2961999998660758, 0.29009999707341194, 0.30184999923221767, 0.29835000168532133, 0.30565001361537725, 0.30264999077189714, 0.29614999948535115, 0.31180000223685056, 0.30529999639838934, 0.29245000041555613, 0.298400002066046, 0.30235000303946435, 0.30035000236239284, 0.31725000008009374, 0.29740000900346786, 0.29484998958650976, 0.29855000320822, 0.2912499912781641, 0.3046000056201592, 0.29689999064430594, 0.2989499917021021, 0.29855000320822, 0.31200000375974923, 0.30934999813325703, 0.2976500109070912, 0.29630000062752515, 0.30139999580569565, 0.29719999292865396, 0.3048000071430579, 0.29275000269990414, 0.302100001135841, 0.31550000130664557, 0.3079000016441569, 0.30139999580569565, 0.29680000443477184, 0.29335000726860017, 0.29945001006126404, 0.2917499950854108, 0.32544998975936323, 0.29489998996723443, 0.29364999500103295, 0.298700004350394, 0.3042499884031713, 0.29599999834317714, 0.2964000013889745, 0.29149999318178743, 0.31519999902229756, 0.3067499928874895, 0.3080000024056062, 0.2926500019384548, 0.297949998639524, 0.3003000019816682, 0.302100001135841, 0.3250500012654811, 0.29614999948535115, 0.2964000013889745, 0.2987500047311187, 0.30139999580569565, 0.30109999352134764, 0.29665000329259783, 0.2980499994009733, 0.2995000104419887, 0.29460000223480165, 0.29429999995045364, 0.3221500082872808, 0.2973500086227432, 0.3041000018129125, 0.30139999580569565, 0.302250002278015, 0.30944999889470637, 0.3092499973718077, 0.2948000037577003, 0.28885000210721046, 0.29695000557694584, 0.301199994282797, 0.3070499951718375, 0.31394998950418085, 0.30130000959616154, 0.2973000082420185, 0.30869999318383634, 0.298700004350394, 0.30519999563694, 0.29999999969732016, 0.30089999199844897, 0.2782499941531569, 0.4034000012325123, 0.29075000202283263, 0.3058500005863607, 0.2994999958900735, 0.29725000786129385, 0.29779999749735, 0.2993499947478995, 0.2952499926323071, 0.2963500010082498, 0.31209998996928334, 0.2937499957624823, 0.3020000003743917, 0.3046000056201592, 0.29674998950213194, 0.2935499942395836, 0.29305000498425215, 0.29245000041555613, 0.2933000068878755, 0.30095000693108886, 0.30440000409726053, 0.29334999271668494, 0.2952499926323071, 0.30330001027323306, 0.2969499910250306, 0.2889000024879351, 0.3039500006707385, 0.30074999085627496, 0.2980499994009733, 0.3039500006707385, 0.29475000337697566, 0.29924999398645014, 0.3103500057477504, 0.30169999809004366, 0.2914000069722533, 0.2988499909406528, 0.34324999433010817, 0.295000005280599, 0.2930499904323369, 0.29224999889265746, 0.29275000269990414, 0.2997999981744215, 0.29614999948535115, 0.2918999962275848, 0.2921499981312081, 0.2862499968614429, 0.31195000337902457, 0.2893499913625419, 0.3046000056201592, 0.2993499947478995, 0.29675000405404717, 0.2934500080300495, 0.30174999847076833, 0.2963500010082498, 0.3124000068055466, 0.3048000071430579, 0.2974499948322773, 0.29969999741297215, 0.29579999682027847, 0.29429999995045364, 0.29630000062752515, 0.30464999144896865, 0.2931500057457015, 0.29429999995045364, 0.29910000739619136, 0.30420000257436186, 0.30235000303946435, 0.29680000443477184, 0.3232000017305836, 0.2933999930974096, 0.29845000244677067, 0.3063500043936074, 0.29675000405404717, 0.3030500083696097, 0.2908000024035573, 0.30020000122021884, 0.2937499957624823, 0.2945000014733523, 0.2935499942395836, 0.29680000443477184, 0.295000005280599, 0.294400000711903, 0.3079499874729663, 0.2993499947478995, 0.2952499926323071, 0.2935999946203083, 0.2938999969046563, 0.30015000083949417, 0.29525000718422234, 0.2994999958900735, 0.2933000068878755, 0.29549999453593045, 0.3215500037185848, 0.30825000430922955, 0.2968500048154965, 0.3190499992342666, 0.2955000090878457, 0.29695000557694584, 0.29420001374091953, 0.29880000511184335, 0.29505000566132367, 0.29540000832639635, 0.2918499958468601, 0.29260000155773014, 0.3083000046899542, 0.2904499997384846, 0.2852000034181401, 0.29275000269990414, 0.30229998810682446, 0.29245000041555613, 0.29335000726860017, 0.29725000786129385, 0.2993499947478995, 0.2927000023191795, 0.29740000900346786, 0.29594999796245247, 0.29614999948535115, 0.29394999728538096, 0.2984999882755801, 0.3003499878104776, 0.30610000248998404, 0.29614999948535115, 0.2954499941552058, 0.2903500135289505, 0.2967000036733225, 0.301499996567145, 0.29159999394323677, 0.2918499958468601, 0.3004500031238422, 0.2998000127263367, 0.30374999914783984, 0.3007000050274655, 0.29830000130459666, 0.29269998776726425, 0.3014499961864203, 0.30109999352134764, 0.2950999914901331, 0.31380000291392207, 0.29584999720100313, 0.34139999479521066, 0.3075499989790842, 0.3752499906113371, 0.295000005280599, 0.29865000396966934, 0.2970500063383952, 0.2932499919552356, 0.2982000005431473, 0.3050500090466812, 0.2955000090878457, 0.2973000082420185, 0.29754999559372663, 0.29329999233596027, 0.3058500005863607, 0.2930000046035275, 0.29660000291187316, 0.29680000443477184, 0.2987999905599281, 0.2968500048154965, 0.3052500105695799, 0.49340000259689987, 0.2965000021504238, 0.2925000007962808, 0.29725000786129385, 0.2940499980468303, 0.2995000104419887, 0.29749999521300197, 0.30065000464674085, 0.2972000074805692, 0.2975000097649172, 0.2922999992733821, 0.295000005280599, 0.2935499942395836, 0.2951499918708578, 0.2972999936901033, 0.2997000119648874, 0.29704999178647995, 0.3005500038852915, 0.2970500063383952, 0.2930000046035275, 0.2943500003311783, 0.298700004350394, 0.2998999989358708, 0.29504999110940844, 0.29525000718422234, 0.30810000316705555, 0.30094999237917364, 0.3104999923380092, 0.2989000058732927, 0.298700004350394, 0.30050000350456685, 0.30854999204166234, 0.3005500038852915, 0.29409999842755497, 0.3021500015165657, 0.29364999500103295, 0.304749992210418, 0.298850005492568, 0.3010500076925382, 0.29904999246355146, 0.2971500070998445, 0.30169999809004366, 0.29799999902024865, 0.29844998789485544, 0.29569999605882913, 0.2993499947478995, 0.29505000566132367, 0.30840000545140356, 0.30494999373331666, 0.30535001133102924, 0.302250002278015, 0.30520001018885523, 0.29409999842755497, 0.29475000337697566, 0.29939999512862414, 0.29194999660830945, 0.31555000168737024, 0.3083000046899542, 0.301949999993667, 0.2955999952973798, 0.30434998916462064, 0.3051000094274059, 0.2959500125143677, 0.299150007776916, 0.2968500048154965, 0.2977499971166253, 0.2922999992733821, 0.3055500128539279, 0.3001000004587695, 0.2931500057457015, 0.30435000371653587, 0.2935499942395836, 0.3228999994462356, 0.29880000511184335, 0.29659998835995793, 0.29845000244677067, 0.29429999995045364, 0.2903499989770353, 0.3046500060008839, 0.3002500016009435, 0.2997499977936968, 0.2951499918708578, 0.3075499989790842, 0.2960499987239018, 0.2995000104419887, 0.29909999284427613, 0.30390000029001385, 0.3029999934369698, 0.30669999250676483, 0.29255000117700547, 0.2911000046879053, 0.29224999889265746, 0.29769999673590064, 0.2898499951697886, 0.301949999993667, 0.2960499987239018, 0.3002500016009435, 0.29779999749735, 0.2958999975817278, 0.2977499971166253, 0.3152999997837469, 0.30354999762494117, 0.31540000054519624, 0.29669998912140727, 0.31099999614525586, 0.2971499925479293, 0.2901499974541366, 0.29769999673590064, 0.2895499928854406, 0.30050000350456685, 0.2938499965239316, 0.3015500114997849, 0.30249998962972313, 0.30610000248998404, 0.29584999720100313, 0.2953999937744811, 0.2986000035889447, 0.2927499881479889, 0.3099499881500378, 0.29335000726860017, 0.4538500070339069, 0.30280000646598637, 0.338550002197735, 0.301649997709319, 0.44589999015443027, 0.30205000075511634, 0.2937499957624823, 0.2894999925047159, 0.30544999754056334, 0.3104999923380092, 0.29784999787807465, 0.30929999775253236, 0.2980000135721639, 0.30250000418163836, 0.30100000731181353, 0.30390000029001385, 0.2668999950401485, 0.29710000671911985, 0.29835000168532133, 0.301199994282797, 0.29910000739619136, 0.2997499977936968, 0.29999999969732016, 0.29520000680349767, 0.26699999580159783, 0.29009999707341194, 0.2934500080300495, 0.29155000811442733, 0.29090000316500664, 0.42949999624397606, 0.2933999930974096, 0.34405000042170286, 0.3020000003743917, 0.27879999834112823, 0.4545999981928617, 0.2943500003311783, 0.3107000084128231, 0.29695000557694584, 0.30255000456236303, 0.2972499933093786, 0.29799999902024865, 0.2886000002035871, 0.29275000269990414, 0.30235000303946435, 0.2995999966515228, 0.2935499942395836],
  "Depth": 14.5,
  "Expectation Value": -6.722382545471191,
  "Optimal Expectation Value": -7.296229839324951,
  "Optimizer durations [ms]": [6.969, 7.344, 6.96, 7.172, 6.798, 6.981, 6.747, 7.189, 6.983, 6.885, 7.053, 6.668, 7.166, 6.989, 7.156, 7.057, 7.136, 7.156, 6.83, 7.326, 7.173, 9.354, 20.545, 9.651, 7.125, 6.773, 6.938, 7.08, 6.687, 7.14, 6.781, 6.879, 7.344, 7.121, 6.753, 6.902, 7.133, 6.992, 6.669, 7.179, 6.828, 7.342, 6.984, 6.84, 7.025, 7.171, 12.824, 6.908, 7.103, 6.884, 7.352, 7.093, 6.969, 7.004, 6.813, 7.219, 7.024, 6.707, 7.092, 7.155, 6.883, 6.754, 7.261, 6.667, 8.973, 7.142, 6.961, 7.036, 7.205, 6.714, 7.235, 6.984, 6.83, 7.158, 6.876, 6.657, 6.939, 7.115, 7.263, 6.795, 7.151, 7.045, 6.915, 7.064, 7.151, 6.998, 6.901, 7.035, 6.845, 7.21, 7.104, 6.927, 7.003, 7.052, 6.862, 7.342, 7.082, 6.953, 6.97, 6.819, 6.655, 7.444, 7.176, 6.851, 6.99, 6.917, 7.106, 7.053, 6.997, 6.779, 6.985, 6.958, 7.015, 6.88, 7.14, 7.155, 6.731, 7.784, 6.755, 7.371, 6.697, 7.267, 7.012, 6.75, 7.114, 7.064, 7.042, 7.268, 6.824, 6.897, 8.007, 7.04, 7.205, 6.926, 7.052, 6.817, 7.179, 6.829, 7.187, 6.887, 7.007, 7.144, 7.027, 6.845, 7.231, 7.095, 6.66, 7.278, 7.067, 7.352, 6.914, 6.883, 6.971, 7.032, 7.148, 7.283, 6.978, 6.978, 6.85, 6.776, 7.158, 10.6, 22.712, 6.941, 6.758, 7.225, 7.147, 7.045, 6.579, 7.065, 6.832, 6.866, 6.812, 7.049, 7.104, 7.194, 6.962, 6.787, 7.04, 7.033, 6.858, 7.118, 7.009, 7.134, 15.482, 6.787, 7.061, 6.946, 7.221, 6.867, 7.176, 6.882, 7.149, 7.309, 6.695, 7.067, 6.91, 9.298, 7.176, 7.716, 6.727, 6.981, 7.184, 6.801, 8.012, 7.458, 6.983, 6.828, 7.042, 6.77, 6.985, 6.962, 7.094, 6.773, 6.98, 6.852, 6.727, 6.942, 7.023, 6.871, 7.238, 7.118, 7.072, 7.095, 7.034, 6.898, 7.022, 7.444, 6.946, 6.722, 7.141, 6.613, 7.428, 7.246, 6.874, 7.092, 6.837, 7.081, 7.091, 6.939, 6.875, 7.29, 6.918, 6.95, 7.156, 7.059, 6.802, 7.266, 7.076, 6.97, 7.22, 6.733, 6.709, 7.241, 6.944, 7.749, 7.648, 6.917, 7.12, 7.239, 7.26, 7.156, 7.191, 7.116, 6.77, 7.243, 6.892, 7.071, 6.706, 7.607, 6.964, 6.568, 6.887, 7.123, 6.673, 6.819, 7.203, 6.815, 6.924, 7.017, 7.628, 6.644, 7.164, 6.998, 6.999, 6.796, 7.087, 7.054, 6.603, 7.257, 7.005, 6.924, 6.847, 7.034, 6.92, 7.178, 6.822, 6.79, 7.205, 7.189, 9.135, 6.59, 7.886, 6.871, 7.213, 12.792, 6.845, 7.009, 10.627, 6.992, 6.864, 6.918, 9.45, 7.002, 7.006, 7.01, 24.917, 6.572, 7.671, 6.58, 7.284, 12.344, 6.659, 6.933, 21.748, 6.85, 6.949, 6.837, 7.052, 7.937, 7.049, 6.981, 7.169, 18.41, 13.264, 7.125, 7.12, 10.523, 7.222, 6.804, 7.004, 6.904, 7.103, 7.194, 6.732, 7.077, 7.271, 6.672, 6.836, 7.017, 6.972, 7.132, 6.794, 7.267, 7.102, 6.859, 7.082, 7.102, 6.974, 7.437, 6.992, 6.835, 7.245, 6.942, 7.259, 6.77, 6.798, 7.2, 6.799, 6.938, 6.857, 7.421, 7.288, 7.351, 6.948, 6.941, 7.13, 7.356, 6.732, 7.09, 7.444, 7.145, 7.263, 6.732, 6.895, 7.19, 6.698, 7.415, 7.338, 6.84, 6.967, 6.955, 6.878, 7.28, 6.807, 7.368, 7.279, 7.244, 6.774, 6.714, 7.318, 7.208, 7.69, 6.959, 6.653, 7.014, 6.729, 7.305, 6.829, 7.291, 7.23, 6.779, 6.816, 7.641, 6.777, 7.082, 7.252, 6.934, 7.333, 7.089, 7.16, 6.509, 7.123, 7.008, 7.016, 7.405, 7.175, 7.031, 7.364, 7.131, 7.04, 7.162, 6.703, 25.176, 9.164, 7.059, 7.237, 7.019, 7.2, 6.939, 7.101, 6.771, 6.968, 7.252, 6.769, 7.041, 7.038, 7.062, 6.618, 6.928, 6.91, 6.952, 7.121, 7.028, 12.938, 7.148, 7.09, 6.644, 6.834, 7.135, 7.082, 6.94, 6.883, 6.879, 7.35, 7.287, 6.856, 7.162, 7.061, 7.908, 6.683, 6.973, 7.029, 6.68, 7.048, 6.953, 8.82, 7.375, 6.827, 7.017, 6.933, 6.969, 6.882, 7.104, 7.003, 6.937, 7.013, 7.251, 7.167, 6.747, 7.351, 6.581, 7.12, 6.847, 7.194, 6.947, 6.729, 7.026, 7.197, 7.005, 7.012, 7.271, 6.933, 7.262, 7.153, 6.972, 6.936, 6.993, 6.88, 6.799, 6.718, 7.074, 6.814, 6.997, 6.684, 7.276, 7.065, 6.913, 6.825, 6.654, 7.296, 6.661, 7.247, 6.847, 6.838, 7.131, 7.278, 6.833, 7.458, 7.074, 7.031, 6.903, 7.109, 6.96, 6.839, 6.704, 6.793, 7.135, 6.873, 7.975, 6.984, 6.914, 6.834, 7.108, 7.027, 7.12, 6.749, 7.269, 6.962, 6.653, 7.144, 6.854, 7.077, 7.276, 7.023, 6.9, 6.67, 7.136, 7.091, 6.882, 6.795, 6.854, 7.015, 7.328, 6.94, 7.008, 6.812, 7.018, 6.97, 7.074, 7.405, 6.611, 7.958, 25.18, 8.776, 6.758, 7.07, 6.831, 6.986, 6.877, 7.166, 6.977, 7.133, 7.014, 6.764, 6.909, 6.994, 7.307, 6.958, 6.817, 6.87, 6.973, 11.031, 6.725, 6.871, 7.053, 6.899, 7.21, 6.859, 7.049, 6.741, 7.039, 7.159, 6.605, 7.126, 6.621, 7.283, 6.879, 6.824, 6.988, 7.102, 6.626, 7.081, 7.045, 6.803, 7.096, 11.23, 7.198, 7.244, 6.987, 7.044, 6.957, 6.917, 7.243, 7.074, 6.67, 7.316, 6.813, 7.245, 6.982, 7.36, 6.771, 7.325, 7.143, 6.857, 6.978, 6.951, 7.011, 6.945, 7.095, 7.254, 7.187, 6.99, 7.164, 7.157, 6.893, 6.879, 6.775, 7.298, 7.135, 7.051, 6.966, 6.869, 7.336, 6.869, 6.887, 6.919, 6.821, 7.06, 6.988, 7.034, 7.105, 7.358, 6.707, 7.655, 7.092, 6.967, 6.885, 7.219, 6.516, 7.251, 6.925, 7.233, 6.794, 7.169, 7.107, 6.97, 6.809, 7.248, 6.972, 7.21, 6.849, 7.099, 6.607, 6.86, 6.846, 7.28, 6.844, 7.054, 7.082, 6.847, 6.882, 7.325, 7.012, 7.241, 7.061, 7.181, 6.817, 7.045, 7.086, 6.805, 7.014, 6.808, 7.087, 6.855, 7.36, 6.639, 7.08, 6.817, 6.816, 7.224, 7.13, 9.72, 7.163, 7.683, 7.079, 9.642, 9.336, 6.869, 6.55, 11.151, 7.65, 6.861, 6.997, 8.408, 7.162, 7.168, 7.017, 16.602, 8.9, 14.773, 7.076, 8.762, 7.131, 7.035, 6.869, 18.764, 6.626, 6.823, 6.878, 6.977, 9.515, 6.736, 8.687, 7.042, 24.564, 10.095, 7.065, 7.197, 9.77, 7.164, 6.803, 6.813, 7.226, 6.802, 7.166, 6.884, 6.881],
  "Optimizer iterations": 758,
  "Optimizer params": [0.9392670121202977, 0.9997119058178963, 1.0, 0.4453069616985545, 0.06677271808509366, 0.03144595789627003, 0.16950305081000389, 0.5291437318129922, 0.9878394006156711, 0.6046666308912059, 0.8547296426623765, 0.17164781562841747, 0.9999999999999997, 0.9310760057064708, 0.10815260830327876, 0.40927035144573826, 0.5401219060577279, 5.808384567773376e-05, 0.3256292918614597, 0.008600219250442749, 0.5082278243122348, 0.9728177616742401, 0.62474675358447, 1.0],
  "P": 0,
  "Problem": "IC",
  "QJob durations [ms]": [0.29379999614320695, 0.3075499989790842, 0.2997499977936968, 0.3023000026587397, 0.2955499949166551, 0.30059998971410096, 0.29290000384207815, 0.29579999682027847, 0.29790001281071454, 0.298700004350394, 0.2985499886563048, 0.2950999914901331, 0.2960999991046265, 0.301049993140623, 0.3072499966947362, 0.30094999237917364, 0.3122000052826479, 0.2938999969046563, 0.2910499897552654, 0.31165000109467655, 0.298850005492568, 0.413799993111752, 0.4386999935377389, 0.4055500030517578, 0.2989000058732927, 0.301799998851493, 0.29164999432396144, 0.29129999165888876, 0.2940499980468303, 0.298850005492568, 0.29740000900346786, 0.2952999930130318, 0.30870000773575157, 0.3021500015165657, 0.2968500048154965, 0.2929500042228028, 0.2975999959744513, 0.2997000119648874, 0.29320000612642616, 0.30425000295508653, 0.2998999989358708, 0.30669999250676483, 0.29224999889265746, 0.3025499900104478, 0.29660000291187316, 0.308449991280213, 0.2987999905599281, 0.30130000959616154, 0.2973500086227432, 0.29865000396966934, 0.2955999952973798, 0.30664999212604016, 0.30050000350456685, 0.29284998890943825, 0.2982000005431473, 0.3037999995285645, 0.29850000282749534, 0.298700004350394, 0.29754999559372663, 0.2969000051962212, 0.30154999694786966, 0.29675000405404717, 0.2945000014733523, 0.29590001213364303, 0.3844500024570152, 0.3037999995285645, 0.29594999796245247, 0.302250002278015, 0.3127000090898946, 0.2940499980468303, 0.3046000056201592, 0.29520000680349767, 0.29719999292865396, 0.29865000396966934, 0.2953999937744811, 0.29784999787807465, 0.2930000046035275, 0.29329999233596027, 0.3049500082852319, 0.30214998696465045, 0.29024999821558595, 0.301349995424971, 0.2970500063383952, 0.29815000016242266, 0.3037000133190304, 0.2980499994009733, 0.3027499915333465, 0.30080000578891486, 0.294550001854077, 0.2909500035457313, 0.30590000096708536, 0.2942500141216442, 0.2998999989358708, 0.2997999981744215, 0.3022499877260998, 0.29799999902024865, 0.2995999966515228, 0.3003999881912023, 0.2910499897552654, 0.2960499987239018, 0.2930000046035275, 0.309049995848909, 0.3068000078201294, 0.3007500054081902, 0.29904999246355146, 0.29314999119378626, 0.3043000033358112, 0.2970000059576705, 0.3021500015165657, 0.2963500010082498, 0.29984999855514616, 0.2919000107795, 0.29009999707341194, 0.29680000443477184, 0.31185000261757523, 0.30450000485870987, 0.297949998639524, 0.32080001255963, 0.29725000786129385, 0.30590000096708536, 0.2986999897984788, 0.30934999813325703, 0.29814998561050743, 0.2974499948322773, 0.3012500092154369, 0.3010500076925382, 0.2952499926323071, 0.30670000705868006, 0.30154999694786966, 0.3031000087503344, 0.3430499928072095, 0.29695000557694584, 0.30359999800566584, 0.29895000625401735, 0.30094999237917364, 0.29445000109262764, 0.2995999966515228, 0.298250000923872, 0.3007000050274655, 0.3001000004587695, 0.2959500125143677, 0.3193000011378899, 0.2931000053649768, 0.29969999741297215, 0.3031999949598685, 0.3029000072274357, 0.29105000430718064, 0.30359999800566584, 0.3060000017285347, 0.30875000811647624, 0.295000005280599, 0.29654998797923326, 0.30294999305624515, 0.29830000130459666, 0.3156500024488196, 0.2986499894177541, 0.2973500086227432, 0.294550001854077, 0.2963500010082498, 0.2978500124299899, 0.29525000718422234, 0.4801499890163541, 0.42284998926334083, 0.29475000337697566, 0.29209999775048345, 0.3080999886151403, 0.2955499949166551, 0.30124999466352165, 0.29665000329259783, 0.2945000014733523, 0.2930000046035275, 0.29710000671911985, 0.2922999992733821, 0.30339999648276716, 0.3081500035477802, 0.301199994282797, 0.2999499993165955, 0.29739999445155263, 0.29830000130459666, 0.29984999855514616, 0.29779999749735, 0.294700002996251, 0.29665000329259783, 0.29889999132137746, 0.30300000798888505, 0.2987500047311187, 0.2965000021504238, 0.298400002066046, 0.30625000363215804, 0.3034000110346824, 0.28295000083744526, 0.3012999950442463, 0.29414999880827963, 0.2870500029530376, 0.2974500093841925, 0.2901499974541366, 0.294850004138425, 0.4216000088490546, 0.3043000033358112, 0.338400001055561, 0.29630000062752515, 0.29349999385885894, 0.3001000004587695, 0.30029998742975295, 0.2943500003311783, 0.29630000062752515, 0.2976500109070912, 0.29614999948535115, 0.29865000396966934, 0.29749999521300197, 0.2921999985119328, 0.2938499965239316, 0.3001000004587695, 0.2940499980468303, 0.2933999930974096, 0.29409999842755497, 0.2992999943671748, 0.2878499944927171, 0.2987999905599281, 0.29784999787807465, 0.3097500011790544, 0.301199994282797, 0.3053999971598387, 0.29919999360572547, 0.2998000127263367, 0.298400002066046, 0.3031499945791438, 0.31045000650919974, 0.2971500070998445, 0.2977499971166253, 0.28839999868068844, 0.29695000557694584, 0.3071500104852021, 0.30714999593328685, 0.3065499913645908, 0.2960999991046265, 0.30405000143218786, 0.2891999902203679, 0.3021500015165657, 0.2990500070154667, 0.2970500063383952, 0.3071999963140115, 0.2902999985963106, 0.30189999961294234, 0.29845000244677067, 0.29954999627079815, 0.29984999855514616, 0.3124999930150807, 0.2960999991046265, 0.2926500019384548, 0.3013500099768862, 0.29469998844433576, 0.2913999924203381, 0.30764999974053353, 0.30500000866595656, 0.3345000004628673, 0.3260000084992498, 0.29385001107584685, 0.3132999991066754, 0.291450007352978, 0.291300006210804, 0.3005500038852915, 0.3099000023212284, 0.2968499902635813, 0.2999499993165955, 0.3071000101044774, 0.29460000223480165, 0.295300007564947, 0.2934500080300495, 0.31740000122226775, 0.2962500002468005, 0.2932499919552356, 0.2930000046035275, 0.29614999948535115, 0.2927000023191795, 0.29445000109262764, 0.2921999985119328, 0.2938999969046563, 0.29584999720100313, 0.2921499981312081, 0.3262999962316826, 0.29489998996723443, 0.30595000134781003, 0.29984999855514616, 0.2994499955093488, 0.29594999796245247, 0.29489998996723443, 0.3004500031238422, 0.291300006210804, 0.294700002996251, 0.2950999914901331, 0.2968499902635813, 0.2935999946203083, 0.2972499933093786, 0.29719999292865396, 0.2999499993165955, 0.29414999880827963, 0.291000003926456, 0.31099999614525586, 0.30270000570453703, 0.4189999890513718, 0.2939500118372962, 0.33540000731591135, 0.29815000016242266, 0.29275000269990414, 0.29880000511184335, 0.2943500003311783, 0.30255000456236303, 0.2965000021504238, 0.29224999889265746, 0.30455000523943454, 0.2934499934781343, 0.3001000004587695, 0.2987999905599281, 0.30544999754056334, 0.30420000257436186, 0.2587999988463707, 0.2928000030806288, 0.3037999995285645, 0.29454998730216175, 0.30425000295508653, 0.2756000030785799, 0.2935499942395836, 0.2991499932250008, 0.2718500036280602, 0.2923499996541068, 0.2936999953817576, 0.29519999225158244, 0.3038499999092892, 0.2958999975817278, 0.3001000004587695, 0.30285000684671104, 0.29835000168532133, 0.49015000695362687, 0.4354999982751906, 0.30235000303946435, 0.30590000096708536, 0.30005000007804483, 0.30169999809004366, 0.2938499965239316, 0.3049500082852319, 0.2968500048154965, 0.29644998721778393, 0.30205000075511634, 0.29734999407082796, 0.304899993352592, 0.30020000122021884, 0.2957499964395538, 0.2928000030806288, 0.2961999998660758, 0.29009999707341194, 0.30184999923221767, 0.29835000168532133, 0.30565001361537725, 0.30264999077189714, 0.29614999948535115, 0.31180000223685056, 0.30529999639838934, 0.29245000041555613, 0.298400002066046, 0.30235000303946435, 0.30035000236239284, 0.31725000008009374, 0.29740000900346786, 0.29484998958650976, 0.29855000320822, 0.2912499912781641, 0.3046000056201592, 0.29689999064430594, 0.2989499917021021, 0.29855000320822, 0.31200000375974923, 0.30934999813325703, 0.2976500109070912, 0.29630000062752515, 0.30139999580569565, 0.29719999292865396, 0.3048000071430579, 0.29275000269990414, 0.302100001135841, 0.31550000130664557, 0.3079000016441569, 0.30139999580569565, 0.29680000443477184, 0.29335000726860017, 0.29945001006126404, 0.2917499950854108, 0.32544998975936323, 0.29489998996723443, 0.29364999500103295, 0.298700004350394, 0.3042499884031713, 0.29599999834317714, 0.2964000013889745, 0.29149999318178743, 0.31519999902229756, 0.3067499928874895, 0.3080000024056062, 0.2926500019384548, 0.297949998639524, 0.3003000019816682, 0.302100001135841, 0.3250500012654811, 0.29614999948535115, 0.2964000013889745, 0.2987500047311187, 0.30139999580569565, 0.30109999352134764, 0.29665000329259783, 0.2980499994009733, 0.2995000104419887, 0.29460000223480165, 0.29429999995045364, 0.3221500082872808, 0.2973500086227432, 0.3041000018129125, 0.30139999580569565, 0.302250002278015, 0.30944999889470637, 0.3092499973718077, 0.2948000037577003, 0.28885000210721046, 0.29695000557694584, 0.301199994282797, 0.3070499951718375, 0.31394998950418085, 0.30130000959616154, 0.2973000082420185, 0.30869999318383634, 0.298700004350394, 0.30519999563694, 0.29999999969732016, 0.30089999199844897, 0.2782499941531569, 0.4034000012325123, 0.29075000202283263, 0.3058500005863607, 0.2994999958900735, 0.29725000786129385, 0.29779999749735, 0.2993499947478995, 0.2952499926323071, 0.2963500010082498, 0.31209998996928334, 0.2937499957624823, 0.3020000003743917, 0.3046000056201592, 0.29674998950213194, 0.2935499942395836, 0.29305000498425215, 0.29245000041555613, 0.2933000068878755, 0.30095000693108886, 0.30440000409726053, 0.29334999271668494, 0.2952499926323071, 0.30330001027323306, 0.2969499910250306, 0.2889000024879351, 0.3039500006707385, 0.30074999085627496, 0.2980499994009733, 0.3039500006707385, 0.29475000337697566, 0.29924999398645014, 0.3103500057477504, 0.30169999809004366, 0.2914000069722533, 0.2988499909406528, 0.34324999433010817, 0.295000005280599, 0.2930499904323369, 0.29224999889265746, 0.29275000269990414, 0.2997999981744215, 0.29614999948535115, 0.2918999962275848, 0.2921499981312081, 0.2862499968614429, 0.31195000337902457, 0.2893499913625419, 0.3046000056201592, 0.2993499947478995, 0.29675000405404717, 0.2934500080300495, 0.30174999847076833, 0.2963500010082498, 0.3124000068055466, 0.3048000071430579, 0.2974499948322773, 0.29969999741297215, 0.29579999682027847, 0.29429999995045364, 0.29630000062752515, 0.30464999144896865, 0.2931500057457015, 0.29429999995045364, 0.29910000739619136, 0.30420000257436186, 0.30235000303946435, 0.29680000443477184, 0.3232000017305836, 0.2933999930974096, 0.29845000244677067, 0.3063500043936074, 0.29675000405404717, 0.3030500083696097, 0.2908000024035573, 0.30020000122021884, 0.2937499957624823, 0.2945000014733523, 0.2935499942395836, 0.29680000443477184, 0.295000005280599, 0.294400000711903, 0.3079499874729663, 0.2993499947478995, 0.2952499926323071, 0.2935999946203083, 0.2938999969046563, 0.30015000083949417, 0.29525000718422234, 0.2994999958900735, 0.2933000068878755, 0.29549999453593045, 0.3215500037185848, 0.30825000430922955, 0.2968500048154965, 0.3190499992342666, 0.2955000090878457, 0.29695000557694584, 0.29420001374091953, 0.29880000511184335, 0.29505000566132367, 0.29540000832639635, 0.2918499958468601, 0.29260000155773014, 0.3083000046899542, 0.2904499997384846, 0.2852000034181401, 0.29275000269990414, 0.30229998810682446, 0.29245000041555613, 0.29335000726860017, 0.29725000786129385, 0.2993499947478995, 0.2927000023191795, 0.29740000900346786, 0.29594999796245247, 0.29614999948535115, 0.29394999728538096, 0.2984999882755801, 0.3003499878104776, 0.30610000248998404, 0.29614999948535115, 0.2954499941552058, 0.2903500135289505, 0.2967000036733225, 0.301499996567145, 0.29159999394323677, 0.2918499958468601, 0.3004500031238422, 0.2998000127263367, 0.30374999914783984, 0.3007000050274655, 0.29830000130459666, 0.29269998776726425, 0.3014499961864203, 0.30109999352134764, 0.2950999914901331, 0.31380000291392207, 0.29584999720100313, 0.34139999479521066, 0.3075499989790842, 0.3752499906113371, 0.295000005280599, 0.29865000396966934, 0.2970500063383952, 0.2932499919552356, 0.2982000005431473, 0.3050500090466812, 0.2955000090878457, 0.2973000082420185, 0.29754999559372663, 0.29329999233596027, 0.3058500005863607, 0.2930000046035275, 0.29660000291187316, 0.29680000443477184, 0.2987999905599281, 0.2968500048154965, 0.3052500105695799, 0.49340000259689987, 0.2965000021504238, 0.2925000007962808, 0.29725000786129385, 0.2940499980468303, 0.2995000104419887, 0.29749999521300197, 0.30065000464674085, 0.2972000074805692, 0.2975000097649172, 0.2922999992733821, 0.295000005280599, 0.2935499942395836, 0.2951499918708578, 0.2972999936901033, 0.2997000119648874, 0.29704999178647995, 0.3005500038852915, 0.2970500063383952, 0.2930000046035275, 0.2943500003311783, 0.298700004350394, 0.2998999989358708, 0.29504999110940844, 0.29525000718422234, 0.30810000316705555, 0.30094999237917364, 0.3104999923380092, 0.2989000058732927, 0.298700004350394, 0.30050000350456685, 0.30854999204166234, 0.3005500038852915, 0.29409999842755497, 0.3021500015165657, 0.29364999500103295, 0.304749992210418, 0.298850005492568, 0.3010500076925382, 0.29904999246355146, 0.2971500070998445, 0.30169999809004366, 0.29799999902024865, 0.29844998789485544, 0.29569999605882913, 0.2993499947478995, 0.29505000566132367, 0.30840000545140356, 0.30494999373331666, 0.30535001133102924, 0.302250002278015, 0.30520001018885523, 0.29409999842755497, 0.29475000337697566, 0.29939999512862414, 0.29194999660830945, 0.31555000168737024, 0.3083000046899542, 0.301949999993667, 0.2955999952973798, 0.30434998916462064, 0.3051000094274059, 0.2959500125143677, 0.299150007776916, 0.2968500048154965, 0.2977499971166253, 0.2922999992733821, 0.3055500128539279, 0.3001000004587695, 0.2931500057457015, 0.30435000371653587, 0.2935499942395836, 0.3228999994462356, 0.29880000511184335, 0.29659998835995793, 0.29845000244677067, 0.29429999995045364, 0.2903499989770353, 0.3046500060008839, 0.3002500016009435, 0.2997499977936968, 0.2951499918708578, 0.3075499989790842, 0.2960499987239018, 0.2995000104419887, 0.29909999284427613, 0.30390000029001385, 0.3029999934369698, 0.30669999250676483, 0.29255000117700547, 0.2911000046879053, 0.29224999889265746, 0.29769999673590064, 0.2898499951697886, 0.301949999993667, 0.2960499987239018, 0.3002500016009435, 0.29779999749735, 0.2958999975817278, 0.2977499971166253, 0.3152999997837469, 0.30354999762494117, 0.31540000054519624, 0.29669998912140727, 0.31099999614525586, 0.2971499925479293, 0.2901499974541366, 0.29769999673590064, 0.2895499928854406, 0.30050000350456685, 0.2938499965239316, 0.3015500114997849, 0.30249998962972313, 0.30610000248998404, 0.29584999720100313, 0.2953999937744811, 0.2986000035889447, 0.2927499881479889, 0.3099499881500378, 0.29335000726860017, 0.4538500070339069, 0.30280000646598637, 0.338550002197735, 0.301649997709319, 0.44589999015443027, 0.30205000075511634, 0.2937499957624823, 0.2894999925047159, 0.30544999754056334, 0.3104999923380092, 0.29784999787807465, 0.30929999775253236, 0.2980000135721639, 0.30250000418163836, 0.30100000731181353, 0.30390000029001385, 0.2668999950401485, 0.29710000671911985, 0.29835000168532133, 0.301199994282797, 0.29910000739619136, 0.2997499977936968, 0.29999999969732016, 0.29520000680349767, 0.26699999580159783, 0.29009999707341194, 0.2934500080300495, 0.29155000811442733, 0.29090000316500664, 0.42949999624397606, 0.2933999930974096, 0.34405000042170286, 0.3020000003743917, 0.27879999834112823, 0.4545999981928617, 0.2943500003311783, 0.3107000084128231, 0.29695000557694584, 0.30255000456236303, 0.2972499933093786, 0.29799999902024865, 0.2886000002035871, 0.29275000269990414, 0.30235000303946435, 0.2995999966515228, 0.2935499942395836],
  "QPU": "7000000",
  "Qubits": 6,
  "Queue durations [ms]": [0.0, 0.0, 0.0, 0.0, 0.0, 0.0, 0.0, 0.0, 0.0, 0.0, 0.0, 0.0, 0.0, 0.0, 0.0, 0.0, 0.0, 0.0, 0.0, 0.0, 0.0, 0.0, 0.0, 0.0, 0.0, 0.0, 0.0, 0.0, 0.0, 0.0, 0.0, 0.0, 0.0, 0.0, 0.0, 0.0, 0.0, 0.0, 0.0, 0.0, 0.0, 0.0, 0.0, 0.0, 0.0, 0.0, 0.0, 0.0, 0.0, 0.0, 0.0, 0.0, 0.0, 0.0, 0.0, 0.0, 0.0, 0.0, 0.0, 0.0, 0.0, 0.0, 0.0, 0.0, 0.0, 0.0, 0.0, 0.0, 0.0, 0.0, 0.0, 0.0, 0.0, 0.0, 0.0, 0.0, 0.0, 0.0, 0.0, 0.0, 0.0, 0.0, 0.0, 0.0, 0.0, 0.0, 0.0, 0.0, 0.0, 0.0, 0.0, 0.0, 0.0, 0.0, 0.0, 0.0, 0.0, 0.0, 0.0, 0.0, 0.0, 0.0, 0.0, 0.0, 0.0, 0.0, 0.0, 0.0, 0.0, 0.0, 0.0, 0.0, 0.0, 0.0, 0.0, 0.0, 0.0, 0.0, 0.0, 0.0, 0.0, 0.0, 0.0, 0.0, 0.0, 0.0, 0.0, 0.0, 0.0, 0.0, 0.0, 0.0, 0.0, 0.0, 0.0, 0.0, 0.0, 0.0, 0.0, 0.0, 0.0, 0.0, 0.0, 0.0, 0.0, 0.0, 0.0, 0.0, 0.0, 0.0, 0.0, 0.0, 0.0, 0.0, 0.0, 0.0, 0.0, 0.0, 0.0, 0.0, 0.0, 0.0, 0.0, 0.0, 0.0, 0.0, 0.0, 0.0, 0.0, 0.0, 0.0, 0.0, 0.0, 0.0, 0.0, 0.0, 0.0, 0.0, 0.0, 0.0, 0.0, 0.0, 0.0, 0.0, 0.0, 0.0, 0.0, 0.0, 0.0, 0.0, 0.0, 0.0, 0.0, 0.0, 0.0, 0.0, 0.0, 0.0, 0.0, 0.0, 0.0, 0.0, 0.0, 0.0, 0.0, 0.0, 0.0, 0.0, 0.0, 0.0, 0.0, 0.0, 0.0, 0.0, 0.0, 0.0, 0.0, 0.0, 0.0, 0.0, 0.0, 0.0, 0.0, 0.0, 0.0, 0.0, 0.0, 0.0, 0.0, 0.0, 0.0, 0.0, 0.0, 0.0, 0.0, 0.0, 0.0, 0.0, 0.0, 0.0, 0.0, 0.0, 0.0, 0.0, 0.0, 0.0, 0.0, 0.0, 0.0, 0.0, 0.0, 0.0, 0.0, 0.0, 0.0, 0.0, 0.0, 0.0, 0.0, 0.0, 0.0, 0.0, 0.0, 0.0, 0.0, 0.0, 0.0, 0.0, 0.0, 0.0, 0.0, 0.0, 0.0, 0.0, 0.0, 0.0, 0.0, 0.0, 0.0, 0.0, 0.0, 0.0, 0.0, 0.0, 0.0, 0.0, 0.0, 0.0, 0.0, 0.0, 0.0, 0.0, 0.0, 0.0, 0.0, 0.0, 0.0, 0.0, 0.0, 0.0, 0.0, 0.0, 0.0, 0.0, 0.0, 0.0, 0.0, 0.0, 0.0, 0.0, 0.0, 0.0, 0.0, 0.0, 0.0, 0.0, 0.0, 0.0, 0.0, 0.0, 0.0, 0.0, 0.0, 0.0, 0.0, 0.0, 0.0, 0.0, 0.0, 0.0, 0.0, 0.0, 0.0, 0.0, 0.0, 0.0, 0.0, 0.0, 0.0, 0.0, 0.0, 0.0, 0.0, 0.0, 0.0, 0.0, 0.0, 0.0, 0.0, 0.0, 0.0, 0.0, 0.0, 0.0, 0.0, 0.0, 0.0, 0.0, 0.0, 0.0, 0.0, 0.0, 0.0, 0.0, 0.0, 0.0, 0.0, 0.0, 0.0, 0.0, 0.0, 0.0, 0.0, 0.0, 0.0, 0.0, 0.0, 0.0, 0.0, 0.0, 0.0, 0.0, 0.0, 0.0, 0.0, 0.0, 0.0, 0.0, 0.0, 0.0, 0.0, 0.0, 0.0, 0.0, 0.0, 0.0, 0.0, 0.0, 0.0, 0.0, 0.0, 0.0, 0.0, 0.0, 0.0, 0.0, 0.0, 0.0, 0.0, 0.0, 0.0, 0.0, 0.0, 0.0, 0.0, 0.0, 0.0, 0.0, 0.0, 0.0, 0.0, 0.0, 0.0, 0.0, 0.0, 0.0, 0.0, 0.0, 0.0, 0.0, 0.0, 0.0, 0.0, 0.0, 0.0, 0.0, 0.0, 0.0, 0.0, 0.0, 0.0, 0.0, 0.0, 0.0, 0.0, 0.0, 0.0, 0.0, 0.0, 0.0, 0.0, 0.0, 0.0, 0.0, 0.0, 0.0, 0.0, 0.0, 0.0, 0.0, 0.0, 0.0, 0.0, 0.0, 0.0, 0.0, 0.0, 0.0, 0.0, 0.0, 0.0, 0.0, 0.0, 0.0, 0.0, 0.0, 0.0, 0.0, 0.0, 0.0, 0.0, 0.0, 0.0, 0.0, 0.0, 0.0, 0.0, 0.0, 0.0, 0.0, 0.0, 0.0, 0.0, 0.0, 0.0, 0.0, 0.0, 0.0, 0.0, 0.0, 0.0, 0.0, 0.0, 0.0, 0.0, 0.0, 0.0, 0.0, 0.0, 0.0, 0.0, 0.0, 0.0, 0.0, 0.0, 0.0, 0.0, 0.0, 0.0, 0.0, 0.0, 0.0, 0.0, 0.0, 0.0, 0.0, 0.0, 0.0, 0.0, 0.0, 0.0, 0.0, 0.0, 0.0, 0.0, 0.0, 0.0, 0.0, 0.0, 0.0, 0.0, 0.0, 0.0, 0.0, 0.0, 0.0, 0.0, 0.0, 0.0, 0.0, 0.0, 0.0, 0.0, 0.0, 0.0, 0.0, 0.0, 0.0, 0.0, 0.0, 0.0, 0.0, 0.0, 0.0, 0.0, 0.0, 0.0, 0.0, 0.0, 0.0, 0.0, 0.0, 0.0, 0.0, 0.0, 0.0, 0.0, 0.0, 0.0, 0.0, 0.0, 0.0, 0.0, 0.0, 0.0, 0.0, 0.0, 0.0, 0.0, 0.0, 0.0, 0.0, 0.0, 0.0, 0.0, 0.0, 0.0, 0.0, 0.0, 0.0, 0.0, 0.0, 0.0, 0.0, 0.0, 0.0, 0.0, 0.0, 0.0, 0.0, 0.0, 0.0, 0.0, 0.0, 0.0, 0.0, 0.0, 0.0, 0.0, 0.0, 0.0, 0.0, 0.0, 0.0, 0.0, 0.0, 0.0, 0.0, 0.0, 0.0, 0.0, 0.0, 0.0, 0.0, 0.0, 0.0, 0.0, 0.0, 0.0, 0.0, 0.0, 0.0, 0.0, 0.0, 0.0, 0.0, 0.0, 0.0, 0.0, 0.0, 0.0, 0.0, 0.0, 0.0, 0.0, 0.0, 0.0, 0.0, 0.0, 0.0, 0.0, 0.0, 0.0, 0.0, 0.0, 0.0, 0.0, 0.0, 0.0, 0.0, 0.0, 0.0, 0.0, 0.0, 0.0, 0.0, 0.0, 0.0, 0.0, 0.0, 0.0, 0.0, 0.0, 0.0, 0.0, 0.0, 0.0, 0.0, 0.0, 0.0, 0.0, 0.0, 0.0, 0.0, 0.0, 0.0, 0.0, 0.0, 0.0, 0.0, 0.0, 0.0, 0.0, 0.0, 0.0, 0.0, 0.0, 0.0, 0.0, 0.0, 0.0, 0.0, 0.0, 0.0, 0.0, 0.0, 0.0, 0.0, 0.0, 0.0, 0.0, 0.0, 0.0, 0.0, 0.0, 0.0, 0.0, 0.0, 0.0, 0.0, 0.0, 0.0, 0.0, 0.0, 0.0, 0.0, 0.0, 0.0, 0.0, 0.0, 0.0, 0.0, 0.0, 0.0, 0.0, 0.0, 0.0, 0.0, 0.0, 0.0, 0.0, 0.0, 0.0, 0.0, 0.0, 0.0, 0.0, 0.0],
  "Shots": 4096,
  "Size": 6,
  "Total Algorithm duration [s]": 5.582,
  "Total Classic duration [s]": 5.3528485499824745,
  "Total Quantum duration [s]": 0.22915145001752535
}
