{
  "Circuit execution durations [ms]": [0.2982000005431473, 0.3038499999092892, 0.2935499942395836, 0.29520000680349767, 0.4574000049615279, 0.3346500016050413, 0.3612000000430271, 0.2951499918708578, 0.3183499939041212, 0.298700004350394, 0.2957499964395538, 0.29845000244677067, 0.2991499932250008, 0.2978999982587993, 0.2954499941552058, 0.29660000291187316, 0.2977499971166253, 0.29015001200605184, 0.3006999904755503, 0.29260000155773014, 0.30920001154299825, 0.31180000223685056, 0.29284998890943825, 0.2946500026155263, 0.30124999466352165, 0.30810000316705555, 0.294550001854077, 0.29910000739619136, 0.29815000016242266, 0.29659998835995793, 0.2938999969046563, 0.2937500103143975, 0.2972999936901033, 0.29505000566132367, 0.29784999787807465, 0.29394999728538096, 0.30074999085627496, 0.29525000718422234, 0.29070000164210796, 0.29984999855514616, 0.29170000925660133, 0.29275000269990414, 0.30189999961294234, 0.294400000711903, 0.2960999991046265, 0.295000005280599, 0.298250000923872, 0.301499996567145, 0.29769999673590064, 0.2998999989358708, 0.2939000114565715, 0.2927000023191795, 0.2905000001192093, 0.29224999889265746, 0.3006000042660162, 0.29209999775048345, 0.30015000083949417, 0.2960499987239018, 0.30744999821763486, 0.29505000566132367, 0.30574999982491136, 0.309049995848909, 0.29815000016242266, 0.29520000680349767, 0.2994499955093488, 0.301349995424971, 0.29845000244677067, 0.29275000269990414, 0.29409999842755497, 0.3001000004587695, 0.29830000130459666, 0.30590000096708536, 0.29764999635517597, 0.2957499964395538, 0.31275000947061926, 0.29579999682027847, 0.29749999521300197, 0.29055000049993396, 0.30279999191407114, 0.2967000036733225, 0.29769999673590064, 0.2943500003311783, 0.29645000176969916, 0.29379999614320695, 0.2878499944927171, 0.30259999039117247, 0.30080000578891486, 0.29525000718422234, 0.2845499984687194, 0.29770001128781587, 0.29510000604204834, 0.29399999766610563, 0.2897500089602545, 0.29909999284427613, 0.3127000090898946, 0.2975999959744513, 0.2962999860756099, 0.2993499947478995, 0.3184000088367611, 0.29599999834317714, 0.298099999781698, 0.29855000320822, 0.30664999212604016, 0.3086499928031117, 0.2923499996541068, 0.30390000029001385, 0.2936000091722235, 0.30869999318383634, 0.30590000096708536, 0.29534999339375645, 0.28885000210721046, 0.297949998639524, 0.30479999259114265, 0.29645000176969916, 0.30020000122021884, 0.30235000303946435, 0.29245000041555613, 0.38070000300649554, 0.2950999914901331, 0.29000001086387783, 0.294550001854077, 0.30980000155977905, 0.3004000027431175, 0.2974500093841925, 0.2973500086227432, 0.2971500070998445, 0.3264499973738566, 0.29105000430718064, 0.3003499878104776, 0.301799998851493, 0.295000005280599, 0.2901999978348613, 0.29424999956972897, 0.2934500080300495, 0.3025499900104478, 0.29799999902024865, 0.294550001854077, 0.3014499961864203, 0.3092499973718077, 0.29984999855514616, 0.29209999775048345, 0.2937499957624823, 0.3055499983020127, 0.29445000109262764, 0.31400000443682075, 0.41834999865386635, 0.30965000041760504, 0.3028499922947958, 0.29909999284427613, 0.2972000074805692, 0.302400003420189, 0.2978999982587993, 0.298250000923872, 0.295600009849295, 0.3029999934369698, 0.298700004350394, 0.2947499888250604, 0.29070000164210796, 0.32175000524148345, 0.2975000097649172, 0.29855000320822, 0.31385000329464674, 0.2965000021504238, 0.30825000430922955, 0.3328500024508685, 0.308899994706735, 0.29630000062752515, 0.30044998857192695, 0.29954999627079815, 0.287900009425357, 0.2940500125987455, 0.3035500121768564, 0.30110000807326287, 0.29340000764932483, 0.30429998878389597, 0.29775001166854054, 0.299000006634742, 0.2975999959744513, 0.29850000282749534, 0.29475000337697566, 0.2994499955093488, 0.291450007352978, 0.3039500006707385, 0.3009999927598983, 0.2919999969890341, 0.2914000069722533, 0.28759999258909374, 0.3056999994441867, 0.3063500043936074, 0.30220000189729035, 0.2965000021504238, 0.2958999975817278, 0.298850005492568, 0.3152999997837469, 0.2961999998660758, 0.2993500092998147, 0.2928000030806288, 0.2997999981744215, 0.3063000040128827, 0.30339999648276716, 0.2960999991046265, 0.2965500025311485, 0.30509999487549067, 0.3032999957213178, 0.2950999914901331, 0.2921999985119328, 0.2925000007962808, 0.29414999880827963, 0.29909999284427613, 0.2922999992733821, 0.3004500031238422, 0.3077000001212582, 0.3142500063404441, 0.29570001061074436, 0.29784999787807465, 0.30350001179613173, 0.32384999212808907, 0.3026000049430877, 0.30169999809004366, 0.3080000024056062, 0.30205000075511634, 0.2972000074805692, 0.294700002996251, 0.2926500019384548, 0.3180499916197732, 0.2952499926323071, 0.30015000083949417, 0.2993499947478995, 0.301649997709319, 0.2955999952973798, 0.29305000498425215, 0.3105999930994585, 0.2976500109070912, 0.30694999441038817, 0.2921000123023987, 0.29579999682027847, 0.29495000489987433, 0.30980000155977905, 0.298700004350394, 0.29594999796245247, 0.2950999914901331, 0.2958000113721937, 0.3004000027431175, 0.29779999749735, 0.30795000202488154, 0.3005499893333763, 0.29945001006126404, 0.3069500089623034, 0.33564999466761947, 0.29024999821558595, 0.3097500011790544, 0.2918499958468601, 0.3023000026587397, 0.3071000101044774, 0.2918999962275848, 0.29579999682027847, 0.2961999998660758, 0.29830000130459666, 0.2925000007962808, 0.33554999390617013, 0.29284998890943825, 0.2933000068878755, 0.3071999963140115, 0.3023000026587397, 0.29600001289509237, 0.3232500021113083, 0.29215001268312335, 0.3067499928874895, 0.29770001128781587, 0.294850004138425, 0.30359999800566584, 0.2986999897984788, 0.31165000109467655, 0.3164500085404143, 0.29120000544935465, 0.2905000001192093, 0.29329999233596027, 0.301949999993667, 0.29835000168532133, 0.2930000046035275, 0.30729999707546085, 0.3039500006707385, 0.2889000024879351, 0.45540000428445637, 0.30109999352134764, 0.2993500092998147, 0.3058500005863607, 0.31025000498630106, 0.3001000004587695, 0.29414999880827963, 0.2858499938156456, 0.3039500006707385, 0.2969000051962212, 0.294850004138425, 0.29284998890943825, 0.2930499904323369, 0.30350001179613173, 0.2998999989358708, 0.29764999635517597, 0.26449999859323725, 0.29129999165888876, 0.3125500079477206, 0.2970999921672046, 0.29734999407082796, 0.29394999728538096, 0.30559999868273735, 0.294700002996251, 0.30649999098386616, 0.2936999953817576, 0.2947999892057851, 0.29850000282749534, 0.2975000097649172, 0.2926499873865396, 0.29409999842755497, 0.2945000014733523, 0.29799999902024865, 0.2957499964395538, 0.29255000117700547, 0.40079999598674476, 0.29394999728538096, 0.3024500038009137, 0.30160001188050956, 0.30535001133102924, 0.30529999639838934, 0.30434998916462064, 0.29319999157451093, 0.3044500044779852, 0.30544999754056334, 0.29734999407082796, 0.3030499938176945, 0.3004000027431175, 0.302400003420189, 0.29645000176969916, 0.3030499938176945, 0.2955999952973798, 0.30065000464674085, 0.3011499939020723, 0.29340000764932483, 0.3004500031238422, 0.2913999924203381, 0.29594999796245247, 0.28929999098181725, 0.3006000042660162, 0.2970000059576705, 0.3015000111190602, 0.29784999787807465, 0.29520000680349767, 0.31209998996928334, 0.2935999946203083, 0.3048000071430579, 0.3182500076945871, 0.3023000026587397, 0.29779999749735, 0.294400000711903, 0.2905000001192093, 0.29984999855514616, 0.2957499964395538, 0.2947499888250604, 0.3023000026587397, 0.28950000705663115, 0.29865000396966934, 0.3032999957213178, 0.29499999072868377, 0.29164999432396144, 0.3132999991066754, 0.29630000062752515, 0.294700002996251, 0.2978999982587993, 0.2898499951697886, 0.3412000078242272, 0.29769999673590064, 0.298250000923872, 0.2966499887406826, 0.30255000456236303, 0.29569999605882913, 0.29399999766610563, 0.294700002996251, 0.3029000072274357, 0.29844998789485544, 0.30840000545140356, 0.29475000337697566, 0.297949998639524, 0.298099999781698, 0.2938999969046563, 0.30110000807326287, 0.3015999973285943, 0.2938499965239316, 0.2895500074373558, 0.29144999280106276, 0.2924999862443656, 0.31200000375974923, 0.29070000164210796, 0.32175000524148345, 0.2940499980468303, 0.3007500054081902, 0.2969000051962212, 0.29764999635517597, 0.3006999904755503, 0.2968499902635813, 0.3259999939473346, 0.29779999749735, 0.29954999627079815, 0.2927000023191795, 0.29209999775048345, 0.2955999952973798, 0.305049994494766, 0.3174500016029924, 0.292200013063848, 0.294400000711903, 0.29855000320822, 0.29569999605882913, 0.29675000405404717, 0.3015999973285943, 0.2980499994009733, 0.297949998639524, 0.301199994282797, 0.3058500005863607, 0.31284999568015337, 0.4284000024199486, 0.3036499983863905, 0.30189999961294234, 0.2971500070998445, 0.29409999842755497, 0.29954999627079815, 0.29275000269990414, 0.28885000210721046, 0.2892499906010926, 0.2947499888250604, 0.295750010991469, 0.29224999889265746, 0.2953999937744811, 0.30980000155977905, 0.3069500089623034, 0.2903499989770353, 0.29584999720100313, 0.29680000443477184, 0.2967999898828566, 0.28885000210721046, 0.2986999897984788, 0.295450008707121, 0.3014499961864203, 0.2946500026155263, 0.3062499890802428, 0.3004500031238422, 0.2993499947478995, 0.29024999821558595, 0.2960999991046265, 0.295000005280599, 0.301949999993667, 0.30294999305624515, 0.30524999601766467, 0.29895000625401735, 0.30544999754056334, 0.304599991068244, 0.30574999982491136, 0.29695000557694584, 0.2970999921672046, 0.29165000887587667, 0.2941999991890043, 0.2940500125987455, 0.3005499893333763, 0.2997499977936968, 0.29409999842755497, 0.29749999521300197, 0.2980499994009733, 0.29665000329259783, 0.2945000014733523, 0.31319999834522605, 0.30174999847076833, 0.2905000001192093, 0.29105000430718064, 0.29924999398645014, 0.29445000109262764, 0.29924999398645014, 0.2938999969046563, 0.2937500103143975, 0.29349999385885894, 0.2999499993165955, 0.2971499925479293, 0.30115000845398754, 0.305800000205636, 0.298250000923872, 0.3036999987671152, 0.29749999521300197, 0.2989000058732927, 0.29659998835995793, 0.29489998996723443, 0.3026000049430877, 0.29734999407082796, 0.29835000168532133, 0.29630000062752515, 0.2960999991046265, 0.30354999762494117, 0.2999499993165955, 0.2954499941552058, 0.29284998890943825, 0.2923499996541068, 0.28870000096503645, 0.30899999546818435, 0.29290000384207815, 0.30169999809004366, 0.3032999957213178, 0.2968499902635813, 0.3030500083696097, 0.29680000443477184, 0.30205000075511634, 0.2999499993165955, 0.2903499989770353, 0.30405000143218786, 0.30015000083949417, 0.29319999157451093, 0.2925000007962808, 0.29969999741297215, 0.30100000731181353, 0.2954499941552058, 0.30050000350456685, 0.29495000489987433, 0.2974499948322773, 0.2993500092998147, 0.29865000396966934, 0.29984999855514616, 0.30869999318383634, 0.29695000557694584, 0.29055000049993396, 0.29764999635517597, 0.29255000117700547, 0.2982000005431473, 0.2929500042228028, 0.30235000303946435, 0.29010001162532717, 0.29290000384207815, 0.3037999995285645, 0.309199996991083, 0.29704999178647995, 0.33409999741706997, 0.3007000050274655, 0.2955999952973798, 0.28664999990724027, 0.29385001107584685, 0.3163999936077744, 0.3012500092154369, 0.3117000014754012, 0.294400000711903, 0.3060000017285347, 0.2922500134445727, 0.29865000396966934, 0.29334999271668494, 0.297949998639524, 0.29255000117700547, 0.2963500010082498, 0.29880000511184335, 0.2941999991890043, 0.28789999487344176, 0.30005000007804483, 0.2963500010082498, 0.29779999749735, 0.29564999567810446, 0.4312499950174242, 0.4066499968757853, 0.2962500002468005, 0.30079999123699963, 0.2970500063383952, 0.2940499980468303, 0.30044998857192695, 0.29495000489987433, 0.3029500076081604, 0.29105000430718064, 0.2995999966515228, 0.3109499957645312, 0.3123500064248219, 0.30339999648276716, 0.3030499938176945, 0.2986499894177541, 0.3014000103576109, 0.2960999991046265, 0.30189999961294234, 0.3110000106971711, 0.2973000082420185, 0.29835000168532133, 0.30390000029001385, 0.2954499941552058, 0.3048499929718673, 0.30759999935980886, 0.30440000409726053, 0.2999499993165955, 0.3031499945791438, 0.29164999432396144, 0.30139999580569565, 0.3033499961020425, 0.3034999972442165, 0.29630000062752515, 0.2975000097649172, 0.2913499920396134, 0.3030500083696097, 0.29999999969732016, 0.29534999339375645, 0.29399999766610563, 0.29584999720100313, 0.4431500128703192, 0.29734999407082796, 0.29445000109262764, 0.29320000612642616, 0.29815000016242266, 0.29245000041555613, 0.29999999969732016, 0.2982000005431473, 0.29320000612642616, 0.295450008707121, 0.3040000010514632, 0.29940000968053937, 0.3092499973718077, 0.3181999927619472, 0.2977499971166253, 0.31174998730421066, 0.29164999432396144, 0.3028499922947958, 0.2938499965239316, 0.2966499887406826, 0.29660000291187316, 0.29090000316500664, 0.3023000026587397, 0.302250002278015, 0.3199500060873106, 0.29859998903702945, 0.298400002066046],
  "Depth": 14.5,
  "Expectation Value": -6.899661540985107,
  "Optimal Expectation Value": -7.296229839324951,
  "Optimizer durations [ms]": [6.961, 7.136, 6.533, 7.092, 9.962, 22.251, 8.573, 6.707, 7.272, 7.197, 6.821, 7.072, 7.034, 6.909, 6.928, 7.082, 6.704, 6.947, 7.054, 6.993, 7.176, 7.387, 7.009, 7.12, 6.988, 6.942, 6.732, 7.192, 6.888, 6.822, 6.953, 6.85, 7.519, 6.852, 6.95, 6.833, 7.301, 6.625, 7.035, 6.673, 6.907, 7.028, 7.18, 6.7, 7.028, 6.678, 11.409, 6.772, 7.201, 6.789, 7.143, 6.554, 7.135, 6.507, 6.997, 6.865, 6.982, 6.958, 7.248, 6.826, 7.158, 7.083, 7.222, 6.783, 6.991, 6.814, 7.083, 6.694, 7.041, 6.948, 6.859, 7.289, 6.844, 6.915, 7.302, 6.94, 6.764, 6.872, 7.083, 6.985, 6.971, 7.021, 7.066, 6.857, 6.894, 6.928, 7.069, 6.897, 7.498, 7.177, 6.923, 6.63, 7.157, 6.73, 7.511, 7.068, 6.7, 7.037, 7.382, 6.965, 6.932, 6.764, 7.396, 7.046, 6.838, 7.335, 6.832, 6.973, 7.228, 12.868, 6.999, 7.042, 7.247, 6.84, 7.026, 6.927, 7.045, 8.432, 6.922, 6.815, 6.9, 7.244, 6.88, 7.112, 6.94, 6.88, 7.668, 6.77, 7.123, 7.128, 6.716, 6.862, 6.949, 6.694, 7.185, 6.968, 6.968, 6.822, 7.137, 7.005, 6.944, 7.009, 6.988, 7.091, 18.68, 12.915, 6.955, 7.461, 7.026, 7.102, 7.15, 6.977, 6.943, 6.92, 7.189, 7.186, 6.742, 6.732, 7.551, 6.917, 6.978, 7.454, 6.823, 7.206, 7.559, 7.353, 6.904, 6.825, 7.035, 6.613, 7.113, 6.914, 7.05, 7.04, 7.134, 6.702, 7.322, 6.976, 6.838, 7.194, 7.229, 6.543, 6.854, 7.245, 6.954, 7.0, 8.155, 6.923, 7.219, 7.117, 6.981, 6.761, 7.126, 7.566, 6.762, 6.834, 6.946, 6.92, 7.456, 7.038, 7.051, 6.853, 7.296, 7.192, 6.968, 6.9, 6.795, 6.829, 7.387, 7.25, 6.894, 7.053, 7.641, 6.986, 6.892, 7.147, 7.556, 7.1, 7.109, 6.985, 6.957, 6.978, 6.696, 7.06, 7.406, 6.856, 7.196, 6.765, 7.205, 6.904, 6.762, 7.331, 6.703, 7.408, 6.8, 7.048, 6.842, 7.447, 6.732, 7.35, 6.749, 6.998, 6.846, 7.163, 6.954, 6.893, 7.12, 7.151, 13.994, 7.014, 6.884, 7.18, 7.113, 6.961, 7.079, 6.935, 6.959, 7.04, 6.591, 7.732, 7.219, 6.964, 7.139, 6.979, 7.022, 7.319, 6.738, 7.299, 6.859, 7.229, 7.022, 7.16, 7.283, 7.333, 6.894, 6.985, 7.045, 6.954, 7.048, 6.719, 7.331, 6.803, 7.099, 9.963, 7.289, 6.918, 7.159, 7.183, 10.98, 6.601, 6.789, 11.432, 6.88, 6.81, 6.888, 8.903, 7.02, 7.161, 7.102, 19.27, 6.942, 7.442, 6.678, 7.212, 8.617, 6.951, 7.142, 7.268, 22.053, 6.844, 6.841, 7.267, 6.708, 8.122, 7.216, 6.86, 7.253, 15.096, 14.188, 12.336, 6.945, 7.302, 7.008, 7.198, 6.943, 6.786, 6.839, 7.347, 6.885, 7.098, 7.086, 6.836, 6.999, 7.24, 6.873, 7.095, 7.044, 6.882, 7.101, 6.942, 6.59, 6.796, 7.193, 6.769, 6.889, 7.151, 6.726, 7.44, 6.963, 6.871, 7.499, 7.082, 6.729, 6.99, 6.992, 7.03, 6.855, 6.866, 7.071, 6.896, 6.973, 7.087, 6.833, 6.803, 7.446, 6.853, 7.039, 6.965, 6.877, 7.934, 6.898, 6.999, 6.707, 7.942, 6.691, 7.268, 6.88, 7.043, 7.177, 7.396, 12.376, 7.105, 6.948, 6.938, 6.957, 7.32, 6.761, 7.219, 6.597, 6.952, 7.235, 6.765, 7.395, 7.09, 7.051, 6.976, 7.05, 7.066, 6.874, 7.534, 6.841, 7.067, 6.671, 7.289, 7.188, 6.937, 7.31, 6.902, 6.897, 7.066, 7.162, 6.669, 6.904, 7.207, 7.117, 6.832, 7.396, 17.373, 12.26, 7.205, 7.173, 6.907, 7.149, 6.679, 6.956, 6.924, 6.93, 6.745, 6.921, 6.91, 6.848, 7.373, 7.343, 6.906, 6.731, 7.141, 6.68, 6.754, 6.834, 7.26, 7.144, 6.828, 6.888, 6.987, 7.148, 7.155, 7.055, 6.765, 6.862, 7.015, 7.217, 6.92, 7.068, 7.268, 7.075, 6.768, 7.083, 6.781, 6.904, 11.126, 7.119, 6.917, 6.913, 6.896, 6.848, 7.199, 7.115, 7.215, 6.991, 6.745, 7.182, 7.128, 6.717, 7.201, 6.795, 6.97, 6.847, 6.991, 7.007, 6.89, 7.202, 6.828, 7.245, 6.821, 7.416, 6.774, 6.713, 7.281, 6.858, 7.017, 7.002, 6.847, 7.124, 6.895, 6.976, 6.933, 6.904, 6.66, 7.576, 6.873, 6.929, 7.312, 7.047, 7.012, 7.124, 6.78, 7.218, 6.617, 7.157, 6.883, 6.972, 7.019, 6.96, 7.157, 6.812, 6.875, 6.874, 7.236, 7.153, 13.069, 6.94, 7.287, 7.008, 6.778, 6.849, 7.141, 6.867, 7.009, 6.748, 6.944, 7.03, 7.087, 7.195, 7.024, 7.522, 7.009, 6.766, 7.378, 6.631, 7.248, 7.316, 6.932, 7.079, 7.03, 6.973, 6.922, 7.071, 6.874, 6.969, 6.818, 6.75, 7.151, 7.058, 6.923, 7.169, 6.885, 7.121, 24.763, 8.992, 7.081, 7.226, 7.042, 6.74, 7.233, 6.698, 6.939, 7.024, 6.727, 7.333, 7.392, 6.964, 6.974, 7.401, 6.897, 7.002, 6.92, 7.109, 7.252, 7.047, 6.869, 7.175, 7.174, 7.055, 7.35, 7.031, 6.867, 6.707, 7.465, 6.97, 6.829, 7.118, 7.257, 6.677, 6.993, 7.212, 6.707, 7.133, 6.621, 9.716, 6.937, 7.118, 6.957, 6.869, 6.691, 7.202, 6.911, 6.937, 6.675, 7.065, 7.219, 6.936, 7.634, 6.856, 7.15, 6.666, 7.262, 6.776, 7.026, 6.645, 6.944, 7.122, 6.922, 7.542, 7.109, 6.945],
  "Optimizer iterations": 625,
  "Optimizer params": [0.5630244007510474, 0.9458560122027508, 0.07722757733876494, 0.9999276477843657, 0.9223816435799472, 0.475741778934255, 0.9580344399587211, 0.32106645779788084, 0.9495562869754139, 0.6128047541167387, 0.8743416657336811, 0.4808821424431102, 0.4997522951299727, 0.5089665649347876, 0.9817774055526107, 0.9704418413768382, 0.9977289067260651, 0.46398881944488396, 0.2537266292070143, 0.20473321851592166, 0.47335830792279815, 0.5874643987569489, 0.9454992000777614, 0.1789361377330568],
  "P": 0,
  "Problem": "IC",
  "QJob durations [ms]": [0.2982000005431473, 0.3038499999092892, 0.2935499942395836, 0.29520000680349767, 0.4574000049615279, 0.3346500016050413, 0.3612000000430271, 0.2951499918708578, 0.3183499939041212, 0.298700004350394, 0.2957499964395538, 0.29845000244677067, 0.2991499932250008, 0.2978999982587993, 0.2954499941552058, 0.29660000291187316, 0.2977499971166253, 0.29015001200605184, 0.3006999904755503, 0.29260000155773014, 0.30920001154299825, 0.31180000223685056, 0.29284998890943825, 0.2946500026155263, 0.30124999466352165, 0.30810000316705555, 0.294550001854077, 0.29910000739619136, 0.29815000016242266, 0.29659998835995793, 0.2938999969046563, 0.2937500103143975, 0.2972999936901033, 0.29505000566132367, 0.29784999787807465, 0.29394999728538096, 0.30074999085627496, 0.29525000718422234, 0.29070000164210796, 0.29984999855514616, 0.29170000925660133, 0.29275000269990414, 0.30189999961294234, 0.294400000711903, 0.2960999991046265, 0.295000005280599, 0.298250000923872, 0.301499996567145, 0.29769999673590064, 0.2998999989358708, 0.2939000114565715, 0.2927000023191795, 0.2905000001192093, 0.29224999889265746, 0.3006000042660162, 0.29209999775048345, 0.30015000083949417, 0.2960499987239018, 0.30744999821763486, 0.29505000566132367, 0.30574999982491136, 0.309049995848909, 0.29815000016242266, 0.29520000680349767, 0.2994499955093488, 0.301349995424971, 0.29845000244677067, 0.29275000269990414, 0.29409999842755497, 0.3001000004587695, 0.29830000130459666, 0.30590000096708536, 0.29764999635517597, 0.2957499964395538, 0.31275000947061926, 0.29579999682027847, 0.29749999521300197, 0.29055000049993396, 0.30279999191407114, 0.2967000036733225, 0.29769999673590064, 0.2943500003311783, 0.29645000176969916, 0.29379999614320695, 0.2878499944927171, 0.30259999039117247, 0.30080000578891486, 0.29525000718422234, 0.2845499984687194, 0.29770001128781587, 0.29510000604204834, 0.29399999766610563, 0.2897500089602545, 0.29909999284427613, 0.3127000090898946, 0.2975999959744513, 0.2962999860756099, 0.2993499947478995, 0.3184000088367611, 0.29599999834317714, 0.298099999781698, 0.29855000320822, 0.30664999212604016, 0.3086499928031117, 0.2923499996541068, 0.30390000029001385, 0.2936000091722235, 0.30869999318383634, 0.30590000096708536, 0.29534999339375645, 0.28885000210721046, 0.297949998639524, 0.30479999259114265, 0.29645000176969916, 0.30020000122021884, 0.30235000303946435, 0.29245000041555613, 0.38070000300649554, 0.2950999914901331, 0.29000001086387783, 0.294550001854077, 0.30980000155977905, 0.3004000027431175, 0.2974500093841925, 0.2973500086227432, 0.2971500070998445, 0.3264499973738566, 0.29105000430718064, 0.3003499878104776, 0.301799998851493, 0.295000005280599, 0.2901999978348613, 0.29424999956972897, 0.2934500080300495, 0.3025499900104478, 0.29799999902024865, 0.294550001854077, 0.3014499961864203, 0.3092499973718077, 0.29984999855514616, 0.29209999775048345, 0.2937499957624823, 0.3055499983020127, 0.29445000109262764, 0.31400000443682075, 0.41834999865386635, 0.30965000041760504, 0.3028499922947958, 0.29909999284427613, 0.2972000074805692, 0.302400003420189, 0.2978999982587993, 0.298250000923872, 0.295600009849295, 0.3029999934369698, 0.298700004350394, 0.2947499888250604, 0.29070000164210796, 0.32175000524148345, 0.2975000097649172, 0.29855000320822, 0.31385000329464674, 0.2965000021504238, 0.30825000430922955, 0.3328500024508685, 0.308899994706735, 0.29630000062752515, 0.30044998857192695, 0.29954999627079815, 0.287900009425357, 0.2940500125987455, 0.3035500121768564, 0.30110000807326287, 0.29340000764932483, 0.30429998878389597, 0.29775001166854054, 0.299000006634742, 0.2975999959744513, 0.29850000282749534, 0.29475000337697566, 0.2994499955093488, 0.291450007352978, 0.3039500006707385, 0.3009999927598983, 0.2919999969890341, 0.2914000069722533, 0.28759999258909374, 0.3056999994441867, 0.3063500043936074, 0.30220000189729035, 0.2965000021504238, 0.2958999975817278, 0.298850005492568, 0.3152999997837469, 0.2961999998660758, 0.2993500092998147, 0.2928000030806288, 0.2997999981744215, 0.3063000040128827, 0.30339999648276716, 0.2960999991046265, 0.2965500025311485, 0.30509999487549067, 0.3032999957213178, 0.2950999914901331, 0.2921999985119328, 0.2925000007962808, 0.29414999880827963, 0.29909999284427613, 0.2922999992733821, 0.3004500031238422, 0.3077000001212582, 0.3142500063404441, 0.29570001061074436, 0.29784999787807465, 0.30350001179613173, 0.32384999212808907, 0.3026000049430877, 0.30169999809004366, 0.3080000024056062, 0.30205000075511634, 0.2972000074805692, 0.294700002996251, 0.2926500019384548, 0.3180499916197732, 0.2952499926323071, 0.30015000083949417, 0.2993499947478995, 0.301649997709319, 0.2955999952973798, 0.29305000498425215, 0.3105999930994585, 0.2976500109070912, 0.30694999441038817, 0.2921000123023987, 0.29579999682027847, 0.29495000489987433, 0.30980000155977905, 0.298700004350394, 0.29594999796245247, 0.2950999914901331, 0.2958000113721937, 0.3004000027431175, 0.29779999749735, 0.30795000202488154, 0.3005499893333763, 0.29945001006126404, 0.3069500089623034, 0.33564999466761947, 0.29024999821558595, 0.3097500011790544, 0.2918499958468601, 0.3023000026587397, 0.3071000101044774, 0.2918999962275848, 0.29579999682027847, 0.2961999998660758, 0.29830000130459666, 0.2925000007962808, 0.33554999390617013, 0.29284998890943825, 0.2933000068878755, 0.3071999963140115, 0.3023000026587397, 0.29600001289509237, 0.3232500021113083, 0.29215001268312335, 0.3067499928874895, 0.29770001128781587, 0.294850004138425, 0.30359999800566584, 0.2986999897984788, 0.31165000109467655, 0.3164500085404143, 0.29120000544935465, 0.2905000001192093, 0.29329999233596027, 0.301949999993667, 0.29835000168532133, 0.2930000046035275, 0.30729999707546085, 0.3039500006707385, 0.2889000024879351, 0.45540000428445637, 0.30109999352134764, 0.2993500092998147, 0.3058500005863607, 0.31025000498630106, 0.3001000004587695, 0.29414999880827963, 0.2858499938156456, 0.3039500006707385, 0.2969000051962212, 0.294850004138425, 0.29284998890943825, 0.2930499904323369, 0.30350001179613173, 0.2998999989358708, 0.29764999635517597, 0.26449999859323725, 0.29129999165888876, 0.3125500079477206, 0.2970999921672046, 0.29734999407082796, 0.29394999728538096, 0.30559999868273735, 0.294700002996251, 0.30649999098386616, 0.2936999953817576, 0.2947999892057851, 0.29850000282749534, 0.2975000097649172, 0.2926499873865396, 0.29409999842755497, 0.2945000014733523, 0.29799999902024865, 0.2957499964395538, 0.29255000117700547, 0.40079999598674476, 0.29394999728538096, 0.3024500038009137, 0.30160001188050956, 0.30535001133102924, 0.30529999639838934, 0.30434998916462064, 0.29319999157451093, 0.3044500044779852, 0.30544999754056334, 0.29734999407082796, 0.3030499938176945, 0.3004000027431175, 0.302400003420189, 0.29645000176969916, 0.3030499938176945, 0.2955999952973798, 0.30065000464674085, 0.3011499939020723, 0.29340000764932483, 0.3004500031238422, 0.2913999924203381, 0.29594999796245247, 0.28929999098181725, 0.3006000042660162, 0.2970000059576705, 0.3015000111190602, 0.29784999787807465, 0.29520000680349767, 0.31209998996928334, 0.2935999946203083, 0.3048000071430579, 0.3182500076945871, 0.3023000026587397, 0.29779999749735, 0.294400000711903, 0.2905000001192093, 0.29984999855514616, 0.2957499964395538, 0.2947499888250604, 0.3023000026587397, 0.28950000705663115, 0.29865000396966934, 0.3032999957213178, 0.29499999072868377, 0.29164999432396144, 0.3132999991066754, 0.29630000062752515, 0.294700002996251, 0.2978999982587993, 0.2898499951697886, 0.3412000078242272, 0.29769999673590064, 0.298250000923872, 0.2966499887406826, 0.30255000456236303, 0.29569999605882913, 0.29399999766610563, 0.294700002996251, 0.3029000072274357, 0.29844998789485544, 0.30840000545140356, 0.29475000337697566, 0.297949998639524, 0.298099999781698, 0.2938999969046563, 0.30110000807326287, 0.3015999973285943, 0.2938499965239316, 0.2895500074373558, 0.29144999280106276, 0.2924999862443656, 0.31200000375974923, 0.29070000164210796, 0.32175000524148345, 0.2940499980468303, 0.3007500054081902, 0.2969000051962212, 0.29764999635517597, 0.3006999904755503, 0.2968499902635813, 0.3259999939473346, 0.29779999749735, 0.29954999627079815, 0.2927000023191795, 0.29209999775048345, 0.2955999952973798, 0.305049994494766, 0.3174500016029924, 0.292200013063848, 0.294400000711903, 0.29855000320822, 0.29569999605882913, 0.29675000405404717, 0.3015999973285943, 0.2980499994009733, 0.297949998639524, 0.301199994282797, 0.3058500005863607, 0.31284999568015337, 0.4284000024199486, 0.3036499983863905, 0.30189999961294234, 0.2971500070998445, 0.29409999842755497, 0.29954999627079815, 0.29275000269990414, 0.28885000210721046, 0.2892499906010926, 0.2947499888250604, 0.295750010991469, 0.29224999889265746, 0.2953999937744811, 0.30980000155977905, 0.3069500089623034, 0.2903499989770353, 0.29584999720100313, 0.29680000443477184, 0.2967999898828566, 0.28885000210721046, 0.2986999897984788, 0.295450008707121, 0.3014499961864203, 0.2946500026155263, 0.3062499890802428, 0.3004500031238422, 0.2993499947478995, 0.29024999821558595, 0.2960999991046265, 0.295000005280599, 0.301949999993667, 0.30294999305624515, 0.30524999601766467, 0.29895000625401735, 0.30544999754056334, 0.304599991068244, 0.30574999982491136, 0.29695000557694584, 0.2970999921672046, 0.29165000887587667, 0.2941999991890043, 0.2940500125987455, 0.3005499893333763, 0.2997499977936968, 0.29409999842755497, 0.29749999521300197, 0.2980499994009733, 0.29665000329259783, 0.2945000014733523, 0.31319999834522605, 0.30174999847076833, 0.2905000001192093, 0.29105000430718064, 0.29924999398645014, 0.29445000109262764, 0.29924999398645014, 0.2938999969046563, 0.2937500103143975, 0.29349999385885894, 0.2999499993165955, 0.2971499925479293, 0.30115000845398754, 0.305800000205636, 0.298250000923872, 0.3036999987671152, 0.29749999521300197, 0.2989000058732927, 0.29659998835995793, 0.29489998996723443, 0.3026000049430877, 0.29734999407082796, 0.29835000168532133, 0.29630000062752515, 0.2960999991046265, 0.30354999762494117, 0.2999499993165955, 0.2954499941552058, 0.29284998890943825, 0.2923499996541068, 0.28870000096503645, 0.30899999546818435, 0.29290000384207815, 0.30169999809004366, 0.3032999957213178, 0.2968499902635813, 0.3030500083696097, 0.29680000443477184, 0.30205000075511634, 0.2999499993165955, 0.2903499989770353, 0.30405000143218786, 0.30015000083949417, 0.29319999157451093, 0.2925000007962808, 0.29969999741297215, 0.30100000731181353, 0.2954499941552058, 0.30050000350456685, 0.29495000489987433, 0.2974499948322773, 0.2993500092998147, 0.29865000396966934, 0.29984999855514616, 0.30869999318383634, 0.29695000557694584, 0.29055000049993396, 0.29764999635517597, 0.29255000117700547, 0.2982000005431473, 0.2929500042228028, 0.30235000303946435, 0.29010001162532717, 0.29290000384207815, 0.3037999995285645, 0.309199996991083, 0.29704999178647995, 0.33409999741706997, 0.3007000050274655, 0.2955999952973798, 0.28664999990724027, 0.29385001107584685, 0.3163999936077744, 0.3012500092154369, 0.3117000014754012, 0.294400000711903, 0.3060000017285347, 0.2922500134445727, 0.29865000396966934, 0.29334999271668494, 0.297949998639524, 0.29255000117700547, 0.2963500010082498, 0.29880000511184335, 0.2941999991890043, 0.28789999487344176, 0.30005000007804483, 0.2963500010082498, 0.29779999749735, 0.29564999567810446, 0.4312499950174242, 0.4066499968757853, 0.2962500002468005, 0.30079999123699963, 0.2970500063383952, 0.2940499980468303, 0.30044998857192695, 0.29495000489987433, 0.3029500076081604, 0.29105000430718064, 0.2995999966515228, 0.3109499957645312, 0.3123500064248219, 0.30339999648276716, 0.3030499938176945, 0.2986499894177541, 0.3014000103576109, 0.2960999991046265, 0.30189999961294234, 0.3110000106971711, 0.2973000082420185, 0.29835000168532133, 0.30390000029001385, 0.2954499941552058, 0.3048499929718673, 0.30759999935980886, 0.30440000409726053, 0.2999499993165955, 0.3031499945791438, 0.29164999432396144, 0.30139999580569565, 0.3033499961020425, 0.3034999972442165, 0.29630000062752515, 0.2975000097649172, 0.2913499920396134, 0.3030500083696097, 0.29999999969732016, 0.29534999339375645, 0.29399999766610563, 0.29584999720100313, 0.4431500128703192, 0.29734999407082796, 0.29445000109262764, 0.29320000612642616, 0.29815000016242266, 0.29245000041555613, 0.29999999969732016, 0.2982000005431473, 0.29320000612642616, 0.295450008707121, 0.3040000010514632, 0.29940000968053937, 0.3092499973718077, 0.3181999927619472, 0.2977499971166253, 0.31174998730421066, 0.29164999432396144, 0.3028499922947958, 0.2938499965239316, 0.2966499887406826, 0.29660000291187316, 0.29090000316500664, 0.3023000026587397, 0.302250002278015, 0.3199500060873106, 0.29859998903702945, 0.298400002066046],
  "QPU": "7000000",
  "Qubits": 6,
  "Queue durations [ms]": [0.0, 0.0, 0.0, 0.0, 0.0, 0.0, 0.0, 0.0, 0.0, 0.0, 0.0, 0.0, 0.0, 0.0, 0.0, 0.0, 0.0, 0.0, 0.0, 0.0, 0.0, 0.0, 0.0, 0.0, 0.0, 0.0, 0.0, 0.0, 0.0, 0.0, 0.0, 0.0, 0.0, 0.0, 0.0, 0.0, 0.0, 0.0, 0.0, 0.0, 0.0, 0.0, 0.0, 0.0, 0.0, 0.0, 0.0, 0.0, 0.0, 0.0, 0.0, 0.0, 0.0, 0.0, 0.0, 0.0, 0.0, 0.0, 0.0, 0.0, 0.0, 0.0, 0.0, 0.0, 0.0, 0.0, 0.0, 0.0, 0.0, 0.0, 0.0, 0.0, 0.0, 0.0, 0.0, 0.0, 0.0, 0.0, 0.0, 0.0, 0.0, 0.0, 0.0, 0.0, 0.0, 0.0, 0.0, 0.0, 0.0, 0.0, 0.0, 0.0, 0.0, 0.0, 0.0, 0.0, 0.0, 0.0, 0.0, 0.0, 0.0, 0.0, 0.0, 0.0, 0.0, 0.0, 0.0, 0.0, 0.0, 0.0, 0.0, 0.0, 0.0, 0.0, 0.0, 0.0, 0.0, 0.0, 0.0, 0.0, 0.0, 0.0, 0.0, 0.0, 0.0, 0.0, 0.0, 0.0, 0.0, 0.0, 0.0, 0.0, 0.0, 0.0, 0.0, 0.0, 0.0, 0.0, 0.0, 0.0, 0.0, 0.0, 0.0, 0.0, 0.0, 0.0, 0.0, 0.0, 0.0, 0.0, 0.0, 0.0, 0.0, 0.0, 0.0, 0.0, 0.0, 0.0, 0.0, 0.0, 0.0, 0.0, 0.0, 0.0, 0.0, 0.0, 0.0, 0.0, 0.0, 0.0, 0.0, 0.0, 0.0, 0.0, 0.0, 0.0, 0.0, 0.0, 0.0, 0.0, 0.0, 0.0, 0.0, 0.0, 0.0, 0.0, 0.0, 0.0, 0.0, 0.0, 0.0, 0.0, 0.0, 0.0, 0.0, 0.0, 0.0, 0.0, 0.0, 0.0, 0.0, 0.0, 0.0, 0.0, 0.0, 0.0, 0.0, 0.0, 0.0, 0.0, 0.0, 0.0, 0.0, 0.0, 0.0, 0.0, 0.0, 0.0, 0.0, 0.0, 0.0, 0.0, 0.0, 0.0, 0.0, 0.0, 0.0, 0.0, 0.0, 0.0, 0.0, 0.0, 0.0, 0.0, 0.0, 0.0, 0.0, 0.0, 0.0, 0.0, 0.0, 0.0, 0.0, 0.0, 0.0, 0.0, 0.0, 0.0, 0.0, 0.0, 0.0, 0.0, 0.0, 0.0, 0.0, 0.0, 0.0, 0.0, 0.0, 0.0, 0.0, 0.0, 0.0, 0.0, 0.0, 0.0, 0.0, 0.0, 0.0, 0.0, 0.0, 0.0, 0.0, 0.0, 0.0, 0.0, 0.0, 0.0, 0.0, 0.0, 0.0, 0.0, 0.0, 0.0, 0.0, 0.0, 0.0, 0.0, 0.0, 0.0, 0.0, 0.0, 0.0, 0.0, 0.0, 0.0, 0.0, 0.0, 0.0, 0.0, 0.0, 0.0, 0.0, 0.0, 0.0, 0.0, 0.0, 0.0, 0.0, 0.0, 0.0, 0.0, 0.0, 0.0, 0.0, 0.0, 0.0, 0.0, 0.0, 0.0, 0.0, 0.0, 0.0, 0.0, 0.0, 0.0, 0.0, 0.0, 0.0, 0.0, 0.0, 0.0, 0.0, 0.0, 0.0, 0.0, 0.0, 0.0, 0.0, 0.0, 0.0, 0.0, 0.0, 0.0, 0.0, 0.0, 0.0, 0.0, 0.0, 0.0, 0.0, 0.0, 0.0, 0.0, 0.0, 0.0, 0.0, 0.0, 0.0, 0.0, 0.0, 0.0, 0.0, 0.0, 0.0, 0.0, 0.0, 0.0, 0.0, 0.0, 0.0, 0.0, 0.0, 0.0, 0.0, 0.0, 0.0, 0.0, 0.0, 0.0, 0.0, 0.0, 0.0, 0.0, 0.0, 0.0, 0.0, 0.0, 0.0, 0.0, 0.0, 0.0, 0.0, 0.0, 0.0, 0.0, 0.0, 0.0, 0.0, 0.0, 0.0, 0.0, 0.0, 0.0, 0.0, 0.0, 0.0, 0.0, 0.0, 0.0, 0.0, 0.0, 0.0, 0.0, 0.0, 0.0, 0.0, 0.0, 0.0, 0.0, 0.0, 0.0, 0.0, 0.0, 0.0, 0.0, 0.0, 0.0, 0.0, 0.0, 0.0, 0.0, 0.0, 0.0, 0.0, 0.0, 0.0, 0.0, 0.0, 0.0, 0.0, 0.0, 0.0, 0.0, 0.0, 0.0, 0.0, 0.0, 0.0, 0.0, 0.0, 0.0, 0.0, 0.0, 0.0, 0.0, 0.0, 0.0, 0.0, 0.0, 0.0, 0.0, 0.0, 0.0, 0.0, 0.0, 0.0, 0.0, 0.0, 0.0, 0.0, 0.0, 0.0, 0.0, 0.0, 0.0, 0.0, 0.0, 0.0, 0.0, 0.0, 0.0, 0.0, 0.0, 0.0, 0.0, 0.0, 0.0, 0.0, 0.0, 0.0, 0.0, 0.0, 0.0, 0.0, 0.0, 0.0, 0.0, 0.0, 0.0, 0.0, 0.0, 0.0, 0.0, 0.0, 0.0, 0.0, 0.0, 0.0, 0.0, 0.0, 0.0, 0.0, 0.0, 0.0, 0.0, 0.0, 0.0, 0.0, 0.0, 0.0, 0.0, 0.0, 0.0, 0.0, 0.0, 0.0, 0.0, 0.0, 0.0, 0.0, 0.0, 0.0, 0.0, 0.0, 0.0, 0.0, 0.0, 0.0, 0.0, 0.0, 0.0, 0.0, 0.0, 0.0, 0.0, 0.0, 0.0, 0.0, 0.0, 0.0, 0.0, 0.0, 0.0, 0.0, 0.0, 0.0, 0.0, 0.0, 0.0, 0.0, 0.0, 0.0, 0.0, 0.0, 0.0, 0.0, 0.0, 0.0, 0.0, 0.0, 0.0, 0.0, 0.0, 0.0, 0.0, 0.0, 0.0, 0.0, 0.0, 0.0, 0.0, 0.0, 0.0, 0.0, 0.0, 0.0, 0.0, 0.0, 0.0, 0.0, 0.0, 0.0, 0.0, 0.0, 0.0, 0.0, 0.0, 0.0, 0.0, 0.0, 0.0, 0.0, 0.0, 0.0, 0.0, 0.0, 0.0, 0.0, 0.0, 0.0, 0.0, 0.0, 0.0, 0.0, 0.0, 0.0, 0.0, 0.0, 0.0, 0.0, 0.0, 0.0, 0.0, 0.0],
  "Shots": 4096,
  "Size": 6,
  "Total Algorithm duration [s]": 4.559,
  "Total Classic duration [s]": 4.370801600058971,
  "Total Quantum duration [s]": 0.1881983999410295
}
