{
  "Circuit execution durations [ms]": [7807.79242515564, 7697.319984436035, 8279.956817626953, 8218.576908111572, 7811.052560806274, 7848.860263824463, 7933.673620223999, 8993.49308013916, 9054.825782775879, 9040.184259414673, 7751.439094543457, 7980.846643447876, 7409.460783004761, 7373.788356781006, 8491.58763885498, 8345.812797546387, 7918.588399887085, 8218.684434890747, 7834.744930267334, 7738.944053649902, 7722.34320640564, 7987.626075744629, 7683.676719665527, 7348.918437957764, 7610.479116439819, 7432.217121124268, 8152.061223983765, 7731.970310211182, 7580.427169799805, 7971.620798110962, 7503.049612045288, 7910.935878753662, 7369.176387786865, 8398.773193359375, 7593.80030632019, 7752.968549728394, 8367.831468582153, 7437.981367111206, 7965.574741363525, 7711.740732192993, 7545.219659805298, 7664.111137390137, 9168.297290802002, 8913.582563400269, 7947.133302688599, 7687.549829483032, 9361.64927482605, 8133.674383163452, 7732.620477676392, 8601.025104522705, 8014.15228843689, 7824.853181838989, 7512.982606887817, 7910.843372344971, 8518.401384353638, 7968.659400939941, 7660.486459732056, 7720.926284790039, 8256.303548812866, 7763.498544692993, 7866.135120391846, 7527.009963989258, 8330.312013626099, 7238.362073898315, 8350.355386734009, 7305.127859115601, 7901.050090789795, 7752.239227294922, 7760.780096054077, 8184.483051300049, 7674.676418304443, 7907.400608062744, 8593.736171722412, 7590.660333633423, 7327.415466308594, 7277.481555938721, 7573.009967803955, 7777.885675430298, 7859.210968017578, 8163.816690444946, 7732.163906097412, 8825.818061828613, 7973.557233810425, 7605.820417404175, 8458.632707595825, 8097.2044467926025, 7981.391191482544, 8689.33653831482, 7846.26579284668, 7662.513017654419, 7705.2788734436035, 8198.29511642456, 7563.345432281494, 7713.792562484741, 8466.993570327759, 7319.962501525879, 7132.775068283081, 7873.124122619629, 7637.1355056762695, 7934.165954589844, 7885.634183883667, 8418.715000152588, 7376.355409622192, 7484.266757965088, 7844.14529800415, 7668.031215667725, 8109.029293060303, 7684.8304271698, 7607.568264007568, 8229.111671447754, 7335.283517837524, 7101.987361907959, 7933.074951171875, 7392.939329147339, 7831.744432449341, 8196.332216262817, 7623.3649253845215, 8038.034677505493, 7527.064800262451, 8897.95994758606, 7985.226631164551, 7753.118991851807, 8430.225849151611, 7763.716459274292, 7788.286447525024, 7427.910327911377, 8338.31810951233, 7726.870536804199, 9046.308994293213, 7914.550304412842, 8666.639566421509, 7634.4757080078125, 7277.884960174561, 8568.064451217651, 7459.255695343018, 7768.100738525391, 7782.652854919434, 7629.634857177734, 7903.726577758789, 7761.46674156189, 7823.610067367554, 7767.982721328735, 7983.808755874634, 7663.352251052856, 7854.884624481201, 8043.3924198150635, 8023.6639976501465, 8449.693441390991, 8956.642150878906, 8622.790575027466, 9156.40664100647, 7314.260721206665, 7898.129224777222, 7559.002161026001, 7821.109056472778, 8960.294246673584, 7472.144365310669, 8291.069507598877, 8039.328575134277, 7905.258417129517, 8658.02025794983, 7865.825414657593, 8152.195930480957, 7914.894104003906, 7845.31307220459, 7838.846683502197, 8047.643423080444, 7732.020616531372, 7611.028671264648, 7654.635667800903, 7501.494884490967, 9308.85648727417, 8003.5083293914795, 7402.360916137695, 9340.773344039917, 8131.749153137207, 8098.522901535034, 7606.201648712158, 7707.329273223877, 8084.049940109253, 7493.7543869018555, 8226.13787651062, 7684.382200241089, 8862.754344940186, 8001.458406448364, 8217.20814704895, 7666.122674942017, 7598.748683929443, 7872.878313064575, 7659.13987159729, 8025.667190551758, 7584.243535995483, 7848.132610321045, 7985.743761062622, 7984.3785762786865, 7773.379802703857, 7707.756280899048, 7509.096622467041, 8291.593313217163, 7800.097465515137, 8365.074634552002, 7898.999214172363, 7950.9429931640625, 7467.413663864136, 7974.370002746582, 7689.788818359375, 8027.176380157471, 7681.929588317871, 7748.781681060791, 8380.619525909424, 7939.525127410889, 7596.521377563477, 7818.169116973877, 7095.982074737549, 7699.640274047852, 8287.410020828247, 7572.846174240112, 7861.360788345337, 7608.267784118652, 7764.784336090088, 7729.9864292144775, 8050.702333450317, 7832.976818084717, 7840.4834270477295, 7613.829135894775, 9083.847284317017, 7463.759422302246, 7718.440055847168, 7905.860424041748, 8586.617469787598, 7609.478712081909, 7821.357727050781, 7738.081216812134, 7753.73911857605, 7791.824579238892, 7488.447666168213, 8102.4158000946045, 7763.092279434204, 7674.438953399658, 7654.441595077515, 7705.401182174683, 7519.033670425415, 7899.098873138428, 8281.810283660889, 7666.39256477356, 8094.252109527588, 7568.427324295044, 7653.224468231201, 7828.603744506836, 7547.511577606201, 7998.518228530884, 7591.689825057983, 7536.943197250366, 7860.069274902344, 7854.591369628906, 8267.534255981445, 7841.217041015625, 7658.691883087158, 7884.0484619140625, 7905.816078186035, 8595.37649154663, 7909.871816635132, 7545.374155044556, 7536.074638366699, 7528.545141220093, 8089.028596878052, 8520.20812034607, 7467.937469482422, 7483.526945114136, 7902.143955230713, 7632.813930511475, 7927.024841308594, 7714.910984039307, 7688.164472579956, 7833.9550495147705, 7869.067192077637, 7632.447004318237, 8264.286518096924, 7828.945636749268, 7647.411108016968, 7723.500728607178, 7761.361837387085, 7714.462995529175, 7309.360504150391, 7578.0394077301025, 7979.6953201293945, 8093.438148498535, 7812.16025352478, 8157.385349273682, 9373.305559158325, 8035.659551620483, 8084.420442581177, 8457.16905593872, 7480.095624923706, 7793.224573135376, 7701.2341022491455, 7778.042793273926, 7427.494525909424, 7909.738302230835, 8347.732543945313, 7340.190172195435, 7807.8014850616455, 7895.455837249756, 7742.567539215088, 8101.279735565186, 7484.2681884765625, 7734.971523284912, 8430.559873580933, 7725.424766540527, 8204.521179199219, 8906.005859375, 7416.787147521973, 7476.563930511475, 7641.547441482544, 7759.620904922485, 7901.003360748291, 7927.289724349976, 8078.800916671753, 7775.342702865601, 7728.716135025024, 7585.556268692017, 7710.389137268066, 8130.090236663818, 8182.024717330933, 7648.2062339782715, 7692.894220352173, 7971.463918685913, 8419.37232017517, 7817.219257354736, 7914.5612716674805, 7642.473459243774, 8265.050649642944, 8947.294473648071, 8612.598419189453, 7427.266359329224, 7666.340112686157, 8455.368995666504, 8713.279485702515, 7873.978614807129, 8026.808738708496, 7397.480249404907, 7291.734457015991, 7659.827709197998, 7800.891876220703, 7638.558864593506, 7390.753507614136, 7819.566965103149, 7582.050085067749, 7518.871068954468, 7421.698331832886, 7371.792793273926, 7422.347545623779, 7313.328266143799, 7400.517702102661, 7608.879089355469, 7841.449975967407, 7781.237363815308, 7874.166488647461, 7960.252523422241, 8365.036010742188, 7492.878198623657, 8936.444282531738, 7598.513126373291, 7858.353853225708, 7380.963325500488, 7157.468557357788, 9034.572124481201, 8856.879472732544, 7199.202299118042, 8229.241847991943, 7811.699151992798, 7761.884450912476, 7989.499092102051, 7946.780204772949, 7606.945037841797, 8023.456811904907, 7440.1891231536865, 7462.56947517395, 7820.798397064209, 8447.806596755981, 7809.188365936279, 7504.579305648804, 7548.577308654785, 7800.935506820679, 7696.319341659546, 7372.445821762085, 7830.615520477295, 7671.134948730469, 7583.928108215332, 7174.646615982056, 7205.869436264038, 7587.637901306152, 7881.484031677246, 7720.539331436157, 7867.332458496094, 7897.952556610107, 7347.043514251709, 7355.662107467651, 8658.336162567139, 8287.421703338623, 7907.675266265869, 7621.954679489136, 7646.614551544189, 7448.213577270508, 7758.174896240234, 8698.931455612183, 8197.616338729858, 7814.913272857666, 7580.229997634888, 8000.836610794067, 7509.005546569824, 7963.359832763672, 8958.558559417725, 9196.967124938965, 8001.795053482056, 7944.060564041138, 7932.875156402588, 7800.919771194458, 8188.070774078369, 7825.628995895386, 8116.320848464966, 7312.8039836883545, 8037.349224090576, 7716.578483581543, 7926.483631134033, 8030.472993850708, 7709.594011306763, 8667.826652526855, 7432.763576507568, 7565.386772155762, 7710.682153701782, 7576.721429824829, 7583.096265792847, 8039.695978164673, 7497.092962265015, 7539.9329662323, 8546.2007522583, 7539.944887161255, 8179.429769515991, 7912.433624267578, 7745.370864868164, 7877.064943313599, 8054.125785827637, 7453.466892242432, 7291.072845458984, 7961.747407913208, 7709.796667098999, 7603.405237197876, 7859.327077865601, 7704.148292541504, 7756.862163543701, 7709.777116775513, 7699.384450912476, 7732.801675796509, 7736.991167068481, 7971.54974937439, 7855.423927307129, 8060.797691345215, 8018.911123275757, 7733.905553817749, 9250.594139099121, 8060.932874679565, 8133.15749168396, 7697.20196723938, 8174.267292022705, 7696.640253067017, 9377.167224884033, 7862.509250640869, 8095.799446105957, 7682.077646255493, 7910.935163497925, 7590.927600860596],
  "Depth": 59.0,
  "Expectation Value": -1.0,
  "Optimal Expectation Value": -1.0,
  "Optimizer durations [ms]": [10850.707, 10598.05, 10345.665, 10796.334, 11517.318, 11157.644, 10876.656, 10345.62, 11215.663, 10458.023, 11217.525, 11953.864, 12165.592, 10976.259, 11132.963, 11136.794, 10782.404, 11343.225, 11062.731, 11034.652, 10218.89, 10823.993, 10478.919, 10801.145, 10717.419, 10645.986, 11913.366, 10389.492, 10331.442, 10468.895, 10602.308, 10326.467, 10862.272, 10334.788, 10372.847, 11554.141, 10444.425, 11137.097, 10983.027, 10645.323, 10878.292, 10967.84, 10446.57, 10719.793, 10709.076, 10920.418, 10643.714, 10700.014, 10575.583, 10789.826, 10694.183, 10546.199, 10663.027, 10670.863, 11315.453, 10839.578, 10956.963, 10957.551, 10525.52, 12094.162, 11194.67, 10866.535, 10483.128, 10935.436, 10544.398, 12919.468, 10909.013, 10864.264, 10657.612, 11165.436, 10545.398],
  "Optimizer iterations": 71,
  "Optimizer params": [0.7668420925611537, 0.8264705170884811, 0.6081907742297125, 0.558543745587458, 0.693679889407629, 0.5275404990554342],
  "P": 3,
  "Problem": "DSP",
  "QJob durations [ms]": [10811.792850494385, 10555.811882019043, 10308.536529541016, 10750.586986541748, 11462.802648544312, 11115.479946136475, 10834.184408187866, 10293.108224868774, 11166.990280151367, 10415.598392486572, 11169.338703155518, 11885.909795761108, 12123.935222625732, 10939.20087814331, 11086.405515670776, 11073.241233825684, 10745.468854904175, 11305.153608322144, 11024.347066879272, 10996.024131774902, 10172.18279838562, 10786.516427993774, 10440.021753311157, 10749.678373336792, 10674.54981803894, 10585.06989479065, 11872.654438018799, 10230.50570487976, 10290.390253067017, 10418.433904647827, 10532.954692840576, 10235.100269317627, 10822.120904922485, 10296.255588531494, 10330.007314682007, 11514.157056808472, 10405.57074546814, 11070.458889007568, 10934.885501861572, 10574.955940246582, 10833.964824676514, 10927.676916122437, 10405.911684036255, 10661.928176879883, 10671.705961227417, 10883.3589553833, 10582.394361495972, 10662.709951400757, 10528.836727142334, 10748.354434967041, 10646.048545837402, 10501.321077346802, 10625.966787338257, 10612.521171569824, 11273.108959197998, 10791.380882263184, 10844.459533691406, 10902.757167816162, 10465.461730957031, 12049.338340759277, 11156.961441040039, 10814.925909042358, 10442.384719848633, 10891.183376312256, 10504.005908966064, 12882.19165802002, 10857.247114181519, 10799.41987991333, 10607.433795928955, 11115.699291229248, 10465.319395065308],
  "QPU": "6010030",
  "Qubits": 4,
  "Shots": 4096,
  "Size": 2,
  "Total Algorithm duration [s]": 772.72,
  "Total Classic duration [s]": 3.563633890152005,
  "Total Quantum duration [s]": 769.156366109848
}
