{
  "Circuit execution durations [ms]": [0.10024999937741086, 0.0941500002227258, 0.29170001289458014, 0.07524999818997458, 0.08170000000973232, 0.29644999813172035, 0.09665000106906518, 0.09124999996856786, 0.09145000149146654, 0.08354999954462983, 0.08555000022170134, 0.08525000157533213, 0.2179000002797693, 0.0765999975556042, 0.08209999941755086, 0.081900001532631, 0.08175000039045699, 0.23105000218492933, 0.3198500053258613, 0.07354999979725108, 0.08354999954462983, 0.28640000527957454, 0.0840499997138977, 0.23834999956307001, 0.07550000009359792, 0.08009999874047935, 0.08259999958681874, 0.28864998967037536, 0.08125000022118911, 0.17914999625645578, 0.07855000148992985, 0.08439999874099158, 0.07870000263210386, 0.08239999806392007, 0.29194999660830945, 0.08454999988316558],
  "Depth": 2.0,
  "Expectation Value": -1.7465555667877197,
  "Optimal Expectation Value": -1.746999979019165,
  "Optimizer durations [ms]": [10.699, 19.65, 13.55, 21.897, 11.641, 13.771, 17.658, 18.414, 21.636, 5.034, 19.043, 17.107, 9.96, 16.8, 3.047, 2.571, 4.93, 10.096, 18.525, 16.899, 20.76, 6.755, 17.767, 15.082, 21.532, 17.422, 18.611, 8.169, 20.171, 19.418, 15.874, 21.208, 16.806, 19.102, 6.526, 7.17],
  "Optimizer iterations": 36,
  "Optimizer params": [0.9932903803315162, 0.5010843480877043, 0.994022765622649],
  "P": 0,
  "Problem": "RH",
  "QJob durations [ms]": [0.10024999937741086, 0.0941500002227258, 0.29170001289458014, 0.07524999818997458, 0.08170000000973232, 0.29644999813172035, 0.09665000106906518, 0.09124999996856786, 0.09145000149146654, 0.08354999954462983, 0.08555000022170134, 0.08525000157533213, 0.2179000002797693, 0.0765999975556042, 0.08209999941755086, 0.081900001532631, 0.08175000039045699, 0.23105000218492933, 0.3198500053258613, 0.07354999979725108, 0.08354999954462983, 0.28640000527957454, 0.0840499997138977, 0.23834999956307001, 0.07550000009359792, 0.08009999874047935, 0.08259999958681874, 0.28864998967037536, 0.08125000022118911, 0.17914999625645578, 0.07855000148992985, 0.08439999874099158, 0.07870000263210386, 0.08239999806392007, 0.29194999660830945, 0.08454999988316558],
  "QPU": "7000000",
  "Qubits": 3,
  "Queue durations [ms]": [0.0, 0.0, 0.0, 0.0, 0.0, 0.0, 0.0, 0.0, 0.0, 0.0, 0.0, 0.0, 0.0, 0.0, 0.0, 0.0, 0.0, 0.0, 0.0, 0.0, 0.0, 0.0, 0.0, 0.0, 0.0, 0.0, 0.0, 0.0, 0.0, 0.0, 0.0, 0.0, 0.0, 0.0, 0.0, 0.0],
  "Shots": 4096,
  "Size": 3,
  "Total Algorithm duration [s]": 0.525,
  "Total Classic duration [s]": 0.5201819499947306,
  "Total Quantum duration [s]": 0.00481805000526947
}
