{
  "Circuit execution durations [ms]": [0.08164999962900765, 0.17769999976735562, 0.08619999789516442, 0.08415000047534704, 0.2913499847636558, 0.10299999848939478, 0.09819999831961468, 0.10135000047739595, 0.1812999980757013, 0.08069999967119657, 0.29284999254741706, 0.29290001111803576, 0.09104999844566919, 0.08209999941755086, 0.08225000055972487, 0.08149999848683365, 0.08140000136336312, 0.07935000030556694, 0.08159999924828298, 0.10489999840501696, 0.29815000016242266, 0.0959999997576233, 0.08460000026389025, 0.08199999865610152, 0.08125000022118911, 0.08200000229408033, 0.08035000064410269, 0.08884999988367781, 0.08114999945973977, 0.08035000064410269, 0.08170000000973232, 0.0806499992904719, 0.07980000009411015, 0.08024999988265336, 0.08119999984046444, 0.07990000085555948],
  "Depth": 2.0,
  "Expectation Value": -1.7468361854553223,
  "Optimal Expectation Value": -1.746999979019165,
  "Optimizer durations [ms]": [22.022, 10.478, 21.066, 18.542, 6.631, 16.563, 17.517, 15.193, 16.573, 14.566, 6.736, 18.571, 3.05, 2.64, 2.621, 2.577, 2.575, 2.549, 2.645, 3.076, 6.517, 22.089, 2.751, 2.634, 2.617, 2.549, 2.557, 2.702, 2.574, 2.535, 2.608, 2.546, 2.515, 2.542, 2.605, 2.518],
  "Optimizer iterations": 36,
  "Optimizer params": [0.9984543254761631, 0.5004196697126261, 0.9936861742327042],
  "P": 0,
  "Problem": "RH",
  "QJob durations [ms]": [0.08164999962900765, 0.17769999976735562, 0.08619999789516442, 0.08415000047534704, 0.2913499847636558, 0.10299999848939478, 0.09819999831961468, 0.10135000047739595, 0.1812999980757013, 0.08069999967119657, 0.29284999254741706, 0.29290001111803576, 0.09104999844566919, 0.08209999941755086, 0.08225000055972487, 0.08149999848683365, 0.08140000136336312, 0.07935000030556694, 0.08159999924828298, 0.10489999840501696, 0.29815000016242266, 0.0959999997576233, 0.08460000026389025, 0.08199999865610152, 0.08125000022118911, 0.08200000229408033, 0.08035000064410269, 0.08884999988367781, 0.08114999945973977, 0.08035000064410269, 0.08170000000973232, 0.0806499992904719, 0.07980000009411015, 0.08024999988265336, 0.08119999984046444, 0.07990000085555948],
  "QPU": "7000000",
  "Qubits": 3,
  "Queue durations [ms]": [0.0, 0.0, 0.0, 0.0, 0.0, 0.0, 0.0, 0.0, 0.0, 0.0, 0.0, 0.0, 0.0, 0.0, 0.0, 0.0, 0.0, 0.0, 0.0, 0.0, 0.0, 0.0, 0.0, 0.0, 0.0, 0.0, 0.0, 0.0, 0.0, 0.0, 0.0, 0.0, 0.0, 0.0, 0.0, 0.0],
  "Shots": 4096,
  "Size": 3,
  "Total Algorithm duration [s]": 0.271,
  "Total Classic duration [s]": 0.2669063000205788,
  "Total Quantum duration [s]": 0.004093699979421217
}
