{
  "Circuit execution durations [ms]": [0.09190000128000975, 0.08245000208262354, 0.08105000233626924, 0.08290000187116675, 0.08149999848683365, 0.08099999831756577, 0.08054999852902256, 0.07970000297063962, 0.0794000006862916, 0.07950000144774094, 0.07944999742903747, 0.07950000144774094, 0.07950000144774094, 0.07929999992484227, 0.0792499995441176, 0.09440000212634914, 0.08200000229408033, 0.08434999836026691, 0.0823499976831954, 0.08384999819099903, 0.08454999988316558, 0.08815000182949007, 0.08689999958733097, 0.08049999814829789, 0.07890000051702373, 0.07945000106701627, 0.09285000123782083, 0.08069999967119657, 0.07965000258991495, 0.0792499995441176, 0.07905000165919773, 0.07919999916339293, 0.08055000216700137, 0.08075000005192123, 0.07929999992484227, 0.07859999823267572, 0.07915000242064707, 0.07969999933266081, 0.07935000030556694, 0.08185000115190633, 0.0809499979368411, 0.08114999945973977, 0.07969999933266081, 0.07914999878266826, 0.08134999734465964, 0.07990000085555948, 0.07960000220919028, 0.0794000006862916, 0.07969999933266081, 0.0792499995441176, 0.11675000132527202, 0.08104999869829044, 0.0805000017862767, 0.0789500008977484, 0.0792499995441176, 0.08499999967170879, 0.07985000047483481, 0.0794000006862916, 0.07870000263210386, 0.07955000182846561, 0.07904999802121893, 0.07935000030556694, 0.08005000199773349, 0.08004999835975468],
  "Depth": 2.0,
  "Expectation Value": -1.746999979019165,
  "Optimal Expectation Value": -1.746999979019165,
  "Optimizer durations [ms]": [2.975, 2.603, 2.583, 2.84, 2.662, 2.544, 2.584, 2.654, 2.566, 2.694, 2.571, 2.611, 2.581, 2.577, 2.56, 3.04, 2.638, 2.835, 2.63, 2.686, 2.733, 2.945, 2.86, 2.608, 2.569, 2.568, 2.886, 2.578, 2.616, 2.537, 2.626, 2.594, 2.737, 2.712, 2.589, 2.635, 2.494, 2.561, 2.895, 2.628, 2.795, 2.602, 2.563, 2.592, 2.7, 2.633, 2.593, 2.604, 2.582, 2.606, 3.262, 2.614, 2.596, 2.521, 2.581, 2.697, 2.608, 2.574, 2.63, 2.607, 2.578, 2.589, 2.703, 2.557],
  "Optimizer iterations": 64,
  "Optimizer params": [1.0, 0.49940749418097863, 0.0010775653716019518],
  "P": 0,
  "Problem": "RH",
  "QJob durations [ms]": [0.09190000128000975, 0.08245000208262354, 0.08105000233626924, 0.08290000187116675, 0.08149999848683365, 0.08099999831756577, 0.08054999852902256, 0.07970000297063962, 0.0794000006862916, 0.07950000144774094, 0.07944999742903747, 0.07950000144774094, 0.07950000144774094, 0.07929999992484227, 0.0792499995441176, 0.09440000212634914, 0.08200000229408033, 0.08434999836026691, 0.0823499976831954, 0.08384999819099903, 0.08454999988316558, 0.08815000182949007, 0.08689999958733097, 0.08049999814829789, 0.07890000051702373, 0.07945000106701627, 0.09285000123782083, 0.08069999967119657, 0.07965000258991495, 0.0792499995441176, 0.07905000165919773, 0.07919999916339293, 0.08055000216700137, 0.08075000005192123, 0.07929999992484227, 0.07859999823267572, 0.07915000242064707, 0.07969999933266081, 0.07935000030556694, 0.08185000115190633, 0.0809499979368411, 0.08114999945973977, 0.07969999933266081, 0.07914999878266826, 0.08134999734465964, 0.07990000085555948, 0.07960000220919028, 0.0794000006862916, 0.07969999933266081, 0.0792499995441176, 0.11675000132527202, 0.08104999869829044, 0.0805000017862767, 0.0789500008977484, 0.0792499995441176, 0.08499999967170879, 0.07985000047483481, 0.0794000006862916, 0.07870000263210386, 0.07955000182846561, 0.07904999802121893, 0.07935000030556694, 0.08005000199773349, 0.08004999835975468],
  "QPU": "7000000",
  "Qubits": 3,
  "Queue durations [ms]": [0.0, 0.0, 0.0, 0.0, 0.0, 0.0, 0.0, 0.0, 0.0, 0.0, 0.0, 0.0, 0.0, 0.0, 0.0, 0.0, 0.0, 0.0, 0.0, 0.0, 0.0, 0.0, 0.0, 0.0, 0.0, 0.0, 0.0, 0.0, 0.0, 0.0, 0.0, 0.0, 0.0, 0.0, 0.0, 0.0, 0.0, 0.0, 0.0, 0.0, 0.0, 0.0, 0.0, 0.0, 0.0, 0.0, 0.0, 0.0, 0.0, 0.0, 0.0, 0.0, 0.0, 0.0, 0.0, 0.0, 0.0, 0.0, 0.0, 0.0, 0.0, 0.0, 0.0, 0.0],
  "Shots": 4096,
  "Size": 3,
  "Total Algorithm duration [s]": 0.17,
  "Total Classic duration [s]": 0.16477004998334452,
  "Total Quantum duration [s]": 0.0052299500166554935
}
