{
  "Circuit execution durations [ms]": [0.08180000077118166, 0.08540000271750614, 0.08170000000973232, 0.08180000077118166, 0.081900001532631, 0.08605000039096922, 0.0806499992904719, 0.08045000140555203, 0.08150000212481245, 0.2442500008328352, 0.1286000042455271, 0.16245000006165355, 0.08960000195656903, 0.08785000318312086, 0.08379999781027436, 0.08095000157481991, 0.0810999990790151, 0.11615000403253362, 0.08475000140606426, 0.08090000119409524, 0.08434999836026691, 0.08424999759881757, 0.08370000068680383, 0.08095000157481991, 0.08159999924828298, 0.08154999886755832, 0.08209999941755086, 0.08194999827537686, 0.08159999924828298, 0.0820499990368262, 0.08140000136336312, 0.08214999979827553, 0.08144999810610898, 0.0820499990368262],
  "Depth": 2.0,
  "Expectation Value": -1.7465084791183472,
  "Optimal Expectation Value": -1.746999979019165,
  "Optimizer durations [ms]": [2.803, 2.642, 2.564, 2.772, 3.18, 2.726, 2.567, 2.568, 2.563, 5.868, 20.608, 5.79, 3.102, 2.739, 2.632, 2.562, 2.592, 3.336, 2.722, 2.551, 2.761, 2.675, 2.627, 2.707, 2.527, 2.535, 2.545, 2.561, 2.507, 2.663, 2.542, 2.544, 2.575, 2.527],
  "Optimizer iterations": 34,
  "Optimizer params": [0.9968317295756869, 0.5007025682889511, 0.9907565410717593],
  "P": 0,
  "Problem": "RH",
  "QJob durations [ms]": [0.08180000077118166, 0.08540000271750614, 0.08170000000973232, 0.08180000077118166, 0.081900001532631, 0.08605000039096922, 0.0806499992904719, 0.08045000140555203, 0.08150000212481245, 0.2442500008328352, 0.1286000042455271, 0.16245000006165355, 0.08960000195656903, 0.08785000318312086, 0.08379999781027436, 0.08095000157481991, 0.0810999990790151, 0.11615000403253362, 0.08475000140606426, 0.08090000119409524, 0.08434999836026691, 0.08424999759881757, 0.08370000068680383, 0.08095000157481991, 0.08159999924828298, 0.08154999886755832, 0.08209999941755086, 0.08194999827537686, 0.08159999924828298, 0.0820499990368262, 0.08140000136336312, 0.08214999979827553, 0.08144999810610898, 0.0820499990368262],
  "QPU": "7000000",
  "Qubits": 3,
  "Queue durations [ms]": [0.0, 0.0, 0.0, 0.0, 0.0, 0.0, 0.0, 0.0, 0.0, 0.0, 0.0, 0.0, 0.0, 0.0, 0.0, 0.0, 0.0, 0.0, 0.0, 0.0, 0.0, 0.0, 0.0, 0.0, 0.0, 0.0, 0.0, 0.0, 0.0, 0.0, 0.0, 0.0, 0.0, 0.0],
  "Shots": 4096,
  "Size": 3,
  "Total Algorithm duration [s]": 0.115,
  "Total Classic duration [s]": 0.1118671999849903,
  "Total Quantum duration [s]": 0.003132800015009707
}
