{
  "Circuit execution durations [ms]": [0.08710000111022964, 0.08349999916390516, 0.08435000199824572, 0.08259999958681874, 0.0822000001790002, 0.08289999823318794, 0.09165000301436521, 0.08154999886755832, 0.08119999984046444, 0.08450000314041972, 0.0868499992066063, 0.09130000034929253, 0.0895000011951197, 0.08135000098263845, 0.08054999852902256, 0.08119999984046444, 0.08800000068731606, 0.08015000275918283, 0.08000000161700882, 0.08209999941755086, 0.07955000182846561, 0.07805000132066198, 0.08034999700612389, 0.07879999975557439, 0.08270000034826808, 0.0806499992904719, 0.08054999852902256, 0.08069999967119657, 0.07980000009411015, 0.08070000330917537, 0.08354999954462983, 0.08199999865610152, 0.08054999852902256, 0.08104999869829044, 0.08089999755611643, 0.07850000110920519, 0.10340000153519213],
  "Depth": 2.0,
  "Expectation Value": -1.7468361854553223,
  "Optimal Expectation Value": -1.746999979019165,
  "Optimizer durations [ms]": [3.118, 2.592, 3.037, 2.565, 2.568, 2.578, 2.753, 2.59, 2.628, 2.72, 2.76, 2.928, 2.809, 2.581, 2.587, 2.566, 2.783, 2.556, 2.653, 2.595, 2.545, 2.543, 2.609, 2.511, 2.696, 2.591, 2.539, 2.558, 2.563, 2.567, 2.642, 2.608, 2.541, 2.575, 2.602, 2.551, 3.125],
  "Optimizer iterations": 37,
  "Optimizer params": [1.0, 0.49597333756896195, 0.9931390019744786],
  "P": 0,
  "Problem": "RH",
  "QJob durations [ms]": [0.08710000111022964, 0.08349999916390516, 0.08435000199824572, 0.08259999958681874, 0.0822000001790002, 0.08289999823318794, 0.09165000301436521, 0.08154999886755832, 0.08119999984046444, 0.08450000314041972, 0.0868499992066063, 0.09130000034929253, 0.0895000011951197, 0.08135000098263845, 0.08054999852902256, 0.08119999984046444, 0.08800000068731606, 0.08015000275918283, 0.08000000161700882, 0.08209999941755086, 0.07955000182846561, 0.07805000132066198, 0.08034999700612389, 0.07879999975557439, 0.08270000034826808, 0.0806499992904719, 0.08054999852902256, 0.08069999967119657, 0.07980000009411015, 0.08070000330917537, 0.08354999954462983, 0.08199999865610152, 0.08054999852902256, 0.08104999869829044, 0.08089999755611643, 0.07850000110920519, 0.10340000153519213],
  "QPU": "7000000",
  "Qubits": 3,
  "Queue durations [ms]": [0.0, 0.0, 0.0, 0.0, 0.0, 0.0, 0.0, 0.0, 0.0, 0.0, 0.0, 0.0, 0.0, 0.0, 0.0, 0.0, 0.0, 0.0, 0.0, 0.0, 0.0, 0.0, 0.0, 0.0, 0.0, 0.0, 0.0, 0.0, 0.0, 0.0, 0.0, 0.0, 0.0, 0.0, 0.0, 0.0, 0.0],
  "Shots": 4096,
  "Size": 3,
  "Total Algorithm duration [s]": 0.098,
  "Total Classic duration [s]": 0.09492564999349998,
  "Total Quantum duration [s]": 0.003074350006500026
}
