{
  "Circuit execution durations [ms]": [0.08149999848683365, 0.0840499997138977, 0.08610000077169389, 0.08429999797954224, 0.08604999675299041, 0.08254999920609407, 0.08230000094044954, 0.08090000119409524, 0.12394999794196337, 0.08775000242167152, 0.08185000115190633, 0.07980000009411015, 0.08095000157481991, 0.08250000246334821, 0.08339999840245582, 0.08214999979827553, 0.08164999962900765, 0.08214999979827553, 0.0810999990790151, 0.08114999945973977, 0.0808000004326459, 0.08100000195554458, 0.08175000039045699, 0.08164999962900765, 0.08135000098263845, 0.09639999916544184, 0.08159999924828298, 0.08170000000973232, 0.08194999827537686, 0.08180000077118166, 0.08055000216700137, 0.08385000182897784, 0.08024999988265336, 0.07964999895193614, 0.0794000006862916, 0.09090000094147399, 0.08634999903733842, 0.08999999772640876, 0.08579999848734587, 0.09644999954616651, 0.09209999916492961, 0.08430000161752105, 0.08334999802173115, 0.08180000077118166, 0.0810999990790151, 0.08090000119409524, 0.08139999772538431],
  "Depth": 2.0,
  "Expectation Value": -1.746999979019165,
  "Optimal Expectation Value": -1.746999979019165,
  "Optimizer durations [ms]": [2.592, 2.587, 2.805, 2.732, 2.644, 2.577, 2.747, 2.575, 3.556, 2.958, 2.594, 2.534, 2.599, 2.585, 2.627, 2.586, 2.591, 2.576, 2.565, 2.544, 2.575, 2.565, 2.585, 2.599, 2.55, 3.039, 2.563, 2.569, 2.57, 2.58, 2.551, 2.649, 2.537, 2.518, 2.543, 2.88, 2.739, 2.805, 3.406, 2.98, 2.849, 2.602, 2.627, 2.566, 2.574, 2.571, 2.553],
  "Optimizer iterations": 47,
  "Optimizer params": [0.9973723860051177, 0.5030279219668495, 1.0],
  "P": 0,
  "Problem": "RH",
  "QJob durations [ms]": [0.08149999848683365, 0.0840499997138977, 0.08610000077169389, 0.08429999797954224, 0.08604999675299041, 0.08254999920609407, 0.08230000094044954, 0.08090000119409524, 0.12394999794196337, 0.08775000242167152, 0.08185000115190633, 0.07980000009411015, 0.08095000157481991, 0.08250000246334821, 0.08339999840245582, 0.08214999979827553, 0.08164999962900765, 0.08214999979827553, 0.0810999990790151, 0.08114999945973977, 0.0808000004326459, 0.08100000195554458, 0.08175000039045699, 0.08164999962900765, 0.08135000098263845, 0.09639999916544184, 0.08159999924828298, 0.08170000000973232, 0.08194999827537686, 0.08180000077118166, 0.08055000216700137, 0.08385000182897784, 0.08024999988265336, 0.07964999895193614, 0.0794000006862916, 0.09090000094147399, 0.08634999903733842, 0.08999999772640876, 0.08579999848734587, 0.09644999954616651, 0.09209999916492961, 0.08430000161752105, 0.08334999802173115, 0.08180000077118166, 0.0810999990790151, 0.08090000119409524, 0.08139999772538431],
  "QPU": "7000000",
  "Qubits": 3,
  "Queue durations [ms]": [0.0, 0.0, 0.0, 0.0, 0.0, 0.0, 0.0, 0.0, 0.0, 0.0, 0.0, 0.0, 0.0, 0.0, 0.0, 0.0, 0.0, 0.0, 0.0, 0.0, 0.0, 0.0, 0.0, 0.0, 0.0, 0.0, 0.0, 0.0, 0.0, 0.0, 0.0, 0.0, 0.0, 0.0, 0.0, 0.0, 0.0, 0.0, 0.0, 0.0, 0.0, 0.0, 0.0, 0.0, 0.0, 0.0, 0.0],
  "Shots": 4096,
  "Size": 3,
  "Total Algorithm duration [s]": 0.125,
  "Total Classic duration [s]": 0.12103570000545005,
  "Total Quantum duration [s]": 0.003964299994549947
}
