{
  "Circuit execution durations [ms]": [0.08244999844464473, 0.08610000077169389, 0.08800000068731606, 0.08230000094044954, 0.08114999945973977, 0.08145000174408779, 0.08175000039045699, 0.08089999755611643, 0.0790999984019436, 0.08069999967119657, 0.0926000029721763, 0.08119999984046444, 0.07980000009411015, 0.0748999991628807, 0.07974999971338548, 0.07970000297063962, 0.08365000030607916, 0.08014999912120402, 0.07974999971338548, 0.08114999945973977, 0.08034999700612389, 0.07505000030505471, 0.0761500014050398, 0.07674999869777821, 0.0747500016586855, 0.08185000115190633, 0.08164999962900765, 0.08209999941755086, 0.08475000140606426, 0.07994999759830534, 0.07974999971338548, 0.0795499981904868, 0.07995000123628415, 0.07990000085555948, 0.08290000187116675, 0.08075000005192123],
  "Depth": 2.0,
  "Expectation Value": -1.746999979019165,
  "Optimal Expectation Value": -1.746999979019165,
  "Optimizer durations [ms]": [3.044, 2.912, 2.654, 2.691, 2.545, 2.553, 2.689, 7.933, 2.561, 2.575, 2.878, 2.625, 2.607, 2.479, 2.596, 2.523, 2.64, 2.541, 2.521, 2.563, 2.685, 2.461, 2.517, 2.568, 2.486, 2.565, 2.603, 2.585, 2.651, 2.536, 2.56, 2.581, 2.547, 2.552, 2.703, 2.613],
  "Optimizer iterations": 36,
  "Optimizer params": [4.181439020945064e-20, 0.4964395485808405, 0.0001244429263708548],
  "P": 0,
  "Problem": "RH",
  "QJob durations [ms]": [0.08244999844464473, 0.08610000077169389, 0.08800000068731606, 0.08230000094044954, 0.08114999945973977, 0.08145000174408779, 0.08175000039045699, 0.08089999755611643, 0.0790999984019436, 0.08069999967119657, 0.0926000029721763, 0.08119999984046444, 0.07980000009411015, 0.0748999991628807, 0.07974999971338548, 0.07970000297063962, 0.08365000030607916, 0.08014999912120402, 0.07974999971338548, 0.08114999945973977, 0.08034999700612389, 0.07505000030505471, 0.0761500014050398, 0.07674999869777821, 0.0747500016586855, 0.08185000115190633, 0.08164999962900765, 0.08209999941755086, 0.08475000140606426, 0.07994999759830534, 0.07974999971338548, 0.0795499981904868, 0.07995000123628415, 0.07990000085555948, 0.08290000187116675, 0.08075000005192123],
  "QPU": "7000000",
  "Qubits": 3,
  "Queue durations [ms]": [0.0, 0.0, 0.0, 0.0, 0.0, 0.0, 0.0, 0.0, 0.0, 0.0, 0.0, 0.0, 0.0, 0.0, 0.0, 0.0, 0.0, 0.0, 0.0, 0.0, 0.0, 0.0, 0.0, 0.0, 0.0, 0.0, 0.0, 0.0, 0.0, 0.0, 0.0, 0.0, 0.0, 0.0, 0.0, 0.0],
  "Shots": 4096,
  "Size": 3,
  "Total Algorithm duration [s]": 0.099,
  "Total Classic duration [s]": 0.09608729999838397,
  "Total Quantum duration [s]": 0.002912700001616031
}
