{
  "Circuit execution durations [ms]": [0.08125000022118911, 0.08145000174408779, 0.08170000000973232, 0.08040000102482736, 0.07959999857121147, 0.07955000182846561, 0.11294999785604887, 0.076299998909235, 0.08269999671028927, 0.0808000004326459, 0.0792499995441176, 0.0805000017862767, 0.08330000127898529, 0.07355000343522988, 0.07964999895193614, 0.07984999683685601, 0.07959999857121147, 0.07874999937484972, 0.07419999747071415, 0.08315000013681129, 0.07929999992484227, 0.08185000115190633, 0.09620000128052197, 0.09605000013834797, 0.08164999962900765, 0.08324999726028182, 0.08069999967119657, 0.0792499995441176, 0.07969999933266081, 0.09280000085709617, 0.07959999857121147, 0.08150000212481245, 0.08154999886755832, 0.07984999683685601, 0.0802000031399075, 0.08145000174408779, 0.08089999755611643, 0.08469999738736078],
  "Depth": 2.0,
  "Expectation Value": -1.746999979019165,
  "Optimal Expectation Value": -1.746999979019165,
  "Optimizer durations [ms]": [2.887, 2.584, 2.679, 2.582, 2.555, 2.611, 3.756, 2.543, 2.557, 2.58, 2.473, 2.539, 2.853, 2.453, 2.522, 2.53, 2.539, 2.58, 2.526, 2.787, 2.537, 2.583, 2.943, 2.9, 2.612, 2.635, 2.554, 2.544, 2.558, 2.747, 2.468, 2.607, 2.576, 2.539, 2.497, 2.514, 2.531, 2.662],
  "Optimizer iterations": 38,
  "Optimizer params": [0.002123545093706318, 0.49585386968398376, 0.9999999999999999],
  "P": 0,
  "Problem": "RH",
  "QJob durations [ms]": [0.08125000022118911, 0.08145000174408779, 0.08170000000973232, 0.08040000102482736, 0.07959999857121147, 0.07955000182846561, 0.11294999785604887, 0.076299998909235, 0.08269999671028927, 0.0808000004326459, 0.0792499995441176, 0.0805000017862767, 0.08330000127898529, 0.07355000343522988, 0.07964999895193614, 0.07984999683685601, 0.07959999857121147, 0.07874999937484972, 0.07419999747071415, 0.08315000013681129, 0.07929999992484227, 0.08185000115190633, 0.09620000128052197, 0.09605000013834797, 0.08164999962900765, 0.08324999726028182, 0.08069999967119657, 0.0792499995441176, 0.07969999933266081, 0.09280000085709617, 0.07959999857121147, 0.08150000212481245, 0.08154999886755832, 0.07984999683685601, 0.0802000031399075, 0.08145000174408779, 0.08089999755611643, 0.08469999738736078],
  "QPU": "7000000",
  "Qubits": 3,
  "Queue durations [ms]": [0.0, 0.0, 0.0, 0.0, 0.0, 0.0, 0.0, 0.0, 0.0, 0.0, 0.0, 0.0, 0.0, 0.0, 0.0, 0.0, 0.0, 0.0, 0.0, 0.0, 0.0, 0.0, 0.0, 0.0, 0.0, 0.0, 0.0, 0.0, 0.0, 0.0, 0.0, 0.0, 0.0, 0.0, 0.0, 0.0, 0.0, 0.0],
  "Shots": 4096,
  "Size": 3,
  "Total Algorithm duration [s]": 0.1,
  "Total Classic duration [s]": 0.0968710000102874,
  "Total Quantum duration [s]": 0.003128999989712611
}
