{
  "Circuit execution durations [ms]": [0.08520000119460747, 0.08199999865610152, 0.08284999785246328, 0.08739999975659885, 0.07969999933266081, 0.08040000102482736, 0.07885000013629906, 0.08225000055972487, 0.07905000165919773, 0.07904999802121893, 0.08344999878318049, 0.08209999941755086, 0.08125000022118911, 0.08105000233626924, 0.08259999958681874, 0.08200000229408033, 0.08195000191335566, 0.08195000191335566, 0.0810999990790151, 0.08140000136336312, 0.08254999920609407, 0.08145000174408779, 0.08425000123679638, 0.08225000055972487, 0.08090000119409524, 0.08154999886755832, 0.08309999975608662, 0.08380000144825317, 0.08334999802173115, 0.08329999764100648, 0.08225000055972487, 0.0820499990368262, 0.08719999823370017, 0.08230000094044954, 0.08240000170189887, 0.08294999861391261, 0.0822000001790002, 0.08999999772640876, 0.09159999899566174, 0.0881000014487654, 0.08565000098315068, 0.08175000039045699, 0.0810999990790151, 0.08049999814829789, 0.08460000026389025, 0.08170000000973232, 0.08154999886755832, 0.08354999954462983, 0.07974999971338548, 0.0806499992904719, 0.08805000106804073],
  "Depth": 2.0,
  "Expectation Value": -1.746999979019165,
  "Optimal Expectation Value": -1.746999979019165,
  "Optimizer durations [ms]": [2.599, 2.535, 2.524, 2.957, 2.763, 2.615, 2.554, 2.705, 2.554, 2.545, 2.574, 2.539, 2.528, 2.554, 2.52, 2.572, 2.738, 2.519, 2.494, 2.5, 2.565, 2.516, 2.678, 6.639, 2.533, 2.572, 2.583, 2.612, 2.572, 2.561, 2.571, 2.56, 2.682, 2.573, 2.534, 2.578, 2.533, 2.695, 2.767, 2.69, 2.663, 2.544, 2.509, 2.511, 2.614, 2.524, 2.524, 2.645, 2.539, 2.571, 2.669],
  "Optimizer iterations": 51,
  "Optimizer params": [1.0, 0.49902752363919256, 1.0],
  "P": 0,
  "Problem": "RH",
  "QJob durations [ms]": [0.08520000119460747, 0.08199999865610152, 0.08284999785246328, 0.08739999975659885, 0.07969999933266081, 0.08040000102482736, 0.07885000013629906, 0.08225000055972487, 0.07905000165919773, 0.07904999802121893, 0.08344999878318049, 0.08209999941755086, 0.08125000022118911, 0.08105000233626924, 0.08259999958681874, 0.08200000229408033, 0.08195000191335566, 0.08195000191335566, 0.0810999990790151, 0.08140000136336312, 0.08254999920609407, 0.08145000174408779, 0.08425000123679638, 0.08225000055972487, 0.08090000119409524, 0.08154999886755832, 0.08309999975608662, 0.08380000144825317, 0.08334999802173115, 0.08329999764100648, 0.08225000055972487, 0.0820499990368262, 0.08719999823370017, 0.08230000094044954, 0.08240000170189887, 0.08294999861391261, 0.0822000001790002, 0.08999999772640876, 0.09159999899566174, 0.0881000014487654, 0.08565000098315068, 0.08175000039045699, 0.0810999990790151, 0.08049999814829789, 0.08460000026389025, 0.08170000000973232, 0.08154999886755832, 0.08354999954462983, 0.07974999971338548, 0.0806499992904719, 0.08805000106804073],
  "QPU": "7000000",
  "Qubits": 3,
  "Queue durations [ms]": [0.0, 0.0, 0.0, 0.0, 0.0, 0.0, 0.0, 0.0, 0.0, 0.0, 0.0, 0.0, 0.0, 0.0, 0.0, 0.0, 0.0, 0.0, 0.0, 0.0, 0.0, 0.0, 0.0, 0.0, 0.0, 0.0, 0.0, 0.0, 0.0, 0.0, 0.0, 0.0, 0.0, 0.0, 0.0, 0.0, 0.0, 0.0, 0.0, 0.0, 0.0, 0.0, 0.0, 0.0, 0.0, 0.0, 0.0, 0.0, 0.0, 0.0, 0.0],
  "Shots": 4096,
  "Size": 3,
  "Total Algorithm duration [s]": 0.136,
  "Total Classic duration [s]": 0.13177800000042772,
  "Total Quantum duration [s]": 0.00422199999957229
}
