{
  "Depth": 384.0,
  "Expectation Value": -3.3149240016937256,
  "Job durations [ms]": [2.3134, 2.3276999999999997, 2.3423, 2.2969, 2.3525, 2.2701000000000002, 2.3197, 2.2975, 2.2882000000000002, 2.3804, 2.3301, 2.314, 2.3192, 2.3337000000000003, 2.267, 2.2982, 2.3114, 2.3144, 2.3055, 2.3073, 2.3095, 2.3517, 2.3263, 2.2792, 2.3221000000000003, 2.3019, 2.278, 2.747, 2.3116, 2.3055, 2.3476, 2.3497000000000003, 2.3428, 2.2945, 2.3278000000000003, 2.4003, 2.5406999999999997, 2.3278000000000003, 2.3169000000000004, 2.3295999999999997, 2.3, 2.3768000000000002, 2.3486000000000002, 2.3928000000000003, 2.386, 2.3280000000000003, 2.6073, 2.3909000000000002, 2.2638, 2.2986, 2.3023000000000002, 2.3045, 2.2992, 2.3049, 2.3426, 2.3267, 2.3244, 2.3325, 2.3081, 2.5268, 2.3000999999999996, 2.3167999999999997, 2.2407999999999997, 2.3189, 2.2942, 2.2655000000000003, 2.2623, 2.3376, 2.2668, 2.4769, 2.2903, 2.2487000000000004, 2.5094000000000003, 2.4505999999999997, 2.3205, 2.2667, 2.2679, 2.3377, 2.2767, 2.2803, 2.4017, 2.3012, 2.3743000000000003, 2.3621, 2.3106, 2.3226, 2.2973999999999997, 2.2786999999999997, 2.6421, 2.307, 2.2938, 2.5774, 2.3468999999999998, 2.367, 2.3228, 2.3401, 2.3262, 2.3232, 2.3064, 2.6056, 2.3022, 2.3485, 2.3321, 2.458, 2.2727, 2.3446000000000002, 2.6185, 2.3058, 2.3007, 2.6778, 2.2954999999999997, 2.2926, 2.2855000000000003, 2.3280000000000003, 2.3000999999999996, 2.3037, 2.3223, 2.2958000000000003, 2.3157, 2.2472, 2.3448, 2.6121, 2.296, 2.2379000000000002, 2.3405, 2.3586, 2.3043, 2.3343000000000003, 2.2839, 2.3323, 2.5469, 2.3176, 2.3247, 2.3185, 2.3798, 2.3366, 2.3398, 2.3117, 2.3164000000000002, 2.3983, 2.3783, 2.3908, 2.2959, 2.3836999999999997, 2.3866, 2.3422, 2.3454, 2.3302, 2.4438, 2.3032, 2.5597, 2.2702, 2.7153, 2.3084, 2.3024999999999998, 2.2776, 2.2533000000000003, 2.2691, 2.2712000000000003, 2.3322, 2.2678, 2.3205, 2.2701000000000002, 2.6789, 2.3261000000000003, 2.4234999999999998, 2.4055, 2.6871, 2.3182, 2.4015999999999997, 2.3156000000000003, 2.3533999999999997, 2.3209, 2.3062, 2.5646000000000004, 2.3982, 2.3348, 2.2853, 2.7141, 2.3321, 2.3354, 2.4195, 2.2935999999999996, 2.3172, 2.2826999999999997, 2.3059, 2.3151, 2.3000999999999996, 2.3803, 2.509, 2.2977000000000003],
  "Optimal Expectation Value": -4.0,
  "Optimizer durations [ms]": [33.351, 33.217, 33.544, 32.917, 33.504, 32.834, 33.35, 32.986, 32.967, 31.414, 33.435, 33.327, 33.064, 33.403, 32.887, 33.041, 33.416, 33.361, 30.646, 32.901, 33.471, 33.758, 33.181, 33.12, 33.515, 33.375, 32.762, 30.397, 33.433, 33.251, 33.667, 33.405, 33.763, 33.223, 33.513, 29.346, 29.817, 33.543, 33.153, 33.329, 30.816, 29.099, 33.762, 29.838, 29.287, 33.422, 33.471, 29.325, 28.426, 33.185, 31.843, 33.201, 31.845, 33.057, 33.683, 33.556, 33.462, 33.473, 33.347, 29.506, 33.189, 33.176, 32.634, 33.552, 33.186, 32.968, 32.817, 33.489, 32.83, 29.666, 33.2, 32.631, 32.647, 30.136, 33.449, 32.736, 32.935, 33.536, 32.815, 32.933, 29.478, 30.456, 29.104, 33.551, 33.096, 33.724, 33.139, 29.859, 28.872, 33.435, 33.189, 28.174, 30.165, 33.927, 33.264, 30.088, 29.064, 28.851, 33.264, 32.78, 29.295, 29.491, 33.315, 32.391, 29.717, 28.801, 32.718, 32.968, 33.263, 29.824, 32.868, 33.08, 30.451, 30.77, 33.193, 33.214, 33.321, 33.193, 33.537, 32.614, 33.689, 30.286, 32.924, 32.801, 33.571, 33.875, 33.418, 33.546, 33.18, 33.282, 32.644, 30.101, 33.709, 33.267, 29.282, 33.298, 33.804, 33.306, 33.49, 29.089, 34.312, 26.36, 33.198, 29.323, 29.373, 33.551, 33.677, 33.444, 30.001, 33.378, 30.323, 33.009, 32.439, 33.318, 29.863, 33.16, 32.75, 32.95, 32.799, 33.732, 32.692, 33.8, 32.883, 29.539, 30.739, 34.463, 29.424, 28.126, 30.17, 29.23, 33.279, 33.59, 33.177, 33.294, 29.92, 29.505, 33.392, 33.042, 30.21, 33.292, 33.623, 29.615, 33.18, 33.151, 32.979, 33.268, 33.106, 33.523, 31.192, 32.452, 33.197],
  "Optimizer iterations": 191,
  "Optimizer params": [0.4277667628346184, 0.9458846411491723, 0.016766595458369407, 0.21159670154743265, 0.5880659128401554, 0.15324277973099176],
  "P": 3,
  "Problem": "DSP",
  "QPU": "7000000",
  "Qubits": 10,
  "Shots": 4096,
  "Size": 5,
  "Total Algorithm duration [s]": 6.161,
  "Total Classic duration [s]": 5.7118765,
  "Total Quantum duration [s]": 0.4491235
}
