{
  "Depth": 384.0,
  "Expectation Value": -3.979416847229004,
  "Job durations [ms]": [2.3306999999999998, 2.326, 2.2907, 2.3751, 2.2855000000000003, 2.3082, 2.7103, 2.3321, 2.3493, 2.2971, 2.3175, 2.3164000000000002, 2.3122, 2.3024, 2.3153, 2.7007, 2.3111, 2.3379999999999996, 2.3003, 2.3436, 2.3056, 2.3195, 2.3736, 2.3211, 2.3227, 2.2858, 2.3172, 2.3430999999999997, 2.5143, 2.3089, 2.318, 2.3105, 2.3339, 2.3043, 2.3311, 2.287, 2.3131, 2.3238, 2.2934, 2.2672999999999996, 2.3885, 2.3173999999999997, 2.3042000000000002, 2.3005, 2.3158, 2.2704999999999997, 2.4840999999999998, 2.3407, 2.3253000000000004, 2.3566, 2.3566, 2.3191, 2.2993, 2.3461, 2.3099000000000003, 2.3449999999999998, 2.3009, 2.3388, 2.3582, 2.323, 2.3211999999999997, 2.3041, 2.2591, 2.3116, 2.3232, 2.3016, 2.3748, 2.3259000000000003, 2.3112, 2.3084, 2.3303, 2.271, 2.3063, 2.2937000000000003, 2.3055, 2.301, 2.3357, 2.3476, 2.3368, 2.3373999999999997, 2.31, 2.3139, 2.3281, 2.3122, 2.3099000000000003, 2.3606, 2.2995, 2.5267000000000004, 2.3054, 2.2430000000000003, 2.4965, 2.3651, 2.3091, 2.2919, 2.3644, 2.3215000000000003, 2.3352, 2.3198, 2.2887],
  "Optimal Expectation Value": -4.0,
  "Optimizer durations [ms]": [33.401, 33.472, 32.869, 33.946, 32.956, 33.225, 30.148, 33.469, 33.599, 33.225, 33.077, 33.33, 33.053, 33.389, 33.342, 29.798, 28.59, 33.541, 32.903, 31.134, 32.308, 33.3, 33.845, 33.124, 33.355, 33.079, 33.347, 33.537, 30.284, 33.228, 33.231, 33.157, 33.686, 33.058, 33.631, 32.951, 33.544, 30.713, 33.236, 32.915, 34.211, 33.224, 33.197, 33.243, 33.148, 32.963, 30.233, 31.796, 33.32, 32.947, 33.801, 33.094, 33.116, 33.58, 33.235, 33.54, 30.363, 33.697, 30.086, 33.437, 33.473, 33.102, 32.589, 33.311, 33.44, 33.128, 26.296, 33.268, 33.341, 33.066, 31.334, 32.603, 33.12, 33.185, 33.354, 33.221, 33.265, 33.801, 33.441, 31.108, 32.982, 33.569, 33.527, 33.356, 33.083, 33.523, 33.246, 30.185, 33.273, 32.885, 32.188, 29.111, 32.969, 33.238, 28.894, 33.071, 33.5, 33.317, 33.037],
  "Optimizer iterations": 99,
  "Optimizer params": [0.8396250005412288, 0.8209837884300611, 0.829958054799847, 0.6100821454166832, 0.07591049841046961, 0.9952945920664064],
  "P": 3,
  "Problem": "DSP",
  "QPU": "7000000",
  "Qubits": 10,
  "Shots": 4096,
  "Size": 5,
  "Total Algorithm duration [s]": 3.24,
  "Total Classic duration [s]": 3.0089349000000003,
  "Total Quantum duration [s]": 0.23106509999999997
}
