{
  "Depth": 384.0,
  "Expectation Value": -3.825692653656006,
  "Job durations [ms]": [2.3406, 2.3346, 2.1637, 2.2676, 2.3114, 2.3008, 2.3148999999999997, 2.3203, 2.3394000000000004, 2.343, 2.2992, 2.3172, 2.3895, 2.2965, 2.3425, 2.3563, 2.3276, 2.2794999999999996, 2.5494, 2.3265, 2.3105, 2.4492, 2.3268999999999997, 2.3461, 2.3133, 2.316, 2.3428, 2.3276999999999997, 2.33, 2.4212000000000002, 2.2995, 2.3628, 2.5293, 2.1969, 2.3329, 2.4022, 2.3089999999999997, 2.2766, 2.3126, 2.3651, 2.4948, 2.3173999999999997, 2.4115, 2.7444, 2.5571, 2.2964, 2.3401, 2.3349, 2.3105, 2.3242, 2.3528, 2.3319, 2.2951, 2.2976, 2.3289, 2.3032, 2.2993, 2.3079, 2.3995, 2.4677000000000002, 2.3557, 2.323, 2.301, 2.2929, 2.6976999999999998, 2.3029, 2.2866, 2.3771, 2.2996000000000003, 2.2947, 2.2721, 2.4382, 2.314, 2.3917, 2.3214, 2.3236, 2.3244, 2.3559, 2.3234000000000004, 2.494, 2.2938, 2.3146, 2.3651, 2.317, 2.3867, 2.3135, 2.3127, 2.3685, 2.3134, 2.3007, 2.474, 2.3101, 2.2943, 2.7262, 2.3336, 2.3096, 2.3376, 2.1597999999999997, 2.2813999999999997, 2.3562000000000003, 2.3072, 2.3226, 2.333, 2.3415, 2.2962, 2.3078, 2.4004, 2.316, 2.342, 2.2952, 2.3359, 2.3332, 2.2971, 2.3059, 2.3141, 2.3, 2.3332, 2.3425, 2.3015000000000003, 2.3546, 2.3471, 2.4006000000000003, 2.3308, 2.2815000000000003, 2.383, 2.3218, 2.3055, 2.2967, 2.3472],
  "Optimal Expectation Value": -4.0,
  "Optimizer durations [ms]": [33.565, 33.456, 31.534, 33.033, 33.055, 33.064, 33.367, 33.534, 33.446, 33.507, 31.04, 33.178, 34.115, 33.356, 33.26, 33.569, 33.669, 32.884, 30.353, 33.506, 33.372, 29.957, 33.163, 33.623, 33.326, 33.282, 33.466, 33.351, 31.04, 27.18, 33.198, 33.563, 30.208, 32.187, 33.409, 29.152, 29.605, 33.056, 33.349, 31.055, 27.4, 29.905, 29.326, 32.84, 30.189, 30.074, 33.329, 33.539, 33.219, 30.874, 30.846, 33.459, 32.811, 33.111, 33.26, 33.316, 33.059, 33.163, 29.66, 27.144, 33.908, 33.264, 33.322, 32.984, 30.395, 33.425, 32.889, 33.681, 33.213, 33.125, 33.059, 29.401, 33.565, 26.55, 33.372, 33.366, 33.182, 33.959, 30.839, 30.259, 32.917, 33.579, 33.761, 33.34, 29.223, 33.024, 33.134, 33.782, 33.332, 33.007, 30.272, 33.116, 33.269, 32.718, 28.424, 33.388, 33.44, 31.795, 32.861, 33.453, 33.175, 33.252, 33.526, 31.283, 32.856, 33.304, 34.037, 33.448, 33.685, 33.203, 33.47, 30.805, 32.988, 33.189, 33.378, 33.041, 33.439, 33.523, 33.076, 33.75, 30.977, 34.156, 33.541, 32.668, 34.138, 33.415, 33.222, 33.265, 31.191],
  "Optimizer iterations": 129,
  "Optimizer params": [0.4767011722873485, 0.11126360820545435, 0.11297421877115738, 0.3510931345563974, 0.09259252275505629, 0.17630136352130218],
  "P": 3,
  "Problem": "DSP",
  "QPU": "7000000",
  "Qubits": 10,
  "Shots": 4096,
  "Size": 5,
  "Total Algorithm duration [s]": 4.19,
  "Total Classic duration [s]": 3.8876409000000005,
  "Total Quantum duration [s]": 0.3023590999999998
}
