{
  "Depth": 384.0,
  "Expectation Value": -3.325974941253662,
  "Job durations [ms]": [2.4432, 2.3628, 2.3223, 2.2939000000000003, 2.2818, 2.3227, 2.3569, 2.313, 2.4011, 2.312, 2.2854, 2.2981, 2.3087, 2.3417999999999997, 2.3081, 2.3084, 2.3920999999999997, 2.3118000000000003, 2.3064, 2.2982, 2.2933, 2.2961, 2.4246, 2.319, 2.2961, 2.7004, 2.2719, 2.313, 2.4633, 2.3582, 2.3233, 2.3017, 2.311, 2.2854, 2.1318, 2.2908, 2.3254, 2.609, 2.3251, 2.3096, 2.4973, 2.2952, 2.306, 2.2973, 2.3208, 2.5136, 2.32, 2.4334000000000002, 2.3086, 2.6265, 2.3089999999999997, 2.2819, 2.2876, 2.3015000000000003, 2.3178, 2.3507, 2.2908999999999997, 2.4045, 2.3331, 2.3032999999999997, 2.5074, 2.1715, 2.3134, 2.3796999999999997, 2.3385, 2.2975, 2.3367, 2.3398999999999996, 2.5802, 2.6631, 2.3005, 2.3126, 2.3131, 2.3548, 2.3314999999999997, 2.3235, 2.3196, 2.3536, 2.313, 2.3518, 2.3076, 2.3678000000000003, 2.3143000000000002, 2.3074, 2.2977000000000003, 2.3036, 2.3057, 2.3129, 2.3013999999999997, 2.3202000000000003, 2.3152, 2.3324000000000003, 2.3232, 2.3538, 2.3357, 2.3049, 2.2815000000000003, 2.3221000000000003, 2.6795, 2.3045, 2.4256, 2.4013, 2.3008, 2.3333999999999997],
  "Optimal Expectation Value": -4.0,
  "Optimizer durations [ms]": [29.723, 34.11, 33.47, 33.099, 32.976, 33.432, 33.597, 33.385, 31.722, 30.549, 32.955, 33.442, 33.431, 33.706, 33.232, 33.399, 29.285, 33.349, 30.457, 33.282, 32.809, 33.241, 27.091, 33.262, 30.247, 32.545, 32.376, 33.644, 32.552, 28.862, 33.363, 33.232, 33.408, 32.975, 26.372, 32.995, 33.832, 31.441, 33.4, 33.208, 30.266, 28.846, 33.205, 33.149, 33.401, 29.884, 28.686, 29.527, 33.276, 28.815, 33.078, 32.911, 33.032, 30.034, 33.45, 31.089, 32.944, 29.414, 33.361, 29.756, 31.266, 27.019, 30.511, 31.367, 33.336, 28.324, 33.623, 30.538, 34.133, 31.876, 33.402, 33.348, 33.307, 33.865, 33.566, 33.412, 33.405, 30.82, 33.225, 33.964, 33.297, 33.945, 33.393, 33.204, 32.908, 30.811, 33.28, 33.066, 33.24, 33.536, 33.501, 33.182, 33.346, 33.84, 30.597, 30.203, 33.014, 33.456, 27.906, 33.286, 34.289, 29.545, 33.246, 33.594],
  "Optimizer iterations": 104,
  "Optimizer params": [0.6259328936077126, 0.9897391930109357, 0.2336039179254641, 0.9553598205347894, 0.38674136691920835, 0.20634451170134852],
  "P": 3,
  "Problem": "DSP",
  "QPU": "7000000",
  "Qubits": 10,
  "Shots": 4096,
  "Size": 5,
  "Total Algorithm duration [s]": 3.349,
  "Total Classic duration [s]": 3.1050289,
  "Total Quantum duration [s]": 0.2439711
}
