{
  "Depth": 384.0,
  "Expectation Value": -3.9828431606292725,
  "Job durations [ms]": [2.4507000000000003, 2.2961, 2.3089, 2.4421999999999997, 2.3068, 2.2804, 2.5398, 2.2953, 2.3038999999999996, 2.283, 2.2647, 2.2586, 2.2843, 2.2436000000000003, 2.2657, 2.1776, 2.4932000000000003, 2.4257, 2.3926, 2.4962999999999997, 2.278, 2.3088, 2.2826, 2.3153, 2.2739000000000003, 2.3425, 2.3179, 2.3781000000000003, 2.2529, 2.4743999999999997, 2.2868, 2.2542, 2.2599, 2.7083, 2.3148, 2.2753, 2.3186, 2.2994, 2.7187, 2.2826, 2.3435, 2.3112, 2.2580999999999998, 2.2967999999999997, 2.3356000000000003, 2.3268999999999997, 2.2541, 2.2051000000000003, 2.7041, 2.3414, 2.3392, 2.3457, 2.3314999999999997, 2.3008, 2.3035, 2.3392, 2.2946, 2.3528, 2.4055999999999997, 2.3165999999999998, 2.2945, 2.2956, 2.3233, 2.4158999999999997, 2.3937, 2.317, 2.3141, 2.32, 2.332, 2.3055, 2.2757, 2.3585, 2.3192, 2.3077, 2.2991, 2.6911, 2.3197, 2.2835, 2.2304999999999997, 2.2689, 2.4002, 2.3792, 2.3739, 2.3383000000000003, 2.4032, 2.2483999999999997, 2.3034000000000003, 2.2859, 2.2598000000000003, 2.3181, 2.301, 2.2875, 2.3106, 2.3299000000000003, 2.3064, 2.3073, 2.3223, 2.3133, 2.32, 2.3533999999999997, 2.3686, 2.2832999999999997, 2.2747, 2.3000999999999996, 2.669, 2.2716, 2.2466, 2.298, 2.2335, 2.1752, 2.3022, 2.3055, 2.3590999999999998, 2.4052000000000002, 2.3043, 2.6278, 2.2832999999999997, 2.3273, 2.3121, 2.4773, 2.3008, 2.3283, 2.3118000000000003, 2.4201, 2.2926, 2.3017, 2.3444999999999996, 2.3165999999999998, 2.2739000000000003, 2.2976, 2.3161, 2.2981, 2.3169000000000004, 2.6659, 2.3151, 2.3153, 2.4215999999999998, 2.2935999999999996, 2.3148999999999997, 2.3973000000000004, 2.2317, 2.2914, 2.2790000000000004, 2.3172, 2.2977000000000003, 2.291, 2.3743000000000003, 2.2896, 2.2445, 2.3176, 2.2793, 2.3240000000000003, 2.6528, 2.3705000000000003, 2.4051, 2.6391, 2.4272, 2.2678, 2.2889, 2.2762, 2.372, 2.3108999999999997],
  "Optimal Expectation Value": -4.0,
  "Optimizer durations [ms]": [29.911, 32.99, 33.02, 29.738, 33.085, 32.953, 32.824, 30.306, 33.325, 32.895, 32.983, 32.868, 32.99, 32.655, 32.849, 32.015, 29.263, 29.472, 34.009, 32.491, 32.299, 33.456, 33.001, 33.358, 33.002, 33.62, 33.265, 28.92, 32.717, 29.736, 32.988, 32.648, 32.777, 29.872, 28.516, 32.896, 33.421, 33.264, 30.03, 33.202, 33.555, 33.28, 32.642, 33.092, 33.497, 33.339, 32.768, 32.061, 29.947, 28.812, 33.605, 33.822, 33.298, 30.284, 33.217, 33.349, 33.14, 33.572, 29.332, 33.515, 32.962, 33.173, 33.274, 31.612, 29.25, 33.425, 33.056, 30.301, 33.397, 33.5, 33.043, 33.757, 33.206, 33.476, 33.189, 29.756, 33.092, 32.995, 32.541, 32.873, 29.565, 33.906, 28.944, 33.615, 29.532, 32.323, 33.184, 33.2, 32.756, 33.316, 33.151, 30.413, 33.237, 33.384, 33.284, 33.3, 33.412, 33.408, 33.414, 28.68, 31.096, 33.072, 32.84, 33.202, 29.253, 33.081, 32.4, 33.253, 32.706, 31.681, 33.247, 33.398, 33.85, 29.441, 33.355, 28.786, 29.435, 33.524, 33.435, 30.155, 33.363, 30.688, 33.219, 29.639, 33.175, 33.068, 32.905, 33.387, 32.701, 33.2, 33.297, 33.188, 33.138, 29.414, 33.599, 33.398, 32.104, 31.189, 33.4, 34.29, 32.437, 33.129, 32.802, 33.217, 30.883, 33.176, 28.931, 33.347, 29.614, 33.086, 32.972, 30.858, 28.95, 24.796, 29.6, 32.438, 29.756, 32.634, 33.144, 32.904, 29.207, 33.233],
  "Optimizer iterations": 162,
  "Optimizer params": [0.8711498678482308, 0.8310786441254038, 0.8439635679033564, 0.6100645034821837, 0.07389701869418334, 0.9872559593064142],
  "P": 3,
  "Problem": "DSP",
  "QPU": "7000000",
  "Qubits": 10,
  "Shots": 4096,
  "Size": 5,
  "Total Algorithm duration [s]": 5.218,
  "Total Classic duration [s]": 4.8391985,
  "Total Quantum duration [s]": 0.3788015
}
