{
  "Depth": 384.0,
  "Expectation Value": -3.4095377922058105,
  "Job durations [ms]": [2.2677, 2.3472, 2.2603, 2.4263000000000003, 2.3223, 2.4045, 2.3225, 2.3303, 2.2251, 2.3255, 2.3219, 2.336, 2.3223, 2.3855999999999997, 2.3137000000000003, 2.4129, 2.3325, 2.3093, 2.4189, 2.3081, 2.4098, 2.3198, 2.3089999999999997, 2.3146, 2.1140999999999996, 2.3164000000000002, 2.3076, 2.4234999999999998, 2.3148, 2.4908, 2.2819, 2.2903, 2.3763, 2.5093, 2.282, 2.2664, 2.4658, 2.3213, 2.4594, 2.3081, 2.2831, 2.5261, 2.4478999999999997, 2.2907, 2.3152, 2.3338, 2.3027, 2.3695999999999997, 2.431, 2.321, 2.3092, 2.4112999999999998, 2.2790000000000004, 2.4137999999999997, 2.2964, 2.3242, 2.3562000000000003, 2.3291000000000004, 2.2792, 2.3907, 2.5475, 2.3005, 2.2862999999999998, 2.3148, 2.261, 2.3167, 2.2895, 2.4187000000000003, 2.3119, 2.4151, 2.3287999999999998, 2.3803, 2.7567, 2.3403, 2.3111, 2.4202, 2.4068, 2.3238999999999996, 2.3076, 2.4424, 2.2873, 2.3156000000000003, 2.6825, 2.3314, 2.3297, 2.3457999999999997, 2.2881, 2.2685, 2.4126, 2.29, 2.4722, 2.4008, 2.4682, 2.3575, 2.3169000000000004, 2.2992, 2.3076, 2.2953, 2.1552, 2.2767999999999997, 2.3999, 2.3691, 2.2597, 2.321, 2.3144, 2.4084000000000003, 2.3103, 2.301, 2.2398000000000002, 2.2986999999999997, 2.4731],
  "Optimal Expectation Value": -4.0,
  "Optimizer durations [ms]": [32.903, 33.793, 32.763, 29.554, 33.638, 34.321, 33.213, 33.543, 27.653, 33.284, 33.374, 33.48, 33.425, 26.464, 33.316, 34.213, 33.571, 32.989, 29.739, 33.468, 29.37, 28.685, 33.454, 33.211, 26.484, 33.202, 33.465, 29.669, 33.435, 30.49, 32.752, 32.91, 34.217, 30.908, 32.968, 32.943, 32.408, 30.186, 29.964, 33.458, 26.173, 29.093, 30.013, 33.204, 33.413, 33.428, 33.519, 25.682, 29.504, 33.63, 33.172, 29.539, 33.054, 26.81, 33.15, 33.56, 28.81, 33.383, 30.722, 26.717, 32.877, 33.287, 33.083, 31.071, 27.813, 33.35, 33.095, 29.643, 30.69, 29.994, 33.666, 28.956, 30.215, 33.414, 33.542, 29.286, 26.728, 33.295, 33.268, 29.925, 33.109, 33.384, 29.322, 29.104, 33.372, 33.537, 32.86, 30.27, 29.602, 32.832, 30.084, 29.475, 29.523, 31.633, 33.366, 33.109, 33.199, 29.644, 22.74, 32.834, 29.585, 33.746, 32.955, 33.541, 33.089, 29.626, 30.667, 33.322, 32.415, 32.897, 27.733],
  "Optimizer iterations": 111,
  "Optimizer params": [0.594943067281248, 1.0, 0.6768501034756291, 0.18783499688109212, 0.7221701444727151, 0.8762573145435983],
  "P": 3,
  "Problem": "DSP",
  "QPU": "7000000",
  "Qubits": 10,
  "Shots": 4096,
  "Size": 5,
  "Total Algorithm duration [s]": 3.499,
  "Total Classic duration [s]": 3.238339,
  "Total Quantum duration [s]": 0.26066100000000003
}
