{
  "Depth": 384.0,
  "Expectation Value": -3.9558281898498535,
  "Job durations [ms]": [2.3416, 2.3394000000000004, 2.1972, 2.4800999999999997, 2.3864, 2.4385000000000003, 2.1679999999999997, 2.0706, 2.265, 2.2723, 2.2942, 2.3058, 2.2628, 2.3202000000000003, 2.3276, 2.3823, 2.2752, 2.3272000000000004, 2.2807999999999997, 2.281, 2.4124, 2.2691, 2.2967, 2.3556, 2.5691, 2.3003, 2.3346999999999998, 2.2902, 2.2991, 2.3057, 2.3841, 2.3519, 2.2881, 2.4087, 2.3081, 2.3096, 2.2417000000000002, 2.3053000000000003, 2.3215000000000003, 2.3040000000000003, 2.2922, 2.3846000000000003, 2.3125, 2.2965, 2.3272000000000004, 2.5939, 2.3592, 2.2991, 2.2794, 2.5983, 2.7297, 2.3756, 2.311, 2.3024999999999998, 2.3546, 2.3079, 2.3076, 2.3124000000000002, 2.5401, 2.3366, 2.3439, 2.3508, 2.3266, 2.316, 2.3127, 2.2680000000000002, 2.2969, 2.3379, 2.3977999999999997, 2.2862, 2.3634, 2.3192999999999997, 2.4193000000000002, 2.3080000000000003, 2.6705, 2.7474000000000003, 2.3468, 2.3539, 2.5763000000000003, 2.4066, 2.2879, 2.3264, 2.3222, 2.334, 2.3227, 2.3062, 2.3896, 2.3493, 2.3291000000000004, 2.3855, 2.3162, 2.3221000000000003, 2.3236, 2.3248, 2.3148, 2.3244, 2.2953, 2.3034000000000003, 2.7294, 2.4051, 2.2882000000000002, 2.3704, 2.6259, 2.4417000000000004, 2.3127999999999997, 2.6125, 2.2907, 2.2661000000000002, 2.3796999999999997, 2.327, 2.249, 2.3237, 2.3151, 2.3217, 2.2729, 2.4202999999999997, 2.3063, 2.4189, 2.4175, 2.3262, 2.4202999999999997, 2.3197, 2.3757, 2.3322, 2.3714, 2.3112],
  "Optimal Expectation Value": -4.0,
  "Optimizer durations [ms]": [33.336, 33.557, 32.208, 37.032, 34.462, 34.787, 32.092, 31.279, 27.934, 32.691, 33.239, 33.364, 32.798, 33.645, 33.461, 29.201, 29.855, 33.285, 33.12, 32.886, 29.392, 32.787, 33.338, 31.231, 28.701, 33.256, 33.478, 33.41, 33.128, 33.255, 29.061, 33.674, 33.215, 34.314, 33.286, 30.322, 29.739, 33.24, 33.326, 33.362, 33.127, 34.131, 33.349, 32.994, 33.424, 30.069, 29.159, 33.229, 32.836, 30.468, 32.858, 33.83, 33.345, 33.331, 33.789, 33.238, 33.122, 33.195, 30.239, 33.365, 33.905, 33.623, 33.278, 33.602, 33.138, 33.078, 30.057, 31.014, 29.25, 33.079, 29.781, 29.666, 29.582, 33.506, 32.802, 30.506, 33.274, 33.674, 33.438, 29.22, 33.04, 33.255, 33.657, 33.346, 33.575, 33.039, 29.261, 30.793, 33.785, 33.966, 33.348, 30.85, 33.438, 33.518, 33.481, 33.244, 33.211, 33.111, 29.876, 29.756, 33.044, 34.06, 28.739, 29.74, 33.301, 32.812, 33.143, 33.638, 29.21, 33.628, 32.668, 33.52, 33.104, 33.41, 32.961, 31.613, 33.334, 29.557, 29.731, 30.488, 30.235, 33.225, 30.696, 33.51, 33.927, 33.235],
  "Optimizer iterations": 126,
  "Optimizer params": [0.33201004996256317, 0.7964398975032696, 0.023910137804372466, 0.9635489794533164, 0.07276540467591104, 0.4119695552874604],
  "P": 3,
  "Problem": "DSP",
  "QPU": "7000000",
  "Qubits": 10,
  "Shots": 4096,
  "Size": 5,
  "Total Algorithm duration [s]": 4.08,
  "Total Classic duration [s]": 3.7835296,
  "Total Quantum duration [s]": 0.2964704
}
