{
  "Depth": 2.0,
  "Job durations [ms]": [13.05091381072998, 12.999534606933594, 13.128876686096191, 13.350486755371094, 13.235330581665039, 13.460755348205566, 13.727664947509766, 13.029694557189941, 12.623786926269531, 12.917041778564453, 13.11802864074707, 12.919306755065918, 12.99893856048584, 13.373732566833496, 12.920737266540527, 13.2676362991333, 12.679100036621094, 12.719035148620605, 12.619733810424805, 12.994050979614258, 12.957930564880371, 12.791633605957031, 12.982845306396484, 12.951374053955078, 12.979626655578613, 13.300776481628418, 13.339400291442871, 12.915968894958496, 12.953639030456543, 12.946248054504395, 12.805581092834473, 12.930750846862793, 12.830972671508789, 13.048648834228516, 12.802720069885254, 12.890219688415527, 13.071775436401367, 13.1455659866333, 13.123393058776855, 13.02182674407959, 12.947678565979004, 13.277769088745117, 13.17298412322998, 13.44597339630127, 13.35597038269043, 13.15295696258545, 12.853622436523438, 13.186812400817871, 13.124346733093262, 12.62521743774414, 13.054370880126953, 13.133764266967773, 13.16368579864502, 13.424396514892578, 13.161778450012207, 12.985467910766602, 13.243675231933594, 13.138890266418457, 13.595223426818848, 13.599634170532227, 13.058781623840332, 12.885689735412598, 12.885093688964844, 13.108491897583008, 13.118147850036621, 12.974023818969727, 13.118982315063477, 13.155817985534668, 12.962698936462402, 12.981653213500977, 12.952804565429688, 13.023734092712402, 13.124942779541016, 12.74728775024414, 13.201594352722168, 12.953400611877441, 13.105273246765137, 13.044476509094238, 12.986898422241211, 13.022303581237793, 12.825369834899902, 12.7105712890625, 12.813806533813477, 12.942790985107422, 12.681961059570312, 12.815713882446289, 14.915227890014648, 12.877702713012695, 12.828469276428223, 12.9241943359375, 12.87221908569336, 12.662529945373535, 13.44764232635498, 13.365387916564941, 13.184189796447754, 13.476729393005371, 13.0234956741333, 13.366341590881348, 13.460040092468262, 12.919068336486816, 13.205766677856445, 12.8859281539917, 12.964606285095215, 13.448834419250488, 13.54670524597168, 13.110518455505371, 13.216853141784668, 13.111591339111328, 13.46290111541748, 13.385415077209473, 12.733101844787598, 12.939810752868652, 13.023972511291504, 13.764500617980957, 13.017654418945312, 12.910127639770508, 12.693643569946289, 13.336777687072754, 13.743162155151367, 14.158487319946289, 13.026714324951172, 13.065099716186523, 12.887835502624512, 13.16976547241211, 13.538360595703125, 13.038873672485352, 13.690829277038574, 13.272523880004883, 13.65673542022705, 13.27812671661377, 13.574004173278809, 12.641072273254395, 13.16225528717041, 13.740897178649902, 13.233661651611328, 12.849569320678711, 12.956738471984863, 12.849688529968262, 12.80355453491211, 12.916088104248047, 14.136791229248047, 13.668179512023926, 12.835383415222168, 13.406157493591309, 13.358116149902344, 13.851165771484375],
  "Optimizer durations [ms]": [151.014, 149.15, 198.577, 151.059, 152.194, 206.564, 154.768, 151.635, 148.27, 201.207, 152.595, 153.758, 154.317, 207.482, 154.254, 154.305, 155.163, 197.63, 148.869, 153.423, 204.518, 152.212, 152.943, 152.643, 205.595, 151.787, 160.508, 153.945, 200.971, 150.213, 149.183, 148.008, 199.728, 155.303, 154.803, 198.007, 148.743, 152.686, 153.605, 205.023, 152.895, 154.817, 153.082, 205.201, 154.7, 153.748, 149.456, 196.673, 156.015, 151.662, 205.804, 151.173, 153.787, 156.649, 206.035, 151.504, 154.336, 153.765, 204.27, 157.025, 154.323, 152.612, 211.933, 153.059, 151.41, 199.64, 152.55, 151.284, 149.234, 200.152, 148.874, 150.293, 149.161, 199.793, 153.599, 152.083, 152.023, 203.057, 154.997, 151.321, 198.348, 149.244, 150.263, 148.717, 204.903, 148.703, 154.31, 151.097, 200.819, 149.234, 153.749, 148.218, 202.784, 155.563, 151.596, 207.182, 155.75, 151.686, 154.727, 198.175, 151.68, 149.8, 149.326, 204.151, 154.651, 154.804, 151.087, 204.074, 156.199, 156.286, 198.323, 153.281, 151.926, 152.966, 199.972, 149.164, 147.922, 154.571, 203.353, 153.205, 150.193, 149.767, 197.787, 156.239, 151.785, 201.992, 155.369, 152.072, 152.881, 211.482, 153.477, 154.322, 154.489, 206.594, 153.16, 152.648, 147.327, 199.337, 148.923, 156.261, 199.343, 154.526, 148.999, 152.145, 212.501, 154.067],
  "Optimizer iterations": 146,
  "Qubits": 8,
  "Total Algorithm duration [s]": 24.22,
  "Total Classic duration [s]": 22.3036364030838,
  "Total Quantum duration [s]": 1.9163635969161987,
  "Expectation Value": -4.610058784484863,
  "Optimal Expectation Value": -4.610499858856201,
  "Optimizer params": [0.9963175770739935, 0.4946490299083637, 0.9982829828537715, 0.5031531298049466, 0.5028369733036014, 0.9997139575928979, 0.4996328453202308, 0.503293242816703],
  "QPU": "3010008",
  "Problem": "RH",
  "Size": 8,
  "P": 0,
  "Shots": 4096
}