{
  "Circuit execution durations [ms]": [12.52293586730957, 12.803792953491211, 13.146162033081055, 12.904167175292969, 13.247489929199219, 12.454748153686523, 12.986183166503906, 12.871265411376953, 12.568473815917969, 12.713432312011719, 12.573003768920898, 12.735366821289063, 12.956857681274414, 12.727499008178711, 13.020992279052734, 13.017654418945313, 12.726068496704102, 13.201475143432617, 12.97616958618164, 13.20028305053711, 13.074636459350586, 13.012170791625977, 12.641429901123047, 13.05699348449707, 12.760639190673828, 12.988090515136719, 12.767791748046875, 12.855291366577148, 12.925386428833008, 12.830734252929688, 12.729883193969727, 13.122320175170898, 12.930631637573242, 12.471199035644531, 12.872695922851563, 13.033628463745117, 13.021469116210938, 12.819290161132813, 12.82048225402832, 12.664318084716797, 13.177633285522461, 12.393951416015625, 12.813329696655273, 12.953996658325195, 12.882471084594727, 12.826681137084961, 13.117790222167969, 12.50457763671875, 12.790203094482422, 12.886524200439453, 13.197183609008789, 12.962818145751953, 12.560129165649414, 12.864351272583008, 12.718439102172852, 12.622356414794922, 12.537002563476563, 12.790679931640625, 12.800931930541992, 13.081550598144531, 12.593984603881836, 13.10586929321289, 12.828350067138672, 12.958288192749023, 12.692928314208984, 12.842416763305664, 12.818574905395508, 12.482404708862305, 12.829065322875977, 12.788057327270508, 12.678146362304688, 13.070106506347656, 12.575864791870117, 12.431621551513672, 12.792825698852539],
  "Depth": 384.0,
  "Expectation Value": -2.68359375,
  "Optimal Expectation Value": -4.0,
  "Optimizer durations [ms]": [417.913, 336.25, 421.493, 337.421, 420.926, 336.054, 417.609, 336.554, 421.423, 333.645, 338.151, 417.325, 335.672, 413.0, 337.337, 413.127, 335.074, 420.9, 333.596, 413.491, 334.302, 412.697, 336.85, 418.206, 333.582, 419.964, 333.45, 414.87, 333.131, 417.794, 333.112, 417.023, 337.544, 416.884, 334.075, 413.926, 335.29, 413.076, 337.823, 413.06, 336.894, 419.925, 333.766, 414.508, 334.706, 412.738, 337.986, 416.252, 333.272, 420.991, 339.309, 413.53, 337.201, 413.776, 333.13, 415.725, 337.579, 418.197, 339.154, 413.264, 334.836, 418.012, 337.336, 416.052, 335.774, 421.174, 336.929, 413.872, 335.597, 412.969, 336.811, 415.812, 333.684, 419.216, 339.056],
  "Optimizer iterations": 75,
  "Optimizer params": [0.20108880667564574, 0.4633957569826176, 0.9981122144165607, 0.49901943630726003, 0.7571442981384533, 0.7231811717751236],
  "P": 3,
  "Problem": "DSP",
  "QJob durations [ms]": [236.28497123718262, 239.25065994262695, 240.7205104827881, 240.01359939575195, 241.27507209777832, 239.01820182800293, 238.68036270141602, 238.60645294189453, 324.04232025146484, 237.18786239624023, 240.67449569702148, 238.0542755126953, 238.74378204345703, 237.12873458862305, 240.6153678894043, 237.0927333831787, 238.41023445129395, 239.32790756225586, 236.80686950683594, 238.44099044799805, 237.45989799499512, 236.85598373413086, 239.99476432800293, 240.83590507507324, 237.08653450012207, 238.9850616455078, 237.03885078430176, 240.17739295959473, 236.7689609527588, 240.7071590423584, 236.6464138031006, 240.0493621826172, 240.53621292114258, 236.4203929901123, 237.20431327819824, 239.0580177307129, 238.46936225891113, 236.71579360961914, 240.4770851135254, 236.70482635498047, 239.91990089416504, 238.2028102874756, 237.37788200378418, 238.9974594116211, 237.61963844299316, 237.1978759765625, 240.91196060180664, 240.23079872131348, 236.73129081726074, 239.40181732177734, 242.03729629516602, 239.17174339294434, 239.53914642333984, 237.15448379516602, 236.53364181518555, 239.66145515441895, 240.36765098571777, 237.63608932495117, 241.7292594909668, 238.30795288085938, 238.35372924804688, 241.9581413269043, 240.5843734741211, 239.9601936340332, 237.6265525817871, 239.55941200256348, 240.10372161865234, 238.7716770172119, 238.4486198425293, 237.1070384979248, 239.8374080657959, 239.6090030670166, 237.0443344116211, 237.9155158996582, 241.67490005493164],
  "QPU": "3010008",
  "Qubits": 10,
  "Queue durations [ms]": [0.0, 0.0, 0.0, 0.0, 0.0, 0.0, 0.0, 0.0, 0.0, 0.0, 0.0, 0.0, 0.0, 0.0, 0.0, 0.0, 0.0, 0.0, 0.0, 0.0, 0.0, 0.0, 0.0, 0.0, 0.0, 0.0, 0.0, 0.0, 0.0, 0.0, 0.0, 0.0, 0.0, 0.0, 0.0, 0.0, 0.0, 0.0, 0.0, 0.0, 0.0, 0.0, 0.0, 0.0, 0.0, 0.0, 0.0, 0.0, 0.0, 0.0, 0.0, 0.0, 0.0, 0.0, 0.0, 0.0, 0.0, 0.0, 0.0, 0.0, 0.0, 0.0, 0.0, 0.0, 0.0, 0.0, 0.0, 0.0, 0.0, 0.0, 0.0, 0.0, 0.0, 0.0, 0.0],
  "Shots": 4096,
  "Size": 5,
  "Total Algorithm duration [s]": 28.172,
  "Total Classic duration [s]": 10.176147529602051,
  "Total Quantum duration [s]": 17.99585247039795
}
