{
  "Depth": 185.0,
  "Job durations [ms]": [16.875267028808594, 16.855239868164062, 16.524076461791992, 16.619443893432617, 16.410350799560547, 16.52383804321289, 16.5402889251709, 16.745805740356445, 16.620397567749023, 16.577720642089844, 16.654253005981445, 16.459941864013672, 16.698122024536133, 16.544342041015625, 16.541481018066406, 16.527891159057617, 16.686439514160156, 16.536474227905273, 16.59083366394043, 16.757488250732422, 16.473770141601562, 16.691207885742188, 16.67475700378418, 16.618728637695312, 16.48712158203125, 16.747713088989258, 16.66402816772461, 16.474485397338867, 16.469955444335938, 16.739606857299805, 16.72840118408203, 16.43514633178711, 16.712188720703125, 16.48116111755371, 16.612529754638672, 16.710758209228516, 16.56794548034668, 17.090320587158203, 16.847848892211914, 16.481637954711914, 16.561031341552734, 16.49951934814453, 16.643524169921875, 16.72673225402832, 16.604900360107422, 16.59250259399414, 16.4947509765625, 16.488313674926758, 16.73126220703125, 16.682147979736328, 16.673803329467773, 16.48998260498047, 16.53599739074707, 16.642093658447266, 16.577959060668945, 16.704320907592773, 16.567230224609375, 16.652584075927734, 16.513347625732422, 16.730070114135742, 16.360759735107422, 16.508102416992188, 16.702890396118164, 16.68381690979004, 16.59393310546875, 16.42584800720215, 16.583919525146484, 16.676664352416992, 16.593217849731445, 16.54338836669922, 16.616106033325195, 16.473054885864258, 16.675710678100586, 16.617536544799805, 16.6168212890625, 16.445636749267578, 16.6623592376709, 16.76201820373535, 16.606569290161133, 16.687631607055664, 16.55888557434082, 16.54839515686035, 16.701698303222656, 16.649484634399414, 16.906261444091797, 16.53313636779785],
  "Optimizer durations [ms]": [225.529, 223.467, 223.431, 262.304, 223.042, 223.112, 263.982, 224.408, 223.107, 262.277, 224.429, 222.397, 262.672, 224.415, 223.374, 263.561, 223.828, 223.166, 223.024, 262.688, 223.129, 223.495, 264.378, 222.834, 223.096, 262.89, 223.13, 223.673, 262.576, 222.642, 223.832, 264.277, 223.763, 224.338, 265.602, 223.354, 223.662, 224.478, 263.357, 224.808, 223.808, 263.513, 224.55, 224.767, 263.284, 222.945, 223.581, 262.504, 223.47, 223.28, 263.532, 224.106, 223.583, 222.698, 262.448, 223.489, 223.113, 263.031, 223.332, 222.638, 262.518, 223.945, 223.235, 265.082, 223.31, 222.619, 263.962, 223.522, 222.303, 263.467, 224.126, 223.36, 223.381, 263.925, 223.487, 223.505, 263.646, 223.308, 223.478, 262.501, 222.722, 223.077, 263.634, 223.851, 223.926, 264.378],
  "Optimizer iterations": 86,
  "Qubits": 10,
  "Total Algorithm duration [s]": 20.299,
  "Total Classic duration [s]": 18.870155071258544,
  "Total Quantum duration [s]": 1.428844928741455,
  "Expectation Value": -12.1435546875,
  "Optimal Expectation Value": -14.0,
  "Optimizer params": [0.14867478874847095, 0.2969701668140886, 0.8786822868766454, 0.5225983884189277, 0.8664983217618644, 0.7699159376973438],
  "QPU": "3010008",
  "Problem": "MCP",
  "Size": 10,
  "P": 3,
  "Shots": 4096
}