{
  "Depth": 185.0,
  "Job durations [ms]": [16.608476638793945, 16.57891273498535, 16.60609245300293, 16.50238037109375, 16.587257385253906, 16.510963439941406, 16.55101776123047, 16.56961441040039, 16.779184341430664, 16.533613204956055, 16.594886779785156, 16.566991806030273, 16.706466674804688, 16.748666763305664, 16.62302017211914, 16.44110679626465, 16.518592834472656, 16.593456268310547, 16.759157180786133, 16.55745506286621, 16.512632369995117, 16.613483428955078, 16.514062881469727, 16.550302505493164, 16.462326049804688, 16.67189598083496, 16.611814498901367, 16.549110412597656, 16.638994216918945, 16.832590103149414, 16.602277755737305, 16.724824905395508, 16.471147537231445, 16.579151153564453, 16.530990600585938, 16.436338424682617, 16.483783721923828, 16.492366790771484, 16.635656356811523, 16.533613204956055, 16.658544540405273, 16.545534133911133, 16.488313674926758, 16.473770141601562, 16.660213470458984, 16.59536361694336, 16.577482223510742, 16.576766967773438, 16.54338836669922, 17.046451568603516, 16.74485206604004, 16.68715476989746, 16.762971878051758, 16.39580726623535, 16.479015350341797, 16.475677490234375, 16.6168212890625, 16.57700538635254, 16.491174697875977, 16.466379165649414, 16.736984252929688, 16.702890396118164, 16.54338836669922, 16.555070877075195, 16.669511795043945, 16.468524932861328, 16.638517379760742, 16.43514633178711, 16.56055450439453, 16.64900779724121, 16.761302947998047, 16.762495040893555, 16.42131805419922, 16.57390594482422, 16.657590866088867, 16.530752182006836, 16.925811767578125, 16.51167869567871, 16.415834426879883, 16.579866409301758, 16.664743423461914, 16.536235809326172, 16.477584838867188, 16.821861267089844, 16.455650329589844, 16.739606857299805, 16.697406768798828, 16.581058502197266, 16.613006591796875, 16.45064353942871, 16.612529754638672],
  "Optimizer durations [ms]": [264.887, 223.015, 223.78, 262.116, 223.697, 222.612, 262.881, 223.674, 224.079, 263.524, 222.775, 223.399, 224.699, 263.467, 223.325, 223.644, 264.309, 223.839, 222.793, 261.902, 223.182, 223.015, 263.066, 223.04, 223.086, 263.476, 223.344, 223.256, 223.521, 263.012, 223.352, 222.95, 263.06, 223.709, 222.671, 262.975, 224.496, 222.6, 263.299, 223.885, 222.846, 264.214, 223.936, 222.175, 222.244, 262.913, 223.195, 222.886, 264.631, 222.874, 222.874, 260.987, 223.09, 223.473, 263.078, 222.972, 222.754, 263.075, 223.273, 222.857, 263.541, 222.82, 224.211, 223.323, 263.783, 223.994, 223.257, 264.422, 223.294, 223.782, 262.3, 223.663, 222.843, 262.831, 223.579, 224.082, 263.014, 223.255, 224.676, 222.883, 262.847, 223.485, 222.47, 263.541, 222.587, 222.888, 261.086, 223.278, 222.333, 262.625, 223.057],
  "Optimizer iterations": 91,
  "Qubits": 10,
  "Total Algorithm duration [s]": 21.473,
  "Total Classic duration [s]": 19.963002155303954,
  "Total Quantum duration [s]": 1.509997844696045,
  "Expectation Value": -12.60791015625,
  "Optimal Expectation Value": -14.0,
  "Optimizer params": [0.019761156696718397, 0.42458684916733747, 0.5655710885654787, 0.9881347726225663, 0.9665980145891876, 0.23472555396487446],
  "QPU": "3010008",
  "Problem": "MCP",
  "Size": 10,
  "P": 3,
  "Shots": 4096
}