{
  "Depth": 2.0,
  "Expectation Value": -2.5774121284484863,
  "Job durations [ms]": [4379.783391952515, 4443.737268447876, 4265.190839767456, 4416.6998863220215, 4516.208648681641, 4288.414478302002, 4532.925844192505, 4415.292739868164, 4465.47269821167, 4314.449310302734, 4525.342226028442, 4377.549886703491, 4520.038604736328, 4470.576286315918, 4336.042404174805, 4424.672603607178, 4476.395845413208, 4448.635101318359, 4497.876405715942, 4434.202671051025, 4596.014976501465, 4419.753313064575, 4481.875896453857, 4473.526477813721, 4336.2877368927, 4394.164085388184, 4308.559894561768, 4339.829921722412, 4312.925100326538, 4477.245330810547, 4318.694829940796, 4494.405508041382, 4447.373867034912, 4399.415969848633, 4505.303144454956, 4402.018070220947, 4381.6587924957275, 4339.969873428345, 4413.555860519409, 4456.576824188232, 4406.724214553833, 4254.421234130859, 4504.350185394287, 4419.3243980407715, 4331.429243087769, 4427.083492279053, 4371.941566467285, 4420.234441757202, 4312.05415725708, 4407.183647155762, 4457.7953815460205, 4384.287118911743, 4345.126628875732, 4454.05912399292, 4338.695764541626, 4354.773044586182, 4416.449308395386, 4340.145587921143, 4363.424301147461, 4478.421688079834, 4501.363277435303, 4482.153415679932],
  "Optimal Expectation Value": -2.7446999549865723,
  "Optimizer durations [ms]": [40080.604, 40461.2, 39510.647, 40971.696, 39232.259, 39768.149, 40042.965, 40282.078, 40140.726, 48817.324, 41047.367, 39810.134, 40791.791, 87368.854, 41408.378, 40104.676, 49507.263, 49853.148, 41620.063, 39907.614, 39113.527, 40623.381, 239255.457, 40710.824, 39483.728, 40651.19, 39696.316, 40940.151, 38459.628, 40962.202, 38834.358, 41431.536, 39654.808, 39923.724, 39885.308, 40851.555, 38893.171, 48930.517, 40816.48, 40557.584, 47481.606, 43723.245, 38669.212, 58876.653, 51352.42, 39963.608, 59753.582, 70152.716, 74960.062, 65158.806, 69561.057, 61419.106, 69020.307, 71446.656, 39626.572, 58428.5, 40434.913, 39405.518, 47100.368, 43102.594, 40786.265, 59834.303],
  "Optimizer iterations": 62,
  "Optimizer params": [0.9496523219630311, 0.49759986614009305, 0.9762870833977577, 0.49848196354545005, 0.5128150265477259],
  "P": 0,
  "Problem": "RH",
  "QPU": "402002E",
  "Qubits": 5,
  "Shots": 4096,
  "Size": 5,
  "Total Algorithm duration [s]": 3080.66,
  "Total Classic duration [s]": 2807.0398961639403,
  "Total Quantum duration [s]": 273.62010383605957
}
