{
  "Circuit execution durations [ms]": [109.76529121398926, 108.9320182800293, 108.99019241333008, 109.37929153442383, 108.67810249328613, 111.06109619140625, 110.89897155761719, 109.9402904510498, 111.81807518005371, 107.21254348754883, 106.71353340148926, 111.89699172973633, 113.64412307739258, 114.26663398742676, 115.19622802734375, 115.97013473510742, 111.39297485351563, 109.44771766662598, 114.40038681030273, 110.28218269348145, 112.81466484069824, 111.6323471069336, 161.55648231506348, 109.80558395385742, 110.81409454345703, 112.53857612609863, 110.5501651763916, 110.26334762573242, 111.03248596191406, 112.2732162475586, 113.12174797058105, 158.71667861938477, 114.14551734924316, 111.22465133666992, 114.46547508239746, 110.01324653625488, 109.02714729309082, 113.59477043151855, 111.86075210571289, 113.68346214294434, 158.3847999572754, 111.41824722290039, 109.43102836608887, 114.66479301452637, 112.27178573608398, 111.11569404602051, 111.07683181762695, 113.0669116973877, 115.37337303161621, 159.29341316223145, 111.77802085876465, 110.77404022216797, 109.46011543273926, 108.87575149536133, 110.47649383544922, 110.69560050964355, 111.01627349853516, 112.83183097839355, 157.40466117858887, 112.23626136779785, 110.66746711730957, 112.28466033935547, 107.44524002075195, 111.30571365356445, 111.96780204772949, 110.26978492736816, 109.65418815612793, 164.01004791259766, 109.86471176147461, 109.09724235534668, 113.42597007751465, 110.67700386047363, 112.69187927246094, 112.40553855895996, 108.88528823852539, 110.52060127258301, 161.1957550048828, 113.29269409179688, 106.2626838684082, 112.08295822143555, 113.61145973205566, 109.76004600524902, 114.60399627685547, 105.92842102050781, 111.87505722045898, 158.90812873840332, 116.77122116088867, 115.26083946228027],
  "Depth": 131.0,
  "Expectation Value": -7.68310546875,
  "Optimal Expectation Value": -10.0,
  "Optimizer durations [ms]": [401.491, 445.919, 448.762, 453.067, 403.442, 447.981, 451.153, 451.49, 456.961, 400.267, 441.667, 452.772, 456.957, 409.06, 455.024, 458.797, 454.664, 452.164, 409.732, 448.928, 451.225, 453.621, 453.65, 403.683, 459.963, 456.049, 455.75, 403.163, 448.724, 451.518, 458.134, 450.136, 411.867, 450.198, 457.833, 455.023, 402.281, 454.523, 450.757, 459.212, 450.781, 407.749, 449.824, 458.388, 457.702, 403.581, 449.954, 452.136, 460.635, 451.93, 404.165, 449.662, 451.165, 452.851, 403.09, 450.066, 450.025, 456.167, 448.902, 408.625, 453.263, 455.12, 450.361, 404.985, 448.904, 449.944, 454.669, 457.862, 403.272, 450.003, 457.178, 458.995, 405.895, 450.651, 446.991, 452.558, 457.084, 408.171, 445.203, 455.023, 459.866, 404.332, 452.717, 442.401, 456.635, 452.487, 410.409, 457.203],
  "Optimizer iterations": 88,
  "Optimizer params": [0.18043846071991065, 0.9446196952443962, 0.48989281039240784, 0.3034308742387618, 0.6079924589448378, 0.07920209772286714],
  "P": 3,
  "Problem": "MCP",
  "QJob durations [ms]": [207.94010162353516, 207.4730396270752, 207.64899253845215, 259.3562602996826, 208.79101753234863, 210.02912521362305, 210.59918403625488, 209.49029922485352, 262.8955841064453, 205.57641983032227, 203.98688316345215, 213.64092826843262, 261.11459732055664, 214.27202224731445, 218.353271484375, 217.38624572753906, 211.3049030303955, 258.4803104400635, 215.12341499328613, 209.7949981689453, 212.4466896057129, 210.79158782958984, 259.594202041626, 209.13100242614746, 212.3281955718994, 213.09137344360352, 261.0962390899658, 209.08761024475098, 210.33000946044922, 212.7547264099121, 214.11728858947754, 256.1626434326172, 213.97161483764648, 210.2797031402588, 215.1777744293213, 260.3411674499512, 207.9312801361084, 215.83247184753418, 211.6377353668213, 215.29245376586914, 256.59799575805664, 213.03558349609375, 209.92279052734375, 216.12167358398438, 262.73465156555176, 209.3513011932373, 211.43341064453125, 213.25945854187012, 216.87984466552734, 258.07929039001465, 210.1595401763916, 209.71393585205078, 209.84292030334473, 258.544921875, 209.3186378479004, 212.40472793579102, 211.05074882507324, 213.13881874084473, 254.5909881591797, 212.2941017150879, 209.64312553405762, 213.23394775390625, 256.5298080444336, 210.89935302734375, 211.1365795135498, 210.9665870666504, 209.88869667053223, 263.71169090270996, 209.3980312347412, 208.33277702331543, 215.55328369140625, 265.216588973999, 211.61675453186035, 211.95507049560547, 207.95750617980957, 209.5475196838379, 260.5311870574951, 214.0054702758789, 203.87864112854004, 213.01746368408203, 266.17908477783203, 209.78116989135742, 214.57982063293457, 203.53388786315918, 213.06514739990234, 258.0525875091553, 216.4921760559082, 216.22943878173828],
  "QPU": "3000013",
  "Qubits": 7,
  "Queue durations [ms]": [0.0, 0.0, 0.0, 0.0, 0.0, 0.0, 0.0, 0.0, 0.0, 0.0, 0.0, 0.0, 0.0, 0.0, 0.0, 0.0, 0.0, 0.0, 0.0, 0.0, 0.0, 0.0, 0.0, 0.0, 0.0, 0.0, 0.0, 0.0, 0.0, 0.0, 0.0, 0.0, 0.0, 0.0, 0.0, 0.0, 0.0, 0.0, 0.0, 0.0, 0.0, 0.0, 0.0, 0.0, 0.0, 0.0, 0.0, 0.0, 0.0, 0.0, 0.0, 0.0, 0.0, 0.0, 0.0, 0.0, 0.0, 0.0, 0.0, 0.0, 0.0, 0.0, 0.0, 0.0, 0.0, 0.0, 0.0, 0.0, 0.0, 0.0, 0.0, 0.0, 0.0, 0.0, 0.0, 0.0, 0.0, 0.0, 0.0, 0.0, 0.0, 0.0, 0.0, 0.0, 0.0, 0.0, 0.0, 0.0],
  "Shots": 4096,
  "Size": 7,
  "Total Algorithm duration [s]": 38.907,
  "Total Classic duration [s]": 19.378937894821163,
  "Total Quantum duration [s]": 19.528062105178833
}
