{
  "Depth": 629.0,
  "Expectation Value": -2.936500072479248,
  "Job durations [ms]": [4.2055, 4.1818, 4.1798, 4.184, 4.201, 4.196, 4.1789000000000005, 4.226, 4.2124, 4.2451, 4.2011, 4.2187, 4.1823, 4.1818, 4.207800000000001, 4.3266, 4.5205, 4.0527999999999995, 4.2177, 4.199, 4.2167, 4.3995, 4.221500000000001, 4.2278, 4.2831, 4.1848, 4.1993, 4.1957, 4.139600000000001, 4.2004, 4.1957, 4.198300000000001, 4.192, 4.2082, 4.1914, 4.1585, 4.2108, 4.3216, 4.424499999999999, 4.588100000000001, 4.2562, 4.2477, 4.1871, 4.1939, 4.1453999999999995, 4.1972, 4.1976, 4.1933, 4.1604, 4.2223, 4.2674, 4.2387, 4.1464, 4.2021999999999995, 4.2325, 4.1671, 4.1932, 4.2406, 4.2004, 4.2137, 4.2145, 4.4128, 4.5528, 4.4590000000000005, 4.2398, 4.2021999999999995, 4.2401, 4.2018, 4.2067, 4.1886, 4.1756, 4.1933, 4.1948, 4.2126, 4.2246999999999995, 4.1385, 4.1883, 4.150799999999999, 4.1444, 4.2086, 4.228899999999999, 4.1815999999999995, 4.2135, 4.2127, 4.1601, 4.2369, 4.0855, 4.166, 4.1705, 4.177700000000001, 4.4202, 4.269399999999999, 4.224, 4.177700000000001],
  "Optimal Expectation Value": -3.0,
  "Optimizer durations [ms]": [42.922, 42.516, 42.691, 46.478, 42.589, 42.642, 42.719, 43.027, 43.018, 43.191, 42.926, 43.08, 42.641, 42.433, 42.814, 44.114, 46.214, 50.809, 42.776, 42.592, 42.881, 49.421, 42.955, 43.142, 43.401, 42.495, 43.11, 42.734, 42.211, 42.91, 42.691, 42.63, 42.508, 42.937, 42.817, 42.443, 43.058, 44.064, 49.704, 46.731, 48.391, 43.331, 42.656, 42.654, 42.127, 42.938, 43.435, 42.729, 42.301, 43.083, 43.411, 43.171, 42.182, 42.769, 42.905, 42.354, 42.533, 43.278, 42.669, 42.742, 42.96, 49.614, 47.506, 45.43, 42.975, 42.661, 43.239, 42.911, 42.695, 42.755, 42.344, 42.744, 42.717, 42.893, 43.066, 42.0, 42.614, 42.211, 42.516, 42.679, 43.098, 42.642, 42.716, 42.911, 42.207, 50.797, 50.801, 47.444, 42.475, 42.598, 44.921, 48.474, 42.9, 42.701],
  "Optimizer iterations": 94,
  "Optimizer params": [0.18399180581030994, 0.2855523672872739, 0.99353402947329, 0.9599134306421673, 0.10084518596068055, 0.07709322597272346],
  "P": 3,
  "Problem": "MIS",
  "QPU": "7000000",
  "Qubits": 14,
  "Shots": 4096,
  "Size": 11,
  "Total Algorithm duration [s]": 4.104,
  "Total Classic duration [s]": 3.7069458,
  "Total Quantum duration [s]": 0.3970542000000001
}
