{
  "Depth": 629.0,
  "Expectation Value": -2.9178149700164795,
  "Job durations [ms]": [4.1447, 4.1554, 4.223, 4.128, 4.1483, 4.1837, 4.1882, 4.1867, 4.2357000000000005, 4.057200000000001, 4.2975, 4.1535, 4.1425, 4.413, 4.2965, 4.189, 4.2026, 4.1471, 4.160900000000001, 4.1943, 4.1166, 4.1729, 4.1419, 4.1423, 4.208, 4.1669, 4.1563, 4.1163, 4.1497, 4.1894, 4.4549, 4.202, 4.4282, 4.1796999999999995, 4.125400000000001, 4.2009, 4.151, 4.1770000000000005, 4.1989, 4.1196, 4.1418, 4.1419999999999995, 4.1585, 4.1539, 4.162800000000001, 4.1370000000000005, 4.152, 4.125400000000001, 4.132000000000001, 4.1861, 4.1699, 4.1843, 4.2631, 4.3167, 4.2641, 4.4875, 4.0099, 4.2278, 4.1804, 4.2517, 4.1566, 4.153300000000001, 4.1898, 4.1634, 4.1857, 4.1822, 4.1319, 4.1773, 4.1639, 4.162, 4.1944, 4.1976, 4.197, 4.2002999999999995, 4.1699, 4.1788, 4.1834999999999996, 4.3551, 4.464799999999999, 4.2958, 4.228, 4.1598, 4.1833, 4.1729, 4.0957, 4.2657, 4.0891, 4.209700000000001, 4.1957, 4.186299999999999, 4.1766, 4.1583000000000006, 4.1757, 4.1518, 4.1569, 4.189100000000001, 4.1717, 4.1696, 4.1579, 4.287, 4.2134],
  "Optimal Expectation Value": -3.0,
  "Optimizer durations [ms]": [42.649, 42.413, 43.177, 42.037, 42.053, 42.563, 42.597, 42.51, 52.761, 50.958, 44.702, 42.368, 42.3, 44.847, 47.278, 46.507, 42.785, 42.232, 42.227, 42.646, 41.923, 42.329, 42.003, 42.269, 42.844, 42.462, 42.274, 42.011, 42.185, 42.694, 45.346, 52.112, 50.062, 42.478, 42.066, 42.75, 42.287, 42.382, 42.688, 42.062, 42.112, 42.28, 42.331, 42.393, 42.288, 41.985, 42.235, 42.027, 42.124, 42.623, 42.489, 42.444, 43.378, 43.81, 53.268, 45.584, 49.429, 43.034, 42.658, 43.357, 42.186, 42.412, 42.653, 42.459, 42.489, 42.762, 41.884, 42.365, 42.54, 42.234, 42.729, 42.808, 42.701, 42.813, 42.476, 42.53, 42.702, 44.207, 45.31, 49.161, 43.0, 42.319, 42.407, 52.292, 41.634, 43.571, 49.12, 42.975, 42.605, 42.526, 42.422, 42.42, 42.351, 42.354, 42.213, 42.634, 42.425, 42.285, 42.463, 43.515, 52.568],
  "Optimizer iterations": 101,
  "Optimizer params": [0.6282193016678213, 0.9344321916375945, 0.9693847994625968, 0.491129623799768, 0.986912299219784, 0.9871839659795064],
  "P": 3,
  "Problem": "MIS",
  "QPU": "7000000",
  "Qubits": 14,
  "Shots": 4096,
  "Size": 11,
  "Total Algorithm duration [s]": 4.402,
  "Total Classic duration [s]": 3.9786099000000004,
  "Total Quantum duration [s]": 0.42339009999999994
}
