{
  "Depth": 629.0,
  "Expectation Value": -2.923947811126709,
  "Job durations [ms]": [4.1512, 4.188899999999999, 4.1541, 4.1859, 4.1605, 4.2164, 4.483499999999999, 4.433999999999999, 3.9581, 4.4021, 3.9987, 4.4405, 4.5676, 4.1755, 4.2398, 4.1758999999999995, 4.1701999999999995, 4.1866, 4.1661, 4.1736, 4.1921, 4.2024, 4.1506, 4.1684, 4.168200000000001, 4.1827000000000005, 4.1234, 4.1531, 4.3533, 4.6565, 4.0372, 4.2427, 4.2043, 4.1822, 4.1642, 4.183400000000001, 4.184, 4.21, 4.1821, 4.184, 4.1819, 4.1514999999999995, 4.234, 4.1288, 4.1849, 4.202100000000001, 4.1652, 4.1322, 4.188, 4.1329, 4.2014000000000005, 4.35, 4.2333, 4.5339, 4.1989, 4.170100000000001, 4.1696, 4.2203, 4.1792, 4.1915, 4.409800000000001, 4.2716, 4.1971, 4.2208000000000006, 4.2021999999999995, 4.2261, 4.207599999999999, 4.2007, 4.1912, 4.1463, 4.2981, 4.1962, 4.1798, 4.1614, 4.194599999999999, 4.1977, 4.5238, 4.0915, 4.2105, 4.162, 4.2756, 4.0953, 4.165699999999999, 4.264600000000001, 4.2004, 4.1742, 4.196400000000001, 4.2202, 4.2082, 4.1538],
  "Optimal Expectation Value": -3.0,
  "Optimizer durations [ms]": [42.402, 42.672, 42.296, 42.677, 45.072, 42.961, 45.456, 45.143, 49.861, 44.878, 45.719, 44.986, 46.847, 42.376, 43.148, 42.456, 42.51, 42.606, 42.291, 42.659, 42.625, 42.711, 45.239, 42.421, 42.457, 42.596, 41.953, 42.48, 44.571, 52.385, 50.791, 46.751, 42.959, 42.442, 42.506, 42.614, 42.744, 43.945, 42.463, 42.6, 42.507, 42.258, 43.006, 41.898, 42.44, 42.866, 42.396, 42.213, 42.72, 42.213, 43.042, 44.255, 52.657, 46.371, 47.72, 42.593, 42.385, 42.939, 42.664, 42.503, 44.849, 43.395, 42.642, 43.119, 42.637, 43.071, 42.875, 42.744, 42.833, 42.077, 43.76, 42.82, 42.397, 42.265, 42.591, 42.825, 49.348, 46.426, 42.876, 47.141, 44.08, 51.512, 42.438, 48.024, 42.764, 42.586, 42.731, 42.831, 42.737, 42.343],
  "Optimizer iterations": 90,
  "Optimizer params": [0.1114742099096909, 0.6228426513307516, 0.9999993169446671, 0.2364604263693295, 0.29635531850044167, 0.9199911911656203],
  "P": 3,
  "Problem": "MIS",
  "QPU": "7000000",
  "Qubits": 14,
  "Shots": 4096,
  "Size": 11,
  "Total Algorithm duration [s]": 3.944,
  "Total Classic duration [s]": 3.5646529,
  "Total Quantum duration [s]": 0.37934709999999977
}
