{
  "Depth": 629.0,
  "Expectation Value": -2.873800754547119,
  "Job durations [ms]": [4.1842, 4.4011, 4.532900000000001, 4.164499999999999, 4.2294, 4.2043, 4.1623, 4.1846000000000005, 4.155200000000001, 4.1873, 4.2082999999999995, 4.1497, 4.176799999999999, 4.144100000000001, 4.1494, 4.1855, 4.1456, 4.163, 4.587899999999999, 4.4453000000000005, 4.422, 4.1979, 4.1436, 4.2096, 4.162599999999999, 4.1935, 4.4343, 4.4287, 4.2119, 4.2065, 4.1564000000000005, 4.1308, 4.2351, 4.1578, 4.1341, 4.1922, 4.2138, 4.1682999999999995, 4.1485, 4.193, 4.2168, 4.438400000000001, 4.4491000000000005, 4.455, 4.4062, 4.1749, 4.2279, 4.1703, 4.1364, 4.1929, 4.306, 4.1854, 4.1939, 4.1959, 4.1639, 4.162599999999999, 4.1723, 4.1888000000000005, 4.1463, 4.2277000000000005, 4.1922, 4.1811, 4.2066, 4.1873, 4.2101999999999995, 4.495, 4.205699999999999, 4.2063, 4.181500000000001, 3.9791999999999996, 4.3259, 4.0809, 4.1572, 4.1829, 4.2145, 4.1651, 4.21, 4.1424, 4.1693, 4.1612, 4.162, 4.1364, 4.2139, 4.1559, 4.163, 4.1725, 4.1978],
  "Optimal Expectation Value": -3.0,
  "Optimizer durations [ms]": [42.977, 44.843, 46.703, 42.957, 46.042, 42.883, 42.413, 42.668, 42.142, 42.683, 42.952, 42.213, 42.376, 42.081, 42.393, 42.625, 42.392, 42.526, 46.607, 50.427, 50.033, 42.911, 42.194, 42.874, 42.398, 42.62, 45.389, 44.976, 42.863, 42.722, 42.39, 42.207, 43.108, 42.345, 42.21, 42.587, 42.876, 42.61, 42.191, 42.898, 42.918, 45.117, 50.107, 49.486, 44.79, 42.394, 42.92, 42.339, 42.164, 42.605, 43.73, 42.72, 42.821, 42.618, 42.241, 42.236, 42.308, 42.501, 42.324, 43.05, 42.631, 42.5, 42.843, 42.454, 42.73, 47.082, 48.276, 42.72, 42.674, 50.272, 43.881, 51.147, 42.365, 42.589, 42.76, 42.28, 42.888, 42.279, 42.319, 42.501, 42.221, 42.114, 42.786, 42.339, 42.425, 42.542, 42.581],
  "Optimizer iterations": 87,
  "Optimizer params": [0.15273000903737813, 0.12772433930757465, 0.9185001654624094, 0.490765670121184, 0.5058869285827151, 0.9960915674977497],
  "P": 3,
  "Problem": "MIS",
  "QPU": "7000000",
  "Qubits": 14,
  "Shots": 4096,
  "Size": 11,
  "Total Algorithm duration [s]": 3.784,
  "Total Classic duration [s]": 3.4170312999999997,
  "Total Quantum duration [s]": 0.3669687
}
