{
  "Depth": 629.0,
  "Expectation Value": -2.9379920959472656,
  "Job durations [ms]": [4.2241, 4.1779, 4.1407, 4.155200000000001, 4.209499999999999, 4.1824, 4.2651, 4.1634, 4.229100000000001, 4.1686, 4.251399999999999, 4.1855, 4.1864, 4.207800000000001, 4.1518, 4.1541, 4.1902, 4.1785, 4.6719, 4.284, 4.1062, 4.1971, 4.2493, 4.169499999999999, 4.0131000000000006, 4.2153, 4.2135, 4.1542, 4.1944, 4.1951, 4.1575, 4.1947, 4.2355, 4.1792, 4.160900000000001, 4.1881, 4.1377999999999995, 4.184399999999999, 4.1598, 4.169499999999999, 4.182, 4.1538, 4.2281, 3.9933, 4.3093, 4.1857999999999995, 4.1247, 4.4775, 4.2518, 4.2604, 4.2006, 4.2088, 4.1862, 4.2078999999999995, 4.1767, 4.2027, 4.1883, 4.1379, 4.1487, 4.1681, 4.1923, 4.1905, 4.2196, 4.2496, 4.413399999999999, 4.3766, 4.4799999999999995, 4.1784, 4.1938, 4.160699999999999, 4.186999999999999, 4.1414, 4.1341, 4.158799999999999, 4.1575, 4.1802, 4.1692, 4.2122, 4.1696, 4.2669, 4.2015, 4.1689, 4.1317, 4.1983999999999995, 4.1720999999999995, 4.1791, 4.1707, 4.5084, 4.2419, 4.2612, 4.0503, 4.252599999999999, 4.2002999999999995, 4.158, 4.1606000000000005, 4.147900000000001, 4.1642, 4.1655, 4.1784, 4.1629, 4.1431000000000004, 4.2167, 4.1789000000000005, 4.1836, 4.1967, 4.2708, 4.1575, 4.1704, 4.193, 4.215, 4.166399999999999, 4.3453, 4.4506, 3.9989, 4.1753, 4.2148, 4.3631, 4.3926, 4.2541],
  "Optimal Expectation Value": -3.0,
  "Optimizer durations [ms]": [43.198, 43.341, 42.08, 45.902, 42.874, 46.788, 43.43, 42.441, 43.083, 42.497, 43.342, 42.695, 42.604, 42.907, 42.112, 42.272, 42.607, 42.394, 47.515, 53.144, 50.642, 43.434, 43.377, 42.575, 49.794, 42.869, 42.71, 42.194, 42.692, 42.744, 42.438, 42.705, 43.083, 42.468, 42.447, 42.6, 42.079, 42.471, 42.207, 42.57, 42.723, 43.707, 52.583, 50.228, 43.769, 42.632, 42.439, 45.585, 45.406, 43.53, 42.896, 42.99, 42.628, 42.925, 42.407, 42.945, 42.793, 41.979, 42.054, 42.491, 42.769, 42.745, 42.951, 43.216, 49.768, 51.095, 50.019, 42.46, 42.635, 42.431, 42.682, 42.187, 42.11, 42.39, 42.472, 42.616, 42.7, 42.787, 42.494, 43.475, 42.766, 42.659, 41.917, 42.683, 42.532, 42.612, 42.325, 45.973, 50.744, 43.474, 50.825, 43.304, 42.843, 42.384, 42.235, 45.053, 42.526, 42.23, 42.368, 42.479, 42.193, 42.945, 42.373, 42.584, 42.754, 43.614, 42.48, 42.467, 42.52, 42.937, 42.441, 49.894, 45.676, 50.309, 42.619, 42.985, 44.594, 49.977, 43.798],
  "Optimizer iterations": 119,
  "Optimizer params": [0.12106904963445037, 0.885516909626766, 0.11834476588201345, 8.641774947484079e-05, 1.0, 0.00031260739152836237],
  "P": 3,
  "Problem": "MIS",
  "QPU": "7000000",
  "Qubits": 14,
  "Shots": 4096,
  "Size": 11,
  "Total Algorithm duration [s]": 5.213,
  "Total Classic duration [s]": 4.7125615,
  "Total Quantum duration [s]": 0.5004385000000001
}
