{
  "Depth": 515.0,
  "Expectation Value": -2.397498846054077,
  "Job durations [ms]": [3.2234, 3.1582, 3.1593, 3.1362, 3.1468, 3.1841, 3.1315, 3.2041, 3.2104, 3.1658, 3.1305, 3.254, 3.1903, 3.1563, 3.2262, 3.1322, 3.1635999999999997, 3.1571, 3.1660999999999997, 3.1676, 3.3129, 3.1408, 3.1349, 3.1178, 3.1723, 3.1663, 3.2601, 3.1788, 3.2706, 3.1871, 3.1765, 3.189, 3.2194, 3.1391, 3.1414, 3.1576999999999997, 3.1401, 3.2098, 3.1422, 3.1809999999999996, 3.1691000000000003, 3.2158, 3.1687, 3.1828, 3.1734, 3.1729000000000003, 3.1534000000000004, 3.1774, 3.1684, 3.1273, 3.1664000000000003, 3.1613, 3.1504, 3.1710000000000003, 3.1052, 3.2188999999999997, 3.1497, 3.1868, 3.1357999999999997, 3.3592, 3.1458, 3.1273, 3.1159999999999997, 3.1548000000000003, 3.0841000000000003, 3.1618000000000004, 3.2023, 3.1999, 3.143, 3.1592000000000002, 3.2049000000000003, 3.16, 3.1261, 3.1828999999999996, 3.1546, 3.1591, 3.2317, 3.265, 3.1875, 3.1473, 3.2022, 3.2194, 3.269, 3.2063, 3.2902, 3.1721000000000004, 3.2696, 3.1468999999999996, 3.1447, 3.2786999999999997, 3.1698, 3.1771, 3.1391, 3.1712],
  "Optimal Expectation Value": -3.0,
  "Optimizer durations [ms]": [42.602, 41.731, 41.781, 41.654, 41.537, 41.84, 41.483, 37.528, 42.303, 42.126, 41.343, 39.227, 42.058, 41.913, 42.469, 41.487, 41.894, 41.964, 42.151, 41.777, 43.359, 41.658, 41.607, 41.448, 41.909, 42.159, 42.932, 42.104, 37.894, 41.902, 42.089, 42.202, 42.432, 41.646, 41.651, 41.947, 41.462, 42.398, 41.713, 41.901, 41.774, 42.503, 42.072, 42.026, 42.03, 41.775, 42.072, 41.857, 41.943, 41.507, 41.727, 41.803, 41.504, 41.733, 41.317, 42.44, 42.029, 42.188, 41.568, 39.021, 41.638, 41.537, 41.381, 41.917, 41.258, 41.839, 42.254, 42.278, 41.712, 41.76, 42.333, 41.868, 41.444, 41.993, 41.999, 41.857, 42.714, 38.026, 42.146, 41.548, 42.559, 42.498, 37.965, 42.197, 43.268, 41.828, 38.42, 41.738, 41.854, 38.276, 41.819, 42.187, 41.547, 42.131],
  "Optimizer iterations": 94,
  "Optimizer params": [1.0, 0.04725941368058235, 0.33071223517651, 0.9999999999999999, 0.009618805040983789, 0.31711516508245446],
  "P": 3,
  "Problem": "MIS",
  "QPU": "7000000",
  "Qubits": 12,
  "Shots": 4096,
  "Size": 9,
  "Total Algorithm duration [s]": 3.914,
  "Total Classic duration [s]": 3.615215,
  "Total Quantum duration [s]": 0.298785
}
