{
  "Depth": 515.0,
  "Expectation Value": -2.452585220336914,
  "Job durations [ms]": [3.1825, 3.1602, 3.1545, 3.1424, 3.1216999999999997, 3.2637, 3.1507, 3.106, 3.1328, 3.1504, 3.1854, 3.2754, 3.1447, 3.16, 3.1268, 3.1721000000000004, 3.2232, 3.1369000000000002, 3.1603, 3.1383, 3.3657, 3.184, 3.1573, 3.1151, 3.1584999999999996, 3.0684, 3.166, 3.1124, 3.1288, 3.1622999999999997, 3.1687, 3.1515, 3.155, 3.2068000000000003, 3.209, 3.1498, 3.1616999999999997, 3.1592000000000002, 3.1497, 3.1380000000000003, 3.2513, 3.1959000000000004, 3.1592000000000002, 3.1813000000000002, 3.2363, 3.1575, 3.1854999999999998, 3.1356, 3.1728, 3.1413, 3.2625, 3.1742, 3.1664000000000003, 3.1531, 3.255, 3.2826999999999997, 3.1324, 3.156, 3.1576, 3.1693, 3.1452, 3.1868, 3.1350000000000002, 3.1382, 3.169, 3.1959000000000004, 3.1378999999999997, 3.0882, 3.1308, 3.025, 2.8926999999999996, 3.0872, 3.0904000000000003, 3.1317, 3.1389, 3.1919, 3.1725999999999996, 3.28, 3.1673, 3.1822, 3.1403, 3.1306, 3.1481, 3.1518, 3.1673999999999998, 3.1532999999999998, 3.1711, 3.1504, 3.1378, 3.2269, 3.1835999999999998, 3.1345, 3.2901, 3.1538999999999997, 3.1508, 3.1659, 3.1821, 3.1997, 3.1782999999999997, 3.1833, 3.1589, 3.1509, 3.1792000000000002, 3.1281999999999996, 3.1599000000000004, 3.2809, 3.1859, 3.1749, 3.2306, 3.1279, 3.1338, 3.1536, 3.1738999999999997, 3.0807, 3.4344, 3.1541, 3.1927000000000003, 3.1473999999999998, 3.2185, 3.1087, 3.1473999999999998, 3.1838, 3.1422, 3.1965000000000003, 3.1601, 3.1458, 3.1793, 3.144, 3.1228, 3.1849, 3.1669, 3.1349, 3.1059, 3.1963999999999997, 3.1336, 3.2575, 3.1384, 3.2598000000000003, 3.09, 3.1606, 3.0609, 3.1028000000000002, 3.1747, 3.1300999999999997, 3.1578, 3.1014, 3.1851000000000003, 3.1584999999999996, 3.1827, 3.1411, 3.1209, 3.1307, 3.1784, 3.2641],
  "Optimal Expectation Value": -3.0,
  "Optimizer durations [ms]": [42.061, 41.72, 41.885, 41.68, 41.206, 38.166, 41.884, 41.256, 41.66, 41.614, 42.208, 38.231, 41.73, 41.996, 41.586, 41.97, 42.693, 41.767, 41.582, 41.532, 39.187, 42.121, 41.724, 41.46, 41.8, 40.989, 41.64, 41.506, 41.347, 42.25, 42.13, 41.87, 41.714, 42.441, 42.447, 41.837, 41.696, 42.148, 41.637, 41.65, 42.847, 42.216, 41.76, 42.19, 37.627, 42.018, 42.25, 41.744, 41.974, 41.666, 42.726, 42.103, 42.024, 42.048, 38.061, 38.045, 41.772, 41.555, 42.165, 42.026, 41.659, 42.26, 41.542, 41.685, 42.03, 42.205, 41.914, 40.92, 41.958, 40.436, 39.509, 41.419, 41.08, 41.477, 41.633, 42.435, 42.057, 37.993, 42.156, 41.804, 41.809, 41.568, 41.778, 41.577, 41.736, 42.052, 41.87, 41.629, 41.645, 42.596, 42.043, 41.587, 38.136, 41.764, 42.018, 41.676, 42.047, 41.991, 41.763, 42.325, 41.751, 41.665, 42.252, 41.274, 42.133, 38.3, 42.195, 42.039, 42.566, 41.633, 40.281, 41.86, 42.03, 41.341, 40.142, 41.911, 42.113, 41.918, 42.332, 41.728, 41.742, 41.956, 41.809, 42.271, 41.983, 41.817, 41.922, 41.822, 41.505, 41.911, 41.83, 41.797, 41.453, 41.98, 41.643, 38.006, 41.605, 37.986, 41.331, 41.936, 40.889, 41.374, 41.81, 41.457, 41.956, 41.42, 42.183, 41.565, 42.169, 41.45, 41.399, 41.659, 42.164, 38.004],
  "Optimizer iterations": 154,
  "Optimizer params": [0.23364127914084512, 0.9516230776968588, 1.0, 1.0, 0.07411181149442206, 0.9999974430071609],
  "P": 3,
  "Problem": "MIS",
  "QPU": "7000000",
  "Qubits": 12,
  "Shots": 4096,
  "Size": 9,
  "Total Algorithm duration [s]": 6.392,
  "Total Classic duration [s]": 5.9047163000000005,
  "Total Quantum duration [s]": 0.48728369999999993
}
