{
  "Depth": 515.0,
  "Expectation Value": -2.4349424839019775,
  "Job durations [ms]": [3.189, 3.1828, 3.1565, 3.1876, 3.2106, 3.1985, 3.2327, 3.3403, 3.1527, 3.1574, 3.1552, 3.2076000000000002, 3.2777000000000003, 3.1782999999999997, 3.1437, 3.1669, 3.2177, 3.2211000000000003, 3.1535, 3.1933000000000002, 3.1649, 3.3152, 3.2323999999999997, 3.2948999999999997, 3.2678, 3.0292000000000003, 3.2413, 3.1711, 3.1738999999999997, 3.1521000000000003, 3.1587, 3.2775, 3.1507, 3.3089999999999997, 3.2546, 3.1572, 3.2234, 3.2153, 3.1702000000000004, 3.148, 3.1871, 3.2682, 3.1909, 3.2074, 3.2051, 3.1867, 3.1859, 3.2494, 3.1401, 3.266, 3.261, 3.0161, 3.1704, 3.1682, 3.1641999999999997, 3.1877, 3.1686, 3.2895, 3.2609000000000004, 3.2302, 3.1853, 3.1849, 3.1954000000000002, 3.2913, 3.2965, 3.1422, 3.1108, 3.1838, 3.2013, 3.1425, 3.1693, 3.3165, 3.1517, 3.2012, 3.1896, 3.3275, 3.2727, 3.1657, 3.1284, 3.3317, 3.3089999999999997, 3.2323999999999997, 3.1863, 3.1435999999999997, 3.1384, 3.5239, 3.2563, 3.137, 3.1387, 3.1706999999999996, 3.279, 3.3737, 3.109, 3.3061000000000003, 3.2861000000000002, 3.1619, 3.3482999999999996, 3.3499, 3.2564, 3.1725999999999996, 3.1761, 3.2815000000000003, 3.2107, 3.2954, 3.2826999999999997, 3.3687, 3.1451000000000002, 3.1322, 3.3417999999999997, 3.3145000000000002, 3.1568, 3.3573, 3.2669, 3.2001, 3.1418, 3.1403, 3.1586000000000003, 3.2252, 3.19, 3.1432, 3.3297000000000003, 3.1757, 3.1809, 3.2881, 3.3205999999999998, 3.1484],
  "Optimal Expectation Value": -3.0,
  "Optimizer durations [ms]": [42.101, 42.211, 41.983, 42.022, 42.273, 42.284, 42.86, 38.825, 41.668, 41.969, 41.861, 42.406, 38.406, 42.097, 41.372, 41.972, 42.605, 37.428, 41.562, 42.197, 41.846, 38.34, 42.819, 38.26, 38.048, 35.763, 37.702, 41.989, 42.07, 41.931, 41.86, 38.218, 41.808, 38.515, 42.676, 42.092, 42.535, 42.514, 41.806, 41.729, 42.282, 38.075, 41.996, 42.539, 42.197, 42.352, 42.152, 37.805, 41.604, 38.198, 37.837, 35.622, 42.059, 41.761, 42.047, 42.392, 41.933, 38.132, 42.769, 42.523, 42.317, 41.996, 42.178, 38.505, 38.378, 41.939, 36.424, 42.013, 42.106, 41.774, 41.95, 38.511, 41.562, 37.363, 42.078, 38.885, 38.457, 41.731, 41.738, 38.757, 38.38, 42.602, 42.392, 41.699, 41.691, 40.651, 37.947, 41.72, 41.538, 42.168, 43.162, 40.705, 41.61, 38.6, 38.065, 41.868, 39.381, 38.903, 37.961, 42.027, 41.931, 38.347, 42.51, 38.722, 38.026, 39.36, 41.721, 41.371, 43.879, 38.659, 41.88, 39.083, 37.88, 42.307, 41.556, 41.509, 42.106, 42.614, 42.309, 41.675, 38.726, 41.877, 42.233, 38.256, 38.938, 41.726],
  "Optimizer iterations": 126,
  "Optimizer params": [1.0, 0.41227600125398667, 0.6437676424782469, 0.9951214100922678, 0.2845496024794833, 0.4973466259607151],
  "P": 3,
  "Problem": "MIS",
  "QPU": "7000000",
  "Qubits": 12,
  "Shots": 4096,
  "Size": 9,
  "Total Algorithm duration [s]": 5.139,
  "Total Classic duration [s]": 4.733926,
  "Total Quantum duration [s]": 0.4050739999999998
}
