{
  "Depth": 515.0,
  "Expectation Value": -2.3923492431640625,
  "Job durations [ms]": [3.1519, 3.1991, 3.1667, 3.2821000000000002, 3.1671, 3.2207, 3.1817, 3.1664000000000003, 3.1191999999999998, 3.1967, 3.2567, 3.2645, 3.1503, 3.1001000000000003, 3.1329000000000002, 3.1351, 3.1776999999999997, 3.1877, 3.1471, 3.1575, 3.2182999999999997, 3.1675, 3.1932, 3.2288, 3.2047, 3.1517, 3.2102, 3.1826, 3.178, 3.4987, 3.1955, 3.1885, 3.1391, 3.212, 3.1698, 3.1406, 3.2651999999999997, 3.1587, 3.1892, 3.1334, 3.1545, 3.1523, 3.1778, 3.2521999999999998, 3.1703, 3.1470000000000002, 3.1673, 3.1359, 3.1749, 3.1546, 3.1987, 3.1348000000000003, 3.214, 3.1381, 3.1665, 3.1268, 3.0957, 3.1989, 3.6116, 3.1381, 3.2079, 3.1411, 3.1621, 3.1397, 3.1363, 3.1761, 3.1860999999999997, 3.5757, 3.2528, 3.1408, 3.3146, 3.1462, 3.1418, 3.1422, 3.1753, 3.1616, 3.373, 3.143, 3.1534000000000004, 3.2199, 3.1066000000000003, 3.1473999999999998, 3.1605000000000003, 3.173, 3.1744, 3.1446, 3.1645000000000003, 3.1103, 3.2626, 3.1719999999999997, 3.1995, 3.1245000000000003, 3.2035, 3.1409, 3.164, 3.1396, 3.2365, 3.1216999999999997, 3.1281999999999996, 3.1963, 3.1773000000000002, 3.1721000000000004, 3.1792000000000002, 3.2049000000000003, 3.144],
  "Optimal Expectation Value": -3.0,
  "Optimizer durations [ms]": [41.454, 42.25, 41.789, 38.289, 41.63, 42.462, 42.034, 41.933, 41.414, 42.095, 38.03, 38.196, 41.756, 40.92, 41.674, 41.85, 41.948, 42.2, 41.413, 41.871, 42.418, 41.763, 42.148, 42.512, 42.089, 41.696, 42.4, 42.028, 42.015, 40.171, 42.371, 41.928, 41.752, 37.455, 42.011, 41.536, 38.023, 41.805, 42.085, 41.538, 41.787, 41.787, 42.049, 37.859, 41.742, 41.606, 41.597, 41.418, 42.053, 41.816, 41.999, 41.5, 42.466, 41.404, 42.104, 41.48, 41.24, 42.083, 41.656, 41.757, 42.327, 41.707, 41.815, 41.592, 41.485, 41.844, 42.005, 37.189, 37.905, 41.641, 38.324, 41.687, 41.643, 41.391, 42.159, 41.734, 38.916, 41.405, 42.11, 42.17, 41.268, 41.985, 41.831, 41.899, 41.828, 41.697, 41.862, 41.166, 38.114, 41.88, 42.205, 41.25, 42.214, 42.033, 41.684, 41.727, 42.376, 41.454, 41.348, 42.304, 42.09, 41.988, 42.005, 42.179, 41.62],
  "Optimizer iterations": 105,
  "Optimizer params": [0.999978847344157, 0.017443558741522994, 0.1332255384901532, 0.999743179143264, 0.1652849361326602, 0.999998787742847],
  "P": 3,
  "Problem": "MIS",
  "QPU": "7000000",
  "Qubits": 12,
  "Shots": 4096,
  "Size": 9,
  "Total Algorithm duration [s]": 4.349,
  "Total Classic duration [s]": 4.014465400000001,
  "Total Quantum duration [s]": 0.3345346
}
