{
  "Depth": 384.0,
  "Job durations [ms]": [134277.43935585022, 132452.08740234375, 131432.02686309814, 133227.0224094391, 132804.44264411926, 134539.77489471436, 132626.85751914978, 133392.50946044922, 132789.72482681274, 133752.45928764343, 131833.2142829895, 133183.21561813354, 131863.09909820557, 130543.87307167053, 132306.19525909424, 133224.32827949524, 132300.00710487366, 134422.03640937805, 133100.31247138977, 133142.66967773438, 133750.81181526184, 134556.62155151367, 134726.44019126892, 133315.39130210876, 133962.22114562988, 131540.9333705902, 134915.19355773926, 132231.55522346497, 134644.2892551422, 132415.14468193054, 133313.71140480042, 133068.16864013672, 133242.05827713013, 134519.69718933105, 133004.75907325745, 133087.39233016968, 133908.2109928131, 132022.26614952087, 133570.14083862305, 132489.2132282257, 132668.27392578125, 133061.55562400818, 131331.85815811157, 132941.07031822205, 132413.3358001709, 133935.75501441956, 133137.78424263, 133117.36249923706, 132291.34225845337, 133936.42401695251, 132912.44554519653, 133200.76251029968, 133960.7753753662, 133072.4036693573, 133433.37678909302, 133506.192445755, 133086.05766296387, 132637.73226737976, 134201.2414932251, 134833.46724510193, 132647.4301815033, 133837.95046806335, 132659.35802459717, 132788.20896148682, 135490.5982017517, 132738.44075202942, 132322.61085510254, 132902.14657783508, 134610.98623275757, 131372.69854545593, 131995.6705570221, 132150.24781227112, 132599.7154712677, 131890.2566432953, 132969.24257278442, 132487.48183250427, 135465.10219573975, 132768.9027786255, 131952.2774219513, 133603.65533828735, 130809.75937843323],
  "Optimizer durations [ms]": [152775.551, 150929.829, 149835.817, 151675.886, 151294.747, 153094.484, 151067.475, 151957.001, 151288.189, 152109.076, 150348.088, 151666.999, 150331.196, 148972.73, 150726.083, 151795.788, 150722.076, 152993.204, 151633.546, 151710.184, 152274.935, 153141.011, 153261.621, 151812.628, 152436.361, 150033.745, 153415.067, 150649.172, 153143.893, 150892.839, 151843.962, 151649.386, 151759.449, 153070.837, 151495.559, 151683.826, 152549.139, 150548.457, 152109.776, 150972.472, 151149.562, 151651.58, 149921.694, 151454.182, 150970.634, 152560.106, 151754.331, 151624.396, 150915.393, 152479.127, 151485.863, 151658.896, 152470.77, 151649.933, 151942.553, 152024.793, 151676.629, 151090.611, 152669.45, 153367.387, 151187.127, 152261.138, 151172.582, 151353.635, 153995.638, 151183.114, 150777.64, 151425.195, 153055.467, 149842.352, 150510.709, 150616.028, 151037.734, 150384.592, 151493.562, 150924.718, 154001.45, 151300.11, 150487.008, 152022.258, 149279.767],
  "Optimizer iterations": 81,
  "Qubits": 10,
  "Total Algorithm duration [s]": 12278.501,
  "Total Classic duration [s]": 1499.2615261802675,
  "Total Quantum duration [s]": 10779.239473819733,
  "Expectation Value": -3.327634572982788,
  "Optimal Expectation Value": -4.0,
  "Optimizer params": [0.80371544946185, 0.8906364904925874, 0.6455229559209473, 0.1596928580069325, 0.9214158422213726, 0.06437516336059404],
  "QPU": "6010003",
  "Problem": "DSP",
  "Size": 5,
  "P": 3,
  "Shots": 4096
}