{
  "Circuit execution durations [ms]": [109.5125675201416, 82.71634578704834, 83.35113525390625, 80.96861839294434, 79.69856262207031, 109.07936096191406, 80.34396171569824, 80.4203748703003, 80.04403114318848, 108.36577415466309, 108.48581790924072, 80.78122138977051, 80.72292804718018, 80.52253723144531, 135.84411144256592, 80.74367046356201, 82.32390880584717, 82.24296569824219, 109.61127281188965, 107.96916484832764, 80.26683330535889, 80.52527904510498, 80.46746253967285, 136.96229457855225, 81.00557327270508, 79.22852039337158, 80.53076267242432, 80.67095279693604, 107.22684860229492, 80.02471923828125, 80.73413372039795, 80.10423183441162, 107.48827457427979, 83.03189277648926, 79.98096942901611, 79.89859580993652, 79.7419548034668, 108.02888870239258, 79.3391466140747, 80.77263832092285, 80.38902282714844, 109.59386825561523, 109.44485664367676, 80.98328113555908, 81.42876625061035, 79.32376861572266, 134.8811388015747, 79.45394515991211, 79.41043376922607, 80.1609754562378, 106.50241374969482, 106.45937919616699, 80.09564876556396, 83.41741561889648, 80.80172538757324, 135.01453399658203, 81.3838243484497, 82.82434940338135, 81.95292949676514, 108.06310176849365, 107.07390308380127, 80.60705661773682, 79.87523078918457, 81.45594596862793, 110.26692390441895, 79.89871501922607, 81.64370059967041, 80.75213432312012, 109.48288440704346, 108.41107368469238, 82.17716217041016, 79.69903945922852, 85.31129360198975, 135.75232028961182, 80.06703853607178, 79.40590381622314, 80.02924919128418, 79.59973812103271, 107.90026187896729, 80.177903175354, 82.42261409759521, 79.7264575958252, 108.7946891784668, 79.70809936523438, 79.75161075592041, 79.08964157104492, 86.71128749847412, 136.2992525100708, 81.27212524414063, 80.83844184875488, 80.16633987426758, 106.8720817565918, 108.77525806427002, 80.16574382781982, 81.12120628356934, 80.70933818817139, 134.1722011566162, 79.52487468719482, 80.50143718719482, 80.05785942077637, 109.76219177246094, 107.2467565536499, 80.54018020629883, 79.87284660339355, 79.72121238708496, 107.1702241897583, 80.34968376159668, 80.21914958953857, 80.0238847732544, 108.87527465820313, 109.99202728271484, 81.66968822479248, 80.59215545654297, 80.99079132080078, 136.25168800354004, 79.80358600616455, 79.78451251983643, 80.45554161071777, 80.05309104919434, 109.80308055877686, 81.02607727050781, 80.40714263916016, 80.75523376464844, 109.67719554901123, 107.46216773986816, 80.24311065673828, 80.47592639923096, 79.89442348480225, 134.54186916351318, 80.92796802520752, 79.85496520996094, 80.79040050506592, 106.34040832519531, 106.52375221252441, 79.74731922149658, 80.02877235412598, 83.49132537841797, 137.1709108352661, 80.33967018127441, 80.53600788116455, 82.0307731628418, 107.0864200592041, 107.84447193145752, 80.30784130096436, 82.2230577468872, 82.99291133880615, 135.19394397735596, 81.49957656860352, 83.14895629882813, 79.97167110443115, 107.03277587890625, 108.94763469696045, 79.66029644012451, 81.6504955291748, 84.9238634109497, 136.61432266235352, 80.22665977478027, 80.40153980255127, 80.69181442260742, 109.59100723266602, 111.18006706237793, 80.53052425384521, 80.62386512756348, 82.08668231964111, 135.60938835144043, 79.95951175689697, 80.40058612823486, 79.56552505493164, 80.48093318939209, 107.37824440002441, 80.11257648468018, 83.56690406799316, 80.08849620819092, 108.29603672027588, 115.07916450500488, 80.73043823242188, 85.97707748413086, 80.00147342681885, 133.9472532272339, 81.795334815979, 79.86080646514893, 79.5525312423706, 108.79504680633545, 109.2303991317749, 80.30307292938232, 82.12411403656006, 80.09350299835205, 109.88736152648926, 80.2907943725586, 80.8795690536499, 82.49056339263916, 79.99873161315918, 107.83827304840088, 79.68413829803467, 80.13415336608887, 80.5889368057251, 108.3073616027832, 81.59518241882324, 80.291748046875, 81.60758018493652, 80.1849365234375, 108.96587371826172, 82.50832557678223, 80.85048198699951, 79.96249198913574, 111.07587814331055, 106.7270040512085, 79.31768894195557, 80.6814432144165, 81.83419704437256, 136.7206573486328, 79.99825477600098, 82.18348026275635, 80.00171184539795, 107.73813724517822, 108.23845863342285, 82.14080333709717, 80.74462413787842, 82.95059204101563, 137.58516311645508, 78.88948917388916, 80.48713207244873, 83.23276042938232, 109.80761051177979, 108.50656032562256, 81.18987083435059, 82.6328992843628, 79.84113693237305, 136.55602931976318, 79.81038093566895, 79.54061031341553, 81.7251205444336, 108.02245140075684, 108.54804515838623, 80.3978443145752, 79.97655868530273, 80.81459999084473, 108.54363441467285, 108.65592956542969, 80.12223243713379, 81.45761489868164, 79.67722415924072, 134.81271266937256, 81.32779598236084, 80.71327209472656, 80.3377628326416, 109.70509052276611, 108.97481441497803, 80.70027828216553, 84.2219591140747, 80.87432384490967, 108.8416576385498, 83.47690105438232, 80.33215999603271, 80.26337623596191, 85.43407917022705, 108.8036298751831, 84.2294692993164, 80.03675937652588, 80.19304275512695, 108.11209678649902, 80.80601692199707, 84.28525924682617, 81.47573471069336, 79.55706119537354, 109.18927192687988, 80.08003234863281, 80.27803897857666, 81.45809173583984, 108.52718353271484, 109.8794937133789, 81.88056945800781, 84.10525321960449, 82.46135711669922, 135.93661785125732, 78.78589630126953, 80.76739311218262, 80.13355731964111, 111.72199249267578, 106.60362243652344, 80.60038089752197, 79.8649787902832, 80.98053932189941, 134.99927520751953, 82.11076259613037, 81.30133152008057, 81.05242252349854, 109.36534404754639, 108.1780195236206, 81.0321569442749, 82.02207088470459, 82.51667022705078, 136.21759414672852, 80.39999008178711, 80.51860332489014, 80.1539421081543, 81.07197284698486, 109.07411575317383, 80.62160015106201, 80.75070381164551, 80.6034803390503, 107.60712623596191, 79.68401908874512, 82.32152462005615, 80.3745985031128, 79.71727848052979, 139.84763622283936, 80.7720422744751, 80.67810535430908, 79.83803749084473, 107.38193988800049, 108.66343975067139, 80.53791522979736, 79.7353982925415, 82.99994468688965, 107.65159130096436, 79.68580722808838, 80.61456680297852, 79.64277267456055, 84.01751518249512, 108.5214614868164, 79.17821407318115, 80.13010025024414, 80.36088943481445, 108.91449451446533, 107.39409923553467, 79.70190048217773, 80.88099956512451, 79.7814130783081, 134.0315341949463, 80.85191249847412, 80.82449436187744, 79.90407943725586, 108.9407205581665, 109.24708843231201, 79.83636856079102, 80.42275905609131, 80.53827285766602, 139.77289199829102, 80.90269565582275, 79.80120182037354, 80.44707775115967, 109.8862886428833, 112.31493949890137, 80.69884777069092, 79.97214794158936, 79.42783832550049, 108.16514492034912],
  "Depth": 14.5,
  "Expectation Value": -2.220703125,
  "Optimal Expectation Value": -7.296229839324951,
  "Optimizer durations [ms]": [872.64, 851.557, 840.494, 830.385, 812.962, 880.291, 840.406, 829.916, 820.572, 864.325, 839.082, 836.127, 828.094, 819.469, 879.554, 837.292, 835.267, 826.248, 870.353, 837.935, 838.855, 825.854, 819.408, 884.96, 841.142, 830.127, 826.316, 815.709, 877.939, 836.401, 828.688, 818.407, 862.017, 853.059, 832.064, 828.614, 820.354, 885.904, 839.926, 835.528, 825.669, 874.014, 850.972, 842.999, 832.292, 820.141, 881.916, 839.018, 835.131, 825.9, 864.759, 841.354, 837.171, 836.875, 827.958, 878.507, 842.815, 837.527, 831.698, 871.079, 842.142, 837.256, 825.237, 822.797, 886.155, 850.791, 837.321, 829.612, 873.067, 839.976, 843.26, 828.126, 830.895, 879.949, 845.622, 829.65, 823.79, 816.559, 880.401, 837.382, 834.117, 821.423, 868.278, 843.115, 834.255, 824.824, 832.168, 880.075, 872.443, 834.066, 823.946, 864.69, 840.37, 834.291, 830.457, 819.27, 877.334, 835.979, 831.089, 822.23, 869.49, 837.001, 837.089, 825.976, 817.457, 878.085, 838.392, 829.161, 822.615, 867.963, 844.234, 837.313, 829.201, 827.918, 883.236, 838.728, 829.932, 826.009, 816.061, 885.87, 837.271, 828.875, 822.937, 867.741, 839.775, 834.121, 825.791, 817.125, 876.632, 839.737, 833.44, 828.281, 865.058, 840.324, 837.811, 831.354, 830.596, 887.381, 843.945, 835.109, 829.385, 869.732, 844.12, 838.28, 837.302, 829.552, 880.582, 844.478, 841.077, 825.836, 872.159, 844.875, 837.546, 835.317, 834.592, 886.042, 843.091, 832.69, 823.845, 872.28, 847.659, 836.458, 828.674, 822.975, 885.484, 840.2, 834.724, 828.946, 813.299, 880.664, 840.47, 836.137, 823.073, 868.34, 871.591, 834.261, 849.704, 820.026, 875.267, 843.769, 828.71, 821.287, 867.733, 842.515, 838.723, 834.782, 818.561, 867.302, 838.567, 835.051, 829.764, 815.505, 877.283, 833.826, 829.674, 825.779, 870.005, 850.226, 835.941, 832.037, 816.659, 885.478, 841.395, 830.745, 819.39, 876.75, 841.918, 833.243, 827.178, 820.703, 884.031, 836.984, 836.355, 824.162, 867.78, 839.921, 837.23, 831.722, 825.646, 884.359, 836.529, 833.117, 828.11, 876.835, 844.581, 841.945, 841.313, 823.248, 882.596, 837.984, 831.74, 826.56, 871.573, 841.706, 837.653, 826.524, 824.643, 867.5, 843.326, 834.969, 828.8, 816.712, 879.028, 842.267, 830.804, 828.982, 873.417, 843.824, 843.122, 840.683, 823.652, 866.691, 849.032, 834.229, 824.724, 832.129, 885.68, 842.367, 834.697, 826.577, 866.145, 846.886, 843.217, 826.957, 816.239, 882.879, 841.251, 834.257, 828.558, 865.481, 848.909, 839.799, 837.032, 827.063, 884.94, 833.974, 831.698, 821.293, 874.28, 837.466, 838.89, 828.253, 818.991, 877.858, 845.634, 834.511, 827.673, 873.47, 840.883, 837.09, 839.774, 825.447, 881.647, 843.434, 834.753, 828.523, 824.519, 884.519, 841.578, 836.008, 822.168, 870.311, 845.836, 842.168, 830.915, 818.539, 889.676, 843.411, 837.476, 828.244, 872.822, 842.629, 836.92, 828.368, 825.229, 862.582, 839.1, 833.851, 825.297, 823.551, 879.264, 837.273, 830.536, 822.565, 872.507, 842.928, 841.372, 842.864, 816.36, 882.552, 843.619, 836.14, 828.936, 873.217, 843.135, 838.877, 830.473, 821.701, 896.796, 843.269, 833.561, 830.305, 875.741, 855.798, 838.519, 832.564, 818.126, 866.707],
  "Optimizer iterations": 348,
  "Optimizer params": [0.14731798393652373, 0.4580483818191172, 0.9649924550573188, 0.013863061495496555, 0.8196869299066103, 0.39083775492914863, 0.9333194458456233, 0.9749649571044265, 0.5573443999576764, 0.9999999999999998, 0.9822070703904657, 0.16253775612756616, 3.900921187119645e-05, 0.1658089840809007, 0.6126845840084097, 0.0565351912872533, 0.06320809239537391, 0.05970223383124751, 0.36041559209886437, 0.18576803656957833, 0.4864405795432684, 0.5883764619528188, 0.2588437335185128, 0.7654589464661087],
  "P": 0,
  "Problem": "IC",
  "QJob durations [ms]": [142.54391193389893, 144.42980289459229, 116.22965335845947, 114.61234092712402, 112.36214637756348, 169.37649250030518, 113.72673511505127, 113.11531066894531, 112.9004955291748, 140.3336524963379, 140.8669948577881, 113.64912986755371, 113.91973495483398, 113.40558528900146, 168.76256465911865, 113.59989643096924, 115.5012845993042, 114.5772933959961, 141.95406436920166, 140.79487323760986, 112.95199394226074, 113.35957050323486, 112.78355121612549, 170.18604278564453, 142.00329780578613, 111.76252365112305, 113.25335502624512, 113.88707160949707, 140.3437852859497, 112.96749114990234, 113.61944675445557, 112.19549179077148, 139.97483253479004, 145.1284885406494, 112.66934871673584, 112.7166748046875, 113.1281852722168, 169.9542999267578, 112.81359195709229, 113.91472816467285, 113.2817268371582, 142.45688915252686, 142.61400699615479, 115.03350734710693, 114.46619033813477, 112.10894584655762, 167.77265071868896, 112.4962568283081, 112.26677894592285, 113.31629753112793, 139.0511989593506, 139.67084884643555, 113.03091049194336, 116.43719673156738, 113.9380931854248, 168.23804378509521, 114.70186710357666, 116.07742309570313, 115.03279209136963, 141.0120725631714, 139.81640338897705, 113.97051811218262, 112.39385604858398, 114.53020572662354, 171.4470386505127, 113.40594291687012, 114.21573162078857, 114.08817768096924, 142.5189971923828, 140.85853099822998, 115.11743068695068, 112.41519451141357, 118.06213855743408, 168.5429811477661, 141.50452613830566, 111.55462265014648, 112.94007301330566, 112.35952377319336, 169.01397705078125, 113.24429512023926, 115.39340019226074, 112.25831508636475, 141.86537265777588, 141.49737358093262, 112.4269962310791, 111.64772510528564, 119.8054552078247, 169.0659523010254, 116.4252758026123, 113.70968818664551, 112.46037483215332, 139.6172046661377, 141.88015460968018, 113.07096481323242, 114.35401439666748, 113.6542558670044, 166.8417453765869, 113.11161518096924, 113.75510692596436, 112.74385452270508, 142.67432689666748, 140.40601253509521, 114.03369903564453, 112.85531520843506, 112.34462261199951, 168.16866397857666, 114.1585111618042, 113.18349838256836, 112.92421817779541, 141.6623592376709, 142.6182985305786, 114.22979831695557, 113.28256130218506, 114.17090892791748, 168.78044605255127, 112.89465427398682, 111.76824569702148, 113.88826370239258, 112.50448226928711, 170.70770263671875, 113.97695541381836, 113.04676532745361, 113.35885524749756, 142.12357997894287, 140.42234420776367, 113.7080192565918, 113.15131187438965, 112.52140998840332, 167.36066341400146, 114.71867561340332, 112.75219917297363, 114.13908004760742, 139.1000747680664, 139.7531032562256, 113.6702299118042, 112.86640167236328, 116.61911010742188, 170.25649547576904, 113.94953727722168, 113.49022388458252, 114.96853828430176, 139.7404670715332, 140.6494379043579, 112.96749114990234, 115.62597751617432, 116.0365343093872, 168.01702976226807, 114.41183090209961, 116.5764331817627, 112.96379566192627, 140.36226272583008, 142.4705982208252, 112.66648769378662, 114.8611307144165, 118.19219589233398, 170.03333568572998, 113.70742321014404, 113.81328105926514, 113.66605758666992, 142.6243782043457, 143.837571144104, 113.50822448730469, 113.17694187164307, 114.63892459869385, 168.731689453125, 113.22236061096191, 113.75463008880615, 112.75339126586914, 112.8847599029541, 168.6016321182251, 113.44623565673828, 116.34659767150879, 112.88177967071533, 141.1062479019165, 149.4755744934082, 113.75045776367188, 119.41730976104736, 112.56670951843262, 166.58008098602295, 115.16523361206055, 112.70403861999512, 112.50126361846924, 141.47639274597168, 142.20857620239258, 112.89918422698975, 115.24474620819092, 112.62249946594238, 142.3654556274414, 113.2817268371582, 113.78085613250732, 115.55278301239014, 113.03341388702393, 140.42139053344727, 112.55931854248047, 112.80417442321777, 114.10701274871826, 141.48223400115967, 143.17810535430908, 112.97786235809326, 115.37766456604004, 112.70773410797119, 170.05503177642822, 115.64302444458008, 113.8913631439209, 112.39850521087646, 144.2699432373047, 139.91022109985352, 112.31839656829834, 113.58380317687988, 114.52984809875488, 169.90065574645996, 113.3798360824585, 116.34504795074463, 112.64657974243164, 140.88571071624756, 141.50965213775635, 115.03171920776367, 113.90602588653564, 116.26434326171875, 170.64666748046875, 112.18857765197754, 113.58392238616943, 116.20008945465088, 142.9305076599121, 141.5787935256958, 114.06683921813965, 116.50335788726807, 112.90287971496582, 169.48580741882324, 112.26475238800049, 112.5718355178833, 114.26496505737305, 141.10052585601807, 169.40760612487793, 113.87515068054199, 111.98616027832031, 113.88778686523438, 141.68810844421387, 141.20280742645264, 113.49844932556152, 114.49623107910156, 112.5175952911377, 167.7684783935547, 114.90166187286377, 113.72518539428711, 113.84081840515137, 142.46141910552979, 141.54672622680664, 114.10951614379883, 117.29967594146729, 113.80910873413086, 141.68989658355713, 144.79827880859375, 113.15619945526123, 113.27290534973145, 118.92151832580566, 141.58868789672852, 116.4013147354126, 113.26479911804199, 113.25836181640625, 141.35432243347168, 142.01819896697998, 117.05386638641357, 114.43150043487549, 112.4114990234375, 170.6559658050537, 113.11876773834229, 113.37530612945557, 114.29929733276367, 141.2581205368042, 142.8546905517578, 115.58687686920166, 116.9731616973877, 115.49055576324463, 169.18182373046875, 111.68062686920166, 113.70790004730225, 112.97404766082764, 144.55091953277588, 140.0989294052124, 114.10367488861084, 112.77961730957031, 113.6695146560669, 167.20831394195557, 115.4714822769165, 114.51375484466553, 113.71123790740967, 142.20130443572998, 141.4874792098999, 114.17591571807861, 115.13721942901611, 115.22161960601807, 169.19267177581787, 141.26133918762207, 113.4333610534668, 113.20734024047852, 114.66467380523682, 141.95692539215088, 113.53182792663574, 113.96300792694092, 113.25812339782715, 140.81108570098877, 140.63584804534912, 115.44346809387207, 113.25442790985107, 112.41888999938965, 172.69647121429443, 113.93511295318604, 113.95406723022461, 112.8159761428833, 140.64335823059082, 141.73293113708496, 113.26062679290771, 112.35058307647705, 116.05143547058105, 140.23828506469727, 140.84017276763916, 113.68227005004883, 112.4039888381958, 117.22743511199951, 169.2028045654297, 112.1302843093872, 113.14690113067627, 113.13772201538086, 142.05586910247803, 141.05594158172607, 113.69967460632324, 114.2876148223877, 112.52665519714355, 166.73314571380615, 113.8981580734253, 113.8913631439209, 112.90538311004639, 141.82186126708984, 141.79503917694092, 112.8319501876831, 113.24608325958252, 113.82019519805908, 173.11060428619385, 114.27700519561768, 112.36763000488281, 113.6322021484375, 143.1046724319458, 173.61652851104736, 113.70289325714111, 112.71524429321289, 111.57023906707764, 140.6404972076416],
  "QPU": "300002E",
  "Qubits": 6,
  "Queue durations [ms]": [0.0, 0.0, 0.0, 0.0, 0.0, 0.0, 0.0, 0.0, 0.0, 0.0, 0.0, 0.0, 0.0, 0.0, 0.0, 0.0, 0.0, 0.0, 0.0, 0.0, 0.0, 0.0, 0.0, 0.0, 0.0, 0.0, 0.0, 0.0, 0.0, 0.0, 0.0, 0.0, 0.0, 0.0, 0.0, 0.0, 0.0, 0.0, 0.0, 0.0, 0.0, 0.0, 0.0, 0.0, 0.0, 0.0, 0.0, 0.0, 0.0, 0.0, 0.0, 0.0, 0.0, 0.0, 0.0, 0.0, 0.0, 0.0, 0.0, 0.0, 0.0, 0.0, 0.0, 0.0, 0.0, 0.0, 0.0, 0.0, 0.0, 0.0, 0.0, 0.0, 0.0, 0.0, 0.0, 0.0, 0.0, 0.0, 0.0, 0.0, 0.0, 0.0, 0.0, 0.0, 0.0, 0.0, 0.0, 0.0, 0.0, 0.0, 0.0, 0.0, 0.0, 0.0, 0.0, 0.0, 0.0, 0.0, 0.0, 0.0, 0.0, 0.0, 0.0, 0.0, 0.0, 0.0, 0.0, 0.0, 0.0, 0.0, 0.0, 0.0, 0.0, 0.0, 0.0, 0.0, 0.0, 0.0, 0.0, 0.0, 0.0, 0.0, 0.0, 0.0, 0.0, 0.0, 0.0, 0.0, 0.0, 0.0, 0.0, 0.0, 0.0, 0.0, 0.0, 0.0, 0.0, 0.0, 0.0, 0.0, 0.0, 0.0, 0.0, 0.0, 0.0, 0.0, 0.0, 0.0, 0.0, 0.0, 0.0, 0.0, 0.0, 0.0, 0.0, 0.0, 0.0, 0.0, 0.0, 0.0, 0.0, 0.0, 0.0, 0.0, 0.0, 0.0, 0.0, 0.0, 0.0, 0.0, 0.0, 0.0, 0.0, 0.0, 0.0, 0.0, 0.0, 0.0, 0.0, 0.0, 0.0, 0.0, 0.0, 0.0, 0.0, 0.0, 0.0, 0.0, 0.0, 0.0, 0.0, 0.0, 0.0, 0.0, 0.0, 0.0, 0.0, 0.0, 0.0, 0.0, 0.0, 0.0, 0.0, 0.0, 0.0, 0.0, 0.0, 0.0, 0.0, 0.0, 0.0, 0.0, 0.0, 0.0, 0.0, 0.0, 0.0, 0.0, 0.0, 0.0, 0.0, 0.0, 0.0, 0.0, 0.0, 0.0, 0.0, 0.0, 0.0, 0.0, 0.0, 0.0, 0.0, 0.0, 0.0, 0.0, 0.0, 0.0, 0.0, 0.0, 0.0, 0.0, 0.0, 0.0, 0.0, 0.0, 0.0, 0.0, 0.0, 0.0, 0.0, 0.0, 0.0, 0.0, 0.0, 0.0, 0.0, 0.0, 0.0, 0.0, 0.0, 0.0, 0.0, 0.0, 0.0, 0.0, 0.0, 0.0, 0.0, 0.0, 0.0, 0.0, 0.0, 0.0, 0.0, 0.0, 0.0, 0.0, 0.0, 0.0, 0.0, 0.0, 0.0, 0.0, 0.0, 0.0, 0.0, 0.0, 0.0, 0.0, 0.0, 0.0, 0.0, 0.0, 0.0, 0.0, 0.0, 0.0, 0.0, 0.0, 0.0, 0.0, 0.0, 0.0, 0.0, 0.0, 0.0, 0.0, 0.0, 0.0, 0.0, 0.0, 0.0, 0.0, 0.0, 0.0, 0.0, 0.0, 0.0, 0.0, 0.0, 0.0, 0.0, 0.0, 0.0, 0.0, 0.0, 0.0, 0.0, 0.0, 0.0, 0.0, 0.0, 0.0, 0.0, 0.0, 0.0, 0.0, 0.0, 0.0, 0.0, 0.0, 0.0, 0.0, 0.0, 0.0, 0.0, 0.0],
  "Shots": 4096,
  "Size": 6,
  "Total Algorithm duration [s]": 293.307,
  "Total Classic duration [s]": 249.4407254047394,
  "Total Quantum duration [s]": 43.86627459526062
}
