{
  "Circuit execution durations [ms]": [135.93482971191406, 80.93130588531494, 81.6417932510376, 80.20532131195068, 80.46269416809082, 108.04080963134766, 84.27250385284424, 80.22451400756836, 81.57610893249512, 112.19751834869385, 107.18846321105957, 79.09262180328369, 81.52937889099121, 80.45768737792969, 134.332537651062, 80.696702003479, 80.30581474304199, 80.24168014526367, 120.65470218658447, 108.14428329467773, 79.92982864379883, 80.26540279388428, 79.90705966949463, 133.82947444915771, 80.74736595153809, 80.43038845062256, 80.47783374786377, 107.64563083648682, 108.11769962310791, 80.40618896484375, 80.52802085876465, 80.88648319244385, 136.3537311553955, 80.0083875656128, 79.95080947875977, 81.38096332550049, 80.60801029205322, 109.47072505950928, 80.51228523254395, 80.57594299316406, 80.83391189575195, 109.59136486053467, 108.65116119384766, 81.1758041381836, 80.77418804168701, 80.60479164123535, 134.86838340759277, 80.35695552825928, 80.3910493850708, 81.07376098632813, 109.65442657470703, 107.22184181213379, 80.25968074798584, 80.98506927490234, 82.64720439910889, 108.67035388946533, 81.63988590240479, 80.62660694122314, 81.49588108062744, 80.86144924163818, 108.10267925262451, 79.8732042312622, 80.3680419921875, 80.58428764343262, 109.82286930084229, 80.0466537475586, 82.46755599975586, 80.5429220199585, 80.07657527923584, 109.8092794418335, 80.34634590148926, 80.17587661743164, 80.41775226593018, 107.75876045227051, 80.35695552825928, 81.39634132385254, 82.26561546325684, 79.83219623565674, 137.32004165649414, 81.57336711883545, 79.41627502441406, 80.57284355163574, 107.33556747436523, 107.91242122650146, 80.00588417053223, 80.72435855865479, 80.09731769561768, 136.9725465774536, 80.18064498901367, 80.29770851135254, 80.27350902557373, 109.27379131317139, 109.39466953277588, 79.59067821502686, 80.5121660232544, 82.13913440704346, 138.60976696014404, 80.23440837860107, 81.41505718231201, 80.40225505828857, 80.4065465927124, 110.07654666900635, 79.55193519592285, 80.15501499176025, 80.76083660125732, 110.34059524536133, 79.22577857971191, 80.24430274963379, 80.07526397705078, 82.36777782440186, 135.13445854187012, 80.10351657867432, 82.08143711090088, 83.33492279052734, 108.04998874664307, 107.35774040222168, 80.20210266113281, 80.24108409881592, 80.51860332489014, 107.48422145843506, 80.15859127044678, 82.88943767547607, 79.69486713409424, 79.86176013946533, 107.696533203125, 79.42533493041992, 83.23800563812256, 80.7873010635376, 107.88750648498535, 106.64808750152588, 80.79791069030762, 79.95855808258057, 81.10129833221436, 106.63986206054688, 79.87010478973389, 79.24115657806396, 80.25932312011719, 110.96954345703125, 108.67786407470703, 79.33604717254639, 80.47318458557129, 82.4127197265625, 108.46149921417236, 80.14857769012451, 82.58402347564697, 81.25793933868408, 81.69782161712646, 112.19155788421631, 80.19423484802246, 80.64675331115723, 81.08925819396973, 109.61449146270752, 82.41701126098633, 80.48760890960693, 79.98037338256836, 81.28964900970459, 108.21783542633057, 82.75830745697021, 82.1002721786499, 80.46996593475342, 109.71653461456299, 82.00418949127197, 83.31573009490967, 81.95376396179199, 78.85527610778809, 108.98900032043457, 81.96234703063965, 80.32786846160889, 80.6741714477539, 110.09359359741211, 107.83040523529053, 80.68323135375977, 79.62417602539063, 82.70716667175293, 107.64670372009277, 79.44250106811523, 80.70099353790283, 80.72936534881592, 108.41643810272217, 107.76126384735107, 79.50282096862793, 80.42407035827637, 80.1239013671875, 107.72323608398438, 80.81841468811035, 80.91878890991211, 81.55262470245361, 81.66098594665527, 112.89262771606445, 80.28233051300049, 80.55555820465088, 80.73818683624268, 107.1397066116333, 80.04975318908691, 79.73897457122803, 80.23107051849365, 79.6288251876831, 107.64706134796143, 84.59949493408203, 80.47914505004883, 79.75459098815918, 110.39984226226807, 106.91416263580322, 79.69629764556885, 79.80227470397949, 79.54490184783936, 135.18297672271729, 80.02102375030518, 79.79917526245117, 83.21106433868408, 107.61916637420654, 106.81581497192383, 82.61048793792725, 80.39259910583496, 80.11376857757568, 136.88135147094727, 82.48317241668701, 80.21152019500732, 80.69288730621338, 79.43344116210938, 107.1692705154419, 80.22010326385498, 80.50847053527832, 84.4947099685669, 112.5485897064209, 108.33001136779785, 80.10661602020264, 83.50241184234619, 81.27748966217041, 135.8628273010254, 81.2685489654541, 79.98776435852051, 83.3594799041748, 109.3907356262207, 110.16404628753662, 80.72435855865479, 80.56414127349854, 79.81598377227783, 137.78209686279297, 79.6881914138794, 80.95848560333252, 80.76810836791992, 80.15239238739014, 108.07669162750244, 82.24010467529297, 82.37016201019287, 81.25448226928711, 108.67881774902344, 79.95760440826416, 80.56867122650146, 81.31206035614014, 79.78057861328125, 108.60788822174072, 82.62050151824951, 80.83736896514893, 82.04936981201172, 108.9334487915039, 107.64646530151367, 80.76882362365723, 81.53665065765381, 83.04131031036377, 107.89740085601807, 79.53405380249023, 83.3672285079956, 84.84494686126709, 108.1308126449585, 110.01837253570557, 79.8649787902832, 79.71465587615967, 82.46970176696777, 133.61811637878418, 80.83689212799072, 79.80549335479736, 79.91182804107666, 107.64312744140625, 110.18216609954834, 80.2297592163086, 80.69479465484619, 80.80518245697021, 134.44077968597412, 79.52713966369629, 79.70964908599854, 82.41558074951172, 80.58559894561768, 108.3294153213501, 81.03406429290771, 80.59537410736084, 80.4673433303833, 109.30407047271729, 79.31900024414063, 79.19085025787354, 79.87987995147705, 79.9260139465332, 108.47508907318115, 79.74481582641602, 82.67009258270264, 80.67154884338379, 108.06834697723389, 80.18648624420166, 82.18836784362793, 80.77120780944824, 80.07478713989258, 108.03890228271484, 80.63936233520508, 80.35922050476074],
  "Depth": 14.5,
  "Expectation Value": -2.87841796875,
  "Optimal Expectation Value": -7.296229839324951,
  "Optimizer durations [ms]": [886.383, 842.257, 838.238, 830.821, 820.601, 884.993, 852.358, 834.393, 825.793, 876.401, 839.872, 831.321, 829.542, 821.429, 876.654, 840.724, 836.162, 826.894, 898.373, 848.323, 835.738, 827.277, 818.579, 873.799, 837.488, 835.45, 827.28, 869.635, 841.653, 838.812, 831.629, 826.609, 887.297, 839.468, 837.13, 828.149, 817.323, 887.671, 839.006, 835.525, 825.603, 871.563, 840.856, 839.691, 832.128, 821.684, 878.129, 837.657, 830.576, 828.567, 870.135, 843.354, 838.81, 834.491, 831.18, 866.419, 846.722, 841.523, 831.331, 822.567, 884.283, 835.885, 836.793, 822.672, 868.881, 844.197, 840.121, 829.09, 821.575, 886.52, 839.006, 835.343, 822.22, 871.695, 846.116, 840.692, 838.289, 818.386, 887.876, 842.61, 835.392, 827.851, 866.984, 839.887, 837.749, 833.176, 824.029, 886.03, 839.453, 829.384, 825.716, 873.58, 846.072, 835.7, 829.554, 823.741, 892.32, 847.225, 834.889, 823.682, 813.542, 883.177, 835.473, 834.295, 822.145, 872.264, 838.186, 833.39, 825.45, 823.759, 878.811, 837.234, 835.715, 829.457, 870.962, 841.158, 836.157, 829.89, 821.815, 862.592, 839.357, 838.821, 825.703, 815.494, 876.938, 834.613, 834.575, 824.388, 868.863, 837.911, 834.995, 826.321, 821.236, 882.913, 841.346, 830.642, 824.585, 879.059, 844.703, 838.038, 832.401, 826.306, 868.942, 837.742, 842.129, 830.599, 847.869, 887.207, 853.856, 832.098, 839.074, 874.737, 850.218, 833.935, 827.78, 821.058, 883.521, 842.704, 832.73, 820.983, 870.974, 845.935, 839.788, 831.396, 813.108, 885.687, 839.906, 830.304, 822.003, 875.455, 841.104, 836.039, 827.539, 822.725, 879.135, 838.49, 831.173, 823.885, 868.068, 840.229, 836.337, 832.746, 818.251, 868.153, 842.785, 836.967, 832.977, 822.952, 900.496, 849.323, 832.107, 820.278, 862.304, 843.194, 832.645, 825.777, 811.995, 878.04, 847.292, 831.055, 821.772, 871.649, 836.678, 833.854, 827.417, 816.929, 876.882, 837.939, 835.323, 832.125, 865.865, 839.058, 841.802, 828.47, 823.245, 883.987, 844.189, 836.454, 825.928, 813.175, 877.611, 837.674, 830.049, 831.505, 877.233, 842.179, 836.368, 840.169, 824.124, 881.924, 839.585, 833.271, 835.603, 874.248, 850.966, 835.956, 831.242, 818.645, 885.361, 846.531, 834.031, 827.91, 813.799, 879.491, 840.34, 835.657, 826.765, 869.263, 837.81, 835.899, 827.63, 816.757, 879.524, 839.757, 833.836, 826.048, 868.624, 845.659, 835.063, 829.124, 828.907, 880.481, 834.424, 837.834, 837.376, 865.785, 844.528, 832.817, 827.261, 822.291, 873.777, 839.176, 830.552, 820.833, 865.711, 841.624, 835.905, 829.466, 820.778, 879.043, 838.469, 832.528, 830.05, 814.871, 878.987, 839.448, 834.226, 825.862, 871.027, 839.421, 828.773, 823.18, 814.203, 881.415, 835.361, 833.438, 822.456, 864.759, 841.248, 843.461, 831.9, 822.957, 881.311, 840.272, 831.409],
  "Optimizer iterations": 305,
  "Optimizer params": [0.7641554882999382, 4.113506271005087e-06, 0.9672944245394096, 0.9998595100316122, 0.5082845098688545, 0.9998330989494627, 0.9959974268323035, 0.5961426142810975, 0.6523271300683344, 0.5313745316692454, 0.07104174187902969, 0.28137175112756396, 0.039760760495283626, 0.6080024879266379, 0.07305021799508563, 0.016713966271876223, 0.5447461659664224, 0.5304137988447066, 0.3014742910215209, 0.3909884276718924, 0.48368639397944524, 0.49722577858650135, 0.28583194188761707, 0.26040714779399626],
  "P": 0,
  "Problem": "IC",
  "QJob durations [ms]": [169.13294792175293, 142.24064350128174, 114.74847793579102, 113.12365531921387, 113.67273330688477, 168.95318031311035, 117.48313903808594, 112.92445659637451, 114.10403251647949, 144.7155475616455, 140.29693603515625, 111.81581020355225, 114.61365222930908, 113.59274387359619, 166.71502590179443, 113.46018314361572, 113.88587951660156, 113.3720874786377, 153.6344289779663, 141.0156488418579, 113.53600025177002, 113.02471160888672, 112.58983612060547, 165.80581665039063, 113.72029781341553, 113.54899406433105, 113.11471462249756, 140.37036895751953, 140.5496597290039, 113.58523368835449, 113.65771293640137, 113.86334896087646, 169.62599754333496, 140.47682285308838, 112.72549629211426, 114.20702934265137, 113.48509788513184, 170.69745063781738, 113.57831954956055, 113.55268955230713, 113.49022388458252, 142.24565029144287, 140.936017036438, 115.00704288482666, 113.80064487457275, 113.57402801513672, 167.64771938323975, 113.61527442932129, 113.55817317962646, 114.41922187805176, 142.34566688537598, 140.13218879699707, 113.49940299987793, 114.3268346786499, 117.27738380432129, 141.2142515182495, 114.46809768676758, 113.96384239196777, 114.22228813171387, 114.17233943939209, 141.64555072784424, 112.63918876647949, 113.96586894989014, 113.9833927154541, 142.99488067626953, 141.95752143859863, 115.3404712677002, 113.85953426361084, 113.60514163970947, 142.8776979446411, 113.34395408630371, 113.64901065826416, 112.4417781829834, 140.68210124969482, 142.46201515197754, 114.66836929321289, 115.46814441680908, 112.6633882522583, 170.3242063522339, 114.1200065612793, 112.60294914245605, 113.01708221435547, 139.66858386993408, 140.63727855682373, 112.63823509216309, 114.01820182800293, 112.9300594329834, 170.07708549499512, 113.51430416107178, 112.9828691482544, 112.73646354675293, 142.47262477874756, 142.1898603439331, 112.25199699401855, 113.56830596923828, 114.86399173736572, 172.28317260742188, 141.9994831085205, 114.02487754821777, 113.24059963226318, 112.78879642486572, 170.77875137329102, 112.56563663482666, 113.14308643341064, 113.9134168624878, 143.22805404663086, 140.0974988937378, 113.63184452056885, 112.89072036743164, 114.5782470703125, 168.113112449646, 112.84923553466797, 114.83561992645264, 115.86225032806396, 140.852689743042, 140.54954051971436, 112.9767894744873, 113.24834823608398, 113.66307735443115, 140.66755771636963, 113.00182342529297, 115.90719223022461, 112.39242553710938, 112.79296875, 167.76299476623535, 112.44738101959229, 115.85307121276855, 113.27981948852539, 141.18576049804688, 139.52672481536865, 114.00604248046875, 112.76519298553467, 114.21597003936768, 167.86205768585205, 113.59715461730957, 111.87851428985596, 113.20102214813232, 144.26159858703613, 141.943097114563, 111.90927028656006, 113.73698711395264, 114.8066520690918, 141.61503314971924, 112.47265338897705, 115.70966243743896, 113.81423473358154, 116.59359931945801, 144.83320713043213, 115.11838436126709, 113.71731758117676, 114.17663097381592, 142.76540279388428, 143.75460147857666, 113.70337009429932, 112.80560493469238, 114.61126804351807, 141.10183715820313, 115.43726921081543, 115.19598960876465, 113.6246919631958, 142.89546012878418, 143.8612937927246, 116.30475521087646, 114.23707008361816, 111.61041259765625, 170.31347751617432, 114.88175392150879, 112.97619342803955, 113.64436149597168, 143.16248893737793, 141.09766483306885, 113.30735683441162, 112.30731010437012, 115.51070213317871, 168.47503185272217, 112.61677742004395, 113.9134168624878, 113.61885070800781, 141.03877544403076, 140.48755168914795, 112.22350597381592, 113.8761043548584, 112.38014698028564, 140.1357650756836, 141.7844295501709, 114.50624465942383, 114.93492126464844, 115.21601676940918, 148.44977855682373, 113.92152309417725, 113.23082447052002, 113.59608173370361, 139.8712396621704, 114.79604244232178, 112.22290992736816, 113.10446262359619, 111.87481880187988, 168.30432415008545, 117.5234317779541, 113.31820487976074, 112.31398582458496, 143.16511154174805, 139.55211639404297, 113.17992210388184, 112.6868724822998, 111.95385456085205, 167.28079319000244, 112.37013339996338, 113.19589614868164, 115.61739444732666, 140.069842338562, 139.45245742797852, 115.6320571899414, 113.64948749542236, 112.78247833251953, 170.2359914779663, 143.34356784820557, 112.81883716583252, 113.31617832183838, 112.25712299346924, 167.93036460876465, 114.03191089630127, 113.30008506774902, 117.43688583374023, 145.80011367797852, 141.8672800064087, 112.65254020690918, 117.00046062469482, 114.37547206878662, 168.4798002243042, 114.59708213806152, 113.2737398147583, 116.35136604309082, 142.5917148590088, 143.41390132904053, 114.07840251922607, 113.73674869537354, 112.37967014312744, 170.50397396087646, 140.43056964874268, 113.68751525878906, 114.01402950286865, 112.72227764129639, 140.9893035888672, 115.21029472351074, 114.97509479522705, 114.7005558013916, 141.88075065612793, 140.82515239715576, 113.50536346435547, 114.45677280426025, 112.4488115310669, 169.46697235107422, 115.55516719818115, 113.39104175567627, 115.01777172088623, 140.86413383483887, 140.71834087371826, 113.63911628723145, 114.4779920578003, 116.25361442565918, 169.36922073364258, 112.23506927490234, 116.27113819122314, 117.82145500183105, 140.3660774230957, 142.90189743041992, 113.18790912628174, 112.65146732330322, 115.30876159667969, 165.3968095779419, 113.90066146850586, 113.24036121368408, 112.59937286376953, 140.13636112213135, 142.53735542297363, 113.0824089050293, 114.14873600006104, 113.79086971282959, 167.38009452819824, 112.63275146484375, 112.83433437347412, 115.62108993530273, 113.40904235839844, 141.4198875427246, 114.18402194976807, 114.24064636230469, 113.21234703063965, 142.3795223236084, 112.65218257904053, 111.82546615600586, 113.06548118591309, 112.77174949645996, 141.73614978790283, 112.49339580535889, 115.09466171264648, 113.54625225067139, 141.17681980133057, 141.79813861846924, 115.50557613372803, 114.16828632354736, 113.4488582611084, 140.6879425048828, 113.87693881988525, 113.61265182495117],
  "QPU": "300002E",
  "Qubits": 6,
  "Queue durations [ms]": [0.0, 0.0, 0.0, 0.0, 0.0, 0.0, 0.0, 0.0, 0.0, 0.0, 0.0, 0.0, 0.0, 0.0, 0.0, 0.0, 0.0, 0.0, 0.0, 0.0, 0.0, 0.0, 0.0, 0.0, 0.0, 0.0, 0.0, 0.0, 0.0, 0.0, 0.0, 0.0, 0.0, 0.0, 0.0, 0.0, 0.0, 0.0, 0.0, 0.0, 0.0, 0.0, 0.0, 0.0, 0.0, 0.0, 0.0, 0.0, 0.0, 0.0, 0.0, 0.0, 0.0, 0.0, 0.0, 0.0, 0.0, 0.0, 0.0, 0.0, 0.0, 0.0, 0.0, 0.0, 0.0, 0.0, 0.0, 0.0, 0.0, 0.0, 0.0, 0.0, 0.0, 0.0, 0.0, 0.0, 0.0, 0.0, 0.0, 0.0, 0.0, 0.0, 0.0, 0.0, 0.0, 0.0, 0.0, 0.0, 0.0, 0.0, 0.0, 0.0, 0.0, 0.0, 0.0, 0.0, 0.0, 0.0, 0.0, 0.0, 0.0, 0.0, 0.0, 0.0, 0.0, 0.0, 0.0, 0.0, 0.0, 0.0, 0.0, 0.0, 0.0, 0.0, 0.0, 0.0, 0.0, 0.0, 0.0, 0.0, 0.0, 0.0, 0.0, 0.0, 0.0, 0.0, 0.0, 0.0, 0.0, 0.0, 0.0, 0.0, 0.0, 0.0, 0.0, 0.0, 0.0, 0.0, 0.0, 0.0, 0.0, 0.0, 0.0, 0.0, 0.0, 0.0, 0.0, 0.0, 0.0, 0.0, 0.0, 0.0, 0.0, 0.0, 0.0, 0.0, 0.0, 0.0, 0.0, 0.0, 0.0, 0.0, 0.0, 0.0, 0.0, 0.0, 0.0, 0.0, 0.0, 0.0, 0.0, 0.0, 0.0, 0.0, 0.0, 0.0, 0.0, 0.0, 0.0, 0.0, 0.0, 0.0, 0.0, 0.0, 0.0, 0.0, 0.0, 0.0, 0.0, 0.0, 0.0, 0.0, 0.0, 0.0, 0.0, 0.0, 0.0, 0.0, 0.0, 0.0, 0.0, 0.0, 0.0, 0.0, 0.0, 0.0, 0.0, 0.0, 0.0, 0.0, 0.0, 0.0, 0.0, 0.0, 0.0, 0.0, 0.0, 0.0, 0.0, 0.0, 0.0, 0.0, 0.0, 0.0, 0.0, 0.0, 0.0, 0.0, 0.0, 0.0, 0.0, 0.0, 0.0, 0.0, 0.0, 0.0, 0.0, 0.0, 0.0, 0.0, 0.0, 0.0, 0.0, 0.0, 0.0, 0.0, 0.0, 0.0, 0.0, 0.0, 0.0, 0.0, 0.0, 0.0, 0.0, 0.0, 0.0, 0.0, 0.0, 0.0, 0.0, 0.0, 0.0, 0.0, 0.0, 0.0, 0.0, 0.0, 0.0, 0.0, 0.0, 0.0, 0.0, 0.0, 0.0, 0.0, 0.0, 0.0, 0.0, 0.0, 0.0, 0.0, 0.0, 0.0, 0.0, 0.0, 0.0, 0.0, 0.0, 0.0, 0.0, 0.0, 0.0, 0.0, 0.0, 0.0, 0.0, 0.0, 0.0, 0.0, 0.0, 0.0, 0.0, 0.0, 0.0],
  "Shots": 4096,
  "Size": 6,
  "Total Algorithm duration [s]": 256.971,
  "Total Classic duration [s]": 218.77967993831635,
  "Total Quantum duration [s]": 38.191320061683655
}
