{
  "Circuit execution durations [ms]": [0.17449999722884968, 0.17970000044442713, 0.16814999980852008, 0.1769499940564856, 0.1747999995131977, 0.17505000141682103, 0.17449999722884968, 0.20864999532932416, 0.17219999426743016, 0.17579999985173345, 0.1735500045469962, 0.17224999464815482, 0.18460000137565657, 0.1781999962986447, 0.1731000011204742, 0.17705000209389254, 0.21470000501722097, 0.182100004167296, 0.17654999828664586, 0.17405000107828528, 0.17115000082412735, 0.16814999980852008, 0.1690499993856065, 0.20870000298600644, 0.17550000484334305, 0.17235000268556178, 0.16994999896269292, 0.16975000471575186, 0.1795999996829778, 0.17810000281315297, 0.2605499976198189, 0.17505000141682103, 0.17110000044340268, 0.18450000061420724, 0.24604999634902924, 0.21165000362088904, 0.18119999731425196, 0.17159999697469175, 0.1714000027277507, 0.1722999950288795, 0.1735500045469962, 0.1720000000204891, 0.2056500015896745, 0.20275000133551657, 0.28315000236034393, 0.1718499988783151, 0.16969999705906957, 0.17040000238921493, 0.17690000095171854, 0.1690499993856065, 0.27179999597137794, 0.1817500015022233, 0.16980000509647653, 0.17094999930122867, 0.22809999791206792, 0.17600000137463212, 0.17234999540960416, 0.17255000420846045, 0.18980000459123403, 0.17574999947100878, 0.20699999731732532, 0.17235000268556178, 0.1696499966783449, 0.17010000010486692, 0.21869999909540638, 0.17514999490231276, 0.16999999934341758, 0.18249999993713573, 0.2010000025620684, 0.170899998920504, 0.17689999367576092, 0.17449999722884968, 0.17344999650958925, 0.17659999866737053, 0.1693499943939969, 0.1762000028975308, 0.206899996555876, 0.17180000577354804, 0.1725999973132275, 0.170599996636156, 0.18165000074077398, 0.16999999934341758, 0.24714999744901434, 0.15895000251475722, 0.1480999999330379, 0.17595000099390745, 0.1771000024746172, 0.1735500045469962, 0.16940000205067918, 0.16950000281212851, 0.16940000205067918, 0.16759999562054873, 0.17795000167097896, 0.16909999976633117, 0.16770000365795568, 0.2626999994390644, 0.14420000297832303, 0.27365000278223306, 0.17084999853977934, 0.17630000365898013, 0.1773000039975159, 0.2132500012521632, 0.17110000044340268, 0.17010000010486692, 0.17335000302409753, 0.16974999743979424, 0.17135000234702602, 0.1786499997251667, 0.171050000062678, 0.17074999777833, 0.17150000348920003, 0.17174999811686575, 0.17454999760957435, 0.1773000039975159, 0.16740000137360767, 0.16870000399649143, 0.17284999921685085, 0.17220000154338777, 0.17349999689031392, 0.174449996848125, 0.16960000357357785, 0.1701500004855916, 0.16730000061215833, 0.16884999786270782, 0.1680000059423037, 0.20470000163186342, 0.17549999756738544, 0.17179999849759042, 0.17099999968195334, 0.19019999308511615, 0.17250000382773578, 0.17559999832883477, 0.17515000217827037, 0.1725999973132275, 0.17345000378554687, 0.16984999820124358, 0.17010000010486692, 0.17010000010486692, 0.16955000319285318, 0.1780500024324283, 0.16955000319285318, 0.1735499972710386, 0.21040000137872994, 0.1723000023048371, 0.1724500034470111, 0.17269999807467684, 0.16895000590011477, 0.16879999748198316, 0.17425000260118395, 0.16945000243140385, 0.20870000298600644, 0.17300000035902485, 0.17315000150119886, 0.17220000154338777, 0.16930000128922984, 0.17294999997830018, 0.1724500034470111, 0.17294999997830018, 0.17349999689031392, 0.1733999961288646, 0.23235000116983429, 0.1760500017553568, 0.17004999972414225, 0.17360000492772087, 0.1770999951986596, 0.16879999748198316, 0.1704500027699396, 0.17294999997830018, 0.17289999959757552, 0.17374999879393727, 0.17099999968195334, 0.1684500020928681, 0.16814999980852008, 0.16789999790489674, 0.1714000027277507, 0.21225000091362745, 0.17324999498669058, 0.170449995493982, 0.17020000086631626, 0.17099999968195334, 0.1692000005277805, 0.16820000018924475, 0.24184999347198755, 0.20495000353548676, 0.1718499988783151, 0.1738499995553866, 0.17564999870955944, 0.17069999739760533, 0.17074999777833, 0.16884999786270782, 0.20509999740170315, 0.17395000031683594, 0.16940000205067918, 0.170599996636156, 0.1752500029397197, 0.1686000032350421, 0.167800004419405, 0.16769999638199806, 0.17455000488553196, 0.20704999769805, 0.17169999773614109, 0.1764999979059212, 0.17084999853977934, 0.17519999528303742, 0.1757500067469664, 0.1703000016277656, 0.16945000243140385, 0.17750000552041456, 0.18339999951422215, 0.17110000044340268, 0.2507999961380847, 0.23105000582290813, 0.1751000017975457, 0.14195000403560698, 0.1715500038699247, 0.17049999587470666, 0.1752500029397197, 0.34235000202897936, 0.1760500017553568, 0.16909999976633117, 0.17314999422524124, 0.17025000124704093, 0.17474999913247302, 0.200250004127156, 0.17419999494450167, 0.17439999646740034, 0.1714999962132424, 0.17040000238921493, 0.17404999380232766, 0.17020000086631626, 0.21025000023655593, 0.18075000116368756, 0.17110000044340268, 0.17415000183973461, 0.17010000010486692, 0.1687500043772161, 0.16760000289650634, 0.21065000328235328, 0.1771000024746172, 0.2183499964303337, 0.17800000205170363, 0.17269999807467684, 0.17210000078193843, 0.1817500015022233, 0.17344999650958925, 0.17050000315066427, 0.17115000082412735, 0.1768000001902692, 0.17169999773614109, 0.1765000051818788, 0.17970000044442713, 0.17039999511325732, 0.1668499971856363, 0.23174999660113826, 0.18364999414188787, 0.20724999194499105, 0.17289999959757552, 0.17064999701688066, 0.16940000205067918, 0.17314999422524124, 0.1743500033626333, 0.1740000006975606, 0.17039999511325732, 0.21025000023655593, 0.18350000027567148, 0.1747999995131977, 0.17840000509750098, 0.18000000272877514, 0.1836500014178455, 0.1765000051818788, 0.17574999947100878, 0.2136999974027276, 0.16909999976633117, 0.1703000016277656, 0.1967999924090691, 0.1727499984554015, 0.17294999997830018, 0.18215000454802066, 0.17515000217827037, 0.17120000120485201, 0.24805000430205837, 0.17729999672155827, 0.1745000045048073, 0.17094999930122867, 0.17099999968195334, 0.17250000382773578, 0.18419999832985923, 0.2078500037896447, 0.17954999930225313, 0.18450000061420724, 0.16995000623865053, 0.16950000281212851, 0.16825000056996942, 0.167650003277231, 0.24545000633224845, 0.23644999600946903, 0.1765000051818788, 0.17980000120587647, 0.28160000510979444, 0.17415000183973461, 0.16925000090850517, 0.16850000247359276, 0.1687500043772161, 0.16850000247359276, 0.1690499993856065, 0.1703000016277656, 0.17519999528303742, 0.17289999959757552, 0.27644999499898404, 0.1761499952408485, 0.17374999879393727, 0.22265000006882474, 0.1692000005277805, 0.16864999633980915, 0.3260999947087839, 0.17175000539282337, 0.17570000636624172, 0.22199999511940405, 0.1788000008673407, 0.17769999976735562, 0.2743499935604632, 0.17279999883612618, 0.1677999971434474, 0.22530000569531694, 0.18039999849861488, 0.1749500006553717, 0.3300500029581599, 0.17175000539282337, 0.17474999913247302, 0.17240000306628644, 0.17144999583251774, 0.17750000552041456, 0.17084999853977934, 0.16570000298088416, 0.21014999219914898, 0.23404999228660017, 0.17269999807467684, 0.1725999973132275, 0.24890000349842012, 0.13799999942420982, 0.18379999528406188, 0.1718499988783151, 0.17094999930122867, 0.1866999955382198, 0.17574999947100878, 0.20194999524392188, 0.1997500003199093, 0.1743500033626333, 0.1745000045048073, 0.2481500050635077, 0.1745000045048073, 0.17020000086631626, 0.17125000158557668, 0.17260000458918512, 0.17425000260118395, 0.17595000099390745, 0.17189999925903976, 0.17289999959757552, 0.17010000010486692, 0.1687500043772161, 0.1709500065771863, 0.1768000001902692, 0.18584999634185806, 0.17504999414086342, 0.17210000078193843, 0.17440000374335796, 0.16899999900488183, 0.16925000090850517, 0.1755499979481101, 0.16929999401327223, 0.16995000623865053, 0.17639999714447185, 0.1773999974830076, 0.17830000433605164, 0.17405000107828528, 0.17630000365898013, 0.1723000023048371, 0.1749500006553717, 0.20969999604858458, 0.17464999837102368, 0.19859999883919954, 0.1713499950710684, 0.17125000158557668, 0.1751000017975457, 0.1701500004855916, 0.17020000086631626, 0.1749500006553717, 0.17544999718666077, 0.16850000247359276, 0.16635000065434724, 0.16969999705906957, 0.17490000027464703, 0.1723000023048371, 0.17194999963976443, 0.1756999990902841, 0.33129999064840376, 0.19004999921889976, 0.17499999376013875, 0.1768000001902692, 0.17174999811686575, 0.17305000073974952, 0.20854999456787482, 0.17239999579032883, 0.16959999629762024, 0.18149999959859997, 0.17300000035902485, 0.170449995493982, 0.18375000217929482, 0.1697000043350272, 0.17454999760957435, 0.2082999999402091, 0.17490000027464703, 0.1688999982434325, 0.16915000014705583, 0.17315000150119886, 0.17205000040121377, 0.17634999676374719, 0.20814999879803509, 0.17570000636624172, 0.16930000128922984, 0.16944999515544623, 0.1693499943939969, 0.17054999625543132, 0.17050000315066427, 0.17249999655177817, 0.20745000074384734, 0.17840000509750098, 0.17194999963976443, 0.17674999980954453, 0.17389999993611127, 0.16930000128922984, 0.1693500016699545, 0.16925000090850517, 0.18909999926108867, 0.20664999465225264, 0.18044999887933955, 0.17120000120485201, 0.17115000082412735, 0.171050000062678, 0.16944999515544623, 0.17094999930122867, 0.17640000442042947, 0.1734000034048222, 0.1738499995553866, 0.17269999807467684, 0.1812999980757013, 0.17954999930225313, 0.17610000213608146, 0.19099999917671084, 0.17474999913247302, 0.170599996636156, 0.16925000090850517, 0.16959999629762024, 0.16694999794708565, 0.22059999173507094, 0.17035000200849026, 0.1677999971434474, 0.17564999870955944, 0.19924999651266262, 0.17269999807467684, 0.19685000006575137, 0.17639999714447185, 0.16975000471575186, 0.17320000188192353, 0.17189999925903976, 0.17269999807467684, 0.24540000595152378, 0.22259999968810007, 0.16940000205067918, 0.17535000370116904, 0.16790000518085435, 0.16855000285431743, 0.16784999752417207, 0.16989999858196825, 0.20914999913657084, 0.17619999562157318, 0.17109999316744506, 0.16980000509647653, 0.17069999739760533, 0.17854999896371737, 0.17130000196630135, 0.17169999773614109, 0.2511000056983903, 0.17294999997830018, 0.2679499957594089, 0.1727499984554015, 0.19919999613193795, 0.18080000154441223, 0.17164999735541642, 0.17099999968195334, 0.17279999883612618, 0.16909999976633117, 0.1754000040818937, 0.18280000222148374, 0.17534999642521143, 0.20804999076062813, 0.17744999786373228, 0.17374999879393727, 0.17585000023245811, 0.1774500051396899, 0.17749999824445695, 0.17645000480115414, 0.16759999562054873, 0.1734000034048222, 0.16879999748198316, 0.16754999523982406, 0.17210000078193843, 0.16734999371692538, 0.1669000048423186, 0.20049999875482172, 0.1769500013324432, 0.20754999422933906, 0.18135000573238358, 0.17365000530844554, 0.16960000357357785, 0.16909999976633117, 0.1677999971434474, 0.16879999748198316, 0.17579999985173345, 0.1752499956637621, 0.20645000040531158, 0.17374999879393727, 0.1679499982856214, 0.1674999948590994, 0.16744999447837472, 0.16830000095069408, 0.167650003277231, 0.20584999583661556, 0.2460999967297539, 0.1735499972710386, 0.17159999697469175, 0.17904999549500644, 0.1692000005277805, 0.16864999633980915, 0.1750999945215881, 0.174299995705951, 0.19360000442247838, 0.1486000037402846, 0.17425000260118395, 0.170449995493982, 0.1825500003178604, 0.17579999985173345, 0.1666999960434623, 0.23484999837819487, 0.17220000154338777, 0.16830000095069408, 0.17389999993611127, 0.16754999523982406, 0.16709999908925965, 0.21689999994123355, 0.17795000167097896, 0.20984999719075859, 0.19815000268863514, 0.19980000070063397, 0.16820000018924475, 0.17169999773614109, 0.1680000059423037, 0.1655000014579855, 0.16679999680491164, 0.16604999836999923, 0.16870000399649143, 0.17619999562157318, 0.16804999904707074, 0.16884999786270782, 0.2350999930058606, 0.1747999995131977, 0.16825000056996942, 0.16755000251578167, 0.16814999980852008, 0.16760000289650634, 0.17099999968195334, 0.16540000069653615, 0.16555000183871016, 0.16984999820124358, 0.17264999769395217, 0.16504999803146347, 0.1706000039121136, 0.17934999777935445, 0.1736999984132126, 0.17344999650958925, 0.17249999655177817, 0.18369999452261254, 0.17249999655177817, 0.17389999993611127, 0.17034999473253265, 0.17039999511325732, 0.16849999519763514, 0.17004999972414225, 0.27799999952549115, 0.2723500074353069, 0.17150000348920003, 0.2177499991375953, 0.17220000154338777, 0.16814999980852008, 0.22679999528918415, 0.18074999388772994, 0.16755000251578167, 0.17395000031683594, 0.16630000027362257, 0.1901499999803491, 0.17490000027464703, 0.1654499938013032, 0.1658000037423335, 0.19499999325489625, 0.17469999875174835, 0.16694999794708565, 0.2087499960907735, 0.1723000023048371, 0.1660999987507239, 0.16555000183871016, 0.1651499987929128, 0.17125000158557668, 0.16704999870853499, 0.16844999481691048, 0.1731000011204742, 0.20905000565107912, 0.18385000294074416, 0.1756999990902841, 0.16709999908925965, 0.17025000124704093, 0.16849999519763514, 0.16540000069653615, 0.17084999853977934, 0.16950000281212851, 0.17135000234702602, 0.16709999908925965, 0.16699999832781032, 0.16569999570492655, 0.16674999642418697, 0.18154999997932464, 0.17135000234702602, 0.17164999735541642, 0.167500002135057, 0.16480000340379775, 0.16634999337838963, 0.1659499976085499, 0.16635000065434724, 0.17124999430961907, 0.19290000636829063, 0.1820499965106137, 0.2067500026896596, 0.18619999900693074, 0.1790000023902394, 0.17264999769395217, 0.1771000024746172, 0.17055000353138894, 0.16600000526523218, 0.17750000552041456, 0.185800003237091, 0.16915000014705583, 0.2164999968954362, 0.17379999917466193, 0.17330000264337286, 0.16755000251578167, 0.1731000011204742, 0.1973000034922734, 0.2101499994751066, 0.16689999756636098, 0.17084999853977934, 0.21770000603282824, 0.17410000145900995, 0.1740000006975606, 0.1773999974830076, 0.17514999490231276, 0.1697999978205189, 0.16769999638199806, 0.16989999858196825, 0.1669000048423186, 0.16755000251578167, 0.16994999896269292, 0.16504999803146347, 0.17514999490231276, 0.19149999570799991, 0.16994999896269292, 0.17150000348920003, 0.17174999811686575, 0.16730000061215833, 0.16584999684710056, 0.23514999338658527, 0.13905000014347024, 0.2800499933073297, 0.18575000285636634, 0.17169999773614109, 0.1680999994277954, 0.1779000012902543, 0.20855000184383243, 0.1723000023048371, 0.17335000302409753, 0.16864999633980915, 0.16829999367473647, 0.1676499960012734, 0.1690499993856065, 0.17345000378554687, 0.18585000361781567, 0.1825500003178604, 0.18044999887933955, 0.170599996636156, 0.167199999850709, 0.167650003277231, 0.1656500026001595, 0.18244999955641106, 0.192299994523637, 0.16825000056996942, 0.16945000243140385, 0.16584999684710056, 0.16604999836999923, 0.1941499940585345, 0.16820000018924475, 0.2044500070041977, 0.17574999947100878, 0.17099999968195334, 0.18685000395635143, 0.16645000141579658, 0.17300000035902485, 0.16604999836999923, 0.1718499988783151, 0.1666999960434623, 0.20295001013437286, 0.1732500022626482, 0.16614999913144857, 0.16574999608565122, 0.1662499998928979, 0.17225000192411244, 0.16535000031581149, 0.16820000018924475, 0.18170000112149864, 0.20080000103916973, 0.17099999968195334, 0.17579999985173345, 0.1724499961710535, 0.17574999947100878, 0.17335000302409753, 0.17305000073974952, 0.19750000501517206, 0.14835000183666125, 0.17294999997830018, 0.17064999701688066, 0.16709999908925965, 0.1680000059423037, 0.1679499982856214, 0.19744999735848978, 0.18855000234907493, 0.1773000039975159, 0.17654999828664586, 0.17179999849759042, 0.16925000090850517, 0.1763500040397048, 0.17549999756738544, 0.17020000086631626, 0.240250003116671, 0.17985000158660114, 0.17425000260118395, 0.17210000078193843, 0.1679499982856214, 0.16670000331941992, 0.16785000480012968, 0.16725000023143366, 0.17389999993611127, 0.16814999980852008, 0.21114999981364235, 0.17240000306628644, 0.1780500024324283, 0.17485000716987997, 0.16835000133141875, 0.17965000006370246, 0.1764999979059212, 0.167199999850709, 0.17659999866737053, 0.16645000141579658, 0.17220000154338777, 0.1657999964663759, 0.16600000526523218, 0.16745000175433233, 0.16689999756636098, 0.22265000006882474, 0.17810000281315297, 0.16915000014705583, 0.17035000200849026, 0.16464999498566613, 0.16699999832781032, 0.17305000073974952, 0.20929999300278723, 0.1693499943939969, 0.2638000078150071, 0.18319999799132347, 0.17079999815905467, 0.16869999672053382, 0.23659998987568542, 0.17500000103609636, 0.16730000061215833, 0.17069999739760533, 0.16555000183871016, 0.1666999960434623, 0.16570000298088416, 0.167350000992883, 0.1717000050120987, 0.21065000328235328, 0.1820499965106137, 0.167650003277231, 0.16709999908925965, 0.17239999579032883, 0.16619999951217324, 0.1676499960012734, 0.16664999566273764, 0.16814999980852008, 0.20149999909335747, 0.18569999519968405, 0.17174999811686575, 0.16909999976633117, 0.16835000133141875, 0.17165000463137403, 0.18619999900693074, 0.17700000171316788, 0.20539999968605116, 0.17645000480115414, 0.17279999883612618, 0.17359999765176326, 0.1718499988783151, 0.16974999743979424, 0.17084999853977934, 0.17154999659396708, 0.1731000011204742, 0.17515000217827037, 0.17294999997830018, 0.17164999735541642, 0.17110000044340268, 0.17040000238921493, 0.17055000353138894, 0.18094999541062862, 0.17064999701688066, 0.17150000348920003, 0.18405000446364284, 0.17519999528303742, 0.19934999727411196, 0.18769999587675557, 0.18315000488655642, 0.17175000539282337, 0.17150000348920003, 0.17049999587470666, 0.17970000044442713, 0.18420000560581684, 0.17415000183973461, 0.17239999579032883, 0.17189999925903976, 0.17160000425064936, 0.170899998920504, 0.17224999464815482, 0.17069999739760533, 0.16695000522304326, 0.16884999786270782, 0.24050000502029434, 0.17534999642521143, 0.17115000082412735, 0.21564999769907445, 0.18289999570697546, 0.17025000124704093, 0.18814999930327758, 0.1684500020928681, 0.16820000018924475, 0.1763500040397048, 0.167500002135057, 0.17574999947100878, 0.18260000069858506, 0.17219999426743016, 0.21275000472087413, 0.17744999786373228, 0.17129999469034374, 0.17180000577354804, 0.16775000403868034, 0.21164999634493142, 0.17294999997830018, 0.1836500014178455, 0.17179999849759042, 0.1714999962132424, 0.1811500042094849, 0.1718499988783151, 0.2232000042567961, 0.1718500061542727, 0.170899998920504, 0.24470000789733604, 0.1849999971454963, 0.1701500004855916, 0.1733999961288646, 0.20655000116676092, 0.17460000526625663, 0.17749999824445695, 0.23159999545896426, 0.17965000006370246, 0.17224999464815482, 0.33144999179057777, 0.17349999689031392, 0.218700006371364, 0.17294999997830018, 0.17080000543501228, 0.17160000425064936, 0.3099000023212284, 0.17405000107828528, 0.17025000124704093, 0.22694999643135816, 0.1740000006975606, 0.1733999961288646, 0.27300000510877, 0.17854999896371737, 0.20809999841731042, 0.22695000370731577, 0.17115000082412735, 0.1679499982856214, 0.32944999111350626, 0.17405000107828528, 0.17434999608667567, 0.17254999693250284, 0.17235000268556178, 0.1721500011626631, 0.16999999934341758, 0.3102999980910681, 0.20060000679222867, 0.22315000387607142, 0.1735500045469962, 0.1723000023048371, 0.2577500054030679, 0.13860000035492703, 0.30529999639838934, 0.18324999837204814, 0.17224999464815482, 0.17174999811686575, 0.1808500019251369, 0.17995000234805048, 0.210749996767845, 0.1781999962986447, 0.16925000090850517, 0.16974999743979424, 0.16950000281212851, 0.16844999481691048, 0.16745000175433233, 0.16730000061215833, 0.16960000357357785, 0.2083000072161667, 0.2329499984625727, 0.18185000226367265, 0.1781999962986447, 0.1790000023902394, 0.17065000429283828, 0.17025000124704093, 0.16994999896269292, 0.2021000036620535, 0.17250000382773578, 0.17035000200849026, 0.17070000467356294, 0.1697999978205189, 0.170899998920504, 0.17389999993611127, 0.16785000480012968, 0.1768000001902692],
  "Depth": 2.0,
  "Expectation Value": -7.385554790496826,
  "Optimal Expectation Value": -7.393599987030029,
  "Optimizer durations [ms]": [6.671, 7.112, 4.861, 5.154, 5.01, 5.04, 4.956, 5.501, 4.91, 4.905, 4.839, 4.821, 5.113, 4.997, 4.878, 4.966, 5.656, 5.191, 5.549, 4.944, 4.888, 4.699, 4.754, 5.486, 4.985, 4.985, 4.758, 4.792, 5.067, 18.173, 6.483, 10.934, 4.793, 5.144, 6.021, 5.483, 5.012, 4.807, 4.787, 5.15, 9.805, 7.177, 10.266, 5.431, 11.715, 4.864, 4.747, 4.788, 4.912, 5.197, 6.664, 18.132, 4.769, 4.849, 5.885, 14.953, 4.897, 4.846, 5.215, 4.953, 5.502, 4.885, 4.732, 4.736, 5.565, 4.906, 4.755, 4.981, 5.348, 4.793, 5.062, 5.061, 4.897, 5.049, 4.799, 5.032, 5.537, 4.838, 4.95, 4.758, 5.006, 4.771, 6.284, 12.087, 13.751, 4.83, 5.015, 4.852, 4.75, 5.302, 4.752, 4.683, 4.875, 4.723, 4.7, 6.295, 21.033, 7.317, 4.81, 5.027, 5.062, 5.395, 4.83, 4.764, 4.881, 4.72, 4.829, 4.946, 4.779, 4.787, 5.238, 4.811, 4.942, 5.028, 4.686, 4.713, 4.864, 4.827, 5.4, 5.035, 4.871, 4.742, 4.766, 4.696, 4.698, 5.4, 4.929, 4.898, 4.768, 5.189, 4.824, 4.912, 5.007, 4.968, 5.102, 4.74, 4.735, 4.709, 4.778, 5.0, 4.833, 4.926, 5.537, 4.799, 4.801, 4.885, 4.719, 4.73, 4.928, 4.774, 5.476, 7.242, 5.596, 5.477, 4.773, 4.94, 4.854, 4.805, 5.305, 4.895, 5.635, 4.921, 4.814, 4.836, 5.109, 4.763, 5.482, 4.868, 4.824, 4.824, 4.778, 4.703, 4.726, 4.688, 4.88, 5.455, 4.877, 4.764, 4.754, 4.759, 4.768, 4.712, 6.033, 5.323, 4.803, 4.927, 4.921, 4.801, 4.921, 4.808, 5.375, 5.04, 4.692, 4.823, 4.895, 4.742, 4.686, 4.708, 4.965, 5.381, 4.928, 4.91, 4.764, 4.944, 4.913, 4.775, 4.798, 4.926, 5.554, 4.775, 6.385, 5.643, 4.973, 4.53, 4.81, 5.429, 4.965, 8.053, 5.001, 4.797, 4.892, 5.011, 4.961, 5.426, 5.035, 4.908, 4.698, 4.724, 4.833, 4.723, 5.429, 5.063, 4.772, 4.885, 4.866, 4.691, 4.679, 5.52, 4.853, 5.502, 4.901, 4.859, 4.73, 5.071, 4.918, 4.752, 4.911, 5.418, 4.753, 4.907, 5.104, 4.8, 4.71, 5.939, 5.033, 5.433, 4.96, 4.798, 4.64, 4.987, 4.885, 4.898, 5.615, 5.508, 5.114, 4.849, 4.976, 4.934, 5.2, 4.929, 4.8, 5.541, 4.759, 4.791, 5.255, 4.928, 5.079, 5.017, 4.976, 5.197, 5.915, 6.563, 4.957, 4.772, 4.77, 4.747, 5.095, 5.421, 5.06, 5.11, 4.792, 4.716, 4.72, 4.725, 5.951, 6.44, 4.977, 5.089, 6.637, 11.083, 5.772, 5.11, 4.72, 8.763, 4.707, 5.486, 4.907, 4.855, 6.851, 5.021, 4.9, 5.558, 4.768, 4.715, 7.704, 17.373, 4.915, 5.6, 5.08, 4.9, 6.713, 4.83, 4.701, 5.682, 5.04, 4.951, 7.549, 15.212, 4.907, 4.86, 5.659, 4.942, 4.776, 6.895, 5.58, 5.752, 4.78, 4.807, 6.083, 18.368, 12.616, 4.859, 4.854, 5.123, 5.027, 5.432, 5.409, 4.886, 4.914, 6.012, 4.941, 4.797, 4.785, 5.367, 4.894, 4.907, 4.804, 4.841, 4.807, 4.709, 4.762, 5.003, 5.461, 4.897, 4.862, 4.839, 4.772, 4.717, 4.852, 4.733, 5.193, 4.894, 5.027, 4.989, 4.849, 4.984, 4.837, 5.031, 5.549, 4.913, 5.437, 4.825, 4.796, 4.986, 4.85, 4.757, 4.764, 5.686, 4.745, 4.675, 4.629, 4.911, 4.825, 4.97, 4.892, 7.67, 5.831, 9.341, 4.879, 4.715, 4.798, 5.428, 4.83, 4.823, 5.063, 4.811, 4.786, 5.098, 4.804, 4.9, 5.469, 4.97, 4.772, 4.786, 4.877, 4.786, 4.972, 5.444, 4.97, 4.716, 4.739, 4.725, 4.745, 5.042, 4.878, 5.483, 5.066, 4.778, 4.958, 4.885, 4.763, 4.748, 4.742, 5.236, 5.451, 5.026, 4.819, 4.778, 4.816, 4.734, 4.757, 4.839, 5.345, 4.907, 4.838, 5.08, 5.097, 4.935, 5.234, 4.919, 5.18, 5.837, 4.804, 4.677, 5.543, 4.795, 4.672, 4.9, 5.425, 4.854, 5.339, 4.964, 4.754, 4.842, 4.797, 4.815, 6.079, 5.787, 4.749, 4.869, 4.718, 4.689, 4.763, 4.725, 5.552, 5.034, 4.85, 4.629, 4.752, 5.041, 4.891, 4.898, 6.894, 17.485, 8.791, 7.747, 5.358, 5.079, 4.836, 4.792, 4.891, 4.85, 4.944, 5.109, 4.966, 5.362, 4.972, 4.842, 4.929, 5.013, 4.952, 5.036, 5.348, 4.891, 4.757, 4.66, 4.859, 4.698, 4.685, 5.284, 5.011, 5.447, 5.192, 4.949, 4.781, 4.767, 4.715, 4.702, 4.987, 4.831, 5.373, 4.9, 4.72, 4.815, 4.711, 4.762, 4.693, 5.468, 6.181, 4.811, 4.883, 4.952, 4.781, 4.694, 4.937, 4.828, 5.291, 7.136, 5.348, 4.726, 5.229, 5.027, 4.803, 5.851, 5.019, 4.84, 4.902, 4.823, 4.737, 5.61, 4.961, 5.481, 5.376, 5.435, 4.784, 4.848, 4.829, 4.718, 4.801, 4.729, 5.116, 4.911, 4.86, 4.815, 5.712, 6.018, 4.848, 4.785, 5.031, 4.708, 4.819, 4.693, 4.673, 4.798, 4.862, 4.673, 5.304, 5.114, 5.062, 4.926, 4.868, 5.168, 4.978, 4.941, 5.389, 4.807, 4.737, 4.812, 6.882, 6.917, 4.977, 5.707, 7.468, 4.765, 5.567, 5.178, 4.742, 4.925, 4.746, 5.226, 4.925, 4.71, 4.756, 5.27, 5.08, 4.74, 5.408, 4.932, 4.779, 4.734, 4.705, 4.746, 4.777, 4.839, 4.889, 5.559, 5.202, 4.97, 4.757, 4.811, 4.784, 4.662, 4.712, 5.34, 4.944, 4.772, 4.703, 4.693, 4.624, 5.064, 5.026, 4.917, 5.213, 4.654, 4.703, 4.823, 4.706, 4.86, 5.336, 5.301, 5.57, 5.238, 5.095, 4.901, 4.964, 4.867, 4.732, 4.958, 5.176, 4.78, 5.378, 5.005, 4.98, 4.949, 4.955, 5.278, 5.584, 4.767, 4.849, 5.552, 5.013, 4.993, 5.165, 4.957, 5.447, 4.878, 4.822, 4.734, 4.708, 4.811, 4.697, 4.907, 5.234, 4.868, 4.922, 4.839, 4.739, 4.733, 5.958, 16.015, 10.249, 5.745, 4.797, 4.718, 5.063, 5.546, 4.946, 4.877, 4.781, 4.733, 4.755, 4.66, 4.933, 5.775, 5.165, 5.152, 4.867, 4.725, 4.725, 4.669, 5.096, 5.777, 4.806, 4.795, 4.736, 4.695, 5.923, 4.832, 5.422, 5.125, 5.015, 5.162, 4.794, 4.886, 4.677, 4.798, 4.754, 5.46, 4.951, 4.71, 4.689, 4.763, 4.842, 4.703, 4.788, 5.103, 5.498, 4.893, 4.916, 4.933, 5.059, 5.011, 4.974, 5.408, 7.024, 5.555, 5.011, 4.784, 4.739, 4.749, 5.256, 5.492, 5.085, 5.073, 4.887, 4.81, 4.938, 5.047, 4.827, 5.831, 5.168, 4.955, 5.075, 4.742, 4.734, 4.767, 4.728, 4.918, 5.302, 5.43, 4.972, 4.909, 5.034, 4.802, 5.462, 5.43, 4.845, 5.055, 4.648, 4.92, 4.741, 4.682, 4.718, 4.75, 5.6, 4.989, 4.775, 4.772, 4.673, 4.714, 4.888, 5.429, 4.817, 6.287, 14.592, 4.84, 4.746, 5.783, 5.074, 4.76, 4.785, 4.721, 4.683, 4.804, 4.738, 4.757, 5.458, 5.278, 4.728, 4.704, 4.844, 4.742, 5.05, 4.806, 4.975, 5.378, 5.214, 4.835, 4.702, 4.734, 4.807, 4.966, 4.923, 5.467, 5.072, 4.876, 4.836, 4.782, 4.689, 4.748, 5.341, 4.783, 4.938, 4.858, 4.799, 5.228, 4.782, 4.784, 5.02, 5.197, 4.777, 5.159, 4.944, 5.344, 5.156, 5.114, 5.463, 4.75, 4.787, 4.937, 5.219, 4.904, 4.765, 4.778, 4.746, 5.464, 4.899, 4.79, 4.718, 4.72, 5.888, 4.934, 4.901, 5.705, 5.046, 4.728, 5.133, 5.513, 4.75, 4.867, 4.674, 5.008, 5.746, 4.834, 5.656, 5.307, 4.84, 4.968, 4.786, 5.529, 4.89, 5.16, 4.792, 4.819, 5.049, 9.669, 5.528, 5.447, 4.768, 6.17, 12.656, 5.626, 4.879, 5.377, 8.647, 5.016, 6.011, 5.026, 4.858, 7.511, 4.91, 5.6, 4.801, 4.885, 5.387, 12.967, 9.821, 4.788, 5.644, 4.85, 4.814, 6.438, 5.088, 5.508, 5.722, 4.817, 4.676, 7.672, 15.28, 4.832, 5.299, 4.901, 4.773, 4.734, 7.555, 5.378, 5.756, 4.824, 4.793, 6.346, 15.437, 11.727, 5.064, 4.811, 4.915, 5.136, 5.042, 5.583, 5.064, 4.788, 4.735, 4.83, 4.704, 4.673, 4.702, 4.846, 5.414, 5.666, 5.136, 4.974, 5.116, 4.807, 4.744, 4.833, 5.439, 4.764, 4.764, 4.75, 4.699, 4.767, 4.901, 4.791, 4.945],
  "Optimizer iterations": 953,
  "Optimizer params": [0.998246875305244, 0.4966385137805244, 0.9966862810725329, 0.48532099267887707, 0.4981101525180979, 0.9995394975290868, 0.49680528013702935, 0.49727433230758605, 0.9983442471680214, 0.5310174415508648, 0.9978746696647688, 0.9988417385794864],
  "P": 0,
  "Problem": "RH",
  "QJob durations [ms]": [0.17449999722884968, 0.17970000044442713, 0.16814999980852008, 0.1769499940564856, 0.1747999995131977, 0.17505000141682103, 0.17449999722884968, 0.20864999532932416, 0.17219999426743016, 0.17579999985173345, 0.1735500045469962, 0.17224999464815482, 0.18460000137565657, 0.1781999962986447, 0.1731000011204742, 0.17705000209389254, 0.21470000501722097, 0.182100004167296, 0.17654999828664586, 0.17405000107828528, 0.17115000082412735, 0.16814999980852008, 0.1690499993856065, 0.20870000298600644, 0.17550000484334305, 0.17235000268556178, 0.16994999896269292, 0.16975000471575186, 0.1795999996829778, 0.17810000281315297, 0.2605499976198189, 0.17505000141682103, 0.17110000044340268, 0.18450000061420724, 0.24604999634902924, 0.21165000362088904, 0.18119999731425196, 0.17159999697469175, 0.1714000027277507, 0.1722999950288795, 0.1735500045469962, 0.1720000000204891, 0.2056500015896745, 0.20275000133551657, 0.28315000236034393, 0.1718499988783151, 0.16969999705906957, 0.17040000238921493, 0.17690000095171854, 0.1690499993856065, 0.27179999597137794, 0.1817500015022233, 0.16980000509647653, 0.17094999930122867, 0.22809999791206792, 0.17600000137463212, 0.17234999540960416, 0.17255000420846045, 0.18980000459123403, 0.17574999947100878, 0.20699999731732532, 0.17235000268556178, 0.1696499966783449, 0.17010000010486692, 0.21869999909540638, 0.17514999490231276, 0.16999999934341758, 0.18249999993713573, 0.2010000025620684, 0.170899998920504, 0.17689999367576092, 0.17449999722884968, 0.17344999650958925, 0.17659999866737053, 0.1693499943939969, 0.1762000028975308, 0.206899996555876, 0.17180000577354804, 0.1725999973132275, 0.170599996636156, 0.18165000074077398, 0.16999999934341758, 0.24714999744901434, 0.15895000251475722, 0.1480999999330379, 0.17595000099390745, 0.1771000024746172, 0.1735500045469962, 0.16940000205067918, 0.16950000281212851, 0.16940000205067918, 0.16759999562054873, 0.17795000167097896, 0.16909999976633117, 0.16770000365795568, 0.2626999994390644, 0.14420000297832303, 0.27365000278223306, 0.17084999853977934, 0.17630000365898013, 0.1773000039975159, 0.2132500012521632, 0.17110000044340268, 0.17010000010486692, 0.17335000302409753, 0.16974999743979424, 0.17135000234702602, 0.1786499997251667, 0.171050000062678, 0.17074999777833, 0.17150000348920003, 0.17174999811686575, 0.17454999760957435, 0.1773000039975159, 0.16740000137360767, 0.16870000399649143, 0.17284999921685085, 0.17220000154338777, 0.17349999689031392, 0.174449996848125, 0.16960000357357785, 0.1701500004855916, 0.16730000061215833, 0.16884999786270782, 0.1680000059423037, 0.20470000163186342, 0.17549999756738544, 0.17179999849759042, 0.17099999968195334, 0.19019999308511615, 0.17250000382773578, 0.17559999832883477, 0.17515000217827037, 0.1725999973132275, 0.17345000378554687, 0.16984999820124358, 0.17010000010486692, 0.17010000010486692, 0.16955000319285318, 0.1780500024324283, 0.16955000319285318, 0.1735499972710386, 0.21040000137872994, 0.1723000023048371, 0.1724500034470111, 0.17269999807467684, 0.16895000590011477, 0.16879999748198316, 0.17425000260118395, 0.16945000243140385, 0.20870000298600644, 0.17300000035902485, 0.17315000150119886, 0.17220000154338777, 0.16930000128922984, 0.17294999997830018, 0.1724500034470111, 0.17294999997830018, 0.17349999689031392, 0.1733999961288646, 0.23235000116983429, 0.1760500017553568, 0.17004999972414225, 0.17360000492772087, 0.1770999951986596, 0.16879999748198316, 0.1704500027699396, 0.17294999997830018, 0.17289999959757552, 0.17374999879393727, 0.17099999968195334, 0.1684500020928681, 0.16814999980852008, 0.16789999790489674, 0.1714000027277507, 0.21225000091362745, 0.17324999498669058, 0.170449995493982, 0.17020000086631626, 0.17099999968195334, 0.1692000005277805, 0.16820000018924475, 0.24184999347198755, 0.20495000353548676, 0.1718499988783151, 0.1738499995553866, 0.17564999870955944, 0.17069999739760533, 0.17074999777833, 0.16884999786270782, 0.20509999740170315, 0.17395000031683594, 0.16940000205067918, 0.170599996636156, 0.1752500029397197, 0.1686000032350421, 0.167800004419405, 0.16769999638199806, 0.17455000488553196, 0.20704999769805, 0.17169999773614109, 0.1764999979059212, 0.17084999853977934, 0.17519999528303742, 0.1757500067469664, 0.1703000016277656, 0.16945000243140385, 0.17750000552041456, 0.18339999951422215, 0.17110000044340268, 0.2507999961380847, 0.23105000582290813, 0.1751000017975457, 0.14195000403560698, 0.1715500038699247, 0.17049999587470666, 0.1752500029397197, 0.34235000202897936, 0.1760500017553568, 0.16909999976633117, 0.17314999422524124, 0.17025000124704093, 0.17474999913247302, 0.200250004127156, 0.17419999494450167, 0.17439999646740034, 0.1714999962132424, 0.17040000238921493, 0.17404999380232766, 0.17020000086631626, 0.21025000023655593, 0.18075000116368756, 0.17110000044340268, 0.17415000183973461, 0.17010000010486692, 0.1687500043772161, 0.16760000289650634, 0.21065000328235328, 0.1771000024746172, 0.2183499964303337, 0.17800000205170363, 0.17269999807467684, 0.17210000078193843, 0.1817500015022233, 0.17344999650958925, 0.17050000315066427, 0.17115000082412735, 0.1768000001902692, 0.17169999773614109, 0.1765000051818788, 0.17970000044442713, 0.17039999511325732, 0.1668499971856363, 0.23174999660113826, 0.18364999414188787, 0.20724999194499105, 0.17289999959757552, 0.17064999701688066, 0.16940000205067918, 0.17314999422524124, 0.1743500033626333, 0.1740000006975606, 0.17039999511325732, 0.21025000023655593, 0.18350000027567148, 0.1747999995131977, 0.17840000509750098, 0.18000000272877514, 0.1836500014178455, 0.1765000051818788, 0.17574999947100878, 0.2136999974027276, 0.16909999976633117, 0.1703000016277656, 0.1967999924090691, 0.1727499984554015, 0.17294999997830018, 0.18215000454802066, 0.17515000217827037, 0.17120000120485201, 0.24805000430205837, 0.17729999672155827, 0.1745000045048073, 0.17094999930122867, 0.17099999968195334, 0.17250000382773578, 0.18419999832985923, 0.2078500037896447, 0.17954999930225313, 0.18450000061420724, 0.16995000623865053, 0.16950000281212851, 0.16825000056996942, 0.167650003277231, 0.24545000633224845, 0.23644999600946903, 0.1765000051818788, 0.17980000120587647, 0.28160000510979444, 0.17415000183973461, 0.16925000090850517, 0.16850000247359276, 0.1687500043772161, 0.16850000247359276, 0.1690499993856065, 0.1703000016277656, 0.17519999528303742, 0.17289999959757552, 0.27644999499898404, 0.1761499952408485, 0.17374999879393727, 0.22265000006882474, 0.1692000005277805, 0.16864999633980915, 0.3260999947087839, 0.17175000539282337, 0.17570000636624172, 0.22199999511940405, 0.1788000008673407, 0.17769999976735562, 0.2743499935604632, 0.17279999883612618, 0.1677999971434474, 0.22530000569531694, 0.18039999849861488, 0.1749500006553717, 0.3300500029581599, 0.17175000539282337, 0.17474999913247302, 0.17240000306628644, 0.17144999583251774, 0.17750000552041456, 0.17084999853977934, 0.16570000298088416, 0.21014999219914898, 0.23404999228660017, 0.17269999807467684, 0.1725999973132275, 0.24890000349842012, 0.13799999942420982, 0.18379999528406188, 0.1718499988783151, 0.17094999930122867, 0.1866999955382198, 0.17574999947100878, 0.20194999524392188, 0.1997500003199093, 0.1743500033626333, 0.1745000045048073, 0.2481500050635077, 0.1745000045048073, 0.17020000086631626, 0.17125000158557668, 0.17260000458918512, 0.17425000260118395, 0.17595000099390745, 0.17189999925903976, 0.17289999959757552, 0.17010000010486692, 0.1687500043772161, 0.1709500065771863, 0.1768000001902692, 0.18584999634185806, 0.17504999414086342, 0.17210000078193843, 0.17440000374335796, 0.16899999900488183, 0.16925000090850517, 0.1755499979481101, 0.16929999401327223, 0.16995000623865053, 0.17639999714447185, 0.1773999974830076, 0.17830000433605164, 0.17405000107828528, 0.17630000365898013, 0.1723000023048371, 0.1749500006553717, 0.20969999604858458, 0.17464999837102368, 0.19859999883919954, 0.1713499950710684, 0.17125000158557668, 0.1751000017975457, 0.1701500004855916, 0.17020000086631626, 0.1749500006553717, 0.17544999718666077, 0.16850000247359276, 0.16635000065434724, 0.16969999705906957, 0.17490000027464703, 0.1723000023048371, 0.17194999963976443, 0.1756999990902841, 0.33129999064840376, 0.19004999921889976, 0.17499999376013875, 0.1768000001902692, 0.17174999811686575, 0.17305000073974952, 0.20854999456787482, 0.17239999579032883, 0.16959999629762024, 0.18149999959859997, 0.17300000035902485, 0.170449995493982, 0.18375000217929482, 0.1697000043350272, 0.17454999760957435, 0.2082999999402091, 0.17490000027464703, 0.1688999982434325, 0.16915000014705583, 0.17315000150119886, 0.17205000040121377, 0.17634999676374719, 0.20814999879803509, 0.17570000636624172, 0.16930000128922984, 0.16944999515544623, 0.1693499943939969, 0.17054999625543132, 0.17050000315066427, 0.17249999655177817, 0.20745000074384734, 0.17840000509750098, 0.17194999963976443, 0.17674999980954453, 0.17389999993611127, 0.16930000128922984, 0.1693500016699545, 0.16925000090850517, 0.18909999926108867, 0.20664999465225264, 0.18044999887933955, 0.17120000120485201, 0.17115000082412735, 0.171050000062678, 0.16944999515544623, 0.17094999930122867, 0.17640000442042947, 0.1734000034048222, 0.1738499995553866, 0.17269999807467684, 0.1812999980757013, 0.17954999930225313, 0.17610000213608146, 0.19099999917671084, 0.17474999913247302, 0.170599996636156, 0.16925000090850517, 0.16959999629762024, 0.16694999794708565, 0.22059999173507094, 0.17035000200849026, 0.1677999971434474, 0.17564999870955944, 0.19924999651266262, 0.17269999807467684, 0.19685000006575137, 0.17639999714447185, 0.16975000471575186, 0.17320000188192353, 0.17189999925903976, 0.17269999807467684, 0.24540000595152378, 0.22259999968810007, 0.16940000205067918, 0.17535000370116904, 0.16790000518085435, 0.16855000285431743, 0.16784999752417207, 0.16989999858196825, 0.20914999913657084, 0.17619999562157318, 0.17109999316744506, 0.16980000509647653, 0.17069999739760533, 0.17854999896371737, 0.17130000196630135, 0.17169999773614109, 0.2511000056983903, 0.17294999997830018, 0.2679499957594089, 0.1727499984554015, 0.19919999613193795, 0.18080000154441223, 0.17164999735541642, 0.17099999968195334, 0.17279999883612618, 0.16909999976633117, 0.1754000040818937, 0.18280000222148374, 0.17534999642521143, 0.20804999076062813, 0.17744999786373228, 0.17374999879393727, 0.17585000023245811, 0.1774500051396899, 0.17749999824445695, 0.17645000480115414, 0.16759999562054873, 0.1734000034048222, 0.16879999748198316, 0.16754999523982406, 0.17210000078193843, 0.16734999371692538, 0.1669000048423186, 0.20049999875482172, 0.1769500013324432, 0.20754999422933906, 0.18135000573238358, 0.17365000530844554, 0.16960000357357785, 0.16909999976633117, 0.1677999971434474, 0.16879999748198316, 0.17579999985173345, 0.1752499956637621, 0.20645000040531158, 0.17374999879393727, 0.1679499982856214, 0.1674999948590994, 0.16744999447837472, 0.16830000095069408, 0.167650003277231, 0.20584999583661556, 0.2460999967297539, 0.1735499972710386, 0.17159999697469175, 0.17904999549500644, 0.1692000005277805, 0.16864999633980915, 0.1750999945215881, 0.174299995705951, 0.19360000442247838, 0.1486000037402846, 0.17425000260118395, 0.170449995493982, 0.1825500003178604, 0.17579999985173345, 0.1666999960434623, 0.23484999837819487, 0.17220000154338777, 0.16830000095069408, 0.17389999993611127, 0.16754999523982406, 0.16709999908925965, 0.21689999994123355, 0.17795000167097896, 0.20984999719075859, 0.19815000268863514, 0.19980000070063397, 0.16820000018924475, 0.17169999773614109, 0.1680000059423037, 0.1655000014579855, 0.16679999680491164, 0.16604999836999923, 0.16870000399649143, 0.17619999562157318, 0.16804999904707074, 0.16884999786270782, 0.2350999930058606, 0.1747999995131977, 0.16825000056996942, 0.16755000251578167, 0.16814999980852008, 0.16760000289650634, 0.17099999968195334, 0.16540000069653615, 0.16555000183871016, 0.16984999820124358, 0.17264999769395217, 0.16504999803146347, 0.1706000039121136, 0.17934999777935445, 0.1736999984132126, 0.17344999650958925, 0.17249999655177817, 0.18369999452261254, 0.17249999655177817, 0.17389999993611127, 0.17034999473253265, 0.17039999511325732, 0.16849999519763514, 0.17004999972414225, 0.27799999952549115, 0.2723500074353069, 0.17150000348920003, 0.2177499991375953, 0.17220000154338777, 0.16814999980852008, 0.22679999528918415, 0.18074999388772994, 0.16755000251578167, 0.17395000031683594, 0.16630000027362257, 0.1901499999803491, 0.17490000027464703, 0.1654499938013032, 0.1658000037423335, 0.19499999325489625, 0.17469999875174835, 0.16694999794708565, 0.2087499960907735, 0.1723000023048371, 0.1660999987507239, 0.16555000183871016, 0.1651499987929128, 0.17125000158557668, 0.16704999870853499, 0.16844999481691048, 0.1731000011204742, 0.20905000565107912, 0.18385000294074416, 0.1756999990902841, 0.16709999908925965, 0.17025000124704093, 0.16849999519763514, 0.16540000069653615, 0.17084999853977934, 0.16950000281212851, 0.17135000234702602, 0.16709999908925965, 0.16699999832781032, 0.16569999570492655, 0.16674999642418697, 0.18154999997932464, 0.17135000234702602, 0.17164999735541642, 0.167500002135057, 0.16480000340379775, 0.16634999337838963, 0.1659499976085499, 0.16635000065434724, 0.17124999430961907, 0.19290000636829063, 0.1820499965106137, 0.2067500026896596, 0.18619999900693074, 0.1790000023902394, 0.17264999769395217, 0.1771000024746172, 0.17055000353138894, 0.16600000526523218, 0.17750000552041456, 0.185800003237091, 0.16915000014705583, 0.2164999968954362, 0.17379999917466193, 0.17330000264337286, 0.16755000251578167, 0.1731000011204742, 0.1973000034922734, 0.2101499994751066, 0.16689999756636098, 0.17084999853977934, 0.21770000603282824, 0.17410000145900995, 0.1740000006975606, 0.1773999974830076, 0.17514999490231276, 0.1697999978205189, 0.16769999638199806, 0.16989999858196825, 0.1669000048423186, 0.16755000251578167, 0.16994999896269292, 0.16504999803146347, 0.17514999490231276, 0.19149999570799991, 0.16994999896269292, 0.17150000348920003, 0.17174999811686575, 0.16730000061215833, 0.16584999684710056, 0.23514999338658527, 0.13905000014347024, 0.2800499933073297, 0.18575000285636634, 0.17169999773614109, 0.1680999994277954, 0.1779000012902543, 0.20855000184383243, 0.1723000023048371, 0.17335000302409753, 0.16864999633980915, 0.16829999367473647, 0.1676499960012734, 0.1690499993856065, 0.17345000378554687, 0.18585000361781567, 0.1825500003178604, 0.18044999887933955, 0.170599996636156, 0.167199999850709, 0.167650003277231, 0.1656500026001595, 0.18244999955641106, 0.192299994523637, 0.16825000056996942, 0.16945000243140385, 0.16584999684710056, 0.16604999836999923, 0.1941499940585345, 0.16820000018924475, 0.2044500070041977, 0.17574999947100878, 0.17099999968195334, 0.18685000395635143, 0.16645000141579658, 0.17300000035902485, 0.16604999836999923, 0.1718499988783151, 0.1666999960434623, 0.20295001013437286, 0.1732500022626482, 0.16614999913144857, 0.16574999608565122, 0.1662499998928979, 0.17225000192411244, 0.16535000031581149, 0.16820000018924475, 0.18170000112149864, 0.20080000103916973, 0.17099999968195334, 0.17579999985173345, 0.1724499961710535, 0.17574999947100878, 0.17335000302409753, 0.17305000073974952, 0.19750000501517206, 0.14835000183666125, 0.17294999997830018, 0.17064999701688066, 0.16709999908925965, 0.1680000059423037, 0.1679499982856214, 0.19744999735848978, 0.18855000234907493, 0.1773000039975159, 0.17654999828664586, 0.17179999849759042, 0.16925000090850517, 0.1763500040397048, 0.17549999756738544, 0.17020000086631626, 0.240250003116671, 0.17985000158660114, 0.17425000260118395, 0.17210000078193843, 0.1679499982856214, 0.16670000331941992, 0.16785000480012968, 0.16725000023143366, 0.17389999993611127, 0.16814999980852008, 0.21114999981364235, 0.17240000306628644, 0.1780500024324283, 0.17485000716987997, 0.16835000133141875, 0.17965000006370246, 0.1764999979059212, 0.167199999850709, 0.17659999866737053, 0.16645000141579658, 0.17220000154338777, 0.1657999964663759, 0.16600000526523218, 0.16745000175433233, 0.16689999756636098, 0.22265000006882474, 0.17810000281315297, 0.16915000014705583, 0.17035000200849026, 0.16464999498566613, 0.16699999832781032, 0.17305000073974952, 0.20929999300278723, 0.1693499943939969, 0.2638000078150071, 0.18319999799132347, 0.17079999815905467, 0.16869999672053382, 0.23659998987568542, 0.17500000103609636, 0.16730000061215833, 0.17069999739760533, 0.16555000183871016, 0.1666999960434623, 0.16570000298088416, 0.167350000992883, 0.1717000050120987, 0.21065000328235328, 0.1820499965106137, 0.167650003277231, 0.16709999908925965, 0.17239999579032883, 0.16619999951217324, 0.1676499960012734, 0.16664999566273764, 0.16814999980852008, 0.20149999909335747, 0.18569999519968405, 0.17174999811686575, 0.16909999976633117, 0.16835000133141875, 0.17165000463137403, 0.18619999900693074, 0.17700000171316788, 0.20539999968605116, 0.17645000480115414, 0.17279999883612618, 0.17359999765176326, 0.1718499988783151, 0.16974999743979424, 0.17084999853977934, 0.17154999659396708, 0.1731000011204742, 0.17515000217827037, 0.17294999997830018, 0.17164999735541642, 0.17110000044340268, 0.17040000238921493, 0.17055000353138894, 0.18094999541062862, 0.17064999701688066, 0.17150000348920003, 0.18405000446364284, 0.17519999528303742, 0.19934999727411196, 0.18769999587675557, 0.18315000488655642, 0.17175000539282337, 0.17150000348920003, 0.17049999587470666, 0.17970000044442713, 0.18420000560581684, 0.17415000183973461, 0.17239999579032883, 0.17189999925903976, 0.17160000425064936, 0.170899998920504, 0.17224999464815482, 0.17069999739760533, 0.16695000522304326, 0.16884999786270782, 0.24050000502029434, 0.17534999642521143, 0.17115000082412735, 0.21564999769907445, 0.18289999570697546, 0.17025000124704093, 0.18814999930327758, 0.1684500020928681, 0.16820000018924475, 0.1763500040397048, 0.167500002135057, 0.17574999947100878, 0.18260000069858506, 0.17219999426743016, 0.21275000472087413, 0.17744999786373228, 0.17129999469034374, 0.17180000577354804, 0.16775000403868034, 0.21164999634493142, 0.17294999997830018, 0.1836500014178455, 0.17179999849759042, 0.1714999962132424, 0.1811500042094849, 0.1718499988783151, 0.2232000042567961, 0.1718500061542727, 0.170899998920504, 0.24470000789733604, 0.1849999971454963, 0.1701500004855916, 0.1733999961288646, 0.20655000116676092, 0.17460000526625663, 0.17749999824445695, 0.23159999545896426, 0.17965000006370246, 0.17224999464815482, 0.33144999179057777, 0.17349999689031392, 0.218700006371364, 0.17294999997830018, 0.17080000543501228, 0.17160000425064936, 0.3099000023212284, 0.17405000107828528, 0.17025000124704093, 0.22694999643135816, 0.1740000006975606, 0.1733999961288646, 0.27300000510877, 0.17854999896371737, 0.20809999841731042, 0.22695000370731577, 0.17115000082412735, 0.1679499982856214, 0.32944999111350626, 0.17405000107828528, 0.17434999608667567, 0.17254999693250284, 0.17235000268556178, 0.1721500011626631, 0.16999999934341758, 0.3102999980910681, 0.20060000679222867, 0.22315000387607142, 0.1735500045469962, 0.1723000023048371, 0.2577500054030679, 0.13860000035492703, 0.30529999639838934, 0.18324999837204814, 0.17224999464815482, 0.17174999811686575, 0.1808500019251369, 0.17995000234805048, 0.210749996767845, 0.1781999962986447, 0.16925000090850517, 0.16974999743979424, 0.16950000281212851, 0.16844999481691048, 0.16745000175433233, 0.16730000061215833, 0.16960000357357785, 0.2083000072161667, 0.2329499984625727, 0.18185000226367265, 0.1781999962986447, 0.1790000023902394, 0.17065000429283828, 0.17025000124704093, 0.16994999896269292, 0.2021000036620535, 0.17250000382773578, 0.17035000200849026, 0.17070000467356294, 0.1697999978205189, 0.170899998920504, 0.17389999993611127, 0.16785000480012968, 0.1768000001902692],
  "QPU": "7000000",
  "Qubits": 12,
  "Queue durations [ms]": [0.0, 0.0, 0.0, 0.0, 0.0, 0.0, 0.0, 0.0, 0.0, 0.0, 0.0, 0.0, 0.0, 0.0, 0.0, 0.0, 0.0, 0.0, 0.0, 0.0, 0.0, 0.0, 0.0, 0.0, 0.0, 0.0, 0.0, 0.0, 0.0, 0.0, 0.0, 0.0, 0.0, 0.0, 0.0, 0.0, 0.0, 0.0, 0.0, 0.0, 0.0, 0.0, 0.0, 0.0, 0.0, 0.0, 0.0, 0.0, 0.0, 0.0, 0.0, 0.0, 0.0, 0.0, 0.0, 0.0, 0.0, 0.0, 0.0, 0.0, 0.0, 0.0, 0.0, 0.0, 0.0, 0.0, 0.0, 0.0, 0.0, 0.0, 0.0, 0.0, 0.0, 0.0, 0.0, 0.0, 0.0, 0.0, 0.0, 0.0, 0.0, 0.0, 0.0, 0.0, 0.0, 0.0, 0.0, 0.0, 0.0, 0.0, 0.0, 0.0, 0.0, 0.0, 0.0, 0.0, 0.0, 0.0, 0.0, 0.0, 0.0, 0.0, 0.0, 0.0, 0.0, 0.0, 0.0, 0.0, 0.0, 0.0, 0.0, 0.0, 0.0, 0.0, 0.0, 0.0, 0.0, 0.0, 0.0, 0.0, 0.0, 0.0, 0.0, 0.0, 0.0, 0.0, 0.0, 0.0, 0.0, 0.0, 0.0, 0.0, 0.0, 0.0, 0.0, 0.0, 0.0, 0.0, 0.0, 0.0, 0.0, 0.0, 0.0, 0.0, 0.0, 0.0, 0.0, 0.0, 0.0, 0.0, 0.0, 0.0, 0.0, 0.0, 0.0, 0.0, 0.0, 0.0, 0.0, 0.0, 0.0, 0.0, 0.0, 0.0, 0.0, 0.0, 0.0, 0.0, 0.0, 0.0, 0.0, 0.0, 0.0, 0.0, 0.0, 0.0, 0.0, 0.0, 0.0, 0.0, 0.0, 0.0, 0.0, 0.0, 0.0, 0.0, 0.0, 0.0, 0.0, 0.0, 0.0, 0.0, 0.0, 0.0, 0.0, 0.0, 0.0, 0.0, 0.0, 0.0, 0.0, 0.0, 0.0, 0.0, 0.0, 0.0, 0.0, 0.0, 0.0, 0.0, 0.0, 0.0, 0.0, 0.0, 0.0, 0.0, 0.0, 0.0, 0.0, 0.0, 0.0, 0.0, 0.0, 0.0, 0.0, 0.0, 0.0, 0.0, 0.0, 0.0, 0.0, 0.0, 0.0, 0.0, 0.0, 0.0, 0.0, 0.0, 0.0, 0.0, 0.0, 0.0, 0.0, 0.0, 0.0, 0.0, 0.0, 0.0, 0.0, 0.0, 0.0, 0.0, 0.0, 0.0, 0.0, 0.0, 0.0, 0.0, 0.0, 0.0, 0.0, 0.0, 0.0, 0.0, 0.0, 0.0, 0.0, 0.0, 0.0, 0.0, 0.0, 0.0, 0.0, 0.0, 0.0, 0.0, 0.0, 0.0, 0.0, 0.0, 0.0, 0.0, 0.0, 0.0, 0.0, 0.0, 0.0, 0.0, 0.0, 0.0, 0.0, 0.0, 0.0, 0.0, 0.0, 0.0, 0.0, 0.0, 0.0, 0.0, 0.0, 0.0, 0.0, 0.0, 0.0, 0.0, 0.0, 0.0, 0.0, 0.0, 0.0, 0.0, 0.0, 0.0, 0.0, 0.0, 0.0, 0.0, 0.0, 0.0, 0.0, 0.0, 0.0, 0.0, 0.0, 0.0, 0.0, 0.0, 0.0, 0.0, 0.0, 0.0, 0.0, 0.0, 0.0, 0.0, 0.0, 0.0, 0.0, 0.0, 0.0, 0.0, 0.0, 0.0, 0.0, 0.0, 0.0, 0.0, 0.0, 0.0, 0.0, 0.0, 0.0, 0.0, 0.0, 0.0, 0.0, 0.0, 0.0, 0.0, 0.0, 0.0, 0.0, 0.0, 0.0, 0.0, 0.0, 0.0, 0.0, 0.0, 0.0, 0.0, 0.0, 0.0, 0.0, 0.0, 0.0, 0.0, 0.0, 0.0, 0.0, 0.0, 0.0, 0.0, 0.0, 0.0, 0.0, 0.0, 0.0, 0.0, 0.0, 0.0, 0.0, 0.0, 0.0, 0.0, 0.0, 0.0, 0.0, 0.0, 0.0, 0.0, 0.0, 0.0, 0.0, 0.0, 0.0, 0.0, 0.0, 0.0, 0.0, 0.0, 0.0, 0.0, 0.0, 0.0, 0.0, 0.0, 0.0, 0.0, 0.0, 0.0, 0.0, 0.0, 0.0, 0.0, 0.0, 0.0, 0.0, 0.0, 0.0, 0.0, 0.0, 0.0, 0.0, 0.0, 0.0, 0.0, 0.0, 0.0, 0.0, 0.0, 0.0, 0.0, 0.0, 0.0, 0.0, 0.0, 0.0, 0.0, 0.0, 0.0, 0.0, 0.0, 0.0, 0.0, 0.0, 0.0, 0.0, 0.0, 0.0, 0.0, 0.0, 0.0, 0.0, 0.0, 0.0, 0.0, 0.0, 0.0, 0.0, 0.0, 0.0, 0.0, 0.0, 0.0, 0.0, 0.0, 0.0, 0.0, 0.0, 0.0, 0.0, 0.0, 0.0, 0.0, 0.0, 0.0, 0.0, 0.0, 0.0, 0.0, 0.0, 0.0, 0.0, 0.0, 0.0, 0.0, 0.0, 0.0, 0.0, 0.0, 0.0, 0.0, 0.0, 0.0, 0.0, 0.0, 0.0, 0.0, 0.0, 0.0, 0.0, 0.0, 0.0, 0.0, 0.0, 0.0, 0.0, 0.0, 0.0, 0.0, 0.0, 0.0, 0.0, 0.0, 0.0, 0.0, 0.0, 0.0, 0.0, 0.0, 0.0, 0.0, 0.0, 0.0, 0.0, 0.0, 0.0, 0.0, 0.0, 0.0, 0.0, 0.0, 0.0, 0.0, 0.0, 0.0, 0.0, 0.0, 0.0, 0.0, 0.0, 0.0, 0.0, 0.0, 0.0, 0.0, 0.0, 0.0, 0.0, 0.0, 0.0, 0.0, 0.0, 0.0, 0.0, 0.0, 0.0, 0.0, 0.0, 0.0, 0.0, 0.0, 0.0, 0.0, 0.0, 0.0, 0.0, 0.0, 0.0, 0.0, 0.0, 0.0, 0.0, 0.0, 0.0, 0.0, 0.0, 0.0, 0.0, 0.0, 0.0, 0.0, 0.0, 0.0, 0.0, 0.0, 0.0, 0.0, 0.0, 0.0, 0.0, 0.0, 0.0, 0.0, 0.0, 0.0, 0.0, 0.0, 0.0, 0.0, 0.0, 0.0, 0.0, 0.0, 0.0, 0.0, 0.0, 0.0, 0.0, 0.0, 0.0, 0.0, 0.0, 0.0, 0.0, 0.0, 0.0, 0.0, 0.0, 0.0, 0.0, 0.0, 0.0, 0.0, 0.0, 0.0, 0.0, 0.0, 0.0, 0.0, 0.0, 0.0, 0.0, 0.0, 0.0, 0.0, 0.0, 0.0, 0.0, 0.0, 0.0, 0.0, 0.0, 0.0, 0.0, 0.0, 0.0, 0.0, 0.0, 0.0, 0.0, 0.0, 0.0, 0.0, 0.0, 0.0, 0.0, 0.0, 0.0, 0.0, 0.0, 0.0, 0.0, 0.0, 0.0, 0.0, 0.0, 0.0, 0.0, 0.0, 0.0, 0.0, 0.0, 0.0, 0.0, 0.0, 0.0, 0.0, 0.0, 0.0, 0.0, 0.0, 0.0, 0.0, 0.0, 0.0, 0.0, 0.0, 0.0, 0.0, 0.0, 0.0, 0.0, 0.0, 0.0, 0.0, 0.0, 0.0, 0.0, 0.0, 0.0, 0.0, 0.0, 0.0, 0.0, 0.0, 0.0, 0.0, 0.0, 0.0, 0.0, 0.0, 0.0, 0.0, 0.0, 0.0, 0.0, 0.0, 0.0, 0.0, 0.0, 0.0, 0.0, 0.0, 0.0, 0.0, 0.0, 0.0, 0.0, 0.0, 0.0, 0.0, 0.0, 0.0, 0.0, 0.0, 0.0, 0.0, 0.0, 0.0, 0.0, 0.0, 0.0, 0.0, 0.0, 0.0, 0.0, 0.0, 0.0, 0.0, 0.0, 0.0, 0.0, 0.0, 0.0, 0.0, 0.0, 0.0, 0.0, 0.0, 0.0, 0.0, 0.0, 0.0, 0.0, 0.0, 0.0, 0.0, 0.0, 0.0, 0.0, 0.0, 0.0, 0.0, 0.0, 0.0, 0.0, 0.0, 0.0, 0.0, 0.0, 0.0, 0.0, 0.0, 0.0, 0.0, 0.0, 0.0, 0.0, 0.0, 0.0, 0.0, 0.0, 0.0, 0.0, 0.0, 0.0, 0.0, 0.0, 0.0, 0.0, 0.0, 0.0, 0.0, 0.0, 0.0, 0.0, 0.0, 0.0, 0.0, 0.0, 0.0, 0.0, 0.0, 0.0, 0.0, 0.0, 0.0, 0.0, 0.0, 0.0, 0.0, 0.0, 0.0, 0.0, 0.0, 0.0, 0.0, 0.0, 0.0, 0.0, 0.0, 0.0, 0.0, 0.0, 0.0, 0.0, 0.0, 0.0, 0.0, 0.0, 0.0, 0.0, 0.0, 0.0, 0.0, 0.0, 0.0, 0.0, 0.0, 0.0, 0.0, 0.0, 0.0, 0.0, 0.0, 0.0, 0.0, 0.0, 0.0, 0.0, 0.0, 0.0, 0.0, 0.0, 0.0, 0.0, 0.0, 0.0, 0.0, 0.0, 0.0, 0.0, 0.0, 0.0, 0.0, 0.0, 0.0, 0.0, 0.0, 0.0, 0.0, 0.0, 0.0, 0.0, 0.0, 0.0, 0.0, 0.0, 0.0, 0.0, 0.0, 0.0, 0.0, 0.0, 0.0, 0.0, 0.0, 0.0, 0.0, 0.0, 0.0, 0.0, 0.0, 0.0, 0.0, 0.0, 0.0, 0.0, 0.0, 0.0, 0.0, 0.0, 0.0, 0.0, 0.0, 0.0, 0.0, 0.0, 0.0, 0.0, 0.0, 0.0, 0.0, 0.0, 0.0, 0.0, 0.0, 0.0, 0.0, 0.0, 0.0, 0.0, 0.0, 0.0, 0.0, 0.0, 0.0, 0.0, 0.0, 0.0],
  "Shots": 4096,
  "Size": 12,
  "Total Algorithm duration [s]": 5.072,
  "Total Classic duration [s]": 4.89957720005975,
  "Total Quantum duration [s]": 0.17242279994025012
}
