{
  "Circuit execution durations [ms]": [0.1771000024746172, 0.36079999699722975, 0.17534999642521143, 0.17700000171316788, 0.17084999853977934, 0.3376500026206486, 0.17585000023245811, 0.17659999866737053, 0.1714000027277507, 0.17120000120485201, 0.1694999955361709, 0.17285000649280846, 0.23905000125523657, 0.2813500032061711, 0.1684500020928681, 0.1505999971413985, 0.18655000167200342, 0.17714999557938427, 0.17624999600229785, 0.17225000192411244, 0.17454999760957435, 0.18840000848285854, 0.2245499927084893, 0.17260000458918512, 0.17135000234702602, 0.22349999198922887, 0.16969999705906957, 0.1690499993856065, 0.17490000027464703, 0.17484999989392236, 0.17454999760957435, 0.17054999625543132, 0.17335000302409753, 0.17120000120485201, 0.167350000992883, 0.1756999990902841, 0.17190000653499737, 0.17470000602770597, 0.17674999980954453, 0.17600000137463212, 0.1780499951564707, 0.16865000361576676, 0.1696499966783449, 0.16894999862415716, 0.17454999760957435, 0.19710000196937472, 0.1753999968059361, 0.17289999959757552, 0.17084999853977934, 0.17084999853977934, 0.20629999926313758, 0.17534999642521143, 0.2117000040016137, 0.22710000484948978, 0.17519999528303742, 0.17079999815905467, 0.17144999583251774, 0.17624999600229785, 0.16899999900488183, 0.1714000027277507, 0.1738499995553866, 0.16770000365795568, 0.1790999958757311, 0.17260000458918512, 0.16725000023143366, 0.17025000124704093, 0.16989999858196825, 0.1676499960012734, 0.17574999947100878, 0.20899999799439684, 0.174149994563777, 0.26249999791616574, 0.17499999376013875, 0.1680000059423037, 0.17110000044340268, 0.16844999481691048, 0.16709999908925965, 0.17839999782154337, 0.16740000137360767, 0.16745000175433233, 0.2406999992672354, 0.23030000738799572, 0.1947999990079552, 0.17254999693250284, 0.17705000209389254, 0.17725000361679122, 0.18835000082617626, 0.18120000459020957, 0.1704500027699396, 0.17934999777935445, 0.17115000082412735, 0.20879999647149816, 0.17615000251680613, 0.17475000640843064, 0.17544999718666077, 0.1786499997251667, 0.1734000034048222, 0.1735500045469962, 0.1747999995131977, 0.17899999511428177, 0.20825000683544204, 0.26819999766303226, 0.13589999798568897, 0.2813000028254464, 0.26699999580159783, 0.17839999782154337, 0.17904999549500644, 0.18684999668039382, 0.17430000298190862, 0.17210000078193843, 0.17674999980954453, 0.18049999926006421, 0.2126500039594248, 0.17595000099390745, 0.17449999722884968, 0.17415000183973461, 0.1788000008673407, 0.17759999900590628, 0.17115000082412735, 0.21995000133756548, 0.17829999706009403, 0.19950000569224358, 0.17950000619748607, 0.170899998920504, 0.16990000585792586, 0.16950000281212851, 0.17125000158557668, 0.17164999735541642, 0.2191500025219284, 0.17534999642521143, 0.17040000238921493, 0.17079999815905467, 0.17040000238921493, 0.1720000000204891, 0.1762000028975308, 0.3359000038472004, 0.1825500003178604, 0.17785000090952963, 0.1795999996829778, 0.17630000365898013, 0.18205000378657132, 0.1702499939710833, 0.16864999633980915, 0.16899999900488183, 0.18730000010691583, 0.16879999748198316, 0.2007000002777204, 0.17885000124806538, 0.17484999989392236, 0.18319999799132347, 0.1755499979481101, 0.17379999917466193, 0.20745000074384734, 0.17769999976735562, 0.1788000008673407, 0.17484999989392236, 0.1736999984132126, 0.16840000171214342, 0.1684500020928681, 0.16855000285431743, 0.16814999980852008, 0.1811499969335273, 0.16785000480012968, 0.1710499927867204, 0.18385000294074416, 0.17415000183973461, 0.17264999769395217, 0.21784999989904463, 0.17685000057099387, 0.17054999625543132, 0.17110000044340268, 0.1769500013324432, 0.17305000073974952, 0.185950004379265, 0.17769999976735562, 0.27150000823894516, 0.17750000552041456, 0.17434999608667567, 0.16974999743979424, 0.1697000043350272, 0.17020000086631626, 0.17690000095171854, 0.19544999668141827, 0.2766999969026074, 0.3515999924275093, 0.17410000145900995, 0.17409999418305233, 0.30469999910565093, 0.17269999807467684, 0.1692000005277805, 0.1769500013324432, 0.16795000556157902, 0.16850000247359276, 0.22920000628801063, 0.17719999596010894, 0.1738499995553866, 0.16680000408086926, 0.16840000171214342, 0.16664999566273764, 0.17284999921685085, 0.16804999904707074, 0.21065000328235328, 0.17350000416627154, 0.2769999919109978, 0.2736999958870001, 0.15100000018719584, 0.21159999596420676, 0.20989999757148325, 0.17135000234702602, 0.23484999837819487, 0.17314999422524124, 0.1749500006553717, 0.16894999862415716, 0.17410000145900995, 0.17019999359035864, 0.17234999540960416, 0.17220000154338777, 0.1864000005298294, 0.170899998920504, 0.18185000226367265, 0.17359999765176326, 0.1696499966783449, 0.17194999963976443, 0.17025000124704093, 0.1685499955783598, 0.16909999976633117, 0.17069999739760533, 0.1740000006975606, 0.20870000298600644, 0.17094999930122867, 0.17305000073974952, 0.17235000268556178, 0.1973999969777651, 0.1737000056891702, 0.18514999828767031, 0.18944999465020373, 0.21245000243652612, 0.1736999984132126, 0.1755499979481101, 0.21245000243652612, 0.17995000234805048, 0.17415000183973461, 0.17625000327825546, 0.18139999883715063, 0.25919999461621046, 0.17345000378554687, 0.16969999705906957, 0.17559999832883477, 0.17004999972414225, 0.1703000016277656, 0.18599999748403206, 0.17595000099390745, 0.20760000188602135, 0.17624999600229785, 0.17225000192411244, 0.17345000378554687, 0.17120000120485201, 0.17074999777833, 0.171050000062678, 0.17224999464815482, 0.20590000349329785, 0.1816000003600493, 0.17405000107828528, 0.16784999752417207, 0.17020000086631626, 0.1724499961710535, 0.17634999676374719, 0.2161999946110882, 0.1784999985829927, 0.18650000129127875, 0.17364999803248793, 0.17434999608667567, 0.17350000416627154, 0.16930000128922984, 0.17004999972414225, 0.17965000006370246, 0.20450000010896474, 0.17255000420846045, 0.17659999866737053, 0.17050000315066427, 0.17179999849759042, 0.17235000268556178, 0.17110000044340268, 0.17115000082412735, 0.22650000755675137, 0.13859999671694823, 0.2916999947046861, 0.17514999490231276, 0.17484999989392236, 0.17169999773614109, 0.1720000000204891, 0.1694999955361709, 0.16865000361576676, 0.17795000167097896, 0.1694999955361709, 0.17505000141682103, 0.17469999875174835, 0.20740000036312267, 0.1725999973132275, 0.1738499995553866, 0.16999999934341758, 0.17474999913247302, 0.17099999968195334, 0.17899999511428177, 0.17484999989392236, 0.20629999926313758, 0.2193000036641024, 0.17585000023245811, 0.1696499966783449, 0.1714000027277507, 0.17410000145900995, 0.17004999972414225, 0.18629999976838008, 0.2093499933835119, 0.1707500050542876, 0.1811499969335273, 0.1721499938867055, 0.17424999532522634, 0.17349999689031392, 0.1749500006553717, 0.17700000171316788, 0.21769999875687063, 0.1720000000204891, 0.1680999994277954, 0.16814999980852008, 0.170599996636156, 0.16739999409765005, 0.16975000471575186, 0.17284999921685085, 0.17445000412408262, 0.1718499988783151, 0.19405000057304278, 0.1721499938867055, 0.1738499995553866, 0.1751000017975457, 0.17035000200849026, 0.1690500066615641, 0.19865000649588183, 0.17300000035902485, 0.17110000044340268, 0.22459999308921397, 0.17700000171316788, 0.21954999101581052, 0.14844999532215297, 0.1800500031094998, 0.17910000315168872, 0.16865000361576676, 0.16680000408086926, 0.1697999978205189, 0.17150000348920003, 0.17035000200849026, 0.16574999608565122, 0.17630000365898013, 0.17875000048661605, 0.16950000281212851, 0.1836500014178455, 0.17250000382773578, 0.16840000171214342, 0.17035000200849026, 0.14280000323196873, 0.2755499954218976, 0.17284999921685085, 0.167500002135057, 0.1773999974830076, 0.16740000137360767, 0.17110000044340268, 0.16745000175433233, 0.17445000412408262, 0.17235000268556178, 0.1690499993856065, 0.16804999904707074, 0.16689999756636098, 0.16894999862415716, 0.17459999799029902, 0.16585000412305817, 0.16840000171214342, 0.1825500003178604, 0.19225000141886994, 0.1743500033626333, 0.17464999837102368, 0.17320000188192353, 0.16830000095069408, 0.16585000412305817, 0.16709999908925965, 0.21039999410277233, 0.16785000480012968, 0.17164999735541642, 0.17179999849759042, 0.16730000061215833, 0.16760000289650634, 0.16730000061215833, 0.16715000674594194, 0.1706000039121136, 0.2062499988824129, 0.1725999973132275, 0.16925000090850517, 0.16754999523982406, 0.16665000293869525, 0.1723000023048371, 0.16650000179652125, 0.16710000636521727, 0.17669999942881986, 0.15640000128769316, 0.1735500045469962, 0.1660999987507239, 0.2254999926663004, 0.17359999765176326, 0.16804999904707074, 0.22280000121099874, 0.17829999706009403, 0.17454999760957435, 0.18170000112149864, 0.17544999718666077, 0.17129999469034374, 0.1668499971856363, 0.16775000403868034, 0.16879999748198316, 0.17459999799029902, 0.2059499965980649, 0.17235000268556178, 0.16899999900488183, 0.16774999676272273, 0.16680000408086926, 0.16540000069653615, 0.16954999591689557, 0.16570000298088416, 0.20334999135229737, 0.17249999655177817, 0.1670500059844926, 0.1703000016277656, 0.17039999511325732, 0.17624999600229785, 0.17079999815905467, 0.18234999879496172, 0.20375000167405233, 0.17669999942881986, 0.1693500016699545, 0.16599999798927456, 0.174449996848125, 0.1693500016699545, 0.16769999638199806, 0.16714999946998432, 0.17349999689031392, 0.16730000061215833, 0.17050000315066427, 0.17474999913247302, 0.16999999934341758, 0.16789999790489674, 0.17020000086631626, 0.21544999617617577, 0.1772499963408336, 0.2193000036641024, 0.17330000264337286, 0.16850000247359276, 0.16984999820124358, 0.16980000509647653, 0.1674999948590994, 0.23434999457094818, 0.17934999777935445, 0.1735499972710386, 0.17395000031683594, 0.17490000027464703, 0.17809999553719535, 0.17750000552041456, 0.1734000034048222, 0.1825500003178604, 0.21655000455211848, 0.17290000687353313, 0.17164999735541642, 0.16925000090850517, 0.17035000200849026, 0.17634999676374719, 0.17169999773614109, 0.17379999917466193, 0.17654999828664586, 0.2087500033667311, 0.174449996848125, 0.17099999968195334, 0.1752499956637621, 0.16999999934341758, 0.16855000285431743, 0.1696499966783449, 0.17914999625645578, 0.18194999574916437, 0.24270000722026452, 0.1731000011204742, 0.17205000040121377, 0.2709500040509738, 0.17425000260118395, 0.1710499927867204, 0.1735499972710386, 0.1723000023048371, 0.17079999815905467, 0.17159999697469175, 0.16880000475794077, 0.17705000209389254, 0.17764999938663095, 0.3077000001212582, 0.17160000425064936, 0.17349999689031392, 0.17785000090952963, 0.17145000310847536, 0.22060000628698617, 0.17844999820226803, 0.17424999532522634, 0.16984999820124358, 0.16699999832781032, 0.17754999862518162, 0.20640000002458692, 0.3236999982618727, 0.1721500011626631, 0.22164999973028898, 0.17544999718666077, 0.17449999722884968, 0.24020000273594633, 0.1807000007829629, 0.1820499965106137, 0.24275000032503158, 0.1756999990902841, 0.17220000154338777, 0.2522999930079095, 0.1772499963408336, 0.17529999604448676, 0.2222499970230274, 0.17019999359035864, 0.16830000095069408, 0.2778999987640418, 0.14319999900180846, 0.2938499965239316, 0.272449993644841, 0.17135000234702602, 0.17165000463137403, 0.17359999765176326, 0.17135000234702602, 0.17040000238921493, 0.3491000097710639, 0.16925000090850517, 0.1718500061542727, 0.17315000150119886, 0.17735000437824056, 0.17499999376013875, 0.17240000306628644, 0.17035000200849026, 0.18879999697674066, 0.17294999997830018, 0.17064999701688066, 0.2578000057837926, 0.17744999786373228, 0.20980000408599153, 0.1840999975684099, 0.19054999575018883, 0.1762000028975308, 0.17240000306628644, 0.174449996848125, 0.2074999938486144, 0.17145000310847536, 0.1686000032350421, 0.17690000095171854, 0.16929999401327223, 0.16810000670375302, 0.18389999604551122, 0.16820000018924475, 0.1679499982856214, 0.16785000480012968, 0.16870000399649143, 0.16835000133141875, 0.1685499955783598, 0.17065000429283828, 0.1740000006975606, 0.1694999955361709, 0.18075000116368756, 0.196850007341709, 0.17234999540960416, 0.17374999879393727, 0.17124999430961907, 0.17294999997830018, 0.17430000298190862, 0.17029999435180798, 0.20620000577764586, 0.17545000446261838, 0.17305000073974952, 0.1714999962132424, 0.1730499934637919, 0.17350000416627154, 0.16865000361576676, 0.1771000024746172, 0.2261500048916787, 0.21234999439911917, 0.1731999946059659, 0.17564999870955944, 0.16755000251578167, 0.1666999960434623, 0.16774999676272273, 0.1685499955783598, 0.16994999896269292, 0.21209999249549583, 0.17125000158557668, 0.1688999982434325, 0.1752500029397197, 0.18060000002151355, 0.1801999969757162, 0.17939999816007912, 0.20769999537151307, 0.17120000120485201, 0.17070000467356294, 0.16630000027362257, 0.16655000217724591, 0.16969999705906957, 0.167500002135057, 0.16674999642418697, 0.17049999587470666, 0.17235000268556178, 0.16570000298088416, 0.17250000382773578, 0.17534999642521143, 0.16924999363254756, 0.1790000023902394, 0.1682499932940118, 0.1687499971012585, 0.17754999862518162, 0.1692000005277805, 0.16564999532420188, 0.16799999866634607, 0.1752500029397197, 0.1659500048845075, 0.16745000175433233, 0.17440000374335796, 0.16730000061215833, 0.1926500044646673, 0.17729999672155827, 0.16545000107726082, 0.1662499998928979, 0.16924999363254756, 0.16674999642418697, 0.16670000331941992, 0.1727499984554015, 0.16820000018924475, 0.17644999752519652, 0.16600000526523218, 0.17349999689031392, 0.17064999701688066, 0.21315000049071386, 0.17654999828664586, 0.1714000027277507, 0.17194999963976443, 0.17330000264337286, 0.1687499971012585, 0.16940000205067918, 0.17004999972414225, 0.16825000056996942, 0.1766500063240528, 0.1763500040397048, 0.2114000017172657, 0.1789499947335571, 0.20229999790899456, 0.17305000073974952, 0.1674999948590994, 0.19769999926211312, 0.16989999858196825, 0.16590000450378284, 0.1669000048423186, 0.17305000073974952, 0.16604999836999923, 0.17029999435180798, 0.1731999946059659, 0.1721500011626631, 0.17055000353138894, 0.33260000054724514, 0.2854000049410388, 0.24400000256719068, 0.17449999722884968, 0.17359999765176326, 0.18265000107930973, 0.20915000641252846, 0.1731000011204742, 0.17159999697469175, 0.1714000027277507, 0.17135000234702602, 0.17115000082412735, 0.1690500066615641, 0.21279999782564119, 0.1772499963408336, 0.17315000150119886, 0.1702499939710833, 0.1693500016699545, 0.1814499992178753, 0.1689000055193901, 0.1690499993856065, 0.173999993421603, 0.2069000038318336, 0.17264999769395217, 0.1769499940564856, 0.17374999879393727, 0.17115000082412735, 0.23934999626362696, 0.17300000035902485, 0.1747999995131977, 0.20945000869687647, 0.1740000006975606, 0.17110000044340268, 0.18244999955641106, 0.1725999973132275, 0.18339999951422215, 0.1735500045469962, 0.1766499990480952, 0.18105000344803557, 0.17590000061318278, 0.16994999896269292, 0.17069999739760533, 0.17279999883612618, 0.16945000243140385, 0.16879999748198316, 0.1764999979059212, 0.21830000332556665, 0.1753999968059361, 0.17375000606989488, 0.17520000255899504, 0.17069999739760533, 0.1704500027699396, 0.17050000315066427, 0.1721500011626631, 0.20770000264747068, 0.19225000141886994, 0.1725999973132275, 0.17254999693250284, 0.14090000331634656, 0.17279999883612618, 0.16944999515544623, 0.1724500034470111, 0.2078500037896447, 0.16930000128922984, 0.1686000032350421, 0.1685499955783598, 0.16930000128922984, 0.17189999925903976, 0.16804999904707074, 0.16974999743979424, 0.23115000658435747, 0.20940000104019418, 0.1731000011204742, 0.17330000264337286, 0.17250000382773578, 0.17210000078193843, 0.18975000421050936, 0.21115000708959997, 0.27395000506658107, 0.2686000007088296, 0.17500000103609636, 0.18480000289855525, 0.17749999824445695, 0.17754999862518162, 0.1905999961309135, 0.21779999951831996, 0.17250000382773578, 0.16870000399649143, 0.1674999948590994, 0.16699999832781032, 0.1768000001902692, 0.1668499971856363, 0.16940000205067918, 0.16670000331941992, 0.17349999689031392, 0.16974999743979424, 0.16670000331941992, 0.16814999980852008, 0.23365000379271805, 0.17150000348920003, 0.1706000039121136, 0.1724500034470111, 0.21135000133654103, 0.1873500004876405, 0.1724500034470111, 0.16619999951217324, 0.17309999384451658, 0.16534999303985387, 0.16540000069653615, 0.17225000192411244, 0.19085000531049445, 0.17289999959757552, 0.19284999871160835, 0.17324999498669058, 0.17359999765176326, 0.16925000090850517, 0.1664000010350719, 0.16574999608565122, 0.23859999782871455, 0.17174999811686575, 0.16994999896269292, 0.18744999397313222, 0.17559999832883477, 0.1680999994277954, 0.17035000200849026, 0.20704999769805, 0.17154999659396708, 0.17225000192411244, 0.17749999824445695, 0.1713499950710684, 0.20220000442350283, 0.17875000048661605, 0.17859999934444204, 0.18730000010691583, 0.17590000061318278, 0.1723000023048371, 0.16745000175433233, 0.17374999879393727, 0.16619999951217324, 0.16614999913144857, 0.17150000348920003, 0.225800002226606, 0.17870000010589138, 0.16870000399649143, 0.1685499955783598, 0.1709500065771863, 0.18049999926006421, 0.16880000475794077, 0.16830000095069408, 0.1666999960434623, 0.16630000027362257, 0.1724500034470111, 0.16770000365795568, 0.16589999722782522, 0.17300000035902485, 0.17530000332044438, 0.16535000031581149, 0.16699999832781032, 0.17734999710228294, 0.17420000222045928, 0.1669000048423186, 0.16634999337838963, 0.1693500016699545, 0.16614999913144857, 0.16659999528201297, 0.16519999917363748, 0.1718499988783151, 0.1871999993454665, 0.1720000000204891, 0.16589999722782522, 0.16999999934341758, 0.17515000217827037, 0.17515000217827037, 0.16770000365795568, 0.22730000637238845, 0.16834999405546114, 0.16560000221943483, 0.1667500037001446, 0.1720000000204891, 0.1738499995553866, 0.17120000120485201, 0.17625000327825546, 0.17289999959757552, 0.23810000129742548, 0.18775000353343785, 0.17345000378554687, 0.1706000039121136, 0.16965000395430252, 0.16799999866634607, 0.171050000062678, 0.2699999968172051, 0.20979999681003392, 0.171050000062678, 0.18670000281417742, 0.16909999976633117, 0.16894999862415716, 0.19685000006575137, 0.12350000179139897, 0.1394500031892676, 0.17395000031683594, 0.1764999979059212, 0.16924999363254756, 0.17420000222045928, 0.16850000247359276, 0.17885000124806538, 0.16569999570492655, 0.1657999964663759, 0.16635000065434724, 0.17424999532522634, 0.1666999960434623, 0.1679499982856214, 0.18519999866839498, 0.19345000328030437, 0.17249999655177817, 0.17145000310847536, 0.1662499998928979, 0.16575000336160883, 0.17474999913247302, 0.17125000158557668, 0.1723000023048371, 0.2117000040016137, 0.17704999481793493, 0.17070000467356294, 0.1752500029397197, 0.1660999987507239, 0.16709999908925965, 0.21955000556772575, 0.17884999397210777, 0.18560000171419233, 0.17624999600229785, 0.16804999904707074, 0.16694999794708565, 0.16870000399649143, 0.1697000043350272, 0.16944999515544623, 0.21084999752929434, 0.1731000011204742, 0.17210000078193843, 0.16704999870853499, 0.16714999946998432, 0.167199999850709, 0.16600000526523218, 0.18185000226367265, 0.17269999807467684, 0.1683999944361858, 0.16709999908925965, 0.16655000217724591, 0.1677999971434474, 0.1986499992199242, 0.17314999422524124, 0.167500002135057, 0.1660999987507239, 0.1660999987507239, 0.17300000035902485, 0.17114999354816973, 0.16699999832781032, 0.1663999937591143, 0.167350000992883, 0.16789999790489674, 0.1660999987507239, 0.17920000391313806, 0.17469999875174835, 0.167350000992883, 0.1714000027277507, 0.17054999625543132, 0.1684500020928681, 0.355799995304551, 0.2729500047280453, 0.2078500037896447, 0.16984999820124358, 0.170899998920504, 0.17430000298190862, 0.16820000018924475, 0.16694999794708565, 0.2156000045943074, 0.1733999961288646, 0.16540000069653615, 0.16630000027362257, 0.16694999794708565, 0.16789999790489674, 0.16650000179652125, 0.16864999633980915, 0.16655000217724591, 0.17135000234702602, 0.22140000510262325, 0.17035000200849026, 0.17094999930122867, 0.18014999659499153, 0.17615000251680613, 0.17330000264337286, 0.1731000011204742, 0.1773999974830076, 0.1657999964663759, 0.1688999982434325, 0.170899998920504, 0.16535000031581149, 0.16540000069653615, 0.16930000128922984, 0.1668499971856363, 0.17615000251680613, 0.1992999968933873, 0.17484999989392236, 0.16589999722782522, 0.17334999574813992, 0.17189999925903976, 0.16894999862415716, 0.16884999786270782, 0.17074999777833, 0.2015000063693151, 0.17420000222045928, 0.16700000560376793, 0.16645000141579658, 0.1676499960012734, 0.16655000217724591, 0.16540000069653615, 0.16769999638199806, 0.16795000556157902, 0.16980000509647653, 0.1755499979481101, 0.17454999760957435, 0.17025000124704093, 0.16770000365795568, 0.17144999583251774, 0.1692000005277805, 0.207199998840224, 0.17250000382773578, 0.16529999993508682, 0.1664000010350719, 0.2157500057364814, 0.17205000040121377, 0.16754999523982406, 0.17189999925903976, 0.17530000332044438, 0.19615000201156363, 0.17224999464815482, 0.1659499976085499, 0.16730000061215833, 0.1965000046766363, 0.17179999849759042, 0.1680999994277954, 0.1688999982434325, 0.17069999739760533, 0.18025000463239849, 0.16599999798927456, 0.18249999993713573, 0.1679499982856214, 0.16725000023143366, 0.16745000175433233, 0.1738499995553866, 0.20494999625952914, 0.16959999629762024, 0.16835000133141875, 0.16604999836999923, 0.1718499988783151, 0.16605000564595684, 0.16915000014705583, 0.17194999963976443, 0.16835000133141875, 0.17294999997830018, 0.17110000044340268, 0.16884999786270782, 0.16650000179652125, 0.1660999987507239, 0.1676499960012734, 0.1666999960434623, 0.2033500059042126, 0.17315000150119886, 0.1687499971012585, 0.16634999337838963, 0.1969500008272007, 0.1797500008251518, 0.17294999997830018, 0.17120000120485201, 0.1772499963408336, 0.1876499954960309, 0.17999999545281753, 0.17685000057099387, 0.1668499971856363, 0.2383499959250912, 0.17270000535063446, 0.167500002135057, 0.2085999949485995, 0.16804999904707074, 0.16604999836999923, 0.17020000086631626, 0.17084999853977934, 0.17145000310847536, 0.17029999435180798, 0.16655000217724591, 0.1914000022225082, 0.17674999980954453, 0.17269999807467684, 0.17719999596010894, 0.17069999739760533, 0.16769999638199806, 0.16880000475794077, 0.16754999523982406, 0.3509499947540462, 0.17704999481793493, 0.16999999934341758, 0.17374999879393727, 0.16884999786270782, 0.1462500003981404, 0.21274999744491652, 0.1715500038699247, 0.17250000382773578, 0.1664000010350719, 0.17830000433605164, 0.17099999968195334, 0.221800000872463, 0.17980000120587647, 0.20184999448247254, 0.3089499950874597, 0.17300000035902485, 0.16704999870853499, 0.1725999973132275, 0.16789999790489674, 0.1686000032350421, 0.3516500073601492, 0.17379999917466193, 0.16909999976633117, 0.21994999406160787, 0.174449996848125, 0.17585000023245811, 0.34115001471946016, 0.1740000006975606, 0.167650003277231, 0.2199000009568408, 0.17364999803248793, 0.16954999591689557, 0.13390000094659626, 0.14060000103199854, 0.17610000213608146, 0.17405000107828528, 0.22319999698083848, 0.17279999883612618, 0.1661000060266815, 0.30750000587431714, 0.17515000217827037, 0.22214999626157805, 0.17210000078193843, 0.1688999982434325, 0.22739999985788018, 0.13915000090491958, 0.2787000048556365, 0.17674999980954453, 0.17300000035902485, 0.1735499972710386, 0.20865000260528177, 0.17069999739760533, 0.16825000056996942, 0.17159999697469175, 0.1880999989225529, 0.17145000310847536, 0.17574999947100878, 0.2354500029468909, 0.1724499961710535, 0.17020000086631626, 0.1731999946059659, 0.170899998920504, 0.1771000024746172, 0.18280000222148374, 0.1794499985408038, 0.20819999917875975, 0.18139999883715063, 0.17379999917466193, 0.16760000289650634, 0.16814999980852008, 0.16825000056996942, 0.1684500020928681, 0.16775000403868034, 0.17410000145900995, 0.17395000031683594, 0.17210000078193843, 0.17179999849759042, 0.17110000044340268, 0.17220000154338777, 0.17744999786373228, 0.16899999900488183, 0.23224999313242733, 0.17405000107828528, 0.17210000078193843, 0.17125000158557668, 0.17559999832883477, 0.16955000319285318, 0.16984999820124358, 0.17855000623967499, 0.2088999972329475, 0.17264999769395217, 0.1720000000204891, 0.16814999980852008, 0.1697999978205189, 0.17359999765176326, 0.167199999850709, 0.17300000035902485, 0.1727499984554015, 0.20414999744389206, 0.17644999752519652, 0.17050000315066427, 0.16930000128922984, 0.1694999955361709, 0.17315000150119886, 0.18310000450583175, 0.20670000230893493, 0.1731000011204742, 0.2326500034541823, 0.17829999706009403, 0.1768000001902692, 0.17315000150119886, 0.170899998920504, 0.16984999820124358, 0.18404999718768522, 0.17154999659396708, 0.17279999883612618, 0.17764999938663095, 0.1693500016699545, 0.17110000044340268, 0.22205000277608633, 0.171050000062678, 0.20719999156426638, 0.17829999706009403, 0.17300000035902485, 0.1917000045068562, 0.17839999782154337, 0.17344999650958925, 0.2184999975725077, 0.17445000412408262, 0.18389999604551122, 0.17150000348920003, 0.21210000704741105, 0.17240000306628644, 0.17624999600229785, 0.17520000255899504, 0.16830000095069408, 0.16730000061215833, 0.206899996555876, 0.17309999384451658, 0.16039999900385737, 0.17535000370116904, 0.17269999807467684, 0.17719999596010894, 0.20545000006677583, 0.1703000016277656, 0.17324999498669058, 0.1697999978205189, 0.17705000209389254, 0.16974999743979424, 0.16925000090850517, 0.17484999989392236, 0.19359999714652076, 0.17110000044340268, 0.1720000000204891, 0.16900000628083944, 0.16894999862415716, 0.1732500022626482, 0.1697000043350272, 0.18645000091055408, 0.21784999989904463, 0.18000000272877514, 0.17529999604448676, 0.1790999958757311, 0.17379999917466193, 0.17025000124704093, 0.17625000327825546, 0.17079999815905467, 0.1777500001480803, 0.17085000581573695, 0.16909999976633117, 0.16820000018924475, 0.17279999883612618, 0.17725000361679122, 0.17235000268556178, 0.1697999978205189, 0.1770999951986596, 0.20950000180164352, 0.1788000008673407, 0.1722999950288795, 0.17135000234702602, 0.171050000062678, 0.2720500051509589, 0.188749996596016, 0.13715000022784807, 0.17885000124806538, 0.20504999702097848, 0.17500000103609636, 0.18165000074077398, 0.21009999181842431, 0.18135000573238358, 0.17535000370116904, 0.17425000260118395, 0.16984999820124358, 0.17050000315066427, 0.16950000281212851, 0.17720000323606655, 0.18280000222148374, 0.1721500011626631, 0.1714999962132424, 0.18044999887933955, 0.1687500043772161, 0.1688999982434325, 0.16840000171214342, 0.16984999820124358, 0.17194999963976443, 0.17364999803248793, 0.17544999718666077, 0.18494999676477164, 0.1788000008673407, 0.17549999756738544, 0.17674999980954453, 0.17194999963976443, 0.18170000112149864, 0.20605000463547185, 0.17125000158557668, 0.17025000124704093, 0.1735499972710386, 0.16909999976633117, 0.17469999875174835, 0.1751000017975457, 0.18635000014910474, 0.17129999469034374, 0.17035000200849026, 0.17639999714447185, 0.17219999426743016, 0.17205000040121377, 0.1734000034048222, 0.17145000310847536, 0.17080000543501228, 0.2070500049740076, 0.1720000000204891, 0.17124999430961907, 0.16925000090850517, 0.16999999934341758, 0.17374999879393727, 0.16825000056996942, 0.17395000031683594, 0.2089000045089051, 0.1740000006975606, 0.17500000103609636, 0.23135000810725614, 0.1714999962132424, 0.1709500065771863, 0.1720000000204891, 0.17099999968195334, 0.2146499973605387, 0.1745000045048073, 0.1755499979481101, 0.37304998841136694, 0.17210000078193843, 0.17054999625543132, 0.228749995585531, 0.2115500028594397, 0.1738499995553866, 0.17590000061318278, 0.17590000061318278, 0.1706000039121136, 0.170449995493982, 0.16899999900488183, 0.18304999684914947, 0.20894999761367217, 0.17225000192411244, 0.17110000044340268, 0.17349999689031392, 0.17800000205170363, 0.23939999664435163, 0.17610000213608146, 0.17374999879393727, 0.2055000004475005, 0.1769500013324432, 0.18315000488655642, 0.16940000205067918, 0.17099999968195334, 0.17289999959757552, 0.17175000539282337, 0.17050000315066427, 0.21349999587982893, 0.17349999689031392, 0.1713499950710684, 0.18489999638404697, 0.17574999947100878, 0.17174999811686575, 0.1804000057745725, 0.1780500024324283, 0.21004999871365726, 0.17055000353138894, 0.17344999650958925, 0.21860000560991466, 0.17755000590113923, 0.17615000251680613, 0.17164999735541642, 0.17069999739760533, 0.16974999743979424, 0.17289999959757552, 0.17315000150119886, 0.18339999951422215, 0.17085000581573695, 0.17335000302409753, 0.23594999947817996, 0.17205000040121377, 0.1690500066615641, 0.16835000133141875, 0.16880000475794077, 0.16799999866634607, 0.1836500014178455, 0.1721500011626631, 0.16670000331941992, 0.1676499960012734, 0.1690499993856065, 0.17240000306628644, 0.20524999854387715, 0.1762000028975308, 0.167350000992883, 0.1697999978205189, 0.17330000264337286, 0.171050000062678, 0.24005000159377232, 0.21114999981364235, 0.17415000183973461, 0.1784999985829927, 0.16635000065434724, 0.16694999794708565, 0.23824999516364187, 0.17320000188192353, 0.17749999824445695, 0.19595000048866495, 0.167199999850709, 0.1669000048423186, 0.18219999765278772, 0.16804999904707074, 0.16604999836999923, 0.16709999908925965, 0.17800000205170363, 0.19795000116573647, 0.1718499988783151, 0.2135499962605536, 0.1723000023048371, 0.16915000014705583, 0.16655000217724591, 0.1665499949012883, 0.2352499941480346, 0.17520000255899504, 0.167650003277231, 0.16940000205067918, 0.1706000039121136, 0.17115000082412735, 0.16820000018924475, 0.167199999850709, 0.17129999469034374, 0.17814999591792002, 0.1724500034470111, 0.16555000183871016, 0.16665000293869525, 0.16664999566273764, 0.16545000107726082, 0.1727499984554015, 0.18049999926006421, 0.19885000074282289, 0.1771000024746172, 0.16835000133141875, 0.16714999946998432, 0.170599996636156, 0.17114999354816973, 0.16725000023143366, 0.16630000027362257, 0.20835000032093376, 0.17965000006370246, 0.17515000217827037, 0.17129999469034374, 0.16790000518085435, 0.16955000319285318, 0.17039999511325732, 0.20205000328132883, 0.20634999964386225, 0.17239999579032883, 0.16745000175433233, 0.1662499998928979, 0.16799999866634607, 0.17264999769395217, 0.1910499995574355, 0.19640000391518697, 0.295150006422773, 0.17630000365898013, 0.17144999583251774, 0.16825000056996942, 0.18109999655280262, 0.18805000581778586, 0.17110000044340268, 0.17255000420846045, 0.16555000183871016, 0.17769999976735562, 0.17345000378554687, 0.167350000992883, 0.18459999409969896, 0.18560000171419233, 0.16734999371692538, 0.16865000361576676, 0.16725000023143366, 0.16969999705906957, 0.17379999917466193, 0.170449995493982, 0.17004999972414225, 0.20789999689441174, 0.1751000017975457, 0.16700000560376793, 0.16754999523982406, 0.16540000069653615, 0.1724500034470111, 0.16700000560376793, 0.16969999705906957, 0.167350000992883, 0.16704999870853499, 0.16909999976633117, 0.167350000992883, 0.167800004419405, 0.2208499936386943, 0.16950000281212851, 0.16944999515544623, 0.20965000294381753, 0.18740000086836517, 0.17360000492772087, 0.1783499974408187, 0.16614999913144857, 0.1693500016699545, 0.16790000518085435, 0.16769999638199806, 0.17420000222045928, 0.1899999988381751, 0.17225000192411244, 0.16909999976633117, 0.16665000293869525, 0.18154999997932464, 0.17514999490231276, 0.18095000268658623, 0.21440000273287296, 0.17070000467356294, 0.16704999870853499, 0.35054999898420647, 0.17335000302409753, 0.17130000196630135, 0.167199999850709, 0.17264999769395217, 0.17705000209389254, 0.21754999761469662, 0.17579999985173345, 0.1696499966783449, 0.16814999980852008, 0.16745000175433233, 0.17294999997830018, 0.18760000966722146, 0.17640000442042947, 0.1660999987507239, 0.17020000086631626, 0.16645000141579658, 0.17264999769395217, 0.17209999350598082, 0.1773999974830076, 0.2028500020969659],
  "Depth": 2.0,
  "Expectation Value": -7.353053569793701,
  "Optimal Expectation Value": -7.393599987030029,
  "Optimizer durations [ms]": [5.17, 8.435, 5.13, 5.08, 4.958, 8.143, 5.482, 5.933, 4.966, 4.821, 4.76, 4.832, 6.162, 7.941, 6.34, 7.966, 5.301, 5.164, 5.131, 4.94, 4.936, 5.262, 5.812, 4.917, 4.857, 5.655, 4.868, 4.817, 5.014, 5.53, 5.005, 4.861, 5.005, 4.846, 4.792, 4.992, 4.912, 5.604, 5.063, 5.104, 5.126, 4.854, 4.791, 4.789, 4.87, 5.334, 5.06, 4.888, 4.884, 4.828, 5.513, 5.051, 5.654, 5.959, 5.092, 4.892, 4.872, 4.973, 5.687, 4.866, 4.957, 5.422, 5.106, 4.998, 4.771, 4.903, 4.86, 4.766, 5.093, 5.515, 4.93, 6.432, 5.033, 4.785, 4.901, 4.759, 4.794, 5.58, 4.811, 4.748, 5.911, 6.001, 5.37, 5.396, 5.133, 5.103, 5.249, 5.114, 4.882, 5.019, 4.832, 5.493, 5.226, 4.876, 4.92, 5.073, 4.867, 4.814, 5.006, 5.033, 5.477, 6.771, 11.26, 12.956, 7.079, 5.033, 4.893, 5.17, 4.945, 4.855, 4.921, 5.118, 5.451, 4.944, 4.922, 4.845, 4.975, 5.069, 4.829, 5.662, 4.98, 5.446, 5.109, 4.819, 4.81, 4.745, 4.793, 4.801, 5.393, 4.963, 4.774, 4.771, 4.776, 4.748, 4.981, 7.552, 5.192, 5.863, 5.192, 5.077, 5.16, 4.891, 4.789, 4.843, 5.228, 5.517, 5.592, 5.006, 4.893, 5.215, 5.011, 4.936, 5.497, 5.104, 5.184, 5.035, 4.945, 4.805, 4.977, 10.706, 4.778, 5.039, 4.774, 4.883, 5.218, 4.946, 5.02, 5.665, 5.041, 4.852, 4.852, 5.04, 5.004, 5.835, 5.176, 6.727, 5.144, 12.325, 4.836, 4.873, 4.8, 4.952, 5.369, 11.525, 8.263, 5.09, 5.04, 9.403, 4.969, 4.782, 4.939, 4.751, 4.767, 6.892, 5.049, 9.794, 4.754, 4.724, 4.747, 4.861, 4.781, 5.42, 9.839, 6.867, 6.728, 7.534, 13.11, 6.932, 6.393, 5.982, 9.819, 4.988, 5.358, 4.915, 4.9, 4.852, 4.803, 5.081, 10.462, 5.441, 4.855, 4.769, 4.805, 4.741, 4.697, 4.735, 4.775, 4.817, 5.516, 4.837, 4.897, 4.821, 5.279, 4.935, 5.111, 5.204, 5.356, 4.929, 4.963, 5.527, 5.1, 4.898, 4.783, 5.178, 6.502, 4.938, 4.759, 4.868, 4.785, 4.769, 5.22, 4.932, 5.468, 4.903, 4.801, 4.832, 4.855, 4.727, 4.757, 4.958, 5.374, 5.045, 4.89, 4.708, 4.781, 4.829, 4.869, 5.606, 5.034, 5.182, 4.877, 4.915, 4.874, 4.751, 4.745, 4.968, 5.479, 4.814, 5.011, 4.831, 4.915, 4.873, 4.765, 4.777, 6.168, 20.226, 7.409, 4.956, 4.881, 5.096, 4.728, 4.744, 4.764, 4.924, 4.753, 4.861, 4.948, 5.44, 4.834, 4.989, 4.798, 4.907, 4.824, 5.06, 4.87, 5.39, 5.452, 4.993, 4.77, 4.799, 4.824, 4.728, 5.183, 5.524, 4.752, 4.994, 4.855, 4.871, 4.89, 4.884, 4.989, 5.749, 4.912, 4.708, 4.711, 4.738, 4.661, 4.769, 4.899, 5.331, 4.831, 5.316, 4.829, 4.948, 4.954, 4.793, 4.733, 5.524, 4.882, 4.753, 5.484, 5.05, 5.627, 7.184, 6.231, 5.126, 4.782, 4.708, 4.823, 4.861, 4.83, 4.749, 5.093, 5.627, 4.839, 5.082, 4.957, 4.712, 4.834, 7.449, 6.914, 4.943, 4.75, 4.956, 4.744, 4.789, 4.761, 4.894, 4.94, 5.211, 4.758, 4.704, 4.736, 4.885, 4.688, 4.714, 5.086, 5.301, 5.07, 4.948, 4.935, 4.772, 4.737, 4.631, 5.432, 4.844, 4.821, 4.796, 4.737, 4.721, 4.676, 4.713, 4.888, 5.521, 4.974, 4.899, 4.77, 4.691, 4.829, 4.781, 4.771, 5.112, 4.584, 4.938, 4.748, 5.764, 4.968, 4.771, 5.516, 5.112, 4.916, 5.04, 4.855, 4.88, 4.83, 4.713, 4.813, 4.955, 5.467, 4.928, 4.79, 4.728, 4.707, 4.88, 4.823, 4.743, 5.41, 4.975, 4.749, 4.863, 4.879, 5.533, 4.835, 4.983, 5.422, 5.537, 4.806, 4.591, 4.958, 4.769, 4.729, 4.747, 4.845, 5.333, 4.745, 4.876, 4.855, 4.719, 4.887, 5.487, 5.07, 5.509, 5.081, 4.744, 4.812, 5.131, 4.732, 6.413, 5.084, 5.655, 4.877, 4.846, 4.968, 5.292, 4.998, 5.108, 5.735, 4.872, 4.86, 4.766, 4.68, 5.026, 4.833, 4.815, 4.887, 5.442, 4.877, 4.833, 4.9, 4.8, 4.735, 4.76, 5.045, 11.039, 6.213, 4.864, 4.778, 6.626, 11.807, 5.301, 4.843, 4.825, 9.033, 4.776, 5.423, 5.499, 4.981, 7.385, 4.889, 4.843, 5.76, 4.803, 5.574, 18.935, 4.917, 4.758, 5.979, 4.943, 5.414, 7.71, 4.913, 5.665, 4.954, 4.879, 6.019, 19.851, 5.24, 6.035, 4.903, 4.837, 6.171, 5.874, 4.988, 5.635, 4.764, 4.724, 6.76, 14.862, 7.9, 6.929, 7.117, 4.925, 4.92, 5.019, 4.833, 8.115, 5.044, 4.937, 4.877, 5.022, 5.701, 4.823, 4.808, 5.152, 4.856, 4.885, 6.34, 4.923, 5.489, 9.979, 7.836, 4.957, 4.781, 4.85, 5.45, 4.865, 4.72, 4.9, 4.732, 4.732, 5.029, 4.775, 4.749, 5.129, 4.74, 4.747, 4.731, 4.763, 4.836, 4.732, 5.04, 5.358, 4.852, 4.87, 4.743, 4.829, 4.908, 4.775, 5.317, 4.867, 4.707, 4.782, 4.897, 4.913, 4.699, 4.901, 5.852, 5.599, 5.145, 5.785, 4.783, 4.752, 4.76, 4.829, 4.868, 6.012, 4.931, 4.807, 4.918, 5.181, 5.124, 5.061, 5.525, 4.916, 4.812, 4.712, 4.725, 4.758, 4.745, 4.714, 4.783, 4.848, 4.973, 5.311, 5.019, 4.803, 5.116, 4.949, 4.776, 5.594, 4.795, 4.678, 4.76, 4.955, 4.702, 4.725, 4.867, 4.718, 5.224, 4.947, 4.715, 4.73, 4.772, 4.746, 4.75, 4.939, 5.33, 5.103, 4.749, 4.889, 4.767, 5.474, 4.959, 4.803, 5.469, 5.028, 4.728, 4.773, 4.84, 4.769, 4.881, 5.009, 5.578, 5.088, 5.481, 4.966, 4.76, 5.258, 4.852, 4.736, 5.359, 4.98, 4.686, 5.215, 4.869, 4.807, 4.872, 7.732, 20.881, 6.26, 4.917, 4.88, 5.139, 5.461, 4.847, 4.83, 4.744, 4.864, 4.802, 4.731, 5.368, 5.064, 4.866, 4.744, 5.345, 5.278, 4.751, 4.838, 4.847, 5.393, 4.843, 4.909, 4.825, 4.832, 6.038, 4.88, 4.843, 5.437, 4.751, 4.694, 5.023, 4.801, 5.047, 4.931, 4.928, 5.919, 4.925, 4.733, 4.729, 4.821, 4.733, 4.748, 4.897, 5.36, 4.952, 4.9, 4.915, 4.747, 4.768, 4.761, 4.789, 5.42, 5.221, 4.839, 4.791, 7.1, 5.023, 4.629, 4.693, 5.525, 4.776, 4.756, 4.735, 4.711, 4.771, 4.694, 4.714, 5.983, 5.691, 4.857, 4.886, 4.852, 4.803, 5.131, 5.401, 6.716, 6.564, 5.026, 8.067, 4.961, 4.972, 5.385, 5.812, 5.019, 4.827, 4.739, 4.751, 4.901, 4.745, 4.781, 4.751, 5.474, 4.824, 4.697, 4.764, 5.986, 4.926, 4.89, 5.014, 5.548, 5.216, 4.949, 4.749, 4.914, 4.704, 4.705, 4.89, 5.341, 4.981, 5.3, 4.841, 4.92, 4.81, 4.708, 5.332, 5.863, 4.913, 4.869, 5.145, 5.052, 4.779, 4.78, 5.446, 4.926, 5.457, 5.053, 4.943, 5.383, 5.123, 5.125, 5.278, 5.582, 4.916, 4.752, 4.837, 4.704, 4.714, 4.851, 5.571, 5.099, 4.871, 4.717, 4.872, 4.932, 5.131, 4.775, 4.96, 5.387, 5.004, 4.752, 4.689, 4.823, 4.877, 4.668, 4.712, 5.376, 4.915, 4.71, 4.714, 4.762, 4.759, 4.712, 4.696, 4.858, 5.264, 4.874, 4.69, 4.727, 4.973, 5.019, 4.717, 5.737, 4.773, 4.719, 4.711, 4.864, 4.833, 4.879, 4.919, 4.886, 5.761, 5.296, 4.965, 4.864, 4.82, 4.751, 4.908, 6.599, 5.474, 4.853, 5.132, 4.783, 4.74, 5.343, 11.783, 16.658, 5.557, 5.032, 5.121, 5.001, 5.391, 5.098, 4.684, 4.698, 5.077, 4.985, 4.714, 4.759, 5.154, 5.302, 4.975, 4.908, 4.712, 4.699, 4.941, 4.9, 4.849, 5.658, 5.061, 4.89, 4.916, 4.692, 4.699, 5.577, 5.045, 5.223, 4.939, 4.788, 4.734, 4.781, 4.762, 4.781, 5.534, 4.962, 4.905, 4.754, 4.749, 4.715, 4.717, 5.035, 4.942, 4.828, 5.094, 4.705, 4.704, 5.289, 4.973, 4.797, 4.801, 4.712, 5.471, 4.987, 10.313, 4.768, 4.804, 4.732, 4.726, 5.377, 5.01, 4.73, 4.911, 4.815, 4.768, 8.256, 6.889, 5.448, 4.827, 4.776, 4.836, 4.779, 4.716, 5.56, 4.875, 4.747, 4.686, 4.746, 4.748, 4.677, 4.955, 4.776, 4.812, 5.753, 4.788, 4.772, 4.982, 4.982, 4.962, 4.903, 5.003, 5.32, 4.802, 4.816, 4.651, 4.659, 4.78, 4.694, 4.957, 5.972, 5.015, 4.718, 5.014, 4.912, 4.776, 4.781, 4.893, 5.388, 5.003, 4.847, 4.715, 4.741, 4.711, 4.681, 4.945, 6.062, 4.783, 4.926, 4.875, 4.808, 4.724, 4.82, 4.75, 5.507, 4.937, 4.725, 4.712, 5.699, 4.984, 4.78, 4.81, 4.963, 5.347, 4.947, 4.731, 4.723, 5.31, 4.886, 4.723, 4.852, 5.485, 5.101, 4.892, 5.048, 4.807, 4.686, 4.742, 4.902, 5.409, 4.845, 4.742, 4.718, 4.835, 4.718, 4.765, 4.861, 5.362, 4.962, 4.817, 4.796, 4.698, 4.794, 4.772, 4.719, 5.39, 4.973, 4.769, 4.737, 5.336, 5.131, 4.938, 5.272, 5.045, 5.209, 5.186, 4.884, 4.67, 6.021, 4.98, 4.824, 5.512, 4.757, 4.687, 4.803, 4.889, 4.899, 4.83, 4.949, 5.254, 5.388, 4.952, 5.134, 4.892, 4.754, 4.761, 4.774, 8.267, 5.669, 5.667, 5.011, 4.837, 7.282, 10.566, 5.215, 4.959, 4.64, 9.328, 4.829, 5.548, 5.085, 5.377, 7.279, 4.956, 5.469, 4.967, 4.76, 4.798, 13.41, 10.643, 4.768, 5.448, 5.058, 4.961, 7.847, 4.995, 4.794, 5.688, 4.968, 4.733, 8.506, 12.088, 5.058, 4.83, 5.485, 4.885, 4.689, 7.62, 5.056, 5.587, 4.976, 4.778, 5.768, 13.915, 16.575, 5.003, 4.896, 4.828, 5.409, 4.793, 4.703, 4.796, 5.17, 4.829, 5.033, 15.731, 4.851, 4.724, 4.844, 4.757, 4.874, 5.022, 5.031, 5.542, 5.115, 4.935, 4.71, 4.71, 4.723, 4.696, 4.736, 5.348, 4.86, 4.786, 5.414, 4.754, 4.875, 4.926, 4.772, 5.867, 4.901, 4.789, 4.788, 5.077, 4.764, 4.72, 4.969, 5.476, 4.883, 4.832, 4.75, 4.825, 4.862, 4.696, 4.826, 4.945, 5.705, 4.943, 4.868, 4.759, 4.834, 4.83, 5.016, 5.423, 4.911, 5.728, 5.03, 4.901, 4.801, 4.768, 4.775, 5.197, 5.479, 4.881, 4.994, 4.744, 4.78, 5.551, 4.848, 5.418, 5.035, 4.854, 5.218, 4.969, 4.798, 5.734, 4.942, 5.187, 5.469, 5.638, 4.836, 4.927, 4.931, 4.737, 4.687, 5.372, 5.663, 19.161, 5.369, 4.864, 4.907, 5.532, 5.116, 4.826, 4.709, 4.994, 4.81, 4.784, 4.886, 5.304, 4.893, 4.825, 4.757, 4.704, 4.87, 4.63, 5.285, 5.354, 5.116, 4.948, 5.034, 4.896, 4.776, 5.136, 5.273, 5.013, 4.87, 4.772, 4.726, 4.915, 5.07, 4.811, 4.784, 4.943, 5.538, 5.037, 4.972, 4.792, 4.829, 6.759, 16.998, 8.96, 5.026, 5.499, 4.909, 5.009, 5.43, 5.026, 5.003, 4.868, 4.789, 4.776, 4.741, 5.043, 5.415, 4.899, 4.773, 4.936, 4.8, 4.732, 4.784, 4.742, 5.402, 4.776, 4.805, 5.117, 5.049, 4.891, 4.939, 4.779, 5.065, 5.464, 4.772, 5.705, 4.868, 4.787, 4.992, 4.861, 5.171, 4.897, 4.775, 4.863, 4.762, 4.746, 4.92, 4.923, 4.953, 5.483, 5.034, 4.813, 4.729, 4.763, 4.837, 4.749, 4.867, 5.467, 4.904, 4.858, 6.818, 5.57, 4.772, 4.75, 4.761, 5.498, 4.921, 4.994, 8.41, 4.862, 4.767, 5.575, 5.523, 4.882, 4.907, 4.984, 4.792, 4.811, 4.718, 5.078, 5.448, 4.826, 4.758, 4.819, 5.007, 5.981, 5.012, 4.888, 5.332, 5.066, 5.055, 4.754, 4.765, 4.812, 4.773, 4.819, 5.351, 4.903, 4.869, 5.178, 4.966, 4.823, 5.053, 5.029, 5.312, 4.878, 4.833, 5.651, 5.043, 4.929, 4.833, 4.963, 5.392, 4.867, 4.725, 5.037, 4.784, 4.784, 5.929, 4.903, 4.755, 5.4, 4.722, 4.693, 5.21, 4.947, 4.755, 4.789, 4.792, 5.421, 5.426, 5.002, 4.753, 4.846, 4.878, 4.843, 6.075, 5.622, 4.959, 5.003, 4.756, 4.765, 5.941, 4.996, 5.079, 5.352, 4.773, 4.728, 5.036, 4.773, 4.717, 4.774, 5.033, 5.369, 4.937, 8.193, 4.939, 4.85, 4.712, 4.686, 5.767, 5.33, 4.769, 4.773, 4.796, 4.868, 4.885, 4.724, 5.389, 5.181, 4.967, 4.728, 4.755, 4.723, 4.685, 4.774, 5.147, 5.437, 5.038, 4.817, 4.745, 4.802, 4.809, 4.796, 4.731, 5.55, 5.193, 4.887, 4.876, 4.721, 4.751, 4.753, 5.387, 5.451, 4.937, 4.736, 4.683, 4.731, 4.854, 5.698, 20.056, 7.788, 5.03, 4.92, 4.867, 5.086, 5.302, 4.688, 4.963, 4.718, 5.552, 4.949, 4.76, 5.184, 5.241, 4.756, 4.816, 4.731, 4.777, 4.882, 4.769, 4.933, 5.494, 4.991, 4.751, 4.736, 4.701, 4.905, 4.715, 4.794, 4.729, 4.924, 4.758, 4.718, 4.703, 5.626, 4.857, 4.753, 5.458, 5.231, 5.057, 5.081, 4.738, 4.819, 4.768, 4.749, 4.886, 5.327, 4.923, 4.836, 4.733, 5.072, 5.061, 5.178, 5.44, 5.012, 4.761, 8.037, 4.946, 4.818, 5.094, 4.928, 5.012, 15.244, 5.008, 4.785, 4.758, 4.782, 4.874, 5.198, 4.936, 4.784, 4.829, 5.01, 4.998, 4.919, 4.968, 5.462],
  "Optimizer iterations": 1523,
  "Optimizer params": [0.9985588492118459, 0.4958436307242654, 0.0024683539338177522, 0.49638829444783855, 0.502963243429532, 0.01233451551155732, 0.4993776234825111, 0.4221066023550924, 0.004548956977348229, 0.49786026153830537, 0.9996658918510245, 0.003773855056983927],
  "P": 0,
  "Problem": "RH",
  "QJob durations [ms]": [0.1771000024746172, 0.36079999699722975, 0.17534999642521143, 0.17700000171316788, 0.17084999853977934, 0.3376500026206486, 0.17585000023245811, 0.17659999866737053, 0.1714000027277507, 0.17120000120485201, 0.1694999955361709, 0.17285000649280846, 0.23905000125523657, 0.2813500032061711, 0.1684500020928681, 0.1505999971413985, 0.18655000167200342, 0.17714999557938427, 0.17624999600229785, 0.17225000192411244, 0.17454999760957435, 0.18840000848285854, 0.2245499927084893, 0.17260000458918512, 0.17135000234702602, 0.22349999198922887, 0.16969999705906957, 0.1690499993856065, 0.17490000027464703, 0.17484999989392236, 0.17454999760957435, 0.17054999625543132, 0.17335000302409753, 0.17120000120485201, 0.167350000992883, 0.1756999990902841, 0.17190000653499737, 0.17470000602770597, 0.17674999980954453, 0.17600000137463212, 0.1780499951564707, 0.16865000361576676, 0.1696499966783449, 0.16894999862415716, 0.17454999760957435, 0.19710000196937472, 0.1753999968059361, 0.17289999959757552, 0.17084999853977934, 0.17084999853977934, 0.20629999926313758, 0.17534999642521143, 0.2117000040016137, 0.22710000484948978, 0.17519999528303742, 0.17079999815905467, 0.17144999583251774, 0.17624999600229785, 0.16899999900488183, 0.1714000027277507, 0.1738499995553866, 0.16770000365795568, 0.1790999958757311, 0.17260000458918512, 0.16725000023143366, 0.17025000124704093, 0.16989999858196825, 0.1676499960012734, 0.17574999947100878, 0.20899999799439684, 0.174149994563777, 0.26249999791616574, 0.17499999376013875, 0.1680000059423037, 0.17110000044340268, 0.16844999481691048, 0.16709999908925965, 0.17839999782154337, 0.16740000137360767, 0.16745000175433233, 0.2406999992672354, 0.23030000738799572, 0.1947999990079552, 0.17254999693250284, 0.17705000209389254, 0.17725000361679122, 0.18835000082617626, 0.18120000459020957, 0.1704500027699396, 0.17934999777935445, 0.17115000082412735, 0.20879999647149816, 0.17615000251680613, 0.17475000640843064, 0.17544999718666077, 0.1786499997251667, 0.1734000034048222, 0.1735500045469962, 0.1747999995131977, 0.17899999511428177, 0.20825000683544204, 0.26819999766303226, 0.13589999798568897, 0.2813000028254464, 0.26699999580159783, 0.17839999782154337, 0.17904999549500644, 0.18684999668039382, 0.17430000298190862, 0.17210000078193843, 0.17674999980954453, 0.18049999926006421, 0.2126500039594248, 0.17595000099390745, 0.17449999722884968, 0.17415000183973461, 0.1788000008673407, 0.17759999900590628, 0.17115000082412735, 0.21995000133756548, 0.17829999706009403, 0.19950000569224358, 0.17950000619748607, 0.170899998920504, 0.16990000585792586, 0.16950000281212851, 0.17125000158557668, 0.17164999735541642, 0.2191500025219284, 0.17534999642521143, 0.17040000238921493, 0.17079999815905467, 0.17040000238921493, 0.1720000000204891, 0.1762000028975308, 0.3359000038472004, 0.1825500003178604, 0.17785000090952963, 0.1795999996829778, 0.17630000365898013, 0.18205000378657132, 0.1702499939710833, 0.16864999633980915, 0.16899999900488183, 0.18730000010691583, 0.16879999748198316, 0.2007000002777204, 0.17885000124806538, 0.17484999989392236, 0.18319999799132347, 0.1755499979481101, 0.17379999917466193, 0.20745000074384734, 0.17769999976735562, 0.1788000008673407, 0.17484999989392236, 0.1736999984132126, 0.16840000171214342, 0.1684500020928681, 0.16855000285431743, 0.16814999980852008, 0.1811499969335273, 0.16785000480012968, 0.1710499927867204, 0.18385000294074416, 0.17415000183973461, 0.17264999769395217, 0.21784999989904463, 0.17685000057099387, 0.17054999625543132, 0.17110000044340268, 0.1769500013324432, 0.17305000073974952, 0.185950004379265, 0.17769999976735562, 0.27150000823894516, 0.17750000552041456, 0.17434999608667567, 0.16974999743979424, 0.1697000043350272, 0.17020000086631626, 0.17690000095171854, 0.19544999668141827, 0.2766999969026074, 0.3515999924275093, 0.17410000145900995, 0.17409999418305233, 0.30469999910565093, 0.17269999807467684, 0.1692000005277805, 0.1769500013324432, 0.16795000556157902, 0.16850000247359276, 0.22920000628801063, 0.17719999596010894, 0.1738499995553866, 0.16680000408086926, 0.16840000171214342, 0.16664999566273764, 0.17284999921685085, 0.16804999904707074, 0.21065000328235328, 0.17350000416627154, 0.2769999919109978, 0.2736999958870001, 0.15100000018719584, 0.21159999596420676, 0.20989999757148325, 0.17135000234702602, 0.23484999837819487, 0.17314999422524124, 0.1749500006553717, 0.16894999862415716, 0.17410000145900995, 0.17019999359035864, 0.17234999540960416, 0.17220000154338777, 0.1864000005298294, 0.170899998920504, 0.18185000226367265, 0.17359999765176326, 0.1696499966783449, 0.17194999963976443, 0.17025000124704093, 0.1685499955783598, 0.16909999976633117, 0.17069999739760533, 0.1740000006975606, 0.20870000298600644, 0.17094999930122867, 0.17305000073974952, 0.17235000268556178, 0.1973999969777651, 0.1737000056891702, 0.18514999828767031, 0.18944999465020373, 0.21245000243652612, 0.1736999984132126, 0.1755499979481101, 0.21245000243652612, 0.17995000234805048, 0.17415000183973461, 0.17625000327825546, 0.18139999883715063, 0.25919999461621046, 0.17345000378554687, 0.16969999705906957, 0.17559999832883477, 0.17004999972414225, 0.1703000016277656, 0.18599999748403206, 0.17595000099390745, 0.20760000188602135, 0.17624999600229785, 0.17225000192411244, 0.17345000378554687, 0.17120000120485201, 0.17074999777833, 0.171050000062678, 0.17224999464815482, 0.20590000349329785, 0.1816000003600493, 0.17405000107828528, 0.16784999752417207, 0.17020000086631626, 0.1724499961710535, 0.17634999676374719, 0.2161999946110882, 0.1784999985829927, 0.18650000129127875, 0.17364999803248793, 0.17434999608667567, 0.17350000416627154, 0.16930000128922984, 0.17004999972414225, 0.17965000006370246, 0.20450000010896474, 0.17255000420846045, 0.17659999866737053, 0.17050000315066427, 0.17179999849759042, 0.17235000268556178, 0.17110000044340268, 0.17115000082412735, 0.22650000755675137, 0.13859999671694823, 0.2916999947046861, 0.17514999490231276, 0.17484999989392236, 0.17169999773614109, 0.1720000000204891, 0.1694999955361709, 0.16865000361576676, 0.17795000167097896, 0.1694999955361709, 0.17505000141682103, 0.17469999875174835, 0.20740000036312267, 0.1725999973132275, 0.1738499995553866, 0.16999999934341758, 0.17474999913247302, 0.17099999968195334, 0.17899999511428177, 0.17484999989392236, 0.20629999926313758, 0.2193000036641024, 0.17585000023245811, 0.1696499966783449, 0.1714000027277507, 0.17410000145900995, 0.17004999972414225, 0.18629999976838008, 0.2093499933835119, 0.1707500050542876, 0.1811499969335273, 0.1721499938867055, 0.17424999532522634, 0.17349999689031392, 0.1749500006553717, 0.17700000171316788, 0.21769999875687063, 0.1720000000204891, 0.1680999994277954, 0.16814999980852008, 0.170599996636156, 0.16739999409765005, 0.16975000471575186, 0.17284999921685085, 0.17445000412408262, 0.1718499988783151, 0.19405000057304278, 0.1721499938867055, 0.1738499995553866, 0.1751000017975457, 0.17035000200849026, 0.1690500066615641, 0.19865000649588183, 0.17300000035902485, 0.17110000044340268, 0.22459999308921397, 0.17700000171316788, 0.21954999101581052, 0.14844999532215297, 0.1800500031094998, 0.17910000315168872, 0.16865000361576676, 0.16680000408086926, 0.1697999978205189, 0.17150000348920003, 0.17035000200849026, 0.16574999608565122, 0.17630000365898013, 0.17875000048661605, 0.16950000281212851, 0.1836500014178455, 0.17250000382773578, 0.16840000171214342, 0.17035000200849026, 0.14280000323196873, 0.2755499954218976, 0.17284999921685085, 0.167500002135057, 0.1773999974830076, 0.16740000137360767, 0.17110000044340268, 0.16745000175433233, 0.17445000412408262, 0.17235000268556178, 0.1690499993856065, 0.16804999904707074, 0.16689999756636098, 0.16894999862415716, 0.17459999799029902, 0.16585000412305817, 0.16840000171214342, 0.1825500003178604, 0.19225000141886994, 0.1743500033626333, 0.17464999837102368, 0.17320000188192353, 0.16830000095069408, 0.16585000412305817, 0.16709999908925965, 0.21039999410277233, 0.16785000480012968, 0.17164999735541642, 0.17179999849759042, 0.16730000061215833, 0.16760000289650634, 0.16730000061215833, 0.16715000674594194, 0.1706000039121136, 0.2062499988824129, 0.1725999973132275, 0.16925000090850517, 0.16754999523982406, 0.16665000293869525, 0.1723000023048371, 0.16650000179652125, 0.16710000636521727, 0.17669999942881986, 0.15640000128769316, 0.1735500045469962, 0.1660999987507239, 0.2254999926663004, 0.17359999765176326, 0.16804999904707074, 0.22280000121099874, 0.17829999706009403, 0.17454999760957435, 0.18170000112149864, 0.17544999718666077, 0.17129999469034374, 0.1668499971856363, 0.16775000403868034, 0.16879999748198316, 0.17459999799029902, 0.2059499965980649, 0.17235000268556178, 0.16899999900488183, 0.16774999676272273, 0.16680000408086926, 0.16540000069653615, 0.16954999591689557, 0.16570000298088416, 0.20334999135229737, 0.17249999655177817, 0.1670500059844926, 0.1703000016277656, 0.17039999511325732, 0.17624999600229785, 0.17079999815905467, 0.18234999879496172, 0.20375000167405233, 0.17669999942881986, 0.1693500016699545, 0.16599999798927456, 0.174449996848125, 0.1693500016699545, 0.16769999638199806, 0.16714999946998432, 0.17349999689031392, 0.16730000061215833, 0.17050000315066427, 0.17474999913247302, 0.16999999934341758, 0.16789999790489674, 0.17020000086631626, 0.21544999617617577, 0.1772499963408336, 0.2193000036641024, 0.17330000264337286, 0.16850000247359276, 0.16984999820124358, 0.16980000509647653, 0.1674999948590994, 0.23434999457094818, 0.17934999777935445, 0.1735499972710386, 0.17395000031683594, 0.17490000027464703, 0.17809999553719535, 0.17750000552041456, 0.1734000034048222, 0.1825500003178604, 0.21655000455211848, 0.17290000687353313, 0.17164999735541642, 0.16925000090850517, 0.17035000200849026, 0.17634999676374719, 0.17169999773614109, 0.17379999917466193, 0.17654999828664586, 0.2087500033667311, 0.174449996848125, 0.17099999968195334, 0.1752499956637621, 0.16999999934341758, 0.16855000285431743, 0.1696499966783449, 0.17914999625645578, 0.18194999574916437, 0.24270000722026452, 0.1731000011204742, 0.17205000040121377, 0.2709500040509738, 0.17425000260118395, 0.1710499927867204, 0.1735499972710386, 0.1723000023048371, 0.17079999815905467, 0.17159999697469175, 0.16880000475794077, 0.17705000209389254, 0.17764999938663095, 0.3077000001212582, 0.17160000425064936, 0.17349999689031392, 0.17785000090952963, 0.17145000310847536, 0.22060000628698617, 0.17844999820226803, 0.17424999532522634, 0.16984999820124358, 0.16699999832781032, 0.17754999862518162, 0.20640000002458692, 0.3236999982618727, 0.1721500011626631, 0.22164999973028898, 0.17544999718666077, 0.17449999722884968, 0.24020000273594633, 0.1807000007829629, 0.1820499965106137, 0.24275000032503158, 0.1756999990902841, 0.17220000154338777, 0.2522999930079095, 0.1772499963408336, 0.17529999604448676, 0.2222499970230274, 0.17019999359035864, 0.16830000095069408, 0.2778999987640418, 0.14319999900180846, 0.2938499965239316, 0.272449993644841, 0.17135000234702602, 0.17165000463137403, 0.17359999765176326, 0.17135000234702602, 0.17040000238921493, 0.3491000097710639, 0.16925000090850517, 0.1718500061542727, 0.17315000150119886, 0.17735000437824056, 0.17499999376013875, 0.17240000306628644, 0.17035000200849026, 0.18879999697674066, 0.17294999997830018, 0.17064999701688066, 0.2578000057837926, 0.17744999786373228, 0.20980000408599153, 0.1840999975684099, 0.19054999575018883, 0.1762000028975308, 0.17240000306628644, 0.174449996848125, 0.2074999938486144, 0.17145000310847536, 0.1686000032350421, 0.17690000095171854, 0.16929999401327223, 0.16810000670375302, 0.18389999604551122, 0.16820000018924475, 0.1679499982856214, 0.16785000480012968, 0.16870000399649143, 0.16835000133141875, 0.1685499955783598, 0.17065000429283828, 0.1740000006975606, 0.1694999955361709, 0.18075000116368756, 0.196850007341709, 0.17234999540960416, 0.17374999879393727, 0.17124999430961907, 0.17294999997830018, 0.17430000298190862, 0.17029999435180798, 0.20620000577764586, 0.17545000446261838, 0.17305000073974952, 0.1714999962132424, 0.1730499934637919, 0.17350000416627154, 0.16865000361576676, 0.1771000024746172, 0.2261500048916787, 0.21234999439911917, 0.1731999946059659, 0.17564999870955944, 0.16755000251578167, 0.1666999960434623, 0.16774999676272273, 0.1685499955783598, 0.16994999896269292, 0.21209999249549583, 0.17125000158557668, 0.1688999982434325, 0.1752500029397197, 0.18060000002151355, 0.1801999969757162, 0.17939999816007912, 0.20769999537151307, 0.17120000120485201, 0.17070000467356294, 0.16630000027362257, 0.16655000217724591, 0.16969999705906957, 0.167500002135057, 0.16674999642418697, 0.17049999587470666, 0.17235000268556178, 0.16570000298088416, 0.17250000382773578, 0.17534999642521143, 0.16924999363254756, 0.1790000023902394, 0.1682499932940118, 0.1687499971012585, 0.17754999862518162, 0.1692000005277805, 0.16564999532420188, 0.16799999866634607, 0.1752500029397197, 0.1659500048845075, 0.16745000175433233, 0.17440000374335796, 0.16730000061215833, 0.1926500044646673, 0.17729999672155827, 0.16545000107726082, 0.1662499998928979, 0.16924999363254756, 0.16674999642418697, 0.16670000331941992, 0.1727499984554015, 0.16820000018924475, 0.17644999752519652, 0.16600000526523218, 0.17349999689031392, 0.17064999701688066, 0.21315000049071386, 0.17654999828664586, 0.1714000027277507, 0.17194999963976443, 0.17330000264337286, 0.1687499971012585, 0.16940000205067918, 0.17004999972414225, 0.16825000056996942, 0.1766500063240528, 0.1763500040397048, 0.2114000017172657, 0.1789499947335571, 0.20229999790899456, 0.17305000073974952, 0.1674999948590994, 0.19769999926211312, 0.16989999858196825, 0.16590000450378284, 0.1669000048423186, 0.17305000073974952, 0.16604999836999923, 0.17029999435180798, 0.1731999946059659, 0.1721500011626631, 0.17055000353138894, 0.33260000054724514, 0.2854000049410388, 0.24400000256719068, 0.17449999722884968, 0.17359999765176326, 0.18265000107930973, 0.20915000641252846, 0.1731000011204742, 0.17159999697469175, 0.1714000027277507, 0.17135000234702602, 0.17115000082412735, 0.1690500066615641, 0.21279999782564119, 0.1772499963408336, 0.17315000150119886, 0.1702499939710833, 0.1693500016699545, 0.1814499992178753, 0.1689000055193901, 0.1690499993856065, 0.173999993421603, 0.2069000038318336, 0.17264999769395217, 0.1769499940564856, 0.17374999879393727, 0.17115000082412735, 0.23934999626362696, 0.17300000035902485, 0.1747999995131977, 0.20945000869687647, 0.1740000006975606, 0.17110000044340268, 0.18244999955641106, 0.1725999973132275, 0.18339999951422215, 0.1735500045469962, 0.1766499990480952, 0.18105000344803557, 0.17590000061318278, 0.16994999896269292, 0.17069999739760533, 0.17279999883612618, 0.16945000243140385, 0.16879999748198316, 0.1764999979059212, 0.21830000332556665, 0.1753999968059361, 0.17375000606989488, 0.17520000255899504, 0.17069999739760533, 0.1704500027699396, 0.17050000315066427, 0.1721500011626631, 0.20770000264747068, 0.19225000141886994, 0.1725999973132275, 0.17254999693250284, 0.14090000331634656, 0.17279999883612618, 0.16944999515544623, 0.1724500034470111, 0.2078500037896447, 0.16930000128922984, 0.1686000032350421, 0.1685499955783598, 0.16930000128922984, 0.17189999925903976, 0.16804999904707074, 0.16974999743979424, 0.23115000658435747, 0.20940000104019418, 0.1731000011204742, 0.17330000264337286, 0.17250000382773578, 0.17210000078193843, 0.18975000421050936, 0.21115000708959997, 0.27395000506658107, 0.2686000007088296, 0.17500000103609636, 0.18480000289855525, 0.17749999824445695, 0.17754999862518162, 0.1905999961309135, 0.21779999951831996, 0.17250000382773578, 0.16870000399649143, 0.1674999948590994, 0.16699999832781032, 0.1768000001902692, 0.1668499971856363, 0.16940000205067918, 0.16670000331941992, 0.17349999689031392, 0.16974999743979424, 0.16670000331941992, 0.16814999980852008, 0.23365000379271805, 0.17150000348920003, 0.1706000039121136, 0.1724500034470111, 0.21135000133654103, 0.1873500004876405, 0.1724500034470111, 0.16619999951217324, 0.17309999384451658, 0.16534999303985387, 0.16540000069653615, 0.17225000192411244, 0.19085000531049445, 0.17289999959757552, 0.19284999871160835, 0.17324999498669058, 0.17359999765176326, 0.16925000090850517, 0.1664000010350719, 0.16574999608565122, 0.23859999782871455, 0.17174999811686575, 0.16994999896269292, 0.18744999397313222, 0.17559999832883477, 0.1680999994277954, 0.17035000200849026, 0.20704999769805, 0.17154999659396708, 0.17225000192411244, 0.17749999824445695, 0.1713499950710684, 0.20220000442350283, 0.17875000048661605, 0.17859999934444204, 0.18730000010691583, 0.17590000061318278, 0.1723000023048371, 0.16745000175433233, 0.17374999879393727, 0.16619999951217324, 0.16614999913144857, 0.17150000348920003, 0.225800002226606, 0.17870000010589138, 0.16870000399649143, 0.1685499955783598, 0.1709500065771863, 0.18049999926006421, 0.16880000475794077, 0.16830000095069408, 0.1666999960434623, 0.16630000027362257, 0.1724500034470111, 0.16770000365795568, 0.16589999722782522, 0.17300000035902485, 0.17530000332044438, 0.16535000031581149, 0.16699999832781032, 0.17734999710228294, 0.17420000222045928, 0.1669000048423186, 0.16634999337838963, 0.1693500016699545, 0.16614999913144857, 0.16659999528201297, 0.16519999917363748, 0.1718499988783151, 0.1871999993454665, 0.1720000000204891, 0.16589999722782522, 0.16999999934341758, 0.17515000217827037, 0.17515000217827037, 0.16770000365795568, 0.22730000637238845, 0.16834999405546114, 0.16560000221943483, 0.1667500037001446, 0.1720000000204891, 0.1738499995553866, 0.17120000120485201, 0.17625000327825546, 0.17289999959757552, 0.23810000129742548, 0.18775000353343785, 0.17345000378554687, 0.1706000039121136, 0.16965000395430252, 0.16799999866634607, 0.171050000062678, 0.2699999968172051, 0.20979999681003392, 0.171050000062678, 0.18670000281417742, 0.16909999976633117, 0.16894999862415716, 0.19685000006575137, 0.12350000179139897, 0.1394500031892676, 0.17395000031683594, 0.1764999979059212, 0.16924999363254756, 0.17420000222045928, 0.16850000247359276, 0.17885000124806538, 0.16569999570492655, 0.1657999964663759, 0.16635000065434724, 0.17424999532522634, 0.1666999960434623, 0.1679499982856214, 0.18519999866839498, 0.19345000328030437, 0.17249999655177817, 0.17145000310847536, 0.1662499998928979, 0.16575000336160883, 0.17474999913247302, 0.17125000158557668, 0.1723000023048371, 0.2117000040016137, 0.17704999481793493, 0.17070000467356294, 0.1752500029397197, 0.1660999987507239, 0.16709999908925965, 0.21955000556772575, 0.17884999397210777, 0.18560000171419233, 0.17624999600229785, 0.16804999904707074, 0.16694999794708565, 0.16870000399649143, 0.1697000043350272, 0.16944999515544623, 0.21084999752929434, 0.1731000011204742, 0.17210000078193843, 0.16704999870853499, 0.16714999946998432, 0.167199999850709, 0.16600000526523218, 0.18185000226367265, 0.17269999807467684, 0.1683999944361858, 0.16709999908925965, 0.16655000217724591, 0.1677999971434474, 0.1986499992199242, 0.17314999422524124, 0.167500002135057, 0.1660999987507239, 0.1660999987507239, 0.17300000035902485, 0.17114999354816973, 0.16699999832781032, 0.1663999937591143, 0.167350000992883, 0.16789999790489674, 0.1660999987507239, 0.17920000391313806, 0.17469999875174835, 0.167350000992883, 0.1714000027277507, 0.17054999625543132, 0.1684500020928681, 0.355799995304551, 0.2729500047280453, 0.2078500037896447, 0.16984999820124358, 0.170899998920504, 0.17430000298190862, 0.16820000018924475, 0.16694999794708565, 0.2156000045943074, 0.1733999961288646, 0.16540000069653615, 0.16630000027362257, 0.16694999794708565, 0.16789999790489674, 0.16650000179652125, 0.16864999633980915, 0.16655000217724591, 0.17135000234702602, 0.22140000510262325, 0.17035000200849026, 0.17094999930122867, 0.18014999659499153, 0.17615000251680613, 0.17330000264337286, 0.1731000011204742, 0.1773999974830076, 0.1657999964663759, 0.1688999982434325, 0.170899998920504, 0.16535000031581149, 0.16540000069653615, 0.16930000128922984, 0.1668499971856363, 0.17615000251680613, 0.1992999968933873, 0.17484999989392236, 0.16589999722782522, 0.17334999574813992, 0.17189999925903976, 0.16894999862415716, 0.16884999786270782, 0.17074999777833, 0.2015000063693151, 0.17420000222045928, 0.16700000560376793, 0.16645000141579658, 0.1676499960012734, 0.16655000217724591, 0.16540000069653615, 0.16769999638199806, 0.16795000556157902, 0.16980000509647653, 0.1755499979481101, 0.17454999760957435, 0.17025000124704093, 0.16770000365795568, 0.17144999583251774, 0.1692000005277805, 0.207199998840224, 0.17250000382773578, 0.16529999993508682, 0.1664000010350719, 0.2157500057364814, 0.17205000040121377, 0.16754999523982406, 0.17189999925903976, 0.17530000332044438, 0.19615000201156363, 0.17224999464815482, 0.1659499976085499, 0.16730000061215833, 0.1965000046766363, 0.17179999849759042, 0.1680999994277954, 0.1688999982434325, 0.17069999739760533, 0.18025000463239849, 0.16599999798927456, 0.18249999993713573, 0.1679499982856214, 0.16725000023143366, 0.16745000175433233, 0.1738499995553866, 0.20494999625952914, 0.16959999629762024, 0.16835000133141875, 0.16604999836999923, 0.1718499988783151, 0.16605000564595684, 0.16915000014705583, 0.17194999963976443, 0.16835000133141875, 0.17294999997830018, 0.17110000044340268, 0.16884999786270782, 0.16650000179652125, 0.1660999987507239, 0.1676499960012734, 0.1666999960434623, 0.2033500059042126, 0.17315000150119886, 0.1687499971012585, 0.16634999337838963, 0.1969500008272007, 0.1797500008251518, 0.17294999997830018, 0.17120000120485201, 0.1772499963408336, 0.1876499954960309, 0.17999999545281753, 0.17685000057099387, 0.1668499971856363, 0.2383499959250912, 0.17270000535063446, 0.167500002135057, 0.2085999949485995, 0.16804999904707074, 0.16604999836999923, 0.17020000086631626, 0.17084999853977934, 0.17145000310847536, 0.17029999435180798, 0.16655000217724591, 0.1914000022225082, 0.17674999980954453, 0.17269999807467684, 0.17719999596010894, 0.17069999739760533, 0.16769999638199806, 0.16880000475794077, 0.16754999523982406, 0.3509499947540462, 0.17704999481793493, 0.16999999934341758, 0.17374999879393727, 0.16884999786270782, 0.1462500003981404, 0.21274999744491652, 0.1715500038699247, 0.17250000382773578, 0.1664000010350719, 0.17830000433605164, 0.17099999968195334, 0.221800000872463, 0.17980000120587647, 0.20184999448247254, 0.3089499950874597, 0.17300000035902485, 0.16704999870853499, 0.1725999973132275, 0.16789999790489674, 0.1686000032350421, 0.3516500073601492, 0.17379999917466193, 0.16909999976633117, 0.21994999406160787, 0.174449996848125, 0.17585000023245811, 0.34115001471946016, 0.1740000006975606, 0.167650003277231, 0.2199000009568408, 0.17364999803248793, 0.16954999591689557, 0.13390000094659626, 0.14060000103199854, 0.17610000213608146, 0.17405000107828528, 0.22319999698083848, 0.17279999883612618, 0.1661000060266815, 0.30750000587431714, 0.17515000217827037, 0.22214999626157805, 0.17210000078193843, 0.1688999982434325, 0.22739999985788018, 0.13915000090491958, 0.2787000048556365, 0.17674999980954453, 0.17300000035902485, 0.1735499972710386, 0.20865000260528177, 0.17069999739760533, 0.16825000056996942, 0.17159999697469175, 0.1880999989225529, 0.17145000310847536, 0.17574999947100878, 0.2354500029468909, 0.1724499961710535, 0.17020000086631626, 0.1731999946059659, 0.170899998920504, 0.1771000024746172, 0.18280000222148374, 0.1794499985408038, 0.20819999917875975, 0.18139999883715063, 0.17379999917466193, 0.16760000289650634, 0.16814999980852008, 0.16825000056996942, 0.1684500020928681, 0.16775000403868034, 0.17410000145900995, 0.17395000031683594, 0.17210000078193843, 0.17179999849759042, 0.17110000044340268, 0.17220000154338777, 0.17744999786373228, 0.16899999900488183, 0.23224999313242733, 0.17405000107828528, 0.17210000078193843, 0.17125000158557668, 0.17559999832883477, 0.16955000319285318, 0.16984999820124358, 0.17855000623967499, 0.2088999972329475, 0.17264999769395217, 0.1720000000204891, 0.16814999980852008, 0.1697999978205189, 0.17359999765176326, 0.167199999850709, 0.17300000035902485, 0.1727499984554015, 0.20414999744389206, 0.17644999752519652, 0.17050000315066427, 0.16930000128922984, 0.1694999955361709, 0.17315000150119886, 0.18310000450583175, 0.20670000230893493, 0.1731000011204742, 0.2326500034541823, 0.17829999706009403, 0.1768000001902692, 0.17315000150119886, 0.170899998920504, 0.16984999820124358, 0.18404999718768522, 0.17154999659396708, 0.17279999883612618, 0.17764999938663095, 0.1693500016699545, 0.17110000044340268, 0.22205000277608633, 0.171050000062678, 0.20719999156426638, 0.17829999706009403, 0.17300000035902485, 0.1917000045068562, 0.17839999782154337, 0.17344999650958925, 0.2184999975725077, 0.17445000412408262, 0.18389999604551122, 0.17150000348920003, 0.21210000704741105, 0.17240000306628644, 0.17624999600229785, 0.17520000255899504, 0.16830000095069408, 0.16730000061215833, 0.206899996555876, 0.17309999384451658, 0.16039999900385737, 0.17535000370116904, 0.17269999807467684, 0.17719999596010894, 0.20545000006677583, 0.1703000016277656, 0.17324999498669058, 0.1697999978205189, 0.17705000209389254, 0.16974999743979424, 0.16925000090850517, 0.17484999989392236, 0.19359999714652076, 0.17110000044340268, 0.1720000000204891, 0.16900000628083944, 0.16894999862415716, 0.1732500022626482, 0.1697000043350272, 0.18645000091055408, 0.21784999989904463, 0.18000000272877514, 0.17529999604448676, 0.1790999958757311, 0.17379999917466193, 0.17025000124704093, 0.17625000327825546, 0.17079999815905467, 0.1777500001480803, 0.17085000581573695, 0.16909999976633117, 0.16820000018924475, 0.17279999883612618, 0.17725000361679122, 0.17235000268556178, 0.1697999978205189, 0.1770999951986596, 0.20950000180164352, 0.1788000008673407, 0.1722999950288795, 0.17135000234702602, 0.171050000062678, 0.2720500051509589, 0.188749996596016, 0.13715000022784807, 0.17885000124806538, 0.20504999702097848, 0.17500000103609636, 0.18165000074077398, 0.21009999181842431, 0.18135000573238358, 0.17535000370116904, 0.17425000260118395, 0.16984999820124358, 0.17050000315066427, 0.16950000281212851, 0.17720000323606655, 0.18280000222148374, 0.1721500011626631, 0.1714999962132424, 0.18044999887933955, 0.1687500043772161, 0.1688999982434325, 0.16840000171214342, 0.16984999820124358, 0.17194999963976443, 0.17364999803248793, 0.17544999718666077, 0.18494999676477164, 0.1788000008673407, 0.17549999756738544, 0.17674999980954453, 0.17194999963976443, 0.18170000112149864, 0.20605000463547185, 0.17125000158557668, 0.17025000124704093, 0.1735499972710386, 0.16909999976633117, 0.17469999875174835, 0.1751000017975457, 0.18635000014910474, 0.17129999469034374, 0.17035000200849026, 0.17639999714447185, 0.17219999426743016, 0.17205000040121377, 0.1734000034048222, 0.17145000310847536, 0.17080000543501228, 0.2070500049740076, 0.1720000000204891, 0.17124999430961907, 0.16925000090850517, 0.16999999934341758, 0.17374999879393727, 0.16825000056996942, 0.17395000031683594, 0.2089000045089051, 0.1740000006975606, 0.17500000103609636, 0.23135000810725614, 0.1714999962132424, 0.1709500065771863, 0.1720000000204891, 0.17099999968195334, 0.2146499973605387, 0.1745000045048073, 0.1755499979481101, 0.37304998841136694, 0.17210000078193843, 0.17054999625543132, 0.228749995585531, 0.2115500028594397, 0.1738499995553866, 0.17590000061318278, 0.17590000061318278, 0.1706000039121136, 0.170449995493982, 0.16899999900488183, 0.18304999684914947, 0.20894999761367217, 0.17225000192411244, 0.17110000044340268, 0.17349999689031392, 0.17800000205170363, 0.23939999664435163, 0.17610000213608146, 0.17374999879393727, 0.2055000004475005, 0.1769500013324432, 0.18315000488655642, 0.16940000205067918, 0.17099999968195334, 0.17289999959757552, 0.17175000539282337, 0.17050000315066427, 0.21349999587982893, 0.17349999689031392, 0.1713499950710684, 0.18489999638404697, 0.17574999947100878, 0.17174999811686575, 0.1804000057745725, 0.1780500024324283, 0.21004999871365726, 0.17055000353138894, 0.17344999650958925, 0.21860000560991466, 0.17755000590113923, 0.17615000251680613, 0.17164999735541642, 0.17069999739760533, 0.16974999743979424, 0.17289999959757552, 0.17315000150119886, 0.18339999951422215, 0.17085000581573695, 0.17335000302409753, 0.23594999947817996, 0.17205000040121377, 0.1690500066615641, 0.16835000133141875, 0.16880000475794077, 0.16799999866634607, 0.1836500014178455, 0.1721500011626631, 0.16670000331941992, 0.1676499960012734, 0.1690499993856065, 0.17240000306628644, 0.20524999854387715, 0.1762000028975308, 0.167350000992883, 0.1697999978205189, 0.17330000264337286, 0.171050000062678, 0.24005000159377232, 0.21114999981364235, 0.17415000183973461, 0.1784999985829927, 0.16635000065434724, 0.16694999794708565, 0.23824999516364187, 0.17320000188192353, 0.17749999824445695, 0.19595000048866495, 0.167199999850709, 0.1669000048423186, 0.18219999765278772, 0.16804999904707074, 0.16604999836999923, 0.16709999908925965, 0.17800000205170363, 0.19795000116573647, 0.1718499988783151, 0.2135499962605536, 0.1723000023048371, 0.16915000014705583, 0.16655000217724591, 0.1665499949012883, 0.2352499941480346, 0.17520000255899504, 0.167650003277231, 0.16940000205067918, 0.1706000039121136, 0.17115000082412735, 0.16820000018924475, 0.167199999850709, 0.17129999469034374, 0.17814999591792002, 0.1724500034470111, 0.16555000183871016, 0.16665000293869525, 0.16664999566273764, 0.16545000107726082, 0.1727499984554015, 0.18049999926006421, 0.19885000074282289, 0.1771000024746172, 0.16835000133141875, 0.16714999946998432, 0.170599996636156, 0.17114999354816973, 0.16725000023143366, 0.16630000027362257, 0.20835000032093376, 0.17965000006370246, 0.17515000217827037, 0.17129999469034374, 0.16790000518085435, 0.16955000319285318, 0.17039999511325732, 0.20205000328132883, 0.20634999964386225, 0.17239999579032883, 0.16745000175433233, 0.1662499998928979, 0.16799999866634607, 0.17264999769395217, 0.1910499995574355, 0.19640000391518697, 0.295150006422773, 0.17630000365898013, 0.17144999583251774, 0.16825000056996942, 0.18109999655280262, 0.18805000581778586, 0.17110000044340268, 0.17255000420846045, 0.16555000183871016, 0.17769999976735562, 0.17345000378554687, 0.167350000992883, 0.18459999409969896, 0.18560000171419233, 0.16734999371692538, 0.16865000361576676, 0.16725000023143366, 0.16969999705906957, 0.17379999917466193, 0.170449995493982, 0.17004999972414225, 0.20789999689441174, 0.1751000017975457, 0.16700000560376793, 0.16754999523982406, 0.16540000069653615, 0.1724500034470111, 0.16700000560376793, 0.16969999705906957, 0.167350000992883, 0.16704999870853499, 0.16909999976633117, 0.167350000992883, 0.167800004419405, 0.2208499936386943, 0.16950000281212851, 0.16944999515544623, 0.20965000294381753, 0.18740000086836517, 0.17360000492772087, 0.1783499974408187, 0.16614999913144857, 0.1693500016699545, 0.16790000518085435, 0.16769999638199806, 0.17420000222045928, 0.1899999988381751, 0.17225000192411244, 0.16909999976633117, 0.16665000293869525, 0.18154999997932464, 0.17514999490231276, 0.18095000268658623, 0.21440000273287296, 0.17070000467356294, 0.16704999870853499, 0.35054999898420647, 0.17335000302409753, 0.17130000196630135, 0.167199999850709, 0.17264999769395217, 0.17705000209389254, 0.21754999761469662, 0.17579999985173345, 0.1696499966783449, 0.16814999980852008, 0.16745000175433233, 0.17294999997830018, 0.18760000966722146, 0.17640000442042947, 0.1660999987507239, 0.17020000086631626, 0.16645000141579658, 0.17264999769395217, 0.17209999350598082, 0.1773999974830076, 0.2028500020969659],
  "QPU": "7000000",
  "Qubits": 12,
  "Queue durations [ms]": [0.0, 0.0, 0.0, 0.0, 0.0, 0.0, 0.0, 0.0, 0.0, 0.0, 0.0, 0.0, 0.0, 0.0, 0.0, 0.0, 0.0, 0.0, 0.0, 0.0, 0.0, 0.0, 0.0, 0.0, 0.0, 0.0, 0.0, 0.0, 0.0, 0.0, 0.0, 0.0, 0.0, 0.0, 0.0, 0.0, 0.0, 0.0, 0.0, 0.0, 0.0, 0.0, 0.0, 0.0, 0.0, 0.0, 0.0, 0.0, 0.0, 0.0, 0.0, 0.0, 0.0, 0.0, 0.0, 0.0, 0.0, 0.0, 0.0, 0.0, 0.0, 0.0, 0.0, 0.0, 0.0, 0.0, 0.0, 0.0, 0.0, 0.0, 0.0, 0.0, 0.0, 0.0, 0.0, 0.0, 0.0, 0.0, 0.0, 0.0, 0.0, 0.0, 0.0, 0.0, 0.0, 0.0, 0.0, 0.0, 0.0, 0.0, 0.0, 0.0, 0.0, 0.0, 0.0, 0.0, 0.0, 0.0, 0.0, 0.0, 0.0, 0.0, 0.0, 0.0, 0.0, 0.0, 0.0, 0.0, 0.0, 0.0, 0.0, 0.0, 0.0, 0.0, 0.0, 0.0, 0.0, 0.0, 0.0, 0.0, 0.0, 0.0, 0.0, 0.0, 0.0, 0.0, 0.0, 0.0, 0.0, 0.0, 0.0, 0.0, 0.0, 0.0, 0.0, 0.0, 0.0, 0.0, 0.0, 0.0, 0.0, 0.0, 0.0, 0.0, 0.0, 0.0, 0.0, 0.0, 0.0, 0.0, 0.0, 0.0, 0.0, 0.0, 0.0, 0.0, 0.0, 0.0, 0.0, 0.0, 0.0, 0.0, 0.0, 0.0, 0.0, 0.0, 0.0, 0.0, 0.0, 0.0, 0.0, 0.0, 0.0, 0.0, 0.0, 0.0, 0.0, 0.0, 0.0, 0.0, 0.0, 0.0, 0.0, 0.0, 0.0, 0.0, 0.0, 0.0, 0.0, 0.0, 0.0, 0.0, 0.0, 0.0, 0.0, 0.0, 0.0, 0.0, 0.0, 0.0, 0.0, 0.0, 0.0, 0.0, 0.0, 0.0, 0.0, 0.0, 0.0, 0.0, 0.0, 0.0, 0.0, 0.0, 0.0, 0.0, 0.0, 0.0, 0.0, 0.0, 0.0, 0.0, 0.0, 0.0, 0.0, 0.0, 0.0, 0.0, 0.0, 0.0, 0.0, 0.0, 0.0, 0.0, 0.0, 0.0, 0.0, 0.0, 0.0, 0.0, 0.0, 0.0, 0.0, 0.0, 0.0, 0.0, 0.0, 0.0, 0.0, 0.0, 0.0, 0.0, 0.0, 0.0, 0.0, 0.0, 0.0, 0.0, 0.0, 0.0, 0.0, 0.0, 0.0, 0.0, 0.0, 0.0, 0.0, 0.0, 0.0, 0.0, 0.0, 0.0, 0.0, 0.0, 0.0, 0.0, 0.0, 0.0, 0.0, 0.0, 0.0, 0.0, 0.0, 0.0, 0.0, 0.0, 0.0, 0.0, 0.0, 0.0, 0.0, 0.0, 0.0, 0.0, 0.0, 0.0, 0.0, 0.0, 0.0, 0.0, 0.0, 0.0, 0.0, 0.0, 0.0, 0.0, 0.0, 0.0, 0.0, 0.0, 0.0, 0.0, 0.0, 0.0, 0.0, 0.0, 0.0, 0.0, 0.0, 0.0, 0.0, 0.0, 0.0, 0.0, 0.0, 0.0, 0.0, 0.0, 0.0, 0.0, 0.0, 0.0, 0.0, 0.0, 0.0, 0.0, 0.0, 0.0, 0.0, 0.0, 0.0, 0.0, 0.0, 0.0, 0.0, 0.0, 0.0, 0.0, 0.0, 0.0, 0.0, 0.0, 0.0, 0.0, 0.0, 0.0, 0.0, 0.0, 0.0, 0.0, 0.0, 0.0, 0.0, 0.0, 0.0, 0.0, 0.0, 0.0, 0.0, 0.0, 0.0, 0.0, 0.0, 0.0, 0.0, 0.0, 0.0, 0.0, 0.0, 0.0, 0.0, 0.0, 0.0, 0.0, 0.0, 0.0, 0.0, 0.0, 0.0, 0.0, 0.0, 0.0, 0.0, 0.0, 0.0, 0.0, 0.0, 0.0, 0.0, 0.0, 0.0, 0.0, 0.0, 0.0, 0.0, 0.0, 0.0, 0.0, 0.0, 0.0, 0.0, 0.0, 0.0, 0.0, 0.0, 0.0, 0.0, 0.0, 0.0, 0.0, 0.0, 0.0, 0.0, 0.0, 0.0, 0.0, 0.0, 0.0, 0.0, 0.0, 0.0, 0.0, 0.0, 0.0, 0.0, 0.0, 0.0, 0.0, 0.0, 0.0, 0.0, 0.0, 0.0, 0.0, 0.0, 0.0, 0.0, 0.0, 0.0, 0.0, 0.0, 0.0, 0.0, 0.0, 0.0, 0.0, 0.0, 0.0, 0.0, 0.0, 0.0, 0.0, 0.0, 0.0, 0.0, 0.0, 0.0, 0.0, 0.0, 0.0, 0.0, 0.0, 0.0, 0.0, 0.0, 0.0, 0.0, 0.0, 0.0, 0.0, 0.0, 0.0, 0.0, 0.0, 0.0, 0.0, 0.0, 0.0, 0.0, 0.0, 0.0, 0.0, 0.0, 0.0, 0.0, 0.0, 0.0, 0.0, 0.0, 0.0, 0.0, 0.0, 0.0, 0.0, 0.0, 0.0, 0.0, 0.0, 0.0, 0.0, 0.0, 0.0, 0.0, 0.0, 0.0, 0.0, 0.0, 0.0, 0.0, 0.0, 0.0, 0.0, 0.0, 0.0, 0.0, 0.0, 0.0, 0.0, 0.0, 0.0, 0.0, 0.0, 0.0, 0.0, 0.0, 0.0, 0.0, 0.0, 0.0, 0.0, 0.0, 0.0, 0.0, 0.0, 0.0, 0.0, 0.0, 0.0, 0.0, 0.0, 0.0, 0.0, 0.0, 0.0, 0.0, 0.0, 0.0, 0.0, 0.0, 0.0, 0.0, 0.0, 0.0, 0.0, 0.0, 0.0, 0.0, 0.0, 0.0, 0.0, 0.0, 0.0, 0.0, 0.0, 0.0, 0.0, 0.0, 0.0, 0.0, 0.0, 0.0, 0.0, 0.0, 0.0, 0.0, 0.0, 0.0, 0.0, 0.0, 0.0, 0.0, 0.0, 0.0, 0.0, 0.0, 0.0, 0.0, 0.0, 0.0, 0.0, 0.0, 0.0, 0.0, 0.0, 0.0, 0.0, 0.0, 0.0, 0.0, 0.0, 0.0, 0.0, 0.0, 0.0, 0.0, 0.0, 0.0, 0.0, 0.0, 0.0, 0.0, 0.0, 0.0, 0.0, 0.0, 0.0, 0.0, 0.0, 0.0, 0.0, 0.0, 0.0, 0.0, 0.0, 0.0, 0.0, 0.0, 0.0, 0.0, 0.0, 0.0, 0.0, 0.0, 0.0, 0.0, 0.0, 0.0, 0.0, 0.0, 0.0, 0.0, 0.0, 0.0, 0.0, 0.0, 0.0, 0.0, 0.0, 0.0, 0.0, 0.0, 0.0, 0.0, 0.0, 0.0, 0.0, 0.0, 0.0, 0.0, 0.0, 0.0, 0.0, 0.0, 0.0, 0.0, 0.0, 0.0, 0.0, 0.0, 0.0, 0.0, 0.0, 0.0, 0.0, 0.0, 0.0, 0.0, 0.0, 0.0, 0.0, 0.0, 0.0, 0.0, 0.0, 0.0, 0.0, 0.0, 0.0, 0.0, 0.0, 0.0, 0.0, 0.0, 0.0, 0.0, 0.0, 0.0, 0.0, 0.0, 0.0, 0.0, 0.0, 0.0, 0.0, 0.0, 0.0, 0.0, 0.0, 0.0, 0.0, 0.0, 0.0, 0.0, 0.0, 0.0, 0.0, 0.0, 0.0, 0.0, 0.0, 0.0, 0.0, 0.0, 0.0, 0.0, 0.0, 0.0, 0.0, 0.0, 0.0, 0.0, 0.0, 0.0, 0.0, 0.0, 0.0, 0.0, 0.0, 0.0, 0.0, 0.0, 0.0, 0.0, 0.0, 0.0, 0.0, 0.0, 0.0, 0.0, 0.0, 0.0, 0.0, 0.0, 0.0, 0.0, 0.0, 0.0, 0.0, 0.0, 0.0, 0.0, 0.0, 0.0, 0.0, 0.0, 0.0, 0.0, 0.0, 0.0, 0.0, 0.0, 0.0, 0.0, 0.0, 0.0, 0.0, 0.0, 0.0, 0.0, 0.0, 0.0, 0.0, 0.0, 0.0, 0.0, 0.0, 0.0, 0.0, 0.0, 0.0, 0.0, 0.0, 0.0, 0.0, 0.0, 0.0, 0.0, 0.0, 0.0, 0.0, 0.0, 0.0, 0.0, 0.0, 0.0, 0.0, 0.0, 0.0, 0.0, 0.0, 0.0, 0.0, 0.0, 0.0, 0.0, 0.0, 0.0, 0.0, 0.0, 0.0, 0.0, 0.0, 0.0, 0.0, 0.0, 0.0, 0.0, 0.0, 0.0, 0.0, 0.0, 0.0, 0.0, 0.0, 0.0, 0.0, 0.0, 0.0, 0.0, 0.0, 0.0, 0.0, 0.0, 0.0, 0.0, 0.0, 0.0, 0.0, 0.0, 0.0, 0.0, 0.0, 0.0, 0.0, 0.0, 0.0, 0.0, 0.0, 0.0, 0.0, 0.0, 0.0, 0.0, 0.0, 0.0, 0.0, 0.0, 0.0, 0.0, 0.0, 0.0, 0.0, 0.0, 0.0, 0.0, 0.0, 0.0, 0.0, 0.0, 0.0, 0.0, 0.0, 0.0, 0.0, 0.0, 0.0, 0.0, 0.0, 0.0, 0.0, 0.0, 0.0, 0.0, 0.0, 0.0, 0.0, 0.0, 0.0, 0.0, 0.0, 0.0, 0.0, 0.0, 0.0, 0.0, 0.0, 0.0, 0.0, 0.0, 0.0, 0.0, 0.0, 0.0, 0.0, 0.0, 0.0, 0.0, 0.0, 0.0, 0.0, 0.0, 0.0, 0.0, 0.0, 0.0, 0.0, 0.0, 0.0, 0.0, 0.0, 0.0, 0.0, 0.0, 0.0, 0.0, 0.0, 0.0, 0.0, 0.0, 0.0, 0.0, 0.0, 0.0, 0.0, 0.0, 0.0, 0.0, 0.0, 0.0, 0.0, 0.0, 0.0, 0.0, 0.0, 0.0, 0.0, 0.0, 0.0, 0.0, 0.0, 0.0, 0.0, 0.0, 0.0, 0.0, 0.0, 0.0, 0.0, 0.0, 0.0, 0.0, 0.0, 0.0, 0.0, 0.0, 0.0, 0.0, 0.0, 0.0, 0.0, 0.0, 0.0, 0.0, 0.0, 0.0, 0.0, 0.0, 0.0, 0.0, 0.0, 0.0, 0.0, 0.0, 0.0, 0.0, 0.0, 0.0, 0.0, 0.0, 0.0, 0.0, 0.0, 0.0, 0.0, 0.0, 0.0, 0.0, 0.0, 0.0, 0.0, 0.0, 0.0, 0.0, 0.0, 0.0, 0.0, 0.0, 0.0, 0.0, 0.0, 0.0, 0.0, 0.0, 0.0, 0.0, 0.0, 0.0, 0.0, 0.0, 0.0, 0.0, 0.0, 0.0, 0.0, 0.0, 0.0, 0.0, 0.0, 0.0, 0.0, 0.0, 0.0, 0.0, 0.0, 0.0, 0.0, 0.0, 0.0, 0.0, 0.0, 0.0, 0.0, 0.0, 0.0, 0.0, 0.0, 0.0, 0.0, 0.0, 0.0, 0.0, 0.0, 0.0, 0.0, 0.0, 0.0, 0.0, 0.0, 0.0, 0.0, 0.0, 0.0, 0.0, 0.0, 0.0, 0.0, 0.0, 0.0, 0.0, 0.0, 0.0, 0.0, 0.0, 0.0, 0.0, 0.0, 0.0, 0.0, 0.0, 0.0, 0.0, 0.0, 0.0, 0.0, 0.0, 0.0, 0.0, 0.0, 0.0, 0.0, 0.0, 0.0, 0.0, 0.0, 0.0, 0.0, 0.0, 0.0, 0.0, 0.0, 0.0, 0.0, 0.0, 0.0, 0.0, 0.0, 0.0, 0.0, 0.0, 0.0, 0.0, 0.0, 0.0, 0.0, 0.0, 0.0, 0.0, 0.0, 0.0, 0.0, 0.0, 0.0, 0.0, 0.0, 0.0, 0.0, 0.0, 0.0, 0.0, 0.0, 0.0, 0.0, 0.0, 0.0, 0.0, 0.0, 0.0, 0.0, 0.0, 0.0, 0.0, 0.0, 0.0, 0.0, 0.0, 0.0, 0.0, 0.0, 0.0, 0.0, 0.0, 0.0, 0.0, 0.0, 0.0, 0.0, 0.0, 0.0, 0.0, 0.0, 0.0, 0.0, 0.0, 0.0, 0.0, 0.0, 0.0, 0.0, 0.0, 0.0, 0.0, 0.0, 0.0, 0.0, 0.0, 0.0, 0.0, 0.0, 0.0, 0.0, 0.0, 0.0, 0.0, 0.0, 0.0, 0.0, 0.0, 0.0, 0.0, 0.0, 0.0, 0.0, 0.0, 0.0, 0.0, 0.0, 0.0, 0.0, 0.0, 0.0, 0.0, 0.0, 0.0, 0.0, 0.0, 0.0, 0.0, 0.0, 0.0, 0.0, 0.0, 0.0, 0.0, 0.0, 0.0, 0.0, 0.0, 0.0, 0.0, 0.0, 0.0, 0.0, 0.0, 0.0, 0.0, 0.0, 0.0, 0.0, 0.0, 0.0, 0.0, 0.0, 0.0, 0.0, 0.0, 0.0, 0.0, 0.0, 0.0, 0.0, 0.0, 0.0, 0.0, 0.0, 0.0, 0.0, 0.0, 0.0, 0.0, 0.0, 0.0, 0.0, 0.0, 0.0, 0.0, 0.0, 0.0, 0.0, 0.0, 0.0, 0.0, 0.0, 0.0, 0.0, 0.0, 0.0, 0.0, 0.0, 0.0, 0.0, 0.0, 0.0, 0.0, 0.0, 0.0, 0.0, 0.0, 0.0, 0.0, 0.0, 0.0, 0.0, 0.0, 0.0, 0.0, 0.0, 0.0, 0.0, 0.0, 0.0, 0.0, 0.0, 0.0, 0.0, 0.0, 0.0, 0.0, 0.0, 0.0, 0.0, 0.0, 0.0, 0.0, 0.0, 0.0, 0.0, 0.0, 0.0, 0.0, 0.0, 0.0, 0.0, 0.0, 0.0, 0.0, 0.0, 0.0, 0.0, 0.0, 0.0, 0.0, 0.0, 0.0, 0.0, 0.0, 0.0, 0.0, 0.0, 0.0, 0.0, 0.0, 0.0, 0.0, 0.0, 0.0, 0.0, 0.0, 0.0, 0.0, 0.0, 0.0, 0.0, 0.0, 0.0, 0.0, 0.0, 0.0, 0.0, 0.0, 0.0, 0.0, 0.0, 0.0, 0.0, 0.0, 0.0, 0.0, 0.0, 0.0, 0.0, 0.0, 0.0, 0.0, 0.0, 0.0, 0.0, 0.0, 0.0, 0.0, 0.0, 0.0, 0.0, 0.0, 0.0, 0.0, 0.0, 0.0, 0.0, 0.0, 0.0, 0.0, 0.0, 0.0, 0.0, 0.0, 0.0, 0.0, 0.0, 0.0, 0.0, 0.0, 0.0, 0.0, 0.0, 0.0, 0.0, 0.0, 0.0, 0.0, 0.0, 0.0, 0.0, 0.0, 0.0, 0.0, 0.0, 0.0, 0.0, 0.0, 0.0, 0.0, 0.0, 0.0, 0.0, 0.0, 0.0, 0.0, 0.0, 0.0, 0.0, 0.0, 0.0, 0.0, 0.0, 0.0, 0.0, 0.0, 0.0, 0.0, 0.0, 0.0, 0.0, 0.0, 0.0, 0.0, 0.0, 0.0, 0.0, 0.0, 0.0, 0.0, 0.0, 0.0, 0.0, 0.0, 0.0, 0.0, 0.0, 0.0, 0.0, 0.0, 0.0, 0.0, 0.0, 0.0, 0.0, 0.0, 0.0, 0.0, 0.0, 0.0, 0.0, 0.0, 0.0, 0.0, 0.0, 0.0, 0.0, 0.0, 0.0, 0.0, 0.0, 0.0, 0.0, 0.0, 0.0, 0.0, 0.0, 0.0, 0.0, 0.0, 0.0, 0.0, 0.0, 0.0, 0.0, 0.0, 0.0, 0.0, 0.0, 0.0, 0.0, 0.0, 0.0, 0.0, 0.0, 0.0, 0.0, 0.0, 0.0, 0.0, 0.0, 0.0],
  "Shots": 4096,
  "Size": 12,
  "Total Algorithm duration [s]": 8.028,
  "Total Classic duration [s]": 7.752846350021835,
  "Total Quantum duration [s]": 0.27515364997816505
}
