{
  "Circuit execution durations [ms]": [0.1519499928690493, 0.2259499960928224, 0.18989999807672575, 0.2158999996026978, 0.1780499951564707, 0.1766499990480952, 0.17255000420846045, 0.17125000158557668, 0.17335000302409753, 0.17309999384451658, 0.17314999422524124, 0.3560999903129414, 0.1734000034048222, 0.17154999659396708, 0.17169999773614109, 0.3573500071070157, 0.1765000051818788, 0.171050000062678, 0.18909999926108867, 0.17329999536741525, 0.16945000243140385, 0.16774999676272273, 0.17744999786373228, 0.18039999849861488, 0.17249999655177817, 0.1781999962986447, 0.17079999815905467, 0.17335000302409753, 0.16974999743979424, 0.170899998920504, 0.2201000024797395, 0.3586499879020266, 0.24389999452978373, 0.17549999756738544, 0.22619999799644575, 0.17474999913247302, 0.2064500076812692, 0.17924999701790512, 0.3705500130308792, 0.18259999342262745, 0.1679499982856214, 0.167199999850709, 0.27344999398337677, 0.1720000000204891, 0.16960000357357785, 0.16784999752417207, 0.16665000293869525, 0.28279999241931364, 0.16984999820124358, 0.16694999794708565, 0.18135000573238358, 0.1749500006553717, 0.17169999773614109, 0.171050000062678, 0.167199999850709, 0.16884999786270782, 0.16830000095069408, 0.1663999973970931, 0.20729999232571572, 0.21969999943394214, 0.17135000234702602, 0.1667500037001446, 0.16755000251578167, 0.16630000027362257, 0.1661000060266815, 0.18224999803351238, 0.21165000362088904, 0.16884999786270782, 0.16969999705906957, 0.16650000179652125, 0.17125000158557668, 0.17224999464815482, 0.1725999973132275, 0.1655999949434772, 0.16524999955436215, 0.1668499971856363, 0.16604999836999923, 0.1666999960434623, 0.1677999971434474, 0.16730000061215833, 0.16909999976633117, 0.16954999591689557, 0.1764999979059212, 0.1761499952408485, 0.17114999354816973, 0.1660999987507239, 0.1660999987507239, 0.17985000158660114, 0.170599996636156, 0.16820000018924475, 0.1676499960012734, 0.17094999930122867, 0.17534999642521143, 0.17010000010486692, 0.28545000532176346, 0.1735500045469962, 0.17135000234702602, 0.2153999957954511, 0.18134999845642596, 0.18134999845642596, 0.17555000522406772, 0.17405000107828528, 0.1738499995553866, 0.17099999968195334, 0.1721500011626631, 0.16704999870853499, 0.17235000268556178, 0.20694999693660066, 0.1727499984554015, 0.17220000154338777, 0.1668499971856363, 0.16814999980852008, 0.16709999908925965, 0.16615000640740618, 0.1697999978205189, 0.17040000238921493, 0.17239999579032883, 0.16630000027362257, 0.17754999862518162, 0.17365000530844554, 0.1688999982434325, 0.1693500016699545, 0.17004999972414225, 0.1880000054370612, 0.16709999908925965, 0.1674999948590994, 0.17179999849759042, 0.16785000480012968, 0.1884500015876256, 0.17254999693250284, 0.17135000234702602, 0.16870000399649143, 0.2104500017594546, 0.2084500010823831, 0.1814499992178753, 0.17275000573135912, 0.17515000217827037, 0.2265499933855608, 0.17529999604448676, 0.17895000200951472, 0.1696499966783449, 0.16925000090850517, 0.16820000018924475, 0.16754999523982406, 0.16694999794708565, 0.16584999684710056, 0.16954999591689557, 0.17840000509750098, 0.19690000772243366, 0.18560000171419233, 0.1779000012902543, 0.17520000255899504, 0.17440000374335796, 0.16725000023143366, 0.1690499993856065, 0.17159999697469175, 0.20135000522714108, 0.17099999968195334, 0.16945000243140385, 0.16880000475794077, 0.16509999841218814, 0.1659499976085499, 0.21824999566888437, 0.2099499906762503, 0.17135000234702602, 0.17410000145900995, 0.16485000378452241, 0.16804999904707074, 0.16789999790489674, 0.16569999570492655, 0.1658000037423335, 0.16879999748198316, 0.17189999925903976, 0.16619999951217324, 0.1692000005277805, 0.16570000298088416, 0.16489999688928947, 0.16434999997727573, 0.16959999629762024, 0.16915000014705583, 0.17284999921685085, 0.17590000061318278, 0.17189999925903976, 0.16814999980852008, 0.16965000395430252, 0.16869999672053382, 0.16760000289650634, 0.17684999329503626, 0.24694999592611566, 0.3223000021534972, 0.17395000031683594, 0.16699999832781032, 0.16940000205067918, 0.18219999765278772, 0.19534999591996893, 0.17484999989392236, 0.18269999418407679, 0.1688999982434325, 0.16865000361576676, 0.17205000040121377, 0.16974999743979424, 0.27720000070985407, 0.16984999820124358, 0.18730000010691583, 0.1734000034048222, 0.16540000069653615, 0.1692000005277805, 0.25749999622348696, 0.20980000408599153, 0.17405000107828528, 0.16790000518085435, 0.1694999955361709, 0.16899999900488183, 0.17455000488553196, 0.16619999951217324, 0.16635000065434724, 0.21555000421358272, 0.1733999961288646, 0.167650003277231, 0.16519999917363748, 0.17490000027464703, 0.17490000027464703, 0.1756999990902841, 0.1685499955783598, 0.16695000522304326, 0.18105000344803557, 0.1692000005277805, 0.16704999870853499, 0.167500002135057, 0.16850000247359276, 0.16829999367473647, 0.1680999994277954, 0.2032999982475303, 0.2091999995172955, 0.17324999498669058, 0.17205000040121377, 0.1706000039121136, 0.1715500038699247, 0.1828500026022084, 0.16980000509647653, 0.1752500029397197, 0.19025000074179843, 0.17205000040121377, 0.170599996636156, 0.27990000671707094, 0.1724500034470111, 0.1777500001480803, 0.1722999950288795, 0.17785000090952963, 0.19895000150427222, 0.17069999739760533, 0.17294999997830018, 0.1706000039121136, 0.17844999820226803, 0.17494999337941408, 0.18075000116368756, 0.18099999579135329, 0.20775000302819535, 0.17240000306628644, 0.17084999853977934, 0.17379999917466193, 0.17064999701688066, 0.17164999735541642, 0.16984999820124358, 0.1731000011204742, 0.1754000040818937, 0.17360000492772087, 0.17249999655177817, 0.1807000007829629, 0.17364999803248793, 0.17160000425064936, 0.1743500033626333, 0.1836500014178455, 0.16755000251578167, 0.17654999828664586, 0.17284999921685085, 0.1686000032350421, 0.1685499955783598, 0.1825500003178604, 0.17154999659396708, 0.20744999346788973, 0.1721500011626631, 0.17294999997830018, 0.1762000028975308, 0.16785000480012968, 0.16830000095069408, 0.17165000463137403, 0.17034999473253265, 0.17379999917466193, 0.19535000319592655, 0.1769500013324432, 0.16685000446159393, 0.16830000095069408, 0.17110000044340268, 0.16744999447837472, 0.16740000137360767, 0.17250000382773578, 0.21120000019436702, 0.17330000264337286, 0.16944999515544623, 0.16714999946998432, 0.16820000018924475, 0.16685000446159393, 0.16830000095069408, 0.1722999950288795, 0.17839999782154337, 0.20414999744389206, 0.18785000429488719, 0.17364999803248793, 0.21755000489065424, 0.17004999972414225, 0.16709999908925965, 0.1783500047167763, 0.17549999756738544, 0.16769999638199806, 0.17899999511428177, 0.16770000365795568, 0.16630000027362257, 0.16825000056996942, 0.1690499993856065, 0.1718499988783151, 0.17500000103609636, 0.18604999786475673, 0.17109999316744506, 0.17484999989392236, 0.16679999680491164, 0.16540000069653615, 0.17099999968195334, 0.17220000154338777, 0.2069000038318336, 0.17269999807467684, 0.16775000403868034, 0.167500002135057, 0.16635000065434724, 0.18219999765278772, 0.16605000564595684, 0.17010000010486692, 0.16584999684710056, 0.210449994483497, 0.16674999642418697, 0.16709999908925965, 0.16855000285431743, 0.1662499998928979, 0.16694999794708565, 0.17294999997830018, 0.17275000573135912, 0.16725000023143366, 0.17300000035902485, 0.16635000065434724, 0.1670500059844926, 0.1720000000204891, 0.1663999937591143, 0.1659500048845075, 0.16850000247359276, 0.18355000065639615, 0.1680999994277954, 0.16664999566273764, 0.17344999650958925, 0.1734000034048222, 0.18080000154441223, 0.171050000062678, 0.16619999951217324, 0.23079999664332718, 0.2081500060739927, 0.16820000018924475, 0.2262499983771704, 0.22765000176150352, 0.17145000310847536, 0.17545000446261838, 0.17685000057099387, 0.17585000023245811, 0.19705000158865005, 0.16925000090850517, 0.16645000141579658, 0.16940000205067918, 0.16709999908925965, 0.17520000255899504, 0.1688999982434325, 0.19800000154646114, 0.17330000264337286, 0.16660000255797058, 0.1659499976085499, 0.16619999951217324, 0.16660000255797058, 0.17490000027464703, 0.34959998447448015, 0.22049999824957922, 0.17374999879393727, 0.16834999405546114, 0.21960000594845042, 0.1724500034470111, 0.17054999625543132, 0.21980000019539148, 0.2273499994771555, 0.2714500005822629, 0.2363499952480197, 0.17579999985173345, 0.167500002135057, 0.1455999954487197, 0.17335000302409753, 0.16689999756636098, 0.21750000450992957, 0.16989999858196825, 0.16614999913144857, 0.35194999509258196, 0.2119999990100041, 0.17389999993611127, 0.22124999668449163, 0.17629999638302252, 0.16865000361576676, 0.27224999939789996, 0.21129999367985874, 0.16770000365795568, 0.22005000209901482, 0.17654999828664586, 0.17169999773614109, 0.17870000010589138, 0.13624999701278284, 0.17289999959757552, 0.17130000196630135, 0.2191500025219284, 0.17139999545179307, 0.16769999638199806, 0.30700000206707045, 0.1726500049699098, 0.2533999941078946, 0.17300000035902485, 0.16894999862415716, 0.2636499993968755, 0.17574999947100878, 0.16694999794708565, 0.3555500152288005, 0.3474999903119169, 0.1727499984554015, 0.20854999456787482, 0.17220000154338777, 0.18045000615529716, 0.21245000243652612, 0.17564999870955944, 0.167199999850709, 0.167350000992883, 0.1696499966783449, 0.1670500059844926, 0.16820000018924475, 0.167800004419405, 0.18149999959859997, 0.19335000251885504, 0.18235000607091933, 0.17179999849759042, 0.16714999946998432, 0.26480000087758526, 0.17115000082412735, 0.16649999452056363, 0.1736999984132126, 0.16604999836999923, 0.16660000255797058, 0.16540000069653615, 0.16519999917363748, 0.16539999342057854, 0.17150000348920003, 0.16584999684710056, 0.20509999740170315, 0.1810000030673109, 0.17269999807467684, 0.16619999951217324, 0.18010000349022448, 0.1756999990902841, 0.17074999777833, 0.1674999948590994, 0.17720000323606655, 0.20045000565005466, 0.17179999849759042, 0.17074999777833, 0.16554999456275254, 0.16704999870853499, 0.16755000251578167, 0.16524999955436215, 0.16694999794708565, 0.16694999794708565, 0.1657999964663759, 0.16659999528201297, 0.16694999794708565, 0.16830000095069408, 0.1687500043772161, 0.16465000226162374, 0.16730000061215833, 0.17189999925903976, 0.18434999947203323, 0.17350000416627154, 0.1655000014579855, 0.16540000069653615, 0.171050000062678, 0.1674999948590994, 0.16555000183871016, 0.16689999756636098, 0.17795000167097896, 0.1717000050120987, 0.18984999042004347, 0.16849999519763514, 0.17289999959757552, 0.1718499988783151, 0.16524999955436215, 0.16870000399649143, 0.21050000214017928, 0.17970000044442713, 0.16619999951217324, 0.21675000607501715, 0.1738499995553866, 0.17379999917466193, 0.17294999997830018, 0.16850000247359276, 0.2049999966402538, 0.17454999760957435, 0.17189999925903976, 0.16850000247359276, 0.19559999782359228, 0.17625000327825546, 0.16650000179652125, 0.17464999837102368, 0.16915000014705583, 0.17440000374335796, 0.16599999798927456, 0.17395000031683594, 0.16535000031581149, 0.17434999608667567, 0.1697999978205189, 0.17130000196630135, 0.17549999756738544, 0.1763500040397048, 0.170899998920504, 0.16770000365795568, 0.1697999978205189, 0.17194999963976443, 0.17145000310847536, 0.16880000475794077, 0.19884999346686527, 0.16884999786270782, 0.1686000032350421, 0.17125000158557668, 0.1662499998928979, 0.16959999629762024, 0.17029999435180798, 0.16585000412305817, 0.20885000412818044, 0.17549999756738544, 0.16670000331941992, 0.16999999934341758, 0.17305000073974952, 0.1714999962132424, 0.17469999875174835, 0.174449996848125, 0.1788000008673407, 0.2153999957954511, 0.2217499932157807, 0.17685000057099387, 0.16864999633980915, 0.20549999317154288, 0.17530000332044438, 0.17174999811686575, 0.251049998041708, 0.17559999832883477, 0.17084999853977934, 0.17344999650958925, 0.17225000192411244, 0.17279999883612618, 0.1722999950288795, 0.17169999773614109, 0.22159999934956431, 0.17624999600229785, 0.17445000412408262, 0.16915000014705583, 0.17064999701688066, 0.17305000073974952, 0.17330000264337286, 0.170449995493982, 0.2396500058239326, 0.1337000030616764, 0.2746499958448112, 0.16909999976633117, 0.1745000045048073, 0.17305000073974952, 0.17099999968195334, 0.258100000792183, 0.1703000016277656, 0.16814999980852008, 0.16769999638199806, 0.17655000556260347, 0.17264999769395217, 0.1838000025600195, 0.17264999769395217, 0.1701500004855916, 0.1701500004855916, 0.1703000016277656, 0.16870000399649143, 0.16804999904707074, 0.17734999710228294, 0.1975999985006638, 0.17120000120485201, 0.1779000012902543, 0.17439999646740034, 0.17260000458918512, 0.16915000014705583, 0.16909999976633117, 0.1692000005277805, 0.22855000133858994, 0.16884999786270782, 0.16694999794708565, 0.171050000062678, 0.1740000006975606, 0.16799999866634607, 0.167500002135057, 0.17360000492772087, 0.21005000598961487, 0.17254999693250284, 0.16835000133141875, 0.16849999519763514, 0.16769999638199806, 0.17514999490231276, 0.16864999633980915, 0.16745000175433233, 0.19890000112354755, 0.17349999689031392, 0.1735500045469962, 0.17469999875174835, 0.1718499988783151, 0.1738499995553866, 0.17585000023245811, 0.17080000543501228, 0.16930000128922984, 0.21899999410379678, 0.1733999961288646, 0.16909999976633117, 0.18295000336365774, 0.18214999727206305, 0.17544999718666077, 0.2089000045089051, 0.1689000055193901, 0.16785000480012968, 0.17359999765176326, 0.17240000306628644, 0.16960000357357785, 0.16884999786270782, 0.1687499971012585, 0.1694999955361709, 0.21235000167507678, 0.1735500045469962, 0.17145000310847536, 0.1768000001902692, 0.17099999968195334, 0.17010000010486692, 0.17084999853977934, 0.1790000023902394, 0.24190000112866983, 0.1866000020527281, 0.1724499961710535, 0.17065000429283828, 0.17065000429283828, 0.16894999862415716, 0.16925000090850517, 0.18075000116368756, 0.2077999961329624, 0.17685000057099387, 0.17454999760957435, 0.1687499971012585],
  "Depth": 2.0,
  "Expectation Value": -7.385133266448975,
  "Optimal Expectation Value": -7.393599987030029,
  "Optimizer durations [ms]": [21.668, 6.562, 5.294, 5.616, 5.015, 4.967, 4.861, 4.833, 5.008, 4.908, 4.844, 8.18, 14.485, 4.792, 4.9, 8.225, 9.774, 9.643, 5.131, 4.876, 4.758, 4.739, 5.124, 10.245, 4.924, 5.036, 4.75, 4.801, 4.709, 4.731, 5.67, 10.553, 5.943, 9.75, 5.858, 4.903, 5.339, 5.087, 9.721, 5.179, 9.669, 4.785, 6.704, 4.788, 4.831, 4.725, 4.709, 6.893, 5.917, 4.747, 5.819, 5.083, 4.937, 4.938, 4.714, 4.726, 4.737, 4.798, 5.522, 5.623, 4.945, 4.742, 4.924, 4.819, 4.711, 5.075, 5.376, 4.859, 4.801, 4.687, 4.903, 4.847, 4.827, 4.672, 4.69, 5.204, 4.73, 4.697, 4.801, 4.657, 4.714, 4.695, 5.012, 5.568, 4.872, 4.702, 4.712, 5.007, 4.812, 4.722, 4.713, 5.489, 4.968, 4.874, 6.933, 5.0, 4.872, 5.398, 5.127, 5.402, 5.166, 4.963, 4.894, 4.764, 4.918, 4.795, 4.964, 5.455, 4.941, 4.843, 4.759, 4.724, 4.774, 4.719, 4.737, 5.371, 4.979, 4.714, 4.944, 4.927, 4.792, 4.741, 4.871, 5.188, 4.774, 4.747, 4.774, 4.78, 5.545, 5.02, 4.923, 4.826, 5.637, 5.445, 5.138, 4.939, 5.019, 5.654, 4.992, 5.095, 5.289, 4.733, 4.724, 4.746, 4.745, 4.681, 4.773, 5.002, 5.378, 5.176, 5.107, 5.016, 4.963, 4.739, 4.73, 4.901, 5.444, 4.91, 4.945, 4.82, 4.67, 4.69, 5.69, 5.492, 4.921, 5.034, 4.688, 4.773, 4.871, 4.685, 4.663, 4.776, 4.909, 5.418, 4.871, 4.693, 4.659, 4.732, 4.885, 4.701, 4.904, 5.392, 4.915, 4.742, 4.765, 4.723, 4.73, 4.928, 21.783, 7.784, 5.004, 4.72, 4.849, 5.115, 5.317, 4.999, 5.183, 4.863, 4.727, 4.819, 5.419, 6.775, 4.921, 5.298, 9.803, 4.731, 4.759, 6.19, 5.613, 5.16, 4.777, 4.764, 4.725, 4.89, 4.702, 4.856, 5.734, 4.957, 4.768, 4.906, 5.04, 5.025, 5.047, 4.79, 4.726, 5.556, 4.765, 4.672, 4.694, 4.736, 4.681, 4.704, 5.433, 5.537, 4.825, 4.803, 4.788, 4.783, 5.152, 4.807, 4.924, 5.343, 4.825, 4.753, 6.895, 6.016, 5.135, 4.861, 4.999, 5.374, 4.818, 4.844, 4.853, 4.966, 4.928, 5.029, 5.132, 5.469, 4.812, 5.48, 4.927, 4.871, 5.021, 5.041, 5.357, 5.094, 4.87, 4.81, 4.96, 4.856, 5.543, 4.876, 5.028, 5.135, 4.921, 4.823, 4.708, 4.746, 5.03, 4.804, 5.48, 5.055, 5.002, 5.091, 4.787, 4.799, 4.908, 4.98, 4.96, 5.347, 5.021, 4.771, 4.725, 4.793, 4.739, 4.728, 5.007, 5.358, 4.901, 4.786, 4.705, 4.745, 4.771, 4.828, 4.864, 5.095, 5.569, 5.235, 4.957, 5.624, 4.836, 4.724, 4.975, 5.03, 5.227, 4.969, 4.779, 4.695, 4.764, 4.884, 4.896, 4.896, 5.156, 4.924, 4.904, 5.16, 4.713, 4.905, 4.941, 5.601, 5.087, 4.783, 4.741, 4.725, 4.977, 4.718, 4.729, 4.8, 5.502, 4.746, 4.822, 4.833, 4.728, 4.718, 4.807, 4.948, 4.954, 5.384, 4.706, 4.771, 4.936, 4.727, 4.724, 4.771, 5.111, 4.794, 4.747, 4.966, 4.924, 5.081, 4.879, 4.731, 5.722, 5.637, 4.777, 5.66, 5.659, 4.863, 4.932, 5.068, 5.006, 5.348, 4.822, 4.71, 4.797, 4.703, 4.917, 4.864, 5.309, 4.966, 4.722, 4.755, 4.73, 4.745, 4.841, 7.908, 5.747, 4.956, 4.786, 5.339, 14.123, 6.067, 5.636, 5.62, 11.754, 6.081, 5.03, 4.745, 7.149, 5.009, 4.723, 5.591, 4.866, 4.719, 8.181, 17.108, 4.88, 5.731, 4.936, 4.739, 6.635, 5.666, 4.82, 5.704, 5.07, 4.766, 8.094, 13.265, 4.938, 4.866, 5.418, 4.848, 4.759, 7.4, 5.026, 6.316, 4.971, 4.79, 6.378, 12.585, 5.047, 8.222, 8.428, 4.937, 5.52, 4.948, 5.035, 5.695, 4.981, 4.777, 4.734, 4.827, 4.698, 4.71, 4.831, 5.102, 5.267, 5.102, 4.988, 4.751, 6.544, 4.938, 4.717, 4.866, 5.29, 4.723, 4.686, 4.656, 4.69, 4.76, 4.766, 5.346, 5.133, 4.933, 4.723, 4.946, 5.12, 4.812, 4.72, 5.004, 5.359, 4.889, 4.805, 4.741, 4.76, 4.777, 4.665, 4.76, 4.704, 4.978, 4.744, 4.736, 4.736, 4.857, 4.702, 5.168, 4.936, 5.14, 4.907, 4.785, 4.676, 4.833, 4.736, 4.747, 5.249, 5.032, 4.899, 5.151, 4.845, 4.871, 4.921, 4.723, 4.871, 5.492, 5.059, 4.72, 5.604, 4.966, 4.946, 4.985, 4.824, 5.499, 5.006, 5.197, 4.792, 5.241, 5.226, 4.819, 4.888, 5.334, 4.948, 4.71, 4.874, 4.672, 4.866, 4.75, 4.928, 4.988, 5.773, 4.897, 4.703, 4.782, 4.877, 4.864, 4.992, 5.453, 4.853, 4.79, 4.832, 4.688, 4.813, 4.796, 4.656, 5.531, 4.995, 4.75, 4.865, 4.872, 4.889, 5.023, 4.906, 5.051, 5.618, 5.819, 5.12, 4.711, 5.413, 4.919, 4.925, 6.177, 4.897, 4.836, 4.837, 4.827, 4.951, 4.857, 4.78, 5.668, 5.03, 4.968, 4.76, 4.96, 4.914, 4.919, 4.827, 5.884, 17.138, 8.482, 7.711, 4.95, 9.705, 4.773, 6.308, 4.782, 4.716, 4.681, 4.942, 5.506, 5.097, 4.906, 4.767, 4.893, 4.782, 4.731, 4.729, 5.012, 5.295, 4.818, 5.016, 4.886, 4.86, 4.884, 4.739, 4.74, 5.748, 4.837, 4.736, 4.893, 4.873, 4.749, 4.729, 4.834, 5.499, 4.874, 4.736, 4.681, 4.707, 4.955, 4.746, 4.685, 5.361, 4.879, 4.809, 4.87, 4.797, 4.924, 5.016, 4.79, 4.722, 5.559, 9.641, 4.785, 5.032, 5.192, 4.943, 5.605, 4.764, 4.675, 4.718, 4.858, 4.758, 4.749, 4.736, 4.857, 5.473, 4.882, 4.804, 4.939, 4.787, 4.737, 4.937, 6.903, 6.004, 5.14, 4.835, 4.825, 4.784, 4.732, 4.757, 5.001, 5.508, 4.962, 4.949, 4.772],
  "Optimizer iterations": 664,
  "Optimizer params": [0.9994180922161127, 0.501301608535126, 0.9951274590655829, 0.5049660679827517, 0.47137144677287546, 0.998141058781491, 0.5028518160865835, 0.4977222110062822, 0.9999511048026867, 0.48628948072001765, 0.004227579544657706, 0.004109059483971234],
  "P": 0,
  "Problem": "RH",
  "QJob durations [ms]": [0.1519499928690493, 0.2259499960928224, 0.18989999807672575, 0.2158999996026978, 0.1780499951564707, 0.1766499990480952, 0.17255000420846045, 0.17125000158557668, 0.17335000302409753, 0.17309999384451658, 0.17314999422524124, 0.3560999903129414, 0.1734000034048222, 0.17154999659396708, 0.17169999773614109, 0.3573500071070157, 0.1765000051818788, 0.171050000062678, 0.18909999926108867, 0.17329999536741525, 0.16945000243140385, 0.16774999676272273, 0.17744999786373228, 0.18039999849861488, 0.17249999655177817, 0.1781999962986447, 0.17079999815905467, 0.17335000302409753, 0.16974999743979424, 0.170899998920504, 0.2201000024797395, 0.3586499879020266, 0.24389999452978373, 0.17549999756738544, 0.22619999799644575, 0.17474999913247302, 0.2064500076812692, 0.17924999701790512, 0.3705500130308792, 0.18259999342262745, 0.1679499982856214, 0.167199999850709, 0.27344999398337677, 0.1720000000204891, 0.16960000357357785, 0.16784999752417207, 0.16665000293869525, 0.28279999241931364, 0.16984999820124358, 0.16694999794708565, 0.18135000573238358, 0.1749500006553717, 0.17169999773614109, 0.171050000062678, 0.167199999850709, 0.16884999786270782, 0.16830000095069408, 0.1663999973970931, 0.20729999232571572, 0.21969999943394214, 0.17135000234702602, 0.1667500037001446, 0.16755000251578167, 0.16630000027362257, 0.1661000060266815, 0.18224999803351238, 0.21165000362088904, 0.16884999786270782, 0.16969999705906957, 0.16650000179652125, 0.17125000158557668, 0.17224999464815482, 0.1725999973132275, 0.1655999949434772, 0.16524999955436215, 0.1668499971856363, 0.16604999836999923, 0.1666999960434623, 0.1677999971434474, 0.16730000061215833, 0.16909999976633117, 0.16954999591689557, 0.1764999979059212, 0.1761499952408485, 0.17114999354816973, 0.1660999987507239, 0.1660999987507239, 0.17985000158660114, 0.170599996636156, 0.16820000018924475, 0.1676499960012734, 0.17094999930122867, 0.17534999642521143, 0.17010000010486692, 0.28545000532176346, 0.1735500045469962, 0.17135000234702602, 0.2153999957954511, 0.18134999845642596, 0.18134999845642596, 0.17555000522406772, 0.17405000107828528, 0.1738499995553866, 0.17099999968195334, 0.1721500011626631, 0.16704999870853499, 0.17235000268556178, 0.20694999693660066, 0.1727499984554015, 0.17220000154338777, 0.1668499971856363, 0.16814999980852008, 0.16709999908925965, 0.16615000640740618, 0.1697999978205189, 0.17040000238921493, 0.17239999579032883, 0.16630000027362257, 0.17754999862518162, 0.17365000530844554, 0.1688999982434325, 0.1693500016699545, 0.17004999972414225, 0.1880000054370612, 0.16709999908925965, 0.1674999948590994, 0.17179999849759042, 0.16785000480012968, 0.1884500015876256, 0.17254999693250284, 0.17135000234702602, 0.16870000399649143, 0.2104500017594546, 0.2084500010823831, 0.1814499992178753, 0.17275000573135912, 0.17515000217827037, 0.2265499933855608, 0.17529999604448676, 0.17895000200951472, 0.1696499966783449, 0.16925000090850517, 0.16820000018924475, 0.16754999523982406, 0.16694999794708565, 0.16584999684710056, 0.16954999591689557, 0.17840000509750098, 0.19690000772243366, 0.18560000171419233, 0.1779000012902543, 0.17520000255899504, 0.17440000374335796, 0.16725000023143366, 0.1690499993856065, 0.17159999697469175, 0.20135000522714108, 0.17099999968195334, 0.16945000243140385, 0.16880000475794077, 0.16509999841218814, 0.1659499976085499, 0.21824999566888437, 0.2099499906762503, 0.17135000234702602, 0.17410000145900995, 0.16485000378452241, 0.16804999904707074, 0.16789999790489674, 0.16569999570492655, 0.1658000037423335, 0.16879999748198316, 0.17189999925903976, 0.16619999951217324, 0.1692000005277805, 0.16570000298088416, 0.16489999688928947, 0.16434999997727573, 0.16959999629762024, 0.16915000014705583, 0.17284999921685085, 0.17590000061318278, 0.17189999925903976, 0.16814999980852008, 0.16965000395430252, 0.16869999672053382, 0.16760000289650634, 0.17684999329503626, 0.24694999592611566, 0.3223000021534972, 0.17395000031683594, 0.16699999832781032, 0.16940000205067918, 0.18219999765278772, 0.19534999591996893, 0.17484999989392236, 0.18269999418407679, 0.1688999982434325, 0.16865000361576676, 0.17205000040121377, 0.16974999743979424, 0.27720000070985407, 0.16984999820124358, 0.18730000010691583, 0.1734000034048222, 0.16540000069653615, 0.1692000005277805, 0.25749999622348696, 0.20980000408599153, 0.17405000107828528, 0.16790000518085435, 0.1694999955361709, 0.16899999900488183, 0.17455000488553196, 0.16619999951217324, 0.16635000065434724, 0.21555000421358272, 0.1733999961288646, 0.167650003277231, 0.16519999917363748, 0.17490000027464703, 0.17490000027464703, 0.1756999990902841, 0.1685499955783598, 0.16695000522304326, 0.18105000344803557, 0.1692000005277805, 0.16704999870853499, 0.167500002135057, 0.16850000247359276, 0.16829999367473647, 0.1680999994277954, 0.2032999982475303, 0.2091999995172955, 0.17324999498669058, 0.17205000040121377, 0.1706000039121136, 0.1715500038699247, 0.1828500026022084, 0.16980000509647653, 0.1752500029397197, 0.19025000074179843, 0.17205000040121377, 0.170599996636156, 0.27990000671707094, 0.1724500034470111, 0.1777500001480803, 0.1722999950288795, 0.17785000090952963, 0.19895000150427222, 0.17069999739760533, 0.17294999997830018, 0.1706000039121136, 0.17844999820226803, 0.17494999337941408, 0.18075000116368756, 0.18099999579135329, 0.20775000302819535, 0.17240000306628644, 0.17084999853977934, 0.17379999917466193, 0.17064999701688066, 0.17164999735541642, 0.16984999820124358, 0.1731000011204742, 0.1754000040818937, 0.17360000492772087, 0.17249999655177817, 0.1807000007829629, 0.17364999803248793, 0.17160000425064936, 0.1743500033626333, 0.1836500014178455, 0.16755000251578167, 0.17654999828664586, 0.17284999921685085, 0.1686000032350421, 0.1685499955783598, 0.1825500003178604, 0.17154999659396708, 0.20744999346788973, 0.1721500011626631, 0.17294999997830018, 0.1762000028975308, 0.16785000480012968, 0.16830000095069408, 0.17165000463137403, 0.17034999473253265, 0.17379999917466193, 0.19535000319592655, 0.1769500013324432, 0.16685000446159393, 0.16830000095069408, 0.17110000044340268, 0.16744999447837472, 0.16740000137360767, 0.17250000382773578, 0.21120000019436702, 0.17330000264337286, 0.16944999515544623, 0.16714999946998432, 0.16820000018924475, 0.16685000446159393, 0.16830000095069408, 0.1722999950288795, 0.17839999782154337, 0.20414999744389206, 0.18785000429488719, 0.17364999803248793, 0.21755000489065424, 0.17004999972414225, 0.16709999908925965, 0.1783500047167763, 0.17549999756738544, 0.16769999638199806, 0.17899999511428177, 0.16770000365795568, 0.16630000027362257, 0.16825000056996942, 0.1690499993856065, 0.1718499988783151, 0.17500000103609636, 0.18604999786475673, 0.17109999316744506, 0.17484999989392236, 0.16679999680491164, 0.16540000069653615, 0.17099999968195334, 0.17220000154338777, 0.2069000038318336, 0.17269999807467684, 0.16775000403868034, 0.167500002135057, 0.16635000065434724, 0.18219999765278772, 0.16605000564595684, 0.17010000010486692, 0.16584999684710056, 0.210449994483497, 0.16674999642418697, 0.16709999908925965, 0.16855000285431743, 0.1662499998928979, 0.16694999794708565, 0.17294999997830018, 0.17275000573135912, 0.16725000023143366, 0.17300000035902485, 0.16635000065434724, 0.1670500059844926, 0.1720000000204891, 0.1663999937591143, 0.1659500048845075, 0.16850000247359276, 0.18355000065639615, 0.1680999994277954, 0.16664999566273764, 0.17344999650958925, 0.1734000034048222, 0.18080000154441223, 0.171050000062678, 0.16619999951217324, 0.23079999664332718, 0.2081500060739927, 0.16820000018924475, 0.2262499983771704, 0.22765000176150352, 0.17145000310847536, 0.17545000446261838, 0.17685000057099387, 0.17585000023245811, 0.19705000158865005, 0.16925000090850517, 0.16645000141579658, 0.16940000205067918, 0.16709999908925965, 0.17520000255899504, 0.1688999982434325, 0.19800000154646114, 0.17330000264337286, 0.16660000255797058, 0.1659499976085499, 0.16619999951217324, 0.16660000255797058, 0.17490000027464703, 0.34959998447448015, 0.22049999824957922, 0.17374999879393727, 0.16834999405546114, 0.21960000594845042, 0.1724500034470111, 0.17054999625543132, 0.21980000019539148, 0.2273499994771555, 0.2714500005822629, 0.2363499952480197, 0.17579999985173345, 0.167500002135057, 0.1455999954487197, 0.17335000302409753, 0.16689999756636098, 0.21750000450992957, 0.16989999858196825, 0.16614999913144857, 0.35194999509258196, 0.2119999990100041, 0.17389999993611127, 0.22124999668449163, 0.17629999638302252, 0.16865000361576676, 0.27224999939789996, 0.21129999367985874, 0.16770000365795568, 0.22005000209901482, 0.17654999828664586, 0.17169999773614109, 0.17870000010589138, 0.13624999701278284, 0.17289999959757552, 0.17130000196630135, 0.2191500025219284, 0.17139999545179307, 0.16769999638199806, 0.30700000206707045, 0.1726500049699098, 0.2533999941078946, 0.17300000035902485, 0.16894999862415716, 0.2636499993968755, 0.17574999947100878, 0.16694999794708565, 0.3555500152288005, 0.3474999903119169, 0.1727499984554015, 0.20854999456787482, 0.17220000154338777, 0.18045000615529716, 0.21245000243652612, 0.17564999870955944, 0.167199999850709, 0.167350000992883, 0.1696499966783449, 0.1670500059844926, 0.16820000018924475, 0.167800004419405, 0.18149999959859997, 0.19335000251885504, 0.18235000607091933, 0.17179999849759042, 0.16714999946998432, 0.26480000087758526, 0.17115000082412735, 0.16649999452056363, 0.1736999984132126, 0.16604999836999923, 0.16660000255797058, 0.16540000069653615, 0.16519999917363748, 0.16539999342057854, 0.17150000348920003, 0.16584999684710056, 0.20509999740170315, 0.1810000030673109, 0.17269999807467684, 0.16619999951217324, 0.18010000349022448, 0.1756999990902841, 0.17074999777833, 0.1674999948590994, 0.17720000323606655, 0.20045000565005466, 0.17179999849759042, 0.17074999777833, 0.16554999456275254, 0.16704999870853499, 0.16755000251578167, 0.16524999955436215, 0.16694999794708565, 0.16694999794708565, 0.1657999964663759, 0.16659999528201297, 0.16694999794708565, 0.16830000095069408, 0.1687500043772161, 0.16465000226162374, 0.16730000061215833, 0.17189999925903976, 0.18434999947203323, 0.17350000416627154, 0.1655000014579855, 0.16540000069653615, 0.171050000062678, 0.1674999948590994, 0.16555000183871016, 0.16689999756636098, 0.17795000167097896, 0.1717000050120987, 0.18984999042004347, 0.16849999519763514, 0.17289999959757552, 0.1718499988783151, 0.16524999955436215, 0.16870000399649143, 0.21050000214017928, 0.17970000044442713, 0.16619999951217324, 0.21675000607501715, 0.1738499995553866, 0.17379999917466193, 0.17294999997830018, 0.16850000247359276, 0.2049999966402538, 0.17454999760957435, 0.17189999925903976, 0.16850000247359276, 0.19559999782359228, 0.17625000327825546, 0.16650000179652125, 0.17464999837102368, 0.16915000014705583, 0.17440000374335796, 0.16599999798927456, 0.17395000031683594, 0.16535000031581149, 0.17434999608667567, 0.1697999978205189, 0.17130000196630135, 0.17549999756738544, 0.1763500040397048, 0.170899998920504, 0.16770000365795568, 0.1697999978205189, 0.17194999963976443, 0.17145000310847536, 0.16880000475794077, 0.19884999346686527, 0.16884999786270782, 0.1686000032350421, 0.17125000158557668, 0.1662499998928979, 0.16959999629762024, 0.17029999435180798, 0.16585000412305817, 0.20885000412818044, 0.17549999756738544, 0.16670000331941992, 0.16999999934341758, 0.17305000073974952, 0.1714999962132424, 0.17469999875174835, 0.174449996848125, 0.1788000008673407, 0.2153999957954511, 0.2217499932157807, 0.17685000057099387, 0.16864999633980915, 0.20549999317154288, 0.17530000332044438, 0.17174999811686575, 0.251049998041708, 0.17559999832883477, 0.17084999853977934, 0.17344999650958925, 0.17225000192411244, 0.17279999883612618, 0.1722999950288795, 0.17169999773614109, 0.22159999934956431, 0.17624999600229785, 0.17445000412408262, 0.16915000014705583, 0.17064999701688066, 0.17305000073974952, 0.17330000264337286, 0.170449995493982, 0.2396500058239326, 0.1337000030616764, 0.2746499958448112, 0.16909999976633117, 0.1745000045048073, 0.17305000073974952, 0.17099999968195334, 0.258100000792183, 0.1703000016277656, 0.16814999980852008, 0.16769999638199806, 0.17655000556260347, 0.17264999769395217, 0.1838000025600195, 0.17264999769395217, 0.1701500004855916, 0.1701500004855916, 0.1703000016277656, 0.16870000399649143, 0.16804999904707074, 0.17734999710228294, 0.1975999985006638, 0.17120000120485201, 0.1779000012902543, 0.17439999646740034, 0.17260000458918512, 0.16915000014705583, 0.16909999976633117, 0.1692000005277805, 0.22855000133858994, 0.16884999786270782, 0.16694999794708565, 0.171050000062678, 0.1740000006975606, 0.16799999866634607, 0.167500002135057, 0.17360000492772087, 0.21005000598961487, 0.17254999693250284, 0.16835000133141875, 0.16849999519763514, 0.16769999638199806, 0.17514999490231276, 0.16864999633980915, 0.16745000175433233, 0.19890000112354755, 0.17349999689031392, 0.1735500045469962, 0.17469999875174835, 0.1718499988783151, 0.1738499995553866, 0.17585000023245811, 0.17080000543501228, 0.16930000128922984, 0.21899999410379678, 0.1733999961288646, 0.16909999976633117, 0.18295000336365774, 0.18214999727206305, 0.17544999718666077, 0.2089000045089051, 0.1689000055193901, 0.16785000480012968, 0.17359999765176326, 0.17240000306628644, 0.16960000357357785, 0.16884999786270782, 0.1687499971012585, 0.1694999955361709, 0.21235000167507678, 0.1735500045469962, 0.17145000310847536, 0.1768000001902692, 0.17099999968195334, 0.17010000010486692, 0.17084999853977934, 0.1790000023902394, 0.24190000112866983, 0.1866000020527281, 0.1724499961710535, 0.17065000429283828, 0.17065000429283828, 0.16894999862415716, 0.16925000090850517, 0.18075000116368756, 0.2077999961329624, 0.17685000057099387, 0.17454999760957435, 0.1687499971012585],
  "QPU": "7000000",
  "Qubits": 12,
  "Queue durations [ms]": [0.0, 0.0, 0.0, 0.0, 0.0, 0.0, 0.0, 0.0, 0.0, 0.0, 0.0, 0.0, 0.0, 0.0, 0.0, 0.0, 0.0, 0.0, 0.0, 0.0, 0.0, 0.0, 0.0, 0.0, 0.0, 0.0, 0.0, 0.0, 0.0, 0.0, 0.0, 0.0, 0.0, 0.0, 0.0, 0.0, 0.0, 0.0, 0.0, 0.0, 0.0, 0.0, 0.0, 0.0, 0.0, 0.0, 0.0, 0.0, 0.0, 0.0, 0.0, 0.0, 0.0, 0.0, 0.0, 0.0, 0.0, 0.0, 0.0, 0.0, 0.0, 0.0, 0.0, 0.0, 0.0, 0.0, 0.0, 0.0, 0.0, 0.0, 0.0, 0.0, 0.0, 0.0, 0.0, 0.0, 0.0, 0.0, 0.0, 0.0, 0.0, 0.0, 0.0, 0.0, 0.0, 0.0, 0.0, 0.0, 0.0, 0.0, 0.0, 0.0, 0.0, 0.0, 0.0, 0.0, 0.0, 0.0, 0.0, 0.0, 0.0, 0.0, 0.0, 0.0, 0.0, 0.0, 0.0, 0.0, 0.0, 0.0, 0.0, 0.0, 0.0, 0.0, 0.0, 0.0, 0.0, 0.0, 0.0, 0.0, 0.0, 0.0, 0.0, 0.0, 0.0, 0.0, 0.0, 0.0, 0.0, 0.0, 0.0, 0.0, 0.0, 0.0, 0.0, 0.0, 0.0, 0.0, 0.0, 0.0, 0.0, 0.0, 0.0, 0.0, 0.0, 0.0, 0.0, 0.0, 0.0, 0.0, 0.0, 0.0, 0.0, 0.0, 0.0, 0.0, 0.0, 0.0, 0.0, 0.0, 0.0, 0.0, 0.0, 0.0, 0.0, 0.0, 0.0, 0.0, 0.0, 0.0, 0.0, 0.0, 0.0, 0.0, 0.0, 0.0, 0.0, 0.0, 0.0, 0.0, 0.0, 0.0, 0.0, 0.0, 0.0, 0.0, 0.0, 0.0, 0.0, 0.0, 0.0, 0.0, 0.0, 0.0, 0.0, 0.0, 0.0, 0.0, 0.0, 0.0, 0.0, 0.0, 0.0, 0.0, 0.0, 0.0, 0.0, 0.0, 0.0, 0.0, 0.0, 0.0, 0.0, 0.0, 0.0, 0.0, 0.0, 0.0, 0.0, 0.0, 0.0, 0.0, 0.0, 0.0, 0.0, 0.0, 0.0, 0.0, 0.0, 0.0, 0.0, 0.0, 0.0, 0.0, 0.0, 0.0, 0.0, 0.0, 0.0, 0.0, 0.0, 0.0, 0.0, 0.0, 0.0, 0.0, 0.0, 0.0, 0.0, 0.0, 0.0, 0.0, 0.0, 0.0, 0.0, 0.0, 0.0, 0.0, 0.0, 0.0, 0.0, 0.0, 0.0, 0.0, 0.0, 0.0, 0.0, 0.0, 0.0, 0.0, 0.0, 0.0, 0.0, 0.0, 0.0, 0.0, 0.0, 0.0, 0.0, 0.0, 0.0, 0.0, 0.0, 0.0, 0.0, 0.0, 0.0, 0.0, 0.0, 0.0, 0.0, 0.0, 0.0, 0.0, 0.0, 0.0, 0.0, 0.0, 0.0, 0.0, 0.0, 0.0, 0.0, 0.0, 0.0, 0.0, 0.0, 0.0, 0.0, 0.0, 0.0, 0.0, 0.0, 0.0, 0.0, 0.0, 0.0, 0.0, 0.0, 0.0, 0.0, 0.0, 0.0, 0.0, 0.0, 0.0, 0.0, 0.0, 0.0, 0.0, 0.0, 0.0, 0.0, 0.0, 0.0, 0.0, 0.0, 0.0, 0.0, 0.0, 0.0, 0.0, 0.0, 0.0, 0.0, 0.0, 0.0, 0.0, 0.0, 0.0, 0.0, 0.0, 0.0, 0.0, 0.0, 0.0, 0.0, 0.0, 0.0, 0.0, 0.0, 0.0, 0.0, 0.0, 0.0, 0.0, 0.0, 0.0, 0.0, 0.0, 0.0, 0.0, 0.0, 0.0, 0.0, 0.0, 0.0, 0.0, 0.0, 0.0, 0.0, 0.0, 0.0, 0.0, 0.0, 0.0, 0.0, 0.0, 0.0, 0.0, 0.0, 0.0, 0.0, 0.0, 0.0, 0.0, 0.0, 0.0, 0.0, 0.0, 0.0, 0.0, 0.0, 0.0, 0.0, 0.0, 0.0, 0.0, 0.0, 0.0, 0.0, 0.0, 0.0, 0.0, 0.0, 0.0, 0.0, 0.0, 0.0, 0.0, 0.0, 0.0, 0.0, 0.0, 0.0, 0.0, 0.0, 0.0, 0.0, 0.0, 0.0, 0.0, 0.0, 0.0, 0.0, 0.0, 0.0, 0.0, 0.0, 0.0, 0.0, 0.0, 0.0, 0.0, 0.0, 0.0, 0.0, 0.0, 0.0, 0.0, 0.0, 0.0, 0.0, 0.0, 0.0, 0.0, 0.0, 0.0, 0.0, 0.0, 0.0, 0.0, 0.0, 0.0, 0.0, 0.0, 0.0, 0.0, 0.0, 0.0, 0.0, 0.0, 0.0, 0.0, 0.0, 0.0, 0.0, 0.0, 0.0, 0.0, 0.0, 0.0, 0.0, 0.0, 0.0, 0.0, 0.0, 0.0, 0.0, 0.0, 0.0, 0.0, 0.0, 0.0, 0.0, 0.0, 0.0, 0.0, 0.0, 0.0, 0.0, 0.0, 0.0, 0.0, 0.0, 0.0, 0.0, 0.0, 0.0, 0.0, 0.0, 0.0, 0.0, 0.0, 0.0, 0.0, 0.0, 0.0, 0.0, 0.0, 0.0, 0.0, 0.0, 0.0, 0.0, 0.0, 0.0, 0.0, 0.0, 0.0, 0.0, 0.0, 0.0, 0.0, 0.0, 0.0, 0.0, 0.0, 0.0, 0.0, 0.0, 0.0, 0.0, 0.0, 0.0, 0.0, 0.0, 0.0, 0.0, 0.0, 0.0, 0.0, 0.0, 0.0, 0.0, 0.0, 0.0, 0.0, 0.0, 0.0, 0.0, 0.0, 0.0, 0.0, 0.0, 0.0, 0.0, 0.0, 0.0, 0.0, 0.0, 0.0, 0.0, 0.0, 0.0, 0.0, 0.0, 0.0, 0.0, 0.0, 0.0, 0.0, 0.0, 0.0, 0.0, 0.0, 0.0, 0.0, 0.0, 0.0, 0.0, 0.0, 0.0, 0.0, 0.0, 0.0, 0.0, 0.0, 0.0, 0.0, 0.0, 0.0, 0.0, 0.0, 0.0, 0.0, 0.0, 0.0, 0.0, 0.0, 0.0, 0.0, 0.0, 0.0, 0.0, 0.0, 0.0, 0.0, 0.0, 0.0, 0.0, 0.0, 0.0, 0.0, 0.0, 0.0, 0.0, 0.0, 0.0, 0.0, 0.0, 0.0, 0.0, 0.0, 0.0, 0.0, 0.0, 0.0, 0.0, 0.0, 0.0, 0.0, 0.0, 0.0, 0.0, 0.0, 0.0, 0.0, 0.0, 0.0, 0.0, 0.0, 0.0, 0.0, 0.0, 0.0, 0.0, 0.0, 0.0, 0.0, 0.0, 0.0, 0.0, 0.0],
  "Shots": 4096,
  "Size": 12,
  "Total Algorithm duration [s]": 3.506,
  "Total Classic duration [s]": 3.38591240012343,
  "Total Quantum duration [s]": 0.12008759987656958
}
