{
  "Circuit execution durations [ms]": [0.24819999816827476, 0.17999999545281753, 0.20730000687763095, 0.17300000035902485, 0.18555000133346766, 0.17574999947100878, 0.16814999980852008, 0.17300000035902485, 0.21350000315578654, 0.16770000365795568, 0.16500000492669642, 0.1662499998928979, 0.1659500048845075, 0.16980000509647653, 0.1752499956637621, 0.1638999965507537, 0.17110000044340268, 0.1685499955783598, 0.1647000026423484, 0.16680000408086926, 0.16709999908925965, 0.16509999841218814, 0.16804999904707074, 0.1674999948590994, 0.16560000221943483, 0.21440000273287296, 0.17535000370116904, 0.1659500048845075, 0.1656500026001595, 0.16630000027362257, 0.17924999701790512, 0.28664999990724027, 0.17194999963976443, 0.1660999987507239, 0.170449995493982, 0.16619999951217324, 0.16599999798927456, 0.16770000365795568, 0.1763500040397048, 0.17094999930122867, 0.27439999394118786, 0.23145000159274787, 0.17115000082412735, 0.16725000023143366, 0.2060999977402389, 0.17334999574813992, 0.167350000992883, 0.16989999858196825, 0.16665000293869525, 0.1669000048423186, 0.16630000027362257, 0.16434999997727573, 0.1768000001902692, 0.2139000062015839, 0.17654999828664586, 0.16830000095069408, 0.16830000095069408, 0.1657999964663759, 0.16529999993508682, 0.16584999684710056, 0.17110000044340268, 0.16820000018924475, 0.17305000073974952, 0.16730000061215833, 0.16545000107726082, 0.16549999418202788, 0.17069999739760533, 0.1659499976085499, 0.17150000348920003, 0.18694999744184315, 0.19615000201156363, 0.1727499984554015, 0.17324999498669058, 0.16529999993508682, 0.170599996636156, 0.17344999650958925, 0.1650500053074211, 0.17294999997830018, 0.19925000378862023, 0.17585000023245811, 0.16704999870853499, 0.16879999748198316, 0.17729999672155827, 0.16940000205067918, 0.16619999951217324, 0.1668499971856363, 0.1666999960434623, 0.1749500006553717, 0.16859999595908448, 0.16885000513866544, 0.16769999638199806, 0.17350000416627154, 0.17364999803248793, 0.17069999739760533, 0.16529999993508682, 0.21684999956050888, 0.1687499971012585, 0.1688999982434325, 0.16969999705906957, 0.16694999794708565, 0.16599999798927456, 0.167350000992883, 0.20370000129332766, 0.17205000040121377, 0.167199999850709, 0.16575000336160883, 0.16545000107726082, 0.17615000251680613, 0.17020000086631626, 0.16569999570492655, 0.17610000213608146, 0.2062499988824129, 0.17175000539282337, 0.16870000399649143, 0.16635000065434724, 0.16755000251578167, 0.16645000141579658, 0.174449996848125, 0.16545000107726082, 0.1735499972710386, 0.17484999989392236, 0.16570000298088416, 0.16554999456275254, 0.16630000027362257, 0.1651499987929128, 0.16555000183871016, 0.1677999971434474, 0.16925000090850517, 0.19939999765483662, 0.2541499998187646, 0.17239999579032883, 0.1718499988783151, 0.17010000010486692, 0.16714999946998432, 0.16560000221943483, 0.17415000183973461, 0.19419999443925917, 0.16774999676272273, 0.1740000006975606, 0.16560000221943483, 0.17084999853977934, 0.16894999862415716, 0.181950003025122, 0.20954999490641057, 0.17579999985173345, 0.18489999638404697, 0.17175000539282337, 0.16584999684710056, 0.16674999642418697, 0.16524999955436215, 0.1662499998928979, 0.16450000111944973, 0.2090499983751215, 0.16820000018924475, 0.1668499971856363, 0.16614999913144857, 0.1661000060266815, 0.1724499961710535, 0.16694999794708565, 0.16879999748198316, 0.1747999995131977, 0.1724500034470111, 0.16689999756636098, 0.17040000238921493, 0.17014999320963398, 0.16940000205067918, 0.16665000293869525, 0.1399000029778108, 0.27975000557489693, 0.16994999896269292, 0.17174999811686575, 0.17169999773614109, 0.16820000018924475, 0.16600000526523218, 0.16650000179652125, 0.1656500026001595, 0.19710000196937472, 0.17654999828664586, 0.16689999756636098, 0.1760500017553568, 0.16740000137360767, 0.1662499998928979, 0.17780000052880496, 0.16630000027362257, 0.16630000027362257, 0.17329999536741525, 0.16535000031581149, 0.16649999452056363, 0.16700000560376793, 0.16895000590011477, 0.20840000070165843, 0.20740000036312267, 0.16950000281212851, 0.17239999579032883, 0.1688999982434325, 0.18029999773716554, 0.17750000552041456, 0.17754999862518162, 0.20994999795220792, 0.1718499988783151, 0.16880000475794077, 0.16840000171214342, 0.16630000027362257, 0.16575000336160883, 0.17139999545179307, 0.17979999392991886, 0.19204999262001365, 0.17690000095171854, 0.16755000251578167, 0.1688999982434325, 0.17625000327825546, 0.16535000031581149, 0.16589999722782522, 0.20430000586202368, 0.16709999908925965, 0.16535000031581149, 0.17039999511325732, 0.16695000522304326, 0.16475000302307308, 0.1655000014579855, 0.16699999832781032, 0.17194999963976443, 0.17269999807467684, 0.20044999837409705, 0.17250000382773578, 0.16650000179652125, 0.14504999853670597, 0.1694999955361709, 0.22540000645676628, 0.17235000268556178, 0.16760000289650634, 0.1662499998928979, 0.16744999447837472, 0.1661000060266815, 0.1726500049699098, 0.264899994363077, 0.1735500045469962, 0.1724499961710535, 0.1693499943939969, 0.17115000082412735, 0.167199999850709, 0.16665000293869525, 0.1656500026001595, 0.16465000226162374, 0.167650003277231, 0.17769999976735562, 0.16554999456275254, 0.1674999948590994, 0.16864999633980915, 0.1649999976507388, 0.16685000446159393, 0.16519999917363748, 0.16479999612784013, 0.18730000010691583, 0.16589999722782522, 0.1662499998928979, 0.16645000141579658, 0.16540000069653615, 0.17300000035902485, 0.1638999965507537, 0.1704500027699396, 0.20379999477881938, 0.17225000192411244, 0.16709999908925965, 0.16989999858196825, 0.16570000298088416, 0.16730000061215833, 0.16614999913144857, 0.1659499976085499, 0.17734999710228294, 0.18989999080076814, 0.18370000179857016, 0.1725999973132275, 0.17220000154338777, 0.16950000281212851, 0.1694999955361709, 0.16869999672053382, 0.21654999727616087, 0.1747999995131977, 0.16999999934341758, 0.17174999811686575, 0.17125000158557668, 0.17135000234702602, 0.16775000403868034, 0.170899998920504, 0.21124999329913408, 0.1800499958335422, 0.174299995705951, 0.1723000023048371, 0.20989999757148325, 0.17110000044340268, 0.1680999994277954, 0.1746500056469813, 0.17854999896371737, 0.21069999638712034, 0.16909999976633117, 0.1981999957934022, 0.1718499988783151, 0.16519999917363748, 0.19270000484539196, 0.1655000014579855, 0.16489999688928947, 0.1660999987507239, 0.16575000336160883, 0.16494999727001414],
  "Depth": 2.0,
  "Expectation Value": -6.336897373199463,
  "Optimal Expectation Value": -7.393599987030029,
  "Optimizer durations [ms]": [6.592, 5.133, 6.851, 4.892, 5.169, 5.033, 4.811, 4.852, 5.405, 4.817, 4.671, 4.682, 4.611, 4.845, 4.911, 5.344, 4.931, 4.791, 4.655, 4.625, 4.731, 4.662, 4.726, 4.73, 4.672, 5.61, 5.03, 4.73, 4.669, 4.702, 11.158, 7.302, 4.916, 4.727, 4.798, 4.684, 4.681, 4.826, 5.03, 5.374, 20.2, 5.711, 4.909, 4.733, 5.414, 4.969, 4.728, 4.75, 4.703, 4.691, 4.711, 4.633, 4.935, 5.675, 5.082, 4.762, 4.767, 4.663, 4.753, 4.842, 4.882, 5.306, 4.963, 4.743, 4.708, 4.68, 4.797, 4.678, 4.763, 5.132, 5.389, 4.957, 4.846, 4.701, 4.823, 4.91, 4.752, 4.894, 5.356, 4.993, 4.733, 4.685, 4.86, 4.802, 4.699, 4.704, 5.34, 4.924, 4.73, 4.76, 4.715, 4.869, 4.906, 4.857, 4.815, 5.546, 4.795, 4.827, 4.778, 4.73, 4.677, 4.755, 5.493, 4.922, 4.744, 4.666, 4.66, 5.04, 4.883, 4.715, 5.005, 5.397, 4.935, 4.817, 4.737, 4.794, 4.688, 4.907, 4.677, 4.904, 5.604, 4.674, 4.688, 4.766, 4.642, 4.68, 4.69, 5.471, 5.363, 6.437, 5.053, 4.92, 4.818, 4.736, 4.707, 4.924, 5.27, 4.786, 4.857, 4.711, 4.866, 4.765, 5.014, 5.946, 5.033, 5.183, 4.94, 4.735, 4.698, 4.673, 4.755, 4.883, 5.552, 4.81, 4.73, 4.707, 4.74, 4.798, 4.706, 4.752, 5.371, 4.92, 4.739, 4.775, 4.817, 4.737, 4.725, 7.351, 21.757, 4.976, 4.88, 4.841, 4.948, 4.985, 4.693, 4.675, 5.302, 5.051, 4.714, 4.91, 4.768, 4.696, 5.491, 4.856, 4.97, 4.856, 4.71, 4.823, 4.709, 4.722, 5.527, 5.451, 4.857, 4.908, 4.771, 5.044, 4.994, 5.109, 5.472, 4.892, 4.815, 5.087, 4.713, 4.686, 4.811, 4.998, 5.315, 5.024, 4.839, 4.84, 4.937, 4.733, 4.678, 5.449, 4.77, 4.683, 4.81, 4.72, 4.638, 4.709, 4.708, 4.907, 4.874, 5.412, 4.942, 4.741, 7.186, 6.88, 5.854, 4.959, 12.899, 4.692, 4.725, 4.535, 4.95, 6.473, 6.107, 4.916, 4.698, 4.845, 4.726, 4.691, 4.807, 4.645, 5.365, 5.025, 4.734, 4.746, 4.754, 4.667, 4.694, 4.665, 4.667, 5.16, 4.694, 4.733, 4.722, 4.723, 4.815, 4.669, 4.825, 5.453, 4.921, 4.761, 4.789, 4.692, 4.68, 4.682, 4.679, 4.911, 5.221, 5.115, 4.976, 4.969, 4.756, 4.858, 4.752, 5.357, 5.089, 4.675, 4.842, 4.795, 4.846, 4.877, 4.835, 5.601, 5.249, 5.002, 4.923, 5.331, 4.926, 4.785, 4.82, 5.032, 5.556, 4.82, 5.312, 4.946, 4.711, 5.266, 4.713, 4.668, 5.202, 4.662, 4.691],
  "Optimizer iterations": 305,
  "Optimizer params": [0.9995997235845583, 0.5016086161687168, 0.011300553735914624, 0.9988769392854373, 0.49744720030427897, 0.9958527807909681, 0.4882670881787503, 0.4997844196474264, 0.9976341320571571, 0.49825839872513555, 0.003900723477595049, 0.9981564963386588],
  "P": 0,
  "Problem": "RH",
  "QJob durations [ms]": [0.24819999816827476, 0.17999999545281753, 0.20730000687763095, 0.17300000035902485, 0.18555000133346766, 0.17574999947100878, 0.16814999980852008, 0.17300000035902485, 0.21350000315578654, 0.16770000365795568, 0.16500000492669642, 0.1662499998928979, 0.1659500048845075, 0.16980000509647653, 0.1752499956637621, 0.1638999965507537, 0.17110000044340268, 0.1685499955783598, 0.1647000026423484, 0.16680000408086926, 0.16709999908925965, 0.16509999841218814, 0.16804999904707074, 0.1674999948590994, 0.16560000221943483, 0.21440000273287296, 0.17535000370116904, 0.1659500048845075, 0.1656500026001595, 0.16630000027362257, 0.17924999701790512, 0.28664999990724027, 0.17194999963976443, 0.1660999987507239, 0.170449995493982, 0.16619999951217324, 0.16599999798927456, 0.16770000365795568, 0.1763500040397048, 0.17094999930122867, 0.27439999394118786, 0.23145000159274787, 0.17115000082412735, 0.16725000023143366, 0.2060999977402389, 0.17334999574813992, 0.167350000992883, 0.16989999858196825, 0.16665000293869525, 0.1669000048423186, 0.16630000027362257, 0.16434999997727573, 0.1768000001902692, 0.2139000062015839, 0.17654999828664586, 0.16830000095069408, 0.16830000095069408, 0.1657999964663759, 0.16529999993508682, 0.16584999684710056, 0.17110000044340268, 0.16820000018924475, 0.17305000073974952, 0.16730000061215833, 0.16545000107726082, 0.16549999418202788, 0.17069999739760533, 0.1659499976085499, 0.17150000348920003, 0.18694999744184315, 0.19615000201156363, 0.1727499984554015, 0.17324999498669058, 0.16529999993508682, 0.170599996636156, 0.17344999650958925, 0.1650500053074211, 0.17294999997830018, 0.19925000378862023, 0.17585000023245811, 0.16704999870853499, 0.16879999748198316, 0.17729999672155827, 0.16940000205067918, 0.16619999951217324, 0.1668499971856363, 0.1666999960434623, 0.1749500006553717, 0.16859999595908448, 0.16885000513866544, 0.16769999638199806, 0.17350000416627154, 0.17364999803248793, 0.17069999739760533, 0.16529999993508682, 0.21684999956050888, 0.1687499971012585, 0.1688999982434325, 0.16969999705906957, 0.16694999794708565, 0.16599999798927456, 0.167350000992883, 0.20370000129332766, 0.17205000040121377, 0.167199999850709, 0.16575000336160883, 0.16545000107726082, 0.17615000251680613, 0.17020000086631626, 0.16569999570492655, 0.17610000213608146, 0.2062499988824129, 0.17175000539282337, 0.16870000399649143, 0.16635000065434724, 0.16755000251578167, 0.16645000141579658, 0.174449996848125, 0.16545000107726082, 0.1735499972710386, 0.17484999989392236, 0.16570000298088416, 0.16554999456275254, 0.16630000027362257, 0.1651499987929128, 0.16555000183871016, 0.1677999971434474, 0.16925000090850517, 0.19939999765483662, 0.2541499998187646, 0.17239999579032883, 0.1718499988783151, 0.17010000010486692, 0.16714999946998432, 0.16560000221943483, 0.17415000183973461, 0.19419999443925917, 0.16774999676272273, 0.1740000006975606, 0.16560000221943483, 0.17084999853977934, 0.16894999862415716, 0.181950003025122, 0.20954999490641057, 0.17579999985173345, 0.18489999638404697, 0.17175000539282337, 0.16584999684710056, 0.16674999642418697, 0.16524999955436215, 0.1662499998928979, 0.16450000111944973, 0.2090499983751215, 0.16820000018924475, 0.1668499971856363, 0.16614999913144857, 0.1661000060266815, 0.1724499961710535, 0.16694999794708565, 0.16879999748198316, 0.1747999995131977, 0.1724500034470111, 0.16689999756636098, 0.17040000238921493, 0.17014999320963398, 0.16940000205067918, 0.16665000293869525, 0.1399000029778108, 0.27975000557489693, 0.16994999896269292, 0.17174999811686575, 0.17169999773614109, 0.16820000018924475, 0.16600000526523218, 0.16650000179652125, 0.1656500026001595, 0.19710000196937472, 0.17654999828664586, 0.16689999756636098, 0.1760500017553568, 0.16740000137360767, 0.1662499998928979, 0.17780000052880496, 0.16630000027362257, 0.16630000027362257, 0.17329999536741525, 0.16535000031581149, 0.16649999452056363, 0.16700000560376793, 0.16895000590011477, 0.20840000070165843, 0.20740000036312267, 0.16950000281212851, 0.17239999579032883, 0.1688999982434325, 0.18029999773716554, 0.17750000552041456, 0.17754999862518162, 0.20994999795220792, 0.1718499988783151, 0.16880000475794077, 0.16840000171214342, 0.16630000027362257, 0.16575000336160883, 0.17139999545179307, 0.17979999392991886, 0.19204999262001365, 0.17690000095171854, 0.16755000251578167, 0.1688999982434325, 0.17625000327825546, 0.16535000031581149, 0.16589999722782522, 0.20430000586202368, 0.16709999908925965, 0.16535000031581149, 0.17039999511325732, 0.16695000522304326, 0.16475000302307308, 0.1655000014579855, 0.16699999832781032, 0.17194999963976443, 0.17269999807467684, 0.20044999837409705, 0.17250000382773578, 0.16650000179652125, 0.14504999853670597, 0.1694999955361709, 0.22540000645676628, 0.17235000268556178, 0.16760000289650634, 0.1662499998928979, 0.16744999447837472, 0.1661000060266815, 0.1726500049699098, 0.264899994363077, 0.1735500045469962, 0.1724499961710535, 0.1693499943939969, 0.17115000082412735, 0.167199999850709, 0.16665000293869525, 0.1656500026001595, 0.16465000226162374, 0.167650003277231, 0.17769999976735562, 0.16554999456275254, 0.1674999948590994, 0.16864999633980915, 0.1649999976507388, 0.16685000446159393, 0.16519999917363748, 0.16479999612784013, 0.18730000010691583, 0.16589999722782522, 0.1662499998928979, 0.16645000141579658, 0.16540000069653615, 0.17300000035902485, 0.1638999965507537, 0.1704500027699396, 0.20379999477881938, 0.17225000192411244, 0.16709999908925965, 0.16989999858196825, 0.16570000298088416, 0.16730000061215833, 0.16614999913144857, 0.1659499976085499, 0.17734999710228294, 0.18989999080076814, 0.18370000179857016, 0.1725999973132275, 0.17220000154338777, 0.16950000281212851, 0.1694999955361709, 0.16869999672053382, 0.21654999727616087, 0.1747999995131977, 0.16999999934341758, 0.17174999811686575, 0.17125000158557668, 0.17135000234702602, 0.16775000403868034, 0.170899998920504, 0.21124999329913408, 0.1800499958335422, 0.174299995705951, 0.1723000023048371, 0.20989999757148325, 0.17110000044340268, 0.1680999994277954, 0.1746500056469813, 0.17854999896371737, 0.21069999638712034, 0.16909999976633117, 0.1981999957934022, 0.1718499988783151, 0.16519999917363748, 0.19270000484539196, 0.1655000014579855, 0.16489999688928947, 0.1660999987507239, 0.16575000336160883, 0.16494999727001414],
  "QPU": "7000000",
  "Qubits": 12,
  "Queue durations [ms]": [0.0, 0.0, 0.0, 0.0, 0.0, 0.0, 0.0, 0.0, 0.0, 0.0, 0.0, 0.0, 0.0, 0.0, 0.0, 0.0, 0.0, 0.0, 0.0, 0.0, 0.0, 0.0, 0.0, 0.0, 0.0, 0.0, 0.0, 0.0, 0.0, 0.0, 0.0, 0.0, 0.0, 0.0, 0.0, 0.0, 0.0, 0.0, 0.0, 0.0, 0.0, 0.0, 0.0, 0.0, 0.0, 0.0, 0.0, 0.0, 0.0, 0.0, 0.0, 0.0, 0.0, 0.0, 0.0, 0.0, 0.0, 0.0, 0.0, 0.0, 0.0, 0.0, 0.0, 0.0, 0.0, 0.0, 0.0, 0.0, 0.0, 0.0, 0.0, 0.0, 0.0, 0.0, 0.0, 0.0, 0.0, 0.0, 0.0, 0.0, 0.0, 0.0, 0.0, 0.0, 0.0, 0.0, 0.0, 0.0, 0.0, 0.0, 0.0, 0.0, 0.0, 0.0, 0.0, 0.0, 0.0, 0.0, 0.0, 0.0, 0.0, 0.0, 0.0, 0.0, 0.0, 0.0, 0.0, 0.0, 0.0, 0.0, 0.0, 0.0, 0.0, 0.0, 0.0, 0.0, 0.0, 0.0, 0.0, 0.0, 0.0, 0.0, 0.0, 0.0, 0.0, 0.0, 0.0, 0.0, 0.0, 0.0, 0.0, 0.0, 0.0, 0.0, 0.0, 0.0, 0.0, 0.0, 0.0, 0.0, 0.0, 0.0, 0.0, 0.0, 0.0, 0.0, 0.0, 0.0, 0.0, 0.0, 0.0, 0.0, 0.0, 0.0, 0.0, 0.0, 0.0, 0.0, 0.0, 0.0, 0.0, 0.0, 0.0, 0.0, 0.0, 0.0, 0.0, 0.0, 0.0, 0.0, 0.0, 0.0, 0.0, 0.0, 0.0, 0.0, 0.0, 0.0, 0.0, 0.0, 0.0, 0.0, 0.0, 0.0, 0.0, 0.0, 0.0, 0.0, 0.0, 0.0, 0.0, 0.0, 0.0, 0.0, 0.0, 0.0, 0.0, 0.0, 0.0, 0.0, 0.0, 0.0, 0.0, 0.0, 0.0, 0.0, 0.0, 0.0, 0.0, 0.0, 0.0, 0.0, 0.0, 0.0, 0.0, 0.0, 0.0, 0.0, 0.0, 0.0, 0.0, 0.0, 0.0, 0.0, 0.0, 0.0, 0.0, 0.0, 0.0, 0.0, 0.0, 0.0, 0.0, 0.0, 0.0, 0.0, 0.0, 0.0, 0.0, 0.0, 0.0, 0.0, 0.0, 0.0, 0.0, 0.0, 0.0, 0.0, 0.0, 0.0, 0.0, 0.0, 0.0, 0.0, 0.0, 0.0, 0.0, 0.0, 0.0, 0.0, 0.0, 0.0, 0.0, 0.0, 0.0, 0.0, 0.0, 0.0, 0.0, 0.0, 0.0, 0.0, 0.0, 0.0, 0.0, 0.0, 0.0, 0.0, 0.0, 0.0, 0.0, 0.0, 0.0, 0.0, 0.0, 0.0, 0.0, 0.0, 0.0, 0.0, 0.0, 0.0, 0.0, 0.0, 0.0, 0.0, 0.0, 0.0, 0.0, 0.0, 0.0, 0.0, 0.0, 0.0, 0.0],
  "Shots": 4096,
  "Size": 12,
  "Total Algorithm duration [s]": 1.557,
  "Total Classic duration [s]": 1.5035744500557775,
  "Total Quantum duration [s]": 0.05342554994422244
}
