{
  "Circuit execution durations [ms]": [0.0, 0.0, 0.0, 0.0, 0.0, 0.0, 0.0, 0.0, 0.0, 0.0, 0.0, 0.0, 0.0, 0.0, 0.0, 0.0, 0.0, 2115.0, 0.0, 0.0, 0.0, 2113.0, 0.0, 2049.0, 0.0, 0.0, 0.0, 0.0, 0.0, 2103.0, 0.0, 0.0, 0.0, 0.0, 0.0, 0.0, 0.0, 0.0, 0.0, 2050.0, 0.0, 0.0, 0.0, 2100.0, 2166.0, 0.0, 0.0, 0.0, 2180.0, 0.0, 0.0, 0.0, 0.0, 0.0, 0.0, 0.0, 0.0, 0.0, 0.0, 0.0, 0.0, 0.0, 0.0, 0.0, 0.0, 0.0, 0.0, 0.0, 0.0, 0.0, 0.0, 0.0, 0.0, 0.0, 0.0, 2086.0, 0.0, 0.0, 0.0, 0.0, 2084.0, 0.0, 2185.0, 0.0, 0.0, 0.0, 0.0, 0.0, 0.0, 0.0, 0.0, 2095.0, 0.0, 0.0, 0.0, 0.0, 0.0, 0.0, 0.0, 0.0, 0.0, 0.0, 0.0, 0.0, 0.0, 0.0, 0.0, 0.0, 0.0, 0.0, 0.0, 2074.0, 0.0],
  "Depth": 110.0,
  "Expectation Value": -1.88720703125,
  "Optimal Expectation Value": -4.0,
  "Optimizer durations [ms]": [22414.344, 22892.841, 22922.855, 27801.711, 22327.665, 22481.067, 22990.468, 22443.726, 22297.503, 22660.284, 22811.886, 22787.249, 22997.468, 22367.39, 22514.157, 22614.795, 22458.664, 22712.929, 22485.688, 22887.667, 22534.44, 22482.541, 22331.121, 17487.544, 22901.65, 22572.715, 22866.965, 22705.178, 22563.641, 22621.077, 22835.699, 22452.465, 22722.902, 22920.153, 22691.613, 23998.011, 22703.789, 22605.905, 22925.772, 22572.328, 22523.849, 22768.974, 22535.98, 22635.948, 23144.588, 22827.833, 22608.193, 22454.353, 22683.204, 22690.192, 23010.698, 22934.109, 22476.732, 22590.58, 22569.272, 22403.324, 22811.733, 22658.177, 22461.222, 22298.497, 22748.715, 22597.696, 23986.518, 22632.728, 22609.927, 23488.344, 23472.072, 22328.773, 22344.797, 23598.804, 22602.32, 22970.821, 22625.558, 22565.311, 22809.662, 22529.192, 22774.898, 22716.114, 22625.97, 22548.928, 22420.279, 22425.493, 23532.804, 22651.724, 22497.902, 22654.687, 22930.404, 18392.382, 22658.102, 22866.554, 22415.075, 22848.615, 23156.992, 22667.407, 22724.925, 22592.099, 22614.392, 22694.622, 22760.152, 22499.078, 22467.234, 22496.076, 22807.158, 22920.219, 22510.89, 22653.652, 22714.204, 22666.876, 17834.599, 22430.298, 22392.917, 22453.864, 22947.483],
  "Optimizer iterations": 113,
  "Optimizer params": [0.7648043315748574, 0.6601874025989821, 0.4827707547897701, 0.2281000855566142, 0.7888800022477183, 0.9197612793373257],
  "P": 3,
  "Problem": "TSP",
  "QJob durations [ms]": [22240.32473564148, 22770.631074905396, 22742.902278900146, 27625.414609909058, 22205.7044506073, 22297.311782836914, 22876.367807388306, 22329.698085784912, 22111.415147781372, 22546.380281448364, 22698.99010658264, 22600.098848342896, 22884.685039520264, 22254.693746566772, 22327.948570251465, 22501.598596572876, 22346.397876739502, 22527.03833580017, 22373.489379882813, 22773.57006072998, 22348.34599494934, 22370.078086853027, 22218.098640441895, 17301.154613494873, 22788.609981536865, 22459.59496498108, 22679.463386535645, 22592.916011810303, 22450.18196105957, 22434.813261032104, 22722.16296195984, 22339.4193649292, 22533.617734909058, 22807.557106018066, 22578.449249267578, 23811.394453048706, 22591.79401397705, 22493.197917938232, 22739.585876464844, 22459.261655807495, 22411.23652458191, 22579.66709136963, 22422.650814056396, 22523.3736038208, 22949.885368347168, 22714.836359024048, 22495.52321434021, 22269.31858062744, 22568.872213363647, 22577.03924179077, 22826.393604278564, 22821.007251739502, 22363.935470581055, 22407.673597335815, 22394.396543502808, 22281.450033187866, 22629.071474075317, 22483.734607696533, 22338.75799179077, 22115.86856842041, 22573.86040687561, 22473.55604171753, 23805.134057998657, 22458.389043807983, 22486.85121536255, 23309.738397598267, 23296.193599700928, 22205.75451850891, 22167.3800945282, 23424.705266952515, 22479.841470718384, 22795.459270477295, 22512.304544448853, 22384.05704498291, 22630.94139099121, 22355.17168045044, 22651.835680007935, 22532.100200653076, 22451.732397079468, 22426.267862319946, 22244.21000480652, 22312.105655670166, 23350.767374038696, 22471.885204315186, 22323.65131378174, 22532.25588798523, 22753.207206726074, 18218.59836578369, 22535.826921463013, 22690.605640411377, 22301.098346710205, 22666.789054870605, 22978.32751274109, 22493.36266517639, 22602.921724319458, 22416.499376296997, 22493.814706802368, 22510.3976726532, 22580.240726470947, 22324.681758880615, 22344.594478607178, 22319.031476974487, 22632.215976715088, 22797.481775283813, 22335.485458374023, 22540.92574119568, 22532.001972198486, 22485.945224761963, 17659.239530563354, 22308.3393573761, 22215.574979782104, 22279.404640197754, 22825.52719116211],
  "QPU": "10000001",
  "Qubits": 16,
  "Queue durations [ms]": [0.0, 0.0, 0.0, 0.0, 0.0, 0.0, 0.0, 0.0, 0.0, 0.0, 0.0, 0.0, 0.0, 0.0, 0.0, 0.0, 0.0, 0.0, 0.0, 0.0, 0.0, 0.0, 0.0, 0.0, 0.0, 0.0, 0.0, 0.0, 0.0, 0.0, 0.0, 0.0, 0.0, 0.0, 0.0, 0.0, 0.0, 0.0, 0.0, 0.0, 0.0, 0.0, 0.0, 0.0, 0.0, 0.0, 0.0, 0.0, 0.0, 0.0, 0.0, 0.0, 0.0, 0.0, 0.0, 0.0, 0.0, 0.0, 0.0, 0.0, 0.0, 0.0, 0.0, 0.0, 0.0, 0.0, 0.0, 0.0, 0.0, 0.0, 0.0, 0.0, 0.0, 0.0, 0.0, 0.0, 0.0, 0.0, 0.0, 0.0, 0.0, 0.0, 0.0, 0.0, 0.0, 0.0, 0.0, 0.0, 0.0, 0.0, 0.0, 0.0, 0.0, 0.0, 0.0, 0.0, 0.0, 0.0, 0.0, 0.0, 0.0, 0.0, 0.0, 0.0, 0.0, 0.0, 0.0, 0.0, 0.0, 0.0, 0.0, 0.0, 0.0],
  "Shots": 4096,
  "Size": 4,
  "Total Algorithm duration [s]": 2556.329,
  "Total Classic duration [s]": 16.90166068458575,
  "Total Quantum duration [s]": 2539.4273393154144
}
