{
  "Depth": 95.0,
  "Job durations [ms]": [5377.210378646851, 5635.691165924072, 5957.553148269653, 5691.841840744019, 5124.584913253784, 5223.763227462769, 5031.752824783325, 5176.042795181274, 5533.716201782227, 5070.138454437256, 5497.434854507446, 5128.280878067017, 5286.920785903931, 5838.744640350342, 5110.591888427734, 5001.542329788208, 5384.31978225708, 5074.078321456909, 5212.776660919189, 5251.61337852478, 5336.8706703186035, 5133.068799972534, 5597.962141036987, 5368.862867355347, 5275.219678878784, 5530.173301696777, 5532.508850097656, 5557.336330413818, 5121.23703956604, 5279.8871994018555, 5653.060436248779, 5718.128204345703, 5645.233154296875, 5770.384788513184, 5595.5376625061035, 5998.887777328491, 5695.968151092529, 5622.1923828125, 5279.685974121094, 5199.092864990234, 5150.081634521484, 5344.936370849609, 4986.611604690552, 5793.767929077148, 5622.323036193848, 5558.658123016357, 5376.1961460113525, 5225.398302078247, 5227.315187454224, 4991.761684417725, 5115.061044692993, 5637.526035308838, 5205.768585205078, 5554.311990737915, 5085.089683532715, 5435.925245285034, 5246.659755706787, 5432.604074478149, 5229.338645935059, 5515.768527984619, 5055.745840072632, 5386.2433433532715, 5485.711097717285, 5115.9539222717285, 5025.7887840271, 5014.035940170288, 5400.860071182251, 5015.986204147339, 5095.004320144653, 5011.094093322754, 5197.8113651275635, 5459.098815917969, 5173.948764801025, 5052.167654037476, 5495.596647262573, 5364.5312786102295, 5590.493202209473, 5594.668865203857, 5481.0967445373535, 5423.398494720459],
  "Optimizer durations [ms]": [54312.634, 18785.516, 20743.698, 19131.692, 19621.379, 20967.367, 19045.23, 20788.358, 20458.722, 19469.608, 20099.044, 20204.251, 19312.539, 19674.336, 20497.247, 20285.393, 19798.643, 20222.509, 19856.991, 19937.692, 30065.698, 19704.643, 20529.962, 19424.413, 20555.863, 19339.644, 20134.225, 20398.197, 20011.267, 19765.275, 20077.179, 21039.44, 19131.389, 20589.945, 19065.511, 20297.982, 20338.217, 19444.459, 20700.536, 19860.984, 19023.133, 19823.063, 21000.973, 19526.537, 20077.665, 20405.929, 29787.933, 20539.162, 29786.462, 19324.419, 20757.471, 19152.892, 19951.817, 19774.99, 20876.659, 20248.799, 19314.263, 20391.322, 19953.883, 19562.344, 20562.795, 19770.483, 19670.158, 20033.122, 20879.151, 19458.784, 19993.886, 19635.343, 20531.213, 19424.405, 20468.439, 20164.135, 21789.68, 17670.57, 19973.041, 20146.302, 20432.554, 20727.207, 18491.269, 20941.345],
  "Optimizer iterations": 80,
  "Qubits": 5,
  "Total Algorithm duration [s]": 1663.731,
  "Total Classic duration [s]": 1235.0367641983032,
  "Total Quantum duration [s]": 428.6942358016968,
  "Expectation Value": -5.07568359375,
  "Optimal Expectation Value": -6.0,
  "Optimizer params": [0.6680332197642265, 0.499123656020172, 0.14427711327267612, 0.9513438085363649, 0.969257459893305, 0.0776115852402525],
  "QPU": "4020020",
  "Problem": "MCP",
  "Size": 5,
  "P": 3,
  "Shots": 4096
}