{
  "Depth": 95.0,
  "Job durations [ms]": [5257.290363311768, 5339.156150817871, 5373.022079467773, 5161.522388458252, 5247.958183288574, 5121.052980422974, 5330.222129821777, 5274.947643280029, 5269.0136432647705, 5276.708126068115, 5283.30659866333, 5340.445280075073, 6101.9628047943115, 5246.106863021851, 5753.181219100952, 5302.287817001343, 5282.71484375, 5478.646993637085, 5226.532459259033, 5241.526126861572, 5454.238653182983, 5426.291942596436, 5374.787092208862, 5157.656192779541, 5803.7965297698975, 5544.157266616821, 5417.751312255859, 5230.47947883606, 5361.944913864136, 5238.029003143311, 5800.613164901733, 5610.491991043091, 5237.373113632202, 5237.875938415527, 5325.516939163208, 5331.519365310669, 5425.840616226196, 5693.5412883758545, 5604.784727096558, 5400.983095169067, 5449.541091918945, 5463.157176971436, 5296.987533569336, 5371.279239654541, 5334.346294403076, 5803.879022598267, 5348.958253860474, 5386.309862136841, 5312.85285949707, 5353.718996047974, 5394.306659698486, 5352.117300033569, 6008.722305297852, 5475.208044052124, 5415.6334400177, 5921.080112457275, 5757.215261459351, 5486.612319946289, 5392.635107040405, 5308.391571044922, 5627.382755279541, 5332.741737365723, 5656.581878662109, 5352.5731563568115, 5294.989109039307, 5677.265644073486, 5360.851287841797, 5372.065305709839, 5886.033773422241, 5413.011789321899, 5275.573253631592, 5650.990009307861, 5397.73964881897, 5307.716369628906, 5674.174785614014],
  "Optimizer durations [ms]": [21667.701, 17869.551, 19363.923, 20077.345, 20356.541, 20211.468, 19735.296, 20021.903, 19598.323, 20026.488, 20415.808, 19941.73, 20500.161, 19698.157, 20341.9, 19106.672, 21104.813, 18781.72, 20959.668, 19737.103, 19405.936, 20021.995, 19811.397, 20667.358, 19763.205, 20255.693, 19652.782, 19857.74, 20527.227, 20259.298, 19590.41, 19633.63, 20480.955, 20224.57, 19402.379, 20924.551, 19126.29, 19779.44, 20526.974, 19382.886, 20376.312, 19739.218, 21086.124, 19018.135, 20987.269, 18920.124, 20376.326, 20164.264, 20314.147, 19331.716, 19781.798, 19955.974, 20916.853, 20115.265, 19257.517, 20391.646, 19812.526, 19410.935, 20823.525, 20200.378, 20136.814, 19208.909, 21483.666, 18914.415, 19242.164, 20451.393, 19631.679, 20526.835, 19379.878, 20725.948, 20149.872, 19000.522, 20720.666, 20626.28, 19073.809],
  "Optimizer iterations": 75,
  "Qubits": 5,
  "Total Algorithm duration [s]": 1499.063,
  "Total Classic duration [s]": 1091.5650797252656,
  "Total Quantum duration [s]": 407.4979202747345,
  "Expectation Value": -4.9384765625,
  "Optimal Expectation Value": -6.0,
  "Optimizer params": [0.7685700606594632, 0.9392521518121277, 0.32160382173358226, 0.9921978979168956, 0.5829562137038949, 0.878583456269076],
  "QPU": "4020020",
  "Problem": "MCP",
  "Size": 5,
  "P": 3,
  "Shots": 4096
}