{
  "Depth": 95.0,
  "Job durations [ms]": [5393.978118896484, 5438.752174377441, 5435.882329940796, 5439.514398574829, 5316.607713699341, 5369.69518661499, 5706.627130508423, 5632.436275482178, 5913.613796234131, 5348.3452796936035, 5583.366870880127, 5642.230033874512, 5606.331586837769, 5868.014812469482, 5918.1177616119385, 6000.361204147339, 5871.555328369141, 6019.823312759399, 5718.041181564331, 5762.515544891357, 5740.178346633911, 5874.505519866943, 5791.19610786438, 5648.636102676392, 6247.058391571045, 5263.247728347778, 5341.179609298706, 5296.865701675415, 5664.2255783081055, 5851.156949996948, 5905.536890029907, 6237.495899200439, 6012.251138687134, 6022.422790527344, 5914.915323257446, 5303.459882736206, 5850.58331489563, 5579.184055328369, 5741.550922393799, 5346.065044403076, 5970.4790115356445, 5374.198198318481, 5477.173566818237, 5823.515176773071, 5904.5445919036865, 6116.614818572998, 6052.839994430542, 5410.212755203247, 5346.619606018066, 5272.011518478394, 5718.992233276367, 5073.284387588501, 5380.239963531494, 5308.309078216553, 5516.900300979614, 5867.947101593018, 5203.94492149353, 5577.8539180755615, 5348.914623260498, 5221.21262550354, 5510.764837265015, 5293.58434677124, 5527.811765670776, 5686.126232147217, 6024.481296539307, 5862.373828887939, 5906.727075576782, 5675.011873245239, 5763.3607387542725, 5266.887187957764, 5508.073806762695, 5245.803117752075, 5165.593147277832, 5296.897172927856, 5219.016313552856, 5507.472515106201, 5351.131200790405, 5507.565259933472, 5223.906755447388, 5188.524484634399],
  "Optimizer durations [ms]": [18597.502, 29207.549, 30517.202, 29926.908, 29399.836, 20575.1, 19581.686, 20248.31, 30307.781, 29899.604, 30073.81, 20035.812, 19177.23, 20557.155, 20103.867, 19701.884, 20470.575, 19932.624, 19691.095, 20502.701, 19354.058, 20444.837, 19618.669, 20546.121, 20348.575, 18564.398, 20752.792, 19918.92, 20862.111, 18891.932, 19939.505, 21248.997, 18622.311, 20658.228, 20384.381, 29155.174, 30761.746, 29565.439, 20089.248, 20816.512, 29066.961, 19827.688, 20072.07, 20590.598, 19348.066, 20427.271, 19340.97, 20180.144, 20839.815, 19016.815, 20069.552, 20336.177, 20408.683, 19287.588, 20297.67, 19756.629, 20461.136, 19570.43, 20573.939, 19771.402, 19043.664, 21578.815, 19121.003, 19719.557, 20228.742, 20168.411, 20331.016, 19814.351, 19597.902, 20155.827, 20412.83, 19933.657, 19663.298, 20053.432, 19944.081, 19769.208, 20454.793, 19453.083, 21286.055, 19914.353],
  "Optimizer iterations": 80,
  "Qubits": 5,
  "Total Algorithm duration [s]": 1708.939,
  "Total Classic duration [s]": 1260.6245533123017,
  "Total Quantum duration [s]": 448.31444668769836,
  "Expectation Value": -4.9375,
  "Optimal Expectation Value": -6.0,
  "Optimizer params": [0.6016449539363697, 0.5552197819860758, 0.5835890358766606, 0.6410260733056958, 0.6832302140218113, 0.09869871954683904],
  "QPU": "4020020",
  "Problem": "MCP",
  "Size": 5,
  "P": 3,
  "Shots": 4096
}