{
  "Circuit execution durations [ms]": [0.6058, 0.6145999999999999, 0.5865, 0.5946, 0.601, 0.5959, 0.5897, 0.5865, 0.5842, 0.5841000000000001, 0.5827, 0.5861, 0.5916, 0.585, 0.5938, 0.5887, 0.5902999999999999, 0.6047, 0.5942000000000001, 0.6034, 0.5865999999999999, 0.5852, 0.5859, 0.6042000000000001, 0.5902000000000001, 0.5902999999999999, 0.5857, 0.5923, 0.6001, 0.6053000000000001, 0.5966, 0.5948, 0.6023, 0.5787, 0.5909, 0.5946, 0.5887, 0.5881000000000001, 0.5963999999999999, 0.5937, 0.5918, 0.5886, 0.6056, 0.5856, 0.5910000000000001, 0.594, 0.5965, 0.6076, 0.5877, 0.6055, 0.6040000000000001, 0.5861, 0.5946, 0.5923999999999999, 0.6271, 0.579, 0.6676, 0.5905, 0.6103999999999999, 0.592, 0.5862, 0.6008, 0.5934],
  "Depth": 82.0,
  "Expectation Value": -1.0,
  "Optimal Expectation Value": -1.0,
  "Optimizer durations [ms]": [6.375, 6.741, 6.627, 6.349, 6.559, 6.464, 6.368, 6.513, 6.414, 6.15, 6.342, 6.383, 6.553, 6.27, 6.387, 6.46, 6.334, 6.649, 6.451, 6.604, 6.029, 6.317, 6.838, 6.524, 6.442, 6.264, 6.522, 6.366, 6.486, 6.545, 6.442, 6.568, 6.68, 5.961, 6.415, 6.567, 8.707, 6.455, 6.691, 6.422, 6.314, 6.54, 6.659, 6.38, 6.405, 6.405, 6.18, 7.035, 6.226, 6.404, 6.645, 6.385, 6.296, 6.591, 6.443, 6.645, 7.02, 6.508, 6.607, 6.355, 6.377, 6.538, 6.609],
  "Optimizer iterations": 63,
  "Optimizer params": [0.7242242594079852, 0.9368526549297409, 0.9648088672169771, 0.8227882661337106, 0.5721253473409427, 0.3320309497605181],
  "P": 3,
  "Problem": "MIS",
  "QJob durations [ms]": [0.6058, 0.6145999999999999, 0.5865, 0.5946, 0.601, 0.5959, 0.5897, 0.5865, 0.5842, 0.5841000000000001, 0.5827, 0.5861, 0.5916, 0.585, 0.5938, 0.5887, 0.5902999999999999, 0.6047, 0.5942000000000001, 0.6034, 0.5865999999999999, 0.5852, 0.5859, 0.6042000000000001, 0.5902000000000001, 0.5902999999999999, 0.5857, 0.5923, 0.6001, 0.6053000000000001, 0.5966, 0.5948, 0.6023, 0.5787, 0.5909, 0.5946, 0.5887, 0.5881000000000001, 0.5963999999999999, 0.5937, 0.5918, 0.5886, 0.6056, 0.5856, 0.5910000000000001, 0.594, 0.5965, 0.6076, 0.5877, 0.6055, 0.6040000000000001, 0.5861, 0.5946, 0.5923999999999999, 0.6271, 0.579, 0.6676, 0.5905, 0.6103999999999999, 0.592, 0.5862, 0.6008, 0.5934],
  "QPU": "7000000",
  "Qubits": 4,
  "Queue durations [ms]": [0.0, 0.0, 0.0, 0.0, 0.0, 0.0, 0.0, 0.0, 0.0, 0.0, 0.0, 0.0, 0.0, 0.0, 0.0, 0.0, 0.0, 0.0, 0.0, 0.0, 0.0, 0.0, 0.0, 0.0, 0.0, 0.0, 0.0, 0.0, 0.0, 0.0, 0.0, 0.0, 0.0, 0.0, 0.0, 0.0, 0.0, 0.0, 0.0, 0.0, 0.0, 0.0, 0.0, 0.0, 0.0, 0.0, 0.0, 0.0, 0.0, 0.0, 0.0, 0.0, 0.0, 0.0, 0.0, 0.0, 0.0, 0.0, 0.0, 0.0, 0.0, 0.0, 0.0],
  "Shots": 4096,
  "Size": 3,
  "Total Algorithm duration [s]": 0.409,
  "Total Classic duration [s]": 0.371508,
  "Total Quantum duration [s]": 0.03749199999999999
}
