{
  "Circuit execution durations [ms]": [0.6061000000000001, 0.6149, 0.6374, 0.5882, 0.6107, 0.5938, 0.5887, 0.606, 0.6029, 0.5829, 0.6221, 0.5720999999999999, 0.878, 0.5862, 0.6884, 0.601, 0.7744, 0.6065, 0.5917, 0.6021000000000001, 0.9113, 0.5972, 0.6703, 0.5744, 0.8069000000000001, 0.6017, 0.7092999999999999, 0.6027, 0.6481, 0.5102, 0.5873, 0.6121, 0.6103000000000001, 0.5909, 0.8359, 0.6092, 0.6939, 0.5877, 0.7152999999999999, 0.6053999999999999, 0.5972, 0.6043, 0.6907000000000001, 0.5842, 0.7810999999999999, 0.6034, 0.6981, 0.5976, 0.5857, 0.6102, 0.5402, 0.8635999999999999, 0.5938, 0.6076, 0.6049, 0.6323, 0.8651000000000001, 0.6061000000000001, 0.6057, 0.5939, 0.5904],
  "Depth": 82.0,
  "Expectation Value": -1.0,
  "Optimal Expectation Value": -1.0,
  "Optimizer durations [ms]": [6.39, 6.746, 6.92, 6.078, 6.839, 6.503, 6.244, 6.613, 6.496, 6.14, 6.909, 6.151, 9.272, 6.435, 7.645, 6.48, 8.207, 11.556, 6.327, 6.691, 9.532, 6.409, 6.967, 6.595, 8.301, 6.5, 7.526, 6.738, 6.994, 13.45, 8.989, 6.664, 6.56, 6.581, 8.681, 6.503, 7.5, 6.336, 7.628, 11.471, 7.855, 6.531, 7.355, 6.438, 8.222, 6.537, 7.546, 6.344, 6.526, 8.54, 14.792, 9.377, 6.111, 6.77, 6.249, 6.963, 8.821, 6.493, 6.683, 6.612, 6.182],
  "Optimizer iterations": 61,
  "Optimizer params": [0.41384879059820506, 0.29036763185848835, 0.046925513409960505, 0.02654597213629154, 0.7484135534960671, 0.9713712744713651],
  "P": 3,
  "Problem": "MIS",
  "QJob durations [ms]": [0.6061000000000001, 0.6149, 0.6374, 0.5882, 0.6107, 0.5938, 0.5887, 0.606, 0.6029, 0.5829, 0.6221, 0.5720999999999999, 0.878, 0.5862, 0.6884, 0.601, 0.7744, 0.6065, 0.5917, 0.6021000000000001, 0.9113, 0.5972, 0.6703, 0.5744, 0.8069000000000001, 0.6017, 0.7092999999999999, 0.6027, 0.6481, 0.5102, 0.5873, 0.6121, 0.6103000000000001, 0.5909, 0.8359, 0.6092, 0.6939, 0.5877, 0.7152999999999999, 0.6053999999999999, 0.5972, 0.6043, 0.6907000000000001, 0.5842, 0.7810999999999999, 0.6034, 0.6981, 0.5976, 0.5857, 0.6102, 0.5402, 0.8635999999999999, 0.5938, 0.6076, 0.6049, 0.6323, 0.8651000000000001, 0.6061000000000001, 0.6057, 0.5939, 0.5904],
  "QPU": "7000000",
  "Qubits": 4,
  "Queue durations [ms]": [0.0, 0.0, 0.0, 0.0, 0.0, 0.0, 0.0, 0.0, 0.0, 0.0, 0.0, 0.0, 0.0, 0.0, 0.0, 0.0, 0.0, 0.0, 0.0, 0.0, 0.0, 0.0, 0.0, 0.0, 0.0, 0.0, 0.0, 0.0, 0.0, 0.0, 0.0, 0.0, 0.0, 0.0, 0.0, 0.0, 0.0, 0.0, 0.0, 0.0, 0.0, 0.0, 0.0, 0.0, 0.0, 0.0, 0.0, 0.0, 0.0, 0.0, 0.0, 0.0, 0.0, 0.0, 0.0, 0.0, 0.0, 0.0, 0.0, 0.0, 0.0],
  "Shots": 4096,
  "Size": 3,
  "Total Algorithm duration [s]": 0.453,
  "Total Classic duration [s]": 0.41390970000000005,
  "Total Quantum duration [s]": 0.039090299999999994
}
