{
  "Circuit execution durations [ms]": [0.5979, 0.5842, 0.6059, 0.5999, 0.6164000000000001, 0.5910000000000001, 0.587, 0.5883, 0.5841000000000001, 0.5942999999999999, 0.6095999999999999, 0.5821, 0.5913999999999999, 0.5835, 0.5858, 0.5876, 0.6118, 0.6106, 0.5958, 0.6056, 0.606, 0.5936, 0.5987, 0.5774, 0.6019000000000001, 0.5984, 0.5954, 0.5764, 0.58, 0.6111, 0.6045999999999999, 0.5902999999999999, 0.6129, 0.5769, 0.5913, 0.6105, 0.6191, 0.5892000000000001, 0.601, 0.6, 0.5808, 0.5986, 0.6007, 0.5907, 0.5963, 0.5977, 0.5936, 0.6279, 0.6206, 0.5827, 0.5798, 0.5891, 0.5882, 0.5786, 0.5796, 0.5979, 0.583, 0.5896, 0.5913999999999999, 0.6013999999999999, 0.6241000000000001, 0.614, 0.5884, 0.5973, 0.6003000000000001, 0.5929000000000001, 0.5957, 0.6344000000000001, 0.6179, 0.614, 0.5965, 0.6097, 0.5999, 0.6057],
  "Depth": 82.0,
  "Expectation Value": -1.0,
  "Optimal Expectation Value": -1.0,
  "Optimizer durations [ms]": [6.27, 6.681, 6.306, 6.523, 6.789, 6.241, 6.434, 6.465, 6.229, 6.534, 6.44, 6.658, 6.061, 6.699, 6.222, 6.508, 6.544, 6.542, 6.611, 6.547, 6.497, 6.493, 6.226, 6.442, 6.601, 6.415, 6.302, 6.528, 6.197, 6.518, 6.482, 6.514, 6.566, 6.131, 6.568, 6.65, 6.768, 10.66, 6.434, 6.395, 6.742, 6.437, 6.229, 6.696, 6.278, 6.542, 6.339, 6.58, 6.723, 6.17, 6.51, 6.542, 6.417, 6.038, 6.314, 6.779, 6.189, 6.376, 6.741, 6.414, 6.727, 6.596, 6.5, 6.356, 6.633, 6.517, 6.559, 6.64, 6.683, 6.637, 6.477, 6.552, 6.466, 6.617],
  "Optimizer iterations": 74,
  "Optimizer params": [0.942535685174858, 0.25086498260498047, 0.49347053714567013, 0.44777487765421675, 0.8269795808690147, 0.5468593442861167],
  "P": 3,
  "Problem": "MIS",
  "QJob durations [ms]": [0.5979, 0.5842, 0.6059, 0.5999, 0.6164000000000001, 0.5910000000000001, 0.587, 0.5883, 0.5841000000000001, 0.5942999999999999, 0.6095999999999999, 0.5821, 0.5913999999999999, 0.5835, 0.5858, 0.5876, 0.6118, 0.6106, 0.5958, 0.6056, 0.606, 0.5936, 0.5987, 0.5774, 0.6019000000000001, 0.5984, 0.5954, 0.5764, 0.58, 0.6111, 0.6045999999999999, 0.5902999999999999, 0.6129, 0.5769, 0.5913, 0.6105, 0.6191, 0.5892000000000001, 0.601, 0.6, 0.5808, 0.5986, 0.6007, 0.5907, 0.5963, 0.5977, 0.5936, 0.6279, 0.6206, 0.5827, 0.5798, 0.5891, 0.5882, 0.5786, 0.5796, 0.5979, 0.583, 0.5896, 0.5913999999999999, 0.6013999999999999, 0.6241000000000001, 0.614, 0.5884, 0.5973, 0.6003000000000001, 0.5929000000000001, 0.5957, 0.6344000000000001, 0.6179, 0.614, 0.5965, 0.6097, 0.5999, 0.6057],
  "QPU": "7000000",
  "Qubits": 4,
  "Queue durations [ms]": [0.0, 0.0, 0.0, 0.0, 0.0, 0.0, 0.0, 0.0, 0.0, 0.0, 0.0, 0.0, 0.0, 0.0, 0.0, 0.0, 0.0, 0.0, 0.0, 0.0, 0.0, 0.0, 0.0, 0.0, 0.0, 0.0, 0.0, 0.0, 0.0, 0.0, 0.0, 0.0, 0.0, 0.0, 0.0, 0.0, 0.0, 0.0, 0.0, 0.0, 0.0, 0.0, 0.0, 0.0, 0.0, 0.0, 0.0, 0.0, 0.0, 0.0, 0.0, 0.0, 0.0, 0.0, 0.0, 0.0, 0.0, 0.0, 0.0, 0.0, 0.0, 0.0, 0.0, 0.0, 0.0, 0.0, 0.0, 0.0, 0.0, 0.0, 0.0, 0.0, 0.0, 0.0],
  "Shots": 4096,
  "Size": 3,
  "Total Algorithm duration [s]": 0.483,
  "Total Classic duration [s]": 0.4387935,
  "Total Quantum duration [s]": 0.044206499999999975
}
