{
  "Circuit execution durations [ms]": [0.603, 0.631, 0.5919, 0.5963999999999999, 0.5844, 0.5865, 0.6615, 0.5902999999999999, 0.6053000000000001, 0.5898, 0.5783999999999999, 0.5835, 0.5892000000000001, 0.6116999999999999, 0.5952999999999999, 0.593, 0.6033, 0.5957, 0.9424, 0.5959, 0.5802999999999999, 0.5858, 0.8537, 0.6213, 0.5773, 0.5937, 0.9297, 0.5963999999999999, 0.5879, 0.5959, 0.8527, 0.5869, 0.6685000000000001, 0.5963, 0.6956, 0.5035999999999999, 0.5768, 0.6114999999999999, 0.5972, 0.6098, 0.8592, 0.5785, 0.6912, 0.5868, 0.7341, 0.5224, 0.6005, 0.6426999999999999, 0.5779, 0.5877, 0.8432, 0.5834, 0.6711, 0.5962, 0.7948999999999999, 0.5718, 0.8444, 0.6032000000000001, 0.5888, 0.5976, 0.5775, 0.9388000000000001, 0.5963999999999999, 0.5879, 0.6033, 0.5883, 0.6087, 0.5901, 0.6244, 0.5966, 0.5962, 0.5927, 0.5955999999999999, 0.5928, 0.5882, 0.5789000000000001, 0.5766, 0.6402, 0.5894, 0.6068, 0.5756, 0.5929000000000001, 0.5934999999999999, 0.6028, 0.5793, 0.5887, 0.5910000000000001, 0.5795, 0.5828, 0.6174000000000001, 0.5806, 0.6016, 0.5995, 0.6008, 0.5885, 0.5941, 0.6021000000000001, 0.5919, 0.5949],
  "Depth": 82.0,
  "Expectation Value": -1.0,
  "Optimal Expectation Value": -1.0,
  "Optimizer durations [ms]": [6.595, 6.882, 6.42, 6.452, 6.244, 6.353, 7.281, 6.186, 6.767, 6.307, 6.415, 6.4, 6.426, 6.893, 6.439, 6.461, 6.486, 6.537, 9.869, 6.276, 7.142, 6.366, 8.849, 10.114, 6.52, 6.389, 9.931, 6.319, 7.522, 6.145, 9.137, 6.476, 7.187, 6.215, 7.601, 14.989, 6.855, 6.605, 6.454, 6.584, 8.938, 6.474, 7.267, 6.298, 7.976, 15.211, 6.506, 6.872, 6.482, 6.227, 9.008, 6.399, 7.16, 6.295, 8.939, 15.706, 13.508, 6.28, 6.842, 6.207, 6.509, 9.711, 6.67, 6.525, 6.367, 6.654, 6.478, 6.37, 6.812, 6.213, 6.862, 6.338, 6.569, 6.428, 6.188, 6.498, 6.454, 6.615, 6.659, 6.416, 6.264, 6.593, 6.541, 6.363, 6.567, 6.305, 6.266, 6.42, 6.293, 6.849, 8.329, 6.746, 6.382, 6.641, 6.327, 6.475, 6.466, 6.397, 6.555],
  "Optimizer iterations": 99,
  "Optimizer params": [0.9016474657228364, 0.958047000331383, 0.9799950300137662, 0.6903703670715323, 0.9172262292263909, 0.30230398178352635],
  "P": 3,
  "Problem": "MIS",
  "QJob durations [ms]": [0.603, 0.631, 0.5919, 0.5963999999999999, 0.5844, 0.5865, 0.6615, 0.5902999999999999, 0.6053000000000001, 0.5898, 0.5783999999999999, 0.5835, 0.5892000000000001, 0.6116999999999999, 0.5952999999999999, 0.593, 0.6033, 0.5957, 0.9424, 0.5959, 0.5802999999999999, 0.5858, 0.8537, 0.6213, 0.5773, 0.5937, 0.9297, 0.5963999999999999, 0.5879, 0.5959, 0.8527, 0.5869, 0.6685000000000001, 0.5963, 0.6956, 0.5035999999999999, 0.5768, 0.6114999999999999, 0.5972, 0.6098, 0.8592, 0.5785, 0.6912, 0.5868, 0.7341, 0.5224, 0.6005, 0.6426999999999999, 0.5779, 0.5877, 0.8432, 0.5834, 0.6711, 0.5962, 0.7948999999999999, 0.5718, 0.8444, 0.6032000000000001, 0.5888, 0.5976, 0.5775, 0.9388000000000001, 0.5963999999999999, 0.5879, 0.6033, 0.5883, 0.6087, 0.5901, 0.6244, 0.5966, 0.5962, 0.5927, 0.5955999999999999, 0.5928, 0.5882, 0.5789000000000001, 0.5766, 0.6402, 0.5894, 0.6068, 0.5756, 0.5929000000000001, 0.5934999999999999, 0.6028, 0.5793, 0.5887, 0.5910000000000001, 0.5795, 0.5828, 0.6174000000000001, 0.5806, 0.6016, 0.5995, 0.6008, 0.5885, 0.5941, 0.6021000000000001, 0.5919, 0.5949],
  "QPU": "7000000",
  "Qubits": 4,
  "Queue durations [ms]": [0.0, 0.0, 0.0, 0.0, 0.0, 0.0, 0.0, 0.0, 0.0, 0.0, 0.0, 0.0, 0.0, 0.0, 0.0, 0.0, 0.0, 0.0, 0.0, 0.0, 0.0, 0.0, 0.0, 0.0, 0.0, 0.0, 0.0, 0.0, 0.0, 0.0, 0.0, 0.0, 0.0, 0.0, 0.0, 0.0, 0.0, 0.0, 0.0, 0.0, 0.0, 0.0, 0.0, 0.0, 0.0, 0.0, 0.0, 0.0, 0.0, 0.0, 0.0, 0.0, 0.0, 0.0, 0.0, 0.0, 0.0, 0.0, 0.0, 0.0, 0.0, 0.0, 0.0, 0.0, 0.0, 0.0, 0.0, 0.0, 0.0, 0.0, 0.0, 0.0, 0.0, 0.0, 0.0, 0.0, 0.0, 0.0, 0.0, 0.0, 0.0, 0.0, 0.0, 0.0, 0.0, 0.0, 0.0, 0.0, 0.0, 0.0, 0.0, 0.0, 0.0, 0.0, 0.0, 0.0, 0.0, 0.0, 0.0],
  "Shots": 4096,
  "Size": 3,
  "Total Algorithm duration [s]": 0.709,
  "Total Classic duration [s]": 0.6472481,
  "Total Quantum duration [s]": 0.061751900000000005
}
