{
  "Circuit execution durations [ms]": [86.32373809814453, 82.78238773345947, 239.64130878448486, 95.12484073638916, 83.24933052062988, 236.73415184020996, 83.31835269927979, 83.5179090499878, 83.84203910827637, 83.17363262176514, 84.3437910079956, 82.7932357788086, 95.90744972229004, 83.7780237197876, 83.6493968963623, 83.20903778076172, 83.09614658355713, 83.36400985717773, 87.4863862991333, 84.01823043823242, 83.05919170379639, 83.45448970794678, 97.01693058013916, 83.75024795532227, 83.25338363647461, 233.94978046417236, 84.06782150268555, 83.52184295654297, 84.08606052398682, 83.87935161590576, 83.55343341827393, 96.10319137573242, 83.92584323883057, 83.16564559936523, 84.04970169067383, 83.44650268554688, 87.4483585357666, 238.35992813110352, 83.94885063171387, 83.49025249481201, 83.10425281524658, 95.84987163543701, 83.07898044586182, 83.6484432220459, 83.10472965240479, 83.16004276275635, 235.02826690673828, 83.23752880096436, 83.34100246429443, 83.36925506591797, 96.38285636901855, 82.83662796020508, 83.2279920578003, 241.13893508911133, 392.2610282897949, 83.33301544189453, 82.88741111755371, 83.46772193908691, 84.48350429534912, 238.0315065383911, 95.43132781982422, 83.32836627960205, 82.85772800445557, 82.9085111618042, 83.84335041046143, 83.12702178955078, 83.27078819274902, 83.07480812072754, 83.07766914367676, 95.6723690032959, 83.23001861572266, 83.71508121490479, 83.04190635681152, 86.85088157653809, 83.0925703048706, 83.29498767852783, 83.5803747177124, 83.40954780578613, 236.68110370635986, 96.60124778747559, 84.40220355987549, 83.04440975189209, 83.60135555267334, 83.24646949768066, 83.46843719482422, 83.3810567855835, 83.49251747131348, 83.09876918792725, 96.44842147827148, 83.41288566589355, 83.26613903045654, 87.76915073394775, 238.92414569854736, 82.85820484161377, 83.16516876220703, 233.46734046936035, 82.9315185546875, 83.04965496063232, 95.77786922454834, 82.76188373565674, 83.47821235656738, 83.83345603942871, 83.02748203277588, 83.42123031616211, 83.02640914916992, 82.98826217651367, 82.9927921295166, 95.69978713989258, 83.76026153564453, 87.32211589813232, 83.63759517669678, 82.86166191101074, 83.16922187805176, 83.14275741577148, 83.41467380523682, 388.9533281326294, 82.90421962738037, 95.5580472946167, 83.26268196105957, 83.40263366699219, 83.19151401519775, 83.62174034118652, 83.60874652862549, 83.30035209655762, 239.92717266082764, 83.54687690734863, 95.59714794158936, 89.0895128250122, 83.52720737457275, 83.5484266281128, 84.63907241821289, 83.49287509918213, 83.40764045715332, 83.52172374725342, 83.90676975250244, 236.46414279937744, 95.80028057098389, 83.30368995666504, 236.5514039993286, 83.5639238357544, 83.4660530090332, 83.13107490539551, 83.23097229003906, 83.21785926818848, 236.82641983032227, 100.90792179107666, 83.24182033538818, 237.07759380340576, 83.11736583709717, 82.88264274597168, 83.26709270477295, 83.72020721435547, 84.13910865783691, 83.4510326385498, 83.21809768676758, 96.62878513336182, 83.5733413696289, 83.39810371398926, 83.05776119232178, 83.06801319122314, 83.58383178710938, 83.3977460861206, 83.2909345626831, 87.33677864074707, 246.42419815063477, 237.47766017913818, 83.43207836151123, 83.6493968963623, 83.17935466766357, 83.26435089111328, 83.19723606109619, 82.91208744049072],
  "Depth": 8.5,
  "Expectation Value": -3.3974609375,
  "Optimal Expectation Value": -3.4939591884613037,
  "Optimizer durations [ms]": [9205.59, 9858.666, 9518.509, 9397.851, 9264.347, 9494.459, 9239.936, 9000.821, 9044.596, 9401.125, 9353.824, 8833.139, 9084.157, 8853.319, 8923.407, 9115.447, 8926.071, 9095.62, 9136.194, 9267.596, 9096.024, 11066.213, 9139.463, 9135.546, 9849.971, 9563.342, 9142.506, 9002.96, 9150.749, 9089.917, 8992.567, 8947.517, 8934.966, 9231.992, 9134.414, 8998.819, 9134.024, 9338.228, 8946.618, 9020.477, 9172.685, 9160.927, 8784.596, 9253.603, 9488.545, 9055.67, 9516.585, 9140.519, 9169.982, 9394.01, 8965.664, 9346.254, 9247.963, 9395.249, 9717.428, 9042.475, 8958.85, 9274.363, 8940.373, 9374.67, 9232.75, 9452.796, 9066.485, 8975.352, 9330.145, 9150.982, 8975.298, 9315.013, 9111.79, 9080.681, 8880.6, 9182.969, 9077.534, 9198.749, 9063.825, 9045.281, 9120.404, 9357.625, 9121.599, 9688.862, 9058.006, 9161.036, 8970.025, 8940.008, 10536.048, 9349.101, 9134.277, 8826.54, 9723.722, 9267.0, 9198.862, 12572.242, 10001.637, 8845.939, 8941.978, 9204.446, 9021.409, 9120.406, 9146.452, 8909.042, 9246.522, 12152.134, 9312.918, 9024.784, 8811.657, 8943.959, 8944.551, 9233.958, 8919.167, 8948.384, 8924.238, 9578.609, 8980.822, 9211.139, 8862.739, 9480.531, 8907.788, 9508.484, 8942.631, 9036.921, 8757.54, 9122.913, 9073.941, 8780.805, 9247.922, 9039.606, 9904.949, 8898.142, 9097.199, 10208.201, 8963.333, 9006.71, 8827.998, 9047.235, 8986.854, 9402.038, 9023.687, 8926.375, 9526.473, 8998.425, 9193.954, 8972.011, 9848.656, 9282.17, 9399.778, 9135.562, 9119.691, 9475.847, 8829.308, 9226.249, 9041.291, 9131.832, 9670.908, 9281.443, 9061.665, 8975.241, 9017.88, 9087.015, 8862.274, 8839.305, 9320.801, 8904.896, 9133.953, 9104.338, 9508.644, 9367.321, 9367.097, 10107.048, 9084.994, 9210.602, 9202.745, 8886.271],
  "Optimizer iterations": 172,
  "Optimizer params": [0.07763740032001795, 0.6511011058348678, 0.6573556118946166, 0.15985347601528657, 0.5293801899027036, 0.9859779286529955, 0.9801402514144792, 0.4275470404963899, 0.1582867238647687, 0.8021498867478809, 0.5371211201442017, 0.002402875317031518],
  "P": 0,
  "Problem": "IC",
  "QJob durations [ms]": [4587.634325027466, 4900.898456573486, 4742.963790893555, 4682.765960693359, 4616.100549697876, 4730.499744415283, 4603.706359863281, 4482.532978057861, 4505.772352218628, 4683.93611907959, 4647.78995513916, 4400.316953659058, 4525.859594345093, 4409.845352172852, 4444.576740264893, 4539.3664836883545, 4447.422742843628, 4530.198097229004, 4551.777601242065, 4617.450952529907, 4519.6638107299805, 5516.838073730469, 4553.762674331665, 4551.3129234313965, 4908.309698104858, 4765.248775482178, 4554.672002792358, 4485.69393157959, 4558.355331420898, 4515.9406661987305, 4479.234218597412, 4457.564830780029, 4451.235294342041, 4599.849700927734, 4550.839424133301, 4482.539653778076, 4550.1275062561035, 4652.559757232666, 4457.602500915527, 4481.624603271484, 4570.580959320068, 4564.294099807739, 4375.518321990967, 4610.147476196289, 4726.731777191162, 4510.402679443359, 4740.797758102417, 4553.804159164429, 4555.695533752441, 4680.894136428833, 4465.720653533936, 4657.183408737183, 4607.827663421631, 4681.116580963135, 4842.318534851074, 4505.027770996094, 4463.259220123291, 4620.856523513794, 4441.070556640625, 4670.264720916748, 4599.271774291992, 4709.503650665283, 4517.229318618774, 4471.303701400757, 4648.94962310791, 4559.043884277344, 4471.818208694458, 4628.670215606689, 4539.475917816162, 4524.580001831055, 4424.358606338501, 4575.201511383057, 4522.6147174835205, 4583.446502685547, 4515.545129776001, 4506.208181381226, 4543.802499771118, 4650.018215179443, 4544.503688812256, 4828.549146652222, 4513.280153274536, 4562.658309936523, 4469.461917877197, 4453.230619430542, 5249.836683273315, 4658.562898635864, 4537.620544433594, 4396.20566368103, 4845.620155334473, 4617.074966430664, 4583.165645599365, 6269.44637298584, 4984.341621398926, 4406.75163269043, 4454.529762268066, 4586.531400680542, 4480.549335479736, 4543.991565704346, 4557.300090789795, 4438.4729862213135, 4605.313539505005, 6059.2851638793945, 4640.073299407959, 4495.720148086548, 4387.904167175293, 4442.7385330200195, 4456.221580505371, 4600.720167160034, 4442.250967025757, 4457.448959350586, 4445.589065551758, 4771.647214889526, 4474.602699279785, 4589.284896850586, 4414.974212646484, 4711.058139801025, 4437.0622634887695, 4737.931728363037, 4454.782724380493, 4502.13098526001, 4361.019611358643, 4545.0780391693115, 4520.313739776611, 4373.163938522339, 4595.8123207092285, 4503.824710845947, 4934.783697128296, 4433.209419250488, 4531.407833099365, 5086.799621582031, 4465.732574462891, 4487.232685089111, 4397.428035736084, 4506.008625030518, 4464.744567871094, 4684.3414306640625, 4494.878768920898, 4445.94669342041, 4745.757579803467, 4482.2540283203125, 4579.358816146851, 4468.793630599976, 4907.089948654175, 4612.64967918396, 4683.911085128784, 4551.388740539551, 4543.153285980225, 4721.536636352539, 4398.292779922485, 4596.968173980713, 4504.450798034668, 4548.597574234009, 4817.975044250488, 4611.502647399902, 4514.717578887939, 4471.647024154663, 4491.634368896484, 4526.782751083374, 4415.039300918579, 4402.77099609375, 4644.5629596710205, 4436.012268066406, 4538.015842437744, 4536.174774169922, 4738.195180892944, 4667.018413543701, 4667.169094085693, 5037.444114685059, 4524.918556213379, 4588.16385269165, 4585.247039794922, 4427.112579345703],
  "QPU": "6000004",
  "Qubits": 3,
  "Queue durations [ms]": [0.0, 0.0, 0.0, 0.0, 0.0, 0.0, 0.0, 0.0, 0.0, 0.0, 0.0, 0.0, 0.0, 0.0, 0.0, 0.0, 0.0, 0.0, 0.0, 0.0, 0.0, 0.0, 0.0, 0.0, 0.0, 0.0, 0.0, 0.0, 0.0, 0.0, 0.0, 0.0, 0.0, 0.0, 0.0, 0.0, 0.0, 0.0, 0.0, 0.0, 0.0, 0.0, 0.0, 0.0, 0.0, 0.0, 0.0, 0.0, 0.0, 0.0, 0.0, 0.0, 0.0, 0.0, 0.0, 0.0, 0.0, 0.0, 0.0, 0.0, 0.0, 0.0, 0.0, 0.0, 0.0, 0.0, 0.0, 0.0, 0.0, 0.0, 0.0, 0.0, 0.0, 0.0, 0.0, 0.0, 0.0, 0.0, 0.0, 0.0, 0.0, 0.0, 0.0, 0.0, 0.0, 0.0, 0.0, 0.0, 0.0, 0.0, 0.0, 0.0, 0.0, 0.0, 0.0, 0.0, 0.0, 0.0, 0.0, 0.0, 0.0, 0.0, 0.0, 0.0, 0.0, 0.0, 0.0, 0.0, 0.0, 0.0, 0.0, 0.0, 0.0, 0.0, 0.0, 0.0, 0.0, 0.0, 0.0, 0.0, 0.0, 0.0, 0.0, 0.0, 0.0, 0.0, 0.0, 0.0, 0.0, 0.0, 0.0, 0.0, 0.0, 0.0, 0.0, 0.0, 0.0, 0.0, 0.0, 0.0, 0.0, 0.0, 0.0, 0.0, 0.0, 0.0, 0.0, 0.0, 0.0, 0.0, 0.0, 0.0, 0.0, 0.0, 0.0, 0.0, 0.0, 0.0, 0.0, 0.0, 0.0, 0.0, 0.0, 0.0, 0.0, 0.0, 0.0, 0.0, 0.0, 0.0, 0.0, 0.0],
  "Shots": 4096,
  "Size": 3,
  "Total Algorithm duration [s]": 1587.152,
  "Total Classic duration [s]": 796.6465962429047,
  "Total Quantum duration [s]": 790.5054037570953
}
