{
  "Circuit execution durations [ms]": [14.423251152038574, 14.273524284362793, 14.239072799682617, 14.283895492553711, 14.240741729736328, 13.94033432006836, 14.193415641784668, 14.490842819213867, 14.266729354858398, 14.248013496398926, 14.213085174560547, 14.388322830200195, 13.910174369812012, 14.262080192565918, 14.099359512329102, 14.008760452270508, 14.136910438537598, 14.191746711730957, 14.299392700195313, 13.896346092224121, 14.19973373413086, 14.13726806640625, 13.998746871948242, 14.181017875671387, 14.10377025604248, 14.254450798034668, 13.961076736450195, 14.178633689880371, 14.036178588867188, 14.06872272491455, 13.828516006469727, 13.849973678588867, 14.254331588745117, 13.943672180175781, 13.840198516845703, 14.201879501342773, 14.205455780029297, 14.099717140197754, 14.17398452758789, 13.928890228271484, 14.03200626373291, 14.449238777160645, 14.034390449523926, 14.233231544494629, 13.969659805297852, 14.142274856567383, 14.064788818359375, 14.223098754882813, 13.98324966430664, 14.109015464782715, 14.0380859375, 13.83662223815918, 14.051079750061035, 13.978004455566406, 14.21976089477539, 14.278650283813477, 13.805508613586426, 14.168143272399902, 14.023661613464355, 14.249682426452637, 13.87929916381836, 14.124393463134766, 13.933420181274414, 14.122366905212402, 14.074444770812988, 14.142513275146484, 14.010190963745117, 14.072060585021973, 13.923048973083496, 14.104247093200684, 14.031767845153809, 13.842940330505371, 13.938546180725098, 13.98921012878418, 13.87643814086914, 13.987541198730469, 13.939380645751953, 14.099955558776855, 14.008522033691406, 14.246940612792969, 13.954758644104004, 14.057278633117676, 14.049172401428223, 14.056801795959473, 14.128684997558594, 14.147281646728516, 14.121294021606445, 14.190912246704102, 13.783574104309082, 13.666152954101563, 13.838887214660645, 13.750195503234863, 14.215707778930664, 13.77713680267334, 14.117598533630371, 13.858437538146973, 13.790369033813477, 13.859868049621582, 13.922572135925293, 13.847589492797852, 13.792276382446289, 13.84270191192627, 13.989925384521484, 13.898491859436035, 13.993263244628906, 14.017581939697266, 13.600945472717285, 13.77415657043457, 13.776063919067383, 13.844490051269531, 13.883352279663086, 13.962984085083008, 13.974785804748535, 14.056921005249023, 14.101266860961914, 13.881802558898926, 13.944506645202637, 13.826489448547363, 14.018774032592773, 13.901472091674805, 13.86404037475586, 14.21356201171875, 13.96036148071289, 14.04273509979248, 14.062285423278809, 14.136552810668945, 14.019012451171875, 14.24407958984375, 14.00148868560791, 14.28067684173584, 14.011025428771973, 14.013051986694336, 13.939857482910156, 13.982415199279785, 14.09757137298584, 14.185905456542969, 14.204740524291992, 13.933062553405762, 13.869047164916992, 14.05799388885498, 13.931989669799805, 14.16170597076416, 14.319181442260742, 14.020323753356934, 14.293789863586426, 14.055013656616211, 13.993263244628906, 14.277338981628418, 14.288067817687988, 13.760566711425781, 13.89920711517334, 13.986945152282715, 13.912320137023926, 14.003992080688477, 13.997435569763184, 13.946294784545898, 14.231681823730469, 13.881921768188477, 14.02425765991211, 13.915657997131348, 13.983607292175293, 13.89014720916748, 14.080643653869629, 13.874292373657227, 13.89312744140625, 14.046549797058105, 14.07313346862793, 14.095544815063477, 13.985157012939453, 14.022111892700195, 13.838648796081543, 14.170169830322266, 14.174222946166992, 13.770341873168945, 13.975143432617188, 14.06395435333252, 14.071941375732422, 14.122843742370605, 14.027595520019531, 14.144301414489746, 14.028072357177734, 14.021039009094238, 13.997673988342285, 13.908982276916504, 14.093399047851563, 14.014959335327148, 13.951539993286133, 14.069080352783203, 13.807296752929688, 14.341115951538086, 13.802409172058105, 13.927221298217773, 14.028310775756836, 14.23037052154541, 13.986587524414063, 14.507770538330078, 14.08696174621582, 14.253377914428711, 14.07766342163086, 14.003396034240723, 14.097332954406738, 14.162302017211914, 14.178752899169922, 13.948678970336914, 14.111518859863281, 14.410853385925293, 14.223456382751465, 14.124751091003418, 14.286518096923828, 13.849020004272461, 14.145255088806152, 14.153599739074707, 13.97562026977539, 13.992786407470703, 13.95106315612793, 14.188051223754883, 13.925790786743164, 14.181733131408691, 14.100432395935059, 14.133334159851074, 14.019370079040527, 14.09006118774414, 13.994336128234863, 14.154314994812012, 14.21511173248291, 14.398574829101563, 14.127373695373535, 14.05942440032959, 14.319300651550293, 14.113426208496094, 14.2287015914917, 14.290690422058105, 14.261364936828613, 14.117240905761719, 14.081478118896484, 14.095425605773926, 14.143943786621094, 14.350414276123047, 14.204978942871094, 14.276266098022461, 14.09614086151123, 14.074563980102539, 14.247536659240723, 14.318585395812988, 14.186739921569824, 14.30964469909668, 14.391303062438965, 14.116048812866211, 14.390707015991211, 14.314770698547363, 14.336824417114258, 14.184951782226563, 14.142751693725586, 14.195799827575684, 14.387726783752441, 14.300107955932617, 14.293789863586426, 14.29128646850586, 14.548659324645996, 14.249444007873535, 14.223575592041016, 14.200329780578613, 14.01817798614502, 14.444112777709961, 14.30213451385498, 14.27924633026123, 14.011263847351074, 14.308452606201172, 14.157652854919434, 14.379501342773438, 15.177011489868164, 14.025330543518066, 14.158248901367188, 14.339566230773926, 14.460086822509766, 14.209628105163574, 14.322876930236816, 14.427661895751953, 14.087080955505371, 14.379024505615234, 14.241337776184082, 14.104247093200684, 14.323592185974121, 14.260649681091309, 14.141678810119629, 14.278292655944824, 14.163017272949219, 14.160513877868652, 14.43636417388916, 14.4118070602417, 14.185905456542969, 14.144062995910645, 14.10675048828125, 14.219403266906738, 14.027714729309082, 14.169812202453613, 13.990402221679688, 13.990402221679688, 14.186620712280273, 14.223217964172363, 14.222145080566406, 14.152288436889648, 14.1448974609375, 14.448165893554688, 14.101743698120117, 14.240026473999023, 14.299154281616211, 14.36471939086914, 14.245748519897461, 14.336228370666504, 14.083147048950195, 14.201760292053223, 14.063477516174316, 14.211893081665039, 14.194130897521973, 14.072656631469727, 14.346480369567871, 14.147281646728516, 14.303803443908691, 14.388203620910645, 14.137744903564453, 14.281868934631348, 14.189839363098145, 14.348864555358887, 14.226317405700684, 14.190077781677246, 14.252424240112305, 14.25468921661377, 14.296650886535645, 14.023780822753906, 14.312148094177246, 14.252305030822754, 14.2744779586792, 14.309048652648926, 14.33408260345459, 14.333367347717285, 14.32812213897705, 14.292597770690918, 14.183759689331055, 14.32955265045166, 14.337658882141113, 14.272689819335938, 14.20748233795166, 14.179825782775879, 14.100074768066406, 14.23490047454834, 14.348149299621582, 14.202237129211426, 14.154791831970215, 14.424920082092285, 14.070510864257813, 14.403820037841797, 14.20891284942627, 14.243602752685547, 14.174818992614746, 14.16480541229248, 14.22739028930664, 14.219164848327637, 14.1526460647583, 14.107584953308105, 14.069437980651855, 14.256715774536133, 14.119625091552734, 14.177799224853516, 14.351844787597656, 13.99374008178711, 14.214634895324707, 14.375567436218262, 14.146089553833008, 14.3507719039917, 14.253377914428711, 14.185190200805664, 14.264464378356934, 14.36305046081543, 14.087319374084473, 14.263510704040527, 14.22131061553955, 14.154195785522461, 14.141082763671875, 14.242291450500488, 14.168977737426758, 14.130830764770508, 14.104247093200684, 14.10055160522461, 14.191031455993652, 14.308929443359375, 14.12975788116455, 14.162302017211914, 14.220714569091797, 14.189958572387695, 14.221429824829102, 14.09900188446045, 14.06562328338623, 14.252185821533203, 14.35995101928711, 14.034509658813477, 14.1371488571167, 13.996720314025879, 14.127731323242188, 14.164090156555176, 14.066219329833984, 14.07778263092041, 14.250636100769043, 13.926148414611816, 14.350652694702148, 14.169454574584961, 14.274001121520996, 14.382123947143555, 14.204978942871094, 14.28234577178955, 13.940095901489258, 14.130234718322754, 14.009475708007813, 14.123797416687012, 14.055490493774414, 14.037489891052246, 14.25933837890625, 14.188766479492188, 14.174938201904297, 14.117002487182617, 14.19687271118164, 14.168381690979004, 14.189004898071289, 14.32812213897705, 14.287948608398438, 14.217138290405273, 14.153122901916504, 14.121532440185547, 14.331817626953125, 13.975858688354492, 14.23501968383789, 14.242291450500488, 14.189004898071289, 14.037251472473145, 14.07623291015625, 15.44499397277832, 14.183998107910156, 14.212965965270996, 14.269590377807617, 14.072060585021973, 14.13428783416748, 14.259099960327148, 14.080524444580078, 14.231324195861816, 14.061450958251953, 14.132142066955566, 14.207720756530762, 14.08851146697998, 14.144182205200195, 14.030694961547852, 14.16027545928955, 14.150500297546387, 14.10067081451416, 14.059305191040039, 14.1143798828125, 14.287471771240234, 14.05942440032959, 14.17684555053711, 14.010906219482422, 14.180183410644531, 14.450788497924805, 14.284849166870117, 14.085531234741211, 14.256834983825684, 13.990283012390137, 14.025449752807617, 14.27149772644043, 14.129161834716797, 14.144420623779297, 14.32347297668457, 14.156341552734375, 14.201641082763672, 14.08374309539795, 14.070391654968262, 14.11890983581543, 14.167547225952148, 14.01376724243164, 14.094114303588867, 14.270305633544922, 14.265894889831543, 14.062047004699707, 14.116644859313965, 14.162063598632813, 14.113426208496094, 14.027595520019531, 14.056921005249023, 14.218449592590332, 14.135360717773438, 14.40274715423584, 14.182686805725098, 14.251470565795898, 14.097094535827637, 14.186263084411621, 14.07170295715332, 14.024496078491211, 14.10222053527832, 14.24264907836914, 14.426231384277344, 14.190912246704102, 14.277815818786621, 14.399409294128418, 14.071941375732422, 14.17386531829834, 14.321565628051758, 14.140009880065918, 14.503121376037598, 14.394044876098633, 14.257550239562988, 14.299154281616211, 14.038324356079102, 14.199376106262207, 14.096498489379883, 14.317750930786133, 14.211893081665039, 14.1448974609375, 14.05322551727295, 14.110326766967773, 14.130949974060059, 14.376163482666016, 14.03510570526123, 14.294028282165527, 14.523506164550781, 14.15109634399414, 14.342069625854492, 14.13428783416748, 13.982892036437988, 14.083027839660645, 14.246821403503418, 14.18769359588623, 14.321327209472656, 14.356017112731934, 14.182567596435547, 14.075994491577148, 14.107823371887207, 14.093279838562012, 14.10830020904541, 14.208197593688965, 14.072537422180176, 14.306187629699707, 14.41490650177002, 14.414429664611816, 14.200925827026367, 14.116764068603516, 14.190077781677246, 14.5111083984375, 14.339923858642578, 14.387965202331543, 14.13428783416748, 14.562606811523438, 14.3662691116333, 14.333248138427734, 14.451384544372559, 14.016270637512207, 14.295697212219238, 14.264822006225586, 14.443039894104004, 14.212250709533691, 14.118552207946777, 14.155864715576172, 14.190196990966797, 14.27006721496582, 14.288663864135742, 14.231324195861816, 14.155745506286621, 14.214873313903809, 14.336347579956055, 14.349579811096191, 14.465570449829102, 14.346599578857422, 14.41812515258789, 14.311075210571289, 14.304518699645996, 14.30809497833252, 14.336466789245605, 14.38140869140625, 14.11736011505127, 14.497637748718262, 14.061212539672852, 14.366507530212402, 14.298081398010254, 14.2897367477417, 14.263272285461426, 14.312148094177246, 14.486312866210938, 14.086127281188965, 14.491796493530273, 14.324307441711426, 14.473795890808105, 14.040470123291016, 14.282464981079102, 14.225244522094727, 14.493703842163086, 14.20736312866211, 14.314651489257813, 14.345645904541016, 14.292359352111816, 14.32943344116211, 14.062643051147461, 14.253616333007813, 14.284849166870117, 14.325737953186035, 14.102339744567871, 14.409184455871582, 14.14346694946289, 14.181137084960938, 14.08088207244873, 14.350295066833496, 14.223575592041016, 14.417052268981934, 14.18447494506836, 14.30368423461914, 14.384150505065918, 14.159202575683594, 14.129638671875, 14.486551284790039, 14.251112937927246, 14.079570770263672, 14.106392860412598, 14.251232147216797, 14.52493667602539, 14.392733573913574, 14.402985572814941, 14.129042625427246, 14.360427856445313, 14.38283920288086, 14.21058177947998, 14.189839363098145, 14.123320579528809, 14.32788372039795, 14.284849166870117, 14.102697372436523, 14.143705368041992, 14.030933380126953, 14.317750930786133, 14.17839527130127, 14.259099960327148, 14.428019523620605, 14.152050018310547, 14.384627342224121, 13.988971710205078, 14.026045799255371, 14.255642890930176, 14.104485511779785, 14.292120933532715, 14.380335807800293, 14.139771461486816, 14.123916625976563, 14.328837394714355, 14.125585556030273, 14.096260070800781, 14.272809028625488, 14.21356201171875, 14.103055000305176, 14.158487319946289, 14.0000581741333, 14.178872108459473, 14.310717582702637, 14.061689376831055, 14.258980751037598, 14.365911483764648, 13.992667198181152, 14.263272285461426, 14.288902282714844, 14.273881912231445, 14.094114303588867, 14.344215393066406, 14.19973373413086, 14.151692390441895, 14.109492301940918, 14.196395874023438, 14.301300048828125],
  "Depth": 22.5,
  "Expectation Value": -8.5009765625,
  "Optimal Expectation Value": -12.381489753723145,
  "Optimizer durations [ms]": [253.922, 252.865, 337.499, 253.274, 252.898, 336.666, 252.225, 252.677, 336.323, 253.94, 337.569, 253.111, 251.929, 336.547, 251.445, 252.119, 336.728, 252.085, 253.021, 335.647, 251.9, 251.914, 336.163, 252.003, 251.593, 338.058, 251.486, 252.134, 337.62, 251.836, 250.657, 335.601, 252.229, 251.688, 334.686, 251.785, 252.693, 335.702, 251.171, 250.89, 338.576, 252.631, 337.904, 252.802, 251.989, 336.626, 252.119, 251.683, 336.684, 251.884, 251.395, 336.526, 252.197, 251.441, 335.635, 254.559, 253.196, 337.312, 253.127, 251.66, 336.23, 251.935, 251.659, 337.565, 252.461, 252.023, 335.153, 252.335, 335.94, 252.651, 252.472, 335.4, 252.068, 252.111, 335.75, 251.929, 252.142, 335.393, 251.073, 252.649, 335.511, 252.779, 251.195, 336.537, 252.532, 251.685, 336.898, 252.777, 250.988, 335.998, 251.062, 251.301, 335.805, 251.774, 253.148, 334.848, 250.671, 251.028, 337.779, 251.02, 337.156, 251.858, 251.823, 334.905, 251.811, 252.125, 336.25, 251.01, 252.57, 336.934, 251.296, 251.833, 335.452, 251.507, 251.835, 334.276, 251.767, 250.202, 337.417, 252.047, 251.239, 336.947, 251.088, 252.352, 335.166, 252.757, 335.594, 252.0, 252.478, 336.572, 252.242, 251.666, 336.148, 252.718, 251.828, 335.975, 251.834, 251.854, 335.015, 252.748, 251.024, 335.967, 252.506, 251.35, 338.845, 251.698, 250.761, 337.652, 252.975, 250.712, 334.503, 252.057, 251.161, 335.508, 250.352, 251.094, 340.314, 250.489, 338.574, 252.702, 251.979, 334.371, 253.624, 250.662, 335.268, 251.778, 252.311, 336.01, 252.122, 252.509, 334.916, 252.009, 252.881, 334.364, 252.379, 249.87, 339.171, 252.62, 251.005, 336.493, 253.12, 250.837, 334.762, 251.566, 335.816, 250.655, 251.499, 335.105, 250.969, 252.665, 335.166, 251.247, 251.543, 336.075, 251.214, 256.91, 335.552, 252.316, 252.694, 336.119, 251.109, 252.665, 336.569, 251.864, 251.89, 338.624, 250.946, 252.314, 337.85, 251.88, 252.278, 335.05, 250.876, 253.792, 337.696, 251.591, 337.263, 251.867, 250.723, 335.73, 252.209, 250.823, 335.874, 252.168, 251.373, 337.321, 252.96, 251.666, 337.161, 252.081, 252.975, 334.345, 253.855, 250.444, 336.502, 252.904, 251.376, 338.32, 254.153, 251.257, 334.456, 252.492, 336.339, 252.423, 253.863, 336.632, 253.6, 251.611, 336.395, 254.198, 252.08, 334.411, 253.048, 252.268, 335.506, 252.182, 252.761, 336.318, 253.444, 252.801, 336.803, 252.947, 251.675, 336.817, 253.137, 252.638, 335.357, 253.947, 252.516, 335.524, 255.068, 252.554, 337.334, 252.634, 338.709, 250.998, 252.715, 336.903, 251.932, 250.806, 337.324, 251.615, 251.346, 336.798, 252.5, 252.184, 335.603, 252.032, 252.427, 335.386, 252.037, 250.96, 336.612, 251.848, 250.904, 336.825, 251.994, 250.411, 336.109, 251.54, 335.361, 251.423, 252.167, 337.227, 251.28, 251.488, 336.889, 251.765, 251.731, 335.473, 251.626, 251.841, 335.06, 251.688, 251.392, 335.968, 253.318, 251.715, 336.405, 251.753, 252.257, 337.805, 251.456, 251.963, 335.803, 252.42, 252.107, 334.675, 251.458, 250.835, 337.483, 252.746, 337.254, 251.885, 252.774, 335.84, 251.925, 251.018, 337.407, 251.959, 251.793, 336.126, 252.193, 251.487, 334.835, 253.439, 252.501, 334.932, 252.506, 252.597, 336.35, 252.221, 251.954, 336.528, 251.45, 251.001, 335.295, 251.881, 335.836, 251.836, 253.058, 336.254, 251.322, 251.06, 336.611, 251.113, 251.278, 334.78, 251.494, 252.183, 335.832, 251.782, 251.549, 336.066, 251.516, 251.943, 336.262, 251.713, 251.62, 336.241, 251.282, 251.413, 335.557, 251.69, 252.065, 334.908, 250.901, 251.17, 338.003, 252.729, 337.552, 253.074, 251.748, 336.65, 252.333, 251.465, 336.257, 251.483, 251.674, 337.63, 251.766, 251.533, 336.531, 252.024, 252.045, 334.765, 252.752, 251.275, 336.108, 252.013, 250.854, 336.7, 251.002, 251.813, 336.408, 251.654, 336.634, 252.434, 252.293, 335.511, 252.074, 251.735, 335.585, 252.357, 252.09, 335.187, 251.046, 252.124, 336.968, 251.384, 251.812, 336.673, 253.089, 251.084, 336.712, 254.437, 251.579, 336.457, 252.406, 252.663, 335.455, 251.827, 252.633, 335.203, 250.86, 252.295, 338.531, 251.612, 338.053, 251.459, 253.787, 336.809, 252.654, 251.564, 336.991, 251.503, 252.559, 336.479, 251.123, 252.844, 336.855, 252.191, 251.614, 335.278, 252.892, 250.913, 336.833, 251.76, 252.706, 336.827, 252.702, 252.917, 335.515, 252.112, 335.201, 252.661, 251.252, 335.696, 253.179, 251.511, 335.898, 252.916, 252.272, 334.769, 252.521, 251.972, 336.49, 253.587, 252.062, 336.122, 252.124, 251.368, 337.163, 252.248, 251.585, 336.341, 252.036, 252.348, 335.44, 252.106, 252.713, 333.98, 251.318, 252.364, 339.393, 252.817, 337.467, 252.745, 253.28, 335.694, 252.517, 251.7, 336.671, 252.396, 252.21, 337.054, 251.969, 253.261, 335.747, 251.89, 252.913, 336.438, 251.766, 252.328, 337.495, 252.789, 251.51, 337.566, 252.602, 251.981, 335.759, 252.168, 336.808, 252.291, 251.531, 337.458, 252.498, 251.543, 336.84, 252.299, 251.874, 334.673, 252.757, 251.506, 336.206, 252.321, 252.565, 336.529, 252.074, 251.64, 337.409, 252.632, 251.514, 338.802, 252.409, 252.302, 337.132, 252.491, 251.765, 335.197, 252.175, 253.164, 337.762, 252.137, 337.771, 252.333, 251.88, 335.86, 252.967, 252.229, 336.881, 253.271, 251.765, 336.485, 255.077, 253.586, 336.824, 252.535, 253.054, 336.624, 252.8, 251.292, 338.494, 252.528, 252.025, 338.376, 252.735, 252.131, 335.5, 253.063, 336.161, 252.09, 252.573, 337.934, 252.677, 252.198, 337.924, 252.202, 251.669, 335.021, 252.621, 251.962, 338.245, 252.784, 252.713, 337.098, 252.714, 251.517, 337.791, 252.285, 252.317, 337.182, 251.866, 252.178, 336.08, 252.051, 251.664, 335.17, 251.437, 252.187, 337.963, 252.965, 338.319, 251.467, 253.055, 336.533, 252.607, 250.942, 337.94, 252.201, 251.881, 336.43, 252.683, 252.031, 334.958, 253.601, 253.879, 335.042, 254.018, 252.937, 338.143, 252.426, 252.507, 337.201, 253.682, 251.648, 335.625, 253.4, 335.377, 252.637, 254.608, 336.89, 252.088, 252.704, 337.611, 252.094, 252.695, 336.041, 252.458, 251.917, 335.925, 252.465, 252.814, 337.213, 252.392, 254.04, 336.309, 254.517, 252.876, 336.576, 251.659],
  "Optimizer iterations": 671,
  "Optimizer params": [0.2279773765732784, 0.5121443491632801, 0.5602203184338503, 0.5177440124315227, 0.577272608674804, 0.8870108748214404, 0.20381173212385234, 0.8642657173484348, 0.05764824274461532, 0.27548645821789297, 0.9882540895417252, 0.03972553972984501, 0.45875100767413746, 0.4122743629151751, 0.7581656520863573, 0.012763782363578778, 0.9711504518146709, 0.651450731712837, 0.9686435675806596, 0.007485951844148498, 0.05445168839442023, 0.887104485851966, 0.043880824173455055, 0.10333051202412231, 0.13188001915728345, 0.5395733602899958, 0.5396400964980925, 0.9896817015925652, 0.9647981124053158, 0.6601510228082771, 0.11218940508375214, 0.15226668603846838, 0.7853481809430707, 0.29369275178405774, 0.4088659142998177, 0.4247581692099774, 0.9532969978359537, 0.520691053224362, 0.36076746481852284, 0.9803156621029763],
  "P": 0,
  "Problem": "IC",
  "QJob durations [ms]": [76.19869709014893, 75.4474401473999, 75.29699802398682, 75.52599906921387, 75.39117336273193, 75.07133483886719, 75.31476020812988, 75.52897930145264, 75.44863224029541, 75.56915283203125, 117.67637729644775, 75.93679428100586, 75.44076442718506, 75.2331018447876, 75.13618469238281, 75.13594627380371, 75.11627674102783, 75.19209384918213, 75.675368309021, 75.18923282623291, 75.09684562683105, 75.39510726928711, 117.26784706115723, 75.58286190032959, 75.49154758453369, 75.77574253082275, 75.14381408691406, 75.15454292297363, 75.44064521789551, 75.13940334320068, 74.91791248321533, 74.90921020507813, 75.18410682678223, 75.3253698348999, 75.08111000061035, 75.57356357574463, 75.97529888153076, 75.8202075958252, 75.2866268157959, 74.93281364440918, 75.52361488342285, 75.55735111236572, 118.52014064788818, 75.64091682434082, 75.33836364746094, 75.36566257476807, 75.54233074188232, 75.24049282073975, 75.16765594482422, 75.15883445739746, 75.1338005065918, 75.16038417816162, 75.17838478088379, 75.19888877868652, 75.69718360900879, 76.14195346832275, 76.0108232498169, 76.41685009002686, 75.69777965545654, 75.17492771148682, 75.17659664154053, 75.29723644256592, 74.88179206848145, 75.36530494689941, 75.20556449890137, 75.24526119232178, 75.24621486663818, 75.41453838348389, 117.317795753479, 75.83451271057129, 75.5159854888916, 74.79715347290039, 75.26957988739014, 75.22499561309814, 74.9204158782959, 75.08552074432373, 75.1415491104126, 75.4387378692627, 74.98586177825928, 75.59084892272949, 117.02275276184082, 75.69456100463867, 75.2650499343872, 75.41084289550781, 75.93297958374023, 75.03974437713623, 75.27291774749756, 75.35052299499512, 74.77295398712158, 74.89490509033203, 74.85353946685791, 75.11603832244873, 75.47342777252197, 75.37651062011719, 75.64198970794678, 75.39498805999756, 74.88477230072021, 74.77712631225586, 75.03318786621094, 74.92208480834961, 118.16012859344482, 75.08718967437744, 75.55031776428223, 75.01649856567383, 75.47962665557861, 75.2781629562378, 74.63359832763672, 74.86772537231445, 75.17313957214355, 74.90217685699463, 74.8223066329956, 75.18553733825684, 75.37150382995605, 75.06167888641357, 75.58608055114746, 75.31595230102539, 75.31511783599854, 74.6755599975586, 75.42085647583008, 74.99635219573975, 74.88620281219482, 75.38878917694092, 74.8826265335083, 75.16181468963623, 75.29997825622559, 75.64830780029297, 117.33901500701904, 75.57356357574463, 75.38449764251709, 75.25384426116943, 75.30093193054199, 75.10006427764893, 74.95701313018799, 75.23000240325928, 75.27244091033936, 75.44207572937012, 75.20556449890137, 75.24991035461426, 116.97399616241455, 75.69003105163574, 75.24514198303223, 75.38330554962158, 75.72674751281738, 74.95498657226563, 76.10476016998291, 74.9669075012207, 74.99456405639648, 76.01237297058105, 75.56343078613281, 74.88226890563965, 75.03855228424072, 75.7288932800293, 75.25193691253662, 75.82223415374756, 74.90265369415283, 74.87452030181885, 75.7986307144165, 74.8072862625122, 118.99089813232422, 75.63042640686035, 75.6845474243164, 74.91731643676758, 76.19667053222656, 74.72634315490723, 75.01232624053955, 75.42920112609863, 75.51085948944092, 75.08695125579834, 75.46675205230713, 75.36029815673828, 75.08456707000732, 75.25348663330078, 76.14648342132568, 75.31416416168213, 75.85394382476807, 74.8436450958252, 75.25789737701416, 75.60062408447266, 74.98157024383545, 75.20592212677002, 75.9037733078003, 75.03485679626465, 75.15287399291992, 75.20687580108643, 117.62547492980957, 75.31726360321045, 75.85036754608154, 74.95081424713135, 74.93174076080322, 75.80077648162842, 74.78189468383789, 74.85020160675049, 75.06084442138672, 75.78790187835693, 75.00135898590088, 77.34286785125732, 117.25771427154541, 75.57737827301025, 75.98602771759033, 75.2408504486084, 75.23131370544434, 75.84011554718018, 75.3324031829834, 75.01137256622314, 75.59144496917725, 75.99425315856934, 75.17552375793457, 75.86157321929932, 76.23398303985596, 75.21402835845947, 75.62804222106934, 75.7911205291748, 75.05607604980469, 76.36892795562744, 75.21140575408936, 75.1643180847168, 118.09861660003662, 75.36935806274414, 75.52111148834229, 75.28316974639893, 75.67179203033447, 75.00195503234863, 75.02639293670654, 75.13749599456787, 75.26528835296631, 75.54757595062256, 75.91235637664795, 75.16157627105713, 76.0871171951294, 75.4469633102417, 75.71578025817871, 75.63304901123047, 76.41899585723877, 75.0960111618042, 75.15716552734375, 75.6145715713501, 75.09958744049072, 76.32410526275635, 76.37202739715576, 75.2488374710083, 75.31499862670898, 75.5852460861206, 117.8828477859497, 76.16961002349854, 76.2796401977539, 75.60980319976807, 76.16889476776123, 75.26469230651855, 75.34050941467285, 76.42316818237305, 75.4328966140747, 75.35648345947266, 75.55985450744629, 75.60229301452637, 117.39540100097656, 75.80482959747314, 75.59728622436523, 75.55162906646729, 76.29096508026123, 75.44374465942383, 75.35803318023682, 75.82783699035645, 75.46043395996094, 75.82449913024902, 75.83725452423096, 75.62565803527832, 75.2875804901123, 76.67052745819092, 75.9730339050293, 76.25830173492432, 76.86758041381836, 75.22916793823242, 75.28436183929443, 75.58703422546387, 118.66772174835205, 75.43420791625977, 76.16591453552246, 75.59871673583984, 75.52778720855713, 75.28519630432129, 75.42729377746582, 75.06299018859863, 75.27589797973633, 75.69348812103271, 75.31416416168213, 75.50477981567383, 75.66368579864502, 75.55580139160156, 75.98245143890381, 75.9357213973999, 75.78814029693604, 75.19674301147461, 75.31845569610596, 75.3554105758667, 75.00505447387695, 75.51836967468262, 75.21069049835205, 74.9211311340332, 75.94466209411621, 75.48558712005615, 117.52891540527344, 75.58703422546387, 75.73950290679932, 76.25460624694824, 75.22284984588623, 75.3173828125, 75.4404067993164, 75.28674602508545, 75.36101341247559, 75.70910453796387, 75.0589370727539, 75.45030117034912, 117.12932586669922, 75.55508613586426, 75.46412944793701, 75.38604736328125, 75.99806785583496, 74.95224475860596, 75.63960552215576, 75.38580894470215, 75.45483112335205, 75.87158679962158, 75.25026798248291, 75.66618919372559, 75.60944557189941, 75.72662830352783, 75.64055919647217, 75.7758617401123, 75.44779777526855, 74.95808601379395, 75.41179656982422, 75.5462646484375, 118.50523948669434, 75.6373405456543, 76.10607147216797, 75.6068229675293, 75.71709156036377, 75.27351379394531, 75.24442672729492, 75.3699541091919, 75.45411586761475, 75.40667057037354, 75.30629634857178, 75.27577877044678, 75.47366619110107, 75.42788982391357, 75.93202590942383, 75.56664943695068, 75.61075687408447, 75.94501972198486, 75.25980472564697, 75.61147212982178, 75.4084587097168, 75.58882236480713, 75.21414756774902, 75.13666152954102, 75.45077800750732, 75.7075548171997, 117.55216121673584, 75.57904720306396, 75.70934295654297, 75.38259029388428, 75.33526420593262, 75.13916492462158, 75.370192527771, 74.96953010559082, 75.34468173980713, 75.48367977142334, 75.1579999923706, 75.63221454620361, 117.52474308013916, 75.6596326828003, 75.6295919418335, 75.66356658935547, 75.1878023147583, 75.4479169845581, 75.28102397918701, 75.22368431091309, 75.47187805175781, 75.42681694030762, 75.1422643661499, 75.31416416168213, 75.36661624908447, 75.59049129486084, 75.68752765655518, 75.74295997619629, 75.15013217926025, 75.02496242523193, 75.31940937042236, 75.62136650085449, 118.6138391494751, 75.78873634338379, 75.59776306152344, 75.57344436645508, 75.85299015045166, 75.14262199401855, 75.2112865447998, 75.05261898040771, 75.4234790802002, 76.00629329681396, 75.2415657043457, 75.30570030212402, 75.81949234008789, 75.34432411193848, 75.8887529373169, 75.67048072814941, 75.89113712310791, 75.34182071685791, 75.20449161529541, 75.45101642608643, 74.86295700073242, 75.49357414245605, 75.08504390716553, 75.35433769226074, 76.02548599243164, 75.44517517089844, 117.99085140228271, 75.82104206085205, 75.72126388549805, 75.2798318862915, 75.60515403747559, 75.34205913543701, 75.17826557159424, 75.70266723632813, 75.54054260253906, 75.74856281280518, 75.04427433013916, 75.59525966644287, 117.46537685394287, 75.43861865997314, 75.63400268554688, 75.56617259979248, 76.12872123718262, 74.97799396514893, 75.36578178405762, 76.5460729598999, 75.26028156280518, 75.58071613311768, 75.39451122283936, 75.22344589233398, 75.50346851348877, 75.68800449371338, 75.86109638214111, 75.83510875701904, 75.1575231552124, 75.24967193603516, 75.43647289276123, 75.30426979064941, 118.66641044616699, 75.25885105133057, 75.93405246734619, 75.53470134735107, 75.75416564941406, 75.62196254730225, 75.42240619659424, 75.2248764038086, 75.2781629562378, 75.40595531463623, 75.08909702301025, 75.93655586242676, 76.24208927154541, 75.47390460968018, 75.55544376373291, 75.74701309204102, 75.79648494720459, 75.10614395141602, 75.52623748779297, 75.19662380218506, 75.2795934677124, 75.6688117980957, 75.30713081359863, 75.94788074493408, 75.45101642608643, 75.43909549713135, 117.47419834136963, 76.00712776184082, 75.54805278778076, 75.10077953338623, 75.81722736358643, 75.28388500213623, 75.19984245300293, 75.60956478118896, 75.48308372497559, 75.33669471740723, 75.55842399597168, 75.5009651184082, 117.44177341461182, 76.18284225463867, 75.83057880401611, 75.58798789978027, 75.52874088287354, 75.15203952789307, 75.54972171783447, 75.27458667755127, 75.28316974639893, 75.37388801574707, 75.39987564086914, 75.81925392150879, 75.47569274902344, 75.65522193908691, 75.85299015045166, 75.5302906036377, 75.27387142181396, 75.39045810699463, 75.25086402893066, 75.66523551940918, 118.55530738830566, 75.60193538665771, 76.01189613342285, 75.51300525665283, 75.70672035217285, 75.23906230926514, 75.46687126159668, 75.33299922943115, 75.48677921295166, 75.58894157409668, 75.278639793396, 75.75500011444092, 75.98662376403809, 75.35338401794434, 76.03073120117188, 76.23922824859619, 75.74081420898438, 75.41501522064209, 75.57487487792969, 75.58059692382813, 75.31166076660156, 75.86514949798584, 75.50299167633057, 75.50930976867676, 75.77729225158691, 75.54411888122559, 117.71881580352783, 75.82855224609375, 75.62136650085449, 75.48713684082031, 75.49118995666504, 75.16872882843018, 75.23155212402344, 75.43027400970459, 75.52635669708252, 75.29091835021973, 75.31142234802246, 75.41143894195557, 117.5926923751831, 75.96063613891602, 75.84154605865479, 75.59096813201904, 75.7606029510498, 75.38044452667236, 75.73175430297852, 75.50978660583496, 75.19996166229248, 75.80232620239258, 75.29854774475098, 75.59335231781006, 75.67179203033447, 75.60956478118896, 75.71136951446533, 75.86276531219482, 75.43575763702393, 75.93750953674316, 75.3471851348877, 75.42788982391357, 118.86131763458252, 75.4770040512085, 75.81448554992676, 75.75345039367676, 75.8821964263916, 75.53267478942871, 75.5612850189209, 75.51753520965576, 75.2866268157959, 75.41501522064209, 75.71160793304443, 75.58643817901611, 76.29621028900146, 75.46389102935791, 76.1098861694336, 76.47347450256348, 76.0643482208252, 75.26004314422607, 75.5993127822876, 75.45804977416992, 75.3260850906372, 75.88863372802734, 75.63412189483643, 75.53529739379883, 75.55866241455078, 75.92356204986572, 117.58756637573242, 75.9119987487793, 75.95539093017578, 75.51455497741699, 75.61969757080078, 75.58202743530273, 75.39105415344238, 75.4091739654541, 75.29306411743164, 75.47175884246826, 75.37281513214111, 75.50954818725586, 118.07608604431152, 75.68073272705078, 75.75786113739014, 75.46412944793701, 76.01475715637207, 75.20723342895508, 75.75845718383789, 75.40452480316162, 75.52874088287354, 75.66368579864502, 75.25312900543213, 75.53732395172119, 75.76501369476318, 75.8054256439209, 75.62601566314697, 75.72364807128906, 75.32596588134766, 75.53863525390625, 75.55246353149414, 75.66726207733154, 118.61014366149902, 75.32656192779541, 76.04086399078369, 75.48856735229492, 75.74915885925293, 75.23775100708008, 75.62446594238281, 75.40655136108398, 75.36351680755615, 75.4096508026123, 75.70934295654297, 75.54960250854492, 75.62649250030518, 76.03776454925537, 76.13706588745117, 75.62315464019775, 76.20275020599365, 75.45483112335205, 75.76119899749756, 75.38735866546631, 75.67226886749268, 75.61659812927246, 75.99294185638428, 75.2725601196289, 75.32966136932373, 75.73699951171875, 117.39027500152588, 75.83904266357422, 76.84874534606934, 75.64878463745117, 75.4690170288086, 75.39737224578857, 75.67417621612549, 75.40559768676758, 75.62816143035889, 76.03621482849121, 75.46257972717285, 75.69491863250732, 117.54488945007324, 75.8523941040039, 75.7817029953003, 75.84083080291748, 75.57439804077148, 75.52921772003174, 75.40392875671387, 75.70552825927734, 75.97136497497559, 75.63424110412598, 75.37400722503662],
  "QPU": "3010008",
  "Qubits": 10,
  "Queue durations [ms]": [0.0, 0.0, 0.0, 0.0, 0.0, 0.0, 0.0, 0.0, 0.0, 0.0, 0.0, 0.0, 0.0, 0.0, 0.0, 0.0, 0.0, 0.0, 0.0, 0.0, 0.0, 0.0, 0.0, 0.0, 0.0, 0.0, 0.0, 0.0, 0.0, 0.0, 0.0, 0.0, 0.0, 0.0, 0.0, 0.0, 0.0, 0.0, 0.0, 0.0, 0.0, 0.0, 0.0, 0.0, 0.0, 0.0, 0.0, 0.0, 0.0, 0.0, 0.0, 0.0, 0.0, 0.0, 0.0, 0.0, 0.0, 0.0, 0.0, 0.0, 0.0, 0.0, 0.0, 0.0, 0.0, 0.0, 0.0, 0.0, 0.0, 0.0, 0.0, 0.0, 0.0, 0.0, 0.0, 0.0, 0.0, 0.0, 0.0, 0.0, 0.0, 0.0, 0.0, 0.0, 0.0, 0.0, 0.0, 0.0, 0.0, 0.0, 0.0, 0.0, 0.0, 0.0, 0.0, 0.0, 0.0, 0.0, 0.0, 0.0, 0.0, 0.0, 0.0, 0.0, 0.0, 0.0, 0.0, 0.0, 0.0, 0.0, 0.0, 0.0, 0.0, 0.0, 0.0, 0.0, 0.0, 0.0, 0.0, 0.0, 0.0, 0.0, 0.0, 0.0, 0.0, 0.0, 0.0, 0.0, 0.0, 0.0, 0.0, 0.0, 0.0, 0.0, 0.0, 0.0, 0.0, 0.0, 0.0, 0.0, 0.0, 0.0, 0.0, 0.0, 0.0, 0.0, 0.0, 0.0, 0.0, 0.0, 0.0, 0.0, 0.0, 0.0, 0.0, 0.0, 0.0, 0.0, 0.0, 0.0, 0.0, 0.0, 0.0, 0.0, 0.0, 0.0, 0.0, 0.0, 0.0, 0.0, 0.0, 0.0, 0.0, 0.0, 0.0, 0.0, 0.0, 0.0, 0.0, 0.0, 0.0, 0.0, 0.0, 0.0, 0.0, 0.0, 0.0, 0.0, 0.0, 0.0, 0.0, 0.0, 0.0, 0.0, 0.0, 0.0, 0.0, 0.0, 0.0, 0.0, 0.0, 0.0, 0.0, 0.0, 0.0, 0.0, 0.0, 0.0, 0.0, 0.0, 0.0, 0.0, 0.0, 0.0, 0.0, 0.0, 0.0, 0.0, 0.0, 0.0, 0.0, 0.0, 0.0, 0.0, 0.0, 0.0, 0.0, 0.0, 0.0, 0.0, 0.0, 0.0, 0.0, 0.0, 0.0, 0.0, 0.0, 0.0, 0.0, 0.0, 0.0, 0.0, 0.0, 0.0, 0.0, 0.0, 0.0, 0.0, 0.0, 0.0, 0.0, 0.0, 0.0, 0.0, 0.0, 0.0, 0.0, 0.0, 0.0, 0.0, 0.0, 0.0, 0.0, 0.0, 0.0, 0.0, 0.0, 0.0, 0.0, 0.0, 0.0, 0.0, 0.0, 0.0, 0.0, 0.0, 0.0, 0.0, 0.0, 0.0, 0.0, 0.0, 0.0, 0.0, 0.0, 0.0, 0.0, 0.0, 0.0, 0.0, 0.0, 0.0, 0.0, 0.0, 0.0, 0.0, 0.0, 0.0, 0.0, 0.0, 0.0, 0.0, 0.0, 0.0, 0.0, 0.0, 0.0, 0.0, 0.0, 0.0, 0.0, 0.0, 0.0, 0.0, 0.0, 0.0, 0.0, 0.0, 0.0, 0.0, 0.0, 0.0, 0.0, 0.0, 0.0, 0.0, 0.0, 0.0, 0.0, 0.0, 0.0, 0.0, 0.0, 0.0, 0.0, 0.0, 0.0, 0.0, 0.0, 0.0, 0.0, 0.0, 0.0, 0.0, 0.0, 0.0, 0.0, 0.0, 0.0, 0.0, 0.0, 0.0, 0.0, 0.0, 0.0, 0.0, 0.0, 0.0, 0.0, 0.0, 0.0, 0.0, 0.0, 0.0, 0.0, 0.0, 0.0, 0.0, 0.0, 0.0, 0.0, 0.0, 0.0, 0.0, 0.0, 0.0, 0.0, 0.0, 0.0, 0.0, 0.0, 0.0, 0.0, 0.0, 0.0, 0.0, 0.0, 0.0, 0.0, 0.0, 0.0, 0.0, 0.0, 0.0, 0.0, 0.0, 0.0, 0.0, 0.0, 0.0, 0.0, 0.0, 0.0, 0.0, 0.0, 0.0, 0.0, 0.0, 0.0, 0.0, 0.0, 0.0, 0.0, 0.0, 0.0, 0.0, 0.0, 0.0, 0.0, 0.0, 0.0, 0.0, 0.0, 0.0, 0.0, 0.0, 0.0, 0.0, 0.0, 0.0, 0.0, 0.0, 0.0, 0.0, 0.0, 0.0, 0.0, 0.0, 0.0, 0.0, 0.0, 0.0, 0.0, 0.0, 0.0, 0.0, 0.0, 0.0, 0.0, 0.0, 0.0, 0.0, 0.0, 0.0, 0.0, 0.0, 0.0, 0.0, 0.0, 0.0, 0.0, 0.0, 0.0, 0.0, 0.0, 0.0, 0.0, 0.0, 0.0, 0.0, 0.0, 0.0, 0.0, 0.0, 0.0, 0.0, 0.0, 0.0, 0.0, 0.0, 0.0, 0.0, 0.0, 0.0, 0.0, 0.0, 0.0, 0.0, 0.0, 0.0, 0.0, 0.0, 0.0, 0.0, 0.0, 0.0, 0.0, 0.0, 0.0, 0.0, 0.0, 0.0, 0.0, 0.0, 0.0, 0.0, 0.0, 0.0, 0.0, 0.0, 0.0, 0.0, 0.0, 0.0, 0.0, 0.0, 0.0, 0.0, 0.0, 0.0, 0.0, 0.0, 0.0, 0.0, 0.0, 0.0, 0.0, 0.0, 0.0, 0.0, 0.0, 0.0, 0.0, 0.0, 0.0, 0.0, 0.0, 0.0, 0.0, 0.0, 0.0, 0.0, 0.0, 0.0, 0.0, 0.0, 0.0, 0.0, 0.0, 0.0, 0.0, 0.0, 0.0, 0.0, 0.0, 0.0, 0.0, 0.0, 0.0, 0.0, 0.0, 0.0, 0.0, 0.0, 0.0, 0.0, 0.0, 0.0, 0.0, 0.0, 0.0, 0.0, 0.0, 0.0, 0.0, 0.0, 0.0, 0.0, 0.0, 0.0, 0.0, 0.0, 0.0, 0.0, 0.0, 0.0, 0.0, 0.0, 0.0, 0.0, 0.0, 0.0, 0.0, 0.0, 0.0, 0.0, 0.0, 0.0, 0.0, 0.0, 0.0, 0.0, 0.0, 0.0, 0.0, 0.0, 0.0, 0.0, 0.0, 0.0, 0.0, 0.0, 0.0, 0.0, 0.0, 0.0, 0.0, 0.0, 0.0, 0.0, 0.0, 0.0, 0.0, 0.0, 0.0, 0.0, 0.0, 0.0, 0.0, 0.0, 0.0, 0.0, 0.0, 0.0, 0.0, 0.0, 0.0, 0.0, 0.0, 0.0, 0.0, 0.0, 0.0, 0.0, 0.0, 0.0, 0.0, 0.0, 0.0, 0.0, 0.0, 0.0, 0.0, 0.0, 0.0, 0.0, 0.0, 0.0, 0.0, 0.0, 0.0, 0.0, 0.0, 0.0, 0.0, 0.0, 0.0, 0.0, 0.0, 0.0, 0.0],
  "Shots": 4096,
  "Size": 10,
  "Total Algorithm duration [s]": 188.65,
  "Total Classic duration [s]": 136.51452400684357,
  "Total Quantum duration [s]": 52.13547599315643
}
