{
  "Depth": 41.0,
  "Expectation Value": -3.974534749984741,
  "Job durations [ms]": [0.3508, 0.3188, 0.3141, 0.6929, 0.3319, 0.3153, 0.3164, 0.6069, 0.3848, 0.3931, 0.37829999999999997, 0.23240000000000002, 0.2967, 0.306, 0.3042, 0.6392, 0.3101, 0.33990000000000004, 0.6970000000000001, 0.29569999999999996, 0.31110000000000004, 0.5482, 0.6544, 0.42979999999999996, 0.3056, 0.2877, 0.5428, 0.3187, 0.3185, 0.6382, 0.299, 0.39599999999999996, 0.4022, 0.32430000000000003, 0.6373000000000001, 0.4112, 0.30729999999999996, 0.33359999999999995, 0.5017, 0.31760000000000005, 0.2901, 0.5394, 0.29910000000000003, 0.3117, 0.3507, 0.6959, 0.3031, 0.3042, 0.3901, 0.386, 0.49799999999999994, 0.41659999999999997, 0.29460000000000003, 0.4727, 0.3009, 0.3095, 0.3, 0.6018, 0.2977, 0.3083, 0.3173, 0.3362, 0.3032, 0.3348, 0.3095, 0.5863, 0.3085, 0.30029999999999996, 0.3304, 0.3108, 0.32380000000000003, 0.7009, 0.5404, 0.30729999999999996, 0.33349999999999996, 0.391, 0.4, 0.31020000000000003, 0.3028, 0.31179999999999997, 0.35619999999999996, 0.453, 0.30210000000000004, 0.3209, 0.4838, 0.306, 0.315, 0.5062000000000001, 0.3286, 0.3149],
  "Optimal Expectation Value": -4.0,
  "Optimizer durations [ms]": [13.605, 13.268, 13.469, 9.52, 13.627, 13.216, 12.106, 11.795, 13.868, 9.615, 9.017, 7.605, 12.875, 13.335, 10.344, 9.314, 12.985, 13.301, 9.297, 8.639, 13.321, 12.477, 9.677, 12.49, 12.965, 11.667, 12.59, 13.092, 13.335, 12.524, 10.127, 9.551, 9.634, 11.624, 8.683, 9.777, 13.332, 9.701, 8.854, 13.574, 12.802, 12.583, 13.287, 13.116, 12.545, 7.897, 10.6, 11.986, 12.543, 10.924, 8.989, 9.776, 12.867, 10.613, 8.691, 13.181, 11.553, 9.181, 13.215, 13.002, 12.537, 12.003, 10.672, 13.7, 12.417, 12.784, 13.162, 13.447, 9.914, 13.169, 13.448, 12.609, 8.533, 13.206, 12.84, 7.6, 5.104, 10.839, 13.322, 12.799, 10.881, 10.079, 13.152, 10.119, 11.873, 13.311, 13.239, 12.622, 11.214, 8.84],
  "Optimizer iterations": 90,
  "Optimizer params": [0.9292747825806337, 0.7756567801786712, 0.7008326012668661, 0.7020902148651846, 0.3547641245274219, 0.6381704577175279],
  "P": 3,
  "Problem": "MCP",
  "QPU": "7000000",
  "Qubits": 4,
  "Shots": 4096,
  "Size": 4,
  "Total Algorithm duration [s]": 1.038,
  "Total Classic duration [s]": 1.0031742000000001,
  "Total Quantum duration [s]": 0.03482580000000002
}
