{
  "Depth": 41.0,
  "Expectation Value": -3.921645402908325,
  "Job durations [ms]": [0.35579999999999995, 0.34919999999999995, 0.3248, 0.3196, 0.3284, 0.3431, 0.3162, 0.4093, 0.32739999999999997, 0.3178, 0.4195, 0.3276, 0.4229, 0.4484, 0.40230000000000005, 0.3358, 0.3169, 0.31579999999999997, 0.30820000000000003, 0.3223, 0.31770000000000004, 0.3338, 0.442, 0.305, 0.602, 0.40890000000000004, 0.4347, 0.6462, 0.4254, 0.4129, 0.30219999999999997, 0.42939999999999995, 0.2923, 0.40709999999999996, 0.6162, 0.2988, 0.3094, 0.30479999999999996, 0.2868, 0.297, 0.304, 0.3004, 0.6517, 0.3313, 0.3085, 0.4414, 0.29750000000000004, 0.29359999999999997, 0.3191, 0.2969, 0.5720999999999999, 0.31070000000000003, 0.3257, 0.6024999999999999, 0.4306, 0.3015, 0.4048, 0.4597, 0.399, 0.4098, 0.3834, 0.4106, 0.48979999999999996, 0.4542, 0.3884, 0.29550000000000004, 0.29779999999999995, 0.29159999999999997, 0.4112, 0.5934999999999999, 0.3076, 0.3191, 0.39809999999999995, 0.38499999999999995, 0.3925, 0.2995, 0.32630000000000003, 0.5144000000000001, 0.3053, 0.2949, 0.4512, 0.4251, 0.47, 0.3039, 0.4293, 0.40240000000000004, 0.32, 0.3191, 0.30200000000000005, 0.4151, 0.3076, 0.31829999999999997, 0.2908, 0.5794, 0.5759, 0.3056, 0.40030000000000004, 0.3182, 0.44430000000000003, 0.39649999999999996, 0.29910000000000003, 0.314, 0.44289999999999996, 0.3035, 0.3091, 0.5396, 0.4086, 0.4119, 0.3071, 0.3149, 0.4054, 0.3956, 0.5736, 0.31579999999999997, 0.3075, 0.35550000000000004, 0.314, 0.758, 0.4128, 0.5199, 0.3717, 0.29760000000000003],
  "Optimal Expectation Value": -4.0,
  "Optimizer durations [ms]": [13.833, 13.473, 13.249, 10.807, 13.447, 13.519, 11.628, 8.3, 13.371, 13.312, 9.7, 9.848, 9.946, 6.064, 10.008, 12.034, 13.315, 13.043, 9.638, 11.741, 13.315, 11.07, 8.909, 13.156, 10.13, 9.625, 5.816, 12.321, 9.856, 9.507, 9.475, 9.934, 9.141, 9.796, 12.366, 11.062, 13.082, 12.288, 11.096, 10.933, 12.29, 12.715, 12.634, 13.557, 13.15, 10.085, 10.477, 12.087, 9.589, 9.088, 12.404, 8.901, 13.591, 12.697, 7.816, 13.12, 9.105, 8.58, 9.335, 9.707, 6.185, 7.314, 8.951, 6.709, 9.385, 9.271, 13.13, 12.968, 5.647, 11.224, 9.935, 8.493, 6.747, 9.391, 6.341, 13.13, 12.857, 12.404, 12.417, 10.753, 10.563, 9.871, 10.195, 12.047, 9.31, 4.532, 11.581, 12.195, 13.335, 9.88, 9.835, 13.351, 12.837, 8.766, 13.298, 13.207, 6.363, 13.204, 10.471, 9.559, 9.128, 11.398, 7.185, 13.019, 13.613, 10.516, 7.52, 9.592, 13.153, 13.485, 9.543, 7.967, 12.548, 13.251, 13.353, 8.94, 10.773, 13.024, 12.627, 12.428, 12.402, 12.091],
  "Optimizer iterations": 122,
  "Optimizer params": [0.8854799839840981, 0.648620599126005, 0.43917092215067527, 0.5547014418812783, 0.8437230805763304, 0.12095306770054956],
  "P": 3,
  "Problem": "MCP",
  "QPU": "7000000",
  "Qubits": 4,
  "Shots": 4096,
  "Size": 4,
  "Total Algorithm duration [s]": 1.319,
  "Total Classic duration [s]": 1.2723434999999998,
  "Total Quantum duration [s]": 0.0466565
}
