{
  "Depth": 41.0,
  "Expectation Value": -3.990215301513672,
  "Job durations [ms]": [0.3438, 0.3348, 0.32289999999999996, 0.5146999999999999, 0.3319, 0.3168, 0.3215, 0.7012999999999999, 0.3253, 0.307, 0.31379999999999997, 0.32830000000000004, 0.3247, 0.3474, 0.31310000000000004, 0.6678, 0.319, 0.3431, 0.6617, 0.40259999999999996, 0.7129000000000001, 0.3227, 0.3321, 0.6653, 0.31789999999999996, 0.3231, 0.5561, 0.3412, 0.3255, 0.3166, 0.5031, 0.4147, 0.3285, 0.31720000000000004, 0.6462, 0.3369, 0.4671, 0.32289999999999996, 0.5819, 0.31310000000000004, 0.6015, 0.31020000000000003, 0.31, 0.3256, 0.31579999999999997, 0.3018, 0.4961, 0.3344, 0.3139, 0.332, 0.6434, 0.3097, 0.31520000000000004, 0.33740000000000003, 0.32289999999999996, 0.393, 0.3147, 0.398, 0.3411, 0.3776, 0.6213, 0.4084, 0.3157, 0.6047, 0.3141, 0.6667, 0.3624, 0.2979, 0.3056, 0.3201, 0.4007, 0.4452, 0.30679999999999996, 0.32489999999999997, 0.3045, 0.3776, 0.31270000000000003, 0.3276, 0.32249999999999995, 0.6275999999999999, 0.3211, 0.32830000000000004, 0.3095, 0.5466, 0.3284, 0.328],
  "Optimal Expectation Value": -4.0,
  "Optimizer durations [ms]": [13.652, 13.363, 13.43, 10.236, 13.73, 13.413, 11.425, 9.958, 13.36, 13.168, 13.418, 10.647, 13.174, 13.689, 8.957, 9.282, 8.723, 13.626, 12.655, 8.79, 9.954, 13.297, 13.524, 12.636, 11.948, 13.554, 9.861, 11.396, 13.242, 13.325, 9.085, 9.64, 8.269, 13.251, 10.344, 13.47, 12.517, 11.478, 12.378, 12.522, 12.512, 9.709, 13.184, 9.936, 13.245, 9.357, 10.251, 13.331, 13.463, 12.442, 11.248, 13.098, 10.673, 9.955, 10.038, 12.558, 8.886, 10.621, 11.745, 7.35, 12.814, 9.486, 10.615, 12.613, 13.413, 12.762, 12.879, 9.267, 8.647, 10.113, 8.652, 12.643, 13.253, 10.433, 12.423, 12.851, 13.109, 10.378, 13.009, 12.354, 13.621, 11.459, 12.996, 11.468, 13.651, 13.407],
  "Optimizer iterations": 86,
  "Optimizer params": [0.17675947623267058, 0.1005620846606034, 0.1394542850510794, 0.8457022979530636, 0.3143568362422616, 0.8272557173132704],
  "P": 3,
  "Problem": "MCP",
  "QPU": "7000000",
  "Qubits": 4,
  "Shots": 4096,
  "Size": 4,
  "Total Algorithm duration [s]": 1.006,
  "Total Classic duration [s]": 0.9721903,
  "Total Quantum duration [s]": 0.033809700000000005
}
