{
  "Depth": 41.0,
  "Expectation Value": -4.0,
  "Job durations [ms]": [0.4808, 0.3276, 0.3119, 0.5119, 0.3165, 0.4157, 0.326, 0.3067, 0.3151, 0.3272, 0.6284, 0.3192, 0.3201, 0.3248, 0.39849999999999997, 0.31520000000000004, 0.40700000000000003, 0.4617, 0.3182, 0.3033, 0.3271, 0.6314, 0.3635, 0.2993, 0.3096, 0.3811, 0.3153, 0.3045, 0.5553, 0.4032, 0.5148, 0.34049999999999997, 0.3094, 0.3122, 0.297, 0.311, 0.3103, 0.3075, 0.6953, 0.3765, 0.307, 0.3025, 0.3209, 0.3044, 0.5316000000000001, 0.3791, 0.4047, 0.31579999999999997, 0.3182, 0.5254, 0.3046, 0.30069999999999997, 0.34440000000000004, 0.2995, 0.2964, 0.5415, 0.6959, 0.3108, 0.3441, 0.3157, 0.3209, 0.3008, 0.31179999999999997, 0.3005, 0.3083, 0.3013, 0.3084, 0.2979, 0.30870000000000003, 0.31579999999999997, 0.5678000000000001, 0.3292, 0.3434],
  "Optimal Expectation Value": -4.0,
  "Optimizer durations [ms]": [10.033, 13.527, 13.356, 11.78, 13.37, 9.607, 13.489, 8.411, 13.325, 13.45, 12.876, 13.437, 13.387, 10.864, 12.357, 13.068, 9.683, 6.018, 12.863, 13.359, 13.626, 12.733, 12.215, 13.187, 13.298, 9.264, 13.372, 9.673, 13.27, 6.941, 12.594, 13.62, 12.947, 12.936, 13.003, 13.259, 13.147, 13.172, 12.772, 9.104, 9.388, 9.686, 11.811, 13.125, 12.591, 9.352, 8.774, 8.996, 9.904, 7.815, 12.87, 11.987, 10.994, 13.402, 12.966, 12.41, 12.81, 12.483, 9.859, 12.468, 13.232, 13.124, 13.171, 12.078, 12.675, 13.214, 12.179, 9.175, 12.246, 13.207, 12.577, 13.427, 13.435],
  "Optimizer iterations": 73,
  "Optimizer params": [0.81791091772683, 0.15154586197286948, 0.36654439445096404, 0.6805241057978071, 0.9820183882029124, 0.9602707655466873],
  "P": 3,
  "Problem": "MCP",
  "QPU": "7000000",
  "Qubits": 4,
  "Shots": 4096,
  "Size": 4,
  "Total Algorithm duration [s]": 0.869,
  "Total Classic duration [s]": 0.8421214,
  "Total Quantum duration [s]": 0.026878600000000002
}
