{
  "Depth": 41.0,
  "Expectation Value": -4.0,
  "Job durations [ms]": [0.3254, 0.3735, 0.2901, 0.7056, 0.3233, 0.3276, 0.3033, 0.3761, 0.3174, 0.479, 0.4942, 0.675, 0.31770000000000004, 0.3088, 0.3094, 0.3051, 0.33530000000000004, 0.3145, 0.5827, 0.30820000000000003, 0.32689999999999997, 0.3096, 0.3946, 0.3166, 0.31179999999999997, 0.7059, 0.42269999999999996, 0.31839999999999996, 0.40259999999999996, 0.31579999999999997, 0.34230000000000005, 0.4789, 0.31829999999999997, 0.4504, 0.3142, 0.4541, 0.3164, 0.4457, 0.3167, 0.4615, 0.3078, 0.33540000000000003, 0.3944, 0.38289999999999996, 0.48840000000000006, 0.3147, 0.2361, 0.309, 0.332, 0.3268, 0.4222, 0.3154, 0.3169, 0.40190000000000003, 0.393, 0.434, 0.4396, 0.48769999999999997, 0.3807, 0.31320000000000003, 0.3072, 0.4056, 0.3124, 0.46599999999999997, 0.423, 0.4484, 0.3072, 0.3088, 0.3031, 0.3079, 0.31129999999999997, 0.3009, 0.6805, 0.3121, 0.31770000000000004, 0.3109, 0.6849999999999999, 0.406, 0.31589999999999996, 0.3768, 0.4358, 0.2988, 0.28259999999999996, 0.3, 0.3079, 0.6988, 0.32489999999999997, 0.3031, 0.2736, 0.2748, 0.6235, 0.5062000000000001, 0.30210000000000004, 0.4475, 0.40059999999999996, 0.6285000000000001, 0.2958, 0.3992, 0.3856, 0.6837, 0.2931, 0.48990000000000006, 0.6886, 0.3146, 0.5823, 0.31379999999999997, 0.299, 0.29090000000000005, 0.29090000000000005],
  "Optimal Expectation Value": -4.0,
  "Optimizer durations [ms]": [13.311, 9.104, 8.342, 12.164, 13.16, 13.433, 10.355, 4.417, 9.179, 8.0, 10.395, 12.529, 12.329, 13.084, 13.271, 12.59, 13.417, 13.362, 9.723, 13.223, 13.325, 13.462, 8.529, 12.369, 13.24, 12.521, 9.186, 13.319, 12.577, 10.4, 8.836, 5.597, 8.547, 12.444, 9.811, 10.863, 11.386, 12.39, 13.49, 12.681, 12.325, 13.515, 6.311, 4.924, 8.617, 13.285, 7.751, 9.614, 13.548, 10.744, 10.013, 11.049, 13.536, 7.558, 9.359, 9.743, 13.073, 12.893, 9.231, 13.08, 8.361, 8.88, 9.048, 12.892, 7.558, 7.789, 13.081, 13.032, 13.275, 8.535, 13.102, 13.284, 12.523, 10.017, 13.319, 12.369, 12.583, 4.938, 12.875, 12.683, 9.826, 12.887, 13.032, 10.295, 12.894, 12.521, 13.255, 8.842, 9.769, 12.875, 11.487, 12.341, 13.279, 7.516, 9.476, 10.088, 13.208, 9.509, 5.49, 10.559, 9.074, 10.133, 12.707, 8.849, 12.383, 13.36, 10.88, 12.344, 13.124],
  "Optimizer iterations": 109,
  "Optimizer params": [0.6513548585708229, 0.7601215552410951, 0.5343228264337255, 0.2750461948985478, 0.6894509168870759, 0.09806474321637083],
  "P": 3,
  "Problem": "MCP",
  "QPU": "7000000",
  "Qubits": 4,
  "Shots": 4096,
  "Size": 4,
  "Total Algorithm duration [s]": 1.202,
  "Total Classic duration [s]": 1.1598294999999998,
  "Total Quantum duration [s]": 0.0421705
}
