{
  "Depth": 41.0,
  "Expectation Value": -4.0,
  "Job durations [ms]": [0.35340000000000005, 0.3364, 0.3257, 0.31589999999999996, 0.3564, 0.2793, 0.32489999999999997, 0.3477, 0.3239, 0.3144, 0.32, 0.7099, 0.3155, 0.3155, 0.3209, 0.5587, 0.5609999999999999, 0.3165, 0.3311, 0.3611, 0.3293, 0.4027, 0.3355, 0.3656, 0.348, 0.3228, 0.7091000000000001, 0.3234, 0.3358, 0.5106, 0.383, 0.4093, 0.3343, 0.32739999999999997, 0.3384, 0.39239999999999997, 0.37829999999999997, 0.399, 0.3298, 0.6675, 0.3279, 0.3149, 0.3256, 0.5923, 0.31379999999999997, 0.3234, 0.49490000000000006, 0.309, 0.3214, 0.3768, 0.3241, 0.5864, 0.31760000000000005, 0.37070000000000003, 0.3139, 0.5205000000000001, 0.3171, 0.3338, 0.3105, 0.3219, 0.3189, 0.3194, 0.3609, 0.4122, 0.3122, 0.3409, 0.7379, 0.3869, 0.47100000000000003, 0.3167],
  "Optimal Expectation Value": -4.0,
  "Optimizer durations [ms]": [13.907, 13.609, 13.167, 10.568, 10.599, 12.991, 13.523, 8.537, 9.606, 13.372, 13.367, 8.197, 10.741, 13.175, 13.134, 12.509, 12.608, 13.413, 12.766, 8.94, 13.414, 12.978, 13.008, 12.144, 11.651, 13.435, 9.545, 13.451, 11.064, 12.415, 5.186, 9.496, 13.698, 10.493, 10.634, 5.843, 5.767, 9.58, 13.369, 12.796, 13.35, 13.641, 13.427, 12.584, 12.321, 10.132, 12.57, 10.553, 9.343, 12.532, 13.643, 12.556, 11.809, 13.981, 12.113, 12.755, 13.1, 13.176, 13.373, 13.564, 13.263, 13.297, 12.354, 12.514, 13.111, 8.932, 12.805, 9.325, 8.805, 13.044],
  "Optimizer iterations": 70,
  "Optimizer params": [0.07318502836266248, 0.29351022929497045, 0.7962393790111788, 0.2927816981524668, 0.09813863312641645, 0.3964689501274313],
  "P": 3,
  "Problem": "MCP",
  "QPU": "7000000",
  "Qubits": 4,
  "Shots": 4096,
  "Size": 4,
  "Total Algorithm duration [s]": 0.826,
  "Total Classic duration [s]": 0.7992760999999999,
  "Total Quantum duration [s]": 0.026723900000000012
}
