{
  "Circuit execution durations [ms]": [26.000000536441803, 27.500000782310963, 31.999999657273293, 25.500000454485416, 30.00000026077032, 152.99999434500933, 29.999999329447746, 25.99999960511923, 26.499999687075615, 35.499999299645424, 28.50000001490116, 25.500000454485416, 27.000000700354576, 27.499999850988388, 34.99999921768904, 22.499999962747097, 27.999999932944775, 26.000000536441803, 24.500000290572643, 25.500000454485416, 29.500000178813934, 25.00000037252903, 27.499999850988388, 26.50000061839819, 133.99999774992466, 26.499999687075615, 28.50000001490116, 27.500000782310963, 32.99999888986349, 29.500000178813934, 28.00000086426735, 25.500000454485416, 25.00000037252903, 26.000000536441803, 32.500000670552254, 26.999999769032, 29.000000096857548, 30.499999411404133, 48.00000041723251, 29.000000096857548, 51.49999912828207, 46.499998308718204, 29.999999329447746, 32.00000058859587, 36.999999545514584, 32.999999821186066, 27.499999850988388, 25.00000037252903, 27.499999850988388, 31.499999575316906, 26.999999769032, 30.500000342726707, 32.999999821186066, 29.000001028180122, 85.49999911338091, 33.99999998509884, 41.00000113248825, 65.00000134110451, 23.000000044703484, 26.999999769032, 29.500000178813934, 26.000000536441803, 44.00000162422657, 31.50000050663948, 24.000000208616257, 35.99999938160181, 23.50000012665987, 28.50000001490116, 46.5000020340085, 33.50000083446503, 28.999999165534973, 28.50000001490116, 25.00000037252903, 25.500000454485416, 29.000001028180122, 25.499999523162842, 29.49999924749136, 26.50000061839819, 27.999999932944775, 30.99999949336052, 33.00000075250864, 66.0000005736947, 28.999999165534973, 27.999999932944775, 25.500000454485416, 76.00000128149986, 26.000000536441803, 27.999999932944775, 27.499999850988388, 28.50000001490116, 27.000000700354576, 26.499999687075615, 23.50000012665987, 26.999999769032, 43.99999976158142, 39.99999910593033, 30.500000342726707, 33.50000083446503, 24.500000290572643, 48.00000041723251, 30.499999411404133, 42.500000447034836, 30.000001192092896, 30.00000026077032, 26.000000536441803, 25.500000454485416, 29.000000096857548, 27.000000700354576, 27.499999850988388, 29.000001028180122, 28.50000001490116, 42.00000036507845, 109.49999839067459, 31.999999657273293, 33.49999990314245, 33.50000083446503, 28.500000946223736, 27.500000782310963, 68.00000183284283, 44.50000077486038, 28.00000086426735, 139.49999399483204, 35.00000014901161, 28.50000001490116, 28.00000086426735, 26.999999769032, 26.000000536441803, 28.50000001490116, 144.49999947100878, 24.500000290572643, 30.500000342726707, 29.000001028180122, 26.000000536441803, 26.000000536441803, 27.999999932944775, 27.500000782310963, 27.999999932944775, 28.50000001490116, 30.00000026077032, 27.499999850988388, 30.000001192092896, 26.999999769032, 31.000000424683094, 53.00000123679638, 31.50000050663948, 31.999999657273293, 53.499999456107616, 32.500000670552254, 37.50000149011612, 27.499999850988388, 27.500000782310963, 35.00000014901161, 26.000000536441803, 28.50000001490116, 30.99999949336052, 26.000000536441803, 27.999999932944775, 33.99999998509884, 45.500000938773155, 27.999999932944775, 25.500000454485416, 26.999999769032, 25.00000037252903, 34.49999913573265, 27.000000700354576, 26.000000536441803, 25.00000037252903, 24.000000208616257, 69.00000013411045, 24.500000290572643, 30.500001274049282, 29.500000178813934, 42.00000036507845, 51.99999921023846, 30.499999411404133, 26.000000536441803, 30.500000342726707, 27.500000782310963, 27.499999850988388, 29.000000096857548, 29.000001028180122, 26.000000536441803, 25.00000037252903, 27.999999932944775, 24.500000290572643, 33.00000075250864, 85.50000376999378, 36.50000039488077, 27.999999932944775, 28.50000001490116, 40.50000011920929, 54.00000140070915, 24.500000290572643, 88.00000231713057, 26.000000536441803, 24.500000290572643, 28.999999165534973, 27.999999932944775, 30.499999411404133, 29.500000178813934, 30.500000342726707, 55.000001564621925, 27.000000700354576, 36.000000312924385, 29.500000178813934, 32.00000058859587, 33.000001683831215, 33.50000083446503, 33.49999990314245, 26.999999769032, 30.99999949336052, 26.000000536441803, 32.49999973922968, 26.999999769032, 27.499999850988388, 34.99999921768904, 36.50000039488077, 31.999999657273293, 29.000000096857548, 31.50000050663948, 30.000001192092896, 29.50000111013651, 35.499999299645424, 31.000000424683094, 31.00000135600567, 26.000000536441803, 29.500000178813934, 28.500000946223736, 26.000000536441803, 29.50000111013651, 27.999999932944775, 27.499999850988388, 26.999999769032, 55.49999978393316, 27.499999850988388, 28.500000946223736, 32.500000670552254, 37.500000558793545, 27.500000782310963, 24.000000208616257, 33.49999897181988, 26.50000061839819, 23.50000012665987, 29.50000111013651, 25.500000454485416, 32.500000670552254, 25.500000454485416, 30.499999411404133, 38.49999979138374, 31.000000424683094, 27.499999850988388, 29.49999924749136, 30.99999949336052, 27.999999932944775, 26.000000536441803, 29.000000096857548, 29.999999329447746, 29.999999329447746, 29.000001028180122, 27.000000700354576, 30.500000342726707, 26.50000061839819, 32.00000058859587, 24.000000208616257, 25.500000454485416, 30.500000342726707, 42.00000036507845, 71.9999996945262, 25.500000454485416, 39.000000804662704, 29.000000096857548, 29.000000096857548, 37.500000558793545, 44.000000692903996, 36.00000124424696, 120.49999739974737, 31.00000135600567, 33.999999053776264, 87.50000037252903, 23.000000044703484, 46.500000171363354, 27.499999850988388, 31.50000050663948, 31.50000050663948, 27.499999850988388, 50.500000827014446, 29.500000178813934, 33.00000075250864, 61.49999983608723, 701.0000105947256, 27.000000700354576, 26.999999769032, 37.00000047683716, 32.500000670552254, 30.000001192092896, 24.000000208616257, 28.00000086426735, 29.000001028180122, 45.500000938773155, 28.50000001490116, 29.000000096857548, 24.000000208616257, 58.50000027567148, 43.49999874830246, 21.499999798834324, 26.999999769032, 69.0000019967556, 30.499999411404133, 27.500000782310963, 29.500000178813934, 33.000001683831215, 29.500000178813934, 26.499999687075615, 33.000001683831215, 30.500000342726707, 60.49999874085188, 26.999999769032, 35.50000116229057, 24.000000208616257, 48.5000004991889, 40.50000011920929, 32.499998807907104, 29.000001028180122, 27.000000700354576, 25.500000454485416, 31.50000050663948, 25.500000454485416, 26.999999769032, 26.999999769032, 30.000001192092896, 29.50000111013651, 23.50000012665987, 30.500000342726707, 48.99999871850014, 24.000000208616257, 34.99999921768904, 44.49999891221523, 37.99999970942736, 50.99999997764826, 30.500000342726707, 54.50000148266554, 25.500000454485416, 23.50000012665987, 53.499999456107616, 32.00000151991844, 25.00000037252903, 32.999999821186066, 28.00000086426735, 28.50000001490116, 30.99999949336052, 24.000000208616257, 31.499999575316906, 26.000000536441803, 26.999999769032, 26.499999687075615, 35.00000108033419, 25.00000037252903, 25.99999960511923, 77.99999974668026, 59.99999959021807, 30.500000342726707, 29.000000096857548, 29.50000111013651, 28.50000001490116, 27.499999850988388, 25.500000454485416, 26.000000536441803, 26.000000536441803, 27.000000700354576, 29.999999329447746, 28.50000001490116, 51.00000090897083, 25.00000037252903, 37.00000047683716, 54.999999701976776, 24.000000208616257, 79.00000177323818, 31.50000050663948, 38.49999979138374, 24.000000208616257, 29.49999924749136, 49.00000058114529, 35.00000014901161, 39.000000804662704, 26.000000536441803, 30.500000342726707, 31.499999575316906, 30.000001192092896, 36.000000312924385, 65.00000134110451, 25.500000454485416, 26.50000061839819, 105.49999680370092, 32.999999821186066, 31.50000050663948, 21.99999988079071, 27.999999932944775, 104.00000028312206, 26.000000536441803, 29.50000111013651, 26.000000536441803, 57.499999180436134, 144.0000059083104, 26.999999769032, 33.50000083446503, 30.000001192092896, 32.00000151991844, 28.00000086426735, 25.00000037252903, 46.49999924004078, 35.00000014901161, 29.50000111013651, 32.49999973922968, 27.500000782310963, 35.00000014901161, 55.50000071525574, 31.000000424683094, 41.50000028312206, 28.999999165534973, 26.000000536441803, 29.999999329447746, 28.50000001490116, 40.50000011920929, 28.50000001490116, 26.50000061839819, 25.00000037252903, 51.00000090897083, 29.500000178813934, 37.49999962747097, 27.999999932944775, 27.999999932944775, 30.000001192092896, 29.49999924749136, 32.49999973922968, 31.000000424683094, 27.999999932944775, 25.00000037252903, 24.500000290572643, 25.99999960511923, 37.50000149011612, 28.00000086426735, 25.00000037252903, 29.000000096857548, 28.50000001490116, 27.999999932944775, 27.499999850988388, 40.50000011920929, 26.50000061839819, 25.00000037252903, 26.50000061839819, 26.999999769032, 26.000000536441803, 25.500000454485416, 25.500000454485416, 25.00000037252903, 33.00000075250864, 40.00000096857548, 32.00000058859587, 27.499999850988388, 29.000001028180122, 47.999998554587364, 31.00000135600567, 25.500000454485416, 28.50000001490116, 28.50000001490116, 25.500000454485416, 26.499999687075615, 27.999999932944775, 32.49999973922968, 27.499999850988388, 29.50000111013651, 37.00000047683716, 31.00000135600567, 33.000001683831215, 28.00000086426735, 36.4999994635582, 26.50000061839819, 47.49999940395355, 32.00000058859587, 27.000000700354576, 25.500000454485416, 27.499999850988388, 32.99999888986349, 27.500000782310963, 62.00000084936619, 25.00000037252903, 110.00000312924385, 36.99999861419201, 138.99999391287565, 27.000000700354576, 24.500000290572643, 28.50000001490116, 30.500000342726707, 35.99999938160181, 37.50000149011612, 32.999999821186066, 29.49999924749136, 28.00000086426735, 29.50000111013651, 25.500000454485416, 31.000000424683094, 29.000000096857548, 29.000001028180122, 26.000000536441803, 27.000000700354576, 27.999999932944775, 29.50000111013651, 26.000000536441803, 32.500000670552254, 26.50000061839819, 29.49999924749136, 34.00000091642141, 63.50000109523535, 63.99999838322401, 25.00000037252903, 26.999999769032, 33.49999897181988, 25.500000454485416, 28.50000001490116, 27.499999850988388, 38.49999979138374, 37.50000149011612, 29.000001028180122, 45.500000938773155, 42.99999959766865, 83.49999785423279, 35.499999299645424, 33.99999998509884, 29.49999924749136, 26.50000061839819, 25.00000037252903, 32.49999973922968, 30.000001192092896, 29.50000111013651, 24.500000290572643, 33.50000083446503, 33.00000075250864, 29.999999329447746, 29.000000096857548, 27.999999932944775, 28.500000946223736, 27.999999932944775, 25.99999960511923, 28.999999165534973, 26.000000536441803, 32.00000058859587, 60.00000052154064, 38.00000064074993, 58.000002056360245, 49.4999997317791, 29.000000096857548, 26.50000061839819, 28.00000086426735, 31.499999575316906, 33.50000083446503, 35.00000014901161, 37.99999970942736, 93.49999763071537, 51.00000184029341, 33.50000083446503, 24.000000208616257, 55.9999980032444, 30.00000026077032, 47.000001184642315, 86.5000020712614, 39.49999902397394, 26.50000061839819, 31.499999575316906, 306.0000129044056, 30.99999949336052, 52.000001072883606, 25.500000454485416, 63.99999838322401, 65.00000040978193, 32.00000058859587, 28.50000001490116, 37.99999970942736, 26.499999687075615, 51.00000090897083, 28.500000946223736, 54.9999987706542, 26.499999687075615, 31.999999657273293, 325.99999383091927, 70.99999859929085, 27.000000700354576, 269.5000022649765, 26.499999687075615, 622.0000050961971, 37.00000047683716, 33.000001683831215, 25.00000037252903, 27.000000700354576, 26.999999769032, 28.50000001490116, 39.499999955296516, 28.00000086426735, 41.999999433755875, 31.00000135600567, 28.50000001490116, 32.500000670552254, 25.500000454485416, 24.500000290572643, 177.99999564886093, 29.49999924749136, 34.00000091642141, 36.999999545514584, 30.99999949336052, 49.50000159442425, 66.49999972432852, 38.99999987334013, 68.50000098347664, 44.99999899417162, 26.50000061839819, 30.499999411404133, 32.500000670552254, 29.000000096857548, 27.999999932944775, 26.50000061839819, 40.50000011920929, 40.0000000372529, 26.999999769032, 33.50000083446503, 32.49999973922968, 28.50000001490116, 31.000000424683094, 57.00000189244747, 28.50000001490116, 54.9999987706542, 30.00000026077032, 28.50000001490116, 69.00000013411045, 28.50000001490116, 26.000000536441803, 49.4999997317791, 30.00000026077032, 26.50000061839819, 32.999999821186066, 27.000000700354576, 28.50000001490116, 27.000000700354576, 58.000002056360245, 29.500000178813934],
  "Depth": 16.5,
  "Expectation Value": -7.57763671875,
  "Optimal Expectation Value": -8.5667724609375,
  "Optimizer durations [ms]": [11997.835, 12524.935, 12148.083, 12243.769, 11981.038, 12025.706, 12260.748, 12053.003, 11998.437, 12254.588, 12074.182, 11997.333, 12026.964, 12235.144, 12255.95, 12163.266, 12579.347, 12059.232, 12126.512, 11974.972, 12150.832, 11998.16, 12378.728, 12607.579, 12184.633, 12024.447, 12064.77, 12106.943, 12102.79, 12504.49, 12107.117, 12201.572, 11985.527, 12183.878, 12139.6, 12562.468, 12307.044, 12082.235, 12081.805, 12484.732, 17234.86, 12166.124, 12268.094, 12860.605, 12031.595, 12361.526, 12251.853, 12034.818, 12364.101, 12020.964, 12109.586, 12451.212, 11977.383, 12175.509, 12112.356, 12106.074, 12064.356, 12060.442, 12182.961, 12210.843, 12109.828, 12206.152, 12260.665, 12104.637, 12258.869, 12173.996, 12058.622, 11989.41, 12197.521, 12154.152, 12299.003, 12155.614, 12218.285, 12063.884, 12613.874, 8876.433, 13185.158, 12037.346, 12379.215, 12349.071, 11996.889, 12107.045, 12288.57, 12032.911, 12210.54, 12266.053, 12022.058, 11998.126, 12150.291, 12149.037, 12046.544, 12377.968, 12044.54, 12039.128, 12038.54, 12004.994, 13516.881, 12433.53, 12166.633, 12080.855, 12148.597, 12429.118, 12166.826, 12204.646, 12127.885, 12081.164, 12212.42, 12094.453, 12082.204, 12164.124, 11992.224, 12383.9, 12055.042, 12053.297, 12180.941, 12032.956, 12116.522, 12109.491, 23541.352, 12069.091, 12256.951, 12048.102, 12451.316, 12071.813, 11990.443, 12081.893, 12135.147, 12557.601, 12304.217, 12054.303, 12379.359, 12129.42, 12275.007, 12330.207, 12009.195, 12220.343, 12439.718, 12305.654, 12115.497, 12115.31, 12626.954, 12007.634, 12077.847, 12240.574, 12085.154, 12122.352, 12160.9, 12298.353, 12187.902, 12266.613, 12078.587, 12298.932, 12206.231, 12094.581, 12333.511, 12377.854, 12644.227, 12521.026, 12157.18, 12291.903, 12414.507, 12245.77, 12152.154, 12147.359, 11976.661, 12098.742, 12272.292, 12214.333, 12327.851, 12088.858, 12152.726, 12075.254, 12361.66, 13976.638, 12222.775, 12155.279, 12025.994, 12327.315, 12323.585, 12245.163, 12046.829, 12221.916, 12054.524, 11978.122, 12494.535, 12170.77, 12040.654, 12411.999, 12225.013, 11965.05, 12680.032, 12073.992, 12144.287, 12121.732, 12238.69, 12173.516, 12084.994, 12246.203, 12052.476, 12410.108, 12323.396, 12497.604, 12113.096, 12210.356, 12040.195, 12043.001, 12087.76, 12407.984, 11968.775, 12378.038, 12520.678, 12082.5, 12244.209, 12256.413, 12416.248, 12028.668, 12100.207, 12195.118, 12260.26, 12307.997, 12065.505, 12201.894, 12105.243, 11999.428, 12207.466, 12190.26, 12243.837, 12911.719, 12180.58, 12253.946, 12126.056, 12052.865, 12024.609, 12159.172, 12442.994, 12241.811, 11966.67, 12076.304, 12076.965, 12140.532, 12179.726, 11990.998, 12351.104, 12311.148, 12198.087, 13868.592, 12231.084, 12109.145, 12093.595, 12747.268, 12075.456, 12266.996, 12107.231, 12046.024, 12650.157, 12419.09, 12054.95, 12380.696, 12173.951, 12177.005, 12218.96, 12314.31, 11991.211, 12127.388, 12378.16, 17687.372, 22754.616, 12517.855, 12163.189, 12026.881, 11894.79, 12066.319, 12494.718, 12023.821, 12213.674, 12523.883, 12019.843, 12034.972, 12278.609, 12302.201, 12115.47, 12195.642, 12237.799, 12227.818, 12091.884, 12339.506, 12063.012, 12129.519, 12118.337, 12084.544, 12073.436, 12161.335, 11960.53, 12479.186, 12257.148, 12219.41, 12096.17, 12160.195, 12194.367, 12264.832, 12094.573, 12084.551, 12130.419, 12224.17, 17611.239, 12387.864, 12146.902, 12213.127, 11965.431, 12276.482, 12132.292, 12179.909, 12080.415, 12349.794, 12248.944, 12261.731, 12123.628, 12287.363, 11990.423, 12058.43, 12243.073, 12078.892, 12250.841, 12061.793, 12119.252, 12049.337, 12049.716, 11968.797, 12312.403, 12048.789, 12304.354, 12018.402, 12018.909, 11922.524, 12354.855, 12074.748, 12364.701, 12275.275, 12211.701, 11971.892, 12640.783, 14192.606, 12021.423, 12247.285, 12038.565, 12063.052, 12052.808, 12173.474, 11955.584, 12318.6, 12179.288, 12097.316, 12268.166, 11939.603, 12172.034, 12191.269, 12101.346, 12024.784, 12284.859, 12161.699, 12270.705, 12129.58, 12262.604, 12094.316, 12067.439, 12240.939, 12348.377, 12284.956, 12148.946, 12106.768, 11974.626, 13387.798, 12087.319, 12133.069, 11956.834, 12380.23, 12470.933, 12336.105, 11953.771, 11974.289, 12231.922, 12069.16, 12074.778, 12239.714, 12067.335, 12014.062, 12286.755, 12107.716, 12362.331, 12393.928, 12573.287, 12103.635, 11978.663, 12053.082, 12135.241, 12175.569, 12325.116, 11866.85, 12059.377, 12057.409, 12308.119, 14208.016, 12247.407, 12093.516, 11913.895, 12180.587, 12064.489, 12030.07, 12020.041, 12133.616, 22768.03, 12182.218, 12372.81, 12118.887, 13021.231, 12927.524, 12073.301, 12583.912, 12166.002, 12725.232, 14067.296, 11988.652, 12022.104, 12185.828, 12124.024, 12080.054, 12324.134, 11932.642, 12065.847, 12049.05, 12064.536, 12203.142, 12008.362, 12039.75, 12008.351, 12047.892, 11987.001, 12230.372, 11914.132, 12029.331, 12415.091, 11985.045, 12060.872, 11939.716, 12121.299, 12172.874, 12003.947, 12274.652, 12541.974, 12075.237, 12053.773, 12352.777, 12298.284, 12261.89, 12068.901, 11962.004, 12014.179, 12080.957, 12092.756, 11981.64, 12034.386, 12229.452, 12159.436, 11974.282, 12053.485, 11976.581, 12126.659, 12016.711, 12290.716, 12222.46, 11994.071, 12013.103, 12140.11, 12036.909, 12156.552, 12209.842, 12077.365, 11990.224, 12187.376, 12076.618, 12171.826, 11972.833, 12009.538, 12089.051, 12657.678, 12102.095, 12185.167, 12229.317, 12196.094, 12042.136, 12015.17, 12113.497, 11987.095, 11934.503, 12118.947, 11956.256, 12071.227, 12040.469, 12131.408, 14230.161, 12130.655, 12057.047, 12034.973, 12087.086, 11889.344, 12054.011, 11958.99, 12027.175, 11926.17, 11936.77, 12215.298, 12037.675, 12028.919, 12039.721, 12065.595, 12275.255, 12122.881, 11935.668, 11984.313, 12086.968, 12129.006, 12362.096, 12253.323, 12003.885, 11990.547, 12039.084, 12096.411, 11966.18, 12007.969, 11885.276, 11912.073, 11945.167, 13065.878, 12200.918, 12124.887, 12308.619, 12109.53, 12069.38, 12006.723, 12030.215, 12142.492, 12091.525, 14086.042, 13227.773, 12151.941, 12089.678, 12276.287, 12155.221, 12118.789, 11996.847, 14234.021, 12083.835, 12333.309, 11940.816, 11970.924, 12132.684, 11840.878, 17287.867, 22538.241, 22731.695, 27617.588, 12109.975, 17354.078, 17135.193, 12364.782, 12068.329, 12235.142, 12090.472, 13092.729, 12011.057, 11945.313, 12442.366, 12028.539, 12003.987, 12009.309, 12009.404, 12148.9, 11959.945, 12297.257, 12181.574, 11927.459, 12078.523, 11907.382, 12201.52, 11951.847, 12005.749, 12102.971, 11952.065, 11994.01, 12109.786, 12086.183, 12180.773, 11944.283, 12032.893, 12027.38, 12012.211, 11915.183, 11964.11, 17409.476, 12505.002, 12197.256, 11949.182, 12982.343, 11969.46, 12042.365, 12238.299, 13100.028, 12006.087, 11927.969, 17150.356, 12172.694, 12206.932, 11972.702, 12320.069, 17420.5, 12004.374, 12102.332, 12411.166, 12062.489, 11983.618, 11923.564, 11925.493, 13319.116, 12073.727, 12002.26, 11962.625, 12294.432, 12150.274, 12061.659, 12709.221, 11909.526, 11959.545, 12005.017, 22395.458, 12222.352, 10690.88, 12010.51, 12099.735, 13074.117, 12036.19, 12065.291, 11984.361, 12266.429],
  "Optimizer iterations": 643,
  "Optimizer params": [0.9389842812859698, 0.41451676689610373, 0.5393069941895842, 0.5336792128800834, 0.9999999999999999, 0.5874343437986194, 0.6511103344033088, 0.6489553288624772, 0.019881238384714162, 0.5775708585226876, 0.9898439144904586, 0.9536039050265568, 0.9531061478993202, 0.5610989695005406, 0.9727790297706447, 0.5358897299775774, 0.9617336316547741, 1.0, 0.5108952407841553, 0.42681778182746255, 0.8722623587182398, 0.9495854642144658, 0.3256627786715161, 0.27791148017377904, 0.8273201428408894, 0.2781056281309053, 0.8102724306392498, 0.999981636646326],
  "P": 0,
  "Problem": "IC",
  "QJob durations [ms]": [5953.227281570435, 6216.910839080811, 6006.731033325195, 6076.361656188965, 5944.920539855957, 5967.1502113342285, 6062.319993972778, 5980.417013168335, 5953.76181602478, 6059.845685958862, 5991.691827774048, 5953.379154205322, 5968.247175216675, 6048.555850982666, 6082.494735717773, 6036.03982925415, 6221.925497055054, 5982.850790023804, 6017.772674560547, 5941.320896148682, 6007.760524749756, 5953.468561172485, 6143.410682678223, 6236.331462860107, 6046.691179275513, 5966.445446014404, 5986.767053604126, 5985.1744174957275, 6005.805492401123, 6206.4528465271, 5985.843181610107, 6055.039167404175, 5947.067737579346, 6046.455860137939, 6001.426696777344, 6235.962390899658, 6107.785224914551, 5972.556114196777, 5995.5689907073975, 6197.133541107178, 8571.995735168457, 6015.343427658081, 6088.461637496948, 6384.457349777222, 5948.3771324157715, 6135.533809661865, 6079.91623878479, 5971.2395668029785, 6113.904714584351, 5964.709758758545, 6008.728504180908, 6157.936096191406, 5941.509008407593, 6041.994571685791, 6010.435104370117, 5985.118627548218, 5986.3600730896, 5984.226703643799, 6023.902416229248, 6059.604644775391, 6009.305238723755, 6057.602167129517, 6062.491655349731, 6006.709337234497, 6083.955764770508, 6019.794940948486, 5983.4136962890625, 5948.564529418945, 6052.967071533203, 6009.768009185791, 6103.399753570557, 6032.212257385254, 6041.6200160980225, 5986.52458190918, 6260.749578475952, 4392.533659934998, 6524.265766143799, 5972.913980484009, 6144.124746322632, 6106.743097305298, 5952.433109283447, 6007.964611053467, 6098.47617149353, 5949.097633361816, 6059.109210968018, 6087.634325027466, 5942.42525100708, 5953.635215759277, 6029.545783996582, 6027.674198150635, 5955.612659454346, 6142.757415771484, 5976.543188095093, 5951.899766921997, 5973.189353942871, 5956.7084312438965, 6712.442874908447, 6148.494243621826, 6037.529706954956, 5994.883298873901, 6006.559610366821, 6169.084548950195, 6037.680387496948, 6056.787967681885, 5996.647596359253, 5995.186805725098, 6060.070514678955, 5977.300643920898, 5995.321273803711, 6036.469459533691, 5948.367595672607, 6123.159408569336, 5981.754302978516, 5981.162071228027, 6022.089242935181, 5970.526456832886, 6010.823011398315, 6009.189128875732, 11703.104496002197, 5988.74831199646, 6082.610130310059, 5956.318140029907, 6179.927349090576, 5989.955902099609, 5949.699878692627, 5973.138332366943, 6021.896123886108, 6233.110189437866, 6083.740472793579, 5981.377840042114, 6143.608570098877, 6017.931699752808, 6069.721698760986, 6119.03715133667, 5958.976268768311, 6042.43803024292, 6174.363851547241, 6106.199741363525, 6012.168407440186, 5988.570928573608, 6267.106056213379, 5957.813501358032, 5970.284461975098, 6074.706792831421, 5997.012138366699, 6015.2788162231445, 6012.042760848999, 6103.199243545532, 6048.239469528198, 6065.931797027588, 5993.4234619140625, 6104.014158248901, 6057.768106460571, 5979.3806076049805, 6120.913028717041, 6142.43745803833, 6253.721237182617, 6214.547395706177, 6032.379865646362, 6099.945545196533, 6139.667272567749, 6077.092409133911, 6030.002117156982, 6005.978584289551, 5942.931652069092, 6003.777265548706, 6090.5022621154785, 6038.859128952026, 6118.0219650268555, 5998.015880584717, 6009.181976318359, 5991.989850997925, 6134.5038414001465, 6942.845821380615, 6043.652772903442, 6032.082796096802, 5967.010259628296, 6095.500946044922, 6115.965127944946, 6076.756954193115, 5977.732419967651, 6042.930841445923, 5981.948137283325, 5943.567991256714, 6180.136203765869, 6039.647102355957, 5974.609375, 6160.751819610596, 6045.1500415802, 5937.2875690460205, 6294.658660888672, 5969.448566436768, 6026.172161102295, 6015.565872192383, 6074.104309082031, 6019.370794296265, 5996.676921844482, 6077.331781387329, 5958.083391189575, 6159.321308135986, 6115.960359573364, 6203.289985656738, 5989.311456680298, 6059.780597686768, 5974.502325057983, 5954.152584075928, 5998.028516769409, 6158.305883407593, 5938.8532638549805, 6121.297836303711, 6214.700222015381, 5995.670557022095, 6054.656505584717, 6082.306861877441, 6162.034511566162, 5968.289136886597, 5982.123851776123, 6051.5336990356445, 6084.577560424805, 6086.310863494873, 5986.710786819458, 6054.981708526611, 6007.322072982788, 5932.149410247803, 6058.202028274536, 6049.472808837891, 6054.167747497559, 6410.1881980896, 6044.623136520386, 6081.196069717407, 5995.727777481079, 5980.9417724609375, 5966.238737106323, 6011.654376983643, 6174.3645668029785, 6075.006484985352, 5937.726736068726, 5970.3614711761475, 5992.995262145996, 6024.2650508880615, 6022.397041320801, 5949.744462966919, 6130.033254623413, 6109.657526016235, 6031.234264373779, 6887.629270553589, 6069.762468338013, 5987.009763717651, 6000.664234161377, 6328.108310699463, 5992.35725402832, 6065.382480621338, 6007.926940917969, 5977.341413497925, 6257.057428359985, 6163.476228713989, 5981.627702713013, 6144.442319869995, 6018.271207809448, 6042.996883392334, 6063.7054443359375, 6089.148998260498, 5950.037479400635, 6018.04256439209, 6143.337249755859, 8774.879932403564, 11331.663608551025, 6213.344097137451, 6014.057636260986, 5968.099594116211, 5901.577472686768, 5987.517833709717, 6179.547548294067, 5965.933322906494, 6059.7498416900635, 6194.460868835449, 5964.042186737061, 5971.505165100098, 6093.209266662598, 6083.767414093018, 6012.004137039185, 6051.780223846436, 6051.546812057495, 6068.397998809814, 5999.819040298462, 6124.25422668457, 5963.454008102417, 6019.042253494263, 6013.924121856689, 5974.684715270996, 5990.781307220459, 6034.751892089844, 5934.379577636719, 6171.859979629517, 6083.232641220093, 6064.293146133423, 5979.548931121826, 6033.746719360352, 6051.419258117676, 6086.615562438965, 5979.335069656372, 5996.347188949585, 6019.530773162842, 6043.812990188599, 8760.303497314453, 6147.093296051025, 6027.4412631988525, 6038.857936859131, 5936.662912368774, 6092.597484588623, 5998.824834823608, 6044.443607330322, 5994.713306427002, 6128.814697265625, 6056.548118591309, 6085.280418395996, 6016.484022140503, 6076.231002807617, 5949.546575546265, 5983.148097991943, 6075.412750244141, 5971.768379211426, 6079.387903213501, 5985.412359237671, 5990.43869972229, 5978.9276123046875, 5979.165077209473, 5938.904285430908, 6088.77158164978, 5978.199005126953, 6106.328725814819, 5941.152095794678, 5963.942289352417, 5915.7164096832275, 6131.864070892334, 5969.549179077148, 6136.618614196777, 6091.701030731201, 6038.388729095459, 5940.380811691284, 6274.7228145599365, 7050.737142562866, 5943.019390106201, 6077.677965164185, 5973.594665527344, 5964.102745056152, 5980.438232421875, 6041.186094284058, 5932.249546051025, 6091.189861297607, 6043.442249298096, 6002.343654632568, 6066.630840301514, 5923.9747524261475, 6040.378570556641, 6049.499034881592, 5982.512712478638, 5966.559410095215, 6096.765756607056, 6013.242244720459, 6089.62082862854, 6019.223690032959, 6085.6194496154785, 5979.438066482544, 5987.831354141235, 6074.917793273926, 6106.748342514038, 6096.582651138306, 6028.711318969727, 6007.726669311523, 5919.524431228638, 6648.197889328003, 5997.900009155273, 5998.594760894775, 5932.90376663208, 6144.321918487549, 6189.284801483154, 6100.089550018311, 5931.293249130249, 5941.566228866577, 6048.093557357788, 5988.362789154053, 5991.663455963135, 6074.200630187988, 5966.018915176392, 5961.377382278442, 6098.022937774658, 5986.384630203247, 6135.613203048706, 6151.193141937256, 6240.667819976807, 5984.144687652588, 5943.72034072876, 5980.274677276611, 6000.223159790039, 6042.103052139282, 6117.058992385864, 5887.775659561157, 5961.341142654419, 5982.889175415039, 6108.368396759033, 7036.464214324951, 6077.703237533569, 6001.2407302856445, 5911.448955535889, 6022.293329238892, 5986.545562744141, 5969.708442687988, 5942.466735839844, 6020.838737487793, 11338.204383850098, 6044.56901550293, 6090.471506118774, 6013.504505157471, 6465.096712112427, 6396.054267883301, 5991.272449493408, 6245.994091033936, 6037.230491638184, 6293.71452331543, 6987.65754699707, 5948.50492477417, 5942.81005859375, 6046.820640563965, 6015.948534011841, 5994.064092636108, 6086.127996444702, 5920.822620391846, 5987.2424602508545, 5956.03346824646, 5986.2871170043945, 6055.701732635498, 5958.862781524658, 5952.538251876831, 5958.323001861572, 5978.309869766235, 5925.614833831787, 6069.371223449707, 5910.865306854248, 5968.999147415161, 6139.010906219482, 5946.915626525879, 5984.73596572876, 5902.488946914673, 6014.488697052002, 6040.668249130249, 5955.51061630249, 6068.819522857666, 6225.383758544922, 5990.994453430176, 5958.90474319458, 6130.621671676636, 6103.156089782715, 6085.3636264801025, 5965.5280113220215, 5934.784889221191, 5961.496353149414, 5972.453594207764, 6000.657081604004, 5944.778919219971, 5971.219301223755, 6047.102928161621, 6033.841609954834, 5941.714763641357, 5958.608150482178, 5942.243576049805, 6017.251014709473, 5961.093902587891, 6077.985525131226, 6065.181493759155, 5951.025485992432, 5939.031600952148, 6023.991823196411, 5972.810745239258, 6032.799243927002, 6036.984205245972, 5992.967367172241, 5949.493408203125, 6025.347948074341, 5992.495775222778, 6040.191650390625, 5940.41633605957, 5937.411546707153, 5998.887777328491, 6283.0915451049805, 5983.656883239746, 6046.491384506226, 6068.461179733276, 6052.739143371582, 5953.898906707764, 5960.392236709595, 6011.13486289978, 5926.10502243042, 5921.667575836182, 6013.71431350708, 5932.295799255371, 5967.65923500061, 5974.774122238159, 6020.010948181152, 7047.177314758301, 6019.992351531982, 5982.9442501068115, 5971.802711486816, 5975.418329238892, 5898.880243301392, 5980.940341949463, 5911.354541778564, 5967.568397521973, 5917.545795440674, 5923.08497428894, 6040.122509002686, 5973.161220550537, 5969.014883041382, 5952.475786209106, 5987.208843231201, 6092.315196990967, 6016.008377075195, 5899.322509765625, 5946.426153182983, 5998.193025588989, 5996.870040893555, 6135.721921920776, 6081.153869628906, 5956.335544586182, 5927.630662918091, 5973.514556884766, 6002.571821212769, 5914.99662399292, 5956.737995147705, 5896.850347518921, 5909.940958023071, 5904.50119972229, 6486.603498458862, 6054.181098937988, 5994.385004043579, 6107.184171676636, 6007.202386856079, 5988.852024078369, 5935.938358306885, 5968.957901000977, 6024.673223495483, 5977.5285720825195, 6997.211933135986, 6568.385362625122, 6030.651569366455, 5977.319002151489, 6092.330455780029, 6030.833005905151, 5991.820812225342, 5953.123331069946, 7068.286418914795, 5995.959758758545, 6099.006652832031, 5924.795150756836, 5939.574956893921, 5999.2356300354, 5874.785661697388, 8598.353624343872, 11223.44446182251, 11297.921657562256, 13762.98189163208, 6008.998394012451, 8609.323740005493, 8521.928787231445, 6136.937379837036, 5988.546848297119, 6049.710512161255, 5999.869823455811, 6500.504016876221, 5938.188314437866, 5926.813840866089, 6174.598217010498, 5968.414306640625, 5934.60750579834, 5959.069728851318, 5958.818435668945, 6006.3636302948, 5934.303283691406, 6102.489948272705, 6045.310497283936, 5895.8580493927, 5993.659973144531, 5907.777309417725, 6033.110857009888, 5929.553031921387, 5957.371950149536, 6006.044387817383, 5907.888412475586, 5950.707197189331, 6009.057521820068, 5975.1129150390625, 6044.7282791137695, 5926.29337310791, 5970.99232673645, 5946.119546890259, 5961.060047149658, 5911.870002746582, 5914.035797119141, 8657.800674438477, 6207.06033706665, 6053.156137466431, 5906.972885131836, 6445.544958114624, 5939.416885375977, 5953.8233280181885, 6073.476076126099, 6504.268646240234, 5957.4785232543945, 5895.991802215576, 8529.131412506104, 6040.8055782318115, 6034.755706787109, 5940.987348556519, 6114.3786907196045, 8664.295196533203, 5934.414386749268, 6005.451679229736, 6159.482717514038, 5959.188461303711, 5946.35009765625, 5916.410446166992, 5916.887283325195, 6592.148065567017, 5991.116046905518, 5955.61408996582, 5913.601636886597, 6100.966453552246, 6028.965711593628, 5984.86328125, 6286.818981170654, 5908.858299255371, 5934.162139892578, 5934.286117553711, 11150.091648101807, 6065.732717514038, 5299.6532917022705, 5937.034845352173, 6004.0388107299805, 6491.692066192627, 5950.930595397949, 5986.878871917725, 5946.426630020142, 6087.111711502075],
  "QPU": "10000001",
  "Qubits": 7,
  "Queue durations [ms]": [0.0, 0.0, 0.0, 0.0, 0.0, 0.0, 0.0, 0.0, 0.0, 0.0, 0.0, 0.0, 0.0, 0.0, 0.0, 0.0, 0.0, 0.0, 0.0, 0.0, 0.0, 0.0, 0.0, 0.0, 0.0, 0.0, 0.0, 0.0, 0.0, 0.0, 0.0, 0.0, 0.0, 0.0, 0.0, 0.0, 0.0, 0.0, 0.0, 0.0, 0.0, 0.0, 0.0, 0.0, 0.0, 0.0, 0.0, 0.0, 0.0, 0.0, 0.0, 0.0, 0.0, 0.0, 0.0, 0.0, 0.0, 0.0, 0.0, 0.0, 0.0, 0.0, 0.0, 0.0, 0.0, 0.0, 0.0, 0.0, 0.0, 0.0, 0.0, 0.0, 0.0, 0.0, 0.0, 0.0, 0.0, 0.0, 0.0, 0.0, 0.0, 0.0, 0.0, 0.0, 0.0, 0.0, 0.0, 0.0, 0.0, 0.0, 0.0, 0.0, 0.0, 0.0, 0.0, 0.0, 0.0, 0.0, 0.0, 0.0, 0.0, 0.0, 0.0, 0.0, 0.0, 0.0, 0.0, 0.0, 0.0, 0.0, 0.0, 0.0, 0.0, 0.0, 0.0, 0.0, 0.0, 0.0, 0.0, 0.0, 0.0, 0.0, 0.0, 0.0, 0.0, 0.0, 0.0, 0.0, 0.0, 0.0, 0.0, 0.0, 0.0, 0.0, 0.0, 0.0, 0.0, 0.0, 0.0, 0.0, 0.0, 0.0, 0.0, 0.0, 0.0, 0.0, 0.0, 0.0, 0.0, 0.0, 0.0, 0.0, 0.0, 0.0, 0.0, 0.0, 0.0, 0.0, 0.0, 0.0, 0.0, 0.0, 0.0, 0.0, 0.0, 0.0, 0.0, 0.0, 0.0, 0.0, 0.0, 0.0, 0.0, 0.0, 0.0, 0.0, 0.0, 0.0, 0.0, 0.0, 0.0, 0.0, 0.0, 0.0, 0.0, 0.0, 0.0, 0.0, 0.0, 0.0, 0.0, 0.0, 0.0, 0.0, 0.0, 0.0, 0.0, 0.0, 0.0, 0.0, 0.0, 0.0, 0.0, 0.0, 0.0, 0.0, 0.0, 0.0, 0.0, 0.0, 0.0, 0.0, 0.0, 0.0, 0.0, 0.0, 0.0, 0.0, 0.0, 0.0, 0.0, 0.0, 0.0, 0.0, 0.0, 0.0, 0.0, 0.0, 0.0, 0.0, 0.0, 0.0, 0.0, 0.0, 0.0, 0.0, 0.0, 0.0, 0.0, 0.0, 0.0, 0.0, 0.0, 0.0, 0.0, 0.0, 0.0, 0.0, 0.0, 0.0, 0.0, 0.0, 0.0, 0.0, 0.0, 0.0, 0.0, 0.0, 0.0, 0.0, 0.0, 0.0, 0.0, 0.0, 0.0, 0.0, 0.0, 0.0, 0.0, 0.0, 0.0, 0.0, 0.0, 0.0, 0.0, 0.0, 0.0, 0.0, 0.0, 0.0, 0.0, 0.0, 0.0, 0.0, 0.0, 0.0, 0.0, 0.0, 0.0, 0.0, 0.0, 0.0, 0.0, 0.0, 0.0, 0.0, 0.0, 0.0, 0.0, 0.0, 0.0, 0.0, 0.0, 0.0, 0.0, 0.0, 0.0, 0.0, 0.0, 0.0, 0.0, 0.0, 0.0, 0.0, 0.0, 0.0, 0.0, 0.0, 0.0, 0.0, 0.0, 0.0, 0.0, 0.0, 0.0, 0.0, 0.0, 0.0, 0.0, 0.0, 0.0, 0.0, 0.0, 0.0, 0.0, 0.0, 0.0, 0.0, 0.0, 0.0, 0.0, 0.0, 0.0, 0.0, 0.0, 0.0, 0.0, 0.0, 0.0, 0.0, 0.0, 0.0, 0.0, 0.0, 0.0, 0.0, 0.0, 0.0, 0.0, 0.0, 0.0, 0.0, 0.0, 0.0, 0.0, 0.0, 0.0, 0.0, 0.0, 0.0, 0.0, 0.0, 0.0, 0.0, 0.0, 0.0, 0.0, 0.0, 0.0, 0.0, 0.0, 0.0, 0.0, 0.0, 0.0, 0.0, 0.0, 0.0, 0.0, 0.0, 0.0, 0.0, 0.0, 0.0, 0.0, 0.0, 0.0, 0.0, 0.0, 0.0, 0.0, 0.0, 0.0, 0.0, 0.0, 0.0, 0.0, 0.0, 0.0, 0.0, 0.0, 0.0, 0.0, 0.0, 0.0, 0.0, 0.0, 0.0, 0.0, 0.0, 0.0, 0.0, 0.0, 0.0, 0.0, 0.0, 0.0, 0.0, 0.0, 0.0, 0.0, 0.0, 0.0, 0.0, 0.0, 0.0, 0.0, 0.0, 0.0, 0.0, 0.0, 0.0, 0.0, 0.0, 0.0, 0.0, 0.0, 0.0, 0.0, 0.0, 0.0, 0.0, 0.0, 0.0, 0.0, 0.0, 0.0, 0.0, 0.0, 0.0, 0.0, 0.0, 0.0, 0.0, 0.0, 0.0, 0.0, 0.0, 0.0, 0.0, 0.0, 0.0, 0.0, 0.0, 0.0, 0.0, 0.0, 0.0, 0.0, 0.0, 0.0, 0.0, 0.0, 0.0, 0.0, 0.0, 0.0, 0.0, 0.0, 0.0, 0.0, 0.0, 0.0, 0.0, 0.0, 0.0, 0.0, 0.0, 0.0, 0.0, 0.0, 0.0, 0.0, 0.0, 0.0, 0.0, 0.0, 0.0, 0.0, 0.0, 0.0, 0.0, 0.0, 0.0, 0.0, 0.0, 0.0, 0.0, 0.0, 0.0, 0.0, 0.0, 0.0, 0.0, 0.0, 0.0, 0.0, 0.0, 0.0, 0.0, 0.0, 0.0, 0.0, 0.0, 0.0, 0.0, 0.0, 0.0, 0.0, 0.0, 0.0, 0.0, 0.0, 0.0, 0.0, 0.0, 0.0, 0.0, 0.0, 0.0, 0.0, 0.0, 0.0, 0.0, 0.0, 0.0, 0.0, 0.0, 0.0, 0.0, 0.0, 0.0, 0.0, 0.0, 0.0, 0.0, 0.0, 0.0, 0.0, 0.0, 0.0, 0.0, 0.0, 0.0, 0.0, 0.0, 0.0, 0.0, 0.0, 0.0, 0.0, 0.0, 0.0, 0.0, 0.0, 0.0, 0.0, 0.0, 0.0, 0.0, 0.0, 0.0, 0.0, 0.0, 0.0, 0.0, 0.0, 0.0, 0.0, 0.0, 0.0, 0.0, 0.0, 0.0, 0.0, 0.0, 0.0, 0.0, 0.0, 0.0, 0.0, 0.0, 0.0, 0.0, 0.0, 0.0, 0.0, 0.0, 0.0, 0.0, 0.0, 0.0, 0.0, 0.0, 0.0, 0.0, 0.0, 0.0, 0.0, 0.0, 0.0, 0.0, 0.0, 0.0, 0.0, 0.0, 0.0, 0.0, 0.0, 0.0, 0.0, 0.0, 0.0],
  "Shots": 4096,
  "Size": 7,
  "Total Algorithm duration [s]": 7963.828,
  "Total Classic duration [s]": 4015.440927794457,
  "Total Quantum duration [s]": 3948.3870722055435
}
