{
  "Circuit execution durations [ms]": [103.0, 101.0, 88.0, 87.0, 94.0, 88.0, 90.0, 91.0, 91.0, 117.0, 116.0, 91.0, 98.0, 87.0, 83.0, 86.0, 92.0, 100.0, 87.0, 88.0, 92.0, 96.0, 90.0, 115.0, 110.0, 92.0, 95.0, 75.0, 148.0, 109.0, 82.0, 88.0, 147.0, 87.0, 111.0, 100.0, 85.0, 96.0, 97.0, 87.0, 103.0, 89.0, 86.0, 86.0, 148.0, 102.0, 92.0, 89.0, 236.0, 99.0, 94.0, 101.0, 135.0, 148.0, 89.0, 92.0, 85.0, 109.0, 88.0, 98.0, 86.0, 86.0, 88.0, 80.0, 95.0, 87.0, 148.0, 98.0, 87.0, 145.0, 96.0, 91.0, 93.0, 99.0, 110.0, 86.0, 100.0, 95.0, 99.0],
  "Depth": 458.0,
  "Expectation Value": -1.977294921875,
  "Optimal Expectation Value": -2.0,
  "Optimizer durations [ms]": [6105.816, 6149.686, 6059.008, 6101.498, 6128.187, 6149.057, 6143.459, 6203.932, 6182.403, 6178.359, 6116.884, 6330.934, 6260.871, 6188.545, 6327.264, 6301.39, 6141.541, 6224.151, 6208.685, 6438.087, 6205.629, 6300.388, 6670.925, 6140.284, 6117.609, 6144.07, 6241.585, 6061.289, 6079.987, 6017.466, 6170.977, 6229.711, 6270.729, 6091.384, 6237.408, 6093.378, 6539.816, 6295.87, 6091.495, 6116.288, 6219.99, 6058.937, 5993.256, 6100.998, 6094.31, 6182.691, 6277.299, 6344.086, 6033.632, 6063.432, 6386.043, 6289.45, 6147.565, 6058.293, 6113.974, 6396.026, 6191.827, 6247.658, 6150.175, 6130.878, 6274.019, 6159.849, 6070.541, 6164.935, 6087.531, 6199.677, 6637.28, 6172.724, 6159.915, 6095.619, 6427.222, 6056.49, 6352.59, 6829.816, 6191.387, 6131.733, 6186.016, 6258.146, 6137.039],
  "Optimizer iterations": 79,
  "Optimizer params": [0.4170964644864775, 0.16030062443568902, 0.15237622876304802, 0.8396000560434339, 0.614569577336282, 0.1642549036436932],
  "P": 3,
  "Problem": "MIS",
  "QJob durations [ms]": [5998.813629150391, 5998.909711837769, 5951.167106628418, 5947.328329086304, 6020.926952362061, 6041.601657867432, 6035.847902297974, 6097.2795486450195, 6028.2838344573975, 6070.671319961548, 5960.873365402222, 6224.045991897583, 6106.94146156311, 6078.763484954834, 6173.826694488525, 6193.434953689575, 6033.921718597412, 6117.131948471069, 6100.080490112305, 6284.588813781738, 6097.156047821045, 6151.382923126221, 6563.790321350098, 5984.992504119873, 6010.215282440186, 5989.809513092041, 6133.916616439819, 5954.084634780884, 5971.442699432373, 5909.222364425659, 6017.364263534546, 6121.667861938477, 6120.20468711853, 5984.519720077515, 6083.930730819702, 5985.483169555664, 6433.042764663696, 6187.393665313721, 5982.484340667725, 5962.158203125, 6112.649917602539, 5904.227733612061, 5885.748624801636, 5951.286554336548, 5986.945629119873, 6030.867338180542, 6170.537710189819, 6235.720872879028, 5926.702976226807, 5956.879138946533, 6230.740547180176, 6182.945728302002, 5991.4870262146, 5950.482368469238, 5962.970018386841, 6288.183689117432, 6038.963556289673, 6140.026807785034, 6042.588949203491, 6023.629426956177, 6165.75288772583, 6006.3536167144775, 5963.42921257019, 6009.19508934021, 5979.525804519653, 6048.257350921631, 6530.3449630737305, 6019.722938537598, 6051.716566085815, 5987.388610839844, 6319.861173629761, 5947.511672973633, 6197.709321975708, 6721.442222595215, 6036.083936691284, 6023.194074630737, 6034.181356430054, 6150.583505630493, 5983.386516571045],
  "QPU": "10000001",
  "Qubits": 11,
  "Queue durations [ms]": [0.0, 0.0, 0.0, 0.0, 0.0, 0.0, 0.0, 0.0, 0.0, 0.0, 0.0, 0.0, 0.0, 0.0, 0.0, 0.0, 0.0, 0.0, 0.0, 0.0, 0.0, 0.0, 0.0, 0.0, 0.0, 0.0, 0.0, 0.0, 0.0, 0.0, 0.0, 0.0, 0.0, 0.0, 0.0, 0.0, 0.0, 0.0, 0.0, 0.0, 0.0, 0.0, 0.0, 0.0, 0.0, 0.0, 0.0, 0.0, 0.0, 0.0, 0.0, 0.0, 0.0, 0.0, 0.0, 0.0, 0.0, 0.0, 0.0, 0.0, 0.0, 0.0, 0.0, 0.0, 0.0, 0.0, 0.0, 0.0, 0.0, 0.0, 0.0, 0.0, 0.0, 0.0, 0.0, 0.0, 0.0, 0.0, 0.0],
  "Shots": 4096,
  "Size": 8,
  "Total Algorithm duration [s]": 490.129,
  "Total Classic duration [s]": 9.831073335647602,
  "Total Quantum duration [s]": 480.2979266643524
}
