{
  "Depth": 2.0,
  "Job durations [ms]": [500.2187490463257, 450.5828619003296, 468.50311756134033, 455.77454566955566, 461.0137939453125, 447.40450382232666, 462.66162395477295, 446.36309146881104, 473.5283851623535, 455.7969570159912, 457.4253559112549, 475.7223129272461, 458.91499519348145, 445.33276557922363, 470.46220302581787, 457.46469497680664, 453.02605628967285, 473.2564687728882, 451.546311378479, 455.2963972091675, 464.83445167541504, 451.2600898742676, 466.04061126708984, 453.11427116394043, 466.99488162994385, 447.77679443359375, 455.1936388015747, 455.0797939300537, 456.98583126068115, 450.9153366088867, 452.83031463623047, 451.28846168518066, 447.07190990448, 447.32439517974854, 452.2053003311157, 443.3598518371582, 459.16879177093506, 449.7729539871216, 451.5472650527954, 448.57001304626465, 447.47090339660645, 443.9663887023926, 443.6866044998169, 458.0104351043701, 448.5776424407959, 460.8801603317261, 451.79879665374756, 451.04527473449707, 451.9420862197876, 458.3477973937988, 442.94261932373047, 448.1174945831299, 449.8494863510132, 458.26101303100586, 458.0845832824707, 611.1862659454346, 450.8310556411743, 439.8382902145386, 460.91926097869873, 451.22766494750977, 454.89978790283203, 462.93163299560547, 457.0735692977905, 446.0620880126953, 609.7275018692017, 617.253303527832, 450.60646533966064, 472.8611707687378, 457.11660385131836, 456.11512660980225, 455.0347328186035, 449.0851163864136, 453.7290334701538, 471.51410579681396, 455.2788734436035, 454.40399646759033, 609.7613573074341, 452.4223804473877, 454.1785717010498, 467.0288562774658, 457.0927619934082, 455.7558298110962, 455.93249797821045, 458.8313102722168, 458.42552185058594, 455.8526277542114, 456.59804344177246, 456.432580947876, 450.3530263900757, 441.1633014678955, 449.8114585876465, 460.80756187438965, 445.1606273651123, 460.28029918670654, 458.5301876068115, 449.6403932571411, 451.0669708251953, 444.6439743041992, 444.06962394714355, 450.36280155181885, 491.90080165863037, 544.438362121582, 443.7059164047241, 447.02422618865967, 442.6560401916504, 451.8578052520752, 450.4060745239258, 444.0845251083374, 453.6855220794678, 456.966757774353, 448.91035556793213, 459.20586585998535, 458.23919773101807, 457.0622444152832, 444.96095180511475],
  "Optimizer durations [ms]": [3523.054, 3125.297, 3227.107, 3359.698, 3291.113, 3151.636, 3268.62, 3132.867, 3374.724, 3420.488, 3197.135, 3296.385, 3214.595, 3164.755, 3393.446, 3206.086, 3369.992, 3192.423, 3190.731, 3307.234, 3197.067, 3383.023, 3261.098, 3211.567, 3276.87, 3290.775, 3409.416, 3363.34, 3397.714, 3336.939, 3367.948, 3368.128, 3336.363, 3372.788, 3343.62, 3305.698, 3355.411, 3432.041, 3353.298, 3358.578, 3388.146, 3297.314, 3324.454, 3436.307, 3317.961, 3382.495, 3368.627, 3339.773, 3378.277, 3437.713, 3345.604, 3355.607, 3383.013, 3387.025, 3415.324, 3733.8, 3328.855, 3333.559, 3385.023, 3335.98, 3394.937, 3409.065, 3391.596, 3358.525, 3721.017, 3830.14, 3364.344, 3402.488, 3437.378, 3382.916, 3393.101, 3423.167, 3364.762, 3397.371, 3395.592, 3378.707, 3713.553, 3337.997, 3339.544, 3407.389, 3355.897, 3423.782, 3381.126, 3400.657, 3368.342, 3400.028, 3410.846, 3364.199, 3349.607, 3327.904, 3394.25, 3379.177, 3324.942, 3441.672, 3389.525, 3361.657, 3418.484, 3351.365, 3331.327, 3371.108, 3456.956, 3516.248, 3339.645, 3350.291, 3329.337, 3366.46, 3360.173, 3339.092, 3402.147, 3411.583, 3329.229, 3377.461, 3383.669, 3378.559, 3397.985],
  "Optimizer iterations": 115,
  "Qubits": 7,
  "Total Algorithm duration [s]": 386.932,
  "Total Classic duration [s]": 333.8903857059479,
  "Total Quantum duration [s]": 53.041614294052124,
  "Expectation Value": -4.272301197052002,
  "Optimal Expectation Value": -4.281300067901611,
  "Optimizer params": [0.9866954988903973, 0.5057192573081862, 0.9841363999779837, 0.4980534754063757, 0.4975785060232321, 0.9981841343592139, 0.49925269005502665],
  "QPU": "6010003",
  "Problem": "RH",
  "Size": 7,
  "P": 0,
  "Shots": 4096
}