{
  "Circuit execution durations [ms]": [52.16193199157715, 49.74019527435303, 52.129268646240234, 50.812602043151855, 77.73542404174805, 51.596760749816895, 53.16793918609619, 52.78587341308594, 77.4470567703247, 50.69935321807861, 54.87406253814697, 49.518585205078125, 55.470824241638184, 53.383469581604004, 75.68049430847168, 54.28767204284668, 53.48515510559082, 52.22272872924805, 55.32634258270264, 50.93693733215332, 51.473140716552734, 74.74231719970703, 53.96604537963867, 53.23147773742676, 52.59120464324951, 50.99201202392578, 53.42984199523926, 76.14302635192871, 49.51071739196777, 50.8805513381958, 51.97155475616455, 49.53646659851074, 53.34746837615967, 52.1547794342041, 74.78833198547363, 49.91269111633301, 52.49476432800293, 51.21266841888428, 51.89955234527588, 51.569461822509766, 55.16457557678223, 51.51069164276123, 49.74675178527832, 53.9553165435791, 76.60961151123047, 48.82633686065674, 49.23689365386963, 49.35586452484131, 51.55956745147705, 55.10997772216797, 49.96967315673828, 77.24380493164063, 50.27627944946289, 51.78177356719971, 51.715970039367676, 51.759958267211914, 50.07588863372803, 74.81110095977783, 51.9787073135376, 51.30302906036377, 51.632046699523926, 51.53930187225342],
  "Depth": 2.0,
  "Expectation Value": -1.6083701848983765,
  "Optimal Expectation Value": -2.7446999549865723,
  "Optimizer durations [ms]": [506.728, 498.714, 547.518, 499.49, 507.549, 504.251, 548.847, 502.688, 506.723, 502.519, 558.348, 498.097, 510.662, 508.208, 553.161, 509.225, 506.376, 504.969, 510.183, 543.582, 499.457, 501.582, 514.741, 550.923, 504.569, 495.902, 508.458, 549.918, 503.364, 497.195, 505.266, 497.879, 549.879, 500.718, 501.626, 500.345, 549.172, 501.184, 498.586, 504.884, 559.942, 504.195, 495.571, 509.571, 552.123, 497.914, 497.168, 500.502, 504.811, 553.493, 497.103, 505.229, 501.189, 548.477, 501.517, 498.762, 503.632, 547.327, 503.597, 498.002, 503.311, 502.671],
  "Optimizer iterations": 62,
  "Optimizer params": [0.005900538495057883, 0.5067641938757992, 0.9999388028959278, 0.0010361790782949807, 0.4987654163403524],
  "P": 0,
  "Problem": "RH",
  "QJob durations [ms]": [61.79046630859375, 59.62789058685303, 61.752915382385254, 60.456275939941406, 87.39650249481201, 61.206698417663574, 62.995314598083496, 62.371015548706055, 87.07249164581299, 60.36484241485596, 89.96427059173584, 59.11850929260254, 65.08588790893555, 62.97874450683594, 86.36939525604248, 63.9570951461792, 63.025593757629395, 86.88175678253174, 64.92292881011963, 60.45067310333252, 61.09654903411865, 84.59091186523438, 63.73000144958496, 62.8514289855957, 62.22820281982422, 60.48095226287842, 63.08412551879883, 85.83784103393555, 59.16416645050049, 60.53924560546875, 61.606526374816895, 58.88402462005615, 63.152313232421875, 61.66112422943115, 84.4341516494751, 59.73243713378906, 62.302589416503906, 60.77873706817627, 61.57064437866211, 61.1797571182251, 89.97929096221924, 61.102867126464844, 59.26191806793213, 63.64560127258301, 86.3029956817627, 58.408498764038086, 58.86566638946533, 83.9923620223999, 61.560630798339844, 64.82470035552979, 59.53323841094971, 86.78781986236572, 60.17029285430908, 61.44869327545166, 61.28895282745361, 61.435818672180176, 59.77356433868408, 84.4731330871582, 61.65969371795654, 61.299800872802734, 61.266422271728516, 61.4551305770874],
  "QPU": "3000017",
  "Qubits": 5,
  "Queue durations [ms]": [0.0, 0.0, 0.0, 0.0, 0.0, 0.0, 0.0, 0.0, 0.0, 0.0, 0.0, 0.0, 0.0, 0.0, 0.0, 0.0, 0.0, 0.0, 0.0, 0.0, 0.0, 0.0, 0.0, 0.0, 0.0, 0.0, 0.0, 0.0, 0.0, 0.0, 0.0, 0.0, 0.0, 0.0, 0.0, 0.0, 0.0, 0.0, 0.0, 0.0, 0.0, 0.0, 0.0, 0.0, 0.0, 0.0, 0.0, 0.0, 0.0, 0.0, 0.0, 0.0, 0.0, 0.0, 0.0, 0.0, 0.0, 0.0, 0.0, 0.0, 0.0, 0.0],
  "Shots": 4096,
  "Size": 5,
  "Total Algorithm duration [s]": 31.849,
  "Total Classic duration [s]": 27.713767909049988,
  "Total Quantum duration [s]": 4.135232090950012
}
