{
  "Circuit execution durations [ms]": [51.53191089630127, 50.51863193511963, 52.29806900024414, 75.31750202178955, 52.309632301330566, 51.2845516204834, 49.12292957305908, 52.902936935424805, 52.809715270996094, 77.09324359893799, 50.50551891326904, 53.04563045501709, 49.65674877166748, 49.401283264160156, 50.805091857910156, 50.298333168029785, 75.05607604980469, 52.34050750732422, 52.58071422576904, 50.82237720489502, 76.23600959777832, 49.309372901916504, 52.678585052490234, 50.1023530960083, 49.738526344299316, 51.51259899139404, 76.38657093048096, 52.380919456481934, 54.33464050292969, 50.819993019104004, 50.82523822784424, 55.01198768615723, 49.42512512207031, 76.19643211364746, 49.25537109375, 51.64742469787598, 52.50144004821777, 50.6671667098999, 51.834940910339355, 74.22137260437012, 52.14953422546387, 52.37078666687012, 52.97505855560303, 53.57682704925537, 51.842570304870605, 54.19445037841797, 76.81429386138916, 52.25932598114014, 51.17011070251465, 52.816033363342285, 78.94372940063477, 50.49633979797363, 53.829193115234375, 52.77574062347412, 53.46798896789551, 51.334381103515625, 79.0489912033081, 51.80799961090088, 51.935434341430664, 53.52902412414551, 57.07848072052002, 51.62370204925537, 50.888776779174805, 77.18110084533691, 54.2072057723999, 53.05004119873047, 53.01964282989502, 50.22227764129639],
  "Depth": 2.0,
  "Expectation Value": -2.5179357528686523,
  "Optimal Expectation Value": -2.7446999549865723,
  "Optimizer durations [ms]": [504.608, 543.45, 503.056, 502.982, 506.033, 547.368, 497.455, 499.462, 509.547, 554.738, 502.078, 501.498, 500.995, 497.882, 547.561, 498.47, 501.577, 505.758, 548.936, 501.332, 504.738, 501.546, 552.973, 500.815, 497.693, 504.353, 551.238, 506.526, 506.962, 503.769, 501.785, 552.557, 497.983, 505.08, 499.781, 546.901, 506.592, 495.818, 507.155, 547.811, 505.36, 502.414, 508.221, 507.874, 547.555, 506.966, 505.592, 506.541, 548.034, 503.94, 509.806, 503.796, 554.423, 507.798, 504.685, 503.392, 561.591, 509.182, 505.435, 515.299, 519.252, 553.196, 502.453, 506.405, 510.443, 557.121, 505.8, 496.902],
  "Optimizer iterations": 68,
  "Optimizer params": [0.9957278534355165, 0.514250823931576, 0.04945478419111468, 0.5029137532435233, 0.45106179652408196],
  "P": 0,
  "Problem": "RH",
  "QJob durations [ms]": [61.13731861114502, 60.148000717163086, 61.91098690032959, 84.96344089508057, 62.06536293029785, 60.849547386169434, 58.6848258972168, 62.49237060546875, 62.50786781311035, 87.54408359527588, 60.05454063415527, 62.853097915649414, 59.281229972839355, 59.20565128326416, 60.4473352432251, 59.90755558013916, 84.72812175750732, 61.97988986968994, 62.433600425720215, 60.851335525512695, 85.94989776611328, 59.029459953308105, 87.33701705932617, 59.795260429382324, 59.45181846618652, 61.06460094451904, 86.01880073547363, 61.914801597595215, 63.98475170135498, 85.62374114990234, 60.37545204162598, 64.6907091140747, 59.06355381011963, 85.89279651641846, 59.0977668762207, 61.25819683074951, 62.23785877227783, 60.300230979919434, 61.44213676452637, 83.92441272735596, 61.809420585632324, 62.26217746734619, 62.600016593933105, 63.494205474853516, 61.54739856719971, 63.88139724731445, 86.42852306365967, 62.00206279754639, 61.06436252593994, 62.45696544647217, 88.57882022857666, 60.0358247756958, 88.57488632202148, 62.45064735412598, 63.13920021057129, 61.01679801940918, 88.9061689376831, 61.54072284698486, 61.681509017944336, 90.04461765289307, 66.90847873687744, 61.335086822509766, 60.633301734924316, 86.85576915740967, 64.23056125640869, 62.73066997528076, 62.65556812286377, 60.42671203613281],
  "QPU": "3000017",
  "Qubits": 5,
  "Queue durations [ms]": [0.0, 0.0, 0.0, 0.0, 0.0, 0.0, 0.0, 0.0, 0.0, 0.0, 0.0, 0.0, 0.0, 0.0, 0.0, 0.0, 0.0, 0.0, 0.0, 0.0, 0.0, 0.0, 0.0, 0.0, 0.0, 0.0, 0.0, 0.0, 0.0, 0.0, 0.0, 0.0, 0.0, 0.0, 0.0, 0.0, 0.0, 0.0, 0.0, 0.0, 0.0, 0.0, 0.0, 0.0, 0.0, 0.0, 0.0, 0.0, 0.0, 0.0, 0.0, 0.0, 0.0, 0.0, 0.0, 0.0, 0.0, 0.0, 0.0, 0.0, 0.0, 0.0, 0.0, 0.0, 0.0, 0.0, 0.0, 0.0],
  "Shots": 4096,
  "Size": 5,
  "Total Algorithm duration [s]": 35.036,
  "Total Classic duration [s]": 30.47420869922638,
  "Total Quantum duration [s]": 4.561791300773621
}
