{
  "Circuit execution durations [ms]": [23040.339708328247, 24402.466773986816, 23868.46685409546, 22601.452589035034, 22669.599533081055, 23124.367475509644, 22634.356260299683, 22561.755418777466, 22687.77298927307, 22775.416374206543, 22809.066772460938, 23825.63018798828, 25442.172288894653, 23442.148447036743, 23442.256927490234, 22658.493995666504, 22739.31050300598, 24221.77743911743, 23004.023790359497, 23315.80138206482, 25977.6451587677, 23202.8067111969, 22733.562231063843, 22929.210901260376, 23026.56841278076, 24806.966066360474, 24195.94669342041, 23092.72027015686, 23896.77596092224, 23259.3514919281, 25471.611738204956, 23557.960748672485, 24545.75228691101, 22970.906734466553, 22506.569862365723, 24246.148586273193, 22690.853118896484, 23861.327171325684, 22817.54231452942, 23669.474363327026, 23185.216903686523, 23523.164987564087, 23471.8337059021, 23079.359769821167, 22537.680625915527, 23215.572357177734, 24638.707399368286, 22762.821435928345, 22901.103258132935, 22903.751373291016, 23988.502740859985, 22677.513122558594, 23719.809532165527, 22634.573936462402, 23236.119031906128, 22812.947273254395, 22713.07396888733, 23650.56872367859, 23614.835739135742, 23235.859155654907, 23577.430963516235, 24181.339263916016, 22811.206817626953, 22812.835454940796, 23721.116065979004, 24291.117429733276, 22574.162006378174, 22662.274837493896, 22937.031984329224, 22567.25811958313, 22793.38502883911, 22275.22373199463, 22865.959405899048, 22833.95028114319, 23893.555402755737, 22037.49108314514, 22942.768573760986, 25002.67004966736, 23574.401140213013, 23013.569831848145, 24326.278686523438, 25404.6950340271, 26249.934673309326, 23409.32559967041, 22805.281400680542, 24280.715942382813, 23083.9421749115, 23516.32261276245, 22974.414110183716, 25285.51745414734, 23605.92794418335, 23381.98184967041, 23197.840929031372, 22979.36987876892, 23310.630798339844, 22712.94116973877, 23115.235090255737, 22805.173873901367, 22795.559406280518, 22742.68078804016, 25816.714763641357, 22703.26828956604, 22513.747692108154, 23643.48340034485, 23348.020315170288, 23259.783506393433, 24395.604848861694, 23156.482934951782],
  "Depth": 80.0,
  "Expectation Value": -6.57421875,
  "Optimal Expectation Value": -3.0,
  "Optimizer durations [ms]": [26313.546, 27434.59, 26936.289, 25405.613, 25826.881, 26148.091, 25484.087, 25749.976, 26311.898, 26010.611, 25698.41, 27191.053, 28361.637, 26663.434, 26443.536, 26053.503, 25903.744, 27209.371, 26094.14, 26341.624, 29024.078, 26639.347, 25724.078, 25891.219, 25983.904, 27717.127, 27131.5, 26279.643, 26892.889, 26455.458, 29101.171, 27148.634, 27379.499, 26041.652, 25716.024, 27235.499, 25948.78, 26886.077, 25711.807, 26618.729, 26986.427, 26787.942, 26385.518, 26097.429, 25709.31, 26269.665, 27606.044, 26946.823, 25886.427, 25802.24, 27057.607, 26555.327, 26667.912, 25863.503, 26203.266, 25869.932, 26585.054, 26462.955, 26751.777, 26891.847, 26435.559, 27164.609, 25908.164, 25898.217, 26720.236, 27337.548, 25447.243, 26163.405, 26341.861, 25664.374, 25979.911, 25546.95, 25674.72, 25858.322, 26750.625, 25215.841, 26099.689, 27734.82, 26534.307, 26005.021, 27781.221, 28427.858, 29382.639, 26714.846, 26189.281, 27218.754, 26301.686, 26403.673, 25835.054, 28373.777, 26690.758, 26435.966, 26313.435, 26271.834, 26458.324, 25908.62, 26210.855, 25780.083, 25615.909, 25974.182, 28736.502, 25617.637, 25428.199, 26605.907, 26733.741, 26255.957, 27735.632, 26009.041],
  "Optimizer iterations": 108,
  "Optimizer params": [0.5965682509557855, 0.507888878526723, 0.9348540945931195, 0.9193231078421217, 0.7884145368145812, 0.4723055643567149],
  "P": 3,
  "Problem": "TSP",
  "QJob durations [ms]": [26294.292449951172, 27416.396141052246, 26913.963794708252, 25384.489059448242, 25807.515382766724, 26127.613306045532, 25462.32771873474, 25731.943607330322, 26291.01300239563, 25991.300106048584, 25680.630922317505, 27166.19896888733, 28330.113887786865, 26628.572702407837, 26421.255350112915, 26026.49235725403, 25872.832775115967, 27189.225912094116, 26064.322233200073, 26320.84012031555, 29003.412008285522, 26615.904331207275, 25704.704523086548, 25861.670970916748, 25962.004899978638, 27696.07138633728, 27111.010789871216, 26260.887622833252, 26874.02629852295, 26436.75684928894, 29064.738273620605, 27035.840272903442, 27354.43878173828, 26023.829221725464, 25694.130420684814, 27158.400774002075, 25928.61008644104, 26847.35608100891, 25689.066171646118, 26585.69836616516, 26957.78727531433, 26765.097856521606, 26367.22493171692, 26078.11975479126, 25690.95730781555, 26246.28257751465, 27577.443599700928, 26928.308486938477, 25868.31045150757, 25780.449628829956, 27039.39723968506, 26537.423133850098, 26650.27928352356, 25834.50675010681, 26180.909872055054, 25824.17869567871, 26562.407970428467, 26440.89984893799, 26723.13904762268, 26868.528366088867, 26413.47026824951, 27135.969161987305, 25879.732608795166, 25877.89750099182, 26699.378490447998, 27315.179109573364, 25426.661729812622, 26137.768030166626, 26322.858572006226, 25637.75897026062, 25960.908889770508, 25528.90396118164, 25656.70680999756, 25835.936307907104, 26732.699155807495, 25193.431615829468, 26078.400135040283, 27712.473392486572, 26506.288766860962, 25985.461235046387, 27758.45170021057, 28403.33366394043, 29358.372926712036, 26670.120000839233, 26165.63582420349, 27197.317838668823, 26283.27441215515, 26384.895086288452, 25817.21043586731, 28350.626468658447, 26584.821939468384, 26416.932821273804, 26291.415691375732, 26248.215198516846, 26376.247882843018, 25886.969804763794, 26189.91994857788, 25757.856130599976, 25578.062057495117, 25948.363065719604, 28711.432933807373, 25591.470956802368, 25398.75888824463, 26582.71884918213, 26713.693141937256, 26233.94799232483, 27717.618703842163, 25981.76860809326],
  "QPU": "6010030",
  "Qubits": 9,
  "Shots": 4096,
  "Size": 3,
  "Total Algorithm duration [s]": 2864.389,
  "Total Classic duration [s]": 2.800112308502321,
  "Total Quantum duration [s]": 2861.588887691498
}
