{
  "Depth": 20.5,
  "Job durations [ms]": [0.5336500034900382, 0.5389500001911074, 0.528350006788969, 0.480200003948994, 0.49234999460168183, 0.48365000111516565, 0.5167500057723373, 0.4923999949824065, 0.5140999855939299, 0.4981499951099977, 0.49509998643770814, 0.5088500038255006, 0.48829999286681414, 0.5750000127591193, 0.6399000121746212, 0.4592000041157007, 0.5644999910145998, 0.4660500126192346, 0.5507500027306378, 0.5334499874152243, 0.6097500154282898, 0.524800008861348, 0.498099994729273, 0.5113000079290941, 0.6216999900061637, 0.6221499934326857, 0.48534999950788915, 0.49279999802820385, 0.48874999629333615, 0.5284000071696937, 0.49020000733435154, 0.5036000075051561, 0.5013000045437366, 0.5426999996416271, 0.48424999113194644, 0.49739998939912766, 0.5089999904157594, 0.4901999927824363, 0.49340000259689987, 0.5014000198571011, 0.5409499863162637, 0.4927500121993944, 0.5191500240471214, 0.5393500032369047, 0.5007000145269558, 0.5057499947724864, 0.4945499822497368, 0.49300001410301775, 0.4965999978594482, 0.5296000017551705, 0.5172499950276688, 0.49679999938234687, 0.507999982801266, 0.4842999915126711, 0.5260500183794647, 0.49759999092202634, 0.5111999926157296, 0.48899998364504427, 0.50224999722559, 0.5052499909652397, 0.4938000056426972, 0.5252000119071454, 0.5026500148233026, 0.5081500130472705, 0.4963500105077401, 0.5322500073816627, 0.501049988088198, 0.5026500148233026, 0.5002000252716243, 0.4959999932907522, 0.5406500131357461, 0.5994500097585842, 0.5502500134753063, 0.4966500127920881, 0.4937499907100573, 0.5477500089909881, 0.512950005941093, 0.5278000026009977, 0.509550009155646, 0.5109000048832968, 0.491150000016205, 0.4999499942641705, 0.525100011145696, 0.49340000259689987, 0.5055500078015029, 0.49085001228377223, 0.5334500165190548, 0.49584999214857817, 0.49089998356066644, 0.48314999730791897, 0.493499988806434, 0.5120999994687736, 0.49109999963548034, 0.5236000142758712, 0.49350001791026443, 0.4853500140598044, 0.6474499823525548, 0.6522000185213983, 0.4667000030167401, 0.6870499928481877, 0.6430999783333391, 0.5959999980404973, 0.5461999826366082, 0.6312000041361898, 0.5432000034488738, 0.4965999978594482, 0.5696500011254102, 0.5235499847913161, 0.5119999987073243, 0.5114500090712681, 0.527750002220273, 0.5047000013291836, 0.4933500022161752, 0.5363499803934246, 0.5180500156711787, 0.49535001744516194, 0.48745000094641, 0.566999995498918, 0.5159999855095521, 0.5244999920250848, 0.5048499879194424, 0.6338000093819574, 0.5480499967234209, 0.4923999949824065, 0.4786999925272539, 0.494399995659478, 0.5878999800188467, 0.4929500137222931, 0.530999997863546, 0.697649986250326, 0.5708499811589718, 0.4973500035703182, 0.4918999911751598, 0.483600000734441, 0.491300001158379, 0.4877499886788428, 0.49250001029577106, 0.5086500023026019, 0.51635000272654, 0.4978499928256497, 0.49860001308843493, 0.5481999978655949, 0.4983500111848116, 0.4897499893559143, 0.5087500176159665, 0.5256000004010275, 0.5089000042062253, 0.5017000075895339, 0.49185000534635037, 0.5091999773867428, 0.4956499906256795, 0.5788500129710883, 0.5462499975692481, 0.49574999138712883, 0.4921999934595078, 0.5140499997651204, 0.5279999895719811, 0.4986999847460538, 0.494249994517304, 0.538099993718788, 0.49369999032933265, 0.4911499854642898, 0.5040499963797629, 0.5136999971000478, 0.4919499915558845, 0.4858999891439453, 0.5240000027697533, 0.5016999930376187, 0.49104998470284045, 0.530699995579198, 0.5378499918151647, 0.49169998965226114, 0.5006499995943159, 0.504899988300167, 0.5086000164737925, 0.4924000095343217, 0.6560000038007274, 0.4743999888887629, 0.6280999950831756, 0.5357500049285591, 0.5947499885223806, 0.5748000112362206, 0.5706499796360731, 0.6594999867957085, 0.4913500160910189, 0.49784997827373445, 0.47020001511555165, 0.4945999971823767, 0.6673500029137358, 0.5290999979479238, 0.5030500178691, 0.4853500140598044, 0.49634999595582485, 0.49149998812936246, 0.49360000411979854, 0.49375000526197255, 0.5085500015411526, 0.5254999996395782, 0.5086000019218773, 0.5142999871168286, 0.5157000123290345, 0.5072999920230359, 0.49930000386666507, 0.5037500086473301, 0.5181000160519034, 0.49104998470284045, 0.5350999999791384, 0.5053499771747738, 0.5210000090301037, 0.48659999447409064, 0.5001000099582598, 0.5183500034036115, 0.506600015796721, 0.49625000974629074, 0.5163000023458153, 0.4996999923605472, 0.49580002087168396, 0.49575000593904406, 0.5341999931260943, 0.4990500019630417, 0.5046000005677342, 0.5155000108061358, 0.49190000572707504, 0.5112000071676448, 0.49569999100640416, 0.5031500040786341, 0.5365500110201538, 0.4911499854642898, 0.4946499830111861, 0.519149994943291, 0.5010000168113038, 0.50074998580385, 0.49510000098962337, 0.4950500006088987, 0.5031499895267189, 0.501349990372546, 0.5120000132592395, 0.5066000012448058, 0.49854999815579504, 0.49869999929796904, 0.5129000055603683, 0.5042500124545768, 0.5019000091124326, 0.5315499874996021, 0.5385500116972253, 0.49479999870527536, 0.4926000110572204, 0.5141999863553792, 0.49220000801142305, 0.5052499764133245, 0.48844999400898814, 0.53779999143444, 0.5102499853819609, 0.5006499995943159, 0.5210499948589131, 0.5000499950256199, 0.5002000107197091, 0.48484998114872724, 0.5323500081431121, 0.4935000033583492, 0.6596500024897978, 0.6547000084538013, 0.46239999937824905, 0.6593499856535345, 0.6734500057063997, 0.5637499853037298, 0.6402999861165881, 0.5446499999379739, 0.5047500017099082, 0.5058000097051263, 0.5548500048462301, 0.5951999919489026, 0.4934499884257093, 0.5001499957870692, 0.4956500051775947, 0.5592000088654459, 0.49515001592226326, 0.5008000007364899, 0.6041499873390421, 0.4994000046281144, 0.4918000049656257, 0.4967499990016222, 0.5124999879626557, 0.4952999879606068, 0.4797000146936625, 0.4955500189680606, 0.5195999838178977, 0.4941500083077699, 0.49175000458490103, 0.5081999988760799, 0.4933500022161752, 0.49875001423060894, 0.5192000098759308, 0.5328499973984435, 0.4929500137222931, 0.486849996377714, 0.522399990586564, 0.5018499941797927, 0.4996000061510131, 0.5044999998062849, 0.5284000071696937, 0.49950000538956374, 0.49455001135356724, 0.48814999172464013, 0.5022500117775053, 0.48889998288359493, 0.5062499840278178, 0.5381500086514279, 0.49930000386666507, 0.524500006577, 0.5018500087317079, 0.5834999901708215, 0.497349989018403, 0.4928999987896532, 0.49249999574385583, 0.48814999172464013, 0.49760000547394156, 0.49759999092202634, 0.5307499959599227, 0.5076999950688332, 0.4991000168956816, 0.5224499909672886, 0.5208500078879297, 0.5042000120738521, 0.5052500200690702, 0.5273000133456662, 0.519299996085465, 0.49879998550750315, 0.49569999100640416, 0.5108500045025721, 0.520350004080683, 0.49770002078730613, 0.5233499978203326, 0.4991000023437664, 0.48775001778267324, 0.5026500002713874, 0.49569999100640416, 0.5479500105138868, 0.5008000007364899, 0.4969500005245209, 0.5324000085238367, 0.49560000479687005, 0.5084000003989786, 0.5270999827189371, 0.5794000171590596, 0.6379499973263592, 0.46910002129152417, 0.6066500063752756, 0.6726999999955297, 0.6739000091329217, 0.5913499917369336, 0.5021999968448654, 0.49494999984744936, 0.501349990372546, 0.5640999879688025, 0.6142999918665737, 0.49894998664967716, 0.4948499845340848, 0.4933500022161752, 0.4955999902449548, 0.5027499864809215, 0.49649998254608363, 0.5752499855589122, 0.5032000044593588, 0.5022000113967806, 0.4530000005615875, 0.5459999956656247, 0.540899985935539, 0.49780000699684024, 0.4945000109728426, 0.6363999855238944, 0.45325000246521086],
  "Optimizer durations [ms]": [11.889, 11.772, 11.413, 10.556, 10.746, 10.711, 11.387, 10.964, 11.097, 11.006, 10.818, 11.271, 10.46, 17.873, 15.1, 23.754, 13.551, 25.353, 11.861, 11.27, 15.621, 12.822, 11.082, 11.244, 25.441, 13.816, 10.638, 10.577, 10.841, 11.713, 10.891, 10.574, 11.156, 11.631, 11.148, 10.873, 11.138, 10.884, 10.887, 11.093, 11.62, 12.074, 20.563, 11.598, 11.02, 10.86, 10.776, 10.776, 11.09, 11.776, 11.416, 11.136, 10.748, 10.634, 11.317, 11.058, 10.838, 10.626, 11.035, 10.709, 11.126, 11.25, 11.41, 11.079, 10.736, 11.401, 11.089, 10.684, 10.668, 11.844, 11.893, 13.348, 18.039, 11.016, 10.705, 11.998, 11.49, 11.529, 10.924, 11.062, 10.739, 10.856, 11.419, 11.121, 10.638, 11.181, 11.493, 10.572, 11.031, 10.792, 10.697, 11.105, 10.765, 11.533, 10.799, 10.497, 13.609, 16.968, 21.437, 18.458, 23.498, 12.446, 12.052, 17.711, 11.585, 10.717, 14.351, 14.307, 11.094, 11.335, 15.154, 10.877, 13.035, 11.724, 11.009, 11.005, 10.453, 11.875, 21.867, 18.434, 11.125, 13.609, 11.611, 10.576, 29.667, 11.002, 12.869, 10.94, 11.311, 18.237, 24.904, 10.576, 10.619, 10.271, 11.006, 10.724, 10.819, 11.095, 11.231, 10.722, 10.607, 12.019, 10.663, 10.538, 11.414, 11.486, 10.933, 10.622, 10.714, 10.66, 10.942, 12.326, 11.855, 10.728, 10.753, 11.363, 11.699, 10.701, 10.839, 11.367, 10.859, 10.585, 11.078, 11.407, 10.754, 11.354, 11.487, 11.157, 10.941, 11.218, 11.605, 10.695, 10.917, 11.382, 11.141, 10.629, 14.004, 18.891, 14.191, 22.196, 12.739, 23.473, 12.105, 20.673, 11.808, 10.583, 15.86, 23.654, 14.789, 11.344, 10.882, 11.208, 11.006, 10.625, 10.956, 10.779, 11.096, 11.515, 10.868, 11.279, 10.84, 11.18, 10.649, 10.925, 11.55, 10.812, 11.732, 11.02, 18.209, 10.8, 10.537, 11.59, 10.879, 10.485, 16.423, 11.009, 10.97, 11.009, 11.529, 10.945, 10.968, 10.791, 10.951, 11.253, 10.882, 10.888, 11.522, 10.757, 10.842, 11.397, 11.057, 10.773, 10.589, 11.162, 10.814, 10.965, 13.29, 11.194, 11.163, 10.663, 11.066, 11.056, 11.074, 11.323, 11.604, 10.919, 10.642, 11.382, 10.992, 11.016, 10.654, 11.871, 10.993, 11.123, 11.551, 11.04, 10.937, 10.574, 11.476, 10.57, 15.629, 14.289, 18.285, 19.866, 19.203, 12.47, 13.633, 11.908, 11.252, 11.047, 12.157, 16.147, 25.919, 10.959, 10.914, 11.822, 11.03, 11.035, 13.136, 10.674, 10.305, 10.881, 11.174, 10.978, 10.782, 10.889, 11.362, 10.799, 10.623, 11.259, 10.553, 10.701, 11.334, 11.762, 16.474, 10.649, 10.905, 11.022, 11.23, 12.833, 11.475, 10.831, 10.802, 10.527, 10.976, 10.706, 10.821, 11.525, 10.939, 11.403, 11.085, 12.13, 10.942, 10.83, 10.629, 10.539, 10.849, 11.041, 11.534, 10.969, 10.961, 13.51, 11.455, 11.181, 10.924, 11.655, 10.92, 12.203, 10.854, 12.127, 11.257, 11.035, 11.291, 10.696, 10.859, 10.751, 10.968, 11.702, 10.942, 10.918, 11.616, 11.069, 10.854, 11.62, 12.151, 23.302, 17.697, 19.54, 15.542, 14.601, 18.913, 11.763, 10.954, 10.898, 11.843, 16.792, 10.633, 11.105, 20.073, 11.021, 14.049, 12.433, 12.312, 10.679, 11.053, 24.311, 18.322, 11.537, 11.132, 10.884, 13.495, 15.165],
  "Optimizer iterations": 372,
  "Qubits": 9,
  "Total Algorithm duration [s]": 4.57,
  "Total Classic duration [s]": 4.3767741000268146,
  "Total Quantum duration [s]": 0.19322589997318573,
  "Expectation Value": -8.006771087646484,
  "Optimal Expectation Value": -11.109565734863281,
  "Optimizer params": [0.7499761219596631, 0.7499690884599031, 0.7498881126060893, 0.7499758517987628, 0.7499641750509383, 0.7500135103917028, 0.7499465382936226, 0.7500213897675634, 0.7500075952483791, 0.49999082813034557, 0.500069144594759, 0.49999465876733895, 0.500004492404057, 0.499904862012028, 0.49996722296610346, 0.4999966266587653, 0.5000017151914752, 0.7500684027110663, 0.5000175026209068, 0.5000180256316091, 0.499928629980123, 0.5000524324513561, 0.49999066868444125, 0.5000176279175799, 0.4999881364192879, 0.4999872016855921, 0.4999874102372585, 0.4999699919043292, 0.5000005535604518, 0.49999330125970226, 0.49998084208847204, 0.49991607187900655, 0.49999825783252655, 0.4999875670083196, 0.5000304411642551, 0.49993273502054064],
  "QPU": "7000000",
  "Problem": "IC",
  "Size": 9,
  "P": 0,
  "Shots": 4096
}