{
  "Depth": 20.5,
  "Job durations [ms]": [0.5342500080587342, 0.5122000002302229, 0.5019000091124326, 0.5031500040786341, 0.5358000053092837, 0.49014999240171164, 0.49199999193660915, 0.541349989362061, 0.4938999918522313, 0.4816999862669036, 0.5450000171549618, 0.5023999983677641, 0.49420000868849456, 0.49574999138712883, 0.5104000156279653, 0.5253500130493194, 0.49190000572707504, 0.5165499896975234, 0.5221500032348558, 0.5054499924881384, 0.4941500083077699, 0.5055999790783972, 0.5270999972708523, 0.6603500078199431, 0.6644999957643449, 0.46999999904073775, 0.5624500045087188, 0.6579500040970743, 0.46880000445526093, 0.4745499900309369, 0.6655999895883724, 0.49005000619217753, 0.5131499929120764, 0.48964998859446496, 0.6562499911524355, 0.5036000220570713, 0.49834999663289636, 0.526099989656359, 0.4985999839846045, 0.5072499916423112, 0.5000499950256199, 0.5381000228226185, 0.5044999998062849, 0.49044999468605965, 0.49315001524519175, 0.5199999868636951, 0.5028499872423708, 0.48794999020174146, 0.4977000062353909, 0.4889499832643196, 0.49675001355353743, 0.49214999307878315, 0.528500007931143, 0.48895001236815006, 0.4996999923605472, 0.5131500074639916, 0.5248999950708821, 0.5047000013291836, 0.4842500056838617, 0.5057499802205712, 0.4838499880861491, 0.4528499994194135, 0.5240999889792874, 0.49569999100640416, 0.491300001158379, 0.49875001423060894, 0.514750019647181, 0.49629998102318496, 0.5138000124134123, 0.5215499841142446, 0.4938500060234219, 0.5347000114852563, 0.5070999905001372, 0.49265001143794507, 0.5041999975219369, 0.5018499941797927, 0.5040499963797629, 0.4896500031463802, 0.4875999875366688, 0.4928999987896532, 0.6446000043069944, 0.5029999883845448, 0.6485499907284975, 0.5024999991292134, 0.5012000037822872, 0.5114500236231834, 0.5202999891480431, 0.536749983439222, 0.4969999863533303, 0.5099500122014433, 0.5573499947786331, 0.5281499907141551, 0.4948000132571906, 0.4859500186285004, 0.494399995659478, 0.5033500056015328, 0.49455001135356724, 0.4975000047124922, 0.522399990586564, 0.49185000534635037, 0.506000011228025, 0.5191999953240156, 0.5501999985426664, 0.49780000699684024, 0.4876999882981181, 0.600200000917539, 0.6717000069329515, 0.6566499941982329, 0.65409998933319, 0.47050000284798443, 0.5659499729517847, 0.5681499897036701, 0.6549999816343188, 0.6341499974951148, 0.5763999943155795, 0.5032999906688929, 0.5381499940995127, 0.5704000068362802, 0.533949991222471, 0.5530500056920573, 0.4879999905824661, 0.5097999965073541, 0.4930500144837424, 0.523149996297434, 0.494399995659478, 0.5417000211309642, 0.4955000040354207, 0.5077500245533884, 0.4989999870304018, 0.5207500071264803, 0.511800026288256, 0.4977000062353909, 0.5273499846225604, 0.5001499957870692, 0.5020999815315008, 0.49605000822339207, 0.5191999953240156, 0.516200001584366, 0.4887000104645267, 0.49500001478008926, 0.5034499918110669, 0.5105000018374994, 0.4989999870304018, 0.5286999949021265, 0.6037999992258847, 0.5066000012448058, 0.4974000039510429, 0.5203499895287678, 0.48565000179223716, 0.4934499884257093, 0.4929500137222931, 0.5272000125842169, 0.4963500105077401, 0.504749987157993, 0.5336000176612288, 0.5211999960010871, 0.49754999054130167, 0.4927499976474792, 0.5368499842006713, 0.5163000023458153, 0.4984499828424305, 0.5174999823793769, 0.49885000044014305, 0.5091500061098486, 0.4945000109728426, 0.5204500193940476, 0.5058499809820205, 0.5093499785289168, 0.484350006445311, 0.5004499980714172, 0.4878499894402921, 0.5381000082707033, 0.4898999904980883, 0.49180001951754093, 0.5331499996827915, 0.5360499926609918, 0.49915000272449106, 0.5037000228185207, 0.5034000059822574, 0.5120999849168584, 0.5351999861886725, 0.4949999856762588, 0.5129999917699024, 0.49089999811258167, 0.4901999927824363, 0.4922499938402325, 0.523299997439608, 0.4928999987896532, 0.4988000000594184, 0.5153999954927713, 0.45479999971576035, 0.673550006467849, 0.5307999963406473, 0.6422500155167654, 0.6438999844249338, 0.5472500051837415, 0.6275500054471195, 0.5367999983718619, 0.5721999914385378, 0.510750018293038, 0.4950500006088987, 0.49425000906921923, 0.5373000167310238, 0.5118500121170655, 0.5042000120738521, 0.49560000479687005, 0.49839999701362103, 0.5994999955873936, 0.501349990372546, 0.545049988431856, 0.5009500018786639, 0.4903499939246103, 0.5440499953692779, 0.5250499816611409, 0.5026500148233026, 0.4887999966740608, 0.6178500188980252, 0.6367000023601577, 0.5093999934615567, 0.5200000159675255, 0.49085001228377223, 0.562399989576079, 0.5230999959167093, 0.4835500003537163, 0.6998500030022115, 0.6111999973654747, 0.5439499946078286, 0.491150000016205, 0.5368000129237771, 0.645499982056208, 0.4938000056426972, 0.5137499974807724, 0.48594998952466995, 0.5283999926177785, 0.5170499935047701, 0.5323500081431121, 0.4671500064432621, 0.567600000067614, 0.5015499918954447, 0.5007500149076805, 0.4954499891027808, 0.5375999899115413, 0.502900016726926, 0.5000499950256199, 0.4853500140598044, 0.5322500073816627, 0.497799992444925, 0.48955000238493085, 0.49589999252930284, 0.5059499962953851, 0.5086499731987715, 0.49050000961869955, 0.5100500129628927, 0.48080000851769, 0.4897499893559143, 0.5015499918954447, 0.5032499902881682, 0.490549995447509, 0.5171999946469441, 0.5173000099603087, 0.494699997943826, 0.48210000386461616, 0.5560000136028975, 0.540149980224669, 0.49409999337513, 0.4889999981969595, 0.4983500111848116, 0.4869499971391633, 0.4971000016666949, 0.5766999965999275, 0.6457999988924712, 0.6920000014360994, 0.5075500084785745, 0.5523499858099967, 0.4669499903684482, 0.6826499884482473, 0.5595500115305185, 0.5917499947827309, 0.5283499922370538, 0.4985999839846045, 0.48940000124275684, 0.525799987372011, 0.5548999906750396, 0.5236500001046807, 0.48955000238493085, 0.5352000007405877, 0.527299998793751, 0.5033500056015328, 0.49175000458490103, 0.48585000331513584, 0.5393500032369047, 0.5148999916855246, 0.5026999861001968, 0.49610000860411674, 0.4931500006932765, 0.49404999299440533, 0.4917000187560916, 0.5164999893167987, 0.49089999811258167, 0.5074499931652099, 0.5186999915167689, 0.5366499972296879, 0.5031999899074435, 0.49310000031255186, 0.5832999886479229, 0.4958500212524086, 0.5048500024713576, 0.5003499973099679, 0.6820500129833817, 0.5276500014588237, 0.5038999952375889, 0.4897500039078295, 0.4969999863533303, 0.5025500140618533, 0.4971000016666949, 0.5418999935500324, 0.5159499851288274, 0.49959999159909785, 0.4969000001437962, 0.5212999967625365, 0.5159499996807426, 0.5017499934183434, 0.4940000071655959, 0.5481999833136797, 0.5157999985385686, 0.4896500176982954, 0.48844999400898814, 0.4965999978594482, 0.49094999849330634, 0.4995499912183732, 0.5387999990489334, 0.5015000060666353, 0.49470001249574125, 0.51710000843741, 0.5291999987093732, 0.5125500028952956, 0.49220000801142305, 0.526399991940707, 0.5367499979911372, 0.4982999962521717, 0.5262500053504482, 0.4991500172764063, 0.5024499841965735, 0.49989999388344586, 0.5031000036979094, 0.49974999274127185, 0.5077999958302826, 0.49879998550750315, 0.5216999998083338, 0.5070000042906031, 0.5068999889772385, 0.5056500085629523, 0.49590000708121806, 0.5062499840278178, 0.6958000012673438, 0.6601999921258539, 0.5949499900452793, 0.5855000053998083, 0.6602499925065786, 0.683149992255494, 0.6216999900061637, 0.5788999987998977, 0.5218000151216984, 0.49494999984744936, 0.49965000653173774, 0.4839500179514289, 0.6227000121725723, 0.5176499980734661, 0.5298499891068786, 0.5118999979458749, 0.5043999844929203, 0.5047000013291836],
  "Optimizer durations [ms]": [11.644, 11.129, 10.929, 10.648, 11.798, 10.674, 10.829, 11.474, 10.749, 10.872, 11.561, 10.925, 10.689, 10.729, 10.61, 11.758, 10.802, 11.172, 11.393, 10.785, 10.877, 10.96, 11.386, 21.658, 16.41, 24.913, 11.93, 14.41, 17.175, 19.107, 19.247, 10.63, 11.369, 21.431, 19.125, 11.554, 10.69, 11.46, 10.816, 11.15, 10.919, 11.264, 10.746, 10.852, 10.92, 11.329, 11.158, 10.461, 10.802, 10.734, 10.767, 10.432, 11.493, 10.762, 10.898, 10.749, 11.769, 10.801, 10.593, 10.886, 10.507, 15.017, 11.172, 11.244, 10.527, 11.143, 10.97, 11.162, 20.291, 11.591, 10.504, 11.692, 11.013, 10.906, 11.028, 11.007, 10.87, 10.624, 10.822, 10.905, 13.562, 11.067, 14.092, 10.922, 11.175, 10.952, 11.246, 11.517, 10.692, 11.022, 12.136, 11.5, 10.822, 10.593, 10.977, 11.066, 10.846, 11.123, 11.753, 10.638, 10.882, 14.131, 11.892, 11.143, 10.647, 12.769, 20.259, 24.831, 17.691, 15.632, 12.831, 12.225, 14.457, 13.581, 12.368, 12.498, 11.501, 26.972, 11.502, 12.118, 10.404, 11.448, 10.632, 11.28, 11.085, 11.513, 10.869, 10.922, 10.909, 11.333, 10.78, 10.976, 11.577, 10.891, 11.159, 10.704, 11.356, 11.265, 10.862, 10.706, 11.128, 11.062, 11.06, 11.385, 12.977, 10.76, 10.85, 11.226, 10.783, 10.654, 11.192, 11.639, 10.704, 10.999, 11.748, 11.209, 10.814, 11.104, 11.537, 11.448, 10.714, 11.384, 11.1, 10.967, 11.056, 11.479, 10.899, 10.822, 19.514, 11.008, 10.441, 11.923, 10.937, 10.405, 11.854, 11.734, 10.594, 10.878, 10.984, 11.43, 11.508, 10.983, 11.204, 10.567, 10.72, 10.94, 11.521, 10.856, 11.103, 11.202, 15.017, 14.548, 20.958, 14.931, 23.786, 11.992, 14.2, 17.205, 12.278, 11.216, 10.737, 12.027, 11.696, 11.371, 14.505, 11.091, 13.435, 12.866, 17.143, 11.95, 10.839, 24.019, 12.016, 11.304, 10.519, 11.183, 13.251, 15.777, 10.985, 11.381, 11.632, 12.23, 11.291, 19.238, 17.868, 13.365, 11.649, 10.948, 11.895, 13.673, 14.434, 11.102, 10.537, 11.694, 11.307, 11.323, 23.01, 12.551, 10.851, 11.055, 10.55, 11.761, 10.71, 10.896, 10.563, 11.333, 11.014, 10.785, 10.864, 16.352, 10.713, 10.577, 11.179, 10.444, 10.542, 10.633, 10.894, 10.867, 10.882, 11.457, 10.97, 10.331, 12.011, 11.722, 10.786, 10.513, 10.838, 10.727, 10.896, 12.709, 16.376, 19.639, 16.732, 12.354, 17.209, 15.262, 11.895, 19.018, 11.977, 10.979, 10.893, 26.651, 12.534, 11.39, 10.685, 17.127, 11.86, 10.942, 11.17, 10.55, 11.556, 11.516, 10.798, 10.722, 11.135, 11.145, 10.805, 11.123, 10.733, 11.005, 11.087, 11.289, 11.097, 11.064, 12.502, 11.081, 11.242, 10.911, 14.367, 11.156, 11.19, 10.856, 10.745, 11.028, 10.916, 11.32, 11.546, 10.851, 11.089, 11.096, 11.428, 10.871, 10.676, 11.611, 11.207, 10.714, 10.785, 10.825, 10.948, 10.858, 11.616, 10.698, 10.791, 11.446, 11.306, 16.075, 10.983, 11.239, 11.518, 11.176, 11.531, 10.712, 11.006, 10.978, 10.863, 10.968, 11.166, 10.753, 11.448, 10.679, 11.15, 10.826, 11.0, 10.902, 15.643, 14.318, 23.557, 12.638, 25.324, 15.041, 13.889, 12.684, 11.47, 10.613, 10.989, 27.588, 13.667, 11.394, 11.565, 11.049, 10.749, 10.968],
  "Optimizer iterations": 372,
  "Qubits": 9,
  "Total Algorithm duration [s]": 4.549,
  "Total Classic duration [s]": 4.354597250306164,
  "Total Quantum duration [s]": 0.19440274969383609,
  "Expectation Value": -8.006771087646484,
  "Optimal Expectation Value": -11.109565734863281,
  "Optimizer params": [0.7499761219596631, 0.7499690884599031, 0.7498881126060893, 0.7499758517987628, 0.7499641750509383, 0.7500135103917028, 0.7499465382936226, 0.7500213897675634, 0.7500075952483791, 0.49999082813034557, 0.500069144594759, 0.49999465876733895, 0.500004492404057, 0.499904862012028, 0.49996722296610346, 0.4999966266587653, 0.5000017151914752, 0.7500684027110663, 0.5000175026209068, 0.5000180256316091, 0.499928629980123, 0.5000524324513561, 0.49999066868444125, 0.5000176279175799, 0.4999881364192879, 0.4999872016855921, 0.4999874102372585, 0.4999699919043292, 0.5000005535604518, 0.49999330125970226, 0.49998084208847204, 0.49991607187900655, 0.49999825783252655, 0.4999875670083196, 0.5000304411642551, 0.49993273502054064],
  "QPU": "7000000",
  "Problem": "IC",
  "Size": 9,
  "P": 0,
  "Shots": 4096
}