{
  "Circuit execution durations [ms]": [1.3274000000000001, 1.7277, 1.3925, 1.4014, 1.4097, 1.4388, 1.4007, 1.4154, 1.4189999999999998, 1.3912, 1.418, 1.436, 1.3976, 1.4756, 1.4046, 1.4027, 1.4031, 1.4138, 1.46, 1.3892, 1.4071, 1.4452, 1.4092, 1.3887, 1.3961, 1.3913, 1.4316000000000002, 1.4117000000000002, 1.4124, 1.5418999999999998, 1.4233, 1.411, 1.3941, 1.3889, 1.3982, 1.3964999999999999, 1.4365, 1.4716, 1.4666, 1.4024, 1.4546, 1.4226, 1.3937000000000002, 1.3996, 1.3983999999999999, 1.4242000000000001, 1.388, 1.4137, 1.4559, 1.4198, 1.4063999999999999, 1.5288000000000002, 1.4113, 1.4147, 1.4119, 1.3992, 1.3887, 1.4152, 1.4011, 1.7032, 1.4124, 1.3168, 1.4247999999999998, 1.397, 1.3997, 1.4055, 1.4276, 1.3278, 1.4077, 1.3994, 1.4281000000000001, 1.393, 1.3181, 1.4764000000000002, 1.638, 1.5111, 1.4143999999999999, 1.7351999999999999, 1.4289999999999998],
  "Depth": 203.0,
  "Expectation Value": -12.03322696685791,
  "Optimal Expectation Value": -16.0,
  "Optimizer durations [ms]": [23.767, 18.8, 14.643, 14.514, 14.758, 15.182, 14.716, 15.014, 14.99, 14.497, 15.021, 15.155, 14.693, 15.42, 14.798, 14.865, 14.79, 14.711, 15.368, 14.722, 14.686, 15.163, 14.888, 14.651, 14.76, 14.505, 15.154, 14.961, 14.662, 16.233, 14.832, 14.774, 14.978, 14.673, 14.525, 14.543, 14.944, 15.48, 15.344, 14.916, 15.297, 15.006, 14.793, 14.633, 14.725, 15.086, 14.569, 14.945, 15.326, 15.004, 14.65, 15.824, 14.676, 14.739, 14.911, 14.534, 14.47, 14.81, 14.875, 17.726, 15.455, 23.548, 14.979, 14.781, 14.618, 14.812, 15.099, 18.882, 14.752, 14.85, 15.068, 14.528, 23.54, 15.38, 16.908, 15.931, 24.645, 22.948, 19.867],
  "Optimizer iterations": 79,
  "Optimizer params": [0.9683163047355012, 0.9471366032223216, 0.9034255637390922, 0.8066338757884485, 0.31603398078205497, 0.7857757990928657],
  "P": 3,
  "Problem": "MCP",
  "QJob durations [ms]": [1.3274000000000001, 1.7277, 1.3925, 1.4014, 1.4097, 1.4388, 1.4007, 1.4154, 1.4189999999999998, 1.3912, 1.418, 1.436, 1.3976, 1.4756, 1.4046, 1.4027, 1.4031, 1.4138, 1.46, 1.3892, 1.4071, 1.4452, 1.4092, 1.3887, 1.3961, 1.3913, 1.4316000000000002, 1.4117000000000002, 1.4124, 1.5418999999999998, 1.4233, 1.411, 1.3941, 1.3889, 1.3982, 1.3964999999999999, 1.4365, 1.4716, 1.4666, 1.4024, 1.4546, 1.4226, 1.3937000000000002, 1.3996, 1.3983999999999999, 1.4242000000000001, 1.388, 1.4137, 1.4559, 1.4198, 1.4063999999999999, 1.5288000000000002, 1.4113, 1.4147, 1.4119, 1.3992, 1.3887, 1.4152, 1.4011, 1.7032, 1.4124, 1.3168, 1.4247999999999998, 1.397, 1.3997, 1.4055, 1.4276, 1.3278, 1.4077, 1.3994, 1.4281000000000001, 1.393, 1.3181, 1.4764000000000002, 1.638, 1.5111, 1.4143999999999999, 1.7351999999999999, 1.4289999999999998],
  "QPU": "7000000",
  "Qubits": 11,
  "Queue durations [ms]": [0.0, 0.0, 0.0, 0.0, 0.0, 0.0, 0.0, 0.0, 0.0, 0.0, 0.0, 0.0, 0.0, 0.0, 0.0, 0.0, 0.0, 0.0, 0.0, 0.0, 0.0, 0.0, 0.0, 0.0, 0.0, 0.0, 0.0, 0.0, 0.0, 0.0, 0.0, 0.0, 0.0, 0.0, 0.0, 0.0, 0.0, 0.0, 0.0, 0.0, 0.0, 0.0, 0.0, 0.0, 0.0, 0.0, 0.0, 0.0, 0.0, 0.0, 0.0, 0.0, 0.0, 0.0, 0.0, 0.0, 0.0, 0.0, 0.0, 0.0, 0.0, 0.0, 0.0, 0.0, 0.0, 0.0, 0.0, 0.0, 0.0, 0.0, 0.0, 0.0, 0.0, 0.0, 0.0, 0.0, 0.0, 0.0, 0.0],
  "Shots": 4096,
  "Size": 11,
  "Total Algorithm duration [s]": 1.24,
  "Total Classic duration [s]": 1.1271383,
  "Total Quantum duration [s]": 0.11286170000000002
}
