{
  "Circuit execution durations [ms]": [60.36710739135742, 60.667991638183594, 60.06932258605957, 60.199737548828125, 60.65821647644043, 60.561180114746094, 60.64009666442871, 60.49013137817383, 60.460805892944336, 60.47821044921875, 60.636043548583984, 60.61291694641113, 60.81557273864746, 126.84249877929688, 60.77432632446289, 60.70208549499512, 60.13226509094238, 60.43291091918945, 60.857534408569336, 60.77384948730469, 60.77766418457031, 60.67490577697754, 61.0198974609375, 60.44769287109375, 126.37019157409668, 61.0809326171875, 60.3482723236084, 60.66322326660156, 60.58621406555176, 60.39738655090332, 60.857534408569336, 61.01846694946289, 60.608625411987305, 60.518503189086914, 60.73117256164551, 126.40500068664551, 60.63222885131836, 60.62579154968262, 60.19330024719238, 60.55140495300293, 60.25290489196777, 60.2719783782959, 60.60981750488281, 60.70232391357422, 60.41216850280762, 60.671329498291016, 126.37567520141602, 60.82940101623535, 60.38308143615723, 60.40787696838379, 60.330867767333984, 60.78600883483887, 60.55045127868652, 60.26768684387207, 60.41693687438965, 60.82725524902344, 60.5623722076416, 61.10429763793945, 125.73051452636719, 60.45818328857422, 60.597896575927734, 60.32371520996094, 60.38808822631836, 60.564517974853516, 60.765981674194336, 60.62126159667969, 60.47987937927246, 60.66179275512695, 60.45818328857422, 60.550689697265625, 60.47344207763672, 125.88739395141602, 60.84632873535156, 60.54520606994629, 60.28032302856445, 60.40477752685547, 60.43577194213867, 60.35614013671875, 60.61410903930664, 60.41836738586426, 60.15157699584961, 60.75239181518555, 60.54544448852539, 60.373783111572266, 60.52517890930176, 126.2812614440918, 60.5010986328125, 60.5311393737793, 61.8436336517334],
  "Depth": 287.0,
  "Expectation Value": -0.995361328125,
  "Optimal Expectation Value": -1.0,
  "Optimizer durations [ms]": [75.167, 75.346, 74.758, 144.339, 75.535, 75.257, 75.477, 75.156, 75.164, 75.262, 75.653, 75.764, 75.469, 141.646, 75.782, 75.434, 74.865, 75.2, 75.693, 75.521, 75.471, 75.357, 75.76, 75.358, 141.424, 75.917, 75.108, 75.407, 75.225, 75.236, 75.624, 75.875, 75.169, 75.402, 75.59, 141.263, 75.341, 75.416, 74.768, 75.442, 74.782, 74.947, 75.444, 75.525, 75.04, 75.532, 141.265, 75.793, 75.114, 75.157, 75.028, 75.673, 75.244, 75.11, 75.273, 75.666, 75.298, 75.89, 140.772, 75.594, 75.473, 75.299, 75.276, 75.441, 75.827, 75.323, 75.231, 75.359, 75.172, 75.33, 75.32, 140.989, 75.938, 75.299, 75.086, 75.228, 75.065, 75.115, 75.359, 75.219, 74.882, 75.385, 75.312, 75.074, 75.237, 141.212, 75.503, 75.257, 76.645],
  "Optimizer iterations": 89,
  "Optimizer params": [0.8692645559161712, 0.9449865994750826, 0.6275150077050647, 0.784406920133546, 0.9113373972115749, 0.8108377914515897],
  "P": 3,
  "Problem": "MIS",
  "QJob durations [ms]": [60.36710739135742, 60.667991638183594, 60.06932258605957, 60.199737548828125, 60.65821647644043, 60.561180114746094, 60.64009666442871, 60.49013137817383, 60.460805892944336, 60.47821044921875, 60.636043548583984, 60.61291694641113, 60.81557273864746, 126.84249877929688, 60.77432632446289, 60.70208549499512, 60.13226509094238, 60.43291091918945, 60.857534408569336, 60.77384948730469, 60.77766418457031, 60.67490577697754, 61.0198974609375, 60.44769287109375, 126.37019157409668, 61.0809326171875, 60.3482723236084, 60.66322326660156, 60.58621406555176, 60.39738655090332, 60.857534408569336, 61.01846694946289, 60.608625411987305, 60.518503189086914, 60.73117256164551, 126.40500068664551, 60.63222885131836, 60.62579154968262, 60.19330024719238, 60.55140495300293, 60.25290489196777, 60.2719783782959, 60.60981750488281, 60.70232391357422, 60.41216850280762, 60.671329498291016, 126.37567520141602, 60.82940101623535, 60.38308143615723, 60.40787696838379, 60.330867767333984, 60.78600883483887, 60.55045127868652, 60.26768684387207, 60.41693687438965, 60.82725524902344, 60.5623722076416, 61.10429763793945, 125.73051452636719, 60.45818328857422, 60.597896575927734, 60.32371520996094, 60.38808822631836, 60.564517974853516, 60.765981674194336, 60.62126159667969, 60.47987937927246, 60.66179275512695, 60.45818328857422, 60.550689697265625, 60.47344207763672, 125.88739395141602, 60.84632873535156, 60.54520606994629, 60.28032302856445, 60.40477752685547, 60.43577194213867, 60.35614013671875, 60.61410903930664, 60.41836738586426, 60.15157699584961, 60.75239181518555, 60.54544448852539, 60.373783111572266, 60.52517890930176, 126.2812614440918, 60.5010986328125, 60.5311393737793, 61.8436336517334],
  "QPU": "9000001",
  "Qubits": 8,
  "Queue durations [ms]": [0.0, 0.0, 0.0, 0.0, 0.0, 0.0, 0.0, 0.0, 0.0, 0.0, 0.0, 0.0, 0.0, 0.0, 0.0, 0.0, 0.0, 0.0, 0.0, 0.0, 0.0, 0.0, 0.0, 0.0, 0.0, 0.0, 0.0, 0.0, 0.0, 0.0, 0.0, 0.0, 0.0, 0.0, 0.0, 0.0, 0.0, 0.0, 0.0, 0.0, 0.0, 0.0, 0.0, 0.0, 0.0, 0.0, 0.0, 0.0, 0.0, 0.0, 0.0, 0.0, 0.0, 0.0, 0.0, 0.0, 0.0, 0.0, 0.0, 0.0, 0.0, 0.0, 0.0, 0.0, 0.0, 0.0, 0.0, 0.0, 0.0, 0.0, 0.0, 0.0, 0.0, 0.0, 0.0, 0.0, 0.0, 0.0, 0.0, 0.0, 0.0, 0.0, 0.0, 0.0, 0.0, 0.0, 0.0, 0.0, 0.0],
  "Shots": 4096,
  "Size": 5,
  "Total Algorithm duration [s]": 7.237,
  "Total Classic duration [s]": 1.386188280105591,
  "Total Quantum duration [s]": 5.850811719894409
}
