{
  "Circuit execution durations [ms]": [60.68730354309082, 130.42855262756348, 60.451507568359375, 60.347557067871094, 60.42146682739258, 60.63437461853027, 60.62197685241699, 60.48178672790527, 60.495853424072266, 60.63342094421387, 60.882568359375, 60.4703426361084, 126.3275146484375, 60.53495407104492, 59.900522232055664, 60.60218811035156, 60.66083908081055, 60.332536697387695, 60.72998046875, 60.77408790588379, 60.71615219116211, 60.6379508972168, 60.63199043273926, 60.76788902282715, 126.43218040466309, 60.965776443481445, 60.35470962524414, 60.691118240356445, 60.55951118469238, 60.53614616394043, 60.72258949279785, 61.333656311035156, 60.533761978149414, 60.74976921081543, 60.67848205566406, 60.71329116821289, 60.793399810791016, 126.04355812072754, 60.690879821777344, 60.39881706237793, 60.61387062072754, 60.224056243896484, 60.69803237915039, 60.59765815734863, 60.65773963928223, 60.540199279785156, 60.45985221862793, 60.44912338256836, 60.49156188964844, 60.42051315307617, 60.74357032775879, 126.53517723083496, 60.75143814086914, 60.38951873779297, 60.19949913024902, 60.45246124267578, 60.25362014770508, 60.788631439208984, 60.669660568237305, 60.40501594543457, 60.544729232788086, 60.41836738586426, 60.48297882080078, 60.71734428405762, 60.85324287414551, 60.091257095336914, 60.52660942077637, 60.2879524230957, 60.28461456298828, 60.840606689453125, 60.16850471496582, 125.63848495483398, 60.69374084472656, 60.17637252807617, 60.248374938964844, 60.33515930175781, 60.4093074798584],
  "Depth": 287.0,
  "Expectation Value": -0.955322265625,
  "Optimal Expectation Value": -1.0,
  "Optimizer durations [ms]": [75.625, 145.029, 75.532, 75.052, 75.517, 75.301, 75.456, 75.298, 75.4, 75.504, 75.564, 75.324, 141.239, 75.473, 74.807, 75.442, 75.46, 75.107, 75.729, 75.802, 75.489, 75.369, 75.353, 75.5, 141.451, 75.898, 75.167, 75.523, 75.318, 75.153, 75.874, 76.259, 75.656, 75.564, 75.508, 75.51, 75.717, 140.951, 75.815, 75.146, 75.373, 75.129, 75.513, 75.507, 75.797, 75.578, 75.349, 75.071, 75.405, 75.066, 75.51, 141.403, 75.533, 75.174, 75.123, 75.259, 75.204, 75.945, 75.642, 75.334, 75.485, 75.511, 75.599, 75.578, 75.652, 74.814, 75.298, 75.014, 75.08, 75.82, 75.102, 140.678, 75.63, 75.311, 75.588, 75.16, 75.052],
  "Optimizer iterations": 77,
  "Optimizer params": [0.23627880086956257, 0.9801760064320515, 0.9921166799071011, 0.9543956746709861, 0.2716017429699477, 0.48534501873680813],
  "P": 3,
  "Problem": "MIS",
  "QJob durations [ms]": [60.68730354309082, 130.42855262756348, 60.451507568359375, 60.347557067871094, 60.42146682739258, 60.63437461853027, 60.62197685241699, 60.48178672790527, 60.495853424072266, 60.63342094421387, 60.882568359375, 60.4703426361084, 126.3275146484375, 60.53495407104492, 59.900522232055664, 60.60218811035156, 60.66083908081055, 60.332536697387695, 60.72998046875, 60.77408790588379, 60.71615219116211, 60.6379508972168, 60.63199043273926, 60.76788902282715, 126.43218040466309, 60.965776443481445, 60.35470962524414, 60.691118240356445, 60.55951118469238, 60.53614616394043, 60.72258949279785, 61.333656311035156, 60.533761978149414, 60.74976921081543, 60.67848205566406, 60.71329116821289, 60.793399810791016, 126.04355812072754, 60.690879821777344, 60.39881706237793, 60.61387062072754, 60.224056243896484, 60.69803237915039, 60.59765815734863, 60.65773963928223, 60.540199279785156, 60.45985221862793, 60.44912338256836, 60.49156188964844, 60.42051315307617, 60.74357032775879, 126.53517723083496, 60.75143814086914, 60.38951873779297, 60.19949913024902, 60.45246124267578, 60.25362014770508, 60.788631439208984, 60.669660568237305, 60.40501594543457, 60.544729232788086, 60.41836738586426, 60.48297882080078, 60.71734428405762, 60.85324287414551, 60.091257095336914, 60.52660942077637, 60.2879524230957, 60.28461456298828, 60.840606689453125, 60.16850471496582, 125.63848495483398, 60.69374084472656, 60.17637252807617, 60.248374938964844, 60.33515930175781, 60.4093074798584],
  "QPU": "9000001",
  "Qubits": 8,
  "Queue durations [ms]": [0.0, 0.0, 0.0, 0.0, 0.0, 0.0, 0.0, 0.0, 0.0, 0.0, 0.0, 0.0, 0.0, 0.0, 0.0, 0.0, 0.0, 0.0, 0.0, 0.0, 0.0, 0.0, 0.0, 0.0, 0.0, 0.0, 0.0, 0.0, 0.0, 0.0, 0.0, 0.0, 0.0, 0.0, 0.0, 0.0, 0.0, 0.0, 0.0, 0.0, 0.0, 0.0, 0.0, 0.0, 0.0, 0.0, 0.0, 0.0, 0.0, 0.0, 0.0, 0.0, 0.0, 0.0, 0.0, 0.0, 0.0, 0.0, 0.0, 0.0, 0.0, 0.0, 0.0, 0.0, 0.0, 0.0, 0.0, 0.0, 0.0, 0.0, 0.0, 0.0, 0.0, 0.0, 0.0, 0.0, 0.0],
  "Shots": 4096,
  "Size": 5,
  "Total Algorithm duration [s]": 6.206,
  "Total Classic duration [s]": 1.1455701885223393,
  "Total Quantum duration [s]": 5.060429811477661
}
