{
  "Circuit execution durations [ms]": [3.2613999999999996, 3.6801, 3.3971999999999998, 3.3239, 3.25, 3.2586, 3.2459, 3.2422000000000004, 3.246, 3.2594, 3.2695, 3.2496, 3.2902, 3.2407999999999997, 3.2188999999999997, 3.2375, 3.2007, 3.2439, 3.2464999999999997, 3.2544, 3.2817, 3.2785, 3.2705, 3.2535, 3.2873, 3.2742, 3.2945, 3.2447, 3.2234, 3.2540999999999998, 3.3203, 3.2964, 3.279, 3.3652, 3.2697, 3.2617000000000003, 3.2870999999999997, 3.1847999999999996, 3.2716, 3.3542, 3.2914, 3.2483999999999997, 3.2407999999999997, 3.2868, 3.3035, 3.2476, 3.2689, 3.2675, 3.2789, 3.2629, 3.26, 3.234, 3.3017, 3.2423, 3.2931000000000004, 3.2485, 3.2542999999999997, 3.2304999999999997, 3.2663, 3.2412, 3.377, 3.2925, 3.2390000000000003, 3.2659, 3.2815000000000003, 3.2365, 3.3205, 3.2565, 3.2248, 3.2592, 3.2929, 3.2694, 3.2951, 3.2507, 3.2414, 3.2437, 3.2714, 3.236, 3.2231, 3.299, 3.2636000000000003, 3.2297, 3.2283, 3.2553, 3.3409, 3.2399999999999998, 3.2528, 3.2537, 3.2680000000000002, 3.2851, 3.3542, 3.3188, 3.2738, 3.267, 3.2858, 3.2464999999999997, 3.2233, 3.2407999999999997, 3.2607, 3.2476, 3.3229, 3.235, 3.2934, 3.2502999999999997, 3.2561, 3.2715, 3.2426, 3.2659, 3.2594999999999996, 3.2571000000000003, 3.2489, 3.2848, 3.2714, 3.2805, 3.3373999999999997, 3.2656, 3.2483999999999997, 3.2701000000000002, 3.2845999999999997, 3.2858],
  "Depth": 515.0,
  "Expectation Value": -2.398822546005249,
  "Optimal Expectation Value": -3.0,
  "Optimizer durations [ms]": [33.177, 37.198, 40.855, 33.759, 33.078, 33.22, 32.769, 33.155, 33.029, 33.24, 33.098, 38.207, 33.399, 33.207, 32.748, 33.071, 32.577, 32.839, 33.193, 33.054, 33.399, 33.265, 33.285, 33.145, 33.379, 33.243, 33.537, 32.91, 32.94, 32.814, 33.859, 35.795, 37.235, 34.138, 33.36, 34.084, 33.454, 40.913, 33.23, 43.595, 33.58, 33.024, 33.011, 33.155, 33.623, 33.133, 33.25, 33.242, 33.089, 33.323, 33.166, 32.897, 33.441, 32.812, 33.866, 33.053, 33.003, 32.809, 33.272, 32.73, 34.447, 43.04, 32.875, 33.222, 33.532, 32.963, 33.847, 32.958, 32.978, 32.944, 33.403, 33.456, 33.532, 33.045, 32.887, 32.866, 33.332, 32.994, 32.692, 33.589, 33.155, 32.76, 32.978, 32.987, 33.945, 33.028, 33.125, 33.015, 33.356, 33.309, 34.216, 43.388, 33.249, 33.232, 33.137, 32.998, 33.041, 32.752, 33.313, 32.769, 33.94, 33.037, 33.4, 32.986, 33.172, 33.194, 33.0, 32.956, 33.438, 33.005, 33.0, 33.614, 33.306, 33.127, 33.996, 32.946, 33.125, 33.213, 33.491, 33.392],
  "Optimizer iterations": 120,
  "Optimizer params": [1.0, 0.6623619430457623, 0.008776116405184579, 0.9861292066449138, 0.3123058262764958, 0.011666691282606447],
  "P": 3,
  "Problem": "MIS",
  "QJob durations [ms]": [3.2613999999999996, 3.6801, 3.3971999999999998, 3.3239, 3.25, 3.2586, 3.2459, 3.2422000000000004, 3.246, 3.2594, 3.2695, 3.2496, 3.2902, 3.2407999999999997, 3.2188999999999997, 3.2375, 3.2007, 3.2439, 3.2464999999999997, 3.2544, 3.2817, 3.2785, 3.2705, 3.2535, 3.2873, 3.2742, 3.2945, 3.2447, 3.2234, 3.2540999999999998, 3.3203, 3.2964, 3.279, 3.3652, 3.2697, 3.2617000000000003, 3.2870999999999997, 3.1847999999999996, 3.2716, 3.3542, 3.2914, 3.2483999999999997, 3.2407999999999997, 3.2868, 3.3035, 3.2476, 3.2689, 3.2675, 3.2789, 3.2629, 3.26, 3.234, 3.3017, 3.2423, 3.2931000000000004, 3.2485, 3.2542999999999997, 3.2304999999999997, 3.2663, 3.2412, 3.377, 3.2925, 3.2390000000000003, 3.2659, 3.2815000000000003, 3.2365, 3.3205, 3.2565, 3.2248, 3.2592, 3.2929, 3.2694, 3.2951, 3.2507, 3.2414, 3.2437, 3.2714, 3.236, 3.2231, 3.299, 3.2636000000000003, 3.2297, 3.2283, 3.2553, 3.3409, 3.2399999999999998, 3.2528, 3.2537, 3.2680000000000002, 3.2851, 3.3542, 3.3188, 3.2738, 3.267, 3.2858, 3.2464999999999997, 3.2233, 3.2407999999999997, 3.2607, 3.2476, 3.3229, 3.235, 3.2934, 3.2502999999999997, 3.2561, 3.2715, 3.2426, 3.2659, 3.2594999999999996, 3.2571000000000003, 3.2489, 3.2848, 3.2714, 3.2805, 3.3373999999999997, 3.2656, 3.2483999999999997, 3.2701000000000002, 3.2845999999999997, 3.2858],
  "QPU": "7000000",
  "Qubits": 12,
  "Queue durations [ms]": [0.0, 0.0, 0.0, 0.0, 0.0, 0.0, 0.0, 0.0, 0.0, 0.0, 0.0, 0.0, 0.0, 0.0, 0.0, 0.0, 0.0, 0.0, 0.0, 0.0, 0.0, 0.0, 0.0, 0.0, 0.0, 0.0, 0.0, 0.0, 0.0, 0.0, 0.0, 0.0, 0.0, 0.0, 0.0, 0.0, 0.0, 0.0, 0.0, 0.0, 0.0, 0.0, 0.0, 0.0, 0.0, 0.0, 0.0, 0.0, 0.0, 0.0, 0.0, 0.0, 0.0, 0.0, 0.0, 0.0, 0.0, 0.0, 0.0, 0.0, 0.0, 0.0, 0.0, 0.0, 0.0, 0.0, 0.0, 0.0, 0.0, 0.0, 0.0, 0.0, 0.0, 0.0, 0.0, 0.0, 0.0, 0.0, 0.0, 0.0, 0.0, 0.0, 0.0, 0.0, 0.0, 0.0, 0.0, 0.0, 0.0, 0.0, 0.0, 0.0, 0.0, 0.0, 0.0, 0.0, 0.0, 0.0, 0.0, 0.0, 0.0, 0.0, 0.0, 0.0, 0.0, 0.0, 0.0, 0.0, 0.0, 0.0, 0.0, 0.0, 0.0, 0.0, 0.0, 0.0, 0.0, 0.0, 0.0, 0.0],
  "Shots": 4096,
  "Size": 9,
  "Total Algorithm duration [s]": 4.047,
  "Total Classic duration [s]": 3.6544185,
  "Total Quantum duration [s]": 0.39258149999999986
}
