{
  "Circuit execution durations [ms]": [3.6525, 3.3916, 3.2757, 3.2571000000000003, 3.2672, 3.2723, 3.2399999999999998, 3.2388999999999997, 3.2476, 3.2355, 3.5863, 3.3023000000000002, 3.2399999999999998, 3.2599, 3.3021000000000003, 3.2481, 3.2429, 3.2676, 3.2489, 3.2441, 3.2564, 3.2345, 3.2510999999999997, 3.2726, 3.2721, 3.2583, 3.2661000000000002, 3.2588, 3.227, 3.1947, 3.5017, 3.2104, 3.3311, 3.2961, 3.2222, 3.2161999999999997, 3.1117, 3.3089999999999997, 3.3729, 3.5682, 3.2725, 3.2077, 3.2556, 3.2369, 3.2449000000000003, 3.2766, 3.2493000000000003, 3.3246, 3.2380999999999998, 3.2564, 3.2561999999999998, 3.2751, 3.2263, 3.2829, 3.2540999999999998, 3.2292, 3.1776, 3.2540999999999998, 3.2207, 3.3731, 3.2731000000000003, 3.2624, 3.2605999999999997, 3.2399999999999998, 3.2393, 3.3154999999999997, 3.2855, 3.2741, 3.3263, 3.2744, 3.2892, 3.2552000000000003, 3.2704, 3.2605, 3.257, 3.2127000000000003, 3.2656, 3.2455000000000003, 3.2868, 3.249, 3.2561, 3.2518],
  "Depth": 515.0,
  "Expectation Value": -2.457261800765991,
  "Optimal Expectation Value": -3.0,
  "Optimizer durations [ms]": [37.16, 40.882, 33.089, 33.082, 33.317, 33.409, 33.016, 32.935, 32.756, 32.896, 36.67, 33.518, 32.866, 33.301, 33.513, 33.1, 33.003, 33.177, 33.097, 33.047, 33.076, 32.886, 33.104, 33.198, 33.232, 32.956, 33.173, 33.28, 32.727, 32.375, 35.587, 40.45, 33.884, 33.331, 34.908, 32.739, 40.877, 34.872, 38.861, 37.571, 33.319, 32.501, 33.123, 32.842, 33.145, 33.287, 32.837, 33.767, 33.059, 33.152, 33.145, 33.082, 32.888, 33.404, 32.964, 32.945, 32.196, 33.213, 32.805, 34.282, 42.709, 33.283, 33.173, 32.876, 32.803, 33.567, 33.61, 33.195, 33.627, 33.46, 33.194, 33.359, 33.236, 32.986, 33.101, 32.95, 32.961, 33.132, 33.434, 33.016, 33.145, 33.026],
  "Optimizer iterations": 82,
  "Optimizer params": [0.4104876454489021, 0.6727616418910299, 0.49289316341215833, 0.29920786267683674, 0.9531264604025012, 0.8011146895030187],
  "P": 3,
  "Problem": "MIS",
  "QJob durations [ms]": [3.6525, 3.3916, 3.2757, 3.2571000000000003, 3.2672, 3.2723, 3.2399999999999998, 3.2388999999999997, 3.2476, 3.2355, 3.5863, 3.3023000000000002, 3.2399999999999998, 3.2599, 3.3021000000000003, 3.2481, 3.2429, 3.2676, 3.2489, 3.2441, 3.2564, 3.2345, 3.2510999999999997, 3.2726, 3.2721, 3.2583, 3.2661000000000002, 3.2588, 3.227, 3.1947, 3.5017, 3.2104, 3.3311, 3.2961, 3.2222, 3.2161999999999997, 3.1117, 3.3089999999999997, 3.3729, 3.5682, 3.2725, 3.2077, 3.2556, 3.2369, 3.2449000000000003, 3.2766, 3.2493000000000003, 3.3246, 3.2380999999999998, 3.2564, 3.2561999999999998, 3.2751, 3.2263, 3.2829, 3.2540999999999998, 3.2292, 3.1776, 3.2540999999999998, 3.2207, 3.3731, 3.2731000000000003, 3.2624, 3.2605999999999997, 3.2399999999999998, 3.2393, 3.3154999999999997, 3.2855, 3.2741, 3.3263, 3.2744, 3.2892, 3.2552000000000003, 3.2704, 3.2605, 3.257, 3.2127000000000003, 3.2656, 3.2455000000000003, 3.2868, 3.249, 3.2561, 3.2518],
  "QPU": "7000000",
  "Qubits": 12,
  "Queue durations [ms]": [0.0, 0.0, 0.0, 0.0, 0.0, 0.0, 0.0, 0.0, 0.0, 0.0, 0.0, 0.0, 0.0, 0.0, 0.0, 0.0, 0.0, 0.0, 0.0, 0.0, 0.0, 0.0, 0.0, 0.0, 0.0, 0.0, 0.0, 0.0, 0.0, 0.0, 0.0, 0.0, 0.0, 0.0, 0.0, 0.0, 0.0, 0.0, 0.0, 0.0, 0.0, 0.0, 0.0, 0.0, 0.0, 0.0, 0.0, 0.0, 0.0, 0.0, 0.0, 0.0, 0.0, 0.0, 0.0, 0.0, 0.0, 0.0, 0.0, 0.0, 0.0, 0.0, 0.0, 0.0, 0.0, 0.0, 0.0, 0.0, 0.0, 0.0, 0.0, 0.0, 0.0, 0.0, 0.0, 0.0, 0.0, 0.0, 0.0, 0.0, 0.0, 0.0],
  "Shots": 4096,
  "Size": 9,
  "Total Algorithm duration [s]": 2.772,
  "Total Classic duration [s]": 2.5033853999999995,
  "Total Quantum duration [s]": 0.2686146000000001
}
