{
  "Average job duration [ms]": 769.5,
  "Depth": 41,
  "P": 3,
  "Shots": 4096,
  "QJob durations [ms]": [769.5, 769.5, 769.5, 769.5, 769.5, 769.5, 769.5, 769.5, 769.5, 769.5, 769.5, 769.5, 769.5, 769.5, 769.5, 769.5, 769.5, 769.5, 769.5, 769.5, 769.5, 769.5, 769.5, 769.5, 769.5, 769.5, 769.5, 769.5, 769.5, 769.5, 769.5, 769.5, 769.5, 769.5, 769.5, 769.5, 769.5, 769.5, 769.5, 769.5, 769.5, 769.5, 769.5, 769.5, 769.5, 769.5, 769.5, 769.5, 769.5, 769.5, 769.5, 769.5, 769.5, 769.5, 769.5, 769.5, 769.5, 769.5, 769.5, 769.5, 769.5, 769.5, 769.5, 769.5, 769.5, 769.5, 769.5, 769.5, 769.5, 769.5, 769.5, 769.5, 769.5, 769.5, 769.5, 769.5, 769.5, 769.5, 769.5, 769.5, 769.5, 769.5, 769.5, 769.5, 769.5, 769.5, 769.5, 769.5, 769.5, 769.5, 769.5, 769.5, 769.5, 769.5, 769.5, 769.5, 769.5, 769.5, 769.5, 769.5, 769.5, 769.5, 769.5, 769.5, 769.5, 769.5, 769.5, 769.5, 769.5, 769.5],
  "Circuit execution durations [ms]": [76.95, 76.95, 76.95, 76.95, 76.95, 76.95, 76.95, 76.95, 76.95, 76.95, 76.95, 76.95, 76.95, 76.95, 76.95, 76.95, 76.95, 76.95, 76.95, 76.95, 76.95, 76.95, 76.95, 76.95, 76.95, 76.95, 76.95, 76.95, 76.95, 76.95, 76.95, 76.95, 76.95, 76.95, 76.95, 76.95, 76.95, 76.95, 76.95, 76.95, 76.95, 76.95, 76.95, 76.95, 76.95, 76.95, 76.95, 76.95, 76.95, 76.95, 76.95, 76.95, 76.95, 76.95, 76.95, 76.95, 76.95, 76.95, 76.95, 76.95, 76.95, 76.95, 76.95, 76.95, 76.95, 76.95, 76.95, 76.95, 76.95, 76.95, 76.95, 76.95, 76.95, 76.95, 76.95, 76.95, 76.95, 76.95, 76.95, 76.95, 76.95, 76.95, 76.95, 76.95, 76.95, 76.95, 76.95, 76.95, 76.95, 76.95, 76.95, 76.95, 76.95, 76.95, 76.95, 76.95, 76.95, 76.95, 76.95, 76.95, 76.95, 76.95, 76.95, 76.95, 76.95, 76.95, 76.95, 76.95, 76.95, 76.95],
  "Optimal Expectation Value": -4,
  "Optimizer params": [0.1, 0.2, 0.3, 0.4, 0.5, 0.6],
  "Optimizer durations [ms]": [869.5, 869.5, 869.5, 869.5, 869.5, 869.5, 869.5, 869.5, 869.5, 869.5, 869.5, 869.5, 869.5, 869.5, 869.5, 869.5, 869.5, 869.5, 869.5, 869.5, 869.5, 869.5, 869.5, 869.5, 869.5, 869.5, 869.5, 869.5, 869.5, 869.5, 869.5, 869.5, 869.5, 869.5, 869.5, 869.5, 869.5, 869.5, 869.5, 869.5, 869.5, 869.5, 869.5, 869.5, 869.5, 869.5, 869.5, 869.5, 869.5, 869.5, 869.5, 869.5, 869.5, 869.5, 869.5, 869.5, 869.5, 869.5, 869.5, 869.5, 869.5, 869.5, 869.5, 869.5, 869.5, 869.5, 869.5, 869.5, 869.5, 869.5, 869.5, 869.5, 869.5, 869.5, 869.5, 869.5, 869.5, 869.5, 869.5, 869.5, 869.5, 869.5, 869.5, 869.5, 869.5, 869.5, 869.5, 869.5, 869.5, 869.5, 869.5, 869.5, 869.5, 869.5, 869.5, 869.5, 869.5, 869.5, 869.5, 869.5, 869.5, 869.5, 869.5, 869.5, 869.5, 869.5, 869.5, 869.5, 869.5, 869.5],
  "Optimizer iterations": 110,
  "Qubits": 4,
  "Expectation Value": -3.5733333333333333,
  "Total Algorithm duration [s]": 180290.0,
  "Total Classic duration [s]": 95645.0,
  "Total Quantum duration [s]": 84645.0
}