{
  "Circuit execution durations [ms]": [121.185302734375, 121.06084823608398, 121.31381034851074, 122.0545768737793, 121.97256088256836, 121.55008316040039, 121.1402416229248, 189.4664764404297, 121.65164947509766, 121.70863151550293, 121.64616584777832, 121.10209465026855, 121.15907669067383, 121.2155818939209, 121.58846855163574, 121.48237228393555, 121.59943580627441, 121.08564376831055, 121.32835388183594, 121.54221534729004, 121.57320976257324, 120.63121795654297, 189.97859954833984, 121.68550491333008, 120.47886848449707, 121.17958068847656, 121.40679359436035, 120.90611457824707, 122.38240242004395, 121.31571769714355, 120.63765525817871, 120.70488929748535, 121.54579162597656, 120.60904502868652, 122.08199501037598, 122.14422225952148, 120.64743041992188, 190.1237964630127, 120.74017524719238, 121.58036231994629, 122.10965156555176, 121.42682075500488, 120.56112289428711, 120.5902099609375, 190.32049179077148, 120.21946907043457, 121.28138542175293, 121.31428718566895, 120.76997756958008, 121.70839309692383, 121.4296817779541, 121.10519409179688, 189.09740447998047, 123.0003833770752, 120.31102180480957, 121.57988548278809, 121.52314186096191, 121.60563468933105, 121.59323692321777, 189.84246253967285, 120.89204788208008, 120.50485610961914, 121.24347686767578, 120.50700187683105, 121.6421127319336, 122.0095157623291, 120.74685096740723, 190.09637832641602, 122.13349342346191, 121.19650840759277, 121.67024612426758, 121.20866775512695, 121.66261672973633, 120.87416648864746, 121.42443656921387, 188.13729286193848, 121.44255638122559, 121.20914459228516, 121.70743942260742, 121.80829048156738, 121.60325050354004, 120.66912651062012, 190.6733512878418, 122.13635444641113, 121.53029441833496, 121.39153480529785, 121.72698974609375, 121.18029594421387, 121.98710441589355, 122.0710277557373, 188.45820426940918, 121.33479118347168, 121.5507984161377, 121.31953239440918, 121.85478210449219, 121.34838104248047, 120.78499794006348, 189.63932991027832, 121.55508995056152, 120.8028793334961, 121.25492095947266, 121.6132640838623, 120.85437774658203, 121.70696258544922, 121.6268539428711, 187.29591369628906, 121.11973762512207, 120.67270278930664, 121.09541893005371],
  "Depth": 515.0,
  "Expectation Value": -2.310546875,
  "Optimal Expectation Value": -3.0,
  "Optimizer durations [ms]": [226.145, 150.766, 151.591, 152.695, 153.207, 152.24, 152.114, 219.481, 151.368, 151.835, 152.545, 151.733, 152.031, 151.063, 151.785, 219.295, 151.579, 150.963, 152.238, 151.572, 152.104, 151.192, 220.205, 151.476, 150.507, 151.781, 152.044, 151.761, 153.019, 152.566, 217.095, 150.763, 151.366, 151.317, 153.596, 153.886, 149.832, 221.903, 151.481, 152.127, 153.138, 152.351, 150.721, 151.515, 221.635, 151.309, 152.277, 151.973, 151.18, 151.933, 151.559, 151.026, 220.182, 153.817, 150.105, 151.904, 152.051, 152.167, 152.68, 220.51, 150.387, 150.048, 150.957, 150.943, 153.432, 153.253, 151.421, 221.292, 152.661, 151.582, 151.5, 152.159, 151.806, 151.341, 152.564, 218.847, 151.483, 152.195, 153.433, 153.276, 151.975, 150.969, 220.866, 152.116, 152.421, 151.85, 152.725, 151.133, 152.767, 152.131, 219.132, 151.441, 152.126, 151.966, 152.749, 151.69, 151.881, 219.601, 151.41, 150.782, 151.5, 152.342, 150.835, 152.529, 152.821, 218.439, 151.94, 150.762, 151.699],
  "Optimizer iterations": 109,
  "Optimizer params": [0.08797159755857385, 0.5364191922246568, 0.8922895300667933, 0.317602335045583, 0.1480350025346615, 0.6325630127804599],
  "P": 3,
  "Problem": "MIS",
  "QJob durations [ms]": [121.185302734375, 121.06084823608398, 121.31381034851074, 122.0545768737793, 121.97256088256836, 121.55008316040039, 121.1402416229248, 189.4664764404297, 121.65164947509766, 121.70863151550293, 121.64616584777832, 121.10209465026855, 121.15907669067383, 121.2155818939209, 121.58846855163574, 121.48237228393555, 121.59943580627441, 121.08564376831055, 121.32835388183594, 121.54221534729004, 121.57320976257324, 120.63121795654297, 189.97859954833984, 121.68550491333008, 120.47886848449707, 121.17958068847656, 121.40679359436035, 120.90611457824707, 122.38240242004395, 121.31571769714355, 120.63765525817871, 120.70488929748535, 121.54579162597656, 120.60904502868652, 122.08199501037598, 122.14422225952148, 120.64743041992188, 190.1237964630127, 120.74017524719238, 121.58036231994629, 122.10965156555176, 121.42682075500488, 120.56112289428711, 120.5902099609375, 190.32049179077148, 120.21946907043457, 121.28138542175293, 121.31428718566895, 120.76997756958008, 121.70839309692383, 121.4296817779541, 121.10519409179688, 189.09740447998047, 123.0003833770752, 120.31102180480957, 121.57988548278809, 121.52314186096191, 121.60563468933105, 121.59323692321777, 189.84246253967285, 120.89204788208008, 120.50485610961914, 121.24347686767578, 120.50700187683105, 121.6421127319336, 122.0095157623291, 120.74685096740723, 190.09637832641602, 122.13349342346191, 121.19650840759277, 121.67024612426758, 121.20866775512695, 121.66261672973633, 120.87416648864746, 121.42443656921387, 188.13729286193848, 121.44255638122559, 121.20914459228516, 121.70743942260742, 121.80829048156738, 121.60325050354004, 120.66912651062012, 190.6733512878418, 122.13635444641113, 121.53029441833496, 121.39153480529785, 121.72698974609375, 121.18029594421387, 121.98710441589355, 122.0710277557373, 188.45820426940918, 121.33479118347168, 121.5507984161377, 121.31953239440918, 121.85478210449219, 121.34838104248047, 120.78499794006348, 189.63932991027832, 121.55508995056152, 120.8028793334961, 121.25492095947266, 121.6132640838623, 120.85437774658203, 121.70696258544922, 121.6268539428711, 187.29591369628906, 121.11973762512207, 120.67270278930664, 121.09541893005371],
  "QPU": "9000001",
  "Qubits": 12,
  "Queue durations [ms]": [0.0, 0.0, 0.0, 0.0, 0.0, 0.0, 0.0, 0.0, 0.0, 0.0, 0.0, 0.0, 0.0, 0.0, 0.0, 0.0, 0.0, 0.0, 0.0, 0.0, 0.0, 0.0, 0.0, 0.0, 0.0, 0.0, 0.0, 0.0, 0.0, 0.0, 0.0, 0.0, 0.0, 0.0, 0.0, 0.0, 0.0, 0.0, 0.0, 0.0, 0.0, 0.0, 0.0, 0.0, 0.0, 0.0, 0.0, 0.0, 0.0, 0.0, 0.0, 0.0, 0.0, 0.0, 0.0, 0.0, 0.0, 0.0, 0.0, 0.0, 0.0, 0.0, 0.0, 0.0, 0.0, 0.0, 0.0, 0.0, 0.0, 0.0, 0.0, 0.0, 0.0, 0.0, 0.0, 0.0, 0.0, 0.0, 0.0, 0.0, 0.0, 0.0, 0.0, 0.0, 0.0, 0.0, 0.0, 0.0, 0.0, 0.0, 0.0, 0.0, 0.0, 0.0, 0.0, 0.0, 0.0, 0.0, 0.0, 0.0, 0.0, 0.0, 0.0, 0.0, 0.0, 0.0, 0.0, 0.0, 0.0],
  "Shots": 4096,
  "Size": 9,
  "Total Algorithm duration [s]": 17.579,
  "Total Classic duration [s]": 3.5354278125762946,
  "Total Quantum duration [s]": 14.043572187423706
}
