{
  "Circuit execution durations [ms]": [122.07508087158203, 121.21200561523438, 120.98526954650879, 121.1848258972168, 194.7014331817627, 120.23639678955078, 120.44334411621094, 119.85015869140625, 120.9716796875, 120.53108215332031, 120.3463077545166, 188.94529342651367, 120.7268238067627, 120.15819549560547, 120.19491195678711, 120.68605422973633, 120.0258731842041, 120.44787406921387, 122.26438522338867, 189.11027908325195, 121.00839614868164, 120.76687812805176, 120.50175666809082, 119.88663673400879, 120.91660499572754, 120.06187438964844, 120.58639526367188, 188.41791152954102, 120.07784843444824, 120.18203735351563, 120.95212936401367, 120.62454223632813, 120.56398391723633, 120.99432945251465, 188.88306617736816, 120.89109420776367, 120.84174156188965, 120.38898468017578, 120.09429931640625, 120.40185928344727, 120.04995346069336, 120.98956108093262, 188.676118850708, 120.38588523864746, 119.89235877990723, 120.97430229187012, 120.55802345275879, 120.73397636413574, 120.27883529663086, 189.0101432800293, 120.36967277526855, 120.1486587524414, 120.35322189331055, 120.29218673706055, 120.62668800354004, 119.77744102478027, 120.35489082336426, 187.81638145446777, 120.55182456970215, 119.99392509460449, 120.40495872497559, 120.24474143981934, 120.21231651306152, 120.6655502319336, 188.53020668029785, 120.07737159729004, 120.57924270629883, 120.84746360778809, 120.32032012939453, 120.33510208129883, 119.86565589904785, 120.04756927490234, 188.8422966003418, 120.32270431518555, 119.7509765625, 121.70267105102539, 119.86756324768066, 120.15557289123535, 120.70584297180176, 120.00656127929688, 187.8066062927246, 121.55342102050781, 120.09334564208984, 120.1786994934082, 121.0637092590332, 120.1319694519043, 119.81916427612305, 189.14127349853516, 120.2695369720459, 120.85866928100586, 120.35250663757324, 119.97699737548828, 119.97222900390625, 120.3451156616211, 119.75860595703125, 188.19189071655273, 120.23282051086426, 120.12743949890137],
  "Depth": 515.0,
  "Expectation Value": -2.28759765625,
  "Optimal Expectation Value": -3.0,
  "Optimizer durations [ms]": [153.612, 151.73, 152.161, 152.176, 226.05, 148.997, 149.457, 148.8, 149.922, 149.699, 149.158, 217.968, 149.411, 148.732, 149.221, 149.646, 148.694, 149.475, 151.162, 218.218, 149.821, 149.807, 149.203, 148.863, 149.672, 149.243, 149.606, 217.283, 148.811, 149.193, 149.798, 149.495, 149.546, 150.313, 217.853, 150.108, 149.649, 149.135, 149.111, 149.212, 148.85, 149.853, 217.384, 148.862, 148.902, 149.695, 149.387, 149.356, 149.161, 218.16, 149.159, 148.652, 149.216, 149.132, 149.443, 148.687, 149.086, 216.828, 149.249, 149.015, 149.29, 149.361, 149.379, 149.919, 217.906, 148.8, 149.512, 149.831, 149.236, 149.197, 148.867, 148.956, 217.959, 149.07, 148.888, 150.682, 148.988, 149.087, 149.924, 148.979, 216.919, 150.335, 149.127, 149.375, 150.201, 148.938, 148.853, 218.412, 149.095, 149.64, 149.093, 148.781, 148.909, 149.479, 148.675, 217.348, 149.13, 148.99],
  "Optimizer iterations": 98,
  "Optimizer params": [0.8841280248902437, 0.7693396793093349, 0.17406618870641774, 0.7333291982711162, 0.8839913510597326, 0.5358025348664138],
  "P": 3,
  "Problem": "MIS",
  "QJob durations [ms]": [122.07508087158203, 121.21200561523438, 120.98526954650879, 121.1848258972168, 194.7014331817627, 120.23639678955078, 120.44334411621094, 119.85015869140625, 120.9716796875, 120.53108215332031, 120.3463077545166, 188.94529342651367, 120.7268238067627, 120.15819549560547, 120.19491195678711, 120.68605422973633, 120.0258731842041, 120.44787406921387, 122.26438522338867, 189.11027908325195, 121.00839614868164, 120.76687812805176, 120.50175666809082, 119.88663673400879, 120.91660499572754, 120.06187438964844, 120.58639526367188, 188.41791152954102, 120.07784843444824, 120.18203735351563, 120.95212936401367, 120.62454223632813, 120.56398391723633, 120.99432945251465, 188.88306617736816, 120.89109420776367, 120.84174156188965, 120.38898468017578, 120.09429931640625, 120.40185928344727, 120.04995346069336, 120.98956108093262, 188.676118850708, 120.38588523864746, 119.89235877990723, 120.97430229187012, 120.55802345275879, 120.73397636413574, 120.27883529663086, 189.0101432800293, 120.36967277526855, 120.1486587524414, 120.35322189331055, 120.29218673706055, 120.62668800354004, 119.77744102478027, 120.35489082336426, 187.81638145446777, 120.55182456970215, 119.99392509460449, 120.40495872497559, 120.24474143981934, 120.21231651306152, 120.6655502319336, 188.53020668029785, 120.07737159729004, 120.57924270629883, 120.84746360778809, 120.32032012939453, 120.33510208129883, 119.86565589904785, 120.04756927490234, 188.8422966003418, 120.32270431518555, 119.7509765625, 121.70267105102539, 119.86756324768066, 120.15557289123535, 120.70584297180176, 120.00656127929688, 187.8066062927246, 121.55342102050781, 120.09334564208984, 120.1786994934082, 121.0637092590332, 120.1319694519043, 119.81916427612305, 189.14127349853516, 120.2695369720459, 120.85866928100586, 120.35250663757324, 119.97699737548828, 119.97222900390625, 120.3451156616211, 119.75860595703125, 188.19189071655273, 120.23282051086426, 120.12743949890137],
  "QPU": "9000001",
  "Qubits": 12,
  "Queue durations [ms]": [0.0, 0.0, 0.0, 0.0, 0.0, 0.0, 0.0, 0.0, 0.0, 0.0, 0.0, 0.0, 0.0, 0.0, 0.0, 0.0, 0.0, 0.0, 0.0, 0.0, 0.0, 0.0, 0.0, 0.0, 0.0, 0.0, 0.0, 0.0, 0.0, 0.0, 0.0, 0.0, 0.0, 0.0, 0.0, 0.0, 0.0, 0.0, 0.0, 0.0, 0.0, 0.0, 0.0, 0.0, 0.0, 0.0, 0.0, 0.0, 0.0, 0.0, 0.0, 0.0, 0.0, 0.0, 0.0, 0.0, 0.0, 0.0, 0.0, 0.0, 0.0, 0.0, 0.0, 0.0, 0.0, 0.0, 0.0, 0.0, 0.0, 0.0, 0.0, 0.0, 0.0, 0.0, 0.0, 0.0, 0.0, 0.0, 0.0, 0.0, 0.0, 0.0, 0.0, 0.0, 0.0, 0.0, 0.0, 0.0, 0.0, 0.0, 0.0, 0.0, 0.0, 0.0, 0.0, 0.0, 0.0, 0.0],
  "Shots": 4096,
  "Size": 9,
  "Total Algorithm duration [s]": 15.543,
  "Total Classic duration [s]": 2.845667617797851,
  "Total Quantum duration [s]": 12.697332382202148
}
