{
  "Circuit execution durations [ms]": [55.867671966552734, 60.44411659240723, 59.89336967468262, 54.120779037475586, 53.9093017578125, 54.79025840759277, 57.11054801940918, 53.63941192626953, 59.91005897521973, 58.7162971496582, 112.15972900390625, 63.077688217163086, 62.000274658203125, 58.65478515625, 55.08565902709961, 57.450056076049805, 58.26830863952637, 62.48807907104492, 58.03251266479492, 60.005903244018555, 57.75117874145508, 52.89912223815918, 59.859514236450195, 60.073137283325195, 56.731462478637695, 55.498361587524414, 59.461355209350586, 54.45599555969238, 59.2494010925293, 60.367584228515625, 56.19072914123535, 53.342342376708984, 61.269283294677734, 58.028459548950195, 63.344478607177734, 61.48552894592285, 60.09960174560547, 59.60798263549805, 57.825326919555664, 57.66701698303223, 53.047895431518555, 57.443857192993164, 62.71076202392578, 55.94158172607422, 55.06753921508789, 60.06455421447754, 60.53328514099121, 54.271697998046875, 62.69192695617676, 58.58945846557617, 63.08484077453613, 59.804677963256836, 57.16252326965332, 62.26086616516113, 57.93929100036621, 59.20290946960449, 59.668779373168945, 53.64418029785156, 57.4190616607666, 57.94954299926758, 57.19184875488281, 57.941436767578125, 59.20910835266113, 57.27744102478027, 59.79108810424805, 54.647207260131836, 59.47279930114746, 54.40831184387207, 53.473472595214844, 53.51710319519043, 55.278778076171875, 60.18829345703125, 57.444095611572266, 61.06138229370117, 60.29391288757324, 56.31732940673828, 106.35256767272949, 58.060646057128906, 53.69448661804199, 59.454917907714844, 61.45834922790527, 54.63361740112305, 58.99167060852051, 56.99563026428223, 59.66591835021973, 59.461116790771484, 58.9299201965332, 59.6768856048584, 55.59539794921875],
  "Depth": 32.0,
  "Expectation Value": -1.91259765625,
  "Optimal Expectation Value": -2.0,
  "Optimizer durations [ms]": [284.016, 339.783, 343.884, 283.061, 327.736, 338.226, 342.297, 281.555, 334.258, 337.792, 340.96, 292.933, 339.905, 343.137, 288.8, 337.226, 343.397, 295.013, 329.419, 336.534, 342.553, 282.15, 340.514, 340.568, 287.606, 326.571, 339.771, 342.434, 289.083, 337.555, 340.466, 285.102, 335.572, 341.45, 347.011, 293.23, 335.088, 337.542, 288.919, 329.683, 333.407, 340.502, 294.744, 335.339, 336.77, 289.304, 331.143, 334.448, 343.171, 287.869, 341.807, 342.727, 284.953, 338.017, 334.825, 341.716, 289.264, 329.904, 343.79, 285.338, 328.982, 336.784, 339.194, 287.731, 342.333, 333.21, 291.545, 327.144, 331.121, 338.965, 286.197, 336.443, 335.568, 291.927, 337.892, 339.141, 339.218, 292.057, 333.001, 341.783, 291.922, 326.708, 336.455, 340.825, 292.809, 337.856, 339.51, 291.306, 327.677],
  "Optimizer iterations": 89,
  "Optimizer params": [0.9651110684875653, 0.9668642189138269, 0.4074933779029929, 0.4072548967689266, 0.7343207042155045, 0.5520218846172344],
  "P": 3,
  "Problem": "MCP",
  "QJob durations [ms]": [84.45096015930176, 93.2455062866211, 93.23668479919434, 82.37576484680176, 85.87837219238281, 87.34631538391113, 89.4773006439209, 82.67593383789063, 88.30642700195313, 87.93067932128906, 141.17670059204102, 92.45681762695313, 90.76094627380371, 142.71187782287598, 88.47784996032715, 90.57497978210449, 91.28594398498535, 94.93899345397949, 86.74764633178711, 89.12920951843262, 142.24767684936523, 82.18145370483398, 93.06645393371582, 92.29278564453125, 88.15145492553711, 84.2282772064209, 92.4062728881836, 87.4478816986084, 88.39917182922363, 92.57626533508301, 89.66064453125, 85.5107307434082, 93.27912330627441, 90.14415740966797, 95.68214416503906, 93.7650203704834, 88.96040916442871, 88.8681411743164, 89.74552154541016, 87.23878860473633, 84.68317985534668, 89.79511260986328, 95.0613021850586, 88.71722221374512, 87.54396438598633, 89.12038803100586, 88.94467353820801, 86.4107608795166, 91.44401550292969, 88.1195068359375, 95.16501426696777, 92.86952018737793, 85.99638938903809, 94.79761123657227, 86.73715591430664, 88.65118026733398, 88.88387680053711, 82.90743827819824, 90.12889862060547, 86.20643615722656, 86.8377685546875, 89.55883979797363, 87.78858184814453, 89.04099464416504, 92.5455093383789, 83.70852470397949, 91.74990653991699, 84.22684669494629, 82.24105834960938, 138.83519172668457, 87.44025230407715, 89.69926834106445, 85.94346046447754, 92.7727222442627, 93.2161808013916, 89.68877792358398, 138.97323608398438, 90.99745750427246, 85.57939529418945, 92.25869178771973, 89.95556831359863, 83.85229110717773, 88.21821212768555, 140.94042778015137, 92.57102012634277, 92.08822250366211, 88.165283203125, 91.41278266906738, 84.57660675048828],
  "QPU": "3000013",
  "Qubits": 3,
  "Queue durations [ms]": [0.0, 0.0, 0.0, 0.0, 0.0, 0.0, 0.0, 0.0, 0.0, 0.0, 0.0, 0.0, 0.0, 0.0, 0.0, 0.0, 0.0, 0.0, 0.0, 0.0, 0.0, 0.0, 0.0, 0.0, 0.0, 0.0, 0.0, 0.0, 0.0, 0.0, 0.0, 0.0, 0.0, 0.0, 0.0, 0.0, 0.0, 0.0, 0.0, 0.0, 0.0, 0.0, 0.0, 0.0, 0.0, 0.0, 0.0, 0.0, 0.0, 0.0, 0.0, 0.0, 0.0, 0.0, 0.0, 0.0, 0.0, 0.0, 0.0, 0.0, 0.0, 0.0, 0.0, 0.0, 0.0, 0.0, 0.0, 0.0, 0.0, 0.0, 0.0, 0.0, 0.0, 0.0, 0.0, 0.0, 0.0, 0.0, 0.0, 0.0, 0.0, 0.0, 0.0, 0.0, 0.0, 0.0, 0.0, 0.0, 0.0],
  "Shots": 4096,
  "Size": 3,
  "Total Algorithm duration [s]": 28.757,
  "Total Classic duration [s]": 20.520895988464357,
  "Total Quantum duration [s]": 8.236104011535645
}
