{
  "Circuit execution durations [ms]": [54.54754829406738, 60.7607364654541, 57.94048309326172, 55.9544563293457, 58.85457992553711, 55.472373962402344, 60.68253517150879, 52.75583267211914, 55.57584762573242, 55.5424690246582, 57.11102485656738, 60.28318405151367, 57.99746513366699, 61.506032943725586, 61.38300895690918, 53.16781997680664, 60.14204025268555, 57.70277976989746, 60.076236724853516, 55.358171463012695, 60.15825271606445, 52.704572677612305, 62.363386154174805, 60.170650482177734, 58.45785140991211, 60.593605041503906, 55.287837982177734, 57.03401565551758, 55.95231056213379, 54.31056022644043, 60.32681465148926, 54.73780632019043, 64.38875198364258, 61.07163429260254, 54.60858345031738, 58.63785743713379, 60.82439422607422, 56.79154396057129, 54.05068397521973, 55.663108825683594, 57.654380798339844, 56.87427520751953, 61.77973747253418, 57.782649993896484, 59.209346771240234, 59.166908264160156, 59.179067611694336, 60.45269966125488, 60.285329818725586, 58.802127838134766, 56.92028999328613, 59.88049507141113, 59.697628021240234, 59.74912643432617, 60.54353713989258, 60.90998649597168, 59.121131896972656, 61.12051010131836, 57.01327323913574, 58.58016014099121, 58.51387977600098, 61.17367744445801, 56.80370330810547, 56.9000244140625, 61.71250343322754, 56.77318572998047, 58.121442794799805, 58.98141860961914, 57.576894760131836, 59.87143516540527, 55.24849891662598, 63.570261001586914, 52.77371406555176, 58.00032615661621, 60.46938896179199, 60.97698211669922],
  "Depth": 32.0,
  "Expectation Value": -1.88525390625,
  "Optimal Expectation Value": -2.0,
  "Optimizer durations [ms]": [337.122, 292.946, 329.244, 332.984, 343.645, 288.626, 340.112, 334.045, 284.599, 330.809, 336.06, 339.285, 287.36, 339.117, 343.513, 286.462, 336.477, 337.772, 340.589, 284.375, 338.858, 330.238, 293.542, 335.403, 339.264, 344.456, 286.728, 336.108, 336.441, 287.265, 331.978, 336.101, 345.614, 290.189, 329.079, 339.913, 289.546, 332.631, 329.902, 334.251, 290.916, 335.108, 344.06, 288.752, 334.067, 335.6, 343.652, 289.051, 338.959, 340.176, 288.793, 330.428, 340.46, 343.109, 289.074, 340.669, 341.045, 288.221, 332.24, 333.935, 340.67, 292.259, 335.932, 334.502, 294.939, 329.71, 334.587, 344.577, 288.827, 335.311, 341.703, 292.976, 324.425, 338.137, 345.351, 292.558],
  "Optimizer iterations": 76,
  "Optimizer params": [0.9429735267486408, 0.4669519382336085, 0.5088434746710374, 0.7910957565794275, 0.12180085158596494, 0.14631413108682848],
  "P": 3,
  "Problem": "MCP",
  "QJob durations [ms]": [87.65125274658203, 93.40167045593262, 86.88068389892578, 84.9001407623291, 143.56374740600586, 88.3646011352539, 93.60671043395996, 85.04271507263184, 84.9909782409668, 87.57424354553223, 88.93632888793945, 89.03360366821289, 86.98391914367676, 93.60361099243164, 94.38657760620117, 85.84451675415039, 93.01209449768066, 89.66255187988281, 88.53006362915039, 84.44333076477051, 93.11509132385254, 80.8873176574707, 94.87366676330566, 92.7278995513916, 90.6529426574707, 93.0166244506836, 87.80241012573242, 89.8592472076416, 84.94091033935547, 87.01848983764648, 88.60588073730469, 87.1880054473877, 146.2075710296631, 90.6064510345459, 83.6641788482666, 90.52467346191406, 89.70856666564941, 89.96367454528809, 82.55434036254883, 84.28502082824707, 90.12246131896973, 89.58601951599121, 94.95139122009277, 89.53309059143066, 92.00811386108398, 88.00649642944336, 91.81904792785645, 89.66445922851563, 90.16776084899902, 91.5672779083252, 89.65516090393066, 88.36841583251953, 92.03982353210449, 92.15497970581055, 89.83826637268066, 94.03347969055176, 91.25638008117676, 89.2796516418457, 90.1799201965332, 87.24689483642578, 90.55900573730469, 90.67821502685547, 89.23459053039551, 85.85810661315918, 94.69032287597656, 86.32016181945801, 87.18609809875488, 87.85176277160645, 89.67161178588867, 89.33830261230469, 88.26279640197754, 92.82183647155762, 81.09426498413086, 89.89548683166504, 93.53137016296387, 92.66376495361328],
  "QPU": "3000013",
  "Qubits": 3,
  "Queue durations [ms]": [0.0, 0.0, 0.0, 0.0, 0.0, 0.0, 0.0, 0.0, 0.0, 0.0, 0.0, 0.0, 0.0, 0.0, 0.0, 0.0, 0.0, 0.0, 0.0, 0.0, 0.0, 0.0, 0.0, 0.0, 0.0, 0.0, 0.0, 0.0, 0.0, 0.0, 0.0, 0.0, 0.0, 0.0, 0.0, 0.0, 0.0, 0.0, 0.0, 0.0, 0.0, 0.0, 0.0, 0.0, 0.0, 0.0, 0.0, 0.0, 0.0, 0.0, 0.0, 0.0, 0.0, 0.0, 0.0, 0.0, 0.0, 0.0, 0.0, 0.0, 0.0, 0.0, 0.0, 0.0, 0.0, 0.0, 0.0, 0.0, 0.0, 0.0, 0.0, 0.0, 0.0, 0.0, 0.0, 0.0],
  "Shots": 4096,
  "Size": 3,
  "Total Algorithm duration [s]": 24.567,
  "Total Classic duration [s]": 17.667246906280518,
  "Total Quantum duration [s]": 6.899753093719482
}
