{
  "Circuit execution durations [ms]": [65.56963920593262, 65.72794914245605, 64.86773490905762, 65.70041179656982, 64.56363201141357, 91.53687953948975, 91.09604358673096, 65.9792423248291, 63.90488147735596, 63.64643573760986, 64.841628074646, 62.53457069396973, 64.35990333557129, 66.03693962097168, 64.36622142791748, 65.55342674255371, 88.95349502563477, 64.81683254241943, 91.59994125366211, 63.86864185333252, 64.92578983306885, 63.970088958740234, 62.30199337005615, 64.45074081420898, 63.80116939544678, 65.02306461334229, 64.04507160186768, 63.94386291503906, 64.94772434234619, 90.91305732727051, 63.20321559906006, 63.92824649810791, 63.414692878723145, 62.12258338928223, 64.29719924926758, 64.7435188293457, 63.47334384918213, 62.636494636535645, 64.61966037750244, 63.49515914916992, 63.696980476379395, 88.34779262542725, 90.5146598815918, 64.12148475646973, 63.33649158477783, 65.86050987243652, 63.832998275756836, 63.79854679107666, 66.50185585021973, 62.28005886077881, 63.83693218231201, 65.92512130737305, 95.15035152435303, 66.5820837020874, 87.5931978225708, 64.99993801116943, 66.48921966552734, 64.26870822906494, 66.85662269592285, 63.80760669708252, 64.90743160247803, 64.87822532653809, 65.39857387542725, 62.221527099609375, 62.0800256729126, 89.83588218688965, 64.48221206665039, 63.28320503234863, 63.85540962219238, 63.74406814575195, 64.17453289031982, 64.10014629364014, 62.15059757232666, 63.3087158203125, 64.12291526794434, 64.87929821014404, 64.6284818649292, 89.46597576141357, 90.20960330963135, 64.2324686050415, 63.237905502319336, 64.849853515625, 66.06221199035645, 63.98022174835205, 62.08217144012451],
  "Depth": 2.0,
  "Expectation Value": -3.1221184730529785,
  "Optimal Expectation Value": -4.281300067901611,
  "Optimizer durations [ms]": [650.105, 614.725, 605.482, 645.209, 593.033, 597.23, 649.06, 604.335, 589.688, 593.37, 633.84, 584.029, 595.74, 640.247, 590.983, 596.54, 638.546, 591.386, 594.055, 591.359, 638.771, 582.393, 586.082, 637.587, 588.182, 592.568, 641.064, 587.787, 597.381, 647.624, 586.651, 581.788, 590.374, 633.676, 584.556, 594.665, 633.633, 583.699, 596.355, 637.831, 588.118, 589.34, 645.317, 589.92, 580.284, 593.251, 632.9, 585.016, 595.618, 635.246, 586.906, 595.588, 684.973, 598.705, 592.475, 605.34, 649.647, 596.009, 600.058, 638.48, 598.058, 588.141, 645.356, 583.783, 586.777, 639.414, 591.275, 579.042, 586.517, 630.808, 581.283, 585.91, 632.794, 579.228, 590.394, 634.885, 582.373, 586.958, 656.481, 586.343, 580.735, 585.229, 630.278, 583.18, 589.355],
  "Optimizer iterations": 85,
  "Optimizer params": [0.03303304539805033, 0.5158117793575692, 0.021922619805294048, 0.4986963190383997, 0.05051146968748267, 1.0, 0.4825911735280701],
  "P": 0,
  "Problem": "RH",
  "QJob durations [ms]": [77.3627758026123, 77.47399806976318, 76.20871067047119, 102.64134407043457, 76.08640193939209, 103.40774059295654, 103.09553146362305, 77.51548290252686, 75.37412643432617, 75.56545734405518, 76.51400566101074, 74.2030143737793, 75.96099376678467, 77.3245096206665, 76.1260986328125, 76.81655883789063, 100.98743438720703, 76.13575458526611, 102.85329818725586, 75.42991638183594, 76.14505290985107, 75.08254051208496, 73.57680797576904, 75.74033737182617, 75.25122165679932, 76.31468772888184, 75.35839080810547, 75.44195652008057, 104.1407585144043, 102.1413803100586, 74.7002363204956, 75.32000541687012, 74.79023933410645, 73.42171669006348, 75.61278343200684, 76.28345489501953, 75.09219646453857, 73.89664649963379, 75.88803768157959, 100.74889659881592, 75.28936862945557, 99.85101222991943, 102.94795036315918, 75.45983791351318, 74.96428489685059, 77.65722274780273, 75.41143894195557, 75.20115375518799, 77.8723955154419, 73.52817058563232, 75.38223266601563, 77.414870262146, 107.22863674163818, 78.23169231414795, 99.00188446044922, 77.0343542098999, 77.97098159790039, 75.73628425598145, 78.18925380706787, 75.35290718078613, 76.09903812408447, 76.10368728637695, 76.98512077331543, 73.71294498443604, 99.67195987701416, 100.99172592163086, 75.68824291229248, 74.50175285339355, 75.37305355072021, 75.0950574874878, 75.54566860198975, 75.29783248901367, 73.84181022644043, 74.54156875610352, 75.55794715881348, 101.55916213989258, 75.93894004821777, 101.33206844329834, 101.79054737091064, 75.71852207183838, 74.61369037628174, 76.3392448425293, 77.1937370300293, 75.32906532287598, 73.41110706329346],
  "QPU": "300001B",
  "Qubits": 7,
  "Queue durations [ms]": [0.0, 0.0, 0.0, 0.0, 0.0, 0.0, 0.0, 0.0, 0.0, 0.0, 0.0, 0.0, 0.0, 0.0, 0.0, 0.0, 0.0, 0.0, 0.0, 0.0, 0.0, 0.0, 0.0, 0.0, 0.0, 0.0, 0.0, 0.0, 0.0, 0.0, 0.0, 0.0, 0.0, 0.0, 0.0, 0.0, 0.0, 0.0, 0.0, 0.0, 0.0, 0.0, 0.0, 0.0, 0.0, 0.0, 0.0, 0.0, 0.0, 0.0, 0.0, 0.0, 0.0, 0.0, 0.0, 0.0, 0.0, 0.0, 0.0, 0.0, 0.0, 0.0, 0.0, 0.0, 0.0, 0.0, 0.0, 0.0, 0.0, 0.0, 0.0, 0.0, 0.0, 0.0, 0.0, 0.0, 0.0, 0.0, 0.0, 0.0, 0.0, 0.0, 0.0, 0.0, 0.0],
  "Shots": 4096,
  "Size": 7,
  "Total Algorithm duration [s]": 51.52,
  "Total Classic duration [s]": 44.63601006984711,
  "Total Quantum duration [s]": 6.883989930152893
}
