{
  "Circuit execution durations [ms]": [63.99977207183838, 63.07077407836914, 63.38798999786377, 61.635732650756836, 63.49599361419678, 89.31207656860352, 64.52584266662598, 63.2319450378418, 64.73231315612793, 65.15026092529297, 62.93892860412598, 62.404632568359375, 65.04929065704346, 62.93797492980957, 64.03446197509766, 63.387155532836914, 62.835097312927246, 88.48190307617188, 89.3787145614624, 66.28549098968506, 62.70885467529297, 64.59629535675049, 64.93091583251953, 65.72222709655762, 64.27836418151855, 64.139723777771, 62.92760372161865, 66.886305809021, 89.42067623138428, 64.92269039154053, 88.07897567749023, 65.51957130432129, 64.87560272216797, 62.15548515319824, 65.28353691101074, 63.991546630859375, 66.69986248016357, 67.4896240234375, 63.765764236450195, 72.85714149475098, 63.645124435424805, 91.99833869934082, 64.81015682220459, 62.795042991638184, 63.225507736206055, 67.62874126434326, 67.68476963043213, 66.6736364364624, 67.2529935836792, 68.08662414550781, 63.93301486968994, 64.34857845306396, 61.06841564178467, 89.4697904586792, 89.93792533874512, 63.733577728271484, 63.60888481140137, 64.20159339904785, 63.748717308044434, 62.512755393981934, 60.47987937927246, 61.82432174682617, 62.601566314697266, 61.87641620635986, 87.07869052886963, 63.51315975189209, 91.16172790527344, 64.86988067626953, 62.29603290557861, 63.25531005859375, 66.37406349182129, 63.28737735748291, 65.987229347229, 65.83631038665771, 63.521623611450195, 66.37609004974365, 65.6728744506836, 91.12429618835449, 63.982248306274414, 63.519835472106934, 64.96727466583252, 62.61718273162842, 64.84949588775635, 64.84425067901611, 61.02156639099121, 64.07415866851807, 62.76237964630127],
  "Depth": 2.0,
  "Expectation Value": -3.539201498031616,
  "Optimal Expectation Value": -4.281300067901611,
  "Optimizer durations [ms]": [584.16, 585.831, 632.684, 575.506, 592.393, 637.212, 592.556, 579.125, 596.539, 647.669, 589.419, 582.501, 638.995, 590.745, 585.607, 631.646, 578.478, 589.99, 645.525, 600.822, 576.006, 602.628, 629.618, 586.523, 583.792, 639.784, 617.64, 629.519, 632.218, 585.462, 582.235, 588.611, 647.839, 574.302, 585.435, 627.942, 611.299, 625.56, 630.996, 602.137, 592.572, 660.256, 587.55, 584.075, 600.789, 645.175, 621.638, 599.402, 672.536, 602.741, 610.699, 639.844, 593.623, 625.087, 677.085, 587.301, 573.609, 588.634, 628.452, 581.508, 578.065, 629.056, 579.593, 582.342, 632.576, 582.198, 591.086, 588.448, 638.579, 587.151, 600.387, 655.769, 594.972, 597.99, 647.158, 599.512, 604.246, 651.708, 587.555, 583.613, 590.452, 630.527, 604.147, 591.862, 641.914, 603.783, 587.592],
  "Optimizer iterations": 87,
  "Optimizer params": [0.9999999999999999, 0.5275908355995136, 0.9975069933638308, 0.48881127383700923, 0.7562867843268952, 1.0, 0.502265865392752],
  "P": 0,
  "Problem": "RH",
  "QJob durations [ms]": [75.10530948638916, 74.44643974304199, 74.61178302764893, 72.86262512207031, 102.03862190246582, 100.45015811920166, 76.00879669189453, 74.9061107635498, 76.2472152709961, 76.56419277191162, 74.1422176361084, 73.91119003295898, 76.29847526550293, 74.42080974578857, 75.22940635681152, 99.94018077850342, 74.05626773834229, 100.03411769866943, 100.9068489074707, 77.62861251831055, 73.99439811706543, 76.28297805786133, 76.29823684692383, 77.10051536560059, 75.47128200531006, 75.56343078613281, 74.35107231140137, 84.61487293243408, 100.8216142654419, 76.30419731140137, 99.18570518493652, 76.94661617279053, 76.16424560546875, 73.34017753601074, 76.3934850692749, 75.28245449066162, 77.96657085418701, 79.57255840301514, 74.96201992034912, 84.11741256713867, 102.32007503509521, 103.5764217376709, 76.14338397979736, 73.99284839630127, 74.62465763092041, 78.77898216247559, 80.68692684173584, 78.17792892456055, 78.90748977661133, 79.73766326904297, 75.41370391845703, 102.61929035186768, 73.34232330322266, 101.43804550170898, 101.54223442077637, 74.83339309692383, 74.72944259643555, 76.06995105743408, 75.54805278778076, 74.22316074371338, 71.76005840301514, 73.1724500656128, 74.16439056396484, 73.11797142028809, 98.65105152130127, 74.77998733520508, 102.46312618255615, 76.34365558624268, 73.93419742584229, 74.73671436309814, 77.73733139038086, 75.1124620437622, 77.16059684753418, 77.13496685028076, 74.78773593902588, 77.8733491897583, 105.05044460296631, 103.04403305053711, 75.18553733825684, 74.81765747070313, 76.25997066497803, 73.85766506195068, 76.21920108795166, 76.17044448852539, 72.39043712615967, 75.55079460144043, 74.1349458694458],
  "QPU": "300001B",
  "Qubits": 7,
  "Queue durations [ms]": [0.0, 0.0, 0.0, 0.0, 0.0, 0.0, 0.0, 0.0, 0.0, 0.0, 0.0, 0.0, 0.0, 0.0, 0.0, 0.0, 0.0, 0.0, 0.0, 0.0, 0.0, 0.0, 0.0, 0.0, 0.0, 0.0, 0.0, 0.0, 0.0, 0.0, 0.0, 0.0, 0.0, 0.0, 0.0, 0.0, 0.0, 0.0, 0.0, 0.0, 0.0, 0.0, 0.0, 0.0, 0.0, 0.0, 0.0, 0.0, 0.0, 0.0, 0.0, 0.0, 0.0, 0.0, 0.0, 0.0, 0.0, 0.0, 0.0, 0.0, 0.0, 0.0, 0.0, 0.0, 0.0, 0.0, 0.0, 0.0, 0.0, 0.0, 0.0, 0.0, 0.0, 0.0, 0.0, 0.0, 0.0, 0.0, 0.0, 0.0, 0.0, 0.0, 0.0, 0.0, 0.0, 0.0, 0.0],
  "Shots": 4096,
  "Size": 7,
  "Total Algorithm duration [s]": 52.852,
  "Total Classic duration [s]": 45.84513962459564,
  "Total Quantum duration [s]": 7.006860375404358
}
