{
  "Depth": 16.5,
  "Job durations [ms]": [34.00000091642141, 34.99999921768904, 37.00000047683716, 33.00000075250864, 36.50000039488077, 32.999999821186066, 36.000000312924385, 32.500000670552254, 35.00000014901161, 35.499999299645424, 34.49999913573265, 43.50000061094761, 37.00000047683716, 40.50000011920929, 55.000001564621925, 40.00000096857548, 42.000001296401024, 37.99999877810478, 44.50000077486038, 35.500000230968, 35.00000014901161, 44.999999925494194, 38.50000165402889, 37.00000047683716, 37.49999962747097, 49.00000058114529, 36.00000124424696, 39.499999955296516, 35.00000014901161, 39.50000088661909, 43.99999976158142, 38.49999979138374, 40.9999992698431, 39.499999955296516, 35.00000108033419, 45.499999076128006, 37.500000558793545, 41.50000028312206, 30.00000026077032, 34.5000009983778, 33.49999990314245, 36.999999545514584, 37.00000047683716, 35.00000108033419, 40.50000011920929, 44.49999891221523, 30.00000026077032, 39.000000804662704, 31.999999657273293, 31.999999657273293, 33.49999990314245, 38.99999987334013, 37.00000047683716, 35.50000116229057, 34.99999921768904, 33.00000075250864, 33.99999998509884, 58.50000120699406, 36.500001326203346, 37.49999962747097, 31.999999657273293, 41.00000113248825, 37.49999962747097, 38.00000064074993, 35.00000108033419, 39.499999955296516, 33.999999053776264, 37.99999877810478, 33.49999990314245, 38.49999979138374, 40.9999992698431, 37.500000558793545, 39.99999910593033, 38.00000064074993, 37.500000558793545, 39.499999955296516, 37.99999970942736, 37.500000558793545, 40.50000011920929, 34.00000091642141, 37.99999970942736, 36.999999545514584, 38.999998942017555, 41.50000028312206, 34.00000091642141, 31.499999575316906, 32.500000670552254, 31.50000050663948, 26.50000061839819, 43.50000061094761, 21.499999798834324, 37.00000047683716, 41.50000028312206, 38.00000064074993, 35.00000108033419, 32.00000058859587, 33.49999990314245, 33.49999990314245, 36.000000312924385, 38.00000064074993, 33.00000075250864, 40.00000096857548, 36.999999545514584, 30.00000026077032, 40.499999187886715, 35.00000014901161, 40.50000011920929, 38.49999886006117, 37.500000558793545, 35.00000014901161, 49.99999888241291, 38.50000072270632, 37.99999970942736, 42.500000447034836, 50.49999989569187, 50.49999989569187, 36.500001326203346, 37.99999970942736, 35.00000108033419, 30.000001192092896, 35.99999938160181, 38.49999979138374, 36.999999545514584, 38.49999979138374, 38.49999979138374, 33.50000083446503, 34.5000009983778, 39.000000804662704, 31.499999575316906, 38.00000064074993, 35.499999299645424, 35.500000230968, 33.49999990314245, 40.0000000372529, 35.499999299645424, 30.499999411404133, 39.50000088661909, 37.00000047683716, 39.499999955296516, 41.00000113248825, 37.49999962747097, 42.49999951571226, 38.49999979138374, 40.50000011920929, 36.000000312924385, 38.50000072270632, 34.5000009983778, 40.9999992698431, 40.50000011920929, 46.00000008940697, 34.99999921768904, 38.50000165402889, 36.4999994635582, 39.500001817941666, 35.500000230968, 34.00000091642141, 34.49999913573265, 33.50000083446503, 48.00000041723251, 40.50000011920929, 34.5000009983778, 33.00000075250864, 33.00000075250864, 37.99999877810478, 45.50000000745058, 28.00000086426735, 29.999999329447746, 38.99999987334013, 43.49999874830246, 44.999999925494194, 43.50000061094761, 38.00000064074993, 34.500000067055225, 38.00000064074993, 41.00000113248825, 47.999998554587364, 33.49999990314245, 35.50000116229057, 40.50000011920929, 40.00000096857548, 33.50000083446503, 36.500001326203346, 39.499999955296516, 37.00000047683716, 39.99999910593033, 41.999999433755875, 35.99999938160181, 40.9999992698431, 55.49999885261059, 46.49999924004078, 32.999999821186066, 33.99999998509884, 36.000000312924385, 33.99999998509884, 35.00000014901161, 37.500000558793545, 37.99999970942736, 35.00000014901161, 35.50000116229057, 33.49999990314245, 33.99999998509884, 40.00000096857548, 35.99999938160181, 38.49999979138374, 32.500000670552254, 36.000000312924385, 36.50000039488077, 60.00000052154064, 33.00000075250864, 30.99999949336052, 34.00000091642141, 32.49999973922968, 36.50000039488077, 37.49999962747097, 37.00000047683716, 41.999999433755875, 31.50000050663948, 38.00000064074993, 39.99999910593033, 35.00000014901161, 38.00000064074993, 37.00000047683716, 25.500000454485416, 35.99999938160181, 33.99999998509884, 33.99999998509884, 34.5000009983778, 39.99999910593033, 33.50000083446503, 43.50000061094761, 35.50000116229057, 39.499999955296516, 33.99999998509884, 40.00000096857548, 33.49999990314245, 32.999999821186066, 35.00000014901161, 51.500000059604645, 37.500000558793545, 32.500000670552254, 46.49999924004078, 32.49999973922968, 35.50000116229057, 58.50000120699406, 40.50000011920929, 34.99999921768904, 35.00000014901161, 32.500000670552254, 36.4999994635582, 33.99999998509884, 39.499999955296516, 33.99999998509884, 37.00000047683716, 33.49999990314245, 38.49999979138374, 34.5000009983778, 35.500000230968, 34.00000091642141, 36.00000124424696, 39.499999955296516, 39.000000804662704, 44.50000077486038, 40.50000011920929, 41.999999433755875, 35.50000116229057, 37.00000047683716, 36.4999994635582, 32.999999821186066, 31.000000424683094, 105.99999781697989, 37.00000047683716, 42.99999959766865, 39.499999955296516, 38.49999979138374, 32.49999973922968, 37.99999970942736, 24.000000208616257, 33.00000075250864, 39.000000804662704, 35.500000230968, 34.99999921768904, 38.00000064074993, 35.99999938160181, 35.499999299645424, 34.99999921768904, 33.50000083446503, 36.4999994635582, 36.500001326203346, 36.000000312924385, 38.49999979138374, 24.000000208616257, 33.49999990314245, 36.000000312924385, 32.49999973922968, 35.99999938160181, 35.50000116229057, 36.000000312924385, 41.50000028312206, 34.5000009983778, 34.500000067055225, 33.49999990314245, 33.49999990314245, 32.49999973922968, 31.499999575316906, 39.499999955296516, 35.500000230968, 36.000000312924385, 34.00000091642141, 48.00000041723251, 52.50000022351742, 33.99999998509884, 209.99999716877937, 35.00000014901161, 34.5000009983778, 35.99999938160181, 38.00000064074993, 42.500000447034836, 36.50000039488077, 36.000000312924385, 37.00000047683716, 42.000001296401024, 35.00000014901161, 35.500000230968, 33.99999998509884, 37.00000047683716, 38.00000064074993, 33.50000083446503, 37.49999962747097, 47.00000211596489, 37.49999962747097, 34.5000009983778, 36.4999994635582, 42.99999959766865, 34.00000091642141, 34.500000067055225, 32.49999973922968, 38.00000064074993, 36.4999994635582, 36.50000039488077, 34.5000009983778],
  "Optimizer durations [ms]": [12185.529, 12024.946, 12424.076, 12093.258, 12487.973, 12171.865, 12498.104, 12083.562, 12399.117, 12280.468, 12280.837, 12088.059, 12590.474, 12189.328, 12079.485, 12085.962, 12508.343, 12215.519, 12887.626, 12175.164, 12475.439, 12498.168, 12344.43, 12345.552, 12182.804, 12068.456, 12531.025, 11981.423, 12452.131, 12620.554, 12382.887, 12120.953, 12029.792, 12414.04, 12074.83, 12123.662, 12148.121, 12187.506, 12320.779, 12257.517, 12673.088, 12163.303, 12269.735, 12443.872, 12301.363, 12235.498, 12538.654, 12416.938, 12139.836, 12332.591, 12618.482, 12819.507, 12426.578, 12089.758, 12374.366, 12105.107, 12189.978, 12073.023, 12487.799, 12306.069, 12296.439, 12160.963, 12072.872, 12069.974, 12157.244, 12490.731, 12218.326, 12102.06, 12257.494, 12221.713, 12228.659, 12428.564, 17943.47, 12366.333, 11977.426, 12094.647, 12105.881, 12706.92, 12190.151, 12161.037, 12033.239, 12352.428, 13081.345, 12691.357, 13571.398, 12285.571, 12278.883, 12369.14, 12395.598, 12175.838, 12439.071, 12039.287, 12234.552, 12252.208, 12097.13, 12162.432, 12077.565, 12064.969, 12102.288, 12290.016, 12388.195, 12184.089, 12293.93, 12264.334, 13236.018, 12363.665, 12301.106, 12379.753, 12077.707, 12033.103, 12258.881, 12393.651, 12080.965, 12187.353, 12605.572, 12380.572, 12096.203, 12354.791, 12226.563, 12293.602, 12159.56, 12301.476, 12211.676, 12352.863, 12127.396, 12254.594, 12071.465, 12085.158, 12186.771, 12400.66, 12184.243, 12459.262, 12493.25, 12346.218, 12058.475, 12151.297, 12334.246, 12287.158, 12679.288, 12210.85, 12134.493, 12105.27, 12265.96, 12207.782, 12396.604, 12080.067, 12339.841, 12285.96, 12280.826, 12367.057, 12478.079, 12773.701, 12219.088, 12482.367, 12181.296, 12291.287, 12593.045, 12110.719, 12060.922, 12081.328, 12183.906, 12416.301, 12517.915, 12586.991, 12564.422, 12106.0, 12051.523, 12297.226, 12512.812, 12257.585, 12407.443, 12378.371, 12075.093, 12323.981, 12358.653, 12230.751, 12077.409, 12315.512, 12118.348, 12402.272, 12395.322, 12399.863, 12389.622, 12161.597, 12626.357, 12373.915, 12186.43, 12189.769, 12525.416, 12316.886, 12235.996, 12262.557, 12417.806, 12186.372, 12359.348, 12391.41, 12295.792, 12342.661, 12118.201, 12321.471, 12164.874, 12282.142, 12201.217, 12168.604, 12190.861, 12331.017, 12146.431, 12218.077, 12144.421, 12389.103, 12291.808, 12517.768, 12512.094, 12366.749, 12498.288, 12466.797, 12467.044, 12336.056, 12210.664, 12159.171, 12899.644, 12267.858, 12089.571, 12557.243, 12319.419, 12296.256, 12688.982, 12741.74, 12452.264, 12158.721, 12324.56, 12660.781, 12312.529, 12494.539, 12281.353, 12396.411, 11988.808, 12257.532, 12436.604, 12056.472, 12114.898, 12302.339, 12358.87, 12191.258, 12169.174, 12233.4, 12136.068, 12493.532, 12289.016, 12185.546, 12366.426, 12309.537, 12477.713, 12508.489, 12319.528, 12439.252, 12639.307, 12809.932, 12155.225, 12061.916, 12019.418, 12444.472, 12291.527, 12220.381, 12385.314, 12391.153, 12295.587, 12375.488, 12161.53, 12135.005, 12363.003, 12289.743, 12288.974, 12186.077, 12116.105, 12423.673, 12225.206, 12353.415, 12169.241, 12252.881, 12187.005, 12382.661, 13176.799, 12310.039, 12308.141, 12312.794, 12582.531, 12294.654, 12561.418, 12083.847, 12757.938, 12312.353, 12274.743, 12656.005, 12202.878, 12058.775, 12180.342, 12128.5, 12434.485, 12178.102, 12759.472, 12455.485, 12491.087, 12263.138, 12214.423, 12466.861, 12532.722, 12148.963, 12696.837, 12484.223, 12399.867, 12277.537, 12394.095, 12231.702, 12646.145, 12382.927, 12224.299, 12147.943, 12309.098, 12299.913, 12409.035, 12366.261, 12378.163, 12837.766, 12251.048, 12590.79, 13446.439, 12200.245, 12071.333, 12523.537, 12261.668, 12054.072, 12387.559, 12506.638, 12475.425, 17717.017, 12290.626, 12299.23, 12427.129, 12353.312],
  "Optimizer iterations": 340,
  "Qubits": 7,
  "Total Algorithm duration [s]": 4200.483,
  "Total Classic duration [s]": 4187.572499940165,
  "Total Quantum duration [s]": 12.910500059835613,
  "Expectation Value": -7.12890625,
  "Optimal Expectation Value": -8.5667724609375,
  "Optimizer params": [0.610063965012459, 0.7789674439171003, 0.8332550992970513, 0.6474626317744301, 0.8748236677868759, 0.6768938465786046, 0.8153856956403758, 0.5412406182199414, 0.47944077696013204, 0.48096522566674815, 0.4942772390588241, 0.47400377710805647, 0.49469039793292624, 0.8810462345047674, 0.5043131718336695, 0.4925989783148695, 0.48790490679671084, 0.47297902900031213, 0.48603558346521625, 0.45260408355982445, 0.4019180548535565, 0.5745297245780374, 0.4855067908720655, 0.4671823285160626, 0.5025980144060244, 0.47880562513856656, 0.49443946964034574, 0.4669950818691803],
  "QPU": "10000001",
  "Problem": "IC",
  "Size": 7,
  "P": 0,
  "Shots": 4096
}