{
  "Depth": 682.0,
  "Job durations [ms]": [4.7527, 4.7606, 4.7444999999999995, 4.7044, 5.0588999999999995, 5.1783, 4.7562999999999995, 4.7233, 4.7017, 4.6902, 4.8183, 4.7103, 4.674799999999999, 4.911, 4.6955, 4.6613999999999995, 5.0837, 4.9422, 4.5576, 5.0018, 4.7081, 4.7185999999999995, 4.7305, 4.6086, 4.7526, 4.7498000000000005, 4.911300000000001, 4.9077, 4.9094999999999995, 4.9363, 4.6626, 4.6784, 4.5958, 4.8976999999999995, 4.6245, 4.6052, 4.6084000000000005, 4.6626, 4.6624, 4.6175, 4.6149, 4.6152, 4.6315, 4.5195, 4.943300000000001, 4.7775, 4.6183, 4.6886, 4.6361, 4.5982, 4.5138, 4.0402, 3.7702999999999998, 3.7233, 3.8338, 3.8101, 3.7496, 3.749, 3.7705, 3.7489, 3.7168, 3.8066, 3.7840000000000003, 3.7954999999999997, 3.7425, 3.7272999999999996, 3.8270999999999997, 3.6098, 3.9591000000000003, 4.0439, 3.7504, 3.7831, 3.819, 3.7767, 3.8706, 3.8063, 3.746, 3.9359, 3.7946, 3.7775, 4.0451999999999995],
  "Optimizer durations [ms]": [48.701, 48.784, 48.359, 54.361, 55.947, 57.332, 48.26, 48.679, 48.017, 47.782, 49.018, 48.092, 47.426, 49.841, 57.576, 52.268, 51.663, 54.964, 56.17, 51.799, 48.611, 48.035, 48.207, 51.856, 58.058, 57.467, 50.513, 49.921, 54.901, 50.48, 52.213, 47.497, 46.85, 49.733, 47.032, 46.984, 46.741, 47.404, 47.301, 46.923, 47.098, 47.057, 47.001, 50.749, 53.12, 50.461, 46.879, 47.586, 47.057, 47.323, 46.272, 46.34, 38.897, 38.082, 39.198, 39.479, 38.499, 38.238, 38.6, 38.481, 38.157, 39.141, 38.912, 38.923, 38.152, 38.32, 39.059, 42.126, 45.839, 42.872, 38.57, 38.72, 38.951, 38.499, 39.598, 39.088, 38.384, 40.524, 38.763, 38.582, 41.478],
  "Optimizer iterations": 81,
  "Qubits": 14,
  "Total Algorithm duration [s]": 3.74,
  "Total Classic duration [s]": 3.3838539,
  "Total Quantum duration [s]": 0.35614609999999997,
  "Expectation Value": -3.9290170669555664,
  "Optimal Expectation Value": -7.0,
  "Optimizer params": [0.6285888770090563, 0.6651333161680115, 0.7474592347989261, 0.23176231121224466, 0.17910166991345902, 0.5334437534977005],
  "QPU": "7000000",
  "Problem": "DSP",
  "Size": 9,
  "P": 3,
  "Shots": 4096
}