{
  "Circuit execution durations [ms]": [605.4286956787109, 283.428430557251, 277.0533561706543, 279.6480655670166, 273.5579013824463, 597.3074436187744, 299.4391918182373, 276.4880657196045, 274.1858959197998, 595.4148769378662, 297.75309562683105, 293.98202896118164, 273.12278747558594, 279.93106842041016, 291.060209274292, 274.4135856628418, 611.8013858795166, 293.8048839569092, 283.28418731689453, 279.9546718597412, 595.8907604217529, 601.4492511749268, 280.7145118713379, 293.77055168151855, 274.9488353729248, 291.17369651794434, 298.9177703857422, 273.38624000549316, 597.0346927642822, 278.2623767852783, 275.00104904174805, 584.352970123291, 299.46374893188477, 292.2992706298828, 273.5152244567871, 284.37352180480957, 295.0093746185303, 273.88620376586914, 280.5001735687256, 595.3769683837891, 316.2553310394287, 585.1027965545654, 301.4109134674072, 293.31040382385254, 292.57965087890625, 279.35171127319336, 290.2555465698242, 294.7356700897217, 298.370361328125, 273.3111381530762, 272.5851535797119, 280.9946537017822, 270.9698677062988, 293.32780838012695, 285.5567932128906, 272.1066474914551, 293.5214042663574, 276.6392230987549, 298.0470657348633, 273.43058586120605, 272.4461555480957, 297.8222370147705, 292.85359382629395, 578.3517360687256, 277.6806354522705, 275.94971656799316, 276.41868591308594, 276.46470069885254, 301.18322372436523, 295.31025886535645, 275.3913402557373, 297.4743843078613, 577.2883892059326, 579.9660682678223, 282.48095512390137, 294.88062858581543, 586.3304138183594, 280.15613555908203, 273.2677459716797],
  "Depth": 14.0,
  "Expectation Value": -1.0,
  "Optimal Expectation Value": -1.0,
  "Optimizer durations [ms]": [1703.808, 1412.224, 1403.642, 1371.56, 1399.813, 1740.249, 1439.332, 1402.359, 1402.147, 1720.346, 1405.424, 1421.488, 1397.759, 1373.755, 1423.813, 1404.495, 1706.994, 1423.597, 1410.486, 1380.601, 1718.44, 1731.808, 1378.639, 1462.721, 1404.728, 1423.195, 1396.105, 1402.591, 1726.183, 1374.037, 1400.946, 1716.505, 1399.294, 1418.435, 1401.619, 1383.867, 1423.87, 1413.423, 1410.084, 1693.775, 1445.58, 1713.856, 1400.61, 1413.979, 1419.665, 1373.408, 1411.171, 1423.24, 1396.424, 1401.526, 1403.084, 1377.219, 1392.798, 1384.243, 1408.069, 1391.641, 1384.009, 1442.982, 1456.791, 1360.225, 1392.137, 1418.485, 1384.236, 1700.142, 1401.966, 1368.383, 1405.711, 1411.007, 1416.299, 1404.541, 1398.388, 1426.486, 1675.378, 1701.906, 1453.185, 1386.389, 1713.092, 1403.719, 1361.974],
  "Optimizer iterations": 79,
  "Optimizer params": [0.1275633406616202, 0.6947213951708939, 0.010596640401923593, 0.42467480085952003, 0.023083230980478854, 0.7842604783142091],
  "P": 3,
  "Problem": "MCP",
  "QJob durations [ms]": [1699.6362209320068, 1408.2579612731934, 1399.5599746704102, 1367.6323890686035, 1396.024465560913, 1736.2380027770996, 1391.7107582092285, 1398.2515335083008, 1398.3519077301025, 1716.4499759674072, 1401.6106128692627, 1417.8788661956787, 1394.1726684570313, 1370.0377941131592, 1420.1130867004395, 1400.7115364074707, 1703.3123970031738, 1419.8064804077148, 1406.7156314849854, 1376.8320083618164, 1714.5545482635498, 1727.954626083374, 1374.8905658721924, 1417.8428649902344, 1401.0810852050781, 1419.4731712341309, 1392.4281597137451, 1398.8778591156006, 1722.3637104034424, 1370.2726364135742, 1397.2063064575195, 1712.7339839935303, 1395.4567909240723, 1414.6597385406494, 1397.8474140167236, 1380.1190853118896, 1420.2423095703125, 1409.6779823303223, 1406.4671993255615, 1689.9893283843994, 1441.9364929199219, 1709.9347114562988, 1396.8806266784668, 1410.2132320404053, 1415.8716201782227, 1369.596242904663, 1407.4211120605469, 1419.426441192627, 1392.4837112426758, 1397.874355316162, 1399.1515636444092, 1373.5992908477783, 1389.0998363494873, 1379.9984455108643, 1404.2925834655762, 1387.8672122955322, 1380.2447319030762, 1397.2153663635254, 1452.8203010559082, 1356.4178943634033, 1388.3821964263916, 1414.7396087646484, 1380.568504333496, 1696.3887214660645, 1398.268461227417, 1364.6528720855713, 1402.0085334777832, 1407.2048664093018, 1412.5773906707764, 1400.6516933441162, 1394.5305347442627, 1422.722339630127, 1671.557903289795, 1698.1914043426514, 1408.111810684204, 1382.61079788208, 1709.3126773834229, 1399.9645709991455, 1358.3500385284424],
  "QPU": "6010003",
  "Qubits": 2,
  "Queue durations [ms]": [0.0, 0.0, 0.0, 0.0, 0.0, 0.0, 0.0, 0.0, 0.0, 0.0, 0.0, 0.0, 0.0, 0.0, 0.0, 0.0, 0.0, 0.0, 0.0, 0.0, 0.0, 0.0, 0.0, 0.0, 0.0, 0.0, 0.0, 0.0, 0.0, 0.0, 0.0, 0.0, 0.0, 0.0, 0.0, 0.0, 0.0, 0.0, 0.0, 0.0, 0.0, 0.0, 0.0, 0.0, 0.0, 0.0, 0.0, 0.0, 0.0, 0.0, 0.0, 0.0, 0.0, 0.0, 0.0, 0.0, 0.0, 0.0, 0.0, 0.0, 0.0, 0.0, 0.0, 0.0, 0.0, 0.0, 0.0, 0.0, 0.0, 0.0, 0.0, 0.0, 0.0, 0.0, 0.0, 0.0, 0.0, 0.0, 0.0],
  "Shots": 4096,
  "Size": 2,
  "Total Algorithm duration [s]": 115.248,
  "Total Classic duration [s]": 0.4674156646728562,
  "Total Quantum duration [s]": 114.78058433532715
}
