{
  "Circuit execution durations [ms]": [307.15322494506836, 297.0693111419678, 304.8081398010254, 275.8941650390625, 275.07734298706055, 272.4156379699707, 278.5379886627197, 284.38711166381836, 277.18400955200195, 280.8077335357666, 278.94043922424316, 277.93359756469727, 286.9832515716553, 282.3336124420166, 272.7324962615967, 281.796932220459, 278.75804901123047, 278.93972396850586, 282.9103469848633, 280.5747985839844, 283.57410430908203, 591.7387008666992, 279.9415588378906, 283.353328704834, 284.7752571105957, 276.0889530181885, 277.5564193725586, 276.79896354675293, 275.8641242980957, 275.8302688598633, 271.3279724121094, 276.2765884399414, 274.91307258605957, 282.0169925689697, 280.70974349975586, 275.14147758483887, 290.4233932495117, 277.0256996154785, 277.29010581970215, 276.7670154571533, 278.84769439697266, 276.66616439819336, 275.94661712646484, 276.1075496673584, 276.6578197479248, 276.06654167175293, 276.08561515808105, 285.8858108520508, 276.1557102203369, 275.81310272216797, 275.8493423461914, 578.8991451263428, 279.09016609191895, 278.4533500671387, 277.1451473236084, 276.7467498779297, 276.5510082244873, 276.95274353027344, 272.39227294921875, 283.0038070678711, 275.9983539581299, 318.56775283813477, 276.37338638305664, 275.8948802947998, 275.9251594543457, 276.62158012390137, 276.3528823852539, 275.82621574401855, 277.12464332580566, 276.5164375305176, 278.5506248474121, 283.92910957336426, 277.0850658416748, 275.32362937927246, 275.7260799407959, 275.7589817047119, 277.23121643066406, 276.04150772094727, 275.51794052124023, 277.79459953308105, 318.2086944580078, 275.76231956481934, 278.05471420288086, 285.5243682861328, 276.25226974487305, 276.8690586090088, 271.82507514953613, 275.4700183868408],
  "Depth": 41.0,
  "Expectation Value": -3.9619140625,
  "Optimal Expectation Value": -4.0,
  "Optimizer durations [ms]": [1673.238, 1721.023, 1579.294, 1615.533, 1579.406, 1539.83, 1571.994, 1583.864, 1603.52, 1579.111, 1621.937, 1559.508, 1572.485, 1573.31, 1565.24, 1556.62, 1575.736, 1612.693, 1565.179, 1590.927, 1651.349, 1869.586, 1555.096, 1570.46, 1586.487, 1536.793, 1556.514, 1566.558, 1567.395, 1576.355, 1571.495, 1569.501, 1530.234, 1592.566, 1612.518, 1549.394, 1642.798, 1585.027, 1553.795, 1585.48, 1685.669, 1563.988, 1533.178, 1567.973, 1552.732, 1570.298, 1536.509, 1573.822, 1574.454, 1530.755, 1563.269, 1908.059, 1541.208, 1563.051, 1585.082, 1530.935, 1565.538, 1565.358, 1529.307, 1566.919, 1568.2, 1574.881, 1566.321, 1564.043, 1559.787, 1528.713, 1566.012, 1574.619, 1532.645, 1564.208, 1605.985, 1547.056, 1561.828, 1559.049, 1531.202, 1570.227, 1555.991, 1563.338, 1525.0, 1560.03, 1616.788, 1526.806, 1563.959, 1575.131, 1531.996, 1556.65, 1559.772, 1535.223],
  "Optimizer iterations": 88,
  "Optimizer params": [0.5918192009487937, 0.25812852748942966, 0.7396637052256868, 0.35754595759316293, 0.5393811745790478, 0.45101996477887246],
  "P": 3,
  "Problem": "MCP",
  "QJob durations [ms]": [1667.0584678649902, 1714.5397663116455, 1572.463035583496, 1609.3344688415527, 1573.0116367340088, 1533.5285663604736, 1565.7334327697754, 1576.2593746185303, 1597.2084999084473, 1572.9765892028809, 1615.68284034729, 1552.8874397277832, 1566.20454788208, 1567.1617984771729, 1558.812141418457, 1549.2730140686035, 1569.432020187378, 1606.3814163208008, 1558.0296516418457, 1584.6800804138184, 1601.4599800109863, 1863.4545803070068, 1548.943042755127, 1563.7845993041992, 1580.4264545440674, 1530.6317806243896, 1550.0380992889404, 1560.2679252624512, 1561.2468719482422, 1527.2305011749268, 1565.1590824127197, 1563.3862018585205, 1523.9074230194092, 1586.2276554107666, 1605.7724952697754, 1542.9661273956299, 1636.3632678985596, 1578.8018703460693, 1547.4913120269775, 1536.7865562438965, 1679.4865131378174, 1557.7466487884521, 1526.8142223358154, 1561.8658065795898, 1546.651840209961, 1563.9541149139404, 1530.1580429077148, 1567.6918029785156, 1568.169116973877, 1524.6186256408691, 1557.0905208587646, 1860.3899478912354, 1534.9705219268799, 1556.6492080688477, 1578.847885131836, 1524.6572494506836, 1559.4182014465332, 1558.9590072631836, 1523.2293605804443, 1560.525894165039, 1561.9266033172607, 1568.713903427124, 1560.1098537445068, 1557.1672916412354, 1553.746223449707, 1522.4673748016357, 1559.6764087677002, 1568.5434341430664, 1526.4806747436523, 1557.8958988189697, 1555.8714866638184, 1540.698528289795, 1555.4885864257813, 1552.7162551879883, 1525.0892639160156, 1563.7826919555664, 1549.8285293579102, 1557.185411453247, 1518.6572074890137, 1553.769826889038, 1610.5165481567383, 1520.6305980682373, 1557.3952198028564, 1569.0712928771973, 1525.6223678588867, 1550.4868030548096, 1553.529977798462, 1528.898000717163],
  "QPU": "6010013",
  "Qubits": 4,
  "Queue durations [ms]": [0.0, 0.0, 0.0, 0.0, 0.0, 0.0, 0.0, 0.0, 0.0, 0.0, 0.0, 0.0, 0.0, 0.0, 0.0, 0.0, 0.0, 0.0, 0.0, 0.0, 0.0, 0.0, 0.0, 0.0, 0.0, 0.0, 0.0, 0.0, 0.0, 0.0, 0.0, 0.0, 0.0, 0.0, 0.0, 0.0, 0.0, 0.0, 0.0, 0.0, 0.0, 0.0, 0.0, 0.0, 0.0, 0.0, 0.0, 0.0, 0.0, 0.0, 0.0, 0.0, 0.0, 0.0, 0.0, 0.0, 0.0, 0.0, 0.0, 0.0, 0.0, 0.0, 0.0, 0.0, 0.0, 0.0, 0.0, 0.0, 0.0, 0.0, 0.0, 0.0, 0.0, 0.0, 0.0, 0.0, 0.0, 0.0, 0.0, 0.0, 0.0, 0.0, 0.0, 0.0, 0.0, 0.0, 0.0, 0.0],
  "Shots": 4096,
  "Size": 4,
  "Total Algorithm duration [s]": 138.923,
  "Total Classic duration [s]": 0.7701345901489276,
  "Total Quantum duration [s]": 138.15286540985107
}
