{
  "Circuit execution durations [ms]": [12184.90719795227, 11895.374059677124, 12120.564699172974, 12103.524923324585, 11981.420516967773, 12409.394979476929, 12249.175310134888, 12456.587314605713, 11801.795959472656, 12311.19680404663, 12215.265989303589, 12363.343238830566, 11827.765464782715, 12210.51573753357, 12132.428407669067, 12000.816106796265, 12201.828002929688, 11826.155662536621, 12054.964542388916, 12105.324983596802, 11907.82356262207, 12998.252868652344, 12291.832685470581, 12071.63667678833, 11951.706409454346, 11956.68625831604, 12362.969160079956, 12095.832824707031, 12183.026790618896, 12142.231225967407, 12025.993824005127, 12288.465976715088, 12447.154760360718, 12471.513032913208, 12034.423112869263, 11776.990175247192, 12047.969102859497, 12007.795572280884, 11920.239686965942, 11941.588401794434, 12123.82173538208, 11889.079570770264, 12089.854001998901, 12333.34732055664, 11913.159370422363, 11858.628273010254, 12035.925388336182, 11904.147863388062, 12174.482583999634, 12003.169298171997, 12008.331775665283, 11963.862180709839, 11864.1357421875, 13080.268383026123, 11950.93321800232, 12133.100509643555, 11935.943603515625, 13446.832656860352, 11923.94471168518, 12065.206527709961, 11776.37791633606, 12130.111694335938, 12183.372020721436, 12034.852743148804, 12033.283948898315, 12300.819396972656, 12208.641767501831, 12520.23434638977, 12018.39828491211, 13427.698612213135, 12192.176580429077, 12359.930753707886, 12257.513523101807, 12213.189840316772, 12234.95101928711, 11798.08259010315, 11837.79501914978, 11939.985990524292, 12260.082483291626, 12776.633024215698, 13587.907075881958, 13426.314353942871],
  "Depth": 167.0,
  "Expectation Value": -11.00732421875,
  "Optimal Expectation Value": -12.0,
  "Optimizer durations [ms]": [15269.574, 15055.75, 15150.326, 15451.447, 15081.569, 15479.716, 15247.099, 15634.32, 15023.115, 15400.456, 15272.892, 15514.148, 14896.896, 15246.511, 15184.326, 15155.208, 15256.431, 15007.027, 15095.847, 15484.521, 15016.595, 15988.089, 15538.93, 15371.511, 15087.125, 15088.498, 15553.094, 15237.464, 15603.98, 15439.426, 15001.324, 15285.232, 15586.418, 15790.289, 15113.519, 14749.283, 15074.553, 14947.392, 15108.351, 14899.902, 15122.057, 14825.135, 15415.351, 15526.204, 15073.484, 15140.986, 15388.366, 15211.188, 15580.115, 15165.669, 15209.839, 15152.372, 14878.826, 16105.852, 14963.233, 15447.047, 14947.885, 16743.206, 15292.227, 15203.669, 14885.116, 15369.534, 15676.103, 15204.005, 15569.019, 15604.356, 15160.86, 15866.09, 15254.911, 16621.909, 15568.01, 15479.124, 15409.362, 15207.612, 15248.356, 15106.75, 14911.372, 15006.969, 15306.686, 15904.286, 17137.3, 16771.95],
  "Optimizer iterations": 82,
  "Optimizer params": [0.04678229590540629, 0.2466005587755761, 0.9999935378333289, 0.21024351324055884, 0.8987889382170342, 0.12397985693491745],
  "P": 3,
  "Problem": "MCP",
  "QJob durations [ms]": [15248.175382614136, 15037.456750869751, 15126.651525497437, 15432.67035484314, 15061.77306175232, 15460.532426834106, 15225.244045257568, 15611.826181411743, 14989.739894866943, 15375.912189483643, 15250.446081161499, 15485.791444778442, 14868.182182312012, 15226.927995681763, 15165.157794952393, 15136.044979095459, 15233.023405075073, 14986.953258514404, 15066.243886947632, 15458.069324493408, 14992.394924163818, 15967.294454574585, 15520.363092422485, 15353.026151657104, 15068.78113746643, 15070.243835449219, 15534.720420837402, 15218.513250350952, 15520.16544342041, 15419.619798660278, 14982.449054718018, 15265.228271484375, 15566.798686981201, 15767.892122268677, 15095.120906829834, 14726.561784744263, 15041.515827178955, 14919.478416442871, 15089.088201522827, 14875.845193862915, 15084.10668373108, 14804.019927978516, 15396.791934967041, 15507.32684135437, 15039.183616638184, 15119.336605072021, 15369.134664535522, 15191.059112548828, 15559.890508651733, 15140.937328338623, 15191.096305847168, 15071.693897247314, 14856.038808822632, 16086.132287979126, 14928.62868309021, 15426.015138626099, 14926.559686660767, 16719.831943511963, 15271.60096168518, 15182.64889717102, 14855.85618019104, 15350.095987319946, 15653.778314590454, 15157.62734413147, 15548.558235168457, 15584.050416946411, 15137.423038482666, 15835.9375, 15222.224712371826, 16593.004941940308, 15523.791313171387, 15451.5700340271, 15361.906290054321, 15176.815509796143, 15217.85306930542, 15086.70973777771, 14888.628005981445, 14986.15050315857, 15288.15770149231, 15866.148233413696, 17039.9751663208, 16753.13901901245],
  "QPU": "6010030",
  "Qubits": 9,
  "Shots": 4096,
  "Size": 9,
  "Total Algorithm duration [s]": 1259.05,
  "Total Classic duration [s]": 2.156641769409134,
  "Total Quantum duration [s]": 1256.8933582305908
}
