{
  "Circuit execution durations [ms]": [11714.122295379639, 11882.429838180542, 11808.06851387024, 12683.835506439209, 12268.910646438599, 11936.445236206055, 12006.946086883545, 11950.939655303955, 11838.058233261108, 12388.819217681885, 11769.296884536743, 11946.410655975342, 12218.105554580688, 12259.934186935425, 12130.110502243042, 11877.275705337524, 12015.417575836182, 12624.799489974976, 12311.779737472534, 12045.324087142944, 12228.400230407715, 12102.118968963623, 12212.993621826172, 12016.524076461792, 12447.308540344238, 12051.518440246582, 12039.929866790771, 11845.564365386963, 12399.89948272705, 12042.056322097778, 12003.201961517334, 12257.430791854858, 12272.945165634155, 12062.796831130981, 11824.059247970581, 12568.116664886475, 11858.37197303772, 11778.126001358032, 12190.16695022583, 11871.029376983643, 12383.410453796387, 13312.343835830688, 11751.429557800293, 12145.489931106567, 11992.920637130737, 12091.729879379272, 11849.589109420776, 12182.719707489014, 12203.18865776062, 12705.77883720398, 11974.707126617432, 11960.309982299805, 12211.637020111084, 11994.198560714722, 11946.029663085938, 11926.586866378784, 11866.199970245361, 12226.726770401001, 12435.323715209961, 12095.953226089478, 12072.498321533203, 12419.923543930054, 11931.916952133179, 12605.946063995361, 13507.660150527954, 12688.400268554688, 12401.124000549316, 12053.679466247559, 11868.936538696289, 12290.407657623291, 13758.846759796143, 13153.223514556885, 13031.850337982178, 12258.205890655518, 12089.000225067139, 12020.910263061523, 13461.130380630493, 12097.427368164063, 12250.579833984375, 12098.910570144653, 12591.800689697266, 12020.142316818237, 12089.25461769104, 11989.744186401367, 13132.771968841553, 12297.721862792969, 11870.464086532593, 13614.677667617798, 12259.9458694458, 11951.9944190979, 11989.113569259644, 12104.829549789429, 12230.510473251343, 12006.572008132935, 12416.423320770264, 11903.491497039795, 11853.362560272217, 12198.270797729492, 11882.598161697388, 12082.749128341675, 11856.784343719482, 11744.896173477173, 12110.386371612549, 11956.607341766357, 11834.693908691406, 11934.217929840088, 11957.345962524414, 12007.046461105347, 12247.897863388062, 11857.362270355225, 11880.906581878662, 13086.051940917969, 12188.95936012268, 12184.855222702026, 12995.312690734863, 13630.352258682251, 12263.134956359863, 13603.974103927612, 13538.483381271362, 13492.913722991943, 11847.791910171509, 12631.356239318848],
  "Depth": 167.0,
  "Expectation Value": -11.646484375,
  "Optimal Expectation Value": -12.0,
  "Optimizer durations [ms]": [14799.367, 15023.936, 15136.783, 16006.679, 15323.888, 15169.533, 15320.015, 15117.256, 14949.271, 15465.927, 14814.199, 15055.66, 15354.736, 15371.618, 15196.926, 14871.667, 15176.196, 15855.74, 15306.875, 15166.128, 15279.387, 15167.778, 15423.174, 15046.607, 15506.351, 15063.645, 15579.754, 14940.351, 15432.682, 15152.394, 14948.665, 15343.163, 15193.784, 15000.438, 14903.531, 15885.679, 15018.576, 14983.28, 15355.342, 14887.188, 15411.734, 16411.792, 15119.55, 15364.09, 15009.148, 15059.926, 14932.96, 15200.113, 15379.958, 15641.85, 15040.135, 15167.897, 15288.294, 15052.964, 14852.757, 15143.906, 14788.895, 15306.658, 15716.718, 15284.653, 15090.977, 16061.462, 15032.624, 15862.786, 16540.66, 16188.17, 15464.157, 15126.865, 14944.075, 16117.007, 17034.146, 16406.747, 16149.034, 15238.232, 15194.34, 15156.78, 16421.577, 15337.566, 15231.565, 15593.933, 15525.409, 15177.353, 15044.389, 14957.35, 16218.872, 15323.096, 14936.36, 16922.241, 15658.127, 15199.569, 15207.981, 15412.88, 15421.237, 15002.42, 15374.803, 15093.229, 14854.619, 15433.54, 15135.147, 15098.287, 15499.819, 14811.203, 15188.225, 15034.982, 14974.431, 15033.144, 14986.966, 15246.74, 15350.727, 14837.233, 15159.232, 16416.476, 15187.777, 15831.495, 16036.392, 16956.62, 15512.569, 16920.303, 16687.636, 16813.176, 15330.055, 15946.279],
  "Optimizer iterations": 122,
  "Optimizer params": [0.8813760304886912, 0.3933098386222975, 0.9999711810080761, 0.3431649434489767, 0.21954094361620605, 0.18353888064763077],
  "P": 3,
  "Problem": "MCP",
  "QJob durations [ms]": [14768.727540969849, 14999.11379814148, 15116.62244796753, 15983.23369026184, 15303.837299346924, 15148.239612579346, 15301.032066345215, 15098.923206329346, 14927.76608467102, 15445.106744766235, 14794.039011001587, 14967.979192733765, 15336.213111877441, 15351.35293006897, 15152.724266052246, 14849.364042282104, 15146.559238433838, 15835.897445678711, 15281.924962997437, 15143.285512924194, 15250.563859939575, 15148.7557888031, 15397.046089172363, 15018.132448196411, 15450.143575668335, 15043.632507324219, 15558.966398239136, 14922.31273651123, 15414.006233215332, 15123.657703399658, 14919.019937515259, 15314.139127731323, 15164.128541946411, 14971.157550811768, 14868.86978149414, 15866.426944732666, 14999.125242233276, 14964.51997756958, 15335.049867630005, 14869.229078292847, 15390.103816986084, 16391.088247299194, 15074.092149734497, 15339.938402175903, 14988.117694854736, 15032.068014144897, 14910.326719284058, 15180.817127227783, 15359.618425369263, 15623.508930206299, 15021.816968917847, 15149.790525436401, 15261.214971542358, 15030.115127563477, 14831.947803497314, 15125.08225440979, 14770.872592926025, 15286.36360168457, 15697.55744934082, 15260.148286819458, 15072.546005249023, 16040.018796920776, 14999.707221984863, 15736.483335494995, 16514.74905014038, 16169.479608535767, 15409.033298492432, 15105.395793914795, 14912.685632705688, 16096.243858337402, 17015.623569488525, 16387.982845306396, 16126.023769378662, 15219.578504562378, 15175.088882446289, 15133.24785232544, 16396.572589874268, 15319.153308868408, 15208.38189125061, 15568.264722824097, 15505.095958709717, 15148.949146270752, 15015.119314193726, 14938.390254974365, 16197.184085845947, 15299.612760543823, 14904.472589492798, 16904.120683670044, 15632.030963897705, 15170.772075653076, 15186.793565750122, 15379.881381988525, 15400.562286376953, 14976.79328918457, 15354.948997497559, 15071.312189102173, 14829.630374908447, 15414.605140686035, 15116.853713989258, 15072.612524032593, 15480.883598327637, 14770.747661590576, 15154.131889343262, 15014.17088508606, 14955.93523979187, 15012.64214515686, 14968.141078948975, 15227.790355682373, 15320.38426399231, 14808.048486709595, 15130.154371261597, 16397.911071777344, 15157.439947128296, 15807.94072151184, 16009.762287139893, 16854.135036468506, 15492.491722106934, 16900.259971618652, 16664.30902481079, 16794.668197631836, 15304.895877838135, 15925.857305526733],
  "QPU": "6010030",
  "Qubits": 9,
  "Shots": 4096,
  "Size": 9,
  "Total Algorithm duration [s]": 1878.719,
  "Total Classic duration [s]": 3.1648823204041037,
  "Total Quantum duration [s]": 1875.554117679596
}
