{
  "Circuit execution durations [ms]": [12476.882219314575, 12641.108751296997, 12066.37454032898, 12471.70376777649, 11924.124479293823, 12440.614700317383, 11782.031774520874, 12105.14211654663, 12066.924810409546, 12150.120735168457, 12325.03342628479, 11939.162015914917, 12075.66523551941, 11836.662292480469, 11999.663829803467, 12156.208753585815, 12208.34755897522, 12158.724546432495, 12136.61813735962, 12011.263847351074, 12389.204263687134, 12107.358694076538, 12193.243980407715, 11860.250473022461, 11942.623376846313, 12023.18787574768, 12522.506713867188, 12140.892028808594, 13163.414239883423, 12215.334415435791, 12331.81381225586, 12146.231651306152, 11961.625337600708, 11976.601600646973, 11813.260316848755, 11861.734390258789, 11944.84257698059, 11953.593015670776, 12458.478927612305, 12490.671396255493, 12330.135107040405, 11875.529050827026, 12271.233320236206, 13336.129665374756, 12444.48184967041, 11976.91822052002, 12135.55359840393, 12058.570384979248, 12243.937969207764, 12049.088478088379, 12234.848499298096, 11908.48684310913, 12000.959873199463, 12079.060554504395, 12345.785140991211, 12112.102031707764, 11801.804304122925, 12441.8044090271, 12340.72494506836, 12143.806457519531, 12006.400108337402, 13205.208539962769, 11936.619281768799, 11860.379457473755, 12092.144966125488, 11876.646280288696, 12178.301811218262, 12162.549018859863, 11828.324556350708, 12104.016304016113, 11945.46914100647, 11999.934911727905, 11847.501277923584, 12279.356956481934, 11765.559434890747, 11917.230367660522, 12258.874893188477, 12021.696329116821, 11865.444421768188, 11931.31685256958, 11808.203935623169, 12194.244861602783, 11964.25199508667, 12002.2132396698, 12116.429567337036, 12128.466844558716, 12502.784252166748, 12154.03413772583, 12208.60505104065, 12486.978530883789, 11869.850397109985, 12066.547632217407, 11778.220653533936, 11860.215187072754, 12006.510257720947, 12187.04080581665, 11889.73593711853, 11999.607801437378, 11844.02346611023, 12094.783782958984, 12168.31660270691, 12028.443574905396, 11790.196657180786, 12188.804864883423, 11845.019817352295, 12121.480464935303, 11999.406814575195, 11918.736934661865, 11836.186170578003, 12244.609117507935, 11739.077806472778, 11996.77562713623, 12121.794939041138, 11945.590257644653],
  "Depth": 167.0,
  "Expectation Value": -10.70361328125,
  "Optimal Expectation Value": -12.0,
  "Optimizer durations [ms]": [15532.851, 16535.558, 15357.823, 15681.735, 15188.454, 15640.462, 15104.281, 15344.75, 15172.248, 15278.939, 15664.712, 15003.854, 15268.235, 15026.529, 15183.239, 15715.097, 15418.985, 15195.296, 15345.398, 15355.115, 15394.079, 15403.468, 15288.046, 14972.199, 15146.121, 15294.084, 15620.964, 15376.562, 16383.247, 15588.555, 15401.535, 15334.459, 15048.202, 15086.281, 14719.511, 14892.312, 15072.509, 14988.047, 15405.601, 15708.891, 15584.691, 14921.694, 15438.618, 16472.203, 15828.051, 15042.825, 15157.611, 15249.223, 15204.414, 15200.439, 15307.323, 15010.089, 15303.17, 15349.549, 15460.639, 15120.894, 15031.306, 15510.627, 15803.039, 15385.088, 15130.662, 16421.143, 15201.973, 14915.279, 15342.367, 15119.174, 15626.718, 15574.865, 15157.186, 15216.162, 15081.389, 15028.747, 14987.321, 15271.978, 15258.894, 14950.734, 15520.825, 14969.398, 14892.343, 15133.176, 15100.723, 15262.295, 15051.181, 15002.522, 15345.835, 15180.195, 15414.317, 15187.248, 15237.523, 15439.408, 14971.785, 15428.957, 14842.574, 14947.545, 15111.62, 15286.051, 14999.105, 15048.37, 15109.56, 15194.053, 15408.631, 15088.611, 14858.509, 15357.386, 15056.167, 15356.252, 15137.464, 15356.538, 14875.156, 15290.606, 14788.942, 15183.754, 15098.169, 15393.944],
  "Optimizer iterations": 114,
  "Optimizer params": [0.49092639367299473, 0.3598914720731124, 0.34707665180738545, 0.20045343017949274, 0.9759930553250652, 0.7607145076812327],
  "P": 3,
  "Problem": "MCP",
  "QJob durations [ms]": [15512.887477874756, 16517.391443252563, 15324.18966293335, 15662.961483001709, 15167.231321334839, 15609.268426895142, 15016.263723373413, 15321.50936126709, 15151.781797409058, 15237.847566604614, 15645.744323730469, 14982.083559036255, 15246.640682220459, 15007.773160934448, 15154.301404953003, 15677.047491073608, 15398.720979690552, 15154.089450836182, 15321.675539016724, 15336.10463142395, 15369.0505027771, 15353.793621063232, 15260.601043701172, 14944.64659690857, 15127.696752548218, 15275.371074676514, 15595.65806388855, 15357.861757278442, 16353.329420089722, 15501.92928314209, 15372.518539428711, 15301.96213722229, 15019.970893859863, 15050.666809082031, 14693.12858581543, 14868.910789489746, 15052.009344100952, 14966.765642166138, 15386.591911315918, 15687.320709228516, 15551.892518997192, 14902.043581008911, 15417.84405708313, 16453.805446624756, 15798.963069915771, 15020.557641983032, 15135.851621627808, 15230.405807495117, 15182.884216308594, 15169.21591758728, 15271.534204483032, 14980.961799621582, 15273.324728012085, 15329.786777496338, 15442.150592803955, 15102.049350738525, 14999.262809753418, 15483.695030212402, 15687.38865852356, 15363.970518112183, 15094.63095664978, 16400.22873878479, 15173.527002334595, 14893.674612045288, 15323.410987854004, 15094.193696975708, 15608.155965805054, 15554.278135299683, 15138.835191726685, 15195.458889007568, 15060.78052520752, 14996.15740776062, 14967.540502548218, 15253.763198852539, 15238.262176513672, 14927.902698516846, 15502.453565597534, 14950.926065444946, 14872.102975845337, 15102.339506149292, 15081.34937286377, 15179.1512966156, 15020.978212356567, 14983.417749404907, 15317.325592041016, 15151.486158370972, 15392.419576644897, 15151.66449546814, 15211.02786064148, 15418.858289718628, 14952.680110931396, 15409.708023071289, 14821.870565414429, 14925.902366638184, 15089.828252792358, 15266.084671020508, 14980.428695678711, 15029.647588729858, 15089.544296264648, 15171.123504638672, 15384.940147399902, 15062.110185623169, 14834.417581558228, 15336.946249008179, 15031.760692596436, 15335.407018661499, 15115.666389465332, 15335.791826248169, 14856.211423873901, 15268.40353012085, 14704.23674583435, 15165.184259414673, 15079.235315322876, 15373.215675354004],
  "QPU": "6010030",
  "Qubits": 9,
  "Shots": 4096,
  "Size": 9,
  "Total Algorithm duration [s]": 1741.731,
  "Total Classic duration [s]": 3.0714681682586615,
  "Total Quantum duration [s]": 1738.6595318317413
}
