{
  "Circuit execution durations [ms]": [12539.25895690918, 11902.841329574585, 13330.780982971191, 13460.62970161438, 12007.49945640564, 12019.840240478516, 12195.478200912476, 12402.820587158203, 11971.018314361572, 12153.584241867065, 11857.173919677734, 12008.523225784302, 12076.770305633545, 12023.106575012207, 12105.073690414429, 11785.837173461914, 13047.192096710205, 11917.914390563965, 12099.148750305176, 11929.410219192505, 11997.096538543701, 11837.409257888794, 12110.817193984985, 13407.337188720703, 11770.777463912964, 11994.012355804443, 12294.094562530518, 11829.704284667969, 11899.256944656372, 12392.201662063599, 13673.67959022522, 12161.15951538086, 11768.70584487915, 11896.308422088623, 11865.617752075195, 12242.28572845459, 12308.969259262085, 12233.826875686646, 12321.326732635498, 11911.552667617798, 11964.181423187256, 12064.793109893799, 12358.863115310669, 12133.029460906982, 12481.693983078003, 12141.860961914063, 11807.718276977539, 12317.890167236328, 11819.276094436646, 12103.827238082886, 11815.845966339111, 11943.253517150879, 11942.731857299805, 11938.312768936157, 11852.130889892578, 12107.079267501831, 12043.444156646729, 11945.979595184326, 12197.19123840332, 12372.028589248657, 12259.04631614685, 11911.661148071289, 12158.60390663147, 12621.519565582275, 12227.584600448608, 12714.865446090698, 12236.209392547607, 12403.223276138306, 12054.64220046997, 11745.80430984497, 12428.206205368042, 12009.26423072815, 12792.649507522583, 12399.697303771973, 13560.971736907959, 12154.372215270996, 12089.362144470215, 12720.06869316101, 12120.737075805664, 12136.757850646973, 12153.935432434082, 12051.612138748169, 11822.004079818726, 11898.630619049072, 12191.126823425293, 11919.464349746704, 12016.115188598633, 11926.180839538574, 12070.68419456482, 12016.914129257202, 11935.383558273315, 11963.309526443481, 12232.04755783081, 12032.07540512085, 12291.143894195557, 12460.886716842651, 12440.776586532593, 11813.86661529541, 12116.194725036621],
  "Depth": 167.0,
  "Expectation Value": -11.1962890625,
  "Optimal Expectation Value": -12.0,
  "Optimizer durations [ms]": [15747.946, 15036.675, 16758.847, 16928.308, 15267.172, 15039.945, 15799.344, 15507.587, 15297.878, 15357.176, 14965.828, 15263.203, 15125.726, 15317.577, 15274.763, 14934.001, 16652.816, 14843.746, 15025.53, 15268.992, 15239.113, 14763.649, 15207.622, 16637.148, 15046.669, 15120.147, 15472.961, 14743.281, 14945.669, 15459.375, 16915.619, 15450.714, 14992.825, 15033.543, 15044.944, 15238.253, 15426.791, 15509.104, 15530.682, 14964.734, 15086.202, 15122.951, 15496.849, 15624.026, 15461.221, 15155.29, 14755.192, 15707.573, 14811.473, 15223.927, 14934.708, 15288.159, 15098.808, 15086.613, 14942.406, 15145.259, 15095.715, 15072.975, 15202.693, 15424.59, 15420.337, 15427.261, 15232.489, 15735.477, 15548.731, 15835.154, 15563.736, 15975.673, 15039.826, 14851.65, 15496.855, 15147.023, 16042.557, 15521.396, 17022.976, 15416.841, 15338.203, 15717.011, 15387.118, 15248.455, 15233.933, 15082.799, 14855.161, 15500.767, 15316.163, 14996.263, 15536.755, 15467.969, 15383.222, 15106.943, 15088.273, 15148.99, 15399.803, 15161.049, 15487.321, 15824.783, 15718.281, 15060.983, 15586.37],
  "Optimizer iterations": 99,
  "Optimizer params": [0.9986646819715902, 0.03602947814167343, 0.900825445983371, 0.031244274402754565, 0.004543237078341307, 0.9226736746826144],
  "P": 3,
  "Problem": "MCP",
  "QJob durations [ms]": [15726.332187652588, 15012.457370758057, 16738.125324249268, 16889.172792434692, 15232.074499130249, 15020.94054222107, 15778.921842575073, 15486.070394515991, 15278.667688369751, 15337.279796600342, 14946.57564163208, 15241.912126541138, 15098.981380462646, 15289.285898208618, 15242.916822433472, 14915.643692016602, 16626.657724380493, 14822.340250015259, 15002.766132354736, 15239.396810531616, 15210.408926010132, 14745.298862457275, 15184.196710586548, 16598.65665435791, 15028.391599655151, 15101.92346572876, 15443.281888961792, 14718.019485473633, 14924.92651939392, 15430.22632598877, 16884.697437286377, 15425.815105438232, 14970.695972442627, 15012.033939361572, 15022.815227508545, 15218.161821365356, 15405.107021331787, 15416.02611541748, 15510.995388031006, 14942.77572631836, 15056.00357055664, 15097.96118736267, 15463.229894638062, 15599.467277526855, 15440.06371498108, 15132.872819900513, 14733.55770111084, 15677.997350692749, 14792.49119758606, 15194.924354553223, 14916.012525558472, 15267.937660217285, 15051.818370819092, 15060.586929321289, 14891.079425811768, 15124.596118927002, 15070.894002914429, 15052.675724029541, 15167.042016983032, 15395.504713058472, 15390.828132629395, 15406.352043151855, 15203.551054000854, 15704.745531082153, 15530.508279800415, 15807.061672210693, 15540.450811386108, 15956.468105316162, 15016.936779022217, 14829.632043838501, 15474.379062652588, 15127.718687057495, 16021.68583869934, 15501.757144927979, 16966.899394989014, 15394.606590270996, 15317.658424377441, 15695.585250854492, 15365.752458572388, 15219.850778579712, 15202.187061309814, 15059.452056884766, 14836.135625839233, 15482.321739196777, 15296.173810958862, 14977.836608886719, 15517.995119094849, 15449.511289596558, 15364.50171470642, 15018.089294433594, 15069.207906723022, 15129.816770553589, 15381.188154220581, 15130.764245986938, 15468.65200996399, 15802.45065689087, 15687.848329544067, 15042.3583984375, 15567.669153213501],
  "QPU": "6010030",
  "Qubits": 9,
  "Shots": 4096,
  "Size": 9,
  "Total Algorithm duration [s]": 1521.817,
  "Total Classic duration [s]": 2.55272230339051,
  "Total Quantum duration [s]": 1519.2642776966095
}
