{
  "Depth": 344.0,
  "Expectation Value": -1.6630859375,
  "Job durations [ms]": [15.140295028686523, 15.040397644042969, 14.965057373046875, 14.90640640258789, 15.271186828613281, 15.29383659362793, 15.008687973022461, 15.326499938964844, 15.575647354125977, 15.245437622070313, 15.15054702758789, 15.167951583862305, 15.447854995727539, 14.954328536987305, 15.048027038574219, 15.125274658203125, 15.248298645019531, 15.143871307373047, 15.155792236328125, 15.24209976196289, 15.413999557495117, 15.169382095336914, 15.197992324829102, 15.027761459350586, 15.254497528076172, 15.210628509521484, 14.974594116210938, 15.318870544433594, 15.175342559814453, 15.104055404663086, 15.054941177368164, 15.160799026489258, 15.087604522705078, 15.29073715209961, 15.207290649414063, 15.362739562988281, 15.280008316040039, 15.04206657409668, 14.992475509643555, 15.012979507446289, 14.980554580688477, 15.126466751098633, 15.140056610107422, 15.449285507202148, 15.20538330078125, 15.081405639648438, 14.963626861572266, 15.304803848266602, 14.950752258300781, 14.975786209106445, 15.177726745605469, 15.020608901977539, 15.105724334716797, 15.05136489868164, 15.202522277832031, 14.921903610229492, 15.084266662597656, 15.075922012329102, 15.104055404663086, 15.052556991577148, 15.32602310180664, 15.264749526977539, 14.978647232055664, 15.082120895385742, 14.98270034790039, 15.042781829833984, 15.33818244934082, 15.312433242797852, 15.10167121887207, 15.028953552246094, 15.051603317260742, 15.130281448364258, 15.169143676757813, 15.155315399169922, 15.38228988647461, 15.303611755371094, 15.303850173950195, 15.328407287597656, 15.351295471191406, 15.250444412231445, 14.872074127197266, 15.402555465698242, 15.210390090942383, 15.243053436279297, 15.334606170654297, 15.141010284423828, 15.24209976196289, 15.370845794677734, 15.160083770751953, 15.273809432983398, 15.289783477783203, 15.143394470214844, 15.268802642822266, 15.357494354248047, 15.109539031982422, 15.064477920532227, 15.373945236206055, 15.04659652709961, 15.32602310180664, 14.987707138061523],
  "Optimal Expectation Value": -2.0,
  "Optimizer durations [ms]": [242.716, 286.51, 242.348, 242.412, 284.078, 245.089, 286.622, 242.94, 284.403, 243.669, 242.389, 283.576, 242.649, 286.25, 242.499, 282.685, 242.52, 283.824, 242.393, 243.219, 284.772, 242.318, 282.197, 242.381, 284.936, 243.1, 241.755, 283.599, 243.436, 286.187, 243.171, 284.049, 243.116, 243.25, 283.577, 242.217, 286.614, 242.772, 282.845, 241.659, 283.416, 242.334, 242.827, 284.55, 242.957, 283.406, 242.416, 285.071, 242.603, 241.8, 283.345, 242.389, 286.065, 242.311, 283.701, 243.45, 242.448, 283.124, 241.962, 285.73, 244.097, 283.419, 242.148, 284.051, 241.754, 242.505, 284.729, 243.348, 282.612, 242.055, 284.015, 243.564, 243.427, 283.966, 242.508, 286.583, 242.413, 284.721, 243.011, 243.396, 283.612, 242.365, 286.418, 242.506, 284.336, 242.369, 284.374, 242.996, 243.007, 284.487, 242.432, 282.561, 242.197, 284.46, 243.561, 242.154, 284.672, 242.769, 287.126, 242.258],
  "Optimizer iterations": 100,
  "Optimizer params": [0.606361620609361, 0.9249179941988447, 0.05770884552695449, 0.9387680921982288, 0.9358944041643684, 0.04511369322566002],
  "P": 3,
  "Problem": "MIS",
  "QPU": "3010008",
  "Qubits": 9,
  "Shots": 4096,
  "Size": 6,
  "Total Algorithm duration [s]": 26.065,
  "Total Classic duration [s]": 24.548126163482667,
  "Total Quantum duration [s]": 1.516873836517334
}
