{
  "Circuit execution durations [ms]": [35.50291061401367, 35.51328182220459, 34.97958183288574, 35.47823429107666, 33.505916595458984, 34.87813472747803, 34.08396244049072, 34.743309020996094],
  "Depth": 2.0,
  "Expectation Value": -0.5522429943084717,
  "Optimal Expectation Value": -0.574400007724762,
  "Optimizer durations [ms]": [405.463, 357.235, 399.485, 406.501, 398.463, 405.519, 354.185, 401.13],
  "Optimizer iterations": 8,
  "Optimizer params": [0.9998853776099946],
  "P": 0,
  "Problem": "RH",
  "QJob durations [ms]": [41.869521141052246, 41.585683822631836, 41.228413581848145, 41.617393493652344, 39.66820240020752, 41.17786884307861, 40.215253829956055, 41.109323501586914],
  "QPU": "3000020",
  "Qubits": 1,
  "Queue durations [ms]": [0.0, 0.0, 0.0, 0.0, 0.0, 0.0, 0.0, 0.0],
  "Shots": 4096,
  "Size": 1,
  "Total Algorithm duration [s]": 3.127,
  "Total Classic duration [s]": 2.798528339385986,
  "Total Quantum duration [s]": 0.32847166061401367
}
