{
  "Depth": 74.0,
  "Expectation Value": -0.0576171875,
  "Job durations [ms]": [24.41263198852539, 24.4596004486084, 24.296045303344727, 24.25837516784668, 43.43914985656738, 24.4903564453125, 28.113126754760742, 24.376869201660156, 28.89704704284668, 24.216651916503906, 24.585485458374023, 24.286508560180664, 24.888038635253906, 24.701833724975586, 24.583101272583008, 24.469375610351563, 24.246931076049805, 24.626731872558594, 24.178266525268555, 24.72233772277832, 24.55306053161621, 24.44148063659668, 24.42193031311035, 24.6431827545166, 24.303436279296875, 24.548053741455078, 24.829864501953125, 24.403095245361328, 24.26004409790039, 24.858951568603516, 24.447917938232422, 24.289846420288086, 24.570465087890625, 24.349689483642578, 24.730205535888672, 24.69468116760254, 24.216413497924805, 24.519681930541992, 24.315357208251953, 24.332761764526367, 24.33633804321289, 24.30248260498047, 24.06907081604004, 24.440288543701172, 24.3072509765625, 24.39403533935547, 24.48248863220215, 25.01392364501953, 24.32537078857422, 24.609088897705078, 24.17755126953125, 24.7802734375, 24.642467498779297, 25.083303451538086, 24.83344078063965, 24.337291717529297, 24.353742599487305, 24.832725524902344, 24.46746826171875, 24.655580520629883, 24.3227481842041, 30.3952693939209, 24.396181106567383, 32.53579139709473, 24.146556854248047, 24.303197860717773, 24.742603302001953, 24.432897567749023, 24.898290634155273, 28.401851654052734, 25.954484939575195, 24.778127670288086, 24.100303649902344, 24.36375617980957, 24.20496940612793, 24.59263801574707, 24.22308921813965, 24.559974670410156, 24.650096893310547, 24.443387985229492, 24.867534637451172, 24.95598793029785, 24.321317672729492, 24.677276611328125],
  "Optimal Expectation Value": -4.0,
  "Optimizer durations [ms]": [529.231, 485.289, 527.746, 488.195, 545.614, 486.179, 526.906, 486.414, 526.495, 523.855, 487.305, 527.039, 487.1, 527.656, 487.691, 528.542, 486.681, 526.5, 485.911, 523.694, 487.08, 521.535, 522.442, 486.382, 526.875, 487.345, 527.716, 487.067, 527.991, 486.958, 526.871, 485.709, 524.939, 486.282, 521.36, 522.616, 485.344, 528.155, 487.5, 527.052, 487.758, 526.746, 486.217, 526.151, 487.071, 523.761, 486.686, 521.893, 523.272, 485.67, 528.846, 486.924, 528.98, 487.553, 530.542, 486.226, 526.759, 486.813, 526.269, 485.815, 521.094, 529.566, 486.327, 534.805, 486.168, 527.196, 486.797, 528.286, 487.205, 531.587, 487.152, 524.654, 486.72, 521.992, 521.914, 487.431, 526.681, 487.308, 527.23, 487.643, 528.548, 487.629, 526.663, 486.486],
  "Optimizer iterations": 84,
  "Optimizer params": [0.3025357775012225, 0.31493492112780247, 0.0917683204870065, 0.8917306874696409, 0.22151381169337533, 0.6139142754317346],
  "P": 3,
  "Problem": "TSP",
  "QPU": "3010008",
  "Qubits": 16,
  "Shots": 4096,
  "Size": 4,
  "Total Algorithm duration [s]": 42.688,
  "Total Classic duration [s]": 40.584308898925784,
  "Total Quantum duration [s]": 2.1036911010742188
}
