{
  "Depth": 82.0,
  "Expectation Value": -1.0,
  "Job durations [ms]": [0.9589000000000001, 0.5381, 0.5094000000000001, 0.5188, 0.513, 0.6367999999999999, 0.5146000000000001, 0.6076, 0.5226000000000001, 0.5244, 0.5094000000000001, 0.5259, 0.5182, 0.49759999999999993, 0.5107999999999999, 0.882, 0.5093, 0.9227000000000001, 0.5189, 0.5312, 0.5209, 0.5152, 0.5146000000000001, 0.5295, 0.5295, 0.5572, 0.5115999999999999, 0.5267, 0.6065, 0.514, 0.5084, 0.5078, 0.7249, 0.5999, 0.9037999999999999, 0.5297000000000001, 0.4965, 0.4848, 0.7394, 0.5214, 0.5201, 0.6013999999999999, 0.7435999999999999, 0.5888, 0.5666, 0.5027, 0.5046, 0.5072, 0.5209, 0.5024, 0.4654, 0.6667, 0.7441, 0.5092, 0.5124, 0.5337999999999999, 0.46759999999999996, 0.4778, 0.4996999999999999, 0.5164, 0.5065, 0.5203, 0.5113, 0.5244, 0.8004, 0.5002, 0.5217, 0.4925, 0.7396, 0.5218, 0.4994, 0.5035999999999999],
  "Optimal Expectation Value": -1.0,
  "Optimizer durations [ms]": [14.952, 15.605, 15.013, 12.809, 15.292, 11.386, 13.631, 13.438, 15.263, 15.642, 12.943, 12.933, 15.089, 15.04, 14.451, 11.956, 15.138, 14.76, 15.585, 15.225, 14.753, 11.746, 10.766, 12.342, 15.27, 14.64, 15.153, 15.419, 8.584, 14.266, 13.385, 15.113, 14.562, 10.016, 14.136, 15.49, 10.736, 15.02, 11.507, 11.53, 13.742, 11.338, 10.98, 11.105, 15.766, 15.167, 15.106, 15.235, 15.339, 15.328, 14.707, 14.841, 14.775, 15.029, 13.894, 15.722, 14.833, 14.841, 13.121, 14.962, 11.687, 13.303, 12.793, 15.226, 10.732, 14.353, 15.319, 13.048, 12.84, 10.683, 15.108, 15.166],
  "Optimizer iterations": 72,
  "Optimizer params": [0.0022624178898600295, 0.2242439350775648, 0.2730964227210501, 0.9206368114651633, 1.0, 1.0],
  "P": 3,
  "Problem": "MIS",
  "QPU": "7000000",
  "Qubits": 4,
  "Shots": 4096,
  "Size": 3,
  "Total Algorithm duration [s]": 0.996,
  "Total Classic duration [s]": 0.9552944,
  "Total Quantum duration [s]": 0.0407056
}
