{
  "Depth": 82.0,
  "Expectation Value": -1.0,
  "Job durations [ms]": [0.5433, 0.5365, 0.5151, 0.5155, 0.5171, 0.524, 0.4757, 0.9201, 0.5336, 0.5544, 0.7426, 0.9351999999999999, 0.5117, 0.5972, 0.6066, 0.8719, 0.5265, 0.6782, 0.5093, 0.7316999999999999, 0.5442999999999999, 0.6395, 0.5155, 0.5834, 0.6022, 0.6064, 0.596, 0.39080000000000004, 0.3812, 0.5117, 0.7102, 0.49779999999999996, 0.5117999999999999, 0.5078, 0.6614, 0.6098, 0.6345, 0.7657999999999999, 0.5358999999999999, 0.48990000000000006, 0.5169, 0.5033000000000001, 0.521, 0.7764, 0.5021, 0.5102, 0.38670000000000004, 0.37179999999999996, 0.49629999999999996, 0.5333, 0.5044, 0.6198, 0.7364, 0.6143000000000001, 0.5159, 0.6083, 0.5544, 0.5205000000000001, 0.5257999999999999, 0.8453999999999999, 0.5199, 0.5167, 0.5211, 0.8976000000000001, 0.5015, 0.5979, 0.5115000000000001, 0.8327, 0.6177999999999999, 0.6298, 0.5242, 0.5218, 0.558, 0.5975, 0.6945, 0.6281, 0.528],
  "Optimal Expectation Value": -1.0,
  "Optimizer durations [ms]": [15.399, 15.588, 15.369, 12.394, 15.318, 15.437, 14.846, 12.102, 15.671, 14.272, 14.731, 11.986, 15.036, 11.409, 8.231, 10.04, 15.353, 14.962, 15.284, 14.142, 15.713, 14.771, 11.998, 11.145, 11.251, 13.925, 11.001, 9.162, 9.142, 15.199, 14.098, 15.155, 15.086, 15.059, 12.117, 11.372, 11.814, 14.864, 15.372, 13.919, 13.931, 12.164, 15.266, 14.947, 10.529, 11.308, 9.204, 9.01, 14.793, 15.465, 12.158, 8.614, 14.988, 10.954, 15.214, 9.274, 11.127, 15.118, 15.246, 14.566, 13.73, 15.036, 15.336, 11.441, 11.896, 8.032, 15.197, 14.514, 7.899, 9.06, 11.458, 15.249, 14.781, 11.081, 14.695, 9.506, 14.706],
  "Optimizer iterations": 77,
  "Optimizer params": [0.9968730657897611, 0.1489924192428589, 0.20333786076551053, 0.9999999999999999, 0.07540321120092343, 0.9999999999999999],
  "P": 3,
  "Problem": "MIS",
  "QPU": "7000000",
  "Qubits": 4,
  "Shots": 4096,
  "Size": 3,
  "Total Algorithm duration [s]": 1.007,
  "Total Classic duration [s]": 0.9619960999999999,
  "Total Quantum duration [s]": 0.04500389999999999
}
