{
  "Circuit execution durations [ms]": [0.7491000000000001, 0.7384, 0.7462000000000001, 0.7348, 0.7332000000000001, 0.7392, 0.7491000000000001, 0.7388, 0.7657999999999999, 0.7397, 0.7515, 0.7715000000000001, 0.7435, 0.7474, 0.742, 0.7177, 0.7361, 0.7666, 0.7306, 0.7369, 0.7611, 0.7359, 0.7517, 0.746, 0.7935000000000001, 0.7267, 0.8032, 0.7392, 0.7421, 0.744, 0.7404999999999999, 0.7501, 0.7556, 0.7796, 0.733, 0.7617, 0.7356, 0.7513, 0.7454999999999999, 0.8069000000000001, 0.7404999999999999, 0.8897, 0.7519, 0.7787999999999999, 0.8518, 0.7396, 1.0369000000000002, 0.7496, 0.7385, 0.7722, 0.7372000000000001, 0.8206, 0.7384, 0.9556, 0.7423, 0.7364, 0.7335, 0.6483, 0.7408, 0.8193, 0.7364999999999999, 0.8878, 0.7479, 0.8291999999999999, 0.7336, 0.6787, 0.7394, 0.7489, 0.7406999999999999, 0.7345, 0.7435, 0.8127, 0.7333, 0.8994, 0.776, 0.8687, 0.7885, 0.7764, 0.7528, 0.7557, 1.0172, 0.7435, 0.7329, 0.753, 0.7392, 0.7276, 0.7290000000000001, 0.7364, 0.7373, 0.7596, 0.7522, 0.7598, 0.7595, 0.7549, 0.7787999999999999, 0.7542, 0.7391, 0.7403000000000001, 0.7451, 0.7345999999999999, 0.7431, 0.7387, 0.7517999999999999, 0.7412, 0.7484, 0.7435999999999999, 0.7855, 0.7378, 0.7464000000000001, 0.7356, 0.7474, 0.7414000000000001, 0.7469, 0.7432, 0.7394, 0.7401000000000001, 0.7413, 0.7458, 0.7374, 0.7395, 0.7395, 0.7515, 0.7414999999999999, 0.7693, 0.7336, 0.7398, 0.7427999999999999, 0.7469, 0.7494, 0.7326, 0.7345, 0.7525000000000001, 0.7477, 0.7691, 0.7529, 0.7423, 0.7643, 0.7435, 0.7515, 0.7439, 0.75, 0.7632, 0.7423],
  "Depth": 109.0,
  "Expectation Value": -1.9342619180679321,
  "Optimal Expectation Value": -1.0,
  "Optimizer durations [ms]": [8.098, 7.635, 8.392, 7.669, 7.889, 7.848, 7.917, 8.145, 7.881, 8.14, 8.119, 8.011, 8.182, 7.895, 7.731, 7.989, 7.503, 8.263, 7.833, 8.114, 8.003, 7.935, 8.07, 7.853, 8.583, 7.701, 8.91, 7.797, 7.965, 7.679, 7.954, 8.203, 7.919, 8.241, 8.087, 7.844, 7.922, 8.34, 7.987, 8.457, 7.836, 9.381, 8.031, 12.422, 8.85, 7.994, 10.778, 9.406, 7.707, 8.424, 8.152, 8.702, 8.059, 10.044, 7.935, 8.368, 7.999, 13.76, 12.086, 8.449, 7.814, 9.302, 8.255, 8.589, 8.056, 16.694, 8.474, 8.09, 7.909, 7.851, 8.677, 8.447, 8.017, 9.383, 12.862, 15.713, 8.577, 8.436, 7.843, 8.219, 10.648, 8.23, 7.888, 7.801, 7.958, 7.655, 7.906, 7.813, 7.812, 7.998, 8.284, 7.99, 8.07, 8.261, 8.215, 7.984, 8.047, 7.843, 7.958, 7.773, 7.829, 8.108, 7.759, 7.995, 8.079, 7.971, 8.427, 7.82, 8.04, 7.859, 8.141, 7.72, 8.203, 7.924, 7.583, 8.093, 7.908, 8.012, 7.92, 7.573, 8.142, 7.947, 7.908, 8.079, 7.906, 8.102, 7.921, 7.711, 8.103, 7.694, 8.154, 8.106, 7.873, 8.371, 7.8, 8.089, 8.104, 7.944, 8.078, 7.998, 7.667, 8.317, 7.889],
  "Optimizer iterations": 143,
  "Optimizer params": [0.5725404916121211, 0.5941525108434181, 0.8871834097409842, 0.164183415574631, 0.681393123926068, 0.8051635840250301],
  "P": 3,
  "Problem": "MIS",
  "QJob durations [ms]": [0.7491000000000001, 0.7384, 0.7462000000000001, 0.7348, 0.7332000000000001, 0.7392, 0.7491000000000001, 0.7388, 0.7657999999999999, 0.7397, 0.7515, 0.7715000000000001, 0.7435, 0.7474, 0.742, 0.7177, 0.7361, 0.7666, 0.7306, 0.7369, 0.7611, 0.7359, 0.7517, 0.746, 0.7935000000000001, 0.7267, 0.8032, 0.7392, 0.7421, 0.744, 0.7404999999999999, 0.7501, 0.7556, 0.7796, 0.733, 0.7617, 0.7356, 0.7513, 0.7454999999999999, 0.8069000000000001, 0.7404999999999999, 0.8897, 0.7519, 0.7787999999999999, 0.8518, 0.7396, 1.0369000000000002, 0.7496, 0.7385, 0.7722, 0.7372000000000001, 0.8206, 0.7384, 0.9556, 0.7423, 0.7364, 0.7335, 0.6483, 0.7408, 0.8193, 0.7364999999999999, 0.8878, 0.7479, 0.8291999999999999, 0.7336, 0.6787, 0.7394, 0.7489, 0.7406999999999999, 0.7345, 0.7435, 0.8127, 0.7333, 0.8994, 0.776, 0.8687, 0.7885, 0.7764, 0.7528, 0.7557, 1.0172, 0.7435, 0.7329, 0.753, 0.7392, 0.7276, 0.7290000000000001, 0.7364, 0.7373, 0.7596, 0.7522, 0.7598, 0.7595, 0.7549, 0.7787999999999999, 0.7542, 0.7391, 0.7403000000000001, 0.7451, 0.7345999999999999, 0.7431, 0.7387, 0.7517999999999999, 0.7412, 0.7484, 0.7435999999999999, 0.7855, 0.7378, 0.7464000000000001, 0.7356, 0.7474, 0.7414000000000001, 0.7469, 0.7432, 0.7394, 0.7401000000000001, 0.7413, 0.7458, 0.7374, 0.7395, 0.7395, 0.7515, 0.7414999999999999, 0.7693, 0.7336, 0.7398, 0.7427999999999999, 0.7469, 0.7494, 0.7326, 0.7345, 0.7525000000000001, 0.7477, 0.7691, 0.7529, 0.7423, 0.7643, 0.7435, 0.7515, 0.7439, 0.75, 0.7632, 0.7423],
  "QPU": "7000000",
  "Qubits": 5,
  "Queue durations [ms]": [0.0, 0.0, 0.0, 0.0, 0.0, 0.0, 0.0, 0.0, 0.0, 0.0, 0.0, 0.0, 0.0, 0.0, 0.0, 0.0, 0.0, 0.0, 0.0, 0.0, 0.0, 0.0, 0.0, 0.0, 0.0, 0.0, 0.0, 0.0, 0.0, 0.0, 0.0, 0.0, 0.0, 0.0, 0.0, 0.0, 0.0, 0.0, 0.0, 0.0, 0.0, 0.0, 0.0, 0.0, 0.0, 0.0, 0.0, 0.0, 0.0, 0.0, 0.0, 0.0, 0.0, 0.0, 0.0, 0.0, 0.0, 0.0, 0.0, 0.0, 0.0, 0.0, 0.0, 0.0, 0.0, 0.0, 0.0, 0.0, 0.0, 0.0, 0.0, 0.0, 0.0, 0.0, 0.0, 0.0, 0.0, 0.0, 0.0, 0.0, 0.0, 0.0, 0.0, 0.0, 0.0, 0.0, 0.0, 0.0, 0.0, 0.0, 0.0, 0.0, 0.0, 0.0, 0.0, 0.0, 0.0, 0.0, 0.0, 0.0, 0.0, 0.0, 0.0, 0.0, 0.0, 0.0, 0.0, 0.0, 0.0, 0.0, 0.0, 0.0, 0.0, 0.0, 0.0, 0.0, 0.0, 0.0, 0.0, 0.0, 0.0, 0.0, 0.0, 0.0, 0.0, 0.0, 0.0, 0.0, 0.0, 0.0, 0.0, 0.0, 0.0, 0.0, 0.0, 0.0, 0.0, 0.0, 0.0, 0.0, 0.0, 0.0, 0.0],
  "Shots": 4096,
  "Size": 4,
  "Total Algorithm duration [s]": 1.197,
  "Total Classic duration [s]": 1.0885193000000002,
  "Total Quantum duration [s]": 0.10848069999999997
}
