{
  "Circuit execution durations [ms]": [0.7738, 0.7614, 0.7998999999999999, 0.7349, 0.7416, 0.7212, 0.7577, 0.7288, 0.7479, 0.7502, 0.7517, 0.7458, 0.7409, 0.7271, 0.7293999999999999, 0.7607, 0.7519, 0.7444, 0.7247, 0.7451, 0.7435999999999999, 0.7432, 0.7494, 0.7496999999999999, 0.7445, 0.7445, 0.7406999999999999, 0.7491000000000001, 0.761, 0.7718, 0.7423, 0.764, 0.7395, 0.7588999999999999, 0.7466, 0.7484, 0.7482, 0.7534, 0.7394, 0.7286, 0.741, 1.0244, 0.7418, 0.7451, 0.739, 0.7456, 0.7381, 0.7454000000000001, 0.7421, 0.7241, 0.7467, 0.7599, 0.7697999999999999, 0.7515, 0.7489, 0.7366999999999999, 0.7437, 0.7596, 0.7895000000000001, 0.7505, 0.7527, 0.7413, 0.7419, 0.7448, 0.7395, 0.7468, 0.7797000000000001, 0.7321, 0.7431, 0.7446, 0.746, 0.7412, 0.7759, 0.7569, 0.7484, 0.7588999999999999, 0.7614, 0.7492, 0.7351000000000001, 0.7359, 0.741, 0.7683, 0.7483000000000001, 0.8361, 0.7414999999999999, 0.8422, 0.7381, 1.0453999999999999, 0.7348, 0.7443000000000001, 0.7535000000000001],
  "Depth": 109.0,
  "Expectation Value": -1.8721896409988403,
  "Optimal Expectation Value": -1.0,
  "Optimizer durations [ms]": [8.214, 8.117, 8.68, 7.866, 7.738, 8.744, 7.967, 8.179, 7.996, 7.737, 8.101, 7.97, 7.982, 7.871, 7.871, 8.337, 7.891, 7.855, 7.836, 8.04, 7.698, 8.078, 8.036, 7.938, 7.942, 8.117, 7.876, 7.925, 8.043, 8.334, 7.921, 7.878, 8.002, 8.227, 7.92, 7.933, 7.969, 8.049, 7.915, 7.532, 8.235, 10.621, 7.983, 7.981, 7.952, 8.094, 7.84, 7.966, 7.697, 7.784, 7.904, 8.136, 7.995, 8.196, 8.224, 7.636, 7.908, 8.164, 8.496, 7.979, 7.944, 8.132, 7.794, 7.885, 8.0, 7.821, 8.236, 8.266, 7.801, 8.219, 7.933, 7.914, 8.254, 7.894, 8.134, 8.002, 8.015, 8.181, 7.56, 7.856, 7.946, 8.48, 7.695, 9.003, 8.082, 8.938, 7.872, 10.949, 7.948, 7.871, 7.995],
  "Optimizer iterations": 91,
  "Optimizer params": [1.0, 0.7410017802306205, 0.7061865788963034, 1.0, 0.0005860012873865472, 0.40876287587965177],
  "P": 3,
  "Problem": "MIS",
  "QJob durations [ms]": [0.7738, 0.7614, 0.7998999999999999, 0.7349, 0.7416, 0.7212, 0.7577, 0.7288, 0.7479, 0.7502, 0.7517, 0.7458, 0.7409, 0.7271, 0.7293999999999999, 0.7607, 0.7519, 0.7444, 0.7247, 0.7451, 0.7435999999999999, 0.7432, 0.7494, 0.7496999999999999, 0.7445, 0.7445, 0.7406999999999999, 0.7491000000000001, 0.761, 0.7718, 0.7423, 0.764, 0.7395, 0.7588999999999999, 0.7466, 0.7484, 0.7482, 0.7534, 0.7394, 0.7286, 0.741, 1.0244, 0.7418, 0.7451, 0.739, 0.7456, 0.7381, 0.7454000000000001, 0.7421, 0.7241, 0.7467, 0.7599, 0.7697999999999999, 0.7515, 0.7489, 0.7366999999999999, 0.7437, 0.7596, 0.7895000000000001, 0.7505, 0.7527, 0.7413, 0.7419, 0.7448, 0.7395, 0.7468, 0.7797000000000001, 0.7321, 0.7431, 0.7446, 0.746, 0.7412, 0.7759, 0.7569, 0.7484, 0.7588999999999999, 0.7614, 0.7492, 0.7351000000000001, 0.7359, 0.741, 0.7683, 0.7483000000000001, 0.8361, 0.7414999999999999, 0.8422, 0.7381, 1.0453999999999999, 0.7348, 0.7443000000000001, 0.7535000000000001],
  "QPU": "7000000",
  "Qubits": 5,
  "Queue durations [ms]": [0.0, 0.0, 0.0, 0.0, 0.0, 0.0, 0.0, 0.0, 0.0, 0.0, 0.0, 0.0, 0.0, 0.0, 0.0, 0.0, 0.0, 0.0, 0.0, 0.0, 0.0, 0.0, 0.0, 0.0, 0.0, 0.0, 0.0, 0.0, 0.0, 0.0, 0.0, 0.0, 0.0, 0.0, 0.0, 0.0, 0.0, 0.0, 0.0, 0.0, 0.0, 0.0, 0.0, 0.0, 0.0, 0.0, 0.0, 0.0, 0.0, 0.0, 0.0, 0.0, 0.0, 0.0, 0.0, 0.0, 0.0, 0.0, 0.0, 0.0, 0.0, 0.0, 0.0, 0.0, 0.0, 0.0, 0.0, 0.0, 0.0, 0.0, 0.0, 0.0, 0.0, 0.0, 0.0, 0.0, 0.0, 0.0, 0.0, 0.0, 0.0, 0.0, 0.0, 0.0, 0.0, 0.0, 0.0, 0.0, 0.0, 0.0, 0.0],
  "Shots": 4096,
  "Size": 4,
  "Total Algorithm duration [s]": 0.735,
  "Total Classic duration [s]": 0.6661817999999999,
  "Total Quantum duration [s]": 0.06881820000000001
}
