{
  "Circuit execution durations [ms]": [0.7767, 0.7403000000000001, 0.7389, 0.7342, 0.7429, 0.7207, 0.7614, 0.7454000000000001, 0.7271, 0.7735, 0.7494, 0.7467, 0.7394, 0.7565000000000001, 0.7373, 0.7625000000000001, 0.7423, 0.7643, 0.7398, 0.7431, 0.7421, 0.7293, 0.7389, 0.7322, 0.7503, 0.8453, 0.8092, 0.7625000000000001, 0.7536, 0.7343999999999999, 0.7324999999999999, 0.7318, 0.7268, 0.7454999999999999, 0.7456999999999999, 0.7398, 0.7567, 0.7418, 0.7721, 0.7323, 0.7483000000000001, 0.7341, 0.7454000000000001, 0.7412, 0.7578, 0.7423, 0.7393000000000001, 0.7463, 0.7342, 0.751, 0.7524, 0.726, 0.7598, 0.7314, 0.8064, 0.7412, 0.7435, 0.7515999999999999, 0.7454999999999999, 0.7314, 0.7605999999999999, 0.7464999999999999, 0.7546999999999999, 0.7395, 0.7394, 0.7388, 0.735, 0.7352, 0.7646000000000001, 0.7427, 0.7404999999999999, 0.7454000000000001, 0.7569, 0.7463, 0.7384, 0.7427, 0.7427, 0.7357, 0.7536, 0.8902, 0.7471, 0.8399, 0.7419, 0.8069999999999999, 0.7889, 0.7425, 0.7433, 0.743, 0.8331999999999999, 0.7406999999999999, 1.0043, 0.7569, 0.7406, 0.7534, 0.6748999999999999, 0.7458, 0.7577, 0.7435, 0.954, 0.7419, 0.8453999999999999, 0.7525999999999999, 0.6537999999999999, 0.7388, 0.7404999999999999, 0.759, 0.7452, 0.7469, 0.7259, 0.7322, 0.8396, 0.7242999999999999, 1.1105, 0.9561, 0.7858, 0.7441, 1.0201],
  "Depth": 109.0,
  "Expectation Value": -1.8721896409988403,
  "Optimal Expectation Value": -1.0,
  "Optimizer durations [ms]": [8.309, 7.841, 7.859, 8.105, 7.808, 7.785, 8.077, 7.794, 7.848, 8.205, 7.9, 8.031, 8.043, 8.105, 7.963, 8.088, 7.692, 8.265, 7.871, 8.053, 7.872, 8.099, 7.663, 7.883, 8.178, 8.808, 8.496, 8.236, 8.089, 7.766, 7.787, 7.896, 7.758, 7.95, 7.74, 8.204, 8.012, 8.061, 8.137, 7.964, 7.839, 7.978, 7.8, 7.966, 8.098, 7.841, 7.981, 7.797, 8.018, 7.9, 8.15, 7.98, 8.128, 7.761, 8.545, 7.927, 8.018, 7.71, 8.178, 7.809, 8.057, 7.947, 7.921, 7.988, 7.599, 8.176, 7.673, 7.983, 8.124, 7.893, 8.003, 7.918, 8.048, 7.985, 7.559, 7.936, 8.225, 7.865, 8.004, 9.404, 7.863, 9.16, 7.628, 11.319, 8.247, 8.343, 8.65, 8.02, 8.667, 8.101, 10.588, 8.0, 7.81, 8.295, 16.714, 8.105, 7.777, 8.325, 10.051, 7.784, 8.948, 8.101, 16.715, 7.582, 8.182, 8.046, 7.667, 8.546, 7.754, 8.021, 9.083, 14.484, 14.471, 10.155, 8.38, 7.708, 10.802],
  "Optimizer iterations": 117,
  "Optimizer params": [1.0, 0.5313844159313185, 0.7081217237126709, 1.0, 0.0010481786476550057, 0.5281726130394253],
  "P": 3,
  "Problem": "MIS",
  "QJob durations [ms]": [0.7767, 0.7403000000000001, 0.7389, 0.7342, 0.7429, 0.7207, 0.7614, 0.7454000000000001, 0.7271, 0.7735, 0.7494, 0.7467, 0.7394, 0.7565000000000001, 0.7373, 0.7625000000000001, 0.7423, 0.7643, 0.7398, 0.7431, 0.7421, 0.7293, 0.7389, 0.7322, 0.7503, 0.8453, 0.8092, 0.7625000000000001, 0.7536, 0.7343999999999999, 0.7324999999999999, 0.7318, 0.7268, 0.7454999999999999, 0.7456999999999999, 0.7398, 0.7567, 0.7418, 0.7721, 0.7323, 0.7483000000000001, 0.7341, 0.7454000000000001, 0.7412, 0.7578, 0.7423, 0.7393000000000001, 0.7463, 0.7342, 0.751, 0.7524, 0.726, 0.7598, 0.7314, 0.8064, 0.7412, 0.7435, 0.7515999999999999, 0.7454999999999999, 0.7314, 0.7605999999999999, 0.7464999999999999, 0.7546999999999999, 0.7395, 0.7394, 0.7388, 0.735, 0.7352, 0.7646000000000001, 0.7427, 0.7404999999999999, 0.7454000000000001, 0.7569, 0.7463, 0.7384, 0.7427, 0.7427, 0.7357, 0.7536, 0.8902, 0.7471, 0.8399, 0.7419, 0.8069999999999999, 0.7889, 0.7425, 0.7433, 0.743, 0.8331999999999999, 0.7406999999999999, 1.0043, 0.7569, 0.7406, 0.7534, 0.6748999999999999, 0.7458, 0.7577, 0.7435, 0.954, 0.7419, 0.8453999999999999, 0.7525999999999999, 0.6537999999999999, 0.7388, 0.7404999999999999, 0.759, 0.7452, 0.7469, 0.7259, 0.7322, 0.8396, 0.7242999999999999, 1.1105, 0.9561, 0.7858, 0.7441, 1.0201],
  "QPU": "7000000",
  "Qubits": 5,
  "Queue durations [ms]": [0.0, 0.0, 0.0, 0.0, 0.0, 0.0, 0.0, 0.0, 0.0, 0.0, 0.0, 0.0, 0.0, 0.0, 0.0, 0.0, 0.0, 0.0, 0.0, 0.0, 0.0, 0.0, 0.0, 0.0, 0.0, 0.0, 0.0, 0.0, 0.0, 0.0, 0.0, 0.0, 0.0, 0.0, 0.0, 0.0, 0.0, 0.0, 0.0, 0.0, 0.0, 0.0, 0.0, 0.0, 0.0, 0.0, 0.0, 0.0, 0.0, 0.0, 0.0, 0.0, 0.0, 0.0, 0.0, 0.0, 0.0, 0.0, 0.0, 0.0, 0.0, 0.0, 0.0, 0.0, 0.0, 0.0, 0.0, 0.0, 0.0, 0.0, 0.0, 0.0, 0.0, 0.0, 0.0, 0.0, 0.0, 0.0, 0.0, 0.0, 0.0, 0.0, 0.0, 0.0, 0.0, 0.0, 0.0, 0.0, 0.0, 0.0, 0.0, 0.0, 0.0, 0.0, 0.0, 0.0, 0.0, 0.0, 0.0, 0.0, 0.0, 0.0, 0.0, 0.0, 0.0, 0.0, 0.0, 0.0, 0.0, 0.0, 0.0, 0.0, 0.0, 0.0, 0.0, 0.0, 0.0],
  "Shots": 4096,
  "Size": 4,
  "Total Algorithm duration [s]": 0.984,
  "Total Classic duration [s]": 0.8948349999999999,
  "Total Quantum duration [s]": 0.08916500000000001
}
