{
  "Circuit execution durations [ms]": [0.7661, 0.8434999999999999, 0.7422000000000001, 1.0154, 0.7439, 0.7343000000000001, 0.7416, 0.7882, 0.7736000000000001, 0.7948999999999999, 0.7413, 0.7557, 0.7515, 0.7648, 0.7569, 0.734, 0.755, 0.7515, 0.7796, 0.7494999999999999, 0.7458, 0.7464999999999999, 0.753, 0.7427, 0.7421, 0.7261000000000001, 0.7388, 0.7326, 0.7324, 0.7493000000000001, 0.7463, 0.7434, 0.7503, 0.7435, 0.7631, 0.7596999999999999, 0.7446, 0.7429, 0.7343999999999999, 0.7395, 0.7494999999999999, 0.7363, 0.7454000000000001, 0.7432, 0.7438, 0.7549, 0.7521, 0.7337, 0.759, 0.7487, 0.739, 0.7418, 0.7379, 0.7521, 0.7504000000000001, 0.7489, 0.7453, 0.7385999999999999, 0.7337, 0.7351000000000001, 0.7485, 0.7388, 0.7481, 0.7408, 0.7357, 0.7496, 0.7487, 0.7378, 0.7258, 0.7444, 0.7485, 0.7307, 0.7519, 0.7265, 0.7369, 0.7519, 0.7509, 0.7475999999999999, 0.7598, 0.7286, 0.7661, 0.7475999999999999, 0.7297, 0.7396, 0.7481, 0.7605, 0.7585, 0.7343000000000001, 0.7596999999999999, 0.7394, 0.744, 0.7433, 0.7339, 0.7378, 0.7364999999999999, 0.754, 0.747, 0.7363],
  "Depth": 109.0,
  "Expectation Value": -1.8721896409988403,
  "Optimal Expectation Value": -1.0,
  "Optimizer durations [ms]": [8.301, 8.944, 17.19, 16.024, 7.935, 7.688, 8.134, 8.362, 8.35, 8.34, 7.856, 8.295, 7.865, 8.279, 7.809, 8.049, 8.165, 7.866, 8.257, 7.84, 8.098, 7.811, 8.149, 8.053, 7.69, 7.704, 7.95, 8.017, 7.743, 8.342, 7.848, 7.957, 7.934, 8.056, 8.043, 8.063, 8.104, 7.667, 8.272, 7.805, 8.096, 7.925, 12.279, 7.762, 7.848, 8.249, 8.027, 7.848, 8.085, 8.035, 7.847, 7.743, 8.101, 7.872, 8.156, 7.838, 8.186, 7.719, 7.869, 7.726, 8.225, 7.596, 8.026, 7.936, 7.893, 7.909, 7.89, 8.292, 7.695, 7.79, 8.353, 7.718, 8.114, 7.509, 8.123, 8.091, 8.114, 7.902, 8.017, 7.82, 8.453, 7.646, 7.902, 7.952, 8.031, 7.938, 7.998, 8.002, 7.891, 8.09, 7.771, 7.971, 7.855, 8.094, 8.039, 7.73, 8.064, 8.039],
  "Optimizer iterations": 98,
  "Optimizer params": [0.9992567694142149, 0.9971755533152122, 0.7022436030376197, 0.9938511953522656, 0.025002344255566692, 0.11841259091080585],
  "P": 3,
  "Problem": "MIS",
  "QJob durations [ms]": [0.7661, 0.8434999999999999, 0.7422000000000001, 1.0154, 0.7439, 0.7343000000000001, 0.7416, 0.7882, 0.7736000000000001, 0.7948999999999999, 0.7413, 0.7557, 0.7515, 0.7648, 0.7569, 0.734, 0.755, 0.7515, 0.7796, 0.7494999999999999, 0.7458, 0.7464999999999999, 0.753, 0.7427, 0.7421, 0.7261000000000001, 0.7388, 0.7326, 0.7324, 0.7493000000000001, 0.7463, 0.7434, 0.7503, 0.7435, 0.7631, 0.7596999999999999, 0.7446, 0.7429, 0.7343999999999999, 0.7395, 0.7494999999999999, 0.7363, 0.7454000000000001, 0.7432, 0.7438, 0.7549, 0.7521, 0.7337, 0.759, 0.7487, 0.739, 0.7418, 0.7379, 0.7521, 0.7504000000000001, 0.7489, 0.7453, 0.7385999999999999, 0.7337, 0.7351000000000001, 0.7485, 0.7388, 0.7481, 0.7408, 0.7357, 0.7496, 0.7487, 0.7378, 0.7258, 0.7444, 0.7485, 0.7307, 0.7519, 0.7265, 0.7369, 0.7519, 0.7509, 0.7475999999999999, 0.7598, 0.7286, 0.7661, 0.7475999999999999, 0.7297, 0.7396, 0.7481, 0.7605, 0.7585, 0.7343000000000001, 0.7596999999999999, 0.7394, 0.744, 0.7433, 0.7339, 0.7378, 0.7364999999999999, 0.754, 0.747, 0.7363],
  "QPU": "7000000",
  "Qubits": 5,
  "Queue durations [ms]": [0.0, 0.0, 0.0, 0.0, 0.0, 0.0, 0.0, 0.0, 0.0, 0.0, 0.0, 0.0, 0.0, 0.0, 0.0, 0.0, 0.0, 0.0, 0.0, 0.0, 0.0, 0.0, 0.0, 0.0, 0.0, 0.0, 0.0, 0.0, 0.0, 0.0, 0.0, 0.0, 0.0, 0.0, 0.0, 0.0, 0.0, 0.0, 0.0, 0.0, 0.0, 0.0, 0.0, 0.0, 0.0, 0.0, 0.0, 0.0, 0.0, 0.0, 0.0, 0.0, 0.0, 0.0, 0.0, 0.0, 0.0, 0.0, 0.0, 0.0, 0.0, 0.0, 0.0, 0.0, 0.0, 0.0, 0.0, 0.0, 0.0, 0.0, 0.0, 0.0, 0.0, 0.0, 0.0, 0.0, 0.0, 0.0, 0.0, 0.0, 0.0, 0.0, 0.0, 0.0, 0.0, 0.0, 0.0, 0.0, 0.0, 0.0, 0.0, 0.0, 0.0, 0.0, 0.0, 0.0, 0.0, 0.0],
  "Shots": 4096,
  "Size": 4,
  "Total Algorithm duration [s]": 0.804,
  "Total Classic duration [s]": 0.7304823,
  "Total Quantum duration [s]": 0.07351770000000002
}
