{
  "Circuit execution durations [ms]": [49.20244216918945, 48.91014099121094, 97.17464447021484, 53.052663803100586, 48.1419563293457, 51.520347595214844, 47.537803649902344, 49.776554107666016, 51.676273345947266, 48.69341850280762, 48.336029052734375, 49.256324768066406, 46.32401466369629, 47.3177433013916, 47.21784591674805, 48.18129539489746, 46.729087829589844, 50.76336860656738, 46.99397087097168, 46.58102989196777, 50.69923400878906, 50.657033920288086, 97.72253036499023, 49.81589317321777, 52.55007743835449, 50.887346267700195, 49.170732498168945, 49.696922302246094, 47.91831970214844, 48.08187484741211, 53.08246612548828, 47.00136184692383, 49.96466636657715, 47.351837158203125, 47.785282135009766, 50.095558166503906, 48.99787902832031, 52.96134948730469, 46.540021896362305, 95.92080116271973, 48.569679260253906, 44.797420501708984, 98.85239601135254, 48.48003387451172, 50.388336181640625, 48.38705062866211, 48.99168014526367, 55.579423904418945, 47.623395919799805, 46.68450355529785, 46.24032974243164, 47.026634216308594, 49.41129684448242, 50.25315284729004, 49.78656768798828, 46.89621925354004, 51.85818672180176, 47.823190689086914, 47.904014587402344, 99.22122955322266, 45.27163505554199, 47.74975776672363, 95.96037864685059, 54.07357215881348, 50.728797912597656, 51.18584632873535, 45.423030853271484, 49.51739311218262, 46.74220085144043, 48.37799072265625, 51.85365676879883, 48.42066764831543, 46.56982421875, 46.477317810058594, 49.149513244628906, 52.35099792480469, 52.85811424255371, 51.91683769226074, 51.6049861907959, 95.95131874084473, 48.16889762878418, 48.14028739929199, 97.04232215881348, 46.1115837097168, 49.48616027832031, 52.57391929626465, 49.15761947631836, 46.51474952697754],
  "Depth": 32.0,
  "Expectation Value": -1.86376953125,
  "Optimal Expectation Value": -2.0,
  "Optimizer durations [ms]": [250.189, 293.013, 297.479, 252.118, 290.496, 248.699, 287.972, 297.443, 256.145, 291.841, 295.1, 249.56, 287.442, 294.898, 246.727, 290.794, 295.106, 251.771, 289.684, 293.238, 247.939, 293.063, 295.175, 250.461, 296.2, 250.952, 288.275, 294.907, 243.69, 289.545, 301.131, 242.954, 291.665, 294.988, 248.053, 291.054, 295.002, 253.485, 288.601, 296.725, 248.403, 288.001, 298.832, 244.666, 292.999, 244.731, 287.539, 305.021, 247.355, 286.014, 293.444, 246.651, 289.911, 296.091, 249.19, 286.886, 300.809, 248.355, 293.241, 297.001, 245.961, 290.097, 295.511, 251.293, 299.685, 252.175, 283.343, 290.653, 245.306, 288.364, 298.753, 249.189, 290.069, 293.941, 249.934, 296.764, 296.773, 251.374, 292.706, 293.383, 247.789, 292.228, 297.327, 241.931, 297.663, 248.842, 291.666, 293.382],
  "Optimizer iterations": 88,
  "Optimizer params": [0.1503495565490931, 0.4645630833605768, 0.8588839650279433, 0.6071262618717386, 0.9248507322695895, 0.22848277295710362],
  "P": 3,
  "Problem": "MCP",
  "QJob durations [ms]": [79.77914810180664, 76.05338096618652, 128.13162803649902, 83.03523063659668, 75.12712478637695, 78.86433601379395, 77.10838317871094, 80.09028434753418, 87.10575103759766, 80.63721656799316, 79.07605171203613, 79.50878143310547, 73.6093521118164, 78.23514938354492, 77.91686058044434, 77.68797874450684, 77.03757286071777, 81.87508583068848, 74.95999336242676, 122.97582626342773, 77.48222351074219, 77.79669761657715, 124.35793876647949, 81.04133605957031, 79.70476150512695, 81.19869232177734, 77.0876407623291, 77.49176025390625, 74.70154762268066, 78.49550247192383, 83.81032943725586, 73.81844520568848, 76.75719261169434, 77.90422439575195, 78.51934432983398, 76.60222053527832, 76.18927955627441, 83.9076042175293, 74.32675361633301, 127.34651565551758, 79.00738716125488, 72.3581314086914, 128.74841690063477, 75.31070709228516, 77.24618911743164, 74.81741905212402, 76.04336738586426, 86.84945106506348, 77.87322998046875, 74.12505149841309, 77.30388641357422, 77.14343070983887, 76.59006118774414, 77.95906066894531, 79.83875274658203, 73.54998588562012, 131.64067268371582, 78.54199409484863, 78.25326919555664, 126.30319595336914, 76.09200477600098, 74.42688941955566, 126.62720680236816, 80.7645320892334, 81.48336410522461, 81.88676834106445, 72.81088829040527, 76.73382759094238, 76.62129402160645, 76.01237297058105, 82.11255073547363, 78.6595344543457, 77.38542556762695, 76.96390151977539, 80.2605152130127, 82.45015144348145, 79.2229175567627, 81.83431625366211, 78.37772369384766, 123.35014343261719, 78.86028289794922, 75.94609260559082, 127.33173370361328, 72.86763191223145, 80.04331588745117, 79.5128345489502, 79.74934577941895, 73.75121116638184],
  "QPU": "3000017",
  "Qubits": 3,
  "Queue durations [ms]": [0.0, 0.0, 0.0, 0.0, 0.0, 0.0, 0.0, 0.0, 0.0, 0.0, 0.0, 0.0, 0.0, 0.0, 0.0, 0.0, 0.0, 0.0, 0.0, 0.0, 0.0, 0.0, 0.0, 0.0, 0.0, 0.0, 0.0, 0.0, 0.0, 0.0, 0.0, 0.0, 0.0, 0.0, 0.0, 0.0, 0.0, 0.0, 0.0, 0.0, 0.0, 0.0, 0.0, 0.0, 0.0, 0.0, 0.0, 0.0, 0.0, 0.0, 0.0, 0.0, 0.0, 0.0, 0.0, 0.0, 0.0, 0.0, 0.0, 0.0, 0.0, 0.0, 0.0, 0.0, 0.0, 0.0, 0.0, 0.0, 0.0, 0.0, 0.0, 0.0, 0.0, 0.0, 0.0, 0.0, 0.0, 0.0, 0.0, 0.0, 0.0, 0.0, 0.0, 0.0, 0.0, 0.0, 0.0, 0.0],
  "Shots": 4096,
  "Size": 3,
  "Total Algorithm duration [s]": 24.424,
  "Total Classic duration [s]": 17.065002416610717,
  "Total Quantum duration [s]": 7.358997583389282
}
