{
  "Circuit execution durations [ms]": [100.81317, 55.396744, 103.29706800000001, 104.03095499999999, 92.88352599999999, 102.842483, 103.015309, 159.622943, 121.18753, 102.887265, 103.246042, 90.47875499999999, 89.944237, 54.301968, 55.563204, 103.44385, 53.872734, 102.211061, 55.616005, 53.552918, 103.020521, 55.769068, 54.79428, 54.848485000000004, 102.468277, 92.543874, 102.46327, 53.882149999999996, 62.62941800000001, 54.957977, 104.05184100000001, 92.086355, 53.683972000000004, 107.248051, 53.879336, 102.19415599999999, 118.677215, 89.496402, 54.902958, 102.86912500000001, 55.027015999999996, 55.227296, 73.333715, 102.64578900000001, 54.843648, 53.342095, 101.99453899999999, 102.359089, 53.712616999999995, 106.186616, 89.216934, 91.523852, 102.866039, 53.814371, 101.783358, 53.367804, 89.879325, 54.861304, 102.92835, 53.826961, 53.5823, 54.987263, 102.302688, 99.502953, 55.597189, 82.925986, 101.953541, 95.801331, 63.150665999999994, 55.158639, 87.85458, 143.00196000000003, 133.42424499999998, 90.393013, 102.13409399999999, 104.876339, 190.34589499999998, 115.484538, 102.125536, 54.916042, 103.19197700000001, 82.992398, 89.25104999999999, 94.01115899999999, 90.218711, 92.23134800000001, 78.521466, 163.97824699999998, 103.097408, 55.553421, 90.437405, 92.700329, 82.971867, 103.05538, 54.028431000000005, 91.030323, 54.895776, 94.51291, 54.667372],
  "Depth": 682.0,
  "Expectation Value": -3.75,
  "Optimal Expectation Value": -7.0,
  "Optimizer durations [ms]": [12706.623, 11490.232, 11225.841, 21834.874, 76809.411, 24872.787, 63333.881, 37949.503, 8787.521, 18666.34, 7733.753, 8644.053, 70522.419, 9254.718, 11075.6, 8705.682, 12516.309, 8291.188, 11142.593, 62008.162, 10099.963, 8580.032, 10012.199, 12120.328, 62072.435, 8865.493, 10716.121, 13538.639, 9171.622, 11602.159, 62448.189, 8310.492, 8810.575, 8372.957, 9490.775, 9696.251, 8424.809, 7390.451, 9333.395, 8631.903, 9824.495, 72740.734, 9607.958, 19384.695, 35913.626, 8644.839, 18981.004, 9847.62, 10312.561, 9453.323, 8513.999, 7850.754, 70266.102, 8371.395, 9178.473, 21827.553, 9368.872, 77206.348, 8560.954, 8373.405, 8733.157, 13115.557, 10367.546, 10329.858, 8070.224, 10614.888, 69843.765, 11844.317, 162892.102, 10223.439, 10195.679, 8705.341, 14916.835, 70431.75, 8475.752, 38804.197, 10038.385, 8719.916, 9151.047, 11272.17, 70299.018, 15802.888, 11224.402, 9151.439, 12192.185, 11944.281, 10176.718, 38909.775, 8873.243, 12240.597, 7811.972, 8563.745, 8984.104, 66255.553, 8983.835, 11310.206, 14517.372, 22558.61, 8967.326],
  "Optimizer iterations": 99,
  "Optimizer params": [0.17603801046237025, 0.9284734982559303, 0.022439281846179458, 0.24388638089096137, 0.1915588453612364, 0.9440056958726172],
  "P": 3,
  "Problem": "DSP",
  "QJob durations [ms]": [12468.456745147705, 11321.825504302979, 11059.80658531189, 21667.136669158936, 76637.78901100159, 24639.076948165894, 63096.53615951538, 37715.81220626831, 8558.828115463257, 18426.801681518555, 7568.333148956299, 8464.149475097656, 70354.28428649902, 9082.596778869629, 10909.52730178833, 8463.075637817383, 12282.970190048218, 8054.7051429748535, 10909.978151321411, 61840.174436569214, 9930.187940597534, 8408.774137496948, 9838.468313217163, 11948.36950302124, 61813.535928726196, 8641.906261444092, 10482.010841369629, 13298.791885375977, 8938.145637512207, 11439.20373916626, 62279.191732406616, 8146.920442581177, 8645.548105239868, 8206.056594848633, 9252.966165542603, 9467.835664749146, 8193.151473999023, 7161.950349807739, 9102.527856826782, 8466.2344455719, 9657.567977905273, 72572.67165184021, 9440.529823303223, 19142.956256866455, 35669.41952705383, 8419.19994354248, 18750.788688659668, 9614.467859268188, 10141.575813293457, 9288.471698760986, 8352.524995803833, 7679.33464050293, 70098.69480133057, 8128.4284591674805, 8952.895879745483, 21598.65665435791, 9140.597343444824, 77034.4729423523, 8393.719673156738, 8207.810163497925, 8560.343265533447, 12945.590019226074, 10122.685670852661, 10105.217695236206, 7839.034557342529, 10380.848169326782, 69614.69650268555, 11671.26441001892, 162725.45385360718, 10056.0941696167, 10027.159690856934, 8532.496929168701, 14669.132709503174, 70203.00841331482, 8243.594884872437, 38569.91696357727, 9813.803911209106, 8550.785541534424, 8977.452993392944, 11104.606628417969, 70130.69272041321, 15566.509485244751, 10979.161500930786, 8920.462131500244, 11963.109254837036, 11716.284990310669, 10004.326581954956, 38743.48735809326, 8706.363201141357, 12074.625015258789, 7640.173673629761, 8316.284656524658, 8756.796598434448, 66024.10244941711, 8754.592895507813, 11140.988111495972, 14352.295637130737, 22389.498472213745, 8805.522441864014],
  "QPU": "4010001",
  "Qubits": 14,
  "Queue durations [ms]": [4711.0, 2113.0, 1197.0, 766.0, 62021.0, 2131.0, 55227.0, 1164.0, 888.0, 1167.0, 706.0, 818.0, 61991.0, 986.0, 2585.0, 1083.0, 2248.0, 1031.0, 1946.0, 28766.0, 694.0, 1053.0, 2007.0000000000002, 988.0, 54423.0, 985.0, 3027.0, 1950.0, 1029.0, 1988.0, 55433.0, 877.0, 1057.0, 817.0, 575.0, 721.0, 767.0, 778.0, 1986.0, 1934.0, 2415.0, 64988.0, 1913.0, 971.0, 27635.0, 1124.0, 10906.0, 2019.0000000000002, 831.0, 1012.9999999999999, 692.0, 673.0, 62729.0, 1087.0, 1305.0, 925.0, 1882.0, 62058.0, 1032.0, 826.0, 1034.0, 984.0, 829.0, 2040.0, 709.0, 2579.0, 1870.0, 694.0, 155511.0, 1180.0, 1172.0, 1096.0, 941.0, 1360.0, 825.0, 833.0, 1819.0, 866.0, 962.0, 2009.9999999999998, 63187.0, 8214.0, 1040.0, 737.0, 1127.0, 1220.0, 2194.0, 31384.0, 1330.0, 795.0, 683.0, 1074.0, 2310.0, 2070.0, 1129.0, 1018.0, 916.0, 11271.0, 1541.0],
  "Shots": 4096,
  "Size": 9,
  "Total Algorithm duration [s]": 2095.002,
  "Total Classic duration [s]": 19.835109855651808,
  "Total Quantum duration [s]": 2075.166890144348
}
