{
  "Depth": 2.0,
  "Job durations [ms]": [11.452913284301758, 11.387228965759277, 11.233210563659668, 11.420965194702148, 14.263510704040527, 14.73379135131836, 14.156937599182129, 14.199376106262207, 14.033198356628418, 13.934850692749023, 14.108896255493164, 13.878822326660156, 14.165520668029785, 14.017939567565918, 13.92221450805664, 12.813091278076172, 11.454224586486816, 11.252164840698242, 12.070775032043457, 11.118531227111816, 11.237382888793945, 11.047601699829102, 11.14344596862793, 11.136651039123535, 11.432409286499023, 11.257290840148926, 11.153817176818848, 11.545658111572266, 12.71069049835205, 14.824867248535156, 14.277815818786621, 14.275550842285156, 14.199018478393555, 14.326095581054688, 14.090538024902344, 14.203548431396484, 14.192938804626465, 14.418721199035645, 14.16015625, 14.27924633026123, 11.107325553894043, 11.012911796569824, 11.044740676879883, 11.259675025939941, 11.03663444519043, 11.266231536865234, 11.272668838500977, 11.03365421295166, 12.951374053955078, 10.980367660522461, 11.0396146774292, 11.194586753845215, 11.215806007385254, 11.121153831481934, 11.869430541992188, 11.149287223815918, 11.040329933166504, 10.894060134887695, 10.987639427185059, 11.037230491638184, 11.122703552246094, 11.235237121582031, 11.174201965332031, 11.170029640197754, 11.16800308227539, 11.252284049987793, 11.39843463897705, 11.053919792175293, 11.047720909118652, 11.032342910766602, 11.158227920532227, 11.308431625366211, 11.138558387756348, 11.690616607666016, 11.11745834350586, 11.167287826538086, 11.370062828063965, 11.683106422424316, 10.855913162231445, 11.144161224365234, 11.067509651184082, 11.26563549041748, 11.401534080505371, 11.516451835632324, 12.688398361206055, 11.651873588562012, 11.473894119262695, 11.243224143981934, 11.322736740112305, 11.73245906829834, 11.14034652709961, 11.071920394897461, 11.680126190185547, 11.211991310119629, 11.283159255981445, 10.96808910369873, 11.214137077331543, 11.18934154510498, 11.060714721679688, 11.291861534118652, 11.269211769104004, 11.13581657409668, 12.620925903320312, 14.32490348815918, 14.234185218811035, 14.245986938476562, 14.003515243530273, 14.10055160522461, 14.028310775756836, 14.0380859375, 14.717459678649902, 14.337539672851562, 14.370441436767578, 14.234781265258789, 11.340975761413574, 11.408209800720215, 12.558937072753906, 11.440873146057129, 11.465787887573242, 11.098265647888184, 11.104106903076172, 11.35110855102539, 11.199593544006348, 11.594295501708984, 11.710762977600098, 11.320233345031738, 11.246204376220703, 11.413812637329102, 11.231064796447754, 12.398004531860352, 12.423276901245117, 11.635303497314453, 11.299610137939453],
  "Optimizer durations [ms]": [142.483, 186.234, 141.885, 138.936, 159.949, 222.083, 168.95, 169.852, 168.655, 218.313, 167.18, 166.772, 170.368, 218.666, 166.888, 160.702, 143.547, 187.77, 143.234, 138.526, 186.317, 142.969, 139.346, 139.48, 184.935, 140.871, 137.554, 139.107, 198.07, 171.719, 168.873, 174.881, 225.769, 168.611, 170.105, 171.753, 228.247, 171.007, 166.65, 171.751, 187.913, 139.306, 149.364, 138.922, 185.882, 139.487, 153.948, 205.634, 156.464, 139.571, 139.201, 183.789, 139.878, 138.743, 140.061, 184.806, 137.432, 136.004, 136.785, 182.935, 138.71, 138.551, 138.658, 183.429, 139.122, 139.907, 139.292, 185.152, 139.445, 138.239, 139.55, 185.918, 140.9, 141.782, 188.926, 140.067, 145.685, 138.259, 182.282, 140.023, 137.023, 140.474, 190.346, 149.656, 154.26, 153.417, 245.641, 140.531, 141.92, 142.289, 184.119, 140.094, 143.253, 139.136, 190.893, 137.178, 141.793, 138.018, 186.064, 140.717, 144.463, 183.129, 146.528, 171.034, 169.724, 226.341, 170.902, 166.649, 167.551, 217.71, 168.651, 168.657, 168.024, 222.884, 140.637, 139.739, 142.658, 192.319, 140.528, 137.838, 137.958, 184.686, 145.442, 141.536, 140.725, 186.586, 139.266, 139.091, 186.161, 143.632, 151.077, 171.493, 190.636],
  "Optimizer iterations": 133,
  "Qubits": 7,
  "Total Algorithm duration [s]": 21.5,
  "Total Classic duration [s]": 19.893287420272827,
  "Total Quantum duration [s]": 1.6067125797271729,
  "Expectation Value": -4.280812740325928,
  "Optimal Expectation Value": -4.281300067901611,
  "Optimizer params": [0.9997780338927288, 0.498469162549026, 1.0, 0.4945423776313254, 0.49376809796661203, 0.9998638145784828, 0.4977312126058867],
  "QPU": "3010002",
  "Problem": "RH",
  "Size": 7,
  "P": 0,
  "Shots": 4096
}