{
  "Circuit execution durations [ms]": [2.6673999999999998, 2.6518, 2.5899, 2.6657, 2.6698999999999997, 2.6616, 2.6472, 2.6753, 2.6733, 2.6262999999999996, 2.6354, 2.6241, 2.6143, 2.6884, 2.6387, 2.6094999999999997, 2.6609, 2.6104000000000003, 2.6663, 2.6454999999999997, 2.6462, 2.6146, 2.6350000000000002, 2.6216, 2.6354, 2.62, 2.6845, 2.6833, 2.6466, 2.6947, 2.6586000000000003, 2.6526, 2.6792000000000002, 2.7024000000000004, 2.6163, 2.6328, 2.6654999999999998, 2.6249, 2.6423, 2.6452, 2.6852, 2.6563, 2.8371999999999997, 2.7697, 2.644, 2.627, 2.6289, 2.6389, 2.6403, 2.6449, 2.6252, 2.5892, 2.6345, 2.6251, 2.6375, 2.6216, 2.6151, 2.6072, 2.615, 2.6309, 2.6512, 2.6657, 2.6458, 2.6123000000000003, 2.6935000000000002, 2.6557999999999997, 2.6273999999999997, 2.6728, 2.5963000000000003, 2.8186999999999998, 2.8321, 2.6351, 2.6196, 2.6254, 2.6300999999999997, 2.6382, 2.6554, 2.5972, 2.6281, 2.641, 2.6587, 2.6513999999999998, 2.6364, 2.6129000000000002, 2.6626000000000003, 2.6233, 2.6329000000000002, 2.6123000000000003, 2.6353, 2.6571, 2.6451000000000002, 2.6443, 2.7218, 2.6557, 2.629, 2.6228, 2.6083, 2.6039000000000003, 2.6848, 2.6507, 2.6305, 2.6499, 2.6402, 2.6412, 2.6140999999999996, 2.621, 2.7745, 2.6923, 2.7058, 2.6599000000000004, 2.6664000000000003, 2.6447, 2.609, 2.6445000000000003, 2.7057, 2.6048999999999998, 2.6175, 2.6435, 2.6667, 2.6632000000000002, 2.6275999999999997, 2.6441, 2.6266000000000003, 2.6502000000000003, 2.6536, 2.6387, 2.6311],
  "Depth": 80.0,
  "Expectation Value": -4.599260330200195,
  "Optimal Expectation Value": -3.0,
  "Optimizer durations [ms]": [27.009, 27.091, 26.597, 27.166, 27.315, 27.011, 27.038, 27.107, 31.694, 26.78, 27.086, 26.693, 26.71, 27.332, 26.912, 26.573, 27.182, 26.807, 27.4, 26.934, 26.866, 26.82, 26.573, 27.02, 26.804, 26.695, 27.47, 27.341, 26.884, 27.519, 27.082, 27.024, 27.359, 27.563, 26.668, 26.823, 27.898, 26.777, 26.869, 26.825, 32.33, 27.083, 28.909, 37.587, 27.063, 26.727, 26.928, 26.82, 26.781, 27.195, 26.637, 26.602, 26.714, 26.821, 27.02, 26.563, 26.859, 26.613, 26.534, 26.72, 27.172, 27.086, 27.051, 26.337, 27.619, 26.962, 26.723, 27.288, 26.407, 28.901, 33.332, 27.255, 26.476, 26.695, 26.898, 26.991, 26.791, 26.876, 26.783, 26.892, 26.98, 27.3, 27.024, 26.542, 27.232, 26.424, 26.924, 26.692, 26.776, 26.962, 27.036, 26.956, 27.791, 27.213, 26.844, 26.593, 27.052, 26.368, 27.412, 27.08, 26.892, 26.97, 26.768, 27.096, 26.702, 26.523, 28.342, 36.963, 27.707, 27.238, 27.075, 27.115, 26.568, 27.058, 27.537, 26.349, 26.979, 26.987, 27.017, 27.106, 26.794, 26.836, 26.759, 27.098, 27.259, 26.931, 26.642],
  "Optimizer iterations": 127,
  "Optimizer params": [0.2702387661115775, 0.8056577604787817, 0.7702941671983092, 0.6305538983825351, 0.9656194551129839, 0.11294855851733138],
  "P": 3,
  "Problem": "TSP",
  "QJob durations [ms]": [2.6673999999999998, 2.6518, 2.5899, 2.6657, 2.6698999999999997, 2.6616, 2.6472, 2.6753, 2.6733, 2.6262999999999996, 2.6354, 2.6241, 2.6143, 2.6884, 2.6387, 2.6094999999999997, 2.6609, 2.6104000000000003, 2.6663, 2.6454999999999997, 2.6462, 2.6146, 2.6350000000000002, 2.6216, 2.6354, 2.62, 2.6845, 2.6833, 2.6466, 2.6947, 2.6586000000000003, 2.6526, 2.6792000000000002, 2.7024000000000004, 2.6163, 2.6328, 2.6654999999999998, 2.6249, 2.6423, 2.6452, 2.6852, 2.6563, 2.8371999999999997, 2.7697, 2.644, 2.627, 2.6289, 2.6389, 2.6403, 2.6449, 2.6252, 2.5892, 2.6345, 2.6251, 2.6375, 2.6216, 2.6151, 2.6072, 2.615, 2.6309, 2.6512, 2.6657, 2.6458, 2.6123000000000003, 2.6935000000000002, 2.6557999999999997, 2.6273999999999997, 2.6728, 2.5963000000000003, 2.8186999999999998, 2.8321, 2.6351, 2.6196, 2.6254, 2.6300999999999997, 2.6382, 2.6554, 2.5972, 2.6281, 2.641, 2.6587, 2.6513999999999998, 2.6364, 2.6129000000000002, 2.6626000000000003, 2.6233, 2.6329000000000002, 2.6123000000000003, 2.6353, 2.6571, 2.6451000000000002, 2.6443, 2.7218, 2.6557, 2.629, 2.6228, 2.6083, 2.6039000000000003, 2.6848, 2.6507, 2.6305, 2.6499, 2.6402, 2.6412, 2.6140999999999996, 2.621, 2.7745, 2.6923, 2.7058, 2.6599000000000004, 2.6664000000000003, 2.6447, 2.609, 2.6445000000000003, 2.7057, 2.6048999999999998, 2.6175, 2.6435, 2.6667, 2.6632000000000002, 2.6275999999999997, 2.6441, 2.6266000000000003, 2.6502000000000003, 2.6536, 2.6387, 2.6311],
  "QPU": "7000000",
  "Qubits": 9,
  "Queue durations [ms]": [0.0, 0.0, 0.0, 0.0, 0.0, 0.0, 0.0, 0.0, 0.0, 0.0, 0.0, 0.0, 0.0, 0.0, 0.0, 0.0, 0.0, 0.0, 0.0, 0.0, 0.0, 0.0, 0.0, 0.0, 0.0, 0.0, 0.0, 0.0, 0.0, 0.0, 0.0, 0.0, 0.0, 0.0, 0.0, 0.0, 0.0, 0.0, 0.0, 0.0, 0.0, 0.0, 0.0, 0.0, 0.0, 0.0, 0.0, 0.0, 0.0, 0.0, 0.0, 0.0, 0.0, 0.0, 0.0, 0.0, 0.0, 0.0, 0.0, 0.0, 0.0, 0.0, 0.0, 0.0, 0.0, 0.0, 0.0, 0.0, 0.0, 0.0, 0.0, 0.0, 0.0, 0.0, 0.0, 0.0, 0.0, 0.0, 0.0, 0.0, 0.0, 0.0, 0.0, 0.0, 0.0, 0.0, 0.0, 0.0, 0.0, 0.0, 0.0, 0.0, 0.0, 0.0, 0.0, 0.0, 0.0, 0.0, 0.0, 0.0, 0.0, 0.0, 0.0, 0.0, 0.0, 0.0, 0.0, 0.0, 0.0, 0.0, 0.0, 0.0, 0.0, 0.0, 0.0, 0.0, 0.0, 0.0, 0.0, 0.0, 0.0, 0.0, 0.0, 0.0, 0.0, 0.0, 0.0],
  "Shots": 4096,
  "Size": 3,
  "Total Algorithm duration [s]": 3.464,
  "Total Classic duration [s]": 3.1275443000000003,
  "Total Quantum duration [s]": 0.3364556999999999
}
