{
  "Circuit execution durations [ms]": [2.6272, 2.6189999999999998, 2.6406, 2.6224, 2.6673, 2.9897, 2.6706, 2.6646, 2.6364, 2.6026000000000002, 2.7845999999999997, 2.6466, 2.6437, 2.6183, 2.6252, 2.7031, 2.6303, 2.644, 2.9112999999999998, 2.634, 2.6416999999999997, 2.613, 2.6384999999999996, 2.6328, 2.8133, 2.626, 2.6224, 2.6226000000000003, 2.6414, 2.6351999999999998, 2.6323000000000003, 2.5978, 2.6839, 2.6633, 2.6058000000000003, 2.6399000000000004, 2.6762, 2.8176, 2.7889, 2.5991999999999997, 2.61, 2.5996, 2.6485, 2.6305, 2.6113999999999997, 2.5896, 2.6451000000000002, 2.6350000000000002, 2.6178, 2.5831, 2.645, 2.66, 2.6359999999999997, 2.6159, 2.6351, 2.6189999999999998, 2.6475, 2.5993, 2.6156, 2.7004, 2.6462, 2.6319999999999997, 2.6573, 2.6142000000000003, 2.6318, 2.6234, 2.6364, 2.634, 2.62, 2.6281999999999996, 2.6448, 2.6412, 2.6254, 2.6860999999999997],
  "Depth": 80.0,
  "Expectation Value": 6.898004531860352,
  "Optimal Expectation Value": -3.0,
  "Optimizer durations [ms]": [26.842, 26.704, 26.949, 26.621, 27.437, 30.434, 27.043, 27.381, 31.122, 26.585, 28.374, 36.505, 27.287, 26.591, 26.811, 27.502, 26.876, 27.102, 30.403, 27.256, 26.622, 26.744, 26.935, 26.861, 28.593, 26.746, 26.859, 26.837, 26.617, 26.887, 26.678, 26.621, 27.225, 27.359, 26.491, 26.832, 27.237, 38.337, 28.28, 26.755, 26.597, 26.461, 27.016, 27.013, 26.427, 26.512, 26.947, 26.965, 26.424, 32.349, 26.872, 27.27, 26.913, 26.556, 27.071, 26.472, 26.977, 26.843, 26.514, 27.446, 27.127, 26.982, 27.006, 26.629, 26.834, 26.718, 26.908, 26.889, 26.68, 26.892, 27.12, 26.706, 26.671, 27.47],
  "Optimizer iterations": 74,
  "Optimizer params": [0.9594576886905437, 0.4160800763741371, 0.9469984293966485, 0.28199739523328654, 0.10137835317746773, 0.8905137327934649],
  "P": 3,
  "Problem": "TSP",
  "QJob durations [ms]": [2.6272, 2.6189999999999998, 2.6406, 2.6224, 2.6673, 2.9897, 2.6706, 2.6646, 2.6364, 2.6026000000000002, 2.7845999999999997, 2.6466, 2.6437, 2.6183, 2.6252, 2.7031, 2.6303, 2.644, 2.9112999999999998, 2.634, 2.6416999999999997, 2.613, 2.6384999999999996, 2.6328, 2.8133, 2.626, 2.6224, 2.6226000000000003, 2.6414, 2.6351999999999998, 2.6323000000000003, 2.5978, 2.6839, 2.6633, 2.6058000000000003, 2.6399000000000004, 2.6762, 2.8176, 2.7889, 2.5991999999999997, 2.61, 2.5996, 2.6485, 2.6305, 2.6113999999999997, 2.5896, 2.6451000000000002, 2.6350000000000002, 2.6178, 2.5831, 2.645, 2.66, 2.6359999999999997, 2.6159, 2.6351, 2.6189999999999998, 2.6475, 2.5993, 2.6156, 2.7004, 2.6462, 2.6319999999999997, 2.6573, 2.6142000000000003, 2.6318, 2.6234, 2.6364, 2.634, 2.62, 2.6281999999999996, 2.6448, 2.6412, 2.6254, 2.6860999999999997],
  "QPU": "7000000",
  "Qubits": 9,
  "Queue durations [ms]": [0.0, 0.0, 0.0, 0.0, 0.0, 0.0, 0.0, 0.0, 0.0, 0.0, 0.0, 0.0, 0.0, 0.0, 0.0, 0.0, 0.0, 0.0, 0.0, 0.0, 0.0, 0.0, 0.0, 0.0, 0.0, 0.0, 0.0, 0.0, 0.0, 0.0, 0.0, 0.0, 0.0, 0.0, 0.0, 0.0, 0.0, 0.0, 0.0, 0.0, 0.0, 0.0, 0.0, 0.0, 0.0, 0.0, 0.0, 0.0, 0.0, 0.0, 0.0, 0.0, 0.0, 0.0, 0.0, 0.0, 0.0, 0.0, 0.0, 0.0, 0.0, 0.0, 0.0, 0.0, 0.0, 0.0, 0.0, 0.0, 0.0, 0.0, 0.0, 0.0, 0.0, 0.0],
  "Shots": 4096,
  "Size": 3,
  "Total Algorithm duration [s]": 2.031,
  "Total Classic duration [s]": 1.8347613,
  "Total Quantum duration [s]": 0.19623870000000002
}
