{
  "Circuit execution durations [ms]": [2.6408, 2.6031, 2.6359, 2.6316, 2.6265, 2.6232, 2.6442, 2.5926, 2.6127, 2.6220000000000003, 2.6856, 2.7718000000000003, 2.6037999999999997, 2.6178, 2.6262999999999996, 2.6391999999999998, 2.6896, 2.6391, 2.6418, 2.6132999999999997, 2.6248, 2.6782, 2.6465, 2.6438, 2.6281999999999996, 2.5911, 2.6534000000000004, 2.6162, 2.6579, 2.627, 2.6278, 2.6484, 2.6567000000000003, 2.6207000000000003, 2.6268, 2.6302, 2.6378999999999997, 2.6315, 2.6016, 2.6201000000000003, 2.6372999999999998, 2.662, 2.6222, 2.6538, 2.6002, 2.6018, 2.6252, 2.6291, 2.6148000000000002, 2.5836, 2.6368, 2.6271, 2.9686, 2.7590000000000003, 2.6165, 2.5498000000000003, 2.682, 2.8112, 2.6763, 2.601, 2.6972, 2.6322, 2.6170999999999998, 2.6368, 2.6103, 2.6224, 2.6551, 2.6145, 2.6407000000000003, 2.6548000000000003, 2.6472, 2.6871, 2.5988, 2.6509, 2.6676, 2.6172, 2.6237, 2.6664000000000003, 2.6335, 2.6622, 2.6412, 2.6526, 2.7175, 2.6808, 2.8357, 2.8268, 2.6713, 2.6411, 2.669, 2.6459, 2.6359999999999997, 2.6687999999999996, 2.6435999999999997, 2.6363, 2.6473, 2.6288, 2.6408, 2.6380000000000003, 2.6363, 2.6594, 2.6754000000000002, 2.6622999999999997, 2.6151, 2.6395, 2.7233, 2.6285000000000003, 2.661, 2.6587, 2.6414, 2.6565999999999996, 2.6389, 2.7603],
  "Depth": 80.0,
  "Expectation Value": 1.2962779998779297,
  "Optimal Expectation Value": -3.0,
  "Optimizer durations [ms]": [26.996, 26.417, 27.028, 26.519, 27.196, 26.555, 26.901, 26.663, 26.671, 26.77, 27.059, 38.033, 29.932, 26.643, 26.928, 26.609, 27.564, 26.943, 26.801, 26.627, 26.788, 27.301, 26.937, 27.104, 26.581, 26.746, 27.088, 26.581, 27.034, 26.828, 26.756, 26.958, 27.119, 26.659, 26.997, 26.507, 27.063, 26.878, 26.682, 26.733, 26.796, 27.103, 26.594, 27.123, 26.429, 26.68, 26.649, 26.708, 26.751, 33.811, 26.864, 27.797, 30.458, 28.005, 26.854, 35.529, 27.305, 28.507, 36.751, 26.736, 27.582, 26.785, 26.774, 26.7, 26.561, 26.818, 27.047, 26.956, 26.784, 26.954, 27.166, 27.565, 26.262, 27.3, 27.451, 26.523, 26.799, 27.235, 26.741, 27.366, 26.901, 27.034, 27.675, 27.354, 33.549, 29.734, 27.365, 26.779, 27.166, 26.958, 26.883, 27.305, 26.769, 27.003, 26.946, 26.95, 26.729, 27.001, 26.885, 27.126, 27.429, 27.173, 26.483, 27.028, 27.42, 27.176, 26.942, 27.24, 26.803, 27.353, 26.749, 28.08],
  "Optimizer iterations": 112,
  "Optimizer params": [0.8717679533010184, 0.47280140106685437, 0.06695638910142464, 0.7813096164028013, 0.7529851529619357, 0.8342912371931631],
  "P": 3,
  "Problem": "TSP",
  "QJob durations [ms]": [2.6408, 2.6031, 2.6359, 2.6316, 2.6265, 2.6232, 2.6442, 2.5926, 2.6127, 2.6220000000000003, 2.6856, 2.7718000000000003, 2.6037999999999997, 2.6178, 2.6262999999999996, 2.6391999999999998, 2.6896, 2.6391, 2.6418, 2.6132999999999997, 2.6248, 2.6782, 2.6465, 2.6438, 2.6281999999999996, 2.5911, 2.6534000000000004, 2.6162, 2.6579, 2.627, 2.6278, 2.6484, 2.6567000000000003, 2.6207000000000003, 2.6268, 2.6302, 2.6378999999999997, 2.6315, 2.6016, 2.6201000000000003, 2.6372999999999998, 2.662, 2.6222, 2.6538, 2.6002, 2.6018, 2.6252, 2.6291, 2.6148000000000002, 2.5836, 2.6368, 2.6271, 2.9686, 2.7590000000000003, 2.6165, 2.5498000000000003, 2.682, 2.8112, 2.6763, 2.601, 2.6972, 2.6322, 2.6170999999999998, 2.6368, 2.6103, 2.6224, 2.6551, 2.6145, 2.6407000000000003, 2.6548000000000003, 2.6472, 2.6871, 2.5988, 2.6509, 2.6676, 2.6172, 2.6237, 2.6664000000000003, 2.6335, 2.6622, 2.6412, 2.6526, 2.7175, 2.6808, 2.8357, 2.8268, 2.6713, 2.6411, 2.669, 2.6459, 2.6359999999999997, 2.6687999999999996, 2.6435999999999997, 2.6363, 2.6473, 2.6288, 2.6408, 2.6380000000000003, 2.6363, 2.6594, 2.6754000000000002, 2.6622999999999997, 2.6151, 2.6395, 2.7233, 2.6285000000000003, 2.661, 2.6587, 2.6414, 2.6565999999999996, 2.6389, 2.7603],
  "QPU": "7000000",
  "Qubits": 9,
  "Queue durations [ms]": [0.0, 0.0, 0.0, 0.0, 0.0, 0.0, 0.0, 0.0, 0.0, 0.0, 0.0, 0.0, 0.0, 0.0, 0.0, 0.0, 0.0, 0.0, 0.0, 0.0, 0.0, 0.0, 0.0, 0.0, 0.0, 0.0, 0.0, 0.0, 0.0, 0.0, 0.0, 0.0, 0.0, 0.0, 0.0, 0.0, 0.0, 0.0, 0.0, 0.0, 0.0, 0.0, 0.0, 0.0, 0.0, 0.0, 0.0, 0.0, 0.0, 0.0, 0.0, 0.0, 0.0, 0.0, 0.0, 0.0, 0.0, 0.0, 0.0, 0.0, 0.0, 0.0, 0.0, 0.0, 0.0, 0.0, 0.0, 0.0, 0.0, 0.0, 0.0, 0.0, 0.0, 0.0, 0.0, 0.0, 0.0, 0.0, 0.0, 0.0, 0.0, 0.0, 0.0, 0.0, 0.0, 0.0, 0.0, 0.0, 0.0, 0.0, 0.0, 0.0, 0.0, 0.0, 0.0, 0.0, 0.0, 0.0, 0.0, 0.0, 0.0, 0.0, 0.0, 0.0, 0.0, 0.0, 0.0, 0.0, 0.0, 0.0, 0.0, 0.0],
  "Shots": 4096,
  "Size": 3,
  "Total Algorithm duration [s]": 3.073,
  "Total Classic duration [s]": 2.7761981,
  "Total Quantum duration [s]": 0.29680190000000006
}
