{
  "Circuit execution durations [ms]": [2.6204, 2.6212, 2.6256, 2.6209, 2.6197, 2.6704, 2.6104000000000003, 2.6350000000000002, 2.6356, 2.6218, 2.6412, 2.6251, 2.6397, 2.7567999999999997, 2.7972, 2.8564, 2.6481, 2.6508, 2.6525, 2.6543, 2.6452, 2.6419, 2.655, 2.6311, 2.6409, 2.6478, 2.6509, 2.6246, 2.6416, 2.6534000000000004, 2.6253, 2.6140999999999996, 2.6204, 2.6239000000000003, 2.6289, 2.6639, 2.6666, 2.6223, 2.644, 2.6187, 2.6234, 2.6153999999999997, 2.6148000000000002, 2.6359, 2.6321, 2.6305, 2.6311, 2.639, 2.6586000000000003, 2.6374, 2.7393, 2.7651, 2.6199, 2.6293, 2.6224999999999996, 2.6294, 2.6513999999999998, 2.6343, 2.6109, 2.6311, 2.6391999999999998, 2.6202, 2.6218, 2.6121, 2.6077, 2.6367000000000003, 2.629, 2.6134, 2.6222, 2.6475, 2.608, 2.6248, 2.6399000000000004, 2.6153999999999997, 2.6285000000000003, 2.641, 2.6491000000000002, 2.6409, 2.6005, 2.7076000000000002, 2.6273, 2.6386000000000003, 2.6426000000000003, 2.6395, 2.646, 2.6372999999999998, 2.6423, 2.6538, 2.6469, 2.6444, 2.6429, 2.654, 2.5921999999999996, 2.6299, 2.6162, 2.6555, 2.6472, 2.7083, 2.7728, 2.6084, 2.6724, 2.7098, 2.6088999999999998, 2.6128, 2.7013, 2.6015, 2.6628, 2.6092, 2.6555, 2.6431, 2.643, 2.6607, 2.7125, 2.6581, 2.6470000000000002, 2.6639, 2.7226, 2.6448, 2.6126, 2.6319, 2.6203, 2.621, 2.6478, 2.6822999999999997, 2.9359, 2.6341, 2.6453, 2.6172999999999997, 2.6639, 2.6151999999999997, 2.5917000000000003, 2.6, 2.6273, 2.6302, 2.6426000000000003, 2.6026000000000002, 2.669, 2.614, 2.665, 2.6079, 2.598, 2.6203, 2.6281999999999996, 2.6182000000000003, 2.6176, 2.7358000000000002, 2.6622],
  "Depth": 80.0,
  "Expectation Value": -0.5408339500427246,
  "Optimal Expectation Value": -3.0,
  "Optimizer durations [ms]": [26.846, 26.658, 26.537, 26.713, 26.924, 27.235, 26.565, 27.015, 26.992, 26.576, 26.998, 26.7, 27.128, 27.94, 38.27, 29.105, 27.068, 26.84, 28.189, 26.881, 26.904, 27.009, 26.862, 27.086, 26.71, 27.342, 30.734, 26.65, 27.155, 26.81, 27.024, 26.673, 26.768, 26.83, 26.77, 27.094, 27.316, 26.457, 27.055, 26.701, 26.796, 26.566, 26.505, 27.02, 27.058, 26.755, 27.005, 26.925, 27.091, 26.743, 28.056, 37.822, 26.581, 26.982, 26.473, 27.044, 26.745, 27.284, 26.559, 26.87, 26.718, 26.77, 26.486, 29.226, 26.578, 26.956, 26.756, 26.709, 26.741, 27.06, 26.794, 26.723, 26.81, 26.843, 26.981, 26.617, 27.212, 26.622, 26.542, 27.957, 26.665, 27.098, 26.734, 27.326, 26.646, 26.977, 27.08, 26.871, 27.087, 30.005, 26.86, 27.919, 26.21, 26.97, 26.46, 31.703, 27.096, 27.959, 37.828, 26.587, 27.198, 27.878, 26.55, 26.644, 27.52, 26.564, 27.032, 26.599, 27.141, 27.001, 27.007, 27.261, 27.454, 27.36, 26.891, 27.108, 27.895, 26.954, 26.429, 26.807, 27.179, 26.665, 26.739, 27.495, 30.217, 36.394, 27.156, 26.514, 27.309, 26.72, 26.324, 26.34, 26.935, 27.002, 26.987, 26.563, 27.09, 26.676, 27.255, 26.37, 26.63, 26.716, 26.978, 26.685, 26.721, 28.031, 26.979],
  "Optimizer iterations": 147,
  "Optimizer params": [0.9132127894819394, 0.24053030211096021, 0.9646865224381095, 0.8931874697885689, 0.06917005061131903, 0.022776121465496547],
  "P": 3,
  "Problem": "TSP",
  "QJob durations [ms]": [2.6204, 2.6212, 2.6256, 2.6209, 2.6197, 2.6704, 2.6104000000000003, 2.6350000000000002, 2.6356, 2.6218, 2.6412, 2.6251, 2.6397, 2.7567999999999997, 2.7972, 2.8564, 2.6481, 2.6508, 2.6525, 2.6543, 2.6452, 2.6419, 2.655, 2.6311, 2.6409, 2.6478, 2.6509, 2.6246, 2.6416, 2.6534000000000004, 2.6253, 2.6140999999999996, 2.6204, 2.6239000000000003, 2.6289, 2.6639, 2.6666, 2.6223, 2.644, 2.6187, 2.6234, 2.6153999999999997, 2.6148000000000002, 2.6359, 2.6321, 2.6305, 2.6311, 2.639, 2.6586000000000003, 2.6374, 2.7393, 2.7651, 2.6199, 2.6293, 2.6224999999999996, 2.6294, 2.6513999999999998, 2.6343, 2.6109, 2.6311, 2.6391999999999998, 2.6202, 2.6218, 2.6121, 2.6077, 2.6367000000000003, 2.629, 2.6134, 2.6222, 2.6475, 2.608, 2.6248, 2.6399000000000004, 2.6153999999999997, 2.6285000000000003, 2.641, 2.6491000000000002, 2.6409, 2.6005, 2.7076000000000002, 2.6273, 2.6386000000000003, 2.6426000000000003, 2.6395, 2.646, 2.6372999999999998, 2.6423, 2.6538, 2.6469, 2.6444, 2.6429, 2.654, 2.5921999999999996, 2.6299, 2.6162, 2.6555, 2.6472, 2.7083, 2.7728, 2.6084, 2.6724, 2.7098, 2.6088999999999998, 2.6128, 2.7013, 2.6015, 2.6628, 2.6092, 2.6555, 2.6431, 2.643, 2.6607, 2.7125, 2.6581, 2.6470000000000002, 2.6639, 2.7226, 2.6448, 2.6126, 2.6319, 2.6203, 2.621, 2.6478, 2.6822999999999997, 2.9359, 2.6341, 2.6453, 2.6172999999999997, 2.6639, 2.6151999999999997, 2.5917000000000003, 2.6, 2.6273, 2.6302, 2.6426000000000003, 2.6026000000000002, 2.669, 2.614, 2.665, 2.6079, 2.598, 2.6203, 2.6281999999999996, 2.6182000000000003, 2.6176, 2.7358000000000002, 2.6622],
  "QPU": "7000000",
  "Qubits": 9,
  "Queue durations [ms]": [0.0, 0.0, 0.0, 0.0, 0.0, 0.0, 0.0, 0.0, 0.0, 0.0, 0.0, 0.0, 0.0, 0.0, 0.0, 0.0, 0.0, 0.0, 0.0, 0.0, 0.0, 0.0, 0.0, 0.0, 0.0, 0.0, 0.0, 0.0, 0.0, 0.0, 0.0, 0.0, 0.0, 0.0, 0.0, 0.0, 0.0, 0.0, 0.0, 0.0, 0.0, 0.0, 0.0, 0.0, 0.0, 0.0, 0.0, 0.0, 0.0, 0.0, 0.0, 0.0, 0.0, 0.0, 0.0, 0.0, 0.0, 0.0, 0.0, 0.0, 0.0, 0.0, 0.0, 0.0, 0.0, 0.0, 0.0, 0.0, 0.0, 0.0, 0.0, 0.0, 0.0, 0.0, 0.0, 0.0, 0.0, 0.0, 0.0, 0.0, 0.0, 0.0, 0.0, 0.0, 0.0, 0.0, 0.0, 0.0, 0.0, 0.0, 0.0, 0.0, 0.0, 0.0, 0.0, 0.0, 0.0, 0.0, 0.0, 0.0, 0.0, 0.0, 0.0, 0.0, 0.0, 0.0, 0.0, 0.0, 0.0, 0.0, 0.0, 0.0, 0.0, 0.0, 0.0, 0.0, 0.0, 0.0, 0.0, 0.0, 0.0, 0.0, 0.0, 0.0, 0.0, 0.0, 0.0, 0.0, 0.0, 0.0, 0.0, 0.0, 0.0, 0.0, 0.0, 0.0, 0.0, 0.0, 0.0, 0.0, 0.0, 0.0, 0.0, 0.0, 0.0, 0.0, 0.0],
  "Shots": 4096,
  "Size": 3,
  "Total Algorithm duration [s]": 4.021,
  "Total Classic duration [s]": 3.6321453,
  "Total Quantum duration [s]": 0.38885469999999983
}
