{
  "Circuit execution durations [ms]": [2.6369000000000002, 3.1202, 2.7453, 2.6294999999999997, 2.6136000000000004, 2.6426000000000003, 2.611, 2.6443, 2.6549, 2.6976999999999998, 2.6187, 2.6433, 2.6021, 2.6412, 2.654, 2.6248, 2.6668, 2.6456, 2.6241, 2.627, 2.6317, 2.6144, 2.6289, 2.6370999999999998, 2.6296000000000004, 2.6182000000000003, 2.6729000000000003, 2.6435, 2.6621, 2.6239000000000003, 2.629, 2.6854999999999998, 2.618, 2.6251, 2.6461, 2.6728, 2.6193000000000004, 2.6299, 2.7765, 2.6778, 2.6687999999999996, 2.6356, 2.7615, 2.6075999999999997, 2.6426000000000003, 2.6723, 2.6527, 2.8682999999999996, 3.0109, 2.6002, 2.6142000000000003, 2.6294, 2.6216999999999997, 2.6715, 2.6847, 2.7573, 2.63, 2.613, 2.6835, 2.5915999999999997, 2.6178, 2.6025, 2.6503, 2.6491000000000002, 2.6468, 2.6662, 2.6249, 2.6515000000000004, 2.6268, 2.6369000000000002, 2.6093, 2.643, 2.6183, 2.6205, 2.7357, 2.6307, 2.7153, 2.9046, 2.6485, 2.7412, 2.6319, 2.6524, 2.5918, 2.6253, 2.6716, 2.6222, 2.6189, 2.6874, 2.6033, 2.6376, 2.6362, 2.6159, 2.6451000000000002, 2.6458, 2.6902, 2.6721000000000004, 2.6868, 2.6479, 2.6658, 2.6633999999999998, 2.6458, 2.6267],
  "Depth": 80.0,
  "Expectation Value": -1.5652494430541992,
  "Optimal Expectation Value": -3.0,
  "Optimizer durations [ms]": [27.076, 31.587, 32.978, 26.496, 27.025, 26.727, 26.825, 26.78, 27.045, 27.602, 26.474, 27.172, 26.629, 26.732, 27.266, 26.44, 27.142, 26.982, 26.815, 26.73, 26.677, 26.647, 27.048, 26.737, 26.775, 26.735, 27.141, 26.738, 27.387, 26.671, 27.019, 27.29, 26.511, 26.692, 27.051, 27.492, 26.558, 26.909, 28.097, 27.324, 27.037, 27.055, 28.092, 31.353, 27.056, 27.196, 26.959, 29.099, 30.718, 36.049, 30.913, 26.671, 26.982, 27.416, 27.154, 28.347, 26.753, 26.46, 27.287, 26.797, 26.378, 26.962, 27.019, 26.865, 26.886, 27.352, 26.604, 26.942, 26.758, 27.061, 26.634, 26.926, 26.732, 26.724, 27.927, 36.171, 32.654, 35.833, 37.172, 27.775, 36.582, 26.842, 26.627, 26.639, 27.152, 26.852, 26.875, 27.536, 26.501, 26.878, 26.844, 26.759, 27.014, 26.934, 27.317, 27.189, 27.289, 27.04, 27.081, 27.388, 26.952, 26.65],
  "Optimizer iterations": 102,
  "Optimizer params": [0.13441808074945577, 0.05586656032712978, 0.08435370670133473, 0.8193809813045547, 0.8537061049761611, 0.9779430766603923],
  "P": 3,
  "Problem": "TSP",
  "QJob durations [ms]": [2.6369000000000002, 3.1202, 2.7453, 2.6294999999999997, 2.6136000000000004, 2.6426000000000003, 2.611, 2.6443, 2.6549, 2.6976999999999998, 2.6187, 2.6433, 2.6021, 2.6412, 2.654, 2.6248, 2.6668, 2.6456, 2.6241, 2.627, 2.6317, 2.6144, 2.6289, 2.6370999999999998, 2.6296000000000004, 2.6182000000000003, 2.6729000000000003, 2.6435, 2.6621, 2.6239000000000003, 2.629, 2.6854999999999998, 2.618, 2.6251, 2.6461, 2.6728, 2.6193000000000004, 2.6299, 2.7765, 2.6778, 2.6687999999999996, 2.6356, 2.7615, 2.6075999999999997, 2.6426000000000003, 2.6723, 2.6527, 2.8682999999999996, 3.0109, 2.6002, 2.6142000000000003, 2.6294, 2.6216999999999997, 2.6715, 2.6847, 2.7573, 2.63, 2.613, 2.6835, 2.5915999999999997, 2.6178, 2.6025, 2.6503, 2.6491000000000002, 2.6468, 2.6662, 2.6249, 2.6515000000000004, 2.6268, 2.6369000000000002, 2.6093, 2.643, 2.6183, 2.6205, 2.7357, 2.6307, 2.7153, 2.9046, 2.6485, 2.7412, 2.6319, 2.6524, 2.5918, 2.6253, 2.6716, 2.6222, 2.6189, 2.6874, 2.6033, 2.6376, 2.6362, 2.6159, 2.6451000000000002, 2.6458, 2.6902, 2.6721000000000004, 2.6868, 2.6479, 2.6658, 2.6633999999999998, 2.6458, 2.6267],
  "QPU": "7000000",
  "Qubits": 9,
  "Queue durations [ms]": [0.0, 0.0, 0.0, 0.0, 0.0, 0.0, 0.0, 0.0, 0.0, 0.0, 0.0, 0.0, 0.0, 0.0, 0.0, 0.0, 0.0, 0.0, 0.0, 0.0, 0.0, 0.0, 0.0, 0.0, 0.0, 0.0, 0.0, 0.0, 0.0, 0.0, 0.0, 0.0, 0.0, 0.0, 0.0, 0.0, 0.0, 0.0, 0.0, 0.0, 0.0, 0.0, 0.0, 0.0, 0.0, 0.0, 0.0, 0.0, 0.0, 0.0, 0.0, 0.0, 0.0, 0.0, 0.0, 0.0, 0.0, 0.0, 0.0, 0.0, 0.0, 0.0, 0.0, 0.0, 0.0, 0.0, 0.0, 0.0, 0.0, 0.0, 0.0, 0.0, 0.0, 0.0, 0.0, 0.0, 0.0, 0.0, 0.0, 0.0, 0.0, 0.0, 0.0, 0.0, 0.0, 0.0, 0.0, 0.0, 0.0, 0.0, 0.0, 0.0, 0.0, 0.0, 0.0, 0.0, 0.0, 0.0, 0.0, 0.0, 0.0, 0.0],
  "Shots": 4096,
  "Size": 3,
  "Total Algorithm duration [s]": 2.829,
  "Total Classic duration [s]": 2.5576727,
  "Total Quantum duration [s]": 0.2713273000000001
}
