{
  "Depth": 2.0,
  "Expectation Value": -7.3933424949646,
  "Job durations [ms]": [0.251150006079115, 0.21065000328235328, 0.19754999811993912, 0.24854999355738983, 0.18799999816110358, 0.20555000082822517, 0.22909999825060368, 0.18855000234907493, 0.23535000218544155, 0.1980500019271858, 0.20050000603077933, 0.16109999705804512, 0.22105000243755057, 0.22334999812301248, 0.1795999996829778, 0.15970000094966963, 0.3750999894691631, 0.23084999702405185, 0.23720000899629667, 0.34949999098898843, 0.2464499993948266, 0.2005499991355464, 0.21584999922197312, 0.1956999985850416, 0.2249000026495196, 0.25755000388016924, 0.3678499997477047, 0.2069000038318336, 0.23484999837819487, 0.19240000256104395, 0.17740000475896522, 0.19249999604653567, 0.21825000294484198, 0.20714999845949933, 0.1879499977803789, 0.2304500012542121, 0.18925000040326267, 0.18799999816110358, 0.20295000285841525, 0.2108000044245273, 0.19029999384656549, 0.18545000057201833, 0.23240000155055895, 0.18695000471780077, 0.21255000319797546, 0.22175000049173832, 0.1867500031949021, 0.189049998880364, 0.22634999913861975, 0.19029999384656549, 0.22214999626157805, 0.1870499982032925, 0.2641000028233975, 0.20185000175843015, 0.20480000239331275, 0.23654999677091837, 0.23290000535780564, 0.21924999600742012, 0.20540000696200877, 0.2194499975303188, 0.20205000328132883, 0.18664999515749514, 0.23454999609384686, 0.24865000159479678, 0.20124998991377652, 0.2116999967256561, 0.2530000056140125, 0.22465000074589625, 0.19454999710433185, 0.2262499911012128, 0.1886000027297996, 0.22569999418919906, 0.19050000264542177, 0.23194999812403694, 0.19035000150324777, 0.20775000302819535, 0.2003499976126477, 0.18569999519968405, 0.2262499983771704, 0.22035000438336283, 0.22200000239536166, 0.19040000188397244, 0.19154999608872458, 0.19810000230791047, 0.23135000083129853, 0.1889000050141476, 0.18320000526728109, 0.19350000366102904, 0.19440000323811546, 0.22039999748812988, 0.1908999984152615, 0.22784999600844458, 0.1926500044646673, 0.20590000349329785, 0.18775000353343785, 0.21574999846052378, 0.21430000197142363, 0.1998000079765916, 0.24685000244062394, 0.2248499949928373, 0.22695000370731577, 0.22619999799644575, 0.21215000742813572, 0.23599999985890463, 0.1918499983730726, 0.1875000016298145, 0.22894999710842967, 0.20605000463547185, 0.20404999668244272, 0.19850000535370782, 0.17389999993611127, 0.3446500122663565, 0.3064500051550567, 0.30979999428382143, 0.2370999936829321, 0.3625000099418685, 0.27585000498220325, 0.24780000239843503, 0.35114998900098726, 0.2097000033245422, 0.24280000798171386, 0.19344999600434676, 0.23769999825162813, 0.19149999570799991, 0.18560000171419233, 0.23419999342877418, 0.18514999828767031, 0.23385000531561673, 0.19034999422729015, 0.1575499991304241, 0.23099999816622585, 0.18685000395635143, 0.2283000067109242, 0.19969999993918464, 0.22030000400263816, 0.28220000967849046, 0.21459999697981402, 0.22770000214222819, 0.2963500010082498, 0.18799999816110358, 0.23779999173711985, 0.22159999934956431, 0.19579999934649095, 0.20560000848490745, 0.1962000023922883, 0.23495000641560182, 0.1970999946934171, 0.19564999820431694, 0.22500000341096893, 0.20415000471984968, 0.2058000027318485, 0.21179999748710543, 0.21734999609179795, 0.19484999938867986, 0.23019999935058877, 0.20699999731732532, 0.2090499983751215, 0.1870499982032925, 0.2055000077234581, 0.23285000497708097, 0.1933999956236221, 0.21925001055933535, 0.18684999668039382, 0.21299999934853986, 0.1870499982032925, 0.2355499964323826, 0.2027000009547919, 0.17754999862518162, 0.22230000467970967, 0.18869999621529132],
  "Optimal Expectation Value": -7.393599987030029,
  "Optimizer durations [ms]": [6.496, 8.336, 5.506, 6.064, 5.127, 5.524, 8.285, 5.38, 5.818, 5.291, 6.214, 20.617, 6.506, 10.346, 18.978, 23.808, 17.947, 14.256, 6.364, 14.126, 6.115, 6.357, 5.492, 5.477, 10.924, 16.869, 8.779, 9.686, 6.082, 5.272, 6.161, 5.218, 5.464, 5.385, 5.483, 5.675, 16.31, 5.991, 5.513, 5.459, 5.18, 5.818, 5.837, 5.139, 5.497, 5.655, 5.734, 5.212, 5.838, 5.191, 6.165, 10.736, 8.101, 5.377, 5.625, 5.915, 5.731, 5.696, 5.476, 5.57, 5.647, 5.828, 5.995, 6.161, 5.66, 5.58, 6.326, 5.629, 5.362, 5.757, 5.19, 5.697, 5.208, 5.915, 5.193, 5.577, 5.474, 5.431, 5.537, 5.556, 5.678, 5.165, 5.73, 5.383, 5.93, 5.196, 4.97, 5.457, 5.402, 5.446, 5.258, 5.879, 5.192, 6.418, 5.469, 5.495, 5.678, 6.617, 6.202, 5.789, 5.867, 5.623, 5.612, 6.038, 5.437, 5.747, 5.827, 5.527, 5.715, 5.536, 16.726, 8.112, 9.288, 15.201, 13.651, 8.446, 9.003, 16.288, 8.336, 5.476, 6.352, 5.236, 6.125, 5.25, 6.081, 6.107, 5.113, 5.764, 5.17, 7.247, 5.831, 5.158, 6.574, 5.503, 5.52, 6.835, 19.348, 6.174, 8.121, 5.11, 6.176, 5.607, 5.352, 6.162, 5.428, 6.13, 5.426, 5.82, 5.594, 5.371, 6.06, 5.363, 6.253, 13.103, 5.791, 5.421, 5.517, 5.072, 6.912, 5.878, 5.287, 5.467, 5.08, 5.539, 5.1, 6.111, 13.257, 6.586, 6.665, 5.154],
  "Optimizer iterations": 170,
  "Optimizer params": [0.9985780545470048, 0.5007436895441636, 0.9992879433001749, 0.5065928939624943, 0.5033148717875471, 0.998883047862835, 0.5038289283984012, 0.4989485735134726, 0.9989265770479671, 0.5024253492392953, 0.9984118741662809, 0.9992163588491223],
  "P": 0,
  "Problem": "RH",
  "QPU": "7000000",
  "Qubits": 12,
  "Shots": 4096,
  "Size": 12,
  "Total Algorithm duration [s]": 1.18,
  "Total Classic duration [s]": 1.1430693999351933,
  "Total Quantum duration [s]": 0.03693060006480664
}
