{
  "Depth": 2.0,
  "Expectation Value": -7.3933424949646,
  "Job durations [ms]": [0.19705000158865005, 0.3761500047403388, 0.1859499971033074, 0.1857999959611334, 0.24834999931044877, 0.1877999966382049, 0.2049000031547621, 0.18680000357562676, 0.24300000222865492, 0.1869000043370761, 0.18835000082617626, 0.2282499917782843, 0.18760000239126384, 0.228599994443357, 0.22315000387607142, 0.18804999854182824, 0.24274999304907396, 0.18755000201053917, 0.24000000121304765, 0.2205500059062615, 0.23735000286251307, 0.23304999922402203, 0.25289999757660553, 0.22295000235317275, 0.20954999490641057, 0.19659999816212803, 0.23550000332761556, 0.19350000366102904, 0.1790000023902394, 0.2201000024797395, 0.18775000353343785, 0.2525999952922575, 0.19194999913452193, 0.22989999706624076, 0.3512999974191189, 0.21194999862927943, 0.18884999735746533, 0.17094999930122867, 0.20169999334029853, 0.200850008695852, 0.18840000120690092, 0.19225000141886994, 0.21809999452671036, 0.18840000120690092, 0.18619999900693074, 0.18984999769600108, 0.21710000146413222, 0.36904999433318153, 0.34125000092899427, 0.36050000926479697, 0.14585000099032186, 0.2451999971526675, 0.37509999674512073, 0.3534499919624068, 0.21674999879905954, 0.1864000005298294, 0.1976000057766214, 0.18350000027567148, 0.2641000028233975, 0.2166499980376102, 0.18355000065639615, 0.23430000146618113, 0.18740000086836517, 0.21750000450992957, 0.1828500026022084, 0.2275000006193295, 0.18465000175638124, 0.2342000007047318, 0.18260000069858506, 0.18399999680696055, 0.22450000687967986, 0.18694999744184315, 0.2336999896215275, 0.19425000209594145, 0.18984999769600108, 0.18529999942984432, 0.22259999968810007, 0.1876499954960309, 0.2101500067510642, 0.23130000045057386, 0.1918499983730726, 0.22715000523021445, 0.18799999816110358, 0.18110000382876024, 0.18449999333824962, 0.21949999791104347, 0.18324999837204814, 0.1866000020527281, 0.18014999659499153, 0.185500000952743, 0.25379999715369195, 0.18275000184075907, 0.19625001004897058, 0.18659999477677047, 0.2412999892840162, 0.18879999697674066, 0.18785000429488719, 0.2174500041292049, 0.20509999740170315, 0.23335000150837004, 0.1873500004876405, 0.22429999808082357, 0.22339999850373715, 0.20575000235112384, 0.30115000845398754, 0.229199999012053, 0.1843999998527579, 0.22334999812301248, 0.20154999947408214, 0.16480000340379775, 0.1900000061141327, 0.20139999105595052, 0.19394999981159344, 0.18555000133346766, 0.22655000793747604, 0.2555999963078648, 0.20465000125113875, 0.18759999511530623, 0.19025000074179843, 0.22829999215900898, 0.2345000029890798, 0.19504999363562092, 0.1846999948611483, 0.35730000672629103, 0.20429999858606607, 0.18914999964181334, 0.2518500041333027, 0.1841000048443675, 0.18909999926108867, 0.2103000006172806, 0.1864000005298294, 0.26410001009935513, 0.2168500068364665, 0.1991500030271709, 0.22714999067829922, 0.19130000146105886, 0.2336999896215275, 0.1874999943538569, 0.18294999608770013, 0.2357499979552813, 0.19425000209594145, 0.18379999528406188, 0.2238000088254921, 0.18360000103712082, 0.22334999084705487, 0.20139999833190814, 0.15705000259913504, 0.31835000845603645, 0.1921500006574206, 0.22680000256514177, 0.20155000675003976, 0.22895000438438728, 0.2845499984687194, 0.21179999748710543, 0.1866999955382198, 0.19239999528508633, 0.21810000180266798, 0.18770000315271318, 0.22375000116880983, 0.19964999955845997, 0.240100001974497, 0.18670000281417742, 0.18870000349124894, 0.20000000222353265, 0.18519999866839498, 0.1864000005298294, 0.2184999975725077, 0.18689999706111848, 0.1980499946512282, 0.2249000026495196],
  "Optimal Expectation Value": -7.393599987030029,
  "Optimizer durations [ms]": [6.136, 8.645, 5.543, 5.678, 6.179, 5.206, 5.75, 5.214, 6.138, 5.052, 5.848, 5.902, 5.115, 5.59, 8.606, 5.3, 6.06, 5.203, 5.949, 10.704, 12.211, 5.98, 10.498, 11.551, 5.417, 15.895, 6.018, 5.391, 7.222, 5.706, 6.06, 6.171, 5.345, 5.718, 13.13, 10.333, 9.464, 11.102, 5.383, 5.42, 7.89, 9.61, 5.647, 5.323, 9.034, 5.496, 8.826, 13.989, 12.964, 11.71, 10.881, 8.111, 10.803, 13.829, 9.662, 6.308, 5.716, 5.147, 6.512, 5.574, 5.171, 5.858, 5.215, 5.643, 5.331, 5.743, 5.058, 5.92, 5.264, 5.443, 5.695, 5.187, 5.965, 5.376, 5.856, 4.992, 5.659, 5.259, 6.324, 5.877, 5.183, 5.623, 5.19, 5.973, 5.125, 5.642, 5.089, 5.753, 5.435, 5.109, 6.245, 5.775, 5.517, 5.188, 6.155, 5.171, 5.349, 5.595, 5.461, 5.739, 5.182, 5.597, 5.893, 5.507, 11.314, 5.54, 4.984, 5.467, 5.578, 13.059, 6.739, 5.358, 5.275, 8.101, 5.705, 6.392, 5.754, 5.016, 7.053, 5.754, 6.181, 5.444, 4.953, 8.099, 17.1, 5.325, 6.445, 5.416, 5.66, 8.429, 4.98, 6.497, 5.352, 5.506, 15.583, 5.884, 6.538, 5.434, 5.768, 5.93, 5.296, 8.057, 5.715, 5.379, 5.615, 5.706, 19.646, 8.223, 10.358, 5.766, 5.384, 5.765, 6.616, 5.594, 5.337, 18.134, 7.727, 9.27, 5.468, 5.398, 6.057, 5.077, 5.073, 5.252, 5.781, 5.086, 5.792, 5.092, 5.966, 5.732],
  "Optimizer iterations": 170,
  "Optimizer params": [0.9985780545470048, 0.5007436895441636, 0.9992879433001749, 0.5065928939624943, 0.5033148717875471, 0.998883047862835, 0.5038289283984012, 0.4989485735134726, 0.9989265770479671, 0.5024253492392953, 0.9984118741662809, 0.9992163588491223],
  "P": 0,
  "Problem": "RH",
  "QPU": "7000000",
  "Qubits": 12,
  "Shots": 4096,
  "Size": 12,
  "Total Algorithm duration [s]": 1.161,
  "Total Classic duration [s]": 1.124563349996548,
  "Total Quantum duration [s]": 0.03643665000345209
}
