{
  "Depth": 2.0,
  "Expectation Value": -7.3933424949646,
  "Job durations [ms]": [0.33030000486178324, 0.2538999979151413, 0.3552000052877702, 0.4234500083839521, 0.32745000498835, 0.229049997869879, 0.39755000034347177, 0.3941500108339824, 0.27165000210516155, 0.1863000070443377, 0.38214998494368047, 0.3629999919212423, 0.3117000014754012, 0.3775000077439472, 0.36579999868990853, 0.36595001438399777, 0.36415001522982493, 0.2726500097196549, 0.25224999990314245, 0.1795999996829778, 0.27770000451710075, 0.1983499969355762, 0.2880500032915734, 0.3655500113382004, 0.3505999920889735, 0.386350009648595, 0.36235000152373686, 0.24860000849002972, 0.25009999808389693, 0.203950003196951, 0.23474999761674553, 0.22840000747237355, 0.23090000468073413, 0.2486000012140721, 0.36065000313101336, 0.40130000706994906, 0.34985001548193395, 0.3364999938639812, 0.36235000152373686, 0.19035000150324777, 0.26020000223070383, 0.23024999973131344, 0.2340499995625578, 0.1959000001079403, 0.2117000040016137, 0.18760000239126384, 0.19600000086938962, 0.37265000719344243, 0.19235000218031928, 0.18619999900693074, 0.35405001108301803, 0.2525000018067658, 0.22914999863132834, 0.22680000256514177, 0.23070000315783545, 0.2312500000698492, 0.24404999567195773, 0.18785000429488719, 0.20105000294279307, 0.20614999084500596, 0.228899996727705, 0.18939999426947907, 0.23419999342877418, 0.19289999909233302, 0.23584999871673062, 0.24465000024065375, 0.20449999283300713, 0.2025499998126179, 0.19129999418510124, 0.19264999718870968, 0.2588499919511378, 0.2138499985449016, 0.3881999946315773, 0.38970000605331734, 0.37695001083193347, 0.21204999939072877, 0.2397499993094243, 0.31709999893791974, 0.20249999943189323, 0.2887499940698035, 0.20709999807877466, 0.2538499975344166, 0.2342000007047318, 0.19174999761162326, 0.3946499855373986, 0.20090000180061907, 0.25674999051261693, 0.21795000066049397, 0.19749999773921445, 0.3210499926353805, 0.19320000137668103, 0.22820000594947487, 0.251150006079115, 0.20324999786680564, 0.25254999491153285, 0.19660000543808565, 0.1905999961309135, 0.23599999985890463, 0.20415000471984968, 0.21795000066049397, 0.1887500038719736, 0.19004999921889976, 0.28625000413740054, 0.21729999571107328, 0.2007000002777204, 0.25770000502234325, 0.3455500118434429, 0.36470000486588106, 0.1965000046766363, 0.2364999963901937, 0.20184999448247254, 0.24145000497810543, 0.19614999473560601, 0.2077999961329624, 0.19364999752724543, 0.23284999770112336, 0.22644999262411147, 0.18939999426947907, 0.2245499999844469, 0.18954999541165307, 0.1897000038297847, 0.24580000172136351, 0.2138499985449016, 0.18570000247564167, 0.233450009545777, 0.18899999849963933, 0.18724999972619116, 0.2200499948230572, 0.20560000120894983, 0.2210000020568259, 0.19130000146105886, 0.1880999989225529, 0.21279999054968357, 0.18984999769600108, 0.18950000230688602, 0.18629999976838008, 0.22739999985788018, 0.22709999029757455, 0.20529999892460182, 0.2234499916085042, 0.19115000031888485, 0.27894999948330224, 0.1990999953704886, 0.36344998807180673, 0.2673999988473952, 0.2156000045943074, 0.23439999495167285, 0.2186499914387241, 0.19630000315373763, 0.2828500000759959, 0.20954999490641057, 0.20420000510057434, 0.3215000033378601, 0.18759999511530623, 0.23330000112764537, 0.23455000336980447, 0.19149999570799991, 0.21805000869790092, 0.19225000141886994, 0.19980000070063397, 0.23119999968912452, 0.18854999507311732, 0.18044999887933955, 0.23624999448657036, 0.1862499993876554, 0.2253500060760416, 0.18835000082617626, 0.18475000251783058, 0.23949999740580097, 0.18575000285636634],
  "Optimal Expectation Value": -7.393599987030029,
  "Optimizer durations [ms]": [11.136, 10.716, 9.967, 17.866, 16.84, 18.888, 20.069, 16.18, 15.122, 25.69, 17.309, 8.802, 9.324, 14.324, 9.988, 9.233, 10.781, 7.588, 7.321, 6.412, 6.98, 5.499, 6.869, 11.006, 16.85, 9.607, 12.875, 21.736, 6.367, 8.046, 6.948, 7.654, 7.876, 6.791, 13.929, 10.629, 9.393, 12.453, 9.156, 5.392, 14.289, 11.617, 6.021, 11.995, 10.407, 5.457, 6.475, 16.043, 5.476, 10.097, 8.068, 6.412, 12.562, 5.677, 14.935, 5.613, 6.412, 6.148, 5.434, 6.024, 5.654, 5.338, 6.972, 5.307, 6.049, 7.334, 5.434, 6.459, 5.293, 5.341, 6.218, 8.014, 8.83, 17.497, 17.285, 19.213, 11.361, 11.901, 13.272, 9.895, 8.682, 6.387, 8.625, 5.256, 9.34, 18.835, 7.039, 8.882, 5.445, 7.589, 5.239, 6.176, 6.613, 5.41, 6.724, 5.411, 6.437, 7.456, 5.524, 5.735, 8.524, 5.187, 6.963, 5.62, 5.339, 6.325, 8.283, 8.369, 6.221, 5.83, 5.391, 5.967, 5.391, 5.513, 5.349, 5.877, 5.722, 5.181, 6.401, 5.152, 5.952, 6.229, 13.746, 5.203, 6.06, 5.435, 5.345, 5.66, 5.538, 5.446, 5.372, 6.245, 5.563, 5.175, 5.247, 6.125, 5.791, 5.691, 5.548, 5.65, 7.976, 6.921, 5.372, 8.291, 15.896, 7.708, 5.941, 7.039, 5.411, 6.866, 5.38, 5.475, 7.536, 5.28, 6.738, 5.894, 5.277, 6.829, 5.157, 6.706, 6.216, 5.133, 6.396, 6.029, 5.969, 5.837, 6.108, 6.251, 5.981, 5.972],
  "Optimizer iterations": 170,
  "Optimizer params": [0.9985780545470048, 0.5007436895441636, 0.9992879433001749, 0.5065928939624943, 0.5033148717875471, 0.998883047862835, 0.5038289283984012, 0.4989485735134726, 0.9989265770479671, 0.5024253492392953, 0.9984118741662809, 0.9992163588491223],
  "P": 0,
  "Problem": "RH",
  "QPU": "7000000",
  "Qubits": 12,
  "Shots": 4096,
  "Size": 12,
  "Total Algorithm duration [s]": 1.405,
  "Total Classic duration [s]": 1.3630298499495257,
  "Total Quantum duration [s]": 0.04197015005047433
}
