{
  "Depth": 2.0,
  "Expectation Value": -7.3933424949646,
  "Job durations [ms]": [0.2686000007088296, 0.19099999917671084, 0.18360000103712082, 0.19939999765483662, 0.2347999979974702, 0.24905000464059412, 0.1877999966382049, 0.22544999956153333, 0.19315000099595636, 0.1969500008272007, 0.1879499977803789, 0.22834999981569126, 0.19489999976940453, 0.2211499959230423, 0.18825000006472692, 0.18994999845745042, 0.23149999469751492, 0.19964999955845997, 0.2338499907637015, 0.1910499995574355, 0.20334999862825498, 0.19630000315373763, 0.2147999985027127, 0.1912500010803342, 0.19020000036107376, 0.22140000510262325, 0.1943500028573908, 0.2488999962224625, 0.19320000137668103, 0.22665000142296776, 0.1942999952007085, 0.19869999960064888, 0.19595000048866495, 0.2559999920777045, 0.2046999943559058, 0.18894999811891466, 0.23820000205887482, 0.22565000836038962, 0.23919999512145296, 0.1880000054370612, 0.21255000319797546, 0.23434999457094818, 0.19050000264542177, 0.36154998815618455, 0.3520500031299889, 0.35174998629372567, 0.36535000253934413, 0.34854998375521973, 0.3043999968213029, 0.2752499931375496, 0.22385000193025917, 0.20980000408599153, 0.18514999828767031, 0.2319999985047616, 0.19749999773921445, 0.20844999380642548, 0.19799999427050352, 0.18194999574916437, 0.22890000400366262, 0.19025000074179843, 0.19054999575018883, 0.23025000700727105, 0.20120000408496708, 0.2362000013818033, 0.34935001167468727, 0.16959999993559904, 0.3385499876458198, 0.2249000026495196, 0.19040000188397244, 0.240400004258845, 0.19729999621631578, 0.19409999367780983, 0.19080000492976978, 0.20450000010896474, 0.1910499995574355, 0.18925000040326267, 0.22974999592406675, 0.19720000273082405, 0.2078500037896447, 0.19549999706214294, 0.23694999981671572, 0.28369999199640006, 0.21965000632917508, 0.232149992370978, 0.21935000404482707, 0.19345000328030437, 0.21999999444233254, 0.19315000099595636, 0.19389999943086877, 0.16930000128922984, 0.24079999275272712, 0.2283000067109242, 0.19255000370321795, 0.2014499987126328, 0.24909999774536118, 0.1990000018849969, 0.18619999900693074, 0.2680999969015829, 0.23680000595049933, 0.2246999938506633, 0.19549999706214294, 0.22450000687967986, 0.25585000548744574, 0.19220000103814527, 0.21939998987363651, 0.2457999944454059, 0.2192999963881448, 0.19204999989597127, 0.2155499969376251, 0.20444999972824007, 0.2201000097556971, 0.18414999794913456, 0.24049999774433672, 0.189049998880364, 0.2025499998126179, 0.22584999533137307, 0.19180000526830554, 0.22509999689646065, 0.185349999810569, 0.20805000531254336, 0.2135500035365112, 0.21009999909438193, 0.18850000196835026, 0.21469999774126336, 0.20339999900897965, 0.1834499998949468, 0.2546499963500537, 0.1894999950309284, 0.24765000125626102, 0.19469999824650586, 0.18775000353343785, 0.22049999824957922, 0.1857999959611334, 0.2305999951204285, 0.18850000196835026, 0.21460000425577164, 0.22530000569531694, 0.24139999732142314, 0.19204999989597127, 0.20305000361986458, 0.2384000035817735, 0.19725000311154872, 0.185349999810569, 0.18869999621529132, 0.24374999338760972, 0.1914000022225082, 0.18950000230688602, 0.22354999964591116, 0.1981999957934022, 0.22585000260733068, 0.18605000514071435, 0.21735000336775556, 0.2015999998548068, 0.2316999962204136, 0.1910499995574355, 0.23549999605165794, 0.2201999959652312, 0.1947999990079552, 0.23609999334439635, 0.20375000167405233, 0.22534999152412638, 0.18635000014910474, 0.19389999943086877, 0.1903000011225231, 0.22724999871570617, 0.23345000226981938, 0.1918499983730726, 0.2204999909736216, 0.1919999995152466, 0.24470000789733604],
  "Optimal Expectation Value": -7.393599987030029,
  "Optimizer durations [ms]": [7.257, 5.324, 5.98, 5.348, 5.827, 6.395, 5.166, 5.605, 5.241, 6.048, 5.168, 5.659, 5.271, 5.593, 5.387, 5.188, 5.768, 5.303, 5.852, 5.189, 5.807, 5.834, 5.458, 5.413, 5.475, 5.44, 5.297, 5.941, 5.94, 5.796, 5.451, 14.295, 5.346, 6.502, 5.518, 5.176, 5.935, 5.574, 5.883, 5.198, 6.084, 6.087, 5.091, 8.512, 13.825, 20.994, 12.969, 14.471, 21.055, 9.937, 5.703, 5.729, 6.012, 5.927, 5.616, 5.467, 5.355, 6.009, 11.163, 5.371, 5.208, 5.837, 5.4, 6.025, 8.154, 16.231, 8.124, 5.767, 5.23, 6.019, 5.375, 6.051, 5.205, 5.477, 5.171, 6.323, 5.792, 5.425, 5.467, 5.366, 5.937, 6.995, 10.327, 13.948, 5.557, 5.356, 5.663, 13.493, 10.539, 6.693, 14.339, 5.733, 10.634, 5.45, 6.013, 5.406, 5.564, 10.953, 5.921, 10.238, 13.014, 5.541, 6.52, 5.699, 10.342, 11.319, 5.418, 5.257, 5.581, 5.739, 5.755, 5.041, 5.902, 5.194, 5.49, 6.518, 5.31, 5.628, 5.065, 5.499, 5.52, 6.497, 5.295, 6.224, 5.388, 5.126, 6.277, 5.131, 6.511, 5.318, 5.403, 5.395, 5.115, 5.749, 5.259, 5.603, 5.552, 6.156, 5.385, 6.142, 6.145, 5.755, 6.148, 5.138, 6.085, 5.34, 5.156, 5.713, 5.359, 5.561, 5.092, 5.46, 5.495, 5.664, 5.215, 5.764, 5.615, 5.31, 5.71, 5.476, 5.822, 5.075, 5.442, 5.405, 5.77, 5.819, 5.617, 5.482, 5.19, 5.971],
  "Optimizer iterations": 170,
  "Optimizer params": [0.9985780545470048, 0.5007436895441636, 0.9992879433001749, 0.5065928939624943, 0.5033148717875471, 0.998883047862835, 0.5038289283984012, 0.4989485735134726, 0.9989265770479671, 0.5024253492392953, 0.9984118741662809, 0.9992163588491223],
  "P": 0,
  "Problem": "RH",
  "QPU": "7000000",
  "Qubits": 12,
  "Shots": 4096,
  "Size": 12,
  "Total Algorithm duration [s]": 1.117,
  "Total Classic duration [s]": 1.0800515501085028,
  "Total Quantum duration [s]": 0.03694844989149715
}
