{
  "Depth": 2.0,
  "Expectation Value": -7.3933424949646,
  "Job durations [ms]": [0.19729999621631578, 0.23714999406365678, 0.19744999735848978, 0.23459999647457153, 0.25129999266937375, 0.21824999566888437, 0.24034999660216272, 0.24405000294791535, 0.2163499957532622, 0.2180499941459857, 0.15845000234548934, 0.2580500004114583, 0.18529999942984432, 0.24200000189011917, 0.24264999956358224, 0.23600000713486224, 0.21705000108340755, 0.2003499976126477, 0.2554500024416484, 0.2295500089530833, 0.219000008655712, 0.2162000018870458, 0.34920001053251326, 0.27350000164005905, 0.18784999701892957, 0.22784999600844458, 0.1873500004876405, 0.19150000298395753, 0.17235000268556178, 0.19069999689236283, 0.24604999634902924, 0.23274999693967402, 0.2099999983329326, 0.24755000049481168, 0.18589999672258273, 0.22164999973028898, 0.19154999608872458, 0.19389999943086877, 0.2721499986364506, 0.1988500080187805, 0.2147999985027127, 0.19535000319592655, 0.2418000003672205, 0.1847000021371059, 0.19394999981159344, 0.21800000831717625, 0.18789999739965424, 0.375300005543977, 0.21980000019539148, 0.20429999858606607, 0.19780000002356246, 0.2535500025260262, 0.18804999854182824, 0.20199999562464654, 0.22194999473867938, 0.185800003237091, 0.2271999983349815, 0.18459999409969896, 0.22494999575428665, 0.18689999706111848, 0.21174999710638076, 0.19740000425372273, 0.18925000040326267, 0.22680000256514177, 0.2180500014219433, 0.20724999194499105, 0.1950999940163456, 0.228599994443357, 0.21230000857030973, 0.18940000154543668, 0.21330000163288787, 0.1893499938887544, 0.23489999875891954, 0.23015000624582171, 0.22290000197244808, 0.1893499938887544, 0.18840000120690092, 0.22005000209901482, 0.19320000137668103, 0.24255000607809052, 0.1848499960033223, 0.22790000366512686, 0.22774999524699524, 0.22765000176150352, 0.2124499951605685, 0.18825000006472692, 0.218850007513538, 0.18714999896474183, 0.23380000493489206, 0.19174999761162326, 0.23515000066254288, 0.18540000019129366, 0.19550000433810055, 0.18885000463342294, 0.1914000022225082, 0.22244999854592606, 0.185800003237091, 0.2510999984224327, 0.18664999515749514, 0.2229999954579398, 0.2542000074754469, 0.17905000277096406, 0.35820001357933506, 0.3452000019024126, 0.14910000027157366, 0.36705000093206763, 0.35254999238532037, 0.3769499890040606, 0.3642999872681685, 0.21714999456889927, 0.2917499950854108, 0.18685000395635143, 0.22200000239536166, 0.19099999917671084, 0.19240000256104395, 0.19955000607296824, 0.1880999989225529, 0.2386999985901639, 0.1829999964684248, 0.27895000675925985, 0.22005000209901482, 0.1884500015876256, 0.24534999101888388, 0.19415000133449212, 0.18635000014910474, 0.1862499993876554, 0.21705000835936517, 0.21610000112559646, 0.18325000564800575, 0.18959999579237774, 0.20590000349329785, 0.22945000819163397, 0.19529999553924426, 0.23195000539999455, 0.2849000011337921, 0.15934999828459695, 0.30044999584788457, 0.2294000005349517, 0.19284999871160835, 0.21434999507619068, 0.2183499964303337, 0.1870499982032925, 0.2567000046838075, 0.3605499950936064, 0.34410000807838514, 0.334399999701418, 0.2015999998548068, 0.17940000543603674, 0.1949500001501292, 0.2384999897913076, 0.21940000442555174, 0.18570000247564167, 0.2005499991355464, 0.1923000017995946, 0.2424000049359165, 0.19550000433810055, 0.18695000471780077, 0.1940000001923181, 0.2395999981672503, 0.21180000476306304, 0.18950000230688602, 0.24029999622143805, 0.1894999950309284, 0.21335000201361254, 0.18514999828767031, 0.23595000675413758, 0.21914999524597079, 0.19035000150324777, 0.21549999655690044, 0.19614999473560601],
  "Optimal Expectation Value": -7.393599987030029,
  "Optimizer durations [ms]": [20.259, 6.333, 6.076, 5.852, 6.208, 6.104, 5.765, 6.254, 5.689, 5.688, 17.789, 6.406, 5.283, 5.871, 6.02, 5.772, 6.781, 5.484, 6.432, 5.927, 5.752, 13.686, 14.064, 6.824, 6.003, 6.123, 5.225, 5.478, 7.795, 5.387, 6.22, 5.955, 5.66, 6.34, 5.452, 5.892, 5.254, 6.446, 6.767, 5.507, 5.674, 5.257, 6.0, 5.379, 5.196, 5.523, 5.151, 8.826, 12.028, 5.847, 5.413, 6.361, 5.347, 5.396, 5.697, 5.091, 5.831, 5.062, 5.74, 5.221, 5.741, 5.469, 6.37, 5.856, 5.783, 5.406, 5.326, 5.826, 6.179, 5.856, 5.491, 5.473, 5.768, 5.966, 5.828, 5.285, 5.391, 5.583, 5.229, 6.165, 5.042, 6.118, 5.887, 5.695, 5.629, 5.289, 5.713, 5.325, 5.95, 5.375, 5.878, 5.173, 5.272, 5.21, 5.777, 5.668, 5.183, 6.413, 5.22, 5.82, 6.305, 14.198, 8.176, 10.984, 16.134, 9.018, 8.261, 11.45, 10.548, 7.491, 7.4, 5.233, 5.617, 5.44, 5.492, 5.381, 5.194, 6.004, 5.683, 7.552, 5.788, 5.184, 6.109, 5.292, 5.863, 5.132, 5.63, 5.796, 14.039, 5.141, 5.998, 5.938, 5.298, 5.826, 7.014, 19.041, 7.857, 5.673, 5.344, 6.363, 5.394, 7.696, 18.024, 9.355, 15.383, 14.818, 20.064, 18.859, 5.299, 6.096, 5.564, 5.486, 5.437, 5.266, 6.18, 5.224, 5.865, 5.327, 6.206, 6.337, 5.288, 6.079, 5.214, 5.419, 5.148, 5.893, 5.598, 5.175, 5.358, 5.371],
  "Optimizer iterations": 170,
  "Optimizer params": [0.9985780545470048, 0.5007436895441636, 0.9992879433001749, 0.5065928939624943, 0.5033148717875471, 0.998883047862835, 0.5038289283984012, 0.4989485735134726, 0.9989265770479671, 0.5024253492392953, 0.9984118741662809, 0.9992163588491223],
  "P": 0,
  "Problem": "RH",
  "QPU": "7000000",
  "Qubits": 12,
  "Shots": 4096,
  "Size": 12,
  "Total Algorithm duration [s]": 1.159,
  "Total Classic duration [s]": 1.121364749986591,
  "Total Quantum duration [s]": 0.03763525001340895
}
