{
  "Depth": 2.0,
  "Expectation Value": -7.3933424949646,
  "Job durations [ms]": [0.19180000526830554, 0.23145000159274787, 0.23915000929264352, 0.21985000057611614, 0.19500000053085387, 0.23189999774331227, 0.21579999884124845, 0.20080000103916973, 0.21980000019539148, 0.19359999714652076, 0.1566499995533377, 0.22540000645676628, 0.19175000488758087, 0.22430000535678118, 0.2257999949506484, 0.20804999803658575, 0.192299994523637, 0.225650001084432, 0.27319999935571104, 0.30220000189729035, 0.22975000320002437, 0.30764999974053353, 0.34640000376384705, 0.23004999093245715, 0.3359000038472004, 0.3369999976712279, 0.3625000099418685, 0.34225000126753, 0.23675000556977466, 0.19239999528508633, 0.20024999685119838, 0.2215000058640726, 0.18979999731527641, 0.22039999748812988, 0.20024999685119838, 0.2106000029016286, 0.2614499899209477, 0.25684999127406627, 0.19995000184280798, 0.14849999934085645, 0.1908999984152615, 0.3288000079919584, 0.20134999795118347, 0.22529999841935933, 0.19109999993816018, 0.23790000705048442, 0.18914999964181334, 0.19589999283198267, 0.21114999253768474, 0.23765000514686108, 0.18450000061420724, 0.2646000066306442, 0.22524999803863466, 0.1949500001501292, 0.2295500089530833, 0.19189999875379726, 0.2714500005822629, 0.20870000298600644, 0.19224999414291233, 0.24355000641662627, 0.18884999735746533, 0.22629999875789508, 0.19869999960064888, 0.21040000137872994, 0.1847000021371059, 0.1979000007850118, 0.23285000497708097, 0.20235000556567684, 0.19615000201156363, 0.18549999367678538, 0.1919999995152466, 0.20194999524392188, 0.20074999338248745, 0.22494999575428665, 0.20274999405955896, 0.2284500005771406, 0.25485000514891, 0.2325000023120083, 0.27754999609896913, 0.2006499926210381, 0.25630000163801014, 0.22325000463752076, 0.24774999474175274, 0.24809999740682542, 0.24375000066356733, 0.3125000002910383, 0.21665000531356782, 0.2657000077306293, 0.2500000045984052, 0.3377499961061403, 0.34505000803619623, 0.2851000026566908, 0.28434999694582075, 0.29725000786129385, 0.23610000062035397, 0.22120000357972458, 0.27165000210516155, 0.24354999914066866, 0.27024999872082844, 0.2256499938084744, 0.21795000066049397, 0.25785000616451725, 0.23740000324323773, 0.26065000565722585, 0.22710000484948978, 0.20869999571004882, 0.24694999592611566, 0.20930000027874485, 0.22935000015422702, 0.19954999879701063, 0.2315500023541972, 0.2481500050635077, 0.19410000095376745, 0.22020000324118882, 0.20160000713076442, 0.22074999287724495, 0.26715000421972945, 0.2066000015474856, 0.24164999922504649, 0.2340499995625578, 0.21505000768229365, 0.2027000009547919, 0.14900000678608194, 0.22329999774228781, 0.27969999791821465, 0.20310000400058925, 0.2095500021823682, 0.3872499873978086, 0.22684999566990882, 0.20590000349329785, 0.27304999821353704, 0.24605000362498686, 0.2008500014198944, 0.18979999731527641, 0.19845000497298315, 0.3741999898920767, 0.2214499982073903, 0.22905000514583662, 0.20694999693660066, 0.19084999803453684, 0.20979999681003392, 0.1984999980777502, 0.2706499944906682, 0.19980000070063397, 0.24780000967439264, 0.2336999968974851, 0.1936999979079701, 0.2429000087431632, 0.2050500042969361, 0.2358999990974553, 0.19669999892357737, 0.1929499994730577, 0.23359999613603577, 0.2710999979171902, 0.2716000017244369, 0.3689499862957746, 0.36639999598264694, 0.22870000248076394, 0.2816499982145615, 0.29394999000942335, 0.35734998527914286, 0.3531499896780588, 0.2573999954620376, 0.37284998688846827, 0.32980000105453655, 0.3460500010987744, 0.3616999965743162, 0.33835000795079395, 0.35665001632878557, 0.32300000748364255],
  "Optimal Expectation Value": -7.393599987030029,
  "Optimizer durations [ms]": [7.058, 5.618, 6.289, 5.514, 5.471, 5.735, 5.494, 5.646, 8.187, 5.261, 5.987, 5.67, 5.352, 5.646, 5.686, 5.948, 5.263, 5.615, 6.944, 17.905, 9.193, 8.404, 8.071, 11.438, 18.661, 13.409, 9.581, 10.178, 6.054, 5.248, 5.542, 5.74, 5.232, 5.474, 5.498, 5.71, 15.208, 16.046, 14.113, 14.512, 15.347, 18.431, 19.291, 7.803, 12.991, 5.824, 5.08, 5.648, 5.606, 6.098, 5.3, 6.608, 5.622, 5.496, 5.778, 5.28, 6.617, 5.476, 5.209, 6.19, 5.301, 5.967, 5.23, 5.673, 5.163, 5.743, 5.977, 5.474, 5.372, 5.188, 6.371, 5.494, 6.109, 5.589, 5.508, 5.829, 6.473, 6.394, 6.85, 6.828, 6.298, 5.943, 7.1, 6.444, 6.602, 13.082, 7.055, 9.183, 7.05, 8.029, 8.698, 7.885, 7.621, 8.298, 8.069, 7.327, 6.834, 6.516, 7.479, 6.393, 5.475, 6.313, 6.126, 6.516, 5.592, 5.691, 6.233, 5.519, 6.089, 5.405, 6.821, 6.448, 5.35, 5.524, 5.424, 6.752, 6.815, 5.545, 6.109, 10.397, 15.902, 5.388, 8.674, 5.707, 6.761, 6.087, 5.542, 8.628, 10.853, 8.256, 6.625, 10.746, 5.456, 10.187, 6.162, 8.385, 5.635, 5.99, 8.296, 5.425, 10.179, 5.484, 7.693, 5.903, 6.367, 6.007, 5.34, 6.133, 5.465, 6.058, 6.743, 5.417, 5.774, 6.68, 16.647, 8.899, 8.318, 8.579, 9.361, 7.773, 8.868, 9.697, 7.603, 13.356, 8.079, 8.226, 8.562, 8.28, 9.685, 17.413],
  "Optimizer iterations": 170,
  "Optimizer params": [0.9985780545470048, 0.5007436895441636, 0.9992879433001749, 0.5065928939624943, 0.5033148717875471, 0.998883047862835, 0.5038289283984012, 0.4989485735134726, 0.9989265770479671, 0.5024253492392953, 0.9984118741662809, 0.9992163588491223],
  "P": 0,
  "Problem": "RH",
  "QPU": "7000000",
  "Qubits": 12,
  "Shots": 4096,
  "Size": 12,
  "Total Algorithm duration [s]": 1.279,
  "Total Classic duration [s]": 1.238134049979184,
  "Total Quantum duration [s]": 0.040865950020815944
}
