{
  "Depth": 2.0,
  "Expectation Value": -7.3933424949646,
  "Job durations [ms]": [0.1991500030271709, 0.20375000167405233, 0.2244500064989552, 0.2058000027318485, 0.22295000235317275, 0.20629999926313758, 0.1913499945658259, 0.23529999452875927, 0.18680000357562676, 0.2593000026536174, 0.1960500012501143, 0.2412999965599738, 0.18975000421050936, 0.20460000087041408, 0.21890000061830506, 0.1883999939309433, 0.23385000531561673, 0.2011499964282848, 0.1946499978657812, 0.18295000336365774, 0.2657999939401634, 0.27255000168224797, 0.218850007513538, 0.22344999888446182, 0.1850500048021786, 0.23239999427460134, 0.21485000615939498, 0.1979000007850118, 0.20714999845949933, 0.1876499954960309, 0.2718499963521026, 0.14119999832473695, 0.28824999753851444, 0.22235000506043434, 0.23964999854797497, 0.200250004127156, 0.2042499982053414, 0.18894999811891466, 0.23784999939380214, 0.22170000011101365, 0.1936999979079701, 0.16984999820124358, 0.1994499980355613, 0.23874999169493094, 0.18825000006472692, 0.1894999950309284, 0.2211499959230423, 0.19260000408394262, 0.23564999719383195, 0.19754999811993912, 0.22375000116880983, 0.1938499990501441, 0.22029999672668055, 0.18714999896474183, 0.1839500037021935, 0.21965000632917508, 0.18445000023348257, 0.2056499943137169, 0.1886000027297996, 0.24049999774433672, 0.2025499998126179, 0.2390000008745119, 0.2426999999443069, 0.1940000001923181, 0.1834499998949468, 0.2318499973625876, 0.2633499971125275, 0.21249999554129317, 0.19235000218031928, 0.2690999972401187, 0.1886000027297996, 0.23629999486729503, 0.1886000027297996, 0.18775000353343785, 0.23565000446978956, 0.1969500008272007, 0.25145000108750537, 0.19145000260323286, 0.20015000336570665, 0.23180000425782055, 0.19764999888138846, 0.2470500039635226, 0.2241000038338825, 0.22945000819163397, 0.189049998880364, 0.1940000001923181, 0.2495500011718832, 0.19039999460801482, 0.1865499943960458, 0.21905000176047906, 0.1847000021371059, 0.2235999927506782, 0.1915500033646822, 0.22539999190485105, 0.19149999570799991, 0.19370000518392771, 0.33724999229889363, 0.19754999811993912, 0.17249999655177817, 0.2008500014198944, 0.2553999947849661, 0.21040000137872994, 0.1879499977803789, 0.2247500015073456, 0.19420000171521679, 0.18979999731527641, 0.23610000789631158, 0.19054999575018883, 0.18554999405751005, 0.21160000324016437, 0.19455000438028947, 0.22935000015422702, 0.19700000120792538, 0.18360000103712082, 0.22354999964591116, 0.1896499961731024, 0.21674999879905954, 0.20664999465225264, 0.185650002094917, 0.22840000019641593, 0.1897000038297847, 0.2278500105603598, 0.18925000040326267, 0.22679999528918415, 0.20010000298498198, 0.2377499986323528, 0.19734999659704044, 0.18930000078398734, 0.21859999833395705, 0.1932500017574057, 0.22420000459533185, 0.192749997950159, 0.22614999761572108, 0.1854499932960607, 0.22584999533137307, 0.20324999786680564, 0.2234999992651865, 0.18835000082617626, 0.26249999791616574, 0.37149999843677506, 0.35340000613359734, 0.36005000583827496, 0.4028999974252656, 0.2149499996448867, 0.36594999983208254, 0.23669999791309237, 0.31630000012228265, 0.258250001934357, 0.29525000718422234, 0.21069999638712034, 0.24835000658640638, 0.2639500016812235, 0.19714999507414177, 0.23409999994328246, 0.21895000827498734, 0.20009999570902437, 0.24410000332864001, 0.19159999646944925, 0.23820000933483243, 0.369849985872861, 0.20040000526933, 0.18599999748403206, 0.2257000087411143, 0.19675000658025965, 0.28310000197961926, 0.19685000006575137, 0.19564999820431694, 0.25245000870199874, 0.3118499953416176, 0.2201000024797395],
  "Optimal Expectation Value": -7.393599987030029,
  "Optimizer durations [ms]": [5.915, 6.662, 6.195, 5.472, 5.813, 5.329, 6.136, 5.817, 14.529, 6.375, 5.595, 5.956, 5.214, 5.616, 5.802, 5.208, 5.992, 5.292, 5.363, 5.162, 6.564, 6.803, 5.965, 5.665, 5.244, 6.032, 5.674, 6.439, 5.475, 5.22, 6.918, 18.688, 8.679, 5.801, 6.086, 5.473, 5.583, 5.224, 6.037, 5.628, 5.288, 6.657, 5.531, 6.137, 5.233, 6.12, 5.58, 5.183, 5.909, 5.507, 5.703, 5.241, 5.679, 5.284, 5.393, 5.63, 5.129, 5.498, 5.267, 6.024, 5.41, 6.138, 7.414, 5.601, 5.901, 5.836, 6.61, 5.457, 5.232, 6.585, 5.215, 5.989, 5.223, 5.755, 5.745, 5.485, 6.432, 5.24, 5.471, 5.907, 6.664, 6.14, 9.61, 5.596, 5.788, 5.273, 6.193, 5.405, 5.043, 5.56, 5.007, 5.633, 5.137, 5.709, 5.24, 5.767, 7.851, 6.63, 23.284, 15.109, 16.543, 9.656, 15.648, 16.079, 5.222, 6.206, 6.653, 5.241, 8.082, 17.44, 5.29, 5.732, 5.417, 5.832, 5.479, 5.094, 6.298, 5.484, 6.387, 5.853, 5.755, 5.785, 5.224, 5.92, 5.449, 6.085, 5.391, 5.657, 5.414, 5.312, 5.737, 5.404, 5.832, 5.146, 5.874, 5.502, 5.626, 5.345, 6.771, 12.185, 9.314, 9.753, 13.087, 11.123, 8.412, 14.948, 10.3, 6.423, 10.558, 5.612, 7.153, 6.468, 5.756, 5.924, 6.232, 5.335, 6.047, 5.379, 5.785, 8.727, 8.592, 6.057, 5.765, 5.368, 6.798, 5.44, 7.335, 6.12, 7.734, 5.428],
  "Optimizer iterations": 170,
  "Optimizer params": [0.9985780545470048, 0.5007436895441636, 0.9992879433001749, 0.5065928939624943, 0.5033148717875471, 0.998883047862835, 0.5038289283984012, 0.4989485735134726, 0.9989265770479671, 0.5024253492392953, 0.9984118741662809, 0.9992163588491223],
  "P": 0,
  "Problem": "RH",
  "QPU": "7000000",
  "Qubits": 12,
  "Shots": 4096,
  "Size": 12,
  "Total Algorithm duration [s]": 1.142,
  "Total Classic duration [s]": 1.1045274499921942,
  "Total Quantum duration [s]": 0.037472550007805694
}
