{
  "Depth": 2.0,
  "Expectation Value": -7.3933424949646,
  "Job durations [ms]": [0.23945000430103391, 0.2527999968151562, 0.19999999494757503, 0.24044999008765444, 0.18879999697674066, 0.18889999773819, 0.23060000239638612, 0.19004999921889976, 0.24819999816827476, 0.19449999672360718, 0.19350000366102904, 0.19530000281520188, 0.24575000134063885, 0.19734999659704044, 0.1804000057745725, 0.3481500025372952, 0.35534998460207134, 0.3729499949258752, 0.36655000440077856, 0.3571499983081594, 0.18385000294074416, 0.30935000540921465, 0.2388499997323379, 0.24959999427665025, 0.20080000103916973, 0.24265000683953986, 0.19544999668141827, 0.22154999896883965, 0.1873500004876405, 0.18744999397313222, 0.2352499941480346, 0.185800003237091, 0.24074999237200245, 0.1934000028995797, 0.1969500008272007, 0.18590000399854034, 0.23750000400468707, 0.19484999938867986, 0.18509999790694565, 0.23329999385168776, 0.19780000002356246, 0.2342000079806894, 0.19289999909233302, 0.22024999634595588, 0.1960500012501143, 0.22679999528918415, 0.19279999833088368, 0.24200000189011917, 0.24755000049481168, 0.18795000505633652, 0.23610000062035397, 0.20080000103916973, 0.2459499955875799, 0.1871999993454665, 0.21874999947613105, 0.23499999952036887, 0.1887500038719736, 0.22295000235317275, 0.1940000001923181, 0.22340000577969477, 0.18509999790694565, 0.22855000133858994, 0.22429999808082357, 0.189049998880364, 0.2096499956678599, 0.3590499982237816, 0.28559999191202223, 0.1586500002304092, 0.23540000256616622, 0.189350001164712, 0.24205000227084383, 0.19025000074179843, 0.20339999900897965, 0.20084999414393678, 0.18730000010691583, 0.18994999845745042, 0.22360000002663583, 0.18819999968400225, 0.23549999605165794, 0.1867500031949021, 0.18755000201053917, 0.2028500020969659, 0.23254999541677535, 0.19420000171521679, 0.2232999904663302, 0.22185000125318766, 0.18855000234907493, 0.22799999715061858, 0.18814999930327758, 0.2329499984625727, 0.21735000336775556, 0.2078500037896447, 0.18889999773819, 0.189049998880364, 0.22149999858811498, 0.1956999985850416, 0.22450000687967986, 0.1953999963006936, 0.19500000053085387, 0.18804999854182824, 0.2517500033718534, 0.19144999532727525, 0.18819999968400225, 0.29709999944316223, 0.3709500015247613, 0.25859999732347205, 0.28175000625196844, 0.24659999326104298, 0.19749999773921445, 0.17604999447939917, 0.1883000004454516, 0.18600000475998968, 0.19545000395737588, 0.21964999177725986, 0.18784999701892957, 0.22139999782666564, 0.192599996807985, 0.2147999985027127, 0.21960000594845042, 0.1884500015876256, 0.20185000175843015, 0.1845499937189743, 0.2331000068807043, 0.18590000399854034, 0.2017499937210232, 0.22170000011101365, 0.2390000008745119, 0.1867500031949021, 0.237000007473398, 0.1966499985428527, 0.2174500041292049, 0.18589999672258273, 0.24330000451300293, 0.21995000133756548, 0.1904500022646971, 0.22944999363971874, 0.18740000086836517, 0.22850000823382288, 0.18604999786475673, 0.24700000358279794, 0.1862499993876554, 0.20190000213915482, 0.2247500015073456, 0.1931000006152317, 0.23440000222763047, 0.18519999866839498, 0.21364999702200294, 0.18449999333824962, 0.2227000004495494, 0.18385000294074416, 0.2239500026917085, 0.19434999558143318, 0.185500000952743, 0.22184999397723004, 0.1899999988381751, 0.2204000047640875, 0.1921500006574206, 0.19780000002356246, 0.19370000518392771, 0.24245000531664118, 0.19255000370321795, 0.23215000692289323, 0.2155499969376251, 0.1859499971033074, 0.28360000578686595, 0.22539999918080866, 0.3631000145105645, 0.3796500095631927, 0.13844999921275303, 0.19874999998137355],
  "Optimal Expectation Value": -7.393599987030029,
  "Optimizer durations [ms]": [6.395, 6.399, 5.599, 6.136, 5.174, 5.64, 5.797, 5.172, 6.135, 5.261, 5.361, 5.253, 6.128, 5.392, 8.528, 9.937, 9.407, 8.829, 12.087, 10.772, 8.45, 10.695, 13.574, 8.561, 6.645, 5.975, 5.183, 5.735, 5.288, 5.877, 6.209, 5.17, 5.989, 5.212, 5.515, 5.198, 6.013, 5.229, 5.348, 5.675, 5.458, 5.694, 5.301, 5.725, 5.423, 5.965, 5.254, 6.908, 15.356, 5.096, 6.036, 5.538, 6.158, 5.303, 5.491, 5.951, 5.335, 5.679, 5.4, 5.817, 5.185, 5.922, 5.852, 5.244, 5.475, 8.411, 21.798, 4.583, 5.789, 5.047, 6.245, 5.176, 5.582, 5.365, 6.361, 19.232, 5.709, 5.646, 5.764, 5.221, 5.184, 5.366, 6.061, 5.347, 5.783, 5.902, 5.045, 5.882, 5.211, 6.026, 5.599, 5.48, 5.344, 6.005, 5.74, 5.336, 5.499, 5.404, 5.897, 5.234, 6.172, 5.576, 5.621, 7.045, 22.818, 16.726, 20.421, 20.198, 6.952, 19.122, 5.501, 5.48, 5.601, 5.549, 5.213, 5.69, 5.264, 6.16, 5.896, 6.212, 5.375, 5.163, 5.735, 5.159, 5.34, 12.959, 5.999, 5.096, 5.828, 5.444, 5.693, 5.029, 5.928, 5.696, 5.287, 5.706, 5.128, 5.727, 5.208, 6.188, 5.161, 5.34, 5.669, 6.344, 6.031, 4.972, 5.539, 5.23, 5.934, 5.127, 5.912, 5.404, 5.139, 6.052, 5.319, 5.593, 5.083, 5.768, 5.219, 6.112, 5.835, 6.001, 5.619, 5.014, 6.78, 12.443, 9.967, 8.507, 23.595, 18.67],
  "Optimizer iterations": 170,
  "Optimizer params": [0.9985780545470048, 0.5007436895441636, 0.9992879433001749, 0.5065928939624943, 0.5033148717875471, 0.998883047862835, 0.5038289283984012, 0.4989485735134726, 0.9989265770479671, 0.5024253492392953, 0.9984118741662809, 0.9992163588491223],
  "P": 0,
  "Problem": "RH",
  "QPU": "7000000",
  "Qubits": 12,
  "Shots": 4096,
  "Size": 12,
  "Total Algorithm duration [s]": 1.167,
  "Total Classic duration [s]": 1.1297757499984,
  "Total Quantum duration [s]": 0.03722425000160001
}
