{
  "Circuit execution durations [ms]": [0.7588, 0.7509, 0.6832, 0.6839, 0.6930999999999999, 0.7496, 0.6880999999999999, 0.6996, 0.7025, 0.6845, 0.7494999999999999, 0.6911, 0.6944, 0.6924, 0.7020000000000001, 0.7031999999999999, 0.7489, 0.7141, 0.6952, 0.6879, 0.6804, 0.7631, 0.7009, 0.6887, 0.6943, 0.6976, 0.6952, 0.6958, 0.7004999999999999, 0.6956, 0.6972, 0.7517, 0.684, 0.7022, 0.6896, 0.6932, 0.6922, 0.7594000000000001, 0.6886, 0.8109000000000001, 0.6959, 0.7004999999999999, 0.7038, 0.6985, 0.7011, 0.6864, 0.6966, 0.7678999999999999, 0.684, 0.6986, 0.7018000000000001, 0.6898, 0.6549, 0.9181, 0.7041999999999999, 0.7508, 0.7443000000000001, 0.7136, 0.7059, 0.7195, 0.6925, 0.7584, 0.6915, 0.7041000000000001, 0.6838000000000001, 0.722, 0.7087, 0.7099, 0.7081999999999999, 0.694, 0.7036, 0.7741, 0.7487, 0.6981, 0.6967, 0.6884, 0.6789, 0.7964, 0.7429, 0.7011, 0.7014, 0.7871],
  "Depth": 95.0,
  "Expectation Value": -5.925563335418701,
  "Optimal Expectation Value": -6.0,
  "Optimizer durations [ms]": [8.159, 8.131, 7.103, 7.587, 7.587, 8.094, 7.397, 7.453, 7.657, 7.229, 8.121, 7.222, 7.614, 7.46, 7.561, 7.49, 8.181, 8.398, 7.642, 7.295, 7.205, 8.141, 7.718, 7.52, 7.402, 7.677, 7.374, 7.438, 7.462, 7.593, 7.246, 8.169, 7.45, 7.632, 7.41, 7.337, 7.349, 8.431, 7.148, 9.007, 7.24, 7.519, 7.798, 7.287, 7.761, 7.152, 7.672, 8.055, 7.627, 7.399, 7.6, 7.559, 16.624, 15.777, 7.802, 7.994, 7.914, 7.547, 7.652, 7.922, 7.348, 8.127, 7.13, 7.642, 7.234, 7.672, 7.95, 7.436, 7.436, 7.741, 7.685, 7.927, 8.317, 7.416, 7.639, 7.405, 7.257, 8.541, 7.743, 7.581, 7.744, 8.287],
  "Optimizer iterations": 82,
  "Optimizer params": [0.7589049897067148, 0.6218264385783403, 0.9477230680711786, 0.4764054233278104, 0.2531988825269631, 0.8471094502580604],
  "P": 3,
  "Problem": "MCP",
  "QJob durations [ms]": [0.7588, 0.7509, 0.6832, 0.6839, 0.6930999999999999, 0.7496, 0.6880999999999999, 0.6996, 0.7025, 0.6845, 0.7494999999999999, 0.6911, 0.6944, 0.6924, 0.7020000000000001, 0.7031999999999999, 0.7489, 0.7141, 0.6952, 0.6879, 0.6804, 0.7631, 0.7009, 0.6887, 0.6943, 0.6976, 0.6952, 0.6958, 0.7004999999999999, 0.6956, 0.6972, 0.7517, 0.684, 0.7022, 0.6896, 0.6932, 0.6922, 0.7594000000000001, 0.6886, 0.8109000000000001, 0.6959, 0.7004999999999999, 0.7038, 0.6985, 0.7011, 0.6864, 0.6966, 0.7678999999999999, 0.684, 0.6986, 0.7018000000000001, 0.6898, 0.6549, 0.9181, 0.7041999999999999, 0.7508, 0.7443000000000001, 0.7136, 0.7059, 0.7195, 0.6925, 0.7584, 0.6915, 0.7041000000000001, 0.6838000000000001, 0.722, 0.7087, 0.7099, 0.7081999999999999, 0.694, 0.7036, 0.7741, 0.7487, 0.6981, 0.6967, 0.6884, 0.6789, 0.7964, 0.7429, 0.7011, 0.7014, 0.7871],
  "QPU": "7000000",
  "Qubits": 5,
  "Queue durations [ms]": [0.0, 0.0, 0.0, 0.0, 0.0, 0.0, 0.0, 0.0, 0.0, 0.0, 0.0, 0.0, 0.0, 0.0, 0.0, 0.0, 0.0, 0.0, 0.0, 0.0, 0.0, 0.0, 0.0, 0.0, 0.0, 0.0, 0.0, 0.0, 0.0, 0.0, 0.0, 0.0, 0.0, 0.0, 0.0, 0.0, 0.0, 0.0, 0.0, 0.0, 0.0, 0.0, 0.0, 0.0, 0.0, 0.0, 0.0, 0.0, 0.0, 0.0, 0.0, 0.0, 0.0, 0.0, 0.0, 0.0, 0.0, 0.0, 0.0, 0.0, 0.0, 0.0, 0.0, 0.0, 0.0, 0.0, 0.0, 0.0, 0.0, 0.0, 0.0, 0.0, 0.0, 0.0, 0.0, 0.0, 0.0, 0.0, 0.0, 0.0, 0.0, 0.0],
  "Shots": 4096,
  "Size": 5,
  "Total Algorithm duration [s]": 0.645,
  "Total Classic duration [s]": 0.5865193000000001,
  "Total Quantum duration [s]": 0.058480699999999976
}
