{
  "Circuit execution durations [ms]": [28.58591079711914, 28.33724021911621, 28.589725494384766, 27.885913848876953, 28.037309646606445, 95.39985656738281, 28.074264526367188, 28.21040153503418, 28.578996658325195, 27.78458595275879, 28.01060676574707, 28.428316116333008, 28.14006805419922, 28.275012969970703, 28.144121170043945, 27.847766876220703, 28.240203857421875, 28.501510620117188, 28.281450271606445, 28.204679489135742, 28.420209884643555, 28.094053268432617, 28.01370620727539, 28.093576431274414, 28.047561645507813, 28.245210647583008, 28.481245040893555, 28.126001358032227, 28.222084045410156, 28.345584869384766, 27.919769287109375, 28.298139572143555, 28.288602828979492, 28.137683868408203, 92.3924446105957, 28.468847274780273, 28.03778648376465, 28.323650360107422, 28.414487838745117, 28.15866470336914, 28.078317642211914, 28.689861297607422, 28.16939353942871, 28.337955474853516, 28.290748596191406, 27.97079086303711, 28.49268913269043, 28.36012840270996, 27.944564819335938, 28.670072555541992, 28.332233428955078, 28.39064598083496, 28.322219848632813, 28.196096420288086, 28.511524200439453, 27.929306030273438, 28.397798538208008, 28.143882751464844, 92.71574020385742, 28.664588928222656, 28.263568878173828, 28.316974639892578, 28.464555740356445, 28.349637985229492, 28.221845626831055, 28.336524963378906, 28.049230575561523, 28.392314910888672, 28.512239456176758, 28.017282485961914, 28.54156494140625, 28.38873863220215, 28.133392333984375, 28.472185134887695, 28.427600860595703, 28.066158294677734, 28.170347213745117, 28.69868278503418, 28.280258178710938, 28.130292892456055, 28.11598777770996],
  "Depth": 109.0,
  "Expectation Value": -1.847900390625,
  "Optimal Expectation Value": -1.0,
  "Optimizer durations [ms]": [34.775, 34.233, 34.422, 33.809, 34.068, 101.467, 34.247, 34.154, 34.552, 33.827, 34.012, 34.318, 34.072, 34.221, 34.137, 33.881, 34.205, 34.489, 34.196, 34.117, 34.411, 34.089, 33.998, 34.256, 34.947, 34.473, 34.556, 34.066, 34.191, 34.359, 33.832, 34.287, 34.392, 34.105, 98.52, 34.707, 34.033, 34.333, 34.394, 34.132, 34.083, 34.686, 34.169, 34.312, 34.309, 33.968, 34.434, 34.445, 34.074, 34.577, 34.326, 34.55, 34.42, 34.315, 34.48, 34.027, 34.48, 34.145, 98.89, 34.914, 34.22, 34.382, 34.525, 34.333, 34.221, 34.396, 34.004, 34.443, 34.591, 34.036, 34.535, 34.462, 34.168, 34.51, 34.404, 34.067, 34.186, 34.673, 98.995, 34.446, 34.24],
  "Optimizer iterations": 81,
  "Optimizer params": [0.08839066865232677, 0.03864429296130246, 0.7294680134760807, 0.6537677741896385, 0.8111867464359782, 0.6328617170746058],
  "P": 3,
  "Problem": "MIS",
  "QJob durations [ms]": [28.58591079711914, 28.33724021911621, 28.589725494384766, 27.885913848876953, 28.037309646606445, 95.39985656738281, 28.074264526367188, 28.21040153503418, 28.578996658325195, 27.78458595275879, 28.01060676574707, 28.428316116333008, 28.14006805419922, 28.275012969970703, 28.144121170043945, 27.847766876220703, 28.240203857421875, 28.501510620117188, 28.281450271606445, 28.204679489135742, 28.420209884643555, 28.094053268432617, 28.01370620727539, 28.093576431274414, 28.047561645507813, 28.245210647583008, 28.481245040893555, 28.126001358032227, 28.222084045410156, 28.345584869384766, 27.919769287109375, 28.298139572143555, 28.288602828979492, 28.137683868408203, 92.3924446105957, 28.468847274780273, 28.03778648376465, 28.323650360107422, 28.414487838745117, 28.15866470336914, 28.078317642211914, 28.689861297607422, 28.16939353942871, 28.337955474853516, 28.290748596191406, 27.97079086303711, 28.49268913269043, 28.36012840270996, 27.944564819335938, 28.670072555541992, 28.332233428955078, 28.39064598083496, 28.322219848632813, 28.196096420288086, 28.511524200439453, 27.929306030273438, 28.397798538208008, 28.143882751464844, 92.71574020385742, 28.664588928222656, 28.263568878173828, 28.316974639892578, 28.464555740356445, 28.349637985229492, 28.221845626831055, 28.336524963378906, 28.049230575561523, 28.392314910888672, 28.512239456176758, 28.017282485961914, 28.54156494140625, 28.38873863220215, 28.133392333984375, 28.472185134887695, 28.427600860595703, 28.066158294677734, 28.170347213745117, 28.69868278503418, 28.280258178710938, 28.130292892456055, 28.11598777770996],
  "QPU": "9000001",
  "Qubits": 5,
  "Queue durations [ms]": [0.0, 0.0, 0.0, 0.0, 0.0, 0.0, 0.0, 0.0, 0.0, 0.0, 0.0, 0.0, 0.0, 0.0, 0.0, 0.0, 0.0, 0.0, 0.0, 0.0, 0.0, 0.0, 0.0, 0.0, 0.0, 0.0, 0.0, 0.0, 0.0, 0.0, 0.0, 0.0, 0.0, 0.0, 0.0, 0.0, 0.0, 0.0, 0.0, 0.0, 0.0, 0.0, 0.0, 0.0, 0.0, 0.0, 0.0, 0.0, 0.0, 0.0, 0.0, 0.0, 0.0, 0.0, 0.0, 0.0, 0.0, 0.0, 0.0, 0.0, 0.0, 0.0, 0.0, 0.0, 0.0, 0.0, 0.0, 0.0, 0.0, 0.0, 0.0, 0.0, 0.0, 0.0, 0.0, 0.0, 0.0, 0.0, 0.0, 0.0, 0.0],
  "Shots": 4096,
  "Size": 4,
  "Total Algorithm duration [s]": 3.038,
  "Total Classic duration [s]": 0.5529548053741453,
  "Total Quantum duration [s]": 2.4850451946258545
}
