{
  "Circuit execution durations [ms]": [28.590679168701172, 28.258800506591797, 28.474092483520508, 28.298616409301758, 28.592348098754883, 28.400421142578125, 27.719736099243164, 28.227567672729492, 28.333187103271484, 27.88567543029785, 28.18608283996582, 28.09286117553711, 27.939319610595703, 28.183698654174805, 28.372526168823242, 28.01680564880371, 28.079509735107422, 28.38301658630371, 27.852773666381836, 28.175830841064453, 28.262853622436523, 27.941226959228516, 28.70464324951172, 28.34606170654297, 27.956247329711914, 28.23328971862793, 28.22589874267578, 27.997970581054688, 27.985811233520508, 28.332948684692383, 28.090953826904297, 28.303146362304688, 28.429746627807617, 28.128385543823242, 28.212308883666992, 28.461456298828125, 28.159379959106445, 28.174877166748047, 28.461694717407227, 28.232812881469727, 28.11717987060547, 92.99755096435547, 28.272628784179688, 28.037309646606445, 28.690338134765625, 27.95243263244629, 28.168916702270508, 28.301000595092773, 28.081893920898438, 28.080463409423828, 28.24568748474121, 27.962446212768555, 28.05638313293457, 28.41806411743164, 28.02586555480957, 28.307199478149414, 28.340578079223633, 28.234243392944336, 28.239011764526367, 28.214216232299805, 27.995824813842773, 28.064966201782227, 28.568506240844727, 28.00774574279785, 28.35702896118164, 28.506994247436523, 27.74500846862793, 28.304338455200195, 28.30648422241211, 27.858495712280273, 91.9182300567627, 28.506994247436523, 27.961015701293945, 28.25140953063965, 28.223276138305664, 28.167724609375, 28.302907943725586, 28.426408767700195, 27.94814109802246, 28.101444244384766, 28.351783752441406, 28.034210205078125, 28.123855590820313, 28.28383445739746, 27.82726287841797, 28.18608283996582, 28.3505916595459, 28.179645538330078, 28.192520141601563, 28.392791748046875],
  "Depth": 109.0,
  "Expectation Value": -1.62646484375,
  "Optimal Expectation Value": -1.0,
  "Optimizer durations [ms]": [34.655, 34.2, 34.322, 34.068, 101.478, 34.828, 33.995, 34.378, 34.344, 33.937, 34.163, 34.152, 33.965, 34.249, 34.318, 33.964, 34.035, 34.315, 33.921, 34.23, 34.341, 33.905, 34.657, 34.42, 33.921, 34.212, 34.248, 34.066, 34.062, 34.42, 34.099, 34.433, 34.367, 34.106, 34.228, 34.623, 34.178, 34.164, 34.544, 34.213, 34.064, 99.127, 34.556, 34.127, 34.642, 34.051, 34.187, 34.416, 34.091, 34.174, 34.297, 34.026, 34.1, 34.342, 34.017, 34.269, 34.285, 34.195, 34.2, 34.327, 34.001, 34.148, 34.509, 34.089, 34.403, 34.564, 33.868, 34.288, 34.344, 33.939, 98.033, 34.746, 34.014, 34.229, 34.28, 34.112, 34.218, 34.305, 34.026, 34.153, 34.297, 33.985, 34.124, 34.412, 33.871, 34.263, 34.413, 34.224, 34.692, 34.52],
  "Optimizer iterations": 90,
  "Optimizer params": [0.1570259072912223, 0.5770026939962716, 0.9992564076966431, 0.9492939184670681, 0.08610272231814187, 0.9922534403514218],
  "P": 3,
  "Problem": "MIS",
  "QJob durations [ms]": [28.590679168701172, 28.258800506591797, 28.474092483520508, 28.298616409301758, 28.592348098754883, 28.400421142578125, 27.719736099243164, 28.227567672729492, 28.333187103271484, 27.88567543029785, 28.18608283996582, 28.09286117553711, 27.939319610595703, 28.183698654174805, 28.372526168823242, 28.01680564880371, 28.079509735107422, 28.38301658630371, 27.852773666381836, 28.175830841064453, 28.262853622436523, 27.941226959228516, 28.70464324951172, 28.34606170654297, 27.956247329711914, 28.23328971862793, 28.22589874267578, 27.997970581054688, 27.985811233520508, 28.332948684692383, 28.090953826904297, 28.303146362304688, 28.429746627807617, 28.128385543823242, 28.212308883666992, 28.461456298828125, 28.159379959106445, 28.174877166748047, 28.461694717407227, 28.232812881469727, 28.11717987060547, 92.99755096435547, 28.272628784179688, 28.037309646606445, 28.690338134765625, 27.95243263244629, 28.168916702270508, 28.301000595092773, 28.081893920898438, 28.080463409423828, 28.24568748474121, 27.962446212768555, 28.05638313293457, 28.41806411743164, 28.02586555480957, 28.307199478149414, 28.340578079223633, 28.234243392944336, 28.239011764526367, 28.214216232299805, 27.995824813842773, 28.064966201782227, 28.568506240844727, 28.00774574279785, 28.35702896118164, 28.506994247436523, 27.74500846862793, 28.304338455200195, 28.30648422241211, 27.858495712280273, 91.9182300567627, 28.506994247436523, 27.961015701293945, 28.25140953063965, 28.223276138305664, 28.167724609375, 28.302907943725586, 28.426408767700195, 27.94814109802246, 28.101444244384766, 28.351783752441406, 28.034210205078125, 28.123855590820313, 28.28383445739746, 27.82726287841797, 28.18608283996582, 28.3505916595459, 28.179645538330078, 28.192520141601563, 28.392791748046875],
  "QPU": "9000001",
  "Qubits": 5,
  "Queue durations [ms]": [0.0, 0.0, 0.0, 0.0, 0.0, 0.0, 0.0, 0.0, 0.0, 0.0, 0.0, 0.0, 0.0, 0.0, 0.0, 0.0, 0.0, 0.0, 0.0, 0.0, 0.0, 0.0, 0.0, 0.0, 0.0, 0.0, 0.0, 0.0, 0.0, 0.0, 0.0, 0.0, 0.0, 0.0, 0.0, 0.0, 0.0, 0.0, 0.0, 0.0, 0.0, 0.0, 0.0, 0.0, 0.0, 0.0, 0.0, 0.0, 0.0, 0.0, 0.0, 0.0, 0.0, 0.0, 0.0, 0.0, 0.0, 0.0, 0.0, 0.0, 0.0, 0.0, 0.0, 0.0, 0.0, 0.0, 0.0, 0.0, 0.0, 0.0, 0.0, 0.0, 0.0, 0.0, 0.0, 0.0, 0.0, 0.0, 0.0, 0.0, 0.0, 0.0, 0.0, 0.0, 0.0, 0.0, 0.0, 0.0, 0.0, 0.0],
  "Shots": 4096,
  "Size": 4,
  "Total Algorithm duration [s]": 3.277,
  "Total Classic duration [s]": 0.6101058025360109,
  "Total Quantum duration [s]": 2.6668941974639893
}
