{
  "Depth": 14.5,
  "Expectation Value": -6.389086723327637,
  "Job durations [ms]": [0.27004998992197216, 0.26015000184997916, 0.29740000900346786, 0.47244998859241605, 0.2563500020187348, 0.4754000110551715, 0.2626999921631068, 0.26869999419432133, 0.29510000604204834, 0.26714999694377184, 0.2995500108227134, 0.26309999520890415, 0.25610000011511147, 0.2627499998197891, 0.26614998932927847, 0.26175000675721094, 0.2647500077728182, 0.26244999025948346, 0.26095000794157386, 0.2730999985942617, 0.2598999999463558, 0.4146999854128808, 0.3458499995758757, 0.2712499990593642, 0.2955999952973798, 0.2696499868761748, 0.2697000018088147, 0.26729999808594584, 0.30294999305624515, 0.38875000609550625, 0.26465000701136887, 0.2633499971125275, 0.4688499902840704, 0.2989000058732927, 0.42839998786803335, 0.2750999992713332, 0.453649990959093, 0.26744999922811985, 0.26929999876301736, 0.2741999924182892, 0.298700004350394, 0.28014999406877905, 0.259300009929575, 0.2702999918255955, 0.4863499925704673, 0.37290000182110816, 0.261799999861978, 0.2666999935172498, 0.28110000130254775, 0.2673499984666705, 0.2669500099727884, 0.27290000434732065, 0.3049500082852319, 0.2584999965620227, 0.25660000392235816, 0.3882000019075349, 0.44940000225324184, 0.3332999913254753, 0.26965000142809004, 0.3292500041425228, 0.265800001216121, 0.42050000047311187, 0.28900000324938446, 0.4667000030167401, 0.27010000485461205, 0.2709499967750162, 0.2742000069702044, 0.271699987933971, 0.39834999188315123, 0.2674999996088445, 0.2693000133149326, 0.3461500018602237, 0.46344999282155186, 0.25845000345725566, 0.4256999964127317, 0.3380000125616789, 0.2672499977052212, 0.2793500025290996, 0.3478500002529472, 0.27474999660626054, 0.41984998097177595, 0.2720000047702342, 0.4025999951409176, 0.29889999132137746, 0.26235000404994935, 0.2704500002437271, 0.25099999766098335, 0.4262000002199784, 0.43494999408721924, 0.4462500073714182, 0.27600000612437725, 0.26029999571619555, 0.3878999996231869, 0.2641999890329316, 0.2861499960999936, 0.2659499878063798, 0.2611499949125573, 0.26760000037029386, 0.26635000540409237, 0.3005499893333763, 0.2970999921672046, 0.27585000498220325, 0.26744999922811985, 0.27459999546408653, 0.2662499900907278, 0.2781999937724322, 0.26744999922811985, 0.2586999908089638, 0.2744499943219125, 0.2978999982587993, 0.26014999457402155, 0.2700500044738874, 0.2638000005390495, 0.30455000523943454, 0.27394999051466584, 0.2683999919099733, 0.26855000760406256, 0.3427499905228615, 0.2747999969869852, 0.33290000283159316, 0.30050000350456685, 0.28050001128576696, 0.4546999844023958, 0.2989000058732927, 0.3889500076184049, 0.3963999915868044, 0.3854500100715086, 0.35940000088885427, 0.2611499949125573, 0.26559999969322234, 0.262700006715022, 0.27454999508336186, 0.28515000303741544, 0.2721999917412177, 0.27740000223275274, 0.43480000749696046, 0.3727000002982095, 0.30139999580569565, 0.27805000718217343, 0.2702000056160614, 0.4600500105880201, 0.3956000000471249, 0.2786999975796789, 0.3841500001726672, 0.26610000350046903, 0.262550005572848, 0.2682499907677993, 0.2750999992713332, 0.42369998118374497, 0.26810000417754054, 0.38840000343043357, 0.4803999909199774, 0.44839999463874847, 0.2683500060811639, 0.3132999991066754, 0.2865999995265156, 0.26285000785719603, 0.2719000040087849, 0.4243999865138903, 0.3630499995779246, 0.2615999983390793, 0.2834499900927767, 0.26455000624991953, 0.27954998950008303, 0.2717500028666109, 0.48874999629333615, 0.3176500031258911, 0.27874999796040356, 0.26285000785719603, 0.3837999975075945, 0.27350000164005905, 0.27624999347608536, 0.264749993220903, 0.30270000570453703, 0.26954998611472547, 0.4062999942107126, 0.27025000599678606, 0.4108500143047422, 0.40374998934566975, 0.4071999865118414, 0.26250000519212335, 0.3969999816035852, 0.261799999861978, 0.2675499999895692, 0.30174999847076833, 0.2536999963922426, 0.2996499970322475, 0.27880001289304346, 0.26524999702814966, 0.2960499987239018, 0.272599994787015, 0.25975000608013943, 0.2935999946203083, 0.25785000616451725, 0.2684500068426132, 0.3222499944968149, 0.4512499872362241, 0.3983000060543418, 0.4226500022923574, 0.2751499996520579, 0.27225000667385757, 0.447750004241243, 0.43685000855475664, 0.2627500070957467, 0.2719000040087849, 0.465049990452826, 0.3924999909941107, 0.3046999918296933, 0.4726499901153147, 0.3696999920066446, 0.2753000007942319, 0.2691000117920339, 0.2749499981291592, 0.29764999635517597, 0.337649995344691, 0.26279999292455614, 0.2728500112425536, 0.34240000240970403, 0.2803000097628683, 0.3666499978862703, 0.26509999588597566, 0.298700004350394, 0.2735500020207837, 0.26849999267142266, 0.46734999341424555, 0.27165000210516155, 0.261649998719804, 0.2702000056160614, 0.2689499960979447, 0.26849999267142266, 0.26185000024270266, 0.41680000140331686, 0.3926499921362847, 0.26220000290777534, 0.26464999973541126, 0.2631499955896288, 0.33930000790860504, 0.3177499893354252, 0.2690999972401187, 0.2990500070154667, 0.3007000050274655, 0.26220000290777534, 0.2789999998640269, 0.2778999914880842, 0.3015000111190602, 0.26229998911730945, 0.27859999681822956, 0.25845000345725566, 0.30590000096708536, 0.2707000094233081, 0.2597999991849065, 0.25674999051261693, 0.26339999749325216, 0.2626999994390644, 0.29969999741297215, 0.2992999943671748, 0.2514000007067807, 0.3772000054595992, 0.2750999992713332, 0.3497500001685694, 0.2649000016390346, 0.2678500022739172, 0.2602500026114285, 0.2705999941099435, 0.26694999542087317, 0.36874999932479113, 0.2780499926302582, 0.26249999791616574, 0.272599994787015, 0.2692499983822927, 0.2998999989358708, 0.2623999971547164, 0.2693999995244667, 0.2722000062931329, 0.28700000257231295, 0.268449992290698, 0.2534500017645769, 0.259150008787401, 0.331300005200319, 0.26300000899937004, 0.2597000129753724, 0.2671999973244965, 0.2776000037556514, 0.26729999808594584, 0.3119000029982999, 0.26634999085217714, 0.2994999958900735, 0.2628499933052808, 0.26744999922811985, 0.29769999673590064, 0.26790000265464187, 0.25779999850783497, 0.2665499923750758, 0.25829999503912404, 0.2601000014692545, 0.38904999382793903, 0.3612000000430271, 0.2695500006666407, 0.2665000065462664, 0.29999999969732016, 0.258550004218705, 0.42505000601522624, 0.2818999928422272, 0.4402499907882884, 0.26804998924490064, 0.2705999941099435, 0.2769999991869554, 0.4231000057188794, 0.31054999271873385, 0.265349997789599, 0.26944999990519136, 0.3741500113392249, 0.27709999994840473, 0.26709999656304717, 0.2568499985500239, 0.31350000062957406, 0.26854999305214733, 0.26635000540409237, 0.26834999152924865, 0.26605000311974436, 0.35599998955149204, 0.2661500038811937, 0.37900000461377203, 0.2705000079004094, 0.2672499977052212, 0.27069999487139285, 0.269349999143742, 0.2760500065051019, 0.397100011468865, 0.34464999043848366, 0.27720000070985407, 0.2716000017244369, 0.2707499952521175, 0.2732499997364357, 0.25645000278018415, 0.2665000065462664, 0.28399999428074807, 0.3359499969519675, 0.2602500026114285, 0.39680000918451697, 0.28654999914579093, 0.26359999901615083, 0.2605500048957765, 0.2599500003270805, 0.4302999877836555, 0.27969999064225703, 0.27204999059904367, 0.2960499987239018, 0.2737500035436824, 0.26625000464264303, 0.2740500058280304, 0.2764000091701746, 0.38764999771956354, 0.40774999069981277, 0.3889500076184049, 0.4035500023746863, 0.2759500057436526, 0.2641000028233975, 0.27564998890738934, 0.2600499865366146, 0.28175000625196844, 0.2689500106498599, 0.26220000290777534, 0.272599994787015, 0.3028499922947958, 0.4039999912492931, 0.26760000037029386, 0.3777000092668459, 0.3048499929718673, 0.3657500055851415, 0.2731499989749864, 0.28589999419637024, 0.2696499941521324, 0.30205000075511634, 0.35415000456850976, 0.2679499884834513, 0.35700001171790063, 0.27520000003278255, 0.42555000982247293, 0.27129999944008887, 0.41769999370444566, 0.28140000358689576, 0.27689999842550606, 0.2649500092957169, 0.27289999707136303, 0.27224999212194234, 0.3872499946737662, 0.269349999143742, 0.26840000646188855, 0.29660000291187316, 0.4560000088531524, 0.2893000055337325, 0.25809998624026775, 0.27260000933893025, 0.2756000030785799, 0.2913499920396134, 0.3236500051571056, 0.2952499926323071, 0.2662999904714525, 0.27040000713896006, 0.2710000117076561, 0.288050010567531, 0.2671999973244965, 0.2607000060379505],
  "Optimal Expectation Value": -7.296229839324951,
  "Optimizer durations [ms]": [20.958, 22.984, 18.624, 25.01, 17.68, 24.645, 19.093, 25.144, 15.108, 23.761, 20.838, 23.523, 22.464, 20.22, 19.861, 22.38, 20.954, 17.703, 17.268, 20.281, 19.264, 23.322, 25.026, 23.26, 15.235, 20.832, 22.629, 21.01, 18.856, 19.004, 20.074, 25.381, 21.727, 21.866, 21.437, 22.147, 19.537, 21.676, 22.452, 22.255, 17.598, 22.142, 21.204, 25.367, 20.79, 21.224, 23.501, 17.974, 21.671, 21.91, 22.015, 18.518, 25.253, 17.384, 22.703, 18.187, 22.195, 21.318, 21.35, 21.523, 24.324, 21.43, 21.776, 24.892, 21.669, 20.912, 20.889, 21.581, 21.6, 20.874, 20.173, 25.201, 22.094, 23.52, 22.924, 24.683, 18.347, 22.017, 18.636, 23.139, 19.861, 23.906, 21.231, 21.368, 24.209, 24.081, 19.166, 23.719, 18.43, 23.186, 21.636, 25.718, 20.601, 23.653, 23.21, 25.789, 18.093, 20.018, 23.314, 21.53, 22.722, 21.454, 19.485, 18.14, 16.992, 16.195, 22.442, 21.259, 25.57, 14.483, 21.529, 24.101, 21.546, 15.828, 23.667, 24.783, 23.849, 22.868, 19.427, 24.584, 14.459, 24.712, 20.073, 19.319, 20.003, 22.288, 25.26, 22.525, 19.674, 25.931, 20.318, 21.528, 19.474, 18.833, 22.983, 23.84, 21.76, 17.164, 21.553, 26.052, 21.758, 24.892, 19.119, 21.836, 23.036, 24.81, 24.249, 21.314, 19.973, 25.62, 18.169, 21.979, 21.89, 21.438, 19.929, 24.026, 19.838, 17.819, 22.386, 18.363, 24.215, 19.857, 18.746, 25.951, 23.341, 24.802, 18.601, 21.974, 24.52, 24.138, 21.031, 25.495, 23.223, 12.068, 24.153, 21.304, 23.119, 24.862, 22.029, 20.282, 17.459, 24.664, 22.734, 24.262, 24.404, 22.565, 13.134, 23.455, 24.905, 21.338, 18.607, 22.897, 20.597, 21.109, 18.425, 21.282, 25.097, 21.59, 25.019, 23.671, 24.659, 17.554, 25.142, 22.878, 20.989, 21.915, 25.13, 16.197, 24.99, 20.195, 21.713, 22.019, 22.632, 16.785, 25.049, 22.748, 22.315, 25.03, 25.756, 23.181, 21.565, 15.559, 25.58, 23.05, 23.738, 22.191, 22.74, 20.651, 21.873, 20.925, 21.921, 22.192, 23.139, 22.779, 25.337, 22.997, 19.735, 18.932, 25.291, 18.507, 15.211, 24.783, 23.707, 23.559, 21.532, 23.007, 19.79, 23.617, 22.117, 20.98, 20.106, 18.512, 25.131, 21.711, 18.369, 16.163, 21.392, 21.445, 25.485, 17.687, 25.257, 17.95, 19.723, 26.02, 21.741, 20.914, 21.823, 20.964, 21.241, 22.423, 22.758, 22.738, 22.698, 25.342, 17.649, 23.011, 20.062, 22.146, 25.036, 25.506, 21.96, 25.205, 20.469, 22.899, 20.547, 22.412, 16.853, 23.069, 20.291, 16.934, 25.501, 17.921, 23.799, 21.424, 18.481, 24.314, 23.021, 17.677, 20.857, 20.09, 22.56, 24.956, 24.642, 22.755, 22.763, 23.897, 25.738, 20.571, 24.912, 18.382, 21.125, 21.711, 21.553, 22.3, 20.639, 23.174, 20.816, 25.664, 21.545, 24.872, 18.107, 15.872, 24.996, 19.274, 25.385, 23.559, 23.387, 22.575, 20.424, 23.193, 25.187, 25.662, 21.85, 21.772, 23.072, 25.16, 19.932, 24.142, 23.863, 23.796, 23.062, 25.773, 23.059, 24.619, 22.497, 21.671, 24.988, 15.708, 21.82, 21.291, 22.479, 21.194, 22.436, 23.857, 24.732, 20.997, 23.532, 20.655, 24.193, 22.589, 23.923, 18.634, 22.663, 19.441, 21.51, 20.575, 21.553, 20.083, 25.332, 24.977, 18.624, 23.117, 14.555, 17.071, 22.645, 25.281, 18.875, 20.772, 25.276, 21.627, 24.815, 25.707, 21.837, 20.748, 23.392, 20.909, 25.041, 25.316, 21.159, 21.336, 21.399, 18.703, 25.19, 23.321, 20.197, 21.191, 22.944, 24.55, 17.931, 21.047, 25.781, 22.787, 21.273, 24.696],
  "Optimizer iterations": 404,
  "Optimizer params": [0.5928871317248543, 0.8206796063129352, 0.8004618074672741, 0.6166500683461599, 0.917665031878882, 0.5223662577630453, 0.5190132002403876, 0.4759060194719806, 0.486521241695401, 0.46278535586243663, 0.5014610663871161, 0.6736063942832243, 0.4934737606838201, 0.4981493549772475, 0.5038572243136314, 0.5036086738739782, 0.5060007320100992, 0.5142240441495332, 0.5011189410183774, 0.5202662658687848, 0.5051268437945707, 0.5089616580952502, 0.4633121228211277, 0.5177542444493518],
  "P": 0,
  "Problem": "IC",
  "QPU": "7000000",
  "Qubits": 6,
  "Shots": 4096,
  "Size": 6,
  "Total Algorithm duration [s]": 8.818,
  "Total Classic duration [s]": 8.694567350249388,
  "Total Quantum duration [s]": 0.12343264975061174
}
