{
  "Depth": 14.5,
  "Expectation Value": -6.389086723327637,
  "Job durations [ms]": [0.298400002066046, 0.29569999605882913, 0.275849990430288, 0.33680000342428684, 0.26694999542087317, 0.26074999186675996, 0.26285000785719603, 0.41974999476224184, 0.26330001128371805, 0.4317499842727557, 0.26279999292455614, 0.377349992049858, 0.265650000073947, 0.26870000874623656, 0.26950000028591603, 0.37105000228621066, 0.2946500026155263, 0.26590000197757035, 0.2621500025270507, 0.2747000107774511, 0.30255000456236303, 0.27535000117495656, 0.33120000443886966, 0.2700999903026968, 0.4208500176900998, 0.25830000231508166, 0.27305001276545227, 0.2769999991869554, 0.45300001511350274, 0.27004998992197216, 0.2752500004135072, 0.40309998439624906, 0.3528499946696684, 0.27379998937249184, 0.27504999889060855, 0.38065000262577087, 0.41539999074302614, 0.41930000588763505, 0.2697000018088147, 0.26700001035351306, 0.3232500021113083, 0.37614999746438116, 0.4115499905310571, 0.2663999912329018, 0.457499991171062, 0.2629999944474548, 0.29460000223480165, 0.2626000059535727, 0.33305000397376716, 0.255300008575432, 0.2902999985963106, 0.27704999956768006, 0.261649998719804, 0.25905000074999407, 0.25074999575736, 0.2673500057426281, 0.3004500031238422, 0.26750000688480213, 0.2698499956750311, 0.45274999865796417, 0.36874999932479113, 0.2576500046416186, 0.26699999580159783, 0.29599999834317714, 0.4021500062663108, 0.27299999783281237, 0.35200000274926424, 0.33734999306034297, 0.39339999784715474, 0.30529999639838934, 0.2635000055306591, 0.40020000596996397, 0.2793000021483749, 0.30640000477433205, 0.2604500041343272, 0.4057500045746565, 0.2697500021895394, 0.4676999960793182, 0.29614999948535115, 0.27489999774843454, 0.30509999487549067, 0.27975000557489693, 0.27254999440629035, 0.3465000045252964, 0.2811500016832724, 0.2746500031207688, 0.26760000037029386, 0.2664500061655417, 0.2775000029942021, 0.2840999950421974, 0.26599998818710446, 0.28554999153129756, 0.27659999614115804, 0.26235000404994935, 0.29910000739619136, 0.261649998719804, 0.2854000049410388, 0.25939999613910913, 0.2630499948281795, 0.26889999571722, 0.2799500070977956, 0.2997999981744215, 0.2707999956328422, 0.26375000015832484, 0.27544998738449067, 0.46774998190812767, 0.26339999749325216, 0.3333999920869246, 0.272449993644841, 0.3433499950915575, 0.27379998937249184, 0.38055000186432153, 0.26220000290777534, 0.43330001062713563, 0.28079999901819974, 0.26950000028591603, 0.2805499971145764, 0.2860000095097348, 0.2765500103123486, 0.4243999865138903, 0.2783999952953309, 0.28095000016037375, 0.2862999972421676, 0.2758999908110127, 0.2646000066306442, 0.2776000037556514, 0.4303499881643802, 0.32815001031849533, 0.2756000030785799, 0.2630499948281795, 0.2708999963942915, 0.2690999972401187, 0.2709500113269314, 0.2846000134013593, 0.28369999199640006, 0.2909500035457313, 0.2682499907677993, 0.4701499856309965, 0.40720000106375664, 0.3023999888682738, 0.27209999097976834, 0.2754500019364059, 0.27129999944008887, 0.2751499996520579, 0.2673499984666705, 0.2859999949578196, 0.2623999898787588, 0.29725000786129385, 0.27129999944008887, 0.3072499966947362, 0.4505999822868034, 0.2724999940255657, 0.28515000303741544, 0.2788499987218529, 0.26599998818710446, 0.2736000024015084, 0.27180000324733555, 0.2750999992713332, 0.3873499808833003, 0.44040000648237765, 0.33364999399054796, 0.2749499981291592, 0.2825999981723726, 0.30315000913105905, 0.2834499900927767, 0.3580499906092882, 0.2851000026566908, 0.2681500045582652, 0.26775000151246786, 0.2628999936860055, 0.27689999842550606, 0.4166500148130581, 0.2758999908110127, 0.4158500087214634, 0.4659500118577853, 0.305499997921288, 0.268449992290698, 0.2666999935172498, 0.2841499954229221, 0.3939000016544014, 0.33614999847486615, 0.36794999323319644, 0.2698500029509887, 0.41715000406838953, 0.2543500013416633, 0.46239999937824905, 0.265499998931773, 0.2566999974078499, 0.27520000003278255, 0.2639500016812235, 0.29779999749735, 0.4018500039819628, 0.2724000078160316, 0.2785499964375049, 0.2552999940235168, 0.35054999170824885, 0.2587999915704131, 0.2569999996921979, 0.25939999613910913, 0.2675499999895692, 0.2690000110305846, 0.26169999910052866, 0.27024999144487083, 0.2921999985119328, 0.27365000278223306, 0.4427999956533313, 0.2849000011337921, 0.2687500018510036, 0.26864999381359667, 0.2905000001192093, 0.26185000024270266, 0.27755000337492675, 0.28715000371448696, 0.2727999963099137, 0.2714000002015382, 0.31040000612847507, 0.27149999368702993, 0.27195000438950956, 0.29129999165888876, 0.2571500008343719, 0.3960999893024564, 0.30050000350456685, 0.2737500035436824, 0.26539999817032367, 0.4311500088078901, 0.25074999575736, 0.2987999905599281, 0.30729999707546085, 0.2724999940255657, 0.4045999958179891, 0.2701500052353367, 0.36114999966230243, 0.3024500038009137, 0.28345000464469194, 0.37475000135600567, 0.25055000878637657, 0.29749999521300197, 0.2919999969890341, 0.2685000072233379, 0.2595000041765161, 0.2549500059103593, 0.29740000900346786, 0.299150007776916, 0.24570000095991418, 0.257849991612602, 0.34514999424573034, 0.25689999893074855, 0.26864999381359667, 0.26124999567400664, 0.2628999936860055, 0.27784999110735953, 0.2921499981312081, 0.26775000151246786, 0.2758000046014786, 0.28580000798683614, 0.2643000043462962, 0.26259999140165746, 0.24649999977555126, 0.2637499928823672, 0.2812000020639971, 0.2641500032041222, 0.26455000624991953, 0.26494999474380165, 0.454850000096485, 0.2664499988895841, 0.35480000951793045, 0.42824998672585934, 0.2836500061675906, 0.30899999546818435, 0.27239999326411635, 0.2638500009197742, 0.2580500004114583, 0.26529999740887433, 0.28095000016037375, 0.41555000643711537, 0.2628499933052808, 0.2726499951677397, 0.2636499993968755, 0.28449999808799475, 0.2881499967770651, 0.2899999963119626, 0.363900006050244, 0.27439999394118786, 0.265950002358295, 0.247349998971913, 0.27720000070985407, 0.35474999458529055, 0.26220000290777534, 0.2749999985098839, 0.2700000040931627, 0.26544999855104834, 0.31785000464878976, 0.28979999478906393, 0.33305000397376716, 0.2839499939000234, 0.3588999970816076, 0.24980000307550654, 0.36905000160913914, 0.2582000015536323, 0.40089998219627887, 0.24205000227084383, 0.2604500041343272, 0.24204999499488622, 0.2835000050254166, 0.24760000087553635, 0.2775000029942021, 0.2671999973244965, 0.2767999976640567, 0.30139999580569565, 0.48734998563304543, 0.26914999762084335, 0.24850000045262277, 0.2628999936860055, 0.2823000104399398, 0.2614499899209477, 0.2604500041343272, 0.26359999901615083, 0.2641500032041222, 0.35215000389143825, 0.3113999991910532, 0.27319999935571104, 0.28250001196283847, 0.4329499934101477, 0.2678500022739172, 0.37804999738000333, 0.28229999588802457, 0.4689000197686255, 0.26810000417754054, 0.2982000005431473, 0.30530001095030457, 0.45780000800732523, 0.2864499983843416, 0.2494999935152009, 0.27049999334849417, 0.4313500103307888, 0.2718500036280602, 0.2563500020187348, 0.31704999855719507, 0.4162499972153455, 0.2704499929677695, 0.3209999995306134, 0.3071999963140115, 0.2622499887365848, 0.2803999959724024, 0.4378500016173348, 0.26714999694377184, 0.2597499988041818, 0.2943500003311783, 0.2927000023191795, 0.2597499988041818, 0.28064999787602574, 0.375000003259629, 0.272299992502667, 0.45530000352300704, 0.2575999969849363, 0.2901999978348613, 0.2682499907677993, 0.42380001104902476, 0.2695500006666407, 0.26359999901615083, 0.264749993220903, 0.2597499988041818, 0.34520000917837024, 0.27039999258704484, 0.268449992290698, 0.29784999787807465, 0.2791500010062009, 0.2626999921631068, 0.2601000014692545, 0.3869499923894182, 0.2814999897964299, 0.3262999962316826, 0.36330000148154795, 0.27024999144487083, 0.2570000069681555, 0.2668000088306144, 0.30590000096708536, 0.26449999859323725, 0.27319999935571104, 0.258550004218705, 0.3846000035991892, 0.2796500048134476, 0.2745000092545524, 0.2760499919531867, 0.3733999910764396, 0.2817000058712438, 0.2787000121315941, 0.4726999904960394, 0.3353999927639961, 0.30775000050198287, 0.262400004430674, 0.2605500048957765, 0.28410000959411263, 0.2779000060399994, 0.28250001196283847, 0.48219999007415026, 0.4008999967481941, 0.2676500007510185, 0.33740000799298286, 0.45655001304112375, 0.2795999898808077, 0.28789999487344176, 0.29584999720100313, 0.28220000967849046],
  "Optimal Expectation Value": -7.296229839324951,
  "Optimizer durations [ms]": [17.233, 17.788, 22.828, 25.084, 24.364, 25.65, 22.121, 20.391, 22.228, 19.025, 25.376, 20.378, 18.012, 25.508, 25.092, 24.948, 16.506, 19.389, 19.312, 16.427, 22.709, 23.803, 20.924, 24.031, 22.576, 20.718, 25.644, 19.439, 24.011, 19.218, 25.912, 24.865, 17.687, 25.856, 21.75, 23.429, 25.138, 25.412, 21.405, 20.538, 23.004, 25.119, 20.439, 25.418, 18.066, 19.604, 17.969, 25.23, 22.439, 21.309, 21.773, 25.996, 26.185, 25.919, 22.799, 22.165, 22.209, 23.708, 24.664, 23.8, 20.785, 18.184, 19.248, 21.247, 23.666, 24.051, 18.897, 21.187, 20.011, 20.839, 25.46, 20.738, 21.375, 18.912, 23.929, 24.385, 22.156, 20.607, 13.729, 23.458, 20.899, 22.394, 21.501, 21.671, 25.51, 23.356, 22.264, 18.006, 25.714, 25.113, 21.446, 18.109, 24.153, 19.681, 24.961, 22.174, 22.757, 25.32, 25.358, 18.117, 25.491, 13.585, 25.411, 15.153, 24.58, 23.733, 25.401, 17.693, 25.774, 20.949, 21.198, 22.569, 25.016, 20.594, 24.176, 21.475, 22.574, 22.532, 21.776, 24.752, 26.013, 18.292, 21.791, 25.247, 24.9, 19.888, 23.857, 21.092, 25.531, 18.081, 19.136, 23.125, 22.185, 24.292, 25.952, 26.292, 24.549, 25.08, 20.982, 20.036, 23.555, 24.541, 20.732, 21.634, 21.086, 20.211, 25.179, 19.586, 25.449, 24.902, 24.333, 24.334, 23.363, 18.206, 22.857, 25.587, 25.62, 18.475, 24.96, 21.895, 25.012, 22.867, 22.026, 14.446, 22.934, 17.535, 22.28, 26.051, 22.619, 25.652, 22.905, 21.242, 23.422, 24.256, 22.946, 14.45, 22.504, 16.899, 25.747, 22.536, 21.288, 25.004, 20.594, 18.986, 23.136, 18.516, 25.632, 13.836, 25.732, 25.037, 17.363, 24.836, 25.139, 23.757, 24.216, 20.749, 25.461, 18.019, 17.982, 23.068, 20.09, 25.125, 22.745, 21.472, 21.064, 21.401, 18.738, 22.334, 21.146, 19.219, 24.916, 21.282, 20.59, 22.948, 23.694, 15.423, 24.53, 22.664, 21.679, 21.129, 25.111, 15.122, 25.928, 21.427, 25.27, 24.095, 21.828, 19.779, 22.445, 22.75, 20.073, 25.142, 19.403, 21.443, 24.996, 25.125, 18.577, 17.549, 23.632, 24.421, 20.555, 21.423, 18.697, 25.349, 23.608, 24.666, 25.211, 15.863, 21.54, 25.177, 21.478, 22.243, 17.049, 25.25, 25.873, 20.124, 25.558, 24.965, 25.52, 17.084, 25.488, 23.089, 22.26, 18.586, 17.745, 24.921, 22.788, 23.959, 22.226, 23.471, 23.679, 22.866, 20.754, 24.769, 20.75, 25.551, 22.863, 25.829, 22.809, 21.776, 25.622, 24.938, 25.825, 22.271, 23.17, 16.577, 25.061, 22.052, 25.731, 19.143, 24.742, 23.152, 24.156, 22.188, 25.617, 21.943, 20.747, 23.688, 21.198, 24.967, 25.401, 22.849, 25.132, 24.789, 23.805, 24.562, 24.988, 23.454, 13.728, 25.073, 21.364, 22.679, 15.537, 24.948, 23.079, 23.937, 25.307, 23.705, 24.62, 25.385, 21.018, 26.014, 25.044, 23.289, 19.564, 26.108, 23.052, 25.177, 23.476, 20.443, 25.022, 24.475, 25.37, 25.54, 20.314, 19.046, 22.596, 21.576, 24.172, 25.656, 20.646, 22.034, 21.773, 20.23, 22.607, 23.566, 25.742, 18.037, 21.794, 21.173, 20.846, 25.182, 25.911, 20.379, 25.653, 20.452, 25.669, 24.54, 24.174, 18.619, 21.241, 23.84, 20.956, 21.899, 16.894, 19.024, 22.008, 22.208, 19.633, 24.963, 22.916, 24.458, 19.021, 22.692, 20.84, 23.796, 23.065, 21.292, 22.493, 25.477, 22.435, 25.962, 21.646, 23.097, 19.574, 23.903, 20.654, 22.119, 16.852, 22.025, 24.299, 25.478, 22.132, 19.305, 22.431, 24.868, 22.504, 23.446, 23.912, 25.121, 21.693, 22.776, 26.105, 24.198],
  "Optimizer iterations": 404,
  "Optimizer params": [0.5928871317248543, 0.8206796063129352, 0.8004618074672741, 0.6166500683461599, 0.917665031878882, 0.5223662577630453, 0.5190132002403876, 0.4759060194719806, 0.486521241695401, 0.46278535586243663, 0.5014610663871161, 0.6736063942832243, 0.4934737606838201, 0.4981493549772475, 0.5038572243136314, 0.5036086738739782, 0.5060007320100992, 0.5142240441495332, 0.5011189410183774, 0.5202662658687848, 0.5051268437945707, 0.5089616580952502, 0.4633121228211277, 0.5177542444493518],
  "P": 0,
  "Problem": "IC",
  "QPU": "7000000",
  "Qubits": 6,
  "Shots": 4096,
  "Size": 6,
  "Total Algorithm duration [s]": 9.054,
  "Total Classic duration [s]": 8.93152950021968,
  "Total Quantum duration [s]": 0.1224704997803201
}
