{
  "Circuit execution durations [ms]": [10.210530832409859, 10.207395534962416, 10.067135095596313, 10.3588099591434, 10.040497872978449, 22.94500730931759, 10.133143048733473, 10.297424159944057, 16.4397400803864, 10.138907935470343, 16.58373838290572, 10.188236366957426, 10.09791111573577, 10.10932819917798, 10.299584362655878, 11.636382434517145, 12.271631509065628, 10.020921938121319, 11.08952658250928, 10.057245846837759, 16.697073820978403, 10.197869036346674, 10.112971533089876, 10.146420914679766, 10.011105332523584, 16.368595883250237, 10.584097355604172, 9.987262543290854, 10.064439382404089, 10.358985513448715, 16.40315493568778, 10.079132858663797, 16.520023345947266, 10.239305905997753, 10.44401153922081, 16.24690368771553, 10.014594532549381, 10.092263575643301, 10.98961802199483, 9.984233416616917, 10.179949924349785, 16.918702982366085, 10.47326484695077, 10.273115243762732, 10.11919928714633, 10.297793429344893, 10.13113185763359, 10.280425194650888, 10.070395190268755, 10.018718894571066, 16.880955081433058, 10.469382163137197, 10.143110994249582, 10.105913504958153, 10.158163029700518, 10.33110124990344, 10.184029582887888, 10.015595238655806, 10.453094262629747, 10.179025586694479, 10.477601084858179, 10.096271522343159, 10.113296564668417, 17.711696680635214],
  "Depth": 2.0,
  "Expectation Value": -1.8410335779190063,
  "Optimal Expectation Value": -2.7446999549865723,
  "Optimizer durations [ms]": [25148.246, 19372.539, 61247.527, 118443.179, 16212.513, 22009.597, 21867.244, 18096.332, 76506.738, 14553.329, 17961.791, 25206.209, 83986.717, 77700.901, 13558.134, 46430.728, 76615.638, 17761.567, 15198.727, 77861.45, 15016.359, 15116.722, 15264.897, 21000.343, 15111.205, 22220.707, 13828.908, 13217.329, 30586.947, 81740.201, 15203.071, 15783.538, 18993.467, 76231.781, 17880.706, 17929.722, 19260.233, 119185.801, 46842.467, 17449.219, 19421.507, 29066.867, 22857.541, 44324.984, 18816.962, 14361.301, 108264.586, 26675.317, 78767.573, 14673.641, 21748.834, 24588.348, 42060.31, 16251.291, 14728.023, 21903.857, 14199.548, 20240.866, 26024.474, 13920.332, 14512.969, 19535.364, 16859.046, 73625.228],
  "Optimizer iterations": 64,
  "Optimizer params": [0.9841637822824029, 0.4982030043323027, 0.9831340077123254, 0.5005902865127964, 0.9284164166970069],
  "P": 0,
  "Problem": "RH",
  "QJob durations [ms]": [9016.467571258545, 9634.74416732788, 30571.099758148193, 59167.22869873047, 8055.015563964844, 10921.316385269165, 10882.148742675781, 8997.553825378418, 38200.631618499756, 7196.130037307739, 8928.712844848633, 12551.778316497803, 41940.84072113037, 38765.4914855957, 6727.280378341675, 23163.722038269043, 38254.74977493286, 8798.213958740234, 7548.97928237915, 38878.92723083496, 7456.136703491211, 7476.754665374756, 7580.574035644531, 10446.90465927124, 7502.2759437561035, 11026.11780166626, 6862.8809452056885, 6556.371212005615, 15243.536472320557, 40788.69915008545, 7550.832509994507, 7839.0185832977295, 9445.775032043457, 38032.73153305054, 8891.007423400879, 8915.160655975342, 9576.062202453613, 59508.169174194336, 23368.95179748535, 8673.654556274414, 9659.682750701904, 14481.842994689941, 11377.665519714355, 22108.534812927246, 9355.072021484375, 7129.092693328857, 54046.88787460327, 13283.644199371338, 39330.459117889404, 7287.306785583496, 10791.897535324097, 12242.913722991943, 20980.615615844727, 8073.626279830933, 7280.5047035217285, 10901.593208312988, 7047.269344329834, 10068.467140197754, 12928.570747375488, 6906.986951828003, 7204.717636108398, 9712.688207626343, 8346.710443496704, 36764.686822891235],
  "QPU": "4010001",
  "Qubits": 5,
  "Queue durations [ms]": [2148.0000019073486, 1551.000028848648, 8879.50024008751, 52978.00135612488, 997.5000321865082, 4856.99987411499, 1358.5000038146973, 822.4999904632568, 31391.000539064407, 839.000016450882, 1583.5000574588776, 551.0000139474869, 7745.000183582306, 31659.500896930695, 891.4999961853027, 12349.500298500061, 1059.9999725818634, 2531.499981880188, 905.4999947547913, 1047.4999845027924, 883.0000013113022, 707.5000107288361, 798.5000014305115, 1335.999995470047, 719.0000116825104, 1091.9999778270721, 747.9999959468842, 794.4999933242798, 1405.4999947547913, 997.5000023841858, 997.5000321865082, 1202.0000219345093, 1319.4999694824219, 31734.999895095825, 1144.5000171661377, 1392.0000195503235, 1386.9999647140503, 965.0000333786011, 16313.50028514862, 1407.0000052452087, 1120.9999918937683, 967.5000011920929, 739.9999797344208, 14990.499913692474, 844.5000052452087, 1364.0000224113464, 46930.998146533966, 1084.4999849796295, 32473.000526428223, 848.0000197887421, 952.0000219345093, 1470.4999923706055, 1252.0000338554382, 939.9999678134918, 739.5000159740448, 979.4999957084656, 680.5000007152557, 691.4999783039093, 1039.9999916553497, 894.5000171661377, 879.50000166893, 720.5000221729279, 1151.4999866485596, 28021.999895572662],
  "Shots": 4096,
  "Size": 5,
  "Total Algorithm duration [s]": 2171.031,
  "Total Classic duration [s]": 1092.7769154129028,
  "Total Quantum duration [s]": 1078.2540845870972
}
