{
  "Depth": 257.0,
  "Job durations [ms]": [37.247657775878906, 37.28222846984863, 36.67855262756348, 36.11016273498535, 37.37950325012207, 37.206172943115234, 35.95328330993652, 35.89153289794922, 36.08441352844238, 36.00430488586426, 37.044525146484375, 36.846160888671875, 37.24312782287598, 35.883426666259766, 36.08393669128418, 37.305593490600586, 37.325143814086914, 37.4598503112793, 37.33372688293457, 35.99095344543457, 37.19782829284668, 37.217140197753906, 35.89224815368652, 36.2401008605957, 37.13846206665039, 35.72440147399902, 36.03839874267578, 36.24677658081055, 37.12892532348633, 36.06724739074707, 36.98873519897461, 37.26649284362793, 37.05596923828125, 36.174774169921875, 36.65566444396973, 37.016868591308594, 36.00716590881348, 36.097049713134766, 36.91434860229492, 37.079811096191406, 37.18280792236328, 37.26649284362793, 36.012887954711914, 36.2856388092041, 35.959482192993164, 37.16683387756348, 36.69381141662598, 37.145376205444336, 35.79139709472656, 36.10563278198242, 36.116600036621094, 36.09728813171387, 35.57848930358887, 36.1323356628418, 36.1478328704834, 35.98618507385254, 36.22865676879883, 35.76064109802246, 36.06271743774414, 36.072492599487305, 36.019325256347656, 35.66718101501465, 35.9044075012207, 35.97879409790039, 35.944461822509766, 35.82406044006348, 35.8576774597168, 35.996437072753906, 36.063194274902344, 36.07773780822754, 36.13686561584473, 35.81094741821289, 36.01193428039551, 36.07320785522461, 35.97688674926758, 36.12065315246582, 35.985708236694336, 35.82429885864258, 35.94493865966797, 36.005258560180664, 36.02766990661621, 35.94541549682617, 35.99405288696289, 37.21809387207031, 35.900115966796875, 36.53073310852051, 36.19694709777832, 36.375999450683594, 35.543203353881836, 37.16921806335449, 36.08536720275879, 35.94160079956055, 36.46421432495117, 37.50801086425781, 35.95304489135742, 35.987138748168945, 36.069393157958984, 36.8657112121582, 36.04626655578613, 37.13870048522949, 36.228179931640625, 37.4903678894043, 35.782814025878906],
  "Optimizer durations [ms]": [313.451, 359.444, 312.862, 313.059, 354.379, 314.952, 352.774, 314.86, 314.826, 351.518, 315.286, 353.494, 315.125, 313.9, 354.062, 313.593, 357.644, 315.393, 353.78, 314.32, 316.7, 354.635, 313.752, 354.231, 314.329, 312.531, 356.696, 313.065, 354.275, 313.722, 313.245, 354.244, 316.281, 352.311, 313.595, 313.893, 352.453, 313.577, 354.382, 314.017, 314.073, 352.839, 313.226, 351.774, 314.252, 313.498, 352.917, 315.565, 354.769, 313.915, 314.644, 352.702, 312.577, 356.067, 313.751, 313.942, 353.464, 312.615, 354.962, 313.21, 313.16, 351.021, 313.962, 355.355, 312.911, 352.547, 314.083, 313.435, 355.684, 312.84, 351.434, 313.343, 312.494, 355.148, 314.608, 354.4, 312.961, 312.714, 353.471, 313.789, 353.291, 313.268, 313.258, 354.918, 313.136, 353.94, 313.568, 313.38, 351.43, 314.05, 353.443, 314.544, 313.796, 353.997, 313.061, 355.27, 314.116, 313.675, 352.637, 313.579, 355.681, 315.029, 312.938],
  "Optimizer iterations": 103,
  "Qubits": 14,
  "Total Algorithm duration [s]": 33.97,
  "Total Classic duration [s]": 30.222017498016356,
  "Total Quantum duration [s]": 3.7479825019836426,
  "Expectation Value": -16.9501953125,
  "Optimal Expectation Value": -20.0,
  "Optimizer params": [0.5685096190690849, 0.40706793473699265, 0.039442117289543825, 0.041513852336054334, 0.00813132508124255, 0.6820244337122785],
  "QPU": "3010002",
  "Problem": "MCP",
  "Size": 14,
  "P": 3,
  "Shots": 4096
}