{
  "Depth": 2.0,
  "Job durations [ms]": [3516.370415687561, 3521.067261695862, 3537.636399269104, 3773.5986709594727, 3850.6325483322144, 3551.188826560974, 3728.97207736969, 3477.159261703491, 3546.001672744751, 3521.3743448257446, 3662.5176668167114],
  "Optimizer durations [ms]": [49327.397, 40431.459, 50068.742, 39540.187, 39527.801, 40418.291, 49735.67, 40183.833, 40494.934, 49470.364, 41321.815],
  "Optimizer iterations": 11,
  "Qubits": 1,
  "Total Algorithm duration [s]": 480.52,
  "Total Classic duration [s]": 440.8334808540344,
  "Total Quantum duration [s]": 39.686519145965576,
  "Expectation Value": -0.5609375238418579,
  "Optimal Expectation Value": -0.574400007724762,
  "Optimizer params": [0.999791510451853],
  "QPU": "4020020",
  "Problem": "RH",
  "Size": 1,
  "P": 0,
  "Shots": 4096
}