{
  "Circuit execution durations [ms]": [8.249044418334961, 8.541345596313477, 8.322715759277344, 8.374691009521484, 8.516311645507813, 8.251667022705078, 8.406877517700195, 8.580207824707031, 8.40306282043457, 8.368492126464844, 8.436441421508789, 8.428335189819336, 8.375167846679688, 8.287429809570313, 8.412599563598633, 8.459806442260742, 8.636713027954102, 8.452892303466797, 8.489847183227539, 8.355140686035156, 8.534669876098633, 8.621931076049805, 8.301973342895508, 8.231639862060547, 8.624553680419922, 8.61501693725586, 8.239030838012695, 8.32223892211914, 8.343696594238281, 8.364439010620117, 8.581161499023438, 8.389472961425781, 8.319854736328125, 8.554458618164063, 8.231639862060547, 8.309364318847656, 8.336305618286133, 8.595943450927734, 8.539438247680664, 8.413553237915039, 8.452653884887695, 8.280038833618164, 8.639335632324219, 8.537054061889648, 8.358478546142578, 8.53586196899414, 8.318662643432617, 8.386611938476563, 8.27932357788086, 8.456230163574219, 8.229970932006836, 8.561849594116211, 8.52346420288086, 8.33749771118164, 8.70966911315918, 8.547544479370117, 8.39686393737793, 8.335113525390625, 8.499622344970703, 8.339405059814453, 8.607149124145508, 8.569717407226563, 8.259057998657227, 8.402824401855469, 8.580684661865234, 8.418798446655273, 8.435249328613281, 8.483171463012695, 8.450746536254883, 8.574724197387695, 8.575439453125, 8.586645126342773, 8.368968963623047, 8.421182632446289, 8.416891098022461, 8.523225784301758, 7.920265197753906, 8.094549179077148, 8.40449333190918, 8.273601531982422, 8.550405502319336, 8.48078727722168, 8.318662643432617, 8.534431457519531, 8.63957405090332, 8.328914642333984, 8.405208587646484, 8.221626281738281, 8.309364318847656, 8.383035659790039, 8.419513702392578, 8.155584335327148, 8.626937866210938, 8.448600769042969, 8.479833602905273, 8.399486541748047, 8.585691452026367, 8.551836013793945, 8.580684661865234, 8.558034896850586, 8.367538452148438, 8.45026969909668, 8.410930633544922, 8.451700210571289, 8.278369903564453, 8.44883918762207, 8.28862190246582, 8.554697036743164, 8.820772171020508, 8.388757705688477, 8.506059646606445, 8.434534072875977],
  "Depth": 132.0,
  "Expectation Value": -1.987060546875,
  "Optimal Expectation Value": -2.0,
  "Optimizer durations [ms]": [197.87, 196.654, 280.017, 197.26, 196.796, 196.292, 280.025, 197.173, 196.406, 196.99, 278.445, 197.28, 196.129, 196.184, 278.46, 196.623, 197.348, 196.24, 278.429, 196.884, 196.884, 197.147, 278.84, 197.156, 196.987, 197.044, 278.414, 196.544, 196.826, 196.009, 279.476, 197.253, 196.447, 197.063, 278.878, 196.492, 198.542, 196.627, 278.727, 196.838, 198.012, 196.353, 278.941, 196.809, 196.586, 197.273, 278.974, 196.698, 197.102, 196.694, 278.287, 197.201, 196.423, 197.865, 279.621, 197.229, 196.506, 196.3, 278.469, 198.336, 197.393, 197.017, 280.781, 197.255, 197.574, 196.224, 278.12, 197.201, 196.871, 197.097, 278.609, 197.739, 196.618, 196.64, 278.634, 197.223, 197.452, 196.611, 279.743, 196.398, 196.781, 197.066, 279.799, 197.198, 196.451, 196.855, 278.324, 196.673, 196.222, 196.28, 278.917, 196.744, 197.118, 196.657, 278.479, 197.16, 197.82, 197.334, 278.541, 197.578, 196.959, 196.727, 278.102, 197.172, 196.461, 196.695, 278.427, 196.882, 197.331, 196.72, 278.292, 197.028],
  "Optimizer iterations": 112,
  "Optimizer params": [0.5905295110937719, 0.5165123184043012, 0.39438934277980964, 0.6212712585638773, 0.06944763401512928, 0.2268663379235588],
  "P": 3,
  "Problem": "DSP",
  "QJob durations [ms]": [139.31870460510254, 138.47875595092773, 221.6625213623047, 139.24908638000488, 138.47684860229492, 137.8786563873291, 221.34089469909668, 138.88812065124512, 138.43512535095215, 138.43011856079102, 138.43083381652832, 138.87453079223633, 137.98832893371582, 138.0314826965332, 138.26274871826172, 138.50641250610352, 138.57245445251465, 138.1378173828125, 138.5331153869629, 138.68308067321777, 138.44680786132813, 138.42368125915527, 138.37552070617676, 138.7014389038086, 138.7176513671875, 138.4561061859131, 138.11969757080078, 138.59224319458008, 138.411283493042, 137.99405097961426, 138.9462947845459, 139.0388011932373, 138.08488845825195, 138.5211944580078, 138.69595527648926, 138.23366165161133, 138.6270523071289, 138.22531700134277, 138.5812759399414, 138.72170448303223, 139.6183967590332, 138.07392120361328, 139.05096054077148, 138.68403434753418, 138.1356716156006, 138.61680030822754, 139.0078067779541, 138.53812217712402, 138.63372802734375, 138.1537914276123, 138.230562210083, 138.61393928527832, 138.24725151062012, 139.50800895690918, 139.82033729553223, 138.63682746887207, 138.12565803527832, 138.1704807281494, 138.275146484375, 138.75412940979004, 138.66114616394043, 138.58675956726074, 138.29541206359863, 138.63444328308105, 138.6268138885498, 137.97378540039063, 138.45467567443848, 138.6888027191162, 138.64803314208984, 138.92769813537598, 138.72671127319336, 139.1735076904297, 138.4291648864746, 138.15689086914063, 138.27800750732422, 138.9322280883789, 138.8375759124756, 138.19622993469238, 138.4592056274414, 138.24796676635742, 138.4296417236328, 138.52524757385254, 139.50395584106445, 139.03164863586426, 138.3075714111328, 138.3049488067627, 138.39054107666016, 138.3345127105713, 138.15999031066895, 138.0321979522705, 138.77248764038086, 138.48447799682617, 139.10841941833496, 138.36026191711426, 138.63754272460938, 138.81540298461914, 139.55330848693848, 138.46778869628906, 138.51571083068848, 138.95559310913086, 138.46182823181152, 138.30900192260742, 138.50641250610352, 138.82207870483398, 138.25297355651855, 138.34238052368164, 138.68212699890137, 138.61680030822754, 138.76795768737793, 138.44990730285645, 138.3039951324463, 138.8700008392334],
  "QPU": "3010008",
  "Qubits": 6,
  "Queue durations [ms]": [0.0, 0.0, 0.0, 0.0, 0.0, 0.0, 0.0, 0.0, 0.0, 0.0, 0.0, 0.0, 0.0, 0.0, 0.0, 0.0, 0.0, 0.0, 0.0, 0.0, 0.0, 0.0, 0.0, 0.0, 0.0, 0.0, 0.0, 0.0, 0.0, 0.0, 0.0, 0.0, 0.0, 0.0, 0.0, 0.0, 0.0, 0.0, 0.0, 0.0, 0.0, 0.0, 0.0, 0.0, 0.0, 0.0, 0.0, 0.0, 0.0, 0.0, 0.0, 0.0, 0.0, 0.0, 0.0, 0.0, 0.0, 0.0, 0.0, 0.0, 0.0, 0.0, 0.0, 0.0, 0.0, 0.0, 0.0, 0.0, 0.0, 0.0, 0.0, 0.0, 0.0, 0.0, 0.0, 0.0, 0.0, 0.0, 0.0, 0.0, 0.0, 0.0, 0.0, 0.0, 0.0, 0.0, 0.0, 0.0, 0.0, 0.0, 0.0, 0.0, 0.0, 0.0, 0.0, 0.0, 0.0, 0.0, 0.0, 0.0, 0.0, 0.0, 0.0, 0.0, 0.0, 0.0, 0.0, 0.0, 0.0, 0.0, 0.0, 0.0],
  "Shots": 4096,
  "Size": 3,
  "Total Algorithm duration [s]": 24.351,
  "Total Classic duration [s]": 8.665998388290404,
  "Total Quantum duration [s]": 15.685001611709595
}
