{
  "Depth": 2.0,
  "Job durations [ms]": [4808.286666870117, 5020.497798919678, 4775.656461715698, 5193.955183029175, 5063.155651092529, 5178.243637084961, 5364.311218261719, 5182.92760848999, 4754.72092628479, 4805.376768112183, 4991.484642028809, 4861.722230911255, 4837.410926818848, 4760.392427444458, 4669.656038284302, 5243.0877685546875, 4817.96407699585, 4717.939615249634, 4764.512777328491, 4794.869422912598, 4768.568992614746, 4713.922500610352, 4749.65500831604, 4698.601245880127, 4984.123229980469, 5232.447147369385, 4743.751049041748, 4834.375619888306, 4878.750801086426, 4840.354919433594, 4860.858201980591, 5111.325740814209, 5257.290363311768, 4806.7686557769775, 4766.563892364502, 4795.310497283936, 5386.147975921631, 4804.272651672363, 5085.454940795898, 5042.134761810303, 4830.517768859863, 4833.844900131226, 4869.56000328064, 5353.932857513428, 4989.315748214722, 4840.187072753906, 4961.1968994140625, 5077.325820922852, 4910.355567932129, 4826.076984405518, 4842.8955078125, 4869.362354278564, 4839.015007019043, 5082.5514793396],
  "Optimizer durations [ms]": [40111.811, 39659.668, 41214.304, 49038.137, 40343.932, 40259.989, 59883.751, 39999.658, 39368.556, 39937.644, 60148.778, 61147.606, 59262.464, 40010.451, 49666.941, 50573.157, 60092.929, 39488.412, 39707.689, 39886.966, 40138.577, 70590.299, 40290.492, 69909.053, 39056.547, 40615.193, 39238.209, 40058.997, 41292.836, 39326.623, 40654.411, 100781.503, 38984.441, 39848.922, 39675.995, 40275.754, 39769.46, 40174.202, 40221.578, 39599.552, 39554.43, 40370.475, 40930.262, 39585.52, 39234.82, 40119.213, 40479.951, 40085.383, 39528.831, 40096.166, 39565.309, 40212.684, 40000.778, 40496.603],
  "Optimizer iterations": 54,
  "Qubits": 5,
  "Total Algorithm duration [s]": 2410.565,
  "Total Classic duration [s]": 2144.472011985779,
  "Total Quantum duration [s]": 266.0929880142212,
  "Expectation Value": -2.3641726970672607,
  "Optimal Expectation Value": -2.7446999549865723,
  "Optimizer params": [0.9899604200821025, 0.5181660030853514, 0.8756601770382193, 0.5094751736194523, 0.5670925058432519],
  "QPU": "4020020",
  "Problem": "RH",
  "Size": 5,
  "P": 0,
  "Shots": 4096
}