{
  "Circuit execution durations [ms]": [0.8168, 0.8463999999999999, 0.7938, 0.7940999999999999, 0.8122, 0.8029, 0.7924, 0.7956000000000001, 0.815, 0.7924, 0.8451, 0.8105, 0.8003, 0.7997, 0.8039, 0.8035, 0.8107, 0.8084, 0.7940999999999999, 0.7974, 0.8036, 0.8158, 0.7879, 0.8796999999999999, 0.7998999999999999, 0.7983, 0.8495, 0.8086, 0.8083, 0.8130999999999999, 0.9238999999999999, 0.794, 0.8026, 0.8125, 0.7947, 0.8032999999999999, 0.7928, 0.8122, 0.8101999999999999, 0.7983, 0.7931, 0.8677999999999999, 0.8233999999999999, 0.8022, 0.8, 0.8111, 0.8220000000000001, 0.8008, 0.8744, 0.8034, 0.8019000000000001, 0.8125, 0.8057, 0.8288, 0.8066, 0.8865000000000001, 0.8521, 0.8286, 0.8057, 0.8027000000000001, 0.8005, 0.8079, 0.7898000000000001, 0.8011, 0.8124, 0.804, 0.7948000000000001, 0.8113, 0.7985, 0.8562, 0.8176, 0.8001, 0.8151, 0.7963, 0.7954, 0.8231, 0.7996, 0.8067000000000001, 0.8104, 0.8011, 0.8029, 0.7879, 0.8080999999999999, 0.7969999999999999, 0.8107, 0.8059999999999999, 0.8007, 0.8143, 0.8, 0.8098, 0.7865, 0.8119, 0.7919, 0.8011999999999999, 0.8027000000000001, 0.8063, 0.8075, 0.8214, 0.8116, 0.8184, 0.7950999999999999, 0.7982, 0.8120999999999999, 0.8076, 0.8097, 0.7914, 0.8063, 0.7987],
  "Depth": 113.0,
  "Expectation Value": -7.608308792114258,
  "Optimal Expectation Value": -8.0,
  "Optimizer durations [ms]": [8.585, 9.153, 8.14, 8.58, 8.689, 8.669, 8.324, 8.617, 8.474, 8.464, 8.839, 8.792, 8.384, 8.521, 8.626, 8.313, 8.701, 8.417, 8.481, 8.559, 8.649, 8.534, 8.615, 9.235, 8.194, 8.874, 9.014, 8.588, 8.497, 8.714, 9.493, 8.537, 8.772, 8.441, 8.426, 8.744, 8.41, 8.608, 8.481, 8.44, 8.684, 9.235, 8.607, 8.347, 8.622, 8.811, 8.531, 8.742, 9.124, 8.542, 8.463, 8.708, 8.541, 8.55, 18.247, 14.141, 9.156, 8.888, 8.383, 8.683, 8.216, 8.649, 8.48, 8.76, 8.361, 8.658, 8.181, 8.906, 8.197, 9.32, 8.78, 8.22, 8.685, 8.515, 8.782, 8.609, 8.59, 8.59, 8.49, 8.597, 8.234, 8.41, 8.826, 8.435, 8.628, 8.727, 8.437, 8.572, 8.345, 8.903, 8.212, 8.44, 8.563, 8.626, 8.215, 8.606, 8.656, 8.687, 8.664, 8.753, 8.372, 8.376, 8.614, 8.641, 8.669, 8.162, 8.718, 8.255],
  "Optimizer iterations": 108,
  "Optimizer params": [0.9995282908160726, 0.21791019756144084, 0.16942786688220993, 0.8730488690654777, 0.27292273828555175, 0.32121445307061836],
  "P": 3,
  "Problem": "MCP",
  "QJob durations [ms]": [0.8168, 0.8463999999999999, 0.7938, 0.7940999999999999, 0.8122, 0.8029, 0.7924, 0.7956000000000001, 0.815, 0.7924, 0.8451, 0.8105, 0.8003, 0.7997, 0.8039, 0.8035, 0.8107, 0.8084, 0.7940999999999999, 0.7974, 0.8036, 0.8158, 0.7879, 0.8796999999999999, 0.7998999999999999, 0.7983, 0.8495, 0.8086, 0.8083, 0.8130999999999999, 0.9238999999999999, 0.794, 0.8026, 0.8125, 0.7947, 0.8032999999999999, 0.7928, 0.8122, 0.8101999999999999, 0.7983, 0.7931, 0.8677999999999999, 0.8233999999999999, 0.8022, 0.8, 0.8111, 0.8220000000000001, 0.8008, 0.8744, 0.8034, 0.8019000000000001, 0.8125, 0.8057, 0.8288, 0.8066, 0.8865000000000001, 0.8521, 0.8286, 0.8057, 0.8027000000000001, 0.8005, 0.8079, 0.7898000000000001, 0.8011, 0.8124, 0.804, 0.7948000000000001, 0.8113, 0.7985, 0.8562, 0.8176, 0.8001, 0.8151, 0.7963, 0.7954, 0.8231, 0.7996, 0.8067000000000001, 0.8104, 0.8011, 0.8029, 0.7879, 0.8080999999999999, 0.7969999999999999, 0.8107, 0.8059999999999999, 0.8007, 0.8143, 0.8, 0.8098, 0.7865, 0.8119, 0.7919, 0.8011999999999999, 0.8027000000000001, 0.8063, 0.8075, 0.8214, 0.8116, 0.8184, 0.7950999999999999, 0.7982, 0.8120999999999999, 0.8076, 0.8097, 0.7914, 0.8063, 0.7987],
  "QPU": "7000000",
  "Qubits": 6,
  "Queue durations [ms]": [0.0, 0.0, 0.0, 0.0, 0.0, 0.0, 0.0, 0.0, 0.0, 0.0, 0.0, 0.0, 0.0, 0.0, 0.0, 0.0, 0.0, 0.0, 0.0, 0.0, 0.0, 0.0, 0.0, 0.0, 0.0, 0.0, 0.0, 0.0, 0.0, 0.0, 0.0, 0.0, 0.0, 0.0, 0.0, 0.0, 0.0, 0.0, 0.0, 0.0, 0.0, 0.0, 0.0, 0.0, 0.0, 0.0, 0.0, 0.0, 0.0, 0.0, 0.0, 0.0, 0.0, 0.0, 0.0, 0.0, 0.0, 0.0, 0.0, 0.0, 0.0, 0.0, 0.0, 0.0, 0.0, 0.0, 0.0, 0.0, 0.0, 0.0, 0.0, 0.0, 0.0, 0.0, 0.0, 0.0, 0.0, 0.0, 0.0, 0.0, 0.0, 0.0, 0.0, 0.0, 0.0, 0.0, 0.0, 0.0, 0.0, 0.0, 0.0, 0.0, 0.0, 0.0, 0.0, 0.0, 0.0, 0.0, 0.0, 0.0, 0.0, 0.0, 0.0, 0.0, 0.0, 0.0, 0.0, 0.0],
  "Shots": 4096,
  "Size": 6,
  "Total Algorithm duration [s]": 0.944,
  "Total Classic duration [s]": 0.8564685,
  "Total Quantum duration [s]": 0.08753149999999997
}
