{
  "Circuit execution durations [ms]": [0.7387, 0.8107, 0.8029, 0.7854, 0.8047, 0.8087, 0.8053, 0.7996, 0.712, 0.7914, 0.8109000000000001, 0.8071, 0.8064, 0.9089, 0.8029, 0.8358, 0.983, 0.9571000000000001, 0.7996, 0.7987, 0.8053, 0.7921, 0.8053, 0.8189, 0.7976, 0.8267, 0.7913, 0.8011, 0.8058, 0.7933, 0.7891, 0.8097, 0.8009999999999999, 0.8168, 0.8381000000000001, 0.7987, 0.7986, 0.7988, 0.8105, 0.7988, 0.8119, 0.7969, 0.7971, 0.8767999999999999, 0.8066, 0.8067000000000001, 0.8139, 0.8148, 0.8014, 0.8585, 0.8074, 0.8136, 0.8085, 0.8122, 0.8130999999999999, 0.7971, 0.7950999999999999, 0.7935000000000001, 0.7924, 0.8006000000000001, 0.7966, 0.7982, 0.8006000000000001, 0.8138000000000001, 0.8057, 0.8026, 0.8268000000000001, 0.8024, 0.8128000000000001, 0.8143, 0.8015, 0.7925, 0.8038000000000001, 0.8216, 0.8037, 0.8021, 0.8158, 0.7969999999999999, 0.7988999999999999, 0.7783, 0.7984, 0.7983, 0.8035, 0.8120999999999999, 0.7986, 0.829, 0.8086, 0.7915, 0.803, 0.7994, 0.8011, 0.8007, 0.7961999999999999, 0.7867],
  "Depth": 113.0,
  "Expectation Value": -7.3471808433532715,
  "Optimal Expectation Value": -8.0,
  "Optimizer durations [ms]": [17.188, 8.915, 8.4, 8.483, 8.463, 8.729, 8.636, 8.425, 16.935, 8.714, 8.536, 8.565, 8.369, 9.888, 8.485, 9.032, 17.329, 16.029, 8.519, 8.531, 8.47, 8.436, 8.663, 8.517, 8.705, 8.536, 8.655, 8.43, 8.59, 8.39, 8.442, 8.738, 8.424, 8.458, 8.905, 8.729, 8.191, 8.458, 8.817, 8.44, 8.769, 8.503, 8.604, 9.32, 8.465, 8.474, 8.796, 8.507, 8.608, 9.122, 8.517, 8.569, 8.495, 8.606, 8.86, 8.149, 8.529, 8.207, 8.683, 8.315, 8.415, 8.469, 8.678, 8.592, 8.505, 8.796, 8.792, 8.47, 8.754, 8.526, 8.453, 8.481, 8.629, 8.652, 8.662, 8.525, 8.744, 8.482, 8.159, 8.432, 8.606, 8.39, 8.399, 8.922, 8.144, 9.04, 8.443, 8.404, 8.543, 8.677, 8.187, 8.672, 8.329, 8.35],
  "Optimizer iterations": 94,
  "Optimizer params": [0.5740251946980774, 0.777729663641635, 0.4721723718624511, 0.6769947528063466, 0.8273892774343343, 0.688598869836246],
  "P": 3,
  "Problem": "MCP",
  "QJob durations [ms]": [0.7387, 0.8107, 0.8029, 0.7854, 0.8047, 0.8087, 0.8053, 0.7996, 0.712, 0.7914, 0.8109000000000001, 0.8071, 0.8064, 0.9089, 0.8029, 0.8358, 0.983, 0.9571000000000001, 0.7996, 0.7987, 0.8053, 0.7921, 0.8053, 0.8189, 0.7976, 0.8267, 0.7913, 0.8011, 0.8058, 0.7933, 0.7891, 0.8097, 0.8009999999999999, 0.8168, 0.8381000000000001, 0.7987, 0.7986, 0.7988, 0.8105, 0.7988, 0.8119, 0.7969, 0.7971, 0.8767999999999999, 0.8066, 0.8067000000000001, 0.8139, 0.8148, 0.8014, 0.8585, 0.8074, 0.8136, 0.8085, 0.8122, 0.8130999999999999, 0.7971, 0.7950999999999999, 0.7935000000000001, 0.7924, 0.8006000000000001, 0.7966, 0.7982, 0.8006000000000001, 0.8138000000000001, 0.8057, 0.8026, 0.8268000000000001, 0.8024, 0.8128000000000001, 0.8143, 0.8015, 0.7925, 0.8038000000000001, 0.8216, 0.8037, 0.8021, 0.8158, 0.7969999999999999, 0.7988999999999999, 0.7783, 0.7984, 0.7983, 0.8035, 0.8120999999999999, 0.7986, 0.829, 0.8086, 0.7915, 0.803, 0.7994, 0.8011, 0.8007, 0.7961999999999999, 0.7867],
  "QPU": "7000000",
  "Qubits": 6,
  "Queue durations [ms]": [0.0, 0.0, 0.0, 0.0, 0.0, 0.0, 0.0, 0.0, 0.0, 0.0, 0.0, 0.0, 0.0, 0.0, 0.0, 0.0, 0.0, 0.0, 0.0, 0.0, 0.0, 0.0, 0.0, 0.0, 0.0, 0.0, 0.0, 0.0, 0.0, 0.0, 0.0, 0.0, 0.0, 0.0, 0.0, 0.0, 0.0, 0.0, 0.0, 0.0, 0.0, 0.0, 0.0, 0.0, 0.0, 0.0, 0.0, 0.0, 0.0, 0.0, 0.0, 0.0, 0.0, 0.0, 0.0, 0.0, 0.0, 0.0, 0.0, 0.0, 0.0, 0.0, 0.0, 0.0, 0.0, 0.0, 0.0, 0.0, 0.0, 0.0, 0.0, 0.0, 0.0, 0.0, 0.0, 0.0, 0.0, 0.0, 0.0, 0.0, 0.0, 0.0, 0.0, 0.0, 0.0, 0.0, 0.0, 0.0, 0.0, 0.0, 0.0, 0.0, 0.0, 0.0],
  "Shots": 4096,
  "Size": 6,
  "Total Algorithm duration [s]": 0.839,
  "Total Classic duration [s]": 0.7629984999999999,
  "Total Quantum duration [s]": 0.0760015
}
