{
  "Circuit execution durations [ms]": [0.8356, 0.7988999999999999, 0.8176, 0.8208, 0.8109999999999999, 0.8138000000000001, 0.8015, 0.8166, 0.8045, 0.8124, 0.7998999999999999, 0.8048000000000001, 0.8059000000000001, 0.8002, 0.8127, 0.8101, 0.8120999999999999, 0.7990999999999999, 0.799, 0.8085, 1.0422, 0.782, 1.0288000000000002, 0.7879, 0.7923, 0.8056, 0.8108, 0.8763, 0.8074, 0.7987, 0.8109000000000001, 0.7932, 0.8064, 0.8038000000000001, 0.8039, 0.7966, 0.8339000000000001, 0.7915, 0.8151999999999999, 0.7942, 0.8054, 0.8079, 0.794, 0.8155, 0.7995, 0.8059000000000001, 0.8011, 0.8677999999999999, 0.8083, 0.8120999999999999, 0.8112, 0.8092, 0.8038000000000001, 0.7888, 0.8166, 0.7958000000000001, 0.8400000000000001, 0.7929999999999999, 0.8176, 0.7902, 0.8048000000000001, 0.7977000000000001, 0.7988999999999999, 0.8051, 0.7886, 0.8147, 0.7985, 0.8096, 0.8101999999999999, 0.8096, 0.8119, 0.8055, 0.8059999999999999, 0.8034, 0.7958000000000001, 0.8030999999999999, 0.8112, 0.7900999999999999, 0.7985, 0.7925, 0.8063, 0.8004, 0.8021, 0.7990999999999999, 0.7896, 0.7973, 0.8107, 0.8130000000000001, 0.8073, 0.804, 0.8402000000000001, 0.8096, 0.8159000000000001, 0.8616, 0.7963, 0.8167, 0.7856, 0.8168, 0.8133, 0.8209, 0.7896, 0.796, 0.8057, 0.8044, 0.8122, 0.7927000000000001, 0.8654999999999999, 0.8196],
  "Depth": 113.0,
  "Expectation Value": -7.668148040771484,
  "Optimal Expectation Value": -8.0,
  "Optimizer durations [ms]": [9.022, 8.544, 8.532, 8.584, 8.627, 8.891, 8.235, 8.768, 8.745, 8.354, 8.587, 8.528, 8.485, 8.72, 8.598, 8.523, 8.566, 8.603, 8.398, 8.623, 11.057, 17.95, 13.092, 8.644, 8.334, 8.294, 8.651, 9.377, 8.255, 8.672, 8.489, 8.625, 8.58, 8.429, 8.595, 8.353, 8.961, 8.313, 8.777, 8.173, 9.013, 8.41, 8.629, 8.379, 8.634, 8.563, 8.66, 9.229, 8.629, 8.562, 8.749, 8.3, 8.885, 8.066, 8.656, 8.387, 9.053, 8.627, 8.777, 8.356, 8.563, 8.163, 8.664, 8.405, 9.545, 8.821, 8.372, 8.69, 8.654, 8.375, 8.886, 8.296, 8.834, 8.378, 8.453, 8.792, 8.524, 8.34, 8.297, 8.743, 8.634, 8.394, 8.277, 8.563, 8.522, 8.502, 8.497, 8.623, 8.583, 8.527, 8.834, 8.512, 8.734, 8.898, 8.785, 8.39, 8.696, 8.359, 8.584, 9.023, 8.111, 8.493, 8.58, 8.792, 8.382, 8.702, 8.973, 8.729],
  "Optimizer iterations": 108,
  "Optimizer params": [0.6411981330232168, 0.1264850331391695, 0.6987621924497418, 0.8733619899739671, 0.6490083493270148, 0.19878361629970567],
  "P": 3,
  "Problem": "MCP",
  "QJob durations [ms]": [0.8356, 0.7988999999999999, 0.8176, 0.8208, 0.8109999999999999, 0.8138000000000001, 0.8015, 0.8166, 0.8045, 0.8124, 0.7998999999999999, 0.8048000000000001, 0.8059000000000001, 0.8002, 0.8127, 0.8101, 0.8120999999999999, 0.7990999999999999, 0.799, 0.8085, 1.0422, 0.782, 1.0288000000000002, 0.7879, 0.7923, 0.8056, 0.8108, 0.8763, 0.8074, 0.7987, 0.8109000000000001, 0.7932, 0.8064, 0.8038000000000001, 0.8039, 0.7966, 0.8339000000000001, 0.7915, 0.8151999999999999, 0.7942, 0.8054, 0.8079, 0.794, 0.8155, 0.7995, 0.8059000000000001, 0.8011, 0.8677999999999999, 0.8083, 0.8120999999999999, 0.8112, 0.8092, 0.8038000000000001, 0.7888, 0.8166, 0.7958000000000001, 0.8400000000000001, 0.7929999999999999, 0.8176, 0.7902, 0.8048000000000001, 0.7977000000000001, 0.7988999999999999, 0.8051, 0.7886, 0.8147, 0.7985, 0.8096, 0.8101999999999999, 0.8096, 0.8119, 0.8055, 0.8059999999999999, 0.8034, 0.7958000000000001, 0.8030999999999999, 0.8112, 0.7900999999999999, 0.7985, 0.7925, 0.8063, 0.8004, 0.8021, 0.7990999999999999, 0.7896, 0.7973, 0.8107, 0.8130000000000001, 0.8073, 0.804, 0.8402000000000001, 0.8096, 0.8159000000000001, 0.8616, 0.7963, 0.8167, 0.7856, 0.8168, 0.8133, 0.8209, 0.7896, 0.796, 0.8057, 0.8044, 0.8122, 0.7927000000000001, 0.8654999999999999, 0.8196],
  "QPU": "7000000",
  "Qubits": 6,
  "Queue durations [ms]": [0.0, 0.0, 0.0, 0.0, 0.0, 0.0, 0.0, 0.0, 0.0, 0.0, 0.0, 0.0, 0.0, 0.0, 0.0, 0.0, 0.0, 0.0, 0.0, 0.0, 0.0, 0.0, 0.0, 0.0, 0.0, 0.0, 0.0, 0.0, 0.0, 0.0, 0.0, 0.0, 0.0, 0.0, 0.0, 0.0, 0.0, 0.0, 0.0, 0.0, 0.0, 0.0, 0.0, 0.0, 0.0, 0.0, 0.0, 0.0, 0.0, 0.0, 0.0, 0.0, 0.0, 0.0, 0.0, 0.0, 0.0, 0.0, 0.0, 0.0, 0.0, 0.0, 0.0, 0.0, 0.0, 0.0, 0.0, 0.0, 0.0, 0.0, 0.0, 0.0, 0.0, 0.0, 0.0, 0.0, 0.0, 0.0, 0.0, 0.0, 0.0, 0.0, 0.0, 0.0, 0.0, 0.0, 0.0, 0.0, 0.0, 0.0, 0.0, 0.0, 0.0, 0.0, 0.0, 0.0, 0.0, 0.0, 0.0, 0.0, 0.0, 0.0, 0.0, 0.0, 0.0, 0.0, 0.0, 0.0],
  "Shots": 4096,
  "Size": 6,
  "Total Algorithm duration [s]": 0.944,
  "Total Classic duration [s]": 0.8563016,
  "Total Quantum duration [s]": 0.0876984
}
