{
  "Circuit execution durations [ms]": [0.7933, 0.8176, 0.7984, 0.804, 0.7817, 0.9508, 0.8521, 0.7946, 0.723, 0.804, 0.8462, 0.7952, 0.8824, 0.8008, 1.032, 0.7897, 0.7895000000000001, 0.9217, 0.7192000000000001, 0.8034, 0.8991, 0.8043, 0.8071, 0.9052, 0.7913, 1.0904, 0.7751, 0.8032, 0.7945, 0.8644, 0.8056, 1.032, 0.8244, 0.8194, 0.9908, 0.9606, 0.8122, 0.8151, 0.8233, 0.7858, 0.8075, 0.8027000000000001, 0.8018, 0.7905, 0.8085, 0.8165, 0.7937000000000001, 0.8162, 0.8139, 0.8140000000000001, 0.8207000000000001, 0.7900999999999999, 0.8172999999999999, 0.8067000000000001, 0.8046000000000001, 0.8003, 0.7908000000000001, 0.804, 0.8113, 0.7762, 0.8141999999999999, 0.8091, 0.8025, 0.8080999999999999, 0.7957, 0.8151, 0.7972, 0.8130000000000001, 0.8101, 0.8034, 0.8577, 0.8035, 0.7992, 0.8030999999999999, 0.8074, 0.7863, 0.7933, 0.8162999999999999, 0.7944, 0.8262, 0.8004, 0.7936, 0.7998999999999999, 0.7961999999999999, 0.8058, 0.7948000000000001, 0.8162999999999999, 0.796, 0.808, 0.7841, 0.7814, 0.7918, 0.8672000000000001, 0.8024, 0.8027000000000001, 0.8, 0.8027000000000001],
  "Depth": 113.0,
  "Expectation Value": -7.782823085784912,
  "Optimal Expectation Value": -8.0,
  "Optimizer durations [ms]": [8.465, 8.597, 8.374, 8.816, 8.09, 15.365, 8.926, 8.687, 15.877, 8.807, 8.938, 8.472, 9.328, 8.209, 10.911, 8.511, 8.386, 9.894, 14.446, 8.541, 9.483, 8.415, 11.155, 9.443, 8.366, 11.591, 15.137, 8.347, 8.651, 9.006, 8.528, 10.822, 8.803, 17.209, 14.205, 9.9, 8.946, 8.337, 8.858, 8.54, 8.437, 8.486, 8.696, 8.132, 10.878, 8.808, 8.627, 8.537, 8.677, 8.553, 8.58, 8.537, 8.838, 8.545, 8.356, 8.631, 8.295, 8.842, 8.622, 8.192, 8.667, 8.377, 8.75, 8.396, 8.505, 8.753, 8.198, 8.913, 8.33, 8.849, 9.13, 8.531, 8.352, 8.65, 8.553, 8.172, 8.701, 8.45, 8.652, 8.451, 8.881, 8.217, 8.471, 8.705, 8.41, 8.558, 8.714, 8.524, 8.311, 8.587, 8.322, 8.479, 8.883, 8.586, 8.645, 8.328, 8.453],
  "Optimizer iterations": 97,
  "Optimizer params": [0.39654489108178365, 0.35780755294256233, 0.17721059136995576, 0.4270643583672102, 0.8231203706276696, 0.3879194948502575],
  "P": 3,
  "Problem": "MCP",
  "QJob durations [ms]": [0.7933, 0.8176, 0.7984, 0.804, 0.7817, 0.9508, 0.8521, 0.7946, 0.723, 0.804, 0.8462, 0.7952, 0.8824, 0.8008, 1.032, 0.7897, 0.7895000000000001, 0.9217, 0.7192000000000001, 0.8034, 0.8991, 0.8043, 0.8071, 0.9052, 0.7913, 1.0904, 0.7751, 0.8032, 0.7945, 0.8644, 0.8056, 1.032, 0.8244, 0.8194, 0.9908, 0.9606, 0.8122, 0.8151, 0.8233, 0.7858, 0.8075, 0.8027000000000001, 0.8018, 0.7905, 0.8085, 0.8165, 0.7937000000000001, 0.8162, 0.8139, 0.8140000000000001, 0.8207000000000001, 0.7900999999999999, 0.8172999999999999, 0.8067000000000001, 0.8046000000000001, 0.8003, 0.7908000000000001, 0.804, 0.8113, 0.7762, 0.8141999999999999, 0.8091, 0.8025, 0.8080999999999999, 0.7957, 0.8151, 0.7972, 0.8130000000000001, 0.8101, 0.8034, 0.8577, 0.8035, 0.7992, 0.8030999999999999, 0.8074, 0.7863, 0.7933, 0.8162999999999999, 0.7944, 0.8262, 0.8004, 0.7936, 0.7998999999999999, 0.7961999999999999, 0.8058, 0.7948000000000001, 0.8162999999999999, 0.796, 0.808, 0.7841, 0.7814, 0.7918, 0.8672000000000001, 0.8024, 0.8027000000000001, 0.8, 0.8027000000000001],
  "QPU": "7000000",
  "Qubits": 6,
  "Queue durations [ms]": [0.0, 0.0, 0.0, 0.0, 0.0, 0.0, 0.0, 0.0, 0.0, 0.0, 0.0, 0.0, 0.0, 0.0, 0.0, 0.0, 0.0, 0.0, 0.0, 0.0, 0.0, 0.0, 0.0, 0.0, 0.0, 0.0, 0.0, 0.0, 0.0, 0.0, 0.0, 0.0, 0.0, 0.0, 0.0, 0.0, 0.0, 0.0, 0.0, 0.0, 0.0, 0.0, 0.0, 0.0, 0.0, 0.0, 0.0, 0.0, 0.0, 0.0, 0.0, 0.0, 0.0, 0.0, 0.0, 0.0, 0.0, 0.0, 0.0, 0.0, 0.0, 0.0, 0.0, 0.0, 0.0, 0.0, 0.0, 0.0, 0.0, 0.0, 0.0, 0.0, 0.0, 0.0, 0.0, 0.0, 0.0, 0.0, 0.0, 0.0, 0.0, 0.0, 0.0, 0.0, 0.0, 0.0, 0.0, 0.0, 0.0, 0.0, 0.0, 0.0, 0.0, 0.0, 0.0, 0.0, 0.0],
  "Shots": 4096,
  "Size": 6,
  "Total Algorithm duration [s]": 0.889,
  "Total Classic duration [s]": 0.8094102,
  "Total Quantum duration [s]": 0.07958980000000002
}
