{
  "Circuit execution durations [ms]": [0.8233, 0.8115, 0.8098, 0.8117000000000001, 0.809, 0.8228000000000001, 0.7969, 0.8595999999999999, 0.819, 0.7958000000000001, 0.8145, 0.8027000000000001, 0.8006000000000001, 0.8014, 0.8175, 0.8166, 0.8108, 0.7958000000000001, 0.8187, 0.8354, 0.8068, 0.821, 0.8072, 0.8307, 0.8133, 0.8407, 0.8053, 0.8204, 0.8151999999999999, 0.7924, 0.9223, 0.7998999999999999, 0.894, 0.8180000000000001, 0.8007, 0.9068999999999999, 0.7955, 0.7885, 0.9172, 0.7973, 1.0399999999999998, 0.8062, 0.8099999999999999, 0.9245, 0.8289000000000001, 0.8302999999999999, 0.8889, 0.7997, 1.092, 0.8608, 0.7985, 1.0371, 0.7605999999999999, 0.829, 0.7958000000000001, 0.8562, 0.8032, 0.9529, 0.7992, 0.7846, 0.7545, 1.0571000000000002, 0.8151, 0.7983, 0.8058, 0.8016, 0.8180999999999999, 0.7978, 0.8245, 0.8107, 0.8048000000000001, 0.844, 0.7919, 0.8101, 0.8145, 0.8261, 0.8326, 0.7868, 0.8157000000000001, 0.8001, 0.8267, 0.7887000000000001],
  "Depth": 113.0,
  "Expectation Value": -7.838423728942871,
  "Optimal Expectation Value": -8.0,
  "Optimizer durations [ms]": [8.767, 8.443, 8.571, 8.653, 8.331, 8.901, 8.341, 9.015, 8.808, 8.514, 8.334, 9.259, 8.522, 8.321, 8.747, 8.558, 8.945, 8.32, 8.617, 8.829, 8.711, 8.658, 8.645, 8.762, 8.463, 11.164, 8.797, 8.415, 8.658, 8.536, 9.916, 8.627, 9.161, 8.812, 13.167, 9.469, 8.662, 10.208, 9.666, 8.454, 11.012, 8.588, 8.597, 9.677, 13.395, 8.822, 9.442, 8.423, 11.569, 8.806, 8.658, 10.961, 16.241, 8.704, 8.412, 9.257, 8.533, 9.931, 8.564, 16.538, 14.228, 11.235, 8.634, 8.407, 8.646, 8.462, 8.409, 8.654, 8.925, 8.666, 10.875, 8.974, 8.36, 8.596, 8.388, 8.773, 8.735, 8.38, 8.789, 8.158, 8.928, 8.655],
  "Optimizer iterations": 82,
  "Optimizer params": [0.1261267941459576, 0.9526093789737811, 0.6644829176907294, 0.6332311905986765, 0.7772199697122967, 0.4737089277147654],
  "P": 3,
  "Problem": "MCP",
  "QJob durations [ms]": [0.8233, 0.8115, 0.8098, 0.8117000000000001, 0.809, 0.8228000000000001, 0.7969, 0.8595999999999999, 0.819, 0.7958000000000001, 0.8145, 0.8027000000000001, 0.8006000000000001, 0.8014, 0.8175, 0.8166, 0.8108, 0.7958000000000001, 0.8187, 0.8354, 0.8068, 0.821, 0.8072, 0.8307, 0.8133, 0.8407, 0.8053, 0.8204, 0.8151999999999999, 0.7924, 0.9223, 0.7998999999999999, 0.894, 0.8180000000000001, 0.8007, 0.9068999999999999, 0.7955, 0.7885, 0.9172, 0.7973, 1.0399999999999998, 0.8062, 0.8099999999999999, 0.9245, 0.8289000000000001, 0.8302999999999999, 0.8889, 0.7997, 1.092, 0.8608, 0.7985, 1.0371, 0.7605999999999999, 0.829, 0.7958000000000001, 0.8562, 0.8032, 0.9529, 0.7992, 0.7846, 0.7545, 1.0571000000000002, 0.8151, 0.7983, 0.8058, 0.8016, 0.8180999999999999, 0.7978, 0.8245, 0.8107, 0.8048000000000001, 0.844, 0.7919, 0.8101, 0.8145, 0.8261, 0.8326, 0.7868, 0.8157000000000001, 0.8001, 0.8267, 0.7887000000000001],
  "QPU": "7000000",
  "Qubits": 6,
  "Queue durations [ms]": [0.0, 0.0, 0.0, 0.0, 0.0, 0.0, 0.0, 0.0, 0.0, 0.0, 0.0, 0.0, 0.0, 0.0, 0.0, 0.0, 0.0, 0.0, 0.0, 0.0, 0.0, 0.0, 0.0, 0.0, 0.0, 0.0, 0.0, 0.0, 0.0, 0.0, 0.0, 0.0, 0.0, 0.0, 0.0, 0.0, 0.0, 0.0, 0.0, 0.0, 0.0, 0.0, 0.0, 0.0, 0.0, 0.0, 0.0, 0.0, 0.0, 0.0, 0.0, 0.0, 0.0, 0.0, 0.0, 0.0, 0.0, 0.0, 0.0, 0.0, 0.0, 0.0, 0.0, 0.0, 0.0, 0.0, 0.0, 0.0, 0.0, 0.0, 0.0, 0.0, 0.0, 0.0, 0.0, 0.0, 0.0, 0.0, 0.0, 0.0, 0.0, 0.0],
  "Shots": 4096,
  "Size": 6,
  "Total Algorithm duration [s]": 0.761,
  "Total Classic duration [s]": 0.6928094,
  "Total Quantum duration [s]": 0.0681906
}
