{
  "Circuit execution durations [ms]": [0.8055, 0.8124, 0.9016000000000001, 0.8003, 1.1081, 0.8782, 0.8064, 1.0623, 0.8179, 0.8134, 0.8549, 0.8045, 0.9027, 0.8088000000000001, 0.7352, 0.8074, 0.8885, 0.8128000000000001, 1.0479, 0.8047, 0.8009999999999999, 0.9035, 0.9127000000000001, 0.8011, 0.8147, 0.8091, 0.8119, 0.8985, 0.804, 1.1771, 0.7926, 1.0731, 0.7858999999999999, 0.7998999999999999, 0.8107, 0.8195, 0.8689, 0.8432, 0.8099999999999999, 0.8174, 0.8049, 0.7833, 0.7929999999999999, 0.8103, 0.7911, 0.7916000000000001, 0.8143999999999999, 0.8220999999999999, 0.8186, 0.7852, 0.8105, 0.8028, 0.7965, 0.8117000000000001, 0.7972, 0.8035, 0.8024, 0.8044, 0.7969999999999999, 0.8367, 0.8178000000000001, 0.7829999999999999, 0.7995, 0.8047, 0.8494, 0.799, 0.7895000000000001, 0.796, 0.7983, 0.8146, 0.8019999999999999, 0.8066, 0.8025, 0.7958999999999999, 0.7973, 0.8075, 0.8199000000000001, 0.7931, 0.8104, 0.7953, 0.8074, 0.7883, 0.7893, 0.7912, 0.8059999999999999, 0.8022, 0.8531, 0.8008, 0.7861, 0.7961],
  "Depth": 113.0,
  "Expectation Value": -7.7430830001831055,
  "Optimal Expectation Value": -8.0,
  "Optimizer durations [ms]": [8.704, 11.165, 9.703, 8.179, 11.866, 9.346, 8.54, 11.002, 8.595, 8.772, 8.772, 8.563, 9.624, 8.685, 17.325, 9.931, 9.776, 8.337, 10.948, 8.76, 8.448, 9.236, 16.854, 8.542, 9.715, 8.307, 9.397, 9.397, 8.516, 12.418, 18.04, 11.961, 8.718, 8.395, 8.449, 8.799, 9.254, 8.709, 13.612, 8.564, 8.719, 8.38, 8.123, 8.504, 8.387, 8.581, 8.816, 8.692, 8.593, 8.335, 8.715, 8.497, 8.578, 8.304, 8.567, 8.691, 8.539, 8.684, 8.371, 8.929, 8.599, 10.935, 8.545, 8.683, 8.7, 8.33, 8.832, 8.178, 8.587, 8.631, 8.556, 8.378, 8.755, 8.504, 8.501, 8.727, 8.66, 8.462, 8.683, 8.28, 8.685, 8.193, 8.333, 8.561, 8.555, 8.538, 8.974, 8.591, 8.159, 8.579],
  "Optimizer iterations": 90,
  "Optimizer params": [0.9965078974023903, 0.7499652787926031, 0.1165776732330766, 0.18126080510163992, 0.09062272961135295, 0.8663788208100679],
  "P": 3,
  "Problem": "MCP",
  "QJob durations [ms]": [0.8055, 0.8124, 0.9016000000000001, 0.8003, 1.1081, 0.8782, 0.8064, 1.0623, 0.8179, 0.8134, 0.8549, 0.8045, 0.9027, 0.8088000000000001, 0.7352, 0.8074, 0.8885, 0.8128000000000001, 1.0479, 0.8047, 0.8009999999999999, 0.9035, 0.9127000000000001, 0.8011, 0.8147, 0.8091, 0.8119, 0.8985, 0.804, 1.1771, 0.7926, 1.0731, 0.7858999999999999, 0.7998999999999999, 0.8107, 0.8195, 0.8689, 0.8432, 0.8099999999999999, 0.8174, 0.8049, 0.7833, 0.7929999999999999, 0.8103, 0.7911, 0.7916000000000001, 0.8143999999999999, 0.8220999999999999, 0.8186, 0.7852, 0.8105, 0.8028, 0.7965, 0.8117000000000001, 0.7972, 0.8035, 0.8024, 0.8044, 0.7969999999999999, 0.8367, 0.8178000000000001, 0.7829999999999999, 0.7995, 0.8047, 0.8494, 0.799, 0.7895000000000001, 0.796, 0.7983, 0.8146, 0.8019999999999999, 0.8066, 0.8025, 0.7958999999999999, 0.7973, 0.8075, 0.8199000000000001, 0.7931, 0.8104, 0.7953, 0.8074, 0.7883, 0.7893, 0.7912, 0.8059999999999999, 0.8022, 0.8531, 0.8008, 0.7861, 0.7961],
  "QPU": "7000000",
  "Qubits": 6,
  "Queue durations [ms]": [0.0, 0.0, 0.0, 0.0, 0.0, 0.0, 0.0, 0.0, 0.0, 0.0, 0.0, 0.0, 0.0, 0.0, 0.0, 0.0, 0.0, 0.0, 0.0, 0.0, 0.0, 0.0, 0.0, 0.0, 0.0, 0.0, 0.0, 0.0, 0.0, 0.0, 0.0, 0.0, 0.0, 0.0, 0.0, 0.0, 0.0, 0.0, 0.0, 0.0, 0.0, 0.0, 0.0, 0.0, 0.0, 0.0, 0.0, 0.0, 0.0, 0.0, 0.0, 0.0, 0.0, 0.0, 0.0, 0.0, 0.0, 0.0, 0.0, 0.0, 0.0, 0.0, 0.0, 0.0, 0.0, 0.0, 0.0, 0.0, 0.0, 0.0, 0.0, 0.0, 0.0, 0.0, 0.0, 0.0, 0.0, 0.0, 0.0, 0.0, 0.0, 0.0, 0.0, 0.0, 0.0, 0.0, 0.0, 0.0, 0.0, 0.0],
  "Shots": 4096,
  "Size": 6,
  "Total Algorithm duration [s]": 0.831,
  "Total Classic duration [s]": 0.7563917,
  "Total Quantum duration [s]": 0.07460829999999999
}
