{
  "Depth": 2.0,
  "Job durations [ms]": [0.24009999469853938, 0.13939999917056412, 0.14015000124345534, 0.13390000094659626, 0.1247000000148546, 0.13809999654768035, 0.15065000116010197, 0.13424999997369014, 0.203800002054777, 0.14060000103199854, 0.1335500019195024, 0.13064999802736565, 0.1384999995934777, 0.1348999976471532, 0.14210000153980218, 0.2233500053989701, 0.15965000056894496, 0.13350000153877772, 0.25189999360009097, 0.143299996125279, 0.29620000714203343, 0.20975000370526686, 0.1417500025127083, 0.13839999883202836, 0.13499999477062374, 0.176650002686074, 0.1360000023851171, 0.13375000344240107, 0.130749998788815, 0.20200000290060416, 0.14090000331634656, 0.13860000399290584, 0.13339999713934958, 0.13019999823882245, 0.13970000145491213, 0.13659999967785552, 0.13309999849298038, 0.13224999929661863, 0.19440000687609427, 0.14044999988982454, 0.14575000022887252, 0.13649999891640618, 0.15824999718461186, 0.13929999840911478, 0.12960000094608404, 0.13324999599717557, 0.1630000042496249, 0.13255000158096664, 0.13625000065076165, 0.13449999823933467, 0.13815000056638382, 0.14114999794401228, 0.1355500025965739, 0.13410000246949494, 0.1388000018778257, 0.1330499981122557, 0.13270000272314064, 0.13485000454238616, 0.16714999946998432, 0.13654999929713085, 0.13254999794298783, 0.13760000001639128, 0.15954999980749562, 0.13434999709716067, 0.13564999972004443, 0.22595000336878002, 0.15410000196425244, 0.13624999701278284, 0.14620000001741573, 0.19254999642726034, 0.1359999987471383, 0.13720000060857274, 0.1549500011606142, 0.13195000428822823, 0.17449999722884968, 0.13544999819714576, 0.17019999722833745, 0.1642499992158264, 0.14324999938253313, 0.13320000289240852, 0.13534999743569642, 0.1328999969700817, 0.16655000217724591, 0.13479999688570388, 0.14930000179447234, 0.13409999883151613, 0.13280000348458998, 0.1562000034027733, 0.14504999853670597, 0.13875000149710104, 0.13965000107418746, 0.16795000556157902, 0.14519999967887998, 0.1369500023429282, 0.13444999785861, 0.14045000352780335, 0.1362000039080158, 0.1447000031475909, 0.170899998920504, 0.17409999782103114, 0.13165000200388022, 0.13035000301897526, 0.1307500024267938, 0.12909999713883735, 0.12645000242628157, 0.13664999642060138, 0.14474999625235796, 0.15824999718461186, 0.14569999984814785, 0.13944999591330998, 0.1378499982820358, 0.3361000053700991, 0.13424999997369014, 0.13750000289292075, 0.1627000019652769, 0.18224999803351238, 0.13884999862057157, 0.13720000424655154, 0.1321499985351693, 0.13690000196220353, 0.1400499968440272, 0.14170000213198364, 0.14569999621016905, 0.17624999600229785, 0.17250000382773578, 0.14184999963617884, 0.13580000086221844, 0.17055000353138894, 0.13374999980442226, 0.13654999929713085, 0.13969999781693332, 0.1707500014163088, 0.13609999950858764, 0.20280000171624124, 0.13450000187731348],
  "Optimizer durations [ms]": [5.756, 4.2, 4.009, 3.738, 6.82, 16.531, 4.665, 3.727, 5.453, 3.997, 3.691, 4.995, 6.062, 3.618, 3.919, 5.527, 4.379, 3.653, 5.928, 17.315, 7.244, 6.277, 4.219, 4.207, 5.155, 8.891, 3.779, 4.249, 3.603, 5.067, 3.964, 3.826, 3.669, 4.143, 4.916, 3.797, 3.621, 3.711, 5.288, 3.976, 4.009, 3.985, 4.509, 3.833, 3.652, 3.737, 4.237, 3.629, 3.837, 3.642, 5.254, 3.89, 3.832, 3.665, 4.528, 3.751, 3.697, 3.989, 4.531, 4.614, 3.646, 3.72, 4.276, 3.778, 3.796, 5.373, 4.255, 3.804, 4.033, 4.923, 4.335, 3.838, 4.193, 3.617, 4.58, 3.812, 4.458, 4.174, 4.554, 3.678, 3.734, 3.633, 4.353, 3.749, 4.0, 3.647, 3.748, 4.192, 3.893, 4.032, 3.819, 4.391, 4.168, 3.74, 3.649, 3.941, 3.72, 3.959, 4.405, 4.716, 3.572, 3.545, 3.562, 3.64, 6.925, 16.531, 4.383, 6.188, 4.177, 3.961, 3.845, 7.283, 3.868, 3.73, 4.364, 4.769, 3.846, 3.963, 3.617, 3.806, 3.777, 4.184, 4.052, 4.545, 4.509, 3.882, 3.789, 4.463, 3.732, 3.969, 3.904, 4.44, 3.776, 5.151, 3.884],
  "Optimizer iterations": 135,
  "Qubits": 8,
  "Total Algorithm duration [s]": 0.616,
  "Total Classic duration [s]": 0.5957026499654748,
  "Total Quantum duration [s]": 0.020297350034525152,
  "Expectation Value": -4.610499858856201,
  "Optimal Expectation Value": -4.610499858856201,
  "Optimizer params": [0.9997188340031216, 0.5001708461143534, 0.9999999999999999, 0.4997347151089435, 0.49753426392942984, 1.0, 0.4970611034921385, 0.4952488769753376],
  "QPU": "7000000",
  "Problem": "RH",
  "Size": 8,
  "P": 0,
  "Shots": 4096
}