{
  "Depth": 4.5,
  "Job durations [ms]": [5.39398193359375, 5.195379257202148, 5.317926406860352, 5.268096923828125, 5.2841901779174805, 5.276679992675781, 5.223512649536133, 5.210638046264648, 5.437970161437988, 5.190372467041016, 5.284667015075684, 5.187392234802246, 5.1757097244262695, 5.158662796020508, 5.291581153869629, 5.1642656326293945, 5.343437194824219, 5.166888236999512, 5.229711532592773, 5.155682563781738, 5.183577537536621, 5.1528215408325195, 5.255937576293945, 5.285739898681641, 5.06281852722168, 5.341768264770508, 5.21540641784668, 5.23221492767334, 5.272388458251953, 6.303310394287109, 5.183696746826172, 5.207538604736328, 5.267858505249023, 5.220174789428711, 5.179882049560547, 5.286812782287598, 5.217790603637695],
  "Optimizer durations [ms]": [98.708, 146.233, 101.678, 101.705, 100.313, 146.568, 101.673, 102.041, 100.026, 147.257, 101.287, 101.087, 101.413, 147.493, 101.167, 100.566, 102.048, 100.097, 144.389, 106.772, 102.261, 100.998, 147.102, 101.677, 101.839, 100.828, 145.444, 99.201, 104.116, 113.62, 155.39, 101.595, 100.908, 100.81, 147.998, 101.598, 101.977],
  "Optimizer iterations": 37,
  "Qubits": 1,
  "Total Algorithm duration [s]": 4.179,
  "Total Classic duration [s]": 3.984173516273499,
  "Total Quantum duration [s]": 0.19482648372650146,
  "Expectation Value": -1.0,
  "Optimal Expectation Value": -1.0,
  "Optimizer params": [0.5, 0.5, 0.5, 0.5],
  "QPU": "3010008",
  "Problem": "IC",
  "Size": 1,
  "P": 0,
  "Shots": 4096
}