{
  "Circuit execution durations [ms]": [0.5961, 0.6468999999999999, 0.6419, 0.5877, 0.6893999999999999, 1.0388000000000002, 0.7789999999999999, 0.6805, 0.6056, 0.6348, 0.6034, 0.5934999999999999, 0.5904, 0.6528, 0.6166, 0.5959, 0.6053999999999999, 0.5865999999999999, 0.6127, 0.6444000000000001, 0.5947, 0.6780999999999999, 0.592, 0.6135999999999999, 0.5899, 0.6854, 0.5997, 0.5967, 0.5778, 0.5909, 0.6196, 0.6597000000000001, 0.6488, 0.583, 0.5871000000000001, 0.5987, 0.5942000000000001, 0.6057, 0.5918, 0.6016, 0.5838, 0.5851, 0.5955, 0.6441, 0.593, 0.5902999999999999, 0.6122000000000001, 0.6095999999999999, 0.5762, 0.8772, 0.8502, 0.9, 0.5869, 0.6443, 0.6002, 0.5884, 0.5950000000000001, 0.6336, 0.6111, 0.5897, 0.611, 0.6013999999999999, 0.5860000000000001, 0.5882, 0.6084, 0.6501, 0.5902000000000001, 0.5867, 0.5937, 0.5910000000000001, 0.7001000000000001],
  "Depth": 82.0,
  "Expectation Value": -1.0,
  "Optimal Expectation Value": -1.0,
  "Optimizer durations [ms]": [6.394, 6.938, 7.108, 6.584, 7.429, 10.673, 12.403, 7.402, 6.544, 6.85, 6.565, 6.129, 6.803, 6.821, 6.77, 6.557, 6.589, 6.331, 6.614, 6.637, 6.659, 7.232, 6.602, 6.447, 6.581, 7.473, 6.527, 6.388, 6.34, 6.394, 6.753, 7.125, 6.748, 6.471, 6.641, 6.327, 6.669, 6.501, 6.128, 6.83, 6.025, 6.399, 6.695, 6.84, 6.581, 6.334, 6.433, 6.663, 6.452, 9.164, 15.186, 13.387, 6.217, 7.224, 6.177, 7.222, 6.182, 6.891, 6.812, 6.445, 6.679, 6.549, 6.458, 6.167, 6.796, 7.14, 6.215, 6.583, 6.52, 6.372, 7.621],
  "Optimizer iterations": 71,
  "Optimizer params": [0.5348214176904884, 0.5129414200782776, 0.9990325718225542, 0.43641216002081645, 0.8041852561360866, 0.933794446188582],
  "P": 3,
  "Problem": "MIS",
  "QJob durations [ms]": [0.5961, 0.6468999999999999, 0.6419, 0.5877, 0.6893999999999999, 1.0388000000000002, 0.7789999999999999, 0.6805, 0.6056, 0.6348, 0.6034, 0.5934999999999999, 0.5904, 0.6528, 0.6166, 0.5959, 0.6053999999999999, 0.5865999999999999, 0.6127, 0.6444000000000001, 0.5947, 0.6780999999999999, 0.592, 0.6135999999999999, 0.5899, 0.6854, 0.5997, 0.5967, 0.5778, 0.5909, 0.6196, 0.6597000000000001, 0.6488, 0.583, 0.5871000000000001, 0.5987, 0.5942000000000001, 0.6057, 0.5918, 0.6016, 0.5838, 0.5851, 0.5955, 0.6441, 0.593, 0.5902999999999999, 0.6122000000000001, 0.6095999999999999, 0.5762, 0.8772, 0.8502, 0.9, 0.5869, 0.6443, 0.6002, 0.5884, 0.5950000000000001, 0.6336, 0.6111, 0.5897, 0.611, 0.6013999999999999, 0.5860000000000001, 0.5882, 0.6084, 0.6501, 0.5902000000000001, 0.5867, 0.5937, 0.5910000000000001, 0.7001000000000001],
  "QPU": "7000000",
  "Qubits": 4,
  "Queue durations [ms]": [0.0, 0.0, 0.0, 0.0, 0.0, 0.0, 0.0, 0.0, 0.0, 0.0, 0.0, 0.0, 0.0, 0.0, 0.0, 0.0, 0.0, 0.0, 0.0, 0.0, 0.0, 0.0, 0.0, 0.0, 0.0, 0.0, 0.0, 0.0, 0.0, 0.0, 0.0, 0.0, 0.0, 0.0, 0.0, 0.0, 0.0, 0.0, 0.0, 0.0, 0.0, 0.0, 0.0, 0.0, 0.0, 0.0, 0.0, 0.0, 0.0, 0.0, 0.0, 0.0, 0.0, 0.0, 0.0, 0.0, 0.0, 0.0, 0.0, 0.0, 0.0, 0.0, 0.0, 0.0, 0.0, 0.0, 0.0, 0.0, 0.0, 0.0, 0.0],
  "Shots": 4096,
  "Size": 3,
  "Total Algorithm duration [s]": 0.499,
  "Total Classic duration [s]": 0.4542154,
  "Total Quantum duration [s]": 0.04478460000000001
}
