{
  "Depth": 2.0,
  "Job durations [ms]": [8.78752488642931, 10.575803928077221, 12.079598382115364, 17.886565532535315, 18.788880202919245, 11.774345766752958, 10.083126369863749, 10.189489461481571, 9.669458493590355, 9.937140624970198, 13.340353965759277, 10.12428943067789, 8.663077373057604, 9.790394455194473, 8.55458527803421, 8.395290467888117, 14.783571939915419, 11.749693658202887, 8.283118717372417, 11.409598402678967, 9.97484102845192, 9.674117201939225, 14.512917026877403, 10.283060371875763, 8.09227186255157, 11.52443839237094, 12.01885798946023, 8.494020439684391, 7.9349856823682785, 13.134696520864964, 8.174187503755093, 9.827085305005312, 13.496709521859884, 11.34726544842124, 10.084740351885557, 10.201580822467804, 7.892752066254616, 17.156463116407394, 17.372718546539545, 10.001449845731258, 8.452391251921654, 8.42964043840766, 10.081198066473007, 9.969637263566256, 10.026126634329557, 10.054653510451317, 9.719464927911758, 8.26706551015377, 8.28474573791027, 13.375872280448675, 16.643787268549204, 10.011943522840738, 8.577287197113037, 8.60104663297534, 10.272194631397724, 9.68667445704341, 11.710623279213905, 10.3307431563735, 12.781895231455564, 8.13928130082786, 11.521500535309315, 9.863125160336494, 11.768139898777008, 13.214660808444023, 8.204404031857848, 13.127884361892939, 9.977270849049091, 8.329648990184069, 8.453445974737406, 17.617593053728342, 14.632439706474543, 8.577040396630764, 8.19446099922061, 11.628539301455021, 21.9564326107502, 8.59027961269021, 10.791338048875332, 17.13027013465762, 8.23687738738954, 9.848777670413256, 11.424172669649124, 7.761759916320443, 11.572796385735273, 8.517603389918804, 9.824498323723674, 10.105206165462732, 11.588713619858027, 11.741133406758308],
  "Optimizer durations [ms]": [16098.507, 45962.242, 14160.969, 14925.767, 28877.415, 74816.621, 22870.087, 19325.898, 55431.774, 16133.593, 14784.631, 16963.555, 79708.973, 16923.933, 14637.159, 15229.826, 92769.032, 15641.566, 98014.372, 68923.032, 17776.622, 15045.024, 16189.015, 14625.325, 15846.541, 78160.243, 16152.584, 30305.464, 75813.568, 16452.532, 15139.264, 84755.579, 14399.255, 15206.963, 14936.055, 14536.788, 67930.202, 23503.015, 16875.526, 15191.423, 14041.014, 78619.392, 16496.659, 71746.643, 35407.893, 83979.369, 13869.189, 14025.169, 82703.536, 16168.431, 19956.027, 39303.835, 41976.807, 15929.779, 13740.309, 14811.302, 15262.605, 72040.196, 15333.002, 16514.357, 77352.585, 52744.082, 17662.631, 54790.884, 18377.192, 98777.086, 18690.396, 22287.785, 21227.632, 92626.984, 15995.211, 15598.209, 15582.047, 75030.581, 78466.884, 16525.649, 13877.134, 15194.157, 69174.91, 14265.257, 13484.369, 13809.168, 15883.655, 74856.332, 14934.463, 17087.268, 75113.425, 15890.705],
  "Optimizer iterations": 88,
  "Qubits": 6,
  "Total Algorithm duration [s]": 3058.272,
  "Total Classic duration [s]": 3057.308318647908,
  "Total Quantum duration [s]": 0.9636813520919532,
  "Expectation Value": -3.592008590698242,
  "Optimal Expectation Value": -3.5925002098083496,
  "Optimizer params": [0.9994253383862629, 0.500427819161967, 0.9948207448148322, 0.5024620571231019, 0.5021464764426721, 0.9997754693732693],
  "QPU": "4010001",
  "Problem": "RH",
  "Size": 6,
  "P": 0,
  "Shots": 4096
}