{
  "Circuit execution durations [ms]": [18.0, 17.0, 21.0, 21.0, 15.0, 25.0, 18.0, 30.0, 21.0, 25.0, 56.0, 15.0, 16.0, 14.0, 28.0, 17.0, 22.0, 19.0, 25.0, 13.0, 25.0, 19.0, 25.0, 19.0, 33.0, 19.0, 22.0, 14.0, 19.0, 35.0, 28.0, 18.0, 20.0, 22.0, 22.0, 16.0, 34.0, 19.0, 21.0, 17.0, 32.0, 14.0, 22.0, 19.0, 21.0, 21.0, 15.0, 19.0, 22.0, 21.0, 24.0, 18.0, 20.0, 18.0, 90.0, 22.0, 18.0, 21.0, 23.0, 14.0, 19.0, 22.0, 23.0, 23.0, 34.0, 17.0, 34.0, 18.0, 30.0, 21.0, 20.0, 20.0, 16.0, 18.0, 22.0, 24.0, 21.0, 24.0, 24.0, 14.0, 20.0, 17.0, 23.0, 18.0, 30.0, 21.0, 22.0, 21.0, 13.0, 27.0, 21.0, 22.0, 25.0],
  "Depth": 59.0,
  "Expectation Value": -0.9990234375,
  "Optimal Expectation Value": -1.0,
  "Optimizer durations [ms]": [5854.562, 5859.501, 5830.391, 5869.223, 6017.218, 5956.081, 5902.315, 5833.683, 6053.292, 5840.424, 5928.116, 5909.828, 5880.243, 5912.383, 6028.369, 6069.225, 5914.723, 5826.525, 5953.273, 5877.856, 5885.331, 5917.643, 6427.828, 5824.818, 5896.87, 5892.027, 5790.186, 6013.326, 5919.917, 5836.073, 5853.4, 6032.518, 5875.229, 5856.561, 5861.446, 6105.31, 5833.439, 5924.701, 5936.593, 5902.012, 6016.93, 5787.143, 5949.277, 5893.324, 5849.166, 5874.717, 5858.281, 5862.307, 5848.069, 5849.211, 6052.151, 5812.782, 6073.853, 5876.19, 5905.689, 6101.138, 5845.825, 5865.587, 5911.385, 5827.522, 5901.296, 5853.77, 5874.38, 5882.76, 6087.319, 6079.718, 5913.726, 5904.098, 5899.439, 5875.594, 5867.524, 5825.064, 5840.041, 5923.872, 5835.82, 5821.441, 5895.24, 6148.899, 5897.802, 5962.569, 5954.745, 5905.716, 6016.864, 5835.814, 6071.304, 5833.708, 6084.681, 5856.241, 5913.498, 6105.831, 5806.705, 5886.812, 6020.8],
  "Optimizer iterations": 93,
  "Optimizer params": [0.9711346626519743, 0.07708436704512635, 0.12968424339163226, 0.4002641419781254, 1.0, 0.5216472610912597],
  "P": 3,
  "Problem": "DSP",
  "QJob durations [ms]": [5803.302526473999, 5798.297882080078, 5774.583101272583, 5812.063217163086, 5961.930990219116, 5898.0748653411865, 5844.144821166992, 5776.300430297852, 5938.999891281128, 5784.598827362061, 5872.54786491394, 5854.963541030884, 5822.135448455811, 5853.849411010742, 5969.913959503174, 6012.485027313232, 5857.460498809814, 5758.353471755981, 5896.624803543091, 5817.701816558838, 5830.638408660889, 5797.856092453003, 6371.7100620269775, 5765.144824981689, 5842.003345489502, 5835.6077671051025, 5733.293294906616, 5957.223176956177, 5865.368366241455, 5780.170440673828, 5794.417142868042, 5974.208116531372, 5818.947553634644, 5797.7776527404785, 5745.227575302124, 6048.8691329956055, 5776.223659515381, 5867.062091827393, 5880.032777786255, 5844.635963439941, 5957.935571670532, 5730.241060256958, 5890.220642089844, 5836.269855499268, 5795.531272888184, 5820.897102355957, 5807.5926303863525, 5747.7452754974365, 5793.495178222656, 5795.697450637817, 5993.013620376587, 5754.43959236145, 6015.742301940918, 5822.487354278564, 5852.6811599731445, 6041.852235794067, 5788.846969604492, 5807.542085647583, 5855.211019515991, 5770.435333251953, 5791.543960571289, 5796.932697296143, 5820.751190185547, 5827.894449234009, 6031.028747558594, 6014.78123664856, 5852.944135665894, 5848.065376281738, 5841.074705123901, 5823.4546184539795, 5809.413909912109, 5766.882419586182, 5782.746076583862, 5811.4306926727295, 5778.746843338013, 5764.689207077026, 5836.161851882935, 6090.871095657349, 5842.735767364502, 5904.956102371216, 5897.296905517578, 5849.3475914001465, 5959.209680557251, 5777.650594711304, 6012.85457611084, 5776.162147521973, 5970.885992050171, 5800.103425979614, 5858.313322067261, 6048.967123031616, 5749.908685684204, 5832.795143127441, 5963.822841644287],
  "QPU": "10000001",
  "Qubits": 4,
  "Queue durations [ms]": [0.0, 0.0, 0.0, 0.0, 0.0, 0.0, 0.0, 0.0, 0.0, 0.0, 0.0, 0.0, 0.0, 0.0, 0.0, 0.0, 0.0, 0.0, 0.0, 0.0, 0.0, 0.0, 0.0, 0.0, 0.0, 0.0, 0.0, 0.0, 0.0, 0.0, 0.0, 0.0, 0.0, 0.0, 0.0, 0.0, 0.0, 0.0, 0.0, 0.0, 0.0, 0.0, 0.0, 0.0, 0.0, 0.0, 0.0, 0.0, 0.0, 0.0, 0.0, 0.0, 0.0, 0.0, 0.0, 0.0, 0.0, 0.0, 0.0, 0.0, 0.0, 0.0, 0.0, 0.0, 0.0, 0.0, 0.0, 0.0, 0.0, 0.0, 0.0, 0.0, 0.0, 0.0, 0.0, 0.0, 0.0, 0.0, 0.0, 0.0, 0.0, 0.0, 0.0, 0.0, 0.0, 0.0, 0.0, 0.0, 0.0, 0.0, 0.0, 0.0, 0.0],
  "Shots": 4096,
  "Size": 2,
  "Total Algorithm duration [s]": 550.546,
  "Total Classic duration [s]": 5.698949333190967,
  "Total Quantum duration [s]": 544.8470506668091
}
