{
  "Depth": 2.0,
  "Expectation Value": -2.1489200592041016,
  "Job durations [ms]": [4366.454839706421, 4226.506948471069, 4232.45906829834, 4337.987422943115, 4247.401475906372, 4241.598129272461, 4183.387756347656, 4262.731552124023, 4251.322269439697, 4317.7032470703125, 4255.800008773804, 4332.552909851074, 4242.709636688232, 4218.245029449463, 4213.720798492432, 4341.097831726074, 4362.5054359436035, 4273.085355758667, 4264.639377593994, 4238.868236541748, 4245.810508728027, 4185.962677001953, 4273.267984390259, 4393.267631530762, 4944.4451332092285, 4256.096363067627, 4306.053638458252, 4296.02313041687, 4182.074308395386, 4383.459091186523, 4249.936819076538, 4264.13893699646, 5253.411769866943, 4332.55672454834, 4339.958667755127, 4263.974189758301, 4236.546516418457, 4209.649085998535, 4322.549104690552, 4457.266807556152, 4493.339538574219, 4234.1978549957275, 4287.615537643433, 4280.124664306641, 4259.232044219971, 4317.3277378082275, 4240.915060043335, 4269.412040710449, 4311.007499694824, 4367.389678955078, 4386.4381313323975],
  "Optimal Expectation Value": -2.2741000652313232,
  "Optimizer durations [ms]": [40430.399, 40034.534, 38965.221, 41763.992, 39638.96, 39421.561, 40014.751, 39791.82, 39846.329, 39872.017, 40642.68, 40428.174, 40108.889, 39240.795, 39855.554, 39201.36, 41640.695, 39055.071, 40143.778, 40257.692, 40144.804, 40497.856, 40014.755, 40077.68, 39849.701, 39139.602, 41427.592, 38878.501, 40028.352, 40017.141, 40256.038, 39250.933, 40049.166, 40541.369, 39843.569, 40198.401, 40251.669, 38911.07, 39863.565, 40832.511, 39859.98, 39780.707, 39604.961, 50694.713, 40617.204, 39065.925, 40288.41, 60753.046, 70686.34, 67976.288, 71370.474],
  "Optimizer iterations": 51,
  "Optimizer params": [1.0, 0.5099006081729125, 0.9605223308592822, 0.520127915445004],
  "P": 0,
  "Problem": "RH",
  "QPU": "402002E",
  "Qubits": 4,
  "Shots": 4096,
  "Size": 4,
  "Total Algorithm duration [s]": 2161.126,
  "Total Classic duration [s]": 1940.871773792267,
  "Total Quantum duration [s]": 220.25422620773315
}
