{
  "Depth": 16.5,
  "Expectation Value": -8.353697776794434,
  "Job durations [ms]": [0.3549499961081892, 0.33999999868683517, 0.3183499939041212, 0.3216500044800341, 0.35620000562630594, 0.35170000046491623, 0.3185499954270199, 0.3157500032102689, 0.33704999077599496, 0.3261499950895086, 0.32225000904873013, 0.49664999824017286, 0.34314999356865883, 0.38809998659417033, 0.33070000063162297, 0.35570000181905925, 0.3338999958941713, 0.46305000432766974, 0.3293999907327816, 0.338400001055561, 0.5237000150373206, 0.45989999489393085, 0.3219500067643821, 0.32115000067278743, 0.3266499988967553, 0.3415500104892999, 0.3242999955546111, 0.46105000365059823, 0.3355000080773607, 0.49894998664967716, 0.33105000329669565, 0.3749499883269891, 0.3370500053279102, 0.5158499989192933, 0.32110000029206276, 0.35230000503361225, 0.31740000122226775, 0.3200499922968447, 0.3395999956410378, 0.47214998630806804, 0.3534499992383644, 0.3352999920025468, 0.3263000107835978, 0.3517500008456409, 0.40689999877940863, 0.5233000119915232, 0.37349999183788896, 0.531300000147894, 0.3497500001685694, 0.5144999886397272, 0.3326500009279698, 0.36469999758992344, 0.5130500067025423, 0.32979999377857894, 0.35835000744555146, 0.34509999386500567, 0.33629999961704016, 0.3684499970404431, 0.33495000388938934, 0.3786000015679747, 0.4131500027142465, 0.3299999953014776, 0.43489999370649457, 0.3139000036753714, 0.3193500015186146, 0.3156500024488196, 0.3569999971659854, 0.3833499940810725, 0.35385000228416175, 0.3216500044800341, 0.49789999320637435, 0.39570000080857426, 0.4435500013642013, 0.31709999893791974, 0.3144000074826181, 0.32995000947266817, 0.3617000038502738, 0.34249998861923814, 0.3176000027451664, 0.3298499941593036, 0.44385001820046455, 0.3193500015186146, 0.30965000041760504, 0.3205999964848161, 0.3437999985180795, 0.3145500086247921, 0.3268499858677387, 0.3400999994482845, 0.35504999686963856, 0.3265000123064965, 0.3241499944124371, 0.32094999914988875, 0.33459998667240143, 0.32284999906551093, 0.3469500079518184, 0.42485000449232757, 0.3581000055419281, 0.32040000951383263, 0.377349992049858, 0.3790500049944967, 0.32160000409930944, 0.4535000043688342, 0.3290499880677089, 0.3216500044800341, 0.31459999445360154, 0.3336500085424632, 0.3123499918729067, 0.42655000288505107, 0.31805000617168844, 0.4600500105880201, 0.32479999936185777, 0.3276999923400581, 0.3214999887859449, 0.32390000706072897, 0.32145000295713544, 0.3200499922968447, 0.3281499957665801, 0.40949998947326094, 0.3095499996561557, 0.32869999995455146, 0.4265000025043264, 0.31955000304151326, 0.33725000685080886, 0.32169999030884355, 0.32034999458119273, 0.39834999188315123, 0.41090000013355166, 0.341649996698834, 0.5122500006109476, 0.3321999975014478, 0.4866499948548153, 0.3249500005040318, 0.34235000202897936, 0.4136500065214932, 0.43259999074507505, 0.31999999191612005, 0.3341999981785193, 0.3184000088367611, 0.32380000629927963, 0.5107500037411228, 0.43894999544136226, 0.49875001423060894, 0.4405999934533611, 0.344599990057759, 0.3207500121789053, 0.3144999936921522, 0.32730000384617597, 0.381499994546175, 0.47095000627450645, 0.3504000051179901, 0.30795000202488154, 0.32110000029206276, 0.3329499886604026, 0.3345000004628673, 0.3206000110367313, 0.32980000833049417, 0.3161000058753416, 0.3715000057127327, 0.381799996830523, 0.33150000672321767, 0.498099994729273, 0.3574500005925074, 0.47450000420212746, 0.32765000651124865, 0.3511499962769449, 0.3259000077378005, 0.3126499941572547, 0.3167999966535717, 0.48949998745229095, 0.3547500091372058, 0.3147999959765002, 0.35679999564308673, 0.31829999352339655, 0.4269500059308484, 0.3294000052846968, 0.4927499976474792, 0.3470999945420772, 0.3320499963592738, 0.3418499982217327, 0.3251000016462058, 0.3242499951738864, 0.3226999979233369, 0.33229999826289713, 0.32115000067278743, 0.3569999971659854, 0.3890999942086637, 0.324350010487251, 0.32820001069922, 0.3252500027883798, 0.3362499992363155, 0.32604999432805926, 0.32469999860040843, 0.4546000127447769, 0.3259000077378005, 0.5069499893579632, 0.3306500002508983, 0.345049993484281, 0.31010000384412706, 0.3245999978389591, 0.3208499983884394, 0.3296999930171296, 0.3259999939473346, 0.5175999976927415, 0.49249999574385583, 0.4519499925663695, 0.33485000312794, 0.5219500017119572, 0.3284499980509281, 0.33075000101234764, 0.3259999939473346, 0.3934999986086041, 0.3476999991107732, 0.31829999352339655, 0.3129499964416027, 0.3910500090569258, 0.32619999547023326, 0.32539998937863857, 0.32869999995455146, 0.3241499944124371, 0.3250500012654811, 0.34079999022651464, 0.3472499956842512, 0.3284000122221187, 0.32854999881237745, 0.3339000104460865, 0.31844999466557056, 0.35304999619256705, 0.3326500009279698, 0.3198000049451366, 0.5076000088592991, 0.3209999995306134, 0.31254999339580536, 0.3407500043977052, 0.4225000011501834, 0.3271000023232773, 0.3513999981805682, 0.32729998929426074, 0.3492499963613227, 0.3374499938217923, 0.44240000715944916, 0.32914998882915825, 0.43399998685345054, 0.33510000503156334, 0.35814999137073755, 0.35170000046491623, 0.34589999995660037, 0.32094999914988875, 0.38189999759197235, 0.42804998520296067, 0.3012500092154369, 0.3985999937867746, 0.3193500015186146, 0.3103499911958352, 0.307999987853691, 0.3139500040560961, 0.35339999885763973, 0.3183999942848459, 0.4322000022511929, 0.32154998916666955, 0.32184999145101756, 0.521400012075901, 0.411150002037175, 0.3353999927639961, 0.3711000026669353, 0.4262500151526183, 0.3249500005040318, 0.35245000617578626, 0.331150004058145, 0.4262000002199784, 0.32264999754261225, 0.5121499998494983, 0.32470001315232366, 0.408050007536076, 0.3770500043174252, 0.33059999987017363, 0.3588999970816076, 0.3259999939473346, 0.32500000088475645, 0.31444999331142753, 0.434300018241629, 0.30450000485870987, 0.49115001456812024, 0.3861500008497387, 0.512500002514571, 0.34050000249408185, 0.31570000282954425, 0.42219999886583537, 0.32300000020768493, 0.3222499944968149, 0.3284999984316528, 0.3097500011790544, 0.3525500069372356, 0.3191499999957159, 0.31550000130664557, 0.32130000181496143, 0.36639999598264694, 0.3539000026648864, 0.33214999712072313, 0.32310000096913427, 0.31385000329464674, 0.31960000342223793, 0.45450001198332757, 0.3171499993186444, 0.3175000019837171, 0.5377499910537153, 0.3236500051571056, 0.3205999964848161, 0.3132999991066754, 0.3642499941634014, 0.3867499908665195, 0.3650499857030809, 0.3174500016029924, 0.35400000342633575, 0.4705500032287091, 0.3265999985160306, 0.3165499947499484, 0.31284999568015337, 0.3202500083716586, 0.32294999982696027, 0.46964998182374984, 0.3287500003352761, 0.41605001024436206, 0.3227499983040616, 0.4594999918481335, 0.3267499996582046, 0.5025999853387475, 0.3235500043956563, 0.42264998774044216, 0.3224499960197136, 0.33445000008214265, 0.3494500124361366, 0.3291000030003488, 0.32169999030884355, 0.32154998916666955, 0.47255001845769584, 0.3169999981764704, 0.4667000175686553, 0.5069500184617937, 0.31134999881032854, 0.3504499909467995, 0.512449987581931, 0.3444500034675002, 0.36145000194665045, 0.4343000036897138, 0.45685000077355653, 0.32264999754261225, 0.48495001101400703, 0.3173000004608184, 0.34314999356865883, 0.3345000004628673, 0.49175000458490103, 0.4361000028438866, 0.2833500038832426, 0.31659999513067305, 0.378400000045076, 0.4389000096125528, 0.31355000101029873, 0.31629999284632504, 0.3261499950895086, 0.3480500017758459, 0.32419999479316175, 0.5215499841142446, 0.3219499922124669, 0.3209999995306134, 0.31629999284632504, 0.5138999986229464, 0.32434999593533576, 0.3300500102341175, 0.3249000001233071, 0.3386499884072691, 0.49310000031255186, 0.32669999927747995, 0.4218499962007627, 0.36669999826699495, 0.3885500045726076, 0.428449988248758, 0.3110999969067052, 0.43045000347774476, 0.32125000143423676, 0.3189999988535419, 0.3175499878125265, 0.33469998743385077, 0.32094999914988875, 0.32624999585095793, 0.3215500037185848, 0.5059500108473003, 0.3191499999957159, 0.4197999951429665, 0.35110001044813544, 0.45369999133981764, 0.46034998376853764, 0.330850001773797, 0.3888000064762309, 0.3333500062581152, 0.40410000656265765, 0.3507499932311475, 0.35769998794421554, 0.35680001019500196, 0.31365000177174807, 0.30775000050198287, 0.33150000672321767, 0.31304999720305204, 0.3575000009732321, 0.41545000567566603, 0.37200000951997936, 0.3441500011831522, 0.35060000664088875, 0.37290000182110816, 0.3467999922577292, 0.45649999810848385, 0.3871999942930415, 0.3205999964848161, 0.342100000125356, 0.31870001112110913, 0.3144999936921522, 0.4777999856742099, 0.37874998815823346, 0.3219499922124669, 0.3092499973718077, 0.4417000018293038, 0.32560000545345247, 0.49229999422095716, 0.3224499960197136, 0.37275000067893416, 0.3428999916650355, 0.32745000498835, 0.33569999504834414, 0.3215999895473942, 0.3309500025352463, 0.312149990350008, 0.33239999902434647, 0.335300006554462, 0.33379999513272196, 0.39334999746643007, 0.3271000023232773, 0.38464998942799866, 0.32715000270400196, 0.45930000487715006, 0.49840001156553626, 0.3326500009279698, 0.3538000019034371, 0.3536000003805384, 0.5290000117383897, 0.3479000006336719, 0.35304999619256705, 0.3151499986415729, 0.516050000442192, 0.32035000913310796, 0.32995000947266817, 0.3177500038873404, 0.4446499951882288, 0.5052000051364303, 0.32500000088475645, 0.31689999741502106, 0.3534499992383644, 0.3178000042680651, 0.39265000668819994, 0.4199499962851405, 0.35110001044813544, 0.32110000029206276, 0.3269000008003786, 0.47759999870322645, 0.3241499944124371, 0.3312500048195943, 0.3393500082893297, 0.31474999559577554, 0.3159500047331676, 0.3262000100221485, 0.42955001117661595, 0.3315999929327518, 0.4302500165067613, 0.31134999881032854, 0.43299997923895717, 0.3291500033810735, 0.3195000026607886, 0.3368500038050115, 0.3536500007612631, 0.3470000083325431, 0.3235500043956563, 0.32935000490397215, 0.5436999927042052, 0.3296000068075955, 0.3202500083716586, 0.3258500073570758, 0.33999999868683517, 0.3786000015679747, 0.3394499944988638, 0.33039999834727496, 0.3213500021956861, 0.3703499969560653, 0.4933500022161752, 0.4160499811405316, 0.33614999847486615, 0.4971000162186101, 0.35784998908638954, 0.32530000316910446, 0.331150004058145, 0.4397000011522323, 0.3216500044800341, 0.34869999217335135, 0.4325500049162656, 0.35165000008419156, 0.30944999889470637, 0.3219500067643821, 0.3224499960197136, 0.32985000871121883, 0.4620500112650916, 0.31504999788012356, 0.34189999860245734, 0.38240000139921904, 0.5123999872012064, 0.34934999712277204, 0.32780000765342265, 0.5112000071676448, 0.3603999939514324, 0.3271999885328114, 0.46374999510589987, 0.5027999868616462, 0.4499500064412132, 0.31909999961499125, 0.3734500060090795, 0.41590000910218805, 0.3191499999957159, 0.3333999920869246, 0.3264999977545813, 0.334249998559244, 0.32640001154504716, 0.31960000342223793, 0.35304999619256705, 0.3644499956863001, 0.3269500011811033, 0.3208499983884394, 0.42434998613316566, 0.4572500038193539, 0.3282999969087541, 0.463849981315434, 0.4157000075792894, 0.4218499962007627, 0.32345000363420695, 0.32809999538585544, 0.3239499928895384, 0.36269999691285193, 0.5089499900350347, 0.4978500073775649, 0.45945000601932406, 0.3164500085404143, 0.34324999433010817, 0.32809999538585544, 0.33645000075921416, 0.3264499973738566, 0.3690000012284145, 0.3317499940749258, 0.3169999981764704, 0.32315000134985894, 0.31940000189933926, 0.32809999538585544, 0.3284999984316528, 0.33760000951588154, 0.334550000843592, 0.35924999974668026, 0.3333000058773905, 0.3183499939041212, 0.35835000744555146, 0.3281499957665801, 0.327600006130524, 0.35275000846013427, 0.35799999022856355, 0.32839999767020345, 0.3539500030456111, 0.3123500064248219, 0.35025000397581607, 0.3367500030435622, 0.3409000055398792, 0.3223999956389889, 0.37460000021383166, 0.3219499922124669, 0.3181500069331378, 0.33244999940507114, 0.3304499987279996, 0.4126999992877245, 0.3309500025352463, 0.4147500003455207, 0.3675500047393143, 0.33054999948944896, 0.32554999052081257, 0.3206999972462654, 0.3865000035148114, 0.3316999936942011, 0.49334998766425997, 0.3236500051571056, 0.3247499989811331, 0.37209999572951347, 0.375150004401803, 0.42365000990685076, 0.34094999136868864, 0.3257000062149018, 0.3333500062581152, 0.3300499956822023, 0.5236500001046807, 0.35054999170824885, 0.33290000283159316, 0.5212499963818118, 0.4432500136317685, 0.3255500050727278, 0.32610000926069915, 0.3199499915353954, 0.5330500134732574, 0.3198000049451366, 0.3213500021956861, 0.4463500081328675, 0.32204999297391623, 0.35119999665766954, 0.533049984369427, 0.3349499893374741, 0.33660000190138817, 0.41495000186841935, 0.33150000672321767, 0.48269999388139695, 0.3358999965712428, 0.3719500091392547, 0.4816000146092847, 0.3201000072294846, 0.36189999082125723, 0.35339999885763973, 0.32500000088475645, 0.3478500002529472, 0.32654999813530594, 0.3635000030044466, 0.41229999624192715, 0.3209999995306134, 0.521100009791553, 0.3165500093018636, 0.3418499982217327, 0.3260000084992498, 0.3247499989811331, 0.3353999927639961, 0.33769999572541565, 0.32294999982696027],
  "Optimal Expectation Value": -8.5667724609375,
  "Optimizer durations [ms]": [25.319, 26.192, 23.904, 16.991, 18.425, 14.926, 25.848, 18.808, 17.373, 23.145, 22.507, 22.705, 22.643, 24.347, 26.462, 20.01, 22.024, 21.605, 26.398, 26.869, 25.997, 19.443, 26.161, 22.781, 26.377, 18.187, 26.672, 20.992, 26.71, 23.358, 24.37, 21.638, 26.959, 23.515, 26.655, 16.481, 19.258, 26.476, 23.346, 26.058, 16.28, 26.67, 25.549, 22.473, 17.74, 26.178, 22.819, 24.68, 27.024, 24.173, 22.721, 22.738, 21.382, 26.082, 19.196, 22.228, 21.09, 26.574, 20.159, 17.646, 22.023, 22.028, 25.888, 26.602, 24.608, 24.981, 17.913, 25.855, 21.71, 23.398, 17.292, 23.331, 24.507, 18.927, 22.474, 23.961, 22.74, 24.562, 23.184, 25.869, 21.998, 26.495, 20.539, 18.832, 26.866, 19.407, 21.404, 22.567, 17.877, 23.56, 20.086, 25.545, 20.216, 25.491, 20.588, 25.875, 20.357, 21.288, 18.349, 20.773, 25.884, 19.614, 26.742, 26.615, 23.616, 19.119, 25.199, 23.262, 26.455, 23.423, 24.641, 22.35, 22.091, 22.6, 26.043, 22.359, 20.116, 22.747, 22.755, 25.021, 21.088, 23.753, 20.679, 26.333, 25.602, 24.734, 21.057, 27.092, 19.19, 23.19, 24.99, 20.826, 26.288, 24.582, 23.796, 22.251, 26.515, 19.274, 19.616, 22.156, 25.716, 23.337, 21.526, 20.064, 21.284, 24.551, 25.908, 24.235, 25.777, 24.065, 26.272, 21.981, 19.045, 26.767, 24.187, 26.732, 21.795, 23.155, 26.082, 24.501, 25.441, 18.7, 24.095, 26.803, 17.86, 18.981, 18.742, 21.593, 23.923, 14.976, 26.556, 20.27, 20.845, 22.229, 23.318, 26.179, 26.887, 23.806, 26.593, 23.87, 25.787, 22.651, 26.65, 22.186, 21.514, 20.03, 26.224, 21.904, 22.615, 26.884, 22.946, 26.761, 22.456, 23.224, 22.92, 20.544, 15.063, 21.828, 19.651, 23.369, 23.89, 22.427, 22.114, 26.133, 22.633, 23.113, 21.954, 26.457, 23.703, 20.109, 24.998, 20.354, 22.233, 24.735, 20.401, 26.66, 22.196, 22.355, 23.338, 19.603, 23.332, 25.606, 21.474, 24.399, 26.493, 21.242, 26.08, 24.211, 23.236, 22.032, 24.387, 21.373, 22.859, 26.297, 21.945, 19.973, 24.156, 16.977, 25.323, 26.124, 18.96, 24.212, 25.451, 21.608, 22.583, 16.338, 26.486, 21.87, 21.037, 25.339, 23.821, 26.032, 24.996, 22.905, 22.889, 19.178, 22.355, 24.108, 20.599, 22.934, 22.07, 26.243, 20.137, 22.335, 22.104, 20.437, 18.885, 26.615, 21.551, 21.936, 22.721, 20.815, 22.111, 19.371, 22.907, 18.907, 23.931, 21.429, 17.922, 26.033, 19.107, 22.683, 23.938, 25.966, 25.15, 24.453, 25.495, 26.876, 24.005, 26.733, 21.647, 15.623, 22.061, 20.464, 25.259, 20.453, 17.866, 21.749, 23.936, 19.116, 26.681, 23.158, 20.656, 22.862, 22.607, 24.558, 20.938, 20.991, 22.588, 24.063, 15.178, 22.666, 22.623, 24.51, 26.405, 21.661, 19.198, 25.017, 25.047, 21.371, 26.656, 19.771, 20.016, 26.235, 24.24, 22.09, 19.508, 23.273, 21.87, 26.595, 21.287, 20.575, 19.493, 26.501, 22.36, 23.442, 17.557, 25.717, 25.783, 21.417, 17.775, 25.575, 17.434, 23.978, 21.514, 23.817, 25.773, 24.451, 22.253, 22.59, 22.855, 21.969, 20.449, 25.371, 22.988, 23.51, 23.058, 26.409, 21.895, 17.188, 24.524, 25.287, 23.755, 26.707, 21.966, 25.181, 18.475, 25.033, 24.694, 21.812, 23.528, 22.751, 25.972, 21.126, 21.359, 23.839, 21.513, 21.582, 22.418, 21.388, 19.439, 25.699, 24.315, 24.494, 26.303, 25.044, 19.127, 22.412, 18.609, 20.939, 20.555, 26.946, 18.627, 23.795, 22.09, 22.42, 18.536, 22.58, 26.456, 24.244, 20.948, 21.924, 20.017, 19.075, 22.712, 23.136, 19.465, 19.018, 18.475, 22.808, 25.882, 19.661, 24.87, 25.485, 26.564, 18.605, 26.025, 23.251, 26.683, 19.589, 20.96, 26.019, 25.586, 22.419, 22.709, 27.151, 24.01, 22.496, 20.156, 26.191, 22.429, 26.657, 22.199, 21.83, 15.488, 22.964, 24.25, 22.146, 26.722, 25.794, 18.232, 19.979, 25.995, 25.806, 21.824, 22.777, 26.201, 23.775, 26.711, 25.628, 21.461, 25.977, 22.804, 20.114, 13.788, 25.284, 25.93, 25.317, 17.893, 23.75, 26.634, 25.86, 20.872, 25.541, 20.991, 26.71, 19.677, 26.526, 20.544, 26.523, 23.422, 26.605, 23.829, 24.765, 23.595, 22.87, 18.794, 23.669, 22.792, 22.689, 22.598, 25.116, 19.545, 25.882, 26.482, 19.241, 24.288, 26.519, 19.494, 22.942, 23.842, 25.932, 19.43, 26.344, 21.399, 24.06, 25.474, 25.959, 19.452, 25.567, 25.121, 16.043, 25.35, 24.997, 24.387, 22.712, 22.926, 26.301, 19.897, 21.289, 23.444, 18.992, 22.798, 22.431, 21.984, 25.5, 25.239, 25.837, 19.74, 23.555, 21.421, 20.584, 23.858, 22.74, 24.772, 26.944, 24.592, 25.547, 20.809, 22.78, 22.224, 22.359, 22.177, 22.13, 22.448, 22.248, 24.418, 22.444, 26.718, 26.582, 21.34, 21.561, 23.56, 22.035, 21.774, 26.092, 24.125, 20.058, 23.976, 26.576, 19.171, 25.277, 22.061, 25.386, 20.845, 24.504, 26.668, 22.965, 24.099, 18.557, 24.44, 26.311, 18.345, 22.683, 23.226, 26.02, 20.299, 20.532, 17.721, 22.188, 18.967, 27.172, 22.24, 19.19, 23.073, 21.853, 21.297, 23.277, 22.767, 21.419, 23.598, 21.788, 14.774, 26.638, 14.894, 26.183, 19.178, 26.045, 26.217, 24.272, 26.758, 25.575, 24.367, 26.151, 23.859, 26.63, 22.619, 25.834, 11.526, 18.849, 26.808, 21.772, 25.536, 25.308, 21.264, 23.933, 21.637, 23.681, 22.321, 21.196, 24.267, 19.559, 12.56, 22.827, 25.047, 26.101, 25.57, 22.281, 22.152, 21.316, 20.125, 25.582, 21.087, 22.632, 22.346, 26.942, 23.628, 22.665, 25.804, 21.635, 25.82, 22.197, 20.179, 26.434, 23.393, 19.945, 24.439, 26.604],
  "Optimizer iterations": 638,
  "Optimizer params": [0.572721291665347, 0.9024662376836341, 0.6785313298949086, 0.7893811807542698, 0.7290897987179834, 0.7523783646661041, 0.7453570247727953, 0.4859115635446754, 0.5718672577314775, 0.4946433329429458, 0.5159360543247906, 0.5004830334417124, 0.48912978583202155, 0.998986163253378, 0.5171392935411186, 0.4997567218696099, 0.44185607487067585, 0.419092180006001, 0.412738913105743, 0.4071913122786259, 0.3531614716417262, 0.5658037544625741, 0.4188135543088138, 0.5091979104522715, 0.48819494275697706, 0.5034594601370111, 0.49584078585657476, 0.48947580827385984],
  "P": 0,
  "Problem": "IC",
  "QPU": "7000000",
  "Qubits": 7,
  "Shots": 4096,
  "Size": 7,
  "Total Algorithm duration [s]": 14.611,
  "Total Classic duration [s]": 14.378687900093734,
  "Total Quantum duration [s]": 0.23231209990626667
}
