{
  "Depth": 16.5,
  "Expectation Value": -8.353697776794434,
  "Job durations [ms]": [0.4631999909179285, 0.31644999398849905, 0.31019999005366117, 0.4271500074537471, 0.3232000017305836, 0.3197999903932214, 0.31635000777896494, 0.3430499928072095, 0.33599999733269215, 0.5124000163050368, 0.42219999886583537, 0.5208499933360144, 0.34934999712277204, 0.3312500048195943, 0.3147000097669661, 0.3158999898005277, 0.3200499922968447, 0.35770000249613076, 0.3092499973718077, 0.5071999912615865, 0.32345000363420695, 0.32395000744145364, 0.35605000448413193, 0.3125000075669959, 0.33385001006536186, 0.31960000342223793, 0.3293999907327816, 0.3549499961081892, 0.3292500041425228, 0.3200000064680353, 0.4223999858368188, 0.3174500016029924, 0.3497500001685694, 0.32500000088475645, 0.41215000965166837, 0.33680000342428684, 0.3203999949619174, 0.33334999170619994, 0.3148499963572249, 0.33194999559782445, 0.32885000109672546, 0.3320499963592738, 0.4726999904960394, 0.3755000070668757, 0.3041000018129125, 0.31350000062957406, 0.31119999766815454, 0.31140001374296844, 0.3203999949619174, 0.3146499948343262, 0.39080000715330243, 0.305499997921288, 0.3193000011378899, 0.30729999707546085, 0.3203000087523833, 0.3268000000389293, 0.301499996567145, 0.3228999994462356, 0.2836999992723577, 0.34294999204576015, 0.32235000981017947, 0.330850001773797, 0.4901999927824363, 0.30605000210925937, 0.4027999966638163, 0.49775000661611557, 0.3086499928031117, 0.4924500099150464, 0.31114999728742987, 0.32339998870156705, 0.3168499970342964, 0.3232000017305836, 0.3596499882405624, 0.4346499918028712, 0.33200001053046435, 0.28219999512657523, 0.4887500108452514, 0.3662999952211976, 0.5051000043749809, 0.32795000879559666, 0.41199999395757914, 0.4537499917205423, 0.32220000866800547, 0.33114998950622976, 0.3581999917514622, 0.3338999958941713, 0.31570000282954425, 0.34795000101439655, 0.41429999691899866, 0.31459999445360154, 0.3595000016503036, 0.3101500042248517, 0.31770000350661576, 0.4878999898210168, 0.33090000215452164, 0.38425000093411654, 0.3180999920004979, 0.3200999926775694, 0.32964999263640493, 0.4650500195566565, 0.31835000845603645, 0.31925000075716525, 0.32310000096913427, 0.31725000008009374, 0.30339999648276716, 0.4878000036114827, 0.4054000019095838, 0.32809999538585544, 0.3789999900618568, 0.410699998610653, 0.3131499979645014, 0.3232999879401177, 0.31280000985134393, 0.3171999996993691, 0.3124999930150807, 0.3235500043956563, 0.32190000638365746, 0.34935001167468727, 0.3289500018581748, 0.341649996698834, 0.35504999686963856, 0.31829999352339655, 0.38764999771956354, 0.3192000003764406, 0.3424500027904287, 0.49140000191982836, 0.3245999978389591, 0.3299999953014776, 0.32145000295713544, 0.4065000102855265, 0.3860500000882894, 0.3245999978389591, 0.36759999056812376, 0.44070000876672566, 0.31704999855719507, 0.30679999326821417, 0.31794999085832387, 0.3184500092174858, 0.33414999779779464, 0.48889999743551016, 0.32730000384617597, 0.3237999917473644, 0.32580000697635114, 0.32279999868478626, 0.40699999954085797, 0.331750008626841, 0.32204999297391623, 0.3236500051571056, 0.32469999860040843, 0.3147000097669661, 0.3375000087544322, 0.48615000559948385, 0.4948000132571906, 0.3184999950462952, 0.41214999509975314, 0.33409999741706997, 0.46290000318549573, 0.3312499902676791, 0.3163499932270497, 0.3974999999627471, 0.3242999955546111, 0.4845999937970191, 0.48400000378023833, 0.3192000003764406, 0.32175000524148345, 0.31535000016447157, 0.4571000172290951, 0.31940000189933926, 0.3656499902717769, 0.3367500030435622, 0.3258500073570758, 0.34080000477842987, 0.33585001074243337, 0.3910000086762011, 0.31370000215247273, 0.3083000046899542, 0.35069999285042286, 0.4921999934595078, 0.31600000511389226, 0.3556500014383346, 0.43759999971371144, 0.3302500117570162, 0.32529998861718923, 0.45035000948701054, 0.3281499957665801, 0.35069999285042286, 0.3267499996582046, 0.3940500027965754, 0.3581000055419281, 0.31355000101029873, 0.31570000282954425, 0.3306500002508983, 0.3271000023232773, 0.4959499929100275, 0.32515000202693045, 0.33510000503156334, 0.3261500096414238, 0.32950000604614615, 0.3193500015186146, 0.38795000000391155, 0.3181999927619472, 0.3235000040149316, 0.32550000469200313, 0.3546999942045659, 0.32125000143423676, 0.32675001421011984, 0.3100500034634024, 0.34515000879764557, 0.3272500034654513, 0.3532499977154657, 0.3292500041425228, 0.38645000313408673, 0.32715000270400196, 0.31725000008009374, 0.32780000765342265, 0.42755001049954444, 0.31535000016447157, 0.49679999938234687, 0.411750006605871, 0.32115000067278743, 0.5143499874975532, 0.31770000350661576, 0.34464999043848366, 0.3117500018561259, 0.31940000189933926, 0.32360000477638096, 0.31260000832844526, 0.4785000055562705, 0.32264999754261225, 0.4694500094046816, 0.3761999978451058, 0.35679999564308673, 0.31859999580774456, 0.3494500124361366, 0.3193000011378899, 0.4017000028397888, 0.31725000008009374, 0.3561000048648566, 0.35105001006741077, 0.3235000040149316, 0.3260999947087839, 0.31925000075716525, 0.32330000249203295, 0.38204999873414636, 0.3956500004278496, 0.4335999983595684, 0.3188499977113679, 0.32425000972580165, 0.39924999873619527, 0.3490000090096146, 0.48574998800177127, 0.32064999686554074, 0.44669999624602497, 0.3219499922124669, 0.3548499953467399, 0.3364000003784895, 0.3245999978389591, 0.5404000112321228, 0.3078500012634322, 0.29850000282749534, 0.3241499944124371, 0.4903000080958009, 0.328050009557046, 0.38050000148359686, 0.34085000515915453, 0.3561999910743907, 0.3194500022800639, 0.30515000980813056, 0.35149999894201756, 0.36029999318998307, 0.31519999902229756, 0.3104499919572845, 0.3476999991107732, 0.312449992634356, 0.4599499807227403, 0.3142000059597194, 0.3083000046899542, 0.4812499973922968, 0.30810000316705555, 0.3086499928031117, 0.31864999618846923, 0.3147999959765002, 0.35319999733474106, 0.32449999707750976, 0.3260999947087839, 0.3240999940317124, 0.33244999940507114, 0.33435001387260854, 0.32574999204371125, 0.3196500038029626, 0.31785000464878976, 0.35149999894201756, 0.32360000477638096, 0.4261499852873385, 0.31790000502951443, 0.3322500124340877, 0.3269500011811033, 0.41939999209716916, 0.3837500116787851, 0.32249999640043825, 0.33239999902434647, 0.355699987267144, 0.4646500019589439, 0.32339998870156705, 0.31709999893791974, 0.3191499999957159, 0.3494499978842214, 0.3278500080341473, 0.460749986814335, 0.33564999466761947, 0.4715999966720119, 0.3177500038873404, 0.3281999961473048, 0.31635000777896494, 0.3364999865880236, 0.3126500087091699, 0.3249000001233071, 0.31785000464878976, 0.33015001099556684, 0.32064999686554074, 0.32284999906551093, 0.5027000006521121, 0.34169999707955867, 0.3284499980509281, 0.3276499919593334, 0.3223999956389889, 0.3530999965732917, 0.3276999923400581, 0.3494499978842214, 0.3581000055419281, 0.3628000122262165, 0.32580000697635114, 0.3232500021113083, 0.3242499951738864, 0.32550000469200313, 0.3591999993659556, 0.3326500009279698, 0.31805000617168844, 0.4362500039860606, 0.31495001167058945, 0.31274999491870403, 0.4408999957377091, 0.3315499925520271, 0.4192000051261857, 0.35740000021178275, 0.36345000262372196, 0.3257000062149018, 0.341349994414486, 0.337499994202517, 0.41540000529494137, 0.5067000020062551, 0.3991000121459365, 0.4195000074105337, 0.516200001584366, 0.36279999767430127, 0.31269999453797936, 0.31814999238122255, 0.3203999949619174, 0.34359999699518085, 0.3207499976269901, 0.4697499971371144, 0.3249500005040318, 0.3607499966165051, 0.39169999945443124, 0.3300499956822023, 0.33009999606292695, 0.3243999963160604, 0.3537500015227124, 0.3581999917514622, 0.33105000329669565, 0.3934999986086041, 0.3300500102341175, 0.3590499982237816, 0.4346499918028712, 0.3493999975034967, 0.3146999952150509, 0.4360499879112467, 0.33244999940507114, 0.32944999111350626, 0.324200009345077, 0.32190000638365746, 0.36484999873209745, 0.3209999995306134, 0.33930000790860504, 0.3286499995738268, 0.40020000596996397, 0.3205999964848161, 0.5292999849189073, 0.33120000443886966, 0.3246000123908743, 0.3999500040663406, 0.32449999707750976, 0.33054999948944896, 0.33999999868683517, 0.32190000638365746, 0.3336999943712726, 0.46969999675638974, 0.3518999874358997, 0.3250500012654811, 0.3092499973718077, 0.31694999779574573, 0.3156000020680949, 0.3630999999586493, 0.34550001146271825, 0.334700001985766, 0.3141499910270795, 0.3475499979685992, 0.34420000156387687, 0.299000006634742, 0.31474999559577554, 0.33485000312794, 0.3341999981785193, 0.36609999369829893, 0.35445000685285777, 0.33835000067483634, 0.3191499999957159, 0.3271999885328114, 0.4946500121150166, 0.3233500028727576, 0.32160000409930944, 0.32160000409930944, 0.3233499883208424, 0.32184999145101756, 0.3600000054575503, 0.3179500054102391, 0.3127999952994287, 0.5108000186737627, 0.3291000030003488, 0.3129499964416027, 0.32515000202693045, 0.31829999352339655, 0.35620000562630594, 0.3507999936118722, 0.341199993272312, 0.3520499885780737, 0.32625001040287316, 0.32300000020768493, 0.3146499948343262, 0.331450006342493, 0.32530000316910446, 0.39755000034347177, 0.3294000052846968, 0.3328500024508685, 0.36005000583827496, 0.3206000110367313, 0.32735000422690064, 0.3868000057991594, 0.3639499918790534, 0.43480000749696046, 0.36885000008624047, 0.3255500050727278, 0.31550000130664557, 0.3985499934060499, 0.331600007484667, 0.33239999902434647, 0.32115000067278743, 0.3284000122221187, 0.4386500077089295, 0.3299999953014776, 0.3607499966165051, 0.32145000295713544, 0.3582499921321869, 0.32035000913310796, 0.4301499866414815, 0.48594998952466995, 0.32624999585095793, 0.48239999159704894, 0.4403999919304624, 0.32214999373536557, 0.31615000625606626, 0.3124999930150807, 0.4284000024199486, 0.2738499897532165, 0.3269500011811033, 0.3832500078715384, 0.3674000035971403, 0.32825001107994467, 0.3378999972483143, 0.3303499979665503, 0.46874998952262104, 0.35465000837575644, 0.33409999741706997, 0.32804999500513077, 0.3574500005925074, 0.3199500060873106, 0.43849999201484025, 0.32050001027528197, 0.3295500064268708, 0.3235000040149316, 0.5057499947724864, 0.31955000304151326, 0.3257000062149018, 0.38100000529084355, 0.45030000910628587, 0.3193500015186146, 0.3195000026607886, 0.41974999476224184, 0.35820000630337745, 0.3139000036753714, 0.3232500021113083, 0.34980000054929405, 0.4851499979849905, 0.34610000147949904, 0.3242999955546111, 0.31555000168737024, 0.3647499979706481, 0.37575000897049904, 0.4862000059802085, 0.32360000477638096, 0.32110000029206276, 0.4595499922288582, 0.33660000190138817, 0.3595000016503036, 0.38189999759197235, 0.3159500047331676, 0.40669999725650996, 0.3203000087523833, 0.3136000013910234, 0.32279999868478626, 0.33989999792538583, 0.31874999694991857, 0.40765000449027866, 0.33224999788217247, 0.32634999661240727, 0.3181500069331378, 0.48290000995621085, 0.3435500111663714, 0.31365000177174807, 0.3096000000368804, 0.3328999882796779, 0.3080000024056062, 0.5127000040374696, 0.4969500150764361, 0.441250012954697, 0.31969998963177204, 0.3772000054595992, 0.3727999865077436, 0.35165000008419156, 0.31609999132342637, 0.3534499992383644, 0.3220000071451068, 0.3294000052846968, 0.3546499938238412, 0.5224000051384792, 0.35870001011062413, 0.3646499972091988, 0.5284500075504184, 0.3292500041425228, 0.43785001616925, 0.341649996698834, 0.32300000020768493, 0.308599992422387, 0.3120500041404739, 0.5261999904178083, 0.375450006686151, 0.5248500092420727, 0.4188499879091978, 0.3336999943712726, 0.32700000156182796, 0.337799996486865, 0.47414998698513955, 0.3202499938197434, 0.35075000778306276, 0.32700000156182796, 0.3887000057147816, 0.35105001006741077, 0.5257500160951167, 0.33414999779779464, 0.3177500038873404, 0.3448000061325729, 0.5150999932084233, 0.31585000397171825, 0.3235500043956563, 0.3124999930150807, 0.5120500136399642, 0.3218999918317422, 0.3469500079518184, 0.3244499966967851, 0.3217000048607588, 0.3156500024488196, 0.32205000752583146, 0.3307999868411571, 0.31740000122226775, 0.32249999640043825, 0.44180001714266837, 0.3193500015186146, 0.3281999961473048, 0.3369999903952703, 0.46820001443848014, 0.38255000254139304, 0.32824999652802944, 0.34995000169146806, 0.3110999969067052, 0.32130000181496143, 0.3458499995758757, 0.35289999505039304, 0.31975000456441194, 0.3269500011811033, 0.3722500114236027, 0.39585000195074826, 0.32249999640043825, 0.35940000088885427, 0.41370000690221786, 0.44899998465552926, 0.40699999954085797, 0.3284499980509281, 0.42409999878145754, 0.31814999238122255, 0.3473999968264252, 0.32560000545345247, 0.32064999686554074, 0.3240999940317124, 0.4711499932454899, 0.32735000422690064, 0.3226999979233369, 0.3312500048195943, 0.32604999432805926, 0.33039999834727496, 0.3271000023232773, 0.32330000249203295, 0.31794999085832387, 0.32369999098591506, 0.33290000283159316, 0.31459999445360154, 0.3302000113762915, 0.3328500024508685, 0.32294999982696027, 0.3732499899342656, 0.33654998696874827, 0.4793499974766746, 0.49425000906921923, 0.35835000744555146, 0.39415000355802476, 0.3222999948775396, 0.4100500082131475, 0.36794999323319644, 0.40669999725650996, 0.3244499966967851],
  "Optimal Expectation Value": -8.5667724609375,
  "Optimizer durations [ms]": [21.291, 26.163, 18.396, 17.229, 24.458, 26.931, 21.829, 27.163, 27.335, 23.881, 26.069, 18.885, 20.252, 23.258, 25.28, 24.018, 26.509, 19.941, 24.212, 26.051, 21.004, 25.064, 19.927, 26.41, 22.761, 22.958, 23.871, 19.629, 20.788, 22.839, 25.7, 22.492, 19.247, 22.142, 25.651, 26.873, 23.828, 25.558, 20.173, 26.31, 24.932, 26.966, 20.629, 16.95, 26.661, 24.253, 26.608, 22.79, 26.321, 26.594, 25.836, 26.147, 26.677, 26.711, 27.048, 24.415, 21.14, 21.12, 25.953, 19.133, 27.197, 24.467, 26.175, 22.166, 23.26, 21.425, 22.54, 21.753, 22.37, 25.011, 26.881, 19.699, 17.952, 23.094, 21.143, 21.685, 23.754, 25.034, 22.122, 26.881, 22.036, 26.021, 25.835, 26.983, 26.015, 23.403, 22.735, 22.421, 24.341, 22.586, 26.912, 24.16, 21.875, 21.65, 22.452, 19.521, 25.572, 24.645, 26.563, 22.625, 23.038, 24.223, 22.139, 26.339, 23.803, 23.436, 23.194, 18.689, 23.899, 24.262, 26.831, 25.285, 26.624, 21.027, 26.132, 18.501, 22.914, 20.105, 22.452, 26.318, 22.764, 19.256, 22.589, 23.064, 27.259, 23.243, 23.91, 22.32, 25.25, 25.319, 25.961, 23.165, 21.465, 24.268, 22.291, 21.383, 24.735, 26.612, 23.668, 21.977, 21.747, 23.89, 21.029, 20.075, 21.049, 21.979, 24.013, 23.954, 19.199, 24.042, 17.101, 22.466, 26.112, 24.81, 24.785, 25.563, 19.936, 19.942, 24.171, 26.168, 22.694, 21.922, 22.19, 22.933, 23.184, 26.542, 22.069, 24.008, 23.217, 23.799, 18.067, 23.435, 23.792, 21.289, 26.209, 19.46, 18.646, 21.441, 22.712, 23.735, 23.306, 26.85, 21.789, 22.257, 23.127, 15.476, 20.376, 22.148, 18.374, 23.347, 22.034, 19.168, 23.471, 20.919, 24.571, 26.276, 24.626, 26.917, 20.778, 23.073, 25.12, 20.569, 25.013, 19.781, 25.505, 17.325, 25.263, 18.588, 22.406, 16.744, 25.386, 21.248, 23.751, 19.329, 17.955, 25.072, 24.576, 25.3, 24.068, 25.028, 26.389, 24.588, 20.812, 21.673, 26.794, 19.05, 23.725, 25.78, 19.137, 24.666, 20.233, 22.851, 24.408, 22.315, 22.458, 19.198, 24.475, 16.2, 16.73, 22.657, 21.245, 22.703, 21.216, 25.327, 24.559, 26.331, 19.375, 24.787, 19.949, 23.495, 26.616, 24.137, 22.193, 25.426, 22.346, 24.5, 24.589, 22.737, 22.95, 24.89, 23.902, 21.51, 26.375, 19.341, 26.843, 15.522, 26.106, 26.567, 20.309, 24.152, 26.556, 23.848, 13.985, 21.58, 16.771, 24.162, 21.183, 21.404, 18.695, 22.306, 23.439, 26.059, 15.687, 20.831, 24.407, 21.538, 22.467, 19.705, 25.657, 26.762, 17.209, 18.193, 24.685, 21.67, 24.058, 22.56, 18.879, 24.24, 26.147, 25.398, 23.669, 20.14, 23.226, 25.491, 25.296, 24.216, 21.783, 27.128, 24.744, 26.138, 23.876, 23.481, 20.154, 20.516, 25.059, 24.521, 22.995, 18.563, 23.714, 19.884, 25.191, 21.365, 23.806, 26.262, 22.966, 26.6, 21.558, 24.544, 24.866, 17.253, 18.795, 23.131, 25.671, 26.898, 22.722, 14.622, 24.819, 20.425, 23.192, 23.722, 18.715, 22.087, 23.961, 24.3, 16.657, 21.542, 26.126, 22.32, 26.451, 26.006, 26.041, 23.137, 23.536, 19.514, 26.191, 19.428, 22.942, 23.991, 18.214, 21.158, 21.366, 25.969, 20.614, 26.297, 24.082, 27.074, 26.788, 17.325, 18.382, 22.719, 23.9, 27.054, 15.673, 23.496, 22.613, 22.994, 17.623, 22.296, 22.443, 24.334, 20.31, 16.591, 24.47, 17.935, 25.017, 25.909, 22.764, 26.071, 24.645, 25.604, 24.696, 21.565, 27.25, 18.316, 26.713, 26.394, 25.754, 20.003, 26.506, 24.072, 26.549, 23.682, 25.738, 22.352, 25.349, 26.418, 22.324, 24.292, 23.961, 22.21, 24.019, 19.156, 26.203, 18.431, 26.854, 19.315, 26.318, 23.41, 22.178, 23.401, 23.153, 19.188, 21.4, 20.45, 22.031, 26.376, 17.911, 26.816, 19.867, 23.908, 23.04, 19.064, 21.488, 21.864, 24.4, 26.078, 17.153, 23.294, 26.767, 20.389, 25.015, 25.199, 20.261, 21.159, 22.356, 22.108, 18.713, 13.982, 25.77, 19.942, 22.707, 18.277, 26.346, 19.317, 26.869, 19.273, 24.491, 21.703, 27.073, 17.809, 26.044, 27.049, 24.623, 22.582, 24.6, 22.374, 21.696, 25.077, 20.29, 26.594, 24.046, 26.387, 20.026, 19.511, 23.983, 17.164, 22.496, 18.806, 25.842, 24.791, 19.087, 26.899, 25.577, 18.853, 24.395, 21.828, 26.33, 24.281, 19.51, 25.583, 26.069, 23.414, 23.116, 23.679, 22.036, 26.786, 26.078, 20.235, 24.035, 23.308, 18.51, 23.879, 26.241, 25.319, 21.929, 20.032, 25.761, 23.867, 24.738, 22.62, 18.716, 22.187, 20.192, 21.377, 26.791, 23.483, 24.988, 25.254, 22.559, 24.664, 26.232, 22.67, 22.532, 19.501, 21.801, 21.512, 22.622, 20.753, 26.275, 25.615, 24.878, 22.753, 25.99, 23.969, 22.811, 22.818, 23.14, 24.793, 19.895, 27.723, 24.272, 20.499, 25.632, 26.305, 22.292, 22.689, 23.629, 25.066, 25.438, 24.192, 21.273, 24.789, 26.802, 22.209, 23.1, 23.084, 26.267, 19.033, 22.475, 23.777, 23.628, 22.639, 18.387, 24.207, 17.196, 27.296, 21.768, 22.546, 23.846, 27.024, 23.701, 26.601, 25.905, 26.311, 22.21, 26.371, 17.556, 26.548, 26.445, 26.585, 17.262, 26.906, 18.835, 26.708, 21.614, 23.639, 19.419, 20.693, 23.362, 18.397, 25.152, 18.41, 26.776, 19.109, 16.703, 24.29, 25.868, 23.606, 18.215, 24.496, 20.977, 26.015, 22.111, 21.606, 20.248, 26.125, 20.431, 23.742, 16.512, 25.01, 24.124, 22.137, 25.613, 20.062, 22.344, 18.526, 26.956, 23.445, 23.851, 18.042, 22.1, 23.251, 22.497, 20.215, 21.089, 21.145, 24.17, 26.218, 25.782, 25.883, 23.609, 15.82, 24.949, 26.43, 23.815, 24.435, 19.289, 25.202],
  "Optimizer iterations": 638,
  "Optimizer params": [0.572721291665347, 0.9024662376836341, 0.6785313298949086, 0.7893811807542698, 0.7290897987179834, 0.7523783646661041, 0.7453570247727953, 0.4859115635446754, 0.5718672577314775, 0.4946433329429458, 0.5159360543247906, 0.5004830334417124, 0.48912978583202155, 0.998986163253378, 0.5171392935411186, 0.4997567218696099, 0.44185607487067585, 0.419092180006001, 0.412738913105743, 0.4071913122786259, 0.3531614716417262, 0.5658037544625741, 0.4188135543088138, 0.5091979104522715, 0.48819494275697706, 0.5034594601370111, 0.49584078585657476, 0.48947580827385984],
  "P": 0,
  "Problem": "IC",
  "QPU": "7000000",
  "Qubits": 7,
  "Shots": 4096,
  "Size": 7,
  "Total Algorithm duration [s]": 14.68,
  "Total Classic duration [s]": 14.452483849817945,
  "Total Quantum duration [s]": 0.22751615018205484
}
