{
  "Circuit execution durations [ms]": [4.1587000000000005, 4.4485, 4.2179, 4.197399999999999, 4.179, 4.2008, 4.1323, 4.2226, 4.224399999999999, 4.1671, 4.1336, 4.2082999999999995, 4.1888000000000005, 4.2074, 4.224600000000001, 4.1921, 4.1878, 4.1937, 4.193, 4.2187, 4.1784, 4.2254, 4.2143, 4.1865000000000006, 4.207800000000001, 4.184, 4.1745, 4.178, 4.2094000000000005, 4.1934, 4.226, 4.3838, 4.2206, 4.1611, 4.1934, 4.2088, 4.1985, 4.1973, 4.1739999999999995, 4.1521, 4.1591, 4.2077, 4.1936, 4.1884, 4.1769, 4.1953, 4.2197, 4.2174, 4.1942, 4.2186, 4.1875, 4.1688, 4.187200000000001, 4.23, 4.209700000000001, 4.1654, 4.1554, 4.2081, 4.2212, 4.1716, 4.228400000000001, 4.211399999999999, 4.1593, 4.2578, 4.1304, 4.2218, 4.2058, 4.17, 4.1529, 4.158399999999999, 4.159000000000001, 4.3656, 4.2223, 4.2138, 4.2626, 4.1712, 4.1593, 4.2673, 4.1986, 4.1725],
  "Depth": 629.0,
  "Expectation Value": -2.9159085750579834,
  "Optimal Expectation Value": -3.0,
  "Optimizer durations [ms]": [42.557, 45.384, 48.494, 42.592, 42.676, 42.683, 42.141, 42.863, 43.052, 47.335, 42.09, 42.807, 42.77, 42.956, 43.074, 42.587, 42.792, 42.77, 42.912, 43.085, 42.441, 42.983, 42.878, 42.492, 42.919, 42.652, 42.962, 43.185, 42.728, 42.805, 42.946, 49.352, 43.085, 42.453, 42.758, 42.67, 42.599, 42.599, 42.573, 42.334, 42.397, 42.909, 42.671, 42.717, 42.543, 45.354, 43.021, 43.149, 52.261, 42.979, 42.47, 42.412, 42.719, 43.067, 42.839, 42.588, 42.194, 42.88, 42.806, 42.361, 43.186, 42.792, 42.164, 43.402, 41.959, 43.151, 42.793, 42.493, 42.452, 42.273, 42.321, 44.263, 50.149, 42.959, 43.278, 43.162, 42.444, 43.587, 42.756, 45.234],
  "Optimizer iterations": 80,
  "Optimizer params": [0.9998963967762483, 0.3339743252716212, 0.22719459931871738, 0.02929785513691951, 0.07504626174213583, 0.8666446403412257],
  "P": 3,
  "Problem": "MIS",
  "QJob durations [ms]": [4.1587000000000005, 4.4485, 4.2179, 4.197399999999999, 4.179, 4.2008, 4.1323, 4.2226, 4.224399999999999, 4.1671, 4.1336, 4.2082999999999995, 4.1888000000000005, 4.2074, 4.224600000000001, 4.1921, 4.1878, 4.1937, 4.193, 4.2187, 4.1784, 4.2254, 4.2143, 4.1865000000000006, 4.207800000000001, 4.184, 4.1745, 4.178, 4.2094000000000005, 4.1934, 4.226, 4.3838, 4.2206, 4.1611, 4.1934, 4.2088, 4.1985, 4.1973, 4.1739999999999995, 4.1521, 4.1591, 4.2077, 4.1936, 4.1884, 4.1769, 4.1953, 4.2197, 4.2174, 4.1942, 4.2186, 4.1875, 4.1688, 4.187200000000001, 4.23, 4.209700000000001, 4.1654, 4.1554, 4.2081, 4.2212, 4.1716, 4.228400000000001, 4.211399999999999, 4.1593, 4.2578, 4.1304, 4.2218, 4.2058, 4.17, 4.1529, 4.158399999999999, 4.159000000000001, 4.3656, 4.2223, 4.2138, 4.2626, 4.1712, 4.1593, 4.2673, 4.1986, 4.1725],
  "QPU": "7000000",
  "Qubits": 14,
  "Queue durations [ms]": [0.0, 0.0, 0.0, 0.0, 0.0, 0.0, 0.0, 0.0, 0.0, 0.0, 0.0, 0.0, 0.0, 0.0, 0.0, 0.0, 0.0, 0.0, 0.0, 0.0, 0.0, 0.0, 0.0, 0.0, 0.0, 0.0, 0.0, 0.0, 0.0, 0.0, 0.0, 0.0, 0.0, 0.0, 0.0, 0.0, 0.0, 0.0, 0.0, 0.0, 0.0, 0.0, 0.0, 0.0, 0.0, 0.0, 0.0, 0.0, 0.0, 0.0, 0.0, 0.0, 0.0, 0.0, 0.0, 0.0, 0.0, 0.0, 0.0, 0.0, 0.0, 0.0, 0.0, 0.0, 0.0, 0.0, 0.0, 0.0, 0.0, 0.0, 0.0, 0.0, 0.0, 0.0, 0.0, 0.0, 0.0, 0.0, 0.0, 0.0],
  "Shots": 4096,
  "Size": 11,
  "Total Algorithm duration [s]": 3.462,
  "Total Classic duration [s]": 3.1258718000000005,
  "Total Quantum duration [s]": 0.3361281999999999
}
