{
  "Circuit execution durations [ms]": [56.75935745239258, 55.552005767822266, 60.64033508300781, 54.326534271240234, 56.57339096069336, 58.06112289428711, 55.405378341674805, 58.818817138671875, 106.69207572937012, 61.457157135009766, 57.54399299621582, 56.07795715332031, 57.02352523803711, 115.5538558959961, 55.74989318847656, 59.4639778137207, 55.37247657775879, 56.22243881225586, 55.10401725769043, 62.01744079589844, 55.75895309448242, 56.41603469848633, 110.88681221008301, 56.484222412109375, 55.23371696472168, 58.66599082946777, 56.41651153564453, 110.74137687683105, 56.946516036987305, 59.40055847167969, 60.17351150512695, 58.06136131286621, 55.829524993896484, 56.32209777832031, 53.66396903991699, 54.80241775512695, 55.9539794921875, 55.713653564453125, 54.06332015991211, 60.454607009887695, 59.4935417175293, 108.06989669799805, 55.40609359741211, 59.99755859375, 57.72662162780762, 55.50575256347656, 117.67888069152832, 57.20067024230957, 53.79128456115723, 60.41908264160156, 56.05745315551758, 53.99656295776367, 54.51679229736328, 59.945106506347656, 58.136701583862305, 59.6613883972168, 60.169219970703125, 58.069467544555664, 58.36224555969238, 58.05826187133789, 105.6215763092041, 54.11529541015625, 56.610822677612305, 57.712554931640625, 57.26885795593262, 112.18142509460449, 56.01763725280762, 57.123661041259766, 56.17094039916992, 57.150840759277344, 56.45155906677246, 57.470083236694336, 57.85655975341797, 60.54568290710449, 53.52950096130371, 59.09609794616699, 58.26258659362793, 56.6256046295166, 55.854082107543945, 109.6799373626709, 54.93760108947754, 57.619571685791016, 56.89740180969238, 55.14645576477051, 109.12466049194336, 61.64979934692383, 56.79035186767578, 55.574893951416016, 60.675621032714844, 57.35421180725098, 60.16683578491211, 57.9373836517334],
  "Depth": 32.0,
  "Expectation Value": -1.8486328125,
  "Optimal Expectation Value": -2.0,
  "Optimizer durations [ms]": [346.014, 342.582, 348.303, 352.354, 299.934, 343.086, 344.271, 347.959, 345.622, 299.269, 344.178, 341.968, 347.215, 358.11, 293.912, 344.174, 347.043, 346.985, 299.119, 345.85, 343.087, 346.051, 354.541, 298.651, 339.412, 347.58, 346.753, 348.751, 299.482, 348.023, 348.276, 351.085, 294.315, 341.905, 341.292, 346.237, 348.829, 298.485, 340.087, 343.36, 348.429, 351.156, 299.778, 343.563, 347.399, 349.622, 360.834, 297.051, 343.365, 350.382, 349.451, 296.775, 343.416, 354.107, 356.596, 357.693, 302.55, 341.79, 343.524, 345.866, 349.325, 295.621, 339.571, 347.657, 348.394, 350.265, 298.945, 342.534, 345.419, 347.322, 298.35, 342.893, 349.343, 349.068, 344.061, 302.994, 346.79, 344.097, 344.843, 353.602, 296.912, 342.026, 344.614, 348.33, 352.092, 304.855, 346.31, 343.225, 352.052, 296.924, 344.681, 344.223],
  "Optimizer iterations": 92,
  "Optimizer params": [0.3332232397164807, 0.08965634639052077, 0.9920582538947847, 0.6528628273267129, 0.06133363870683731, 0.8348147482856221],
  "P": 3,
  "Problem": "MCP",
  "QJob durations [ms]": [89.72048759460449, 84.5804214477539, 89.33448791503906, 86.2727165222168, 89.97702598571777, 89.39075469970703, 89.39313888549805, 87.62764930725098, 135.04695892333984, 90.1341438293457, 89.13946151733398, 85.2363109588623, 86.212158203125, 148.39887619018555, 83.75859260559082, 88.18793296813965, 87.90135383605957, 85.1290225982666, 88.06133270263672, 90.80314636230469, 84.5942497253418, 85.5557918548584, 144.05298233032227, 88.65189552307129, 84.15508270263672, 89.9813175201416, 85.62350273132324, 139.07909393310547, 88.71626853942871, 91.22729301452637, 90.08121490478516, 87.22400665283203, 84.32388305664063, 88.85073661804199, 85.74986457824707, 87.26954460144043, 138.76891136169434, 87.5389575958252, 86.11464500427246, 88.87600898742676, 87.93997764587402, 141.14689826965332, 88.78564834594727, 88.29069137573242, 87.61191368103027, 84.67864990234375, 149.5530605316162, 86.32278442382813, 85.95991134643555, 89.45298194885254, 85.45327186584473, 86.30728721618652, 86.72547340393066, 93.19353103637695, 91.24970436096191, 92.53787994384766, 89.81800079345703, 87.71610260009766, 87.67414093017578, 86.5328311920166, 138.7171745300293, 85.62088012695313, 85.30712127685547, 90.08073806762695, 85.57772636413574, 140.84196090698242, 88.75131607055664, 86.04645729064941, 87.91136741638184, 85.84427833557129, 88.02485466003418, 89.81442451477051, 90.2869701385498, 89.51044082641602, 82.54337310791016, 92.12398529052734, 91.67098999023438, 89.2496109008789, 84.57612991333008, 142.73452758789063, 86.2576961517334, 86.6096019744873, 86.71379089355469, 86.90381050109863, 141.61229133605957, 94.40183639526367, 89.64896202087402, 83.77385139465332, 90.2860164642334, 86.33756637573242, 91.4459228515625, 87.13102340698242],
  "QPU": "3000010",
  "Qubits": 3,
  "Queue durations [ms]": [0.0, 0.0, 0.0, 0.0, 0.0, 0.0, 0.0, 0.0, 0.0, 0.0, 0.0, 0.0, 0.0, 0.0, 0.0, 0.0, 0.0, 0.0, 0.0, 0.0, 0.0, 0.0, 0.0, 0.0, 0.0, 0.0, 0.0, 0.0, 0.0, 0.0, 0.0, 0.0, 0.0, 0.0, 0.0, 0.0, 0.0, 0.0, 0.0, 0.0, 0.0, 0.0, 0.0, 0.0, 0.0, 0.0, 0.0, 0.0, 0.0, 0.0, 0.0, 0.0, 0.0, 0.0, 0.0, 0.0, 0.0, 0.0, 0.0, 0.0, 0.0, 0.0, 0.0, 0.0, 0.0, 0.0, 0.0, 0.0, 0.0, 0.0, 0.0, 0.0, 0.0, 0.0, 0.0, 0.0, 0.0, 0.0, 0.0, 0.0, 0.0, 0.0, 0.0, 0.0, 0.0, 0.0, 0.0, 0.0, 0.0, 0.0, 0.0, 0.0],
  "Shots": 4096,
  "Size": 3,
  "Total Algorithm duration [s]": 31.004,
  "Total Classic duration [s]": 22.329951337814332,
  "Total Quantum duration [s]": 8.674048662185669
}
