{
  "Depth": 149.0,
  "Job durations [ms]": [40.032, 40.88, 40.484, 40.405, 40.138, 40.127, 39.943, 40.479, 40.807, 40.509, 39.217, 39.107, 40.08, 39.663, 39.727, 39.405, 39.149, 39.193, 39.510999999999996, 39.619, 39.194, 39.19799999999999, 39.286, 39.654, 39.155, 39.416, 39.933, 39.413999999999994, 46.257, 39.432, 39.660000000000004, 39.751000000000005, 39.209, 39.192, 39.929, 39.352, 39.213, 39.165, 106.06, 39.282, 39.668, 39.669999999999995, 39.562, 39.866, 39.944, 39.260000000000005, 39.459, 40.529, 39.796, 40.403, 40.815, 40.73800000000001, 39.718, 41.406, 39.951, 40.247, 40.069, 40.542, 105.31400000000001, 40.031, 39.76, 41.251999999999995, 40.584, 40.001000000000005, 39.768, 40.082, 39.510000000000005, 39.448, 39.449, 39.519, 39.783, 39.884, 39.721, 39.463, 40.04, 39.233, 39.268, 39.352, 39.827, 39.585, 39.895, 39.510999999999996, 40.042, 39.519999999999996, 39.729, 40.804, 40.321000000000005, 40.345, 39.794000000000004, 39.957, 40.014, 43.003, 40.294999999999995, 40.56, 40.129999999999995, 39.699],
  "Optimizer durations [ms]": [49.895, 50.746, 50.172, 50.091, 49.857, 49.894, 49.585, 50.267, 50.95, 50.639, 48.828, 48.664, 49.654, 113.616, 49.49, 48.954, 48.541, 48.82, 49.372, 49.256, 48.694, 48.758, 48.721, 49.181, 48.798, 48.787, 49.357, 49.044, 56.29, 49.695, 49.369, 49.422, 48.853, 48.892, 49.695, 48.906, 48.652, 48.782, 115.539, 48.901, 49.26, 49.416, 49.184, 49.367, 49.296, 48.675, 48.823, 49.914, 49.745, 49.998, 50.31, 50.28, 49.383, 51.121, 49.649, 49.642, 49.717, 50.193, 115.106, 49.73, 49.344, 50.908, 50.283, 49.641, 49.652, 49.561, 49.535, 49.061, 49.123, 49.125, 49.319, 49.374, 49.533, 49.164, 49.437, 48.715, 115.962, 48.993, 49.376, 49.069, 49.45, 48.83, 49.603, 49.194, 49.18, 50.195, 49.934, 49.797, 49.527, 49.601, 49.597, 52.319, 50.079, 50.106, 49.645, 49.289],
  "Optimizer iterations": 96,
  "Qubits": 8,
  "Total Algorithm duration [s]": 5.022,
  "Total Classic duration [s]": 1.0556370000000008,
  "Total Quantum duration [s]": 3.9663629999999994,
  "Expectation Value": -8.94580078125,
  "Optimal Expectation Value": -12.0,
  "Optimizer params": [0.9752043332399328, 0.8950068631792094, 0.9520912465350679, 0.8218482888775918, 0.5003887651234362, 0.32892346982588144],
  "QPU": "9000001",
  "Problem": "MCP",
  "Size": 8,
  "P": 3,
  "Shots": 4096
}