{
  "Depth": 185.0,
  "Expectation Value": -13.391589164733887,
  "Job durations [ms]": [1.3027, 1.2405000000000002, 1.3192, 1.4054, 1.6715, 1.3091000000000002, 1.3067, 1.3249, 1.1833, 1.2930000000000001, 1.2123, 1.4752999999999998, 1.4255, 1.3613, 1.2279, 1.3618000000000001, 1.2155, 1.2087999999999999, 1.194, 1.2706, 1.1643000000000001, 1.2079, 1.2181, 1.4629, 1.5302, 1.3322, 1.2145000000000001, 1.3177, 1.2362, 1.285, 1.373, 1.4714, 1.192, 1.2204, 1.3088, 1.5997999999999999, 1.2451, 1.3259999999999998, 1.3037999999999998, 1.3502, 1.2132, 1.0756999999999999, 1.3489, 1.4220000000000002, 1.2649, 1.4595, 1.2522, 1.2773, 1.3921999999999999, 1.2964, 1.2792000000000001, 1.4196, 1.3163, 1.7386000000000001, 1.596, 1.2451999999999999, 1.1720000000000002, 1.1879, 1.5874000000000001, 1.1661, 1.3237999999999999, 1.2039, 1.5448, 1.1999, 1.2049, 1.2198, 1.3802, 1.2550000000000001, 1.657, 1.2627000000000002, 1.4300000000000002, 1.3104, 1.2725, 1.2838999999999998, 1.4123, 1.3140999999999998, 1.4607, 1.306, 1.3127, 1.303, 1.4987, 1.3069, 1.2298, 1.3886, 1.2864, 1.4249, 1.2791000000000001, 1.5141, 1.3286],
  "Optimal Expectation Value": -14.0,
  "Optimizer durations [ms]": [23.204, 23.13, 23.645, 17.463, 22.574, 19.495, 23.559, 20.16, 19.854, 18.764, 22.351, 17.53, 19.689, 15.717, 22.424, 19.804, 21.288, 22.354, 22.251, 18.415, 22.983, 20.045, 18.312, 18.706, 17.2, 19.338, 21.732, 22.099, 22.798, 21.59, 22.618, 18.117, 17.994, 20.622, 17.164, 20.138, 22.176, 21.904, 18.776, 17.456, 18.563, 21.117, 24.355, 19.692, 18.589, 21.194, 21.949, 18.911, 22.035, 23.657, 22.107, 18.096, 23.697, 23.208, 17.378, 23.887, 19.971, 21.927, 21.253, 18.289, 18.063, 22.653, 21.656, 22.213, 20.248, 22.303, 19.44, 21.868, 20.791, 23.208, 15.987, 19.418, 18.387, 23.122, 16.508, 22.117, 16.108, 18.52, 18.708, 18.494, 20.076, 18.663, 21.122, 21.654, 20.274, 19.575, 23.218, 16.183, 19.378],
  "Optimizer iterations": 89,
  "Optimizer params": [0.851105074588154, 0.9292190544757231, 0.8401582821256325, 0.045178880591791856, 0.5713365361475086, 0.31566417098337335],
  "P": 3,
  "Problem": "MCP",
  "QPU": "7000000",
  "Qubits": 10,
  "Shots": 4096,
  "Size": 10,
  "Total Algorithm duration [s]": 1.815,
  "Total Classic duration [s]": 1.6967059,
  "Total Quantum duration [s]": 0.11829409999999997
}
