{
  "Depth": 185.0,
  "Expectation Value": -12.667047500610352,
  "Job durations [ms]": [1.3034999999999999, 1.2207, 1.2102, 1.2075, 1.3253, 1.2417, 1.2409999999999999, 1.2565, 1.1999, 1.25, 1.4018, 1.2927, 1.2741, 1.1926, 1.3415000000000001, 1.3281, 1.251, 1.261, 1.2402, 1.2631999999999999, 1.2493, 1.6166, 1.2659, 1.2704000000000002, 1.2419, 1.5555, 1.228, 1.3445, 1.2283000000000002, 1.5855000000000001, 1.2078, 1.2135, 1.2065000000000001, 1.287, 1.2201, 1.2067, 1.2095, 1.2162, 1.213, 1.2387, 1.3584, 1.5742, 1.3127, 1.2075, 1.2595, 1.1999, 1.222, 1.3822, 1.2178, 1.2176, 1.1914, 1.3924, 1.1911, 1.3574, 1.5862, 1.4079, 1.5042, 1.6194, 1.5915000000000001, 1.3494, 1.2205, 1.2081, 1.472, 1.3056, 1.2512, 1.2218, 1.1964000000000001, 1.2199000000000002, 1.1759, 1.6032, 1.1801, 1.2349999999999999, 1.2165, 1.2021, 1.1983, 1.324, 1.2196, 1.4348, 1.2329, 1.3217, 1.3735, 1.2286000000000001, 1.1827999999999999, 1.2155, 1.2805, 1.2023, 1.4105999999999999],
  "Optimal Expectation Value": -14.0,
  "Optimizer durations [ms]": [18.408, 22.663, 22.574, 19.396, 18.923, 22.556, 20.036, 18.622, 22.291, 22.891, 22.29, 21.189, 18.251, 22.26, 19.149, 18.06, 22.723, 21.87, 20.004, 22.962, 22.991, 21.979, 23.191, 23.308, 22.878, 19.276, 17.986, 21.556, 21.677, 21.174, 20.259, 22.413, 22.513, 16.138, 22.256, 22.174, 18.369, 18.77, 18.086, 21.709, 18.916, 22.201, 22.367, 22.219, 22.841, 17.888, 22.88, 21.703, 19.875, 22.302, 21.985, 21.507, 22.197, 15.208, 18.709, 22.089, 18.842, 21.654, 21.761, 15.086, 22.531, 17.904, 21.803, 21.802, 21.874, 20.26, 18.948, 22.884, 18.568, 20.343, 21.766, 22.662, 20.219, 21.94, 17.813, 18.092, 19.813, 18.125, 22.907, 18.751, 21.648, 22.541, 19.847, 22.585, 18.783, 18.681, 21.723],
  "Optimizer iterations": 87,
  "Optimizer params": [0.9669835576186768, 0.9988550978737157, 0.013541840303654556, 0.5861518647035606, 0.8789107681699151, 0.9985238080406573],
  "P": 3,
  "Problem": "MCP",
  "QPU": "7000000",
  "Qubits": 10,
  "Shots": 4096,
  "Size": 10,
  "Total Algorithm duration [s]": 1.802,
  "Total Classic duration [s]": 1.6894165,
  "Total Quantum duration [s]": 0.1125835
}
