{
  "Depth": 185.0,
  "Expectation Value": -12.467605590820313,
  "Job durations [ms]": [1.6287999999999998, 1.4472, 1.4534, 1.4748999999999999, 1.127, 1.2432999999999998, 1.1766999999999999, 1.1995, 1.4127, 1.2539, 1.2973, 1.3167, 1.5141, 1.3121, 1.3084, 1.1937, 1.3403, 1.2182, 1.5472000000000001, 1.4054, 1.4165, 1.2191, 1.2233, 1.3628, 1.4501, 1.3146, 1.3749, 1.3634000000000002, 1.5896000000000001, 1.2901, 1.6088, 1.6796, 1.3598, 1.6153, 1.6683, 1.631, 1.3708, 1.3007, 1.5848, 1.2144, 1.2224, 1.4821, 1.4764000000000002, 1.2152, 1.2136, 1.3509, 1.2769000000000001, 1.2174, 1.3546, 1.27, 1.2248999999999999, 1.2409999999999999, 1.4266, 1.4877, 1.5301, 1.2011, 1.238, 1.2049999999999998, 1.2446],
  "Optimal Expectation Value": -14.0,
  "Optimizer durations [ms]": [21.735, 22.366, 19.881, 18.783, 13.881, 17.906, 21.805, 22.525, 19.432, 22.805, 23.165, 23.434, 18.348, 21.973, 23.753, 19.03, 18.961, 17.962, 22.136, 19.555, 22.175, 19.057, 22.441, 19.191, 17.425, 22.366, 23.871, 23.79, 23.157, 19.089, 21.769, 21.293, 23.773, 17.972, 23.36, 22.779, 22.352, 21.268, 16.736, 22.341, 18.628, 16.456, 22.035, 22.159, 18.981, 19.137, 17.889, 22.537, 21.664, 22.773, 22.417, 20.996, 19.822, 21.171, 17.931, 22.352, 22.802, 22.417, 22.577],
  "Optimizer iterations": 59,
  "Optimizer params": [0.22609065990547336, 0.9569477953385139, 0.7557598267037238, 0.9959789558345513, 0.6313692211502306, 0.46942375787863183],
  "P": 3,
  "Problem": "MCP",
  "QPU": "7000000",
  "Qubits": 10,
  "Shots": 4096,
  "Size": 10,
  "Total Algorithm duration [s]": 1.23,
  "Total Classic duration [s]": 1.1496127999999999,
  "Total Quantum duration [s]": 0.0803872
}
