{
  "Depth": 185.0,
  "Expectation Value": -12.794520378112793,
  "Job durations [ms]": [1.2158, 1.2123, 1.2318, 1.3849, 1.2002, 1.2428000000000001, 1.4222, 1.1953, 1.1904000000000001, 1.2082, 1.4902, 1.3599, 1.1850999999999998, 1.1846999999999999, 1.5162, 1.4201000000000001, 1.1868, 1.2149, 1.2960999999999998, 1.2725, 1.4604, 1.2045000000000001, 1.2205, 1.1907, 1.2205, 1.2766, 1.2174, 1.3415000000000001, 1.2023, 1.6049, 1.3355000000000001, 1.2276, 1.1727, 1.2589000000000001, 1.198, 1.526, 1.2053, 1.3982, 1.3016, 1.2144, 1.2623, 1.2511, 1.2345, 1.1946, 1.5610000000000002, 1.4723, 1.2701, 1.5532, 1.4421, 1.2551999999999999, 1.2792000000000001, 1.5829, 1.3002999999999998, 1.1793, 1.2866, 1.3657000000000001, 1.2585000000000002, 1.2796, 1.2711000000000001, 1.2182, 1.2852000000000001, 1.6105, 1.2172999999999998, 1.2177, 1.302, 1.4667000000000001, 1.26, 1.2196, 1.2021, 1.1981, 1.3172, 1.1855, 1.2084000000000001, 1.1859, 1.2288, 1.2219, 1.2146, 1.2293, 1.3137999999999999, 1.5666, 1.2024, 1.2953000000000001, 1.3068000000000002, 1.4482, 1.3892, 1.2512, 1.4028999999999998, 1.1775],
  "Optimal Expectation Value": -14.0,
  "Optimizer durations [ms]": [22.371, 22.446, 22.686, 19.374, 22.286, 22.941, 21.769, 19.563, 21.647, 22.527, 21.607, 21.401, 22.073, 22.139, 19.381, 21.81, 21.953, 21.439, 23.215, 17.364, 21.63, 22.26, 22.462, 19.921, 18.732, 18.214, 22.373, 21.599, 18.166, 21.504, 21.838, 18.666, 19.365, 22.402, 22.405, 21.393, 20.537, 21.435, 18.562, 19.612, 18.194, 22.979, 19.767, 22.66, 21.66, 22.871, 20.941, 19.603, 20.364, 22.899, 19.875, 22.912, 23.455, 22.24, 23.548, 23.887, 22.573, 23.228, 23.153, 19.354, 20.018, 21.916, 22.717, 22.615, 22.072, 20.587, 22.969, 21.971, 21.529, 20.303, 19.212, 20.539, 22.293, 22.029, 18.624, 22.417, 22.626, 21.126, 16.075, 18.325, 22.308, 18.678, 18.411, 21.911, 18.681, 18.597, 21.71, 19.326],
  "Optimizer iterations": 88,
  "Optimizer params": [0.45583070962334005, 0.39524040102917884, 0.6408875624711909, 0.019218731039550373, 0.9996354169278555, 0.23495374774032593],
  "P": 3,
  "Problem": "MCP",
  "QPU": "7000000",
  "Qubits": 10,
  "Shots": 4096,
  "Size": 10,
  "Total Algorithm duration [s]": 1.858,
  "Total Classic duration [s]": 1.7439496,
  "Total Quantum duration [s]": 0.11405040000000001
}
