{
  "Depth": 185.0,
  "Expectation Value": -12.579386711120605,
  "Job durations [ms]": [1.2707, 1.2030999999999998, 1.1782, 1.274, 1.2843, 1.1888, 1.1941, 1.5829, 1.2744, 1.2692999999999999, 1.2333, 1.3288, 1.1875, 1.1916, 1.2242, 1.2136, 1.2821, 1.4427, 1.1704, 1.1881000000000002, 1.1799, 1.3716, 1.2057, 1.2033, 1.1958, 1.5843999999999998, 1.1876, 1.1982, 1.1731, 1.3518000000000001, 1.2728, 1.1724999999999999, 1.1941, 1.1964000000000001, 1.27, 1.174, 1.198, 1.5749, 1.2046999999999999, 1.1897, 1.1856, 1.1991, 1.1915, 1.2133, 1.1854, 1.5365000000000002, 1.5314, 1.2569000000000001, 1.339, 1.1686999999999999, 1.2596, 1.1705999999999999, 1.1932, 1.3609, 1.2828, 1.1802, 1.1996, 1.2267000000000001, 1.2041, 1.2155, 1.2113, 1.1876, 1.1985, 1.1898, 1.2884, 1.4686000000000001, 1.1858000000000002, 1.2823000000000002],
  "Optimal Expectation Value": -14.0,
  "Optimizer durations [ms]": [18.139, 22.29, 22.131, 15.83, 18.388, 22.302, 22.333, 18.795, 18.321, 18.188, 18.719, 19.235, 22.02, 22.371, 20.784, 22.485, 18.347, 21.801, 19.199, 18.832, 22.203, 21.492, 18.465, 22.506, 22.288, 21.012, 19.305, 18.408, 22.275, 18.904, 16.812, 22.04, 22.222, 20.569, 17.928, 21.919, 18.589, 21.394, 19.472, 22.136, 22.266, 18.526, 18.097, 22.498, 22.179, 18.405, 21.388, 17.991, 21.629, 19.625, 13.909, 21.091, 22.389, 19.963, 15.14, 21.972, 21.541, 18.828, 22.179, 22.624, 21.244, 17.623, 20.801, 18.298, 21.583, 17.435, 22.104, 18.294],
  "Optimizer iterations": 68,
  "Optimizer params": [0.3099719767658751, 0.568389089257247, 0.1750909443725213, 0.0022031010316794918, 0.40318749108910285, 0.0005773237177680577],
  "P": 3,
  "Problem": "MCP",
  "QPU": "7000000",
  "Qubits": 10,
  "Shots": 4096,
  "Size": 10,
  "Total Algorithm duration [s]": 1.37,
  "Total Classic duration [s]": 1.2846065000000002,
  "Total Quantum duration [s]": 0.08539349999999997
}
