{
  "Depth": 167.0,
  "Job durations [ms]": [1.2471999999999999, 1.1647999999999998, 1.1956, 1.1826, 1.1884000000000001, 1.1971, 1.2853999999999999, 1.1787, 1.245, 1.1865999999999999, 1.1885999999999999, 1.1974, 1.2397, 1.1892, 1.2168, 1.1941, 1.1997, 1.1599, 1.2556, 1.1815, 1.1869999999999998, 1.4759, 1.5003, 1.1666, 1.3345, 1.5541, 1.4543, 1.5185000000000002, 1.2345, 1.1451, 1.4119, 1.2642, 1.2735999999999998, 1.4369999999999998, 1.2511, 1.2290999999999999, 1.1926, 1.1638, 1.1622, 1.2149999999999999, 1.1458, 1.3836, 1.2524000000000002, 1.1916, 1.3161, 1.4834, 1.1506, 1.292, 1.2848, 1.1844, 1.1566, 1.2184, 1.2118, 1.1988999999999999, 1.2308, 1.1845, 1.2446, 1.1766, 1.1872, 1.1574, 1.2135, 1.1695, 1.1642, 1.1586, 1.2455, 1.1799, 1.1952, 1.2117, 1.2186000000000001, 1.2241000000000002, 1.2061000000000002, 1.1602, 1.1942000000000002, 1.1922, 1.1894, 1.1558, 1.214, 1.1531, 1.196, 1.1305],
  "Optimizer durations [ms]": [12.864, 12.425, 12.77, 12.496, 12.376, 12.624, 13.61, 12.496, 13.402, 12.557, 12.545, 12.547, 13.109, 12.246, 20.154, 12.43, 12.748, 12.178, 13.012, 12.556, 12.36, 16.665, 15.88, 16.992, 17.011, 21.539, 20.05, 15.755, 12.859, 12.211, 14.584, 13.342, 13.405, 20.049, 12.806, 13.048, 12.604, 11.951, 16.907, 12.598, 12.561, 14.345, 13.133, 12.68, 21.127, 18.708, 12.313, 13.399, 13.476, 12.587, 12.276, 12.862, 12.593, 12.698, 12.595, 12.538, 13.041, 12.263, 12.552, 12.162, 12.783, 12.056, 12.303, 12.118, 13.059, 12.156, 12.798, 12.692, 12.7, 12.76, 12.549, 12.249, 12.858, 12.181, 12.853, 12.163, 12.493, 12.238, 12.435, 12.074],
  "Optimizer iterations": 80,
  "Qubits": 9,
  "Total Algorithm duration [s]": 1.083,
  "Total Classic duration [s]": 0.9843109999999999,
  "Total Quantum duration [s]": 0.09868900000000001,
  "Expectation Value": -11.474178314208984,
  "Optimal Expectation Value": -12.0,
  "Optimizer params": [0.7066855388656865, 0.19910494349142166, 0.8296237408526617, 0.513562116269032, 0.3696600528055871, 0.8823781296146237],
  "QPU": "7000000",
  "Problem": "MCP",
  "Size": 9,
  "P": 3,
  "Shots": 4096
}