{
  "Circuit execution durations [ms]": [86.69734001159668, 33.019065856933594, 76.01356506347656, 37.531375885009766, 55.02915382385254, 406.86941146850586, 48.20418357849121, 48.12002182006836, 32.38654136657715, 56.6408634185791, 317.46482849121094, 311.19489669799805, 407.210111618042, 88.41085433959961, 41.11981391906738, 55.11879920959473, 223.0682373046875, 344.3584442138672, 164.28160667419434, 288.33603858947754, 54.375648498535156, 182.41548538208008, 57.15584754943848, 316.6518211364746, 55.094242095947266, 417.6795482635498, 58.26592445373535, 93.26839447021484, 42.84787178039551, 424.82590675354004, 35.30311584472656, 55.734872817993164, 42.287588119506836, 44.962167739868164, 47.08743095397949, 39.595603942871094, 46.98371887207031, 326.6482353210449, 380.6588649749756, 30.650615692138672, 79.11252975463867, 28.0458927154541, 272.3517417907715, 190.78397750854492, 77.70562171936035, 31.1887264251709, 34.970998764038086, 132.7073574066162, 166.8689250946045, 56.32185935974121, 46.67234420776367, 40.77410697937012, 159.30843353271484, 91.89724922180176, 46.31948471069336, 40.69709777832031, 243.47639083862305, 49.14140701293945, 37.30010986328125, 117.28763580322266, 31.726360321044922, 421.22459411621094, 37.645816802978516, 219.8638916015625, 37.06979751586914, 81.34627342224121, 398.03004264831543, 548.1956005096436, 44.48270797729492, 399.569034576416, 439.18848037719727, 43.889760971069336, 547.6658344268799, 320.4538822174072, 45.21059989929199, 53.86495590209961, 34.028053283691406, 56.224822998046875, 36.50212287902832, 58.61306190490723, 44.51704025268555, 402.864933013916, 44.55280303955078, 197.02816009521484, 44.48533058166504, 59.417009353637695, 89.34688568115234, 384.22489166259766, 45.35841941833496, 326.338529586792, 279.72865104675293, 97.02658653259277, 369.21095848083496, 59.80873107910156],
  "Depth": 110.0,
  "Expectation Value": -1.867431640625,
  "Optimal Expectation Value": -4.0,
  "Optimizer durations [ms]": [806.461, 737.614, 797.416, 763.529, 735.809, 1121.653, 788.031, 761.381, 694.482, 764.152, 1058.499, 970.743, 1121.812, 836.471, 768.943, 726.502, 951.178, 1058.979, 831.076, 994.08, 759.16, 857.252, 761.047, 1020.864, 760.315, 1117.404, 763.387, 791.371, 697.363, 1131.11, 775.885, 761.749, 731.474, 770.101, 751.182, 694.259, 754.954, 1032.425, 1060.562, 736.138, 795.834, 758.625, 955.054, 887.799, 793.826, 696.21, 732.737, 831.847, 864.072, 732.181, 789.994, 767.7, 829.502, 796.008, 757.675, 765.065, 900.017, 759.537, 798.016, 785.535, 738.357, 1142.971, 714.719, 926.021, 757.19, 793.962, 1077.551, 1282.417, 789.589, 1072.232, 1146.574, 812.15, 1281.028, 1081.451, 771.552, 762.506, 692.073, 767.058, 757.801, 763.604, 723.447, 1149.644, 772.482, 867.62, 763.667, 761.04, 756.825, 1092.146, 772.471, 1064.242, 983.219, 818.088, 1089.685, 739.952],
  "Optimizer iterations": 94,
  "Optimizer params": [0.9871890698786975, 0.7183539539980448, 0.33373509471030616, 0.9474018943343977, 0.7409157901851917, 0.866705486963744],
  "P": 3,
  "Problem": "TSP",
  "QJob durations [ms]": [681.6983222961426, 612.7266883850098, 620.7544803619385, 633.9564323425293, 610.0664138793945, 948.6756324768066, 662.2321605682373, 640.3131484985352, 571.373462677002, 592.1030044555664, 932.201623916626, 847.5971221923828, 946.8560218811035, 707.5169086456299, 642.1875953674316, 598.3400344848633, 775.8550643920898, 932.5649738311768, 703.3922672271729, 821.4325904846191, 635.765552520752, 735.196590423584, 591.9411182403564, 845.3705310821533, 638.5247707366943, 988.4459972381592, 591.0036563873291, 671.2183952331543, 576.3258934020996, 960.9508514404297, 648.2486724853516, 638.5288238525391, 601.2849807739258, 595.90744972229, 628.8101673126221, 572.6099014282227, 583.9433670043945, 907.9575538635254, 930.1421642303467, 566.8601989746094, 621.5934753417969, 630.9182643890381, 831.6938877105713, 718.7614440917969, 668.5678958892822, 568.9618587493896, 563.5702610015869, 665.9443378448486, 742.4101829528809, 610.0842952728271, 604.2420864105225, 635.612964630127, 702.6574611663818, 624.504566192627, 635.5068683624268, 640.3632164001465, 779.1163921356201, 582.465648651123, 671.6337203979492, 660.01296043396, 569.3106651306152, 1019.385814666748, 588.6697769165039, 760.8318328857422, 578.6597728729248, 668.4246063232422, 951.4131546020508, 1103.492021560669, 664.2193794250488, 945.0113773345947, 972.5687503814697, 630.2943229675293, 1156.5217971801758, 941.4322376251221, 588.6564254760742, 639.2416954040527, 567.0268535614014, 599.9383926391602, 627.7844905853271, 636.0423564910889, 598.7238883972168, 973.2904434204102, 642.9200172424316, 741.4388656616211, 583.6257934570313, 639.7624015808105, 631.547212600708, 921.5214252471924, 593.1248664855957, 941.5192604064941, 859.5845699310303, 637.7112865447998, 966.1281108856201, 603.7013530731201],
  "QPU": "3010008",
  "Qubits": 16,
  "Queue durations [ms]": [0.0, 0.0, 0.0, 0.0, 0.0, 0.0, 0.0, 0.0, 0.0, 0.0, 0.0, 0.0, 0.0, 0.0, 0.0, 0.0, 0.0, 0.0, 0.0, 0.0, 0.0, 0.0, 0.0, 0.0, 0.0, 0.0, 0.0, 0.0, 0.0, 0.0, 0.0, 0.0, 0.0, 0.0, 0.0, 0.0, 0.0, 0.0, 0.0, 0.0, 0.0, 0.0, 0.0, 0.0, 0.0, 0.0, 0.0, 0.0, 0.0, 0.0, 0.0, 0.0, 0.0, 0.0, 0.0, 0.0, 0.0, 0.0, 0.0, 0.0, 0.0, 0.0, 0.0, 0.0, 0.0, 0.0, 0.0, 0.0, 0.0, 0.0, 0.0, 0.0, 0.0, 0.0, 0.0, 0.0, 0.0, 0.0, 0.0, 0.0, 0.0, 0.0, 0.0, 0.0, 0.0, 0.0, 0.0, 0.0, 0.0, 0.0, 0.0, 0.0, 0.0, 0.0],
  "Shots": 4096,
  "Size": 4,
  "Total Algorithm duration [s]": 80.499,
  "Total Classic duration [s]": 13.405972408294673,
  "Total Quantum duration [s]": 67.09302759170532
}
