{
  "Circuit execution durations [ms]": [120.15271186828613, 130.85198402404785, 87.43500709533691, 34.22045707702637, 309.1871738433838, 44.13437843322754, 40.21191596984863, 37.80317306518555, 33.48588943481445, 30.339717864990234, 58.850765228271484, 52.993059158325195, 42.80662536621094, 44.52991485595703, 53.121328353881836, 39.1688346862793, 56.76841735839844, 474.66182708740234, 419.4822311401367, 380.4776668548584, 399.0936279296875, 119.62151527404785, 44.69490051269531, 42.84071922302246, 33.090829849243164, 47.41239547729492, 550.8987903594971, 397.0835208892822, 396.46267890930176, 198.7168788909912, 247.75314331054688, 33.0202579498291, 56.92601203918457, 37.54568099975586, 178.76696586608887, 52.26325988769531, 49.762725830078125, 43.64347457885742, 31.44073486328125, 31.53848648071289, 56.33854866027832, 39.614200592041016, 384.490966796875, 52.84881591796875, 360.17537117004395, 31.38875961303711, 249.59659576416016, 290.2967929840088, 57.03926086425781, 48.05445671081543, 43.49875450134277, 369.20666694641113, 57.096242904663086, 366.9281005859375, 48.63286018371582, 477.2908687591553, 264.42909240722656, 616.6987419128418, 418.46704483032227, 395.9641456604004, 41.69464111328125, 33.997297286987305, 378.1471252441406, 385.99228858947754, 392.0915126800537, 363.9564514160156, 50.05288124084473, 652.5542736053467, 396.6372013092041, 382.2653293609619, 386.6400718688965, 38.13529014587402, 34.6531867980957, 71.69270515441895, 47.02496528625488, 479.0024757385254, 413.1946563720703, 42.69909858703613, 202.6216983795166, 37.41121292114258, 382.25698471069336, 45.42708396911621, 404.15191650390625, 37.833213806152344, 40.41624069213867, 394.90580558776855, 50.28390884399414, 44.86894607543945, 95.7784652709961],
  "Depth": 110.0,
  "Expectation Value": -7.636962890625,
  "Optimal Expectation Value": -4.0,
  "Optimizer durations [ms]": [737.927, 771.029, 734.917, 695.827, 923.829, 715.667, 744.676, 644.904, 680.282, 704.464, 951.534, 728.227, 768.829, 763.192, 729.72, 765.501, 763.387, 1294.872, 1196.546, 1201.006, 1117.978, 807.764, 765.918, 769.012, 709.881, 772.23, 1331.374, 1114.881, 1056.897, 923.295, 954.005, 697.817, 763.957, 754.057, 885.35, 708.924, 756.457, 762.571, 696.663, 724.906, 795.984, 766.748, 1052.937, 760.861, 1053.769, 697.173, 1116.022, 993.228, 760.673, 729.299, 796.661, 1122.553, 735.665, 1075.371, 816.825, 1214.191, 963.389, 1334.912, 1161.81, 1047.598, 774.442, 772.105, 1041.174, 1108.25, 1120.968, 1120.65, 725.136, 1388.363, 1162.299, 1059.538, 1109.47, 773.122, 753.098, 735.81, 764.981, 1347.222, 1134.62, 795.122, 932.061, 763.489, 1138.174, 767.977, 1110.709, 692.772, 768.352, 1105.804, 744.944, 735.664, 829.642],
  "Optimizer iterations": 89,
  "Optimizer params": [0.4819352292276371, 0.6890884425455612, 0.983130571724873, 0.7246084193047808, 0.5752236075137594, 0.047255150166800396],
  "P": 3,
  "Problem": "TSP",
  "QJob durations [ms]": [622.1797466278076, 616.7008876800537, 575.2177238464355, 578.7782669067383, 807.8651428222656, 551.8977642059326, 626.2552738189697, 528.8095474243164, 525.5234241485596, 585.6747627258301, 710.8328342437744, 601.1030673980713, 591.5133953094482, 638.1938457489014, 602.3406982421875, 591.8359756469727, 639.4760608673096, 1168.773889541626, 1061.0370635986328, 992.7430152893066, 979.8104763031006, 679.5511245727539, 590.477466583252, 642.6427364349365, 579.2744159698486, 597.7914333343506, 1151.4124870300293, 985.236406326294, 933.1014156341553, 741.6892051696777, 829.3304443359375, 569.8649883270264, 596.282958984375, 576.1923789978027, 764.2314434051514, 586.108922958374, 584.0985774993896, 634.0510845184326, 569.7124004364014, 553.778886795044, 610.0218296051025, 635.998010635376, 931.6344261169434, 587.7890586853027, 933.4988594055176, 571.6886520385742, 939.8393630981445, 822.8962421417236, 637.3467445373535, 605.288028717041, 620.1703548431396, 999.3431568145752, 611.3796234130859, 904.364824295044, 690.3693675994873, 1091.3231372833252, 836.9183540344238, 1154.9663543701172, 1029.604196548462, 924.8173236846924, 597.2926616668701, 633.3842277526855, 918.3158874511719, 926.6746044158936, 934.6864223480225, 996.6683387756348, 600.9104251861572, 1212.6903533935547, 1019.8206901550293, 926.0416030883789, 923.1138229370117, 596.8194007873535, 630.3093433380127, 610.9015941619873, 584.3844413757324, 1195.4677104949951, 999.8595714569092, 611.950159072876, 751.3594627380371, 637.8047466278076, 1008.681058883667, 592.670202255249, 986.3870143890381, 565.3531551361084, 588.80615234375, 939.1098022460938, 622.2288608551025, 608.1552505493164, 648.4630107879639],
  "QPU": "3010008",
  "Qubits": 16,
  "Queue durations [ms]": [0.0, 0.0, 0.0, 0.0, 0.0, 0.0, 0.0, 0.0, 0.0, 0.0, 0.0, 0.0, 0.0, 0.0, 0.0, 0.0, 0.0, 0.0, 0.0, 0.0, 0.0, 0.0, 0.0, 0.0, 0.0, 0.0, 0.0, 0.0, 0.0, 0.0, 0.0, 0.0, 0.0, 0.0, 0.0, 0.0, 0.0, 0.0, 0.0, 0.0, 0.0, 0.0, 0.0, 0.0, 0.0, 0.0, 0.0, 0.0, 0.0, 0.0, 0.0, 0.0, 0.0, 0.0, 0.0, 0.0, 0.0, 0.0, 0.0, 0.0, 0.0, 0.0, 0.0, 0.0, 0.0, 0.0, 0.0, 0.0, 0.0, 0.0, 0.0, 0.0, 0.0, 0.0, 0.0, 0.0, 0.0, 0.0, 0.0, 0.0, 0.0, 0.0, 0.0, 0.0, 0.0, 0.0, 0.0, 0.0, 0.0],
  "Shots": 4096,
  "Size": 4,
  "Total Algorithm duration [s]": 79.862,
  "Total Classic duration [s]": 13.09304047775268,
  "Total Quantum duration [s]": 66.76895952224731
}
