{
  "Circuit execution durations [ms]": [62.37506866455078, 31.598567962646484, 40.299177169799805, 48.72536659240723, 36.99493408203125, 157.29212760925293, 119.71807479858398, 43.15066337585449, 40.04263877868652, 28.72490882873535, 280.0445556640625, 87.77809143066406, 52.83522605895996, 38.585662841796875, 416.656494140625, 44.73733901977539, 45.48144340515137, 49.30758476257324, 34.99436378479004, 198.134183883667, 91.37082099914551, 75.16646385192871, 57.100772857666016, 212.08763122558594, 43.61248016357422, 45.588016510009766, 48.63476753234863, 315.9306049346924, 319.77272033691406, 239.98665809631348, 50.91357231140137, 58.97808074951172, 129.4686794281006, 30.70807456970215, 186.38205528259277, 386.22236251831055, 36.48805618286133, 203.5074234008789, 115.7379150390625, 175.45366287231445, 29.959678649902344, 43.70617866516113, 44.7845458984375, 46.87094688415527, 333.695650100708, 46.09799385070801, 320.0042247772217, 56.34593963623047, 94.78020668029785, 44.01516914367676, 52.63376235961914, 80.96933364868164, 36.45753860473633, 128.68213653564453, 87.52250671386719, 55.03439903259277, 45.525550842285156, 37.387847900390625, 96.33588790893555, 59.299468994140625, 82.11016654968262, 330.95645904541016, 53.18737030029297, 448.3470916748047, 44.97814178466797, 50.02117156982422, 226.8075942993164, 83.09125900268555, 189.12339210510254, 173.36153984069824, 74.50675964355469, 96.32730484008789, 140.74420928955078, 40.27509689331055, 141.218900680542, 466.5188789367676, 412.01138496398926, 47.50514030456543, 283.71620178222656, 54.575443267822266, 32.816410064697266, 94.34247016906738, 29.536008834838867, 47.96910285949707, 163.1641387939453, 38.475751876831055, 404.33406829833984, 393.65625381469727, 54.94427680969238, 37.59956359863281, 46.874284744262695, 229.24566268920898, 64.50796127319336, 31.621694564819336, 290.9352779388428, 45.61662673950195, 423.5036373138428, 300.04072189331055, 404.03199195861816, 409.96360778808594, 30.315876007080078, 33.68330001831055, 44.84724998474121, 80.23881912231445, 42.64712333679199, 332.81445503234863, 50.84371566772461, 44.45242881774902, 85.47616004943848],
  "Depth": 110.0,
  "Expectation Value": 0.1640625,
  "Optimal Expectation Value": -4.0,
  "Optimizer durations [ms]": [780.035, 687.802, 765.804, 763.53, 696.954, 863.587, 829.371, 759.634, 701.676, 763.029, 987.786, 770.576, 765.079, 761.332, 1127.283, 711.919, 797.739, 764.628, 692.157, 893.472, 792.008, 791.01, 703.861, 909.652, 757.386, 696.43, 765.737, 1015.99, 995.242, 956.082, 762.372, 755.947, 787.196, 758.1, 891.588, 1045.591, 736.555, 924.547, 825.063, 842.753, 777.231, 763.192, 701.859, 754.354, 1154.822, 766.806, 982.418, 762.591, 820.18, 692.639, 767.27, 784.635, 728.523, 798.753, 793.576, 758.121, 695.57, 763.217, 797.612, 720.202, 919.461, 1055.518, 799.058, 1190.286, 761.772, 762.552, 895.183, 792.51, 894.001, 890.833, 727.055, 799.793, 863.662, 696.439, 845.733, 1193.1, 1117.361, 720.982, 1012.476, 756.811, 693.819, 797.298, 725.703, 760.616, 830.802, 758.142, 1118.742, 1065.185, 905.884, 757.604, 759.821, 1020.834, 774.147, 789.435, 964.786, 830.71, 1138.588, 993.574, 1133.366, 1168.743, 731.617, 698.433, 766.233, 797.076, 698.204, 1064.167, 802.882, 788.364, 802.205],
  "Optimizer iterations": 109,
  "Optimizer params": [0.7604709067279731, 0.5163088656237965, 0.5658494457901502, 0.2547406365092748, 0.7541451725272162, 0.9169564200121517],
  "P": 3,
  "Problem": "TSP",
  "QJob durations [ms]": [652.843713760376, 563.701868057251, 594.292163848877, 640.7253742218018, 573.7464427947998, 691.2436485290527, 655.3916931152344, 634.2055797576904, 576.164960861206, 583.0214023590088, 864.6411895751953, 647.3345756530762, 592.8337574005127, 636.9388103485107, 1003.5333633422852, 585.5245590209961, 599.2846488952637, 640.1791572570801, 567.8379535675049, 724.0602970123291, 668.1699752807617, 665.8022403717041, 578.9351463317871, 737.3402118682861, 630.8352947235107, 575.4578113555908, 585.2744579315186, 894.6516513824463, 867.6886558532715, 784.5320701599121, 585.3526592254639, 633.6989402770996, 662.0957851409912, 584.5656394958496, 769.4745063781738, 921.8928813934326, 566.3166046142578, 746.8440532684326, 699.6109485626221, 715.3966426849365, 596.8399047851563, 637.6731395721436, 579.4005393981934, 581.0256004333496, 1031.2209129333496, 639.9409770965576, 854.9027442932129, 592.0476913452148, 681.6196441650391, 566.7190551757813, 589.838981628418, 662.7135276794434, 604.896068572998, 674.3173599243164, 619.3532943725586, 636.8124485015869, 574.8269557952881, 582.8027725219727, 675.5027770996094, 596.358060836792, 746.971607208252, 873.9237785339355, 675.9941577911377, 1066.6429996490479, 587.167501449585, 640.549898147583, 769.0837383270264, 613.7094497680664, 718.9140319824219, 766.4008140563965, 601.7682552337646, 627.234935760498, 732.170820236206, 573.3120441436768, 670.166015625, 1023.1363773345947, 995.3784942626953, 598.7992286682129, 834.0880870819092, 634.293794631958, 569.6187019348145, 629.5914649963379, 602.7047634124756, 635.4677677154541, 705.5320739746094, 583.8677883148193, 993.9677715301514, 941.887378692627, 727.4258136749268, 628.0639171600342, 635.4961395263672, 878.2453536987305, 589.7910594940186, 653.8255214691162, 844.874382019043, 652.5042057037354, 1014.3368244171143, 866.8081760406494, 955.8615684509277, 990.2067184448242, 605.3540706634521, 573.8365650177002, 584.5949649810791, 674.8590469360352, 575.4179954528809, 888.6899948120117, 611.4983558654785, 653.5758972167969, 671.3006496429443],
  "QPU": "3010008",
  "Qubits": 16,
  "Queue durations [ms]": [0.0, 0.0, 0.0, 0.0, 0.0, 0.0, 0.0, 0.0, 0.0, 0.0, 0.0, 0.0, 0.0, 0.0, 0.0, 0.0, 0.0, 0.0, 0.0, 0.0, 0.0, 0.0, 0.0, 0.0, 0.0, 0.0, 0.0, 0.0, 0.0, 0.0, 0.0, 0.0, 0.0, 0.0, 0.0, 0.0, 0.0, 0.0, 0.0, 0.0, 0.0, 0.0, 0.0, 0.0, 0.0, 0.0, 0.0, 0.0, 0.0, 0.0, 0.0, 0.0, 0.0, 0.0, 0.0, 0.0, 0.0, 0.0, 0.0, 0.0, 0.0, 0.0, 0.0, 0.0, 0.0, 0.0, 0.0, 0.0, 0.0, 0.0, 0.0, 0.0, 0.0, 0.0, 0.0, 0.0, 0.0, 0.0, 0.0, 0.0, 0.0, 0.0, 0.0, 0.0, 0.0, 0.0, 0.0, 0.0, 0.0, 0.0, 0.0, 0.0, 0.0, 0.0, 0.0, 0.0, 0.0, 0.0, 0.0, 0.0, 0.0, 0.0, 0.0, 0.0, 0.0, 0.0, 0.0, 0.0, 0.0],
  "Shots": 4096,
  "Size": 4,
  "Total Algorithm duration [s]": 91.211,
  "Total Classic duration [s]": 15.641835247039793,
  "Total Quantum duration [s]": 75.5691647529602
}
