{
  "Circuit execution durations [ms]": [48.9194393157959, 49.26109313964844, 48.7971305847168, 49.117088317871094, 49.14045333862305, 49.0114688873291, 49.12590980529785, 48.91610145568848, 49.57222938537598, 48.94232749938965, 48.777103424072266, 49.18694496154785, 48.71773719787598, 48.86674880981445, 49.35455322265625, 49.11446571350098, 49.22747611999512, 48.96998405456543, 49.62158203125, 49.05557632446289, 48.93159866333008, 48.76565933227539, 49.59583282470703, 49.21078681945801, 48.836708068847656, 49.34811592102051, 48.60663414001465, 49.27492141723633, 48.64192008972168, 48.70963096618652, 48.526763916015625, 48.9048957824707, 49.2711067199707, 48.78878593444824, 49.51333999633789, 49.26919937133789, 49.23844337463379, 48.94208908081055, 49.32236671447754, 49.30996894836426, 49.11637306213379, 48.85268211364746, 49.97420310974121, 49.34573173522949, 49.4389533996582, 48.4011173248291, 50.10199546813965, 49.14402961730957, 49.14379119873047, 48.80261421203613, 113.16275596618652, 49.32737350463867, 48.59805107116699, 49.24893379211426, 49.24750328063965, 49.31783676147461, 48.729896545410156, 48.6760139465332, 48.84743690490723, 48.89988899230957, 48.87104034423828, 49.643516540527344, 49.47710037231445, 48.83098602294922, 48.85530471801758, 48.79283905029297, 48.83217811584473, 49.36361312866211, 49.82328414916992, 49.26013946533203, 48.876047134399414, 49.002885818481445, 48.995256423950195, 49.3619441986084, 113.08789253234863, 49.67045783996582, 49.45492744445801, 49.48115348815918, 49.284934997558594, 49.17478561401367, 48.86364936828613, 48.863887786865234, 48.75349998474121, 49.34072494506836, 48.944711685180664, 48.9497184753418],
  "Depth": 185.0,
  "Expectation Value": -12.57373046875,
  "Optimal Expectation Value": -14.0,
  "Optimizer durations [ms]": [61.819, 61.969, 61.571, 61.609, 61.662, 61.771, 61.769, 61.445, 62.147, 61.405, 61.274, 61.829, 61.355, 61.348, 61.859, 61.686, 61.917, 61.533, 62.254, 61.633, 61.564, 61.394, 62.148, 61.757, 61.464, 125.441, 61.496, 61.932, 61.324, 61.467, 61.074, 61.389, 61.708, 61.382, 62.261, 61.918, 61.967, 61.863, 61.99, 61.895, 61.678, 61.471, 62.558, 61.971, 62.278, 60.881, 62.638, 61.869, 61.819, 61.508, 125.839, 62.099, 61.389, 61.791, 61.712, 61.966, 61.462, 61.227, 61.336, 61.448, 61.3, 62.335, 62.088, 61.418, 61.546, 61.524, 61.848, 62.186, 62.642, 62.042, 61.773, 61.989, 62.075, 62.04, 126.087, 62.567, 62.073, 62.291, 62.21, 61.853, 61.466, 61.688, 61.521, 61.605, 61.769, 61.619],
  "Optimizer iterations": 86,
  "Optimizer params": [0.27871877389345656, 0.4912177092068617, 0.9554140534357635, 0.7058969285717849, 0.9681808512987827, 0.22413805981177376],
  "P": 3,
  "Problem": "MCP",
  "QJob durations [ms]": [48.9194393157959, 49.26109313964844, 48.7971305847168, 49.117088317871094, 49.14045333862305, 49.0114688873291, 49.12590980529785, 48.91610145568848, 49.57222938537598, 48.94232749938965, 48.777103424072266, 49.18694496154785, 48.71773719787598, 48.86674880981445, 49.35455322265625, 49.11446571350098, 49.22747611999512, 48.96998405456543, 49.62158203125, 49.05557632446289, 48.93159866333008, 48.76565933227539, 49.59583282470703, 49.21078681945801, 48.836708068847656, 49.34811592102051, 48.60663414001465, 49.27492141723633, 48.64192008972168, 48.70963096618652, 48.526763916015625, 48.9048957824707, 49.2711067199707, 48.78878593444824, 49.51333999633789, 49.26919937133789, 49.23844337463379, 48.94208908081055, 49.32236671447754, 49.30996894836426, 49.11637306213379, 48.85268211364746, 49.97420310974121, 49.34573173522949, 49.4389533996582, 48.4011173248291, 50.10199546813965, 49.14402961730957, 49.14379119873047, 48.80261421203613, 113.16275596618652, 49.32737350463867, 48.59805107116699, 49.24893379211426, 49.24750328063965, 49.31783676147461, 48.729896545410156, 48.6760139465332, 48.84743690490723, 48.89988899230957, 48.87104034423828, 49.643516540527344, 49.47710037231445, 48.83098602294922, 48.85530471801758, 48.79283905029297, 48.83217811584473, 49.36361312866211, 49.82328414916992, 49.26013946533203, 48.876047134399414, 49.002885818481445, 48.995256423950195, 49.3619441986084, 113.08789253234863, 49.67045783996582, 49.45492744445801, 49.48115348815918, 49.284934997558594, 49.17478561401367, 48.86364936828613, 48.863887786865234, 48.75349998474121, 49.34072494506836, 48.944711685180664, 48.9497184753418],
  "QPU": "9000001",
  "Qubits": 10,
  "Queue durations [ms]": [0.0, 0.0, 0.0, 0.0, 0.0, 0.0, 0.0, 0.0, 0.0, 0.0, 0.0, 0.0, 0.0, 0.0, 0.0, 0.0, 0.0, 0.0, 0.0, 0.0, 0.0, 0.0, 0.0, 0.0, 0.0, 0.0, 0.0, 0.0, 0.0, 0.0, 0.0, 0.0, 0.0, 0.0, 0.0, 0.0, 0.0, 0.0, 0.0, 0.0, 0.0, 0.0, 0.0, 0.0, 0.0, 0.0, 0.0, 0.0, 0.0, 0.0, 0.0, 0.0, 0.0, 0.0, 0.0, 0.0, 0.0, 0.0, 0.0, 0.0, 0.0, 0.0, 0.0, 0.0, 0.0, 0.0, 0.0, 0.0, 0.0, 0.0, 0.0, 0.0, 0.0, 0.0, 0.0, 0.0, 0.0, 0.0, 0.0, 0.0, 0.0, 0.0, 0.0, 0.0, 0.0, 0.0],
  "Shots": 4096,
  "Size": 10,
  "Total Algorithm duration [s]": 5.503,
  "Total Classic duration [s]": 1.1520621566772462,
  "Total Quantum duration [s]": 4.350937843322754
}
