{
  "Depth": 532.0,
  "Job durations [ms]": [20.842552185058594, 21.116256713867188, 20.943641662597656, 21.049022674560547, 22.080659866333008, 21.14582061767578, 21.239280700683594, 21.46625518798828, 21.518707275390625, 21.431684494018555, 24.91283416748047, 25.50506591796875, 25.70796012878418, 26.18408203125, 21.747112274169922, 21.659374237060547, 21.592140197753906, 21.298885345458984, 21.292448043823242, 21.057605743408203, 21.458148956298828, 21.483898162841797, 21.72565460205078, 21.501779556274414, 21.161317825317383, 22.963523864746094, 21.317720413208008, 21.770954132080078, 23.10967445373535, 21.683931350708008, 21.493911743164062, 21.07691764831543, 21.306991577148438, 21.59857749938965, 21.67987823486328, 20.99132537841797, 21.44789695739746, 21.22211456298828, 20.98393440246582, 21.078109741210938, 20.902156829833984, 21.668195724487305, 21.288633346557617, 21.840572357177734, 21.303176879882812, 21.668672561645508, 21.77882194519043, 21.056175231933594, 21.375656127929688, 21.292448043823242, 21.50702476501465, 21.470069885253906, 21.61240577697754, 21.862506866455078, 21.602869033813477, 21.578550338745117, 21.85845375061035, 21.048307418823242, 21.178007125854492, 21.6217041015625, 21.114826202392578, 21.028995513916016, 21.2552547454834, 22.317886352539062, 21.597862243652344, 23.782014846801758, 21.903514862060547, 21.692276000976562, 21.415233612060547, 21.55613899230957, 21.582603454589844, 21.32391929626465, 25.831222534179688, 25.996685028076172, 25.774478912353516, 22.103309631347656, 21.49677276611328, 21.21567726135254, 21.165847778320312, 21.0721492767334, 21.38996124267578, 21.743297576904297, 21.471261978149414, 21.663904190063477, 21.362781524658203, 25.553464889526367, 26.451587677001953, 25.693655014038086, 24.739503860473633, 21.469831466674805, 22.11594581604004, 21.218061447143555, 22.298574447631836, 21.63386344909668, 21.356821060180664, 21.104812622070312, 21.422624588012695, 21.054506301879883, 21.381616592407227, 21.915197372436523, 21.61121368408203, 21.51012420654297, 20.929336547851562, 21.42930030822754, 21.744251251220703, 21.42643928527832, 21.408796310424805, 21.685123443603516, 21.217823028564453],
  "Optimizer durations [ms]": [504.134, 525.105, 463.365, 501.728, 521.789, 477.502, 529.159, 514.268, 513.208, 464.11, 510.322, 597.25, 551.347, 611.243, 548.518, 458.647, 506.565, 499.689, 456.125, 505.689, 507.375, 509.612, 460.266, 504.538, 512.018, 457.455, 507.683, 506.11, 468.55, 517.766, 501.567, 465.706, 516.226, 535.319, 515.565, 463.08, 515.066, 514.071, 455.096, 504.288, 510.318, 460.282, 500.474, 501.538, 460.585, 519.148, 500.701, 501.967, 463.484, 509.15, 506.734, 467.167, 506.133, 506.158, 472.776, 513.504, 500.694, 459.049, 501.024, 501.826, 503.222, 463.384, 505.35, 520.561, 457.992, 514.34, 513.434, 468.079, 514.761, 511.482, 463.304, 497.555, 548.868, 616.905, 548.663, 591.327, 505.173, 453.1, 519.64, 528.773, 454.586, 507.869, 503.674, 460.19, 498.481, 574.424, 611.148, 542.452, 591.42, 508.098, 474.28, 514.017, 518.684, 459.72, 503.859, 498.994, 460.17, 499.836, 498.363, 509.16, 466.399, 516.177, 513.778, 456.634, 518.454, 504.05, 464.797, 499.303, 505.892],
  "Optimizer iterations": 109,
  "Qubits": 12,
  "Total Algorithm duration [s]": 54.94,
  "Total Classic duration [s]": 52.55040759086609,
  "Total Quantum duration [s]": 2.389592409133911,
  "Expectation Value": -3.479736328125,
  "Optimal Expectation Value": -5.0,
  "Optimizer params": [0.4298897393591937, 0.8467444521958237, 0.7664640304506799, 0.4020321277193696, 0.16731948814812064, 0.8903086751559514],
  "QPU": "3010008",
  "Problem": "DSP",
  "Size": 7,
  "P": 3,
  "Shots": 4096
}