{
  "Depth": 532.0,
  "Job durations [ms]": [21.231889724731445, 20.89405059814453, 21.175384521484375, 21.004199981689453, 21.17609977722168, 21.401166915893555, 21.145105361938477, 22.433996200561523, 20.67852020263672, 21.564483642578125, 21.271944046020508, 21.0111141204834, 21.25382423400879, 21.45862579345703, 21.016836166381836, 20.91240882873535, 21.3165283203125, 21.518230438232422, 21.397113800048828, 21.393537521362305, 21.151304244995117, 21.223068237304688, 21.590709686279297, 21.001338958740234, 21.311283111572266, 21.433115005493164, 21.071195602416992, 21.49486541748047, 21.42500877380371, 21.207809448242188, 21.282196044921875, 21.135568618774414, 21.191120147705078, 21.09241485595703, 21.930932998657227, 21.2862491607666, 21.059751510620117, 20.986080169677734, 21.037817001342773, 21.22950553894043, 21.547317504882812, 21.07071876525879, 21.1181640625, 21.222591400146484, 21.86441421508789, 21.31366729736328, 21.275758743286133, 21.233797073364258, 21.854400634765625, 21.213054656982422, 20.92456817626953, 20.911693572998047, 21.620512008666992, 20.97487449645996, 26.718854904174805, 21.180152893066406, 21.071195602416992, 21.465778350830078, 21.339893341064453, 21.474838256835938, 21.34227752685547, 21.235942840576172, 20.88165283203125, 21.222352981567383, 21.602869033813477, 22.31621742248535, 21.228551864624023, 21.042823791503906, 21.134614944458008, 21.480798721313477, 21.214962005615234, 25.644302368164062, 25.384902954101562, 25.52318572998047, 20.991086959838867, 20.95508575439453, 21.2252140045166, 21.56352996826172, 21.193265914916992, 21.628141403198242, 21.054983139038086, 21.27528190612793, 21.487951278686523, 21.295547485351562, 21.2705135345459, 21.297216415405273, 21.306276321411133, 21.189451217651367, 21.001338958740234, 21.228790283203125, 21.400928497314453, 20.95961570739746, 21.644115447998047, 21.108627319335938, 21.47507667541504, 21.251678466796875, 21.375656127929688, 21.032094955444336, 21.413326263427734, 21.361827850341797, 21.468639373779297, 21.019458770751953, 21.098613739013672, 21.287202835083008, 21.03137969970703, 21.229267120361328, 21.358966827392578, 21.814346313476562, 20.789623260498047, 21.287918090820312, 20.941734313964844, 21.500825881958008],
  "Optimizer durations [ms]": [460.953, 501.344, 505.499, 459.563, 500.125, 499.446, 507.432, 457.489, 494.238, 501.139, 456.781, 505.267, 502.72, 458.108, 503.18, 516.418, 455.991, 509.641, 501.724, 458.499, 505.906, 511.998, 500.739, 456.235, 505.58, 520.46, 461.974, 501.956, 506.212, 459.432, 500.578, 504.191, 465.363, 505.897, 505.873, 510.604, 455.963, 514.729, 513.182, 456.347, 501.132, 509.276, 453.38, 505.495, 508.55, 477.448, 499.26, 500.897, 502.948, 464.979, 503.83, 507.463, 455.664, 503.592, 508.465, 466.247, 497.06, 502.888, 457.278, 499.117, 502.093, 502.344, 465.518, 510.683, 501.639, 469.729, 510.081, 506.696, 457.237, 503.964, 502.747, 533.685, 591.527, 592.431, 571.443, 455.056, 504.882, 505.697, 456.649, 507.215, 510.489, 463.791, 506.131, 507.804, 470.143, 500.924, 507.79, 500.625, 455.672, 505.648, 505.819, 459.432, 507.181, 506.349, 459.815, 504.074, 499.554, 456.879, 503.024, 499.506, 499.897, 457.993, 504.842, 501.501, 458.59, 501.136, 502.299, 459.097, 505.986, 497.201, 467.566, 496.082],
  "Optimizer iterations": 112,
  "Qubits": 12,
  "Total Algorithm duration [s]": 55.278,
  "Total Classic duration [s]": 52.87713730621338,
  "Total Quantum duration [s]": 2.400862693786621,
  "Expectation Value": -4.26123046875,
  "Optimal Expectation Value": -5.0,
  "Optimizer params": [0.40900041684831695, 0.014018975383953318, 0.1629102662548154, 0.49295897853380516, 0.11222809631036801, 0.7443794536882418],
  "QPU": "3010008",
  "Problem": "DSP",
  "Size": 7,
  "P": 3,
  "Shots": 4096
}