{
  "Circuit execution durations [ms]": [49.96144771575928, 52.04486846923828, 75.16789436340332, 53.33220958709717, 51.737070083618164, 54.30722236633301, 50.72188377380371, 51.78523063659668, 53.76696586608887, 51.66029930114746, 50.59051513671875, 53.60531806945801, 76.18701457977295, 52.790164947509766, 52.669644355773926, 50.52900314331055, 52.308082580566406, 51.534295082092285, 53.74288558959961, 54.145216941833496, 54.68142032623291, 77.84712314605713],
  "Depth": 2.0,
  "Expectation Value": 0.2692291736602783,
  "Optimal Expectation Value": -1.4114999771118164,
  "Optimizer durations [ms]": [538.563, 543.645, 586.311, 550.825, 543.768, 548.608, 595.895, 540.592, 541.966, 549.367, 602.17, 548.985, 546.262, 549.15, 584.877, 536.544, 543.668, 541.499, 583.691, 546.351, 547.247, 592.453],
  "Optimizer iterations": 22,
  "Optimizer params": [0.0, 0.9991794147681592],
  "P": 0,
  "Problem": "RH",
  "QJob durations [ms]": [57.45553970336914, 59.32462215423584, 82.42273330688477, 60.56344509124756, 59.15224552154541, 61.08081340789795, 57.903170585632324, 58.5554838180542, 60.61887741088867, 58.99155139923096, 57.551026344299316, 60.474514961242676, 82.93938636779785, 59.558987617492676, 59.91017818450928, 57.267189025878906, 59.02552604675293, 58.26079845428467, 60.43517589569092, 61.78295612335205, 61.390042304992676, 84.97750759124756],
  "QPU": "3000013",
  "Qubits": 2,
  "Queue durations [ms]": [0.0, 0.0, 0.0, 0.0, 0.0, 0.0, 0.0, 0.0, 0.0, 0.0, 0.0, 0.0, 0.0, 0.0, 0.0, 0.0, 0.0, 0.0, 0.0, 0.0, 0.0, 0.0],
  "Shots": 4096,
  "Size": 2,
  "Total Algorithm duration [s]": 12.262,
  "Total Classic duration [s]": 10.882358228683472,
  "Total Quantum duration [s]": 1.3796417713165283
}
