{
  "Circuit execution durations [ms]": [20.81775665283203, 20.652294158935547, 20.54762840270996, 20.72906494140625, 21.067142486572266, 20.790576934814453, 20.514488220214844, 20.758628845214844, 20.91693878173828, 20.754098892211914, 20.593881607055664, 20.74408531188965, 20.86043357849121, 20.696163177490234, 20.726442337036133, 20.86782455444336, 20.789623260498047, 20.581483840942383, 20.429372787475586, 20.55191993713379, 20.595788955688477, 20.6148624420166, 20.333528518676758, 20.623445510864258, 20.595788955688477, 20.390987396240234, 20.49732208251953, 20.699262619018555, 20.231246948242188, 20.560741424560547, 20.459890365600586, 20.608186721801758, 20.334243774414063, 20.452260971069336, 20.406723022460938, 20.60866355895996, 20.291566848754883, 20.491838455200195, 20.2786922454834, 20.612001419067383, 20.358562469482422, 20.48039436340332, 20.549535751342773, 20.27273178100586, 20.18570899963379, 20.56407928466797, 20.46370506286621, 20.04528045654297, 20.336389541625977, 20.372390747070313, 20.45297622680664, 20.114421844482422, 20.247936248779297, 20.11871337890625, 20.738840103149414, 20.470380783081055, 20.435810089111328, 20.416259765625, 20.48349380493164, 20.50018310546875, 20.31564712524414, 20.39313316345215, 19.989490509033203, 20.28942108154297, 20.362138748168945, 20.201921463012695, 20.532846450805664, 20.450353622436523, 20.57027816772461, 20.328283309936523, 20.51997184753418, 20.461320877075195, 20.375728607177734, 20.46060562133789, 20.4622745513916, 20.286083221435547, 20.317554473876953, 20.346641540527344, 20.430803298950195, 20.39313316345215, 20.32923698425293, 20.286083221435547, 20.32637596130371, 20.369291305541992, 20.27273178100586, 20.687580108642578, 20.417451858520508, 20.481586456298828, 20.31540870666504, 20.55215835571289, 20.539045333862305, 20.338058471679688, 20.524024963378906, 20.279645919799805, 20.498037338256836, 20.571470260620117, 20.417451858520508, 20.276546478271484, 20.360469818115234, 20.683765411376953],
  "Depth": 221.0,
  "Expectation Value": -15.822265625,
  "Optimal Expectation Value": -18.0,
  "Optimizer durations [ms]": [260.757, 300.649, 260.564, 261.316, 300.482, 261.713, 260.761, 298.33, 261.558, 303.063, 262.017, 261.559, 303.093, 260.837, 262.269, 301.559, 261.814, 260.755, 300.537, 259.909, 260.428, 297.918, 260.056, 262.26, 299.874, 260.866, 302.565, 260.362, 259.236, 302.109, 259.799, 260.706, 301.119, 259.558, 259.504, 299.736, 259.635, 259.816, 296.985, 259.946, 259.904, 300.316, 260.214, 301.165, 259.261, 259.77, 300.427, 259.74, 260.149, 299.843, 260.479, 259.441, 299.191, 259.369, 259.384, 297.81, 260.235, 299.89, 260.854, 260.487, 301.56, 259.971, 259.377, 300.311, 260.237, 258.857, 299.059, 261.072, 260.086, 298.609, 259.124, 259.321, 297.408, 259.57, 300.035, 259.343, 260.505, 301.567, 259.393, 259.695, 300.806, 259.068, 259.493, 299.154, 259.255, 259.855, 297.438, 259.709, 259.658, 297.416, 259.684, 302.578, 259.463, 259.275, 300.667, 260.18, 259.804, 300.582, 259.649, 259.986],
  "Optimizer iterations": 100,
  "Optimizer params": [0.8839824905965569, 0.05468040690000567, 0.32934122090690454, 0.5739048044882288, 0.6170683714399172, 0.9634397434315042],
  "P": 3,
  "Problem": "MCP",
  "QJob durations [ms]": [188.53163719177246, 188.45033645629883, 188.67039680480957, 189.00656700134277, 189.95165824890137, 188.88401985168457, 188.57669830322266, 189.56398963928223, 188.99011611938477, 230.24821281433105, 189.4857883453369, 188.49945068359375, 230.64756393432617, 188.69566917419434, 190.15812873840332, 189.1796588897705, 189.19682502746582, 188.3220672607422, 188.22026252746582, 188.14563751220703, 188.4162425994873, 188.4322166442871, 188.44032287597656, 189.20493125915527, 188.87972831726074, 188.81511688232422, 230.59821128845215, 188.80510330200195, 187.99638748168945, 230.20219802856445, 188.7342929840088, 189.27454948425293, 189.31126594543457, 188.33351135253906, 188.12918663024902, 189.65435028076172, 188.69876861572266, 188.56263160705566, 188.04502487182617, 188.79938125610352, 188.6770725250244, 188.67850303649902, 188.44985961914063, 230.02314567565918, 187.8340244293213, 188.76147270202637, 229.6295166015625, 188.55881690979004, 188.34733963012695, 188.64035606384277, 189.03279304504395, 187.99901008605957, 189.92185592651367, 188.2157325744629, 188.44342231750488, 188.30442428588867, 189.23640251159668, 228.92022132873535, 189.33367729187012, 189.00656700134277, 230.35073280334473, 188.6451244354248, 188.28225135803223, 229.55656051635742, 189.20540809631348, 188.02309036254883, 188.54951858520508, 188.523530960083, 188.96150588989258, 188.14945220947266, 188.07578086853027, 188.5685920715332, 188.63224983215332, 188.63558769226074, 229.1257381439209, 188.65323066711426, 188.72642517089844, 230.22127151489258, 188.42124938964844, 188.29631805419922, 188.88330459594727, 188.03906440734863, 188.2026195526123, 188.98940086364746, 188.3854866027832, 188.89498710632324, 188.8594627380371, 188.59124183654785, 187.9739761352539, 189.81361389160156, 188.37618827819824, 231.13536834716797, 188.1394386291504, 188.48919868469238, 229.89201545715332, 189.09597396850586, 188.7354850769043, 189.32127952575684, 188.50326538085938, 188.5082721710205],
  "QPU": "3010008",
  "Qubits": 12,
  "Queue durations [ms]": [0.0, 0.0, 0.0, 0.0, 0.0, 0.0, 0.0, 0.0, 0.0, 0.0, 0.0, 0.0, 0.0, 0.0, 0.0, 0.0, 0.0, 0.0, 0.0, 0.0, 0.0, 0.0, 0.0, 0.0, 0.0, 0.0, 0.0, 0.0, 0.0, 0.0, 0.0, 0.0, 0.0, 0.0, 0.0, 0.0, 0.0, 0.0, 0.0, 0.0, 0.0, 0.0, 0.0, 0.0, 0.0, 0.0, 0.0, 0.0, 0.0, 0.0, 0.0, 0.0, 0.0, 0.0, 0.0, 0.0, 0.0, 0.0, 0.0, 0.0, 0.0, 0.0, 0.0, 0.0, 0.0, 0.0, 0.0, 0.0, 0.0, 0.0, 0.0, 0.0, 0.0, 0.0, 0.0, 0.0, 0.0, 0.0, 0.0, 0.0, 0.0, 0.0, 0.0, 0.0, 0.0, 0.0, 0.0, 0.0, 0.0, 0.0, 0.0, 0.0, 0.0, 0.0, 0.0, 0.0, 0.0, 0.0, 0.0, 0.0],
  "Shots": 4096,
  "Size": 12,
  "Total Algorithm duration [s]": 27.412,
  "Total Classic duration [s]": 8.00479441833496,
  "Total Quantum duration [s]": 19.40720558166504
}
