{
  "Circuit execution durations [ms]": [31.849384307861328, 31.562328338623047, 32.02390670776367, 31.72159194946289, 31.545639038085938, 31.57639503479004, 31.51535987854004, 31.67414665222168, 31.376123428344727, 31.474828720092773, 31.572341918945313, 31.918048858642578, 31.52632713317871, 31.618833541870117, 31.83293342590332, 31.48794174194336, 31.665563583374023, 31.842470169067383, 31.886577606201172, 31.517982482910156, 32.11665153503418, 31.795501708984375, 31.936168670654297, 31.6617488861084, 31.754732131958008, 31.841754913330078, 32.044410705566406, 31.594276428222656, 32.03248977661133, 32.71317481994629, 31.772136688232422, 31.673192977905273, 32.23681449890137, 31.575918197631836, 32.00817108154297, 32.19461441040039, 31.85296058654785, 31.84795379638672, 32.149553298950195, 31.92734718322754, 31.93974494934082, 97.10049629211426, 31.79144859313965, 32.22990036010742, 31.910419464111328, 31.85129165649414, 31.960725784301758, 31.908750534057617, 31.940221786499023, 31.943082809448242, 32.27710723876953, 31.635522842407227, 31.956911087036133, 32.03225135803223, 31.68487548828125, 31.880855560302734, 31.872272491455078, 31.903743743896484, 32.04631805419922, 31.701326370239258, 31.882762908935547, 31.642913818359375, 32.248497009277344, 32.011985778808594, 32.06586837768555, 32.111167907714844, 31.760215759277344, 31.693220138549805, 31.980037689208984, 31.69870376586914, 32.08184242248535, 32.09209442138672, 31.592369079589844, 31.908273696899414, 32.40489959716797, 31.711578369140625, 31.793832778930664, 31.94737434387207, 31.969070434570313, 31.719207763671875, 31.91661834716797, 31.489133834838867, 31.8605899810791, 31.95357322692871, 32.01580047607422, 31.836509704589844, 31.971454620361328, 31.810522079467773, 31.89563751220703],
  "Depth": 132.0,
  "Expectation Value": -1.89013671875,
  "Optimal Expectation Value": -2.0,
  "Optimizer durations [ms]": [39.371, 39.105, 39.432, 39.161, 38.994, 39.099, 38.951, 39.211, 38.753, 38.954, 39.219, 39.334, 38.959, 39.044, 39.309, 105.686, 39.427, 39.39, 39.328, 39.079, 39.659, 39.31, 39.476, 39.13, 39.277, 39.369, 39.589, 39.117, 39.717, 40.111, 39.239, 39.392, 39.924, 39.215, 39.489, 39.829, 39.362, 39.395, 39.538, 39.512, 39.448, 104.78, 39.447, 39.906, 39.528, 39.32, 39.542, 39.443, 39.42, 39.601, 39.857, 39.091, 39.624, 39.486, 39.395, 39.454, 39.499, 39.389, 39.486, 39.275, 39.317, 39.168, 40.023, 39.539, 103.308, 39.778, 39.259, 39.22, 39.654, 39.194, 39.608, 39.467, 39.07, 39.403, 39.938, 39.218, 39.415, 39.586, 39.496, 39.265, 39.477, 39.047, 39.461, 39.529, 39.465, 39.303, 39.467, 39.336, 39.4],
  "Optimizer iterations": 89,
  "Optimizer params": [0.6896798522824099, 0.22852661883792671, 0.7528843576371781, 0.935975480547466, 0.29090156332279715, 0.36619067201137184],
  "P": 3,
  "Problem": "DSP",
  "QJob durations [ms]": [31.849384307861328, 31.562328338623047, 32.02390670776367, 31.72159194946289, 31.545639038085938, 31.57639503479004, 31.51535987854004, 31.67414665222168, 31.376123428344727, 31.474828720092773, 31.572341918945313, 31.918048858642578, 31.52632713317871, 31.618833541870117, 31.83293342590332, 31.48794174194336, 31.665563583374023, 31.842470169067383, 31.886577606201172, 31.517982482910156, 32.11665153503418, 31.795501708984375, 31.936168670654297, 31.6617488861084, 31.754732131958008, 31.841754913330078, 32.044410705566406, 31.594276428222656, 32.03248977661133, 32.71317481994629, 31.772136688232422, 31.673192977905273, 32.23681449890137, 31.575918197631836, 32.00817108154297, 32.19461441040039, 31.85296058654785, 31.84795379638672, 32.149553298950195, 31.92734718322754, 31.93974494934082, 97.10049629211426, 31.79144859313965, 32.22990036010742, 31.910419464111328, 31.85129165649414, 31.960725784301758, 31.908750534057617, 31.940221786499023, 31.943082809448242, 32.27710723876953, 31.635522842407227, 31.956911087036133, 32.03225135803223, 31.68487548828125, 31.880855560302734, 31.872272491455078, 31.903743743896484, 32.04631805419922, 31.701326370239258, 31.882762908935547, 31.642913818359375, 32.248497009277344, 32.011985778808594, 32.06586837768555, 32.111167907714844, 31.760215759277344, 31.693220138549805, 31.980037689208984, 31.69870376586914, 32.08184242248535, 32.09209442138672, 31.592369079589844, 31.908273696899414, 32.40489959716797, 31.711578369140625, 31.793832778930664, 31.94737434387207, 31.969070434570313, 31.719207763671875, 31.91661834716797, 31.489133834838867, 31.8605899810791, 31.95357322692871, 32.01580047607422, 31.836509704589844, 31.971454620361328, 31.810522079467773, 31.89563751220703],
  "QPU": "9000001",
  "Qubits": 6,
  "Queue durations [ms]": [0.0, 0.0, 0.0, 0.0, 0.0, 0.0, 0.0, 0.0, 0.0, 0.0, 0.0, 0.0, 0.0, 0.0, 0.0, 0.0, 0.0, 0.0, 0.0, 0.0, 0.0, 0.0, 0.0, 0.0, 0.0, 0.0, 0.0, 0.0, 0.0, 0.0, 0.0, 0.0, 0.0, 0.0, 0.0, 0.0, 0.0, 0.0, 0.0, 0.0, 0.0, 0.0, 0.0, 0.0, 0.0, 0.0, 0.0, 0.0, 0.0, 0.0, 0.0, 0.0, 0.0, 0.0, 0.0, 0.0, 0.0, 0.0, 0.0, 0.0, 0.0, 0.0, 0.0, 0.0, 0.0, 0.0, 0.0, 0.0, 0.0, 0.0, 0.0, 0.0, 0.0, 0.0, 0.0, 0.0, 0.0, 0.0, 0.0, 0.0, 0.0, 0.0, 0.0, 0.0, 0.0, 0.0, 0.0, 0.0, 0.0],
  "Shots": 4096,
  "Size": 3,
  "Total Algorithm duration [s]": 3.701,
  "Total Classic duration [s]": 0.8004486808776856,
  "Total Quantum duration [s]": 2.9005513191223145
}
