{
  "Circuit execution durations [ms]": [1.8883, 1.7963, 1.8067, 1.8025, 1.8789, 1.8037, 1.8224, 1.8203, 1.8402, 1.8833, 1.8173, 1.7769000000000001, 1.8204, 1.8307, 1.8273, 1.8243999999999998, 1.8275, 1.8339, 1.8017, 1.8358999999999999, 1.8224, 1.8163, 1.8575, 1.8342, 1.8564, 1.8058, 1.8664, 1.8193000000000001, 1.8525, 1.8278999999999999, 1.8148000000000002, 1.8114, 1.8098, 1.8198, 1.7964, 1.802, 1.8552, 1.7834, 1.8103, 1.8621, 1.8039, 1.8213000000000001, 1.8098999999999998, 1.8189, 1.7953999999999999, 1.8112, 1.8308, 2.1073, 1.8346, 1.8392, 1.8767, 1.8159, 1.8168, 1.8024, 2.0836, 1.7964, 1.8064, 1.8062, 2.1802, 1.8147, 1.8369, 1.814, 1.7731, 1.8217999999999999, 1.8997, 1.7885, 1.8634000000000002, 1.8703, 1.8612, 1.8178, 1.8235000000000001, 1.8166, 1.8783999999999998, 1.8353, 1.8262, 1.8034999999999999, 1.8213000000000001, 1.8144, 1.8172, 1.8386, 1.8259, 1.7953000000000001, 1.839, 1.8282, 1.8104, 1.8222, 1.823, 1.8116, 1.8182],
  "Depth": 287.0,
  "Expectation Value": -1.0,
  "Optimal Expectation Value": -1.0,
  "Optimizer durations [ms]": [19.504, 18.396, 18.646, 18.445, 19.61, 18.207, 18.848, 18.747, 18.815, 19.34, 18.536, 18.585, 18.582, 18.702, 19.099, 18.629, 18.809, 18.946, 18.504, 18.89, 18.655, 18.511, 19.431, 18.525, 19.207, 18.5, 19.176, 18.672, 19.228, 18.876, 18.481, 18.704, 18.863, 18.476, 18.626, 18.348, 19.089, 18.542, 18.742, 18.901, 18.83, 18.645, 18.73, 18.925, 20.704, 18.9, 19.304, 21.289, 19.099, 18.938, 19.363, 22.911, 18.642, 18.604, 21.441, 18.335, 18.715, 18.54, 22.415, 28.338, 18.955, 18.734, 18.464, 18.481, 19.434, 18.686, 19.236, 19.149, 19.041, 18.885, 18.579, 18.611, 19.366, 19.094, 18.625, 18.937, 18.561, 18.549, 18.757, 19.023, 18.669, 18.549, 18.857, 18.958, 18.661, 18.923, 18.626, 18.543, 18.926],
  "Optimizer iterations": 89,
  "Optimizer params": [0.06028163130062163, 0.5438000581706506, 0.9869672113310046, 0.011775449001737397, 0.057117938733993304, 0.9963773885776118],
  "P": 3,
  "Problem": "MIS",
  "QJob durations [ms]": [1.8883, 1.7963, 1.8067, 1.8025, 1.8789, 1.8037, 1.8224, 1.8203, 1.8402, 1.8833, 1.8173, 1.7769000000000001, 1.8204, 1.8307, 1.8273, 1.8243999999999998, 1.8275, 1.8339, 1.8017, 1.8358999999999999, 1.8224, 1.8163, 1.8575, 1.8342, 1.8564, 1.8058, 1.8664, 1.8193000000000001, 1.8525, 1.8278999999999999, 1.8148000000000002, 1.8114, 1.8098, 1.8198, 1.7964, 1.802, 1.8552, 1.7834, 1.8103, 1.8621, 1.8039, 1.8213000000000001, 1.8098999999999998, 1.8189, 1.7953999999999999, 1.8112, 1.8308, 2.1073, 1.8346, 1.8392, 1.8767, 1.8159, 1.8168, 1.8024, 2.0836, 1.7964, 1.8064, 1.8062, 2.1802, 1.8147, 1.8369, 1.814, 1.7731, 1.8217999999999999, 1.8997, 1.7885, 1.8634000000000002, 1.8703, 1.8612, 1.8178, 1.8235000000000001, 1.8166, 1.8783999999999998, 1.8353, 1.8262, 1.8034999999999999, 1.8213000000000001, 1.8144, 1.8172, 1.8386, 1.8259, 1.7953000000000001, 1.839, 1.8282, 1.8104, 1.8222, 1.823, 1.8116, 1.8182],
  "QPU": "7000000",
  "Qubits": 8,
  "Queue durations [ms]": [0.0, 0.0, 0.0, 0.0, 0.0, 0.0, 0.0, 0.0, 0.0, 0.0, 0.0, 0.0, 0.0, 0.0, 0.0, 0.0, 0.0, 0.0, 0.0, 0.0, 0.0, 0.0, 0.0, 0.0, 0.0, 0.0, 0.0, 0.0, 0.0, 0.0, 0.0, 0.0, 0.0, 0.0, 0.0, 0.0, 0.0, 0.0, 0.0, 0.0, 0.0, 0.0, 0.0, 0.0, 0.0, 0.0, 0.0, 0.0, 0.0, 0.0, 0.0, 0.0, 0.0, 0.0, 0.0, 0.0, 0.0, 0.0, 0.0, 0.0, 0.0, 0.0, 0.0, 0.0, 0.0, 0.0, 0.0, 0.0, 0.0, 0.0, 0.0, 0.0, 0.0, 0.0, 0.0, 0.0, 0.0, 0.0, 0.0, 0.0, 0.0, 0.0, 0.0, 0.0, 0.0, 0.0, 0.0, 0.0, 0.0],
  "Shots": 4096,
  "Size": 5,
  "Total Algorithm duration [s]": 1.698,
  "Total Classic duration [s]": 1.5346701999999999,
  "Total Quantum duration [s]": 0.1633298
}
