{
  "Circuit execution durations [ms]": [1.8661999999999999, 1.8365, 1.7982, 1.8004, 1.8663, 1.807, 1.8308, 1.8228, 1.8793, 1.8063, 1.845, 1.8212, 1.8336, 1.8435000000000001, 1.8119, 1.8331, 1.8084, 1.8774, 1.8205, 1.8944, 1.8051, 1.8937, 1.822, 1.8116, 1.8236, 1.7956999999999999, 1.8436, 2.0557000000000003, 1.868, 1.7903, 1.8222, 1.8079999999999998, 1.7966, 1.8151000000000002, 1.8143, 1.8145, 1.7903, 1.817, 1.8858, 1.7979, 1.8432, 1.8032000000000001, 1.8904, 1.8142, 1.8082, 1.8285, 1.865, 1.8028, 1.8036, 1.8329, 1.7956, 1.8251000000000002, 1.8215, 1.8287, 1.8006, 1.7897, 1.8425, 1.8151000000000002, 1.9172, 1.8841, 1.8154, 1.8374000000000001, 1.8023, 1.8219, 1.7952000000000001, 1.8007, 1.8201, 1.7981, 1.8111, 1.7982, 1.7902, 1.8315, 1.9333, 1.8186, 1.8136999999999999, 1.821, 1.7945, 1.8361, 1.8091, 1.8101, 2.1234, 1.8103, 1.8181, 2.1082, 1.8255000000000001, 1.8164, 1.8649, 1.7862, 1.8223, 1.8227, 2.0518, 1.8093],
  "Depth": 287.0,
  "Expectation Value": -1.0,
  "Optimal Expectation Value": -1.0,
  "Optimizer durations [ms]": [19.236, 18.745, 18.653, 18.492, 19.352, 18.593, 19.011, 18.442, 19.531, 18.653, 18.966, 18.693, 18.876, 18.902, 18.824, 18.834, 18.428, 19.618, 18.713, 19.211, 18.77, 19.473, 18.704, 18.699, 18.75, 18.422, 19.038, 21.352, 28.499, 20.706, 18.464, 18.997, 18.471, 18.524, 18.419, 18.953, 18.292, 18.82, 19.366, 18.472, 19.85, 18.383, 19.634, 18.678, 18.498, 18.741, 19.261, 18.438, 18.56, 18.976, 18.593, 18.81, 18.719, 18.784, 18.724, 18.213, 18.888, 19.199, 19.525, 19.58, 18.693, 18.851, 18.59, 18.486, 18.755, 18.431, 18.904, 18.528, 18.676, 18.474, 18.622, 18.496, 20.104, 18.712, 18.57, 18.993, 18.129, 19.18, 18.593, 18.764, 21.575, 18.533, 21.135, 21.881, 18.867, 18.594, 19.124, 22.903, 18.803, 18.792, 21.126, 19.276],
  "Optimizer iterations": 92,
  "Optimizer params": [0.10169154177318578, 0.7300439124974418, 0.525440956303852, 0.27651833308874935, 0.43762499838917834, 0.941690022860212],
  "P": 3,
  "Problem": "MIS",
  "QJob durations [ms]": [1.8661999999999999, 1.8365, 1.7982, 1.8004, 1.8663, 1.807, 1.8308, 1.8228, 1.8793, 1.8063, 1.845, 1.8212, 1.8336, 1.8435000000000001, 1.8119, 1.8331, 1.8084, 1.8774, 1.8205, 1.8944, 1.8051, 1.8937, 1.822, 1.8116, 1.8236, 1.7956999999999999, 1.8436, 2.0557000000000003, 1.868, 1.7903, 1.8222, 1.8079999999999998, 1.7966, 1.8151000000000002, 1.8143, 1.8145, 1.7903, 1.817, 1.8858, 1.7979, 1.8432, 1.8032000000000001, 1.8904, 1.8142, 1.8082, 1.8285, 1.865, 1.8028, 1.8036, 1.8329, 1.7956, 1.8251000000000002, 1.8215, 1.8287, 1.8006, 1.7897, 1.8425, 1.8151000000000002, 1.9172, 1.8841, 1.8154, 1.8374000000000001, 1.8023, 1.8219, 1.7952000000000001, 1.8007, 1.8201, 1.7981, 1.8111, 1.7982, 1.7902, 1.8315, 1.9333, 1.8186, 1.8136999999999999, 1.821, 1.7945, 1.8361, 1.8091, 1.8101, 2.1234, 1.8103, 1.8181, 2.1082, 1.8255000000000001, 1.8164, 1.8649, 1.7862, 1.8223, 1.8227, 2.0518, 1.8093],
  "QPU": "7000000",
  "Qubits": 8,
  "Queue durations [ms]": [0.0, 0.0, 0.0, 0.0, 0.0, 0.0, 0.0, 0.0, 0.0, 0.0, 0.0, 0.0, 0.0, 0.0, 0.0, 0.0, 0.0, 0.0, 0.0, 0.0, 0.0, 0.0, 0.0, 0.0, 0.0, 0.0, 0.0, 0.0, 0.0, 0.0, 0.0, 0.0, 0.0, 0.0, 0.0, 0.0, 0.0, 0.0, 0.0, 0.0, 0.0, 0.0, 0.0, 0.0, 0.0, 0.0, 0.0, 0.0, 0.0, 0.0, 0.0, 0.0, 0.0, 0.0, 0.0, 0.0, 0.0, 0.0, 0.0, 0.0, 0.0, 0.0, 0.0, 0.0, 0.0, 0.0, 0.0, 0.0, 0.0, 0.0, 0.0, 0.0, 0.0, 0.0, 0.0, 0.0, 0.0, 0.0, 0.0, 0.0, 0.0, 0.0, 0.0, 0.0, 0.0, 0.0, 0.0, 0.0, 0.0, 0.0, 0.0, 0.0],
  "Shots": 4096,
  "Size": 5,
  "Total Algorithm duration [s]": 1.76,
  "Total Classic duration [s]": 1.5909965,
  "Total Quantum duration [s]": 0.16900350000000003
}
