{
  "Depth": 275.0,
  "Expectation Value": -22.0,
  "Job durations [ms]": [2.0772999999999997, 2.3344, 2.3376, 2.3154999999999997, 2.2545, 2.2950000000000004, 2.3273, 1.4601, 2.1536, 1.4741000000000002, 1.4581, 2.1012, 1.5116, 2.1117000000000004, 1.4677, 2.3086, 1.5588, 2.3501, 1.2133999999999998, 2.3409, 1.4633999999999998, 2.0883, 1.4484000000000001, 2.3216, 1.2091999999999998, 2.0701, 1.2503, 2.3089999999999997, 1.4739, 1.4855, 2.3369, 1.4992, 1.2233, 2.3186999999999998, 1.471, 2.0635, 1.4163, 2.0715999999999997, 1.2163, 1.2083000000000002, 2.5587, 1.1921, 2.079, 1.4717, 2.2948999999999997, 1.4776, 2.3558, 1.4591, 2.359, 1.4638, 2.3148999999999997, 1.2438, 2.0991999999999997, 1.4597, 2.312, 1.2892, 2.0779, 1.4793, 1.4674, 2.3268, 2.1006, 2.4172, 2.3096, 2.3101, 2.3306, 2.0769, 2.3119, 2.3368, 2.3440000000000003, 2.332, 2.1235, 2.3403, 2.0915999999999997, 2.0722, 2.0381, 2.298, 2.3266, 2.4053, 2.2964, 2.3475, 2.3112, 2.0619, 2.099, 2.0617, 2.2786999999999997, 2.0931, 2.0728, 2.3276, 2.0536, 2.399, 2.333, 2.0779, 2.335, 2.3216, 2.3202000000000003, 2.0828],
  "Optimal Expectation Value": -22.0,
  "Optimizer durations [ms]": [37.483, 35.435, 35.024, 34.886, 34.92, 35.03, 35.121, 26.841, 38.403, 26.363, 26.546, 37.779, 26.726, 37.932, 26.704, 34.775, 27.782, 31.802, 28.757, 35.242, 26.611, 37.626, 26.571, 35.224, 29.164, 37.475, 29.165, 31.893, 26.883, 26.682, 35.163, 26.824, 29.051, 35.115, 26.362, 37.275, 26.394, 36.943, 28.807, 28.703, 37.297, 28.86, 37.344, 26.785, 35.02, 26.884, 32.515, 26.454, 35.512, 26.526, 34.626, 29.344, 37.489, 26.58, 34.745, 29.592, 37.855, 26.499, 23.408, 34.985, 37.623, 35.965, 34.903, 34.783, 35.014, 37.598, 34.861, 35.195, 35.204, 35.219, 37.878, 35.23, 37.271, 37.292, 36.909, 34.612, 35.18, 35.818, 34.783, 35.218, 35.07, 37.312, 37.673, 37.434, 34.458, 37.731, 37.547, 34.96, 37.134, 35.908, 34.977, 37.528, 35.123, 34.861, 34.769, 37.861],
  "Optimizer iterations": 96,
  "Optimizer params": [0.9791303873062134, 0.5839272973629313, 0.9996957182884215, 0.2897743694484234, 0.8407753705978394, 0.1783706806600094],
  "P": 3,
  "Problem": "MCP",
  "QPU": "7000000",
  "Qubits": 15,
  "Shots": 4096,
  "Size": 15,
  "Total Algorithm duration [s]": 3.196,
  "Total Classic duration [s]": 3.0053835,
  "Total Quantum duration [s]": 0.19061649999999997
}
