{
  "Depth": 275.0,
  "Expectation Value": -21.66666603088379,
  "Job durations [ms]": [2.0933, 2.1127, 2.069, 2.0604, 2.091, 2.0662, 2.0724, 2.052, 2.0757000000000003, 2.0471999999999997, 2.0387, 2.0471, 2.0444999999999998, 2.0571, 2.3603, 2.1031999999999997, 2.1127, 2.0901, 2.0912, 2.0606999999999998, 2.0909, 2.0387999999999997, 2.0461, 2.0831999999999997, 2.0902, 2.0744000000000002, 2.128, 2.0886, 2.0816, 2.0621, 2.0562, 2.0899, 2.0793, 2.072, 2.0501, 2.0532, 2.0677999999999996, 2.0722, 2.0638, 2.0888, 2.0909, 2.0736, 2.0891, 2.0608, 2.0821, 2.0589, 2.0551, 2.0514, 2.1595999999999997, 2.0806, 2.0736, 2.1098, 2.1132999999999997, 2.0645, 2.0865, 2.0412, 2.0807, 2.0844, 2.0679000000000003, 2.1020000000000003, 2.0739, 2.0772, 2.0617, 2.4918, 2.1099, 2.1243, 2.0706, 2.1281, 2.0965, 2.0723, 2.0962, 2.0709, 2.0572, 2.0764, 2.0643, 2.0692000000000004],
  "Optimal Expectation Value": -22.0,
  "Optimizer durations [ms]": [38.058, 37.869, 37.528, 37.552, 37.279, 37.654, 37.459, 37.507, 37.163, 37.039, 37.268, 37.08, 37.277, 37.394, 41.421, 38.852, 37.793, 37.646, 37.522, 37.094, 37.668, 36.687, 37.242, 37.733, 37.715, 37.532, 37.836, 37.719, 37.596, 37.545, 37.542, 37.732, 37.855, 39.795, 37.361, 37.514, 37.463, 37.288, 37.507, 37.871, 37.824, 37.445, 37.184, 37.36, 37.173, 39.634, 37.352, 37.425, 38.466, 37.412, 37.59, 37.77, 37.736, 37.161, 37.506, 37.11, 37.531, 37.374, 37.642, 37.703, 37.349, 37.486, 37.207, 36.682, 37.458, 38.257, 37.55, 37.985, 37.702, 37.31, 37.631, 37.391, 37.006, 38.804, 37.276, 37.566],
  "Optimizer iterations": 76,
  "Optimizer params": [0.08784179323933045, 0.011806268087774126, 0.5444866700752042, 0.1735120986320996, 0.7999625668423858, 0.4650538599020076],
  "P": 3,
  "Problem": "MCP",
  "QPU": "7000000",
  "Qubits": 15,
  "Shots": 4096,
  "Size": 15,
  "Total Algorithm duration [s]": 2.86,
  "Total Classic duration [s]": 2.7014107999999997,
  "Total Quantum duration [s]": 0.15858920000000004
}
