{
  "Depth": 275.0,
  "Expectation Value": -20.66666603088379,
  "Job durations [ms]": [2.3112, 2.3038999999999996, 2.287, 2.1465, 2.3011, 2.264, 2.3523, 2.3067, 1.4383, 2.2812, 1.4542, 2.3097, 1.4353, 2.3254, 1.4549999999999998, 1.4515, 2.2895, 2.4234, 2.3565, 2.3588, 2.5136, 2.3362000000000003, 2.081, 2.2817, 2.2753, 2.3181, 2.2873, 2.2122, 2.2931000000000004, 2.3783, 2.2994, 2.2981, 2.3303, 2.3234000000000004, 2.3211, 2.2920000000000003, 2.2995, 2.3198, 2.3077, 2.2836000000000003, 2.3497000000000003, 2.2885, 2.3041, 2.3276, 2.34, 2.335, 2.3276, 2.3135, 2.3058, 2.3645, 2.3765, 2.354, 2.4099999999999997, 2.5112, 2.299, 2.3215000000000003, 2.3045, 2.3186999999999998, 2.3892, 2.3649, 2.3208, 2.337, 2.3082, 2.3223, 2.3088, 2.2927999999999997, 2.3157, 2.2945, 2.3015000000000003, 2.3286000000000002, 2.3064999999999998, 2.2978, 2.3333, 2.3095, 2.2951, 2.3118000000000003, 2.3398, 2.3192999999999997, 2.2801, 2.2858, 2.3054],
  "Optimal Expectation Value": -22.0,
  "Optimizer durations [ms]": [32.0, 34.669, 30.333, 36.668, 30.575, 30.354, 30.975, 30.297, 21.615, 30.113, 22.239, 30.249, 21.861, 30.749, 21.929, 21.869, 30.395, 31.486, 32.653, 31.298, 36.642, 31.451, 36.653, 30.518, 30.613, 30.673, 30.019, 35.8, 30.19, 30.85, 30.207, 30.161, 30.663, 30.24, 30.588, 30.086, 30.275, 30.335, 30.357, 30.073, 30.644, 30.524, 30.581, 30.375, 30.618, 30.554, 30.717, 30.482, 30.646, 31.094, 31.091, 30.766, 31.326, 32.485, 35.516, 34.08, 35.229, 30.509, 31.595, 35.796, 30.787, 30.846, 30.338, 30.643, 30.503, 30.044, 30.308, 30.782, 30.531, 30.757, 30.836, 30.694, 31.485, 30.434, 30.25, 30.515, 30.69, 30.17, 29.864, 30.271, 30.474],
  "Optimizer iterations": 81,
  "Optimizer params": [0.12936366360500187, 0.989419065473011, 0.4069036408760893, 0.15162380220650593, 0.11347950103952, 0.7257963279207587],
  "P": 3,
  "Problem": "MCP",
  "QPU": "7000000",
  "Qubits": 15,
  "Shots": 4096,
  "Size": 15,
  "Total Algorithm duration [s]": 2.484,
  "Total Classic duration [s]": 2.3006764,
  "Total Quantum duration [s]": 0.1833236
}
