{
  "Depth": 275.0,
  "Expectation Value": -22.0,
  "Job durations [ms]": [2.0601, 2.1118, 2.0905, 2.1496000000000004, 2.1061, 2.1037999999999997, 2.0603000000000002, 2.166, 2.0915999999999997, 2.0843, 2.0457, 2.1067, 2.0538000000000003, 2.0978, 2.0785, 2.0565, 2.0585, 2.1258000000000004, 2.0587, 1.2039, 2.0411, 1.2062, 2.2507, 1.2153, 2.0836, 1.2079, 1.1993, 2.0265999999999997, 1.2062, 2.0631999999999997, 1.2389000000000001, 2.1241, 1.2101, 2.0468, 1.2248999999999999, 2.1696, 1.2357, 2.0686, 1.2107999999999999, 2.0688999999999997, 1.2154, 1.2029, 2.0759, 2.0719, 1.2149, 2.2977000000000003, 1.1974, 2.0492000000000004, 1.1908999999999998, 1.1932, 2.0709999999999997, 2.0487, 2.0860000000000003, 2.1794000000000002, 2.0696999999999997, 2.0659, 2.0612999999999997, 2.0737, 2.0780999999999996, 2.0769, 2.0557000000000003, 2.0848, 2.0751, 2.0453, 2.0523, 2.0204, 2.0806, 2.0549, 2.0476, 2.0616, 2.0795000000000003, 2.0701, 2.3091, 2.0835, 2.0431, 2.0777, 2.0522, 2.0692000000000004, 2.0927, 2.0683, 2.0587, 2.0730000000000004, 2.0976, 2.0501, 2.0985, 2.0685000000000002, 2.0629],
  "Optimal Expectation Value": -22.0,
  "Optimizer durations [ms]": [37.576, 38.044, 37.539, 38.478, 37.994, 37.579, 38.244, 38.337, 38.109, 37.609, 37.123, 37.685, 36.964, 38.023, 37.346, 36.822, 37.354, 38.154, 37.389, 31.005, 37.248, 28.65, 34.312, 29.012, 37.457, 28.9, 28.784, 36.959, 28.452, 37.337, 29.205, 37.438, 28.96, 37.337, 28.908, 34.439, 29.227, 37.212, 29.136, 37.522, 28.619, 28.565, 37.615, 37.182, 31.351, 36.509, 28.545, 39.347, 28.498, 29.5, 37.379, 36.794, 37.819, 38.469, 37.481, 37.341, 37.09, 37.353, 37.425, 36.998, 37.288, 37.481, 37.256, 36.966, 37.164, 36.945, 37.783, 37.381, 37.217, 37.166, 37.211, 37.55, 35.1, 37.607, 37.42, 37.685, 36.922, 37.575, 37.204, 37.547, 37.257, 37.102, 40.028, 36.97, 37.931, 37.311, 37.339],
  "Optimizer iterations": 87,
  "Optimizer params": [0.417985203823326, 0.9982323036815379, 0.12376946998055141, 0.5234089350834412, 0.09466242933665675, 0.9455880573766496],
  "P": 3,
  "Problem": "MCP",
  "QPU": "7000000",
  "Qubits": 15,
  "Shots": 4096,
  "Size": 15,
  "Total Algorithm duration [s]": 3.112,
  "Total Classic duration [s]": 2.9454384,
  "Total Quantum duration [s]": 0.1665616
}
