{
  "Depth": 275.0,
  "Expectation Value": -22.0,
  "Job durations [ms]": [2.3021000000000003, 2.448, 2.441, 2.3139, 2.4941, 2.5244999999999997, 2.3245, 2.2920000000000003, 2.2903, 2.3319, 2.2851, 2.3017, 2.0961, 2.3101, 2.3131, 2.2883, 2.3235, 2.2986, 2.3287999999999998, 2.3064999999999998, 2.2925, 2.2842000000000002, 2.3216, 2.2626, 2.3054, 2.2577000000000003, 1.4219, 2.3038999999999996, 1.4563, 2.3095, 1.4439, 2.2931000000000004, 1.4553, 2.3335, 1.4587, 2.3167999999999997, 1.3187, 2.3345000000000002, 1.6498000000000002, 1.2374, 2.0772999999999997, 2.3178, 2.3144, 1.4457, 1.5027000000000001, 1.3209, 2.3043, 2.3032999999999997, 2.3429, 2.2883, 2.2759, 2.3012, 2.3151, 2.2964, 2.3405, 2.3070999999999997, 2.2881, 2.2801, 2.3176, 2.3213, 2.2965, 2.2811, 2.2935, 2.2963, 2.3125, 2.3240000000000003, 2.3041, 2.3076, 2.3995, 2.2798, 2.2996000000000003, 2.2232, 2.1056, 2.4164, 2.2797, 2.3274, 2.2849, 2.4840999999999998, 2.3005999999999998],
  "Optimal Expectation Value": -22.0,
  "Optimizer durations [ms]": [32.061, 31.894, 36.759, 30.299, 32.638, 34.287, 34.972, 30.314, 30.209, 31.114, 30.3, 30.45, 37.998, 30.708, 30.676, 30.232, 30.832, 30.39, 30.716, 30.447, 30.55, 29.997, 30.551, 30.328, 29.918, 30.016, 21.727, 30.179, 21.634, 30.507, 21.793, 30.143, 21.955, 31.07, 22.043, 30.323, 27.594, 34.944, 23.965, 29.378, 37.817, 30.35, 30.345, 24.406, 22.732, 29.173, 30.359, 30.512, 31.001, 30.348, 30.071, 30.351, 30.551, 29.989, 31.112, 30.474, 30.427, 30.073, 30.452, 31.03, 30.47, 30.14, 30.483, 30.673, 30.554, 30.858, 30.301, 30.442, 31.4, 37.157, 30.439, 39.007, 38.004, 37.803, 30.483, 30.69, 30.38, 32.29, 30.699],
  "Optimizer iterations": 79,
  "Optimizer params": [0.4002286195755005, 0.9728823602199554, 0.5333147346973419, 0.6024583578109741, 0.8077245354652405, 0.9190264940261841],
  "P": 3,
  "Problem": "MCP",
  "QPU": "7000000",
  "Qubits": 15,
  "Shots": 4096,
  "Size": 15,
  "Total Algorithm duration [s]": 2.409,
  "Total Classic duration [s]": 2.2362512999999997,
  "Total Quantum duration [s]": 0.17274870000000003
}
