{
  "Depth": 149.0,
  "Expectation Value": -10.526103973388672,
  "Job durations [ms]": [0.9856000000000001, 1.0637999999999999, 0.9609, 1.1752, 0.9586, 0.9970000000000001, 0.9645, 0.9709, 0.9361, 0.9669, 0.8719, 1.0934, 0.9466, 0.9611, 1.0244, 1.2581, 0.9343, 0.9836999999999999, 0.9254, 1.0191, 1.3205, 0.9448, 0.9416, 1.3227, 0.9294, 1.211, 0.9380999999999999, 1.1226, 0.9609, 0.9497000000000001, 0.9401, 1.0457999999999998, 0.9077999999999999, 1.042, 1.2612, 0.9689, 0.9745, 1.1605, 0.9407000000000001, 0.9775, 0.9430999999999999, 1.2909, 0.9596, 0.9623, 1.0465, 1.027, 0.9583, 0.9158000000000001, 0.9556, 1.0129, 0.9623999999999999, 0.9562, 1.1437000000000002, 1.0182, 0.9667, 0.9419, 0.9682000000000001, 1.1344, 1.1754, 0.9420999999999999, 1.1711, 1.078, 0.9669, 0.9218, 0.949, 0.9576, 0.9604, 0.9558, 0.9425, 1.2853999999999999, 0.9337, 0.9525, 1.0897999999999999, 0.9573999999999999, 0.9647, 0.9589000000000001, 0.9498, 0.9613, 0.9588, 0.9449000000000001, 0.9329, 0.9602999999999999, 0.945, 1.0684, 0.9607, 0.9538, 1.0565, 0.9547, 0.9527, 1.2259, 0.9924999999999999, 1.0283, 0.9602, 1.2727000000000002, 1.0083, 1.0495, 1.0525, 1.0468000000000002, 0.9535, 0.9412, 0.9448, 0.9516, 1.4018, 0.9378000000000001, 0.9397, 0.968, 1.3429, 0.9462999999999999, 0.9621000000000001],
  "Optimal Expectation Value": -12.0,
  "Optimizer durations [ms]": [19.798, 16.15, 19.865, 16.396, 19.562, 20.255, 19.896, 19.459, 19.298, 19.994, 13.199, 19.106, 19.386, 19.858, 12.166, 19.12, 19.538, 16.119, 15.953, 19.022, 19.31, 19.845, 19.683, 19.198, 16.987, 19.017, 19.636, 19.393, 19.636, 19.59, 19.651, 14.992, 14.412, 13.408, 19.129, 19.878, 19.857, 18.956, 17.834, 20.18, 19.624, 18.376, 16.675, 15.782, 18.724, 20.562, 19.671, 19.207, 17.359, 15.412, 19.839, 19.855, 18.857, 20.533, 15.059, 19.775, 16.469, 14.269, 18.713, 16.623, 18.938, 16.363, 15.322, 19.243, 16.588, 17.761, 19.725, 19.571, 19.62, 18.524, 19.509, 16.622, 17.42, 18.585, 19.651, 15.325, 17.326, 18.937, 19.659, 19.797, 19.669, 17.223, 19.302, 19.264, 16.963, 15.134, 16.326, 17.359, 19.667, 15.118, 17.235, 15.514, 17.628, 19.01, 16.857, 12.07, 15.964, 15.798, 15.408, 16.333, 19.76, 19.773, 14.823, 19.935, 19.349, 19.35, 19.018, 18.788, 16.679],
  "Optimizer iterations": 109,
  "Optimizer params": [0.06436276802694842, 0.9763927018729154, 0.37896820677236176, 0.38131466427977845, 0.20882805492555462, 0.036974684648658794],
  "P": 3,
  "Problem": "MCP",
  "QPU": "7000000",
  "Qubits": 8,
  "Shots": 4096,
  "Size": 8,
  "Total Algorithm duration [s]": 1.966,
  "Total Classic duration [s]": 1.8552893,
  "Total Quantum duration [s]": 0.11071070000000002
}
