{
  "Depth": 149.0,
  "Expectation Value": -9.974760055541992,
  "Job durations [ms]": [1.0526000000000002, 1.0228, 0.9792, 1.3796, 0.9819, 1.0464, 1.3553, 1.2566000000000002, 1.0603, 1.0575999999999999, 1.0517, 1.0215, 1.0032999999999999, 1.0578, 1.031, 1.3748, 1.0356, 1.0331, 1.1665, 1.2342, 1.0695999999999999, 1.1019999999999999, 0.9882999999999998, 1.2453, 0.9927, 1.0275, 1.0071999999999999, 1.309, 0.9508, 0.9882999999999998, 1.1768, 1.3686, 1.0824, 1.0497, 1.0330000000000001, 1.0525, 1.032, 1.1903000000000001, 1.1208, 1.0321, 1.3391, 1.4102999999999999, 1.0218, 1.0141, 1.3683, 1.0410000000000001, 1.3775, 1.3977, 1.3861999999999999, 1.4283, 1.4300000000000002, 1.0948, 1.0745, 0.9973, 1.3668, 1.0262, 1.3205, 1.1356000000000002, 1.0465, 1.432, 1.0504, 1.433, 1.1846, 1.1008, 1.3955, 1.4266, 1.1726, 1.3848, 1.3432, 1.0237, 1.0567, 1.0748000000000002, 1.0728, 1.0614000000000001, 1.0824, 1.3921999999999999, 1.3853, 1.0610000000000002],
  "Optimal Expectation Value": -12.0,
  "Optimizer durations [ms]": [20.744, 20.651, 20.137, 16.828, 20.345, 20.401, 18.988, 15.195, 20.67, 20.96, 20.772, 17.117, 20.225, 19.475, 16.408, 17.404, 19.4, 20.259, 19.815, 17.229, 20.795, 20.982, 18.671, 20.023, 17.057, 20.611, 15.153, 17.014, 20.197, 19.968, 19.518, 16.277, 18.663, 16.379, 20.181, 17.823, 21.149, 19.235, 16.854, 17.286, 19.165, 16.839, 17.526, 19.559, 19.056, 16.575, 19.232, 19.668, 19.556, 17.05, 19.978, 20.685, 20.849, 19.261, 18.221, 20.493, 18.649, 19.398, 20.569, 20.074, 16.799, 18.962, 14.564, 21.422, 20.377, 18.791, 20.059, 20.391, 19.08, 20.262, 17.166, 20.944, 19.732, 15.492, 17.989, 16.307, 17.447, 20.769],
  "Optimizer iterations": 78,
  "Optimizer params": [0.41836419439051625, 0.9964242219514171, 0.9761822761506825, 0.03862938262490423, 0.11840708533177745, 0.38482891889495713],
  "P": 3,
  "Problem": "MCP",
  "QPU": "7000000",
  "Qubits": 8,
  "Shots": 4096,
  "Size": 8,
  "Total Algorithm duration [s]": 1.475,
  "Total Classic duration [s]": 1.384569,
  "Total Quantum duration [s]": 0.09043100000000004
}
