{
  "Depth": 149.0,
  "Expectation Value": -10.419551849365234,
  "Job durations [ms]": [1.1348, 1.037, 0.9924000000000001, 1.0769, 1.0032, 0.9629000000000001, 1.0148, 0.9705, 0.9264, 1.0237, 1.1911, 1.0452000000000001, 1.3349, 0.9679000000000001, 1.0019, 1.0070000000000001, 0.9585, 0.9687, 0.9258, 0.9763000000000001, 0.9698, 1.0693, 1.0586, 1.0742, 1.1135, 0.9607, 0.9604, 1.1699, 0.992, 0.9577, 0.9504, 1.0592, 1.3359, 0.8431, 1.2903, 0.9401999999999999, 0.9322999999999999, 0.9405, 1.0471, 0.9516, 0.9576, 1.3744, 1.1053, 0.9321, 0.9238000000000001, 0.9627, 0.9695, 1.0083, 1.1179000000000001, 0.9436, 1.1260000000000001, 0.9943000000000001, 0.9679000000000001, 0.9819, 1.072, 1.1882, 1.1444, 1.2793999999999999, 1.2248999999999999, 1.0862, 1.0949, 0.9722, 1.3414, 0.9798000000000001, 1.0734, 0.9724999999999999, 0.9602999999999999, 0.9563, 1.2654999999999998, 0.9893000000000001, 1.0695, 0.9578, 0.968, 0.9646, 1.0703, 1.0465, 0.9646, 0.9686, 0.9686, 0.9756, 1.0219999999999998, 1.1189, 0.9919, 1.0603, 1.1221],
  "Optimal Expectation Value": -12.0,
  "Optimizer durations [ms]": [16.765, 20.472, 20.119, 13.434, 20.373, 20.075, 17.941, 15.74, 18.304, 20.311, 17.42, 16.666, 19.533, 20.038, 19.789, 15.789, 19.348, 15.984, 19.352, 17.962, 16.142, 16.407, 11.334, 14.004, 16.735, 19.879, 19.493, 12.253, 16.715, 19.722, 18.79, 12.923, 18.962, 18.949, 17.813, 17.814, 18.397, 19.35, 19.277, 19.432, 19.526, 19.134, 16.726, 19.797, 19.318, 16.782, 15.117, 15.649, 17.616, 18.926, 16.641, 19.927, 19.887, 18.969, 16.037, 18.383, 19.323, 15.986, 17.554, 16.362, 16.069, 19.95, 15.892, 18.945, 18.866, 15.484, 19.665, 19.798, 19.251, 18.914, 16.067, 19.662, 16.868, 16.499, 14.172, 15.753, 19.583, 19.978, 18.311, 19.682, 19.125, 20.447, 20.101, 15.94, 14.112],
  "Optimizer iterations": 85,
  "Optimizer params": [0.530794013709503, 0.20537932349594765, 0.7237624949518741, 0.37178676270465466, 0.15886394775512203, 0.9884007509135355],
  "P": 3,
  "Problem": "MCP",
  "QPU": "7000000",
  "Qubits": 8,
  "Shots": 4096,
  "Size": 8,
  "Total Algorithm duration [s]": 1.516,
  "Total Classic duration [s]": 1.4276281,
  "Total Quantum duration [s]": 0.0883719
}
