{
  "Depth": 149.0,
  "Expectation Value": -10.457200050354004,
  "Job durations [ms]": [0.9775999999999999, 1.0677, 0.9512999999999999, 0.958, 0.9575, 0.9531999999999999, 1.2046999999999999, 1.1271, 1.0372000000000001, 0.9559, 1.1067, 0.9588, 0.9408, 1.1296, 0.9451, 0.9794999999999999, 0.9451, 1.0999, 0.9744, 0.9674, 1.1206, 1.2447000000000001, 0.9867000000000001, 0.9405, 0.967, 1.0318, 0.9497000000000001, 0.9610000000000001, 1.39, 0.9728, 0.9449000000000001, 0.9287, 1.1672, 1.0975, 0.9396, 0.9512, 0.9406, 1.32, 0.9476, 1.3806999999999998, 1.171, 0.9817999999999999, 0.9924999999999999, 1.1915, 0.9539000000000001, 1.3745, 0.9769, 0.9631000000000001, 0.9319000000000001, 1.2358, 0.9416, 0.9504999999999999, 0.9684, 1.2358, 0.968, 0.9437, 0.9519, 1.1349, 0.9695, 0.9529, 0.9736, 0.9916, 1.3254, 1.0215999999999998, 0.9707, 0.9445, 0.9144, 1.042, 0.9534, 0.9508, 0.9578, 0.9439, 0.9569, 1.2609, 0.9783999999999999, 0.969, 0.9459, 0.9713999999999999, 0.9862, 0.9557, 0.9531999999999999, 1.3269, 0.9565, 0.9608000000000001, 0.9444, 0.9775999999999999, 0.9687, 0.9626, 1.0478, 0.9713, 1.3586],
  "Optimal Expectation Value": -12.0,
  "Optimizer durations [ms]": [19.964, 16.0, 19.751, 16.786, 19.514, 19.637, 19.437, 16.426, 15.508, 19.991, 16.527, 19.858, 19.579, 19.203, 16.968, 19.07, 19.783, 19.034, 20.203, 19.932, 19.287, 15.195, 18.473, 19.718, 19.965, 13.319, 16.012, 19.96, 19.714, 19.854, 15.401, 19.614, 19.334, 15.101, 19.419, 19.695, 18.876, 14.978, 19.673, 19.132, 18.935, 19.027, 18.229, 19.015, 15.39, 16.422, 20.149, 16.932, 14.717, 18.783, 19.361, 17.194, 19.694, 19.006, 20.009, 17.183, 19.434, 17.97, 17.867, 14.7, 19.941, 19.744, 18.712, 20.54, 19.195, 18.407, 19.474, 15.788, 15.925, 18.532, 16.4, 19.341, 16.846, 19.098, 15.279, 15.959, 19.73, 19.331, 16.653, 19.898, 18.903, 19.154, 19.639, 19.912, 19.833, 16.661, 19.914, 19.639, 16.074, 17.988, 19.227],
  "Optimizer iterations": 91,
  "Optimizer params": [0.9869410325669132, 0.7605708491457518, 0.399157582741658, 0.12435941847406512, 0.2142209592095823, 0.028519168792736846],
  "P": 3,
  "Problem": "MCP",
  "QPU": "7000000",
  "Qubits": 8,
  "Shots": 4096,
  "Size": 8,
  "Total Algorithm duration [s]": 1.667,
  "Total Classic duration [s]": 1.5733471,
  "Total Quantum duration [s]": 0.09365289999999997
}
