{
  "Depth": 149.0,
  "Expectation Value": -10.296146392822266,
  "Job durations [ms]": [1.0287, 1.0287, 1.0123, 1.2461, 1.0, 1.0143000000000002, 1.2065000000000001, 0.9681, 0.9919, 1.0743, 1.0953, 1.1138000000000001, 1.0192999999999999, 1.3998000000000002, 1.0785, 1.2013, 1.2925, 1.3705, 1.0985, 1.4341, 1.3847, 1.0436, 1.0903, 1.0127000000000002, 1.0279, 1.4965, 1.2763, 1.0947, 1.0828, 1.0250000000000001, 1.0777, 1.0395, 1.3026, 1.1413, 1.3339999999999999, 1.0372999999999999, 1.3259999999999998, 1.1067, 1.0989, 1.0854000000000001, 1.1196, 1.0748000000000002, 1.1097, 1.1829, 0.9939, 1.0899, 1.0433000000000001, 1.0637999999999999, 1.1788, 1.1027, 1.3915, 1.0992, 1.2254, 1.0230000000000001, 1.044, 1.4189, 1.0252, 1.0161, 1.2932, 1.1623, 1.0958, 1.0047000000000001, 1.0154999999999998, 0.9875, 1.3427, 1.0323, 1.1834, 1.3397000000000001, 1.0261, 1.2754, 0.9491, 1.0016, 1.0148, 0.98, 1.0436],
  "Optimal Expectation Value": -12.0,
  "Optimizer durations [ms]": [20.866, 20.844, 20.806, 20.013, 20.089, 19.667, 17.798, 18.093, 20.075, 21.481, 21.308, 15.459, 20.998, 20.279, 16.574, 19.912, 19.918, 19.272, 21.466, 20.519, 19.807, 18.882, 19.638, 18.893, 20.803, 20.509, 20.571, 21.284, 21.259, 20.954, 21.026, 20.274, 19.515, 19.209, 18.99, 18.985, 20.113, 17.111, 19.99, 17.355, 20.721, 18.821, 19.636, 22.257, 20.132, 17.829, 20.642, 21.329, 19.612, 21.783, 19.682, 21.392, 20.031, 20.243, 20.658, 20.118, 20.408, 20.567, 19.497, 19.932, 20.96, 18.502, 19.141, 18.04, 18.963, 20.838, 19.882, 17.217, 19.543, 20.018, 19.868, 20.262, 19.311, 20.932, 17.342],
  "Optimizer iterations": 75,
  "Optimizer params": [0.7253399333177557, 0.0971980344189765, 0.5774709573631224, 0.9592007446992212, 0.09339175907868656, 0.5273759216112727],
  "P": 3,
  "Problem": "MCP",
  "QPU": "7000000",
  "Qubits": 8,
  "Shots": 4096,
  "Size": 8,
  "Total Algorithm duration [s]": 1.486,
  "Total Classic duration [s]": 1.4012912,
  "Total Quantum duration [s]": 0.0847088
}
