{
  "Circuit execution durations [ms]": [5.4959, 5.4679, 5.4554, 5.431100000000001, 5.457400000000001, 5.4076, 5.472099999999999, 5.454, 5.514, 5.7494, 5.6156, 5.4723999999999995, 5.506600000000001, 5.4485, 5.4875, 5.5005999999999995, 5.4516, 5.4999, 5.4163, 5.4658, 5.5569, 5.474900000000001, 5.4225, 5.5264, 5.4897, 5.5097000000000005, 5.5118, 5.4611, 5.5314, 5.4512, 5.5286, 5.3518, 5.7689, 5.5728, 5.4824, 5.4675, 5.4752, 5.5027, 5.4093, 5.4752, 5.5053, 5.5271, 5.500500000000001, 5.4588, 5.5246, 5.9381, 5.451499999999999, 5.4619, 5.4795, 5.4805, 5.4867, 5.479900000000001, 5.56, 5.5166, 5.5446, 5.4935, 5.4935, 5.4465, 5.4891000000000005, 5.4981, 5.4525, 5.4527, 5.5194, 5.447699999999999, 5.4916, 5.5346, 5.4222, 5.4658, 5.4855, 5.4417, 5.4431, 5.4672, 5.4872000000000005],
  "Depth": 758.0,
  "Expectation Value": -3.9176113605499268,
  "Optimal Expectation Value": -8.0,
  "Optimizer durations [ms]": [56.245, 55.956, 55.839, 55.456, 55.648, 55.346, 55.912, 55.732, 56.384, 58.676, 61.414, 55.827, 56.334, 55.666, 56.021, 56.006, 55.578, 56.217, 55.201, 55.862, 56.862, 55.824, 55.436, 56.37, 55.962, 56.403, 56.407, 55.816, 56.397, 55.78, 57.24, 60.697, 58.779, 57.185, 55.815, 55.905, 55.849, 56.121, 55.102, 55.82, 56.16, 56.422, 55.989, 55.781, 56.362, 60.675, 55.516, 55.719, 55.792, 56.102, 56.036, 55.979, 56.771, 56.395, 56.531, 56.033, 55.993, 55.598, 55.889, 56.063, 55.478, 55.763, 56.411, 65.129, 56.039, 56.52, 55.188, 55.928, 56.152, 55.543, 55.621, 55.979, 55.89],
  "Optimizer iterations": 73,
  "Optimizer params": [0.7746615103342945, 0.8283436613788245, 0.4367993028515435, 0.9705879845566405, 0.8503196828985106, 0.9279200255935558],
  "P": 3,
  "Problem": "DSP",
  "QJob durations [ms]": [5.4959, 5.4679, 5.4554, 5.431100000000001, 5.457400000000001, 5.4076, 5.472099999999999, 5.454, 5.514, 5.7494, 5.6156, 5.4723999999999995, 5.506600000000001, 5.4485, 5.4875, 5.5005999999999995, 5.4516, 5.4999, 5.4163, 5.4658, 5.5569, 5.474900000000001, 5.4225, 5.5264, 5.4897, 5.5097000000000005, 5.5118, 5.4611, 5.5314, 5.4512, 5.5286, 5.3518, 5.7689, 5.5728, 5.4824, 5.4675, 5.4752, 5.5027, 5.4093, 5.4752, 5.5053, 5.5271, 5.500500000000001, 5.4588, 5.5246, 5.9381, 5.451499999999999, 5.4619, 5.4795, 5.4805, 5.4867, 5.479900000000001, 5.56, 5.5166, 5.5446, 5.4935, 5.4935, 5.4465, 5.4891000000000005, 5.4981, 5.4525, 5.4527, 5.5194, 5.447699999999999, 5.4916, 5.5346, 5.4222, 5.4658, 5.4855, 5.4417, 5.4431, 5.4672, 5.4872000000000005],
  "QPU": "7000000",
  "Qubits": 15,
  "Queue durations [ms]": [0.0, 0.0, 0.0, 0.0, 0.0, 0.0, 0.0, 0.0, 0.0, 0.0, 0.0, 0.0, 0.0, 0.0, 0.0, 0.0, 0.0, 0.0, 0.0, 0.0, 0.0, 0.0, 0.0, 0.0, 0.0, 0.0, 0.0, 0.0, 0.0, 0.0, 0.0, 0.0, 0.0, 0.0, 0.0, 0.0, 0.0, 0.0, 0.0, 0.0, 0.0, 0.0, 0.0, 0.0, 0.0, 0.0, 0.0, 0.0, 0.0, 0.0, 0.0, 0.0, 0.0, 0.0, 0.0, 0.0, 0.0, 0.0, 0.0, 0.0, 0.0, 0.0, 0.0, 0.0, 0.0, 0.0, 0.0, 0.0, 0.0, 0.0, 0.0, 0.0, 0.0],
  "Shots": 4096,
  "Size": 10,
  "Total Algorithm duration [s]": 4.116,
  "Total Classic duration [s]": 3.7148128999999996,
  "Total Quantum duration [s]": 0.4011870999999999
}
