{
  "Circuit execution durations [ms]": [5.4817, 5.4780999999999995, 5.4992, 5.5636, 5.475, 5.445099999999999, 5.480600000000001, 5.5431, 5.4540999999999995, 5.5037, 5.5354, 5.4839, 5.522, 5.4909, 5.47, 5.476, 5.5682, 5.514200000000001, 5.4888, 5.5083, 5.6252, 5.7041, 5.5745, 5.4834000000000005, 5.4901, 5.4909, 5.5113, 5.4979, 5.4879999999999995, 5.514200000000001, 5.5431, 5.5051, 5.4999, 5.5061, 5.8157, 5.6206, 5.5284, 5.5301, 5.4983, 5.5278, 5.480600000000001, 5.5651, 5.4569, 5.5249, 5.5167, 5.4613, 5.4671, 5.5222, 5.498600000000001, 5.5522, 5.4751, 5.4901, 5.914, 5.5362, 5.5094, 5.5435, 5.5065, 5.5251, 5.4784999999999995, 5.5156, 5.4606, 5.5024, 5.5639, 5.4818, 5.4924, 5.4784, 5.4436, 5.5002, 5.494800000000001, 5.4791, 5.521100000000001, 5.4789, 5.5097000000000005, 5.5518, 5.5463, 5.4127, 5.5389, 5.498, 5.5417000000000005, 5.5203],
  "Depth": 758.0,
  "Expectation Value": -4.664998531341553,
  "Optimal Expectation Value": -8.0,
  "Optimizer durations [ms]": [56.155, 55.917, 56.143, 56.808, 55.853, 55.601, 55.828, 56.4, 55.843, 56.302, 56.688, 56.126, 56.459, 55.882, 55.851, 55.734, 56.689, 56.357, 56.824, 61.082, 57.195, 58.215, 61.687, 55.995, 56.141, 56.056, 56.269, 56.175, 56.011, 56.387, 56.64, 56.232, 56.044, 56.01, 59.159, 59.398, 56.434, 56.428, 56.12, 56.331, 56.092, 56.76, 55.806, 56.215, 56.464, 55.726, 55.832, 56.517, 56.162, 56.75, 55.97, 55.927, 60.267, 56.409, 56.185, 56.596, 56.077, 56.464, 55.829, 56.345, 55.567, 56.066, 56.694, 56.027, 56.036, 56.031, 55.537, 56.105, 56.078, 56.032, 60.037, 55.897, 56.372, 57.348, 56.703, 64.934, 56.575, 56.098, 56.586, 56.184],
  "Optimizer iterations": 80,
  "Optimizer params": [0.2998217267827705, 0.41937013967649067, 0.396523915186748, 0.6184903796173421, 0.27726698388638527, 0.625456723612863],
  "P": 3,
  "Problem": "DSP",
  "QJob durations [ms]": [5.4817, 5.4780999999999995, 5.4992, 5.5636, 5.475, 5.445099999999999, 5.480600000000001, 5.5431, 5.4540999999999995, 5.5037, 5.5354, 5.4839, 5.522, 5.4909, 5.47, 5.476, 5.5682, 5.514200000000001, 5.4888, 5.5083, 5.6252, 5.7041, 5.5745, 5.4834000000000005, 5.4901, 5.4909, 5.5113, 5.4979, 5.4879999999999995, 5.514200000000001, 5.5431, 5.5051, 5.4999, 5.5061, 5.8157, 5.6206, 5.5284, 5.5301, 5.4983, 5.5278, 5.480600000000001, 5.5651, 5.4569, 5.5249, 5.5167, 5.4613, 5.4671, 5.5222, 5.498600000000001, 5.5522, 5.4751, 5.4901, 5.914, 5.5362, 5.5094, 5.5435, 5.5065, 5.5251, 5.4784999999999995, 5.5156, 5.4606, 5.5024, 5.5639, 5.4818, 5.4924, 5.4784, 5.4436, 5.5002, 5.494800000000001, 5.4791, 5.521100000000001, 5.4789, 5.5097000000000005, 5.5518, 5.5463, 5.4127, 5.5389, 5.498, 5.5417000000000005, 5.5203],
  "QPU": "7000000",
  "Qubits": 15,
  "Queue durations [ms]": [0.0, 0.0, 0.0, 0.0, 0.0, 0.0, 0.0, 0.0, 0.0, 0.0, 0.0, 0.0, 0.0, 0.0, 0.0, 0.0, 0.0, 0.0, 0.0, 0.0, 0.0, 0.0, 0.0, 0.0, 0.0, 0.0, 0.0, 0.0, 0.0, 0.0, 0.0, 0.0, 0.0, 0.0, 0.0, 0.0, 0.0, 0.0, 0.0, 0.0, 0.0, 0.0, 0.0, 0.0, 0.0, 0.0, 0.0, 0.0, 0.0, 0.0, 0.0, 0.0, 0.0, 0.0, 0.0, 0.0, 0.0, 0.0, 0.0, 0.0, 0.0, 0.0, 0.0, 0.0, 0.0, 0.0, 0.0, 0.0, 0.0, 0.0, 0.0, 0.0, 0.0, 0.0, 0.0, 0.0, 0.0, 0.0, 0.0, 0.0],
  "Shots": 4096,
  "Size": 10,
  "Total Algorithm duration [s]": 4.532,
  "Total Classic duration [s]": 4.0905072,
  "Total Quantum duration [s]": 0.4414928000000002
}
