{
  "Circuit execution durations [ms]": [5.5203, 5.491700000000001, 5.5004, 5.5028999999999995, 5.5054, 5.5353, 5.5017, 5.9111, 5.495299999999999, 5.5396, 5.4852, 5.5192000000000005, 5.4704999999999995, 5.498600000000001, 5.5445, 5.5061, 5.4904, 5.5494, 5.4989, 5.5074, 5.5108, 5.5344, 5.5063, 5.5024999999999995, 5.5346, 5.5002, 5.722600000000001, 5.5511, 5.5407, 5.553599999999999, 5.629099999999999, 5.5447, 5.5027, 5.4866, 5.4419, 5.503, 5.484, 5.526, 5.4481, 5.5386999999999995, 5.5264, 5.4998, 5.6411999999999995, 5.3431, 5.5548, 5.4859, 5.4977, 5.512300000000001, 5.5244, 5.561800000000001, 5.4554, 5.45, 5.4951, 5.464700000000001, 5.470199999999999, 5.4589, 5.4757, 5.4237, 5.4894, 5.4649, 5.7234, 5.555400000000001, 5.5185, 5.454, 5.4394, 5.4632, 5.4746999999999995, 5.4576, 5.499099999999999, 5.4441999999999995, 5.4507, 5.5303, 5.4561, 5.4603, 5.4494, 5.6263, 5.5249, 5.4717, 5.5409999999999995, 5.4853000000000005, 5.504700000000001, 5.5354, 5.285, 5.8297, 5.5907, 5.4662, 5.4784, 5.4607, 5.4601, 5.4736, 5.5097000000000005, 5.5194, 5.5092, 5.4395, 5.4711, 5.5201, 5.9689, 5.5121],
  "Depth": 758.0,
  "Expectation Value": -4.947309970855713,
  "Optimal Expectation Value": -8.0,
  "Optimizer durations [ms]": [56.392, 56.112, 56.218, 56.171, 56.175, 56.467, 56.193, 60.393, 56.13, 56.629, 56.109, 56.309, 55.766, 56.199, 56.675, 56.122, 56.155, 56.753, 55.973, 56.085, 56.274, 56.539, 56.207, 56.202, 56.645, 56.061, 58.454, 56.503, 56.555, 57.245, 62.415, 56.645, 56.091, 56.123, 55.627, 56.125, 55.896, 56.489, 55.432, 56.498, 56.474, 55.964, 57.601, 64.275, 56.706, 55.898, 56.254, 56.297, 56.504, 56.79, 55.705, 55.737, 56.155, 55.857, 55.968, 55.766, 55.894, 55.423, 55.968, 55.613, 58.394, 62.997, 56.34, 55.571, 55.545, 55.836, 55.899, 55.625, 56.188, 55.449, 55.626, 56.45, 55.802, 55.739, 55.483, 57.506, 56.358, 56.04, 56.607, 58.516, 56.028, 56.709, 62.086, 59.507, 57.244, 55.959, 55.859, 55.715, 55.713, 55.859, 56.307, 56.411, 56.067, 55.395, 55.779, 56.448, 60.915, 56.327],
  "Optimizer iterations": 98,
  "Optimizer params": [0.40750319643614896, 0.9890227352725731, 0.6373036607957692, 0.195181373721201, 0.9726714180129292, 0.07010833951822312],
  "P": 3,
  "Problem": "DSP",
  "QJob durations [ms]": [5.5203, 5.491700000000001, 5.5004, 5.5028999999999995, 5.5054, 5.5353, 5.5017, 5.9111, 5.495299999999999, 5.5396, 5.4852, 5.5192000000000005, 5.4704999999999995, 5.498600000000001, 5.5445, 5.5061, 5.4904, 5.5494, 5.4989, 5.5074, 5.5108, 5.5344, 5.5063, 5.5024999999999995, 5.5346, 5.5002, 5.722600000000001, 5.5511, 5.5407, 5.553599999999999, 5.629099999999999, 5.5447, 5.5027, 5.4866, 5.4419, 5.503, 5.484, 5.526, 5.4481, 5.5386999999999995, 5.5264, 5.4998, 5.6411999999999995, 5.3431, 5.5548, 5.4859, 5.4977, 5.512300000000001, 5.5244, 5.561800000000001, 5.4554, 5.45, 5.4951, 5.464700000000001, 5.470199999999999, 5.4589, 5.4757, 5.4237, 5.4894, 5.4649, 5.7234, 5.555400000000001, 5.5185, 5.454, 5.4394, 5.4632, 5.4746999999999995, 5.4576, 5.499099999999999, 5.4441999999999995, 5.4507, 5.5303, 5.4561, 5.4603, 5.4494, 5.6263, 5.5249, 5.4717, 5.5409999999999995, 5.4853000000000005, 5.504700000000001, 5.5354, 5.285, 5.8297, 5.5907, 5.4662, 5.4784, 5.4607, 5.4601, 5.4736, 5.5097000000000005, 5.5194, 5.5092, 5.4395, 5.4711, 5.5201, 5.9689, 5.5121],
  "QPU": "7000000",
  "Qubits": 15,
  "Queue durations [ms]": [0.0, 0.0, 0.0, 0.0, 0.0, 0.0, 0.0, 0.0, 0.0, 0.0, 0.0, 0.0, 0.0, 0.0, 0.0, 0.0, 0.0, 0.0, 0.0, 0.0, 0.0, 0.0, 0.0, 0.0, 0.0, 0.0, 0.0, 0.0, 0.0, 0.0, 0.0, 0.0, 0.0, 0.0, 0.0, 0.0, 0.0, 0.0, 0.0, 0.0, 0.0, 0.0, 0.0, 0.0, 0.0, 0.0, 0.0, 0.0, 0.0, 0.0, 0.0, 0.0, 0.0, 0.0, 0.0, 0.0, 0.0, 0.0, 0.0, 0.0, 0.0, 0.0, 0.0, 0.0, 0.0, 0.0, 0.0, 0.0, 0.0, 0.0, 0.0, 0.0, 0.0, 0.0, 0.0, 0.0, 0.0, 0.0, 0.0, 0.0, 0.0, 0.0, 0.0, 0.0, 0.0, 0.0, 0.0, 0.0, 0.0, 0.0, 0.0, 0.0, 0.0, 0.0, 0.0, 0.0, 0.0, 0.0],
  "Shots": 4096,
  "Size": 10,
  "Total Algorithm duration [s]": 5.55,
  "Total Classic duration [s]": 5.0095091,
  "Total Quantum duration [s]": 0.5404909
}
