{
  "Circuit execution durations [ms]": [5.4971000000000005, 5.4618, 5.565600000000001, 5.3626000000000005, 5.4637, 5.5187, 5.4862, 5.4531, 5.4815000000000005, 5.5513, 5.5040000000000004, 5.4696, 5.5312, 5.4576, 5.5154000000000005, 5.5027, 5.4918, 5.4918, 5.4672, 5.4811, 5.660100000000001, 5.3863, 5.5073, 5.5087, 5.5334, 5.498399999999999, 5.5309, 5.5238, 5.5346, 5.46, 5.5959, 5.5738, 5.5356, 5.449599999999999, 5.5321, 5.5503, 5.4829, 5.5018, 5.5638, 5.4565, 5.5182, 5.6233, 5.4035, 5.872999999999999, 5.6428, 5.4365000000000006, 5.5128, 5.509799999999999, 5.4988, 5.5231, 5.5301, 5.4511, 5.4943, 5.4833, 5.4616, 5.5334, 5.4912, 5.5009999999999994, 5.516100000000001, 5.4665, 5.5284, 5.545, 5.5572, 5.4989, 5.4858, 5.5149, 5.5174, 5.522, 5.4798, 5.4985, 5.4657, 5.5181, 5.4774, 5.673100000000001, 5.3681, 5.5267, 5.5381, 5.5417000000000005, 5.4638, 5.476100000000001, 5.4924, 5.4656, 5.538600000000001, 5.4807, 5.5028999999999995, 5.5073, 5.4731, 5.4725, 5.5116000000000005, 5.451700000000001, 5.5066999999999995, 5.497, 5.457400000000001, 5.5104999999999995, 5.5310999999999995, 5.689, 5.7398, 5.650399999999999, 5.5306, 5.5226, 5.5477, 5.4601],
  "Depth": 758.0,
  "Expectation Value": -5.618513107299805,
  "Optimal Expectation Value": -8.0,
  "Optimizer durations [ms]": [56.361, 55.742, 56.866, 64.487, 55.876, 56.281, 55.932, 55.707, 55.81, 56.575, 56.036, 55.668, 56.416, 55.696, 56.334, 55.998, 56.114, 56.139, 55.803, 56.027, 57.793, 64.493, 56.384, 56.276, 56.54, 56.225, 56.571, 56.272, 56.479, 55.742, 57.047, 57.04, 56.522, 55.603, 56.537, 56.469, 56.126, 56.047, 56.807, 60.96, 56.354, 57.471, 62.661, 59.79, 57.533, 55.621, 56.326, 56.326, 56.009, 56.392, 56.488, 55.806, 55.922, 56.03, 55.618, 56.36, 65.991, 56.015, 56.472, 55.913, 56.547, 56.702, 56.801, 56.193, 55.892, 56.422, 57.465, 56.476, 55.883, 55.963, 55.642, 56.343, 56.055, 57.934, 64.654, 56.509, 56.39, 56.634, 55.858, 55.863, 56.062, 55.681, 56.401, 55.966, 56.331, 56.04, 55.735, 55.902, 56.392, 55.713, 56.219, 56.215, 55.676, 56.31, 58.844, 57.99, 58.518, 61.568, 56.431, 56.506, 56.593, 55.832],
  "Optimizer iterations": 102,
  "Optimizer params": [0.9999207896831355, 0.8102907921156586, 0.1039307939417078, 0.5407003694830341, 0.8423865450899765, 0.17616924351957777],
  "P": 3,
  "Problem": "DSP",
  "QJob durations [ms]": [5.4971000000000005, 5.4618, 5.565600000000001, 5.3626000000000005, 5.4637, 5.5187, 5.4862, 5.4531, 5.4815000000000005, 5.5513, 5.5040000000000004, 5.4696, 5.5312, 5.4576, 5.5154000000000005, 5.5027, 5.4918, 5.4918, 5.4672, 5.4811, 5.660100000000001, 5.3863, 5.5073, 5.5087, 5.5334, 5.498399999999999, 5.5309, 5.5238, 5.5346, 5.46, 5.5959, 5.5738, 5.5356, 5.449599999999999, 5.5321, 5.5503, 5.4829, 5.5018, 5.5638, 5.4565, 5.5182, 5.6233, 5.4035, 5.872999999999999, 5.6428, 5.4365000000000006, 5.5128, 5.509799999999999, 5.4988, 5.5231, 5.5301, 5.4511, 5.4943, 5.4833, 5.4616, 5.5334, 5.4912, 5.5009999999999994, 5.516100000000001, 5.4665, 5.5284, 5.545, 5.5572, 5.4989, 5.4858, 5.5149, 5.5174, 5.522, 5.4798, 5.4985, 5.4657, 5.5181, 5.4774, 5.673100000000001, 5.3681, 5.5267, 5.5381, 5.5417000000000005, 5.4638, 5.476100000000001, 5.4924, 5.4656, 5.538600000000001, 5.4807, 5.5028999999999995, 5.5073, 5.4731, 5.4725, 5.5116000000000005, 5.451700000000001, 5.5066999999999995, 5.497, 5.457400000000001, 5.5104999999999995, 5.5310999999999995, 5.689, 5.7398, 5.650399999999999, 5.5306, 5.5226, 5.5477, 5.4601],
  "QPU": "7000000",
  "Qubits": 15,
  "Queue durations [ms]": [0.0, 0.0, 0.0, 0.0, 0.0, 0.0, 0.0, 0.0, 0.0, 0.0, 0.0, 0.0, 0.0, 0.0, 0.0, 0.0, 0.0, 0.0, 0.0, 0.0, 0.0, 0.0, 0.0, 0.0, 0.0, 0.0, 0.0, 0.0, 0.0, 0.0, 0.0, 0.0, 0.0, 0.0, 0.0, 0.0, 0.0, 0.0, 0.0, 0.0, 0.0, 0.0, 0.0, 0.0, 0.0, 0.0, 0.0, 0.0, 0.0, 0.0, 0.0, 0.0, 0.0, 0.0, 0.0, 0.0, 0.0, 0.0, 0.0, 0.0, 0.0, 0.0, 0.0, 0.0, 0.0, 0.0, 0.0, 0.0, 0.0, 0.0, 0.0, 0.0, 0.0, 0.0, 0.0, 0.0, 0.0, 0.0, 0.0, 0.0, 0.0, 0.0, 0.0, 0.0, 0.0, 0.0, 0.0, 0.0, 0.0, 0.0, 0.0, 0.0, 0.0, 0.0, 0.0, 0.0, 0.0, 0.0, 0.0, 0.0, 0.0, 0.0],
  "Shots": 4096,
  "Size": 10,
  "Total Algorithm duration [s]": 5.8,
  "Total Classic duration [s]": 5.2376538,
  "Total Quantum duration [s]": 0.5623461999999998
}
