{
  "Depth": 287.0,
  "Expectation Value": -1.0,
  "Job durations [ms]": [63532.25564956665, 63625.90050697327, 64254.47773933411, 63082.67116546631, 62077.523946762085, 63905.62558174133, 63719.21420097351, 62336.54975891113, 64205.92975616455, 64416.70799255371, 62696.36154174805, 63352.909564971924, 62727.975606918335, 63777.29606628418, 63836.18521690369, 62528.35154533386, 65007.02977180481, 62716.36199951172, 63488.38806152344, 63186.291456222534, 62942.9976940155, 63638.158559799194, 62840.431451797485, 34062999.136686325, 63371.28210067749, 62992.01536178589, 63360.85867881775, 63272.29285240173, 61577.67128944397, 62609.04002189636, 63577.80480384827, 62656.17632865906, 62999.86815452576, 62812.41965293884, 62381.29258155823, 62723.347187042236, 61629.46367263794, 63064.50963020325, 62957.80110359192, 62295.73106765747, 62147.12643623352, 63109.81464385986, 61982.79523849487, 61450.79684257507, 62123.939514160156, 62523.09989929199, 63339.4889831543, 61819.84734535217, 62694.85640525818, 62497.75457382202, 61503.73387336731, 61668.980836868286, 62338.47665786743, 61695.034980773926, 62572.32975959778, 61167.4907207489, 62504.072189331055, 62133.36253166199, 62640.647649765015, 62013.02361488342, 61276.26633644104, 62554.524660110474, 62958.844900131226, 62464.81966972351, 61155.513048172, 61821.47717475891, 61948.172092437744, 61927.97255516052, 63131.91270828247, 61554.994344711304, 61727.368116378784, 61900.449991226196, 62125.473499298096, 61614.991903305054, 62680.53317070007, 62311.35869026184, 62258.153676986694, 62750.61297416687, 61533.64396095276, 61437.222719192505, 62794.82460021973, 62613.00826072693, 61687.54482269287, 62058.08758735657, 61520.01214027405, 61987.959146499634, 62727.14805603027, 63405.78866004944, 62407.97662734985, 62745.87416648865, 62340.498208999634, 61652.81939506531, 61764.1499042511, 61942.56901741028, 62041.70775413513],
  "Optimal Expectation Value": -1.0,
  "Optimizer durations [ms]": [77063.975, 77157.036, 77839.988, 76743.603, 75540.574, 77520.816, 77207.08, 75756.091, 77612.605, 78051.69, 76077.977, 76788.504, 76151.783, 77285.691, 77453.266, 75982.921, 78497.608, 76251.024, 76842.584, 76484.571, 76343.218, 77103.932, 76191.712, 34076452.121, 76728.654, 76642.915, 77123.774, 76688.6, 74939.814, 75954.272, 76956.668, 76233.076, 76243.75, 76128.783, 75760.421, 76021.435, 75002.843, 76384.752, 76378.018, 75587.788, 75507.028, 76422.412, 75419.112, 74815.137, 75421.274, 75977.305, 76752.56, 75287.988, 76033.062, 75943.871, 74888.825, 75036.454, 75771.763, 75045.158, 75973.244, 74516.522, 75918.482, 75528.578, 76017.203, 75324.9, 74682.556, 75850.538, 76378.182, 75936.125, 74473.935, 75276.265, 75317.408, 75338.033, 76515.881, 74886.62, 75071.793, 75285.562, 75464.265, 74974.062, 76075.365, 75593.133, 75602.641, 76008.595, 74865.55, 74727.24, 76158.721, 76014.955, 75023.933, 75404.741, 74827.519, 75245.57, 76018.559, 76694.442, 75716.603, 76099.62, 75666.575, 74990.069, 75096.636, 75320.217, 75399.395],
  "Optimizer iterations": 95,
  "Optimizer params": [0.2954623578824996, 0.9386653940868196, 0.6946247276609431, 0.5806591295557508, 0.5741301603753158, 0.06857978948241118],
  "P": 3,
  "Problem": "MIS",
  "QPU": "6010003",
  "Qubits": 8,
  "Shots": 4096,
  "Size": 5,
  "Total Algorithm duration [s]": 41216.778,
  "Total Classic duration [s]": 1272.850746753691,
  "Total Quantum duration [s]": 39943.92725324631
}
