{
  "Circuit execution durations [ms]": [19484.86638069153, 19283.479928970337, 19156.987190246582, 19381.93678855896, 19061.90013885498, 19362.972497940063, 19801.058053970337, 19188.390970230103, 19293.433904647827, 19305.77778816223, 19186.821460723877, 19201.423406600952, 19161.365509033203, 19180.213689804077, 18984.609365463257, 19518.79620552063, 18872.788429260254, 18792.245388031006, 19380.449056625366, 19453.386545181274, 19161.494255065918, 18938.00687789917, 19818.153619766235, 19403.72943878174, 18982.380390167236, 19597.067832946777, 19160.768508911133, 19154.794216156006, 19896.950483322144, 19301.268815994263, 18904.264450073242, 19517.521142959595, 19533.055067062378, 18987.97369003296, 19739.86291885376, 19330.01208305359, 19360.99410057068, 19240.51809310913, 19227.484941482544, 19757.673025131226, 19325.26993751526, 19413.50221633911, 19495.790481567383, 19006.068229675293, 18998.33345413208, 20581.618785858154, 20306.214332580566, 19155.718088150024, 19929.787635803223, 19231.63676261902, 19069.018602371216, 19067.275047302246, 19067.891836166382, 19644.389390945435, 20180.023431777954, 19146.960973739624, 20206.557273864746, 19842.422008514404, 19310.018062591553, 19828.36127281189, 19077.925205230713, 19173.73013496399, 19267.848014831543, 20337.499618530273, 19309.825658798218, 20340.229511260986, 19328.596830368042, 19212.650299072266, 19033.379554748535, 19271.663904190063, 19412.06192970276, 19198.755264282227, 20214.046239852905, 19355.8611869812, 19624.38416481018, 19171.24605178833, 19116.459369659424, 19191.3104057312, 19078.920602798462, 20759.7873210907, 20327.34179496765, 19009.155988693237, 19140.79451560974, 19237.897157669067, 19290.711164474487, 20251.169204711914, 18986.71531677246],
  "Depth": 185.0,
  "Expectation Value": -12.36962890625,
  "Optimal Expectation Value": -14.0,
  "Optimizer durations [ms]": [22881.874, 22852.756, 22643.07, 22952.141, 23162.382, 22956.273, 23284.878, 22604.447, 22642.817, 22844.986, 22471.445, 22742.481, 22603.09, 22615.431, 22226.53, 22930.538, 22349.275, 22163.454, 22676.948, 22770.771, 23431.373, 22307.193, 23243.099, 22948.623, 22392.434, 23213.388, 22823.051, 22663.812, 23284.415, 22624.452, 22154.408, 22847.13, 23161.971, 22322.635, 23029.361, 22859.608, 22693.812, 22638.982, 22750.574, 23386.321, 22842.507, 22982.452, 22987.114, 22460.867, 22361.274, 24292.79, 23948.851, 22625.211, 23419.357, 22529.728, 22468.489, 22454.571, 22507.061, 23289.45, 23818.887, 22651.448, 23517.541, 23072.603, 22573.084, 23202.037, 22509.046, 22805.13, 22622.96, 23892.976, 22975.933, 23941.607, 22748.369, 22868.735, 22389.779, 22632.929, 22849.159, 22611.255, 23643.578, 22776.033, 23093.314, 22615.629, 22672.354, 22612.285, 22411.391, 24337.105, 24162.102, 22556.243, 22501.867, 22554.5, 22631.13, 23484.98, 22511.011],
  "Optimizer iterations": 87,
  "Optimizer params": [0.39520873466469264, 0.0055428149748080946, 0.3809275225847467, 0.573232296212127, 0.9608994938153937, 0.22007779911025543],
  "P": 3,
  "Problem": "MCP",
  "QJob durations [ms]": [22856.82439804077, 22831.1288356781, 22609.780311584473, 22923.51269721985, 23137.60280609131, 22933.0472946167, 23240.623712539673, 22583.601236343384, 22611.734628677368, 22820.827960968018, 22420.45521736145, 22706.19821548462, 22575.331687927246, 22577.91566848755, 22199.251174926758, 22908.497095108032, 22316.967010498047, 22133.5289478302, 22648.98657798767, 22732.25164413452, 23404.547929763794, 22285.02130508423, 23218.883275985718, 22925.166606903076, 22371.13332748413, 23191.701889038086, 22738.677263259888, 22631.27088546753, 23257.824420928955, 22589.012622833252, 22132.9026222229, 22825.05512237549, 23134.578466415405, 22301.613092422485, 22996.742963790894, 22834.568738937378, 22666.37349128723, 22613.726139068604, 22694.443941116333, 23339.87307548523, 22820.46365737915, 22957.32069015503, 22895.654916763306, 22436.392784118652, 22339.57314491272, 24266.411781311035, 23912.248373031616, 22599.977254867554, 23391.486883163452, 22508.795738220215, 22447.170972824097, 22418.541193008423, 22485.71491241455, 23267.754793167114, 23789.621353149414, 22628.272771835327, 23488.824367523193, 23048.930644989014, 22549.701929092407, 23177.34932899475, 22475.099086761475, 22780.61866760254, 22601.192235946655, 23858.21771621704, 22954.424142837524, 23919.363260269165, 22678.804397583008, 22847.025394439697, 22355.297803878784, 22541.022777557373, 22823.848962783813, 22577.78286933899, 23598.75988960266, 22740.52882194519, 23068.264484405518, 22591.944932937622, 22639.745712280273, 22579.228401184082, 22382.691144943237, 24315.97089767456, 24128.9165019989, 22523.423433303833, 22479.13908958435, 22526.10754966736, 22597.57375717163, 23463.72675895691, 22446.024179458618],
  "QPU": "6010030",
  "Qubits": 10,
  "Shots": 4096,
  "Size": 10,
  "Total Algorithm duration [s]": 1990.569,
  "Total Classic duration [s]": 2.722865337371786,
  "Total Quantum duration [s]": 1987.8461346626282
}
