{
  "Circuit execution durations [ms]": [40.77351093292236, 73.98974895477295, 40.57276248931885, 40.6641960144043, 40.865540504455566, 40.89784622192383, 74.29385185241699, 41.09621047973633, 40.72439670562744, 40.68803787231445, 40.683627128601074, 74.19717311859131, 40.78865051269531, 40.70556163787842, 40.58194160461426, 40.64500331878662, 73.96817207336426, 41.10860824584961, 40.78340530395508, 40.70234298706055, 40.83430767059326, 74.34368133544922, 40.87376594543457, 40.59910774230957, 40.67814350128174, 40.82036018371582, 74.0969181060791, 40.87710380554199, 40.81273078918457, 40.74704647064209, 40.648460388183594, 74.1429328918457, 40.509700775146484, 41.066646575927734, 40.757179260253906, 40.901780128479004, 74.11706447601318, 40.74203968048096, 40.467023849487305, 40.624022483825684, 40.69089889526367, 74.0363597869873, 40.75217247009277, 40.93968868255615, 40.70472717285156, 40.705204010009766, 74.11408424377441, 40.920376777648926, 40.47274589538574, 40.854573249816895, 40.64822196960449, 74.03802871704102, 40.62461853027344, 40.98236560821533, 40.79306125640869, 40.55166244506836, 74.35417175292969, 40.72582721710205, 40.8940315246582, 40.74668884277344, 40.83406925201416, 73.91119003295898, 40.56692123413086, 40.90094566345215, 40.85803031921387, 40.82751274108887, 74.66638088226318, 40.79437255859375, 40.60721397399902, 41.045546531677246, 40.60935974121094, 73.84634017944336, 40.493130683898926, 40.740370750427246, 40.52615165710449, 40.79329967498779, 74.24020767211914, 40.65811634063721, 40.943264961242676, 40.78507423400879, 40.799856185913086, 74.17142391204834, 40.790438652038574, 40.773749351501465, 41.095614433288574, 40.69089889526367, 74.08308982849121, 40.68136215209961, 40.68195819854736, 41.19062423706055, 40.92264175415039, 73.8372802734375, 40.52591323852539, 40.79544544219971, 40.63153266906738, 40.84038734436035, 74.51951503753662, 40.746331214904785, 41.14973545074463, 41.2522554397583, 41.120290756225586, 74.01275634765625, 40.83132743835449, 40.58825969696045, 40.6641960144043, 40.831565856933594, 73.90332221984863, 41.28587245941162, 40.850281715393066, 40.879011154174805, 40.703535079956055, 73.97329807281494, 40.66944122314453, 40.4963493347168, 40.755391120910645, 40.512800216674805, 74.18572902679443, 40.846943855285645, 40.82000255584717, 40.566325187683105, 40.76695442199707, 74.0443468093872, 40.87471961975098, 40.76719284057617, 40.735602378845215, 40.59326648712158, 74.18251037597656, 40.74215888977051],
  "Depth": 2.0,
  "Expectation Value": -3.525015115737915,
  "Optimal Expectation Value": -3.5925002098083496,
  "Optimizer durations [ms]": [84.962, 151.384, 84.425, 84.61, 85.149, 85.162, 152.057, 85.672, 84.888, 84.78, 84.669, 151.815, 84.954, 84.698, 84.554, 84.664, 151.501, 85.404, 84.844, 84.716, 85.139, 152.369, 85.108, 84.522, 84.834, 84.987, 151.689, 85.0, 84.957, 84.895, 84.791, 151.857, 84.259, 85.442, 84.879, 85.138, 151.647, 84.666, 84.379, 84.601, 84.825, 151.556, 84.784, 85.249, 84.687, 84.809, 151.803, 85.163, 84.311, 85.05, 84.658, 152.002, 84.625, 85.41, 85.064, 84.374, 152.25, 84.701, 85.101, 84.838, 85.089, 151.273, 84.447, 85.261, 85.046, 84.917, 152.844, 85.043, 84.583, 85.548, 84.595, 151.127, 84.327, 84.912, 84.388, 84.839, 152.0, 84.629, 85.229, 84.811, 84.847, 151.854, 85.022, 84.954, 85.513, 84.605, 151.621, 84.671, 84.705, 85.679, 85.305, 151.245, 84.426, 84.943, 84.584, 85.014, 152.658, 84.945, 85.618, 85.823, 85.586, 151.515, 84.986, 84.515, 84.663, 85.038, 151.431, 86.072, 85.133, 85.16, 84.99, 151.426, 84.593, 84.305, 84.789, 84.364, 151.772, 85.107, 84.913, 84.471, 84.809, 151.736, 85.034, 84.798, 84.779, 84.521, 151.851, 84.838],
  "Optimizer iterations": 128,
  "Optimizer params": [0.6311043115881924, 0.8011851511071998, 0.6330089287731969, 0.8186688651421261, 0.47423527772467594, 0.9546853529191387],
  "P": 0,
  "Problem": "RH",
  "QJob durations [ms]": [40.77351093292236, 73.98974895477295, 40.57276248931885, 40.6641960144043, 40.865540504455566, 40.89784622192383, 74.29385185241699, 41.09621047973633, 40.72439670562744, 40.68803787231445, 40.683627128601074, 74.19717311859131, 40.78865051269531, 40.70556163787842, 40.58194160461426, 40.64500331878662, 73.96817207336426, 41.10860824584961, 40.78340530395508, 40.70234298706055, 40.83430767059326, 74.34368133544922, 40.87376594543457, 40.59910774230957, 40.67814350128174, 40.82036018371582, 74.0969181060791, 40.87710380554199, 40.81273078918457, 40.74704647064209, 40.648460388183594, 74.1429328918457, 40.509700775146484, 41.066646575927734, 40.757179260253906, 40.901780128479004, 74.11706447601318, 40.74203968048096, 40.467023849487305, 40.624022483825684, 40.69089889526367, 74.0363597869873, 40.75217247009277, 40.93968868255615, 40.70472717285156, 40.705204010009766, 74.11408424377441, 40.920376777648926, 40.47274589538574, 40.854573249816895, 40.64822196960449, 74.03802871704102, 40.62461853027344, 40.98236560821533, 40.79306125640869, 40.55166244506836, 74.35417175292969, 40.72582721710205, 40.8940315246582, 40.74668884277344, 40.83406925201416, 73.91119003295898, 40.56692123413086, 40.90094566345215, 40.85803031921387, 40.82751274108887, 74.66638088226318, 40.79437255859375, 40.60721397399902, 41.045546531677246, 40.60935974121094, 73.84634017944336, 40.493130683898926, 40.740370750427246, 40.52615165710449, 40.79329967498779, 74.24020767211914, 40.65811634063721, 40.943264961242676, 40.78507423400879, 40.799856185913086, 74.17142391204834, 40.790438652038574, 40.773749351501465, 41.095614433288574, 40.69089889526367, 74.08308982849121, 40.68136215209961, 40.68195819854736, 41.19062423706055, 40.92264175415039, 73.8372802734375, 40.52591323852539, 40.79544544219971, 40.63153266906738, 40.84038734436035, 74.51951503753662, 40.746331214904785, 41.14973545074463, 41.2522554397583, 41.120290756225586, 74.01275634765625, 40.83132743835449, 40.58825969696045, 40.6641960144043, 40.831565856933594, 73.90332221984863, 41.28587245941162, 40.850281715393066, 40.879011154174805, 40.703535079956055, 73.97329807281494, 40.66944122314453, 40.4963493347168, 40.755391120910645, 40.512800216674805, 74.18572902679443, 40.846943855285645, 40.82000255584717, 40.566325187683105, 40.76695442199707, 74.0443468093872, 40.87471961975098, 40.76719284057617, 40.735602378845215, 40.59326648712158, 74.18251037597656, 40.74215888977051],
  "QPU": "9000001",
  "Qubits": 6,
  "Queue durations [ms]": [0.0, 0.0, 0.0, 0.0, 0.0, 0.0, 0.0, 0.0, 0.0, 0.0, 0.0, 0.0, 0.0, 0.0, 0.0, 0.0, 0.0, 0.0, 0.0, 0.0, 0.0, 0.0, 0.0, 0.0, 0.0, 0.0, 0.0, 0.0, 0.0, 0.0, 0.0, 0.0, 0.0, 0.0, 0.0, 0.0, 0.0, 0.0, 0.0, 0.0, 0.0, 0.0, 0.0, 0.0, 0.0, 0.0, 0.0, 0.0, 0.0, 0.0, 0.0, 0.0, 0.0, 0.0, 0.0, 0.0, 0.0, 0.0, 0.0, 0.0, 0.0, 0.0, 0.0, 0.0, 0.0, 0.0, 0.0, 0.0, 0.0, 0.0, 0.0, 0.0, 0.0, 0.0, 0.0, 0.0, 0.0, 0.0, 0.0, 0.0, 0.0, 0.0, 0.0, 0.0, 0.0, 0.0, 0.0, 0.0, 0.0, 0.0, 0.0, 0.0, 0.0, 0.0, 0.0, 0.0, 0.0, 0.0, 0.0, 0.0, 0.0, 0.0, 0.0, 0.0, 0.0, 0.0, 0.0, 0.0, 0.0, 0.0, 0.0, 0.0, 0.0, 0.0, 0.0, 0.0, 0.0, 0.0, 0.0, 0.0, 0.0, 0.0, 0.0, 0.0, 0.0, 0.0, 0.0, 0.0],
  "Shots": 4096,
  "Size": 6,
  "Total Algorithm duration [s]": 12.605,
  "Total Classic duration [s]": 6.519028882980347,
  "Total Quantum duration [s]": 6.085971117019653
}
