{
  "Depth": 8.5,
  "Expectation Value": -3.4701857566833496,
  "Job durations [ms]": [0.17954999930225313, 0.13735000538872555, 0.13435000437311828, 0.1508999994257465, 0.13654999929713085, 0.1437499959138222, 0.13594999472843483, 0.14310000551631674, 0.1392499980283901, 0.15390000044135377, 0.1285499965888448, 0.1375499996356666, 0.1380500034429133, 0.1427000024705194, 0.12940000306116417, 0.17064999701688066, 0.14915000065229833, 0.2872500044759363, 0.1434500009054318, 0.1538500000606291, 0.167199999850709, 0.22700000408804044, 0.14755000302102417, 0.18859999545384198, 0.14959999680286273, 0.14340000052470714, 0.13310000213095918, 0.1594500063220039, 0.15789999451953918, 0.1410000040777959, 0.3429999851505272, 0.1349500016658567, 0.20155000675003976, 0.134599999000784, 0.16529999993508682, 0.13515000318875536, 0.29269999504322186, 0.33900000562425703, 0.1367999975627754, 0.3009999927598983, 0.13214999489719048, 0.22810000518802553, 0.1434500009054318, 0.16290000348817557, 0.13279999984661117, 0.13965000107418746, 0.13184999988880008, 0.24544999178033322, 0.25395000557182357, 0.18109999655280262, 0.13000000035390258, 0.1362999973935075, 0.13575000048149377, 0.14404999819817021, 0.1321500021731481, 0.13014999422011897, 0.1685499955783598, 0.13254999794298783, 0.13329999637790024, 0.3359499969519675, 0.13179999950807542, 0.15559999883407727, 0.14234999980544671, 0.13564999972004443, 0.25379999715369195, 0.13404999481281266, 0.14024999836692587, 0.23800000053597614, 0.14679999731015414, 0.1386500007356517, 0.13939999917056412, 0.19810000230791047, 0.13239999680081382, 0.1586500002304092, 0.15220000204863027, 0.14704999921377748, 0.1352500003122259, 0.2195999913965352, 0.13870000111637637, 0.24855000083334744, 0.1476499965065159, 0.14519999967887998, 0.1402000052621588, 0.13955000031273812, 0.1451499992981553, 0.14155000098980963, 0.2632999967318028, 0.15985000209184363, 0.156299996888265, 0.1657999964663759, 0.14574999659089372, 0.15084999904502183, 0.1764999979059212, 0.14864999684505165, 0.1714999962132424, 0.17349999689031392, 0.13410000246949494, 0.14240000018617138, 0.13365000631893054, 0.1287500053877011, 0.14245000056689605, 0.13535000471165404, 0.1352500039502047, 0.13605000276584178, 0.1684500020928681, 0.1316499983659014, 0.27269999554846436, 0.257949999650009, 0.1707500050542876, 0.16955000319285318, 0.14500000543193892, 0.13390000094659626, 0.1432999997632578, 0.15160000475589186, 0.13405000208877027, 0.1343000039923936, 0.14560000272467732, 0.1604999997653067, 0.14279999595601112, 0.3506499997456558, 0.13624999701278284, 0.14134999946691096, 0.13454999862005934, 0.12940000306116417, 0.2455500070936978, 0.17239999579032883, 0.1803499981178902, 0.2747999969869852, 0.12725000124191865, 0.13860000035492703, 0.12900000001536682, 0.13814999692840502, 0.2962500075227581, 0.14545000158250332, 0.23090000468073413, 0.1322999996773433, 0.1357000001007691, 0.16404999769292772, 0.16660000255797058, 0.2714500005822629, 0.16055000014603138, 0.14109999756328762, 0.12535000132629648, 0.14599999849451706, 0.16065000090748072, 0.14850000297883525, 0.13099999341648072, 0.2734500012593344, 0.29650000942638144, 0.15775000065332279, 0.12604999938048422, 0.16509999841218814, 0.13069999840809032, 0.18370000179857016, 0.1373999984934926, 0.1332500032731332, 0.31454999407287687, 0.13420000323094428, 0.14099999680183828, 0.2463000055286102, 0.29969999741297215, 0.16385000344598666, 0.16070000128820539, 0.13860000035492703, 0.13500000204658136, 0.16334999963873997, 0.2391499947407283, 0.13184999988880008, 0.13234999642008916, 0.13225000293459743, 0.14649999502580613, 0.13734999811276793, 0.21949999791104347, 0.13364999904297292, 0.22680000256514177, 0.1510500005679205, 0.16959999629762024, 0.19440000323811546, 0.3105999930994585, 0.1468499976908788, 0.13639999815495685, 0.19489999976940453, 0.14015000124345534, 0.12900000365334563, 0.13435000437311828, 0.14579999697161838, 0.13409999519353732, 0.13914999726694077, 0.2983999947900884, 0.1343000039923936, 0.12710000373772345, 0.12719999722321518, 0.13490000128513202, 0.25055000151041895, 0.13394999768934213, 0.16375000268453732, 0.12670000432990491, 0.1357000001007691, 0.13780000153928995, 0.17220000154338777, 0.1417500025127083, 0.1581999968038872, 0.11155000174767338, 0.13765000039711595, 0.15954999980749562],
  "Optimal Expectation Value": -3.4939591884613037,
  "Optimizer durations [ms]": [19.34, 20.971, 18.498, 17.284, 20.283, 16.539, 20.001, 18.374, 19.685, 22.578, 20.503, 18.277, 21.691, 15.561, 22.81, 18.653, 15.712, 14.012, 20.761, 20.154, 20.591, 15.535, 22.725, 17.448, 16.157, 22.471, 22.807, 17.157, 11.091, 21.933, 22.247, 22.905, 18.48, 18.175, 15.817, 16.515, 23.023, 22.786, 22.695, 14.534, 22.818, 15.586, 20.963, 19.632, 19.132, 16.333, 15.003, 21.18, 20.748, 19.926, 21.269, 17.276, 20.665, 16.062, 20.529, 20.941, 22.535, 18.661, 18.141, 21.317, 16.877, 20.727, 23.074, 21.956, 18.35, 22.013, 16.27, 14.549, 22.972, 18.138, 23.531, 20.012, 21.65, 22.213, 19.585, 18.971, 16.772, 17.996, 16.858, 19.141, 18.523, 21.371, 21.726, 19.9, 18.655, 19.72, 14.306, 18.928, 17.37, 14.129, 22.904, 22.05, 17.277, 19.571, 16.49, 19.287, 15.9, 20.598, 15.837, 18.021, 20.189, 17.483, 22.323, 19.879, 21.407, 19.835, 17.751, 17.979, 16.335, 14.434, 20.971, 11.01, 18.866, 19.175, 19.325, 21.479, 17.428, 18.909, 23.407, 16.155, 20.373, 22.319, 15.682, 23.087, 16.355, 21.713, 17.176, 17.831, 15.906, 22.059, 21.593, 18.569, 21.299, 15.705, 19.465, 18.08, 22.487, 14.597, 14.787, 18.179, 18.946, 17.941, 23.115, 22.057, 20.26, 19.979, 18.718, 18.611, 18.443, 15.174, 19.701, 19.415, 17.923, 21.85, 20.251, 19.968, 21.338, 22.534, 18.446, 15.572, 18.915, 19.022, 21.274, 20.877, 22.554, 14.565, 19.5, 23.137, 19.324, 15.519, 19.626, 23.079, 15.279, 18.536, 22.631, 14.915, 15.641, 19.695, 18.967, 22.067, 22.366, 14.094, 22.971, 20.479, 22.798, 17.487, 17.499, 21.299, 22.196, 17.793, 18.229, 20.206, 20.985, 16.889, 23.051, 22.526, 18.77, 19.308, 14.885, 21.675, 21.422, 15.497, 14.713, 22.82, 16.465],
  "Optimizer iterations": 205,
  "Optimizer params": [0.581918248045578, 0.899846451975816, 0.6144061633385467, 0.4740238942208053, 0.4699615431126138, 0.5131135318404557, 0.5248334795199016, 0.5529121383150357, 0.6154404313337756, 0.47416022094264415, 0.49101389926131433, 0.5313683706003475],
  "P": 0,
  "Problem": "IC",
  "QPU": "7000000",
  "Qubits": 3,
  "Shots": 4096,
  "Size": 3,
  "Total Algorithm duration [s]": 3.933,
  "Total Classic duration [s]": 3.8987952000088697,
  "Total Quantum duration [s]": 0.03420479999113013
}
