{
  "Depth": 8.5,
  "Expectation Value": -3.4701857566833496,
  "Job durations [ms]": [0.258550004218705, 0.15269999857991934, 0.1372499973513186, 0.16060000052675605, 0.1438999970559962, 0.13530000069295056, 0.11315000301692635, 0.20460000087041408, 0.2806999982567504, 0.1462500003981404, 0.28235000354470685, 0.14879999798722565, 0.1431500058970414, 0.13129999570082873, 0.13124999532010406, 0.31704999855719507, 0.1294999965466559, 0.1414500002283603, 0.15675000031478703, 0.1408500029356219, 0.14804999955231324, 0.17890000162879005, 0.15505000192206353, 0.14545000158250332, 0.13559999933931977, 0.15449999773409218, 0.3129499964416027, 0.1599000024725683, 0.13050000416114926, 0.14430000010179356, 0.3028999999514781, 0.1429999974789098, 0.1392499980283901, 0.1621999981580302, 0.3501499886624515, 0.1358500012429431, 0.15419999544974416, 0.13354999828152359, 0.13749999925494194, 0.2821000016410835, 0.2755499954218976, 0.14629999350290745, 0.14585000462830067, 0.15174999862210825, 0.13004999709664844, 0.18475000251783058, 0.14414999895961955, 0.13904999650549144, 0.12889999925391749, 0.1396000006934628, 0.1380500034429133, 0.1316499983659014, 0.30890000198269263, 0.23434999457094818, 0.13900000340072438, 0.1657999964663759, 0.21774999186163768, 0.1352500003122259, 0.14119999832473695, 0.16110000433400273, 0.15660000644857064, 0.13354999828152359, 0.3532999980961904, 0.13644999853568152, 0.14114999794401228, 0.24094999389490113, 0.13094999303575605, 0.131200002215337, 0.19845000497298315, 0.16370000230381265, 0.14629999350290745, 0.13449999823933467, 0.20834999304497615, 0.12755000352626666, 0.13095000031171367, 0.17720000323606655, 0.14805000682827085, 0.15939999866532162, 0.2917500023613684, 0.14110000483924523, 0.1530499939690344, 0.14295000437414274, 0.265800001216121, 0.3229999929317273, 0.13485000090440735, 0.20149999181739986, 0.1459499981137924, 0.16024999786168337, 0.13330000365385786, 0.265349997789599, 0.13929999840911478, 0.13934999878983945, 0.13575000048149377, 0.24810000468278304, 0.1372499973513186, 0.3049000006285496, 0.1390999968862161, 0.3073499974561855, 0.32509999437024817, 0.14180000289343297, 0.13110000145388767, 0.1375499996356666, 0.14504999853670597, 0.269349999143742, 0.15044999599922448, 0.13300000136950985, 0.1397500018356368, 0.12679999781539664, 0.31894999847281724, 0.13649999891640618, 0.1676499960012734, 0.13965000107418746, 0.171050000062678, 0.1392499980283901, 0.16895000590011477, 0.14575000386685133, 0.15705000259913504, 0.14999999984866008, 0.13810000382363796, 0.2892499978770502, 0.14170000213198364, 0.145500001963228, 0.1384999995934777, 0.14250000094762072, 0.13380000018514693, 0.14055000065127388, 0.16535000031581149, 0.152900000102818, 0.1373999984934926, 0.28854999982286245, 0.13995000335853547, 0.14460000238614157, 0.1405000002705492, 0.337949997629039, 0.16099999629659578, 0.13809999654768035, 0.15035000251373276, 0.16494999727001414, 0.2974500021082349, 0.14090000331634656, 0.23809999402146786, 0.13795000268146396, 0.16585000412305817, 0.23979999969014898, 0.15840000560274348, 0.15914999676169828, 0.134599999000784, 0.1413000063621439, 0.1332500032731332, 0.1274999995075632, 0.13639999815495685, 0.2980499994009733, 0.22879999596625566, 0.13485000090440735, 0.13560000661527738, 0.15759999951114878, 0.21085000480525196, 0.15690000145696104, 0.2533999941078946, 0.16535000031581149, 0.145500001963228, 0.16650000179652125, 0.15714999608462676, 0.16555000183871016, 0.34730000334093347, 0.13519999629352242, 0.24954999389592558, 0.14184999599820003, 0.2655000062077306, 0.131050001073163, 0.13130000297678635, 0.13670000043930486, 0.13000000035390258, 0.23940000392030925, 0.1405000002705492, 0.13469999976223335, 0.2502999996067956, 0.1368000012007542, 0.13494999438989908, 0.3363499999977648, 0.14494999777525663, 0.14660000306321308, 0.17165000463137403, 0.1843999998527579, 0.15644999803043902, 0.14280000323196873, 0.14155000098980963, 0.1465500026824884, 0.14234999980544671, 0.13860000035492703, 0.14620000001741573, 0.15949999942677096, 0.16745000175433233, 0.1405000002705492, 0.13420000323094428, 0.1430000047548674, 0.20139999833190814, 0.14114999794401228, 0.145650003105402, 0.15410000196425244, 0.13335000403458253, 0.14250000094762072, 0.13804999616695568, 0.26920000527752563, 0.13729999773204327],
  "Optimal Expectation Value": -3.4939591884613037,
  "Optimizer durations [ms]": [20.168, 17.804, 20.682, 13.934, 17.569, 18.928, 16.086, 18.514, 15.907, 20.036, 17.951, 21.597, 17.29, 17.257, 20.845, 16.056, 17.064, 18.582, 21.243, 20.107, 22.534, 18.359, 16.694, 15.87, 17.526, 20.952, 21.686, 22.988, 19.758, 21.374, 20.474, 23.495, 22.134, 16.029, 17.979, 23.023, 20.124, 21.4, 21.881, 22.398, 22.501, 18.942, 19.79, 15.313, 17.701, 15.368, 16.149, 15.779, 17.672, 22.922, 16.358, 22.938, 19.854, 22.5, 20.667, 11.339, 18.715, 22.883, 19.619, 18.861, 13.075, 20.169, 21.234, 22.074, 16.556, 20.12, 19.376, 16.161, 20.967, 21.7, 20.924, 22.323, 19.492, 20.728, 23.028, 21.04, 23.299, 19.488, 17.559, 14.574, 18.877, 20.448, 20.146, 19.574, 15.435, 21.871, 20.768, 18.205, 22.895, 14.686, 17.516, 19.05, 22.265, 15.608, 19.898, 19.926, 21.277, 21.436, 19.854, 18.654, 19.359, 18.455, 17.782, 20.719, 20.985, 19.243, 21.356, 22.996, 14.23, 23.121, 18.884, 23.087, 21.779, 23.063, 19.11, 21.107, 21.661, 18.546, 19.042, 22.18, 17.236, 19.163, 17.915, 14.973, 23.163, 16.001, 21.635, 21.127, 18.539, 14.756, 20.813, 16.272, 23.367, 14.405, 15.79, 17.692, 19.521, 14.96, 15.5, 22.915, 20.145, 23.127, 18.898, 21.799, 17.07, 16.541, 18.836, 22.821, 17.836, 16.467, 19.165, 22.363, 16.0, 19.602, 20.966, 19.226, 18.165, 18.598, 18.68, 16.952, 14.911, 16.923, 18.618, 19.652, 15.524, 22.876, 15.328, 18.266, 22.419, 18.575, 19.637, 18.538, 19.947, 17.532, 21.932, 19.639, 18.871, 16.697, 20.091, 21.233, 22.701, 20.984, 13.94, 17.436, 14.688, 21.054, 18.198, 22.378, 15.341, 23.107, 20.239, 13.353, 17.365, 21.235, 22.996, 11.285, 19.977, 22.586, 18.633, 20.216, 20.014, 21.509, 20.809, 19.583, 15.014],
  "Optimizer iterations": 205,
  "Optimizer params": [0.581918248045578, 0.899846451975816, 0.6144061633385467, 0.4740238942208053, 0.4699615431126138, 0.5131135318404557, 0.5248334795199016, 0.5529121383150357, 0.6154404313337756, 0.47416022094264415, 0.49101389926131433, 0.5313683706003475],
  "P": 0,
  "Problem": "IC",
  "QPU": "7000000",
  "Qubits": 3,
  "Shots": 4096,
  "Size": 3,
  "Total Algorithm duration [s]": 3.94,
  "Total Classic duration [s]": 3.904367200016568,
  "Total Quantum duration [s]": 0.03563279998343205
}
