{
  "Depth": 8.5,
  "Expectation Value": -3.4701857566833496,
  "Job durations [ms]": [0.21009999909438193, 0.14894999912939966, 0.2989999993587844, 0.15315000200644135, 0.15549999807262793, 0.2194499975303188, 0.14220000230125152, 0.1418999963789247, 0.13654999929713085, 0.1596000001882203, 0.11515000005601905, 0.1338500005658716, 0.13264999870443717, 0.1414500002283603, 0.13649999891640618, 0.13590000162366778, 0.1432999997632578, 0.2574499958427623, 0.13905000378144905, 0.16214999777730554, 0.18095000268658623, 0.29874999745516106, 0.2818000066326931, 0.17090000619646162, 0.14125000598141924, 0.1541500023449771, 0.29845000244677067, 0.20349999977042899, 0.13639999815495685, 0.33844998688437045, 0.13224999565863982, 0.2173000029870309, 0.13875000149710104, 0.14275000285124406, 0.17644999752519652, 0.16024999786168337, 0.16429999959655106, 0.13395000132732093, 0.14274999557528645, 0.12884999887319282, 0.14679999731015414, 0.28219999512657523, 0.14404999819817021, 0.3102000046055764, 0.1430000047548674, 0.13604999548988417, 0.1279499992961064, 0.1341500028502196, 0.13449999823933467, 0.3038499999092892, 0.1329000006080605, 0.1616000008652918, 0.1564999984111637, 0.14060000103199854, 0.13140000373823568, 0.163950004207436, 0.3268999862484634, 0.16025000513764098, 0.24095000117085874, 0.19434999558143318, 0.1416000013705343, 0.13505000242730603, 0.14675000420538709, 0.3333000131533481, 0.14539999392582104, 0.19075000454904512, 0.13690000196220353, 0.14179999561747536, 0.12435000098776072, 0.1401999979862012, 0.13529999705497175, 0.15410000196425244, 0.1827000014600344, 0.23565000446978956, 0.14449999434873462, 0.13519999629352242, 0.13789999502478167, 0.1287500017497223, 0.1325999983237125, 0.14384999667527154, 0.276700004178565, 0.13645000581163913, 0.1286000042455271, 0.1399000029778108, 0.34935000439872965, 0.2550999997765757, 0.1409499964211136, 0.1412999990861863, 0.1722999950288795, 0.16524999955436215, 0.16200000391108915, 0.13794999540550634, 0.32645001192577183, 0.14394999743672088, 0.13890000263927504, 0.1370999962091446, 0.20430000586202368, 0.33424999128328636, 0.1520000005257316, 0.13535000471165404, 0.1540000012028031, 0.30590000096708536, 0.21565000497503206, 0.16135000623762608, 0.13345000115805306, 0.14134999946691096, 0.31865001074038446, 0.15110000094864517, 0.13409999519353732, 0.149049999890849, 0.1370999962091446, 0.13264999870443717, 0.1647000026423484, 0.3250000154366717, 0.12650000280700624, 0.1368000012007542, 0.1360000023851171, 0.14394999743672088, 0.1590999963809736, 0.13169999874662608, 0.14245000056689605, 0.2165000041713938, 0.13300000136950985, 0.3053999971598387, 0.22479999461211264, 0.16509999841218814, 0.3064499978790991, 0.13439999747788534, 0.31870001112110913, 0.1612999985809438, 0.14494999777525663, 0.14244999329093844, 0.17719999596010894, 0.1414500002283603, 0.23135000083129853, 0.14324999938253313, 0.24229999689850956, 0.14180000289343297, 0.25380000442964956, 0.13775000115856528, 0.2779500064207241, 0.14680000094813295, 0.22665000142296776, 0.13160000526113436, 0.23215000692289323, 0.1333499967586249, 0.2435000060359016, 0.13169999874662608, 0.12879999849246815, 0.14939999527996406, 0.13224999565863982, 0.16924999363254756, 0.14084999565966427, 0.17124999430961907, 0.1357000001007691, 0.2388499997323379, 0.20799999765586108, 0.31445000786334276, 0.14699999883305281, 0.2750000057858415, 0.14500000543193892, 0.14754999574506655, 0.331150004058145, 0.25610000011511147, 0.13210000179242343, 0.14539999392582104, 0.16464999498566613, 0.20619999850168824, 0.13999999646330252, 0.14650000230176374, 0.16125000547617674, 0.11689999882946722, 0.14024999836692587, 0.13374999980442226, 0.14060000103199854, 0.16260000120382756, 0.14080000255489722, 0.16070000128820539, 0.13559999933931977, 0.12805000005755574, 0.1258000011148397, 0.1679499982856214, 0.3158999970764853, 0.13279999984661117, 0.14409999857889488, 0.1386499934596941, 0.2566999974078499, 0.18485000327927992, 0.1303000026382506, 0.3064499978790991, 0.14399999781744555, 0.32190000638365746, 0.23519999376730993, 0.2636499993968755, 0.21979999291943386, 0.13330000365385786, 0.1329000006080605, 0.3215999895473942, 0.13944999955128878, 0.21850000484846532, 0.13515000318875536, 0.1405000002705492, 0.1406499941367656, 0.25814999389695004, 0.17204999312525615],
  "Optimal Expectation Value": -3.4939591884613037,
  "Optimizer durations [ms]": [18.621, 14.747, 14.745, 21.903, 21.26, 21.37, 21.144, 13.671, 19.552, 10.513, 17.112, 21.651, 18.309, 19.443, 20.608, 23.156, 12.602, 19.154, 15.507, 18.885, 15.439, 19.508, 18.173, 16.378, 20.838, 23.043, 22.302, 17.112, 18.696, 16.764, 19.911, 22.384, 15.859, 23.026, 16.263, 14.673, 16.601, 19.337, 16.562, 16.602, 23.105, 18.366, 20.468, 17.725, 20.536, 19.316, 15.502, 18.009, 20.182, 21.876, 16.454, 16.927, 19.154, 20.852, 16.802, 21.709, 20.49, 14.593, 21.218, 22.546, 18.18, 14.559, 23.458, 19.947, 18.001, 19.096, 18.596, 20.347, 14.452, 21.343, 18.308, 21.793, 19.494, 20.206, 21.461, 23.078, 15.45, 22.801, 19.702, 14.099, 21.814, 20.523, 16.663, 19.249, 19.745, 17.694, 18.391, 20.295, 14.209, 15.201, 14.334, 20.13, 17.927, 20.069, 18.294, 20.757, 17.944, 19.175, 22.158, 14.653, 19.935, 20.709, 22.741, 11.121, 14.412, 22.191, 14.876, 19.786, 22.848, 17.133, 22.234, 20.62, 14.378, 19.62, 22.806, 15.284, 19.36, 19.89, 14.223, 21.555, 18.73, 19.805, 21.899, 17.658, 18.799, 13.576, 14.916, 18.101, 19.311, 13.451, 22.935, 19.101, 18.888, 22.595, 22.291, 20.808, 16.483, 23.048, 17.292, 20.71, 21.693, 21.423, 19.017, 18.808, 17.276, 18.486, 15.297, 17.41, 17.904, 15.945, 21.676, 14.755, 20.701, 16.131, 18.663, 17.802, 16.602, 22.368, 19.77, 22.63, 19.301, 18.973, 18.196, 22.506, 22.627, 23.057, 14.097, 21.533, 19.691, 23.052, 17.237, 15.012, 14.628, 23.042, 19.763, 14.188, 20.548, 18.531, 22.536, 22.857, 18.521, 21.753, 18.036, 20.883, 23.209, 21.226, 16.691, 22.392, 20.374, 20.893, 18.936, 19.567, 16.701, 18.56, 21.932, 20.332, 18.568, 18.795, 22.922, 19.645, 18.337, 23.168, 21.621, 14.256, 19.653],
  "Optimizer iterations": 205,
  "Optimizer params": [0.581918248045578, 0.899846451975816, 0.6144061633385467, 0.4740238942208053, 0.4699615431126138, 0.5131135318404557, 0.5248334795199016, 0.5529121383150357, 0.6154404313337756, 0.47416022094264415, 0.49101389926131433, 0.5313683706003475],
  "P": 0,
  "Problem": "IC",
  "QPU": "7000000",
  "Qubits": 3,
  "Shots": 4096,
  "Size": 3,
  "Total Algorithm duration [s]": 3.891,
  "Total Classic duration [s]": 3.854204549992952,
  "Total Quantum duration [s]": 0.0367954500070482
}
