{
  "Depth": 8.5,
  "Expectation Value": -3.4701857566833496,
  "Job durations [ms]": [0.13775000115856528, 0.2390000008745119, 0.35379998735152185, 0.14110000483924523, 0.16080000204965472, 0.1417500025127083, 0.13115000183461234, 0.15949999942677096, 0.17980000120587647, 0.1573999979882501, 0.15550000534858555, 0.1295000038226135, 0.13395000132732093, 0.13890000263927504, 0.3288999942014925, 0.14134999946691096, 0.16000000323401764, 0.1325999983237125, 0.14240000018617138, 0.1408500029356219, 0.13815000420436263, 0.14090000331634656, 0.12575000073411502, 0.1565000056871213, 0.2551500001573004, 0.13424999633571133, 0.13499999477062374, 0.1310499974351842, 0.13315000251168385, 0.24685000244062394, 0.14335000014398247, 0.16694999794708565, 0.13610000314656645, 0.17099999968195334, 0.1482500010752119, 0.13640000179293565, 0.15010000061010942, 0.12919999426230788, 0.1469000053475611, 0.15259999781847, 0.1369499950669706, 0.18149999959859997, 0.23330000112764537, 0.2813500032061711, 0.30450000485870987, 0.1427000024705194, 0.20685000345110893, 0.13485000090440735, 0.1386500007356517, 0.1389499957440421, 0.13869999384041876, 0.34854999830713496, 0.1316499983659014, 0.14055000065127388, 0.1788000008673407, 0.3434999889577739, 0.13610000314656645, 0.2298500039614737, 0.32645001192577183, 0.15730000450275838, 0.1325999983237125, 0.12600000263773836, 0.1348999940091744, 0.1442499997210689, 0.27304999821353704, 0.14675000420538709, 0.13780000153928995, 0.13949999993201345, 0.13309999485500157, 0.1720000000204891, 0.1506000044173561, 0.14234999980544671, 0.1487500048824586, 0.14195000403560698, 0.16234999930020422, 0.13309999849298038, 0.163800003065262, 0.24794999626465142, 0.13559999933931977, 0.13469999976223335, 0.20040000526933, 0.19869999960064888, 0.2950999987660907, 0.14124999870546162, 0.14024999836692587, 0.2448499944875948, 0.15839999832678586, 0.2233500053989701, 0.14984999870648608, 0.13684999430552125, 0.14385000395122916, 0.13390000094659626, 0.1303000026382506, 0.1430000047548674, 0.18790000467561185, 0.13395000132732093, 0.27319999207975343, 0.1355499989585951, 0.27629999385681003, 0.15954999980749562, 0.13295000098878518, 0.2624500048113987, 0.13049999688519165, 0.33605000498937443, 0.13129999570082873, 0.13934999878983945, 0.13115000183461234, 0.3018000061274506, 0.13125000259606168, 0.25040000764420256, 0.1432999997632578, 0.13699999544769526, 0.1336999994236976, 0.29645000904565677, 0.14944999566068873, 0.13454999862005934, 0.2550999997765757, 0.13480000052368268, 0.25874999846564606, 0.12799999967683107, 0.155999994603917, 0.20650000078603625, 0.18385000294074416, 0.18015000387094915, 0.14310000551631674, 0.34004999906755984, 0.34225000126753, 0.13635000141221099, 0.19225000141886994, 0.13500000204658136, 0.1460999992559664, 0.13670000043930486, 0.13144999684300274, 0.15999999595806003, 0.1597500013303943, 0.15910000365693122, 0.29630000062752515, 0.14265000208979473, 0.13485000090440735, 0.13220000255387276, 0.30789999436819926, 0.1429999974789098, 0.1296499976888299, 0.13405000208877027, 0.2768499980447814, 0.13744999887421727, 0.1612999985809438, 0.13279999620863236, 0.14545000158250332, 0.14039999950909987, 0.13564999972004443, 0.12915000115754083, 0.13025000225752592, 0.1327499994658865, 0.28494999423855916, 0.15544999769190326, 0.24684999516466632, 0.13364999904297292, 0.16519999917363748, 0.1369500023429282, 0.15905000327620655, 0.27210000553168356, 0.1291999979002867, 0.1442499997210689, 0.13000000035390258, 0.14099999680183828, 0.1657999964663759, 0.16015000437619165, 0.2707999956328422, 0.13159999798517674, 0.280850006674882, 0.1414500002283603, 0.2535499952500686, 0.13580000086221844, 0.13994999608257785, 0.13125000259606168, 0.30795000202488154, 0.12975000208825804, 0.3612999862525612, 0.1448500042897649, 0.1425500013283454, 0.13919999764766544, 0.2132499939762056, 0.27984999906038865, 0.12919999426230788, 0.16024999786168337, 0.13734999811276793, 0.12874999811174348, 0.13475000014295802, 0.3397999898879789, 0.13704999582841992, 0.28214999474585056, 0.32324999483535066, 0.14714999997522682, 0.33870001061586663, 0.13735000175074674, 0.1634500004001893, 0.13824999768985435, 0.33125001209555194, 0.2521999995224178, 0.15875000099185854, 0.24700000358279794, 0.14090000331634656, 0.14234999980544671, 0.24909999046940356],
  "Optimal Expectation Value": -3.4939591884613037,
  "Optimizer durations [ms]": [23.076, 19.563, 22.407, 23.094, 14.586, 19.483, 21.571, 15.149, 15.222, 14.689, 10.343, 19.307, 20.345, 17.965, 14.872, 22.375, 18.885, 13.51, 14.997, 23.308, 20.522, 17.737, 18.968, 20.272, 15.993, 17.426, 20.644, 18.728, 22.713, 21.15, 18.646, 22.366, 17.566, 14.228, 21.799, 20.648, 19.085, 21.375, 22.094, 21.731, 16.17, 18.425, 17.058, 22.326, 17.541, 21.509, 16.188, 16.95, 18.295, 19.165, 15.548, 18.84, 22.37, 22.95, 17.645, 22.604, 17.271, 22.6, 20.939, 18.594, 19.08, 22.777, 15.789, 21.713, 16.798, 19.238, 20.293, 12.004, 20.784, 18.908, 20.28, 22.99, 22.252, 18.358, 19.01, 18.255, 15.937, 18.877, 19.748, 19.825, 22.351, 22.527, 19.247, 18.334, 19.884, 22.604, 15.997, 9.096, 19.901, 18.218, 22.674, 20.074, 17.68, 20.863, 16.087, 18.672, 22.362, 20.066, 22.801, 15.628, 22.927, 16.75, 22.528, 14.389, 20.54, 18.798, 19.456, 18.015, 18.607, 21.278, 16.099, 22.912, 22.563, 19.708, 21.363, 20.39, 15.82, 19.001, 18.163, 22.757, 19.148, 20.706, 21.756, 19.609, 15.616, 22.276, 18.321, 21.447, 18.534, 19.592, 21.213, 19.204, 20.497, 17.32, 15.13, 16.374, 20.316, 20.796, 22.712, 19.515, 22.478, 15.47, 17.344, 19.412, 19.879, 20.192, 14.132, 13.677, 19.212, 18.621, 14.991, 22.662, 19.171, 22.9, 19.765, 18.148, 18.617, 23.049, 15.203, 21.156, 15.709, 16.657, 23.083, 15.728, 22.218, 16.282, 19.025, 14.521, 14.183, 21.596, 18.62, 20.816, 15.336, 21.14, 19.164, 19.168, 18.13, 20.257, 15.584, 22.89, 18.68, 15.124, 22.882, 11.694, 16.227, 17.963, 18.373, 19.147, 19.642, 22.16, 16.068, 20.479, 20.263, 22.491, 14.993, 20.564, 16.859, 22.673, 18.494, 19.16, 18.681, 20.53, 15.925, 18.836, 18.885],
  "Optimizer iterations": 205,
  "Optimizer params": [0.581918248045578, 0.899846451975816, 0.6144061633385467, 0.4740238942208053, 0.4699615431126138, 0.5131135318404557, 0.5248334795199016, 0.5529121383150357, 0.6154404313337756, 0.47416022094264415, 0.49101389926131433, 0.5313683706003475],
  "P": 0,
  "Problem": "IC",
  "QPU": "7000000",
  "Qubits": 3,
  "Shots": 4096,
  "Size": 3,
  "Total Algorithm duration [s]": 3.904,
  "Total Classic duration [s]": 3.867360649991955,
  "Total Quantum duration [s]": 0.03663935000804486
}
