{
  "Depth": 2.0,
  "Job durations [ms]": [0.1721499975246843, 0.10430000111227855, 0.09484999827691354, 0.10254999870085157, 0.09504999979981221, 0.094449998869095, 0.10130000009667128, 0.09285000123782083, 0.09714999760035425, 0.09245000183000229, 0.09214999954565428, 0.12070000229869038, 0.09259999933419749, 0.09499999941908754, 0.10029999975813553, 0.0959999997576233, 0.1536999989184551, 0.09964999844669364, 0.09620000128052197, 0.09674999819253571, 0.09900000077323057, 0.12419999984558672, 0.10495000242372043, 0.09090000094147399, 0.09479999789618887, 0.0914999982342124, 0.1340000017080456, 0.09409999984200113, 0.09280000085709617, 0.09665000106906518, 0.09439999848837033, 0.09639999916544184, 0.11435000124038197, 0.0978499992925208, 0.09545000284560956, 0.09760000102687627, 0.12060000153724104, 0.10174999988521449, 0.10144999760086648, 0.15005000022938475, 0.09529999806545675, 0.0933499977691099, 0.09270000009564683, 0.10574999760137871, 0.10235000081593171, 0.1296499976888299, 0.1003500001388602, 0.09184999726130627, 0.10870000187424012, 0.09469999713473953, 0.09435000174562447, 0.09534999844618142, 0.10729999848990701, 0.0958500022534281, 0.09385000157635659, 0.10900000052060932, 0.09609999688109383, 0.09465000039199367, 0.12469999637687579, 0.09504999979981221, 0.09239999781129882, 0.09510000018053688, 0.09684999895398505, 0.09855000098468736, 0.11929999527637847, 0.12879999849246815, 0.09314999988419004, 0.09254999895347282, 0.0947499975154642, 0.09774999853107147, 0.09380000119563192],
  "Optimizer durations [ms]": [4.634, 3.145, 2.872, 3.28, 2.871, 3.547, 3.519, 2.859, 3.034, 2.815, 2.888, 3.773, 2.784, 3.577, 3.054, 2.904, 4.233, 3.025, 2.966, 2.93, 3.186, 3.481, 3.172, 2.833, 2.916, 3.573, 3.768, 2.813, 2.789, 2.876, 2.814, 3.115, 3.434, 2.989, 2.874, 2.945, 3.628, 3.008, 3.089, 3.989, 2.869, 2.854, 3.23, 3.209, 3.075, 3.652, 2.997, 2.807, 3.259, 2.9, 2.854, 2.812, 4.037, 3.626, 2.816, 3.27, 2.926, 2.975, 3.868, 2.865, 2.857, 3.063, 2.93, 3.018, 3.457, 3.613, 2.808, 2.866, 2.82, 3.612, 3.236],
  "Optimizer iterations": 71,
  "Qubits": 4,
  "Total Algorithm duration [s]": 0.225,
  "Total Classic duration [s]": 0.21769315003039083,
  "Total Quantum duration [s]": 0.007306849969609175,
  "Expectation Value": -2.2741000652313232,
  "Optimal Expectation Value": -2.2741000652313232,
  "Optimizer params": [1.0, 0.50119019900664, 1.0, 0.5030802324885272],
  "QPU": "7000000",
  "Problem": "RH",
  "Size": 4,
  "P": 0,
  "Shots": 4096
}