{
  "Depth": 2.0,
  "Job durations [ms]": [0.2048499991360586, 0.09994999709306285, 0.10560000009718351, 0.09670000144978985, 0.0929000016185455, 0.1297999988310039, 0.0927500004763715, 0.09960000170394778, 0.0976999981503468, 0.09380000119563192, 0.10740000288933516, 0.136650003696559, 0.09549999958835542, 0.10269999984302558, 0.09735000276123174, 0.09810000119614415, 0.09984999996959232, 0.0932000002649147, 0.09044999751495197, 0.09154999861493707, 0.1631499981158413, 0.09859999772743322, 0.09490000229561701, 0.10150000161956996, 0.13929999840911478, 0.09299999874201603, 0.12599999899975955, 0.12560000322991982, 0.10299999848939478, 0.09375000081490725, 0.09855000098468736, 0.1310499974351842, 0.0990999978967011, 0.09349999891128391, 0.09340000178781338, 0.09520000094198622, 0.13195000428822823, 0.09469999713473953, 0.14804999591433443, 0.1111999990826007, 0.09734999912325293, 0.12145000073360279, 0.09385000157635659, 0.22870000248076394, 0.29424999229377136, 0.10665000081644394, 0.3039500043087173, 0.08789999992586672, 0.2980499994009733, 0.09489999865763821, 0.09659999705036171, 0.0991000015346799, 0.09839999984251335, 0.09470000077271834, 0.10090000068885274, 0.12589999823831022, 0.09344999853055924, 0.09900000077323057, 0.1343000003544148, 0.32015000033425167, 0.08665000132168643, 0.22219999664230272, 0.2684500068426132, 0.10090000068885274, 0.09565000073052943, 0.09874999886960723, 0.1127499963331502, 0.10710000060498714, 0.09905000115395524, 0.13749999925494194, 0.09569999747327529],
  "Optimizer durations [ms]": [5.188, 3.143, 3.227, 3.025, 3.066, 3.634, 2.876, 2.907, 3.041, 2.956, 3.82, 3.806, 2.865, 3.012, 3.012, 2.871, 2.993, 2.811, 2.728, 2.722, 4.425, 3.4, 2.951, 3.055, 3.759, 3.266, 3.543, 3.62, 3.076, 2.869, 2.922, 3.801, 3.061, 3.081, 2.979, 3.594, 3.639, 2.806, 3.939, 3.292, 2.908, 3.527, 2.958, 5.635, 13.652, 8.849, 7.282, 16.994, 12.863, 14.417, 18.403, 13.863, 8.931, 2.902, 3.535, 3.484, 2.896, 3.055, 3.652, 7.199, 12.778, 7.464, 6.916, 3.249, 4.057, 2.978, 3.798, 3.192, 2.924, 3.817, 2.883],
  "Optimizer iterations": 71,
  "Qubits": 4,
  "Total Algorithm duration [s]": 0.341,
  "Total Classic duration [s]": 0.3322238500037347,
  "Total Quantum duration [s]": 0.008776149996265303,
  "Expectation Value": -2.2741000652313232,
  "Optimal Expectation Value": -2.2741000652313232,
  "Optimizer params": [1.0, 0.50119019900664, 1.0, 0.5030802324885272],
  "QPU": "7000000",
  "Problem": "RH",
  "Size": 4,
  "P": 0,
  "Shots": 4096
}