{
  "Circuit execution durations [ms]": [0.4243000003043562, 0.4532999882940203, 0.4200500115985051, 0.46675000339746475, 0.4195000074105337, 0.4233499930705875, 0.4481999931158498, 0.4538000066531822, 0.5135999817866832, 0.46049998491071165, 0.4207500023767352, 0.41849999979604036, 0.4228000034345314, 0.42055000085383654, 0.41604999569244683, 0.4189000028418377, 0.41634999797679484, 0.4202999989502132, 0.45244999637361616, 0.4152999899815768, 0.4187500016996637, 0.41870000131893903, 0.466600016807206, 0.41710000368766487, 0.42969999776687473, 0.414549998822622, 0.45339998905546963, 0.4257499967934564, 0.4206000012345612, 0.4231000057188794, 0.4269500059308484, 0.41915000474546105, 0.4256999964127317, 0.4178000090178102, 0.42034999933093786, 0.41459999920334667, 0.42055000085383654, 0.6092499970691279, 0.4729000065708533, 0.4124999977648258, 0.42490000487305224, 0.41274999966844916, 0.4324000037740916, 0.4397000011522323, 0.42394999763928354, 0.43244998960290104, 0.42100000428035855, 0.46100000326987356, 0.4237000102875754, 0.43000000005122274, 0.43154999730177224, 0.4607500013662502, 0.4259000124875456, 0.42964999738615006, 0.421349992393516, 0.4164499987382442, 0.4591500182868913, 0.4243000003043562, 0.41700000292621553, 0.4343000036897138, 0.4243500006850809, 0.42779999785125256, 0.4208000027574599, 0.4115499905310571, 0.46380001003853977, 0.4206500016152859, 0.42034999933093786, 0.42255000153090805, 0.47990000166464597, 0.41980000969488174, 0.4269500059308484, 0.4175500071141869, 0.41489998693577945, 0.4250999918440357, 0.41995001083705574, 0.42055000085383654, 0.4206500016152859, 0.450549996457994, 0.4362500039860606, 0.415000002249144, 0.42640000174287707, 0.45250001130625606, 0.4209500038996339, 0.43944999924860895, 0.43315000948496163, 0.4265000025043264, 0.4307000053813681, 0.4533500032266602, 0.4178500093985349, 0.45074999798089266, 0.40854999679140747, 0.42255000153090805, 0.42579999717418104, 0.41825001244433224, 0.4206000012345612, 0.4261499998392537, 0.6003000016789883, 0.418399999034591, 0.4122499958612025, 0.4258499975549057, 0.41930000588763505, 0.4222999996272847, 0.42860000394284725, 0.4130000015720725, 0.4287999909138307, 0.4210500046610832, 0.454549997812137, 0.42395001219119877, 0.41789999522734433, 0.40395000542048365, 0.5364499957067892, 0.43569999979808927, 0.44234999222680926, 0.4530500154942274, 0.4174000059720129, 0.41125000279862434, 0.4189999890513718, 0.4699999844888225, 0.41915000474546105, 0.4191000043647364, 0.41385000804439187, 0.42645000212360173, 0.42165000922977924, 0.4168500017840415, 0.4186000005574897, 0.4648000031011179, 0.4199999966658652, 0.4191000043647364, 0.41349999082740396, 0.4771499807247892, 0.4164499987382442, 0.41429999691899866, 0.4218499962007627, 0.41909998981282115, 0.4489999992074445, 0.42434998613316566, 0.4285500035621226, 0.41959999362006783, 0.4533500032266602, 0.5545499880099669, 0.41819999751169235, 0.4181499971309677, 0.46404998283833265, 0.411450004321523, 0.41555000643711537, 0.4217000096105039, 0.42460000258870423, 0.4258499975549057, 0.4204500000923872, 0.4250999918440357, 0.4531500017037615, 0.42279998888261616, 0.41519998922012746, 0.42209999810438603, 0.42379999649710953, 0.4228000034345314, 0.4302500019548461, 0.42255000153090805, 0.4141000099480152, 0.45924998994451016, 0.4191999905742705, 0.4251500067766756, 0.4198500100756064, 0.42655000288505107, 0.42520000715740025, 0.4268000047886744, 0.43590000132098794, 0.44030002027284354, 0.4190500039840117, 0.44240000715944916, 0.417499992181547, 0.4599000094458461, 0.41340000461786985, 0.4247999895596877, 0.4317999992053956, 0.41865000093821436, 0.4258000117260963, 0.42520000715740025, 0.42294999002479017, 0.4176500078756362, 0.4724999889731407, 0.42034999933093786, 0.46794999798294157, 0.4213999927742407, 0.4214000073261559, 0.4281999863451347, 0.42675000440794975, 0.4274499951861799, 0.43149999692104757, 0.4617500089807436, 0.42055000085383654, 0.4224500007694587, 0.47479999193456024, 0.424749989178963, 0.41849999979604036, 0.421949996962212, 0.42055000085383654, 0.4226500022923574, 0.553250007214956, 0.4164499987382442, 0.41865000093821436, 0.4236499953549355, 0.4150500026298687, 0.41680000140331686, 0.4182999982731417, 0.4454999871086329, 0.4134500049985945, 0.4225000011501834, 0.4544500116026029, 0.4563000111375004, 0.42165000922977924, 0.42070000199601054, 0.41724999027792364, 0.47345001075882465, 0.44025000534020364, 0.4208499885862693, 0.41819999751169235, 0.5629000079352409, 0.4212500061839819, 0.4196499940007925, 0.5511000199476257, 0.4628500173566863, 0.4282500012777746, 0.6093999982113019, 0.4170500033069402, 0.4783000040333718, 0.4263500013621524, 0.42484998994041234, 0.4735000111395493, 0.42215001303702593, 0.43670000741258264, 0.4230499907862395, 0.4258999979356304, 0.5457499937620014, 0.44759998854715377, 0.42335000762250274, 0.5901999975321814, 0.44359998719301075, 0.43474999256432056, 0.420899988966994, 0.4197000089334324, 0.42255000153090805, 0.4268500051693991, 0.4167500010225922, 0.4204500000923872, 0.4288000054657459, 0.4231000057188794, 0.4243000003043562, 0.45604999468196183, 0.46764999569859356, 0.43524999637156725, 0.4266500036465004, 0.4312999953981489, 0.42725000821519643, 0.4193500062683597, 0.43140001071151346, 0.4165999998804182, 0.41680000140331686, 0.45859998499508947, 0.43000000005122274, 0.4304000030970201, 0.43790000199805945, 0.4165499994996935, 0.421799995820038, 0.4116500058444217, 0.42544999450910836, 0.47709999489597976, 0.4559499939205125, 0.42019999818876386, 0.4232500068610534, 0.4557999927783385, 0.43149999692104757, 0.4210500046610832, 0.4186000005574897, 0.4126999992877245, 0.41885000246111304, 0.4140499950153753, 0.4199499962851405, 0.42079998820554465, 0.46445000043604523, 0.4200500115985051, 0.4276500112609938, 0.42919999395962805, 0.4329499934101477, 0.42130000656470656, 0.42749999556690454, 0.42449998727533966, 0.4167500010225922, 0.42424999992363155, 0.417799994465895, 0.4318999999668449, 0.45464999857358634, 0.4293500096537173, 0.45759999193251133, 0.4219000111334026, 0.47244998859241605, 0.42424999992363155, 0.4189500032225624, 0.4415000003064051, 0.4562999965855852, 0.4133999900659546, 0.4293000092729926, 0.4273999948054552, 0.4207500023767352, 0.4251500067766756, 0.41555000643711537, 0.4293999954825267, 0.41665000026114285, 0.4538500070339069, 0.48319999768864363, 0.41044999670702964, 0.4378500016173348, 0.4202999989502132, 0.4226000019116327, 0.4597000079229474, 0.4227500030538067, 0.41620001138653606, 0.440650008386001, 0.4184499994153157, 0.41960000817198306, 0.42144999315496534, 0.421949996962212, 0.4659999976865947, 0.45689998660236597, 0.4232500068610534, 0.4238499968778342, 0.4149000014876947, 0.4670999915106222, 0.4438499890966341, 0.41540000529494137, 0.42609999945852906, 0.4299499996704981, 0.4167000006418675, 0.42690000555012375, 0.42799999937415123, 0.4585000133374706, 0.4555000050459057, 0.42315000609960407, 0.4303500027162954, 0.41414999577682465, 0.4196499940007925, 0.4130000015720725, 0.42949999624397606, 0.4156499926466495, 0.4268500051693991, 0.4250000056345016, 0.42779999785125256, 0.42654998833313584, 0.42294999002479017, 0.4378000012366101, 0.4253999941283837, 0.4135999915888533, 0.44210000487510115, 0.42320000648032874, 0.5571499932557344, 0.4812499973922968, 0.41280000004917383, 0.4209000035189092, 0.45424998097587377, 0.4128500004298985, 0.4614000063156709, 0.4265000025043264, 0.4385499923955649, 0.4218499962007627, 0.45089999912306666, 0.4226000019116327, 0.42209999810438603, 0.4243500006850809, 0.47864999214652926, 0.4236499953549355, 0.4188499879091978, 0.41959999362006783, 0.4219999973429367, 0.4192999913357198, 0.42594999831635505, 0.42264998774044216, 0.41599999531172216, 0.413949994253926, 0.4215499939164147, 0.4298999992897734, 0.43524999637156725, 0.5059999966761097, 0.41870000131893903, 0.4201499978080392, 0.4286500043235719, 0.44580000394489616, 0.4165499994996935, 0.414699999964796, 0.4139500088058412, 0.48430000606458634, 0.4240499984007329, 0.421199991251342, 0.42794999899342656, 0.42255000153090805, 0.42350000876467675, 0.414549998822622, 0.4369999951450154, 0.4328500072006136, 0.4324000037740916, 0.4329999937908724, 0.4342500033089891, 0.43480000749696046, 0.45429999590851367, 0.45179999142419547, 0.4218500107526779, 0.4257499967934564, 0.4498499911278486, 0.41695000254549086, 0.47124999400693923, 0.415150003391318, 0.45044999569654465, 0.4599499952746555, 0.4008999967481941, 0.48719999904278666, 0.42874999053310603, 0.418550000176765, 0.4322000022511929, 0.42224999924656004, 0.41495000186841935, 0.42485000449232757, 0.42255000153090805, 0.4615500074578449, 0.42004999704658985, 0.42645000212360173, 0.42050000047311187, 0.4097500059287995, 0.4224500007694587, 0.41510000301059335, 0.42255000153090805, 0.4152000037720427, 0.4538999928627163, 0.4202999989502132, 0.4193499917164445, 0.42074998782482, 0.4561500099953264, 0.43400000140536577, 0.41229999624192715, 0.41834999865386635, 0.44994999188929796, 0.41695000254549086, 0.42755001049954444, 0.425349993747659, 0.5529499903786927, 0.4252499929862097, 0.42114999087061733, 0.42699999175965786, 0.4248000041116029, 0.4234999942127615, 0.42675000440794975, 0.4223500000080094, 0.42520000715740025, 0.46794999798294157, 0.43450000521261245, 0.43480000749696046, 0.42350000876467675, 0.45804999535903335, 0.4149999876972288, 0.421349992393516, 0.4222999996272847, 0.45584999315906316, 0.4078999918419868, 0.42305000533815473, 0.41695000254549086, 0.42764999670907855, 0.4259999986970797, 0.4231000057188794, 0.4189999890513718, 0.42209999810438603, 0.42270000267308205, 0.42475000373087823, 0.44645000889431685, 0.4192000051261857, 0.41700000292621553, 0.417949995608069, 0.443900004029274, 0.502600014442578, 0.4659500118577853, 0.4609500028891489, 0.4116500058444217, 0.42579999717418104, 0.4634000069927424, 0.41024999518413097, 0.4251000063959509, 0.42460000258870423, 0.45680000039283186, 0.4258499975549057, 0.42630000098142773, 0.4159500094829127, 0.5461999971885234, 0.4169000021647662, 0.42470000335015357, 0.4409499961184338, 0.4521999944699928, 0.4241499991621822, 0.44570001773536205, 0.42544999450910836, 0.4142500110901892, 0.421649994677864, 0.4194000066490844, 0.41965000855270773, 0.42630000098142773, 0.41560000681784004, 0.4238499968778342, 0.4197999951429665, 0.4258999979356304, 0.4178500093985349, 0.4165499994996935, 0.44359998719301075, 0.4675000091083348, 0.4597500083036721, 0.41879998752847314, 0.42729999404400587, 0.4193500062683597, 0.45680000039283186, 0.41760000749491155, 0.41280000004917383, 0.43215000187046826, 0.4278499982319772, 0.421049990109168, 0.6012999947415665, 0.5024999991292134, 0.4196499940007925, 0.41640001290943474, 0.47339999582618475, 0.45345000398810953, 0.5155999970156699, 0.47369999811053276, 0.4549500154098496, 0.41319998854305595, 0.4807499935850501, 0.4285500035621226, 0.4168500017840415, 0.4118999931961298, 0.46799999836366624, 0.5652499821735546, 0.44025000534020364, 0.41865000093821436, 0.625700005912222, 0.564500005566515, 0.4487500118557364, 0.41900000360328704, 0.4239999980200082, 0.4167000006418675, 0.4235500091454014, 0.41804999636951834, 0.4199999966658652, 0.42609999945852906, 0.41945000702980906, 0.45345001854002476, 0.45870000030845404, 0.42424999992363155, 0.43420000292826444, 0.4694499948527664, 0.4202999989502132, 0.4199999966658652, 0.41634999797679484, 0.5096999811939895, 0.4157000075792894, 0.41825001244433224, 0.4229000041959807, 0.4256999964127317, 0.41825001244433224, 0.4285500035621226, 0.41310000233352184, 0.41120000241789967, 0.4132000030949712, 0.4233999934513122, 0.4260499990778044, 0.424599988036789, 0.4411999980220571, 0.4295499966247007, 0.413799993111752, 0.42149999353569, 0.46129999100230634, 0.4267999902367592, 0.4115499905310571, 0.4204500000923872, 0.42389999725855887, 0.43375001405365765, 0.418399999034591, 0.43154999730177224, 0.4309499927330762, 0.4227500030538067, 0.41349999082740396, 0.4204500000923872, 0.44865001109428704, 0.4300500004319474, 0.4198499955236912, 0.44585000432562083, 0.42460000258870423, 0.45569999201688915, 0.4309999931138009, 0.41370000690221786, 0.4243500006850809, 0.46609998389612883, 0.4278499982319772, 0.4684000159613788, 0.4214000073261559, 0.4497500049183145, 0.4232499923091382, 0.4138000076636672, 0.4184499994153157, 0.4197000089334324, 0.42394999763928354, 0.4267000040272251, 0.40844999602995813, 0.4178000090178102, 0.43015000119339675, 0.43354999797884375, 0.4245000018272549, 0.42520000715740025, 0.6068000075174496, 0.5950999911874533, 0.4633999924408272, 0.4132000030949712, 0.41880000208038837, 0.4233499930705875, 0.44305001210886985, 0.42219999886583537, 0.42379999649710953, 0.42019999818876386, 0.4210500046610832, 0.4215499939164147, 0.41599999531172216, 0.41665000026114285, 0.42145000770688057, 0.4184499994153157, 0.4310000076657161, 0.42210001265630126, 0.41799999598879367, 0.4511499864747748, 0.44630000775214285, 0.4333499964559451, 0.4172999906586483, 0.4579999949783087, 0.417349991039373, 0.4263500013621524, 0.42660000326577574, 0.41629999759607017, 0.46135000593494624, 0.42625000060070306, 0.425199992605485, 0.4520499933278188, 0.411750006605871, 0.42559999565128237, 0.44084999535698444, 0.45179999142419547, 0.4286499897716567, 0.42964999738615006, 0.4232500068610534, 0.4212500061839819, 0.4221499984851107, 0.4208000027574599, 0.4233000072417781, 0.41619999683462083, 0.4588499868987128, 0.42109999048989266, 0.43390000064391643, 0.4427999956533313, 0.46054999984335154, 0.4202999989502132, 0.48669999523554, 0.41760000749491155, 0.45279999903868884, 0.47714999527670443, 0.4132999893045053, 0.4206000012345612, 0.48239999159704894, 0.4180000105407089, 0.43435000407043844, 0.42884999129455537, 0.45390000741463155, 0.4227500030538067, 0.42124999163206667, 0.42594999831635505, 0.4191000043647364, 0.41540000529494137, 0.4233000072417781, 0.4209000035189092, 0.42174999543931335, 0.4417000018293038, 0.4115000047022477, 0.4315000114729628, 0.43930001265835017, 0.41435001185163856, 0.42505000601522624, 0.417349991039373, 0.4209500038996339, 0.46604998351540416, 0.41250001231674105, 0.4613999917637557, 0.4170500033069402, 0.46224999823607504, 0.43184999958612025, 0.42660000326577574, 0.42899999243672937, 0.4467499820748344, 0.4244500014465302, 0.42940001003444195, 0.41965000855270773, 0.4303500027162954, 0.43200000072829425, 0.4199499962851405, 0.4209500038996339, 0.4306499904487282, 0.4233499930705875, 0.42050000047311187, 0.4316500126151368, 0.43265000567771494, 0.4595500067807734, 0.4198499955236912, 0.4272499936632812, 0.4315999976824969, 0.4091500013601035, 0.5043499986641109, 0.42400001257192343, 0.41464999958407134, 0.4252499929862097, 0.42904999281745404, 0.4209500038996339, 0.4302000015741214, 0.4330000083427876, 0.42934999510180205, 0.4189500032225624, 0.4621499974746257, 0.42449998727533966, 0.4288500058464706, 0.4251000063959509, 0.43489999370649457, 0.42320000648032874, 0.4184499994153157, 0.43229998846072704, 0.41665000026114285, 0.43149999692104757, 0.4207500023767352, 0.42630000098142773, 0.42219999886583537, 0.4636499797925353, 0.43420000292826444, 0.4251000063959509, 0.42209999810438603, 0.4612500051734969, 0.42609999945852906, 0.4301000008126721, 0.4154999915044755, 0.41789999522734433, 0.42070000199601054, 0.43390000064391643, 0.42704999214038253, 0.46975001168902963, 0.4251500067766756, 0.4237000102875754],
  "Depth": 18.5,
  "Expectation Value": -8.43890380859375,
  "Optimal Expectation Value": -9.83795166015625,
  "Optimizer durations [ms]": [9.72, 9.972, 9.421, 10.147, 9.477, 9.432, 9.919, 24.255, 11.6, 9.883, 9.411, 9.639, 9.188, 9.465, 9.682, 9.228, 9.693, 9.231, 9.91, 9.495, 9.379, 9.527, 9.905, 9.46, 9.538, 9.545, 9.705, 9.409, 9.417, 9.444, 9.697, 9.234, 9.663, 9.171, 9.765, 9.56, 9.607, 12.948, 10.428, 9.259, 9.659, 9.189, 9.884, 9.584, 9.431, 9.75, 9.397, 10.32, 9.778, 9.445, 9.86, 10.007, 9.239, 9.715, 9.577, 9.557, 10.045, 9.723, 9.515, 9.635, 9.433, 9.702, 9.533, 9.338, 10.007, 9.416, 9.341, 9.676, 10.357, 9.608, 9.34, 9.576, 9.525, 9.764, 9.304, 9.761, 9.216, 10.308, 9.472, 9.502, 9.761, 9.831, 9.262, 10.273, 9.475, 9.543, 9.717, 9.96, 9.463, 9.845, 9.333, 9.461, 9.53, 9.471, 9.225, 9.65, 12.838, 9.367, 9.1, 9.817, 9.283, 9.433, 9.605, 9.216, 9.636, 9.314, 10.441, 9.307, 9.906, 26.48, 11.748, 9.593, 9.914, 10.285, 9.354, 9.452, 9.526, 10.241, 9.185, 9.336, 9.359, 9.667, 9.532, 9.119, 9.634, 10.068, 9.44, 9.337, 9.337, 10.432, 9.305, 9.666, 9.241, 9.48, 9.95, 9.33, 9.909, 9.146, 10.023, 12.437, 9.559, 9.458, 9.97, 9.497, 9.419, 9.461, 9.276, 9.723, 9.456, 9.36, 10.009, 9.782, 9.311, 9.479, 9.442, 9.457, 9.952, 9.402, 9.405, 10.207, 9.537, 9.574, 9.56, 9.581, 9.761, 9.608, 9.743, 9.688, 9.439, 10.172, 9.307, 10.129, 9.44, 9.48, 9.587, 9.425, 9.613, 9.601, 9.579, 9.334, 9.996, 9.797, 9.879, 9.781, 9.412, 9.733, 9.79, 9.575, 9.63, 10.113, 9.143, 9.646, 10.123, 9.54, 9.322, 9.528, 9.418, 9.565, 11.69, 9.448, 9.487, 9.497, 9.135, 9.729, 9.118, 9.732, 9.327, 9.857, 9.923, 10.175, 9.398, 9.585, 9.489, 10.118, 9.765, 14.589, 9.442, 12.119, 9.59, 9.364, 12.028, 10.171, 9.623, 12.797, 16.373, 10.421, 9.699, 10.191, 10.487, 9.481, 24.089, 9.506, 9.514, 12.016, 9.802, 9.682, 12.968, 22.727, 12.685, 9.329, 9.383, 9.769, 9.549, 9.231, 9.594, 9.65, 9.492, 9.383, 10.453, 10.209, 9.706, 9.583, 9.635, 9.621, 9.139, 9.56, 9.528, 9.186, 10.467, 9.691, 9.643, 9.799, 9.517, 9.406, 9.176, 9.548, 10.406, 9.907, 9.732, 9.638, 9.525, 9.647, 9.684, 9.434, 9.437, 9.333, 9.611, 9.511, 9.519, 10.268, 9.212, 9.813, 9.392, 10.091, 12.476, 9.666, 9.505, 9.214, 9.342, 9.534, 9.611, 10.209, 9.7, 10.024, 9.571, 10.495, 9.373, 9.28, 9.93, 9.977, 9.114, 9.828, 9.396, 9.425, 9.595, 9.386, 9.276, 9.811, 10.085, 10.564, 26.719, 9.883, 9.523, 9.448, 10.154, 9.615, 9.159, 9.813, 9.461, 9.642, 9.635, 9.438, 10.261, 10.096, 9.654, 9.478, 9.115, 10.4, 9.835, 9.122, 9.531, 9.937, 9.616, 9.602, 9.634, 9.672, 9.857, 9.342, 9.559, 9.765, 12.019, 9.22, 9.638, 9.288, 9.802, 9.425, 9.571, 9.784, 9.703, 9.857, 9.693, 9.143, 9.676, 9.45, 12.57, 10.474, 9.459, 9.544, 9.648, 9.131, 10.032, 9.425, 9.92, 9.249, 9.985, 9.708, 9.505, 9.776, 10.301, 9.647, 9.357, 9.129, 9.69, 9.434, 9.787, 9.441, 9.267, 9.614, 9.531, 9.406, 9.541, 10.862, 9.617, 9.231, 9.615, 9.987, 9.347, 9.219, 9.394, 10.784, 9.543, 9.254, 9.658, 9.676, 9.404, 9.336, 10.027, 9.689, 9.788, 9.624, 9.825, 9.523, 9.912, 10.002, 9.355, 9.39, 10.084, 9.604, 10.399, 9.33, 10.066, 10.189, 23.787, 10.736, 9.663, 9.318, 9.666, 9.582, 9.041, 9.648, 9.517, 10.116, 9.213, 9.873, 9.56, 9.271, 9.629, 9.355, 9.477, 9.192, 9.772, 9.556, 9.492, 9.262, 10.05, 9.767, 9.074, 9.576, 9.695, 9.376, 9.942, 9.561, 11.754, 9.309, 9.782, 9.47, 9.774, 9.322, 9.422, 9.455, 9.913, 10.504, 9.526, 9.941, 9.475, 9.782, 9.159, 9.701, 9.518, 9.928, 9.259, 9.482, 9.441, 9.657, 9.496, 9.543, 9.49, 9.308, 9.697, 9.511, 9.914, 9.163, 10.079, 9.21, 10.234, 12.387, 11.095, 10.45, 9.311, 9.532, 10.17, 9.43, 9.453, 9.705, 9.884, 9.589, 9.468, 9.421, 11.895, 9.316, 9.54, 9.741, 9.995, 9.73, 10.04, 9.363, 9.336, 9.698, 11.997, 9.799, 9.511, 9.275, 9.712, 9.365, 9.464, 9.455, 9.453, 9.826, 10.503, 10.076, 9.089, 9.951, 9.261, 10.671, 9.369, 10.178, 9.896, 16.099, 9.666, 12.744, 10.923, 9.199, 11.683, 9.848, 10.175, 25.698, 10.277, 10.047, 11.086, 10.427, 9.716, 24.417, 9.444, 10.281, 11.779, 9.867, 9.413, 13.272, 24.576, 10.031, 9.693, 9.386, 9.619, 9.326, 9.558, 9.525, 9.373, 9.592, 10.044, 10.378, 9.271, 9.785, 10.367, 9.394, 9.159, 9.545, 11.091, 9.63, 9.356, 9.517, 9.41, 9.572, 9.462, 9.656, 9.378, 9.183, 9.605, 9.58, 9.477, 9.898, 9.73, 9.093, 9.598, 10.002, 9.788, 9.067, 9.392, 9.749, 9.794, 9.202, 9.993, 9.432, 9.69, 9.155, 9.617, 9.817, 9.536, 9.446, 10.096, 9.243, 10.298, 9.799, 9.023, 9.664, 10.342, 9.968, 10.623, 9.304, 10.385, 9.206, 9.317, 9.697, 9.566, 9.249, 9.549, 9.321, 9.485, 9.525, 9.491, 9.555, 9.75, 19.16, 19.616, 10.569, 9.207, 9.252, 9.552, 10.322, 9.426, 9.323, 9.63, 9.421, 9.564, 9.526, 9.413, 9.525, 9.447, 9.822, 9.467, 9.446, 9.884, 9.6, 9.652, 9.609, 10.28, 9.119, 9.749, 9.65, 9.385, 10.235, 9.639, 14.829, 9.964, 9.11, 9.435, 9.642, 10.297, 9.704, 9.728, 9.245, 9.483, 9.486, 9.48, 9.257, 9.642, 10.048, 9.62, 9.523, 9.929, 10.197, 9.355, 10.776, 9.304, 10.305, 10.499, 9.285, 9.649, 10.589, 9.399, 9.696, 9.337, 10.133, 9.407, 9.727, 9.459, 9.395, 9.747, 9.39, 9.481, 9.354, 9.75, 9.548, 9.598, 9.93, 9.676, 9.625, 9.101, 9.458, 10.75, 9.128, 10.178, 9.467, 10.027, 9.602, 9.384, 10.007, 9.692, 9.753, 9.654, 9.24, 9.673, 9.556, 9.572, 9.636, 9.505, 9.479, 9.561, 9.613, 9.634, 10.096, 9.457, 9.628, 9.561, 25.483, 11.458, 9.347, 9.772, 9.741, 9.804, 9.259, 9.85, 9.488, 9.665, 9.632, 10.176, 9.609, 9.519, 9.439, 9.609, 9.771, 9.092, 9.88, 9.432, 9.577, 9.34, 9.59, 9.598, 10.164, 9.563, 9.674, 9.43, 9.837, 9.741, 14.504, 9.421, 9.13, 9.776, 9.75, 9.48, 10.348, 9.721, 9.554],
  "Optimizer iterations": 752,
  "Optimizer params": [0.7929158337648042, 0.10891194900252962, 0.5476752487127752, 0.06822510761783958, 0.9399597362324356, 0.5580522085860493, 0.4147496925997942, 0.5868239370090369, 0.5137901635634493, 0.24666726673127415, 0.6704381121840254, 0.8889373186702607, 0.6159803162059189, 0.5883770836101833, 0.4604059547936479, 0.9796440967642541, 0.9995287324446326, 0.49275102444150387, 0.5248915670416916, 0.5119592702175331, 0.9820046962728821, 0.49551672144726083, 0.92917976595573, 0.09173425043731472, 0.9825650199482648, 0.49315758703826623, 0.2375117252298884, 0.939363572461296, 0.6591793120007484, 0.7444247565782902, 0.8300649845214618, 0.6422738637213117],
  "P": 0,
  "Problem": "IC",
  "QJob durations [ms]": [0.4243000003043562, 0.4532999882940203, 0.4200500115985051, 0.46675000339746475, 0.4195000074105337, 0.4233499930705875, 0.4481999931158498, 0.4538000066531822, 0.5135999817866832, 0.46049998491071165, 0.4207500023767352, 0.41849999979604036, 0.4228000034345314, 0.42055000085383654, 0.41604999569244683, 0.4189000028418377, 0.41634999797679484, 0.4202999989502132, 0.45244999637361616, 0.4152999899815768, 0.4187500016996637, 0.41870000131893903, 0.466600016807206, 0.41710000368766487, 0.42969999776687473, 0.414549998822622, 0.45339998905546963, 0.4257499967934564, 0.4206000012345612, 0.4231000057188794, 0.4269500059308484, 0.41915000474546105, 0.4256999964127317, 0.4178000090178102, 0.42034999933093786, 0.41459999920334667, 0.42055000085383654, 0.6092499970691279, 0.4729000065708533, 0.4124999977648258, 0.42490000487305224, 0.41274999966844916, 0.4324000037740916, 0.4397000011522323, 0.42394999763928354, 0.43244998960290104, 0.42100000428035855, 0.46100000326987356, 0.4237000102875754, 0.43000000005122274, 0.43154999730177224, 0.4607500013662502, 0.4259000124875456, 0.42964999738615006, 0.421349992393516, 0.4164499987382442, 0.4591500182868913, 0.4243000003043562, 0.41700000292621553, 0.4343000036897138, 0.4243500006850809, 0.42779999785125256, 0.4208000027574599, 0.4115499905310571, 0.46380001003853977, 0.4206500016152859, 0.42034999933093786, 0.42255000153090805, 0.47990000166464597, 0.41980000969488174, 0.4269500059308484, 0.4175500071141869, 0.41489998693577945, 0.4250999918440357, 0.41995001083705574, 0.42055000085383654, 0.4206500016152859, 0.450549996457994, 0.4362500039860606, 0.415000002249144, 0.42640000174287707, 0.45250001130625606, 0.4209500038996339, 0.43944999924860895, 0.43315000948496163, 0.4265000025043264, 0.4307000053813681, 0.4533500032266602, 0.4178500093985349, 0.45074999798089266, 0.40854999679140747, 0.42255000153090805, 0.42579999717418104, 0.41825001244433224, 0.4206000012345612, 0.4261499998392537, 0.6003000016789883, 0.418399999034591, 0.4122499958612025, 0.4258499975549057, 0.41930000588763505, 0.4222999996272847, 0.42860000394284725, 0.4130000015720725, 0.4287999909138307, 0.4210500046610832, 0.454549997812137, 0.42395001219119877, 0.41789999522734433, 0.40395000542048365, 0.5364499957067892, 0.43569999979808927, 0.44234999222680926, 0.4530500154942274, 0.4174000059720129, 0.41125000279862434, 0.4189999890513718, 0.4699999844888225, 0.41915000474546105, 0.4191000043647364, 0.41385000804439187, 0.42645000212360173, 0.42165000922977924, 0.4168500017840415, 0.4186000005574897, 0.4648000031011179, 0.4199999966658652, 0.4191000043647364, 0.41349999082740396, 0.4771499807247892, 0.4164499987382442, 0.41429999691899866, 0.4218499962007627, 0.41909998981282115, 0.4489999992074445, 0.42434998613316566, 0.4285500035621226, 0.41959999362006783, 0.4533500032266602, 0.5545499880099669, 0.41819999751169235, 0.4181499971309677, 0.46404998283833265, 0.411450004321523, 0.41555000643711537, 0.4217000096105039, 0.42460000258870423, 0.4258499975549057, 0.4204500000923872, 0.4250999918440357, 0.4531500017037615, 0.42279998888261616, 0.41519998922012746, 0.42209999810438603, 0.42379999649710953, 0.4228000034345314, 0.4302500019548461, 0.42255000153090805, 0.4141000099480152, 0.45924998994451016, 0.4191999905742705, 0.4251500067766756, 0.4198500100756064, 0.42655000288505107, 0.42520000715740025, 0.4268000047886744, 0.43590000132098794, 0.44030002027284354, 0.4190500039840117, 0.44240000715944916, 0.417499992181547, 0.4599000094458461, 0.41340000461786985, 0.4247999895596877, 0.4317999992053956, 0.41865000093821436, 0.4258000117260963, 0.42520000715740025, 0.42294999002479017, 0.4176500078756362, 0.4724999889731407, 0.42034999933093786, 0.46794999798294157, 0.4213999927742407, 0.4214000073261559, 0.4281999863451347, 0.42675000440794975, 0.4274499951861799, 0.43149999692104757, 0.4617500089807436, 0.42055000085383654, 0.4224500007694587, 0.47479999193456024, 0.424749989178963, 0.41849999979604036, 0.421949996962212, 0.42055000085383654, 0.4226500022923574, 0.553250007214956, 0.4164499987382442, 0.41865000093821436, 0.4236499953549355, 0.4150500026298687, 0.41680000140331686, 0.4182999982731417, 0.4454999871086329, 0.4134500049985945, 0.4225000011501834, 0.4544500116026029, 0.4563000111375004, 0.42165000922977924, 0.42070000199601054, 0.41724999027792364, 0.47345001075882465, 0.44025000534020364, 0.4208499885862693, 0.41819999751169235, 0.5629000079352409, 0.4212500061839819, 0.4196499940007925, 0.5511000199476257, 0.4628500173566863, 0.4282500012777746, 0.6093999982113019, 0.4170500033069402, 0.4783000040333718, 0.4263500013621524, 0.42484998994041234, 0.4735000111395493, 0.42215001303702593, 0.43670000741258264, 0.4230499907862395, 0.4258999979356304, 0.5457499937620014, 0.44759998854715377, 0.42335000762250274, 0.5901999975321814, 0.44359998719301075, 0.43474999256432056, 0.420899988966994, 0.4197000089334324, 0.42255000153090805, 0.4268500051693991, 0.4167500010225922, 0.4204500000923872, 0.4288000054657459, 0.4231000057188794, 0.4243000003043562, 0.45604999468196183, 0.46764999569859356, 0.43524999637156725, 0.4266500036465004, 0.4312999953981489, 0.42725000821519643, 0.4193500062683597, 0.43140001071151346, 0.4165999998804182, 0.41680000140331686, 0.45859998499508947, 0.43000000005122274, 0.4304000030970201, 0.43790000199805945, 0.4165499994996935, 0.421799995820038, 0.4116500058444217, 0.42544999450910836, 0.47709999489597976, 0.4559499939205125, 0.42019999818876386, 0.4232500068610534, 0.4557999927783385, 0.43149999692104757, 0.4210500046610832, 0.4186000005574897, 0.4126999992877245, 0.41885000246111304, 0.4140499950153753, 0.4199499962851405, 0.42079998820554465, 0.46445000043604523, 0.4200500115985051, 0.4276500112609938, 0.42919999395962805, 0.4329499934101477, 0.42130000656470656, 0.42749999556690454, 0.42449998727533966, 0.4167500010225922, 0.42424999992363155, 0.417799994465895, 0.4318999999668449, 0.45464999857358634, 0.4293500096537173, 0.45759999193251133, 0.4219000111334026, 0.47244998859241605, 0.42424999992363155, 0.4189500032225624, 0.4415000003064051, 0.4562999965855852, 0.4133999900659546, 0.4293000092729926, 0.4273999948054552, 0.4207500023767352, 0.4251500067766756, 0.41555000643711537, 0.4293999954825267, 0.41665000026114285, 0.4538500070339069, 0.48319999768864363, 0.41044999670702964, 0.4378500016173348, 0.4202999989502132, 0.4226000019116327, 0.4597000079229474, 0.4227500030538067, 0.41620001138653606, 0.440650008386001, 0.4184499994153157, 0.41960000817198306, 0.42144999315496534, 0.421949996962212, 0.4659999976865947, 0.45689998660236597, 0.4232500068610534, 0.4238499968778342, 0.4149000014876947, 0.4670999915106222, 0.4438499890966341, 0.41540000529494137, 0.42609999945852906, 0.4299499996704981, 0.4167000006418675, 0.42690000555012375, 0.42799999937415123, 0.4585000133374706, 0.4555000050459057, 0.42315000609960407, 0.4303500027162954, 0.41414999577682465, 0.4196499940007925, 0.4130000015720725, 0.42949999624397606, 0.4156499926466495, 0.4268500051693991, 0.4250000056345016, 0.42779999785125256, 0.42654998833313584, 0.42294999002479017, 0.4378000012366101, 0.4253999941283837, 0.4135999915888533, 0.44210000487510115, 0.42320000648032874, 0.5571499932557344, 0.4812499973922968, 0.41280000004917383, 0.4209000035189092, 0.45424998097587377, 0.4128500004298985, 0.4614000063156709, 0.4265000025043264, 0.4385499923955649, 0.4218499962007627, 0.45089999912306666, 0.4226000019116327, 0.42209999810438603, 0.4243500006850809, 0.47864999214652926, 0.4236499953549355, 0.4188499879091978, 0.41959999362006783, 0.4219999973429367, 0.4192999913357198, 0.42594999831635505, 0.42264998774044216, 0.41599999531172216, 0.413949994253926, 0.4215499939164147, 0.4298999992897734, 0.43524999637156725, 0.5059999966761097, 0.41870000131893903, 0.4201499978080392, 0.4286500043235719, 0.44580000394489616, 0.4165499994996935, 0.414699999964796, 0.4139500088058412, 0.48430000606458634, 0.4240499984007329, 0.421199991251342, 0.42794999899342656, 0.42255000153090805, 0.42350000876467675, 0.414549998822622, 0.4369999951450154, 0.4328500072006136, 0.4324000037740916, 0.4329999937908724, 0.4342500033089891, 0.43480000749696046, 0.45429999590851367, 0.45179999142419547, 0.4218500107526779, 0.4257499967934564, 0.4498499911278486, 0.41695000254549086, 0.47124999400693923, 0.415150003391318, 0.45044999569654465, 0.4599499952746555, 0.4008999967481941, 0.48719999904278666, 0.42874999053310603, 0.418550000176765, 0.4322000022511929, 0.42224999924656004, 0.41495000186841935, 0.42485000449232757, 0.42255000153090805, 0.4615500074578449, 0.42004999704658985, 0.42645000212360173, 0.42050000047311187, 0.4097500059287995, 0.4224500007694587, 0.41510000301059335, 0.42255000153090805, 0.4152000037720427, 0.4538999928627163, 0.4202999989502132, 0.4193499917164445, 0.42074998782482, 0.4561500099953264, 0.43400000140536577, 0.41229999624192715, 0.41834999865386635, 0.44994999188929796, 0.41695000254549086, 0.42755001049954444, 0.425349993747659, 0.5529499903786927, 0.4252499929862097, 0.42114999087061733, 0.42699999175965786, 0.4248000041116029, 0.4234999942127615, 0.42675000440794975, 0.4223500000080094, 0.42520000715740025, 0.46794999798294157, 0.43450000521261245, 0.43480000749696046, 0.42350000876467675, 0.45804999535903335, 0.4149999876972288, 0.421349992393516, 0.4222999996272847, 0.45584999315906316, 0.4078999918419868, 0.42305000533815473, 0.41695000254549086, 0.42764999670907855, 0.4259999986970797, 0.4231000057188794, 0.4189999890513718, 0.42209999810438603, 0.42270000267308205, 0.42475000373087823, 0.44645000889431685, 0.4192000051261857, 0.41700000292621553, 0.417949995608069, 0.443900004029274, 0.502600014442578, 0.4659500118577853, 0.4609500028891489, 0.4116500058444217, 0.42579999717418104, 0.4634000069927424, 0.41024999518413097, 0.4251000063959509, 0.42460000258870423, 0.45680000039283186, 0.4258499975549057, 0.42630000098142773, 0.4159500094829127, 0.5461999971885234, 0.4169000021647662, 0.42470000335015357, 0.4409499961184338, 0.4521999944699928, 0.4241499991621822, 0.44570001773536205, 0.42544999450910836, 0.4142500110901892, 0.421649994677864, 0.4194000066490844, 0.41965000855270773, 0.42630000098142773, 0.41560000681784004, 0.4238499968778342, 0.4197999951429665, 0.4258999979356304, 0.4178500093985349, 0.4165499994996935, 0.44359998719301075, 0.4675000091083348, 0.4597500083036721, 0.41879998752847314, 0.42729999404400587, 0.4193500062683597, 0.45680000039283186, 0.41760000749491155, 0.41280000004917383, 0.43215000187046826, 0.4278499982319772, 0.421049990109168, 0.6012999947415665, 0.5024999991292134, 0.4196499940007925, 0.41640001290943474, 0.47339999582618475, 0.45345000398810953, 0.5155999970156699, 0.47369999811053276, 0.4549500154098496, 0.41319998854305595, 0.4807499935850501, 0.4285500035621226, 0.4168500017840415, 0.4118999931961298, 0.46799999836366624, 0.5652499821735546, 0.44025000534020364, 0.41865000093821436, 0.625700005912222, 0.564500005566515, 0.4487500118557364, 0.41900000360328704, 0.4239999980200082, 0.4167000006418675, 0.4235500091454014, 0.41804999636951834, 0.4199999966658652, 0.42609999945852906, 0.41945000702980906, 0.45345001854002476, 0.45870000030845404, 0.42424999992363155, 0.43420000292826444, 0.4694499948527664, 0.4202999989502132, 0.4199999966658652, 0.41634999797679484, 0.5096999811939895, 0.4157000075792894, 0.41825001244433224, 0.4229000041959807, 0.4256999964127317, 0.41825001244433224, 0.4285500035621226, 0.41310000233352184, 0.41120000241789967, 0.4132000030949712, 0.4233999934513122, 0.4260499990778044, 0.424599988036789, 0.4411999980220571, 0.4295499966247007, 0.413799993111752, 0.42149999353569, 0.46129999100230634, 0.4267999902367592, 0.4115499905310571, 0.4204500000923872, 0.42389999725855887, 0.43375001405365765, 0.418399999034591, 0.43154999730177224, 0.4309499927330762, 0.4227500030538067, 0.41349999082740396, 0.4204500000923872, 0.44865001109428704, 0.4300500004319474, 0.4198499955236912, 0.44585000432562083, 0.42460000258870423, 0.45569999201688915, 0.4309999931138009, 0.41370000690221786, 0.4243500006850809, 0.46609998389612883, 0.4278499982319772, 0.4684000159613788, 0.4214000073261559, 0.4497500049183145, 0.4232499923091382, 0.4138000076636672, 0.4184499994153157, 0.4197000089334324, 0.42394999763928354, 0.4267000040272251, 0.40844999602995813, 0.4178000090178102, 0.43015000119339675, 0.43354999797884375, 0.4245000018272549, 0.42520000715740025, 0.6068000075174496, 0.5950999911874533, 0.4633999924408272, 0.4132000030949712, 0.41880000208038837, 0.4233499930705875, 0.44305001210886985, 0.42219999886583537, 0.42379999649710953, 0.42019999818876386, 0.4210500046610832, 0.4215499939164147, 0.41599999531172216, 0.41665000026114285, 0.42145000770688057, 0.4184499994153157, 0.4310000076657161, 0.42210001265630126, 0.41799999598879367, 0.4511499864747748, 0.44630000775214285, 0.4333499964559451, 0.4172999906586483, 0.4579999949783087, 0.417349991039373, 0.4263500013621524, 0.42660000326577574, 0.41629999759607017, 0.46135000593494624, 0.42625000060070306, 0.425199992605485, 0.4520499933278188, 0.411750006605871, 0.42559999565128237, 0.44084999535698444, 0.45179999142419547, 0.4286499897716567, 0.42964999738615006, 0.4232500068610534, 0.4212500061839819, 0.4221499984851107, 0.4208000027574599, 0.4233000072417781, 0.41619999683462083, 0.4588499868987128, 0.42109999048989266, 0.43390000064391643, 0.4427999956533313, 0.46054999984335154, 0.4202999989502132, 0.48669999523554, 0.41760000749491155, 0.45279999903868884, 0.47714999527670443, 0.4132999893045053, 0.4206000012345612, 0.48239999159704894, 0.4180000105407089, 0.43435000407043844, 0.42884999129455537, 0.45390000741463155, 0.4227500030538067, 0.42124999163206667, 0.42594999831635505, 0.4191000043647364, 0.41540000529494137, 0.4233000072417781, 0.4209000035189092, 0.42174999543931335, 0.4417000018293038, 0.4115000047022477, 0.4315000114729628, 0.43930001265835017, 0.41435001185163856, 0.42505000601522624, 0.417349991039373, 0.4209500038996339, 0.46604998351540416, 0.41250001231674105, 0.4613999917637557, 0.4170500033069402, 0.46224999823607504, 0.43184999958612025, 0.42660000326577574, 0.42899999243672937, 0.4467499820748344, 0.4244500014465302, 0.42940001003444195, 0.41965000855270773, 0.4303500027162954, 0.43200000072829425, 0.4199499962851405, 0.4209500038996339, 0.4306499904487282, 0.4233499930705875, 0.42050000047311187, 0.4316500126151368, 0.43265000567771494, 0.4595500067807734, 0.4198499955236912, 0.4272499936632812, 0.4315999976824969, 0.4091500013601035, 0.5043499986641109, 0.42400001257192343, 0.41464999958407134, 0.4252499929862097, 0.42904999281745404, 0.4209500038996339, 0.4302000015741214, 0.4330000083427876, 0.42934999510180205, 0.4189500032225624, 0.4621499974746257, 0.42449998727533966, 0.4288500058464706, 0.4251000063959509, 0.43489999370649457, 0.42320000648032874, 0.4184499994153157, 0.43229998846072704, 0.41665000026114285, 0.43149999692104757, 0.4207500023767352, 0.42630000098142773, 0.42219999886583537, 0.4636499797925353, 0.43420000292826444, 0.4251000063959509, 0.42209999810438603, 0.4612500051734969, 0.42609999945852906, 0.4301000008126721, 0.4154999915044755, 0.41789999522734433, 0.42070000199601054, 0.43390000064391643, 0.42704999214038253, 0.46975001168902963, 0.4251500067766756, 0.4237000102875754],
  "QPU": "7000000",
  "Qubits": 8,
  "Queue durations [ms]": [0.0, 0.0, 0.0, 0.0, 0.0, 0.0, 0.0, 0.0, 0.0, 0.0, 0.0, 0.0, 0.0, 0.0, 0.0, 0.0, 0.0, 0.0, 0.0, 0.0, 0.0, 0.0, 0.0, 0.0, 0.0, 0.0, 0.0, 0.0, 0.0, 0.0, 0.0, 0.0, 0.0, 0.0, 0.0, 0.0, 0.0, 0.0, 0.0, 0.0, 0.0, 0.0, 0.0, 0.0, 0.0, 0.0, 0.0, 0.0, 0.0, 0.0, 0.0, 0.0, 0.0, 0.0, 0.0, 0.0, 0.0, 0.0, 0.0, 0.0, 0.0, 0.0, 0.0, 0.0, 0.0, 0.0, 0.0, 0.0, 0.0, 0.0, 0.0, 0.0, 0.0, 0.0, 0.0, 0.0, 0.0, 0.0, 0.0, 0.0, 0.0, 0.0, 0.0, 0.0, 0.0, 0.0, 0.0, 0.0, 0.0, 0.0, 0.0, 0.0, 0.0, 0.0, 0.0, 0.0, 0.0, 0.0, 0.0, 0.0, 0.0, 0.0, 0.0, 0.0, 0.0, 0.0, 0.0, 0.0, 0.0, 0.0, 0.0, 0.0, 0.0, 0.0, 0.0, 0.0, 0.0, 0.0, 0.0, 0.0, 0.0, 0.0, 0.0, 0.0, 0.0, 0.0, 0.0, 0.0, 0.0, 0.0, 0.0, 0.0, 0.0, 0.0, 0.0, 0.0, 0.0, 0.0, 0.0, 0.0, 0.0, 0.0, 0.0, 0.0, 0.0, 0.0, 0.0, 0.0, 0.0, 0.0, 0.0, 0.0, 0.0, 0.0, 0.0, 0.0, 0.0, 0.0, 0.0, 0.0, 0.0, 0.0, 0.0, 0.0, 0.0, 0.0, 0.0, 0.0, 0.0, 0.0, 0.0, 0.0, 0.0, 0.0, 0.0, 0.0, 0.0, 0.0, 0.0, 0.0, 0.0, 0.0, 0.0, 0.0, 0.0, 0.0, 0.0, 0.0, 0.0, 0.0, 0.0, 0.0, 0.0, 0.0, 0.0, 0.0, 0.0, 0.0, 0.0, 0.0, 0.0, 0.0, 0.0, 0.0, 0.0, 0.0, 0.0, 0.0, 0.0, 0.0, 0.0, 0.0, 0.0, 0.0, 0.0, 0.0, 0.0, 0.0, 0.0, 0.0, 0.0, 0.0, 0.0, 0.0, 0.0, 0.0, 0.0, 0.0, 0.0, 0.0, 0.0, 0.0, 0.0, 0.0, 0.0, 0.0, 0.0, 0.0, 0.0, 0.0, 0.0, 0.0, 0.0, 0.0, 0.0, 0.0, 0.0, 0.0, 0.0, 0.0, 0.0, 0.0, 0.0, 0.0, 0.0, 0.0, 0.0, 0.0, 0.0, 0.0, 0.0, 0.0, 0.0, 0.0, 0.0, 0.0, 0.0, 0.0, 0.0, 0.0, 0.0, 0.0, 0.0, 0.0, 0.0, 0.0, 0.0, 0.0, 0.0, 0.0, 0.0, 0.0, 0.0, 0.0, 0.0, 0.0, 0.0, 0.0, 0.0, 0.0, 0.0, 0.0, 0.0, 0.0, 0.0, 0.0, 0.0, 0.0, 0.0, 0.0, 0.0, 0.0, 0.0, 0.0, 0.0, 0.0, 0.0, 0.0, 0.0, 0.0, 0.0, 0.0, 0.0, 0.0, 0.0, 0.0, 0.0, 0.0, 0.0, 0.0, 0.0, 0.0, 0.0, 0.0, 0.0, 0.0, 0.0, 0.0, 0.0, 0.0, 0.0, 0.0, 0.0, 0.0, 0.0, 0.0, 0.0, 0.0, 0.0, 0.0, 0.0, 0.0, 0.0, 0.0, 0.0, 0.0, 0.0, 0.0, 0.0, 0.0, 0.0, 0.0, 0.0, 0.0, 0.0, 0.0, 0.0, 0.0, 0.0, 0.0, 0.0, 0.0, 0.0, 0.0, 0.0, 0.0, 0.0, 0.0, 0.0, 0.0, 0.0, 0.0, 0.0, 0.0, 0.0, 0.0, 0.0, 0.0, 0.0, 0.0, 0.0, 0.0, 0.0, 0.0, 0.0, 0.0, 0.0, 0.0, 0.0, 0.0, 0.0, 0.0, 0.0, 0.0, 0.0, 0.0, 0.0, 0.0, 0.0, 0.0, 0.0, 0.0, 0.0, 0.0, 0.0, 0.0, 0.0, 0.0, 0.0, 0.0, 0.0, 0.0, 0.0, 0.0, 0.0, 0.0, 0.0, 0.0, 0.0, 0.0, 0.0, 0.0, 0.0, 0.0, 0.0, 0.0, 0.0, 0.0, 0.0, 0.0, 0.0, 0.0, 0.0, 0.0, 0.0, 0.0, 0.0, 0.0, 0.0, 0.0, 0.0, 0.0, 0.0, 0.0, 0.0, 0.0, 0.0, 0.0, 0.0, 0.0, 0.0, 0.0, 0.0, 0.0, 0.0, 0.0, 0.0, 0.0, 0.0, 0.0, 0.0, 0.0, 0.0, 0.0, 0.0, 0.0, 0.0, 0.0, 0.0, 0.0, 0.0, 0.0, 0.0, 0.0, 0.0, 0.0, 0.0, 0.0, 0.0, 0.0, 0.0, 0.0, 0.0, 0.0, 0.0, 0.0, 0.0, 0.0, 0.0, 0.0, 0.0, 0.0, 0.0, 0.0, 0.0, 0.0, 0.0, 0.0, 0.0, 0.0, 0.0, 0.0, 0.0, 0.0, 0.0, 0.0, 0.0, 0.0, 0.0, 0.0, 0.0, 0.0, 0.0, 0.0, 0.0, 0.0, 0.0, 0.0, 0.0, 0.0, 0.0, 0.0, 0.0, 0.0, 0.0, 0.0, 0.0, 0.0, 0.0, 0.0, 0.0, 0.0, 0.0, 0.0, 0.0, 0.0, 0.0, 0.0, 0.0, 0.0, 0.0, 0.0, 0.0, 0.0, 0.0, 0.0, 0.0, 0.0, 0.0, 0.0, 0.0, 0.0, 0.0, 0.0, 0.0, 0.0, 0.0, 0.0, 0.0, 0.0, 0.0, 0.0, 0.0, 0.0, 0.0, 0.0, 0.0, 0.0, 0.0, 0.0, 0.0, 0.0, 0.0, 0.0, 0.0, 0.0, 0.0, 0.0, 0.0, 0.0, 0.0, 0.0, 0.0, 0.0, 0.0, 0.0, 0.0, 0.0, 0.0, 0.0, 0.0, 0.0, 0.0, 0.0, 0.0, 0.0, 0.0, 0.0, 0.0, 0.0, 0.0, 0.0, 0.0, 0.0, 0.0, 0.0, 0.0, 0.0, 0.0, 0.0, 0.0, 0.0, 0.0, 0.0, 0.0, 0.0, 0.0, 0.0, 0.0, 0.0, 0.0, 0.0, 0.0, 0.0, 0.0, 0.0, 0.0, 0.0, 0.0, 0.0, 0.0, 0.0, 0.0, 0.0, 0.0, 0.0, 0.0, 0.0, 0.0, 0.0, 0.0, 0.0, 0.0, 0.0, 0.0, 0.0, 0.0, 0.0, 0.0, 0.0, 0.0, 0.0, 0.0, 0.0, 0.0, 0.0, 0.0, 0.0, 0.0, 0.0, 0.0, 0.0, 0.0, 0.0, 0.0, 0.0, 0.0, 0.0, 0.0, 0.0, 0.0, 0.0, 0.0, 0.0, 0.0, 0.0, 0.0, 0.0, 0.0, 0.0, 0.0, 0.0, 0.0, 0.0, 0.0, 0.0, 0.0, 0.0, 0.0, 0.0, 0.0, 0.0, 0.0, 0.0, 0.0, 0.0, 0.0, 0.0, 0.0, 0.0, 0.0, 0.0, 0.0, 0.0, 0.0, 0.0, 0.0, 0.0, 0.0, 0.0, 0.0, 0.0, 0.0, 0.0, 0.0, 0.0, 0.0, 0.0, 0.0, 0.0, 0.0, 0.0, 0.0, 0.0, 0.0, 0.0, 0.0, 0.0, 0.0, 0.0, 0.0, 0.0, 0.0, 0.0, 0.0, 0.0, 0.0, 0.0, 0.0, 0.0, 0.0, 0.0, 0.0, 0.0, 0.0, 0.0, 0.0, 0.0, 0.0, 0.0, 0.0, 0.0],
  "Shots": 4096,
  "Size": 8,
  "Total Algorithm duration [s]": 7.516,
  "Total Classic duration [s]": 7.189478799959412,
  "Total Quantum duration [s]": 0.32652120004058816
}
