{
  "Depth": 12.5,
  "Expectation Value": -5.828667163848877,
  "Job durations [ms]": [0.43634999747155234, 0.23610000062035397, 0.22259999968810007, 0.22059999901102856, 0.29394999728538096, 0.21234999439911917, 0.4080500002601184, 0.3456999911577441, 0.36070001078769565, 0.22300000273389742, 0.22684999566990882, 0.21350000315578654, 0.21315000049071386, 0.35430000571068376, 0.25019999884534627, 0.22850000095786527, 0.20545000006677583, 0.218400004087016, 0.2163499957532622, 0.41885000973707065, 0.2217499932157807, 0.21720000222558156, 0.22064999939175323, 0.22339999850373715, 0.21765000565210357, 0.3648999991128221, 0.225349998800084, 0.21405000006780028, 0.21864999871468171, 0.21725000260630623, 0.24700000358279794, 0.21864999871468171, 0.2512500068405643, 0.22994999744696543, 0.2184999975725077, 0.32764999923529103, 0.2997499977936968, 0.21744999685324728, 0.2147999985027127, 0.22569999418919906, 0.2533000078983605, 0.347999986843206, 0.2232000042567961, 0.21439999545691535, 0.21584999922197312, 0.21344999549910426, 0.21430000197142363, 0.25430000096093863, 0.28104999364586547, 0.323049993312452, 0.20404999668244272, 0.2104500017594546, 0.2027000009547919, 0.207199998840224, 0.2125000028172508, 0.2143500023521483, 0.2191500025219284, 0.25010001263581216, 0.23285000497708097, 0.21914999524597079, 0.2530000056140125, 0.4142500038142316, 0.20915000641252846, 0.22024999634595588, 0.20684999617515132, 0.24809999740682542, 0.26889999571722, 0.40094998985296115, 0.4226000019116327, 0.2177499991375953, 0.2115499955834821, 0.20965000294381753, 0.2825999981723726, 0.24624999787192792, 0.21720000222558156, 0.36795000050915405, 0.28015000134473667, 0.2145000034943223, 0.21684999956050888, 0.21675000607501715, 0.20605000463547185, 0.3274999908171594, 0.2149499996448867, 0.21320000087143853, 0.22790000366512686, 0.22844999330118299, 0.2263000060338527, 0.27099999715574086, 0.3011499939020723, 0.2145000034943223, 0.3032000022358261, 0.21890000061830506, 0.21084999752929434, 0.3517500008456409, 0.254700004006736, 0.4057000041939318, 0.2031499971053563, 0.24664999364176765, 0.21500000002561137, 0.2175999979954213, 0.2330999996047467, 0.25594999897293746, 0.22370000078808516, 0.21795000066049397, 0.22045000514481217, 0.4116999916732311, 0.22209999588085338, 0.284100002318155, 0.22604999685427174, 0.30124999466352165, 0.21515000116778538, 0.21720000222558156, 0.21019999985583127, 0.20724999922094867, 0.34220000088680536, 0.22134999744594097, 0.20414999744389206, 0.35590001061791554, 0.21799999376526102, 0.21449999621836469, 0.38874999881954864, 0.24529999791411683, 0.21130000095581636, 0.2994999958900735, 0.21440000273287296, 0.2518499968573451, 0.2673999988473952, 0.21710000146413222, 0.25425000058021396, 0.20924999989802018, 0.210899997910019, 0.19835000421153381, 0.23009999858913943, 0.21530000230995938, 0.2545000024838373, 0.2295500016771257, 0.20855000184383243, 0.24510000366717577, 0.2085999949485995, 0.21160000324016437, 0.21765000565210357, 0.27395000506658107, 0.21164999634493142, 0.20599999697878957, 0.2225499993073754, 0.26900000375462696, 0.20870000298600644, 0.1635999942664057, 0.2011499964282848, 0.22509999689646065, 0.20709999807877466, 0.30160000460455194, 0.22290000197244808, 0.3841500001726672, 0.22385000193025917, 0.3229500071029179, 0.21350000315578654, 0.2205500059062615, 0.2234999992651865, 0.25534999440424144, 0.2515499945729971, 0.39810001180740073, 0.21035000099800527, 0.3114499995717779, 0.1995999991777353, 0.206899996555876, 0.20809999841731042, 0.24840000696713105, 0.2062499988824129, 0.38654998934362084, 0.2153999957954511, 0.210299993341323, 0.3441500011831522, 0.2297000028192997, 0.2194499975303188, 0.207199998840224, 0.43590000859694555, 0.2049000031547621, 0.22200000239536166, 0.2275500082760118, 0.21830000332556665, 0.22215000353753567, 0.23220000002766028, 0.21344999549910426, 0.24529999791411683, 0.24030000349739566, 0.352399998519104, 0.21809999452671036, 0.26485000125830993, 0.20755000150529668, 0.22774999524699524, 0.21179999748710543, 0.24729999859118834, 0.3927499783458188, 0.2543500013416633, 0.4261999929440208, 0.20930000027874485, 0.36080000427318737, 0.21405000006780028, 0.2139000062015839, 0.21980000019539148, 0.2587500057416037, 0.39470001502195373, 0.21380000544013456, 0.2138499985449016, 0.21279999782564119, 0.21459999697981402, 0.21099999867146835, 0.3453999961493537, 0.21335000201361254, 0.3044499972020276, 0.2163500030292198, 0.20514999778242782, 0.21330000163288787, 0.21584999922197312, 0.21260000357870013, 0.25094999000430107, 0.4113999893888831, 0.269349999143742, 0.2202500036219135, 0.21040000137872994, 0.2344999957131222, 0.2238000015495345, 0.40779999108053744, 0.22319999698083848, 0.38314999255817384, 0.2322000073036179, 0.2167999991797842, 0.21810000180266798, 0.22669999452773482, 0.24104999465635046, 0.23964999127201736, 0.22385000193025917, 0.21769999875687063, 0.2171500018448569, 0.2125000028172508, 0.3797999888774939, 0.2261500048916787, 0.23304999922402203, 0.27105000481242314, 0.21094999829074368, 0.21934999676886946, 0.21919999562669545, 0.25485000514891, 0.21379999816417694, 0.20784999651368707, 0.30435000371653587, 0.22265000734478235, 0.35045000549871475, 0.2550999925006181, 0.22759999410482123, 0.4337499995017424, 0.225349998800084, 0.21410000044852495, 0.22370000078808516, 0.3674000108730979, 0.27165000210516155, 0.23475000489270315, 0.21405000006780028, 0.24115000269375741, 0.4110000081709586, 0.3112500053248368, 0.3418499982217327, 0.20590000349329785, 0.41849999979604036, 0.22555000032298267, 0.37585000245599076, 0.21890000061830506, 0.258700005360879, 0.24544999905629084, 0.2270499971928075, 0.22329999774228781, 0.33180000173160806, 0.26849999267142266, 0.38869999843882397, 0.3763499844353646, 0.2707000094233081, 0.2136999974027276, 0.21700000070268288, 0.22279999393504113, 0.18474999524187297, 0.2502999996067956, 0.2145000034943223, 0.22855000133858994, 0.39605001074960455, 0.2101499994751066, 0.2790500002447516, 0.3752999909920618, 0.23165000311564654, 0.21160000324016437, 0.2137500050594099, 0.25164999533444643, 0.22015000286046416, 0.33290000283159316, 0.25850000383798033, 0.20729999960167333, 0.2181999952881597, 0.20945000142091885, 0.21505000040633604, 0.21924999600742012, 0.2606499911053106, 0.25394999829586595, 0.20460000087041408, 0.2295500016771257, 0.20384999515954405, 0.22415000421460718, 0.2195999986724928, 0.22685000294586644, 0.2022500048042275, 0.20865000260528177, 0.4208000027574599, 0.22444999922299758, 0.21114999981364235, 0.20994999795220792, 0.22229999740375206, 0.22024999634595588, 0.2493499923730269, 0.21260000357870013, 0.20799999765586108, 0.3754499921342358, 0.22444999922299758, 0.2206999997724779, 0.3463000030023977, 0.33704999077599496, 0.32080000528367236, 0.40305000584339723, 0.23659998987568542, 0.22495000303024426, 0.32730000384617597, 0.2124499951605685, 0.3323500059195794, 0.2188500002375804, 0.21084999752929434, 0.21469999774126336, 0.22694999643135816, 0.2097000033245422, 0.22599999647354707, 0.2578999992692843, 0.2195999986724928, 0.21705000108340755, 0.2419500015093945, 0.2211499959230423, 0.22470000112662092, 0.21365000429796055, 0.26080000679939985, 0.21009999909438193, 0.21995000133756548, 0.22164999973028898, 0.32845000532688573, 0.2158999996026978, 0.2896499936468899, 0.21950000518700108, 0.3586000020732172, 0.2162000018870458, 0.23085000430000946, 0.40159998752642423, 0.22345000616041943, 0.20879999647149816, 0.2386499909334816, 0.21579999884124845, 0.2710999979171902, 0.2502000061213039, 0.2597499988041818, 0.2758999980869703, 0.24784999550320208, 0.22059999901102856, 0.36064999585505575, 0.41215000237571076, 0.2121500001521781, 0.22164999973028898, 0.2308999974047765, 0.284250003460329, 0.24090000079013407, 0.3400000059627928, 0.21484999888343737, 0.33874999644467607, 0.22440000611823052, 0.41369999962626025, 0.22924999939277768, 0.21519999427255243, 0.21284999820636585, 0.21405000006780028, 0.21579999884124845, 0.2125999963027425, 0.21515000116778538, 0.21275000472087413, 0.22639999951934442, 0.33894999796757475, 0.21674999879905954, 0.2280999906361103, 0.20819999917875975, 0.20770000264747068, 0.2228500015917234, 0.22344999888446182, 0.20710000535473228, 0.2119999990100041, 0.21254999592201784, 0.21744999685324728, 0.258400003076531, 0.30715000320924446, 0.21615000150632113, 0.21260000357870013, 0.2618500075186603, 0.22249999892665073, 0.22149999858811498, 0.2327999973203987, 0.21520000154851004, 0.2226999931735918, 0.2116999967256561, 0.20545000006677583, 0.21515000116778538, 0.21764999837614596, 0.21194999862927943, 0.2136999974027276, 0.42535000102361664, 0.34625000262167305, 0.31620000663679093, 0.2215000058640726, 0.2175999979954213, 0.24435000523226336, 0.3963000053772703, 0.21720000222558156, 0.21905000176047906, 0.2212999970652163, 0.2262499983771704, 0.2206999997724779, 0.24824999854899943, 0.2277999956277199, 0.41274999239249155, 0.22185000125318766, 0.2256499938084744, 0.20740000036312267, 0.2136999974027276, 0.24595001013949513, 0.2164999968954362, 0.22064999939175323, 0.2500000045984052, 0.21689999994123355, 0.21174999710638076, 0.3877500130329281, 0.31394999678013846, 0.20765000226674601, 0.2899000028264709, 0.22965000243857503, 0.2701999983401038, 0.21964999905321747, 0.22994999744696543, 0.21330000163288787, 0.35975000355392694, 0.2179000002797693, 0.2211499959230423, 0.22329999774228781, 0.2249000026495196, 0.22244999854592606, 0.21705000108340755, 0.26160001289099455, 0.21980000019539148, 0.2530499914428219, 0.23019999935058877, 0.21389999892562628, 0.21835000370629132, 0.32250000367639586, 0.21094999829074368, 0.25010000535985455, 0.21135000133654103, 0.3885500045726076, 0.22265000006882474, 0.21345000277506188, 0.2243999988422729, 0.36365000414662063, 0.22120000357972458, 0.33445000735810027, 0.22540000645676628, 0.24385000142501667, 0.22419999731937423, 0.2204000047640875, 0.2623499894980341, 0.21640000340994447, 0.35620000562630594, 0.20950000180164352, 0.21099999867146835, 0.21405000006780028, 0.2101499994751066, 0.3583499928936362, 0.228749995585531, 0.2142000012099743, 0.22825000633019954, 0.22234999778447673, 0.22739999985788018, 0.2826999989338219, 0.2124499951605685, 0.22464999346993864, 0.21505000040633604, 0.2328000045963563, 0.22295000235317275, 0.21204999939072877, 0.37519999023061246, 0.32094999914988875, 0.38535000203410164, 0.2249000026495196, 0.4326000125729479, 0.22300000273389742, 0.40860001172404736, 0.21584999922197312, 0.22134999744594097, 0.22909999825060368, 0.2266000010422431, 0.26554999203654006, 0.2208500009146519, 0.21949999791104347, 0.21839999681105837, 0.21860000560991466, 0.21445000311359763, 0.25564999668858945, 0.36034999357070774, 0.35375000879867, 0.22515000455314294, 0.363349994586315, 0.2210000020568259, 0.39909998304210603, 0.21654999727616087, 0.2145000034943223, 0.2061500053969212, 0.2099999983329326, 0.21704999380744994, 0.22819999867351726, 0.23175000387709588, 0.22354999964591116, 0.23005000548437238, 0.2201000024797395, 0.22694999643135816, 0.21455000387504697, 0.22980000358074903, 0.22265000006882474, 0.22044999786885455, 0.22634999913861975, 0.22120000357972458, 0.33179999445565045, 0.2540499990573153, 0.22024999634595588, 0.25060000916710123, 0.2506000018911436, 0.2179000002797693, 0.35134999779984355, 0.3177499966113828, 0.23549999605165794, 0.21905000176047906, 0.22389999503502622, 0.24880000273697078, 0.2606000052765012, 0.21070000366307795, 0.2467500016791746, 0.34759999834932387, 0.21729999571107328, 0.22370000078808516],
  "Optimal Expectation Value": -6.026674270629883,
  "Optimizer durations [ms]": [20.581, 23.427, 21.55, 22.377, 15.571, 19.759, 20.064, 19.192, 22.413, 16.329, 22.428, 16.917, 23.804, 17.638, 15.074, 22.015, 23.336, 24.143, 23.01, 22.178, 24.064, 21.746, 24.583, 21.851, 19.102, 24.362, 23.882, 15.834, 24.927, 21.7, 11.083, 24.481, 15.823, 22.725, 21.438, 24.163, 14.7, 19.622, 20.693, 20.244, 16.747, 21.138, 21.518, 24.549, 20.772, 24.508, 22.698, 16.93, 15.533, 23.355, 17.194, 20.104, 21.331, 22.887, 18.24, 13.786, 24.402, 18.052, 20.648, 16.889, 23.726, 16.712, 23.672, 22.079, 20.506, 21.559, 23.951, 15.673, 23.576, 22.591, 21.254, 22.264, 19.57, 12.492, 24.142, 23.735, 22.199, 24.737, 18.067, 15.195, 20.694, 19.501, 19.989, 24.387, 21.793, 25.03, 23.743, 14.215, 18.954, 21.599, 23.945, 21.867, 22.305, 17.33, 20.715, 20.581, 24.635, 24.203, 22.969, 22.559, 17.262, 19.501, 18.108, 19.345, 21.921, 24.238, 17.083, 23.43, 19.462, 21.645, 23.226, 21.289, 17.786, 24.527, 16.345, 24.777, 19.805, 22.412, 24.76, 16.808, 23.949, 18.21, 23.498, 19.575, 20.957, 20.188, 19.479, 22.456, 15.75, 18.676, 22.389, 23.727, 23.262, 21.499, 17.472, 23.005, 24.454, 16.1, 21.856, 22.896, 16.96, 20.459, 19.933, 22.754, 20.685, 20.122, 21.373, 15.085, 24.376, 17.354, 19.38, 21.301, 24.381, 20.422, 20.558, 20.264, 20.565, 22.122, 19.715, 16.249, 16.961, 21.93, 20.819, 19.935, 21.224, 20.01, 16.68, 20.178, 20.006, 18.485, 22.005, 19.309, 23.294, 25.175, 20.92, 24.138, 20.499, 20.227, 22.851, 21.961, 20.929, 17.262, 23.335, 15.285, 20.479, 22.46, 24.03, 24.435, 23.464, 24.699, 13.636, 16.691, 20.178, 20.737, 16.814, 17.273, 23.073, 21.375, 20.158, 21.344, 20.224, 19.057, 18.947, 22.436, 19.135, 18.229, 18.625, 23.432, 24.025, 21.55, 23.791, 21.19, 24.064, 22.889, 17.427, 18.441, 18.461, 17.76, 18.881, 21.941, 23.475, 22.646, 19.742, 22.282, 22.369, 22.586, 21.907, 16.855, 24.241, 20.442, 16.008, 24.729, 21.674, 24.579, 20.488, 21.563, 21.167, 22.831, 17.311, 24.021, 17.553, 21.397, 19.976, 17.762, 19.767, 20.791, 23.991, 21.858, 17.575, 18.771, 24.614, 19.97, 21.757, 20.226, 23.622, 22.591, 22.633, 22.75, 19.307, 17.467, 22.942, 18.927, 21.864, 23.726, 22.267, 20.058, 21.087, 20.367, 17.18, 17.189, 23.033, 19.702, 21.065, 13.017, 23.999, 18.746, 20.889, 20.437, 24.764, 16.293, 21.613, 17.091, 17.638, 18.533, 23.929, 24.784, 20.988, 21.459, 24.458, 21.958, 20.023, 18.061, 24.258, 20.397, 16.652, 20.423, 22.094, 19.314, 23.027, 15.532, 13.749, 15.199, 23.775, 21.722, 21.73, 15.204, 18.192, 16.762, 21.011, 15.903, 19.989, 20.993, 20.077, 20.035, 21.176, 14.859, 23.908, 22.19, 21.542, 19.611, 24.795, 19.211, 22.191, 21.208, 19.19, 16.118, 25.106, 22.063, 19.174, 24.935, 16.393, 11.994, 15.442, 18.999, 19.183, 19.18, 19.631, 13.034, 24.529, 23.471, 23.272, 23.724, 22.676, 18.902, 19.218, 16.957, 19.782, 23.486, 19.192, 22.389, 23.584, 23.546, 19.77, 17.341, 23.145, 22.988, 24.685, 16.97, 24.63, 24.699, 21.209, 22.728, 19.321, 20.059, 17.207, 16.719, 20.348, 24.076, 21.407, 22.58, 21.819, 19.772, 21.21, 24.211, 22.738, 18.083, 18.107, 23.321, 23.635, 23.625, 24.424, 19.425, 24.29, 17.218, 20.407, 20.357, 20.044, 22.22, 18.167, 20.149, 17.586, 24.749, 21.204, 21.367, 20.117, 18.426, 19.926, 22.312, 19.366, 17.011, 20.706, 20.707, 24.113, 21.643, 20.713, 20.425, 19.755, 23.786, 19.78, 18.899, 21.903, 24.345, 24.297, 21.47, 19.456, 24.051, 19.195, 17.663, 20.84, 18.739, 22.829, 22.226, 24.296, 20.753, 24.718, 18.158, 20.122, 23.284, 20.971, 23.607, 18.895, 23.219, 24.064, 21.485, 21.502, 22.604, 17.198, 22.901, 18.575, 23.18, 23.625, 20.292, 21.878, 18.161, 20.15, 24.825, 18.587, 16.397, 22.789, 23.005, 20.576, 24.881, 16.853, 20.855, 16.564, 17.217, 20.179, 14.021, 22.634, 18.104, 21.247, 17.89, 18.5, 20.562, 17.239, 23.245, 18.441, 21.363, 20.649, 24.038, 24.458, 21.699, 24.22, 24.484, 25.0, 17.036, 16.684, 20.404, 23.959, 19.978, 22.116, 15.448, 21.404, 17.846, 23.269, 18.474, 21.555, 19.91, 24.574, 13.663, 19.688, 24.442, 16.439, 18.362, 17.38, 24.53, 22.83, 20.033, 22.248, 23.917, 20.537, 20.447, 19.281, 17.848, 19.365, 22.527, 24.314, 21.335, 23.853, 22.465, 19.892, 24.667, 24.598, 20.476, 21.749, 22.033, 22.033, 19.781, 21.505, 19.95, 17.463, 20.573, 21.294, 20.414, 21.061, 20.75, 22.304, 24.721, 16.973, 22.433, 20.802, 24.526, 20.902, 24.865, 16.713, 20.929, 25.003, 24.548, 21.136, 23.057, 24.163, 19.584, 21.818, 20.727, 24.204, 16.89, 24.498, 17.873, 19.588, 22.061, 23.918, 20.307, 16.783, 21.984, 24.722],
  "Optimizer iterations": 555,
  "Optimizer params": [0.5950885886676381, 0.853169728174954, 0.685691406987525, 0.7909871389708375, 0.7272870437806418, 0.5259932002640191, 0.5003571743895207, 0.4962464176445064, 0.5019174231467776, 0.5020099395691786, 0.5032097602366786, 0.5494834914123499, 0.5835276165291832, 0.6040492822069374, 0.6447972015139819, 0.5187524738847836, 0.5034166942174295, 0.4959773659829667, 0.499990361915735, 0.4997570834051526],
  "P": 0,
  "Problem": "IC",
  "QPU": "7000000",
  "Qubits": 5,
  "Shots": 4096,
  "Size": 5,
  "Total Algorithm duration [s]": 11.527,
  "Total Classic duration [s]": 11.387176450012658,
  "Total Quantum duration [s]": 0.1398235499873408
}
