{
  "Depth": 12.5,
  "Expectation Value": -5.828667163848877,
  "Job durations [ms]": [0.22954999440116808, 0.4215000008116476, 0.23024999245535582, 0.25770000502234325, 0.22149999858811498, 0.2098500044667162, 0.21660000493284315, 0.2807999917422421, 0.31474999559577554, 0.2165000041713938, 0.33695000456646085, 0.2395999981672503, 0.21530000230995938, 0.2665499923750758, 0.23189999774331227, 0.21320000087143853, 0.2175999979954213, 0.21710000146413222, 0.22175000776769593, 0.23719999444438145, 0.3147999959765002, 0.3858499840134755, 0.22289999469649047, 0.22325000463752076, 0.3507999936118722, 0.21995000133756548, 0.20869999571004882, 0.294149991532322, 0.21669999841833487, 0.27334999322192743, 0.2048499954980798, 0.2409999942756258, 0.3830499990726821, 0.21304999972926453, 0.21749999723397195, 0.22405000345315784, 0.228899996727705, 0.21755000489065424, 0.3631000072346069, 0.33819999953266233, 0.21394999930635095, 0.24074999964796007, 0.4236999884597026, 0.23304999922402203, 0.2121500001521781, 0.2315499950782396, 0.3135999941150658, 0.2298499966855161, 0.2300000051036477, 0.21594999998342246, 0.4240499984007329, 0.22330000501824543, 0.31505000515608117, 0.43810001079691574, 0.21569999807979912, 0.2242499977000989, 0.21855000522919, 0.23389999842038378, 0.42234999273205176, 0.3651000006357208, 0.22095000167610124, 0.24310000299010426, 0.2146499973605387, 0.221950002014637, 0.2294000005349517, 0.30649999098386616, 0.21779999951831996, 0.3301499964436516, 0.4204499928164296, 0.3433500023675151, 0.21445000311359763, 0.22110000281827524, 0.3573499998310581, 0.22850000095786527, 0.21120000019436702, 0.21904999448452145, 0.34815000981325284, 0.21860000560991466, 0.2138499985449016, 0.21784999989904463, 0.21720000222558156, 0.4325499903643504, 0.21969999943394214, 0.30189999961294234, 0.3575000009732321, 0.2644499982125126, 0.3164999943692237, 0.3236500051571056, 0.24389999452978373, 0.21530000230995938, 0.21949999791104347, 0.23740000324323773, 0.28059999749530107, 0.21444999583764002, 0.20605000463547185, 0.25579999783076346, 0.22465000074589625, 0.23544999567093328, 0.3353999927639961, 0.2192999963881448, 0.42440000106580555, 0.36175000423099846, 0.222400005441159, 0.23854999744798988, 0.2558499982114881, 0.3426999974180944, 0.21830000332556665, 0.2999499920406379, 0.25024999922607094, 0.2094999945256859, 0.251600009505637, 0.21270000434014946, 0.23330000112764537, 0.21640000340994447, 0.21315000049071386, 0.27365000278223306, 0.4072499868925661, 0.21285000548232347, 0.2165000041713938, 0.21754999761469662, 0.2496999950380996, 0.21315000049071386, 0.2149499996448867, 0.20665000192821026, 0.2520499983802438, 0.43164999078726396, 0.2248499949928373, 0.35865000245394185, 0.3604500016081147, 0.367300002835691, 0.2121500001521781, 0.2881500040530227, 0.22574999456992373, 0.2195999986724928, 0.2162000018870458, 0.41819999751169235, 0.2119999990100041, 0.22080000053392723, 0.25510000705253333, 0.22745000023860484, 0.21615000150632113, 0.21569999807979912, 0.2345000029890798, 0.21389999892562628, 0.21784999989904463, 0.21824999566888437, 0.23274999693967402, 0.24669999402249232, 0.21784999989904463, 0.2327999973203987, 0.21515000116778538, 0.2607500064186752, 0.2275000006193295, 0.264599992078729, 0.24885000311769545, 0.22300000273389742, 0.21844999719178304, 0.210899997910019, 0.22280000121099874, 0.30079999851295725, 0.27645000227494165, 0.3059499940718524, 0.20979999681003392, 0.2286000017193146, 0.24300000222865492, 0.26825000531971455, 0.20895000488962978, 0.19769999926211312, 0.20739999308716506, 0.36569998337654397, 0.3192000003764406, 0.24890000349842012, 0.2122999940183945, 0.2204000047640875, 0.21505000040633604, 0.21665000531356782, 0.2177499991375953, 0.21540000307140872, 0.2530000056140125, 0.30485000024782494, 0.24664999364176765, 0.36130000080447644, 0.20990000484744087, 0.3963999915868044, 0.2519999979995191, 0.32804999500513077, 0.21104999905219302, 0.24810001195874065, 0.3575500086299144, 0.2556999970693141, 0.20884999685222283, 0.22060000628698617, 0.413799993111752, 0.21764999837614596, 0.21749999723397195, 0.27734999457607046, 0.2722999997786246, 0.22280000121099874, 0.22390000231098384, 0.23050000163493678, 0.44079999497625977, 0.40004999027587473, 0.2225499993073754, 0.20755000150529668, 0.21260000357870013, 0.31075000151759014, 0.21854999795323238, 0.282899993180763, 0.3659499852801673, 0.2642500039655715, 0.2730999985942617, 0.21500000002561137, 0.21194999862927943, 0.2154500034521334, 0.21150000247871503, 0.2195999986724928, 0.2232000042567961, 0.21954999829176813, 0.22729999909643084, 0.21240000205580145, 0.22095000167610124, 0.2310999989276752, 0.2409000080660917, 0.26709999656304717, 0.3189999915775843, 0.27964999753749, 0.21380000544013456, 0.2520499983802438, 0.21910000214120373, 0.21784999989904463, 0.21995000133756548, 0.2091999995172955, 0.2085999949485995, 0.21425000159069896, 0.2503499999875203, 0.26855000032810494, 0.26604999584378675, 0.20994999795220792, 0.428999999712687, 0.21529999503400177, 0.2919999969890341, 0.21365000429796055, 0.20665000192821026, 0.3119000029982999, 0.2271999983349815, 0.25579999783076346, 0.2083999934257008, 0.22669999452773482, 0.21090000518597662, 0.23570000485051423, 0.23874999897088856, 0.21240000205580145, 0.27445000159787014, 0.23284999770112336, 0.27874999796040356, 0.21410000044852495, 0.221950002014637, 0.22090000129537657, 0.3976500083808787, 0.22794999676989391, 0.20509999740170315, 0.22130000434117392, 0.20900000527035445, 0.2132500012521632, 0.21099999867146835, 0.24995000421768054, 0.2765499957604334, 0.20824999955948442, 0.41665000753710046, 0.3299999953014776, 0.21135000133654103, 0.21960000594845042, 0.37910000537522137, 0.20870000298600644, 0.21540000307140872, 0.38645000313408673, 0.21700000070268288, 0.2181999952881597, 0.21100000594742596, 0.21824999566888437, 0.22824999905424193, 0.2534000013838522, 0.2183499964303337, 0.21225000091362745, 0.2497000023140572, 0.33445000008214265, 0.2167999991797842, 0.21389999892562628, 0.2135499962605536, 0.2583500026958063, 0.26965000142809004, 0.39185000059660524, 0.22449999960372224, 0.29614999948535115, 0.22140000510262325, 0.22309999621938914, 0.2146499973605387, 0.337949997629039, 0.3912999964086339, 0.3156500024488196, 0.21749999723397195, 0.21449999621836469, 0.23230000806506723, 0.21399999968707561, 0.21910000214120373, 0.2525000018067658, 0.2271999983349815, 0.25510000705253333, 0.21410000044852495, 0.2583500026958063, 0.3125000002910383, 0.27749999571824446, 0.4037000035168603, 0.254700004006736, 0.2638500009197742, 0.2117000040016137, 0.23360000341199338, 0.1977499996428378, 0.2129499989678152, 0.21330000163288787, 0.22139999782666564, 0.33025000448105857, 0.21109999943291768, 0.3566000086721033, 0.2146499973605387, 0.31694999779574573, 0.21879999985685572, 0.20924999989802018, 0.24300000222865492, 0.2853499972843565, 0.2240999965579249, 0.20465000125113875, 0.3794999938691035, 0.4011000055470504, 0.2353999952902086, 0.20899999799439684, 0.2114000017172657, 0.22729999909643084, 0.22325000463752076, 0.21540000307140872, 0.26109999453183264, 0.25224999990314245, 0.23779999173711985, 0.25675000506453216, 0.3097000007983297, 0.334249998559244, 0.207500001124572, 0.2103000006172806, 0.3557500021997839, 0.3263000035076402, 0.25895000726450235, 0.2686000007088296, 0.21025000023655593, 0.20370000129332766, 0.21935000404482707, 0.19954999879701063, 0.210899997910019, 0.27299999783281237, 0.3356500019435771, 0.21179999748710543, 0.33135000558104366, 0.2199000009568408, 0.2363499952480197, 0.20500000391621143, 0.20954999490641057, 0.41744999907677993, 0.34535000304458663, 0.2658500088728033, 0.3246000051149167, 0.3192000003764406, 0.2345000029890798, 0.20209999638609588, 0.20589999621734023, 0.24765000853221864, 0.21264999668346718, 0.21530000230995938, 0.2329500057385303, 0.3399499910301529, 0.20679999579442665, 0.25364999601151794, 0.21614999423036352, 0.20909999875584617, 0.2142000012099743, 0.21070000366307795, 0.2129499989678152, 0.3020999938598834, 0.21994999406160787, 0.22030000400263816, 0.21569999807979912, 0.3513000046950765, 0.2214499982073903, 0.21379999816417694, 0.22805000480730087, 0.22470000112662092, 0.21895000099902973, 0.21484999888343737, 0.44340001477394253, 0.42610000673448667, 0.22555000032298267, 0.3229500071029179, 0.21784999989904463, 0.21559999731834978, 0.30515000980813056, 0.2164999968954362, 0.3980999972554855, 0.21744999685324728, 0.28190000739414245, 0.21674999879905954, 0.25209999876096845, 0.23064999550115317, 0.28935000591445714, 0.28524999652290717, 0.3237000055378303, 0.2995000031660311, 0.20840000070165843, 0.24865000159479678, 0.2163500030292198, 0.2116999967256561, 0.36589999945135787, 0.21144999482203275, 0.20974999642930925, 0.40529998659621924, 0.21909999486524612, 0.21299999934853986, 0.25159999495372176, 0.21625000226777047, 0.25275000371038914, 0.2230500031146221, 0.28684999415418133, 0.2179000002797693, 0.35984999703941867, 0.21195000590523705, 0.21189999824855477, 0.21680000645574182, 0.29260000155773014, 0.21449999621836469, 0.3982499911217019, 0.21459999697981402, 0.26604999584378675, 0.2280000044265762, 0.2514999941922724, 0.22375000116880983, 0.24659999326104298, 0.22405000345315784, 0.2104500017594546, 0.21659999765688553, 0.22610000451095402, 0.2158999996026978, 0.2180500014219433, 0.25270000332966447, 0.2266000010422431, 0.218400004087016, 0.36539998836815357, 0.31540000054519624, 0.21839999681105837, 0.20614999812096357, 0.2195999986724928, 0.29439999343594536, 0.35555000067688525, 0.20440000662347302, 0.22969999554334208, 0.20995000522816554, 0.2066000015474856, 0.23284999770112336, 0.3785499866353348, 0.22039999748812988, 0.21985000057611614, 0.22664999414701015, 0.21700000070268288, 0.39614998968318105, 0.3779500111704692, 0.22879999596625566, 0.291300006210804, 0.2121500001521781, 0.2202500036219135, 0.21320000087143853, 0.2537499967729673, 0.2159000068786554, 0.21264999668346718, 0.22819999867351726, 0.22694999643135816, 0.21969999943394214, 0.4000000044470653, 0.22760000138077885, 0.21879999985685572, 0.2242499977000989, 0.2211499959230423, 0.2318499973625876, 0.4236000095261261, 0.3853999878629111, 0.2149499996448867, 0.32560000545345247, 0.21499999274965376, 0.24200000189011917, 0.21755000489065424, 0.4010499978903681, 0.2146500046364963, 0.39125001057982445, 0.22629999875789508, 0.22814999101683497, 0.2189499937230721, 0.21235000167507678, 0.34324999433010817, 0.22679999528918415, 0.22310000349534675, 0.21710000146413222, 0.22634999913861975, 0.21389999892562628, 0.2182000025641173, 0.21654999727616087, 0.4668499968829565, 0.43584998638834804, 0.22185000125318766, 0.25120000645983964, 0.26700000307755545, 0.22650000028079376, 0.2119999990100041, 0.25004999770317227, 0.21544999617617577, 0.21825000294484198, 0.2526500029489398, 0.21500000002561137, 0.21410000044852495, 0.39504999585915357, 0.22234999778447673, 0.24934999964898452, 0.3799499972956255, 0.21335000201361254, 0.21284999820636585, 0.20740000036312267, 0.2558499982114881, 0.222250004298985, 0.25425000058021396, 0.33775000338209793, 0.2229999954579398, 0.21365000429796055, 0.2160500007448718, 0.32949999877018854, 0.21729999571107328, 0.21399999968707561, 0.2182000025641173, 0.30479999986710027, 0.2266000010422431, 0.21540000307140872, 0.2211500031989999, 0.21350000315578654, 0.32749999809311703, 0.34264998976141214, 0.37804999738000333, 0.23094999778550118, 0.21399999968707561, 0.3358999965712428, 0.2271999983349815, 0.3614000015659258, 0.33485000312794],
  "Optimal Expectation Value": -6.026674270629883,
  "Optimizer durations [ms]": [21.916, 23.342, 18.018, 20.703, 22.227, 21.049, 17.453, 21.816, 24.002, 19.802, 17.25, 21.051, 22.284, 17.743, 16.989, 19.804, 21.363, 22.762, 17.489, 17.447, 20.852, 19.726, 24.874, 20.181, 21.898, 16.846, 23.688, 15.868, 17.746, 24.034, 24.521, 21.261, 18.23, 19.339, 23.228, 22.069, 21.442, 24.709, 19.86, 23.974, 24.373, 15.591, 17.948, 24.912, 18.371, 24.562, 21.451, 23.072, 21.272, 21.017, 20.181, 21.155, 19.708, 21.335, 22.575, 22.792, 17.321, 21.713, 20.108, 22.187, 25.015, 22.209, 20.507, 21.434, 21.004, 21.515, 24.56, 22.181, 23.671, 17.399, 25.004, 20.769, 24.067, 16.45, 18.957, 22.784, 22.347, 19.004, 18.231, 23.198, 22.209, 19.229, 18.321, 18.244, 20.771, 21.483, 18.05, 20.751, 17.53, 16.639, 20.845, 19.305, 22.924, 19.815, 21.724, 14.969, 18.254, 23.115, 24.065, 21.108, 24.208, 21.141, 23.335, 18.548, 19.886, 20.875, 15.673, 23.011, 20.511, 21.274, 20.653, 20.569, 24.965, 22.226, 24.627, 21.009, 22.43, 24.326, 23.635, 19.888, 20.098, 21.629, 17.552, 20.118, 17.598, 15.074, 21.328, 22.487, 20.179, 23.833, 24.883, 12.798, 24.672, 22.316, 24.396, 23.876, 22.112, 19.248, 15.334, 17.161, 17.566, 21.015, 24.478, 19.01, 23.892, 20.561, 20.485, 16.46, 20.818, 18.353, 24.272, 21.244, 23.924, 18.115, 18.821, 21.186, 22.183, 22.349, 19.386, 21.132, 16.176, 20.538, 17.487, 20.141, 20.546, 19.821, 18.902, 20.931, 20.663, 23.783, 21.577, 23.284, 22.162, 22.063, 24.667, 23.68, 22.926, 22.883, 23.345, 21.189, 15.537, 19.977, 22.328, 21.172, 16.314, 21.469, 24.612, 16.604, 20.08, 16.508, 24.35, 15.574, 24.066, 18.88, 24.428, 16.484, 20.966, 17.179, 22.627, 20.74, 21.055, 23.348, 21.974, 19.782, 16.689, 23.186, 17.914, 24.075, 19.924, 20.316, 23.907, 22.108, 17.861, 23.834, 17.929, 23.117, 22.879, 23.886, 18.159, 23.437, 21.141, 24.748, 22.358, 23.687, 23.077, 21.689, 22.411, 12.177, 24.524, 20.823, 17.435, 21.912, 21.362, 17.531, 15.402, 21.15, 19.489, 21.401, 19.899, 19.104, 21.097, 22.0, 19.691, 22.653, 24.474, 17.652, 19.623, 24.127, 14.102, 21.101, 22.347, 24.631, 18.415, 21.624, 19.925, 21.055, 21.707, 20.107, 19.804, 22.107, 22.782, 21.631, 16.807, 24.619, 19.815, 19.572, 22.095, 20.436, 20.529, 24.178, 24.336, 17.939, 20.315, 20.23, 17.823, 21.413, 19.111, 19.961, 20.639, 16.347, 21.409, 15.815, 24.34, 19.203, 17.025, 20.421, 18.446, 24.704, 20.144, 20.693, 24.353, 24.241, 24.848, 23.95, 18.304, 21.061, 20.471, 20.07, 24.016, 20.386, 23.027, 20.594, 20.382, 18.96, 21.714, 15.335, 24.993, 14.496, 17.468, 18.72, 23.184, 23.03, 24.01, 22.861, 21.115, 21.867, 21.301, 22.28, 24.222, 24.226, 24.276, 11.938, 24.331, 17.959, 20.02, 23.278, 24.108, 17.172, 15.75, 20.568, 20.464, 22.465, 17.289, 22.055, 23.308, 22.307, 19.275, 22.086, 24.719, 21.785, 19.22, 17.836, 18.063, 11.755, 23.157, 19.78, 20.814, 24.743, 24.227, 19.411, 17.515, 24.02, 19.935, 24.496, 16.874, 17.104, 24.655, 17.497, 20.69, 24.506, 16.957, 21.25, 19.101, 21.259, 20.081, 20.227, 19.609, 22.756, 20.855, 22.257, 23.046, 24.069, 17.029, 20.315, 18.53, 23.245, 19.737, 21.861, 20.812, 18.162, 24.318, 24.405, 16.839, 16.663, 17.938, 19.331, 15.737, 19.561, 20.115, 21.012, 20.966, 23.34, 21.809, 21.526, 20.291, 24.351, 21.835, 21.037, 20.14, 21.19, 17.274, 21.635, 19.402, 20.699, 21.61, 25.174, 15.027, 21.937, 16.095, 18.666, 22.664, 19.339, 23.907, 15.396, 23.749, 17.195, 22.301, 17.583, 22.313, 20.014, 20.806, 20.867, 19.798, 17.563, 14.274, 15.806, 21.105, 24.762, 20.012, 20.747, 19.851, 24.237, 24.372, 18.444, 18.222, 22.743, 19.468, 21.933, 17.288, 19.522, 18.163, 19.201, 22.634, 23.376, 24.842, 22.07, 24.839, 20.827, 21.617, 16.175, 19.824, 21.965, 23.007, 18.044, 23.851, 24.182, 20.426, 23.97, 19.668, 20.895, 23.623, 22.28, 24.648, 24.523, 23.815, 24.592, 22.131, 24.523, 22.712, 22.793, 17.725, 25.017, 19.402, 24.719, 16.958, 18.798, 20.952, 16.636, 20.124, 21.662, 20.278, 21.796, 20.733, 20.66, 22.39, 19.578, 17.384, 22.032, 24.579, 22.892, 24.093, 15.909, 19.914, 22.491, 18.971, 21.608, 18.674, 22.787, 18.429, 17.296, 18.613, 20.624, 20.444, 23.604, 20.245, 20.791, 20.301, 20.014, 24.28, 22.418, 18.849, 21.767, 24.094, 19.776, 22.213, 24.48, 22.53, 17.675, 19.358, 20.595, 21.322, 24.554, 20.726, 24.163, 23.257, 20.549, 20.991, 20.139, 17.431, 22.142, 18.909, 20.881, 17.401, 18.199, 21.347, 19.849, 22.877, 19.874, 23.334, 18.128, 21.397, 22.155, 24.861, 21.839, 23.375, 18.376, 20.83, 22.174, 19.751, 22.757, 18.458, 20.418, 23.667, 19.571, 19.036],
  "Optimizer iterations": 555,
  "Optimizer params": [0.5950885886676381, 0.853169728174954, 0.685691406987525, 0.7909871389708375, 0.7272870437806418, 0.5259932002640191, 0.5003571743895207, 0.4962464176445064, 0.5019174231467776, 0.5020099395691786, 0.5032097602366786, 0.5494834914123499, 0.5835276165291832, 0.6040492822069374, 0.6447972015139819, 0.5187524738847836, 0.5034166942174295, 0.4959773659829667, 0.499990361915735, 0.4997570834051526],
  "P": 0,
  "Problem": "IC",
  "QPU": "7000000",
  "Qubits": 5,
  "Shots": 4096,
  "Size": 5,
  "Total Algorithm duration [s]": 11.561,
  "Total Classic duration [s]": 11.418124300142459,
  "Total Quantum duration [s]": 0.1428756998575409
}
