{
  "Depth": 239.0,
  "Expectation Value": -17.46808433532715,
  "Job durations [ms]": [1.5928, 1.5841, 1.5539, 1.5826, 1.8446, 1.6186, 1.5875, 1.7215, 1.5827, 1.5923, 1.5877000000000001, 1.5742, 1.7547000000000001, 1.5961, 1.5467, 1.6615, 1.9603, 1.5714, 1.5614999999999999, 1.6112, 1.5647, 1.5465, 1.607, 1.6002, 1.5635000000000001, 1.6, 1.8194000000000001, 1.5809000000000002, 1.6049, 1.8553, 1.824, 1.5767000000000002, 1.5999, 1.5965, 1.5801, 1.5723, 1.5841, 1.921, 1.6081999999999999, 1.601, 1.8284, 1.7351999999999999, 1.5790000000000002, 1.6371, 1.9670999999999998, 1.6340000000000001, 1.6144, 1.6157000000000001, 1.77, 1.6294, 1.6065, 1.8220999999999998, 1.5747, 1.5986, 1.6182, 1.8193000000000001, 1.8733, 1.6003, 1.5724999999999998, 1.6019, 1.7879, 1.5785, 1.605, 1.7332, 1.6020999999999999, 1.8375, 1.5983, 1.5795, 1.595, 1.6086, 1.8515000000000001, 1.5958999999999999, 1.5842, 1.8345, 1.939, 1.8269, 1.6137000000000001, 1.7781, 1.9672, 1.8525, 1.59, 1.6141, 1.8212, 1.6194, 1.5878, 1.5862999999999998, 1.5584, 1.5362, 1.7708000000000002, 1.5713000000000001, 1.5602, 1.5857, 1.9835, 1.6078],
  "Optimal Expectation Value": -18.0,
  "Optimizer durations [ms]": [27.594, 27.436, 27.069, 27.2, 22.853, 27.83, 27.356, 24.053, 24.469, 27.498, 27.453, 24.586, 22.562, 27.657, 27.105, 27.139, 25.041, 27.468, 25.22, 26.309, 27.199, 27.254, 27.572, 27.398, 27.642, 27.566, 23.799, 27.306, 27.673, 27.175, 27.147, 27.278, 27.051, 26.617, 27.459, 27.287, 27.427, 24.133, 27.707, 27.445, 27.07, 27.16, 27.582, 28.056, 25.481, 27.791, 27.76, 27.591, 23.933, 28.015, 27.759, 26.744, 24.441, 27.637, 27.659, 23.73, 22.54, 27.444, 27.393, 27.595, 24.465, 24.442, 24.851, 25.263, 27.354, 26.868, 27.57, 27.467, 27.597, 27.627, 24.165, 27.548, 27.525, 26.967, 26.972, 23.799, 27.777, 26.873, 24.02, 27.251, 27.446, 27.781, 26.923, 27.989, 27.391, 27.672, 27.162, 27.29, 26.303, 27.735, 27.524, 26.538, 26.062, 27.705],
  "Optimizer iterations": 94,
  "Optimizer params": [0.06586858919067663, 0.949793047269274, 0.36569586078955507, 0.6600572800162862, 0.5398067469064506, 0.9926338082924936],
  "P": 3,
  "Problem": "MCP",
  "QPU": "7000000",
  "Qubits": 13,
  "Shots": 4096,
  "Size": 13,
  "Total Algorithm duration [s]": 2.505,
  "Total Classic duration [s]": 2.3484483999999997,
  "Total Quantum duration [s]": 0.15655160000000004
}
