{
  "Depth": 239.0,
  "Expectation Value": -17.494504928588867,
  "Job durations [ms]": [1.6244, 1.6045, 1.6073000000000002, 1.6013, 1.5857, 1.5761, 1.5776, 1.7586, 1.5678, 1.5735000000000001, 1.5973000000000002, 1.9558000000000002, 1.5625, 1.5753, 1.5782, 1.7531999999999999, 1.5682999999999998, 1.5414999999999999, 1.8472, 1.7347000000000001, 1.6067, 1.5762, 2.0021, 1.9685000000000001, 1.9891, 1.5867, 1.5547, 1.6042999999999998, 1.5839, 1.5841, 1.5677, 1.5505, 1.8082, 1.5517, 1.6089, 1.7072999999999998, 1.7834999999999999, 1.5724, 1.5937, 1.8336, 1.6414000000000002, 1.5621999999999998, 1.5666, 1.5845, 1.5878, 1.5611, 1.5748, 1.5708, 1.5790000000000002, 1.5875, 1.5736999999999999, 1.589, 1.7973, 1.5847, 1.6075, 1.7871, 1.565, 1.5825, 1.5606, 1.7689, 1.578, 1.5553, 1.7518, 1.5856, 1.7516999999999998, 1.6165, 1.6496, 1.5858, 1.59, 1.7799, 1.6068, 1.6241, 1.5778999999999999, 1.9872, 1.5721, 1.5927, 1.5838, 1.8085, 1.5795, 1.5897999999999999, 1.593, 1.9005999999999998, 1.5975, 1.5943],
  "Optimal Expectation Value": -18.0,
  "Optimizer durations [ms]": [27.805, 27.601, 27.592, 27.569, 24.653, 26.937, 27.324, 26.726, 24.649, 27.202, 27.653, 23.736, 27.22, 27.214, 26.803, 24.015, 27.254, 27.067, 27.016, 24.044, 22.814, 27.417, 26.822, 23.556, 26.91, 27.315, 27.026, 27.647, 27.457, 24.864, 27.172, 26.92, 26.714, 24.132, 27.989, 23.969, 23.47, 27.299, 27.557, 27.189, 25.638, 26.611, 27.318, 27.184, 27.49, 24.518, 24.819, 27.506, 27.508, 27.434, 27.538, 27.547, 23.67, 27.521, 27.729, 26.405, 27.354, 27.421, 27.208, 23.455, 27.233, 27.137, 26.597, 24.513, 26.732, 27.71, 28.114, 27.338, 27.44, 24.364, 24.617, 27.651, 27.176, 23.247, 23.686, 28.213, 27.386, 26.869, 27.471, 27.52, 27.156, 26.808, 27.4, 27.442],
  "Optimizer iterations": 84,
  "Optimizer params": [0.9537743877250161, 0.11768464658514596, 0.5390686583207683, 0.3166951503204514, 0.07390967803509502, 0.9503065287295476],
  "P": 3,
  "Problem": "MCP",
  "QPU": "7000000",
  "Qubits": 13,
  "Shots": 4096,
  "Size": 13,
  "Total Algorithm duration [s]": 2.226,
  "Total Classic duration [s]": 2.0876914,
  "Total Quantum duration [s]": 0.13830859999999998
}
