{
  "Depth": 239.0,
  "Expectation Value": -17.39583396911621,
  "Job durations [ms]": [1.599, 1.7516, 1.7168999999999999, 1.6235, 1.7547000000000001, 1.7064000000000001, 1.5198, 1.7806, 1.6383, 1.7395, 1.6988, 1.7182, 1.7197, 1.5991, 1.5885, 1.7217, 1.7336, 1.7022000000000002, 1.5605, 1.7121, 1.7489999999999999, 1.761, 1.593, 1.6316, 1.7995, 1.8443, 1.738, 1.7587, 1.7141000000000002, 1.747, 1.7516, 1.7365, 1.8359999999999999, 1.7586, 1.7528000000000001, 1.6305, 1.7328999999999999, 1.6165, 1.6100999999999999, 1.5587000000000002, 1.6144, 1.7156, 1.7426, 1.5054999999999998, 1.7355999999999998, 1.9689999999999999, 1.7411, 1.7616, 1.7368999999999999, 1.7307, 1.8247, 1.7718, 1.5867, 1.7634, 1.738, 1.5917999999999999, 1.7358, 1.7407, 1.5992, 1.676, 1.8780999999999999, 1.7415, 1.6098, 1.5827, 1.7383, 1.7428000000000001, 1.7677, 1.6117, 1.7914, 1.7187999999999999, 1.7454, 1.7223, 1.5862999999999998],
  "Optimal Expectation Value": -18.0,
  "Optimizer durations [ms]": [27.848, 24.27, 23.614, 27.747, 24.319, 23.575, 21.983, 24.643, 22.957, 24.112, 24.649, 22.07, 22.105, 27.568, 27.572, 24.048, 23.892, 21.016, 22.09, 23.914, 24.287, 21.847, 27.306, 28.009, 24.812, 23.101, 20.285, 24.165, 23.8, 19.773, 19.714, 24.196, 27.697, 24.421, 24.527, 28.121, 20.813, 27.652, 27.783, 27.137, 27.533, 21.421, 24.238, 21.688, 24.176, 23.812, 24.109, 24.296, 26.772, 24.03, 25.042, 24.39, 27.549, 25.013, 24.198, 26.101, 22.644, 22.442, 27.971, 23.591, 25.521, 22.519, 26.641, 27.446, 23.973, 24.04, 24.287, 26.33, 24.719, 20.944, 23.97, 23.869, 24.976],
  "Optimizer iterations": 73,
  "Optimizer params": [0.9688207633798951, 0.34478571331288854, 0.07179601637916007, 0.6165717773048781, 0.6168540207653859, 0.9227926426057051],
  "P": 3,
  "Problem": "MCP",
  "QPU": "7000000",
  "Qubits": 13,
  "Shots": 4096,
  "Size": 13,
  "Total Algorithm duration [s]": 1.783,
  "Total Classic duration [s]": 1.658577,
  "Total Quantum duration [s]": 0.12442300000000002
}
