{
  "Depth": 10.5,
  "Expectation Value": -4.706988334655762,
  "Job durations [ms]": [0.3131000048597343, 0.18804999854182824, 0.18475000251783058, 0.16959999629762024, 0.16804999904707074, 0.1724499961710535, 0.17389999993611127, 0.170599996636156, 0.16324999887729064, 0.1690499993856065, 0.18974999693455175, 0.29400000494206324, 0.29424999229377136, 0.2749499981291592, 0.33524999889777973, 0.18855000234907493, 0.1717000050120987, 0.17404999380232766, 0.2412999965599738, 0.17389999993611127, 0.170599996636156, 0.22935000015422702, 0.16740000137360767, 0.16529999993508682, 0.18049999926006421, 0.3604500016081147, 0.28920000477228314, 0.1839500037021935, 0.2042499982053414, 0.16799999866634607, 0.2898500024457462, 0.1738499995553866, 0.22699999681208283, 0.1644000003580004, 0.2080000049318187, 0.22670000907965004, 0.258100000792183, 0.16370000230381265, 0.37810001231264323, 0.30839999089948833, 0.2078500037896447, 0.20194999524392188, 0.3802499995799735, 0.20724999922094867, 0.16840000171214342, 0.3620499846874736, 0.16855000285431743, 0.16999999934341758, 0.20855000184383243, 0.17205000040121377, 0.207349999982398, 0.16375000268453732, 0.20390000281622633, 0.1766499990480952, 0.2342000007047318, 0.17165000463137403, 0.1677999971434474, 0.17980000120587647, 0.29829999402863905, 0.22045000514481217, 0.17505000141682103, 0.3242999955546111, 0.16694999794708565, 0.16445000073872507, 0.17025000124704093, 0.17759999900590628, 0.20709999807877466, 0.17055000353138894, 0.32780000037746504, 0.16929999401327223, 0.17074999777833, 0.1765000051818788, 0.16784999752417207, 0.171050000062678, 0.1766499990480952, 0.17464999837102368, 0.2881499967770651, 0.1771000024746172, 0.21469999774126336, 0.167350000992883, 0.3604500088840723, 0.24695000320207328, 0.1740000006975606, 0.1807000007829629, 0.20364999363664538, 0.16259999392786995, 0.21320000087143853, 0.3140499975415878, 0.23690000671194866, 0.17164999735541642, 0.17789999401429668, 0.16744999447837472, 0.2045500004896894, 0.1683999944361858, 0.18249999993713573, 0.17460000526625663, 0.17600000137463212, 0.302400003420189, 0.1806499931262806, 0.1799000019673258, 0.16745000175433233, 0.19350000366102904, 0.2332500007469207, 0.17234999540960416, 0.16519999917363748, 0.17624999600229785, 0.17549999756738544, 0.16879999748198316, 0.2811500016832724, 0.34655000490602106, 0.20504999702097848, 0.203950003196951, 0.1727499984554015, 0.17174999811686575, 0.17595000099390745, 0.27090000367024913, 0.1916999972308986, 0.16960000357357785, 0.1701500004855916, 0.15995000285329297, 0.17505000141682103, 0.2211499959230423, 0.3041500021936372, 0.1704500027699396, 0.23300000611925498, 0.3305000063846819, 0.20175000099698082, 0.18060000002151355, 0.3312500048195943, 0.2135500035365112, 0.17545000446261838, 0.3243999963160604, 0.17099999968195334, 0.17844999820226803, 0.29985000583110377, 0.17515000217827037, 0.18614999862620607, 0.3416500039747916, 0.3662499875645153, 0.21040000137872994, 0.1847000021371059, 0.30499999411404133, 0.17150000348920003, 0.17169999773614109, 0.1647000026423484, 0.1738499995553866, 0.1697000043350272, 0.1765000051818788, 0.16429999959655106, 0.20640000002458692, 0.3397499895072542, 0.16445000073872507, 0.16770000365795568, 0.16774999676272273, 0.21065000328235328, 0.17980000120587647, 0.24775000929366797, 0.35465001565171406, 0.20790000417036936, 0.20514999778242782, 0.15935000556055456, 0.1660999987507239, 0.17235000268556178, 0.3331499974592589, 0.17439999646740034, 0.17634999676374719, 0.17920000391313806, 0.17040000238921493, 0.1685499955783598, 0.16504999803146347, 0.17644999752519652, 0.20554999355226755, 0.21079999714856967, 0.17644999752519652, 0.17249999655177817, 0.16510000568814576, 0.20645000040531158, 0.17084999853977934, 0.3082999974139966, 0.18080000154441223, 0.16545000107726082, 0.18780000391416252, 0.2922500061686151, 0.18769999587675557, 0.36150000960333273, 0.1714999962132424, 0.16334999963873997, 0.16214999777730554, 0.31570000282954425, 0.18759999511530623, 0.17615000251680613, 0.20390000281622633, 0.17795000167097896, 0.2117000040016137, 0.1769500013324432, 0.18289999570697546, 0.1661000060266815, 0.3890500156558119, 0.23334999423241243, 0.2588499992270954, 0.16535000031581149, 0.3374500010977499, 0.17600000137463212, 0.16325000615324825, 0.21359999664127827, 0.1754000040818937, 0.27245000819675624, 0.1786499997251667, 0.1603499986231327, 0.2090499983751215, 0.16239999968092889, 0.218400004087016, 0.16709999908925965, 0.33525000617373735, 0.17344999650958925, 0.17500000103609636, 0.17210000078193843, 0.3595000016503036, 0.17484999989392236, 0.1642499992158264, 0.19555000471882522, 0.18635000014910474, 0.2589499927125871, 0.2091999995172955, 0.16859999595908448, 0.17954999930225313, 0.17115000082412735, 0.16909999976633117, 0.17490000027464703, 0.17064999701688066, 0.31090000265976414, 0.36639998870668933, 0.1718499988783151, 0.16474999574711546, 0.16714999946998432, 0.36380001256475225, 0.16900000628083944, 0.18465000175638124, 0.1697999978205189, 0.3169999909005128, 0.1649999976507388, 0.16665000293869525, 0.1795999996829778, 0.18015000387094915, 0.1667500037001446, 0.1777500001480803, 0.1768000001902692, 0.20614999812096357, 0.17655000556260347, 0.1733999961288646, 0.19289999909233302, 0.2103000006172806, 0.17219999426743016, 0.17420000222045928, 0.16509999841218814, 0.16840000171214342, 0.17995000234805048, 0.18069999350700527, 0.28480000037234277, 0.17330000264337286, 0.3379500049049966, 0.17729999672155827, 0.20685000345110893, 0.16899999900488183, 0.3582499848562293, 0.20924999989802018, 0.1734000034048222, 0.16925000090850517, 0.1733999961288646, 0.3478500075289048, 0.1754000040818937, 0.2515500018489547, 0.1773999974830076, 0.19394999981159344, 0.27275000320514664, 0.19545000395737588, 0.16415000573033467, 0.15949999942677096, 0.3744000132428482, 0.17064999701688066, 0.16950000281212851, 0.17349999689031392, 0.1714999962132424, 0.20440000662347302, 0.17895000200951472, 0.1592499975231476, 0.20390000281622633, 0.18350000027567148, 0.17799999477574602, 0.17139999545179307, 0.20814999879803509, 0.28199999360367656, 0.17985000158660114, 0.2995000031660311, 0.17025000124704093, 0.204100004339125, 0.16679999680491164, 0.17074999777833, 0.17345000378554687, 0.3397499967832118, 0.1749500006553717, 0.21179999748710543, 0.18480000289855525, 0.17154999659396708, 0.2162000018870458, 0.16884999786270782, 0.17600000137463212, 0.16465000226162374, 0.20310000400058925, 0.36594999983208254, 0.18000000272877514, 0.16710000636521727, 0.3249000001233071, 0.19239999528508633, 0.1683999944361858, 0.17474999913247302, 0.17700000171316788, 0.36019999970449135, 0.1992999968933873, 0.1734000034048222, 0.17344999650958925, 0.17910000315168872, 0.1769500013324432, 0.1740000006975606, 0.17174999811686575, 0.16709999908925965, 0.30300000798888505, 0.17639999714447185, 0.16725000023143366, 0.27445000159787014, 0.16519999917363748, 0.17470000602770597, 0.1812999980757013, 0.18940000154543668, 0.1784999985829927, 0.1760500017553568, 0.17644999752519652, 0.20600000425474718, 0.1926500044646673, 0.24174999998649582, 0.21624999499181286, 0.15859999984968454, 0.16529999993508682, 0.20685000345110893, 0.2844499977072701, 0.17559999832883477, 0.2347999979974702, 0.17884999397210777, 0.20355000015115365, 0.17125000158557668, 0.1923000017995946, 0.20429999858606607, 0.17130000196630135, 0.18645000091055408, 0.3096000000368804, 0.3111000041826628, 0.28744999872287735, 0.17519999528303742, 0.18295000336365774, 0.17125000158557668, 0.17634999676374719, 0.1838000025600195, 0.1740000006975606, 0.1756999990902841, 0.21640000340994447, 0.23389999842038378, 0.17425000260118395, 0.1704500027699396, 0.17115000082412735, 0.1704500027699396, 0.30085000616963953, 0.19245000294176862, 0.17410000145900995, 0.20475000201258808, 0.20330000552348793, 0.33770000300137326, 0.1738499995553866, 0.17705000209389254, 0.16955000319285318, 0.18489999638404697, 0.23549999605165794, 0.1816000003600493, 0.18154999997932464, 0.3005500038852915, 0.16915000014705583, 0.31689999741502106, 0.20644999312935397, 0.2235000065411441, 0.2624500048113987, 0.29459999495884404, 0.16599999798927456, 0.2332500007469207, 0.16540000069653615, 0.1766499990480952, 0.15775000065332279, 0.3002499943249859, 0.1747999995131977, 0.21415000082924962, 0.1638999965507537, 0.18475000251783058, 0.3597000104491599, 0.1794499985408038, 0.1783499974408187, 0.3291000030003488, 0.1823999991756864, 0.16635000065434724, 0.3504999913275242, 0.16399999731220305, 0.17004999972414225, 0.1680999994277954, 0.37545001396210864],
  "Optimal Expectation Value": -4.75877046585083,
  "Optimizer durations [ms]": [19.277, 21.045, 18.271, 20.029, 19.856, 20.201, 19.711, 16.3, 18.894, 20.638, 23.734, 17.864, 23.535, 20.505, 20.03, 16.094, 23.582, 21.563, 19.905, 23.651, 23.368, 17.519, 18.789, 18.715, 19.103, 19.815, 20.755, 23.324, 17.377, 16.491, 22.492, 21.714, 15.086, 22.821, 22.292, 18.59, 22.637, 19.404, 22.195, 23.209, 17.007, 19.645, 20.379, 15.777, 23.392, 19.625, 21.252, 21.033, 17.775, 15.816, 15.163, 19.296, 16.918, 19.469, 15.787, 23.02, 23.118, 16.692, 16.007, 17.161, 20.666, 22.768, 23.615, 18.638, 23.528, 22.918, 18.031, 23.762, 16.243, 18.992, 22.203, 18.631, 22.578, 23.583, 17.738, 21.552, 22.874, 20.815, 19.459, 21.435, 22.047, 21.504, 23.253, 16.917, 19.796, 20.04, 18.998, 19.139, 17.605, 20.827, 15.209, 20.189, 19.608, 15.98, 19.977, 19.48, 19.338, 23.217, 22.486, 18.803, 18.242, 16.816, 18.897, 15.82, 23.388, 21.049, 22.926, 21.243, 18.299, 20.184, 15.926, 18.35, 19.002, 18.326, 20.427, 20.039, 18.014, 21.965, 15.5, 21.494, 21.019, 18.75, 21.709, 23.18, 19.486, 19.252, 19.588, 22.354, 20.579, 23.003, 19.721, 22.972, 19.509, 19.139, 21.792, 23.656, 22.468, 19.216, 19.463, 16.258, 18.868, 19.936, 19.11, 20.364, 18.417, 20.168, 16.949, 19.218, 16.028, 19.449, 18.342, 20.561, 20.909, 15.368, 18.298, 22.381, 18.141, 20.209, 18.784, 13.488, 23.626, 23.484, 18.538, 22.829, 19.238, 16.212, 19.941, 12.496, 23.621, 21.473, 23.736, 18.841, 14.895, 23.903, 19.386, 18.773, 15.743, 21.702, 20.777, 23.793, 20.683, 23.863, 19.529, 21.559, 18.572, 20.915, 18.43, 18.807, 20.326, 14.066, 20.3, 11.808, 18.91, 19.563, 18.861, 22.93, 19.457, 18.89, 22.871, 19.309, 16.835, 19.104, 19.442, 20.181, 16.126, 23.679, 18.905, 17.549, 21.671, 14.691, 17.852, 11.208, 20.61, 21.512, 17.282, 18.777, 21.428, 17.694, 19.527, 15.626, 23.873, 20.003, 19.042, 14.588, 21.015, 18.651, 23.51, 16.329, 23.805, 23.674, 18.822, 20.946, 17.952, 22.975, 23.686, 15.028, 19.15, 21.504, 20.41, 22.412, 16.703, 18.869, 15.466, 20.353, 19.738, 20.88, 23.666, 15.37, 15.528, 21.247, 18.977, 17.18, 17.471, 17.461, 19.753, 19.58, 21.45, 22.571, 21.717, 22.376, 15.96, 23.9, 17.223, 17.465, 21.996, 17.972, 18.168, 22.361, 19.042, 17.623, 21.281, 19.004, 23.899, 16.99, 22.785, 20.339, 15.913, 23.747, 20.395, 16.366, 23.301, 20.077, 18.631, 20.229, 17.009, 14.868, 19.638, 18.975, 22.278, 15.149, 15.299, 15.147, 23.539, 18.96, 19.454, 16.603, 20.284, 19.048, 17.105, 21.893, 23.527, 17.347, 20.878, 18.352, 15.301, 23.635, 21.584, 19.15, 14.865, 20.002, 17.303, 22.483, 21.754, 22.684, 23.534, 23.017, 19.142, 18.806, 20.595, 19.209, 21.008, 21.71, 18.242, 23.405, 16.667, 23.8, 20.729, 20.105, 20.356, 18.793, 20.504, 14.038, 19.832, 19.299, 20.59, 21.702, 23.368, 12.477, 20.897, 20.423, 15.647, 22.346, 20.52, 13.572, 19.266, 21.51, 18.514, 21.333, 14.814, 12.792, 23.532, 14.743, 23.52, 20.859, 18.177, 17.528, 20.61, 23.39, 21.08, 18.017, 23.665, 23.556, 18.663, 18.92, 13.645, 16.604, 22.186, 16.38, 16.502, 19.105, 18.467, 20.561, 23.428, 14.928, 20.693, 17.744, 21.683, 16.427, 17.088, 23.124, 21.317, 21.505, 23.792, 22.517, 23.51, 16.346, 16.109, 19.079, 18.32, 22.502, 23.583, 17.852, 20.616, 14.642, 23.353, 15.846, 17.823, 17.737, 19.35, 19.614, 14.84, 23.349, 21.844, 22.461, 21.69, 17.683, 23.126, 16.624, 16.295, 16.952, 19.73],
  "Optimizer iterations": 411,
  "Optimizer params": [0.5794672854640197, 0.9054847385443412, 0.6326955265395723, 0.8466755769439686, 0.48124644979097436, 0.48711136850562825, 0.5063049317795242, 0.999947636184275, 0.5076743224338087, 0.4831000170972913, 0.4238197137708791, 0.3576513002140178, 0.48839515792577054, 0.5116113790436124, 0.5020915595925566, 0.5016444818822053],
  "P": 0,
  "Problem": "IC",
  "QPU": "7000000",
  "Qubits": 4,
  "Shots": 4096,
  "Size": 4,
  "Total Algorithm duration [s]": 8.075,
  "Total Classic duration [s]": 7.989153449870354,
  "Total Quantum duration [s]": 0.08584655012964504
}
