{
  "Depth": 10.5,
  "Expectation Value": -4.706988334655762,
  "Job durations [ms]": [0.1789499947335571, 0.2059500038740225, 0.3849500062642619, 0.33355000778101385, 0.16560000221943483, 0.21394999930635095, 0.28229999588802457, 0.17574999947100878, 0.18014999659499153, 0.17824999667936936, 0.28374999965308234, 0.17474999913247302, 0.16460000188089907, 0.1659499976085499, 0.26094999338965863, 0.17734999710228294, 0.1756999990902841, 0.17330000264337286, 0.3500499951769598, 0.1724499961710535, 0.26205000176560134, 0.2405499981250614, 0.16755000251578167, 0.28899999597342685, 0.1766499990480952, 0.167350000992883, 0.1655999949434772, 0.18324999837204814, 0.16789999790489674, 0.16974999743979424, 0.33030000486178324, 0.17734999710228294, 0.1894999950309284, 0.19065000378759578, 0.1743500033626333, 0.16524999955436215, 0.16324999887729064, 0.1662499998928979, 0.16869999672053382, 0.319649996527005, 0.17445000412408262, 0.17160000425064936, 0.2059499965980649, 0.24595000286353752, 0.17065000429283828, 0.363499995728489, 0.16704999870853499, 0.17424999532522634, 0.17585000023245811, 0.2200499948230572, 0.18745000124908984, 0.1764999979059212, 0.28860000747954473, 0.3168499970342964, 0.17284999921685085, 0.34050000249408185, 0.16295000386890024, 0.3275499984738417, 0.17379999917466193, 0.16999999934341758, 0.18065000040223822, 0.17639999714447185, 0.1759999940986745, 0.21370000467868522, 0.18234999879496172, 0.19154999608872458, 0.17260000458918512, 0.17174999811686575, 0.1731999946059659, 0.1735499972710386, 0.1697999978205189, 0.16360000154236332, 0.1769500013324432, 0.16909999976633117, 0.16879999748198316, 0.1648499965085648, 0.237000007473398, 0.1635999942664057, 0.2056499943137169, 0.3746000074897893, 0.18170000112149864, 0.17194999963976443, 0.37009999505244195, 0.17904999549500644, 0.18519999866839498, 0.17305000073974952, 0.16630000027362257, 0.1684500020928681, 0.2154500034521334, 0.2079499972751364, 0.17150000348920003, 0.1747999995131977, 0.18465000175638124, 0.30574999254895374, 0.23049999435897917, 0.17120000120485201, 0.20819999917875975, 0.1831499976105988, 0.20754999422933906, 0.17314999422524124, 0.1904500022646971, 0.2599500003270805, 0.17124999430961907, 0.17684999329503626, 0.2269000033265911, 0.1732500022626482, 0.34454999695299193, 0.17895000200951472, 0.3371999991941266, 0.1666999960434623, 0.16294999659294263, 0.3587500104913488, 0.3318999952170998, 0.19544999668141827, 0.29614999948535115, 0.17279999883612618, 0.2426999999443069, 0.17255000420846045, 0.17935000505531207, 0.17564999870955944, 0.1828499953262508, 0.1690499993856065, 0.17659999866737053, 0.17725000361679122, 0.1764999979059212, 0.16150000010384247, 0.16770000365795568, 0.18260000069858506, 0.26185000024270266, 0.21459999697981402, 0.17284999921685085, 0.16994999896269292, 0.33245001395698637, 0.18514999828767031, 0.18404999718768522, 0.21084999752929434, 0.17700000171316788, 0.17410000145900995, 0.16604999836999923, 0.17305000073974952, 0.21459999697981402, 0.17190000653499737, 0.2832999962265603, 0.1687500043772161, 0.2117000040016137, 0.17654999828664586, 0.16419999883510172, 0.16739999409765005, 0.35829999251291156, 0.17740000475896522, 0.18350000027567148, 0.17269999807467684, 0.1747999995131977, 0.2829500081134029, 0.20979999681003392, 0.203650000912603, 0.26885000261245295, 0.16869999672053382, 0.17180000577354804, 0.3674999825307168, 0.18570000247564167, 0.17700000171316788, 0.16275000234600157, 0.17349999689031392, 0.17029999435180798, 0.17924999701790512, 0.1647000026423484, 0.2055000004475005, 0.2057999954558909, 0.17389999993611127, 0.2211499959230423, 0.16545000107726082, 0.21875000675208867, 0.1720000000204891, 0.1860999982454814, 0.21320000087143853, 0.1768000001902692, 0.3496499848552048, 0.1740000006975606, 0.23629999486729503, 0.16464999498566613, 0.17464999837102368, 0.20229999790899456, 0.17514999490231276, 0.17995000234805048, 0.29999999242136255, 0.34484999923733994, 0.32065000414149836, 0.1777500001480803, 0.18094999541062862, 0.1634500004001893, 0.18659999477677047, 0.16340000001946464, 0.30920000426704064, 0.16850000247359276, 0.32470000587636605, 0.16385000344598666, 0.2056500015896745, 0.174449996848125, 0.17980000120587647, 0.16880000475794077, 0.1720000000204891, 0.1830000037443824, 0.1642499992158264, 0.17159999697469175, 0.1697999978205189, 0.229199999012053, 0.17809999553719535, 0.23300000611925498, 0.17395000031683594, 0.17654999828664586, 0.17610000213608146, 0.26625000464264303, 0.18575000285636634, 0.17500000103609636, 0.16635000065434724, 0.31259999377653, 0.19054999575018883, 0.3648999918368645, 0.20470000163186342, 0.3314499990665354, 0.1677999971434474, 0.2962500002468005, 0.21114999981364235, 0.22334999812301248, 0.2297000028192997, 0.21534999541472644, 0.17004999972414225, 0.24064999888651073, 0.35644998570205644, 0.20994999795220792, 0.21800000831717625, 0.20509999740170315, 0.3412500082049519, 0.31519999902229756, 0.17225000192411244, 0.3692999962368049, 0.17529999604448676, 0.18400000408291817, 0.1632999992580153, 0.16999999934341758, 0.16805000632302836, 0.17545000446261838, 0.16730000061215833, 0.3427499905228615, 0.18889999773819, 0.2989000058732927, 0.18265000107930973, 0.24714999744901434, 0.17705000209389254, 0.17334999574813992, 0.18655000167200342, 0.16999999934341758, 0.1770999951986596, 0.1720000000204891, 0.26434999745106325, 0.17674999980954453, 0.16909999976633117, 0.17970000044442713, 0.1762000028975308, 0.17120000120485201, 0.1674999948590994, 0.1604999997653067, 0.3715999991982244, 0.2114000017172657, 0.16480000340379775, 0.1683999944361858, 0.36100001307204366, 0.17315000150119886, 0.1774500051396899, 0.16119999781949446, 0.1910499995574355, 0.1788000008673407, 0.1784999985829927, 0.22124999668449163, 0.17300000035902485, 0.36440000985749066, 0.17970000044442713, 0.16590000450378284, 0.167199999850709, 0.2101499994751066, 0.21035000099800527, 0.16965000395430252, 0.23130000772653148, 0.16840000171214342, 0.17349999689031392, 0.1839500037021935, 0.16804999904707074, 0.16960000357357785, 0.17595000099390745, 0.1616000008652918, 0.1791500035324134, 0.35790001129498705, 0.17700000171316788, 0.20529999892460182, 0.18124999769497663, 0.17330000264337286, 0.3229999929317273, 0.17055000353138894, 0.16759999562054873, 0.1876499954960309, 0.32159999682335183, 0.1692000005277805, 0.29535000066971406, 0.16725000023143366, 0.1831499976105988, 0.18400000408291817, 0.18150000687455758, 0.3373500003363006, 0.32560000545345247, 0.16975000471575186, 0.171050000062678, 0.1662499998928979, 0.1860999982454814, 0.18000000272877514, 0.3403000009711832, 0.21234999439911917, 0.18714999896474183, 0.17264999769395217, 0.16834999405546114, 0.17139999545179307, 0.17010000010486692, 0.16390000382671133, 0.1683999944361858, 0.16730000061215833, 0.17500000103609636, 0.17300000035902485, 0.34380000579403713, 0.1759999940986745, 0.20909999875584617, 0.15824999718461186, 0.16449999384349212, 0.16939999477472156, 0.17484999989392236, 0.17279999883612618, 0.17085000581573695, 0.18784999701892957, 0.20404999668244272, 0.17420000222045928, 0.16334999963873997, 0.36350001028040424, 0.17315000150119886, 0.22924999939277768, 0.16324999887729064, 0.17824999667936936, 0.16820000018924475, 0.17659999866737053, 0.15875000099185854, 0.17715000285534188, 0.17789999401429668, 0.1688999982434325, 0.21534999541472644, 0.22650000028079376, 0.1718499988783151, 0.17795000167097896, 0.167500002135057, 0.2899000028264709, 0.16190000314963982, 0.15980000171111897, 0.17049999587470666, 0.381349993404001, 0.17794999439502135, 0.16584999684710056, 0.17515000217827037, 0.167500002135057, 0.17595000099390745, 0.322899992170278, 0.17590000061318278, 0.17064999701688066, 0.17145000310847536, 0.1662499998928979, 0.16714999946998432, 0.1747999995131977, 0.2045500004896894, 0.30059999699005857, 0.3024499965249561, 0.18689999706111848, 0.16584999684710056, 0.21405000006780028, 0.17284999921685085, 0.3839499913738109, 0.319799997669179, 0.28860000747954473, 0.18434999947203323, 0.2078500037896447, 0.1703000016277656, 0.17659999866737053, 0.17159999697469175, 0.2965499952551909, 0.16334999963873997, 0.20895000488962978, 0.17255000420846045, 0.26994999643648043, 0.1834499998949468, 0.36589999217540026, 0.21345000277506188, 0.2853500045603141, 0.21839999681105837, 0.15934999828459695, 0.16855000285431743, 0.18094999541062862, 0.17719999596010894, 0.22570000146515667, 0.17004999972414225, 0.17884999397210777, 0.17405000107828528, 0.2986000035889447, 0.17965000006370246, 0.17984999431064352, 0.18104999617207795, 0.17004999972414225],
  "Optimal Expectation Value": -4.75877046585083,
  "Optimizer durations [ms]": [16.344, 18.542, 21.743, 19.382, 23.348, 18.034, 19.769, 19.051, 20.434, 21.469, 23.246, 21.515, 20.534, 22.399, 14.725, 19.842, 19.503, 20.208, 22.887, 21.476, 17.607, 23.283, 16.954, 17.293, 20.255, 20.195, 14.931, 19.466, 22.431, 20.381, 14.56, 23.532, 19.583, 22.212, 19.355, 22.199, 17.181, 12.756, 23.243, 14.647, 20.293, 17.606, 17.566, 18.245, 20.497, 21.763, 22.105, 17.487, 19.633, 20.287, 21.927, 23.715, 19.505, 17.66, 23.682, 15.93, 23.508, 19.342, 22.81, 18.35, 21.586, 19.386, 23.82, 19.808, 16.715, 18.732, 18.346, 20.803, 17.374, 21.557, 17.493, 23.735, 21.032, 22.031, 21.014, 18.834, 22.21, 21.174, 22.725, 22.111, 20.518, 22.667, 16.903, 19.712, 18.94, 19.299, 18.62, 20.785, 20.05, 20.219, 21.459, 20.389, 19.606, 18.669, 21.355, 19.643, 14.872, 19.54, 23.391, 17.598, 24.066, 20.116, 23.844, 14.407, 19.6, 20.845, 18.859, 23.279, 20.0, 19.718, 19.558, 19.183, 22.99, 21.544, 23.057, 18.08, 21.07, 18.769, 19.465, 20.059, 17.053, 17.106, 22.533, 21.881, 17.091, 24.0, 20.73, 18.921, 16.38, 16.565, 17.002, 20.478, 22.686, 14.033, 17.893, 19.73, 16.564, 19.339, 23.379, 15.778, 14.624, 23.916, 15.551, 21.333, 16.83, 18.181, 23.692, 19.353, 22.684, 14.86, 23.816, 16.047, 23.131, 19.637, 19.728, 13.783, 22.669, 15.216, 22.556, 15.904, 23.468, 16.068, 23.465, 20.201, 17.726, 18.451, 21.367, 12.456, 18.161, 17.587, 19.674, 23.141, 18.719, 21.964, 20.272, 15.89, 23.633, 19.665, 19.034, 16.4, 19.976, 15.058, 20.811, 19.159, 17.414, 20.402, 13.8, 22.829, 19.211, 19.438, 19.072, 18.98, 21.076, 18.335, 20.114, 20.602, 22.405, 14.11, 22.188, 18.98, 17.731, 21.767, 20.851, 23.502, 17.978, 23.786, 15.443, 22.924, 19.489, 23.456, 18.408, 22.528, 18.195, 24.063, 16.696, 23.485, 21.069, 22.957, 15.491, 13.553, 17.782, 23.329, 19.483, 19.353, 20.969, 17.605, 20.042, 17.292, 21.934, 20.943, 19.325, 15.268, 18.116, 16.772, 16.884, 16.402, 19.68, 17.815, 17.242, 19.453, 20.103, 19.125, 19.535, 20.243, 22.763, 17.062, 22.889, 19.451, 19.981, 18.829, 18.319, 21.049, 23.594, 17.178, 22.573, 16.262, 23.463, 23.308, 23.606, 16.969, 21.042, 20.144, 18.358, 23.096, 22.817, 19.461, 22.925, 18.594, 19.556, 23.572, 22.611, 22.486, 19.407, 20.881, 17.725, 18.327, 16.597, 18.15, 23.231, 18.986, 15.983, 17.285, 23.542, 20.552, 19.056, 20.759, 18.798, 20.558, 19.502, 19.984, 14.457, 23.863, 19.557, 19.569, 19.939, 19.238, 16.117, 18.137, 21.373, 22.317, 17.167, 20.596, 20.365, 22.872, 21.122, 17.277, 20.704, 22.971, 19.538, 22.409, 21.583, 16.548, 19.785, 20.758, 18.889, 18.691, 16.92, 19.127, 18.815, 19.464, 19.85, 23.44, 23.195, 18.0, 20.265, 17.536, 22.29, 23.099, 16.022, 14.893, 23.41, 20.727, 17.311, 23.469, 15.802, 22.897, 23.259, 13.578, 22.158, 19.111, 21.798, 23.681, 12.815, 18.39, 20.506, 14.551, 20.784, 17.41, 19.23, 15.78, 17.752, 23.327, 12.76, 21.593, 21.131, 19.104, 23.161, 19.48, 21.326, 20.847, 20.727, 19.54, 21.835, 16.554, 19.632, 20.55, 23.386, 16.129, 23.914, 20.905, 23.542, 16.062, 23.536, 13.135, 22.359, 19.874, 23.751, 17.58, 16.945, 23.301, 18.373, 19.607, 17.959, 16.406, 14.732, 19.193, 20.448, 21.283, 21.436, 21.344, 16.833, 19.352, 19.068, 23.972, 14.525, 19.169, 20.485, 23.16, 16.927, 21.447, 18.34, 15.177, 19.85, 19.446, 19.781, 16.314, 22.972, 16.777, 18.005, 16.016, 18.756],
  "Optimizer iterations": 411,
  "Optimizer params": [0.5794672854640197, 0.9054847385443412, 0.6326955265395723, 0.8466755769439686, 0.48124644979097436, 0.48711136850562825, 0.5063049317795242, 0.999947636184275, 0.5076743224338087, 0.4831000170972913, 0.4238197137708791, 0.3576513002140178, 0.48839515792577054, 0.5116113790436124, 0.5020915595925566, 0.5016444818822053],
  "P": 0,
  "Problem": "IC",
  "QPU": "7000000",
  "Qubits": 4,
  "Shots": 4096,
  "Size": 4,
  "Total Algorithm duration [s]": 8.091,
  "Total Classic duration [s]": 8.00595125016081,
  "Total Quantum duration [s]": 0.08504874983918853
}
