{
  "Depth": 10.5,
  "Expectation Value": -4.706988334655762,
  "Job durations [ms]": [0.1715500038699247, 0.1803499981178902, 0.17300000035902485, 0.1740000006975606, 0.1964999974006787, 0.3692500031320378, 0.1714000027277507, 0.3632500156527385, 0.1748000067891553, 0.1715500038699247, 0.3706499919644557, 0.32964999991236255, 0.18560000171419233, 0.29194999660830945, 0.18030000501312315, 0.32944999838946387, 0.1795999996829778, 0.1735499972710386, 0.2109500055667013, 0.1755499979481101, 0.17844999820226803, 0.1701500004855916, 0.36824998824158683, 0.174449996848125, 0.22295000235317275, 0.16015000437619165, 0.18090000230586156, 0.17084999853977934, 0.17629999638302252, 0.1762000028975308, 0.1735500045469962, 0.26014999457402155, 0.20714999845949933, 0.1718499988783151, 0.37305000296328217, 0.18154999997932464, 0.2927999958046712, 0.18134999845642596, 0.3578000032575801, 0.3578999967430718, 0.17130000196630135, 0.1660999987507239, 0.19500000053085387, 0.17999999545281753, 0.1934000028995797, 0.1721500011626631, 0.2312500000698492, 0.1680999994277954, 0.17535000370116904, 0.3690999874379486, 0.17815000319387764, 0.17260000458918512, 0.2810500009218231, 0.29340000764932483, 0.17685000057099387, 0.21079999714856967, 0.1829999964684248, 0.18224999803351238, 0.17704999481793493, 0.17870000010589138, 0.16855000285431743, 0.2066999950329773, 0.1836500014178455, 0.17914999625645578, 0.22289999469649047, 0.17294999997830018, 0.2706499944906682, 0.17145000310847536, 0.38580001273658127, 0.2137500050594099, 0.33710001298459247, 0.17305000073974952, 0.1717000050120987, 0.17040000238921493, 0.16295000386890024, 0.17055000353138894, 0.16404999769292772, 0.23334999423241243, 0.17020000086631626, 0.17114999354816973, 0.19069999689236283, 0.17939999816007912, 0.17055000353138894, 0.16650000179652125, 0.2060999977402389, 0.20789999689441174, 0.34020000748569146, 0.17999999545281753, 0.16699999832781032, 0.17205000040121377, 0.17965000006370246, 0.18385000294074416, 0.17294999997830018, 0.17145000310847536, 0.18220000492874533, 0.17115000082412735, 0.2621500025270507, 0.2012999975704588, 0.2066000015474856, 0.3692999962368049, 0.17389999993611127, 0.1818999953684397, 0.3731499891728163, 0.22030000400263816, 0.17905000277096406, 0.20854999456787482, 0.17794999439502135, 0.1763500040397048, 0.18185000226367265, 0.21905000176047906, 0.1766499990480952, 0.20539999968605116, 0.17054999625543132, 0.2592999953776598, 0.16894999862415716, 0.1687500043772161, 0.16999999934341758, 0.17644999752519652, 0.2672499977052212, 0.21364998974604532, 0.3242499951738864, 0.17070000467356294, 0.16804999904707074, 0.20589999621734023, 0.17179999849759042, 0.16870000399649143, 0.17235000268556178, 0.1722999950288795, 0.18685000395635143, 0.16545000107726082, 0.2843000038410537, 0.17284999921685085, 0.22595000336878002, 0.1752499956637621, 0.20940000104019418, 0.18324999837204814, 0.36040000122739, 0.18075000116368756, 0.16984999820124358, 0.16630000027362257, 0.23024999973131344, 0.1724499961710535, 0.2830500015988946, 0.1651499987929128, 0.17604999447939917, 0.1588000013725832, 0.17145000310847536, 0.2961000063805841, 0.17814999591792002, 0.16060000052675605, 0.1879499977803789, 0.3152999925077893, 0.1736999984132126, 0.1766499990480952, 0.17715000285534188, 0.2347999979974702, 0.20840000070165843, 0.17500000103609636, 0.17209999350598082, 0.20745000074384734, 0.24065000616246834, 0.28699999529635534, 0.18429999909130856, 0.17890000162879005, 0.3359499969519675, 0.2395999981672503, 0.22914999863132834, 0.17334999574813992, 0.17905000277096406, 0.1731999946059659, 0.18089999502990395, 0.18279999494552612, 0.20795000455109403, 0.20790000417036936, 0.18435000674799085, 0.18925000040326267, 0.1869000043370761, 0.16685000446159393, 0.18044999887933955, 0.1697999978205189, 0.19505000091157854, 0.16915000014705583, 0.167350000992883, 0.1919999995152466, 0.1646999953663908, 0.17099999968195334, 0.1769500013324432, 0.38359999598469585, 0.18724999972619116, 0.363649996870663, 0.17074999777833, 0.1828500026022084, 0.17154999659396708, 0.18560000171419233, 0.17234999540960416, 0.18000000272877514, 0.20969999604858458, 0.16814999980852008, 0.171050000062678, 0.312449992634356, 0.1769500013324432, 0.3109500030404888, 0.1735500045469962, 0.3578999967430718, 0.17239999579032883, 0.33185000211233273, 0.2114000017172657, 0.16850000247359276, 0.16775000403868034, 0.36154999543214217, 0.16725000023143366, 0.20774999575223774, 0.17815000319387764, 0.1849999971454963, 0.2390000008745119, 0.1875000016298145, 0.16900000628083944, 0.17110000044340268, 0.29894999897805974, 0.17685000057099387, 0.17700000171316788, 0.17565000598551705, 0.16429999959655106, 0.1722999950288795, 0.28944999939994887, 0.17870000010589138, 0.21454999659908935, 0.29180000274209306, 0.2271999983349815, 0.2097000033245422, 0.16165000124601647, 0.16670000331941992, 0.16725000023143366, 0.3853000089293346, 0.23139999393606558, 0.16124999820021912, 0.1766500063240528, 0.16760000289650634, 0.31209999724524096, 0.174299995705951, 0.316099998599384, 0.17269999807467684, 0.17239999579032883, 0.16519999917363748, 0.18065000040223822, 0.1752500029397197, 0.2622500032885, 0.16475000302307308, 0.17315000150119886, 0.17145000310847536, 0.17410000145900995, 0.17785000090952963, 0.2143500023521483, 0.18244999955641106, 0.2062499988824129, 0.17345000378554687, 0.16840000171214342, 0.3536500153131783, 0.1723000023048371, 0.16885000513866544, 0.22529999841935933, 0.18000000272877514, 0.16885000513866544, 0.1723000023048371, 0.17094999930122867, 0.22495000303024426, 0.16865000361576676, 0.342950013873633, 0.1676499960012734, 0.21394999930635095, 0.23869999131420627, 0.36499999987427145, 0.1768000001902692, 0.3315499925520271, 0.18184999498771504, 0.3249000001233071, 0.31524999940302223, 0.18190000264439732, 0.1797500008251518, 0.17364999803248793, 0.2133999951183796, 0.2058000027318485, 0.32154999644262716, 0.15995000285329297, 0.2891999974963255, 0.1731000011204742, 0.24354999914066866, 0.1656500026001595, 0.16665000293869525, 0.1725999973132275, 0.2032999982475303, 0.17205000040121377, 0.2833500038832426, 0.167350000992883, 0.17685000057099387, 0.1779000012902543, 0.1814499992178753, 0.17824999667936936, 0.3090999962296337, 0.18369999452261254, 0.3338000096846372, 0.1763500040397048, 0.2883500055759214, 0.18039999849861488, 0.2106000029016286, 0.1803499981178902, 0.16825000056996942, 0.17359999765176326, 0.1682499932940118, 0.3275500057497993, 0.17875000048661605, 0.21940000442555174, 0.18899999849963933, 0.4214000000501983, 0.29299999005161226, 0.3768500027945265, 0.16099999629659578, 0.18325000564800575, 0.1732500022626482, 0.21374999778345227, 0.1831499976105988, 0.170599996636156, 0.3103499984717928, 0.17785000090952963, 0.16894999862415716, 0.1999000014620833, 0.16995000623865053, 0.17544999718666077, 0.3538999953889288, 0.17949999892152846, 0.24410000332864001, 0.1837499949033372, 0.1876500027719885, 0.17164999735541642, 0.16820000018924475, 0.16804999904707074, 0.1655999949434772, 0.3688500073621981, 0.17165000463137403, 0.20780000340892002, 0.32175000524148345, 0.18865000311052427, 0.16404999769292772, 0.32809999538585544, 0.181950003025122, 0.17379999917466193, 0.1832999987527728, 0.16899999900488183, 0.17194999963976443, 0.1646999953663908, 0.16775000403868034, 0.3655500113382004, 0.17504999414086342, 0.23404999228660017, 0.3566000086721033, 0.17769999976735562, 0.2201000024797395, 0.17549999756738544, 0.2100000056088902, 0.21130000095581636, 0.1810000030673109, 0.17615000251680613, 0.327199995808769, 0.20810000569326803, 0.31680000392952934, 0.17970000044442713, 0.20619999850168824, 0.1684500020928681, 0.1918500056490302, 0.16540000069653615, 0.18404999718768522, 0.18555000133346766, 0.18029999773716554, 0.17194999963976443, 0.1812999980757013, 0.17490000027464703, 0.163800003065262, 0.1687500043772161, 0.24975000269478187, 0.1554000045871362, 0.2045500004896894, 0.20479999511735514, 0.38720000156899914, 0.17769999976735562, 0.2977500043925829, 0.25925000227289274, 0.18679999629966915, 0.17020000086631626, 0.1611500047147274, 0.17074999777833, 0.19150000298395753, 0.1871999993454665, 0.373849987227004, 0.20465000125113875, 0.17719999596010894, 0.1659499976085499, 0.37010000232839957, 0.1649999976507388, 0.1721500011626631, 0.23020000662654638, 0.17169999773614109, 0.17420000222045928, 0.17315000150119886, 0.222100003156811, 0.17454999760957435, 0.1810000030673109, 0.1788000008673407, 0.19115000031888485, 0.18149999959859997, 0.17269999807467684, 0.17595000099390745],
  "Optimal Expectation Value": -4.75877046585083,
  "Optimizer durations [ms]": [19.28, 20.595, 19.704, 23.658, 19.183, 20.585, 18.558, 21.06, 20.835, 19.204, 19.955, 19.159, 23.91, 21.105, 14.579, 20.801, 14.03, 22.273, 11.607, 23.369, 21.598, 23.684, 17.329, 20.774, 23.093, 21.325, 21.191, 14.833, 20.364, 22.903, 19.112, 19.8, 19.629, 23.712, 17.729, 19.594, 17.553, 20.369, 23.242, 20.549, 22.816, 19.51, 24.1, 19.229, 20.851, 19.116, 19.56, 21.596, 21.609, 20.132, 20.717, 23.7, 20.799, 23.287, 21.247, 15.534, 23.576, 21.44, 15.99, 22.658, 15.966, 15.281, 15.901, 21.976, 20.092, 20.538, 20.572, 18.444, 17.262, 16.723, 23.312, 22.581, 23.368, 19.757, 21.808, 22.884, 22.977, 18.736, 24.04, 19.186, 15.94, 23.882, 20.602, 21.977, 14.501, 14.611, 23.082, 23.563, 19.144, 20.833, 18.867, 22.568, 18.161, 21.787, 17.271, 20.369, 16.291, 11.563, 10.827, 22.926, 18.134, 16.347, 21.182, 22.987, 18.291, 18.231, 16.614, 19.438, 22.53, 15.586, 19.845, 17.424, 18.645, 14.558, 21.507, 23.68, 22.367, 18.724, 23.037, 19.097, 18.582, 17.663, 20.691, 18.062, 20.612, 19.942, 19.707, 18.777, 17.753, 18.883, 23.098, 23.777, 19.184, 21.219, 18.425, 17.828, 19.046, 19.83, 18.412, 23.488, 23.091, 19.37, 19.048, 23.483, 20.048, 20.557, 19.472, 22.86, 18.569, 21.19, 18.379, 16.85, 17.296, 15.11, 15.961, 15.349, 17.265, 21.569, 22.267, 17.23, 20.493, 18.434, 23.276, 23.591, 17.85, 23.386, 14.864, 23.489, 19.087, 17.892, 14.982, 19.922, 16.221, 15.037, 21.893, 20.808, 18.496, 21.361, 23.506, 19.168, 17.015, 19.397, 17.016, 23.79, 16.441, 15.193, 21.609, 17.606, 18.27, 20.843, 23.718, 19.973, 22.74, 21.557, 17.306, 24.262, 16.095, 21.663, 22.845, 18.473, 18.58, 19.101, 20.15, 23.083, 23.738, 19.621, 18.108, 18.333, 20.906, 19.146, 22.653, 19.723, 23.612, 15.982, 13.888, 24.326, 19.883, 23.603, 18.152, 20.628, 15.602, 19.569, 23.42, 22.727, 18.708, 15.708, 19.954, 21.958, 19.393, 19.69, 22.156, 19.52, 20.547, 18.43, 17.023, 16.518, 19.162, 24.029, 18.461, 22.177, 21.896, 23.556, 16.441, 16.216, 17.146, 19.441, 18.647, 21.703, 21.624, 23.5, 18.036, 19.846, 15.942, 21.108, 18.36, 22.201, 22.193, 16.89, 20.456, 19.626, 23.03, 20.727, 22.735, 21.205, 20.112, 16.853, 19.531, 22.229, 17.002, 13.377, 18.986, 23.122, 18.892, 21.477, 23.979, 18.814, 21.691, 15.892, 19.898, 19.629, 20.031, 15.377, 23.611, 23.036, 23.186, 23.338, 15.669, 22.36, 22.132, 18.642, 14.887, 19.312, 22.41, 23.428, 20.029, 23.786, 16.541, 18.855, 19.169, 20.857, 22.682, 21.896, 21.494, 22.489, 14.394, 22.256, 20.604, 20.353, 17.296, 20.618, 23.769, 14.194, 21.949, 22.848, 16.637, 21.969, 22.487, 23.569, 20.857, 20.153, 15.885, 23.402, 17.216, 20.731, 22.275, 19.96, 23.715, 19.334, 17.084, 22.459, 20.14, 18.951, 18.016, 19.41, 19.417, 20.233, 19.276, 20.111, 19.707, 20.626, 23.186, 18.855, 20.596, 19.011, 23.347, 23.057, 19.114, 22.353, 21.384, 13.541, 15.192, 16.385, 16.942, 20.319, 19.778, 19.107, 19.528, 18.063, 15.043, 18.508, 20.254, 23.219, 17.797, 18.363, 19.08, 23.668, 12.473, 19.341, 22.288, 19.143, 20.794, 23.574, 18.605, 18.415, 19.337, 18.865, 19.366, 14.749, 18.028, 23.559, 17.007, 15.967, 19.649, 24.045, 20.229, 20.88, 17.573, 20.217, 20.9, 18.694, 19.795, 18.534, 20.487, 14.428, 18.833, 21.269, 19.862, 23.485, 18.887, 20.998, 23.331, 17.969, 18.754, 19.771, 19.186, 20.163, 16.719, 24.026, 16.481, 23.27, 16.027],
  "Optimizer iterations": 411,
  "Optimizer params": [0.5794672854640197, 0.9054847385443412, 0.6326955265395723, 0.8466755769439686, 0.48124644979097436, 0.48711136850562825, 0.5063049317795242, 0.999947636184275, 0.5076743224338087, 0.4831000170972913, 0.4238197137708791, 0.3576513002140178, 0.48839515792577054, 0.5116113790436124, 0.5020915595925566, 0.5016444818822053],
  "P": 0,
  "Problem": "IC",
  "QPU": "7000000",
  "Qubits": 4,
  "Shots": 4096,
  "Size": 4,
  "Total Algorithm duration [s]": 8.148,
  "Total Classic duration [s]": 8.06166734993062,
  "Total Quantum duration [s]": 0.08633265006938018
}
