{
  "Depth": 10.5,
  "Expectation Value": -4.706988334655762,
  "Job durations [ms]": [0.1710499927867204, 0.23445000260835513, 0.16465000226162374, 0.1765000051818788, 0.17395000031683594, 0.16899999900488183, 0.17135000234702602, 0.2925000007962808, 0.18710000585997477, 0.17040000238921493, 0.1839500037021935, 0.3350999977556057, 0.1749500006553717, 0.22504999651573598, 0.1782000035746023, 0.3825999883702025, 0.16864999633980915, 0.1751000017975457, 0.2387000058661215, 0.18009999621426687, 0.1752499956637621, 0.18375000217929482, 0.17395000031683594, 0.1803499981178902, 0.1812999980757013, 0.21674999879905954, 0.1735499972710386, 0.17595000099390745, 0.29725000058533624, 0.16945000243140385, 0.16969999705906957, 0.17749999824445695, 0.17905000277096406, 0.32509999437024817, 0.1843999998527579, 0.170449995493982, 0.20709999807877466, 0.23689999943599105, 0.20740000036312267, 0.2848000076483004, 0.2846999923349358, 0.1731000011204742, 0.1644000003580004, 0.16360000154236332, 0.18504999752622098, 0.2136999974027276, 0.26064999838126823, 0.17405000107828528, 0.1768000001902692, 0.16704999870853499, 0.2076499949907884, 0.20540000696200877, 0.19359999714652076, 0.3729499949258752, 0.17074999777833, 0.2643000043462962, 0.17294999997830018, 0.40490000537829474, 0.21114999981364235, 0.17315000150119886, 0.17549999756738544, 0.3201000072294846, 0.17535000370116904, 0.16894999862415716, 0.1693500016699545, 0.29260000155773014, 0.18009999621426687, 0.3610499916248955, 0.17759999900590628, 0.3041000018129125, 0.17145000310847536, 0.17305000073974952, 0.1740000006975606, 0.1752499956637621, 0.18080000154441223, 0.17814999591792002, 0.1807000007829629, 0.28110000130254775, 0.167500002135057, 0.18104999617207795, 0.16709999908925965, 0.16600000526523218, 0.17054999625543132, 0.18000000272877514, 0.3032000022358261, 0.3056499917875044, 0.17300000035902485, 0.2072000061161816, 0.23189999774331227, 0.1649999976507388, 0.3907500140485354, 0.17174999811686575, 0.26905000413535163, 0.15899999561952427, 0.18080000154441223, 0.3015999973285943, 0.25610000011511147, 0.1747999995131977, 0.17130000196630135, 0.1724500034470111, 0.31925000075716525, 0.17469999875174835, 0.19839999731630087, 0.37080000765854493, 0.2641000028233975, 0.35450001450954005, 0.17210000078193843, 0.16864999633980915, 0.17254999693250284, 0.15435000386787578, 0.167350000992883, 0.17079999815905467, 0.17225000192411244, 0.30679999326821417, 0.17459999799029902, 0.16474999574711546, 0.302100001135841, 0.2898500024457462, 0.1679499982856214, 0.2100000056088902, 0.20355000015115365, 0.30035000236239284, 0.16825000056996942, 0.17405000107828528, 0.16930000128922984, 0.20770000264747068, 0.1707500050542876, 0.17870000010589138, 0.1721499938867055, 0.3456000122241676, 0.20824999955948442, 0.1862499993876554, 0.16869999672053382, 0.17829999706009403, 0.1795999996829778, 0.16480000340379775, 0.19299999985378236, 0.19009999959962443, 0.1912500010803342, 0.16984999820124358, 0.17520000255899504, 0.1690499993856065, 0.1913499945658259, 0.20619999850168824, 0.17224999464815482, 0.18249999993713573, 0.16604999836999923, 0.16775000403868034, 0.2181999952881597, 0.3211999937775545, 0.20809999841731042, 0.20135000522714108, 0.20489999587880448, 0.3547000087564811, 0.1740000006975606, 0.16139999934239313, 0.17064999701688066, 0.21114999981364235, 0.2952499926323071, 0.17595000099390745, 0.16060000052675605, 0.1984999980777502, 0.17725000361679122, 0.1738499995553866, 0.19204999989597127, 0.2882499902625568, 0.17484999989392236, 0.171050000062678, 0.3454000034253113, 0.1862499993876554, 0.17069999739760533, 0.21784999989904463, 0.20494999625952914, 0.1693499943939969, 0.24270000722026452, 0.1651499987929128, 0.1714999962132424, 0.18000000272877514, 0.16165000124601647, 0.35310001112520695, 0.25889999960782006, 0.29120000544935465, 0.2055000004475005, 0.17065000429283828, 0.18199999612988904, 0.30840000545140356, 0.17329999536741525, 0.17424999532522634, 0.16799999866634607, 0.17054999625543132, 0.1768000001902692, 0.17919999663718045, 0.17164999735541642, 0.16645000141579658, 0.265199996647425, 0.1764999979059212, 0.20265000057406723, 0.18799999816110358, 0.3320499890833162, 0.20814999879803509, 0.3013500027009286, 0.1771000024746172, 0.1774500051396899, 0.3487000140012242, 0.1762000028975308, 0.18509999790694565, 0.3269500011811033, 0.17764999938663095, 0.20980000408599153, 0.20465000125113875, 0.1777500001480803, 0.38774999120505527, 0.17309999384451658, 0.20770000264747068, 0.2158999996026978, 0.18495000404072925, 0.25144999381154776, 0.16450000111944973, 0.16844999481691048, 0.17220000154338777, 0.16504999803146347, 0.17065000429283828, 0.17854999896371737, 0.18110000382876024, 0.23934999626362696, 0.1703000016277656, 0.17469999875174835, 0.1843999998527579, 0.170599996636156, 0.17085000581573695, 0.17120000120485201, 0.18870000349124894, 0.18205000378657132, 0.2025499998126179, 0.3581000128178857, 0.3365500087966211, 0.17320000188192353, 0.21794999338453636, 0.20154999947408214, 0.1777500001480803, 0.3325500074424781, 0.16945000243140385, 0.37644998519681394, 0.1783500047167763, 0.17935000505531207, 0.16274999507004395, 0.17750000552041456, 0.20760000188602135, 0.2604999972390942, 0.31239999952958897, 0.17065000429283828, 0.17415000183973461, 0.18724999972619116, 0.18050000653602183, 0.16759999562054873, 0.20090000180061907, 0.17320000188192353, 0.16930000128922984, 0.1697999978205189, 0.16280000272672623, 0.18080000154441223, 0.22339999850373715, 0.17405000107828528, 0.18124999769497663, 0.17395000031683594, 0.171050000062678, 0.16725000023143366, 0.17764999938663095, 0.17925000429386273, 0.20940000104019418, 0.20555000082822517, 0.17279999883612618, 0.3249500005040318, 0.21505000040633604, 0.1781999962986447, 0.16495000454597175, 0.21260000357870013, 0.1818999953684397, 0.16859999595908448, 0.20310000400058925, 0.16524999955436215, 0.17564999870955944, 0.1753999968059361, 0.203650000912603, 0.20995000522816554, 0.23165000311564654, 0.20655000116676092, 0.17570000636624172, 0.16915000014705583, 0.20370000129332766, 0.18305000412510708, 0.2705999941099435, 0.20375000167405233, 0.1752499956637621, 0.17350000416627154, 0.17139999545179307, 0.1764999979059212, 0.1731000011204742, 0.1780500024324283, 0.3103500057477504, 0.16604999836999923, 0.272850003966596, 0.1749500006553717, 0.3561500125215389, 0.1697999978205189, 0.20110000332351774, 0.17099999968195334, 0.17329999536741525, 0.17300000035902485, 0.1651499987929128, 0.17179999849759042, 0.2841499954229221, 0.308899994706735, 0.33570000960025936, 0.269450007181149, 0.16744999447837472, 0.20334999862825498, 0.16774999676272273, 0.1811499969335273, 0.22644999262411147, 0.17425000260118395, 0.17530000332044438, 0.36825000279350206, 0.19829999655485153, 0.1807000007829629, 0.17434999608667567, 0.1839500037021935, 0.1796000069589354, 0.170599996636156, 0.3513000046950765, 0.1814499992178753, 0.17124999430961907, 0.18000000272877514, 0.1718499988783151, 0.23640000290470198, 0.2566999974078499, 0.1840999975684099, 0.1689000055193901, 0.17379999917466193, 0.1773999974830076, 0.1769500013324432, 0.16725000023143366, 0.17700000171316788, 0.22444999194703996, 0.1820499965106137, 0.20480000239331275, 0.28220000240253285, 0.1728000061120838, 0.17954999930225313, 0.16245000006165355, 0.18154999997932464, 0.25689999893074855, 0.20655000116676092, 0.16740000137360767, 0.37754998629679903, 0.19379999866941944, 0.17305000073974952, 0.1689000055193901, 0.374700000975281, 0.21879999985685572, 0.21099999867146835, 0.18010000349022448, 0.16529999993508682, 0.16714999946998432, 0.19459999748505652, 0.17189999925903976, 0.167199999850709, 0.1797500008251518, 0.17099999968195334, 0.18399999680696055, 0.3490499875624664, 0.20419999782461673, 0.17284999921685085, 0.34359999699518085, 0.17210000078193843, 0.1694999955361709, 0.20814999879803509, 0.2498500034562312, 0.1598999951966107, 0.1973000034922734, 0.2760499992291443, 0.18060000002151355, 0.1740000006975606, 0.1669000048423186, 0.32219999411609024, 0.222400005441159, 0.3292499968665652, 0.174449996848125, 0.2135500035365112, 0.16940000205067918, 0.20344999938970432, 0.1779000012902543, 0.17544999718666077, 0.16915000014705583, 0.18260000069858506, 0.37614999746438116, 0.1687499971012585, 0.24560000019846484, 0.167350000992883, 0.1676499960012734, 0.1823999991756864, 0.16165000124601647, 0.1756999990902841, 0.17449999722884968, 0.17875000048661605, 0.21289999858709052, 0.17194999963976443, 0.17795000167097896, 0.18289999570697546, 0.20039999799337238, 0.17169999773614109],
  "Optimal Expectation Value": -4.75877046585083,
  "Optimizer durations [ms]": [23.378, 20.435, 22.196, 20.729, 23.056, 20.393, 18.709, 18.326, 19.992, 19.677, 20.771, 21.078, 23.22, 13.684, 22.734, 17.466, 23.75, 17.404, 20.091, 19.393, 23.937, 16.637, 21.835, 15.218, 23.562, 15.048, 18.23, 19.025, 23.127, 18.741, 20.479, 19.368, 23.868, 23.192, 23.736, 23.353, 19.797, 20.489, 19.794, 17.221, 16.267, 20.808, 19.285, 19.543, 18.194, 17.861, 17.098, 19.074, 20.408, 21.217, 19.808, 16.737, 19.152, 18.147, 19.879, 16.907, 22.378, 23.546, 17.561, 19.905, 19.653, 23.297, 17.417, 23.497, 23.347, 20.81, 23.87, 23.047, 21.879, 19.888, 20.806, 22.668, 23.615, 23.844, 17.439, 22.379, 22.268, 23.28, 19.895, 19.193, 11.981, 18.858, 20.314, 23.555, 23.188, 18.275, 23.892, 14.563, 17.84, 18.965, 20.151, 22.002, 17.777, 21.556, 16.433, 21.381, 19.175, 16.78, 17.26, 21.073, 22.834, 22.684, 16.899, 19.01, 21.991, 23.03, 16.055, 21.144, 21.289, 18.639, 21.997, 23.911, 23.161, 21.929, 23.405, 22.313, 22.568, 22.985, 16.85, 12.888, 13.771, 18.898, 16.242, 18.5, 17.545, 19.745, 15.921, 21.408, 23.855, 15.81, 18.631, 21.928, 20.023, 20.982, 20.898, 13.994, 20.948, 18.113, 21.191, 18.306, 20.878, 18.092, 17.829, 18.456, 22.411, 17.97, 20.431, 20.912, 14.77, 19.468, 17.816, 19.4, 17.713, 22.179, 21.547, 23.731, 23.568, 14.978, 17.218, 20.386, 19.67, 19.946, 20.085, 17.126, 23.704, 19.927, 19.791, 19.888, 17.566, 20.002, 16.026, 20.701, 15.259, 20.433, 21.543, 20.969, 19.852, 22.295, 23.541, 18.656, 18.403, 18.381, 17.026, 18.166, 21.635, 15.492, 19.533, 18.217, 23.622, 18.037, 19.876, 23.57, 17.992, 20.593, 18.478, 17.621, 13.203, 22.584, 21.354, 19.186, 19.082, 21.832, 20.122, 19.061, 19.847, 20.206, 19.432, 20.757, 17.466, 11.664, 19.28, 19.853, 23.88, 12.264, 15.792, 21.048, 21.249, 22.574, 20.168, 19.269, 14.713, 19.535, 23.903, 19.091, 17.284, 21.715, 23.455, 21.247, 18.642, 20.3, 22.446, 23.575, 23.721, 12.867, 18.508, 20.042, 23.712, 16.577, 23.088, 21.787, 21.957, 17.583, 23.086, 21.092, 19.738, 15.658, 18.285, 23.06, 23.155, 18.788, 22.342, 16.616, 19.672, 20.324, 19.315, 20.231, 17.02, 23.521, 16.725, 21.894, 23.77, 17.221, 23.061, 23.398, 23.405, 18.973, 23.865, 18.849, 20.358, 17.07, 15.178, 21.582, 20.711, 19.51, 19.662, 20.187, 19.218, 18.181, 22.777, 18.177, 20.918, 18.782, 22.259, 17.454, 18.508, 21.407, 16.687, 23.37, 19.271, 16.905, 13.135, 19.41, 19.578, 15.624, 21.022, 19.557, 16.387, 18.404, 19.774, 18.079, 15.679, 18.838, 23.749, 19.573, 22.906, 20.649, 23.586, 21.186, 22.683, 12.745, 23.279, 17.98, 17.415, 18.166, 23.154, 17.753, 11.464, 23.118, 17.334, 23.096, 20.325, 17.888, 21.18, 22.218, 23.311, 23.593, 16.438, 21.997, 22.114, 23.076, 17.872, 23.563, 21.138, 21.485, 21.907, 19.045, 20.535, 15.875, 16.302, 23.247, 17.953, 16.855, 16.449, 19.793, 20.121, 18.861, 22.263, 20.325, 19.284, 21.965, 14.653, 22.785, 15.001, 20.926, 22.929, 18.339, 22.346, 21.996, 21.423, 17.891, 20.717, 21.853, 19.365, 22.601, 11.984, 21.825, 21.274, 20.091, 23.795, 18.856, 18.988, 18.987, 20.563, 20.187, 19.042, 21.438, 19.008, 15.906, 23.464, 21.588, 13.345, 21.783, 18.361, 22.263, 21.669, 22.826, 19.53, 19.643, 18.998, 20.976, 16.436, 20.419, 19.271, 15.043, 20.986, 22.783, 19.706, 18.937, 23.303, 17.406, 20.316, 20.062, 19.702, 20.186, 18.778, 15.51, 20.595, 18.923, 19.016, 20.015, 20.993],
  "Optimizer iterations": 411,
  "Optimizer params": [0.5794672854640197, 0.9054847385443412, 0.6326955265395723, 0.8466755769439686, 0.48124644979097436, 0.48711136850562825, 0.5063049317795242, 0.999947636184275, 0.5076743224338087, 0.4831000170972913, 0.4238197137708791, 0.3576513002140178, 0.48839515792577054, 0.5116113790436124, 0.5020915595925566, 0.5016444818822053],
  "P": 0,
  "Problem": "IC",
  "QPU": "7000000",
  "Qubits": 4,
  "Shots": 4096,
  "Size": 4,
  "Total Algorithm duration [s]": 8.158,
  "Total Classic duration [s]": 8.072900249983475,
  "Total Quantum duration [s]": 0.08509975001652492
}
