{
  "Depth": 221.0,
  "Job durations [ms]": [21.29983901977539, 21.310091018676758, 21.426677703857422, 21.43263816833496, 21.384716033935547, 21.393537521362305, 21.209716796875, 21.736860275268555, 21.467924118041992, 21.502017974853516, 21.057605743408203, 21.262407302856445, 21.059513092041016, 21.376848220825195, 21.355867385864258, 21.193981170654297, 21.3165283203125, 21.407365798950195, 21.21758460998535, 21.48914337158203, 21.465063095092773, 21.2862491607666, 21.375179290771484, 21.360158920288086, 21.285295486450195, 21.313190460205078, 21.18372917175293, 21.28744125366211, 21.38233184814453, 21.281003952026367, 21.306753158569336, 21.12126350402832, 21.416664123535156, 21.1489200592041, 21.17633819580078, 21.1942195892334, 21.399497985839844, 21.23570442199707, 21.382808685302734, 21.073341369628906, 21.131515502929688, 21.158933639526367, 21.074771881103516, 21.208763122558594, 21.15178108215332, 21.25263214111328, 21.271467208862305, 21.371841430664062, 21.16680145263672, 21.220922470092773, 21.270036697387695, 21.24309539794922, 21.181821823120117, 21.069765090942383, 20.924806594848633, 21.323680877685547, 21.094560623168945, 23.401498794555664, 21.173954010009766, 21.07977867126465, 21.13509178161621, 21.138429641723633, 21.16560935974121, 21.101713180541992, 21.210670471191406, 21.394968032836914, 21.280765533447266, 21.36540412902832, 21.09360694885254, 21.077871322631836, 21.094799041748047, 21.074295043945312, 21.225690841674805, 21.285057067871094, 21.02351188659668, 21.199464797973633, 21.27552032470703, 21.17013931274414, 21.3472843170166, 21.150827407836914, 21.176815032958984, 21.10886573791504, 21.335601806640625, 21.228551864624023, 21.135807037353516, 21.192312240600586, 21.225929260253906, 21.417856216430664, 21.14582061767578, 21.191835403442383, 21.097898483276367, 21.064043045043945, 21.29197120666504, 21.1334228515625, 21.279573440551758, 21.148204803466797],
  "Optimizer durations [ms]": [263.835, 304.391, 263.431, 263.228, 305.142, 263.694, 263.554, 303.737, 262.821, 264.298, 300.451, 262.575, 261.203, 300.968, 263.112, 261.181, 299.62, 262.57, 304.605, 262.803, 262.483, 304.415, 261.843, 262.188, 303.428, 262.188, 261.55, 302.628, 261.436, 262.609, 300.271, 261.028, 262.126, 301.324, 261.158, 306.952, 261.264, 262.104, 303.782, 262.105, 261.282, 303.596, 261.629, 262.128, 300.638, 262.138, 261.432, 299.939, 261.374, 261.266, 303.384, 260.965, 302.755, 262.439, 262.005, 302.89, 262.071, 265.465, 301.54, 261.469, 261.472, 300.18, 261.257, 261.816, 299.197, 262.505, 261.938, 300.99, 261.13, 303.947, 261.332, 263.579, 304.379, 261.897, 261.207, 302.528, 261.239, 260.893, 300.448, 261.425, 261.443, 300.085, 261.355, 262.218, 301.993, 260.543, 302.343, 261.943, 261.43, 303.164, 262.077, 260.739, 302.83, 261.14, 260.33, 300.919],
  "Optimizer iterations": 96,
  "Qubits": 12,
  "Total Algorithm duration [s]": 26.522,
  "Total Classic duration [s]": 24.480666324615477,
  "Total Quantum duration [s]": 2.0413336753845215,
  "Expectation Value": -15.18115234375,
  "Optimal Expectation Value": -18.0,
  "Optimizer params": [0.42258419399456154, 0.8220194924514405, 0.5271409366541733, 0.9931274094330456, 0.636233544671473, 0.08897928470849789],
  "QPU": "3010008",
  "Problem": "MCP",
  "Size": 12,
  "P": 3,
  "Shots": 4096
}