{
  "Depth": 384.0,
  "Job durations [ms]": [12.806177139282227, 12.84646987915039, 12.850284576416016, 13.003349304199219, 12.845277786254883, 12.959480285644531, 12.957334518432617, 12.937068939208984, 12.954950332641602, 13.242244720458984, 13.186931610107422, 12.903451919555664, 13.18216323852539, 12.956619262695312, 12.91966438293457, 12.941360473632812, 12.999296188354492, 12.94398307800293, 13.049125671386719, 12.87531852722168, 12.953996658325195, 12.85409927368164, 13.002634048461914, 13.544559478759766, 13.011932373046875, 13.101339340209961, 12.747764587402344, 12.823104858398438, 12.865066528320312, 13.172388076782227, 12.976646423339844, 13.031721115112305, 12.920141220092773, 12.965679168701172, 12.780189514160156, 12.94851303100586, 12.78829574584961, 12.819051742553711, 13.13638687133789, 12.795209884643555, 13.10586929321289, 13.020515441894531, 13.091564178466797, 12.806892395019531, 12.902975082397461, 12.891054153442383, 13.020038604736328, 12.748241424560547, 13.015985488891602, 12.960195541381836, 12.855291366577148, 12.847185134887695, 12.910604476928711, 13.317584991455078, 13.103961944580078, 13.116121292114258, 12.853384017944336, 12.981414794921875, 13.09823989868164, 13.000726699829102, 13.021707534790039, 12.906074523925781, 12.90750503540039, 12.809514999389648, 12.981653213500977, 13.913869857788086, 13.015985488891602, 12.932777404785156, 12.775659561157227, 12.967109680175781, 12.88151741027832, 13.176441192626953, 12.807130813598633, 13.007402420043945, 13.100147247314453, 13.124704360961914, 12.956619262695312, 13.319253921508789, 12.75777816772461, 13.022422790527344, 13.039112091064453, 12.864828109741211],
  "Optimizer durations [ms]": [376.64, 336.702, 380.121, 336.198, 374.491, 337.413, 371.736, 334.78, 376.734, 335.234, 373.704, 378.937, 335.063, 379.337, 337.071, 381.756, 337.565, 379.157, 335.74, 378.759, 337.319, 377.258, 336.777, 376.572, 335.79, 376.106, 337.11, 375.487, 336.834, 373.628, 336.563, 372.785, 380.249, 336.768, 380.768, 334.449, 380.464, 335.739, 379.378, 334.011, 379.473, 335.571, 378.787, 335.916, 376.778, 335.617, 376.188, 335.195, 372.491, 337.175, 374.576, 334.557, 377.632, 379.493, 334.202, 381.527, 338.088, 379.646, 336.002, 379.127, 335.136, 378.076, 337.549, 377.038, 337.572, 378.41, 337.079, 376.764, 336.409, 374.618, 338.236, 373.434, 335.008, 371.517, 379.699, 336.875, 382.652, 335.429, 380.442, 336.094, 378.471, 336.545],
  "Optimizer iterations": 82,
  "Qubits": 10,
  "Total Algorithm duration [s]": 29.342,
  "Total Classic duration [s]": 28.277463666915892,
  "Total Quantum duration [s]": 1.0645363330841064,
  "Expectation Value": -3.0283203125,
  "Optimal Expectation Value": -4.0,
  "Optimizer params": [0.49421686644097357, 0.2086547622008575, 0.23544665543743215, 0.3209193143202715, 0.28507351898730793, 0.9261690971915446],
  "QPU": "3010008",
  "Problem": "DSP",
  "Size": 5,
  "P": 3,
  "Shots": 4096
}