{
  "Depth": 113.0,
  "Job durations [ms]": [10.854482650756836, 10.927200317382812, 11.050701141357422, 10.747194290161133, 11.201143264770508, 10.998010635375977, 10.929584503173828, 11.09623908996582, 10.819673538208008, 10.895013809204102, 10.846138000488281, 11.148691177368164, 10.947465896606445, 11.040687561035156, 10.732889175415039, 10.886192321777344, 11.037349700927734, 10.870933532714844, 10.972261428833008, 11.005640029907227, 10.824441909790039, 10.98775863647461, 10.785579681396484, 10.837078094482422, 11.127948760986328, 11.09766960144043, 11.156797409057617, 11.11602783203125, 10.909795761108398, 10.911941528320312, 11.250734329223633, 10.833978652954102, 11.041402816772461, 10.848283767700195, 10.959863662719727, 10.667562484741211, 10.779142379760742, 11.08241081237793, 10.945796966552734, 11.052131652832031, 11.095285415649414, 11.125802993774414, 10.82468032836914, 10.997533798217773, 11.146783828735352, 11.09457015991211, 10.912656784057617, 11.053323745727539, 10.795831680297852, 11.07025146484375, 12.01939582824707, 10.860443115234375, 10.92839241027832, 11.343717575073242, 11.161327362060547, 10.863542556762695, 10.943889617919922, 11.00921630859375, 10.73002815246582, 11.117219924926758, 10.753631591796875, 10.828256607055664, 11.251688003540039, 10.899543762207031, 10.997772216796875, 11.06715202331543, 11.06405258178711, 10.758399963378906, 10.856151580810547, 10.758638381958008, 11.243104934692383, 10.916471481323242, 10.907411575317383, 11.065244674682617, 10.990142822265625, 10.896682739257812, 12.43448257446289, 10.766744613647461, 11.050939559936523, 10.957002639770508, 10.829925537109375, 10.905265808105469, 11.070728302001953, 10.813236236572266, 10.795354843139648, 11.16037368774414, 11.22593879699707],
  "Optimizer durations [ms]": [150.297, 151.21, 150.604, 191.212, 152.043, 151.824, 150.54, 191.714, 150.038, 150.612, 150.459, 151.248, 190.584, 151.067, 150.547, 150.794, 191.067, 151.002, 151.597, 151.069, 151.544, 189.721, 149.935, 152.698, 151.093, 191.125, 152.128, 150.629, 151.482, 193.01, 150.729, 151.068, 150.76, 150.259, 190.508, 151.153, 149.887, 151.324, 190.62, 150.503, 151.315, 151.896, 150.621, 190.751, 151.058, 151.475, 150.471, 192.711, 150.821, 152.096, 152.054, 191.983, 150.732, 151.935, 150.464, 151.059, 191.74, 150.289, 150.366, 151.226, 189.985, 150.773, 151.713, 150.943, 151.995, 190.722, 150.24, 151.157, 150.777, 191.109, 152.346, 150.688, 149.996, 192.369, 150.973, 150.582, 152.383, 150.541, 190.155, 151.697, 150.762, 150.824, 190.339, 150.614, 150.321, 150.809, 151.839],
  "Optimizer iterations": 87,
  "Qubits": 6,
  "Total Algorithm duration [s]": 13.901,
  "Total Classic duration [s]": 12.944417930603027,
  "Total Quantum duration [s]": 0.9565820693969727,
  "Expectation Value": -7.32568359375,
  "Optimal Expectation Value": -8.0,
  "Optimizer params": [0.5681566328643751, 0.43075814403708856, 0.530946359609884, 0.8668223116677023, 0.03023965963648341, 0.6751577432902681],
  "QPU": "3010008",
  "Problem": "MCP",
  "Size": 6,
  "P": 3,
  "Shots": 4096
}