{
  "Circuit execution durations [ms]": [119.14253234863281, 125.89430809020996, 126.43027305603027, 118.61395835876465, 115.10777473449707, 121.85215950012207, 125.43368339538574, 119.14420127868652, 124.86410140991211, 123.35395812988281, 106.4307689666748, 120.15151977539063, 113.77453804016113, 119.45104598999023, 101.30929946899414, 175.7657527923584, 120.70059776306152, 122.99132347106934, 117.57612228393555, 119.60029602050781, 126.0385513305664, 120.69511413574219, 158.59484672546387, 102.7059555053711, 122.21360206604004, 102.80585289001465, 105.49521446228027, 112.0607852935791, 119.9502944946289, 102.59890556335449, 118.84593963623047, 107.87224769592285, 121.63662910461426, 107.46955871582031, 121.71673774719238, 159.43336486816406, 108.03484916687012, 123.24047088623047, 110.55827140808105, 123.69537353515625, 102.88858413696289, 104.4919490814209, 162.87827491760254, 123.54111671447754, 117.6445484161377, 122.82204627990723, 121.25253677368164, 116.49465560913086, 110.04185676574707, 104.22849655151367, 100.28481483459473, 122.15971946716309, 104.76541519165039, 119.32086944580078, 107.39684104919434, 153.29933166503906, 103.05905342102051, 104.55989837646484, 120.60666084289551, 109.46798324584961, 122.23124504089355, 105.30424118041992, 109.82179641723633, 104.16293144226074, 114.99238014221191, 104.46381568908691, 119.56286430358887, 104.0029525756836, 117.98977851867676, 99.89142417907715, 107.72943496704102, 105.97968101501465, 124.30691719055176, 108.07514190673828, 107.16605186462402, 179.34679985046387, 107.06925392150879, 99.95150566101074, 111.9832992553711, 120.15318870544434, 112.28728294372559, 118.20459365844727, 103.19352149963379, 120.50151824951172, 106.80198669433594, 126.1591911315918, 110.23712158203125, 103.06525230407715, 155.07054328918457, 102.52594947814941, 107.26141929626465, 101.12309455871582, 104.6288013458252, 103.81484031677246, 114.78161811828613],
  "Depth": 131.0,
  "Expectation Value": -7.6005859375,
  "Optimal Expectation Value": -10.0,
  "Optimizer durations [ms]": [492.387, 462.112, 505.328, 482.13, 476.766, 492.749, 496.681, 488.587, 438.242, 481.149, 497.48, 481.834, 525.034, 485.857, 504.898, 493.131, 436.059, 479.239, 488.004, 486.999, 500.858, 489.623, 476.494, 428.256, 482.769, 470.917, 474.893, 487.736, 485.197, 422.349, 475.859, 479.043, 485.7, 477.336, 497.937, 483.53, 448.496, 489.645, 478.219, 500.413, 492.571, 489.042, 490.901, 439.047, 492.461, 482.034, 489.894, 481.513, 491.793, 419.611, 459.875, 481.298, 460.118, 483.316, 486.338, 482.69, 422.591, 468.1, 478.66, 484.825, 485.744, 490.539, 446.948, 483.907, 473.867, 489.232, 482.033, 478.469, 492.48, 425.69, 478.287, 481.672, 524.872, 506.466, 492.683, 512.961, 436.534, 464.113, 490.868, 483.877, 501.385, 484.83, 428.816, 485.52, 485.36, 505.895, 499.949, 488.554, 497.746, 421.831, 494.441, 476.287, 494.176, 496.805, 530.833],
  "Optimizer iterations": 95,
  "Optimizer params": [0.29878063711332925, 1.4031391183033322e-21, 0.7529879683481158, 0.588904601041012, 0.17104583301828025, 1.1766974310330025e-18],
  "P": 3,
  "Problem": "MCP",
  "QJob durations [ms]": [279.8504829406738, 239.19987678527832, 231.74190521240234, 218.56212615966797, 217.2079086303711, 224.99895095825195, 230.87763786315918, 278.0802249908447, 226.05252265930176, 225.15082359313965, 232.47718811035156, 223.23894500732422, 266.0849094390869, 224.8218059539795, 289.2429828643799, 277.19879150390625, 221.74715995788574, 225.7065773010254, 216.71342849731445, 224.0884304046631, 229.39085960388184, 278.501033782959, 265.2733325958252, 217.6201343536377, 224.4248390197754, 213.728666305542, 216.8416976928711, 228.94048690795898, 273.038387298584, 211.49134635925293, 219.85387802124023, 216.7048454284668, 227.04219818115234, 219.12169456481934, 284.8243713378906, 270.7936763763428, 233.04247856140137, 227.04172134399414, 220.9451198577881, 229.691743850708, 219.07591819763184, 277.82511711120605, 277.04405784606934, 226.0723114013672, 233.71601104736328, 225.4772186279297, 222.45144844055176, 217.85831451416016, 280.6990146636963, 210.36982536315918, 205.83200454711914, 224.351167678833, 199.12266731262207, 220.31521797180176, 277.70471572875977, 269.67787742614746, 209.11169052124023, 214.69712257385254, 221.4336395263672, 226.49598121643066, 223.51336479187012, 274.9755382537842, 232.82313346862793, 222.91207313537598, 214.37644958496094, 221.99058532714844, 221.1012840270996, 215.2576446533203, 277.53639221191406, 214.01238441467285, 224.1497039794922, 217.7567481994629, 251.49106979370117, 234.66062545776367, 275.3736972808838, 303.2114505767822, 222.28479385375977, 211.32779121398926, 232.9578399658203, 224.1992950439453, 238.30890655517578, 275.7899761199951, 214.04099464416504, 220.10087966918945, 219.03634071350098, 231.6150665283203, 222.88084030151367, 219.44189071655273, 282.8207015991211, 209.45453643798828, 223.9227294921875, 214.28966522216797, 227.38313674926758, 223.09231758117676, 315.7331943511963],
  "QPU": "300001B",
  "Qubits": 7,
  "Queue durations [ms]": [0.0, 0.0, 0.0, 0.0, 0.0, 0.0, 0.0, 0.0, 0.0, 0.0, 0.0, 0.0, 0.0, 0.0, 0.0, 0.0, 0.0, 0.0, 0.0, 0.0, 0.0, 0.0, 0.0, 0.0, 0.0, 0.0, 0.0, 0.0, 0.0, 0.0, 0.0, 0.0, 0.0, 0.0, 0.0, 0.0, 0.0, 0.0, 0.0, 0.0, 0.0, 0.0, 0.0, 0.0, 0.0, 0.0, 0.0, 0.0, 0.0, 0.0, 0.0, 0.0, 0.0, 0.0, 0.0, 0.0, 0.0, 0.0, 0.0, 0.0, 0.0, 0.0, 0.0, 0.0, 0.0, 0.0, 0.0, 0.0, 0.0, 0.0, 0.0, 0.0, 0.0, 0.0, 0.0, 0.0, 0.0, 0.0, 0.0, 0.0, 0.0, 0.0, 0.0, 0.0, 0.0, 0.0, 0.0, 0.0, 0.0, 0.0, 0.0, 0.0, 0.0, 0.0, 0.0],
  "Shots": 4096,
  "Size": 7,
  "Total Algorithm duration [s]": 45.621,
  "Total Classic duration [s]": 23.2264904460907,
  "Total Quantum duration [s]": 22.3945095539093
}
