{
  "Circuit execution durations [ms]": [116.91474914550781, 121.19913101196289, 119.37832832336426, 173.7809181213379, 118.63136291503906, 117.82169342041016, 121.73986434936523, 120.01752853393555, 118.02506446838379, 118.74055862426758, 177.9921054840088, 115.90909957885742, 123.54755401611328, 123.71444702148438, 119.89736557006836, 131.57320022583008, 121.41823768615723, 175.8866310119629, 120.27192115783691, 118.89004707336426, 121.39511108398438, 118.23415756225586, 120.58186531066895, 118.11065673828125, 184.3724250793457, 119.79031562805176, 117.74158477783203, 124.32360649108887, 120.23472785949707, 120.88346481323242, 118.6988353729248, 173.41351509094238, 120.66292762756348, 123.83437156677246, 125.00929832458496, 123.81362915039063, 130.21421432495117, 125.20027160644531, 178.26485633850098, 113.59143257141113, 119.42625045776367, 119.91119384765625, 120.86057662963867, 118.1640625, 129.86493110656738, 173.9039421081543, 118.12758445739746, 124.01413917541504, 133.0888271331787, 115.62776565551758, 126.91235542297363, 128.8447380065918, 175.35042762756348, 124.21679496765137, 124.00531768798828, 124.84145164489746, 120.95189094543457, 127.14505195617676, 120.39971351623535, 183.45975875854492, 119.60506439208984, 126.5251636505127, 127.19345092773438, 119.73214149475098, 119.47250366210938, 121.5214729309082, 122.6952075958252, 117.57588386535645, 122.8787899017334, 129.8961639404297, 123.23284149169922, 126.09744071960449, 118.85786056518555, 182.2504997253418, 119.26698684692383, 119.15802955627441, 125.83017349243164, 120.62978744506836, 120.57375907897949, 119.74143981933594, 181.99920654296875],
  "Depth": 131.0,
  "Expectation Value": -7.7392578125,
  "Optimal Expectation Value": -10.0,
  "Optimizer durations [ms]": [474.06, 481.993, 481.645, 488.618, 426.081, 474.292, 494.658, 480.99, 476.33, 480.214, 496.169, 423.697, 485.064, 495.104, 490.176, 503.435, 539.95, 497.886, 440.369, 478.469, 480.975, 479.554, 484.144, 481.539, 506.405, 472.198, 476.825, 483.722, 484.989, 486.152, 497.611, 489.817, 444.292, 495.978, 481.525, 493.555, 557.572, 535.858, 515.631, 439.033, 487.227, 486.293, 490.845, 487.397, 494.926, 492.905, 436.134, 494.369, 524.514, 493.31, 510.467, 504.957, 509.138, 452.184, 485.888, 480.86, 479.083, 492.745, 484.787, 499.118, 443.193, 487.598, 500.302, 486.875, 495.577, 496.813, 512.484, 435.599, 494.808, 507.922, 509.147, 497.997, 489.794, 505.118, 450.836, 482.62, 492.003, 491.041, 505.521, 498.22, 524.598],
  "Optimizer iterations": 81,
  "Optimizer params": [0.9833999217618802, 0.9896535586786581, 0.19984160778928994, 0.9756913399864197, 0.6141573979962625, 0.39580224501442623],
  "P": 3,
  "Problem": "MCP",
  "QJob durations [ms]": [215.81459045410156, 223.08993339538574, 273.0436325073242, 276.5483856201172, 217.3774242401123, 216.3558006286621, 224.66468811035156, 222.04923629760742, 218.05095672607422, 272.01175689697266, 284.11388397216797, 214.47420120239258, 231.33254051208496, 234.71379280090332, 224.76720809936523, 233.51144790649414, 292.3622131347656, 279.70004081726074, 225.62670707702637, 219.84601020812988, 223.54698181152344, 219.74563598632813, 222.3217487335205, 269.03533935546875, 286.44323348999023, 220.4110622406006, 219.2094326019287, 226.2105941772461, 223.4179973602295, 222.15676307678223, 285.57658195495605, 276.66163444519043, 224.94244575500488, 240.0646209716797, 227.1261215209961, 230.87596893310547, 248.32677841186523, 312.41440773010254, 288.3000373840332, 216.07565879821777, 224.7779369354248, 222.48125076293945, 223.99449348449707, 222.7463722229004, 283.6639881134033, 278.7294387817383, 221.18139266967773, 235.84842681884766, 242.30384826660156, 220.25609016418457, 237.3666763305664, 293.7891483306885, 283.7262153625488, 227.9524803161621, 226.40275955200195, 225.7673740386963, 220.58868408203125, 231.08315467834473, 273.9722728729248, 286.3421440124512, 223.2229709625244, 230.3299903869629, 235.52227020263672, 223.86813163757324, 229.62427139282227, 282.5958728790283, 284.86037254333496, 218.98341178894043, 225.78907012939453, 232.36751556396484, 236.92965507507324, 227.50377655029297, 273.8378047943115, 288.85769844055176, 222.2449779510498, 224.69401359558105, 227.08606719970703, 226.16076469421387, 225.64029693603516, 283.09106826782227, 291.28003120422363],
  "QPU": "300001B",
  "Qubits": 7,
  "Queue durations [ms]": [0.0, 0.0, 0.0, 0.0, 0.0, 0.0, 0.0, 0.0, 0.0, 0.0, 0.0, 0.0, 0.0, 0.0, 0.0, 0.0, 0.0, 0.0, 0.0, 0.0, 0.0, 0.0, 0.0, 0.0, 0.0, 0.0, 0.0, 0.0, 0.0, 0.0, 0.0, 0.0, 0.0, 0.0, 0.0, 0.0, 0.0, 0.0, 0.0, 0.0, 0.0, 0.0, 0.0, 0.0, 0.0, 0.0, 0.0, 0.0, 0.0, 0.0, 0.0, 0.0, 0.0, 0.0, 0.0, 0.0, 0.0, 0.0, 0.0, 0.0, 0.0, 0.0, 0.0, 0.0, 0.0, 0.0, 0.0, 0.0, 0.0, 0.0, 0.0, 0.0, 0.0, 0.0, 0.0, 0.0, 0.0, 0.0, 0.0, 0.0, 0.0],
  "Shots": 4096,
  "Size": 7,
  "Total Algorithm duration [s]": 39.493,
  "Total Classic duration [s]": 19.813218324661257,
  "Total Quantum duration [s]": 19.679781675338745
}
