{
  "Depth": 2.0,
  "Job durations [ms]": [738.8473749160767, 737.618088722229, 741.3787841796875, 732.5257062911987, 749.2014169692993, 733.0268621444702, 896.7932462692261, 745.8256483078003, 747.028112411499, 750.9616613388062, 730.4337024688721, 737.4509572982788, 742.0710325241089, 895.1320648193359, 732.6371669769287, 734.7142696380615, 740.0879859924316, 744.7350025177002, 749.3542432785034, 740.4019832611084, 738.2534742355347, 734.5743179321289, 728.4808158874512, 737.2851371765137, 749.4010925292969, 747.2938299179077, 743.1553602218628, 738.5950088500977, 743.0468797683716, 738.7275695800781, 733.2128286361694, 736.7347478866577, 747.3820447921753, 744.4007396697998, 750.0213384628296, 733.9687347412109, 739.427924156189, 738.2804155349731, 741.253137588501, 869.3829774856567, 745.0296878814697, 735.2049350738525, 730.05211353302, 741.599440574646, 746.6287612915039, 746.9635009765625, 747.1688985824585, 731.4950227737427, 751.4734268188477, 738.2427453994751, 739.8574352264404, 732.4283123016357, 736.1154556274414, 753.1062364578247, 735.0389957427979, 746.3411092758179, 729.1948795318604, 738.1591796875, 746.9910383224487, 738.3588552474976, 736.7579936981201, 747.0287084579468, 738.3130788803101, 740.464448928833, 725.8621454238892, 730.1105260848999, 889.2234563827515, 739.0930652618408, 738.9141321182251, 743.3944940567017, 740.060567855835, 743.8945770263672, 739.5964860916138, 736.7235422134399, 749.4068145751953, 738.5621070861816, 747.3832368850708, 739.222526550293, 746.6992139816284, 742.1962022781372, 740.8779859542847, 727.3857593536377, 736.7465496063232, 739.4607067108154, 893.6383724212646, 808.0111742019653, 879.8644542694092, 738.5562658309937, 736.3741397857666, 740.8369779586792, 749.2349147796631, 740.8914566040039, 742.3533201217651, 742.8388595581055, 735.8027696609497, 743.6931133270264, 734.4365119934082, 737.7761602401733, 742.4778938293457, 737.074613571167, 740.9718036651611, 739.8554086685181, 992.2807216644287, 751.4817714691162, 739.73548412323, 742.6204681396484, 741.0106658935547, 759.2276334762573, 896.3168859481812, 738.7875318527222, 747.5556135177612, 737.2355461120605, 737.7409934997559, 741.5143251419067, 748.8130331039429, 741.8572902679443, 737.0485067367554, 739.4505739212036, 744.0911531448364, 735.663890838623, 738.8807535171509, 746.6809749603271, 728.1169891357422, 741.6180372238159, 735.1560592651367, 738.175630569458, 724.6032953262329, 735.4941368103027, 746.387243270874, 730.9236526489258, 746.5677261352539, 737.7831935882568, 747.5929260253906, 742.4739599227905, 735.730767250061, 730.3899526596069, 745.4485893249512, 732.9987287521362, 742.6743507385254, 736.3075017929077, 782.9596996307373, 849.2836952209473, 748.1287717819214, 737.7663850784302, 736.680269241333, 733.6379289627075],
  "Optimizer durations [ms]": [3979.721, 3985.014, 3990.643, 3938.033, 4022.5, 3940.26, 4254.611, 4052.31, 3989.928, 4029.236, 3913.642, 3918.638, 3986.846, 4290.137, 3917.382, 3943.881, 3948.585, 3995.461, 3994.97, 4053.545, 3945.044, 3906.36, 3907.404, 3980.268, 3973.973, 3953.622, 3972.503, 3936.253, 3950.592, 3949.064, 3907.242, 3967.422, 3998.779, 3947.923, 4014.383, 3920.911, 3972.284, 3948.223, 4028.595, 4253.384, 3933.977, 3992.626, 3949.03, 4015.506, 3974.55, 3980.062, 4019.937, 3920.805, 4002.275, 4064.7, 3941.294, 3953.894, 3931.512, 4053.595, 3963.441, 4049.258, 3929.202, 3967.243, 3996.622, 3934.316, 3956.639, 4079.091, 3975.537, 3981.642, 3872.49, 3941.001, 4238.694, 3921.858, 3956.384, 3944.612, 3956.825, 3991.097, 3963.37, 3991.973, 3986.17, 3968.674, 4010.528, 3958.707, 3968.827, 3980.572, 3985.022, 3872.395, 3950.574, 3918.012, 4266.965, 4022.596, 4319.444, 3845.166, 3735.535, 4004.678, 4009.775, 3807.174, 3940.421, 3980.223, 3754.554, 4025.935, 3979.597, 3817.372, 4011.549, 3947.924, 3764.408, 3814.102, 4291.838, 4154.185, 3753.564, 4002.898, 3812.278, 3857.655, 4224.147, 3957.914, 4038.515, 3950.642, 3945.933, 3960.418, 3954.254, 4060.358, 3920.365, 4003.092, 3956.894, 3961.951, 3912.55, 4026.173, 3917.872, 3989.059, 3930.223, 4017.977, 3935.417, 3947.078, 4022.68, 3934.001, 3992.906, 3943.413, 4013.138, 4023.643, 3929.898, 3972.58, 3961.556, 3941.089, 4029.492, 3951.431, 4023.801, 4176.698, 4031.251, 3941.9, 3915.947, 3988.717],
  "Optimizer iterations": 146,
  "Qubits": 9,
  "Total Algorithm duration [s]": 580.849,
  "Total Classic duration [s]": 471.2794864406586,
  "Total Quantum duration [s]": 109.56951355934143,
  "Expectation Value": -5.568974494934082,
  "Optimal Expectation Value": -5.571199893951416,
  "Optimizer params": [0.9980884853241926, 0.49434695974111453, 0.9996434262329387, 0.49684069318154894, 0.4968934031702704, 0.9967484569186551, 0.5046060930990245, 0.49601685732014145, 0.9959544064772424],
  "QPU": "6010003",
  "Problem": "RH",
  "Size": 9,
  "P": 0,
  "Shots": 4096
}