{
  "Circuit execution durations [ms]": [158.0, 146.0, 157.0, 178.0, 172.0, 160.0, 190.0, 166.0, 201.0, 150.0, 172.0, 159.0, 171.0, 175.0, 202.0, 163.0, 168.0, 159.0, 154.0, 191.0, 172.0, 158.0, 161.0, 164.0, 191.0, 171.0, 359.0, 170.0, 198.0, 158.0, 183.0, 165.0, 156.0, 166.0, 241.0, 161.0, 164.0, 184.0, 176.0, 160.0, 195.0, 151.0, 183.0, 181.0, 164.0, 152.0, 175.0, 177.0, 165.0, 178.0, 157.0, 181.0, 163.0, 166.0, 164.0, 295.0, 154.0, 223.0, 186.0, 194.0, 179.0, 179.0, 170.0, 224.0, 157.0, 192.0, 198.0, 179.0, 164.0, 173.0, 197.0, 202.0, 144.0, 178.0, 196.0, 189.0, 158.0, 168.0, 309.0],
  "Depth": 221.0,
  "Expectation Value": -13.03955078125,
  "Optimal Expectation Value": -18.0,
  "Optimizer durations [ms]": [6216.941, 6362.784, 16810.171, 6419.224, 6266.682, 6229.292, 6538.537, 6572.417, 6482.179, 6292.858, 6244.588, 6553.654, 6182.193, 6332.764, 6579.983, 6442.233, 6413.291, 6383.492, 6215.315, 6263.957, 6246.118, 6232.058, 6337.764, 6502.809, 6252.016, 6192.878, 6157.485, 6350.062, 6389.132, 6237.143, 6310.497, 6418.053, 6299.457, 6258.244, 6280.255, 6316.46, 6226.616, 6272.918, 6232.383, 6263.419, 6457.211, 6322.229, 6570.779, 6339.044, 6458.224, 6325.587, 6252.53, 6543.56, 6255.686, 6309.282, 6195.013, 6331.612, 6631.192, 6168.809, 6433.326, 6366.269, 11508.892, 6283.004, 6451.687, 17081.012, 11544.516, 6265.792, 6241.743, 6200.525, 6200.461, 6377.273, 6187.523, 6572.443, 6424.949, 6640.092, 6401.1, 6660.997, 6367.322, 6292.259, 6265.015, 6209.423, 6837.562, 6352.384, 6269.358],
  "Optimizer iterations": 79,
  "Optimizer params": [0.27681132860340063, 0.3909296031992097, 0.20914516808926048, 0.1157839594091267, 0.9989376985307031, 0.40339498409245217],
  "P": 3,
  "Problem": "MCP",
  "QJob durations [ms]": [6138.6871337890625, 6235.504150390625, 16732.375144958496, 6341.031312942505, 6139.657735824585, 6151.156663894653, 6412.975549697876, 6492.818593978882, 6404.599189758301, 6169.691801071167, 6166.772842407227, 6433.880805969238, 6103.251695632935, 6254.959344863892, 6457.977056503296, 6363.741397857666, 6292.9816246032715, 6305.753946304321, 6136.779069900513, 6141.431093215942, 6167.976140975952, 6151.95369720459, 6220.219135284424, 6425.237417221069, 6130.9802532196045, 6115.352153778076, 6038.454294204712, 6272.628545761108, 6311.321258544922, 6116.056442260742, 6232.79595375061, 6298.968076705933, 6221.616506576538, 6180.757999420166, 6158.266544342041, 6239.130020141602, 6148.816347122192, 6154.773473739624, 6155.183792114258, 6137.341499328613, 6377.001047134399, 6155.663967132568, 6470.212697982788, 6258.54754447937, 6326.366186141968, 6243.6182498931885, 6128.54266166687, 6465.733528137207, 6176.567554473877, 6182.016372680664, 6117.814302444458, 6252.426624298096, 6511.7998123168945, 6090.7933712005615, 6313.105821609497, 6287.510871887207, 11390.313148498535, 6204.873323440552, 6374.544858932495, 16960.560083389282, 11466.477155685425, 6147.750616073608, 6161.155462265015, 6122.861623764038, 6079.133749008179, 6299.706220626831, 6109.342575073242, 6455.499172210693, 6347.548246383667, 6520.087480545044, 6322.91841506958, 6541.882753372192, 6289.734601974487, 6214.784383773804, 6144.763469696045, 6130.534648895264, 6718.235015869141, 6274.555444717407, 6192.206144332886],
  "QPU": "10000001",
  "Qubits": 12,
  "Queue durations [ms]": [0.0, 0.0, 0.0, 0.0, 0.0, 0.0, 0.0, 0.0, 0.0, 0.0, 0.0, 0.0, 0.0, 0.0, 0.0, 0.0, 0.0, 0.0, 0.0, 0.0, 0.0, 0.0, 0.0, 0.0, 0.0, 0.0, 0.0, 0.0, 0.0, 0.0, 0.0, 0.0, 0.0, 0.0, 0.0, 0.0, 0.0, 0.0, 0.0, 0.0, 0.0, 0.0, 0.0, 0.0, 0.0, 0.0, 0.0, 0.0, 0.0, 0.0, 0.0, 0.0, 0.0, 0.0, 0.0, 0.0, 0.0, 0.0, 0.0, 0.0, 0.0, 0.0, 0.0, 0.0, 0.0, 0.0, 0.0, 0.0, 0.0, 0.0, 0.0, 0.0, 0.0, 0.0, 0.0, 0.0, 0.0, 0.0, 0.0],
  "Shots": 4096,
  "Size": 12,
  "Total Algorithm duration [s]": 533.174,
  "Total Classic duration [s]": 7.592955087661721,
  "Total Quantum duration [s]": 525.5810449123383
}
