{
  "Depth": 32.0,
  "Expectation Value": -2.0,
  "Job durations [ms]": [0.2789, 0.2661, 0.2577, 0.2677, 0.2577, 0.2516, 0.26630000000000004, 0.26899999999999996, 0.6979, 0.2569, 0.2657, 0.2581, 0.33340000000000003, 0.31760000000000005, 0.23929999999999998, 0.2396, 0.2394, 0.2411, 0.252, 0.5078, 0.2391, 0.2364, 0.2405, 0.2397, 0.2475, 0.38020000000000004, 0.253, 0.37379999999999997, 0.2636, 0.3133, 0.2454, 0.23240000000000002, 0.2137, 0.42069999999999996, 0.25379999999999997, 0.2437, 0.3088, 0.2565, 0.24330000000000002, 0.24669999999999997, 0.24630000000000002, 0.23650000000000002, 0.24689999999999998, 0.24649999999999997, 0.3817, 0.2419, 0.243, 0.2643, 0.2369, 0.2314, 0.2651, 0.2848, 0.2418, 0.2387, 0.24850000000000003, 0.2294, 0.2421, 0.26180000000000003, 0.2397, 0.2503, 0.2351, 0.2396, 0.2385, 0.26239999999999997, 0.2325, 0.2319, 0.2429, 0.24250000000000002, 0.2773, 0.24130000000000001, 0.23829999999999998, 0.2453, 0.4767, 0.2496, 0.25980000000000003, 0.2457, 0.24350000000000002, 0.23709999999999998, 0.2454, 0.43679999999999997, 0.2676, 0.2605, 0.2567, 0.6431, 0.2786, 0.4048, 0.31320000000000003],
  "Optimal Expectation Value": -2.0,
  "Optimizer durations [ms]": [12.776, 12.633, 12.982, 10.136, 10.275, 12.701, 12.098, 8.358, 9.322, 12.748, 12.063, 12.854, 8.797, 8.607, 11.944, 10.871, 12.357, 12.673, 12.554, 11.846, 12.22, 8.674, 10.332, 8.212, 12.609, 9.446, 12.771, 8.157, 10.135, 11.803, 12.673, 12.762, 12.296, 11.977, 11.56, 8.504, 8.625, 12.786, 10.016, 12.649, 9.04, 12.546, 11.553, 10.388, 11.982, 12.58, 9.91, 12.267, 12.237, 12.565, 10.117, 8.221, 12.549, 12.288, 12.435, 11.174, 8.432, 12.577, 8.681, 12.554, 9.958, 10.185, 10.479, 9.435, 7.726, 12.605, 7.959, 11.452, 13.022, 12.327, 12.444, 8.183, 12.125, 12.342, 9.251, 12.566, 8.784, 9.852, 9.149, 8.692, 12.847, 12.803, 12.56, 9.778, 12.864, 12.291, 11.576],
  "Optimizer iterations": 87,
  "Optimizer params": [0.363196437496425, 0.96636426614197, 0.8903955010613946, 0.109501458954278, 0.9747082077238042, 0.9041977010259393],
  "P": 3,
  "Problem": "MCP",
  "QPU": "7000000",
  "Qubits": 3,
  "Shots": 4096,
  "Size": 3,
  "Total Algorithm duration [s]": 0.964,
  "Total Classic duration [s]": 0.9397597999999999,
  "Total Quantum duration [s]": 0.024240199999999996
}
