{
  "Depth": 32.0,
  "Expectation Value": -2.0,
  "Job durations [ms]": [0.2842, 0.26489999999999997, 0.2581, 0.7113, 0.27999999999999997, 0.2495, 0.39780000000000004, 0.639, 0.2668, 0.25680000000000003, 0.24420000000000003, 0.2903, 0.2508, 0.4485, 0.248, 0.6325999999999999, 0.3195, 0.3984, 0.24330000000000002, 0.2344, 0.2521, 0.3039, 0.254, 0.2655, 0.2452, 0.5216, 0.5199, 0.2654, 0.2505, 0.47869999999999996, 0.24469999999999997, 0.24760000000000001, 0.3887, 0.2407, 0.2661, 0.2389, 0.6254000000000001, 0.2424, 0.3679, 0.24669999999999997, 0.2473, 0.24429999999999996, 0.2394, 0.2998, 0.3019, 0.3008, 0.2349, 0.2522, 0.2409, 0.3275, 0.2587, 0.2979, 0.25720000000000004, 0.4316, 0.2681, 0.4473, 0.2453, 0.24409999999999998, 0.2473, 0.2409, 0.2398, 0.2429, 0.4145, 0.2321, 0.2353, 0.2497, 0.6363, 0.2944, 0.2511, 0.2428, 0.2429, 0.243, 0.4489, 0.2428, 0.24459999999999998, 0.2283, 0.27240000000000003, 0.4751],
  "Optimal Expectation Value": -2.0,
  "Optimizer durations [ms]": [13.146, 12.9, 12.521, 9.61, 12.935, 12.583, 12.16, 9.072, 12.85, 12.368, 11.106, 11.901, 12.444, 12.033, 9.053, 9.339, 8.717, 11.804, 9.366, 12.473, 9.25, 8.55, 8.933, 11.198, 12.597, 12.054, 11.884, 12.065, 12.626, 12.012, 9.671, 12.386, 12.11, 11.865, 12.971, 12.418, 11.989, 9.892, 9.548, 12.238, 9.672, 8.005, 9.201, 8.37, 8.423, 7.463, 12.299, 8.103, 10.658, 12.306, 12.827, 5.953, 12.665, 12.008, 11.671, 11.946, 11.823, 12.719, 12.577, 12.269, 12.458, 9.275, 7.448, 12.286, 11.754, 10.813, 11.868, 12.309, 12.389, 9.77, 8.91, 12.422, 11.72, 8.628, 12.455, 12.298, 10.471, 11.42],
  "Optimizer iterations": 78,
  "Optimizer params": [0.1656900139527504, 0.7267698722163902, 0.9335886315638601, 0.9744004103445271, 0.675990150744116, 0.2952369458523794],
  "P": 3,
  "Problem": "MCP",
  "QPU": "7000000",
  "Qubits": 3,
  "Shots": 4096,
  "Size": 3,
  "Total Algorithm duration [s]": 0.864,
  "Total Classic duration [s]": 0.8395514,
  "Total Quantum duration [s]": 0.024448599999999987
}
