{
  "Depth": 32.0,
  "Expectation Value": -2.0,
  "Job durations [ms]": [0.2881, 0.25379999999999997, 0.266, 0.4969, 0.2566, 0.26870000000000005, 0.29550000000000004, 0.31270000000000003, 0.2583, 0.24439999999999998, 0.2434, 0.2515, 0.2706, 0.2561, 0.24830000000000002, 0.3151, 0.3515, 0.2605, 0.24899999999999997, 0.6906, 0.3331, 0.6324, 0.2536, 0.6557, 0.25730000000000003, 0.2606, 0.26630000000000004, 0.5349, 0.2718, 0.2607, 0.4709, 0.4281, 0.19619999999999999, 0.25539999999999996, 0.23399999999999999, 0.24230000000000002, 0.3285, 0.40640000000000004, 0.2784, 0.252, 0.44789999999999996, 0.27240000000000003, 0.251, 0.5749000000000001, 0.3531, 0.2407, 0.25589999999999996, 0.2628, 0.2542, 0.2563, 0.3799, 0.3039, 0.2969, 0.24420000000000003, 0.23929999999999998, 0.235, 0.23299999999999998, 0.2377, 0.2362, 0.3604, 0.2286, 0.2522, 0.2023, 0.5691, 0.24850000000000003, 0.371, 0.2414],
  "Optimal Expectation Value": -2.0,
  "Optimizer durations [ms]": [13.102, 12.757, 13.023, 9.793, 12.758, 12.982, 10.724, 8.849, 12.514, 12.5, 9.068, 11.93, 12.571, 12.798, 8.627, 4.727, 8.862, 12.564, 8.093, 8.161, 5.883, 8.013, 12.828, 12.131, 8.959, 9.429, 11.694, 11.891, 13.038, 12.75, 10.193, 9.4, 7.42, 10.432, 9.963, 9.359, 5.837, 11.998, 13.168, 12.334, 8.172, 12.167, 12.734, 8.437, 5.234, 12.319, 12.791, 12.936, 10.16, 12.531, 7.091, 3.603, 4.33, 12.378, 12.68, 12.036, 10.114, 12.559, 12.051, 11.292, 10.558, 8.104, 7.399, 11.96, 11.618, 9.362, 12.343],
  "Optimizer iterations": 67,
  "Optimizer params": [0.763809768226178, 0.17481520885052262, 0.03744429861605274, 0.4306560306254401, 0.809519703844869, 0.7410848965415333],
  "P": 3,
  "Problem": "MCP",
  "QPU": "7000000",
  "Qubits": 3,
  "Shots": 4096,
  "Size": 3,
  "Total Algorithm duration [s]": 0.7,
  "Total Classic duration [s]": 0.679055,
  "Total Quantum duration [s]": 0.020944999999999995
}
