{
  "Circuit execution durations [ms]": [72.25728034973145, 72.93486595153809, 72.90196418762207, 70.38640975952148, 72.53313064575195, 72.6008415222168, 74.37968254089355, 74.22685623168945, 70.38998603820801, 74.78785514831543, 72.04604148864746, 74.18274879455566, 71.02584838867188, 125.87785720825195, 76.85041427612305, 70.55163383483887, 72.61848449707031, 69.60535049438477, 73.18544387817383, 71.57516479492188, 72.81208038330078, 73.07934761047363, 73.87733459472656, 74.53036308288574, 71.66171073913574, 73.05479049682617, 72.4327564239502, 123.42286109924316, 124.88865852355957, 74.39255714416504, 71.21872901916504, 70.82557678222656, 71.65789604187012, 72.02577590942383, 72.46208190917969, 71.82478904724121, 71.97690010070801, 75.90818405151367, 72.9513168334961, 73.97842407226563, 72.8302001953125, 72.56913185119629, 124.99594688415527, 125.31924247741699, 71.59757614135742, 74.36394691467285, 71.87581062316895, 74.40352439880371, 74.40829277038574, 71.40660285949707, 72.02744483947754, 72.48997688293457, 72.70288467407227, 73.81153106689453, 73.61125946044922, 73.56905937194824, 72.07036018371582, 124.52530860900879, 124.76944923400879, 71.00582122802734, 72.87192344665527, 75.0265121459961, 71.64120674133301, 77.21924781799316, 73.26507568359375, 76.11393928527832, 75.57964324951172, 73.30060005187988, 73.00615310668945, 72.97515869140625, 72.49331474304199, 72.05486297607422, 125.32210350036621, 124.50051307678223, 72.95846939086914, 73.71020317077637],
  "Depth": 113.0,
  "Expectation Value": -6.63427734375,
  "Optimal Expectation Value": -8.0,
  "Optimizer durations [ms]": [422.002, 419.188, 421.319, 413.771, 420.918, 419.356, 423.276, 425.544, 422.334, 427.863, 427.809, 431.518, 426.86, 429.886, 380.008, 414.614, 421.031, 412.067, 420.786, 420.359, 420.15, 422.187, 423.033, 428.372, 428.596, 428.805, 432.229, 427.739, 428.684, 378.144, 416.092, 418.38, 416.947, 418.557, 422.368, 421.912, 423.101, 427.779, 425.925, 427.703, 429.81, 436.17, 429.971, 428.984, 374.731, 419.174, 416.347, 419.888, 419.974, 419.92, 421.166, 423.442, 425.113, 428.188, 426.958, 430.169, 432.507, 434.162, 429.326, 374.054, 418.475, 422.989, 417.001, 425.272, 423.844, 429.967, 428.708, 425.977, 430.057, 427.369, 434.885, 430.601, 429.877, 427.067, 376.923, 420.184],
  "Optimizer iterations": 76,
  "Optimizer params": [0.5596786073605129, 0.9963491454397632, 0.9059786251029429, 0.03324166090738279, 0.574169226427456, 0.3975444407726983],
  "P": 3,
  "Problem": "MCP",
  "QJob durations [ms]": [158.42342376708984, 158.84733200073242, 159.9884033203125, 153.76996994018555, 158.29062461853027, 157.39154815673828, 159.00516510009766, 160.34293174743652, 154.84881401062012, 160.1731777191162, 159.30461883544922, 213.82570266723633, 208.73212814331055, 212.39304542541504, 162.34779357910156, 154.9396514892578, 159.50250625610352, 152.27031707763672, 160.82262992858887, 157.66501426696777, 158.16974639892578, 158.78748893737793, 158.58197212219238, 162.54591941833496, 158.7374210357666, 159.46269035339355, 213.93442153930664, 209.5320224761963, 210.28590202331543, 159.76381301879883, 156.06689453125, 156.23950958251953, 157.69457817077637, 157.69362449645996, 159.31153297424316, 159.2099666595459, 157.17148780822754, 162.06622123718262, 158.2510471343994, 158.8761806488037, 210.7107639312744, 213.40346336364746, 211.4236354827881, 211.44962310791016, 156.68916702270508, 158.47206115722656, 157.43303298950195, 160.81666946411133, 159.7447395324707, 157.4718952178955, 158.4944725036621, 158.59246253967285, 159.14392471313477, 160.2303981781006, 159.10887718200684, 160.36391258239746, 213.99259567260742, 212.94331550598145, 211.1685276031494, 155.93576431274414, 158.0204963684082, 161.07821464538574, 157.24658966064453, 163.8634204864502, 158.41388702392578, 163.39778900146484, 161.9894504547119, 159.22236442565918, 160.3250503540039, 159.26098823547363, 213.16814422607422, 212.18538284301758, 211.60387992858887, 208.8160514831543, 158.93912315368652, 159.31034088134766],
  "QPU": "3000010",
  "Qubits": 6,
  "Queue durations [ms]": [0.0, 0.0, 0.0, 0.0, 0.0, 0.0, 0.0, 0.0, 0.0, 0.0, 0.0, 0.0, 0.0, 0.0, 0.0, 0.0, 0.0, 0.0, 0.0, 0.0, 0.0, 0.0, 0.0, 0.0, 0.0, 0.0, 0.0, 0.0, 0.0, 0.0, 0.0, 0.0, 0.0, 0.0, 0.0, 0.0, 0.0, 0.0, 0.0, 0.0, 0.0, 0.0, 0.0, 0.0, 0.0, 0.0, 0.0, 0.0, 0.0, 0.0, 0.0, 0.0, 0.0, 0.0, 0.0, 0.0, 0.0, 0.0, 0.0, 0.0, 0.0, 0.0, 0.0, 0.0, 0.0, 0.0, 0.0, 0.0, 0.0, 0.0, 0.0, 0.0, 0.0, 0.0, 0.0, 0.0],
  "Shots": 4096,
  "Size": 6,
  "Total Algorithm duration [s]": 32.026,
  "Total Classic duration [s]": 19.056302286148075,
  "Total Quantum duration [s]": 12.969697713851929
}
