{
  "Depth": 607.0,
  "Expectation Value": -3.743654251098633,
  "Job durations [ms]": [3.8102, 3.8533999999999997, 3.7840000000000003, 3.7887, 3.7984999999999998, 3.821, 3.8463, 3.7553, 3.7831, 3.8333999999999997, 3.8139, 3.7992999999999997, 3.7592, 3.7653, 3.8099000000000003, 3.8179, 3.9074, 3.7816, 3.7793, 3.8261, 3.7348, 3.8028, 4.267499999999999, 3.7774, 3.8285, 3.7794, 3.8448, 3.8162000000000003, 3.81, 3.8030999999999997, 3.8392, 3.8718, 3.7588, 3.8023000000000002, 3.8093, 3.8226, 3.9413, 3.7629, 3.746, 3.6916, 3.9259999999999997, 3.8704, 3.7885, 3.9363999999999995, 3.8547, 3.8454, 3.7613999999999996, 3.7648, 3.7811, 3.8436, 3.7840000000000003, 3.7816, 3.8673, 3.811, 3.8889, 3.7978, 3.803, 3.7491, 3.8951, 3.7752, 3.7992999999999997, 3.8683, 3.7478, 3.7827, 3.8156000000000003, 3.7791, 3.801, 3.7918000000000003, 3.9755, 3.9669, 3.8007],
  "Optimal Expectation Value": -6.0,
  "Optimizer durations [ms]": [48.25, 48.82, 48.069, 48.397, 48.348, 48.306, 48.8, 48.063, 48.418, 48.527, 48.498, 48.435, 47.84, 48.182, 48.551, 48.724, 49.611, 48.218, 48.143, 48.689, 47.788, 48.175, 48.359, 48.101, 48.469, 48.27, 48.894, 48.597, 48.4, 48.474, 49.001, 49.18, 48.147, 48.549, 48.363, 48.508, 44.932, 47.986, 47.972, 47.198, 44.752, 44.333, 48.236, 44.752, 48.75, 48.933, 47.998, 48.005, 48.126, 48.503, 48.035, 47.96, 48.97, 48.57, 44.43, 48.06, 48.491, 47.757, 49.432, 48.205, 48.395, 49.032, 47.662, 48.488, 48.317, 48.226, 48.395, 48.427, 45.294, 44.944, 48.336],
  "Optimizer iterations": 71,
  "Optimizer params": [0.3984639001852029, 0.7523147811486103, 0.20681921733625327, 0.7708223904099134, 0.08459981151110686, 0.5931641852650946],
  "P": 3,
  "Problem": "DSP",
  "QPU": "7000000",
  "Qubits": 13,
  "Shots": 4096,
  "Size": 8,
  "Total Algorithm duration [s]": 3.41,
  "Total Classic duration [s]": 3.1387019,
  "Total Quantum duration [s]": 0.2712981000000001
}
