{
  "Depth": 607.0,
  "Expectation Value": -4.153923988342285,
  "Job durations [ms]": [3.8087, 3.8358, 3.7908, 3.8143000000000002, 3.7506000000000004, 3.7462, 3.7957, 3.6934, 3.7534, 3.6942, 3.77, 3.8823999999999996, 3.6936999999999998, 3.7623, 3.7582, 3.7881, 3.8851, 3.8398999999999996, 3.7927999999999997, 3.8023000000000002, 3.7879, 3.8083, 3.7674000000000003, 3.8017, 3.7601, 3.7777000000000003, 3.8032, 3.9110000000000005, 3.7982, 3.9368, 3.7905, 3.7735, 3.7766, 3.7666, 3.7856, 3.8173999999999997, 3.7258, 3.7969000000000004, 3.7755, 3.8024, 3.7288, 3.8324000000000003, 3.8175000000000003, 3.8987000000000003, 3.7959, 3.7725, 3.7773, 3.8098, 3.8045, 3.8842999999999996, 3.8008, 3.9446999999999997, 3.8706, 3.7834000000000003, 3.8693999999999997, 3.7869, 3.7658, 3.7371000000000003, 3.8083, 3.7878, 3.9074, 3.8268999999999997, 3.8004, 3.817, 3.7708, 3.7965999999999998, 3.7390000000000003, 3.8428, 3.7544000000000004, 3.9022, 3.9234999999999998, 3.8045, 3.7283, 3.7214, 3.8396, 3.7756, 3.8434, 3.7986999999999997, 3.888, 3.7353, 3.7364, 3.7617000000000003, 3.8014, 3.7444, 3.7815000000000003, 3.908, 3.79, 3.8081, 3.7898, 3.766, 3.7883999999999998, 3.767, 3.8365],
  "Optimal Expectation Value": -6.0,
  "Optimizer durations [ms]": [48.531, 48.804, 48.25, 48.567, 47.847, 47.831, 48.338, 47.334, 47.922, 47.274, 48.155, 44.122, 47.306, 48.012, 47.943, 48.381, 49.288, 43.881, 48.307, 48.179, 48.17, 48.435, 47.805, 48.499, 47.986, 48.191, 48.315, 44.689, 48.392, 45.093, 48.386, 48.045, 48.202, 48.021, 48.241, 48.63, 47.477, 48.591, 48.076, 48.393, 47.345, 48.882, 48.429, 44.379, 48.365, 47.978, 48.205, 48.235, 48.364, 44.608, 48.484, 45.088, 44.274, 48.202, 49.074, 48.118, 48.079, 47.723, 48.391, 48.385, 44.676, 48.545, 48.449, 48.609, 47.982, 48.335, 47.716, 48.822, 47.896, 44.55, 44.633, 48.247, 47.671, 47.553, 43.917, 48.208, 44.247, 48.447, 48.978, 47.846, 47.489, 47.942, 48.479, 47.587, 48.282, 44.547, 48.122, 48.5, 48.242, 47.791, 48.066, 48.109, 48.768],
  "Optimizer iterations": 93,
  "Optimizer params": [0.6537026059941506, 0.2224847488695979, 0.9705754205583015, 0.9440180176045792, 0.6100991765983897, 0.03331044386306647],
  "P": 3,
  "Problem": "DSP",
  "QPU": "7000000",
  "Qubits": 13,
  "Shots": 4096,
  "Size": 8,
  "Total Algorithm duration [s]": 4.429,
  "Total Classic duration [s]": 4.0756075,
  "Total Quantum duration [s]": 0.35339250000000005
}
