{
  "Depth": 607.0,
  "Expectation Value": -4.1952948570251465,
  "Job durations [ms]": [3.8143000000000002, 3.7858, 3.8078000000000003, 3.7409000000000003, 3.8222, 3.7842000000000002, 3.9769999999999994, 3.803, 3.8999, 3.9072999999999998, 3.8514, 3.952, 3.9259000000000004, 3.8608000000000002, 3.873, 4.0005, 3.8163, 3.7869, 3.8533, 3.8436999999999997, 3.8143000000000002, 3.7856, 3.7896, 3.9822, 3.807, 3.8375000000000004, 3.7651, 3.7791, 3.7680000000000002, 3.7808, 3.8127, 4.0223, 3.7873, 3.814, 3.9408000000000003, 3.7066999999999997, 3.8101, 4.1884, 3.8048, 3.769, 3.8686, 3.9321, 3.7972, 3.8752, 4.0003, 3.8095999999999997, 3.9651, 3.786, 3.7824999999999998, 3.7950000000000004, 3.7709, 3.8209, 3.7735999999999996, 3.8105, 3.76, 3.8159, 3.9212, 3.9318, 3.9614999999999996, 3.8153, 4.0102, 3.7922, 3.8018, 3.8146, 3.8016, 3.821, 3.8396, 3.8601, 3.8173999999999997, 4.3521, 3.771, 3.7781, 3.9642000000000004, 3.778, 3.8479, 3.8075, 3.793, 3.9344999999999994, 3.8329000000000004, 3.8531, 3.9492, 3.8268, 3.8705, 3.9873, 3.7013, 3.8421000000000003, 3.8162000000000003, 3.7744, 3.7881, 3.7385, 3.9023, 3.7925, 3.8278000000000003, 3.8385],
  "Optimal Expectation Value": -6.0,
  "Optimizer durations [ms]": [48.477, 48.119, 48.077, 47.837, 48.492, 48.031, 45.294, 48.435, 44.652, 44.526, 48.946, 45.129, 44.535, 44.014, 44.338, 45.313, 48.482, 48.058, 44.003, 48.706, 48.453, 48.188, 48.089, 45.292, 48.597, 48.911, 47.817, 48.177, 48.228, 48.024, 48.332, 45.834, 48.01, 48.659, 44.91, 47.261, 48.479, 47.276, 48.413, 48.149, 47.147, 44.943, 48.306, 48.945, 45.701, 48.528, 45.59, 48.159, 48.274, 48.252, 47.842, 48.611, 48.073, 48.494, 47.914, 48.474, 44.831, 49.47, 45.397, 48.683, 45.723, 48.057, 48.417, 48.546, 48.35, 48.367, 48.549, 48.771, 48.388, 48.801, 48.412, 47.853, 45.161, 48.009, 48.77, 48.374, 48.581, 44.76, 48.762, 48.962, 45.083, 48.6, 49.08, 45.51, 47.083, 48.704, 48.315, 47.947, 48.171, 42.991, 44.522, 48.287, 48.744, 48.607],
  "Optimizer iterations": 94,
  "Optimizer params": [0.5231726171500479, 0.2709238456467814, 0.7257706540976049, 0.7555336591776696, 0.6746976551650429, 0.9202663975781011],
  "P": 3,
  "Problem": "DSP",
  "QPU": "7000000",
  "Qubits": 13,
  "Shots": 4096,
  "Size": 8,
  "Total Algorithm duration [s]": 4.461,
  "Total Classic duration [s]": 4.099209,
  "Total Quantum duration [s]": 0.36179100000000014
}
