{
  "Depth": 515.0,
  "Expectation Value": -2.5451202392578125,
  "Job durations [ms]": [3.2246, 3.2172, 3.2544, 3.2361999999999997, 3.2515, 3.2645999999999997, 3.2323, 3.2744, 3.2247, 3.2271, 3.2345, 3.2567, 3.2336, 3.2547, 3.2411, 3.1933000000000002, 3.2691, 3.2382999999999997, 3.2271, 3.2206, 3.225, 3.2950000000000004, 3.3179, 3.3162000000000003, 3.3008, 3.2676, 3.2393, 3.2649, 3.2359, 3.3652, 3.3747, 3.3332, 3.2390000000000003, 3.2477, 3.2445999999999997, 3.2327, 3.3276, 3.2418, 3.263, 3.2583, 3.2596000000000003, 3.3546, 3.2602, 3.2607, 3.1957999999999998, 3.2636000000000003, 3.3070999999999997, 3.2908, 3.198, 3.2471, 3.2447, 3.247, 3.1967, 3.2927, 3.2365, 3.2583, 3.2758000000000003, 3.2201999999999997, 3.2598000000000003, 3.3336, 3.254, 3.2188, 3.2809, 3.231, 3.327, 3.2691, 3.2577000000000003, 3.3281, 3.3141, 3.3070999999999997, 3.2309, 3.1966, 3.3356000000000003, 3.2471, 3.2548, 3.2442, 3.263, 3.3175000000000003, 3.2636000000000003, 3.2359, 3.2580999999999998, 3.2238, 3.2158, 3.245, 3.2058, 3.2226999999999997, 3.2441, 3.2279999999999998, 3.2813, 3.432, 3.3678, 3.3230999999999997, 3.2532, 3.2540999999999998, 3.3414, 3.2801, 3.3087, 3.2158, 3.2502999999999997, 3.3028, 3.3102, 3.2789, 3.2826, 3.2302],
  "Optimal Expectation Value": -3.0,
  "Optimizer durations [ms]": [32.875, 32.508, 33.236, 32.894, 33.091, 33.052, 33.004, 33.26, 32.881, 32.877, 32.804, 33.001, 33.09, 33.05, 32.736, 32.571, 33.349, 32.876, 33.027, 32.781, 32.886, 33.37, 33.845, 33.444, 33.93, 33.251, 32.654, 33.177, 33.083, 34.616, 39.017, 34.118, 33.0, 32.991, 33.111, 32.758, 33.934, 32.72, 33.449, 32.868, 33.285, 34.099, 33.299, 33.104, 42.141, 33.103, 33.754, 33.227, 32.69, 33.168, 32.931, 33.042, 32.339, 33.685, 32.722, 33.105, 33.467, 32.707, 33.052, 33.942, 33.334, 32.78, 33.321, 32.903, 34.76, 33.296, 32.848, 33.779, 43.244, 33.677, 32.718, 32.457, 33.818, 33.62, 32.898, 33.388, 32.912, 33.911, 33.305, 32.837, 33.198, 32.683, 32.502, 33.453, 32.516, 32.599, 32.945, 33.003, 33.589, 34.809, 39.029, 33.752, 32.996, 33.135, 33.902, 33.545, 33.83, 32.762, 34.471, 33.66, 33.569, 33.432, 33.342, 32.751],
  "Optimizer iterations": 104,
  "Optimizer params": [0.6706619250565139, 0.6410444426123906, 0.9966538460508307, 0.8080745145439129, 0.9780080239253032, 0.27864767751354796],
  "P": 3,
  "Problem": "MIS",
  "QPU": "7000000",
  "Qubits": 12,
  "Shots": 4096,
  "Size": 9,
  "Total Algorithm duration [s]": 3.485,
  "Total Classic duration [s]": 3.145498,
  "Total Quantum duration [s]": 0.33950199999999997
}
