{
  "Circuit execution durations [ms]": [0.11519999679876491, 0.12495000191847794, 0.11180000365129672, 0.15795000217622146, 0.11089999679825269, 0.10729999848990701, 0.10624999777064659, 0.11069999891333282, 0.10699999984353781, 0.1061000039044302, 0.10584999836282805, 0.10860000111279078, 0.1111999990826007, 0.10705000022426248, 0.10570000085863285, 0.10539999857428484, 0.10594999912427738, 0.1142999972216785, 0.10630000178935006, 0.10585000200080685, 0.10674999793991446, 0.11269999959040433, 0.10759999713627622, 0.10575000123935752, 0.10574999760137871, 0.10639999891282059, 0.11034999988623895, 0.11340000128257088, 0.11174999599461444, 0.10610000026645139, 0.10875000225496478, 0.10849999671336263, 0.09729999874252826, 0.10890000339713879, 0.10815000132424757, 0.16695000522304326, 0.11884999548783526, 0.10694999946281314, 0.10974999895552173, 0.1062500014086254, 0.1065500000549946, 0.10694999946281314, 0.10610000026645139, 0.10694999582483433, 0.11209999865968712, 0.10724999810918234, 0.10869999823626131, 0.11074999929405749, 0.1064000025507994, 0.1082499984477181, 0.1171000039903447, 0.11065000217058696, 0.11390000145183876, 0.11499999891384505, 0.11114999870187603, 0.10984999971697107, 0.10884999937843531, 0.12184999650344253, 0.10630000178935006, 0.10590000238153152, 0.1062500014086254, 0.10744999963208102, 0.11209999865968712, 0.10565000047790818, 0.10635000217007473, 0.10755000403150916, 0.10775000191642903, 0.11805000031017698, 0.1082499984477181, 0.10770000153570436, 0.10814999768626876, 0.11010000162059441, 0.11064999853260815, 0.10869999823626131, 0.11285000073257834, 0.10619999738992192, 0.11154999810969457, 0.1293499990424607, 0.10725000174716115, 0.10899999688263051, 0.10834999920916744, 0.1052999978128355, 0.10929999916697852, 0.10649999967426993, 0.11194999751751311, 0.10664999717846513, 0.11254999844823033, 0.27909999698749743, 0.12159999823779799, 0.10765000115497969, 0.10710000424296595, 0.10690000272006728, 0.10690000272006728, 0.10674999793991446, 0.10645000293152407, 0.10594999912427738, 0.10599999950500205, 0.10534999819356017, 0.10599999950500205, 0.10479999764356762, 0.11380000069038942, 0.10924999878625385, 0.11185000039404258, 0.11080000331276096, 0.11509999967529438, 0.11414999607950449, 0.11495000217109919, 0.11055000140913762, 0.106999996205559, 0.10799999654409476, 0.1140000022132881, 0.10665000445442274, 0.1051499966706615, 0.10594999912427738, 0.10699999984353781, 0.10819999806699343, 0.1082500020856969, 0.107149997347733, 0.10765000115497969, 0.10715000462369062, 0.11359999916749075, 0.10895000013988465, 0.1053000014508143, 0.10449999899719842, 0.10604999988572672, 0.10769999789772555, 0.107149997347733, 0.10630000178935006, 0.1141499997174833, 0.10620000102790073, 0.11519999679876491, 0.10874999861698598, 0.106999996205559, 0.10759999713627622, 0.10800000382005237, 0.11110000195913017, 0.1076500047929585, 0.10805000056279823, 0.10764999751700088, 0.11295000149402767, 0.10910000128205866, 0.10744999963208102, 0.11319999975967221, 0.10760000441223383, 0.1064000025507994, 0.10664999717846513, 0.10664999717846513, 0.10549999933573417, 0.10599999950500205, 0.10645000293152407, 0.11524999717948958, 0.10670000483514741, 0.1096500018320512, 0.10835000284714624, 0.10924999878625385, 0.11405000259401277, 0.11439999798312783, 0.11094999717897736, 0.1201999984914437, 0.11055000140913762, 0.10874999497900717, 0.10799999654409476, 0.10704999658628367, 0.10959999781334773, 0.1100999979826156, 0.11660000018309802, 0.10974999895552173, 0.11005000123986974, 0.10869999823626131, 0.1081000009435229, 0.1189499998872634, 0.10829999882844277, 0.10955000107060187, 0.1051499966706615, 0.10654999641701579, 0.1464000015403144, 0.10720000136643648, 0.10645000293152407, 0.10704999658628367, 0.22139999782666564, 0.12065000191796571, 0.11315000301692635, 0.10860000111279078, 0.10840000322787091, 0.11039999662898481, 0.11124999582534656, 0.11124999946332537, 0.11699999959091656, 0.10734999523265287, 0.10644999929354526, 0.10654999641701579, 0.10725000174716115, 0.10744999963208102, 0.10724999810918234, 0.11100000119768083, 0.10710000424296595, 0.10835000284714624, 0.11164999887114391, 0.10915000166278332, 0.1095000006898772, 0.10739999925135635, 0.10659999679774046, 0.10675000157789327, 0.10665000445442274, 0.10720000136643648, 0.11954999718000181, 0.10909999764407985, 0.1082500020856969, 0.1145999958680477, 0.11014999836334027, 0.1082500020856969, 0.10784999540192075, 0.10689999544410966, 0.1066999975591898, 0.10820000170497224, 0.10670000483514741, 0.10740000288933516, 0.10719999772845767, 0.106999996205559, 0.11484999777167104, 0.10760000077425502, 0.10680000195861794, 0.1068499987013638, 0.10730000212788582, 0.10984999971697107, 0.10694999582483433, 0.10679999832063913, 0.10725000174716115, 0.10694999946281314, 0.11059999815188348, 0.11700000322889537, 0.1143000008596573, 0.12150000111432746, 0.2445499958412256, 0.11005000123986974, 0.12399999832268804, 0.20634999964386225, 0.17135000234702602, 0.11679999806801789, 0.11235000056331046, 0.1109000040742103, 0.1107500029320363, 0.1116499952331651, 0.10945000394713134, 0.10865000149351545, 0.11425000411691144, 0.10945000394713134, 0.11265000284765847, 0.11145000098622404, 0.11124999946332537, 0.11104999794042669, 0.1112000027205795, 0.11314999937894754, 0.1114999977289699, 0.11359999916749075, 0.10770000153570436, 0.11815000470960513, 0.11079999967478216, 0.1088499957404565, 0.1083999995898921, 0.10865000149351545, 0.11170000288984738, 0.11169999925186858, 0.11044999700970948, 0.11085000005550683, 0.11109999832115136, 0.11404999895603396, 0.11744999937945977, 0.10829999882844277, 0.10844999997061677, 0.10855000437004492, 0.11700000322889537, 0.10879999535973184, 0.11059999815188348, 0.1096499981940724, 0.11085000369348563, 0.11420000009820797, 0.11070000255131163, 0.11129999620607123, 0.1109000004362315, 0.11565000022528693, 0.11359999916749075, 0.11430000449763611, 0.11960000119870529, 0.11749999976018444, 0.12065000191796571, 0.11044999700970948, 0.10909999764407985, 0.10999999722116627],
  "Depth": 2.0,
  "Expectation Value": -3.591682195663452,
  "Optimal Expectation Value": -3.5925002098083496,
  "Optimizer durations [ms]": [3.742, 3.474, 3.114, 15.891, 3.397, 3.127, 3.133, 3.186, 3.125, 3.116, 3.111, 3.001, 3.151, 3.138, 3.085, 3.108, 3.085, 3.228, 3.09, 3.11, 5.986, 3.224, 3.138, 3.136, 3.106, 3.118, 3.152, 3.411, 3.352, 3.098, 3.282, 3.304, 6.168, 10.826, 2.99, 16.993, 3.701, 3.159, 3.194, 3.136, 3.132, 3.122, 3.138, 2.976, 3.295, 3.171, 3.255, 3.284, 3.149, 3.173, 3.429, 3.225, 3.315, 3.272, 3.191, 3.079, 2.999, 3.355, 3.11, 3.167, 3.121, 3.184, 3.274, 3.08, 3.103, 3.035, 2.987, 3.193, 3.006, 2.99, 2.972, 3.179, 3.143, 2.983, 3.345, 3.057, 3.06, 3.406, 3.006, 3.022, 3.179, 3.102, 3.193, 3.295, 3.373, 3.115, 3.279, 6.212, 3.858, 3.151, 3.125, 3.138, 3.111, 3.145, 3.138, 3.153, 3.097, 3.12, 3.16, 3.076, 3.37, 3.125, 3.12, 3.074, 3.184, 3.161, 3.166, 3.061, 2.992, 3.132, 3.69, 3.114, 3.091, 3.094, 3.108, 3.033, 3.017, 2.984, 3.023, 2.964, 3.107, 3.066, 3.076, 3.084, 3.097, 3.056, 3.099, 3.431, 3.384, 3.057, 3.186, 3.056, 2.989, 3.013, 3.048, 3.077, 2.975, 3.023, 3.007, 3.318, 3.093, 3.085, 3.384, 3.107, 3.138, 3.167, 3.148, 3.103, 3.119, 3.105, 3.187, 3.014, 3.303, 3.09, 3.315, 3.389, 3.315, 3.266, 3.426, 3.12, 3.056, 3.024, 3.012, 3.025, 3.027, 3.185, 3.039, 3.043, 2.982, 2.991, 3.369, 3.028, 3.234, 3.126, 3.115, 3.89, 3.126, 3.112, 3.129, 5.069, 16.75, 3.302, 3.166, 3.149, 3.117, 3.078, 3.122, 3.468, 3.152, 3.102, 3.127, 3.13, 3.129, 3.133, 3.144, 3.15, 3.009, 3.074, 2.986, 3.098, 3.118, 3.123, 3.143, 3.113, 3.137, 3.435, 3.028, 2.959, 3.312, 3.241, 3.144, 3.171, 3.139, 3.123, 3.082, 3.118, 3.144, 3.125, 3.125, 3.211, 3.156, 3.129, 3.125, 3.15, 3.159, 3.113, 3.135, 3.13, 3.125, 3.224, 3.36, 3.321, 3.59, 5.747, 10.313, 9.014, 5.417, 5.262, 3.425, 3.128, 3.081, 3.085, 3.201, 3.138, 3.172, 3.287, 3.187, 3.192, 3.12, 3.113, 3.082, 3.395, 3.211, 3.234, 3.174, 3.137, 3.484, 3.159, 3.159, 3.097, 3.647, 3.228, 3.13, 3.127, 3.112, 3.128, 3.17, 3.254, 3.114, 3.109, 3.144, 3.328, 3.078, 3.196, 3.141, 3.124, 3.149, 3.127, 3.099, 3.092, 3.587, 3.16, 3.169, 3.479, 3.462, 3.49, 3.134, 3.115, 3.256],
  "Optimizer iterations": 289,
  "Optimizer params": [0.9999993170430626, 0.5084577517905624, 1.0, 0.5024978061978512, 0.4977138972877684, 1.0],
  "P": 0,
  "Problem": "RH",
  "QJob durations [ms]": [0.11519999679876491, 0.12495000191847794, 0.11180000365129672, 0.15795000217622146, 0.11089999679825269, 0.10729999848990701, 0.10624999777064659, 0.11069999891333282, 0.10699999984353781, 0.1061000039044302, 0.10584999836282805, 0.10860000111279078, 0.1111999990826007, 0.10705000022426248, 0.10570000085863285, 0.10539999857428484, 0.10594999912427738, 0.1142999972216785, 0.10630000178935006, 0.10585000200080685, 0.10674999793991446, 0.11269999959040433, 0.10759999713627622, 0.10575000123935752, 0.10574999760137871, 0.10639999891282059, 0.11034999988623895, 0.11340000128257088, 0.11174999599461444, 0.10610000026645139, 0.10875000225496478, 0.10849999671336263, 0.09729999874252826, 0.10890000339713879, 0.10815000132424757, 0.16695000522304326, 0.11884999548783526, 0.10694999946281314, 0.10974999895552173, 0.1062500014086254, 0.1065500000549946, 0.10694999946281314, 0.10610000026645139, 0.10694999582483433, 0.11209999865968712, 0.10724999810918234, 0.10869999823626131, 0.11074999929405749, 0.1064000025507994, 0.1082499984477181, 0.1171000039903447, 0.11065000217058696, 0.11390000145183876, 0.11499999891384505, 0.11114999870187603, 0.10984999971697107, 0.10884999937843531, 0.12184999650344253, 0.10630000178935006, 0.10590000238153152, 0.1062500014086254, 0.10744999963208102, 0.11209999865968712, 0.10565000047790818, 0.10635000217007473, 0.10755000403150916, 0.10775000191642903, 0.11805000031017698, 0.1082499984477181, 0.10770000153570436, 0.10814999768626876, 0.11010000162059441, 0.11064999853260815, 0.10869999823626131, 0.11285000073257834, 0.10619999738992192, 0.11154999810969457, 0.1293499990424607, 0.10725000174716115, 0.10899999688263051, 0.10834999920916744, 0.1052999978128355, 0.10929999916697852, 0.10649999967426993, 0.11194999751751311, 0.10664999717846513, 0.11254999844823033, 0.27909999698749743, 0.12159999823779799, 0.10765000115497969, 0.10710000424296595, 0.10690000272006728, 0.10690000272006728, 0.10674999793991446, 0.10645000293152407, 0.10594999912427738, 0.10599999950500205, 0.10534999819356017, 0.10599999950500205, 0.10479999764356762, 0.11380000069038942, 0.10924999878625385, 0.11185000039404258, 0.11080000331276096, 0.11509999967529438, 0.11414999607950449, 0.11495000217109919, 0.11055000140913762, 0.106999996205559, 0.10799999654409476, 0.1140000022132881, 0.10665000445442274, 0.1051499966706615, 0.10594999912427738, 0.10699999984353781, 0.10819999806699343, 0.1082500020856969, 0.107149997347733, 0.10765000115497969, 0.10715000462369062, 0.11359999916749075, 0.10895000013988465, 0.1053000014508143, 0.10449999899719842, 0.10604999988572672, 0.10769999789772555, 0.107149997347733, 0.10630000178935006, 0.1141499997174833, 0.10620000102790073, 0.11519999679876491, 0.10874999861698598, 0.106999996205559, 0.10759999713627622, 0.10800000382005237, 0.11110000195913017, 0.1076500047929585, 0.10805000056279823, 0.10764999751700088, 0.11295000149402767, 0.10910000128205866, 0.10744999963208102, 0.11319999975967221, 0.10760000441223383, 0.1064000025507994, 0.10664999717846513, 0.10664999717846513, 0.10549999933573417, 0.10599999950500205, 0.10645000293152407, 0.11524999717948958, 0.10670000483514741, 0.1096500018320512, 0.10835000284714624, 0.10924999878625385, 0.11405000259401277, 0.11439999798312783, 0.11094999717897736, 0.1201999984914437, 0.11055000140913762, 0.10874999497900717, 0.10799999654409476, 0.10704999658628367, 0.10959999781334773, 0.1100999979826156, 0.11660000018309802, 0.10974999895552173, 0.11005000123986974, 0.10869999823626131, 0.1081000009435229, 0.1189499998872634, 0.10829999882844277, 0.10955000107060187, 0.1051499966706615, 0.10654999641701579, 0.1464000015403144, 0.10720000136643648, 0.10645000293152407, 0.10704999658628367, 0.22139999782666564, 0.12065000191796571, 0.11315000301692635, 0.10860000111279078, 0.10840000322787091, 0.11039999662898481, 0.11124999582534656, 0.11124999946332537, 0.11699999959091656, 0.10734999523265287, 0.10644999929354526, 0.10654999641701579, 0.10725000174716115, 0.10744999963208102, 0.10724999810918234, 0.11100000119768083, 0.10710000424296595, 0.10835000284714624, 0.11164999887114391, 0.10915000166278332, 0.1095000006898772, 0.10739999925135635, 0.10659999679774046, 0.10675000157789327, 0.10665000445442274, 0.10720000136643648, 0.11954999718000181, 0.10909999764407985, 0.1082500020856969, 0.1145999958680477, 0.11014999836334027, 0.1082500020856969, 0.10784999540192075, 0.10689999544410966, 0.1066999975591898, 0.10820000170497224, 0.10670000483514741, 0.10740000288933516, 0.10719999772845767, 0.106999996205559, 0.11484999777167104, 0.10760000077425502, 0.10680000195861794, 0.1068499987013638, 0.10730000212788582, 0.10984999971697107, 0.10694999582483433, 0.10679999832063913, 0.10725000174716115, 0.10694999946281314, 0.11059999815188348, 0.11700000322889537, 0.1143000008596573, 0.12150000111432746, 0.2445499958412256, 0.11005000123986974, 0.12399999832268804, 0.20634999964386225, 0.17135000234702602, 0.11679999806801789, 0.11235000056331046, 0.1109000040742103, 0.1107500029320363, 0.1116499952331651, 0.10945000394713134, 0.10865000149351545, 0.11425000411691144, 0.10945000394713134, 0.11265000284765847, 0.11145000098622404, 0.11124999946332537, 0.11104999794042669, 0.1112000027205795, 0.11314999937894754, 0.1114999977289699, 0.11359999916749075, 0.10770000153570436, 0.11815000470960513, 0.11079999967478216, 0.1088499957404565, 0.1083999995898921, 0.10865000149351545, 0.11170000288984738, 0.11169999925186858, 0.11044999700970948, 0.11085000005550683, 0.11109999832115136, 0.11404999895603396, 0.11744999937945977, 0.10829999882844277, 0.10844999997061677, 0.10855000437004492, 0.11700000322889537, 0.10879999535973184, 0.11059999815188348, 0.1096499981940724, 0.11085000369348563, 0.11420000009820797, 0.11070000255131163, 0.11129999620607123, 0.1109000004362315, 0.11565000022528693, 0.11359999916749075, 0.11430000449763611, 0.11960000119870529, 0.11749999976018444, 0.12065000191796571, 0.11044999700970948, 0.10909999764407985, 0.10999999722116627],
  "QPU": "7000000",
  "Qubits": 6,
  "Queue durations [ms]": [0.0, 0.0, 0.0, 0.0, 0.0, 0.0, 0.0, 0.0, 0.0, 0.0, 0.0, 0.0, 0.0, 0.0, 0.0, 0.0, 0.0, 0.0, 0.0, 0.0, 0.0, 0.0, 0.0, 0.0, 0.0, 0.0, 0.0, 0.0, 0.0, 0.0, 0.0, 0.0, 0.0, 0.0, 0.0, 0.0, 0.0, 0.0, 0.0, 0.0, 0.0, 0.0, 0.0, 0.0, 0.0, 0.0, 0.0, 0.0, 0.0, 0.0, 0.0, 0.0, 0.0, 0.0, 0.0, 0.0, 0.0, 0.0, 0.0, 0.0, 0.0, 0.0, 0.0, 0.0, 0.0, 0.0, 0.0, 0.0, 0.0, 0.0, 0.0, 0.0, 0.0, 0.0, 0.0, 0.0, 0.0, 0.0, 0.0, 0.0, 0.0, 0.0, 0.0, 0.0, 0.0, 0.0, 0.0, 0.0, 0.0, 0.0, 0.0, 0.0, 0.0, 0.0, 0.0, 0.0, 0.0, 0.0, 0.0, 0.0, 0.0, 0.0, 0.0, 0.0, 0.0, 0.0, 0.0, 0.0, 0.0, 0.0, 0.0, 0.0, 0.0, 0.0, 0.0, 0.0, 0.0, 0.0, 0.0, 0.0, 0.0, 0.0, 0.0, 0.0, 0.0, 0.0, 0.0, 0.0, 0.0, 0.0, 0.0, 0.0, 0.0, 0.0, 0.0, 0.0, 0.0, 0.0, 0.0, 0.0, 0.0, 0.0, 0.0, 0.0, 0.0, 0.0, 0.0, 0.0, 0.0, 0.0, 0.0, 0.0, 0.0, 0.0, 0.0, 0.0, 0.0, 0.0, 0.0, 0.0, 0.0, 0.0, 0.0, 0.0, 0.0, 0.0, 0.0, 0.0, 0.0, 0.0, 0.0, 0.0, 0.0, 0.0, 0.0, 0.0, 0.0, 0.0, 0.0, 0.0, 0.0, 0.0, 0.0, 0.0, 0.0, 0.0, 0.0, 0.0, 0.0, 0.0, 0.0, 0.0, 0.0, 0.0, 0.0, 0.0, 0.0, 0.0, 0.0, 0.0, 0.0, 0.0, 0.0, 0.0, 0.0, 0.0, 0.0, 0.0, 0.0, 0.0, 0.0, 0.0, 0.0, 0.0, 0.0, 0.0, 0.0, 0.0, 0.0, 0.0, 0.0, 0.0, 0.0, 0.0, 0.0, 0.0, 0.0, 0.0, 0.0, 0.0, 0.0, 0.0, 0.0, 0.0, 0.0, 0.0, 0.0, 0.0, 0.0, 0.0, 0.0, 0.0, 0.0, 0.0, 0.0, 0.0, 0.0, 0.0, 0.0, 0.0, 0.0, 0.0, 0.0, 0.0, 0.0, 0.0, 0.0, 0.0, 0.0, 0.0, 0.0, 0.0, 0.0, 0.0, 0.0, 0.0, 0.0, 0.0, 0.0, 0.0, 0.0, 0.0, 0.0, 0.0, 0.0, 0.0, 0.0, 0.0, 0.0, 0.0, 0.0, 0.0, 0.0, 0.0, 0.0, 0.0, 0.0, 0.0, 0.0],
  "Shots": 4096,
  "Size": 6,
  "Total Algorithm duration [s]": 0.994,
  "Total Classic duration [s]": 0.9615384500442306,
  "Total Quantum duration [s]": 0.03246154995576944
}
