{
  "Circuit execution durations [ms]": [0.11275000360910781, 0.11159999849041924, 0.11450000238255598, 0.12074999540345743, 0.12165000225650147, 0.11380000069038942, 0.11340000128257088, 0.11590000212891027, 0.11904999701073393, 0.11789999553002417, 0.11504999929456972, 0.11155000174767338, 0.11254999844823033, 0.1124500013247598, 0.112749999971129, 0.11190000077476725, 0.11060000178986229, 0.11750000339816324, 0.11055000140913762, 0.11389999781385995, 0.11099999755970202, 0.11219999578315765, 0.11034999988623895, 0.11110000195913017, 0.11235000056331046, 0.11684999481076375, 0.11344999802531675, 0.1107500029320363, 0.11054999777115881, 0.11984999946434982, 0.11240000094403513, 0.10985000335494988, 0.11514999641804025, 0.11195000115549192, 0.11069999891333282, 0.10235000081593171, 0.11114999870187603, 0.11184999675606377, 0.11119999544462189, 0.11005000123986974, 0.11124999946332537, 0.11034999624826014, 0.11060000178986229, 0.11095000445493497, 0.11129999984405003, 0.10915000166278332, 0.12575000073411502, 0.11185000403202139, 0.10934999590972438, 0.10844999633263797, 0.11100000483565964, 0.11685000208672136, 0.10815000132424757, 0.10879999535973184, 0.11074999929405749, 0.11020000238204375, 0.11975000234087929, 0.11220000305911526, 0.11089999679825269, 0.11339999764459208, 0.1199000034830533, 0.11870000162161887, 0.11765000090235844, 0.11480000102892518, 0.1107500029320363, 0.11934999929508194, 0.11084999641752802, 0.11395000183256343, 0.1107500029320363, 0.11199999789823778, 0.11159999849041924, 0.10984999971697107, 0.10909999764407985, 0.10985000335494988, 0.1116499952331651, 0.11644999904092401, 0.11005000123986974, 0.11190000077476725, 0.11094999717897736, 0.10770000153570436, 0.10945000394713134, 0.11270000322838314, 0.11254999844823033, 0.1359999987471383, 0.11339999764459208, 0.23145000159274787, 0.11420000373618677, 0.11339999764459208, 0.11255000208620913, 0.3159500120091252, 0.1124500013247598],
  "Depth": 2.0,
  "Expectation Value": -2.653139591217041,
  "Optimal Expectation Value": -3.5925002098083496,
  "Optimizer durations [ms]": [3.316, 3.124, 3.335, 3.314, 3.351, 3.426, 3.2, 3.242, 3.352, 3.272, 3.141, 3.258, 3.168, 3.136, 3.134, 3.162, 3.119, 3.259, 3.218, 3.201, 3.263, 3.147, 3.209, 3.108, 3.102, 3.394, 3.37, 3.252, 3.218, 3.437, 3.233, 4.484, 3.684, 3.143, 3.125, 2.983, 3.134, 3.135, 3.103, 3.073, 3.125, 3.138, 3.1, 3.074, 3.137, 3.143, 3.417, 3.15, 3.171, 3.13, 3.153, 3.335, 3.101, 3.129, 3.138, 3.228, 3.648, 3.21, 3.169, 3.236, 3.36, 3.3, 3.245, 3.179, 3.103, 3.357, 3.073, 3.218, 3.179, 3.292, 3.284, 3.169, 3.152, 3.181, 3.117, 3.275, 3.104, 3.308, 3.231, 3.547, 3.462, 3.207, 5.049, 15.459, 17.536, 6.066, 3.653, 3.148, 3.21, 7.111, 3.233],
  "Optimizer iterations": 91,
  "Optimizer params": [0.0020090149416616674, 0.5033377746448231, 0.9999999999999997, 0.49502790618314013, 0.9854876255033703, 0.0035914371356278447],
  "P": 0,
  "Problem": "RH",
  "QJob durations [ms]": [0.11275000360910781, 0.11159999849041924, 0.11450000238255598, 0.12074999540345743, 0.12165000225650147, 0.11380000069038942, 0.11340000128257088, 0.11590000212891027, 0.11904999701073393, 0.11789999553002417, 0.11504999929456972, 0.11155000174767338, 0.11254999844823033, 0.1124500013247598, 0.112749999971129, 0.11190000077476725, 0.11060000178986229, 0.11750000339816324, 0.11055000140913762, 0.11389999781385995, 0.11099999755970202, 0.11219999578315765, 0.11034999988623895, 0.11110000195913017, 0.11235000056331046, 0.11684999481076375, 0.11344999802531675, 0.1107500029320363, 0.11054999777115881, 0.11984999946434982, 0.11240000094403513, 0.10985000335494988, 0.11514999641804025, 0.11195000115549192, 0.11069999891333282, 0.10235000081593171, 0.11114999870187603, 0.11184999675606377, 0.11119999544462189, 0.11005000123986974, 0.11124999946332537, 0.11034999624826014, 0.11060000178986229, 0.11095000445493497, 0.11129999984405003, 0.10915000166278332, 0.12575000073411502, 0.11185000403202139, 0.10934999590972438, 0.10844999633263797, 0.11100000483565964, 0.11685000208672136, 0.10815000132424757, 0.10879999535973184, 0.11074999929405749, 0.11020000238204375, 0.11975000234087929, 0.11220000305911526, 0.11089999679825269, 0.11339999764459208, 0.1199000034830533, 0.11870000162161887, 0.11765000090235844, 0.11480000102892518, 0.1107500029320363, 0.11934999929508194, 0.11084999641752802, 0.11395000183256343, 0.1107500029320363, 0.11199999789823778, 0.11159999849041924, 0.10984999971697107, 0.10909999764407985, 0.10985000335494988, 0.1116499952331651, 0.11644999904092401, 0.11005000123986974, 0.11190000077476725, 0.11094999717897736, 0.10770000153570436, 0.10945000394713134, 0.11270000322838314, 0.11254999844823033, 0.1359999987471383, 0.11339999764459208, 0.23145000159274787, 0.11420000373618677, 0.11339999764459208, 0.11255000208620913, 0.3159500120091252, 0.1124500013247598],
  "QPU": "7000000",
  "Qubits": 6,
  "Queue durations [ms]": [0.0, 0.0, 0.0, 0.0, 0.0, 0.0, 0.0, 0.0, 0.0, 0.0, 0.0, 0.0, 0.0, 0.0, 0.0, 0.0, 0.0, 0.0, 0.0, 0.0, 0.0, 0.0, 0.0, 0.0, 0.0, 0.0, 0.0, 0.0, 0.0, 0.0, 0.0, 0.0, 0.0, 0.0, 0.0, 0.0, 0.0, 0.0, 0.0, 0.0, 0.0, 0.0, 0.0, 0.0, 0.0, 0.0, 0.0, 0.0, 0.0, 0.0, 0.0, 0.0, 0.0, 0.0, 0.0, 0.0, 0.0, 0.0, 0.0, 0.0, 0.0, 0.0, 0.0, 0.0, 0.0, 0.0, 0.0, 0.0, 0.0, 0.0, 0.0, 0.0, 0.0, 0.0, 0.0, 0.0, 0.0, 0.0, 0.0, 0.0, 0.0, 0.0, 0.0, 0.0, 0.0, 0.0, 0.0, 0.0, 0.0, 0.0, 0.0],
  "Shots": 4096,
  "Size": 6,
  "Total Algorithm duration [s]": 0.33,
  "Total Classic duration [s]": 0.31939189998418444,
  "Total Quantum duration [s]": 0.01060810001581558
}
