{
  "Circuit execution durations [ms]": [0.11449999874457717, 0.13605000276584178, 0.11150000136694871, 0.11449999874457717, 0.15110000094864517, 0.11635000191745348, 0.1171000039903447, 0.11190000441274606, 0.11145000098622404, 0.11185000039404258, 0.11500000255182385, 0.11185000039404258, 0.1114999977289699, 0.11079999967478216, 0.11004999760189094, 0.11145000462420285, 0.1099500004784204, 0.11029999950551428, 0.11115000233985484, 0.11069999891333282, 0.1175500001409091, 0.11059999815188348, 0.11104999794042669, 0.10995000411639921, 0.11635000191745348, 0.11020000238204375, 0.11050000102841295, 0.11155000174767338, 0.1171000003523659, 0.11829999857582152, 0.11305000225547701, 0.11199999789823778, 0.11280000398983248, 0.11359999916749075, 0.12450000212993473, 0.11199999789823778, 0.11564999658730812, 0.1113499965867959, 0.11185000039404258, 0.11325000377837569, 0.11364999591023661, 0.11144999734824523, 0.11079999603680335, 0.11229999654460698, 0.11320000339765102, 0.11005000123986974, 0.10900000052060932, 0.11034999624826014, 0.11034999988623895, 0.11369999992894009, 0.11094999717897736, 0.11110000195913017, 0.11124999946332537, 0.11109999832115136, 0.12450000212993473, 0.11860000449814834, 0.11240000094403513, 0.11634999827947468, 0.11730000187526457, 0.11784999878727831, 0.11165000250912271, 0.11524999717948958, 0.11069999891333282, 0.1112000027205795, 0.11150000500492752, 0.11185000039404258, 0.1109000040742103, 0.11160000212839805, 0.26170000637648627, 0.11680000170599669, 0.11060000178986229, 0.11229999654460698, 0.11325000014039688, 0.11225000343983993, 0.11680000170599669, 0.11040000390494242, 0.12069999866071157, 0.12885000251117162, 0.11129999984405003, 0.11040000026696362, 0.1099500004784204, 0.11210000229766592, 0.11419999646022916, 0.10939999992842786, 0.10985000335494988, 0.10934999954770319, 0.10840000322787091, 0.11145000098622404, 0.11089999679825269, 0.11014999836334027, 0.11094999717897736, 0.11129999984405003, 0.16265000158455223, 0.11224999980186112, 0.11050000102841295, 0.10910000128205866, 0.11850000009872019, 0.11305000225547701, 0.1602000011189375, 0.11135000386275351, 0.11495000217109919, 0.11964999794145115, 0.11950000043725595, 0.11180000365129672, 0.11065000217058696, 0.12280000009923242, 0.11204999827896245, 0.11159999849041924, 0.11264999920967966, 0.10984999971697107, 0.11385000107111409, 0.11314999937894754, 0.11545000234036706, 0.10879999899771065, 0.10974999895552173, 0.11610000001383014, 0.11199999789823778, 0.11424999684095383, 0.11454999912530184, 0.11939999967580661, 0.12409999908413738, 0.11810000069090165, 0.11114999506389722, 0.11054999777115881, 0.11044999700970948, 0.1111999990826007, 0.11079999603680335, 0.11114999870187603, 0.11039999662898481, 0.11604999963310547, 0.11115000233985484, 0.11219999942113645, 0.11080000331276096, 0.11074999565607868, 0.11529999756021425, 0.11104999794042669, 0.11065000217058696, 0.11490000179037452, 0.11375000030966476, 0.11580000136746094, 0.11059999815188348, 0.11045000428566709, 0.11354999878676608, 0.11060000178986229, 0.1140000022132881],
  "Depth": 2.0,
  "Expectation Value": -3.5922701358795166,
  "Optimal Expectation Value": -3.5925002098083496,
  "Optimizer durations [ms]": [3.444, 3.802, 3.142, 3.242, 4.175, 3.489, 3.369, 3.168, 3.143, 3.106, 3.339, 3.125, 3.118, 3.114, 3.093, 3.137, 3.131, 3.114, 3.158, 3.163, 3.287, 3.117, 3.098, 3.092, 3.225, 3.136, 3.074, 3.293, 3.281, 3.275, 3.14, 3.131, 3.128, 3.172, 3.451, 3.155, 3.386, 3.161, 3.224, 3.162, 3.351, 3.184, 3.138, 3.204, 3.193, 3.07, 3.127, 3.091, 3.068, 3.189, 3.135, 3.111, 3.112, 3.12, 3.512, 3.566, 3.163, 3.252, 3.804, 3.315, 3.136, 3.331, 3.117, 3.355, 3.228, 3.12, 3.091, 3.165, 6.039, 14.394, 5.206, 3.358, 3.221, 3.135, 3.26, 3.191, 3.401, 3.544, 3.185, 3.116, 3.15, 3.2, 3.326, 3.139, 3.13, 3.165, 3.125, 3.142, 3.114, 3.146, 3.425, 3.148, 4.219, 3.192, 3.173, 3.115, 3.365, 3.174, 4.097, 3.276, 3.338, 3.341, 3.479, 3.147, 3.129, 3.563, 3.15, 3.12, 3.383, 3.231, 3.214, 3.183, 3.297, 3.128, 3.235, 3.557, 3.27, 3.23, 3.225, 3.347, 3.431, 3.311, 3.128, 3.092, 3.186, 3.103, 3.111, 3.106, 3.158, 3.223, 3.147, 3.157, 3.114, 3.125, 3.23, 3.125, 3.104, 3.294, 3.126, 3.302, 3.19, 3.14, 3.224, 3.16, 3.261],
  "Optimizer iterations": 145,
  "Optimizer params": [1.0, 0.4996861673319182, 0.9963897872455579, 0.497830380722938, 0.5068163324484842, 0.0036845619230073015],
  "P": 0,
  "Problem": "RH",
  "QJob durations [ms]": [0.11449999874457717, 0.13605000276584178, 0.11150000136694871, 0.11449999874457717, 0.15110000094864517, 0.11635000191745348, 0.1171000039903447, 0.11190000441274606, 0.11145000098622404, 0.11185000039404258, 0.11500000255182385, 0.11185000039404258, 0.1114999977289699, 0.11079999967478216, 0.11004999760189094, 0.11145000462420285, 0.1099500004784204, 0.11029999950551428, 0.11115000233985484, 0.11069999891333282, 0.1175500001409091, 0.11059999815188348, 0.11104999794042669, 0.10995000411639921, 0.11635000191745348, 0.11020000238204375, 0.11050000102841295, 0.11155000174767338, 0.1171000003523659, 0.11829999857582152, 0.11305000225547701, 0.11199999789823778, 0.11280000398983248, 0.11359999916749075, 0.12450000212993473, 0.11199999789823778, 0.11564999658730812, 0.1113499965867959, 0.11185000039404258, 0.11325000377837569, 0.11364999591023661, 0.11144999734824523, 0.11079999603680335, 0.11229999654460698, 0.11320000339765102, 0.11005000123986974, 0.10900000052060932, 0.11034999624826014, 0.11034999988623895, 0.11369999992894009, 0.11094999717897736, 0.11110000195913017, 0.11124999946332537, 0.11109999832115136, 0.12450000212993473, 0.11860000449814834, 0.11240000094403513, 0.11634999827947468, 0.11730000187526457, 0.11784999878727831, 0.11165000250912271, 0.11524999717948958, 0.11069999891333282, 0.1112000027205795, 0.11150000500492752, 0.11185000039404258, 0.1109000040742103, 0.11160000212839805, 0.26170000637648627, 0.11680000170599669, 0.11060000178986229, 0.11229999654460698, 0.11325000014039688, 0.11225000343983993, 0.11680000170599669, 0.11040000390494242, 0.12069999866071157, 0.12885000251117162, 0.11129999984405003, 0.11040000026696362, 0.1099500004784204, 0.11210000229766592, 0.11419999646022916, 0.10939999992842786, 0.10985000335494988, 0.10934999954770319, 0.10840000322787091, 0.11145000098622404, 0.11089999679825269, 0.11014999836334027, 0.11094999717897736, 0.11129999984405003, 0.16265000158455223, 0.11224999980186112, 0.11050000102841295, 0.10910000128205866, 0.11850000009872019, 0.11305000225547701, 0.1602000011189375, 0.11135000386275351, 0.11495000217109919, 0.11964999794145115, 0.11950000043725595, 0.11180000365129672, 0.11065000217058696, 0.12280000009923242, 0.11204999827896245, 0.11159999849041924, 0.11264999920967966, 0.10984999971697107, 0.11385000107111409, 0.11314999937894754, 0.11545000234036706, 0.10879999899771065, 0.10974999895552173, 0.11610000001383014, 0.11199999789823778, 0.11424999684095383, 0.11454999912530184, 0.11939999967580661, 0.12409999908413738, 0.11810000069090165, 0.11114999506389722, 0.11054999777115881, 0.11044999700970948, 0.1111999990826007, 0.11079999603680335, 0.11114999870187603, 0.11039999662898481, 0.11604999963310547, 0.11115000233985484, 0.11219999942113645, 0.11080000331276096, 0.11074999565607868, 0.11529999756021425, 0.11104999794042669, 0.11065000217058696, 0.11490000179037452, 0.11375000030966476, 0.11580000136746094, 0.11059999815188348, 0.11045000428566709, 0.11354999878676608, 0.11060000178986229, 0.1140000022132881],
  "QPU": "7000000",
  "Qubits": 6,
  "Queue durations [ms]": [0.0, 0.0, 0.0, 0.0, 0.0, 0.0, 0.0, 0.0, 0.0, 0.0, 0.0, 0.0, 0.0, 0.0, 0.0, 0.0, 0.0, 0.0, 0.0, 0.0, 0.0, 0.0, 0.0, 0.0, 0.0, 0.0, 0.0, 0.0, 0.0, 0.0, 0.0, 0.0, 0.0, 0.0, 0.0, 0.0, 0.0, 0.0, 0.0, 0.0, 0.0, 0.0, 0.0, 0.0, 0.0, 0.0, 0.0, 0.0, 0.0, 0.0, 0.0, 0.0, 0.0, 0.0, 0.0, 0.0, 0.0, 0.0, 0.0, 0.0, 0.0, 0.0, 0.0, 0.0, 0.0, 0.0, 0.0, 0.0, 0.0, 0.0, 0.0, 0.0, 0.0, 0.0, 0.0, 0.0, 0.0, 0.0, 0.0, 0.0, 0.0, 0.0, 0.0, 0.0, 0.0, 0.0, 0.0, 0.0, 0.0, 0.0, 0.0, 0.0, 0.0, 0.0, 0.0, 0.0, 0.0, 0.0, 0.0, 0.0, 0.0, 0.0, 0.0, 0.0, 0.0, 0.0, 0.0, 0.0, 0.0, 0.0, 0.0, 0.0, 0.0, 0.0, 0.0, 0.0, 0.0, 0.0, 0.0, 0.0, 0.0, 0.0, 0.0, 0.0, 0.0, 0.0, 0.0, 0.0, 0.0, 0.0, 0.0, 0.0, 0.0, 0.0, 0.0, 0.0, 0.0, 0.0, 0.0, 0.0, 0.0, 0.0, 0.0, 0.0, 0.0],
  "Shots": 4096,
  "Size": 6,
  "Total Algorithm duration [s]": 0.485,
  "Total Classic duration [s]": 0.4683035999618005,
  "Total Quantum duration [s]": 0.0166964000381995
}
