{
  "Circuit execution durations [ms]": [0.11079999967478216, 0.11549999908311293, 0.112749999971129, 0.1080999973055441, 0.29410000206553377, 0.10704999658628367, 0.21444999583764002, 0.1843999998527579, 0.11355000242474489, 0.11275000360910781, 0.1143000008596573, 0.11969999832217582, 0.11190000077476725, 0.11199999789823778, 0.11660000382107683, 0.11700000322889537, 0.11729999823728576, 0.11060000178986229, 0.10945000394713134, 0.11150000136694871, 0.11160000212839805, 0.12200000492157415, 0.11185000039404258, 0.11004999760189094, 0.11069999527535401, 0.10999999722116627, 0.11014999836334027, 0.11244999768678099, 0.11235000056331046, 0.11074999929405749, 0.11054999777115881, 0.11779999840655364, 0.112900001113303, 0.11340000128257088, 0.10984999971697107, 0.1442499997210689, 0.11280000035185367, 0.10815000132424757, 0.10835000284714624, 0.10769999789772555, 0.10869999823626131, 0.10774999827845022, 0.10595000276225619, 0.10599999586702324, 0.1067000011971686, 0.1065500000549946, 0.10664999717846513, 0.10644999929354526, 0.1065500000549946, 0.10589999510557391, 0.11890000314451754, 0.10765000115497969, 0.10574999760137871, 0.1066999975591898, 0.10654999641701579, 0.1080999973055441, 0.109200002043508, 0.10719999772845767, 0.10639999891282059, 0.10615000428515486, 0.14089999967836775, 0.11020000238204375, 0.1064000025507994, 0.1171000003523659, 0.10784999903989956, 0.1099500004784204, 0.11320000339765102, 0.11870000525959767, 0.1113500002247747, 0.11665000056382269, 0.10705000022426248, 0.1066999975591898, 0.10639999891282059, 0.11420000373618677, 0.10814999768626876, 0.10670000483514741, 0.11209999865968712, 0.10554999971645884, 0.10570000085863285, 0.10815000132424757, 0.10639999891282059, 0.10674999793991446, 0.10760000441223383, 0.10699999984353781, 0.0802000031399075, 0.1130499949795194, 0.10775000191642903, 0.1159999992523808, 0.11330000052112155, 0.10845000360859558, 0.11049999739043415, 0.11194999751751311, 0.10705000386224128, 0.11690000246744603, 0.10764999751700088, 0.10635000217007473, 0.1064000025507994, 0.10664999717846513, 0.11205000191694126, 0.10945000030915253, 0.10914999802480452, 0.10860000111279078, 0.10844999997061677, 0.10850000035134144, 0.1083999995898921, 0.10835000284714624, 0.1080999973055441, 0.109500004327856, 0.112749999971129, 0.10909999764407985, 0.10974999895552173, 0.10865000149351545, 0.1097999993362464, 0.11689999882946722, 0.11189999713678844, 0.10884999937843531, 0.11034999988623895, 0.10940000356640667, 0.11715000073309056, 0.11795000318670645, 0.11404999895603396, 0.10694999582483433, 0.10974999895552173, 0.10879999899771065, 0.10924999878625385, 0.10900000415858813, 0.1053000014508143, 0.10555000335443765, 0.10975000259350054, 0.10985000335494988, 0.10885000301641412, 0.10819999806699343, 0.11639999866019934, 0.11000000085914508, 0.11014999836334027, 0.10969999857479706, 0.10910000492003746, 0.12205000166432001, 0.1072999948519282, 0.1067000011971686, 0.10605000352370553, 0.12414999582688324, 0.11050000102841295, 0.10924999878625385, 0.11099999755970202, 0.10694999582483433, 0.11669999730656855, 0.11535000157891773, 0.1099500004784204, 0.10844999997061677, 0.10645000293152407, 0.10739999925135635, 0.10709999696700834, 0.1083999995898921, 0.10730000212788582, 0.10605000352370553, 0.10689999908208847, 0.11910000102943741, 0.10879999899771065, 0.1096500018320512, 0.10790000305860303, 0.11814999743364751, 0.10750000001280569, 0.10724999810918234, 0.10659999679774046, 0.10645000293152407, 0.10609999662847258, 0.1095000006898772, 0.11150000136694871, 0.10829999882844277, 0.10870000187424012, 0.11549999908311293, 0.1141500033554621, 0.1123000038205646, 0.10449999899719842, 0.10984999971697107, 0.11029999950551428, 0.10719999772845767, 0.11359999916749075, 0.10670000483514741, 0.10515000394661911, 0.112749999971129, 0.10705000386224128, 0.10599999950500205, 0.10594999912427738, 0.10605000352370553, 0.10990000009769574, 0.10620000102790073, 0.10565000047790818, 0.1085499970940873, 0.11270000322838314, 0.10915000166278332, 0.10840000322787091, 0.10649999967426993, 0.1065500036929734, 0.11855000047944486, 0.10724999810918234, 0.1067000011971686, 0.10800000382005237, 0.10750000001280569, 0.1081000009435229, 0.10699999984353781, 0.10604999624774791, 0.1062500014086254, 0.10634999853209592, 0.10585000200080685, 0.1055999964592047, 0.10739999925135635, 0.10674999793991446, 0.10900000052060932, 0.11219999942113645, 0.10859999747481197, 0.10879999535973184, 0.1113500002247747, 0.10914999802480452, 0.10910000128205866, 0.10769999789772555, 0.10770000153570436, 0.10864999785553664, 0.10960000145132653, 0.10970000221277587, 0.11040000026696362, 0.10724999810918234, 0.11100000119768083, 0.11309999899822287, 0.12094999692635611, 0.11215000267839059, 0.10759999713627622, 0.10760000077425502, 0.10830000246642157, 0.10864999785553664, 0.11905000064871274, 0.11079999967478216, 0.1068499987013638, 0.10834999920916744, 0.10660000043571927, 0.10719999772845767, 0.154950004798593, 0.10715000462369062, 0.11065000217058696, 0.10635000217007473, 0.10494999878574163, 0.10660000043571927, 0.11285000437055714, 0.11079999967478216, 0.10709999696700834, 0.10790000305860303, 0.1067000011971686, 0.10629999815137126, 0.13535000107367523, 0.11739999536075629, 0.10864999785553664, 0.10915000166278332, 0.10890000339713879, 0.1506000007793773, 0.10859999747481197, 0.10999999722116627, 0.11049999739043415, 0.10889999975915998, 0.11945000369451009, 0.10695000310079195, 0.10785000267787836, 0.10619999738992192, 0.10660000043571927, 0.10875000225496478, 0.10554999971645884, 0.10589999510557391, 0.10700000348151661, 0.10635000217007473, 0.10630000178935006, 0.10594999912427738, 0.10639999891282059, 0.10725000174716115, 0.10785000267787836, 0.10945000030915253, 0.10815000132424757, 0.11589999849093147, 0.1213000032294076, 0.112749999971129, 0.1062500014086254, 0.10540000221226364, 0.1062500014086254, 0.1051500003086403, 0.10970000221277587, 0.11110000195913017, 0.10565000047790818, 0.11475000064820051, 0.10924999878625385, 0.10939999992842786, 0.1100999979826156, 0.1081000009435229, 0.10885000301641412, 0.10860000111279078, 0.100200002634665, 0.11035000352421775, 0.11005000123986974, 0.10790000305860303, 0.11489999815239571, 0.11475000064820051, 0.10905000090133399, 0.10705000022426248, 0.11219999942113645, 0.10619999738992192, 0.10649999967426993, 0.1062500014086254, 0.10820000170497224, 0.23579999469802715, 0.15324999549193308, 0.2111999929184094, 0.2042499982053414, 0.11045000428566709, 0.10915000166278332, 0.10924999878625385, 0.10779999865917489, 0.10889999975915998, 0.10709999696700834, 0.10519999705138616, 0.10970000221277587, 0.11334999726386741, 0.10794999616337009, 0.10914999802480452, 0.10899999688263051, 0.10870000187424012, 0.11610000001383014, 0.10955000107060187, 0.10895000377786346, 0.11344999802531675, 0.1080999973055441, 0.10694999582483433, 0.11095000081695616, 0.1079500034393277],
  "Depth": 2.0,
  "Expectation Value": -2.55633282661438,
  "Optimal Expectation Value": -3.5925002098083496,
  "Optimizer durations [ms]": [3.191, 3.163, 3.236, 3.094, 6.923, 16.073, 6.021, 5.196, 3.196, 3.176, 3.334, 3.489, 3.267, 3.352, 3.376, 3.431, 3.368, 3.181, 3.147, 3.15, 3.176, 3.463, 3.258, 3.246, 3.173, 3.156, 3.217, 3.176, 3.133, 3.144, 3.25, 3.309, 3.262, 3.267, 3.13, 3.924, 3.348, 3.165, 3.18, 3.148, 3.157, 3.125, 3.09, 3.095, 3.139, 3.17, 3.157, 3.118, 3.136, 3.151, 3.261, 3.041, 3.086, 3.155, 3.095, 3.134, 3.181, 3.119, 3.173, 3.135, 4.011, 3.306, 2.99, 3.426, 3.109, 3.229, 3.43, 3.465, 3.267, 3.228, 3.131, 3.099, 3.147, 3.339, 3.127, 3.138, 3.309, 3.087, 3.092, 3.163, 3.111, 3.152, 3.136, 3.114, 2.618, 3.369, 3.133, 3.44, 3.403, 3.216, 3.087, 3.348, 3.154, 3.287, 3.155, 3.111, 3.141, 3.124, 3.127, 7.607, 2.999, 3.015, 2.984, 3.019, 2.975, 2.984, 2.973, 3.048, 3.436, 3.112, 3.059, 2.994, 3.125, 3.395, 3.362, 3.173, 3.212, 3.087, 3.255, 3.46, 3.303, 3.191, 3.027, 2.99, 3.075, 3.106, 3.098, 3.086, 3.078, 3.018, 2.981, 2.991, 3.225, 2.993, 2.997, 3.029, 3.004, 3.467, 3.139, 3.145, 3.098, 3.674, 3.045, 2.982, 3.33, 3.138, 3.386, 3.339, 3.1, 3.315, 3.136, 3.103, 3.129, 3.162, 3.136, 3.086, 3.253, 3.406, 3.016, 3.063, 3.176, 3.469, 3.238, 3.158, 3.131, 3.127, 3.109, 3.173, 3.402, 3.161, 3.179, 3.379, 3.306, 3.243, 3.083, 3.172, 3.136, 2.992, 3.313, 3.108, 3.12, 3.326, 3.157, 3.117, 3.119, 3.12, 3.14, 3.11, 3.086, 3.127, 3.096, 3.004, 3.142, 3.152, 3.129, 3.629, 3.16, 3.095, 2.979, 3.045, 3.167, 3.152, 3.108, 3.124, 3.138, 3.101, 3.145, 3.116, 3.172, 3.239, 3.126, 2.985, 2.97, 3.065, 2.989, 3.085, 2.989, 3.083, 3.025, 2.998, 3.048, 3.039, 2.974, 3.075, 3.135, 3.339, 3.082, 2.978, 2.99, 3.019, 3.244, 3.524, 3.307, 3.102, 3.253, 3.146, 3.133, 4.163, 3.175, 3.194, 3.132, 3.09, 2.983, 3.359, 3.242, 3.229, 3.093, 3.146, 3.108, 3.732, 3.459, 3.019, 2.994, 3.01, 4.055, 2.977, 3.093, 3.069, 3.037, 3.365, 3.133, 3.196, 3.125, 3.109, 3.165, 3.129, 3.082, 3.135, 3.088, 3.078, 3.1, 3.159, 3.162, 3.251, 3.21, 3.201, 3.352, 3.796, 3.326, 3.125, 3.091, 3.112, 3.101, 3.33, 3.32, 3.123, 3.22, 3.031, 3.199, 3.044, 2.976, 2.98, 3.111, 6.272, 14.851, 7.499, 3.198, 3.244, 3.432, 3.189, 3.121, 3.371, 3.101, 3.124, 3.096, 3.177, 5.441, 18.364, 5.563, 5.555, 3.269, 3.174, 3.216, 3.179, 3.194, 3.152, 3.071, 3.039, 3.309, 3.069, 3.005, 2.976, 3.019, 3.29, 3.186, 2.987, 3.226, 3.189, 3.124, 3.07, 3.013],
  "Optimizer iterations": 331,
  "Optimizer params": [0.9998215950237881, 0.5030605000119597, 0.9914282235680765, 0.045319528598558305, 0.4818774624793994, 0.9993004080424723],
  "P": 0,
  "Problem": "RH",
  "QJob durations [ms]": [0.11079999967478216, 0.11549999908311293, 0.112749999971129, 0.1080999973055441, 0.29410000206553377, 0.10704999658628367, 0.21444999583764002, 0.1843999998527579, 0.11355000242474489, 0.11275000360910781, 0.1143000008596573, 0.11969999832217582, 0.11190000077476725, 0.11199999789823778, 0.11660000382107683, 0.11700000322889537, 0.11729999823728576, 0.11060000178986229, 0.10945000394713134, 0.11150000136694871, 0.11160000212839805, 0.12200000492157415, 0.11185000039404258, 0.11004999760189094, 0.11069999527535401, 0.10999999722116627, 0.11014999836334027, 0.11244999768678099, 0.11235000056331046, 0.11074999929405749, 0.11054999777115881, 0.11779999840655364, 0.112900001113303, 0.11340000128257088, 0.10984999971697107, 0.1442499997210689, 0.11280000035185367, 0.10815000132424757, 0.10835000284714624, 0.10769999789772555, 0.10869999823626131, 0.10774999827845022, 0.10595000276225619, 0.10599999586702324, 0.1067000011971686, 0.1065500000549946, 0.10664999717846513, 0.10644999929354526, 0.1065500000549946, 0.10589999510557391, 0.11890000314451754, 0.10765000115497969, 0.10574999760137871, 0.1066999975591898, 0.10654999641701579, 0.1080999973055441, 0.109200002043508, 0.10719999772845767, 0.10639999891282059, 0.10615000428515486, 0.14089999967836775, 0.11020000238204375, 0.1064000025507994, 0.1171000003523659, 0.10784999903989956, 0.1099500004784204, 0.11320000339765102, 0.11870000525959767, 0.1113500002247747, 0.11665000056382269, 0.10705000022426248, 0.1066999975591898, 0.10639999891282059, 0.11420000373618677, 0.10814999768626876, 0.10670000483514741, 0.11209999865968712, 0.10554999971645884, 0.10570000085863285, 0.10815000132424757, 0.10639999891282059, 0.10674999793991446, 0.10760000441223383, 0.10699999984353781, 0.0802000031399075, 0.1130499949795194, 0.10775000191642903, 0.1159999992523808, 0.11330000052112155, 0.10845000360859558, 0.11049999739043415, 0.11194999751751311, 0.10705000386224128, 0.11690000246744603, 0.10764999751700088, 0.10635000217007473, 0.1064000025507994, 0.10664999717846513, 0.11205000191694126, 0.10945000030915253, 0.10914999802480452, 0.10860000111279078, 0.10844999997061677, 0.10850000035134144, 0.1083999995898921, 0.10835000284714624, 0.1080999973055441, 0.109500004327856, 0.112749999971129, 0.10909999764407985, 0.10974999895552173, 0.10865000149351545, 0.1097999993362464, 0.11689999882946722, 0.11189999713678844, 0.10884999937843531, 0.11034999988623895, 0.10940000356640667, 0.11715000073309056, 0.11795000318670645, 0.11404999895603396, 0.10694999582483433, 0.10974999895552173, 0.10879999899771065, 0.10924999878625385, 0.10900000415858813, 0.1053000014508143, 0.10555000335443765, 0.10975000259350054, 0.10985000335494988, 0.10885000301641412, 0.10819999806699343, 0.11639999866019934, 0.11000000085914508, 0.11014999836334027, 0.10969999857479706, 0.10910000492003746, 0.12205000166432001, 0.1072999948519282, 0.1067000011971686, 0.10605000352370553, 0.12414999582688324, 0.11050000102841295, 0.10924999878625385, 0.11099999755970202, 0.10694999582483433, 0.11669999730656855, 0.11535000157891773, 0.1099500004784204, 0.10844999997061677, 0.10645000293152407, 0.10739999925135635, 0.10709999696700834, 0.1083999995898921, 0.10730000212788582, 0.10605000352370553, 0.10689999908208847, 0.11910000102943741, 0.10879999899771065, 0.1096500018320512, 0.10790000305860303, 0.11814999743364751, 0.10750000001280569, 0.10724999810918234, 0.10659999679774046, 0.10645000293152407, 0.10609999662847258, 0.1095000006898772, 0.11150000136694871, 0.10829999882844277, 0.10870000187424012, 0.11549999908311293, 0.1141500033554621, 0.1123000038205646, 0.10449999899719842, 0.10984999971697107, 0.11029999950551428, 0.10719999772845767, 0.11359999916749075, 0.10670000483514741, 0.10515000394661911, 0.112749999971129, 0.10705000386224128, 0.10599999950500205, 0.10594999912427738, 0.10605000352370553, 0.10990000009769574, 0.10620000102790073, 0.10565000047790818, 0.1085499970940873, 0.11270000322838314, 0.10915000166278332, 0.10840000322787091, 0.10649999967426993, 0.1065500036929734, 0.11855000047944486, 0.10724999810918234, 0.1067000011971686, 0.10800000382005237, 0.10750000001280569, 0.1081000009435229, 0.10699999984353781, 0.10604999624774791, 0.1062500014086254, 0.10634999853209592, 0.10585000200080685, 0.1055999964592047, 0.10739999925135635, 0.10674999793991446, 0.10900000052060932, 0.11219999942113645, 0.10859999747481197, 0.10879999535973184, 0.1113500002247747, 0.10914999802480452, 0.10910000128205866, 0.10769999789772555, 0.10770000153570436, 0.10864999785553664, 0.10960000145132653, 0.10970000221277587, 0.11040000026696362, 0.10724999810918234, 0.11100000119768083, 0.11309999899822287, 0.12094999692635611, 0.11215000267839059, 0.10759999713627622, 0.10760000077425502, 0.10830000246642157, 0.10864999785553664, 0.11905000064871274, 0.11079999967478216, 0.1068499987013638, 0.10834999920916744, 0.10660000043571927, 0.10719999772845767, 0.154950004798593, 0.10715000462369062, 0.11065000217058696, 0.10635000217007473, 0.10494999878574163, 0.10660000043571927, 0.11285000437055714, 0.11079999967478216, 0.10709999696700834, 0.10790000305860303, 0.1067000011971686, 0.10629999815137126, 0.13535000107367523, 0.11739999536075629, 0.10864999785553664, 0.10915000166278332, 0.10890000339713879, 0.1506000007793773, 0.10859999747481197, 0.10999999722116627, 0.11049999739043415, 0.10889999975915998, 0.11945000369451009, 0.10695000310079195, 0.10785000267787836, 0.10619999738992192, 0.10660000043571927, 0.10875000225496478, 0.10554999971645884, 0.10589999510557391, 0.10700000348151661, 0.10635000217007473, 0.10630000178935006, 0.10594999912427738, 0.10639999891282059, 0.10725000174716115, 0.10785000267787836, 0.10945000030915253, 0.10815000132424757, 0.11589999849093147, 0.1213000032294076, 0.112749999971129, 0.1062500014086254, 0.10540000221226364, 0.1062500014086254, 0.1051500003086403, 0.10970000221277587, 0.11110000195913017, 0.10565000047790818, 0.11475000064820051, 0.10924999878625385, 0.10939999992842786, 0.1100999979826156, 0.1081000009435229, 0.10885000301641412, 0.10860000111279078, 0.100200002634665, 0.11035000352421775, 0.11005000123986974, 0.10790000305860303, 0.11489999815239571, 0.11475000064820051, 0.10905000090133399, 0.10705000022426248, 0.11219999942113645, 0.10619999738992192, 0.10649999967426993, 0.1062500014086254, 0.10820000170497224, 0.23579999469802715, 0.15324999549193308, 0.2111999929184094, 0.2042499982053414, 0.11045000428566709, 0.10915000166278332, 0.10924999878625385, 0.10779999865917489, 0.10889999975915998, 0.10709999696700834, 0.10519999705138616, 0.10970000221277587, 0.11334999726386741, 0.10794999616337009, 0.10914999802480452, 0.10899999688263051, 0.10870000187424012, 0.11610000001383014, 0.10955000107060187, 0.10895000377786346, 0.11344999802531675, 0.1080999973055441, 0.10694999582483433, 0.11095000081695616, 0.1079500034393277],
  "QPU": "7000000",
  "Qubits": 6,
  "Queue durations [ms]": [0.0, 0.0, 0.0, 0.0, 0.0, 0.0, 0.0, 0.0, 0.0, 0.0, 0.0, 0.0, 0.0, 0.0, 0.0, 0.0, 0.0, 0.0, 0.0, 0.0, 0.0, 0.0, 0.0, 0.0, 0.0, 0.0, 0.0, 0.0, 0.0, 0.0, 0.0, 0.0, 0.0, 0.0, 0.0, 0.0, 0.0, 0.0, 0.0, 0.0, 0.0, 0.0, 0.0, 0.0, 0.0, 0.0, 0.0, 0.0, 0.0, 0.0, 0.0, 0.0, 0.0, 0.0, 0.0, 0.0, 0.0, 0.0, 0.0, 0.0, 0.0, 0.0, 0.0, 0.0, 0.0, 0.0, 0.0, 0.0, 0.0, 0.0, 0.0, 0.0, 0.0, 0.0, 0.0, 0.0, 0.0, 0.0, 0.0, 0.0, 0.0, 0.0, 0.0, 0.0, 0.0, 0.0, 0.0, 0.0, 0.0, 0.0, 0.0, 0.0, 0.0, 0.0, 0.0, 0.0, 0.0, 0.0, 0.0, 0.0, 0.0, 0.0, 0.0, 0.0, 0.0, 0.0, 0.0, 0.0, 0.0, 0.0, 0.0, 0.0, 0.0, 0.0, 0.0, 0.0, 0.0, 0.0, 0.0, 0.0, 0.0, 0.0, 0.0, 0.0, 0.0, 0.0, 0.0, 0.0, 0.0, 0.0, 0.0, 0.0, 0.0, 0.0, 0.0, 0.0, 0.0, 0.0, 0.0, 0.0, 0.0, 0.0, 0.0, 0.0, 0.0, 0.0, 0.0, 0.0, 0.0, 0.0, 0.0, 0.0, 0.0, 0.0, 0.0, 0.0, 0.0, 0.0, 0.0, 0.0, 0.0, 0.0, 0.0, 0.0, 0.0, 0.0, 0.0, 0.0, 0.0, 0.0, 0.0, 0.0, 0.0, 0.0, 0.0, 0.0, 0.0, 0.0, 0.0, 0.0, 0.0, 0.0, 0.0, 0.0, 0.0, 0.0, 0.0, 0.0, 0.0, 0.0, 0.0, 0.0, 0.0, 0.0, 0.0, 0.0, 0.0, 0.0, 0.0, 0.0, 0.0, 0.0, 0.0, 0.0, 0.0, 0.0, 0.0, 0.0, 0.0, 0.0, 0.0, 0.0, 0.0, 0.0, 0.0, 0.0, 0.0, 0.0, 0.0, 0.0, 0.0, 0.0, 0.0, 0.0, 0.0, 0.0, 0.0, 0.0, 0.0, 0.0, 0.0, 0.0, 0.0, 0.0, 0.0, 0.0, 0.0, 0.0, 0.0, 0.0, 0.0, 0.0, 0.0, 0.0, 0.0, 0.0, 0.0, 0.0, 0.0, 0.0, 0.0, 0.0, 0.0, 0.0, 0.0, 0.0, 0.0, 0.0, 0.0, 0.0, 0.0, 0.0, 0.0, 0.0, 0.0, 0.0, 0.0, 0.0, 0.0, 0.0, 0.0, 0.0, 0.0, 0.0, 0.0, 0.0, 0.0, 0.0, 0.0, 0.0, 0.0, 0.0, 0.0, 0.0, 0.0, 0.0, 0.0, 0.0, 0.0, 0.0, 0.0, 0.0, 0.0, 0.0, 0.0, 0.0, 0.0, 0.0, 0.0, 0.0, 0.0, 0.0, 0.0, 0.0, 0.0, 0.0, 0.0, 0.0, 0.0, 0.0, 0.0, 0.0, 0.0, 0.0, 0.0, 0.0, 0.0, 0.0, 0.0, 0.0, 0.0, 0.0, 0.0, 0.0, 0.0, 0.0, 0.0, 0.0, 0.0, 0.0, 0.0],
  "Shots": 4096,
  "Size": 6,
  "Total Algorithm duration [s]": 1.118,
  "Total Classic duration [s]": 1.0808405499570364,
  "Total Quantum duration [s]": 0.037159450042963726
}
