{
  "Circuit execution durations [ms]": [0.1158500017481856, 0.14010000450070947, 0.11314999937894754, 0.1113499965867959, 0.11129999984405003, 0.1268500018341001, 0.11339999764459208, 0.11730000187526457, 0.12820000119972974, 0.11349999840604141, 0.10974999895552173, 0.11224999980186112, 0.10984999971697107, 0.11194999751751311, 0.11240000094403513, 0.11209999865968712, 0.11264999557170086, 0.1097999993362464, 0.10864999785553664, 0.11035000352421775, 0.11200000153621659, 0.11129999984405003, 0.1114999977289699, 0.11050000102841295, 0.11084999641752802, 0.11305000225547701, 0.10939999992842786, 0.10914999802480452, 0.10835000284714624, 0.11209999865968712, 0.11084999641752802, 0.11095000445493497, 0.10909999764407985, 0.11169999925186858, 0.11095000081695616, 0.11589999849093147, 0.11104999794042669, 0.11074999565607868, 0.1124500013247598, 0.12030000289087184, 0.11240000094403513, 0.11154999810969457, 0.11130000348202884, 0.11074999565607868, 0.1128999974753242, 0.11129999620607123, 0.11150000136694871, 0.1111999990826007, 0.10974999895552173, 0.1201999984914437, 0.11100000119768083, 0.11099999755970202, 0.11335000090184622, 0.11110000195913017, 0.11445000200183131, 0.11079999603680335, 0.11089999679825269, 0.11675000132527202, 0.11284999709459953, 0.11359999916749075, 0.11544999870238826, 0.11499999891384505, 0.11319999975967221, 0.11575000098673627, 0.11045000064768828, 0.11264999920967966, 0.10955000107060187, 0.11314999937894754, 0.162050000653835, 0.11164999887114391, 0.11029999950551428, 0.1200500009872485, 0.1096500018320512, 0.10894999650190584, 0.10729999848990701, 0.10850000035134144, 0.10844999997061677, 0.10864999785553664, 0.1083999995898921, 0.10945000030915253, 0.10879999899771065, 0.11049999739043415, 0.22935000743018463, 0.12104999768780544, 0.11219999942113645, 0.11280000398983248, 0.11380000069038942, 0.11330000052112155, 0.11184999675606377, 0.11340000128257088, 0.12405000234139152, 0.10959999781334773, 0.11094999717897736, 0.11244999768678099, 0.11169999925186858, 0.2408500040473882, 0.11674999768729322, 0.11074999929405749, 0.11154999810969457, 0.11160000212839805, 0.11129999984405003, 0.11204999827896245, 0.11079999967478216, 0.1113499965867959, 0.11250000170548446, 0.11169999925186858, 0.11054999777115881, 0.11079999603680335, 0.11699999959091656, 0.12139999671489932, 0.11189999713678844, 0.11360000280546956, 0.1159999992523808, 0.10914999802480452, 0.1095000006898772, 0.11010000162059441, 0.10955000107060187, 0.10889999975915998, 0.10939999992842786, 0.10169999950448982, 0.1080999973055441, 0.10904999726335518, 0.10919999840552919, 0.10915000166278332, 0.11604999963310547, 0.11355000242474489, 0.10970000221277587, 0.11299999823677354, 0.10864999785553664, 0.12385000081849284, 0.19420000171521679, 0.18170000112149864, 0.10880000263568945, 0.11154999810969457, 0.11099999755970202, 0.10760000077425502, 0.103599999420112, 0.10404999920865521, 0.10145000123884529, 0.11314999574096873, 0.1117999963753391, 0.11735000225598924, 0.11150000136694871, 0.11214999904041179, 0.11114999506389722, 0.11845000335597433, 0.11209999865968712, 0.11050000102841295, 0.11099999755970202, 0.11100000119768083, 0.12084999616490677, 0.11014999836334027, 0.11024999912478961, 0.10955000107060187, 0.11019999874406494, 0.11249999806750566, 0.10949999705189839, 0.10904999726335518, 0.12864999735029414, 0.11314999937894754, 0.11339999764459208, 0.11129999620607123, 0.10180000026593916, 0.10194999777013436, 0.11094999717897736, 0.11635000191745348, 0.11150000136694871, 0.11499999891384505, 0.11015000200131908, 0.11015000200131908, 0.10399999882793054, 0.10135000047739595, 0.1109000004362315, 0.11124999582534656, 0.11069999527535401, 0.11164999887114391, 0.11059999815188348, 0.11025000276276842, 0.10904999726335518, 0.11279999671387486, 0.1124500013247598, 0.11010000162059441, 0.11145000098622404, 0.11310000263620168, 0.14685000132885762, 0.11825000183307566, 0.11469999662949704, 0.11404999895603396, 0.1099499968404416, 0.11004999760189094, 0.10889999975915998, 0.11390000145183876, 0.10989999645971693, 0.11450000238255598, 0.1157000006060116, 0.11209999865968712, 0.11195000115549192, 0.11265000284765847, 0.11204999827896245, 0.11104999794042669, 0.10960000145132653, 0.10900000052060932, 0.10910000492003746, 0.10904999726335518, 0.10829999882844277, 0.10915000166278332, 0.109350003185682, 0.12474999675760046, 0.11715000073309056, 0.11215000267839059, 0.11145000098622404, 0.1130499986174982, 0.11209999865968712, 0.11235000420128927, 0.11124999946332537, 0.11615000403253362, 0.10885000301641412, 0.112749999971129, 0.11114999506389722, 0.1088499957404565, 0.1111999990826007, 0.1110500015784055, 0.12575000073411502, 0.11450000238255598, 0.10975000259350054, 0.10900000052060932, 0.10945000030915253, 0.31865001074038446, 0.11270000322838314, 0.11280000035185367, 0.11255000208620913, 0.11684999844874255, 0.11295000149402767, 0.11760000052163377, 0.11385000107111409, 0.1137000035669189, 0.11949999679927714, 0.12134999997215346, 0.11919999815290794, 0.11575000462471507, 0.11464999988675117, 0.1114999977289699, 0.11099999755970202, 0.1099499968404416, 0.11215000267839059, 0.10415000360808335, 0.11005000123986974, 0.112749999971129, 0.11320000339765102, 0.11354999514878727, 0.11220000305911526, 0.11330000052112155, 0.112900001113303, 0.1127499963331502, 0.11330000052112155, 0.11124999946332537, 0.11129999984405003, 0.11084999641752802, 0.11084999641752802, 0.11945000369451009, 0.11250000170548446, 0.11174999963259324, 0.11379999705241062, 0.11409999569877982, 0.11335000090184622, 0.11205000191694126, 0.11110000195913017, 0.11144999734824523, 0.11410000297473744, 0.11205000191694126, 0.1117999963753391, 0.11040000026696362, 0.10939999992842786, 0.109200002043508, 0.10929999916697852, 0.10919999840552919, 0.10939999992842786, 0.10309999925084412, 0.12259999857633375, 0.1079500034393277, 0.1096500018320512, 0.1095000006898772, 0.10924999878625385, 0.13144999684300274, 0.11354999878676608, 0.11234999692533165, 0.11684999844874255, 0.112900001113303, 0.11929999891435727, 0.11950000407523476, 0.11635000191745348],
  "Depth": 2.0,
  "Expectation Value": -3.589925765991211,
  "Optimal Expectation Value": -3.5925002098083496,
  "Optimizer durations [ms]": [3.409, 3.915, 3.202, 3.277, 3.152, 3.518, 3.227, 3.278, 3.651, 3.258, 3.306, 3.181, 3.243, 3.153, 3.124, 3.304, 3.401, 3.185, 3.066, 3.241, 3.156, 3.126, 3.139, 3.182, 3.308, 3.257, 3.183, 3.126, 3.112, 3.173, 3.128, 3.07, 3.11, 3.25, 3.157, 3.434, 3.099, 3.081, 3.274, 3.459, 3.128, 3.133, 3.151, 3.104, 3.192, 3.127, 3.121, 3.106, 3.104, 3.419, 3.094, 3.115, 3.278, 3.152, 3.265, 3.134, 3.121, 3.232, 3.245, 3.224, 3.186, 3.297, 3.315, 3.187, 3.106, 3.303, 3.267, 3.185, 4.202, 3.186, 3.137, 3.357, 3.176, 3.128, 3.096, 3.131, 3.124, 3.127, 3.28, 3.147, 3.141, 3.173, 5.286, 19.753, 3.389, 3.145, 3.682, 4.144, 4.106, 3.14, 3.4, 3.184, 3.101, 3.16, 3.137, 5.762, 3.414, 3.107, 3.125, 3.091, 3.099, 3.136, 3.078, 3.117, 3.17, 3.119, 3.142, 3.104, 3.433, 3.408, 3.133, 3.248, 3.38, 3.146, 3.17, 3.151, 3.138, 3.117, 3.14, 3.104, 3.128, 3.149, 3.152, 3.155, 3.371, 3.287, 3.168, 3.211, 3.243, 18.122, 8.335, 5.68, 3.318, 3.226, 3.237, 3.148, 3.112, 3.121, 2.96, 3.347, 3.216, 4.318, 3.152, 3.143, 3.16, 3.268, 3.143, 3.083, 3.109, 3.115, 3.393, 3.135, 3.276, 3.246, 3.251, 3.36, 3.164, 3.152, 3.725, 3.279, 3.182, 3.116, 3.024, 3.022, 3.111, 3.296, 3.17, 3.235, 3.073, 3.113, 3.086, 3.034, 3.736, 3.208, 3.2, 3.167, 3.134, 3.122, 3.116, 3.189, 3.207, 3.125, 3.368, 3.3, 4.149, 3.326, 3.261, 3.313, 3.394, 3.209, 3.139, 3.296, 3.224, 3.26, 3.317, 3.164, 3.152, 3.207, 3.229, 3.161, 3.086, 3.116, 3.127, 3.656, 4.038, 3.641, 3.242, 3.528, 3.389, 3.223, 3.138, 3.174, 3.174, 3.134, 3.254, 3.345, 3.121, 3.178, 3.116, 3.109, 3.095, 3.107, 3.447, 3.289, 3.128, 3.105, 3.113, 6.891, 3.258, 3.137, 3.128, 3.25, 3.145, 3.376, 3.343, 3.621, 3.911, 3.36, 3.284, 3.928, 3.636, 3.169, 3.129, 3.154, 3.858, 3.146, 3.189, 3.29, 3.185, 3.149, 3.124, 3.157, 3.143, 3.348, 3.178, 3.127, 3.076, 3.121, 3.157, 3.514, 3.136, 3.12, 3.25, 3.209, 3.273, 3.121, 3.088, 3.108, 3.179, 3.094, 3.153, 3.147, 3.127, 3.183, 3.118, 3.133, 3.142, 3.026, 3.417, 3.088, 3.135, 3.165, 3.106, 3.59, 3.183, 3.123, 3.351, 3.266, 3.739, 3.551, 3.396],
  "Optimizer iterations": 291,
  "Optimizer params": [1.0, 0.49757718414061647, 4.336808689942141e-19, 0.483729047631467, 0.5004561094798136, 1.0],
  "P": 0,
  "Problem": "RH",
  "QJob durations [ms]": [0.1158500017481856, 0.14010000450070947, 0.11314999937894754, 0.1113499965867959, 0.11129999984405003, 0.1268500018341001, 0.11339999764459208, 0.11730000187526457, 0.12820000119972974, 0.11349999840604141, 0.10974999895552173, 0.11224999980186112, 0.10984999971697107, 0.11194999751751311, 0.11240000094403513, 0.11209999865968712, 0.11264999557170086, 0.1097999993362464, 0.10864999785553664, 0.11035000352421775, 0.11200000153621659, 0.11129999984405003, 0.1114999977289699, 0.11050000102841295, 0.11084999641752802, 0.11305000225547701, 0.10939999992842786, 0.10914999802480452, 0.10835000284714624, 0.11209999865968712, 0.11084999641752802, 0.11095000445493497, 0.10909999764407985, 0.11169999925186858, 0.11095000081695616, 0.11589999849093147, 0.11104999794042669, 0.11074999565607868, 0.1124500013247598, 0.12030000289087184, 0.11240000094403513, 0.11154999810969457, 0.11130000348202884, 0.11074999565607868, 0.1128999974753242, 0.11129999620607123, 0.11150000136694871, 0.1111999990826007, 0.10974999895552173, 0.1201999984914437, 0.11100000119768083, 0.11099999755970202, 0.11335000090184622, 0.11110000195913017, 0.11445000200183131, 0.11079999603680335, 0.11089999679825269, 0.11675000132527202, 0.11284999709459953, 0.11359999916749075, 0.11544999870238826, 0.11499999891384505, 0.11319999975967221, 0.11575000098673627, 0.11045000064768828, 0.11264999920967966, 0.10955000107060187, 0.11314999937894754, 0.162050000653835, 0.11164999887114391, 0.11029999950551428, 0.1200500009872485, 0.1096500018320512, 0.10894999650190584, 0.10729999848990701, 0.10850000035134144, 0.10844999997061677, 0.10864999785553664, 0.1083999995898921, 0.10945000030915253, 0.10879999899771065, 0.11049999739043415, 0.22935000743018463, 0.12104999768780544, 0.11219999942113645, 0.11280000398983248, 0.11380000069038942, 0.11330000052112155, 0.11184999675606377, 0.11340000128257088, 0.12405000234139152, 0.10959999781334773, 0.11094999717897736, 0.11244999768678099, 0.11169999925186858, 0.2408500040473882, 0.11674999768729322, 0.11074999929405749, 0.11154999810969457, 0.11160000212839805, 0.11129999984405003, 0.11204999827896245, 0.11079999967478216, 0.1113499965867959, 0.11250000170548446, 0.11169999925186858, 0.11054999777115881, 0.11079999603680335, 0.11699999959091656, 0.12139999671489932, 0.11189999713678844, 0.11360000280546956, 0.1159999992523808, 0.10914999802480452, 0.1095000006898772, 0.11010000162059441, 0.10955000107060187, 0.10889999975915998, 0.10939999992842786, 0.10169999950448982, 0.1080999973055441, 0.10904999726335518, 0.10919999840552919, 0.10915000166278332, 0.11604999963310547, 0.11355000242474489, 0.10970000221277587, 0.11299999823677354, 0.10864999785553664, 0.12385000081849284, 0.19420000171521679, 0.18170000112149864, 0.10880000263568945, 0.11154999810969457, 0.11099999755970202, 0.10760000077425502, 0.103599999420112, 0.10404999920865521, 0.10145000123884529, 0.11314999574096873, 0.1117999963753391, 0.11735000225598924, 0.11150000136694871, 0.11214999904041179, 0.11114999506389722, 0.11845000335597433, 0.11209999865968712, 0.11050000102841295, 0.11099999755970202, 0.11100000119768083, 0.12084999616490677, 0.11014999836334027, 0.11024999912478961, 0.10955000107060187, 0.11019999874406494, 0.11249999806750566, 0.10949999705189839, 0.10904999726335518, 0.12864999735029414, 0.11314999937894754, 0.11339999764459208, 0.11129999620607123, 0.10180000026593916, 0.10194999777013436, 0.11094999717897736, 0.11635000191745348, 0.11150000136694871, 0.11499999891384505, 0.11015000200131908, 0.11015000200131908, 0.10399999882793054, 0.10135000047739595, 0.1109000004362315, 0.11124999582534656, 0.11069999527535401, 0.11164999887114391, 0.11059999815188348, 0.11025000276276842, 0.10904999726335518, 0.11279999671387486, 0.1124500013247598, 0.11010000162059441, 0.11145000098622404, 0.11310000263620168, 0.14685000132885762, 0.11825000183307566, 0.11469999662949704, 0.11404999895603396, 0.1099499968404416, 0.11004999760189094, 0.10889999975915998, 0.11390000145183876, 0.10989999645971693, 0.11450000238255598, 0.1157000006060116, 0.11209999865968712, 0.11195000115549192, 0.11265000284765847, 0.11204999827896245, 0.11104999794042669, 0.10960000145132653, 0.10900000052060932, 0.10910000492003746, 0.10904999726335518, 0.10829999882844277, 0.10915000166278332, 0.109350003185682, 0.12474999675760046, 0.11715000073309056, 0.11215000267839059, 0.11145000098622404, 0.1130499986174982, 0.11209999865968712, 0.11235000420128927, 0.11124999946332537, 0.11615000403253362, 0.10885000301641412, 0.112749999971129, 0.11114999506389722, 0.1088499957404565, 0.1111999990826007, 0.1110500015784055, 0.12575000073411502, 0.11450000238255598, 0.10975000259350054, 0.10900000052060932, 0.10945000030915253, 0.31865001074038446, 0.11270000322838314, 0.11280000035185367, 0.11255000208620913, 0.11684999844874255, 0.11295000149402767, 0.11760000052163377, 0.11385000107111409, 0.1137000035669189, 0.11949999679927714, 0.12134999997215346, 0.11919999815290794, 0.11575000462471507, 0.11464999988675117, 0.1114999977289699, 0.11099999755970202, 0.1099499968404416, 0.11215000267839059, 0.10415000360808335, 0.11005000123986974, 0.112749999971129, 0.11320000339765102, 0.11354999514878727, 0.11220000305911526, 0.11330000052112155, 0.112900001113303, 0.1127499963331502, 0.11330000052112155, 0.11124999946332537, 0.11129999984405003, 0.11084999641752802, 0.11084999641752802, 0.11945000369451009, 0.11250000170548446, 0.11174999963259324, 0.11379999705241062, 0.11409999569877982, 0.11335000090184622, 0.11205000191694126, 0.11110000195913017, 0.11144999734824523, 0.11410000297473744, 0.11205000191694126, 0.1117999963753391, 0.11040000026696362, 0.10939999992842786, 0.109200002043508, 0.10929999916697852, 0.10919999840552919, 0.10939999992842786, 0.10309999925084412, 0.12259999857633375, 0.1079500034393277, 0.1096500018320512, 0.1095000006898772, 0.10924999878625385, 0.13144999684300274, 0.11354999878676608, 0.11234999692533165, 0.11684999844874255, 0.112900001113303, 0.11929999891435727, 0.11950000407523476, 0.11635000191745348],
  "QPU": "7000000",
  "Qubits": 6,
  "Queue durations [ms]": [0.0, 0.0, 0.0, 0.0, 0.0, 0.0, 0.0, 0.0, 0.0, 0.0, 0.0, 0.0, 0.0, 0.0, 0.0, 0.0, 0.0, 0.0, 0.0, 0.0, 0.0, 0.0, 0.0, 0.0, 0.0, 0.0, 0.0, 0.0, 0.0, 0.0, 0.0, 0.0, 0.0, 0.0, 0.0, 0.0, 0.0, 0.0, 0.0, 0.0, 0.0, 0.0, 0.0, 0.0, 0.0, 0.0, 0.0, 0.0, 0.0, 0.0, 0.0, 0.0, 0.0, 0.0, 0.0, 0.0, 0.0, 0.0, 0.0, 0.0, 0.0, 0.0, 0.0, 0.0, 0.0, 0.0, 0.0, 0.0, 0.0, 0.0, 0.0, 0.0, 0.0, 0.0, 0.0, 0.0, 0.0, 0.0, 0.0, 0.0, 0.0, 0.0, 0.0, 0.0, 0.0, 0.0, 0.0, 0.0, 0.0, 0.0, 0.0, 0.0, 0.0, 0.0, 0.0, 0.0, 0.0, 0.0, 0.0, 0.0, 0.0, 0.0, 0.0, 0.0, 0.0, 0.0, 0.0, 0.0, 0.0, 0.0, 0.0, 0.0, 0.0, 0.0, 0.0, 0.0, 0.0, 0.0, 0.0, 0.0, 0.0, 0.0, 0.0, 0.0, 0.0, 0.0, 0.0, 0.0, 0.0, 0.0, 0.0, 0.0, 0.0, 0.0, 0.0, 0.0, 0.0, 0.0, 0.0, 0.0, 0.0, 0.0, 0.0, 0.0, 0.0, 0.0, 0.0, 0.0, 0.0, 0.0, 0.0, 0.0, 0.0, 0.0, 0.0, 0.0, 0.0, 0.0, 0.0, 0.0, 0.0, 0.0, 0.0, 0.0, 0.0, 0.0, 0.0, 0.0, 0.0, 0.0, 0.0, 0.0, 0.0, 0.0, 0.0, 0.0, 0.0, 0.0, 0.0, 0.0, 0.0, 0.0, 0.0, 0.0, 0.0, 0.0, 0.0, 0.0, 0.0, 0.0, 0.0, 0.0, 0.0, 0.0, 0.0, 0.0, 0.0, 0.0, 0.0, 0.0, 0.0, 0.0, 0.0, 0.0, 0.0, 0.0, 0.0, 0.0, 0.0, 0.0, 0.0, 0.0, 0.0, 0.0, 0.0, 0.0, 0.0, 0.0, 0.0, 0.0, 0.0, 0.0, 0.0, 0.0, 0.0, 0.0, 0.0, 0.0, 0.0, 0.0, 0.0, 0.0, 0.0, 0.0, 0.0, 0.0, 0.0, 0.0, 0.0, 0.0, 0.0, 0.0, 0.0, 0.0, 0.0, 0.0, 0.0, 0.0, 0.0, 0.0, 0.0, 0.0, 0.0, 0.0, 0.0, 0.0, 0.0, 0.0, 0.0, 0.0, 0.0, 0.0, 0.0, 0.0, 0.0, 0.0, 0.0, 0.0, 0.0, 0.0, 0.0, 0.0, 0.0, 0.0, 0.0, 0.0, 0.0, 0.0, 0.0, 0.0, 0.0, 0.0, 0.0, 0.0, 0.0, 0.0, 0.0, 0.0, 0.0, 0.0, 0.0],
  "Shots": 4096,
  "Size": 6,
  "Total Algorithm duration [s]": 0.991,
  "Total Classic duration [s]": 0.9576322000703076,
  "Total Quantum duration [s]": 0.03336779992969241
}
