{
  "Circuit execution durations [ms]": [0.10960000145132653, 0.10869999823626131, 0.11659999654511921, 0.11779999840655364, 0.11085000369348563, 0.11080000331276096, 0.11055000140913762, 0.11214999904041179, 0.10895000013988465, 0.10880000263568945, 0.11069999891333282, 0.11040000390494242, 0.11980000272160396, 0.11100000119768083, 0.10824999480973929, 0.10869999823626131, 0.10869999823626131, 0.1100999979826156, 0.10894999650190584, 0.10844999997061677, 0.11140000424347818, 0.10899999688263051, 0.11269999959040433, 0.10915000166278332, 0.11095000081695616, 0.1130499986174982, 0.11740000263671391, 0.11765000090235844, 0.11314999574096873, 0.10884999937843531, 0.11015000200131908, 0.10875000225496478, 0.12185000377940014, 0.1099500004784204, 0.11339999764459208, 0.11045000428566709, 0.10885000301641412, 0.11034999988623895, 0.10789999942062423, 0.10855000073206611, 0.10834999920916744, 0.10584999836282805, 0.10910000128205866, 0.10784999903989956, 0.1082500020856969, 0.10870000187424012, 0.10865000149351545, 0.11965000157942995, 0.11109999832115136, 0.10929999916697852, 0.10869999823626131, 0.1082499984477181, 0.11014999836334027, 0.10869999823626131, 0.10909999764407985, 0.10859999747481197, 0.10820000170497224, 0.10864999785553664, 0.11020000238204375, 0.10855000073206611, 0.10689999908208847, 0.11354999514878727, 0.10879999535973184, 0.10924999514827505, 0.10864999785553664, 0.1085499970940873, 0.1081000009435229, 0.10815000132424757, 0.10949999705189839, 0.10869999823626131, 0.11104999794042669, 0.10769999789772555, 0.10675000157789327, 0.10649999967426993, 0.10784999903989956, 0.10690000272006728, 0.11069999891333282, 0.11254999844823033, 0.10810000458150171, 0.14229999942472205, 0.11189999713678844, 0.11295000149402767, 0.14415000259759836, 0.11115000233985484, 0.10934999954770319, 0.10899999688263051, 0.10874999861698598, 0.10939999992842786],
  "Depth": 2.0,
  "Expectation Value": -2.651350975036621,
  "Optimal Expectation Value": -3.5925002098083496,
  "Optimizer durations [ms]": [3.269, 3.024, 3.201, 3.337, 3.119, 3.085, 3.108, 3.127, 3.006, 3.019, 3.115, 3.059, 3.354, 3.107, 3.01, 3.012, 3.034, 3.095, 3.002, 3.093, 3.141, 3.095, 3.097, 3.113, 3.048, 3.157, 3.243, 3.222, 3.126, 3.168, 3.175, 2.995, 3.276, 3.189, 3.192, 3.155, 3.031, 3.525, 3.004, 3.024, 3.014, 3.0, 3.045, 3.051, 2.986, 3.008, 3.017, 3.25, 3.185, 3.059, 3.005, 2.969, 3.045, 3.171, 3.041, 3.014, 3.034, 3.049, 3.088, 3.0, 2.941, 3.142, 3.134, 2.999, 3.008, 2.99, 3.041, 2.962, 3.056, 2.995, 3.211, 3.148, 3.169, 3.111, 3.243, 3.149, 3.265, 3.216, 3.178, 3.912, 3.24, 3.187, 3.736, 3.053, 3.021, 3.031, 2.983, 3.067],
  "Optimizer iterations": 88,
  "Optimizer params": [0.0023158993935433448, 0.4932626108162588, 0.998778185013753, 0.49667870925779367, 0.9919562398534658, 0.9970509263003174],
  "P": 0,
  "Problem": "RH",
  "QJob durations [ms]": [0.10960000145132653, 0.10869999823626131, 0.11659999654511921, 0.11779999840655364, 0.11085000369348563, 0.11080000331276096, 0.11055000140913762, 0.11214999904041179, 0.10895000013988465, 0.10880000263568945, 0.11069999891333282, 0.11040000390494242, 0.11980000272160396, 0.11100000119768083, 0.10824999480973929, 0.10869999823626131, 0.10869999823626131, 0.1100999979826156, 0.10894999650190584, 0.10844999997061677, 0.11140000424347818, 0.10899999688263051, 0.11269999959040433, 0.10915000166278332, 0.11095000081695616, 0.1130499986174982, 0.11740000263671391, 0.11765000090235844, 0.11314999574096873, 0.10884999937843531, 0.11015000200131908, 0.10875000225496478, 0.12185000377940014, 0.1099500004784204, 0.11339999764459208, 0.11045000428566709, 0.10885000301641412, 0.11034999988623895, 0.10789999942062423, 0.10855000073206611, 0.10834999920916744, 0.10584999836282805, 0.10910000128205866, 0.10784999903989956, 0.1082500020856969, 0.10870000187424012, 0.10865000149351545, 0.11965000157942995, 0.11109999832115136, 0.10929999916697852, 0.10869999823626131, 0.1082499984477181, 0.11014999836334027, 0.10869999823626131, 0.10909999764407985, 0.10859999747481197, 0.10820000170497224, 0.10864999785553664, 0.11020000238204375, 0.10855000073206611, 0.10689999908208847, 0.11354999514878727, 0.10879999535973184, 0.10924999514827505, 0.10864999785553664, 0.1085499970940873, 0.1081000009435229, 0.10815000132424757, 0.10949999705189839, 0.10869999823626131, 0.11104999794042669, 0.10769999789772555, 0.10675000157789327, 0.10649999967426993, 0.10784999903989956, 0.10690000272006728, 0.11069999891333282, 0.11254999844823033, 0.10810000458150171, 0.14229999942472205, 0.11189999713678844, 0.11295000149402767, 0.14415000259759836, 0.11115000233985484, 0.10934999954770319, 0.10899999688263051, 0.10874999861698598, 0.10939999992842786],
  "QPU": "7000000",
  "Qubits": 6,
  "Queue durations [ms]": [0.0, 0.0, 0.0, 0.0, 0.0, 0.0, 0.0, 0.0, 0.0, 0.0, 0.0, 0.0, 0.0, 0.0, 0.0, 0.0, 0.0, 0.0, 0.0, 0.0, 0.0, 0.0, 0.0, 0.0, 0.0, 0.0, 0.0, 0.0, 0.0, 0.0, 0.0, 0.0, 0.0, 0.0, 0.0, 0.0, 0.0, 0.0, 0.0, 0.0, 0.0, 0.0, 0.0, 0.0, 0.0, 0.0, 0.0, 0.0, 0.0, 0.0, 0.0, 0.0, 0.0, 0.0, 0.0, 0.0, 0.0, 0.0, 0.0, 0.0, 0.0, 0.0, 0.0, 0.0, 0.0, 0.0, 0.0, 0.0, 0.0, 0.0, 0.0, 0.0, 0.0, 0.0, 0.0, 0.0, 0.0, 0.0, 0.0, 0.0, 0.0, 0.0, 0.0, 0.0, 0.0, 0.0, 0.0, 0.0],
  "Shots": 4096,
  "Size": 6,
  "Total Algorithm duration [s]": 0.274,
  "Total Classic duration [s]": 0.2642335500191839,
  "Total Quantum duration [s]": 0.009766449980816105
}
