{
  "Circuit execution durations [ms]": [0.11959999756072648, 0.11240000094403513, 0.11224999616388232, 0.11074999565607868, 0.11000000449712388, 0.11109999832115136, 0.11420000009820797, 0.11285000073257834, 0.112599998828955, 0.11539999832166359, 0.12989999959245324, 0.11354999878676608, 0.10919999840552919, 0.1055999964592047, 0.10709999696700834, 0.10830000246642157, 0.11079999967478216, 0.10919999840552919, 0.11034999624826014, 0.11044999700970948, 0.11174999963259324, 0.11155000174767338, 0.1100999979826156, 0.11055000504711643, 0.10975000259350054, 0.11244999768678099, 0.11110000195913017, 0.11199999789823778, 0.11084999641752802, 0.11070000255131163, 0.11254999844823033, 0.11015000200131908, 0.11030000314349309, 0.11014999836334027, 0.11045000428566709, 0.11154999810969457, 0.1203500032715965, 0.11509999967529438, 0.11004999760189094, 0.1298000024689827, 0.11050000102841295, 0.11060000178986229, 0.11029999950551428, 0.10879999899771065, 0.10925000242423266, 0.10939999992842786, 0.10924999878625385, 0.1085499970940873, 0.10919999840552919, 0.11089999679825269, 0.1110500015784055, 0.11425000047893263, 0.11424999684095383, 0.11590000212891027, 0.11109999832115136, 0.109200002043508, 0.11060000178986229, 0.11419999646022916, 0.112900001113303, 0.11479999739094637, 0.11099999755970202, 0.11314999574096873, 0.11144999734824523, 0.11185000403202139, 0.12024999887216836, 0.11199999789823778, 0.11789999916800298, 0.10949999705189839, 0.11445000200183131, 0.10939999629044905, 0.10905000090133399, 0.1082499984477181, 0.10884999937843531, 0.11349999840604141, 0.1114999977289699, 0.11185000039404258, 0.1109000004362315, 0.11195000115549192, 0.1404999966325704, 0.1731000011204742, 0.10820000170497224, 0.10870000187424012, 0.11100000119768083, 0.10889999612118118, 0.10679999468266033, 0.10784999903989956, 0.10844999997061677, 0.11355000242474489, 0.11605000327108428, 0.10889999975915998, 0.10984999971697107, 0.11315000301692635, 0.2666000073077157, 0.11180000001331791, 0.11299999823677354, 0.11559999984456226, 0.11359999916749075, 0.11159999485244043, 0.1154000019596424, 0.11185000039404258, 0.1173999989987351, 0.11530000483617187, 0.11399999857530929, 0.11454999912530184, 0.11640000229817815, 0.11694999557221308, 0.11299999823677354, 0.11049999739043415, 0.11164999887114391, 0.11020000238204375, 0.11384999743313529, 0.10960000145132653, 0.1099500004784204, 0.10945000030915253, 0.11060000178986229, 0.11074999929405749, 0.11005000123986974, 0.10885000301641412, 0.11729999823728576, 0.1102499954868108, 0.11425000047893263, 0.11839999933727086, 0.11484999777167104, 0.10874999861698598, 0.10889999975915998, 0.11454999912530184, 0.11235000056331046, 0.11140000060549937, 0.11099999755970202, 0.11135000386275351, 0.12974999845027924, 0.11200000153621659, 0.11135000386275351, 0.11095000445493497, 0.11079999967478216, 0.11100000119768083, 0.11114999870187603, 0.10764999751700088, 0.10900000052060932, 0.11155000174767338, 0.1141499997174833, 0.11069999891333282, 0.11315000301692635, 0.1100999979826156, 0.11720000111381523, 0.11249999806750566, 0.10945000394713134, 0.112900001113303, 0.10984999971697107, 0.12635000166483223, 0.11250000170548446, 0.1112000027205795, 0.11104999794042669, 0.11215000267839059, 0.11335000090184622, 0.11199999789823778, 0.11455000276328065, 0.11515000369399786, 0.11629999789875001, 0.1142999972216785, 0.10889999612118118, 0.10890000339713879, 0.10870000187424012, 0.11760000415961258, 0.11080000331276096, 0.11030000314349309, 0.10975000259350054, 0.11539999468368478, 0.12404999870341271, 0.11115000233985484, 0.11085000005550683, 0.11830000221380033, 0.11364999954821542, 0.11019999874406494, 0.11129999984405003, 0.10999999722116627, 0.11095000445493497, 0.10864999785553664, 0.11004999760189094, 0.1097999956982676, 0.10990000009769574, 0.1082499984477181, 0.11065000217058696, 0.11464999988675117, 0.11215000267839059, 0.11195000115549192, 0.11225000343983993, 0.11129999984405003, 0.11195000115549192, 0.11059999815188348, 0.11699999959091656, 0.1187999987450894, 0.11190000077476725, 0.11139999696752056, 0.11174999963259324, 0.11089999679825269, 0.11059999815188348, 0.11454999912530184, 0.11424999684095383, 0.10999999722116627, 0.10980000297422521, 0.11154999810969457, 0.10970000221277587, 0.10939999992842786, 0.10909999764407985, 0.1081000009435229, 0.11124999946332537, 0.1123000038205646, 0.11405000259401277, 0.11549999908311293, 0.11770000128308311, 0.11349999840604141, 0.11535000157891773, 0.11054999777115881, 0.10984999607899226, 0.11375000030966476, 0.1110500015784055, 0.11375000394764356, 0.11084999641752802, 0.11110000195913017, 0.1099499968404416, 0.11910000102943741, 0.11115000233985484, 0.10929999916697852, 0.10855000073206611, 0.1205000007757917, 0.11499999891384505, 0.11129999984405003, 0.11110000195913017, 0.10885000301641412, 0.11024999912478961, 0.11240000458201393, 0.11034999624826014, 0.11114999870187603, 0.11240000458201393, 0.1111999990826007, 0.13654999929713085, 0.1096499981940724, 0.10930000280495733, 0.11339999764459208, 0.10964999455609359, 0.11635000191745348, 0.1110500015784055, 0.1172500014945399, 0.10919999840552919, 0.11070000255131163, 0.1141499997174833, 0.10895000013988465, 0.11144999734824523, 0.11130000348202884, 0.1144499983638525, 0.11699999959091656, 0.11250000170548446, 0.11295000149402767, 0.11200000153621659, 0.1124500013247598, 0.11195000115549192, 0.11309999899822287, 0.11199999789823778, 0.12030000289087184, 0.11330000052112155, 0.1190999973914586, 0.11675000132527202, 0.11775000166380778, 0.11785000242525712, 0.11205000191694126, 0.112599998828955, 0.11225000343983993],
  "Depth": 2.0,
  "Expectation Value": -3.585597038269043,
  "Optimal Expectation Value": -3.5925002098083496,
  "Optimizer durations [ms]": [4.399, 3.226, 3.094, 3.034, 3.014, 3.041, 4.998, 3.307, 3.179, 3.204, 3.72, 3.372, 3.225, 3.12, 3.152, 3.24, 3.092, 3.104, 3.068, 3.071, 3.135, 3.1, 3.116, 3.102, 3.103, 3.162, 3.076, 3.138, 3.114, 3.095, 3.262, 3.113, 3.079, 3.077, 3.087, 3.512, 3.46, 3.345, 3.24, 3.636, 3.094, 3.122, 3.165, 3.126, 3.177, 3.132, 3.121, 3.134, 3.162, 3.216, 3.219, 3.251, 3.284, 3.217, 3.114, 3.067, 3.093, 3.341, 3.18, 3.184, 3.117, 3.134, 3.144, 3.158, 3.468, 3.35, 3.374, 3.216, 3.25, 3.188, 3.12, 3.097, 3.106, 3.175, 3.147, 3.113, 3.073, 3.158, 3.947, 4.656, 3.179, 3.151, 3.148, 3.148, 3.093, 3.108, 3.129, 3.195, 3.482, 3.224, 3.254, 3.177, 6.253, 4.743, 3.126, 3.209, 3.22, 3.094, 3.316, 3.212, 3.367, 3.251, 3.172, 3.29, 3.246, 3.22, 3.162, 3.065, 3.098, 3.068, 3.191, 3.057, 3.084, 3.084, 3.102, 3.067, 3.059, 3.053, 3.294, 3.157, 3.264, 3.42, 3.333, 3.205, 3.165, 3.289, 3.127, 3.129, 3.127, 3.101, 3.558, 3.156, 3.122, 3.077, 3.205, 4.012, 3.232, 3.135, 3.157, 3.362, 3.461, 3.128, 3.274, 3.136, 3.407, 3.269, 3.15, 3.237, 3.18, 3.44, 3.134, 3.094, 3.196, 3.129, 3.138, 3.157, 3.193, 3.211, 3.259, 3.17, 3.139, 3.139, 3.117, 3.32, 3.145, 3.095, 3.063, 3.199, 3.378, 3.102, 3.084, 3.387, 3.372, 3.175, 3.275, 3.133, 3.179, 3.135, 3.133, 3.241, 3.144, 3.127, 3.258, 3.236, 3.309, 3.11, 3.136, 3.232, 3.117, 3.137, 3.44, 3.347, 3.217, 3.123, 3.135, 3.109, 3.087, 3.194, 3.291, 3.189, 3.15, 3.227, 3.199, 3.101, 3.106, 3.078, 3.152, 3.305, 3.214, 3.243, 3.367, 3.228, 3.248, 3.113, 3.101, 3.306, 3.21, 3.342, 3.088, 3.201, 3.17, 3.327, 3.181, 3.139, 3.127, 3.454, 3.207, 3.109, 3.099, 3.064, 3.107, 3.135, 3.074, 3.13, 3.171, 3.156, 3.69, 3.154, 3.255, 3.357, 3.271, 3.244, 3.105, 3.35, 3.219, 4.346, 3.409, 3.094, 3.259, 3.155, 3.717, 3.427, 3.172, 3.225, 3.278, 3.348, 3.282, 3.143, 3.119, 3.476, 3.181, 3.402, 3.303, 3.254, 3.32, 3.107, 3.117, 3.126],
  "Optimizer iterations": 268,
  "Optimizer params": [0.9845512769871189, 0.4996647701590082, 0.999915152078546, 0.47900787023313635, 0.5032838698756107, 0.9986200151634749],
  "P": 0,
  "Problem": "RH",
  "QJob durations [ms]": [0.11959999756072648, 0.11240000094403513, 0.11224999616388232, 0.11074999565607868, 0.11000000449712388, 0.11109999832115136, 0.11420000009820797, 0.11285000073257834, 0.112599998828955, 0.11539999832166359, 0.12989999959245324, 0.11354999878676608, 0.10919999840552919, 0.1055999964592047, 0.10709999696700834, 0.10830000246642157, 0.11079999967478216, 0.10919999840552919, 0.11034999624826014, 0.11044999700970948, 0.11174999963259324, 0.11155000174767338, 0.1100999979826156, 0.11055000504711643, 0.10975000259350054, 0.11244999768678099, 0.11110000195913017, 0.11199999789823778, 0.11084999641752802, 0.11070000255131163, 0.11254999844823033, 0.11015000200131908, 0.11030000314349309, 0.11014999836334027, 0.11045000428566709, 0.11154999810969457, 0.1203500032715965, 0.11509999967529438, 0.11004999760189094, 0.1298000024689827, 0.11050000102841295, 0.11060000178986229, 0.11029999950551428, 0.10879999899771065, 0.10925000242423266, 0.10939999992842786, 0.10924999878625385, 0.1085499970940873, 0.10919999840552919, 0.11089999679825269, 0.1110500015784055, 0.11425000047893263, 0.11424999684095383, 0.11590000212891027, 0.11109999832115136, 0.109200002043508, 0.11060000178986229, 0.11419999646022916, 0.112900001113303, 0.11479999739094637, 0.11099999755970202, 0.11314999574096873, 0.11144999734824523, 0.11185000403202139, 0.12024999887216836, 0.11199999789823778, 0.11789999916800298, 0.10949999705189839, 0.11445000200183131, 0.10939999629044905, 0.10905000090133399, 0.1082499984477181, 0.10884999937843531, 0.11349999840604141, 0.1114999977289699, 0.11185000039404258, 0.1109000004362315, 0.11195000115549192, 0.1404999966325704, 0.1731000011204742, 0.10820000170497224, 0.10870000187424012, 0.11100000119768083, 0.10889999612118118, 0.10679999468266033, 0.10784999903989956, 0.10844999997061677, 0.11355000242474489, 0.11605000327108428, 0.10889999975915998, 0.10984999971697107, 0.11315000301692635, 0.2666000073077157, 0.11180000001331791, 0.11299999823677354, 0.11559999984456226, 0.11359999916749075, 0.11159999485244043, 0.1154000019596424, 0.11185000039404258, 0.1173999989987351, 0.11530000483617187, 0.11399999857530929, 0.11454999912530184, 0.11640000229817815, 0.11694999557221308, 0.11299999823677354, 0.11049999739043415, 0.11164999887114391, 0.11020000238204375, 0.11384999743313529, 0.10960000145132653, 0.1099500004784204, 0.10945000030915253, 0.11060000178986229, 0.11074999929405749, 0.11005000123986974, 0.10885000301641412, 0.11729999823728576, 0.1102499954868108, 0.11425000047893263, 0.11839999933727086, 0.11484999777167104, 0.10874999861698598, 0.10889999975915998, 0.11454999912530184, 0.11235000056331046, 0.11140000060549937, 0.11099999755970202, 0.11135000386275351, 0.12974999845027924, 0.11200000153621659, 0.11135000386275351, 0.11095000445493497, 0.11079999967478216, 0.11100000119768083, 0.11114999870187603, 0.10764999751700088, 0.10900000052060932, 0.11155000174767338, 0.1141499997174833, 0.11069999891333282, 0.11315000301692635, 0.1100999979826156, 0.11720000111381523, 0.11249999806750566, 0.10945000394713134, 0.112900001113303, 0.10984999971697107, 0.12635000166483223, 0.11250000170548446, 0.1112000027205795, 0.11104999794042669, 0.11215000267839059, 0.11335000090184622, 0.11199999789823778, 0.11455000276328065, 0.11515000369399786, 0.11629999789875001, 0.1142999972216785, 0.10889999612118118, 0.10890000339713879, 0.10870000187424012, 0.11760000415961258, 0.11080000331276096, 0.11030000314349309, 0.10975000259350054, 0.11539999468368478, 0.12404999870341271, 0.11115000233985484, 0.11085000005550683, 0.11830000221380033, 0.11364999954821542, 0.11019999874406494, 0.11129999984405003, 0.10999999722116627, 0.11095000445493497, 0.10864999785553664, 0.11004999760189094, 0.1097999956982676, 0.10990000009769574, 0.1082499984477181, 0.11065000217058696, 0.11464999988675117, 0.11215000267839059, 0.11195000115549192, 0.11225000343983993, 0.11129999984405003, 0.11195000115549192, 0.11059999815188348, 0.11699999959091656, 0.1187999987450894, 0.11190000077476725, 0.11139999696752056, 0.11174999963259324, 0.11089999679825269, 0.11059999815188348, 0.11454999912530184, 0.11424999684095383, 0.10999999722116627, 0.10980000297422521, 0.11154999810969457, 0.10970000221277587, 0.10939999992842786, 0.10909999764407985, 0.1081000009435229, 0.11124999946332537, 0.1123000038205646, 0.11405000259401277, 0.11549999908311293, 0.11770000128308311, 0.11349999840604141, 0.11535000157891773, 0.11054999777115881, 0.10984999607899226, 0.11375000030966476, 0.1110500015784055, 0.11375000394764356, 0.11084999641752802, 0.11110000195913017, 0.1099499968404416, 0.11910000102943741, 0.11115000233985484, 0.10929999916697852, 0.10855000073206611, 0.1205000007757917, 0.11499999891384505, 0.11129999984405003, 0.11110000195913017, 0.10885000301641412, 0.11024999912478961, 0.11240000458201393, 0.11034999624826014, 0.11114999870187603, 0.11240000458201393, 0.1111999990826007, 0.13654999929713085, 0.1096499981940724, 0.10930000280495733, 0.11339999764459208, 0.10964999455609359, 0.11635000191745348, 0.1110500015784055, 0.1172500014945399, 0.10919999840552919, 0.11070000255131163, 0.1141499997174833, 0.10895000013988465, 0.11144999734824523, 0.11130000348202884, 0.1144499983638525, 0.11699999959091656, 0.11250000170548446, 0.11295000149402767, 0.11200000153621659, 0.1124500013247598, 0.11195000115549192, 0.11309999899822287, 0.11199999789823778, 0.12030000289087184, 0.11330000052112155, 0.1190999973914586, 0.11675000132527202, 0.11775000166380778, 0.11785000242525712, 0.11205000191694126, 0.112599998828955, 0.11225000343983993],
  "QPU": "7000000",
  "Qubits": 6,
  "Queue durations [ms]": [0.0, 0.0, 0.0, 0.0, 0.0, 0.0, 0.0, 0.0, 0.0, 0.0, 0.0, 0.0, 0.0, 0.0, 0.0, 0.0, 0.0, 0.0, 0.0, 0.0, 0.0, 0.0, 0.0, 0.0, 0.0, 0.0, 0.0, 0.0, 0.0, 0.0, 0.0, 0.0, 0.0, 0.0, 0.0, 0.0, 0.0, 0.0, 0.0, 0.0, 0.0, 0.0, 0.0, 0.0, 0.0, 0.0, 0.0, 0.0, 0.0, 0.0, 0.0, 0.0, 0.0, 0.0, 0.0, 0.0, 0.0, 0.0, 0.0, 0.0, 0.0, 0.0, 0.0, 0.0, 0.0, 0.0, 0.0, 0.0, 0.0, 0.0, 0.0, 0.0, 0.0, 0.0, 0.0, 0.0, 0.0, 0.0, 0.0, 0.0, 0.0, 0.0, 0.0, 0.0, 0.0, 0.0, 0.0, 0.0, 0.0, 0.0, 0.0, 0.0, 0.0, 0.0, 0.0, 0.0, 0.0, 0.0, 0.0, 0.0, 0.0, 0.0, 0.0, 0.0, 0.0, 0.0, 0.0, 0.0, 0.0, 0.0, 0.0, 0.0, 0.0, 0.0, 0.0, 0.0, 0.0, 0.0, 0.0, 0.0, 0.0, 0.0, 0.0, 0.0, 0.0, 0.0, 0.0, 0.0, 0.0, 0.0, 0.0, 0.0, 0.0, 0.0, 0.0, 0.0, 0.0, 0.0, 0.0, 0.0, 0.0, 0.0, 0.0, 0.0, 0.0, 0.0, 0.0, 0.0, 0.0, 0.0, 0.0, 0.0, 0.0, 0.0, 0.0, 0.0, 0.0, 0.0, 0.0, 0.0, 0.0, 0.0, 0.0, 0.0, 0.0, 0.0, 0.0, 0.0, 0.0, 0.0, 0.0, 0.0, 0.0, 0.0, 0.0, 0.0, 0.0, 0.0, 0.0, 0.0, 0.0, 0.0, 0.0, 0.0, 0.0, 0.0, 0.0, 0.0, 0.0, 0.0, 0.0, 0.0, 0.0, 0.0, 0.0, 0.0, 0.0, 0.0, 0.0, 0.0, 0.0, 0.0, 0.0, 0.0, 0.0, 0.0, 0.0, 0.0, 0.0, 0.0, 0.0, 0.0, 0.0, 0.0, 0.0, 0.0, 0.0, 0.0, 0.0, 0.0, 0.0, 0.0, 0.0, 0.0, 0.0, 0.0, 0.0, 0.0, 0.0, 0.0, 0.0, 0.0, 0.0, 0.0, 0.0, 0.0, 0.0, 0.0, 0.0, 0.0, 0.0, 0.0, 0.0, 0.0, 0.0, 0.0, 0.0, 0.0, 0.0, 0.0, 0.0, 0.0, 0.0, 0.0, 0.0, 0.0, 0.0, 0.0, 0.0, 0.0, 0.0, 0.0, 0.0, 0.0, 0.0, 0.0, 0.0, 0.0],
  "Shots": 4096,
  "Size": 6,
  "Total Algorithm duration [s]": 0.869,
  "Total Classic duration [s]": 0.8386322500058159,
  "Total Quantum duration [s]": 0.030367749994184123
}
