{
  "Circuit execution durations [ms]": [1.1942000000000002, 1.2113, 1.1774, 1.1839000000000002, 1.206, 1.1814, 1.1895, 1.2011, 1.1943, 1.2198, 1.1897, 1.2095, 1.2032, 1.158, 1.1891, 1.1892999999999998, 1.4673, 1.2133, 1.211, 1.1623, 1.1718, 1.1800000000000002, 1.1976, 1.2691, 1.1913, 1.217, 1.1099, 1.194, 1.2057, 1.1965000000000001, 1.1888999999999998, 1.2094, 1.1824, 1.1923000000000001, 1.1927999999999999, 1.1932, 1.1815, 1.2921, 1.2933000000000001, 1.2011999999999998, 1.1892999999999998, 1.1994, 1.1858000000000002, 1.2026999999999999, 1.1845, 1.1853, 1.2232, 1.1892, 1.1915, 1.202, 1.1857, 1.1769, 1.1872, 1.184, 1.2066, 1.2117, 1.1814, 1.1914, 1.1832, 1.1988999999999999, 1.2015, 1.1933, 1.1942000000000002, 1.2168999999999999, 1.2179, 1.2064000000000001, 1.1878, 1.2029, 1.1974, 1.2213, 1.188, 1.2067, 1.1969999999999998, 1.2019000000000002, 1.2239, 1.1854, 1.2098, 1.1797000000000002, 1.1954, 1.1824, 1.1728, 1.1857, 1.1657, 1.1981, 1.2366],
  "Depth": 167.0,
  "Expectation Value": -1.5381604433059692,
  "Optimal Expectation Value": -3.0,
  "Optimizer durations [ms]": [12.269, 12.779, 12.582, 12.331, 12.601, 12.087, 12.553, 12.331, 12.479, 12.645, 12.357, 12.405, 12.61, 12.133, 12.437, 12.431, 15.079, 12.566, 12.545, 15.398, 12.28, 12.541, 12.628, 12.946, 12.713, 12.451, 21.278, 12.563, 12.599, 12.308, 12.447, 12.767, 16.879, 12.478, 12.569, 12.359, 12.533, 17.928, 18.37, 12.45, 14.765, 12.562, 12.475, 12.513, 12.395, 12.232, 12.844, 12.343, 12.285, 12.333, 12.724, 12.223, 12.412, 12.238, 12.445, 12.71, 12.272, 12.553, 12.214, 12.619, 12.388, 12.615, 12.24, 12.825, 12.429, 12.559, 12.457, 12.535, 12.543, 12.674, 12.346, 12.557, 12.5, 12.661, 12.788, 12.225, 12.378, 12.696, 12.348, 12.496, 11.93, 12.392, 12.393, 12.349, 12.873],
  "Optimizer iterations": 85,
  "Optimizer params": [0.7877468866032976, 0.35505200821932664, 0.9903458025292694, 0.052944979282841594, 0.6847972505150938, 0.2930357601403401],
  "P": 3,
  "Problem": "DSP",
  "QJob durations [ms]": [1.1942000000000002, 1.2113, 1.1774, 1.1839000000000002, 1.206, 1.1814, 1.1895, 1.2011, 1.1943, 1.2198, 1.1897, 1.2095, 1.2032, 1.158, 1.1891, 1.1892999999999998, 1.4673, 1.2133, 1.211, 1.1623, 1.1718, 1.1800000000000002, 1.1976, 1.2691, 1.1913, 1.217, 1.1099, 1.194, 1.2057, 1.1965000000000001, 1.1888999999999998, 1.2094, 1.1824, 1.1923000000000001, 1.1927999999999999, 1.1932, 1.1815, 1.2921, 1.2933000000000001, 1.2011999999999998, 1.1892999999999998, 1.1994, 1.1858000000000002, 1.2026999999999999, 1.1845, 1.1853, 1.2232, 1.1892, 1.1915, 1.202, 1.1857, 1.1769, 1.1872, 1.184, 1.2066, 1.2117, 1.1814, 1.1914, 1.1832, 1.1988999999999999, 1.2015, 1.1933, 1.1942000000000002, 1.2168999999999999, 1.2179, 1.2064000000000001, 1.1878, 1.2029, 1.1974, 1.2213, 1.188, 1.2067, 1.1969999999999998, 1.2019000000000002, 1.2239, 1.1854, 1.2098, 1.1797000000000002, 1.1954, 1.1824, 1.1728, 1.1857, 1.1657, 1.1981, 1.2366],
  "QPU": "7000000",
  "Qubits": 7,
  "Queue durations [ms]": [0.0, 0.0, 0.0, 0.0, 0.0, 0.0, 0.0, 0.0, 0.0, 0.0, 0.0, 0.0, 0.0, 0.0, 0.0, 0.0, 0.0, 0.0, 0.0, 0.0, 0.0, 0.0, 0.0, 0.0, 0.0, 0.0, 0.0, 0.0, 0.0, 0.0, 0.0, 0.0, 0.0, 0.0, 0.0, 0.0, 0.0, 0.0, 0.0, 0.0, 0.0, 0.0, 0.0, 0.0, 0.0, 0.0, 0.0, 0.0, 0.0, 0.0, 0.0, 0.0, 0.0, 0.0, 0.0, 0.0, 0.0, 0.0, 0.0, 0.0, 0.0, 0.0, 0.0, 0.0, 0.0, 0.0, 0.0, 0.0, 0.0, 0.0, 0.0, 0.0, 0.0, 0.0, 0.0, 0.0, 0.0, 0.0, 0.0, 0.0, 0.0, 0.0, 0.0, 0.0, 0.0],
  "Shots": 4096,
  "Size": 4,
  "Total Algorithm duration [s]": 1.093,
  "Total Classic duration [s]": 0.9909598000000001,
  "Total Quantum duration [s]": 0.10204019999999994
}
