{
  "Circuit execution durations [ms]": [1.252, 1.185, 1.1772, 1.1939, 1.2130999999999998, 1.1965999999999999, 1.1975, 1.1879, 1.2072999999999998, 1.1808, 1.1779, 1.1819, 1.1737, 1.1842000000000001, 1.1720000000000002, 1.1922, 1.1688, 1.2207999999999999, 1.2261, 1.1969999999999998, 1.5159, 0.9634, 1.4633, 1.1778, 1.1939, 1.1946, 1.1884000000000001, 1.1820000000000002, 1.2155, 1.1997, 1.1946, 1.2157, 1.2611, 1.1822, 1.2011999999999998, 1.2, 1.2125000000000001, 1.1846, 1.1877, 1.2045000000000001, 1.2348999999999999, 1.1923000000000001, 1.2365, 1.1964000000000001, 1.2112, 1.1769, 1.1865999999999999, 1.1915, 1.1846999999999999, 1.2052, 1.2228, 1.1861000000000002, 1.1735, 1.1844, 1.175, 1.1901, 1.2091999999999998, 1.1923000000000001, 1.1885000000000001, 1.1807, 1.1854, 1.2057, 1.1819, 1.1929, 1.1824, 1.2641, 1.1953, 1.1892, 1.1948, 1.206, 1.2572, 1.1926, 1.2241000000000002, 1.212, 1.177, 1.1935, 1.2055, 1.2001, 1.1839000000000002, 1.1959, 1.1845, 1.2243, 1.2017, 1.2032, 1.1865, 1.1965000000000001, 1.1993, 1.1827, 1.1852, 1.1875, 1.1762000000000001, 1.1918, 1.2018, 1.1878, 1.206, 1.1779, 1.1945000000000001, 1.1775, 1.1858000000000002, 1.1772, 1.4077, 1.1952, 1.1731999999999998, 1.2113, 1.1875, 1.1891, 1.2044, 1.4429, 1.279, 1.1822, 1.1035000000000001, 1.2101, 1.1931, 1.1708, 1.1833, 1.1852, 1.1096000000000001, 1.1756, 1.1908999999999998, 1.1824, 1.2298, 1.2511, 1.4211],
  "Depth": 167.0,
  "Expectation Value": -1.6880195140838623,
  "Optimal Expectation Value": -3.0,
  "Optimizer durations [ms]": [13.079, 12.219, 12.363, 12.634, 12.762, 12.339, 12.633, 12.462, 12.476, 12.232, 12.42, 12.057, 12.433, 12.263, 12.283, 12.317, 12.358, 12.388, 12.579, 12.562, 15.553, 14.938, 17.925, 12.461, 12.481, 12.505, 12.318, 12.182, 12.875, 12.417, 12.606, 12.318, 13.312, 12.228, 12.36, 12.742, 12.459, 12.468, 12.614, 12.232, 12.933, 12.121, 12.939, 12.672, 12.394, 12.47, 12.344, 12.448, 12.469, 12.437, 12.838, 12.152, 12.347, 12.361, 12.275, 12.608, 12.447, 12.645, 12.32, 12.321, 12.377, 12.383, 12.529, 12.241, 12.278, 13.261, 12.46, 12.439, 12.469, 12.413, 13.181, 12.26, 12.812, 12.647, 12.156, 12.33, 12.637, 12.375, 12.49, 12.594, 12.57, 12.446, 12.643, 12.753, 12.408, 12.366, 12.573, 12.314, 12.058, 12.428, 12.475, 12.426, 12.344, 12.246, 12.751, 12.019, 12.657, 12.319, 12.277, 12.22, 14.663, 12.478, 12.176, 15.311, 12.227, 12.656, 12.264, 15.115, 13.309, 12.34, 18.171, 12.485, 12.643, 12.221, 12.294, 12.221, 21.367, 12.085, 12.683, 12.169, 12.767, 22.586, 17.909],
  "Optimizer iterations": 123,
  "Optimizer params": [0.9980000963734141, 0.021960879687599136, 0.5012784366953368, 0.8038708672410124, 0.5933355950606402, 0.7881073572216242],
  "P": 3,
  "Problem": "DSP",
  "QJob durations [ms]": [1.252, 1.185, 1.1772, 1.1939, 1.2130999999999998, 1.1965999999999999, 1.1975, 1.1879, 1.2072999999999998, 1.1808, 1.1779, 1.1819, 1.1737, 1.1842000000000001, 1.1720000000000002, 1.1922, 1.1688, 1.2207999999999999, 1.2261, 1.1969999999999998, 1.5159, 0.9634, 1.4633, 1.1778, 1.1939, 1.1946, 1.1884000000000001, 1.1820000000000002, 1.2155, 1.1997, 1.1946, 1.2157, 1.2611, 1.1822, 1.2011999999999998, 1.2, 1.2125000000000001, 1.1846, 1.1877, 1.2045000000000001, 1.2348999999999999, 1.1923000000000001, 1.2365, 1.1964000000000001, 1.2112, 1.1769, 1.1865999999999999, 1.1915, 1.1846999999999999, 1.2052, 1.2228, 1.1861000000000002, 1.1735, 1.1844, 1.175, 1.1901, 1.2091999999999998, 1.1923000000000001, 1.1885000000000001, 1.1807, 1.1854, 1.2057, 1.1819, 1.1929, 1.1824, 1.2641, 1.1953, 1.1892, 1.1948, 1.206, 1.2572, 1.1926, 1.2241000000000002, 1.212, 1.177, 1.1935, 1.2055, 1.2001, 1.1839000000000002, 1.1959, 1.1845, 1.2243, 1.2017, 1.2032, 1.1865, 1.1965000000000001, 1.1993, 1.1827, 1.1852, 1.1875, 1.1762000000000001, 1.1918, 1.2018, 1.1878, 1.206, 1.1779, 1.1945000000000001, 1.1775, 1.1858000000000002, 1.1772, 1.4077, 1.1952, 1.1731999999999998, 1.2113, 1.1875, 1.1891, 1.2044, 1.4429, 1.279, 1.1822, 1.1035000000000001, 1.2101, 1.1931, 1.1708, 1.1833, 1.1852, 1.1096000000000001, 1.1756, 1.1908999999999998, 1.1824, 1.2298, 1.2511, 1.4211],
  "QPU": "7000000",
  "Qubits": 7,
  "Queue durations [ms]": [0.0, 0.0, 0.0, 0.0, 0.0, 0.0, 0.0, 0.0, 0.0, 0.0, 0.0, 0.0, 0.0, 0.0, 0.0, 0.0, 0.0, 0.0, 0.0, 0.0, 0.0, 0.0, 0.0, 0.0, 0.0, 0.0, 0.0, 0.0, 0.0, 0.0, 0.0, 0.0, 0.0, 0.0, 0.0, 0.0, 0.0, 0.0, 0.0, 0.0, 0.0, 0.0, 0.0, 0.0, 0.0, 0.0, 0.0, 0.0, 0.0, 0.0, 0.0, 0.0, 0.0, 0.0, 0.0, 0.0, 0.0, 0.0, 0.0, 0.0, 0.0, 0.0, 0.0, 0.0, 0.0, 0.0, 0.0, 0.0, 0.0, 0.0, 0.0, 0.0, 0.0, 0.0, 0.0, 0.0, 0.0, 0.0, 0.0, 0.0, 0.0, 0.0, 0.0, 0.0, 0.0, 0.0, 0.0, 0.0, 0.0, 0.0, 0.0, 0.0, 0.0, 0.0, 0.0, 0.0, 0.0, 0.0, 0.0, 0.0, 0.0, 0.0, 0.0, 0.0, 0.0, 0.0, 0.0, 0.0, 0.0, 0.0, 0.0, 0.0, 0.0, 0.0, 0.0, 0.0, 0.0, 0.0, 0.0, 0.0, 0.0, 0.0, 0.0],
  "Shots": 4096,
  "Size": 4,
  "Total Algorithm duration [s]": 1.582,
  "Total Classic duration [s]": 1.4339103,
  "Total Quantum duration [s]": 0.14808970000000002
}
