{
  "Circuit execution durations [ms]": [1.2285, 1.2435, 1.2026999999999999, 1.4273, 1.2233999999999998, 1.1916, 1.2084000000000001, 1.1829, 1.1766999999999999, 1.1915, 1.1813, 1.1845, 1.1899, 1.1915, 1.184, 1.2206000000000001, 1.1979, 1.1862000000000001, 1.2079, 1.194, 1.2015, 1.1776, 1.1921, 1.1812, 1.1856, 1.2237, 1.1766999999999999, 1.203, 1.1865999999999999, 1.1797000000000002, 1.1882, 1.1943, 1.1858000000000002, 1.1946999999999999, 1.1926, 1.2142, 1.1788, 1.1908, 1.185, 1.2007, 1.2033, 1.2082, 1.2061000000000002, 1.1742000000000001, 1.17, 1.1742000000000001, 1.2165, 1.1820000000000002, 1.1873, 1.1866999999999999, 1.1844, 1.1705, 1.1918, 1.1766, 1.1796, 1.2146, 1.2044, 1.1808999999999998, 1.1853, 1.186, 1.196, 1.1718, 1.2763, 1.2045000000000001, 1.1927, 1.2033, 1.194, 1.1993, 1.2025, 1.1771, 1.1785, 1.2263, 1.1659000000000002, 1.1827999999999999, 1.1935, 1.2124, 1.2568, 1.2123, 1.1817, 1.1621, 1.1939, 1.3822999999999999, 1.2917, 1.1884000000000001, 1.1865, 1.2011, 1.1915, 1.1984000000000001, 1.4516, 1.2673999999999999, 1.2547000000000001, 1.0795, 1.287, 1.2727000000000002, 1.2081, 1.1961000000000002, 1.2763, 1.1964000000000001, 1.201, 1.4446999999999999, 1.3281, 1.3417, 1.2114999999999998, 1.4416, 1.1881000000000002, 1.1856, 1.2001, 1.1884000000000001, 1.2139, 1.1703, 1.1821, 1.1953, 1.2009, 1.2207999999999999, 1.2017, 1.1958, 1.1915, 1.1719, 1.1987, 1.204, 1.1988999999999999, 1.2248, 1.2062, 1.2005, 1.1991, 1.1670999999999998, 1.1849, 1.1936, 1.1937, 1.2026000000000001, 1.1836, 1.1788, 1.231, 1.1924, 1.2191999999999998, 1.2088999999999999, 1.1975, 1.1841, 1.1816000000000002, 1.2059, 1.1827999999999999, 1.2106000000000001, 1.1903000000000001, 1.2037, 1.1800000000000002, 1.2058, 1.2013, 1.1923000000000001, 1.1957, 1.1905999999999999, 1.188, 1.1759, 1.2007999999999999, 1.2018, 1.1785999999999999, 1.2403, 1.1945000000000001, 1.2241000000000002, 1.4569999999999999, 1.2144, 1.4077, 1.2410999999999999, 1.1999],
  "Depth": 167.0,
  "Expectation Value": -1.6135029792785645,
  "Optimal Expectation Value": -3.0,
  "Optimizer durations [ms]": [12.694, 13.013, 22.229, 18.352, 12.796, 12.504, 12.627, 12.286, 12.319, 12.164, 12.361, 12.727, 12.078, 13.1, 12.28, 12.46, 12.679, 12.255, 12.562, 12.361, 12.467, 12.467, 12.379, 12.468, 12.353, 12.78, 12.316, 12.415, 12.443, 12.248, 12.435, 12.493, 12.237, 12.482, 12.399, 12.62, 12.302, 12.427, 12.289, 12.455, 12.654, 12.54, 12.604, 12.345, 12.118, 12.068, 12.693, 12.284, 12.524, 12.342, 12.059, 12.217, 12.574, 12.206, 12.334, 12.828, 12.703, 12.276, 12.248, 12.526, 12.415, 12.298, 13.284, 12.431, 12.514, 12.481, 12.481, 12.425, 12.593, 12.211, 12.331, 12.658, 12.331, 12.231, 12.412, 12.681, 13.023, 12.73, 12.071, 12.268, 12.567, 14.348, 13.369, 12.378, 16.406, 12.486, 12.446, 12.531, 15.119, 13.2, 12.967, 19.002, 13.223, 13.052, 12.852, 12.55, 18.164, 12.392, 12.425, 15.129, 13.787, 13.644, 22.04, 16.661, 16.019, 12.346, 12.321, 12.415, 12.617, 12.322, 12.259, 12.514, 12.467, 12.649, 12.531, 12.5, 12.241, 12.398, 12.55, 12.582, 12.23, 12.741, 12.675, 12.487, 12.501, 12.218, 12.449, 12.094, 12.458, 12.775, 12.153, 12.565, 12.693, 12.433, 12.682, 12.667, 12.57, 12.195, 12.301, 12.41, 12.694, 12.508, 12.223, 12.737, 11.978, 12.718, 12.416, 12.708, 12.527, 12.08, 12.392, 12.415, 12.396, 12.735, 12.258, 12.952, 12.211, 12.815, 14.836, 22.317, 15.208, 13.256, 12.306],
  "Optimizer iterations": 163,
  "Optimizer params": [0.6579662532115264, 0.7531731039731101, 0.5413670032798602, 0.4638092846398543, 0.8471169586192906, 0.6350985485222383],
  "P": 3,
  "Problem": "DSP",
  "QJob durations [ms]": [1.2285, 1.2435, 1.2026999999999999, 1.4273, 1.2233999999999998, 1.1916, 1.2084000000000001, 1.1829, 1.1766999999999999, 1.1915, 1.1813, 1.1845, 1.1899, 1.1915, 1.184, 1.2206000000000001, 1.1979, 1.1862000000000001, 1.2079, 1.194, 1.2015, 1.1776, 1.1921, 1.1812, 1.1856, 1.2237, 1.1766999999999999, 1.203, 1.1865999999999999, 1.1797000000000002, 1.1882, 1.1943, 1.1858000000000002, 1.1946999999999999, 1.1926, 1.2142, 1.1788, 1.1908, 1.185, 1.2007, 1.2033, 1.2082, 1.2061000000000002, 1.1742000000000001, 1.17, 1.1742000000000001, 1.2165, 1.1820000000000002, 1.1873, 1.1866999999999999, 1.1844, 1.1705, 1.1918, 1.1766, 1.1796, 1.2146, 1.2044, 1.1808999999999998, 1.1853, 1.186, 1.196, 1.1718, 1.2763, 1.2045000000000001, 1.1927, 1.2033, 1.194, 1.1993, 1.2025, 1.1771, 1.1785, 1.2263, 1.1659000000000002, 1.1827999999999999, 1.1935, 1.2124, 1.2568, 1.2123, 1.1817, 1.1621, 1.1939, 1.3822999999999999, 1.2917, 1.1884000000000001, 1.1865, 1.2011, 1.1915, 1.1984000000000001, 1.4516, 1.2673999999999999, 1.2547000000000001, 1.0795, 1.287, 1.2727000000000002, 1.2081, 1.1961000000000002, 1.2763, 1.1964000000000001, 1.201, 1.4446999999999999, 1.3281, 1.3417, 1.2114999999999998, 1.4416, 1.1881000000000002, 1.1856, 1.2001, 1.1884000000000001, 1.2139, 1.1703, 1.1821, 1.1953, 1.2009, 1.2207999999999999, 1.2017, 1.1958, 1.1915, 1.1719, 1.1987, 1.204, 1.1988999999999999, 1.2248, 1.2062, 1.2005, 1.1991, 1.1670999999999998, 1.1849, 1.1936, 1.1937, 1.2026000000000001, 1.1836, 1.1788, 1.231, 1.1924, 1.2191999999999998, 1.2088999999999999, 1.1975, 1.1841, 1.1816000000000002, 1.2059, 1.1827999999999999, 1.2106000000000001, 1.1903000000000001, 1.2037, 1.1800000000000002, 1.2058, 1.2013, 1.1923000000000001, 1.1957, 1.1905999999999999, 1.188, 1.1759, 1.2007999999999999, 1.2018, 1.1785999999999999, 1.2403, 1.1945000000000001, 1.2241000000000002, 1.4569999999999999, 1.2144, 1.4077, 1.2410999999999999, 1.1999],
  "QPU": "7000000",
  "Qubits": 7,
  "Queue durations [ms]": [0.0, 0.0, 0.0, 0.0, 0.0, 0.0, 0.0, 0.0, 0.0, 0.0, 0.0, 0.0, 0.0, 0.0, 0.0, 0.0, 0.0, 0.0, 0.0, 0.0, 0.0, 0.0, 0.0, 0.0, 0.0, 0.0, 0.0, 0.0, 0.0, 0.0, 0.0, 0.0, 0.0, 0.0, 0.0, 0.0, 0.0, 0.0, 0.0, 0.0, 0.0, 0.0, 0.0, 0.0, 0.0, 0.0, 0.0, 0.0, 0.0, 0.0, 0.0, 0.0, 0.0, 0.0, 0.0, 0.0, 0.0, 0.0, 0.0, 0.0, 0.0, 0.0, 0.0, 0.0, 0.0, 0.0, 0.0, 0.0, 0.0, 0.0, 0.0, 0.0, 0.0, 0.0, 0.0, 0.0, 0.0, 0.0, 0.0, 0.0, 0.0, 0.0, 0.0, 0.0, 0.0, 0.0, 0.0, 0.0, 0.0, 0.0, 0.0, 0.0, 0.0, 0.0, 0.0, 0.0, 0.0, 0.0, 0.0, 0.0, 0.0, 0.0, 0.0, 0.0, 0.0, 0.0, 0.0, 0.0, 0.0, 0.0, 0.0, 0.0, 0.0, 0.0, 0.0, 0.0, 0.0, 0.0, 0.0, 0.0, 0.0, 0.0, 0.0, 0.0, 0.0, 0.0, 0.0, 0.0, 0.0, 0.0, 0.0, 0.0, 0.0, 0.0, 0.0, 0.0, 0.0, 0.0, 0.0, 0.0, 0.0, 0.0, 0.0, 0.0, 0.0, 0.0, 0.0, 0.0, 0.0, 0.0, 0.0, 0.0, 0.0, 0.0, 0.0, 0.0, 0.0, 0.0, 0.0, 0.0, 0.0, 0.0, 0.0],
  "Shots": 4096,
  "Size": 4,
  "Total Algorithm duration [s]": 2.109,
  "Total Classic duration [s]": 1.9117476000000002,
  "Total Quantum duration [s]": 0.19725239999999986
}
