{
  "Circuit execution durations [ms]": [1.1973, 1.1997, 1.1717, 1.1658, 1.1875, 1.1784000000000001, 1.1852, 1.1913, 1.1791, 1.2106000000000001, 1.199, 1.1853, 1.165, 1.1876, 1.2093, 1.1769, 1.1866999999999999, 1.1892999999999998, 1.1692, 1.1876, 1.2141000000000002, 1.1839000000000002, 1.2124, 1.2017, 1.186, 1.2505000000000002, 1.1892999999999998, 1.3779000000000001, 1.1969999999999998, 1.176, 1.1865, 1.1885999999999999, 1.2147, 1.1948, 1.2095, 1.2021, 1.1829, 1.2339, 1.1846999999999999, 1.2037, 1.1714, 1.1873, 1.1885000000000001, 1.1833, 1.1952, 1.1899, 1.1879, 1.1728999999999998, 1.1859, 1.2162, 1.1832, 1.1887, 1.1763, 1.1857, 1.1835, 1.2105, 1.1735, 1.1829, 1.2543, 1.1942000000000002, 1.1935, 1.1872, 1.1855, 1.175, 1.1837, 1.1927999999999999, 1.1949, 1.1882, 1.1762000000000001, 1.2355999999999998, 1.1861000000000002, 1.1836, 1.1863, 1.1863, 1.2055, 1.2315, 1.1879, 1.1903000000000001, 1.1861000000000002, 1.1924, 1.2067, 1.1829, 1.1747999999999998, 1.1983, 1.2132, 1.1694, 1.2283000000000002, 1.1802, 1.1897, 1.2082, 1.201, 1.1882, 1.1926, 1.196, 1.1994, 1.2448, 1.2099, 1.2068999999999999, 1.1761, 1.192, 1.1854, 1.1798, 1.1965000000000001, 1.1944, 1.2064000000000001, 1.3812, 1.1824999999999999, 1.2088999999999999, 1.1692, 1.1837, 1.1800000000000002, 1.1836, 1.1826, 1.185],
  "Depth": 167.0,
  "Expectation Value": -1.5059975385665894,
  "Optimal Expectation Value": -3.0,
  "Optimizer durations [ms]": [12.557, 12.257, 12.612, 11.984, 12.435, 12.368, 12.323, 12.552, 12.14, 12.778, 12.492, 12.162, 12.427, 12.178, 12.689, 12.122, 12.364, 12.274, 13.425, 12.3, 12.73, 12.106, 12.94, 12.563, 12.35, 13.062, 21.741, 17.77, 12.477, 12.27, 12.287, 12.291, 12.6, 12.639, 12.612, 12.334, 12.36, 12.989, 12.418, 12.409, 12.328, 12.441, 12.347, 12.368, 12.365, 12.436, 12.455, 12.114, 12.507, 12.464, 12.417, 12.384, 12.346, 12.344, 12.194, 12.649, 12.578, 12.218, 13.112, 12.381, 12.238, 12.618, 12.137, 12.515, 12.245, 12.49, 12.331, 12.417, 12.17, 12.766, 12.307, 12.478, 12.292, 12.356, 12.486, 12.927, 12.414, 12.509, 12.562, 12.694, 12.681, 12.463, 12.174, 12.321, 12.601, 12.304, 12.662, 12.507, 12.069, 12.678, 12.497, 12.428, 12.599, 12.542, 12.599, 12.902, 12.607, 12.513, 12.129, 12.595, 12.482, 12.012, 12.771, 12.524, 12.42, 14.227, 12.428, 12.626, 14.967, 12.477, 12.713, 12.222, 12.383, 12.169],
  "Optimizer iterations": 114,
  "Optimizer params": [0.8289794477493126, 0.2414741005950091, 0.8960818868552436, 0.4371323165903634, 0.7575235947032802, 0.8309799029597308],
  "P": 3,
  "Problem": "DSP",
  "QJob durations [ms]": [1.1973, 1.1997, 1.1717, 1.1658, 1.1875, 1.1784000000000001, 1.1852, 1.1913, 1.1791, 1.2106000000000001, 1.199, 1.1853, 1.165, 1.1876, 1.2093, 1.1769, 1.1866999999999999, 1.1892999999999998, 1.1692, 1.1876, 1.2141000000000002, 1.1839000000000002, 1.2124, 1.2017, 1.186, 1.2505000000000002, 1.1892999999999998, 1.3779000000000001, 1.1969999999999998, 1.176, 1.1865, 1.1885999999999999, 1.2147, 1.1948, 1.2095, 1.2021, 1.1829, 1.2339, 1.1846999999999999, 1.2037, 1.1714, 1.1873, 1.1885000000000001, 1.1833, 1.1952, 1.1899, 1.1879, 1.1728999999999998, 1.1859, 1.2162, 1.1832, 1.1887, 1.1763, 1.1857, 1.1835, 1.2105, 1.1735, 1.1829, 1.2543, 1.1942000000000002, 1.1935, 1.1872, 1.1855, 1.175, 1.1837, 1.1927999999999999, 1.1949, 1.1882, 1.1762000000000001, 1.2355999999999998, 1.1861000000000002, 1.1836, 1.1863, 1.1863, 1.2055, 1.2315, 1.1879, 1.1903000000000001, 1.1861000000000002, 1.1924, 1.2067, 1.1829, 1.1747999999999998, 1.1983, 1.2132, 1.1694, 1.2283000000000002, 1.1802, 1.1897, 1.2082, 1.201, 1.1882, 1.1926, 1.196, 1.1994, 1.2448, 1.2099, 1.2068999999999999, 1.1761, 1.192, 1.1854, 1.1798, 1.1965000000000001, 1.1944, 1.2064000000000001, 1.3812, 1.1824999999999999, 1.2088999999999999, 1.1692, 1.1837, 1.1800000000000002, 1.1836, 1.1826, 1.185],
  "QPU": "7000000",
  "Qubits": 7,
  "Queue durations [ms]": [0.0, 0.0, 0.0, 0.0, 0.0, 0.0, 0.0, 0.0, 0.0, 0.0, 0.0, 0.0, 0.0, 0.0, 0.0, 0.0, 0.0, 0.0, 0.0, 0.0, 0.0, 0.0, 0.0, 0.0, 0.0, 0.0, 0.0, 0.0, 0.0, 0.0, 0.0, 0.0, 0.0, 0.0, 0.0, 0.0, 0.0, 0.0, 0.0, 0.0, 0.0, 0.0, 0.0, 0.0, 0.0, 0.0, 0.0, 0.0, 0.0, 0.0, 0.0, 0.0, 0.0, 0.0, 0.0, 0.0, 0.0, 0.0, 0.0, 0.0, 0.0, 0.0, 0.0, 0.0, 0.0, 0.0, 0.0, 0.0, 0.0, 0.0, 0.0, 0.0, 0.0, 0.0, 0.0, 0.0, 0.0, 0.0, 0.0, 0.0, 0.0, 0.0, 0.0, 0.0, 0.0, 0.0, 0.0, 0.0, 0.0, 0.0, 0.0, 0.0, 0.0, 0.0, 0.0, 0.0, 0.0, 0.0, 0.0, 0.0, 0.0, 0.0, 0.0, 0.0, 0.0, 0.0, 0.0, 0.0, 0.0, 0.0, 0.0, 0.0, 0.0, 0.0],
  "Shots": 4096,
  "Size": 4,
  "Total Algorithm duration [s]": 1.439,
  "Total Classic duration [s]": 1.3026496,
  "Total Quantum duration [s]": 0.1363504
}
