{
  "Circuit execution durations [ms]": [1.2196, 1.2708000000000002, 1.1983, 1.2229999999999999, 1.2072999999999998, 1.2366, 1.2642, 1.1898, 1.1875, 1.177, 1.1192000000000002, 1.1808, 1.1655, 1.1878, 1.2011, 1.1793, 1.2066, 1.2376, 1.1885999999999999, 1.1882, 1.1703, 1.2979, 1.1942000000000002, 1.2007, 1.1923000000000001, 1.2158, 1.2204, 1.1865, 1.2132, 1.1865999999999999, 1.196, 1.1813, 1.1876, 1.1679, 1.1841, 1.1761, 1.2327, 1.4144999999999999, 1.1759, 1.1919000000000002, 1.2051, 1.2075, 1.2476, 1.1931, 1.2229, 1.2155, 1.2009, 1.1961000000000002, 1.2167000000000001, 1.2075, 1.1682000000000001, 1.2078, 1.2094, 1.1808999999999998, 1.1768, 1.1898, 1.1901, 1.2015, 1.1929, 1.2057, 1.1753, 1.2039, 1.1824, 1.2106000000000001, 1.1904000000000001, 1.1865999999999999, 1.2054, 1.2142, 1.2187000000000001, 1.1853, 1.1884000000000001, 1.1908, 1.1679, 1.1776, 1.1765, 1.1728999999999998, 1.1926, 1.2126000000000001, 1.1869, 1.1827, 1.2296, 1.2325000000000002, 1.1844, 1.1846999999999999, 1.2021, 1.2409999999999999, 1.2457, 1.1992, 1.1922, 1.2029, 1.2338, 1.204, 1.1966999999999999, 1.1827999999999999, 1.1941, 1.2143, 1.2315, 1.2168, 1.1849, 1.2037, 1.2641, 1.1845, 1.191, 1.2058, 1.1948, 1.2, 1.1849, 1.1798, 1.1884000000000001, 1.175, 1.1797000000000002, 1.1939, 1.184, 1.1807, 1.2002, 1.4741000000000002, 1.1639000000000002, 1.1937, 1.2053, 1.2058, 1.2016, 1.1966999999999999, 1.1929, 1.1854, 1.2271, 1.4446999999999999, 1.1942000000000002, 1.1715, 1.1720000000000002, 1.1612, 1.1993, 1.2045000000000001, 1.1061, 1.2009, 1.191, 1.2011999999999998, 1.189, 1.2146, 1.2422, 1.3277, 1.1865, 1.1883, 1.1933, 1.2043, 1.1963, 1.2085, 1.1965000000000001, 1.1969999999999998, 1.2273, 1.1963, 1.1882, 1.1862000000000001, 1.1615, 1.2107, 1.1964000000000001, 1.2166, 1.1846999999999999, 1.214, 1.1824999999999999, 1.1973, 1.1892, 1.1838, 1.2259, 1.2848, 1.2271, 1.1666, 1.1921, 1.1783, 1.1871, 1.2144, 1.1747, 1.2049, 1.1808, 1.217, 1.2142, 1.1799, 1.1752, 1.1942000000000002],
  "Depth": 167.0,
  "Expectation Value": -1.606075406074524,
  "Optimal Expectation Value": -3.0,
  "Optimizer durations [ms]": [12.613, 13.331, 12.415, 12.796, 12.461, 13.042, 13.059, 12.513, 12.073, 12.395, 15.014, 12.628, 11.978, 12.219, 12.616, 12.155, 12.575, 12.853, 12.325, 12.509, 12.305, 13.485, 12.455, 12.177, 12.485, 12.506, 12.851, 12.073, 12.696, 12.544, 12.453, 12.244, 12.443, 12.157, 12.149, 12.768, 22.396, 17.903, 12.285, 12.343, 12.6, 12.508, 13.033, 12.493, 12.476, 12.624, 12.657, 12.443, 12.485, 12.587, 12.235, 12.347, 12.876, 12.225, 12.249, 12.268, 12.421, 12.608, 12.477, 12.454, 12.159, 15.926, 12.184, 12.565, 12.42, 12.214, 12.502, 12.705, 12.722, 12.256, 12.529, 12.439, 11.927, 12.513, 12.124, 12.291, 12.405, 12.827, 13.604, 12.1, 12.965, 12.704, 12.281, 12.414, 12.539, 12.763, 13.143, 12.272, 12.654, 12.405, 12.901, 12.59, 12.578, 12.182, 12.475, 12.498, 12.785, 12.698, 12.074, 12.583, 13.033, 12.593, 12.416, 12.651, 12.386, 12.614, 12.272, 12.576, 12.039, 12.408, 12.242, 12.372, 12.466, 12.219, 12.458, 15.335, 11.893, 12.621, 15.112, 12.578, 12.393, 12.371, 12.545, 12.21, 12.872, 17.437, 12.394, 12.346, 14.214, 12.735, 12.525, 12.51, 21.349, 12.244, 12.661, 12.524, 12.473, 18.609, 17.723, 14.338, 12.468, 12.376, 12.368, 12.313, 12.734, 12.529, 12.552, 12.396, 12.847, 12.455, 12.467, 12.241, 11.939, 12.831, 12.327, 12.811, 12.027, 12.952, 12.345, 12.537, 12.232, 12.379, 12.69, 13.606, 12.629, 12.481, 12.228, 12.465, 12.044, 12.588, 12.295, 12.788, 12.277, 12.682, 12.538, 12.371, 12.498, 12.363],
  "Optimizer iterations": 178,
  "Optimizer params": [0.6749814183071161, 0.7664622780437088, 0.8275710984315671, 0.071961239838456, 0.60744637680159, 0.7970807016976814],
  "P": 3,
  "Problem": "DSP",
  "QJob durations [ms]": [1.2196, 1.2708000000000002, 1.1983, 1.2229999999999999, 1.2072999999999998, 1.2366, 1.2642, 1.1898, 1.1875, 1.177, 1.1192000000000002, 1.1808, 1.1655, 1.1878, 1.2011, 1.1793, 1.2066, 1.2376, 1.1885999999999999, 1.1882, 1.1703, 1.2979, 1.1942000000000002, 1.2007, 1.1923000000000001, 1.2158, 1.2204, 1.1865, 1.2132, 1.1865999999999999, 1.196, 1.1813, 1.1876, 1.1679, 1.1841, 1.1761, 1.2327, 1.4144999999999999, 1.1759, 1.1919000000000002, 1.2051, 1.2075, 1.2476, 1.1931, 1.2229, 1.2155, 1.2009, 1.1961000000000002, 1.2167000000000001, 1.2075, 1.1682000000000001, 1.2078, 1.2094, 1.1808999999999998, 1.1768, 1.1898, 1.1901, 1.2015, 1.1929, 1.2057, 1.1753, 1.2039, 1.1824, 1.2106000000000001, 1.1904000000000001, 1.1865999999999999, 1.2054, 1.2142, 1.2187000000000001, 1.1853, 1.1884000000000001, 1.1908, 1.1679, 1.1776, 1.1765, 1.1728999999999998, 1.1926, 1.2126000000000001, 1.1869, 1.1827, 1.2296, 1.2325000000000002, 1.1844, 1.1846999999999999, 1.2021, 1.2409999999999999, 1.2457, 1.1992, 1.1922, 1.2029, 1.2338, 1.204, 1.1966999999999999, 1.1827999999999999, 1.1941, 1.2143, 1.2315, 1.2168, 1.1849, 1.2037, 1.2641, 1.1845, 1.191, 1.2058, 1.1948, 1.2, 1.1849, 1.1798, 1.1884000000000001, 1.175, 1.1797000000000002, 1.1939, 1.184, 1.1807, 1.2002, 1.4741000000000002, 1.1639000000000002, 1.1937, 1.2053, 1.2058, 1.2016, 1.1966999999999999, 1.1929, 1.1854, 1.2271, 1.4446999999999999, 1.1942000000000002, 1.1715, 1.1720000000000002, 1.1612, 1.1993, 1.2045000000000001, 1.1061, 1.2009, 1.191, 1.2011999999999998, 1.189, 1.2146, 1.2422, 1.3277, 1.1865, 1.1883, 1.1933, 1.2043, 1.1963, 1.2085, 1.1965000000000001, 1.1969999999999998, 1.2273, 1.1963, 1.1882, 1.1862000000000001, 1.1615, 1.2107, 1.1964000000000001, 1.2166, 1.1846999999999999, 1.214, 1.1824999999999999, 1.1973, 1.1892, 1.1838, 1.2259, 1.2848, 1.2271, 1.1666, 1.1921, 1.1783, 1.1871, 1.2144, 1.1747, 1.2049, 1.1808, 1.217, 1.2142, 1.1799, 1.1752, 1.1942000000000002],
  "QPU": "7000000",
  "Qubits": 7,
  "Queue durations [ms]": [0.0, 0.0, 0.0, 0.0, 0.0, 0.0, 0.0, 0.0, 0.0, 0.0, 0.0, 0.0, 0.0, 0.0, 0.0, 0.0, 0.0, 0.0, 0.0, 0.0, 0.0, 0.0, 0.0, 0.0, 0.0, 0.0, 0.0, 0.0, 0.0, 0.0, 0.0, 0.0, 0.0, 0.0, 0.0, 0.0, 0.0, 0.0, 0.0, 0.0, 0.0, 0.0, 0.0, 0.0, 0.0, 0.0, 0.0, 0.0, 0.0, 0.0, 0.0, 0.0, 0.0, 0.0, 0.0, 0.0, 0.0, 0.0, 0.0, 0.0, 0.0, 0.0, 0.0, 0.0, 0.0, 0.0, 0.0, 0.0, 0.0, 0.0, 0.0, 0.0, 0.0, 0.0, 0.0, 0.0, 0.0, 0.0, 0.0, 0.0, 0.0, 0.0, 0.0, 0.0, 0.0, 0.0, 0.0, 0.0, 0.0, 0.0, 0.0, 0.0, 0.0, 0.0, 0.0, 0.0, 0.0, 0.0, 0.0, 0.0, 0.0, 0.0, 0.0, 0.0, 0.0, 0.0, 0.0, 0.0, 0.0, 0.0, 0.0, 0.0, 0.0, 0.0, 0.0, 0.0, 0.0, 0.0, 0.0, 0.0, 0.0, 0.0, 0.0, 0.0, 0.0, 0.0, 0.0, 0.0, 0.0, 0.0, 0.0, 0.0, 0.0, 0.0, 0.0, 0.0, 0.0, 0.0, 0.0, 0.0, 0.0, 0.0, 0.0, 0.0, 0.0, 0.0, 0.0, 0.0, 0.0, 0.0, 0.0, 0.0, 0.0, 0.0, 0.0, 0.0, 0.0, 0.0, 0.0, 0.0, 0.0, 0.0, 0.0, 0.0, 0.0, 0.0, 0.0, 0.0, 0.0, 0.0, 0.0, 0.0, 0.0, 0.0, 0.0, 0.0, 0.0, 0.0],
  "Shots": 4096,
  "Size": 4,
  "Total Algorithm duration [s]": 2.279,
  "Total Classic duration [s]": 2.0648546999999997,
  "Total Quantum duration [s]": 0.2141453
}
