{
  "Circuit execution durations [ms]": [31827.972650527954, 32183.531999588013, 32603.88159751892, 33049.561738967896, 31897.919416427612, 32423.633337020874, 32418.973684310913, 32314.265727996826, 33179.20446395874, 33068.2578086853, 32536.747932434082, 31572.152376174927, 31672.98650741577, 32705.660820007324, 32690.438747406006, 32509.345293045044, 32779.9654006958, 32373.43740463257, 32309.46159362793, 32489.08042907715, 32044.057369232178, 33374.62043762207, 32622.094869613647, 32028.11312675476, 32073.582887649536, 32216.975212097168, 32566.646814346313, 32778.54919433594, 32106.181144714355, 32766.585111618042, 33109.93003845215, 32239.84408378601, 32769.4787979126, 32346.08030319214, 32083.580255508423, 32722.40686416626, 31979.450941085815, 32667.844772338867, 32673.628568649292, 32309.787273406982, 32872.66755104065, 33366.18518829346, 32383.19754600525, 32026.387214660645, 32232.55205154419, 31941.274404525757, 32817.994594573975, 32238.710403442383, 31672.58930206299, 32504.199504852295, 33188.40050697327, 32533.981561660767, 32235.475301742554, 32243.546724319458, 31837.375164031982, 32509.177207946777, 34035.747051239014, 33186.84434890747, 32107.925176620483, 32916.52727127075, 31809.149742126465, 32036.988496780396, 32656.187295913696, 32318.172216415405, 32890.13075828552, 32316.019535064697, 32127.469301223755, 33540.677070617676, 32154.49547767639, 32792.18864440918, 31774.495840072632, 32844.62833404541, 31405.290842056274, 32450.071334838867, 33303.69853973389, 33292.32168197632, 32700.95133781433, 32979.17032241821, 32071.46120071411, 32816.73002243042, 32227.949142456055, 32694.111585617065, 31868.89338493347, 31807.318449020386, 32202.655792236328, 32783.47587585449],
  "Depth": 167.0,
  "Expectation Value": -1.5216079950332642,
  "Optimal Expectation Value": -3.0,
  "Optimizer durations [ms]": [39375.904, 39700.098, 40117.04, 40570.865, 39411.482, 39991.013, 39924.685, 39843.182, 40660.687, 40571.482, 40080.433, 39020.36, 39166.363, 40260.044, 40166.896, 40022.044, 40316.795, 39864.788, 39863.881, 39981.216, 39551.802, 40949.973, 40145.493, 39476.921, 39610.938, 39722.548, 40046.675, 40287.587, 39631.313, 40280.217, 40647.544, 39740.153, 40291.781, 39869.948, 39591.457, 40262.77, 39495.867, 40209.14, 40228.583, 39821.802, 40393.08, 40937.18, 39840.249, 39505.94, 39700.102, 39399.567, 40341.348, 39738.862, 39147.392, 40056.147, 40707.417, 39989.055, 39757.043, 39763.351, 39310.524, 39993.036, 41569.763, 40907.142, 39655.464, 40416.511, 39367.6, 39513.446, 40140.21, 39819.08, 40376.134, 39805.403, 39666.559, 41014.005, 39646.422, 40269.099, 39251.881, 40442.524, 38934.564, 39927.789, 40840.022, 40794.938, 40202.763, 40515.019, 39571.106, 40388.09, 39733.208, 40147.072, 39399.636, 39310.767, 39700.861, 40305.349],
  "Optimizer iterations": 86,
  "Optimizer params": [0.9546430512279999, 0.28479049407733625, 0.6438401948464153, 0.005726123573614929, 0.5459487258027176, 0.8123098268271126],
  "P": 3,
  "Problem": "DSP",
  "QJob durations [ms]": [39332.478284835815, 39657.15193748474, 40075.03652572632, 40528.57065200806, 39368.62826347351, 39948.12560081482, 39882.15184211731, 39800.482511520386, 40616.93215370178, 40527.89402008057, 40037.78123855591, 38976.68099403381, 39123.17180633545, 40217.30732917786, 40123.96454811096, 39979.73394393921, 40273.2093334198, 39821.79069519043, 39775.43044090271, 39938.201904296875, 39508.808851242065, 40907.3748588562, 40101.81450843811, 39433.8915348053, 39567.397356033325, 39679.450035095215, 40003.77583503723, 40244.776248931885, 39587.64886856079, 40237.0765209198, 40604.95972633362, 39697.60799407959, 40248.64721298218, 39826.30658149719, 39548.38180541992, 40219.935178756714, 39452.38780975342, 40166.5985584259, 40185.213804244995, 39779.34193611145, 40350.43215751648, 40894.057273864746, 39797.48582839966, 39464.07413482666, 39657.15527534485, 39355.82232475281, 40298.27690124512, 39696.10905647278, 39104.66742515564, 40012.19081878662, 40663.87701034546, 39946.030139923096, 39714.327335357666, 39720.11137008667, 39267.75550842285, 39950.45351982117, 41525.35700798035, 40862.5967502594, 39612.01500892639, 40373.658418655396, 39325.329542160034, 39471.041440963745, 40097.13339805603, 39776.549100875854, 40333.06837081909, 39762.18795776367, 39624.03869628906, 40971.48132324219, 39603.211641311646, 40226.2818813324, 39209.3391418457, 40400.04253387451, 38891.86334609985, 39884.64117050171, 40796.75483703613, 40752.103328704834, 40160.24446487427, 40472.142457962036, 39527.84585952759, 40297.98102378845, 39689.81981277466, 40104.56418991089, 39357.01107978821, 39267.977714538574, 39658.074140548706, 40262.749910354614],
  "QPU": "6010003",
  "Qubits": 7,
  "Queue durations [ms]": [0.0, 0.0, 0.0, 0.0, 0.0, 0.0, 0.0, 0.0, 0.0, 0.0, 0.0, 0.0, 0.0, 0.0, 0.0, 0.0, 0.0, 0.0, 0.0, 0.0, 0.0, 0.0, 0.0, 0.0, 0.0, 0.0, 0.0, 0.0, 0.0, 0.0, 0.0, 0.0, 0.0, 0.0, 0.0, 0.0, 0.0, 0.0, 0.0, 0.0, 0.0, 0.0, 0.0, 0.0, 0.0, 0.0, 0.0, 0.0, 0.0, 0.0, 0.0, 0.0, 0.0, 0.0, 0.0, 0.0, 0.0, 0.0, 0.0, 0.0, 0.0, 0.0, 0.0, 0.0, 0.0, 0.0, 0.0, 0.0, 0.0, 0.0, 0.0, 0.0, 0.0, 0.0, 0.0, 0.0, 0.0, 0.0, 0.0, 0.0, 0.0, 0.0, 0.0, 0.0, 0.0, 0.0],
  "Shots": 4096,
  "Size": 4,
  "Total Algorithm duration [s]": 3438.984,
  "Total Classic duration [s]": 3.787949117660446,
  "Total Quantum duration [s]": 3435.1960508823395
}
