{
  "Depth": 167.0,
  "Expectation Value": -1.6099828481674194,
  "Job durations [ms]": [1.2396, 1.1359, 1.0969, 1.5102, 1.1398000000000001, 1.1127, 1.1225, 1.1931, 1.1006, 1.1393, 1.5338, 1.1014, 1.1129, 1.111, 1.5286, 1.1039999999999999, 1.3288, 1.1353, 1.1279000000000001, 1.1019999999999999, 1.4475, 1.1553, 1.1133, 1.1441000000000001, 1.3087000000000002, 1.5028000000000001, 1.1364, 1.0875, 1.1197, 1.1091, 1.0653, 1.2203, 1.2643000000000002, 1.1839000000000002, 1.1431, 1.3940000000000001, 1.1106, 1.0893000000000002, 1.0843999999999998, 1.1119, 1.124, 1.0962999999999998, 1.2221, 1.1387, 1.1171, 1.1317, 1.1284999999999998, 1.1622, 1.4439, 1.4308999999999998, 1.1972, 1.1284999999999998, 1.1042999999999998, 1.0944, 1.1307, 1.1255, 1.2285, 1.1216, 1.1175, 1.1175, 1.1169, 1.46, 1.0955, 1.1051, 1.121, 1.4587999999999999, 1.1133, 1.0637999999999999, 1.1202, 1.1446, 1.0849, 1.1303, 1.4963000000000002, 1.1256, 1.5379, 1.234, 1.1058999999999999, 1.4269, 1.0948, 1.1144, 1.4561000000000002, 1.0534, 1.1037, 1.0914, 1.1146, 1.2857999999999998, 1.4556, 1.1241999999999999, 1.1159, 1.1167, 1.2490999999999999, 1.1489, 1.1367, 1.2069999999999999, 1.3858, 1.1031000000000002, 1.1307, 1.1692, 1.1033, 1.1366, 1.1093, 1.3547, 1.1895, 1.3231, 1.1152, 1.2467, 1.1324, 1.1150000000000002, 1.1793, 1.2348999999999999, 1.1192000000000002, 1.3985, 1.1076000000000001, 1.2023, 1.1026, 1.5154, 1.3435000000000001, 1.1103, 1.1219999999999999, 1.1141, 1.099, 1.4587, 1.1215000000000002, 1.3607, 1.1184999999999998, 1.1815, 1.1166, 1.1092, 1.1373, 1.1308, 1.3098999999999998, 1.304],
  "Optimal Expectation Value": -3.0,
  "Optimizer durations [ms]": [17.737, 21.578, 21.184, 18.017, 21.285, 21.449, 21.514, 17.4, 20.551, 21.528, 20.883, 20.687, 21.259, 18.537, 20.637, 20.921, 18.552, 21.006, 21.495, 21.266, 19.916, 18.933, 20.855, 21.759, 16.675, 17.516, 20.927, 21.025, 16.732, 21.417, 20.768, 20.592, 20.562, 17.251, 20.115, 17.616, 21.106, 20.975, 21.215, 19.436, 20.441, 17.178, 17.632, 19.224, 20.94, 21.255, 19.197, 21.03, 20.657, 20.576, 17.254, 21.161, 16.902, 21.188, 21.367, 20.664, 16.008, 20.051, 20.45, 20.176, 21.185, 19.322, 21.22, 21.087, 21.52, 16.567, 21.293, 18.236, 17.553, 21.594, 16.855, 17.196, 16.009, 21.401, 19.74, 21.07, 21.212, 20.627, 20.406, 21.288, 20.577, 20.618, 18.841, 18.257, 21.284, 20.845, 19.981, 21.1, 21.186, 21.468, 16.069, 21.536, 20.544, 19.852, 17.567, 20.975, 21.404, 20.517, 21.138, 20.83, 19.175, 20.773, 17.232, 21.032, 20.15, 17.995, 21.466, 18.453, 22.226, 16.631, 21.288, 16.941, 21.169, 21.406, 17.449, 20.516, 20.911, 20.332, 21.498, 19.488, 16.816, 18.406, 21.419, 20.273, 16.925, 17.251, 21.548, 21.199, 17.174, 21.493, 20.922, 16.191],
  "Optimizer iterations": 132,
  "Optimizer params": [0.353703861259679, 0.10836033511605767, 0.48880651459825136, 0.20643489239600415, 0.12922653488506664, 0.11912187774318023],
  "P": 3,
  "Problem": "DSP",
  "QPU": "7000000",
  "Qubits": 7,
  "Shots": 4096,
  "Size": 4,
  "Total Algorithm duration [s]": 2.622,
  "Total Classic duration [s]": 2.4644497999999997,
  "Total Quantum duration [s]": 0.15755020000000008
}
