{
  "Depth": 167.0,
  "Expectation Value": -1.7518962621688843,
  "Job durations [ms]": [1.1305, 1.1439, 1.1042999999999998, 1.5303, 1.1356000000000002, 1.1794, 1.1099, 1.1258, 1.1154, 1.1184, 1.1924, 1.2252999999999998, 1.0747, 1.1233, 1.1283, 1.1327, 1.4771999999999998, 1.11, 1.1864, 1.2080000000000002, 1.0988, 1.1464999999999999, 1.1105, 1.1378, 1.105, 1.2992, 1.2187999999999999, 1.2061000000000002, 1.0754, 1.4238, 1.1209, 1.0534, 1.5035999999999998, 1.3037999999999998, 1.1277, 1.1049, 1.1704, 1.4702000000000002, 1.1199000000000001, 1.2394999999999998, 1.3419, 1.0907, 1.0981999999999998, 1.2079, 1.1102, 1.1911999999999998, 1.1159, 1.1364, 1.1991, 1.1039999999999999, 1.2187000000000001, 1.3554000000000002, 1.1838, 1.1374, 1.2072, 1.1968, 1.1403999999999999, 1.1454, 1.4035, 1.3512000000000002, 1.1049, 1.5507, 1.1199000000000001, 1.1198, 1.2392, 1.1202, 1.1208, 1.2550000000000001, 1.0947, 1.2229999999999999, 1.2361, 1.2349999999999999, 1.2201, 1.1155, 1.1491, 1.1202, 1.1264, 1.1119, 1.2384, 1.1358, 1.2547000000000001, 1.5353999999999999, 1.0927, 1.3272, 1.4479, 1.1004999999999998, 1.1397, 1.2654999999999998, 1.1145, 1.1168, 1.1138000000000001, 1.425, 1.1009, 1.1264, 1.1202, 1.1985, 1.1173000000000002, 1.3065, 1.2161, 1.1229, 1.1016000000000001, 1.2138, 1.1313, 1.1985, 1.2128, 1.1996, 1.1177, 1.1128, 1.1247, 1.1617000000000002, 1.1279000000000001, 1.1999, 1.2266, 1.1985, 1.2429, 1.2148, 1.1142, 1.4456, 1.1116, 1.1399, 1.1807, 1.0945, 1.1200999999999999, 1.2053, 1.1084, 1.4204, 1.0942, 1.0467, 1.1165, 1.1983, 1.0932, 1.2469, 1.1314, 1.5264, 1.0099, 1.1139, 1.3113000000000001, 1.0823, 1.397, 1.1007, 1.3371, 1.0894, 1.2401, 1.1273, 1.1188, 1.2204, 1.2609, 1.2151, 1.1371, 1.398, 1.1988999999999999, 1.2242, 1.0931, 1.2025, 1.1911999999999998, 1.1988999999999999, 1.2963, 1.2126000000000001, 1.1245999999999998, 1.2856, 1.2271, 1.1061999999999999, 1.1968, 1.2531, 1.1544, 1.1451, 1.1116, 1.1274, 1.4968, 1.1192000000000002, 1.1062999999999998, 1.2129, 1.1900000000000002, 1.1338, 1.2464, 1.294, 1.1537, 1.2186000000000001, 1.272, 1.1264999999999998, 1.2223, 1.119, 1.1476, 1.4794],
  "Optimal Expectation Value": -3.0,
  "Optimizer durations [ms]": [21.285, 21.585, 21.247, 18.652, 18.281, 21.843, 21.253, 17.092, 16.607, 21.339, 17.293, 14.814, 20.775, 21.416, 21.398, 18.362, 19.983, 21.328, 17.281, 17.29, 21.106, 20.839, 20.705, 21.456, 21.419, 16.889, 20.778, 17.336, 21.165, 17.845, 19.059, 18.747, 20.885, 17.071, 21.324, 17.277, 21.671, 17.913, 21.515, 17.586, 20.86, 21.0, 21.34, 17.363, 21.306, 12.547, 17.995, 21.608, 17.361, 17.113, 17.629, 20.84, 13.189, 21.664, 17.355, 17.225, 21.74, 21.432, 20.87, 20.771, 21.212, 20.653, 19.015, 16.789, 14.374, 21.249, 18.375, 17.909, 21.229, 17.563, 14.063, 17.666, 17.699, 17.047, 17.589, 20.164, 21.429, 21.207, 15.745, 18.722, 17.942, 20.745, 21.163, 20.732, 20.59, 21.438, 21.567, 20.569, 21.502, 21.225, 20.515, 20.551, 18.097, 17.704, 21.439, 17.12, 17.664, 20.802, 15.647, 21.442, 21.428, 17.327, 21.44, 17.551, 14.612, 17.304, 19.267, 21.073, 20.244, 20.467, 21.247, 17.459, 20.767, 14.262, 17.457, 17.465, 21.381, 20.53, 21.075, 21.417, 16.934, 20.392, 18.964, 17.414, 19.643, 20.882, 21.152, 15.567, 21.291, 13.275, 21.244, 17.716, 21.527, 20.191, 20.331, 21.339, 21.1, 21.224, 20.854, 18.154, 16.203, 20.903, 15.475, 19.313, 18.454, 13.283, 16.265, 16.565, 21.323, 19.469, 16.708, 17.156, 19.087, 12.714, 20.999, 17.118, 17.785, 17.356, 19.918, 19.156, 20.858, 21.144, 17.317, 19.345, 21.749, 20.682, 21.171, 18.556, 20.477, 21.583, 21.251, 14.529, 22.417, 20.728, 20.518, 16.07, 18.548, 17.564, 20.991, 17.688, 13.694, 21.321, 21.203, 20.686],
  "Optimizer iterations": 184,
  "Optimizer params": [0.01016813721336699, 0.8866036035674657, 0.44807151657789107, 0.013993407072882118, 0.11356981561800907, 0.7455929009747103],
  "P": 3,
  "Problem": "DSP",
  "QPU": "7000000",
  "Qubits": 7,
  "Shots": 4096,
  "Size": 4,
  "Total Algorithm duration [s]": 3.529,
  "Total Classic duration [s]": 3.3093707,
  "Total Quantum duration [s]": 0.2196293
}
