{
  "Depth": 167.0,
  "Expectation Value": -1.4745596647262573,
  "Job durations [ms]": [1.2005, 1.1247, 1.1352, 1.0858, 1.1958, 1.1820000000000002, 1.1093, 1.1147, 1.1968, 1.1261999999999999, 1.1102, 1.1332, 1.1196, 1.1296, 1.1104, 1.1316, 1.3037999999999998, 1.1062999999999998, 1.1313, 1.4057, 1.2113, 1.1608, 1.1504, 1.1219999999999999, 1.116, 1.0862999999999998, 1.1974, 1.1289, 1.3780999999999999, 1.1284999999999998, 1.1314, 1.1139999999999999, 1.1248, 1.1236, 1.1796, 1.1294, 1.1771, 1.1286, 1.1068, 1.1123999999999998, 1.1019999999999999, 1.1106, 1.113, 1.1283, 1.1065, 1.2038000000000002, 1.4434, 1.1827, 1.4726, 1.4083999999999999, 1.0917999999999999, 1.1306, 1.0736999999999999, 1.124, 1.1483, 1.0883, 1.2194, 1.1454, 1.4373, 1.1107, 1.2152, 1.0999, 1.3179999999999998, 1.103, 1.0987, 1.1959, 1.0824, 1.0933, 1.3502, 1.0946, 1.1161, 1.165, 1.1157000000000001, 1.0987, 1.1368, 1.0931, 1.1023999999999998, 1.1338, 1.1064, 1.1685, 1.3168, 1.1027, 1.1091, 1.2187999999999999, 1.1387, 1.1525, 1.2979999999999998, 1.1118000000000001, 1.0775, 1.4016, 1.1019, 1.5062, 1.1076000000000001, 1.0656999999999999, 1.0948, 1.1023, 1.0743, 1.2075, 1.441, 1.1207, 1.2322, 0.9308, 1.3616, 1.1154, 1.1925, 1.1119, 1.4662, 1.0694000000000001, 1.0682999999999998, 1.1242999999999999, 1.0942, 1.2590999999999999, 1.1146, 1.1134000000000002, 1.1046, 1.4643, 1.3856000000000002, 1.0958, 1.1356000000000002, 1.1129, 1.2084000000000001, 1.1219, 1.1903000000000001, 1.2025, 1.1105, 1.1280000000000001, 1.1147, 1.1574, 1.1888999999999998, 1.1203999999999998, 1.1175, 1.1011, 1.1081],
  "Optimal Expectation Value": -3.0,
  "Optimizer durations [ms]": [17.473, 21.174, 21.458, 18.191, 17.656, 22.103, 21.055, 17.08, 14.278, 21.168, 21.436, 16.87, 17.361, 17.386, 21.036, 21.106, 20.874, 18.851, 21.409, 20.312, 17.418, 21.632, 21.431, 21.353, 18.118, 21.08, 12.692, 21.263, 18.136, 17.348, 17.941, 20.891, 21.302, 21.364, 20.482, 21.598, 21.898, 21.545, 20.986, 21.322, 18.078, 16.734, 21.319, 19.996, 21.038, 14.116, 20.626, 17.141, 20.558, 17.023, 21.062, 21.593, 20.994, 17.396, 20.787, 21.139, 20.392, 18.795, 20.693, 21.186, 16.053, 21.439, 20.802, 21.11, 21.368, 17.562, 20.856, 19.019, 19.491, 21.013, 21.246, 17.038, 21.362, 21.297, 19.068, 20.876, 20.397, 21.609, 19.589, 20.758, 20.479, 16.536, 19.892, 12.665, 20.789, 17.164, 17.092, 21.08, 20.837, 18.783, 19.022, 19.163, 20.181, 21.062, 21.258, 18.872, 19.896, 22.201, 16.219, 18.777, 17.733, 15.944, 20.345, 21.071, 17.495, 21.387, 20.452, 21.102, 20.686, 21.408, 19.028, 18.694, 21.323, 21.169, 21.362, 20.125, 19.427, 16.373, 21.386, 21.115, 20.925, 18.247, 17.378, 17.242, 17.427, 20.781, 21.276, 20.688, 22.189, 17.825, 21.253, 18.169, 19.344],
  "Optimizer iterations": 133,
  "Optimizer params": [0.32993644183948767, 0.518850500572503, 0.2686320339030512, 0.9604364489309274, 0.9718324865659561, 0.042409328538461244],
  "P": 3,
  "Problem": "DSP",
  "QPU": "7000000",
  "Qubits": 7,
  "Shots": 4096,
  "Size": 4,
  "Total Algorithm duration [s]": 2.613,
  "Total Classic duration [s]": 2.4579395,
  "Total Quantum duration [s]": 0.1550605
}
