{
  "Circuit execution durations [ms]": [1.1325, 1.2499, 1.2941, 1.0726, 1.2327, 1.1651, 1.3075, 1.1559000000000001, 1.1422999999999999, 1.4716, 1.1673, 1.1623, 1.158, 1.1394, 1.2282, 1.1571, 1.1683, 1.1475000000000002, 1.1372000000000002, 1.1827, 1.1359, 1.1554, 1.1657, 1.1575, 1.2052, 1.1573, 1.1747999999999998, 1.2171, 1.1460000000000001, 1.1419, 1.1544, 1.1461, 1.1441999999999999, 1.1511, 1.2647, 1.1602999999999999, 1.1558, 1.2296, 1.1495, 1.1520000000000001, 1.1396, 1.149, 1.3708, 1.1621, 1.2222, 1.1205, 1.1508, 1.2393, 1.1525999999999998, 1.1937, 1.2178, 1.153, 1.1686, 1.2285, 1.1354, 1.1412, 1.1419, 1.1566, 1.1773, 1.2021, 1.2044, 1.1574, 1.1579, 1.1460000000000001, 1.1708, 1.2913, 1.272, 1.2608000000000001, 1.1497, 1.1491, 1.1471, 1.2276, 1.2142, 1.1373, 1.2359, 1.1800000000000002, 1.1295000000000002, 1.1402, 1.1805999999999999, 1.1035000000000001, 1.1486999999999998, 1.167, 1.2069999999999999, 1.1284, 1.1540000000000001, 1.2248, 1.3674, 1.1846, 1.2216, 1.4033, 1.1466, 1.2204, 1.1627, 1.3373, 1.2303, 1.1733, 1.1647999999999998, 1.1597, 1.1502999999999999, 1.1544, 1.5118, 1.1454, 1.1548, 1.1473, 1.1981, 1.1392, 1.1464999999999999, 1.2421000000000002, 1.1766999999999999],
  "Depth": 167.0,
  "Expectation Value": -10.092925071716309,
  "Optimal Expectation Value": -12.0,
  "Optimizer durations [ms]": [13.219, 13.382, 13.719, 17.57, 12.776, 12.029, 13.61, 12.097, 21.376, 20.418, 12.135, 12.044, 12.281, 11.931, 12.895, 12.073, 12.025, 12.205, 11.712, 12.365, 12.767, 12.085, 12.455, 11.943, 12.727, 12.205, 12.422, 14.403, 11.879, 12.13, 12.175, 11.87, 12.116, 12.081, 13.123, 12.713, 12.102, 12.929, 12.028, 11.954, 11.819, 12.264, 14.98, 12.21, 12.493, 12.04, 11.814, 13.172, 11.772, 12.597, 13.607, 12.102, 12.031, 12.983, 11.99, 11.856, 11.941, 12.925, 12.492, 12.438, 12.658, 12.175, 11.878, 12.333, 12.286, 14.276, 16.913, 20.295, 12.019, 11.96, 12.146, 12.82, 12.842, 11.694, 13.113, 12.26, 11.962, 11.918, 12.46, 11.916, 11.896, 12.222, 12.651, 11.829, 11.936, 12.855, 15.394, 12.367, 12.921, 14.573, 12.253, 12.687, 12.105, 16.187, 12.853, 12.454, 12.168, 11.843, 12.26, 12.199, 15.878, 11.963, 12.157, 11.942, 12.609, 11.988, 11.894, 12.903, 12.453],
  "Optimizer iterations": 109,
  "Optimizer params": [0.1987156946890211, 0.7656027332067408, 0.6245946909834689, 0.9088271387724158, 0.6584346679374943, 0.8321754184120714],
  "P": 3,
  "Problem": "MCP",
  "QJob durations [ms]": [1.1325, 1.2499, 1.2941, 1.0726, 1.2327, 1.1651, 1.3075, 1.1559000000000001, 1.1422999999999999, 1.4716, 1.1673, 1.1623, 1.158, 1.1394, 1.2282, 1.1571, 1.1683, 1.1475000000000002, 1.1372000000000002, 1.1827, 1.1359, 1.1554, 1.1657, 1.1575, 1.2052, 1.1573, 1.1747999999999998, 1.2171, 1.1460000000000001, 1.1419, 1.1544, 1.1461, 1.1441999999999999, 1.1511, 1.2647, 1.1602999999999999, 1.1558, 1.2296, 1.1495, 1.1520000000000001, 1.1396, 1.149, 1.3708, 1.1621, 1.2222, 1.1205, 1.1508, 1.2393, 1.1525999999999998, 1.1937, 1.2178, 1.153, 1.1686, 1.2285, 1.1354, 1.1412, 1.1419, 1.1566, 1.1773, 1.2021, 1.2044, 1.1574, 1.1579, 1.1460000000000001, 1.1708, 1.2913, 1.272, 1.2608000000000001, 1.1497, 1.1491, 1.1471, 1.2276, 1.2142, 1.1373, 1.2359, 1.1800000000000002, 1.1295000000000002, 1.1402, 1.1805999999999999, 1.1035000000000001, 1.1486999999999998, 1.167, 1.2069999999999999, 1.1284, 1.1540000000000001, 1.2248, 1.3674, 1.1846, 1.2216, 1.4033, 1.1466, 1.2204, 1.1627, 1.3373, 1.2303, 1.1733, 1.1647999999999998, 1.1597, 1.1502999999999999, 1.1544, 1.5118, 1.1454, 1.1548, 1.1473, 1.1981, 1.1392, 1.1464999999999999, 1.2421000000000002, 1.1766999999999999],
  "QPU": "7000000",
  "Qubits": 9,
  "Queue durations [ms]": [0.0, 0.0, 0.0, 0.0, 0.0, 0.0, 0.0, 0.0, 0.0, 0.0, 0.0, 0.0, 0.0, 0.0, 0.0, 0.0, 0.0, 0.0, 0.0, 0.0, 0.0, 0.0, 0.0, 0.0, 0.0, 0.0, 0.0, 0.0, 0.0, 0.0, 0.0, 0.0, 0.0, 0.0, 0.0, 0.0, 0.0, 0.0, 0.0, 0.0, 0.0, 0.0, 0.0, 0.0, 0.0, 0.0, 0.0, 0.0, 0.0, 0.0, 0.0, 0.0, 0.0, 0.0, 0.0, 0.0, 0.0, 0.0, 0.0, 0.0, 0.0, 0.0, 0.0, 0.0, 0.0, 0.0, 0.0, 0.0, 0.0, 0.0, 0.0, 0.0, 0.0, 0.0, 0.0, 0.0, 0.0, 0.0, 0.0, 0.0, 0.0, 0.0, 0.0, 0.0, 0.0, 0.0, 0.0, 0.0, 0.0, 0.0, 0.0, 0.0, 0.0, 0.0, 0.0, 0.0, 0.0, 0.0, 0.0, 0.0, 0.0, 0.0, 0.0, 0.0, 0.0, 0.0, 0.0, 0.0, 0.0],
  "Shots": 4096,
  "Size": 9,
  "Total Algorithm duration [s]": 1.398,
  "Total Classic duration [s]": 1.2685164999999998,
  "Total Quantum duration [s]": 0.12948350000000003
}
