{
  "Circuit execution durations [ms]": [1.231, 1.1452, 1.1492, 1.1797000000000002, 1.1681000000000001, 1.1422999999999999, 1.1596, 1.1814, 1.1633, 1.1753, 1.213, 1.1431, 1.147, 1.2715, 1.1705, 1.4652999999999998, 1.1567, 1.2382, 1.1659000000000002, 1.1360999999999999, 1.141, 1.1496, 1.1714, 1.1582000000000001, 1.1565, 1.2098, 1.1364999999999998, 1.1474, 1.149, 1.1494, 1.1565, 1.1313, 1.2106000000000001, 1.1389, 1.1464999999999999, 1.1514, 1.1609, 1.2247, 1.129, 1.1627, 1.1409, 1.138, 1.1631, 1.1623, 1.1620000000000001, 1.2133999999999998, 1.1481, 1.1532, 1.1509999999999998, 1.1443, 1.1467999999999998, 1.2119, 1.1982, 1.1519, 1.1481, 1.1728999999999998, 1.1371, 1.1428, 1.1511, 1.15, 1.168, 1.1769, 1.2007, 1.1620000000000001, 1.1467, 1.1589, 1.1582999999999999, 1.1763, 1.1577, 1.1193, 1.1527, 1.1657, 1.2305000000000001, 1.1677, 1.1459000000000001, 1.1681000000000001, 1.159, 1.1625999999999999, 1.1521000000000001, 1.1797000000000002, 1.3717, 1.3932, 1.1797000000000002, 1.1666999999999998, 1.2179, 1.1586999999999998, 1.1431, 1.1447, 1.1604, 1.1532, 1.1639000000000002, 1.2037, 1.1557, 1.1662000000000001, 1.2107, 1.1318000000000001, 1.1592, 1.3426, 1.2114999999999998, 1.1527, 1.1674, 1.1689999999999998, 1.4635, 1.2799, 1.2714, 1.1663999999999999, 1.1808, 1.1623, 1.1554, 1.2651999999999999, 1.3680999999999999, 1.0901, 1.2848, 1.1634, 1.1692, 1.1638, 1.2297, 1.2144, 1.1929, 1.1509, 1.1634, 1.1936, 1.176],
  "Depth": 167.0,
  "Expectation Value": -11.698113441467285,
  "Optimal Expectation Value": -12.0,
  "Optimizer durations [ms]": [12.842, 11.764, 12.077, 12.348, 12.21, 12.023, 12.036, 12.592, 12.203, 12.079, 12.799, 12.117, 11.808, 13.513, 21.787, 17.737, 12.13, 12.981, 12.159, 11.872, 12.014, 12.032, 12.234, 12.255, 12.061, 12.471, 12.047, 12.074, 12.041, 12.793, 12.211, 12.019, 12.352, 12.089, 12.055, 11.946, 12.363, 12.728, 11.811, 14.805, 11.723, 11.937, 12.208, 12.23, 12.094, 12.902, 11.76, 12.274, 11.767, 12.071, 12.061, 12.858, 12.623, 12.114, 11.818, 12.479, 11.901, 12.061, 12.068, 12.039, 11.942, 12.213, 12.822, 12.182, 11.938, 12.084, 11.89, 12.349, 11.944, 11.977, 12.024, 12.181, 12.629, 16.977, 12.414, 12.353, 11.871, 12.343, 12.373, 12.328, 14.223, 14.496, 12.319, 12.318, 12.688, 11.852, 12.285, 12.101, 12.035, 11.86, 12.298, 12.757, 11.958, 12.415, 12.742, 14.647, 12.978, 13.983, 13.021, 11.965, 12.294, 12.267, 14.955, 13.62, 13.263, 14.4, 12.465, 12.444, 12.529, 13.292, 13.97, 16.021, 13.305, 12.624, 12.175, 12.359, 17.581, 14.043, 17.224, 12.086, 12.134, 12.43, 12.438],
  "Optimizer iterations": 123,
  "Optimizer params": [0.15722236039558973, 0.6097719890443546, 0.988276180003353, 0.7093326334085351, 0.2208082209981334, 0.26000206878202337],
  "P": 3,
  "Problem": "MCP",
  "QJob durations [ms]": [1.231, 1.1452, 1.1492, 1.1797000000000002, 1.1681000000000001, 1.1422999999999999, 1.1596, 1.1814, 1.1633, 1.1753, 1.213, 1.1431, 1.147, 1.2715, 1.1705, 1.4652999999999998, 1.1567, 1.2382, 1.1659000000000002, 1.1360999999999999, 1.141, 1.1496, 1.1714, 1.1582000000000001, 1.1565, 1.2098, 1.1364999999999998, 1.1474, 1.149, 1.1494, 1.1565, 1.1313, 1.2106000000000001, 1.1389, 1.1464999999999999, 1.1514, 1.1609, 1.2247, 1.129, 1.1627, 1.1409, 1.138, 1.1631, 1.1623, 1.1620000000000001, 1.2133999999999998, 1.1481, 1.1532, 1.1509999999999998, 1.1443, 1.1467999999999998, 1.2119, 1.1982, 1.1519, 1.1481, 1.1728999999999998, 1.1371, 1.1428, 1.1511, 1.15, 1.168, 1.1769, 1.2007, 1.1620000000000001, 1.1467, 1.1589, 1.1582999999999999, 1.1763, 1.1577, 1.1193, 1.1527, 1.1657, 1.2305000000000001, 1.1677, 1.1459000000000001, 1.1681000000000001, 1.159, 1.1625999999999999, 1.1521000000000001, 1.1797000000000002, 1.3717, 1.3932, 1.1797000000000002, 1.1666999999999998, 1.2179, 1.1586999999999998, 1.1431, 1.1447, 1.1604, 1.1532, 1.1639000000000002, 1.2037, 1.1557, 1.1662000000000001, 1.2107, 1.1318000000000001, 1.1592, 1.3426, 1.2114999999999998, 1.1527, 1.1674, 1.1689999999999998, 1.4635, 1.2799, 1.2714, 1.1663999999999999, 1.1808, 1.1623, 1.1554, 1.2651999999999999, 1.3680999999999999, 1.0901, 1.2848, 1.1634, 1.1692, 1.1638, 1.2297, 1.2144, 1.1929, 1.1509, 1.1634, 1.1936, 1.176],
  "QPU": "7000000",
  "Qubits": 9,
  "Queue durations [ms]": [0.0, 0.0, 0.0, 0.0, 0.0, 0.0, 0.0, 0.0, 0.0, 0.0, 0.0, 0.0, 0.0, 0.0, 0.0, 0.0, 0.0, 0.0, 0.0, 0.0, 0.0, 0.0, 0.0, 0.0, 0.0, 0.0, 0.0, 0.0, 0.0, 0.0, 0.0, 0.0, 0.0, 0.0, 0.0, 0.0, 0.0, 0.0, 0.0, 0.0, 0.0, 0.0, 0.0, 0.0, 0.0, 0.0, 0.0, 0.0, 0.0, 0.0, 0.0, 0.0, 0.0, 0.0, 0.0, 0.0, 0.0, 0.0, 0.0, 0.0, 0.0, 0.0, 0.0, 0.0, 0.0, 0.0, 0.0, 0.0, 0.0, 0.0, 0.0, 0.0, 0.0, 0.0, 0.0, 0.0, 0.0, 0.0, 0.0, 0.0, 0.0, 0.0, 0.0, 0.0, 0.0, 0.0, 0.0, 0.0, 0.0, 0.0, 0.0, 0.0, 0.0, 0.0, 0.0, 0.0, 0.0, 0.0, 0.0, 0.0, 0.0, 0.0, 0.0, 0.0, 0.0, 0.0, 0.0, 0.0, 0.0, 0.0, 0.0, 0.0, 0.0, 0.0, 0.0, 0.0, 0.0, 0.0, 0.0, 0.0, 0.0, 0.0, 0.0],
  "Shots": 4096,
  "Size": 9,
  "Total Algorithm duration [s]": 1.564,
  "Total Classic duration [s]": 1.4186915,
  "Total Quantum duration [s]": 0.14530849999999998
}
