{
  "Depth": 32.0,
  "Job durations [ms]": [1705.5585384368896, 1649.3377685546875, 1638.1382942199707, 1648.282527923584, 1647.2375392913818, 1615.7679557800293, 1635.9634399414062, 1655.5407047271729, 1642.0297622680664, 1385.162591934204, 1653.9113521575928, 1652.4887084960938, 1343.451738357544, 1578.3441066741943, 1642.782211303711, 1316.4582252502441, 947.3357200622559, 1345.8969593048096, 1641.7486667633057, 1407.5846672058105, 1637.315034866333, 1326.0555267333984, 1387.2933387756348, 1638.606071472168, 1646.496057510376, 1651.407241821289, 1291.1958694458008, 1384.882926940918, 1569.4680213928223, 1316.6637420654297, 1645.0586318969727, 1650.209903717041, 1636.7244720458984, 1790.1721000671387, 1767.9672241210938, 1656.5344333648682, 1343.315839767456, 1647.7584838867188, 1313.6227130889893, 1298.8615036010742, 1701.3063430786133, 1304.2900562286377, 1350.1927852630615, 1645.021677017212, 1638.7262344360352, 1561.74898147583, 1424.5026111602783, 1351.1407375335693, 1653.0938148498535, 1648.6396789550781, 1646.955966949463, 1401.4039039611816, 1646.7957496643066, 1333.6303234100342, 1646.559238433838, 1349.5233058929443, 1333.3113193511963, 1649.4667530059814, 1650.4616737365723, 1642.0762538909912, 1297.7409362792969, 1649.609088897705, 1648.3538150787354, 1396.3439464569092, 1644.0393924713135, 1645.0095176696777, 1644.1986560821533, 1647.1760272979736, 1618.7570095062256, 1649.8284339904785, 1693.5343742370605, 1644.6940898895264, 1305.8197498321533, 1352.8647422790527, 1413.5832786560059, 1645.287036895752, 1522.9120254516602, 1491.1768436431885, 1647.4354267120361, 1647.104263305664, 1399.7817039489746, 1354.7642230987549, 1653.705358505249, 1959.1572284698486, 1646.0106372833252, 1644.5581912994385, 1644.2430019378662, 1645.963430404663, 1335.8452320098877, 1425.8184432983398],
  "Optimizer durations [ms]": [2560.406, 2502.179, 2518.632, 2501.417, 2538.164, 2469.695, 2509.539, 2522.466, 2511.687, 2247.829, 2525.257, 2512.507, 2221.186, 2433.053, 2572.938, 2171.501, 1812.695, 2200.394, 2543.821, 2255.987, 2518.477, 2176.468, 2260.714, 2493.096, 2526.834, 2502.93, 2167.678, 2283.013, 2453.206, 2163.038, 2498.808, 2526.213, 2488.073, 2673.034, 2618.918, 2512.99, 2225.438, 2499.914, 2190.151, 2147.782, 2580.301, 2150.388, 2224.355, 2496.915, 2517.685, 2409.905, 2298.678, 2196.316, 2527.655, 2500.936, 2524.034, 2252.29, 2528.792, 2179.166, 2525.163, 2248.589, 2209.758, 2495.302, 2500.234, 2521.671, 2143.745, 2527.006, 2496.933, 2271.765, 2497.986, 2494.171, 2523.295, 2501.628, 2499.001, 2503.152, 2575.274, 2495.666, 2180.522, 2203.543, 2292.583, 2495.078, 2396.456, 2341.431, 2523.632, 2492.682, 2273.885, 2203.211, 2536.928, 2807.605, 2578.03, 2493.624, 2520.866, 2495.595, 2210.003, 2274.845],
  "Optimizer iterations": 90,
  "Qubits": 3,
  "Total Algorithm duration [s]": 216.796,
  "Total Classic duration [s]": 77.94920587158202,
  "Total Quantum duration [s]": 138.84679412841797,
  "Expectation Value": -1.99951171875,
  "Optimal Expectation Value": -2.0,
  "Optimizer params": [0.39747655182012337, 0.10335289477327603, 0.510096532558458, 0.03600141462086072, 0.9999404878675004, 0.09736493657863567],
  "QPU": "6010003",
  "Problem": "MCP",
  "Size": 3,
  "P": 3,
  "Shots": 4096
}