{
  "Depth": 32.0,
  "Job durations [ms]": [1908.0612659454346, 1407.39107131958, 1644.3238258361816, 1643.0470943450928, 1643.1126594543457, 1643.8345909118652, 1513.6778354644775, 1641.9405937194824, 1643.0039405822754, 1648.6890316009521, 1645.0119018554688, 1645.3280448913574, 1644.3917751312256, 1571.2120532989502, 1645.8072662353516, 1650.1924991607666, 1948.2917785644531, 1641.3013935089111, 1300.0943660736084, 1647.902011871338, 1638.118028640747, 1649.949312210083, 1697.8437900543213, 1645.7090377807617, 1652.9970169067383, 1651.0624885559082, 1651.3147354125977, 1639.9049758911133, 1500.2617835998535, 1496.772289276123, 1648.1003761291504, 1651.811122894287, 1642.5046920776367, 1655.186653137207, 1648.2243537902832, 1651.198148727417, 1557.9466819763184, 1649.857997894287, 1642.3020362854004, 1655.4298400878906, 1648.9012241363525, 1640.7785415649414, 1646.0611820220947, 1644.9782848358154, 1638.9944553375244, 1651.9238948822021, 1645.9152698516846, 1651.242971420288, 1653.336763381958, 1648.906946182251, 1640.9175395965576, 1961.7445468902588, 1699.254035949707, 1957.4425220489502, 1650.9065628051758, 1647.0682621002197, 1644.2692279815674, 1643.953800201416, 1647.8867530822754, 1640.4635906219482, 1488.6043071746826, 1644.5643901824951, 1656.9843292236328, 1663.2676124572754, 1658.8997840881348, 1646.914005279541, 1965.7363891601562, 1648.8606929779053, 1644.0401077270508, 1655.7936668395996, 1899.3949890136719, 1643.1753635406494, 1656.2929153442383, 1652.728796005249, 1496.7420101165771, 1403.9051532745361, 1656.1803817749023, 1649.0557193756104, 1657.6828956604004, 1659.0583324432373, 1649.9733924865723, 1655.6751728057861],
  "Optimizer durations [ms]": [2758.36, 2284.78, 2496.029, 2530.304, 2496.895, 2523.277, 2361.476, 2521.243, 2496.987, 2581.628, 2495.78, 2524.244, 2493.348, 2454.424, 2497.553, 2530.205, 2800.437, 2518.591, 2152.806, 2528.823, 2489.802, 2523.99, 2549.009, 2526.019, 2503.515, 2500.836, 2532.609, 2491.636, 2377.574, 2346.741, 2498.763, 2530.921, 2493.027, 2534.307, 2503.389, 2540.708, 2407.7, 2571.918, 2506.28, 2522.309, 2509.775, 2513.971, 2505.913, 2520.377, 2498.206, 2537.844, 2496.149, 2534.808, 2504.345, 2537.309, 2494.736, 2845.058, 2562.765, 2843.961, 2503.53, 2527.452, 2498.112, 2527.68, 2498.528, 2494.692, 2367.605, 2499.293, 2537.759, 2520.935, 2546.18, 2506.595, 2876.034, 2532.276, 2499.369, 2536.775, 2755.414, 2525.795, 2511.337, 2538.692, 2347.313, 2277.687, 2513.558, 2534.437, 2509.935, 2593.837, 2505.222, 2542.967],
  "Optimizer iterations": 82,
  "Qubits": 3,
  "Total Algorithm duration [s]": 206.532,
  "Total Classic duration [s]": 71.27041285705567,
  "Total Quantum duration [s]": 135.26158714294434,
  "Expectation Value": -1.99951171875,
  "Optimal Expectation Value": -2.0,
  "Optimizer params": [0.15990439430249542, 0.2832070904703933, 0.7434868278435136, 0.5187355317140258, 0.7140483676269913, 0.1369359686995867],
  "QPU": "6010003",
  "Problem": "MCP",
  "Size": 3,
  "P": 3,
  "Shots": 4096
}