{
  "Depth": 167.0,
  "Expectation Value": -11.504961013793945,
  "Job durations [ms]": [1.1504, 1.0911, 1.0717, 1.138, 1.141, 1.1829, 1.3136, 1.4662, 1.1463, 1.2114999999999998, 1.6173, 1.4074, 1.0876, 1.0989, 1.3189, 1.1673, 1.1198, 1.129, 1.1924, 1.0586, 1.1150000000000002, 1.1461999999999999, 1.0712, 1.1397, 1.1596, 1.1663999999999999, 1.3053, 1.3028, 1.1329999999999998, 1.2722, 1.0826, 1.4046, 1.1397, 1.1339, 1.338, 1.1800000000000002, 1.2316, 1.1619, 1.4979, 1.1219, 1.3469, 1.1636000000000002, 1.1405, 1.1333, 1.1662000000000001, 1.4307, 1.3548, 1.2972000000000001, 1.1452, 1.3705, 1.1795, 1.1501000000000001, 1.1325, 1.1379000000000001, 1.0807, 1.1316, 1.1985999999999999, 1.3368, 1.2944, 1.0569, 1.2763, 1.5166, 1.1132, 1.1422999999999999, 1.5246000000000002, 1.2567, 1.0816000000000001, 1.109, 1.1229],
  "Optimal Expectation Value": -12.0,
  "Optimizer durations [ms]": [21.883, 21.356, 20.636, 19.258, 21.694, 22.144, 20.612, 19.919, 21.849, 22.629, 21.992, 15.903, 21.155, 20.676, 20.426, 22.409, 21.495, 18.27, 15.435, 20.975, 21.69, 21.514, 17.768, 19.522, 20.39, 21.735, 18.822, 17.218, 22.034, 17.889, 19.12, 20.677, 21.539, 21.421, 20.907, 20.232, 22.563, 17.786, 21.406, 21.589, 18.803, 19.082, 18.528, 17.433, 22.222, 16.596, 20.624, 16.181, 21.521, 21.786, 22.43, 22.03, 17.415, 18.86, 21.355, 21.604, 20.938, 20.465, 21.069, 18.413, 20.305, 20.99, 20.196, 21.809, 20.992, 20.679, 19.363, 19.473, 21.794],
  "Optimizer iterations": 69,
  "Optimizer params": [0.5133364815413138, 0.7169105218358746, 0.41116979224755, 0.368144273353345, 0.029207075015494677, 0.7484127907190884],
  "P": 3,
  "Problem": "MCP",
  "QPU": "7000000",
  "Qubits": 9,
  "Shots": 4096,
  "Size": 9,
  "Total Algorithm duration [s]": 1.399,
  "Total Classic duration [s]": 1.3153955,
  "Total Quantum duration [s]": 0.0836045
}
