{
  "Depth": 167.0,
  "Expectation Value": -11.660910606384277,
  "Job durations [ms]": [1.0945, 1.1244, 1.1433, 1.5004, 1.2371999999999999, 1.1797000000000002, 1.1098, 1.3708, 1.153, 1.2532999999999999, 1.3414, 1.3819, 1.1218000000000001, 1.1357, 1.3095999999999999, 1.5044, 1.268, 1.0846, 1.0663999999999998, 1.1652, 1.2228, 1.1998, 1.2415, 1.1804999999999999, 1.3232000000000002, 1.1038000000000001, 1.3359, 1.1200999999999999, 1.0908, 1.1448, 1.0782, 1.1226999999999998, 1.1069, 1.189, 1.271, 1.2669000000000001, 1.4170999999999998, 1.082, 1.0828, 1.1072, 1.0807, 1.2271, 1.092, 1.0605, 1.4218, 1.1617000000000002, 1.1698, 1.0207, 1.4562, 1.3988, 1.1762000000000001, 1.3816, 1.1211, 1.0594000000000001, 1.0656999999999999, 1.0494, 1.1042999999999998, 1.2544, 1.228, 1.0819, 1.1684, 1.1261, 1.3703999999999998, 1.2011, 1.1949, 1.1013, 1.0786, 1.1582999999999999, 1.0891, 1.2268, 1.4558, 1.4014, 1.5429, 1.1641, 1.1077000000000001, 1.1149, 1.0721, 1.1715, 1.056, 1.0601],
  "Optimal Expectation Value": -12.0,
  "Optimizer durations [ms]": [21.323, 21.756, 21.676, 18.565, 20.131, 21.872, 21.526, 16.279, 22.004, 17.907, 20.979, 19.353, 21.63, 21.372, 18.103, 21.271, 17.958, 21.08, 21.014, 17.0, 20.538, 17.332, 17.886, 17.164, 16.072, 21.302, 16.374, 15.751, 20.193, 22.233, 20.117, 21.486, 17.546, 14.696, 16.449, 17.901, 20.195, 21.417, 18.094, 21.209, 17.226, 18.912, 19.394, 20.913, 19.012, 17.07, 17.137, 20.592, 20.87, 19.668, 20.412, 20.211, 17.653, 20.682, 21.47, 18.237, 13.836, 18.115, 18.084, 20.837, 22.051, 20.646, 20.531, 14.121, 18.07, 21.342, 20.802, 20.511, 20.825, 17.756, 21.014, 18.72, 20.876, 19.122, 21.166, 18.484, 20.869, 17.118, 17.861, 20.566],
  "Optimizer iterations": 80,
  "Optimizer params": [0.013592463729888081, 0.19399744463826754, 0.29800446700173977, 0.22512429346788676, 0.8179148441932593, 0.5247815940201216],
  "P": 3,
  "Problem": "MCP",
  "QPU": "7000000",
  "Qubits": 9,
  "Shots": 4096,
  "Size": 9,
  "Total Algorithm duration [s]": 1.549,
  "Total Classic duration [s]": 1.4532947999999999,
  "Total Quantum duration [s]": 0.0957052
}
