{
  "Depth": 167.0,
  "Expectation Value": -10.033246994018555,
  "Job durations [ms]": [1.1634, 1.1443, 1.3348, 1.2953000000000001, 1.5721, 1.1228, 1.1341999999999999, 1.3325, 1.075, 1.098, 1.1602999999999999, 1.1437000000000002, 1.1377, 1.2402, 1.1411, 1.0847, 1.1741, 1.3185, 1.1506999999999998, 1.1715, 1.0441, 1.1389, 1.1026, 1.5022, 1.5398, 1.4990999999999999, 1.1424, 1.0947, 1.1888, 1.0273999999999999, 1.0552000000000001, 1.0883, 1.1057000000000001, 1.1033, 1.1081999999999999, 1.0323, 1.0398, 1.1026, 1.1409, 1.2455, 1.1076000000000001, 1.1076000000000001, 1.0688, 1.0409, 1.369, 1.0573, 1.0909, 1.0984, 1.2635999999999998, 1.3072, 1.3165, 1.1157000000000001, 1.132, 1.409, 1.4427, 1.2784, 1.0338, 1.1948, 1.1039999999999999, 1.1908999999999998, 1.1668, 1.2905, 1.349, 1.4297, 1.1519, 1.1513, 1.0967, 1.1009],
  "Optimal Expectation Value": -12.0,
  "Optimizer durations [ms]": [21.966, 21.865, 18.539, 19.628, 16.812, 21.515, 21.865, 19.528, 20.947, 21.347, 20.767, 21.844, 21.677, 20.472, 18.741, 16.937, 21.739, 20.855, 20.612, 21.283, 20.807, 20.258, 21.515, 20.666, 21.16, 21.392, 20.745, 21.738, 23.176, 20.849, 21.885, 21.258, 21.558, 21.35, 21.514, 20.512, 21.275, 21.672, 20.715, 20.722, 21.593, 21.057, 17.419, 20.726, 20.549, 20.8, 21.335, 19.74, 18.021, 17.638, 20.681, 21.424, 17.579, 19.69, 16.465, 19.905, 16.193, 18.424, 21.38, 17.508, 22.449, 17.106, 20.975, 21.562, 21.677, 17.658, 21.13, 21.789],
  "Optimizer iterations": 68,
  "Optimizer params": [0.9251035418600558, 0.31747154661564164, 0.07335869229755257, 0.2374435461592597, 0.2859409733657525, 0.4774254242049173],
  "P": 3,
  "Problem": "MCP",
  "QPU": "7000000",
  "Qubits": 9,
  "Shots": 4096,
  "Size": 9,
  "Total Algorithm duration [s]": 1.386,
  "Total Classic duration [s]": 1.3052374,
  "Total Quantum duration [s]": 0.08076259999999996
}
