{
  "Depth": 167.0,
  "Expectation Value": -11.690140724182129,
  "Job durations [ms]": [1.1237000000000001, 1.0939999999999999, 1.0901999999999998, 1.0891, 1.0853, 1.1039999999999999, 1.2473, 1.1803, 1.0877000000000001, 1.185, 1.5086, 1.2757, 1.1264999999999998, 1.1735, 1.1855, 1.1007, 1.2665, 1.106, 1.145, 1.3079999999999998, 1.1321, 1.1127, 1.1318000000000001, 1.5928, 1.1156, 1.0808, 1.1165, 1.271, 1.2453, 1.1313, 1.1555, 1.3615000000000002, 1.4905000000000002, 1.2393, 1.0914, 1.0859999999999999, 1.0894, 1.0559, 1.157, 1.0693, 1.0510000000000002, 1.072, 1.3117, 1.0698, 1.1073000000000002, 1.0249, 1.1682000000000001, 1.1126, 1.0945, 1.4229, 1.0401, 1.0766, 1.2123, 1.0717999999999999, 1.1229, 1.0856999999999999, 1.0796000000000001, 1.0756999999999999, 1.0784, 1.0789, 1.1715, 1.0488, 1.089, 1.0725, 1.1049, 1.1014, 1.0122, 1.0962999999999998, 1.1524, 1.0309, 1.0151, 1.4196, 1.4601, 1.0259],
  "Optimal Expectation Value": -12.0,
  "Optimizer durations [ms]": [21.385, 21.384, 21.212, 19.497, 20.905, 21.366, 20.558, 20.694, 21.234, 22.284, 17.844, 21.746, 21.328, 22.165, 20.713, 20.825, 20.451, 17.449, 18.765, 21.143, 21.638, 21.265, 20.143, 21.517, 21.595, 20.261, 17.903, 14.928, 18.209, 17.434, 17.88, 18.78, 19.7, 17.336, 21.17, 20.892, 21.064, 21.002, 20.323, 17.125, 20.668, 20.559, 18.299, 17.156, 21.619, 15.795, 16.06, 19.982, 19.676, 20.585, 20.648, 19.645, 17.481, 18.899, 21.427, 20.979, 20.992, 21.046, 20.783, 17.638, 18.036, 20.826, 20.648, 17.398, 18.344, 19.103, 20.313, 30.457, 20.267, 22.722, 20.376, 18.009, 19.75, 20.396],
  "Optimizer iterations": 74,
  "Optimizer params": [0.665170440632239, 0.4446284331540056, 0.9578794152917833, 0.8858710475529037, 0.12595936985315478, 0.49202588936974945],
  "P": 3,
  "Problem": "MCP",
  "QPU": "7000000",
  "Qubits": 9,
  "Shots": 4096,
  "Size": 9,
  "Total Algorithm duration [s]": 1.479,
  "Total Classic duration [s]": 1.3936342000000002,
  "Total Quantum duration [s]": 0.0853658
}
