{
  "Depth": 113.0,
  "Expectation Value": -5.974609375,
  "Job durations [ms]": [4715.271711349487, 4834.763526916504, 4845.752716064453, 4710.190057754517, 4656.377792358398, 4728.572130203247, 4671.814918518066, 4732.650279998779, 5146.862030029297, 4828.639984130859, 4726.454734802246, 4694.172143936157, 4735.229969024658, 4764.466762542725, 4876.697778701782, 4744.873046875, 5955.502510070801, 4727.14376449585, 4817.669153213501, 4833.516836166382, 4637.452602386475, 4784.066438674927, 4778.508424758911, 4816.389560699463, 5512.8538608551025, 4799.783945083618, 4747.492551803589, 4876.869440078735, 4738.0735874176025, 4720.041275024414, 4604.850769042969, 4754.657030105591, 4692.401885986328, 4809.363842010498, 4759.8443031311035, 4705.765724182129, 4887.602090835571, 4700.981140136719, 5568.3557987213135, 4749.958038330078, 4710.555553436279, 4734.012842178345, 4735.253810882568, 4819.912672042847, 4928.666353225708, 4657.59539604187, 4696.433067321777, 4845.255374908447, 4987.221479415894, 4707.923412322998, 4647.4668979644775, 4788.357734680176, 4878.83448600769, 5680.638551712036, 4791.004180908203, 4773.534059524536, 5071.982383728027, 4776.365280151367, 4734.580755233765, 4800.573348999023, 4669.5756912231445, 4683.248281478882, 4769.501447677612, 4777.865171432495, 4665.448188781738, 4673.461198806763, 4695.7056522369385, 4814.427137374878, 4674.600601196289, 4820.432901382446, 4856.219053268433, 4779.827117919922, 4750.9307861328125, 5028.839111328125],
  "Optimal Expectation Value": -8.0,
  "Optimizer durations [ms]": [20331.024, 29080.226, 50878.002, 27210.072, 22162.726, 20735.304, 19600.103, 19916.214, 54713.029, 26175.194, 19487.062, 19433.728, 20394.048, 20006.272, 20032.608, 20517.232, 20297.15, 19022.994, 20439.486, 19138.989, 21242.189, 19318.338, 19859.95, 29993.243, 22207.61, 28160.63, 19921.539, 19588.803, 20024.353, 20610.284, 19793.414, 19567.818, 20125.516, 21202.234, 19436.0, 19299.535, 20176.366, 20347.904, 19500.172, 21072.919, 18870.406, 20294.918, 19389.539, 20923.139, 19289.957, 20505.441, 19789.377, 19731.389, 20214.551, 20416.182, 20507.521, 19116.272, 20024.146, 20127.229, 20213.612, 19704.48, 19573.988, 21507.721, 18549.939, 20168.445, 19847.546, 20638.884, 31628.2, 28175.889, 19433.727, 20051.245, 20166.463, 20368.637, 19591.242, 19964.522, 20051.871, 20808.782, 19264.493, 20581.459],
  "Optimizer iterations": 74,
  "Optimizer params": [0.8718224131823589, 0.07151256873450867, 0.6640006022224061, 0.6959700391555357, 0.9239376244114377, 0.6376279153074687],
  "P": 3,
  "Problem": "MCP",
  "QPU": "402002E",
  "Qubits": 6,
  "Shots": 4096,
  "Size": 6,
  "Total Algorithm duration [s]": 1610.511,
  "Total Classic duration [s]": 1253.6928158626556,
  "Total Quantum duration [s]": 356.81818413734436
}
