{
  "Depth": 113.0,
  "Expectation Value": -5.966796875,
  "Job durations [ms]": [4722.38826751709, 5583.751678466797, 4825.270414352417, 4608.744859695435, 4684.786319732666, 4651.754856109619, 4605.999946594238, 4750.922918319702, 4739.7661209106445, 4611.546039581299, 5715.0585651397705, 4906.392574310303, 4628.363609313965, 4637.876033782959, 4920.6578731536865, 4910.604000091553, 4669.624328613281, 5746.255397796631, 4764.245271682739, 4573.914527893066, 4853.420972824097, 4625.242710113525, 4615.760087966919, 4656.960010528564, 4641.793966293335, 4668.227434158325, 4613.229513168335, 4762.281894683838, 4812.927484512329, 4619.825124740601, 4702.315807342529, 4798.840284347534, 5521.118879318237, 4651.139736175537, 4666.562557220459, 4659.536361694336, 4818.3135986328125, 4796.8432903289795, 4608.480453491211, 5996.922492980957, 5024.6453285217285, 5044.221639633179, 5065.0811195373535, 4659.001111984253, 4648.072004318237, 4641.942977905273, 4570.497751235962, 4649.9924659729, 4772.163867950439, 4755.348205566406, 4715.277194976807, 4606.756687164307, 4813.394069671631, 4969.0375328063965, 4703.845739364624, 5214.392423629761, 4791.583061218262, 4815.112829208374, 4886.76905632019, 4713.887453079224, 4856.803178787231, 4816.6608810424805, 4765.216588973999, 5238.864183425903, 4800.326347351074, 4730.367660522461, 4925.9092807769775, 4759.197473526001, 5701.183557510376, 4986.0687255859375, 4857.731103897095, 4640.416622161865, 4696.74015045166, 4909.7535610198975, 4881.750106811523, 4769.12784576416, 5594.761610031128, 4641.303062438965, 4584.895133972168, 4713.70005607605, 4690.42444229126, 4930.125951766968, 5023.933887481689],
  "Optimal Expectation Value": -8.0,
  "Optimizer durations [ms]": [19240.212, 19574.091, 20004.136, 20130.085, 20606.774, 18676.555, 21008.351, 19732.319, 20673.161, 18814.344, 19776.316, 20374.119, 20037.391, 19625.179, 20503.896, 20235.119, 19493.204, 20500.116, 20055.866, 19455.044, 21059.913, 19783.472, 19239.846, 19825.55, 20010.472, 20765.281, 20063.734, 19431.751, 20662.239, 30347.679, 18920.219, 20441.681, 19582.723, 20390.063, 49886.367, 40138.785, 100503.545, 19262.631, 20392.16, 19350.623, 20336.394, 20029.227, 19605.198, 20442.617, 19591.041, 29078.046, 20855.155, 20795.971, 19300.47, 20272.395, 19553.185, 30165.673, 20463.377, 19429.887, 20458.008, 22250.524, 17993.055, 19395.994, 21566.313, 28938.676, 20177.042, 27937.388, 21475.639, 159933.724, 50171.088, 99952.934, 19711.476, 20330.213, 21635.267, 18281.589, 21466.844, 18542.241, 20347.98, 20031.89, 21481.637, 19175.851, 20382.606, 18693.831, 20515.934, 20238.736, 25495.522, 23464.98, 20365.379],
  "Optimizer iterations": 83,
  "Optimizer params": [0.6359540574036989, 0.44081594706722727, 0.3815305726877509, 0.25971162311320545, 0.700656233410049, 0.17970957889366954],
  "P": 3,
  "Problem": "MCP",
  "QPU": "402002E",
  "Qubits": 6,
  "Shots": 4096,
  "Size": 6,
  "Total Algorithm duration [s]": 2098.906,
  "Total Classic duration [s]": 1696.9820498046874,
  "Total Quantum duration [s]": 401.9239501953125
}
