{
  "Circuit execution durations [ms]": [149.55222606658936, 154.38199043273926, 150.47240257263184, 150.1917839050293, 153.95677089691162, 331.50792121887207, 150.13718605041504, 149.9311923980713, 149.56021308898926, 148.115873336792, 152.96947956085205, 150.53808689117432, 309.36896800994873, 153.1134843826294, 167.37747192382813, 156.42249584197998, 312.61909008026123, 149.0938663482666, 153.4554958343506, 159.04581546783447, 152.12810039520264, 148.44560623168945, 161.24868392944336, 152.94599533081055, 165.94135761260986, 146.19934558868408, 156.18479251861572, 458.17291736602783, 156.78715705871582, 146.9705104827881, 152.31025218963623, 163.0866527557373, 157.61876106262207, 324.22196865081787, 144.66869831085205, 144.8664665222168, 148.54872226715088, 150.43747425079346, 148.33319187164307, 149.70815181732178, 154.90972995758057, 146.10743522644043, 154.24025058746338, 164.25371170043945, 149.85966682434082, 156.36050701141357, 152.15981006622314, 156.63635730743408, 153.83601188659668, 147.30286598205566, 307.77764320373535, 149.70993995666504, 165.46738147735596, 156.29780292510986, 143.88644695281982, 303.1909465789795, 150.1065492630005, 309.7379207611084, 146.44145965576172, 159.91270542144775, 152.44948863983154, 155.6321382522583, 162.12832927703857, 148.77009391784668, 151.39567852020264, 317.22021102905273, 150.925874710083, 151.8162488937378, 158.69390964508057, 311.0436201095581, 145.00832557678223, 177.06060409545898, 155.13384342193604, 160.50219535827637, 151.95119380950928, 157.1289300918579, 154.32822704315186, 158.79583358764648, 155.40242195129395, 162.59348392486572, 311.07544898986816, 178.2282590866089, 146.46828174591064, 153.48327159881592, 152.26995944976807, 158.44190120697021, 165.89117050170898, 307.0918321609497, 157.73797035217285, 165.0904417037964, 163.871169090271, 157.10115432739258, 149.3915319442749, 310.47630310058594, 151.5657901763916, 152.9562473297119, 151.67999267578125, 150.58863162994385, 153.7395715713501, 164.13545608520508, 321.18844985961914, 308.43889713287354, 146.9801664352417, 154.56759929656982, 297.92559146881104, 157.7627658843994, 150.20668506622314, 149.94919300079346, 302.6163578033447, 164.0411615371704, 153.59842777252197, 155.42662143707275, 168.12491416931152, 152.99534797668457, 153.50520610809326, 147.10795879364014, 150.7798433303833, 144.80209350585938, 154.89745140075684, 164.57021236419678, 300.2525568008423, 307.47997760772705, 307.9451322555542, 155.14659881591797, 155.1361083984375, 156.59058094024658, 167.2346591949463, 155.359148979187, 320.5444812774658, 150.24256706237793, 311.58411502838135, 145.21026611328125, 152.84037590026855, 154.56700325012207, 312.1223449707031, 151.8685817718506, 154.83856201171875, 310.1034164428711, 165.11130332946777, 154.4320583343506, 148.41032028198242, 315.7777786254883, 311.9022846221924, 160.93242168426514, 304.16011810302734, 155.95567226409912, 152.01175212860107, 170.09234428405762, 152.85539627075195, 156.69238567352295, 152.68170833587646, 162.59276866912842, 156.17430210113525, 148.4907865524292, 147.3902463912964, 152.8923511505127, 155.40099143981934, 319.5810317993164, 147.35925197601318, 155.295729637146, 155.7224988937378, 151.22723579406738, 162.12427616119385, 147.13025093078613, 152.18865871429443, 152.17912197113037, 168.06113719940186, 149.8011350631714, 152.05204486846924, 146.70932292938232, 162.9425287246704, 301.79107189178467, 145.46597003936768, 142.46904850006104, 143.68116855621338, 142.01867580413818, 148.47791194915771, 141.66712760925293, 139.48988914489746, 144.7962522506714, 297.6895570755005, 292.19913482666016, 138.9673948287964, 136.05475425720215, 138.94104957580566, 152.6886224746704, 290.94457626342773, 141.21603965759277, 143.9441442489624, 143.13232898712158, 137.3234987258911, 141.2585973739624, 140.52176475524902, 144.82009410858154, 144.81818675994873, 160.05825996398926, 151.78871154785156, 141.42262935638428, 137.94338703155518, 144.01686191558838, 143.00131797790527, 135.80429553985596, 142.63379573822021, 293.5028076171875, 151.9765853881836, 292.7447557449341, 301.48017406463623, 138.70596885681152, 142.90618896484375, 136.56914234161377, 136.67714595794678, 137.7466917037964, 141.48545265197754, 300.82881450653076, 152.6341438293457, 144.01531219482422, 140.13659954071045, 288.8026237487793, 136.43395900726318, 146.25823497772217, 297.487735748291, 141.03877544403076, 140.48433303833008, 157.5150489807129, 142.11320877075195, 137.3152732849121, 141.66009426116943, 295.612096786499, 139.27936553955078, 136.94119453430176, 143.3960199356079, 136.36600971221924, 142.29416847229004, 151.88682079315186, 299.5138168334961, 292.7358150482178, 151.07786655426025, 141.52908325195313, 139.8634910583496, 137.52639293670654, 143.13209056854248, 136.00599765777588, 148.69165420532227, 138.6946439743042, 143.79513263702393, 145.746111869812, 144.67215538024902, 139.7796869277954, 138.60714435577393, 138.64445686340332, 140.94889163970947, 143.49424839019775, 151.414155960083, 144.311785697937, 140.78223705291748, 138.31377029418945, 141.07704162597656, 139.1972303390503, 139.08398151397705, 148.35965633392334, 138.4958028793335, 153.2672643661499, 139.69111442565918, 140.91575145721436, 138.71967792510986, 137.15600967407227, 137.28368282318115, 140.62249660491943, 137.154221534729, 136.78383827209473, 139.33181762695313, 328.8991451263428, 139.58191871643066, 157.4798822402954, 148.4396457672119, 140.4937505722046, 293.9540147781372, 141.16215705871582, 291.0196781158447, 141.51513576507568, 307.74903297424316, 141.50238037109375, 140.69902896881104, 139.16337490081787, 138.6624574661255, 137.3007297515869, 294.49462890625, 136.66462898254395, 137.0152235031128, 132.7078342437744, 155.56371212005615, 135.3670358657837, 141.49904251098633, 141.5032148361206, 143.12469959259033, 137.44938373565674, 139.3904685974121, 142.14837551116943, 138.7573480606079, 151.1629819869995, 143.64373683929443, 134.33074951171875, 148.02849292755127, 139.5496129989624, 135.75470447540283, 136.6724967956543, 137.3997926712036, 138.5972499847412, 137.57479190826416, 150.0222682952881, 138.10420036315918, 135.56241989135742, 140.09201526641846, 137.6969814300537, 135.109543800354, 134.94300842285156, 136.76416873931885, 145.22302150726318, 149.8429775238037, 293.64490509033203, 138.52787017822266, 137.55857944488525, 139.05251026153564, 138.8847827911377, 138.36443424224854, 291.9149398803711, 139.6239995956421, 141.64161682128906, 152.49276161193848, 141.98756217956543, 292.1137809753418, 137.16328144073486, 135.7593536376953, 145.9289789199829, 143.36073398590088, 137.2990608215332],
  "Depth": 12.5,
  "Expectation Value": -5.654296875,
  "Optimal Expectation Value": -6.026674270629883,
  "Optimizer durations [ms]": [2474.501, 2396.984, 2435.788, 2426.07, 2407.522, 2751.708, 2398.659, 2380.42, 2352.593, 2380.332, 2461.33, 2460.82, 2757.429, 2416.545, 2469.058, 2450.09, 2757.869, 2430.524, 2431.876, 2486.399, 2414.564, 2400.616, 2502.239, 2438.138, 2461.664, 2404.772, 2521.249, 3057.041, 2461.571, 2432.453, 2437.743, 2467.051, 2418.854, 2761.513, 2365.654, 2372.402, 2370.836, 2398.56, 2381.923, 2419.288, 2396.294, 2366.198, 2434.024, 2413.825, 2401.877, 2429.169, 2413.11, 2410.907, 2450.909, 2402.876, 2746.728, 2399.129, 2476.088, 2387.575, 2359.78, 2716.317, 2404.867, 2761.492, 2394.698, 2495.473, 2386.984, 2396.383, 2429.838, 2384.213, 2427.353, 2760.909, 2428.288, 2441.074, 2422.369, 2772.21, 2351.408, 2533.746, 2485.278, 2435.173, 2433.871, 2448.286, 2455.072, 2462.17, 2454.171, 2496.478, 2748.587, 2502.332, 2399.005, 2411.768, 2449.626, 2414.175, 2517.315, 2727.927, 2447.274, 2460.341, 2463.531, 2463.999, 2425.719, 2789.874, 2477.534, 2435.938, 2431.053, 2420.529, 2412.759, 2460.877, 2779.683, 2773.588, 2401.145, 2415.04, 2692.396, 2476.201, 2399.248, 2381.79, 2684.146, 2393.492, 2406.35, 2462.881, 2485.878, 2401.049, 2422.213, 2439.607, 2379.089, 2370.396, 2390.572, 2433.659, 2676.84, 2710.109, 2771.552, 2441.035, 2413.805, 2408.216, 2494.443, 2429.099, 2735.654, 2398.066, 2732.919, 2371.937, 2411.927, 2474.791, 2753.589, 2436.795, 2419.687, 2752.228, 2447.778, 2440.123, 2418.221, 2778.541, 2792.917, 2495.856, 2711.746, 2456.524, 2461.788, 2457.702, 2402.484, 2418.484, 2428.504, 2430.9, 2449.655, 2396.717, 2382.664, 2452.1, 2449.711, 2752.759, 2418.807, 2455.479, 2454.139, 2414.041, 2501.867, 2416.035, 2430.095, 2399.497, 2430.587, 2398.892, 2557.723, 2338.352, 2308.475, 2645.098, 2272.587, 2207.93, 2272.147, 2213.283, 2214.639, 2189.391, 2179.553, 2227.917, 2518.981, 2536.253, 2224.637, 2177.255, 2187.334, 2245.958, 2529.802, 2212.342, 2252.096, 2236.566, 2219.338, 2228.701, 2204.362, 2234.558, 2219.523, 2297.757, 2263.09, 2222.724, 2216.732, 2269.554, 2264.906, 2209.571, 2207.69, 2490.882, 2219.829, 2496.514, 2533.296, 2190.442, 2186.953, 2201.346, 2184.753, 2171.839, 2182.195, 2535.849, 2243.476, 2197.53, 2194.92, 2493.202, 2175.549, 2269.228, 2512.339, 2208.423, 2199.412, 2263.795, 2200.939, 2178.723, 2226.844, 2519.531, 2225.668, 2192.489, 2211.691, 2174.924, 2204.553, 2201.862, 2511.885, 2535.771, 2240.499, 2192.599, 2227.177, 2199.761, 2196.959, 2187.625, 2201.044, 2185.539, 2219.839, 2215.404, 2199.444, 2226.544, 2202.043, 2219.428, 2186.239, 2228.637, 2219.348, 2248.541, 2249.519, 2196.747, 2209.773, 2226.284, 2211.673, 2222.648, 2247.062, 2240.34, 2194.452, 2203.578, 2201.684, 2182.576, 2205.081, 2205.236, 2171.41, 2166.463, 2173.092, 2653.607, 2235.162, 2340.78, 2341.693, 2383.449, 2539.792, 2206.074, 2485.315, 2201.679, 2526.779, 2206.005, 2237.18, 2169.327, 2175.5, 2182.476, 2493.022, 2153.533, 2162.16, 2164.828, 2218.257, 2164.607, 2178.829, 2181.387, 2192.92, 2209.953, 2166.039, 2185.812, 2167.104, 2196.524, 2187.256, 2149.668, 2202.516, 2171.474, 2188.254, 2166.673, 2188.066, 2189.932, 2179.391, 2217.296, 2173.207, 2157.758, 2173.75, 2170.002, 2192.826, 2175.026, 2168.812, 2184.755, 2189.369, 2475.954, 2173.685, 2156.419, 2190.66, 2198.407, 2168.888, 2454.12, 2155.965, 2186.055, 2210.082, 2193.135, 2478.895, 2182.29, 2171.594, 2218.936, 2185.678, 2172.876],
  "Optimizer iterations": 336,
  "Optimizer params": [0.5702559036373419, 0.9319343722099858, 0.054008557641439775, 0.9682421192570695, 0.9986134821222024, 0.9388153268324335, 0.1759739368862476, 0.6637669926716364, 0.9675207202365743, 0.888248714360868, 0.5276342693800277, 0.45110000801167277, 0.9946395608716575, 0.9976606754168208, 0.9382291123139498, 0.46526547876270685, 0.9513549558269686, 0.847596851336834, 0.5632200241474687, 0.8700637437217099],
  "P": 0,
  "Problem": "IC",
  "QJob durations [ms]": [1218.2132005691528, 1177.9907941818237, 1199.5092630386353, 1194.244146347046, 1185.483694076538, 1358.097791671753, 1180.2875995635986, 1171.1102724075317, 1157.9209566116333, 1173.1317043304443, 1210.9861373901367, 1212.7978801727295, 1359.926700592041, 1189.8419857025146, 1216.0322666168213, 1207.979679107666, 1360.274314880371, 1198.5466480255127, 1197.076916694641, 1223.487377166748, 1187.7793073654175, 1180.160641670227, 1233.4885597229004, 1197.433590888977, 1211.951494216919, 1183.3398342132568, 1243.2770729064941, 1509.9550485610962, 1213.562250137329, 1197.8437900543213, 1200.7173299789429, 1214.7903442382813, 1190.3802156448364, 1362.4073266983032, 1166.3422584533691, 1167.4041748046875, 1168.1188344955444, 1179.9331903457642, 1173.4243631362915, 1192.1226978302002, 1178.67112159729, 1166.1964654922485, 1197.076678276062, 1189.1024112701416, 1183.5967302322388, 1195.6911087036133, 1184.0788125991821, 1187.3111724853516, 1207.4381113052368, 1184.5496892929077, 1355.871319770813, 1181.594967842102, 1220.6834554672241, 1175.6794452667236, 1161.3123416900635, 1341.4490222930908, 1185.7162714004517, 1362.8172874450684, 1179.1949272155762, 1227.0574569702148, 1177.049160003662, 1181.255578994751, 1196.807861328125, 1173.6409664154053, 1194.6910619735718, 1360.953450202942, 1195.259690284729, 1201.863408088684, 1191.7816400527954, 1367.3721551895142, 1157.3892831802368, 1243.6712980270386, 1223.3233451843262, 1198.7535953521729, 1199.6731758117676, 1204.8542499542236, 1206.829309463501, 1213.6671543121338, 1208.9602947235107, 1228.571057319641, 1354.2561531066895, 1232.3668003082275, 1181.6718578338623, 1185.6861114501953, 1203.1686305999756, 1187.9844665527344, 1237.5097274780273, 1344.0048694610596, 1204.4516801834106, 1213.457703590393, 1212.3949527740479, 1214.6127223968506, 1193.827509880066, 1374.0025758743286, 1219.947099685669, 1197.9702711105347, 1196.4346170425415, 1192.4943923950195, 1184.0574741363525, 1211.358904838562, 1370.7729578018188, 1368.8580989837646, 1182.4162006378174, 1190.3544664382935, 1327.8824090957642, 1218.043327331543, 1180.5193424224854, 1171.9386577606201, 1323.9495754241943, 1178.8643598556519, 1184.9324703216553, 1213.4336233139038, 1224.6662378311157, 1181.258201599121, 1191.8874979019165, 1200.479507446289, 1170.4444885253906, 1167.184591293335, 1175.079345703125, 1198.474407196045, 1319.203495979309, 1336.472749710083, 1368.7833547592163, 1200.7429599761963, 1188.6087656021118, 1186.1495971679688, 1224.7363328933716, 1196.5733766555786, 1349.4454622268677, 1180.6628704071045, 1346.767783164978, 1166.4083003997803, 1185.675859451294, 1215.5344486236572, 1357.7078580856323, 1198.9660263061523, 1191.166877746582, 1358.863353729248, 1204.6127319335938, 1201.1948823928833, 1189.2523765563965, 1371.0055351257324, 1378.3174753189087, 1224.5067358016968, 1336.9847536087036, 1210.066556930542, 1211.4927768707275, 1211.3465070724487, 1184.0741634368896, 1191.5632486343384, 1194.2529678344727, 1197.1744298934937, 1206.9295644760132, 1180.6749105453491, 1171.5112924575806, 1208.858847618103, 1204.2949199676514, 1357.5087785720825, 1191.1860704421997, 1207.6618671417236, 1208.4306478500366, 1189.3949508666992, 1232.9243421554565, 1185.6930255889893, 1195.2770948410034, 1182.4461221694946, 1197.5715160369873, 1179.2080402374268, 1256.3163042068481, 1150.328516960144, 1133.4081888198853, 1305.1618337631226, 1119.7073459625244, 1087.3444080352783, 1116.537094116211, 1089.7047519683838, 1090.7249450683594, 1078.1437158584595, 1073.099970817566, 1097.2098112106323, 1242.6074743270874, 1251.0603666305542, 1095.1240062713623, 1072.118878364563, 1076.9829750061035, 1106.031060218811, 1247.8095293045044, 1089.267373085022, 1109.1116666793823, 1101.654291152954, 1092.6631689071655, 1097.760558128357, 1085.7763290405273, 1100.2578735351563, 1092.9980278015137, 1132.1418285369873, 1114.4229173660278, 1094.2966938018799, 1091.2154912948608, 1117.8712844848633, 1115.0718927383423, 1088.1248712539673, 1087.070345878601, 1228.6553382873535, 1093.575358390808, 1231.4053773880005, 1247.0484972000122, 1078.6473751068115, 1076.425552368164, 1083.8018655776978, 1075.3099918365479, 1069.451093673706, 1074.1209983825684, 1251.1966228485107, 1104.8609018325806, 1082.0571184158325, 1080.7056427001953, 1229.7441959381104, 1070.806384086609, 1117.896318435669, 1239.413857460022, 1087.4849557876587, 1082.802176475525, 1115.2007579803467, 1083.2184553146362, 1072.5889205932617, 1096.7328548431396, 1242.700457572937, 1095.7337617874146, 1079.3921947479248, 1089.4311666488647, 1070.601463317871, 1082.654595375061, 1084.3244791030884, 1239.1530275344849, 1250.878930091858, 1103.2522916793823, 1079.5307159423828, 1096.6802835464478, 1083.3569765090942, 1081.4011096954346, 1076.9046545028687, 1083.7048292160034, 1076.2664079666138, 1092.936635017395, 1089.5041227340698, 1083.0649137496948, 1096.4596271514893, 1083.9464664459229, 1093.0203199386597, 1076.2478113174438, 1097.4096059799194, 1093.268632888794, 1106.882095336914, 1107.8554391860962, 1081.7254781723022, 1087.937831878662, 1096.2117910385132, 1089.0241861343384, 1094.5072174072266, 1106.6762208938599, 1103.5431623458862, 1080.2708864212036, 1083.7079286575317, 1083.8323831558228, 1074.6114253997803, 1085.5627059936523, 1085.9731435775757, 1069.0808296203613, 1066.524624824524, 1069.3254470825195, 1308.8582754135132, 1100.7039546966553, 1152.5036096572876, 1153.3303260803223, 1174.505352973938, 1253.125786781311, 1085.5212211608887, 1225.5841493606567, 1083.6942195892334, 1246.5447187423706, 1085.724115371704, 1101.8320322036743, 1067.957878112793, 1070.9670782089233, 1074.4225978851318, 1229.6398878097534, 1060.1807832717896, 1064.4773244857788, 1065.7217502593994, 1092.3657417297363, 1065.6418800354004, 1072.6239681243896, 1074.1851329803467, 1079.584002494812, 1088.297724723816, 1066.3080215454102, 1075.6969451904297, 1066.879153251648, 1081.487774848938, 1077.0528316497803, 1058.079719543457, 1084.4589471817017, 1069.1510438919067, 1077.3372650146484, 1066.4293766021729, 1077.3502588272095, 1078.137993812561, 1072.7678537368774, 1091.8985605239868, 1069.669246673584, 1062.233567237854, 1070.2766180038452, 1068.2722330093384, 1079.2826414108276, 1071.1133480072021, 1067.9194927215576, 1075.6090879440308, 1077.5766372680664, 1221.3549613952637, 1070.1014995574951, 1061.6713762283325, 1078.80437374115, 1082.6200246810913, 1067.801833152771, 1210.4421854019165, 1061.215877532959, 1075.7869482040405, 1088.4100198745728, 1079.626441001892, 1222.6579189300537, 1074.4898319244385, 1068.9646005630493, 1092.5103425979614, 1076.1895179748535, 1069.8716640472412],
  "QPU": "6010013",
  "Qubits": 5,
  "Queue durations [ms]": [0.0, 0.0, 0.0, 0.0, 0.0, 0.0, 0.0, 0.0, 0.0, 0.0, 0.0, 0.0, 0.0, 0.0, 0.0, 0.0, 0.0, 0.0, 0.0, 0.0, 0.0, 0.0, 0.0, 0.0, 0.0, 0.0, 0.0, 0.0, 0.0, 0.0, 0.0, 0.0, 0.0, 0.0, 0.0, 0.0, 0.0, 0.0, 0.0, 0.0, 0.0, 0.0, 0.0, 0.0, 0.0, 0.0, 0.0, 0.0, 0.0, 0.0, 0.0, 0.0, 0.0, 0.0, 0.0, 0.0, 0.0, 0.0, 0.0, 0.0, 0.0, 0.0, 0.0, 0.0, 0.0, 0.0, 0.0, 0.0, 0.0, 0.0, 0.0, 0.0, 0.0, 0.0, 0.0, 0.0, 0.0, 0.0, 0.0, 0.0, 0.0, 0.0, 0.0, 0.0, 0.0, 0.0, 0.0, 0.0, 0.0, 0.0, 0.0, 0.0, 0.0, 0.0, 0.0, 0.0, 0.0, 0.0, 0.0, 0.0, 0.0, 0.0, 0.0, 0.0, 0.0, 0.0, 0.0, 0.0, 0.0, 0.0, 0.0, 0.0, 0.0, 0.0, 0.0, 0.0, 0.0, 0.0, 0.0, 0.0, 0.0, 0.0, 0.0, 0.0, 0.0, 0.0, 0.0, 0.0, 0.0, 0.0, 0.0, 0.0, 0.0, 0.0, 0.0, 0.0, 0.0, 0.0, 0.0, 0.0, 0.0, 0.0, 0.0, 0.0, 0.0, 0.0, 0.0, 0.0, 0.0, 0.0, 0.0, 0.0, 0.0, 0.0, 0.0, 0.0, 0.0, 0.0, 0.0, 0.0, 0.0, 0.0, 0.0, 0.0, 0.0, 0.0, 0.0, 0.0, 0.0, 0.0, 0.0, 0.0, 0.0, 0.0, 0.0, 0.0, 0.0, 0.0, 0.0, 0.0, 0.0, 0.0, 0.0, 0.0, 0.0, 0.0, 0.0, 0.0, 0.0, 0.0, 0.0, 0.0, 0.0, 0.0, 0.0, 0.0, 0.0, 0.0, 0.0, 0.0, 0.0, 0.0, 0.0, 0.0, 0.0, 0.0, 0.0, 0.0, 0.0, 0.0, 0.0, 0.0, 0.0, 0.0, 0.0, 0.0, 0.0, 0.0, 0.0, 0.0, 0.0, 0.0, 0.0, 0.0, 0.0, 0.0, 0.0, 0.0, 0.0, 0.0, 0.0, 0.0, 0.0, 0.0, 0.0, 0.0, 0.0, 0.0, 0.0, 0.0, 0.0, 0.0, 0.0, 0.0, 0.0, 0.0, 0.0, 0.0, 0.0, 0.0, 0.0, 0.0, 0.0, 0.0, 0.0, 0.0, 0.0, 0.0, 0.0, 0.0, 0.0, 0.0, 0.0, 0.0, 0.0, 0.0, 0.0, 0.0, 0.0, 0.0, 0.0, 0.0, 0.0, 0.0, 0.0, 0.0, 0.0, 0.0, 0.0, 0.0, 0.0, 0.0, 0.0, 0.0, 0.0, 0.0, 0.0, 0.0, 0.0, 0.0, 0.0, 0.0, 0.0, 0.0, 0.0, 0.0, 0.0, 0.0, 0.0, 0.0, 0.0, 0.0, 0.0, 0.0, 0.0, 0.0, 0.0, 0.0, 0.0, 0.0, 0.0, 0.0, 0.0, 0.0, 0.0, 0.0, 0.0, 0.0, 0.0, 0.0, 0.0, 0.0, 0.0, 0.0, 0.0, 0.0, 0.0, 0.0, 0.0, 0.0, 0.0, 0.0, 0.0, 0.0, 0.0, 0.0],
  "Shots": 4096,
  "Size": 5,
  "Total Algorithm duration [s]": 795.074,
  "Total Classic duration [s]": 403.54133069419856,
  "Total Quantum duration [s]": 391.5326693058014
}
