{
  "Circuit execution durations [ms]": [14.10055160522461, 14.274954795837402, 14.257431030273438, 14.147520065307617, 14.278292655944824, 14.251708984375, 14.151453971862793, 14.256954193115234, 14.406442642211914, 14.138340950012207, 47.82974720001221, 14.124274253845215, 14.1526460647583, 14.268875122070313, 14.288783073425293, 14.335155487060547, 14.229297637939453, 14.29891586303711, 14.222502708435059, 14.235854148864746, 14.178633689880371, 14.234304428100586, 14.252185821533203, 14.113664627075195, 14.107942581176758, 47.36685752868652, 14.186620712280273, 14.124512672424316, 14.055967330932617, 14.2594575881958, 14.160752296447754, 14.209747314453125, 14.242768287658691, 14.227747917175293, 14.168977737426758],
  "Depth": 2.0,
  "Expectation Value": -1.410658597946167,
  "Optimal Expectation Value": -1.4114999771118164,
  "Optimizer durations [ms]": [30.056, 30.417, 30.312, 30.174, 30.408, 30.318, 30.024, 30.363, 30.637, 30.146, 97.529, 30.042, 30.127, 30.288, 30.437, 30.635, 30.275, 30.416, 30.204, 30.332, 30.161, 30.311, 30.257, 30.049, 29.922, 96.632, 30.197, 30.005, 29.873, 30.294, 30.128, 30.211, 30.233, 30.273, 30.083],
  "Optimizer iterations": 35,
  "Optimizer params": [0.32162093974720574, 0.1588515038673935],
  "P": 0,
  "Problem": "RH",
  "QJob durations [ms]": [14.10055160522461, 14.274954795837402, 14.257431030273438, 14.147520065307617, 14.278292655944824, 14.251708984375, 14.151453971862793, 14.256954193115234, 14.406442642211914, 14.138340950012207, 47.82974720001221, 14.124274253845215, 14.1526460647583, 14.268875122070313, 14.288783073425293, 14.335155487060547, 14.229297637939453, 14.29891586303711, 14.222502708435059, 14.235854148864746, 14.178633689880371, 14.234304428100586, 14.252185821533203, 14.113664627075195, 14.107942581176758, 47.36685752868652, 14.186620712280273, 14.124512672424316, 14.055967330932617, 14.2594575881958, 14.160752296447754, 14.209747314453125, 14.242768287658691, 14.227747917175293, 14.168977737426758],
  "QPU": "9000001",
  "Qubits": 2,
  "Queue durations [ms]": [0.0, 0.0, 0.0, 0.0, 0.0, 0.0, 0.0, 0.0, 0.0, 0.0, 0.0, 0.0, 0.0, 0.0, 0.0, 0.0, 0.0, 0.0, 0.0, 0.0, 0.0, 0.0, 0.0, 0.0, 0.0, 0.0, 0.0, 0.0, 0.0, 0.0, 0.0, 0.0, 0.0, 0.0, 0.0],
  "Shots": 4096,
  "Size": 2,
  "Total Algorithm duration [s]": 1.191,
  "Total Classic duration [s]": 0.6268601570129395,
  "Total Quantum duration [s]": 0.5641398429870605
}
