{
  "Circuit execution durations [ms]": [2.312, 2.2721, 2.3038999999999996, 2.348, 2.2803, 2.2786999999999997, 2.2861000000000002, 2.3035, 2.2995, 2.3082, 2.3270999999999997, 2.3407, 2.2981, 2.2785, 2.0490999999999997, 2.2762, 2.0427, 2.2782, 2.3841, 2.3654, 2.2737, 2.3004000000000002, 2.3852, 2.3199, 2.3159, 2.2981, 2.3161, 2.3145000000000002, 2.2688, 2.2811, 2.2976, 2.2735, 2.2883999999999998, 2.2841, 2.299, 2.2786999999999997, 2.2929999999999997, 2.2633, 2.2948, 2.3156000000000003, 2.2880000000000003, 2.3098, 2.5052, 2.4151, 2.3015000000000003, 2.2916999999999996, 2.2963, 2.3056, 2.2969, 2.2943, 2.3513, 2.3313, 2.2992, 2.3228, 2.2796000000000003, 2.2729999999999997, 2.3078, 2.2996000000000003, 2.2668, 2.3026, 2.3005, 2.3097, 2.3512, 2.2775, 2.2522, 2.3049, 2.2870999999999997, 2.3443, 2.3163, 2.3133, 2.31, 2.2935999999999996],
  "Depth": 275.0,
  "Expectation Value": -20.0,
  "Optimal Expectation Value": -22.0,
  "Optimizer durations [ms]": [30.491, 29.961, 30.519, 30.405, 30.112, 30.022, 30.159, 30.207, 29.861, 30.199, 30.233, 30.262, 30.095, 30.206, 37.353, 33.102, 37.189, 29.757, 31.059, 36.958, 29.969, 30.338, 31.161, 30.459, 30.377, 30.172, 30.458, 30.17, 29.923, 29.966, 30.041, 30.132, 30.06, 29.811, 30.197, 29.875, 29.956, 29.936, 30.241, 30.22, 30.011, 30.384, 32.285, 36.51, 30.168, 30.036, 30.31, 30.409, 30.219, 30.195, 30.577, 30.609, 30.358, 30.552, 30.085, 30.033, 30.359, 30.3, 29.985, 30.164, 30.065, 30.29, 30.618, 29.953, 29.653, 30.542, 30.021, 30.826, 30.258, 30.451, 30.431, 30.256],
  "Optimizer iterations": 72,
  "Optimizer params": [0.9668554326520856, 0.2637294561851528, 0.930448272199034, 0.39139098338216594, 0.7821303411951899, 0.6232138663822044],
  "P": 3,
  "Problem": "MCP",
  "QJob durations [ms]": [2.312, 2.2721, 2.3038999999999996, 2.348, 2.2803, 2.2786999999999997, 2.2861000000000002, 2.3035, 2.2995, 2.3082, 2.3270999999999997, 2.3407, 2.2981, 2.2785, 2.0490999999999997, 2.2762, 2.0427, 2.2782, 2.3841, 2.3654, 2.2737, 2.3004000000000002, 2.3852, 2.3199, 2.3159, 2.2981, 2.3161, 2.3145000000000002, 2.2688, 2.2811, 2.2976, 2.2735, 2.2883999999999998, 2.2841, 2.299, 2.2786999999999997, 2.2929999999999997, 2.2633, 2.2948, 2.3156000000000003, 2.2880000000000003, 2.3098, 2.5052, 2.4151, 2.3015000000000003, 2.2916999999999996, 2.2963, 2.3056, 2.2969, 2.2943, 2.3513, 2.3313, 2.2992, 2.3228, 2.2796000000000003, 2.2729999999999997, 2.3078, 2.2996000000000003, 2.2668, 2.3026, 2.3005, 2.3097, 2.3512, 2.2775, 2.2522, 2.3049, 2.2870999999999997, 2.3443, 2.3163, 2.3133, 2.31, 2.2935999999999996],
  "QPU": "7000000",
  "Qubits": 15,
  "Queue durations [ms]": [0.0, 0.0, 0.0, 0.0, 0.0, 0.0, 0.0, 0.0, 0.0, 0.0, 0.0, 0.0, 0.0, 0.0, 0.0, 0.0, 0.0, 0.0, 0.0, 0.0, 0.0, 0.0, 0.0, 0.0, 0.0, 0.0, 0.0, 0.0, 0.0, 0.0, 0.0, 0.0, 0.0, 0.0, 0.0, 0.0, 0.0, 0.0, 0.0, 0.0, 0.0, 0.0, 0.0, 0.0, 0.0, 0.0, 0.0, 0.0, 0.0, 0.0, 0.0, 0.0, 0.0, 0.0, 0.0, 0.0, 0.0, 0.0, 0.0, 0.0, 0.0, 0.0, 0.0, 0.0, 0.0, 0.0, 0.0, 0.0, 0.0, 0.0, 0.0, 0.0],
  "Shots": 4096,
  "Size": 15,
  "Total Algorithm duration [s]": 2.208,
  "Total Classic duration [s]": 2.0424069,
  "Total Quantum duration [s]": 0.1655931
}
