{
  "Circuit execution durations [ms]": [2.284, 2.2773, 2.2839, 2.2564, 2.2578, 2.2786999999999997, 2.2929999999999997, 2.3406, 2.2855000000000003, 2.284, 2.2721, 2.2764, 2.2817, 2.4074, 2.3558, 2.2811, 2.2823, 2.3055, 2.2954999999999997, 2.3205, 2.286, 2.2607, 2.2973, 2.2721, 2.2504999999999997, 2.2625, 2.2714, 2.2745, 2.2675, 2.2719, 2.307, 2.2745, 2.3274, 2.3028, 2.3485, 2.2997, 2.2782, 2.3093, 2.2561999999999998, 2.3011, 2.3049, 2.2801, 2.2887, 2.2546, 2.2873, 2.3038999999999996, 2.305, 2.3485, 2.3202000000000003, 2.2944, 2.3497000000000003, 2.2586, 2.2715, 2.0382, 2.2856, 2.3795, 2.3717, 2.2959, 2.2910999999999997, 2.3084],
  "Depth": 275.0,
  "Expectation Value": -20.454545974731445,
  "Optimal Expectation Value": -22.0,
  "Optimizer durations [ms]": [29.968, 30.178, 30.025, 29.804, 29.777, 30.209, 30.319, 30.701, 30.086, 30.337, 29.918, 30.058, 30.216, 31.586, 36.565, 30.055, 30.176, 30.291, 30.04, 30.614, 29.854, 29.812, 30.218, 29.853, 29.485, 29.913, 30.082, 30.114, 29.881, 30.149, 30.336, 29.859, 30.287, 30.027, 30.883, 30.316, 30.058, 30.145, 29.69, 30.322, 30.187, 30.009, 29.986, 29.775, 29.941, 30.134, 30.42, 30.823, 30.614, 29.984, 30.908, 34.887, 31.288, 37.345, 29.952, 31.21, 36.677, 30.309, 30.158, 30.349],
  "Optimizer iterations": 60,
  "Optimizer params": [0.8126680551854912, 0.6539080950648926, 0.5499133938422651, 0.4530340313381255, 0.3842918176490124, 0.32711049914360046],
  "P": 3,
  "Problem": "MCP",
  "QJob durations [ms]": [2.284, 2.2773, 2.2839, 2.2564, 2.2578, 2.2786999999999997, 2.2929999999999997, 2.3406, 2.2855000000000003, 2.284, 2.2721, 2.2764, 2.2817, 2.4074, 2.3558, 2.2811, 2.2823, 2.3055, 2.2954999999999997, 2.3205, 2.286, 2.2607, 2.2973, 2.2721, 2.2504999999999997, 2.2625, 2.2714, 2.2745, 2.2675, 2.2719, 2.307, 2.2745, 2.3274, 2.3028, 2.3485, 2.2997, 2.2782, 2.3093, 2.2561999999999998, 2.3011, 2.3049, 2.2801, 2.2887, 2.2546, 2.2873, 2.3038999999999996, 2.305, 2.3485, 2.3202000000000003, 2.2944, 2.3497000000000003, 2.2586, 2.2715, 2.0382, 2.2856, 2.3795, 2.3717, 2.2959, 2.2910999999999997, 2.3084],
  "QPU": "7000000",
  "Qubits": 15,
  "Queue durations [ms]": [0.0, 0.0, 0.0, 0.0, 0.0, 0.0, 0.0, 0.0, 0.0, 0.0, 0.0, 0.0, 0.0, 0.0, 0.0, 0.0, 0.0, 0.0, 0.0, 0.0, 0.0, 0.0, 0.0, 0.0, 0.0, 0.0, 0.0, 0.0, 0.0, 0.0, 0.0, 0.0, 0.0, 0.0, 0.0, 0.0, 0.0, 0.0, 0.0, 0.0, 0.0, 0.0, 0.0, 0.0, 0.0, 0.0, 0.0, 0.0, 0.0, 0.0, 0.0, 0.0, 0.0, 0.0, 0.0, 0.0, 0.0, 0.0, 0.0, 0.0],
  "Shots": 4096,
  "Size": 15,
  "Total Algorithm duration [s]": 1.837,
  "Total Classic duration [s]": 1.6995236,
  "Total Quantum duration [s]": 0.13747640000000005
}
