{
  "Circuit execution durations [ms]": [2.2943, 2.2912000000000003, 2.2783, 2.3209, 2.2999, 2.2755, 2.2634, 2.2920000000000003, 1.4477, 2.2967999999999997, 1.4517, 1.4554, 2.2864, 1.4836, 2.1088999999999998, 1.4996, 2.2682, 1.4444, 2.2747, 1.4301, 2.286, 2.2815000000000003, 2.2723, 1.436, 2.2922, 1.4387, 2.2783, 1.4258000000000002, 1.4395, 1.4338, 2.3064999999999998, 2.2872, 2.2667, 1.449, 2.2655000000000003, 1.4437, 2.3074, 1.4437, 2.2778, 1.4474, 1.4369999999999998, 2.4887, 1.6020999999999999, 1.4324, 2.2764, 2.2747, 2.3285, 2.282, 2.2867, 2.3082, 2.2748, 2.2962, 2.286, 2.2856, 2.2919, 2.3005999999999998, 2.3028, 2.3018, 2.3012, 2.2784, 2.2647, 2.3247, 2.2872, 2.2905, 2.2967, 2.2626, 2.2824999999999998, 2.2807999999999997, 2.2739000000000003, 2.2942, 2.2748, 2.2971, 2.2923999999999998, 2.2971, 2.2889, 2.1860999999999997, 2.3075, 2.3424, 2.3284],
  "Depth": 275.0,
  "Expectation Value": -22.0,
  "Optimal Expectation Value": -22.0,
  "Optimizer durations [ms]": [30.886, 29.97, 30.217, 30.477, 30.222, 29.696, 29.928, 30.265, 21.874, 30.27, 21.78, 21.798, 30.165, 22.131, 37.81, 22.076, 29.976, 21.837, 30.136, 21.775, 30.296, 30.003, 29.808, 21.833, 30.267, 21.756, 30.248, 21.392, 21.739, 21.557, 30.142, 30.044, 30.037, 21.565, 29.877, 21.738, 30.429, 21.788, 30.116, 21.631, 21.487, 32.079, 26.79, 21.345, 30.267, 29.96, 30.602, 30.374, 30.158, 30.518, 29.925, 29.795, 30.335, 30.242, 29.992, 30.455, 30.385, 30.198, 30.28, 29.789, 29.997, 30.768, 30.17, 30.054, 30.348, 29.934, 29.97, 30.152, 30.003, 30.187, 29.928, 30.334, 30.122, 30.184, 30.128, 38.785, 30.635, 30.547, 30.645],
  "Optimizer iterations": 79,
  "Optimizer params": [0.490887756191937, 0.9510525901337493, 0.37760091707961174, 0.5733709664175166, 0.9574328960222986, 0.22151514586926693],
  "P": 3,
  "Problem": "MCP",
  "QJob durations [ms]": [2.2943, 2.2912000000000003, 2.2783, 2.3209, 2.2999, 2.2755, 2.2634, 2.2920000000000003, 1.4477, 2.2967999999999997, 1.4517, 1.4554, 2.2864, 1.4836, 2.1088999999999998, 1.4996, 2.2682, 1.4444, 2.2747, 1.4301, 2.286, 2.2815000000000003, 2.2723, 1.436, 2.2922, 1.4387, 2.2783, 1.4258000000000002, 1.4395, 1.4338, 2.3064999999999998, 2.2872, 2.2667, 1.449, 2.2655000000000003, 1.4437, 2.3074, 1.4437, 2.2778, 1.4474, 1.4369999999999998, 2.4887, 1.6020999999999999, 1.4324, 2.2764, 2.2747, 2.3285, 2.282, 2.2867, 2.3082, 2.2748, 2.2962, 2.286, 2.2856, 2.2919, 2.3005999999999998, 2.3028, 2.3018, 2.3012, 2.2784, 2.2647, 2.3247, 2.2872, 2.2905, 2.2967, 2.2626, 2.2824999999999998, 2.2807999999999997, 2.2739000000000003, 2.2942, 2.2748, 2.2971, 2.2923999999999998, 2.2971, 2.2889, 2.1860999999999997, 2.3075, 2.3424, 2.3284],
  "QPU": "7000000",
  "Qubits": 15,
  "Queue durations [ms]": [0.0, 0.0, 0.0, 0.0, 0.0, 0.0, 0.0, 0.0, 0.0, 0.0, 0.0, 0.0, 0.0, 0.0, 0.0, 0.0, 0.0, 0.0, 0.0, 0.0, 0.0, 0.0, 0.0, 0.0, 0.0, 0.0, 0.0, 0.0, 0.0, 0.0, 0.0, 0.0, 0.0, 0.0, 0.0, 0.0, 0.0, 0.0, 0.0, 0.0, 0.0, 0.0, 0.0, 0.0, 0.0, 0.0, 0.0, 0.0, 0.0, 0.0, 0.0, 0.0, 0.0, 0.0, 0.0, 0.0, 0.0, 0.0, 0.0, 0.0, 0.0, 0.0, 0.0, 0.0, 0.0, 0.0, 0.0, 0.0, 0.0, 0.0, 0.0, 0.0, 0.0, 0.0, 0.0, 0.0, 0.0, 0.0, 0.0],
  "Shots": 4096,
  "Size": 15,
  "Total Algorithm duration [s]": 2.247,
  "Total Classic duration [s]": 2.0820495,
  "Total Quantum duration [s]": 0.1649505
}
