{
  "Circuit execution durations [ms]": [2.3201, 2.296, 2.2753, 2.0907999999999998, 2.2756, 2.3855, 2.3522, 2.2986999999999997, 2.2625, 2.3352, 2.2614, 2.2697, 2.3184, 2.2868, 2.2585, 2.3081, 2.2741, 2.2538, 2.2678, 2.2891, 2.2775, 2.3024, 2.2804, 2.2903, 2.2723, 2.2927, 2.2883, 2.3213, 2.3051999999999997, 2.4669000000000003, 2.4048, 2.3143000000000002, 2.3199, 2.3051, 2.3219, 2.2944, 2.3167999999999997, 2.2984, 2.2824999999999998, 2.3023000000000002, 2.3442, 2.2981, 2.2799, 2.3044, 2.2849, 1.4585, 2.2994, 1.4548, 2.2776, 1.4651, 2.3183000000000002, 1.4529, 2.3333999999999997, 1.4457, 2.3077, 1.4536, 2.2916999999999996, 1.4264, 1.4516, 2.2965, 1.4607999999999999, 2.2969, 1.4422, 2.3000999999999996, 1.4966000000000002, 2.4006000000000003, 1.3915, 2.3091, 1.4513, 2.2737, 1.4529, 2.3022, 1.4501, 2.2835, 1.4487, 1.4425, 2.3105, 1.6095, 1.4695, 2.3009, 1.4525000000000001, 2.2869, 2.2925, 2.2854, 2.2921, 2.2889, 2.3085, 2.2948999999999997, 2.2978, 2.3227, 2.2849, 2.3019999999999996, 2.2845999999999997, 2.2823, 2.3335, 2.3005999999999998, 2.3049, 2.2880000000000003, 2.2897999999999996, 2.3021000000000003, 2.2529999999999997, 2.2611, 2.1118, 2.2872, 2.2967999999999997, 2.0636, 2.346, 2.3911000000000002, 2.3225, 2.3058, 2.1176, 2.2766, 2.2982, 2.3311, 2.2734, 2.2849, 2.2973999999999997, 2.3028, 2.2741, 2.3118000000000003, 2.3552, 2.2849, 2.305, 2.2998, 2.2742999999999998, 2.2748],
  "Depth": 275.0,
  "Expectation Value": -20.0,
  "Optimal Expectation Value": -22.0,
  "Optimizer durations [ms]": [31.076, 30.332, 30.547, 37.636, 29.721, 31.05, 36.667, 30.009, 30.113, 30.458, 29.574, 29.705, 30.243, 30.03, 29.785, 30.121, 29.706, 29.717, 30.071, 30.208, 30.012, 30.394, 30.222, 30.384, 29.816, 29.959, 29.801, 30.621, 30.09, 32.121, 36.736, 30.442, 30.275, 30.385, 30.226, 30.159, 30.446, 30.176, 29.852, 30.351, 30.578, 30.321, 29.915, 30.309, 30.192, 21.83, 30.273, 21.771, 29.904, 21.547, 30.384, 21.837, 30.88, 21.609, 30.5, 21.79, 30.021, 21.622, 21.806, 29.992, 21.886, 30.2, 21.72, 30.37, 22.329, 31.063, 28.575, 30.266, 21.886, 30.025, 21.872, 30.209, 21.562, 29.815, 21.956, 21.551, 30.401, 23.296, 21.787, 29.939, 21.909, 30.063, 30.15, 29.92, 30.247, 30.12, 30.558, 30.091, 30.095, 30.604, 30.007, 30.26, 29.898, 30.029, 30.555, 30.151, 30.413, 30.183, 29.953, 30.113, 29.633, 32.878, 35.587, 29.9, 30.363, 37.644, 30.484, 31.244, 30.622, 30.355, 38.006, 30.076, 30.127, 30.641, 30.163, 30.287, 30.249, 30.39, 29.978, 30.343, 30.884, 30.012, 30.446, 30.324, 29.924, 30.086],
  "Optimizer iterations": 126,
  "Optimizer params": [0.7344601648409219, 0.09113503433186715, 0.27491737942712463, 0.4475215597913864, 0.11971163088342701, 0.08834573714245178],
  "P": 3,
  "Problem": "MCP",
  "QJob durations [ms]": [2.3201, 2.296, 2.2753, 2.0907999999999998, 2.2756, 2.3855, 2.3522, 2.2986999999999997, 2.2625, 2.3352, 2.2614, 2.2697, 2.3184, 2.2868, 2.2585, 2.3081, 2.2741, 2.2538, 2.2678, 2.2891, 2.2775, 2.3024, 2.2804, 2.2903, 2.2723, 2.2927, 2.2883, 2.3213, 2.3051999999999997, 2.4669000000000003, 2.4048, 2.3143000000000002, 2.3199, 2.3051, 2.3219, 2.2944, 2.3167999999999997, 2.2984, 2.2824999999999998, 2.3023000000000002, 2.3442, 2.2981, 2.2799, 2.3044, 2.2849, 1.4585, 2.2994, 1.4548, 2.2776, 1.4651, 2.3183000000000002, 1.4529, 2.3333999999999997, 1.4457, 2.3077, 1.4536, 2.2916999999999996, 1.4264, 1.4516, 2.2965, 1.4607999999999999, 2.2969, 1.4422, 2.3000999999999996, 1.4966000000000002, 2.4006000000000003, 1.3915, 2.3091, 1.4513, 2.2737, 1.4529, 2.3022, 1.4501, 2.2835, 1.4487, 1.4425, 2.3105, 1.6095, 1.4695, 2.3009, 1.4525000000000001, 2.2869, 2.2925, 2.2854, 2.2921, 2.2889, 2.3085, 2.2948999999999997, 2.2978, 2.3227, 2.2849, 2.3019999999999996, 2.2845999999999997, 2.2823, 2.3335, 2.3005999999999998, 2.3049, 2.2880000000000003, 2.2897999999999996, 2.3021000000000003, 2.2529999999999997, 2.2611, 2.1118, 2.2872, 2.2967999999999997, 2.0636, 2.346, 2.3911000000000002, 2.3225, 2.3058, 2.1176, 2.2766, 2.2982, 2.3311, 2.2734, 2.2849, 2.2973999999999997, 2.3028, 2.2741, 2.3118000000000003, 2.3552, 2.2849, 2.305, 2.2998, 2.2742999999999998, 2.2748],
  "QPU": "7000000",
  "Qubits": 15,
  "Queue durations [ms]": [0.0, 0.0, 0.0, 0.0, 0.0, 0.0, 0.0, 0.0, 0.0, 0.0, 0.0, 0.0, 0.0, 0.0, 0.0, 0.0, 0.0, 0.0, 0.0, 0.0, 0.0, 0.0, 0.0, 0.0, 0.0, 0.0, 0.0, 0.0, 0.0, 0.0, 0.0, 0.0, 0.0, 0.0, 0.0, 0.0, 0.0, 0.0, 0.0, 0.0, 0.0, 0.0, 0.0, 0.0, 0.0, 0.0, 0.0, 0.0, 0.0, 0.0, 0.0, 0.0, 0.0, 0.0, 0.0, 0.0, 0.0, 0.0, 0.0, 0.0, 0.0, 0.0, 0.0, 0.0, 0.0, 0.0, 0.0, 0.0, 0.0, 0.0, 0.0, 0.0, 0.0, 0.0, 0.0, 0.0, 0.0, 0.0, 0.0, 0.0, 0.0, 0.0, 0.0, 0.0, 0.0, 0.0, 0.0, 0.0, 0.0, 0.0, 0.0, 0.0, 0.0, 0.0, 0.0, 0.0, 0.0, 0.0, 0.0, 0.0, 0.0, 0.0, 0.0, 0.0, 0.0, 0.0, 0.0, 0.0, 0.0, 0.0, 0.0, 0.0, 0.0, 0.0, 0.0, 0.0, 0.0, 0.0, 0.0, 0.0, 0.0, 0.0, 0.0, 0.0, 0.0, 0.0],
  "Shots": 4096,
  "Size": 15,
  "Total Algorithm duration [s]": 3.693,
  "Total Classic duration [s]": 3.4206292,
  "Total Quantum duration [s]": 0.2723708
}
