{
  "Circuit execution durations [ms]": [2.2491, 2.2932, 2.285, 2.2849, 2.2923999999999998, 2.2802000000000002, 2.5463999999999998, 2.2832999999999997, 2.2729999999999997, 2.2799, 1.4308, 2.2772, 1.4411, 2.3517, 1.4465999999999999, 2.2952, 1.4426, 1.4449, 2.2764, 1.4399, 2.2939000000000003, 1.4445000000000001, 2.3049, 1.4587, 1.4411, 2.2927, 2.3092, 2.2691999999999997, 2.278, 2.3284, 2.2855000000000003, 2.2899000000000003, 2.3137000000000003, 2.2837, 2.3154, 2.2718, 2.258, 1.4365, 1.4514, 1.4544, 2.2694, 1.4408999999999998, 2.3373, 1.4359, 2.2889999999999997, 1.4285, 2.2813999999999997, 1.2339, 2.3605, 1.4955, 1.4546, 2.2688, 1.4392, 2.4018, 2.2886, 2.2797, 2.2756, 2.3444, 2.2672999999999996, 2.2772, 2.3064, 2.2790000000000004, 2.3005999999999998, 2.2826, 2.2889, 2.3009, 2.2782, 2.2932, 2.2996000000000003, 2.3023000000000002, 2.2802000000000002, 2.2875],
  "Depth": 275.0,
  "Expectation Value": -22.0,
  "Optimal Expectation Value": -22.0,
  "Optimizer durations [ms]": [29.945, 30.339, 30.178, 30.209, 30.251, 30.355, 38.028, 29.808, 29.763, 30.203, 21.657, 30.13, 21.786, 30.649, 21.859, 30.206, 21.63, 25.879, 30.242, 21.578, 30.307, 21.773, 30.527, 21.922, 21.773, 29.825, 30.143, 30.046, 29.958, 30.689, 30.319, 30.39, 30.486, 30.249, 30.262, 29.985, 29.92, 21.65, 21.585, 21.913, 29.867, 21.782, 30.712, 21.626, 32.619, 21.534, 32.718, 27.935, 30.933, 22.194, 26.363, 29.89, 22.859, 36.143, 30.053, 30.038, 30.019, 30.566, 29.685, 30.286, 30.236, 29.734, 29.926, 29.871, 29.905, 30.316, 30.094, 30.253, 30.51, 30.294, 30.094, 30.062],
  "Optimizer iterations": 72,
  "Optimizer params": [0.9351598150038134, 0.4531515217502197, 0.6144233631333539, 0.5202564910473105, 0.9595993298858317, 0.23655394638342137],
  "P": 3,
  "Problem": "MCP",
  "QJob durations [ms]": [2.2491, 2.2932, 2.285, 2.2849, 2.2923999999999998, 2.2802000000000002, 2.5463999999999998, 2.2832999999999997, 2.2729999999999997, 2.2799, 1.4308, 2.2772, 1.4411, 2.3517, 1.4465999999999999, 2.2952, 1.4426, 1.4449, 2.2764, 1.4399, 2.2939000000000003, 1.4445000000000001, 2.3049, 1.4587, 1.4411, 2.2927, 2.3092, 2.2691999999999997, 2.278, 2.3284, 2.2855000000000003, 2.2899000000000003, 2.3137000000000003, 2.2837, 2.3154, 2.2718, 2.258, 1.4365, 1.4514, 1.4544, 2.2694, 1.4408999999999998, 2.3373, 1.4359, 2.2889999999999997, 1.4285, 2.2813999999999997, 1.2339, 2.3605, 1.4955, 1.4546, 2.2688, 1.4392, 2.4018, 2.2886, 2.2797, 2.2756, 2.3444, 2.2672999999999996, 2.2772, 2.3064, 2.2790000000000004, 2.3005999999999998, 2.2826, 2.2889, 2.3009, 2.2782, 2.2932, 2.2996000000000003, 2.3023000000000002, 2.2802000000000002, 2.2875],
  "QPU": "7000000",
  "Qubits": 15,
  "Queue durations [ms]": [0.0, 0.0, 0.0, 0.0, 0.0, 0.0, 0.0, 0.0, 0.0, 0.0, 0.0, 0.0, 0.0, 0.0, 0.0, 0.0, 0.0, 0.0, 0.0, 0.0, 0.0, 0.0, 0.0, 0.0, 0.0, 0.0, 0.0, 0.0, 0.0, 0.0, 0.0, 0.0, 0.0, 0.0, 0.0, 0.0, 0.0, 0.0, 0.0, 0.0, 0.0, 0.0, 0.0, 0.0, 0.0, 0.0, 0.0, 0.0, 0.0, 0.0, 0.0, 0.0, 0.0, 0.0, 0.0, 0.0, 0.0, 0.0, 0.0, 0.0, 0.0, 0.0, 0.0, 0.0, 0.0, 0.0, 0.0, 0.0, 0.0, 0.0, 0.0, 0.0],
  "Shots": 4096,
  "Size": 15,
  "Total Algorithm duration [s]": 2.047,
  "Total Classic duration [s]": 1.8979364,
  "Total Quantum duration [s]": 0.14906360000000005
}
