{
  "Circuit execution durations [ms]": [2.2652, 2.3964, 2.3341999999999996, 2.283, 2.2788, 2.2653, 2.3191, 2.2954999999999997, 1.4354, 2.2739000000000003, 1.4417, 2.285, 1.4717, 2.261, 1.4374, 1.4599000000000002, 2.3044, 1.4503000000000001, 2.2719, 1.4416, 2.3324000000000003, 1.452, 2.2748, 2.3199, 2.4269000000000003, 2.2880000000000003, 2.2957, 2.2939000000000003, 2.2598000000000003, 2.2922, 2.3362000000000003, 2.3184, 2.2845999999999997, 2.2657, 2.2872, 2.3162, 2.2771, 2.2767999999999997, 2.3063, 2.2812, 2.2491, 2.3045999999999998, 2.2897, 2.2829, 2.3758, 2.3095, 2.3173999999999997, 2.2931000000000004, 2.2862999999999998, 2.2746, 2.2920000000000003, 2.2685, 2.2963, 2.2886, 2.2721, 2.2712000000000003, 2.2984, 2.4039, 2.3009, 2.2897999999999996, 2.2696, 2.3099000000000003, 2.2901000000000002, 2.2798, 2.3429, 2.2821, 2.3063, 2.3038, 2.3013999999999997, 2.3, 2.2727, 2.3189, 2.2789, 2.2963, 2.2929999999999997, 2.3157, 2.2831, 2.2981, 2.2822, 2.2923999999999998, 2.2702, 2.2857, 2.2896, 2.3245, 2.3505000000000003, 2.2954999999999997, 2.2829, 2.2786999999999997, 2.2815000000000003, 2.2881, 2.1548000000000003, 2.081, 2.2857, 2.2701000000000002, 2.0494, 2.3768000000000002, 2.3516, 2.3557, 2.3716000000000004],
  "Depth": 275.0,
  "Expectation Value": -20.358566284179688,
  "Optimal Expectation Value": -22.0,
  "Optimizer durations [ms]": [30.025, 31.215, 30.612, 30.25, 30.067, 30.154, 30.483, 30.297, 21.65, 29.782, 21.773, 30.157, 21.987, 30.03, 21.613, 21.988, 30.292, 21.674, 30.239, 21.725, 30.351, 21.666, 29.702, 30.128, 36.46, 30.168, 30.306, 30.25, 30.018, 30.161, 30.78, 30.269, 30.07, 29.969, 30.12, 30.399, 30.04, 29.87, 30.393, 30.183, 29.673, 30.373, 30.132, 30.323, 30.901, 30.258, 30.461, 30.313, 30.031, 30.047, 30.261, 30.046, 30.159, 29.998, 29.967, 30.032, 30.439, 35.945, 30.185, 30.165, 29.762, 29.983, 30.258, 30.004, 30.797, 29.89, 30.497, 30.365, 30.261, 30.357, 30.046, 30.231, 30.259, 30.231, 30.25, 30.372, 30.017, 30.085, 29.766, 30.528, 30.231, 30.205, 30.356, 30.447, 30.696, 29.789, 30.017, 30.067, 30.295, 30.24, 32.338, 37.143, 30.083, 30.12, 37.461, 30.876, 30.839, 30.699, 30.746],
  "Optimizer iterations": 99,
  "Optimizer params": [0.9976507532540413, 0.999702858230601, 0.9563237618407364, 0.6198282485474718, 0.08086296471470579, 0.7633352278861771],
  "P": 3,
  "Problem": "MCP",
  "QJob durations [ms]": [2.2652, 2.3964, 2.3341999999999996, 2.283, 2.2788, 2.2653, 2.3191, 2.2954999999999997, 1.4354, 2.2739000000000003, 1.4417, 2.285, 1.4717, 2.261, 1.4374, 1.4599000000000002, 2.3044, 1.4503000000000001, 2.2719, 1.4416, 2.3324000000000003, 1.452, 2.2748, 2.3199, 2.4269000000000003, 2.2880000000000003, 2.2957, 2.2939000000000003, 2.2598000000000003, 2.2922, 2.3362000000000003, 2.3184, 2.2845999999999997, 2.2657, 2.2872, 2.3162, 2.2771, 2.2767999999999997, 2.3063, 2.2812, 2.2491, 2.3045999999999998, 2.2897, 2.2829, 2.3758, 2.3095, 2.3173999999999997, 2.2931000000000004, 2.2862999999999998, 2.2746, 2.2920000000000003, 2.2685, 2.2963, 2.2886, 2.2721, 2.2712000000000003, 2.2984, 2.4039, 2.3009, 2.2897999999999996, 2.2696, 2.3099000000000003, 2.2901000000000002, 2.2798, 2.3429, 2.2821, 2.3063, 2.3038, 2.3013999999999997, 2.3, 2.2727, 2.3189, 2.2789, 2.2963, 2.2929999999999997, 2.3157, 2.2831, 2.2981, 2.2822, 2.2923999999999998, 2.2702, 2.2857, 2.2896, 2.3245, 2.3505000000000003, 2.2954999999999997, 2.2829, 2.2786999999999997, 2.2815000000000003, 2.2881, 2.1548000000000003, 2.081, 2.2857, 2.2701000000000002, 2.0494, 2.3768000000000002, 2.3516, 2.3557, 2.3716000000000004],
  "QPU": "7000000",
  "Qubits": 15,
  "Queue durations [ms]": [0.0, 0.0, 0.0, 0.0, 0.0, 0.0, 0.0, 0.0, 0.0, 0.0, 0.0, 0.0, 0.0, 0.0, 0.0, 0.0, 0.0, 0.0, 0.0, 0.0, 0.0, 0.0, 0.0, 0.0, 0.0, 0.0, 0.0, 0.0, 0.0, 0.0, 0.0, 0.0, 0.0, 0.0, 0.0, 0.0, 0.0, 0.0, 0.0, 0.0, 0.0, 0.0, 0.0, 0.0, 0.0, 0.0, 0.0, 0.0, 0.0, 0.0, 0.0, 0.0, 0.0, 0.0, 0.0, 0.0, 0.0, 0.0, 0.0, 0.0, 0.0, 0.0, 0.0, 0.0, 0.0, 0.0, 0.0, 0.0, 0.0, 0.0, 0.0, 0.0, 0.0, 0.0, 0.0, 0.0, 0.0, 0.0, 0.0, 0.0, 0.0, 0.0, 0.0, 0.0, 0.0, 0.0, 0.0, 0.0, 0.0, 0.0, 0.0, 0.0, 0.0, 0.0, 0.0, 0.0, 0.0, 0.0, 0.0],
  "Shots": 4096,
  "Size": 15,
  "Total Algorithm duration [s]": 2.953,
  "Total Classic duration [s]": 2.7327171999999997,
  "Total Quantum duration [s]": 0.22028279999999995
}
