{
  "Depth": 10.5,
  "Job durations [ms]": [8.184432983398438, 8.312225341796875, 8.166193962097168, 8.12375545501709, 7.943987846374512, 8.153557777404785, 8.228778839111328, 8.105635643005371, 7.970213890075684, 8.003711700439453, 7.9354047775268555, 8.095145225524902, 8.025407791137695, 7.961153984069824, 8.028149604797363, 7.982492446899414, 8.33582878112793, 8.075118064880371, 7.872939109802246, 8.051514625549316, 8.209824562072754, 8.032679557800293, 7.788181304931641, 8.153557777404785, 8.032560348510742, 8.205175399780273, 7.9498291015625, 8.495807647705078, 7.934808731079102, 8.105874061584473, 7.991790771484375, 7.974505424499512, 8.020401000976562, 7.997393608093262, 7.823348045349121, 8.05819034576416, 7.752418518066406, 8.052468299865723, 7.9479217529296875, 7.946133613586426, 7.997035980224609, 7.966041564941406, 8.045196533203125, 8.110880851745605, 7.919669151306152, 8.049726486206055, 8.002400398254395, 8.249163627624512, 7.881879806518555, 8.17573070526123, 8.111715316772461, 8.0794095993042, 8.00943374633789, 8.079886436462402, 8.012175559997559, 7.968425750732422, 7.990360260009766, 8.034825325012207, 8.044838905334473, 8.123636245727539, 7.99870491027832, 8.114099502563477, 8.192777633666992, 7.890820503234863, 7.880568504333496, 7.989406585693359, 7.9326629638671875, 8.034467697143555, 8.076667785644531, 8.135199546813965, 8.026838302612305, 7.982730865478516, 8.119463920593262, 8.107542991638184, 7.877826690673828, 8.341789245605469, 7.840871810913086, 7.864713668823242, 7.832765579223633, 7.860302925109863, 8.110880851745605, 8.024454116821289, 7.9239606857299805, 7.965445518493652, 8.005142211914062, 8.044719696044922, 8.313655853271484, 7.970690727233887, 7.89952278137207, 8.138895034790039, 7.95590877532959, 8.143305778503418, 8.012890815734863, 7.963418960571289, 8.021354675292969, 7.998228073120117, 8.159518241882324, 7.957816123962402, 7.894277572631836, 8.004069328308105, 8.057594299316406, 8.080840110778809, 8.071064949035645, 7.907271385192871, 8.014917373657227, 7.993102073669434, 7.960796356201172, 8.077621459960938, 8.152127265930176, 8.00633430480957, 8.136153221130371, 7.984042167663574, 8.0186128616333, 8.12220573425293, 7.9860687255859375, 7.870912551879883, 7.897496223449707, 7.923603057861328, 8.094310760498047, 8.541703224182129, 7.954955101013184, 8.022069931030273, 8.127450942993164, 7.996201515197754, 8.281350135803223, 7.854104042053223, 8.067846298217773, 7.946372032165527, 7.932543754577637, 7.938027381896973, 8.074402809143066, 7.924079895019531, 7.866501808166504, 7.919669151306152, 7.957339286804199, 8.364200592041016, 8.02314281463623, 8.007645606994629, 8.022546768188477, 8.031010627746582, 8.13281536102295, 8.014798164367676, 8.076190948486328, 8.118748664855957, 8.055925369262695, 7.87353515625, 7.893800735473633, 7.958054542541504, 8.077263832092285, 8.25810432434082, 7.854700088500977, 7.885575294494629, 7.978916168212891, 8.13901424407959, 7.9212188720703125, 7.803797721862793, 8.02755355834961, 8.057236671447754, 7.976889610290527, 8.19706916809082, 7.78961181640625, 8.070945739746094, 8.063197135925293, 8.178353309631348, 8.018732070922852, 8.051872253417969, 8.011698722839355, 8.11469554901123, 8.080840110778809, 7.961630821228027, 8.115887641906738, 7.9430341720581055, 7.951021194458008, 7.964611053466797, 7.935047149658203, 7.957696914672852, 7.912755012512207, 7.951259613037109, 8.212685585021973, 8.160114288330078, 7.9642534255981445, 7.92849063873291, 7.996082305908203, 8.07178020477295, 8.090734481811523, 8.01706314086914, 7.915139198303223, 8.031964302062988, 7.834434509277344, 7.946968078613281, 8.019685745239258, 7.847309112548828, 7.939696311950684, 8.066892623901367, 8.024454116821289, 8.020281791687012, 8.085370063781738, 8.018732070922852, 7.9985857009887695, 8.029818534851074, 8.092880249023438, 7.97724723815918, 8.057951927185059, 7.939457893371582, 8.112549781799316, 7.866501808166504, 7.880091667175293, 7.887482643127441, 7.83538818359375, 8.08107852935791, 7.903337478637695, 8.061051368713379, 8.029818534851074, 8.000016212463379, 7.983565330505371, 8.094549179077148, 8.011460304260254, 8.45789909362793, 8.166193962097168, 8.018016815185547, 8.099079132080078, 8.06879997253418, 8.035659790039062, 8.006095886230469, 8.131146430969238, 8.152246475219727, 8.050322532653809, 7.9642534255981445, 7.948756217956543, 8.02314281463623, 7.9354047775268555, 8.010029792785645, 7.975935935974121, 8.086681365966797, 7.846355438232422, 7.912039756774902, 8.139491081237793, 8.060574531555176, 8.071660995483398, 8.005738258361816, 7.875800132751465, 8.184432983398438, 8.019566535949707],
  "Optimizer durations [ms]": [196.838, 159.611, 151.6, 152.234, 193.342, 149.331, 154.214, 151.085, 194.459, 150.034, 149.332, 195.551, 150.31, 151.15, 149.081, 192.901, 150.113, 149.688, 149.274, 194.059, 149.904, 150.56, 149.3, 194.543, 149.837, 152.654, 149.452, 194.825, 151.035, 151.858, 196.479, 152.095, 151.51, 149.811, 192.862, 150.206, 148.758, 150.601, 196.228, 150.498, 151.682, 150.081, 195.619, 152.337, 151.787, 151.315, 196.251, 152.712, 151.327, 199.078, 152.663, 151.528, 152.119, 195.311, 151.737, 152.04, 150.293, 195.141, 152.109, 152.998, 152.595, 195.45, 152.554, 150.99, 150.656, 197.034, 151.866, 151.292, 200.611, 152.672, 152.113, 152.239, 195.994, 166.637, 150.358, 150.705, 193.242, 149.53, 150.525, 149.578, 195.128, 151.525, 151.268, 153.546, 194.468, 150.012, 150.918, 197.209, 150.342, 150.242, 149.653, 193.886, 150.677, 149.558, 151.399, 193.398, 150.453, 150.67, 149.373, 196.319, 152.368, 151.28, 152.432, 195.382, 149.787, 150.067, 199.705, 152.187, 153.041, 152.222, 198.723, 152.38, 151.864, 151.863, 195.795, 151.645, 151.359, 150.22, 197.211, 152.77, 152.027, 151.942, 196.114, 150.809, 153.479, 195.203, 149.677, 149.475, 149.338, 193.534, 150.247, 150.187, 149.323, 193.652, 149.798, 151.262, 150.119, 200.236, 151.066, 152.593, 151.396, 195.203, 170.525, 152.455, 203.627, 149.654, 149.781, 149.938, 194.645, 150.919, 150.49, 150.387, 195.7, 151.445, 151.56, 152.255, 199.192, 150.22, 149.208, 150.639, 193.101, 150.022, 153.093, 198.677, 151.868, 150.856, 152.265, 195.575, 151.095, 154.718, 152.401, 196.597, 149.856, 150.057, 151.628, 197.065, 151.613, 151.228, 151.954, 196.644, 152.235, 155.745, 198.947, 151.887, 151.764, 151.906, 195.389, 150.608, 149.307, 151.26, 196.477, 151.248, 152.368, 149.787, 196.174, 151.542, 151.564, 151.578, 196.141, 150.385, 149.881, 196.06, 150.884, 149.204, 150.596, 194.691, 150.625, 149.27, 149.458, 193.19, 149.965, 150.699, 149.369, 196.117, 150.113, 149.164, 150.212, 195.887, 152.419, 151.864, 197.982, 151.867, 151.065, 151.411, 195.931, 154.377, 151.819, 151.532, 195.873, 152.626, 151.519, 152.997, 197.138, 152.003, 148.766, 149.377, 194.475, 149.95, 150.363, 194.821, 149.363, 150.265, 155.466],
  "Optimizer iterations": 243,
  "Qubits": 4,
  "Total Algorithm duration [s]": 39.631,
  "Total Classic duration [s]": 37.68064804649353,
  "Total Quantum duration [s]": 1.9503519535064697,
  "Expectation Value": -4.1259765625,
  "Optimal Expectation Value": -4.75877046585083,
  "Optimizer params": [0.871797120537671, 0.6954148788565764, 0.7848355681360776, 0.7472919467270771, 0.48579438157619176, 0.49201861891579163, 0.4994346056611625, 0.49748817294088665, 0.732326810926286, 0.5320913607965194, 0.5620335470716831, 0.5885881513964419, 0.4798896809367761, 0.4984797801559925, 0.46941983470466214, 0.49970456930659096],
  "QPU": "3010008",
  "Problem": "IC",
  "Size": 4,
  "P": 0,
  "Shots": 4096
}