{
  "Depth": 2.0,
  "Job durations [ms]": [240.65649509429932, 391.17586612701416, 241.69743061065674, 242.42830276489258, 238.5869026184082, 238.95156383514404, 400.30109882354736, 390.954852104187, 397.0245122909546, 239.04871940612793, 242.35141277313232, 242.2271966934204, 242.9499626159668, 243.79754066467285, 246.7336654663086, 242.74730682373047, 245.9244728088379, 242.84541606903076, 238.85107040405273, 238.23070526123047, 557.4352741241455, 234.80486869812012, 245.99051475524902, 392.4177885055542, 239.42089080810547, 243.59512329101562, 244.33672428131104, 237.42568492889404, 235.9635829925537, 242.3173189163208, 236.0137701034546, 389.6292448043823, 238.89100551605225, 390.7637596130371, 240.22364616394043, 243.06046962738037, 240.88430404663086, 242.87724494934082, 235.20219326019287, 247.05350399017334, 241.19198322296143, 393.3323621749878, 243.5014247894287, 245.4465627670288, 236.85431480407715, 242.85972118377686, 237.97869682312012, 245.54431438446045, 236.20474338531494, 403.16951274871826, 240.25869369506836],
  "Optimizer durations [ms]": [2862.564, 3193.143, 3064.825, 2915.988, 2836.471, 2898.105, 3246.615, 3192.51, 3193.193, 2946.829, 2896.023, 2891.04, 2903.214, 2908.822, 2919.777, 2987.32, 2892.266, 2910.51, 2906.22, 2855.647, 3539.231, 2861.058, 2957.407, 3202.842, 2875.787, 2871.346, 2974.54, 2904.557, 2886.011, 2889.273, 2883.761, 3175.621, 2895.796, 3185.947, 2905.054, 2906.775, 2907.889, 2864.62, 2898.849, 2910.572, 2884.537, 3198.062, 2922.84, 2931.853, 2882.253, 2866.282, 2861.073, 2969.78, 2896.845, 3197.872, 2899.97],
  "Optimizer iterations": 51,
  "Qubits": 4,
  "Total Algorithm duration [s]": 151.429,
  "Total Classic duration [s]": 137.4368662633896,
  "Total Quantum duration [s]": 13.992133736610413,
  "Expectation Value": -2.271117687225342,
  "Optimal Expectation Value": -2.2741000652313232,
  "Optimizer params": [0.9971245068427144, 0.4961199188145407, 0.9941317877160145, 0.4859075120943359],
  "QPU": "6010003",
  "Problem": "RH",
  "Size": 4,
  "P": 0,
  "Shots": 4096
}