{
  "Circuit execution durations [ms]": [0.16460000188089907, 0.1645499942242168, 0.15405000158352777, 0.15535000420641154, 0.1573999979882501, 0.15419999544974416, 0.15580000035697594, 0.15420000272570178, 0.15604999498464167, 0.16044999938458204, 0.16065000090748072, 0.15929999790387228, 0.1534000039100647, 0.15364999853773043, 0.152900000102818, 0.15295000048354268, 0.15379999967990443, 0.1535499977762811, 0.15434999659191817, 0.15335000352934003, 0.15329999587265775, 0.16575000336160883, 0.15434999659191817, 0.15220000204863027, 0.152900000102818, 0.15259999781847, 0.1579000017954968, 0.1539999939268455, 0.1589499952387996, 0.16310000501107424, 0.15314999473048374, 0.15469999925699085, 0.15409999468829483, 0.15520000306423753, 0.15320000238716602, 0.1564999984111637, 0.15279999934136868, 0.15309999434975907, 0.15639999764971435, 0.1555499984533526, 0.16350000078091398, 0.16420000611105934, 0.17065000429283828, 0.22870000248076394, 0.16384999617002904, 0.1544499973533675, 0.1592499975231476, 0.15704999532317743, 0.15425000310642645, 0.16524999955436215, 0.19065000378759578, 0.15544999769190326, 0.15464999887626618, 0.1583499979460612, 0.1600499963387847, 0.1548000000184402, 0.15365000581368804, 0.15829999756533653, 0.15559999883407727, 0.15580000035697594, 0.1528000066173263, 0.16180000238819048, 0.16045000666053966, 0.16020000475691631, 0.1588000013725832, 0.1591500040376559, 0.15435000386787578, 0.15379999967990443, 0.15954999980749562, 0.15359999815700576, 0.1558500007377006, 0.15434999659191817, 0.15345000429078937, 0.15374999929917976, 0.15420000272570178, 0.15300000086426735, 0.15854999946895987, 0.15604999498464167, 0.15350000467151403, 0.15395000082207844, 0.16234999930020422, 0.16055000014603138, 0.15729999722680077, 0.15279999934136868, 0.15264999819919467, 0.15210000128718093, 0.15690000145696104, 0.15359999815700576, 0.1546500061522238, 0.15350000467151403, 0.1548000000184402, 0.15639999764971435, 0.15320000238716602, 0.15430000348715112, 0.1825500003178604, 0.1566499995533377, 0.15300000086426735, 0.1532500027678907, 0.1580500029376708, 0.16000000323401764, 0.156299996888265, 0.15730000450275838, 0.15379999967990443, 0.16309999773511663, 0.15364999853773043, 0.15439999697264284, 0.16304999735439196, 0.1541499950690195, 0.15884999447735026, 0.1548000000184402, 0.15559999883407727, 0.15994999557733536, 0.15520000306423753, 0.1536999989184551, 0.15734999760752544, 0.1583499979460612, 0.1596000001882203, 0.17334999574813992, 0.15449999773409218, 0.15374999929917976, 0.15374999929917976, 0.15335000352934003, 0.1545000050100498, 0.24620000476716086, 0.17194999963976443, 0.16109999705804512, 0.15449999773409218, 0.15420000272570178, 0.1541499950690195, 0.15454999811481684, 0.1617499947315082, 0.1531999951112084, 0.15345000429078937, 0.15320000238716602, 0.15464999887626618, 0.156299996888265, 0.15350000467151403, 0.15630000416422263, 0.1540000012028031, 0.1548000000184402, 0.15469999925699085, 0.1531000016257167, 0.26480000087758526, 0.16974999743979424, 0.15454999811481684, 0.2075500087812543, 0.1645500015001744, 0.1596000001882203, 0.1552499961690046, 0.1592499975231476, 0.15469999925699085, 0.15305000124499202, 0.15965000056894496, 0.15379999967990443, 0.15685000107623637, 0.1535499977762811, 0.15349999739555642, 0.15339999663410708, 0.15519999578827992, 0.15455000539077446, 0.15379999967990443, 0.1531000016257167, 0.15759999951114878, 0.15690000145696104, 0.15424999583046883, 0.1538500000606291, 0.15390000044135377, 0.14320000627776608, 0.15734999760752544, 0.15430000348715112, 0.1977500069187954, 0.15615000302204862, 0.15534999693045393, 0.15639999764971435, 0.3534500137902796, 0.16214999777730554, 0.22555000759894028, 0.1669000048423186, 0.155849993461743, 0.265800001216121, 0.16670000331941992, 0.15500000154133886, 0.2060999904642813, 0.15969999367371202, 0.15485000039916486, 0.1548999935039319, 0.29975000506965443, 0.1649999976507388, 0.15985000209184363, 0.23534999490948394, 0.1583499979460612, 0.15485000039916486, 0.27630000840872526, 0.10844999633263797, 0.16055000014603138, 0.16020000475691631, 0.16319999849656597, 0.15949999942677096, 0.1549500011606142, 0.15534999693045393, 0.1382000045850873, 0.16695000522304326, 0.1548000000184402, 0.25224999990314245, 0.17284999921685085, 0.15559999883407727, 0.3178999904775992, 0.34809999488061294, 0.16055000014603138, 0.1634500004001893, 0.15995000285329297, 0.1682499932940118, 0.1608500024303794, 0.2376000047661364, 0.1599000024725683, 0.16095000319182873, 0.2095500021823682, 0.1588000013725832, 0.15345000429078937, 0.1548000000184402, 0.1497999983257614, 0.1640999980736524, 0.1864000005298294, 0.2813500032061711, 0.16035000589909032, 0.15780000103404745, 0.15534999693045393, 0.16460000188089907, 0.1617500020074658, 0.16260000120382756, 0.1549500011606142, 0.1569499945617281, 0.1531000016257167, 0.1531999951112084, 0.15305000124499202, 0.15364999853773043, 0.15549999807262793, 0.16030000551836565, 0.15529999654972926, 0.15239999629557133, 0.15530000382568687, 0.15365000581368804, 0.1610000035725534, 0.15434999659191817, 0.15320000238716602, 0.15349999739555642, 0.15225000242935494, 0.15914999676169828],
  "Depth": 8.5,
  "Expectation Value": -3.4737043380737305,
  "Optimal Expectation Value": -3.4939591884613037,
  "Optimizer durations [ms]": [4.661, 4.221, 4.264, 4.246, 4.214, 4.055, 4.146, 4.07, 4.124, 4.232, 4.219, 4.155, 4.032, 4.002, 4.039, 4.037, 4.066, 4.055, 4.08, 4.047, 4.034, 4.362, 9.132, 4.039, 4.067, 4.037, 4.225, 4.076, 4.134, 4.315, 4.062, 4.03, 4.029, 4.045, 4.048, 4.1, 4.036, 4.066, 4.022, 4.012, 4.326, 4.285, 4.442, 5.384, 4.514, 4.095, 4.093, 4.103, 4.063, 4.278, 4.684, 4.074, 4.039, 4.075, 4.327, 4.081, 4.049, 4.091, 4.106, 4.114, 3.965, 4.394, 4.24, 4.226, 4.214, 4.158, 4.043, 4.045, 4.28, 3.932, 3.974, 4.065, 4.096, 4.08, 4.072, 4.029, 4.158, 4.115, 4.036, 4.039, 4.217, 4.062, 4.199, 4.002, 4.038, 4.025, 4.203, 4.106, 4.07, 4.066, 4.101, 4.038, 3.994, 4.036, 4.686, 4.181, 4.025, 4.072, 4.221, 4.259, 4.195, 4.13, 4.466, 4.342, 4.066, 4.086, 4.223, 4.065, 4.116, 4.078, 4.07, 4.049, 4.098, 4.044, 4.12, 4.182, 4.222, 4.442, 4.085, 4.059, 4.054, 4.096, 4.029, 5.771, 11.196, 4.363, 4.171, 4.047, 4.025, 4.076, 4.248, 4.081, 4.029, 4.006, 4.128, 4.19, 4.064, 4.189, 4.065, 4.139, 4.091, 4.051, 6.794, 4.619, 4.102, 5.015, 4.283, 4.263, 4.095, 4.131, 4.085, 4.038, 4.062, 4.071, 4.194, 4.047, 4.034, 4.061, 4.031, 4.113, 4.029, 4.065, 4.241, 4.055, 4.108, 4.068, 4.029, 6.738, 4.384, 4.091, 4.969, 4.139, 4.108, 4.114, 7.662, 7.485, 5.472, 4.475, 4.055, 6.071, 4.987, 4.07, 5.072, 4.209, 4.043, 4.087, 6.884, 4.424, 4.224, 5.482, 4.372, 3.972, 6.225, 16.511, 4.261, 4.273, 5.157, 4.29, 4.002, 3.991, 6.412, 4.626, 4.083, 5.888, 4.594, 4.031, 6.888, 14.878, 4.587, 4.25, 5.043, 4.747, 4.228, 5.546, 5.574, 4.316, 5.107, 4.115, 3.958, 3.969, 6.878, 11.568, 8.053, 6.902, 4.344, 4.137, 4.087, 4.388, 4.226, 4.248, 4.064, 4.144, 4.036, 4.021, 4.019, 4.145, 4.2, 4.228, 4.078, 3.989, 4.103, 4.061, 4.199, 7.822, 4.031, 4.014, 4.001, 4.237],
  "Optimizer iterations": 248,
  "Optimizer params": [0.06997052119412438, 0.924687358355604, 0.9977047291396834, 0.4629871211047554, 0.9602656522199107, 0.9421216257017119, 0.0027285422597792455, 0.9959304597389065, 0.9993579307676101, 0.9916576950247253, 0.5481755990222863, 0.9836197980410393],
  "P": 0,
  "Problem": "IC",
  "QJob durations [ms]": [0.16460000188089907, 0.1645499942242168, 0.15405000158352777, 0.15535000420641154, 0.1573999979882501, 0.15419999544974416, 0.15580000035697594, 0.15420000272570178, 0.15604999498464167, 0.16044999938458204, 0.16065000090748072, 0.15929999790387228, 0.1534000039100647, 0.15364999853773043, 0.152900000102818, 0.15295000048354268, 0.15379999967990443, 0.1535499977762811, 0.15434999659191817, 0.15335000352934003, 0.15329999587265775, 0.16575000336160883, 0.15434999659191817, 0.15220000204863027, 0.152900000102818, 0.15259999781847, 0.1579000017954968, 0.1539999939268455, 0.1589499952387996, 0.16310000501107424, 0.15314999473048374, 0.15469999925699085, 0.15409999468829483, 0.15520000306423753, 0.15320000238716602, 0.1564999984111637, 0.15279999934136868, 0.15309999434975907, 0.15639999764971435, 0.1555499984533526, 0.16350000078091398, 0.16420000611105934, 0.17065000429283828, 0.22870000248076394, 0.16384999617002904, 0.1544499973533675, 0.1592499975231476, 0.15704999532317743, 0.15425000310642645, 0.16524999955436215, 0.19065000378759578, 0.15544999769190326, 0.15464999887626618, 0.1583499979460612, 0.1600499963387847, 0.1548000000184402, 0.15365000581368804, 0.15829999756533653, 0.15559999883407727, 0.15580000035697594, 0.1528000066173263, 0.16180000238819048, 0.16045000666053966, 0.16020000475691631, 0.1588000013725832, 0.1591500040376559, 0.15435000386787578, 0.15379999967990443, 0.15954999980749562, 0.15359999815700576, 0.1558500007377006, 0.15434999659191817, 0.15345000429078937, 0.15374999929917976, 0.15420000272570178, 0.15300000086426735, 0.15854999946895987, 0.15604999498464167, 0.15350000467151403, 0.15395000082207844, 0.16234999930020422, 0.16055000014603138, 0.15729999722680077, 0.15279999934136868, 0.15264999819919467, 0.15210000128718093, 0.15690000145696104, 0.15359999815700576, 0.1546500061522238, 0.15350000467151403, 0.1548000000184402, 0.15639999764971435, 0.15320000238716602, 0.15430000348715112, 0.1825500003178604, 0.1566499995533377, 0.15300000086426735, 0.1532500027678907, 0.1580500029376708, 0.16000000323401764, 0.156299996888265, 0.15730000450275838, 0.15379999967990443, 0.16309999773511663, 0.15364999853773043, 0.15439999697264284, 0.16304999735439196, 0.1541499950690195, 0.15884999447735026, 0.1548000000184402, 0.15559999883407727, 0.15994999557733536, 0.15520000306423753, 0.1536999989184551, 0.15734999760752544, 0.1583499979460612, 0.1596000001882203, 0.17334999574813992, 0.15449999773409218, 0.15374999929917976, 0.15374999929917976, 0.15335000352934003, 0.1545000050100498, 0.24620000476716086, 0.17194999963976443, 0.16109999705804512, 0.15449999773409218, 0.15420000272570178, 0.1541499950690195, 0.15454999811481684, 0.1617499947315082, 0.1531999951112084, 0.15345000429078937, 0.15320000238716602, 0.15464999887626618, 0.156299996888265, 0.15350000467151403, 0.15630000416422263, 0.1540000012028031, 0.1548000000184402, 0.15469999925699085, 0.1531000016257167, 0.26480000087758526, 0.16974999743979424, 0.15454999811481684, 0.2075500087812543, 0.1645500015001744, 0.1596000001882203, 0.1552499961690046, 0.1592499975231476, 0.15469999925699085, 0.15305000124499202, 0.15965000056894496, 0.15379999967990443, 0.15685000107623637, 0.1535499977762811, 0.15349999739555642, 0.15339999663410708, 0.15519999578827992, 0.15455000539077446, 0.15379999967990443, 0.1531000016257167, 0.15759999951114878, 0.15690000145696104, 0.15424999583046883, 0.1538500000606291, 0.15390000044135377, 0.14320000627776608, 0.15734999760752544, 0.15430000348715112, 0.1977500069187954, 0.15615000302204862, 0.15534999693045393, 0.15639999764971435, 0.3534500137902796, 0.16214999777730554, 0.22555000759894028, 0.1669000048423186, 0.155849993461743, 0.265800001216121, 0.16670000331941992, 0.15500000154133886, 0.2060999904642813, 0.15969999367371202, 0.15485000039916486, 0.1548999935039319, 0.29975000506965443, 0.1649999976507388, 0.15985000209184363, 0.23534999490948394, 0.1583499979460612, 0.15485000039916486, 0.27630000840872526, 0.10844999633263797, 0.16055000014603138, 0.16020000475691631, 0.16319999849656597, 0.15949999942677096, 0.1549500011606142, 0.15534999693045393, 0.1382000045850873, 0.16695000522304326, 0.1548000000184402, 0.25224999990314245, 0.17284999921685085, 0.15559999883407727, 0.3178999904775992, 0.34809999488061294, 0.16055000014603138, 0.1634500004001893, 0.15995000285329297, 0.1682499932940118, 0.1608500024303794, 0.2376000047661364, 0.1599000024725683, 0.16095000319182873, 0.2095500021823682, 0.1588000013725832, 0.15345000429078937, 0.1548000000184402, 0.1497999983257614, 0.1640999980736524, 0.1864000005298294, 0.2813500032061711, 0.16035000589909032, 0.15780000103404745, 0.15534999693045393, 0.16460000188089907, 0.1617500020074658, 0.16260000120382756, 0.1549500011606142, 0.1569499945617281, 0.1531000016257167, 0.1531999951112084, 0.15305000124499202, 0.15364999853773043, 0.15549999807262793, 0.16030000551836565, 0.15529999654972926, 0.15239999629557133, 0.15530000382568687, 0.15365000581368804, 0.1610000035725534, 0.15434999659191817, 0.15320000238716602, 0.15349999739555642, 0.15225000242935494, 0.15914999676169828],
  "QPU": "7000000",
  "Qubits": 3,
  "Queue durations [ms]": [0.0, 0.0, 0.0, 0.0, 0.0, 0.0, 0.0, 0.0, 0.0, 0.0, 0.0, 0.0, 0.0, 0.0, 0.0, 0.0, 0.0, 0.0, 0.0, 0.0, 0.0, 0.0, 0.0, 0.0, 0.0, 0.0, 0.0, 0.0, 0.0, 0.0, 0.0, 0.0, 0.0, 0.0, 0.0, 0.0, 0.0, 0.0, 0.0, 0.0, 0.0, 0.0, 0.0, 0.0, 0.0, 0.0, 0.0, 0.0, 0.0, 0.0, 0.0, 0.0, 0.0, 0.0, 0.0, 0.0, 0.0, 0.0, 0.0, 0.0, 0.0, 0.0, 0.0, 0.0, 0.0, 0.0, 0.0, 0.0, 0.0, 0.0, 0.0, 0.0, 0.0, 0.0, 0.0, 0.0, 0.0, 0.0, 0.0, 0.0, 0.0, 0.0, 0.0, 0.0, 0.0, 0.0, 0.0, 0.0, 0.0, 0.0, 0.0, 0.0, 0.0, 0.0, 0.0, 0.0, 0.0, 0.0, 0.0, 0.0, 0.0, 0.0, 0.0, 0.0, 0.0, 0.0, 0.0, 0.0, 0.0, 0.0, 0.0, 0.0, 0.0, 0.0, 0.0, 0.0, 0.0, 0.0, 0.0, 0.0, 0.0, 0.0, 0.0, 0.0, 0.0, 0.0, 0.0, 0.0, 0.0, 0.0, 0.0, 0.0, 0.0, 0.0, 0.0, 0.0, 0.0, 0.0, 0.0, 0.0, 0.0, 0.0, 0.0, 0.0, 0.0, 0.0, 0.0, 0.0, 0.0, 0.0, 0.0, 0.0, 0.0, 0.0, 0.0, 0.0, 0.0, 0.0, 0.0, 0.0, 0.0, 0.0, 0.0, 0.0, 0.0, 0.0, 0.0, 0.0, 0.0, 0.0, 0.0, 0.0, 0.0, 0.0, 0.0, 0.0, 0.0, 0.0, 0.0, 0.0, 0.0, 0.0, 0.0, 0.0, 0.0, 0.0, 0.0, 0.0, 0.0, 0.0, 0.0, 0.0, 0.0, 0.0, 0.0, 0.0, 0.0, 0.0, 0.0, 0.0, 0.0, 0.0, 0.0, 0.0, 0.0, 0.0, 0.0, 0.0, 0.0, 0.0, 0.0, 0.0, 0.0, 0.0, 0.0, 0.0, 0.0, 0.0, 0.0, 0.0, 0.0, 0.0, 0.0, 0.0, 0.0, 0.0, 0.0, 0.0, 0.0, 0.0, 0.0, 0.0, 0.0, 0.0, 0.0, 0.0, 0.0, 0.0, 0.0, 0.0, 0.0, 0.0, 0.0, 0.0, 0.0, 0.0, 0.0, 0.0],
  "Shots": 4096,
  "Size": 3,
  "Total Algorithm duration [s]": 1.124,
  "Total Classic duration [s]": 1.0832438499821584,
  "Total Quantum duration [s]": 0.04075615001784172
}
