{
  "Circuit execution durations [ms]": [0.15530000382568687, 0.17179999849759042, 0.15965000056894496, 0.15645000530639663, 0.15690000145696104, 0.1684500020928681, 0.15799999528098851, 0.15749999874969944, 0.16535000031581149, 0.15890000213403255, 0.1569500018376857, 0.15550000534858555, 0.16055000014603138, 0.15659999917261302, 0.15630000416422263, 0.15659999917261302, 0.16039999900385737, 0.15729999722680077, 0.15549999807262793, 0.15974999405443668, 0.16619999951217324, 0.15814999642316252, 0.15764999989187345, 0.15605000226059929, 0.1558500007377006, 0.15859999984968454, 0.15600000187987462, 0.15550000534858555, 0.16844999481691048, 0.15590000111842528, 0.15904999600024894, 0.16545000107726082, 0.1620499970158562, 0.16304999735439196, 0.1594499990460463, 0.15965000056894496, 0.15610000264132395, 0.15485000039916486, 0.16465000226162374, 0.15574999997625127, 0.1634500004001893, 0.1564999984111637, 0.16884999786270782, 0.16239999968092889, 0.1575499991304241, 0.15764999989187345, 0.15935000556055456, 0.1556999995955266, 0.15679999341955408, 0.15814999642316252, 0.1566499995533377, 0.15499999426538125, 0.15615000302204862, 0.16450000111944973, 0.15549999807262793, 0.15485000039916486, 0.15590000111842528, 0.16060000052675605, 0.15574999997625127, 0.16480000340379775, 0.15634999726898968, 0.15804999566171318, 0.1589499952387996, 0.15685000107623637, 0.15630000416422263, 0.15755000640638173, 0.15669999993406236, 0.15630000416422263, 0.16414999845437706, 0.15644999803043902, 0.15530000382568687, 0.1586500002304092, 0.1566499995533377, 0.15980000171111897, 0.15675000031478703, 0.15604999498464167, 0.14925000141374767, 0.1611499974387698, 0.15469999925699085, 0.15634999726898968, 0.1611499974387698, 0.16445000073872507, 0.23764999787090346, 0.1655000014579855, 0.20935000065946952, 0.16494999727001414, 0.1632999992580153, 0.28825000481447205, 0.16614999913144857, 0.15430000348715112, 0.20870000298600644, 0.16140000661835074, 0.1540000012028031, 0.1562000034027733, 0.30124999466352165, 0.15814999642316252, 0.1544499973533675, 0.22104999516159296, 0.1610000035725534, 0.16199999663513154, 0.2822500027832575, 0.1388000018778257, 0.17010000010486692, 0.15490000077988952, 0.1880999989225529, 0.15485000039916486, 0.15485000039916486, 0.26074999914271757, 0.15494999388465658, 0.1541499950690195, 0.15374999929917976, 0.15564999921480194, 0.15770000027259812, 0.15985000209184363, 0.1418999963789247, 0.16664999566273764, 0.1563500045449473, 0.15580000035697594, 0.20899999799439684, 0.15529999654972926, 0.15490000077988952, 0.2244500064989552, 0.1662499998928979, 0.15785000141477212, 0.21625000226777047, 0.15770000027259812, 0.15374999929917976, 0.15509999502683058, 0.1417500025127083, 0.338099998771213, 0.18960000306833535, 0.262700006715022, 0.15799999528098851, 0.15610000264132395, 0.15730000450275838, 0.16490000416524708, 0.1569500018376857, 0.1621999981580302, 0.16289999621221796, 0.1597500013303943, 0.15595000149914995, 0.1545000050100498, 0.1545999984955415, 0.15254999743774533, 0.15329999587265775, 0.1572499968460761, 0.15685000107623637, 0.1532500027678907, 0.15270000585587695, 0.15240000357152894, 0.2015999998548068, 0.1583499979460612, 0.15305000124499202, 0.2312500073458068, 0.16584999684710056, 0.15364999853773043, 0.17205000040121377, 0.15320000238716602, 0.15334999625338241, 0.15875000099185854, 0.15505000192206353, 0.1541500023449771, 0.15324999549193308, 0.15314999473048374, 0.15339999663410708, 0.16164999397005886, 0.15329999587265775, 0.15904999600024894, 0.15419999544974416, 0.15770000027259812, 0.15320000238716602, 0.15474999963771552, 0.15259999781847, 0.15800000255694613, 0.15859999984968454, 0.1659499976085499, 0.15410000196425244, 0.15315000200644135, 0.15259999781847, 0.15874999371590093, 0.1542999962111935, 0.1540000012028031, 0.15234999591484666, 0.1668499971856363, 0.1535499977762811, 0.15315000200644135, 0.16275000234600157, 0.1545999984955415, 0.1566499995533377, 0.15535000420641154, 0.1564999984111637, 0.1603499986231327, 0.1584999990882352, 0.1594500063220039, 0.15410000196425244, 0.16755000251578167, 0.15690000145696104, 0.15430000348715112, 0.15504999464610592, 0.15410000196425244, 0.1539999939268455, 0.15424999583046883, 0.15235000319080427, 0.15334999625338241, 0.15279999934136868, 0.15315000200644135, 0.15320000238716602, 0.3276000134064816, 0.15689999418100342, 0.1591500040376559, 0.15714999608462676, 0.15590000111842528, 0.15534999693045393, 0.15565000649075955, 0.1614499997231178, 0.1538500000606291, 0.15264999819919467, 0.15485000039916486, 0.1727499984554015, 0.2056500015896745, 0.15535000420641154, 0.16180000238819048, 0.15514999540755525, 0.15390000044135377, 0.1540000012028031, 0.16960000357357785, 0.15374999929917976, 0.1545999984955415, 0.15345000429078937, 0.16390000382671133, 0.1553999973111786, 0.15424999583046883, 0.1555499984533526, 0.1546500061522238, 0.15574999997625127, 0.15390000044135377, 0.1558500007377006, 0.15474999963771552, 0.15395000082207844, 0.156299996888265, 0.15705000259913504, 0.15295000048354268, 0.15420000272570178, 0.1564999984111637, 0.1542999962111935, 0.15394999354612082, 0.16485000378452241, 0.16865000361576676, 0.1545999984955415, 0.1558500007377006, 0.15474999963771552, 0.15904999600024894, 0.15464999887626618, 0.15430000348715112, 0.1534000039100647, 0.1549500011606142, 0.1544499973533675, 0.155999994603917, 0.1608500024303794, 0.16519999917363748, 0.16025000513764098, 0.1568000006955117, 0.16234999930020422, 0.15545000496786088, 0.15445000462932512, 0.15320000238716602, 0.15640000492567196, 0.15854999946895987, 0.15469999925699085, 0.15434999659191817, 0.15654999879188836, 0.15440000424860045, 0.15365000581368804, 0.15515000268351287, 0.1540000012028031, 0.1548000000184402, 0.15339999663410708, 0.17305000073974952, 0.15440000424860045, 0.15324999549193308, 0.15300000086426735, 0.15440000424860045, 0.15464999887626618],
  "Depth": 8.5,
  "Expectation Value": -3.463026523590088,
  "Optimal Expectation Value": -3.4939591884613037,
  "Optimizer durations [ms]": [4.298, 4.473, 4.101, 4.036, 4.053, 4.399, 4.122, 4.074, 4.284, 4.099, 4.048, 4.036, 4.159, 4.064, 4.038, 4.069, 4.12, 4.055, 4.043, 4.283, 4.438, 4.142, 4.084, 4.028, 4.073, 4.092, 4.047, 4.043, 4.433, 4.023, 4.125, 4.255, 4.208, 4.195, 4.236, 4.186, 4.059, 4.064, 4.235, 4.041, 4.375, 4.083, 4.34, 4.255, 4.064, 4.102, 4.094, 3.994, 4.042, 4.074, 4.068, 4.044, 4.035, 4.244, 4.044, 4.017, 4.035, 4.193, 4.058, 4.397, 4.077, 4.297, 4.153, 4.04, 4.035, 4.036, 4.083, 4.056, 4.228, 4.124, 4.032, 4.133, 4.085, 4.131, 4.076, 4.057, 6.984, 4.45, 4.085, 5.195, 4.463, 4.442, 5.678, 12.453, 5.182, 4.448, 4.231, 6.617, 4.576, 4.077, 5.147, 4.338, 4.049, 4.093, 6.773, 4.268, 4.083, 5.303, 4.421, 4.196, 6.656, 17.6, 4.708, 4.078, 4.811, 4.092, 4.081, 5.861, 4.317, 4.067, 5.066, 4.223, 4.204, 4.251, 7.004, 16.081, 4.117, 4.096, 5.039, 4.23, 4.065, 5.309, 5.779, 4.007, 5.254, 4.249, 4.04, 4.057, 6.856, 14.833, 6.886, 6.886, 4.246, 4.111, 3.971, 4.234, 4.127, 4.103, 4.161, 4.081, 4.079, 4.152, 3.999, 4.038, 4.018, 4.177, 4.337, 4.044, 4.019, 4.003, 5.058, 4.26, 4.026, 5.957, 7.397, 4.056, 4.472, 4.055, 4.023, 4.006, 3.992, 3.927, 3.994, 4.083, 4.059, 4.311, 4.018, 4.139, 4.056, 4.002, 3.997, 4.02, 4.008, 4.163, 4.033, 4.161, 3.96, 4.054, 4.011, 4.03, 4.01, 4.07, 4.085, 4.2, 3.985, 4.05, 4.446, 4.083, 4.061, 4.082, 4.188, 4.244, 4.188, 4.186, 4.035, 4.256, 4.196, 4.125, 3.952, 4.036, 4.079, 4.041, 4.036, 4.05, 4.051, 4.09, 4.02, 7.34, 11.845, 4.066, 4.045, 4.067, 4.096, 4.065, 4.159, 4.038, 4.026, 4.207, 4.453, 5.077, 4.13, 4.247, 4.132, 4.047, 4.047, 4.538, 4.097, 4.068, 4.217, 4.484, 4.101, 4.051, 4.058, 4.077, 4.156, 4.053, 4.103, 4.13, 3.995, 4.16, 3.988, 4.048, 4.037, 4.098, 4.099, 4.065, 4.29, 4.345, 4.102, 4.094, 4.097, 4.137, 4.108, 4.08, 4.083, 4.165, 4.046, 4.091, 4.23, 4.487, 4.223, 4.086, 4.257, 4.182, 4.075, 4.058, 4.234, 4.156, 4.061, 4.08, 4.044, 4.062, 4.043, 4.152, 4.078, 4.096, 4.048, 4.353, 4.043, 4.06, 4.079, 4.075, 4.109],
  "Optimizer iterations": 283,
  "Optimizer params": [0.572796925642452, 0.5749404308259496, 0.5326791636849693, 0.9202353213086755, 0.3802757604474145, 0.5635426826049967, 0.4825550561843497, 0.9680547432718994, 0.9538137065905788, 0.9920422074494636, 0.9445309943469583, 0.9333491353789201],
  "P": 0,
  "Problem": "IC",
  "QJob durations [ms]": [0.15530000382568687, 0.17179999849759042, 0.15965000056894496, 0.15645000530639663, 0.15690000145696104, 0.1684500020928681, 0.15799999528098851, 0.15749999874969944, 0.16535000031581149, 0.15890000213403255, 0.1569500018376857, 0.15550000534858555, 0.16055000014603138, 0.15659999917261302, 0.15630000416422263, 0.15659999917261302, 0.16039999900385737, 0.15729999722680077, 0.15549999807262793, 0.15974999405443668, 0.16619999951217324, 0.15814999642316252, 0.15764999989187345, 0.15605000226059929, 0.1558500007377006, 0.15859999984968454, 0.15600000187987462, 0.15550000534858555, 0.16844999481691048, 0.15590000111842528, 0.15904999600024894, 0.16545000107726082, 0.1620499970158562, 0.16304999735439196, 0.1594499990460463, 0.15965000056894496, 0.15610000264132395, 0.15485000039916486, 0.16465000226162374, 0.15574999997625127, 0.1634500004001893, 0.1564999984111637, 0.16884999786270782, 0.16239999968092889, 0.1575499991304241, 0.15764999989187345, 0.15935000556055456, 0.1556999995955266, 0.15679999341955408, 0.15814999642316252, 0.1566499995533377, 0.15499999426538125, 0.15615000302204862, 0.16450000111944973, 0.15549999807262793, 0.15485000039916486, 0.15590000111842528, 0.16060000052675605, 0.15574999997625127, 0.16480000340379775, 0.15634999726898968, 0.15804999566171318, 0.1589499952387996, 0.15685000107623637, 0.15630000416422263, 0.15755000640638173, 0.15669999993406236, 0.15630000416422263, 0.16414999845437706, 0.15644999803043902, 0.15530000382568687, 0.1586500002304092, 0.1566499995533377, 0.15980000171111897, 0.15675000031478703, 0.15604999498464167, 0.14925000141374767, 0.1611499974387698, 0.15469999925699085, 0.15634999726898968, 0.1611499974387698, 0.16445000073872507, 0.23764999787090346, 0.1655000014579855, 0.20935000065946952, 0.16494999727001414, 0.1632999992580153, 0.28825000481447205, 0.16614999913144857, 0.15430000348715112, 0.20870000298600644, 0.16140000661835074, 0.1540000012028031, 0.1562000034027733, 0.30124999466352165, 0.15814999642316252, 0.1544499973533675, 0.22104999516159296, 0.1610000035725534, 0.16199999663513154, 0.2822500027832575, 0.1388000018778257, 0.17010000010486692, 0.15490000077988952, 0.1880999989225529, 0.15485000039916486, 0.15485000039916486, 0.26074999914271757, 0.15494999388465658, 0.1541499950690195, 0.15374999929917976, 0.15564999921480194, 0.15770000027259812, 0.15985000209184363, 0.1418999963789247, 0.16664999566273764, 0.1563500045449473, 0.15580000035697594, 0.20899999799439684, 0.15529999654972926, 0.15490000077988952, 0.2244500064989552, 0.1662499998928979, 0.15785000141477212, 0.21625000226777047, 0.15770000027259812, 0.15374999929917976, 0.15509999502683058, 0.1417500025127083, 0.338099998771213, 0.18960000306833535, 0.262700006715022, 0.15799999528098851, 0.15610000264132395, 0.15730000450275838, 0.16490000416524708, 0.1569500018376857, 0.1621999981580302, 0.16289999621221796, 0.1597500013303943, 0.15595000149914995, 0.1545000050100498, 0.1545999984955415, 0.15254999743774533, 0.15329999587265775, 0.1572499968460761, 0.15685000107623637, 0.1532500027678907, 0.15270000585587695, 0.15240000357152894, 0.2015999998548068, 0.1583499979460612, 0.15305000124499202, 0.2312500073458068, 0.16584999684710056, 0.15364999853773043, 0.17205000040121377, 0.15320000238716602, 0.15334999625338241, 0.15875000099185854, 0.15505000192206353, 0.1541500023449771, 0.15324999549193308, 0.15314999473048374, 0.15339999663410708, 0.16164999397005886, 0.15329999587265775, 0.15904999600024894, 0.15419999544974416, 0.15770000027259812, 0.15320000238716602, 0.15474999963771552, 0.15259999781847, 0.15800000255694613, 0.15859999984968454, 0.1659499976085499, 0.15410000196425244, 0.15315000200644135, 0.15259999781847, 0.15874999371590093, 0.1542999962111935, 0.1540000012028031, 0.15234999591484666, 0.1668499971856363, 0.1535499977762811, 0.15315000200644135, 0.16275000234600157, 0.1545999984955415, 0.1566499995533377, 0.15535000420641154, 0.1564999984111637, 0.1603499986231327, 0.1584999990882352, 0.1594500063220039, 0.15410000196425244, 0.16755000251578167, 0.15690000145696104, 0.15430000348715112, 0.15504999464610592, 0.15410000196425244, 0.1539999939268455, 0.15424999583046883, 0.15235000319080427, 0.15334999625338241, 0.15279999934136868, 0.15315000200644135, 0.15320000238716602, 0.3276000134064816, 0.15689999418100342, 0.1591500040376559, 0.15714999608462676, 0.15590000111842528, 0.15534999693045393, 0.15565000649075955, 0.1614499997231178, 0.1538500000606291, 0.15264999819919467, 0.15485000039916486, 0.1727499984554015, 0.2056500015896745, 0.15535000420641154, 0.16180000238819048, 0.15514999540755525, 0.15390000044135377, 0.1540000012028031, 0.16960000357357785, 0.15374999929917976, 0.1545999984955415, 0.15345000429078937, 0.16390000382671133, 0.1553999973111786, 0.15424999583046883, 0.1555499984533526, 0.1546500061522238, 0.15574999997625127, 0.15390000044135377, 0.1558500007377006, 0.15474999963771552, 0.15395000082207844, 0.156299996888265, 0.15705000259913504, 0.15295000048354268, 0.15420000272570178, 0.1564999984111637, 0.1542999962111935, 0.15394999354612082, 0.16485000378452241, 0.16865000361576676, 0.1545999984955415, 0.1558500007377006, 0.15474999963771552, 0.15904999600024894, 0.15464999887626618, 0.15430000348715112, 0.1534000039100647, 0.1549500011606142, 0.1544499973533675, 0.155999994603917, 0.1608500024303794, 0.16519999917363748, 0.16025000513764098, 0.1568000006955117, 0.16234999930020422, 0.15545000496786088, 0.15445000462932512, 0.15320000238716602, 0.15640000492567196, 0.15854999946895987, 0.15469999925699085, 0.15434999659191817, 0.15654999879188836, 0.15440000424860045, 0.15365000581368804, 0.15515000268351287, 0.1540000012028031, 0.1548000000184402, 0.15339999663410708, 0.17305000073974952, 0.15440000424860045, 0.15324999549193308, 0.15300000086426735, 0.15440000424860045, 0.15464999887626618],
  "QPU": "7000000",
  "Qubits": 3,
  "Queue durations [ms]": [0.0, 0.0, 0.0, 0.0, 0.0, 0.0, 0.0, 0.0, 0.0, 0.0, 0.0, 0.0, 0.0, 0.0, 0.0, 0.0, 0.0, 0.0, 0.0, 0.0, 0.0, 0.0, 0.0, 0.0, 0.0, 0.0, 0.0, 0.0, 0.0, 0.0, 0.0, 0.0, 0.0, 0.0, 0.0, 0.0, 0.0, 0.0, 0.0, 0.0, 0.0, 0.0, 0.0, 0.0, 0.0, 0.0, 0.0, 0.0, 0.0, 0.0, 0.0, 0.0, 0.0, 0.0, 0.0, 0.0, 0.0, 0.0, 0.0, 0.0, 0.0, 0.0, 0.0, 0.0, 0.0, 0.0, 0.0, 0.0, 0.0, 0.0, 0.0, 0.0, 0.0, 0.0, 0.0, 0.0, 0.0, 0.0, 0.0, 0.0, 0.0, 0.0, 0.0, 0.0, 0.0, 0.0, 0.0, 0.0, 0.0, 0.0, 0.0, 0.0, 0.0, 0.0, 0.0, 0.0, 0.0, 0.0, 0.0, 0.0, 0.0, 0.0, 0.0, 0.0, 0.0, 0.0, 0.0, 0.0, 0.0, 0.0, 0.0, 0.0, 0.0, 0.0, 0.0, 0.0, 0.0, 0.0, 0.0, 0.0, 0.0, 0.0, 0.0, 0.0, 0.0, 0.0, 0.0, 0.0, 0.0, 0.0, 0.0, 0.0, 0.0, 0.0, 0.0, 0.0, 0.0, 0.0, 0.0, 0.0, 0.0, 0.0, 0.0, 0.0, 0.0, 0.0, 0.0, 0.0, 0.0, 0.0, 0.0, 0.0, 0.0, 0.0, 0.0, 0.0, 0.0, 0.0, 0.0, 0.0, 0.0, 0.0, 0.0, 0.0, 0.0, 0.0, 0.0, 0.0, 0.0, 0.0, 0.0, 0.0, 0.0, 0.0, 0.0, 0.0, 0.0, 0.0, 0.0, 0.0, 0.0, 0.0, 0.0, 0.0, 0.0, 0.0, 0.0, 0.0, 0.0, 0.0, 0.0, 0.0, 0.0, 0.0, 0.0, 0.0, 0.0, 0.0, 0.0, 0.0, 0.0, 0.0, 0.0, 0.0, 0.0, 0.0, 0.0, 0.0, 0.0, 0.0, 0.0, 0.0, 0.0, 0.0, 0.0, 0.0, 0.0, 0.0, 0.0, 0.0, 0.0, 0.0, 0.0, 0.0, 0.0, 0.0, 0.0, 0.0, 0.0, 0.0, 0.0, 0.0, 0.0, 0.0, 0.0, 0.0, 0.0, 0.0, 0.0, 0.0, 0.0, 0.0, 0.0, 0.0, 0.0, 0.0, 0.0, 0.0, 0.0, 0.0, 0.0, 0.0, 0.0, 0.0, 0.0, 0.0, 0.0, 0.0, 0.0, 0.0, 0.0, 0.0, 0.0, 0.0, 0.0, 0.0, 0.0, 0.0, 0.0, 0.0, 0.0, 0.0, 0.0, 0.0, 0.0, 0.0, 0.0, 0.0, 0.0, 0.0, 0.0, 0.0, 0.0],
  "Shots": 4096,
  "Size": 3,
  "Total Algorithm duration [s]": 1.267,
  "Total Classic duration [s]": 1.2208730999774997,
  "Total Quantum duration [s]": 0.046126900022500195
}
