{
  "Circuit execution durations [ms]": [0.17025000124704093, 0.15559999883407727, 0.15500000154133886, 0.1549500011606142, 0.16525000683031976, 0.1555499984533526, 0.15590000111842528, 0.15610000264132395, 0.1631499981158413, 0.1569500018376857, 0.15624999650754035, 0.16554999456275254, 0.15729999722680077, 0.15534999693045393, 0.15419999544974416, 0.15559999883407727, 0.15700000221841037, 0.15875000099185854, 0.15485000039916486, 0.18900000577559695, 0.155999994603917, 0.15335000352934003, 0.1571000029798597, 0.15464999887626618, 0.15345000429078937, 0.15464999887626618, 0.15720000374130905, 0.1548000000184402, 0.15479999274248257, 0.1535499977762811, 0.20699999731732532, 0.16515000606887043, 0.16239999968092889, 0.16169999435078353, 0.15625000378349796, 0.15544999769190326, 0.1582000040798448, 0.15740000526420772, 0.1583500052220188, 0.15799999528098851, 0.16709999908925965, 0.1597500013303943, 0.15965000056894496, 0.15780000103404745, 0.16319999849656597, 0.16535000031581149, 0.16250000044237822, 0.15639999764971435, 0.1563500045449473, 0.1556999995955266, 0.15644999803043902, 0.15749999874969944, 0.16509999841218814, 0.15555000572931021, 0.15630000416422263, 0.15679999341955408, 0.16400000458816066, 0.1566499995533377, 0.16214999777730554, 0.15780000103404745, 0.19969999993918464, 0.1584999990882352, 0.15594999422319233, 0.16214999777730554, 0.16290000348817557, 0.1570999957039021, 0.16060000052675605, 0.32159999682335183, 0.19064999651163816, 0.16039999900385737, 0.16119999781949446, 0.25895000726450235, 0.1403499991283752, 0.261649998719804, 0.1766499990480952, 0.15685000107623637, 0.1554000045871362, 0.15485000039916486, 0.18459999409969896, 0.1583500052220188, 0.15690000145696104, 0.1541500023449771, 0.1542999962111935, 0.15349999739555642, 0.152749998960644, 0.1697000043350272, 0.15515000268351287, 0.15305000124499202, 0.15315000200644135, 0.1593000051798299, 0.15904999600024894, 0.1535500050522387, 0.1564999984111637, 0.1549500011606142, 0.15305000124499202, 0.1531000016257167, 0.15705000259913504, 0.1541500023449771, 0.1545999984955415, 0.15580000035697594, 0.15789999451953918, 0.15364999853773043, 0.1544499973533675, 0.15374999929917976, 0.15420000272570178, 0.15810000331839547, 0.15669999993406236, 0.15329999587265775, 0.15610000264132395, 0.1614499997231178, 0.15315000200644135, 0.15395000082207844, 0.15250000433297828, 0.15330000314861536, 0.15339999663410708, 0.15360000543296337, 0.15334999625338241, 0.1536999989184551, 0.15910000365693122, 0.16560000221943483, 0.16400000458816066, 0.1584999990882352, 0.15320000238716602, 0.15970000094966963, 0.15744999836897478, 0.15279999934136868, 0.15234999591484666, 0.16390000382671133, 0.17139999545179307, 0.15669999993406236, 0.1633500069146976, 0.1552499961690046, 0.15669999993406236, 0.1566499995533377, 0.15519999578827992, 0.15390000044135377, 0.1551000023027882, 0.15580000035697594, 0.1693500016699545, 0.1536999989184551, 0.15269999857991934, 0.15439999697264284, 0.15499999426538125, 0.1541500023449771, 0.15759999951114878, 0.15825000446056947, 0.15464999887626618, 0.15545000496786088, 0.16099999629659578, 0.15509999502683058, 0.1541500023449771, 0.1535499977762811, 0.1536999989184551, 0.18989999807672575, 0.15460000577149913, 0.15349999739555642, 0.1568000006955117, 0.1553999973111786, 0.15379999967990443, 0.15645000530639663, 0.15485000039916486, 0.1540000012028031, 0.15330000314861536, 0.1539999939268455, 0.15574999997625127, 0.1534000039100647, 0.15535000420641154, 0.15729999722680077, 0.16039999900385737, 0.156299996888265, 0.15530000382568687, 0.167199999850709, 0.16164999397005886, 0.1634500004001893, 0.15920000441838056, 0.15690000145696104, 0.16039999900385737, 0.15559999883407727, 0.16309999773511663, 0.1531999951112084, 0.15409999468829483, 0.18414999794913456, 0.15504999464610592, 0.1563500045449473, 0.15999999595806003, 0.1603499986231327, 0.15430000348715112, 0.1541500023449771, 0.16260000120382756, 0.15690000145696104, 0.15574999997625127, 0.15440000424860045, 0.1538500000606291, 0.16090000281110406, 0.15505000192206353, 0.15829999756533653, 0.15474999963771552, 0.15434999659191817, 0.15269999857991934, 0.15669999993406236, 0.1834499998949468, 0.15580000035697594, 0.15490000077988952, 0.15580000035697594, 0.16074999439297244, 0.1532500027678907, 0.15440000424860045, 0.15485000039916486, 0.15374999929917976, 0.16109999705804512, 0.15439999697264284, 0.17169999773614109, 0.15419999544974416, 0.1548000000184402, 0.15364999853773043, 0.15685000107623637, 0.15390000044135377, 0.15529999654972926, 0.15374999929917976, 0.15410000196425244, 0.15359999815700576, 0.15430000348715112, 0.156149995746091, 0.1677999971434474, 0.1581999968038872, 0.1628500031074509, 0.16020000475691631, 0.16000000323401764, 0.18065000040223822],
  "Depth": 8.5,
  "Expectation Value": -3.2493278980255127,
  "Optimal Expectation Value": -3.4939591884613037,
  "Optimizer durations [ms]": [4.742, 4.114, 4.155, 4.068, 4.262, 4.071, 4.029, 4.075, 4.143, 4.084, 4.033, 4.367, 4.185, 4.082, 4.117, 4.123, 4.11, 4.257, 4.122, 4.782, 4.09, 4.039, 4.142, 4.119, 4.03, 4.114, 4.056, 3.999, 4.081, 4.054, 5.19, 4.426, 4.196, 4.141, 4.031, 4.012, 4.057, 4.146, 4.147, 4.058, 4.554, 4.14, 4.104, 4.144, 4.222, 4.292, 4.223, 4.068, 4.032, 4.021, 4.076, 4.143, 4.327, 4.048, 4.048, 4.015, 4.184, 4.026, 4.342, 4.119, 4.888, 4.167, 4.046, 4.204, 4.282, 4.063, 4.184, 6.907, 14.091, 4.384, 4.16, 6.034, 18.213, 7.012, 5.464, 4.121, 4.08, 4.071, 4.71, 4.111, 4.156, 4.097, 4.097, 4.043, 4.055, 4.588, 4.104, 4.034, 4.074, 4.026, 4.236, 4.042, 4.174, 4.128, 4.013, 4.044, 4.127, 4.095, 4.05, 4.124, 4.1, 4.07, 4.007, 4.036, 4.038, 4.085, 4.106, 4.068, 4.153, 4.278, 4.054, 4.042, 4.008, 4.042, 4.044, 4.048, 4.093, 4.084, 4.193, 4.376, 4.143, 4.127, 4.045, 4.017, 4.225, 4.01, 4.05, 4.439, 4.336, 4.166, 4.181, 4.106, 4.011, 4.058, 4.066, 4.195, 4.021, 3.983, 4.393, 4.038, 4.031, 4.113, 4.346, 4.08, 4.011, 4.07, 4.039, 4.193, 4.262, 3.95, 4.034, 4.042, 4.086, 4.868, 4.082, 4.052, 4.046, 4.073, 4.063, 4.157, 4.014, 8.839, 3.928, 4.097, 4.365, 4.151, 4.048, 3.988, 4.243, 4.107, 4.984, 4.448, 4.164, 4.267, 4.196, 4.042, 4.07, 4.081, 4.262, 4.07, 4.048, 4.604, 4.085, 4.149, 4.272, 4.108, 4.119, 4.061, 4.358, 4.09, 4.024, 4.06, 4.044, 4.048, 4.06, 4.229, 4.058, 4.064, 4.038, 4.058, 4.733, 4.102, 4.084, 3.979, 4.078, 4.026, 4.045, 4.084, 4.065, 4.524, 4.095, 4.364, 3.939, 3.98, 3.94, 4.002, 3.924, 3.973, 4.147, 4.079, 4.046, 4.095, 4.119, 4.307, 4.184, 4.304, 4.2, 4.165, 4.523],
  "Optimizer iterations": 229,
  "Optimizer params": [0.9486319693133073, 0.9999999999999999, 0.9982678302729563, 0.9840182759421023, 0.8449117242008586, 0.6210448125241033, 0.9158306709700671, 0.12004400563101951, 0.09773092540410998, 0.996008815805693, 0.5046671370368774, 0.49792665934027847],
  "P": 0,
  "Problem": "IC",
  "QJob durations [ms]": [0.17025000124704093, 0.15559999883407727, 0.15500000154133886, 0.1549500011606142, 0.16525000683031976, 0.1555499984533526, 0.15590000111842528, 0.15610000264132395, 0.1631499981158413, 0.1569500018376857, 0.15624999650754035, 0.16554999456275254, 0.15729999722680077, 0.15534999693045393, 0.15419999544974416, 0.15559999883407727, 0.15700000221841037, 0.15875000099185854, 0.15485000039916486, 0.18900000577559695, 0.155999994603917, 0.15335000352934003, 0.1571000029798597, 0.15464999887626618, 0.15345000429078937, 0.15464999887626618, 0.15720000374130905, 0.1548000000184402, 0.15479999274248257, 0.1535499977762811, 0.20699999731732532, 0.16515000606887043, 0.16239999968092889, 0.16169999435078353, 0.15625000378349796, 0.15544999769190326, 0.1582000040798448, 0.15740000526420772, 0.1583500052220188, 0.15799999528098851, 0.16709999908925965, 0.1597500013303943, 0.15965000056894496, 0.15780000103404745, 0.16319999849656597, 0.16535000031581149, 0.16250000044237822, 0.15639999764971435, 0.1563500045449473, 0.1556999995955266, 0.15644999803043902, 0.15749999874969944, 0.16509999841218814, 0.15555000572931021, 0.15630000416422263, 0.15679999341955408, 0.16400000458816066, 0.1566499995533377, 0.16214999777730554, 0.15780000103404745, 0.19969999993918464, 0.1584999990882352, 0.15594999422319233, 0.16214999777730554, 0.16290000348817557, 0.1570999957039021, 0.16060000052675605, 0.32159999682335183, 0.19064999651163816, 0.16039999900385737, 0.16119999781949446, 0.25895000726450235, 0.1403499991283752, 0.261649998719804, 0.1766499990480952, 0.15685000107623637, 0.1554000045871362, 0.15485000039916486, 0.18459999409969896, 0.1583500052220188, 0.15690000145696104, 0.1541500023449771, 0.1542999962111935, 0.15349999739555642, 0.152749998960644, 0.1697000043350272, 0.15515000268351287, 0.15305000124499202, 0.15315000200644135, 0.1593000051798299, 0.15904999600024894, 0.1535500050522387, 0.1564999984111637, 0.1549500011606142, 0.15305000124499202, 0.1531000016257167, 0.15705000259913504, 0.1541500023449771, 0.1545999984955415, 0.15580000035697594, 0.15789999451953918, 0.15364999853773043, 0.1544499973533675, 0.15374999929917976, 0.15420000272570178, 0.15810000331839547, 0.15669999993406236, 0.15329999587265775, 0.15610000264132395, 0.1614499997231178, 0.15315000200644135, 0.15395000082207844, 0.15250000433297828, 0.15330000314861536, 0.15339999663410708, 0.15360000543296337, 0.15334999625338241, 0.1536999989184551, 0.15910000365693122, 0.16560000221943483, 0.16400000458816066, 0.1584999990882352, 0.15320000238716602, 0.15970000094966963, 0.15744999836897478, 0.15279999934136868, 0.15234999591484666, 0.16390000382671133, 0.17139999545179307, 0.15669999993406236, 0.1633500069146976, 0.1552499961690046, 0.15669999993406236, 0.1566499995533377, 0.15519999578827992, 0.15390000044135377, 0.1551000023027882, 0.15580000035697594, 0.1693500016699545, 0.1536999989184551, 0.15269999857991934, 0.15439999697264284, 0.15499999426538125, 0.1541500023449771, 0.15759999951114878, 0.15825000446056947, 0.15464999887626618, 0.15545000496786088, 0.16099999629659578, 0.15509999502683058, 0.1541500023449771, 0.1535499977762811, 0.1536999989184551, 0.18989999807672575, 0.15460000577149913, 0.15349999739555642, 0.1568000006955117, 0.1553999973111786, 0.15379999967990443, 0.15645000530639663, 0.15485000039916486, 0.1540000012028031, 0.15330000314861536, 0.1539999939268455, 0.15574999997625127, 0.1534000039100647, 0.15535000420641154, 0.15729999722680077, 0.16039999900385737, 0.156299996888265, 0.15530000382568687, 0.167199999850709, 0.16164999397005886, 0.1634500004001893, 0.15920000441838056, 0.15690000145696104, 0.16039999900385737, 0.15559999883407727, 0.16309999773511663, 0.1531999951112084, 0.15409999468829483, 0.18414999794913456, 0.15504999464610592, 0.1563500045449473, 0.15999999595806003, 0.1603499986231327, 0.15430000348715112, 0.1541500023449771, 0.16260000120382756, 0.15690000145696104, 0.15574999997625127, 0.15440000424860045, 0.1538500000606291, 0.16090000281110406, 0.15505000192206353, 0.15829999756533653, 0.15474999963771552, 0.15434999659191817, 0.15269999857991934, 0.15669999993406236, 0.1834499998949468, 0.15580000035697594, 0.15490000077988952, 0.15580000035697594, 0.16074999439297244, 0.1532500027678907, 0.15440000424860045, 0.15485000039916486, 0.15374999929917976, 0.16109999705804512, 0.15439999697264284, 0.17169999773614109, 0.15419999544974416, 0.1548000000184402, 0.15364999853773043, 0.15685000107623637, 0.15390000044135377, 0.15529999654972926, 0.15374999929917976, 0.15410000196425244, 0.15359999815700576, 0.15430000348715112, 0.156149995746091, 0.1677999971434474, 0.1581999968038872, 0.1628500031074509, 0.16020000475691631, 0.16000000323401764, 0.18065000040223822],
  "QPU": "7000000",
  "Qubits": 3,
  "Queue durations [ms]": [0.0, 0.0, 0.0, 0.0, 0.0, 0.0, 0.0, 0.0, 0.0, 0.0, 0.0, 0.0, 0.0, 0.0, 0.0, 0.0, 0.0, 0.0, 0.0, 0.0, 0.0, 0.0, 0.0, 0.0, 0.0, 0.0, 0.0, 0.0, 0.0, 0.0, 0.0, 0.0, 0.0, 0.0, 0.0, 0.0, 0.0, 0.0, 0.0, 0.0, 0.0, 0.0, 0.0, 0.0, 0.0, 0.0, 0.0, 0.0, 0.0, 0.0, 0.0, 0.0, 0.0, 0.0, 0.0, 0.0, 0.0, 0.0, 0.0, 0.0, 0.0, 0.0, 0.0, 0.0, 0.0, 0.0, 0.0, 0.0, 0.0, 0.0, 0.0, 0.0, 0.0, 0.0, 0.0, 0.0, 0.0, 0.0, 0.0, 0.0, 0.0, 0.0, 0.0, 0.0, 0.0, 0.0, 0.0, 0.0, 0.0, 0.0, 0.0, 0.0, 0.0, 0.0, 0.0, 0.0, 0.0, 0.0, 0.0, 0.0, 0.0, 0.0, 0.0, 0.0, 0.0, 0.0, 0.0, 0.0, 0.0, 0.0, 0.0, 0.0, 0.0, 0.0, 0.0, 0.0, 0.0, 0.0, 0.0, 0.0, 0.0, 0.0, 0.0, 0.0, 0.0, 0.0, 0.0, 0.0, 0.0, 0.0, 0.0, 0.0, 0.0, 0.0, 0.0, 0.0, 0.0, 0.0, 0.0, 0.0, 0.0, 0.0, 0.0, 0.0, 0.0, 0.0, 0.0, 0.0, 0.0, 0.0, 0.0, 0.0, 0.0, 0.0, 0.0, 0.0, 0.0, 0.0, 0.0, 0.0, 0.0, 0.0, 0.0, 0.0, 0.0, 0.0, 0.0, 0.0, 0.0, 0.0, 0.0, 0.0, 0.0, 0.0, 0.0, 0.0, 0.0, 0.0, 0.0, 0.0, 0.0, 0.0, 0.0, 0.0, 0.0, 0.0, 0.0, 0.0, 0.0, 0.0, 0.0, 0.0, 0.0, 0.0, 0.0, 0.0, 0.0, 0.0, 0.0, 0.0, 0.0, 0.0, 0.0, 0.0, 0.0, 0.0, 0.0, 0.0, 0.0, 0.0, 0.0, 0.0, 0.0, 0.0, 0.0, 0.0, 0.0, 0.0, 0.0, 0.0, 0.0, 0.0, 0.0, 0.0, 0.0, 0.0, 0.0, 0.0, 0.0],
  "Shots": 4096,
  "Size": 3,
  "Total Algorithm duration [s]": 0.988,
  "Total Classic duration [s]": 0.9513475499940687,
  "Total Quantum duration [s]": 0.036652450005931314
}
