{
  "Circuit execution durations [ms]": [0.15775000065332279, 0.17334999574813992, 0.15729999722680077, 0.15590000111842528, 0.15720000374130905, 0.1568000006955117, 0.15839999832678586, 0.15689999418100342, 0.15789999451953918, 0.15855000674491748, 0.1551000023027882, 0.1555499984533526, 0.15590000111842528, 0.156149995746091, 0.15654999879188836, 0.1552499961690046, 0.1596000001882203, 0.15254999743774533, 0.1579000017954968, 0.1541499950690195, 0.20429999858606607, 0.156149995746091, 0.1571000029798597, 0.15770000027259812, 0.1553999973111786, 0.15605000226059929, 0.1545999984955415, 0.15740000526420772, 0.16060000052675605, 0.15505000192206353, 0.1580500029376708, 0.29910000012023374, 0.16704999870853499, 0.15574999997625127, 0.15830000484129414, 0.15675000031478703, 0.15644999803043902, 0.15885000175330788, 0.16379999578930438, 0.1994500053115189, 0.15644999803043902, 0.15725000412203372, 0.15514999540755525, 0.1568000006955117, 0.15590000111842528, 0.1562000034027733, 0.1558500007377006, 0.16355000116163865, 0.15490000077988952, 0.15374999929917976, 0.15490000077988952, 0.15379999967990443, 0.15644999803043902, 0.192599996807985, 0.1625500008231029, 0.1564999984111637, 0.16055000014603138, 0.15910000365693122, 0.1573999979882501, 0.16109999705804512, 0.16399999731220305, 0.16725000023143366, 0.15735000488348305, 0.15379999967990443, 0.30565000633941963, 0.15574999997625127, 0.15659999917261302, 0.15464999887626618, 0.15564999921480194, 0.15545000496786088, 0.15544999769190326, 0.15800000255694613, 0.15395000082207844, 0.1596000001882203, 0.15264999819919467, 0.15639999764971435, 0.15425000310642645, 0.15420000272570178, 0.15350000467151403, 0.1573999979882501, 0.15454999811481684, 0.15779999375808984, 0.15504999464610592, 0.15379999967990443, 0.15390000044135377, 0.1569499945617281, 0.15424999583046883, 0.16205000429181382, 0.15374999929917976, 0.15630000416422263, 0.1541500023449771, 0.15455000539077446, 0.15394999354612082, 0.15405000158352777, 0.16830000095069408, 0.15744999836897478, 0.15379999967990443, 0.15729999722680077, 0.15580000035697594, 0.1538500000606291, 0.15374999929917976, 0.15519999578827992, 0.3491000024951063, 0.3144999936921522, 0.14690000170958228, 0.1558500007377006, 0.16180000238819048, 0.16585000412305817, 0.18190000264439732, 0.15590000111842528, 0.15704999532317743, 0.1590999963809736, 0.1612999985809438, 0.1607999947736971, 0.15729999722680077, 0.15410000196425244, 0.15349999739555642, 0.15715000336058438, 0.15534999693045393, 0.1544499973533675, 0.15374999929917976, 0.15405000158352777, 0.16699999832781032, 0.15624999650754035, 0.1566499995533377, 0.15395000082207844, 0.18659999477677047, 0.16650000179652125, 0.1556999995955266, 0.15800000255694613, 0.1568000006955117, 0.15690000145696104, 0.15514999540755525, 0.16239999968092889, 0.15669999993406236, 0.15374999929917976, 0.1545999984955415, 0.15720000374130905, 0.15634999726898968, 0.1538500000606291, 0.16139999934239313, 0.15734999760752544, 0.15734999760752544, 0.15700000221841037, 0.15870000061113387, 0.15544999769190326, 0.1558500007377006, 0.1569500018376857, 0.16134999896166846, 0.15529999654972926, 0.15360000543296337, 0.1549500011606142, 0.16294999659294263, 0.1555499984533526, 0.15615000302204862, 0.15500000154133886, 0.15559999883407727, 0.15449999773409218, 0.15434999659191817, 0.15885000175330788, 0.15744999836897478, 0.15715000336058438, 0.15775000065332279, 0.167199999850709, 0.16489999688928947, 0.15890000213403255, 0.15574999997625127, 0.18125000497093424, 0.15549999807262793, 0.15410000196425244, 0.1608500024303794, 0.15454999811481684, 0.15469999925699085, 0.15600000187987462, 0.15440000424860045, 0.1597500013303943, 0.15395000082207844, 0.15405000158352777, 0.15829999756533653, 0.16039999900385737, 0.1571000029798597, 0.1549500011606142, 0.15910000365693122, 0.15425000310642645, 0.1544499973533675, 0.16835000133141875, 0.15500000154133886, 0.15520000306423753, 0.15485000039916486, 0.15530000382568687, 0.1545999984955415, 0.15469999925699085, 0.16070000128820539, 0.16074999439297244, 0.1704500027699396, 0.15460000577149913, 0.16740000137360767, 0.16140000661835074, 0.15420000272570178, 0.15690000145696104, 0.15985000209184363, 0.1535500050522387, 0.1541499950690195, 0.1552499961690046, 0.15675000031478703, 0.15624999650754035, 0.15509999502683058, 0.1545999984955415, 0.15559999883407727, 0.15469999925699085, 0.1540000012028031, 0.1571000029798597, 0.16139999934239313, 0.1569500018376857, 0.15505000192206353, 0.17449999722884968, 0.16119999781949446, 0.1625500008231029, 0.15404999430757016, 0.16000000323401764, 0.15409999468829483, 0.17415000183973461, 0.19765000615734607, 0.13589999798568897, 0.15559999883407727, 0.15379999967990443, 0.15980000171111897, 0.1583500052220188, 0.15460000577149913, 0.15474999963771552, 0.15499999426538125, 0.15775000065332279, 0.1551000023027882, 0.1536999989184551, 0.15519999578827992, 0.15515000268351287, 0.15535000420641154, 0.15445000462932512, 0.16859999595908448, 0.16150000010384247, 0.15549999807262793, 0.1541500023449771, 0.1600499963387847, 0.15430000348715112, 0.15464999887626618, 0.15360000543296337, 0.2145000034943223, 0.1740000006975606, 0.15520000306423753, 0.1659499976085499, 0.15669999993406236, 0.1556999995955266, 0.15634999726898968, 0.3653999956441112, 0.2716000017244369, 0.20814999152207747, 0.16450000111944973, 0.15715000336058438, 0.15600000187987462, 0.19330000213813037, 0.15815000369912013, 0.15559999883407727, 0.1638999965507537, 0.1545999984955415, 0.15395000082207844, 0.15410000196425244, 0.1568000006955117, 0.15469999925699085, 0.15610000264132395, 0.15505000192206353, 0.1610000035725534, 0.15485000039916486, 0.15515000268351287, 0.16065000090748072, 0.17814999591792002, 0.16369999502785504, 0.15669999993406236, 0.16569999570492655, 0.15600000187987462, 0.1538500000606291, 0.1540000012028031, 0.16699999832781032, 0.15500000154133886, 0.15384999278467149, 0.15515000268351287, 0.15534999693045393, 0.15464999887626618, 0.15474999963771552, 0.15485000039916486, 0.15839999832678586, 0.15759999951114878, 0.1552500034449622, 0.1544499973533675, 0.15615000302204862, 0.15464999887626618, 0.16355000116163865, 0.17004999972414225, 0.15534999693045393, 0.1536999989184551, 0.15379999967990443, 0.1548999935039319, 0.15535000420641154, 0.1549500011606142],
  "Depth": 8.5,
  "Expectation Value": -3.4087018966674805,
  "Optimal Expectation Value": -3.4939591884613037,
  "Optimizer durations [ms]": [4.313, 4.523, 4.182, 3.998, 4.176, 4.135, 4.136, 4.068, 4.088, 17.836, 3.97, 4.001, 4.008, 3.986, 4.143, 3.994, 4.135, 3.998, 4.148, 3.999, 5.064, 4.153, 4.175, 4.055, 3.998, 4.007, 3.979, 4.022, 4.629, 3.985, 4.18, 6.87, 4.49, 4.011, 4.099, 4.388, 4.013, 4.217, 14.053, 5.05, 4.083, 4.136, 4.12, 7.272, 4.115, 4.062, 4.081, 4.352, 4.054, 4.057, 5.141, 4.042, 4.007, 4.797, 4.09, 4.012, 4.156, 14.392, 7.425, 4.222, 4.952, 4.972, 4.144, 4.047, 6.989, 4.196, 4.146, 4.077, 4.101, 4.101, 4.119, 4.03, 4.062, 12.882, 6.704, 4.1, 4.087, 4.063, 4.108, 4.17, 4.109, 4.247, 4.077, 4.107, 4.051, 4.008, 4.076, 7.322, 4.064, 4.028, 4.069, 4.09, 4.109, 4.092, 4.334, 4.121, 4.075, 4.139, 3.984, 4.024, 4.088, 4.102, 7.622, 20.023, 4.011, 4.154, 4.181, 4.25, 4.639, 5.62, 4.089, 4.248, 4.249, 4.249, 4.084, 4.125, 4.077, 4.209, 4.134, 4.095, 4.084, 4.065, 4.274, 4.103, 4.105, 4.04, 5.176, 4.488, 4.107, 4.12, 4.211, 4.125, 4.091, 4.236, 4.18, 4.05, 4.087, 4.021, 4.003, 4.034, 4.343, 4.183, 4.217, 4.185, 4.186, 4.109, 4.094, 4.11, 4.206, 4.109, 4.045, 4.126, 4.347, 4.155, 4.12, 4.304, 4.144, 4.109, 4.071, 4.133, 4.014, 4.083, 4.133, 4.611, 4.323, 4.197, 4.115, 4.612, 4.117, 4.074, 4.225, 4.093, 4.101, 3.997, 4.115, 4.281, 4.074, 4.056, 4.203, 4.263, 4.084, 4.145, 4.216, 4.088, 4.104, 4.345, 4.129, 4.107, 4.115, 4.196, 4.072, 4.101, 4.254, 4.617, 4.393, 4.123, 4.309, 4.204, 4.037, 4.115, 4.193, 4.031, 4.143, 4.117, 4.097, 4.091, 4.138, 4.169, 4.143, 4.072, 4.105, 4.315, 4.352, 4.132, 4.129, 4.422, 4.258, 4.23, 4.041, 4.109, 4.243, 4.629, 5.004, 15.023, 4.135, 4.115, 4.14, 4.15, 4.118, 4.118, 4.124, 4.29, 4.105, 4.102, 4.063, 4.091, 4.217, 4.071, 4.442, 4.148, 4.1, 4.067, 4.196, 4.06, 4.135, 4.063, 4.961, 4.829, 4.069, 4.401, 4.097, 4.101, 4.141, 7.859, 19.64, 6.421, 4.502, 4.153, 4.116, 4.737, 3.998, 4.081, 4.293, 4.084, 4.054, 4.093, 4.139, 4.109, 3.956, 4.083, 4.162, 4.067, 4.098, 4.249, 4.75, 4.351, 4.12, 4.377, 4.125, 4.044, 4.084, 4.247, 4.087, 4.073, 4.118, 4.196, 4.096, 4.067, 4.006, 4.208, 4.118, 4.096, 4.09, 4.123, 4.195, 4.371, 4.3, 4.11, 4.076, 4.085, 4.123, 4.116, 4.092],
  "Optimizer iterations": 303,
  "Optimizer params": [0.9366122210689682, 0.9372084555335054, 0.042983827081225015, 0.482912506328959, 0.6040487076148009, 0.5110020149830283, 0.9852052279191373, 0.9999831163290555, 0.03916788430555823, 0.2037757321429988, 0.811919456465692, 0.08617622523975298],
  "P": 0,
  "Problem": "IC",
  "QJob durations [ms]": [0.15775000065332279, 0.17334999574813992, 0.15729999722680077, 0.15590000111842528, 0.15720000374130905, 0.1568000006955117, 0.15839999832678586, 0.15689999418100342, 0.15789999451953918, 0.15855000674491748, 0.1551000023027882, 0.1555499984533526, 0.15590000111842528, 0.156149995746091, 0.15654999879188836, 0.1552499961690046, 0.1596000001882203, 0.15254999743774533, 0.1579000017954968, 0.1541499950690195, 0.20429999858606607, 0.156149995746091, 0.1571000029798597, 0.15770000027259812, 0.1553999973111786, 0.15605000226059929, 0.1545999984955415, 0.15740000526420772, 0.16060000052675605, 0.15505000192206353, 0.1580500029376708, 0.29910000012023374, 0.16704999870853499, 0.15574999997625127, 0.15830000484129414, 0.15675000031478703, 0.15644999803043902, 0.15885000175330788, 0.16379999578930438, 0.1994500053115189, 0.15644999803043902, 0.15725000412203372, 0.15514999540755525, 0.1568000006955117, 0.15590000111842528, 0.1562000034027733, 0.1558500007377006, 0.16355000116163865, 0.15490000077988952, 0.15374999929917976, 0.15490000077988952, 0.15379999967990443, 0.15644999803043902, 0.192599996807985, 0.1625500008231029, 0.1564999984111637, 0.16055000014603138, 0.15910000365693122, 0.1573999979882501, 0.16109999705804512, 0.16399999731220305, 0.16725000023143366, 0.15735000488348305, 0.15379999967990443, 0.30565000633941963, 0.15574999997625127, 0.15659999917261302, 0.15464999887626618, 0.15564999921480194, 0.15545000496786088, 0.15544999769190326, 0.15800000255694613, 0.15395000082207844, 0.1596000001882203, 0.15264999819919467, 0.15639999764971435, 0.15425000310642645, 0.15420000272570178, 0.15350000467151403, 0.1573999979882501, 0.15454999811481684, 0.15779999375808984, 0.15504999464610592, 0.15379999967990443, 0.15390000044135377, 0.1569499945617281, 0.15424999583046883, 0.16205000429181382, 0.15374999929917976, 0.15630000416422263, 0.1541500023449771, 0.15455000539077446, 0.15394999354612082, 0.15405000158352777, 0.16830000095069408, 0.15744999836897478, 0.15379999967990443, 0.15729999722680077, 0.15580000035697594, 0.1538500000606291, 0.15374999929917976, 0.15519999578827992, 0.3491000024951063, 0.3144999936921522, 0.14690000170958228, 0.1558500007377006, 0.16180000238819048, 0.16585000412305817, 0.18190000264439732, 0.15590000111842528, 0.15704999532317743, 0.1590999963809736, 0.1612999985809438, 0.1607999947736971, 0.15729999722680077, 0.15410000196425244, 0.15349999739555642, 0.15715000336058438, 0.15534999693045393, 0.1544499973533675, 0.15374999929917976, 0.15405000158352777, 0.16699999832781032, 0.15624999650754035, 0.1566499995533377, 0.15395000082207844, 0.18659999477677047, 0.16650000179652125, 0.1556999995955266, 0.15800000255694613, 0.1568000006955117, 0.15690000145696104, 0.15514999540755525, 0.16239999968092889, 0.15669999993406236, 0.15374999929917976, 0.1545999984955415, 0.15720000374130905, 0.15634999726898968, 0.1538500000606291, 0.16139999934239313, 0.15734999760752544, 0.15734999760752544, 0.15700000221841037, 0.15870000061113387, 0.15544999769190326, 0.1558500007377006, 0.1569500018376857, 0.16134999896166846, 0.15529999654972926, 0.15360000543296337, 0.1549500011606142, 0.16294999659294263, 0.1555499984533526, 0.15615000302204862, 0.15500000154133886, 0.15559999883407727, 0.15449999773409218, 0.15434999659191817, 0.15885000175330788, 0.15744999836897478, 0.15715000336058438, 0.15775000065332279, 0.167199999850709, 0.16489999688928947, 0.15890000213403255, 0.15574999997625127, 0.18125000497093424, 0.15549999807262793, 0.15410000196425244, 0.1608500024303794, 0.15454999811481684, 0.15469999925699085, 0.15600000187987462, 0.15440000424860045, 0.1597500013303943, 0.15395000082207844, 0.15405000158352777, 0.15829999756533653, 0.16039999900385737, 0.1571000029798597, 0.1549500011606142, 0.15910000365693122, 0.15425000310642645, 0.1544499973533675, 0.16835000133141875, 0.15500000154133886, 0.15520000306423753, 0.15485000039916486, 0.15530000382568687, 0.1545999984955415, 0.15469999925699085, 0.16070000128820539, 0.16074999439297244, 0.1704500027699396, 0.15460000577149913, 0.16740000137360767, 0.16140000661835074, 0.15420000272570178, 0.15690000145696104, 0.15985000209184363, 0.1535500050522387, 0.1541499950690195, 0.1552499961690046, 0.15675000031478703, 0.15624999650754035, 0.15509999502683058, 0.1545999984955415, 0.15559999883407727, 0.15469999925699085, 0.1540000012028031, 0.1571000029798597, 0.16139999934239313, 0.1569500018376857, 0.15505000192206353, 0.17449999722884968, 0.16119999781949446, 0.1625500008231029, 0.15404999430757016, 0.16000000323401764, 0.15409999468829483, 0.17415000183973461, 0.19765000615734607, 0.13589999798568897, 0.15559999883407727, 0.15379999967990443, 0.15980000171111897, 0.1583500052220188, 0.15460000577149913, 0.15474999963771552, 0.15499999426538125, 0.15775000065332279, 0.1551000023027882, 0.1536999989184551, 0.15519999578827992, 0.15515000268351287, 0.15535000420641154, 0.15445000462932512, 0.16859999595908448, 0.16150000010384247, 0.15549999807262793, 0.1541500023449771, 0.1600499963387847, 0.15430000348715112, 0.15464999887626618, 0.15360000543296337, 0.2145000034943223, 0.1740000006975606, 0.15520000306423753, 0.1659499976085499, 0.15669999993406236, 0.1556999995955266, 0.15634999726898968, 0.3653999956441112, 0.2716000017244369, 0.20814999152207747, 0.16450000111944973, 0.15715000336058438, 0.15600000187987462, 0.19330000213813037, 0.15815000369912013, 0.15559999883407727, 0.1638999965507537, 0.1545999984955415, 0.15395000082207844, 0.15410000196425244, 0.1568000006955117, 0.15469999925699085, 0.15610000264132395, 0.15505000192206353, 0.1610000035725534, 0.15485000039916486, 0.15515000268351287, 0.16065000090748072, 0.17814999591792002, 0.16369999502785504, 0.15669999993406236, 0.16569999570492655, 0.15600000187987462, 0.1538500000606291, 0.1540000012028031, 0.16699999832781032, 0.15500000154133886, 0.15384999278467149, 0.15515000268351287, 0.15534999693045393, 0.15464999887626618, 0.15474999963771552, 0.15485000039916486, 0.15839999832678586, 0.15759999951114878, 0.1552500034449622, 0.1544499973533675, 0.15615000302204862, 0.15464999887626618, 0.16355000116163865, 0.17004999972414225, 0.15534999693045393, 0.1536999989184551, 0.15379999967990443, 0.1548999935039319, 0.15535000420641154, 0.1549500011606142],
  "QPU": "7000000",
  "Qubits": 3,
  "Queue durations [ms]": [0.0, 0.0, 0.0, 0.0, 0.0, 0.0, 0.0, 0.0, 0.0, 0.0, 0.0, 0.0, 0.0, 0.0, 0.0, 0.0, 0.0, 0.0, 0.0, 0.0, 0.0, 0.0, 0.0, 0.0, 0.0, 0.0, 0.0, 0.0, 0.0, 0.0, 0.0, 0.0, 0.0, 0.0, 0.0, 0.0, 0.0, 0.0, 0.0, 0.0, 0.0, 0.0, 0.0, 0.0, 0.0, 0.0, 0.0, 0.0, 0.0, 0.0, 0.0, 0.0, 0.0, 0.0, 0.0, 0.0, 0.0, 0.0, 0.0, 0.0, 0.0, 0.0, 0.0, 0.0, 0.0, 0.0, 0.0, 0.0, 0.0, 0.0, 0.0, 0.0, 0.0, 0.0, 0.0, 0.0, 0.0, 0.0, 0.0, 0.0, 0.0, 0.0, 0.0, 0.0, 0.0, 0.0, 0.0, 0.0, 0.0, 0.0, 0.0, 0.0, 0.0, 0.0, 0.0, 0.0, 0.0, 0.0, 0.0, 0.0, 0.0, 0.0, 0.0, 0.0, 0.0, 0.0, 0.0, 0.0, 0.0, 0.0, 0.0, 0.0, 0.0, 0.0, 0.0, 0.0, 0.0, 0.0, 0.0, 0.0, 0.0, 0.0, 0.0, 0.0, 0.0, 0.0, 0.0, 0.0, 0.0, 0.0, 0.0, 0.0, 0.0, 0.0, 0.0, 0.0, 0.0, 0.0, 0.0, 0.0, 0.0, 0.0, 0.0, 0.0, 0.0, 0.0, 0.0, 0.0, 0.0, 0.0, 0.0, 0.0, 0.0, 0.0, 0.0, 0.0, 0.0, 0.0, 0.0, 0.0, 0.0, 0.0, 0.0, 0.0, 0.0, 0.0, 0.0, 0.0, 0.0, 0.0, 0.0, 0.0, 0.0, 0.0, 0.0, 0.0, 0.0, 0.0, 0.0, 0.0, 0.0, 0.0, 0.0, 0.0, 0.0, 0.0, 0.0, 0.0, 0.0, 0.0, 0.0, 0.0, 0.0, 0.0, 0.0, 0.0, 0.0, 0.0, 0.0, 0.0, 0.0, 0.0, 0.0, 0.0, 0.0, 0.0, 0.0, 0.0, 0.0, 0.0, 0.0, 0.0, 0.0, 0.0, 0.0, 0.0, 0.0, 0.0, 0.0, 0.0, 0.0, 0.0, 0.0, 0.0, 0.0, 0.0, 0.0, 0.0, 0.0, 0.0, 0.0, 0.0, 0.0, 0.0, 0.0, 0.0, 0.0, 0.0, 0.0, 0.0, 0.0, 0.0, 0.0, 0.0, 0.0, 0.0, 0.0, 0.0, 0.0, 0.0, 0.0, 0.0, 0.0, 0.0, 0.0, 0.0, 0.0, 0.0, 0.0, 0.0, 0.0, 0.0, 0.0, 0.0, 0.0, 0.0, 0.0, 0.0, 0.0, 0.0, 0.0, 0.0, 0.0, 0.0, 0.0, 0.0, 0.0, 0.0, 0.0, 0.0, 0.0, 0.0, 0.0, 0.0, 0.0, 0.0, 0.0, 0.0, 0.0, 0.0, 0.0, 0.0, 0.0, 0.0, 0.0, 0.0, 0.0, 0.0, 0.0, 0.0, 0.0, 0.0, 0.0],
  "Shots": 4096,
  "Size": 3,
  "Total Algorithm duration [s]": 1.379,
  "Total Classic duration [s]": 1.3299958000053302,
  "Total Quantum duration [s]": 0.04900419999466976
}
