{
  "Circuit execution durations [ms]": [0.16245000006165355, 0.15939999866532162, 0.15420000272570178, 0.15970000094966963, 0.16024999786168337, 0.15439999697264284, 0.15505000192206353, 0.15359999815700576, 0.15874999371590093, 0.16195000353036448, 0.16139999934239313, 0.15965000056894496, 0.16264999430859461, 0.15395000082207844, 0.1540000012028031, 0.16404999769292772, 0.1558500007377006, 0.1538500000606291, 0.1541500023449771, 0.1548000000184402, 0.15305000124499202, 0.16070000128820539, 0.1538500000606291, 0.15675000031478703, 0.15490000077988952, 0.15425000310642645, 0.15719999646535143, 0.1690499993856065, 0.1583499979460612, 0.1558500007377006, 0.1656500026001595, 0.15545000496786088, 0.1544499973533675, 0.15454999811481684, 0.15535000420641154, 0.1549500011606142, 0.1579000017954968, 0.15420000272570178, 0.152900000102818, 0.15490000077988952, 0.15390000044135377, 0.15750000602565706, 0.16294999659294263, 0.15500000154133886, 0.15549999807262793, 0.15464999887626618, 0.15675000031478703, 0.15434999659191817, 0.15490000077988952, 0.15560000611003488, 0.15439999697264284, 0.15434999659191817, 0.15359999815700576, 0.1579000017954968, 0.1549500011606142, 0.15424999583046883, 0.15364999853773043, 0.15515000268351287, 0.15395000082207844, 0.1540000012028031, 0.15854999946895987, 0.15519999578827992, 0.15859999984968454, 0.17124999430961907, 0.17344999650958925, 0.1562000034027733, 0.15725000412203372, 0.15474999963771552, 0.17120000120485201, 0.1540000012028031, 0.15339999663410708, 0.2537000036682002, 0.13925000530434772, 0.27680000494001433, 0.21094999829074368, 0.15875000099185854, 0.15690000145696104, 0.1564999984111637, 0.15700000221841037, 0.15939999866532162, 0.15374999929917976, 0.15430000348715112, 0.1564999984111637, 0.15574999997625127, 0.156299996888265, 0.16820000018924475, 0.1572499968460761, 0.15364999853773043, 0.15454999811481684, 0.1535499977762811, 0.1562000034027733, 0.15390000044135377, 0.15530000382568687, 0.15549999807262793, 0.15515000268351287, 0.1531000016257167, 0.15595000149914995, 0.15405000158352777, 0.1886000027297996, 0.16055000014603138, 0.16474999574711546, 0.1632999992580153, 0.1536999989184551, 0.1592499975231476, 0.16039999900385737, 0.1642499992158264, 0.15579999308101833, 0.15744999836897478, 0.15379999967990443, 0.15770000027259812, 0.15559999883407727, 0.1625500008231029, 0.1720000000204891, 0.16155000048456714, 0.15954999980749562, 0.1601999974809587, 0.16070000128820539, 0.16055000014603138, 0.16075000166893005, 0.15514999540755525, 0.16560000221943483, 0.15474999963771552, 0.1540000012028031, 0.1538500000606291, 0.1536999989184551, 0.1508999994257465, 0.1552500034449622, 0.15405000158352777, 0.15439999697264284, 0.1516499978606589, 0.1604999997653067, 0.15315000200644135, 0.15379999967990443, 0.1544499973533675, 0.15794999490026385, 0.16420000611105934, 0.15454999811481684, 0.22775000252295285, 0.16614999913144857, 0.15315000200644135, 0.15390000044135377, 0.15764999989187345, 0.16000000323401764, 0.15970000094966963, 0.15914999676169828, 0.15900000289548188, 0.16070000128820539, 0.15469999925699085, 0.15469999925699085, 0.15499999426538125, 0.15839999832678586, 0.15420000272570178, 0.15534999693045393, 0.21019999985583127, 0.15564999921480194, 0.15364999853773043, 0.15410000196425244, 0.2824000039254315, 0.16245000006165355, 0.1586500002304092, 0.15320000238716602, 0.1541500023449771, 0.15544999769190326, 0.1544499973533675, 0.15859999984968454, 0.1535499977762811, 0.15420000272570178, 0.15395000082207844, 0.1596000001882203, 0.1544499973533675, 0.15349999739555642, 0.15404999430757016, 0.15659999917261302, 0.16170000162674114, 0.15654999879188836, 0.15815000369912013, 0.15549999807262793, 0.15469999925699085, 0.1534000039100647, 0.1651499987929128, 0.15515000268351287, 0.15729999722680077, 0.15430000348715112, 0.15854999946895987, 0.1551000023027882, 0.17040000238921493, 0.1932500017574057, 0.15605000226059929, 0.1610000035725534, 0.16035000589909032, 0.16930000128922984, 0.1558500007377006, 0.16010000399546698, 0.15559999883407727, 0.15299999358830974, 0.1584999990882352, 0.15419999544974416, 0.15349999739555642, 0.15440000424860045, 0.15379999967990443, 0.16250000044237822, 0.15685000107623637, 0.15379999967990443, 0.1540000012028031, 0.15485000039916486, 0.15544999769190326, 0.15359999815700576, 0.1570999957039021, 0.1548000000184402, 0.1538500000606291, 0.15405000158352777, 0.15814999642316252, 0.15405000158352777, 0.15454999811481684, 0.15485000039916486, 0.1545999984955415, 0.15854999946895987, 0.1592499975231476, 0.15875000099185854, 0.1614499997231178, 0.1594499990460463, 0.1724500034470111, 0.15980000171111897, 0.1596000001882203, 0.16519999917363748, 0.15600000187987462, 0.1555499984533526, 0.1551000023027882, 0.1546500061522238, 0.1541500023449771, 0.15259999781847, 0.16840000171214342, 0.15430000348715112, 0.15259999781847, 0.1541500023449771, 0.15515000268351287, 0.15434999659191817, 0.1555499984533526, 0.1572499968460761, 0.16420000611105934, 0.15485000039916486, 0.15734999760752544, 0.17754999862518162, 0.17144999583251774, 0.15824999718461186, 0.15519999578827992, 0.15685000107623637, 0.15474999963771552, 0.15349999739555642, 0.15474999963771552, 0.15490000077988952, 0.15604999498464167, 0.15445000462932512, 0.15515000268351287, 0.15490000077988952, 0.1545999984955415, 0.15729999722680077, 0.1538500000606291, 0.1551000023027882, 0.16280000272672623, 0.15825000446056947, 0.16334999963873997, 0.15749999874969944, 0.16475000302307308, 0.15940000594127923, 0.15590000111842528, 0.15980000171111897, 0.15549999807262793, 0.15469999925699085, 0.1645500015001744, 0.1541500023449771, 0.15335000352934003, 0.1584999990882352, 0.15839999832678586, 0.15395000082207844, 0.18475000251783058, 0.15390000044135377, 0.1548999935039319, 0.1535500050522387, 0.15329999587265775, 0.15934999828459695, 0.15320000238716602, 0.15305000124499202, 0.19545000395737588, 0.15564999921480194, 0.15379999967990443, 0.15279999934136868, 0.1574500056449324, 0.15405000158352777, 0.1541499950690195, 0.15364999853773043, 0.15775000065332279, 0.15349999739555642, 0.15320000238716602, 0.15829999756533653, 0.16700000560376793, 0.16074999439297244, 0.1596000001882203, 0.1583499979460612, 0.15719999646535143, 0.1536999989184551, 0.1544499973533675, 0.16234999930020422, 0.1545999984955415, 0.16529999993508682, 0.15699999494245276, 0.26345000514993444, 0.17755000590113923, 0.22235000506043434, 0.1959000001079403, 0.1688999982434325, 0.15534999693045393, 0.15600000187987462, 0.15485000039916486, 0.1548000000184402, 0.15520000306423753, 0.16080000204965472, 0.15705000259913504, 0.15430000348715112, 0.1532500027678907, 0.1609499959158711, 0.15315000200644135, 0.15269999857991934, 0.1562000034027733, 0.15344999701483175, 0.15434999659191817, 0.15744999836897478, 0.15455000539077446, 0.15519999578827992, 0.15225000242935494, 0.15374999929917976, 0.19389999943086877, 0.15469999925699085, 0.15605000226059929, 0.1541499950690195, 0.15839999832678586, 0.15300000086426735, 0.15749999874969944, 0.15764999989187345, 0.15645000530639663, 0.155849993461743, 0.16835000133141875, 0.15814999642316252, 0.15390000044135377, 0.15420000272570178],
  "Depth": 8.5,
  "Expectation Value": -3.4576680660247803,
  "Optimal Expectation Value": -3.4939591884613037,
  "Optimizer durations [ms]": [4.571, 4.173, 4.255, 4.109, 4.13, 4.065, 3.996, 4.042, 4.159, 4.266, 4.222, 4.17, 4.244, 4.047, 4.078, 4.284, 4.132, 4.052, 4.083, 4.053, 4.017, 4.278, 4.105, 4.223, 4.176, 4.107, 4.122, 4.465, 4.276, 4.119, 4.253, 4.094, 4.049, 4.194, 4.148, 4.029, 4.233, 4.037, 4.075, 4.066, 4.035, 4.367, 4.338, 4.189, 4.121, 4.1, 4.159, 4.088, 4.078, 4.138, 4.054, 4.075, 4.037, 4.109, 4.13, 4.042, 4.031, 4.092, 4.078, 4.079, 4.1, 4.144, 4.189, 4.518, 4.934, 4.142, 4.113, 4.073, 4.392, 4.141, 4.117, 6.134, 17.861, 7.588, 5.473, 4.13, 4.111, 4.193, 4.215, 4.196, 4.07, 4.089, 4.119, 4.091, 4.059, 4.333, 4.202, 4.0, 4.056, 4.031, 4.077, 4.021, 4.055, 4.082, 4.047, 4.008, 4.092, 4.041, 4.887, 4.381, 4.415, 4.295, 4.052, 4.28, 4.221, 4.36, 4.076, 4.122, 3.971, 4.173, 4.087, 4.476, 4.532, 4.271, 4.18, 4.189, 4.203, 4.238, 4.192, 4.023, 4.277, 4.039, 4.053, 4.05, 4.026, 3.984, 4.054, 4.036, 4.009, 4.028, 4.185, 3.973, 3.977, 4.024, 4.019, 4.175, 3.989, 5.111, 14.883, 4.018, 3.982, 4.091, 4.302, 4.198, 4.155, 4.19, 4.201, 4.041, 4.052, 4.055, 4.152, 3.96, 4.036, 5.275, 4.102, 4.027, 4.056, 6.736, 4.972, 4.189, 4.029, 3.973, 4.029, 4.057, 4.093, 4.084, 4.046, 3.966, 4.096, 3.999, 3.933, 3.951, 4.083, 4.304, 4.041, 4.099, 4.052, 3.983, 3.971, 4.282, 4.158, 4.196, 4.039, 4.149, 4.172, 4.479, 4.908, 4.108, 4.194, 4.227, 4.364, 4.026, 4.327, 4.014, 3.995, 4.177, 4.034, 4.058, 4.025, 4.029, 4.318, 4.106, 4.031, 4.01, 4.048, 4.745, 3.924, 4.014, 3.998, 3.965, 3.966, 4.1, 4.052, 4.075, 4.023, 4.036, 4.098, 4.169, 4.257, 4.226, 4.291, 4.579, 4.167, 4.158, 4.279, 4.118, 4.048, 4.048, 4.082, 4.066, 4.077, 4.432, 4.049, 4.044, 4.036, 4.148, 4.004, 3.987, 4.115, 4.315, 4.042, 4.143, 4.645, 4.483, 4.112, 4.011, 4.092, 3.986, 3.942, 3.976, 4.243, 4.041, 4.014, 4.022, 4.032, 3.968, 4.025, 4.006, 4.0, 4.333, 4.195, 4.256, 4.234, 4.308, 4.164, 4.022, 4.084, 4.112, 4.041, 4.274, 4.04, 3.987, 4.393, 4.299, 3.999, 4.706, 4.048, 4.078, 4.034, 4.05, 4.108, 3.919, 3.944, 4.94, 4.097, 4.036, 4.051, 4.074, 4.067, 4.076, 4.159, 4.242, 4.067, 4.051, 4.149, 4.321, 4.262, 4.184, 4.182, 4.035, 3.906, 3.928, 4.162, 4.106, 4.34, 4.238, 6.046, 19.265, 6.182, 5.409, 4.514, 4.099, 4.125, 4.067, 4.054, 4.073, 4.153, 4.169, 4.1, 4.059, 4.183, 4.027, 4.056, 4.118, 4.037, 4.004, 4.093, 4.016, 4.181, 4.031, 4.049, 4.946, 4.111, 4.231, 4.078, 5.004, 4.016, 4.053, 4.015, 4.065, 4.165, 4.294, 4.077, 3.94, 3.996],
  "Optimizer iterations": 345,
  "Optimizer params": [0.07593365564099723, 0.9484221341407706, 0.49692464999018043, 0.7236861817650901, 0.9996081207023637, 0.4516510267555828, 0.006721258467493393, 0.997807382408919, 0.49630119512112775, 0.2681477070898178, 0.004920392483426625, 0.9867299274950093],
  "P": 0,
  "Problem": "IC",
  "QJob durations [ms]": [0.16245000006165355, 0.15939999866532162, 0.15420000272570178, 0.15970000094966963, 0.16024999786168337, 0.15439999697264284, 0.15505000192206353, 0.15359999815700576, 0.15874999371590093, 0.16195000353036448, 0.16139999934239313, 0.15965000056894496, 0.16264999430859461, 0.15395000082207844, 0.1540000012028031, 0.16404999769292772, 0.1558500007377006, 0.1538500000606291, 0.1541500023449771, 0.1548000000184402, 0.15305000124499202, 0.16070000128820539, 0.1538500000606291, 0.15675000031478703, 0.15490000077988952, 0.15425000310642645, 0.15719999646535143, 0.1690499993856065, 0.1583499979460612, 0.1558500007377006, 0.1656500026001595, 0.15545000496786088, 0.1544499973533675, 0.15454999811481684, 0.15535000420641154, 0.1549500011606142, 0.1579000017954968, 0.15420000272570178, 0.152900000102818, 0.15490000077988952, 0.15390000044135377, 0.15750000602565706, 0.16294999659294263, 0.15500000154133886, 0.15549999807262793, 0.15464999887626618, 0.15675000031478703, 0.15434999659191817, 0.15490000077988952, 0.15560000611003488, 0.15439999697264284, 0.15434999659191817, 0.15359999815700576, 0.1579000017954968, 0.1549500011606142, 0.15424999583046883, 0.15364999853773043, 0.15515000268351287, 0.15395000082207844, 0.1540000012028031, 0.15854999946895987, 0.15519999578827992, 0.15859999984968454, 0.17124999430961907, 0.17344999650958925, 0.1562000034027733, 0.15725000412203372, 0.15474999963771552, 0.17120000120485201, 0.1540000012028031, 0.15339999663410708, 0.2537000036682002, 0.13925000530434772, 0.27680000494001433, 0.21094999829074368, 0.15875000099185854, 0.15690000145696104, 0.1564999984111637, 0.15700000221841037, 0.15939999866532162, 0.15374999929917976, 0.15430000348715112, 0.1564999984111637, 0.15574999997625127, 0.156299996888265, 0.16820000018924475, 0.1572499968460761, 0.15364999853773043, 0.15454999811481684, 0.1535499977762811, 0.1562000034027733, 0.15390000044135377, 0.15530000382568687, 0.15549999807262793, 0.15515000268351287, 0.1531000016257167, 0.15595000149914995, 0.15405000158352777, 0.1886000027297996, 0.16055000014603138, 0.16474999574711546, 0.1632999992580153, 0.1536999989184551, 0.1592499975231476, 0.16039999900385737, 0.1642499992158264, 0.15579999308101833, 0.15744999836897478, 0.15379999967990443, 0.15770000027259812, 0.15559999883407727, 0.1625500008231029, 0.1720000000204891, 0.16155000048456714, 0.15954999980749562, 0.1601999974809587, 0.16070000128820539, 0.16055000014603138, 0.16075000166893005, 0.15514999540755525, 0.16560000221943483, 0.15474999963771552, 0.1540000012028031, 0.1538500000606291, 0.1536999989184551, 0.1508999994257465, 0.1552500034449622, 0.15405000158352777, 0.15439999697264284, 0.1516499978606589, 0.1604999997653067, 0.15315000200644135, 0.15379999967990443, 0.1544499973533675, 0.15794999490026385, 0.16420000611105934, 0.15454999811481684, 0.22775000252295285, 0.16614999913144857, 0.15315000200644135, 0.15390000044135377, 0.15764999989187345, 0.16000000323401764, 0.15970000094966963, 0.15914999676169828, 0.15900000289548188, 0.16070000128820539, 0.15469999925699085, 0.15469999925699085, 0.15499999426538125, 0.15839999832678586, 0.15420000272570178, 0.15534999693045393, 0.21019999985583127, 0.15564999921480194, 0.15364999853773043, 0.15410000196425244, 0.2824000039254315, 0.16245000006165355, 0.1586500002304092, 0.15320000238716602, 0.1541500023449771, 0.15544999769190326, 0.1544499973533675, 0.15859999984968454, 0.1535499977762811, 0.15420000272570178, 0.15395000082207844, 0.1596000001882203, 0.1544499973533675, 0.15349999739555642, 0.15404999430757016, 0.15659999917261302, 0.16170000162674114, 0.15654999879188836, 0.15815000369912013, 0.15549999807262793, 0.15469999925699085, 0.1534000039100647, 0.1651499987929128, 0.15515000268351287, 0.15729999722680077, 0.15430000348715112, 0.15854999946895987, 0.1551000023027882, 0.17040000238921493, 0.1932500017574057, 0.15605000226059929, 0.1610000035725534, 0.16035000589909032, 0.16930000128922984, 0.1558500007377006, 0.16010000399546698, 0.15559999883407727, 0.15299999358830974, 0.1584999990882352, 0.15419999544974416, 0.15349999739555642, 0.15440000424860045, 0.15379999967990443, 0.16250000044237822, 0.15685000107623637, 0.15379999967990443, 0.1540000012028031, 0.15485000039916486, 0.15544999769190326, 0.15359999815700576, 0.1570999957039021, 0.1548000000184402, 0.1538500000606291, 0.15405000158352777, 0.15814999642316252, 0.15405000158352777, 0.15454999811481684, 0.15485000039916486, 0.1545999984955415, 0.15854999946895987, 0.1592499975231476, 0.15875000099185854, 0.1614499997231178, 0.1594499990460463, 0.1724500034470111, 0.15980000171111897, 0.1596000001882203, 0.16519999917363748, 0.15600000187987462, 0.1555499984533526, 0.1551000023027882, 0.1546500061522238, 0.1541500023449771, 0.15259999781847, 0.16840000171214342, 0.15430000348715112, 0.15259999781847, 0.1541500023449771, 0.15515000268351287, 0.15434999659191817, 0.1555499984533526, 0.1572499968460761, 0.16420000611105934, 0.15485000039916486, 0.15734999760752544, 0.17754999862518162, 0.17144999583251774, 0.15824999718461186, 0.15519999578827992, 0.15685000107623637, 0.15474999963771552, 0.15349999739555642, 0.15474999963771552, 0.15490000077988952, 0.15604999498464167, 0.15445000462932512, 0.15515000268351287, 0.15490000077988952, 0.1545999984955415, 0.15729999722680077, 0.1538500000606291, 0.1551000023027882, 0.16280000272672623, 0.15825000446056947, 0.16334999963873997, 0.15749999874969944, 0.16475000302307308, 0.15940000594127923, 0.15590000111842528, 0.15980000171111897, 0.15549999807262793, 0.15469999925699085, 0.1645500015001744, 0.1541500023449771, 0.15335000352934003, 0.1584999990882352, 0.15839999832678586, 0.15395000082207844, 0.18475000251783058, 0.15390000044135377, 0.1548999935039319, 0.1535500050522387, 0.15329999587265775, 0.15934999828459695, 0.15320000238716602, 0.15305000124499202, 0.19545000395737588, 0.15564999921480194, 0.15379999967990443, 0.15279999934136868, 0.1574500056449324, 0.15405000158352777, 0.1541499950690195, 0.15364999853773043, 0.15775000065332279, 0.15349999739555642, 0.15320000238716602, 0.15829999756533653, 0.16700000560376793, 0.16074999439297244, 0.1596000001882203, 0.1583499979460612, 0.15719999646535143, 0.1536999989184551, 0.1544499973533675, 0.16234999930020422, 0.1545999984955415, 0.16529999993508682, 0.15699999494245276, 0.26345000514993444, 0.17755000590113923, 0.22235000506043434, 0.1959000001079403, 0.1688999982434325, 0.15534999693045393, 0.15600000187987462, 0.15485000039916486, 0.1548000000184402, 0.15520000306423753, 0.16080000204965472, 0.15705000259913504, 0.15430000348715112, 0.1532500027678907, 0.1609499959158711, 0.15315000200644135, 0.15269999857991934, 0.1562000034027733, 0.15344999701483175, 0.15434999659191817, 0.15744999836897478, 0.15455000539077446, 0.15519999578827992, 0.15225000242935494, 0.15374999929917976, 0.19389999943086877, 0.15469999925699085, 0.15605000226059929, 0.1541499950690195, 0.15839999832678586, 0.15300000086426735, 0.15749999874969944, 0.15764999989187345, 0.15645000530639663, 0.155849993461743, 0.16835000133141875, 0.15814999642316252, 0.15390000044135377, 0.15420000272570178],
  "QPU": "7000000",
  "Qubits": 3,
  "Queue durations [ms]": [0.0, 0.0, 0.0, 0.0, 0.0, 0.0, 0.0, 0.0, 0.0, 0.0, 0.0, 0.0, 0.0, 0.0, 0.0, 0.0, 0.0, 0.0, 0.0, 0.0, 0.0, 0.0, 0.0, 0.0, 0.0, 0.0, 0.0, 0.0, 0.0, 0.0, 0.0, 0.0, 0.0, 0.0, 0.0, 0.0, 0.0, 0.0, 0.0, 0.0, 0.0, 0.0, 0.0, 0.0, 0.0, 0.0, 0.0, 0.0, 0.0, 0.0, 0.0, 0.0, 0.0, 0.0, 0.0, 0.0, 0.0, 0.0, 0.0, 0.0, 0.0, 0.0, 0.0, 0.0, 0.0, 0.0, 0.0, 0.0, 0.0, 0.0, 0.0, 0.0, 0.0, 0.0, 0.0, 0.0, 0.0, 0.0, 0.0, 0.0, 0.0, 0.0, 0.0, 0.0, 0.0, 0.0, 0.0, 0.0, 0.0, 0.0, 0.0, 0.0, 0.0, 0.0, 0.0, 0.0, 0.0, 0.0, 0.0, 0.0, 0.0, 0.0, 0.0, 0.0, 0.0, 0.0, 0.0, 0.0, 0.0, 0.0, 0.0, 0.0, 0.0, 0.0, 0.0, 0.0, 0.0, 0.0, 0.0, 0.0, 0.0, 0.0, 0.0, 0.0, 0.0, 0.0, 0.0, 0.0, 0.0, 0.0, 0.0, 0.0, 0.0, 0.0, 0.0, 0.0, 0.0, 0.0, 0.0, 0.0, 0.0, 0.0, 0.0, 0.0, 0.0, 0.0, 0.0, 0.0, 0.0, 0.0, 0.0, 0.0, 0.0, 0.0, 0.0, 0.0, 0.0, 0.0, 0.0, 0.0, 0.0, 0.0, 0.0, 0.0, 0.0, 0.0, 0.0, 0.0, 0.0, 0.0, 0.0, 0.0, 0.0, 0.0, 0.0, 0.0, 0.0, 0.0, 0.0, 0.0, 0.0, 0.0, 0.0, 0.0, 0.0, 0.0, 0.0, 0.0, 0.0, 0.0, 0.0, 0.0, 0.0, 0.0, 0.0, 0.0, 0.0, 0.0, 0.0, 0.0, 0.0, 0.0, 0.0, 0.0, 0.0, 0.0, 0.0, 0.0, 0.0, 0.0, 0.0, 0.0, 0.0, 0.0, 0.0, 0.0, 0.0, 0.0, 0.0, 0.0, 0.0, 0.0, 0.0, 0.0, 0.0, 0.0, 0.0, 0.0, 0.0, 0.0, 0.0, 0.0, 0.0, 0.0, 0.0, 0.0, 0.0, 0.0, 0.0, 0.0, 0.0, 0.0, 0.0, 0.0, 0.0, 0.0, 0.0, 0.0, 0.0, 0.0, 0.0, 0.0, 0.0, 0.0, 0.0, 0.0, 0.0, 0.0, 0.0, 0.0, 0.0, 0.0, 0.0, 0.0, 0.0, 0.0, 0.0, 0.0, 0.0, 0.0, 0.0, 0.0, 0.0, 0.0, 0.0, 0.0, 0.0, 0.0, 0.0, 0.0, 0.0, 0.0, 0.0, 0.0, 0.0, 0.0, 0.0, 0.0, 0.0, 0.0, 0.0, 0.0, 0.0, 0.0, 0.0, 0.0, 0.0, 0.0, 0.0, 0.0, 0.0, 0.0, 0.0, 0.0, 0.0, 0.0, 0.0, 0.0, 0.0, 0.0, 0.0, 0.0, 0.0, 0.0, 0.0, 0.0, 0.0, 0.0, 0.0, 0.0, 0.0, 0.0, 0.0, 0.0, 0.0, 0.0, 0.0, 0.0, 0.0, 0.0, 0.0, 0.0, 0.0, 0.0, 0.0, 0.0, 0.0, 0.0, 0.0, 0.0, 0.0, 0.0, 0.0, 0.0, 0.0],
  "Shots": 4096,
  "Size": 3,
  "Total Algorithm duration [s]": 1.485,
  "Total Classic duration [s]": 1.4299029499810423,
  "Total Quantum duration [s]": 0.055097050018957816
}
