{
  "Circuit execution durations [ms]": [0.15700000221841037, 0.15515000268351287, 0.15750000602565706, 0.17079999815905467, 0.15700000221841037, 0.15899999561952427, 0.15949999942677096, 0.1588000013725832, 0.16024999786168337, 0.1607999947736971, 0.15595000149914995, 0.1554000045871362, 0.15610000264132395, 0.16185000276891515, 0.1549500011606142, 0.1580500029376708, 0.15679999341955408, 0.16799999866634607, 0.15690000145696104, 0.15600000187987462, 0.15464999887626618, 0.15759999951114878, 0.15509999502683058, 0.15479999274248257, 0.1592499975231476, 0.16104999667732045, 0.16119999781949446, 0.1582000040798448, 0.15294999320758507, 0.15425000310642645, 0.15594999422319233, 0.15589999384246767, 0.15519999578827992, 0.15455000539077446, 0.15334999625338241, 0.15305000124499202, 0.1629999969736673, 0.16370000230381265, 0.1632999992580153, 0.15610000264132395, 0.15640000492567196, 0.1544499973533675, 0.15405000158352777, 0.15254999743774533, 0.15485000039916486, 0.15284999972209334, 0.15435000386787578, 0.15974999405443668, 0.16239999968092889, 0.15455000539077446, 0.2202500036219135, 0.16759999562054873, 0.15544999769190326, 0.15624999650754035, 0.16000000323401764, 0.15764999989187345, 0.15454999811481684, 0.15824999718461186, 0.16220000543398783, 0.16009999671950936, 0.155999994603917, 0.15764999989187345, 0.15615000302204862, 0.15615000302204862, 0.15364999853773043, 0.1583499979460612, 0.15529999654972926, 0.1582000040798448, 0.16039999900385737, 0.15454999811481684, 0.15474999963771552, 0.15409999468829483, 0.1573999979882501, 0.15839999832678586, 0.1628500031074509, 0.16010000399546698, 0.1692000005277805, 0.16245000006165355, 0.16575000336160883, 0.1664000010350719, 0.15810000331839547, 0.16170000162674114, 0.1544499973533675, 0.15954999980749562, 0.1549500011606142, 0.15464999887626618, 0.1545000050100498, 0.1588000013725832, 0.20040000526933, 0.15464999887626618, 0.1565000056871213, 0.1618999958736822, 0.1544499973533675, 0.15484999312320724, 0.15870000061113387, 0.1538500000606291, 0.15454999811481684, 0.15425000310642645, 0.1771000024746172, 0.1662499998928979, 0.16309999773511663, 0.15534999693045393, 0.15920000441838056, 0.15564999921480194, 0.15534999693045393, 0.20149999181739986, 0.1649999976507388, 0.15965000056894496, 0.15559999883407727, 0.2119999990100041, 0.1654499938013032, 0.15549999807262793, 0.15609999536536634, 0.21335000201361254, 0.15639999764971435, 0.15690000145696104, 0.15914999676169828, 0.2118500051437877, 0.16275000234600157, 0.1640999980736524, 0.15469999925699085, 0.15799999528098851, 0.15625000378349796, 0.15780000103404745, 0.16259999392786995, 0.16014999710023403, 0.15844999870751053, 0.15675000031478703, 0.16134999896166846, 0.16289999621221796, 0.16309999773511663, 0.15895000251475722, 0.15424999583046883, 0.15485000039916486, 0.15559999883407727, 0.1545999984955415, 0.1540000012028031, 0.15279999934136868, 0.15590000111842528, 0.16555000183871016, 0.15559999883407727, 0.15995000285329297, 0.1558500007377006, 0.15409999468829483, 0.1569500018376857, 0.15364999853773043, 0.15364999853773043, 0.15269999857991934, 0.1594499990460463, 0.15605000226059929, 0.15395000082207844, 0.15269999857991934, 0.15269999857991934, 0.15859999984968454, 0.16000000323401764, 0.15330000314861536, 0.15509999502683058, 0.15439999697264284, 0.15410000196425244, 0.15390000044135377, 0.34130000858567655, 0.16540000069653615, 0.15379999967990443, 0.15315000200644135, 0.15874999371590093, 0.17065000429283828, 0.1540000012028031, 0.15445000462932512, 0.15240000357152894, 0.20294999558245763, 0.15550000534858555, 0.1535499977762811, 0.15505000192206353, 0.15335000352934003, 0.15305000124499202, 0.15239999629557133, 0.1555499984533526, 0.1545000050100498, 0.17084999853977934, 0.15505000192206353, 0.34335000964347273, 0.1589499952387996, 0.15574999997625127, 0.20640000002458692, 0.15630000416422263, 0.15505000192206353, 0.2649000089149922, 0.15734999760752544, 0.24850000045262277, 0.16030000551836565, 0.16060000052675605, 0.31075000879354775, 0.15839999832678586, 0.1586500002304092, 0.1610000035725534, 0.16444999346276745, 0.1620499970158562, 0.23285000497708097, 0.15810000331839547, 0.16055000014603138, 0.15904999600024894, 0.16215000505326316, 0.15900000289548188, 0.16109999705804512],
  "Depth": 8.5,
  "Expectation Value": -3.406158447265625,
  "Optimal Expectation Value": -3.4939591884613037,
  "Optimizer durations [ms]": [4.249, 3.987, 4.105, 4.386, 4.092, 4.102, 4.322, 4.171, 4.295, 4.201, 4.092, 4.141, 4.056, 4.216, 4.839, 4.11, 4.055, 4.821, 4.122, 4.129, 4.07, 4.249, 4.112, 4.14, 4.206, 4.221, 4.31, 4.135, 4.086, 4.064, 4.061, 4.13, 4.088, 4.083, 4.089, 3.99, 4.233, 6.078, 4.345, 4.116, 4.002, 4.006, 3.994, 3.949, 4.017, 3.951, 3.981, 4.17, 4.323, 4.152, 5.238, 4.424, 4.122, 4.112, 4.157, 4.166, 3.92, 4.486, 4.408, 4.28, 4.142, 4.14, 4.089, 4.027, 3.972, 4.187, 4.079, 4.253, 4.193, 4.003, 3.992, 3.97, 4.12, 4.236, 4.319, 4.19, 4.451, 4.284, 4.595, 4.293, 4.225, 4.308, 4.042, 4.162, 4.072, 4.044, 4.034, 4.082, 5.164, 4.079, 4.107, 4.283, 4.033, 4.097, 4.168, 4.049, 4.082, 4.14, 4.604, 4.428, 4.28, 4.093, 4.172, 4.086, 4.083, 5.031, 4.81, 4.295, 4.097, 5.194, 4.597, 4.059, 4.159, 5.054, 4.386, 4.113, 4.118, 5.335, 4.376, 4.537, 4.082, 4.238, 4.146, 4.258, 4.212, 4.224, 4.424, 4.166, 4.223, 4.14, 4.288, 4.125, 4.105, 4.098, 4.104, 4.1, 4.089, 4.087, 4.279, 4.396, 4.098, 4.131, 3.977, 4.049, 4.039, 4.047, 4.053, 4.029, 4.058, 4.065, 4.059, 4.035, 4.047, 4.028, 4.252, 4.052, 4.095, 4.095, 4.092, 4.094, 7.328, 12.68, 4.076, 4.043, 4.128, 4.281, 4.03, 4.064, 4.065, 4.906, 4.079, 4.088, 4.002, 4.067, 4.089, 4.063, 4.078, 4.073, 4.594, 4.123, 7.672, 4.262, 4.023, 5.049, 4.315, 4.073, 5.919, 11.591, 5.904, 4.343, 4.177, 6.896, 4.373, 4.09, 5.061, 4.434, 4.279, 5.447, 5.309, 4.218, 5.053, 4.289, 4.113, 4.212],
  "Optimizer iterations": 204,
  "Optimizer params": [0.9443176389173666, 0.06495505680108705, 0.4704114957013115, 0.5563426808586164, 0.46315179569907955, 0.43502629787113894, 0.9930629603889204, 0.9870831457672979, 0.45967311783588344, 0.6806442914949319, 0.26412847077611185, 0.7825356186509089],
  "P": 0,
  "Problem": "IC",
  "QJob durations [ms]": [0.15700000221841037, 0.15515000268351287, 0.15750000602565706, 0.17079999815905467, 0.15700000221841037, 0.15899999561952427, 0.15949999942677096, 0.1588000013725832, 0.16024999786168337, 0.1607999947736971, 0.15595000149914995, 0.1554000045871362, 0.15610000264132395, 0.16185000276891515, 0.1549500011606142, 0.1580500029376708, 0.15679999341955408, 0.16799999866634607, 0.15690000145696104, 0.15600000187987462, 0.15464999887626618, 0.15759999951114878, 0.15509999502683058, 0.15479999274248257, 0.1592499975231476, 0.16104999667732045, 0.16119999781949446, 0.1582000040798448, 0.15294999320758507, 0.15425000310642645, 0.15594999422319233, 0.15589999384246767, 0.15519999578827992, 0.15455000539077446, 0.15334999625338241, 0.15305000124499202, 0.1629999969736673, 0.16370000230381265, 0.1632999992580153, 0.15610000264132395, 0.15640000492567196, 0.1544499973533675, 0.15405000158352777, 0.15254999743774533, 0.15485000039916486, 0.15284999972209334, 0.15435000386787578, 0.15974999405443668, 0.16239999968092889, 0.15455000539077446, 0.2202500036219135, 0.16759999562054873, 0.15544999769190326, 0.15624999650754035, 0.16000000323401764, 0.15764999989187345, 0.15454999811481684, 0.15824999718461186, 0.16220000543398783, 0.16009999671950936, 0.155999994603917, 0.15764999989187345, 0.15615000302204862, 0.15615000302204862, 0.15364999853773043, 0.1583499979460612, 0.15529999654972926, 0.1582000040798448, 0.16039999900385737, 0.15454999811481684, 0.15474999963771552, 0.15409999468829483, 0.1573999979882501, 0.15839999832678586, 0.1628500031074509, 0.16010000399546698, 0.1692000005277805, 0.16245000006165355, 0.16575000336160883, 0.1664000010350719, 0.15810000331839547, 0.16170000162674114, 0.1544499973533675, 0.15954999980749562, 0.1549500011606142, 0.15464999887626618, 0.1545000050100498, 0.1588000013725832, 0.20040000526933, 0.15464999887626618, 0.1565000056871213, 0.1618999958736822, 0.1544499973533675, 0.15484999312320724, 0.15870000061113387, 0.1538500000606291, 0.15454999811481684, 0.15425000310642645, 0.1771000024746172, 0.1662499998928979, 0.16309999773511663, 0.15534999693045393, 0.15920000441838056, 0.15564999921480194, 0.15534999693045393, 0.20149999181739986, 0.1649999976507388, 0.15965000056894496, 0.15559999883407727, 0.2119999990100041, 0.1654499938013032, 0.15549999807262793, 0.15609999536536634, 0.21335000201361254, 0.15639999764971435, 0.15690000145696104, 0.15914999676169828, 0.2118500051437877, 0.16275000234600157, 0.1640999980736524, 0.15469999925699085, 0.15799999528098851, 0.15625000378349796, 0.15780000103404745, 0.16259999392786995, 0.16014999710023403, 0.15844999870751053, 0.15675000031478703, 0.16134999896166846, 0.16289999621221796, 0.16309999773511663, 0.15895000251475722, 0.15424999583046883, 0.15485000039916486, 0.15559999883407727, 0.1545999984955415, 0.1540000012028031, 0.15279999934136868, 0.15590000111842528, 0.16555000183871016, 0.15559999883407727, 0.15995000285329297, 0.1558500007377006, 0.15409999468829483, 0.1569500018376857, 0.15364999853773043, 0.15364999853773043, 0.15269999857991934, 0.1594499990460463, 0.15605000226059929, 0.15395000082207844, 0.15269999857991934, 0.15269999857991934, 0.15859999984968454, 0.16000000323401764, 0.15330000314861536, 0.15509999502683058, 0.15439999697264284, 0.15410000196425244, 0.15390000044135377, 0.34130000858567655, 0.16540000069653615, 0.15379999967990443, 0.15315000200644135, 0.15874999371590093, 0.17065000429283828, 0.1540000012028031, 0.15445000462932512, 0.15240000357152894, 0.20294999558245763, 0.15550000534858555, 0.1535499977762811, 0.15505000192206353, 0.15335000352934003, 0.15305000124499202, 0.15239999629557133, 0.1555499984533526, 0.1545000050100498, 0.17084999853977934, 0.15505000192206353, 0.34335000964347273, 0.1589499952387996, 0.15574999997625127, 0.20640000002458692, 0.15630000416422263, 0.15505000192206353, 0.2649000089149922, 0.15734999760752544, 0.24850000045262277, 0.16030000551836565, 0.16060000052675605, 0.31075000879354775, 0.15839999832678586, 0.1586500002304092, 0.1610000035725534, 0.16444999346276745, 0.1620499970158562, 0.23285000497708097, 0.15810000331839547, 0.16055000014603138, 0.15904999600024894, 0.16215000505326316, 0.15900000289548188, 0.16109999705804512],
  "QPU": "7000000",
  "Qubits": 3,
  "Queue durations [ms]": [0.0, 0.0, 0.0, 0.0, 0.0, 0.0, 0.0, 0.0, 0.0, 0.0, 0.0, 0.0, 0.0, 0.0, 0.0, 0.0, 0.0, 0.0, 0.0, 0.0, 0.0, 0.0, 0.0, 0.0, 0.0, 0.0, 0.0, 0.0, 0.0, 0.0, 0.0, 0.0, 0.0, 0.0, 0.0, 0.0, 0.0, 0.0, 0.0, 0.0, 0.0, 0.0, 0.0, 0.0, 0.0, 0.0, 0.0, 0.0, 0.0, 0.0, 0.0, 0.0, 0.0, 0.0, 0.0, 0.0, 0.0, 0.0, 0.0, 0.0, 0.0, 0.0, 0.0, 0.0, 0.0, 0.0, 0.0, 0.0, 0.0, 0.0, 0.0, 0.0, 0.0, 0.0, 0.0, 0.0, 0.0, 0.0, 0.0, 0.0, 0.0, 0.0, 0.0, 0.0, 0.0, 0.0, 0.0, 0.0, 0.0, 0.0, 0.0, 0.0, 0.0, 0.0, 0.0, 0.0, 0.0, 0.0, 0.0, 0.0, 0.0, 0.0, 0.0, 0.0, 0.0, 0.0, 0.0, 0.0, 0.0, 0.0, 0.0, 0.0, 0.0, 0.0, 0.0, 0.0, 0.0, 0.0, 0.0, 0.0, 0.0, 0.0, 0.0, 0.0, 0.0, 0.0, 0.0, 0.0, 0.0, 0.0, 0.0, 0.0, 0.0, 0.0, 0.0, 0.0, 0.0, 0.0, 0.0, 0.0, 0.0, 0.0, 0.0, 0.0, 0.0, 0.0, 0.0, 0.0, 0.0, 0.0, 0.0, 0.0, 0.0, 0.0, 0.0, 0.0, 0.0, 0.0, 0.0, 0.0, 0.0, 0.0, 0.0, 0.0, 0.0, 0.0, 0.0, 0.0, 0.0, 0.0, 0.0, 0.0, 0.0, 0.0, 0.0, 0.0, 0.0, 0.0, 0.0, 0.0, 0.0, 0.0, 0.0, 0.0, 0.0, 0.0, 0.0, 0.0, 0.0, 0.0, 0.0, 0.0, 0.0, 0.0, 0.0, 0.0, 0.0, 0.0, 0.0, 0.0, 0.0, 0.0, 0.0, 0.0],
  "Shots": 4096,
  "Size": 3,
  "Total Algorithm duration [s]": 0.893,
  "Total Classic duration [s]": 0.859600150008162,
  "Total Quantum duration [s]": 0.03339984999183798
}
