{
  "Circuit execution durations [ms]": [0.16555000183871016, 0.15744999836897478, 0.15900000289548188, 0.1551000023027882, 0.15515000268351287, 0.15410000196425244, 0.15529999654972926, 0.1542999962111935, 0.1573999979882501, 0.16319999849656597, 0.15515000268351287, 0.15550000534858555, 0.15600000187987462, 0.17275000573135912, 0.15699999494245276, 0.15654999879188836, 0.15809999604243785, 0.1555499984533526, 0.15490000077988952, 0.1548000000184402, 0.15900000289548188, 0.15305000124499202, 0.15464999887626618, 0.15455000539077446, 0.2701500052353367, 0.18819999968400225, 0.2119999990100041, 0.16095000319182873, 0.16385000344598666, 0.15895000251475722, 0.16289999621221796, 0.16475000302307308, 0.16334999963873997, 0.15965000056894496, 0.16365000192308798, 0.16084999515442178, 0.1549500011606142, 0.15464999887626618, 0.1553999973111786, 0.15574999997625127, 0.15659999917261302, 0.15610000264132395, 0.156299996888265, 0.15610000264132395, 0.15895000251475722, 0.14959999680286273, 0.16589999722782522, 0.1569500018376857, 0.1568000006955117, 0.15424999583046883, 0.16730000061215833, 0.15910000365693122, 0.16170000162674114, 0.15770000027259812, 0.15770000027259812, 0.15590000111842528, 0.20824999955948442, 0.1615999935893342, 0.15659999917261302, 0.15625000378349796, 0.15659999917261302, 0.1556999995955266, 0.15530000382568687, 0.15764999989187345, 0.1562000034027733, 0.15644999803043902, 0.15965000056894496, 0.15589999384246767, 0.15810000331839547, 0.1583499979460612, 0.15690000145696104, 0.15630000416422263, 0.1662499998928979, 0.1579000017954968, 0.15699999494245276, 0.15564999921480194, 0.15884999447735026, 0.1583499979460612, 0.1566499995533377, 0.1549500011606142, 0.1565000056871213, 0.1600499963387847, 0.15615000302204862, 0.1642499992158264, 0.16334999963873997, 0.1553999973111786, 0.15675000031478703, 0.15640000492567196, 0.1564999984111637, 0.15559999883407727, 0.15474999963771552, 0.16645000141579658, 0.16239999968092889, 0.16020000475691631, 0.15535000420641154, 0.16199999663513154, 0.1552500034449622, 0.1599000024725683, 0.16245000006165355, 0.16365000192308798, 0.15785000141477212, 0.15410000196425244, 0.15334999625338241, 0.15425000310642645, 0.20030000450788066, 0.16139999934239313, 0.1599000024725683, 0.1544499973533675, 0.1558500007377006, 0.15669999993406236, 0.15735000488348305, 0.1548000000184402, 0.1540000012028031, 0.15315000200644135, 0.1611499974387698, 0.15295000048354268, 0.15814999642316252, 0.15530000382568687, 0.152749998960644, 0.15590000111842528, 0.15875000099185854, 0.15730000450275838, 0.1563500045449473, 0.15549999807262793, 0.15685000107623637, 0.15469999925699085, 0.15619999612681568, 0.1541500023449771, 0.1555499984533526, 0.1531000016257167, 0.15395000082207844, 0.15535000420641154, 0.15464999887626618, 0.15339999663410708, 0.15344999701483175, 0.16220000543398783, 0.15505000192206353, 0.1580500029376708, 0.15624999650754035, 0.15690000145696104, 0.15485000039916486, 0.15430000348715112, 0.15390000044135377, 0.15574999997625127, 0.15519999578827992, 0.15854999946895987, 0.16789999790489674, 0.1638999965507537, 0.1544499973533675, 0.1549500011606142, 0.1556999995955266, 0.16025000513764098, 0.1601999974809587, 0.15914999676169828, 0.15425000310642645, 0.1552499961690046, 0.15364999853773043, 0.1537000061944127, 0.15434999659191817, 0.15439999697264284, 0.15390000044135377, 0.15395000082207844, 0.16209999739658087, 0.1544499973533675, 0.15250000433297828, 0.15420000272570178, 0.16294999659294263, 0.16089999553514645, 0.15660000644857064, 0.1600499963387847, 0.15364999853773043, 0.15505000192206353, 0.15529999654972926, 0.15630000416422263, 0.15440000424860045, 0.15410000196425244, 0.15374999929917976, 0.15419999544974416, 0.15590000111842528, 0.1542999962111935, 0.15455000539077446, 0.15580000035697594, 0.15505000192206353, 0.1603499986231327, 0.1531000016257167, 0.15659999917261302, 0.15544999769190326, 0.1614499997231178, 0.16324999887729064],
  "Depth": 8.5,
  "Expectation Value": -3.250624895095825,
  "Optimal Expectation Value": -3.4939591884613037,
  "Optimizer durations [ms]": [4.443, 4.1, 4.251, 4.136, 4.623, 4.122, 4.219, 4.038, 4.225, 4.333, 4.092, 4.093, 4.124, 4.539, 4.107, 4.148, 4.197, 4.152, 4.059, 4.043, 4.141, 4.011, 4.071, 4.158, 6.463, 19.81, 5.295, 5.461, 4.506, 4.155, 4.21, 4.276, 4.226, 4.156, 4.524, 4.311, 4.027, 4.011, 4.055, 4.048, 4.083, 4.278, 4.039, 4.038, 4.138, 6.706, 13.009, 4.094, 4.084, 3.993, 4.45, 4.186, 4.278, 4.152, 4.095, 4.062, 5.044, 4.192, 4.01, 4.01, 4.006, 4.089, 3.994, 4.092, 4.068, 4.029, 4.173, 4.056, 4.087, 4.084, 4.062, 4.03, 4.233, 4.065, 4.085, 4.062, 4.1, 4.052, 4.049, 4.052, 4.08, 4.122, 4.031, 4.373, 4.277, 4.037, 4.043, 4.11, 4.101, 4.01, 4.016, 4.372, 4.219, 4.204, 3.975, 4.439, 4.073, 4.181, 4.133, 4.312, 4.121, 4.004, 4.029, 4.082, 5.057, 4.211, 4.161, 4.015, 3.928, 4.059, 4.113, 6.823, 4.018, 5.279, 4.41, 4.026, 4.071, 4.028, 3.988, 4.086, 4.167, 4.202, 4.11, 4.039, 4.914, 4.106, 4.102, 4.031, 4.137, 3.943, 3.935, 4.028, 4.061, 3.954, 3.929, 4.195, 4.126, 4.055, 3.991, 4.021, 4.017, 4.02, 4.032, 4.208, 4.058, 4.179, 4.435, 4.246, 4.043, 4.075, 4.058, 4.203, 4.201, 4.197, 4.011, 4.021, 3.984, 3.955, 4.074, 4.032, 4.027, 3.964, 4.222, 4.04, 4.001, 4.038, 4.375, 4.319, 4.027, 4.148, 4.023, 4.067, 4.033, 4.095, 4.045, 4.026, 3.937, 3.966, 4.031, 3.966, 3.964, 4.089, 4.084, 4.254, 4.016, 4.096, 4.067, 4.351, 4.254],
  "Optimizer iterations": 189,
  "Optimizer params": [0.9976029119174723, 0.06199351852452922, 0.5392361833467949, 0.5517998361687867, 0.12497372933791147, 0.5858870924692852, 0.9713500534912634, 0.9543772366000289, 0.5511220433801545, 0.4499538573820189, 0.5399131842249065, 0.8410342745851906],
  "P": 0,
  "Problem": "IC",
  "QJob durations [ms]": [0.16555000183871016, 0.15744999836897478, 0.15900000289548188, 0.1551000023027882, 0.15515000268351287, 0.15410000196425244, 0.15529999654972926, 0.1542999962111935, 0.1573999979882501, 0.16319999849656597, 0.15515000268351287, 0.15550000534858555, 0.15600000187987462, 0.17275000573135912, 0.15699999494245276, 0.15654999879188836, 0.15809999604243785, 0.1555499984533526, 0.15490000077988952, 0.1548000000184402, 0.15900000289548188, 0.15305000124499202, 0.15464999887626618, 0.15455000539077446, 0.2701500052353367, 0.18819999968400225, 0.2119999990100041, 0.16095000319182873, 0.16385000344598666, 0.15895000251475722, 0.16289999621221796, 0.16475000302307308, 0.16334999963873997, 0.15965000056894496, 0.16365000192308798, 0.16084999515442178, 0.1549500011606142, 0.15464999887626618, 0.1553999973111786, 0.15574999997625127, 0.15659999917261302, 0.15610000264132395, 0.156299996888265, 0.15610000264132395, 0.15895000251475722, 0.14959999680286273, 0.16589999722782522, 0.1569500018376857, 0.1568000006955117, 0.15424999583046883, 0.16730000061215833, 0.15910000365693122, 0.16170000162674114, 0.15770000027259812, 0.15770000027259812, 0.15590000111842528, 0.20824999955948442, 0.1615999935893342, 0.15659999917261302, 0.15625000378349796, 0.15659999917261302, 0.1556999995955266, 0.15530000382568687, 0.15764999989187345, 0.1562000034027733, 0.15644999803043902, 0.15965000056894496, 0.15589999384246767, 0.15810000331839547, 0.1583499979460612, 0.15690000145696104, 0.15630000416422263, 0.1662499998928979, 0.1579000017954968, 0.15699999494245276, 0.15564999921480194, 0.15884999447735026, 0.1583499979460612, 0.1566499995533377, 0.1549500011606142, 0.1565000056871213, 0.1600499963387847, 0.15615000302204862, 0.1642499992158264, 0.16334999963873997, 0.1553999973111786, 0.15675000031478703, 0.15640000492567196, 0.1564999984111637, 0.15559999883407727, 0.15474999963771552, 0.16645000141579658, 0.16239999968092889, 0.16020000475691631, 0.15535000420641154, 0.16199999663513154, 0.1552500034449622, 0.1599000024725683, 0.16245000006165355, 0.16365000192308798, 0.15785000141477212, 0.15410000196425244, 0.15334999625338241, 0.15425000310642645, 0.20030000450788066, 0.16139999934239313, 0.1599000024725683, 0.1544499973533675, 0.1558500007377006, 0.15669999993406236, 0.15735000488348305, 0.1548000000184402, 0.1540000012028031, 0.15315000200644135, 0.1611499974387698, 0.15295000048354268, 0.15814999642316252, 0.15530000382568687, 0.152749998960644, 0.15590000111842528, 0.15875000099185854, 0.15730000450275838, 0.1563500045449473, 0.15549999807262793, 0.15685000107623637, 0.15469999925699085, 0.15619999612681568, 0.1541500023449771, 0.1555499984533526, 0.1531000016257167, 0.15395000082207844, 0.15535000420641154, 0.15464999887626618, 0.15339999663410708, 0.15344999701483175, 0.16220000543398783, 0.15505000192206353, 0.1580500029376708, 0.15624999650754035, 0.15690000145696104, 0.15485000039916486, 0.15430000348715112, 0.15390000044135377, 0.15574999997625127, 0.15519999578827992, 0.15854999946895987, 0.16789999790489674, 0.1638999965507537, 0.1544499973533675, 0.1549500011606142, 0.1556999995955266, 0.16025000513764098, 0.1601999974809587, 0.15914999676169828, 0.15425000310642645, 0.1552499961690046, 0.15364999853773043, 0.1537000061944127, 0.15434999659191817, 0.15439999697264284, 0.15390000044135377, 0.15395000082207844, 0.16209999739658087, 0.1544499973533675, 0.15250000433297828, 0.15420000272570178, 0.16294999659294263, 0.16089999553514645, 0.15660000644857064, 0.1600499963387847, 0.15364999853773043, 0.15505000192206353, 0.15529999654972926, 0.15630000416422263, 0.15440000424860045, 0.15410000196425244, 0.15374999929917976, 0.15419999544974416, 0.15590000111842528, 0.1542999962111935, 0.15455000539077446, 0.15580000035697594, 0.15505000192206353, 0.1603499986231327, 0.1531000016257167, 0.15659999917261302, 0.15544999769190326, 0.1614499997231178, 0.16324999887729064],
  "QPU": "7000000",
  "Qubits": 3,
  "Queue durations [ms]": [0.0, 0.0, 0.0, 0.0, 0.0, 0.0, 0.0, 0.0, 0.0, 0.0, 0.0, 0.0, 0.0, 0.0, 0.0, 0.0, 0.0, 0.0, 0.0, 0.0, 0.0, 0.0, 0.0, 0.0, 0.0, 0.0, 0.0, 0.0, 0.0, 0.0, 0.0, 0.0, 0.0, 0.0, 0.0, 0.0, 0.0, 0.0, 0.0, 0.0, 0.0, 0.0, 0.0, 0.0, 0.0, 0.0, 0.0, 0.0, 0.0, 0.0, 0.0, 0.0, 0.0, 0.0, 0.0, 0.0, 0.0, 0.0, 0.0, 0.0, 0.0, 0.0, 0.0, 0.0, 0.0, 0.0, 0.0, 0.0, 0.0, 0.0, 0.0, 0.0, 0.0, 0.0, 0.0, 0.0, 0.0, 0.0, 0.0, 0.0, 0.0, 0.0, 0.0, 0.0, 0.0, 0.0, 0.0, 0.0, 0.0, 0.0, 0.0, 0.0, 0.0, 0.0, 0.0, 0.0, 0.0, 0.0, 0.0, 0.0, 0.0, 0.0, 0.0, 0.0, 0.0, 0.0, 0.0, 0.0, 0.0, 0.0, 0.0, 0.0, 0.0, 0.0, 0.0, 0.0, 0.0, 0.0, 0.0, 0.0, 0.0, 0.0, 0.0, 0.0, 0.0, 0.0, 0.0, 0.0, 0.0, 0.0, 0.0, 0.0, 0.0, 0.0, 0.0, 0.0, 0.0, 0.0, 0.0, 0.0, 0.0, 0.0, 0.0, 0.0, 0.0, 0.0, 0.0, 0.0, 0.0, 0.0, 0.0, 0.0, 0.0, 0.0, 0.0, 0.0, 0.0, 0.0, 0.0, 0.0, 0.0, 0.0, 0.0, 0.0, 0.0, 0.0, 0.0, 0.0, 0.0, 0.0, 0.0, 0.0, 0.0, 0.0, 0.0, 0.0, 0.0, 0.0, 0.0, 0.0, 0.0, 0.0, 0.0, 0.0, 0.0, 0.0, 0.0, 0.0, 0.0],
  "Shots": 4096,
  "Size": 3,
  "Total Algorithm duration [s]": 0.816,
  "Total Classic duration [s]": 0.7859840499524725,
  "Total Quantum duration [s]": 0.03001595004752744
}
