{
  "Depth": 2.0,
  "Job durations [ms]": [71.5712308883667, 71.87926769256592, 76.68042182922363, 73.12393188476562, 71.62153720855713, 73.7922191619873, 74.08297061920166, 77.52668857574463],
  "Optimizer durations [ms]": [2582.647, 2301.231, 2416.876, 2452.578, 2311.783, 2488.02, 2285.727, 2575.458],
  "Optimizer iterations": 8,
  "Qubits": 1,
  "Total Algorithm duration [s]": 19.414,
  "Total Classic duration [s]": 18.82372173213959,
  "Total Quantum duration [s]": 0.5902782678604126,
  "Expectation Value": -0.574400007724762,
  "Optimal Expectation Value": -0.574400007724762,
  "Optimizer params": [1.0],
  "QPU": "6010003",
  "Problem": "RH",
  "Size": 1,
  "P": 0,
  "Shots": 4096
}