{
  "Depth": 2.0,
  "Job durations [ms]": [71.26486301422119, 72.32546806335449, 72.05259799957275, 71.47455215454102, 72.31605052947998, 75.51634311676025, 72.5715160369873, 73.25482368469238],
  "Optimizer durations [ms]": [2330.312, 2418.634, 2342.062, 2597.941, 2332.99, 2379.169, 2373.691, 2339.229],
  "Optimizer iterations": 8,
  "Qubits": 1,
  "Total Algorithm duration [s]": 19.114,
  "Total Classic duration [s]": 18.53322378540039,
  "Total Quantum duration [s]": 0.5807762145996094,
  "Expectation Value": -0.574400007724762,
  "Optimal Expectation Value": -0.574400007724762,
  "Optimizer params": [1.0],
  "QPU": "6010003",
  "Problem": "RH",
  "Size": 1,
  "P": 0,
  "Shots": 4096
}