{
  "Depth": 2.0,
  "Job durations [ms]": [73.56560230255127, 71.47765159606934, 72.62587547302246, 72.70634174346924, 71.73550128936768, 70.72591781616211, 72.55113124847412, 224.15363788604736],
  "Optimizer durations [ms]": [2469.969, 2554.385, 2541.291, 2535.449, 2478.792, 2468.889, 2544.801, 2794.205],
  "Optimizer iterations": 8,
  "Qubits": 1,
  "Total Algorithm duration [s]": 20.387,
  "Total Classic duration [s]": 19.657458340644837,
  "Total Quantum duration [s]": 0.7295416593551636,
  "Expectation Value": -0.574400007724762,
  "Optimal Expectation Value": -0.574400007724762,
  "Optimizer params": [1.0],
  "QPU": "6010003",
  "Problem": "RH",
  "Size": 1,
  "P": 0,
  "Shots": 4096
}