{
  "Depth": 20.5,
  "Expectation Value": -8.006771087646484,
  "Job durations [ms]": [0.4572500038193539, 0.6330499891191721, 0.4461999924387783, 0.45679998584091663, 0.4528999998001382, 0.6177000177558511, 0.48409998998977244, 0.6080000021029264, 0.4530000005615875, 0.5578499840339646, 0.4500500072026625, 0.5351000145310536, 0.4417000018293038, 0.46270000166259706, 0.46579999616369605, 0.44865001109428704, 0.4691499925684184, 0.4702500009443611, 0.5986000032862648, 0.45375000627245754, 0.447149999672547, 0.46305000432766974, 0.5674999993061647, 0.4992500034859404, 0.5310999986249954, 0.451300002168864, 0.4459999909158796, 0.5878499941900373, 0.4530000005615875, 0.44484999671112746, 0.5055999790783972, 0.6279000081121922, 0.45560000580735505, 0.5606499908026308, 0.45775000762660056, 0.4409499961184338, 0.4657500103348866, 0.5000499950256199, 0.4665000014938414, 0.4695999959949404, 0.4523999959928915, 0.5767999973613769, 0.4449499974725768, 0.6439499993575737, 0.4952999879606068, 0.5840499943587929, 0.4528999998001382, 0.5931000196142122, 0.45989999489393085, 0.5893499910598621, 0.6354999932227656, 0.4598499945132062, 0.4639500111807138, 0.49249999574385583, 0.545499991858378, 0.46585001109633595, 0.448050006525591, 0.4437000025063753, 0.46144999214448035, 0.4929500137222931, 0.4891499993391335, 0.45715000305790454, 0.6296000065049157, 0.5260500038275495, 0.44800000614486635, 0.46105000365059823, 0.4613999917637557, 0.4478000046219677, 0.6558499881066382, 0.5008000007364899, 0.4794999986188486, 0.46105000365059823, 0.4849499964620918, 0.45620001037605107, 0.448050006525591, 0.461499992525205, 0.5034499918110669, 0.6334999925456941, 0.4606000002240762, 0.44904999958816916, 0.4785000055562705, 0.4393999988678843, 0.4552999889710918, 0.4589000018313527, 0.444200006313622, 0.4560999950626865, 0.4485499957809225, 0.49044999468605965, 0.44869998237118125, 0.6392500072252005, 0.4496500041568652, 0.5191999953240156, 0.45929999032523483, 0.6198500050231814, 0.5222000036155805, 0.45295000018086284, 0.4560999950626865, 0.4658000107156113, 0.4564499977277592, 0.4584500129567459, 0.45974999375175685, 0.45540000428445637, 0.45530000352300704, 0.5899999960092828, 0.46505000500474125, 0.5891500040888786, 0.48284999502357095, 0.5098000110592693, 0.45089999912306666, 0.4935500182909891, 0.4756999987876043, 0.4415500006871298, 0.4397000011522323, 0.5076499946881086, 0.4802499897778034, 0.6541500042658299, 0.6139999895822257, 0.6071999960113317, 0.5937499954598024, 0.6148999964352697, 0.4592500044964254, 0.5045500001870096, 0.44720000005327165, 0.4553499893518165, 0.538849999429658, 0.6418500124709681, 0.4496500041568652, 0.43659999209921807, 0.45370000589173287, 0.6391999922925606, 0.44565000280272216, 0.45715000305790454, 0.4901999927824363, 0.5323000077623874, 0.45760000648442656, 0.4407499945955351, 0.4657999816117808, 0.5046499863965437, 0.6350000185193494, 0.4421500052558258, 0.4499500064412132, 0.4668500041589141, 0.5808999994769692, 0.5161999870324507, 0.44770000386051834, 0.622900013695471, 0.4457500035641715, 0.4488499980652705, 0.49419999413657933, 0.4566999996313825, 0.6246500124689192, 0.4938999918522313, 0.4501999937929213, 0.6187000108184293, 0.5468000017572194, 0.4845999937970191, 0.45105000026524067, 0.4466499958653003, 0.45244999637361616, 0.4555000050459057, 0.5044499994255602, 0.4969500005245209, 0.45310000132303685, 0.5527500179596245, 0.44680001155938953, 0.5313500005286187, 0.4999499942641705, 0.44680001155938953, 0.5767999973613769, 0.4649000184144825, 0.5139999993843958, 0.45604999468196183, 0.65565001568757, 0.4545999981928617, 0.45819999650120735, 0.5335500172805041, 0.4495000030146912, 0.43805000314023346, 0.4917000187560916, 0.6630499847233295, 0.44580000394489616, 0.4498499911278486, 0.609199982136488, 0.5047000158810988, 0.48979998973663896, 0.45155000407248735, 0.5002499965485185, 0.3736500075319782, 0.4549000004772097, 0.4376500000944361, 0.4394999996293336, 0.49419999413657933, 0.5180000007385388, 0.4521500086411834, 0.48615000559948385, 0.6056499987607822, 0.4498999915085733, 0.45235001016408205, 0.43744999857153744, 0.44639999396167696, 0.43805000314023346, 0.4449499974725768, 0.4865000082645565, 0.4895000020042062, 0.44445000821724534, 0.4346000059740618, 0.4771999956574291, 0.4652499919757247, 0.4432499990798533, 0.4565000126603991, 0.4972500173607841, 0.4487999976845458, 0.45730000420007855, 0.4565499984892085, 0.4787500074598938, 0.5258000019239262, 0.44565000280272216, 0.44195000373292714, 0.4493000014917925, 0.44600000546779484, 0.6168499967316166, 0.6307500007096678, 0.44955000339541584, 0.5910000036237761, 0.43330001062713563, 0.4496500041568652, 0.6112000119173899, 0.4843499918933958, 0.43659999209921807, 0.4493000014917925, 0.48504999722354114, 0.4369999951450154, 0.45784999383613467, 0.4726000042865053, 0.4547499993350357, 0.44210000487510115, 0.45200000749900937, 0.6242499948712066, 0.4386500077089295, 0.5133500089868903, 0.4403000057209283, 0.6455000111600384, 0.44269999489188194, 0.6416499963961542, 0.44580000394489616, 0.44195000373292714, 0.5387999990489334, 0.5457499792100862, 0.4370499955257401, 0.5203499895287678, 0.4592500044964254, 0.44079999497625977, 0.4424499929882586, 0.4769999941345304, 0.45449999743141234, 0.4715999966720119, 0.4344000044511631, 0.42490000487305224, 0.4864000075031072, 0.39885001024231315, 0.4486999969230965, 0.4512999876169488, 0.45700000191573054, 0.4404500068631023, 0.46505000500474125, 0.48979998973663896, 0.44430000707507133, 0.4314499965403229, 0.5091500061098486, 0.458399998024106, 0.44380000326782465, 0.5877000075997785, 0.4383000050438568, 0.44920000073034316, 0.45575000694952905, 0.5869500164408237, 0.4580000095302239, 0.5675499851349741, 0.49169998965226114, 0.4654500080505386, 0.44514999899547547, 0.4409499961184338, 0.44720000005327165, 0.5050499748904258, 0.4434000002220273, 0.5596499977400526, 0.44765000347979367, 0.5866499996045604, 0.44559998787008226, 0.48710001283325255, 0.44755000271834433, 0.4420500044943765, 0.4398500022944063, 0.6310500029940158, 0.4539500077953562, 0.4817500011995435, 0.5985499883536249, 0.42100000428035855, 0.5452500045066699, 0.4386999935377389, 0.4305000038584694, 0.43894999544136226, 0.4692499933298677, 0.48255000729113817, 0.5154000100446865, 0.5212499963818118, 0.6105500069679692, 0.49974999274127185, 0.45050001062918454, 0.447149999672547, 0.4462500073714182, 0.46165000821929425, 0.4898999904980883, 0.44439999328460544, 0.44395000440999866, 0.4576500068651512, 0.4555999912554398, 0.4582999972626567, 0.4466499958653003, 0.4400000034365803, 0.450249994173646, 0.4267499898560345, 0.6144000071799383, 0.6227499980013818, 0.45610000961460173, 0.46549999387934804, 0.5927500023972243, 0.45345001854002476, 0.458399998024106, 0.4388499946799129, 0.4485500103328377, 0.48534999950788915, 0.6283000111579895, 0.45584999315906316, 0.48579998838249594, 0.5844500119565055, 0.48835000779945403, 0.4622499836841598, 0.44359998719301075, 0.44979999074712396, 0.43989998812321573, 0.4999499942641705, 0.5510499904630706, 0.4794999840669334, 0.4498000052990392, 0.4800000024260953, 0.5661499890265986, 0.42874999053310603, 0.5641000025207177, 0.46895000559743494, 0.5523500149138272, 0.5506999877979979, 0.4483499942580238, 0.444050005171448, 0.44410000555217266, 0.4556499916361645, 0.44684999738819897, 0.4475499881664291, 0.44165000144857913, 0.4486999969230965, 0.49569999100640416, 0.447149999672547, 0.4547499993350357, 0.6099500023992732, 0.48680001054890454, 0.4890500131295994, 0.6280000088736415, 0.44439999328460544, 0.4465500096557662, 0.44144999992568046, 0.5976500106044114, 0.6463000026997179],
  "Optimal Expectation Value": -11.109565734863281,
  "Optimizer durations [ms]": [29.728, 25.831, 21.846, 28.656, 21.981, 28.296, 24.98, 26.137, 24.36, 26.186, 24.64, 23.429, 22.255, 27.916, 28.026, 27.314, 22.557, 27.637, 22.656, 25.379, 22.744, 29.456, 24.199, 25.086, 28.075, 23.461, 25.939, 23.267, 29.161, 27.342, 28.633, 25.853, 29.374, 25.552, 24.224, 22.875, 28.867, 25.737, 24.86, 25.932, 23.806, 28.743, 29.252, 21.068, 20.545, 26.318, 21.552, 26.684, 28.344, 27.167, 21.25, 29.371, 22.117, 25.117, 27.684, 27.438, 22.803, 27.855, 18.678, 22.906, 17.59, 22.856, 23.58, 25.897, 24.23, 27.443, 28.737, 22.998, 26.871, 19.525, 26.425, 29.455, 29.102, 21.535, 29.245, 26.965, 28.347, 27.416, 26.76, 24.946, 24.277, 24.063, 29.369, 23.093, 29.701, 26.844, 20.887, 23.787, 28.121, 26.742, 29.168, 24.007, 25.994, 29.066, 23.45, 28.693, 21.423, 23.631, 26.731, 26.237, 29.605, 20.084, 23.796, 25.716, 29.69, 24.465, 29.172, 24.359, 28.765, 26.052, 25.57, 26.514, 26.485, 21.319, 13.242, 27.772, 21.461, 28.891, 25.814, 27.361, 28.529, 21.058, 26.2, 21.316, 26.922, 27.997, 29.389, 22.097, 29.775, 21.186, 25.63, 26.16, 24.149, 22.858, 23.619, 29.076, 26.871, 28.911, 25.631, 24.731, 22.721, 29.441, 28.303, 29.063, 23.322, 24.623, 25.956, 25.116, 19.757, 29.077, 23.292, 28.609, 22.716, 28.818, 26.811, 26.223, 24.502, 29.177, 21.527, 23.582, 24.569, 18.73, 22.423, 23.994, 24.339, 23.608, 18.382, 28.398, 24.658, 26.253, 28.07, 26.843, 28.918, 22.541, 28.886, 23.239, 26.04, 23.142, 25.377, 28.425, 29.229, 22.19, 28.925, 20.245, 21.679, 26.293, 25.383, 18.36, 23.39, 22.942, 26.859, 19.815, 22.385, 29.502, 23.608, 28.104, 26.356, 25.157, 25.021, 25.971, 26.298, 29.33, 17.619, 25.619, 28.592, 27.517, 28.572, 29.668, 25.405, 21.104, 19.837, 22.199, 29.732, 27.529, 28.499, 22.663, 28.237, 22.565, 29.134, 24.394, 25.911, 23.918, 26.482, 23.008, 24.866, 26.979, 23.568, 23.614, 27.663, 21.956, 25.559, 25.253, 29.649, 24.442, 28.464, 26.28, 29.025, 28.301, 28.595, 21.542, 29.131, 22.581, 27.786, 25.997, 25.244, 26.398, 23.982, 25.354, 23.575, 28.563, 22.883, 29.068, 29.373, 28.382, 20.734, 29.97, 25.552, 25.144, 16.146, 23.658, 27.159, 26.721, 26.457, 24.631, 23.455, 22.972, 25.668, 27.254, 24.847, 24.686, 29.716, 21.909, 25.995, 26.365, 27.058, 22.108, 29.516, 20.414, 23.958, 27.408, 29.284, 26.453, 29.56, 23.961, 24.247, 25.837, 28.826, 20.496, 28.119, 25.296, 26.496, 27.787, 23.756, 26.11, 24.902, 25.573, 28.435, 28.613, 21.797, 21.395, 25.829, 24.702, 26.411, 20.882, 21.254, 24.769, 23.033, 26.909, 25.716, 29.434, 26.679, 24.044, 20.882, 26.371, 27.039, 20.225, 22.884, 27.623, 24.071, 21.459, 25.281, 25.513, 23.607, 25.967, 24.922, 27.351, 21.703, 28.855, 29.631, 28.192, 23.232, 25.859, 23.247, 26.649, 20.318, 24.297, 21.046, 26.391, 27.08, 25.83, 25.216, 24.581, 24.79, 28.844, 22.97, 24.392, 25.686, 26.09, 26.435, 27.129, 27.341, 27.588, 27.866, 28.514, 25.508, 28.506, 24.675, 29.22, 22.951, 24.165, 21.817, 29.22, 28.188, 22.376, 25.227, 18.012, 29.057, 26.117, 24.976, 25.946, 25.939, 28.609],
  "Optimizer iterations": 372,
  "Optimizer params": [0.7499761219596631, 0.7499690884599031, 0.7498881126060893, 0.7499758517987628, 0.7499641750509383, 0.7500135103917028, 0.7499465382936226, 0.7500213897675634, 0.7500075952483791, 0.49999082813034557, 0.500069144594759, 0.49999465876733895, 0.500004492404057, 0.499904862012028, 0.49996722296610346, 0.4999966266587653, 0.5000017151914752, 0.7500684027110663, 0.5000175026209068, 0.5000180256316091, 0.499928629980123, 0.5000524324513561, 0.49999066868444125, 0.5000176279175799, 0.4999881364192879, 0.4999872016855921, 0.4999874102372585, 0.4999699919043292, 0.5000005535604518, 0.49999330125970226, 0.49998084208847204, 0.49991607187900655, 0.49999825783252655, 0.4999875670083196, 0.5000304411642551, 0.49993273502054064],
  "P": 0,
  "Problem": "IC",
  "QPU": "7000000",
  "Qubits": 9,
  "Shots": 4096,
  "Size": 9,
  "Total Algorithm duration [s]": 9.461,
  "Total Classic duration [s]": 9.27852674987365,
  "Total Quantum duration [s]": 0.18247325012634974
}
