{
  "Depth": 20.5,
  "Expectation Value": -8.006771087646484,
  "Job durations [ms]": [0.45285001397132874, 0.4672499926527962, 0.4959499929100275, 0.4553500039037317, 0.45929999032523483, 0.4602999979397282, 0.4619999963324517, 0.46999999904073775, 0.45619999582413584, 0.4377000004751608, 0.44120001257397234, 0.4935500037390739, 0.4575000057229772, 0.4592000041157007, 0.46234998444560915, 0.595749996136874, 0.4717499978141859, 0.5986499891150743, 0.4498999915085733, 0.6149500113679096, 0.5120999994687736, 0.4560999950626865, 0.48114999663084745, 0.4434000002220273, 0.5268500099191442, 0.4742499877465889, 0.4626500012818724, 0.5211499956203625, 0.4454000008990988, 0.44329999946057796, 0.6544000061694533, 0.49849999777507037, 0.4928000125801191, 0.48565000179223716, 0.4992500034859404, 0.4639499820768833, 0.6123500061221421, 0.6503999757114798, 0.6400999991456047, 0.5560999852605164, 0.6485999911092222, 0.4535000043688342, 0.6179500051075593, 0.4525499971350655, 0.4626500012818724, 0.46629999997094274, 0.4553500039037317, 0.4523499956121668, 0.4920499923173338, 0.4571000026771799, 0.5237500154180452, 0.44025000534020364, 0.6188499974086881, 0.4500499926507473, 0.4726999904960394, 0.4541000089375302, 0.44504999823402613, 0.46960001054685563, 0.45950000640004873, 0.48395000339951366, 0.5355000030249357, 0.4506499972194433, 0.5623500037472695, 0.4496000037761405, 0.6021999870426953, 0.4549499863060191, 0.49425000906921923, 0.4569000011542812, 0.6620500062126666, 0.5604000034509227, 0.45510000200010836, 0.4980500089004636, 0.500149981235154, 0.5067000020062551, 0.44249999336898327, 0.44704999891109765, 0.44704999891109765, 0.44210000487510115, 0.457949994597584, 0.46534999273717403, 0.5081999988760799, 0.5870000022696331, 0.5452999903354794, 0.46094998833723366, 0.6402000144589692, 0.44940000225324184, 0.48644999333191663, 0.6105000065872446, 0.4377000004751608, 0.4467999970074743, 0.6638999911956489, 0.49300001410301775, 0.5020500102546066, 0.44764998892787844, 0.4382499901112169, 0.44654999510385096, 0.46690000453963876, 0.44084999535698444, 0.4597500083036721, 0.44979999074712396, 0.44689999776892364, 0.46300000394694507, 0.494549996801652, 0.4386000073282048, 0.4504999960772693, 0.4401500045787543, 0.4566999996313825, 0.44350000098347664, 0.5798500060336664, 0.44624999281950295, 0.6523500051116571, 0.45664998469874263, 0.4596499929903075, 0.6175000016810372, 0.6132999988039955, 0.45530001807492226, 0.4493000014917925, 0.4404500068631023, 0.6501000025309622, 0.45870000030845404, 0.4595500067807734, 0.448050006525591, 0.46019999717827886, 0.4606500006048009, 0.5638500006170943, 0.4434000002220273, 0.45930000487715006, 0.44535000051837415, 0.46150000707712024, 0.6308500014711171, 0.4587500006891787, 0.5221000028541312, 0.45179999142419547, 0.45334998867474496, 0.5832000024383888, 0.44684999738819897, 0.5062999844085425, 0.4918000049656257, 0.4784500051755458, 0.49059999582823366, 0.4512000014074147, 0.523449998581782, 0.5314000009093434, 0.49169998965226114, 0.5937499809078872, 0.44245000754017383, 0.4493000014917925, 0.4663500003516674, 0.454549997812137, 0.4725499893538654, 0.4819500172743574, 0.4634500073734671, 0.44350000098347664, 0.44535000051837415, 0.497199987876229, 0.44314999831840396, 0.4501000075833872, 0.6542999763041735, 0.4549000004772097, 0.5170000076759607, 0.5838500073878095, 0.5105000018374994, 0.5995499959681183, 0.491300001158379, 0.46940000902395695, 0.4575500061037019, 0.4524500109255314, 0.448050006525591, 0.44535000051837415, 0.45685000077355653, 0.6625999958487228, 0.4519500071182847, 0.6457500130636618, 0.4670999915106222, 0.5367500125430524, 0.44374998833518475, 0.5307499959599227, 0.5018499941797927, 0.5449999880511314, 0.4574499907903373, 0.636950004263781, 0.44595000508707017, 0.4427499952726066, 0.4614000063156709, 0.6015499966451898, 0.5043500132160261, 0.6170499982545152, 0.4470500134630129, 0.46305000432766974, 0.45200000749900937, 0.49494999984744936, 0.611449999269098, 0.5021000106353313, 0.5063999997219071, 0.49079999735113233, 0.44689999776892364, 0.44345000060275197, 0.4624499997589737, 0.5733500001952052, 0.6653500022366643, 0.45110000064596534, 0.45250001130625606, 0.49300001410301775, 0.6122999911895022, 0.4537499917205423, 0.5046000005677342, 0.6231499864952639, 0.44535000051837415, 0.447300000814721, 0.4735999973490834, 0.5987999902572483, 0.4361500032246113, 0.43990000267513096, 0.4897000180790201, 0.513400009367615, 0.5913499917369336, 0.4492499865591526, 0.4450999986147508, 0.43784998706541955, 0.46684998960699886, 0.46224999823607504, 0.4485499957809225, 0.4573500045808032, 0.6151499983388931, 0.47565001295879483, 0.45405000855680555, 0.44895001337863505, 0.5073499924037606, 0.4959999932907522, 0.4744500038214028, 0.45784999383613467, 0.4459999909158796, 0.48970000352710485, 0.5951500061200932, 0.500599984661676, 0.4591000033542514, 0.46809998457320035, 0.5711499834433198, 0.4965999978594482, 0.5387999990489334, 0.4563000111375004, 0.4686499887611717, 0.4515000036917627, 0.45590000809170306, 0.46964999637566507, 0.4616999940481037, 0.6541500042658299, 0.6105500069679692, 0.4394999996293336, 0.545700007933192, 0.6058500002836809, 0.6152999849291518, 0.446999998530373, 0.4896500031463802, 0.44999999227002263, 0.5557999829761684, 0.5124999734107405, 0.4958000063197687, 0.461349991383031, 0.45244999637361616, 0.4452499997569248, 0.5329000123310834, 0.4855500010307878, 0.444200006313622, 0.45834998309146613, 0.4479999915929511, 0.6608999974559993, 0.44860001071356237, 0.5744999943999574, 0.43879999429918826, 0.6036999984644353, 0.470750019303523, 0.4428000102052465, 0.45220000902190804, 0.5784499953733757, 0.4386999935377389, 0.45500001579057425, 0.44409999100025743, 0.48510001215618104, 0.4769999941345304, 0.628800000413321, 0.44425000669434667, 0.4512000014074147, 0.4457000031834468, 0.4685000021709129, 0.6053500110283494, 0.5252999835647643, 0.4419000033522025, 0.653199982480146, 0.44535000051837415, 0.4496999899856746, 0.44550000166054815, 0.4611000040313229, 0.60374999884516, 0.4346000059740618, 0.4521000082604587, 0.4354499978944659, 0.43909999658353627, 0.425349993747659, 0.4447000101208687, 0.447600003099069, 0.44595000508707017, 0.45944999146740884, 0.5278500029817224, 0.4574499907903373, 0.63189999491442, 0.443600001744926, 0.46105000365059823, 0.4521999944699928, 0.5556999822147191, 0.44594999053515494, 0.4472500004339963, 0.4466499958653003, 0.4944500105921179, 0.450999999884516, 0.47309999354183674, 0.4859500186285004, 0.4488499980652705, 0.6088500085752457, 0.45399999362416565, 0.4438500036485493, 0.43664999247994274, 0.49435000983066857, 0.4541000089375302, 0.6536000000778586, 0.45854999916628003, 0.453799992101267, 0.6005499890306965, 0.44260000868234783, 0.6503000040538609, 0.43385000026319176, 0.6089500093366951, 0.6348500028252602, 0.4419999895617366, 0.44785000500269234, 0.4430499975569546, 0.5604500038316473, 0.6352500058710575, 0.44160000106785446, 0.4438500036485493, 0.44510001316666603, 0.4432499990798533, 0.5796999903395772, 0.48659999447409064, 0.4495999892242253, 0.4419000033522025, 0.44979999074712396, 0.5644500051857904, 0.43154999730177224, 0.5147499905433506, 0.4738999850815162, 0.4423500067787245, 0.448200007667765, 0.44499999785330147, 0.45325000246521086, 0.5918499955441803, 0.4486999969230965, 0.4434000002220273, 0.5636999849230051, 0.5079499969724566, 0.4457500035641715, 0.44669999624602497, 0.4393999988678843, 0.4354499978944659, 0.6580000044777989, 0.44720000005327165, 0.6168499967316166, 0.4406000080052763, 0.5629000079352409, 0.6333499914035201, 0.6339000101434067, 0.4468500119401142],
  "Optimal Expectation Value": -11.109565734863281,
  "Optimizer durations [ms]": [29.166, 26.642, 25.351, 26.214, 29.358, 17.303, 28.374, 26.657, 20.551, 29.161, 29.064, 22.993, 25.808, 27.272, 24.974, 24.726, 27.909, 22.995, 27.629, 28.535, 30.502, 23.495, 28.607, 29.219, 24.555, 27.838, 23.672, 25.954, 26.201, 23.779, 25.383, 25.502, 23.031, 21.615, 21.684, 25.947, 25.263, 29.339, 24.786, 27.317, 25.096, 24.656, 28.108, 25.626, 28.804, 27.983, 29.716, 28.362, 20.304, 29.706, 21.518, 26.931, 23.952, 28.346, 23.172, 26.686, 27.401, 29.269, 20.463, 25.605, 25.894, 21.359, 27.58, 26.672, 28.735, 24.056, 27.051, 22.096, 28.748, 24.568, 26.158, 22.697, 24.284, 24.277, 26.105, 23.164, 27.314, 26.722, 25.593, 21.101, 21.792, 27.507, 23.18, 28.921, 24.596, 24.945, 22.112, 24.359, 23.789, 22.41, 25.789, 23.762, 25.012, 28.999, 26.468, 25.888, 24.887, 25.386, 29.45, 24.04, 27.384, 21.9, 25.531, 22.436, 25.101, 21.718, 23.908, 29.245, 27.882, 27.667, 26.323, 29.725, 26.535, 28.589, 21.108, 26.346, 24.954, 26.977, 21.401, 29.497, 24.541, 26.024, 25.222, 29.328, 28.153, 29.001, 29.275, 27.508, 21.889, 28.604, 25.066, 26.059, 25.811, 25.013, 24.908, 26.3, 21.182, 25.337, 26.154, 25.472, 27.279, 29.208, 23.498, 20.945, 25.815, 26.614, 29.166, 24.974, 25.914, 25.406, 26.045, 26.223, 24.515, 25.678, 20.998, 25.646, 28.744, 24.26, 29.382, 26.537, 25.466, 24.906, 22.677, 20.021, 22.219, 28.579, 28.269, 27.764, 27.629, 26.384, 20.74, 27.431, 22.819, 25.696, 24.386, 28.892, 19.498, 25.725, 25.188, 24.754, 28.815, 26.754, 28.923, 29.633, 22.646, 27.158, 23.484, 27.328, 24.21, 22.518, 28.287, 21.582, 21.412, 25.873, 24.457, 25.135, 26.019, 26.943, 28.445, 27.515, 25.483, 25.696, 23.317, 22.528, 29.386, 25.447, 29.09, 22.245, 26.901, 24.799, 25.525, 29.124, 23.668, 24.779, 25.318, 23.363, 27.356, 24.926, 25.104, 21.638, 28.608, 28.688, 29.428, 22.055, 26.154, 26.375, 29.394, 26.178, 29.155, 20.365, 25.789, 29.349, 29.977, 24.586, 21.255, 23.02, 27.768, 28.681, 23.095, 24.419, 25.798, 25.459, 26.462, 23.182, 29.776, 22.433, 26.811, 26.578, 28.29, 28.983, 29.365, 23.245, 24.318, 23.14, 27.451, 25.197, 21.864, 20.914, 27.103, 29.511, 27.71, 26.638, 17.783, 26.947, 27.044, 24.546, 24.21, 22.768, 26.941, 28.376, 27.449, 28.556, 25.405, 22.648, 26.441, 27.904, 25.539, 25.927, 25.254, 25.793, 25.226, 25.563, 24.767, 29.389, 25.197, 23.324, 26.373, 25.118, 23.469, 26.619, 29.085, 23.265, 28.237, 20.819, 29.046, 22.136, 29.238, 26.59, 25.159, 26.806, 25.212, 24.542, 23.339, 27.196, 25.302, 24.655, 25.438, 28.731, 22.766, 28.407, 24.539, 23.702, 28.687, 19.599, 22.212, 24.339, 24.623, 27.891, 22.411, 26.625, 29.094, 29.277, 18.339, 26.526, 28.361, 26.818, 26.046, 26.939, 26.768, 28.593, 26.908, 28.796, 25.776, 27.154, 24.467, 24.525, 23.408, 27.866, 25.286, 28.444, 26.491, 22.15, 25.651, 28.462, 21.971, 23.506, 27.062, 25.839, 24.146, 26.024, 29.815, 25.375, 24.985, 25.715, 25.12, 28.8, 26.968, 21.286, 27.323, 19.853, 28.188, 27.816, 28.952, 29.316, 26.243, 26.476, 23.018, 27.314, 25.113, 23.822, 25.279, 26.728],
  "Optimizer iterations": 372,
  "Optimizer params": [0.7499761219596631, 0.7499690884599031, 0.7498881126060893, 0.7499758517987628, 0.7499641750509383, 0.7500135103917028, 0.7499465382936226, 0.7500213897675634, 0.7500075952483791, 0.49999082813034557, 0.500069144594759, 0.49999465876733895, 0.500004492404057, 0.499904862012028, 0.49996722296610346, 0.4999966266587653, 0.5000017151914752, 0.7500684027110663, 0.5000175026209068, 0.5000180256316091, 0.499928629980123, 0.5000524324513561, 0.49999066868444125, 0.5000176279175799, 0.4999881364192879, 0.4999872016855921, 0.4999874102372585, 0.4999699919043292, 0.5000005535604518, 0.49999330125970226, 0.49998084208847204, 0.49991607187900655, 0.49999825783252655, 0.4999875670083196, 0.5000304411642551, 0.49993273502054064],
  "P": 0,
  "Problem": "IC",
  "QPU": "7000000",
  "Qubits": 9,
  "Shots": 4096,
  "Size": 9,
  "Total Algorithm duration [s]": 9.561,
  "Total Classic duration [s]": 9.376662650114973,
  "Total Quantum duration [s]": 0.18433734988502692
}
