{
  "Depth": 20.5,
  "Expectation Value": -8.006771087646484,
  "Job durations [ms]": [0.4811999824596569, 0.6150499975774437, 0.4430000117281452, 0.45649999810848385, 0.4467999970074743, 0.6207000114955008, 0.44245000754017383, 0.5727499956265092, 0.557550010853447, 0.5025499995099381, 0.4408999957377091, 0.45434999628923833, 0.45449999743141234, 0.45989999489393085, 0.448050006525591, 0.43620000360533595, 0.48309998237527907, 0.4550500016193837, 0.4695000097854063, 0.5620500014629215, 0.5567500047618523, 0.4516500048339367, 0.4516500048339367, 0.46475000272039324, 0.6181499920785427, 0.4419499891810119, 0.4585000133374706, 0.5402499955380335, 0.42874999053310603, 0.5613499961327761, 0.4547499993350357, 0.47235000238288194, 0.46400001156143844, 0.454249995527789, 0.6187000108184293, 0.44219999108463526, 0.44070000876672566, 0.5558500124607235, 0.4581499961204827, 0.4566999996313825, 0.6550000107381493, 0.45464999857358634, 0.4986500134691596, 0.46785001177340746, 0.4922500083921477, 0.4499500064412132, 0.4514499887591228, 0.6089500093366951, 0.4702000005636364, 0.5096000095363706, 0.4760999872814864, 0.444050005171448, 0.45589999353978783, 0.6461499870056286, 0.45634999696630985, 0.4640500119421631, 0.45094999950379133, 0.5713499995181337, 0.44519999937620014, 0.5205500056035817, 0.45185000635683537, 0.5120499845361337, 0.5139000131748617, 0.46100000326987356, 0.46475000272039324, 0.4674499941756949, 0.4895000165561214, 0.4533500032266602, 0.45834999764338136, 0.5018000083509833, 0.5984500021440908, 0.44275000982452184, 0.46174999442882836, 0.4497500049183145, 0.4638999962480739, 0.5346500111045316, 0.450249994173646, 0.5910500040045008, 0.4655499942600727, 0.5587000196101144, 0.4675000091083348, 0.4552000027615577, 0.45614999544341117, 0.4963500105077401, 0.49429998034611344, 0.6100000027799979, 0.48549998609814793, 0.46839998685754836, 0.4454000008990988, 0.45190000673756003, 0.5978499830234796, 0.5076499946881086, 0.43679999362211674, 0.6070500094210729, 0.46085000212769955, 0.44430000707507133, 0.5103999865241349, 0.4489999992074445, 0.45700000191573054, 0.6157000025268644, 0.45015000796411186, 0.450549996457994, 0.49664999824017286, 0.6699000077787787, 0.4420500044943765, 0.4559500084724277, 0.46115000441204756, 0.45259999751579016, 0.45274999865796417, 0.6218999915290624, 0.4381500039016828, 0.4855000152019784, 0.4538999928627163, 0.4452499997569248, 0.46064998605288565, 0.48165000043809414, 0.48370001604780555, 0.44350000098347664, 0.44934998732060194, 0.6113999988883734, 0.6086999928811565, 0.44219999108463526, 0.598849990637973, 0.4559499939205125, 0.49109999963548034, 0.48174998664762825, 0.4565000126603991, 0.45199999294709414, 0.444350007455796, 0.4554999904939905, 0.4633999924408272, 0.4599999956553802, 0.45715000305790454, 0.45035000948701054, 0.48814999172464013, 0.6431999936467037, 0.43929999810643494, 0.4947500128764659, 0.44099999649915844, 0.5482000124175102, 0.444650009740144, 0.4642999992938712, 0.5357500049285591, 0.5593000096268952, 0.44904999958816916, 0.4889999981969595, 0.5081500130472705, 0.6202499935170636, 0.453949993243441, 0.43559999903663993, 0.5618000141112134, 0.596049998421222, 0.4601499967975542, 0.48710001283325255, 0.4524999967543408, 0.4364000051282346, 0.5240000027697533, 0.4518999921856448, 0.5533500079764053, 0.4912500153295696, 0.48850000894162804, 0.5097500106785446, 0.45584999315906316, 0.6415999960154295, 0.447450001956895, 0.49255001067649573, 0.5595499969786033, 0.5900499963900074, 0.4528999998001382, 0.6201499927556142, 0.5018000083509833, 0.45479999971576035, 0.6015000108163804, 0.4909499839413911, 0.6341499974951148, 0.5132499936735258, 0.4611000040313229, 0.45790000876877457, 0.46105000365059823, 0.44049999269191176, 0.4519500071182847, 0.4652499919757247, 0.4633999924408272, 0.43870000808965415, 0.45295000018086284, 0.4654500080505386, 0.49664999824017286, 0.6333500059554353, 0.4634500073734671, 0.6169000116642565, 0.4422499914653599, 0.4474000015761703, 0.4460499912966043, 0.5981499998597428, 0.45059999683871865, 0.4528499994194135, 0.5539499979931861, 0.6504000048153102, 0.4393999988678843, 0.4430499975569546, 0.440950010670349, 0.4400000034365803, 0.45369999133981764, 0.4629500035662204, 0.44794999121222645, 0.451450003311038, 0.4483499942580238, 0.458249996881932, 0.44415000593289733, 0.4538500070339069, 0.4649500042432919, 0.5489999894052744, 0.45354999019764364, 0.44314999831840396, 0.447750004241243, 0.5086500023026019, 0.4704000020865351, 0.44639999396167696, 0.45745000534225255, 0.4615500074578449, 0.6450500077335164, 0.5952000210527331, 0.5463499983306974, 0.4567500000121072, 0.6159500044304878, 0.4917999904137105, 0.4597999941324815, 0.4616000078385696, 0.5616499984171242, 0.45510000200010836, 0.5185999907553196, 0.586600013775751, 0.6608500116271898, 0.4893999866908416, 0.5058999959146604, 0.447900005383417, 0.6023000169079751, 0.4454000008990988, 0.5816999910166487, 0.5982500006211922, 0.5893499910598621, 0.44445000821724534, 0.446999998530373, 0.487900004372932, 0.4991999885533005, 0.4621999978553504, 0.5483999993884936, 0.646849992335774, 0.4564499977277592, 0.45030000910628587, 0.6588000105693936, 0.4454999871086329, 0.4532000020844862, 0.5161499866517261, 0.4593500052578747, 0.45009999303147197, 0.5051000043749809, 0.6615000020246953, 0.4530000005615875, 0.49265001143794507, 0.47849999100435525, 0.5317000031936914, 0.49175000458490103, 0.48990000505000353, 0.44645000889431685, 0.4555999912554398, 0.48355001490563154, 0.6294500199146569, 0.5234999989625067, 0.4546500131255016, 0.6376999954227358, 0.44334999984130263, 0.49905001651495695, 0.4474000015761703, 0.4587500006891787, 0.5136499967193231, 0.49944999045692384, 0.454549997812137, 0.45435001084115356, 0.4839500179514289, 0.6561499903909862, 0.45155000407248735, 0.4432499990798533, 0.461199990240857, 0.4379500023787841, 0.44519999937620014, 0.552199999219738, 0.45105000026524067, 0.4556500061880797, 0.45974999375175685, 0.5028999876230955, 0.4465500096557662, 0.45259999751579016, 0.44334999984130263, 0.4976999916834757, 0.5023500125389546, 0.46484998892992735, 0.4482500080484897, 0.45074999798089266, 0.44239999260753393, 0.4551499878289178, 0.5731499986723065, 0.45125000178813934, 0.4971499874955043, 0.5593999958364293, 0.5861499812453985, 0.4706999898189679, 0.4932000010740012, 0.4368999943835661, 0.4978500073775649, 0.4553500039037317, 0.5446499999379739, 0.6341999978758395, 0.5213999975239858, 0.48904999857768416, 0.5211999960010871, 0.4478000046219677, 0.4879500047536567, 0.4860499902861193, 0.6196000176714733, 0.5023499979870394, 0.4577000072458759, 0.4900499916402623, 0.45009999303147197, 0.6103499908931553, 0.5940999981248751, 0.490249993163161, 0.6696000054944307, 0.4606000002240762, 0.5709500110242516, 0.44904999958816916, 0.45220000902190804, 0.4557999927783385, 0.4484000091906637, 0.494699997943826, 0.44624999281950295, 0.5601000011665747, 0.5426500138128176, 0.6056499987607822, 0.46764999569859356, 0.46374999510589987, 0.4791999817825854, 0.45414999476633966, 0.5046000005677342, 0.44669999624602497, 0.460599985672161, 0.47169999743346125, 0.44204998994246125, 0.5524499865714461, 0.5730999982915819, 0.45009999303147197, 0.44979999074712396, 0.4528499994194135, 0.49429999489802867, 0.451450003311038, 0.6380999984685332, 0.611750001553446, 0.3823000006377697, 0.45244999637361616, 0.44255000830162317, 0.5882000114070252, 0.44654999510385096, 0.6333000201266259, 0.5994999955873936, 0.5915999936405569, 0.4572000034386292, 0.5464499990921468, 0.4913500015391037, 0.4470500134630129, 0.45125000178813934, 0.450999999884516, 0.46925000788178295],
  "Optimal Expectation Value": -11.109565734863281,
  "Optimizer durations [ms]": [29.875, 25.617, 26.25, 24.408, 25.597, 28.649, 26.505, 24.538, 29.002, 22.542, 28.06, 24.012, 29.736, 22.833, 24.369, 25.766, 25.966, 28.24, 23.294, 28.041, 28.338, 24.312, 24.683, 26.777, 28.098, 24.063, 28.032, 20.46, 28.983, 18.282, 25.583, 23.34, 26.332, 25.507, 26.539, 27.579, 29.284, 22.536, 25.641, 24.05, 26.598, 28.614, 22.7, 27.896, 25.525, 26.541, 28.29, 24.717, 20.983, 23.521, 29.004, 25.639, 29.456, 22.9, 28.005, 23.178, 28.371, 25.317, 21.281, 24.338, 29.455, 25.683, 24.446, 29.69, 25.213, 25.828, 21.002, 23.022, 29.741, 18.387, 25.011, 28.099, 24.43, 29.775, 22.383, 28.46, 27.331, 23.27, 24.929, 29.019, 24.811, 21.902, 26.505, 23.684, 19.104, 26.534, 22.663, 21.506, 27.27, 29.116, 27.275, 13.749, 27.658, 21.725, 26.562, 22.386, 20.154, 26.51, 29.315, 22.018, 27.359, 25.721, 22.142, 27.008, 28.829, 26.351, 25.868, 27.957, 25.797, 28.61, 25.484, 21.884, 22.021, 29.096, 22.322, 25.61, 20.831, 24.97, 25.53, 26.141, 22.161, 22.262, 28.236, 23.655, 24.584, 17.678, 24.513, 20.92, 26.805, 26.844, 25.466, 25.95, 23.705, 24.813, 21.47, 20.177, 22.204, 22.073, 25.656, 27.456, 24.688, 24.195, 27.629, 25.231, 25.99, 22.324, 25.619, 28.475, 29.124, 28.99, 24.81, 29.081, 21.909, 25.235, 26.879, 28.972, 28.753, 27.26, 25.583, 21.184, 26.245, 24.576, 29.653, 25.119, 29.207, 20.274, 26.835, 24.269, 29.498, 24.728, 26.672, 28.807, 28.882, 20.197, 27.391, 23.931, 28.367, 21.915, 29.766, 25.987, 29.504, 26.185, 29.392, 29.472, 25.989, 21.755, 22.478, 25.697, 24.921, 24.607, 25.017, 25.882, 24.583, 27.387, 28.721, 27.428, 20.702, 28.656, 26.439, 28.144, 25.199, 29.171, 29.168, 23.797, 28.435, 29.185, 24.315, 21.057, 28.851, 26.704, 24.67, 26.04, 23.542, 27.401, 23.858, 22.521, 25.395, 27.323, 21.015, 25.777, 28.901, 26.287, 27.222, 26.272, 24.478, 25.615, 24.176, 27.175, 23.63, 28.619, 21.167, 26.546, 28.443, 18.264, 26.696, 27.011, 28.751, 23.904, 21.47, 28.877, 24.675, 25.564, 28.111, 21.417, 21.944, 22.799, 25.94, 28.854, 26.595, 23.579, 26.247, 26.588, 29.404, 28.968, 23.38, 20.649, 25.565, 25.601, 26.407, 21.372, 27.401, 26.948, 23.899, 21.454, 26.061, 24.805, 22.362, 26.545, 23.955, 26.313, 28.344, 25.962, 20.54, 29.121, 26.468, 27.193, 16.942, 26.684, 26.424, 28.973, 24.175, 29.702, 24.986, 26.032, 25.319, 25.44, 25.479, 29.331, 23.742, 27.39, 18.065, 24.313, 26.622, 27.733, 27.761, 19.651, 25.419, 24.737, 26.788, 23.677, 27.323, 28.007, 29.643, 23.257, 28.823, 24.611, 24.004, 28.884, 23.8, 19.911, 29.414, 23.636, 25.689, 28.13, 22.664, 23.489, 23.237, 28.277, 25.262, 28.863, 24.695, 28.016, 22.639, 29.315, 24.902, 28.306, 28.958, 25.042, 23.407, 28.671, 27.459, 24.782, 26.392, 28.472, 18.154, 21.372, 21.868, 24.798, 28.896, 28.293, 23.83, 26.652, 25.225, 20.251, 22.871, 25.219, 26.523, 29.648, 28.626, 26.739, 25.816, 27.496, 24.125, 22.848, 24.293, 24.312, 26.533, 21.632, 29.184, 25.48, 25.474, 23.644, 28.618, 21.412, 28.63, 28.695, 26.213, 22.469, 26.569, 24.298, 27.704, 28.91],
  "Optimizer iterations": 372,
  "Optimizer params": [0.7499761219596631, 0.7499690884599031, 0.7498881126060893, 0.7499758517987628, 0.7499641750509383, 0.7500135103917028, 0.7499465382936226, 0.7500213897675634, 0.7500075952483791, 0.49999082813034557, 0.500069144594759, 0.49999465876733895, 0.500004492404057, 0.499904862012028, 0.49996722296610346, 0.4999966266587653, 0.5000017151914752, 0.7500684027110663, 0.5000175026209068, 0.5000180256316091, 0.499928629980123, 0.5000524324513561, 0.49999066868444125, 0.5000176279175799, 0.4999881364192879, 0.4999872016855921, 0.4999874102372585, 0.4999699919043292, 0.5000005535604518, 0.49999330125970226, 0.49998084208847204, 0.49991607187900655, 0.49999825783252655, 0.4999875670083196, 0.5000304411642551, 0.49993273502054064],
  "P": 0,
  "Problem": "IC",
  "QPU": "7000000",
  "Qubits": 9,
  "Shots": 4096,
  "Size": 9,
  "Total Algorithm duration [s]": 9.488,
  "Total Classic duration [s]": 9.30341379984992,
  "Total Quantum duration [s]": 0.1845862001500791
}
