{
  "Depth": 20.5,
  "Expectation Value": -8.006771087646484,
  "Job durations [ms]": [0.45065001177135855, 0.6587499956367537, 0.4526000120677054, 0.5958499968983233, 0.44955000339541584, 0.6181999924592674, 0.6424000166589394, 0.5033999914303422, 0.4707500047516078, 0.530549994437024, 0.47080000513233244, 0.6344499997794628, 0.44165000144857913, 0.497799992444925, 0.4520999937085435, 0.5917000089539215, 0.5063499993411824, 0.44925000111106783, 0.4489999992074445, 0.47384998470079154, 0.5769999988842756, 0.46890000521671027, 0.48365000111516565, 0.47289999201893806, 0.5939999973634258, 0.4523499956121668, 0.4563999973470345, 0.45105000026524067, 0.4619999963324517, 0.44660001003649086, 0.45950000640004873, 0.4553500039037317, 0.5690500111086294, 0.4530000005615875, 0.4497500049183145, 0.4595500067807734, 0.457199988886714, 0.4488499980652705, 0.5333000008249655, 0.47199999971780926, 0.6341999833239242, 0.5715500155929476, 0.6148500106064603, 0.4581499961204827, 0.4620500112650916, 0.4547499993350357, 0.5271999980323017, 0.4566999996313825, 0.4575000057229772, 0.49220000801142305, 0.4976999916834757, 0.45929999032523483, 0.4427499952726066, 0.6368500035023317, 0.4455500020412728, 0.44580000394489616, 0.48474999493919313, 0.44144999992568046, 0.4897499893559143, 0.45274999865796417, 0.45449999743141234, 0.5035499925725162, 0.46540000766981393, 0.630600014119409, 0.5270500114420429, 0.4703500017058104, 0.4496500041568652, 0.486849996377714, 0.4640499973902479, 0.4650000046240166, 0.45685000077355653, 0.4504999960772693, 0.4574000049615279, 0.6346000009216368, 0.4452499997569248, 0.4688499902840704, 0.6180500058690086, 0.4419499891810119, 0.45420000969897956, 0.6406000175047666, 0.5180500156711787, 0.514450017362833, 0.515399980940856, 0.4288000054657459, 0.44785000500269234, 0.4521500086411834, 0.6654499884461984, 0.4520999937085435, 0.45700000191573054, 0.45444999705068767, 0.46320000546984375, 0.44514999899547547, 0.45599999430123717, 0.4985999985365197, 0.6290999881457537, 0.4887999821221456, 0.6172999856062233, 0.49214999307878315, 0.44674999662674963, 0.45695000153500587, 0.4600999964168295, 0.4386000073282048, 0.45199999294709414, 0.43744999857153744, 0.49574999138712883, 0.45169999066274613, 0.45515000238083303, 0.5323500081431121, 0.5552999937208369, 0.44684999738819897, 0.4618500097421929, 0.45745000534225255, 0.4422999918460846, 0.5451500037452206, 0.47125000855885446, 0.4461000062292442, 0.45264999789651483, 0.49000000581145287, 0.494399995659478, 0.44025000534020364, 0.4484999954001978, 0.48960001731757075, 0.5264499923214316, 0.5164499743841588, 0.46189999557100236, 0.43694999476429075, 0.4489000129979104, 0.4298999992897734, 0.5254999996395782, 0.6073999975342304, 0.4418500029714778, 0.43415000254753977, 0.4328500072006136, 0.44440000783652067, 0.6210499996086583, 0.5834999901708215, 0.6113999843364581, 0.5965000163996592, 0.4437000025063753, 0.45229999523144215, 0.44099999649915844, 0.6209999846760184, 0.4397000011522323, 0.44514999899547547, 0.5246999935479835, 0.4354999982751906, 0.4412499984027818, 0.6229999999050051, 0.49249999574385583, 0.6575000006705523, 0.49065001076087356, 0.47095000627450645, 0.44994999188929796, 0.5196999991312623, 0.4327000060584396, 0.5303000070853159, 0.4397999873617664, 0.4455500020412728, 0.636199998552911, 0.48334999883081764, 0.5473500059451908, 0.6100500031607226, 0.4392499977257103, 0.6319500098470598, 0.44755000271834433, 0.44684999738819897, 0.4449499974725768, 0.5142500012880191, 0.5359499918995425, 0.45510000200010836, 0.444350007455796, 0.4462999932002276, 0.44225000601727515, 0.5090500053483993, 0.44994999188929796, 0.48630000674165785, 0.4420000041136518, 0.48004998825490475, 0.593100005062297, 0.4387499939184636, 0.6003499875077978, 0.4454000008990988, 0.5596499977400526, 0.43655000627040863, 0.5238000012468547, 0.4389500099932775, 0.4496500041568652, 0.447450001956895, 0.4410999972606078, 0.5413999897427857, 0.4413999995449558, 0.5279499891912565, 0.3799999976763502, 0.42010001197922975, 0.4741500015370548, 0.4538500070339069, 0.4986499989172444, 0.44099999649915844, 0.6079500017222017, 0.4480499919736758, 0.43554999865591526, 0.4575500061037019, 0.44025000534020364, 0.494549996801652, 0.44404999061953276, 0.5628000071737915, 0.5631500098388642, 0.4526000120677054, 0.46970001130830497, 0.63189999491442, 0.4486999969230965, 0.45214999408926815, 0.5510499904630706, 0.5000999954063445, 0.4597000079229474, 0.44064999383408576, 0.4385000065667555, 0.4426499945111573, 0.451300002168864, 0.5820999940624461, 0.43474999256432056, 0.44809999235440046, 0.44019999040756375, 0.5029999883845448, 0.5997500120429322, 0.44674999662674963, 0.490549995447509, 0.4404500068631023, 0.4436999879544601, 0.5452499899547547, 0.6423500017262995, 0.44409999100025743, 0.45125000178813934, 0.484500007587485, 0.4436999879544601, 0.4423500067787245, 0.4824999923584983, 0.45775000762660056, 0.4598500090651214, 0.6135499861557037, 0.4591000179061666, 0.43450000521261245, 0.6102000043028966, 0.44735000119544566, 0.4991999885533005, 0.4467999970074743, 0.4347000067355111, 0.5803499952889979, 0.45035000948701054, 0.44904999958816916, 0.45340000360738486, 0.5284999933792278, 0.5052000051364303, 0.4593499907059595, 0.4915000026812777, 0.45965000754222274, 0.5006999999750406, 0.46054999984335154, 0.4665500018745661, 0.4600999964168295, 0.5275000003166497, 0.5002499965485185, 0.5031499895267189, 0.4571000026771799, 0.4426499945111573, 0.4486499965423718, 0.44844999501947314, 0.4392499977257103, 0.44979999074712396, 0.44550000166054815, 0.5498999962583184, 0.45950000640004873, 0.4520999937085435, 0.45605000923387706, 0.5254999996395782, 0.4545999981928617, 0.6305999995674938, 0.5379000067478046, 0.4930500144837424, 0.4608000017469749, 0.5582500016316772, 0.43929999810643494, 0.4950500006088987, 0.4488499980652705, 0.4574000049615279, 0.44594999053515494, 0.45039999531582, 0.5060499825049192, 0.4194999928586185, 0.6259000074351206, 0.4824999923584983, 0.5011500034015626, 0.4570500022964552, 0.5712000129278749, 0.44594999053515494, 0.48639999295119196, 0.6359999970300123, 0.4528499994194135, 0.44395000440999866, 0.4428500105859712, 0.6068999937269837, 0.4444999940460548, 0.45259999751579016, 0.49804999434854835, 0.6375499942805618, 0.44684999738819897, 0.5789499846287072, 0.4466499958653003, 0.4981500096619129, 0.44450000859797, 0.4524999967543408, 0.4915000172331929, 0.5398000066634268, 0.4937000048812479, 0.5689499957952648, 0.5471000040415674, 0.4400000034365803, 0.5678499874193221, 0.42374999611638486, 0.43864999315701425, 0.44920000073034316, 0.450999999884516, 0.43899999582208693, 0.5553499795496464, 0.4564499977277592, 0.4394999996293336, 0.4371499962871894, 0.44970000453758985, 0.48319999768864363, 0.44450000859797, 0.6233499880181625, 0.45279999903868884, 0.45414998021442443, 0.43319999531377107, 0.44770000386051834, 0.44144999992568046, 0.5341500072972849, 0.44245000754017383, 0.6240500079002231, 0.444950012024492, 0.447900005383417, 0.6120000180089846, 0.4928499838570133, 0.5247000080998987, 0.45700000191573054, 0.6042999884812161, 0.45105000026524067, 0.4499000060604885, 0.5097499961266294, 0.44949998846277595, 0.45110000064596534, 0.5363999953260645, 0.45780000800732523, 0.6539500027429312, 0.4427499952726066, 0.4441499913809821, 0.5191500094952062, 0.448200007667765, 0.4499500064412132, 0.4778500006068498, 0.614399992628023, 0.4712000081781298, 0.6011999939801171, 0.46624999959021807, 0.4486499965423718, 0.4358000005595386, 0.4337499995017424, 0.640350001049228, 0.44920000073034316, 0.45074999798089266, 0.500899986946024, 0.6443000020226464],
  "Optimal Expectation Value": -11.109565734863281,
  "Optimizer durations [ms]": [29.337, 26.274, 28.529, 27.023, 29.569, 21.594, 28.959, 19.837, 24.941, 25.442, 24.909, 28.076, 26.662, 22.801, 24.401, 27.476, 24.139, 22.74, 23.825, 25.022, 23.959, 26.446, 29.488, 23.863, 22.109, 25.94, 24.537, 27.696, 25.653, 25.715, 25.82, 24.678, 25.0, 25.642, 25.349, 29.765, 20.361, 25.207, 26.024, 29.32, 24.53, 20.785, 29.429, 25.905, 26.517, 23.601, 21.162, 26.542, 28.547, 22.642, 20.844, 26.178, 27.415, 28.787, 27.351, 20.706, 28.52, 24.923, 22.209, 25.247, 25.957, 23.168, 29.83, 20.332, 25.791, 26.795, 28.423, 23.455, 23.743, 28.242, 27.834, 27.857, 23.644, 25.301, 27.445, 25.179, 26.614, 24.48, 28.346, 21.589, 24.441, 28.521, 23.106, 25.014, 21.786, 24.279, 26.712, 28.187, 26.753, 29.62, 29.622, 22.516, 23.588, 30.271, 25.388, 21.335, 24.601, 25.382, 25.223, 21.216, 23.325, 28.064, 23.241, 28.747, 18.325, 25.258, 23.369, 28.554, 27.142, 27.02, 26.122, 28.84, 27.43, 20.588, 28.112, 22.047, 23.548, 29.959, 23.839, 25.03, 27.195, 24.069, 27.72, 25.703, 26.591, 24.388, 25.227, 26.067, 25.157, 28.318, 27.214, 27.289, 24.047, 22.91, 23.662, 24.788, 28.492, 25.746, 29.214, 26.852, 24.748, 25.04, 24.987, 23.008, 27.353, 27.123, 23.987, 26.201, 24.966, 32.202, 32.389, 29.36, 22.987, 22.124, 25.971, 24.175, 26.215, 25.295, 24.958, 28.345, 26.838, 23.707, 27.632, 23.337, 25.015, 24.679, 29.244, 22.672, 27.641, 25.857, 26.414, 25.583, 29.083, 24.284, 24.917, 21.634, 21.569, 21.073, 23.028, 25.531, 23.684, 26.861, 23.954, 26.359, 28.168, 28.97, 21.684, 26.52, 24.145, 25.514, 26.487, 23.798, 25.036, 27.605, 21.056, 26.881, 19.253, 24.531, 26.243, 27.629, 24.619, 22.762, 29.466, 18.429, 25.697, 24.395, 28.677, 22.637, 28.266, 25.526, 28.211, 24.237, 26.716, 28.533, 28.205, 24.34, 24.904, 24.532, 26.627, 21.925, 29.014, 22.122, 25.687, 23.002, 22.701, 26.445, 21.249, 29.047, 24.666, 24.316, 25.669, 28.299, 26.601, 20.472, 25.876, 21.77, 22.892, 28.52, 26.55, 28.593, 22.518, 27.116, 28.726, 22.09, 28.845, 25.354, 20.552, 24.906, 26.129, 25.008, 25.249, 27.424, 19.759, 29.469, 22.664, 25.815, 21.284, 21.033, 26.048, 27.191, 29.375, 19.85, 25.741, 29.256, 29.546, 22.872, 26.158, 26.775, 29.267, 24.925, 28.699, 21.857, 26.614, 23.117, 25.494, 29.485, 25.414, 21.861, 24.085, 25.065, 26.488, 24.889, 20.879, 23.786, 23.167, 27.921, 29.151, 18.529, 21.675, 28.474, 28.539, 20.562, 25.237, 24.365, 21.768, 22.458, 23.039, 29.789, 24.393, 29.291, 19.838, 29.277, 24.033, 22.308, 27.53, 24.632, 20.658, 18.965, 28.301, 22.011, 29.617, 18.824, 22.51, 19.877, 28.516, 24.233, 29.11, 24.696, 28.7, 26.9, 29.248, 27.101, 26.254, 24.123, 26.306, 24.806, 23.189, 23.5, 22.265, 27.866, 23.017, 29.303, 24.662, 28.562, 25.831, 23.66, 24.878, 26.482, 27.94, 29.39, 21.554, 25.914, 21.231, 22.228, 27.472, 28.808, 29.454, 28.389, 19.637, 24.356, 25.605, 24.601, 27.562, 29.203, 20.232, 23.208, 28.137, 23.376, 26.119, 25.357, 29.305, 30.012, 28.753, 23.442, 26.787, 28.352, 26.134, 27.299, 26.522, 25.105, 21.894, 24.238],
  "Optimizer iterations": 372,
  "Optimizer params": [0.7499761219596631, 0.7499690884599031, 0.7498881126060893, 0.7499758517987628, 0.7499641750509383, 0.7500135103917028, 0.7499465382936226, 0.7500213897675634, 0.7500075952483791, 0.49999082813034557, 0.500069144594759, 0.49999465876733895, 0.500004492404057, 0.499904862012028, 0.49996722296610346, 0.4999966266587653, 0.5000017151914752, 0.7500684027110663, 0.5000175026209068, 0.5000180256316091, 0.499928629980123, 0.5000524324513561, 0.49999066868444125, 0.5000176279175799, 0.4999881364192879, 0.4999872016855921, 0.4999874102372585, 0.4999699919043292, 0.5000005535604518, 0.49999330125970226, 0.49998084208847204, 0.49991607187900655, 0.49999825783252655, 0.4999875670083196, 0.5000304411642551, 0.49993273502054064],
  "P": 0,
  "Problem": "IC",
  "QPU": "7000000",
  "Qubits": 9,
  "Shots": 4096,
  "Size": 9,
  "Total Algorithm duration [s]": 9.451,
  "Total Classic duration [s]": 9.268405950103421,
  "Total Quantum duration [s]": 0.18259404989657924
}
