{
  "Depth": 457.0,
  "Job durations [ms]": [13.543795000000001, 17.762605, 21.516556, 13.659929000000002, 13.416019000000002, 17.483179, 13.887950000000002, 13.976507000000002, 13.836590000000001, 13.953187, 13.872231000000001, 17.875608, 17.915886000000004, 13.416877000000001, 17.890616, 13.296831000000001, 13.943002000000002, 21.270208000000004, 13.654509000000001, 18.225482, 17.875555000000002, 18.136247, 26.280743, 17.975148, 26.446837000000002, 17.866892000000004, 18.378054000000002, 17.978926, 18.137731000000002, 18.139076, 14.417954, 17.898825, 18.03423, 13.936020000000001, 18.041756000000003, 23.512003, 13.254554, 13.932585000000001, 13.853369, 19.238812, 13.463951, 18.163282000000002, 18.211179, 18.117285, 17.999803, 13.852126000000002, 18.349585, 13.265857, 14.732575, 26.483928, 17.019529000000002, 25.711496, 17.730045, 17.816170000000003, 14.018671000000001, 13.499604, 17.733035, 13.899077, 13.411348, 21.173488, 13.711547000000001, 13.256437000000002, 21.308396000000002, 13.980418000000002, 14.807322000000001, 17.731963, 13.810347, 13.702544000000001, 13.357056, 13.737088000000002, 26.074933, 18.248786, 14.085586000000001, 13.794468, 13.913149, 13.919053, 13.678842, 17.871348, 14.137305000000001, 13.565725, 17.976808000000002, 21.092743000000002],
  "Optimizer durations [ms]": [80922.562, 9018.493, 9502.688, 8347.935, 9636.374, 11429.46, 13170.52, 34956.865, 8374.451, 8323.383, 9033.813, 7430.757, 8800.019, 8521.185, 9570.039, 7789.696, 70477.454, 9479.537, 18115.098, 10122.42, 8543.249, 32486.48, 10304.23, 62546.456, 10507.966, 132947.813, 8373.212, 8576.244, 9246.49, 74336.83, 11245.276, 37656.466, 8611.433, 8086.228, 7757.133, 8042.787, 9082.211, 9843.546, 8795.633, 11026.321, 70954.433, 122674.736, 9373.09, 89513.72, 9289.2, 26283.847, 24107.913, 10714.919, 10854.06, 8784.369, 8618.532, 10474.466, 11188.397, 11628.751, 14506.177, 8436.267, 79013.807, 43715.594, 9143.978, 9563.478, 10232.512, 9038.444, 36160.675, 10314.148, 8026.918, 9480.015, 10308.873, 70208.281, 72561.021, 10073.195, 8931.21, 10373.232, 69855.731, 8962.083, 24809.643, 63432.926, 63090.636, 10264.388, 7823.307, 64932.852, 8750.862, 8001.259],
  "Optimizer iterations": 82,
  "Qubits": 11,
  "Total Algorithm duration [s]": 2015.51,
  "Total Classic duration [s]": 2014.139853218,
  "Total Quantum duration [s]": 1.3701467820000004,
  "Expectation Value": -1.9912109375,
  "Optimal Expectation Value": -4.0,
  "Optimizer params": [0.7975072544807075, 0.027949765312558692, 0.9223481259881143, 0.3479936938228613, 0.15446238498492046, 0.4955640215261516],
  "QPU": "4010001",
  "Problem": "DSP",
  "Size": 6,
  "P": 3,
  "Shots": 4096
}