{
  "Circuit execution durations [ms]": [3.9045, 3.9265999999999996, 3.9201, 4.011299999999999, 3.9435, 3.9880999999999998, 3.9417999999999997, 3.9513, 3.9362, 4.166, 3.9106999999999994, 3.9718, 3.9756, 3.9769999999999994, 3.9115, 3.9604999999999997, 3.9011, 3.8985, 3.933, 3.8939999999999997, 3.9745, 3.9101, 3.9537, 3.9402999999999997, 3.9325, 3.8967, 3.9573000000000005, 3.9115, 3.9728000000000003, 3.9395999999999995, 3.9454, 3.9232, 3.8825000000000003, 3.9261, 4.1822, 4.1237, 3.94, 3.8739999999999997, 3.9276, 3.8943, 3.9290999999999996, 3.9212, 3.9193, 3.9464, 3.888, 3.927, 3.9192000000000005, 3.9385999999999997, 3.8817, 3.9160000000000004, 4.0131000000000006, 3.9357999999999995, 3.9074, 3.9163999999999994, 3.9151999999999996, 3.9078999999999997, 3.9307, 3.8896, 3.9033, 3.9015, 4.0145, 3.8931999999999998, 3.8089999999999997, 4.045100000000001, 3.7548999999999997, 4.08, 3.8614, 3.8890000000000002, 3.9196999999999997, 3.9316000000000004, 3.8622, 3.8742, 3.9357, 3.8991, 3.8941000000000003, 3.9297000000000004, 3.9018],
  "Depth": 607.0,
  "Expectation Value": -3.952465295791626,
  "Optimal Expectation Value": -6.0,
  "Optimizer durations [ms]": [39.751, 39.969, 39.869, 40.689, 40.014, 40.531, 39.941, 39.909, 40.183, 42.342, 47.557, 40.339, 40.346, 40.32, 39.676, 40.277, 39.909, 39.626, 39.936, 39.443, 40.413, 39.794, 40.121, 40.157, 40.008, 39.636, 40.004, 39.928, 40.272, 40.11, 40.195, 39.657, 39.561, 39.808, 42.533, 48.89, 39.85, 39.494, 39.675, 42.389, 39.738, 39.908, 43.886, 40.216, 39.401, 39.972, 39.753, 40.1, 39.19, 39.889, 40.863, 39.83, 39.599, 39.964, 39.728, 39.711, 39.906, 39.457, 39.736, 42.817, 40.752, 39.297, 43.664, 41.16, 47.775, 41.298, 48.77, 39.599, 39.79, 40.08, 39.217, 39.334, 40.001, 39.385, 39.652, 39.71, 39.702],
  "Optimizer iterations": 77,
  "Optimizer params": [0.32198691263474566, 0.9910136115451416, 0.19341292758844214, 0.1698202190323924, 0.489619537507893, 0.268153186037414],
  "P": 3,
  "Problem": "DSP",
  "QJob durations [ms]": [3.9045, 3.9265999999999996, 3.9201, 4.011299999999999, 3.9435, 3.9880999999999998, 3.9417999999999997, 3.9513, 3.9362, 4.166, 3.9106999999999994, 3.9718, 3.9756, 3.9769999999999994, 3.9115, 3.9604999999999997, 3.9011, 3.8985, 3.933, 3.8939999999999997, 3.9745, 3.9101, 3.9537, 3.9402999999999997, 3.9325, 3.8967, 3.9573000000000005, 3.9115, 3.9728000000000003, 3.9395999999999995, 3.9454, 3.9232, 3.8825000000000003, 3.9261, 4.1822, 4.1237, 3.94, 3.8739999999999997, 3.9276, 3.8943, 3.9290999999999996, 3.9212, 3.9193, 3.9464, 3.888, 3.927, 3.9192000000000005, 3.9385999999999997, 3.8817, 3.9160000000000004, 4.0131000000000006, 3.9357999999999995, 3.9074, 3.9163999999999994, 3.9151999999999996, 3.9078999999999997, 3.9307, 3.8896, 3.9033, 3.9015, 4.0145, 3.8931999999999998, 3.8089999999999997, 4.045100000000001, 3.7548999999999997, 4.08, 3.8614, 3.8890000000000002, 3.9196999999999997, 3.9316000000000004, 3.8622, 3.8742, 3.9357, 3.8991, 3.8941000000000003, 3.9297000000000004, 3.9018],
  "QPU": "7000000",
  "Qubits": 13,
  "Queue durations [ms]": [0.0, 0.0, 0.0, 0.0, 0.0, 0.0, 0.0, 0.0, 0.0, 0.0, 0.0, 0.0, 0.0, 0.0, 0.0, 0.0, 0.0, 0.0, 0.0, 0.0, 0.0, 0.0, 0.0, 0.0, 0.0, 0.0, 0.0, 0.0, 0.0, 0.0, 0.0, 0.0, 0.0, 0.0, 0.0, 0.0, 0.0, 0.0, 0.0, 0.0, 0.0, 0.0, 0.0, 0.0, 0.0, 0.0, 0.0, 0.0, 0.0, 0.0, 0.0, 0.0, 0.0, 0.0, 0.0, 0.0, 0.0, 0.0, 0.0, 0.0, 0.0, 0.0, 0.0, 0.0, 0.0, 0.0, 0.0, 0.0, 0.0, 0.0, 0.0, 0.0, 0.0, 0.0, 0.0, 0.0, 0.0],
  "Shots": 4096,
  "Size": 8,
  "Total Algorithm duration [s]": 3.126,
  "Total Classic duration [s]": 2.8230663,
  "Total Quantum duration [s]": 0.3029336999999999
}
