{
  "Circuit execution durations [ms]": [3.8667, 3.9401, 3.9029, 3.9334000000000002, 3.8945, 3.9452999999999996, 3.8832, 3.8834999999999997, 3.9469, 3.9396999999999998, 3.9507, 3.8971999999999998, 3.9, 3.9164999999999996, 3.92, 3.9198000000000004, 3.9208000000000003, 3.9445, 3.8921, 3.8717, 3.8966000000000003, 3.898, 3.8996999999999997, 3.9160000000000004, 4.0416, 3.9182, 3.9382999999999995, 3.9259000000000004, 3.9518, 3.8926, 3.9302, 3.9089, 3.9508, 3.9598000000000004, 3.9207, 3.8964, 3.9176, 3.9281, 3.8799, 3.9244, 3.9202000000000004, 3.8855, 3.9282, 3.9096, 3.8983, 3.9233000000000002, 3.9617000000000004, 3.8779, 3.9522000000000004, 3.9141000000000004, 3.9087, 3.9335999999999998, 3.9289, 3.8654, 3.9290000000000003, 3.9373000000000005, 4.1084, 3.803, 3.9282, 3.8595, 3.9806, 3.9376999999999995, 3.9141999999999997, 3.9198999999999997, 3.8967, 3.9335999999999998, 3.886, 3.9151999999999996, 3.9251, 3.9255, 3.9081, 3.9338999999999995, 3.8887, 3.9092, 4.1013, 3.8183000000000002, 3.9078000000000004, 3.8988, 3.8974, 3.9225, 3.9212, 3.8945999999999996, 3.9198999999999997, 4.0046, 3.9106, 3.9877999999999996, 3.9265000000000003, 3.8642, 3.904, 3.9801, 3.9097999999999997, 3.9036, 3.9426, 3.9233999999999996, 3.9128000000000003, 3.8752, 3.9227000000000003, 3.9217999999999997, 3.9240999999999997, 3.9785999999999997, 4.1219, 3.9046, 3.9224000000000006, 3.8848, 3.9099, 3.8802, 3.9067, 3.9055, 3.9236999999999997, 3.882, 3.9033, 3.9297000000000004, 3.9093, 3.9065000000000003, 3.9487, 3.9154999999999998, 3.9083, 3.8822, 3.8777, 3.9106, 3.9417999999999997, 3.9258, 3.8526, 3.8777999999999997, 3.95, 3.9179000000000004, 3.9566000000000003, 3.9267, 3.7992, 3.9446999999999997, 3.9338, 4.0028],
  "Depth": 607.0,
  "Expectation Value": -4.239919185638428,
  "Optimal Expectation Value": -6.0,
  "Optimizer durations [ms]": [39.294, 40.261, 39.719, 39.899, 39.398, 40.104, 39.504, 39.283, 40.12, 39.924, 40.015, 39.662, 39.557, 39.784, 39.752, 39.62, 39.983, 39.825, 39.591, 39.362, 39.675, 39.685, 39.507, 39.83, 40.815, 49.259, 40.193, 39.807, 40.235, 39.513, 39.903, 39.729, 39.926, 40.315, 39.802, 39.382, 39.963, 39.768, 39.406, 39.874, 39.786, 39.666, 40.082, 39.46, 39.889, 39.78, 40.199, 39.243, 40.272, 39.506, 39.847, 39.937, 39.838, 45.665, 39.986, 39.794, 41.881, 48.297, 39.674, 39.309, 40.476, 40.039, 39.687, 39.882, 39.473, 39.804, 39.678, 39.811, 39.893, 39.678, 39.789, 39.738, 39.688, 39.514, 41.724, 48.199, 39.891, 39.376, 39.911, 39.828, 39.9, 39.438, 39.777, 40.564, 39.64, 40.498, 39.864, 39.227, 39.565, 40.489, 39.504, 39.665, 40.119, 39.666, 39.541, 39.63, 39.832, 39.951, 39.769, 40.385, 46.538, 39.623, 39.692, 39.531, 39.696, 39.306, 39.73, 39.811, 39.972, 39.49, 39.419, 40.227, 39.732, 39.749, 40.122, 39.665, 39.801, 39.417, 39.302, 39.783, 40.039, 39.852, 39.176, 39.155, 40.511, 39.662, 40.006, 39.999, 48.15, 40.117, 39.933, 40.553],
  "Optimizer iterations": 132,
  "Optimizer params": [0.48406140998714303, 0.6365291816935126, 0.674383026207286, 0.9632601372268581, 0.6194824238315081, 0.9995591197038103],
  "P": 3,
  "Problem": "DSP",
  "QJob durations [ms]": [3.8667, 3.9401, 3.9029, 3.9334000000000002, 3.8945, 3.9452999999999996, 3.8832, 3.8834999999999997, 3.9469, 3.9396999999999998, 3.9507, 3.8971999999999998, 3.9, 3.9164999999999996, 3.92, 3.9198000000000004, 3.9208000000000003, 3.9445, 3.8921, 3.8717, 3.8966000000000003, 3.898, 3.8996999999999997, 3.9160000000000004, 4.0416, 3.9182, 3.9382999999999995, 3.9259000000000004, 3.9518, 3.8926, 3.9302, 3.9089, 3.9508, 3.9598000000000004, 3.9207, 3.8964, 3.9176, 3.9281, 3.8799, 3.9244, 3.9202000000000004, 3.8855, 3.9282, 3.9096, 3.8983, 3.9233000000000002, 3.9617000000000004, 3.8779, 3.9522000000000004, 3.9141000000000004, 3.9087, 3.9335999999999998, 3.9289, 3.8654, 3.9290000000000003, 3.9373000000000005, 4.1084, 3.803, 3.9282, 3.8595, 3.9806, 3.9376999999999995, 3.9141999999999997, 3.9198999999999997, 3.8967, 3.9335999999999998, 3.886, 3.9151999999999996, 3.9251, 3.9255, 3.9081, 3.9338999999999995, 3.8887, 3.9092, 4.1013, 3.8183000000000002, 3.9078000000000004, 3.8988, 3.8974, 3.9225, 3.9212, 3.8945999999999996, 3.9198999999999997, 4.0046, 3.9106, 3.9877999999999996, 3.9265000000000003, 3.8642, 3.904, 3.9801, 3.9097999999999997, 3.9036, 3.9426, 3.9233999999999996, 3.9128000000000003, 3.8752, 3.9227000000000003, 3.9217999999999997, 3.9240999999999997, 3.9785999999999997, 4.1219, 3.9046, 3.9224000000000006, 3.8848, 3.9099, 3.8802, 3.9067, 3.9055, 3.9236999999999997, 3.882, 3.9033, 3.9297000000000004, 3.9093, 3.9065000000000003, 3.9487, 3.9154999999999998, 3.9083, 3.8822, 3.8777, 3.9106, 3.9417999999999997, 3.9258, 3.8526, 3.8777999999999997, 3.95, 3.9179000000000004, 3.9566000000000003, 3.9267, 3.7992, 3.9446999999999997, 3.9338, 4.0028],
  "QPU": "7000000",
  "Qubits": 13,
  "Queue durations [ms]": [0.0, 0.0, 0.0, 0.0, 0.0, 0.0, 0.0, 0.0, 0.0, 0.0, 0.0, 0.0, 0.0, 0.0, 0.0, 0.0, 0.0, 0.0, 0.0, 0.0, 0.0, 0.0, 0.0, 0.0, 0.0, 0.0, 0.0, 0.0, 0.0, 0.0, 0.0, 0.0, 0.0, 0.0, 0.0, 0.0, 0.0, 0.0, 0.0, 0.0, 0.0, 0.0, 0.0, 0.0, 0.0, 0.0, 0.0, 0.0, 0.0, 0.0, 0.0, 0.0, 0.0, 0.0, 0.0, 0.0, 0.0, 0.0, 0.0, 0.0, 0.0, 0.0, 0.0, 0.0, 0.0, 0.0, 0.0, 0.0, 0.0, 0.0, 0.0, 0.0, 0.0, 0.0, 0.0, 0.0, 0.0, 0.0, 0.0, 0.0, 0.0, 0.0, 0.0, 0.0, 0.0, 0.0, 0.0, 0.0, 0.0, 0.0, 0.0, 0.0, 0.0, 0.0, 0.0, 0.0, 0.0, 0.0, 0.0, 0.0, 0.0, 0.0, 0.0, 0.0, 0.0, 0.0, 0.0, 0.0, 0.0, 0.0, 0.0, 0.0, 0.0, 0.0, 0.0, 0.0, 0.0, 0.0, 0.0, 0.0, 0.0, 0.0, 0.0, 0.0, 0.0, 0.0, 0.0, 0.0, 0.0, 0.0, 0.0, 0.0],
  "Shots": 4096,
  "Size": 8,
  "Total Algorithm duration [s]": 5.304,
  "Total Classic duration [s]": 4.786550200000001,
  "Total Quantum duration [s]": 0.5174498
}
