{
  "Circuit execution durations [ms]": [3.9369, 3.8935, 3.9889, 3.9014, 3.9389999999999996, 3.9303000000000003, 3.9246999999999996, 3.9053, 3.9658, 3.9762, 3.9097999999999997, 3.8859, 3.8708, 3.9065000000000003, 3.9101, 3.9443000000000006, 3.9442, 3.913, 3.9284999999999997, 3.9177999999999997, 3.9267, 3.932, 3.9303999999999997, 4.0025, 3.9208999999999996, 3.9442, 3.9258, 4.0333, 3.907, 3.9576999999999996, 3.934, 3.9124, 3.8698, 3.8869, 3.9090000000000003, 3.9495, 3.9124, 3.9234999999999998, 3.9859999999999998, 3.9471999999999996, 3.9274999999999998, 3.9347999999999996, 3.9007, 3.8968000000000003, 3.9032, 3.8975, 3.925, 3.8887, 3.9594, 4.0278, 3.9341999999999997, 3.9351000000000003, 4.105700000000001, 4.1042, 3.8806000000000003, 3.9344999999999994, 3.9290000000000003, 3.9157, 3.9029, 3.9026, 3.9267, 3.9687000000000006, 3.9132000000000002, 3.8998, 3.9071000000000002, 3.9125, 3.9417000000000004, 3.878, 4.0428, 3.9325999999999994, 3.9122999999999997, 3.9335999999999998, 3.8756, 3.9084000000000003, 3.9196999999999997, 3.9652000000000003, 3.9457, 3.8366, 3.9512, 3.9068, 3.9166000000000003, 3.8973, 3.9528000000000003, 3.9944, 4.0559, 3.9269, 3.9027],
  "Depth": 607.0,
  "Expectation Value": -4.313785076141357,
  "Optimal Expectation Value": -6.0,
  "Optimizer durations [ms]": [40.648, 39.633, 40.393, 44.795, 40.062, 39.837, 39.826, 39.652, 40.102, 49.769, 40.61, 39.621, 39.395, 39.789, 39.774, 39.943, 40.235, 39.849, 39.728, 39.734, 39.927, 39.898, 39.737, 40.694, 39.831, 40.15, 39.807, 50.639, 39.698, 40.204, 40.005, 39.691, 39.08, 39.737, 39.497, 40.989, 39.866, 39.689, 40.628, 40.077, 39.884, 39.912, 39.39, 39.825, 39.458, 39.537, 39.831, 39.33, 40.287, 40.679, 40.121, 40.11, 46.394, 41.841, 39.457, 39.937, 39.883, 39.501, 39.844, 39.637, 42.304, 40.389, 39.485, 39.841, 39.529, 39.764, 40.087, 39.188, 41.041, 39.885, 39.586, 39.907, 39.538, 39.662, 39.581, 40.144, 40.092, 40.274, 40.28, 39.704, 39.583, 39.731, 40.162, 40.593, 50.779, 39.877, 39.584],
  "Optimizer iterations": 87,
  "Optimizer params": [0.5678044175178915, 0.4483196436706224, 0.9889673826314856, 0.9313358655150837, 0.46396682221935714, 0.6669811884085992],
  "P": 3,
  "Problem": "DSP",
  "QJob durations [ms]": [3.9369, 3.8935, 3.9889, 3.9014, 3.9389999999999996, 3.9303000000000003, 3.9246999999999996, 3.9053, 3.9658, 3.9762, 3.9097999999999997, 3.8859, 3.8708, 3.9065000000000003, 3.9101, 3.9443000000000006, 3.9442, 3.913, 3.9284999999999997, 3.9177999999999997, 3.9267, 3.932, 3.9303999999999997, 4.0025, 3.9208999999999996, 3.9442, 3.9258, 4.0333, 3.907, 3.9576999999999996, 3.934, 3.9124, 3.8698, 3.8869, 3.9090000000000003, 3.9495, 3.9124, 3.9234999999999998, 3.9859999999999998, 3.9471999999999996, 3.9274999999999998, 3.9347999999999996, 3.9007, 3.8968000000000003, 3.9032, 3.8975, 3.925, 3.8887, 3.9594, 4.0278, 3.9341999999999997, 3.9351000000000003, 4.105700000000001, 4.1042, 3.8806000000000003, 3.9344999999999994, 3.9290000000000003, 3.9157, 3.9029, 3.9026, 3.9267, 3.9687000000000006, 3.9132000000000002, 3.8998, 3.9071000000000002, 3.9125, 3.9417000000000004, 3.878, 4.0428, 3.9325999999999994, 3.9122999999999997, 3.9335999999999998, 3.8756, 3.9084000000000003, 3.9196999999999997, 3.9652000000000003, 3.9457, 3.8366, 3.9512, 3.9068, 3.9166000000000003, 3.8973, 3.9528000000000003, 3.9944, 4.0559, 3.9269, 3.9027],
  "QPU": "7000000",
  "Qubits": 13,
  "Queue durations [ms]": [0.0, 0.0, 0.0, 0.0, 0.0, 0.0, 0.0, 0.0, 0.0, 0.0, 0.0, 0.0, 0.0, 0.0, 0.0, 0.0, 0.0, 0.0, 0.0, 0.0, 0.0, 0.0, 0.0, 0.0, 0.0, 0.0, 0.0, 0.0, 0.0, 0.0, 0.0, 0.0, 0.0, 0.0, 0.0, 0.0, 0.0, 0.0, 0.0, 0.0, 0.0, 0.0, 0.0, 0.0, 0.0, 0.0, 0.0, 0.0, 0.0, 0.0, 0.0, 0.0, 0.0, 0.0, 0.0, 0.0, 0.0, 0.0, 0.0, 0.0, 0.0, 0.0, 0.0, 0.0, 0.0, 0.0, 0.0, 0.0, 0.0, 0.0, 0.0, 0.0, 0.0, 0.0, 0.0, 0.0, 0.0, 0.0, 0.0, 0.0, 0.0, 0.0, 0.0, 0.0, 0.0, 0.0, 0.0],
  "Shots": 4096,
  "Size": 8,
  "Total Algorithm duration [s]": 3.518,
  "Total Classic duration [s]": 3.1758651999999996,
  "Total Quantum duration [s]": 0.34213479999999996
}
