{
  "Circuit execution durations [ms]": [30.440092086791992, 30.821561813354492, 30.431747436523438, 30.262470245361328, 30.544519424438477, 30.401229858398438, 31.533479690551758, 30.322790145874023, 30.376195907592773, 30.422687530517578, 30.237436294555664, 30.039310455322266, 30.894041061401367, 30.376672744750977, 31.704187393188477, 30.267953872680664, 30.338525772094727, 30.37118911743164, 30.517578125, 31.497716903686523, 30.21860122680664, 30.378103256225586, 30.064821243286133, 30.8685302734375, 30.438661575317383, 30.375003814697266, 30.539274215698242, 30.64441680908203, 30.466794967651367, 30.460834503173828, 31.43453598022461, 30.477285385131836, 30.484676361083984, 31.54730796813965, 30.667781829833984, 30.3347110748291, 31.21662139892578, 30.492782592773438, 30.482769012451172, 30.297517776489258, 30.345439910888672, 30.24601936340332, 30.26556968688965, 30.45368194580078, 30.509471893310547, 30.191421508789063, 30.32231330871582, 30.37881851196289, 30.404090881347656, 30.44915199279785, 30.369997024536133, 31.343936920166016, 30.4567813873291, 30.438899993896484, 30.472755432128906, 31.099557876586914, 30.342817306518555, 30.57408332824707, 30.487537384033203, 30.57694435119629, 30.559539794921875, 30.602216720581055, 31.67414665222168, 30.451059341430664, 30.2886962890625, 30.40623664855957, 30.366182327270508, 30.466556549072266, 30.521631240844727, 30.497312545776367, 30.39240837097168, 30.960559844970703, 30.41815757751465, 30.427217483520508, 30.301332473754883, 30.484914779663086, 30.36355972290039, 30.388832092285156, 31.542062759399414, 30.361175537109375],
  "Depth": 572.0,
  "Expectation Value": -2.722412109375,
  "Optimal Expectation Value": -3.0,
  "Optimizer durations [ms]": [467.644, 468.623, 387.197, 469.369, 468.762, 385.444, 472.227, 468.896, 384.723, 471.894, 468.485, 384.727, 471.73, 468.603, 384.937, 471.497, 385.257, 466.093, 470.504, 386.247, 468.087, 468.944, 383.525, 472.554, 385.127, 465.338, 467.328, 384.981, 470.222, 468.949, 384.924, 471.886, 389.109, 471.279, 467.764, 388.964, 473.755, 468.629, 387.402, 474.096, 385.54, 470.599, 470.213, 385.988, 472.516, 473.773, 388.131, 476.456, 385.866, 467.077, 466.488, 385.945, 470.256, 469.654, 386.785, 472.481, 384.897, 467.426, 466.627, 385.545, 469.73, 469.153, 386.438, 471.596, 386.462, 466.236, 468.365, 384.453, 469.473, 468.847, 385.266, 472.396, 385.315, 466.538, 468.273, 385.743, 469.424, 468.785, 385.63, 471.849],
  "Optimizer iterations": 80,
  "Optimizer params": [0.253188213381937, 0.9476106532586236, 0.9309207005386284, 0.3029058276745913, 0.5999963566241333, 0.8907108241386591],
  "P": 3,
  "Problem": "MIS",
  "QJob durations [ms]": [258.55135917663574, 343.1205749511719, 259.84668731689453, 258.7590217590332, 343.26982498168945, 259.6437931060791, 260.0972652435303, 342.693567276001, 258.93616676330566, 258.8191032409668, 343.0006504058838, 259.0789794921875, 259.43660736083984, 342.6952362060547, 259.9754333496094, 259.1085433959961, 259.2756748199463, 259.56225395202637, 258.62741470336914, 260.3776454925537, 259.0768337249756, 343.2135581970215, 257.9991817474365, 260.10704040527344, 259.3343257904053, 258.37111473083496, 341.947078704834, 259.3569755554199, 259.92703437805176, 343.6617851257324, 259.354829788208, 258.67247581481934, 261.0468864440918, 262.91394233703613, 342.1740531921387, 262.38131523132324, 262.75110244750977, 343.1077003479004, 260.545015335083, 260.2362632751465, 259.3715190887451, 261.51561737060547, 343.9514636993408, 259.7527503967285, 261.80124282836914, 346.6980457305908, 261.4874839782715, 262.5720500946045, 258.92138481140137, 259.20796394348145, 340.468168258667, 259.96994972229004, 259.9318027496338, 343.14894676208496, 260.8029842376709, 259.22560691833496, 259.31477546691895, 258.93330574035645, 340.7917022705078, 259.86218452453613, 259.3233585357666, 343.1684970855713, 260.56408882141113, 259.1068744659424, 259.43732261657715, 259.0444087982178, 342.56744384765625, 258.84509086608887, 259.53030586242676, 343.428373336792, 259.4461441040039, 259.3722343444824, 259.39297676086426, 259.28378105163574, 341.3586616516113, 259.9196434020996, 259.37366485595703, 342.79513359069824, 260.0367069244385, 258.97741317749023],
  "QPU": "3010008",
  "Qubits": 13,
  "Queue durations [ms]": [0.0, 0.0, 0.0, 0.0, 0.0, 0.0, 0.0, 0.0, 0.0, 0.0, 0.0, 0.0, 0.0, 0.0, 0.0, 0.0, 0.0, 0.0, 0.0, 0.0, 0.0, 0.0, 0.0, 0.0, 0.0, 0.0, 0.0, 0.0, 0.0, 0.0, 0.0, 0.0, 0.0, 0.0, 0.0, 0.0, 0.0, 0.0, 0.0, 0.0, 0.0, 0.0, 0.0, 0.0, 0.0, 0.0, 0.0, 0.0, 0.0, 0.0, 0.0, 0.0, 0.0, 0.0, 0.0, 0.0, 0.0, 0.0, 0.0, 0.0, 0.0, 0.0, 0.0, 0.0, 0.0, 0.0, 0.0, 0.0, 0.0, 0.0, 0.0, 0.0, 0.0, 0.0, 0.0, 0.0, 0.0, 0.0, 0.0, 0.0],
  "Shots": 4096,
  "Size": 10,
  "Total Algorithm duration [s]": 35.148,
  "Total Classic duration [s]": 12.704244611740116,
  "Total Quantum duration [s]": 22.443755388259888
}
