{
  "Circuit execution durations [ms]": [11.823654174804688, 10.689973831176758, 10.750293731689453, 10.74981689453125, 10.602474212646484, 10.85662841796875, 10.712862014770508, 10.57291030883789, 10.819673538208008, 10.650873184204102, 10.906696319580078, 10.617256164550781, 10.709762573242188, 10.692834854125977, 74.93257522583008, 10.764837265014648, 10.890960693359375, 10.563373565673828, 10.795354843139648, 10.503530502319336, 10.80632209777832, 10.69784164428711, 10.651111602783203, 10.59269905090332, 10.758638381958008, 10.490179061889648, 10.83517074584961, 10.40792465209961, 10.805368423461914, 10.500669479370117, 10.731935501098633, 10.48731803894043, 11.295080184936523, 10.51473617553711, 10.610580444335938, 10.636568069458008, 10.809898376464844, 10.659933090209961, 10.849714279174805, 10.454177856445313, 10.823965072631836, 72.05557823181152, 10.791540145874023, 10.684728622436523, 10.397195816040039, 10.718584060668945, 10.668277740478516, 10.549783706665039, 10.640621185302734, 10.59579849243164, 10.701894760131836, 10.651826858520508, 10.883808135986328, 10.447978973388672, 10.518312454223633, 10.613679885864258, 10.655641555786133, 10.58053970336914, 10.547161102294922, 10.40196418762207, 10.517597198486328, 10.565757751464844, 10.839700698852539, 10.488033294677734, 10.674238204956055, 10.382652282714844, 10.718107223510742, 11.344671249389648, 10.618448257446289, 10.667800903320313, 10.752677917480469, 10.790824890136719, 10.466337203979492, 10.566234588623047, 10.550498962402344, 10.455608367919922, 10.781526565551758, 10.631322860717773, 10.666847229003906, 10.581493377685547, 10.739803314208984, 10.626792907714844, 10.636091232299805, 10.506391525268555, 10.48898696899414, 10.549783706665039, 10.642528533935547, 10.749340057373047, 10.802745819091797, 10.611772537231445, 10.709285736083984, 10.627031326293945, 10.58340072631836, 10.617733001708984, 10.82468032836914, 10.706186294555664],
  "Depth": 14.0,
  "Expectation Value": -0.99853515625,
  "Optimal Expectation Value": -1.0,
  "Optimizer durations [ms]": [13.259, 12.035, 12.033, 12.04, 11.826, 12.102, 11.972, 11.871, 12.145, 11.907, 12.208, 11.839, 11.917, 11.913, 76.273, 12.085, 12.243, 11.81, 12.247, 11.887, 12.047, 11.93, 12.045, 11.851, 12.014, 11.898, 12.12, 11.668, 12.139, 11.791, 11.975, 11.81, 12.636, 11.815, 11.918, 11.93, 12.111, 11.963, 12.085, 11.74, 12.061, 73.476, 12.299, 12.001, 11.682, 12.122, 12.032, 11.791, 11.9, 11.986, 11.971, 11.969, 12.227, 11.694, 11.817, 11.854, 12.02, 11.905, 11.916, 11.772, 11.752, 11.964, 12.144, 11.891, 11.972, 11.661, 12.045, 12.591, 12.011, 12.005, 12.156, 12.033, 11.816, 11.907, 11.82, 11.73, 12.032, 11.943, 11.938, 11.9, 12.024, 11.979, 11.924, 11.86, 11.85, 11.799, 11.88, 12.045, 12.094, 11.904, 12.003, 12.021, 11.807, 11.87, 12.197, 12.113],
  "Optimizer iterations": 96,
  "Optimizer params": [0.3015661423196646, 0.8873916085156432, 0.05779459685160185, 0.606932157365329, 0.7908530801077608, 0.8982924543265246],
  "P": 3,
  "Problem": "MCP",
  "QJob durations [ms]": [11.823654174804688, 10.689973831176758, 10.750293731689453, 10.74981689453125, 10.602474212646484, 10.85662841796875, 10.712862014770508, 10.57291030883789, 10.819673538208008, 10.650873184204102, 10.906696319580078, 10.617256164550781, 10.709762573242188, 10.692834854125977, 74.93257522583008, 10.764837265014648, 10.890960693359375, 10.563373565673828, 10.795354843139648, 10.503530502319336, 10.80632209777832, 10.69784164428711, 10.651111602783203, 10.59269905090332, 10.758638381958008, 10.490179061889648, 10.83517074584961, 10.40792465209961, 10.805368423461914, 10.500669479370117, 10.731935501098633, 10.48731803894043, 11.295080184936523, 10.51473617553711, 10.610580444335938, 10.636568069458008, 10.809898376464844, 10.659933090209961, 10.849714279174805, 10.454177856445313, 10.823965072631836, 72.05557823181152, 10.791540145874023, 10.684728622436523, 10.397195816040039, 10.718584060668945, 10.668277740478516, 10.549783706665039, 10.640621185302734, 10.59579849243164, 10.701894760131836, 10.651826858520508, 10.883808135986328, 10.447978973388672, 10.518312454223633, 10.613679885864258, 10.655641555786133, 10.58053970336914, 10.547161102294922, 10.40196418762207, 10.517597198486328, 10.565757751464844, 10.839700698852539, 10.488033294677734, 10.674238204956055, 10.382652282714844, 10.718107223510742, 11.344671249389648, 10.618448257446289, 10.667800903320313, 10.752677917480469, 10.790824890136719, 10.466337203979492, 10.566234588623047, 10.550498962402344, 10.455608367919922, 10.781526565551758, 10.631322860717773, 10.666847229003906, 10.581493377685547, 10.739803314208984, 10.626792907714844, 10.636091232299805, 10.506391525268555, 10.48898696899414, 10.549783706665039, 10.642528533935547, 10.749340057373047, 10.802745819091797, 10.611772537231445, 10.709285736083984, 10.627031326293945, 10.58340072631836, 10.617733001708984, 10.82468032836914, 10.706186294555664],
  "QPU": "9000001",
  "Qubits": 2,
  "Queue durations [ms]": [0.0, 0.0, 0.0, 0.0, 0.0, 0.0, 0.0, 0.0, 0.0, 0.0, 0.0, 0.0, 0.0, 0.0, 0.0, 0.0, 0.0, 0.0, 0.0, 0.0, 0.0, 0.0, 0.0, 0.0, 0.0, 0.0, 0.0, 0.0, 0.0, 0.0, 0.0, 0.0, 0.0, 0.0, 0.0, 0.0, 0.0, 0.0, 0.0, 0.0, 0.0, 0.0, 0.0, 0.0, 0.0, 0.0, 0.0, 0.0, 0.0, 0.0, 0.0, 0.0, 0.0, 0.0, 0.0, 0.0, 0.0, 0.0, 0.0, 0.0, 0.0, 0.0, 0.0, 0.0, 0.0, 0.0, 0.0, 0.0, 0.0, 0.0, 0.0, 0.0, 0.0, 0.0, 0.0, 0.0, 0.0, 0.0, 0.0, 0.0, 0.0, 0.0, 0.0, 0.0, 0.0, 0.0, 0.0, 0.0, 0.0, 0.0, 0.0, 0.0, 0.0, 0.0, 0.0, 0.0],
  "Shots": 4096,
  "Size": 2,
  "Total Algorithm duration [s]": 1.276,
  "Total Classic duration [s]": 0.12538597679138186,
  "Total Quantum duration [s]": 1.1506140232086182
}
