{
  "Circuit execution durations [ms]": [64486.70792579651, 64535.89057922363, 65321.00582122803, 63627.92682647705, 63696.1350440979, 64935.664892196655, 64780.067682266235, 63866.909980773926, 63105.62229156494, 64117.680072784424, 63355.180740356445, 64108.880281448364, 63397.85814285278, 63248.4130859375, 63419.41809654236, 65221.7812538147, 63593.32036972046, 63524.184703826904, 63499.634981155396, 63307.464599609375, 63972.232818603516, 63196.33436203003, 63260.35976409912, 63438.660860061646, 63203.028202056885, 63626.02734565735, 64227.61249542236, 63459.253787994385, 63617.533683776855, 63702.62622833252, 65352.17046737671, 64188.21406364441, 63308.76398086548, 62982.410192489624, 63818.58038902283, 64061.522245407104, 65879.29821014404, 64216.18556976318, 65269.29306983948, 63981.4932346344, 63754.75335121155, 64285.6240272522, 63661.13018989563, 63130.27906417847, 64049.309730529785, 63621.43063545227, 63588.77491950989, 63680.78255653381, 64527.992248535156, 63801.78666114807, 65216.99643135071, 64007.69662857056, 65942.32630729675, 63688.17210197449, 64034.199476242065, 63894.874572753906, 64775.32434463501, 63325.92177391052, 64695.556640625, 63639.73641395569, 63201.59935951233, 63597.08046913147, 63343.34588050842, 63328.78088951111, 63460.187911987305, 63155.44080734253, 63993.97873878479, 63414.204120635986, 64258.26549530029, 64152.79412269592, 63943.42613220215, 63401.66664123535, 63769.72770690918, 63033.8077545166, 63177.02341079712, 63564.722776412964, 63761.64412498474, 63591.21656417847, 63486.00363731384, 63854.37321662903, 63163.742780685425, 63924.367904663086, 63409.91020202637],
  "Depth": 221.0,
  "Expectation Value": -15.39208984375,
  "Optimal Expectation Value": -18.0,
  "Optimizer durations [ms]": [68521.441, 69040.77, 69912.848, 67744.503, 67711.834, 69279.687, 68956.413, 68338.22, 67217.969, 68561.382, 67370.725, 68178.002, 67491.615, 67640.442, 67548.074, 69211.114, 67886.912, 67727.867, 67626.929, 67362.124, 68146.619, 67484.654, 67350.527, 67663.642, 67233.721, 68004.966, 68444.251, 67832.459, 67652.231, 67851.876, 69561.256, 68337.55, 67611.705, 67019.977, 67739.911, 68128.583, 69987.707, 68726.777, 69749.144, 68050.243, 68219.696, 68282.953, 67782.022, 67200.212, 68071.449, 67847.725, 67736.763, 67781.007, 68684.629, 67890.654, 69278.648, 68225.241, 70037.246, 67829.875, 68259.957, 67901.529, 68864.387, 67698.92, 68699.791, 67810.297, 67255.264, 67843.38, 67426.756, 67387.6, 67475.749, 67441.388, 68140.114, 67650.417, 68490.339, 68449.095, 67983.077, 67691.528, 67837.165, 67007.853, 67249.2, 67764.522, 67972.997, 67679.067, 67424.317, 67889.061, 67289.762, 67951.907, 67348.232],
  "Optimizer iterations": 83,
  "Optimizer params": [0.5752763400465359, 0.9412920597237179, 0.9812091193977702, 0.7085222069214988, 0.4619897706213082, 0.9334009607589985],
  "P": 3,
  "Problem": "MCP",
  "QJob durations [ms]": [68462.90826797485, 69014.22715187073, 69881.37149810791, 67718.77384185791, 67688.4822845459, 69252.04372406006, 68916.20469093323, 68311.72680854797, 67190.2973651886, 68534.90042686462, 67341.92419052124, 68147.38321304321, 67468.16182136536, 67614.44783210754, 67509.348154068, 69181.95033073425, 67862.60986328125, 67704.0286064148, 67603.26600074768, 67337.09287643433, 68114.30191993713, 67452.27026939392, 67320.99342346191, 67636.28554344177, 67208.92906188965, 67979.60257530212, 68418.69068145752, 67798.01225662231, 67625.57673454285, 67826.1353969574, 69533.16187858582, 68310.35852432251, 67586.48324012756, 66993.02649497986, 67715.63363075256, 68096.66681289673, 69894.18029785156, 68702.28743553162, 69724.75361824036, 68024.11222457886, 68195.69659233093, 68180.82094192505, 67740.9360408783, 67172.23620414734, 68047.36685752869, 67820.27840614319, 67653.33652496338, 67755.93733787537, 68650.60377120972, 67866.07241630554, 69254.44507598877, 68200.08087158203, 70007.404088974, 67801.9208908081, 68228.3878326416, 67876.23286247253, 68835.61968803406, 67660.46595573425, 68671.52214050293, 67778.40495109558, 67225.04544258118, 67818.24994087219, 67399.09863471985, 67363.87062072754, 67449.23114776611, 67414.75105285645, 68108.43658447266, 67623.15511703491, 68465.17705917358, 68407.10639953613, 67957.54599571228, 67664.0191078186, 67803.3709526062, 66982.26833343506, 67225.18706321716, 67736.40513420105, 67947.83186912537, 67655.73644638062, 67399.92475509644, 67854.66384887695, 67262.47262954712, 67926.10359191895, 67322.33715057373],
  "QPU": "6010030",
  "Qubits": 12,
  "Shots": 4096,
  "Size": 12,
  "Total Algorithm duration [s]": 5646.658,
  "Total Classic duration [s]": 2.54563070106542,
  "Total Quantum duration [s]": 5644.112369298935
}
