{
  "Circuit execution durations [ms]": [2.1499, 2.1464000000000003, 2.2512, 2.3430999999999997, 2.1595999999999997, 2.1251, 2.1468, 2.1388000000000003, 2.1258000000000004, 2.1337, 2.1411, 2.1555, 2.1281, 2.146, 2.1519999999999997, 2.1999, 2.3989, 2.1399, 2.2275, 2.1247000000000003, 2.1389, 2.1494999999999997, 2.1556, 2.1465, 2.1532, 2.153, 2.1513, 2.1519999999999997, 2.1219, 2.1391, 2.1622999999999997, 2.1378999999999997, 2.1503, 2.1351999999999998, 2.1375, 2.1565, 2.1741, 2.1678, 2.1388000000000003, 2.1227, 2.1377, 2.129, 2.2195, 2.1285000000000003, 2.1614999999999998, 2.1153, 2.1294999999999997, 2.2532, 2.3314999999999997, 2.1556, 2.1592000000000002, 2.1756, 2.1299, 2.1346999999999996, 2.1519, 2.1294, 2.163, 2.1461, 2.1488, 2.1447, 2.1465, 2.4022, 2.15, 2.2411000000000003, 2.1422, 2.1622, 2.1292, 2.1407000000000003, 2.1787, 2.1976, 2.1572, 2.2534, 2.1786000000000003, 2.1391999999999998, 2.1551, 2.1644, 2.1532, 2.1437, 2.1148, 2.1571, 2.1344, 2.1386, 2.1368, 2.1092, 2.1487, 2.1468, 2.1797, 2.176, 2.1353, 2.1369000000000002, 2.1441, 2.1370999999999998, 2.1607000000000003, 2.2122, 2.1382, 2.1405, 2.2079999999999997, 2.1625, 2.1543, 2.1779, 2.1736, 2.1376, 2.1696, 2.2071, 2.2792, 2.4002, 2.1723, 2.157, 2.1622999999999997, 2.1551, 2.1454999999999997, 2.1289],
  "Depth": 344.0,
  "Expectation Value": -1.7582497596740723,
  "Optimal Expectation Value": -2.0,
  "Optimizer durations [ms]": [21.947, 22.12, 32.456, 26.419, 22.0, 21.894, 21.983, 21.801, 21.779, 22.008, 21.935, 21.959, 21.782, 21.849, 22.294, 22.402, 24.539, 21.946, 22.497, 22.035, 21.788, 22.016, 22.101, 22.201, 22.034, 22.095, 22.115, 21.767, 21.887, 21.892, 22.227, 21.874, 22.043, 21.849, 21.762, 22.228, 21.99, 22.431, 21.957, 21.827, 21.704, 21.906, 22.539, 21.86, 22.433, 21.428, 22.116, 32.468, 26.161, 22.323, 22.084, 22.324, 21.583, 22.003, 21.925, 21.963, 21.951, 22.013, 22.027, 21.693, 22.109, 24.467, 22.354, 22.745, 22.169, 22.058, 21.535, 22.046, 22.528, 22.66, 21.888, 23.261, 22.195, 21.994, 21.938, 22.251, 22.026, 21.769, 21.823, 22.097, 21.888, 21.919, 21.763, 21.792, 22.2, 22.102, 22.263, 21.995, 22.203, 21.569, 22.044, 22.216, 22.678, 22.489, 21.915, 21.969, 25.762, 22.06, 24.266, 22.476, 22.252, 26.561, 22.361, 22.683, 32.958, 25.489, 22.145, 22.281, 22.105, 22.045, 22.012, 21.831],
  "Optimizer iterations": 112,
  "Optimizer params": [1.0, 0.571803197874495, 0.2269122477609417, 1.0, 0.3591853804965707, 0.9999999999999999],
  "P": 3,
  "Problem": "MIS",
  "QJob durations [ms]": [2.1499, 2.1464000000000003, 2.2512, 2.3430999999999997, 2.1595999999999997, 2.1251, 2.1468, 2.1388000000000003, 2.1258000000000004, 2.1337, 2.1411, 2.1555, 2.1281, 2.146, 2.1519999999999997, 2.1999, 2.3989, 2.1399, 2.2275, 2.1247000000000003, 2.1389, 2.1494999999999997, 2.1556, 2.1465, 2.1532, 2.153, 2.1513, 2.1519999999999997, 2.1219, 2.1391, 2.1622999999999997, 2.1378999999999997, 2.1503, 2.1351999999999998, 2.1375, 2.1565, 2.1741, 2.1678, 2.1388000000000003, 2.1227, 2.1377, 2.129, 2.2195, 2.1285000000000003, 2.1614999999999998, 2.1153, 2.1294999999999997, 2.2532, 2.3314999999999997, 2.1556, 2.1592000000000002, 2.1756, 2.1299, 2.1346999999999996, 2.1519, 2.1294, 2.163, 2.1461, 2.1488, 2.1447, 2.1465, 2.4022, 2.15, 2.2411000000000003, 2.1422, 2.1622, 2.1292, 2.1407000000000003, 2.1787, 2.1976, 2.1572, 2.2534, 2.1786000000000003, 2.1391999999999998, 2.1551, 2.1644, 2.1532, 2.1437, 2.1148, 2.1571, 2.1344, 2.1386, 2.1368, 2.1092, 2.1487, 2.1468, 2.1797, 2.176, 2.1353, 2.1369000000000002, 2.1441, 2.1370999999999998, 2.1607000000000003, 2.2122, 2.1382, 2.1405, 2.2079999999999997, 2.1625, 2.1543, 2.1779, 2.1736, 2.1376, 2.1696, 2.2071, 2.2792, 2.4002, 2.1723, 2.157, 2.1622999999999997, 2.1551, 2.1454999999999997, 2.1289],
  "QPU": "7000000",
  "Qubits": 9,
  "Queue durations [ms]": [0.0, 0.0, 0.0, 0.0, 0.0, 0.0, 0.0, 0.0, 0.0, 0.0, 0.0, 0.0, 0.0, 0.0, 0.0, 0.0, 0.0, 0.0, 0.0, 0.0, 0.0, 0.0, 0.0, 0.0, 0.0, 0.0, 0.0, 0.0, 0.0, 0.0, 0.0, 0.0, 0.0, 0.0, 0.0, 0.0, 0.0, 0.0, 0.0, 0.0, 0.0, 0.0, 0.0, 0.0, 0.0, 0.0, 0.0, 0.0, 0.0, 0.0, 0.0, 0.0, 0.0, 0.0, 0.0, 0.0, 0.0, 0.0, 0.0, 0.0, 0.0, 0.0, 0.0, 0.0, 0.0, 0.0, 0.0, 0.0, 0.0, 0.0, 0.0, 0.0, 0.0, 0.0, 0.0, 0.0, 0.0, 0.0, 0.0, 0.0, 0.0, 0.0, 0.0, 0.0, 0.0, 0.0, 0.0, 0.0, 0.0, 0.0, 0.0, 0.0, 0.0, 0.0, 0.0, 0.0, 0.0, 0.0, 0.0, 0.0, 0.0, 0.0, 0.0, 0.0, 0.0, 0.0, 0.0, 0.0, 0.0, 0.0, 0.0, 0.0],
  "Shots": 4096,
  "Size": 6,
  "Total Algorithm duration [s]": 2.53,
  "Total Classic duration [s]": 2.2874038999999997,
  "Total Quantum duration [s]": 0.24259609999999993
}
