{
  "Circuit execution durations [ms]": [2.1324, 2.1210999999999998, 2.1165, 2.1710000000000003, 2.1451000000000002, 2.1719999999999997, 2.1365999999999996, 2.1279, 2.1338, 2.1644, 2.17, 2.1466, 2.1519, 2.1609, 2.1513999999999998, 2.3438, 2.2292, 2.14, 2.1425, 2.1981, 2.1571, 2.1485, 2.1470000000000002, 2.1576999999999997, 2.1895000000000002, 2.1527, 2.1266000000000003, 2.1336, 2.1713, 2.1384, 2.1538, 2.1382, 2.1860999999999997, 2.1751, 2.1667, 2.1393, 2.1809, 2.1252, 2.1754000000000002, 2.1535, 2.1199, 2.1638, 2.1494999999999997, 2.1453, 2.1599000000000004, 2.1580000000000004, 1.9317, 2.2843999999999998, 2.1602, 2.1552, 2.1559, 2.1660999999999997, 2.1458, 2.1498, 2.1396, 2.1195, 2.1309, 2.1748000000000003, 2.1034, 2.1383, 2.1378, 2.2747, 2.1766, 2.1286, 2.1121999999999996, 2.1332999999999998, 2.3602, 2.1497, 2.1462, 2.0766999999999998, 2.1649, 2.2659, 2.346, 2.467, 2.1481, 2.1446, 2.1808, 2.1429, 2.1391999999999998, 2.1727, 2.1536, 2.1708000000000003, 2.1313999999999997, 2.1385, 2.1633, 2.1473999999999998, 2.1822, 2.139, 2.1456, 2.1267, 2.1814, 2.1557999999999997, 2.1605000000000003, 2.1464000000000003, 2.1565999999999996, 2.1509, 2.1638, 2.1408, 2.1472, 2.1447, 2.1711, 2.1454, 2.1483000000000003, 2.1461, 2.3313, 2.1984, 2.1203, 2.1635, 2.1687999999999996, 2.1670000000000003, 2.1434],
  "Depth": 344.0,
  "Expectation Value": -1.7603912353515625,
  "Optimal Expectation Value": -2.0,
  "Optimizer durations [ms]": [22.009, 21.394, 21.681, 22.311, 22.112, 22.344, 21.654, 22.061, 21.846, 22.075, 22.212, 21.932, 21.886, 22.129, 22.019, 23.671, 32.471, 21.914, 21.809, 22.514, 21.955, 22.169, 21.88, 22.261, 22.474, 21.811, 21.964, 22.049, 21.945, 22.081, 22.091, 21.951, 22.09, 22.275, 22.211, 21.644, 22.212, 21.989, 22.323, 21.901, 21.954, 22.082, 21.807, 21.859, 22.249, 26.845, 24.436, 30.138, 22.153, 22.037, 21.898, 22.154, 21.841, 22.149, 21.982, 21.4, 22.074, 21.937, 21.754, 22.06, 21.923, 23.322, 22.17, 21.681, 23.887, 21.607, 25.171, 22.003, 21.89, 30.946, 22.465, 23.092, 28.852, 26.464, 22.16, 21.779, 22.486, 21.744, 21.89, 22.514, 21.838, 22.196, 21.991, 22.047, 22.233, 21.685, 22.455, 21.63, 22.194, 21.982, 22.283, 22.125, 22.503, 22.034, 21.932, 22.265, 22.104, 21.909, 21.897, 21.91, 22.332, 22.152, 21.921, 21.743, 23.886, 32.224, 21.54, 21.974, 22.258, 22.054, 22.103],
  "Optimizer iterations": 111,
  "Optimizer params": [0.9998857400671063, 0.28847771014584545, 0.16371503529376039, 0.0024713441374906247, 0.42929601274123846, 0.000794503247290973],
  "P": 3,
  "Problem": "MIS",
  "QJob durations [ms]": [2.1324, 2.1210999999999998, 2.1165, 2.1710000000000003, 2.1451000000000002, 2.1719999999999997, 2.1365999999999996, 2.1279, 2.1338, 2.1644, 2.17, 2.1466, 2.1519, 2.1609, 2.1513999999999998, 2.3438, 2.2292, 2.14, 2.1425, 2.1981, 2.1571, 2.1485, 2.1470000000000002, 2.1576999999999997, 2.1895000000000002, 2.1527, 2.1266000000000003, 2.1336, 2.1713, 2.1384, 2.1538, 2.1382, 2.1860999999999997, 2.1751, 2.1667, 2.1393, 2.1809, 2.1252, 2.1754000000000002, 2.1535, 2.1199, 2.1638, 2.1494999999999997, 2.1453, 2.1599000000000004, 2.1580000000000004, 1.9317, 2.2843999999999998, 2.1602, 2.1552, 2.1559, 2.1660999999999997, 2.1458, 2.1498, 2.1396, 2.1195, 2.1309, 2.1748000000000003, 2.1034, 2.1383, 2.1378, 2.2747, 2.1766, 2.1286, 2.1121999999999996, 2.1332999999999998, 2.3602, 2.1497, 2.1462, 2.0766999999999998, 2.1649, 2.2659, 2.346, 2.467, 2.1481, 2.1446, 2.1808, 2.1429, 2.1391999999999998, 2.1727, 2.1536, 2.1708000000000003, 2.1313999999999997, 2.1385, 2.1633, 2.1473999999999998, 2.1822, 2.139, 2.1456, 2.1267, 2.1814, 2.1557999999999997, 2.1605000000000003, 2.1464000000000003, 2.1565999999999996, 2.1509, 2.1638, 2.1408, 2.1472, 2.1447, 2.1711, 2.1454, 2.1483000000000003, 2.1461, 2.3313, 2.1984, 2.1203, 2.1635, 2.1687999999999996, 2.1670000000000003, 2.1434],
  "QPU": "7000000",
  "Qubits": 9,
  "Queue durations [ms]": [0.0, 0.0, 0.0, 0.0, 0.0, 0.0, 0.0, 0.0, 0.0, 0.0, 0.0, 0.0, 0.0, 0.0, 0.0, 0.0, 0.0, 0.0, 0.0, 0.0, 0.0, 0.0, 0.0, 0.0, 0.0, 0.0, 0.0, 0.0, 0.0, 0.0, 0.0, 0.0, 0.0, 0.0, 0.0, 0.0, 0.0, 0.0, 0.0, 0.0, 0.0, 0.0, 0.0, 0.0, 0.0, 0.0, 0.0, 0.0, 0.0, 0.0, 0.0, 0.0, 0.0, 0.0, 0.0, 0.0, 0.0, 0.0, 0.0, 0.0, 0.0, 0.0, 0.0, 0.0, 0.0, 0.0, 0.0, 0.0, 0.0, 0.0, 0.0, 0.0, 0.0, 0.0, 0.0, 0.0, 0.0, 0.0, 0.0, 0.0, 0.0, 0.0, 0.0, 0.0, 0.0, 0.0, 0.0, 0.0, 0.0, 0.0, 0.0, 0.0, 0.0, 0.0, 0.0, 0.0, 0.0, 0.0, 0.0, 0.0, 0.0, 0.0, 0.0, 0.0, 0.0, 0.0, 0.0, 0.0, 0.0, 0.0, 0.0],
  "Shots": 4096,
  "Size": 6,
  "Total Algorithm duration [s]": 2.511,
  "Total Classic duration [s]": 2.2709579,
  "Total Quantum duration [s]": 0.2400421
}
