{
  "Circuit execution durations [ms]": [2.1626000000000003, 2.1737, 2.1686, 2.164, 2.1441, 2.1643, 2.1432, 2.1372, 2.1506, 2.1322, 2.1377, 2.1306, 2.1648, 2.1397999999999997, 2.1510000000000002, 2.154, 2.1641999999999997, 2.16, 2.1497, 2.2056, 2.1658, 2.2252, 2.1235999999999997, 2.16, 2.1619, 2.1296, 2.1576, 2.1402, 2.1635999999999997, 2.137, 2.1237, 2.1835, 2.1757999999999997, 2.1483000000000003, 2.1403, 2.1419, 2.12, 2.1426000000000003, 2.1384, 2.1256999999999997, 2.1475, 2.1551, 2.1675, 2.2354, 2.1113, 2.1475, 2.1583, 2.1672000000000002, 2.0749, 2.1704, 2.1572, 2.1814, 2.163, 2.1696, 2.2747, 2.2, 2.1731, 2.142, 2.1553, 2.1832000000000003, 2.1735, 2.1727, 2.1664000000000003, 2.1405, 2.1462999999999997, 2.1507, 2.1327, 2.1508, 2.1309, 2.1649, 2.1769, 2.1213, 2.1407000000000003, 2.1755, 2.2041, 2.1196, 2.1509, 2.1618000000000004, 2.1668, 2.1693, 2.1827, 2.1407000000000003, 2.1442, 2.1285000000000003, 2.1223, 2.1649, 2.2573, 2.2547, 2.2947, 2.1316, 2.1472, 2.1510000000000002, 2.149, 2.1499, 2.1339, 2.1341, 2.1452, 2.17, 2.1355, 2.141, 2.1316, 2.2091, 2.2377, 2.1281999999999996, 2.1906999999999996, 2.1348000000000003, 2.1619, 2.1513, 2.1704, 2.1511],
  "Depth": 344.0,
  "Expectation Value": -1.781960368156433,
  "Optimal Expectation Value": -2.0,
  "Optimizer durations [ms]": [21.98, 22.681, 21.991, 22.147, 22.078, 22.287, 21.933, 21.79, 22.042, 21.67, 21.836, 22.186, 21.841, 22.034, 22.166, 22.191, 22.077, 22.305, 22.076, 22.561, 22.019, 22.541, 21.864, 22.146, 22.141, 21.858, 22.093, 21.867, 22.175, 21.621, 21.815, 22.339, 22.459, 22.072, 22.011, 21.927, 21.7, 22.039, 21.927, 21.778, 21.939, 22.118, 22.288, 22.696, 26.905, 25.115, 22.085, 21.906, 30.744, 22.101, 22.211, 27.013, 22.303, 22.264, 23.066, 32.284, 22.199, 23.106, 22.091, 22.259, 22.168, 22.479, 22.042, 21.947, 22.092, 21.676, 22.078, 22.031, 21.902, 22.167, 21.956, 21.866, 22.128, 22.054, 22.646, 21.815, 22.052, 22.123, 22.135, 22.305, 22.23, 21.885, 22.029, 21.838, 21.733, 22.025, 22.991, 32.557, 23.429, 22.154, 21.944, 22.04, 21.844, 22.153, 21.713, 22.036, 21.625, 22.228, 21.707, 22.01, 22.162, 22.62, 22.892, 21.769, 22.338, 21.79, 22.288, 21.82, 22.329, 21.927],
  "Optimizer iterations": 110,
  "Optimizer params": [0.18292739433641467, 0.8605262030158338, 1.0, 0.996516706833826, 0.3608911017097172, 1.0],
  "P": 3,
  "Problem": "MIS",
  "QJob durations [ms]": [2.1626000000000003, 2.1737, 2.1686, 2.164, 2.1441, 2.1643, 2.1432, 2.1372, 2.1506, 2.1322, 2.1377, 2.1306, 2.1648, 2.1397999999999997, 2.1510000000000002, 2.154, 2.1641999999999997, 2.16, 2.1497, 2.2056, 2.1658, 2.2252, 2.1235999999999997, 2.16, 2.1619, 2.1296, 2.1576, 2.1402, 2.1635999999999997, 2.137, 2.1237, 2.1835, 2.1757999999999997, 2.1483000000000003, 2.1403, 2.1419, 2.12, 2.1426000000000003, 2.1384, 2.1256999999999997, 2.1475, 2.1551, 2.1675, 2.2354, 2.1113, 2.1475, 2.1583, 2.1672000000000002, 2.0749, 2.1704, 2.1572, 2.1814, 2.163, 2.1696, 2.2747, 2.2, 2.1731, 2.142, 2.1553, 2.1832000000000003, 2.1735, 2.1727, 2.1664000000000003, 2.1405, 2.1462999999999997, 2.1507, 2.1327, 2.1508, 2.1309, 2.1649, 2.1769, 2.1213, 2.1407000000000003, 2.1755, 2.2041, 2.1196, 2.1509, 2.1618000000000004, 2.1668, 2.1693, 2.1827, 2.1407000000000003, 2.1442, 2.1285000000000003, 2.1223, 2.1649, 2.2573, 2.2547, 2.2947, 2.1316, 2.1472, 2.1510000000000002, 2.149, 2.1499, 2.1339, 2.1341, 2.1452, 2.17, 2.1355, 2.141, 2.1316, 2.2091, 2.2377, 2.1281999999999996, 2.1906999999999996, 2.1348000000000003, 2.1619, 2.1513, 2.1704, 2.1511],
  "QPU": "7000000",
  "Qubits": 9,
  "Queue durations [ms]": [0.0, 0.0, 0.0, 0.0, 0.0, 0.0, 0.0, 0.0, 0.0, 0.0, 0.0, 0.0, 0.0, 0.0, 0.0, 0.0, 0.0, 0.0, 0.0, 0.0, 0.0, 0.0, 0.0, 0.0, 0.0, 0.0, 0.0, 0.0, 0.0, 0.0, 0.0, 0.0, 0.0, 0.0, 0.0, 0.0, 0.0, 0.0, 0.0, 0.0, 0.0, 0.0, 0.0, 0.0, 0.0, 0.0, 0.0, 0.0, 0.0, 0.0, 0.0, 0.0, 0.0, 0.0, 0.0, 0.0, 0.0, 0.0, 0.0, 0.0, 0.0, 0.0, 0.0, 0.0, 0.0, 0.0, 0.0, 0.0, 0.0, 0.0, 0.0, 0.0, 0.0, 0.0, 0.0, 0.0, 0.0, 0.0, 0.0, 0.0, 0.0, 0.0, 0.0, 0.0, 0.0, 0.0, 0.0, 0.0, 0.0, 0.0, 0.0, 0.0, 0.0, 0.0, 0.0, 0.0, 0.0, 0.0, 0.0, 0.0, 0.0, 0.0, 0.0, 0.0, 0.0, 0.0, 0.0, 0.0, 0.0, 0.0],
  "Shots": 4096,
  "Size": 6,
  "Total Algorithm duration [s]": 2.474,
  "Total Classic duration [s]": 2.2365013000000005,
  "Total Quantum duration [s]": 0.23749869999999995
}
