{
  "Circuit execution durations [ms]": [2.1512, 2.1952, 2.1738999999999997, 2.1368, 2.6549, 2.1473999999999998, 2.1416999999999997, 2.1548000000000003, 2.1223, 2.1116, 2.1134, 2.1605000000000003, 2.1332, 2.1528, 2.1492, 2.1166, 2.1519, 2.1439, 2.1886, 2.1686, 2.1294, 2.1350000000000002, 2.1275, 2.1326, 2.1452, 2.1467, 2.142, 2.1564, 2.15, 2.1681999999999997, 2.1788, 2.1523, 2.13, 2.1203, 2.1578, 2.1267, 2.1446, 2.1502000000000003, 2.1507, 2.1584, 2.1345, 2.1524, 2.1274, 2.1241, 2.1470000000000002, 2.1310000000000002, 2.1384, 2.1346999999999996, 2.1312, 2.1538, 2.1586000000000003, 2.1812, 2.1517, 2.1825, 2.1814999999999998, 2.153, 2.1254999999999997, 2.1748000000000003, 2.2004, 2.2512, 2.088, 2.4428, 2.1654999999999998, 2.1635999999999997, 2.1123000000000003, 2.1812, 2.1761, 2.12, 2.1342000000000003, 2.1153999999999997, 2.1313, 2.1693, 2.1342000000000003, 2.145, 2.1622, 2.1341, 2.1597, 2.1595, 2.1581, 2.1519, 2.1601, 2.2173000000000003, 2.1374, 2.1574, 2.1494, 2.1511, 2.1695, 2.1632000000000002, 2.1220000000000003, 2.1279, 2.1821, 2.1481999999999997, 2.161, 2.1803999999999997, 2.2636000000000003, 2.3379, 2.1828, 2.1664000000000003, 2.1174000000000004, 2.143, 2.1687, 2.1204, 2.1592000000000002, 2.1213, 2.1459, 2.1662, 2.1281, 2.1527, 2.2134, 2.1406, 2.1681, 2.1336, 2.126, 2.1102, 2.1113999999999997, 2.1376, 2.1397, 2.1443, 2.1452, 2.1368, 2.1511, 2.1408, 2.1386, 2.1752, 2.1415, 2.1679, 2.1478, 2.1406, 2.1717, 2.1338, 2.1512, 2.1773000000000002, 2.1278],
  "Depth": 344.0,
  "Expectation Value": -1.7354522943496704,
  "Optimal Expectation Value": -2.0,
  "Optimizer durations [ms]": [22.017, 22.605, 22.195, 22.053, 27.149, 30.952, 21.861, 22.123, 21.733, 21.521, 21.781, 22.059, 21.977, 21.805, 22.376, 21.719, 22.178, 21.846, 22.566, 21.982, 21.695, 21.97, 21.943, 21.705, 21.895, 22.261, 21.829, 21.967, 22.202, 21.886, 22.427, 22.113, 21.832, 21.53, 22.25, 21.787, 21.835, 22.08, 22.071, 21.83, 22.16, 21.773, 21.86, 22.028, 21.666, 21.933, 22.179, 21.676, 21.727, 21.997, 23.376, 25.218, 24.297, 22.243, 22.303, 27.049, 21.679, 22.071, 27.658, 22.917, 21.319, 25.214, 31.736, 21.842, 21.812, 22.553, 21.996, 21.873, 21.932, 21.651, 21.774, 22.307, 21.999, 21.877, 22.181, 21.768, 22.288, 22.148, 22.039, 22.104, 22.088, 22.565, 21.941, 22.156, 22.168, 21.957, 22.028, 22.311, 21.638, 21.843, 22.298, 22.099, 22.209, 21.994, 32.718, 23.983, 22.317, 21.992, 21.886, 21.885, 22.464, 21.586, 22.296, 21.851, 21.894, 21.899, 22.061, 22.123, 24.5, 21.84, 22.075, 21.943, 21.731, 21.86, 21.309, 21.964, 21.92, 22.027, 22.11, 21.899, 22.026, 21.897, 22.071, 21.964, 22.064, 22.124, 21.987, 21.854, 22.493, 21.815, 21.848, 22.471, 21.786],
  "Optimizer iterations": 133,
  "Optimizer params": [0.0021244971291715215, 0.8213823924604383, 0.3949296289312256, 0.953983909074189, 0.9999979588872268, 0.9998750413968037],
  "P": 3,
  "Problem": "MIS",
  "QJob durations [ms]": [2.1512, 2.1952, 2.1738999999999997, 2.1368, 2.6549, 2.1473999999999998, 2.1416999999999997, 2.1548000000000003, 2.1223, 2.1116, 2.1134, 2.1605000000000003, 2.1332, 2.1528, 2.1492, 2.1166, 2.1519, 2.1439, 2.1886, 2.1686, 2.1294, 2.1350000000000002, 2.1275, 2.1326, 2.1452, 2.1467, 2.142, 2.1564, 2.15, 2.1681999999999997, 2.1788, 2.1523, 2.13, 2.1203, 2.1578, 2.1267, 2.1446, 2.1502000000000003, 2.1507, 2.1584, 2.1345, 2.1524, 2.1274, 2.1241, 2.1470000000000002, 2.1310000000000002, 2.1384, 2.1346999999999996, 2.1312, 2.1538, 2.1586000000000003, 2.1812, 2.1517, 2.1825, 2.1814999999999998, 2.153, 2.1254999999999997, 2.1748000000000003, 2.2004, 2.2512, 2.088, 2.4428, 2.1654999999999998, 2.1635999999999997, 2.1123000000000003, 2.1812, 2.1761, 2.12, 2.1342000000000003, 2.1153999999999997, 2.1313, 2.1693, 2.1342000000000003, 2.145, 2.1622, 2.1341, 2.1597, 2.1595, 2.1581, 2.1519, 2.1601, 2.2173000000000003, 2.1374, 2.1574, 2.1494, 2.1511, 2.1695, 2.1632000000000002, 2.1220000000000003, 2.1279, 2.1821, 2.1481999999999997, 2.161, 2.1803999999999997, 2.2636000000000003, 2.3379, 2.1828, 2.1664000000000003, 2.1174000000000004, 2.143, 2.1687, 2.1204, 2.1592000000000002, 2.1213, 2.1459, 2.1662, 2.1281, 2.1527, 2.2134, 2.1406, 2.1681, 2.1336, 2.126, 2.1102, 2.1113999999999997, 2.1376, 2.1397, 2.1443, 2.1452, 2.1368, 2.1511, 2.1408, 2.1386, 2.1752, 2.1415, 2.1679, 2.1478, 2.1406, 2.1717, 2.1338, 2.1512, 2.1773000000000002, 2.1278],
  "QPU": "7000000",
  "Qubits": 9,
  "Queue durations [ms]": [0.0, 0.0, 0.0, 0.0, 0.0, 0.0, 0.0, 0.0, 0.0, 0.0, 0.0, 0.0, 0.0, 0.0, 0.0, 0.0, 0.0, 0.0, 0.0, 0.0, 0.0, 0.0, 0.0, 0.0, 0.0, 0.0, 0.0, 0.0, 0.0, 0.0, 0.0, 0.0, 0.0, 0.0, 0.0, 0.0, 0.0, 0.0, 0.0, 0.0, 0.0, 0.0, 0.0, 0.0, 0.0, 0.0, 0.0, 0.0, 0.0, 0.0, 0.0, 0.0, 0.0, 0.0, 0.0, 0.0, 0.0, 0.0, 0.0, 0.0, 0.0, 0.0, 0.0, 0.0, 0.0, 0.0, 0.0, 0.0, 0.0, 0.0, 0.0, 0.0, 0.0, 0.0, 0.0, 0.0, 0.0, 0.0, 0.0, 0.0, 0.0, 0.0, 0.0, 0.0, 0.0, 0.0, 0.0, 0.0, 0.0, 0.0, 0.0, 0.0, 0.0, 0.0, 0.0, 0.0, 0.0, 0.0, 0.0, 0.0, 0.0, 0.0, 0.0, 0.0, 0.0, 0.0, 0.0, 0.0, 0.0, 0.0, 0.0, 0.0, 0.0, 0.0, 0.0, 0.0, 0.0, 0.0, 0.0, 0.0, 0.0, 0.0, 0.0, 0.0, 0.0, 0.0, 0.0, 0.0, 0.0, 0.0, 0.0, 0.0, 0.0],
  "Shots": 4096,
  "Size": 6,
  "Total Algorithm duration [s]": 2.985,
  "Total Classic duration [s]": 2.6980166,
  "Total Quantum duration [s]": 0.2869834
}
