{
  "Circuit execution durations [ms]": [2.1854, 2.1098, 2.1467, 2.1402, 2.1769, 2.1527, 2.1619, 2.1957, 2.2672, 2.2135000000000002, 2.1545, 2.1691000000000003, 2.1331, 2.1416, 2.1808, 2.1454, 2.1321, 2.1491000000000002, 2.1350000000000002, 2.1327, 2.1344, 2.1894, 1.9095, 2.146, 2.1518, 2.1741, 2.1459, 2.1289, 2.1849, 2.1477000000000004, 2.1553, 2.1654999999999998, 2.1426000000000003, 2.1584, 2.1725, 2.1719, 2.1499, 2.1518, 2.1411, 2.1531, 2.1159, 2.1485, 2.1462999999999997, 2.1905, 2.1532, 2.1883, 2.133, 2.1338, 2.2095000000000002, 2.1467, 2.141, 2.1653000000000002, 2.1976999999999998, 2.3373999999999997, 2.369, 2.1437, 2.1557, 2.1595999999999997, 2.1454999999999997, 2.1401, 2.1877, 2.1451000000000002, 2.1508, 2.1279, 2.1556, 2.1597, 2.1695, 2.1935000000000002, 2.1812, 2.1938999999999997, 2.1243999999999996, 2.1672000000000002, 2.1543, 2.1884, 2.126, 2.2079, 2.1559, 2.2155, 2.1736, 2.1372, 2.1419, 2.1439, 2.1268, 2.1335, 2.1531, 2.1425, 2.1472, 2.1462, 2.1865, 2.1423, 2.1298, 2.1389, 2.1509, 2.1586000000000003, 2.1256999999999997, 2.1266000000000003, 2.1426000000000003, 2.1459, 2.1385, 2.185, 2.1521, 2.1429, 2.1287, 2.1654, 2.1666, 2.1635999999999997, 2.1509, 2.0537, 2.1245000000000003, 2.2474000000000003, 2.2481, 2.3836999999999997, 2.1488, 2.145, 2.1353, 2.1452, 2.1719, 2.1426000000000003, 2.1408, 2.159, 2.1203, 2.2056, 2.1725, 2.1401, 2.1556, 2.1497, 2.137, 2.1500999999999997, 2.2444, 2.1464000000000003, 2.1708000000000003, 2.146, 2.1492, 2.1727, 2.1677, 2.1416999999999997, 2.1457, 2.1784999999999997, 2.1418, 2.1434, 2.1876, 2.1528, 2.4417000000000004, 2.1911, 2.1312, 2.1403, 2.1619, 2.1555, 2.1681, 2.1756, 2.1426000000000003, 2.1249, 2.2283, 2.13, 2.1374, 2.1974, 2.1523, 2.1346999999999996, 2.1613, 2.1656, 2.1435999999999997, 2.156, 2.1265, 2.1519, 2.1706999999999996, 2.1483000000000003, 2.2231, 2.1510000000000002, 2.1321, 2.1439, 2.16, 2.1538999999999997, 2.162, 2.175, 2.1279, 2.1524, 2.1437, 2.1599000000000004, 2.1500999999999997, 2.1445000000000003, 2.146, 2.1429, 2.1149, 2.1594, 2.1251, 2.1935000000000002, 2.1351, 2.2908, 2.2997, 2.277, 2.1281999999999996, 2.1541, 2.1559, 2.2066, 2.1228000000000002, 2.1641999999999997, 2.1298, 2.1264000000000003, 2.1646, 2.1494999999999997, 2.1557999999999997, 2.1738, 2.143, 2.1052000000000004, 2.1662, 2.166, 2.1350000000000002, 2.1469, 2.1607000000000003, 2.13, 2.1478, 2.134, 2.2039, 2.1294, 2.1513999999999998, 2.1108, 2.1261, 2.1710000000000003, 2.2378, 2.1391, 2.1470000000000002, 2.1424, 2.1582, 2.1186, 2.1606, 2.1848, 2.1443, 2.1497, 2.1098, 2.1344, 2.1241, 2.1622999999999997, 2.1738, 2.1725999999999996, 2.0669, 2.1300999999999997, 2.1527, 2.163, 2.0661, 2.1323000000000003, 2.1578999999999997, 2.2074, 2.1409, 2.1534, 2.2171, 2.2464, 2.3966, 2.1462, 2.2127000000000003, 2.1663, 2.1281999999999996],
  "Depth": 344.0,
  "Expectation Value": -1.8376924991607666,
  "Optimal Expectation Value": -2.0,
  "Optimizer durations [ms]": [22.248, 21.839, 21.899, 21.835, 22.372, 21.953, 22.4, 22.275, 32.618, 22.656, 22.287, 22.174, 21.815, 21.855, 22.636, 21.854, 21.626, 22.243, 21.606, 22.078, 21.596, 22.838, 24.071, 21.888, 21.881, 22.338, 21.856, 21.841, 22.391, 21.923, 21.985, 22.834, 21.996, 22.022, 22.398, 22.091, 22.228, 21.771, 21.897, 22.212, 21.754, 21.898, 22.029, 22.427, 21.901, 22.357, 21.983, 21.65, 22.794, 21.981, 21.823, 22.231, 22.605, 28.421, 26.187, 21.921, 21.968, 22.331, 22.013, 21.831, 22.515, 21.943, 21.716, 21.978, 21.893, 22.26, 22.08, 22.502, 22.34, 22.414, 21.743, 22.207, 21.934, 22.139, 22.081, 22.69, 21.766, 22.591, 22.289, 21.983, 21.791, 22.027, 21.734, 22.044, 22.012, 21.931, 21.902, 21.962, 22.412, 21.9, 21.943, 21.947, 21.738, 22.115, 21.736, 22.016, 21.891, 22.157, 24.456, 22.421, 22.242, 21.772, 25.222, 22.048, 25.566, 21.985, 22.186, 29.897, 21.729, 23.241, 32.643, 24.264, 22.13, 21.967, 21.795, 21.886, 22.109, 22.151, 21.773, 22.336, 21.977, 22.546, 22.19, 21.881, 21.774, 22.192, 21.888, 21.885, 23.082, 21.82, 22.213, 22.191, 21.712, 22.358, 22.225, 21.751, 22.146, 22.163, 22.029, 21.944, 22.232, 22.171, 25.179, 31.933, 21.734, 21.935, 21.918, 22.476, 21.986, 22.344, 21.849, 21.549, 22.912, 21.927, 21.791, 22.638, 21.961, 21.838, 22.116, 22.218, 21.828, 22.275, 21.889, 21.903, 22.251, 21.723, 22.997, 22.041, 21.938, 21.776, 22.11, 22.006, 22.064, 22.457, 21.694, 21.977, 21.857, 22.169, 22.246, 21.791, 22.129, 21.821, 21.841, 21.887, 21.998, 22.519, 21.767, 23.394, 28.452, 23.639, 21.498, 22.196, 22.148, 22.431, 21.961, 21.895, 21.886, 21.865, 21.931, 22.323, 21.977, 22.346, 21.733, 21.9, 21.856, 22.388, 21.718, 21.886, 21.935, 22.027, 21.952, 21.923, 22.557, 21.922, 21.89, 21.581, 22.019, 22.015, 23.084, 21.895, 21.943, 22.086, 22.038, 21.464, 22.18, 22.282, 22.038, 22.053, 21.563, 21.719, 22.036, 22.084, 22.165, 22.255, 30.635, 22.011, 21.947, 21.968, 27.846, 22.36, 21.922, 22.727, 21.802, 22.118, 22.838, 32.534, 24.629, 22.135, 22.352, 22.252, 21.844],
  "Optimizer iterations": 251,
  "Optimizer params": [0.9609559667916221, 0.6836093688267253, 0.6592585525657345, 0.188092140792691, 0.6823352477194674, 0.6783442179684086],
  "P": 3,
  "Problem": "MIS",
  "QJob durations [ms]": [2.1854, 2.1098, 2.1467, 2.1402, 2.1769, 2.1527, 2.1619, 2.1957, 2.2672, 2.2135000000000002, 2.1545, 2.1691000000000003, 2.1331, 2.1416, 2.1808, 2.1454, 2.1321, 2.1491000000000002, 2.1350000000000002, 2.1327, 2.1344, 2.1894, 1.9095, 2.146, 2.1518, 2.1741, 2.1459, 2.1289, 2.1849, 2.1477000000000004, 2.1553, 2.1654999999999998, 2.1426000000000003, 2.1584, 2.1725, 2.1719, 2.1499, 2.1518, 2.1411, 2.1531, 2.1159, 2.1485, 2.1462999999999997, 2.1905, 2.1532, 2.1883, 2.133, 2.1338, 2.2095000000000002, 2.1467, 2.141, 2.1653000000000002, 2.1976999999999998, 2.3373999999999997, 2.369, 2.1437, 2.1557, 2.1595999999999997, 2.1454999999999997, 2.1401, 2.1877, 2.1451000000000002, 2.1508, 2.1279, 2.1556, 2.1597, 2.1695, 2.1935000000000002, 2.1812, 2.1938999999999997, 2.1243999999999996, 2.1672000000000002, 2.1543, 2.1884, 2.126, 2.2079, 2.1559, 2.2155, 2.1736, 2.1372, 2.1419, 2.1439, 2.1268, 2.1335, 2.1531, 2.1425, 2.1472, 2.1462, 2.1865, 2.1423, 2.1298, 2.1389, 2.1509, 2.1586000000000003, 2.1256999999999997, 2.1266000000000003, 2.1426000000000003, 2.1459, 2.1385, 2.185, 2.1521, 2.1429, 2.1287, 2.1654, 2.1666, 2.1635999999999997, 2.1509, 2.0537, 2.1245000000000003, 2.2474000000000003, 2.2481, 2.3836999999999997, 2.1488, 2.145, 2.1353, 2.1452, 2.1719, 2.1426000000000003, 2.1408, 2.159, 2.1203, 2.2056, 2.1725, 2.1401, 2.1556, 2.1497, 2.137, 2.1500999999999997, 2.2444, 2.1464000000000003, 2.1708000000000003, 2.146, 2.1492, 2.1727, 2.1677, 2.1416999999999997, 2.1457, 2.1784999999999997, 2.1418, 2.1434, 2.1876, 2.1528, 2.4417000000000004, 2.1911, 2.1312, 2.1403, 2.1619, 2.1555, 2.1681, 2.1756, 2.1426000000000003, 2.1249, 2.2283, 2.13, 2.1374, 2.1974, 2.1523, 2.1346999999999996, 2.1613, 2.1656, 2.1435999999999997, 2.156, 2.1265, 2.1519, 2.1706999999999996, 2.1483000000000003, 2.2231, 2.1510000000000002, 2.1321, 2.1439, 2.16, 2.1538999999999997, 2.162, 2.175, 2.1279, 2.1524, 2.1437, 2.1599000000000004, 2.1500999999999997, 2.1445000000000003, 2.146, 2.1429, 2.1149, 2.1594, 2.1251, 2.1935000000000002, 2.1351, 2.2908, 2.2997, 2.277, 2.1281999999999996, 2.1541, 2.1559, 2.2066, 2.1228000000000002, 2.1641999999999997, 2.1298, 2.1264000000000003, 2.1646, 2.1494999999999997, 2.1557999999999997, 2.1738, 2.143, 2.1052000000000004, 2.1662, 2.166, 2.1350000000000002, 2.1469, 2.1607000000000003, 2.13, 2.1478, 2.134, 2.2039, 2.1294, 2.1513999999999998, 2.1108, 2.1261, 2.1710000000000003, 2.2378, 2.1391, 2.1470000000000002, 2.1424, 2.1582, 2.1186, 2.1606, 2.1848, 2.1443, 2.1497, 2.1098, 2.1344, 2.1241, 2.1622999999999997, 2.1738, 2.1725999999999996, 2.0669, 2.1300999999999997, 2.1527, 2.163, 2.0661, 2.1323000000000003, 2.1578999999999997, 2.2074, 2.1409, 2.1534, 2.2171, 2.2464, 2.3966, 2.1462, 2.2127000000000003, 2.1663, 2.1281999999999996],
  "QPU": "7000000",
  "Qubits": 9,
  "Queue durations [ms]": [0.0, 0.0, 0.0, 0.0, 0.0, 0.0, 0.0, 0.0, 0.0, 0.0, 0.0, 0.0, 0.0, 0.0, 0.0, 0.0, 0.0, 0.0, 0.0, 0.0, 0.0, 0.0, 0.0, 0.0, 0.0, 0.0, 0.0, 0.0, 0.0, 0.0, 0.0, 0.0, 0.0, 0.0, 0.0, 0.0, 0.0, 0.0, 0.0, 0.0, 0.0, 0.0, 0.0, 0.0, 0.0, 0.0, 0.0, 0.0, 0.0, 0.0, 0.0, 0.0, 0.0, 0.0, 0.0, 0.0, 0.0, 0.0, 0.0, 0.0, 0.0, 0.0, 0.0, 0.0, 0.0, 0.0, 0.0, 0.0, 0.0, 0.0, 0.0, 0.0, 0.0, 0.0, 0.0, 0.0, 0.0, 0.0, 0.0, 0.0, 0.0, 0.0, 0.0, 0.0, 0.0, 0.0, 0.0, 0.0, 0.0, 0.0, 0.0, 0.0, 0.0, 0.0, 0.0, 0.0, 0.0, 0.0, 0.0, 0.0, 0.0, 0.0, 0.0, 0.0, 0.0, 0.0, 0.0, 0.0, 0.0, 0.0, 0.0, 0.0, 0.0, 0.0, 0.0, 0.0, 0.0, 0.0, 0.0, 0.0, 0.0, 0.0, 0.0, 0.0, 0.0, 0.0, 0.0, 0.0, 0.0, 0.0, 0.0, 0.0, 0.0, 0.0, 0.0, 0.0, 0.0, 0.0, 0.0, 0.0, 0.0, 0.0, 0.0, 0.0, 0.0, 0.0, 0.0, 0.0, 0.0, 0.0, 0.0, 0.0, 0.0, 0.0, 0.0, 0.0, 0.0, 0.0, 0.0, 0.0, 0.0, 0.0, 0.0, 0.0, 0.0, 0.0, 0.0, 0.0, 0.0, 0.0, 0.0, 0.0, 0.0, 0.0, 0.0, 0.0, 0.0, 0.0, 0.0, 0.0, 0.0, 0.0, 0.0, 0.0, 0.0, 0.0, 0.0, 0.0, 0.0, 0.0, 0.0, 0.0, 0.0, 0.0, 0.0, 0.0, 0.0, 0.0, 0.0, 0.0, 0.0, 0.0, 0.0, 0.0, 0.0, 0.0, 0.0, 0.0, 0.0, 0.0, 0.0, 0.0, 0.0, 0.0, 0.0, 0.0, 0.0, 0.0, 0.0, 0.0, 0.0, 0.0, 0.0, 0.0, 0.0, 0.0, 0.0, 0.0, 0.0, 0.0, 0.0, 0.0, 0.0, 0.0, 0.0, 0.0, 0.0, 0.0, 0.0, 0.0, 0.0, 0.0, 0.0, 0.0, 0.0, 0.0, 0.0, 0.0, 0.0, 0.0, 0.0],
  "Shots": 4096,
  "Size": 6,
  "Total Algorithm duration [s]": 5.642,
  "Total Classic duration [s]": 5.0997201,
  "Total Quantum duration [s]": 0.5422799000000001
}
