{
  "Circuit execution durations [ms]": [28.577566146850586, 55.96613883972168, 27.08256244659424, 29.369235038757324, 26.318907737731934, 31.40997886657715, 30.20036220550537, 27.383923530578613, 29.74390983581543, 29.61409091949463, 30.67457675933838, 27.36341953277588, 28.11264991760254, 29.51216697692871, 30.466556549072266, 25.453567504882813, 29.772043228149414, 30.780911445617676, 31.7305326461792, 28.951406478881836, 27.823925018310547, 29.033184051513672, 29.75022792816162, 29.32417392730713, 32.26590156555176, 32.3256254196167, 27.38356590270996, 28.714656829833984, 51.775574684143066, 27.6716947555542, 30.103206634521484, 27.897119522094727, 27.613162994384766, 30.395150184631348, 26.287198066711426, 29.55043315887451, 28.502345085144043, 28.29575538635254, 29.315829277038574, 28.67293357849121, 28.792738914489746, 27.638554573059082, 28.30672264099121, 27.347683906555176, 27.425169944763184, 28.403520584106445, 28.88929843902588, 29.194116592407227, 29.52134609222412, 27.471184730529785, 29.309391975402832, 27.059316635131836, 28.537273406982422, 31.743884086608887, 31.62980079650879, 54.81886863708496, 27.42910385131836, 27.988314628601074, 28.940439224243164, 32.11939334869385, 30.382871627807617, 30.03823757171631, 27.30095386505127, 31.18264675140381, 27.20177173614502, 29.54113483428955, 30.63344955444336, 27.30536460876465, 27.605056762695313, 27.806997299194336, 27.967214584350586, 31.213998794555664, 26.762723922729492, 31.084656715393066, 29.37614917755127, 27.228951454162598, 29.660463333129883, 31.853199005126953, 28.97465229034424, 26.821374893188477, 28.634190559387207, 30.071377754211426, 53.71654033660889, 29.674887657165527, 28.14161777496338, 27.3897647857666, 25.502920150756836, 28.342366218566895, 30.623793601989746, 28.045296669006348, 29.2280912399292],
  "Depth": 6.5,
  "Expectation Value": -2.08544921875,
  "Optimal Expectation Value": -2.2360680103302,
  "Optimizer durations [ms]": [367.324, 362.183, 307.134, 360.357, 301.779, 361.656, 307.165, 350.191, 305.646, 349.929, 305.197, 343.945, 298.984, 350.025, 305.483, 340.224, 302.691, 355.584, 306.957, 349.358, 299.253, 349.43, 302.626, 349.795, 307.578, 354.935, 298.387, 346.356, 346.926, 298.983, 352.492, 299.826, 346.74, 303.29, 342.319, 303.859, 347.183, 300.324, 346.991, 300.053, 347.791, 299.234, 344.849, 299.028, 347.536, 298.804, 351.954, 301.985, 350.759, 299.611, 347.764, 297.381, 345.46, 305.986, 352.225, 353.084, 297.967, 351.03, 301.739, 355.766, 304.036, 351.558, 298.677, 354.326, 298.384, 347.532, 304.013, 345.223, 298.458, 344.484, 298.688, 355.939, 295.958, 354.922, 303.334, 345.626, 302.871, 354.698, 301.344, 347.001, 300.197, 347.58, 351.267, 302.532, 348.045, 299.15, 341.672, 299.639, 351.49, 299.094, 347.153],
  "Optimizer iterations": 91,
  "Optimizer params": [0.9237000935925784, 0.577829345524478, 0.8086971721419394, 0.8917101681634895, 0.9963769148500832, 0.41735395106111467, 0.3654106175792198, 0.820147315491407],
  "P": 0,
  "Problem": "IC",
  "QJob durations [ms]": [40.00985622406006, 66.76554679870605, 37.43481636047363, 39.41679000854492, 36.327362060546875, 41.56947135925293, 40.21775722503662, 37.328362464904785, 39.80743885040283, 39.433956146240234, 40.506720542907715, 37.21821308135986, 37.85884380340576, 39.40463066101074, 40.26222229003906, 35.28642654418945, 39.51120376586914, 65.17422199249268, 41.576266288757324, 38.741111755371094, 37.60731220245361, 39.38722610473633, 39.54589366912842, 39.13545608520508, 42.05429553985596, 42.35970973968506, 37.20855712890625, 38.46001625061035, 61.798095703125, 37.86003589630127, 39.89052772521973, 37.68312931060791, 37.42408752441406, 40.17341136932373, 36.154747009277344, 39.59763050079346, 38.329362869262695, 38.079261779785156, 39.10195827484131, 38.48063945770264, 38.60974311828613, 37.42265701293945, 38.14244270324707, 37.108421325683594, 61.57040596008301, 38.09797763824463, 38.674235343933105, 38.98131847381592, 39.71433639526367, 37.18233108520508, 39.06047344207764, 36.809325218200684, 38.63823413848877, 41.52226448059082, 41.425228118896484, 64.88263607025146, 37.45317459106445, 37.766218185424805, 38.76769542694092, 41.968584060668945, 40.16423225402832, 40.107011795043945, 37.3225212097168, 40.97640514373779, 36.96596622467041, 39.35718536376953, 40.36915302276611, 37.14275360107422, 37.374258041381836, 37.62161731719971, 37.74678707122803, 65.36316871643066, 36.553025245666504, 40.96269607543945, 39.168715476989746, 37.283897399902344, 39.435386657714844, 41.678667068481445, 38.70391845703125, 36.89098358154297, 38.43343257904053, 39.83867168426514, 63.86208534240723, 39.72208499908447, 37.978529930114746, 37.39488124847412, 35.400390625, 38.10465335845947, 40.44139385223389, 38.05410861968994, 39.05069828033447],
  "QPU": "3000020",
  "Qubits": 2,
  "Queue durations [ms]": [0.0, 0.0, 0.0, 0.0, 0.0, 0.0, 0.0, 0.0, 0.0, 0.0, 0.0, 0.0, 0.0, 0.0, 0.0, 0.0, 0.0, 0.0, 0.0, 0.0, 0.0, 0.0, 0.0, 0.0, 0.0, 0.0, 0.0, 0.0, 0.0, 0.0, 0.0, 0.0, 0.0, 0.0, 0.0, 0.0, 0.0, 0.0, 0.0, 0.0, 0.0, 0.0, 0.0, 0.0, 0.0, 0.0, 0.0, 0.0, 0.0, 0.0, 0.0, 0.0, 0.0, 0.0, 0.0, 0.0, 0.0, 0.0, 0.0, 0.0, 0.0, 0.0, 0.0, 0.0, 0.0, 0.0, 0.0, 0.0, 0.0, 0.0, 0.0, 0.0, 0.0, 0.0, 0.0, 0.0, 0.0, 0.0, 0.0, 0.0, 0.0, 0.0, 0.0, 0.0, 0.0, 0.0, 0.0, 0.0, 0.0, 0.0, 0.0],
  "Shots": 4096,
  "Size": 2,
  "Total Algorithm duration [s]": 29.774,
  "Total Classic duration [s]": 26.066550444602967,
  "Total Quantum duration [s]": 3.7074495553970337
}
