{
  "Circuit execution durations [ms]": [6593.131542205811, 6326.172351837158, 6401.8144607543945, 6286.672353744507, 6466.030597686768, 6322.104930877686, 6583.821058273315, 6552.3927211761475, 6264.116525650024, 6396.024227142334, 6640.924692153931, 6420.296430587769, 6305.683374404907, 7325.736284255981, 6355.164289474487, 6461.46559715271, 6482.5804233551025, 6286.620378494263, 6474.893569946289, 6437.143087387085, 6560.048341751099, 6375.229835510254, 6209.910869598389, 6470.3099727630615, 6235.642671585083, 7177.36554145813, 7215.698480606079, 7274.59716796875, 6242.46883392334, 7410.256147384644, 7227.184295654297, 6879.0178298950195, 6415.882587432861, 6726.435422897339, 6643.940210342407, 6496.4940547943115, 6322.035551071167, 6753.93533706665, 6714.456081390381, 6476.109981536865, 6223.061561584473, 6301.357746124268, 6194.422245025635, 6498.419523239136, 7138.801336288452, 7425.652265548706, 6176.347017288208, 6818.453311920166, 6307.387351989746, 6822.088718414307, 6254.831790924072, 6572.599649429321, 7021.840572357178, 6471.11964225769, 6352.459669113159, 6208.609580993652, 6306.8671226501465, 6237.126350402832, 6451.948165893555, 6408.1549644470215, 6166.167736053467, 6409.096002578735, 6518.728256225586, 6440.890073776245, 6401.132583618164, 6316.578149795532, 6253.917694091797, 6364.803314208984, 6344.671249389648, 6311.936378479004, 7250.390291213989, 7346.468210220337, 6442.430734634399, 6493.988275527954, 6273.194313049316, 6349.522590637207, 6992.902040481567, 6429.363965988159, 6620.518684387207, 6165.218830108643, 6606.8055629730225, 6246.597051620483, 6409.914255142212, 6293.011665344238, 6169.274091720581, 6284.796476364136, 7279.835224151611, 6743.497610092163, 6409.553050994873, 6209.9103927612305, 6308.696508407593, 6292.066335678101, 7338.985443115234, 7287.344932556152, 6281.40664100647, 6426.259517669678, 7533.751726150513, 6351.11927986145, 6322.700023651123, 6213.520765304565, 6338.529348373413, 6387.566328048706, 6605.93056678772, 6461.230039596558, 6369.481086730957, 6503.544330596924, 6426.951169967651, 6331.118822097778, 6262.866497039795, 6411.625146865845, 6192.45982170105, 6298.609972000122, 6367.824554443359, 6658.110618591309, 6377.884149551392, 6499.022960662842, 6457.090616226196, 6189.732313156128],
  "Depth": 131.0,
  "Expectation Value": -8.84521484375,
  "Optimal Expectation Value": -10.0,
  "Optimizer durations [ms]": [9207.629, 8823.21, 8885.253, 8853.707, 9050.323, 8773.294, 8931.705, 9119.255, 8723.772, 8735.695, 9048.059, 8957.32, 8666.854, 9878.885, 8955.697, 9020.886, 9154.086, 8825.98, 8812.933, 8914.789, 9128.469, 8675.824, 8770.551, 8916.965, 8535.468, 9687.371, 9855.334, 10013.982, 8723.779, 9877.135, 9781.258, 9331.321, 8858.665, 9097.223, 9063.844, 8939.739, 8636.113, 9179.281, 9090.118, 8924.715, 8636.284, 8670.33, 8658.888, 8848.323, 9664.348, 10061.816, 8645.587, 9139.962, 8683.69, 9236.822, 8723.085, 9003.075, 9505.097, 8882.102, 9003.233, 8599.964, 8779.048, 8873.638, 8976.146, 8940.93, 8761.805, 8823.308, 8913.078, 8898.561, 8891.55, 8712.85, 8732.353, 8733.32, 8749.995, 8668.318, 10045.413, 9884.414, 9031.43, 8917.02, 8670.442, 9102.946, 9341.65, 9028.174, 9119.885, 8486.766, 8920.32, 8594.24, 8844.479, 8692.559, 8901.32, 8727.854, 10067.233, 9264.521, 8784.315, 8693.264, 8823.766, 8701.745, 9680.33, 9863.852, 8881.445, 8838.41, 10293.856, 8988.663, 8814.782, 8699.453, 8814.407, 8815.587, 9202.471, 8863.799, 8731.37, 9088.544, 8912.652, 8686.958, 8828.079, 8857.491, 8601.918, 8845.089, 8881.252, 9037.457, 8977.259, 8947.506, 8919.241, 9221.188],
  "Optimizer iterations": 118,
  "Optimizer params": [0.2965596547981485, 0.3575973113809584, 0.22748114443731562, 0.19221508785662025, 0.9992322747423363, 0.4028565642717948],
  "P": 3,
  "Problem": "MCP",
  "QJob durations [ms]": [9188.374280929565, 8806.139469146729, 8859.62462425232, 8837.280988693237, 9035.10332107544, 8756.431102752686, 8916.110754013062, 9103.805541992188, 8708.69779586792, 8718.160629272461, 9032.877922058105, 8936.805009841919, 8643.465518951416, 9776.495933532715, 8938.56930732727, 9002.363204956055, 9137.020349502563, 8810.716390609741, 8792.934656143188, 8893.136262893677, 9105.124711990356, 8660.479545593262, 8748.965740203857, 8898.695468902588, 8505.299806594849, 9664.409399032593, 9838.907241821289, 9995.4354763031, 8705.503702163696, 9853.333234786987, 9764.671564102173, 9315.066814422607, 8772.22228050232, 9080.788850784302, 9048.308372497559, 8924.397706985474, 8620.429992675781, 9157.756567001343, 9073.428869247437, 8907.124280929565, 8617.894411087036, 8653.393268585205, 8643.778085708618, 8825.401544570923, 9640.300035476685, 10044.386148452759, 8630.57804107666, 9124.32885169983, 8668.372631072998, 9221.373796463013, 8701.170921325684, 8900.868654251099, 9489.793062210083, 8865.39340019226, 8981.965065002441, 8579.645872116089, 8758.85558128357, 8856.701374053955, 8958.561658859253, 8914.62516784668, 8745.69320678711, 8799.0243434906, 8889.107942581177, 8875.102043151855, 8874.174118041992, 8697.66902923584, 8713.439464569092, 8716.025829315186, 8732.571363449097, 8653.286933898926, 9964.379072189331, 9867.149591445923, 9005.88583946228, 8899.310111999512, 8654.329538345337, 9087.852478027344, 9325.661659240723, 9010.943412780762, 9098.936319351196, 8468.194961547852, 8905.210733413696, 8575.489044189453, 8825.621128082275, 8659.071683883667, 8876.9850730896, 8689.847946166992, 10051.587343215942, 9244.660139083862, 8768.146514892578, 8602.4751663208, 8796.176433563232, 8686.534881591797, 9665.234804153442, 9848.278045654297, 8864.346265792847, 8823.448419570923, 10276.835203170776, 8970.715999603271, 8797.68419265747, 8683.863162994385, 8793.483018875122, 8797.262191772461, 9187.450885772705, 8848.473310470581, 8707.721948623657, 9065.890312194824, 8895.793676376343, 8671.451807022095, 8748.095035552979, 8831.493377685547, 8578.91583442688, 8829.35643196106, 8863.034963607788, 9022.416353225708, 8953.331470489502, 8931.271076202393, 8900.784254074097, 9203.182220458984],
  "QPU": "6010030",
  "Qubits": 7,
  "Shots": 4096,
  "Size": 7,
  "Total Algorithm duration [s]": 1062.781,
  "Total Classic duration [s]": 2.6487921295165506,
  "Total Quantum duration [s]": 1060.1322078704834
}
