{
  "Circuit execution durations [ms]": [8.410590000000001, 8.343513999999999, 8.344255, 8.757445, 8.512452, 8.652359, 8.687008, 8.803801, 8.471506, 8.928935000000001, 8.831048000000001, 18.934436, 8.385722, 8.424600000000002, 8.632535, 8.649794, 8.766209, 8.42967, 8.589917000000002, 8.540667000000001, 8.842213, 10.065021, 8.546367, 9.231152000000002, 8.447759000000001, 8.905148, 9.219217, 8.830739000000001, 18.769206999999998, 8.833942, 8.49512, 8.432682, 8.860970000000002, 19.092953, 8.651928, 8.917950000000001, 8.671574000000001, 8.472289000000002, 9.083514000000001, 8.832068, 8.528645000000001, 8.609853000000001, 9.010784000000001, 8.545729, 8.489304, 8.800883, 8.536264, 8.586035, 8.426386, 8.782153000000001, 8.439829000000001, 8.518299, 8.709442000000001, 8.713957, 8.550550000000001, 8.38355, 8.845725, 8.575689, 8.542918, 8.90879, 8.848450000000001, 9.250143000000001, 8.457400999999999, 8.615507, 8.461311, 8.600946, 9.573453, 8.623943, 8.622442000000001, 8.564133, 8.673151, 12.746988, 8.573036, 19.094976, 8.681979000000002, 8.960509, 8.61566, 19.282415, 8.440386000000002, 8.633782000000002, 8.630249000000001, 8.739197, 8.874881000000002, 8.778697000000001, 8.6531, 8.800484, 8.684391000000002, 9.253553000000002, 8.504004, 8.613759, 8.402534, 8.438899, 8.523097, 8.415719000000001, 8.835506],
  "Depth": 82.0,
  "Expectation Value": -0.99072265625,
  "Optimal Expectation Value": -1.0,
  "Optimizer durations [ms]": [9230.762, 6649.226, 6629.069, 8096.768, 66346.262, 7134.298, 6823.477, 7572.267, 8490.767, 7894.123, 6655.551, 7168.092, 6333.856, 32627.085, 5796.422, 6880.362, 6935.756, 8619.217, 78015.912, 9112.558, 6775.944, 6607.31, 7098.848, 13494.344, 6462.24, 7177.274, 6953.39, 5729.992, 97089.822, 7269.111, 7894.609, 7390.912, 6732.1, 88485.528, 6759.399, 6962.727, 8090.63, 7783.013, 6217.951, 7605.574, 6559.791, 6963.203, 62564.409, 7475.647, 117763.129, 7065.814, 6755.634, 7269.863, 7166.613, 61022.229, 35744.754, 7059.109, 6953.47, 6876.322, 8384.431, 81400.149, 7578.238, 7577.684, 6757.457, 8192.166, 6738.909, 6036.94, 6988.419, 34301.123, 35019.504, 6253.17, 7986.76, 10546.144, 7367.429, 6961.694, 6606.489, 20018.31, 19907.567, 34161.851, 16791.194, 7168.035, 7783.453, 5732.863, 6758.687, 7039.511, 6357.562, 6571.625, 14437.696, 130973.049, 10215.523, 8010.672, 7550.489, 6683.929, 8354.995, 9983.49, 7832.522, 34962.671, 7987.154, 100355.952, 6449.426],
  "Optimizer iterations": 95,
  "Optimizer params": [0.664817485001623, 0.5570701090845406, 0.03567971917471498, 0.20790825490605314, 0.4497796124638969, 0.794380809561366],
  "P": 3,
  "Problem": "MIS",
  "QJob durations [ms]": [9151.579141616821, 6478.009223937988, 6540.462493896484, 8041.756391525269, 66261.66486740112, 7052.4585247039795, 6655.064821243286, 7489.751815795898, 8409.921407699585, 7811.497449874878, 6572.845220565796, 6990.973472595215, 6253.260850906372, 32545.530080795288, 5714.661359786987, 6798.274278640747, 6767.929553985596, 8540.83776473999, 77933.11929702759, 9030.205249786377, 6696.746587753296, 6440.998315811157, 7016.143560409546, 13411.336183547974, 6379.882097244263, 7096.640348434448, 6787.3711585998535, 5645.79963684082, 97010.49518585205, 7188.56954574585, 7812.467336654663, 7225.1269817352295, 6637.844800949097, 88404.97636795044, 6679.563999176025, 6881.894826889038, 7922.3504066467285, 7698.810815811157, 6122.654914855957, 7524.670839309692, 6475.4579067230225, 6791.902542114258, 62487.117528915405, 7398.937225341797, 117681.13827705383, 6986.590623855591, 6584.6757888793945, 7187.144756317139, 7083.660840988159, 60942.89970397949, 35647.40347862244, 6851.35555267334, 6858.018636703491, 6783.817529678345, 8287.084817886353, 81311.37442588806, 7356.332302093506, 7492.941379547119, 6674.118280410767, 8096.143960952759, 6656.131267547607, 5872.106075286865, 6862.28346824646, 34215.611696243286, 34922.57785797119, 6175.354719161987, 7807.239055633545, 10447.94225692749, 7279.153347015381, 6875.626802444458, 6548.215627670288, 19828.871965408325, 19814.782857894897, 34072.89266586304, 16699.76568222046, 7083.459377288818, 7611.786127090454, 5644.881248474121, 6693.563461303711, 6956.472158432007, 6273.331165313721, 6395.379543304443, 14347.10955619812, 130881.57892227173, 10127.230644226074, 7920.672416687012, 7363.072395324707, 6594.525337219238, 8262.141942977905, 9890.444993972778, 7746.559381484985, 34781.95023536682, 7899.975061416626, 100283.3251953125, 6361.9091510772705],
  "QPU": "4010001",
  "Qubits": 4,
  "Queue durations [ms]": [3736.0, 976.0, 1112.0, 775.0, 54178.0, 899.0, 884.0, 1861.0, 1987.0, 2147.0, 557.0, 887.0, 776.0, 27452.0, 651.0, 1904.0, 1501.0, 1753.0, 55829.0, 4026.0, 725.0, 877.0, 949.0, 1118.0, 712.0, 865.0, 970.0, 1012.0, 88593.0, 993.0, 1727.0, 468.0, 808.0, 54153.0, 559.0, 497.0, 1806.0, 2101.0, 1018.0, 1212.0, 624.0, 566.0, 1038.0, 921.0, 55619.0, 625.0, 668.0, 810.0, 1824.0, 54124.0, 954.0, 767.0, 944.0, 752.0, 821.0, 61766.0, 656.0, 389.0, 777.0, 892.0, 850.0, 642.0, 1168.0, 1544.0, 27526.0, 904.0, 1663.0, 4101.0, 1240.0, 718.0, 1363.0, 14384.0, 14565.0, 1455.0, 973.0, 896.0, 1717.0, 649.0, 651.0, 148.0, 983.0, 653.0, 1135.0, 124111.0, 1802.0, 1102.0, 1002.0, 930.0, 1966.0, 4064.0, 2033.0, 1253.0, 558.0, 92247.0, 813.0],
  "Shots": 4096,
  "Size": 3,
  "Total Algorithm duration [s]": 1715.617,
  "Total Classic duration [s]": 9.81681360435482,
  "Total Quantum duration [s]": 1705.8001863956451
}
