{
  "Circuit execution durations [ms]": [1.0417, 1.0271, 1.0912000000000002, 1.0359, 1.0238, 1.0176, 1.0266, 1.0275, 1.0361, 1.035, 1.0936, 1.049, 1.031, 1.0234, 1.1473, 1.0218, 1.0424, 1.0451, 1.0348, 1.0510000000000002, 1.0381, 1.1012000000000002, 1.1312, 0.9644, 1.0644, 1.2773, 1.1194, 0.9526, 1.0593, 1.5337, 1.2324, 1.0144, 1.0221, 0.9836, 1.0306, 1.1865999999999999, 1.008, 1.2767, 1.3273, 1.1887, 1.2321, 1.294, 1.1292, 1.0958, 1.2197, 1.0822, 1.1047, 1.2354, 1.2112, 1.2741, 1.0436, 1.373, 1.0376, 1.0242, 1.0598, 1.0503, 1.0487, 1.0737999999999999, 1.0336, 1.0695, 1.1052, 1.3668, 1.0338999999999998, 1.0892, 1.0393, 1.1291, 1.387, 1.0512, 1.0372000000000001, 1.0223, 1.1571, 1.0473999999999999, 1.0460999999999998, 1.0387, 1.0329, 1.0988, 1.0388000000000002, 1.1206, 1.017, 1.0198, 1.0296999999999998, 1.0946, 1.0173, 1.0315999999999999, 1.0642, 1.1067, 1.0271, 1.0766, 1.1377, 1.0517, 1.0392000000000001, 1.1823000000000001, 1.0823, 1.0626, 1.0452000000000001, 1.1180999999999999, 1.0271, 1.0444, 1.0303, 1.0876, 1.2679, 0.9598, 1.2987, 1.2290999999999999, 0.9658, 0.9651, 1.3273, 0.9756, 0.9823, 0.9039, 1.3189, 1.2734, 1.3423, 1.3290000000000002, 1.3475, 0.9681, 1.0913],
  "Depth": 149.0,
  "Expectation Value": -10.736842155456543,
  "Optimal Expectation Value": -12.0,
  "Optimizer durations [ms]": [10.814, 10.964, 11.406, 10.856, 10.97, 10.658, 10.759, 10.654, 11.05, 11.01, 11.471, 11.016, 10.872, 10.454, 12.535, 10.706, 10.939, 10.895, 11.307, 11.185, 10.968, 11.548, 11.67, 15.33, 19.238, 13.94, 19.216, 14.828, 20.641, 17.128, 16.932, 20.281, 17.804, 18.123, 17.573, 16.381, 20.399, 15.481, 15.796, 12.551, 16.888, 13.423, 11.873, 11.521, 12.826, 11.513, 11.527, 14.184, 15.165, 19.192, 11.028, 14.253, 10.725, 11.137, 11.218, 11.003, 11.185, 11.091, 11.08, 11.264, 11.731, 19.079, 10.66, 11.481, 10.867, 11.996, 16.408, 11.018, 10.936, 11.551, 11.803, 11.226, 10.859, 10.99, 10.77, 11.668, 10.937, 11.752, 10.726, 10.781, 10.87, 11.525, 10.594, 11.165, 11.042, 12.222, 10.942, 11.294, 11.935, 11.069, 10.85, 12.458, 11.275, 11.453, 10.718, 11.719, 11.038, 10.819, 11.078, 11.414, 13.01, 19.814, 18.357, 17.474, 20.009, 19.478, 15.744, 16.618, 19.985, 19.244, 15.453, 14.308, 15.264, 17.737, 15.898, 16.712, 15.856],
  "Optimizer iterations": 117,
  "Optimizer params": [0.604697878758459, 0.4623733962205252, 0.8124986461470315, 0.38389034949256395, 0.26549969799754475, 0.5264683310521843],
  "P": 3,
  "Problem": "MCP",
  "QJob durations [ms]": [1.0417, 1.0271, 1.0912000000000002, 1.0359, 1.0238, 1.0176, 1.0266, 1.0275, 1.0361, 1.035, 1.0936, 1.049, 1.031, 1.0234, 1.1473, 1.0218, 1.0424, 1.0451, 1.0348, 1.0510000000000002, 1.0381, 1.1012000000000002, 1.1312, 0.9644, 1.0644, 1.2773, 1.1194, 0.9526, 1.0593, 1.5337, 1.2324, 1.0144, 1.0221, 0.9836, 1.0306, 1.1865999999999999, 1.008, 1.2767, 1.3273, 1.1887, 1.2321, 1.294, 1.1292, 1.0958, 1.2197, 1.0822, 1.1047, 1.2354, 1.2112, 1.2741, 1.0436, 1.373, 1.0376, 1.0242, 1.0598, 1.0503, 1.0487, 1.0737999999999999, 1.0336, 1.0695, 1.1052, 1.3668, 1.0338999999999998, 1.0892, 1.0393, 1.1291, 1.387, 1.0512, 1.0372000000000001, 1.0223, 1.1571, 1.0473999999999999, 1.0460999999999998, 1.0387, 1.0329, 1.0988, 1.0388000000000002, 1.1206, 1.017, 1.0198, 1.0296999999999998, 1.0946, 1.0173, 1.0315999999999999, 1.0642, 1.1067, 1.0271, 1.0766, 1.1377, 1.0517, 1.0392000000000001, 1.1823000000000001, 1.0823, 1.0626, 1.0452000000000001, 1.1180999999999999, 1.0271, 1.0444, 1.0303, 1.0876, 1.2679, 0.9598, 1.2987, 1.2290999999999999, 0.9658, 0.9651, 1.3273, 0.9756, 0.9823, 0.9039, 1.3189, 1.2734, 1.3423, 1.3290000000000002, 1.3475, 0.9681, 1.0913],
  "QPU": "7000000",
  "Qubits": 8,
  "Queue durations [ms]": [0.0, 0.0, 0.0, 0.0, 0.0, 0.0, 0.0, 0.0, 0.0, 0.0, 0.0, 0.0, 0.0, 0.0, 0.0, 0.0, 0.0, 0.0, 0.0, 0.0, 0.0, 0.0, 0.0, 0.0, 0.0, 0.0, 0.0, 0.0, 0.0, 0.0, 0.0, 0.0, 0.0, 0.0, 0.0, 0.0, 0.0, 0.0, 0.0, 0.0, 0.0, 0.0, 0.0, 0.0, 0.0, 0.0, 0.0, 0.0, 0.0, 0.0, 0.0, 0.0, 0.0, 0.0, 0.0, 0.0, 0.0, 0.0, 0.0, 0.0, 0.0, 0.0, 0.0, 0.0, 0.0, 0.0, 0.0, 0.0, 0.0, 0.0, 0.0, 0.0, 0.0, 0.0, 0.0, 0.0, 0.0, 0.0, 0.0, 0.0, 0.0, 0.0, 0.0, 0.0, 0.0, 0.0, 0.0, 0.0, 0.0, 0.0, 0.0, 0.0, 0.0, 0.0, 0.0, 0.0, 0.0, 0.0, 0.0, 0.0, 0.0, 0.0, 0.0, 0.0, 0.0, 0.0, 0.0, 0.0, 0.0, 0.0, 0.0, 0.0, 0.0, 0.0, 0.0, 0.0, 0.0],
  "Shots": 4096,
  "Size": 8,
  "Total Algorithm duration [s]": 1.552,
  "Total Classic duration [s]": 1.4231129,
  "Total Quantum duration [s]": 0.12888709999999995
}
