{
  "Circuit execution durations [ms]": [54.07392978668213, 78.26292514801025, 51.923274993896484, 54.943084716796875, 53.71367931365967, 51.19931697845459, 53.1010627746582, 77.3766040802002, 55.43625354766846, 50.675392150878906, 81.95436000823975, 48.46775531768799, 51.46682262420654, 49.53265190124512, 53.14803123474121, 49.66700077056885, 51.31864547729492, 53.3292293548584, 51.52714252471924, 78.72331142425537, 50.50516128540039, 53.47740650177002, 50.13585090637207, 50.13859272003174, 52.13797092437744, 52.29997634887695, 56.43045902252197, 53.88808250427246, 73.95637035369873, 53.84528636932373, 54.81398105621338, 54.43835258483887, 51.64492130279541, 51.17321014404297, 79.34188842773438, 54.961323738098145, 52.581787109375],
  "Depth": 2.0,
  "Expectation Value": -1.3488538265228271,
  "Optimal Expectation Value": -1.4114999771118164,
  "Optimizer durations [ms]": [552.216, 548.411, 547.09, 600.372, 547.529, 537.198, 547.292, 589.379, 549.487, 537.498, 554.879, 536.538, 590.617, 535.229, 545.763, 535.375, 540.449, 588.488, 541.276, 546.82, 541.796, 592.985, 538.323, 538.344, 542.648, 544.382, 593.901, 542.372, 536.486, 549.335, 599.416, 549.67, 536.216, 538.977, 594.983, 551.022, 542.546],
  "Optimizer iterations": 37,
  "Optimizer params": [0.004543064067862168, 0.49629183266900295],
  "P": 0,
  "Problem": "RH",
  "QJob durations [ms]": [61.33913993835449, 85.53695678710938, 59.06713008880615, 62.1943473815918, 61.10191345214844, 58.27057361602783, 60.311317443847656, 84.5034122467041, 62.557220458984375, 57.752370834350586, 88.97340297698975, 55.55856227874756, 58.585286140441895, 56.5338134765625, 60.2496862411499, 56.210994720458984, 58.373093605041504, 60.33599376678467, 59.12292003631592, 85.82031726837158, 57.515621185302734, 60.54091453552246, 57.230472564697266, 57.22975730895996, 59.259891510009766, 59.36086177825928, 63.504815101623535, 60.89520454406738, 80.98828792572021, 60.91666221618652, 62.036871910095215, 61.78998947143555, 58.75575542449951, 58.32481384277344, 86.35234832763672, 62.010884284973145, 59.711337089538574],
  "QPU": "300002E",
  "Qubits": 2,
  "Queue durations [ms]": [0.0, 0.0, 0.0, 0.0, 0.0, 0.0, 0.0, 0.0, 0.0, 0.0, 0.0, 0.0, 0.0, 0.0, 0.0, 0.0, 0.0, 0.0, 0.0, 0.0, 0.0, 0.0, 0.0, 0.0, 0.0, 0.0, 0.0, 0.0, 0.0, 0.0, 0.0, 0.0, 0.0, 0.0, 0.0, 0.0, 0.0],
  "Shots": 4096,
  "Size": 2,
  "Total Algorithm duration [s]": 20.505,
  "Total Classic duration [s]": 18.14617705821991,
  "Total Quantum duration [s]": 2.3588229417800903
}
