{
  "Depth": 32.0,
  "Job durations [ms]": [17.21, 15.622, 15.450999999999999, 15.125, 15.234, 15.095, 78.935, 15.311, 14.736, 15.037999999999998, 14.87, 14.844, 15.102, 14.621, 14.791, 15.015, 14.947999999999999, 15.16, 15.08, 14.972, 14.893, 14.841, 14.731, 14.807, 16.038, 15.072000000000001, 14.938999999999998, 14.723999999999998, 14.831000000000001, 14.72, 14.947000000000001, 14.876000000000001, 14.856, 14.763, 14.79, 14.631, 15.037, 15.004, 15.06, 15.129, 15.063, 14.951, 15.091999999999999, 15.04, 15.067, 14.99, 15.042, 15.046999999999999, 14.914, 15.063, 15.075, 14.996, 15.084999999999999, 15.466000000000001, 78.94800000000001, 15.23, 14.788, 15.058, 14.893, 14.704, 15.185, 14.921999999999999, 15.074, 14.886999999999999, 15.048, 14.889, 14.914, 14.895999999999999, 14.972, 15.017000000000001, 14.956000000000001, 14.92, 15.023, 14.73, 14.968, 14.793000000000001],
  "Optimizer durations [ms]": [20.041, 17.966, 17.926, 17.394, 17.576, 17.385, 81.365, 17.797, 17.044, 17.306, 17.178, 17.144, 17.307, 16.87, 17.154, 17.317, 17.207, 17.462, 17.324, 17.284, 17.14, 17.03, 17.101, 17.167, 18.439, 17.578, 17.214, 17.129, 17.087, 16.934, 17.271, 17.264, 17.25, 17.045, 17.048, 16.819, 17.259, 17.266, 17.419, 17.427, 17.298, 17.304, 17.337, 17.296, 17.281, 17.276, 17.327, 17.399, 17.237, 17.348, 17.313, 17.34, 17.437, 18.103, 81.592, 17.714, 17.108, 17.355, 17.141, 16.907, 17.554, 17.229, 17.426, 17.177, 17.375, 17.213, 17.3, 17.376, 17.215, 17.246, 17.402, 17.194, 17.224, 16.972, 17.217, 17.136],
  "Optimizer iterations": 76,
  "Qubits": 3,
  "Total Algorithm duration [s]": 1.446,
  "Total Classic duration [s]": 0.17644500000000019,
  "Total Quantum duration [s]": 1.2695549999999998,
  "Expectation Value": -2.0,
  "Optimal Expectation Value": -2.0,
  "Optimizer params": [0.4602420751303612, 0.7660775008306807, 0.25907974191993977, 0.5435443441228415, 0.4470434893181549, 0.8804123886416595],
  "QPU": "9000001",
  "Problem": "MCP",
  "Size": 3,
  "P": 3,
  "Shots": 4096
}