{
  "Circuit execution durations [ms]": [31454.541206359863, 31884.355783462524, 31743.085145950317, 31900.643825531006, 31849.40791130066, 31946.491718292236, 32176.663398742676, 32156.575918197632, 32471.52614593506, 32166.653871536255, 32481.712341308594, 32360.374450683594, 31980.535984039307, 32414.01219367981, 32596.611976623535, 32083.94432067871, 32293.315887451172, 32335.427284240723, 32767.832279205322, 32259.319305419922, 32031.7862033844, 31880.305290222168, 31846.91095352173, 31561.92684173584, 31845.251321792603, 31816.53380393982, 32171.15592956543, 31970.52502632141, 31854.538440704346, 32311.033725738525, 31754.08983230591, 32306.259393692017, 32067.918300628662, 32251.508474349976, 32225.781679153442, 31907.554388046265, 32019.2449092865, 31918.63989830017, 31932.671785354614, 32112.19573020935, 32143.259286880493, 32094.629526138306, 32707.784175872803, 32291.27550125122, 32325.421810150146, 32464.08486366272, 32255.52272796631, 31952.214241027832, 32099.107265472412, 32072.962522506714, 32682.361364364624, 31675.4469871521, 32021.27480506897, 31519.177436828613, 31671.68617248535, 31446.086645126343, 31816.929817199707, 32033.960342407227, 31973.82354736328, 31736.942529678345, 31427.542686462402, 31906.9766998291, 32020.08295059204, 31978.466510772705, 31796.871662139893, 31919.36469078064, 32274.855852127075, 32384.132146835327, 31958.70065689087, 32174.214363098145, 32518.704891204834, 32226.967573165894, 32304.369926452637, 33141.94655418396, 33081.32767677307, 32134.44972038269, 31797.220945358276, 31957.16881752014, 31707.553148269653, 31994.990825653076, 31408.69164466858, 32205.307245254517, 31638.458490371704, 31922.68466949463, 31809.446573257446, 31849.0149974823, 32102.654457092285, 31849.61771965027, 32265.949010849],
  "Depth": 344.0,
  "Expectation Value": -1.79248046875,
  "Optimal Expectation Value": -2.0,
  "Optimizer durations [ms]": [47787.85, 48224.233, 48071.184, 48318.399, 48257.16, 48310.045, 48606.208, 48623.815, 48890.698, 48567.893, 48875.813, 48707.146, 48329.561, 48758.651, 48980.341, 48373.632, 48673.516, 48690.231, 49215.035, 48588.317, 48460.497, 48263.3, 48152.235, 47948.433, 48265.195, 48128.363, 48539.107, 48330.752, 48234.482, 48704.464, 48165.826, 48645.764, 48425.913, 48612.254, 48600.005, 48301.334, 48345.868, 48250.602, 48296.333, 48457.677, 48521.905, 48499.868, 49076.89, 48655.346, 48621.006, 48812.669, 48646.684, 48275.755, 48425.971, 48439.16, 48946.7, 48045.244, 48355.675, 47826.945, 48082.406, 47771.223, 48205.124, 48448.755, 48313.971, 48094.027, 47757.918, 48243.77, 48379.844, 48297.649, 48152.44, 48295.612, 48684.576, 48765.702, 48327.287, 48494.535, 48953.639, 48569.2, 48618.967, 49528.174, 49479.773, 48511.401, 48217.541, 48334.034, 47979.289, 48328.699, 47727.377, 48573.582, 48053.403, 48303.9, 48288.624, 48351.272, 48530.298, 48326.346, 48638.276],
  "Optimizer iterations": 89,
  "Optimizer params": [0.9704565171755132, 0.6711737779778746, 0.7255526301267808, 0.2458713041360571, 0.8601500624301734, 0.6483692727990723],
  "P": 3,
  "Problem": "MIS",
  "QJob durations [ms]": [47739.267349243164, 48176.108837127686, 48023.87976646423, 48270.69187164307, 48209.22636985779, 48261.17825508118, 48559.07082557678, 48575.26922225952, 48842.55003929138, 48520.24006843567, 48824.4092464447, 48659.21187400818, 48280.90524673462, 48710.26945114136, 48932.021141052246, 48325.552463531494, 48626.35660171509, 48642.005443573, 49166.92543029785, 48539.98017311096, 48412.395000457764, 48215.266942977905, 48103.66153717041, 47899.69992637634, 48217.20623970032, 48080.318212509155, 48489.893674850464, 48282.08041191101, 48185.94551086426, 48656.35275840759, 48065.39225578308, 48597.49436378479, 48377.26664543152, 48563.9066696167, 48551.24044418335, 48253.20744514465, 48297.412633895874, 48202.98647880554, 48248.213052749634, 48409.84320640564, 48473.36673736572, 48400.00224113464, 49028.308629989624, 48606.83035850525, 48572.935819625854, 48765.03586769104, 48597.30267524719, 48227.62584686279, 48378.24273109436, 48390.789270401, 48899.09291267395, 47997.35879898071, 48308.57515335083, 47778.70988845825, 48034.37423706055, 47722.98288345337, 48156.31008148193, 48400.893688201904, 48266.130208969116, 48045.692443847656, 47709.95759963989, 48195.12963294983, 48331.90584182739, 48250.47254562378, 48104.74681854248, 48246.22678756714, 48636.635303497314, 48717.25368499756, 48278.89394760132, 48439.895153045654, 48904.39414978027, 48520.702838897705, 48570.29461860657, 49479.91895675659, 49431.32829666138, 48462.93807029724, 48169.43645477295, 48231.770515441895, 47930.675983428955, 48280.47060966492, 47679.44860458374, 48525.23684501648, 48005.268573760986, 48256.22820854187, 48240.05937576294, 48302.74677276611, 48482.425689697266, 48278.446674346924, 48591.0701751709],
  "QPU": "6010013",
  "Qubits": 9,
  "Queue durations [ms]": [0.0, 0.0, 0.0, 0.0, 0.0, 0.0, 0.0, 0.0, 0.0, 0.0, 0.0, 0.0, 0.0, 0.0, 0.0, 0.0, 0.0, 0.0, 0.0, 0.0, 0.0, 0.0, 0.0, 0.0, 0.0, 0.0, 0.0, 0.0, 0.0, 0.0, 0.0, 0.0, 0.0, 0.0, 0.0, 0.0, 0.0, 0.0, 0.0, 0.0, 0.0, 0.0, 0.0, 0.0, 0.0, 0.0, 0.0, 0.0, 0.0, 0.0, 0.0, 0.0, 0.0, 0.0, 0.0, 0.0, 0.0, 0.0, 0.0, 0.0, 0.0, 0.0, 0.0, 0.0, 0.0, 0.0, 0.0, 0.0, 0.0, 0.0, 0.0, 0.0, 0.0, 0.0, 0.0, 0.0, 0.0, 0.0, 0.0, 0.0, 0.0, 0.0, 0.0, 0.0, 0.0, 0.0, 0.0, 0.0, 0.0],
  "Shots": 4096,
  "Size": 6,
  "Total Algorithm duration [s]": 4310.756,
  "Total Classic duration [s]": 4.456557708740547,
  "Total Quantum duration [s]": 4306.29944229126
}
