{
  "Circuit execution durations [ms]": [74.11932945251465, 63.87782096862793, 119.89665031433105, 69.26417350769043, 62.33072280883789, 64.7733211517334, 67.1987533569336, 62.40129470825195, 63.90094757080078, 65.3541088104248, 69.92602348327637, 62.783002853393555, 63.81487846374512, 68.68457794189453, 67.57903099060059, 61.37895584106445, 64.82672691345215, 67.96741485595703, 62.07680702209473, 73.4708309173584, 65.40608406066895, 62.134742736816406, 63.23671340942383, 124.10521507263184, 65.0031566619873, 62.70122528076172, 69.31924819946289, 125.29826164245605, 58.524131774902344, 67.02709197998047, 68.22443008422852, 118.15500259399414, 64.51869010925293, 65.31429290771484, 62.300920486450195, 119.55523490905762, 72.01313972473145, 76.44224166870117, 64.9118423461914, 66.09678268432617, 64.75090980529785, 63.02165985107422, 69.47803497314453, 61.36202812194824, 66.1613941192627, 83.75191688537598, 68.3290958404541, 65.5066967010498, 72.01194763183594, 66.24865531921387, 62.86048889160156, 65.91916084289551, 64.14437294006348, 67.1837329864502, 65.88292121887207, 64.50128555297852, 62.9575252532959, 71.72799110412598, 61.63454055786133, 64.7881031036377, 62.38412857055664, 67.97504425048828, 67.09694862365723, 64.36038017272949, 125.10466575622559, 61.95569038391113, 61.20443344116211, 71.0296630859375, 115.24605751037598, 71.69556617736816, 66.06245040893555, 63.62557411193848, 125.11944770812988, 65.42825698852539, 66.53046607971191, 66.77818298339844, 66.15805625915527, 68.84980201721191, 63.701629638671875, 62.966108322143555, 69.22793388366699, 61.6450309753418, 70.96362113952637, 66.45750999450684, 66.05005264282227, 67.28863716125488, 65.58823585510254, 63.739776611328125, 73.72403144836426, 66.3154125213623, 64.01658058166504, 63.55905532836914],
  "Depth": 95.0,
  "Expectation Value": -5.1240234375,
  "Optimal Expectation Value": -6.0,
  "Optimizer durations [ms]": [404.102, 396.207, 397.435, 347.451, 394.55, 398.311, 413.888, 339.633, 393.789, 396.647, 403.91, 341.735, 388.604, 402.786, 403.629, 345.076, 395.349, 403.889, 396.632, 350.959, 389.998, 396.506, 395.124, 400.921, 351.95, 389.145, 396.804, 409.199, 334.943, 396.133, 401.973, 407.636, 346.51, 396.7, 395.538, 401.385, 354.829, 420.876, 403.094, 407.498, 345.557, 397.72, 417.526, 413.788, 345.514, 426.547, 411.267, 419.422, 362.091, 394.281, 395.922, 408.247, 344.235, 395.913, 396.922, 401.206, 340.998, 394.432, 396.793, 401.354, 347.826, 395.502, 394.707, 401.011, 403.865, 340.938, 397.69, 407.075, 401.507, 356.675, 398.951, 401.346, 405.965, 342.464, 403.113, 394.574, 407.538, 345.35, 396.029, 401.007, 406.726, 346.055, 405.817, 398.483, 400.375, 346.86, 393.123, 392.998, 406.084, 368.742, 394.437, 400.754],
  "Optimizer iterations": 92,
  "Optimizer params": [0.9710825022357351, 0.7570473591834829, 0.2839405340080329, 0.819070935329903, 0.8881044144698211, 0.1341756639263409],
  "P": 3,
  "Problem": "MCP",
  "QJob durations [ms]": [147.24206924438477, 138.59295845031738, 191.92934036254883, 141.01171493530273, 136.50226593017578, 141.21294021606445, 199.60951805114746, 137.38369941711426, 137.76898384094238, 137.10260391235352, 199.7380256652832, 135.18595695495605, 137.8037929534912, 146.83103561401367, 196.93374633789063, 135.75983047485352, 138.78297805786133, 140.5017375946045, 136.74092292785645, 146.38996124267578, 139.16254043579102, 139.36924934387207, 137.98093795776367, 198.31085205078125, 139.12320137023926, 134.60922241210938, 142.28105545043945, 198.90332221984863, 132.04097747802734, 142.20309257507324, 140.1803493499756, 196.70462608337402, 137.06350326538086, 138.40055465698242, 139.01472091674805, 194.71120834350586, 149.84536170959473, 152.61340141296387, 139.5862102508545, 202.03232765197754, 138.34571838378906, 136.62099838256836, 143.39756965637207, 195.1310634613037, 140.1069164276123, 159.52587127685547, 147.66693115234375, 206.44736289978027, 145.1258659362793, 140.5200958251953, 139.4650936126709, 139.10698890686035, 139.94932174682617, 142.4880027770996, 139.08028602600098, 139.0094757080078, 135.4503631591797, 143.74518394470215, 139.6009922027588, 141.5245532989502, 138.35978507995605, 144.23203468322754, 139.02926445007324, 139.3451690673828, 198.19307327270508, 137.24493980407715, 134.53221321105957, 144.669771194458, 191.11299514770508, 149.07503128051758, 141.08705520629883, 140.9156322479248, 197.38531112670898, 136.55686378479004, 144.04940605163574, 138.61560821533203, 202.39996910095215, 141.00337028503418, 139.4212245941162, 141.49808883666992, 198.90570640563965, 137.56036758422852, 143.39184761047363, 139.49918746948242, 195.1606273651123, 141.0369873046875, 140.56777954101563, 135.5297565460205, 147.4006175994873, 141.03198051452637, 137.00032234191895, 141.67094230651855],
  "QPU": "300002E",
  "Qubits": 5,
  "Queue durations [ms]": [0.0, 0.0, 0.0, 0.0, 0.0, 0.0, 0.0, 0.0, 0.0, 0.0, 0.0, 0.0, 0.0, 0.0, 0.0, 0.0, 0.0, 0.0, 0.0, 0.0, 0.0, 0.0, 0.0, 0.0, 0.0, 0.0, 0.0, 0.0, 0.0, 0.0, 0.0, 0.0, 0.0, 0.0, 0.0, 0.0, 0.0, 0.0, 0.0, 0.0, 0.0, 0.0, 0.0, 0.0, 0.0, 0.0, 0.0, 0.0, 0.0, 0.0, 0.0, 0.0, 0.0, 0.0, 0.0, 0.0, 0.0, 0.0, 0.0, 0.0, 0.0, 0.0, 0.0, 0.0, 0.0, 0.0, 0.0, 0.0, 0.0, 0.0, 0.0, 0.0, 0.0, 0.0, 0.0, 0.0, 0.0, 0.0, 0.0, 0.0, 0.0, 0.0, 0.0, 0.0, 0.0, 0.0, 0.0, 0.0, 0.0, 0.0, 0.0, 0.0],
  "Shots": 4096,
  "Size": 5,
  "Total Algorithm duration [s]": 35.724,
  "Total Classic duration [s]": 21.817047618865963,
  "Total Quantum duration [s]": 13.906952381134033
}
