{
  "Circuit execution durations [ms]": [65.54174423217773, 64.59856033325195, 58.9299201965332, 69.26918029785156, 65.34457206726074, 118.09444427490234, 58.58659744262695, 62.957048416137695, 64.90635871887207, 118.96967887878418, 59.28468704223633, 62.54839897155762, 58.72082710266113, 117.50292778015137, 60.57548522949219, 64.69917297363281, 62.11972236633301, 116.24956130981445, 61.37371063232422, 63.90261650085449, 60.88519096374512, 62.548160552978516, 59.15713310241699, 59.39650535583496, 62.66522407531738, 68.60017776489258, 61.678171157836914, 64.77785110473633, 64.96238708496094, 60.78195571899414, 62.46376037597656, 65.80257415771484, 64.05043601989746, 60.60957908630371, 62.70313262939453, 63.57884407043457, 64.2242431640625, 64.85700607299805, 64.14508819580078, 69.27061080932617, 62.628746032714844, 65.69027900695801, 62.582969665527344, 61.769962310791016, 66.60079956054688, 58.56943130493164, 120.22590637207031, 58.63237380981445, 62.343597412109375, 65.65642356872559, 121.29950523376465, 65.15288352966309, 60.24456024169922, 65.98162651062012, 120.46551704406738, 62.26921081542969, 59.44085121154785, 61.65599822998047, 60.7602596282959, 59.680938720703125, 63.30537796020508, 65.37699699401855, 62.86263465881348, 65.94324111938477, 65.7198429107666, 67.91090965270996, 66.35189056396484, 70.44267654418945, 64.19610977172852, 64.35894966125488, 62.311410903930664, 63.236236572265625, 72.4327564239502, 69.60511207580566, 61.022043228149414, 62.410831451416016, 58.27617645263672, 65.56582450866699, 58.66360664367676, 66.47133827209473],
  "Depth": 95.0,
  "Expectation Value": -5.31640625,
  "Optimal Expectation Value": -6.0,
  "Optimizer durations [ms]": [393.438, 341.243, 375.524, 392.339, 390.886, 393.977, 330.248, 386.161, 392.822, 390.605, 334.234, 387.629, 381.348, 388.798, 331.49, 384.111, 384.609, 389.491, 332.515, 380.56, 382.42, 384.189, 333.918, 379.59, 384.313, 399.062, 334.854, 382.716, 390.492, 388.926, 336.736, 385.191, 410.293, 384.499, 334.051, 382.597, 384.148, 387.819, 335.73, 384.926, 385.459, 392.191, 333.575, 378.155, 389.669, 380.921, 393.463, 331.94, 381.436, 391.79, 391.654, 339.429, 382.285, 391.077, 393.392, 334.368, 382.609, 386.038, 385.415, 336.49, 383.461, 389.621, 393.12, 340.096, 383.58, 387.111, 392.713, 354.396, 387.438, 383.931, 388.802, 335.075, 389.529, 390.436, 387.14, 335.021, 374.478, 384.806, 381.767, 340.992],
  "Optimizer iterations": 80,
  "Optimizer params": [0.9801881516405296, 0.9606753746411152, 0.6164983565282444, 0.49354489389837025, 0.9580951151130018, 0.0922091180381445],
  "P": 3,
  "Problem": "MCP",
  "QJob durations [ms]": [136.86633110046387, 136.06500625610352, 131.0710906982422, 142.06647872924805, 139.02640342712402, 192.52896308898926, 129.56595420837402, 136.7340087890625, 137.4988555908203, 189.32127952575684, 133.35013389587402, 137.33649253845215, 130.14554977416992, 189.1489028930664, 129.8351287841797, 136.5354061126709, 133.49390029907227, 189.1171932220459, 132.58600234985352, 133.6369514465332, 133.05282592773438, 184.77392196655273, 132.35950469970703, 132.45558738708496, 134.05942916870117, 196.15936279296875, 135.27750968933105, 136.63792610168457, 136.74473762512207, 188.40503692626953, 135.908842086792, 140.3980255126953, 136.8863582611084, 131.46448135375977, 133.74590873718262, 136.70825958251953, 134.52625274658203, 137.3732089996338, 135.894775390625, 139.3141746520996, 136.2020969390869, 138.9448642730713, 134.10210609436035, 134.02032852172852, 140.35820960998535, 131.15930557250977, 192.77501106262207, 131.61849975585938, 134.14621353149414, 138.24987411499023, 191.5431022644043, 137.40301132202148, 133.67271423339844, 140.28215408325195, 192.54541397094727, 134.37938690185547, 131.97708129882813, 134.92798805236816, 185.2412223815918, 131.6969394683838, 136.06786727905273, 139.98651504516602, 189.62502479553223, 139.5113468170166, 136.40904426574707, 139.59336280822754, 192.7776336669922, 141.98994636535645, 136.41119003295898, 136.2764835357666, 187.3469352722168, 134.99784469604492, 144.95253562927246, 141.8004035949707, 134.25779342651367, 134.3390941619873, 128.4031867980957, 135.0705623626709, 129.7290325164795, 140.56086540222168],
  "QPU": "300002E",
  "Qubits": 5,
  "Queue durations [ms]": [0.0, 0.0, 0.0, 0.0, 0.0, 0.0, 0.0, 0.0, 0.0, 0.0, 0.0, 0.0, 0.0, 0.0, 0.0, 0.0, 0.0, 0.0, 0.0, 0.0, 0.0, 0.0, 0.0, 0.0, 0.0, 0.0, 0.0, 0.0, 0.0, 0.0, 0.0, 0.0, 0.0, 0.0, 0.0, 0.0, 0.0, 0.0, 0.0, 0.0, 0.0, 0.0, 0.0, 0.0, 0.0, 0.0, 0.0, 0.0, 0.0, 0.0, 0.0, 0.0, 0.0, 0.0, 0.0, 0.0, 0.0, 0.0, 0.0, 0.0, 0.0, 0.0, 0.0, 0.0, 0.0, 0.0, 0.0, 0.0, 0.0, 0.0, 0.0, 0.0, 0.0, 0.0, 0.0, 0.0, 0.0, 0.0, 0.0, 0.0],
  "Shots": 4096,
  "Size": 5,
  "Total Algorithm duration [s]": 29.953,
  "Total Classic duration [s]": 18.339571645736694,
  "Total Quantum duration [s]": 11.613428354263306
}
