{
  "Circuit execution durations [ms]": [10.8038573525846, 10.373809840530157, 10.3226900100708, 10.250350460410118, 10.992718394845724, 10.633779689669609, 10.256448294967413, 10.39647776633501, 10.315216612070799, 10.629429016262293, 10.734341107308865, 10.618642903864384, 10.499608237296343, 10.363909415900707, 17.27666798979044, 10.410694871097803, 16.633877530694008, 10.152819566428661, 16.53873221948743, 10.105418041348457, 10.27074595913291, 10.37908811122179, 16.479235608130693, 10.100601240992546, 16.48362400010228, 10.291872080415487, 10.201225988566875, 16.664803493767977, 16.671397257596254, 10.117486584931612, 10.057837702333927, 10.993365198373795, 10.253745596855879, 10.963786859065294, 10.311610996723175, 10.203306563198566, 10.139610152691603, 10.499135591089725, 10.171874426305294, 10.25087246671319, 10.371659882366657, 10.035280138254166, 16.9007433578372, 10.25481428951025, 10.151424910873175, 12.617989908903837, 10.621021501719952, 16.6702582500875, 10.383754502981901, 10.559084825217724, 10.903515387326479, 16.380188520997763, 10.428458452224731, 10.771270375698805, 10.126686189323664, 10.185001883655787, 10.596168227493763, 10.136352851986885, 10.705981403589249, 9.980382863432169, 10.374717880040407, 16.724754590541124, 10.13530744239688, 10.201049968600273, 10.255296714603901, 10.645058937370777, 10.305929463356733, 10.526473168283701, 11.259602848440409, 10.160338133573532, 10.072634555399418, 10.275350883603096, 10.103051085025072, 10.283788200467825, 10.087947361171246, 10.40490623563528, 10.174422524869442, 10.35731565207243, 10.213615372776985, 12.836852576583624, 10.264395270496607, 10.756087023764849, 16.50478830561042, 10.116401128470898, 16.47704327479005, 16.72165235504508, 10.011300910264254, 10.007418226450682, 10.341778863221407, 22.80085813254118, 10.385198052972555, 10.170876048505306, 10.051934979856014, 10.164785198867321, 11.294847819954157, 16.348701436072588, 10.095267556607723, 10.430497117340565, 16.75162184983492, 10.15486242249608, 10.533650871366262, 19.972018897533417, 10.229578707367182, 10.378249920904636, 10.020765475928783, 10.202338453382254, 23.165914230048656, 10.516993701457977, 16.913103871047497, 10.016113054007292, 17.474159132689238, 16.315604094415903, 16.42758771777153, 10.1866046898067, 10.157402604818344, 10.114798322319984, 10.182495228946209, 16.76154090091586, 10.054936166852713, 10.51680976524949, 10.226579383015633, 16.74320036545396, 10.182014666497707, 10.117111261934042, 10.082632768899202, 16.621616203337908, 10.239253286272287, 9.95690980926156, 10.092479176819324, 10.179557371884584, 10.393019299954176, 10.311249643564224, 10.087782051414251, 9.980795439332724, 10.276463814079762, 16.496438067406416, 10.277912020683289, 10.155839379876852, 10.827780235558748, 10.169065557420254, 11.183868627995253, 10.053667705506086, 10.097750928252935, 16.433107666671276, 10.251012165099382, 10.07798733189702, 9.974165819585323, 10.190185625106096, 9.948380291461945, 10.780011769384146, 10.301061440259218, 10.126063134521246, 16.474907286465168, 10.209678672254086, 10.204173624515533, 10.246276389807463, 10.939236264675856, 10.249924845993519, 10.20052982494235, 10.278677567839622, 10.058832354843616, 10.03726664930582, 16.843305435031652, 10.184808634221554, 9.989821817725897, 10.18428709357977, 10.410466697067022, 9.976555593311787, 10.30997233465314, 10.137578472495079, 16.54080208390951, 10.290884878486395, 9.9957468919456, 10.095521807670593, 16.349173616617918, 10.409510228782892, 9.99760301783681, 10.412360075861216, 10.353357996791601, 10.202250443398952, 10.275748558342457, 11.03129843249917, 16.8157615698874, 10.314272250980139, 10.363669600337744, 16.477431170642376, 10.221790056675673, 10.106610599905252, 10.203907266259193, 10.29304787516594, 9.859420359134674, 10.282429400831461, 10.162550956010818, 10.411072056740522, 16.654892824590206, 10.509940329939127, 16.618085093796253, 10.139665566384792, 10.075110010802746, 10.133600328117609, 10.209910571575165, 16.840120311826468, 10.8424611389637, 10.179413016885519, 10.080641601234674, 16.481019090861082, 10.499853175133467, 16.6052863933146, 16.298642847687006, 10.205170139670372, 23.118949495255947, 10.411757975816727, 10.404699482023716, 17.08166766911745, 10.137345176190138, 10.239362716674805, 11.094628367573023, 10.28586970642209, 16.324772965162992, 16.752530820667744, 10.24009007960558, 16.688317991793156, 10.902025736868382, 10.064840782433748, 16.765540465712547, 10.089968331158161, 10.37832535803318, 10.427709203213453, 10.140099097043276, 10.002207942306995, 16.634512692689896, 11.271914467215538, 10.191516485065222, 10.059478227049112, 18.21779180318117, 10.18674811348319, 10.050719603896141, 10.30357601121068, 10.285322554409504, 16.556316055357456, 10.147844441235065, 10.325315408408642, 10.112805757671595, 10.132963303476572, 10.087577626109123, 10.378045029938221, 16.607305966317654, 10.397147852927446, 10.425103828310966, 16.957906540483236, 23.231253027915955, 16.33046707138419, 10.221435222774744, 10.11580741032958, 16.57982962206006, 10.0832125172019, 10.056907776743174, 10.059090796858072, 10.114924516528845, 10.072853416204453, 10.447563137859106, 10.224010795354843, 16.410193871706724, 10.22778870537877, 10.314129292964935, 16.16463717073202, 16.608751844614744, 17.047713045030832, 23.038637824356556, 10.453893337398767, 10.047637391835451, 10.25623083114624, 10.058084968477488, 10.112453252077103, 10.00294042751193, 10.043189860880375, 10.515189729630947, 16.576625872403383, 10.457430500537157, 10.366516187787056, 10.191384237259626, 16.64964249357581, 10.069149546325207, 22.783749736845493, 10.66991500556469, 11.122322175651789, 10.230811312794685, 16.548674553632736, 10.161547921597958, 17.89703592658043, 10.192872025072575, 16.809853725135326, 10.344197507947683, 10.137142147868872, 10.318379383534193, 10.278832633048296, 16.472212970256805, 10.23947587236762, 10.18061675131321, 10.26763767004013, 9.953395463526249, 23.168301209807396, 10.294007137417793, 10.460463352501392, 10.01921622082591, 10.247561614960432, 9.99153545126319, 10.303504299372435, 10.237566195428371, 10.080032050609589, 10.712406132370234, 9.996927343308926, 16.411312855780125, 16.504366882145405, 10.268205311149359, 10.048558935523033, 10.059175081551075, 10.097865480929613, 10.498466435819864, 9.990383870899677, 10.176202282309532, 10.670684278011322, 10.23754570633173, 10.142926126718521, 10.255537461489439, 23.194797337055206, 10.295366402715445],
  "Depth": 12.5,
  "Expectation Value": -4.25830078125,
  "Optimal Expectation Value": -6.026674270629883,
  "Optimizer durations [ms]": [21461.337, 23272.879, 83637.152, 22485.844, 21891.76, 78029.046, 77032.768, 24580.439, 22363.7, 22645.136, 83910.996, 22967.208, 22630.74, 82986.452, 20419.129, 22640.998, 61584.234, 22777.068, 77710.509, 49375.415, 110494.837, 22927.035, 22718.721, 48766.693, 20691.234, 82604.635, 38355.141, 22596.197, 22435.301, 22945.509, 22537.912, 22459.883, 22665.171, 23168.047, 26813.915, 83181.815, 21733.355, 33477.563, 27557.034, 22438.502, 76784.198, 22340.856, 22913.447, 22065.11, 94450.124, 22391.324, 28913.568, 34526.414, 32547.462, 98080.372, 22662.404, 21924.351, 49079.496, 21766.965, 22938.94, 22070.125, 110587.147, 31493.584, 54693.535, 21306.886, 103626.725, 22618.263, 26447.419, 87912.197, 92069.886, 27697.223, 77925.388, 25018.044, 22492.683, 21161.454, 83151.903, 21545.498, 20925.775, 75597.414, 22565.724, 24679.489, 79205.429, 22246.552, 20968.377, 22726.936, 20851.547, 34683.662, 42564.495, 56452.361, 22541.982, 79515.642, 21972.215, 21139.676, 22984.105, 90706.407, 32277.028, 84772.165, 34500.06, 22766.66, 100109.399, 42450.922, 43840.334, 26248.301, 101193.247, 21353.501, 86134.977, 24719.833, 63031.358, 22284.289, 20752.444, 20904.172, 76497.877, 23099.759, 21180.37, 19953.562, 49416.438, 20542.887, 22403.391, 19772.66, 19967.705, 76578.948, 93226.987, 22590.554, 22005.211, 22131.696, 56892.149, 22561.599, 20985.52, 81237.235, 23022.184, 117594.337, 23148.571, 30048.934, 26893.548, 20853.618, 21785.771, 83069.179, 22022.635, 27232.166, 21639.701, 82352.168, 21637.644, 82627.799, 30068.391, 21985.301, 94718.772, 22691.635, 22750.1, 22679.712, 100349.518, 20529.437, 22516.913, 82476.04, 21540.599, 22918.677, 22232.113, 83006.059, 21670.287, 22600.816, 87339.643, 20970.172, 49115.97, 22046.957, 21378.262, 56269.392, 22332.408, 21248.7, 22379.114, 49236.849, 49058.272, 83161.613, 22467.492, 51225.134, 98708.458, 22381.71, 71822.029, 21379.96, 20999.253, 21824.297, 82555.913, 22487.718, 22659.403, 145213.541, 23502.835, 21689.729, 21657.386, 77475.79, 22803.625, 84257.545, 22498.493, 21891.158, 21304.09, 77268.478, 21850.077, 21473.202, 78082.621, 88846.947, 21917.357, 22035.709, 21025.142, 71525.402, 27173.456, 22543.288, 72317.79, 21032.42, 22438.543, 82550.911, 22078.947, 86232.281, 28199.656, 21440.751, 32469.403, 145939.574, 88160.075, 23808.124, 22804.843, 20541.908, 32578.457, 28869.358, 22862.734, 21988.338, 50095.248, 21299.756, 21417.878, 22488.517, 77642.002, 22640.258, 21997.409, 77478.142, 23560.241, 83763.775, 43760.889, 23155.749, 78096.625, 20878.234, 31977.804, 81630.967, 87801.616, 23381.568, 34738.235, 21871.213, 128317.749, 50309.946, 29124.189, 76291.916, 40987.143, 83199.738, 22387.976, 20246.233, 78080.062, 19677.052, 23419.117, 33316.278, 21472.739, 22405.348, 23302.731, 82013.097, 21537.408, 72449.626, 23245.318, 39461.652, 83794.32, 21689.612, 148417.703, 49092.092, 22342.213, 22113.063, 22068.88, 73351.87, 22040.861, 22074.764, 21456.171, 77059.413, 21779.262, 51073.553, 49089.622, 23233.33, 44088.157, 49807.141, 20705.558, 83246.209, 23278.855, 22258.545, 45331.742, 50199.863, 22950.232, 20668.324, 38380.012, 21836.366, 21645.279, 73403.027, 21350.479, 23031.015, 77774.641, 22425.861, 21450.89, 22771.118, 22341.178, 77297.703, 76817.522, 28925.057, 26307.529, 49298.71, 21597.135, 21838.637, 116604.949, 22662.682, 22381.805, 20438.944, 143455.745, 23769.088, 21837.594, 77054.019, 22118.803, 21084.691, 22332.889, 21399.046, 82000.025, 82040.087, 21946.098, 22823.583, 77497.816, 21991.157, 77973.936, 49967.786, 76740.971, 21789.263, 21257.971, 75873.328, 28353.468, 22040.196, 20716.397],
  "Optimizer iterations": 327,
  "Optimizer params": [0.1631830675247501, 0.48124400505825, 0.993749929001224, 0.5672290816694693, 0.1104387463448781, 0.019625348999613497, 0.5922437777466475, 0.11162985220039062, 0.36302601738169255, 0.9641568602012731, 0.9080384826219013, 0.8042484641214647, 0.4791942498362863, 0.5174690748902661, 0.6109711345744949, 0.7185165986414402, 0.799600386384427, 0.8883626340802531, 0.7287042770457823, 0.03751936913269385],
  "P": 0,
  "Problem": "IC",
  "QJob durations [ms]": [10672.794818878174, 11549.939632415771, 41763.5612487793, 11185.98222732544, 10891.173839569092, 38931.73027038574, 38457.31592178345, 12233.782768249512, 11126.847267150879, 11265.480518341064, 41900.938510894775, 11427.183628082275, 11232.035160064697, 41436.4070892334, 10154.979228973389, 11267.199993133545, 30706.048011779785, 11333.422183990479, 38799.15523529053, 24602.59437561035, 55193.153381347656, 11409.589290618896, 11305.33742904663, 24328.74298095703, 10290.78483581543, 41247.6110458374, 19121.45471572876, 11213.383674621582, 11162.168502807617, 11417.416095733643, 11182.904243469238, 11175.291538238525, 11278.138637542725, 11528.900623321533, 13324.029922485352, 41534.2230796814, 10814.106464385986, 16680.991649627686, 13724.729061126709, 11164.200782775879, 38337.8381729126, 11086.56930923462, 11400.003910064697, 10979.829788208008, 47170.95375061035, 11110.237121582031, 14402.496337890625, 17208.616256713867, 16185.945510864258, 48984.30633544922, 11274.815082550049, 10907.552242279053, 24485.258102416992, 10827.413082122803, 11415.59362411499, 10977.651596069336, 55209.801197052, 15691.24698638916, 27289.77680206299, 10569.601058959961, 51761.02066040039, 11252.379894256592, 13169.418334960938, 43871.62113189697, 45980.610847473145, 13791.815280914307, 38907.18746185303, 12455.610275268555, 11191.277503967285, 10527.000904083252, 41494.81391906738, 10718.99938583374, 10407.777786254883, 37743.27754974365, 11198.59266281128, 12283.279418945313, 39546.89121246338, 11042.240619659424, 10428.964138031006, 11308.752059936523, 10370.316505432129, 17284.95693206787, 21225.318908691406, 28170.0439453125, 11215.466022491455, 39674.45087432861, 10930.22871017456, 10512.399196624756, 11405.799388885498, 45298.17771911621, 16082.831382751465, 42329.09822463989, 17167.173385620117, 11327.837944030762, 49999.56130981445, 21172.837257385254, 21864.86053466797, 13069.620132446289, 50540.66848754883, 10590.266227722168, 43012.70294189453, 12305.742263793945, 31459.654808044434, 11055.946350097656, 10320.75548171997, 10396.495342254639, 38165.60649871826, 11493.070602416992, 10532.422542572021, 9919.319152832031, 24653.384685516357, 10217.844009399414, 11146.672248840332, 9829.155921936035, 9895.457744598389, 38231.03618621826, 46559.65709686279, 11211.292743682861, 10948.045253753662, 11012.068748474121, 28391.045570373535, 11196.2308883667, 10436.509609222412, 40563.2848739624, 11455.095767974854, 58742.21420288086, 11519.45972442627, 14968.616962432861, 13366.405010223389, 10373.315334320068, 10835.465431213379, 41479.60329055786, 10930.16242980957, 13561.121463775635, 10765.013694763184, 41093.13201904297, 10764.566421508789, 41261.319637298584, 14978.91616821289, 10936.880111694336, 47302.9260635376, 11290.44246673584, 11324.685096740723, 11256.019592285156, 50117.76351928711, 10210.277080535889, 11172.163963317871, 41181.52332305908, 10714.835166931152, 11406.844139099121, 11030.274868011475, 41447.29709625244, 10779.62350845337, 11245.905876159668, 43616.11986160278, 10428.455829620361, 24504.392623901367, 10937.420845031738, 10634.293556213379, 28077.9972076416, 11111.987590789795, 10538.183212280273, 11133.779048919678, 24562.053203582764, 24443.74656677246, 41525.227546691895, 11180.207252502441, 25556.42795562744, 49299.848556518555, 11135.350227355957, 35857.84721374512, 10635.901927947998, 10415.925979614258, 10856.442928314209, 41224.84588623047, 11158.917903900146, 11276.5474319458, 72552.6065826416, 11695.518493652344, 10764.167785644531, 10772.84288406372, 38681.19525909424, 11346.011638641357, 42073.513984680176, 11193.245887756348, 10890.644550323486, 10567.153930664063, 38579.55265045166, 10870.68796157837, 10683.74490737915, 38958.720684051514, 44372.14279174805, 10905.38501739502, 10931.693077087402, 10455.0199508667, 35706.8510055542, 13533.89310836792, 11217.939853668213, 36105.46159744263, 10460.553646087646, 11166.536808013916, 41191.15924835205, 10986.156463623047, 43061.12861633301, 14011.802673339844, 10665.200233459473, 16180.757522583008, 72916.16439819336, 43999.92656707764, 11850.84056854248, 11346.99535369873, 10211.499214172363, 16233.516693115234, 14380.771160125732, 11376.246452331543, 10910.386085510254, 24991.581916809082, 10595.046043395996, 10655.601024627686, 11159.173965454102, 38768.30816268921, 11264.612674713135, 10915.283203125, 38682.83462524414, 11723.3304977417, 41825.6139755249, 21824.38373565674, 11521.197319030762, 38992.563247680664, 10383.529663085938, 15906.105995178223, 40760.19477844238, 43845.675468444824, 11607.282638549805, 17311.57159805298, 10882.130146026611, 64103.54423522949, 25068.295001983643, 14506.92367553711, 38087.87155151367, 20436.824798583984, 41544.13890838623, 11139.218807220459, 10070.79553604126, 38955.735206604004, 9784.173965454102, 11654.94966506958, 16603.419303894043, 10653.45287322998, 11146.530151367188, 11598.19507598877, 40921.406269073486, 10711.626052856445, 36169.50035095215, 11571.044921875, 19673.054695129395, 41841.63999557495, 10788.562774658203, 74155.95626831055, 24459.582328796387, 11113.413333892822, 11001.489162445068, 10949.971199035645, 36620.368003845215, 10964.563846588135, 10985.04638671875, 10644.185066223145, 38473.1183052063, 10834.950923919678, 25484.40980911255, 24487.0548248291, 11561.101913452148, 21987.513542175293, 24819.28062438965, 10296.396732330322, 41564.69249725342, 11584.469318389893, 11040.238380432129, 22612.311840057373, 25044.973373413086, 11388.120174407959, 10278.503894805908, 19134.750366210938, 10864.56823348999, 10767.445087432861, 36644.450187683105, 10614.887237548828, 11459.112167358398, 38799.007415771484, 11157.203197479248, 10669.057846069336, 11301.765441894531, 11117.630004882813, 38595.147132873535, 38355.422019958496, 14377.903938293457, 13102.378845214844, 24595.49617767334, 10744.382858276367, 10864.316463470459, 58246.69170379639, 11275.956153869629, 11104.148387908936, 10163.98286819458, 71672.98126220703, 11828.652381896973, 10834.54179763794, 38469.47526931763, 11005.199909210205, 10457.335472106934, 11112.083435058594, 10643.553733825684, 40943.016052246094, 40965.250968933105, 10916.20922088623, 11354.314804077148, 38691.823959350586, 10913.312911987305, 38928.316593170166, 24930.365085601807, 38285.22443771362, 10835.454940795898, 10572.264671325684, 37881.59275054932, 14095.100402832031, 10965.835571289063, 10303.252696990967],
  "QPU": "4010001",
  "Qubits": 5,
  "Queue durations [ms]": [848.5000133514404, 1384.4999969005585, 31824.500679969788, 1043.000042438507, 1942.4999952316284, 28241.500437259674, 1364.5000159740448, 871.5000152587891, 998.5000193119049, 1169.0000295639038, 31903.00014615059, 1773.4999656677246, 1327.4999856948853, 1152.5000035762787, 2281.999945640564, 1851.4999747276306, 14139.500349760056, 1420.0000166893005, 28113.50080370903, 1431.0000538825989, 14797.000169754028, 986.5000247955322, 1435.9999895095825, 938.0000233650208, 1652.999997138977, 917.4999892711639, 8230.999857187271, 1533.499926328659, 928.4999966621399, 1537.0000004768372, 1436.9999766349792, 3011.500060558319, 829.5000195503235, 1037.4999940395355, 1618.5000240802765, 33498.99983406067, 1194.9999928474426, 1131.9999992847443, 1233.000010251999, 1005.9999823570251, 915.5000150203705, 951.9999921321869, 1568.0000185966492, 1261.5000009536743, 37116.498947143555, 921.0000038146973, 1020.9999680519104, 1104.4999659061432, 1378.9999783039093, 1184.499979019165, 1006.0000121593475, 1085.5000019073486, 14261.500388383865, 801.9999861717224, 873.4999895095825, 872.4999725818634, 31524.50078725815, 3139.5000219345093, 14728.000283241272, 1338.5000228881836, 42605.499267578125, 976.0000109672546, 990.5000030994415, 34817.50130653381, 28118.500769138336, 1386.5000009536743, 29162.000000476837, 984.000027179718, 815.9999847412109, 1433.5000216960907, 32941.99913740158, 981.9999933242798, 1166.0000085830688, 26500.999450683594, 1592.9999947547913, 932.99999833107, 27405.99948167801, 870.9999918937683, 1643.500030040741, 1212.5000357627869, 846.0000157356262, 789.9999916553497, 2965.0000482797623, 757.500022649765, 839.9999737739563, 27694.00092959404, 1405.5000245571136, 1435.9999895095825, 996.0000216960907, 645.0000107288361, 1944.5000290870667, 30509.000778198242, 804.500013589859, 1941.9999718666077, 28887.99950480461, 12418.000221252441, 793.9999997615814, 924.9999821186066, 27960.99963784218, 891.0000026226044, 1611.0000014305115, 977.9999852180481, 14960.500419139862, 915.9999787807465, 975.5000174045563, 1499.4999766349792, 902.4999737739563, 1017.0000195503235, 826.4999985694885, 766.4999961853027, 14173.499584197998, 1301.5000224113464, 670.0000166893005, 1029.0000140666962, 787.4999940395355, 2430.999994277954, 28086.500078439713, 965.9999907016754, 785.999983549118, 1285.500019788742, 14266.500413417816, 1264.4999623298645, 2702.0000219345093, 27816.999316215515, 874.0000128746033, 14551.500022411346, 1413.5000109672546, 749.0000128746033, 4411.000043153763, 1371.0000216960907, 901.500016450882, 32069.500029087067, 943.5000121593475, 2863.000124692917, 1661.5000367164612, 32069.500625133514, 787.0000004768372, 31769.500136375427, 670.5000102519989, 860.0000143051147, 1142.4999833106995, 1015.5000388622284, 1320.499986410141, 1304.999977350235, 2550.999939441681, 1430.999994277954, 672.4999845027924, 956.9999873638153, 927.5000095367432, 697.4999904632568, 1078.5000324249268, 629.0000081062317, 1516.9999599456787, 1264.5000219345093, 2350.000023841858, 1408.4999859333038, 9682.999923825264, 962.0000123977661, 936.9999766349792, 1531.5000414848328, 1519.499957561493, 1666.9999957084656, 1365.9999668598175, 14244.000345468521, 14063.500225543976, 32059.00013446808, 2048.9999651908875, 14788.500428199768, 8071.499794721603, 1286.0000282526016, 21645.50018310547, 752.4999976158142, 1006.4999759197235, 1910.4999899864197, 2526.0000824928284, 1431.4999878406525, 1349.0000069141388, 49536.99815273285, 2388.4999454021454, 1025.0000059604645, 1527.0000100135803, 28375.00023841858, 1049.4999885559082, 31390.49991965294, 847.9999899864197, 1642.0000195503235, 1082.4999809265137, 891.0000026226044, 2457.0000171661377, 832.0000171661377, 28526.99965238571, 4729.00003194809, 947.0000267028809, 1906.5000414848328, 1320.5000162124634, 21059.499740600586, 1437.9999935626984, 1533.9999794960022, 27619.500279426575, 884.9999904632568, 1483.9999675750732, 33506.999135017395, 903.0000269412994, 844.5000052452087, 2905.4999947547913, 949.4999945163727, 5661.5002155303955, 38165.499329566956, 2669.000118970871, 1058.4999918937683, 823.0000138282776, 770.9999978542328, 1020.9999978542328, 1408.9999794960022, 1526.4999866485596, 834.9999785423279, 2401.4999866485596, 1061.4999532699585, 896.4999914169312, 1366.5000200271606, 28117.999464273453, 2447.500020265579, 887.9999816417694, 28638.499438762665, 1817.5000548362732, 831.499993801117, 894.5000171661377, 947.9999840259552, 25575.499773025513, 1341.9999778270721, 2269.4999873638153, 895.0000107288361, 33382.50094652176, 1002.5000274181366, 1151.4999866485596, 1985.500007867813, 51926.49894952774, 2961.000084877014, 851.0000109672546, 27657.99978375435, 1132.4999630451202, 647.5000083446503, 833.9999914169312, 1365.0000393390656, 27469.000816345215, 1064.4999742507935, 577.5000005960464, 2707.4999064207077, 1000.4999935626984, 847.5000262260437, 1196.9999969005585, 31661.50063276291, 742.499977350235, 27744.49974298477, 1262.5000178813934, 4819.500029087067, 1534.4999730587006, 847.0000326633453, 31439.499258995056, 15854.499876499176, 999.9999701976776, 1330.4999768733978, 2677.9999136924744, 27474.0007519722, 1474.5000004768372, 1368.9999878406525, 949.4999945163727, 2005.0000548362732, 1607.9999804496765, 14401.000499725342, 953.5000026226044, 791.4999723434448, 814.5000040531158, 971.5000092983246, 1397.9999721050262, 31645.499765872955, 1342.0000076293945, 1013.5000348091125, 13004.499793052673, 1572.4999904632568, 935.4999959468842, 1443.9999759197235, 1963.5000228881836, 3133.9999437332153, 1318.0000185966492, 946.5000033378601, 948.500007390976, 833.0000042915344, 29268.499076366425, 842.9999947547913, 740.9999966621399, 729.9999892711639, 2514.9999856948853, 27353.50015759468, 28062.499582767487, 798.9999949932098, 2458.0000042915344, 14873.000085353851, 3164.0000343322754, 1017.5000131130219, 49613.00024390221, 1488.0000352859497, 951.4999985694885, 1406.9999754428864, 58617.50030517578, 808.9999854564667, 1418.999969959259, 27510.499238967896, 1364.9999499320984, 743.0000007152557, 894.9999809265137, 1178.0000030994415, 31214.999556541443, 659.0000092983246, 827.9999792575836, 864.4999861717224, 27663.000762462616, 2545.4999208450317, 28741.00023508072, 14206.000179052353, 28711.000353097916, 1286.9999706745148, 1441.9999718666077, 27594.499230384827, 1051.499992609024, 978.9999723434448, 1344.4999754428864],
  "Shots": 4096,
  "Size": 5,
  "Total Algorithm duration [s]": 13905.724,
  "Total Classic duration [s]": 6972.914994739533,
  "Total Quantum duration [s]": 6932.8090052604675
}
