{
  "Depth": 532.0,
  "Expectation Value": -2.8447265625,
  "Job durations [ms]": [0.0, 140.0, 0.0, 142.0, 127.0, 141.0, 0.0, 142.0, 0.0, 144.0, 0.0, 148.0, 131.0, 159.0, 125.0, 154.0, 122.0, 151.0, 0.0, 0.0, 120.0, 140.0, 0.0, 132.0, 125.0, 146.0, 125.0, 0.0, 126.0, 140.0, 117.0, 0.0, 148.0, 121.0, 139.0, 144.0, 146.0, 0.0, 149.0, 0.0, 157.0, 127.0, 137.0, 0.0, 153.0, 0.0, 141.0, 0.0, 149.0, 123.0, 138.0, 0.0, 150.0, 0.0, 159.0, 126.0, 146.0, 144.0, 0.0, 152.0, 0.0, 0.0],
  "Optimal Expectation Value": -5.0,
  "Optimizer durations [ms]": [6294.557, 6371.632, 6223.099, 6466.733, 6326.987, 6359.734, 6259.043, 2645.523, 6348.858, 6539.246, 6450.385, 6876.907, 6452.079, 6616.78, 6298.262, 6335.713, 6294.853, 6709.568, 6602.189, 6928.062, 6335.258, 6231.648, 7461.259, 6508.143, 6424.547, 7883.636, 7065.82, 6348.883, 6348.208, 6246.09, 6562.834, 6222.987, 6267.404, 2863.938, 6228.72, 6466.641, 6256.485, 6543.371, 6245.048, 6437.181, 6262.572, 6552.634, 6450.467, 6536.692, 6546.151, 6245.981, 6214.034, 6212.128, 6421.037, 6127.638, 6243.996, 6168.655, 6353.897, 6096.219, 6240.813, 6189.287, 6396.426, 6181.385, 6298.694, 6190.927, 6265.959, 7430.069],
  "Optimizer iterations": 62,
  "Optimizer params": [0.5546353035262316, 0.9557358251128816, 0.4663627851837307, 0.9999758703858944, 0.8149345366673488, 0.037753575906983125],
  "P": 3,
  "Problem": "DSP",
  "QPU": "10000001",
  "Qubits": 12,
  "Shots": 4096,
  "Size": 7,
  "Total Algorithm duration [s]": 391.974,
  "Total Classic duration [s]": 386.128,
  "Total Quantum duration [s]": 5.846
}
