{
  "Circuit execution durations [ms]": [0.6067499925848097, 0.6024499889463186, 0.5840999947395176, 0.5486000154633075, 0.5642000178340822, 0.6060500163584948, 0.7091999868862331, 0.5843499966431409, 0.5907499871682376, 0.607449997914955, 0.5775000026915222, 0.5844499974045902, 0.5750999844167382, 0.5709499819204211, 0.5811500013805926, 0.595749996136874, 0.5636500136461109, 0.5683499912265688, 0.5628500075545162, 0.5614999972749501, 0.5615999980363995, 0.5667500081472099, 0.5768499977421016, 0.6019500142429024, 0.5992499936837703, 0.600650004344061, 0.5696500011254102, 0.5908499879296869, 0.5978000117465854, 0.5902000120840967, 0.5978499830234796, 0.5625000048894435, 0.5583000020124018, 0.5651999963447452, 0.5595499824266881, 0.5605499900411814, 0.5634000117424875, 0.5636000132653862, 0.5583000020124018, 0.5838499928358942, 0.5784500099252909, 0.586300011491403, 0.5728499963879585, 0.5779000057373196, 0.5899500101804733, 0.5927000020164996, 0.585250003496185, 0.5660999740939587, 0.5756499886047095, 0.5667000077664852, 0.5648500227835029, 0.5698000022675842, 0.5637499853037298, 0.5691999976988882, 0.6521500181406736, 0.6541000038851053, 0.6327999872155488, 0.7199000101536512, 0.6484999903477728, 0.6437000120058656, 0.7547999848611653, 0.6839000270701945, 0.5758499901276082, 0.5570000212173909, 0.5729499971494079, 0.5680500180460513, 0.5523500149138272, 0.5727499956265092, 0.595749996136874, 0.558799976715818, 0.5574499955400825, 0.5652999971061945, 0.5644499906338751, 0.5574000242631882, 0.5530999915208668, 0.5703500064555556, 0.5632000102195889, 0.5540499987546355, 0.5559500132221729, 0.5612499953713268, 0.5631499807350338, 0.5701500049326569, 0.5573499947786331, 0.5711499834433198, 0.5697999731637537, 0.58970000827685, 0.5777000042144209, 0.5722499918192625, 0.5650499952025712, 0.5729999975301325, 0.5755999882239848, 0.5621500022243708, 0.5633000109810382, 0.5702999769710004, 0.5631500098388642, 0.5660500028170645, 0.5661999748554081, 0.5669000092893839, 0.5606500199064612, 0.5633000109810382, 0.5730499979108572, 0.5577999982051551, 0.5562000151257962, 0.5597000126726925, 0.5549500056076795, 0.5603999888990074, 0.5578499985858798, 0.5495499935932457, 0.5701000045519322, 0.5559500132221729, 0.5622999742627144, 0.5645999917760491, 0.5626500060316175, 0.5573499947786331, 0.5805999971926212, 0.5521500133909285, 0.5535500240512192, 0.5569999921135604, 0.582150008995086, 0.6100500177126378, 0.575500016566366, 0.5768499977421016, 0.5627500067930669, 0.5572500231210142, 0.5558500124607235, 0.5555999814532697, 0.5573499947786331, 0.5602000164799392, 0.5630000086966902, 0.5585000035353005, 0.5706500087399036, 0.5588500062003732, 0.5763499939348549, 0.5647499929182231, 0.5652999971061945, 0.5588000058196485, 0.5537500255741179, 0.5680000176653266, 0.5589999782387167, 0.5748000112362206, 0.5609499930869788, 0.5617499991785735, 0.6222999945748597, 0.5616499984171242, 0.5780000064987689, 0.5595000111497939, 0.5698500026483089, 0.5680999893229455, 0.5742000066675246, 0.5533499934244901, 0.5631500098388642, 0.5643499898724258, 0.5692500271834433, 0.5740500055253506, 0.5563499871641397, 0.5661000031977892, 0.5571999936364591, 0.5654999986290932, 0.5612999957520515, 0.5654999986290932, 0.5680999893229455, 0.5584000027738512, 0.5692999984603375, 0.5626500060316175, 0.5634500121232122, 0.5764499946963042, 0.5643000185955316, 0.5726499948650599, 0.5610499938484281, 0.5617499991785735, 0.5630499799735844, 0.5801999941468239, 0.5620500014629215, 0.592349999351427, 0.5679500172846019, 0.579500017920509, 0.6146000232547522, 0.5649000231642276, 0.5573499947786331, 0.5594999820459634, 0.5583000020124018, 0.5707500095013529, 0.5573999951593578, 0.5626000056508929, 0.5643499898724258, 0.5798999918624759, 0.5691000260412693, 0.5585500039160252, 0.5660000024363399, 0.5629500083159655, 0.5788500129710883, 0.5859000084456056, 0.5578499985858798, 0.5558000120799989, 0.5560499848797917, 0.5847499996889383, 0.5736500024795532, 0.5650999955832958, 0.5656499997712672, 0.5670999817084521, 0.6111999973654747, 0.5759499908890575, 0.5628500075545162, 0.5742500070482492, 0.5742499779444188, 0.5818500067107379, 0.5694999999832362, 0.5570499924942851, 0.5644499906338751, 0.5579999997280538, 0.5778500053565949, 0.6343499990180135, 0.5566999898292124, 0.5641999887302518, 0.5611999949906021, 0.5725999944843352, 0.5596500122919679, 0.5672999832313508, 0.5675499851349741, 0.5638499860651791, 0.5710499826818705, 0.6225499964784831, 0.5582500016316772, 0.6024000176694244, 0.5638000147882849, 0.5506000015884638, 0.5628999788314104, 0.5956499953754246, 0.6244500109460205, 0.5719999899156392, 0.569300027564168, 0.5684499919880182, 0.5703500064555556, 0.5594499816652387, 0.5615999980363995, 0.5671500111930072, 0.5501999985426664, 0.5715500155929476, 0.5642000178340822, 0.5779500061180443, 0.5674499843735248, 0.5400500085670501, 0.5727999960072339, 0.5704500072170049, 0.5722999921999872, 0.5636999849230051, 0.5662500043399632, 0.5818500067107379, 0.5866999854333699, 0.5589500069618225, 0.5751000135205686, 0.5644499906338751, 0.5736500024795532, 0.5703999777324498, 0.5633500113617629, 0.5712000129278749, 0.5584000027738512, 0.5584500031545758, 0.5779500061180443, 0.5952500214334577, 0.5646000208798796, 0.5610000225715339, 0.5606999911833555, 0.5680999893229455, 0.5609499930869788, 0.5557500116992742, 0.5627999780699611, 0.5598999850917608, 0.5642999894917011, 0.5608000210486352, 0.5661500035785139, 0.5621500022243708, 0.5658000009134412, 0.5606999911833555, 0.5653499974869192, 0.5753999867010862, 0.5617999995592982, 0.5665500066243112, 0.5580500001087785, 0.5676000146195292, 0.5749999836552888, 0.5596500122919679, 0.5750499840360135, 0.5608999927062541, 0.5599500145763159, 0.5540999991353601, 0.5590499786194414, 0.5556500109378248, 0.5753499863203615, 0.5724499933421612, 0.5768999981228262, 0.5856000061612576, 0.5536499957088381, 0.5669500096701086, 0.5629499792121351, 0.5589999782387167, 0.5723000213038176, 0.5635500128846616, 0.5637500144075602, 0.6276000058278441, 0.6866499898023903, 0.5613999965135008, 0.5607999919448048, 0.5603499885182828, 0.5572499940171838, 0.5787000118289143, 0.5636999849230051, 0.5864000122528523, 0.5520999839063734, 0.5778500053565949, 0.5603499885182828, 0.5573999951593578, 0.5659000016748905, 0.5624500045087188, 0.5692499980796129, 0.5676000146195292, 0.5734500009566545, 0.5660500028170645, 0.5601999873761088, 0.6128000095486641, 0.5696500011254102, 0.5533000221475959, 0.5630499799735844, 0.5610999942291528, 0.5715499864891171, 0.5686999938916415, 0.5717999883927405, 0.5611499946098775, 0.5579500284511596, 0.5581500008702278, 0.5750499840360135, 0.5589500069618225, 0.5657000001519918, 0.5656499997712672, 0.5735000013373792, 0.5597499839495867, 0.5678000161424279, 0.5707000091206282, 0.5597500130534172, 0.5616499984171242, 0.5655499990098178, 0.5554000090342015, 0.5639000155497342, 0.5697500018868595, 0.5806999979540706, 0.5666500073857605, 0.5583000020124018, 0.5584000027738512, 0.5710999830625951, 0.5545000021811575, 0.5709000106435269, 0.5797499907203019, 0.5754999874625355, 0.5646499921567738, 0.5553500086534768, 0.5694499996025115, 0.5614999972749501, 0.6207500118762255, 0.57565001770854, 0.5579499993473291, 0.5753499863203615, 0.5690499965567142, 0.5714000144507736, 0.5662000039592385, 0.5766999965999275, 0.5775500030722469, 0.5647499929182231, 0.5676500150002539, 0.5713499849662185, 0.5798499914817512, 0.5720499902963638, 0.5667500081472099, 0.5723499925807118, 0.5519500118680298, 0.5658500012941658, 0.5737000028602779, 0.5607999919448048, 0.5602499877568334, 0.5499999970197678, 0.5914500216022134, 0.6306499999482185, 0.6169000116642565, 0.5722999921999872, 0.5620500014629215, 0.5628000071737915, 0.5578499985858798, 0.5610499938484281, 0.5699000030290335, 0.5753000150434673, 0.5781500076409429, 0.5626500060316175, 0.5669500096701086, 0.5951999919489026, 0.5573000235017389, 0.5656499997712672, 0.5700000037904829, 0.5680499889422208, 0.5642000178340822, 0.5660500028170645, 0.5664500058628619, 0.5636999849230051, 0.5622000026050955, 0.5613999965135008, 0.5592000088654459, 0.5591000081039965, 0.5625000048894435, 0.66305001382716, 0.5745999806094915, 0.5662000039592385, 0.5704000068362802, 0.5819999787490815, 0.5774000019300729, 0.575800018850714, 0.5812000017613173, 0.5585500039160252, 0.5681500188075006, 0.5845999985467643, 0.5695500003639609, 0.5648499936796725, 0.5608500214293599, 0.5555999814532697, 0.5779500061180443, 0.5649499944411218, 0.5625500052701682, 0.5578499985858798, 0.5621499731205404, 0.5637000140268356, 0.5714499857276678, 0.5645500204991549, 0.5668500089086592, 0.5615499976556748, 0.5675999855156988, 0.5639499868266284, 0.5693499988410622, 0.5672999832313508, 0.5697500018868595, 0.5683500203303993, 0.5628000071737915, 0.5636500136461109, 0.5673499836120754, 0.5619000003207475, 0.6480999873019755, 0.5588499770965427, 0.5573999951593578, 0.5708500102628022, 0.5704000068362802, 0.5653999978676438, 0.5671500111930072, 0.5752500146627426, 0.5636000132653862, 0.5627500067930669, 0.5777000042144209, 0.5631999811157584, 0.5684999923687428, 0.5662000039592385, 0.5703999777324498, 0.5638499860651791, 0.5666500073857605, 0.5644499906338751, 0.6228499987628311, 0.5607499915640801, 0.5672500119544566, 0.5422499962151051, 0.5778000049758703, 0.5570500215981156, 0.5564499879255891, 0.5670000100508332, 0.5696500011254102, 0.5799499922432005, 0.5134500097483397, 0.5642999894917011, 0.5758999905083328, 0.5585500039160252, 0.6011499790474772, 0.5724499933421612, 0.5740500055253506, 0.5625500052701682, 0.6397500110324472, 0.5836000200361013, 0.5842999962624162, 0.600350002059713, 0.5581500008702278, 0.5625999765470624, 0.6962500046938658, 0.5789499846287072, 0.5724500224459916, 0.5728499963879585, 0.5728999967686832, 0.5696500011254102, 0.5609000218100846, 0.5668500089086592, 0.5589000065810978, 0.5619000003207475, 0.5637499853037298, 0.5645000201184303, 0.5603999888990074, 0.5563499871641397, 0.5702000053133816, 0.5818500067107379, 0.5642499891109765, 0.5566499894484878, 0.5546500033233315, 0.5700000037904829, 0.5655999993905425, 0.5634999834001064, 0.5556000105571002, 0.5544000014197081, 0.5542500002775341, 0.5609999934677035, 0.5607499915640801, 0.5604500183835626, 0.5612000240944326, 0.5660000024363399, 0.5670000100508332, 0.5692499980796129, 0.5669999809470028, 0.5649499944411218, 0.5770999996457249, 0.5784499808214605, 0.5739000043831766, 0.5605499900411814, 0.5649499944411218, 0.5671500111930072, 0.5681999900843948, 0.5647499929182231, 0.5578999989666045, 0.5726999952457845, 0.5668499798048288, 0.5610000225715339, 0.5576500261668116, 0.5592000088654459, 0.5540999991353601, 0.5733500001952052, 0.5726499948650599, 0.5544000014197081, 0.5797500198241323, 0.5987999902572483, 0.6603999936487526, 0.5694499996025115, 0.5699500034097582, 0.578750012209639, 0.5628500075545162, 0.5661500035785139, 0.5665000062435865, 0.5594000103883445, 0.5572000227402896, 0.5776500038336962, 0.5634500121232122, 0.5557000113185495, 0.5621500022243708, 0.578750012209639, 0.5755999882239848, 0.5794999888166785, 0.5681999900843948, 0.5632500106003135, 0.5575500254053622, 0.5567999905906618, 0.5608499923255295, 0.5572499940171838, 0.5716999876312912, 0.5596000119112432, 0.5631500098388642, 0.5583500023931265, 0.5668000085279346, 0.5744000081904233, 0.5684499919880182, 0.5615999980363995, 0.5566499894484878, 0.5578499985858798, 0.5617499991785735, 0.5604500183835626, 0.5520000122487545, 0.5652999971061945, 0.5633999826386571, 0.5782500084023923, 0.5531999922823161, 0.5658500012941658, 0.5635499837808311, 0.5742999783251435, 0.5600999866146594, 0.5674500134773552, 0.5783500091638416, 0.5601499869953841, 0.5641999887302518, 0.5558999837376177, 0.5668999801855534, 0.5740500055253506, 0.5530999915208668, 0.5695500003639609, 0.5620500014629215, 0.5574999959208071, 0.5626000056508929, 0.5537999968510121, 0.5509999755304307, 0.5559500132221729, 0.5759999912697822, 0.5628000071737915, 0.5691499973181635, 0.5637500144075602, 0.5653499974869192, 0.5699499743059278, 0.5704500072170049, 0.5626000056508929, 0.5607999919448048, 0.5686499935109168, 0.5671000108122826, 0.5829999863635749, 0.5675499851349741, 0.5780999781563878, 0.5918000242672861, 0.5638999864459038, 0.5665499775204808, 0.5720000190194696, 0.5655499990098178, 0.5665500066243112, 0.5657500005327165, 0.5541499995160848, 0.5503499996848404, 0.5570000212173909, 0.6217499903868884, 0.5566499894484878, 0.5640499875880778, 0.5672500119544566, 0.5599000141955912, 0.5646999925374985, 0.5606500199064612, 0.5570000212173909, 0.5653499974869192, 0.5665000062435865, 0.5702499765902758, 0.568850024137646, 0.5642499891109765, 0.5599999858532101, 0.5724999937228858, 0.5730999982915819, 0.5550000059884042, 0.5712999845854938, 0.5685499927494675, 0.5630999803543091, 0.5610500229522586, 0.5646499921567738, 0.5701000045519322, 0.5690999969374388, 0.5636500136461109, 0.585250003496185, 0.5595500115305185, 0.5588000058196485, 0.5579499993473291, 0.5746999813709408, 0.5584500031545758, 0.5663500051014125, 0.5748999828938395, 0.5539999983739108, 0.5572499940171838, 0.5706500087399036, 0.5638999864459038, 0.5607000202871859, 0.5611999949906021, 0.5646999925374985, 0.5594999820459634, 0.5603499885182828, 0.5528499896172434, 0.5697000015061349, 0.5587000050581992, 0.5690999969374388, 0.5724999937228858, 0.5812500021420419, 0.5566499894484878, 0.5776000034529716, 0.5716499872505665, 0.5598999850917608, 0.5563499871641397, 0.5567999905906618, 0.5706500087399036, 0.5692999984603375, 0.5567499902099371, 0.5492500204127282, 0.6157999741844833, 0.5714000144507736, 0.5618499999400228, 0.5633499822579324, 0.5622000026050955, 0.5968500045128167, 0.5667500081472099, 0.5692999984603375, 0.5742000066675246, 0.5727500247303396, 0.5635000125039369, 0.5689999961759895, 0.5628000071737915, 0.5660500028170645, 0.5786499823443592, 0.5779500061180443, 0.5643499898724258, 0.5604499892797321, 0.5715999868698418, 0.5708499811589718, 0.5624499754048884, 0.5776000034529716, 0.5604000180028379, 0.5666000070050359, 0.5576499970629811, 0.5595499824266881, 0.5527999892365187, 0.5641999887302518, 0.5597000126726925, 0.5555000097956508, 0.5646999925374985, 0.6646999972872436, 0.5581000004895031, 0.5721499910578132, 0.7025999948382378, 0.617199984844774, 0.6231500010471791, 0.5747500108554959, 0.5633000109810382, 0.5678999878000468, 0.5724500224459916, 0.5611499946098775, 0.5619500007014722, 0.587200018344447, 0.5474999779835343, 0.5597000126726925, 0.5744999798480421, 0.598999991780147, 0.5600499862339348, 0.5648999940603971, 0.5625000048894435, 0.5680000176653266, 0.5663000047206879, 0.5629500083159655, 0.5645999917760491, 0.5601499869953841, 0.5711000121664256, 0.5598499847110361, 0.5647499929182231, 0.5677499866578728, 0.5948499892838299, 0.5591500084847212, 0.5499499966390431, 0.5754499870818108, 0.5629000079352409, 0.5672500119544566, 0.5705500079784542, 0.5769000272266567, 0.5676500150002539, 0.5581499717663974, 0.5585500039160252, 0.5597000126726925, 0.5634000117424875, 0.5587000050581992, 0.5617999995592982, 0.5738999752793461, 0.5766999965999275, 0.5681499897036701, 0.5671499820891768, 0.5679000169038773, 0.5679499881807715, 0.5608999927062541, 0.5645500204991549, 0.5621000018436462, 0.5686500226147473, 0.5742499779444188, 0.5729999975301325, 0.5760499916505069, 0.5713500140700489, 0.5657500005327165, 0.5554000090342015, 0.5650999955832958, 0.5777000042144209, 0.5571999936364591, 0.5580500001087785, 0.5630999803543091, 0.5596500122919679, 0.5667999794241041, 0.5641999887302518, 0.5706999800167978, 0.5857500073034316, 0.5633499822579324, 0.5634999834001064, 0.5586999759543687, 0.5674499843735248, 0.5729999975301325, 0.5664500058628619, 0.5605999904219061, 0.6001500005368143, 0.5681999900843948, 0.5803499952889979, 0.5769999988842756, 0.5666000070050359, 0.5602499877568334, 0.5589999782387167, 0.5687499942723662, 0.5669999809470028, 0.5610499938484281, 0.5674499843735248, 0.5557999829761684, 0.5719499895349145, 0.5691999976988882, 0.5583500023931265, 0.5685000214725733, 0.5493000207934529, 0.5666500073857605, 0.5615499976556748, 0.5650999955832958, 0.5602999881375581, 0.5699500034097582, 0.55849997443147, 0.5611999949906021, 0.5782000080216676, 0.5570999928750098, 0.5768499977421016, 0.5686499935109168, 0.5609500221908092, 0.5615999980363995, 0.5654999986290932, 0.5646999925374985, 0.5630000086966902, 0.5578999989666045, 0.5726999952457845, 0.5725999944843352, 0.5638499860651791, 0.5848000000696629, 0.5729499971494079, 0.5813500029034913, 0.5619000003207475, 0.5945000157225877, 0.5713500140700489, 0.5634000117424875, 0.5679500172846019, 0.5584000027738512, 0.5784000095445663, 0.5750500131398439, 0.5643499898724258, 0.5621500022243708, 0.46305000432766974, 0.5686499935109168, 0.5682999908458441, 0.5576499970629811, 0.5567500193137676, 0.5664500058628619, 0.5618499999400228, 0.5697500018868595, 0.5756499886047095, 0.5806499975733459, 0.5572000227402896, 0.5623000033665448, 0.5804999964311719, 0.5624500045087188, 0.5626500060316175, 0.6058000144548714, 0.5664000054821372, 0.5605499900411814, 0.5571499932557344, 0.5674000130966306, 0.5767499969806522, 0.5683000199496746, 0.5752499855589122, 0.5526000168174505, 0.6381499988492578, 0.5614499968942255, 0.5619000003207475, 0.5826999840792269, 0.5617999995592982, 0.5521000130102038, 0.5643000185955316, 0.5570000212173909, 0.5745999806094915, 0.5697000015061349, 0.5653499974869192, 0.5647499929182231, 0.5648999940603971, 0.5687999946530908, 0.5736000020988286, 0.5573999951593578, 0.5882999976165593, 0.5712000129278749, 0.5639500159304589, 0.5653999978676438, 0.5629500083159655, 0.5681999900843948, 0.5662000039592385, 0.5966000026091933, 0.5670500104315579, 0.5640999879688025, 0.5692999984603375, 0.5645999917760491, 0.5625499761663377, 0.5587000050581992, 0.5568500200752169, 0.5788499838672578, 0.5646499921567738, 0.5703500064555556, 0.5685499927494675, 0.5661000031977892, 0.5758499901276082, 0.5579999997280538, 0.5672500119544566, 0.5602999881375581, 0.6217500194907188, 0.5667500081472099, 0.5687499942723662, 0.5582000012509525, 0.5770499992650002, 0.5647499929182231, 0.554799975361675, 0.5569999921135604, 0.5592499801423401, 0.5616499984171242, 0.5607999919448048, 0.5669999809470028, 0.5693999992217869, 0.5638499860651791, 0.5642499891109765, 0.5678999878000468, 0.5605500191450119, 0.5725999944843352, 0.5652999971061945, 0.6164500082377344, 0.5673500127159059, 0.5699500034097582, 0.5653999978676438, 0.5560999852605164, 0.5595500115305185, 0.5641999887302518, 0.5698500026483089, 0.5674500134773552, 0.5595000111497939, 0.5738499748986214, 0.5641499883495271, 0.5722499918192625, 0.5915999936405569, 0.5645000201184303, 0.5635000125039369, 0.5657500005327165, 0.5693499988410622, 0.5588500062003732, 0.5723999929614365, 0.6744999845977873, 0.5703999777324498],
  "Depth": 22.5,
  "Expectation Value": -12.150306701660156,
  "Optimal Expectation Value": -12.381489753723145,
  "Optimizer durations [ms]": [12.99, 12.511, 12.663, 11.852, 12.502, 23.596, 15.49, 12.726, 12.857, 13.155, 12.596, 12.75, 12.446, 12.198, 12.379, 12.727, 12.091, 12.241, 12.01, 12.73, 12.19, 12.688, 12.283, 13.351, 13.084, 12.95, 11.917, 12.852, 12.764, 12.874, 12.689, 11.986, 13.301, 12.19, 12.028, 11.847, 12.52, 12.04, 12.273, 12.792, 12.707, 12.358, 12.546, 12.297, 12.852, 13.257, 12.635, 12.107, 12.58, 12.519, 12.444, 12.335, 12.485, 11.906, 14.233, 16.707, 16.961, 16.076, 17.262, 15.916, 17.907, 25.71, 12.374, 11.953, 12.289, 12.159, 12.021, 12.378, 12.922, 12.182, 11.984, 12.313, 12.131, 12.407, 12.23, 12.07, 12.284, 12.143, 12.068, 12.28, 12.157, 12.409, 12.164, 12.1, 12.156, 12.742, 12.136, 12.378, 12.139, 12.291, 12.427, 11.819, 12.276, 12.352, 12.298, 12.307, 12.13, 12.351, 12.397, 12.005, 12.568, 12.327, 12.19, 11.99, 12.171, 12.197, 12.219, 11.992, 12.366, 12.118, 12.138, 12.182, 12.416, 12.1, 12.496, 11.856, 12.088, 12.229, 12.452, 13.283, 12.33, 12.521, 12.469, 11.999, 12.063, 12.24, 11.824, 12.149, 12.041, 11.971, 12.382, 12.252, 12.249, 12.448, 12.482, 12.203, 11.93, 12.63, 11.811, 12.59, 11.967, 25.379, 14.115, 11.937, 12.244, 12.076, 12.341, 12.429, 12.035, 12.23, 12.466, 12.129, 12.212, 12.308, 12.331, 12.054, 12.372, 12.546, 12.178, 12.41, 12.138, 12.393, 12.426, 11.927, 12.184, 12.375, 12.123, 12.578, 12.365, 12.091, 12.392, 12.404, 11.92, 13.166, 11.929, 12.392, 13.165, 11.954, 12.31, 12.161, 11.995, 12.239, 12.008, 12.063, 12.308, 12.278, 12.343, 12.235, 12.498, 12.264, 12.45, 12.683, 12.209, 12.259, 12.252, 12.517, 12.291, 12.361, 12.31, 12.255, 13.246, 12.443, 12.194, 12.48, 12.601, 12.482, 12.63, 12.282, 12.3, 12.366, 12.457, 13.521, 12.112, 11.838, 12.212, 12.796, 12.411, 12.121, 12.363, 12.041, 12.491, 13.458, 12.024, 12.916, 18.791, 12.377, 12.615, 12.909, 13.565, 12.302, 12.252, 25.661, 12.814, 12.225, 12.272, 12.469, 25.173, 12.365, 12.41, 12.257, 12.209, 30.508, 12.509, 12.329, 12.077, 12.286, 11.885, 12.792, 12.371, 12.202, 12.321, 12.33, 12.456, 12.108, 12.445, 12.594, 11.798, 12.255, 12.439, 12.589, 12.424, 12.338, 12.062, 12.16, 11.983, 11.983, 12.042, 12.232, 12.417, 12.312, 12.113, 12.017, 12.076, 12.137, 12.404, 12.489, 12.279, 12.356, 12.086, 12.115, 12.183, 12.063, 12.516, 12.062, 12.311, 11.92, 12.483, 12.285, 12.324, 12.239, 12.138, 12.747, 12.065, 12.144, 12.512, 12.281, 12.431, 12.327, 12.328, 22.465, 16.37, 12.34, 12.082, 12.103, 12.103, 12.23, 12.284, 12.886, 12.082, 12.488, 12.148, 12.243, 12.089, 12.126, 12.14, 12.511, 12.436, 12.354, 12.176, 13.072, 12.337, 12.224, 12.214, 12.359, 12.525, 11.978, 12.412, 12.505, 12.107, 12.148, 12.762, 11.996, 12.411, 12.19, 12.183, 11.833, 12.59, 12.168, 12.369, 12.218, 12.242, 11.955, 12.362, 12.484, 12.57, 12.182, 12.23, 12.093, 12.255, 12.22, 12.076, 12.431, 12.295, 12.24, 12.192, 12.185, 12.019, 13.316, 12.377, 12.222, 12.491, 12.463, 12.167, 12.313, 12.6, 12.484, 12.301, 12.238, 12.393, 12.688, 12.134, 12.298, 12.428, 12.175, 12.074, 12.584, 11.985, 12.227, 11.998, 12.546, 22.988, 14.926, 12.562, 12.433, 12.261, 12.246, 12.232, 12.125, 12.07, 12.736, 12.005, 12.376, 12.813, 12.099, 12.375, 12.349, 12.187, 12.023, 12.246, 12.394, 12.207, 12.071, 12.29, 12.243, 12.343, 12.423, 14.293, 12.249, 12.397, 12.806, 12.682, 12.22, 12.452, 12.401, 12.34, 12.312, 12.529, 12.298, 12.233, 12.245, 12.196, 12.283, 12.298, 12.178, 12.34, 12.017, 12.133, 12.624, 12.083, 12.542, 11.781, 12.444, 12.176, 12.383, 12.145, 12.446, 12.399, 12.451, 12.466, 12.408, 11.996, 14.087, 19.308, 12.286, 12.428, 12.404, 12.008, 12.313, 12.78, 12.278, 12.361, 12.335, 12.47, 12.483, 12.186, 12.353, 12.314, 14.014, 12.009, 13.539, 12.055, 11.958, 19.555, 12.434, 12.395, 12.434, 12.489, 12.416, 12.348, 20.259, 12.449, 12.211, 12.766, 13.055, 12.132, 21.725, 13.01, 13.882, 12.357, 12.569, 30.243, 11.917, 12.623, 14.628, 12.646, 12.381, 12.465, 12.284, 12.245, 12.208, 12.312, 12.19, 11.991, 12.243, 12.376, 11.879, 12.259, 12.141, 12.316, 12.556, 12.13, 12.146, 12.271, 12.515, 12.082, 12.269, 11.915, 12.093, 12.204, 12.389, 12.121, 12.254, 12.179, 12.435, 12.371, 12.123, 11.929, 12.359, 12.592, 12.177, 12.376, 12.266, 12.307, 12.341, 12.081, 11.715, 12.578, 12.417, 12.214, 12.294, 11.866, 12.003, 12.382, 12.26, 12.075, 12.489, 12.919, 14.076, 26.63, 12.225, 12.508, 12.017, 12.314, 12.254, 12.2, 11.956, 12.771, 12.106, 12.034, 12.542, 12.27, 12.71, 12.306, 12.166, 12.218, 12.213, 12.299, 12.097, 11.881, 11.973, 12.185, 12.335, 12.305, 12.127, 16.287, 12.148, 12.127, 12.087, 12.055, 12.409, 12.37, 12.192, 11.972, 12.277, 12.421, 11.65, 12.461, 12.179, 12.311, 12.332, 11.949, 12.759, 12.141, 12.169, 12.33, 12.145, 12.298, 12.168, 12.207, 12.259, 11.993, 12.316, 12.091, 11.79, 12.09, 12.564, 12.276, 12.484, 12.236, 11.893, 12.511, 12.179, 12.088, 12.085, 12.493, 12.151, 12.722, 11.874, 12.642, 12.832, 12.487, 12.318, 12.458, 12.256, 11.951, 12.296, 12.271, 12.081, 26.377, 14.351, 12.53, 12.565, 12.324, 12.095, 12.324, 12.018, 12.284, 12.077, 12.304, 12.443, 12.119, 12.348, 12.336, 12.283, 12.283, 12.24, 12.222, 12.599, 12.266, 12.272, 12.071, 12.09, 12.773, 12.257, 12.826, 12.217, 12.078, 12.062, 12.736, 12.01, 12.417, 12.394, 12.173, 12.091, 12.256, 12.127, 12.252, 12.302, 12.231, 11.734, 12.321, 11.918, 12.415, 12.24, 12.08, 12.599, 12.571, 12.107, 12.324, 12.219, 12.249, 12.346, 12.017, 12.324, 12.268, 12.288, 12.029, 13.055, 12.568, 12.411, 12.379, 12.253, 13.142, 12.353, 12.186, 12.389, 13.561, 11.994, 12.474, 12.352, 12.345, 12.279, 12.419, 12.471, 12.001, 12.736, 12.095, 12.065, 12.499, 12.261, 12.322, 21.613, 12.128, 12.947, 12.4, 12.108, 12.35, 12.129, 18.177, 12.072, 12.612, 14.66, 13.344, 13.525, 20.215, 12.015, 12.253, 12.341, 12.293, 12.42, 12.832, 26.422, 12.413, 13.688, 12.799, 12.142, 12.21, 12.04, 12.46, 12.189, 12.125, 12.286, 12.193, 12.288, 12.147, 12.396, 12.119, 12.815, 12.4, 11.666, 12.12, 12.155, 12.234, 12.582, 12.659, 12.499, 12.345, 11.992, 12.255, 12.019, 12.313, 12.264, 12.214, 12.199, 12.373, 12.315, 12.491, 12.416, 12.193, 12.512, 12.123, 12.411, 12.057, 12.43, 12.474, 12.415, 12.208, 12.153, 11.865, 12.764, 11.73, 12.334, 12.058, 12.162, 12.333, 12.455, 12.434, 25.579, 12.102, 12.456, 12.09, 12.368, 12.25, 12.526, 12.027, 13.024, 12.212, 12.339, 12.614, 12.18, 12.237, 12.354, 12.184, 12.045, 12.294, 12.229, 12.305, 11.988, 12.456, 12.275, 12.047, 12.208, 12.251, 12.059, 12.272, 12.406, 12.338, 12.161, 12.243, 12.529, 12.352, 12.473, 12.439, 12.198, 12.355, 12.296, 12.35, 11.996, 12.095, 12.304, 12.246, 12.213, 12.557, 12.315, 12.408, 12.313, 12.842, 12.248, 11.856, 12.227, 12.043, 12.546, 12.253, 12.308, 12.247, 10.274, 12.404, 12.467, 12.306, 11.775, 12.505, 12.156, 12.437, 12.142, 12.793, 11.938, 12.024, 12.504, 12.16, 12.587, 13.071, 12.268, 12.303, 12.029, 12.205, 12.347, 12.307, 12.451, 28.207, 14.322, 11.998, 12.419, 12.451, 12.098, 12.02, 12.199, 12.185, 12.35, 12.087, 12.477, 12.19, 12.176, 12.71, 12.041, 12.369, 12.736, 12.485, 12.145, 12.137, 12.245, 12.236, 12.203, 12.982, 12.1, 12.531, 12.042, 12.308, 12.323, 12.199, 11.795, 12.599, 12.15, 12.387, 12.421, 12.181, 12.392, 12.134, 12.326, 11.974, 13.531, 12.27, 12.233, 11.996, 12.238, 12.459, 12.095, 12.299, 12.171, 12.128, 12.066, 12.483, 12.444, 12.277, 12.378, 12.212, 12.468, 12.267, 12.139, 13.4, 12.201, 12.227, 12.281, 12.001, 12.246, 12.583, 12.497, 12.353, 11.978, 12.402, 12.515, 12.382, 12.989, 12.307, 12.19, 12.161, 12.489, 12.135, 12.382, 14.155, 12.567],
  "Optimizer iterations": 940,
  "Optimizer params": [0.9207744648932691, 0.5658606652928942, 0.5529804558579056, 0.04666464717777111, 0.043812548869635995, 0.566280677546378, 0.5520835602533293, 0.4086839376424881, 0.5990224438368573, 0.12141353505516857, 0.910851839864682, 0.16616228714888015, 0.07744166546273576, 0.8771003140987537, 0.4389263551356978, 0.5998552685261841, 0.35623580541160743, 0.8388380420445657, 0.596230290968222, 0.9687319966928558, 0.015881104082239028, 0.4883034294752222, 0.9468850099236646, 0.41718697299848073, 0.9122164267177201, 0.400544493264982, 0.06280856331914021, 0.9970677313541929, 0.9732789475844462, 0.6221024656954939, 0.10960807897962496, 0.9905608418408327, 0.1408790696146603, 0.9100525698950509, 0.9235190160573455, 0.12430354090509486, 0.4774757915932799, 0.3427785526024006, 0.5011853157002494, 0.11059014442476651],
  "P": 0,
  "Problem": "IC",
  "QJob durations [ms]": [0.6067499925848097, 0.6024499889463186, 0.5840999947395176, 0.5486000154633075, 0.5642000178340822, 0.6060500163584948, 0.7091999868862331, 0.5843499966431409, 0.5907499871682376, 0.607449997914955, 0.5775000026915222, 0.5844499974045902, 0.5750999844167382, 0.5709499819204211, 0.5811500013805926, 0.595749996136874, 0.5636500136461109, 0.5683499912265688, 0.5628500075545162, 0.5614999972749501, 0.5615999980363995, 0.5667500081472099, 0.5768499977421016, 0.6019500142429024, 0.5992499936837703, 0.600650004344061, 0.5696500011254102, 0.5908499879296869, 0.5978000117465854, 0.5902000120840967, 0.5978499830234796, 0.5625000048894435, 0.5583000020124018, 0.5651999963447452, 0.5595499824266881, 0.5605499900411814, 0.5634000117424875, 0.5636000132653862, 0.5583000020124018, 0.5838499928358942, 0.5784500099252909, 0.586300011491403, 0.5728499963879585, 0.5779000057373196, 0.5899500101804733, 0.5927000020164996, 0.585250003496185, 0.5660999740939587, 0.5756499886047095, 0.5667000077664852, 0.5648500227835029, 0.5698000022675842, 0.5637499853037298, 0.5691999976988882, 0.6521500181406736, 0.6541000038851053, 0.6327999872155488, 0.7199000101536512, 0.6484999903477728, 0.6437000120058656, 0.7547999848611653, 0.6839000270701945, 0.5758499901276082, 0.5570000212173909, 0.5729499971494079, 0.5680500180460513, 0.5523500149138272, 0.5727499956265092, 0.595749996136874, 0.558799976715818, 0.5574499955400825, 0.5652999971061945, 0.5644499906338751, 0.5574000242631882, 0.5530999915208668, 0.5703500064555556, 0.5632000102195889, 0.5540499987546355, 0.5559500132221729, 0.5612499953713268, 0.5631499807350338, 0.5701500049326569, 0.5573499947786331, 0.5711499834433198, 0.5697999731637537, 0.58970000827685, 0.5777000042144209, 0.5722499918192625, 0.5650499952025712, 0.5729999975301325, 0.5755999882239848, 0.5621500022243708, 0.5633000109810382, 0.5702999769710004, 0.5631500098388642, 0.5660500028170645, 0.5661999748554081, 0.5669000092893839, 0.5606500199064612, 0.5633000109810382, 0.5730499979108572, 0.5577999982051551, 0.5562000151257962, 0.5597000126726925, 0.5549500056076795, 0.5603999888990074, 0.5578499985858798, 0.5495499935932457, 0.5701000045519322, 0.5559500132221729, 0.5622999742627144, 0.5645999917760491, 0.5626500060316175, 0.5573499947786331, 0.5805999971926212, 0.5521500133909285, 0.5535500240512192, 0.5569999921135604, 0.582150008995086, 0.6100500177126378, 0.575500016566366, 0.5768499977421016, 0.5627500067930669, 0.5572500231210142, 0.5558500124607235, 0.5555999814532697, 0.5573499947786331, 0.5602000164799392, 0.5630000086966902, 0.5585000035353005, 0.5706500087399036, 0.5588500062003732, 0.5763499939348549, 0.5647499929182231, 0.5652999971061945, 0.5588000058196485, 0.5537500255741179, 0.5680000176653266, 0.5589999782387167, 0.5748000112362206, 0.5609499930869788, 0.5617499991785735, 0.6222999945748597, 0.5616499984171242, 0.5780000064987689, 0.5595000111497939, 0.5698500026483089, 0.5680999893229455, 0.5742000066675246, 0.5533499934244901, 0.5631500098388642, 0.5643499898724258, 0.5692500271834433, 0.5740500055253506, 0.5563499871641397, 0.5661000031977892, 0.5571999936364591, 0.5654999986290932, 0.5612999957520515, 0.5654999986290932, 0.5680999893229455, 0.5584000027738512, 0.5692999984603375, 0.5626500060316175, 0.5634500121232122, 0.5764499946963042, 0.5643000185955316, 0.5726499948650599, 0.5610499938484281, 0.5617499991785735, 0.5630499799735844, 0.5801999941468239, 0.5620500014629215, 0.592349999351427, 0.5679500172846019, 0.579500017920509, 0.6146000232547522, 0.5649000231642276, 0.5573499947786331, 0.5594999820459634, 0.5583000020124018, 0.5707500095013529, 0.5573999951593578, 0.5626000056508929, 0.5643499898724258, 0.5798999918624759, 0.5691000260412693, 0.5585500039160252, 0.5660000024363399, 0.5629500083159655, 0.5788500129710883, 0.5859000084456056, 0.5578499985858798, 0.5558000120799989, 0.5560499848797917, 0.5847499996889383, 0.5736500024795532, 0.5650999955832958, 0.5656499997712672, 0.5670999817084521, 0.6111999973654747, 0.5759499908890575, 0.5628500075545162, 0.5742500070482492, 0.5742499779444188, 0.5818500067107379, 0.5694999999832362, 0.5570499924942851, 0.5644499906338751, 0.5579999997280538, 0.5778500053565949, 0.6343499990180135, 0.5566999898292124, 0.5641999887302518, 0.5611999949906021, 0.5725999944843352, 0.5596500122919679, 0.5672999832313508, 0.5675499851349741, 0.5638499860651791, 0.5710499826818705, 0.6225499964784831, 0.5582500016316772, 0.6024000176694244, 0.5638000147882849, 0.5506000015884638, 0.5628999788314104, 0.5956499953754246, 0.6244500109460205, 0.5719999899156392, 0.569300027564168, 0.5684499919880182, 0.5703500064555556, 0.5594499816652387, 0.5615999980363995, 0.5671500111930072, 0.5501999985426664, 0.5715500155929476, 0.5642000178340822, 0.5779500061180443, 0.5674499843735248, 0.5400500085670501, 0.5727999960072339, 0.5704500072170049, 0.5722999921999872, 0.5636999849230051, 0.5662500043399632, 0.5818500067107379, 0.5866999854333699, 0.5589500069618225, 0.5751000135205686, 0.5644499906338751, 0.5736500024795532, 0.5703999777324498, 0.5633500113617629, 0.5712000129278749, 0.5584000027738512, 0.5584500031545758, 0.5779500061180443, 0.5952500214334577, 0.5646000208798796, 0.5610000225715339, 0.5606999911833555, 0.5680999893229455, 0.5609499930869788, 0.5557500116992742, 0.5627999780699611, 0.5598999850917608, 0.5642999894917011, 0.5608000210486352, 0.5661500035785139, 0.5621500022243708, 0.5658000009134412, 0.5606999911833555, 0.5653499974869192, 0.5753999867010862, 0.5617999995592982, 0.5665500066243112, 0.5580500001087785, 0.5676000146195292, 0.5749999836552888, 0.5596500122919679, 0.5750499840360135, 0.5608999927062541, 0.5599500145763159, 0.5540999991353601, 0.5590499786194414, 0.5556500109378248, 0.5753499863203615, 0.5724499933421612, 0.5768999981228262, 0.5856000061612576, 0.5536499957088381, 0.5669500096701086, 0.5629499792121351, 0.5589999782387167, 0.5723000213038176, 0.5635500128846616, 0.5637500144075602, 0.6276000058278441, 0.6866499898023903, 0.5613999965135008, 0.5607999919448048, 0.5603499885182828, 0.5572499940171838, 0.5787000118289143, 0.5636999849230051, 0.5864000122528523, 0.5520999839063734, 0.5778500053565949, 0.5603499885182828, 0.5573999951593578, 0.5659000016748905, 0.5624500045087188, 0.5692499980796129, 0.5676000146195292, 0.5734500009566545, 0.5660500028170645, 0.5601999873761088, 0.6128000095486641, 0.5696500011254102, 0.5533000221475959, 0.5630499799735844, 0.5610999942291528, 0.5715499864891171, 0.5686999938916415, 0.5717999883927405, 0.5611499946098775, 0.5579500284511596, 0.5581500008702278, 0.5750499840360135, 0.5589500069618225, 0.5657000001519918, 0.5656499997712672, 0.5735000013373792, 0.5597499839495867, 0.5678000161424279, 0.5707000091206282, 0.5597500130534172, 0.5616499984171242, 0.5655499990098178, 0.5554000090342015, 0.5639000155497342, 0.5697500018868595, 0.5806999979540706, 0.5666500073857605, 0.5583000020124018, 0.5584000027738512, 0.5710999830625951, 0.5545000021811575, 0.5709000106435269, 0.5797499907203019, 0.5754999874625355, 0.5646499921567738, 0.5553500086534768, 0.5694499996025115, 0.5614999972749501, 0.6207500118762255, 0.57565001770854, 0.5579499993473291, 0.5753499863203615, 0.5690499965567142, 0.5714000144507736, 0.5662000039592385, 0.5766999965999275, 0.5775500030722469, 0.5647499929182231, 0.5676500150002539, 0.5713499849662185, 0.5798499914817512, 0.5720499902963638, 0.5667500081472099, 0.5723499925807118, 0.5519500118680298, 0.5658500012941658, 0.5737000028602779, 0.5607999919448048, 0.5602499877568334, 0.5499999970197678, 0.5914500216022134, 0.6306499999482185, 0.6169000116642565, 0.5722999921999872, 0.5620500014629215, 0.5628000071737915, 0.5578499985858798, 0.5610499938484281, 0.5699000030290335, 0.5753000150434673, 0.5781500076409429, 0.5626500060316175, 0.5669500096701086, 0.5951999919489026, 0.5573000235017389, 0.5656499997712672, 0.5700000037904829, 0.5680499889422208, 0.5642000178340822, 0.5660500028170645, 0.5664500058628619, 0.5636999849230051, 0.5622000026050955, 0.5613999965135008, 0.5592000088654459, 0.5591000081039965, 0.5625000048894435, 0.66305001382716, 0.5745999806094915, 0.5662000039592385, 0.5704000068362802, 0.5819999787490815, 0.5774000019300729, 0.575800018850714, 0.5812000017613173, 0.5585500039160252, 0.5681500188075006, 0.5845999985467643, 0.5695500003639609, 0.5648499936796725, 0.5608500214293599, 0.5555999814532697, 0.5779500061180443, 0.5649499944411218, 0.5625500052701682, 0.5578499985858798, 0.5621499731205404, 0.5637000140268356, 0.5714499857276678, 0.5645500204991549, 0.5668500089086592, 0.5615499976556748, 0.5675999855156988, 0.5639499868266284, 0.5693499988410622, 0.5672999832313508, 0.5697500018868595, 0.5683500203303993, 0.5628000071737915, 0.5636500136461109, 0.5673499836120754, 0.5619000003207475, 0.6480999873019755, 0.5588499770965427, 0.5573999951593578, 0.5708500102628022, 0.5704000068362802, 0.5653999978676438, 0.5671500111930072, 0.5752500146627426, 0.5636000132653862, 0.5627500067930669, 0.5777000042144209, 0.5631999811157584, 0.5684999923687428, 0.5662000039592385, 0.5703999777324498, 0.5638499860651791, 0.5666500073857605, 0.5644499906338751, 0.6228499987628311, 0.5607499915640801, 0.5672500119544566, 0.5422499962151051, 0.5778000049758703, 0.5570500215981156, 0.5564499879255891, 0.5670000100508332, 0.5696500011254102, 0.5799499922432005, 0.5134500097483397, 0.5642999894917011, 0.5758999905083328, 0.5585500039160252, 0.6011499790474772, 0.5724499933421612, 0.5740500055253506, 0.5625500052701682, 0.6397500110324472, 0.5836000200361013, 0.5842999962624162, 0.600350002059713, 0.5581500008702278, 0.5625999765470624, 0.6962500046938658, 0.5789499846287072, 0.5724500224459916, 0.5728499963879585, 0.5728999967686832, 0.5696500011254102, 0.5609000218100846, 0.5668500089086592, 0.5589000065810978, 0.5619000003207475, 0.5637499853037298, 0.5645000201184303, 0.5603999888990074, 0.5563499871641397, 0.5702000053133816, 0.5818500067107379, 0.5642499891109765, 0.5566499894484878, 0.5546500033233315, 0.5700000037904829, 0.5655999993905425, 0.5634999834001064, 0.5556000105571002, 0.5544000014197081, 0.5542500002775341, 0.5609999934677035, 0.5607499915640801, 0.5604500183835626, 0.5612000240944326, 0.5660000024363399, 0.5670000100508332, 0.5692499980796129, 0.5669999809470028, 0.5649499944411218, 0.5770999996457249, 0.5784499808214605, 0.5739000043831766, 0.5605499900411814, 0.5649499944411218, 0.5671500111930072, 0.5681999900843948, 0.5647499929182231, 0.5578999989666045, 0.5726999952457845, 0.5668499798048288, 0.5610000225715339, 0.5576500261668116, 0.5592000088654459, 0.5540999991353601, 0.5733500001952052, 0.5726499948650599, 0.5544000014197081, 0.5797500198241323, 0.5987999902572483, 0.6603999936487526, 0.5694499996025115, 0.5699500034097582, 0.578750012209639, 0.5628500075545162, 0.5661500035785139, 0.5665000062435865, 0.5594000103883445, 0.5572000227402896, 0.5776500038336962, 0.5634500121232122, 0.5557000113185495, 0.5621500022243708, 0.578750012209639, 0.5755999882239848, 0.5794999888166785, 0.5681999900843948, 0.5632500106003135, 0.5575500254053622, 0.5567999905906618, 0.5608499923255295, 0.5572499940171838, 0.5716999876312912, 0.5596000119112432, 0.5631500098388642, 0.5583500023931265, 0.5668000085279346, 0.5744000081904233, 0.5684499919880182, 0.5615999980363995, 0.5566499894484878, 0.5578499985858798, 0.5617499991785735, 0.5604500183835626, 0.5520000122487545, 0.5652999971061945, 0.5633999826386571, 0.5782500084023923, 0.5531999922823161, 0.5658500012941658, 0.5635499837808311, 0.5742999783251435, 0.5600999866146594, 0.5674500134773552, 0.5783500091638416, 0.5601499869953841, 0.5641999887302518, 0.5558999837376177, 0.5668999801855534, 0.5740500055253506, 0.5530999915208668, 0.5695500003639609, 0.5620500014629215, 0.5574999959208071, 0.5626000056508929, 0.5537999968510121, 0.5509999755304307, 0.5559500132221729, 0.5759999912697822, 0.5628000071737915, 0.5691499973181635, 0.5637500144075602, 0.5653499974869192, 0.5699499743059278, 0.5704500072170049, 0.5626000056508929, 0.5607999919448048, 0.5686499935109168, 0.5671000108122826, 0.5829999863635749, 0.5675499851349741, 0.5780999781563878, 0.5918000242672861, 0.5638999864459038, 0.5665499775204808, 0.5720000190194696, 0.5655499990098178, 0.5665500066243112, 0.5657500005327165, 0.5541499995160848, 0.5503499996848404, 0.5570000212173909, 0.6217499903868884, 0.5566499894484878, 0.5640499875880778, 0.5672500119544566, 0.5599000141955912, 0.5646999925374985, 0.5606500199064612, 0.5570000212173909, 0.5653499974869192, 0.5665000062435865, 0.5702499765902758, 0.568850024137646, 0.5642499891109765, 0.5599999858532101, 0.5724999937228858, 0.5730999982915819, 0.5550000059884042, 0.5712999845854938, 0.5685499927494675, 0.5630999803543091, 0.5610500229522586, 0.5646499921567738, 0.5701000045519322, 0.5690999969374388, 0.5636500136461109, 0.585250003496185, 0.5595500115305185, 0.5588000058196485, 0.5579499993473291, 0.5746999813709408, 0.5584500031545758, 0.5663500051014125, 0.5748999828938395, 0.5539999983739108, 0.5572499940171838, 0.5706500087399036, 0.5638999864459038, 0.5607000202871859, 0.5611999949906021, 0.5646999925374985, 0.5594999820459634, 0.5603499885182828, 0.5528499896172434, 0.5697000015061349, 0.5587000050581992, 0.5690999969374388, 0.5724999937228858, 0.5812500021420419, 0.5566499894484878, 0.5776000034529716, 0.5716499872505665, 0.5598999850917608, 0.5563499871641397, 0.5567999905906618, 0.5706500087399036, 0.5692999984603375, 0.5567499902099371, 0.5492500204127282, 0.6157999741844833, 0.5714000144507736, 0.5618499999400228, 0.5633499822579324, 0.5622000026050955, 0.5968500045128167, 0.5667500081472099, 0.5692999984603375, 0.5742000066675246, 0.5727500247303396, 0.5635000125039369, 0.5689999961759895, 0.5628000071737915, 0.5660500028170645, 0.5786499823443592, 0.5779500061180443, 0.5643499898724258, 0.5604499892797321, 0.5715999868698418, 0.5708499811589718, 0.5624499754048884, 0.5776000034529716, 0.5604000180028379, 0.5666000070050359, 0.5576499970629811, 0.5595499824266881, 0.5527999892365187, 0.5641999887302518, 0.5597000126726925, 0.5555000097956508, 0.5646999925374985, 0.6646999972872436, 0.5581000004895031, 0.5721499910578132, 0.7025999948382378, 0.617199984844774, 0.6231500010471791, 0.5747500108554959, 0.5633000109810382, 0.5678999878000468, 0.5724500224459916, 0.5611499946098775, 0.5619500007014722, 0.587200018344447, 0.5474999779835343, 0.5597000126726925, 0.5744999798480421, 0.598999991780147, 0.5600499862339348, 0.5648999940603971, 0.5625000048894435, 0.5680000176653266, 0.5663000047206879, 0.5629500083159655, 0.5645999917760491, 0.5601499869953841, 0.5711000121664256, 0.5598499847110361, 0.5647499929182231, 0.5677499866578728, 0.5948499892838299, 0.5591500084847212, 0.5499499966390431, 0.5754499870818108, 0.5629000079352409, 0.5672500119544566, 0.5705500079784542, 0.5769000272266567, 0.5676500150002539, 0.5581499717663974, 0.5585500039160252, 0.5597000126726925, 0.5634000117424875, 0.5587000050581992, 0.5617999995592982, 0.5738999752793461, 0.5766999965999275, 0.5681499897036701, 0.5671499820891768, 0.5679000169038773, 0.5679499881807715, 0.5608999927062541, 0.5645500204991549, 0.5621000018436462, 0.5686500226147473, 0.5742499779444188, 0.5729999975301325, 0.5760499916505069, 0.5713500140700489, 0.5657500005327165, 0.5554000090342015, 0.5650999955832958, 0.5777000042144209, 0.5571999936364591, 0.5580500001087785, 0.5630999803543091, 0.5596500122919679, 0.5667999794241041, 0.5641999887302518, 0.5706999800167978, 0.5857500073034316, 0.5633499822579324, 0.5634999834001064, 0.5586999759543687, 0.5674499843735248, 0.5729999975301325, 0.5664500058628619, 0.5605999904219061, 0.6001500005368143, 0.5681999900843948, 0.5803499952889979, 0.5769999988842756, 0.5666000070050359, 0.5602499877568334, 0.5589999782387167, 0.5687499942723662, 0.5669999809470028, 0.5610499938484281, 0.5674499843735248, 0.5557999829761684, 0.5719499895349145, 0.5691999976988882, 0.5583500023931265, 0.5685000214725733, 0.5493000207934529, 0.5666500073857605, 0.5615499976556748, 0.5650999955832958, 0.5602999881375581, 0.5699500034097582, 0.55849997443147, 0.5611999949906021, 0.5782000080216676, 0.5570999928750098, 0.5768499977421016, 0.5686499935109168, 0.5609500221908092, 0.5615999980363995, 0.5654999986290932, 0.5646999925374985, 0.5630000086966902, 0.5578999989666045, 0.5726999952457845, 0.5725999944843352, 0.5638499860651791, 0.5848000000696629, 0.5729499971494079, 0.5813500029034913, 0.5619000003207475, 0.5945000157225877, 0.5713500140700489, 0.5634000117424875, 0.5679500172846019, 0.5584000027738512, 0.5784000095445663, 0.5750500131398439, 0.5643499898724258, 0.5621500022243708, 0.46305000432766974, 0.5686499935109168, 0.5682999908458441, 0.5576499970629811, 0.5567500193137676, 0.5664500058628619, 0.5618499999400228, 0.5697500018868595, 0.5756499886047095, 0.5806499975733459, 0.5572000227402896, 0.5623000033665448, 0.5804999964311719, 0.5624500045087188, 0.5626500060316175, 0.6058000144548714, 0.5664000054821372, 0.5605499900411814, 0.5571499932557344, 0.5674000130966306, 0.5767499969806522, 0.5683000199496746, 0.5752499855589122, 0.5526000168174505, 0.6381499988492578, 0.5614499968942255, 0.5619000003207475, 0.5826999840792269, 0.5617999995592982, 0.5521000130102038, 0.5643000185955316, 0.5570000212173909, 0.5745999806094915, 0.5697000015061349, 0.5653499974869192, 0.5647499929182231, 0.5648999940603971, 0.5687999946530908, 0.5736000020988286, 0.5573999951593578, 0.5882999976165593, 0.5712000129278749, 0.5639500159304589, 0.5653999978676438, 0.5629500083159655, 0.5681999900843948, 0.5662000039592385, 0.5966000026091933, 0.5670500104315579, 0.5640999879688025, 0.5692999984603375, 0.5645999917760491, 0.5625499761663377, 0.5587000050581992, 0.5568500200752169, 0.5788499838672578, 0.5646499921567738, 0.5703500064555556, 0.5685499927494675, 0.5661000031977892, 0.5758499901276082, 0.5579999997280538, 0.5672500119544566, 0.5602999881375581, 0.6217500194907188, 0.5667500081472099, 0.5687499942723662, 0.5582000012509525, 0.5770499992650002, 0.5647499929182231, 0.554799975361675, 0.5569999921135604, 0.5592499801423401, 0.5616499984171242, 0.5607999919448048, 0.5669999809470028, 0.5693999992217869, 0.5638499860651791, 0.5642499891109765, 0.5678999878000468, 0.5605500191450119, 0.5725999944843352, 0.5652999971061945, 0.6164500082377344, 0.5673500127159059, 0.5699500034097582, 0.5653999978676438, 0.5560999852605164, 0.5595500115305185, 0.5641999887302518, 0.5698500026483089, 0.5674500134773552, 0.5595000111497939, 0.5738499748986214, 0.5641499883495271, 0.5722499918192625, 0.5915999936405569, 0.5645000201184303, 0.5635000125039369, 0.5657500005327165, 0.5693499988410622, 0.5588500062003732, 0.5723999929614365, 0.6744999845977873, 0.5703999777324498],
  "QPU": "7000000",
  "Qubits": 10,
  "Queue durations [ms]": [0.0, 0.0, 0.0, 0.0, 0.0, 0.0, 0.0, 0.0, 0.0, 0.0, 0.0, 0.0, 0.0, 0.0, 0.0, 0.0, 0.0, 0.0, 0.0, 0.0, 0.0, 0.0, 0.0, 0.0, 0.0, 0.0, 0.0, 0.0, 0.0, 0.0, 0.0, 0.0, 0.0, 0.0, 0.0, 0.0, 0.0, 0.0, 0.0, 0.0, 0.0, 0.0, 0.0, 0.0, 0.0, 0.0, 0.0, 0.0, 0.0, 0.0, 0.0, 0.0, 0.0, 0.0, 0.0, 0.0, 0.0, 0.0, 0.0, 0.0, 0.0, 0.0, 0.0, 0.0, 0.0, 0.0, 0.0, 0.0, 0.0, 0.0, 0.0, 0.0, 0.0, 0.0, 0.0, 0.0, 0.0, 0.0, 0.0, 0.0, 0.0, 0.0, 0.0, 0.0, 0.0, 0.0, 0.0, 0.0, 0.0, 0.0, 0.0, 0.0, 0.0, 0.0, 0.0, 0.0, 0.0, 0.0, 0.0, 0.0, 0.0, 0.0, 0.0, 0.0, 0.0, 0.0, 0.0, 0.0, 0.0, 0.0, 0.0, 0.0, 0.0, 0.0, 0.0, 0.0, 0.0, 0.0, 0.0, 0.0, 0.0, 0.0, 0.0, 0.0, 0.0, 0.0, 0.0, 0.0, 0.0, 0.0, 0.0, 0.0, 0.0, 0.0, 0.0, 0.0, 0.0, 0.0, 0.0, 0.0, 0.0, 0.0, 0.0, 0.0, 0.0, 0.0, 0.0, 0.0, 0.0, 0.0, 0.0, 0.0, 0.0, 0.0, 0.0, 0.0, 0.0, 0.0, 0.0, 0.0, 0.0, 0.0, 0.0, 0.0, 0.0, 0.0, 0.0, 0.0, 0.0, 0.0, 0.0, 0.0, 0.0, 0.0, 0.0, 0.0, 0.0, 0.0, 0.0, 0.0, 0.0, 0.0, 0.0, 0.0, 0.0, 0.0, 0.0, 0.0, 0.0, 0.0, 0.0, 0.0, 0.0, 0.0, 0.0, 0.0, 0.0, 0.0, 0.0, 0.0, 0.0, 0.0, 0.0, 0.0, 0.0, 0.0, 0.0, 0.0, 0.0, 0.0, 0.0, 0.0, 0.0, 0.0, 0.0, 0.0, 0.0, 0.0, 0.0, 0.0, 0.0, 0.0, 0.0, 0.0, 0.0, 0.0, 0.0, 0.0, 0.0, 0.0, 0.0, 0.0, 0.0, 0.0, 0.0, 0.0, 0.0, 0.0, 0.0, 0.0, 0.0, 0.0, 0.0, 0.0, 0.0, 0.0, 0.0, 0.0, 0.0, 0.0, 0.0, 0.0, 0.0, 0.0, 0.0, 0.0, 0.0, 0.0, 0.0, 0.0, 0.0, 0.0, 0.0, 0.0, 0.0, 0.0, 0.0, 0.0, 0.0, 0.0, 0.0, 0.0, 0.0, 0.0, 0.0, 0.0, 0.0, 0.0, 0.0, 0.0, 0.0, 0.0, 0.0, 0.0, 0.0, 0.0, 0.0, 0.0, 0.0, 0.0, 0.0, 0.0, 0.0, 0.0, 0.0, 0.0, 0.0, 0.0, 0.0, 0.0, 0.0, 0.0, 0.0, 0.0, 0.0, 0.0, 0.0, 0.0, 0.0, 0.0, 0.0, 0.0, 0.0, 0.0, 0.0, 0.0, 0.0, 0.0, 0.0, 0.0, 0.0, 0.0, 0.0, 0.0, 0.0, 0.0, 0.0, 0.0, 0.0, 0.0, 0.0, 0.0, 0.0, 0.0, 0.0, 0.0, 0.0, 0.0, 0.0, 0.0, 0.0, 0.0, 0.0, 0.0, 0.0, 0.0, 0.0, 0.0, 0.0, 0.0, 0.0, 0.0, 0.0, 0.0, 0.0, 0.0, 0.0, 0.0, 0.0, 0.0, 0.0, 0.0, 0.0, 0.0, 0.0, 0.0, 0.0, 0.0, 0.0, 0.0, 0.0, 0.0, 0.0, 0.0, 0.0, 0.0, 0.0, 0.0, 0.0, 0.0, 0.0, 0.0, 0.0, 0.0, 0.0, 0.0, 0.0, 0.0, 0.0, 0.0, 0.0, 0.0, 0.0, 0.0, 0.0, 0.0, 0.0, 0.0, 0.0, 0.0, 0.0, 0.0, 0.0, 0.0, 0.0, 0.0, 0.0, 0.0, 0.0, 0.0, 0.0, 0.0, 0.0, 0.0, 0.0, 0.0, 0.0, 0.0, 0.0, 0.0, 0.0, 0.0, 0.0, 0.0, 0.0, 0.0, 0.0, 0.0, 0.0, 0.0, 0.0, 0.0, 0.0, 0.0, 0.0, 0.0, 0.0, 0.0, 0.0, 0.0, 0.0, 0.0, 0.0, 0.0, 0.0, 0.0, 0.0, 0.0, 0.0, 0.0, 0.0, 0.0, 0.0, 0.0, 0.0, 0.0, 0.0, 0.0, 0.0, 0.0, 0.0, 0.0, 0.0, 0.0, 0.0, 0.0, 0.0, 0.0, 0.0, 0.0, 0.0, 0.0, 0.0, 0.0, 0.0, 0.0, 0.0, 0.0, 0.0, 0.0, 0.0, 0.0, 0.0, 0.0, 0.0, 0.0, 0.0, 0.0, 0.0, 0.0, 0.0, 0.0, 0.0, 0.0, 0.0, 0.0, 0.0, 0.0, 0.0, 0.0, 0.0, 0.0, 0.0, 0.0, 0.0, 0.0, 0.0, 0.0, 0.0, 0.0, 0.0, 0.0, 0.0, 0.0, 0.0, 0.0, 0.0, 0.0, 0.0, 0.0, 0.0, 0.0, 0.0, 0.0, 0.0, 0.0, 0.0, 0.0, 0.0, 0.0, 0.0, 0.0, 0.0, 0.0, 0.0, 0.0, 0.0, 0.0, 0.0, 0.0, 0.0, 0.0, 0.0, 0.0, 0.0, 0.0, 0.0, 0.0, 0.0, 0.0, 0.0, 0.0, 0.0, 0.0, 0.0, 0.0, 0.0, 0.0, 0.0, 0.0, 0.0, 0.0, 0.0, 0.0, 0.0, 0.0, 0.0, 0.0, 0.0, 0.0, 0.0, 0.0, 0.0, 0.0, 0.0, 0.0, 0.0, 0.0, 0.0, 0.0, 0.0, 0.0, 0.0, 0.0, 0.0, 0.0, 0.0, 0.0, 0.0, 0.0, 0.0, 0.0, 0.0, 0.0, 0.0, 0.0, 0.0, 0.0, 0.0, 0.0, 0.0, 0.0, 0.0, 0.0, 0.0, 0.0, 0.0, 0.0, 0.0, 0.0, 0.0, 0.0, 0.0, 0.0, 0.0, 0.0, 0.0, 0.0, 0.0, 0.0, 0.0, 0.0, 0.0, 0.0, 0.0, 0.0, 0.0, 0.0, 0.0, 0.0, 0.0, 0.0, 0.0, 0.0, 0.0, 0.0, 0.0, 0.0, 0.0, 0.0, 0.0, 0.0, 0.0, 0.0, 0.0, 0.0, 0.0, 0.0, 0.0, 0.0, 0.0, 0.0, 0.0, 0.0, 0.0, 0.0, 0.0, 0.0, 0.0, 0.0, 0.0, 0.0, 0.0, 0.0, 0.0, 0.0, 0.0, 0.0, 0.0, 0.0, 0.0, 0.0, 0.0, 0.0, 0.0, 0.0, 0.0, 0.0, 0.0, 0.0, 0.0, 0.0, 0.0, 0.0, 0.0, 0.0, 0.0, 0.0, 0.0, 0.0, 0.0, 0.0, 0.0, 0.0, 0.0, 0.0, 0.0, 0.0, 0.0, 0.0, 0.0, 0.0, 0.0, 0.0, 0.0, 0.0, 0.0, 0.0, 0.0, 0.0, 0.0, 0.0, 0.0, 0.0, 0.0, 0.0, 0.0, 0.0, 0.0, 0.0, 0.0, 0.0, 0.0, 0.0, 0.0, 0.0, 0.0, 0.0, 0.0, 0.0, 0.0, 0.0, 0.0, 0.0, 0.0, 0.0, 0.0, 0.0, 0.0, 0.0, 0.0, 0.0, 0.0, 0.0, 0.0, 0.0, 0.0, 0.0, 0.0, 0.0, 0.0, 0.0, 0.0, 0.0, 0.0, 0.0, 0.0, 0.0, 0.0, 0.0, 0.0, 0.0, 0.0, 0.0, 0.0, 0.0, 0.0, 0.0, 0.0, 0.0, 0.0, 0.0, 0.0, 0.0, 0.0, 0.0, 0.0, 0.0, 0.0, 0.0, 0.0, 0.0, 0.0, 0.0, 0.0, 0.0, 0.0, 0.0, 0.0, 0.0, 0.0, 0.0, 0.0, 0.0, 0.0, 0.0, 0.0, 0.0, 0.0, 0.0, 0.0, 0.0, 0.0, 0.0, 0.0, 0.0, 0.0, 0.0, 0.0, 0.0, 0.0, 0.0, 0.0, 0.0, 0.0, 0.0, 0.0, 0.0, 0.0, 0.0, 0.0, 0.0, 0.0, 0.0, 0.0, 0.0, 0.0, 0.0, 0.0, 0.0, 0.0, 0.0, 0.0, 0.0, 0.0, 0.0, 0.0, 0.0, 0.0, 0.0, 0.0, 0.0, 0.0, 0.0, 0.0, 0.0, 0.0, 0.0, 0.0, 0.0, 0.0, 0.0, 0.0, 0.0, 0.0, 0.0, 0.0, 0.0, 0.0, 0.0, 0.0, 0.0, 0.0, 0.0, 0.0, 0.0, 0.0, 0.0, 0.0, 0.0, 0.0, 0.0, 0.0, 0.0, 0.0, 0.0, 0.0, 0.0, 0.0, 0.0, 0.0, 0.0, 0.0, 0.0, 0.0, 0.0, 0.0, 0.0, 0.0, 0.0, 0.0, 0.0, 0.0, 0.0, 0.0, 0.0, 0.0, 0.0, 0.0, 0.0, 0.0, 0.0, 0.0, 0.0, 0.0, 0.0, 0.0, 0.0, 0.0, 0.0, 0.0, 0.0, 0.0, 0.0, 0.0, 0.0, 0.0, 0.0, 0.0, 0.0, 0.0, 0.0, 0.0, 0.0, 0.0, 0.0, 0.0, 0.0, 0.0, 0.0, 0.0, 0.0, 0.0, 0.0, 0.0, 0.0, 0.0, 0.0, 0.0, 0.0],
  "Shots": 4096,
  "Size": 10,
  "Total Algorithm duration [s]": 11.895,
  "Total Classic duration [s]": 11.359149750187061,
  "Total Quantum duration [s]": 0.5358502498129383
}
