{
  "Circuit execution durations [ms]": [0.5922999989707023, 0.5692499980796129, 0.5876499926671386, 0.5600999866146594, 0.5461999971885234, 0.5557500116992742, 0.5766999965999275, 0.5645499913953245, 0.5633500113617629, 0.5552000075113028, 0.5608999927062541, 0.5666000070050359, 0.5675499851349741, 0.5666500073857605, 0.5629500083159655, 0.5710500117857009, 0.5654499982483685, 0.5823500105179846, 0.5592500092461705, 0.5637999856844544, 0.5665000062435865, 0.5566000181715935, 0.5571999936364591, 0.5681499897036701, 0.5525500164367259, 0.5578999989666045, 0.5702500056941062, 0.5698000022675842, 0.5555000097956508, 0.5566999898292124, 0.5632500106003135, 0.5724499933421612, 0.5636499845422804, 0.5644499906338751, 0.5771500000264496, 0.5830999871250242, 0.600049999775365, 0.5708499811589718, 0.5579999997280538, 0.551549979718402, 0.5656499997712672, 0.5712500133085996, 0.5600000149570405, 0.5646499921567738, 0.5634500121232122, 0.5680999893229455, 0.5577499978244305, 0.5646999925374985, 0.5689999961759895, 0.5669000092893839, 0.5572999943979084, 0.5670000100508332, 0.5566999898292124, 0.5649499944411218, 0.5714500148314983, 0.5653999978676438, 0.5650499952025712, 0.5655999993905425, 0.5684499919880182, 0.5572499940171838, 0.5894500063732266, 0.5668499798048288, 0.5499499966390431, 0.5678999878000468, 0.5871500179637223, 0.5645000201184303, 0.5490999901667237, 0.5628000071737915, 0.5618499999400228, 0.5599500145763159, 0.5587500054389238, 0.5705500079784542, 0.5631500098388642, 0.5724999937228858, 0.5716500163543969, 0.5756999889854342, 0.5675000138580799, 0.5614999972749501, 0.5563999875448644, 0.5654999986290932, 0.555099977646023, 0.5685499927494675, 0.5603000172413886, 0.5678499874193221, 0.5675999855156988, 0.5748000112362206, 0.5553500086534768, 0.5582500016316772, 0.5764499946963042, 0.5643500189762563, 0.5653499974869192, 0.5632000102195889, 0.5589000065810978, 0.5668500089086592, 0.5622000026050955, 0.5665500066243112, 0.5705500079784542, 0.5717999883927405, 0.5647999932989478, 0.5609499930869788, 0.5747999821323901, 0.5602500168606639, 0.5561999860219657, 0.5565499886870384, 0.5657500005327165, 0.5566499894484878, 0.5652999971061945, 0.5650500243064016, 0.5572499940171838, 0.5842999962624162, 0.5581000004895031, 0.5680499889422208, 0.5621500022243708, 0.5630000086966902, 0.5765499954577535, 0.5643499898724258, 0.7208499882835895, 0.6061999883968383, 0.5977999826427549, 0.5712500133085996, 0.5584000027738512, 0.5673000123351812, 0.5614499968942255, 0.6852500082459301, 0.6100499886088073, 0.5595999828074127, 0.5383500247262418, 0.5605999904219061, 0.6960000027902424, 0.6161000055726618, 0.6521999894175678, 0.5586999759543687, 0.594750017626211, 0.582000007852912, 0.5654499982483685, 0.5615999980363995, 0.5640500166919082, 0.5587000050581992, 0.5558500124607235, 0.5756999889854342, 0.5710000114049762, 0.5730999982915819, 0.5610500229522586, 0.5948999896645546, 0.5599500145763159, 0.5617999995592982, 0.5587499763350934, 0.5942500138189644, 0.5653999978676438, 0.5670000100508332, 0.5651499959640205, 0.5623500037472695, 0.6020500150043517, 0.5555999814532697, 0.5912499909754843, 0.5600000149570405, 0.5533000221475959, 0.5768999981228262, 0.5784000095445663, 0.5619500007014722, 0.5669000092893839, 0.5691499973181635, 0.5595499824266881, 0.5616999987978488, 0.5696000007446855, 0.5534500232897699, 0.596199999563396, 0.5815500044263899, 0.5737499741371721, 0.5652999971061945, 0.5573499947786331, 0.5728499963879585, 0.5616999987978488, 0.5659500020556152, 0.5633000109810382, 0.5659499729517847, 0.5734500009566545, 0.5991500220261514, 0.5631500098388642, 0.5633499822579324, 0.5590000073425472, 0.5609999934677035, 0.5619000003207475, 0.5615499976556748, 0.5545000021811575, 0.568700022995472, 0.5765999958384782, 0.5725999944843352, 0.5670999817084521, 0.5727999960072339, 0.5683999916072935, 0.5633500113617629, 0.5730999982915819, 0.5735000013373792, 0.5451500182971358, 0.5727999960072339, 0.5587000050581992, 0.5617999995592982, 0.5688999954145402, 0.5641499883495271, 0.5607000202871859, 0.5650999955832958, 0.600500003201887, 0.5602999881375581, 0.5603499885182828, 0.5773500015493482, 0.5617999995592982, 0.5551500071305782, 0.5529500194825232, 0.5659000016748905, 0.5561000143643469, 0.5585000035353005, 0.5672499828506261, 0.5766999965999275, 0.5685999931301922, 0.5735000013373792, 0.5526499880943447, 0.5667499790433794, 0.5563499871641397, 0.5560500139836222, 0.5525999877136201, 0.5551499780267477, 0.5733500001952052, 0.5650500243064016, 0.5685999931301922, 0.5668499798048288, 0.5569499917328358, 0.5615999980363995, 0.5611999949906021, 0.5723000213038176, 0.5607999919448048, 0.5624000041279942, 0.5639499868266284, 0.5532000213861465, 0.5630000086966902, 0.5797500198241323, 0.5656499997712672, 0.5601499869953841, 0.5654499982483685, 0.5644499906338751, 0.5615499976556748, 0.5715500155929476, 0.5525499873328954, 0.5621500022243708, 0.5625999765470624, 0.5602499877568334, 0.5652999971061945, 0.551699980860576, 0.5581000004895031, 0.5571500223595649, 0.5540499987546355, 0.5967000033706427, 0.5505000008270144, 0.5697000015061349, 0.5600999866146594, 0.5570499924942851, 0.5587000050581992, 0.5537999968510121, 0.5609500221908092, 0.5622999742627144, 0.5695499712601304, 0.5609499930869788, 0.5517999816220254, 0.5653499974869192, 0.5574499955400825, 0.5598500138148665, 0.5582499725278467, 0.5678499874193221, 0.5607499915640801, 0.5721999914385378, 0.5626000056508929, 0.5716499872505665, 0.5621500022243708, 0.5744000081904233, 0.586750014917925, 0.6904000183567405, 0.5869500164408237, 0.5646499921567738, 0.5661000031977892, 0.5660500028170645, 0.5605499900411814, 0.5577499978244305, 0.5704500072170049, 0.6145999941509217, 0.627549976343289, 0.5710000114049762, 0.5643000185955316, 0.5654499982483685, 0.5581000004895031, 0.5572999943979084, 0.5660000024363399, 0.5594499816652387, 0.5689499957952648, 0.580250023631379, 0.5806999979540706, 0.572700024349615, 0.5573999951593578, 0.5601000157184899, 0.5623000033665448, 0.5777000042144209, 0.5634500121232122, 0.5640999879688025, 0.5642999894917011, 0.5638500151690096, 0.5632999818772078, 0.5765999958384782, 0.5644499906338751, 0.5748499825131148, 0.5655499990098178, 0.5579999997280538, 0.5581500008702278, 0.5590999790001661, 0.5800999933853745, 0.6109499954618514, 0.5658500012941658, 0.5675500142388046, 0.5609999934677035, 0.5663000047206879, 0.5607000202871859, 0.5662500043399632, 0.5494999932125211, 0.5568499909713864, 0.5697000015061349, 0.5566500185523182, 0.5573999951593578, 0.5671500111930072, 0.5865999846719205, 0.5652999971061945, 0.5567499902099371, 0.5496999947354198, 0.5557000113185495, 0.5613999965135008, 0.5620000010821968, 0.5560999852605164, 0.5547500040847808, 0.5553500086534768, 0.5607500206679106, 0.5619000003207475, 0.5523499858099967, 0.5615499976556748, 0.5588500062003732, 0.5663500051014125, 0.5595999828074127, 0.5708500102628022, 0.5658500012941658, 0.5652499967254698, 0.5685499927494675, 0.5657500005327165, 0.594600016484037, 0.5570999928750098, 0.5745000089518726, 0.5668500089086592, 0.5627000064123422, 0.5724499933421612, 0.5600999866146594, 0.6949999951757491, 0.6073499971535057, 0.5607500206679106, 0.5612499953713268, 0.5573999951593578, 0.5595000111497939, 0.5640000163111836, 0.6740500102750957, 0.6044500041753054, 0.5598000134341419, 0.4656999954022467, 0.6018500134814531, 0.5639499868266284, 0.5646500212606043, 0.5597000126726925, 0.7253499934449792, 0.5645999917760491, 0.6112499977461994, 0.6027999916113913, 0.5808499990962446, 0.5591000081039965, 0.5798999918624759, 0.6716999923810363, 0.5677500157617033, 0.5709000106435269, 0.5645000201184303, 0.5696000007446855, 0.5553499795496464, 0.5581500008702278, 0.5641999887302518, 0.5596500122919679, 0.5648999940603971, 0.5675499851349741, 0.584250024985522, 0.5610499938484281, 0.5664500058628619, 0.5648999940603971, 0.6116500007919967, 0.5579499993473291, 0.5772000004071742, 0.5714499857276678, 0.5688499950338155, 0.5751999851781875, 0.5639499868266284, 0.5837499920744449, 0.5570499924942851, 0.5650499952025712, 0.5574499955400825, 0.5612000240944326, 0.5823500105179846, 0.5714500148314983, 0.5605000187642872, 0.5577999982051551, 0.568550021853298, 0.5571499932557344, 0.5581000004895031, 0.5633000109810382, 0.5571999936364591, 0.5566499894484878, 0.5609500221908092, 0.5601500160992146, 0.5629000079352409, 0.5645500204991549, 0.5568499909713864, 0.5692499980796129, 0.5613499961327761, 0.5655999993905425, 0.5666000070050359, 0.5694499996025115, 0.5535999953281134, 0.5555000097956508, 0.606999994488433, 0.5612999957520515, 0.5563000158872455, 0.5732499994337559, 0.5674000130966306, 0.5602499877568334, 0.5569999921135604, 0.5761999927926809, 0.6564499926753342, 0.686099985614419, 0.5903499841224402, 0.5544500018004328, 0.5585000035353005, 0.5611999949906021, 0.5582500016316772, 0.586900016060099, 0.5888500018045306, 0.5612499953713268, 0.5723999929614365, 0.5818500067107379, 0.5630500090774149, 0.5611000233329833, 0.5699000030290335, 0.5598500138148665, 0.5631500098388642, 0.5712999845854938, 0.5593000096268952, 0.5789500137325376, 0.5638499860651791, 0.5611500237137079, 0.5576000257860869, 0.5560999852605164, 0.5631500098388642, 0.5737000028602779, 0.5753499863203615, 0.5620500014629215, 0.5606000195257366, 0.5543500010389835, 0.5598499847110361, 0.5603500176221132, 0.5643000185955316, 0.5702500056941062, 0.5645499913953245, 0.5599500145763159, 0.5630000086966902, 0.5603999888990074, 0.5740500055253506, 0.5707500095013529, 0.5635500128846616, 0.5583500023931265, 0.5637499853037298, 0.5567999905906618, 0.5579999997280538, 0.5593000096268952, 0.5654499982483685, 0.5674500134773552, 0.5571999936364591, 0.5583500023931265, 0.5617999995592982, 0.5647499929182231, 0.5573499947786331, 0.5790499853901565, 0.5546000029426068, 0.5682499904651195, 0.5614500259980559, 0.5635500128846616, 0.5717999883927405, 0.5612999957520515, 0.5532999930437654, 0.5597000126726925, 0.5637500144075602, 0.5700500041712075, 0.5574499955400825, 0.5751500139012933, 0.5567500193137676, 0.5661500035785139, 0.5614499968942255, 0.5577499978244305, 0.5624999757856131, 0.5703500064555556, 0.5603999888990074, 0.5815000040456653, 0.5732999998144805, 0.5769999988842756, 0.5679499881807715, 0.5729999975301325, 0.5637999856844544, 0.5708500102628022, 0.5611999949906021, 0.6339000246953219, 0.5648499936796725, 0.5640499875880778, 0.5668500089086592, 0.5583000020124018, 0.5752499855589122, 0.5637000140268356, 0.5588500062003732, 0.5612499953713268, 0.5674499843735248, 0.5637499853037298, 0.5635500128846616, 0.5623500037472695, 0.5578499985858798, 0.5645999917760491, 0.5643999902531505, 0.5735500017181039, 0.5706999800167978, 0.5719499895349145, 0.5687500233761966, 0.5635000125039369, 0.5702500056941062, 0.5596000119112432, 0.5584500031545758, 0.5888500018045306, 0.5669499805662781, 0.551549979718402, 0.672649999614805, 0.5619500007014722, 0.5640500166919082, 0.5546500033233315, 0.5689999961759895, 0.5508500034920871, 0.5707500095013529, 0.5694999999832362, 0.5738500040024519, 0.5685000214725733, 0.5664000054821372, 0.599749997491017, 0.5566999898292124, 0.5546500033233315, 0.5557500116992742, 0.5643499898724258, 0.5683499912265688, 0.5681499897036701, 0.5594500107690692, 0.5665000062435865, 0.5691999976988882, 0.5784000095445663, 0.5647999932989478, 0.5637000140268356, 0.5634500121232122, 0.5673500127159059, 0.5689499957952648, 0.5565499886870384, 0.5670999817084521, 0.5557499825954437, 0.6036000268068165, 0.5797500198241323, 0.5707999807782471, 0.5572500231210142, 0.5495500226970762, 0.5750500131398439, 0.5633000109810382, 0.5670000100508332, 0.5605499900411814, 0.572100019780919, 0.5506500019691885, 0.5540499987546355, 0.5657500005327165, 0.5602500168606639, 0.5752500146627426, 0.5580500001087785, 0.5987500189803541, 0.5703000060748309, 0.5622000026050955, 0.5591000081039965, 0.5505000008270144, 0.5589000065810978, 0.5619500007014722, 0.5768999981228262, 0.5534999945666641, 0.6572999991476536, 0.603899999987334, 0.5637999856844544, 0.5740000051446259, 0.5568000196944922, 0.5542999715544283, 0.5881499964743853, 0.6221999938134104, 0.5631500098388642, 0.5667500081472099, 0.6755499925930053, 0.6038499996066093, 0.5574499955400825, 0.5506000015884638, 0.614249991485849, 0.6711499881930649, 0.6085499771870673, 0.5760499916505069, 0.5412500177044421, 0.5697000015061349, 0.5692499980796129, 0.5655499990098178, 0.5665000062435865, 0.5641499883495271, 0.5593499809037894, 0.5550500063691288, 0.5759499908890575, 0.5563500162679702, 0.5674499843735248, 0.5655999993905425, 0.5656499997712672, 0.5623000033665448, 0.6286999850999564, 0.5605499900411814, 0.5680500180460513, 0.6106000219006091, 0.5588499770965427, 0.5535499949473888, 0.5943499854765832, 0.5661000031977892, 0.5582500016316772, 0.5706500087399036, 0.5779000057373196, 0.5513000069186091, 0.5750500131398439, 0.5579999997280538, 0.5653999978676438, 0.5922999989707023, 0.5560500139836222, 0.5635000125039369, 0.5623000033665448, 0.5613999965135008, 0.5628499784506857, 0.5682500195689499, 0.5707999807782471, 0.5689999961759895, 0.5637499853037298, 0.5643000185955316, 0.5601499869953841, 0.5571999936364591, 0.5562999867834151, 0.5738000036217272, 0.5670999817084521, 0.6027999916113913, 0.5691999976988882, 0.5665500066243112, 0.5690999969374388, 0.5716000159736723, 0.5650499952025712, 0.5680999893229455, 0.5744999798480421, 0.5608500214293599, 0.5848500004503876, 0.5649000231642276, 0.5583000020124018, 0.6318000087048858, 0.6663499807473272, 0.5506500019691885, 0.5571999936364591, 0.5685000214725733, 0.5640000163111836, 0.5695500003639609, 0.5733500001952052, 0.5920000257901847, 0.5735000013373792, 0.5593500100076199, 0.6070499948691577, 0.5877999938093126, 0.5565999890677631, 0.5593999812845141, 0.5641500174533576, 0.5817000055685639, 0.5580500001087785, 0.5578499985858798, 0.6922499742358923, 0.5651499959640205, 0.5611000233329833, 0.5653999978676438, 0.5577999982051551, 0.5601499869953841, 0.5638499860651791, 0.5555000097956508, 0.5694999999832362, 0.582450011279434, 0.5512500065378845, 0.5633999826386571, 0.5658500012941658, 0.5664999771397561, 0.5680500180460513, 0.5807999987155199, 0.5740000051446259, 0.5640500166919082, 0.5930500046815723, 0.5684000207111239, 0.5681999900843948, 0.5687499942723662, 0.5728999967686832, 0.5917499947827309, 0.5731499986723065, 0.5663500051014125, 0.5556500109378248, 0.5573499947786331, 0.5637999856844544, 0.5768499977421016, 0.5620500014629215, 0.5577999982051551, 0.5535499949473888, 0.5776000034529716, 0.5646000208798796, 0.5640000163111836, 0.5598000134341419, 0.5794500175397843, 0.5629000079352409, 0.5607999919448048, 0.5541999998968095, 0.5632999818772078, 0.5527999892365187, 0.5617999995592982, 0.5651999963447452, 0.5761499924119562, 0.5565500177908689, 0.5694999999832362, 0.5676500150002539, 0.5592500092461705, 0.5657500005327165, 0.5665000062435865, 0.5643000185955316, 0.5648499936796725, 0.5649999948218465, 0.5625500052701682, 0.5645499913953245, 0.5653999978676438, 0.5646499921567738, 0.5609999934677035, 0.5615999980363995, 0.5231999966781586, 0.5593000096268952, 0.5580999713856727, 0.5710000114049762, 0.5728499963879585, 0.5588999774772674, 0.5545000021811575, 0.5806999979540706, 0.5697000015061349, 0.5660500028170645, 0.5729999975301325, 0.5685000214725733, 0.5658500012941658, 0.5600500153377652, 0.5606499908026308, 0.5539499979931861, 0.5786499823443592, 0.5640499875880778, 0.5565499886870384, 0.5587000050581992, 0.5659500020556152, 0.5584000027738512, 0.5667999794241041, 0.5643999902531505, 0.5691999976988882, 0.5645499913953245, 0.5722499918192625, 0.5568999913521111, 0.5680000176653266, 0.5673499836120754, 0.5577499978244305, 0.5708999815396965, 0.5622500029858202, 0.5557500116992742, 0.5615999980363995, 0.5577499978244305, 0.5566999898292124, 0.5817000055685639, 0.5652499967254698, 0.5568999913521111, 0.5574999959208071, 0.5643500189762563, 0.5653499974869192, 0.5558500124607235, 0.5718499887734652, 0.5632499814964831, 0.5589999782387167, 0.5607000202871859, 0.5816000048071146, 0.5761999927926809, 0.5677000153809786, 0.5686499935109168, 0.5702500056941062, 0.5614499968942255, 0.5723499925807118, 0.5638500151690096, 0.5600499862339348, 0.5564000166486949, 0.5596999835688621, 0.5614999972749501, 0.5723000213038176, 0.5571499932557344, 0.5528999899979681, 0.5559000128414482, 0.5682499904651195, 0.5669499805662781, 0.5535499949473888, 0.5694999999832362, 0.5578499985858798, 0.5495499935932457, 0.5719999899156392, 0.5679499881807715, 0.5626999773085117, 0.6040000007487833, 0.5670500104315579, 0.5716999876312912, 0.5684500210918486, 0.5630500090774149, 0.5645999917760491, 0.5611499946098775, 0.6222499941941351, 0.5566999898292124, 0.5701000045519322, 0.5709500110242516, 0.5622999742627144, 0.5738000036217272, 0.5595499824266881, 0.5660000024363399, 0.5669500096701086, 0.5608000210486352, 0.5711499834433198, 0.5611499946098775, 0.5623500037472695, 0.5605999904219061, 0.5570500215981156, 0.5827000131830573, 0.5532999930437654, 0.5625499761663377, 0.611299998126924, 0.5634000117424875, 0.5585500039160252, 0.5555500101763755, 0.5837500211782753, 0.7584999839309603, 0.603299995418638, 0.6111000257078558, 0.5635999841615558, 0.5567000189330429, 0.5735499726142734, 0.5644499906338751, 0.5540499987546355, 0.5578999989666045, 0.5610499938484281, 0.5587000050581992, 0.5616999987978488, 0.5593500100076199, 0.5531999922823161, 0.5647999932989478, 0.6161000055726618, 0.6084000051487237, 0.5736000020988286, 0.5590000073425472, 0.5664000054821372, 0.5756000173278153, 0.5763999943155795, 0.5658000009134412, 0.5696000007446855, 0.5623000033665448, 0.568700022995472, 0.5553000082727522, 0.5562999867834151, 0.5632499814964831, 0.5612999957520515, 0.572550023207441, 0.5729499971494079, 0.5723999929614365, 0.5659500020556152, 0.5683499912265688, 0.5693999992217869, 0.5690499965567142, 0.5530500202439725, 0.5610500229522586, 0.5823499814141542, 0.5616499984171242, 0.5633999826386571, 0.5714000144507736, 0.5767999973613769, 0.5649500235449523, 0.5611499946098775, 0.5612499953713268, 0.5570499924942851, 0.5639000155497342, 0.5649000231642276, 0.5797999911010265, 0.5578999989666045, 0.5577499978244305, 0.5613999965135008, 0.5693499988410622, 0.5822500097565353, 0.599149992922321, 0.6587000098079443, 0.5604500183835626, 0.5676999862771481, 0.5672999832313508, 0.5554999806918204, 0.5590499786194414, 0.5651999963447452, 0.5837999924551696, 0.5748000112362206, 0.5540499987546355, 0.5588000058196485, 0.5776000034529716, 0.5729499971494079, 0.5532999930437654, 0.5667999794241041, 0.5541499995160848, 0.5549000052269548, 0.5629000079352409, 0.5554500094149262, 0.605649984208867, 0.5569499917328358, 0.5655000277329236, 0.5704500072170049, 0.5574999959208071, 0.5660999740939587, 0.5729499971494079, 0.5667500081472099, 0.5734500009566545, 0.5534000229090452, 0.5687999946530908, 0.5592000088654459, 0.5630500090774149, 0.5583000020124018, 0.5549000052269548, 0.5597999843303114, 0.5602499877568334, 0.5532499926630408, 0.5603499885182828, 0.5898000090382993, 0.5664500058628619, 0.5586500046774745, 0.5620500014629215, 0.5687499942723662, 0.5718499887734652, 0.5667500081472099, 0.5625500052701682, 0.5659500020556152, 0.5670000100508332, 0.5709999823011458, 0.5648499936796725, 0.5664999771397561, 0.5591500084847212, 0.5628000071737915, 0.5605999904219061, 0.5579000280704349, 0.5552000075113028, 0.5710000114049762, 0.5637999856844544, 0.5716000159736723, 0.5706499796360731, 0.7213499920908362, 0.5643500189762563, 0.5640499875880778, 0.5709499819204211, 0.5699500034097582, 0.5612999957520515, 0.5572999943979084, 0.5685999931301922, 0.5691000260412693, 0.5692999984603375],
  "Depth": 22.5,
  "Expectation Value": -10.34608268737793,
  "Optimal Expectation Value": -12.381489753723145,
  "Optimizer durations [ms]": [12.774, 12.223, 12.425, 11.795, 11.896, 12.174, 12.149, 11.999, 12.441, 11.894, 12.186, 12.296, 12.261, 12.315, 12.171, 12.066, 12.33, 12.304, 12.318, 12.081, 12.456, 11.82, 12.197, 12.003, 12.058, 12.07, 12.439, 12.264, 11.954, 12.252, 12.105, 12.171, 12.149, 12.117, 12.7, 12.751, 23.399, 16.627, 12.168, 11.711, 12.455, 12.184, 12.03, 12.418, 12.129, 12.022, 12.394, 12.106, 12.318, 12.4, 11.936, 12.485, 12.263, 12.387, 12.287, 12.194, 12.391, 12.152, 12.3, 12.237, 12.664, 14.475, 12.185, 12.402, 12.838, 12.364, 12.208, 12.362, 11.957, 12.308, 12.331, 12.135, 12.368, 12.282, 12.327, 12.422, 12.308, 12.234, 11.984, 12.518, 12.131, 12.075, 12.346, 12.476, 12.012, 12.483, 12.164, 12.217, 12.402, 12.421, 12.25, 12.004, 12.282, 12.356, 12.059, 12.362, 12.258, 12.315, 12.055, 12.232, 12.31, 12.212, 12.065, 12.277, 12.209, 12.049, 12.468, 12.218, 12.115, 12.38, 12.329, 12.303, 12.208, 12.109, 12.824, 12.392, 15.169, 12.819, 13.161, 13.855, 12.223, 12.11, 12.403, 14.591, 12.926, 12.201, 24.565, 15.079, 14.707, 13.717, 14.037, 18.279, 12.751, 12.675, 12.068, 12.275, 29.738, 12.084, 12.285, 12.131, 12.208, 12.089, 12.4, 12.878, 12.45, 12.123, 12.162, 12.996, 12.161, 12.209, 12.182, 11.904, 12.791, 12.089, 12.858, 12.171, 12.259, 12.206, 12.532, 11.895, 12.274, 12.362, 12.052, 12.247, 12.318, 11.731, 13.008, 12.75, 12.562, 12.312, 12.018, 12.584, 11.936, 12.593, 12.013, 12.332, 12.356, 12.799, 12.24, 11.993, 12.254, 12.28, 12.354, 12.119, 11.974, 12.196, 12.276, 12.214, 12.675, 12.308, 12.478, 12.46, 12.343, 12.489, 27.999, 12.656, 12.21, 11.959, 12.46, 12.152, 12.055, 12.406, 12.585, 12.253, 12.037, 12.643, 12.182, 12.055, 12.135, 11.904, 12.324, 12.265, 12.197, 12.422, 11.96, 12.735, 12.059, 12.369, 12.267, 16.006, 11.863, 12.134, 12.239, 12.282, 12.472, 12.318, 12.209, 12.219, 12.097, 12.547, 12.12, 12.237, 12.031, 12.269, 11.99, 12.641, 12.415, 12.178, 11.908, 12.384, 12.226, 12.635, 12.085, 12.234, 12.022, 12.281, 12.039, 12.013, 12.227, 11.963, 11.892, 12.723, 12.09, 12.38, 12.195, 12.237, 11.964, 12.037, 12.472, 12.398, 12.16, 12.085, 12.057, 12.206, 12.361, 12.071, 12.189, 12.369, 12.26, 12.326, 12.173, 12.204, 11.913, 12.18, 13.087, 26.205, 15.839, 11.802, 12.359, 12.24, 11.844, 12.017, 12.392, 13.3, 13.628, 12.526, 12.111, 12.243, 11.915, 11.888, 12.482, 11.861, 12.276, 12.462, 12.581, 12.521, 12.255, 12.142, 12.069, 12.433, 12.006, 12.065, 12.421, 12.227, 11.845, 12.575, 11.957, 12.599, 11.912, 12.038, 12.447, 12.132, 12.274, 12.87, 12.406, 12.336, 12.088, 12.29, 12.107, 12.435, 11.634, 12.168, 12.4, 12.147, 12.289, 12.447, 12.807, 12.393, 11.857, 12.149, 11.709, 12.387, 12.133, 11.854, 12.323, 11.904, 11.923, 12.219, 12.002, 12.095, 12.147, 11.976, 12.107, 12.424, 12.336, 12.455, 12.092, 12.418, 12.834, 12.213, 12.315, 12.37, 12.115, 12.308, 11.989, 14.524, 13.528, 12.169, 15.468, 12.084, 12.644, 12.311, 14.531, 12.775, 11.999, 20.813, 12.997, 12.268, 12.302, 12.382, 15.359, 14.49, 13.202, 12.958, 12.645, 11.931, 25.279, 14.896, 12.351, 12.163, 12.206, 12.412, 11.967, 12.428, 13.052, 12.088, 12.431, 12.391, 12.602, 12.272, 12.42, 12.234, 13.011, 12.088, 12.714, 12.134, 12.277, 12.512, 12.331, 12.394, 11.919, 12.241, 12.191, 12.079, 12.613, 12.386, 12.149, 12.19, 12.41, 12.029, 12.058, 12.208, 12.233, 12.26, 12.172, 12.219, 12.215, 11.796, 11.993, 12.207, 12.255, 12.249, 12.643, 12.298, 11.907, 12.352, 12.806, 12.248, 12.183, 12.258, 12.22, 12.125, 12.314, 12.388, 25.289, 14.86, 12.67, 12.158, 12.114, 12.106, 12.199, 12.467, 12.967, 12.215, 12.205, 12.291, 12.447, 12.259, 12.169, 11.857, 12.049, 12.601, 12.157, 12.554, 12.081, 12.034, 12.294, 11.85, 12.005, 12.035, 12.79, 12.054, 12.253, 12.007, 12.124, 12.196, 12.394, 12.047, 12.291, 12.044, 12.152, 12.007, 12.396, 12.188, 12.084, 12.324, 12.369, 12.116, 12.263, 12.337, 12.299, 12.089, 12.37, 11.974, 12.02, 12.315, 12.017, 12.168, 12.325, 12.103, 12.063, 12.066, 12.378, 12.089, 12.357, 11.861, 12.116, 12.507, 12.171, 12.179, 12.141, 12.334, 12.143, 12.026, 12.296, 12.581, 12.021, 12.679, 12.54, 12.322, 12.475, 12.451, 12.284, 12.211, 12.001, 30.441, 12.434, 12.294, 12.444, 12.244, 12.505, 12.069, 12.197, 12.012, 12.344, 12.155, 12.456, 12.016, 11.967, 12.49, 12.293, 12.256, 12.328, 12.226, 13.097, 11.934, 12.49, 11.91, 12.056, 12.867, 16.669, 12.158, 14.371, 11.927, 12.243, 12.054, 12.457, 12.149, 12.172, 12.378, 12.503, 12.149, 12.496, 12.935, 12.188, 11.878, 12.144, 12.017, 12.498, 12.296, 11.821, 12.106, 12.545, 12.598, 12.338, 12.032, 12.321, 12.096, 12.336, 12.007, 12.418, 11.999, 12.845, 12.54, 12.256, 12.468, 12.05, 12.338, 12.342, 12.07, 12.007, 12.673, 12.037, 12.175, 12.131, 12.229, 12.447, 12.104, 13.162, 12.439, 12.104, 12.039, 12.2, 12.352, 12.198, 15.417, 12.117, 14.155, 13.042, 12.296, 12.598, 12.272, 15.346, 12.574, 13.536, 20.671, 13.137, 14.465, 13.26, 11.923, 22.74, 12.83, 16.634, 13.259, 12.281, 28.963, 12.298, 16.357, 12.229, 12.044, 12.445, 12.214, 12.242, 12.451, 12.276, 12.334, 12.435, 12.28, 11.907, 13.378, 11.991, 12.287, 13.045, 12.02, 12.219, 12.656, 12.214, 12.225, 12.013, 12.37, 12.037, 12.296, 11.88, 12.374, 12.575, 12.252, 12.418, 12.206, 12.008, 12.289, 12.272, 12.132, 12.602, 12.225, 12.031, 11.979, 12.38, 12.001, 12.45, 12.209, 13.241, 12.068, 12.263, 12.417, 12.274, 12.414, 12.214, 12.327, 12.052, 12.604, 12.074, 12.435, 20.101, 20.021, 11.948, 12.255, 12.406, 12.485, 12.379, 12.195, 12.845, 12.427, 11.923, 13.272, 12.448, 11.978, 12.428, 12.363, 12.494, 11.721, 12.444, 15.145, 12.145, 12.043, 12.691, 12.117, 12.09, 17.024, 12.052, 12.278, 12.558, 11.897, 12.225, 12.215, 12.158, 12.236, 12.455, 12.402, 12.358, 12.902, 12.421, 11.964, 12.576, 12.245, 12.781, 12.256, 12.504, 12.293, 11.983, 12.365, 12.383, 12.25, 12.149, 11.93, 12.447, 12.134, 12.372, 11.982, 12.765, 12.552, 11.852, 12.382, 12.236, 12.09, 12.138, 12.492, 12.293, 12.069, 12.288, 12.602, 12.151, 12.163, 12.423, 12.256, 12.425, 12.277, 12.358, 12.077, 12.281, 12.381, 12.33, 12.027, 25.831, 20.081, 12.016, 12.459, 12.272, 12.11, 12.08, 12.278, 12.444, 12.209, 12.415, 12.079, 12.262, 12.302, 12.102, 11.997, 12.688, 13.684, 11.817, 12.01, 12.168, 12.275, 12.273, 12.293, 12.468, 15.235, 12.392, 12.274, 12.597, 12.144, 12.152, 12.376, 12.206, 11.96, 12.335, 12.159, 11.898, 12.659, 12.044, 12.197, 12.145, 12.413, 12.297, 12.22, 12.125, 12.53, 12.364, 12.13, 12.33, 12.407, 12.461, 12.2, 12.188, 11.917, 12.091, 12.385, 12.185, 12.067, 11.788, 12.488, 12.433, 11.766, 11.927, 11.769, 12.53, 12.121, 12.284, 12.042, 12.32, 12.026, 12.409, 12.451, 12.133, 13.11, 12.043, 12.021, 12.271, 12.162, 12.496, 11.957, 13.521, 12.251, 12.493, 18.946, 12.113, 12.749, 12.214, 12.456, 12.264, 12.288, 19.103, 12.381, 12.258, 13.994, 12.15, 12.555, 11.833, 22.66, 13.076, 12.044, 12.075, 11.954, 12.77, 21.597, 21.112, 13.232, 12.044, 12.051, 12.423, 12.178, 12.017, 12.257, 11.988, 12.194, 12.202, 12.172, 12.241, 12.346, 13.282, 13.131, 12.167, 12.103, 11.945, 12.423, 12.632, 12.154, 12.122, 12.31, 12.324, 12.226, 12.23, 12.207, 12.027, 12.369, 12.367, 12.33, 12.466, 12.513, 12.155, 12.495, 12.116, 12.095, 12.264, 12.411, 12.215, 12.084, 12.675, 12.26, 12.34, 12.193, 12.112, 12.148, 12.15, 12.397, 12.281, 12.303, 11.8, 12.259, 12.986, 19.578, 16.936, 12.01, 12.254, 11.905, 12.134, 12.163, 12.207, 12.515, 12.259, 12.852, 12.113, 12.385, 12.262, 12.109, 12.359, 12.046, 12.181, 12.003, 12.029, 13.209, 12.271, 12.178, 12.519, 12.275, 11.893, 12.189, 12.399, 12.216, 12.175, 12.077, 12.23, 12.395, 12.169, 12.153, 11.966, 12.445, 12.091, 11.962, 12.861, 12.138, 12.042, 12.589, 12.18, 12.476, 12.154, 12.274, 12.445, 11.993, 12.608, 12.109, 12.131, 12.082, 11.995, 12.188, 12.29, 11.877, 12.417, 12.395, 12.675, 12.252, 23.205, 15.881, 12.174, 12.329, 12.135, 12.255, 12.202, 12.219, 12.433, 12.217],
  "Optimizer iterations": 982,
  "Optimizer params": [0.9372600044272607, 0.40326989127822477, 0.2821150038449043, 0.13107669762642282, 0.23997602589615702, 0.8974019779919963, 0.4440177872007502, 0.06264877463425558, 0.120857669890641, 0.3294883129383214, 0.8119622628401099, 0.7475562420764437, 0.4576356290441984, 0.500484438679165, 0.914271870749621, 0.8149660146350617, 0.19512953435419453, 0.26805557596254087, 0.6311432002410183, 0.5313144164209388, 0.03253965223404735, 0.5104265003999574, 0.987349955886717, 0.0034518954244898946, 0.48626093076947596, 0.9756033384829906, 0.46945398838865093, 0.44025776361113267, 0.9295543412081305, 0.36983729676040167, 0.9715780949267933, 0.2476266555384456, 0.9447416928442165, 0.5117697212420217, 0.4729788232183377, 0.06148184572687962, 0.19409294991115747, 0.9677935398554077, 0.2860140155901308, 0.545782500907307],
  "P": 0,
  "Problem": "IC",
  "QJob durations [ms]": [0.5922999989707023, 0.5692499980796129, 0.5876499926671386, 0.5600999866146594, 0.5461999971885234, 0.5557500116992742, 0.5766999965999275, 0.5645499913953245, 0.5633500113617629, 0.5552000075113028, 0.5608999927062541, 0.5666000070050359, 0.5675499851349741, 0.5666500073857605, 0.5629500083159655, 0.5710500117857009, 0.5654499982483685, 0.5823500105179846, 0.5592500092461705, 0.5637999856844544, 0.5665000062435865, 0.5566000181715935, 0.5571999936364591, 0.5681499897036701, 0.5525500164367259, 0.5578999989666045, 0.5702500056941062, 0.5698000022675842, 0.5555000097956508, 0.5566999898292124, 0.5632500106003135, 0.5724499933421612, 0.5636499845422804, 0.5644499906338751, 0.5771500000264496, 0.5830999871250242, 0.600049999775365, 0.5708499811589718, 0.5579999997280538, 0.551549979718402, 0.5656499997712672, 0.5712500133085996, 0.5600000149570405, 0.5646499921567738, 0.5634500121232122, 0.5680999893229455, 0.5577499978244305, 0.5646999925374985, 0.5689999961759895, 0.5669000092893839, 0.5572999943979084, 0.5670000100508332, 0.5566999898292124, 0.5649499944411218, 0.5714500148314983, 0.5653999978676438, 0.5650499952025712, 0.5655999993905425, 0.5684499919880182, 0.5572499940171838, 0.5894500063732266, 0.5668499798048288, 0.5499499966390431, 0.5678999878000468, 0.5871500179637223, 0.5645000201184303, 0.5490999901667237, 0.5628000071737915, 0.5618499999400228, 0.5599500145763159, 0.5587500054389238, 0.5705500079784542, 0.5631500098388642, 0.5724999937228858, 0.5716500163543969, 0.5756999889854342, 0.5675000138580799, 0.5614999972749501, 0.5563999875448644, 0.5654999986290932, 0.555099977646023, 0.5685499927494675, 0.5603000172413886, 0.5678499874193221, 0.5675999855156988, 0.5748000112362206, 0.5553500086534768, 0.5582500016316772, 0.5764499946963042, 0.5643500189762563, 0.5653499974869192, 0.5632000102195889, 0.5589000065810978, 0.5668500089086592, 0.5622000026050955, 0.5665500066243112, 0.5705500079784542, 0.5717999883927405, 0.5647999932989478, 0.5609499930869788, 0.5747999821323901, 0.5602500168606639, 0.5561999860219657, 0.5565499886870384, 0.5657500005327165, 0.5566499894484878, 0.5652999971061945, 0.5650500243064016, 0.5572499940171838, 0.5842999962624162, 0.5581000004895031, 0.5680499889422208, 0.5621500022243708, 0.5630000086966902, 0.5765499954577535, 0.5643499898724258, 0.7208499882835895, 0.6061999883968383, 0.5977999826427549, 0.5712500133085996, 0.5584000027738512, 0.5673000123351812, 0.5614499968942255, 0.6852500082459301, 0.6100499886088073, 0.5595999828074127, 0.5383500247262418, 0.5605999904219061, 0.6960000027902424, 0.6161000055726618, 0.6521999894175678, 0.5586999759543687, 0.594750017626211, 0.582000007852912, 0.5654499982483685, 0.5615999980363995, 0.5640500166919082, 0.5587000050581992, 0.5558500124607235, 0.5756999889854342, 0.5710000114049762, 0.5730999982915819, 0.5610500229522586, 0.5948999896645546, 0.5599500145763159, 0.5617999995592982, 0.5587499763350934, 0.5942500138189644, 0.5653999978676438, 0.5670000100508332, 0.5651499959640205, 0.5623500037472695, 0.6020500150043517, 0.5555999814532697, 0.5912499909754843, 0.5600000149570405, 0.5533000221475959, 0.5768999981228262, 0.5784000095445663, 0.5619500007014722, 0.5669000092893839, 0.5691499973181635, 0.5595499824266881, 0.5616999987978488, 0.5696000007446855, 0.5534500232897699, 0.596199999563396, 0.5815500044263899, 0.5737499741371721, 0.5652999971061945, 0.5573499947786331, 0.5728499963879585, 0.5616999987978488, 0.5659500020556152, 0.5633000109810382, 0.5659499729517847, 0.5734500009566545, 0.5991500220261514, 0.5631500098388642, 0.5633499822579324, 0.5590000073425472, 0.5609999934677035, 0.5619000003207475, 0.5615499976556748, 0.5545000021811575, 0.568700022995472, 0.5765999958384782, 0.5725999944843352, 0.5670999817084521, 0.5727999960072339, 0.5683999916072935, 0.5633500113617629, 0.5730999982915819, 0.5735000013373792, 0.5451500182971358, 0.5727999960072339, 0.5587000050581992, 0.5617999995592982, 0.5688999954145402, 0.5641499883495271, 0.5607000202871859, 0.5650999955832958, 0.600500003201887, 0.5602999881375581, 0.5603499885182828, 0.5773500015493482, 0.5617999995592982, 0.5551500071305782, 0.5529500194825232, 0.5659000016748905, 0.5561000143643469, 0.5585000035353005, 0.5672499828506261, 0.5766999965999275, 0.5685999931301922, 0.5735000013373792, 0.5526499880943447, 0.5667499790433794, 0.5563499871641397, 0.5560500139836222, 0.5525999877136201, 0.5551499780267477, 0.5733500001952052, 0.5650500243064016, 0.5685999931301922, 0.5668499798048288, 0.5569499917328358, 0.5615999980363995, 0.5611999949906021, 0.5723000213038176, 0.5607999919448048, 0.5624000041279942, 0.5639499868266284, 0.5532000213861465, 0.5630000086966902, 0.5797500198241323, 0.5656499997712672, 0.5601499869953841, 0.5654499982483685, 0.5644499906338751, 0.5615499976556748, 0.5715500155929476, 0.5525499873328954, 0.5621500022243708, 0.5625999765470624, 0.5602499877568334, 0.5652999971061945, 0.551699980860576, 0.5581000004895031, 0.5571500223595649, 0.5540499987546355, 0.5967000033706427, 0.5505000008270144, 0.5697000015061349, 0.5600999866146594, 0.5570499924942851, 0.5587000050581992, 0.5537999968510121, 0.5609500221908092, 0.5622999742627144, 0.5695499712601304, 0.5609499930869788, 0.5517999816220254, 0.5653499974869192, 0.5574499955400825, 0.5598500138148665, 0.5582499725278467, 0.5678499874193221, 0.5607499915640801, 0.5721999914385378, 0.5626000056508929, 0.5716499872505665, 0.5621500022243708, 0.5744000081904233, 0.586750014917925, 0.6904000183567405, 0.5869500164408237, 0.5646499921567738, 0.5661000031977892, 0.5660500028170645, 0.5605499900411814, 0.5577499978244305, 0.5704500072170049, 0.6145999941509217, 0.627549976343289, 0.5710000114049762, 0.5643000185955316, 0.5654499982483685, 0.5581000004895031, 0.5572999943979084, 0.5660000024363399, 0.5594499816652387, 0.5689499957952648, 0.580250023631379, 0.5806999979540706, 0.572700024349615, 0.5573999951593578, 0.5601000157184899, 0.5623000033665448, 0.5777000042144209, 0.5634500121232122, 0.5640999879688025, 0.5642999894917011, 0.5638500151690096, 0.5632999818772078, 0.5765999958384782, 0.5644499906338751, 0.5748499825131148, 0.5655499990098178, 0.5579999997280538, 0.5581500008702278, 0.5590999790001661, 0.5800999933853745, 0.6109499954618514, 0.5658500012941658, 0.5675500142388046, 0.5609999934677035, 0.5663000047206879, 0.5607000202871859, 0.5662500043399632, 0.5494999932125211, 0.5568499909713864, 0.5697000015061349, 0.5566500185523182, 0.5573999951593578, 0.5671500111930072, 0.5865999846719205, 0.5652999971061945, 0.5567499902099371, 0.5496999947354198, 0.5557000113185495, 0.5613999965135008, 0.5620000010821968, 0.5560999852605164, 0.5547500040847808, 0.5553500086534768, 0.5607500206679106, 0.5619000003207475, 0.5523499858099967, 0.5615499976556748, 0.5588500062003732, 0.5663500051014125, 0.5595999828074127, 0.5708500102628022, 0.5658500012941658, 0.5652499967254698, 0.5685499927494675, 0.5657500005327165, 0.594600016484037, 0.5570999928750098, 0.5745000089518726, 0.5668500089086592, 0.5627000064123422, 0.5724499933421612, 0.5600999866146594, 0.6949999951757491, 0.6073499971535057, 0.5607500206679106, 0.5612499953713268, 0.5573999951593578, 0.5595000111497939, 0.5640000163111836, 0.6740500102750957, 0.6044500041753054, 0.5598000134341419, 0.4656999954022467, 0.6018500134814531, 0.5639499868266284, 0.5646500212606043, 0.5597000126726925, 0.7253499934449792, 0.5645999917760491, 0.6112499977461994, 0.6027999916113913, 0.5808499990962446, 0.5591000081039965, 0.5798999918624759, 0.6716999923810363, 0.5677500157617033, 0.5709000106435269, 0.5645000201184303, 0.5696000007446855, 0.5553499795496464, 0.5581500008702278, 0.5641999887302518, 0.5596500122919679, 0.5648999940603971, 0.5675499851349741, 0.584250024985522, 0.5610499938484281, 0.5664500058628619, 0.5648999940603971, 0.6116500007919967, 0.5579499993473291, 0.5772000004071742, 0.5714499857276678, 0.5688499950338155, 0.5751999851781875, 0.5639499868266284, 0.5837499920744449, 0.5570499924942851, 0.5650499952025712, 0.5574499955400825, 0.5612000240944326, 0.5823500105179846, 0.5714500148314983, 0.5605000187642872, 0.5577999982051551, 0.568550021853298, 0.5571499932557344, 0.5581000004895031, 0.5633000109810382, 0.5571999936364591, 0.5566499894484878, 0.5609500221908092, 0.5601500160992146, 0.5629000079352409, 0.5645500204991549, 0.5568499909713864, 0.5692499980796129, 0.5613499961327761, 0.5655999993905425, 0.5666000070050359, 0.5694499996025115, 0.5535999953281134, 0.5555000097956508, 0.606999994488433, 0.5612999957520515, 0.5563000158872455, 0.5732499994337559, 0.5674000130966306, 0.5602499877568334, 0.5569999921135604, 0.5761999927926809, 0.6564499926753342, 0.686099985614419, 0.5903499841224402, 0.5544500018004328, 0.5585000035353005, 0.5611999949906021, 0.5582500016316772, 0.586900016060099, 0.5888500018045306, 0.5612499953713268, 0.5723999929614365, 0.5818500067107379, 0.5630500090774149, 0.5611000233329833, 0.5699000030290335, 0.5598500138148665, 0.5631500098388642, 0.5712999845854938, 0.5593000096268952, 0.5789500137325376, 0.5638499860651791, 0.5611500237137079, 0.5576000257860869, 0.5560999852605164, 0.5631500098388642, 0.5737000028602779, 0.5753499863203615, 0.5620500014629215, 0.5606000195257366, 0.5543500010389835, 0.5598499847110361, 0.5603500176221132, 0.5643000185955316, 0.5702500056941062, 0.5645499913953245, 0.5599500145763159, 0.5630000086966902, 0.5603999888990074, 0.5740500055253506, 0.5707500095013529, 0.5635500128846616, 0.5583500023931265, 0.5637499853037298, 0.5567999905906618, 0.5579999997280538, 0.5593000096268952, 0.5654499982483685, 0.5674500134773552, 0.5571999936364591, 0.5583500023931265, 0.5617999995592982, 0.5647499929182231, 0.5573499947786331, 0.5790499853901565, 0.5546000029426068, 0.5682499904651195, 0.5614500259980559, 0.5635500128846616, 0.5717999883927405, 0.5612999957520515, 0.5532999930437654, 0.5597000126726925, 0.5637500144075602, 0.5700500041712075, 0.5574499955400825, 0.5751500139012933, 0.5567500193137676, 0.5661500035785139, 0.5614499968942255, 0.5577499978244305, 0.5624999757856131, 0.5703500064555556, 0.5603999888990074, 0.5815000040456653, 0.5732999998144805, 0.5769999988842756, 0.5679499881807715, 0.5729999975301325, 0.5637999856844544, 0.5708500102628022, 0.5611999949906021, 0.6339000246953219, 0.5648499936796725, 0.5640499875880778, 0.5668500089086592, 0.5583000020124018, 0.5752499855589122, 0.5637000140268356, 0.5588500062003732, 0.5612499953713268, 0.5674499843735248, 0.5637499853037298, 0.5635500128846616, 0.5623500037472695, 0.5578499985858798, 0.5645999917760491, 0.5643999902531505, 0.5735500017181039, 0.5706999800167978, 0.5719499895349145, 0.5687500233761966, 0.5635000125039369, 0.5702500056941062, 0.5596000119112432, 0.5584500031545758, 0.5888500018045306, 0.5669499805662781, 0.551549979718402, 0.672649999614805, 0.5619500007014722, 0.5640500166919082, 0.5546500033233315, 0.5689999961759895, 0.5508500034920871, 0.5707500095013529, 0.5694999999832362, 0.5738500040024519, 0.5685000214725733, 0.5664000054821372, 0.599749997491017, 0.5566999898292124, 0.5546500033233315, 0.5557500116992742, 0.5643499898724258, 0.5683499912265688, 0.5681499897036701, 0.5594500107690692, 0.5665000062435865, 0.5691999976988882, 0.5784000095445663, 0.5647999932989478, 0.5637000140268356, 0.5634500121232122, 0.5673500127159059, 0.5689499957952648, 0.5565499886870384, 0.5670999817084521, 0.5557499825954437, 0.6036000268068165, 0.5797500198241323, 0.5707999807782471, 0.5572500231210142, 0.5495500226970762, 0.5750500131398439, 0.5633000109810382, 0.5670000100508332, 0.5605499900411814, 0.572100019780919, 0.5506500019691885, 0.5540499987546355, 0.5657500005327165, 0.5602500168606639, 0.5752500146627426, 0.5580500001087785, 0.5987500189803541, 0.5703000060748309, 0.5622000026050955, 0.5591000081039965, 0.5505000008270144, 0.5589000065810978, 0.5619500007014722, 0.5768999981228262, 0.5534999945666641, 0.6572999991476536, 0.603899999987334, 0.5637999856844544, 0.5740000051446259, 0.5568000196944922, 0.5542999715544283, 0.5881499964743853, 0.6221999938134104, 0.5631500098388642, 0.5667500081472099, 0.6755499925930053, 0.6038499996066093, 0.5574499955400825, 0.5506000015884638, 0.614249991485849, 0.6711499881930649, 0.6085499771870673, 0.5760499916505069, 0.5412500177044421, 0.5697000015061349, 0.5692499980796129, 0.5655499990098178, 0.5665000062435865, 0.5641499883495271, 0.5593499809037894, 0.5550500063691288, 0.5759499908890575, 0.5563500162679702, 0.5674499843735248, 0.5655999993905425, 0.5656499997712672, 0.5623000033665448, 0.6286999850999564, 0.5605499900411814, 0.5680500180460513, 0.6106000219006091, 0.5588499770965427, 0.5535499949473888, 0.5943499854765832, 0.5661000031977892, 0.5582500016316772, 0.5706500087399036, 0.5779000057373196, 0.5513000069186091, 0.5750500131398439, 0.5579999997280538, 0.5653999978676438, 0.5922999989707023, 0.5560500139836222, 0.5635000125039369, 0.5623000033665448, 0.5613999965135008, 0.5628499784506857, 0.5682500195689499, 0.5707999807782471, 0.5689999961759895, 0.5637499853037298, 0.5643000185955316, 0.5601499869953841, 0.5571999936364591, 0.5562999867834151, 0.5738000036217272, 0.5670999817084521, 0.6027999916113913, 0.5691999976988882, 0.5665500066243112, 0.5690999969374388, 0.5716000159736723, 0.5650499952025712, 0.5680999893229455, 0.5744999798480421, 0.5608500214293599, 0.5848500004503876, 0.5649000231642276, 0.5583000020124018, 0.6318000087048858, 0.6663499807473272, 0.5506500019691885, 0.5571999936364591, 0.5685000214725733, 0.5640000163111836, 0.5695500003639609, 0.5733500001952052, 0.5920000257901847, 0.5735000013373792, 0.5593500100076199, 0.6070499948691577, 0.5877999938093126, 0.5565999890677631, 0.5593999812845141, 0.5641500174533576, 0.5817000055685639, 0.5580500001087785, 0.5578499985858798, 0.6922499742358923, 0.5651499959640205, 0.5611000233329833, 0.5653999978676438, 0.5577999982051551, 0.5601499869953841, 0.5638499860651791, 0.5555000097956508, 0.5694999999832362, 0.582450011279434, 0.5512500065378845, 0.5633999826386571, 0.5658500012941658, 0.5664999771397561, 0.5680500180460513, 0.5807999987155199, 0.5740000051446259, 0.5640500166919082, 0.5930500046815723, 0.5684000207111239, 0.5681999900843948, 0.5687499942723662, 0.5728999967686832, 0.5917499947827309, 0.5731499986723065, 0.5663500051014125, 0.5556500109378248, 0.5573499947786331, 0.5637999856844544, 0.5768499977421016, 0.5620500014629215, 0.5577999982051551, 0.5535499949473888, 0.5776000034529716, 0.5646000208798796, 0.5640000163111836, 0.5598000134341419, 0.5794500175397843, 0.5629000079352409, 0.5607999919448048, 0.5541999998968095, 0.5632999818772078, 0.5527999892365187, 0.5617999995592982, 0.5651999963447452, 0.5761499924119562, 0.5565500177908689, 0.5694999999832362, 0.5676500150002539, 0.5592500092461705, 0.5657500005327165, 0.5665000062435865, 0.5643000185955316, 0.5648499936796725, 0.5649999948218465, 0.5625500052701682, 0.5645499913953245, 0.5653999978676438, 0.5646499921567738, 0.5609999934677035, 0.5615999980363995, 0.5231999966781586, 0.5593000096268952, 0.5580999713856727, 0.5710000114049762, 0.5728499963879585, 0.5588999774772674, 0.5545000021811575, 0.5806999979540706, 0.5697000015061349, 0.5660500028170645, 0.5729999975301325, 0.5685000214725733, 0.5658500012941658, 0.5600500153377652, 0.5606499908026308, 0.5539499979931861, 0.5786499823443592, 0.5640499875880778, 0.5565499886870384, 0.5587000050581992, 0.5659500020556152, 0.5584000027738512, 0.5667999794241041, 0.5643999902531505, 0.5691999976988882, 0.5645499913953245, 0.5722499918192625, 0.5568999913521111, 0.5680000176653266, 0.5673499836120754, 0.5577499978244305, 0.5708999815396965, 0.5622500029858202, 0.5557500116992742, 0.5615999980363995, 0.5577499978244305, 0.5566999898292124, 0.5817000055685639, 0.5652499967254698, 0.5568999913521111, 0.5574999959208071, 0.5643500189762563, 0.5653499974869192, 0.5558500124607235, 0.5718499887734652, 0.5632499814964831, 0.5589999782387167, 0.5607000202871859, 0.5816000048071146, 0.5761999927926809, 0.5677000153809786, 0.5686499935109168, 0.5702500056941062, 0.5614499968942255, 0.5723499925807118, 0.5638500151690096, 0.5600499862339348, 0.5564000166486949, 0.5596999835688621, 0.5614999972749501, 0.5723000213038176, 0.5571499932557344, 0.5528999899979681, 0.5559000128414482, 0.5682499904651195, 0.5669499805662781, 0.5535499949473888, 0.5694999999832362, 0.5578499985858798, 0.5495499935932457, 0.5719999899156392, 0.5679499881807715, 0.5626999773085117, 0.6040000007487833, 0.5670500104315579, 0.5716999876312912, 0.5684500210918486, 0.5630500090774149, 0.5645999917760491, 0.5611499946098775, 0.6222499941941351, 0.5566999898292124, 0.5701000045519322, 0.5709500110242516, 0.5622999742627144, 0.5738000036217272, 0.5595499824266881, 0.5660000024363399, 0.5669500096701086, 0.5608000210486352, 0.5711499834433198, 0.5611499946098775, 0.5623500037472695, 0.5605999904219061, 0.5570500215981156, 0.5827000131830573, 0.5532999930437654, 0.5625499761663377, 0.611299998126924, 0.5634000117424875, 0.5585500039160252, 0.5555500101763755, 0.5837500211782753, 0.7584999839309603, 0.603299995418638, 0.6111000257078558, 0.5635999841615558, 0.5567000189330429, 0.5735499726142734, 0.5644499906338751, 0.5540499987546355, 0.5578999989666045, 0.5610499938484281, 0.5587000050581992, 0.5616999987978488, 0.5593500100076199, 0.5531999922823161, 0.5647999932989478, 0.6161000055726618, 0.6084000051487237, 0.5736000020988286, 0.5590000073425472, 0.5664000054821372, 0.5756000173278153, 0.5763999943155795, 0.5658000009134412, 0.5696000007446855, 0.5623000033665448, 0.568700022995472, 0.5553000082727522, 0.5562999867834151, 0.5632499814964831, 0.5612999957520515, 0.572550023207441, 0.5729499971494079, 0.5723999929614365, 0.5659500020556152, 0.5683499912265688, 0.5693999992217869, 0.5690499965567142, 0.5530500202439725, 0.5610500229522586, 0.5823499814141542, 0.5616499984171242, 0.5633999826386571, 0.5714000144507736, 0.5767999973613769, 0.5649500235449523, 0.5611499946098775, 0.5612499953713268, 0.5570499924942851, 0.5639000155497342, 0.5649000231642276, 0.5797999911010265, 0.5578999989666045, 0.5577499978244305, 0.5613999965135008, 0.5693499988410622, 0.5822500097565353, 0.599149992922321, 0.6587000098079443, 0.5604500183835626, 0.5676999862771481, 0.5672999832313508, 0.5554999806918204, 0.5590499786194414, 0.5651999963447452, 0.5837999924551696, 0.5748000112362206, 0.5540499987546355, 0.5588000058196485, 0.5776000034529716, 0.5729499971494079, 0.5532999930437654, 0.5667999794241041, 0.5541499995160848, 0.5549000052269548, 0.5629000079352409, 0.5554500094149262, 0.605649984208867, 0.5569499917328358, 0.5655000277329236, 0.5704500072170049, 0.5574999959208071, 0.5660999740939587, 0.5729499971494079, 0.5667500081472099, 0.5734500009566545, 0.5534000229090452, 0.5687999946530908, 0.5592000088654459, 0.5630500090774149, 0.5583000020124018, 0.5549000052269548, 0.5597999843303114, 0.5602499877568334, 0.5532499926630408, 0.5603499885182828, 0.5898000090382993, 0.5664500058628619, 0.5586500046774745, 0.5620500014629215, 0.5687499942723662, 0.5718499887734652, 0.5667500081472099, 0.5625500052701682, 0.5659500020556152, 0.5670000100508332, 0.5709999823011458, 0.5648499936796725, 0.5664999771397561, 0.5591500084847212, 0.5628000071737915, 0.5605999904219061, 0.5579000280704349, 0.5552000075113028, 0.5710000114049762, 0.5637999856844544, 0.5716000159736723, 0.5706499796360731, 0.7213499920908362, 0.5643500189762563, 0.5640499875880778, 0.5709499819204211, 0.5699500034097582, 0.5612999957520515, 0.5572999943979084, 0.5685999931301922, 0.5691000260412693, 0.5692999984603375],
  "QPU": "7000000",
  "Qubits": 10,
  "Queue durations [ms]": [0.0, 0.0, 0.0, 0.0, 0.0, 0.0, 0.0, 0.0, 0.0, 0.0, 0.0, 0.0, 0.0, 0.0, 0.0, 0.0, 0.0, 0.0, 0.0, 0.0, 0.0, 0.0, 0.0, 0.0, 0.0, 0.0, 0.0, 0.0, 0.0, 0.0, 0.0, 0.0, 0.0, 0.0, 0.0, 0.0, 0.0, 0.0, 0.0, 0.0, 0.0, 0.0, 0.0, 0.0, 0.0, 0.0, 0.0, 0.0, 0.0, 0.0, 0.0, 0.0, 0.0, 0.0, 0.0, 0.0, 0.0, 0.0, 0.0, 0.0, 0.0, 0.0, 0.0, 0.0, 0.0, 0.0, 0.0, 0.0, 0.0, 0.0, 0.0, 0.0, 0.0, 0.0, 0.0, 0.0, 0.0, 0.0, 0.0, 0.0, 0.0, 0.0, 0.0, 0.0, 0.0, 0.0, 0.0, 0.0, 0.0, 0.0, 0.0, 0.0, 0.0, 0.0, 0.0, 0.0, 0.0, 0.0, 0.0, 0.0, 0.0, 0.0, 0.0, 0.0, 0.0, 0.0, 0.0, 0.0, 0.0, 0.0, 0.0, 0.0, 0.0, 0.0, 0.0, 0.0, 0.0, 0.0, 0.0, 0.0, 0.0, 0.0, 0.0, 0.0, 0.0, 0.0, 0.0, 0.0, 0.0, 0.0, 0.0, 0.0, 0.0, 0.0, 0.0, 0.0, 0.0, 0.0, 0.0, 0.0, 0.0, 0.0, 0.0, 0.0, 0.0, 0.0, 0.0, 0.0, 0.0, 0.0, 0.0, 0.0, 0.0, 0.0, 0.0, 0.0, 0.0, 0.0, 0.0, 0.0, 0.0, 0.0, 0.0, 0.0, 0.0, 0.0, 0.0, 0.0, 0.0, 0.0, 0.0, 0.0, 0.0, 0.0, 0.0, 0.0, 0.0, 0.0, 0.0, 0.0, 0.0, 0.0, 0.0, 0.0, 0.0, 0.0, 0.0, 0.0, 0.0, 0.0, 0.0, 0.0, 0.0, 0.0, 0.0, 0.0, 0.0, 0.0, 0.0, 0.0, 0.0, 0.0, 0.0, 0.0, 0.0, 0.0, 0.0, 0.0, 0.0, 0.0, 0.0, 0.0, 0.0, 0.0, 0.0, 0.0, 0.0, 0.0, 0.0, 0.0, 0.0, 0.0, 0.0, 0.0, 0.0, 0.0, 0.0, 0.0, 0.0, 0.0, 0.0, 0.0, 0.0, 0.0, 0.0, 0.0, 0.0, 0.0, 0.0, 0.0, 0.0, 0.0, 0.0, 0.0, 0.0, 0.0, 0.0, 0.0, 0.0, 0.0, 0.0, 0.0, 0.0, 0.0, 0.0, 0.0, 0.0, 0.0, 0.0, 0.0, 0.0, 0.0, 0.0, 0.0, 0.0, 0.0, 0.0, 0.0, 0.0, 0.0, 0.0, 0.0, 0.0, 0.0, 0.0, 0.0, 0.0, 0.0, 0.0, 0.0, 0.0, 0.0, 0.0, 0.0, 0.0, 0.0, 0.0, 0.0, 0.0, 0.0, 0.0, 0.0, 0.0, 0.0, 0.0, 0.0, 0.0, 0.0, 0.0, 0.0, 0.0, 0.0, 0.0, 0.0, 0.0, 0.0, 0.0, 0.0, 0.0, 0.0, 0.0, 0.0, 0.0, 0.0, 0.0, 0.0, 0.0, 0.0, 0.0, 0.0, 0.0, 0.0, 0.0, 0.0, 0.0, 0.0, 0.0, 0.0, 0.0, 0.0, 0.0, 0.0, 0.0, 0.0, 0.0, 0.0, 0.0, 0.0, 0.0, 0.0, 0.0, 0.0, 0.0, 0.0, 0.0, 0.0, 0.0, 0.0, 0.0, 0.0, 0.0, 0.0, 0.0, 0.0, 0.0, 0.0, 0.0, 0.0, 0.0, 0.0, 0.0, 0.0, 0.0, 0.0, 0.0, 0.0, 0.0, 0.0, 0.0, 0.0, 0.0, 0.0, 0.0, 0.0, 0.0, 0.0, 0.0, 0.0, 0.0, 0.0, 0.0, 0.0, 0.0, 0.0, 0.0, 0.0, 0.0, 0.0, 0.0, 0.0, 0.0, 0.0, 0.0, 0.0, 0.0, 0.0, 0.0, 0.0, 0.0, 0.0, 0.0, 0.0, 0.0, 0.0, 0.0, 0.0, 0.0, 0.0, 0.0, 0.0, 0.0, 0.0, 0.0, 0.0, 0.0, 0.0, 0.0, 0.0, 0.0, 0.0, 0.0, 0.0, 0.0, 0.0, 0.0, 0.0, 0.0, 0.0, 0.0, 0.0, 0.0, 0.0, 0.0, 0.0, 0.0, 0.0, 0.0, 0.0, 0.0, 0.0, 0.0, 0.0, 0.0, 0.0, 0.0, 0.0, 0.0, 0.0, 0.0, 0.0, 0.0, 0.0, 0.0, 0.0, 0.0, 0.0, 0.0, 0.0, 0.0, 0.0, 0.0, 0.0, 0.0, 0.0, 0.0, 0.0, 0.0, 0.0, 0.0, 0.0, 0.0, 0.0, 0.0, 0.0, 0.0, 0.0, 0.0, 0.0, 0.0, 0.0, 0.0, 0.0, 0.0, 0.0, 0.0, 0.0, 0.0, 0.0, 0.0, 0.0, 0.0, 0.0, 0.0, 0.0, 0.0, 0.0, 0.0, 0.0, 0.0, 0.0, 0.0, 0.0, 0.0, 0.0, 0.0, 0.0, 0.0, 0.0, 0.0, 0.0, 0.0, 0.0, 0.0, 0.0, 0.0, 0.0, 0.0, 0.0, 0.0, 0.0, 0.0, 0.0, 0.0, 0.0, 0.0, 0.0, 0.0, 0.0, 0.0, 0.0, 0.0, 0.0, 0.0, 0.0, 0.0, 0.0, 0.0, 0.0, 0.0, 0.0, 0.0, 0.0, 0.0, 0.0, 0.0, 0.0, 0.0, 0.0, 0.0, 0.0, 0.0, 0.0, 0.0, 0.0, 0.0, 0.0, 0.0, 0.0, 0.0, 0.0, 0.0, 0.0, 0.0, 0.0, 0.0, 0.0, 0.0, 0.0, 0.0, 0.0, 0.0, 0.0, 0.0, 0.0, 0.0, 0.0, 0.0, 0.0, 0.0, 0.0, 0.0, 0.0, 0.0, 0.0, 0.0, 0.0, 0.0, 0.0, 0.0, 0.0, 0.0, 0.0, 0.0, 0.0, 0.0, 0.0, 0.0, 0.0, 0.0, 0.0, 0.0, 0.0, 0.0, 0.0, 0.0, 0.0, 0.0, 0.0, 0.0, 0.0, 0.0, 0.0, 0.0, 0.0, 0.0, 0.0, 0.0, 0.0, 0.0, 0.0, 0.0, 0.0, 0.0, 0.0, 0.0, 0.0, 0.0, 0.0, 0.0, 0.0, 0.0, 0.0, 0.0, 0.0, 0.0, 0.0, 0.0, 0.0, 0.0, 0.0, 0.0, 0.0, 0.0, 0.0, 0.0, 0.0, 0.0, 0.0, 0.0, 0.0, 0.0, 0.0, 0.0, 0.0, 0.0, 0.0, 0.0, 0.0, 0.0, 0.0, 0.0, 0.0, 0.0, 0.0, 0.0, 0.0, 0.0, 0.0, 0.0, 0.0, 0.0, 0.0, 0.0, 0.0, 0.0, 0.0, 0.0, 0.0, 0.0, 0.0, 0.0, 0.0, 0.0, 0.0, 0.0, 0.0, 0.0, 0.0, 0.0, 0.0, 0.0, 0.0, 0.0, 0.0, 0.0, 0.0, 0.0, 0.0, 0.0, 0.0, 0.0, 0.0, 0.0, 0.0, 0.0, 0.0, 0.0, 0.0, 0.0, 0.0, 0.0, 0.0, 0.0, 0.0, 0.0, 0.0, 0.0, 0.0, 0.0, 0.0, 0.0, 0.0, 0.0, 0.0, 0.0, 0.0, 0.0, 0.0, 0.0, 0.0, 0.0, 0.0, 0.0, 0.0, 0.0, 0.0, 0.0, 0.0, 0.0, 0.0, 0.0, 0.0, 0.0, 0.0, 0.0, 0.0, 0.0, 0.0, 0.0, 0.0, 0.0, 0.0, 0.0, 0.0, 0.0, 0.0, 0.0, 0.0, 0.0, 0.0, 0.0, 0.0, 0.0, 0.0, 0.0, 0.0, 0.0, 0.0, 0.0, 0.0, 0.0, 0.0, 0.0, 0.0, 0.0, 0.0, 0.0, 0.0, 0.0, 0.0, 0.0, 0.0, 0.0, 0.0, 0.0, 0.0, 0.0, 0.0, 0.0, 0.0, 0.0, 0.0, 0.0, 0.0, 0.0, 0.0, 0.0, 0.0, 0.0, 0.0, 0.0, 0.0, 0.0, 0.0, 0.0, 0.0, 0.0, 0.0, 0.0, 0.0, 0.0, 0.0, 0.0, 0.0, 0.0, 0.0, 0.0, 0.0, 0.0, 0.0, 0.0, 0.0, 0.0, 0.0, 0.0, 0.0, 0.0, 0.0, 0.0, 0.0, 0.0, 0.0, 0.0, 0.0, 0.0, 0.0, 0.0, 0.0, 0.0, 0.0, 0.0, 0.0, 0.0, 0.0, 0.0, 0.0, 0.0, 0.0, 0.0, 0.0, 0.0, 0.0, 0.0, 0.0, 0.0, 0.0, 0.0, 0.0, 0.0, 0.0, 0.0, 0.0, 0.0, 0.0, 0.0, 0.0, 0.0, 0.0, 0.0, 0.0, 0.0, 0.0, 0.0, 0.0, 0.0, 0.0, 0.0, 0.0, 0.0, 0.0, 0.0, 0.0, 0.0, 0.0, 0.0, 0.0, 0.0, 0.0, 0.0, 0.0, 0.0, 0.0, 0.0, 0.0, 0.0, 0.0, 0.0, 0.0, 0.0, 0.0, 0.0, 0.0, 0.0, 0.0, 0.0, 0.0, 0.0, 0.0, 0.0, 0.0, 0.0, 0.0, 0.0, 0.0, 0.0, 0.0, 0.0, 0.0, 0.0, 0.0, 0.0, 0.0, 0.0, 0.0, 0.0, 0.0, 0.0, 0.0, 0.0, 0.0, 0.0, 0.0, 0.0, 0.0, 0.0, 0.0, 0.0, 0.0, 0.0, 0.0, 0.0, 0.0, 0.0, 0.0, 0.0, 0.0, 0.0, 0.0, 0.0, 0.0, 0.0, 0.0, 0.0, 0.0, 0.0, 0.0, 0.0, 0.0, 0.0, 0.0, 0.0, 0.0, 0.0, 0.0, 0.0, 0.0, 0.0, 0.0, 0.0, 0.0, 0.0, 0.0, 0.0, 0.0, 0.0, 0.0, 0.0, 0.0, 0.0, 0.0, 0.0, 0.0],
  "Shots": 4096,
  "Size": 10,
  "Total Algorithm duration [s]": 12.417,
  "Total Classic duration [s]": 11.858113349836087,
  "Total Quantum duration [s]": 0.5588866501639131
}
