{
  "Circuit execution durations [ms]": [0.579800020204857, 0.5656499997712672, 0.5679000169038773, 0.5671000108122826, 0.5578999989666045, 0.5646999925374985, 0.5655499990098178, 0.5629500083159655, 0.5737000028602779, 0.5563499871641397, 0.5638000147882849, 0.5678499874193221, 0.5603000172413886, 0.5758999905083328, 0.5699999746866524, 0.5699000030290335, 0.5613499961327761, 0.5721999914385378, 0.5709999823011458, 0.5619000003207475, 0.5696000007446855, 0.582600012421608, 0.5653999978676438, 0.5796499899588525, 0.5662500043399632, 0.5636000132653862, 0.5598000134341419, 0.6185500242281705, 0.5678000161424279, 0.5681000184267759, 0.5653999978676438, 0.5569499917328358, 0.573000026633963, 0.5621500022243708, 0.5655499990098178, 0.5558000120799989, 0.594450015341863, 0.5556499818339944, 0.5571999936364591, 0.5682999908458441, 0.5808999994769692, 0.5720499902963638, 0.5677499866578728, 0.6082500040065497, 0.5579999997280538, 0.5587500054389238, 0.5615999980363995, 0.5672499828506261, 0.568850024137646, 0.5495999939739704, 0.5771000287495553, 0.5855000053998083, 0.5616499984171242, 0.5605499900411814, 0.5573000235017389, 0.5658000009134412, 0.5651499959640205, 0.5646499921567738, 0.5635000125039369, 0.5634500121232122, 0.5707500095013529, 0.5682999908458441, 0.5660500028170645, 0.5633499822579324, 0.5642000178340822, 0.5744499794673175, 0.6412999937310815, 0.6684499967377633, 0.5681499897036701, 0.5701500049326569, 0.5653499974869192, 0.5710000114049762, 0.5672000115737319, 0.5634499830193818, 0.5697000015061349, 0.5742000066675246, 0.5932999774813652, 0.5719000182580203, 0.605649984208867, 0.5634000117424875, 0.5554500094149262, 0.5667000077664852, 0.5741500062867999, 0.5666500073857605, 0.5681000184267759, 0.5790499853901565, 0.5601000157184899, 0.5683500203303993, 0.5661500035785139, 0.5689499957952648, 0.5967500037513673, 0.5576499970629811, 0.5813000025227666, 0.5651499959640205, 0.5681500188075006, 0.5724499933421612, 0.5641999887302518, 0.5651499959640205, 0.5750000127591193, 0.5664500058628619, 0.5729499971494079, 0.5624500045087188, 0.5575999966822565, 0.5798500205855817, 0.5539499979931861, 0.5634000117424875, 0.5725999944843352, 0.5936999805271626, 0.5625000048894435, 0.5673499836120754, 0.5634500121232122, 0.5754500161856413, 0.5546000029426068, 0.5712999845854938, 0.5701000045519322, 0.5713499849662185, 0.5701500049326569, 0.5674499843735248, 0.5680999893229455, 0.5674500134773552, 0.5531500210054219, 0.5692500271834433, 0.5694999999832362, 0.5595499824266881, 0.5666000070050359, 0.5679999885614961, 0.5663000047206879, 0.5707499803975224, 0.5669999809470028, 0.5641499883495271, 0.5559999844990671, 0.5676000146195292, 0.5614999972749501, 0.5630500090774149, 0.5508500034920871, 0.5736500024795532, 0.5776000034529716, 0.5806499975733459, 0.5630000086966902, 0.5897500086575747, 0.57565001770854, 0.5657500005327165, 0.5664000054821372, 0.5597499839495867, 0.5534000229090452, 0.5609999934677035, 0.7056499889586121, 0.607900001341477, 0.5634999834001064, 0.5695500003639609, 0.5658000009134412, 0.5615999980363995, 0.5563999875448644, 0.671899993903935, 0.6214499881025404, 0.5699500034097582, 0.5680999893229455, 0.5695500003639609, 0.5637500144075602, 0.5694499996025115, 0.5709500110242516, 0.6717999931424856, 0.5640999879688025, 0.6036999984644353, 0.5893999768886715, 0.5537999968510121, 0.5784999812021852, 0.5953999934718013, 0.658750010188669, 0.5772500007878989, 0.5710000114049762, 0.5673500127159059, 0.5607000202871859, 0.5785500106867403, 0.5616499984171242, 0.5580500001087785, 0.5617499991785735, 0.5629999795928597, 0.5703500064555556, 0.5582500016316772, 0.5676499858964235, 0.5573499947786331, 0.5610500229522586, 0.5667000077664852, 0.5810500006191432, 0.600049999775365, 0.5663499759975821, 0.5906499864067882, 0.5598000134341419, 0.5551500071305782, 0.5612499953713268, 0.5696000007446855, 0.5711500125471503, 0.5651999963447452, 0.5770999996457249, 0.5676999862771481, 0.5563999875448644, 0.5761999927926809, 0.5601999873761088, 0.5606499908026308, 0.5609499930869788, 0.5653999978676438, 0.5742500070482492, 0.572100019780919, 0.5672500119544566, 0.5654999986290932, 0.5601999873761088, 0.5637500144075602, 0.5637499853037298, 0.5575499963015318, 0.5708000098820776, 0.5672500119544566, 0.5552000075113028, 0.5644499906338751, 0.5647499929182231, 0.5558500124607235, 0.5729499971494079, 0.5654499982483685, 0.5719000182580203, 0.5603999888990074, 0.5671000108122826, 0.5730500270146877, 0.5554000090342015, 0.5604000180028379, 0.5681499897036701, 0.7135000196285546, 0.6531000253744423, 0.5695500003639609, 0.5731499986723065, 0.5697000015061349, 0.5582500016316772, 0.5602499877568334, 0.5764499946963042, 0.5918999959249049, 0.555099977646023, 0.5568000196944922, 0.607900001341477, 0.5602000164799392, 0.5590500077232718, 0.5621000018436462, 0.5780500068794936, 0.5607999919448048, 0.5682000191882253, 0.5671500111930072, 0.5642500182148069, 0.5717999883927405, 0.5748000112362206, 0.5714499857276678, 0.6007000047247857, 0.5960999988019466, 0.5571999936364591, 0.5737500032410026, 0.5777500045951456, 0.5650499952025712, 0.5603499885182828, 0.5582500016316772, 0.61114999698475, 0.5641499883495271, 0.575500016566366, 0.5619000003207475, 0.5651999963447452, 0.5762000218965113, 0.5709000106435269, 0.5574999959208071, 0.5561000143643469, 0.5830000154674053, 0.5785500106867403, 0.5719999899156392, 0.5620500014629215, 0.5685999931301922, 0.5681000184267759, 0.575500016566366, 0.5613500252366066, 0.5692499980796129, 0.5783499800600111, 0.5665500066243112, 0.5617999995592982, 0.5667999794241041, 0.5596499831881374, 0.5695500003639609, 0.5686000222340226, 0.5748499825131148, 0.5683999916072935, 0.5679500172846019, 0.5599500145763159, 0.5607500206679106, 0.5634999834001064, 0.5691999976988882, 0.5729000258725137, 0.5616499984171242, 0.5611499946098775, 0.5594500107690692, 0.5527500179596245, 0.5628000071737915, 0.5804999964311719, 0.5735000013373792, 0.5676000146195292, 0.5639499868266284, 0.5782500084023923, 0.5635000125039369, 0.5707500095013529, 0.5597500130534172, 0.5701500049326569, 0.5674500134773552, 0.7099000213202089, 0.607599999057129, 0.5686499935109168, 0.568550021853298, 0.5638999864459038, 0.5612499953713268, 0.5682999908458441, 0.5687499942723662, 0.5584000027738512, 0.5670999817084521, 0.5686000222340226, 0.5571499932557344, 0.5575999966822565, 0.5617499991785735, 0.5622999742627144, 0.5579999997280538, 0.5732999998144805, 0.5697999731637537, 0.5585500039160252, 0.5646500212606043, 0.5649999948218465, 0.5605500191450119, 0.5642000178340822, 0.5566499894484878, 0.5651000246871263, 0.603149994276464, 0.5674499843735248, 0.5665000062435865, 0.5617999995592982, 0.5572999943979084, 0.5578499985858798, 0.5575499963015318, 0.5640499875880778, 0.5644000193569809, 0.5683999916072935, 0.5763499939348549, 0.5716500163543969, 0.5592500092461705, 0.5639000155497342, 0.5801999941468239, 0.5639499868266284, 0.5689499957952648, 0.5562500155065209, 0.5553500086534768, 0.5767499969806522, 0.5690499965567142, 0.5686999938916415, 0.5606499908026308, 0.5803499952889979, 0.5729999975301325, 0.5560500139836222, 0.5687999946530908, 0.5713999853469431, 0.5629500083159655, 0.5654499982483685, 0.5603000172413886, 0.5600999866146594, 0.5603999888990074, 0.5660500028170645, 0.5582499725278467, 0.5683999916072935, 0.582750013563782, 0.5695500003639609, 0.5736999737564474, 0.5579499993473291, 0.5612999957520515, 0.5752500146627426, 0.5622999742627144, 0.5669499805662781, 0.5670499813277274, 0.5601499869953841, 0.5738000036217272, 0.5652999971061945, 0.5568499909713864, 0.5968499754089862, 0.5721999914385378, 0.5598000134341419, 0.5676999862771481, 0.5603500176221132, 0.5588500062003732, 0.5566999898292124, 0.5723499925807118, 0.5610999942291528, 0.6948500231374055, 0.601100007770583, 0.578600011067465, 0.5571000219788402, 0.5797499907203019, 0.5677500157617033, 0.5659000016748905, 0.6659000064246356, 0.5564499879255891, 0.5572999943979084, 0.690549990395084, 0.6049499788787216, 0.5571999936364591, 0.5377000197768211, 0.5610500229522586, 0.5597999843303114, 0.6172000139486045, 0.6810500053688884, 0.672800000756979, 0.6615499733015895, 0.5582500016316772, 0.5659500020556152, 0.5731999990530312, 0.5598000134341419, 0.5704500072170049, 0.5566999898292124, 0.5654499982483685, 0.5617999995592982, 0.5685499927494675, 0.5612999957520515, 0.5603499885182828, 0.5537999968510121, 0.5565499886870384, 0.5575000250246376, 0.5628499784506857, 0.5743500078096986, 0.5905999860260636, 0.5707000091206282, 0.5628000071737915, 0.5678500165231526, 0.5718500178772956, 0.5645499913953245, 0.5733500001952052, 0.5702000053133816, 0.5623500037472695, 0.5670499813277274, 0.5697500018868595, 0.5536499957088381, 0.5645999917760491, 0.5537999968510121, 0.5736500024795532, 0.5572499940171838, 0.5594000103883445, 0.5511500057764351, 0.5597499839495867, 0.5687499942723662, 0.5678500165231526, 0.5692999984603375, 0.5654999986290932, 0.5645500204991549, 0.5686499935109168, 0.5635499837808311, 0.5613999965135008, 0.5600500153377652, 0.5712499842047691, 0.5641999887302518, 0.5620500014629215, 0.5655999993905425, 0.5697500018868595, 0.5659500020556152, 0.5618499999400228, 0.5632000102195889, 0.5704000068362802, 0.5631000094581395, 0.5634000117424875, 0.7181499968282878, 0.676199997542426, 0.5522999854292721, 0.5674500134773552, 0.5554500094149262, 0.5648999940603971, 0.5828499852214009, 0.5571999936364591, 0.5959999980404973, 0.5598499847110361, 0.5625499761663377, 0.5675499851349741, 0.5590999790001661, 0.5651999963447452, 0.5623500037472695, 0.5636000132653862, 0.6215000175870955, 0.5738500040024519, 0.5721999914385378, 0.5692499980796129, 0.5714999861083925, 0.5796499899588525, 0.5698500026483089, 0.5525500164367259, 0.5691499973181635, 0.5607499915640801, 0.5673000123351812, 0.5630000086966902, 0.5627000064123422, 0.5651999963447452, 0.5698500026483089, 0.5630499799735844, 0.5793999880552292, 0.5520500126294792, 0.5763499939348549, 0.5567999905906618, 0.5682000191882253, 0.5648999940603971, 0.5529999907594174, 0.5635000125039369, 0.5697500018868595, 0.5867499858140945, 0.5791999865323305, 0.5668999801855534, 0.5487999878823757, 0.5657000001519918, 0.6016499828547239, 0.5612999957520515, 0.5661000031977892, 0.5634499830193818, 0.5742000066675246, 0.5563000158872455, 0.5595499824266881, 0.5597999843303114, 0.5576999974437058, 0.5610999942291528, 0.5664499767590314, 0.5880500248167664, 0.5615999980363995, 0.5648999940603971, 0.5676500150002539, 0.5591500084847212, 0.5640499875880778, 0.5599500145763159, 0.5638500151690096, 0.5634499830193818, 0.5684999923687428, 0.5579499993473291, 0.5568999913521111, 0.5563000158872455, 0.600049999775365, 0.5631500098388642, 0.5636499845422804, 0.5610999942291528, 0.5649999948218465, 0.5673499836120754, 0.5668500089086592, 0.5668999801855534, 0.5633500113617629, 0.5721999914385378, 0.6733000045642257, 0.5752999859396368, 0.673400005325675, 0.5654999986290932, 0.5818000063300133, 0.5679499881807715, 0.5726499948650599, 0.5798499914817512, 0.5700000037904829, 0.6239500071387738, 0.5571499932557344, 0.5718999891541898, 0.5734000005759299, 0.5607000202871859, 0.57565001770854, 0.5697500018868595, 0.5660499737132341, 0.5639500159304589, 0.5607000202871859, 0.5714500148314983, 0.5644000193569809, 0.5649999948218465, 0.5712000129278749, 0.5666500073857605, 0.5583000020124018, 0.5902499833609909, 0.5632500106003135, 0.5574499955400825, 0.5617999995592982, 0.5637000140268356, 0.5677999870385975, 0.5631500098388642, 0.5784000095445663, 0.5595500115305185, 0.5725999944843352, 0.5669000092893839, 0.5569000204559416, 0.5644499906338751, 0.5678999878000468, 0.5803000240121037, 0.5701500049326569, 0.5628500075545162, 0.5923999997321516, 0.5627500067930669, 0.5598999850917608, 0.5600000149570405, 0.5737500032410026, 0.6193000008352101, 0.5737000028602779, 0.5661000031977892, 0.5584000027738512, 0.5648499936796725, 0.5625000048894435, 0.5756000173278153, 0.5702000053133816, 0.5553499795496464, 0.5748499825131148, 0.5694999999832362, 0.5689000245183706, 0.5631000094581395, 0.5675999855156988, 0.5709000106435269, 0.5785999819636345, 0.5606500199064612, 0.5591500084847212, 0.5703500064555556, 0.5709000106435269, 0.5720999906770885, 0.5655999993905425, 0.5540999991353601, 0.5634499830193818, 0.5624500045087188, 0.5666999786626548, 0.5602000164799392, 0.6024500180501491, 0.5709500110242516, 0.5636999849230051, 0.5713499849662185, 0.5651499959640205, 0.5680499889422208, 0.5611999949906021, 0.5974499799776822, 0.5596000119112432, 0.6534000276587903, 0.5970000056549907, 0.5665000062435865, 0.5751999851781875, 0.5791000148747116, 0.6668499845545739, 0.6058499857317656, 0.5985500174574554, 0.5596499831881374, 0.5605999904219061, 0.6563499919138849, 0.6058000144548714, 0.5639500159304589, 0.5415999912656844, 0.599749997491017, 0.5639999872073531, 0.5696500011254102, 0.5601000157184899, 0.5614499968942255, 0.6178999901749194, 0.5672499828506261, 0.5653999978676438, 0.5646499921567738, 0.5622000026050955, 0.5562500155065209, 0.5637499853037298, 0.5552500078920275, 0.5601499869953841, 0.5653999978676438, 0.5758499901276082, 0.5590499786194414, 0.5696000007446855, 0.5512500065378845, 0.5596500122919679, 0.5608999927062541, 0.5649500235449523, 0.592500000493601, 0.5600999866146594, 0.5590000073425472, 0.5768499977421016, 0.5714499857276678, 0.5793499876745045, 0.5714499857276678, 0.5681999900843948, 0.5697000015061349, 0.5553500086534768, 0.5692499980796129, 0.5609499930869788, 0.5540499987546355, 0.5654999986290932, 0.5556500109378248, 0.5610499938484281, 0.5561499856412411, 0.5930500046815723, 0.5674999847542495, 0.5511499766726047, 0.5702500056941062, 0.5577999982051551, 0.5746000097133219, 0.5705500079784542, 0.5601500160992146, 0.5648999940603971, 0.5596499831881374, 0.5596999835688621, 0.5709999823011458, 0.5688000237569213, 0.5704000068362802, 0.5689999961759895, 0.5624000041279942, 0.5636000132653862, 0.5637000140268356, 0.5692999984603375, 0.5624500045087188, 0.575800018850714, 0.5613499961327761, 0.5653499974869192, 0.6662500090897083, 0.6591499841306359, 0.5687500233761966, 0.5760999920312315, 0.5700500041712075, 0.5602499877568334, 0.5609499930869788, 0.6032499950379133, 0.5858000076841563, 0.5600499862339348, 0.5681000184267759, 0.5706999800167978, 0.5615999980363995, 0.5563499871641397, 0.5500499974004924, 0.5583500023931265, 0.5636499845422804, 0.5769499985035509, 0.5689499957952648, 0.5735999729949981, 0.5582500016316772, 0.5651999963447452, 0.587500020628795, 0.5626500060316175, 0.5690499965567142, 0.5613499961327761, 0.5634500121232122, 0.5729999975301325, 0.5629500083159655, 0.5595499824266881, 0.5547000037040561, 0.5687499942723662, 0.5831500166095793, 0.562349974643439, 0.5652000254485756, 0.5673500127159059, 0.5597000126726925, 0.5661499744746834, 0.5592999805230647, 0.5707000091206282, 0.5680499889422208, 0.6019500142429024, 0.5636000132653862, 0.5643499898724258, 0.5723499925807118, 0.5704999784938991, 0.595749996136874, 0.5650499952025712, 0.5641000170726329, 0.5665500066243112, 0.5592000088654459, 0.5617999995592982, 0.5763999943155795, 0.5610499938484281, 0.5564000166486949, 0.5605499900411814, 0.5675500142388046, 0.5883499979972839, 0.5649500235449523, 0.5766499962192029, 0.5587000050581992, 0.5597000126726925, 0.5713499849662185, 0.5643499898724258, 0.5680000176653266, 0.5693999992217869, 0.5573500238824636, 0.5616999987978488, 0.5607999919448048, 0.5606000195257366, 0.5780500068794936, 0.5559999844990671, 0.5622500029858202, 0.5577999982051551, 0.5599999858532101, 0.5623500037472695, 0.5685499927494675, 0.5684999923687428, 0.5600000149570405, 0.5563500162679702, 0.6822000141255558, 0.6033499957993627, 0.5670000100508332, 0.5828499852214009, 0.5582000012509525, 0.5782000080216676, 0.5594500107690692, 0.5646999925374985, 0.5637999856844544, 0.5621499731205404, 0.5707499803975224, 0.5565500177908689, 0.5579999997280538, 0.5762999935541302, 0.5541999998968095, 0.5747000104747713, 0.5725999944843352, 0.5573999951593578, 0.5577500269282609, 0.5797000194434077, 0.5571999936364591, 0.5652999971061945, 0.5904499848838896, 0.5657000001519918, 0.5913499917369336, 0.5590500077232718, 0.5705999792553484, 0.5659000016748905, 0.5661999748554081, 0.5642499891109765, 0.5577999982051551, 0.5688499950338155, 0.5794000171590596, 0.5552000075113028, 0.5697500018868595, 0.5653999978676438, 0.5619999719783664, 0.5664500058628619, 0.5775500030722469, 0.5624500045087188, 0.5694499996025115, 0.5655999993905425, 0.5564500170294195, 0.5619000003207475, 0.5717999883927405, 0.5768999981228262, 0.5645999917760491, 0.5642499891109765, 0.575950019992888, 0.5688499950338155, 0.5662000039592385, 0.5652999971061945, 0.5768999981228262, 0.5647500220220536, 0.5624500045087188, 0.5670500104315579, 0.5639499868266284, 0.5592000088654459, 0.5694999999832362, 0.5686499935109168, 0.5693999992217869, 0.5551999784074724, 0.5564000166486949, 0.5568500200752169, 0.5728499963879585, 0.5643999902531505, 0.5681999900843948, 0.5647499929182231, 0.5567999905906618, 0.5541999998968095, 0.5622500029858202, 0.5701500049326569, 0.5635999841615558, 0.5658000009134412, 0.5874499911442399, 0.5629500083159655, 0.5693999992217869, 0.5669000092893839, 0.5614499968942255, 0.55184998200275, 0.5706999800167978, 0.5748500116169453, 0.5642999894917011, 0.662450009258464, 0.5978499830234796, 0.5640500166919082, 0.5739499756600708, 0.5529999907594174, 0.5622500029858202, 0.5919500254094601, 0.6353500066325068, 0.5531499919015914, 0.5590000073425472, 0.6620499771088362, 0.6076499994378537, 0.5605499900411814, 0.5638499860651791, 0.6076499994378537, 0.614099990343675, 0.5624500045087188, 0.5697000015061349, 0.5684499919880182, 0.5635499837808311, 0.5707500095013529, 0.5650499952025712, 0.5581500008702278, 0.5663000047206879, 0.5702500056941062, 0.5527000175788999, 0.5800999933853745, 0.5756000173278153, 0.5712499842047691, 0.5585000035353005, 0.5548500048462301, 0.5611499946098775, 0.5626499769277871, 0.5577499978244305, 0.5515500088222325, 0.576550024561584, 0.5802499945275486, 0.5547499749809504, 0.5606500199064612, 0.5609000218100846, 0.5662499752361327, 0.5660500028170645, 0.5626999773085117, 0.5604999896604568, 0.5691499973181635, 0.5762999935541302, 0.5703000060748309, 0.5584000027738512, 0.5650499952025712, 0.5621000018436462, 0.5676500150002539, 0.5572499940171838, 0.5662000039592385, 0.5623000033665448, 0.5637999856844544, 0.5565499886870384, 0.5686500226147473, 0.5598500138148665, 0.5677000153809786, 0.5714000144507736, 0.5615499976556748, 0.5746500100940466, 0.5750000127591193, 0.5740500055253506, 0.5677000153809786, 0.5602499877568334, 0.5617499991785735, 0.5643499898724258, 0.5655999993905425, 0.5689499957952648, 0.5608499923255295, 0.5770499992650002, 0.5622000026050955, 0.5636000132653862, 0.5823499814141542, 0.5879999953322113, 0.5922499985899776, 0.6364000146277249, 0.5702500056941062, 0.5593000096268952, 0.5626000056508929, 0.5610999942291528, 0.5701500049326569, 0.5804999964311719, 0.5890500033274293, 0.5615999980363995, 0.5530999915208668, 0.5705000075977296, 0.5579499993473291, 0.5712499842047691, 0.5524499865714461, 0.5669000092893839, 0.5657000001519918, 0.5807499983347952, 0.5653999978676438, 0.5578499985858798, 0.5644000193569809, 0.5812500021420419, 0.5645499913953245, 0.5613499961327761, 0.5710000114049762, 0.5524999869521707, 0.5552000075113028, 0.5592500092461705, 0.5715999868698418, 0.5689999961759895, 0.5597999843303114, 0.5657500005327165, 0.5646499921567738, 0.5611499946098775, 0.5759499908890575, 0.5636499845422804, 0.5606499908026308, 0.5689499957952648, 0.5608500214293599, 0.5615999980363995, 0.5603999888990074, 0.592500000493601, 0.5712499842047691, 0.5682499904651195, 0.5651499959640205, 0.5624000041279942, 0.5658000009134412, 0.5685999931301922, 0.5659000016748905, 0.5701500049326569, 0.5565999890677631, 0.5714999861083925, 0.5624000041279942, 0.5632499814964831, 0.5655999993905425, 0.5739500047639012, 0.5688499950338155, 0.572400022065267, 0.5687499942723662, 0.5493999924510717, 0.5559000128414482, 0.5663000047206879, 0.5630999803543091, 0.5789500137325376, 0.5623000033665448, 0.5589999782387167, 0.5726999952457845, 0.5627000064123422, 0.5716000159736723, 0.5788500129710883, 0.5803500243928283, 0.5614499968942255, 0.5639499868266284, 0.5584000027738512, 0.578750012209639, 0.5630500090774149, 0.5528500187210739, 0.5662999756168574, 0.5621500022243708, 0.5630499799735844, 0.680650002323091, 0.6052999815437943, 0.5669499805662781, 0.5678999878000468, 0.5796499899588525, 0.6041499727871269, 0.5641999887302518, 0.5554500094149262, 0.5725499941036105, 0.5727999960072339, 0.5597500130534172, 0.5634499830193818, 0.5602499877568334, 0.5768499977421016, 0.5562000151257962, 0.5633000109810382, 0.5687999946530908, 0.5674000130966306, 0.5711499834433198, 0.5556000105571002, 0.5563999875448644, 0.5763000226579607, 0.5722999921999872, 0.5611499946098775, 0.6908999930601567, 0.5663000047206879, 0.5510000046342611, 0.5637499853037298, 0.5724999937228858, 0.5651999963447452, 0.5622000026050955, 0.5644999910145998, 0.5639000155497342, 0.5640999879688025, 0.5683499912265688, 0.5800499930046499, 0.5646500212606043, 0.5624500045087188, 0.5606500199064612, 0.5632500106003135, 0.5642499891109765, 0.5587500054389238, 0.5751000135205686, 0.5632499814964831, 0.6200999778229743, 0.5560499848797917, 0.5649999948218465, 0.5689499957952648, 0.5721999914385378, 0.5591500084847212, 0.5594000103883445, 0.5658000009134412, 0.5712000129278749, 0.5650500243064016, 0.5598999850917608, 0.5625499761663377, 0.5592500092461705, 0.5734000005759299, 0.580550025915727, 0.5677999870385975, 0.5658500012941658, 0.558349973289296, 0.5654499982483685, 0.5622000026050955, 0.5701000045519322, 0.5650999955832958, 0.5705000075977296, 0.5656499997712672, 0.5720999906770885, 0.5737500032410026, 0.5881999968551099, 0.5739000043831766, 0.5653499974869192, 0.5758499901276082, 0.5780500068794936, 0.5553499795496464, 0.5574999959208071, 0.5603999888990074, 0.5609500221908092, 0.5783500091638416, 0.5817500059492886, 0.5641000170726329, 0.5639000155497342, 0.5660000024363399, 0.5605000187642872, 0.5671500111930072, 0.5618499999400228, 0.5794499884359539, 0.5674500134773552, 0.5505500012077391, 0.5571000219788402, 0.5585000035353005, 0.5603999888990074, 0.5687500233761966, 0.5676500150002539, 0.5477000086102635, 0.5561499856412411, 0.5222499894443899, 0.5632499814964831, 0.5740000051446259, 0.5818000063300133, 0.5597499839495867, 0.5921499978285283, 0.6654500029981136, 0.5690999969374388, 0.5777500045951456, 0.5636000132653862, 0.5668500089086592, 0.5707499803975224, 0.5601500160992146, 0.5742499779444188, 0.5692999984603375, 0.5690999969374388, 0.5630499799735844, 0.5647000216413289, 0.5622000026050955, 0.5630499799735844, 0.5627499776892364, 0.5523000145331025, 0.5718499887734652, 0.5740000051446259, 0.5683500203303993, 0.5706999800167978, 0.5652999971061945, 0.5556500109378248, 0.5663000047206879, 0.5680000176653266, 0.5665000062435865, 0.5574000242631882, 0.5591999797616154, 0.5536999960895628, 0.5592000088654459, 0.5637500144075602, 0.5749500123783946, 0.5603499885182828, 0.5683499912265688, 0.5626000056508929, 0.5711499834433198, 0.5620500014629215, 0.5631500098388642, 0.5714999861083925, 0.5602000164799392, 0.5662999756168574, 0.5712499842047691, 0.5680000176653266, 0.5620000010821968, 0.5710499826818705, 0.5615999980363995, 0.5669000092893839, 0.5613499961327761, 0.5551499780267477, 0.5782500084023923, 0.5683999916072935, 0.5641499883495271, 0.5721999914385378, 0.5621000018436462, 0.5575499963015318, 0.5642500182148069, 0.5692999984603375, 0.5567000189330429, 0.6933500117156655, 0.5926499725319445, 0.5655999993905425, 0.5574999959208071, 0.5938000103924423, 0.5635499837808311, 0.5505000008270144, 0.5759999912697822, 0.5813000025227666, 0.5673000123351812, 0.5670999817084521, 0.5608499923255295, 0.5655999993905425, 0.5723999929614365, 0.5774000019300729, 0.5724999937228858, 0.5596500122919679, 0.5718499887734652, 0.5609999934677035, 0.5994999955873936, 0.5885999999009073, 0.5782500084023923, 0.5688000237569213, 0.5528999899979681, 0.5668000085279346, 0.5788499838672578, 0.5602499877568334, 0.5583000020124018, 0.5658500012941658, 0.5619500007014722, 0.5700000037904829],
  "Depth": 22.5,
  "Expectation Value": -11.121932983398438,
  "Optimal Expectation Value": -12.381489753723145,
  "Optimizer durations [ms]": [13.029, 12.146, 12.128, 12.296, 11.817, 12.081, 12.179, 11.77, 12.53, 11.827, 12.743, 12.169, 11.95, 12.409, 12.346, 12.187, 11.866, 12.386, 12.136, 11.932, 12.168, 12.383, 12.133, 12.573, 12.201, 12.605, 12.004, 13.207, 12.296, 12.126, 12.144, 11.943, 12.544, 12.098, 12.358, 12.068, 12.941, 11.852, 12.187, 12.244, 12.264, 12.666, 12.338, 12.922, 12.332, 12.285, 12.312, 12.092, 12.595, 12.12, 12.172, 12.609, 12.388, 12.222, 12.072, 12.112, 12.496, 11.989, 12.172, 12.231, 12.829, 12.407, 12.291, 12.033, 12.483, 12.075, 13.724, 29.604, 12.005, 12.498, 12.302, 12.201, 12.322, 12.35, 12.241, 12.642, 12.826, 12.294, 13.117, 12.244, 12.003, 12.335, 12.529, 12.242, 12.006, 12.619, 12.145, 12.248, 12.265, 12.297, 17.432, 12.122, 12.843, 12.499, 12.031, 12.477, 12.382, 12.315, 12.464, 12.171, 12.511, 12.279, 12.298, 12.553, 11.973, 12.179, 12.322, 12.558, 12.345, 12.354, 12.345, 12.278, 11.878, 12.639, 12.438, 12.402, 12.215, 12.204, 12.337, 12.363, 12.18, 12.245, 12.33, 12.177, 12.415, 12.198, 12.227, 12.388, 12.315, 12.099, 12.207, 12.447, 12.365, 11.803, 11.956, 12.035, 12.291, 12.802, 12.14, 12.802, 12.454, 12.233, 12.106, 12.255, 12.142, 12.265, 14.654, 13.347, 12.066, 15.859, 12.229, 12.332, 12.139, 14.584, 13.311, 12.497, 17.895, 12.637, 12.112, 12.681, 12.632, 14.576, 17.065, 13.053, 12.863, 12.115, 12.702, 19.931, 17.101, 12.481, 12.282, 12.281, 12.132, 12.429, 12.283, 12.347, 12.142, 12.456, 12.393, 12.193, 12.319, 12.134, 12.139, 12.087, 12.609, 12.89, 12.095, 12.528, 11.966, 12.182, 12.136, 12.123, 12.593, 12.263, 12.415, 12.58, 12.066, 12.453, 12.314, 12.239, 12.329, 12.383, 12.408, 12.23, 12.231, 12.364, 12.104, 12.188, 12.108, 12.219, 12.519, 12.247, 11.909, 12.108, 12.214, 12.238, 12.355, 12.411, 12.309, 12.16, 12.61, 12.482, 11.94, 12.363, 12.24, 15.125, 25.82, 12.304, 12.307, 12.46, 12.079, 12.206, 12.316, 12.901, 12.019, 12.151, 13.085, 12.205, 12.251, 12.081, 12.75, 12.053, 12.459, 12.305, 12.443, 12.351, 12.301, 12.127, 29.251, 12.735, 12.294, 12.35, 12.668, 12.242, 12.09, 12.176, 13.205, 12.304, 12.389, 12.031, 12.351, 12.431, 12.329, 12.014, 12.294, 12.365, 12.516, 12.462, 12.282, 12.438, 12.275, 12.477, 12.276, 12.355, 12.237, 12.268, 12.264, 12.446, 12.064, 12.572, 12.221, 12.044, 12.28, 12.304, 12.17, 12.154, 12.154, 12.473, 12.419, 12.348, 12.141, 12.275, 12.084, 12.09, 12.388, 12.492, 12.219, 12.139, 12.366, 12.442, 12.556, 12.278, 12.306, 12.458, 14.94, 24.482, 12.603, 12.462, 12.263, 12.373, 12.248, 12.423, 12.257, 12.127, 11.963, 12.357, 12.309, 12.053, 12.374, 12.295, 12.34, 12.004, 12.165, 12.194, 12.565, 12.018, 12.054, 12.433, 12.562, 12.951, 12.341, 12.262, 12.245, 12.009, 12.008, 12.266, 12.197, 12.222, 12.416, 12.053, 12.579, 12.206, 12.055, 12.506, 12.115, 12.433, 12.163, 12.096, 12.387, 12.133, 12.308, 12.445, 12.462, 12.551, 11.979, 12.216, 12.258, 12.251, 12.378, 12.146, 12.234, 12.106, 12.36, 11.893, 12.541, 12.655, 12.237, 12.434, 12.043, 12.434, 12.289, 12.148, 12.266, 12.367, 12.035, 12.535, 12.099, 12.349, 12.903, 12.522, 12.148, 12.534, 12.044, 11.955, 12.469, 15.324, 12.112, 14.602, 13.264, 12.489, 12.109, 12.485, 14.166, 12.906, 14.403, 19.838, 12.587, 14.329, 13.062, 11.969, 29.361, 12.418, 13.932, 12.894, 14.574, 23.942, 15.604, 11.962, 12.27, 12.562, 12.18, 12.255, 12.28, 12.268, 11.797, 12.43, 12.117, 12.394, 12.168, 12.185, 12.163, 12.322, 12.033, 12.857, 12.401, 12.241, 12.274, 12.324, 12.258, 12.416, 12.21, 12.104, 12.013, 12.543, 12.109, 12.557, 12.011, 12.311, 12.146, 11.916, 12.188, 11.982, 12.477, 12.08, 12.292, 12.452, 12.161, 12.367, 12.338, 12.036, 12.383, 12.5, 12.052, 12.443, 12.17, 12.62, 12.412, 12.106, 12.567, 12.284, 12.281, 12.049, 15.193, 28.627, 12.052, 12.381, 12.043, 12.289, 12.442, 12.328, 12.954, 12.238, 12.295, 12.416, 12.156, 12.194, 12.199, 12.233, 13.548, 12.234, 12.236, 12.407, 12.157, 12.432, 12.115, 12.159, 15.604, 12.051, 12.389, 12.19, 12.126, 12.239, 12.282, 12.118, 12.548, 11.79, 12.722, 12.097, 12.25, 12.248, 11.981, 12.486, 12.419, 12.655, 12.525, 12.386, 11.987, 12.286, 12.862, 11.978, 12.54, 12.134, 12.564, 12.246, 12.232, 12.143, 12.142, 12.233, 12.531, 12.973, 12.275, 12.136, 12.327, 12.158, 12.37, 12.036, 12.326, 11.84, 12.419, 11.91, 12.221, 12.004, 12.86, 12.337, 12.414, 12.167, 12.46, 12.24, 12.369, 12.428, 12.321, 12.291, 14.56, 19.336, 14.795, 12.415, 12.643, 12.258, 12.353, 13.094, 12.212, 13.536, 12.255, 12.285, 12.366, 12.098, 12.367, 12.45, 12.195, 12.477, 11.892, 12.189, 12.174, 12.425, 12.287, 12.039, 12.306, 12.72, 12.204, 12.242, 11.756, 12.535, 12.196, 12.027, 12.648, 12.15, 12.008, 12.248, 12.091, 12.046, 12.188, 12.635, 12.013, 12.143, 12.897, 12.031, 12.38, 12.198, 12.323, 13.492, 12.718, 11.862, 12.307, 12.307, 12.132, 12.542, 12.091, 11.935, 12.257, 12.302, 12.42, 12.372, 12.21, 12.272, 12.45, 12.287, 12.068, 12.217, 12.014, 12.689, 12.263, 12.086, 12.371, 12.439, 12.337, 12.319, 13.293, 12.283, 12.3, 12.65, 12.301, 12.311, 12.384, 15.818, 12.121, 14.104, 12.996, 12.306, 12.481, 12.379, 14.243, 13.132, 12.786, 22.738, 12.438, 14.186, 13.104, 12.263, 22.326, 13.026, 12.066, 12.079, 12.292, 28.758, 13.67, 12.194, 12.439, 12.137, 12.269, 12.271, 12.261, 12.034, 12.004, 12.212, 12.324, 12.139, 12.656, 11.87, 12.236, 12.245, 12.189, 12.777, 12.004, 12.083, 12.796, 12.476, 12.661, 12.421, 12.234, 12.239, 12.038, 12.452, 12.214, 12.208, 12.028, 12.166, 12.473, 12.192, 12.927, 12.215, 12.295, 12.194, 12.046, 12.598, 12.175, 11.838, 12.269, 12.413, 12.16, 12.305, 12.625, 12.42, 12.418, 12.219, 12.383, 12.069, 12.518, 12.409, 12.187, 12.172, 12.478, 24.648, 15.304, 12.174, 12.233, 12.163, 12.09, 12.469, 13.081, 12.607, 12.092, 12.436, 12.515, 12.169, 12.229, 12.144, 12.233, 12.133, 12.285, 12.425, 12.179, 12.178, 12.125, 12.565, 12.386, 14.315, 12.357, 12.396, 12.44, 12.324, 12.13, 12.049, 12.333, 12.811, 12.505, 12.17, 12.267, 12.276, 12.17, 12.035, 12.221, 11.945, 12.95, 12.196, 12.269, 12.622, 12.626, 12.531, 12.367, 12.106, 12.56, 11.918, 12.029, 12.451, 12.064, 12.192, 12.25, 12.23, 12.497, 12.497, 12.458, 11.976, 12.394, 12.312, 12.42, 12.346, 12.408, 12.098, 12.184, 12.367, 12.309, 12.565, 12.19, 12.276, 12.246, 12.23, 12.346, 12.407, 12.212, 12.387, 11.907, 14.284, 25.806, 12.242, 12.568, 12.35, 12.552, 12.129, 12.19, 12.135, 11.997, 12.553, 12.128, 12.168, 12.273, 11.973, 12.306, 12.49, 12.21, 12.253, 12.405, 12.3, 12.271, 12.754, 12.581, 12.988, 12.172, 12.56, 12.201, 12.249, 12.475, 11.957, 12.266, 12.711, 12.116, 11.995, 12.542, 12.293, 12.257, 12.573, 12.0, 12.068, 12.392, 11.924, 12.433, 12.247, 12.233, 12.427, 12.432, 12.377, 12.139, 12.204, 12.219, 12.559, 12.365, 12.081, 12.177, 12.053, 12.363, 12.412, 12.127, 12.269, 11.89, 12.231, 12.104, 12.286, 12.272, 12.475, 12.528, 12.155, 12.193, 12.372, 12.447, 11.99, 12.181, 12.927, 12.379, 12.218, 12.184, 12.241, 11.95, 12.407, 15.185, 12.595, 14.361, 13.077, 12.128, 12.332, 11.973, 15.456, 12.65, 13.776, 20.76, 12.458, 14.178, 12.942, 12.288, 23.758, 13.063, 12.981, 12.374, 12.39, 29.147, 17.052, 12.172, 12.192, 12.268, 11.876, 12.627, 12.074, 12.263, 12.252, 12.225, 12.145, 12.101, 12.099, 12.282, 11.833, 12.203, 12.295, 12.395, 11.971, 12.506, 12.309, 12.286, 12.337, 12.165, 12.093, 12.228, 12.054, 12.482, 12.285, 12.373, 12.435, 12.118, 11.982, 11.9, 12.312, 12.202, 12.27, 12.439, 12.222, 11.927, 12.544, 12.114, 12.315, 12.402, 12.292, 12.082, 12.338, 12.25, 12.357, 12.25, 12.168, 12.123, 12.761, 12.091, 12.361, 12.758, 12.458, 19.118, 16.761, 12.555, 11.907, 12.276, 12.149, 12.441, 12.618, 12.881, 12.346, 12.091, 12.333, 11.958, 12.219, 12.158, 12.339, 12.239, 12.396, 12.305, 12.162, 12.129, 12.662, 12.305, 12.264, 15.036, 12.149, 12.107, 12.31, 12.441, 12.477, 12.03, 12.546, 12.055, 12.245, 12.276, 12.543, 12.158, 12.193, 12.187, 12.443, 12.202, 12.934, 12.303, 12.675, 12.073, 12.436, 12.15, 12.3, 12.247, 12.316, 12.334, 12.167, 12.533, 12.126, 12.198, 12.299, 12.429, 12.391, 12.578, 11.676, 12.315, 12.358, 12.225, 12.465, 12.52, 12.058, 12.712, 12.436, 12.092, 12.416, 12.337, 12.233, 12.345, 12.134, 12.319, 12.178, 12.215, 12.306, 12.302, 12.176, 14.653, 25.022, 12.455, 12.407, 12.199, 12.897, 12.33, 12.111, 12.13, 12.435, 12.394, 12.13, 12.301, 12.442, 11.964, 12.257, 12.397, 12.594, 12.085, 12.195, 12.248, 12.399, 12.408, 12.373, 14.506, 12.329, 12.197, 12.258, 12.273, 12.194, 12.207, 12.596, 12.343, 12.258, 12.174, 12.859, 12.403, 12.383, 12.212, 12.312, 12.44, 11.924, 12.265, 12.256, 13.511, 12.083, 12.001, 12.566, 12.296, 12.059, 12.081, 12.33, 12.378, 12.351, 12.156, 12.396, 12.24, 12.284, 12.651, 11.918, 12.507, 12.142, 12.194, 11.917, 12.427, 12.201, 12.489, 12.115, 12.508, 12.313, 12.61, 12.499, 12.205, 12.054, 12.803, 11.769, 12.265, 12.157, 12.21, 12.131, 12.553, 12.487, 12.213, 12.301, 12.329, 12.329, 12.12, 12.656, 12.2, 11.728, 11.842, 18.876, 12.242, 12.28, 12.24, 12.214, 11.757, 23.73, 12.458, 12.133, 12.837, 12.331, 23.826, 14.433, 12.168, 12.488, 12.404, 12.268, 12.535, 12.161, 12.229, 12.376, 12.461, 12.306, 12.434, 12.434, 12.053, 12.376, 11.782, 12.212, 12.248, 12.842, 12.495, 12.325, 12.316, 12.184, 12.146, 12.476, 11.892, 12.404, 12.17, 12.368, 11.949, 12.254, 12.394, 12.325, 12.06, 12.648, 12.308, 12.048, 12.14, 12.069, 12.299, 12.453, 12.505, 12.102, 12.451, 11.884, 12.348, 12.254, 12.087, 12.518, 12.414, 12.144, 12.432, 12.226, 12.265, 11.975, 12.514, 12.107, 14.687, 23.647, 12.203, 12.087, 13.007, 12.251, 11.736, 12.207, 12.485, 12.239, 12.644, 12.13, 13.51, 12.266, 12.35, 12.531, 12.284, 12.335, 12.253, 12.889, 12.607, 12.443, 12.311, 12.171, 12.442, 12.384, 12.086, 12.329, 12.041, 12.309, 12.229],
  "Optimizer iterations": 1211,
  "Optimizer params": [0.9100118808732144, 0.17498321876737308, 0.6673323105977823, 0.9151565981858898, 0.9564194659071282, 0.034709548244430614, 0.9721941670049529, 0.4399462531929789, 0.5665112594988981, 0.972942887051013, 0.5499662474812973, 0.9917128171304962, 0.4286222711045632, 0.18151779491655137, 0.28836813261031674, 0.9907550164223731, 0.999481094177061, 0.9970818369288322, 0.19503475983029686, 0.47973077196294034, 0.008865843279892734, 0.008202944523526141, 0.9711747406057378, 0.5081104060189, 0.006128034247302196, 0.9958133848503268, 0.9730194073427834, 0.4545960250344131, 0.04573712677859659, 0.5567511356929625, 0.9523647660419813, 0.9947776644030054, 0.9944146443833728, 0.42939944693316645, 0.3896073707143439, 0.7032783740444701, 0.3782716466472919, 0.491864777012617, 0.06789843808884487, 0.05642078820516721],
  "P": 0,
  "Problem": "IC",
  "QJob durations [ms]": [0.579800020204857, 0.5656499997712672, 0.5679000169038773, 0.5671000108122826, 0.5578999989666045, 0.5646999925374985, 0.5655499990098178, 0.5629500083159655, 0.5737000028602779, 0.5563499871641397, 0.5638000147882849, 0.5678499874193221, 0.5603000172413886, 0.5758999905083328, 0.5699999746866524, 0.5699000030290335, 0.5613499961327761, 0.5721999914385378, 0.5709999823011458, 0.5619000003207475, 0.5696000007446855, 0.582600012421608, 0.5653999978676438, 0.5796499899588525, 0.5662500043399632, 0.5636000132653862, 0.5598000134341419, 0.6185500242281705, 0.5678000161424279, 0.5681000184267759, 0.5653999978676438, 0.5569499917328358, 0.573000026633963, 0.5621500022243708, 0.5655499990098178, 0.5558000120799989, 0.594450015341863, 0.5556499818339944, 0.5571999936364591, 0.5682999908458441, 0.5808999994769692, 0.5720499902963638, 0.5677499866578728, 0.6082500040065497, 0.5579999997280538, 0.5587500054389238, 0.5615999980363995, 0.5672499828506261, 0.568850024137646, 0.5495999939739704, 0.5771000287495553, 0.5855000053998083, 0.5616499984171242, 0.5605499900411814, 0.5573000235017389, 0.5658000009134412, 0.5651499959640205, 0.5646499921567738, 0.5635000125039369, 0.5634500121232122, 0.5707500095013529, 0.5682999908458441, 0.5660500028170645, 0.5633499822579324, 0.5642000178340822, 0.5744499794673175, 0.6412999937310815, 0.6684499967377633, 0.5681499897036701, 0.5701500049326569, 0.5653499974869192, 0.5710000114049762, 0.5672000115737319, 0.5634499830193818, 0.5697000015061349, 0.5742000066675246, 0.5932999774813652, 0.5719000182580203, 0.605649984208867, 0.5634000117424875, 0.5554500094149262, 0.5667000077664852, 0.5741500062867999, 0.5666500073857605, 0.5681000184267759, 0.5790499853901565, 0.5601000157184899, 0.5683500203303993, 0.5661500035785139, 0.5689499957952648, 0.5967500037513673, 0.5576499970629811, 0.5813000025227666, 0.5651499959640205, 0.5681500188075006, 0.5724499933421612, 0.5641999887302518, 0.5651499959640205, 0.5750000127591193, 0.5664500058628619, 0.5729499971494079, 0.5624500045087188, 0.5575999966822565, 0.5798500205855817, 0.5539499979931861, 0.5634000117424875, 0.5725999944843352, 0.5936999805271626, 0.5625000048894435, 0.5673499836120754, 0.5634500121232122, 0.5754500161856413, 0.5546000029426068, 0.5712999845854938, 0.5701000045519322, 0.5713499849662185, 0.5701500049326569, 0.5674499843735248, 0.5680999893229455, 0.5674500134773552, 0.5531500210054219, 0.5692500271834433, 0.5694999999832362, 0.5595499824266881, 0.5666000070050359, 0.5679999885614961, 0.5663000047206879, 0.5707499803975224, 0.5669999809470028, 0.5641499883495271, 0.5559999844990671, 0.5676000146195292, 0.5614999972749501, 0.5630500090774149, 0.5508500034920871, 0.5736500024795532, 0.5776000034529716, 0.5806499975733459, 0.5630000086966902, 0.5897500086575747, 0.57565001770854, 0.5657500005327165, 0.5664000054821372, 0.5597499839495867, 0.5534000229090452, 0.5609999934677035, 0.7056499889586121, 0.607900001341477, 0.5634999834001064, 0.5695500003639609, 0.5658000009134412, 0.5615999980363995, 0.5563999875448644, 0.671899993903935, 0.6214499881025404, 0.5699500034097582, 0.5680999893229455, 0.5695500003639609, 0.5637500144075602, 0.5694499996025115, 0.5709500110242516, 0.6717999931424856, 0.5640999879688025, 0.6036999984644353, 0.5893999768886715, 0.5537999968510121, 0.5784999812021852, 0.5953999934718013, 0.658750010188669, 0.5772500007878989, 0.5710000114049762, 0.5673500127159059, 0.5607000202871859, 0.5785500106867403, 0.5616499984171242, 0.5580500001087785, 0.5617499991785735, 0.5629999795928597, 0.5703500064555556, 0.5582500016316772, 0.5676499858964235, 0.5573499947786331, 0.5610500229522586, 0.5667000077664852, 0.5810500006191432, 0.600049999775365, 0.5663499759975821, 0.5906499864067882, 0.5598000134341419, 0.5551500071305782, 0.5612499953713268, 0.5696000007446855, 0.5711500125471503, 0.5651999963447452, 0.5770999996457249, 0.5676999862771481, 0.5563999875448644, 0.5761999927926809, 0.5601999873761088, 0.5606499908026308, 0.5609499930869788, 0.5653999978676438, 0.5742500070482492, 0.572100019780919, 0.5672500119544566, 0.5654999986290932, 0.5601999873761088, 0.5637500144075602, 0.5637499853037298, 0.5575499963015318, 0.5708000098820776, 0.5672500119544566, 0.5552000075113028, 0.5644499906338751, 0.5647499929182231, 0.5558500124607235, 0.5729499971494079, 0.5654499982483685, 0.5719000182580203, 0.5603999888990074, 0.5671000108122826, 0.5730500270146877, 0.5554000090342015, 0.5604000180028379, 0.5681499897036701, 0.7135000196285546, 0.6531000253744423, 0.5695500003639609, 0.5731499986723065, 0.5697000015061349, 0.5582500016316772, 0.5602499877568334, 0.5764499946963042, 0.5918999959249049, 0.555099977646023, 0.5568000196944922, 0.607900001341477, 0.5602000164799392, 0.5590500077232718, 0.5621000018436462, 0.5780500068794936, 0.5607999919448048, 0.5682000191882253, 0.5671500111930072, 0.5642500182148069, 0.5717999883927405, 0.5748000112362206, 0.5714499857276678, 0.6007000047247857, 0.5960999988019466, 0.5571999936364591, 0.5737500032410026, 0.5777500045951456, 0.5650499952025712, 0.5603499885182828, 0.5582500016316772, 0.61114999698475, 0.5641499883495271, 0.575500016566366, 0.5619000003207475, 0.5651999963447452, 0.5762000218965113, 0.5709000106435269, 0.5574999959208071, 0.5561000143643469, 0.5830000154674053, 0.5785500106867403, 0.5719999899156392, 0.5620500014629215, 0.5685999931301922, 0.5681000184267759, 0.575500016566366, 0.5613500252366066, 0.5692499980796129, 0.5783499800600111, 0.5665500066243112, 0.5617999995592982, 0.5667999794241041, 0.5596499831881374, 0.5695500003639609, 0.5686000222340226, 0.5748499825131148, 0.5683999916072935, 0.5679500172846019, 0.5599500145763159, 0.5607500206679106, 0.5634999834001064, 0.5691999976988882, 0.5729000258725137, 0.5616499984171242, 0.5611499946098775, 0.5594500107690692, 0.5527500179596245, 0.5628000071737915, 0.5804999964311719, 0.5735000013373792, 0.5676000146195292, 0.5639499868266284, 0.5782500084023923, 0.5635000125039369, 0.5707500095013529, 0.5597500130534172, 0.5701500049326569, 0.5674500134773552, 0.7099000213202089, 0.607599999057129, 0.5686499935109168, 0.568550021853298, 0.5638999864459038, 0.5612499953713268, 0.5682999908458441, 0.5687499942723662, 0.5584000027738512, 0.5670999817084521, 0.5686000222340226, 0.5571499932557344, 0.5575999966822565, 0.5617499991785735, 0.5622999742627144, 0.5579999997280538, 0.5732999998144805, 0.5697999731637537, 0.5585500039160252, 0.5646500212606043, 0.5649999948218465, 0.5605500191450119, 0.5642000178340822, 0.5566499894484878, 0.5651000246871263, 0.603149994276464, 0.5674499843735248, 0.5665000062435865, 0.5617999995592982, 0.5572999943979084, 0.5578499985858798, 0.5575499963015318, 0.5640499875880778, 0.5644000193569809, 0.5683999916072935, 0.5763499939348549, 0.5716500163543969, 0.5592500092461705, 0.5639000155497342, 0.5801999941468239, 0.5639499868266284, 0.5689499957952648, 0.5562500155065209, 0.5553500086534768, 0.5767499969806522, 0.5690499965567142, 0.5686999938916415, 0.5606499908026308, 0.5803499952889979, 0.5729999975301325, 0.5560500139836222, 0.5687999946530908, 0.5713999853469431, 0.5629500083159655, 0.5654499982483685, 0.5603000172413886, 0.5600999866146594, 0.5603999888990074, 0.5660500028170645, 0.5582499725278467, 0.5683999916072935, 0.582750013563782, 0.5695500003639609, 0.5736999737564474, 0.5579499993473291, 0.5612999957520515, 0.5752500146627426, 0.5622999742627144, 0.5669499805662781, 0.5670499813277274, 0.5601499869953841, 0.5738000036217272, 0.5652999971061945, 0.5568499909713864, 0.5968499754089862, 0.5721999914385378, 0.5598000134341419, 0.5676999862771481, 0.5603500176221132, 0.5588500062003732, 0.5566999898292124, 0.5723499925807118, 0.5610999942291528, 0.6948500231374055, 0.601100007770583, 0.578600011067465, 0.5571000219788402, 0.5797499907203019, 0.5677500157617033, 0.5659000016748905, 0.6659000064246356, 0.5564499879255891, 0.5572999943979084, 0.690549990395084, 0.6049499788787216, 0.5571999936364591, 0.5377000197768211, 0.5610500229522586, 0.5597999843303114, 0.6172000139486045, 0.6810500053688884, 0.672800000756979, 0.6615499733015895, 0.5582500016316772, 0.5659500020556152, 0.5731999990530312, 0.5598000134341419, 0.5704500072170049, 0.5566999898292124, 0.5654499982483685, 0.5617999995592982, 0.5685499927494675, 0.5612999957520515, 0.5603499885182828, 0.5537999968510121, 0.5565499886870384, 0.5575000250246376, 0.5628499784506857, 0.5743500078096986, 0.5905999860260636, 0.5707000091206282, 0.5628000071737915, 0.5678500165231526, 0.5718500178772956, 0.5645499913953245, 0.5733500001952052, 0.5702000053133816, 0.5623500037472695, 0.5670499813277274, 0.5697500018868595, 0.5536499957088381, 0.5645999917760491, 0.5537999968510121, 0.5736500024795532, 0.5572499940171838, 0.5594000103883445, 0.5511500057764351, 0.5597499839495867, 0.5687499942723662, 0.5678500165231526, 0.5692999984603375, 0.5654999986290932, 0.5645500204991549, 0.5686499935109168, 0.5635499837808311, 0.5613999965135008, 0.5600500153377652, 0.5712499842047691, 0.5641999887302518, 0.5620500014629215, 0.5655999993905425, 0.5697500018868595, 0.5659500020556152, 0.5618499999400228, 0.5632000102195889, 0.5704000068362802, 0.5631000094581395, 0.5634000117424875, 0.7181499968282878, 0.676199997542426, 0.5522999854292721, 0.5674500134773552, 0.5554500094149262, 0.5648999940603971, 0.5828499852214009, 0.5571999936364591, 0.5959999980404973, 0.5598499847110361, 0.5625499761663377, 0.5675499851349741, 0.5590999790001661, 0.5651999963447452, 0.5623500037472695, 0.5636000132653862, 0.6215000175870955, 0.5738500040024519, 0.5721999914385378, 0.5692499980796129, 0.5714999861083925, 0.5796499899588525, 0.5698500026483089, 0.5525500164367259, 0.5691499973181635, 0.5607499915640801, 0.5673000123351812, 0.5630000086966902, 0.5627000064123422, 0.5651999963447452, 0.5698500026483089, 0.5630499799735844, 0.5793999880552292, 0.5520500126294792, 0.5763499939348549, 0.5567999905906618, 0.5682000191882253, 0.5648999940603971, 0.5529999907594174, 0.5635000125039369, 0.5697500018868595, 0.5867499858140945, 0.5791999865323305, 0.5668999801855534, 0.5487999878823757, 0.5657000001519918, 0.6016499828547239, 0.5612999957520515, 0.5661000031977892, 0.5634499830193818, 0.5742000066675246, 0.5563000158872455, 0.5595499824266881, 0.5597999843303114, 0.5576999974437058, 0.5610999942291528, 0.5664499767590314, 0.5880500248167664, 0.5615999980363995, 0.5648999940603971, 0.5676500150002539, 0.5591500084847212, 0.5640499875880778, 0.5599500145763159, 0.5638500151690096, 0.5634499830193818, 0.5684999923687428, 0.5579499993473291, 0.5568999913521111, 0.5563000158872455, 0.600049999775365, 0.5631500098388642, 0.5636499845422804, 0.5610999942291528, 0.5649999948218465, 0.5673499836120754, 0.5668500089086592, 0.5668999801855534, 0.5633500113617629, 0.5721999914385378, 0.6733000045642257, 0.5752999859396368, 0.673400005325675, 0.5654999986290932, 0.5818000063300133, 0.5679499881807715, 0.5726499948650599, 0.5798499914817512, 0.5700000037904829, 0.6239500071387738, 0.5571499932557344, 0.5718999891541898, 0.5734000005759299, 0.5607000202871859, 0.57565001770854, 0.5697500018868595, 0.5660499737132341, 0.5639500159304589, 0.5607000202871859, 0.5714500148314983, 0.5644000193569809, 0.5649999948218465, 0.5712000129278749, 0.5666500073857605, 0.5583000020124018, 0.5902499833609909, 0.5632500106003135, 0.5574499955400825, 0.5617999995592982, 0.5637000140268356, 0.5677999870385975, 0.5631500098388642, 0.5784000095445663, 0.5595500115305185, 0.5725999944843352, 0.5669000092893839, 0.5569000204559416, 0.5644499906338751, 0.5678999878000468, 0.5803000240121037, 0.5701500049326569, 0.5628500075545162, 0.5923999997321516, 0.5627500067930669, 0.5598999850917608, 0.5600000149570405, 0.5737500032410026, 0.6193000008352101, 0.5737000028602779, 0.5661000031977892, 0.5584000027738512, 0.5648499936796725, 0.5625000048894435, 0.5756000173278153, 0.5702000053133816, 0.5553499795496464, 0.5748499825131148, 0.5694999999832362, 0.5689000245183706, 0.5631000094581395, 0.5675999855156988, 0.5709000106435269, 0.5785999819636345, 0.5606500199064612, 0.5591500084847212, 0.5703500064555556, 0.5709000106435269, 0.5720999906770885, 0.5655999993905425, 0.5540999991353601, 0.5634499830193818, 0.5624500045087188, 0.5666999786626548, 0.5602000164799392, 0.6024500180501491, 0.5709500110242516, 0.5636999849230051, 0.5713499849662185, 0.5651499959640205, 0.5680499889422208, 0.5611999949906021, 0.5974499799776822, 0.5596000119112432, 0.6534000276587903, 0.5970000056549907, 0.5665000062435865, 0.5751999851781875, 0.5791000148747116, 0.6668499845545739, 0.6058499857317656, 0.5985500174574554, 0.5596499831881374, 0.5605999904219061, 0.6563499919138849, 0.6058000144548714, 0.5639500159304589, 0.5415999912656844, 0.599749997491017, 0.5639999872073531, 0.5696500011254102, 0.5601000157184899, 0.5614499968942255, 0.6178999901749194, 0.5672499828506261, 0.5653999978676438, 0.5646499921567738, 0.5622000026050955, 0.5562500155065209, 0.5637499853037298, 0.5552500078920275, 0.5601499869953841, 0.5653999978676438, 0.5758499901276082, 0.5590499786194414, 0.5696000007446855, 0.5512500065378845, 0.5596500122919679, 0.5608999927062541, 0.5649500235449523, 0.592500000493601, 0.5600999866146594, 0.5590000073425472, 0.5768499977421016, 0.5714499857276678, 0.5793499876745045, 0.5714499857276678, 0.5681999900843948, 0.5697000015061349, 0.5553500086534768, 0.5692499980796129, 0.5609499930869788, 0.5540499987546355, 0.5654999986290932, 0.5556500109378248, 0.5610499938484281, 0.5561499856412411, 0.5930500046815723, 0.5674999847542495, 0.5511499766726047, 0.5702500056941062, 0.5577999982051551, 0.5746000097133219, 0.5705500079784542, 0.5601500160992146, 0.5648999940603971, 0.5596499831881374, 0.5596999835688621, 0.5709999823011458, 0.5688000237569213, 0.5704000068362802, 0.5689999961759895, 0.5624000041279942, 0.5636000132653862, 0.5637000140268356, 0.5692999984603375, 0.5624500045087188, 0.575800018850714, 0.5613499961327761, 0.5653499974869192, 0.6662500090897083, 0.6591499841306359, 0.5687500233761966, 0.5760999920312315, 0.5700500041712075, 0.5602499877568334, 0.5609499930869788, 0.6032499950379133, 0.5858000076841563, 0.5600499862339348, 0.5681000184267759, 0.5706999800167978, 0.5615999980363995, 0.5563499871641397, 0.5500499974004924, 0.5583500023931265, 0.5636499845422804, 0.5769499985035509, 0.5689499957952648, 0.5735999729949981, 0.5582500016316772, 0.5651999963447452, 0.587500020628795, 0.5626500060316175, 0.5690499965567142, 0.5613499961327761, 0.5634500121232122, 0.5729999975301325, 0.5629500083159655, 0.5595499824266881, 0.5547000037040561, 0.5687499942723662, 0.5831500166095793, 0.562349974643439, 0.5652000254485756, 0.5673500127159059, 0.5597000126726925, 0.5661499744746834, 0.5592999805230647, 0.5707000091206282, 0.5680499889422208, 0.6019500142429024, 0.5636000132653862, 0.5643499898724258, 0.5723499925807118, 0.5704999784938991, 0.595749996136874, 0.5650499952025712, 0.5641000170726329, 0.5665500066243112, 0.5592000088654459, 0.5617999995592982, 0.5763999943155795, 0.5610499938484281, 0.5564000166486949, 0.5605499900411814, 0.5675500142388046, 0.5883499979972839, 0.5649500235449523, 0.5766499962192029, 0.5587000050581992, 0.5597000126726925, 0.5713499849662185, 0.5643499898724258, 0.5680000176653266, 0.5693999992217869, 0.5573500238824636, 0.5616999987978488, 0.5607999919448048, 0.5606000195257366, 0.5780500068794936, 0.5559999844990671, 0.5622500029858202, 0.5577999982051551, 0.5599999858532101, 0.5623500037472695, 0.5685499927494675, 0.5684999923687428, 0.5600000149570405, 0.5563500162679702, 0.6822000141255558, 0.6033499957993627, 0.5670000100508332, 0.5828499852214009, 0.5582000012509525, 0.5782000080216676, 0.5594500107690692, 0.5646999925374985, 0.5637999856844544, 0.5621499731205404, 0.5707499803975224, 0.5565500177908689, 0.5579999997280538, 0.5762999935541302, 0.5541999998968095, 0.5747000104747713, 0.5725999944843352, 0.5573999951593578, 0.5577500269282609, 0.5797000194434077, 0.5571999936364591, 0.5652999971061945, 0.5904499848838896, 0.5657000001519918, 0.5913499917369336, 0.5590500077232718, 0.5705999792553484, 0.5659000016748905, 0.5661999748554081, 0.5642499891109765, 0.5577999982051551, 0.5688499950338155, 0.5794000171590596, 0.5552000075113028, 0.5697500018868595, 0.5653999978676438, 0.5619999719783664, 0.5664500058628619, 0.5775500030722469, 0.5624500045087188, 0.5694499996025115, 0.5655999993905425, 0.5564500170294195, 0.5619000003207475, 0.5717999883927405, 0.5768999981228262, 0.5645999917760491, 0.5642499891109765, 0.575950019992888, 0.5688499950338155, 0.5662000039592385, 0.5652999971061945, 0.5768999981228262, 0.5647500220220536, 0.5624500045087188, 0.5670500104315579, 0.5639499868266284, 0.5592000088654459, 0.5694999999832362, 0.5686499935109168, 0.5693999992217869, 0.5551999784074724, 0.5564000166486949, 0.5568500200752169, 0.5728499963879585, 0.5643999902531505, 0.5681999900843948, 0.5647499929182231, 0.5567999905906618, 0.5541999998968095, 0.5622500029858202, 0.5701500049326569, 0.5635999841615558, 0.5658000009134412, 0.5874499911442399, 0.5629500083159655, 0.5693999992217869, 0.5669000092893839, 0.5614499968942255, 0.55184998200275, 0.5706999800167978, 0.5748500116169453, 0.5642999894917011, 0.662450009258464, 0.5978499830234796, 0.5640500166919082, 0.5739499756600708, 0.5529999907594174, 0.5622500029858202, 0.5919500254094601, 0.6353500066325068, 0.5531499919015914, 0.5590000073425472, 0.6620499771088362, 0.6076499994378537, 0.5605499900411814, 0.5638499860651791, 0.6076499994378537, 0.614099990343675, 0.5624500045087188, 0.5697000015061349, 0.5684499919880182, 0.5635499837808311, 0.5707500095013529, 0.5650499952025712, 0.5581500008702278, 0.5663000047206879, 0.5702500056941062, 0.5527000175788999, 0.5800999933853745, 0.5756000173278153, 0.5712499842047691, 0.5585000035353005, 0.5548500048462301, 0.5611499946098775, 0.5626499769277871, 0.5577499978244305, 0.5515500088222325, 0.576550024561584, 0.5802499945275486, 0.5547499749809504, 0.5606500199064612, 0.5609000218100846, 0.5662499752361327, 0.5660500028170645, 0.5626999773085117, 0.5604999896604568, 0.5691499973181635, 0.5762999935541302, 0.5703000060748309, 0.5584000027738512, 0.5650499952025712, 0.5621000018436462, 0.5676500150002539, 0.5572499940171838, 0.5662000039592385, 0.5623000033665448, 0.5637999856844544, 0.5565499886870384, 0.5686500226147473, 0.5598500138148665, 0.5677000153809786, 0.5714000144507736, 0.5615499976556748, 0.5746500100940466, 0.5750000127591193, 0.5740500055253506, 0.5677000153809786, 0.5602499877568334, 0.5617499991785735, 0.5643499898724258, 0.5655999993905425, 0.5689499957952648, 0.5608499923255295, 0.5770499992650002, 0.5622000026050955, 0.5636000132653862, 0.5823499814141542, 0.5879999953322113, 0.5922499985899776, 0.6364000146277249, 0.5702500056941062, 0.5593000096268952, 0.5626000056508929, 0.5610999942291528, 0.5701500049326569, 0.5804999964311719, 0.5890500033274293, 0.5615999980363995, 0.5530999915208668, 0.5705000075977296, 0.5579499993473291, 0.5712499842047691, 0.5524499865714461, 0.5669000092893839, 0.5657000001519918, 0.5807499983347952, 0.5653999978676438, 0.5578499985858798, 0.5644000193569809, 0.5812500021420419, 0.5645499913953245, 0.5613499961327761, 0.5710000114049762, 0.5524999869521707, 0.5552000075113028, 0.5592500092461705, 0.5715999868698418, 0.5689999961759895, 0.5597999843303114, 0.5657500005327165, 0.5646499921567738, 0.5611499946098775, 0.5759499908890575, 0.5636499845422804, 0.5606499908026308, 0.5689499957952648, 0.5608500214293599, 0.5615999980363995, 0.5603999888990074, 0.592500000493601, 0.5712499842047691, 0.5682499904651195, 0.5651499959640205, 0.5624000041279942, 0.5658000009134412, 0.5685999931301922, 0.5659000016748905, 0.5701500049326569, 0.5565999890677631, 0.5714999861083925, 0.5624000041279942, 0.5632499814964831, 0.5655999993905425, 0.5739500047639012, 0.5688499950338155, 0.572400022065267, 0.5687499942723662, 0.5493999924510717, 0.5559000128414482, 0.5663000047206879, 0.5630999803543091, 0.5789500137325376, 0.5623000033665448, 0.5589999782387167, 0.5726999952457845, 0.5627000064123422, 0.5716000159736723, 0.5788500129710883, 0.5803500243928283, 0.5614499968942255, 0.5639499868266284, 0.5584000027738512, 0.578750012209639, 0.5630500090774149, 0.5528500187210739, 0.5662999756168574, 0.5621500022243708, 0.5630499799735844, 0.680650002323091, 0.6052999815437943, 0.5669499805662781, 0.5678999878000468, 0.5796499899588525, 0.6041499727871269, 0.5641999887302518, 0.5554500094149262, 0.5725499941036105, 0.5727999960072339, 0.5597500130534172, 0.5634499830193818, 0.5602499877568334, 0.5768499977421016, 0.5562000151257962, 0.5633000109810382, 0.5687999946530908, 0.5674000130966306, 0.5711499834433198, 0.5556000105571002, 0.5563999875448644, 0.5763000226579607, 0.5722999921999872, 0.5611499946098775, 0.6908999930601567, 0.5663000047206879, 0.5510000046342611, 0.5637499853037298, 0.5724999937228858, 0.5651999963447452, 0.5622000026050955, 0.5644999910145998, 0.5639000155497342, 0.5640999879688025, 0.5683499912265688, 0.5800499930046499, 0.5646500212606043, 0.5624500045087188, 0.5606500199064612, 0.5632500106003135, 0.5642499891109765, 0.5587500054389238, 0.5751000135205686, 0.5632499814964831, 0.6200999778229743, 0.5560499848797917, 0.5649999948218465, 0.5689499957952648, 0.5721999914385378, 0.5591500084847212, 0.5594000103883445, 0.5658000009134412, 0.5712000129278749, 0.5650500243064016, 0.5598999850917608, 0.5625499761663377, 0.5592500092461705, 0.5734000005759299, 0.580550025915727, 0.5677999870385975, 0.5658500012941658, 0.558349973289296, 0.5654499982483685, 0.5622000026050955, 0.5701000045519322, 0.5650999955832958, 0.5705000075977296, 0.5656499997712672, 0.5720999906770885, 0.5737500032410026, 0.5881999968551099, 0.5739000043831766, 0.5653499974869192, 0.5758499901276082, 0.5780500068794936, 0.5553499795496464, 0.5574999959208071, 0.5603999888990074, 0.5609500221908092, 0.5783500091638416, 0.5817500059492886, 0.5641000170726329, 0.5639000155497342, 0.5660000024363399, 0.5605000187642872, 0.5671500111930072, 0.5618499999400228, 0.5794499884359539, 0.5674500134773552, 0.5505500012077391, 0.5571000219788402, 0.5585000035353005, 0.5603999888990074, 0.5687500233761966, 0.5676500150002539, 0.5477000086102635, 0.5561499856412411, 0.5222499894443899, 0.5632499814964831, 0.5740000051446259, 0.5818000063300133, 0.5597499839495867, 0.5921499978285283, 0.6654500029981136, 0.5690999969374388, 0.5777500045951456, 0.5636000132653862, 0.5668500089086592, 0.5707499803975224, 0.5601500160992146, 0.5742499779444188, 0.5692999984603375, 0.5690999969374388, 0.5630499799735844, 0.5647000216413289, 0.5622000026050955, 0.5630499799735844, 0.5627499776892364, 0.5523000145331025, 0.5718499887734652, 0.5740000051446259, 0.5683500203303993, 0.5706999800167978, 0.5652999971061945, 0.5556500109378248, 0.5663000047206879, 0.5680000176653266, 0.5665000062435865, 0.5574000242631882, 0.5591999797616154, 0.5536999960895628, 0.5592000088654459, 0.5637500144075602, 0.5749500123783946, 0.5603499885182828, 0.5683499912265688, 0.5626000056508929, 0.5711499834433198, 0.5620500014629215, 0.5631500098388642, 0.5714999861083925, 0.5602000164799392, 0.5662999756168574, 0.5712499842047691, 0.5680000176653266, 0.5620000010821968, 0.5710499826818705, 0.5615999980363995, 0.5669000092893839, 0.5613499961327761, 0.5551499780267477, 0.5782500084023923, 0.5683999916072935, 0.5641499883495271, 0.5721999914385378, 0.5621000018436462, 0.5575499963015318, 0.5642500182148069, 0.5692999984603375, 0.5567000189330429, 0.6933500117156655, 0.5926499725319445, 0.5655999993905425, 0.5574999959208071, 0.5938000103924423, 0.5635499837808311, 0.5505000008270144, 0.5759999912697822, 0.5813000025227666, 0.5673000123351812, 0.5670999817084521, 0.5608499923255295, 0.5655999993905425, 0.5723999929614365, 0.5774000019300729, 0.5724999937228858, 0.5596500122919679, 0.5718499887734652, 0.5609999934677035, 0.5994999955873936, 0.5885999999009073, 0.5782500084023923, 0.5688000237569213, 0.5528999899979681, 0.5668000085279346, 0.5788499838672578, 0.5602499877568334, 0.5583000020124018, 0.5658500012941658, 0.5619500007014722, 0.5700000037904829],
  "QPU": "7000000",
  "Qubits": 10,
  "Queue durations [ms]": [0.0, 0.0, 0.0, 0.0, 0.0, 0.0, 0.0, 0.0, 0.0, 0.0, 0.0, 0.0, 0.0, 0.0, 0.0, 0.0, 0.0, 0.0, 0.0, 0.0, 0.0, 0.0, 0.0, 0.0, 0.0, 0.0, 0.0, 0.0, 0.0, 0.0, 0.0, 0.0, 0.0, 0.0, 0.0, 0.0, 0.0, 0.0, 0.0, 0.0, 0.0, 0.0, 0.0, 0.0, 0.0, 0.0, 0.0, 0.0, 0.0, 0.0, 0.0, 0.0, 0.0, 0.0, 0.0, 0.0, 0.0, 0.0, 0.0, 0.0, 0.0, 0.0, 0.0, 0.0, 0.0, 0.0, 0.0, 0.0, 0.0, 0.0, 0.0, 0.0, 0.0, 0.0, 0.0, 0.0, 0.0, 0.0, 0.0, 0.0, 0.0, 0.0, 0.0, 0.0, 0.0, 0.0, 0.0, 0.0, 0.0, 0.0, 0.0, 0.0, 0.0, 0.0, 0.0, 0.0, 0.0, 0.0, 0.0, 0.0, 0.0, 0.0, 0.0, 0.0, 0.0, 0.0, 0.0, 0.0, 0.0, 0.0, 0.0, 0.0, 0.0, 0.0, 0.0, 0.0, 0.0, 0.0, 0.0, 0.0, 0.0, 0.0, 0.0, 0.0, 0.0, 0.0, 0.0, 0.0, 0.0, 0.0, 0.0, 0.0, 0.0, 0.0, 0.0, 0.0, 0.0, 0.0, 0.0, 0.0, 0.0, 0.0, 0.0, 0.0, 0.0, 0.0, 0.0, 0.0, 0.0, 0.0, 0.0, 0.0, 0.0, 0.0, 0.0, 0.0, 0.0, 0.0, 0.0, 0.0, 0.0, 0.0, 0.0, 0.0, 0.0, 0.0, 0.0, 0.0, 0.0, 0.0, 0.0, 0.0, 0.0, 0.0, 0.0, 0.0, 0.0, 0.0, 0.0, 0.0, 0.0, 0.0, 0.0, 0.0, 0.0, 0.0, 0.0, 0.0, 0.0, 0.0, 0.0, 0.0, 0.0, 0.0, 0.0, 0.0, 0.0, 0.0, 0.0, 0.0, 0.0, 0.0, 0.0, 0.0, 0.0, 0.0, 0.0, 0.0, 0.0, 0.0, 0.0, 0.0, 0.0, 0.0, 0.0, 0.0, 0.0, 0.0, 0.0, 0.0, 0.0, 0.0, 0.0, 0.0, 0.0, 0.0, 0.0, 0.0, 0.0, 0.0, 0.0, 0.0, 0.0, 0.0, 0.0, 0.0, 0.0, 0.0, 0.0, 0.0, 0.0, 0.0, 0.0, 0.0, 0.0, 0.0, 0.0, 0.0, 0.0, 0.0, 0.0, 0.0, 0.0, 0.0, 0.0, 0.0, 0.0, 0.0, 0.0, 0.0, 0.0, 0.0, 0.0, 0.0, 0.0, 0.0, 0.0, 0.0, 0.0, 0.0, 0.0, 0.0, 0.0, 0.0, 0.0, 0.0, 0.0, 0.0, 0.0, 0.0, 0.0, 0.0, 0.0, 0.0, 0.0, 0.0, 0.0, 0.0, 0.0, 0.0, 0.0, 0.0, 0.0, 0.0, 0.0, 0.0, 0.0, 0.0, 0.0, 0.0, 0.0, 0.0, 0.0, 0.0, 0.0, 0.0, 0.0, 0.0, 0.0, 0.0, 0.0, 0.0, 0.0, 0.0, 0.0, 0.0, 0.0, 0.0, 0.0, 0.0, 0.0, 0.0, 0.0, 0.0, 0.0, 0.0, 0.0, 0.0, 0.0, 0.0, 0.0, 0.0, 0.0, 0.0, 0.0, 0.0, 0.0, 0.0, 0.0, 0.0, 0.0, 0.0, 0.0, 0.0, 0.0, 0.0, 0.0, 0.0, 0.0, 0.0, 0.0, 0.0, 0.0, 0.0, 0.0, 0.0, 0.0, 0.0, 0.0, 0.0, 0.0, 0.0, 0.0, 0.0, 0.0, 0.0, 0.0, 0.0, 0.0, 0.0, 0.0, 0.0, 0.0, 0.0, 0.0, 0.0, 0.0, 0.0, 0.0, 0.0, 0.0, 0.0, 0.0, 0.0, 0.0, 0.0, 0.0, 0.0, 0.0, 0.0, 0.0, 0.0, 0.0, 0.0, 0.0, 0.0, 0.0, 0.0, 0.0, 0.0, 0.0, 0.0, 0.0, 0.0, 0.0, 0.0, 0.0, 0.0, 0.0, 0.0, 0.0, 0.0, 0.0, 0.0, 0.0, 0.0, 0.0, 0.0, 0.0, 0.0, 0.0, 0.0, 0.0, 0.0, 0.0, 0.0, 0.0, 0.0, 0.0, 0.0, 0.0, 0.0, 0.0, 0.0, 0.0, 0.0, 0.0, 0.0, 0.0, 0.0, 0.0, 0.0, 0.0, 0.0, 0.0, 0.0, 0.0, 0.0, 0.0, 0.0, 0.0, 0.0, 0.0, 0.0, 0.0, 0.0, 0.0, 0.0, 0.0, 0.0, 0.0, 0.0, 0.0, 0.0, 0.0, 0.0, 0.0, 0.0, 0.0, 0.0, 0.0, 0.0, 0.0, 0.0, 0.0, 0.0, 0.0, 0.0, 0.0, 0.0, 0.0, 0.0, 0.0, 0.0, 0.0, 0.0, 0.0, 0.0, 0.0, 0.0, 0.0, 0.0, 0.0, 0.0, 0.0, 0.0, 0.0, 0.0, 0.0, 0.0, 0.0, 0.0, 0.0, 0.0, 0.0, 0.0, 0.0, 0.0, 0.0, 0.0, 0.0, 0.0, 0.0, 0.0, 0.0, 0.0, 0.0, 0.0, 0.0, 0.0, 0.0, 0.0, 0.0, 0.0, 0.0, 0.0, 0.0, 0.0, 0.0, 0.0, 0.0, 0.0, 0.0, 0.0, 0.0, 0.0, 0.0, 0.0, 0.0, 0.0, 0.0, 0.0, 0.0, 0.0, 0.0, 0.0, 0.0, 0.0, 0.0, 0.0, 0.0, 0.0, 0.0, 0.0, 0.0, 0.0, 0.0, 0.0, 0.0, 0.0, 0.0, 0.0, 0.0, 0.0, 0.0, 0.0, 0.0, 0.0, 0.0, 0.0, 0.0, 0.0, 0.0, 0.0, 0.0, 0.0, 0.0, 0.0, 0.0, 0.0, 0.0, 0.0, 0.0, 0.0, 0.0, 0.0, 0.0, 0.0, 0.0, 0.0, 0.0, 0.0, 0.0, 0.0, 0.0, 0.0, 0.0, 0.0, 0.0, 0.0, 0.0, 0.0, 0.0, 0.0, 0.0, 0.0, 0.0, 0.0, 0.0, 0.0, 0.0, 0.0, 0.0, 0.0, 0.0, 0.0, 0.0, 0.0, 0.0, 0.0, 0.0, 0.0, 0.0, 0.0, 0.0, 0.0, 0.0, 0.0, 0.0, 0.0, 0.0, 0.0, 0.0, 0.0, 0.0, 0.0, 0.0, 0.0, 0.0, 0.0, 0.0, 0.0, 0.0, 0.0, 0.0, 0.0, 0.0, 0.0, 0.0, 0.0, 0.0, 0.0, 0.0, 0.0, 0.0, 0.0, 0.0, 0.0, 0.0, 0.0, 0.0, 0.0, 0.0, 0.0, 0.0, 0.0, 0.0, 0.0, 0.0, 0.0, 0.0, 0.0, 0.0, 0.0, 0.0, 0.0, 0.0, 0.0, 0.0, 0.0, 0.0, 0.0, 0.0, 0.0, 0.0, 0.0, 0.0, 0.0, 0.0, 0.0, 0.0, 0.0, 0.0, 0.0, 0.0, 0.0, 0.0, 0.0, 0.0, 0.0, 0.0, 0.0, 0.0, 0.0, 0.0, 0.0, 0.0, 0.0, 0.0, 0.0, 0.0, 0.0, 0.0, 0.0, 0.0, 0.0, 0.0, 0.0, 0.0, 0.0, 0.0, 0.0, 0.0, 0.0, 0.0, 0.0, 0.0, 0.0, 0.0, 0.0, 0.0, 0.0, 0.0, 0.0, 0.0, 0.0, 0.0, 0.0, 0.0, 0.0, 0.0, 0.0, 0.0, 0.0, 0.0, 0.0, 0.0, 0.0, 0.0, 0.0, 0.0, 0.0, 0.0, 0.0, 0.0, 0.0, 0.0, 0.0, 0.0, 0.0, 0.0, 0.0, 0.0, 0.0, 0.0, 0.0, 0.0, 0.0, 0.0, 0.0, 0.0, 0.0, 0.0, 0.0, 0.0, 0.0, 0.0, 0.0, 0.0, 0.0, 0.0, 0.0, 0.0, 0.0, 0.0, 0.0, 0.0, 0.0, 0.0, 0.0, 0.0, 0.0, 0.0, 0.0, 0.0, 0.0, 0.0, 0.0, 0.0, 0.0, 0.0, 0.0, 0.0, 0.0, 0.0, 0.0, 0.0, 0.0, 0.0, 0.0, 0.0, 0.0, 0.0, 0.0, 0.0, 0.0, 0.0, 0.0, 0.0, 0.0, 0.0, 0.0, 0.0, 0.0, 0.0, 0.0, 0.0, 0.0, 0.0, 0.0, 0.0, 0.0, 0.0, 0.0, 0.0, 0.0, 0.0, 0.0, 0.0, 0.0, 0.0, 0.0, 0.0, 0.0, 0.0, 0.0, 0.0, 0.0, 0.0, 0.0, 0.0, 0.0, 0.0, 0.0, 0.0, 0.0, 0.0, 0.0, 0.0, 0.0, 0.0, 0.0, 0.0, 0.0, 0.0, 0.0, 0.0, 0.0, 0.0, 0.0, 0.0, 0.0, 0.0, 0.0, 0.0, 0.0, 0.0, 0.0, 0.0, 0.0, 0.0, 0.0, 0.0, 0.0, 0.0, 0.0, 0.0, 0.0, 0.0, 0.0, 0.0, 0.0, 0.0, 0.0, 0.0, 0.0, 0.0, 0.0, 0.0, 0.0, 0.0, 0.0, 0.0, 0.0, 0.0, 0.0, 0.0, 0.0, 0.0, 0.0, 0.0, 0.0, 0.0, 0.0, 0.0, 0.0, 0.0, 0.0, 0.0, 0.0, 0.0, 0.0, 0.0, 0.0, 0.0, 0.0, 0.0, 0.0, 0.0, 0.0, 0.0, 0.0, 0.0, 0.0, 0.0, 0.0, 0.0, 0.0, 0.0, 0.0, 0.0, 0.0, 0.0, 0.0, 0.0, 0.0, 0.0, 0.0, 0.0, 0.0, 0.0, 0.0, 0.0, 0.0, 0.0, 0.0, 0.0, 0.0, 0.0, 0.0, 0.0, 0.0, 0.0, 0.0, 0.0, 0.0, 0.0, 0.0, 0.0, 0.0, 0.0, 0.0, 0.0, 0.0, 0.0, 0.0, 0.0, 0.0, 0.0, 0.0, 0.0, 0.0, 0.0, 0.0, 0.0, 0.0, 0.0, 0.0, 0.0, 0.0, 0.0, 0.0, 0.0, 0.0, 0.0, 0.0, 0.0, 0.0, 0.0, 0.0, 0.0, 0.0, 0.0, 0.0, 0.0, 0.0, 0.0, 0.0, 0.0, 0.0, 0.0, 0.0, 0.0, 0.0, 0.0, 0.0, 0.0, 0.0, 0.0, 0.0, 0.0, 0.0, 0.0, 0.0, 0.0, 0.0, 0.0, 0.0, 0.0, 0.0, 0.0, 0.0, 0.0, 0.0, 0.0, 0.0, 0.0, 0.0, 0.0, 0.0, 0.0, 0.0, 0.0, 0.0, 0.0, 0.0, 0.0, 0.0, 0.0, 0.0, 0.0, 0.0, 0.0, 0.0, 0.0, 0.0, 0.0, 0.0, 0.0, 0.0, 0.0, 0.0, 0.0, 0.0, 0.0, 0.0, 0.0, 0.0, 0.0, 0.0, 0.0, 0.0, 0.0, 0.0, 0.0, 0.0, 0.0, 0.0, 0.0, 0.0, 0.0, 0.0, 0.0, 0.0, 0.0, 0.0, 0.0, 0.0, 0.0, 0.0, 0.0, 0.0, 0.0, 0.0, 0.0, 0.0, 0.0, 0.0, 0.0, 0.0, 0.0, 0.0, 0.0, 0.0, 0.0, 0.0, 0.0, 0.0, 0.0, 0.0, 0.0, 0.0, 0.0, 0.0, 0.0, 0.0, 0.0, 0.0, 0.0, 0.0, 0.0, 0.0, 0.0, 0.0, 0.0, 0.0, 0.0, 0.0, 0.0, 0.0, 0.0, 0.0, 0.0, 0.0, 0.0, 0.0, 0.0, 0.0, 0.0, 0.0, 0.0, 0.0, 0.0, 0.0, 0.0, 0.0, 0.0, 0.0, 0.0, 0.0, 0.0, 0.0, 0.0, 0.0, 0.0, 0.0, 0.0, 0.0, 0.0, 0.0, 0.0, 0.0, 0.0, 0.0, 0.0, 0.0, 0.0, 0.0, 0.0, 0.0, 0.0, 0.0, 0.0, 0.0, 0.0, 0.0, 0.0, 0.0, 0.0, 0.0, 0.0, 0.0, 0.0, 0.0, 0.0, 0.0, 0.0, 0.0, 0.0, 0.0, 0.0, 0.0, 0.0, 0.0, 0.0, 0.0, 0.0, 0.0, 0.0, 0.0, 0.0, 0.0, 0.0, 0.0, 0.0, 0.0, 0.0, 0.0, 0.0, 0.0, 0.0],
  "Shots": 4096,
  "Size": 10,
  "Total Algorithm duration [s]": 15.314,
  "Total Classic duration [s]": 14.623121200087247,
  "Total Quantum duration [s]": 0.6908787999127526
}
