{
  "Circuit execution durations [ms]": [0.5642000178340822, 0.6024000176694244, 0.6082499749027193, 0.5667999794241041, 0.5698500026483089, 0.5582500016316772, 0.5923999997321516, 0.5710000114049762, 0.5576499970629811, 0.5673500127159059, 0.5706000083591789, 0.5760499916505069, 0.5679000169038773, 0.5660000024363399, 0.5533000221475959, 0.5777500045951456, 0.6881500012241304, 0.6237000052351505, 0.5547000037040561, 0.5591000081039965, 0.5565999890677631, 0.5579499993473291, 0.5569500208366662, 0.663200014969334, 0.6127500091679394, 0.5653999978676438, 0.5670500104315579, 0.5664000054821372, 0.672800000756979, 0.6099999882280827, 0.5680499889422208, 0.5634999834001064, 0.6031000229995698, 0.5830999871250242, 0.5645499913953245, 0.5574499955400825, 0.5843499966431409, 0.5889000021852553, 0.5727499956265092, 0.5659000016748905, 0.5782500084023923, 0.5686499935109168, 0.5628500075545162, 0.5645499913953245, 0.5597500130534172, 0.5597499839495867, 0.5678000161424279, 0.5564499879255891, 0.5534499941859394, 0.5780000064987689, 0.5747500108554959, 0.5569999921135604, 0.5694999999832362, 0.5673500127159059, 0.5647000216413289, 0.5654499982483685, 0.5621000018436462, 0.5714499857276678, 0.5629500083159655, 0.5865000130143017, 0.5688999954145402, 0.5640999879688025, 0.5619000003207475, 0.5533499934244901, 0.5854500050190836, 0.5597499839495867, 0.5636499845422804, 0.5632999818772078, 0.6707499851472676, 0.5672499828506261, 0.5661000031977892, 0.5544500018004328, 0.568700022995472, 0.575350015424192, 0.5705500079784542, 0.5673000123351812, 0.5868999869562685, 0.5606999911833555, 0.5649999948218465, 0.5736000020988286, 0.5844499974045902, 0.5670000100508332, 0.5596000119112432, 0.5641499883495271, 0.5673000123351812, 0.5713000136893243, 0.5559999844990671, 0.5569499917328358, 0.5646999925374985, 0.5628999788314104, 0.5627499776892364, 0.5560500139836222, 0.5595500115305185, 0.7235500088427216, 0.6055500125512481, 0.5844499974045902, 0.5586500046774745, 0.5551499780267477, 0.5582000012509525, 0.5737000028602779, 0.5605999904219061, 0.5674500134773552, 0.594750017626211, 0.5645500204991549, 0.5686499935109168, 0.5582000012509525, 0.5654499982483685, 0.5677999870385975, 0.5608999927062541, 0.5649999948218465, 0.5666500073857605, 0.5628000071737915, 0.5623500037472695, 0.5710999830625951, 0.5673000123351812, 0.5555000097956508, 0.5574999959208071, 0.6195500027388334, 0.5663000047206879, 0.5642500182148069, 0.5673999839928001, 0.5630500090774149, 0.5767499969806522, 0.5564999883063138, 0.558949977857992, 0.5565999890677631, 0.5565999890677631, 0.5596500122919679, 0.5628500075545162, 0.5745000089518726, 0.5566499894484878, 0.5799499922432005, 0.5581500008702278, 0.5703000060748309, 0.5680999893229455, 0.5685999931301922, 0.5654999986290932, 0.5629000079352409, 0.5652999971061945, 0.5676499858964235, 0.5588499770965427, 0.5697500018868595, 0.5608000210486352, 0.5564999883063138, 0.5638499860651791, 0.5521000130102038, 0.5790499853901565, 0.5848500004503876, 0.5634000117424875, 0.5569999921135604, 0.5769500276073813, 0.5528999899979681, 0.5711500125471503, 0.5611499946098775, 0.5600500153377652, 0.5678999878000468, 0.5743500078096986, 0.5723499925807118, 0.5682000191882253, 0.5655999993905425, 0.5721999914385378, 0.5673500127159059, 0.5728999967686832, 0.5598999850917608, 0.5686999938916415, 0.5659500020556152, 0.5754500161856413, 0.5697000015061349, 0.5641999887302518, 0.5593000096268952, 0.5624500045087188, 0.5678499874193221, 0.5632499814964831, 0.5720000190194696, 0.7371499959845096, 0.6157500029075891, 0.5669000092893839, 0.5589500069618225, 0.6916499987710267, 0.5897500086575747, 0.6241000082809478, 0.5579999997280538, 0.5661500035785139, 0.5523499858099967, 0.5632499814964831, 0.5573999951593578, 0.5653499974869192, 0.5606499908026308, 0.5741500062867999, 0.5640500166919082, 0.5607499915640801, 0.5711000121664256, 0.5640000163111836, 0.5597500130534172, 0.5549000052269548, 0.5870499880984426, 0.5659499729517847, 0.5661500035785139, 0.5814500036649406, 0.5732499994337559, 0.5868499865755439, 0.5697500018868595, 0.5576499970629811, 0.5607000202871859, 0.5579999997280538, 0.5662000039592385, 0.5686999938916415, 0.5692500271834433, 0.5625500052701682, 0.5597499839495867, 0.5762999935541302, 0.5933500069659203, 0.5615999980363995, 0.5694999999832362, 0.5584000027738512, 0.5599000141955912, 0.5698999739252031, 0.5681499897036701, 0.5657000001519918, 0.5779500061180443, 0.5700000037904829, 0.5677000153809786, 0.5663500051014125, 0.5602999881375581, 0.5604999896604568, 0.5623500037472695, 0.5684999923687428, 0.5641999887302518, 0.5669500096701086, 0.5664000054821372, 0.5750499840360135, 0.5496999947354198, 0.5616999987978488, 0.5604499892797321, 0.5721999914385378, 0.5551000067498535, 0.5599999858532101, 0.5605500191450119, 0.5596499831881374, 0.5777000042144209, 0.568700022995472, 0.5664500058628619, 0.5597999843303114, 0.5635000125039369, 0.5625500052701682, 0.5725999944843352, 0.5595999828074127, 0.5640000163111836, 0.5758999905083328, 0.5619000003207475, 0.5595000111497939, 0.5651999963447452, 0.5681000184267759, 0.5662000039592385, 0.6356999801937491, 0.5650499952025712, 0.5705000075977296, 0.5783500091638416, 0.5613999965135008, 0.5639999872073531, 0.5611999949906021, 0.6752499903086573, 0.5966000026091933, 0.5630000086966902, 0.5651999963447452, 0.5662500043399632, 0.6510499806609005, 0.6127999804448336, 0.5554000090342015, 0.5617499991785735, 0.5972999788355082, 0.6095500139053911, 0.5556499818339944, 0.5631000094581395, 0.5650500243064016, 0.6843000010121614, 0.5658000009134412, 0.5817500059492886, 0.5578999989666045, 0.5690999969374388, 0.5651000246871263, 0.5720500194001943, 0.5597999843303114, 0.5681499897036701, 0.5604000180028379, 0.5597999843303114, 0.5639000155497342, 0.5720499902963638, 0.59710000641644, 0.5537999968510121, 0.5601999873761088, 0.5723000213038176, 0.5680000176653266, 0.5790499853901565, 0.5679500172846019, 0.6304999988060445, 0.5607500206679106, 0.5599000141955912, 0.5669999809470028, 0.5691999976988882, 0.5675500142388046, 0.5625500052701682, 0.5601000157184899, 0.5677499866578728, 0.5729999975301325, 0.5653999978676438, 0.5664500058628619, 0.6080000021029264, 0.55849997443147, 0.5690999969374388, 0.571800017496571, 0.5654499982483685, 0.5560500139836222, 0.5602499877568334, 0.5636500136461109, 0.5700500041712075, 0.5598000134341419, 0.5605499900411814, 0.5649499944411218, 0.583350018132478, 0.6078000005800277, 0.5621000018436462, 0.5557499825954437, 0.5565499886870384, 0.5603999888990074, 0.5774000019300729, 0.5601500160992146, 0.5659000016748905, 0.5658500012941658, 0.5651499959640205, 0.5612999957520515, 0.5830499867442995, 0.589250004850328, 0.7022999925538898, 0.5681999900843948, 0.5733500001952052, 0.5932499771006405, 0.5576499970629811, 0.5612000240944326, 0.5690999969374388, 0.5636000132653862, 0.5604499892797321, 0.5578499985858798, 0.5645499913953245, 0.5653999978676438, 0.5744499794673175, 0.5680999893229455, 0.5619500007014722, 0.5649499944411218, 0.5622000026050955, 0.5595999828074127, 0.5569999921135604, 0.5639499868266284, 0.5815500044263899, 0.5967000033706427, 0.5632999818772078, 0.5750500131398439, 0.5707499803975224, 0.5641500174533576, 0.5693499988410622, 0.5555000097956508, 0.5622000026050955, 0.5681499897036701, 0.5658000009134412, 0.5822999810334295, 0.5580500001087785, 0.5740500055253506, 0.5752499855589122, 0.5640500166919082, 0.5863499827682972, 0.5594499816652387, 0.5753999867010862, 0.5613999965135008, 0.5595500115305185, 0.5776000034529716, 0.5589500069618225, 0.5803500243928283, 0.5551000067498535, 0.5763000226579607, 0.5805999971926212, 0.5764499946963042, 0.5640999879688025, 0.5705499788746238, 0.5697499727830291, 0.5624999757856131, 0.6016500119585544, 0.5570500215981156, 0.5710000114049762, 0.5630000086966902, 0.5744499794673175, 0.5555500101763755, 0.5530999915208668, 0.5633000109810382, 0.5612999957520515, 0.5491499905474484, 0.5576499970629811, 0.5767499969806522, 0.5751500139012933, 0.5763499939348549, 0.5641000170726329, 0.5619000003207475, 0.5608499923255295, 0.5691499973181635, 0.5600999866146594, 0.5581500008702278, 0.5716000159736723, 0.5616999987978488, 0.5560500139836222, 0.5566500185523182, 0.5559000128414482, 0.5609499930869788, 0.5648999940603971, 0.7035500020720065, 0.5982999864500016, 0.5958499968983233, 0.5700000037904829, 0.5561000143643469, 0.5674500134773552, 0.5538999976124614, 0.5736500024795532, 0.5778000049758703, 0.5615999980363995, 0.5638500151690096, 0.5669000092893839, 0.5749000119976699, 0.5671000108122826, 0.5612499953713268, 0.5623999750241637, 0.5638999864459038, 0.5553000082727522, 0.5669999809470028, 0.5760999920312315, 0.5684000207111239, 0.5832999886479229, 0.5803499952889979, 0.5670000100508332, 0.5762999935541302, 0.5765499954577535, 0.562349974643439, 0.5735500017181039, 0.5718500178772956, 0.5682500195689499, 0.5633500113617629, 0.5552500078920275, 0.5583000020124018, 0.5589000065810978, 0.5733500001952052, 0.5630500090774149, 0.5666499782819301, 0.5735499726142734, 0.5956999957561493, 0.5831500166095793, 0.5614499968942255, 0.5664500058628619, 0.5697000015061349, 0.5719499895349145, 0.5742500070482492, 0.5649499944411218, 0.5649499944411218, 0.5617999995592982, 0.5632000102195889, 0.5630000086966902, 0.5686999938916415, 0.5605499900411814, 0.6322500121314079, 0.5904499848838896, 0.5605999904219061, 0.5977500113658607, 0.5651499959640205, 0.5606500199064612, 0.5759499908890575, 0.5652499967254698, 0.5654000269714743, 0.5642000178340822, 0.5704000068362802, 0.5586000042967498, 0.5798999918624759, 0.5720999906770885, 0.5603500176221132, 0.5736000020988286, 0.5711000121664256, 0.5585500039160252, 0.6027499912306666, 0.5632999818772078, 0.5706499796360731, 0.5722999921999872, 0.5572999943979084, 0.5609999934677035, 0.5688999954145402, 0.569300027564168, 0.5662999756168574, 0.5787499831058085, 0.5782500084023923, 0.5696999724023044, 0.5677499866578728, 0.693049980327487, 0.607149995630607, 0.5631500098388642, 0.5586000042967498, 0.5596000119112432, 0.5613499961327761, 0.5884500278625637, 0.6450999935623258, 0.523299997439608, 0.6092499825172126, 0.6531999970320612, 0.6030999938957393, 0.5740500055253506, 0.5678500165231526, 0.603149994276464, 0.5888500018045306, 0.5612999957520515, 0.5689999961759895, 0.7454500009771436, 0.6339499959722161, 0.5849000008311123, 0.5811500013805926, 0.5630500090774149, 0.5631000094581395, 0.5669999809470028, 0.5722499918192625, 0.5661500035785139, 0.5583000020124018, 0.5599999858532101, 0.5667499790433794, 0.5659500020556152, 0.5767999973613769, 0.5692999984603375, 0.5612999957520515, 0.5751000135205686, 0.5545500025618821, 0.5727500247303396, 0.5657000001519918, 0.5712999845854938, 0.5714999861083925, 0.5709999823011458, 0.5553500086534768, 0.5609499930869788, 0.5666000070050359, 0.5617999995592982, 0.5560000136028975, 0.5646000208798796, 0.5581500008702278, 0.5652999971061945, 0.5709500110242516, 0.5565000174101442, 0.5651999963447452, 0.5565499886870384, 0.5652999971061945, 0.5702000053133816, 0.5595000111497939, 0.5579999997280538, 0.5609999934677035, 0.5709999823011458, 0.5639499868266284, 0.5654499982483685, 0.5603500176221132, 0.5601000157184899, 0.5796999903395772, 0.5673999839928001, 0.5636999849230051, 0.5804499960504472, 0.5775000026915222, 0.5712499842047691, 0.5668999801855534, 0.5866500141564757, 0.5649999948218465, 0.5587500054389238, 0.5699500034097582, 0.5670000100508332, 0.578750012209639, 0.5552500078920275, 0.6685499974992126, 0.5847499996889383, 0.5728999967686832, 0.5918999959249049, 0.5642999894917011, 0.5699000030290335, 0.5734500009566545, 0.5659500020556152, 0.5769999988842756, 0.5653999978676438, 0.5905999860260636, 0.5634499830193818, 0.5619000003207475, 0.5611999949906021, 0.5629000079352409, 0.5621500022243708, 0.5667000077664852, 0.5635500128846616, 0.5564999883063138, 0.5810500006191432, 0.5838999932166189, 0.5654999986290932, 0.5591500084847212, 0.5743500078096986, 0.5523500149138272, 0.5583000020124018, 0.5573999951593578, 0.575350015424192, 0.5634500121232122, 0.5664000054821372, 0.5627499776892364, 0.5705999792553484, 0.5622500029858202, 0.5680000176653266, 0.5660000024363399, 0.5548500048462301, 0.5635500128846616, 0.5633500113617629, 0.5711000121664256, 0.5735000013373792, 0.5724999937228858, 0.5688999954145402, 0.5592000088654459, 0.5638500151690096, 0.5625500052701682, 0.5685499927494675, 0.5767999973613769, 0.5583999736700207, 0.55184998200275, 0.5626000056508929, 0.5596500122919679, 0.5732499994337559, 0.6023500172886997, 0.5778000049758703, 0.5684999923687428, 0.5630500090774149, 0.5523000145331025, 0.5613999965135008, 0.5518000107258558, 0.5576999974437058, 0.5614999972749501, 0.5640499875880778, 0.5559500132221729, 0.5573999951593578, 0.5660000024363399, 0.575950019992888, 0.5676999862771481, 0.5555500101763755, 0.5692499980796129, 0.5735500017181039, 0.5640499875880778, 0.5753999867010862, 0.5535999953281134, 0.5666999786626548, 0.5651000246871263, 0.5718500178772956, 0.5579499993473291, 0.5752999859396368, 0.5612999957520515, 0.7401499897241592, 0.59710000641644, 0.5710500117857009, 0.5661000031977892, 0.5584000027738512, 0.5558500124607235, 0.5696500011254102, 0.5601500160992146, 0.5679000169038773, 0.5602000164799392, 0.5554499803110957, 0.5776500038336962, 0.5726499948650599, 0.5640999879688025, 0.5639500159304589, 0.5825500120408833, 0.5709999823011458, 0.5568499909713864, 0.5644999910145998, 0.5622000026050955, 0.5603499885182828, 0.5722499918192625, 0.5572500231210142, 0.5752500146627426, 0.5596500122919679, 0.5681999900843948, 0.5619999719783664, 0.5684999923687428, 0.5624500045087188, 0.5614499968942255, 0.5552999791689217, 0.5666500073857605, 0.5606999911833555, 0.5574999959208071, 0.5611499946098775, 0.5590999790001661, 0.5643499898724258, 0.5603999888990074, 0.5694499996025115, 0.5585499748121947, 0.5634000117424875, 0.5726999952457845, 0.5706500087399036, 0.5652499967254698, 0.5596000119112432, 0.5630500090774149, 0.5664000054821372, 0.5560999852605164, 0.5759000196121633, 0.5675500142388046, 0.5761500215157866, 0.5677999870385975, 0.5660500028170645, 0.5570499924942851, 0.5626500060316175, 0.5626000056508929, 0.5735500017181039, 0.5601499869953841, 0.5510500050149858, 0.5677999870385975, 0.5677500157617033, 0.5646499921567738, 0.5822000093758106, 0.5737500032410026, 0.5721499910578132, 0.5722499918192625, 0.5667000077664852, 0.5772500007878989, 0.5698000022675842, 0.5584500031545758, 0.6068999937269837, 0.5593999812845141, 0.5506500019691885, 0.5594500107690692, 0.5944499862380326, 0.5661499744746834, 0.5769499985035509, 0.5706000083591789, 0.5689499957952648, 0.5805499968118966, 0.5965500022284687, 0.5678000161424279, 0.5593500100076199, 0.5644499906338751, 0.5591999797616154, 0.5704499781131744, 0.5672499828506261, 0.6885000038892031, 0.6129500106908381, 0.5748500116169453, 0.5366999830584973, 0.5668999801855534, 0.6821499846410006, 0.6138999888207763, 0.5550000059884042, 0.5637000140268356, 0.6111000257078558, 0.5887000006623566, 0.5577499978244305, 0.5709999823011458, 0.5629000079352409, 0.5817999772261828, 0.5556500109378248, 0.5608499923255295, 0.5615999980363995, 0.5737500032410026, 0.5737500032410026, 0.5766999965999275, 0.5611999949906021, 0.5689499957952648, 0.5652999971061945, 0.5655499990098178, 0.5625000048894435, 0.5604499892797321, 0.5750999844167382, 0.5627999780699611, 0.5534499941859394, 0.5549500056076795, 0.588650000281632, 0.5505000008270144, 0.5741000059060752, 0.5766499962192029, 0.5719499895349145, 0.5624999757856131, 0.5603999888990074, 0.5758999905083328, 0.5698499735444784, 0.5641500174533576, 0.5576999974437058, 0.5990000208839774, 0.5594500107690692, 0.5649999948218465, 0.5773000011686236, 0.5652499967254698, 0.5737500032410026, 0.5566999898292124, 0.5638499860651791, 0.5646499921567738, 0.5618499999400228, 0.5642499891109765, 0.5681499897036701, 0.5741500062867999, 0.5700500041712075, 0.5728499963879585, 0.5586000042967498, 0.5751499847974628, 0.5711999838240445, 0.6144000217318535, 0.5618499999400228, 0.5667500081472099, 0.5614499968942255, 0.5610999942291528, 0.5636000132653862, 0.5613499961327761, 0.5690499965567142, 0.5743500078096986, 0.5726499948650599, 0.6816000095568597, 0.6140000186860561, 0.5529999907594174, 0.5641499883495271, 0.5590500077232718, 0.5791999865323305, 0.5685499927494675, 0.5705000075977296, 0.5613999965135008, 0.5690499965567142, 0.5576499970629811, 0.5686999938916415, 0.5609499930869788, 0.5728499963879585, 0.5547000037040561, 0.5658500012941658, 0.5624000041279942, 0.5738500040024519, 0.5639999872073531, 0.5780500068794936, 0.5759999912697822, 0.5667000077664852, 0.5706499796360731, 0.572250020923093, 0.5651499959640205, 0.576250022277236, 0.5715500155929476, 0.5686999938916415, 0.5605499900411814, 0.5667000077664852, 0.5647000216413289, 0.5697500018868595, 0.5563000158872455, 0.5596000119112432, 0.5631499807350338, 0.5572499940171838, 0.5670000100508332, 0.5645499913953245, 0.5919499963056296, 0.5703000060748309, 0.5640999879688025, 0.5696000007446855, 0.5565000174101442, 0.5606500199064612, 0.5673500127159059, 0.5620000010821968, 0.5721499910578132, 0.5612999957520515, 0.5622500029858202, 0.5763499939348549, 0.5696500011254102, 0.5630999803543091, 0.5543000006582588, 0.5593500100076199, 0.5567499902099371, 0.5637000140268356, 0.5587500054389238, 0.5637999856844544, 0.5581500008702278, 0.5707000091206282, 0.5600000149570405, 0.5597999843303114, 0.5742000066675246, 0.5636500136461109, 0.5539999983739108, 0.5603500176221132, 0.5662500043399632, 0.5779000057373196, 0.5521000130102038, 0.5606500199064612, 0.5570499924942851, 0.6387500034179538, 0.5575999966822565, 0.5649999948218465, 0.5791999865323305, 0.5583500023931265, 0.5584500031545758, 0.5702500056941062, 0.5614999972749501, 0.5678499874193221, 0.5596500122919679, 0.6995000003371388, 0.6054000114090741, 0.5659500020556152, 0.5573500238824636, 0.5660500028170645, 0.5762499931734055, 0.5686499935109168, 0.5594000103883445, 0.572850025491789, 0.5615999980363995, 0.5654499982483685, 0.5655499990098178, 0.5717999883927405, 0.5697000015061349, 0.5535999953281134, 0.5603500176221132, 0.5592499801423401, 0.5559500132221729, 0.5739000043831766, 0.5743999790865928, 0.5737000028602779, 0.598150014411658, 0.5616999987978488, 0.5664500058628619, 0.5967499746475369, 0.5792499869130552, 0.5627500067930669, 0.5595499824266881, 0.5562499864026904, 0.5654999986290932, 0.5554500094149262, 0.5688999954145402, 0.5739000043831766, 0.5658000009134412, 0.5770999996457249, 0.5598999850917608, 0.5580500001087785, 0.5704499781131744, 0.5586000042967498, 0.5669500096701086, 0.5694499996025115, 0.5759499908890575, 0.5702500056941062, 0.5612999957520515, 0.5721500201616436, 0.56900002527982, 0.5678999878000468, 0.5604999896604568, 0.5668500089086592, 0.5636000132653862, 0.5601000157184899, 0.6013500096742064, 0.5607000202871859, 0.5629000079352409, 0.5812500021420419, 0.5634499830193818, 0.5701000045519322, 0.5615999980363995, 0.5756999889854342, 0.5771500000264496, 0.5561500147450715, 0.5640999879688025, 0.5714500148314983, 0.5638500151690096, 0.5786499823443592, 0.5649500235449523, 0.5631000094581395, 0.5662500043399632, 0.5735000013373792, 0.5634999834001064, 0.5912499909754843, 0.5590499786194414, 0.5644500197377056, 0.5570499924942851, 0.5637499853037298, 0.5585000035353005, 0.5647000216413289, 0.5717000167351216, 0.5691499973181635, 0.5726499948650599, 0.5615500267595053, 0.5556499818339944, 0.5664500058628619, 0.7194000063464046, 0.585700006922707, 0.5606499908026308, 0.5615999980363995, 0.5712500133085996, 0.6981499900575727, 0.6142999918665737, 0.6054500117897987, 0.5643999902531505, 0.5686000222340226, 0.665850006043911, 0.6070999952498823, 0.5549999768845737, 0.5956999957561493, 0.6016500119585544, 0.6345500005409122, 0.5680000176653266, 0.5643000185955316, 0.606999994488433],
  "Depth": 22.5,
  "Expectation Value": -12.514904975891113,
  "Optimal Expectation Value": -12.381489753723145,
  "Optimizer durations [ms]": [12.567, 12.911, 13.16, 12.119, 12.144, 12.23, 12.529, 12.519, 12.091, 12.194, 12.143, 12.166, 12.556, 12.377, 11.839, 12.493, 14.512, 13.456, 12.116, 15.318, 11.781, 13.257, 11.957, 14.034, 13.561, 12.029, 25.124, 13.32, 14.419, 13.108, 12.246, 22.103, 13.086, 12.711, 12.259, 12.166, 30.351, 17.507, 12.379, 11.859, 12.447, 12.305, 12.142, 12.616, 12.312, 12.172, 11.968, 12.257, 11.975, 12.593, 12.289, 12.181, 12.612, 12.245, 12.205, 12.474, 12.234, 12.395, 12.057, 12.913, 12.14, 12.045, 12.171, 12.107, 12.544, 12.14, 12.221, 12.222, 14.291, 12.047, 12.012, 12.376, 12.173, 12.906, 12.502, 12.271, 12.587, 12.156, 12.277, 12.346, 12.617, 12.293, 12.179, 12.122, 12.157, 12.264, 12.202, 12.439, 12.504, 12.111, 12.188, 11.743, 12.389, 15.569, 22.063, 12.866, 11.987, 12.193, 12.193, 12.117, 12.482, 12.152, 12.662, 12.513, 12.394, 12.275, 12.095, 12.208, 12.001, 12.342, 12.196, 12.405, 11.955, 12.458, 12.388, 12.215, 12.265, 13.329, 11.99, 12.444, 12.435, 12.203, 12.519, 12.065, 12.067, 11.96, 12.199, 12.341, 12.158, 12.304, 11.891, 12.477, 12.137, 12.775, 12.321, 12.435, 12.44, 12.327, 12.202, 12.237, 11.953, 12.358, 11.762, 12.132, 12.013, 12.192, 12.145, 12.75, 12.467, 12.111, 12.706, 12.198, 12.444, 12.357, 12.048, 12.193, 12.536, 12.181, 12.311, 12.335, 12.237, 12.631, 12.244, 11.971, 12.45, 11.921, 12.338, 12.294, 12.372, 12.257, 12.036, 11.992, 11.942, 12.497, 15.353, 23.007, 12.294, 12.273, 14.759, 12.81, 13.296, 12.001, 12.087, 12.267, 12.229, 12.116, 12.414, 11.983, 12.505, 12.292, 12.146, 12.542, 12.505, 12.18, 11.712, 12.952, 12.327, 12.171, 17.082, 12.562, 12.539, 12.485, 12.309, 12.262, 12.229, 12.136, 12.259, 12.376, 12.419, 12.249, 12.288, 12.852, 12.076, 12.075, 12.316, 12.364, 12.21, 12.263, 12.398, 12.225, 12.034, 12.497, 12.482, 12.183, 12.167, 12.413, 12.157, 12.362, 12.266, 12.358, 12.373, 11.791, 12.055, 12.315, 12.291, 11.981, 12.267, 12.093, 11.89, 12.635, 12.304, 12.364, 12.355, 12.335, 12.056, 12.491, 12.15, 12.073, 12.421, 12.393, 12.106, 12.307, 12.239, 12.33, 13.69, 12.461, 12.452, 19.447, 12.376, 12.346, 12.049, 14.554, 12.994, 12.341, 24.771, 12.433, 14.048, 13.157, 11.933, 23.812, 12.971, 13.005, 12.281, 12.239, 22.092, 18.322, 12.276, 12.477, 12.077, 12.506, 12.352, 12.592, 12.116, 12.31, 12.053, 12.181, 12.308, 12.418, 12.841, 12.089, 12.251, 12.434, 12.517, 12.292, 11.901, 13.654, 12.313, 12.349, 12.275, 12.268, 12.157, 12.403, 12.465, 12.216, 12.006, 12.468, 12.29, 13.203, 12.037, 11.991, 12.484, 12.411, 12.237, 11.869, 12.455, 12.136, 12.299, 11.896, 12.248, 12.215, 13.068, 12.119, 12.21, 12.056, 12.302, 12.371, 12.289, 12.131, 12.213, 12.558, 12.172, 12.695, 17.488, 19.679, 11.945, 12.574, 12.968, 11.884, 12.149, 12.145, 12.077, 11.798, 12.478, 12.09, 12.515, 12.328, 12.368, 12.451, 12.198, 12.533, 12.174, 12.106, 12.292, 12.513, 12.645, 11.951, 15.926, 12.461, 12.262, 12.629, 12.256, 12.293, 12.251, 12.153, 12.454, 12.16, 12.314, 12.274, 12.489, 12.804, 11.911, 12.726, 12.378, 12.176, 12.735, 12.048, 12.631, 12.16, 12.341, 12.366, 12.423, 12.371, 12.118, 12.449, 12.22, 13.011, 12.042, 12.604, 12.258, 12.216, 12.166, 12.057, 12.424, 12.042, 12.097, 12.187, 12.084, 12.504, 12.235, 12.563, 12.147, 12.355, 12.28, 12.31, 12.192, 12.213, 12.248, 12.112, 11.91, 12.287, 12.312, 12.293, 15.17, 22.14, 13.316, 12.191, 11.969, 12.436, 12.181, 12.485, 12.145, 12.284, 12.136, 12.034, 12.469, 12.324, 12.257, 12.294, 12.452, 12.228, 12.374, 12.324, 12.471, 12.815, 12.62, 12.346, 12.463, 12.738, 12.212, 12.272, 12.369, 12.004, 12.468, 12.076, 12.222, 12.353, 12.0, 12.191, 12.313, 12.606, 12.678, 12.449, 12.189, 12.334, 12.115, 12.432, 12.481, 12.286, 12.02, 12.257, 12.252, 12.17, 12.408, 12.15, 13.571, 12.867, 12.21, 12.843, 12.161, 12.226, 12.121, 12.36, 12.408, 12.401, 12.448, 11.876, 12.58, 12.155, 12.227, 12.316, 12.628, 11.868, 12.93, 12.236, 12.763, 12.315, 12.235, 12.16, 12.55, 12.134, 12.146, 12.146, 12.72, 12.686, 12.325, 14.703, 13.002, 12.519, 12.035, 12.3, 14.509, 12.924, 14.014, 19.632, 13.121, 14.322, 12.879, 12.749, 23.041, 13.048, 12.539, 12.358, 12.575, 26.405, 13.988, 12.442, 12.482, 12.06, 12.15, 12.338, 12.473, 12.259, 12.334, 12.05, 12.249, 12.214, 12.549, 12.382, 12.347, 12.281, 12.223, 12.768, 12.362, 12.193, 12.373, 12.35, 12.291, 12.104, 12.488, 12.389, 12.171, 12.135, 12.074, 12.253, 12.298, 12.29, 12.132, 12.086, 12.534, 12.33, 12.338, 12.353, 11.957, 12.366, 12.425, 12.258, 12.485, 12.002, 12.741, 12.432, 12.076, 12.641, 12.365, 12.155, 12.306, 12.374, 12.005, 12.191, 12.456, 12.078, 12.545, 24.55, 15.451, 12.717, 12.254, 12.377, 12.311, 12.703, 12.495, 12.048, 12.211, 12.367, 12.662, 12.353, 12.164, 12.101, 12.328, 12.236, 12.269, 12.434, 12.246, 12.547, 12.285, 12.39, 12.354, 13.043, 12.089, 11.935, 11.875, 12.348, 12.395, 12.064, 12.409, 12.0, 12.357, 12.088, 12.455, 11.928, 12.245, 12.134, 12.446, 12.256, 12.496, 12.089, 12.167, 12.014, 12.272, 12.524, 12.24, 12.194, 12.141, 11.966, 12.22, 12.389, 13.014, 12.797, 12.17, 12.327, 12.124, 12.104, 17.18, 12.374, 12.006, 12.326, 12.29, 12.18, 12.356, 12.586, 12.295, 12.008, 12.676, 12.338, 12.026, 12.402, 12.24, 11.989, 12.417, 12.309, 12.303, 12.225, 12.075, 16.021, 24.577, 12.263, 12.649, 12.367, 12.415, 12.678, 12.032, 12.321, 12.455, 12.064, 12.702, 12.515, 12.116, 12.482, 12.532, 12.26, 11.946, 12.295, 12.138, 12.59, 12.444, 12.063, 12.169, 16.404, 12.085, 12.053, 12.583, 12.061, 12.355, 11.816, 12.391, 11.974, 12.263, 11.99, 11.732, 12.314, 12.023, 12.385, 12.069, 12.337, 12.424, 12.794, 12.354, 12.255, 11.989, 12.09, 12.115, 12.781, 11.896, 12.313, 12.173, 12.163, 12.211, 12.285, 12.412, 12.198, 12.352, 11.96, 12.632, 12.254, 12.498, 12.436, 12.286, 12.463, 12.227, 12.545, 12.295, 12.434, 12.103, 13.384, 12.338, 11.725, 11.952, 12.705, 12.064, 12.546, 12.198, 12.212, 12.444, 12.767, 12.438, 12.422, 20.547, 12.03, 12.523, 12.51, 14.695, 12.997, 12.286, 24.095, 13.545, 14.299, 13.08, 12.186, 22.152, 13.193, 12.696, 12.161, 12.355, 30.388, 17.267, 12.156, 12.071, 12.307, 12.105, 12.567, 12.32, 12.214, 12.377, 12.379, 12.165, 12.079, 12.209, 12.295, 12.248, 11.929, 11.918, 12.862, 12.226, 12.599, 12.072, 12.372, 12.01, 12.206, 12.225, 12.133, 12.2, 12.215, 12.542, 12.168, 12.621, 12.127, 12.205, 12.727, 12.065, 12.253, 12.469, 12.215, 12.271, 12.07, 12.673, 12.542, 12.463, 12.17, 12.366, 12.265, 12.979, 12.334, 12.316, 11.937, 12.057, 12.334, 12.257, 12.063, 12.596, 12.437, 14.26, 26.93, 12.05, 11.991, 12.241, 12.533, 12.455, 12.403, 12.217, 12.371, 11.957, 12.383, 12.407, 12.195, 12.152, 12.346, 12.186, 12.348, 12.453, 12.581, 12.329, 12.333, 12.248, 12.254, 12.364, 12.638, 12.221, 12.194, 12.428, 12.141, 12.271, 12.287, 12.079, 12.028, 12.038, 12.043, 12.173, 12.267, 12.885, 12.425, 11.999, 12.226, 11.884, 12.139, 12.43, 12.205, 12.474, 12.414, 12.281, 12.373, 12.358, 12.205, 11.651, 12.323, 12.012, 12.321, 12.022, 12.1, 11.972, 12.545, 12.064, 12.4, 12.19, 12.335, 11.952, 12.076, 12.389, 12.298, 11.707, 12.456, 12.085, 13.534, 12.334, 11.875, 12.559, 12.008, 12.3, 12.521, 12.097, 12.393, 11.958, 14.828, 25.223, 12.265, 12.341, 12.07, 12.456, 12.161, 12.162, 12.034, 12.468, 12.053, 12.596, 12.067, 12.321, 12.095, 12.208, 12.276, 11.907, 12.429, 12.6, 12.381, 12.909, 12.301, 12.536, 12.907, 12.229, 12.595, 12.062, 11.997, 12.343, 12.156, 12.24, 12.204, 12.431, 12.507, 12.165, 12.206, 12.294, 12.119, 12.338, 12.286, 12.396, 12.277, 12.155, 12.326, 12.226, 12.36, 12.166, 12.357, 12.373, 12.328, 12.861, 12.244, 12.239, 12.483, 12.314, 12.28, 12.034, 12.21, 12.272, 12.084, 11.927, 12.34, 12.378, 12.24, 12.442, 12.076, 12.232, 12.293, 12.446, 12.911, 12.144, 12.361, 12.031, 12.608, 12.31, 12.229, 12.371, 12.446, 12.215, 12.186, 12.001, 16.744, 19.558, 18.119, 11.958, 12.098, 13.228, 15.061, 13.253, 13.096, 22.408, 12.477, 14.271, 13.135, 12.207, 23.853, 13.244, 13.515, 12.377, 12.256, 27.122],
  "Optimizer iterations": 991,
  "Optimizer params": [0.10028182259063509, 0.5716611473752028, 0.9452862928486861, 0.9351826782574161, 0.9482785659128001, 0.05280929139824155, 0.03195977129205944, 0.0719587723857836, 0.9001862447294596, 0.11988143016112754, 0.18710271462879166, 0.9714301913707649, 0.9478949584260978, 0.988125275244029, 0.9972821775277428, 0.39790726329569015, 0.9847027736565398, 0.4451377093004555, 0.6719339825489946, 0.007835127710689812, 0.023316868556907757, 0.4634081297214136, 0.5741551547992195, 0.0855287816148244, 0.8993494425786107, 0.11439000749833136, 0.9066755374227887, 0.9899310838896614, 0.001999477928838689, 0.839754095520323, 0.8355731896575626, 0.4861248723444173, 0.0007719683439219497, 0.9974972492429655, 0.4903481931831387, 0.008781400506122607, 0.5308926228417653, 0.5151605284569718, 0.043280560394038464, 0.7687114540999531],
  "P": 0,
  "Problem": "IC",
  "QJob durations [ms]": [0.5642000178340822, 0.6024000176694244, 0.6082499749027193, 0.5667999794241041, 0.5698500026483089, 0.5582500016316772, 0.5923999997321516, 0.5710000114049762, 0.5576499970629811, 0.5673500127159059, 0.5706000083591789, 0.5760499916505069, 0.5679000169038773, 0.5660000024363399, 0.5533000221475959, 0.5777500045951456, 0.6881500012241304, 0.6237000052351505, 0.5547000037040561, 0.5591000081039965, 0.5565999890677631, 0.5579499993473291, 0.5569500208366662, 0.663200014969334, 0.6127500091679394, 0.5653999978676438, 0.5670500104315579, 0.5664000054821372, 0.672800000756979, 0.6099999882280827, 0.5680499889422208, 0.5634999834001064, 0.6031000229995698, 0.5830999871250242, 0.5645499913953245, 0.5574499955400825, 0.5843499966431409, 0.5889000021852553, 0.5727499956265092, 0.5659000016748905, 0.5782500084023923, 0.5686499935109168, 0.5628500075545162, 0.5645499913953245, 0.5597500130534172, 0.5597499839495867, 0.5678000161424279, 0.5564499879255891, 0.5534499941859394, 0.5780000064987689, 0.5747500108554959, 0.5569999921135604, 0.5694999999832362, 0.5673500127159059, 0.5647000216413289, 0.5654499982483685, 0.5621000018436462, 0.5714499857276678, 0.5629500083159655, 0.5865000130143017, 0.5688999954145402, 0.5640999879688025, 0.5619000003207475, 0.5533499934244901, 0.5854500050190836, 0.5597499839495867, 0.5636499845422804, 0.5632999818772078, 0.6707499851472676, 0.5672499828506261, 0.5661000031977892, 0.5544500018004328, 0.568700022995472, 0.575350015424192, 0.5705500079784542, 0.5673000123351812, 0.5868999869562685, 0.5606999911833555, 0.5649999948218465, 0.5736000020988286, 0.5844499974045902, 0.5670000100508332, 0.5596000119112432, 0.5641499883495271, 0.5673000123351812, 0.5713000136893243, 0.5559999844990671, 0.5569499917328358, 0.5646999925374985, 0.5628999788314104, 0.5627499776892364, 0.5560500139836222, 0.5595500115305185, 0.7235500088427216, 0.6055500125512481, 0.5844499974045902, 0.5586500046774745, 0.5551499780267477, 0.5582000012509525, 0.5737000028602779, 0.5605999904219061, 0.5674500134773552, 0.594750017626211, 0.5645500204991549, 0.5686499935109168, 0.5582000012509525, 0.5654499982483685, 0.5677999870385975, 0.5608999927062541, 0.5649999948218465, 0.5666500073857605, 0.5628000071737915, 0.5623500037472695, 0.5710999830625951, 0.5673000123351812, 0.5555000097956508, 0.5574999959208071, 0.6195500027388334, 0.5663000047206879, 0.5642500182148069, 0.5673999839928001, 0.5630500090774149, 0.5767499969806522, 0.5564999883063138, 0.558949977857992, 0.5565999890677631, 0.5565999890677631, 0.5596500122919679, 0.5628500075545162, 0.5745000089518726, 0.5566499894484878, 0.5799499922432005, 0.5581500008702278, 0.5703000060748309, 0.5680999893229455, 0.5685999931301922, 0.5654999986290932, 0.5629000079352409, 0.5652999971061945, 0.5676499858964235, 0.5588499770965427, 0.5697500018868595, 0.5608000210486352, 0.5564999883063138, 0.5638499860651791, 0.5521000130102038, 0.5790499853901565, 0.5848500004503876, 0.5634000117424875, 0.5569999921135604, 0.5769500276073813, 0.5528999899979681, 0.5711500125471503, 0.5611499946098775, 0.5600500153377652, 0.5678999878000468, 0.5743500078096986, 0.5723499925807118, 0.5682000191882253, 0.5655999993905425, 0.5721999914385378, 0.5673500127159059, 0.5728999967686832, 0.5598999850917608, 0.5686999938916415, 0.5659500020556152, 0.5754500161856413, 0.5697000015061349, 0.5641999887302518, 0.5593000096268952, 0.5624500045087188, 0.5678499874193221, 0.5632499814964831, 0.5720000190194696, 0.7371499959845096, 0.6157500029075891, 0.5669000092893839, 0.5589500069618225, 0.6916499987710267, 0.5897500086575747, 0.6241000082809478, 0.5579999997280538, 0.5661500035785139, 0.5523499858099967, 0.5632499814964831, 0.5573999951593578, 0.5653499974869192, 0.5606499908026308, 0.5741500062867999, 0.5640500166919082, 0.5607499915640801, 0.5711000121664256, 0.5640000163111836, 0.5597500130534172, 0.5549000052269548, 0.5870499880984426, 0.5659499729517847, 0.5661500035785139, 0.5814500036649406, 0.5732499994337559, 0.5868499865755439, 0.5697500018868595, 0.5576499970629811, 0.5607000202871859, 0.5579999997280538, 0.5662000039592385, 0.5686999938916415, 0.5692500271834433, 0.5625500052701682, 0.5597499839495867, 0.5762999935541302, 0.5933500069659203, 0.5615999980363995, 0.5694999999832362, 0.5584000027738512, 0.5599000141955912, 0.5698999739252031, 0.5681499897036701, 0.5657000001519918, 0.5779500061180443, 0.5700000037904829, 0.5677000153809786, 0.5663500051014125, 0.5602999881375581, 0.5604999896604568, 0.5623500037472695, 0.5684999923687428, 0.5641999887302518, 0.5669500096701086, 0.5664000054821372, 0.5750499840360135, 0.5496999947354198, 0.5616999987978488, 0.5604499892797321, 0.5721999914385378, 0.5551000067498535, 0.5599999858532101, 0.5605500191450119, 0.5596499831881374, 0.5777000042144209, 0.568700022995472, 0.5664500058628619, 0.5597999843303114, 0.5635000125039369, 0.5625500052701682, 0.5725999944843352, 0.5595999828074127, 0.5640000163111836, 0.5758999905083328, 0.5619000003207475, 0.5595000111497939, 0.5651999963447452, 0.5681000184267759, 0.5662000039592385, 0.6356999801937491, 0.5650499952025712, 0.5705000075977296, 0.5783500091638416, 0.5613999965135008, 0.5639999872073531, 0.5611999949906021, 0.6752499903086573, 0.5966000026091933, 0.5630000086966902, 0.5651999963447452, 0.5662500043399632, 0.6510499806609005, 0.6127999804448336, 0.5554000090342015, 0.5617499991785735, 0.5972999788355082, 0.6095500139053911, 0.5556499818339944, 0.5631000094581395, 0.5650500243064016, 0.6843000010121614, 0.5658000009134412, 0.5817500059492886, 0.5578999989666045, 0.5690999969374388, 0.5651000246871263, 0.5720500194001943, 0.5597999843303114, 0.5681499897036701, 0.5604000180028379, 0.5597999843303114, 0.5639000155497342, 0.5720499902963638, 0.59710000641644, 0.5537999968510121, 0.5601999873761088, 0.5723000213038176, 0.5680000176653266, 0.5790499853901565, 0.5679500172846019, 0.6304999988060445, 0.5607500206679106, 0.5599000141955912, 0.5669999809470028, 0.5691999976988882, 0.5675500142388046, 0.5625500052701682, 0.5601000157184899, 0.5677499866578728, 0.5729999975301325, 0.5653999978676438, 0.5664500058628619, 0.6080000021029264, 0.55849997443147, 0.5690999969374388, 0.571800017496571, 0.5654499982483685, 0.5560500139836222, 0.5602499877568334, 0.5636500136461109, 0.5700500041712075, 0.5598000134341419, 0.5605499900411814, 0.5649499944411218, 0.583350018132478, 0.6078000005800277, 0.5621000018436462, 0.5557499825954437, 0.5565499886870384, 0.5603999888990074, 0.5774000019300729, 0.5601500160992146, 0.5659000016748905, 0.5658500012941658, 0.5651499959640205, 0.5612999957520515, 0.5830499867442995, 0.589250004850328, 0.7022999925538898, 0.5681999900843948, 0.5733500001952052, 0.5932499771006405, 0.5576499970629811, 0.5612000240944326, 0.5690999969374388, 0.5636000132653862, 0.5604499892797321, 0.5578499985858798, 0.5645499913953245, 0.5653999978676438, 0.5744499794673175, 0.5680999893229455, 0.5619500007014722, 0.5649499944411218, 0.5622000026050955, 0.5595999828074127, 0.5569999921135604, 0.5639499868266284, 0.5815500044263899, 0.5967000033706427, 0.5632999818772078, 0.5750500131398439, 0.5707499803975224, 0.5641500174533576, 0.5693499988410622, 0.5555000097956508, 0.5622000026050955, 0.5681499897036701, 0.5658000009134412, 0.5822999810334295, 0.5580500001087785, 0.5740500055253506, 0.5752499855589122, 0.5640500166919082, 0.5863499827682972, 0.5594499816652387, 0.5753999867010862, 0.5613999965135008, 0.5595500115305185, 0.5776000034529716, 0.5589500069618225, 0.5803500243928283, 0.5551000067498535, 0.5763000226579607, 0.5805999971926212, 0.5764499946963042, 0.5640999879688025, 0.5705499788746238, 0.5697499727830291, 0.5624999757856131, 0.6016500119585544, 0.5570500215981156, 0.5710000114049762, 0.5630000086966902, 0.5744499794673175, 0.5555500101763755, 0.5530999915208668, 0.5633000109810382, 0.5612999957520515, 0.5491499905474484, 0.5576499970629811, 0.5767499969806522, 0.5751500139012933, 0.5763499939348549, 0.5641000170726329, 0.5619000003207475, 0.5608499923255295, 0.5691499973181635, 0.5600999866146594, 0.5581500008702278, 0.5716000159736723, 0.5616999987978488, 0.5560500139836222, 0.5566500185523182, 0.5559000128414482, 0.5609499930869788, 0.5648999940603971, 0.7035500020720065, 0.5982999864500016, 0.5958499968983233, 0.5700000037904829, 0.5561000143643469, 0.5674500134773552, 0.5538999976124614, 0.5736500024795532, 0.5778000049758703, 0.5615999980363995, 0.5638500151690096, 0.5669000092893839, 0.5749000119976699, 0.5671000108122826, 0.5612499953713268, 0.5623999750241637, 0.5638999864459038, 0.5553000082727522, 0.5669999809470028, 0.5760999920312315, 0.5684000207111239, 0.5832999886479229, 0.5803499952889979, 0.5670000100508332, 0.5762999935541302, 0.5765499954577535, 0.562349974643439, 0.5735500017181039, 0.5718500178772956, 0.5682500195689499, 0.5633500113617629, 0.5552500078920275, 0.5583000020124018, 0.5589000065810978, 0.5733500001952052, 0.5630500090774149, 0.5666499782819301, 0.5735499726142734, 0.5956999957561493, 0.5831500166095793, 0.5614499968942255, 0.5664500058628619, 0.5697000015061349, 0.5719499895349145, 0.5742500070482492, 0.5649499944411218, 0.5649499944411218, 0.5617999995592982, 0.5632000102195889, 0.5630000086966902, 0.5686999938916415, 0.5605499900411814, 0.6322500121314079, 0.5904499848838896, 0.5605999904219061, 0.5977500113658607, 0.5651499959640205, 0.5606500199064612, 0.5759499908890575, 0.5652499967254698, 0.5654000269714743, 0.5642000178340822, 0.5704000068362802, 0.5586000042967498, 0.5798999918624759, 0.5720999906770885, 0.5603500176221132, 0.5736000020988286, 0.5711000121664256, 0.5585500039160252, 0.6027499912306666, 0.5632999818772078, 0.5706499796360731, 0.5722999921999872, 0.5572999943979084, 0.5609999934677035, 0.5688999954145402, 0.569300027564168, 0.5662999756168574, 0.5787499831058085, 0.5782500084023923, 0.5696999724023044, 0.5677499866578728, 0.693049980327487, 0.607149995630607, 0.5631500098388642, 0.5586000042967498, 0.5596000119112432, 0.5613499961327761, 0.5884500278625637, 0.6450999935623258, 0.523299997439608, 0.6092499825172126, 0.6531999970320612, 0.6030999938957393, 0.5740500055253506, 0.5678500165231526, 0.603149994276464, 0.5888500018045306, 0.5612999957520515, 0.5689999961759895, 0.7454500009771436, 0.6339499959722161, 0.5849000008311123, 0.5811500013805926, 0.5630500090774149, 0.5631000094581395, 0.5669999809470028, 0.5722499918192625, 0.5661500035785139, 0.5583000020124018, 0.5599999858532101, 0.5667499790433794, 0.5659500020556152, 0.5767999973613769, 0.5692999984603375, 0.5612999957520515, 0.5751000135205686, 0.5545500025618821, 0.5727500247303396, 0.5657000001519918, 0.5712999845854938, 0.5714999861083925, 0.5709999823011458, 0.5553500086534768, 0.5609499930869788, 0.5666000070050359, 0.5617999995592982, 0.5560000136028975, 0.5646000208798796, 0.5581500008702278, 0.5652999971061945, 0.5709500110242516, 0.5565000174101442, 0.5651999963447452, 0.5565499886870384, 0.5652999971061945, 0.5702000053133816, 0.5595000111497939, 0.5579999997280538, 0.5609999934677035, 0.5709999823011458, 0.5639499868266284, 0.5654499982483685, 0.5603500176221132, 0.5601000157184899, 0.5796999903395772, 0.5673999839928001, 0.5636999849230051, 0.5804499960504472, 0.5775000026915222, 0.5712499842047691, 0.5668999801855534, 0.5866500141564757, 0.5649999948218465, 0.5587500054389238, 0.5699500034097582, 0.5670000100508332, 0.578750012209639, 0.5552500078920275, 0.6685499974992126, 0.5847499996889383, 0.5728999967686832, 0.5918999959249049, 0.5642999894917011, 0.5699000030290335, 0.5734500009566545, 0.5659500020556152, 0.5769999988842756, 0.5653999978676438, 0.5905999860260636, 0.5634499830193818, 0.5619000003207475, 0.5611999949906021, 0.5629000079352409, 0.5621500022243708, 0.5667000077664852, 0.5635500128846616, 0.5564999883063138, 0.5810500006191432, 0.5838999932166189, 0.5654999986290932, 0.5591500084847212, 0.5743500078096986, 0.5523500149138272, 0.5583000020124018, 0.5573999951593578, 0.575350015424192, 0.5634500121232122, 0.5664000054821372, 0.5627499776892364, 0.5705999792553484, 0.5622500029858202, 0.5680000176653266, 0.5660000024363399, 0.5548500048462301, 0.5635500128846616, 0.5633500113617629, 0.5711000121664256, 0.5735000013373792, 0.5724999937228858, 0.5688999954145402, 0.5592000088654459, 0.5638500151690096, 0.5625500052701682, 0.5685499927494675, 0.5767999973613769, 0.5583999736700207, 0.55184998200275, 0.5626000056508929, 0.5596500122919679, 0.5732499994337559, 0.6023500172886997, 0.5778000049758703, 0.5684999923687428, 0.5630500090774149, 0.5523000145331025, 0.5613999965135008, 0.5518000107258558, 0.5576999974437058, 0.5614999972749501, 0.5640499875880778, 0.5559500132221729, 0.5573999951593578, 0.5660000024363399, 0.575950019992888, 0.5676999862771481, 0.5555500101763755, 0.5692499980796129, 0.5735500017181039, 0.5640499875880778, 0.5753999867010862, 0.5535999953281134, 0.5666999786626548, 0.5651000246871263, 0.5718500178772956, 0.5579499993473291, 0.5752999859396368, 0.5612999957520515, 0.7401499897241592, 0.59710000641644, 0.5710500117857009, 0.5661000031977892, 0.5584000027738512, 0.5558500124607235, 0.5696500011254102, 0.5601500160992146, 0.5679000169038773, 0.5602000164799392, 0.5554499803110957, 0.5776500038336962, 0.5726499948650599, 0.5640999879688025, 0.5639500159304589, 0.5825500120408833, 0.5709999823011458, 0.5568499909713864, 0.5644999910145998, 0.5622000026050955, 0.5603499885182828, 0.5722499918192625, 0.5572500231210142, 0.5752500146627426, 0.5596500122919679, 0.5681999900843948, 0.5619999719783664, 0.5684999923687428, 0.5624500045087188, 0.5614499968942255, 0.5552999791689217, 0.5666500073857605, 0.5606999911833555, 0.5574999959208071, 0.5611499946098775, 0.5590999790001661, 0.5643499898724258, 0.5603999888990074, 0.5694499996025115, 0.5585499748121947, 0.5634000117424875, 0.5726999952457845, 0.5706500087399036, 0.5652499967254698, 0.5596000119112432, 0.5630500090774149, 0.5664000054821372, 0.5560999852605164, 0.5759000196121633, 0.5675500142388046, 0.5761500215157866, 0.5677999870385975, 0.5660500028170645, 0.5570499924942851, 0.5626500060316175, 0.5626000056508929, 0.5735500017181039, 0.5601499869953841, 0.5510500050149858, 0.5677999870385975, 0.5677500157617033, 0.5646499921567738, 0.5822000093758106, 0.5737500032410026, 0.5721499910578132, 0.5722499918192625, 0.5667000077664852, 0.5772500007878989, 0.5698000022675842, 0.5584500031545758, 0.6068999937269837, 0.5593999812845141, 0.5506500019691885, 0.5594500107690692, 0.5944499862380326, 0.5661499744746834, 0.5769499985035509, 0.5706000083591789, 0.5689499957952648, 0.5805499968118966, 0.5965500022284687, 0.5678000161424279, 0.5593500100076199, 0.5644499906338751, 0.5591999797616154, 0.5704499781131744, 0.5672499828506261, 0.6885000038892031, 0.6129500106908381, 0.5748500116169453, 0.5366999830584973, 0.5668999801855534, 0.6821499846410006, 0.6138999888207763, 0.5550000059884042, 0.5637000140268356, 0.6111000257078558, 0.5887000006623566, 0.5577499978244305, 0.5709999823011458, 0.5629000079352409, 0.5817999772261828, 0.5556500109378248, 0.5608499923255295, 0.5615999980363995, 0.5737500032410026, 0.5737500032410026, 0.5766999965999275, 0.5611999949906021, 0.5689499957952648, 0.5652999971061945, 0.5655499990098178, 0.5625000048894435, 0.5604499892797321, 0.5750999844167382, 0.5627999780699611, 0.5534499941859394, 0.5549500056076795, 0.588650000281632, 0.5505000008270144, 0.5741000059060752, 0.5766499962192029, 0.5719499895349145, 0.5624999757856131, 0.5603999888990074, 0.5758999905083328, 0.5698499735444784, 0.5641500174533576, 0.5576999974437058, 0.5990000208839774, 0.5594500107690692, 0.5649999948218465, 0.5773000011686236, 0.5652499967254698, 0.5737500032410026, 0.5566999898292124, 0.5638499860651791, 0.5646499921567738, 0.5618499999400228, 0.5642499891109765, 0.5681499897036701, 0.5741500062867999, 0.5700500041712075, 0.5728499963879585, 0.5586000042967498, 0.5751499847974628, 0.5711999838240445, 0.6144000217318535, 0.5618499999400228, 0.5667500081472099, 0.5614499968942255, 0.5610999942291528, 0.5636000132653862, 0.5613499961327761, 0.5690499965567142, 0.5743500078096986, 0.5726499948650599, 0.6816000095568597, 0.6140000186860561, 0.5529999907594174, 0.5641499883495271, 0.5590500077232718, 0.5791999865323305, 0.5685499927494675, 0.5705000075977296, 0.5613999965135008, 0.5690499965567142, 0.5576499970629811, 0.5686999938916415, 0.5609499930869788, 0.5728499963879585, 0.5547000037040561, 0.5658500012941658, 0.5624000041279942, 0.5738500040024519, 0.5639999872073531, 0.5780500068794936, 0.5759999912697822, 0.5667000077664852, 0.5706499796360731, 0.572250020923093, 0.5651499959640205, 0.576250022277236, 0.5715500155929476, 0.5686999938916415, 0.5605499900411814, 0.5667000077664852, 0.5647000216413289, 0.5697500018868595, 0.5563000158872455, 0.5596000119112432, 0.5631499807350338, 0.5572499940171838, 0.5670000100508332, 0.5645499913953245, 0.5919499963056296, 0.5703000060748309, 0.5640999879688025, 0.5696000007446855, 0.5565000174101442, 0.5606500199064612, 0.5673500127159059, 0.5620000010821968, 0.5721499910578132, 0.5612999957520515, 0.5622500029858202, 0.5763499939348549, 0.5696500011254102, 0.5630999803543091, 0.5543000006582588, 0.5593500100076199, 0.5567499902099371, 0.5637000140268356, 0.5587500054389238, 0.5637999856844544, 0.5581500008702278, 0.5707000091206282, 0.5600000149570405, 0.5597999843303114, 0.5742000066675246, 0.5636500136461109, 0.5539999983739108, 0.5603500176221132, 0.5662500043399632, 0.5779000057373196, 0.5521000130102038, 0.5606500199064612, 0.5570499924942851, 0.6387500034179538, 0.5575999966822565, 0.5649999948218465, 0.5791999865323305, 0.5583500023931265, 0.5584500031545758, 0.5702500056941062, 0.5614999972749501, 0.5678499874193221, 0.5596500122919679, 0.6995000003371388, 0.6054000114090741, 0.5659500020556152, 0.5573500238824636, 0.5660500028170645, 0.5762499931734055, 0.5686499935109168, 0.5594000103883445, 0.572850025491789, 0.5615999980363995, 0.5654499982483685, 0.5655499990098178, 0.5717999883927405, 0.5697000015061349, 0.5535999953281134, 0.5603500176221132, 0.5592499801423401, 0.5559500132221729, 0.5739000043831766, 0.5743999790865928, 0.5737000028602779, 0.598150014411658, 0.5616999987978488, 0.5664500058628619, 0.5967499746475369, 0.5792499869130552, 0.5627500067930669, 0.5595499824266881, 0.5562499864026904, 0.5654999986290932, 0.5554500094149262, 0.5688999954145402, 0.5739000043831766, 0.5658000009134412, 0.5770999996457249, 0.5598999850917608, 0.5580500001087785, 0.5704499781131744, 0.5586000042967498, 0.5669500096701086, 0.5694499996025115, 0.5759499908890575, 0.5702500056941062, 0.5612999957520515, 0.5721500201616436, 0.56900002527982, 0.5678999878000468, 0.5604999896604568, 0.5668500089086592, 0.5636000132653862, 0.5601000157184899, 0.6013500096742064, 0.5607000202871859, 0.5629000079352409, 0.5812500021420419, 0.5634499830193818, 0.5701000045519322, 0.5615999980363995, 0.5756999889854342, 0.5771500000264496, 0.5561500147450715, 0.5640999879688025, 0.5714500148314983, 0.5638500151690096, 0.5786499823443592, 0.5649500235449523, 0.5631000094581395, 0.5662500043399632, 0.5735000013373792, 0.5634999834001064, 0.5912499909754843, 0.5590499786194414, 0.5644500197377056, 0.5570499924942851, 0.5637499853037298, 0.5585000035353005, 0.5647000216413289, 0.5717000167351216, 0.5691499973181635, 0.5726499948650599, 0.5615500267595053, 0.5556499818339944, 0.5664500058628619, 0.7194000063464046, 0.585700006922707, 0.5606499908026308, 0.5615999980363995, 0.5712500133085996, 0.6981499900575727, 0.6142999918665737, 0.6054500117897987, 0.5643999902531505, 0.5686000222340226, 0.665850006043911, 0.6070999952498823, 0.5549999768845737, 0.5956999957561493, 0.6016500119585544, 0.6345500005409122, 0.5680000176653266, 0.5643000185955316, 0.606999994488433],
  "QPU": "7000000",
  "Qubits": 10,
  "Queue durations [ms]": [0.0, 0.0, 0.0, 0.0, 0.0, 0.0, 0.0, 0.0, 0.0, 0.0, 0.0, 0.0, 0.0, 0.0, 0.0, 0.0, 0.0, 0.0, 0.0, 0.0, 0.0, 0.0, 0.0, 0.0, 0.0, 0.0, 0.0, 0.0, 0.0, 0.0, 0.0, 0.0, 0.0, 0.0, 0.0, 0.0, 0.0, 0.0, 0.0, 0.0, 0.0, 0.0, 0.0, 0.0, 0.0, 0.0, 0.0, 0.0, 0.0, 0.0, 0.0, 0.0, 0.0, 0.0, 0.0, 0.0, 0.0, 0.0, 0.0, 0.0, 0.0, 0.0, 0.0, 0.0, 0.0, 0.0, 0.0, 0.0, 0.0, 0.0, 0.0, 0.0, 0.0, 0.0, 0.0, 0.0, 0.0, 0.0, 0.0, 0.0, 0.0, 0.0, 0.0, 0.0, 0.0, 0.0, 0.0, 0.0, 0.0, 0.0, 0.0, 0.0, 0.0, 0.0, 0.0, 0.0, 0.0, 0.0, 0.0, 0.0, 0.0, 0.0, 0.0, 0.0, 0.0, 0.0, 0.0, 0.0, 0.0, 0.0, 0.0, 0.0, 0.0, 0.0, 0.0, 0.0, 0.0, 0.0, 0.0, 0.0, 0.0, 0.0, 0.0, 0.0, 0.0, 0.0, 0.0, 0.0, 0.0, 0.0, 0.0, 0.0, 0.0, 0.0, 0.0, 0.0, 0.0, 0.0, 0.0, 0.0, 0.0, 0.0, 0.0, 0.0, 0.0, 0.0, 0.0, 0.0, 0.0, 0.0, 0.0, 0.0, 0.0, 0.0, 0.0, 0.0, 0.0, 0.0, 0.0, 0.0, 0.0, 0.0, 0.0, 0.0, 0.0, 0.0, 0.0, 0.0, 0.0, 0.0, 0.0, 0.0, 0.0, 0.0, 0.0, 0.0, 0.0, 0.0, 0.0, 0.0, 0.0, 0.0, 0.0, 0.0, 0.0, 0.0, 0.0, 0.0, 0.0, 0.0, 0.0, 0.0, 0.0, 0.0, 0.0, 0.0, 0.0, 0.0, 0.0, 0.0, 0.0, 0.0, 0.0, 0.0, 0.0, 0.0, 0.0, 0.0, 0.0, 0.0, 0.0, 0.0, 0.0, 0.0, 0.0, 0.0, 0.0, 0.0, 0.0, 0.0, 0.0, 0.0, 0.0, 0.0, 0.0, 0.0, 0.0, 0.0, 0.0, 0.0, 0.0, 0.0, 0.0, 0.0, 0.0, 0.0, 0.0, 0.0, 0.0, 0.0, 0.0, 0.0, 0.0, 0.0, 0.0, 0.0, 0.0, 0.0, 0.0, 0.0, 0.0, 0.0, 0.0, 0.0, 0.0, 0.0, 0.0, 0.0, 0.0, 0.0, 0.0, 0.0, 0.0, 0.0, 0.0, 0.0, 0.0, 0.0, 0.0, 0.0, 0.0, 0.0, 0.0, 0.0, 0.0, 0.0, 0.0, 0.0, 0.0, 0.0, 0.0, 0.0, 0.0, 0.0, 0.0, 0.0, 0.0, 0.0, 0.0, 0.0, 0.0, 0.0, 0.0, 0.0, 0.0, 0.0, 0.0, 0.0, 0.0, 0.0, 0.0, 0.0, 0.0, 0.0, 0.0, 0.0, 0.0, 0.0, 0.0, 0.0, 0.0, 0.0, 0.0, 0.0, 0.0, 0.0, 0.0, 0.0, 0.0, 0.0, 0.0, 0.0, 0.0, 0.0, 0.0, 0.0, 0.0, 0.0, 0.0, 0.0, 0.0, 0.0, 0.0, 0.0, 0.0, 0.0, 0.0, 0.0, 0.0, 0.0, 0.0, 0.0, 0.0, 0.0, 0.0, 0.0, 0.0, 0.0, 0.0, 0.0, 0.0, 0.0, 0.0, 0.0, 0.0, 0.0, 0.0, 0.0, 0.0, 0.0, 0.0, 0.0, 0.0, 0.0, 0.0, 0.0, 0.0, 0.0, 0.0, 0.0, 0.0, 0.0, 0.0, 0.0, 0.0, 0.0, 0.0, 0.0, 0.0, 0.0, 0.0, 0.0, 0.0, 0.0, 0.0, 0.0, 0.0, 0.0, 0.0, 0.0, 0.0, 0.0, 0.0, 0.0, 0.0, 0.0, 0.0, 0.0, 0.0, 0.0, 0.0, 0.0, 0.0, 0.0, 0.0, 0.0, 0.0, 0.0, 0.0, 0.0, 0.0, 0.0, 0.0, 0.0, 0.0, 0.0, 0.0, 0.0, 0.0, 0.0, 0.0, 0.0, 0.0, 0.0, 0.0, 0.0, 0.0, 0.0, 0.0, 0.0, 0.0, 0.0, 0.0, 0.0, 0.0, 0.0, 0.0, 0.0, 0.0, 0.0, 0.0, 0.0, 0.0, 0.0, 0.0, 0.0, 0.0, 0.0, 0.0, 0.0, 0.0, 0.0, 0.0, 0.0, 0.0, 0.0, 0.0, 0.0, 0.0, 0.0, 0.0, 0.0, 0.0, 0.0, 0.0, 0.0, 0.0, 0.0, 0.0, 0.0, 0.0, 0.0, 0.0, 0.0, 0.0, 0.0, 0.0, 0.0, 0.0, 0.0, 0.0, 0.0, 0.0, 0.0, 0.0, 0.0, 0.0, 0.0, 0.0, 0.0, 0.0, 0.0, 0.0, 0.0, 0.0, 0.0, 0.0, 0.0, 0.0, 0.0, 0.0, 0.0, 0.0, 0.0, 0.0, 0.0, 0.0, 0.0, 0.0, 0.0, 0.0, 0.0, 0.0, 0.0, 0.0, 0.0, 0.0, 0.0, 0.0, 0.0, 0.0, 0.0, 0.0, 0.0, 0.0, 0.0, 0.0, 0.0, 0.0, 0.0, 0.0, 0.0, 0.0, 0.0, 0.0, 0.0, 0.0, 0.0, 0.0, 0.0, 0.0, 0.0, 0.0, 0.0, 0.0, 0.0, 0.0, 0.0, 0.0, 0.0, 0.0, 0.0, 0.0, 0.0, 0.0, 0.0, 0.0, 0.0, 0.0, 0.0, 0.0, 0.0, 0.0, 0.0, 0.0, 0.0, 0.0, 0.0, 0.0, 0.0, 0.0, 0.0, 0.0, 0.0, 0.0, 0.0, 0.0, 0.0, 0.0, 0.0, 0.0, 0.0, 0.0, 0.0, 0.0, 0.0, 0.0, 0.0, 0.0, 0.0, 0.0, 0.0, 0.0, 0.0, 0.0, 0.0, 0.0, 0.0, 0.0, 0.0, 0.0, 0.0, 0.0, 0.0, 0.0, 0.0, 0.0, 0.0, 0.0, 0.0, 0.0, 0.0, 0.0, 0.0, 0.0, 0.0, 0.0, 0.0, 0.0, 0.0, 0.0, 0.0, 0.0, 0.0, 0.0, 0.0, 0.0, 0.0, 0.0, 0.0, 0.0, 0.0, 0.0, 0.0, 0.0, 0.0, 0.0, 0.0, 0.0, 0.0, 0.0, 0.0, 0.0, 0.0, 0.0, 0.0, 0.0, 0.0, 0.0, 0.0, 0.0, 0.0, 0.0, 0.0, 0.0, 0.0, 0.0, 0.0, 0.0, 0.0, 0.0, 0.0, 0.0, 0.0, 0.0, 0.0, 0.0, 0.0, 0.0, 0.0, 0.0, 0.0, 0.0, 0.0, 0.0, 0.0, 0.0, 0.0, 0.0, 0.0, 0.0, 0.0, 0.0, 0.0, 0.0, 0.0, 0.0, 0.0, 0.0, 0.0, 0.0, 0.0, 0.0, 0.0, 0.0, 0.0, 0.0, 0.0, 0.0, 0.0, 0.0, 0.0, 0.0, 0.0, 0.0, 0.0, 0.0, 0.0, 0.0, 0.0, 0.0, 0.0, 0.0, 0.0, 0.0, 0.0, 0.0, 0.0, 0.0, 0.0, 0.0, 0.0, 0.0, 0.0, 0.0, 0.0, 0.0, 0.0, 0.0, 0.0, 0.0, 0.0, 0.0, 0.0, 0.0, 0.0, 0.0, 0.0, 0.0, 0.0, 0.0, 0.0, 0.0, 0.0, 0.0, 0.0, 0.0, 0.0, 0.0, 0.0, 0.0, 0.0, 0.0, 0.0, 0.0, 0.0, 0.0, 0.0, 0.0, 0.0, 0.0, 0.0, 0.0, 0.0, 0.0, 0.0, 0.0, 0.0, 0.0, 0.0, 0.0, 0.0, 0.0, 0.0, 0.0, 0.0, 0.0, 0.0, 0.0, 0.0, 0.0, 0.0, 0.0, 0.0, 0.0, 0.0, 0.0, 0.0, 0.0, 0.0, 0.0, 0.0, 0.0, 0.0, 0.0, 0.0, 0.0, 0.0, 0.0, 0.0, 0.0, 0.0, 0.0, 0.0, 0.0, 0.0, 0.0, 0.0, 0.0, 0.0, 0.0, 0.0, 0.0, 0.0, 0.0, 0.0, 0.0, 0.0, 0.0, 0.0, 0.0, 0.0, 0.0, 0.0, 0.0, 0.0, 0.0, 0.0, 0.0, 0.0, 0.0, 0.0, 0.0, 0.0, 0.0, 0.0, 0.0, 0.0, 0.0, 0.0, 0.0, 0.0, 0.0, 0.0, 0.0, 0.0, 0.0, 0.0, 0.0, 0.0, 0.0, 0.0, 0.0, 0.0, 0.0, 0.0, 0.0, 0.0, 0.0, 0.0, 0.0, 0.0, 0.0, 0.0, 0.0, 0.0, 0.0, 0.0, 0.0, 0.0, 0.0, 0.0, 0.0, 0.0, 0.0, 0.0, 0.0, 0.0, 0.0, 0.0, 0.0, 0.0, 0.0, 0.0, 0.0, 0.0, 0.0, 0.0, 0.0, 0.0, 0.0, 0.0, 0.0, 0.0, 0.0, 0.0, 0.0, 0.0, 0.0, 0.0, 0.0, 0.0, 0.0, 0.0, 0.0, 0.0, 0.0, 0.0, 0.0, 0.0, 0.0, 0.0, 0.0, 0.0, 0.0, 0.0, 0.0, 0.0, 0.0, 0.0, 0.0, 0.0, 0.0, 0.0, 0.0, 0.0, 0.0, 0.0, 0.0, 0.0, 0.0, 0.0, 0.0, 0.0, 0.0, 0.0, 0.0, 0.0, 0.0, 0.0, 0.0, 0.0, 0.0, 0.0, 0.0, 0.0, 0.0, 0.0, 0.0, 0.0, 0.0, 0.0, 0.0, 0.0, 0.0, 0.0, 0.0, 0.0, 0.0, 0.0, 0.0, 0.0, 0.0, 0.0, 0.0, 0.0, 0.0, 0.0, 0.0, 0.0, 0.0, 0.0, 0.0, 0.0, 0.0, 0.0, 0.0, 0.0, 0.0, 0.0, 0.0, 0.0, 0.0, 0.0, 0.0, 0.0, 0.0, 0.0, 0.0, 0.0, 0.0],
  "Shots": 4096,
  "Size": 10,
  "Total Algorithm duration [s]": 12.615,
  "Total Classic duration [s]": 12.048521799976006,
  "Total Quantum duration [s]": 0.5664782000239938
}
