{
  "Circuit execution durations [ms]": [0.6271500024013221, 0.5604499892797321, 0.5803499952889979, 0.5713500140700489, 0.5766999965999275, 0.604200002271682, 0.5560000136028975, 0.5545000021811575, 0.5759999912697822, 0.5623000033665448, 0.5643499898724258, 0.5591500084847212, 0.5651499959640205, 0.5552500078920275, 0.5573499947786331, 0.5639000155497342, 0.5711999838240445, 0.5704000068362802, 0.5706500087399036, 0.5603499885182828, 0.5556000105571002, 0.5627500067930669, 0.5701500049326569, 0.5592000088654459, 0.5754000158049166, 0.5538999976124614, 0.5509500042535365, 0.5672000115737319, 0.5566499894484878, 0.5628000071737915, 0.5595000111497939, 0.5731999990530312, 0.5675000138580799, 0.5644000193569809, 0.5679000169038773, 0.5623500037472695, 0.5627999780699611, 0.5635999841615558, 0.5635500128846616, 0.5582000012509525, 0.5793499876745045, 0.5608999927062541, 0.5623500037472695, 0.5775000026915222, 0.5629000079352409, 0.5568999913521111, 0.5658500012941658, 0.5647000216413289, 0.5640000163111836, 0.5638499860651791, 0.5676499858964235, 0.5664000054821372, 0.5709000106435269, 0.6215499888639897, 0.7590999884996563, 0.6594499864149839, 0.5610999942291528, 0.5604499892797321, 0.5707999807782471, 0.5574499955400825, 0.5550000059884042, 0.5672499828506261, 0.5613999965135008, 0.5646500212606043, 0.5788499838672578, 0.5731999990530312, 0.5632999818772078, 0.5661500035785139, 0.5623500037472695, 0.5685999931301922, 0.5610999942291528, 0.5603000172413886, 0.5676000146195292, 0.5712000129278749, 0.5727499956265092, 0.5709999823011458, 0.5626000056508929, 0.5590999790001661, 0.5706499796360731, 0.5746000097133219, 0.5604999896604568, 0.5639499868266284, 0.5916999944020063, 0.5643000185955316, 0.5685999931301922, 0.5585000035353005, 0.586450012633577, 0.5719999899156392, 0.558349973289296, 0.5539499979931861, 0.5566999898292124, 0.5680499889422208, 0.5774499732069671, 0.5632499814964831, 0.5545500025618821, 0.5611999949906021, 0.5582000012509525, 0.5553500086534768, 0.5638499860651791, 0.5687500233761966, 0.5600000149570405, 0.586600013775751, 0.5587000050581992, 0.5576499970629811, 0.5649999948218465, 0.5584500031545758, 0.5664999771397561, 0.5725499941036105, 0.5674999847542495, 0.5573499947786331, 0.5675500142388046, 0.5660000024363399, 0.5654499982483685, 0.5650999955832958, 0.5590500077232718, 0.5598500138148665, 0.5693999992217869, 0.5778500053565949, 0.5558499833568931, 0.5493999924510717, 0.5605999904219061, 0.5634000117424875, 0.5540499987546355, 0.5532999930437654, 0.5628999788314104, 0.5735500017181039, 0.5587500054389238, 0.5625000048894435, 0.5626499769277871, 0.5508000031113625, 0.5649000231642276, 0.5592000088654459, 0.5639499868266284, 0.5645999917760491, 0.6791500200051814, 0.592199998209253, 0.5660000024363399, 0.5675500142388046, 0.5620500014629215, 0.5835999909322709, 0.5639499868266284, 0.5735500017181039, 0.5654499982483685, 0.5507500027306378, 0.5674999847542495, 0.5651499959640205, 0.5697500018868595, 0.5498499958775938, 0.5603999888990074, 0.6029000214766711, 0.5624000041279942, 0.578600011067465, 0.5538999976124614, 0.5646999925374985, 0.5644000193569809, 0.5659500020556152, 0.5548500048462301, 0.5698000022675842, 0.5641500174533576, 0.5690499965567142, 0.5586000042967498, 0.5653499974869192, 0.5674000130966306, 0.5682999908458441, 0.5669499805662781, 0.5694999999832362, 0.555249978788197, 0.5630000086966902, 0.5776500038336962, 0.5612999957520515, 0.5668500089086592, 0.5642499891109765, 0.5658000009134412, 0.5683499912265688, 0.5681500188075006, 0.5700500041712075, 0.5696500011254102, 0.5645499913953245, 0.5714499857276678, 0.5583000020124018, 0.5683499912265688, 0.5622500029858202, 0.5712500133085996, 0.5724499933421612, 0.5637999856844544, 0.5698500026483089, 0.5655499990098178, 0.5653499974869192, 0.5667500081472099, 0.5595500115305185, 0.5677499866578728, 0.5582500016316772, 0.5728999967686832, 0.5639999872073531, 0.5606000195257366, 0.5553499795496464, 0.5622500029858202, 0.5764500238001347, 0.5589500069618225, 0.6101000180933625, 0.5562499864026904, 0.5691499973181635, 0.5570999928750098, 0.5814000032842159, 0.5640999879688025, 0.5611499946098775, 0.5825500120408833, 0.5740000051446259, 0.5636000132653862, 0.5676499858964235, 0.5672500119544566, 0.5733500001952052, 0.5588000058196485, 0.5581000004895031, 0.5763500230386853, 0.5801500228699297, 0.5585000035353005, 0.5784000095445663, 0.5643499898724258, 0.5683999916072935, 0.5987999902572483, 0.5585000035353005, 0.6931500101927668, 0.6102999905124307, 0.5672499828506261, 0.48749998677521944, 0.6148999964352697, 0.57565001770854, 0.5644499906338751, 0.5663000047206879, 0.538699998287484, 0.5711499834433198, 0.5607999919448048, 0.5608999927062541, 0.5694499996025115, 0.5765000241808593, 0.6823499861638993, 0.5722000205423683, 0.5599500145763159, 0.5727499956265092, 0.6100000173319131, 0.5613000248558819, 0.5602999881375581, 0.5611499946098775, 0.5639500159304589, 0.5946999881416559, 0.5682999908458441, 0.5608500214293599, 0.5738000036217272, 0.5649499944411218, 0.5556000105571002, 0.5744500085711479, 0.5609000218100846, 0.5653499974869192, 0.5621000018436462, 0.5675500142388046, 0.5656499997712672, 0.578600011067465, 0.5620000010821968, 0.5586000042967498, 0.5533499934244901, 0.5629500083159655, 0.5559500132221729, 0.5675500142388046, 0.5617999995592982, 0.5646999925374985, 0.5675000138580799, 0.5655999993905425, 0.5620500014629215, 0.5579999997280538, 0.5731999990530312, 0.5637000140268356, 0.5578499985858798, 0.5620000010821968, 0.5656499997712672, 0.5667500081472099, 0.5599499854724854, 0.5670000100508332, 0.5570499924942851, 0.5731499986723065, 0.5665999779012054, 0.5710499826818705, 0.5692000268027186, 0.5641999887302518, 0.5583500023931265, 0.5671999824699014, 0.5690999969374388, 0.5650499952025712, 0.5603500176221132, 0.5636999849230051, 0.5684500210918486, 0.5807499983347952, 0.5750499840360135, 0.7430999830830842, 0.674450013320893, 0.5603000172413886, 0.5682999908458441, 0.5629500083159655, 0.5754000158049166, 0.5610999942291528, 0.5714499857276678, 0.5872999900020659, 0.5656499997712672, 0.5690500256605446, 0.5726999952457845, 0.5610999942291528, 0.5567999905906618, 0.5640999879688025, 0.5626999773085117, 0.5646499921567738, 0.5553000082727522, 0.5630500090774149, 0.5573499947786331, 0.5682000191882253, 0.5637500144075602, 0.5654999986290932, 0.5648500227835029, 0.5624000041279942, 0.5653499974869192, 0.6119000026956201, 0.5638999864459038, 0.5535499949473888, 0.5659000016748905, 0.5588500062003732, 0.5726499948650599, 0.5868499865755439, 0.5646999925374985, 0.5692000268027186, 0.5616999987978488, 0.5662000039592385, 0.5606000195257366, 0.5657500005327165, 0.5594000103883445, 0.5607499915640801, 0.5633500113617629, 0.5613499961327761, 0.5703000060748309, 0.5582500016316772, 0.5608999927062541, 0.5715500155929476, 0.5632500106003135, 0.5689499957952648, 0.5636499845422804, 0.5564999883063138, 0.5663000047206879, 0.5553500086534768, 0.5619000003207475, 0.5646999925374985, 0.5659999733325094, 0.5653999978676438, 0.5648499936796725, 0.5666000070050359, 0.5605999904219061, 0.5797999911010265, 0.555399979930371, 0.5579999997280538, 0.5576999974437058, 0.5581000004895031, 0.5783000087831169, 0.5562499864026904, 0.5720000190194696, 0.5610500229522586, 0.5561500147450715, 0.5606499908026308, 0.5626999773085117, 0.5625500052701682, 0.5665500066243112, 0.597550009842962, 0.5639000155497342, 0.5600000149570405, 0.5609999934677035, 0.5604499892797321, 0.5890000029467046, 0.6334499921649694, 0.5428500007838011, 0.5568499909713864, 0.5655499990098178, 0.5639000155497342, 0.5571999936364591, 0.5747500108554959, 0.5643999902531505, 0.5601499869953841, 0.5622000026050955, 0.5810500006191432, 0.5716499872505665, 0.5756000173278153, 0.5539999983739108, 0.5693499988410622, 0.5653999978676438, 0.589250004850328, 0.5678999878000468, 0.5649499944411218, 0.6097000150475651, 0.5608499923255295, 0.5639000155497342, 0.5732499994337559, 0.5598000134341419, 0.5870000168215483, 0.5718500178772956, 0.5746499809902161, 0.5615499976556748, 0.5676999862771481, 0.5647499929182231, 0.5734500009566545, 0.5679499881807715, 0.5659000016748905, 0.5812000017613173, 0.5639000155497342, 0.5627999780699611, 0.5706000083591789, 0.5645999917760491, 0.5740500055253506, 0.5853000038769096, 0.5645499913953245, 0.5665500066243112, 0.5641500174533576, 0.5661500035785139, 0.5705999792553484, 0.5593500100076199, 0.5671499820891768, 0.5554000090342015, 0.5601499869953841, 0.5573999951593578, 0.5618499999400228, 0.5610999942291528, 0.5692999984603375, 0.5606500199064612, 0.5820500082336366, 0.5707500095013529, 0.5682499904651195, 0.5635000125039369, 0.5629000079352409, 0.5648999940603971, 0.5583999736700207, 0.5517999816220254, 0.5682000191882253, 0.5720999906770885, 0.5582000012509525, 0.5893000052310526, 0.5561000143643469, 0.6199500057846308, 0.5667999794241041, 0.5561000143643469, 0.5672500119544566, 0.5612499953713268, 0.5680999893229455, 0.5606000195257366, 0.5590000073425472, 0.5570499924942851, 0.5639000155497342, 0.5740000051446259, 0.5594000103883445, 0.5725499941036105, 0.5652499967254698, 0.5760999920312315, 0.5736000020988286, 0.5643500189762563, 0.5628999788314104, 0.5611499946098775, 0.5743999790865928, 0.5538499972317368, 0.5633999826386571, 0.5648500227835029, 0.5604999896604568, 0.600800005486235, 0.5610999942291528, 0.5556500109378248, 0.5597000126726925, 0.5645499913953245, 0.5656499997712672, 0.5474500067066401, 0.5592000088654459, 0.6955499993637204, 0.5702000053133816, 0.5881999968551099, 0.5514500080607831, 0.5664500058628619, 0.5783500091638416, 0.5706500087399036, 0.5671000108122826, 0.5599499854724854, 0.5675499851349741, 0.5507500027306378, 0.5509500042535365, 0.6048500072211027, 0.5810500006191432, 0.5703500064555556, 0.5544500018004328, 0.5746999813709408, 0.5692999984603375, 0.5813000025227666, 0.5625500052701682, 0.5674000130966306, 0.5728999967686832, 0.5702000053133816, 0.5631500098388642, 0.5671499820891768, 0.571950018638745, 0.5685999931301922, 0.5713499849662185, 0.5605499900411814, 0.5604499892797321, 0.5744000081904233, 0.5794500175397843, 0.5646499921567738, 0.5600999866146594, 0.5580500001087785, 0.5677999870385975, 0.5617999995592982, 0.5615499976556748, 0.5609499930869788, 0.5654999986290932, 0.5683999916072935, 0.592500000493601, 0.5532499926630408, 0.5770999996457249, 0.5764999950770289, 0.5619500007014722, 0.583800021559, 0.5702500056941062, 0.5707000091206282, 0.5597999843303114, 0.586300011491403, 0.5708500102628022, 0.5620500014629215, 0.575200014282018, 0.5654999986290932, 0.5631499807350338, 0.5557500116992742, 0.5738500040024519, 0.600200000917539, 0.5741500062867999, 0.7089999853633344, 0.5622500029858202, 0.586450012633577, 0.5608999927062541, 0.5679500172846019, 0.5761499924119562, 0.5686000222340226, 0.5562000151257962, 0.5699500034097582, 0.5671500111930072, 0.5645999917760491, 0.571800017496571, 0.5642499891109765, 0.5632499814964831, 0.5675999855156988, 0.5798499914817512, 0.5651999963447452, 0.569300027564168, 0.5611499946098775, 0.5678500165231526, 0.5641999887302518, 0.5635500128846616, 0.5623000033665448, 0.5662999756168574, 0.5838500219397247, 0.5609499930869788, 0.5767999973613769, 0.5576499970629811, 0.5635999841615558, 0.5601499869953841, 0.5739999760407954, 0.5546000029426068, 0.5806999979540706, 0.5546000029426068, 0.5754999874625355, 0.5591500084847212, 0.5588499770965427, 0.5709500110242516, 0.5631000094581395, 0.5591500084847212, 0.5489999894052744, 0.5643500189762563, 0.5747000104747713, 0.5649000231642276, 0.5700000037904829, 0.5586000042967498, 0.5716999876312912, 0.5609000218100846, 0.5842999962624162, 0.5623500037472695, 0.5646999925374985, 0.5876000213902444, 0.5599499854724854, 0.5688499950338155, 0.5623000033665448, 0.5697000015061349, 0.5569500208366662, 0.5640500166919082, 0.5594500107690692, 0.5639000155497342, 0.5711500125471503, 0.5695500003639609, 0.5625000048894435, 0.5660000024363399, 0.5563499871641397, 0.5540500278584659, 0.5546000029426068, 0.5637499853037298, 0.5602000164799392, 0.5725499941036105, 0.5671500111930072, 0.5713499849662185, 0.5675499851349741, 0.5653500265907496, 0.5660500028170645, 0.5599999858532101, 0.5606500199064612, 0.5617999995592982, 0.5697000015061349, 0.5644999910145998, 0.5795500183012336, 0.7170499884523451, 0.5773500015493482, 0.5683000199496746, 0.5632499814964831, 0.5650500243064016, 0.5704000068362802, 0.5655999993905425, 0.5717000167351216, 0.5535999953281134, 0.5689499957952648, 0.5609499930869788, 0.5537999968510121, 0.5686499935109168, 0.5800499930046499, 0.5556500109378248, 0.587950024055317, 0.5571999936364591, 0.5538999976124614, 0.5642000178340822, 0.5659000016748905, 0.5720499902963638, 0.5592500092461705, 0.5660499737132341, 0.617949990555644, 0.5601999873761088, 0.5611499946098775, 0.5662500043399632, 0.5666000070050359, 0.5634999834001064, 0.5609499930869788, 0.5761500215157866, 0.5581500008702278, 0.5876999930478632, 0.5714499857276678, 0.5696500011254102, 0.5651999963447452, 0.5731499986723065, 0.5631999811157584, 0.5667000077664852, 0.5634500121232122, 0.5676999862771481, 0.5686500226147473, 0.572550023207441, 0.5927500023972243, 0.5608499923255295, 0.5576999974437058, 0.5608000210486352, 0.5697500018868595, 0.5627000064123422, 0.5645500204991549, 0.5779999773949385, 0.5539499979931861, 0.5678499874193221, 0.5702500056941062, 0.5617499991785735, 0.5662500043399632, 0.5714000144507736, 0.5690999969374388, 0.5609999934677035, 0.5661000031977892, 0.5712499842047691, 0.5524499865714461, 0.5624000041279942, 0.5529000191017985, 0.5842000246047974, 0.5668999801855534, 0.5585500039160252, 0.5692499980796129, 0.5747500108554959, 0.5699000030290335, 0.5754500161856413, 0.5629000079352409, 0.5705500079784542, 0.5662000039592385, 0.5654999986290932, 0.5603499885182828, 0.5719999899156392, 0.5706500087399036, 0.5580500001087785, 0.5628499784506857, 0.5634000117424875, 0.5624000041279942, 0.5941000126767904, 0.5661500035785139, 0.5736000020988286, 0.5619500007014722, 0.5672000115737319, 0.5626500060316175, 0.5669499805662781, 0.5711999838240445, 0.6526499928440899, 0.5708000098820776, 0.5572499940171838, 0.6910499942023307, 0.6063499895390123, 0.5664000054821372, 0.6122000049799681, 0.5600500153377652, 0.6633499870076776, 0.5567999905906618, 0.5691000260412693, 0.7144999981392175, 0.5673999839928001, 0.5573999951593578, 0.5634499830193818, 0.5581500008702278, 0.5706999800167978, 0.5557999829761684, 0.5678000161424279, 0.5638500151690096, 0.5883000267203897, 0.5735500017181039, 0.5610499938484281, 0.5699500034097582, 0.5911999905947596, 0.5570499924942851, 0.5520000122487545, 0.5621000018436462, 0.5626999773085117, 0.5682999908458441, 0.5561499856412411, 0.5594000103883445, 0.5567499902099371, 0.5643999902531505, 0.5704999784938991, 0.5625500052701682, 0.5604499892797321, 0.5664000054821372, 0.5719499895349145, 0.5620500014629215, 0.5782000080216676, 0.5683500203303993, 0.5544500018004328, 0.5566499894484878, 0.5666999786626548, 0.5670999817084521, 0.5734000005759299, 0.5644499906338751, 0.5594500107690692, 0.5576999974437058, 0.5707500095013529, 0.5631999811157584, 0.5669999809470028, 0.5797999911010265, 0.5661500035785139, 0.5715499864891171, 0.5651999963447452, 0.5666500073857605, 0.5629499792121351, 0.5706499796360731, 0.5668000085279346, 0.5568999913521111, 0.5658500012941658, 0.5523500149138272, 0.5579499993473291, 0.5588000058196485, 0.5609500221908092, 0.5650999955832958, 0.5934500077273697, 0.5894500063732266, 0.5630000086966902, 0.5743999790865928, 0.5750499840360135, 0.5643500189762563, 0.5600499862339348, 0.5620000010821968, 0.5577999982051551, 0.5798999918624759, 0.5735500017181039, 0.5604499892797321, 0.5771500000264496, 0.47360001190099865, 0.5601000157184899, 0.5667500081472099, 0.5734999722335488, 0.5749499832745641, 0.5611499946098775, 0.5594500107690692, 0.5685499927494675, 0.5474000063259155, 0.5629999795928597, 0.611449999269098, 0.5796999903395772, 0.4635499935830012, 0.5629999795928597, 0.5755499878432602, 0.5721500201616436, 0.5652499967254698, 0.5751000135205686, 0.5639999872073531, 0.5653999978676438, 0.5880999960936606, 0.5672000115737319, 0.5667000077664852, 0.5572999943979084, 0.5796999903395772, 0.5677499866578728, 0.5670999817084521, 0.5672500119544566, 0.5596000119112432, 0.5579499993473291, 0.5651499959640205, 0.5701500049326569, 0.5687499942723662, 0.5661499744746834, 0.5646499921567738, 0.5645499913953245, 0.6001500005368143, 0.5593000096268952, 0.5643499898724258, 0.5601000157184899, 0.5730499979108572, 0.5709500110242516, 0.5643999902531505, 0.5673000123351812, 0.5692499980796129, 0.5661000031977892, 0.5546000029426068, 0.5661500035785139, 0.5630000086966902, 0.562049972359091, 0.5689999961759895, 0.5647499929182231, 0.5715000152122229, 0.5686499935109168, 0.573000026633963, 0.568850024137646, 0.5724999937228858, 0.5712500133085996, 0.5652000254485756, 0.5647500220220536, 0.5599000141955912, 0.5692999984603375, 0.5440000095404685, 0.5673999839928001, 0.5655499990098178, 0.5686499935109168, 0.5631499807350338, 0.5686999938916415, 0.7097499910742044, 0.5596000119112432, 0.5685499927494675, 0.5637499853037298, 0.6067499925848097, 0.5667500081472099, 0.579650019062683, 0.5594499816652387, 0.5675499851349741, 0.5744499794673175, 0.5823499814141542, 0.5754499870818108, 0.5684000207111239, 0.5510000046342611, 0.5596999835688621, 0.6099000165704638, 0.5679500172846019, 0.5716000159736723, 0.5678499874193221, 0.5626000056508929, 0.5644999910145998, 0.5743500078096986, 0.5675999855156988, 0.5650999955832958, 0.5658000009134412, 0.5597000126726925, 0.5690499965567142, 0.5633000109810382, 0.5638000147882849, 0.5605499900411814, 0.5520000122487545, 0.5663500051014125, 0.5613500252366066, 0.5663999763783067, 0.5702500056941062, 0.5592499801423401, 0.5798500205855817, 0.5586500046774745, 0.5614999972749501, 0.5658000009134412, 0.5714500148314983, 0.5634500121232122, 0.5757500184699893, 0.5661500035785139, 0.5591000081039965, 0.5533000221475959, 0.5699000030290335, 0.5618499999400228, 0.5572499940171838, 0.5575999966822565, 0.5610999942291528, 0.5629000079352409, 0.5674499843735248, 0.5578499985858798, 0.5621500022243708, 0.5734000005759299, 0.5571999936364591, 0.5601999873761088, 0.5642500182148069, 0.5616499984171242, 0.5609999934677035, 0.5805999971926212, 0.5636500136461109, 0.5599500145763159, 0.5879999953322113, 0.5561999860219657, 0.5583500023931265, 0.5613999965135008, 0.5722999921999872, 0.5707500095013529, 0.5609499930869788, 0.5714999861083925, 0.5581000004895031, 0.5734000005759299, 0.5659500020556152, 0.5656499997712672, 0.5672500119544566, 0.5748500116169453, 0.5617499991785735, 0.5674999847542495, 0.5677999870385975, 0.5880499957129359, 0.5642000178340822, 0.5170000076759607, 0.5740000051446259, 0.7083999807946384, 0.6015000108163804, 0.6128500099293888, 0.550949975149706, 0.5730499979108572, 0.5545500025618821, 0.5982999864500016, 0.5628999788314104, 0.5597499839495867, 0.5561999860219657, 0.7126999844331294, 0.5635499837808311, 0.596199999563396, 0.5791500152554363, 0.5579499993473291, 0.5604999896604568, 0.5810000002384186, 0.6299999949987978, 0.5598500138148665, 0.5689999961759895, 0.548749987501651, 0.5635500128846616, 0.6120000034570694, 0.5691499973181635, 0.5690500256605446, 0.599749997491017, 0.5502999993041158, 0.5771500000264496, 0.5666500073857605, 0.5921499978285283, 0.5676000146195292, 0.5580500001087785, 0.5836999916937202, 0.5644499906338751, 0.5541999998968095, 0.5628000071737915, 0.5748500116169453, 0.5734000005759299, 0.5531999922823161, 0.5622000026050955, 0.5605499900411814, 0.5647499929182231, 0.5542500002775341, 0.5799499922432005, 0.5667499790433794, 0.5673499836120754, 0.5561999860219657, 0.5574499955400825, 0.5692499980796129, 0.5649999948218465, 0.5562499864026904, 0.5714000144507736, 0.5616999987978488, 0.5630500090774149, 0.5536500248126686, 0.5593499809037894, 0.5760999920312315, 0.5655499990098178, 0.5629999795928597, 0.5685499927494675, 0.5659000016748905, 0.5627000064123422, 0.5703999777324498, 0.5565000174101442, 0.5599499854724854, 0.5641500174533576, 0.5824499821756035, 0.5644000193569809, 0.5588000058196485, 0.5595500115305185, 0.5878499941900373, 0.5672500119544566, 0.5887500010430813, 0.5718999891541898, 0.5662000039592385, 0.6126000080257654, 0.5706500087399036, 0.5493999924510717, 0.5580500001087785, 0.5652499967254698, 0.5599999858532101, 0.5655999993905425, 0.5597999843303114, 0.5617999995592982, 0.5536999960895628, 0.5631000094581395, 0.5603999888990074, 0.562199973501265, 0.5588499770965427, 0.5605999904219061, 0.5596999835688621, 0.5643500189762563, 0.5687999946530908, 0.5701000045519322, 0.5678999878000468, 0.6309000018518418, 0.5598000134341419, 0.5599499854724854, 0.5681499897036701, 0.5634000117424875, 0.5805499968118966, 0.5828499852214009, 0.5573499947786331, 0.5619500007014722, 0.5570999928750098, 0.5599000141955912, 0.584100023843348, 0.5682999908458441, 0.5592500092461705, 0.5602000164799392, 0.5772500007878989, 0.5664999771397561],
  "Depth": 22.5,
  "Expectation Value": -12.169693946838379,
  "Optimal Expectation Value": -12.381489753723145,
  "Optimizer durations [ms]": [13.42, 11.936, 12.738, 12.05, 12.246, 13.148, 11.85, 11.92, 12.5, 12.282, 12.153, 12.289, 12.256, 11.804, 12.109, 11.928, 12.295, 12.421, 12.196, 11.84, 12.35, 11.851, 12.405, 12.038, 12.367, 12.19, 12.097, 12.371, 11.887, 12.386, 12.087, 12.161, 12.129, 12.144, 11.95, 12.183, 12.272, 12.13, 12.245, 12.086, 12.223, 12.304, 11.997, 12.609, 12.188, 12.199, 12.292, 12.289, 12.306, 12.336, 12.098, 12.465, 12.12, 13.464, 26.026, 14.789, 12.36, 12.339, 11.996, 12.23, 11.892, 12.3, 12.34, 11.865, 12.411, 12.47, 12.112, 12.341, 12.104, 12.483, 12.389, 12.227, 12.349, 12.592, 12.232, 12.14, 12.804, 11.985, 12.16, 12.204, 12.4, 12.074, 12.946, 12.068, 12.369, 12.127, 12.778, 11.959, 12.037, 12.108, 12.233, 12.242, 12.662, 12.17, 12.126, 12.12, 12.191, 12.064, 12.181, 11.921, 12.456, 12.499, 12.741, 12.069, 12.167, 12.161, 12.236, 12.202, 12.439, 12.353, 12.341, 12.317, 12.392, 12.062, 12.261, 12.18, 12.032, 12.204, 12.12, 11.769, 12.123, 12.496, 12.108, 11.841, 12.33, 12.296, 12.167, 12.103, 12.127, 12.074, 12.301, 12.363, 12.189, 12.446, 14.393, 27.025, 12.496, 12.28, 11.981, 12.754, 12.339, 12.268, 12.455, 12.03, 12.211, 12.412, 12.017, 11.961, 12.061, 12.771, 12.607, 12.72, 11.942, 11.893, 12.309, 12.414, 11.988, 12.043, 12.545, 12.58, 12.145, 12.239, 11.927, 12.222, 12.255, 12.468, 12.219, 12.367, 12.402, 12.131, 12.393, 12.138, 12.303, 12.222, 12.463, 12.103, 12.576, 12.033, 12.232, 11.919, 12.451, 12.123, 12.62, 12.117, 12.23, 12.462, 12.372, 12.198, 12.003, 12.155, 12.417, 12.264, 12.461, 12.224, 12.214, 12.077, 12.034, 12.474, 12.345, 12.939, 12.056, 12.421, 11.944, 12.332, 12.263, 12.216, 12.385, 12.324, 12.377, 12.162, 12.04, 12.389, 12.108, 11.912, 12.705, 15.45, 12.082, 12.72, 12.546, 12.191, 13.165, 12.055, 14.923, 13.214, 12.58, 20.378, 13.189, 12.749, 12.322, 12.23, 27.019, 12.316, 12.457, 11.915, 12.248, 12.623, 27.031, 12.722, 11.991, 12.257, 13.346, 12.241, 12.24, 12.2, 12.256, 12.703, 12.388, 11.964, 12.397, 11.917, 12.24, 12.064, 12.407, 12.454, 12.339, 12.458, 12.222, 12.533, 12.155, 11.993, 12.095, 12.273, 12.09, 12.331, 12.116, 12.174, 12.494, 12.121, 11.972, 12.244, 12.414, 12.225, 12.147, 12.13, 12.269, 12.072, 12.13, 12.397, 12.131, 12.363, 12.378, 12.14, 12.403, 11.996, 12.292, 12.436, 12.194, 12.537, 12.234, 12.192, 12.267, 12.352, 12.245, 15.985, 27.271, 12.099, 12.243, 12.089, 12.365, 12.602, 12.317, 13.003, 12.29, 12.261, 12.537, 12.137, 12.143, 12.263, 12.051, 12.274, 12.193, 12.185, 12.081, 12.275, 12.327, 12.211, 12.231, 16.221, 12.256, 13.054, 12.118, 12.095, 12.315, 12.186, 12.276, 12.657, 12.118, 12.543, 12.062, 12.32, 12.334, 12.128, 12.313, 12.009, 12.443, 12.07, 12.374, 12.219, 12.18, 12.204, 12.305, 12.177, 12.323, 12.075, 12.339, 11.945, 11.952, 12.333, 12.266, 11.999, 12.406, 12.343, 12.331, 12.478, 12.247, 12.064, 12.265, 12.171, 12.419, 12.068, 12.478, 12.303, 11.944, 12.465, 11.937, 12.232, 12.491, 12.626, 12.437, 12.325, 12.075, 12.418, 12.794, 13.639, 26.884, 12.135, 12.337, 12.037, 12.151, 12.538, 11.941, 12.225, 12.179, 12.38, 12.041, 12.241, 12.095, 12.27, 12.533, 12.857, 12.252, 12.111, 13.259, 12.262, 12.208, 12.253, 12.173, 12.844, 12.122, 12.571, 12.275, 12.233, 12.144, 12.384, 12.015, 12.327, 12.642, 12.212, 12.301, 12.177, 13.25, 12.337, 12.448, 12.362, 12.332, 12.14, 12.634, 12.38, 12.054, 12.26, 12.207, 12.316, 12.014, 12.24, 12.21, 12.56, 11.835, 12.672, 12.001, 12.406, 11.96, 12.269, 12.263, 11.759, 12.231, 12.36, 12.496, 12.345, 12.836, 12.212, 13.237, 12.51, 12.106, 12.089, 12.145, 12.185, 12.145, 12.112, 12.007, 12.269, 12.588, 12.333, 12.154, 12.387, 14.74, 12.36, 12.573, 12.559, 12.351, 12.402, 12.13, 12.518, 12.84, 12.046, 25.983, 12.216, 12.223, 12.187, 12.089, 19.43, 11.772, 12.231, 14.831, 12.29, 12.541, 27.975, 14.173, 12.596, 12.278, 12.204, 12.044, 12.168, 11.887, 11.846, 13.024, 12.445, 12.44, 11.845, 12.729, 12.31, 12.573, 12.083, 12.103, 12.354, 12.682, 12.293, 12.08, 12.319, 12.175, 12.011, 12.433, 12.09, 12.406, 12.696, 12.29, 12.452, 12.011, 12.467, 12.454, 12.537, 12.067, 12.196, 12.479, 12.526, 11.97, 12.177, 12.445, 12.286, 12.606, 12.213, 12.557, 12.329, 12.572, 12.482, 12.052, 12.299, 12.133, 12.283, 11.986, 12.501, 12.814, 12.257, 14.921, 25.844, 13.032, 12.087, 12.247, 12.447, 12.409, 12.115, 12.657, 12.183, 12.071, 12.467, 12.214, 12.284, 11.992, 12.679, 12.415, 12.074, 12.279, 12.379, 12.071, 12.35, 12.59, 12.226, 18.149, 12.249, 12.463, 12.297, 12.222, 12.251, 12.171, 12.148, 12.676, 12.219, 12.063, 12.3, 12.018, 12.387, 12.068, 12.121, 11.889, 12.06, 12.406, 12.334, 12.4, 12.257, 12.162, 12.207, 12.793, 12.051, 12.244, 12.475, 12.04, 12.272, 12.423, 11.954, 11.971, 12.423, 11.767, 12.362, 12.399, 12.245, 11.908, 12.355, 12.163, 12.051, 11.964, 12.473, 12.367, 12.577, 12.317, 12.415, 12.376, 11.907, 12.351, 12.354, 12.107, 12.392, 12.404, 12.203, 12.646, 28.687, 12.515, 12.307, 12.32, 12.385, 12.288, 12.126, 12.678, 12.311, 12.293, 12.093, 11.906, 12.415, 12.358, 12.029, 12.88, 12.296, 12.148, 12.44, 12.39, 12.295, 12.048, 11.996, 13.638, 12.31, 11.791, 12.118, 12.292, 12.171, 12.153, 12.529, 11.941, 12.773, 12.429, 12.238, 12.679, 12.439, 12.209, 12.478, 12.065, 12.305, 12.406, 12.474, 12.524, 12.208, 12.397, 11.99, 12.311, 12.504, 12.193, 12.452, 12.096, 12.137, 12.302, 12.057, 12.145, 12.756, 12.448, 12.104, 12.404, 12.285, 12.152, 12.326, 12.179, 12.806, 12.028, 11.908, 12.123, 12.419, 12.209, 12.381, 12.035, 12.531, 12.383, 12.113, 12.395, 12.16, 12.591, 12.064, 12.42, 15.356, 12.44, 13.232, 12.024, 12.472, 11.76, 13.009, 12.157, 12.524, 12.502, 17.481, 12.27, 12.304, 14.597, 13.447, 12.071, 22.907, 12.23, 14.482, 11.991, 12.253, 28.772, 15.403, 12.366, 12.23, 12.221, 12.494, 12.156, 11.995, 12.18, 12.686, 12.222, 12.058, 12.607, 12.645, 12.262, 11.849, 12.347, 12.06, 12.277, 12.11, 12.174, 11.85, 12.236, 12.4, 12.372, 12.238, 12.12, 12.068, 12.305, 12.38, 12.316, 11.737, 12.226, 12.084, 11.87, 12.675, 12.325, 12.107, 12.281, 12.316, 12.208, 12.318, 12.47, 12.138, 12.245, 12.497, 12.531, 12.163, 12.103, 12.366, 12.245, 12.083, 12.026, 12.25, 12.227, 11.996, 12.34, 13.057, 29.919, 11.888, 12.348, 12.493, 12.09, 12.041, 12.225, 11.741, 12.725, 11.984, 12.165, 12.533, 11.507, 12.308, 12.251, 12.022, 12.46, 12.073, 12.236, 12.055, 11.675, 12.297, 12.77, 12.572, 10.222, 12.419, 12.38, 12.331, 12.269, 12.312, 12.366, 12.36, 12.324, 12.293, 12.479, 12.134, 12.711, 12.37, 12.438, 12.262, 12.005, 12.595, 12.289, 12.136, 12.395, 12.488, 12.391, 12.385, 12.708, 12.261, 12.063, 11.936, 12.326, 12.281, 12.464, 12.195, 12.038, 12.279, 11.798, 12.324, 12.094, 11.934, 12.34, 12.25, 12.093, 12.496, 12.353, 12.437, 12.331, 13.993, 12.462, 12.397, 12.134, 12.414, 11.419, 12.478, 12.211, 12.332, 12.479, 12.351, 15.099, 26.022, 12.656, 12.114, 13.296, 12.129, 12.254, 12.431, 12.241, 12.314, 12.524, 12.582, 12.254, 12.109, 11.996, 12.997, 12.315, 12.4, 12.107, 12.381, 11.885, 12.544, 12.258, 12.432, 16.742, 12.165, 12.294, 12.109, 12.2, 12.181, 11.778, 12.506, 12.203, 12.169, 12.458, 12.143, 12.308, 12.164, 12.288, 12.333, 12.349, 12.087, 12.23, 12.361, 11.91, 11.871, 12.563, 12.217, 12.147, 12.001, 12.428, 12.244, 12.107, 12.248, 12.148, 12.649, 12.168, 12.408, 12.101, 12.265, 12.057, 12.394, 12.412, 12.271, 12.734, 12.249, 12.24, 12.058, 12.141, 12.247, 12.253, 12.044, 12.198, 12.269, 12.131, 12.382, 12.385, 12.436, 11.918, 12.226, 12.509, 12.562, 12.214, 17.835, 12.672, 15.069, 12.712, 13.291, 12.117, 12.095, 24.246, 12.805, 12.236, 12.183, 12.104, 15.408, 15.328, 12.563, 12.55, 12.224, 12.272, 25.969, 13.814, 12.499, 12.16, 11.792, 12.356, 13.403, 12.513, 12.26, 12.878, 11.556, 12.586, 12.411, 12.574, 12.336, 12.161, 12.428, 12.278, 12.227, 11.839, 12.59, 12.263, 11.782, 11.996, 12.315, 12.386, 12.229, 12.453, 12.303, 12.092, 12.485, 12.148, 12.197, 12.278, 12.049, 12.471, 12.079, 12.159, 12.145, 11.98, 12.68, 12.422, 12.285, 12.503, 12.213, 12.134, 12.266, 12.259, 12.225, 12.162, 12.849, 12.409, 12.23, 12.302, 12.437, 12.459, 12.547, 12.744, 29.136, 13.394, 12.537, 12.113, 12.242, 12.266, 11.769, 12.475, 12.14, 12.337, 11.815, 12.045, 12.29, 12.279, 12.01, 12.357, 12.106, 12.102, 12.23, 12.251, 12.594, 13.463, 12.105, 11.882, 13.79, 12.231, 12.497, 12.879, 12.281, 12.328, 12.216, 12.249, 12.841, 12.365, 12.048, 12.345, 12.273, 11.97],
  "Optimizer iterations": 1049,
  "Optimizer params": [0.9388840110213996, 0.45128998206745785, 0.9345442458768469, 0.9458740833579443, 0.44126973712729217, 0.42758321612696576, 0.06268193462802285, 0.9452297388832668, 0.27469949391224924, 0.8071846578404331, 0.714286528208597, 0.1297252314388729, 0.35684808738264595, 0.9321760737205862, 0.7788294273177495, 0.09558109359521536, 0.9852470155491087, 0.3625192116686797, 0.945704256630741, 0.5239272057926405, 0.018832529652728334, 0.4748451692788859, 0.4891607509361748, 0.9702807108461221, 0.5039985067913934, 0.9548018842540466, 0.5824024146993938, 0.8994282299037782, 0.680798202213857, 0.6944407098792558, 0.01067009562625846, 0.27579027122244754, 0.8092906335303872, 0.8401617656850148, 0.23070854260937843, 0.018942308476500695, 0.5637029438456704, 0.9172605913207778, 0.8823334148804137, 0.15953187777541622],
  "P": 0,
  "Problem": "IC",
  "QJob durations [ms]": [0.6271500024013221, 0.5604499892797321, 0.5803499952889979, 0.5713500140700489, 0.5766999965999275, 0.604200002271682, 0.5560000136028975, 0.5545000021811575, 0.5759999912697822, 0.5623000033665448, 0.5643499898724258, 0.5591500084847212, 0.5651499959640205, 0.5552500078920275, 0.5573499947786331, 0.5639000155497342, 0.5711999838240445, 0.5704000068362802, 0.5706500087399036, 0.5603499885182828, 0.5556000105571002, 0.5627500067930669, 0.5701500049326569, 0.5592000088654459, 0.5754000158049166, 0.5538999976124614, 0.5509500042535365, 0.5672000115737319, 0.5566499894484878, 0.5628000071737915, 0.5595000111497939, 0.5731999990530312, 0.5675000138580799, 0.5644000193569809, 0.5679000169038773, 0.5623500037472695, 0.5627999780699611, 0.5635999841615558, 0.5635500128846616, 0.5582000012509525, 0.5793499876745045, 0.5608999927062541, 0.5623500037472695, 0.5775000026915222, 0.5629000079352409, 0.5568999913521111, 0.5658500012941658, 0.5647000216413289, 0.5640000163111836, 0.5638499860651791, 0.5676499858964235, 0.5664000054821372, 0.5709000106435269, 0.6215499888639897, 0.7590999884996563, 0.6594499864149839, 0.5610999942291528, 0.5604499892797321, 0.5707999807782471, 0.5574499955400825, 0.5550000059884042, 0.5672499828506261, 0.5613999965135008, 0.5646500212606043, 0.5788499838672578, 0.5731999990530312, 0.5632999818772078, 0.5661500035785139, 0.5623500037472695, 0.5685999931301922, 0.5610999942291528, 0.5603000172413886, 0.5676000146195292, 0.5712000129278749, 0.5727499956265092, 0.5709999823011458, 0.5626000056508929, 0.5590999790001661, 0.5706499796360731, 0.5746000097133219, 0.5604999896604568, 0.5639499868266284, 0.5916999944020063, 0.5643000185955316, 0.5685999931301922, 0.5585000035353005, 0.586450012633577, 0.5719999899156392, 0.558349973289296, 0.5539499979931861, 0.5566999898292124, 0.5680499889422208, 0.5774499732069671, 0.5632499814964831, 0.5545500025618821, 0.5611999949906021, 0.5582000012509525, 0.5553500086534768, 0.5638499860651791, 0.5687500233761966, 0.5600000149570405, 0.586600013775751, 0.5587000050581992, 0.5576499970629811, 0.5649999948218465, 0.5584500031545758, 0.5664999771397561, 0.5725499941036105, 0.5674999847542495, 0.5573499947786331, 0.5675500142388046, 0.5660000024363399, 0.5654499982483685, 0.5650999955832958, 0.5590500077232718, 0.5598500138148665, 0.5693999992217869, 0.5778500053565949, 0.5558499833568931, 0.5493999924510717, 0.5605999904219061, 0.5634000117424875, 0.5540499987546355, 0.5532999930437654, 0.5628999788314104, 0.5735500017181039, 0.5587500054389238, 0.5625000048894435, 0.5626499769277871, 0.5508000031113625, 0.5649000231642276, 0.5592000088654459, 0.5639499868266284, 0.5645999917760491, 0.6791500200051814, 0.592199998209253, 0.5660000024363399, 0.5675500142388046, 0.5620500014629215, 0.5835999909322709, 0.5639499868266284, 0.5735500017181039, 0.5654499982483685, 0.5507500027306378, 0.5674999847542495, 0.5651499959640205, 0.5697500018868595, 0.5498499958775938, 0.5603999888990074, 0.6029000214766711, 0.5624000041279942, 0.578600011067465, 0.5538999976124614, 0.5646999925374985, 0.5644000193569809, 0.5659500020556152, 0.5548500048462301, 0.5698000022675842, 0.5641500174533576, 0.5690499965567142, 0.5586000042967498, 0.5653499974869192, 0.5674000130966306, 0.5682999908458441, 0.5669499805662781, 0.5694999999832362, 0.555249978788197, 0.5630000086966902, 0.5776500038336962, 0.5612999957520515, 0.5668500089086592, 0.5642499891109765, 0.5658000009134412, 0.5683499912265688, 0.5681500188075006, 0.5700500041712075, 0.5696500011254102, 0.5645499913953245, 0.5714499857276678, 0.5583000020124018, 0.5683499912265688, 0.5622500029858202, 0.5712500133085996, 0.5724499933421612, 0.5637999856844544, 0.5698500026483089, 0.5655499990098178, 0.5653499974869192, 0.5667500081472099, 0.5595500115305185, 0.5677499866578728, 0.5582500016316772, 0.5728999967686832, 0.5639999872073531, 0.5606000195257366, 0.5553499795496464, 0.5622500029858202, 0.5764500238001347, 0.5589500069618225, 0.6101000180933625, 0.5562499864026904, 0.5691499973181635, 0.5570999928750098, 0.5814000032842159, 0.5640999879688025, 0.5611499946098775, 0.5825500120408833, 0.5740000051446259, 0.5636000132653862, 0.5676499858964235, 0.5672500119544566, 0.5733500001952052, 0.5588000058196485, 0.5581000004895031, 0.5763500230386853, 0.5801500228699297, 0.5585000035353005, 0.5784000095445663, 0.5643499898724258, 0.5683999916072935, 0.5987999902572483, 0.5585000035353005, 0.6931500101927668, 0.6102999905124307, 0.5672499828506261, 0.48749998677521944, 0.6148999964352697, 0.57565001770854, 0.5644499906338751, 0.5663000047206879, 0.538699998287484, 0.5711499834433198, 0.5607999919448048, 0.5608999927062541, 0.5694499996025115, 0.5765000241808593, 0.6823499861638993, 0.5722000205423683, 0.5599500145763159, 0.5727499956265092, 0.6100000173319131, 0.5613000248558819, 0.5602999881375581, 0.5611499946098775, 0.5639500159304589, 0.5946999881416559, 0.5682999908458441, 0.5608500214293599, 0.5738000036217272, 0.5649499944411218, 0.5556000105571002, 0.5744500085711479, 0.5609000218100846, 0.5653499974869192, 0.5621000018436462, 0.5675500142388046, 0.5656499997712672, 0.578600011067465, 0.5620000010821968, 0.5586000042967498, 0.5533499934244901, 0.5629500083159655, 0.5559500132221729, 0.5675500142388046, 0.5617999995592982, 0.5646999925374985, 0.5675000138580799, 0.5655999993905425, 0.5620500014629215, 0.5579999997280538, 0.5731999990530312, 0.5637000140268356, 0.5578499985858798, 0.5620000010821968, 0.5656499997712672, 0.5667500081472099, 0.5599499854724854, 0.5670000100508332, 0.5570499924942851, 0.5731499986723065, 0.5665999779012054, 0.5710499826818705, 0.5692000268027186, 0.5641999887302518, 0.5583500023931265, 0.5671999824699014, 0.5690999969374388, 0.5650499952025712, 0.5603500176221132, 0.5636999849230051, 0.5684500210918486, 0.5807499983347952, 0.5750499840360135, 0.7430999830830842, 0.674450013320893, 0.5603000172413886, 0.5682999908458441, 0.5629500083159655, 0.5754000158049166, 0.5610999942291528, 0.5714499857276678, 0.5872999900020659, 0.5656499997712672, 0.5690500256605446, 0.5726999952457845, 0.5610999942291528, 0.5567999905906618, 0.5640999879688025, 0.5626999773085117, 0.5646499921567738, 0.5553000082727522, 0.5630500090774149, 0.5573499947786331, 0.5682000191882253, 0.5637500144075602, 0.5654999986290932, 0.5648500227835029, 0.5624000041279942, 0.5653499974869192, 0.6119000026956201, 0.5638999864459038, 0.5535499949473888, 0.5659000016748905, 0.5588500062003732, 0.5726499948650599, 0.5868499865755439, 0.5646999925374985, 0.5692000268027186, 0.5616999987978488, 0.5662000039592385, 0.5606000195257366, 0.5657500005327165, 0.5594000103883445, 0.5607499915640801, 0.5633500113617629, 0.5613499961327761, 0.5703000060748309, 0.5582500016316772, 0.5608999927062541, 0.5715500155929476, 0.5632500106003135, 0.5689499957952648, 0.5636499845422804, 0.5564999883063138, 0.5663000047206879, 0.5553500086534768, 0.5619000003207475, 0.5646999925374985, 0.5659999733325094, 0.5653999978676438, 0.5648499936796725, 0.5666000070050359, 0.5605999904219061, 0.5797999911010265, 0.555399979930371, 0.5579999997280538, 0.5576999974437058, 0.5581000004895031, 0.5783000087831169, 0.5562499864026904, 0.5720000190194696, 0.5610500229522586, 0.5561500147450715, 0.5606499908026308, 0.5626999773085117, 0.5625500052701682, 0.5665500066243112, 0.597550009842962, 0.5639000155497342, 0.5600000149570405, 0.5609999934677035, 0.5604499892797321, 0.5890000029467046, 0.6334499921649694, 0.5428500007838011, 0.5568499909713864, 0.5655499990098178, 0.5639000155497342, 0.5571999936364591, 0.5747500108554959, 0.5643999902531505, 0.5601499869953841, 0.5622000026050955, 0.5810500006191432, 0.5716499872505665, 0.5756000173278153, 0.5539999983739108, 0.5693499988410622, 0.5653999978676438, 0.589250004850328, 0.5678999878000468, 0.5649499944411218, 0.6097000150475651, 0.5608499923255295, 0.5639000155497342, 0.5732499994337559, 0.5598000134341419, 0.5870000168215483, 0.5718500178772956, 0.5746499809902161, 0.5615499976556748, 0.5676999862771481, 0.5647499929182231, 0.5734500009566545, 0.5679499881807715, 0.5659000016748905, 0.5812000017613173, 0.5639000155497342, 0.5627999780699611, 0.5706000083591789, 0.5645999917760491, 0.5740500055253506, 0.5853000038769096, 0.5645499913953245, 0.5665500066243112, 0.5641500174533576, 0.5661500035785139, 0.5705999792553484, 0.5593500100076199, 0.5671499820891768, 0.5554000090342015, 0.5601499869953841, 0.5573999951593578, 0.5618499999400228, 0.5610999942291528, 0.5692999984603375, 0.5606500199064612, 0.5820500082336366, 0.5707500095013529, 0.5682499904651195, 0.5635000125039369, 0.5629000079352409, 0.5648999940603971, 0.5583999736700207, 0.5517999816220254, 0.5682000191882253, 0.5720999906770885, 0.5582000012509525, 0.5893000052310526, 0.5561000143643469, 0.6199500057846308, 0.5667999794241041, 0.5561000143643469, 0.5672500119544566, 0.5612499953713268, 0.5680999893229455, 0.5606000195257366, 0.5590000073425472, 0.5570499924942851, 0.5639000155497342, 0.5740000051446259, 0.5594000103883445, 0.5725499941036105, 0.5652499967254698, 0.5760999920312315, 0.5736000020988286, 0.5643500189762563, 0.5628999788314104, 0.5611499946098775, 0.5743999790865928, 0.5538499972317368, 0.5633999826386571, 0.5648500227835029, 0.5604999896604568, 0.600800005486235, 0.5610999942291528, 0.5556500109378248, 0.5597000126726925, 0.5645499913953245, 0.5656499997712672, 0.5474500067066401, 0.5592000088654459, 0.6955499993637204, 0.5702000053133816, 0.5881999968551099, 0.5514500080607831, 0.5664500058628619, 0.5783500091638416, 0.5706500087399036, 0.5671000108122826, 0.5599499854724854, 0.5675499851349741, 0.5507500027306378, 0.5509500042535365, 0.6048500072211027, 0.5810500006191432, 0.5703500064555556, 0.5544500018004328, 0.5746999813709408, 0.5692999984603375, 0.5813000025227666, 0.5625500052701682, 0.5674000130966306, 0.5728999967686832, 0.5702000053133816, 0.5631500098388642, 0.5671499820891768, 0.571950018638745, 0.5685999931301922, 0.5713499849662185, 0.5605499900411814, 0.5604499892797321, 0.5744000081904233, 0.5794500175397843, 0.5646499921567738, 0.5600999866146594, 0.5580500001087785, 0.5677999870385975, 0.5617999995592982, 0.5615499976556748, 0.5609499930869788, 0.5654999986290932, 0.5683999916072935, 0.592500000493601, 0.5532499926630408, 0.5770999996457249, 0.5764999950770289, 0.5619500007014722, 0.583800021559, 0.5702500056941062, 0.5707000091206282, 0.5597999843303114, 0.586300011491403, 0.5708500102628022, 0.5620500014629215, 0.575200014282018, 0.5654999986290932, 0.5631499807350338, 0.5557500116992742, 0.5738500040024519, 0.600200000917539, 0.5741500062867999, 0.7089999853633344, 0.5622500029858202, 0.586450012633577, 0.5608999927062541, 0.5679500172846019, 0.5761499924119562, 0.5686000222340226, 0.5562000151257962, 0.5699500034097582, 0.5671500111930072, 0.5645999917760491, 0.571800017496571, 0.5642499891109765, 0.5632499814964831, 0.5675999855156988, 0.5798499914817512, 0.5651999963447452, 0.569300027564168, 0.5611499946098775, 0.5678500165231526, 0.5641999887302518, 0.5635500128846616, 0.5623000033665448, 0.5662999756168574, 0.5838500219397247, 0.5609499930869788, 0.5767999973613769, 0.5576499970629811, 0.5635999841615558, 0.5601499869953841, 0.5739999760407954, 0.5546000029426068, 0.5806999979540706, 0.5546000029426068, 0.5754999874625355, 0.5591500084847212, 0.5588499770965427, 0.5709500110242516, 0.5631000094581395, 0.5591500084847212, 0.5489999894052744, 0.5643500189762563, 0.5747000104747713, 0.5649000231642276, 0.5700000037904829, 0.5586000042967498, 0.5716999876312912, 0.5609000218100846, 0.5842999962624162, 0.5623500037472695, 0.5646999925374985, 0.5876000213902444, 0.5599499854724854, 0.5688499950338155, 0.5623000033665448, 0.5697000015061349, 0.5569500208366662, 0.5640500166919082, 0.5594500107690692, 0.5639000155497342, 0.5711500125471503, 0.5695500003639609, 0.5625000048894435, 0.5660000024363399, 0.5563499871641397, 0.5540500278584659, 0.5546000029426068, 0.5637499853037298, 0.5602000164799392, 0.5725499941036105, 0.5671500111930072, 0.5713499849662185, 0.5675499851349741, 0.5653500265907496, 0.5660500028170645, 0.5599999858532101, 0.5606500199064612, 0.5617999995592982, 0.5697000015061349, 0.5644999910145998, 0.5795500183012336, 0.7170499884523451, 0.5773500015493482, 0.5683000199496746, 0.5632499814964831, 0.5650500243064016, 0.5704000068362802, 0.5655999993905425, 0.5717000167351216, 0.5535999953281134, 0.5689499957952648, 0.5609499930869788, 0.5537999968510121, 0.5686499935109168, 0.5800499930046499, 0.5556500109378248, 0.587950024055317, 0.5571999936364591, 0.5538999976124614, 0.5642000178340822, 0.5659000016748905, 0.5720499902963638, 0.5592500092461705, 0.5660499737132341, 0.617949990555644, 0.5601999873761088, 0.5611499946098775, 0.5662500043399632, 0.5666000070050359, 0.5634999834001064, 0.5609499930869788, 0.5761500215157866, 0.5581500008702278, 0.5876999930478632, 0.5714499857276678, 0.5696500011254102, 0.5651999963447452, 0.5731499986723065, 0.5631999811157584, 0.5667000077664852, 0.5634500121232122, 0.5676999862771481, 0.5686500226147473, 0.572550023207441, 0.5927500023972243, 0.5608499923255295, 0.5576999974437058, 0.5608000210486352, 0.5697500018868595, 0.5627000064123422, 0.5645500204991549, 0.5779999773949385, 0.5539499979931861, 0.5678499874193221, 0.5702500056941062, 0.5617499991785735, 0.5662500043399632, 0.5714000144507736, 0.5690999969374388, 0.5609999934677035, 0.5661000031977892, 0.5712499842047691, 0.5524499865714461, 0.5624000041279942, 0.5529000191017985, 0.5842000246047974, 0.5668999801855534, 0.5585500039160252, 0.5692499980796129, 0.5747500108554959, 0.5699000030290335, 0.5754500161856413, 0.5629000079352409, 0.5705500079784542, 0.5662000039592385, 0.5654999986290932, 0.5603499885182828, 0.5719999899156392, 0.5706500087399036, 0.5580500001087785, 0.5628499784506857, 0.5634000117424875, 0.5624000041279942, 0.5941000126767904, 0.5661500035785139, 0.5736000020988286, 0.5619500007014722, 0.5672000115737319, 0.5626500060316175, 0.5669499805662781, 0.5711999838240445, 0.6526499928440899, 0.5708000098820776, 0.5572499940171838, 0.6910499942023307, 0.6063499895390123, 0.5664000054821372, 0.6122000049799681, 0.5600500153377652, 0.6633499870076776, 0.5567999905906618, 0.5691000260412693, 0.7144999981392175, 0.5673999839928001, 0.5573999951593578, 0.5634499830193818, 0.5581500008702278, 0.5706999800167978, 0.5557999829761684, 0.5678000161424279, 0.5638500151690096, 0.5883000267203897, 0.5735500017181039, 0.5610499938484281, 0.5699500034097582, 0.5911999905947596, 0.5570499924942851, 0.5520000122487545, 0.5621000018436462, 0.5626999773085117, 0.5682999908458441, 0.5561499856412411, 0.5594000103883445, 0.5567499902099371, 0.5643999902531505, 0.5704999784938991, 0.5625500052701682, 0.5604499892797321, 0.5664000054821372, 0.5719499895349145, 0.5620500014629215, 0.5782000080216676, 0.5683500203303993, 0.5544500018004328, 0.5566499894484878, 0.5666999786626548, 0.5670999817084521, 0.5734000005759299, 0.5644499906338751, 0.5594500107690692, 0.5576999974437058, 0.5707500095013529, 0.5631999811157584, 0.5669999809470028, 0.5797999911010265, 0.5661500035785139, 0.5715499864891171, 0.5651999963447452, 0.5666500073857605, 0.5629499792121351, 0.5706499796360731, 0.5668000085279346, 0.5568999913521111, 0.5658500012941658, 0.5523500149138272, 0.5579499993473291, 0.5588000058196485, 0.5609500221908092, 0.5650999955832958, 0.5934500077273697, 0.5894500063732266, 0.5630000086966902, 0.5743999790865928, 0.5750499840360135, 0.5643500189762563, 0.5600499862339348, 0.5620000010821968, 0.5577999982051551, 0.5798999918624759, 0.5735500017181039, 0.5604499892797321, 0.5771500000264496, 0.47360001190099865, 0.5601000157184899, 0.5667500081472099, 0.5734999722335488, 0.5749499832745641, 0.5611499946098775, 0.5594500107690692, 0.5685499927494675, 0.5474000063259155, 0.5629999795928597, 0.611449999269098, 0.5796999903395772, 0.4635499935830012, 0.5629999795928597, 0.5755499878432602, 0.5721500201616436, 0.5652499967254698, 0.5751000135205686, 0.5639999872073531, 0.5653999978676438, 0.5880999960936606, 0.5672000115737319, 0.5667000077664852, 0.5572999943979084, 0.5796999903395772, 0.5677499866578728, 0.5670999817084521, 0.5672500119544566, 0.5596000119112432, 0.5579499993473291, 0.5651499959640205, 0.5701500049326569, 0.5687499942723662, 0.5661499744746834, 0.5646499921567738, 0.5645499913953245, 0.6001500005368143, 0.5593000096268952, 0.5643499898724258, 0.5601000157184899, 0.5730499979108572, 0.5709500110242516, 0.5643999902531505, 0.5673000123351812, 0.5692499980796129, 0.5661000031977892, 0.5546000029426068, 0.5661500035785139, 0.5630000086966902, 0.562049972359091, 0.5689999961759895, 0.5647499929182231, 0.5715000152122229, 0.5686499935109168, 0.573000026633963, 0.568850024137646, 0.5724999937228858, 0.5712500133085996, 0.5652000254485756, 0.5647500220220536, 0.5599000141955912, 0.5692999984603375, 0.5440000095404685, 0.5673999839928001, 0.5655499990098178, 0.5686499935109168, 0.5631499807350338, 0.5686999938916415, 0.7097499910742044, 0.5596000119112432, 0.5685499927494675, 0.5637499853037298, 0.6067499925848097, 0.5667500081472099, 0.579650019062683, 0.5594499816652387, 0.5675499851349741, 0.5744499794673175, 0.5823499814141542, 0.5754499870818108, 0.5684000207111239, 0.5510000046342611, 0.5596999835688621, 0.6099000165704638, 0.5679500172846019, 0.5716000159736723, 0.5678499874193221, 0.5626000056508929, 0.5644999910145998, 0.5743500078096986, 0.5675999855156988, 0.5650999955832958, 0.5658000009134412, 0.5597000126726925, 0.5690499965567142, 0.5633000109810382, 0.5638000147882849, 0.5605499900411814, 0.5520000122487545, 0.5663500051014125, 0.5613500252366066, 0.5663999763783067, 0.5702500056941062, 0.5592499801423401, 0.5798500205855817, 0.5586500046774745, 0.5614999972749501, 0.5658000009134412, 0.5714500148314983, 0.5634500121232122, 0.5757500184699893, 0.5661500035785139, 0.5591000081039965, 0.5533000221475959, 0.5699000030290335, 0.5618499999400228, 0.5572499940171838, 0.5575999966822565, 0.5610999942291528, 0.5629000079352409, 0.5674499843735248, 0.5578499985858798, 0.5621500022243708, 0.5734000005759299, 0.5571999936364591, 0.5601999873761088, 0.5642500182148069, 0.5616499984171242, 0.5609999934677035, 0.5805999971926212, 0.5636500136461109, 0.5599500145763159, 0.5879999953322113, 0.5561999860219657, 0.5583500023931265, 0.5613999965135008, 0.5722999921999872, 0.5707500095013529, 0.5609499930869788, 0.5714999861083925, 0.5581000004895031, 0.5734000005759299, 0.5659500020556152, 0.5656499997712672, 0.5672500119544566, 0.5748500116169453, 0.5617499991785735, 0.5674999847542495, 0.5677999870385975, 0.5880499957129359, 0.5642000178340822, 0.5170000076759607, 0.5740000051446259, 0.7083999807946384, 0.6015000108163804, 0.6128500099293888, 0.550949975149706, 0.5730499979108572, 0.5545500025618821, 0.5982999864500016, 0.5628999788314104, 0.5597499839495867, 0.5561999860219657, 0.7126999844331294, 0.5635499837808311, 0.596199999563396, 0.5791500152554363, 0.5579499993473291, 0.5604999896604568, 0.5810000002384186, 0.6299999949987978, 0.5598500138148665, 0.5689999961759895, 0.548749987501651, 0.5635500128846616, 0.6120000034570694, 0.5691499973181635, 0.5690500256605446, 0.599749997491017, 0.5502999993041158, 0.5771500000264496, 0.5666500073857605, 0.5921499978285283, 0.5676000146195292, 0.5580500001087785, 0.5836999916937202, 0.5644499906338751, 0.5541999998968095, 0.5628000071737915, 0.5748500116169453, 0.5734000005759299, 0.5531999922823161, 0.5622000026050955, 0.5605499900411814, 0.5647499929182231, 0.5542500002775341, 0.5799499922432005, 0.5667499790433794, 0.5673499836120754, 0.5561999860219657, 0.5574499955400825, 0.5692499980796129, 0.5649999948218465, 0.5562499864026904, 0.5714000144507736, 0.5616999987978488, 0.5630500090774149, 0.5536500248126686, 0.5593499809037894, 0.5760999920312315, 0.5655499990098178, 0.5629999795928597, 0.5685499927494675, 0.5659000016748905, 0.5627000064123422, 0.5703999777324498, 0.5565000174101442, 0.5599499854724854, 0.5641500174533576, 0.5824499821756035, 0.5644000193569809, 0.5588000058196485, 0.5595500115305185, 0.5878499941900373, 0.5672500119544566, 0.5887500010430813, 0.5718999891541898, 0.5662000039592385, 0.6126000080257654, 0.5706500087399036, 0.5493999924510717, 0.5580500001087785, 0.5652499967254698, 0.5599999858532101, 0.5655999993905425, 0.5597999843303114, 0.5617999995592982, 0.5536999960895628, 0.5631000094581395, 0.5603999888990074, 0.562199973501265, 0.5588499770965427, 0.5605999904219061, 0.5596999835688621, 0.5643500189762563, 0.5687999946530908, 0.5701000045519322, 0.5678999878000468, 0.6309000018518418, 0.5598000134341419, 0.5599499854724854, 0.5681499897036701, 0.5634000117424875, 0.5805499968118966, 0.5828499852214009, 0.5573499947786331, 0.5619500007014722, 0.5570999928750098, 0.5599000141955912, 0.584100023843348, 0.5682999908458441, 0.5592500092461705, 0.5602000164799392, 0.5772500007878989, 0.5664999771397561],
  "QPU": "7000000",
  "Qubits": 10,
  "Queue durations [ms]": [0.0, 0.0, 0.0, 0.0, 0.0, 0.0, 0.0, 0.0, 0.0, 0.0, 0.0, 0.0, 0.0, 0.0, 0.0, 0.0, 0.0, 0.0, 0.0, 0.0, 0.0, 0.0, 0.0, 0.0, 0.0, 0.0, 0.0, 0.0, 0.0, 0.0, 0.0, 0.0, 0.0, 0.0, 0.0, 0.0, 0.0, 0.0, 0.0, 0.0, 0.0, 0.0, 0.0, 0.0, 0.0, 0.0, 0.0, 0.0, 0.0, 0.0, 0.0, 0.0, 0.0, 0.0, 0.0, 0.0, 0.0, 0.0, 0.0, 0.0, 0.0, 0.0, 0.0, 0.0, 0.0, 0.0, 0.0, 0.0, 0.0, 0.0, 0.0, 0.0, 0.0, 0.0, 0.0, 0.0, 0.0, 0.0, 0.0, 0.0, 0.0, 0.0, 0.0, 0.0, 0.0, 0.0, 0.0, 0.0, 0.0, 0.0, 0.0, 0.0, 0.0, 0.0, 0.0, 0.0, 0.0, 0.0, 0.0, 0.0, 0.0, 0.0, 0.0, 0.0, 0.0, 0.0, 0.0, 0.0, 0.0, 0.0, 0.0, 0.0, 0.0, 0.0, 0.0, 0.0, 0.0, 0.0, 0.0, 0.0, 0.0, 0.0, 0.0, 0.0, 0.0, 0.0, 0.0, 0.0, 0.0, 0.0, 0.0, 0.0, 0.0, 0.0, 0.0, 0.0, 0.0, 0.0, 0.0, 0.0, 0.0, 0.0, 0.0, 0.0, 0.0, 0.0, 0.0, 0.0, 0.0, 0.0, 0.0, 0.0, 0.0, 0.0, 0.0, 0.0, 0.0, 0.0, 0.0, 0.0, 0.0, 0.0, 0.0, 0.0, 0.0, 0.0, 0.0, 0.0, 0.0, 0.0, 0.0, 0.0, 0.0, 0.0, 0.0, 0.0, 0.0, 0.0, 0.0, 0.0, 0.0, 0.0, 0.0, 0.0, 0.0, 0.0, 0.0, 0.0, 0.0, 0.0, 0.0, 0.0, 0.0, 0.0, 0.0, 0.0, 0.0, 0.0, 0.0, 0.0, 0.0, 0.0, 0.0, 0.0, 0.0, 0.0, 0.0, 0.0, 0.0, 0.0, 0.0, 0.0, 0.0, 0.0, 0.0, 0.0, 0.0, 0.0, 0.0, 0.0, 0.0, 0.0, 0.0, 0.0, 0.0, 0.0, 0.0, 0.0, 0.0, 0.0, 0.0, 0.0, 0.0, 0.0, 0.0, 0.0, 0.0, 0.0, 0.0, 0.0, 0.0, 0.0, 0.0, 0.0, 0.0, 0.0, 0.0, 0.0, 0.0, 0.0, 0.0, 0.0, 0.0, 0.0, 0.0, 0.0, 0.0, 0.0, 0.0, 0.0, 0.0, 0.0, 0.0, 0.0, 0.0, 0.0, 0.0, 0.0, 0.0, 0.0, 0.0, 0.0, 0.0, 0.0, 0.0, 0.0, 0.0, 0.0, 0.0, 0.0, 0.0, 0.0, 0.0, 0.0, 0.0, 0.0, 0.0, 0.0, 0.0, 0.0, 0.0, 0.0, 0.0, 0.0, 0.0, 0.0, 0.0, 0.0, 0.0, 0.0, 0.0, 0.0, 0.0, 0.0, 0.0, 0.0, 0.0, 0.0, 0.0, 0.0, 0.0, 0.0, 0.0, 0.0, 0.0, 0.0, 0.0, 0.0, 0.0, 0.0, 0.0, 0.0, 0.0, 0.0, 0.0, 0.0, 0.0, 0.0, 0.0, 0.0, 0.0, 0.0, 0.0, 0.0, 0.0, 0.0, 0.0, 0.0, 0.0, 0.0, 0.0, 0.0, 0.0, 0.0, 0.0, 0.0, 0.0, 0.0, 0.0, 0.0, 0.0, 0.0, 0.0, 0.0, 0.0, 0.0, 0.0, 0.0, 0.0, 0.0, 0.0, 0.0, 0.0, 0.0, 0.0, 0.0, 0.0, 0.0, 0.0, 0.0, 0.0, 0.0, 0.0, 0.0, 0.0, 0.0, 0.0, 0.0, 0.0, 0.0, 0.0, 0.0, 0.0, 0.0, 0.0, 0.0, 0.0, 0.0, 0.0, 0.0, 0.0, 0.0, 0.0, 0.0, 0.0, 0.0, 0.0, 0.0, 0.0, 0.0, 0.0, 0.0, 0.0, 0.0, 0.0, 0.0, 0.0, 0.0, 0.0, 0.0, 0.0, 0.0, 0.0, 0.0, 0.0, 0.0, 0.0, 0.0, 0.0, 0.0, 0.0, 0.0, 0.0, 0.0, 0.0, 0.0, 0.0, 0.0, 0.0, 0.0, 0.0, 0.0, 0.0, 0.0, 0.0, 0.0, 0.0, 0.0, 0.0, 0.0, 0.0, 0.0, 0.0, 0.0, 0.0, 0.0, 0.0, 0.0, 0.0, 0.0, 0.0, 0.0, 0.0, 0.0, 0.0, 0.0, 0.0, 0.0, 0.0, 0.0, 0.0, 0.0, 0.0, 0.0, 0.0, 0.0, 0.0, 0.0, 0.0, 0.0, 0.0, 0.0, 0.0, 0.0, 0.0, 0.0, 0.0, 0.0, 0.0, 0.0, 0.0, 0.0, 0.0, 0.0, 0.0, 0.0, 0.0, 0.0, 0.0, 0.0, 0.0, 0.0, 0.0, 0.0, 0.0, 0.0, 0.0, 0.0, 0.0, 0.0, 0.0, 0.0, 0.0, 0.0, 0.0, 0.0, 0.0, 0.0, 0.0, 0.0, 0.0, 0.0, 0.0, 0.0, 0.0, 0.0, 0.0, 0.0, 0.0, 0.0, 0.0, 0.0, 0.0, 0.0, 0.0, 0.0, 0.0, 0.0, 0.0, 0.0, 0.0, 0.0, 0.0, 0.0, 0.0, 0.0, 0.0, 0.0, 0.0, 0.0, 0.0, 0.0, 0.0, 0.0, 0.0, 0.0, 0.0, 0.0, 0.0, 0.0, 0.0, 0.0, 0.0, 0.0, 0.0, 0.0, 0.0, 0.0, 0.0, 0.0, 0.0, 0.0, 0.0, 0.0, 0.0, 0.0, 0.0, 0.0, 0.0, 0.0, 0.0, 0.0, 0.0, 0.0, 0.0, 0.0, 0.0, 0.0, 0.0, 0.0, 0.0, 0.0, 0.0, 0.0, 0.0, 0.0, 0.0, 0.0, 0.0, 0.0, 0.0, 0.0, 0.0, 0.0, 0.0, 0.0, 0.0, 0.0, 0.0, 0.0, 0.0, 0.0, 0.0, 0.0, 0.0, 0.0, 0.0, 0.0, 0.0, 0.0, 0.0, 0.0, 0.0, 0.0, 0.0, 0.0, 0.0, 0.0, 0.0, 0.0, 0.0, 0.0, 0.0, 0.0, 0.0, 0.0, 0.0, 0.0, 0.0, 0.0, 0.0, 0.0, 0.0, 0.0, 0.0, 0.0, 0.0, 0.0, 0.0, 0.0, 0.0, 0.0, 0.0, 0.0, 0.0, 0.0, 0.0, 0.0, 0.0, 0.0, 0.0, 0.0, 0.0, 0.0, 0.0, 0.0, 0.0, 0.0, 0.0, 0.0, 0.0, 0.0, 0.0, 0.0, 0.0, 0.0, 0.0, 0.0, 0.0, 0.0, 0.0, 0.0, 0.0, 0.0, 0.0, 0.0, 0.0, 0.0, 0.0, 0.0, 0.0, 0.0, 0.0, 0.0, 0.0, 0.0, 0.0, 0.0, 0.0, 0.0, 0.0, 0.0, 0.0, 0.0, 0.0, 0.0, 0.0, 0.0, 0.0, 0.0, 0.0, 0.0, 0.0, 0.0, 0.0, 0.0, 0.0, 0.0, 0.0, 0.0, 0.0, 0.0, 0.0, 0.0, 0.0, 0.0, 0.0, 0.0, 0.0, 0.0, 0.0, 0.0, 0.0, 0.0, 0.0, 0.0, 0.0, 0.0, 0.0, 0.0, 0.0, 0.0, 0.0, 0.0, 0.0, 0.0, 0.0, 0.0, 0.0, 0.0, 0.0, 0.0, 0.0, 0.0, 0.0, 0.0, 0.0, 0.0, 0.0, 0.0, 0.0, 0.0, 0.0, 0.0, 0.0, 0.0, 0.0, 0.0, 0.0, 0.0, 0.0, 0.0, 0.0, 0.0, 0.0, 0.0, 0.0, 0.0, 0.0, 0.0, 0.0, 0.0, 0.0, 0.0, 0.0, 0.0, 0.0, 0.0, 0.0, 0.0, 0.0, 0.0, 0.0, 0.0, 0.0, 0.0, 0.0, 0.0, 0.0, 0.0, 0.0, 0.0, 0.0, 0.0, 0.0, 0.0, 0.0, 0.0, 0.0, 0.0, 0.0, 0.0, 0.0, 0.0, 0.0, 0.0, 0.0, 0.0, 0.0, 0.0, 0.0, 0.0, 0.0, 0.0, 0.0, 0.0, 0.0, 0.0, 0.0, 0.0, 0.0, 0.0, 0.0, 0.0, 0.0, 0.0, 0.0, 0.0, 0.0, 0.0, 0.0, 0.0, 0.0, 0.0, 0.0, 0.0, 0.0, 0.0, 0.0, 0.0, 0.0, 0.0, 0.0, 0.0, 0.0, 0.0, 0.0, 0.0, 0.0, 0.0, 0.0, 0.0, 0.0, 0.0, 0.0, 0.0, 0.0, 0.0, 0.0, 0.0, 0.0, 0.0, 0.0, 0.0, 0.0, 0.0, 0.0, 0.0, 0.0, 0.0, 0.0, 0.0, 0.0, 0.0, 0.0, 0.0, 0.0, 0.0, 0.0, 0.0, 0.0, 0.0, 0.0, 0.0, 0.0, 0.0, 0.0, 0.0, 0.0, 0.0, 0.0, 0.0, 0.0, 0.0, 0.0, 0.0, 0.0, 0.0, 0.0, 0.0, 0.0, 0.0, 0.0, 0.0, 0.0, 0.0, 0.0, 0.0, 0.0, 0.0, 0.0, 0.0, 0.0, 0.0, 0.0, 0.0, 0.0, 0.0, 0.0, 0.0, 0.0, 0.0, 0.0, 0.0, 0.0, 0.0, 0.0, 0.0, 0.0, 0.0, 0.0, 0.0, 0.0, 0.0, 0.0, 0.0, 0.0, 0.0, 0.0, 0.0, 0.0, 0.0, 0.0, 0.0, 0.0, 0.0, 0.0, 0.0, 0.0, 0.0, 0.0, 0.0, 0.0, 0.0, 0.0, 0.0, 0.0, 0.0, 0.0, 0.0, 0.0, 0.0, 0.0, 0.0, 0.0, 0.0, 0.0, 0.0, 0.0, 0.0, 0.0, 0.0, 0.0, 0.0, 0.0, 0.0, 0.0, 0.0, 0.0, 0.0, 0.0, 0.0, 0.0, 0.0, 0.0, 0.0, 0.0, 0.0, 0.0, 0.0, 0.0, 0.0, 0.0, 0.0, 0.0, 0.0, 0.0, 0.0, 0.0, 0.0, 0.0, 0.0, 0.0, 0.0, 0.0, 0.0, 0.0, 0.0, 0.0, 0.0, 0.0, 0.0, 0.0, 0.0, 0.0, 0.0, 0.0, 0.0, 0.0, 0.0, 0.0, 0.0, 0.0, 0.0, 0.0, 0.0, 0.0, 0.0, 0.0, 0.0, 0.0, 0.0, 0.0, 0.0, 0.0, 0.0, 0.0, 0.0, 0.0, 0.0, 0.0, 0.0, 0.0, 0.0, 0.0, 0.0, 0.0, 0.0, 0.0],
  "Shots": 4096,
  "Size": 10,
  "Total Algorithm duration [s]": 13.231,
  "Total Classic duration [s]": 12.63410289998888,
  "Total Quantum duration [s]": 0.5968971000111196
}
