{
  "Circuit execution durations [ms]": [0.5916999944020063, 0.5606500199064612, 0.5644499906338751, 0.5490000185091048, 0.5625500052701682, 0.5838999932166189, 0.5657000001519918, 0.5643999902531505, 0.5584500031545758, 0.5690999969374388, 0.5610999942291528, 0.5667500081472099, 0.5622500029858202, 0.5577499978244305, 0.5660500028170645, 0.5714500148314983, 0.5689499957952648, 0.5606499908026308, 0.5674500134773552, 0.5801499937660992, 0.5755999882239848, 0.5664999771397561, 0.5613499961327761, 0.5634000117424875, 0.5739500047639012, 0.5689499957952648, 0.5712500133085996, 0.5636000132653862, 0.5549500056076795, 0.5707500095013529, 0.5715000152122229, 0.5584500031545758, 0.5742000066675246, 0.5584000027738512, 0.589100003708154, 0.5641000170726329, 0.5645999917760491, 0.5705000075977296, 0.5797499907203019, 0.5648499936796725, 0.6119500030763447, 0.5650499952025712, 0.5715000152122229, 0.5645999917760491, 0.5597000126726925, 0.5601999873761088, 0.5607499915640801, 0.5546500033233315, 0.5699500034097582, 0.5687500233761966, 0.5565499886870384, 0.5697499727830291, 0.5742000066675246, 0.5511499766726047, 0.5680499889422208, 0.5630500090774149, 0.5673500127159059, 0.5694999999832362, 0.5552500078920275, 0.5665499775204808, 0.5626500060316175, 0.5627999780699611, 0.5616499984171242, 0.5675500142388046, 0.5681500188075006, 0.5837499920744449, 0.5570999928750098, 0.5602499877568334, 0.5660500028170645, 0.5568500200752169, 0.5630000086966902, 0.5732999998144805, 0.5631000094581395, 0.6619499763473868, 0.5992499936837703, 0.5646000208798796, 0.5607999919448048, 0.5696000007446855, 0.5564999883063138, 0.5549000052269548, 0.6653500022366643, 0.6196000031195581, 0.5663000047206879, 0.5528999899979681, 0.5638999864459038, 0.6888500065542758, 0.6107500230427831, 0.5609999934677035, 0.5621500022243708, 0.6152499991003424, 0.5801999941468239, 0.5619000003207475, 0.5653499974869192, 0.5536499957088381, 0.661700003547594, 0.5702499765902758, 0.5747499817516655, 0.5658500012941658, 0.5536999960895628, 0.5522000137716532, 0.5696000007446855, 0.5711499834433198, 0.5496499943546951, 0.5636000132653862, 0.5706000083591789, 0.5644499906338751, 0.5552500078920275, 0.5674000130966306, 0.5549000052269548, 0.5706500087399036, 0.5784500099252909, 0.5814500036649406, 0.5605999904219061, 0.5521500133909285, 0.5629000079352409, 0.575350015424192, 0.5523000145331025, 0.5582000012509525, 0.5620500014629215, 0.5595000111497939, 0.5593999812845141, 0.5680500180460513, 0.5534999945666641, 0.5712500133085996, 0.5576999974437058, 0.5570000212173909, 0.5615999980363995, 0.5661999748554081, 0.5715999868698418, 0.5711500125471503, 0.5682999908458441, 0.5559500132221729, 0.5630000086966902, 0.5599499854724854, 0.5702500056941062, 0.5689999961759895, 0.5730999982915819, 0.5557000113185495, 0.5692999984603375, 0.5696500011254102, 0.5604500183835626, 0.5568999913521111, 0.5578499985858798, 0.5696000007446855, 0.5587500054389238, 0.5569499917328358, 0.5721999914385378, 0.5774500023107976, 0.5657500005327165, 0.5635499837808311, 0.5514999793376774, 0.5658000009134412, 0.7168000156525522, 0.5647499929182231, 0.5612499953713268, 0.5571999936364591, 0.5680000176653266, 0.5828999856021255, 0.5591999797616154, 0.5681999900843948, 0.5584000027738512, 0.5623000033665448, 0.5666000070050359, 0.5808499990962446, 0.5563500162679702, 0.5623500037472695, 0.5734000005759299, 0.5588500062003732, 0.5594500107690692, 0.5507500027306378, 0.5698500026483089, 0.5641999887302518, 0.5717000167351216, 0.5582500016316772, 0.5599500145763159, 0.5536999960895628, 0.5581000004895031, 0.5684999923687428, 0.5626000056508929, 0.5608999927062541, 0.5686000222340226, 0.5662500043399632, 0.5610999942291528, 0.5575999966822565, 0.5508500034920871, 0.5555500101763755, 0.5622500029858202, 0.5560999852605164, 0.5572500231210142, 0.5607999919448048, 0.5541499995160848, 0.5611999949906021, 0.5639999872073531, 0.5598999850917608, 0.5674000130966306, 0.5723999929614365, 0.5626499769277871, 0.5648499936796725, 0.5659500020556152, 0.5699500034097582, 0.5664000054821372, 0.5609499930869788, 0.5566500185523182, 0.5785000103060156, 0.5689999961759895, 0.5679500172846019, 0.5586500046774745, 0.5626000056508929, 0.5593000096268952, 0.5651999963447452, 0.5586000042967498, 0.5606499908026308, 0.5772000004071742, 0.5540999991353601, 0.5741000059060752, 0.5607499915640801, 0.6289000157266855, 0.5622500029858202, 0.5624500045087188, 0.5716499872505665, 0.5590000073425472, 0.5701500049326569, 0.5628000071737915, 0.5645000201184303, 0.5575000250246376, 0.5591000081039965, 0.5600999866146594, 0.5622500029858202, 0.5770999996457249, 0.5632499814964831, 0.5648999940603971, 0.5975000094622374, 0.672049995046109, 0.5775000026915222, 0.5709999823011458, 0.5571999936364591, 0.5593000096268952, 0.5704500072170049, 0.5579999997280538, 0.5748999828938395, 0.5590999790001661, 0.5662500043399632, 0.5568500200752169, 0.5686499935109168, 0.5674000130966306, 0.5530999915208668, 0.558949977857992, 0.5646500212606043, 0.5534999945666641, 0.5583000020124018, 0.5570999928750098, 0.5655499990098178, 0.5564000166486949, 0.5563000158872455, 0.5687999946530908, 0.5586000042967498, 0.6061999883968383, 0.5716999876312912, 0.5656499997712672, 0.5650999955832958, 0.5623000033665448, 0.5573999951593578, 0.5589500069618225, 0.5599499854724854, 0.5631000094581395, 0.5616999987978488, 0.5619000003207475, 0.5579499993473291, 0.5579499993473291, 0.5731999990530312, 0.5642500182148069, 0.5626500060316175, 0.5548000044655055, 0.5805999971926212, 0.5584500031545758, 0.5713499849662185, 0.5616499984171242, 0.5661500035785139, 0.5646999925374985, 0.5595499824266881, 0.5611999949906021, 0.5622000026050955, 0.5640000163111836, 0.5610999942291528, 0.5587000050581992, 0.5802999949082732, 0.5536500248126686, 0.5644999910145998, 0.5541999998968095, 0.5642500182148069, 0.5757999897468835, 0.5528999899979681, 0.5669500096701086, 0.5547500040847808, 0.5636499845422804, 0.5665999779012054, 0.5734500009566545, 0.5696500011254102, 0.5614500259980559, 0.5679999885614961, 0.5613000248558819, 0.5703500064555556, 0.5665499775204808, 0.5710499826818705, 0.5565500177908689, 0.5647499929182231, 0.5611000233329833, 0.5593500100076199, 0.5725499941036105, 0.5677000153809786, 0.5651999963447452, 0.5632499814964831, 0.5796499899588525, 0.5696000007446855, 0.5528999899979681, 0.5811500013805926, 0.5660000024363399, 0.5642499891109765, 0.5596499831881374, 0.5539499979931861, 0.5617999995592982, 0.5633500113617629, 0.5707000091206282, 0.5662000039592385, 0.5706999800167978, 0.5648499936796725, 0.5576499970629811, 0.5614999972749501, 0.5719499895349145, 0.5541499995160848, 0.5642999894917011, 0.5552500078920275, 0.5702000053133816, 0.5776500038336962, 0.6374499935191125, 0.5679999885614961, 0.5609499930869788, 0.5605500191450119, 0.5661500035785139, 0.5625499761663377, 0.5615499976556748, 0.5581000004895031, 0.5536499957088381, 0.5698500026483089, 0.5548500048462301, 0.5617999995592982, 0.5669000092893839, 0.5665999779012054, 0.575350015424192, 0.5659500020556152, 0.575500016566366, 0.5689999961759895, 0.5553499795496464, 0.5744500085711479, 0.5728499963879585, 0.5627000064123422, 0.5677999870385975, 0.5611499946098775, 0.5685499927494675, 0.5716000159736723, 0.5569499917328358, 0.5712999845854938, 0.5780500068794936, 0.5737000028602779, 0.5616999987978488, 0.5747000104747713, 0.5537499964702874, 0.5571499932557344, 0.590600015129894, 0.5743499787058681, 0.5610999942291528, 0.5540999991353601, 0.5617499991785735, 0.6097499863244593, 0.5780500068794936, 0.5586000042967498, 0.5695500003639609, 0.5497999954968691, 0.5710000114049762, 0.5572499940171838, 0.5681499897036701, 0.5625000048894435, 0.5536999960895628, 0.5738500040024519, 0.5590000073425472, 0.5777000042144209, 0.5819500074721873, 0.5713000136893243, 0.5745000089518726, 0.5587500054389238, 0.5781000072602183, 0.6060499872546643, 0.6740499811712652, 0.5548000044655055, 0.5635999841615558, 0.5670500104315579, 0.5554000090342015, 0.5603499885182828, 0.5676500150002539, 0.5575999966822565, 0.5664500058628619, 0.5594999820459634, 0.5738000036217272, 0.5669500096701086, 0.5594499816652387, 0.5562500155065209, 0.5649499944411218, 0.5599500145763159, 0.5615999980363995, 0.5689999961759895, 0.5805499968118966, 0.5583500023931265, 0.5750000127591193, 0.5604499892797321, 0.5658000009134412, 0.5609999934677035, 0.5673000123351812, 0.5754999874625355, 0.5651499959640205, 0.5723500216845423, 0.5600500153377652, 0.5609999934677035, 0.5602499877568334, 0.5702999769710004, 0.5794000171590596, 0.5642499891109765, 0.5565499886870384, 0.5621000018436462, 0.5705499788746238, 0.5616999987978488, 0.5737999745178968, 0.5696500011254102, 0.5639499868266284, 0.5648000224027783, 0.5925500008743256, 0.5630499799735844, 0.5629500083159655, 0.5628500075545162, 0.7261999999172986, 0.5587000050581992, 0.5678999878000468, 0.5689999961759895, 0.5739500047639012, 0.5753999867010862, 0.5766500253230333, 0.5609000218100846, 0.5895999784115702, 0.5611499946098775, 0.5632500106003135, 0.5637499853037298, 0.5725499941036105, 0.5653999978676438, 0.5647499929182231, 0.5613499961327761, 0.5551000067498535, 0.5691999976988882, 0.5685999931301922, 0.5704000068362802, 0.5675999855156988, 0.5654499982483685, 0.5680000176653266, 0.5674999847542495, 0.5707500095013529, 0.5220500170253217, 0.7313999813050032, 0.7151000027079135, 0.7130000158213079, 1.0111000156030059, 0.5656499997712672, 0.7285499887075275, 0.6935000128578395, 0.7271500071510673, 0.7161999819800258, 0.5926000012550503, 0.7649500039406121, 0.7457500032614917, 0.7083000091370195, 0.7566999993287027, 0.7631999906152487, 0.7059000199660659, 0.758399983169511, 0.760950002586469, 0.7582500111311674, 0.5473500059451908, 0.7409000245388597, 0.7296999974641949, 0.5330500134732574, 0.7419000030495226, 0.7271000067703426, 0.7580499805044383, 0.7581000099889934, 0.7298999989870936, 0.7706500182393938, 0.7035500020720065, 0.7651000050827861, 0.5777000042144209, 0.5841999955009669, 0.592500000493601, 0.6744499842170626, 0.7347499777097255, 0.604350003413856, 0.6997000018600374, 0.582750013563782, 0.5930500046815723, 0.7307499763555825, 0.6313499761745334, 0.6870500219520181, 0.5653499974869192, 0.6378499965649098, 0.6880000000819564, 0.5926499725319445, 0.5955999949947, 0.5783499800600111, 0.596800004132092, 0.6037999992258847, 0.6444500177167356, 0.5806999979540706, 0.6064500194042921, 0.5730499979108572, 0.7438500178977847, 0.5153499951120466, 0.7353999826591462, 0.6430500070564449, 0.7168000156525522, 0.5920999974478036, 0.6205500103533268, 0.6774999783374369, 0.6747500156052411, 0.5969999765511602, 0.6173000147100538, 0.486999997519888, 0.5392000020947307, 0.6807000027038157, 0.583500019274652, 0.6569999968633056, 0.6224499957170337, 0.5765999958384782, 0.7213499920908362, 0.6485499907284975, 0.5929000035393983, 0.62444998184219, 0.5859500088263303, 0.5946999881416559, 0.5996499967295676, 0.5806999979540706, 0.668649998260662, 0.5758999905083328, 0.617649988271296, 0.5882499972358346, 0.7465999806299806, 0.6988499953877181, 0.7327999919652939, 0.6093500123824924, 0.6699000077787787, 0.604350003413856, 0.5982000147923827, 0.6975000142119825, 0.5753499863203615, 0.6253999890759587, 0.6417999975383282, 0.5682499904651195, 0.5768999981228262, 0.5880999960936606, 0.5784500099252909, 0.5674500134773552, 0.623249972704798, 0.7115000043995678, 0.5804999964311719, 0.6480999873019755, 0.5760999920312315, 0.6525999924633652, 0.5728000251110643, 0.7063999946694821, 0.5998499982524663, 0.588800001423806, 0.609199982136488, 0.684650003677234, 0.7210499898064882, 0.6930500094313174, 0.754999986384064, 0.589100003708154, 0.5766999965999275, 0.5863999831490219, 0.7684500014875084, 0.6166500097606331, 0.6567999953404069, 0.578600011067465, 0.5629499792121351, 0.6684499967377633, 0.752949999878183, 0.6888500065542758, 0.5919499963056296, 0.5777500045951456, 0.5896500078961253, 0.5740000051446259, 0.7354500121437013, 0.5731499986723065, 0.700599979609251, 0.6897000130265951, 0.5676000146195292, 0.6324499845504761, 0.7073500019032508, 0.613199983490631, 0.6221499934326857, 0.7217499951366335, 0.7436000159941614, 0.6002500012982637, 0.5775500030722469, 0.6113499985076487, 0.6057000136934221, 0.5956999957561493, 0.6971500115469098, 0.5783999804407358, 0.5678000161424279, 0.5181000160519034, 0.7143499969970435, 0.5734500009566545, 0.7587999862153083, 0.5613999965135008, 0.5708500102628022, 0.5601500160992146, 0.585550005780533, 0.6115500000305474, 0.7359000155702233, 0.7173499907366931, 0.5906500155106187, 0.7303500024136156, 0.5954999942332506, 0.5726999952457845, 0.579950021347031, 0.596800004132092, 0.5912499909754843, 0.5666500073857605, 0.5684999923687428, 0.5720999906770885, 0.5276999727357179, 0.5943999858573079, 0.5332999862730503, 0.5350499995984137, 0.6029499927535653, 0.5784500099252909, 0.5831999878864735, 0.5874499911442399, 0.6103499908931553, 0.7095999899320304, 0.6205000099726021, 0.6378000252880156, 0.6939999875612557, 0.7741999870631844, 0.6045499758329242, 0.5614499968942255, 0.5729499971494079, 0.5631500098388642, 0.5751000135205686, 0.6129499815870076, 0.5697000015061349, 0.5647499929182231, 0.5663000047206879, 0.5721999914385378, 0.5729999975301325, 0.5676500150002539, 0.5846499989274889, 0.6556499865837395, 0.4484000091906637, 0.5257500160951167, 0.49255001067649573, 0.5369000136852264, 0.5467000009957701, 0.5413999897427857, 0.548299984075129, 0.551249977434054, 0.5630500090774149, 0.5595500115305185, 0.5692999984603375, 0.5750999844167382, 0.5816499760840088, 0.5673000123351812, 0.5663500051014125, 0.5592499801423401, 0.5713499849662185, 0.5764999950770289, 0.5657500005327165, 0.5676499858964235, 0.5623500037472695, 0.5669000092893839, 0.5658500012941658, 0.5707999807782471, 0.5610999942291528, 0.5746000097133219, 0.5734500009566545, 0.5680999893229455, 0.5688499950338155, 0.5635000125039369, 0.5601499869953841, 0.5647500220220536, 0.5688999954145402, 0.5743500078096986, 0.5624000041279942, 0.6085000059101731, 0.5575999966822565, 0.5764999950770289, 0.5708999815396965, 0.5731499986723065, 0.5616499984171242, 0.5732499994337559, 0.5850000015925616, 0.5613999965135008, 0.5615999980363995, 0.5615500267595053, 0.5730499979108572, 0.5592000088654459, 0.5700500041712075, 0.5585000035353005, 0.5613999965135008, 0.5524000152945518, 0.5281500052660704, 0.5592500092461705, 0.5732499994337559, 0.5774500023107976, 0.5737500032410026, 0.7254499942064285, 0.5699000030290335, 0.5957999965175986, 0.5583500023931265, 0.5796999903395772, 0.5635500128846616, 0.596199999563396, 0.5911999905947596, 0.5724999937228858, 0.5715500155929476, 0.5673999839928001, 0.5766999965999275, 0.5562500155065209, 0.5791000148747116, 0.5613499961327761, 0.5775000026915222, 0.5582000012509525, 0.5603499885182828, 0.5607499915640801, 0.5596500122919679, 0.5734500009566545, 0.5651499959640205, 0.5696000007446855, 0.5866499850526452, 0.5657999718096107, 0.5593500100076199, 0.5716499872505665, 0.5705000075977296, 0.5601999873761088, 0.5647499929182231, 0.5627000064123422, 0.5587000050581992, 0.5748499825131148, 0.5622000026050955, 0.5810500006191432, 0.5632500106003135, 0.6045500049367547, 0.5666000070050359, 0.5627500067930669, 0.5687500233761966, 0.5589000065810978, 0.5818000063300133, 0.5686499935109168, 0.5558500124607235, 0.5644999910145998, 0.5540999991353601, 0.6070499948691577, 0.5629000079352409, 0.5642999894917011, 0.5726499948650599, 0.5613499961327761, 0.5763499939348549, 0.5605999904219061, 0.5459999956656247, 0.5595000111497939, 0.5796999903395772, 0.5632000102195889, 0.5581000004895031, 0.5749000119976699, 0.5685499927494675, 0.5659000016748905, 0.5794499884359539, 0.5787999834865332, 0.5571999936364591, 0.5850500019732863, 0.603449996560812, 0.5673500127159059, 0.5814499745611101, 0.5680000176653266, 0.5717999883927405, 0.5687999946530908, 0.5741500062867999, 0.5666500073857605, 0.5766499962192029, 0.5632499814964831, 0.5676499858964235, 0.5658500012941658, 0.5654499982483685, 0.5540499987546355, 0.5688999954145402, 0.5765000241808593, 0.5606500199064612, 0.5768499977421016, 0.5667500081472099, 0.5532500217668712, 0.5654499982483685, 0.5708500102628022, 0.5721999914385378, 0.5631999811157584, 0.5700500041712075, 0.5615499976556748, 0.5660500028170645, 0.5624000041279942, 0.5583500023931265, 0.5717999883927405, 0.5564999883063138, 0.5716000159736723, 0.5637999856844544, 0.5634500121232122, 0.5599499854724854, 0.5681000184267759],
  "Depth": 22.5,
  "Expectation Value": -11.939617156982422,
  "Optimal Expectation Value": -12.381489753723145,
  "Optimizer durations [ms]": [12.885, 12.251, 12.026, 11.968, 12.102, 12.687, 12.223, 12.262, 12.096, 12.268, 12.272, 12.009, 11.971, 11.841, 12.436, 12.474, 12.124, 12.099, 15.555, 12.116, 12.596, 12.362, 11.754, 12.34, 12.282, 12.038, 12.149, 12.052, 12.219, 12.077, 12.018, 12.051, 12.583, 12.227, 12.689, 12.415, 12.115, 12.498, 12.361, 12.347, 13.036, 12.184, 12.36, 12.093, 11.884, 12.36, 12.21, 11.852, 12.186, 12.115, 12.137, 12.291, 12.236, 12.02, 12.278, 12.103, 12.407, 12.171, 11.935, 12.447, 12.352, 12.053, 12.049, 12.212, 12.16, 12.766, 12.066, 12.237, 12.222, 11.943, 12.537, 12.388, 12.585, 14.139, 12.96, 12.25, 16.975, 12.488, 12.564, 11.819, 14.298, 13.12, 12.37, 25.031, 13.216, 14.47, 13.087, 12.298, 22.282, 13.064, 12.42, 12.311, 12.199, 28.534, 14.219, 12.297, 12.226, 12.094, 12.119, 11.904, 12.472, 12.633, 12.174, 12.284, 12.129, 12.133, 12.278, 12.332, 11.749, 12.657, 12.309, 12.52, 11.936, 11.856, 12.277, 12.186, 12.328, 12.044, 12.123, 12.151, 12.114, 12.254, 11.863, 12.235, 12.251, 12.058, 12.02, 12.198, 12.345, 12.157, 12.157, 12.302, 12.266, 12.013, 12.241, 12.428, 12.287, 11.943, 12.455, 12.562, 12.289, 12.016, 12.369, 12.463, 12.244, 12.072, 12.193, 12.401, 12.385, 12.31, 12.253, 23.973, 18.981, 12.473, 11.907, 11.892, 12.537, 12.695, 12.357, 12.647, 12.182, 12.146, 12.316, 12.608, 12.146, 11.868, 12.789, 12.223, 12.249, 11.593, 12.439, 12.237, 12.238, 12.291, 12.251, 12.071, 16.966, 12.284, 12.137, 12.235, 12.286, 12.261, 12.376, 11.924, 12.133, 12.179, 12.267, 12.004, 12.164, 12.138, 11.814, 12.313, 12.461, 12.324, 12.287, 12.551, 12.368, 11.929, 12.468, 12.428, 12.379, 12.129, 12.064, 12.513, 12.235, 12.217, 12.249, 12.37, 12.283, 12.315, 12.304, 11.963, 12.647, 11.885, 12.368, 12.203, 13.824, 11.948, 12.084, 12.429, 11.898, 12.691, 12.096, 12.517, 12.305, 12.114, 12.318, 12.062, 15.964, 12.386, 12.551, 24.108, 14.467, 12.521, 12.274, 12.077, 12.03, 12.445, 12.242, 12.607, 12.191, 12.16, 12.355, 12.12, 12.171, 12.138, 12.252, 12.039, 11.968, 12.077, 12.337, 12.482, 12.154, 12.127, 12.398, 12.236, 12.827, 12.336, 12.113, 12.487, 12.042, 12.226, 12.235, 12.191, 12.385, 11.923, 12.03, 12.027, 12.303, 12.507, 12.502, 12.232, 12.2, 12.511, 12.017, 12.507, 11.947, 12.392, 12.084, 12.277, 12.281, 11.94, 12.387, 12.361, 12.218, 12.377, 12.075, 12.222, 12.403, 12.123, 12.555, 12.112, 12.523, 11.982, 11.982, 12.177, 12.232, 12.701, 12.221, 12.186, 12.089, 12.333, 12.071, 12.493, 12.089, 12.626, 12.323, 12.12, 12.288, 12.501, 12.363, 12.237, 15.347, 12.463, 12.135, 12.834, 12.398, 12.26, 12.248, 12.161, 11.943, 11.998, 20.957, 12.056, 12.344, 13.47, 12.56, 12.057, 22.31, 12.811, 12.199, 11.995, 12.451, 25.158, 14.023, 12.362, 12.429, 12.267, 12.233, 12.234, 12.178, 12.131, 12.049, 12.2, 11.944, 12.207, 12.03, 12.03, 12.758, 12.344, 12.572, 12.182, 11.922, 12.385, 12.609, 12.412, 12.531, 12.314, 12.39, 12.696, 12.273, 12.315, 12.158, 12.671, 12.147, 12.403, 12.033, 11.847, 12.508, 12.22, 12.383, 12.211, 12.234, 12.997, 12.48, 12.172, 12.351, 11.918, 12.35, 12.297, 12.214, 12.021, 12.302, 12.364, 11.945, 12.559, 12.325, 12.143, 12.561, 11.987, 12.65, 24.032, 14.827, 12.109, 11.912, 12.448, 11.871, 12.426, 12.386, 11.926, 12.362, 11.983, 12.472, 12.287, 12.192, 11.772, 12.461, 11.845, 12.431, 12.331, 12.442, 12.046, 12.776, 11.895, 12.334, 12.296, 12.35, 12.342, 12.153, 12.292, 11.999, 12.049, 12.179, 12.545, 12.33, 12.16, 12.073, 12.271, 12.221, 12.329, 12.251, 12.269, 12.055, 12.193, 12.65, 12.173, 12.254, 12.304, 15.906, 12.184, 12.554, 11.981, 12.325, 12.239, 12.405, 12.311, 12.864, 12.172, 12.49, 12.143, 12.474, 12.495, 12.137, 11.847, 12.159, 12.202, 12.301, 12.357, 12.318, 12.4, 12.231, 12.632, 12.534, 20.2, 16.694, 17.902, 21.104, 37.245, 37.808, 16.285, 15.48, 17.001, 17.479, 13.867, 16.146, 17.532, 17.001, 15.857, 16.968, 16.431, 16.802, 16.301, 16.748, 18.478, 19.388, 16.556, 31.074, 22.824, 16.578, 26.812, 16.656, 17.329, 17.384, 19.136, 16.561, 28.548, 32.377, 14.216, 27.254, 29.69, 13.756, 18.96, 13.086, 13.459, 15.758, 13.614, 15.001, 15.856, 14.552, 15.001, 18.066, 13.001, 22.808, 14.544, 13.949, 13.743, 13.765, 13.162, 17.868, 16.194, 26.34, 29.356, 24.619, 30.629, 14.315, 27.339, 29.65, 26.521, 24.73, 24.733, 24.744, 19.769, 22.206, 26.625, 17.622, 13.716, 14.418, 15.257, 15.391, 15.178, 14.079, 13.098, 19.261, 21.62, 12.658, 17.902, 15.559, 14.076, 13.52, 16.01, 15.529, 16.859, 18.013, 18.341, 22.121, 15.544, 16.054, 12.695, 14.958, 14.302, 15.524, 13.195, 18.309, 14.682, 31.6, 13.795, 16.414, 13.058, 22.712, 13.133, 23.867, 19.589, 15.799, 15.129, 12.973, 18.39, 15.221, 16.153, 27.255, 25.007, 13.82, 14.773, 12.846, 25.493, 17.03, 19.839, 15.028, 13.607, 15.406, 27.755, 15.751, 13.074, 12.703, 12.797, 14.822, 17.258, 16.721, 20.007, 15.455, 14.039, 16.157, 15.592, 16.311, 15.2, 16.119, 16.682, 19.521, 16.719, 30.152, 17.708, 12.64, 14.802, 20.771, 12.459, 26.263, 25.358, 15.067, 18.563, 13.045, 16.948, 12.539, 16.854, 13.363, 16.287, 17.268, 14.035, 15.806, 12.901, 12.489, 12.864, 14.269, 13.202, 16.132, 19.54, 21.636, 28.447, 22.509, 22.452, 27.314, 13.692, 20.344, 14.134, 22.168, 13.229, 18.739, 13.883, 17.624, 14.968, 16.098, 20.091, 12.217, 12.325, 12.588, 12.313, 12.984, 12.45, 12.295, 12.261, 12.59, 12.172, 12.27, 16.939, 22.086, 28.408, 28.874, 29.823, 11.899, 11.691, 11.901, 12.259, 11.718, 12.593, 12.029, 12.465, 12.318, 12.4, 12.54, 12.307, 12.172, 12.483, 12.379, 11.999, 12.41, 12.476, 12.233, 12.404, 12.201, 12.387, 12.283, 12.401, 12.343, 12.431, 12.292, 11.944, 12.599, 12.16, 12.18, 12.396, 13.095, 12.112, 12.563, 14.89, 12.516, 12.116, 12.769, 12.81, 12.285, 12.076, 21.821, 12.205, 12.331, 12.106, 12.368, 12.106, 11.978, 24.025, 12.142, 12.14, 12.394, 12.412, 15.247, 15.162, 13.06, 12.004, 12.3, 12.076, 27.638, 13.004, 12.341, 12.462, 12.226, 12.33, 12.238, 12.209, 12.43, 12.391, 12.235, 12.09, 12.082, 12.44, 12.643, 12.299, 12.235, 12.971, 12.477, 12.399, 12.367, 12.367, 12.291, 12.403, 12.279, 12.162, 12.193, 12.353, 12.252, 12.047, 12.807, 12.362, 12.188, 12.13, 12.164, 12.313, 12.48, 12.138, 12.182, 11.997, 13.208, 12.043, 12.21, 12.531, 11.896, 12.569, 12.034, 11.642, 11.88, 12.563, 12.309, 12.003, 12.577, 12.174, 12.226, 12.195, 12.709, 12.089, 27.179, 13.4, 12.137, 12.483, 12.363, 12.269, 12.314, 12.389, 12.271, 12.304, 11.971, 12.367, 12.445, 12.277, 12.085, 12.276, 12.37, 12.293, 12.387, 12.399, 12.187, 12.163, 12.532, 12.297, 12.382, 17.373, 12.309, 12.273, 12.302, 11.997, 12.397, 11.998, 12.58, 12.335, 12.451, 12.278, 12.314],
  "Optimizer iterations": 821,
  "Optimizer params": [0.5768060557488753, 0.9768857503785474, 0.923195494827764, 0.9503645295236515, 0.5589862838606444, 0.05998874382295655, 0.4518662398767865, 0.4385629747193935, 0.013879351542963797, 0.7421109500852331, 0.6166515193998459, 0.37047299466923406, 0.9866365866014317, 0.9916676762002018, 0.5739365108620057, 0.7173736282322766, 0.9749007183689877, 0.12958199388523975, 0.2763239784865445, 0.9725832177486882, 0.5079691036488024, 0.5370348228860513, 0.9225713387023523, 0.07123691910111828, 0.5619719068204961, 0.5423864714768263, 0.5096927434392418, 0.009866668642922544, 0.4741765379349563, 0.22843260888606254, 0.6955145072833199, 0.43978840089741683, 0.9913700296918726, 0.4962911602274742, 0.5178089843458885, 0.5358083382477725, 0.7441050643880065, 0.7748894867801057, 0.893381539968219, 0.9017437280813951],
  "P": 0,
  "Problem": "IC",
  "QJob durations [ms]": [0.5916999944020063, 0.5606500199064612, 0.5644499906338751, 0.5490000185091048, 0.5625500052701682, 0.5838999932166189, 0.5657000001519918, 0.5643999902531505, 0.5584500031545758, 0.5690999969374388, 0.5610999942291528, 0.5667500081472099, 0.5622500029858202, 0.5577499978244305, 0.5660500028170645, 0.5714500148314983, 0.5689499957952648, 0.5606499908026308, 0.5674500134773552, 0.5801499937660992, 0.5755999882239848, 0.5664999771397561, 0.5613499961327761, 0.5634000117424875, 0.5739500047639012, 0.5689499957952648, 0.5712500133085996, 0.5636000132653862, 0.5549500056076795, 0.5707500095013529, 0.5715000152122229, 0.5584500031545758, 0.5742000066675246, 0.5584000027738512, 0.589100003708154, 0.5641000170726329, 0.5645999917760491, 0.5705000075977296, 0.5797499907203019, 0.5648499936796725, 0.6119500030763447, 0.5650499952025712, 0.5715000152122229, 0.5645999917760491, 0.5597000126726925, 0.5601999873761088, 0.5607499915640801, 0.5546500033233315, 0.5699500034097582, 0.5687500233761966, 0.5565499886870384, 0.5697499727830291, 0.5742000066675246, 0.5511499766726047, 0.5680499889422208, 0.5630500090774149, 0.5673500127159059, 0.5694999999832362, 0.5552500078920275, 0.5665499775204808, 0.5626500060316175, 0.5627999780699611, 0.5616499984171242, 0.5675500142388046, 0.5681500188075006, 0.5837499920744449, 0.5570999928750098, 0.5602499877568334, 0.5660500028170645, 0.5568500200752169, 0.5630000086966902, 0.5732999998144805, 0.5631000094581395, 0.6619499763473868, 0.5992499936837703, 0.5646000208798796, 0.5607999919448048, 0.5696000007446855, 0.5564999883063138, 0.5549000052269548, 0.6653500022366643, 0.6196000031195581, 0.5663000047206879, 0.5528999899979681, 0.5638999864459038, 0.6888500065542758, 0.6107500230427831, 0.5609999934677035, 0.5621500022243708, 0.6152499991003424, 0.5801999941468239, 0.5619000003207475, 0.5653499974869192, 0.5536499957088381, 0.661700003547594, 0.5702499765902758, 0.5747499817516655, 0.5658500012941658, 0.5536999960895628, 0.5522000137716532, 0.5696000007446855, 0.5711499834433198, 0.5496499943546951, 0.5636000132653862, 0.5706000083591789, 0.5644499906338751, 0.5552500078920275, 0.5674000130966306, 0.5549000052269548, 0.5706500087399036, 0.5784500099252909, 0.5814500036649406, 0.5605999904219061, 0.5521500133909285, 0.5629000079352409, 0.575350015424192, 0.5523000145331025, 0.5582000012509525, 0.5620500014629215, 0.5595000111497939, 0.5593999812845141, 0.5680500180460513, 0.5534999945666641, 0.5712500133085996, 0.5576999974437058, 0.5570000212173909, 0.5615999980363995, 0.5661999748554081, 0.5715999868698418, 0.5711500125471503, 0.5682999908458441, 0.5559500132221729, 0.5630000086966902, 0.5599499854724854, 0.5702500056941062, 0.5689999961759895, 0.5730999982915819, 0.5557000113185495, 0.5692999984603375, 0.5696500011254102, 0.5604500183835626, 0.5568999913521111, 0.5578499985858798, 0.5696000007446855, 0.5587500054389238, 0.5569499917328358, 0.5721999914385378, 0.5774500023107976, 0.5657500005327165, 0.5635499837808311, 0.5514999793376774, 0.5658000009134412, 0.7168000156525522, 0.5647499929182231, 0.5612499953713268, 0.5571999936364591, 0.5680000176653266, 0.5828999856021255, 0.5591999797616154, 0.5681999900843948, 0.5584000027738512, 0.5623000033665448, 0.5666000070050359, 0.5808499990962446, 0.5563500162679702, 0.5623500037472695, 0.5734000005759299, 0.5588500062003732, 0.5594500107690692, 0.5507500027306378, 0.5698500026483089, 0.5641999887302518, 0.5717000167351216, 0.5582500016316772, 0.5599500145763159, 0.5536999960895628, 0.5581000004895031, 0.5684999923687428, 0.5626000056508929, 0.5608999927062541, 0.5686000222340226, 0.5662500043399632, 0.5610999942291528, 0.5575999966822565, 0.5508500034920871, 0.5555500101763755, 0.5622500029858202, 0.5560999852605164, 0.5572500231210142, 0.5607999919448048, 0.5541499995160848, 0.5611999949906021, 0.5639999872073531, 0.5598999850917608, 0.5674000130966306, 0.5723999929614365, 0.5626499769277871, 0.5648499936796725, 0.5659500020556152, 0.5699500034097582, 0.5664000054821372, 0.5609499930869788, 0.5566500185523182, 0.5785000103060156, 0.5689999961759895, 0.5679500172846019, 0.5586500046774745, 0.5626000056508929, 0.5593000096268952, 0.5651999963447452, 0.5586000042967498, 0.5606499908026308, 0.5772000004071742, 0.5540999991353601, 0.5741000059060752, 0.5607499915640801, 0.6289000157266855, 0.5622500029858202, 0.5624500045087188, 0.5716499872505665, 0.5590000073425472, 0.5701500049326569, 0.5628000071737915, 0.5645000201184303, 0.5575000250246376, 0.5591000081039965, 0.5600999866146594, 0.5622500029858202, 0.5770999996457249, 0.5632499814964831, 0.5648999940603971, 0.5975000094622374, 0.672049995046109, 0.5775000026915222, 0.5709999823011458, 0.5571999936364591, 0.5593000096268952, 0.5704500072170049, 0.5579999997280538, 0.5748999828938395, 0.5590999790001661, 0.5662500043399632, 0.5568500200752169, 0.5686499935109168, 0.5674000130966306, 0.5530999915208668, 0.558949977857992, 0.5646500212606043, 0.5534999945666641, 0.5583000020124018, 0.5570999928750098, 0.5655499990098178, 0.5564000166486949, 0.5563000158872455, 0.5687999946530908, 0.5586000042967498, 0.6061999883968383, 0.5716999876312912, 0.5656499997712672, 0.5650999955832958, 0.5623000033665448, 0.5573999951593578, 0.5589500069618225, 0.5599499854724854, 0.5631000094581395, 0.5616999987978488, 0.5619000003207475, 0.5579499993473291, 0.5579499993473291, 0.5731999990530312, 0.5642500182148069, 0.5626500060316175, 0.5548000044655055, 0.5805999971926212, 0.5584500031545758, 0.5713499849662185, 0.5616499984171242, 0.5661500035785139, 0.5646999925374985, 0.5595499824266881, 0.5611999949906021, 0.5622000026050955, 0.5640000163111836, 0.5610999942291528, 0.5587000050581992, 0.5802999949082732, 0.5536500248126686, 0.5644999910145998, 0.5541999998968095, 0.5642500182148069, 0.5757999897468835, 0.5528999899979681, 0.5669500096701086, 0.5547500040847808, 0.5636499845422804, 0.5665999779012054, 0.5734500009566545, 0.5696500011254102, 0.5614500259980559, 0.5679999885614961, 0.5613000248558819, 0.5703500064555556, 0.5665499775204808, 0.5710499826818705, 0.5565500177908689, 0.5647499929182231, 0.5611000233329833, 0.5593500100076199, 0.5725499941036105, 0.5677000153809786, 0.5651999963447452, 0.5632499814964831, 0.5796499899588525, 0.5696000007446855, 0.5528999899979681, 0.5811500013805926, 0.5660000024363399, 0.5642499891109765, 0.5596499831881374, 0.5539499979931861, 0.5617999995592982, 0.5633500113617629, 0.5707000091206282, 0.5662000039592385, 0.5706999800167978, 0.5648499936796725, 0.5576499970629811, 0.5614999972749501, 0.5719499895349145, 0.5541499995160848, 0.5642999894917011, 0.5552500078920275, 0.5702000053133816, 0.5776500038336962, 0.6374499935191125, 0.5679999885614961, 0.5609499930869788, 0.5605500191450119, 0.5661500035785139, 0.5625499761663377, 0.5615499976556748, 0.5581000004895031, 0.5536499957088381, 0.5698500026483089, 0.5548500048462301, 0.5617999995592982, 0.5669000092893839, 0.5665999779012054, 0.575350015424192, 0.5659500020556152, 0.575500016566366, 0.5689999961759895, 0.5553499795496464, 0.5744500085711479, 0.5728499963879585, 0.5627000064123422, 0.5677999870385975, 0.5611499946098775, 0.5685499927494675, 0.5716000159736723, 0.5569499917328358, 0.5712999845854938, 0.5780500068794936, 0.5737000028602779, 0.5616999987978488, 0.5747000104747713, 0.5537499964702874, 0.5571499932557344, 0.590600015129894, 0.5743499787058681, 0.5610999942291528, 0.5540999991353601, 0.5617499991785735, 0.6097499863244593, 0.5780500068794936, 0.5586000042967498, 0.5695500003639609, 0.5497999954968691, 0.5710000114049762, 0.5572499940171838, 0.5681499897036701, 0.5625000048894435, 0.5536999960895628, 0.5738500040024519, 0.5590000073425472, 0.5777000042144209, 0.5819500074721873, 0.5713000136893243, 0.5745000089518726, 0.5587500054389238, 0.5781000072602183, 0.6060499872546643, 0.6740499811712652, 0.5548000044655055, 0.5635999841615558, 0.5670500104315579, 0.5554000090342015, 0.5603499885182828, 0.5676500150002539, 0.5575999966822565, 0.5664500058628619, 0.5594999820459634, 0.5738000036217272, 0.5669500096701086, 0.5594499816652387, 0.5562500155065209, 0.5649499944411218, 0.5599500145763159, 0.5615999980363995, 0.5689999961759895, 0.5805499968118966, 0.5583500023931265, 0.5750000127591193, 0.5604499892797321, 0.5658000009134412, 0.5609999934677035, 0.5673000123351812, 0.5754999874625355, 0.5651499959640205, 0.5723500216845423, 0.5600500153377652, 0.5609999934677035, 0.5602499877568334, 0.5702999769710004, 0.5794000171590596, 0.5642499891109765, 0.5565499886870384, 0.5621000018436462, 0.5705499788746238, 0.5616999987978488, 0.5737999745178968, 0.5696500011254102, 0.5639499868266284, 0.5648000224027783, 0.5925500008743256, 0.5630499799735844, 0.5629500083159655, 0.5628500075545162, 0.7261999999172986, 0.5587000050581992, 0.5678999878000468, 0.5689999961759895, 0.5739500047639012, 0.5753999867010862, 0.5766500253230333, 0.5609000218100846, 0.5895999784115702, 0.5611499946098775, 0.5632500106003135, 0.5637499853037298, 0.5725499941036105, 0.5653999978676438, 0.5647499929182231, 0.5613499961327761, 0.5551000067498535, 0.5691999976988882, 0.5685999931301922, 0.5704000068362802, 0.5675999855156988, 0.5654499982483685, 0.5680000176653266, 0.5674999847542495, 0.5707500095013529, 0.5220500170253217, 0.7313999813050032, 0.7151000027079135, 0.7130000158213079, 1.0111000156030059, 0.5656499997712672, 0.7285499887075275, 0.6935000128578395, 0.7271500071510673, 0.7161999819800258, 0.5926000012550503, 0.7649500039406121, 0.7457500032614917, 0.7083000091370195, 0.7566999993287027, 0.7631999906152487, 0.7059000199660659, 0.758399983169511, 0.760950002586469, 0.7582500111311674, 0.5473500059451908, 0.7409000245388597, 0.7296999974641949, 0.5330500134732574, 0.7419000030495226, 0.7271000067703426, 0.7580499805044383, 0.7581000099889934, 0.7298999989870936, 0.7706500182393938, 0.7035500020720065, 0.7651000050827861, 0.5777000042144209, 0.5841999955009669, 0.592500000493601, 0.6744499842170626, 0.7347499777097255, 0.604350003413856, 0.6997000018600374, 0.582750013563782, 0.5930500046815723, 0.7307499763555825, 0.6313499761745334, 0.6870500219520181, 0.5653499974869192, 0.6378499965649098, 0.6880000000819564, 0.5926499725319445, 0.5955999949947, 0.5783499800600111, 0.596800004132092, 0.6037999992258847, 0.6444500177167356, 0.5806999979540706, 0.6064500194042921, 0.5730499979108572, 0.7438500178977847, 0.5153499951120466, 0.7353999826591462, 0.6430500070564449, 0.7168000156525522, 0.5920999974478036, 0.6205500103533268, 0.6774999783374369, 0.6747500156052411, 0.5969999765511602, 0.6173000147100538, 0.486999997519888, 0.5392000020947307, 0.6807000027038157, 0.583500019274652, 0.6569999968633056, 0.6224499957170337, 0.5765999958384782, 0.7213499920908362, 0.6485499907284975, 0.5929000035393983, 0.62444998184219, 0.5859500088263303, 0.5946999881416559, 0.5996499967295676, 0.5806999979540706, 0.668649998260662, 0.5758999905083328, 0.617649988271296, 0.5882499972358346, 0.7465999806299806, 0.6988499953877181, 0.7327999919652939, 0.6093500123824924, 0.6699000077787787, 0.604350003413856, 0.5982000147923827, 0.6975000142119825, 0.5753499863203615, 0.6253999890759587, 0.6417999975383282, 0.5682499904651195, 0.5768999981228262, 0.5880999960936606, 0.5784500099252909, 0.5674500134773552, 0.623249972704798, 0.7115000043995678, 0.5804999964311719, 0.6480999873019755, 0.5760999920312315, 0.6525999924633652, 0.5728000251110643, 0.7063999946694821, 0.5998499982524663, 0.588800001423806, 0.609199982136488, 0.684650003677234, 0.7210499898064882, 0.6930500094313174, 0.754999986384064, 0.589100003708154, 0.5766999965999275, 0.5863999831490219, 0.7684500014875084, 0.6166500097606331, 0.6567999953404069, 0.578600011067465, 0.5629499792121351, 0.6684499967377633, 0.752949999878183, 0.6888500065542758, 0.5919499963056296, 0.5777500045951456, 0.5896500078961253, 0.5740000051446259, 0.7354500121437013, 0.5731499986723065, 0.700599979609251, 0.6897000130265951, 0.5676000146195292, 0.6324499845504761, 0.7073500019032508, 0.613199983490631, 0.6221499934326857, 0.7217499951366335, 0.7436000159941614, 0.6002500012982637, 0.5775500030722469, 0.6113499985076487, 0.6057000136934221, 0.5956999957561493, 0.6971500115469098, 0.5783999804407358, 0.5678000161424279, 0.5181000160519034, 0.7143499969970435, 0.5734500009566545, 0.7587999862153083, 0.5613999965135008, 0.5708500102628022, 0.5601500160992146, 0.585550005780533, 0.6115500000305474, 0.7359000155702233, 0.7173499907366931, 0.5906500155106187, 0.7303500024136156, 0.5954999942332506, 0.5726999952457845, 0.579950021347031, 0.596800004132092, 0.5912499909754843, 0.5666500073857605, 0.5684999923687428, 0.5720999906770885, 0.5276999727357179, 0.5943999858573079, 0.5332999862730503, 0.5350499995984137, 0.6029499927535653, 0.5784500099252909, 0.5831999878864735, 0.5874499911442399, 0.6103499908931553, 0.7095999899320304, 0.6205000099726021, 0.6378000252880156, 0.6939999875612557, 0.7741999870631844, 0.6045499758329242, 0.5614499968942255, 0.5729499971494079, 0.5631500098388642, 0.5751000135205686, 0.6129499815870076, 0.5697000015061349, 0.5647499929182231, 0.5663000047206879, 0.5721999914385378, 0.5729999975301325, 0.5676500150002539, 0.5846499989274889, 0.6556499865837395, 0.4484000091906637, 0.5257500160951167, 0.49255001067649573, 0.5369000136852264, 0.5467000009957701, 0.5413999897427857, 0.548299984075129, 0.551249977434054, 0.5630500090774149, 0.5595500115305185, 0.5692999984603375, 0.5750999844167382, 0.5816499760840088, 0.5673000123351812, 0.5663500051014125, 0.5592499801423401, 0.5713499849662185, 0.5764999950770289, 0.5657500005327165, 0.5676499858964235, 0.5623500037472695, 0.5669000092893839, 0.5658500012941658, 0.5707999807782471, 0.5610999942291528, 0.5746000097133219, 0.5734500009566545, 0.5680999893229455, 0.5688499950338155, 0.5635000125039369, 0.5601499869953841, 0.5647500220220536, 0.5688999954145402, 0.5743500078096986, 0.5624000041279942, 0.6085000059101731, 0.5575999966822565, 0.5764999950770289, 0.5708999815396965, 0.5731499986723065, 0.5616499984171242, 0.5732499994337559, 0.5850000015925616, 0.5613999965135008, 0.5615999980363995, 0.5615500267595053, 0.5730499979108572, 0.5592000088654459, 0.5700500041712075, 0.5585000035353005, 0.5613999965135008, 0.5524000152945518, 0.5281500052660704, 0.5592500092461705, 0.5732499994337559, 0.5774500023107976, 0.5737500032410026, 0.7254499942064285, 0.5699000030290335, 0.5957999965175986, 0.5583500023931265, 0.5796999903395772, 0.5635500128846616, 0.596199999563396, 0.5911999905947596, 0.5724999937228858, 0.5715500155929476, 0.5673999839928001, 0.5766999965999275, 0.5562500155065209, 0.5791000148747116, 0.5613499961327761, 0.5775000026915222, 0.5582000012509525, 0.5603499885182828, 0.5607499915640801, 0.5596500122919679, 0.5734500009566545, 0.5651499959640205, 0.5696000007446855, 0.5866499850526452, 0.5657999718096107, 0.5593500100076199, 0.5716499872505665, 0.5705000075977296, 0.5601999873761088, 0.5647499929182231, 0.5627000064123422, 0.5587000050581992, 0.5748499825131148, 0.5622000026050955, 0.5810500006191432, 0.5632500106003135, 0.6045500049367547, 0.5666000070050359, 0.5627500067930669, 0.5687500233761966, 0.5589000065810978, 0.5818000063300133, 0.5686499935109168, 0.5558500124607235, 0.5644999910145998, 0.5540999991353601, 0.6070499948691577, 0.5629000079352409, 0.5642999894917011, 0.5726499948650599, 0.5613499961327761, 0.5763499939348549, 0.5605999904219061, 0.5459999956656247, 0.5595000111497939, 0.5796999903395772, 0.5632000102195889, 0.5581000004895031, 0.5749000119976699, 0.5685499927494675, 0.5659000016748905, 0.5794499884359539, 0.5787999834865332, 0.5571999936364591, 0.5850500019732863, 0.603449996560812, 0.5673500127159059, 0.5814499745611101, 0.5680000176653266, 0.5717999883927405, 0.5687999946530908, 0.5741500062867999, 0.5666500073857605, 0.5766499962192029, 0.5632499814964831, 0.5676499858964235, 0.5658500012941658, 0.5654499982483685, 0.5540499987546355, 0.5688999954145402, 0.5765000241808593, 0.5606500199064612, 0.5768499977421016, 0.5667500081472099, 0.5532500217668712, 0.5654499982483685, 0.5708500102628022, 0.5721999914385378, 0.5631999811157584, 0.5700500041712075, 0.5615499976556748, 0.5660500028170645, 0.5624000041279942, 0.5583500023931265, 0.5717999883927405, 0.5564999883063138, 0.5716000159736723, 0.5637999856844544, 0.5634500121232122, 0.5599499854724854, 0.5681000184267759],
  "QPU": "7000000",
  "Qubits": 10,
  "Queue durations [ms]": [0.0, 0.0, 0.0, 0.0, 0.0, 0.0, 0.0, 0.0, 0.0, 0.0, 0.0, 0.0, 0.0, 0.0, 0.0, 0.0, 0.0, 0.0, 0.0, 0.0, 0.0, 0.0, 0.0, 0.0, 0.0, 0.0, 0.0, 0.0, 0.0, 0.0, 0.0, 0.0, 0.0, 0.0, 0.0, 0.0, 0.0, 0.0, 0.0, 0.0, 0.0, 0.0, 0.0, 0.0, 0.0, 0.0, 0.0, 0.0, 0.0, 0.0, 0.0, 0.0, 0.0, 0.0, 0.0, 0.0, 0.0, 0.0, 0.0, 0.0, 0.0, 0.0, 0.0, 0.0, 0.0, 0.0, 0.0, 0.0, 0.0, 0.0, 0.0, 0.0, 0.0, 0.0, 0.0, 0.0, 0.0, 0.0, 0.0, 0.0, 0.0, 0.0, 0.0, 0.0, 0.0, 0.0, 0.0, 0.0, 0.0, 0.0, 0.0, 0.0, 0.0, 0.0, 0.0, 0.0, 0.0, 0.0, 0.0, 0.0, 0.0, 0.0, 0.0, 0.0, 0.0, 0.0, 0.0, 0.0, 0.0, 0.0, 0.0, 0.0, 0.0, 0.0, 0.0, 0.0, 0.0, 0.0, 0.0, 0.0, 0.0, 0.0, 0.0, 0.0, 0.0, 0.0, 0.0, 0.0, 0.0, 0.0, 0.0, 0.0, 0.0, 0.0, 0.0, 0.0, 0.0, 0.0, 0.0, 0.0, 0.0, 0.0, 0.0, 0.0, 0.0, 0.0, 0.0, 0.0, 0.0, 0.0, 0.0, 0.0, 0.0, 0.0, 0.0, 0.0, 0.0, 0.0, 0.0, 0.0, 0.0, 0.0, 0.0, 0.0, 0.0, 0.0, 0.0, 0.0, 0.0, 0.0, 0.0, 0.0, 0.0, 0.0, 0.0, 0.0, 0.0, 0.0, 0.0, 0.0, 0.0, 0.0, 0.0, 0.0, 0.0, 0.0, 0.0, 0.0, 0.0, 0.0, 0.0, 0.0, 0.0, 0.0, 0.0, 0.0, 0.0, 0.0, 0.0, 0.0, 0.0, 0.0, 0.0, 0.0, 0.0, 0.0, 0.0, 0.0, 0.0, 0.0, 0.0, 0.0, 0.0, 0.0, 0.0, 0.0, 0.0, 0.0, 0.0, 0.0, 0.0, 0.0, 0.0, 0.0, 0.0, 0.0, 0.0, 0.0, 0.0, 0.0, 0.0, 0.0, 0.0, 0.0, 0.0, 0.0, 0.0, 0.0, 0.0, 0.0, 0.0, 0.0, 0.0, 0.0, 0.0, 0.0, 0.0, 0.0, 0.0, 0.0, 0.0, 0.0, 0.0, 0.0, 0.0, 0.0, 0.0, 0.0, 0.0, 0.0, 0.0, 0.0, 0.0, 0.0, 0.0, 0.0, 0.0, 0.0, 0.0, 0.0, 0.0, 0.0, 0.0, 0.0, 0.0, 0.0, 0.0, 0.0, 0.0, 0.0, 0.0, 0.0, 0.0, 0.0, 0.0, 0.0, 0.0, 0.0, 0.0, 0.0, 0.0, 0.0, 0.0, 0.0, 0.0, 0.0, 0.0, 0.0, 0.0, 0.0, 0.0, 0.0, 0.0, 0.0, 0.0, 0.0, 0.0, 0.0, 0.0, 0.0, 0.0, 0.0, 0.0, 0.0, 0.0, 0.0, 0.0, 0.0, 0.0, 0.0, 0.0, 0.0, 0.0, 0.0, 0.0, 0.0, 0.0, 0.0, 0.0, 0.0, 0.0, 0.0, 0.0, 0.0, 0.0, 0.0, 0.0, 0.0, 0.0, 0.0, 0.0, 0.0, 0.0, 0.0, 0.0, 0.0, 0.0, 0.0, 0.0, 0.0, 0.0, 0.0, 0.0, 0.0, 0.0, 0.0, 0.0, 0.0, 0.0, 0.0, 0.0, 0.0, 0.0, 0.0, 0.0, 0.0, 0.0, 0.0, 0.0, 0.0, 0.0, 0.0, 0.0, 0.0, 0.0, 0.0, 0.0, 0.0, 0.0, 0.0, 0.0, 0.0, 0.0, 0.0, 0.0, 0.0, 0.0, 0.0, 0.0, 0.0, 0.0, 0.0, 0.0, 0.0, 0.0, 0.0, 0.0, 0.0, 0.0, 0.0, 0.0, 0.0, 0.0, 0.0, 0.0, 0.0, 0.0, 0.0, 0.0, 0.0, 0.0, 0.0, 0.0, 0.0, 0.0, 0.0, 0.0, 0.0, 0.0, 0.0, 0.0, 0.0, 0.0, 0.0, 0.0, 0.0, 0.0, 0.0, 0.0, 0.0, 0.0, 0.0, 0.0, 0.0, 0.0, 0.0, 0.0, 0.0, 0.0, 0.0, 0.0, 0.0, 0.0, 0.0, 0.0, 0.0, 0.0, 0.0, 0.0, 0.0, 0.0, 0.0, 0.0, 0.0, 0.0, 0.0, 0.0, 0.0, 0.0, 0.0, 0.0, 0.0, 0.0, 0.0, 0.0, 0.0, 0.0, 0.0, 0.0, 0.0, 0.0, 0.0, 0.0, 0.0, 0.0, 0.0, 0.0, 0.0, 0.0, 0.0, 0.0, 0.0, 0.0, 0.0, 0.0, 0.0, 0.0, 0.0, 0.0, 0.0, 0.0, 0.0, 0.0, 0.0, 0.0, 0.0, 0.0, 0.0, 0.0, 0.0, 0.0, 0.0, 0.0, 0.0, 0.0, 0.0, 0.0, 0.0, 0.0, 0.0, 0.0, 0.0, 0.0, 0.0, 0.0, 0.0, 0.0, 0.0, 0.0, 0.0, 0.0, 0.0, 0.0, 0.0, 0.0, 0.0, 0.0, 0.0, 0.0, 0.0, 0.0, 0.0, 0.0, 0.0, 0.0, 0.0, 0.0, 0.0, 0.0, 0.0, 0.0, 0.0, 0.0, 0.0, 0.0, 0.0, 0.0, 0.0, 0.0, 0.0, 0.0, 0.0, 0.0, 0.0, 0.0, 0.0, 0.0, 0.0, 0.0, 0.0, 0.0, 0.0, 0.0, 0.0, 0.0, 0.0, 0.0, 0.0, 0.0, 0.0, 0.0, 0.0, 0.0, 0.0, 0.0, 0.0, 0.0, 0.0, 0.0, 0.0, 0.0, 0.0, 0.0, 0.0, 0.0, 0.0, 0.0, 0.0, 0.0, 0.0, 0.0, 0.0, 0.0, 0.0, 0.0, 0.0, 0.0, 0.0, 0.0, 0.0, 0.0, 0.0, 0.0, 0.0, 0.0, 0.0, 0.0, 0.0, 0.0, 0.0, 0.0, 0.0, 0.0, 0.0, 0.0, 0.0, 0.0, 0.0, 0.0, 0.0, 0.0, 0.0, 0.0, 0.0, 0.0, 0.0, 0.0, 0.0, 0.0, 0.0, 0.0, 0.0, 0.0, 0.0, 0.0, 0.0, 0.0, 0.0, 0.0, 0.0, 0.0, 0.0, 0.0, 0.0, 0.0, 0.0, 0.0, 0.0, 0.0, 0.0, 0.0, 0.0, 0.0, 0.0, 0.0, 0.0, 0.0, 0.0, 0.0, 0.0, 0.0, 0.0, 0.0, 0.0, 0.0, 0.0, 0.0, 0.0, 0.0, 0.0, 0.0, 0.0, 0.0, 0.0, 0.0, 0.0, 0.0, 0.0, 0.0, 0.0, 0.0, 0.0, 0.0, 0.0, 0.0, 0.0, 0.0, 0.0, 0.0, 0.0, 0.0, 0.0, 0.0, 0.0, 0.0, 0.0, 0.0, 0.0, 0.0, 0.0, 0.0, 0.0, 0.0, 0.0, 0.0, 0.0, 0.0, 0.0, 0.0, 0.0, 0.0, 0.0, 0.0, 0.0, 0.0, 0.0, 0.0, 0.0, 0.0, 0.0, 0.0, 0.0, 0.0, 0.0, 0.0, 0.0, 0.0, 0.0, 0.0, 0.0, 0.0, 0.0, 0.0, 0.0, 0.0, 0.0, 0.0, 0.0, 0.0, 0.0, 0.0, 0.0, 0.0, 0.0, 0.0, 0.0, 0.0, 0.0, 0.0, 0.0, 0.0, 0.0, 0.0, 0.0, 0.0, 0.0, 0.0, 0.0, 0.0, 0.0, 0.0, 0.0, 0.0, 0.0, 0.0, 0.0, 0.0, 0.0, 0.0, 0.0, 0.0, 0.0, 0.0, 0.0, 0.0, 0.0, 0.0, 0.0, 0.0, 0.0, 0.0, 0.0, 0.0, 0.0, 0.0, 0.0, 0.0, 0.0, 0.0, 0.0, 0.0, 0.0, 0.0, 0.0, 0.0, 0.0, 0.0, 0.0, 0.0, 0.0, 0.0, 0.0, 0.0, 0.0, 0.0, 0.0, 0.0, 0.0, 0.0, 0.0, 0.0, 0.0, 0.0, 0.0, 0.0, 0.0, 0.0, 0.0, 0.0, 0.0, 0.0],
  "Shots": 4096,
  "Size": 10,
  "Total Algorithm duration [s]": 11.453,
  "Total Classic duration [s]": 10.972889650109689,
  "Total Quantum duration [s]": 0.4801103498903103
}
