{
  "Circuit execution durations [ms]": [62.118817, 59.615576000000004, 72.998806, 131.211659, 91.778994, 68.492052, 60.788171000000006, 34.563519, 69.359616, 52.481933, 70.412999, 69.120401, 93.322862, 52.839189000000005, 60.832402, 69.298428, 69.12971499999999, 69.525552, 71.00229700000001, 106.51556199999999, 53.135398, 34.383453, 70.483674, 113.014943, 59.334653, 71.964036, 57.992937000000005, 55.807592, 62.758548, 49.664714, 61.819593999999995, 61.600828, 58.958016, 37.757559, 68.806319, 38.53139, 53.498113, 61.226910000000004, 59.279071, 52.762079, 53.55971, 52.530644, 92.882204, 112.656192, 64.034465, 60.760310999999994, 68.92772599999999, 70.075783, 68.887432, 67.104417, 61.379238, 68.244135, 61.631501, 60.153657, 82.628686, 70.36386, 74.26773, 60.062377, 60.054563, 58.064574, 34.590738, 68.876086, 69.830743, 50.309165, 67.16870399999999, 52.222548, 69.092354, 122.95842499999999, 50.840446, 61.241417999999996, 68.710032, 34.328809, 68.364283, 59.634836, 60.169650999999995, 68.495949, 61.606099, 68.076212, 34.133522],
  "Depth": 572.0,
  "Expectation Value": -2.7373046875,
  "Optimal Expectation Value": -3.0,
  "Optimizer durations [ms]": [7737.582, 69346.52, 7441.807, 8073.965, 8123.519, 8496.951, 63565.027, 9067.06, 7825.506, 7506.261, 10152.765, 8184.824, 8590.765, 7598.568, 7879.508, 7775.827, 69812.868, 8812.779, 20559.554, 68688.493, 6980.432, 8339.41, 8041.91, 7367.261, 10704.868, 20956.654, 67768.88, 16596.438, 7985.713, 7608.163, 12879.816, 7510.786, 65594.226, 7965.336, 7998.986, 9377.941, 8398.96, 8432.59, 7255.121, 63538.583, 8113.683, 9514.693, 7643.59, 7584.561, 9625.439, 8243.489, 8360.36, 8185.176, 7122.027, 70381.785, 8658.073, 7243.888, 9081.468, 10625.165, 7569.905, 9130.807, 9041.45, 7342.643, 34542.473, 8685.903, 7323.026, 7630.005, 8793.168, 9725.522, 8930.122, 8039.707, 6957.742, 7343.813, 8794.953, 7595.87, 21431.686, 7732.087, 8857.537, 7550.322, 10712.832, 10619.265, 7980.242, 7468.703, 7277.985],
  "Optimizer iterations": 79,
  "Optimizer params": [0.9999765661822033, 0.7210785498308737, 0.0744456441451244, 1.123223599436053e-21, 0.27835333782766286, 0.022546890448959262],
  "P": 3,
  "Problem": "MIS",
  "QJob durations [ms]": [7591.348648071289, 69092.4015045166, 7294.538497924805, 7926.913738250732, 7871.278762817383, 8345.314502716064, 63419.005155563354, 8806.989192962646, 7673.776388168335, 7358.468055725098, 9895.355224609375, 8038.262844085693, 8441.186666488647, 7346.200466156006, 7729.79474067688, 7628.413915634155, 69547.44052886963, 8664.61205482483, 20414.711952209473, 68436.86556816101, 6827.642917633057, 8195.132732391357, 7786.430597305298, 7215.609312057495, 10554.43024635315, 20697.171926498413, 67621.36387825012, 16444.549083709717, 7734.487533569336, 7458.221912384033, 12729.515552520752, 7254.208087921143, 65449.38945770264, 7820.608139038086, 7737.087965011597, 9224.093437194824, 8247.50542640686, 8176.629304885864, 7110.332012176514, 63392.815589904785, 7850.98671913147, 9370.580673217773, 7492.527723312378, 7325.300216674805, 9472.976684570313, 8100.337028503418, 8101.059198379517, 8034.830093383789, 6971.448183059692, 70119.89283561707, 8506.87026977539, 7097.426652908325, 8820.113897323608, 10481.044054031372, 7422.287702560425, 8871.971130371094, 8891.897916793823, 7196.290969848633, 34283.199071884155, 8534.589290618896, 7174.640655517578, 7371.661186218262, 8640.512228012085, 9577.634811401367, 8665.090084075928, 7894.402980804443, 6807.24024772644, 7091.487884521484, 8649.327993392944, 7442.998886108398, 21174.52073097229, 7578.787326812744, 8709.909677505493, 7290.237903594971, 10560.538530349731, 10468.869924545288, 7718.215703964233, 7319.797515869141, 7131.73508644104],
  "QPU": "4010001",
  "Qubits": 13,
  "Queue durations [ms]": [1077.0, 62367.0, 636.0, 1480.0, 1044.0, 1718.0, 1897.0, 1169.0, 980.0, 1238.0, 3058.0, 864.0, 1291.0, 1305.0, 966.0, 811.0, 62886.0, 2047.0000000000002, 956.0, 62078.0, 810.0, 1090.0, 1651.0, 548.0, 2056.0, 861.0, 61136.0, 827.0, 1163.0, 936.0, 1438.0, 894.0, 58529.0, 1223.0, 1204.0, 1264.0, 2287.0, 1510.0, 1067.0, 56449.0, 1103.0, 1457.0, 739.0, 846.0, 1366.0, 1073.0, 1926.0, 969.0, 741.0, 2374.0, 1266.0, 1252.0, 1927.0, 3398.0, 1325.0, 1136.0, 2530.0, 1362.0, 27426.0, 1040.0, 747.0, 1636.0, 647.0, 1018.0, 2586.0, 1337.0, 1264.0, 802.0, 2408.0, 1406.0, 1010.9999999999999, 1357.0, 2074.0, 1642.0, 959.0, 1014.9999999999999, 1016.9999999999999, 906.0, 657.0],
  "Shots": 4096,
  "Size": 10,
  "Total Algorithm duration [s]": 1204.003,
  "Total Classic duration [s]": 14.589656808853078,
  "Total Quantum duration [s]": 1189.4133431911469
}
