{
  "Circuit execution durations [ms]": [0.1818, 0.178, 0.1678, 0.2586, 0.1658, 0.164, 0.18359999999999999, 0.1653, 0.1564, 0.18259999999999998, 0.1658, 0.161, 0.1577, 0.1587, 0.1721, 0.1595, 0.1572, 0.1775, 0.1596, 0.1673, 0.16119999999999998, 0.1583, 0.1595, 0.159, 0.1642, 0.1594, 0.15880000000000002, 0.1564, 0.1591, 0.1574, 0.158, 0.1591, 0.1673, 0.15589999999999998, 0.1558, 0.15510000000000002, 0.1546, 0.1544, 0.1552, 0.153, 0.1535, 0.1532, 0.1547, 0.157, 0.1731, 0.161, 0.1631, 0.2082, 0.1584, 0.16019999999999998, 0.1591, 0.15589999999999998, 0.1573, 0.1545, 0.5469, 0.38939999999999997, 0.1593, 0.4708, 0.2889, 0.159, 0.1587, 0.1581, 0.1591, 0.15880000000000002, 0.1594, 0.1825, 0.1686, 0.1597, 0.1575, 0.156, 0.15589999999999998, 0.158, 0.1544],
  "Depth": 14.0,
  "Expectation Value": -1.0,
  "Optimal Expectation Value": -1.0,
  "Optimizer durations [ms]": [2.509, 2.281, 2.158, 3.089, 2.141, 2.097, 2.447, 2.112, 2.009, 2.436, 2.135, 2.06, 2.007, 2.015, 2.296, 2.093, 2.05, 2.257, 2.074, 2.212, 2.075, 2.058, 2.032, 2.029, 2.095, 2.03, 2.05, 1.997, 2.038, 2.003, 2.014, 2.021, 2.14, 2.017, 2.017, 1.985, 2.005, 1.995, 1.995, 1.973, 1.976, 1.966, 1.999, 2.005, 2.28, 2.086, 2.115, 2.58, 2.121, 2.078, 2.042, 2.092, 2.05, 2.038, 5.905, 10.98, 7.757, 5.444, 3.799, 2.035, 2.033, 2.033, 2.039, 2.018, 2.032, 2.195, 2.244, 2.072, 2.021, 2.012, 2.011, 2.07, 2.005],
  "Optimizer iterations": 73,
  "Optimizer params": [0.5465920251412002, 0.42474213270123656, 0.7946345739012838, 0.1866391770756983, 0.36212084178519266, 0.8824217778978262],
  "P": 3,
  "Problem": "MCP",
  "QJob durations [ms]": [0.1818, 0.178, 0.1678, 0.2586, 0.1658, 0.164, 0.18359999999999999, 0.1653, 0.1564, 0.18259999999999998, 0.1658, 0.161, 0.1577, 0.1587, 0.1721, 0.1595, 0.1572, 0.1775, 0.1596, 0.1673, 0.16119999999999998, 0.1583, 0.1595, 0.159, 0.1642, 0.1594, 0.15880000000000002, 0.1564, 0.1591, 0.1574, 0.158, 0.1591, 0.1673, 0.15589999999999998, 0.1558, 0.15510000000000002, 0.1546, 0.1544, 0.1552, 0.153, 0.1535, 0.1532, 0.1547, 0.157, 0.1731, 0.161, 0.1631, 0.2082, 0.1584, 0.16019999999999998, 0.1591, 0.15589999999999998, 0.1573, 0.1545, 0.5469, 0.38939999999999997, 0.1593, 0.4708, 0.2889, 0.159, 0.1587, 0.1581, 0.1591, 0.15880000000000002, 0.1594, 0.1825, 0.1686, 0.1597, 0.1575, 0.156, 0.15589999999999998, 0.158, 0.1544],
  "QPU": "7000000",
  "Qubits": 2,
  "Queue durations [ms]": [0.0, 0.0, 0.0, 0.0, 0.0, 0.0, 0.0, 0.0, 0.0, 0.0, 0.0, 0.0, 0.0, 0.0, 0.0, 0.0, 0.0, 0.0, 0.0, 0.0, 0.0, 0.0, 0.0, 0.0, 0.0, 0.0, 0.0, 0.0, 0.0, 0.0, 0.0, 0.0, 0.0, 0.0, 0.0, 0.0, 0.0, 0.0, 0.0, 0.0, 0.0, 0.0, 0.0, 0.0, 0.0, 0.0, 0.0, 0.0, 0.0, 0.0, 0.0, 0.0, 0.0, 0.0, 0.0, 0.0, 0.0, 0.0, 0.0, 0.0, 0.0, 0.0, 0.0, 0.0, 0.0, 0.0, 0.0, 0.0, 0.0, 0.0, 0.0, 0.0, 0.0],
  "Shots": 4096,
  "Size": 2,
  "Total Algorithm duration [s]": 0.177,
  "Total Classic duration [s]": 0.1640278,
  "Total Quantum duration [s]": 0.012972200000000003
}
