{
  "Circuit execution durations [ms]": [0.17809999999999998, 0.15569999999999998, 0.1546, 0.1549, 0.17320000000000002, 0.1548, 0.156, 0.1546, 0.2405, 0.15660000000000002, 0.1553, 0.1518, 0.1528, 0.1614, 0.159, 0.1587, 0.15410000000000001, 0.1532, 0.1531, 0.1535, 0.15339999999999998, 0.15330000000000002, 0.1528, 0.1854, 0.15259999999999999, 0.15430000000000002, 0.1532, 0.15330000000000002, 0.154, 0.152, 0.3235, 0.1553, 0.15330000000000002, 0.15430000000000002, 0.1831, 0.1542, 0.15259999999999999, 0.1564, 0.1548, 0.1701, 0.1583, 0.1594, 0.1598, 0.15919999999999998, 0.1606, 0.1724, 0.159, 0.1516, 0.1523, 0.157, 0.1542, 0.1528, 0.16119999999999998, 0.1527, 0.1578, 0.1529, 0.1542, 0.1532, 0.15330000000000002, 0.1514, 0.1671, 0.1552, 0.153, 0.1593, 0.1527, 0.1517, 0.1525, 0.153, 0.1815, 0.15410000000000001, 0.1528, 0.1518, 0.1519, 0.15410000000000001],
  "Depth": 14.0,
  "Expectation Value": -1.0,
  "Optimal Expectation Value": -1.0,
  "Optimizer durations [ms]": [2.448, 2.085, 2.02, 2.022, 2.236, 1.989, 2.001, 1.962, 2.898, 2.036, 2.031, 2.007, 2.01, 2.023, 2.17, 2.105, 2.014, 2.004, 2.026, 2.007, 1.986, 2.002, 1.982, 2.349, 1.991, 1.999, 1.991, 2.002, 2.036, 2.011, 3.732, 2.052, 2.02, 2.019, 2.45, 2.035, 2.007, 2.059, 2.019, 2.258, 2.113, 2.066, 2.076, 2.067, 1.946, 2.238, 2.018, 1.922, 1.949, 2.004, 1.972, 1.952, 2.054, 1.95, 2.023, 1.946, 1.955, 1.94, 1.968, 1.934, 2.115, 1.978, 1.939, 2.008, 1.935, 1.942, 1.933, 1.942, 2.242, 1.987, 1.937, 1.927, 1.949, 2.045],
  "Optimizer iterations": 74,
  "Optimizer params": [0.9880564101631971, 0.9500220220915043, 0.9735051176973454, 0.7661325363341202, 0.34655180768407184, 0.5425172938093479],
  "P": 3,
  "Problem": "MCP",
  "QJob durations [ms]": [0.17809999999999998, 0.15569999999999998, 0.1546, 0.1549, 0.17320000000000002, 0.1548, 0.156, 0.1546, 0.2405, 0.15660000000000002, 0.1553, 0.1518, 0.1528, 0.1614, 0.159, 0.1587, 0.15410000000000001, 0.1532, 0.1531, 0.1535, 0.15339999999999998, 0.15330000000000002, 0.1528, 0.1854, 0.15259999999999999, 0.15430000000000002, 0.1532, 0.15330000000000002, 0.154, 0.152, 0.3235, 0.1553, 0.15330000000000002, 0.15430000000000002, 0.1831, 0.1542, 0.15259999999999999, 0.1564, 0.1548, 0.1701, 0.1583, 0.1594, 0.1598, 0.15919999999999998, 0.1606, 0.1724, 0.159, 0.1516, 0.1523, 0.157, 0.1542, 0.1528, 0.16119999999999998, 0.1527, 0.1578, 0.1529, 0.1542, 0.1532, 0.15330000000000002, 0.1514, 0.1671, 0.1552, 0.153, 0.1593, 0.1527, 0.1517, 0.1525, 0.153, 0.1815, 0.15410000000000001, 0.1528, 0.1518, 0.1519, 0.15410000000000001],
  "QPU": "7000000",
  "Qubits": 2,
  "Queue durations [ms]": [0.0, 0.0, 0.0, 0.0, 0.0, 0.0, 0.0, 0.0, 0.0, 0.0, 0.0, 0.0, 0.0, 0.0, 0.0, 0.0, 0.0, 0.0, 0.0, 0.0, 0.0, 0.0, 0.0, 0.0, 0.0, 0.0, 0.0, 0.0, 0.0, 0.0, 0.0, 0.0, 0.0, 0.0, 0.0, 0.0, 0.0, 0.0, 0.0, 0.0, 0.0, 0.0, 0.0, 0.0, 0.0, 0.0, 0.0, 0.0, 0.0, 0.0, 0.0, 0.0, 0.0, 0.0, 0.0, 0.0, 0.0, 0.0, 0.0, 0.0, 0.0, 0.0, 0.0, 0.0, 0.0, 0.0, 0.0, 0.0, 0.0, 0.0, 0.0, 0.0, 0.0, 0.0],
  "Shots": 4096,
  "Size": 2,
  "Total Algorithm duration [s]": 0.153,
  "Total Classic duration [s]": 0.1411222,
  "Total Quantum duration [s]": 0.011877799999999994
}
