{
  "Circuit execution durations [ms]": [0.18560000000000001, 0.3074, 0.154, 0.15689999999999998, 0.17550000000000002, 0.15760000000000002, 0.1596, 0.3422, 0.16110000000000002, 0.15990000000000001, 0.15990000000000001, 0.16119999999999998, 0.1549, 0.156, 0.1547, 0.153, 0.1522, 0.1522, 0.152, 0.1528, 0.1525, 0.152, 0.163, 0.15239999999999998, 0.1521, 0.152, 0.1574, 0.1519, 0.163, 0.1675, 0.1604, 0.1595, 0.1554, 0.15689999999999998, 0.15430000000000002, 0.1578, 0.15660000000000002, 0.1531, 0.1537, 0.15430000000000002, 0.1532, 0.1685, 0.16119999999999998, 0.1624, 0.1648, 0.15510000000000002, 0.16019999999999998, 0.16019999999999998, 0.1597, 0.1591, 0.17229999999999998, 0.16469999999999999, 0.161, 0.1549, 0.15259999999999999, 0.15239999999999998, 0.1531, 0.153, 0.15919999999999998, 0.1521, 0.1531, 0.1547, 0.1522, 0.1548, 0.1522, 0.154, 0.1547, 0.1522, 0.1553, 0.15569999999999998, 0.1548, 0.152, 0.1531, 0.15430000000000002, 0.15990000000000001],
  "Depth": 14.0,
  "Expectation Value": -1.0,
  "Optimal Expectation Value": -1.0,
  "Optimizer durations [ms]": [2.665, 3.604, 2.043, 2.047, 2.327, 2.068, 2.086, 3.937, 2.112, 2.1, 2.113, 2.158, 2.015, 2.078, 2.02, 1.996, 2.009, 1.981, 1.976, 2.013, 1.98, 1.975, 2.112, 2.002, 1.994, 1.977, 2.062, 1.996, 3.072, 2.192, 2.105, 2.134, 2.036, 2.072, 1.981, 2.024, 2.042, 2.014, 1.997, 2.014, 1.991, 2.223, 2.127, 2.166, 2.191, 2.039, 2.141, 2.09, 2.103, 2.069, 2.282, 2.154, 2.152, 2.037, 2.014, 2.014, 2.028, 1.995, 2.002, 1.972, 1.993, 2.049, 1.956, 1.995, 1.939, 1.995, 2.038, 2.046, 2.04, 2.024, 2.012, 2.003, 2.06, 2.01, 2.095],
  "Optimizer iterations": 75,
  "Optimizer params": [0.7440595326802749, 0.2889841909698124, 0.892982964159381, 0.5998140517985422, 0.5385004211964839, 0.3650069569874008],
  "P": 3,
  "Problem": "MCP",
  "QJob durations [ms]": [0.18560000000000001, 0.3074, 0.154, 0.15689999999999998, 0.17550000000000002, 0.15760000000000002, 0.1596, 0.3422, 0.16110000000000002, 0.15990000000000001, 0.15990000000000001, 0.16119999999999998, 0.1549, 0.156, 0.1547, 0.153, 0.1522, 0.1522, 0.152, 0.1528, 0.1525, 0.152, 0.163, 0.15239999999999998, 0.1521, 0.152, 0.1574, 0.1519, 0.163, 0.1675, 0.1604, 0.1595, 0.1554, 0.15689999999999998, 0.15430000000000002, 0.1578, 0.15660000000000002, 0.1531, 0.1537, 0.15430000000000002, 0.1532, 0.1685, 0.16119999999999998, 0.1624, 0.1648, 0.15510000000000002, 0.16019999999999998, 0.16019999999999998, 0.1597, 0.1591, 0.17229999999999998, 0.16469999999999999, 0.161, 0.1549, 0.15259999999999999, 0.15239999999999998, 0.1531, 0.153, 0.15919999999999998, 0.1521, 0.1531, 0.1547, 0.1522, 0.1548, 0.1522, 0.154, 0.1547, 0.1522, 0.1553, 0.15569999999999998, 0.1548, 0.152, 0.1531, 0.15430000000000002, 0.15990000000000001],
  "QPU": "7000000",
  "Qubits": 2,
  "Queue durations [ms]": [0.0, 0.0, 0.0, 0.0, 0.0, 0.0, 0.0, 0.0, 0.0, 0.0, 0.0, 0.0, 0.0, 0.0, 0.0, 0.0, 0.0, 0.0, 0.0, 0.0, 0.0, 0.0, 0.0, 0.0, 0.0, 0.0, 0.0, 0.0, 0.0, 0.0, 0.0, 0.0, 0.0, 0.0, 0.0, 0.0, 0.0, 0.0, 0.0, 0.0, 0.0, 0.0, 0.0, 0.0, 0.0, 0.0, 0.0, 0.0, 0.0, 0.0, 0.0, 0.0, 0.0, 0.0, 0.0, 0.0, 0.0, 0.0, 0.0, 0.0, 0.0, 0.0, 0.0, 0.0, 0.0, 0.0, 0.0, 0.0, 0.0, 0.0, 0.0, 0.0, 0.0, 0.0, 0.0],
  "Shots": 4096,
  "Size": 2,
  "Total Algorithm duration [s]": 0.159,
  "Total Classic duration [s]": 0.1468728,
  "Total Quantum duration [s]": 0.012127200000000003
}
