{
  "Depth": 401.0,
  "Expectation Value": -1.95166015625,
  "Job durations [ms]": [87.498, 86.848, 166.333, 85.952, 86.326, 85.756, 86.137, 86.122, 86.006, 86.033, 86.187, 87.938, 162.25400000000002, 86.05699999999999, 86.343, 85.79599999999999, 85.84400000000001, 86.075, 85.785, 85.79100000000001, 86.28099999999999, 86.088, 86.31400000000001, 162.238, 85.654, 85.777, 86.518, 86.446, 86.09700000000001, 86.357, 85.575, 86.027, 86.12, 85.733, 162.186, 86.06400000000001, 86.194, 86.149, 86.279, 86.29299999999999, 86.00399999999999, 85.83, 86.44300000000001, 86.544, 86.369, 162.21099999999998, 86.43, 86.037, 86.497, 86.321, 86.23899999999999, 85.84700000000001, 86.29599999999999, 85.771, 85.878, 85.962, 161.37699999999998, 85.74900000000001, 85.95, 86.40100000000001, 85.899, 86.065, 85.828, 85.464, 86.747, 85.90100000000001, 85.898, 162.06300000000002, 85.997, 86.17, 86.907, 86.10600000000001, 85.78099999999999, 86.148, 85.553, 86.018, 86.438, 86.073, 161.882, 85.79199999999999, 85.91699999999999, 85.991, 86.113, 86.098, 85.925, 85.866, 86.66799999999999, 86.346, 86.51100000000001, 161.61, 86.506, 86.27, 86.194, 85.74, 86.253, 85.813, 86.338, 86.48100000000001, 86.581, 86.145, 162.041, 86.047, 86.175, 86.18599999999999, 86.008, 85.865, 86.159, 85.56099999999999, 86.43199999999999, 86.39, 86.06800000000001, 163.908, 86.047, 86.688],
  "Optimal Expectation Value": -2.0,
  "Optimizer durations [ms]": [110.072, 109.286, 188.499, 107.312, 107.667, 106.843, 107.169, 107.426, 107.489, 107.53, 107.388, 109.182, 183.573, 107.41, 107.586, 106.74, 106.975, 107.283, 107.216, 107.209, 109.137, 107.351, 107.595, 183.576, 106.891, 107.139, 108.062, 107.702, 107.481, 107.564, 106.834, 107.318, 107.301, 106.871, 183.664, 107.49, 107.487, 107.486, 107.728, 107.55, 107.076, 107.098, 107.704, 107.956, 107.9, 183.755, 107.716, 107.146, 107.615, 107.514, 107.69, 107.089, 107.803, 107.299, 107.238, 107.225, 182.752, 106.855, 107.272, 107.515, 107.071, 107.313, 107.281, 106.739, 108.944, 107.204, 107.03, 183.398, 107.213, 107.429, 108.605, 107.307, 107.008, 107.202, 106.839, 107.2, 107.624, 107.206, 183.267, 107.33, 107.237, 107.164, 107.36, 107.307, 107.168, 107.43, 107.797, 107.462, 107.975, 183.163, 107.903, 107.757, 107.31, 106.674, 107.587, 107.083, 108.136, 108.028, 108.005, 107.361, 183.503, 107.268, 107.359, 107.462, 107.144, 107.028, 107.7, 106.866, 107.602, 107.511, 107.048, 185.062, 107.635, 108.127],
  "Optimizer iterations": 114,
  "Optimizer params": [0.43087050512631864, 0.8315779672124071, 0.7347615064405447, 0.3861958340924604, 0.6090605392500542, 0.571170480010219],
  "P": 3,
  "Problem": "MIS",
  "QPU": "9000001",
  "Qubits": 10,
  "Shots": 4096,
  "Size": 7,
  "Total Algorithm duration [s]": 13.094,
  "Total Classic duration [s]": 2.432701999999999,
  "Total Quantum duration [s]": 10.661298
}
