{
  "Circuit execution durations [ms]": [63.85815143585205, 64.33725357055664, 62.888503074645996, 63.96162509918213, 92.82732009887695, 89.3704891204834, 63.103437423706055, 63.7211799621582, 64.5895004272461, 65.47081470489502, 64.44144248962402, 63.70651721954346, 63.86375427246094, 93.01364421844482, 63.37690353393555, 65.05358219146729, 66.93720817565918, 65.03045558929443, 69.49937343597412, 64.46874141693115, 69.61798667907715, 90.21854400634766, 63.46786022186279, 62.71970272064209, 63.889384269714355, 65.42253494262695, 62.73996829986572, 64.47029113769531, 63.29452991485596, 87.96823024749756, 62.25383281707764, 64.90552425384521, 63.16864490509033, 65.46258926391602, 61.86032295227051, 63.3925199508667, 62.97564506530762, 89.18213844299316, 62.064528465270996, 64.14556503295898, 63.00079822540283, 64.58914279937744, 63.07244300842285, 65.24777412414551, 65.86110591888428, 86.86268329620361, 62.62314319610596, 62.841057777404785, 63.25352191925049, 63.26162815093994, 62.13343143463135, 64.80205059051514, 102.87773609161377, 90.26241302490234, 65.71590900421143, 62.08467483520508, 64.4599199295044, 62.206387519836426, 62.68894672393799, 65.12260437011719, 65.54186344146729, 90.03889560699463, 62.7598762512207, 65.46509265899658, 63.196659088134766, 65.1775598526001, 64.88978862762451, 64.3233060836792, 90.29614925384521, 87.77177333831787, 63.88723850250244, 62.49403953552246, 63.918113708496094, 65.5057430267334, 65.10937213897705, 62.03901767730713, 89.50459957122803, 91.46559238433838, 64.7515058517456, 66.09272956848145, 64.60285186767578, 64.15736675262451, 61.9887113571167, 64.87393379211426, 63.73155117034912, 89.94686603546143, 64.01443481445313, 63.623666763305664, 65.97292423248291, 62.88588047027588, 66.41769409179688, 64.71776962280273, 90.18921852111816, 91.01343154907227, 63.7589693069458, 62.708258628845215, 61.76900863647461, 63.007235527038574, 64.21256065368652, 63.55273723602295, 90.74723720550537, 89.50591087341309, 63.83049488067627, 62.68298625946045, 63.78304958343506, 61.952829360961914, 63.018202781677246, 63.26019763946533, 88.62829208374023, 88.99283409118652, 64.36240673065186, 62.06929683685303, 62.55459785461426, 63.083767890930176, 63.87031078338623, 61.913132667541504, 64.45634365081787, 87.54229545593262, 63.80259990692139, 67.60144233703613, 67.01052188873291, 64.85676765441895, 62.214016914367676, 64.86642360687256, 63.74382972717285, 88.48202228546143, 64.86690044403076, 65.3151273727417, 64.88752365112305, 63.651204109191895, 62.51239776611328, 62.76249885559082, 89.74409103393555, 90.01219272613525, 64.919114112854, 64.52131271362305, 63.62879276275635, 63.944458961486816, 63.69030475616455, 65.5895471572876, 89.69593048095703, 91.52019023895264, 61.38885021209717, 64.9176836013794, 62.88027763366699, 63.95840644836426, 63.91501426696777, 63.17293643951416, 64.64922428131104, 89.92648124694824, 63.29166889190674, 64.78309631347656, 65.03927707672119, 62.82234191894531, 65.26041030883789, 62.360286712646484, 89.44523334503174, 91.22467041015625, 64.37337398529053, 69.0220594406128, 68.74096393585205, 67.9774284362793, 68.20070743560791, 68.43125820159912, 91.68577194213867, 96.86172008514404, 65.9407377243042, 70.31393051147461, 68.55571269989014, 68.42708587646484, 71.5489387512207, 76.1115550994873, 98.22142124176025, 93.96135807037354, 64.56160545349121, 65.22464752197266, 64.77999687194824, 65.09602069854736, 62.30151653289795, 62.4237060546875, 64.46218490600586, 93.84500980377197, 63.88700008392334, 63.707590103149414, 63.39001655578613, 63.713908195495605, 64.56613540649414, 62.69252300262451, 88.95981311798096, 87.71204948425293, 63.15875053405762, 63.12847137451172, 62.186241149902344, 63.32957744598389, 63.321471214294434, 63.23349475860596, 63.70854377746582, 89.71142768859863, 61.74576282501221, 63.42148780822754, 63.21513652801514, 63.870787620544434, 65.96016883850098, 62.874674797058105, 62.76106834411621, 90.01719951629639, 64.48376178741455, 63.321590423583984, 64.53394889831543, 62.039732933044434, 61.95628643035889, 64.20159339904785, 88.96386623382568, 90.18731117248535, 62.248945236206055, 61.00773811340332, 63.47072124481201, 64.72420692443848, 65.32514095306396, 64.50164318084717, 64.08631801605225, 89.50090408325195, 63.934326171875, 65.6203031539917, 61.434149742126465, 63.160061836242676, 63.735127449035645, 65.53828716278076, 96.2364673614502, 95.69406509399414, 62.40582466125488, 61.51378154754639, 63.09151649475098, 62.92366981506348, 62.53337860107422, 65.15026092529297, 63.97724151611328, 92.38767623901367, 63.88258934020996, 65.38450717926025, 64.54348564147949, 64.3460750579834, 63.385725021362305, 63.38858604431152, 90.2940034866333, 87.89396286010742, 66.19679927825928, 62.053799629211426, 66.05517864227295, 62.521934509277344, 60.87791919708252, 63.018083572387695, 65.13023376464844, 88.24121952056885, 61.83207035064697, 62.68143653869629, 62.499046325683594, 62.90459632873535, 63.625454902648926, 67.26312637329102, 64.06545639038086, 89.60294723510742, 60.76765060424805, 62.97779083251953, 63.13037872314453, 62.49392032623291, 62.744975090026855, 60.584068298339844, 61.43677234649658, 88.53781223297119, 64.15987014770508, 63.26305866241455, 64.16308879852295, 63.87472152709961, 65.1860237121582, 64.9031400680542, 61.564087867736816, 89.18488025665283, 64.8047924041748, 65.93573093414307, 63.24195861816406, 63.2777214050293, 64.58640098571777, 62.50596046447754, 90.41023254394531, 90.3937816619873, 64.27741050720215, 63.13765048980713, 62.241435050964355, 64.64540958404541, 63.9495849609375, 62.6828670501709, 88.29057216644287, 91.00627899169922, 61.480164527893066, 64.19742107391357, 61.498165130615234, 63.73417377471924, 62.87229061126709, 61.93137168884277, 61.05315685272217, 88.20593357086182, 62.70921230316162, 62.98184394836426, 62.004804611206055, 64.31138515472412, 64.22293186187744, 65.29700756072998, 65.67955017089844, 88.99641036987305, 63.45999240875244, 64.1394853591919, 62.18838691711426, 61.644673347473145, 63.41385841369629, 64.54610824584961, 91.6529893875122, 89.11716938018799, 62.43896484375, 62.99412250518799, 63.55607509613037, 62.09075450897217, 63.36963176727295, 62.728047370910645, 89.93744850158691, 88.91212940216064, 64.28074836730957, 63.22753429412842, 63.27211856842041, 65.89055061340332, 65.20462036132813, 65.25599956512451, 89.30587768554688, 91.3010835647583, 64.38744068145752, 64.6895170211792, 65.11735916137695, 61.5692138671875, 64.06748294830322, 62.33084201812744, 93.33086013793945, 88.61160278320313, 61.93840503692627, 65.57726860046387, 64.8878812789917, 64.85486030578613, 63.86613845825195, 62.37924098968506, 91.43340587615967, 90.3092622756958, 62.5535249710083, 62.54923343658447, 66.36357307434082, 62.43312358856201, 65.11354446411133, 62.92581558227539, 88.6160135269165, 87.9971981048584, 63.518643379211426, 64.23282623291016, 64.14163112640381, 60.93621253967285, 67.21901893615723, 63.7669563293457, 87.89801597595215, 89.45024013519287, 64.88120555877686, 63.379645347595215],
  "Depth": 14.5,
  "Expectation Value": -4.392578125,
  "Optimal Expectation Value": -7.296229839324951,
  "Optimizer durations [ms]": [684.022, 632.132, 634.033, 679.542, 645.561, 692.009, 636.167, 642.757, 688.356, 634.77, 646.643, 691.502, 636.889, 704.435, 642.793, 646.379, 711.349, 649.113, 691.673, 727.59, 695.445, 690.124, 638.642, 640.202, 679.541, 639.539, 636.134, 680.753, 621.962, 687.318, 633.103, 636.217, 681.981, 635.809, 633.548, 681.167, 624.84, 691.101, 631.809, 635.823, 683.82, 630.117, 633.245, 689.299, 631.483, 679.414, 628.94, 631.687, 677.353, 628.916, 628.544, 677.129, 695.042, 704.043, 637.006, 640.864, 682.918, 642.482, 633.344, 693.987, 637.957, 686.911, 637.862, 640.542, 686.618, 635.97, 634.758, 682.465, 638.298, 684.909, 633.318, 638.39, 685.254, 638.633, 643.274, 669.599, 637.266, 693.599, 651.939, 661.027, 686.78, 629.715, 634.79, 691.949, 632.145, 700.409, 636.05, 637.896, 685.189, 626.454, 640.105, 675.634, 646.622, 687.462, 636.444, 634.721, 672.276, 630.062, 636.16, 679.125, 636.801, 685.023, 629.553, 634.21, 682.564, 623.15, 633.876, 673.655, 633.697, 690.68, 636.628, 631.833, 683.023, 630.919, 632.148, 675.9, 625.821, 681.051, 629.984, 648.536, 686.43, 625.825, 628.578, 681.701, 631.542, 680.873, 634.884, 640.847, 684.266, 629.445, 632.616, 690.237, 639.581, 687.05, 633.089, 640.986, 681.126, 642.401, 632.588, 693.903, 648.327, 706.419, 638.725, 646.04, 683.652, 642.719, 639.711, 688.512, 661.915, 698.818, 641.885, 641.268, 687.419, 626.391, 640.855, 676.329, 644.197, 702.926, 652.458, 665.056, 727.884, 655.045, 656.934, 705.525, 668.314, 739.246, 668.754, 686.102, 714.796, 660.545, 683.499, 734.137, 710.771, 741.476, 639.561, 639.13, 694.775, 636.72, 634.002, 677.607, 626.322, 696.078, 634.935, 631.281, 685.459, 631.635, 630.824, 674.545, 640.933, 683.269, 630.071, 640.972, 673.424, 628.374, 638.233, 678.121, 633.115, 687.828, 627.528, 639.982, 685.187, 631.913, 640.685, 674.897, 623.876, 686.648, 635.123, 640.193, 685.954, 632.387, 632.674, 677.843, 639.941, 686.932, 630.436, 634.755, 689.213, 631.094, 641.586, 681.96, 630.448, 688.359, 633.581, 641.335, 680.645, 637.022, 649.937, 692.057, 658.276, 705.62, 637.523, 635.557, 686.367, 628.18, 645.035, 688.286, 638.695, 3875.108, 639.997, 641.59, 687.018, 643.164, 2932.183, 682.026, 639.857, 682.448, 639.086, 633.618, 704.42, 627.054, 626.704, 674.324, 630.311, 684.526, 628.086, 631.064, 673.871, 624.076, 628.035, 682.243, 624.518, 682.984, 622.956, 630.348, 679.881, 627.719, 632.151, 669.794, 619.97, 679.397, 631.721, 633.888, 687.847, 629.131, 643.903, 680.434, 622.346, 686.356, 633.406, 640.743, 687.334, 627.77, 636.616, 676.582, 636.135, 690.022, 635.224, 636.882, 682.098, 631.871, 633.386, 672.022, 634.056, 692.105, 627.477, 637.7, 681.521, 629.017, 632.622, 674.369, 623.188, 682.332, 635.741, 636.963, 680.177, 630.817, 632.613, 681.907, 630.787, 686.075, 633.614, 640.207, 680.724, 630.959, 633.481, 681.612, 642.109, 687.396, 630.799, 637.304, 680.133, 628.716, 631.315, 677.088, 640.261, 688.78, 634.792, 636.125, 678.706, 636.555, 639.975, 703.835, 638.045, 700.349, 656.69, 649.699, 695.965, 637.273, 639.749, 673.651, 654.943, 696.872, 636.596, 643.325, 693.852, 636.04, 637.499, 680.876, 643.619, 689.365, 634.589, 635.605, 688.92, 632.45, 637.041, 674.785, 641.013, 683.782, 634.682, 652.647, 689.412, 625.268, 644.645, 682.272, 633.709, 687.375, 636.117, 644.252],
  "Optimizer iterations": 368,
  "Optimizer params": [0.5825398028923805, 0.9265330877530947, 0.5425305430126502, 0.37917644428684083, 0.5240880252558918, 0.6082541890478631, 0.6379158936473937, 0.21636292578704425, 0.6167446310991574, 0.18820554581601862, 0.9167143588476263, 0.6595235753243909, 0.5029299015902684, 0.5705151345199588, 0.4443670678995954, 0.07561114844615513, 0.05492594555988395, 0.9335125511506301, 0.9737915322244929, 0.18299711081059356, 0.1854968535926332, 0.5631905048342345, 0.5743010185864362, 0.6731965051641069],
  "P": 0,
  "Problem": "IC",
  "QJob durations [ms]": [96.47881984710693, 97.74255752563477, 95.67046165466309, 96.85063362121582, 126.00886821746826, 123.68381023406982, 96.94039821624756, 96.24803066253662, 98.3586311340332, 98.00207614898682, 97.93686866760254, 97.41318225860596, 96.85337543487549, 126.56998634338379, 97.23269939422607, 98.85609149932861, 100.18551349639893, 98.65295886993408, 105.49342632293701, 98.61195087432861, 105.94367980957031, 122.87533283233643, 97.07796573638916, 95.49474716186523, 96.63558006286621, 98.2588529586792, 95.56829929351807, 97.75662422180176, 95.75045108795166, 120.83923816680908, 95.29459476470947, 97.38290309906006, 95.52204608917236, 98.64175319671631, 94.31314468383789, 96.22561931610107, 95.60298919677734, 121.95062637329102, 94.76041793823242, 96.7872142791748, 96.4045524597168, 97.46623039245605, 95.48687934875488, 98.20640087127686, 98.44517707824707, 119.70984935760498, 94.88356113433838, 95.48354148864746, 95.04950046539307, 96.12894058227539, 94.8646068572998, 97.42069244384766, 146.3935375213623, 123.57854843139648, 98.65701198577881, 95.43192386627197, 96.99785709381104, 94.12121772766113, 95.7326889038086, 98.93798828125, 98.6790657043457, 122.66433238983154, 96.75455093383789, 98.45507144927979, 95.69871425628662, 97.3445177078247, 97.8240966796875, 96.93324565887451, 123.0921745300293, 120.94390392303467, 96.97985649108887, 95.56472301483154, 96.56345844268799, 98.13106060028076, 99.42042827606201, 94.68770027160645, 122.10214138031006, 124.79567527770996, 97.57280349731445, 99.14600849151611, 97.17285633087158, 97.03302383422852, 94.33043003082275, 99.0840196609497, 96.01771831512451, 122.99120426177979, 96.66872024536133, 96.60816192626953, 98.81532192230225, 95.2615737915039, 98.65701198577881, 97.80395030975342, 123.52502346038818, 124.3213415145874, 97.23901748657227, 95.24834156036377, 94.21896934509277, 95.70395946502686, 97.34642505645752, 95.94571590423584, 123.75926971435547, 122.35856056213379, 96.35519981384277, 95.3754186630249, 96.9386100769043, 95.05724906921387, 95.32463550567627, 95.91710567474365, 120.96059322357178, 121.90032005310059, 98.27232360839844, 94.48611736297607, 95.09849548339844, 96.28784656524658, 96.44639492034912, 94.72203254699707, 97.01311588287354, 121.32477760314941, 96.89795970916748, 100.96049308776855, 99.81012344360352, 97.42963314056396, 94.47920322418213, 97.66829013824463, 97.09298610687256, 121.79803848266602, 97.95784950256348, 98.77026081085205, 97.52786159515381, 96.62365913391113, 96.2749719619751, 95.99542617797852, 122.55859375, 122.92206287384033, 97.87976741790771, 97.71645069122314, 95.46041488647461, 97.19991683959961, 96.58777713775635, 99.28953647613525, 122.66099452972412, 125.53834915161133, 95.20077705383301, 98.07777404785156, 95.84784507751465, 97.31292724609375, 96.61233425140381, 96.82321548461914, 98.59240055084229, 123.98016452789307, 96.67611122131348, 97.83077239990234, 97.7487564086914, 94.87688541412354, 97.8153944015503, 95.43967247009277, 122.69949913024902, 124.44782257080078, 98.236083984375, 102.0885705947876, 101.17781162261963, 101.67086124420166, 101.07791423797607, 101.11212730407715, 124.36699867248535, 130.2351951599121, 99.84791278839111, 105.26788234710693, 101.8214225769043, 101.43411159515381, 105.15403747558594, 109.96615886688232, 136.22403144836426, 134.06693935394287, 97.29373455047607, 98.0987548828125, 98.63722324371338, 98.16086292266846, 94.74921226501465, 95.73972225189209, 96.81916236877441, 126.93643569946289, 97.12755680084229, 96.81320190429688, 96.70484066009521, 96.16994857788086, 96.28987312316895, 96.31502628326416, 121.80566787719727, 121.02878093719482, 95.24106979370117, 96.01020812988281, 94.73049640655518, 95.77417373657227, 96.9780683517456, 96.83489799499512, 96.51601314544678, 122.75588512420654, 94.2678451538086, 96.2977409362793, 96.42148017883301, 96.41480445861816, 98.9997386932373, 95.22032737731934, 94.79224681854248, 122.72095680236816, 96.82953357696533, 122.93791770935059, 98.19459915161133, 95.4967737197876, 94.89989280700684, 97.12076187133789, 122.52175807952881, 123.49963188171387, 95.25072574615479, 93.6199426651001, 96.41659259796143, 96.73488140106201, 98.62017631530762, 97.30386734008789, 96.7036485671997, 122.42293357849121, 96.25053405761719, 98.6635684967041, 94.0777063369751, 96.12429141998291, 96.95112705230713, 99.22826290130615, 129.68087196350098, 128.90076637268066, 97.74041175842285, 95.70467472076416, 96.07827663421631, 95.67153453826904, 97.3353385925293, 98.01042079925537, 96.34137153625488, 125.12338161468506, 96.79841995239258, 98.23918342590332, 97.8248119354248, 97.83673286437988, 96.93682193756104, 97.1299409866333, 123.40116500854492, 120.7815408706665, 98.54316711425781, 120.39387226104736, 99.2424488067627, 95.0014591217041, 92.98324584960938, 94.99037265777588, 98.36018085479736, 121.09756469726563, 94.50006484985352, 95.48568725585938, 95.21913528442383, 95.89314460754395, 96.21250629425049, 100.24011135101318, 96.56298160552979, 122.0930814743042, 93.5204029083252, 95.37053108215332, 97.51713275909424, 95.56794166564941, 95.38543224334717, 93.42801570892334, 93.96076202392578, 121.34075164794922, 96.51792049407959, 96.60792350769043, 97.50676155090332, 96.65274620056152, 98.6095666885376, 97.63932228088379, 94.03014183044434, 122.3369836807251, 97.68593311309814, 99.07257556915283, 96.05753421783447, 95.16549110412598, 97.45562076568604, 95.53754329681396, 123.3130693435669, 122.84505367279053, 97.05924987792969, 121.6878890991211, 95.41082382202148, 97.13482856750488, 96.53139114379883, 96.13537788391113, 121.09375, 124.3133544921875, 93.77133846282959, 97.12791442871094, 94.66123580932617, 95.95417976379395, 96.36521339416504, 94.69711780548096, 93.41311454772949, 121.15979194641113, 95.63839435577393, 95.96502780914307, 95.3294038772583, 97.25654125213623, 96.64332866668701, 97.9759693145752, 98.68216514587402, 122.09117412567139, 96.18639945983887, 96.48418426513672, 95.11113166809082, 94.42055225372314, 96.61400318145752, 97.51081466674805, 124.82583522796631, 122.15089797973633, 94.78151798248291, 96.06993198394775, 96.12548351287842, 95.35861015319824, 95.93284130096436, 95.18933296203613, 123.07095527648926, 122.04110622406006, 97.51272201538086, 96.32730484008789, 95.61169147491455, 98.80471229553223, 98.13976287841797, 98.44017028808594, 122.37489223480225, 125.20432472229004, 98.61183166503906, 98.36912155151367, 98.42371940612793, 94.5119857788086, 96.92502021789551, 94.78795528411865, 127.50029563903809, 121.48332595825195, 94.26414966583252, 98.30152988433838, 97.98014163970947, 96.99881076812744, 96.81308269500732, 95.07858753204346, 124.66490268707275, 123.49319458007813, 96.10974788665771, 95.33202648162842, 99.74241256713867, 96.19879722595215, 97.68402576446533, 95.90554237365723, 121.51575088500977, 121.21188640594482, 96.47178649902344, 97.76043891906738, 97.04446792602539, 93.92774105072021, 100.31652450561523, 96.95625305175781, 120.51284313201904, 122.31922149658203, 98.25587272644043, 96.62580490112305],
  "QPU": "300001B",
  "Qubits": 6,
  "Queue durations [ms]": [0.0, 0.0, 0.0, 0.0, 0.0, 0.0, 0.0, 0.0, 0.0, 0.0, 0.0, 0.0, 0.0, 0.0, 0.0, 0.0, 0.0, 0.0, 0.0, 0.0, 0.0, 0.0, 0.0, 0.0, 0.0, 0.0, 0.0, 0.0, 0.0, 0.0, 0.0, 0.0, 0.0, 0.0, 0.0, 0.0, 0.0, 0.0, 0.0, 0.0, 0.0, 0.0, 0.0, 0.0, 0.0, 0.0, 0.0, 0.0, 0.0, 0.0, 0.0, 0.0, 0.0, 0.0, 0.0, 0.0, 0.0, 0.0, 0.0, 0.0, 0.0, 0.0, 0.0, 0.0, 0.0, 0.0, 0.0, 0.0, 0.0, 0.0, 0.0, 0.0, 0.0, 0.0, 0.0, 0.0, 0.0, 0.0, 0.0, 0.0, 0.0, 0.0, 0.0, 0.0, 0.0, 0.0, 0.0, 0.0, 0.0, 0.0, 0.0, 0.0, 0.0, 0.0, 0.0, 0.0, 0.0, 0.0, 0.0, 0.0, 0.0, 0.0, 0.0, 0.0, 0.0, 0.0, 0.0, 0.0, 0.0, 0.0, 0.0, 0.0, 0.0, 0.0, 0.0, 0.0, 0.0, 0.0, 0.0, 0.0, 0.0, 0.0, 0.0, 0.0, 0.0, 0.0, 0.0, 0.0, 0.0, 0.0, 0.0, 0.0, 0.0, 0.0, 0.0, 0.0, 0.0, 0.0, 0.0, 0.0, 0.0, 0.0, 0.0, 0.0, 0.0, 0.0, 0.0, 0.0, 0.0, 0.0, 0.0, 0.0, 0.0, 0.0, 0.0, 0.0, 0.0, 0.0, 0.0, 0.0, 0.0, 0.0, 0.0, 0.0, 0.0, 0.0, 0.0, 0.0, 0.0, 0.0, 0.0, 0.0, 0.0, 0.0, 0.0, 0.0, 0.0, 0.0, 0.0, 0.0, 0.0, 0.0, 0.0, 0.0, 0.0, 0.0, 0.0, 0.0, 0.0, 0.0, 0.0, 0.0, 0.0, 0.0, 0.0, 0.0, 0.0, 0.0, 0.0, 0.0, 0.0, 0.0, 0.0, 0.0, 0.0, 0.0, 0.0, 0.0, 0.0, 0.0, 0.0, 0.0, 0.0, 0.0, 0.0, 0.0, 0.0, 0.0, 0.0, 0.0, 0.0, 0.0, 0.0, 0.0, 0.0, 0.0, 0.0, 0.0, 0.0, 0.0, 0.0, 0.0, 0.0, 0.0, 0.0, 0.0, 0.0, 0.0, 0.0, 0.0, 0.0, 0.0, 0.0, 0.0, 0.0, 0.0, 0.0, 0.0, 0.0, 0.0, 0.0, 0.0, 0.0, 0.0, 0.0, 0.0, 0.0, 0.0, 0.0, 0.0, 0.0, 0.0, 0.0, 0.0, 0.0, 0.0, 0.0, 0.0, 0.0, 0.0, 0.0, 0.0, 0.0, 0.0, 0.0, 0.0, 0.0, 0.0, 0.0, 0.0, 0.0, 0.0, 0.0, 0.0, 0.0, 0.0, 0.0, 0.0, 0.0, 0.0, 0.0, 0.0, 0.0, 0.0, 0.0, 0.0, 0.0, 0.0, 0.0, 0.0, 0.0, 0.0, 0.0, 0.0, 0.0, 0.0, 0.0, 0.0, 0.0, 0.0, 0.0, 0.0, 0.0, 0.0, 0.0, 0.0, 0.0, 0.0, 0.0, 0.0, 0.0, 0.0, 0.0, 0.0, 0.0, 0.0, 0.0, 0.0, 0.0, 0.0, 0.0, 0.0, 0.0, 0.0, 0.0, 0.0, 0.0, 0.0, 0.0, 0.0, 0.0, 0.0, 0.0, 0.0, 0.0, 0.0, 0.0, 0.0, 0.0, 0.0, 0.0, 0.0, 0.0, 0.0, 0.0, 0.0, 0.0, 0.0, 0.0, 0.0, 0.0, 0.0, 0.0, 0.0, 0.0, 0.0, 0.0, 0.0],
  "Shots": 4096,
  "Size": 6,
  "Total Algorithm duration [s]": 247.144,
  "Total Classic duration [s]": 209.48184997463227,
  "Total Quantum duration [s]": 37.66215002536774
}
