{
  "Depth": 686.0,
  "Expectation Value": -3.4088547229766846,
  "Job durations [ms]": [5.0399, 5.0607999999999995, 5.1646, 4.9287, 4.9778, 4.995699999999999, 5.156499999999999, 4.8736999999999995, 5.0198, 4.965599999999999, 5.0018, 5.0088, 5.0207999999999995, 4.9967, 5.0891, 5.0828999999999995, 4.994400000000001, 4.991899999999999, 4.988, 5.0786, 5.1218, 5.3538, 4.8182, 5.0402, 4.9671, 5.0846, 5.0280000000000005, 5.0751, 5.081600000000001, 5.0742, 5.0862, 5.0264999999999995, 5.0789, 5.1008, 5.0391, 5.0195, 4.9445, 4.7491, 4.9736, 5.1613, 4.929399999999999, 5.0156, 5.1095999999999995, 4.9932, 4.996300000000001, 4.973199999999999, 5.0086, 5.1591, 5.0127, 5.0667, 5.0176, 5.1056, 5.1804, 5.245900000000001, 4.9686, 5.2299, 5.1655, 5.1125, 5.2148, 4.850499999999999, 4.8967, 5.0235, 4.780600000000001, 5.0054, 5.1524, 5.026400000000001, 4.9804, 4.9772, 5.0564, 4.9908, 5.020700000000001, 5.0061, 5.0841, 4.982, 4.9404, 4.7261, 5.046799999999999, 5.2435, 5.2963000000000005, 5.0758, 5.023599999999999, 5.0417, 5.0327, 4.9801, 4.9495, 5.071899999999999, 4.9774, 5.0292, 4.9551, 4.9662, 4.939500000000001, 4.991, 5.0006, 5.042, 4.9943, 5.042, 5.0667, 5.003299999999999, 5.0117, 5.0098, 5.029, 4.937399999999999, 4.9752, 4.982600000000001, 4.9018999999999995, 5.0555, 5.0556, 5.2717, 5.079400000000001, 5.0066, 5.056500000000001, 4.8342, 4.951, 4.9893, 4.9109, 5.050800000000001, 4.8697, 4.822500000000001, 5.029999999999999, 4.9705],
  "Optimal Expectation Value": -4.0,
  "Optimizer durations [ms]": [51.872, 51.902, 58.281, 59.456, 54.282, 51.16, 52.978, 59.675, 54.363, 50.815, 51.369, 51.388, 51.306, 51.024, 51.948, 52.154, 51.6, 51.041, 51.188, 52.141, 52.585, 60.085, 58.001, 51.698, 50.971, 52.163, 53.448, 52.192, 53.004, 51.886, 51.976, 51.642, 51.897, 52.39, 53.339, 51.228, 51.139, 57.14, 50.829, 52.986, 60.167, 57.605, 53.574, 51.181, 51.006, 50.843, 51.472, 52.87, 51.404, 52.026, 51.615, 52.454, 53.097, 53.825, 60.506, 53.58, 53.017, 52.169, 53.348, 59.615, 57.03, 51.298, 58.87, 58.039, 53.296, 51.446, 51.126, 50.844, 51.959, 51.142, 51.372, 51.437, 51.907, 51.048, 50.823, 57.388, 51.618, 53.813, 56.897, 58.636, 51.525, 51.784, 51.685, 51.589, 51.214, 52.142, 51.088, 51.617, 50.756, 51.071, 50.455, 50.961, 51.419, 51.678, 51.256, 51.822, 51.978, 61.165, 56.157, 51.136, 51.741, 50.52, 50.755, 51.25, 50.409, 51.795, 52.057, 54.075, 54.119, 51.367, 51.846, 57.324, 50.656, 51.436, 57.519, 51.837, 59.851, 59.422, 53.757, 53.714],
  "Optimizer iterations": 120,
  "Optimizer params": [0.8767524306699094, 0.9311009163936809, 0.8225794378964996, 0.23242009352832543, 0.9926319292719479, 0.678363840819416],
  "P": 3,
  "Problem": "MIS",
  "QPU": "7000000",
  "Qubits": 15,
  "Shots": 4096,
  "Size": 12,
  "Total Algorithm duration [s]": 6.374,
  "Total Classic duration [s]": 5.7711638999999995,
  "Total Quantum duration [s]": 0.6028360999999999
}
