{
  "Depth": 686.0,
  "Expectation Value": -3.405244827270508,
  "Job durations [ms]": [5.0029, 5.0698, 5.3235, 5.226500000000001, 5.0774, 4.7543999999999995, 5.2333, 5.1793000000000005, 5.0162, 4.9562, 5.062600000000001, 4.9662, 5.0267, 5.0043, 4.9886, 4.9676, 5.0172, 4.9731000000000005, 5.0037, 5.0243, 5.325500000000001, 5.3616, 4.844399999999999, 5.1265, 4.973199999999999, 4.9716, 4.986199999999999, 5.0323, 4.9588, 5.1136, 5.0768, 5.0323, 5.0333, 5.0444, 4.9541, 5.0296, 4.979, 5.077, 4.9718, 5.2185, 5.072, 5.3073, 4.806, 5.0328, 5.0072, 5.0057, 5.0656, 4.968400000000001, 4.9487000000000005, 5.0366, 5.0199, 4.9746, 5.1006, 5.024500000000001, 5.0079, 5.012499999999999, 5.1481, 5.0, 5.0911, 5.0618, 5.2587, 5.082, 5.0384, 5.0482000000000005, 5.4257, 5.0971, 5.0388, 5.0439, 4.9929, 5.0512, 4.9841, 5.0085, 4.9886, 5.015000000000001, 5.0365, 5.013400000000001, 5.0919, 5.0469, 5.3281, 5.0172, 4.8303, 5.0434, 5.0186, 5.016299999999999, 5.0147, 5.048900000000001, 5.0221, 5.0729, 5.0747, 4.8988, 5.0243, 4.9877, 4.9785, 5.0280000000000005, 5.0317, 5.1117, 4.9974, 5.2832, 5.3043, 4.9232, 4.986199999999999, 5.0386, 5.0442, 5.0421, 5.0032000000000005, 5.0716, 5.0207999999999995, 5.077800000000001, 4.9994000000000005, 5.0302999999999995, 5.0245999999999995, 5.0706, 4.9904, 5.0383, 4.9864999999999995, 5.009399999999999, 5.0554, 5.2237],
  "Optimal Expectation Value": -4.0,
  "Optimizer durations [ms]": [51.545, 52.044, 55.54, 59.137, 53.173, 58.594, 53.614, 54.252, 51.501, 51.118, 52.042, 51.061, 51.619, 51.152, 51.137, 50.739, 51.273, 50.822, 51.384, 51.634, 54.46, 58.804, 59.854, 52.776, 51.066, 51.036, 50.965, 51.338, 50.8, 52.53, 51.909, 51.76, 51.534, 51.739, 50.898, 51.416, 51.663, 51.83, 50.96, 53.23, 61.273, 54.389, 55.73, 51.636, 51.485, 51.518, 52.057, 50.725, 50.615, 51.53, 51.582, 50.794, 52.377, 51.844, 51.244, 51.383, 52.7, 51.313, 51.982, 51.743, 53.988, 52.468, 52.453, 51.909, 55.526, 52.268, 51.611, 51.813, 51.165, 52.538, 51.062, 51.318, 50.995, 51.362, 51.41, 51.155, 52.169, 51.543, 54.669, 61.219, 55.492, 51.746, 51.438, 51.356, 51.389, 52.248, 51.268, 51.991, 51.875, 50.531, 51.583, 53.561, 50.998, 51.467, 51.622, 52.369, 51.244, 54.164, 56.802, 59.038, 52.785, 51.541, 51.482, 51.594, 52.924, 51.824, 51.436, 52.113, 51.413, 51.822, 51.658, 51.75, 50.986, 51.618, 51.066, 51.177, 51.988, 53.485],
  "Optimizer iterations": 118,
  "Optimizer params": [0.8131805834925797, 0.288088278587409, 0.931398867527575, 0.8078919401799315, 0.9245005148831603, 0.31099487657949515],
  "P": 3,
  "Problem": "MIS",
  "QPU": "7000000",
  "Qubits": 15,
  "Shots": 4096,
  "Size": 12,
  "Total Algorithm duration [s]": 6.189,
  "Total Classic duration [s]": 5.5932935,
  "Total Quantum duration [s]": 0.5957065000000004
}
