{
  "Depth": 686.0,
  "Expectation Value": -3.28116512298584,
  "Job durations [ms]": [5.0097, 4.9554, 4.9886, 5.1579, 5.1667, 5.1448, 5.286, 4.9565, 4.9333, 5.026199999999999, 4.9729, 5.039, 5.0575, 5.085100000000001, 5.139399999999999, 5.184, 5.0152, 5.0285, 5.1659999999999995, 4.9821, 5.0245999999999995, 5.0439, 5.0091, 5.0599, 5.2198, 5.4841999999999995, 5.1187000000000005, 5.1558, 5.1637, 5.1093, 5.2139, 5.1487, 5.0174, 5.095599999999999, 4.995699999999999, 5.0154, 5.0286, 5.052700000000001, 5.026400000000001, 5.0168, 4.9999, 5.0504, 5.029999999999999, 5.016299999999999, 5.3896, 5.056500000000001, 4.9335, 5.000100000000001, 5.5561, 5.4562, 5.0362, 5.076899999999999, 5.142200000000001, 4.984500000000001, 5.066400000000001, 5.6013, 5.5484, 5.655600000000001, 5.7383, 5.6959, 5.7376, 5.5934, 5.9603, 5.831099999999999, 5.1046, 5.3825, 4.9354000000000005, 5.0803, 5.062600000000001, 5.1779, 4.948, 5.0929, 4.9574, 4.9989, 5.0418, 5.0457, 5.0882000000000005, 5.051, 5.0109, 5.053400000000001, 5.5069, 5.8401, 5.5515, 5.2158999999999995, 4.9697, 5.0412, 5.0662, 5.17, 5.6846, 5.668, 5.5935999999999995, 6.362900000000001, 5.9203, 5.7574000000000005, 5.5912999999999995, 5.2188, 5.1512, 5.489800000000001, 5.493600000000001, 5.2838, 5.1275, 5.1028, 5.2458, 5.5314, 5.5363, 5.492900000000001, 5.7875000000000005, 5.917000000000001, 5.5045, 5.3008, 5.3941, 5.149, 5.1377999999999995, 5.1374, 5.1907000000000005, 5.2433000000000005, 4.811, 5.0387, 5.0177, 5.0593, 5.3279, 4.989000000000001, 5.0978, 5.0235, 5.1166, 4.9515, 5.0867, 5.7153, 5.244999999999999],
  "Optimal Expectation Value": -4.0,
  "Optimizer durations [ms]": [51.288, 50.649, 51.481, 52.878, 52.876, 52.961, 58.826, 55.06, 54.01, 51.303, 51.043, 51.641, 52.108, 51.887, 52.44, 53.431, 51.229, 51.533, 52.891, 50.856, 51.52, 51.722, 51.27, 51.949, 53.492, 60.985, 57.179, 53.057, 52.877, 52.362, 53.419, 52.591, 51.408, 57.227, 51.278, 51.448, 51.705, 51.641, 51.67, 51.731, 51.236, 51.754, 51.667, 51.54, 60.196, 56.68, 55.447, 51.241, 58.218, 56.852, 55.562, 52.318, 62.578, 51.28, 52.026, 57.405, 57.007, 58.201, 58.774, 58.084, 58.713, 57.303, 61.754, 60.087, 62.171, 56.492, 58.547, 51.939, 51.835, 53.005, 55.656, 52.173, 51.081, 51.216, 51.494, 51.695, 52.157, 52.293, 51.278, 53.448, 64.712, 59.848, 57.059, 53.292, 50.937, 51.769, 51.793, 52.958, 58.383, 63.125, 57.479, 74.952, 62.478, 59.112, 57.442, 53.657, 53.476, 56.062, 61.342, 58.94, 52.888, 57.224, 54.942, 58.037, 68.7, 61.328, 69.429, 66.039, 61.745, 61.012, 60.342, 52.917, 52.463, 52.819, 53.582, 58.506, 59.134, 51.471, 51.78, 51.902, 54.697, 56.674, 52.374, 51.588, 52.256, 51.01, 53.282, 63.414, 53.713],
  "Optimizer iterations": 129,
  "Optimizer params": [0.5141955550460692, 0.6170952656557592, 0.7753871488545319, 0.6376903346874302, 0.9999353803131986, 0.16571729165401594],
  "P": 3,
  "Problem": "MIS",
  "QPU": "7000000",
  "Qubits": 15,
  "Shots": 4096,
  "Size": 12,
  "Total Algorithm duration [s]": 7.117,
  "Total Classic duration [s]": 6.4426612,
  "Total Quantum duration [s]": 0.6743387999999998
}
