{
  "Depth": 686.0,
  "Expectation Value": -3.0333828926086426,
  "Job durations [ms]": [5.1972, 5.2544, 4.928, 5.2257, 4.8580000000000005, 4.702, 5.0974, 5.0565999999999995, 4.9944999999999995, 4.9925999999999995, 5.0349, 5.0154, 5.0162, 4.990900000000001, 4.9857000000000005, 5.256600000000001, 4.9072, 4.857, 4.6356, 4.998, 4.962000000000001, 4.9366, 5.2177, 5.0245999999999995, 5.0424, 5.0934, 5.079400000000001, 5.0458, 4.9958, 5.0755, 4.9437, 4.7748, 5.2531, 5.2489, 5.402299999999999, 5.035, 5.0504, 4.9985, 5.1475, 5.195, 5.1646, 5.0135, 5.0904, 5.0786, 5.113300000000001, 5.0363999999999995, 5.0164, 5.0336, 5.018199999999999, 5.0025, 5.0169999999999995, 5.0272, 5.1857, 5.227200000000001, 5.0079, 4.9535, 5.1053, 5.0855, 5.0046, 5.0979, 5.0686, 4.9904, 5.0808, 4.9896, 4.9902999999999995, 5.0205, 5.0308, 5.079700000000001, 5.0472, 5.0203, 5.2072, 5.5483, 4.8678, 5.0023, 4.9823, 5.024, 5.0311, 5.0411, 4.9518, 5.0477, 5.0426, 5.0983, 5.0531999999999995, 5.0867, 5.0422, 5.149, 5.029, 5.0564, 5.024500000000001, 5.0372, 5.4207, 5.0846, 5.2257, 5.0803],
  "Optimal Expectation Value": -4.0,
  "Optimizer durations [ms]": [53.302, 54.131, 50.413, 53.971, 59.962, 57.867, 52.577, 53.236, 51.055, 51.129, 51.775, 51.464, 51.388, 51.241, 60.965, 54.022, 60.12, 59.581, 56.79, 51.289, 50.706, 50.65, 53.236, 51.565, 51.816, 52.228, 52.235, 51.966, 51.45, 52.124, 60.678, 59.186, 53.739, 59.668, 60.411, 52.839, 51.876, 51.323, 52.816, 53.279, 52.703, 60.649, 52.678, 52.216, 52.559, 51.489, 51.737, 51.678, 51.479, 51.256, 51.44, 51.327, 58.112, 58.248, 51.356, 57.978, 52.141, 57.034, 51.124, 51.983, 51.871, 51.434, 52.213, 51.337, 51.259, 51.534, 51.615, 52.112, 51.685, 51.379, 53.404, 60.072, 59.017, 57.427, 51.083, 51.548, 51.756, 51.828, 52.326, 51.782, 51.739, 52.078, 51.833, 52.088, 51.645, 52.735, 52.595, 51.767, 51.459, 56.752, 57.496, 60.16, 53.503, 53.356],
  "Optimizer iterations": 94,
  "Optimizer params": [0.4131403271212143, 0.3052404024701249, 0.2944344345586284, 0.9990410346138534, 0.432720658546897, 0.9929030465229437],
  "P": 3,
  "Problem": "MIS",
  "QPU": "7000000",
  "Qubits": 15,
  "Shots": 4096,
  "Size": 12,
  "Total Algorithm duration [s]": 5.035,
  "Total Classic duration [s]": 4.5597422000000005,
  "Total Quantum duration [s]": 0.4752578
}
