{
  "Depth": 686.0,
  "Expectation Value": -3.210850715637207,
  "Job durations [ms]": [5.1528, 5.1563, 5.0973, 5.1323, 4.956, 4.9617, 4.9826999999999995, 5.007099999999999, 4.971299999999999, 5.170400000000001, 5.0744, 5.1476, 5.1434999999999995, 4.8185, 4.9752, 5.2192, 5.6713, 5.6109, 5.2233, 4.767600000000001, 4.9802, 5.1937, 5.0223, 5.0609, 5.146999999999999, 4.9475, 5.1017, 5.4015, 5.439699999999999, 5.2019, 5.1867, 5.133, 5.1481, 5.0482000000000005, 5.0938, 5.2201, 5.3163, 5.1524, 5.0336, 5.0354, 4.9354000000000005, 5.3340000000000005, 5.4472000000000005, 5.0713, 4.9528, 5.1086, 4.9837, 5.079700000000001, 4.9642, 5.0027, 4.9773, 5.078, 4.983099999999999, 4.9765, 5.1775, 4.864, 5.3174, 5.0187, 4.9608, 5.028300000000001, 4.9548, 4.889, 4.9679, 4.9848, 5.0238000000000005, 4.9654, 4.9902, 4.8942, 5.0682, 5.0366, 4.9594000000000005, 5.0126, 4.7192, 5.0819, 5.0286, 5.2052000000000005, 4.906, 4.9879, 5.1675, 4.8715, 5.0341, 5.0666, 4.9624, 5.0706, 4.9571, 5.0764, 5.0335, 5.021699999999999, 4.9857000000000005, 5.148, 5.1165, 5.0892, 5.175, 5.2656, 4.7078, 4.9226, 4.9603, 5.047000000000001, 4.9781],
  "Optimal Expectation Value": -4.0,
  "Optimizer durations [ms]": [52.919, 52.851, 52.195, 52.514, 51.456, 52.279, 51.127, 51.467, 50.911, 52.806, 52.072, 52.528, 53.676, 59.346, 51.148, 53.456, 57.933, 57.262, 53.615, 58.687, 51.142, 53.13, 61.145, 55.557, 52.918, 52.382, 52.223, 55.168, 55.813, 53.703, 53.24, 52.483, 52.624, 51.717, 51.994, 53.534, 55.107, 57.87, 51.388, 52.117, 50.527, 55.13, 55.766, 52.004, 50.756, 52.391, 51.633, 52.082, 50.929, 51.324, 50.851, 51.991, 50.906, 51.016, 52.855, 59.512, 54.708, 51.429, 50.95, 51.625, 51.001, 50.185, 51.043, 50.897, 51.515, 51.021, 51.162, 50.297, 51.768, 51.593, 50.9, 51.565, 58.275, 52.875, 61.027, 56.488, 57.729, 50.993, 54.493, 59.637, 55.77, 51.739, 50.886, 51.926, 50.748, 52.14, 51.588, 51.516, 51.106, 52.665, 53.187, 52.167, 53.048, 59.922, 57.816, 50.483, 50.701, 51.526, 50.79],
  "Optimizer iterations": 99,
  "Optimizer params": [1.0, 0.42541698463527533, 0.11928195524068166, 7.400648615687752e-06, 0.17084807827031964, 0.005907723467779857],
  "P": 3,
  "Problem": "MIS",
  "QPU": "7000000",
  "Qubits": 15,
  "Shots": 4096,
  "Size": 12,
  "Total Algorithm duration [s]": 5.258,
  "Total Classic duration [s]": 4.756302499999999,
  "Total Quantum duration [s]": 0.5016975000000002
}
