{
  "Circuit execution durations [ms]": [41.80431365966797, 41.04030132293701, 38.94674777984619, 39.37804698944092, 38.385629653930664, 38.031697273254395, 39.844632148742676, 40.35019874572754, 38.403987884521484, 38.65408897399902, 40.2449369430542, 39.29579257965088, 39.843201637268066, 39.40463066101074, 38.614749908447266, 39.40141201019287, 40.78245162963867, 39.963483810424805, 39.80100154876709, 37.80496120452881, 40.244460105895996, 38.741469383239746, 40.972352027893066, 42.57535934448242, 41.2982702255249, 38.974761962890625, 40.23110866546631, 38.55180740356445, 38.51509094238281, 39.9632453918457, 40.35520553588867, 41.47613048553467, 41.62120819091797, 39.98541831970215, 39.22116756439209, 40.74513912200928, 39.411306381225586, 38.11144828796387, 41.37611389160156, 38.53762149810791, 41.53740406036377, 39.03687000274658, 40.31693935394287, 38.4519100189209, 40.638089179992676, 40.490031242370605, 37.94729709625244, 37.91332244873047, 39.903998374938965, 41.60416126251221, 40.00449180603027],
  "Depth": 2.0,
  "Expectation Value": -0.5971592664718628,
  "Optimal Expectation Value": -2.2741000652313232,
  "Optimizer durations [ms]": [425.813, 420.84, 419.729, 372.019, 413.777, 415.872, 417.831, 421.481, 371.186, 418.724, 423.068, 417.125, 419.858, 374.045, 415.242, 421.116, 420.009, 422.376, 373.155, 412.289, 425.693, 415.245, 423.878, 376.838, 418.91, 420.679, 417.991, 418.899, 376.335, 416.424, 423.479, 420.758, 424.214, 373.152, 416.444, 423.699, 416.369, 420.868, 375.545, 414.071, 423.769, 415.275, 422.041, 369.933, 418.526, 422.558, 414.114, 418.051, 372.282, 426.958, 421.701],
  "Optimizer iterations": 51,
  "Optimizer params": [0.003271309044590433, 0.06761994855788629, 0.02211995933356722, 0.5049425135492026],
  "P": 0,
  "Problem": "RH",
  "QJob durations [ms]": [50.87316036224365, 49.85857009887695, 48.0266809463501, 48.026204109191895, 47.30534553527832, 46.82719707489014, 48.54738712310791, 49.2323637008667, 47.23513126373291, 47.673821449279785, 49.03745651245117, 48.0647087097168, 48.78854751586914, 48.17855358123779, 47.61922359466553, 47.59418964385986, 49.576520919799805, 48.865437507629395, 48.54726791381836, 46.659111976623535, 49.08251762390137, 47.420620918273926, 49.36361312866211, 51.25725269317627, 50.25207996368408, 47.5233793258667, 48.972487449645996, 47.5848913192749, 47.293782234191895, 48.96247386932373, 49.09086227416992, 50.279974937438965, 50.560951232910156, 48.77114295959473, 48.30920696258545, 49.56543445587158, 48.209547996520996, 47.15287685394287, 50.153493881225586, 47.539710998535156, 50.319790840148926, 47.80220985412598, 49.28410053253174, 47.24740982055664, 49.585819244384766, 49.26276206970215, 46.72729969024658, 46.95296287536621, 48.69282245635986, 50.57322978973389, 48.75993728637695],
  "QPU": "3000020",
  "Qubits": 4,
  "Queue durations [ms]": [0.0, 0.0, 0.0, 0.0, 0.0, 0.0, 0.0, 0.0, 0.0, 0.0, 0.0, 0.0, 0.0, 0.0, 0.0, 0.0, 0.0, 0.0, 0.0, 0.0, 0.0, 0.0, 0.0, 0.0, 0.0, 0.0, 0.0, 0.0, 0.0, 0.0, 0.0, 0.0, 0.0, 0.0, 0.0, 0.0, 0.0, 0.0, 0.0, 0.0, 0.0, 0.0, 0.0, 0.0, 0.0, 0.0, 0.0, 0.0, 0.0, 0.0, 0.0],
  "Shots": 4096,
  "Size": 4,
  "Total Algorithm duration [s]": 20.94,
  "Total Classic duration [s]": 18.46090847492218,
  "Total Quantum duration [s]": 2.47909152507782
}
