{
  "Circuit execution durations [ms]": [66.52617454528809, 93.82200241088867, 67.35551357269287, 67.79646873474121, 65.38212299346924, 68.33398342132568, 97.80716896057129, 65.85705280303955, 68.85671615600586, 67.35312938690186, 90.88540077209473, 65.46330451965332, 68.16506385803223, 68.90511512756348, 90.63708782196045, 66.27726554870605, 66.45774841308594, 68.6502456665039, 66.79868698120117, 90.05296230316162, 67.3912763595581, 66.04576110839844, 68.85814666748047, 91.81153774261475, 66.50280952453613, 67.11101531982422, 68.37689876556396, 93.46354007720947, 67.86644458770752, 63.735246658325195, 62.886834144592285, 67.90792942047119, 93.53137016296387, 65.36054611206055, 67.9924488067627, 67.67284870147705, 95.29078006744385, 66.24019145965576, 71.92516326904297, 63.20321559906006, 95.95370292663574, 65.61625003814697, 69.45395469665527, 66.31314754486084, 63.64321708679199, 94.29514408111572, 64.33188915252686, 66.39492511749268, 67.30890274047852, 90.39306640625, 67.05749034881592, 69.03421878814697, 65.82236289978027, 94.3758487701416, 65.75298309326172, 65.82975387573242, 68.63141059875488, 66.58291816711426, 91.67861938476563, 64.92483615875244, 68.42052936553955, 66.04647636413574, 94.63310241699219, 65.15729427337646, 68.6718225479126, 68.64428520202637, 92.07022190093994, 67.7109956741333, 66.88380241394043, 66.19465351104736, 65.74773788452148, 96.05181217193604, 63.5221004486084, 66.03360176086426, 67.46876239776611, 93.11330318450928, 61.693429946899414, 68.6194896697998, 63.930511474609375, 94.77996826171875, 64.1714334487915, 69.18668746948242, 66.89572334289551, 66.16747379302979, 92.80943870544434, 63.56370449066162, 69.21029090881348, 65.32156467437744, 93.55473518371582, 66.9642686843872, 64.90695476531982, 66.60783290863037, 96.40383720397949, 64.23568725585938, 63.05396556854248, 65.66643714904785, 68.46833229064941, 94.1011905670166, 64.5986795425415, 67.81339645385742, 65.38128852844238, 92.78428554534912, 70.38712501525879, 63.968777656555176, 66.32649898529053, 93.24073791503906, 69.0535306930542, 68.96424293518066, 67.97361373901367, 66.43915176391602, 96.72665596008301, 67.21866130828857, 68.96007061004639, 63.98570537567139, 96.01902961730957, 64.81647491455078, 69.62788105010986, 68.64941120147705, 94.16508674621582, 67.16060638427734, 68.68243217468262, 66.24138355255127, 69.488525390625, 93.0551290512085, 66.70081615447998, 65.70065021514893, 64.97454643249512, 94.22266483306885, 68.53294372558594, 66.5196180343628, 67.38722324371338, 94.80607509613037, 65.47117233276367, 63.95304203033447, 65.54889678955078, 69.95999813079834, 93.8258171081543, 69.00298595428467, 65.04154205322266, 64.04232978820801, 97.03850746154785, 65.94085693359375, 63.71724605560303, 65.18423557281494, 92.71585941314697, 68.39919090270996, 68.83645057678223, 64.52345848083496, 68.21811199188232, 93.25540065765381, 66.94352626800537, 68.49110126495361, 64.87727165222168, 93.2159423828125, 67.09980964660645, 67.93713569641113, 68.67849826812744, 91.19260311126709, 67.9323673248291, 66.98131561279297, 63.95256519317627, 66.9938325881958, 92.59605407714844, 64.99993801116943, 67.71552562713623, 65.90712070465088, 93.06418895721436, 65.62185287475586, 65.60349464416504, 66.64299964904785, 90.69859981536865, 68.07136535644531, 66.38646125793457, 63.332200050354004, 70.32442092895508, 92.67616271972656, 67.08347797393799],
  "Depth": 8.5,
  "Expectation Value": -2.556640625,
  "Optimal Expectation Value": -3.4939591884613037,
  "Optimizer durations [ms]": [718.672, 736.151, 663.836, 708.73, 713.192, 729.993, 683.376, 710.646, 714.331, 722.204, 670.588, 707.79, 712.13, 723.016, 722.017, 661.794, 706.338, 718.228, 724.946, 667.892, 706.94, 710.63, 724.39, 682.238, 705.636, 710.074, 727.078, 727.103, 665.043, 698.473, 707.09, 729.536, 674.163, 701.688, 721.796, 725.006, 678.773, 704.862, 720.091, 711.413, 732.327, 661.72, 709.993, 719.46, 733.458, 675.968, 698.166, 710.645, 725.548, 672.833, 706.704, 714.058, 722.517, 729.606, 674.241, 707.716, 719.682, 726.152, 671.152, 701.842, 716.945, 721.906, 676.382, 703.143, 715.101, 724.047, 723.232, 663.358, 705.526, 715.309, 725.941, 679.09, 696.19, 709.865, 723.038, 673.433, 694.199, 710.592, 712.262, 730.247, 659.516, 721.344, 713.626, 725.89, 673.462, 698.557, 717.037, 720.357, 674.564, 706.903, 707.177, 717.481, 732.155, 656.362, 697.063, 712.221, 727.413, 674.88, 703.976, 730.607, 719.915, 670.213, 724.132, 715.153, 722.993, 725.123, 666.45, 709.221, 726.948, 724.724, 680.353, 706.919, 715.087, 715.597, 679.882, 701.007, 713.005, 723.315, 732.601, 663.114, 718.872, 715.682, 728.583, 672.413, 704.542, 709.192, 717.916, 675.218, 722.507, 714.407, 718.886, 729.249, 661.579, 700.151, 712.883, 731.11, 680.926, 709.946, 707.797, 714.056, 685.802, 707.231, 703.233, 714.781, 723.628, 664.207, 712.312, 712.412, 728.702, 671.95, 703.84, 716.196, 725.655, 672.656, 711.283, 712.537, 728.989, 721.916, 666.573, 705.617, 710.344, 726.323, 674.715, 701.499, 726.866, 721.279, 671.441, 703.027, 705.885, 718.567, 726.949, 670.239, 721.242, 730.488, 732.803, 670.978, 711.438],
  "Optimizer iterations": 177,
  "Optimizer params": [0.667617911438531, 0.2673156466837449, 0.7543806400327024, 0.3722052802991245, 0.9297244248413847, 0.5389508201784753, 0.759506854565023, 0.5994250097093151, 0.6371439408462998, 0.6538845012739064, 0.00475184095912421, 0.9726740712672801],
  "P": 0,
  "Problem": "IC",
  "QJob durations [ms]": [84.8381519317627, 111.74261569976807, 85.26408672332764, 85.95383167266846, 83.79161357879639, 86.6929292678833, 115.93377590179443, 84.09607410430908, 86.70461177825928, 85.64674854278564, 108.9162826538086, 83.72163772583008, 86.32183074951172, 87.36252784729004, 108.99567604064941, 84.25617218017578, 84.7475528717041, 86.9452953338623, 85.1278305053711, 108.33323001861572, 85.57212352752686, 84.31875705718994, 87.3565673828125, 110.14282703399658, 84.7311019897461, 85.3952169418335, 87.42260932922363, 111.44959926605225, 86.06433868408203, 81.88199996948242, 81.30061626434326, 86.16936206817627, 111.47892475128174, 83.69314670562744, 86.6929292678833, 85.99579334259033, 113.53504657745361, 84.54179763793945, 89.98692035675049, 81.60161972045898, 114.17162418365479, 83.76026153564453, 87.56816387176514, 84.59591865539551, 81.93838596343994, 112.48922348022461, 82.23044872283936, 84.45703983306885, 85.98625659942627, 108.52253437042236, 85.30950546264648, 87.1666669845581, 84.18011665344238, 112.2884750366211, 86.73286437988281, 84.08939838409424, 86.92848682403564, 84.85889434814453, 109.99774932861328, 82.96084403991699, 86.77446842193604, 84.40780639648438, 112.73431777954102, 83.70482921600342, 86.79866790771484, 87.00430393218994, 110.20922660827637, 86.08746528625488, 85.18719673156738, 84.53691005706787, 84.11622047424316, 114.26138877868652, 81.34853839874268, 84.0383768081665, 86.00819110870361, 111.24396324157715, 79.78034019470215, 86.63058280944824, 82.20577239990234, 113.12603950500488, 82.01539516448975, 87.424635887146, 85.02554893493652, 84.37800407409668, 110.92197895050049, 81.44915103912354, 87.57054805755615, 84.18583869934082, 111.60731315612793, 85.45076847076416, 82.89659023284912, 84.69033241271973, 114.63284492492676, 82.07213878631592, 81.08651638031006, 83.72259140014648, 86.73107624053955, 112.23840713500977, 82.91983604431152, 86.39645576477051, 83.95528793334961, 110.8248233795166, 88.9585018157959, 82.0077657699585, 84.49101448059082, 111.49406433105469, 87.1971845626831, 87.25261688232422, 87.28456497192383, 84.52260494232178, 114.59863185882568, 85.46113967895508, 87.41533756256104, 82.5260877609253, 114.11011219024658, 82.91244506835938, 87.51869201660156, 86.99631690979004, 112.29217052459717, 85.16573905944824, 86.59005165100098, 84.55538749694824, 87.71109580993652, 111.21642589569092, 84.71834659576416, 83.82833003997803, 83.41598510742188, 112.10882663726807, 87.01157569885254, 84.75625514984131, 85.52312850952148, 113.08157444000244, 83.75012874603271, 82.26251602172852, 83.59932899475098, 88.2258415222168, 111.6706132888794, 87.3270034790039, 83.11188220977783, 82.24630355834961, 114.97354507446289, 84.22374725341797, 81.8864107131958, 83.2756757736206, 110.87751388549805, 86.4943265914917, 87.08906173706055, 82.93461799621582, 86.37011051177979, 111.04393005371094, 84.98549461364746, 86.57217025756836, 83.16445350646973, 111.15646362304688, 85.44754981994629, 85.9445333480835, 87.58854866027832, 109.19427871704102, 86.22074127197266, 84.9999189376831, 82.3063850402832, 85.66224575042725, 110.63790321350098, 83.02760124206543, 85.78717708587646, 85.17122268676758, 110.88156700134277, 83.8766098022461, 83.7392807006836, 84.92076396942139, 108.85095596313477, 86.31587028503418, 84.97607707977295, 81.63309097290039, 88.55116367340088, 110.740065574646, 86.52520179748535],
  "QPU": "300002E",
  "Qubits": 3,
  "Queue durations [ms]": [0.0, 0.0, 0.0, 0.0, 0.0, 0.0, 0.0, 0.0, 0.0, 0.0, 0.0, 0.0, 0.0, 0.0, 0.0, 0.0, 0.0, 0.0, 0.0, 0.0, 0.0, 0.0, 0.0, 0.0, 0.0, 0.0, 0.0, 0.0, 0.0, 0.0, 0.0, 0.0, 0.0, 0.0, 0.0, 0.0, 0.0, 0.0, 0.0, 0.0, 0.0, 0.0, 0.0, 0.0, 0.0, 0.0, 0.0, 0.0, 0.0, 0.0, 0.0, 0.0, 0.0, 0.0, 0.0, 0.0, 0.0, 0.0, 0.0, 0.0, 0.0, 0.0, 0.0, 0.0, 0.0, 0.0, 0.0, 0.0, 0.0, 0.0, 0.0, 0.0, 0.0, 0.0, 0.0, 0.0, 0.0, 0.0, 0.0, 0.0, 0.0, 0.0, 0.0, 0.0, 0.0, 0.0, 0.0, 0.0, 0.0, 0.0, 0.0, 0.0, 0.0, 0.0, 0.0, 0.0, 0.0, 0.0, 0.0, 0.0, 0.0, 0.0, 0.0, 0.0, 0.0, 0.0, 0.0, 0.0, 0.0, 0.0, 0.0, 0.0, 0.0, 0.0, 0.0, 0.0, 0.0, 0.0, 0.0, 0.0, 0.0, 0.0, 0.0, 0.0, 0.0, 0.0, 0.0, 0.0, 0.0, 0.0, 0.0, 0.0, 0.0, 0.0, 0.0, 0.0, 0.0, 0.0, 0.0, 0.0, 0.0, 0.0, 0.0, 0.0, 0.0, 0.0, 0.0, 0.0, 0.0, 0.0, 0.0, 0.0, 0.0, 0.0, 0.0, 0.0, 0.0, 0.0, 0.0, 0.0, 0.0, 0.0, 0.0, 0.0, 0.0, 0.0, 0.0, 0.0, 0.0, 0.0, 0.0, 0.0, 0.0, 0.0, 0.0, 0.0, 0.0],
  "Shots": 4096,
  "Size": 3,
  "Total Algorithm duration [s]": 124.947,
  "Total Classic duration [s]": 108.81268081378937,
  "Total Quantum duration [s]": 16.134319186210632
}
