{
  "Circuit execution durations [ms]": [67.9163932800293, 65.96541404724121, 66.13743305206299, 92.97585487365723, 67.0689344406128, 66.6285753250122, 66.22827053070068, 92.69821643829346, 63.901305198669434, 68.04299354553223, 67.74818897247314, 95.06392478942871, 67.43168830871582, 68.57609748840332, 66.1708116531372, 66.23494625091553, 91.80855751037598, 65.54758548736572, 64.8273229598999, 65.28961658477783, 94.0847396850586, 63.49027156829834, 69.68629360198975, 68.61507892608643, 94.35653686523438, 68.70067119598389, 69.70691680908203, 64.25392627716064, 64.09597396850586, 93.78218650817871, 67.5656795501709, 69.68832015991211, 65.3465986251831, 92.13554859161377, 62.844276428222656, 68.96448135375977, 67.09146499633789, 93.4983491897583, 63.94004821777344, 66.36345386505127, 67.5196647644043, 68.74597072601318, 93.38939189910889, 65.5522346496582, 68.91179084777832, 65.81997871398926, 92.80383586883545, 67.75927543640137, 67.76094436645508, 67.1839714050293, 96.24612331390381, 67.69609451293945, 63.93241882324219, 64.55564498901367, 68.47250461578369, 91.12751483917236, 68.24016571044922, 65.4757022857666, 65.88160991668701, 95.43120861053467, 65.2388334274292, 65.26327133178711, 64.8263692855835, 93.09864044189453, 67.88265705108643, 63.94374370574951, 67.8098201751709, 66.40708446502686, 90.15190601348877, 65.80674648284912, 65.70780277252197, 66.06531143188477, 91.38500690460205, 67.63815879821777, 63.130974769592285, 65.44911861419678, 92.20802783966064, 65.63365459442139, 66.13039970397949, 67.27981567382813, 69.6343183517456, 105.2311658859253, 66.5135383605957, 65.52958488464355, 66.93661212921143, 95.85464000701904, 67.43776798248291, 67.03460216522217, 66.50352478027344, 92.12625026702881, 67.78991222381592, 65.06490707397461, 65.5280351638794, 68.10164451599121, 93.03629398345947, 66.8482780456543, 64.59200382232666, 67.86167621612549, 95.71993350982666, 68.53854656219482, 64.39411640167236, 65.32716751098633, 95.2686071395874, 69.4962739944458, 66.1708116531372, 65.26744365692139, 67.83735752105713, 98.62112998962402, 62.32607364654541, 63.9575719833374, 65.74451923370361, 90.7278060913086, 66.57040119171143, 67.92211532592773, 69.50533390045166, 93.1323766708374, 66.37287139892578, 65.80471992492676, 66.49589538574219, 66.76614284515381, 90.7057523727417, 66.68615341186523, 66.06411933898926, 66.81406497955322, 92.82529354095459, 69.33200359344482, 64.37909603118896, 64.84687328338623, 95.33071517944336, 67.64161586761475, 67.40331649780273, 67.53432750701904, 67.92092323303223, 91.23623371124268, 66.04766845703125, 67.70789623260498],
  "Depth": 8.5,
  "Expectation Value": -2.880859375,
  "Optimal Expectation Value": -3.4939591884613037,
  "Optimizer durations [ms]": [709.714, 714.139, 722.041, 672.171, 714.678, 721.217, 723.761, 673.947, 699.761, 711.482, 722.225, 728.86, 665.381, 709.055, 712.116, 724.552, 670.349, 703.4, 709.185, 720.397, 675.846, 699.538, 718.937, 723.237, 727.782, 667.536, 711.575, 712.755, 718.868, 675.162, 709.208, 717.267, 723.249, 671.241, 696.653, 711.527, 720.126, 726.862, 655.544, 707.027, 718.989, 731.143, 674.759, 704.143, 715.622, 719.976, 671.223, 706.798, 711.629, 720.392, 731.294, 663.874, 699.113, 711.982, 728.879, 667.456, 708.813, 708.051, 720.835, 679.743, 705.344, 705.338, 715.05, 727.675, 664.148, 706.937, 719.348, 728.074, 666.543, 704.576, 707.549, 718.841, 670.82, 709.703, 701.491, 717.7, 722.812, 661.322, 705.437, 717.537, 731.306, 698.987, 722.431, 713.335, 725.01, 677.448, 742.247, 712.116, 718.117, 732.083, 665.445, 703.145, 712.011, 731.917, 672.509, 705.036, 706.029, 723.253, 677.836, 711.208, 709.425, 714.541, 730.913, 667.989, 706.071, 712.563, 727.85, 682.738, 696.327, 703.975, 720.809, 668.366, 710.382, 711.033, 723.796, 726.369, 662.754, 703.343, 714.48, 724.658, 667.855, 704.168, 708.134, 720.194, 671.457, 711.889, 704.776, 714.539, 731.203, 665.358, 704.277, 715.509, 726.783, 668.245, 706.827, 714.1],
  "Optimizer iterations": 136,
  "Optimizer params": [0.9445017924570953, 0.9981491968471286, 0.768041834196345, 0.9830066355661254, 0.8776783007195925, 0.9809251225876013, 0.9982011406748049, 0.981825729384529, 0.24888411442658048, 0.9404188027748662, 0.5297303503059642, 0.8683640527322839],
  "P": 0,
  "Problem": "IC",
  "QJob durations [ms]": [85.98995208740234, 83.9921236038208, 84.34081077575684, 110.82804203033447, 86.30633354187012, 84.89632606506348, 84.69986915588379, 110.64004898071289, 82.07488059997559, 85.98065376281738, 86.28678321838379, 113.10815811157227, 85.48903465270996, 86.67850494384766, 84.42103862762451, 84.62059497833252, 110.01861095428467, 83.78791809082031, 82.9840898513794, 83.6859941482544, 111.95433139801025, 81.65538311004639, 87.61167526245117, 86.8915319442749, 112.42592334747314, 86.76493167877197, 87.71657943725586, 82.69023895263672, 82.45253562927246, 112.01786994934082, 85.70384979248047, 87.74900436401367, 83.69708061218262, 110.30423641204834, 81.25078678131104, 87.04280853271484, 85.37697792053223, 111.97590827941895, 81.98964595794678, 84.33616161346436, 86.00974082946777, 87.14473247528076, 111.60886287689209, 83.6097002029419, 87.11814880371094, 84.24949645996094, 110.64088344573975, 85.99603176116943, 86.10761165618896, 85.41357517242432, 114.2500638961792, 85.45005321502686, 82.01813697814941, 82.60118961334229, 86.98403835296631, 109.1221570968628, 86.70485019683838, 83.40346813201904, 84.22553539276123, 113.4730577468872, 83.38379859924316, 83.30869674682617, 83.25314521789551, 111.39154434204102, 85.67357063293457, 81.8479061126709, 86.34781837463379, 85.49058437347412, 108.15083980560303, 83.89902114868164, 83.53447914123535, 84.26499366760254, 109.58099365234375, 86.01868152618408, 81.2300443649292, 83.443284034729, 110.21363735198975, 83.67419242858887, 84.2137336730957, 85.59143543243408, 88.07671070098877, 123.30508232116699, 84.42521095275879, 84.36799049377441, 85.38949489593506, 113.67499828338623, 85.68549156188965, 84.83076095581055, 85.13212203979492, 110.1464033126831, 85.59930324554443, 83.05585384368896, 83.77790451049805, 86.17091178894043, 111.00387573242188, 84.94937419891357, 82.74435997009277, 86.14706993103027, 113.70706558227539, 86.66694164276123, 82.45933055877686, 83.78612995147705, 113.50071430206299, 87.67962455749512, 85.42346954345703, 83.7467908859253, 85.87944507598877, 116.59705638885498, 80.39891719818115, 81.92920684814453, 84.44976806640625, 108.54387283325195, 84.77914333343506, 86.25483512878418, 87.82267570495605, 111.20843887329102, 84.47432518005371, 84.02252197265625, 84.78116989135742, 84.93423461914063, 108.80136489868164, 84.55240726470947, 84.11133289337158, 85.26957035064697, 110.77296733856201, 87.63468265533447, 83.07433128356934, 83.68480205535889, 113.24703693389893, 85.58058738708496, 85.4337215423584, 85.97314357757568, 86.15279197692871, 109.11738872528076, 84.34367179870605, 86.0821008682251],
  "QPU": "300002E",
  "Qubits": 3,
  "Queue durations [ms]": [0.0, 0.0, 0.0, 0.0, 0.0, 0.0, 0.0, 0.0, 0.0, 0.0, 0.0, 0.0, 0.0, 0.0, 0.0, 0.0, 0.0, 0.0, 0.0, 0.0, 0.0, 0.0, 0.0, 0.0, 0.0, 0.0, 0.0, 0.0, 0.0, 0.0, 0.0, 0.0, 0.0, 0.0, 0.0, 0.0, 0.0, 0.0, 0.0, 0.0, 0.0, 0.0, 0.0, 0.0, 0.0, 0.0, 0.0, 0.0, 0.0, 0.0, 0.0, 0.0, 0.0, 0.0, 0.0, 0.0, 0.0, 0.0, 0.0, 0.0, 0.0, 0.0, 0.0, 0.0, 0.0, 0.0, 0.0, 0.0, 0.0, 0.0, 0.0, 0.0, 0.0, 0.0, 0.0, 0.0, 0.0, 0.0, 0.0, 0.0, 0.0, 0.0, 0.0, 0.0, 0.0, 0.0, 0.0, 0.0, 0.0, 0.0, 0.0, 0.0, 0.0, 0.0, 0.0, 0.0, 0.0, 0.0, 0.0, 0.0, 0.0, 0.0, 0.0, 0.0, 0.0, 0.0, 0.0, 0.0, 0.0, 0.0, 0.0, 0.0, 0.0, 0.0, 0.0, 0.0, 0.0, 0.0, 0.0, 0.0, 0.0, 0.0, 0.0, 0.0, 0.0, 0.0, 0.0, 0.0, 0.0, 0.0, 0.0, 0.0, 0.0, 0.0, 0.0, 0.0],
  "Shots": 4096,
  "Size": 3,
  "Total Algorithm duration [s]": 95.904,
  "Total Classic duration [s]": 83.53555853748321,
  "Total Quantum duration [s]": 12.368441462516785
}
