{
  "Circuit execution durations [ms]": [9.653568267822266, 9.341001510620117, 9.59920883178711, 9.519815444946289, 9.69243049621582, 9.486675262451172, 9.627342224121094, 9.596109390258789, 9.578466415405273, 9.20557975769043, 9.309768676757813, 9.65738296508789, 9.52768325805664, 9.516477584838867, 9.428739547729492, 9.430646896362305, 9.324312210083008, 9.582996368408203, 9.690999984741211, 9.441614151000977, 9.612083435058594, 9.46497917175293, 9.734630584716797, 9.618997573852539, 9.793758392333984, 9.52458381652832, 9.695053100585938, 9.495973587036133, 9.466409683227539, 9.457826614379883, 9.778261184692383, 9.675025939941406, 9.637117385864258, 9.723424911499023, 9.484052658081055, 9.460926055908203, 9.493350982666016, 9.73200798034668, 9.737014770507813, 9.567737579345703, 9.708642959594727, 9.624004364013672, 9.2620849609375, 9.325027465820313, 9.591102600097656, 9.63592529296875, 9.753942489624023, 9.849309921264648, 9.720802307128906, 9.484052658081055, 9.5062255859375, 9.740114212036133, 9.65571403503418, 9.474992752075195, 9.736299514770508, 9.45281982421875, 9.717941284179688, 9.479522705078125, 9.771108627319336, 9.540081024169922, 9.774446487426758, 9.793281555175781, 9.612321853637695, 9.489774703979492, 9.412050247192383, 9.454488754272461, 9.490966796875, 9.710073471069336, 9.559869766235352, 9.403467178344727, 9.440898895263672, 9.513139724731445, 9.51838493347168, 9.504556655883789, 9.338140487670898, 9.546756744384766, 9.649276733398438, 9.64212417602539, 9.460687637329102, 9.510040283203125, 9.611368179321289, 9.380340576171875, 9.435415267944336, 9.56106185913086, 9.75346565246582, 9.442329406738281, 9.519338607788086, 9.57179069519043, 9.786367416381836, 9.574174880981445, 9.79304313659668, 9.764909744262695, 9.575128555297852, 9.34743881225586, 9.790420532226563, 9.608745574951172],
  "Depth": 95.0,
  "Expectation Value": -5.96044921875,
  "Optimal Expectation Value": -6.0,
  "Optimizer durations [ms]": [133.858, 172.57, 132.648, 133.107, 133.948, 132.659, 171.978, 133.484, 132.713, 132.164, 133.135, 171.972, 132.02, 132.939, 132.37, 132.917, 174.081, 133.117, 133.141, 133.006, 132.932, 172.197, 133.203, 133.022, 133.228, 133.442, 174.147, 133.423, 133.503, 132.2, 133.136, 172.545, 132.997, 132.84, 133.535, 132.972, 173.828, 133.645, 133.026, 133.173, 133.067, 172.117, 132.751, 133.007, 132.933, 133.291, 174.513, 132.779, 132.447, 132.779, 132.648, 172.487, 132.584, 133.229, 133.298, 132.707, 173.916, 132.459, 133.102, 132.598, 133.529, 172.509, 132.403, 133.219, 132.567, 132.863, 174.173, 133.02, 132.826, 132.828, 132.91, 173.563, 132.46, 132.855, 132.098, 133.705, 174.638, 132.939, 133.762, 132.766, 132.659, 172.267, 132.562, 132.887, 133.384, 134.502, 174.919, 132.404, 133.463, 132.891, 133.455, 173.231, 132.568, 132.264, 133.483, 132.569],
  "Optimizer iterations": 96,
  "Optimizer params": [0.9824736814034868, 0.840576810525985, 0.9937227387687184, 0.7340130552847082, 0.9166417768087323, 0.9858014820665579],
  "P": 3,
  "Problem": "MCP",
  "QJob durations [ms]": [82.34333992004395, 81.68697357177734, 81.55560493469238, 81.97665214538574, 82.44204521179199, 81.74872398376465, 81.87103271484375, 82.00740814208984, 81.86602592468262, 81.56919479370117, 81.48026466369629, 81.58278465270996, 81.13598823547363, 81.73775672912598, 81.84432983398438, 82.24987983703613, 81.09831809997559, 81.83026313781738, 81.88819885253906, 81.88462257385254, 81.56800270080566, 81.56037330627441, 81.82716369628906, 81.73322677612305, 82.21268653869629, 82.02123641967773, 81.71677589416504, 81.91323280334473, 82.1530818939209, 81.53033256530762, 82.18193054199219, 81.79712295532227, 81.51721954345703, 81.85482025146484, 82.08727836608887, 82.16643333435059, 81.55941963195801, 82.04030990600586, 81.93683624267578, 81.87699317932129, 81.6655158996582, 81.81643486022949, 81.37631416320801, 81.79545402526855, 81.91752433776855, 82.34381675720215, 81.70199394226074, 81.85958862304688, 81.82859420776367, 81.8932056427002, 81.51888847351074, 81.70771598815918, 81.38489723205566, 81.89535140991211, 81.95376396179199, 81.817626953125, 81.75802230834961, 81.54845237731934, 82.16071128845215, 81.80069923400879, 82.11517333984375, 82.41724967956543, 81.37321472167969, 81.8021297454834, 81.76088333129883, 81.88271522521973, 81.64429664611816, 82.20601081848145, 81.67076110839844, 81.64477348327637, 81.57706260681152, 81.68721199035645, 81.35771751403809, 81.78520202636719, 81.5575122833252, 82.20362663269043, 81.3894271850586, 81.72369003295898, 82.55481719970703, 81.96663856506348, 81.50076866149902, 81.4204216003418, 81.26139640808105, 81.5887451171875, 82.14211463928223, 83.04786682128906, 81.97879791259766, 81.63046836853027, 82.07225799560547, 81.74443244934082, 82.000732421875, 82.03625679016113, 81.48765563964844, 81.42375946044922, 82.41438865661621, 81.84671401977539],
  "QPU": "3010008",
  "Qubits": 5,
  "Queue durations [ms]": [0.0, 0.0, 0.0, 0.0, 0.0, 0.0, 0.0, 0.0, 0.0, 0.0, 0.0, 0.0, 0.0, 0.0, 0.0, 0.0, 0.0, 0.0, 0.0, 0.0, 0.0, 0.0, 0.0, 0.0, 0.0, 0.0, 0.0, 0.0, 0.0, 0.0, 0.0, 0.0, 0.0, 0.0, 0.0, 0.0, 0.0, 0.0, 0.0, 0.0, 0.0, 0.0, 0.0, 0.0, 0.0, 0.0, 0.0, 0.0, 0.0, 0.0, 0.0, 0.0, 0.0, 0.0, 0.0, 0.0, 0.0, 0.0, 0.0, 0.0, 0.0, 0.0, 0.0, 0.0, 0.0, 0.0, 0.0, 0.0, 0.0, 0.0, 0.0, 0.0, 0.0, 0.0, 0.0, 0.0, 0.0, 0.0, 0.0, 0.0, 0.0, 0.0, 0.0, 0.0, 0.0, 0.0, 0.0, 0.0, 0.0, 0.0, 0.0, 0.0, 0.0, 0.0, 0.0, 0.0],
  "Shots": 4096,
  "Size": 5,
  "Total Algorithm duration [s]": 13.53,
  "Total Classic duration [s]": 5.67528465270996,
  "Total Quantum duration [s]": 7.854715347290039
}
