{
  "Depth": 2.0,
  "Job durations [ms]": [7.320284843444824, 7.348895072937012, 7.531881332397461, 7.406949996948242, 7.442593574523926, 7.358193397521973, 7.331132888793945, 7.386922836303711, 7.753252983093262, 7.34102725982666, 7.268190383911133, 7.433891296386719, 7.282733917236328, 7.526159286499023, 7.354855537414551, 7.190465927124023, 7.186174392700195, 7.484555244445801, 7.445096969604492, 7.372736930847168, 7.2983503341674805, 7.345080375671387, 7.312655448913574, 7.31050968170166, 7.177114486694336, 7.32111930847168, 7.355332374572754, 7.560372352600098, 7.286548614501953, 7.600545883178711, 7.364153861999512, 7.431626319885254, 7.321834564208984, 7.432818412780762, 7.226347923278809, 7.400989532470703, 7.326722145080566, 7.261872291564941, 7.278919219970703, 7.9392194747924805, 7.313251495361328, 7.279753684997559, 7.241010665893555, 7.2928667068481445, 7.296085357666016, 7.059216499328613, 7.480978965759277, 7.420897483825684, 7.256150245666504, 7.301568984985352],
  "Optimizer durations [ms]": [115.487, 115.344, 115.842, 168.833, 120.274, 120.396, 117.69, 177.78, 117.554, 118.122, 118.636, 171.426, 115.156, 115.876, 114.17, 165.97, 114.462, 114.072, 114.357, 167.365, 116.937, 119.122, 113.917, 115.209, 165.928, 123.528, 116.91, 116.224, 169.533, 117.001, 119.495, 119.047, 170.401, 118.148, 119.685, 115.51, 164.221, 117.025, 116.695, 120.554, 171.151, 117.565, 114.452, 117.31, 164.429, 118.039, 119.532, 120.551, 177.563, 120.045],
  "Optimizer iterations": 50,
  "Qubits": 3,
  "Total Algorithm duration [s]": 6.494,
  "Total Classic duration [s]": 6.125740093231201,
  "Total Quantum duration [s]": 0.36825990676879883,
  "Expectation Value": -1.7468361854553223,
  "Optimal Expectation Value": -1.746999979019165,
  "Optimizer params": [1.0, 0.5001319119796273, 0.9942964541620086],
  "QPU": "3010008",
  "Problem": "RH",
  "Size": 3,
  "P": 0,
  "Shots": 4096
}