{
  "Circuit execution durations [ms]": [6.256341934204102, 6.208658218383789, 6.396770477294922, 6.381869316101074, 6.427288055419922, 6.437420845031738, 6.433010101318359, 6.43002986907959, 6.319284439086914, 6.404876708984375, 6.312251091003418, 6.410002708435059, 6.457209587097168, 6.370186805725098, 6.486773490905762, 6.420016288757324, 6.422758102416992, 6.440520286560059, 6.494998931884766, 6.380438804626465, 6.365180015563965, 6.458163261413574, 6.702303886413574, 6.460666656494141, 6.347775459289551, 6.36899471282959, 6.40106201171875, 6.457686424255371],
  "Depth": 2.0,
  "Expectation Value": -1.410658597946167,
  "Optimal Expectation Value": -1.4114999771118164,
  "Optimizer durations [ms]": [102.558, 186.415, 102.704, 102.564, 101.951, 187.226, 102.633, 102.686, 102.195, 190.276, 101.812, 102.939, 102.478, 186.84, 103.262, 103.004, 102.66, 186.942, 102.648, 102.068, 102.687, 102.017, 186.409, 103.655, 103.209, 101.749, 186.543, 102.751],
  "Optimizer iterations": 28,
  "Optimizer params": [0.9913599534232127, 0.504559392953961],
  "P": 0,
  "Problem": "RH",
  "QJob durations [ms]": [13.155579566955566, 13.01276683807373, 13.06295394897461, 13.05854320526123, 13.059377670288086, 13.232111930847168, 13.119339942932129, 13.090252876281738, 12.969374656677246, 13.180971145629883, 12.905597686767578, 13.121604919433594, 13.088822364807129, 13.264060020446777, 13.20040225982666, 13.166308403015137, 13.105273246765137, 55.142760276794434, 13.154268264770508, 12.998580932617188, 13.001203536987305, 13.072609901428223, 13.413429260253906, 13.365626335144043, 13.201594352722168, 13.049483299255371, 13.136744499206543, 13.093113899230957],
  "QPU": "3010008",
  "Qubits": 2,
  "Queue durations [ms]": [0.0, 0.0, 0.0, 0.0, 0.0, 0.0, 0.0, 0.0, 0.0, 0.0, 0.0, 0.0, 0.0, 0.0, 0.0, 0.0, 0.0, 0.0, 0.0, 0.0, 0.0, 0.0, 0.0, 0.0, 0.0, 0.0, 0.0, 0.0],
  "Shots": 4096,
  "Size": 2,
  "Total Algorithm duration [s]": 3.464,
  "Total Classic duration [s]": 3.054577244758606,
  "Total Quantum duration [s]": 0.40942275524139404
}
