{
  "Depth": 82.0,
  "Expectation Value": -0.99658203125,
  "Job durations [ms]": [97.40899999999999, 22.308999999999997, 22.095, 22.156, 22.095, 22.106, 22.159000000000002, 22.246, 22.374000000000002, 22.255, 22.2, 22.273, 22.144000000000002, 22.109, 22.208, 22.181, 22.063, 22.188, 22.169, 22.24, 22.251, 22.089000000000002, 22.329, 21.964000000000002, 22.232, 22.516000000000002, 22.416999999999998, 22.306, 22.283, 22.304000000000002, 21.91, 21.97, 22.349999999999998, 22.114, 22.32, 22.2, 22.283, 22.669999999999998, 22.218, 95.158, 22.113, 22.15, 22.102, 22.181, 22.110999999999997, 21.915, 22.243, 22.11, 22.189, 21.921, 22.307000000000002, 22.89, 22.128, 22.334, 22.031, 22.322000000000003, 22.183999999999997, 21.992, 22.284000000000002, 22.145000000000003, 22.556, 22.015, 22.419999999999998, 22.171, 21.858, 22.335, 22.157, 22.288, 22.146, 22.189, 22.308, 22.107000000000003, 22.195, 22.108, 22.371, 22.343999999999998, 22.119, 94.237, 22.415999999999997, 22.311, 22.115, 21.943, 22.662000000000003, 22.073, 22.114, 22.414, 22.158, 21.679000000000002, 22.234, 22.246, 22.242, 22.25, 22.294, 22.161, 22.191],
  "Optimal Expectation Value": -1.0,
  "Optimizer durations [ms]": [102.081, 26.964, 26.486, 26.561, 26.603, 26.706, 26.686, 26.721, 26.797, 26.72, 26.662, 26.786, 26.564, 26.571, 26.715, 26.628, 26.518, 26.733, 26.621, 26.655, 26.775, 26.55, 26.824, 26.501, 26.654, 27.033, 26.971, 26.839, 26.81, 26.846, 26.292, 26.549, 26.81, 26.609, 26.853, 26.766, 26.69, 27.205, 26.692, 99.773, 26.754, 26.613, 26.59, 26.709, 26.565, 26.393, 26.686, 26.591, 26.741, 26.373, 26.83, 27.356, 26.633, 26.779, 26.485, 26.833, 26.714, 26.428, 26.852, 26.693, 27.021, 26.575, 27.013, 26.677, 26.318, 26.794, 26.718, 26.749, 26.614, 26.723, 26.741, 26.597, 26.666, 26.66, 26.852, 26.843, 26.655, 98.927, 27.091, 27.133, 26.832, 26.391, 27.426, 26.859, 26.611, 26.928, 26.688, 26.242, 26.833, 26.741, 26.777, 26.747, 26.832, 26.653, 26.659],
  "Optimizer iterations": 95,
  "Optimizer params": [0.6764337927126775, 0.13175906667038514, 0.9999999999999999, 0.16881826387606702, 0.9676432053785762, 0.012790583231713712],
  "P": 3,
  "Problem": "MIS",
  "QPU": "9000001",
  "Qubits": 4,
  "Shots": 4096,
  "Size": 3,
  "Total Algorithm duration [s]": 2.759,
  "Total Classic duration [s]": 0.4290579999999995,
  "Total Quantum duration [s]": 2.3299420000000004
}
