{
  "Depth": 82.0,
  "Expectation Value": -0.99169921875,
  "Job durations [ms]": [98.191, 22.110999999999997, 22.141000000000002, 22.016000000000002, 21.951999999999998, 22.243, 22.056, 22.33, 22.012, 22.436, 21.894000000000002, 22.151, 22.805, 22.251, 22.305, 22.033, 22.270000000000003, 22.488, 22.318, 22.395000000000003, 21.943, 22.188, 22.083, 22.002000000000002, 22.262, 22.335, 22.365, 22.325000000000003, 22.174, 22.401, 22.093, 22.443, 22.041999999999998, 22.322000000000003, 22.005, 21.944000000000003, 22.506, 22.14, 94.293, 22.088, 22.353, 22.18, 22.21, 22.248, 22.106, 22.183999999999997, 22.034000000000002, 22.051000000000002, 22.328, 22.038999999999998, 22.208, 22.003999999999998, 22.09, 23.272000000000002, 21.979, 22.159000000000002, 22.002000000000002, 22.137, 21.832, 22.106, 22.142, 21.982000000000003, 22.192, 21.852, 22.061999999999998, 21.852, 22.114, 22.194, 22.206, 22.233, 21.948999999999998, 22.069, 22.333, 21.944000000000003, 22.168, 22.049, 22.093999999999998, 21.959, 94.592, 22.432000000000002, 22.057, 22.261, 21.852, 22.182, 22.127000000000002, 21.953, 22.259, 22.161, 22.266000000000002, 22.261, 22.053, 22.165, 22.304000000000002, 22.204, 21.944000000000003, 22.191, 21.947000000000003, 21.911, 22.608, 22.09, 22.188, 22.017, 22.141000000000002, 22.081, 22.315, 22.058, 21.842, 22.346999999999998],
  "Optimal Expectation Value": -1.0,
  "Optimizer durations [ms]": [102.817, 26.805, 26.598, 26.521, 26.44, 26.841, 26.806, 26.856, 26.466, 26.946, 26.429, 26.631, 27.319, 26.719, 26.814, 26.474, 26.644, 27.055, 26.791, 26.833, 26.428, 26.727, 26.567, 26.494, 26.705, 26.82, 26.844, 26.823, 26.702, 26.873, 26.553, 26.95, 26.529, 26.707, 26.499, 26.505, 27.01, 26.628, 99.112, 26.708, 26.875, 27.05, 26.762, 26.796, 26.564, 26.805, 26.534, 26.581, 26.787, 26.466, 26.807, 26.46, 26.559, 27.67, 26.425, 27.161, 26.536, 26.608, 26.33, 26.543, 26.627, 26.433, 26.678, 26.273, 26.511, 26.368, 26.535, 26.627, 26.717, 26.78, 26.45, 26.56, 26.826, 26.476, 26.815, 26.507, 26.529, 26.533, 99.237, 27.249, 26.645, 26.764, 26.377, 26.691, 26.642, 26.508, 26.771, 26.684, 26.858, 26.819, 26.491, 26.68, 26.858, 26.753, 26.441, 26.726, 26.34, 26.53, 27.05, 26.5, 26.738, 26.491, 26.62, 26.661, 26.787, 26.505, 26.47, 26.844],
  "Optimizer iterations": 108,
  "Optimizer params": [0.9036008389462656, 0.9509064989123798, 0.7565712703501113, 0.9588568574126723, 0.3162721373863833, 0.8019412732050349],
  "P": 3,
  "Problem": "MIS",
  "QPU": "9000001",
  "Qubits": 4,
  "Shots": 4096,
  "Size": 3,
  "Total Algorithm duration [s]": 3.102,
  "Total Classic duration [s]": 0.487922999999999,
  "Total Quantum duration [s]": 2.614077000000001
}
