{
  "Circuit execution durations [ms]": [5282.661914825439, 5074.464559555054, 5332.4689865112305, 5303.753614425659, 5218.316078186035, 5153.31244468689, 5225.822925567627, 5151.889324188232, 5152.857065200806, 5064.070701599121, 5266.3774490356445, 5012.022495269775, 5261.831521987915, 5137.967824935913, 5346.7137813568115, 5156.826972961426, 5155.018329620361, 5344.222784042358, 5286.880731582642, 5070.965051651001, 5222.167730331421, 5147.997856140137, 5488.651514053345, 5216.8004512786865, 5142.414569854736, 5220.529317855835, 5145.980358123779, 5338.373899459839, 5267.099142074585, 5138.24462890625, 5212.007284164429, 5107.123136520386, 5286.476373672485, 5363.786458969116, 5284.451007843018, 5211.954593658447, 5037.712574005127, 5120.650768280029, 5129.540681838989, 5356.391429901123, 5409.521818161011, 5434.409379959106, 5270.992040634155, 5204.723119735718, 5177.367210388184, 5174.947023391724, 5103.771686553955, 5229.231595993042, 5118.331670761108, 5083.368301391602, 5179.362535476685, 5186.700105667114, 5451.628923416138, 5288.32483291626, 5233.759641647339, 5364.077091217041, 5246.668100357056, 5086.410045623779, 5412.596702575684, 5418.509483337402, 5331.306457519531, 5378.993272781372, 5114.558219909668, 5296.395063400269, 5176.597833633423, 5133.415699005127, 5032.501220703125, 5203.289747238159, 5140.339374542236, 5120.290756225586, 5313.562393188477, 5209.847211837769, 5222.264766693115, 5847.264766693115, 5045.284271240234, 5140.076398849487, 5134.472131729126, 5141.3514614105225, 5204.062938690186, 5119.375705718994, 5455.649137496948, 5116.349697113037, 5143.822908401489, 5392.8961753845215, 5215.793132781982, 5065.883159637451, 5093.526124954224, 5307.783365249634, 5443.694591522217, 5045.985460281372, 5169.278144836426, 5464.555501937866, 5084.6266746521, 5215.644598007202, 5133.224964141846, 5167.402505874634],
  "Depth": 95.0,
  "Expectation Value": -5.96923828125,
  "Optimal Expectation Value": -6.0,
  "Optimizer durations [ms]": [17306.559, 16782.9, 17383.563, 16986.272, 16649.098, 16542.937, 16344.438, 16505.553, 16736.914, 16473.728, 16525.237, 16387.975, 16378.261, 16705.884, 17248.74, 16732.086, 16613.915, 16184.555, 16806.278, 16834.185, 16688.393, 16626.542, 17360.447, 18487.476, 16491.542, 16820.534, 16635.452, 16703.341, 16791.561, 16564.625, 16516.689, 16643.43, 16337.66, 17022.327, 16721.002, 16455.785, 16355.155, 16556.986, 16725.034, 17258.791, 16432.563, 16791.167, 16542.176, 16826.657, 16561.29, 16671.988, 16699.062, 16401.385, 16578.5, 16628.183, 16375.815, 16688.743, 17312.077, 17322.079, 16632.17, 17063.535, 16639.335, 17140.752, 17364.592, 17645.672, 16706.136, 16674.552, 16701.088, 16611.816, 16472.904, 16988.332, 16409.41, 16660.275, 16578.24, 16617.016, 17539.875, 16799.673, 16412.324, 18178.147, 16572.434, 16645.52, 16879.78, 16256.226, 16716.87, 16473.539, 17659.098, 17114.043, 16263.602, 17239.0, 16328.307, 16750.788, 16455.066, 16695.829, 17249.616, 16455.57, 16636.404, 17694.638, 16686.046, 16528.67, 16683.621, 16582.298],
  "Optimizer iterations": 96,
  "Optimizer params": [0.7008595366481447, 0.9518685231191449, 0.39216286228497776, 0.991162820554858, 0.5345043255958309, 0.8644582062003546],
  "P": 3,
  "Problem": "MCP",
  "QJob durations [ms]": [17252.07757949829, 16775.2742767334, 17376.527070999146, 16979.231357574463, 16641.78490638733, 16535.674810409546, 16337.28003501892, 16498.324155807495, 16729.678869247437, 16466.296195983887, 16517.937421798706, 16380.831956863403, 16370.850563049316, 16698.521614074707, 17241.53780937195, 16724.89881515503, 16606.899738311768, 16177.263259887695, 16799.025535583496, 16827.18563079834, 16681.379318237305, 16619.029760360718, 17353.097438812256, 18480.401515960693, 16484.444856643677, 16813.23552131653, 16627.978801727295, 16696.316957473755, 16784.44266319275, 16557.29627609253, 16509.43684577942, 16636.357069015503, 16330.62481880188, 17015.17605781555, 16713.404655456543, 16448.501348495483, 16348.168849945068, 16549.671411514282, 16672.391176223755, 17251.745223999023, 16425.527095794678, 16784.361839294434, 16534.98601913452, 16819.03386116028, 16554.40330505371, 16665.132522583008, 16691.726446151733, 16393.97144317627, 16571.38442993164, 16621.22106552124, 16368.406534194946, 16681.45203590393, 17305.05347251892, 17315.149068832397, 16625.190258026123, 17056.145906448364, 16631.943702697754, 17133.7730884552, 17357.61547088623, 17638.33236694336, 16698.82035255432, 16667.185306549072, 16694.090604782104, 16604.727745056152, 16465.638875961304, 16980.971813201904, 16402.302980422974, 16653.31268310547, 16571.020364761353, 16609.755992889404, 17532.654762268066, 16792.62137413025, 16405.225038528442, 18126.74045562744, 16565.39011001587, 16638.530731201172, 16826.19071006775, 16248.978614807129, 16709.23089981079, 16466.655731201172, 17652.094841003418, 17106.749057769775, 16256.273746490479, 17231.79030418396, 16321.377277374268, 16743.602991104126, 16447.0534324646, 16688.54832649231, 17242.43974685669, 16448.06694984436, 16629.031658172607, 17687.361478805542, 16679.020404815674, 16520.9379196167, 16676.097869873047, 16574.51629638672],
  "QPU": "6000004",
  "Qubits": 5,
  "Queue durations [ms]": [0.0, 0.0, 0.0, 0.0, 0.0, 0.0, 0.0, 0.0, 0.0, 0.0, 0.0, 0.0, 0.0, 0.0, 0.0, 0.0, 0.0, 0.0, 0.0, 0.0, 0.0, 0.0, 0.0, 0.0, 0.0, 0.0, 0.0, 0.0, 0.0, 0.0, 0.0, 0.0, 0.0, 0.0, 0.0, 0.0, 0.0, 0.0, 0.0, 0.0, 0.0, 0.0, 0.0, 0.0, 0.0, 0.0, 0.0, 0.0, 0.0, 0.0, 0.0, 0.0, 0.0, 0.0, 0.0, 0.0, 0.0, 0.0, 0.0, 0.0, 0.0, 0.0, 0.0, 0.0, 0.0, 0.0, 0.0, 0.0, 0.0, 0.0, 0.0, 0.0, 0.0, 0.0, 0.0, 0.0, 0.0, 0.0, 0.0, 0.0, 0.0, 0.0, 0.0, 0.0, 0.0, 0.0, 0.0, 0.0, 0.0, 0.0, 0.0, 0.0, 0.0, 0.0, 0.0, 0.0],
  "Shots": 4096,
  "Size": 5,
  "Total Algorithm duration [s]": 1610.126,
  "Total Classic duration [s]": 0.87598044967649,
  "Total Quantum duration [s]": 1609.2500195503235
}
