{
  "Circuit execution durations [ms]": [562.1306896209717, 549.9715805053711, 549.4883060455322, 553.6668300628662, 557.1167469024658, 549.5457649230957, 549.4751930236816, 544.71755027771, 553.9867877960205, 550.4274368286133, 551.0537624359131, 555.6995868682861, 554.3544292449951, 560.0457191467285, 547.6646423339844, 551.4252185821533, 544.83962059021, 565.401554107666, 554.8715591430664, 546.187162399292, 554.8908710479736, 548.3660697937012, 549.8242378234863, 561.4001750946045, 547.2207069396973, 548.5963821411133, 555.2716255187988, 557.9662322998047, 544.4991588592529, 548.5789775848389, 557.9373836517334, 553.7798404693604, 546.6632843017578, 556.7970275878906, 543.2989597320557, 548.9349365234375, 544.5389747619629, 555.4249286651611, 547.9755401611328, 550.0762462615967, 543.8880920410156, 552.9320240020752, 547.076940536499, 553.2269477844238, 561.9494915008545, 549.1983890533447, 546.8761920928955, 553.5128116607666, 549.0243434906006, 549.8549938201904, 864.5646572113037, 554.0850162506104, 553.5616874694824, 549.6125221252441, 551.9516468048096, 549.0894317626953, 551.1784553527832, 560.1387023925781, 545.7878112792969, 546.642541885376, 548.3927726745605, 550.6818294525146, 549.945592880249, 560.7528686523438, 563.3320808410645, 541.9814586639404, 546.4904308319092, 547.9443073272705, 544.1169738769531, 551.2971878051758, 554.3332099914551, 558.3784580230713, 545.5546379089355, 560.8065128326416, 558.351993560791, 546.5295314788818, 545.720100402832, 556.0204982757568, 561.3737106323242, 549.0937232971191, 553.5526275634766, 551.5165328979492, 555.3534030914307, 550.4364967346191, 553.3745288848877, 551.6793727874756, 555.3474426269531, 556.5760135650635, 541.5236949920654, 556.1685562133789, 553.3480644226074, 555.7355880737305, 551.2130260467529, 551.7239570617676, 548.407793045044, 551.8252849578857, 545.5460548400879, 549.0567684173584, 562.0388984680176, 559.5667362213135, 552.2315502166748, 549.774169921875, 564.8009777069092, 554.1465282440186, 549.4132041931152, 555.8583736419678, 552.2496700286865, 551.6681671142578],
  "Depth": 95.0,
  "Expectation Value": -5.9951171875,
  "Optimal Expectation Value": -6.0,
  "Optimizer durations [ms]": [2275.83, 2306.717, 2269.163, 2264.828, 2271.026, 2270.413, 2261.666, 2253.858, 2307.783, 2273.849, 2250.89, 2229.833, 2254.107, 2265.405, 2262.523, 2308.39, 2262.649, 2276.876, 2269.907, 2253.065, 2274.767, 2223.461, 2306.216, 2273.94, 2252.079, 2272.543, 2267.541, 2271.107, 2256.853, 2311.043, 2271.832, 2270.436, 2256.833, 2270.473, 2248.245, 2262.454, 2297.762, 2263.88, 2252.807, 2252.493, 2228.948, 2271.306, 2260.279, 2315.438, 2237.664, 2259.778, 2252.538, 2252.053, 2258.015, 2261.14, 2622.16, 2262.495, 2256.126, 2257.743, 2280.791, 2241.173, 2261.865, 2325.2, 2262.101, 2267.657, 2266.127, 2253.888, 2230.772, 2269.081, 2319.239, 2245.001, 2259.469, 2258.065, 2277.542, 2271.093, 2273.342, 2294.649, 2258.418, 2271.362, 2269.675, 2256.886, 2251.128, 2267.055, 2309.862, 2237.459, 2271.021, 2267.905, 2262.37, 2262.132, 2265.595, 2304.024, 2263.197, 2261.765, 2287.173, 2276.736, 2271.836, 2230.338, 2301.435, 2261.257, 2255.508, 2262.269, 2255.345, 2265.067, 2263.055, 2311.133, 2252.676, 2253.541, 2271.128, 2273.574, 2253.876, 2269.816, 2301.252, 2220.488],
  "Optimizer iterations": 108,
  "Optimizer params": [0.6060378914380232, 0.8788920370077705, 0.07016594119147726, 0.2544692665698811, 0.5010962977339524, 0.12917039888690973],
  "P": 3,
  "Problem": "MCP",
  "QJob durations [ms]": [2268.303871154785, 2299.560785293579, 2261.547803878784, 2257.448196411133, 2263.3004188537598, 2262.7482414245605, 2253.8487911224365, 2246.39892578125, 2300.196886062622, 2265.9833431243896, 2243.3948516845703, 2222.083568572998, 2246.7188835144043, 2257.889747619629, 2255.0764083862305, 2300.921678543091, 2254.934310913086, 2269.0982818603516, 2262.2718811035156, 2245.652198791504, 2267.350673675537, 2215.9206867218018, 2298.8250255584717, 2266.1702632904053, 2244.699239730835, 2264.970302581787, 2259.9785327911377, 2263.516902923584, 2249.171495437622, 2303.3294677734375, 2264.0786170959473, 2263.066530227661, 2249.121904373169, 2262.948513031006, 2240.6163215637207, 2254.864454269409, 2290.2984619140625, 2256.2239170074463, 2245.4371452331543, 2244.779586791992, 2221.5001583099365, 2263.833999633789, 2252.7029514312744, 2307.889938354492, 2229.8755645751953, 2252.369165420532, 2244.7597980499268, 2244.645833969116, 2250.361442565918, 2253.6277770996094, 2614.7382259368896, 2254.923105239868, 2248.589277267456, 2250.0462532043457, 2273.188352584839, 2233.5963249206543, 2254.345655441284, 2317.3911571502686, 2254.2734146118164, 2260.23006439209, 2258.3603858947754, 2246.337890625, 2223.0992317199707, 2261.4665031433105, 2311.6912841796875, 2237.1480464935303, 2252.0267963409424, 2250.408411026001, 2270.155429840088, 2263.3399963378906, 2265.72847366333, 2287.097454071045, 2250.614881515503, 2263.798475265503, 2261.821985244751, 2249.4144439697266, 2243.494987487793, 2259.4101428985596, 2302.5028705596924, 2229.678153991699, 2263.50474357605, 2260.179281234741, 2254.9307346343994, 2254.540205001831, 2258.1565380096436, 2296.6439723968506, 2255.5630207061768, 2254.2264461517334, 2279.453992843628, 2269.1705226898193, 2264.1825675964355, 2222.517967224121, 2294.0776348114014, 2253.6633014678955, 2248.0649948120117, 2254.556655883789, 2247.9662895202637, 2257.4379444122314, 2255.5489540100098, 2303.593873977661, 2244.920492172241, 2246.0787296295166, 2263.4522914886475, 2266.104221343994, 2246.3388442993164, 2262.3119354248047, 2293.4319972991943, 2212.750196456909],
  "QPU": "6010013",
  "Qubits": 5,
  "Queue durations [ms]": [0.0, 0.0, 0.0, 0.0, 0.0, 0.0, 0.0, 0.0, 0.0, 0.0, 0.0, 0.0, 0.0, 0.0, 0.0, 0.0, 0.0, 0.0, 0.0, 0.0, 0.0, 0.0, 0.0, 0.0, 0.0, 0.0, 0.0, 0.0, 0.0, 0.0, 0.0, 0.0, 0.0, 0.0, 0.0, 0.0, 0.0, 0.0, 0.0, 0.0, 0.0, 0.0, 0.0, 0.0, 0.0, 0.0, 0.0, 0.0, 0.0, 0.0, 0.0, 0.0, 0.0, 0.0, 0.0, 0.0, 0.0, 0.0, 0.0, 0.0, 0.0, 0.0, 0.0, 0.0, 0.0, 0.0, 0.0, 0.0, 0.0, 0.0, 0.0, 0.0, 0.0, 0.0, 0.0, 0.0, 0.0, 0.0, 0.0, 0.0, 0.0, 0.0, 0.0, 0.0, 0.0, 0.0, 0.0, 0.0, 0.0, 0.0, 0.0, 0.0, 0.0, 0.0, 0.0, 0.0, 0.0, 0.0, 0.0, 0.0, 0.0, 0.0, 0.0, 0.0, 0.0, 0.0, 0.0, 0.0],
  "Shots": 4096,
  "Size": 5,
  "Total Algorithm duration [s]": 245.215,
  "Total Classic duration [s]": 0.8184002304077183,
  "Total Quantum duration [s]": 244.39659976959229
}
