{
  "Depth": 2.0,
  "Expectation Value": -4.610499858856201,
  "Job durations [ms]": [0.3280000019003637, 0.13000000399188139, 0.2466000005370006, 0.13095000031171367, 0.1354000014543999, 0.12579999747686088, 0.11850000009872019, 0.11700000322889537, 0.2533000078983605, 0.10769999789772555, 0.1189499998872634, 0.30500000138999894, 0.24829999165376648, 0.11180000001331791, 0.10989999645971693, 0.11115000233985484, 0.10960000145132653, 0.13580000086221844, 0.10870000187424012, 0.10844999997061677, 0.11945000369451009, 0.21100000594742596, 0.12319999950705096, 0.11685000208672136, 0.11490000179037452, 0.13224999929661863, 0.20324999786680564, 0.11549999908311293, 0.11594999523367733, 0.10875000225496478, 0.12415000310284086, 0.11995000022579916, 0.12724999760393985, 0.19505000091157854, 0.185349999810569, 0.11959999756072648, 0.258100000792183, 0.12785000217263587, 0.16849999519763514, 0.12185000014142133, 0.1109000004362315, 0.11064999853260815, 0.3085000062128529, 0.12129999595344998, 0.11089999679825269, 0.11124999946332537, 0.23194999812403694, 0.11100000119768083, 0.2592999953776598, 0.13360000593820587, 0.12179999976069666, 0.11764999726437964, 0.13409999519353732, 0.1155500031018164, 0.12050000441377051, 0.1287500017497223, 0.12850000348407775, 0.23460000375052914, 0.13409999883151613, 0.15145000361371785, 0.13645000217366032, 0.30265000532381237, 0.27910000062547624, 0.11689999882946722, 0.11139999696752056, 0.15530000382568687, 0.28249999741092324, 0.15145000361371785, 0.11830000221380033, 0.11545000234036706, 0.12105000132578425, 0.2488999962224625, 0.10889999612118118, 0.20399999630171806, 0.11190000441274606, 0.1205000007757917, 0.11559999984456226, 0.13309999485500157, 0.11760000052163377, 0.2570000069681555, 0.12190000416012481, 0.11300000187475234, 0.11450000238255598, 0.13074999515083618, 0.13190000026952475, 0.11774999802582897, 0.12214999878779054, 0.1264000020455569, 0.13204999777371995, 0.18494999676477164, 0.2788500059978105, 0.112749999971129, 0.32959999225568026, 0.11810000069090165, 0.12284999684197828, 0.13514999591279775, 0.11939999967580661, 0.12254999819560908, 0.12475000039557926, 0.11774999802582897, 0.1556999995955266, 0.12280000009923242, 0.11449999874457717, 0.11494999853312038, 0.11720000111381523, 0.10945000030915253, 0.11219999578315765, 0.13329999637790024, 0.10984999971697107, 0.1187999987450894, 0.11385000107111409, 0.26450000586919487, 0.1307500024267938, 0.11829999857582152, 0.12395000157994218, 0.11659999654511921, 0.2638000078150071, 0.11744999937945977, 0.12299999798415229, 0.20984999719075859, 0.11445000200183131, 0.23599999258294702, 0.11475000428617932, 0.12475000039557926, 0.11589999849093147, 0.11830000221380033, 0.12415000310284086, 0.1410000040777959, 0.13239999680081382, 0.28514999576145783, 0.2521499918657355, 0.15759999951114878, 0.13110000145388767, 0.12335000064922497, 0.1714999962132424],
  "Optimal Expectation Value": -4.610499858856201,
  "Optimizer durations [ms]": [19.969, 19.002, 17.943, 23.032, 19.16, 18.463, 14.805, 19.306, 20.805, 20.915, 17.012, 17.413, 20.841, 14.179, 22.752, 18.617, 22.488, 15.197, 21.46, 12.281, 16.226, 18.205, 13.835, 14.357, 21.544, 19.362, 17.676, 18.49, 22.422, 21.213, 21.13, 15.238, 21.587, 21.82, 16.71, 22.397, 17.019, 22.779, 20.427, 22.381, 17.662, 15.156, 20.52, 22.211, 15.805, 22.757, 18.841, 15.407, 22.039, 19.472, 16.613, 22.664, 18.307, 14.579, 20.577, 16.47, 20.369, 17.662, 18.187, 20.614, 14.621, 18.847, 21.96, 15.05, 22.612, 13.26, 22.192, 17.215, 21.447, 21.937, 20.127, 17.072, 19.793, 17.637, 20.871, 21.309, 19.866, 18.204, 18.742, 16.593, 18.227, 22.659, 9.853, 18.303, 12.973, 19.193, 18.713, 17.844, 18.265, 17.576, 17.966, 18.849, 19.331, 20.294, 22.284, 20.893, 20.97, 21.385, 21.44, 15.869, 16.287, 19.61, 20.476, 17.401, 22.27, 20.175, 18.004, 15.928, 18.044, 19.27, 22.235, 21.616, 22.011, 18.459, 19.306, 18.218, 20.964, 15.859, 20.262, 14.854, 19.128, 19.48, 20.599, 20.422, 18.734, 18.43, 17.611, 18.399, 14.675, 19.493, 18.226, 20.749, 12.647, 20.653, 18.409],
  "Optimizer iterations": 135,
  "Optimizer params": [0.9997188340031216, 0.5001708461143534, 0.9999999999999999, 0.4997347151089435, 0.49753426392942984, 1.0, 0.4970611034921385, 0.4952488769753376],
  "P": 0,
  "Problem": "RH",
  "QPU": "7000000",
  "Qubits": 8,
  "Shots": 4096,
  "Size": 8,
  "Total Algorithm duration [s]": 2.547,
  "Total Classic duration [s]": 2.526615499993088,
  "Total Quantum duration [s]": 0.020384500006912276
}
