{
  "Depth": 2.0,
  "Expectation Value": -4.610499858856201,
  "Job durations [ms]": [0.17160000425064936, 0.1257499970961362, 0.13175000276532955, 0.125299997307593, 0.11855000411742367, 0.12100000094505958, 0.1172500014945399, 0.11669999730656855, 0.12274999971850775, 0.11805000394815579, 0.12675000107265078, 0.12445000174921006, 0.26259999140165746, 0.13310000213095918, 0.11929999891435727, 0.13029999900027178, 0.13359999866224825, 0.1291999979002867, 0.301199994282797, 0.12474999675760046, 0.29115000506863, 0.11770000128308311, 0.12880000213044696, 0.12410000272211619, 0.11544999870238826, 0.10844999633263797, 0.11210000229766592, 0.2856499995687045, 0.11699999959091656, 0.17914999625645578, 0.1274999995075632, 0.14089999967836775, 0.12729999798466451, 0.12370000331429765, 0.12599999899975955, 0.11770000128308311, 0.1298500064876862, 0.12185000377940014, 0.11949999679927714, 0.13129999933880754, 0.11509999967529438, 0.13265000234241597, 0.12509999942267314, 0.11550000272109173, 0.12124999921070412, 0.1369499950669706, 0.11620000077527948, 0.13300000136950985, 0.11920000179088674, 0.12184999650344253, 0.13535000471165404, 0.3034000037587248, 0.12140000035287812, 0.11464999624877237, 0.32110000029206276, 0.2812999955494888, 0.10934999590972438, 0.13409999883151613, 0.1839500037021935, 0.13730000137002207, 0.2307499962626025, 0.11929999891435727, 0.11630000153672881, 0.11779999840655364, 0.12680000145337544, 0.1158500017481856, 0.262100002146326, 0.18224999803351238, 0.1096500018320512, 0.11984999946434982, 0.12060000153724104, 0.11315000301692635, 0.10790000305860303, 0.13084999955026433, 0.19279999833088368, 0.12069999866071157, 0.23460000375052914, 0.1145999958680477, 0.14864999684505165, 0.11905000064871274, 0.13744999887421727, 0.1114999977289699, 0.32330000976799056, 0.12894999963464215, 0.31829999352339655, 0.3367500030435622, 0.2040999970631674, 0.1449999981559813, 0.12240000069141388, 0.15260000509442762, 0.11545000234036706, 0.11860000086016953, 0.21460000425577164, 0.11745000301743858, 0.14104999718256295, 0.1299499999731779, 0.1131999961216934, 0.1329000006080605, 0.11989999984507449, 0.11759999688365497, 0.3106500007561408, 0.313600008666981, 0.12439999773050658, 0.12349999815342017, 0.12000000060652383, 0.12510000306065194, 0.10945000030915253, 0.11330000415910035, 0.1421999986632727, 0.2112500078510493, 0.13735000175074674, 0.1281000004382804, 0.11360000280546956, 0.12179999976069666, 0.13500000204658136, 0.23705000057816505, 0.12149999747634865, 0.12119999882997945, 0.13254999794298783, 0.13829999807057902, 0.1518499993835576, 0.12884999887319282, 0.10805000420077704, 0.12670000432990491, 0.23179999698186293, 0.13015000149607658, 0.24130000383593142, 0.12014999811071903, 0.11720000111381523, 0.12355000217212364, 0.10874999861698598, 0.12015000174869783, 0.12214999878779054, 0.1189499998872634, 0.1325999983237125],
  "Optimal Expectation Value": -4.610499858856201,
  "Optimizer durations [ms]": [17.289, 18.342, 22.565, 22.429, 20.779, 16.143, 22.549, 19.537, 17.372, 22.821, 11.853, 18.95, 21.893, 16.558, 22.356, 19.075, 18.269, 16.232, 21.795, 17.302, 19.473, 21.866, 22.433, 16.578, 19.878, 17.766, 19.974, 21.779, 22.359, 22.125, 19.014, 15.195, 14.521, 17.944, 15.073, 21.918, 15.873, 22.81, 16.175, 15.034, 13.339, 13.341, 22.427, 19.296, 19.97, 17.104, 17.142, 14.985, 17.612, 17.913, 17.338, 18.025, 21.629, 18.087, 21.33, 22.255, 19.717, 23.047, 18.982, 18.409, 20.451, 22.813, 19.938, 19.847, 21.12, 18.858, 16.658, 21.526, 15.528, 22.585, 19.8, 22.216, 16.604, 14.456, 19.02, 18.819, 17.145, 18.394, 21.939, 22.019, 16.324, 21.311, 22.004, 15.383, 17.22, 22.284, 17.149, 17.296, 22.878, 15.906, 22.806, 19.667, 17.241, 20.449, 15.549, 16.666, 22.608, 9.956, 18.683, 18.221, 18.396, 18.794, 22.343, 17.896, 15.253, 19.662, 17.587, 18.725, 18.652, 22.067, 18.221, 19.561, 18.243, 22.245, 13.004, 19.408, 21.257, 17.758, 12.485, 22.047, 12.534, 16.451, 22.418, 15.189, 21.873, 20.485, 18.591, 20.365, 17.517, 18.08, 19.633, 22.522, 20.524, 16.977, 15.252],
  "Optimizer iterations": 135,
  "Optimizer params": [0.9997188340031216, 0.5001708461143534, 0.9999999999999999, 0.4997347151089435, 0.49753426392942984, 1.0, 0.4970611034921385, 0.4952488769753376],
  "P": 0,
  "Problem": "RH",
  "QPU": "7000000",
  "Qubits": 8,
  "Shots": 4096,
  "Size": 8,
  "Total Algorithm duration [s]": 2.545,
  "Total Classic duration [s]": 2.524855499965197,
  "Total Quantum duration [s]": 0.02014450003480306
}
