{
  "Depth": 2.0,
  "Expectation Value": -4.610499858856201,
  "Job durations [ms]": [0.12375000005704351, 0.11945000005653128, 0.13605000276584178, 0.24140000459738076, 0.12894999963464215, 0.12620000052265823, 0.15750000602565706, 0.12260000221431255, 0.12399999832268804, 0.13390000094659626, 0.13580000450019725, 0.14645000192103907, 0.1159999992523808, 0.11480000102892518, 0.1172499978565611, 0.11720000111381523, 0.1171000039903447, 0.1082499984477181, 0.13589999798568897, 0.16894999862415716, 0.11470000026747584, 0.11935000293306075, 0.11770000128308311, 0.2708999963942915, 0.13140000010025688, 0.12215000242576934, 0.2906000008806586, 0.11484999777167104, 0.109200002043508, 0.11680000170599669, 0.11390000508981757, 0.21520000154851004, 0.222250004298985, 0.12954999692738056, 0.12214999878779054, 0.1724499961710535, 0.12704999971901998, 0.2844499977072701, 0.11715000073309056, 0.14685000496683642, 0.13644999853568152, 0.12075000267941505, 0.12229999629198574, 0.11530000119819306, 0.13279999984661117, 0.11929999891435727, 0.12510000306065194, 0.11420000009820797, 0.16994999896269292, 0.13765000039711595, 0.26685000193538144, 0.12025000251014717, 0.2601999949547462, 0.12894999599666335, 0.13214999489719048, 0.1334000007773284, 0.13224999929661863, 0.13795000268146396, 0.3387500109965913, 0.16180000238819048, 0.13515000318875536, 0.11499999891384505, 0.13390000094659626, 0.30735000473214313, 0.11249999806750566, 0.1278000017919112, 0.11335000090184622, 0.12799999603885226, 0.11255000208620913, 0.25224999262718484, 0.11375000030966476, 0.1736999984132126, 0.11939999967580661, 0.2809999932651408, 0.29134999931557104, 0.2694000068004243, 0.12094999692635611, 0.10869999823626131, 0.11905000064871274, 0.2853499972843565, 0.1843999962147791, 0.1483999949414283, 0.11824999819509685, 0.12409999544615857, 0.12215000242576934, 0.11195000115549192, 0.26375000015832484, 0.12145000073360279, 0.11654999616439454, 0.13839999883202836, 0.11825000183307566, 0.13339999713934958, 0.11269999959040433, 0.12644999878830276, 0.2966999963973649, 0.11240000458201393, 0.11064999853260815, 0.11569999696803279, 0.15609999536536634, 0.13744999887421727, 0.1281000004382804, 0.1095000006898772, 0.13029999900027178, 0.1114999977289699, 0.11945000005653128, 0.10225000005448237, 0.13559999933931977, 0.10639999891282059, 0.12849999984609894, 0.1157000006060116, 0.127650004287716, 0.11455000276328065, 0.2676500007510185, 0.12615000377991237, 0.13020000187680125, 0.11255000208620913, 0.1396000006934628, 0.11824999819509685, 0.1110500015784055, 0.11225000343983993, 0.1221999991685152, 0.14999999984866008, 0.23194999812403694, 0.13374999616644345, 0.23175000387709588, 0.11494999853312038, 0.13579999722423963, 0.12010000500595197, 0.12014999811071903, 0.11175000327057205, 0.12335000064922497, 0.11789999916800298, 0.1262499972654041, 0.11174999599461444, 0.13655000293510966],
  "Optimal Expectation Value": -4.610499858856201,
  "Optimizer durations [ms]": [19.237, 18.501, 19.142, 22.016, 21.032, 17.043, 20.095, 16.979, 21.45, 11.789, 20.664, 14.131, 21.022, 18.762, 20.773, 21.957, 20.896, 16.077, 16.814, 17.386, 13.917, 20.22, 18.615, 17.07, 23.005, 19.319, 22.137, 20.406, 20.097, 19.405, 18.013, 16.48, 20.59, 21.384, 15.258, 20.674, 15.046, 22.044, 16.74, 18.978, 22.841, 22.246, 17.745, 20.126, 17.921, 18.47, 17.05, 18.239, 19.797, 13.932, 17.571, 14.337, 22.138, 15.441, 20.291, 16.417, 14.207, 12.392, 22.2, 16.176, 18.572, 20.455, 17.85, 16.565, 17.474, 16.07, 22.344, 18.548, 22.729, 17.894, 14.533, 21.24, 22.532, 14.58, 20.509, 18.759, 18.122, 21.69, 22.55, 18.236, 17.913, 19.021, 22.654, 19.56, 18.44, 21.526, 18.699, 19.292, 21.595, 15.063, 14.677, 17.223, 17.577, 15.694, 21.799, 17.104, 20.196, 16.402, 19.66, 14.234, 16.425, 22.714, 13.304, 19.379, 21.282, 22.656, 15.721, 17.448, 21.46, 20.924, 20.993, 18.176, 18.574, 22.36, 17.741, 16.008, 23.438, 19.824, 14.503, 22.64, 19.017, 14.699, 22.081, 14.391, 19.764, 14.116, 16.958, 17.641, 22.778, 15.785, 22.225, 15.196, 17.926, 22.497, 15.698],
  "Optimizer iterations": 135,
  "Optimizer params": [0.9997188340031216, 0.5001708461143534, 0.9999999999999999, 0.4997347151089435, 0.49753426392942984, 1.0, 0.4970611034921385, 0.4952488769753376],
  "P": 0,
  "Problem": "RH",
  "QPU": "7000000",
  "Qubits": 8,
  "Shots": 4096,
  "Size": 8,
  "Total Algorithm duration [s]": 2.52,
  "Total Classic duration [s]": 2.500118399987987,
  "Total Quantum duration [s]": 0.019881600012013223
}
