{
  "Depth": 2.0,
  "Expectation Value": -4.610499858856201,
  "Job durations [ms]": [0.12145000073360279, 0.13479999688570388, 0.13219999891589396, 0.11870000162161887, 0.11424999684095383, 0.19164999685017392, 0.13114999819663353, 0.32845000532688573, 0.23424999380949885, 0.12740000238409266, 0.1427000024705194, 0.11885000276379287, 0.13750000289292075, 0.1295000001846347, 0.11945000369451009, 0.26819999766303226, 0.13350000153877772, 0.13265000234241597, 0.11159999849041924, 0.30145000346237794, 0.10739999925135635, 0.21289999858709052, 0.12295000124140643, 0.11660000382107683, 0.10665000445442274, 0.11220000305911526, 0.14165000175125897, 0.11840000297524966, 0.3431000004638918, 0.11974999870290048, 0.11615000039455481, 0.1287500017497223, 0.1477999976486899, 0.127500003145542, 0.11889999950653873, 0.1266999970539473, 0.18139999883715063, 0.11074999565607868, 0.2500000045984052, 0.12165000225650147, 0.1192499985336326, 0.12884999887319282, 0.25735000235727057, 0.24204999499488622, 0.11960000119870529, 0.12540000170702115, 0.12105000132578425, 0.25874999118968844, 0.11579999772948213, 0.11845000335597433, 0.11325000377837569, 0.11934999929508194, 0.11615000039455481, 0.12090000018361025, 0.11685000208672136, 0.1302499986195471, 0.11824999819509685, 0.1331999956164509, 0.1186500012408942, 0.1325999983237125, 0.2534500017645769, 0.11704999997164123, 0.14604999523726292, 0.1127499963331502, 0.2621500098030083, 0.13420000323094428, 0.13004999709664844, 0.13295000462676398, 0.2920499973697588, 0.13085000318824314, 0.15884999447735026, 0.11344999802531675, 0.12394999794196337, 0.13530000069295056, 0.12055000115651637, 0.12435000098776072, 0.3201999934390187, 0.3011500011780299, 0.31334999948740005, 0.14695000572828576, 0.14860000010230578, 0.145650003105402, 0.12474999675760046, 0.18434999947203323, 0.17924999701790512, 0.1107500029320363, 0.13424999633571133, 0.11964999794145115, 0.10945000030915253, 0.2494999935152009, 0.16195000353036448, 0.11974999870290048, 0.1454499943065457, 0.1380500034429133, 0.15734999760752544, 0.13745000251219608, 0.19370000518392771, 0.11419999646022916, 0.11764999726437964, 0.11079999967478216, 0.11684999844874255, 0.14119999832473695, 0.15344999701483175, 0.3159000043524429, 0.11500000255182385, 0.11390000145183876, 0.1172500014945399, 0.2883000051951967, 0.11715000437106937, 0.10819999806699343, 0.13309999849298038, 0.3277999858255498, 0.12309999874560162, 0.1338500005658716, 0.3097000080742873, 0.2665999927558005, 0.3197000114596449, 0.11709999671438709, 0.30509999487549067, 0.12394999794196337, 0.16230000619543716, 0.13750000289292075, 0.20825000683544204, 0.11825000183307566, 0.14310000551631674, 0.11635000191745348, 0.10960000145132653, 0.21615000150632113, 0.12310000238358043, 0.13469999976223335, 0.13264999870443717, 0.20724999922094867, 0.2790999933495186, 0.13285000022733584, 0.11224999980186112],
  "Optimal Expectation Value": -4.610499858856201,
  "Optimizer durations [ms]": [15.235, 18.554, 18.114, 18.064, 19.983, 18.998, 20.447, 21.771, 15.198, 22.451, 19.66, 18.122, 18.538, 13.551, 18.655, 20.215, 13.296, 16.919, 17.862, 20.165, 18.978, 15.649, 18.815, 22.576, 19.891, 18.941, 14.706, 20.265, 18.311, 18.554, 16.12, 22.276, 20.41, 19.812, 11.885, 22.982, 20.513, 16.031, 14.202, 20.622, 17.311, 21.184, 18.882, 18.204, 19.891, 13.471, 22.418, 14.731, 22.445, 18.507, 20.762, 22.435, 19.921, 19.053, 19.968, 19.859, 18.213, 17.565, 16.783, 11.265, 21.06, 19.824, 15.47, 13.844, 18.411, 14.441, 13.425, 16.407, 18.221, 14.478, 14.584, 22.621, 17.099, 12.79, 17.329, 21.594, 19.731, 21.584, 17.722, 20.274, 12.656, 16.721, 20.85, 22.126, 16.757, 19.623, 11.961, 17.31, 20.013, 15.868, 17.292, 20.916, 21.919, 14.276, 18.548, 12.8, 21.464, 16.162, 21.176, 22.169, 15.912, 17.004, 14.23, 20.161, 17.566, 16.072, 19.772, 17.339, 19.438, 17.97, 16.232, 17.764, 18.25, 22.169, 21.334, 17.387, 18.822, 16.456, 20.798, 18.472, 17.054, 15.196, 19.046, 15.711, 18.12, 16.288, 22.493, 19.175, 20.534, 14.242, 18.302, 21.91, 21.831, 17.521, 20.301],
  "Optimizer iterations": 135,
  "Optimizer params": [0.9997188340031216, 0.5001708461143534, 0.9999999999999999, 0.4997347151089435, 0.49753426392942984, 1.0, 0.4970611034921385, 0.4952488769753376],
  "P": 0,
  "Problem": "RH",
  "QPU": "7000000",
  "Qubits": 8,
  "Shots": 4096,
  "Size": 8,
  "Total Algorithm duration [s]": 2.462,
  "Total Classic duration [s]": 2.440460299982544,
  "Total Quantum duration [s]": 0.021539700017456198
}
