{
  "Depth": 2.0,
  "Expectation Value": -4.610499858856201,
  "Job durations [ms]": [0.1193999960378278, 0.13300000136950985, 0.24234999727923423, 0.12495000191847794, 0.1355499989585951, 0.11919999815290794, 0.1647000026423484, 0.13544999819714576, 0.11099999755970202, 0.11099999755970202, 0.3094000057899393, 0.12495000191847794, 0.11515000369399786, 0.29380000341916457, 0.29009999707341194, 0.11425000411691144, 0.14954999642213807, 0.11410000297473744, 0.11834999895654619, 0.11329999688314274, 0.12150000475230627, 0.11559999620658346, 0.1374000021314714, 0.13099999705445953, 0.12599999899975955, 0.15504999828408472, 0.1348999976471532, 0.125149996165419, 0.118350002594525, 0.21385000582085922, 0.11309999899822287, 0.12155000149505213, 0.13250000120024197, 0.11699999959091656, 0.14009999722475186, 0.2645499989739619, 0.12575000073411502, 0.2091999995172955, 0.11435000124038197, 0.11140000060549937, 0.27270000282442197, 0.11824999819509685, 0.1373999984934926, 0.1201999984914437, 0.12375000005704351, 0.32879998616408557, 0.12105000496376306, 0.125149996165419, 0.12665000394918025, 0.11019999874406494, 0.320700004522223, 0.24280000070575625, 0.12110000170650892, 0.11830000221380033, 0.12394999794196337, 0.1870499982032925, 0.1274499954888597, 0.1268499981961213, 0.12970000170753337, 0.1292000015382655, 0.12375000005704351, 0.13559999570134096, 0.12254999455763027, 0.1137000035669189, 0.15490000077988952, 0.1140000022132881, 0.13624999701278284, 0.11735000225598924, 0.11639999866019934, 0.1349500016658567, 0.15050000365590677, 0.11185000039404258, 0.11810000069090165, 0.11635000191745348, 0.11655000344035216, 0.11549999908311293, 0.11649999578366987, 0.1107500029320363, 0.3070499951718375, 0.1145999958680477, 0.22980000358074903, 0.23920000239741057, 0.1360000023851171, 0.1310499974351842, 0.15320000238716602, 0.125449998449767, 0.11250000170548446, 0.22244999854592606, 0.11409999933675863, 0.2564000096754171, 0.28359999851090834, 0.11900000026798807, 0.11919999815290794, 0.12604999574250542, 0.13364999904297292, 0.2847500072675757, 0.2387000058661215, 0.28154999017715454, 0.11829999857582152, 0.2797499982989393, 0.11439999798312783, 0.13639999815495685, 0.1130499986174982, 0.12334999701124616, 0.1431500022590626, 0.17099999968195334, 0.10604999624774791, 0.11699999959091656, 0.30390000756597146, 0.12925000191899016, 0.11155000174767338, 0.11764999726437964, 0.12754999625030905, 0.13514999955077656, 0.11654999980237335, 0.12815000081900507, 0.11150000136694871, 0.1128999974753242, 0.1171000003523659, 0.11650000305962749, 0.12850000348407775, 0.1322999960393645, 0.12014999811071903, 0.20560000120894983, 0.23010000586509705, 0.11844999971799552, 0.11145000098622404, 0.1124500013247598, 0.21320000087143853, 0.21579999884124845, 0.21659999765688553, 0.31260000832844526, 0.11240000094403513, 0.2872499971999787, 0.12194999726489186],
  "Optimal Expectation Value": -4.610499858856201,
  "Optimizer durations [ms]": [19.788, 22.082, 18.931, 22.487, 19.281, 19.652, 14.076, 14.708, 19.547, 20.084, 17.225, 22.457, 18.06, 18.421, 19.104, 22.303, 17.186, 22.08, 22.297, 18.875, 15.317, 22.068, 17.073, 18.079, 20.068, 18.59, 12.119, 17.591, 22.326, 17.443, 14.91, 18.329, 19.417, 13.425, 18.157, 17.665, 18.652, 18.928, 13.349, 18.09, 17.027, 22.567, 17.613, 19.409, 20.576, 19.316, 17.566, 14.961, 18.077, 18.617, 17.876, 21.9, 20.121, 22.441, 20.304, 21.969, 16.219, 21.488, 11.527, 22.818, 17.401, 22.302, 16.085, 21.079, 17.363, 18.539, 18.32, 21.412, 20.454, 17.443, 20.404, 18.207, 20.226, 22.371, 13.194, 21.164, 17.051, 18.767, 17.651, 17.916, 20.943, 15.619, 17.481, 12.809, 20.896, 14.013, 19.668, 19.814, 19.98, 19.39, 19.254, 19.186, 20.978, 15.943, 15.608, 18.623, 21.928, 17.446, 21.066, 17.279, 19.914, 13.767, 22.473, 15.45, 18.033, 20.995, 18.709, 19.051, 21.481, 20.039, 18.313, 19.074, 16.196, 22.718, 19.192, 20.171, 19.228, 18.092, 18.259, 20.055, 19.583, 14.265, 18.624, 13.691, 21.137, 22.227, 15.916, 17.301, 21.896, 12.222, 21.842, 17.398, 22.399, 15.894, 21.78],
  "Optimizer iterations": 135,
  "Optimizer params": [0.9997188340031216, 0.5001708461143534, 0.9999999999999999, 0.4997347151089435, 0.49753426392942984, 1.0, 0.4970611034921385, 0.4952488769753376],
  "P": 0,
  "Problem": "RH",
  "QPU": "7000000",
  "Qubits": 8,
  "Shots": 4096,
  "Size": 8,
  "Total Algorithm duration [s]": 2.525,
  "Total Classic duration [s]": 2.504178050001792,
  "Total Quantum duration [s]": 0.020821949998207856
}
