{
  "Depth": 2.0,
  "Expectation Value": -4.610499858856201,
  "Job durations [ms]": [0.16699999832781032, 0.11680000170599669, 0.12289999722270295, 0.13109999781590886, 0.2818500070134178, 0.13580000086221844, 0.1291999979002867, 0.12140000035287812, 0.11100000119768083, 0.10905000090133399, 0.1109000004362315, 0.11295000149402767, 0.29889999859733507, 0.11675000132527202, 0.2488999962224625, 0.1625500008231029, 0.11489999815239571, 0.1203499996336177, 0.13424999997369014, 0.2686000007088296, 0.12245000107213855, 0.1370999962091446, 0.11154999810969457, 0.11649999578366987, 0.11280000398983248, 0.12255000183358788, 0.13545000547310337, 0.11830000221380033, 0.13839999883202836, 0.19094999879598618, 0.12074999540345743, 0.12375000005704351, 0.3112999984296039, 0.14599999849451706, 0.25499999173916876, 0.11985000310232863, 0.13110000145388767, 0.12335000064922497, 0.12274999971850775, 0.11235000056331046, 0.22205000277608633, 0.1352500039502047, 0.28110000130254775, 0.1137000035669189, 0.11969999832217582, 0.11000000449712388, 0.11689999882946722, 0.11639999866019934, 0.11950000043725595, 0.11689999519148842, 0.1345999953628052, 0.11355000242474489, 0.11680000170599669, 0.14304999785963446, 0.12904999675811268, 0.11985000310232863, 0.16274999507004395, 0.12000000424450263, 0.3001999939442612, 0.11154999810969457, 0.3025499972864054, 0.11819999781437218, 0.29969999741297215, 0.11639999866019934, 0.16250000044237822, 0.12114999481127597, 0.11994999658782035, 0.10905000090133399, 0.11574999734875746, 0.3233500028727576, 0.11240000094403513, 0.33224999060621485, 0.09750000026542693, 0.12090000018361025, 0.12264999895705841, 0.11439999798312783, 0.11675000496325083, 0.1276500006497372, 0.26354999863542616, 0.13439999747788534, 0.20760000188602135, 0.18220000492874533, 0.20755000150529668, 0.13250000120024197, 0.23749999672872946, 0.11684999481076375, 0.17055000353138894, 0.11100000119768083, 0.12834999870392494, 0.1382000009471085, 0.11384999743313529, 0.10490000204299577, 0.1387999982398469, 0.22635000641457736, 0.11115000233985484, 0.261799999861978, 0.12354999853414483, 0.21779999951831996, 0.15284999972209334, 0.19375000556465238, 0.1316499947279226, 0.11315000301692635, 0.1256500036106445, 0.13255000521894544, 0.11300000187475234, 0.12024999887216836, 0.1145999995060265, 0.19769999926211312, 0.1338500005658716, 0.1372499973513186, 0.15010000061010942, 0.2066999950329773, 0.15559999883407727, 0.20349999249447137, 0.13320000289240852, 0.1316499983659014, 0.1425500013283454, 0.10214999929303303, 0.11785000242525712, 0.13210000179242343, 0.2302999928360805, 0.12754999625030905, 0.24495000252500176, 0.27210000553168356, 0.10995000411639921, 0.1126000024669338, 0.13014999785809778, 0.20924999989802018, 0.11859999722219072, 0.11209999865968712, 0.13300000136950985, 0.11249999806750566, 0.15965000056894496, 0.11594999887165613, 0.13605000276584178],
  "Optimal Expectation Value": -4.610499858856201,
  "Optimizer durations [ms]": [18.175, 19.843, 21.977, 20.126, 17.522, 16.602, 13.064, 18.805, 18.677, 20.016, 22.018, 19.178, 17.546, 14.668, 21.11, 16.811, 20.044, 10.955, 18.325, 13.716, 20.003, 13.702, 17.156, 19.185, 17.777, 23.448, 19.695, 21.092, 14.685, 21.727, 19.981, 22.496, 18.821, 22.092, 14.468, 18.566, 16.402, 12.852, 20.2, 12.825, 18.218, 13.852, 18.777, 19.584, 18.789, 17.513, 18.727, 19.805, 21.728, 22.774, 22.059, 22.133, 15.217, 18.481, 11.834, 18.297, 22.023, 16.675, 18.756, 22.556, 20.391, 20.921, 18.386, 22.604, 16.596, 21.87, 16.177, 22.418, 14.811, 15.37, 22.51, 19.687, 9.689, 21.507, 18.479, 22.377, 19.774, 17.927, 19.3, 13.469, 17.647, 21.365, 20.083, 12.783, 21.863, 19.755, 21.787, 17.709, 13.793, 13.55, 16.619, 15.18, 15.724, 15.43, 22.685, 19.634, 19.302, 17.802, 20.045, 16.837, 16.893, 20.656, 18.321, 15.471, 21.116, 20.362, 18.689, 21.066, 16.998, 22.98, 18.85, 19.446, 22.149, 19.236, 20.154, 12.371, 18.43, 17.998, 18.889, 16.574, 16.029, 20.846, 18.451, 21.808, 20.201, 19.432, 17.804, 17.513, 19.198, 18.366, 12.107, 20.452, 20.53, 18.52, 18.645],
  "Optimizer iterations": 135,
  "Optimizer params": [0.9997188340031216, 0.5001708461143534, 0.9999999999999999, 0.4997347151089435, 0.49753426392942984, 1.0, 0.4970611034921385, 0.4952488769753376],
  "P": 0,
  "Problem": "RH",
  "QPU": "7000000",
  "Qubits": 8,
  "Shots": 4096,
  "Size": 8,
  "Total Algorithm duration [s]": 2.494,
  "Total Classic duration [s]": 2.4733818000252943,
  "Total Quantum duration [s]": 0.02061819997470593
}
