{
  "Circuit execution durations [ms]": [43.972134590148926, 44.77071762084961, 47.011375427246094, 44.69156265258789, 46.17464542388916, 44.56460475921631, 67.61646270751953, 45.445919036865234, 44.902682304382324, 67.78466701507568, 42.40596294403076, 69.89538669586182, 45.50659656524658, 44.3422794342041, 66.88594818115234, 42.73545742034912, 69.19586658477783, 47.818541526794434, 45.233845710754395, 45.800209045410156, 46.20647430419922, 46.21016979217529, 45.813679695129395, 43.501853942871094, 43.170809745788574, 43.706297874450684, 46.4167594909668, 43.17188262939453, 43.470025062561035, 44.23189163208008, 47.76644706726074, 44.33703422546387, 45.93801498413086, 42.44518280029297, 44.048428535461426, 42.75190830230713, 42.569756507873535, 43.01142692565918, 44.66879367828369, 43.66660118103027, 44.257521629333496, 46.076297760009766, 45.72486877441406, 44.394612312316895, 46.697020530700684, 46.22769355773926, 42.166948318481445, 64.77391719818115, 42.74117946624756, 43.61116886138916, 65.15586376190186, 43.710947036743164, 67.08860397338867, 45.72868347167969, 44.96955871582031],
  "Depth": 4.5,
  "Expectation Value": -0.9716796875,
  "Optimal Expectation Value": -1.0,
  "Optimizer durations [ms]": [475.461, 519.935, 480.661, 471.092, 480.313, 474.514, 517.593, 478.567, 472.159, 473.881, 472.249, 522.911, 479.448, 472.688, 472.833, 477.831, 524.894, 482.416, 476.577, 472.646, 478.77, 478.241, 520.61, 471.992, 466.902, 475.951, 477.653, 514.27, 471.402, 468.525, 481.052, 473.864, 520.202, 474.267, 468.985, 471.137, 469.266, 519.471, 475.542, 470.135, 475.657, 478.998, 519.945, 474.131, 474.947, 480.424, 470.292, 513.529, 476.156, 470.136, 475.413, 473.052, 519.124, 478.562, 472.892],
  "Optimizer iterations": 55,
  "Optimizer params": [1.0, 0.826253238205035, 1.0, 0.1632594125053957],
  "P": 0,
  "Problem": "IC",
  "QJob durations [ms]": [51.058411598205566, 51.679134368896484, 53.90012264251709, 51.622986793518066, 53.08842658996582, 51.47969722747803, 74.67210292816162, 52.321434020996094, 51.81479454040527, 74.6917724609375, 49.31294918060303, 76.83122158050537, 52.413225173950195, 51.18846893310547, 73.7239122390747, 50.39036273956299, 77.01694965362549, 54.68332767486572, 52.99937725067139, 52.86836624145508, 53.1156063079834, 53.128600120544434, 52.68967151641846, 50.389647483825684, 50.10032653808594, 50.57191848754883, 53.33399772644043, 50.04894733428955, 50.34816265106201, 51.13637447357178, 54.60655689239502, 51.72848701477051, 52.799344062805176, 49.30293560028076, 50.95803737640381, 49.67188835144043, 49.46553707122803, 49.91030693054199, 51.57268047332764, 50.59635639190674, 51.14483833312988, 54.01301383972168, 52.58774757385254, 51.28073692321777, 53.595781326293945, 53.14195156097412, 49.1490364074707, 71.86365127563477, 49.61705207824707, 50.57120323181152, 72.05438613891602, 50.55546760559082, 73.98867607116699, 52.71124839782715, 51.927924156188965],
  "QPU": "3000017",
  "Qubits": 1,
  "Queue durations [ms]": [0.0, 0.0, 0.0, 0.0, 0.0, 0.0, 0.0, 0.0, 0.0, 0.0, 0.0, 0.0, 0.0, 0.0, 0.0, 0.0, 0.0, 0.0, 0.0, 0.0, 0.0, 0.0, 0.0, 0.0, 0.0, 0.0, 0.0, 0.0, 0.0, 0.0, 0.0, 0.0, 0.0, 0.0, 0.0, 0.0, 0.0, 0.0, 0.0, 0.0, 0.0, 0.0, 0.0, 0.0, 0.0, 0.0, 0.0, 0.0, 0.0, 0.0, 0.0, 0.0, 0.0, 0.0, 0.0],
  "Shots": 4096,
  "Size": 1,
  "Total Algorithm duration [s]": 26.6,
  "Total Classic duration [s]": 23.578564858436586,
  "Total Quantum duration [s]": 3.0214351415634155
}
