{
  "Circuit execution durations [ms]": [10.154586751013994, 13.508305884897709, 10.208314284682274, 19.12579918280244, 10.286066215485334, 10.29151352122426, 10.165882296860218, 12.790909502655268, 11.41511183232069, 11.598517186939716, 10.139194317162037, 19.237357191741467, 8.903793059289455, 11.67700020596385, 12.343613430857658, 10.214226320385933, 8.903394918888807, 11.780716013163328, 12.003162875771523, 10.376070160418749, 8.651748765259981, 11.973441578447819, 11.645850259810686, 10.176706593483686, 12.031294405460358, 11.686417274177074, 11.54106855392456, 10.277668479830027, 10.082853492349386, 18.835883121937513, 10.03331458196044, 11.580695863813162, 9.92349348962307, 13.217334635555744, 11.42081432044506, 11.428437195718288, 11.32357819005847, 11.541532818228006, 11.427938472479582, 11.600913014262915, 11.483538895845413, 10.017341002821922, 11.447478085756302, 11.379036121070385, 11.357604525983334, 11.558153666555882, 9.915333241224289, 11.51574356481433, 13.470609206706285, 11.275791097432375, 14.863008633255959, 9.80879133567214, 11.307170148938894, 11.323140934109688, 10.035104118287563, 11.527064256370068, 11.508666910231113, 11.75013417378068, 11.396249756217003, 18.463416025042534, 9.941271506249905, 10.05988335236907, 9.860881604254246, 18.50790996104479, 11.498660314828157, 11.38067850843072, 14.357224572449923, 11.424612253904343, 11.60217635333538, 14.29997244849801, 11.303019244223833, 18.83207354694605, 11.324468068778515, 11.304221116006374, 11.375462636351585, 11.544944252818823, 14.486708678305149, 11.521787848323584, 11.246186681091785, 11.35903224349022, 9.94790019467473, 10.273877531290054, 11.237719096243382, 11.690239887684584, 11.494765058159828, 11.250751093029976, 11.407934129238129, 11.367516592144966, 11.289778165519238, 11.280973441898823, 18.267725594341755, 11.458317283540964, 18.994136713445187, 18.31780094653368, 11.283194180577993, 11.45024923607707, 14.765277039259672, 11.850289534777403, 13.205929193645716, 11.357647366821766, 11.545728892087936, 11.315386276692152, 11.254734359681606, 11.53347734361887, 23.16858246922493, 11.429759208112955, 11.9867455214262, 11.451252270489931, 12.17982079833746, 11.552143841981888, 11.305873282253742, 11.318614706397057, 18.604439217597246, 11.286091059446335, 13.51312268525362, 14.53740568831563, 18.828378524631262, 17.599018290638924, 11.315688956528902, 15.39692236110568, 18.34114547818899, 11.378776282072067, 11.36365532875061, 11.736735701560974, 11.22591970488429, 17.02925330027938, 14.888394623994827, 11.226116679608822, 18.492859788239002, 11.369944084435701, 11.639737524092197, 11.334281880408525, 11.561773251742125, 11.746635660529137, 18.968265037983656, 11.302095837891102, 11.531820986419916, 14.574307948350906, 11.508697178214788, 11.2796351313591, 11.464550625532866, 11.400802060961723, 9.89639014005661, 11.337537784129381, 11.447161436080933, 14.575559180229902, 11.43301511183381, 14.924729242920876, 11.444076430052519, 14.63946420699358, 18.457823432981968, 9.995848871767521, 10.469053871929646, 11.706115212291479, 11.503457091748714, 10.018300730735064, 11.607932392507792, 11.486875358968973, 11.34021719917655, 11.413994245231152, 11.740490328520536, 18.21557991206646, 12.310150545090437, 11.517658364027739, 18.655625637620687, 11.224990244954824, 11.800684500485659, 11.38716982677579, 15.138915739953518, 18.38319282978773, 12.128892820328474, 11.391967535018921, 19.07650614157319, 22.102665156126022, 25.595704093575478, 14.17488232254982, 11.486893985420465, 11.403255630284548, 9.925893973559141, 11.23726787045598, 11.218240484595299, 11.23602082952857, 11.23362360522151, 11.530788615345955, 11.294531170278788, 14.654120896011591, 11.214314494282007, 14.575166162103415, 11.430167593061924, 11.2660420127213, 11.33630983531475, 11.332863941788673, 18.74495716765523, 11.87282707542181, 14.696170575916767, 11.410872917622328, 11.526645626872778, 18.814080394804478, 11.46552199497819, 18.45299592241645, 13.098460156470537, 18.580721225589514, 17.129612155258656, 9.876742027699947, 18.66950746625662, 11.302919127047062, 23.33633042871952, 11.340035125613213, 26.13951452076435, 14.537820592522621, 21.409451961517334, 10.020249523222446, 13.371194712817669, 18.762544728815556, 15.002063009887934, 14.763027895241976, 14.576849061995745, 11.371910106390715, 18.517712131142616, 17.060857731848955, 18.160053994506598, 12.397196609526873, 11.058700736612082, 11.63551164790988, 18.833767157047987, 18.792386166751385, 12.522514443844557, 11.328584048897028, 11.499102227389812, 15.899017453193665, 14.725746121257544, 21.37165330350399, 18.698173109441996, 11.286954395473003, 11.500011198222637, 14.776149298995733, 12.27686321362853, 21.70923538506031, 11.421845760196447, 18.41065241023898, 11.387881357222795, 14.493986964225769, 11.334226466715336, 11.339775752276182, 10.426649823784828, 14.022853691130877, 11.446282733231783, 11.675220914185047, 11.732434388250113, 11.400959454476833, 11.429661884903908, 11.489443480968475, 11.616684030741453, 11.448103468865156, 14.704837929457426, 12.057142797857523, 11.25993300229311, 9.80800949037075, 11.312903370708227, 11.238124687224627, 11.575911194086075, 11.452879756689072, 14.57377104088664, 12.928344774991274, 11.336848605424166, 12.279716320335865, 14.445080421864986, 15.020251739770174, 11.464455630630255, 18.62427592277527, 11.475966777652502, 11.368831619620323, 11.230314150452614, 14.800394419580698, 14.505704864859581, 11.492404155433178, 12.40122551098466, 11.43677718937397, 11.29103684797883, 14.716179110109806, 9.934544563293457, 11.481245048344135, 18.525973428040743, 11.424906086176634, 11.402767151594162, 11.395377572625875, 11.689225677400827, 14.91030864417553, 11.438178829848766, 11.38771465048194, 11.324719060212374, 18.495907075703144, 11.246997863054276, 11.350259650498629, 9.900166187435389, 11.564609594643116, 11.307105887681246, 11.471170000731945, 11.322079226374626, 14.448591973632574, 11.27995876595378, 11.314868461340666, 11.613921262323856, 11.84130972251296, 11.533375829458237, 10.211421176791191, 11.57858595252037, 14.329781290143728, 11.374297551810741, 14.784222934395075, 12.20403565093875, 13.770648278295994, 11.240490712225437, 11.77543355152011, 14.199502766132355, 11.222993023693562, 15.061174519360065, 11.54435146600008, 10.20623417571187, 8.596525527536869, 18.771398346871138, 11.711250059306622, 11.284733191132545, 9.982469491660595, 18.295563757419586, 11.31513761356473, 11.333544738590717, 11.577023193240166, 10.136704426258802, 10.116743389517069, 18.50072480738163, 11.454063933342695, 11.602063663303852, 11.429979931563139, 11.700434144586325, 11.530392803251743, 11.336568277329206, 9.982083924114704, 11.275117751210928, 11.454083025455475, 18.264361657202244, 11.312414426356554, 9.818876162171364, 11.40747545287013, 9.834678377956152, 9.915083646774292, 11.789824813604355, 11.393645778298378, 11.33254962041974, 11.292366776615381, 8.878597989678383, 10.185823775827885, 11.434813495725393, 11.416969820857048, 11.263619642704725, 12.050779536366463, 9.892445523291826, 10.02461975440383, 9.839986450970173, 12.808497995138168, 11.492679826915264, 17.3688642680645],
  "Depth": 14.5,
  "Expectation Value": -6.400390625,
  "Optimal Expectation Value": -7.296229839324951,
  "Optimizer durations [ms]": [83449.618, 22233.512, 21141.229, 82401.667, 22506.766, 23227.841, 20766.426, 27291.318, 32116.825, 21685.856, 20817.246, 21208.742, 48556.756, 22190.47, 22514.772, 33571.364, 49435.241, 21311.898, 21583.547, 21143.202, 84324.79, 22290.957, 76798.493, 22111.573, 86930.825, 21910.913, 22927.977, 76510.34, 23682.516, 22363.183, 21074.552, 21135.541, 21735.121, 21488.451, 21987.304, 21332.643, 61016.132, 20829.841, 21464.613, 83889.441, 23760.336, 22323.702, 88261.751, 20926.069, 20789.631, 78910.534, 21105.989, 21904.163, 37838.182, 21653.158, 21272.612, 21002.297, 21416.887, 27297.203, 31441.634, 82613.84, 22480.336, 22415.561, 81714.045, 23244.72, 23737.1, 22027.911, 82587.735, 22303.447, 87676.215, 22201.741, 20888.762, 21171.215, 20925.687, 32612.113, 22873.078, 21569.9, 21307.978, 20892.666, 49282.884, 76848.044, 21934.001, 22178.169, 22438.783, 22486.123, 22344.416, 20618.979, 31879.578, 21896.549, 22005.283, 87887.741, 22172.158, 23406.066, 20707.805, 48945.571, 100622.82, 22917.298, 75862.041, 33625.237, 22089.313, 77633.814, 22840.406, 22896.951, 77889.661, 21970.33, 22529.754, 82224.278, 22340.102, 21680.562, 81937.57, 20685.828, 83266.471, 23449.356, 82399.256, 21802.249, 21875.547, 21408.842, 22054.118, 94266.674, 22273.683, 77855.699, 21418.588, 22707.789, 21272.214, 49088.912, 21862.073, 22193.676, 77384.778, 22966.247, 21934.481, 27059.999, 32945.248, 22662.176, 83850.56, 22294.343, 22617.8, 76451.797, 22241.514, 22453.133, 87828.277, 22947.721, 22116.155, 49402.177, 21922.444, 23314.625, 21880.92, 21348.029, 70042.437, 20596.525, 24433.283, 82913.48, 22435.658, 23052.877, 50120.483, 22234.793, 21953.665, 111940.825, 23253.563, 45138.079, 23418.543, 20936.138, 104307.786, 80101.716, 125029.446, 22029.513, 20735.368, 81728.757, 22029.694, 21262.942, 20981.433, 19836.75, 36832.18, 21910.329, 20064.447, 75223.666, 21358.577, 22045.195, 22045.787, 22363.338, 87997.992, 49946.695, 132398.785, 83766.307, 49322.883, 22135.19, 21436.565, 21329.595, 59184.297, 22078.676, 22665.664, 21045.606, 19755.925, 27498.462, 22140.139, 21045.902, 28753.193, 49004.822, 22219.394, 21320.592, 22021.093, 43963.502, 38724.568, 78535.818, 22394.129, 21054.052, 76261.776, 26980.527, 21736.198, 92861.244, 22159.01, 22473.941, 21536.333, 92792.088, 23907.489, 21925.853, 20737.98, 23400.711, 109563.778, 21220.763, 21204.666, 21524.874, 21771.443, 37549.624, 21291.996, 26366.902, 21271.53, 38392.092, 20973.79, 21461.252, 82924.134, 23316.067, 21250.927, 77298.49, 23345.174, 83576.978, 21115.403, 50793.262, 20850.069, 32558.149, 21226.19, 21166.428, 81304.085, 23680.82, 22369.194, 133846.96, 84290.506, 22085.895, 28849.109, 21189.715, 31458.832, 28946.695, 98913.225, 22963.696, 21169.836, 49054.423, 22147.882, 83107.924, 22461.888, 29513.495, 26662.23, 20976.945, 22427.747, 84225.159, 50178.692, 28389.754, 117309.118, 54704.213, 28608.236, 22924.693, 19795.64, 23437.48, 21750.765, 22341.227, 21331.128, 22072.861, 22324.505, 77405.696, 21888.236, 22825.491, 21720.031, 22347.223, 42065.955, 25191.589, 88784.912, 22099.719, 21893.132, 20753.718, 141865.338, 21724.61, 76695.133, 21620.462, 21514.05, 21820.981, 32033.95, 33060.813, 21892.118, 22088.92, 32455.015, 78600.288, 22607.496, 77624.15, 32615.543, 21672.221, 48019.316, 21926.011, 20965.518, 77238.603, 23132.396, 26991.955, 78053.461, 21244.32, 83261.776, 21957.199, 82223.357, 23046.938, 23284.769, 21227.142, 83269.118, 22699.13, 22088.284, 32265.543, 40028.366, 21852.232, 77563.011, 22239.653, 21245.227, 90893.617, 22324.063, 26788.402, 21559.819, 22372.061, 32136.774, 21611.823, 21435.36, 49526.832, 22217.891, 23305.397, 25848.849, 82787.45, 23658.763, 76644.242, 34722.555, 27977.528, 59754.114, 21594.721, 75410.48, 33809.674, 24026.54, 76426.42, 22914.52, 108681.449, 31418.795, 38797.212, 36440.595, 24901.681, 22982.32, 83164.727, 21975.128, 22014.583, 92054.24, 83584.456, 28196.258, 21875.616, 84854.16, 33432.963, 22731.055, 79467.744],
  "Optimizer iterations": 362,
  "Optimizer params": [0.5226533785069103, 0.6024707975852361, 0.044663634611627805, 0.9428178222197798, 0.9292239415108158, 0.8594583644166423, 0.9876016697062631, 0.8423435069778551, 0.9864307685360733, 0.8114104171615116, 0.83517135227836, 0.9856455493824473, 0.5022971053106917, 0.9443736600335486, 0.4676378257921054, 0.9772359575708761, 0.9594548903169291, 0.07983655968325638, 0.525518915727268, 0.25413940457545203, 0.5855568723292289, 0.022575346088021843, 0.6037438128407456, 0.21729374773398386],
  "P": 0,
  "Problem": "IC",
  "QJob durations [ms]": [41643.06831359863, 11064.5170211792, 10513.89741897583, 41115.620136260986, 11197.170734405518, 11558.989524841309, 10327.71348953247, 13562.269687652588, 15999.804973602295, 10786.427021026611, 10321.368217468262, 10546.581268310547, 24223.113536834717, 11041.640758514404, 11170.494079589844, 16727.787971496582, 24661.93389892578, 10571.423530578613, 10735.512733459473, 10515.162467956543, 42104.78925704956, 11058.114051818848, 38346.5633392334, 11000.773906707764, 43382.097244262695, 10898.024082183838, 11409.015655517578, 38198.39382171631, 11753.779888153076, 11127.79712677002, 10482.504844665527, 10483.224391937256, 10809.962272644043, 10689.799785614014, 10937.997341156006, 10579.300880432129, 30456.06517791748, 10358.570098876953, 10648.61249923706, 41885.3816986084, 11824.426651000977, 11104.619979858398, 44045.49217224121, 10407.064437866211, 10337.607383728027, 39367.30909347534, 10495.705604553223, 10898.437023162842, 18861.33098602295, 10738.229274749756, 10581.151008605957, 10445.624828338623, 10616.798877716064, 13592.626571655273, 15662.070274353027, 41249.74203109741, 11152.182579040527, 11147.993087768555, 40802.56462097168, 11535.542011260986, 11811.382293701172, 10959.762573242188, 41239.19916152954, 11065.062522888184, 43783.02574157715, 11042.036056518555, 10358.924865722656, 10528.04708480835, 10405.296325683594, 16252.214908599854, 11352.276802062988, 10731.180667877197, 10597.140312194824, 10362.535953521729, 24582.58628845215, 38364.548683166504, 10909.626960754395, 11005.023956298828, 11162.288665771484, 11187.043190002441, 11083.697319030762, 10253.071308135986, 15881.758689880371, 10891.661643981934, 10914.511680603027, 43888.56887817383, 11027.874946594238, 11615.726470947266, 10296.894073486328, 24414.498805999756, 50253.81660461426, 11371.129989624023, 37874.67384338379, 16755.868911743164, 10954.016208648682, 38759.41562652588, 11368.728637695313, 11391.46614074707, 38856.49013519287, 10928.906917572021, 11205.885410308838, 41025.42543411255, 11112.82730102539, 10785.573482513428, 40910.213470458984, 10255.905628204346, 41578.0668258667, 11670.492172241211, 41110.89563369751, 10844.00749206543, 10881.155967712402, 10647.186279296875, 10940.458297729492, 47075.398445129395, 11079.39624786377, 38843.14155578613, 10652.474880218506, 11297.770977020264, 10581.550121307373, 24455.694675445557, 10874.85933303833, 11040.190696716309, 38609.8690032959, 11426.753044128418, 10911.869049072266, 13472.553253173828, 16385.936737060547, 11273.047924041748, 41867.032051086426, 11061.833381652832, 11250.41389465332, 38169.67868804932, 11063.481330871582, 11139.70422744751, 43854.766845703125, 11416.768550872803, 10967.681884765625, 24644.205570220947, 10903.947830200195, 11600.975513458252, 10849.577903747559, 10615.952014923096, 34964.911460876465, 10209.414958953857, 12159.680843353271, 41400.999546051025, 11160.150527954102, 11437.582969665527, 25004.5223236084, 11062.475204467773, 10888.388633728027, 55913.69438171387, 11571.12979888916, 22515.05422592163, 11622.550964355469, 10413.030624389648, 52096.1971282959, 39959.808349609375, 62457.60917663574, 10959.313869476318, 10312.05940246582, 40779.65259552002, 10957.534313201904, 10573.065757751465, 10406.232833862305, 9860.252857208252, 18361.026763916016, 10894.123077392578, 9946.080207824707, 37556.02836608887, 10621.494770050049, 10935.636043548584, 10965.890884399414, 11125.136852264404, 43941.79916381836, 24891.671657562256, 66142.18711853027, 41825.26731491089, 24576.42412185669, 11010.686874389648, 10662.303447723389, 10609.399795532227, 29506.66618347168, 10981.954574584961, 11279.743194580078, 10438.031196594238, 9820.191860198975, 13691.710472106934, 11016.525745391846, 10438.778400421143, 14320.792198181152, 24447.960376739502, 11024.420738220215, 10605.82447052002, 10952.549934387207, 21930.514812469482, 19277.53257751465, 39212.39471435547, 11142.997741699219, 10437.906742095947, 38073.93836975098, 13434.06343460083, 10812.466621398926, 46343.210220336914, 11025.885581970215, 11179.42762374878, 10685.149669647217, 46342.78583526611, 11897.067546844482, 10907.565116882324, 10282.049655914307, 11641.47424697876, 54725.62789916992, 10525.45976638794, 10546.77677154541, 10702.67391204834, 10827.860355377197, 18688.656330108643, 10590.835094451904, 13126.359462738037, 10545.578956604004, 19139.041423797607, 10431.429386138916, 10675.62484741211, 41375.61225891113, 11598.8130569458, 10567.169666290283, 38564.28909301758, 11616.421222686768, 41732.64503479004, 10500.002384185791, 25311.636924743652, 10367.953300476074, 16224.886894226074, 10526.45492553711, 10525.740146636963, 40595.515727996826, 11782.864093780518, 11099.143981933594, 66866.49131774902, 42091.06349945068, 10954.150676727295, 14366.559028625488, 10537.788391113281, 15672.302722930908, 14387.675762176514, 49400.705337524414, 11425.762176513672, 10503.030776977539, 24469.7527885437, 11018.415451049805, 41497.23434448242, 11143.928527832031, 14699.142932891846, 13274.170875549316, 10401.233673095703, 11156.409740447998, 42060.23979187012, 25033.612728118896, 14107.860565185547, 58596.784591674805, 27294.212341308594, 14216.704368591309, 11403.84292602539, 9840.610980987549, 11663.063526153564, 10788.59281539917, 11114.456176757813, 10607.062339782715, 10950.7417678833, 11106.722831726074, 38646.77286148071, 10887.335300445557, 11325.465202331543, 10802.308082580566, 11114.015579223633, 20947.39532470703, 12539.64376449585, 44339.32447433472, 10993.46399307251, 10857.131004333496, 10321.15650177002, 70876.63269042969, 10775.696277618408, 38291.95499420166, 10753.85856628418, 10701.79271697998, 10822.27611541748, 15958.548545837402, 16472.33486175537, 10858.729839324951, 10988.624572753906, 16169.12841796875, 39245.09620666504, 11218.37043762207, 38755.30910491943, 16250.926971435547, 10750.07677078247, 23952.227115631104, 10908.24556350708, 10425.809383392334, 38530.51805496216, 11510.00690460205, 13441.267967224121, 38940.43970108032, 10565.011024475098, 41571.98524475098, 10921.925067901611, 41025.14457702637, 11465.354442596436, 11588.201999664307, 10525.635242462158, 41580.25598526001, 11291.704177856445, 10985.333442687988, 16049.378395080566, 19957.84091949463, 10870.246410369873, 38695.6205368042, 11063.724517822266, 10565.83547592163, 45389.394760131836, 11078.811645507813, 13335.776329040527, 10721.213340759277, 11096.363544464111, 16013.759136199951, 10748.803615570068, 10659.815311431885, 24678.856372833252, 11049.502849578857, 11596.153736114502, 12833.993434906006, 41338.679790496826, 11773.340225219727, 38264.65606689453, 17272.729873657227, 13931.076049804688, 29820.178985595703, 10708.932399749756, 37649.05834197998, 16847.188472747803, 11958.295822143555, 38126.47819519043, 11398.878574371338, 54282.562255859375, 15614.406108856201, 19342.717170715332, 18163.28239440918, 12392.361640930176, 11404.192924499512, 41524.40023422241, 10930.662631988525, 10919.171333312988, 45971.54378890991, 41735.22710800171, 14045.17936706543, 10848.49500656128, 42370.00560760498, 16664.710521697998, 11275.602340698242, 39679.01945114136],
  "QPU": "4010001",
  "Qubits": 6,
  "Queue durations [ms]": [32105.999797582626, 1488.4999990463257, 455.499991774559, 32129.499435424805, 1735.5000376701355, 945.000022649765, 784.500002861023, 1849.0000367164612, 7555.999904870987, 900.0000059604645, 548.9999949932098, 1372.9999959468842, 1387.9999816417694, 1249.500036239624, 1180.5000007152557, 1267.4999833106995, 15746.500432491302, 1303.9999902248383, 979.0000021457672, 902.5000035762787, 31576.000034809113, 1246.500015258789, 27544.99927163124, 1535.0000262260437, 33464.50161933899, 884.9999606609344, 768.999993801117, 854.0000021457672, 833.0000340938568, 894.5000171661377, 870.0000047683716, 904.4999778270721, 1346.5000092983246, 1166.5000021457672, 965.0000035762787, 1563.0000233650208, 20928.99990081787, 725.9999960660934, 778.4999907016754, 1307.0000112056732, 1017.5000429153442, 2668.9999103546143, 4240.5000030994415, 835.4999721050262, 880.4999887943268, 1455.4999470710754, 1351.9999980926514, 818.4999823570251, 8121.499836444855, 1187.0000064373016, 913.5000109672546, 755.0000250339508, 905.9999883174896, 5247.999906539917, 7749.499976634979, 824.999988079071, 1115.5000030994415, 796.4999973773956, 32675.50027370453, 2316.5000677108765, 2019.499957561493, 914.000004529953, 31363.50005865097, 942.00000166893, 33113.4991645813, 1467.0000076293945, 1331.999957561493, 958.4999978542328, 974.4999706745148, 7747.999995946884, 1617.0000433921814, 921.4999973773956, 1367.9999709129333, 1094.5000052452087, 14173.4998524189, 1296.4999973773956, 724.9999940395355, 1433.5000216960907, 671.999990940094, 1537.0000004768372, 1461.499959230423, 925.9999990463257, 7661.500036716461, 1277.0000100135803, 722.4999964237213, 1558.500051498413, 885.4999840259552, 933.9999854564667, 1699.0000009536743, 14297.999769449234, 40407.50026702881, 774.9999761581421, 757.500022649765, 3276.999980211258, 763.5000050067902, 27653.500199317932, 958.9999914169312, 1380.5000185966492, 27893.000155687332, 909.4999730587006, 1464.9999737739563, 31792.99908876419, 685.0000023841858, 1129.5000314712524, 1615.99999666214, 938.0000233650208, 32087.500751018524, 1020.5000042915344, 31634.499192237854, 955.4999768733978, 1262.9999816417694, 955.9999704360962, 1002.9999911785126, 35736.50074005127, 1282.4999541044235, 837.4999761581421, 1445.499986410141, 952.0000219345093, 1934.000015258789, 14242.99955368042, 715.499997138977, 874.0000128746033, 786.5000069141388, 1750.0000298023224, 1453.000009059906, 2497.500032186508, 3089.5000994205475, 1239.4999861717224, 867.000013589859, 802.5000095367432, 938.9999806880951, 28426.999628543854, 1808.499962091446, 1174.500048160553, 839.5000100135803, 928.0000030994415, 757.999986410141, 14732.500314712524, 1327.5000154972076, 1551.5000224113464, 858.5000038146973, 1564.9999678134918, 26152.000844478607, 1838.9999866485596, 840.499997138977, 31397.00084924698, 1071.9999969005585, 1008.4999799728394, 14797.500133514404, 1173.9999651908875, 1394.0000236034393, 1484.99995470047, 1800.5000352859497, 12825.499951839447, 810.4999959468842, 1484.000027179718, 1009.9999904632568, 26922.500610351563, 37240.00072479248, 686.9999915361404, 784.9999964237213, 910.0000262260437, 946.0000097751617, 839.000016450882, 767.9999768733978, 697.5000202655792, 8574.999928474426, 1182.4999749660492, 1026.5000462532043, 696.5000033378601, 1422.0000505447388, 1144.9999809265137, 882.4999928474426, 784.500002861023, 33236.49910092354, 14028.000354766846, 56451.00021362305, 976.0000109672546, 1015.4999792575836, 641.5000259876251, 939.5000040531158, 1015.500009059906, 21725.50058364868, 2927.999973297119, 1453.5000324249268, 1009.9999904632568, 2955.50000667572, 4632.000029087067, 843.500018119812, 909.9999964237213, 2539.500117301941, 14644.999980926514, 907.0000052452087, 760.4999840259552, 1119.4999814033508, 12528.00041437149, 8377.000153064728, 28602.500468492508, 1337.9999697208405, 718.4999883174896, 847.000002861023, 5451.9999623298645, 601.4999896287918, 8195.499956607819, 1426.499992609024, 991.5000200271606, 877.0000040531158, 31728.999078273773, 1368.99995803833, 906.5000116825104, 1379.4999718666077, 1085.0000381469727, 712.9999995231628, 1369.0000176429749, 1575.9999752044678, 1110.500007867813, 876.5000104904175, 9443.499863147736, 1174.500048160553, 2805.0000071525574, 858.0000400543213, 7541.500240564346, 759.4999969005585, 956.9999873638153, 32666.000723838806, 886.4999711513519, 1350.499987602234, 29470.999479293823, 1685.9999895095825, 925.000011920929, 1081.9999873638153, 14728.999853134155, 1012.9999816417694, 7373.999834060669, 1175.499975681305, 746.0000216960907, 31472.499579191208, 1511.0000371932983, 998.4999895095825, 24811.00007891655, 31344.0003991127, 1034.0000092983246, 2634.5000565052032, 618.4999793767929, 2609.99995470047, 1034.4999730587006, 39664.50023651123, 1754.0000677108765, 888.0000114440918, 14285.500228404999, 822.0000267028809, 31292.499512434006, 905.4999947547913, 1403.5000205039978, 969.5000052452087, 751.5000104904175, -157.4999988079071, 32345.49993276596, 996.999979019165, 2975.99995136261, 31673.499405384064, 1361.4999949932098, 3462.000012397766, 766.0000026226044, 2089.4999504089355, 1701.0000348091125, 868.5000240802765, 774.4999825954437, 861.0000014305115, 697.5000202655792, 2046.0000038146973, 28057.4991106987, 1504.0000677108765, 1056.5000176429749, 1363.0000352859497, 1447.0000267028809, 8524.499893188477, 862.4999821186066, 33609.499990940094, 2525.5000591278076, 2350.499987602234, 1870.0000643730164, 963.9999866485596, 1347.9999899864197, 27821.999609470367, 1279.0000140666962, 1045.9999740123749, 967.0000076293945, 1536.499947309494, 8059.999883174896, 1884.5000267028809, 1255.4999887943268, 7333.49996805191, 28603.00064086914, 935.9999895095825, 29273.50005507469, 7519.499957561493, 1098.5000133514404, 14445.99997997284, 1006.4999759197235, 1421.999990940094, 28844.99967098236, 1957.00004696846, 1183.0000281333923, 28552.499920129776, 1691.5000081062317, 31258.49997997284, 1435.0000023841858, 1452.4999856948853, 1884.00000333786, 996.4999854564667, 1497.0000386238098, 31535.49912571907, 1211.5000486373901, 1003.5000145435333, 7611.500024795532, 2408.000111579895, 663.4999960660934, 28667.500376701355, 1075.0000178813934, 1102.999985218048, 31403.49990129471, 755.5000185966492, 2284.4999730587006, 952.5000154972076, 897.9999721050262, 8845.000147819519, 592.0000076293945, 624.5000064373016, 14481.49961233139, 707.0000171661377, 793.9999997615814, 2706.0000896453857, 31229.00080680847, 928.0000030994415, 28051.000595092773, 2030.0000309944153, 1436.000019311905, 1691.5000081062317, 932.99999833107, 2936.0000491142273, 7735.500186681747, 1193.0000185966492, 28140.99907875061, 963.5000228881836, 14275.999754667282, 1393.9999639987946, 8645.000159740448, 3857.999950647354, 555.5000007152557, 1421.999990940094, 31704.999923706055, 927.5000095367432, 2015.500009059906, 28745.500534772873, 785.4999899864197, 2915.5001044273376, 902.999997138977, 872.9999661445618, 8176.9998371601105, 1187.5, 1255.4999589920044],
  "Shots": 4096,
  "Size": 6,
  "Total Algorithm duration [s]": 14070.413,
  "Total Classic duration [s]": 7058.796612632752,
  "Total Quantum duration [s]": 7011.6163873672485
}
