{
  "Circuit execution durations [ms]": [31819.921731948853, 33232.97333717346, 34072.367429733276, 32419.52157020569, 32144.60062980652, 31650.9051322937, 33473.8986492157, 32733.176469802856, 33857.961654663086, 33157.524824142456, 35187.994956970215, 31730.50594329834, 33995.41664123535, 31553.367137908936, 32633.020639419556, 33048.460721969604, 33041.932344436646, 32601.459980010986, 33306.490659713745, 31610.24284362793, 31732.749462127686, 33236.35983467102, 34407.094955444336, 34950.98972320557, 32161.391735076904, 33315.39487838745, 32275.333642959595, 32863.983392715454, 33370.25594711304, 32336.846828460693, 32370.09358406067, 32543.611526489258, 31627.36415863037, 32591.26901626587, 33238.43550682068, 33530.771255493164, 32421.93841934204, 36994.877099990845, 33033.180236816406, 31047.66535758972, 32010.68115234375, 32337.568759918213, 32615.367650985718, 32973.03080558777, 31750.374794006348, 33186.82289123535, 31960.21270751953, 31732.255458831787, 31673.843145370483, 32377.445936203003, 33116.241455078125, 32650.0244140625, 34199.40495491028, 33692.19946861267, 33461.56048774719, 32261.022567749023, 31714.160680770874, 34783.99300575256, 31812.180519104004, 31970.471143722534, 32271.443367004395, 32005.29193878174, 34073.694467544556, 33385.83755493164, 31366.76001548767, 33577.226638793945, 33170.31645774841, 36834.90347862244, 34445.632219314575, 32935.97626686096, 32926.55944824219, 32444.310426712036, 32728.03807258606, 33043.349742889404, 31270.695447921753, 34776.182413101196, 33765.90538024902, 32888.53716850281, 31609.346866607666, 33070.414304733276, 31893.41950416565, 33439.135789871216, 32628.66973876953, 31705.707550048828, 31885.746479034424, 32223.055124282837, 37548.23851585388],
  "Depth": 167.0,
  "Expectation Value": -1.7498167753219604,
  "Optimal Expectation Value": -3.0,
  "Optimizer durations [ms]": [41292.248, 42339.358, 43231.596, 42250.593, 41706.774, 40889.675, 43548.666, 42229.362, 43409.143, 42746.973, 43982.622, 41338.957, 42884.55, 40710.042, 42626.392, 42417.434, 41864.501, 41949.86, 42147.749, 40793.599, 41492.007, 43115.934, 44108.576, 45347.859, 41783.955, 43090.001, 41687.106, 41716.267, 42650.295, 42241.939, 41827.543, 41772.372, 41065.32, 42943.261, 44011.051, 43340.541, 42199.047, 46831.19, 43125.282, 39968.048, 41559.105, 41880.296, 41550.146, 42556.865, 41040.084, 43080.695, 41046.757, 40632.025, 41375.236, 41655.048, 41896.487, 42587.887, 43711.033, 43235.212, 42956.493, 41910.336, 41617.344, 43882.527, 42102.071, 41449.527, 41403.74, 41164.678, 43838.113, 42976.864, 40841.01, 43195.776, 42306.268, 46171.603, 43671.562, 42556.681, 42364.43, 41812.883, 41637.321, 42270.805, 40316.56, 44808.246, 42771.154, 41775.214, 40593.935, 41877.844, 41010.922, 42375.174, 41686.688, 40959.063, 41157.387, 41624.321, 46835.887],
  "Optimizer iterations": 87,
  "Optimizer params": [0.5813820435059256, 0.4309910692075336, 0.6944253444618724, 0.6706547559649536, 0.33568727891901085, 0.22656552160860519],
  "P": 3,
  "Problem": "DSP",
  "QJob durations [ms]": [41188.814640045166, 42268.341302871704, 43154.393672943115, 42177.33812332153, 41613.24167251587, 40783.38098526001, 43480.12375831604, 42156.936168670654, 43193.05753707886, 42656.9299697876, 43914.39867019653, 41273.581981658936, 42815.12427330017, 40645.567178726196, 42547.258138656616, 42331.4208984375, 41788.36631774902, 41858.282804489136, 42060.63508987427, 40653.796672821045, 41363.62957954407, 43049.439668655396, 44044.00992393494, 45263.09037208557, 41679.311990737915, 43019.39558982849, 41613.31295967102, 41622.55549430847, 42548.27857017517, 42164.307832717896, 41743.32594871521, 41690.85597991943, 40995.39065361023, 42878.12113761902, 43946.58160209656, 43274.68729019165, 42104.51078414917, 46743.24345588684, 43014.93453979492, 39874.205112457275, 41481.828451156616, 41807.23237991333, 41462.406873703, 42456.93254470825, 40948.254108428955, 43013.527393341064, 40975.38375854492, 40543.28370094299, 41292.49334335327, 41561.193227767944, 41818.29524040222, 42497.84445762634, 43629.756689071655, 43153.26261520386, 42883.84962081909, 41785.441160202026, 41523.099422454834, 43817.61431694031, 41938.43173980713, 41382.37476348877, 41323.28701019287, 41077.15439796448, 43752.3558139801, 42862.3833656311, 40764.85824584961, 43104.3336391449, 42241.29581451416, 46093.75715255737, 43607.107162475586, 42464.57386016846, 42271.87442779541, 41726.765871047974, 41458.36281776428, 42187.78443336487, 40241.65344238281, 44736.896276474, 42700.20794868469, 41681.88190460205, 40513.93270492554, 41784.08336639404, 40945.90663909912, 42311.10596656799, 41607.972621917725, 40891.66188240051, 41086.710929870605, 41544.742584228516, 46765.36464691162],
  "QPU": "6010030",
  "Qubits": 7,
  "Shots": 4096,
  "Size": 4,
  "Total Algorithm duration [s]": 3684.407,
  "Total Classic duration [s]": 7.492300922393952,
  "Total Quantum duration [s]": 3676.914699077606
}
