{
  "Depth": 758.0,
  "Expectation Value": -4.955727577209473,
  "Job durations [ms]": [5.4878, 5.5773, 5.3344000000000005, 5.5213, 5.3794, 5.4793, 5.3453, 5.557, 5.5451, 5.649900000000001, 5.5405999999999995, 5.5513, 5.5703000000000005, 5.5672, 5.5146, 5.4003000000000005, 5.2717, 5.5777, 5.3458000000000006, 5.5483, 5.5763, 5.684200000000001, 5.6558, 5.636900000000001, 5.569400000000001, 5.6136, 5.590000000000001, 5.4858, 5.6201, 5.3175, 5.558, 5.2978000000000005, 5.5665000000000004, 5.581799999999999, 5.5173000000000005, 5.5549, 5.5783, 5.5594, 5.6295, 5.5233, 5.4741, 5.335999999999999, 5.6757, 5.6402, 5.5615, 5.5783, 5.297, 5.579899999999999, 5.5396, 5.566599999999999, 5.5877, 5.3294, 5.6642, 5.3276, 5.4307, 5.3671, 5.3518, 5.576700000000001, 5.4171000000000005, 5.5753, 5.4208, 5.5942, 5.6447, 5.3657, 5.6165, 5.600199999999999, 5.5889, 5.5747, 5.3377, 5.5126, 5.6715, 5.5902, 5.362900000000001, 5.3544, 5.3545, 5.3886, 5.3491, 5.5629, 5.6686000000000005, 5.3744, 5.2617, 5.3465, 5.6076, 5.558, 5.5497000000000005, 5.3903, 5.5271, 5.5476, 5.3213, 5.3032, 5.4485, 5.6016, 5.5767999999999995, 5.542, 5.5653999999999995, 5.3875, 5.3301, 5.5509, 5.2577, 5.5301, 5.5755, 5.347099999999999, 5.4462],
  "Optimal Expectation Value": -8.0,
  "Optimizer durations [ms]": [61.165, 61.66, 64.096, 61.238, 64.696, 65.8, 64.358, 61.529, 61.537, 63.013, 61.526, 61.327, 61.626, 61.77, 61.158, 64.926, 63.491, 61.995, 64.568, 61.549, 61.877, 62.952, 62.773, 62.308, 61.642, 62.087, 62.159, 61.11, 62.257, 63.939, 61.577, 63.883, 61.754, 61.882, 61.232, 61.516, 61.612, 61.649, 62.317, 61.138, 61.605, 59.535, 62.802, 63.471, 61.876, 61.996, 63.747, 61.915, 61.481, 61.758, 62.074, 64.315, 62.503, 64.333, 65.141, 64.549, 64.571, 61.985, 60.266, 61.876, 60.263, 62.022, 62.598, 64.539, 62.323, 62.118, 61.886, 62.222, 64.341, 61.245, 64.085, 62.568, 64.659, 64.505, 64.415, 64.721, 64.248, 62.034, 62.917, 64.786, 63.551, 64.385, 62.002, 61.603, 61.565, 64.686, 61.273, 61.522, 64.286, 64.085, 60.809, 62.242, 61.881, 61.405, 61.498, 64.923, 64.218, 61.564, 63.58, 61.392, 61.874, 64.716, 65.35],
  "Optimizer iterations": 103,
  "Optimizer params": [0.053748469796167764, 0.1458786281199962, 0.5329520060952859, 1.0, 0.9494271681423103, 0.4861818248041801],
  "P": 3,
  "Problem": "DSP",
  "QPU": "7000000",
  "Qubits": 15,
  "Shots": 4096,
  "Size": 10,
  "Total Algorithm duration [s]": 6.453,
  "Total Classic duration [s]": 5.886737,
  "Total Quantum duration [s]": 0.5662630000000001
}
