{
  "Depth": 758.0,
  "Expectation Value": -4.076433181762695,
  "Job durations [ms]": [5.2534, 5.7034, 5.5566, 5.3163, 5.5023, 5.600499999999999, 5.4812, 5.3802, 5.5683, 5.5521, 5.3131, 5.2764, 5.581499999999999, 5.265899999999999, 5.6361, 5.3286, 5.4233, 5.5557, 5.3689, 5.3739, 5.584099999999999, 5.544099999999999, 5.5969, 5.343999999999999, 5.3413, 5.5899, 5.5944, 5.5501, 5.5756, 5.3384, 5.555499999999999, 5.5957, 5.6075, 5.7393, 5.5714, 5.4467, 5.599, 5.540299999999999, 5.6039, 5.2898, 5.3046999999999995, 5.54, 5.5655, 5.514, 5.552, 5.6821, 5.5522, 5.596, 5.3373, 5.5785, 5.5099, 5.5548, 5.2794, 5.611, 5.628, 5.3759999999999994, 5.5975, 5.3462, 5.2858, 5.3526, 5.5989, 5.5846, 5.5607, 5.294700000000001, 5.6284, 5.7408, 5.3642, 5.572900000000001, 5.5604000000000005, 5.3256, 5.581499999999999, 5.3123, 5.3042, 5.3014, 5.6288, 5.313199999999999, 5.3340000000000005, 5.561800000000001, 5.5651, 5.2913, 5.6051, 5.3299],
  "Optimal Expectation Value": -8.0,
  "Optimizer durations [ms]": [63.615, 63.1, 61.736, 64.062, 61.092, 62.238, 65.705, 64.825, 61.554, 61.412, 64.017, 63.879, 61.954, 63.428, 62.253, 64.319, 64.969, 66.328, 64.545, 64.782, 62.109, 61.705, 62.043, 64.293, 64.484, 61.963, 62.141, 61.686, 61.727, 64.522, 61.918, 62.441, 62.307, 63.493, 62.121, 65.448, 62.206, 61.689, 62.1, 63.943, 64.095, 61.566, 61.683, 61.213, 61.54, 62.968, 61.448, 62.004, 64.44, 61.875, 61.266, 61.729, 63.857, 62.09, 62.163, 64.521, 61.928, 64.588, 63.949, 64.628, 62.137, 62.019, 61.627, 63.735, 62.329, 63.551, 64.619, 61.762, 61.428, 63.938, 62.112, 64.149, 63.887, 63.793, 62.194, 64.226, 64.41, 61.624, 61.582, 63.934, 62.172, 64.219],
  "Optimizer iterations": 82,
  "Optimizer params": [0.9906565396494982, 0.6873988241782799, 0.12088912634924708, 0.5031184867641264, 0.41383841997530285, 0.32434426373386666],
  "P": 3,
  "Problem": "DSP",
  "QPU": "7000000",
  "Qubits": 15,
  "Shots": 4096,
  "Size": 10,
  "Total Algorithm duration [s]": 5.163,
  "Total Classic duration [s]": 4.713231100000001,
  "Total Quantum duration [s]": 0.44976889999999997
}
