{
  "Depth": 758.0,
  "Expectation Value": -4.0926642417907715,
  "Job durations [ms]": [5.3662, 5.3095, 5.3808, 5.3315, 5.3282, 5.324, 5.350899999999999, 5.3625, 5.2447, 5.352799999999999, 5.3332, 5.326, 5.3067, 5.391, 5.2733, 5.2839, 5.3674, 5.3285, 5.3512, 5.3218, 5.3055, 5.3889000000000005, 5.2605, 5.3621, 5.3445, 5.4346000000000005, 5.3349, 5.410200000000001, 5.3096000000000005, 5.3082, 5.335999999999999, 5.3378000000000005, 5.2861, 5.3456, 5.3338, 5.4223, 5.5869, 5.3683000000000005, 5.3905, 5.3137, 5.3228, 5.3883, 5.4171000000000005, 5.479900000000001, 5.6743999999999994, 5.3782, 5.3113, 5.3831, 5.2679, 5.335, 5.3155, 5.3628, 5.330900000000001, 5.3877999999999995, 5.3292, 5.325, 5.3075, 5.3427999999999995, 5.414000000000001, 5.5513, 5.327, 5.319100000000001, 5.2903, 5.572299999999999, 5.311599999999999, 5.3541, 5.319, 5.340199999999999, 5.3687, 5.347, 5.3422, 5.2901, 5.4114, 5.3552, 5.4184, 5.344200000000001, 5.3266, 5.2916, 5.4252, 5.3594, 5.3662, 5.3556, 5.4801, 5.3492],
  "Optimal Expectation Value": -8.0,
  "Optimizer durations [ms]": [64.61, 64.047, 64.662, 64.397, 64.297, 64.322, 64.545, 64.604, 63.408, 64.477, 64.336, 64.374, 64.032, 64.957, 63.735, 63.647, 64.793, 64.379, 64.587, 64.194, 63.999, 64.894, 63.652, 64.513, 64.454, 65.474, 64.346, 65.191, 64.025, 64.07, 64.23, 64.412, 63.903, 64.519, 64.395, 65.247, 61.966, 64.63, 64.772, 64.122, 63.886, 64.959, 65.329, 65.611, 62.92, 64.827, 63.958, 64.702, 63.636, 64.114, 63.988, 64.361, 64.392, 64.97, 64.351, 64.102, 64.213, 64.435, 65.096, 61.743, 64.288, 64.208, 63.838, 66.857, 63.9, 64.39, 64.018, 64.208, 64.747, 64.46, 64.31, 63.737, 65.113, 64.317, 64.924, 64.143, 64.263, 63.77, 65.148, 64.623, 64.636, 64.63, 65.931, 64.621],
  "Optimizer iterations": 84,
  "Optimizer params": [0.3468700109849823, 0.38551825486170643, 0.7423206850613752, 0.9988518145189947, 0.5832370414676329, 0.7735505206267551],
  "P": 3,
  "Problem": "DSP",
  "QPU": "7000000",
  "Qubits": 15,
  "Shots": 4096,
  "Size": 10,
  "Total Algorithm duration [s]": 5.407,
  "Total Classic duration [s]": 4.9568964,
  "Total Quantum duration [s]": 0.4501036
}
