{
  "Depth": 758.0,
  "Expectation Value": -4.445679187774658,
  "Job durations [ms]": [5.3295, 5.3186, 5.325, 5.4194, 5.3647, 5.3591999999999995, 5.3917, 5.338299999999999, 5.3392, 5.343299999999999, 5.5759, 5.4978, 5.4014, 5.3473, 5.335, 5.343299999999999, 5.5989, 5.3585, 5.3951, 5.3585, 5.3832, 5.3603000000000005, 5.5004, 5.3093, 5.306800000000001, 5.3289, 5.3349, 5.3232, 5.3209, 5.3697, 5.265899999999999, 5.3427999999999995, 5.3671, 5.3649, 5.341600000000001, 5.5472, 5.2792, 5.4028, 5.4126, 5.3647, 5.428599999999999, 5.3568, 5.3965000000000005, 5.349600000000001, 5.3701, 5.3484, 5.3584000000000005, 5.3183, 5.3946000000000005, 5.4021, 5.447699999999999, 5.3594, 5.346, 5.3616, 5.3386, 5.5933, 5.3456, 5.3962, 5.347099999999999, 5.353400000000001, 5.3371, 5.322900000000001, 5.3445, 5.3551, 5.3547, 5.3479, 5.3617, 5.3775, 5.381600000000001, 5.4173, 5.387300000000001, 5.3705, 5.3008999999999995, 5.3331, 5.2894, 5.3894, 5.4009, 5.3635, 5.3635],
  "Optimal Expectation Value": -8.0,
  "Optimizer durations [ms]": [64.272, 64.178, 64.266, 65.118, 64.635, 64.509, 64.979, 64.519, 64.455, 64.524, 61.766, 66.029, 65.037, 64.484, 64.169, 64.499, 61.904, 64.589, 65.006, 64.416, 64.908, 64.562, 66.115, 63.871, 64.144, 64.058, 64.695, 64.137, 64.038, 64.725, 63.739, 64.161, 64.835, 64.721, 64.479, 61.699, 63.885, 65.08, 65.051, 64.702, 65.401, 64.469, 64.994, 64.475, 64.755, 64.603, 64.6, 64.047, 64.962, 65.029, 65.482, 64.581, 64.412, 64.751, 64.262, 61.865, 64.552, 64.907, 64.426, 64.453, 64.2, 64.081, 64.446, 64.651, 64.617, 64.515, 64.418, 64.62, 64.877, 65.11, 64.806, 64.445, 63.987, 64.339, 63.622, 64.98, 64.785, 64.643, 64.427],
  "Optimizer iterations": 79,
  "Optimizer params": [0.6519821596717367, 0.9484423103047835, 0.18252682176535895, 0.2336278069224442, 0.7625710881293337, 0.04274679264321241],
  "P": 3,
  "Problem": "DSP",
  "QPU": "7000000",
  "Qubits": 15,
  "Shots": 4096,
  "Size": 10,
  "Total Algorithm duration [s]": 5.091,
  "Total Classic duration [s]": 4.6666219,
  "Total Quantum duration [s]": 0.42437810000000004
}
