{
  "Depth": 95.0,
  "Job durations [ms]": [0.7474, 0.7295, 0.9023, 0.7575999999999999, 0.6824, 0.7038, 0.7071, 0.7684000000000001, 0.6948, 0.7105, 0.747, 0.6840999999999999, 0.755, 0.7676000000000001, 0.7453, 0.7316, 0.7567, 0.6944, 0.7362, 0.7059, 0.7057, 0.6897, 0.8394, 0.8313, 0.8931, 0.6638, 0.8785000000000001, 0.9021, 0.6472, 1.0174999999999998, 0.6859999999999999, 0.8925, 0.8439, 0.7363, 0.6722, 0.699, 0.6587999999999999, 0.6846000000000001, 0.83, 0.7695, 0.7026, 0.7213999999999999, 0.7302, 0.7199, 0.9504999999999999, 0.678, 0.7373, 0.7016, 0.7883, 0.7017, 0.7869, 0.7025, 0.791, 0.6579999999999999, 0.6508, 0.8180999999999999, 0.7807, 0.728, 0.747, 0.707, 0.794, 0.7614, 0.7363, 0.8455999999999999, 0.7393000000000001, 0.7448999999999999, 0.7862, 0.7268, 0.7388, 0.7213999999999999, 0.7373, 0.8264, 0.7481, 0.7043, 0.6997, 0.7044, 0.7112],
  "Optimizer durations [ms]": [7.974, 7.985, 9.586, 8.037, 7.421, 7.578, 7.644, 8.408, 7.192, 7.831, 7.818, 7.405, 7.919, 8.233, 7.861, 8.145, 7.859, 7.708, 7.739, 7.903, 7.495, 7.419, 15.533, 15.115, 13.307, 15.632, 12.692, 10.02, 11.219, 13.915, 11.083, 9.408, 8.91, 14.656, 12.525, 7.519, 16.456, 11.513, 9.19, 8.226, 9.21, 7.561, 8.107, 7.757, 13.051, 8.743, 8.226, 7.587, 8.25, 8.365, 8.045, 7.999, 8.309, 16.646, 14.173, 12.39, 9.174, 7.964, 8.669, 7.665, 8.239, 8.298, 7.733, 9.023, 8.028, 7.732, 8.411, 7.82, 7.924, 8.095, 7.839, 8.8, 7.87, 7.706, 7.901, 7.283, 7.829],
  "Optimizer iterations": 77,
  "Qubits": 5,
  "Total Algorithm duration [s]": 0.714,
  "Total Classic duration [s]": 0.6562037,
  "Total Quantum duration [s]": 0.057796299999999995,
  "Expectation Value": -6.0,
  "Optimal Expectation Value": -6.0,
  "Optimizer params": [0.6017848621329077, 0.9314540284482615, 0.9352397656115372, 0.4828489486996972, 0.9457803717681865, 0.1744540115162422],
  "QPU": "7000000",
  "Problem": "MCP",
  "Size": 5,
  "P": 3,
  "Shots": 4096
}