{
  "Circuit execution durations [ms]": [6605.289697647095, 6883.008718490601, 6643.55206489563, 6889.084815979004, 7192.692995071411, 7287.009239196777, 6704.863786697388, 7299.7260093688965, 6663.084983825684, 7163.328170776367, 6866.81056022644, 6728.266716003418, 6596.977233886719, 6648.706674575806, 6591.481924057007, 6671.391248703003, 6620.7592487335205, 6685.45937538147, 6553.215503692627, 6543.099164962769, 7067.910671234131, 6794.132947921753, 6824.883937835693, 6879.598140716553, 6727.120399475098, 6747.41530418396, 7047.834396362305, 6627.650260925293, 6848.562240600586, 6643.020391464233, 6936.539888381958, 6689.3064975738525, 6749.933242797852, 7313.255786895752, 6685.594797134399, 6521.038293838501, 6542.795896530151, 6538.0096435546875, 6541.676998138428, 6587.339639663696, 6660.151958465576, 6734.649896621704, 6601.449012756348, 6747.4045753479, 6841.304779052734, 6851.579189300537, 6916.672945022583, 7038.579702377319, 6782.079219818115],
  "Depth": 4.5,
  "Expectation Value": -0.91455078125,
  "Optimal Expectation Value": -1.0,
  "Optimizer durations [ms]": [62508.708, 39783.922, 39880.082, 50286.34, 40649.39, 269726.804, 41879.425, 37486.772, 40136.719, 41523.318, 38960.051, 40190.708, 39889.759, 39832.323, 39204.189, 41701.994, 38438.561, 40401.558, 40348.633, 40139.25, 39531.263, 42299.475, 58258.216, 40036.721, 39840.158, 40176.78, 39587.364, 59884.613, 49475.357, 40840.183, 40002.573, 50026.139, 39427.351, 41061.161, 39634.298, 41165.445, 38517.623, 40836.907, 39125.137, 39939.323, 40035.272, 39422.798, 56993.319, 58408.717, 35131.252, 40759.375, 39356.863, 40136.229, 58022.792],
  "Optimizer iterations": 49,
  "Optimizer params": [0.8348174207599665, 0.46837439692064575, 0.8046259766610743, 0.7977957700255034],
  "P": 0,
  "Problem": "IC",
  "QJob durations [ms]": [27134.753227233887, 19805.16815185547, 19883.82339477539, 25075.258255004883, 20261.967658996582, 134773.42987060547, 20875.765800476074, 18683.91990661621, 19987.51163482666, 20709.710121154785, 19391.366958618164, 20042.431831359863, 19882.06386566162, 19862.747192382813, 19498.769760131836, 20799.48139190674, 19166.016578674316, 20147.384643554688, 20077.141761779785, 19995.948791503906, 19709.67674255371, 21082.865715026855, 29057.05451965332, 19965.388298034668, 19863.608360290527, 20012.601852416992, 19702.41069793701, 29888.989448547363, 24676.984786987305, 20369.038581848145, 19891.636848449707, 24956.446647644043, 19663.17367553711, 20478.031158447266, 19733.180046081543, 20531.569480895996, 19207.884788513184, 20363.978385925293, 19496.180534362793, 19879.966735839844, 19960.972785949707, 19649.68776702881, 28439.412117004395, 29109.4913482666, 17511.2943649292, 20320.78742980957, 19627.103805541992, 19951.902389526367, 28958.21762084961],
  "QPU": "4020010",
  "Qubits": 1,
  "Queue durations [ms]": [895.499974489212, 1054.0000200271606, 1027.999997138977, 831.499993801117, 893.5000002384186, 789.4999980926514, 1011.5000009536743, 1015.500009059906, 779.5000076293945, 920.0000166893005, 828.5000026226044, 888.5000050067902, 729.4999957084656, 808.5000216960907, 819.4999992847443, 1002.9999911785126, 778.5000205039978, 1002.4999976158142, 963.9999866485596, 858.9999675750732, 897.0000147819519, 863.999992609024, 1018.5000002384186, 825.4999816417694, 1001.5000104904175, 953.5000324249268, 652.999997138977, 942.00000166893, 929.0000200271606, 859.9999845027924, 870.49999833107, 715.499997138977, 865.9999966621399, 861.0000014305115, 1056.0000240802765, 866.9999837875366, 752.9999911785126, 1104.0000319480896, 916.9999957084656, 859.9999845027924, 1114.4999861717224, 1037.500023841858, 4504.999786615372, 995.5000281333923, 935.0000023841858, 1054.4999837875366, 989.4999861717224, 1031.499981880188, 1177.5000095367432],
  "Shots": 4096,
  "Size": 1,
  "Total Algorithm duration [s]": 2330.901,
  "Total Classic duration [s]": 1172.7868022689818,
  "Total Quantum duration [s]": 1158.114197731018
}
