{
  "Depth": 109.0,
  "Expectation Value": -1.9054020643234253,
  "Job durations [ms]": [0.7678999999999999, 0.6748000000000001, 0.6663, 0.7588, 0.6711, 0.6782999999999999, 0.6676, 0.6568, 0.7591, 0.6625, 0.6549, 0.6726, 0.8865999999999999, 0.6633, 0.9970000000000001, 0.6584, 0.6683, 1.0269000000000001, 0.6631, 0.6711, 0.6662, 0.6941999999999999, 0.67, 0.6652, 0.6786, 0.6575, 0.6668000000000001, 0.6684, 0.6527, 0.6734, 0.6884, 0.7048, 0.8252, 0.8973, 0.6696, 0.6969, 0.6865, 1.056, 1.0273, 0.6583, 1.0937, 0.7525999999999999, 0.6771, 0.6655, 0.6714, 0.6744, 0.6667, 0.6758, 0.8644, 0.9058, 0.6949000000000001, 0.6587999999999999, 0.7159, 0.7089000000000001, 0.6633, 0.6687000000000001, 0.6751, 0.6695, 0.6642, 0.6822, 1.0807, 0.7481, 0.6685000000000001, 0.7577, 1.0235999999999998, 0.6407, 0.6667, 0.8663, 0.8925, 0.6597000000000001, 1.0678, 0.6671, 0.7604000000000001, 0.7252, 0.6632, 0.9781, 0.6685000000000001, 0.7517, 0.6678, 0.9775999999999999, 0.6647, 0.9789, 1.0032999999999999, 0.6970000000000001, 0.6684, 0.7575000000000001, 0.6780999999999999, 0.8992, 0.6541, 0.6646, 0.7207, 0.6868, 0.7385, 0.6644, 0.7462000000000001, 0.6844, 0.6671, 0.7517, 0.7121999999999999, 0.6644, 0.6539999999999999, 0.6773, 0.6981999999999999, 0.8976000000000001, 0.6418, 0.6406, 0.6974, 0.655, 0.6543, 0.651, 0.6708999999999999, 0.6626, 0.8976999999999999, 0.753, 0.6656, 0.6773, 0.6597999999999999, 0.6518999999999999, 0.6681, 0.6556, 0.9584, 0.6733, 1.0288000000000002, 0.6809000000000001, 0.7433, 0.6944],
  "Optimal Expectation Value": -1.0,
  "Optimizer durations [ms]": [13.088, 16.672, 17.063, 10.44, 16.865, 16.962, 15.343, 15.181, 12.821, 16.581, 16.809, 16.694, 14.409, 16.5, 15.693, 11.88, 16.898, 16.121, 14.073, 16.829, 16.873, 14.263, 12.909, 16.752, 17.216, 12.992, 15.62, 14.654, 16.595, 15.863, 17.2, 16.156, 16.292, 12.692, 16.765, 17.171, 14.923, 16.709, 15.541, 12.968, 16.12, 14.891, 16.826, 15.607, 13.415, 16.857, 12.008, 15.288, 14.023, 11.87, 16.445, 16.75, 16.158, 16.226, 16.577, 15.333, 13.667, 16.948, 12.925, 16.994, 16.163, 12.711, 16.968, 10.14, 16.263, 16.011, 16.756, 16.357, 13.891, 16.786, 16.117, 16.882, 12.934, 16.105, 16.764, 13.315, 16.786, 11.929, 13.208, 14.639, 16.772, 16.331, 12.135, 13.062, 16.822, 12.971, 14.798, 14.131, 16.593, 16.129, 15.048, 16.95, 12.859, 16.675, 11.214, 12.456, 16.954, 12.969, 13.905, 16.561, 16.764, 15.699, 16.371, 13.135, 16.124, 16.362, 14.641, 16.9, 16.383, 16.694, 16.688, 16.561, 14.175, 12.747, 12.84, 15.884, 14.36, 14.987, 13.401, 13.848, 16.165, 15.656, 13.263, 16.468, 12.682, 17.157],
  "Optimizer iterations": 126,
  "Optimizer params": [0.8509585228674261, 0.4723871397139254, 0.09692321121680066, 0.6002046277099811, 0.9422075509857423, 0.40312880501257936],
  "P": 3,
  "Problem": "MIS",
  "QPU": "7000000",
  "Qubits": 5,
  "Shots": 4096,
  "Size": 4,
  "Total Algorithm duration [s]": 1.914,
  "Total Classic duration [s]": 1.8211795,
  "Total Quantum duration [s]": 0.09282050000000001
}
