{
  "Depth": 109.0,
  "Expectation Value": -1.8917399644851685,
  "Job durations [ms]": [0.6721, 0.6431, 0.6507000000000001, 0.6568999999999999, 0.6595000000000001, 0.678, 0.6549, 0.9781, 0.4708, 0.6537999999999999, 0.8529, 0.6706000000000001, 0.6531, 0.9032, 0.6693, 0.9282999999999999, 0.7619, 0.7102999999999999, 0.751, 0.6840999999999999, 0.653, 1.0404, 0.9775999999999999, 0.6631, 0.8618, 0.975, 0.9424, 0.6745, 0.7062, 0.6631, 0.6733, 0.6431, 0.6568999999999999, 0.7956000000000001, 0.661, 0.6804, 0.9618, 0.7018000000000001, 0.6624, 0.6592, 0.9025, 0.6637000000000001, 0.695, 0.8807, 0.6751, 0.7377, 0.7615000000000001, 0.7347, 0.7441, 0.6753, 0.6643, 0.6722, 0.7882, 0.5911, 0.6611, 0.7469, 0.7627, 0.6683, 0.6914, 0.6378999999999999, 0.6402, 0.6863, 0.9288000000000001, 0.9940000000000001, 0.8455, 0.6237, 0.6441, 1.0775, 0.6603, 0.6773, 0.6591, 0.6674, 0.6631, 0.6727000000000001, 0.9984, 0.7499, 0.6605, 0.6941, 0.6748999999999999, 0.7982, 0.6989, 0.6681, 0.7203, 0.6816, 0.6571, 0.7572, 1.0621, 0.6636, 0.6877, 0.6764, 1.057, 1.0635, 0.8066, 0.7033, 0.673, 0.6541, 0.758, 0.6890000000000001, 1.0806, 0.9177000000000001, 0.6587000000000001, 0.6607, 0.6536, 0.6708000000000001],
  "Optimal Expectation Value": -1.0,
  "Optimizer durations [ms]": [16.779, 16.414, 16.673, 14.317, 16.689, 16.947, 15.803, 13.191, 9.929, 16.752, 15.02, 16.467, 16.772, 16.026, 12.959, 16.02, 13.002, 15.835, 11.186, 16.805, 16.42, 14.681, 16.297, 16.55, 16.184, 16.014, 16.095, 16.871, 12.868, 16.261, 16.77, 16.624, 12.333, 12.533, 16.61, 14.724, 12.085, 17.177, 13.273, 16.716, 14.253, 16.654, 16.818, 16.407, 16.186, 16.619, 12.775, 12.745, 8.384, 14.985, 16.664, 16.733, 15.678, 15.787, 16.809, 12.714, 12.983, 14.595, 16.064, 13.689, 16.392, 16.815, 15.66, 12.072, 16.452, 16.222, 15.365, 16.04, 16.689, 16.829, 13.767, 16.547, 16.46, 16.658, 12.79, 12.873, 12.639, 17.001, 13.174, 16.246, 13.435, 17.025, 13.369, 16.913, 11.868, 12.823, 16.43, 13.481, 17.087, 17.028, 13.159, 13.579, 16.244, 17.094, 16.941, 14.493, 12.117, 16.405, 16.352, 16.247, 14.012, 16.663, 12.174, 17.018],
  "Optimizer iterations": 104,
  "Optimizer params": [0.39237103706202375, 0.5404545924664516, 0.7368720040454463, 0.7736295391821854, 0.9203034203328886, 0.14362361627240447],
  "P": 3,
  "Problem": "MIS",
  "QPU": "7000000",
  "Qubits": 5,
  "Shots": 4096,
  "Size": 4,
  "Total Algorithm duration [s]": 1.576,
  "Total Classic duration [s]": 1.4987548,
  "Total Quantum duration [s]": 0.07724520000000001
}
