{
  "Depth": 109.0,
  "Expectation Value": -1.8562698364257813,
  "Job durations [ms]": [0.7154, 0.6836, 0.6726, 0.8909, 0.6742, 0.6782, 0.9136, 0.662, 0.6497999999999999, 0.6653, 0.6752, 0.6528, 0.7601, 0.7377, 0.7795000000000001, 0.8223, 0.6689, 0.6551, 0.6790999999999999, 0.6646, 1.0495, 0.6595000000000001, 0.7451, 0.6626, 0.6552, 0.669, 0.8241, 0.6933, 0.6668000000000001, 1.0238999999999998, 0.6835, 0.9571000000000001, 0.6878, 1.0129, 0.7496999999999999, 0.7023, 0.9601, 0.7938, 0.7586999999999999, 0.758, 0.671, 0.8854000000000001, 0.6606, 1.0778, 0.6604, 0.6903, 0.7035, 0.6642, 0.6811999999999999, 0.759, 0.844, 0.6654, 0.7443000000000001, 0.6885, 0.9, 0.7511, 0.6536, 0.6629, 0.7110000000000001, 0.6769000000000001, 0.6454, 0.6744, 0.6684, 0.6763, 0.7992, 0.6369, 0.6506, 0.8201, 0.6471, 0.6629999999999999, 0.9923, 0.7408, 0.6667, 0.6650999999999999, 0.6673, 0.7058, 0.8415, 0.9067, 0.6613, 0.6579999999999999, 0.6722, 0.7513, 0.6442, 0.6905, 0.6587999999999999, 0.6698000000000001, 0.6535, 0.6494, 0.7265, 0.6623, 0.6576000000000001, 0.6523, 0.7265, 0.6737, 0.7464000000000001, 0.6685000000000001, 1.0252, 0.6642, 0.6565, 0.6702, 0.6849, 0.6657, 0.648, 1.0592, 0.6608, 0.6638, 0.6497, 0.6738, 0.6613, 0.6652, 0.6489999999999999, 0.7061, 0.6796000000000001, 0.6514, 0.6601, 0.7588, 0.6759999999999999, 0.8291000000000001, 0.6830999999999999, 0.6696, 0.6671999999999999],
  "Optimal Expectation Value": -1.0,
  "Optimizer durations [ms]": [17.432, 17.032, 16.972, 13.47, 16.721, 16.692, 16.413, 13.835, 16.353, 16.558, 16.896, 16.689, 12.986, 16.182, 9.645, 16.487, 16.681, 16.721, 13.696, 16.895, 16.054, 14.583, 12.61, 17.061, 16.319, 14.477, 16.314, 16.187, 13.045, 16.092, 14.34, 15.899, 17.132, 14.434, 16.268, 14.72, 12.763, 11.877, 12.876, 12.207, 16.978, 16.343, 15.529, 16.064, 16.833, 17.008, 15.086, 16.877, 16.922, 10.975, 16.307, 14.859, 12.778, 13.098, 13.62, 11.108, 16.801, 16.951, 15.44, 13.732, 16.482, 12.061, 16.569, 16.856, 16.034, 16.386, 16.458, 15.592, 16.488, 16.694, 12.553, 16.074, 12.405, 12.216, 12.33, 16.466, 16.168, 12.252, 16.612, 16.58, 12.522, 12.681, 16.524, 17.222, 16.164, 16.869, 16.549, 13.02, 12.631, 16.649, 16.764, 16.583, 13.369, 16.998, 12.74, 12.126, 12.337, 17.02, 13.146, 15.656, 16.759, 15.58, 16.705, 16.072, 12.489, 13.247, 16.468, 17.113, 13.151, 16.699, 16.621, 12.373, 16.551, 16.605, 14.238, 8.355, 15.201, 16.344, 16.76, 15.665, 15.214],
  "Optimizer iterations": 121,
  "Optimizer params": [0.6461556868850881, 0.5556554195067906, 0.9998559466215363, 0.9999998183837161, 0.00706147605436035, 0.7530346740923544],
  "P": 3,
  "Problem": "MIS",
  "QPU": "7000000",
  "Qubits": 5,
  "Shots": 4096,
  "Size": 4,
  "Total Algorithm duration [s]": 1.832,
  "Total Classic duration [s]": 1.7442662000000002,
  "Total Quantum duration [s]": 0.08773379999999993
}
