{
  "Depth": 109.0,
  "Expectation Value": -1.9029814004898071,
  "Job durations [ms]": [0.6997, 0.6554, 0.7438, 0.6679999999999999, 0.7522, 0.6891, 0.6604, 0.6633, 0.6729, 0.6367, 0.9774, 0.6716, 0.6719999999999999, 0.6708000000000001, 0.7549, 0.7536, 0.6845, 0.9722, 0.9372, 0.6650999999999999, 0.6618999999999999, 0.9552999999999999, 0.6789, 0.7458, 0.6567, 0.6605, 0.6945, 0.6918, 0.7609, 0.6597999999999999, 0.6849999999999999, 0.9525, 0.9388000000000001, 0.74, 0.6823, 0.6671, 0.6778, 0.6911, 0.6685000000000001, 0.6608999999999999, 0.992, 0.6708000000000001, 0.6704, 0.6722, 0.6847, 0.8906, 0.6392, 1.1100999999999999, 0.6658999999999999, 0.7348, 0.9, 0.8771, 0.6737, 0.6736, 0.7613, 0.6567, 0.6742, 0.7481, 0.6711, 0.6705, 0.6715, 0.6759999999999999, 0.7554000000000001, 0.6787, 0.6679, 0.7083, 1.1554, 0.7474, 0.6763, 0.6657, 0.7543, 0.7045, 0.7822, 0.6642, 0.6678, 0.6629, 0.641, 0.6616000000000001, 0.7797000000000001, 0.657, 0.7288, 0.8719, 0.6594, 0.6566000000000001, 0.6698000000000001, 0.8846, 0.657, 0.9009, 0.6913, 0.7494999999999999, 0.9521, 0.6556, 0.6484000000000001, 0.6811999999999999, 0.6706000000000001, 0.6587999999999999, 0.6593, 0.6634, 0.6618, 0.6689, 0.6887, 0.6574000000000001, 0.6909000000000001, 0.6681, 0.7796, 0.7245, 0.9536, 0.7774, 0.6735000000000001, 0.7784, 0.9436, 0.6803, 0.6647, 0.6626, 0.9183, 0.6668000000000001, 1.0141, 0.7169, 0.6759999999999999, 0.6746, 0.6828, 0.6718, 0.7073999999999999, 0.6648000000000001, 0.6608, 0.6338999999999999, 0.7595, 0.6735000000000001, 1.0199, 0.6617, 0.8069000000000001, 1.0491000000000001, 1.0127000000000002, 0.6499, 0.6799, 0.6546, 0.7853, 0.684, 0.7553, 0.6433, 0.6786, 0.7524, 0.8371999999999999, 0.7897, 0.7394, 0.6828, 0.6521, 0.6713, 0.6284, 0.6529, 0.8413999999999999, 0.6465000000000001, 0.6958, 0.7607, 0.6597999999999999, 0.7028, 0.6797, 0.6885, 0.6655, 0.6312, 0.6465000000000001, 0.7443000000000001, 0.9288000000000001, 0.6854, 0.671, 0.6553, 0.6668000000000001],
  "Optimal Expectation Value": -1.0,
  "Optimizer durations [ms]": [17.344, 16.704, 12.788, 13.987, 9.655, 17.04, 16.59, 13.694, 16.844, 16.198, 16.229, 16.578, 16.953, 16.906, 13.142, 12.778, 16.825, 15.607, 16.001, 16.669, 16.842, 16.27, 16.761, 12.77, 16.93, 16.542, 17.215, 15.858, 16.166, 16.756, 16.986, 15.025, 12.347, 12.712, 16.849, 12.989, 12.585, 13.858, 16.893, 12.372, 16.337, 15.08, 17.007, 16.639, 16.983, 16.291, 16.522, 16.457, 16.84, 12.157, 11.91, 13.013, 12.985, 15.649, 12.927, 14.469, 15.215, 12.919, 16.552, 17.006, 14.648, 15.013, 10.811, 15.1, 16.022, 16.257, 16.811, 16.718, 16.872, 13.741, 12.762, 17.136, 13.019, 13.617, 16.705, 16.828, 16.729, 14.715, 16.279, 15.886, 14.149, 16.13, 16.724, 14.049, 16.713, 16.298, 16.263, 16.346, 17.03, 12.764, 16.414, 16.674, 16.959, 14.823, 12.203, 14.849, 16.868, 14.332, 16.686, 15.484, 16.178, 16.507, 16.73, 16.945, 13.105, 12.391, 14.603, 13.074, 16.987, 8.904, 16.36, 16.908, 12.502, 16.755, 12.741, 16.799, 16.337, 15.195, 13.523, 13.561, 17.066, 16.889, 16.317, 16.593, 16.755, 16.438, 12.627, 16.565, 16.272, 16.578, 13.323, 16.332, 16.162, 15.259, 16.867, 16.718, 16.444, 12.555, 16.531, 16.378, 12.54, 10.195, 16.276, 16.06, 16.424, 14.116, 16.772, 12.648, 16.383, 12.671, 12.041, 12.284, 16.004, 14.896, 16.524, 17.162, 16.96, 12.76, 14.876, 16.509, 14.783, 12.939, 13.555, 16.802, 13.515, 15.839, 16.81],
  "Optimizer iterations": 167,
  "Optimizer params": [1.0, 0.05769787182275561, 2.0285739700395718e-18, 2.020896098619546e-19, 0.7394267883187186, 2.5940183414341695e-18],
  "P": 3,
  "Problem": "MIS",
  "QPU": "7000000",
  "Qubits": 5,
  "Shots": 4096,
  "Size": 4,
  "Total Algorithm duration [s]": 2.546,
  "Total Classic duration [s]": 2.4241425,
  "Total Quantum duration [s]": 0.12185750000000001
}
