{
  "Depth": 109.0,
  "Expectation Value": -1.9313461780548096,
  "Job durations [ms]": [0.5419999999999999, 0.661, 0.666, 0.6953, 0.6784, 0.6591, 0.7656, 1.0847, 0.7813, 0.764, 0.7517999999999999, 0.6722, 0.7666, 0.6754, 0.7584, 0.6613, 0.8639, 0.7686000000000001, 1.0648, 0.7738, 0.7651, 0.6751, 0.6645000000000001, 0.6571, 0.6745, 0.6725, 0.7163999999999999, 0.7602000000000001, 0.6683, 0.7631, 0.8489, 0.6508, 0.6669, 1.0542, 0.6757, 0.641, 0.6803, 0.6679999999999999, 0.6726, 0.6811, 0.8536, 0.6944, 0.6654, 0.6679999999999999, 0.7601, 0.6641, 0.6830999999999999, 0.6786, 0.6626, 0.6981999999999999, 0.7768, 0.6736, 0.6618999999999999, 0.6775, 0.6525, 0.7491000000000001, 0.6735000000000001, 0.7523, 0.6618999999999999, 0.6714, 0.8054, 0.6547999999999999, 0.6486999999999999, 0.8633, 0.7564, 0.6705, 0.6806, 0.7239, 0.675, 0.6843, 0.6579999999999999, 0.6642, 0.655, 0.8505, 0.7685, 0.6712, 0.8216, 0.6667, 0.6621, 0.6723, 0.6726, 0.6809999999999999, 0.6586, 0.7525999999999999, 0.7537, 0.6835, 0.7553, 0.7906000000000001, 0.6562, 0.6731, 0.6667, 0.9026000000000001, 0.6895, 0.67, 0.6376, 0.7496999999999999, 0.7049, 0.7395, 0.6735000000000001, 0.7823, 0.6856, 0.6646, 0.7628, 0.6807, 0.6648999999999999, 0.7586, 0.6724, 0.6941, 0.8001],
  "Optimal Expectation Value": -1.0,
  "Optimizer durations [ms]": [10.649, 16.716, 16.949, 14.338, 17.006, 16.771, 12.94, 13.475, 13.139, 12.917, 12.795, 16.857, 9.975, 16.815, 10.621, 16.243, 14.091, 16.136, 13.258, 13.132, 12.983, 15.41, 16.136, 16.648, 16.663, 16.811, 17.122, 13.029, 13.238, 12.634, 11.09, 16.611, 16.813, 15.756, 16.901, 11.774, 16.749, 14.198, 16.828, 17.003, 16.057, 13.062, 15.061, 14.318, 12.908, 14.3, 16.889, 16.905, 15.244, 17.243, 11.686, 16.713, 13.554, 17.033, 16.788, 8.261, 14.014, 13.048, 12.876, 16.794, 11.675, 12.318, 16.959, 16.354, 8.707, 12.857, 16.892, 15.165, 12.924, 17.142, 16.587, 16.614, 12.428, 14.079, 9.862, 13.502, 15.904, 16.807, 16.528, 16.882, 14.274, 16.987, 16.891, 9.972, 10.125, 16.282, 13.092, 11.275, 16.331, 16.956, 16.932, 16.169, 17.061, 16.787, 14.098, 14.088, 17.232, 16.455, 16.853, 9.606, 17.076, 16.737, 10.55, 15.759, 16.894, 12.962, 16.889, 13.943, 13.324],
  "Optimizer iterations": 109,
  "Optimizer params": [0.9987457181292522, 0.7244854874407795, 0.762644758567396, 0.8294910860419861, 0.6675702935092781, 0.3026046067078611],
  "P": 3,
  "Problem": "MIS",
  "QPU": "7000000",
  "Qubits": 5,
  "Shots": 4096,
  "Size": 4,
  "Total Algorithm duration [s]": 1.603,
  "Total Classic duration [s]": 1.5247806,
  "Total Quantum duration [s]": 0.07821940000000002
}
