{
  "Depth": 109.0,
  "Expectation Value": -1.8724027872085571,
  "Job durations [ms]": [0.6981, 0.6838000000000001, 0.6629999999999999, 0.9071, 0.584, 0.7446, 0.8056, 0.6716, 0.6960999999999999, 0.6756000000000001, 0.6763, 0.6658000000000001, 0.7366, 0.6753, 1.0632000000000001, 0.8978, 0.6679, 1.095, 0.7609, 0.6901, 0.6618999999999999, 1.0533000000000001, 0.6697, 0.6777000000000001, 0.7752, 0.6657, 0.6732, 0.6766, 0.6597999999999999, 0.6689, 0.6608999999999999, 0.6602, 0.6891, 0.6615, 0.661, 0.6518999999999999, 0.8631, 0.7942, 0.6678, 0.6702, 1.0177, 0.6708000000000001, 0.8991, 0.9295, 0.9942, 0.6629, 0.6562, 0.7469, 0.6717, 0.6543, 0.6428999999999999, 0.6832, 1.0029, 0.6539, 0.6842, 0.6716, 0.6698000000000001, 0.6772, 0.6542, 0.6927, 0.7496, 0.7404, 0.6364, 0.8664999999999999, 0.6686, 0.6644, 0.6734, 0.6658000000000001, 0.656, 0.6636, 0.9054, 0.6767, 0.7515, 0.6755, 0.6529, 1.0293999999999999, 0.743, 0.7940999999999999, 0.6671999999999999, 1.0753, 0.7574, 0.6738, 0.6698000000000001, 1.0633000000000001, 0.6737, 0.6785, 0.6625, 0.6675, 0.7509, 0.9079, 0.6697, 0.6780999999999999, 0.6698000000000001, 0.7241, 0.6309, 0.7703, 0.6671999999999999, 0.6664, 0.6583, 0.6628, 0.6664, 0.6787, 0.6684, 0.674, 0.7487, 0.6557, 0.6858, 0.6725, 1.0706],
  "Optimal Expectation Value": -1.0,
  "Optimizer durations [ms]": [16.921, 16.784, 17.068, 13.713, 10.955, 12.955, 16.276, 13.455, 16.962, 16.763, 14.395, 16.312, 17.421, 16.837, 15.65, 16.43, 16.724, 16.24, 12.839, 16.955, 14.438, 16.224, 14.068, 13.929, 13.019, 16.795, 16.972, 16.669, 14.016, 15.104, 14.009, 17.146, 17.053, 16.705, 16.708, 16.443, 16.211, 16.144, 14.837, 16.782, 14.682, 12.243, 13.103, 16.366, 16.527, 12.602, 13.503, 8.984, 15.958, 12.184, 12.066, 16.979, 16.82, 13.802, 14.011, 16.751, 12.761, 12.719, 12.233, 16.985, 12.869, 12.529, 14.24, 16.293, 16.681, 15.362, 16.942, 16.594, 16.766, 15.699, 14.518, 17.156, 12.068, 16.585, 13.713, 12.436, 13.094, 14.066, 16.883, 16.547, 12.949, 16.312, 14.153, 16.436, 12.934, 16.529, 13.365, 12.167, 10.786, 13.444, 15.074, 15.403, 16.635, 12.688, 12.8, 16.195, 16.739, 16.902, 16.806, 16.858, 16.88, 13.991, 16.786, 12.966, 10.564, 16.809, 16.166, 14.058, 16.496],
  "Optimizer iterations": 109,
  "Optimizer params": [1.0, 0.11028999845384141, 0.7068668088269491, 6.787620250856873e-19, 2.221904569090894e-16, 0.1356798918431683],
  "P": 3,
  "Problem": "MIS",
  "QPU": "7000000",
  "Qubits": 5,
  "Shots": 4096,
  "Size": 4,
  "Total Algorithm duration [s]": 1.637,
  "Total Classic duration [s]": 1.5570644,
  "Total Quantum duration [s]": 0.07993560000000001
}
