{
  "Depth": 6.5,
  "Job durations [ms]": [222.16308116912842, 216.41874313354492, 520.2696323394775, 375.58579444885254, 369.3716526031494, 221.06051445007324, 375.5054473876953, 213.9291763305664, 213.93239498138428, 225.6321907043457, 221.42624855041504, 223.2898473739624, 366.28901958465576, 234.366774559021, 364.36688899993896, 226.14705562591553, 222.14698791503906, 220.95048427581787, 215.93940258026123, 378.58617305755615, 213.22083473205566, 222.63777256011963, 213.42265605926514, 218.95205974578857, 212.58187294006348, 221.3829755783081, 225.06511211395264, 221.53639793395996, 223.8863706588745, 218.95861625671387, 217.637300491333, 213.62030506134033, 219.86663341522217, 219.25926208496094, 222.33009338378906, 218.34087371826172, 371.8533515930176, 219.6218967437744, 360.32557487487793, 215.91651439666748, 218.06323528289795, 215.5745029449463, 222.24795818328857, 213.12105655670166, 218.69409084320068, 228.7670373916626, 224.98178482055664, 371.34385108947754, 225.32975673675537, 220.79110145568848, 220.96776962280273, 212.64147758483887, 224.0309715270996, 366.87493324279785, 213.97805213928223, 226.25482082366943, 374.0178346633911, 227.5606393814087, 222.79250621795654, 220.76308727264404, 370.76711654663086, 226.45807266235352, 209.07306671142578, 229.1957139968872, 211.11977100372314],
  "Optimizer durations [ms]": [1989.505, 1935.57, 2582.128, 2263.312, 2306.001, 1965.731, 2296.872, 1966.375, 1953.779, 1958.634, 1987.136, 2048.109, 2287.552, 1983.709, 2263.762, 1994.816, 2028.648, 2022.504, 1917.995, 2281.479, 1978.788, 1989.85, 1948.178, 1931.08, 1964.885, 1948.635, 1973.82, 1949.598, 1954.768, 1966.317, 1982.616, 1945.793, 1967.212, 1978.762, 1955.381, 1960.212, 2249.207, 2031.401, 2239.249, 1942.052, 1962.778, 1963.359, 1959.631, 1968.27, 1953.751, 2010.571, 1965.944, 2273.008, 2003.355, 1985.765, 2008.13, 1931.994, 1983.187, 2248.847, 1944.977, 1999.776, 2283.868, 1977.898, 1993.617, 1961.492, 2252.506, 2000.555, 1944.082, 2009.167, 1899.159],
  "Optimizer iterations": 65,
  "Qubits": 2,
  "Total Algorithm duration [s]": 132.377,
  "Total Classic duration [s]": 115.96379580688478,
  "Total Quantum duration [s]": 16.413204193115234,
  "Expectation Value": -1.0,
  "Optimal Expectation Value": -2.2360680103302,
  "Optimizer params": [0.75, 0.5, 0.5, 0.5, 0.5, 0.5, 0.5, 0.5],
  "QPU": "6010003",
  "Problem": "IC",
  "Size": 2,
  "P": 0,
  "Shots": 4096
}