{
  "Depth": 203.0,
  "Job durations [ms]": [18.316030502319336, 18.40043067932129, 18.534183502197266, 18.499135971069336, 18.433809280395508, 18.48745346069336, 18.436193466186523, 18.32103729248047, 18.57590675354004, 18.39280128479004, 18.410682678222656, 18.36991310119629, 18.511056900024414, 18.426179885864258, 18.300533294677734, 18.405675888061523, 18.459320068359375, 18.201351165771484, 18.497705459594727, 18.34249496459961, 18.49055290222168, 18.546342849731445, 18.31507682800293, 18.484115600585938, 18.72539520263672, 18.3870792388916, 18.37635040283203, 18.404245376586914, 18.518686294555664, 18.451929092407227, 18.42474937438965, 18.534183502197266, 18.39923858642578, 18.344879150390625, 18.4326171875, 18.50605010986328, 18.40949058532715, 18.52893829345703, 18.311262130737305, 18.37754249572754, 18.326759338378906, 18.507003784179688, 18.296480178833008, 18.480300903320312, 18.35489273071289, 18.515825271606445, 18.518686294555664, 18.203258514404297, 18.35465431213379, 18.454551696777344, 18.5089111328125, 18.601655960083008, 18.505334854125977, 18.319129943847656, 18.368244171142578, 18.44048500061035, 18.4781551361084, 18.424272537231445, 18.224716186523438, 18.390655517578125, 18.362045288085938, 18.546342849731445, 18.28598976135254, 18.372535705566406, 18.5699462890625, 18.496990203857422, 18.2797908782959, 18.52273941040039, 18.423795700073242, 18.46623420715332, 18.805265426635742, 18.44644546508789, 18.513917922973633],
  "Optimizer durations [ms]": [282.753, 243.374, 242.287, 281.199, 242.45, 242.641, 283.297, 241.591, 242.079, 284.319, 242.205, 241.605, 282.224, 242.877, 240.614, 282.963, 242.879, 241.765, 282.209, 241.913, 240.998, 280.565, 242.151, 241.583, 281.758, 242.498, 241.51, 279.678, 242.158, 242.381, 280.054, 241.973, 241.286, 281.035, 242.997, 241.728, 280.799, 242.952, 241.367, 280.124, 243.319, 241.318, 280.763, 241.576, 241.114, 280.157, 241.982, 241.748, 281.84, 243.184, 240.515, 280.102, 242.432, 241.54, 280.363, 242.254, 242.502, 280.881, 241.488, 241.609, 281.235, 242.722, 241.337, 280.865, 243.74, 242.073, 279.979, 242.946, 243.201, 281.35, 242.46, 242.903, 282.311],
  "Optimizer iterations": 73,
  "Qubits": 11,
  "Total Algorithm duration [s]": 18.654,
  "Total Classic duration [s]": 17.308343366622925,
  "Total Quantum duration [s]": 1.3456566333770752,
  "Expectation Value": -13.28515625,
  "Optimal Expectation Value": -16.0,
  "Optimizer params": [0.9931409856213361, 0.45206492795793485, 0.867132327085089, 0.12438768474044887, 0.5350639950511864, 0.029085746924200347],
  "QPU": "3010002",
  "Problem": "MCP",
  "Size": 11,
  "P": 3,
  "Shots": 4096
}