{
  "Depth": 203.0,
  "Job durations [ms]": [18.512248992919922, 18.43404769897461, 18.39470863342285, 18.49198341369629, 18.498897552490234, 18.387794494628906, 18.343448638916016, 18.40519905090332, 18.60332489013672, 18.387556076049805, 18.087148666381836, 18.347740173339844, 18.36395263671875, 18.296241760253906, 18.421173095703125, 18.320322036743164, 18.342018127441406, 18.297195434570312, 18.28289031982422, 18.33796501159668, 18.274307250976562, 18.174409866333008, 18.29075813293457, 18.50152015686035, 18.397808074951172, 18.427371978759766, 18.16391944885254, 18.332958221435547, 18.4173583984375, 18.27692985534668, 18.42641830444336, 18.43404769897461, 18.486976623535156, 18.104076385498047, 18.205642700195312, 18.452882766723633, 18.263578414916992, 18.236398696899414, 18.348217010498047, 18.405914306640625, 18.227815628051758, 18.469572067260742, 18.47219467163086, 18.520355224609375, 18.366336822509766, 18.240928649902344, 18.43714714050293, 18.48292350769043, 18.278121948242188, 18.288850784301758, 18.300533294677734, 18.227815628051758, 18.37468147277832, 18.462657928466797, 18.25261116027832, 18.369674682617188, 18.229961395263672, 18.436431884765625, 18.507719039916992, 18.367290496826172, 18.312931060791016, 18.6159610748291, 18.33486557006836, 18.271446228027344, 18.31340789794922, 18.60785484313965, 18.192529678344727, 18.379688262939453, 18.299579620361328, 18.659591674804688, 18.397808074951172, 18.347740173339844, 18.161535263061523, 18.407106399536133, 18.32127571105957, 18.207550048828125, 18.246173858642578, 18.172502517700195, 18.55158805847168, 18.328428268432617, 18.410921096801758, 18.329858779907227, 18.343210220336914, 18.501996994018555],
  "Optimizer durations [ms]": [241.892, 282.913, 242.145, 242.675, 284.507, 243.567, 241.33, 282.864, 242.81, 241.785, 283.35, 242.495, 240.469, 283.316, 244.077, 241.259, 283.349, 242.596, 241.903, 283.725, 242.287, 241.29, 285.32, 242.551, 240.164, 282.999, 242.187, 240.897, 282.228, 243.39, 242.23, 285.127, 241.894, 241.52, 284.532, 241.824, 240.362, 284.015, 242.672, 241.318, 282.211, 242.778, 241.87, 282.998, 241.829, 243.115, 284.752, 242.118, 240.716, 281.947, 243.298, 241.271, 282.078, 243.052, 241.041, 282.512, 241.784, 241.15, 286.497, 241.736, 240.55, 283.982, 242.0, 240.806, 282.919, 242.421, 240.113, 283.289, 242.603, 241.335, 282.21, 241.657, 241.198, 283.403, 242.057, 241.11, 282.693, 243.44, 241.49, 282.275, 242.58, 241.838, 283.369, 242.651],
  "Optimizer iterations": 84,
  "Qubits": 11,
  "Total Algorithm duration [s]": 21.482,
  "Total Classic duration [s]": 19.939793474197387,
  "Total Quantum duration [s]": 1.5422065258026123,
  "Expectation Value": -14.00732421875,
  "Optimal Expectation Value": -16.0,
  "Optimizer params": [0.9504344657227506, 0.5709587237150423, 0.8277654129643021, 0.5080684027617699, 0.10747746817649348, 0.47988369983568285],
  "QPU": "3010002",
  "Problem": "MCP",
  "Size": 11,
  "P": 3,
  "Shots": 4096
}