{
  "Depth": 203.0,
  "Job durations [ms]": [18.534183502197266, 18.46003532409668, 18.558979034423828, 18.357038497924805, 18.700838088989258, 18.422842025756836, 18.535614013671875, 18.58353614807129, 18.433094024658203, 18.39900016784668, 18.73636245727539, 18.463611602783203, 18.369197845458984, 18.48149299621582, 18.540382385253906, 18.56708526611328, 18.469810485839844, 18.42808723449707, 18.54705810546875, 18.449068069458008, 18.671274185180664, 18.532752990722656, 18.40662956237793, 18.43404769897461, 18.30768585205078, 18.487215042114258, 18.444538116455078, 18.553733825683594, 18.44501495361328, 18.28598976135254, 18.495559692382812, 18.548965454101562, 18.463611602783203, 18.56088638305664, 18.50605010986328, 18.48626136779785, 18.541336059570312, 18.472909927368164, 18.450021743774414, 18.472671508789062, 18.56255531311035, 18.38850975036621, 18.51487159729004, 18.44000816345215, 18.722057342529297, 18.29361915588379, 18.463134765625, 18.361330032348633, 18.358707427978516, 18.413543701171875, 18.390655517578125, 18.248319625854492, 18.448352813720703, 18.197298049926758, 18.34416389465332, 18.2340145111084, 18.422603607177734, 18.212556838989258, 18.356800079345703, 18.426895141601562, 18.172264099121094, 18.641948699951172, 18.451452255249023, 18.369436264038086, 18.198251724243164, 18.28169822692871, 18.34845542907715, 18.317461013793945, 18.184900283813477, 18.479347229003906, 18.509387969970703, 18.727540969848633, 18.22662353515625, 18.358707427978516, 18.312931060791016, 18.51797103881836, 18.098831176757812, 18.449783325195312, 18.140316009521484, 18.354415893554688, 18.354415893554688, 18.416643142700195, 18.242835998535156, 18.31221580505371, 18.374919891357422, 18.296241760253906, 18.218517303466797, 18.3260440826416, 18.215656280517578, 18.462181091308594, 18.303632736206055, 18.2492733001709, 18.49985122680664, 18.228769302368164, 18.343687057495117, 18.45836639404297, 18.229246139526367, 18.33510398864746, 18.153905868530273, 18.29218864440918, 18.326997756958008, 18.41878890991211, 18.209218978881836, 18.2650089263916, 18.485307693481445, 18.17941665649414, 18.282413482666016, 18.257856369018555, 18.378496170043945, 18.361330032348633, 18.37444305419922, 18.371105194091797, 18.314361572265625, 18.268108367919922, 18.163442611694336, 18.22829246520996, 18.33939552307129, 18.357038497924805, 18.27859878540039, 18.207788467407227, 18.24355125427246, 18.22352409362793, 18.283605575561523, 18.428564071655273, 18.32413673400879, 18.176555633544922, 18.477678298950195, 18.42951774597168, 18.30148696899414, 18.29385757446289, 18.397092819213867, 18.370866775512695, 18.344640731811523, 18.312692642211914, 18.47529411315918, 18.07713508605957, 18.3260440826416, 18.44954490661621],
  "Optimizer durations [ms]": [241.74, 285.431, 243.164, 241.643, 284.964, 242.378, 243.125, 284.131, 242.527, 241.867, 284.149, 242.714, 242.256, 283.444, 243.4, 241.216, 284.652, 242.748, 241.622, 282.411, 244.201, 241.422, 282.151, 242.15, 242.593, 284.446, 242.312, 241.499, 286.765, 243.067, 241.35, 283.061, 243.37, 240.996, 282.736, 242.725, 243.111, 283.008, 242.028, 241.446, 284.576, 242.87, 241.196, 284.338, 244.236, 240.619, 283.216, 242.239, 241.899, 283.635, 242.038, 241.038, 284.139, 243.0, 240.744, 282.231, 242.906, 241.503, 281.814, 243.689, 242.458, 282.779, 241.818, 241.183, 282.637, 242.934, 241.193, 241.816, 282.502, 241.193, 241.174, 281.15, 241.467, 242.946, 281.841, 240.752, 240.868, 283.811, 240.552, 241.157, 282.772, 240.983, 241.161, 283.077, 241.705, 241.759, 282.221, 243.303, 241.327, 280.171, 240.671, 241.839, 278.355, 241.198, 240.745, 279.676, 241.772, 241.155, 279.695, 241.017, 241.219, 279.102, 241.133, 242.15, 279.519, 241.161, 241.933, 280.248, 242.619, 240.805, 279.573, 241.646, 241.239, 279.141, 241.043, 241.304, 280.305, 241.03, 241.457, 279.727, 242.33, 240.711, 280.991, 242.567, 241.156, 278.96, 240.622, 241.588, 279.627, 241.095, 241.956, 280.071, 241.339, 240.751, 279.926, 241.302, 240.734, 279.802],
  "Optimizer iterations": 138,
  "Qubits": 11,
  "Total Algorithm duration [s]": 35.218,
  "Total Classic duration [s]": 32.681136911392215,
  "Total Quantum duration [s]": 2.536863088607788,
  "Expectation Value": -14.2548828125,
  "Optimal Expectation Value": -16.0,
  "Optimizer params": [0.11334559319980674, 0.10358875350736475, 0.9999521888611123, 0.7691786569734053, 0.26503630484972857, 0.1990722724706984],
  "QPU": "3010002",
  "Problem": "MCP",
  "Size": 11,
  "P": 3,
  "Shots": 4096
}