{
  "Depth": 113.0,
  "Job durations [ms]": [15.610112, 9.100324, 16.735194000000003, 8.995345, 9.132905000000001, 9.275680000000001, 9.136542, 15.541830000000001, 9.340404, 8.425496, 15.836689000000002, 15.559044000000002, 9.207147, 19.182147, 9.169616, 9.083218, 15.461386000000001, 9.549929, 15.767378000000003, 15.941978000000002, 9.201481000000001, 18.717126, 9.246141000000001, 8.912997, 18.965956000000002, 9.377252, 15.530997000000001, 19.116784000000003, 18.914229000000002, 16.000503000000002, 18.796856000000002, 15.578767000000001, 9.496774000000002, 9.225174, 19.818477, 11.842232000000001, 13.021439, 19.122471, 15.586384000000002, 9.127078000000001, 18.693871, 8.632078000000002, 18.978732, 8.608877000000001, 8.576801999999999, 8.767869000000001, 19.038001, 8.406436, 8.605538000000001, 8.360274, 18.991924, 19.221003, 8.412272, 8.400271, 9.467603, 8.501822, 14.659464, 13.117461, 19.229769, 18.504126000000003, 19.025624, 19.102643000000004, 8.447813, 8.404056, 8.452538, 11.419276, 18.907470000000004, 9.369394000000002, 19.109301000000002, 18.962864000000003, 9.25568, 8.883367000000002, 8.379246, 8.371322000000001, 9.198630000000001, 9.279625000000001, 19.03058, 8.521377, 8.532882, 15.631348999999998, 18.983678, 12.510444000000001, 19.056042, 8.70438, 8.404005000000002, 8.448426999999999, 19.130793999999998, 19.007196, 19.089177000000003, 8.456117, 8.699445, 19.026579, 19.060081, 19.096909000000004, 8.638549000000001, 8.706217, 8.265794, 8.385985999999999, 18.750452],
  "Optimizer durations [ms]": [10133.709, 22658.612, 15742.833, 70203.127, 9681.835, 12434.497, 71831.735, 8894.129, 9325.929, 34896.802, 10958.14, 7627.075, 69732.327, 95477.787, 8510.185, 7514.379, 11428.828, 71590.424, 9357.538, 8050.871, 8199.33, 22505.676, 23138.395, 9611.031, 35353.325, 72444.477, 10359.893, 9072.861, 7823.885, 72935.906, 7788.662, 7997.678, 8018.257, 130660.21, 8660.502, 15455.034, 116899.164, 74094.822, 8153.599, 70558.734, 11098.972, 9239.404, 35347.347, 7413.609, 70102.076, 8208.863, 34537.343, 17213.197, 8178.686, 22129.758, 9360.916, 6972.678, 8354.252, 126171.426, 11031.414, 34769.182, 63152.528, 9204.728, 7366.981, 132432.475, 8109.678, 70683.509, 10068.924, 62075.197, 11762.817, 70154.445, 9739.865, 15592.203, 8533.264, 8560.493, 14213.35, 8424.565, 7036.728, 70471.342, 8090.307, 7437.447, 73614.82, 8675.515, 38588.356, 69968.55, 10249.421, 9023.601, 63285.064, 8676.913, 11003.511, 68841.531, 25078.993, 10677.307, 74616.684, 25310.957, 25676.774, 18743.484, 10408.15, 70147.969, 14725.233, 15166.399, 10707.269, 10657.378, 7158.949],
  "Optimizer iterations": 99,
  "Qubits": 6,
  "Total Algorithm duration [s]": 2990.025,
  "Total Classic duration [s]": 2988.731469016,
  "Total Quantum duration [s]": 1.2935309840000002,
  "Expectation Value": -7.55517578125,
  "Optimal Expectation Value": -8.0,
  "Optimizer params": [0.308814678427965, 0.3954230988455523, 0.2018489869243713, 0.1768178264833934, 0.999392217613359, 0.36419690240518754],
  "QPU": "4010001",
  "Problem": "MCP",
  "Size": 6,
  "P": 3,
  "Shots": 4096
}