{
  "Circuit execution durations [ms]": [0.08119999984046444, 0.07990000085555948, 0.07905000165919773, 0.07959999857121147, 0.09069999941857532, 0.08175000039045699, 0.08560000060242601, 0.076450000051409, 0.0857499981066212, 0.08075000005192123, 0.0805000017862767, 0.08040000102482736, 0.08009999874047935, 0.07980000009411015, 0.08605000039096922, 0.0808000004326459, 0.11654999980237335, 0.07869999899412505, 0.08119999984046444, 0.08059999890974723, 0.09720000161905773, 0.07980000009411015, 0.08770000204094686, 0.08170000000973232, 0.07945000106701627, 0.07945000106701627, 0.07914999878266826, 0.07879999975557439, 0.07864999861340038, 0.08214999979827553, 0.07819999882485718, 0.07899999764049426, 0.08000000161700882, 0.08379999781027436, 0.07849999747122638, 0.08035000064410269, 0.07955000182846561],
  "Depth": 4.5,
  "Expectation Value": -1.0,
  "Optimal Expectation Value": -1.0,
  "Optimizer durations [ms]": [2.559, 2.605, 2.592, 2.581, 2.805, 2.65, 2.685, 2.453, 2.818, 2.649, 2.598, 2.577, 2.618, 2.595, 2.638, 2.523, 3.422, 2.623, 2.517, 2.757, 2.865, 2.587, 2.718, 2.661, 2.595, 2.59, 2.565, 2.563, 2.582, 2.599, 2.545, 2.7, 2.428, 2.783, 2.565, 2.643, 2.576],
  "Optimizer iterations": 37,
  "Optimizer params": [0.048218698013482934, 0.9837687537702474, 0.9523654258643253, 0.5086313486099243],
  "P": 0,
  "Problem": "IC",
  "QJob durations [ms]": [0.08119999984046444, 0.07990000085555948, 0.07905000165919773, 0.07959999857121147, 0.09069999941857532, 0.08175000039045699, 0.08560000060242601, 0.076450000051409, 0.0857499981066212, 0.08075000005192123, 0.0805000017862767, 0.08040000102482736, 0.08009999874047935, 0.07980000009411015, 0.08605000039096922, 0.0808000004326459, 0.11654999980237335, 0.07869999899412505, 0.08119999984046444, 0.08059999890974723, 0.09720000161905773, 0.07980000009411015, 0.08770000204094686, 0.08170000000973232, 0.07945000106701627, 0.07945000106701627, 0.07914999878266826, 0.07879999975557439, 0.07864999861340038, 0.08214999979827553, 0.07819999882485718, 0.07899999764049426, 0.08000000161700882, 0.08379999781027436, 0.07849999747122638, 0.08035000064410269, 0.07955000182846561],
  "QPU": "7000000",
  "Qubits": 1,
  "Queue durations [ms]": [0.0, 0.0, 0.0, 0.0, 0.0, 0.0, 0.0, 0.0, 0.0, 0.0, 0.0, 0.0, 0.0, 0.0, 0.0, 0.0, 0.0, 0.0, 0.0, 0.0, 0.0, 0.0, 0.0, 0.0, 0.0, 0.0, 0.0, 0.0, 0.0, 0.0, 0.0, 0.0, 0.0, 0.0, 0.0, 0.0, 0.0],
  "Shots": 4096,
  "Size": 1,
  "Total Algorithm duration [s]": 0.097,
  "Total Classic duration [s]": 0.09395110000175191,
  "Total Quantum duration [s]": 0.003048899998248089
}
