{
  "Circuit execution durations [ms]": [0.08099999831756577, 0.08755000089877285, 0.08600000001024455, 0.08089999755611643, 0.08019999950192869, 0.07854999785195105, 0.21840000044903718, 0.07840000034775585, 0.07515000106650405, 0.07515000106650405, 0.08049999814829789, 0.08119999984046444, 0.0820499990368262, 0.08070000330917537, 0.08164999962900765, 0.0776999986555893, 0.07610000102431513, 0.13625000065076165, 0.08170000000973232, 0.08449999950244091, 0.08130000060191378, 0.0820499990368262, 0.08214999979827553, 0.08244999844464473, 0.08024999988265336, 0.11489999815239571, 0.10100000145030208, 0.08990000060293823, 0.08075000005192123, 0.08049999814829789, 0.08140000136336312, 0.07980000009411015, 0.07990000085555948, 0.0900999984878581, 0.085299998318078, 0.18509999790694565, 0.09454999963054433, 0.0885499975993298, 0.08225000055972487, 0.13440000475384295, 0.08185000115190633, 0.08099999831756577, 0.0840499997138977, 0.08555000022170134, 0.08415000047534704, 0.08959999831859022, 0.08370000068680383, 0.08105000233626924, 0.08175000039045699, 0.08195000191335566, 0.08149999848683365, 0.08365000030607916, 0.08280000110971741, 0.08275000072899275, 0.08225000055972487, 0.08305000301334076, 0.08295000225189142, 0.08745000013732351, 0.08284999785246328, 0.08299999899463728, 0.0824999988253694, 0.08259999958681874, 0.08569999772589654, 0.08285000149044208, 0.08230000094044954],
  "Depth": 4.5,
  "Expectation Value": -0.9995115995407104,
  "Optimal Expectation Value": -1.0,
  "Optimizer durations [ms]": [2.62, 2.739, 5.205, 2.531, 2.552, 2.528, 5.362, 2.542, 3.427, 2.428, 2.552, 2.655, 7.454, 2.526, 2.534, 6.187, 8.959, 3.812, 3.029, 2.612, 2.563, 2.605, 2.589, 2.715, 4.904, 3.287, 2.962, 2.78, 2.637, 2.816, 2.558, 2.52, 2.544, 3.15, 2.661, 14.669, 4.931, 2.744, 2.532, 3.608, 2.528, 2.526, 2.696, 2.697, 2.609, 2.674, 2.621, 2.524, 2.578, 2.555, 2.617, 2.617, 2.578, 3.337, 2.571, 2.558, 2.655, 2.665, 2.571, 2.516, 2.546, 2.555, 2.645, 2.581, 2.552],
  "Optimizer iterations": 65,
  "Optimizer params": [0.044940337650494516, 0.47619119015757727, 0.04318419253867451, 0.15713928438762262],
  "P": 0,
  "Problem": "IC",
  "QJob durations [ms]": [0.08099999831756577, 0.08755000089877285, 0.08600000001024455, 0.08089999755611643, 0.08019999950192869, 0.07854999785195105, 0.21840000044903718, 0.07840000034775585, 0.07515000106650405, 0.07515000106650405, 0.08049999814829789, 0.08119999984046444, 0.0820499990368262, 0.08070000330917537, 0.08164999962900765, 0.0776999986555893, 0.07610000102431513, 0.13625000065076165, 0.08170000000973232, 0.08449999950244091, 0.08130000060191378, 0.0820499990368262, 0.08214999979827553, 0.08244999844464473, 0.08024999988265336, 0.11489999815239571, 0.10100000145030208, 0.08990000060293823, 0.08075000005192123, 0.08049999814829789, 0.08140000136336312, 0.07980000009411015, 0.07990000085555948, 0.0900999984878581, 0.085299998318078, 0.18509999790694565, 0.09454999963054433, 0.0885499975993298, 0.08225000055972487, 0.13440000475384295, 0.08185000115190633, 0.08099999831756577, 0.0840499997138977, 0.08555000022170134, 0.08415000047534704, 0.08959999831859022, 0.08370000068680383, 0.08105000233626924, 0.08175000039045699, 0.08195000191335566, 0.08149999848683365, 0.08365000030607916, 0.08280000110971741, 0.08275000072899275, 0.08225000055972487, 0.08305000301334076, 0.08295000225189142, 0.08745000013732351, 0.08284999785246328, 0.08299999899463728, 0.0824999988253694, 0.08259999958681874, 0.08569999772589654, 0.08285000149044208, 0.08230000094044954],
  "QPU": "7000000",
  "Qubits": 1,
  "Queue durations [ms]": [0.0, 0.0, 0.0, 0.0, 0.0, 0.0, 0.0, 0.0, 0.0, 0.0, 0.0, 0.0, 0.0, 0.0, 0.0, 0.0, 0.0, 0.0, 0.0, 0.0, 0.0, 0.0, 0.0, 0.0, 0.0, 0.0, 0.0, 0.0, 0.0, 0.0, 0.0, 0.0, 0.0, 0.0, 0.0, 0.0, 0.0, 0.0, 0.0, 0.0, 0.0, 0.0, 0.0, 0.0, 0.0, 0.0, 0.0, 0.0, 0.0, 0.0, 0.0, 0.0, 0.0, 0.0, 0.0, 0.0, 0.0, 0.0, 0.0, 0.0, 0.0, 0.0, 0.0, 0.0, 0.0],
  "Shots": 4096,
  "Size": 1,
  "Total Algorithm duration [s]": 0.211,
  "Total Classic duration [s]": 0.2052369000018516,
  "Total Quantum duration [s]": 0.005763099998148391
}
