{
  "Circuit execution durations [ms]": [0.08585000250604935, 0.08354999954462983, 0.09675000183051452, 0.08184999751392752, 0.08280000110971741, 0.09554999996908009, 0.08940000043367036, 0.08879999950295314, 0.08440000237897038, 0.08230000094044954, 0.081900001532631, 0.0824999988253694, 0.08330000127898529, 0.08914999853004701, 0.08954999793786556, 0.0835999999253545, 0.08425000123679638, 0.08289999823318794, 0.08449999950244091, 0.08049999814829789, 0.08095000157481991, 0.08229999730247073, 0.08119999984046444, 0.08004999835975468, 0.07995000123628415, 0.08024999988265336, 0.07990000085555948, 0.07974999971338548, 0.0806499992904719, 0.08019999950192869, 0.08149999848683365, 0.08300000263261609, 0.08024999988265336, 0.08209999941755086, 0.08059999890974723, 0.08200000229408033, 0.08035000064410269, 0.0790999984019436, 0.08030000026337802],
  "Depth": 4.5,
  "Expectation Value": -1.0,
  "Optimal Expectation Value": -1.0,
  "Optimizer durations [ms]": [2.657, 2.57, 3.125, 2.619, 2.646, 2.921, 2.82, 3.205, 2.725, 2.582, 2.55, 2.579, 2.585, 2.977, 2.804, 2.67, 2.667, 2.639, 2.737, 2.56, 2.667, 2.583, 2.544, 2.561, 2.567, 2.559, 2.529, 2.568, 2.573, 2.528, 2.56, 3.186, 2.551, 2.587, 2.563, 2.611, 2.954, 2.582, 2.564],
  "Optimizer iterations": 39,
  "Optimizer params": [1.0, 0.3076730588443366, 1.0, 0.439191609621048],
  "P": 0,
  "Problem": "IC",
  "QJob durations [ms]": [0.08585000250604935, 0.08354999954462983, 0.09675000183051452, 0.08184999751392752, 0.08280000110971741, 0.09554999996908009, 0.08940000043367036, 0.08879999950295314, 0.08440000237897038, 0.08230000094044954, 0.081900001532631, 0.0824999988253694, 0.08330000127898529, 0.08914999853004701, 0.08954999793786556, 0.0835999999253545, 0.08425000123679638, 0.08289999823318794, 0.08449999950244091, 0.08049999814829789, 0.08095000157481991, 0.08229999730247073, 0.08119999984046444, 0.08004999835975468, 0.07995000123628415, 0.08024999988265336, 0.07990000085555948, 0.07974999971338548, 0.0806499992904719, 0.08019999950192869, 0.08149999848683365, 0.08300000263261609, 0.08024999988265336, 0.08209999941755086, 0.08059999890974723, 0.08200000229408033, 0.08035000064410269, 0.0790999984019436, 0.08030000026337802],
  "QPU": "7000000",
  "Qubits": 1,
  "Queue durations [ms]": [0.0, 0.0, 0.0, 0.0, 0.0, 0.0, 0.0, 0.0, 0.0, 0.0, 0.0, 0.0, 0.0, 0.0, 0.0, 0.0, 0.0, 0.0, 0.0, 0.0, 0.0, 0.0, 0.0, 0.0, 0.0, 0.0, 0.0, 0.0, 0.0, 0.0, 0.0, 0.0, 0.0, 0.0, 0.0, 0.0, 0.0, 0.0, 0.0],
  "Shots": 4096,
  "Size": 1,
  "Total Algorithm duration [s]": 0.104,
  "Total Classic duration [s]": 0.10075220000062836,
  "Total Quantum duration [s]": 0.0032477999993716367
}
