{
  "Circuit execution durations [ms]": [0.08135000098263845, 0.07969999933266081, 0.07919999916339293, 0.08030000026337802, 0.07904999802121893, 0.0928999979805667, 0.08189999789465219, 0.08069999967119657, 0.08000000161700882, 0.08095000157481991, 0.08179999713320285, 0.08505000005243346, 0.08244999844464473, 0.08494999929098412, 0.08290000187116675, 0.08135000098263845, 0.08110000271699391, 0.07985000047483481, 0.07889999687904492, 0.07825000284356065, 0.07854999785195105, 0.0795499981904868, 0.08004999835975468, 0.08679999882588163, 0.07980000009411015, 0.07859999823267572, 0.07964999895193614, 0.07914999878266826, 0.07945000106701627, 0.0868499992066063, 0.08035000064410269, 0.08000000161700882, 0.0790999984019436, 0.08294999861391261, 0.08524999793735333, 0.08370000068680383, 0.08494999929098412, 0.0790999984019436, 0.07869999899412505, 0.09579999823472463, 0.07980000009411015, 0.0808000004326459, 0.07885000013629906, 0.08159999924828298, 0.07990000085555948, 0.07945000106701627, 0.07960000220919028, 0.07730000288574956, 0.08000000161700882, 0.08194999827537686, 0.0789500008977484, 0.0789500008977484, 0.07859999823267572, 0.07780000305501744, 0.07779999941703863, 0.08380000144825317, 0.07900000127847306, 0.07800000093993731, 0.0789500008977484],
  "Depth": 4.5,
  "Expectation Value": -1.0,
  "Optimal Expectation Value": -1.0,
  "Optimizer durations [ms]": [2.521, 2.589, 2.565, 2.575, 2.59, 2.841, 2.571, 2.514, 2.554, 2.528, 2.58, 2.702, 2.681, 2.936, 2.65, 2.628, 2.601, 2.583, 2.588, 2.549, 2.523, 2.635, 2.775, 2.603, 2.616, 2.564, 2.578, 2.568, 2.556, 2.811, 2.603, 2.592, 2.543, 2.662, 2.705, 2.699, 2.676, 2.563, 2.584, 3.061, 2.739, 2.51, 2.545, 2.493, 2.593, 2.546, 2.563, 2.589, 2.575, 2.626, 2.538, 2.566, 2.556, 2.528, 2.48, 2.714, 2.555, 2.551, 2.783],
  "Optimizer iterations": 59,
  "Optimizer params": [0.8484862648071065, 0.9959606336527991, 0.1485424568857915, 0.03455622852775239],
  "P": 0,
  "Problem": "IC",
  "QJob durations [ms]": [0.08135000098263845, 0.07969999933266081, 0.07919999916339293, 0.08030000026337802, 0.07904999802121893, 0.0928999979805667, 0.08189999789465219, 0.08069999967119657, 0.08000000161700882, 0.08095000157481991, 0.08179999713320285, 0.08505000005243346, 0.08244999844464473, 0.08494999929098412, 0.08290000187116675, 0.08135000098263845, 0.08110000271699391, 0.07985000047483481, 0.07889999687904492, 0.07825000284356065, 0.07854999785195105, 0.0795499981904868, 0.08004999835975468, 0.08679999882588163, 0.07980000009411015, 0.07859999823267572, 0.07964999895193614, 0.07914999878266826, 0.07945000106701627, 0.0868499992066063, 0.08035000064410269, 0.08000000161700882, 0.0790999984019436, 0.08294999861391261, 0.08524999793735333, 0.08370000068680383, 0.08494999929098412, 0.0790999984019436, 0.07869999899412505, 0.09579999823472463, 0.07980000009411015, 0.0808000004326459, 0.07885000013629906, 0.08159999924828298, 0.07990000085555948, 0.07945000106701627, 0.07960000220919028, 0.07730000288574956, 0.08000000161700882, 0.08194999827537686, 0.0789500008977484, 0.0789500008977484, 0.07859999823267572, 0.07780000305501744, 0.07779999941703863, 0.08380000144825317, 0.07900000127847306, 0.07800000093993731, 0.0789500008977484],
  "QPU": "7000000",
  "Qubits": 1,
  "Queue durations [ms]": [0.0, 0.0, 0.0, 0.0, 0.0, 0.0, 0.0, 0.0, 0.0, 0.0, 0.0, 0.0, 0.0, 0.0, 0.0, 0.0, 0.0, 0.0, 0.0, 0.0, 0.0, 0.0, 0.0, 0.0, 0.0, 0.0, 0.0, 0.0, 0.0, 0.0, 0.0, 0.0, 0.0, 0.0, 0.0, 0.0, 0.0, 0.0, 0.0, 0.0, 0.0, 0.0, 0.0, 0.0, 0.0, 0.0, 0.0, 0.0, 0.0, 0.0, 0.0, 0.0, 0.0, 0.0, 0.0, 0.0, 0.0, 0.0, 0.0],
  "Shots": 4096,
  "Size": 1,
  "Total Algorithm duration [s]": 0.154,
  "Total Classic duration [s]": 0.1492179000065371,
  "Total Quantum duration [s]": 0.004782099993462907
}
