{
  "Circuit execution durations [ms]": [0.08199999865610152, 0.07959999857121147, 0.07864999861340038, 0.09040000077220611, 0.08174999675247818, 0.08030000026337802, 0.08054999852902256, 0.08030000026337802, 0.07995000123628415, 0.07999999797903001, 0.08755000089877285, 0.07955000182846561, 0.07764999827486463, 0.0795499981904868, 0.07829999958630651, 0.07874999937484972, 0.08000000161700882, 0.08000000161700882, 0.07935000030556694, 0.07955000182846561, 0.0781499984441325, 0.07974999971338548, 0.09075000343727879, 0.0837499974295497, 0.08365000030607916, 0.08625000191386789, 0.08189999789465219, 0.07834999996703118, 0.07905000165919773, 0.07864999861340038, 0.07869999899412505, 0.08054999852902256, 0.08019999950192869, 0.09230000068782829, 0.08004999835975468, 0.0806499992904719, 0.0806499992904719, 0.08019999950192869, 0.08175000039045699, 0.08210000305552967, 0.07905000165919773, 0.08160000288626179, 0.07914999878266826, 0.07874999937484972],
  "Depth": 4.5,
  "Expectation Value": -1.0,
  "Optimal Expectation Value": -1.0,
  "Optimizer durations [ms]": [2.497, 2.576, 2.581, 2.953, 2.543, 2.546, 2.56, 2.553, 2.52, 2.545, 3.077, 2.569, 2.558, 2.584, 2.573, 2.65, 2.502, 2.614, 2.6, 2.547, 2.584, 2.6, 2.853, 2.746, 2.696, 2.776, 2.602, 2.529, 2.605, 2.546, 2.588, 2.47, 2.487, 2.726, 2.503, 2.613, 2.574, 2.531, 2.522, 2.667, 2.559, 2.59, 2.56, 2.539],
  "Optimizer iterations": 44,
  "Optimizer params": [0.20083567668633928, 1.0, 0.8023755339130424, 0.0406524146208558],
  "P": 0,
  "Problem": "IC",
  "QJob durations [ms]": [0.08199999865610152, 0.07959999857121147, 0.07864999861340038, 0.09040000077220611, 0.08174999675247818, 0.08030000026337802, 0.08054999852902256, 0.08030000026337802, 0.07995000123628415, 0.07999999797903001, 0.08755000089877285, 0.07955000182846561, 0.07764999827486463, 0.0795499981904868, 0.07829999958630651, 0.07874999937484972, 0.08000000161700882, 0.08000000161700882, 0.07935000030556694, 0.07955000182846561, 0.0781499984441325, 0.07974999971338548, 0.09075000343727879, 0.0837499974295497, 0.08365000030607916, 0.08625000191386789, 0.08189999789465219, 0.07834999996703118, 0.07905000165919773, 0.07864999861340038, 0.07869999899412505, 0.08054999852902256, 0.08019999950192869, 0.09230000068782829, 0.08004999835975468, 0.0806499992904719, 0.0806499992904719, 0.08019999950192869, 0.08175000039045699, 0.08210000305552967, 0.07905000165919773, 0.08160000288626179, 0.07914999878266826, 0.07874999937484972],
  "QPU": "7000000",
  "Qubits": 1,
  "Queue durations [ms]": [0.0, 0.0, 0.0, 0.0, 0.0, 0.0, 0.0, 0.0, 0.0, 0.0, 0.0, 0.0, 0.0, 0.0, 0.0, 0.0, 0.0, 0.0, 0.0, 0.0, 0.0, 0.0, 0.0, 0.0, 0.0, 0.0, 0.0, 0.0, 0.0, 0.0, 0.0, 0.0, 0.0, 0.0, 0.0, 0.0, 0.0, 0.0, 0.0, 0.0, 0.0, 0.0, 0.0, 0.0],
  "Shots": 4096,
  "Size": 1,
  "Total Algorithm duration [s]": 0.114,
  "Total Classic duration [s]": 0.11043030000515865,
  "Total Quantum duration [s]": 0.0035696999948413577
}
