{
  "Circuit execution durations [ms]": [0.0885499975993298, 0.08059999890974723, 0.07974999971338548, 0.09234999743057415, 0.08009999874047935, 0.07995000123628415, 0.08125000022118911, 0.07944999742903747, 0.07935000030556694, 0.0823500013211742, 0.08149999848683365, 0.0866999980644323, 0.0820499990368262, 0.08034999700612389, 0.08209999941755086, 0.08125000022118911, 0.08510000043315813, 0.08499999967170879, 0.07970000297063962, 0.07929999992484227, 0.07820000246283598, 0.0792499995441176, 0.08175000039045699, 0.11194999751751311, 0.08425000123679638, 0.08164999962900765, 0.08845000047585927, 0.08239999806392007, 0.08904999776859768, 0.09019999924930744, 0.0806499992904719, 0.0808000004326459, 0.0809499979368411, 0.08615000115241855, 0.08465000064461492, 0.08514999717590399, 0.08145000174408779, 0.0806499992904719, 0.08030000026337802, 0.08014999912120402, 0.07879999975557439, 0.0823500013211742, 0.0794000006862916, 0.07959999857121147, 0.08054999852902256],
  "Depth": 4.5,
  "Expectation Value": -1.0,
  "Optimal Expectation Value": -1.0,
  "Optimizer durations [ms]": [2.864, 2.584, 2.602, 2.915, 2.621, 2.639, 2.625, 2.55, 2.552, 2.673, 2.63, 3.198, 2.607, 2.604, 2.616, 2.61, 2.723, 2.861, 2.593, 2.575, 2.555, 2.618, 2.597, 5.507, 2.994, 2.638, 2.773, 2.634, 17.801, 10.904, 2.616, 3.186, 2.552, 2.708, 2.651, 2.689, 2.662, 5.345, 2.503, 2.485, 2.418, 2.81, 2.514, 2.513, 2.544],
  "Optimizer iterations": 45,
  "Optimizer params": [0.768179267322128, 0.9999999999999999, 0.23171734684018724, 0.2608954906463623],
  "P": 0,
  "Problem": "IC",
  "QJob durations [ms]": [0.0885499975993298, 0.08059999890974723, 0.07974999971338548, 0.09234999743057415, 0.08009999874047935, 0.07995000123628415, 0.08125000022118911, 0.07944999742903747, 0.07935000030556694, 0.0823500013211742, 0.08149999848683365, 0.0866999980644323, 0.0820499990368262, 0.08034999700612389, 0.08209999941755086, 0.08125000022118911, 0.08510000043315813, 0.08499999967170879, 0.07970000297063962, 0.07929999992484227, 0.07820000246283598, 0.0792499995441176, 0.08175000039045699, 0.11194999751751311, 0.08425000123679638, 0.08164999962900765, 0.08845000047585927, 0.08239999806392007, 0.08904999776859768, 0.09019999924930744, 0.0806499992904719, 0.0808000004326459, 0.0809499979368411, 0.08615000115241855, 0.08465000064461492, 0.08514999717590399, 0.08145000174408779, 0.0806499992904719, 0.08030000026337802, 0.08014999912120402, 0.07879999975557439, 0.0823500013211742, 0.0794000006862916, 0.07959999857121147, 0.08054999852902256],
  "QPU": "7000000",
  "Qubits": 1,
  "Queue durations [ms]": [0.0, 0.0, 0.0, 0.0, 0.0, 0.0, 0.0, 0.0, 0.0, 0.0, 0.0, 0.0, 0.0, 0.0, 0.0, 0.0, 0.0, 0.0, 0.0, 0.0, 0.0, 0.0, 0.0, 0.0, 0.0, 0.0, 0.0, 0.0, 0.0, 0.0, 0.0, 0.0, 0.0, 0.0, 0.0, 0.0, 0.0, 0.0, 0.0, 0.0, 0.0, 0.0, 0.0, 0.0, 0.0],
  "Shots": 4096,
  "Size": 1,
  "Total Algorithm duration [s]": 0.148,
  "Total Classic duration [s]": 0.1442645000196062,
  "Total Quantum duration [s]": 0.003735499980393797
}
