{
  "Circuit execution durations [ms]": [0.08274999709101394, 0.08280000110971741, 0.08140000136336312, 0.08040000102482736, 0.08009999874047935, 0.07935000030556694, 0.08365000030607916, 0.08075000005192123, 0.0806499992904719, 0.07964999895193614, 0.08555000022170134, 0.08460000026389025, 0.09180000051856041, 0.08225000055972487, 0.08125000022118911, 0.08040000102482736, 0.08059999890974723, 0.07959999857121147, 0.08335000165970996, 0.0792499995441176, 0.07980000009411015, 0.07944999742903747, 0.0857499981066212, 0.08039999738684855, 0.08135000098263845, 0.08145000174408779, 0.07980000009411015, 0.07950000144774094, 0.07914999878266826, 0.0789500008977484, 0.07990000085555948, 0.08100000195554458, 0.0809499979368411, 0.08159999924828298, 0.08090000119409524, 0.08069999967119657, 0.08264999996754341, 0.0806499992904719, 0.07980000009411015, 0.08324999726028182, 0.08665000132168643, 0.08734999937587418, 0.08729999899514951, 0.12829999832320027, 0.08974999946076423, 0.08000000161700882, 0.07929999992484227, 0.08180000077118166, 0.08545000309823081, 0.08170000000973232, 0.08159999924828298, 0.08180000077118166, 0.0805000017862767, 0.08009999874047935, 0.08095000157481991, 0.09510000018053688, 0.08925000292947516, 0.08460000026389025, 0.09059999865712598, 0.08239999806392007, 0.08090000119409524, 0.08140000136336312, 0.08154999886755832, 0.08185000115190633, 0.07969999933266081, 0.08300000263261609, 0.0808000004326459, 0.08000000161700882, 0.07935000030556694, 0.07995000123628415, 0.08004999835975468, 0.08040000102482736, 0.08694999996805564, 0.08170000000973232, 0.0806499992904719, 0.08024999988265336, 0.08070000330917537, 0.08024999988265336, 0.0823499976831954, 0.0794000006862916, 0.0792499995441176, 0.07879999975557439, 0.07840000034775585, 0.07955000182846561, 0.07995000123628415, 0.0820499990368262, 0.08180000077118166, 0.08059999890974723, 0.1155499994638376, 0.0853000019560568, 0.09795000005397014, 0.08520000119460747, 0.08384999819099903, 0.08514999717590399, 0.08990000060293823, 0.08829999933368526],
  "Depth": 4.5,
  "Expectation Value": -0.9990231990814209,
  "Optimal Expectation Value": -1.0,
  "Optimizer durations [ms]": [2.576, 2.537, 2.605, 2.592, 2.557, 2.587, 2.747, 2.585, 2.528, 2.493, 2.802, 2.664, 2.865, 2.475, 2.484, 2.577, 2.583, 2.531, 2.668, 2.573, 2.568, 2.557, 2.916, 2.581, 2.548, 2.557, 2.468, 2.481, 2.456, 2.469, 2.536, 2.571, 2.574, 2.593, 2.529, 2.517, 2.597, 2.536, 2.541, 2.62, 2.678, 2.747, 2.742, 3.617, 2.932, 2.467, 2.635, 2.577, 2.653, 2.545, 2.561, 2.556, 2.538, 2.545, 2.559, 2.975, 2.762, 2.679, 2.941, 2.638, 2.566, 2.595, 2.564, 2.58, 2.466, 2.577, 2.567, 2.518, 2.558, 2.538, 2.546, 2.565, 2.652, 2.56, 2.528, 2.539, 2.547, 2.497, 2.527, 2.475, 2.485, 2.418, 2.446, 2.47, 2.474, 2.628, 2.509, 2.486, 3.375, 2.713, 2.994, 2.695, 2.665, 2.708, 2.755, 3.166],
  "Optimizer iterations": 96,
  "Optimizer params": [0.12645671789900778, 0.9894438620881213, 0.8700083131606793, 0.9338383754208048],
  "P": 0,
  "Problem": "IC",
  "QJob durations [ms]": [0.08274999709101394, 0.08280000110971741, 0.08140000136336312, 0.08040000102482736, 0.08009999874047935, 0.07935000030556694, 0.08365000030607916, 0.08075000005192123, 0.0806499992904719, 0.07964999895193614, 0.08555000022170134, 0.08460000026389025, 0.09180000051856041, 0.08225000055972487, 0.08125000022118911, 0.08040000102482736, 0.08059999890974723, 0.07959999857121147, 0.08335000165970996, 0.0792499995441176, 0.07980000009411015, 0.07944999742903747, 0.0857499981066212, 0.08039999738684855, 0.08135000098263845, 0.08145000174408779, 0.07980000009411015, 0.07950000144774094, 0.07914999878266826, 0.0789500008977484, 0.07990000085555948, 0.08100000195554458, 0.0809499979368411, 0.08159999924828298, 0.08090000119409524, 0.08069999967119657, 0.08264999996754341, 0.0806499992904719, 0.07980000009411015, 0.08324999726028182, 0.08665000132168643, 0.08734999937587418, 0.08729999899514951, 0.12829999832320027, 0.08974999946076423, 0.08000000161700882, 0.07929999992484227, 0.08180000077118166, 0.08545000309823081, 0.08170000000973232, 0.08159999924828298, 0.08180000077118166, 0.0805000017862767, 0.08009999874047935, 0.08095000157481991, 0.09510000018053688, 0.08925000292947516, 0.08460000026389025, 0.09059999865712598, 0.08239999806392007, 0.08090000119409524, 0.08140000136336312, 0.08154999886755832, 0.08185000115190633, 0.07969999933266081, 0.08300000263261609, 0.0808000004326459, 0.08000000161700882, 0.07935000030556694, 0.07995000123628415, 0.08004999835975468, 0.08040000102482736, 0.08694999996805564, 0.08170000000973232, 0.0806499992904719, 0.08024999988265336, 0.08070000330917537, 0.08024999988265336, 0.0823499976831954, 0.0794000006862916, 0.0792499995441176, 0.07879999975557439, 0.07840000034775585, 0.07955000182846561, 0.07995000123628415, 0.0820499990368262, 0.08180000077118166, 0.08059999890974723, 0.1155499994638376, 0.0853000019560568, 0.09795000005397014, 0.08520000119460747, 0.08384999819099903, 0.08514999717590399, 0.08990000060293823, 0.08829999933368526],
  "QPU": "7000000",
  "Qubits": 1,
  "Queue durations [ms]": [0.0, 0.0, 0.0, 0.0, 0.0, 0.0, 0.0, 0.0, 0.0, 0.0, 0.0, 0.0, 0.0, 0.0, 0.0, 0.0, 0.0, 0.0, 0.0, 0.0, 0.0, 0.0, 0.0, 0.0, 0.0, 0.0, 0.0, 0.0, 0.0, 0.0, 0.0, 0.0, 0.0, 0.0, 0.0, 0.0, 0.0, 0.0, 0.0, 0.0, 0.0, 0.0, 0.0, 0.0, 0.0, 0.0, 0.0, 0.0, 0.0, 0.0, 0.0, 0.0, 0.0, 0.0, 0.0, 0.0, 0.0, 0.0, 0.0, 0.0, 0.0, 0.0, 0.0, 0.0, 0.0, 0.0, 0.0, 0.0, 0.0, 0.0, 0.0, 0.0, 0.0, 0.0, 0.0, 0.0, 0.0, 0.0, 0.0, 0.0, 0.0, 0.0, 0.0, 0.0, 0.0, 0.0, 0.0, 0.0, 0.0, 0.0, 0.0, 0.0, 0.0, 0.0, 0.0, 0.0],
  "Shots": 4096,
  "Size": 1,
  "Total Algorithm duration [s]": 0.251,
  "Total Classic duration [s]": 0.24301554999308428,
  "Total Quantum duration [s]": 0.007984450006915722
}
