{
  "Circuit execution durations [ms]": [0.08140000136336312, 0.08759999764151871, 0.08209999941755086, 0.08385000182897784, 0.08170000000973232, 0.08159999924828298, 0.0795499981904868, 0.0823500013211742, 0.08014999912120402, 0.08585000250604935, 0.07959999857121147, 0.07920000280137174, 0.08015000275918283, 0.082050002674805, 0.07969999933266081, 0.08434999836026691, 0.08085000081337057, 0.0792499995441176, 0.08750000051804818, 0.08155000250553712, 0.08090000119409524, 0.08105000233626924, 0.08149999848683365, 0.08014999912120402, 0.08024999988265336, 0.08099999831756577, 0.08014999912120402, 0.10034999650088139, 0.08125000022118911, 0.08305000301334076, 0.08664999768370762, 0.08720000187167898, 0.08800000068731606, 0.08230000094044954, 0.07945000106701627, 0.07899999764049426, 0.07904999802121893, 0.07919999916339293, 0.07920000280137174, 0.0790999984019436, 0.07894999725976959, 0.08720000187167898, 0.07834999996703118, 0.07995000123628415, 0.07980000009411015],
  "Depth": 4.5,
  "Expectation Value": -0.9916971921920776,
  "Optimal Expectation Value": -1.0,
  "Optimizer durations [ms]": [2.734, 2.684, 2.565, 2.766, 2.501, 2.621, 2.531, 2.523, 2.687, 2.791, 2.585, 2.577, 2.569, 2.59, 2.596, 2.687, 2.601, 2.541, 2.925, 2.613, 2.592, 2.626, 2.512, 2.649, 2.629, 2.528, 2.562, 2.945, 2.531, 2.659, 2.731, 2.808, 2.809, 2.606, 2.584, 2.541, 2.569, 2.56, 2.534, 2.631, 2.535, 2.765, 2.566, 2.573, 2.567],
  "Optimizer iterations": 45,
  "Optimizer params": [0.8658703381485516, 0.027789716837273156, 0.13408194661274406, 0.46883135943684884],
  "P": 0,
  "Problem": "IC",
  "QJob durations [ms]": [0.08140000136336312, 0.08759999764151871, 0.08209999941755086, 0.08385000182897784, 0.08170000000973232, 0.08159999924828298, 0.0795499981904868, 0.0823500013211742, 0.08014999912120402, 0.08585000250604935, 0.07959999857121147, 0.07920000280137174, 0.08015000275918283, 0.082050002674805, 0.07969999933266081, 0.08434999836026691, 0.08085000081337057, 0.0792499995441176, 0.08750000051804818, 0.08155000250553712, 0.08090000119409524, 0.08105000233626924, 0.08149999848683365, 0.08014999912120402, 0.08024999988265336, 0.08099999831756577, 0.08014999912120402, 0.10034999650088139, 0.08125000022118911, 0.08305000301334076, 0.08664999768370762, 0.08720000187167898, 0.08800000068731606, 0.08230000094044954, 0.07945000106701627, 0.07899999764049426, 0.07904999802121893, 0.07919999916339293, 0.07920000280137174, 0.0790999984019436, 0.07894999725976959, 0.08720000187167898, 0.07834999996703118, 0.07995000123628415, 0.07980000009411015],
  "QPU": "7000000",
  "Qubits": 1,
  "Queue durations [ms]": [0.0, 0.0, 0.0, 0.0, 0.0, 0.0, 0.0, 0.0, 0.0, 0.0, 0.0, 0.0, 0.0, 0.0, 0.0, 0.0, 0.0, 0.0, 0.0, 0.0, 0.0, 0.0, 0.0, 0.0, 0.0, 0.0, 0.0, 0.0, 0.0, 0.0, 0.0, 0.0, 0.0, 0.0, 0.0, 0.0, 0.0, 0.0, 0.0, 0.0, 0.0, 0.0, 0.0, 0.0, 0.0],
  "Shots": 4096,
  "Size": 1,
  "Total Algorithm duration [s]": 0.118,
  "Total Classic duration [s]": 0.11430659999456838,
  "Total Quantum duration [s]": 0.003693400005431613
}
