{
  "Circuit execution durations [ms]": [0.5053500208305195, 0.4896500031463802, 0.5045500001870096, 0.4997500218451023, 0.4800000024260953, 0.5233499978203326, 0.48575001710560173, 0.4901999927824363, 0.5087999888928607, 0.4861999914282933, 0.49795000813901424, 0.48770000285003334, 0.47929999709594995, 0.4920000064885244, 0.4918000049656257, 0.494399995659478, 0.498249995871447, 0.4892499855486676, 0.5187000060686842, 0.4841000190936029, 0.49259999650530517, 0.49130001571029425, 0.4876500170212239, 0.4937000048812479, 0.5040000105509534, 0.4859500040765852, 0.4878000036114827, 0.48040000547189265, 0.5030000174883753, 0.4838499880861491, 0.4829499957850203, 0.49015000695362687, 0.4979000077582896, 0.49190000572707504, 0.48820000665728003, 0.49044999468605965, 0.4987499996786937, 0.5303500074660406, 0.4903499939246103, 0.5046000005677342, 0.48299999616574496, 0.5284999933792278, 0.5085500015411526, 0.48919998516794294, 0.5066500016255304, 0.49074999697040766, 0.4899500054307282, 0.4931499861413613, 0.4988000000594184, 0.48069999320432544, 0.5013000190956518, 0.49950000538956374, 0.48269999388139695, 0.49760000547394156, 0.49235000915359706, 0.4889499832643196, 0.4915000172331929, 0.4916500038234517, 0.5004999984521419, 0.4892000142717734, 0.48829999286681414, 0.4916500038234517, 0.4919499915558845, 0.48874999629333615, 0.4882500070380047, 0.4907500115223229, 0.47774999984540045, 0.6441999867092818, 0.5343000084394589, 0.49375000526197255, 0.4968499852111563, 0.4862999921897426, 0.48850000894162804, 0.5688999954145402, 0.5661500035785139, 0.4906000103801489, 0.4935000033583492, 0.6674999895039946, 0.4869499971391633, 0.5302000063238665, 0.49915000272449106, 0.48794999020174146, 0.48159998550545424, 0.537649990292266, 0.5347000114852563, 0.5424999835668132, 0.49754999054130167, 0.48254999273922294, 0.527299998793751, 0.5044999998062849, 0.5962499999441206, 0.6126500084064901, 0.49310000031255186, 0.5072500061942264, 0.4889999981969595, 0.49765000585466623, 0.4923999949824065, 0.4980500089004636, 0.4955999902449548, 0.4960000078426674, 0.4838499880861491, 0.490699996589683, 0.4965000116499141, 0.4791000101249665, 0.4856500163441524, 0.48355001490563154, 0.4894499870715663, 0.4962499951943755, 0.48999999125953764, 0.5215499841142446, 0.47884999366942793, 0.4948999994667247, 0.4921000072499737, 0.4915999888908118, 0.494399995659478, 0.48174998664762825, 0.5014000053051859, 0.4767500067828223, 0.5062500131316483, 0.48090000927913934, 0.4831000114791095, 0.5005999992135912, 0.502600014442578, 0.49360000411979854, 0.4954499891027808, 0.5051499756518751, 0.48585000331513584, 0.4914499877486378, 0.4906000103801489, 0.4802999901585281, 0.5385999975260347, 0.4895000165561214, 0.4852499987464398, 0.4961499944329262, 0.4908499831799418, 0.48495001101400703, 0.49065001076087356, 0.48165000043809414, 0.48474999493919313, 0.4920499923173338, 0.49810000928118825, 0.4997999931219965, 0.4972500028088689, 0.49059999582823366, 0.4924500099150464, 0.49289998423773795, 0.49015000695362687, 0.4981499951099977, 0.4847999953199178, 0.4802499897778034, 0.4884999943897128, 0.4912000003969297, 0.483449999592267, 0.5017499934183434, 0.5058999959146604, 0.497199987876229, 0.45989999489393085, 0.49155000306200236, 0.49330000183545053, 0.4889499978162348, 0.4969000001437962, 0.4966999840689823, 0.4995499912183732, 0.4858000174863264, 0.5014500202378258, 0.49365001905243844, 0.480350005091168, 0.4924000095343217, 0.4979000077582896, 0.4915000026812777, 0.49804999434854835, 0.5003499973099679, 0.49935000424738973, 0.4886999959126115, 0.5009499873267487, 0.49190002027899027, 0.4867000097874552, 0.4915000026812777, 0.49074999697040766, 0.4796499997610226, 0.4879999905824661, 0.48380000225733966, 0.4913500160910189, 0.4952500021317974, 0.5011000030208379, 0.49795000813901424, 0.4854500002693385, 0.47894999443087727, 0.49354998918715864, 0.48874999629333615, 0.48790001892484725, 0.4926000110572204, 0.5003999976906925, 0.4977000062353909, 0.4843499918933958, 0.4996000207029283, 0.4924000095343217, 0.48335001338273287, 0.4886999959126115, 0.4884000081801787, 0.4965999978594482, 0.4845999937970191, 0.5042499979026616, 0.5079499969724566, 0.4969500005245209, 0.5044000135967508, 0.5045499856350943, 0.5301000055624172, 0.4920999926980585, 0.5054500070400536, 0.4858999891439453, 0.490549995447509, 0.49360000411979854, 0.48820000665728003, 0.4916500183753669, 0.49464999756310135, 0.5159999855095521, 0.48210000386461616, 0.48594998952466995, 0.48454999341629446, 0.4924500099150464, 0.4947499983245507, 0.48159998550545424, 0.4829499957850203, 0.5031000036979094, 0.49590000708121806, 0.48770000285003334, 0.5015500064473599, 0.4829500103369355, 0.4830999969271943, 0.484650008729659, 0.48735000018496066, 0.49340000259689987, 0.504449984873645, 0.4920000064885244, 0.4901000065729022, 0.49420000868849456, 0.4851500125369057, 0.4878500185441226, 0.4962000093655661, 0.4987499851267785, 0.49530000251252204, 0.4852999991271645, 0.49050000961869955, 0.490849997731857, 0.48000001697801054, 0.502450013300404, 0.5011500034015626, 0.5204500048421323, 0.6032500095898286, 0.48735000018496066, 0.4839999892283231, 0.49220000801142305, 0.4965499974787235, 0.5021499964641407, 0.5131500074639916, 0.4947499983245507, 0.5024499987484887, 0.5010999884689227, 0.48415000492241234, 0.49185000534635037, 0.510750018293038, 0.4988000000594184, 0.4932000010740012, 0.48734998563304543, 0.4998500080546364, 0.4877499886788428, 0.49760000547394156, 0.4896000027656555, 0.48400000378023833, 0.49130001571029425, 0.5051499902037904, 0.49005000619217753, 0.5018500087317079, 0.5011499888496473, 0.49700001545716077, 0.5021500110160559, 0.4899500054307282, 0.5059500108473003, 0.493799991090782, 0.4921999934595078, 0.48719999904278666, 0.4830999969271943, 0.4939500067848712, 0.5018000083509833, 0.5055999936303124, 0.4844000068260357, 0.4991000168956816, 0.5049500032328069, 0.5051499756518751, 0.5394000036176294, 0.5019500094931573, 0.5025999998906627, 0.513400009367615, 0.5008000152884051, 0.5159499996807426, 0.502099996083416, 0.48660000902600586, 0.47870000707916915, 0.49715000204741955, 0.49044999468605965, 0.49429999489802867, 0.4988999862689525, 0.5117999971844256, 0.5016000068280846, 0.5081999843241647, 0.501649992656894, 0.5078500107629225, 0.5093500076327473, 0.5357000045478344, 0.5017500079702586, 0.4912500153295696, 0.491300001158379, 0.49155000306200236, 0.4988499858882278, 0.5028999876230955, 0.5008000152884051, 0.49700000090524554, 0.49235000915359706, 0.5003999976906925, 0.4959999932907522, 0.49589999252930284, 0.5008000007364899, 0.4891499847872183, 0.4899500054307282, 0.49035000847652555, 0.49050000961869955, 0.49449999642092735, 0.49959999159909785, 0.49229999422095716, 0.483900003018789, 0.49524998757988214, 0.49015000695362687, 0.49345001752953976, 0.4849499964620918, 0.5046500009484589, 0.4983500111848116, 0.49310000031255186, 0.5043999990448356, 0.5633999826386571, 0.4977000062353909, 0.4856500163441524, 0.6462500023189932, 0.5435999919427559, 0.4966999840689823, 0.5045500001870096, 0.5027000152040273, 0.5743999790865928, 0.4929000133415684, 0.5039499956183136, 0.44624999281950295, 0.4907000111415982, 0.4985999985365197, 0.5419500084826723, 0.5055500078015029, 0.4929999995511025, 0.6369999900925905, 0.4969000001437962, 0.5396499909693375, 0.4842500056838617, 0.4948000132571906, 0.5588000058196485, 0.5038500239606947, 0.5180499865673482, 0.5307500105118379, 0.5118499975651503, 0.4869000113103539, 0.4794500127900392, 0.4944500105921179, 0.4881000204477459, 0.4895000165561214, 0.48889998288359493, 0.4935000033583492, 0.49310000031255186, 0.4932500160066411, 0.6291999889072031, 0.5881500110263005, 0.577349986997433, 0.6173999863676727, 0.6357500096783042, 0.4523999959928915, 0.4895000020042062, 0.49354998918715864, 0.4912500153295696, 0.49059999582823366, 0.4898999904980883, 0.4791999817825854, 0.48160000005736947, 0.48750000132713467, 0.48544998571742326, 0.49515000137034804, 0.513550010509789, 0.5062000127509236, 0.48815000627655536, 0.49384999147150666, 0.49160001799464226, 0.5440499808173627, 0.4904500092379749, 0.4982999962521717, 0.5007500003557652, 0.48750000132713467, 0.48139998398255557, 0.5062999844085425, 0.5117999826325104, 0.48984999011736363, 0.49545000365469605, 0.4963500105077401, 0.4965999978594482, 0.505499992868863, 0.4894499870715663, 0.5006999854231253, 0.4902500077150762, 0.4831500118598342, 0.4896500031463802, 0.49560000479687005, 0.4929500137222931, 0.4913500015391037, 0.48899998364504427, 0.49709998711477965, 0.5070999905001372, 0.4924000095343217, 0.4972500028088689, 0.4790499951923266, 0.4909499839413911, 0.4982999962521717, 0.49574999138712883, 0.4872499994235113, 0.4759500006912276, 0.6049000076018274, 0.4930500144837424, 0.4963999963365495, 0.5273000133456662, 0.4931499861413613, 0.49340000259689987, 0.4827000084333122, 0.4961500089848414, 0.480350005091168, 0.4937000048812479, 0.4852999991271645, 0.4986499989172444, 0.49510000098962337, 0.49419999413657933, 0.48814999172464013, 0.487750003230758, 0.48719999904278666, 0.490699996589683, 0.486999997519888, 0.4972999886376783, 0.48660000902600586, 0.4831999831367284, 0.49554998986423016, 0.5198500148253515, 0.4994999908376485, 0.4872000135947019, 0.5874500202480704, 0.49264999688602984, 0.49094999849330634, 0.49334998766425997, 0.5004999984521419, 0.4825000069104135, 0.4904000088572502, 0.49674998444970697, 0.4912500153295696, 0.4986999847460538, 0.4896500031463802, 0.49330001638736576, 0.49185000534635037, 0.4890999844064936, 0.4985999985365197, 0.48335001338273287, 0.4941000079270452, 0.4990000161342323, 0.49959999159909785, 0.48454999341629446, 0.4981500096619129, 0.49950001994147897, 0.48445000720676035, 0.5020500102546066, 0.4932000156259164, 0.49825001042336226, 0.49339998804498464, 0.4884999943897128, 0.48934998631011695, 0.4837000014958903, 0.4934499884257093, 0.4894500016234815, 0.4915000026812777, 0.5088000034447759, 0.4872499848715961, 0.4883499932475388, 0.49449999642092735, 0.49780000699684024, 0.49020000733435154, 0.49840001156553626, 0.4945000109728426, 0.49255001067649573, 0.47849999100435525, 0.49154998851008713, 0.4993999900761992, 0.48770000285003334, 0.48770001740194857, 0.49409999337513, 0.49220000801142305, 0.5039999959990382, 0.49569999100640416, 0.48290000995621085, 0.48744998639449477, 0.5182999884709716, 0.4791999963345006, 0.4934499884257093, 0.5081499984953552, 0.5077000096207485, 0.49875001423060894, 0.48999999125953764, 0.48850000894162804, 0.47420000191777945, 0.491150000016205, 0.4927499976474792, 0.4805999924428761, 0.6961000035516918, 0.5727499956265092, 0.4875000158790499, 0.516050000442192, 0.493949992232956, 0.49584999214857817, 0.49854999815579504, 0.48395000339951366, 0.4869499971391633, 0.4935000033583492, 0.5023499834351242, 0.49655001203063875, 0.5050500039942563, 0.48794999020174146, 0.4970500012859702, 0.5071500054327771, 0.48830000741872936, 0.4977000062353909, 0.49020000733435154, 0.4884000081801787, 0.5009500018786639, 0.493499988806434, 0.5142500158399343, 0.49094999849330634, 0.4935500182909891, 0.49360000411979854, 0.4800999886356294, 0.5049500032328069, 0.4921999934595078, 0.503500021295622, 0.49264999688602984, 0.4919500061077997, 0.4885999805992469, 0.4902500077150762, 0.4955999902449548, 0.4993499896954745, 0.5052499764133245, 0.4814500134671107, 0.4862999921897426, 0.49100001342594624, 0.4819999885512516, 0.48985000466927886, 0.49184999079443514, 0.4963500105077401, 0.48609999066684395, 0.49590000708121806, 0.49235000915359706, 0.5011000030208379, 0.49930000386666507, 0.49825001042336226, 0.49104998470284045, 0.4835499858018011, 0.4802499897778034, 0.49685001431498677, 0.49104998470284045, 0.48794999020174146, 0.4951999871991575, 0.4966500127920881, 0.5095000087749213, 0.4857500025536865, 0.48200001765508205, 0.49435000983066857, 0.5092999927001074, 0.4833999846596271, 0.48114999663084745, 0.4839500179514289, 0.4867000097874552, 0.48734998563304543, 0.5100499984109774, 0.49085001228377223, 0.4932000010740012, 0.4929999995511025, 0.4943999811075628, 0.48630000674165785, 0.49670001317281276, 0.4903000080958009, 0.4950500006088987, 0.48990000505000353, 0.4952500021317974, 0.49325000145472586, 0.49509998643770814, 0.4918000049656257, 0.4935999895678833, 0.4842500056838617, 0.4850000113947317, 0.48909999895840883, 0.4865500086452812, 0.48815000627655536, 0.4915000026812777, 0.4912500153295696, 0.48659999447409064, 0.5347999976947904, 0.4726000188384205, 0.48344998504035175, 0.6063500040909275, 0.5052000051364303, 0.4969500150764361, 0.4852499987464398, 0.5387000128393993, 0.5014499911339954, 0.4960999940522015, 0.4844000213779509, 0.5731999990530312, 0.49804999434854835, 0.5360499926609918, 0.4894500016234815, 0.490999998874031, 0.49064999620895833, 0.556350001716055, 0.49619999481365085, 0.5401000089477748, 0.483449999592267, 0.4853499849559739, 0.5260500038275495, 0.5108999903313816, 0.6170500128064305, 0.5766999965999275, 0.4949999856762588, 0.486999997519888, 0.4997500072931871, 0.49205000686924905, 0.4913500160910189, 0.4869499971391633, 0.49014999240171164, 0.4824499919777736, 0.49185000534635037, 0.4907500115223229, 0.4945999971823767, 0.4858999891439453, 0.49409999337513, 0.4848999815294519, 0.48740001511760056, 0.4943499807268381, 0.4882500070380047, 0.4928000125801191, 0.4851499979849905, 0.4887999821221456, 0.4921500076306984, 0.50074998580385, 0.4955000040354207, 0.49029999354388565, 0.4911000141873956, 0.49020000733435154, 0.4862500063609332, 0.4983500111848116, 0.4889999981969595, 0.49760000547394156, 0.49140000191982836, 0.49020000733435154, 0.4841999907512218, 0.5041499971412122, 0.5025000136811286, 0.4846499941777438, 0.494699997943826, 0.5028000159654766, 0.4965000116499141, 0.4858000174863264, 0.4927499976474792, 0.48075000813696533, 0.49050000961869955, 0.4961499944329262, 0.4890000127488747, 0.5000499950256199, 0.4896500031463802, 0.4876999882981181, 0.4821499896934256, 0.48949998745229095, 0.488050005515106, 0.5020499811507761, 0.49920000310521573, 0.4886999959126115, 0.5013500049244612, 0.4903000080958009, 0.4955500189680606, 0.5025500140618533, 0.48909999895840883, 0.49679999938234687, 0.48304999654646963, 0.49414999375585467, 0.49659998330753297, 0.4870500124525279, 0.473700012662448, 0.491300001158379, 0.5290999833960086, 0.5001000099582598, 0.4971000162186101, 0.5061999836470932, 0.4870999837294221, 0.4844499926548451, 0.4930500144837424, 0.4885999805992469, 0.4824499919777736, 0.501649992656894, 0.490999998874031, 0.48600000445730984, 0.48910001351032406, 0.49679999938234687, 0.48750000132713467, 0.49300001410301775, 0.49390000640414655, 0.4996999923605472, 0.49890001537278295, 0.4910499992547557, 0.49640001088846475, 0.49115001456812024, 0.5002999969292432, 0.48755000170785934, 0.48395000339951366, 0.4860500048380345, 0.4903000080958009, 0.5281500052660704, 0.49080001190304756, 0.49015000695362687, 0.49845001194626093, 0.49064999620895833, 0.5000000091968104, 0.4862999921897426, 0.48395000339951366, 0.49079999735113233, 0.4932999872835353, 0.4932999872835353, 0.49035000847652555, 0.49149998812936246, 0.505199990584515, 0.49575000593904406, 0.49089999811258167, 0.48334999883081764, 0.5214500124566257, 0.48334999883081764, 0.4979000077582896, 0.48859999515116215, 0.4886999959126115, 0.48064999282360077, 0.49289998423773795, 0.47944999823812395, 0.48719999904278666, 0.49684999976307154, 0.48565000179223716, 0.48615000559948385, 0.48695001169107854, 0.48674999561626464, 0.48639999295119196, 0.5180500156711787, 0.48990000505000353, 0.4949500143993646, 0.4933500022161752, 0.49614997988101095, 0.49839999701362103, 0.49819999549072236, 0.48955000238493085, 0.49420000868849456, 0.4830000107176602, 0.4972999886376783, 0.49634999595582485, 0.4961499944329262, 0.497499990160577, 0.4946999833919108, 0.4838500026380643, 0.49649999709799886, 0.5007999861845747, 0.5231999966781586, 0.4850499826716259, 0.48880001122597605, 0.4921999934595078, 0.48725001397542655, 0.49095001304522157, 0.49160000344272703, 0.48910001351032406, 0.4926000110572204, 0.4910499992547557, 0.494549996801652, 0.49094999849330634, 0.6112500268500298, 0.5290500121191144, 0.48794999020174146, 0.49515000137034804, 0.5040500109316781, 0.48940000124275684, 0.4922500083921477, 0.49500000022817403, 0.49550001858733594, 0.48665000940673053, 0.4904500092379749, 0.49744998977985233, 0.48984999011736363, 0.48415000492241234, 0.4899500054307282, 0.49149998812936246, 0.4855500010307878, 0.48410000454168767, 0.4884000081801787, 0.49500000022817403, 0.4946999833919108, 0.484350006445311, 0.4918000049656257, 0.49434999527875334, 0.49554998986423016, 0.49804999434854835, 0.5583000020124018, 0.5602000164799392, 0.496899985591881, 0.48314999730791897, 0.5025499995099381, 0.4886499955318868, 0.5042999982833862, 0.5165999900782481, 0.5019500094931573, 0.4989000008208677, 0.4825999931199476, 0.4994500195607543, 0.4943000094499439, 0.48049999168142676, 0.49530000251252204, 0.4945499822497368, 0.5021999822929502, 0.5010000168113038, 0.4898999904980883, 0.507350021507591, 0.5035499925725162, 0.4878500185441226, 0.4819000023417175, 0.4859500040765852, 0.4934000171488151, 0.4897500039078295, 0.4856999876210466, 0.4855000152019784, 0.49420000868849456, 0.484350006445311, 0.48394998884759843, 0.48955000238493085, 0.4963999963365495, 0.5025499849580228, 0.49064999620895833, 0.48415000492241234, 0.49360000411979854, 0.5029000021750107, 0.4937000048812479, 0.4923000087728724, 0.490099992020987, 0.5031000182498246, 0.4936500045005232, 0.5468500166898593, 0.49405000754632056, 0.4902500077150762, 0.4786000063177198, 0.49155000306200236, 0.4913500015391037, 0.49515000137034804, 0.4904499801341444, 0.49184999079443514, 0.5021499964641407, 0.502900016726926, 0.493649989948608, 0.47544999688398093, 0.49369999032933265, 0.4907500115223229, 0.4853000136790797, 0.49029999354388565, 0.4887500108452514, 0.484350006445311, 0.4904500092379749, 0.5000999954063445, 0.4987499851267785, 0.4837000014958903, 0.5859999946551397, 0.48814999172464013, 0.4928999987896532, 0.48815000627655536, 0.49050000961869955, 0.5011500034015626, 0.5300500051816925, 0.502750015584752, 0.49590000708121806, 0.49604999367147684, 0.5326500104274601, 0.4794500127900392, 0.5239500169409439, 0.49569999100640416, 0.4835499858018011, 0.4758500144816935, 0.5295499868225306, 0.4882500070380047, 0.5370999861042947, 0.48874999629333615, 0.4824499919777736, 0.4827499942621216, 0.5100500129628927, 0.515749998157844, 0.522549991728738, 0.49795000813901424, 0.5013499758206308, 0.49700001545716077, 0.490249993163161, 0.4800000024260953, 0.4914000164717436, 0.4879999905824661, 0.4926999827148393, 0.4961500089848414, 0.48529998457524925, 0.4834500141441822, 0.4940000071655959, 0.47640000411774963, 0.5037499940954149, 0.49780000699684024, 0.4988999862689525, 0.4780999879585579, 0.4897000180790201, 0.483750001876615, 0.5046000005677342, 0.4858999891439453, 0.4948000132571906, 0.4838000168092549, 0.49595000746194273, 0.48400000378023833, 0.49604999367147684, 0.497199987876229, 0.48710001283325255, 0.49185000534635037, 0.49509998643770814, 0.48815000627655536, 0.4922499938402325, 0.494699997943826, 0.47694999375380576, 0.5116499960422516, 0.4960000078426674, 0.49324998690281063, 0.4971000016666949, 0.49350001791026443, 0.491150000016205, 0.49229999422095716, 0.5480000108946115, 0.4984499973943457, 0.5010000022593886, 0.49190000572707504, 0.49125000077765435, 0.4958000063197687, 0.4859999899053946, 0.4887000104645267, 0.4914000164717436, 0.4900499916402623, 0.49384999147150666, 0.5041499971412122, 0.4880499909631908, 0.4932500160066411, 0.49289998423773795, 0.4988500149920583, 0.4944499960402027, 0.49140000191982836, 0.49244999536313117, 0.4903499793726951, 0.4994500195607543, 0.5020999815315008, 0.4886000097030774, 0.6188499974086881, 0.535849976586178, 0.5411500023910776, 0.4876999882981181, 0.4973500035703182, 0.4992500180378556, 0.49330000183545053, 0.49259999650530517, 0.4930500144837424, 0.49044999468605965, 0.49655001203063875, 0.487750003230758, 0.4852499987464398, 0.4941000079270452, 0.5011500034015626, 0.5006500141462311, 0.4970999725628644, 0.5077499954495579, 0.501799993799068, 0.48445000720676035, 0.506900018081069, 0.49005000619217753, 0.49404999299440533, 0.4944500105921179, 0.5314000009093434],
  "Depth": 20.5,
  "Expectation Value": -8.862923622131348,
  "Optimal Expectation Value": -11.109565734863281,
  "Optimizer durations [ms]": [11.047, 10.546, 10.748, 16.183, 10.663, 11.22, 10.811, 10.602, 10.806, 10.409, 10.935, 10.559, 10.777, 10.467, 10.678, 10.987, 10.867, 10.761, 11.431, 10.617, 10.525, 10.546, 10.666, 10.872, 10.957, 10.808, 10.66, 10.638, 11.507, 10.623, 10.265, 11.034, 10.584, 10.513, 11.037, 10.328, 11.058, 11.63, 10.575, 11.101, 10.685, 11.534, 10.854, 10.87, 10.964, 10.43, 10.975, 10.79, 11.033, 10.562, 10.669, 10.794, 10.568, 10.991, 10.91, 10.63, 10.936, 10.376, 11.188, 10.63, 10.814, 10.743, 10.69, 10.543, 10.469, 10.92, 10.378, 13.966, 11.324, 11.332, 17.327, 10.487, 13.916, 12.517, 12.266, 10.811, 10.871, 14.493, 15.894, 11.713, 10.879, 10.572, 10.866, 11.695, 19.559, 11.742, 10.785, 10.281, 11.566, 10.882, 20.533, 14.933, 10.484, 11.002, 11.021, 10.781, 10.789, 10.925, 11.104, 10.687, 10.48, 10.83, 10.969, 10.372, 10.733, 10.731, 10.475, 11.332, 10.506, 11.19, 10.378, 10.428, 10.919, 10.686, 10.638, 10.971, 10.606, 10.33, 11.042, 10.683, 10.328, 10.935, 10.969, 10.453, 10.981, 10.883, 10.83, 10.637, 10.783, 10.578, 11.255, 10.58, 10.917, 10.58, 10.442, 10.768, 10.452, 10.925, 10.81, 10.851, 10.788, 10.463, 11.009, 10.728, 10.654, 10.866, 10.764, 10.918, 10.631, 10.618, 10.688, 10.971, 10.367, 10.885, 10.97, 11.091, 29.565, 10.858, 10.918, 10.362, 10.691, 11.036, 10.796, 10.634, 11.177, 10.804, 10.464, 10.85, 10.604, 10.64, 10.756, 10.931, 11.07, 10.354, 10.798, 10.858, 10.644, 10.702, 10.449, 10.479, 10.73, 10.625, 10.784, 11.092, 10.776, 11.01, 10.398, 10.69, 10.619, 10.698, 10.417, 11.079, 10.824, 10.893, 10.301, 10.701, 10.882, 10.39, 10.422, 10.45, 10.798, 10.471, 11.337, 11.324, 10.652, 11.144, 10.94, 11.549, 10.604, 10.931, 10.572, 10.94, 10.744, 10.64, 10.88, 10.828, 11.175, 10.672, 10.457, 10.774, 10.759, 10.591, 10.792, 10.358, 10.858, 11.016, 10.516, 10.53, 10.469, 10.495, 10.955, 10.651, 10.557, 11.128, 10.757, 10.68, 10.876, 10.742, 10.679, 10.791, 11.005, 10.807, 10.627, 10.897, 10.828, 10.336, 10.804, 10.809, 18.445, 17.633, 10.539, 10.355, 10.716, 10.795, 10.631, 11.168, 10.927, 11.077, 10.86, 10.748, 10.467, 11.347, 10.958, 10.441, 10.594, 10.876, 10.871, 10.577, 10.811, 10.375, 11.014, 10.828, 10.479, 10.725, 11.433, 10.887, 10.941, 10.792, 10.924, 10.789, 10.809, 10.579, 10.823, 10.887, 10.917, 10.75, 10.432, 12.403, 11.348, 10.764, 11.772, 11.004, 10.859, 10.991, 10.813, 11.318, 10.639, 10.795, 10.354, 10.804, 10.769, 10.805, 10.458, 11.257, 10.832, 11.198, 10.847, 11.447, 11.246, 11.362, 11.069, 10.306, 10.885, 10.969, 10.646, 11.189, 11.289, 10.458, 10.711, 11.067, 10.981, 10.727, 10.748, 10.85, 10.677, 10.577, 10.818, 10.677, 10.679, 10.659, 10.536, 10.99, 10.716, 10.893, 10.563, 10.849, 10.994, 10.833, 10.904, 11.979, 10.852, 10.378, 13.836, 12.05, 10.674, 11.226, 12.606, 12.351, 10.729, 11.116, 20.295, 10.781, 11.547, 11.718, 10.854, 10.883, 13.386, 15.583, 11.573, 10.581, 10.576, 12.021, 10.905, 23.381, 11.94, 11.036, 10.895, 10.341, 11.098, 10.526, 11.022, 10.592, 10.628, 10.607, 11.018, 13.805, 14.999, 12.51, 13.998, 15.705, 12.163, 10.972, 10.958, 10.851, 10.759, 11.083, 10.515, 10.694, 10.692, 10.3, 10.873, 11.088, 11.073, 10.403, 11.091, 10.768, 11.776, 10.64, 10.879, 10.482, 10.766, 10.681, 10.577, 11.32, 10.819, 10.983, 10.403, 10.859, 11.186, 10.822, 10.917, 10.572, 10.774, 10.789, 10.45, 10.873, 10.705, 10.597, 10.752, 11.132, 10.365, 10.891, 10.233, 10.568, 10.883, 10.728, 10.703, 19.948, 16.896, 10.751, 10.658, 11.553, 10.819, 10.647, 10.367, 11.131, 10.583, 10.851, 10.688, 10.931, 10.909, 10.776, 10.817, 10.693, 10.74, 10.658, 10.664, 10.732, 10.848, 10.415, 10.769, 11.464, 10.925, 10.588, 12.464, 10.752, 10.558, 10.754, 10.839, 10.632, 10.672, 10.875, 10.53, 10.867, 10.969, 10.684, 10.663, 10.713, 10.748, 10.858, 10.929, 10.683, 10.692, 10.468, 10.888, 10.625, 10.356, 10.861, 10.687, 10.935, 11.009, 10.57, 10.767, 11.22, 10.623, 10.865, 10.673, 11.09, 10.353, 10.774, 10.914, 10.548, 10.914, 10.716, 10.552, 10.906, 10.66, 10.425, 10.803, 10.738, 10.937, 10.894, 10.738, 11.008, 10.806, 10.654, 10.648, 11.124, 10.9, 10.833, 10.64, 10.857, 10.719, 10.859, 10.727, 10.271, 10.587, 11.045, 10.563, 28.729, 13.076, 10.81, 11.12, 10.651, 10.913, 10.545, 10.836, 10.49, 10.666, 10.883, 10.537, 11.104, 10.714, 10.837, 10.772, 10.666, 10.623, 10.479, 10.58, 11.023, 10.902, 10.992, 10.95, 10.809, 10.944, 10.616, 15.236, 10.804, 10.952, 10.813, 10.548, 10.7, 10.888, 10.753, 10.704, 11.044, 10.594, 10.427, 10.875, 10.4, 10.676, 10.798, 10.862, 10.569, 10.617, 10.815, 10.987, 10.845, 10.888, 10.837, 10.739, 10.309, 11.11, 10.671, 10.895, 11.024, 10.807, 11.022, 10.61, 10.721, 10.938, 11.219, 10.659, 10.665, 10.48, 10.581, 10.668, 10.829, 10.964, 10.794, 10.507, 10.816, 10.631, 10.945, 10.415, 10.587, 10.639, 10.882, 10.788, 10.873, 10.588, 10.749, 10.58, 10.608, 10.668, 10.864, 10.711, 10.736, 10.847, 10.383, 11.915, 10.478, 10.408, 12.885, 10.83, 10.582, 13.588, 11.836, 10.937, 10.74, 10.619, 12.381, 20.54, 11.839, 10.82, 10.825, 10.663, 11.895, 19.376, 11.71, 10.668, 10.62, 11.369, 10.94, 21.457, 14.418, 10.831, 10.459, 10.991, 10.727, 10.574, 10.767, 10.679, 10.508, 12.41, 10.483, 11.112, 10.493, 10.996, 10.4, 10.782, 10.897, 10.535, 10.894, 10.538, 10.883, 10.436, 11.191, 10.751, 10.941, 10.745, 10.716, 10.67, 10.794, 10.6, 10.73, 11.187, 10.747, 10.566, 10.766, 10.857, 10.597, 11.09, 10.902, 10.649, 10.731, 10.39, 10.649, 10.705, 10.559, 10.657, 10.875, 10.479, 10.489, 10.888, 10.535, 11.018, 10.799, 10.709, 10.82, 10.611, 10.681, 10.855, 10.755, 10.819, 10.561, 10.456, 10.616, 11.149, 10.945, 28.996, 10.846, 11.15, 11.048, 10.728, 11.142, 10.751, 10.316, 10.537, 10.833, 10.554, 11.075, 10.725, 10.412, 11.015, 10.879, 10.945, 10.627, 10.908, 10.984, 10.42, 10.897, 10.742, 10.584, 11.504, 10.66, 10.308, 15.091, 10.64, 11.599, 10.56, 10.64, 11.26, 10.854, 10.697, 10.883, 10.724, 10.549, 10.353, 11.158, 10.685, 10.491, 11.239, 10.637, 10.972, 10.805, 11.276, 10.7, 10.521, 10.718, 10.671, 10.641, 10.555, 10.651, 10.502, 10.564, 10.95, 10.842, 10.561, 10.668, 10.5, 11.492, 10.685, 10.805, 10.71, 10.659, 10.945, 10.713, 10.731, 10.498, 10.538, 10.675, 10.781, 10.866, 10.908, 10.592, 10.801, 10.774, 10.727, 11.4, 10.667, 10.62, 10.685, 10.811, 10.446, 10.937, 10.545, 11.133, 10.835, 10.36, 11.032, 12.901, 25.91, 11.049, 10.944, 10.635, 10.862, 10.514, 10.65, 10.589, 10.837, 10.444, 11.162, 10.41, 10.617, 10.874, 10.423, 10.548, 10.752, 10.489, 10.994, 10.933, 10.623, 10.839, 10.673, 10.739, 11.053, 12.116, 11.897, 10.747, 10.642, 10.808, 10.58, 10.864, 11.337, 10.746, 10.628, 10.756, 10.649, 10.793, 10.389, 10.574, 10.804, 10.651, 10.497, 10.797, 10.641, 11.097, 10.658, 10.125, 10.848, 10.564, 10.83, 10.63, 10.879, 10.801, 10.763, 10.656, 10.602, 11.033, 10.813, 10.831, 10.592, 10.626, 11.197, 10.745, 10.698, 10.44, 10.941, 10.611, 11.72, 11.101, 10.761, 10.447, 10.59, 10.765, 10.549, 10.476, 10.846, 10.762, 10.968, 10.9, 10.252, 10.685, 10.8, 10.454, 10.636, 10.549, 10.855, 10.796, 11.06, 10.753, 10.634, 12.435, 10.823, 10.847, 20.134, 11.068, 13.797, 11.391, 10.926, 11.094, 10.775, 11.604, 20.961, 11.545, 10.718, 10.581, 10.817, 11.334, 20.743, 11.483, 10.555, 10.78, 10.671, 11.269, 21.922, 11.537, 10.852, 10.668, 10.885, 10.771, 10.684, 10.83, 10.819, 10.531, 10.957, 10.581, 10.466, 11.135, 10.458, 10.748, 10.53, 10.844, 10.623, 10.808, 10.432, 10.984, 10.568, 11.109, 10.4, 10.39, 10.617, 10.638, 10.883, 10.892, 10.651, 10.928, 10.499, 10.843, 10.393, 10.667, 10.966, 10.83, 10.582, 11.022, 10.652, 10.318, 10.797, 11.797, 11.154, 10.724, 10.502, 11.056, 10.717, 10.741, 10.546, 10.586, 10.471, 10.837, 11.254, 10.501, 10.667, 10.871, 10.884, 10.912, 10.427, 10.672, 10.79, 10.464, 10.981, 10.539, 13.187, 22.743, 12.129, 10.85, 10.704, 11.216, 10.658, 11.012, 10.621, 11.015, 10.854, 10.515, 10.506, 10.702, 11.131, 10.659, 10.697, 10.628, 10.718, 10.736, 11.058, 10.826, 10.83, 10.769, 11.034],
  "Optimizer iterations": 997,
  "Optimizer params": [0.6985821471523144, 0.8884674861565801, 0.3277025792470343, 0.6802911829554101, 0.5829211969153175, 0.4425972974123247, 0.09540487917467007, 0.19311050955283646, 0.785315602621307, 0.9839808688728647, 0.570577851402995, 0.9178922047652537, 0.48117629937151213, 0.9826379102512317, 0.07387568977895194, 0.9282182528891555, 0.4424955899747906, 0.49936007198008064, 0.5195225944480604, 0.9544262410750105, 0.5068890918698448, 0.5115845289645502, 0.9857244701345629, 0.07044500393946927, 0.3194801823960966, 0.29025553070489546, 0.6821333613026522, 0.06547910908294514, 0.04534496912772807, 0.450476629907849, 0.5013747997694101, 0.9725232752862413, 0.4947234130759179, 0.9690194982314995, 0.4235108764732826, 0.033259473713257354],
  "P": 0,
  "Problem": "IC",
  "QJob durations [ms]": [0.5053500208305195, 0.4896500031463802, 0.5045500001870096, 0.4997500218451023, 0.4800000024260953, 0.5233499978203326, 0.48575001710560173, 0.4901999927824363, 0.5087999888928607, 0.4861999914282933, 0.49795000813901424, 0.48770000285003334, 0.47929999709594995, 0.4920000064885244, 0.4918000049656257, 0.494399995659478, 0.498249995871447, 0.4892499855486676, 0.5187000060686842, 0.4841000190936029, 0.49259999650530517, 0.49130001571029425, 0.4876500170212239, 0.4937000048812479, 0.5040000105509534, 0.4859500040765852, 0.4878000036114827, 0.48040000547189265, 0.5030000174883753, 0.4838499880861491, 0.4829499957850203, 0.49015000695362687, 0.4979000077582896, 0.49190000572707504, 0.48820000665728003, 0.49044999468605965, 0.4987499996786937, 0.5303500074660406, 0.4903499939246103, 0.5046000005677342, 0.48299999616574496, 0.5284999933792278, 0.5085500015411526, 0.48919998516794294, 0.5066500016255304, 0.49074999697040766, 0.4899500054307282, 0.4931499861413613, 0.4988000000594184, 0.48069999320432544, 0.5013000190956518, 0.49950000538956374, 0.48269999388139695, 0.49760000547394156, 0.49235000915359706, 0.4889499832643196, 0.4915000172331929, 0.4916500038234517, 0.5004999984521419, 0.4892000142717734, 0.48829999286681414, 0.4916500038234517, 0.4919499915558845, 0.48874999629333615, 0.4882500070380047, 0.4907500115223229, 0.47774999984540045, 0.6441999867092818, 0.5343000084394589, 0.49375000526197255, 0.4968499852111563, 0.4862999921897426, 0.48850000894162804, 0.5688999954145402, 0.5661500035785139, 0.4906000103801489, 0.4935000033583492, 0.6674999895039946, 0.4869499971391633, 0.5302000063238665, 0.49915000272449106, 0.48794999020174146, 0.48159998550545424, 0.537649990292266, 0.5347000114852563, 0.5424999835668132, 0.49754999054130167, 0.48254999273922294, 0.527299998793751, 0.5044999998062849, 0.5962499999441206, 0.6126500084064901, 0.49310000031255186, 0.5072500061942264, 0.4889999981969595, 0.49765000585466623, 0.4923999949824065, 0.4980500089004636, 0.4955999902449548, 0.4960000078426674, 0.4838499880861491, 0.490699996589683, 0.4965000116499141, 0.4791000101249665, 0.4856500163441524, 0.48355001490563154, 0.4894499870715663, 0.4962499951943755, 0.48999999125953764, 0.5215499841142446, 0.47884999366942793, 0.4948999994667247, 0.4921000072499737, 0.4915999888908118, 0.494399995659478, 0.48174998664762825, 0.5014000053051859, 0.4767500067828223, 0.5062500131316483, 0.48090000927913934, 0.4831000114791095, 0.5005999992135912, 0.502600014442578, 0.49360000411979854, 0.4954499891027808, 0.5051499756518751, 0.48585000331513584, 0.4914499877486378, 0.4906000103801489, 0.4802999901585281, 0.5385999975260347, 0.4895000165561214, 0.4852499987464398, 0.4961499944329262, 0.4908499831799418, 0.48495001101400703, 0.49065001076087356, 0.48165000043809414, 0.48474999493919313, 0.4920499923173338, 0.49810000928118825, 0.4997999931219965, 0.4972500028088689, 0.49059999582823366, 0.4924500099150464, 0.49289998423773795, 0.49015000695362687, 0.4981499951099977, 0.4847999953199178, 0.4802499897778034, 0.4884999943897128, 0.4912000003969297, 0.483449999592267, 0.5017499934183434, 0.5058999959146604, 0.497199987876229, 0.45989999489393085, 0.49155000306200236, 0.49330000183545053, 0.4889499978162348, 0.4969000001437962, 0.4966999840689823, 0.4995499912183732, 0.4858000174863264, 0.5014500202378258, 0.49365001905243844, 0.480350005091168, 0.4924000095343217, 0.4979000077582896, 0.4915000026812777, 0.49804999434854835, 0.5003499973099679, 0.49935000424738973, 0.4886999959126115, 0.5009499873267487, 0.49190002027899027, 0.4867000097874552, 0.4915000026812777, 0.49074999697040766, 0.4796499997610226, 0.4879999905824661, 0.48380000225733966, 0.4913500160910189, 0.4952500021317974, 0.5011000030208379, 0.49795000813901424, 0.4854500002693385, 0.47894999443087727, 0.49354998918715864, 0.48874999629333615, 0.48790001892484725, 0.4926000110572204, 0.5003999976906925, 0.4977000062353909, 0.4843499918933958, 0.4996000207029283, 0.4924000095343217, 0.48335001338273287, 0.4886999959126115, 0.4884000081801787, 0.4965999978594482, 0.4845999937970191, 0.5042499979026616, 0.5079499969724566, 0.4969500005245209, 0.5044000135967508, 0.5045499856350943, 0.5301000055624172, 0.4920999926980585, 0.5054500070400536, 0.4858999891439453, 0.490549995447509, 0.49360000411979854, 0.48820000665728003, 0.4916500183753669, 0.49464999756310135, 0.5159999855095521, 0.48210000386461616, 0.48594998952466995, 0.48454999341629446, 0.4924500099150464, 0.4947499983245507, 0.48159998550545424, 0.4829499957850203, 0.5031000036979094, 0.49590000708121806, 0.48770000285003334, 0.5015500064473599, 0.4829500103369355, 0.4830999969271943, 0.484650008729659, 0.48735000018496066, 0.49340000259689987, 0.504449984873645, 0.4920000064885244, 0.4901000065729022, 0.49420000868849456, 0.4851500125369057, 0.4878500185441226, 0.4962000093655661, 0.4987499851267785, 0.49530000251252204, 0.4852999991271645, 0.49050000961869955, 0.490849997731857, 0.48000001697801054, 0.502450013300404, 0.5011500034015626, 0.5204500048421323, 0.6032500095898286, 0.48735000018496066, 0.4839999892283231, 0.49220000801142305, 0.4965499974787235, 0.5021499964641407, 0.5131500074639916, 0.4947499983245507, 0.5024499987484887, 0.5010999884689227, 0.48415000492241234, 0.49185000534635037, 0.510750018293038, 0.4988000000594184, 0.4932000010740012, 0.48734998563304543, 0.4998500080546364, 0.4877499886788428, 0.49760000547394156, 0.4896000027656555, 0.48400000378023833, 0.49130001571029425, 0.5051499902037904, 0.49005000619217753, 0.5018500087317079, 0.5011499888496473, 0.49700001545716077, 0.5021500110160559, 0.4899500054307282, 0.5059500108473003, 0.493799991090782, 0.4921999934595078, 0.48719999904278666, 0.4830999969271943, 0.4939500067848712, 0.5018000083509833, 0.5055999936303124, 0.4844000068260357, 0.4991000168956816, 0.5049500032328069, 0.5051499756518751, 0.5394000036176294, 0.5019500094931573, 0.5025999998906627, 0.513400009367615, 0.5008000152884051, 0.5159499996807426, 0.502099996083416, 0.48660000902600586, 0.47870000707916915, 0.49715000204741955, 0.49044999468605965, 0.49429999489802867, 0.4988999862689525, 0.5117999971844256, 0.5016000068280846, 0.5081999843241647, 0.501649992656894, 0.5078500107629225, 0.5093500076327473, 0.5357000045478344, 0.5017500079702586, 0.4912500153295696, 0.491300001158379, 0.49155000306200236, 0.4988499858882278, 0.5028999876230955, 0.5008000152884051, 0.49700000090524554, 0.49235000915359706, 0.5003999976906925, 0.4959999932907522, 0.49589999252930284, 0.5008000007364899, 0.4891499847872183, 0.4899500054307282, 0.49035000847652555, 0.49050000961869955, 0.49449999642092735, 0.49959999159909785, 0.49229999422095716, 0.483900003018789, 0.49524998757988214, 0.49015000695362687, 0.49345001752953976, 0.4849499964620918, 0.5046500009484589, 0.4983500111848116, 0.49310000031255186, 0.5043999990448356, 0.5633999826386571, 0.4977000062353909, 0.4856500163441524, 0.6462500023189932, 0.5435999919427559, 0.4966999840689823, 0.5045500001870096, 0.5027000152040273, 0.5743999790865928, 0.4929000133415684, 0.5039499956183136, 0.44624999281950295, 0.4907000111415982, 0.4985999985365197, 0.5419500084826723, 0.5055500078015029, 0.4929999995511025, 0.6369999900925905, 0.4969000001437962, 0.5396499909693375, 0.4842500056838617, 0.4948000132571906, 0.5588000058196485, 0.5038500239606947, 0.5180499865673482, 0.5307500105118379, 0.5118499975651503, 0.4869000113103539, 0.4794500127900392, 0.4944500105921179, 0.4881000204477459, 0.4895000165561214, 0.48889998288359493, 0.4935000033583492, 0.49310000031255186, 0.4932500160066411, 0.6291999889072031, 0.5881500110263005, 0.577349986997433, 0.6173999863676727, 0.6357500096783042, 0.4523999959928915, 0.4895000020042062, 0.49354998918715864, 0.4912500153295696, 0.49059999582823366, 0.4898999904980883, 0.4791999817825854, 0.48160000005736947, 0.48750000132713467, 0.48544998571742326, 0.49515000137034804, 0.513550010509789, 0.5062000127509236, 0.48815000627655536, 0.49384999147150666, 0.49160001799464226, 0.5440499808173627, 0.4904500092379749, 0.4982999962521717, 0.5007500003557652, 0.48750000132713467, 0.48139998398255557, 0.5062999844085425, 0.5117999826325104, 0.48984999011736363, 0.49545000365469605, 0.4963500105077401, 0.4965999978594482, 0.505499992868863, 0.4894499870715663, 0.5006999854231253, 0.4902500077150762, 0.4831500118598342, 0.4896500031463802, 0.49560000479687005, 0.4929500137222931, 0.4913500015391037, 0.48899998364504427, 0.49709998711477965, 0.5070999905001372, 0.4924000095343217, 0.4972500028088689, 0.4790499951923266, 0.4909499839413911, 0.4982999962521717, 0.49574999138712883, 0.4872499994235113, 0.4759500006912276, 0.6049000076018274, 0.4930500144837424, 0.4963999963365495, 0.5273000133456662, 0.4931499861413613, 0.49340000259689987, 0.4827000084333122, 0.4961500089848414, 0.480350005091168, 0.4937000048812479, 0.4852999991271645, 0.4986499989172444, 0.49510000098962337, 0.49419999413657933, 0.48814999172464013, 0.487750003230758, 0.48719999904278666, 0.490699996589683, 0.486999997519888, 0.4972999886376783, 0.48660000902600586, 0.4831999831367284, 0.49554998986423016, 0.5198500148253515, 0.4994999908376485, 0.4872000135947019, 0.5874500202480704, 0.49264999688602984, 0.49094999849330634, 0.49334998766425997, 0.5004999984521419, 0.4825000069104135, 0.4904000088572502, 0.49674998444970697, 0.4912500153295696, 0.4986999847460538, 0.4896500031463802, 0.49330001638736576, 0.49185000534635037, 0.4890999844064936, 0.4985999985365197, 0.48335001338273287, 0.4941000079270452, 0.4990000161342323, 0.49959999159909785, 0.48454999341629446, 0.4981500096619129, 0.49950001994147897, 0.48445000720676035, 0.5020500102546066, 0.4932000156259164, 0.49825001042336226, 0.49339998804498464, 0.4884999943897128, 0.48934998631011695, 0.4837000014958903, 0.4934499884257093, 0.4894500016234815, 0.4915000026812777, 0.5088000034447759, 0.4872499848715961, 0.4883499932475388, 0.49449999642092735, 0.49780000699684024, 0.49020000733435154, 0.49840001156553626, 0.4945000109728426, 0.49255001067649573, 0.47849999100435525, 0.49154998851008713, 0.4993999900761992, 0.48770000285003334, 0.48770001740194857, 0.49409999337513, 0.49220000801142305, 0.5039999959990382, 0.49569999100640416, 0.48290000995621085, 0.48744998639449477, 0.5182999884709716, 0.4791999963345006, 0.4934499884257093, 0.5081499984953552, 0.5077000096207485, 0.49875001423060894, 0.48999999125953764, 0.48850000894162804, 0.47420000191777945, 0.491150000016205, 0.4927499976474792, 0.4805999924428761, 0.6961000035516918, 0.5727499956265092, 0.4875000158790499, 0.516050000442192, 0.493949992232956, 0.49584999214857817, 0.49854999815579504, 0.48395000339951366, 0.4869499971391633, 0.4935000033583492, 0.5023499834351242, 0.49655001203063875, 0.5050500039942563, 0.48794999020174146, 0.4970500012859702, 0.5071500054327771, 0.48830000741872936, 0.4977000062353909, 0.49020000733435154, 0.4884000081801787, 0.5009500018786639, 0.493499988806434, 0.5142500158399343, 0.49094999849330634, 0.4935500182909891, 0.49360000411979854, 0.4800999886356294, 0.5049500032328069, 0.4921999934595078, 0.503500021295622, 0.49264999688602984, 0.4919500061077997, 0.4885999805992469, 0.4902500077150762, 0.4955999902449548, 0.4993499896954745, 0.5052499764133245, 0.4814500134671107, 0.4862999921897426, 0.49100001342594624, 0.4819999885512516, 0.48985000466927886, 0.49184999079443514, 0.4963500105077401, 0.48609999066684395, 0.49590000708121806, 0.49235000915359706, 0.5011000030208379, 0.49930000386666507, 0.49825001042336226, 0.49104998470284045, 0.4835499858018011, 0.4802499897778034, 0.49685001431498677, 0.49104998470284045, 0.48794999020174146, 0.4951999871991575, 0.4966500127920881, 0.5095000087749213, 0.4857500025536865, 0.48200001765508205, 0.49435000983066857, 0.5092999927001074, 0.4833999846596271, 0.48114999663084745, 0.4839500179514289, 0.4867000097874552, 0.48734998563304543, 0.5100499984109774, 0.49085001228377223, 0.4932000010740012, 0.4929999995511025, 0.4943999811075628, 0.48630000674165785, 0.49670001317281276, 0.4903000080958009, 0.4950500006088987, 0.48990000505000353, 0.4952500021317974, 0.49325000145472586, 0.49509998643770814, 0.4918000049656257, 0.4935999895678833, 0.4842500056838617, 0.4850000113947317, 0.48909999895840883, 0.4865500086452812, 0.48815000627655536, 0.4915000026812777, 0.4912500153295696, 0.48659999447409064, 0.5347999976947904, 0.4726000188384205, 0.48344998504035175, 0.6063500040909275, 0.5052000051364303, 0.4969500150764361, 0.4852499987464398, 0.5387000128393993, 0.5014499911339954, 0.4960999940522015, 0.4844000213779509, 0.5731999990530312, 0.49804999434854835, 0.5360499926609918, 0.4894500016234815, 0.490999998874031, 0.49064999620895833, 0.556350001716055, 0.49619999481365085, 0.5401000089477748, 0.483449999592267, 0.4853499849559739, 0.5260500038275495, 0.5108999903313816, 0.6170500128064305, 0.5766999965999275, 0.4949999856762588, 0.486999997519888, 0.4997500072931871, 0.49205000686924905, 0.4913500160910189, 0.4869499971391633, 0.49014999240171164, 0.4824499919777736, 0.49185000534635037, 0.4907500115223229, 0.4945999971823767, 0.4858999891439453, 0.49409999337513, 0.4848999815294519, 0.48740001511760056, 0.4943499807268381, 0.4882500070380047, 0.4928000125801191, 0.4851499979849905, 0.4887999821221456, 0.4921500076306984, 0.50074998580385, 0.4955000040354207, 0.49029999354388565, 0.4911000141873956, 0.49020000733435154, 0.4862500063609332, 0.4983500111848116, 0.4889999981969595, 0.49760000547394156, 0.49140000191982836, 0.49020000733435154, 0.4841999907512218, 0.5041499971412122, 0.5025000136811286, 0.4846499941777438, 0.494699997943826, 0.5028000159654766, 0.4965000116499141, 0.4858000174863264, 0.4927499976474792, 0.48075000813696533, 0.49050000961869955, 0.4961499944329262, 0.4890000127488747, 0.5000499950256199, 0.4896500031463802, 0.4876999882981181, 0.4821499896934256, 0.48949998745229095, 0.488050005515106, 0.5020499811507761, 0.49920000310521573, 0.4886999959126115, 0.5013500049244612, 0.4903000080958009, 0.4955500189680606, 0.5025500140618533, 0.48909999895840883, 0.49679999938234687, 0.48304999654646963, 0.49414999375585467, 0.49659998330753297, 0.4870500124525279, 0.473700012662448, 0.491300001158379, 0.5290999833960086, 0.5001000099582598, 0.4971000162186101, 0.5061999836470932, 0.4870999837294221, 0.4844499926548451, 0.4930500144837424, 0.4885999805992469, 0.4824499919777736, 0.501649992656894, 0.490999998874031, 0.48600000445730984, 0.48910001351032406, 0.49679999938234687, 0.48750000132713467, 0.49300001410301775, 0.49390000640414655, 0.4996999923605472, 0.49890001537278295, 0.4910499992547557, 0.49640001088846475, 0.49115001456812024, 0.5002999969292432, 0.48755000170785934, 0.48395000339951366, 0.4860500048380345, 0.4903000080958009, 0.5281500052660704, 0.49080001190304756, 0.49015000695362687, 0.49845001194626093, 0.49064999620895833, 0.5000000091968104, 0.4862999921897426, 0.48395000339951366, 0.49079999735113233, 0.4932999872835353, 0.4932999872835353, 0.49035000847652555, 0.49149998812936246, 0.505199990584515, 0.49575000593904406, 0.49089999811258167, 0.48334999883081764, 0.5214500124566257, 0.48334999883081764, 0.4979000077582896, 0.48859999515116215, 0.4886999959126115, 0.48064999282360077, 0.49289998423773795, 0.47944999823812395, 0.48719999904278666, 0.49684999976307154, 0.48565000179223716, 0.48615000559948385, 0.48695001169107854, 0.48674999561626464, 0.48639999295119196, 0.5180500156711787, 0.48990000505000353, 0.4949500143993646, 0.4933500022161752, 0.49614997988101095, 0.49839999701362103, 0.49819999549072236, 0.48955000238493085, 0.49420000868849456, 0.4830000107176602, 0.4972999886376783, 0.49634999595582485, 0.4961499944329262, 0.497499990160577, 0.4946999833919108, 0.4838500026380643, 0.49649999709799886, 0.5007999861845747, 0.5231999966781586, 0.4850499826716259, 0.48880001122597605, 0.4921999934595078, 0.48725001397542655, 0.49095001304522157, 0.49160000344272703, 0.48910001351032406, 0.4926000110572204, 0.4910499992547557, 0.494549996801652, 0.49094999849330634, 0.6112500268500298, 0.5290500121191144, 0.48794999020174146, 0.49515000137034804, 0.5040500109316781, 0.48940000124275684, 0.4922500083921477, 0.49500000022817403, 0.49550001858733594, 0.48665000940673053, 0.4904500092379749, 0.49744998977985233, 0.48984999011736363, 0.48415000492241234, 0.4899500054307282, 0.49149998812936246, 0.4855500010307878, 0.48410000454168767, 0.4884000081801787, 0.49500000022817403, 0.4946999833919108, 0.484350006445311, 0.4918000049656257, 0.49434999527875334, 0.49554998986423016, 0.49804999434854835, 0.5583000020124018, 0.5602000164799392, 0.496899985591881, 0.48314999730791897, 0.5025499995099381, 0.4886499955318868, 0.5042999982833862, 0.5165999900782481, 0.5019500094931573, 0.4989000008208677, 0.4825999931199476, 0.4994500195607543, 0.4943000094499439, 0.48049999168142676, 0.49530000251252204, 0.4945499822497368, 0.5021999822929502, 0.5010000168113038, 0.4898999904980883, 0.507350021507591, 0.5035499925725162, 0.4878500185441226, 0.4819000023417175, 0.4859500040765852, 0.4934000171488151, 0.4897500039078295, 0.4856999876210466, 0.4855000152019784, 0.49420000868849456, 0.484350006445311, 0.48394998884759843, 0.48955000238493085, 0.4963999963365495, 0.5025499849580228, 0.49064999620895833, 0.48415000492241234, 0.49360000411979854, 0.5029000021750107, 0.4937000048812479, 0.4923000087728724, 0.490099992020987, 0.5031000182498246, 0.4936500045005232, 0.5468500166898593, 0.49405000754632056, 0.4902500077150762, 0.4786000063177198, 0.49155000306200236, 0.4913500015391037, 0.49515000137034804, 0.4904499801341444, 0.49184999079443514, 0.5021499964641407, 0.502900016726926, 0.493649989948608, 0.47544999688398093, 0.49369999032933265, 0.4907500115223229, 0.4853000136790797, 0.49029999354388565, 0.4887500108452514, 0.484350006445311, 0.4904500092379749, 0.5000999954063445, 0.4987499851267785, 0.4837000014958903, 0.5859999946551397, 0.48814999172464013, 0.4928999987896532, 0.48815000627655536, 0.49050000961869955, 0.5011500034015626, 0.5300500051816925, 0.502750015584752, 0.49590000708121806, 0.49604999367147684, 0.5326500104274601, 0.4794500127900392, 0.5239500169409439, 0.49569999100640416, 0.4835499858018011, 0.4758500144816935, 0.5295499868225306, 0.4882500070380047, 0.5370999861042947, 0.48874999629333615, 0.4824499919777736, 0.4827499942621216, 0.5100500129628927, 0.515749998157844, 0.522549991728738, 0.49795000813901424, 0.5013499758206308, 0.49700001545716077, 0.490249993163161, 0.4800000024260953, 0.4914000164717436, 0.4879999905824661, 0.4926999827148393, 0.4961500089848414, 0.48529998457524925, 0.4834500141441822, 0.4940000071655959, 0.47640000411774963, 0.5037499940954149, 0.49780000699684024, 0.4988999862689525, 0.4780999879585579, 0.4897000180790201, 0.483750001876615, 0.5046000005677342, 0.4858999891439453, 0.4948000132571906, 0.4838000168092549, 0.49595000746194273, 0.48400000378023833, 0.49604999367147684, 0.497199987876229, 0.48710001283325255, 0.49185000534635037, 0.49509998643770814, 0.48815000627655536, 0.4922499938402325, 0.494699997943826, 0.47694999375380576, 0.5116499960422516, 0.4960000078426674, 0.49324998690281063, 0.4971000016666949, 0.49350001791026443, 0.491150000016205, 0.49229999422095716, 0.5480000108946115, 0.4984499973943457, 0.5010000022593886, 0.49190000572707504, 0.49125000077765435, 0.4958000063197687, 0.4859999899053946, 0.4887000104645267, 0.4914000164717436, 0.4900499916402623, 0.49384999147150666, 0.5041499971412122, 0.4880499909631908, 0.4932500160066411, 0.49289998423773795, 0.4988500149920583, 0.4944499960402027, 0.49140000191982836, 0.49244999536313117, 0.4903499793726951, 0.4994500195607543, 0.5020999815315008, 0.4886000097030774, 0.6188499974086881, 0.535849976586178, 0.5411500023910776, 0.4876999882981181, 0.4973500035703182, 0.4992500180378556, 0.49330000183545053, 0.49259999650530517, 0.4930500144837424, 0.49044999468605965, 0.49655001203063875, 0.487750003230758, 0.4852499987464398, 0.4941000079270452, 0.5011500034015626, 0.5006500141462311, 0.4970999725628644, 0.5077499954495579, 0.501799993799068, 0.48445000720676035, 0.506900018081069, 0.49005000619217753, 0.49404999299440533, 0.4944500105921179, 0.5314000009093434],
  "QPU": "7000000",
  "Qubits": 9,
  "Queue durations [ms]": [0.0, 0.0, 0.0, 0.0, 0.0, 0.0, 0.0, 0.0, 0.0, 0.0, 0.0, 0.0, 0.0, 0.0, 0.0, 0.0, 0.0, 0.0, 0.0, 0.0, 0.0, 0.0, 0.0, 0.0, 0.0, 0.0, 0.0, 0.0, 0.0, 0.0, 0.0, 0.0, 0.0, 0.0, 0.0, 0.0, 0.0, 0.0, 0.0, 0.0, 0.0, 0.0, 0.0, 0.0, 0.0, 0.0, 0.0, 0.0, 0.0, 0.0, 0.0, 0.0, 0.0, 0.0, 0.0, 0.0, 0.0, 0.0, 0.0, 0.0, 0.0, 0.0, 0.0, 0.0, 0.0, 0.0, 0.0, 0.0, 0.0, 0.0, 0.0, 0.0, 0.0, 0.0, 0.0, 0.0, 0.0, 0.0, 0.0, 0.0, 0.0, 0.0, 0.0, 0.0, 0.0, 0.0, 0.0, 0.0, 0.0, 0.0, 0.0, 0.0, 0.0, 0.0, 0.0, 0.0, 0.0, 0.0, 0.0, 0.0, 0.0, 0.0, 0.0, 0.0, 0.0, 0.0, 0.0, 0.0, 0.0, 0.0, 0.0, 0.0, 0.0, 0.0, 0.0, 0.0, 0.0, 0.0, 0.0, 0.0, 0.0, 0.0, 0.0, 0.0, 0.0, 0.0, 0.0, 0.0, 0.0, 0.0, 0.0, 0.0, 0.0, 0.0, 0.0, 0.0, 0.0, 0.0, 0.0, 0.0, 0.0, 0.0, 0.0, 0.0, 0.0, 0.0, 0.0, 0.0, 0.0, 0.0, 0.0, 0.0, 0.0, 0.0, 0.0, 0.0, 0.0, 0.0, 0.0, 0.0, 0.0, 0.0, 0.0, 0.0, 0.0, 0.0, 0.0, 0.0, 0.0, 0.0, 0.0, 0.0, 0.0, 0.0, 0.0, 0.0, 0.0, 0.0, 0.0, 0.0, 0.0, 0.0, 0.0, 0.0, 0.0, 0.0, 0.0, 0.0, 0.0, 0.0, 0.0, 0.0, 0.0, 0.0, 0.0, 0.0, 0.0, 0.0, 0.0, 0.0, 0.0, 0.0, 0.0, 0.0, 0.0, 0.0, 0.0, 0.0, 0.0, 0.0, 0.0, 0.0, 0.0, 0.0, 0.0, 0.0, 0.0, 0.0, 0.0, 0.0, 0.0, 0.0, 0.0, 0.0, 0.0, 0.0, 0.0, 0.0, 0.0, 0.0, 0.0, 0.0, 0.0, 0.0, 0.0, 0.0, 0.0, 0.0, 0.0, 0.0, 0.0, 0.0, 0.0, 0.0, 0.0, 0.0, 0.0, 0.0, 0.0, 0.0, 0.0, 0.0, 0.0, 0.0, 0.0, 0.0, 0.0, 0.0, 0.0, 0.0, 0.0, 0.0, 0.0, 0.0, 0.0, 0.0, 0.0, 0.0, 0.0, 0.0, 0.0, 0.0, 0.0, 0.0, 0.0, 0.0, 0.0, 0.0, 0.0, 0.0, 0.0, 0.0, 0.0, 0.0, 0.0, 0.0, 0.0, 0.0, 0.0, 0.0, 0.0, 0.0, 0.0, 0.0, 0.0, 0.0, 0.0, 0.0, 0.0, 0.0, 0.0, 0.0, 0.0, 0.0, 0.0, 0.0, 0.0, 0.0, 0.0, 0.0, 0.0, 0.0, 0.0, 0.0, 0.0, 0.0, 0.0, 0.0, 0.0, 0.0, 0.0, 0.0, 0.0, 0.0, 0.0, 0.0, 0.0, 0.0, 0.0, 0.0, 0.0, 0.0, 0.0, 0.0, 0.0, 0.0, 0.0, 0.0, 0.0, 0.0, 0.0, 0.0, 0.0, 0.0, 0.0, 0.0, 0.0, 0.0, 0.0, 0.0, 0.0, 0.0, 0.0, 0.0, 0.0, 0.0, 0.0, 0.0, 0.0, 0.0, 0.0, 0.0, 0.0, 0.0, 0.0, 0.0, 0.0, 0.0, 0.0, 0.0, 0.0, 0.0, 0.0, 0.0, 0.0, 0.0, 0.0, 0.0, 0.0, 0.0, 0.0, 0.0, 0.0, 0.0, 0.0, 0.0, 0.0, 0.0, 0.0, 0.0, 0.0, 0.0, 0.0, 0.0, 0.0, 0.0, 0.0, 0.0, 0.0, 0.0, 0.0, 0.0, 0.0, 0.0, 0.0, 0.0, 0.0, 0.0, 0.0, 0.0, 0.0, 0.0, 0.0, 0.0, 0.0, 0.0, 0.0, 0.0, 0.0, 0.0, 0.0, 0.0, 0.0, 0.0, 0.0, 0.0, 0.0, 0.0, 0.0, 0.0, 0.0, 0.0, 0.0, 0.0, 0.0, 0.0, 0.0, 0.0, 0.0, 0.0, 0.0, 0.0, 0.0, 0.0, 0.0, 0.0, 0.0, 0.0, 0.0, 0.0, 0.0, 0.0, 0.0, 0.0, 0.0, 0.0, 0.0, 0.0, 0.0, 0.0, 0.0, 0.0, 0.0, 0.0, 0.0, 0.0, 0.0, 0.0, 0.0, 0.0, 0.0, 0.0, 0.0, 0.0, 0.0, 0.0, 0.0, 0.0, 0.0, 0.0, 0.0, 0.0, 0.0, 0.0, 0.0, 0.0, 0.0, 0.0, 0.0, 0.0, 0.0, 0.0, 0.0, 0.0, 0.0, 0.0, 0.0, 0.0, 0.0, 0.0, 0.0, 0.0, 0.0, 0.0, 0.0, 0.0, 0.0, 0.0, 0.0, 0.0, 0.0, 0.0, 0.0, 0.0, 0.0, 0.0, 0.0, 0.0, 0.0, 0.0, 0.0, 0.0, 0.0, 0.0, 0.0, 0.0, 0.0, 0.0, 0.0, 0.0, 0.0, 0.0, 0.0, 0.0, 0.0, 0.0, 0.0, 0.0, 0.0, 0.0, 0.0, 0.0, 0.0, 0.0, 0.0, 0.0, 0.0, 0.0, 0.0, 0.0, 0.0, 0.0, 0.0, 0.0, 0.0, 0.0, 0.0, 0.0, 0.0, 0.0, 0.0, 0.0, 0.0, 0.0, 0.0, 0.0, 0.0, 0.0, 0.0, 0.0, 0.0, 0.0, 0.0, 0.0, 0.0, 0.0, 0.0, 0.0, 0.0, 0.0, 0.0, 0.0, 0.0, 0.0, 0.0, 0.0, 0.0, 0.0, 0.0, 0.0, 0.0, 0.0, 0.0, 0.0, 0.0, 0.0, 0.0, 0.0, 0.0, 0.0, 0.0, 0.0, 0.0, 0.0, 0.0, 0.0, 0.0, 0.0, 0.0, 0.0, 0.0, 0.0, 0.0, 0.0, 0.0, 0.0, 0.0, 0.0, 0.0, 0.0, 0.0, 0.0, 0.0, 0.0, 0.0, 0.0, 0.0, 0.0, 0.0, 0.0, 0.0, 0.0, 0.0, 0.0, 0.0, 0.0, 0.0, 0.0, 0.0, 0.0, 0.0, 0.0, 0.0, 0.0, 0.0, 0.0, 0.0, 0.0, 0.0, 0.0, 0.0, 0.0, 0.0, 0.0, 0.0, 0.0, 0.0, 0.0, 0.0, 0.0, 0.0, 0.0, 0.0, 0.0, 0.0, 0.0, 0.0, 0.0, 0.0, 0.0, 0.0, 0.0, 0.0, 0.0, 0.0, 0.0, 0.0, 0.0, 0.0, 0.0, 0.0, 0.0, 0.0, 0.0, 0.0, 0.0, 0.0, 0.0, 0.0, 0.0, 0.0, 0.0, 0.0, 0.0, 0.0, 0.0, 0.0, 0.0, 0.0, 0.0, 0.0, 0.0, 0.0, 0.0, 0.0, 0.0, 0.0, 0.0, 0.0, 0.0, 0.0, 0.0, 0.0, 0.0, 0.0, 0.0, 0.0, 0.0, 0.0, 0.0, 0.0, 0.0, 0.0, 0.0, 0.0, 0.0, 0.0, 0.0, 0.0, 0.0, 0.0, 0.0, 0.0, 0.0, 0.0, 0.0, 0.0, 0.0, 0.0, 0.0, 0.0, 0.0, 0.0, 0.0, 0.0, 0.0, 0.0, 0.0, 0.0, 0.0, 0.0, 0.0, 0.0, 0.0, 0.0, 0.0, 0.0, 0.0, 0.0, 0.0, 0.0, 0.0, 0.0, 0.0, 0.0, 0.0, 0.0, 0.0, 0.0, 0.0, 0.0, 0.0, 0.0, 0.0, 0.0, 0.0, 0.0, 0.0, 0.0, 0.0, 0.0, 0.0, 0.0, 0.0, 0.0, 0.0, 0.0, 0.0, 0.0, 0.0, 0.0, 0.0, 0.0, 0.0, 0.0, 0.0, 0.0, 0.0, 0.0, 0.0, 0.0, 0.0, 0.0, 0.0, 0.0, 0.0, 0.0, 0.0, 0.0, 0.0, 0.0, 0.0, 0.0, 0.0, 0.0, 0.0, 0.0, 0.0, 0.0, 0.0, 0.0, 0.0, 0.0, 0.0, 0.0, 0.0, 0.0, 0.0, 0.0, 0.0, 0.0, 0.0, 0.0, 0.0, 0.0, 0.0, 0.0, 0.0, 0.0, 0.0, 0.0, 0.0, 0.0, 0.0, 0.0, 0.0, 0.0, 0.0, 0.0, 0.0, 0.0, 0.0, 0.0, 0.0, 0.0, 0.0, 0.0, 0.0, 0.0, 0.0, 0.0, 0.0, 0.0, 0.0, 0.0, 0.0, 0.0, 0.0, 0.0, 0.0, 0.0, 0.0, 0.0, 0.0, 0.0, 0.0, 0.0, 0.0, 0.0, 0.0, 0.0, 0.0, 0.0, 0.0, 0.0, 0.0, 0.0, 0.0, 0.0, 0.0, 0.0, 0.0, 0.0, 0.0, 0.0, 0.0, 0.0, 0.0, 0.0, 0.0, 0.0, 0.0, 0.0, 0.0, 0.0, 0.0, 0.0, 0.0, 0.0, 0.0, 0.0, 0.0, 0.0, 0.0, 0.0, 0.0, 0.0, 0.0, 0.0, 0.0, 0.0, 0.0, 0.0, 0.0, 0.0, 0.0, 0.0, 0.0, 0.0, 0.0, 0.0, 0.0, 0.0, 0.0, 0.0, 0.0, 0.0, 0.0, 0.0, 0.0, 0.0, 0.0, 0.0, 0.0, 0.0, 0.0, 0.0, 0.0, 0.0, 0.0, 0.0, 0.0, 0.0, 0.0, 0.0, 0.0, 0.0, 0.0, 0.0, 0.0, 0.0, 0.0, 0.0, 0.0, 0.0, 0.0, 0.0, 0.0, 0.0, 0.0, 0.0, 0.0, 0.0, 0.0, 0.0, 0.0, 0.0, 0.0, 0.0, 0.0, 0.0, 0.0, 0.0, 0.0, 0.0, 0.0, 0.0, 0.0, 0.0, 0.0, 0.0, 0.0, 0.0, 0.0, 0.0, 0.0, 0.0],
  "Shots": 4096,
  "Size": 9,
  "Total Algorithm duration [s]": 11.087,
  "Total Classic duration [s]": 10.590623549127951,
  "Total Quantum duration [s]": 0.49637645087204874
}
