{
  "Circuit execution durations [ms]": [0.49974999274127185, 0.5082499847048894, 0.4975500196451321, 0.48234999121632427, 0.5005999992135912, 0.4873000143561512, 0.4913500160910189, 0.49640001088846475, 0.5037999944761395, 0.4915000026812777, 0.48904999857768416, 0.5038499948568642, 0.4833000130020082, 0.48594998952466995, 0.5041500116931275, 0.4886499809799716, 0.5092999781481922, 0.49255001067649573, 0.49235000915359706, 0.4937000048812479, 0.48564998724032193, 0.49515001592226326, 0.4851499979849905, 0.480200003948994, 0.4905500099994242, 0.4867000097874552, 0.4865500086452812, 0.49494999984744936, 0.5088500038255006, 0.49020000733435154, 0.49154998851008713, 0.5002500111004338, 0.49539998872205615, 0.4893500154139474, 0.490999998874031, 0.48645000788383186, 0.48380000225733966, 0.5004500126233324, 0.49089999811258167, 0.4881999921053648, 0.48245000652968884, 0.4869499971391633, 0.48919999971985817, 0.6021499866619706, 0.5020499811507761, 0.4988000146113336, 0.4837500164285302, 0.49264999688602984, 0.49050000961869955, 0.524050003150478, 0.48689999675843865, 0.5138000124134123, 0.49965000653173774, 0.579350016778335, 0.4732999950647354, 0.5018999800086021, 0.4877499886788428, 0.4879999905824661, 0.48919999971985817, 0.4824999923584983, 0.5076999950688332, 0.49095001304522157, 0.48645000788383186, 0.5014000053051859, 0.4786999925272539, 0.493949992232956, 0.513850012794137, 0.6163500074762851, 0.4980500089004636, 0.49569999100640416, 0.4893999866908416, 0.491450002300553, 0.4898000042885542, 0.49014999240171164, 0.48820000665728003, 0.5047999875387177, 0.48160000005736947, 0.48785000399220735, 0.4850999976042658, 0.49199999193660915, 0.48674999561626464, 0.4929499846184626, 0.49199999193660915, 0.4962499806424603, 0.5175499827601016, 0.4848500102525577, 0.535150000359863, 0.4898000042885542, 0.5040000251028687, 0.4932000010740012, 0.49914998817257583, 0.49190000572707504, 0.48990000505000353, 0.491150000016205, 0.5047000158810988, 0.49175000458490103, 0.49270001181866974, 0.4855499864788726, 0.49569999100640416, 0.4859000036958605, 0.4892999859293923, 0.4922499938402325, 0.4763000179082155, 0.49160000344272703, 0.519449997227639, 0.48899998364504427, 0.5068500031484291, 0.4989000008208677, 0.481100010802038, 0.4889000119874254, 0.493799991090782, 0.4855499864788726, 0.4895500169368461, 0.4937499907100573, 0.5090500053483993, 0.48529998457524925, 0.4944499960402027, 0.487149998662062, 0.487299999804236, 0.4866499948548153, 0.4885499947704375, 0.4859500040765852, 0.49149998812936246, 0.48580000293441117, 0.49789999320637435, 0.490099992020987, 0.49399999261368066, 0.48264997894875705, 0.49700000090524554, 0.49350001791026443, 0.493649989948608, 0.48430000606458634, 0.6435500108636916, 0.5298500182107091, 0.6500500021502376, 0.49929998931474984, 0.5063500138930976, 0.4924500099150464, 0.4927500121993944, 0.49050000961869955, 0.48204998893197626, 0.4896500176982954, 0.502750015584752, 0.48749998677521944, 0.4855500010307878, 0.5033999914303422, 0.4878999898210168, 0.5025499995099381, 0.48684998182579875, 0.4884000081801787, 0.4890999844064936, 0.49334998766425997, 0.4897500039078295, 0.48984999011736363, 0.49730000318959355, 0.49760000547394156, 0.48624999180901796, 0.4915999888908118, 0.49464999756310135, 0.519749999511987, 0.4932000010740012, 0.48949998745229095, 0.5004999984521419, 0.49649998254608363, 0.49774999206420034, 0.4945000109728426, 0.49014999240171164, 0.4909000126644969, 0.5106500175315887, 0.4872000135947019, 0.48734998563304543, 0.4906499816570431, 0.4928999987896532, 0.4929999995511025, 0.4886999959126115, 0.4937000048812479, 0.5029500025557354, 0.48514998343307525, 0.5468500021379441, 0.5019000091124326, 0.491450002300553, 0.4830999969271943, 0.4911000141873956, 0.48144998436328024, 0.48745000094641, 0.4884000081801787, 0.49094999849330634, 0.4904999950667843, 0.48659999447409064, 0.4886499955318868, 0.47899999481160194, 0.4925499961245805, 0.48904999857768416, 0.48934998631011695, 0.4861000197706744, 0.49080001190304756, 0.4858999891439453, 0.4853999998886138, 0.487600002088584, 0.49479999870527536, 0.48874999629333615, 0.5133999948156998, 0.4947500128764659, 0.487750003230758, 0.4973500035703182, 0.4884000081801787, 0.49214999307878315, 0.48949998745229095, 0.49915000272449106, 0.4975000047124922, 0.49765000585466623, 0.4994999908376485, 0.4917999904137105, 0.48600000445730984, 0.4880499909631908, 0.5185499903745949, 0.4903499939246103, 0.49169998965226114, 0.4833999992115423, 0.4803500196430832, 0.4921999934595078, 0.4907999827992171, 0.4879999905824661, 0.483750001876615, 0.5425499984994531, 0.5024999991292134, 0.5972499930066988, 0.4971000162186101, 0.4865500086452812, 0.49360000411979854, 0.48940000124275684, 0.4882999783148989, 0.49500001478008926, 0.4836500156670809, 0.48815000627655536, 0.49745000433176756, 0.4940000071655959, 0.49560000479687005, 0.48925000010058284, 0.4948000132571906, 0.49325000145472586, 0.4833999992115423, 0.48615000559948385, 0.4889999981969595, 0.4926999972667545, 0.48585000331513584, 0.4848500102525577, 0.4859500040765852, 0.48639999295119196, 0.5115000094519928, 0.49140000191982836, 0.4821500042453408, 0.4926999827148393, 0.4888499970547855, 0.5256000149529427, 0.4929500137222931, 0.4846499941777438, 0.5026500002713874, 0.4837000014958903, 0.4802000185009092, 0.4844000068260357, 0.4891499847872183, 0.4947499983245507, 0.4912000003969297, 0.49094999849330634, 0.5041000113124028, 0.48775001778267324, 0.4922500083921477, 0.4777499852934852, 0.48889998288359493, 0.533949991222471, 0.5016500072088093, 0.4857500025536865, 0.488050005515106, 0.4891499993391335, 0.4935000033583492, 0.5014000053051859, 0.49140000191982836, 0.48755001625977457, 0.4938000056426972, 0.48424999113194644, 0.48484999570064247, 0.49265001143794507, 0.4972999886376783, 0.4896999889751896, 0.4907000111415982, 0.4954000032739714, 0.5079499969724566, 0.4881000058958307, 0.4957000055583194, 0.4943000094499439, 0.48644999333191663, 0.490549995447509, 0.4860500048380345, 0.49234999460168183, 0.49050000961869955, 0.4965999978594482, 0.48865001008380204, 0.48865001008380204, 0.49065001076087356, 0.48550000065006316, 0.5037999944761395, 0.48829999286681414, 0.4845500079682097, 0.4894500016234815, 0.48985000466927886, 0.49074999697040766, 0.48830000741872936, 0.48695001169107854, 0.48314998275600374, 0.49409999337513, 0.48904998402576894, 0.49330000183545053, 0.47429998812731355, 0.4858999891439453, 0.49569999100640416, 0.5355499888537452, 0.48665000940673053, 0.49044999468605965, 0.527299998793751, 0.5049000028520823, 0.4878499894402921, 0.4768499929923564, 0.49799997941590846, 0.49300001410301775, 0.4895000020042062, 0.49885000044014305, 0.4855500010307878, 0.4622999986167997, 0.5005000130040571, 0.48889999743551016, 0.47900000936351717, 0.49839999701362103, 0.484650008729659, 0.491150000016205, 0.4939500067848712, 0.481100010802038, 0.4954499891027808, 0.5073499924037606, 0.49774999206420034, 0.6206000107340515, 0.5926000012550503, 0.49140000191982836, 0.5032000044593588, 0.49414999375585467, 0.49819998093880713, 0.4944999818690121, 0.4847999953199178, 0.49119998584501445, 0.4812499973922968, 0.4838499880861491, 0.4823500057682395, 0.493649989948608, 0.4887500108452514, 0.4881000058958307, 0.4985000123269856, 0.497499990160577, 0.5056999943917617, 0.49509998643770814, 0.4845499788643792, 0.4870500124525279, 0.5109999910928309, 0.5040499818278477, 0.4897500039078295, 0.4867999959969893, 0.49485001363791525, 0.4850999976042658, 0.48940001579467207, 0.49184999079443514, 0.4957000055583194, 0.4917000187560916, 0.48949998745229095, 0.49155000306200236, 0.49304998537991196, 0.4928999987896532, 0.49920001765713096, 0.48359998618252575, 0.48239999159704894, 0.5062499985797331, 0.4910500138066709, 0.4895500169368461, 0.4910500138066709, 0.4977000062353909, 0.4972999886376783, 0.487600002088584, 0.4962999955751002, 0.5033000052208081, 0.49435000983066857, 0.4957000055583194, 0.48410000454168767, 0.49185000534635037, 0.49810000928118825, 0.484200005303137, 0.48409998998977244, 0.49014999240171164, 0.50149999151472, 0.49029999354388565, 0.48770000285003334, 0.5055500078015029, 0.48260000767186284, 0.4915000026812777, 0.4829499957850203, 0.4824999923584983, 0.49094999849330634, 0.4933500022161752, 0.5173500103410333, 0.6996500014793128, 0.5936499801464379, 0.4923999949824065, 0.496899985591881, 0.4882500070380047, 0.486849996377714, 0.4916500038234517, 0.493649989948608, 0.49474998377263546, 0.5301500204950571, 0.4843499918933958, 0.48815000627655536, 0.4886499955318868, 0.48785000399220735, 0.4881999921053648, 0.4867999959969893, 0.4920499923173338, 0.49774999206420034, 0.48955000238493085, 0.4988000000594184, 0.4872499994235113, 0.4862000059802085, 0.4950500006088987, 0.4888499970547855, 0.48680001054890454, 0.5072999920230359, 0.5204999761190265, 0.49789999320637435, 0.49035000847652555, 0.4848500102525577, 0.48630000674165785, 0.4932500160066411, 0.5008500011172146, 0.48534999950788915, 0.49589999252930284, 0.506450014654547, 0.47890000860206783, 0.486849996377714, 0.4993499896954745, 0.48504999722354114, 0.5063999851699919, 0.491300001158379, 0.5117500259075314, 0.5070999905001372, 0.5015999922761694, 0.5117999971844256, 0.5175499827601016, 0.5045500001870096, 0.4276999970898032, 0.5014500056859106, 0.5357499903766438, 0.4903000080958009, 0.484350006445311, 0.4858499887632206, 0.4959999932907522, 0.48380000225733966, 0.5162500019650906, 0.49294999917037785, 0.4883499932475388, 0.4853000136790797, 0.4921500076306984, 0.4842500056838617, 0.48334999883081764, 0.5035000067437068, 0.4899500054307282, 0.48674999561626464, 0.4870000120718032, 0.49470001249574125, 0.5025500140618533, 0.49154998851008713, 0.487900004372932, 0.48725001397542655, 0.48910001351032406, 0.5036999937146902, 0.4918000049656257, 0.49255001067649573, 0.49935001879930496, 0.49839999701362103, 0.49494998529553413, 0.4845999937970191, 0.5027999868616462, 0.4952500021317974, 0.5135000101290643, 0.48349999997299165, 0.48750000132713467, 0.48609999066684395, 0.48335001338273287, 0.49539998872205615, 0.5031000036979094, 0.49079999735113233, 0.49184999079443514, 0.6476999842561781, 0.5344999954104424, 0.4869499971391633, 0.48004998825490475, 0.4919500061077997, 0.4891499993391335, 0.49375000526197255, 0.48985000466927886, 0.4952500021317974, 0.4953499883413315, 0.494849999086, 0.48680001054890454, 0.48255000729113817, 0.4978499928256497, 0.48410000454168767, 0.48654999409336597, 0.48740000056568533, 0.509049990796484, 0.49745000433176756, 0.48394998884759843, 0.48919999971985817, 0.4968000139342621, 0.48684998182579875, 0.48504999722354114, 0.4817500011995435, 0.488050005515106, 0.4956499906256795, 0.5570499924942851, 0.49014999240171164, 0.5047500017099082, 0.4885500093223527, 0.4986499989172444, 0.4920000064885244, 0.497799992444925, 0.49840001156553626, 0.49879998550750315, 0.48084999434649944, 0.5001000099582598, 0.4784500051755458, 0.5852999893249944, 0.622450010268949, 0.4801500035682693, 0.49550001858733594, 0.4921000072499737, 0.5160000000614673, 0.4951499868184328, 0.500149981235154, 0.49264999688602984, 0.5054499924881384, 0.48609999066684395, 0.4995500057702884, 0.490249993163161, 0.48484999570064247, 0.4900499916402623, 0.49780000699684024, 0.4848500102525577, 0.48474999493919313, 0.4975500050932169, 0.49535001744516194, 0.4902500077150762, 0.4822999908355996, 0.49675001355353743, 0.4921999934595078, 0.49950000538956374, 0.48254999273922294, 0.4847999953199178, 0.5034500063629821, 0.4966000124113634, 0.4932999872835353, 0.484500007587485, 0.4879999905824661, 0.49860001308843493, 0.5021500110160559, 0.4862999921897426, 0.48580000293441117, 0.4948000132571906, 0.48824999248608947, 0.4925499961245805, 0.4936500045005232, 0.487750003230758, 0.4957000055583194, 0.5005499988328665, 0.5006999854231253, 0.4981500096619129, 0.48114999663084745, 0.5081999988760799, 0.49214999307878315, 0.4871500132139772, 0.4904000088572502, 0.4976999916834757, 0.5014500056859106, 0.49760000547394156, 0.49345000297762454, 0.48669999523554, 0.49839999701362103, 0.49294999917037785, 0.49140000191982836, 0.5394499894464388, 0.5056999943917617, 0.4954499891027808, 0.5052000051364303, 0.4955000040354207, 0.483750001876615, 0.48645000788383186, 0.4995499912183732, 0.47974998597055674, 0.4879999905824661, 0.5287499807309359, 0.49265001143794507, 0.4842500056838617, 0.48600000445730984, 0.4938999918522313, 0.5310999840730801, 0.5012000037822872, 0.4757999995490536, 0.4889499978162348, 0.49354998918715864, 0.49285001296084374, 0.490999998874031, 0.48735000018496066, 0.48704999790061265, 0.4817000008188188, 0.49065001076087356, 0.4838500026380643, 0.49390000640414655, 0.5110499914735556, 0.48899998364504427, 0.4964500112691894, 0.5055999936303124, 0.4919500061077997, 0.5109999910928309, 0.4828500095754862, 0.49035000847652555, 0.4925499961245805, 0.48919999971985817, 0.48504999722354114, 0.49504998605698347, 0.48760001664049923, 0.48195000272244215, 0.4851500125369057, 0.5000499950256199, 0.490849997731857, 0.4929999849991873, 0.48865001008380204, 0.49079999735113233, 0.5017500079702586, 0.4910500138066709, 0.48605001938994974, 0.48850000894162804, 0.4818499874090776, 0.5063999851699919, 0.524650007719174, 0.49554998986423016, 0.48570001672487706, 0.48180000158026814, 0.4936500045005232, 0.4884000081801787, 0.49479999870527536, 0.4889499832643196, 0.5044999852543697, 0.490849997731857, 0.4916500183753669, 0.49340000259689987, 0.4954000032739714, 0.4810499813174829, 0.48820000665728003, 0.4968000139342621, 0.48990000505000353, 0.48824999248608947, 0.4942499799653888, 0.48970000352710485, 0.48460000834893435, 0.48489999608136714, 0.4891499993391335, 0.4963500105077401, 0.48475000949110836, 0.4972000024281442, 0.4856500163441524, 0.4985999985365197, 0.5615499976556748, 0.48234999121632427, 0.4852499841945246, 0.4946499830111861, 0.4929500137222931, 0.4861499910475686, 0.48260000767186284, 0.5030000029364601, 0.49589999252930284, 0.48499999684281647, 0.4929999995511025, 0.49765000585466623, 0.494699997943826, 0.4988000146113336, 0.48755000170785934, 0.4877499886788428, 0.4926999972667545, 0.48889998288359493, 0.5035500216763467, 0.4930499999318272, 0.4924000095343217, 0.47554999764543027, 0.4930499999318272, 0.4926999972667545, 0.4926000110572204, 0.4850999976042658, 0.49429999489802867, 0.5241500039119273, 0.49989999388344586, 0.4818499874090776, 0.49730000318959355, 0.48505001177545637, 0.4922499938402325, 0.4840500187128782, 0.4895500169368461, 0.49520001630298793, 0.5034499918110669, 0.4926000110572204, 0.49095001304522157, 0.4977000062353909, 0.4975500196451321, 0.4889999981969595, 0.4981499951099977, 0.49510000098962337, 0.50230001215823, 0.4967499990016222, 0.5032000044593588, 0.4904000088572502, 0.4887999966740608, 0.4894500016234815, 0.48909999895840883, 0.4878999898210168, 0.490099992020987, 0.4921000072499737, 0.4811999970115721, 0.4853999998886138, 0.49464999756310135, 0.48160000005736947, 0.49140000191982836, 0.49724998825695366, 0.486849996377714, 0.48084999434649944, 0.4921999934595078, 0.48644999333191663, 0.48659999447409064, 0.5030999891459942, 0.49325000145472586, 0.4912500153295696, 0.49000000581145287, 0.5226500070421025, 0.49020000733435154, 0.49319998652208596, 0.5114999803481624, 0.49000000581145287, 0.4919500061077997, 0.4901000065729022, 0.49950000538956374, 0.5065999866928905, 0.4895499878330156, 0.502750015584752, 0.4847999953199178, 0.5059500108473003, 0.4850499826716259, 0.5033999914303422, 0.49914998817257583, 0.48204998893197626, 0.48499999684281647, 0.49334998766425997, 0.4844000068260357, 0.5258500168565661, 0.4989500012015924, 0.5050500039942563, 0.5953999934718013, 0.5209000082686543, 0.5682500050170347, 0.48400001833215356, 0.4910499992547557, 0.48910001351032406, 0.491300001158379, 0.4939500067848712, 0.4815499996766448, 0.5029999883845448, 0.4996000061510131, 0.4912999866064638, 0.498249995871447, 0.49500000022817403, 0.4965000116499141, 0.49494998529553413, 0.49375000526197255, 0.5122000002302229, 0.4921000072499737, 0.4783500044140965, 0.497949993587099],
  "Depth": 20.5,
  "Expectation Value": -9.2991943359375,
  "Optimal Expectation Value": -11.109565734863281,
  "Optimizer durations [ms]": [11.023, 10.952, 10.743, 10.519, 11.549, 10.729, 10.735, 10.602, 11.04, 10.44, 10.753, 10.906, 10.653, 10.435, 10.623, 10.675, 10.728, 10.582, 10.81, 10.507, 10.57, 10.832, 10.477, 10.915, 10.549, 10.526, 10.344, 10.566, 11.036, 10.812, 10.657, 10.799, 10.66, 10.751, 10.486, 10.775, 10.586, 11.029, 10.454, 10.752, 10.764, 10.79, 10.447, 13.245, 11.265, 10.88, 17.952, 10.824, 13.847, 11.697, 10.689, 11.172, 10.784, 12.351, 18.643, 10.668, 10.774, 10.617, 10.918, 10.597, 18.287, 10.774, 10.695, 10.763, 10.43, 10.415, 11.261, 27.43, 10.864, 10.679, 10.704, 10.964, 10.468, 10.872, 10.319, 11.06, 10.622, 10.866, 10.619, 10.615, 10.563, 10.862, 10.791, 10.783, 11.287, 10.805, 11.702, 10.786, 10.892, 10.805, 11.067, 10.793, 10.781, 10.55, 12.074, 10.444, 10.876, 10.855, 10.716, 10.562, 10.705, 10.563, 10.623, 10.591, 11.392, 10.46, 11.302, 10.779, 10.812, 10.621, 10.721, 10.746, 10.67, 10.627, 11.245, 10.675, 10.816, 10.802, 10.411, 10.692, 10.287, 10.665, 10.833, 10.622, 10.907, 10.441, 10.839, 10.61, 10.638, 10.728, 10.705, 10.361, 13.888, 16.697, 14.678, 11.137, 10.844, 10.907, 10.776, 10.738, 10.743, 10.684, 10.578, 10.531, 11.004, 11.058, 10.566, 11.097, 10.387, 10.964, 10.762, 10.584, 10.607, 10.764, 10.741, 10.842, 10.77, 10.768, 10.562, 11.297, 13.325, 10.56, 11.177, 10.67, 10.704, 10.853, 10.897, 10.527, 11.223, 10.67, 10.473, 11.101, 10.607, 10.714, 10.416, 10.907, 11.043, 10.666, 11.953, 10.783, 10.743, 10.573, 10.831, 10.52, 10.711, 10.72, 10.723, 10.301, 10.709, 10.944, 10.674, 10.498, 10.582, 10.377, 10.491, 10.957, 10.794, 10.634, 10.655, 10.653, 10.51, 10.906, 10.802, 10.648, 10.718, 10.703, 10.952, 10.357, 10.713, 11.044, 10.907, 11.017, 10.591, 10.867, 10.594, 11.211, 10.503, 10.662, 10.818, 10.734, 10.598, 10.544, 10.818, 10.612, 11.949, 21.633, 12.691, 10.948, 10.629, 11.009, 10.538, 10.939, 10.737, 10.674, 10.521, 11.119, 10.728, 10.962, 10.818, 10.665, 10.935, 10.435, 10.516, 11.012, 10.466, 10.665, 10.489, 10.901, 10.58, 11.077, 10.9, 10.423, 15.607, 11.358, 11.292, 10.69, 10.746, 10.833, 10.488, 10.697, 10.753, 10.521, 10.678, 10.722, 10.798, 10.594, 10.943, 10.656, 10.824, 10.808, 11.521, 11.0, 10.733, 10.674, 10.656, 10.712, 10.814, 10.818, 10.786, 11.104, 10.576, 10.92, 10.78, 10.71, 10.658, 10.753, 10.661, 10.918, 10.672, 10.61, 10.773, 10.848, 10.575, 11.04, 10.687, 10.635, 10.745, 10.907, 10.329, 10.686, 10.349, 10.728, 10.707, 10.691, 10.24, 11.048, 10.443, 10.89, 10.425, 10.759, 10.563, 10.776, 10.97, 10.53, 10.465, 10.599, 11.793, 10.721, 10.873, 11.222, 12.222, 10.688, 13.094, 10.481, 10.868, 10.777, 11.511, 10.537, 22.094, 11.256, 10.772, 10.607, 10.737, 10.971, 22.721, 10.486, 10.497, 11.014, 10.702, 10.79, 26.256, 12.707, 10.522, 11.032, 10.931, 10.618, 10.744, 10.496, 10.874, 10.475, 10.555, 10.931, 10.753, 10.769, 10.772, 10.867, 10.833, 11.249, 10.722, 10.892, 10.75, 11.594, 11.027, 10.631, 10.89, 11.059, 10.506, 10.818, 10.744, 10.65, 10.892, 10.757, 10.619, 10.631, 10.706, 10.684, 10.654, 10.895, 10.786, 11.19, 10.724, 10.775, 11.027, 10.607, 10.805, 10.737, 11.228, 10.77, 11.071, 10.421, 10.837, 11.031, 10.293, 10.648, 10.505, 10.859, 10.527, 10.688, 11.045, 10.526, 10.737, 10.88, 10.425, 11.084, 10.549, 11.981, 26.76, 13.144, 10.874, 10.579, 10.783, 10.387, 10.776, 10.661, 10.39, 11.38, 10.883, 10.472, 10.495, 10.687, 10.752, 10.587, 10.89, 10.632, 10.906, 10.889, 10.773, 10.541, 10.391, 10.669, 10.844, 11.335, 11.127, 11.311, 11.614, 10.806, 10.744, 10.814, 10.505, 10.514, 11.175, 11.003, 10.484, 10.269, 10.915, 10.741, 10.875, 10.58, 11.344, 10.978, 10.604, 11.405, 10.844, 10.938, 10.224, 11.054, 11.348, 10.712, 10.687, 10.764, 10.765, 10.593, 11.465, 10.811, 10.665, 10.806, 10.645, 10.481, 10.56, 10.824, 10.686, 10.501, 10.604, 10.567, 11.286, 10.732, 10.809, 10.448, 10.519, 10.911, 10.612, 10.601, 10.998, 10.698, 10.529, 11.031, 10.802, 10.884, 10.901, 10.595, 10.746, 10.789, 10.82, 10.51, 10.925, 10.678, 11.06, 13.647, 24.134, 10.411, 10.571, 10.85, 10.759, 10.614, 10.58, 10.789, 10.494, 10.766, 11.047, 10.763, 10.72, 10.519, 10.623, 10.948, 10.901, 10.796, 12.828, 10.308, 11.065, 10.631, 10.812, 10.735, 10.57, 10.967, 12.105, 10.56, 10.769, 10.376, 10.736, 10.706, 10.908, 11.313, 10.709, 10.676, 10.793, 10.476, 14.649, 15.062, 15.991, 10.765, 10.604, 11.363, 10.726, 10.76, 10.522, 11.079, 10.881, 10.787, 10.668, 10.423, 10.445, 10.936, 10.658, 10.383, 11.362, 10.52, 10.748, 10.541, 10.834, 10.378, 10.924, 10.78, 10.467, 11.091, 10.768, 10.814, 10.916, 10.87, 10.457, 11.072, 10.652, 10.67, 11.14, 10.604, 10.923, 10.671, 10.54, 10.851, 10.659, 10.963, 10.564, 10.544, 11.088, 10.669, 10.757, 10.927, 11.122, 10.89, 12.403, 11.079, 10.831, 15.525, 10.782, 13.461, 11.747, 10.889, 10.664, 11.009, 10.584, 22.286, 10.66, 10.635, 10.901, 11.406, 11.496, 20.119, 10.753, 10.543, 11.836, 11.512, 10.903, 25.102, 17.23, 11.037, 10.88, 10.847, 10.51, 10.862, 10.785, 10.574, 10.747, 10.639, 10.987, 10.524, 11.128, 10.974, 10.656, 11.149, 10.811, 10.687, 10.681, 10.553, 10.523, 10.673, 10.924, 10.702, 10.589, 10.697, 10.676, 10.737, 10.557, 10.88, 10.825, 10.747, 10.477, 10.398, 10.657, 10.739, 11.494, 10.861, 10.222, 10.388, 11.038, 10.673, 10.902, 10.44, 10.847, 10.647, 10.901, 10.645, 10.796, 10.358, 10.794, 10.65, 10.554, 10.923, 10.743, 10.814, 10.413, 10.982, 10.572, 10.765, 10.834, 10.382, 10.796, 11.146, 11.68, 26.968, 10.96, 10.614, 10.698, 10.685, 10.613, 10.953, 10.457, 10.62, 10.751, 10.988, 10.838, 10.64, 10.731, 10.662, 10.863, 10.723, 10.49, 11.059, 10.777, 10.555, 10.573, 10.925, 10.666, 10.819, 10.599, 11.422, 11.903, 10.838, 10.781, 10.502, 10.664, 10.445, 10.802, 10.729, 10.863, 11.015, 10.448, 10.986, 10.743, 10.62, 10.969, 11.026, 10.477, 11.147, 10.677, 10.667, 10.491, 10.852, 10.624, 10.81, 10.829, 10.718, 10.751, 10.507, 10.84, 10.552, 10.478, 10.956, 10.715, 10.597, 10.828, 10.799, 10.233, 11.03, 10.653, 10.732, 10.716, 11.567, 10.531, 10.926, 10.904, 10.918, 10.48, 10.595, 10.95, 11.065, 10.945, 10.954, 10.525, 10.682, 10.766, 10.831, 10.767, 10.679, 10.666, 11.041, 10.276, 11.369, 10.619, 10.704, 13.175, 24.473, 12.538, 10.325, 10.564, 10.771, 10.966, 10.887, 10.657, 10.759, 10.87, 10.824, 10.904, 10.355, 11.165, 10.732, 10.775, 10.979, 10.807, 10.669, 10.639],
  "Optimizer iterations": 789,
  "Optimizer params": [0.42835466948676443, 0.9364578903233958, 0.05631567817550689, 0.9928269629685568, 0.056505345137083114, 0.3620978768790165, 0.08035966047636821, 0.9998736854527915, 0.9570695152678776, 0.3637359662239079, 0.9527491785825258, 0.3486513214624696, 0.9601683151220527, 0.5173784238551501, 0.26682585406734977, 0.3391209773474777, 0.42247105553577485, 0.16095070727457703, 0.5353538252123203, 0.4592238509393185, 0.9494223521027149, 0.056834144660638686, 0.006500172628041737, 0.8321927172002402, 0.4863019966756028, 0.9734796538317044, 0.0663499982024027, 0.41904121395564525, 0.9632591396560835, 0.06289663031166759, 0.573424751653553, 0.2539869477196306, 0.7770407593777433, 0.5450210423963945, 0.6245167183555533, 0.9394601294379806],
  "P": 0,
  "Problem": "IC",
  "QJob durations [ms]": [0.49974999274127185, 0.5082499847048894, 0.4975500196451321, 0.48234999121632427, 0.5005999992135912, 0.4873000143561512, 0.4913500160910189, 0.49640001088846475, 0.5037999944761395, 0.4915000026812777, 0.48904999857768416, 0.5038499948568642, 0.4833000130020082, 0.48594998952466995, 0.5041500116931275, 0.4886499809799716, 0.5092999781481922, 0.49255001067649573, 0.49235000915359706, 0.4937000048812479, 0.48564998724032193, 0.49515001592226326, 0.4851499979849905, 0.480200003948994, 0.4905500099994242, 0.4867000097874552, 0.4865500086452812, 0.49494999984744936, 0.5088500038255006, 0.49020000733435154, 0.49154998851008713, 0.5002500111004338, 0.49539998872205615, 0.4893500154139474, 0.490999998874031, 0.48645000788383186, 0.48380000225733966, 0.5004500126233324, 0.49089999811258167, 0.4881999921053648, 0.48245000652968884, 0.4869499971391633, 0.48919999971985817, 0.6021499866619706, 0.5020499811507761, 0.4988000146113336, 0.4837500164285302, 0.49264999688602984, 0.49050000961869955, 0.524050003150478, 0.48689999675843865, 0.5138000124134123, 0.49965000653173774, 0.579350016778335, 0.4732999950647354, 0.5018999800086021, 0.4877499886788428, 0.4879999905824661, 0.48919999971985817, 0.4824999923584983, 0.5076999950688332, 0.49095001304522157, 0.48645000788383186, 0.5014000053051859, 0.4786999925272539, 0.493949992232956, 0.513850012794137, 0.6163500074762851, 0.4980500089004636, 0.49569999100640416, 0.4893999866908416, 0.491450002300553, 0.4898000042885542, 0.49014999240171164, 0.48820000665728003, 0.5047999875387177, 0.48160000005736947, 0.48785000399220735, 0.4850999976042658, 0.49199999193660915, 0.48674999561626464, 0.4929499846184626, 0.49199999193660915, 0.4962499806424603, 0.5175499827601016, 0.4848500102525577, 0.535150000359863, 0.4898000042885542, 0.5040000251028687, 0.4932000010740012, 0.49914998817257583, 0.49190000572707504, 0.48990000505000353, 0.491150000016205, 0.5047000158810988, 0.49175000458490103, 0.49270001181866974, 0.4855499864788726, 0.49569999100640416, 0.4859000036958605, 0.4892999859293923, 0.4922499938402325, 0.4763000179082155, 0.49160000344272703, 0.519449997227639, 0.48899998364504427, 0.5068500031484291, 0.4989000008208677, 0.481100010802038, 0.4889000119874254, 0.493799991090782, 0.4855499864788726, 0.4895500169368461, 0.4937499907100573, 0.5090500053483993, 0.48529998457524925, 0.4944499960402027, 0.487149998662062, 0.487299999804236, 0.4866499948548153, 0.4885499947704375, 0.4859500040765852, 0.49149998812936246, 0.48580000293441117, 0.49789999320637435, 0.490099992020987, 0.49399999261368066, 0.48264997894875705, 0.49700000090524554, 0.49350001791026443, 0.493649989948608, 0.48430000606458634, 0.6435500108636916, 0.5298500182107091, 0.6500500021502376, 0.49929998931474984, 0.5063500138930976, 0.4924500099150464, 0.4927500121993944, 0.49050000961869955, 0.48204998893197626, 0.4896500176982954, 0.502750015584752, 0.48749998677521944, 0.4855500010307878, 0.5033999914303422, 0.4878999898210168, 0.5025499995099381, 0.48684998182579875, 0.4884000081801787, 0.4890999844064936, 0.49334998766425997, 0.4897500039078295, 0.48984999011736363, 0.49730000318959355, 0.49760000547394156, 0.48624999180901796, 0.4915999888908118, 0.49464999756310135, 0.519749999511987, 0.4932000010740012, 0.48949998745229095, 0.5004999984521419, 0.49649998254608363, 0.49774999206420034, 0.4945000109728426, 0.49014999240171164, 0.4909000126644969, 0.5106500175315887, 0.4872000135947019, 0.48734998563304543, 0.4906499816570431, 0.4928999987896532, 0.4929999995511025, 0.4886999959126115, 0.4937000048812479, 0.5029500025557354, 0.48514998343307525, 0.5468500021379441, 0.5019000091124326, 0.491450002300553, 0.4830999969271943, 0.4911000141873956, 0.48144998436328024, 0.48745000094641, 0.4884000081801787, 0.49094999849330634, 0.4904999950667843, 0.48659999447409064, 0.4886499955318868, 0.47899999481160194, 0.4925499961245805, 0.48904999857768416, 0.48934998631011695, 0.4861000197706744, 0.49080001190304756, 0.4858999891439453, 0.4853999998886138, 0.487600002088584, 0.49479999870527536, 0.48874999629333615, 0.5133999948156998, 0.4947500128764659, 0.487750003230758, 0.4973500035703182, 0.4884000081801787, 0.49214999307878315, 0.48949998745229095, 0.49915000272449106, 0.4975000047124922, 0.49765000585466623, 0.4994999908376485, 0.4917999904137105, 0.48600000445730984, 0.4880499909631908, 0.5185499903745949, 0.4903499939246103, 0.49169998965226114, 0.4833999992115423, 0.4803500196430832, 0.4921999934595078, 0.4907999827992171, 0.4879999905824661, 0.483750001876615, 0.5425499984994531, 0.5024999991292134, 0.5972499930066988, 0.4971000162186101, 0.4865500086452812, 0.49360000411979854, 0.48940000124275684, 0.4882999783148989, 0.49500001478008926, 0.4836500156670809, 0.48815000627655536, 0.49745000433176756, 0.4940000071655959, 0.49560000479687005, 0.48925000010058284, 0.4948000132571906, 0.49325000145472586, 0.4833999992115423, 0.48615000559948385, 0.4889999981969595, 0.4926999972667545, 0.48585000331513584, 0.4848500102525577, 0.4859500040765852, 0.48639999295119196, 0.5115000094519928, 0.49140000191982836, 0.4821500042453408, 0.4926999827148393, 0.4888499970547855, 0.5256000149529427, 0.4929500137222931, 0.4846499941777438, 0.5026500002713874, 0.4837000014958903, 0.4802000185009092, 0.4844000068260357, 0.4891499847872183, 0.4947499983245507, 0.4912000003969297, 0.49094999849330634, 0.5041000113124028, 0.48775001778267324, 0.4922500083921477, 0.4777499852934852, 0.48889998288359493, 0.533949991222471, 0.5016500072088093, 0.4857500025536865, 0.488050005515106, 0.4891499993391335, 0.4935000033583492, 0.5014000053051859, 0.49140000191982836, 0.48755001625977457, 0.4938000056426972, 0.48424999113194644, 0.48484999570064247, 0.49265001143794507, 0.4972999886376783, 0.4896999889751896, 0.4907000111415982, 0.4954000032739714, 0.5079499969724566, 0.4881000058958307, 0.4957000055583194, 0.4943000094499439, 0.48644999333191663, 0.490549995447509, 0.4860500048380345, 0.49234999460168183, 0.49050000961869955, 0.4965999978594482, 0.48865001008380204, 0.48865001008380204, 0.49065001076087356, 0.48550000065006316, 0.5037999944761395, 0.48829999286681414, 0.4845500079682097, 0.4894500016234815, 0.48985000466927886, 0.49074999697040766, 0.48830000741872936, 0.48695001169107854, 0.48314998275600374, 0.49409999337513, 0.48904998402576894, 0.49330000183545053, 0.47429998812731355, 0.4858999891439453, 0.49569999100640416, 0.5355499888537452, 0.48665000940673053, 0.49044999468605965, 0.527299998793751, 0.5049000028520823, 0.4878499894402921, 0.4768499929923564, 0.49799997941590846, 0.49300001410301775, 0.4895000020042062, 0.49885000044014305, 0.4855500010307878, 0.4622999986167997, 0.5005000130040571, 0.48889999743551016, 0.47900000936351717, 0.49839999701362103, 0.484650008729659, 0.491150000016205, 0.4939500067848712, 0.481100010802038, 0.4954499891027808, 0.5073499924037606, 0.49774999206420034, 0.6206000107340515, 0.5926000012550503, 0.49140000191982836, 0.5032000044593588, 0.49414999375585467, 0.49819998093880713, 0.4944999818690121, 0.4847999953199178, 0.49119998584501445, 0.4812499973922968, 0.4838499880861491, 0.4823500057682395, 0.493649989948608, 0.4887500108452514, 0.4881000058958307, 0.4985000123269856, 0.497499990160577, 0.5056999943917617, 0.49509998643770814, 0.4845499788643792, 0.4870500124525279, 0.5109999910928309, 0.5040499818278477, 0.4897500039078295, 0.4867999959969893, 0.49485001363791525, 0.4850999976042658, 0.48940001579467207, 0.49184999079443514, 0.4957000055583194, 0.4917000187560916, 0.48949998745229095, 0.49155000306200236, 0.49304998537991196, 0.4928999987896532, 0.49920001765713096, 0.48359998618252575, 0.48239999159704894, 0.5062499985797331, 0.4910500138066709, 0.4895500169368461, 0.4910500138066709, 0.4977000062353909, 0.4972999886376783, 0.487600002088584, 0.4962999955751002, 0.5033000052208081, 0.49435000983066857, 0.4957000055583194, 0.48410000454168767, 0.49185000534635037, 0.49810000928118825, 0.484200005303137, 0.48409998998977244, 0.49014999240171164, 0.50149999151472, 0.49029999354388565, 0.48770000285003334, 0.5055500078015029, 0.48260000767186284, 0.4915000026812777, 0.4829499957850203, 0.4824999923584983, 0.49094999849330634, 0.4933500022161752, 0.5173500103410333, 0.6996500014793128, 0.5936499801464379, 0.4923999949824065, 0.496899985591881, 0.4882500070380047, 0.486849996377714, 0.4916500038234517, 0.493649989948608, 0.49474998377263546, 0.5301500204950571, 0.4843499918933958, 0.48815000627655536, 0.4886499955318868, 0.48785000399220735, 0.4881999921053648, 0.4867999959969893, 0.4920499923173338, 0.49774999206420034, 0.48955000238493085, 0.4988000000594184, 0.4872499994235113, 0.4862000059802085, 0.4950500006088987, 0.4888499970547855, 0.48680001054890454, 0.5072999920230359, 0.5204999761190265, 0.49789999320637435, 0.49035000847652555, 0.4848500102525577, 0.48630000674165785, 0.4932500160066411, 0.5008500011172146, 0.48534999950788915, 0.49589999252930284, 0.506450014654547, 0.47890000860206783, 0.486849996377714, 0.4993499896954745, 0.48504999722354114, 0.5063999851699919, 0.491300001158379, 0.5117500259075314, 0.5070999905001372, 0.5015999922761694, 0.5117999971844256, 0.5175499827601016, 0.5045500001870096, 0.4276999970898032, 0.5014500056859106, 0.5357499903766438, 0.4903000080958009, 0.484350006445311, 0.4858499887632206, 0.4959999932907522, 0.48380000225733966, 0.5162500019650906, 0.49294999917037785, 0.4883499932475388, 0.4853000136790797, 0.4921500076306984, 0.4842500056838617, 0.48334999883081764, 0.5035000067437068, 0.4899500054307282, 0.48674999561626464, 0.4870000120718032, 0.49470001249574125, 0.5025500140618533, 0.49154998851008713, 0.487900004372932, 0.48725001397542655, 0.48910001351032406, 0.5036999937146902, 0.4918000049656257, 0.49255001067649573, 0.49935001879930496, 0.49839999701362103, 0.49494998529553413, 0.4845999937970191, 0.5027999868616462, 0.4952500021317974, 0.5135000101290643, 0.48349999997299165, 0.48750000132713467, 0.48609999066684395, 0.48335001338273287, 0.49539998872205615, 0.5031000036979094, 0.49079999735113233, 0.49184999079443514, 0.6476999842561781, 0.5344999954104424, 0.4869499971391633, 0.48004998825490475, 0.4919500061077997, 0.4891499993391335, 0.49375000526197255, 0.48985000466927886, 0.4952500021317974, 0.4953499883413315, 0.494849999086, 0.48680001054890454, 0.48255000729113817, 0.4978499928256497, 0.48410000454168767, 0.48654999409336597, 0.48740000056568533, 0.509049990796484, 0.49745000433176756, 0.48394998884759843, 0.48919999971985817, 0.4968000139342621, 0.48684998182579875, 0.48504999722354114, 0.4817500011995435, 0.488050005515106, 0.4956499906256795, 0.5570499924942851, 0.49014999240171164, 0.5047500017099082, 0.4885500093223527, 0.4986499989172444, 0.4920000064885244, 0.497799992444925, 0.49840001156553626, 0.49879998550750315, 0.48084999434649944, 0.5001000099582598, 0.4784500051755458, 0.5852999893249944, 0.622450010268949, 0.4801500035682693, 0.49550001858733594, 0.4921000072499737, 0.5160000000614673, 0.4951499868184328, 0.500149981235154, 0.49264999688602984, 0.5054499924881384, 0.48609999066684395, 0.4995500057702884, 0.490249993163161, 0.48484999570064247, 0.4900499916402623, 0.49780000699684024, 0.4848500102525577, 0.48474999493919313, 0.4975500050932169, 0.49535001744516194, 0.4902500077150762, 0.4822999908355996, 0.49675001355353743, 0.4921999934595078, 0.49950000538956374, 0.48254999273922294, 0.4847999953199178, 0.5034500063629821, 0.4966000124113634, 0.4932999872835353, 0.484500007587485, 0.4879999905824661, 0.49860001308843493, 0.5021500110160559, 0.4862999921897426, 0.48580000293441117, 0.4948000132571906, 0.48824999248608947, 0.4925499961245805, 0.4936500045005232, 0.487750003230758, 0.4957000055583194, 0.5005499988328665, 0.5006999854231253, 0.4981500096619129, 0.48114999663084745, 0.5081999988760799, 0.49214999307878315, 0.4871500132139772, 0.4904000088572502, 0.4976999916834757, 0.5014500056859106, 0.49760000547394156, 0.49345000297762454, 0.48669999523554, 0.49839999701362103, 0.49294999917037785, 0.49140000191982836, 0.5394499894464388, 0.5056999943917617, 0.4954499891027808, 0.5052000051364303, 0.4955000040354207, 0.483750001876615, 0.48645000788383186, 0.4995499912183732, 0.47974998597055674, 0.4879999905824661, 0.5287499807309359, 0.49265001143794507, 0.4842500056838617, 0.48600000445730984, 0.4938999918522313, 0.5310999840730801, 0.5012000037822872, 0.4757999995490536, 0.4889499978162348, 0.49354998918715864, 0.49285001296084374, 0.490999998874031, 0.48735000018496066, 0.48704999790061265, 0.4817000008188188, 0.49065001076087356, 0.4838500026380643, 0.49390000640414655, 0.5110499914735556, 0.48899998364504427, 0.4964500112691894, 0.5055999936303124, 0.4919500061077997, 0.5109999910928309, 0.4828500095754862, 0.49035000847652555, 0.4925499961245805, 0.48919999971985817, 0.48504999722354114, 0.49504998605698347, 0.48760001664049923, 0.48195000272244215, 0.4851500125369057, 0.5000499950256199, 0.490849997731857, 0.4929999849991873, 0.48865001008380204, 0.49079999735113233, 0.5017500079702586, 0.4910500138066709, 0.48605001938994974, 0.48850000894162804, 0.4818499874090776, 0.5063999851699919, 0.524650007719174, 0.49554998986423016, 0.48570001672487706, 0.48180000158026814, 0.4936500045005232, 0.4884000081801787, 0.49479999870527536, 0.4889499832643196, 0.5044999852543697, 0.490849997731857, 0.4916500183753669, 0.49340000259689987, 0.4954000032739714, 0.4810499813174829, 0.48820000665728003, 0.4968000139342621, 0.48990000505000353, 0.48824999248608947, 0.4942499799653888, 0.48970000352710485, 0.48460000834893435, 0.48489999608136714, 0.4891499993391335, 0.4963500105077401, 0.48475000949110836, 0.4972000024281442, 0.4856500163441524, 0.4985999985365197, 0.5615499976556748, 0.48234999121632427, 0.4852499841945246, 0.4946499830111861, 0.4929500137222931, 0.4861499910475686, 0.48260000767186284, 0.5030000029364601, 0.49589999252930284, 0.48499999684281647, 0.4929999995511025, 0.49765000585466623, 0.494699997943826, 0.4988000146113336, 0.48755000170785934, 0.4877499886788428, 0.4926999972667545, 0.48889998288359493, 0.5035500216763467, 0.4930499999318272, 0.4924000095343217, 0.47554999764543027, 0.4930499999318272, 0.4926999972667545, 0.4926000110572204, 0.4850999976042658, 0.49429999489802867, 0.5241500039119273, 0.49989999388344586, 0.4818499874090776, 0.49730000318959355, 0.48505001177545637, 0.4922499938402325, 0.4840500187128782, 0.4895500169368461, 0.49520001630298793, 0.5034499918110669, 0.4926000110572204, 0.49095001304522157, 0.4977000062353909, 0.4975500196451321, 0.4889999981969595, 0.4981499951099977, 0.49510000098962337, 0.50230001215823, 0.4967499990016222, 0.5032000044593588, 0.4904000088572502, 0.4887999966740608, 0.4894500016234815, 0.48909999895840883, 0.4878999898210168, 0.490099992020987, 0.4921000072499737, 0.4811999970115721, 0.4853999998886138, 0.49464999756310135, 0.48160000005736947, 0.49140000191982836, 0.49724998825695366, 0.486849996377714, 0.48084999434649944, 0.4921999934595078, 0.48644999333191663, 0.48659999447409064, 0.5030999891459942, 0.49325000145472586, 0.4912500153295696, 0.49000000581145287, 0.5226500070421025, 0.49020000733435154, 0.49319998652208596, 0.5114999803481624, 0.49000000581145287, 0.4919500061077997, 0.4901000065729022, 0.49950000538956374, 0.5065999866928905, 0.4895499878330156, 0.502750015584752, 0.4847999953199178, 0.5059500108473003, 0.4850499826716259, 0.5033999914303422, 0.49914998817257583, 0.48204998893197626, 0.48499999684281647, 0.49334998766425997, 0.4844000068260357, 0.5258500168565661, 0.4989500012015924, 0.5050500039942563, 0.5953999934718013, 0.5209000082686543, 0.5682500050170347, 0.48400001833215356, 0.4910499992547557, 0.48910001351032406, 0.491300001158379, 0.4939500067848712, 0.4815499996766448, 0.5029999883845448, 0.4996000061510131, 0.4912999866064638, 0.498249995871447, 0.49500000022817403, 0.4965000116499141, 0.49494998529553413, 0.49375000526197255, 0.5122000002302229, 0.4921000072499737, 0.4783500044140965, 0.497949993587099],
  "QPU": "7000000",
  "Qubits": 9,
  "Queue durations [ms]": [0.0, 0.0, 0.0, 0.0, 0.0, 0.0, 0.0, 0.0, 0.0, 0.0, 0.0, 0.0, 0.0, 0.0, 0.0, 0.0, 0.0, 0.0, 0.0, 0.0, 0.0, 0.0, 0.0, 0.0, 0.0, 0.0, 0.0, 0.0, 0.0, 0.0, 0.0, 0.0, 0.0, 0.0, 0.0, 0.0, 0.0, 0.0, 0.0, 0.0, 0.0, 0.0, 0.0, 0.0, 0.0, 0.0, 0.0, 0.0, 0.0, 0.0, 0.0, 0.0, 0.0, 0.0, 0.0, 0.0, 0.0, 0.0, 0.0, 0.0, 0.0, 0.0, 0.0, 0.0, 0.0, 0.0, 0.0, 0.0, 0.0, 0.0, 0.0, 0.0, 0.0, 0.0, 0.0, 0.0, 0.0, 0.0, 0.0, 0.0, 0.0, 0.0, 0.0, 0.0, 0.0, 0.0, 0.0, 0.0, 0.0, 0.0, 0.0, 0.0, 0.0, 0.0, 0.0, 0.0, 0.0, 0.0, 0.0, 0.0, 0.0, 0.0, 0.0, 0.0, 0.0, 0.0, 0.0, 0.0, 0.0, 0.0, 0.0, 0.0, 0.0, 0.0, 0.0, 0.0, 0.0, 0.0, 0.0, 0.0, 0.0, 0.0, 0.0, 0.0, 0.0, 0.0, 0.0, 0.0, 0.0, 0.0, 0.0, 0.0, 0.0, 0.0, 0.0, 0.0, 0.0, 0.0, 0.0, 0.0, 0.0, 0.0, 0.0, 0.0, 0.0, 0.0, 0.0, 0.0, 0.0, 0.0, 0.0, 0.0, 0.0, 0.0, 0.0, 0.0, 0.0, 0.0, 0.0, 0.0, 0.0, 0.0, 0.0, 0.0, 0.0, 0.0, 0.0, 0.0, 0.0, 0.0, 0.0, 0.0, 0.0, 0.0, 0.0, 0.0, 0.0, 0.0, 0.0, 0.0, 0.0, 0.0, 0.0, 0.0, 0.0, 0.0, 0.0, 0.0, 0.0, 0.0, 0.0, 0.0, 0.0, 0.0, 0.0, 0.0, 0.0, 0.0, 0.0, 0.0, 0.0, 0.0, 0.0, 0.0, 0.0, 0.0, 0.0, 0.0, 0.0, 0.0, 0.0, 0.0, 0.0, 0.0, 0.0, 0.0, 0.0, 0.0, 0.0, 0.0, 0.0, 0.0, 0.0, 0.0, 0.0, 0.0, 0.0, 0.0, 0.0, 0.0, 0.0, 0.0, 0.0, 0.0, 0.0, 0.0, 0.0, 0.0, 0.0, 0.0, 0.0, 0.0, 0.0, 0.0, 0.0, 0.0, 0.0, 0.0, 0.0, 0.0, 0.0, 0.0, 0.0, 0.0, 0.0, 0.0, 0.0, 0.0, 0.0, 0.0, 0.0, 0.0, 0.0, 0.0, 0.0, 0.0, 0.0, 0.0, 0.0, 0.0, 0.0, 0.0, 0.0, 0.0, 0.0, 0.0, 0.0, 0.0, 0.0, 0.0, 0.0, 0.0, 0.0, 0.0, 0.0, 0.0, 0.0, 0.0, 0.0, 0.0, 0.0, 0.0, 0.0, 0.0, 0.0, 0.0, 0.0, 0.0, 0.0, 0.0, 0.0, 0.0, 0.0, 0.0, 0.0, 0.0, 0.0, 0.0, 0.0, 0.0, 0.0, 0.0, 0.0, 0.0, 0.0, 0.0, 0.0, 0.0, 0.0, 0.0, 0.0, 0.0, 0.0, 0.0, 0.0, 0.0, 0.0, 0.0, 0.0, 0.0, 0.0, 0.0, 0.0, 0.0, 0.0, 0.0, 0.0, 0.0, 0.0, 0.0, 0.0, 0.0, 0.0, 0.0, 0.0, 0.0, 0.0, 0.0, 0.0, 0.0, 0.0, 0.0, 0.0, 0.0, 0.0, 0.0, 0.0, 0.0, 0.0, 0.0, 0.0, 0.0, 0.0, 0.0, 0.0, 0.0, 0.0, 0.0, 0.0, 0.0, 0.0, 0.0, 0.0, 0.0, 0.0, 0.0, 0.0, 0.0, 0.0, 0.0, 0.0, 0.0, 0.0, 0.0, 0.0, 0.0, 0.0, 0.0, 0.0, 0.0, 0.0, 0.0, 0.0, 0.0, 0.0, 0.0, 0.0, 0.0, 0.0, 0.0, 0.0, 0.0, 0.0, 0.0, 0.0, 0.0, 0.0, 0.0, 0.0, 0.0, 0.0, 0.0, 0.0, 0.0, 0.0, 0.0, 0.0, 0.0, 0.0, 0.0, 0.0, 0.0, 0.0, 0.0, 0.0, 0.0, 0.0, 0.0, 0.0, 0.0, 0.0, 0.0, 0.0, 0.0, 0.0, 0.0, 0.0, 0.0, 0.0, 0.0, 0.0, 0.0, 0.0, 0.0, 0.0, 0.0, 0.0, 0.0, 0.0, 0.0, 0.0, 0.0, 0.0, 0.0, 0.0, 0.0, 0.0, 0.0, 0.0, 0.0, 0.0, 0.0, 0.0, 0.0, 0.0, 0.0, 0.0, 0.0, 0.0, 0.0, 0.0, 0.0, 0.0, 0.0, 0.0, 0.0, 0.0, 0.0, 0.0, 0.0, 0.0, 0.0, 0.0, 0.0, 0.0, 0.0, 0.0, 0.0, 0.0, 0.0, 0.0, 0.0, 0.0, 0.0, 0.0, 0.0, 0.0, 0.0, 0.0, 0.0, 0.0, 0.0, 0.0, 0.0, 0.0, 0.0, 0.0, 0.0, 0.0, 0.0, 0.0, 0.0, 0.0, 0.0, 0.0, 0.0, 0.0, 0.0, 0.0, 0.0, 0.0, 0.0, 0.0, 0.0, 0.0, 0.0, 0.0, 0.0, 0.0, 0.0, 0.0, 0.0, 0.0, 0.0, 0.0, 0.0, 0.0, 0.0, 0.0, 0.0, 0.0, 0.0, 0.0, 0.0, 0.0, 0.0, 0.0, 0.0, 0.0, 0.0, 0.0, 0.0, 0.0, 0.0, 0.0, 0.0, 0.0, 0.0, 0.0, 0.0, 0.0, 0.0, 0.0, 0.0, 0.0, 0.0, 0.0, 0.0, 0.0, 0.0, 0.0, 0.0, 0.0, 0.0, 0.0, 0.0, 0.0, 0.0, 0.0, 0.0, 0.0, 0.0, 0.0, 0.0, 0.0, 0.0, 0.0, 0.0, 0.0, 0.0, 0.0, 0.0, 0.0, 0.0, 0.0, 0.0, 0.0, 0.0, 0.0, 0.0, 0.0, 0.0, 0.0, 0.0, 0.0, 0.0, 0.0, 0.0, 0.0, 0.0, 0.0, 0.0, 0.0, 0.0, 0.0, 0.0, 0.0, 0.0, 0.0, 0.0, 0.0, 0.0, 0.0, 0.0, 0.0, 0.0, 0.0, 0.0, 0.0, 0.0, 0.0, 0.0, 0.0, 0.0, 0.0, 0.0, 0.0, 0.0, 0.0, 0.0, 0.0, 0.0, 0.0, 0.0, 0.0, 0.0, 0.0, 0.0, 0.0, 0.0, 0.0, 0.0, 0.0, 0.0, 0.0, 0.0, 0.0, 0.0, 0.0, 0.0, 0.0, 0.0, 0.0, 0.0, 0.0, 0.0, 0.0, 0.0, 0.0, 0.0, 0.0, 0.0, 0.0, 0.0, 0.0, 0.0, 0.0, 0.0, 0.0, 0.0, 0.0, 0.0, 0.0, 0.0, 0.0, 0.0, 0.0, 0.0, 0.0, 0.0, 0.0, 0.0, 0.0, 0.0, 0.0, 0.0, 0.0, 0.0, 0.0, 0.0, 0.0, 0.0, 0.0, 0.0, 0.0, 0.0, 0.0, 0.0, 0.0, 0.0, 0.0, 0.0, 0.0, 0.0, 0.0, 0.0, 0.0, 0.0, 0.0, 0.0, 0.0, 0.0, 0.0, 0.0, 0.0, 0.0, 0.0, 0.0, 0.0, 0.0, 0.0, 0.0, 0.0, 0.0, 0.0, 0.0, 0.0, 0.0, 0.0, 0.0, 0.0, 0.0, 0.0, 0.0, 0.0, 0.0, 0.0, 0.0, 0.0, 0.0, 0.0, 0.0, 0.0, 0.0, 0.0, 0.0, 0.0, 0.0, 0.0, 0.0, 0.0, 0.0, 0.0, 0.0, 0.0, 0.0, 0.0, 0.0, 0.0, 0.0, 0.0, 0.0, 0.0, 0.0, 0.0, 0.0, 0.0, 0.0, 0.0, 0.0, 0.0, 0.0, 0.0, 0.0, 0.0, 0.0, 0.0, 0.0, 0.0],
  "Shots": 4096,
  "Size": 9,
  "Total Algorithm duration [s]": 8.762,
  "Total Classic duration [s]": 8.370923449952272,
  "Total Quantum duration [s]": 0.39107655004772823
}
