{
  "Circuit execution durations [ms]": [0.5066500161774457, 0.4955500044161454, 0.49875001423060894, 0.4919500061077997, 0.5058499955339357, 0.49524998757988214, 0.4962000093655661, 0.49425000906921923, 0.5039499956183136, 0.4916500183753669, 0.4826499935006723, 0.49064999620895833, 0.4952000017510727, 0.4953500028932467, 0.4922500083921477, 0.5169000069145113, 0.4959999932907522, 0.505499992868863, 0.49869999929796904, 0.49405000754632056, 0.4886499955318868, 0.4988500149920583, 0.5088500038255006, 0.493499988806434, 0.5085500015411526, 0.505049989442341, 0.5028999876230955, 0.4975000047124922, 0.516950007295236, 0.490549995447509, 0.49390000640414655, 0.5054499924881384, 0.49079999735113233, 0.4872000135947019, 0.505499992868863, 0.49270001181866974, 0.502900016726926, 0.5001500103389844, 0.4923999949824065, 0.49160000344272703, 0.5231000104686245, 0.49015000695362687, 0.4805999924428761, 0.5041999975219369, 0.4978500073775649, 0.483600000734441, 0.4863499925704673, 0.48675001016817987, 0.48820000665728003, 0.48689999675843865, 0.49554998986423016, 0.51710000843741, 0.4879500193055719, 0.5023499979870394, 0.48904998402576894, 0.4991000023437664, 0.487600002088584, 0.5040499963797629, 0.49440001021139324, 0.48814999172464013, 0.49399999261368066, 0.49125000077765435, 0.5065500154159963, 0.4971000162186101, 0.49649999709799886, 0.47889997949823737, 0.4898000042885542, 0.49670001317281276, 0.49679998483043164, 0.4973000177415088, 0.48775001778267324, 0.4939500067848712, 0.49640001088846475, 0.4970500012859702, 0.502600014442578, 0.48269999388139695, 0.49935000424738973, 0.4926000110572204, 0.4854500002693385, 0.4975500050932169, 0.49780000699684024, 0.502450013300404, 0.5014000053051859, 0.48815000627655536, 0.5096999957459047, 0.4996499919798225, 0.48585000331513584, 0.5077499954495579, 0.5118999979458749, 0.48630000674165785, 0.5123000009916723, 0.4884999943897128, 0.4906499816570431, 0.48409998998977244, 0.49834998208098114, 0.4904999805148691, 0.48160000005736947, 0.49765000585466623, 0.49730000318959355, 0.49535001744516194, 0.4920999926980585, 0.48704999790061265, 0.5029500025557354, 0.48889999743551016, 0.49900000158231705, 0.5003999976906925, 0.48365000111516565, 0.4991000023437664, 0.4953500028932467, 0.49965000653173774, 0.5187000206205994, 0.5051000043749809, 0.5066499870736152, 0.48830000741872936, 0.4897500039078295, 0.49164998927153647, 0.490549995447509, 0.5204500048421323, 0.49214999307878315, 0.5021499964641407, 0.4995500057702884, 0.4954000032739714, 0.4922500083921477, 0.49170000420417637, 0.4858999891439453, 0.509400008013472, 0.4959499929100275, 0.5044499994255602, 0.4959999932907522, 0.4871500132139772, 0.4952500166837126, 0.5048500024713576, 0.4938500060234219, 0.4887999821221456, 0.4895000020042062, 0.48794999020174146, 0.49575000593904406, 0.5084000003989786, 0.49965000653173774, 0.4997000069124624, 0.5003999976906925, 0.4914499877486378, 0.4950500006088987, 0.5012500041630119, 0.5042499833507463, 0.48740000056568533, 0.49590000708121806, 0.4985999839846045, 0.49035000847652555, 0.49515000137034804, 0.49074999697040766, 0.49319998652208596, 0.49700000090524554, 0.4787500074598938, 0.4930499999318272, 0.487600002088584, 0.48665000940673053, 0.4820000031031668, 0.4939000209560618, 0.49470001249574125, 0.48550000065006316, 0.4892499855486676, 0.4961500089848414, 0.49574999138712883, 0.484500007587485, 0.4920000064885244, 0.5012000037822872, 0.4962999955751002, 0.4955500044161454, 0.5015000060666353, 0.4879999905824661, 0.4932000156259164, 0.48755000170785934, 0.4995500057702884, 0.5003999976906925, 0.49574999138712883, 0.5087000026833266, 0.49604999367147684, 0.4985999985365197, 0.49170000420417637, 0.514600018505007, 0.520050001796335, 0.4905500099994242, 0.4920000064885244, 0.4995499912183732, 0.4854500148212537, 0.4859500040765852, 0.48704999790061265, 0.4875499871559441, 0.4883499932475388, 0.480500006233342, 0.5051000043749809, 0.4886499955318868, 0.48695001169107854, 0.487750003230758, 0.4979999939678237, 0.48484999570064247, 0.4935500037390739, 0.5756999889854342, 0.5179500149097294, 0.5040499963797629, 0.48245000652968884, 0.5693999992217869, 0.5179000145290047, 0.5520500126294792, 0.5152000085217878, 0.5015500064473599, 0.4899500199826434, 0.5050000036135316, 0.49044999468605965, 0.5019499803893268, 0.4829499957850203, 0.4904999950667843, 0.5086500023026019, 0.5026999861001968, 0.4791000101249665, 0.48949998745229095, 0.5051000043749809, 0.4928499984089285, 0.5080999981146306, 0.4795500135514885, 0.483449999592267, 0.4878000036114827, 0.4890999844064936, 0.49414999375585467, 0.4938500060234219, 0.48750000132713467, 0.4820500180358067, 0.5112999933771789, 0.49855001270771027, 0.49050000961869955, 0.5067000020062551, 0.4856000014115125, 0.524650007719174, 0.47915001050569117, 0.4962499806424603, 0.4940000071655959, 0.4795499989995733, 0.48755000170785934, 0.4953500028932467, 0.49625000974629074, 0.49169998965226114, 0.5066000012448058, 0.48409998998977244, 0.48349999997299165, 0.4884999943897128, 0.4748499923152849, 0.47620000259485096, 0.4973500035703182, 0.49190000572707504, 0.49039997975341976, 0.49810000928118825, 0.4988000146113336, 0.49789999320637435, 0.4841499903704971, 0.4959999932907522, 0.48239999159704894, 0.4917999904137105, 0.4954999894835055, 0.49560000479687005, 0.4978499928256497, 0.4827999946428463, 0.4975500050932169, 0.49735001812223345, 0.47605000145267695, 0.4988000146113336, 0.48255000729113817, 0.4940000071655959, 0.5064499855507165, 0.49324998690281063, 0.5144000169821084, 0.4847999953199178, 0.4955500189680606, 0.49470001249574125, 0.4860500048380345, 0.511050020577386, 0.5025999853387475, 0.48230000538751483, 0.4946000117342919, 0.49840001156553626, 0.49080001190304756, 0.48919999971985817, 0.49700000090524554, 0.5152500089025125, 0.49789999320637435, 0.49229999422095716, 0.4912999866064638, 0.4926999972667545, 0.5374499887693673, 0.48749998677521944, 0.4966500127920881, 0.48675001016817987, 0.4931500006932765, 0.5007500003557652, 0.4895000020042062, 0.4965499974787235, 0.48844999400898814, 0.4848500102525577, 0.500599984661676, 0.4852499987464398, 0.4814999847440049, 0.4972000024281442, 0.49520001630298793, 0.49015000695362687, 0.4824999923584983, 0.4893500008620322, 0.505700008943677, 0.47670000640209764, 0.6147499952930957, 0.4880499909631908, 0.48835000779945403, 0.5038499948568642, 0.4967499990016222, 0.4899500054307282, 0.4898500192211941, 0.4951000155415386, 0.49154998851008713, 0.4892000142717734, 0.49234999460168183, 0.484650008729659, 0.49250001029577106, 0.4963000101270154, 0.4989999870304018, 0.48305001109838486, 0.5048500024713576, 0.5256999866105616, 0.4855000152019784, 0.4958500067004934, 0.49140000191982836, 0.4944500105921179, 0.4844499926548451, 0.49795000813901424, 0.5014500056859106, 0.48874999629333615, 0.49014999240171164, 0.5009500164305791, 0.4863499925704673, 0.4854500002693385, 0.4909999843221158, 0.49015000695362687, 0.48829999286681414, 0.4910499992547557, 0.48469999455846846, 0.47795001592021435, 0.4843499918933958, 0.4879500047536567, 0.4856500163441524, 0.48984999011736363, 0.48389998846687376, 0.4926999972667545, 0.4971000016666949, 0.49569999100640416, 0.49670001317281276, 0.48254999273922294, 0.5262500053504482, 0.4927500121993944, 0.4989000008208677, 0.4940000071655959, 0.487750003230758, 0.4807999939657748, 0.4880499909631908, 0.5841499951202422, 0.5330499989213422, 0.48824999248608947, 0.4766000056406483, 0.5150999932084233, 0.4969500005245209, 0.4857500025536865, 0.48269999388139695, 0.48269999388139695, 0.48809999134391546, 0.48499999684281647, 0.4877499886788428, 0.4980000085197389, 0.5228999943938106, 0.48925000010058284, 0.494399995659478, 0.4914000164717436, 0.4797000001417473, 0.4914499877486378, 0.49470001249574125, 0.510150013724342, 0.49649999709799886, 0.48865001008380204, 0.505700008943677, 0.49239998043049127, 0.4807499935850501, 0.49184999079443514, 0.4856000014115125, 0.4963999963365495, 0.49339998804498464, 0.48949998745229095, 0.4881500208284706, 0.48874999629333615, 0.488050005515106, 0.4863500071223825, 0.48594998952466995, 0.4972500028088689, 0.5015999922761694, 0.4921000072499737, 0.4977000062353909, 0.5324499943526462, 0.4930500144837424, 0.49574999138712883, 0.48609999066684395, 0.48379998770542443, 0.4965499829268083, 0.4875999875366688, 0.487149998662062, 0.4949500143993646, 0.4957000055583194, 0.49739998939912766, 0.4836999869439751, 0.49854999815579504, 0.48374998732469976, 0.4973000177415088, 0.4935500037390739, 0.49065001076087356, 0.4893000004813075, 0.5025000136811286, 0.49064999620895833, 0.5106999888084829, 0.4848500102525577, 0.480350005091168, 0.5054000066593289, 0.48299999616574496, 0.4971000016666949, 0.5008000007364899, 0.4919499915558845, 0.49584999214857817, 0.4826500080525875, 0.4840500187128782, 0.49259999650530517, 0.4890500131295994, 0.4893500154139474, 0.48334999883081764, 0.4832499980693683, 0.49574999138712883, 0.48740001511760056, 0.47864999214652926, 0.4867999959969893, 0.4920999926980585, 0.49414999375585467, 0.4887999821221456, 0.4922499938402325, 0.48299999616574496, 0.5022999976063147, 0.4800500173587352, 0.4868500109296292, 0.5041499971412122, 0.49330000183545053, 0.49274998309556395, 0.490849997731857, 0.6504500051960349, 0.5238500016275793, 0.4987499851267785, 0.49035000847652555, 0.4823500057682395, 0.487600002088584, 0.5495000077644363, 0.5474000063259155, 0.4886499809799716, 0.49554998986423016, 0.6241500086616725, 0.4943999811075628, 0.5419500084826723, 0.4806999786524102, 0.48695001169107854, 0.49170000420417637, 0.5415499908849597, 0.49600002239458263, 0.5498000100487843, 0.5018499941797927, 0.48534999950788915, 0.532899983227253, 0.5014000053051859, 0.524650007719174, 0.5342500080587342, 0.6047999922884628, 0.48775001778267324, 0.4929999849991873, 0.5011500034015626, 0.49974999274127185, 0.4869000113103539, 0.49435000983066857, 0.5056999943917617, 0.4943499807268381, 0.49435000983066857, 0.49765000585466623, 0.4889499978162348, 0.48704999790061265, 0.49190000572707504, 0.4798500012839213, 0.4793999978573993, 0.48394998884759843, 0.5082999996375293, 0.5008499865652993, 0.4875999875366688, 0.4995499912183732, 0.5015000060666353, 0.47879997873678803, 0.5018000083509833, 0.4914499877486378, 0.4917499900329858, 0.4961500089848414, 0.4933500167680904, 0.49834999663289636, 0.4892000142717734, 0.494399995659478, 0.498249995871447, 0.487900004372932, 0.4975000047124922, 0.4881999921053648, 0.49239998043049127, 0.49399999261368066, 0.4876500024693087, 0.48835000779945403, 0.49155000306200236, 0.48585000331513584, 0.48645000788383186, 0.48624999180901796, 0.4960000078426674, 0.4987499851267785, 0.48430000606458634, 0.4996499919798225, 0.49930000386666507, 0.48025000432971865, 0.49834999663289636, 0.4958500067004934, 0.5161500012036413, 0.48040000547189265, 0.4985000123269856, 0.5056499794591218, 0.4864999937126413, 0.5076499946881086, 0.48639999295119196, 0.49705001583788544, 0.505649994011037, 0.4886499955318868, 0.5095000087749213, 0.5012000037822872, 0.5355500034056604, 0.5343000229913741, 0.5538999976124614, 0.4957999917678535, 0.4987499996786937, 0.4911000141873956, 0.5039500101702288, 0.4886499809799716, 0.5028000159654766, 0.50230001215823, 0.4999000084353611, 0.4918000049656257, 0.5173000099603087, 0.4930999857606366, 0.5009499873267487, 0.5008000007364899, 0.48910001351032406, 0.49325000145472586, 0.49079999735113233, 0.5018999945605174, 0.49584999214857817, 0.488050005515106, 0.4878000181633979, 0.48999999125953764, 0.48495001101400703, 0.4820500180358067, 0.4996499919798225, 0.49404999299440533, 0.4850000113947317, 0.47900000936351717, 0.4896999889751896, 0.48820000665728003, 0.4931499861413613, 0.4893000004813075, 0.494249994517304, 0.48770001740194857, 0.4997999931219965, 0.5033999914303422, 0.4865500086452812, 0.5022500117775053, 0.48999999125953764, 0.49524998757988214, 0.49405000754632056, 0.490699996589683, 0.4889499978162348, 0.4824999923584983, 0.48639999295119196, 0.5014499911339954, 0.49310000031255186, 0.4994999908376485, 0.4890000127488747, 0.48395000339951366, 0.4922500083921477, 0.49575000593904406, 0.49199999193660915, 0.49449999642092735, 0.5073499924037606, 0.49310000031255186, 0.4932000010740012, 0.5004999984521419, 0.49775000661611557, 0.49315001524519175, 0.4943000094499439, 0.48734998563304543, 0.4921000072499737, 0.49334998766425997, 0.4797000001417473, 0.4895000020042062, 0.49064999620895833, 0.5015999777242541, 0.49855001270771027, 0.5137999833095819, 0.5040999967604876, 0.5019999953219667, 0.49100001342594624, 0.49340000259689987, 0.4917000187560916, 0.4886000097030774, 0.49095001304522157, 0.4964500112691894, 0.48755001625977457, 0.4996000061510131, 0.5017499934183434, 0.49845001194626093, 0.4938000056426972, 0.4929999995511025, 0.49664999824017286, 0.4922499938402325, 0.5006499995943159, 0.48644999333191663, 0.4971000016666949, 0.5006999999750406, 0.5348999984562397, 0.7199000101536512, 0.6110500107752159, 0.48824999248608947, 0.49080001190304756, 0.49184999079443514, 0.4876999882981181, 0.49390000640414655, 0.4867000097874552, 0.5001999961677939, 0.4935000033583492, 0.49590000708121806, 0.5004999984521419, 0.5065999866928905, 0.47494999307673424, 0.5090999911772087, 0.48844999400898814, 0.4905500099994242, 0.48889999743551016, 0.49419999413657933, 0.4939500067848712, 0.49384999147150666, 0.4879500193055719, 0.49190002027899027, 0.49545000365469605, 0.49199999193660915, 0.4904999950667843, 0.5223499902058393, 0.4810999962501228, 0.5104499869048595, 0.48275000881403685, 0.4849499964620918, 0.48910001351032406, 0.48880001122597605, 0.5060499825049192, 0.4861999914282933, 0.4770500090671703, 0.5174500111024827, 0.48559998685959727, 0.48165000043809414, 0.48290000995621085, 0.48660000902600586, 0.5035999929532409, 0.48410000454168767, 0.4903000080958009, 0.49089998356066644, 0.49360000411979854, 0.49700000090524554, 0.4870000120718032, 0.4995500057702884, 0.4946500121150166, 0.48600000445730984, 0.49080001190304756, 0.4938999918522313, 0.4983500111848116, 0.6574500002898276, 0.5238000012468547, 0.501649992656894, 0.481250011944212, 0.5024999991292134, 0.49679999938234687, 0.5047000013291836, 0.49715000204741955, 0.490549995447509, 0.49360000411979854, 0.49334998766425997, 0.4816499858861789, 0.5039000243414193, 0.48410000454168767, 0.48319999768864363, 0.4861499910475686, 0.49619999481365085, 0.49765000585466623, 0.49669999862089753, 0.5035499925725162, 0.490999998874031, 0.49255001067649573, 0.49705001583788544, 0.49054998089559376, 0.5003999976906925, 0.49044999468605965, 0.48880001122597605, 0.4833499842789024, 0.490699996589683, 0.49279999802820385, 0.4801500035682693, 0.4759499861393124, 0.4985999985365197, 0.4811999970115721, 0.48329999845009297, 0.4858000174863264, 0.4820500034838915, 0.601100007770583, 0.5011500034015626, 0.4928999987896532, 0.49425000906921923, 0.4910499992547557, 0.4956499906256795, 0.5343500088201836, 0.5177500133868307, 0.4865000082645565, 0.490249993163161, 0.5630999949062243, 0.4797000001417473, 0.5315499874996021, 0.481400013086386, 0.4844999930355698, 0.49515000137034804, 0.5349000130081549, 0.4852999991271645, 0.534999999217689, 0.48735000018496066, 0.49560000479687005, 0.5391500017140061, 0.5076000234112144, 0.5196999991312623, 0.5963999865343794, 0.48585001786705106, 0.48284999502357095, 0.49860001308843493, 0.4842999915126711, 0.49050000961869955, 0.48320001224055886, 0.502099996083416, 0.4872499994235113, 0.4886000097030774, 0.5040000105509534, 0.5005999992135912, 0.4820500180358067, 0.4844999930355698, 0.4913500015391037, 0.48565000179223716, 0.48379998770542443, 0.4928499838570133, 0.4893500008620322, 0.4938999918522313, 0.48909999895840883, 0.4794499836862087, 0.4971000016666949, 0.4918999911751598, 0.49149998812936246, 0.4836499865632504, 0.5325499951140955, 0.49649999709799886, 0.5242500046733767, 0.49405000754632056, 0.4896500031463802, 0.5060499970568344, 0.4952500021317974, 0.48880001122597605, 0.48745000094641, 0.4946500121150166, 0.5046000151196495, 0.48829999286681414, 0.48925001465249807, 0.4963499814039096, 0.49190000572707504, 0.48320001224055886, 0.4894500016234815, 0.49205000686924905, 0.5371500010369346, 0.4802499897778034, 0.5036999937146902, 0.49944999045692384, 0.49409999337513, 0.4958500067004934, 0.4867999959969893, 0.4932999872835353, 0.4884499794570729, 0.5180000007385388, 0.49220000801142305, 0.4975000047124922, 0.5278999888105318, 0.4839500179514289, 0.48394998884759843, 0.4828500095754862, 0.4887999966740608, 0.4855500010307878, 0.4902999789919704, 0.5035999929532409, 0.48734998563304543, 0.4494499880820513, 0.5981999856885523, 0.4894500016234815, 0.4907500115223229, 0.487900004372932, 0.487149998662062, 0.4968499852111563, 0.4936500045005232, 0.49360000411979854, 0.5017499934183434, 0.4969500005245209, 0.484650008729659, 0.49474998377263546, 0.49649998254608363, 0.4915000026812777, 0.49264999688602984, 0.4903499939246103, 0.48284999502357095, 0.5307500250637531, 0.486999997519888, 0.4935000033583492, 0.4895000020042062, 0.4870000120718032, 0.48829999286681414, 0.49470001249574125, 0.4958000063197687, 0.4820000031031668, 0.4957000201102346, 0.49324998690281063, 0.4947499983245507, 0.4926999972667545, 0.48275000881403685, 0.48919998516794294, 0.4915999888908118, 0.4916500038234517, 0.5026500002713874, 0.4843499918933958, 0.4888499970547855, 0.49905001651495695, 0.4925499961245805, 0.4969999863533303, 0.4915000026812777, 0.4932999872835353, 0.49855001270771027, 0.515749998157844, 0.483750001876615, 0.48404998960904777, 0.48955000238493085, 0.4820999893127009, 0.49119998584501445, 0.5006999999750406, 0.4844000068260357, 0.5001999961677939, 0.48585000331513584, 0.4863499925704673, 0.5042499979026616, 0.4820999893127009, 0.5024499987484887, 0.48144999891519547, 0.4870999837294221, 0.49589999252930284, 0.49115001456812024, 0.4777999856742099, 0.49330000183545053, 0.48570001672487706, 0.5101000133436173, 0.49589999252930284, 0.4878999898210168, 0.49160000344272703, 0.4883999936282635, 0.4887999966740608, 0.48579998838249594, 0.4974000039510429, 0.49569999100640416, 0.5053000058978796, 0.4922500083921477, 0.501049988088198, 0.4804500058526173, 0.4829500103369355, 0.48909999895840883, 0.4959499929100275, 0.5066999874543399, 0.49244999536313117, 0.5313500150805339, 0.48919999971985817, 0.4887000104645267, 0.5072000058135018, 0.5028500017942861, 0.48505001177545637, 0.4923999949824065, 0.4862000059802085, 0.4995500057702884, 0.6182999932207167, 0.5710999976145104, 0.48570000217296183, 0.5022999976063147, 0.48594998952466995, 0.5111499922350049, 0.4798500012839213, 0.49634999595582485, 0.5022000113967806, 0.49870001384988427, 0.487900004372932, 0.4948999994667247, 0.49775000661611557, 0.494699997943826, 0.4975500050932169, 0.48519999836571515, 0.4972000024281442, 0.490099992020987, 0.4832499980693683, 0.4998499935027212, 0.48540001444052905, 0.48489999608136714, 0.4948999994667247, 0.49485001363791525, 0.5031000036979094, 0.4977000062353909, 0.4881000058958307, 0.4920000210404396, 0.48510001215618104, 0.49605000822339207, 0.48239999159704894, 0.5153499951120466, 0.48304999654646963, 0.4996499919798225, 0.4951999871991575, 0.5270000110613182, 0.5119999987073243, 0.48630000674165785, 0.5204999906709418, 0.48915001389104873, 0.49250001029577106, 0.4917499900329858, 0.4788000078406185, 0.4892999859293923, 0.49819999549072236, 0.48499999684281647, 0.5043000273872167, 0.49435000983066857, 0.49160001799464226, 0.49360000411979854, 0.49050000961869955, 0.4895000165561214, 0.4972000024281442, 0.49050000961869955, 0.48374998732469976, 0.4831999831367284, 0.490249993163161, 0.49014999240171164, 0.48874999629333615, 0.4927500121993944, 0.4958500067004934, 0.48979998973663896, 0.487900004372932, 0.49255001067649573, 0.490549995447509, 0.494249994517304, 0.4892000142717734, 0.4913500160910189, 0.49259999650530517, 0.49015000695362687, 0.49619999481365085, 0.4914499877486378, 0.49064999620895833, 0.4937000048812479, 0.4944499960402027, 0.5009999877074733, 0.5446000141091645, 0.49679999938234687, 0.49855001270771027, 0.4938999918522313, 0.4935000033583492, 0.5512500210897997, 0.4890999844064936, 0.48644999333191663, 0.4924999811919406, 0.49345000297762454, 0.49754999054130167, 0.49625000974629074, 0.5911500047659501, 0.48904999857768416, 0.493799991090782, 0.49274998309556395, 0.486999997519888, 0.487900004372932, 0.5558500124607235, 0.5134999955771491, 0.48964998859446496, 0.5030499887652695, 0.6136999872978777, 0.5211499956203625, 0.5347500118659809, 0.5008000007364899, 0.49965000653173774, 0.48254999273922294, 0.5254499992588535, 0.3993499994976446, 0.4940000071655959, 0.48510001215618104, 0.502600014442578, 0.530249992152676, 0.49754999054130167, 0.6877999985590577, 0.5571999936364591, 0.4928999987896532, 0.5104500014567748, 0.49270001181866974, 0.5055999936303124, 0.49259999650530517, 0.48644999333191663, 0.4903499939246103, 0.48659999447409064, 0.49694998597260565, 0.4969500005245209, 0.4923000087728724, 0.49575000593904406, 0.5013500049244612, 0.5405500123742968, 0.5037999944761395, 0.490549995447509, 0.5078000103821978, 0.48899998364504427, 0.4977000062353909, 0.49679998483043164, 0.4889000119874254, 0.4926999972667545, 0.49300001410301775, 0.4850000113947317, 0.49235000915359706, 0.48800000513438135, 0.5085500015411526, 0.5217499856371433, 0.4870999982813373, 0.48760001664049923, 0.5035499925725162, 0.491300001158379, 0.48794999020174146, 0.49760000547394156, 0.4898000042885542, 0.4846499941777438, 0.4963000101270154, 0.48550000065006316, 0.4917999904137105, 0.49524998757988214, 0.5090999911772087, 0.5004999984521419, 0.4963500105077401, 0.481400013086386, 0.4975000047124922, 0.49569999100640416, 0.4932500160066411, 0.5047500017099082, 0.49265001143794507, 0.506600015796721, 0.50380002357997, 0.49894998664967716, 0.49234999460168183, 0.49184999079443514, 0.4923000087728724, 0.49870001384988427, 0.5142500012880191, 0.500149981235154, 0.505499992868863, 0.4881999921053648, 0.487299999804236, 0.4837000014958903, 0.4852000129176304, 0.5054000066593289, 0.4969500150764361, 0.535300001502037, 0.4854500002693385, 0.4910499992547557, 0.4851999838137999, 0.4896500031463802, 0.4870000120718032, 0.490849997731857, 0.5161000008229166, 0.4933500167680904, 0.49989999388344586, 0.5054499779362231, 0.5005499988328665, 0.49705001583788544, 0.48004998825490475, 0.49115001456812024, 0.4949999856762588, 0.499800022225827, 0.5273499991744757, 0.4920000064885244, 0.5029500025557354, 0.49434999527875334, 0.509100005729124, 0.5717999883927405, 0.4932000010740012, 0.4819499881705269, 0.5000500095775351],
  "Depth": 20.5,
  "Expectation Value": -10.463476181030273,
  "Optimal Expectation Value": -11.109565734863281,
  "Optimizer durations [ms]": [11.301, 10.787, 10.807, 10.715, 11.197, 10.561, 10.621, 10.63, 11.289, 10.583, 10.644, 11.028, 10.684, 10.592, 10.983, 11.133, 10.541, 11.018, 10.674, 10.846, 10.394, 10.774, 11.14, 10.405, 11.078, 11.116, 11.854, 11.038, 11.395, 10.154, 11.097, 10.753, 10.273, 10.831, 11.095, 10.696, 10.826, 10.501, 11.043, 10.748, 11.396, 10.739, 10.711, 11.062, 10.652, 10.868, 10.652, 10.815, 10.721, 10.345, 10.808, 11.252, 10.684, 10.987, 10.785, 10.77, 10.283, 11.065, 10.65, 10.809, 10.802, 10.577, 11.215, 10.654, 10.881, 10.578, 10.638, 10.579, 10.869, 10.748, 10.759, 10.874, 11.044, 10.722, 10.925, 10.423, 11.132, 10.676, 10.68, 10.834, 10.832, 10.809, 10.928, 10.595, 11.305, 10.555, 10.916, 10.633, 11.398, 24.759, 11.576, 10.663, 11.066, 10.647, 10.748, 10.633, 10.736, 10.979, 10.551, 11.112, 10.985, 10.774, 10.963, 10.503, 11.287, 10.905, 10.892, 10.869, 10.562, 11.324, 10.821, 10.905, 11.11, 10.612, 10.968, 10.617, 10.745, 11.574, 10.628, 11.315, 11.348, 10.795, 11.087, 10.53, 10.5, 10.898, 10.785, 10.706, 10.38, 10.751, 10.667, 10.867, 10.629, 10.668, 10.835, 10.792, 10.813, 11.028, 10.694, 10.994, 10.484, 10.869, 10.706, 10.76, 11.189, 10.753, 10.661, 10.864, 10.771, 10.457, 10.834, 10.529, 10.78, 10.646, 10.602, 10.533, 10.742, 10.652, 10.719, 10.724, 10.526, 10.658, 10.702, 11.021, 10.671, 10.743, 11.095, 10.921, 10.364, 10.879, 10.918, 10.86, 10.616, 11.012, 10.665, 10.749, 11.127, 10.718, 10.631, 10.943, 10.812, 11.555, 10.633, 10.869, 12.99, 10.895, 13.746, 10.775, 10.684, 11.009, 10.833, 10.834, 23.101, 10.721, 10.698, 10.779, 11.824, 10.66, 20.545, 11.213, 10.768, 10.218, 12.401, 11.149, 27.2, 11.152, 10.718, 10.6, 11.033, 10.624, 10.702, 10.672, 10.537, 10.919, 10.628, 10.38, 10.592, 10.926, 10.765, 10.736, 10.476, 10.296, 10.733, 10.486, 10.747, 11.112, 10.553, 10.227, 11.128, 10.929, 10.59, 11.038, 10.871, 11.462, 10.6, 10.953, 10.811, 10.37, 10.876, 10.854, 10.88, 10.65, 11.152, 10.763, 10.548, 10.664, 10.416, 10.444, 10.662, 10.805, 10.909, 10.842, 10.821, 10.699, 10.716, 10.624, 10.22, 11.035, 10.71, 10.748, 10.784, 10.901, 10.634, 11.233, 11.151, 10.712, 10.506, 10.683, 11.114, 10.733, 29.151, 10.322, 10.69, 11.02, 10.685, 10.742, 11.29, 10.551, 10.749, 11.098, 10.615, 10.825, 10.941, 11.239, 10.683, 10.862, 10.839, 10.414, 11.766, 10.892, 10.828, 10.359, 10.631, 10.836, 10.94, 10.73, 10.884, 10.456, 11.278, 10.759, 10.47, 10.917, 11.068, 10.506, 10.72, 10.413, 10.898, 10.502, 13.36, 10.759, 10.818, 10.771, 10.843, 10.729, 10.463, 10.913, 10.652, 10.807, 10.794, 10.607, 10.646, 10.756, 10.742, 10.338, 10.774, 11.355, 10.564, 11.099, 10.759, 10.883, 10.689, 10.647, 10.993, 10.63, 10.621, 10.753, 10.708, 10.466, 10.569, 10.489, 10.817, 10.72, 10.393, 10.802, 10.589, 10.782, 10.817, 10.82, 10.46, 11.003, 10.697, 10.917, 10.843, 10.588, 11.194, 10.914, 10.878, 10.836, 10.433, 10.646, 10.505, 12.518, 27.326, 10.648, 10.889, 11.191, 10.77, 10.841, 10.538, 10.733, 10.612, 10.785, 10.879, 10.671, 11.07, 10.773, 10.827, 10.864, 10.626, 10.625, 10.748, 11.116, 11.022, 10.559, 10.66, 11.038, 10.565, 10.926, 10.428, 10.844, 14.73, 11.072, 10.45, 10.917, 10.719, 10.838, 10.425, 10.834, 10.9, 10.489, 10.792, 11.644, 10.313, 11.047, 10.685, 10.887, 10.715, 10.478, 10.307, 10.835, 10.895, 10.998, 10.401, 10.977, 10.378, 10.767, 10.84, 10.867, 10.458, 10.895, 10.592, 10.951, 10.63, 10.623, 10.757, 10.384, 11.104, 10.644, 10.496, 10.775, 10.678, 10.932, 10.79, 10.654, 10.519, 10.629, 10.523, 11.0, 10.674, 10.569, 10.937, 10.823, 10.627, 10.388, 10.804, 10.676, 10.714, 10.562, 10.796, 10.982, 10.548, 10.94, 10.452, 13.698, 11.251, 10.66, 17.206, 10.674, 13.836, 11.997, 11.715, 10.7, 10.79, 13.231, 18.407, 11.66, 10.73, 10.778, 10.587, 11.591, 19.955, 12.102, 10.77, 10.714, 11.187, 10.781, 26.226, 12.167, 12.727, 10.834, 10.577, 11.168, 10.645, 10.62, 10.564, 10.852, 10.64, 10.666, 10.666, 10.794, 10.489, 10.963, 10.709, 10.397, 10.647, 11.039, 11.018, 10.78, 10.558, 10.779, 10.799, 10.726, 10.804, 10.831, 10.537, 11.219, 10.91, 10.804, 10.926, 10.724, 10.766, 10.497, 10.819, 11.065, 10.97, 10.657, 10.646, 10.721, 10.847, 10.525, 10.554, 10.724, 10.775, 10.386, 11.01, 10.907, 10.462, 10.725, 10.785, 10.912, 10.566, 10.659, 10.873, 10.42, 11.112, 10.732, 10.81, 11.091, 10.589, 11.006, 10.84, 11.907, 23.788, 12.113, 10.634, 10.762, 10.5, 11.308, 10.675, 11.055, 10.723, 11.015, 10.843, 11.225, 10.646, 11.065, 10.99, 10.286, 11.085, 10.894, 11.337, 10.811, 10.604, 10.651, 10.988, 10.489, 10.521, 10.715, 11.003, 10.618, 10.531, 10.421, 10.981, 10.895, 10.814, 10.764, 10.453, 11.136, 10.844, 10.722, 10.737, 10.62, 10.794, 10.874, 10.436, 10.664, 10.279, 10.461, 10.949, 10.527, 10.553, 10.988, 10.462, 10.679, 10.952, 10.816, 10.743, 11.036, 10.782, 10.959, 10.611, 10.974, 10.54, 10.677, 10.771, 10.74, 10.836, 10.41, 10.96, 10.889, 10.646, 10.826, 10.96, 11.091, 11.143, 10.802, 10.852, 10.682, 10.786, 10.682, 10.406, 10.853, 10.937, 10.949, 10.861, 10.692, 10.917, 10.968, 10.819, 10.708, 10.393, 10.834, 10.95, 11.457, 22.717, 14.597, 10.604, 10.659, 10.746, 10.711, 10.589, 10.389, 10.679, 11.206, 10.524, 10.911, 11.286, 10.555, 11.319, 10.722, 10.641, 10.855, 10.771, 10.927, 10.461, 11.088, 10.805, 10.662, 10.584, 10.432, 11.491, 10.214, 11.212, 10.582, 10.717, 10.982, 10.598, 11.082, 10.39, 10.413, 11.621, 10.426, 10.498, 10.698, 10.546, 10.917, 10.484, 10.593, 10.754, 11.081, 10.608, 10.556, 10.783, 11.031, 10.773, 10.643, 10.39, 11.23, 13.967, 11.291, 10.939, 10.789, 10.649, 10.779, 11.106, 11.104, 10.882, 10.675, 10.954, 10.566, 10.724, 10.715, 10.751, 10.669, 10.796, 10.715, 10.823, 11.12, 10.441, 10.617, 10.979, 10.49, 11.095, 10.765, 10.709, 10.628, 10.822, 10.684, 10.61, 10.568, 11.154, 10.326, 10.391, 10.666, 10.396, 12.906, 11.343, 10.969, 19.37, 10.594, 14.247, 11.527, 10.953, 10.947, 10.413, 12.271, 20.431, 11.671, 10.663, 10.438, 11.382, 11.543, 19.792, 11.501, 10.511, 10.643, 11.664, 11.056, 21.862, 13.059, 10.438, 12.13, 11.264, 10.498, 10.584, 10.619, 10.769, 10.578, 10.489, 10.878, 10.622, 10.497, 10.353, 10.596, 10.342, 10.89, 10.646, 10.774, 10.936, 10.721, 10.394, 10.658, 10.978, 10.693, 10.445, 11.416, 11.039, 11.216, 10.608, 10.427, 11.177, 10.916, 10.791, 10.651, 10.928, 11.055, 10.503, 11.066, 10.585, 10.643, 10.474, 10.919, 10.489, 11.485, 10.235, 10.937, 11.09, 10.775, 10.388, 10.458, 11.087, 10.661, 11.262, 10.705, 10.756, 11.301, 10.542, 10.729, 10.67, 10.653, 10.658, 10.606, 11.162, 10.85, 20.51, 15.074, 10.61, 10.869, 10.789, 10.63, 10.633, 10.841, 10.719, 10.515, 11.51, 10.763, 10.424, 10.866, 10.81, 10.506, 10.467, 10.574, 11.252, 10.678, 11.044, 10.468, 10.708, 10.904, 10.574, 10.931, 10.426, 10.988, 10.54, 14.858, 10.473, 10.602, 10.685, 10.713, 10.621, 11.067, 10.757, 10.46, 10.63, 10.971, 10.966, 10.58, 10.982, 10.407, 11.754, 10.824, 10.437, 10.648, 10.609, 10.704, 11.068, 10.649, 10.819, 10.58, 10.645, 10.881, 10.615, 11.002, 10.684, 10.775, 10.653, 10.696, 10.343, 11.209, 10.584, 11.048, 10.646, 10.745, 10.719, 10.604, 10.806, 10.52, 10.821, 11.007, 10.946, 10.893, 10.529, 10.667, 10.497, 10.929, 10.708, 11.247, 10.478, 11.79, 10.731, 10.589, 11.142, 11.036, 10.879, 10.927, 10.621, 11.111, 26.829, 12.586, 10.325, 11.245, 10.598, 11.051, 10.346, 11.157, 11.068, 10.673, 10.674, 10.433, 11.061, 10.965, 10.539, 10.68, 10.814, 10.528, 10.688, 11.034, 10.793, 10.612, 11.146, 10.884, 10.873, 10.755, 10.706, 10.789, 10.47, 10.764, 10.688, 11.466, 10.759, 10.758, 10.75, 11.72, 11.193, 10.389, 11.35, 10.971, 10.873, 10.877, 10.248, 10.486, 11.117, 10.589, 10.884, 10.679, 10.929, 10.521, 10.524, 10.828, 10.635, 10.564, 10.586, 10.619, 10.611, 10.638, 10.937, 10.67, 11.076, 10.483, 10.731, 10.816, 10.894, 10.517, 10.64, 10.495, 10.604, 10.825, 10.865, 10.728, 10.778, 10.967, 10.908, 24.876, 29.036, 12.567, 10.937, 10.762, 10.72, 11.917, 10.52, 10.681, 10.524, 10.781, 10.781, 11.003, 12.75, 11.217, 10.625, 20.286, 10.775, 13.596, 11.859, 11.387, 10.742, 10.986, 13.082, 18.238, 11.588, 10.511, 11.156, 11.337, 11.226, 17.543, 10.737, 10.903, 14.046, 11.492, 10.913, 15.307, 20.707, 10.645, 11.365, 10.58, 10.848, 10.863, 10.352, 10.905, 10.688, 10.933, 10.59, 10.951, 10.725, 10.837, 11.689, 11.199, 10.483, 11.264, 10.544, 10.911, 10.82, 10.577, 10.816, 10.696, 10.632, 10.591, 10.826, 11.056, 11.331, 10.827, 10.623, 10.803, 10.773, 10.565, 10.724, 10.607, 10.403, 10.927, 10.618, 10.748, 10.397, 10.804, 11.212, 10.763, 10.391, 11.067, 10.738, 10.606, 10.708, 10.887, 10.948, 10.984, 10.98, 10.751, 10.587, 10.973, 10.959, 11.167, 10.861, 11.058, 10.649, 10.662, 10.487, 10.771, 10.996, 26.933, 11.762, 10.409, 10.769, 10.511, 10.761, 10.646, 10.463, 11.416, 10.86, 10.659, 10.736, 11.072, 10.997, 10.301, 10.548, 10.961, 10.667, 11.297, 10.655, 11.172, 11.04, 11.027, 12.376, 10.582, 10.512, 10.721],
  "Optimizer iterations": 1110,
  "Optimizer params": [0.42262901342628434, 0.5712579214538794, 0.9999778696442958, 0.9999673931117042, 0.9379316667387266, 0.4321888115713571, 0.08116457038826852, 0.9562023727832302, 0.9999561332081781, 0.5238008145947923, 0.9732801709707779, 0.0283613422126408, 0.9953276372759999, 0.444189507313635, 0.5259665535485917, 0.8875001686919144, 0.9963241497720621, 0.572953768932696, 0.5194886239059866, 0.011416579518880515, 0.43286229684381583, 0.10979774207779099, 0.07837751583367575, 0.43773339881174833, 0.5421366812696158, 0.0023000342509466535, 0.07079982058861915, 0.03159031977027527, 0.9957467031429219, 0.9908203755365584, 0.5054861952092615, 0.5183986588149636, 0.04604657782426469, 0.43596540543750023, 0.2158253412238529, 0.1358078772912112],
  "P": 0,
  "Problem": "IC",
  "QJob durations [ms]": [0.5066500161774457, 0.4955500044161454, 0.49875001423060894, 0.4919500061077997, 0.5058499955339357, 0.49524998757988214, 0.4962000093655661, 0.49425000906921923, 0.5039499956183136, 0.4916500183753669, 0.4826499935006723, 0.49064999620895833, 0.4952000017510727, 0.4953500028932467, 0.4922500083921477, 0.5169000069145113, 0.4959999932907522, 0.505499992868863, 0.49869999929796904, 0.49405000754632056, 0.4886499955318868, 0.4988500149920583, 0.5088500038255006, 0.493499988806434, 0.5085500015411526, 0.505049989442341, 0.5028999876230955, 0.4975000047124922, 0.516950007295236, 0.490549995447509, 0.49390000640414655, 0.5054499924881384, 0.49079999735113233, 0.4872000135947019, 0.505499992868863, 0.49270001181866974, 0.502900016726926, 0.5001500103389844, 0.4923999949824065, 0.49160000344272703, 0.5231000104686245, 0.49015000695362687, 0.4805999924428761, 0.5041999975219369, 0.4978500073775649, 0.483600000734441, 0.4863499925704673, 0.48675001016817987, 0.48820000665728003, 0.48689999675843865, 0.49554998986423016, 0.51710000843741, 0.4879500193055719, 0.5023499979870394, 0.48904998402576894, 0.4991000023437664, 0.487600002088584, 0.5040499963797629, 0.49440001021139324, 0.48814999172464013, 0.49399999261368066, 0.49125000077765435, 0.5065500154159963, 0.4971000162186101, 0.49649999709799886, 0.47889997949823737, 0.4898000042885542, 0.49670001317281276, 0.49679998483043164, 0.4973000177415088, 0.48775001778267324, 0.4939500067848712, 0.49640001088846475, 0.4970500012859702, 0.502600014442578, 0.48269999388139695, 0.49935000424738973, 0.4926000110572204, 0.4854500002693385, 0.4975500050932169, 0.49780000699684024, 0.502450013300404, 0.5014000053051859, 0.48815000627655536, 0.5096999957459047, 0.4996499919798225, 0.48585000331513584, 0.5077499954495579, 0.5118999979458749, 0.48630000674165785, 0.5123000009916723, 0.4884999943897128, 0.4906499816570431, 0.48409998998977244, 0.49834998208098114, 0.4904999805148691, 0.48160000005736947, 0.49765000585466623, 0.49730000318959355, 0.49535001744516194, 0.4920999926980585, 0.48704999790061265, 0.5029500025557354, 0.48889999743551016, 0.49900000158231705, 0.5003999976906925, 0.48365000111516565, 0.4991000023437664, 0.4953500028932467, 0.49965000653173774, 0.5187000206205994, 0.5051000043749809, 0.5066499870736152, 0.48830000741872936, 0.4897500039078295, 0.49164998927153647, 0.490549995447509, 0.5204500048421323, 0.49214999307878315, 0.5021499964641407, 0.4995500057702884, 0.4954000032739714, 0.4922500083921477, 0.49170000420417637, 0.4858999891439453, 0.509400008013472, 0.4959499929100275, 0.5044499994255602, 0.4959999932907522, 0.4871500132139772, 0.4952500166837126, 0.5048500024713576, 0.4938500060234219, 0.4887999821221456, 0.4895000020042062, 0.48794999020174146, 0.49575000593904406, 0.5084000003989786, 0.49965000653173774, 0.4997000069124624, 0.5003999976906925, 0.4914499877486378, 0.4950500006088987, 0.5012500041630119, 0.5042499833507463, 0.48740000056568533, 0.49590000708121806, 0.4985999839846045, 0.49035000847652555, 0.49515000137034804, 0.49074999697040766, 0.49319998652208596, 0.49700000090524554, 0.4787500074598938, 0.4930499999318272, 0.487600002088584, 0.48665000940673053, 0.4820000031031668, 0.4939000209560618, 0.49470001249574125, 0.48550000065006316, 0.4892499855486676, 0.4961500089848414, 0.49574999138712883, 0.484500007587485, 0.4920000064885244, 0.5012000037822872, 0.4962999955751002, 0.4955500044161454, 0.5015000060666353, 0.4879999905824661, 0.4932000156259164, 0.48755000170785934, 0.4995500057702884, 0.5003999976906925, 0.49574999138712883, 0.5087000026833266, 0.49604999367147684, 0.4985999985365197, 0.49170000420417637, 0.514600018505007, 0.520050001796335, 0.4905500099994242, 0.4920000064885244, 0.4995499912183732, 0.4854500148212537, 0.4859500040765852, 0.48704999790061265, 0.4875499871559441, 0.4883499932475388, 0.480500006233342, 0.5051000043749809, 0.4886499955318868, 0.48695001169107854, 0.487750003230758, 0.4979999939678237, 0.48484999570064247, 0.4935500037390739, 0.5756999889854342, 0.5179500149097294, 0.5040499963797629, 0.48245000652968884, 0.5693999992217869, 0.5179000145290047, 0.5520500126294792, 0.5152000085217878, 0.5015500064473599, 0.4899500199826434, 0.5050000036135316, 0.49044999468605965, 0.5019499803893268, 0.4829499957850203, 0.4904999950667843, 0.5086500023026019, 0.5026999861001968, 0.4791000101249665, 0.48949998745229095, 0.5051000043749809, 0.4928499984089285, 0.5080999981146306, 0.4795500135514885, 0.483449999592267, 0.4878000036114827, 0.4890999844064936, 0.49414999375585467, 0.4938500060234219, 0.48750000132713467, 0.4820500180358067, 0.5112999933771789, 0.49855001270771027, 0.49050000961869955, 0.5067000020062551, 0.4856000014115125, 0.524650007719174, 0.47915001050569117, 0.4962499806424603, 0.4940000071655959, 0.4795499989995733, 0.48755000170785934, 0.4953500028932467, 0.49625000974629074, 0.49169998965226114, 0.5066000012448058, 0.48409998998977244, 0.48349999997299165, 0.4884999943897128, 0.4748499923152849, 0.47620000259485096, 0.4973500035703182, 0.49190000572707504, 0.49039997975341976, 0.49810000928118825, 0.4988000146113336, 0.49789999320637435, 0.4841499903704971, 0.4959999932907522, 0.48239999159704894, 0.4917999904137105, 0.4954999894835055, 0.49560000479687005, 0.4978499928256497, 0.4827999946428463, 0.4975500050932169, 0.49735001812223345, 0.47605000145267695, 0.4988000146113336, 0.48255000729113817, 0.4940000071655959, 0.5064499855507165, 0.49324998690281063, 0.5144000169821084, 0.4847999953199178, 0.4955500189680606, 0.49470001249574125, 0.4860500048380345, 0.511050020577386, 0.5025999853387475, 0.48230000538751483, 0.4946000117342919, 0.49840001156553626, 0.49080001190304756, 0.48919999971985817, 0.49700000090524554, 0.5152500089025125, 0.49789999320637435, 0.49229999422095716, 0.4912999866064638, 0.4926999972667545, 0.5374499887693673, 0.48749998677521944, 0.4966500127920881, 0.48675001016817987, 0.4931500006932765, 0.5007500003557652, 0.4895000020042062, 0.4965499974787235, 0.48844999400898814, 0.4848500102525577, 0.500599984661676, 0.4852499987464398, 0.4814999847440049, 0.4972000024281442, 0.49520001630298793, 0.49015000695362687, 0.4824999923584983, 0.4893500008620322, 0.505700008943677, 0.47670000640209764, 0.6147499952930957, 0.4880499909631908, 0.48835000779945403, 0.5038499948568642, 0.4967499990016222, 0.4899500054307282, 0.4898500192211941, 0.4951000155415386, 0.49154998851008713, 0.4892000142717734, 0.49234999460168183, 0.484650008729659, 0.49250001029577106, 0.4963000101270154, 0.4989999870304018, 0.48305001109838486, 0.5048500024713576, 0.5256999866105616, 0.4855000152019784, 0.4958500067004934, 0.49140000191982836, 0.4944500105921179, 0.4844499926548451, 0.49795000813901424, 0.5014500056859106, 0.48874999629333615, 0.49014999240171164, 0.5009500164305791, 0.4863499925704673, 0.4854500002693385, 0.4909999843221158, 0.49015000695362687, 0.48829999286681414, 0.4910499992547557, 0.48469999455846846, 0.47795001592021435, 0.4843499918933958, 0.4879500047536567, 0.4856500163441524, 0.48984999011736363, 0.48389998846687376, 0.4926999972667545, 0.4971000016666949, 0.49569999100640416, 0.49670001317281276, 0.48254999273922294, 0.5262500053504482, 0.4927500121993944, 0.4989000008208677, 0.4940000071655959, 0.487750003230758, 0.4807999939657748, 0.4880499909631908, 0.5841499951202422, 0.5330499989213422, 0.48824999248608947, 0.4766000056406483, 0.5150999932084233, 0.4969500005245209, 0.4857500025536865, 0.48269999388139695, 0.48269999388139695, 0.48809999134391546, 0.48499999684281647, 0.4877499886788428, 0.4980000085197389, 0.5228999943938106, 0.48925000010058284, 0.494399995659478, 0.4914000164717436, 0.4797000001417473, 0.4914499877486378, 0.49470001249574125, 0.510150013724342, 0.49649999709799886, 0.48865001008380204, 0.505700008943677, 0.49239998043049127, 0.4807499935850501, 0.49184999079443514, 0.4856000014115125, 0.4963999963365495, 0.49339998804498464, 0.48949998745229095, 0.4881500208284706, 0.48874999629333615, 0.488050005515106, 0.4863500071223825, 0.48594998952466995, 0.4972500028088689, 0.5015999922761694, 0.4921000072499737, 0.4977000062353909, 0.5324499943526462, 0.4930500144837424, 0.49574999138712883, 0.48609999066684395, 0.48379998770542443, 0.4965499829268083, 0.4875999875366688, 0.487149998662062, 0.4949500143993646, 0.4957000055583194, 0.49739998939912766, 0.4836999869439751, 0.49854999815579504, 0.48374998732469976, 0.4973000177415088, 0.4935500037390739, 0.49065001076087356, 0.4893000004813075, 0.5025000136811286, 0.49064999620895833, 0.5106999888084829, 0.4848500102525577, 0.480350005091168, 0.5054000066593289, 0.48299999616574496, 0.4971000016666949, 0.5008000007364899, 0.4919499915558845, 0.49584999214857817, 0.4826500080525875, 0.4840500187128782, 0.49259999650530517, 0.4890500131295994, 0.4893500154139474, 0.48334999883081764, 0.4832499980693683, 0.49574999138712883, 0.48740001511760056, 0.47864999214652926, 0.4867999959969893, 0.4920999926980585, 0.49414999375585467, 0.4887999821221456, 0.4922499938402325, 0.48299999616574496, 0.5022999976063147, 0.4800500173587352, 0.4868500109296292, 0.5041499971412122, 0.49330000183545053, 0.49274998309556395, 0.490849997731857, 0.6504500051960349, 0.5238500016275793, 0.4987499851267785, 0.49035000847652555, 0.4823500057682395, 0.487600002088584, 0.5495000077644363, 0.5474000063259155, 0.4886499809799716, 0.49554998986423016, 0.6241500086616725, 0.4943999811075628, 0.5419500084826723, 0.4806999786524102, 0.48695001169107854, 0.49170000420417637, 0.5415499908849597, 0.49600002239458263, 0.5498000100487843, 0.5018499941797927, 0.48534999950788915, 0.532899983227253, 0.5014000053051859, 0.524650007719174, 0.5342500080587342, 0.6047999922884628, 0.48775001778267324, 0.4929999849991873, 0.5011500034015626, 0.49974999274127185, 0.4869000113103539, 0.49435000983066857, 0.5056999943917617, 0.4943499807268381, 0.49435000983066857, 0.49765000585466623, 0.4889499978162348, 0.48704999790061265, 0.49190000572707504, 0.4798500012839213, 0.4793999978573993, 0.48394998884759843, 0.5082999996375293, 0.5008499865652993, 0.4875999875366688, 0.4995499912183732, 0.5015000060666353, 0.47879997873678803, 0.5018000083509833, 0.4914499877486378, 0.4917499900329858, 0.4961500089848414, 0.4933500167680904, 0.49834999663289636, 0.4892000142717734, 0.494399995659478, 0.498249995871447, 0.487900004372932, 0.4975000047124922, 0.4881999921053648, 0.49239998043049127, 0.49399999261368066, 0.4876500024693087, 0.48835000779945403, 0.49155000306200236, 0.48585000331513584, 0.48645000788383186, 0.48624999180901796, 0.4960000078426674, 0.4987499851267785, 0.48430000606458634, 0.4996499919798225, 0.49930000386666507, 0.48025000432971865, 0.49834999663289636, 0.4958500067004934, 0.5161500012036413, 0.48040000547189265, 0.4985000123269856, 0.5056499794591218, 0.4864999937126413, 0.5076499946881086, 0.48639999295119196, 0.49705001583788544, 0.505649994011037, 0.4886499955318868, 0.5095000087749213, 0.5012000037822872, 0.5355500034056604, 0.5343000229913741, 0.5538999976124614, 0.4957999917678535, 0.4987499996786937, 0.4911000141873956, 0.5039500101702288, 0.4886499809799716, 0.5028000159654766, 0.50230001215823, 0.4999000084353611, 0.4918000049656257, 0.5173000099603087, 0.4930999857606366, 0.5009499873267487, 0.5008000007364899, 0.48910001351032406, 0.49325000145472586, 0.49079999735113233, 0.5018999945605174, 0.49584999214857817, 0.488050005515106, 0.4878000181633979, 0.48999999125953764, 0.48495001101400703, 0.4820500180358067, 0.4996499919798225, 0.49404999299440533, 0.4850000113947317, 0.47900000936351717, 0.4896999889751896, 0.48820000665728003, 0.4931499861413613, 0.4893000004813075, 0.494249994517304, 0.48770001740194857, 0.4997999931219965, 0.5033999914303422, 0.4865500086452812, 0.5022500117775053, 0.48999999125953764, 0.49524998757988214, 0.49405000754632056, 0.490699996589683, 0.4889499978162348, 0.4824999923584983, 0.48639999295119196, 0.5014499911339954, 0.49310000031255186, 0.4994999908376485, 0.4890000127488747, 0.48395000339951366, 0.4922500083921477, 0.49575000593904406, 0.49199999193660915, 0.49449999642092735, 0.5073499924037606, 0.49310000031255186, 0.4932000010740012, 0.5004999984521419, 0.49775000661611557, 0.49315001524519175, 0.4943000094499439, 0.48734998563304543, 0.4921000072499737, 0.49334998766425997, 0.4797000001417473, 0.4895000020042062, 0.49064999620895833, 0.5015999777242541, 0.49855001270771027, 0.5137999833095819, 0.5040999967604876, 0.5019999953219667, 0.49100001342594624, 0.49340000259689987, 0.4917000187560916, 0.4886000097030774, 0.49095001304522157, 0.4964500112691894, 0.48755001625977457, 0.4996000061510131, 0.5017499934183434, 0.49845001194626093, 0.4938000056426972, 0.4929999995511025, 0.49664999824017286, 0.4922499938402325, 0.5006499995943159, 0.48644999333191663, 0.4971000016666949, 0.5006999999750406, 0.5348999984562397, 0.7199000101536512, 0.6110500107752159, 0.48824999248608947, 0.49080001190304756, 0.49184999079443514, 0.4876999882981181, 0.49390000640414655, 0.4867000097874552, 0.5001999961677939, 0.4935000033583492, 0.49590000708121806, 0.5004999984521419, 0.5065999866928905, 0.47494999307673424, 0.5090999911772087, 0.48844999400898814, 0.4905500099994242, 0.48889999743551016, 0.49419999413657933, 0.4939500067848712, 0.49384999147150666, 0.4879500193055719, 0.49190002027899027, 0.49545000365469605, 0.49199999193660915, 0.4904999950667843, 0.5223499902058393, 0.4810999962501228, 0.5104499869048595, 0.48275000881403685, 0.4849499964620918, 0.48910001351032406, 0.48880001122597605, 0.5060499825049192, 0.4861999914282933, 0.4770500090671703, 0.5174500111024827, 0.48559998685959727, 0.48165000043809414, 0.48290000995621085, 0.48660000902600586, 0.5035999929532409, 0.48410000454168767, 0.4903000080958009, 0.49089998356066644, 0.49360000411979854, 0.49700000090524554, 0.4870000120718032, 0.4995500057702884, 0.4946500121150166, 0.48600000445730984, 0.49080001190304756, 0.4938999918522313, 0.4983500111848116, 0.6574500002898276, 0.5238000012468547, 0.501649992656894, 0.481250011944212, 0.5024999991292134, 0.49679999938234687, 0.5047000013291836, 0.49715000204741955, 0.490549995447509, 0.49360000411979854, 0.49334998766425997, 0.4816499858861789, 0.5039000243414193, 0.48410000454168767, 0.48319999768864363, 0.4861499910475686, 0.49619999481365085, 0.49765000585466623, 0.49669999862089753, 0.5035499925725162, 0.490999998874031, 0.49255001067649573, 0.49705001583788544, 0.49054998089559376, 0.5003999976906925, 0.49044999468605965, 0.48880001122597605, 0.4833499842789024, 0.490699996589683, 0.49279999802820385, 0.4801500035682693, 0.4759499861393124, 0.4985999985365197, 0.4811999970115721, 0.48329999845009297, 0.4858000174863264, 0.4820500034838915, 0.601100007770583, 0.5011500034015626, 0.4928999987896532, 0.49425000906921923, 0.4910499992547557, 0.4956499906256795, 0.5343500088201836, 0.5177500133868307, 0.4865000082645565, 0.490249993163161, 0.5630999949062243, 0.4797000001417473, 0.5315499874996021, 0.481400013086386, 0.4844999930355698, 0.49515000137034804, 0.5349000130081549, 0.4852999991271645, 0.534999999217689, 0.48735000018496066, 0.49560000479687005, 0.5391500017140061, 0.5076000234112144, 0.5196999991312623, 0.5963999865343794, 0.48585001786705106, 0.48284999502357095, 0.49860001308843493, 0.4842999915126711, 0.49050000961869955, 0.48320001224055886, 0.502099996083416, 0.4872499994235113, 0.4886000097030774, 0.5040000105509534, 0.5005999992135912, 0.4820500180358067, 0.4844999930355698, 0.4913500015391037, 0.48565000179223716, 0.48379998770542443, 0.4928499838570133, 0.4893500008620322, 0.4938999918522313, 0.48909999895840883, 0.4794499836862087, 0.4971000016666949, 0.4918999911751598, 0.49149998812936246, 0.4836499865632504, 0.5325499951140955, 0.49649999709799886, 0.5242500046733767, 0.49405000754632056, 0.4896500031463802, 0.5060499970568344, 0.4952500021317974, 0.48880001122597605, 0.48745000094641, 0.4946500121150166, 0.5046000151196495, 0.48829999286681414, 0.48925001465249807, 0.4963499814039096, 0.49190000572707504, 0.48320001224055886, 0.4894500016234815, 0.49205000686924905, 0.5371500010369346, 0.4802499897778034, 0.5036999937146902, 0.49944999045692384, 0.49409999337513, 0.4958500067004934, 0.4867999959969893, 0.4932999872835353, 0.4884499794570729, 0.5180000007385388, 0.49220000801142305, 0.4975000047124922, 0.5278999888105318, 0.4839500179514289, 0.48394998884759843, 0.4828500095754862, 0.4887999966740608, 0.4855500010307878, 0.4902999789919704, 0.5035999929532409, 0.48734998563304543, 0.4494499880820513, 0.5981999856885523, 0.4894500016234815, 0.4907500115223229, 0.487900004372932, 0.487149998662062, 0.4968499852111563, 0.4936500045005232, 0.49360000411979854, 0.5017499934183434, 0.4969500005245209, 0.484650008729659, 0.49474998377263546, 0.49649998254608363, 0.4915000026812777, 0.49264999688602984, 0.4903499939246103, 0.48284999502357095, 0.5307500250637531, 0.486999997519888, 0.4935000033583492, 0.4895000020042062, 0.4870000120718032, 0.48829999286681414, 0.49470001249574125, 0.4958000063197687, 0.4820000031031668, 0.4957000201102346, 0.49324998690281063, 0.4947499983245507, 0.4926999972667545, 0.48275000881403685, 0.48919998516794294, 0.4915999888908118, 0.4916500038234517, 0.5026500002713874, 0.4843499918933958, 0.4888499970547855, 0.49905001651495695, 0.4925499961245805, 0.4969999863533303, 0.4915000026812777, 0.4932999872835353, 0.49855001270771027, 0.515749998157844, 0.483750001876615, 0.48404998960904777, 0.48955000238493085, 0.4820999893127009, 0.49119998584501445, 0.5006999999750406, 0.4844000068260357, 0.5001999961677939, 0.48585000331513584, 0.4863499925704673, 0.5042499979026616, 0.4820999893127009, 0.5024499987484887, 0.48144999891519547, 0.4870999837294221, 0.49589999252930284, 0.49115001456812024, 0.4777999856742099, 0.49330000183545053, 0.48570001672487706, 0.5101000133436173, 0.49589999252930284, 0.4878999898210168, 0.49160000344272703, 0.4883999936282635, 0.4887999966740608, 0.48579998838249594, 0.4974000039510429, 0.49569999100640416, 0.5053000058978796, 0.4922500083921477, 0.501049988088198, 0.4804500058526173, 0.4829500103369355, 0.48909999895840883, 0.4959499929100275, 0.5066999874543399, 0.49244999536313117, 0.5313500150805339, 0.48919999971985817, 0.4887000104645267, 0.5072000058135018, 0.5028500017942861, 0.48505001177545637, 0.4923999949824065, 0.4862000059802085, 0.4995500057702884, 0.6182999932207167, 0.5710999976145104, 0.48570000217296183, 0.5022999976063147, 0.48594998952466995, 0.5111499922350049, 0.4798500012839213, 0.49634999595582485, 0.5022000113967806, 0.49870001384988427, 0.487900004372932, 0.4948999994667247, 0.49775000661611557, 0.494699997943826, 0.4975500050932169, 0.48519999836571515, 0.4972000024281442, 0.490099992020987, 0.4832499980693683, 0.4998499935027212, 0.48540001444052905, 0.48489999608136714, 0.4948999994667247, 0.49485001363791525, 0.5031000036979094, 0.4977000062353909, 0.4881000058958307, 0.4920000210404396, 0.48510001215618104, 0.49605000822339207, 0.48239999159704894, 0.5153499951120466, 0.48304999654646963, 0.4996499919798225, 0.4951999871991575, 0.5270000110613182, 0.5119999987073243, 0.48630000674165785, 0.5204999906709418, 0.48915001389104873, 0.49250001029577106, 0.4917499900329858, 0.4788000078406185, 0.4892999859293923, 0.49819999549072236, 0.48499999684281647, 0.5043000273872167, 0.49435000983066857, 0.49160001799464226, 0.49360000411979854, 0.49050000961869955, 0.4895000165561214, 0.4972000024281442, 0.49050000961869955, 0.48374998732469976, 0.4831999831367284, 0.490249993163161, 0.49014999240171164, 0.48874999629333615, 0.4927500121993944, 0.4958500067004934, 0.48979998973663896, 0.487900004372932, 0.49255001067649573, 0.490549995447509, 0.494249994517304, 0.4892000142717734, 0.4913500160910189, 0.49259999650530517, 0.49015000695362687, 0.49619999481365085, 0.4914499877486378, 0.49064999620895833, 0.4937000048812479, 0.4944499960402027, 0.5009999877074733, 0.5446000141091645, 0.49679999938234687, 0.49855001270771027, 0.4938999918522313, 0.4935000033583492, 0.5512500210897997, 0.4890999844064936, 0.48644999333191663, 0.4924999811919406, 0.49345000297762454, 0.49754999054130167, 0.49625000974629074, 0.5911500047659501, 0.48904999857768416, 0.493799991090782, 0.49274998309556395, 0.486999997519888, 0.487900004372932, 0.5558500124607235, 0.5134999955771491, 0.48964998859446496, 0.5030499887652695, 0.6136999872978777, 0.5211499956203625, 0.5347500118659809, 0.5008000007364899, 0.49965000653173774, 0.48254999273922294, 0.5254499992588535, 0.3993499994976446, 0.4940000071655959, 0.48510001215618104, 0.502600014442578, 0.530249992152676, 0.49754999054130167, 0.6877999985590577, 0.5571999936364591, 0.4928999987896532, 0.5104500014567748, 0.49270001181866974, 0.5055999936303124, 0.49259999650530517, 0.48644999333191663, 0.4903499939246103, 0.48659999447409064, 0.49694998597260565, 0.4969500005245209, 0.4923000087728724, 0.49575000593904406, 0.5013500049244612, 0.5405500123742968, 0.5037999944761395, 0.490549995447509, 0.5078000103821978, 0.48899998364504427, 0.4977000062353909, 0.49679998483043164, 0.4889000119874254, 0.4926999972667545, 0.49300001410301775, 0.4850000113947317, 0.49235000915359706, 0.48800000513438135, 0.5085500015411526, 0.5217499856371433, 0.4870999982813373, 0.48760001664049923, 0.5035499925725162, 0.491300001158379, 0.48794999020174146, 0.49760000547394156, 0.4898000042885542, 0.4846499941777438, 0.4963000101270154, 0.48550000065006316, 0.4917999904137105, 0.49524998757988214, 0.5090999911772087, 0.5004999984521419, 0.4963500105077401, 0.481400013086386, 0.4975000047124922, 0.49569999100640416, 0.4932500160066411, 0.5047500017099082, 0.49265001143794507, 0.506600015796721, 0.50380002357997, 0.49894998664967716, 0.49234999460168183, 0.49184999079443514, 0.4923000087728724, 0.49870001384988427, 0.5142500012880191, 0.500149981235154, 0.505499992868863, 0.4881999921053648, 0.487299999804236, 0.4837000014958903, 0.4852000129176304, 0.5054000066593289, 0.4969500150764361, 0.535300001502037, 0.4854500002693385, 0.4910499992547557, 0.4851999838137999, 0.4896500031463802, 0.4870000120718032, 0.490849997731857, 0.5161000008229166, 0.4933500167680904, 0.49989999388344586, 0.5054499779362231, 0.5005499988328665, 0.49705001583788544, 0.48004998825490475, 0.49115001456812024, 0.4949999856762588, 0.499800022225827, 0.5273499991744757, 0.4920000064885244, 0.5029500025557354, 0.49434999527875334, 0.509100005729124, 0.5717999883927405, 0.4932000010740012, 0.4819499881705269, 0.5000500095775351],
  "QPU": "7000000",
  "Qubits": 9,
  "Queue durations [ms]": [0.0, 0.0, 0.0, 0.0, 0.0, 0.0, 0.0, 0.0, 0.0, 0.0, 0.0, 0.0, 0.0, 0.0, 0.0, 0.0, 0.0, 0.0, 0.0, 0.0, 0.0, 0.0, 0.0, 0.0, 0.0, 0.0, 0.0, 0.0, 0.0, 0.0, 0.0, 0.0, 0.0, 0.0, 0.0, 0.0, 0.0, 0.0, 0.0, 0.0, 0.0, 0.0, 0.0, 0.0, 0.0, 0.0, 0.0, 0.0, 0.0, 0.0, 0.0, 0.0, 0.0, 0.0, 0.0, 0.0, 0.0, 0.0, 0.0, 0.0, 0.0, 0.0, 0.0, 0.0, 0.0, 0.0, 0.0, 0.0, 0.0, 0.0, 0.0, 0.0, 0.0, 0.0, 0.0, 0.0, 0.0, 0.0, 0.0, 0.0, 0.0, 0.0, 0.0, 0.0, 0.0, 0.0, 0.0, 0.0, 0.0, 0.0, 0.0, 0.0, 0.0, 0.0, 0.0, 0.0, 0.0, 0.0, 0.0, 0.0, 0.0, 0.0, 0.0, 0.0, 0.0, 0.0, 0.0, 0.0, 0.0, 0.0, 0.0, 0.0, 0.0, 0.0, 0.0, 0.0, 0.0, 0.0, 0.0, 0.0, 0.0, 0.0, 0.0, 0.0, 0.0, 0.0, 0.0, 0.0, 0.0, 0.0, 0.0, 0.0, 0.0, 0.0, 0.0, 0.0, 0.0, 0.0, 0.0, 0.0, 0.0, 0.0, 0.0, 0.0, 0.0, 0.0, 0.0, 0.0, 0.0, 0.0, 0.0, 0.0, 0.0, 0.0, 0.0, 0.0, 0.0, 0.0, 0.0, 0.0, 0.0, 0.0, 0.0, 0.0, 0.0, 0.0, 0.0, 0.0, 0.0, 0.0, 0.0, 0.0, 0.0, 0.0, 0.0, 0.0, 0.0, 0.0, 0.0, 0.0, 0.0, 0.0, 0.0, 0.0, 0.0, 0.0, 0.0, 0.0, 0.0, 0.0, 0.0, 0.0, 0.0, 0.0, 0.0, 0.0, 0.0, 0.0, 0.0, 0.0, 0.0, 0.0, 0.0, 0.0, 0.0, 0.0, 0.0, 0.0, 0.0, 0.0, 0.0, 0.0, 0.0, 0.0, 0.0, 0.0, 0.0, 0.0, 0.0, 0.0, 0.0, 0.0, 0.0, 0.0, 0.0, 0.0, 0.0, 0.0, 0.0, 0.0, 0.0, 0.0, 0.0, 0.0, 0.0, 0.0, 0.0, 0.0, 0.0, 0.0, 0.0, 0.0, 0.0, 0.0, 0.0, 0.0, 0.0, 0.0, 0.0, 0.0, 0.0, 0.0, 0.0, 0.0, 0.0, 0.0, 0.0, 0.0, 0.0, 0.0, 0.0, 0.0, 0.0, 0.0, 0.0, 0.0, 0.0, 0.0, 0.0, 0.0, 0.0, 0.0, 0.0, 0.0, 0.0, 0.0, 0.0, 0.0, 0.0, 0.0, 0.0, 0.0, 0.0, 0.0, 0.0, 0.0, 0.0, 0.0, 0.0, 0.0, 0.0, 0.0, 0.0, 0.0, 0.0, 0.0, 0.0, 0.0, 0.0, 0.0, 0.0, 0.0, 0.0, 0.0, 0.0, 0.0, 0.0, 0.0, 0.0, 0.0, 0.0, 0.0, 0.0, 0.0, 0.0, 0.0, 0.0, 0.0, 0.0, 0.0, 0.0, 0.0, 0.0, 0.0, 0.0, 0.0, 0.0, 0.0, 0.0, 0.0, 0.0, 0.0, 0.0, 0.0, 0.0, 0.0, 0.0, 0.0, 0.0, 0.0, 0.0, 0.0, 0.0, 0.0, 0.0, 0.0, 0.0, 0.0, 0.0, 0.0, 0.0, 0.0, 0.0, 0.0, 0.0, 0.0, 0.0, 0.0, 0.0, 0.0, 0.0, 0.0, 0.0, 0.0, 0.0, 0.0, 0.0, 0.0, 0.0, 0.0, 0.0, 0.0, 0.0, 0.0, 0.0, 0.0, 0.0, 0.0, 0.0, 0.0, 0.0, 0.0, 0.0, 0.0, 0.0, 0.0, 0.0, 0.0, 0.0, 0.0, 0.0, 0.0, 0.0, 0.0, 0.0, 0.0, 0.0, 0.0, 0.0, 0.0, 0.0, 0.0, 0.0, 0.0, 0.0, 0.0, 0.0, 0.0, 0.0, 0.0, 0.0, 0.0, 0.0, 0.0, 0.0, 0.0, 0.0, 0.0, 0.0, 0.0, 0.0, 0.0, 0.0, 0.0, 0.0, 0.0, 0.0, 0.0, 0.0, 0.0, 0.0, 0.0, 0.0, 0.0, 0.0, 0.0, 0.0, 0.0, 0.0, 0.0, 0.0, 0.0, 0.0, 0.0, 0.0, 0.0, 0.0, 0.0, 0.0, 0.0, 0.0, 0.0, 0.0, 0.0, 0.0, 0.0, 0.0, 0.0, 0.0, 0.0, 0.0, 0.0, 0.0, 0.0, 0.0, 0.0, 0.0, 0.0, 0.0, 0.0, 0.0, 0.0, 0.0, 0.0, 0.0, 0.0, 0.0, 0.0, 0.0, 0.0, 0.0, 0.0, 0.0, 0.0, 0.0, 0.0, 0.0, 0.0, 0.0, 0.0, 0.0, 0.0, 0.0, 0.0, 0.0, 0.0, 0.0, 0.0, 0.0, 0.0, 0.0, 0.0, 0.0, 0.0, 0.0, 0.0, 0.0, 0.0, 0.0, 0.0, 0.0, 0.0, 0.0, 0.0, 0.0, 0.0, 0.0, 0.0, 0.0, 0.0, 0.0, 0.0, 0.0, 0.0, 0.0, 0.0, 0.0, 0.0, 0.0, 0.0, 0.0, 0.0, 0.0, 0.0, 0.0, 0.0, 0.0, 0.0, 0.0, 0.0, 0.0, 0.0, 0.0, 0.0, 0.0, 0.0, 0.0, 0.0, 0.0, 0.0, 0.0, 0.0, 0.0, 0.0, 0.0, 0.0, 0.0, 0.0, 0.0, 0.0, 0.0, 0.0, 0.0, 0.0, 0.0, 0.0, 0.0, 0.0, 0.0, 0.0, 0.0, 0.0, 0.0, 0.0, 0.0, 0.0, 0.0, 0.0, 0.0, 0.0, 0.0, 0.0, 0.0, 0.0, 0.0, 0.0, 0.0, 0.0, 0.0, 0.0, 0.0, 0.0, 0.0, 0.0, 0.0, 0.0, 0.0, 0.0, 0.0, 0.0, 0.0, 0.0, 0.0, 0.0, 0.0, 0.0, 0.0, 0.0, 0.0, 0.0, 0.0, 0.0, 0.0, 0.0, 0.0, 0.0, 0.0, 0.0, 0.0, 0.0, 0.0, 0.0, 0.0, 0.0, 0.0, 0.0, 0.0, 0.0, 0.0, 0.0, 0.0, 0.0, 0.0, 0.0, 0.0, 0.0, 0.0, 0.0, 0.0, 0.0, 0.0, 0.0, 0.0, 0.0, 0.0, 0.0, 0.0, 0.0, 0.0, 0.0, 0.0, 0.0, 0.0, 0.0, 0.0, 0.0, 0.0, 0.0, 0.0, 0.0, 0.0, 0.0, 0.0, 0.0, 0.0, 0.0, 0.0, 0.0, 0.0, 0.0, 0.0, 0.0, 0.0, 0.0, 0.0, 0.0, 0.0, 0.0, 0.0, 0.0, 0.0, 0.0, 0.0, 0.0, 0.0, 0.0, 0.0, 0.0, 0.0, 0.0, 0.0, 0.0, 0.0, 0.0, 0.0, 0.0, 0.0, 0.0, 0.0, 0.0, 0.0, 0.0, 0.0, 0.0, 0.0, 0.0, 0.0, 0.0, 0.0, 0.0, 0.0, 0.0, 0.0, 0.0, 0.0, 0.0, 0.0, 0.0, 0.0, 0.0, 0.0, 0.0, 0.0, 0.0, 0.0, 0.0, 0.0, 0.0, 0.0, 0.0, 0.0, 0.0, 0.0, 0.0, 0.0, 0.0, 0.0, 0.0, 0.0, 0.0, 0.0, 0.0, 0.0, 0.0, 0.0, 0.0, 0.0, 0.0, 0.0, 0.0, 0.0, 0.0, 0.0, 0.0, 0.0, 0.0, 0.0, 0.0, 0.0, 0.0, 0.0, 0.0, 0.0, 0.0, 0.0, 0.0, 0.0, 0.0, 0.0, 0.0, 0.0, 0.0, 0.0, 0.0, 0.0, 0.0, 0.0, 0.0, 0.0, 0.0, 0.0, 0.0, 0.0, 0.0, 0.0, 0.0, 0.0, 0.0, 0.0, 0.0, 0.0, 0.0, 0.0, 0.0, 0.0, 0.0, 0.0, 0.0, 0.0, 0.0, 0.0, 0.0, 0.0, 0.0, 0.0, 0.0, 0.0, 0.0, 0.0, 0.0, 0.0, 0.0, 0.0, 0.0, 0.0, 0.0, 0.0, 0.0, 0.0, 0.0, 0.0, 0.0, 0.0, 0.0, 0.0, 0.0, 0.0, 0.0, 0.0, 0.0, 0.0, 0.0, 0.0, 0.0, 0.0, 0.0, 0.0, 0.0, 0.0, 0.0, 0.0, 0.0, 0.0, 0.0, 0.0, 0.0, 0.0, 0.0, 0.0, 0.0, 0.0, 0.0, 0.0, 0.0, 0.0, 0.0, 0.0, 0.0, 0.0, 0.0, 0.0, 0.0, 0.0, 0.0, 0.0, 0.0, 0.0, 0.0, 0.0, 0.0, 0.0, 0.0, 0.0, 0.0, 0.0, 0.0, 0.0, 0.0, 0.0, 0.0, 0.0, 0.0, 0.0, 0.0, 0.0, 0.0, 0.0, 0.0, 0.0, 0.0, 0.0, 0.0, 0.0, 0.0, 0.0, 0.0, 0.0, 0.0, 0.0, 0.0, 0.0, 0.0, 0.0, 0.0, 0.0, 0.0, 0.0, 0.0, 0.0, 0.0, 0.0, 0.0, 0.0, 0.0, 0.0, 0.0, 0.0, 0.0, 0.0, 0.0, 0.0, 0.0, 0.0, 0.0, 0.0, 0.0, 0.0, 0.0, 0.0, 0.0, 0.0, 0.0, 0.0, 0.0, 0.0, 0.0, 0.0, 0.0, 0.0, 0.0, 0.0, 0.0, 0.0, 0.0, 0.0, 0.0, 0.0, 0.0, 0.0, 0.0, 0.0, 0.0, 0.0, 0.0, 0.0, 0.0, 0.0, 0.0, 0.0, 0.0, 0.0, 0.0, 0.0, 0.0, 0.0, 0.0, 0.0, 0.0, 0.0, 0.0, 0.0, 0.0, 0.0, 0.0, 0.0, 0.0, 0.0, 0.0, 0.0, 0.0, 0.0, 0.0, 0.0, 0.0, 0.0, 0.0, 0.0, 0.0, 0.0, 0.0, 0.0, 0.0, 0.0, 0.0, 0.0, 0.0, 0.0, 0.0, 0.0, 0.0, 0.0, 0.0, 0.0, 0.0, 0.0, 0.0, 0.0, 0.0, 0.0, 0.0, 0.0, 0.0, 0.0, 0.0, 0.0, 0.0, 0.0, 0.0, 0.0, 0.0, 0.0, 0.0, 0.0, 0.0, 0.0, 0.0, 0.0, 0.0, 0.0, 0.0, 0.0, 0.0, 0.0, 0.0, 0.0, 0.0, 0.0, 0.0, 0.0, 0.0, 0.0, 0.0, 0.0, 0.0, 0.0, 0.0, 0.0, 0.0, 0.0, 0.0, 0.0, 0.0, 0.0, 0.0, 0.0, 0.0, 0.0, 0.0, 0.0, 0.0, 0.0, 0.0, 0.0, 0.0, 0.0, 0.0, 0.0, 0.0, 0.0, 0.0, 0.0, 0.0, 0.0, 0.0, 0.0, 0.0, 0.0, 0.0, 0.0, 0.0, 0.0, 0.0, 0.0, 0.0, 0.0, 0.0, 0.0, 0.0, 0.0, 0.0, 0.0, 0.0, 0.0, 0.0, 0.0, 0.0, 0.0, 0.0, 0.0, 0.0, 0.0, 0.0, 0.0, 0.0, 0.0, 0.0, 0.0, 0.0, 0.0, 0.0],
  "Shots": 4096,
  "Size": 9,
  "Total Algorithm duration [s]": 12.355,
  "Total Classic duration [s]": 11.803144699344994,
  "Total Quantum duration [s]": 0.5518553006550064
}
