{
  "Circuit execution durations [ms]": [0.497949993587099, 0.4982999962521717, 0.4977000062353909, 0.5049000028520823, 0.49399999261368066, 0.4878999898210168, 0.5012000037822872, 0.49479999870527536, 0.4994999908376485, 0.49170000420417637, 0.49134998698718846, 0.4844499926548451, 0.501649992656894, 0.4917999904137105, 0.48669998068362474, 0.48725001397542655, 0.48090000927913934, 0.5018000083509833, 0.493649989948608, 0.4921499785268679, 0.48665000940673053, 0.48319999768864363, 0.4907000111415982, 0.48829999286681414, 0.48159998550545424, 0.4935500037390739, 0.48230000538751483, 0.48760001664049923, 0.49340000259689987, 0.4929999849991873, 0.48579998838249594, 0.49175000458490103, 0.4937499907100573, 0.48674999561626464, 0.48395000339951366, 0.49064999620895833, 0.4797500150743872, 0.5029499880038202, 0.49384999147150666, 0.4953500028932467, 0.4899500054307282, 0.5009499873267487, 0.4900499916402623, 0.4952000017510727, 0.49315001524519175, 0.4871500132139772, 0.4968499852111563, 0.48505001177545637, 0.48949998745229095, 0.48680001054890454, 0.49354998918715864, 0.4952000017510727, 0.48639999295119196, 0.4970500012859702, 0.4971000016666949, 0.4955000040354207, 0.5010999884689227, 0.48160000005736947, 0.48660000902600586, 0.48320001224055886, 0.4820000031031668, 0.49334998766425997, 0.4967499990016222, 0.49900000158231705, 0.5069500039098784, 0.49119998584501445, 0.4860500048380345, 0.49510000098962337, 0.48349999997299165, 0.4866499948548153, 0.49229999422095716, 0.49435000983066857, 0.4997999931219965, 0.4954999894835055, 0.4844499926548451, 0.4819000023417175, 0.4840500187128782, 0.48699998296797276, 0.5016999930376187, 0.48150001384783536, 0.49035000847652555, 0.5330000130925328, 0.6657500052824616, 0.6065000052331015, 0.4895999882137403, 0.49155000306200236, 0.4951000155415386, 0.5032000044593588, 0.48884998250287026, 0.4938999918522313, 0.5001999961677939, 0.49434999527875334, 0.4902500077150762, 0.4982999962521717, 0.502750015584752, 0.48585000331513584, 0.48680001054890454, 0.4853999853366986, 0.4792499967152253, 0.4913500015391037, 0.4842999915126711, 0.49274998309556395, 0.4866499948548153, 0.5260000179987401, 0.49590000708121806, 0.49190000572707504, 0.4990499874111265, 0.47815001744311303, 0.48654999409336597, 0.4883499932475388, 0.49064999620895833, 0.4946000117342919, 0.5175000114832073, 0.49190000572707504, 0.5134500097483397, 0.4912999866064638, 0.5036500078858808, 0.49384999147150666, 0.4826500080525875, 0.48830000741872936, 0.4956499906256795, 0.4970500012859702, 0.48134999815374613, 0.48740001511760056, 0.48990000505000353, 0.4895999882137403, 0.490399994305335, 0.48484998114872724, 0.48654999409336597, 0.4890500131295994, 0.48970000352710485, 0.49259998195338994, 0.49784997827373445, 0.4910499992547557, 0.48925000010058284, 0.5114500236231834, 0.4838000168092549, 0.5011000175727531, 0.4904000088572502, 0.49459998263046145, 0.49229999422095716, 0.4807499935850501, 0.48010000318754464, 0.4847000091103837, 0.484500007587485, 0.4865500086452812, 0.4951000155415386, 0.4920499923173338, 0.487900004372932, 0.5011000030208379, 0.49634999595582485, 0.4927500121993944, 0.4866499948548153, 0.4884999798377976, 0.4981500096619129, 0.4828000091947615, 0.49065001076087356, 0.4867000097874552, 0.5010999884689227, 0.4801500035682693, 0.49659998330753297, 0.4889000119874254, 0.48835000779945403, 0.5051500047557056, 0.48314998275600374, 0.4846499941777438, 0.5038999952375889, 0.4951999871991575, 0.490549995447509, 0.4844999930355698, 0.4962000093655661, 0.4974000039510429, 0.48189998778980225, 0.5324999947333708, 0.49390000640414655, 0.494249994517304, 0.4899500054307282, 0.49259998195338994, 0.4901999927824363, 0.49640001088846475, 0.48964998859446496, 0.5052499909652397, 0.48114999663084745, 0.49169998965226114, 0.4963500105077401, 0.48750000132713467, 0.49914998817257583, 0.48439999227412045, 0.4939500067848712, 0.48820000665728003, 0.4884000081801787, 0.48605001938994974, 0.5065000004833564, 0.494849999086, 0.4935999895678833, 0.5400499940151349, 0.488050005515106, 0.4778500006068498, 0.6465500046033412, 0.46010001096874475, 0.49664999824017286, 0.4930999857606366, 0.4862000059802085, 0.5248999950708821, 0.5052499909652397, 0.49819999549072236, 0.4928999987896532, 0.4984499973943457, 0.4857500025536865, 0.4815499996766448, 0.49414999375585467, 0.4995499912183732, 0.4925499961245805, 0.5026500002713874, 0.4968000139342621, 0.4835500003537163, 0.49700001545716077, 0.49064999620895833, 0.48534999950788915, 0.49214999307878315, 0.5264000210445374, 0.49330000183545053, 0.48844999400898814, 0.49550001858733594, 0.48919998516794294, 0.49404999299440533, 0.4811500111827627, 0.4910499992547557, 0.48665000940673053, 0.48575001710560173, 0.486999997519888, 0.4912000003969297, 0.49074999697040766, 0.5021499819122255, 0.48314999730791897, 0.49875001423060894, 0.5018499941797927, 0.4816000146092847, 0.5074499931652099, 0.4895000165561214, 0.48800000513438135, 0.5167000053916126, 0.49500000022817403, 0.4931500006932765, 0.4839000175707042, 0.4919500061077997, 0.4812499973922968, 0.4921500076306984, 0.49390000640414655, 0.4963999963365495, 0.491300001158379, 0.4867999959969893, 0.4934499884257093, 0.4880000196862966, 0.4875000158790499, 0.48090000927913934, 0.4850999830523506, 0.48609999066684395, 0.49765000585466623, 0.49345000297762454, 0.4850999976042658, 0.5080499831819907, 0.5433500045910478, 0.4904000088572502, 0.4949999856762588, 0.5017499788664281, 0.4896500031463802, 0.48550000065006316, 0.4927499976474792, 0.4903499939246103, 0.4897500039078295, 0.48195000272244215, 0.49044999468605965, 0.4917499900329858, 0.49545000365469605, 0.520650006365031, 0.48829999286681414, 0.4864999937126413, 0.5002000107197091, 0.48275000881403685, 0.4944500105921179, 0.4872499848715961, 0.4921999934595078, 0.49100001342594624, 0.48695001169107854, 0.5345999961718917, 0.49250001029577106, 0.4833999992115423, 0.4941999795846641, 0.49669999862089753, 0.5011000030208379, 0.48080000851769, 0.4862000059802085, 0.4961499944329262, 0.4897500039078295, 0.5107999895699322, 0.5031500040786341, 0.4878499894402921, 0.4951499868184328, 0.49035000847652555, 0.4843499918933958, 0.4855500010307878, 0.49340000259689987, 0.48099999548867345, 0.49140000191982836, 0.497799992444925, 0.49664998368825763, 0.4935000033583492, 0.49064999620895833, 0.4961500089848414, 0.49404999299440533, 0.4978500073775649, 0.4904999950667843, 0.4826499935006723, 0.4933500167680904, 0.5077999812783673, 0.4943000094499439, 0.48714998411014676, 0.4989000008208677, 0.5071999912615865, 0.48275000881403685, 0.4996000061510131, 0.47900000936351717, 0.4893000004813075, 0.49575000593904406, 0.48680001054890454, 0.5133499798830599, 0.504250027006492, 0.48195000272244215, 0.48224999045487493, 0.48649997916072607, 0.5021499964641407, 0.4884000081801787, 0.4909999843221158, 0.5003000114811584, 0.49029999354388565, 0.4859999899053946, 0.4828999954042956, 0.4883499932475388, 0.49015000695362687, 0.5107999895699322, 0.4852499987464398, 0.48305001109838486, 0.4963000101270154, 0.4880499909631908, 0.49325000145472586, 0.48025000432971865, 0.4917000187560916, 0.5048499879194424, 0.49429999489802867, 0.491300001158379, 0.4889999981969595, 0.4985999839846045, 0.49515000137034804, 0.5261999904178083, 0.5083500000182539, 0.5706500087399036, 0.4985499836038798, 0.5016500072088093, 0.4879999905824661, 0.4830000107176602, 0.48255000729113817, 0.4899500054307282, 0.4979999939678237, 0.49434999527875334, 0.48719999904278666, 0.5000999954063445, 0.4971499874955043, 0.49065001076087356, 0.4873000143561512, 0.490699996589683, 0.49229999422095716, 0.49079999735113233, 0.4959499929100275, 0.4943999811075628, 0.49089999811258167, 0.5251499969745055, 0.5018499796278775, 0.4794999986188486, 0.5003999976906925, 0.48255000729113817, 0.494399995659478, 0.49584999214857817, 0.48395000339951366, 0.48745000094641, 0.4915999888908118, 0.49455001135356724, 0.49390000640414655, 0.49494999984744936, 0.4893500154139474, 0.4923999949824065, 0.4893999866908416, 0.4898000042885542, 0.48919999971985817, 0.48899998364504427, 0.4873500147368759, 0.4904000088572502, 0.49694998597260565, 0.4847000091103837, 0.4962499951943755, 0.5050500039942563, 0.48400000378023833, 0.49100001342594624, 0.5073499924037606, 0.5003499973099679, 0.4892999859293923, 0.4864999937126413, 0.48874999629333615, 0.5015999922761694, 0.502750015584752, 0.49080001190304756, 0.48990001960191876, 0.5005499988328665, 0.48844999400898814, 0.49199999193660915, 0.49855001270771027, 0.49530000251252204, 0.490699996589683, 0.5646999925374985, 0.4892000142717734, 0.4991000023437664, 0.4884999943897128, 0.5037500086473301, 0.48570001672487706, 0.5159000138519332, 0.48269999388139695, 0.5074999935459346, 0.49234999460168183, 0.48445000720676035, 0.48105001042131335, 0.49035000847652555, 0.4954999894835055, 0.4917999904137105, 0.4977000062353909, 0.4842500202357769, 0.49085001228377223, 0.49285001296084374, 0.49409999337513, 0.4911000141873956, 0.4848999815294519, 0.4979999939678237, 0.48925000010058284, 0.4810000100405887, 0.48704999790061265, 0.49500001478008926, 0.5001500103389844, 0.5096500099170953, 0.4901000065729022, 0.4952000017510727, 0.5017500079702586, 0.5031999899074435, 0.493649989948608, 0.48750000132713467, 0.50224999722559, 0.4863500071223825, 0.4989000008208677, 0.4948000132571906, 0.49935001879930496, 0.48809999134391546, 0.5885999999009073, 0.5190000083530322, 0.4785499913850799, 0.4992500180378556, 0.4996000061510131, 0.3988499956903979, 0.49589999252930284, 0.48654999409336597, 0.5000499950256199, 0.5342000076780096, 0.5028999876230955, 0.539849977940321, 0.48755000170785934, 0.4931500006932765, 0.4881000058958307, 0.48654999409336597, 0.4997000069124624, 0.49214999307878315, 0.48904998402576894, 0.48809999134391546, 0.5057500093244016, 0.49259999650530517, 0.4862000059802085, 0.494399995659478, 0.48669999523554, 0.49020000733435154, 0.5182500026421621, 0.4971499874955043, 0.48775001778267324, 0.4950500006088987, 0.48400000378023833, 0.49860001308843493, 0.5006999999750406, 0.49869999929796904, 0.5164000031072646, 0.48415000492241234, 0.4997000069124624, 0.4972999886376783, 0.5018000083509833, 0.5046000005677342, 0.49760000547394156, 0.49175000458490103, 0.49774999206420034, 0.494699997943826, 0.5033999914303422, 0.4985000123269856, 0.4938500060234219, 0.5028000159654766, 0.48680001054890454, 0.4925499961245805, 0.491150000016205, 0.5002999969292432, 0.48314998275600374, 0.5228500085650012, 0.48624999180901796, 0.5224000051384792, 0.49205000686924905, 0.4885500093223527, 0.5055500078015029, 0.497499990160577, 0.5067000165581703, 0.4928999987896532, 0.48919999971985817, 0.5022500117775053, 0.5005999992135912, 0.48669999523554, 0.4843499918933958, 0.4832499980693683, 0.4947500128764659, 0.4824499919777736, 0.48809999134391546, 0.4931499861413613, 0.49180001951754093, 0.509400008013472, 0.49265001143794507, 0.48930001503322273, 0.6246499833650887, 0.5231999966781586, 0.605799985351041, 0.497499990160577, 0.4997500218451023, 0.4875999875366688, 0.4946999833919108, 0.48565000179223716, 0.48934998631011695, 0.5018500087317079, 0.5081999988760799, 0.4843499918933958, 0.4997500072931871, 0.5272499838611111, 0.49795000813901424, 0.498099994729273, 0.48615000559948385, 0.4950500151608139, 0.5008000152884051, 0.49780000699684024, 0.49685001431498677, 0.49669999862089753, 0.5048000020906329, 0.5004000122426078, 0.5006999999750406, 0.4921000072499737, 0.4853999998886138, 0.49214999307878315, 0.47644998994655907, 0.5939999973634258, 0.4948499845340848, 0.48394998884759843, 0.49089999811258167, 0.49875001423060894, 0.4979000077582896, 0.4929000133415684, 0.4844000068260357, 0.49020000733435154, 0.5015499918954447, 0.49789999320637435, 0.5103500152472407, 0.4860500048380345, 0.4838500026380643, 0.4986999847460538, 0.4859500040765852, 0.4921999934595078, 0.490849997731857, 0.4858499887632206, 0.49294999917037785, 0.4821499896934256, 0.49050000961869955, 0.49340000259689987, 0.49605000822339207, 0.4793000116478652, 0.4838500026380643, 0.49434999527875334, 0.49255001067649573, 0.4971000016666949, 0.4894500016234815, 0.4927500121993944, 0.4948999994667247, 0.4956000193487853, 0.4910499992547557, 0.5136999825481325, 0.5066500016255304, 0.494399995659478, 0.4961499944329262, 0.48474999493919313, 0.48510001215618104, 0.49900000158231705, 0.5074500077171251, 0.4855499864788726, 0.49924998893402517, 0.48415000492241234, 0.5171500088181347, 0.49404999299440533, 0.5260000179987401, 0.513250008225441, 0.4973500035703182, 0.4864000075031072, 0.4847999953199178, 0.49429999489802867, 0.5265500076347962, 0.49425000906921923, 0.4931500006932765, 0.4983000108040869, 0.4843499918933958, 0.4904999950667843, 0.497649991302751, 0.48609999066684395, 0.48180000158026814, 0.49089999811258167, 0.6158000032883137, 0.6685999978799373, 0.48925000010058284, 0.49094999849330634, 0.5057999951532111, 0.4937499907100573, 0.4817500157514587, 0.48370001604780555, 0.4853999853366986, 0.4884499794570729, 0.4862000059802085, 0.4842999915126711, 0.4922500083921477, 0.5296999879647046, 0.49414999375585467, 0.4794999986188486, 0.4986500134691596, 0.4927500121993944, 0.48910001351032406, 0.4889499978162348, 0.49069998203776777, 0.4835500003537163, 0.494699997943826, 0.4948999994667247, 0.4954000032739714, 0.5019999953219667, 0.5003999976906925, 0.49944999045692384, 0.49404999299440533, 0.49384999147150666, 0.49264999688602984, 0.49409999337513, 0.494549996801652, 0.48639999295119196, 0.4990500019630417, 0.4912499862257391, 0.5045000143582001, 0.4927500121993944, 0.4863499925704673, 0.4915000026812777, 0.5023999983677641, 0.500149981235154, 0.48314999730791897, 0.4827999946428463, 0.49574999138712883, 0.49190000572707504, 0.4907000111415982, 0.5094999942230061, 0.49429999489802867, 0.48180000158026814, 0.5091500061098486, 0.4955500044161454, 0.487600002088584, 0.48284999502357095, 0.49780000699684024, 0.4844000068260357, 0.5074000073364004, 0.4980500089004636, 0.4918999911751598, 0.4927500121993944, 0.49610000860411674, 0.5066500016255304, 0.49774999206420034, 0.509100005729124, 0.5338499904610217, 0.49870001384988427, 0.4958000063197687, 0.52299999515526, 0.5015500064473599, 0.4970500012859702, 0.5142000154592097, 0.4803999909199774, 0.5025999998906627, 0.4900499916402623, 0.5431500030681491, 0.48639999295119196, 0.4861000052187592, 0.49649999709799886, 0.49319998652208596, 0.49259999650530517, 0.4982000100426376, 0.4869499971391633, 0.48585001786705106, 0.49515000137034804, 0.5030499887652695, 0.516050000442192, 0.5452999903354794, 0.49474998377263546, 0.5233499978203326, 0.5081499984953552, 0.4899500054307282, 0.6110499962233007, 0.5011499742977321, 0.5024000129196793, 0.49235000915359706, 0.4799000162165612, 0.4947500128764659, 0.5334499874152243, 0.493949992232956, 0.4895999882137403, 0.503200019011274, 0.49455001135356724, 0.6083000043872744, 0.493649989948608, 0.48624999180901796, 0.4921999934595078, 0.4988000000594184, 0.48764998791739345, 0.5077999958302826, 0.4852499841945246, 0.493949992232956, 0.5583999882219359, 0.5044999998062849, 0.4883999936282635, 0.5065000150352716, 0.5229499947745353, 0.49384999147150666, 0.5014499911339954, 0.4938000056426972, 0.49205000686924905, 0.48000001697801054, 0.4818500019609928, 0.5037000228185207, 0.49279999802820385, 0.49944999045692384, 0.4835500003537163, 0.48334999883081764, 0.5010000022593886, 0.48340001376345754, 0.5067499878350645, 0.4986999847460538, 0.49625002429820597, 0.498099994729273, 0.490249993163161, 0.4849499819101766, 0.5008000007364899, 0.49700001545716077, 0.4867999959969893, 0.525400013430044, 0.48850000894162804, 0.4811999970115721, 0.48620002053212374, 0.4924000095343217, 0.4898999904980883, 0.487750003230758, 0.49885000044014305, 0.4898999904980883, 0.4923000087728724, 0.5500499974004924, 0.646399988909252, 0.4320500011090189, 0.6010999786667526, 0.5950999911874533, 0.6348500173771754, 0.4852999991271645, 0.49095001304522157, 0.49690001469571143, 0.4938999918522313, 0.4926000110572204, 0.48845000856090337, 0.4811999970115721, 0.5002999969292432, 0.4958500067004934, 0.49100001342594624, 0.4970500012859702],
  "Depth": 20.5,
  "Expectation Value": -10.481658935546875,
  "Optimal Expectation Value": -11.109565734863281,
  "Optimizer durations [ms]": [11.002, 10.604, 10.388, 11.079, 10.6, 10.795, 10.61, 10.482, 10.967, 10.689, 10.856, 10.59, 10.876, 10.619, 10.365, 10.751, 10.603, 14.266, 10.512, 10.871, 10.536, 10.751, 10.71, 10.608, 10.629, 10.83, 10.646, 10.638, 10.918, 10.512, 10.697, 10.751, 10.751, 10.643, 10.354, 10.743, 10.816, 10.712, 10.7, 10.743, 10.488, 11.009, 10.967, 10.846, 10.61, 10.934, 10.881, 10.555, 10.878, 10.454, 10.718, 10.735, 10.308, 10.857, 11.003, 10.882, 10.873, 10.619, 10.83, 10.486, 10.716, 11.006, 11.097, 10.835, 11.037, 10.819, 10.567, 11.052, 10.572, 10.805, 10.644, 10.966, 10.693, 10.609, 10.796, 10.407, 10.594, 10.349, 10.914, 10.762, 10.62, 11.674, 22.22, 14.045, 10.688, 10.653, 11.155, 10.804, 10.563, 11.07, 10.612, 11.072, 10.717, 10.933, 11.145, 10.467, 10.471, 10.743, 10.508, 10.765, 10.732, 10.493, 10.896, 11.462, 10.689, 10.937, 10.54, 10.814, 10.425, 13.78, 10.479, 10.901, 11.177, 11.044, 11.171, 10.448, 10.835, 10.922, 10.551, 10.551, 10.834, 10.614, 10.727, 10.87, 10.448, 10.992, 10.648, 10.52, 10.536, 10.91, 10.968, 11.01, 10.632, 10.578, 10.657, 10.871, 10.569, 10.887, 10.733, 10.942, 10.476, 10.629, 10.365, 10.755, 10.733, 10.556, 11.159, 10.614, 10.619, 10.683, 10.596, 10.661, 10.744, 10.546, 10.877, 10.557, 10.756, 10.494, 10.762, 10.481, 10.736, 10.833, 10.452, 11.291, 10.398, 10.839, 10.965, 10.805, 11.021, 10.9, 11.092, 10.854, 10.565, 11.633, 10.617, 10.696, 10.825, 12.929, 10.777, 13.611, 10.653, 11.038, 10.616, 10.852, 10.662, 23.005, 10.755, 10.791, 10.557, 10.995, 10.725, 10.762, 19.49, 10.87, 10.899, 11.733, 10.6, 10.624, 13.967, 29.413, 10.792, 10.725, 10.751, 11.405, 10.791, 10.874, 10.765, 10.74, 10.737, 10.399, 10.616, 10.868, 10.574, 11.145, 10.937, 10.329, 11.015, 10.849, 10.404, 10.936, 11.163, 10.902, 11.233, 10.593, 10.81, 10.514, 10.673, 10.603, 10.96, 10.744, 10.792, 10.483, 10.697, 11.255, 10.539, 11.011, 10.727, 10.779, 10.911, 10.522, 10.496, 11.005, 10.874, 10.673, 10.402, 10.832, 10.306, 10.814, 10.673, 11.248, 10.616, 10.67, 10.812, 10.526, 10.485, 10.772, 10.516, 10.477, 10.829, 10.612, 10.565, 10.935, 11.61, 27.467, 10.943, 10.839, 10.878, 10.793, 10.895, 10.688, 10.467, 10.502, 10.531, 10.799, 10.599, 11.151, 10.574, 10.731, 10.464, 10.771, 10.495, 10.907, 10.923, 10.733, 10.323, 11.523, 10.723, 10.542, 10.992, 10.461, 11.147, 10.749, 10.416, 10.577, 10.973, 10.845, 10.891, 10.814, 10.763, 10.503, 10.604, 10.811, 10.797, 10.657, 10.544, 10.691, 11.163, 10.745, 10.886, 10.723, 10.764, 10.88, 10.604, 10.845, 10.668, 10.894, 10.782, 10.634, 10.962, 11.041, 10.708, 10.663, 10.727, 10.484, 11.027, 10.543, 11.019, 10.736, 10.785, 10.634, 10.336, 11.053, 10.793, 10.838, 11.068, 10.721, 10.509, 10.841, 10.9, 10.721, 11.044, 10.711, 10.616, 10.931, 10.773, 10.678, 10.44, 10.272, 11.281, 10.922, 10.927, 10.575, 10.873, 10.565, 11.416, 21.592, 12.78, 10.503, 11.236, 10.497, 10.558, 10.84, 10.525, 10.786, 10.51, 10.562, 10.962, 10.811, 10.538, 10.641, 10.638, 10.512, 10.985, 10.958, 10.572, 10.457, 11.665, 10.475, 10.592, 10.724, 10.382, 10.678, 10.828, 10.546, 12.066, 10.689, 10.852, 10.808, 10.692, 10.818, 10.876, 10.457, 10.692, 10.966, 10.787, 10.62, 10.433, 10.989, 11.864, 11.098, 10.684, 10.784, 10.587, 11.091, 10.87, 10.608, 10.752, 10.952, 10.992, 10.838, 10.592, 10.736, 11.014, 10.497, 10.479, 10.907, 11.051, 10.292, 12.345, 10.747, 11.143, 10.494, 10.978, 10.513, 11.469, 10.571, 11.264, 10.869, 10.543, 10.757, 10.552, 10.7, 10.681, 11.048, 10.406, 10.938, 10.697, 10.877, 10.761, 10.447, 11.106, 10.658, 10.646, 10.556, 10.628, 10.594, 10.981, 10.576, 11.562, 10.901, 14.414, 10.861, 13.598, 10.997, 10.344, 10.935, 11.033, 10.773, 22.502, 12.475, 11.694, 10.667, 10.807, 11.089, 17.335, 10.744, 10.48, 13.01, 11.775, 10.968, 29.012, 10.814, 10.6, 10.659, 10.545, 11.104, 10.601, 10.503, 10.703, 10.84, 10.759, 10.684, 10.927, 10.702, 10.949, 11.125, 11.019, 10.509, 10.768, 10.801, 10.605, 10.49, 10.768, 11.123, 10.796, 10.774, 11.167, 10.8, 10.597, 11.014, 10.741, 10.756, 10.695, 10.726, 11.114, 10.693, 10.747, 10.808, 10.713, 10.851, 10.737, 10.69, 11.127, 10.647, 11.268, 11.347, 10.526, 11.321, 10.722, 11.056, 10.682, 10.724, 11.07, 10.477, 11.035, 10.434, 10.754, 10.568, 11.106, 10.443, 10.974, 10.884, 11.029, 10.885, 10.417, 13.358, 17.536, 13.629, 10.847, 10.628, 10.8, 10.726, 10.578, 10.769, 10.789, 11.137, 10.533, 10.817, 11.487, 10.965, 10.805, 10.369, 10.817, 10.852, 10.722, 10.469, 10.769, 10.818, 11.151, 11.07, 10.771, 10.515, 10.901, 10.305, 12.757, 11.128, 10.591, 10.778, 10.967, 11.069, 10.671, 10.816, 10.712, 10.673, 11.005, 10.754, 10.702, 10.64, 10.762, 10.735, 10.663, 10.489, 10.807, 10.727, 10.674, 10.79, 10.35, 11.062, 10.69, 10.697, 10.919, 10.853, 10.688, 10.493, 10.932, 10.664, 10.621, 10.612, 11.061, 11.003, 10.668, 10.708, 10.805, 10.597, 10.719, 11.304, 10.526, 11.105, 10.99, 11.318, 10.897, 10.967, 11.471, 10.914, 10.685, 10.608, 10.613, 11.221, 10.85, 10.806, 10.764, 10.561, 10.5, 10.82, 10.77, 10.546, 10.856, 13.197, 26.015, 10.55, 10.351, 11.109, 11.031, 10.627, 10.655, 10.464, 10.828, 10.604, 10.767, 10.606, 11.382, 10.859, 10.393, 10.966, 10.763, 10.927, 10.956, 10.481, 10.918, 10.429, 11.097, 10.71, 10.931, 10.457, 10.949, 10.61, 15.338, 10.431, 10.918, 10.704, 10.951, 10.671, 10.644, 10.927, 10.656, 10.708, 10.832, 11.057, 10.581, 10.797, 10.443, 10.724, 10.551, 10.608, 10.887, 10.822, 10.764, 10.986, 10.608, 10.755, 10.455, 10.657, 10.612, 10.82, 10.748, 10.885, 10.789, 10.668, 11.38, 10.68, 12.05, 11.538, 10.852, 11.007, 11.446, 11.01, 11.053, 11.258, 10.572, 10.851, 10.942, 11.587, 10.637, 10.645, 11.186, 10.772, 10.593, 11.09, 10.737, 10.608, 10.875, 10.994, 10.954, 11.884, 10.648, 11.514, 10.72, 10.663, 13.132, 10.507, 11.133, 19.283, 10.574, 13.802, 11.812, 10.604, 10.853, 10.764, 10.596, 19.24, 11.129, 10.361, 12.096, 11.201, 10.529, 17.094, 10.4, 11.041, 12.302, 10.723, 10.781, 10.746, 25.989, 11.098, 16.29, 10.787, 10.446, 10.633, 10.557, 10.743, 10.608, 10.965, 10.642, 10.447, 11.113, 10.932, 10.615, 10.795, 10.901, 10.428, 10.797, 10.618, 11.11, 10.55, 10.72, 11.064, 11.036, 10.622, 10.723, 10.976, 10.877, 10.388, 11.065, 10.709, 10.941, 12.119, 21.127, 15.31, 22.223, 14.611, 14.249, 16.016, 10.842, 10.589, 10.719, 10.63, 10.405, 10.458, 11.05, 10.575, 10.536, 11.044],
  "Optimizer iterations": 792,
  "Optimizer params": [0.9943574662731959, 0.931084341193575, 0.9232416008130819, 0.05807457682750829, 0.5673584449781381, 0.9850461566154842, 0.03991049487209621, 0.0010749228586777282, 0.3487727233576706, 0.9781422538812633, 0.0768769733263078, 0.14818854241414997, 0.9971355346348255, 0.313189720042727, 0.9222678045720414, 0.7159728644182282, 0.8606604788508982, 0.9932853886494182, 0.9055307097173685, 0.10926981836085442, 0.9248038683702762, 0.03404842911386835, 0.5482989272115572, 0.6109879534549343, 0.14073481766395435, 0.8518869545606117, 0.5487223871604999, 0.5053699976519976, 0.970592013612363, 0.4601078600224109, 0.9474799099107868, 0.500124429407989, 0.42624928246010896, 0.46514295275646117, 0.9716165157154495, 0.9957255422347407],
  "P": 0,
  "Problem": "IC",
  "QJob durations [ms]": [0.497949993587099, 0.4982999962521717, 0.4977000062353909, 0.5049000028520823, 0.49399999261368066, 0.4878999898210168, 0.5012000037822872, 0.49479999870527536, 0.4994999908376485, 0.49170000420417637, 0.49134998698718846, 0.4844499926548451, 0.501649992656894, 0.4917999904137105, 0.48669998068362474, 0.48725001397542655, 0.48090000927913934, 0.5018000083509833, 0.493649989948608, 0.4921499785268679, 0.48665000940673053, 0.48319999768864363, 0.4907000111415982, 0.48829999286681414, 0.48159998550545424, 0.4935500037390739, 0.48230000538751483, 0.48760001664049923, 0.49340000259689987, 0.4929999849991873, 0.48579998838249594, 0.49175000458490103, 0.4937499907100573, 0.48674999561626464, 0.48395000339951366, 0.49064999620895833, 0.4797500150743872, 0.5029499880038202, 0.49384999147150666, 0.4953500028932467, 0.4899500054307282, 0.5009499873267487, 0.4900499916402623, 0.4952000017510727, 0.49315001524519175, 0.4871500132139772, 0.4968499852111563, 0.48505001177545637, 0.48949998745229095, 0.48680001054890454, 0.49354998918715864, 0.4952000017510727, 0.48639999295119196, 0.4970500012859702, 0.4971000016666949, 0.4955000040354207, 0.5010999884689227, 0.48160000005736947, 0.48660000902600586, 0.48320001224055886, 0.4820000031031668, 0.49334998766425997, 0.4967499990016222, 0.49900000158231705, 0.5069500039098784, 0.49119998584501445, 0.4860500048380345, 0.49510000098962337, 0.48349999997299165, 0.4866499948548153, 0.49229999422095716, 0.49435000983066857, 0.4997999931219965, 0.4954999894835055, 0.4844499926548451, 0.4819000023417175, 0.4840500187128782, 0.48699998296797276, 0.5016999930376187, 0.48150001384783536, 0.49035000847652555, 0.5330000130925328, 0.6657500052824616, 0.6065000052331015, 0.4895999882137403, 0.49155000306200236, 0.4951000155415386, 0.5032000044593588, 0.48884998250287026, 0.4938999918522313, 0.5001999961677939, 0.49434999527875334, 0.4902500077150762, 0.4982999962521717, 0.502750015584752, 0.48585000331513584, 0.48680001054890454, 0.4853999853366986, 0.4792499967152253, 0.4913500015391037, 0.4842999915126711, 0.49274998309556395, 0.4866499948548153, 0.5260000179987401, 0.49590000708121806, 0.49190000572707504, 0.4990499874111265, 0.47815001744311303, 0.48654999409336597, 0.4883499932475388, 0.49064999620895833, 0.4946000117342919, 0.5175000114832073, 0.49190000572707504, 0.5134500097483397, 0.4912999866064638, 0.5036500078858808, 0.49384999147150666, 0.4826500080525875, 0.48830000741872936, 0.4956499906256795, 0.4970500012859702, 0.48134999815374613, 0.48740001511760056, 0.48990000505000353, 0.4895999882137403, 0.490399994305335, 0.48484998114872724, 0.48654999409336597, 0.4890500131295994, 0.48970000352710485, 0.49259998195338994, 0.49784997827373445, 0.4910499992547557, 0.48925000010058284, 0.5114500236231834, 0.4838000168092549, 0.5011000175727531, 0.4904000088572502, 0.49459998263046145, 0.49229999422095716, 0.4807499935850501, 0.48010000318754464, 0.4847000091103837, 0.484500007587485, 0.4865500086452812, 0.4951000155415386, 0.4920499923173338, 0.487900004372932, 0.5011000030208379, 0.49634999595582485, 0.4927500121993944, 0.4866499948548153, 0.4884999798377976, 0.4981500096619129, 0.4828000091947615, 0.49065001076087356, 0.4867000097874552, 0.5010999884689227, 0.4801500035682693, 0.49659998330753297, 0.4889000119874254, 0.48835000779945403, 0.5051500047557056, 0.48314998275600374, 0.4846499941777438, 0.5038999952375889, 0.4951999871991575, 0.490549995447509, 0.4844999930355698, 0.4962000093655661, 0.4974000039510429, 0.48189998778980225, 0.5324999947333708, 0.49390000640414655, 0.494249994517304, 0.4899500054307282, 0.49259998195338994, 0.4901999927824363, 0.49640001088846475, 0.48964998859446496, 0.5052499909652397, 0.48114999663084745, 0.49169998965226114, 0.4963500105077401, 0.48750000132713467, 0.49914998817257583, 0.48439999227412045, 0.4939500067848712, 0.48820000665728003, 0.4884000081801787, 0.48605001938994974, 0.5065000004833564, 0.494849999086, 0.4935999895678833, 0.5400499940151349, 0.488050005515106, 0.4778500006068498, 0.6465500046033412, 0.46010001096874475, 0.49664999824017286, 0.4930999857606366, 0.4862000059802085, 0.5248999950708821, 0.5052499909652397, 0.49819999549072236, 0.4928999987896532, 0.4984499973943457, 0.4857500025536865, 0.4815499996766448, 0.49414999375585467, 0.4995499912183732, 0.4925499961245805, 0.5026500002713874, 0.4968000139342621, 0.4835500003537163, 0.49700001545716077, 0.49064999620895833, 0.48534999950788915, 0.49214999307878315, 0.5264000210445374, 0.49330000183545053, 0.48844999400898814, 0.49550001858733594, 0.48919998516794294, 0.49404999299440533, 0.4811500111827627, 0.4910499992547557, 0.48665000940673053, 0.48575001710560173, 0.486999997519888, 0.4912000003969297, 0.49074999697040766, 0.5021499819122255, 0.48314999730791897, 0.49875001423060894, 0.5018499941797927, 0.4816000146092847, 0.5074499931652099, 0.4895000165561214, 0.48800000513438135, 0.5167000053916126, 0.49500000022817403, 0.4931500006932765, 0.4839000175707042, 0.4919500061077997, 0.4812499973922968, 0.4921500076306984, 0.49390000640414655, 0.4963999963365495, 0.491300001158379, 0.4867999959969893, 0.4934499884257093, 0.4880000196862966, 0.4875000158790499, 0.48090000927913934, 0.4850999830523506, 0.48609999066684395, 0.49765000585466623, 0.49345000297762454, 0.4850999976042658, 0.5080499831819907, 0.5433500045910478, 0.4904000088572502, 0.4949999856762588, 0.5017499788664281, 0.4896500031463802, 0.48550000065006316, 0.4927499976474792, 0.4903499939246103, 0.4897500039078295, 0.48195000272244215, 0.49044999468605965, 0.4917499900329858, 0.49545000365469605, 0.520650006365031, 0.48829999286681414, 0.4864999937126413, 0.5002000107197091, 0.48275000881403685, 0.4944500105921179, 0.4872499848715961, 0.4921999934595078, 0.49100001342594624, 0.48695001169107854, 0.5345999961718917, 0.49250001029577106, 0.4833999992115423, 0.4941999795846641, 0.49669999862089753, 0.5011000030208379, 0.48080000851769, 0.4862000059802085, 0.4961499944329262, 0.4897500039078295, 0.5107999895699322, 0.5031500040786341, 0.4878499894402921, 0.4951499868184328, 0.49035000847652555, 0.4843499918933958, 0.4855500010307878, 0.49340000259689987, 0.48099999548867345, 0.49140000191982836, 0.497799992444925, 0.49664998368825763, 0.4935000033583492, 0.49064999620895833, 0.4961500089848414, 0.49404999299440533, 0.4978500073775649, 0.4904999950667843, 0.4826499935006723, 0.4933500167680904, 0.5077999812783673, 0.4943000094499439, 0.48714998411014676, 0.4989000008208677, 0.5071999912615865, 0.48275000881403685, 0.4996000061510131, 0.47900000936351717, 0.4893000004813075, 0.49575000593904406, 0.48680001054890454, 0.5133499798830599, 0.504250027006492, 0.48195000272244215, 0.48224999045487493, 0.48649997916072607, 0.5021499964641407, 0.4884000081801787, 0.4909999843221158, 0.5003000114811584, 0.49029999354388565, 0.4859999899053946, 0.4828999954042956, 0.4883499932475388, 0.49015000695362687, 0.5107999895699322, 0.4852499987464398, 0.48305001109838486, 0.4963000101270154, 0.4880499909631908, 0.49325000145472586, 0.48025000432971865, 0.4917000187560916, 0.5048499879194424, 0.49429999489802867, 0.491300001158379, 0.4889999981969595, 0.4985999839846045, 0.49515000137034804, 0.5261999904178083, 0.5083500000182539, 0.5706500087399036, 0.4985499836038798, 0.5016500072088093, 0.4879999905824661, 0.4830000107176602, 0.48255000729113817, 0.4899500054307282, 0.4979999939678237, 0.49434999527875334, 0.48719999904278666, 0.5000999954063445, 0.4971499874955043, 0.49065001076087356, 0.4873000143561512, 0.490699996589683, 0.49229999422095716, 0.49079999735113233, 0.4959499929100275, 0.4943999811075628, 0.49089999811258167, 0.5251499969745055, 0.5018499796278775, 0.4794999986188486, 0.5003999976906925, 0.48255000729113817, 0.494399995659478, 0.49584999214857817, 0.48395000339951366, 0.48745000094641, 0.4915999888908118, 0.49455001135356724, 0.49390000640414655, 0.49494999984744936, 0.4893500154139474, 0.4923999949824065, 0.4893999866908416, 0.4898000042885542, 0.48919999971985817, 0.48899998364504427, 0.4873500147368759, 0.4904000088572502, 0.49694998597260565, 0.4847000091103837, 0.4962499951943755, 0.5050500039942563, 0.48400000378023833, 0.49100001342594624, 0.5073499924037606, 0.5003499973099679, 0.4892999859293923, 0.4864999937126413, 0.48874999629333615, 0.5015999922761694, 0.502750015584752, 0.49080001190304756, 0.48990001960191876, 0.5005499988328665, 0.48844999400898814, 0.49199999193660915, 0.49855001270771027, 0.49530000251252204, 0.490699996589683, 0.5646999925374985, 0.4892000142717734, 0.4991000023437664, 0.4884999943897128, 0.5037500086473301, 0.48570001672487706, 0.5159000138519332, 0.48269999388139695, 0.5074999935459346, 0.49234999460168183, 0.48445000720676035, 0.48105001042131335, 0.49035000847652555, 0.4954999894835055, 0.4917999904137105, 0.4977000062353909, 0.4842500202357769, 0.49085001228377223, 0.49285001296084374, 0.49409999337513, 0.4911000141873956, 0.4848999815294519, 0.4979999939678237, 0.48925000010058284, 0.4810000100405887, 0.48704999790061265, 0.49500001478008926, 0.5001500103389844, 0.5096500099170953, 0.4901000065729022, 0.4952000017510727, 0.5017500079702586, 0.5031999899074435, 0.493649989948608, 0.48750000132713467, 0.50224999722559, 0.4863500071223825, 0.4989000008208677, 0.4948000132571906, 0.49935001879930496, 0.48809999134391546, 0.5885999999009073, 0.5190000083530322, 0.4785499913850799, 0.4992500180378556, 0.4996000061510131, 0.3988499956903979, 0.49589999252930284, 0.48654999409336597, 0.5000499950256199, 0.5342000076780096, 0.5028999876230955, 0.539849977940321, 0.48755000170785934, 0.4931500006932765, 0.4881000058958307, 0.48654999409336597, 0.4997000069124624, 0.49214999307878315, 0.48904998402576894, 0.48809999134391546, 0.5057500093244016, 0.49259999650530517, 0.4862000059802085, 0.494399995659478, 0.48669999523554, 0.49020000733435154, 0.5182500026421621, 0.4971499874955043, 0.48775001778267324, 0.4950500006088987, 0.48400000378023833, 0.49860001308843493, 0.5006999999750406, 0.49869999929796904, 0.5164000031072646, 0.48415000492241234, 0.4997000069124624, 0.4972999886376783, 0.5018000083509833, 0.5046000005677342, 0.49760000547394156, 0.49175000458490103, 0.49774999206420034, 0.494699997943826, 0.5033999914303422, 0.4985000123269856, 0.4938500060234219, 0.5028000159654766, 0.48680001054890454, 0.4925499961245805, 0.491150000016205, 0.5002999969292432, 0.48314998275600374, 0.5228500085650012, 0.48624999180901796, 0.5224000051384792, 0.49205000686924905, 0.4885500093223527, 0.5055500078015029, 0.497499990160577, 0.5067000165581703, 0.4928999987896532, 0.48919999971985817, 0.5022500117775053, 0.5005999992135912, 0.48669999523554, 0.4843499918933958, 0.4832499980693683, 0.4947500128764659, 0.4824499919777736, 0.48809999134391546, 0.4931499861413613, 0.49180001951754093, 0.509400008013472, 0.49265001143794507, 0.48930001503322273, 0.6246499833650887, 0.5231999966781586, 0.605799985351041, 0.497499990160577, 0.4997500218451023, 0.4875999875366688, 0.4946999833919108, 0.48565000179223716, 0.48934998631011695, 0.5018500087317079, 0.5081999988760799, 0.4843499918933958, 0.4997500072931871, 0.5272499838611111, 0.49795000813901424, 0.498099994729273, 0.48615000559948385, 0.4950500151608139, 0.5008000152884051, 0.49780000699684024, 0.49685001431498677, 0.49669999862089753, 0.5048000020906329, 0.5004000122426078, 0.5006999999750406, 0.4921000072499737, 0.4853999998886138, 0.49214999307878315, 0.47644998994655907, 0.5939999973634258, 0.4948499845340848, 0.48394998884759843, 0.49089999811258167, 0.49875001423060894, 0.4979000077582896, 0.4929000133415684, 0.4844000068260357, 0.49020000733435154, 0.5015499918954447, 0.49789999320637435, 0.5103500152472407, 0.4860500048380345, 0.4838500026380643, 0.4986999847460538, 0.4859500040765852, 0.4921999934595078, 0.490849997731857, 0.4858499887632206, 0.49294999917037785, 0.4821499896934256, 0.49050000961869955, 0.49340000259689987, 0.49605000822339207, 0.4793000116478652, 0.4838500026380643, 0.49434999527875334, 0.49255001067649573, 0.4971000016666949, 0.4894500016234815, 0.4927500121993944, 0.4948999994667247, 0.4956000193487853, 0.4910499992547557, 0.5136999825481325, 0.5066500016255304, 0.494399995659478, 0.4961499944329262, 0.48474999493919313, 0.48510001215618104, 0.49900000158231705, 0.5074500077171251, 0.4855499864788726, 0.49924998893402517, 0.48415000492241234, 0.5171500088181347, 0.49404999299440533, 0.5260000179987401, 0.513250008225441, 0.4973500035703182, 0.4864000075031072, 0.4847999953199178, 0.49429999489802867, 0.5265500076347962, 0.49425000906921923, 0.4931500006932765, 0.4983000108040869, 0.4843499918933958, 0.4904999950667843, 0.497649991302751, 0.48609999066684395, 0.48180000158026814, 0.49089999811258167, 0.6158000032883137, 0.6685999978799373, 0.48925000010058284, 0.49094999849330634, 0.5057999951532111, 0.4937499907100573, 0.4817500157514587, 0.48370001604780555, 0.4853999853366986, 0.4884499794570729, 0.4862000059802085, 0.4842999915126711, 0.4922500083921477, 0.5296999879647046, 0.49414999375585467, 0.4794999986188486, 0.4986500134691596, 0.4927500121993944, 0.48910001351032406, 0.4889499978162348, 0.49069998203776777, 0.4835500003537163, 0.494699997943826, 0.4948999994667247, 0.4954000032739714, 0.5019999953219667, 0.5003999976906925, 0.49944999045692384, 0.49404999299440533, 0.49384999147150666, 0.49264999688602984, 0.49409999337513, 0.494549996801652, 0.48639999295119196, 0.4990500019630417, 0.4912499862257391, 0.5045000143582001, 0.4927500121993944, 0.4863499925704673, 0.4915000026812777, 0.5023999983677641, 0.500149981235154, 0.48314999730791897, 0.4827999946428463, 0.49574999138712883, 0.49190000572707504, 0.4907000111415982, 0.5094999942230061, 0.49429999489802867, 0.48180000158026814, 0.5091500061098486, 0.4955500044161454, 0.487600002088584, 0.48284999502357095, 0.49780000699684024, 0.4844000068260357, 0.5074000073364004, 0.4980500089004636, 0.4918999911751598, 0.4927500121993944, 0.49610000860411674, 0.5066500016255304, 0.49774999206420034, 0.509100005729124, 0.5338499904610217, 0.49870001384988427, 0.4958000063197687, 0.52299999515526, 0.5015500064473599, 0.4970500012859702, 0.5142000154592097, 0.4803999909199774, 0.5025999998906627, 0.4900499916402623, 0.5431500030681491, 0.48639999295119196, 0.4861000052187592, 0.49649999709799886, 0.49319998652208596, 0.49259999650530517, 0.4982000100426376, 0.4869499971391633, 0.48585001786705106, 0.49515000137034804, 0.5030499887652695, 0.516050000442192, 0.5452999903354794, 0.49474998377263546, 0.5233499978203326, 0.5081499984953552, 0.4899500054307282, 0.6110499962233007, 0.5011499742977321, 0.5024000129196793, 0.49235000915359706, 0.4799000162165612, 0.4947500128764659, 0.5334499874152243, 0.493949992232956, 0.4895999882137403, 0.503200019011274, 0.49455001135356724, 0.6083000043872744, 0.493649989948608, 0.48624999180901796, 0.4921999934595078, 0.4988000000594184, 0.48764998791739345, 0.5077999958302826, 0.4852499841945246, 0.493949992232956, 0.5583999882219359, 0.5044999998062849, 0.4883999936282635, 0.5065000150352716, 0.5229499947745353, 0.49384999147150666, 0.5014499911339954, 0.4938000056426972, 0.49205000686924905, 0.48000001697801054, 0.4818500019609928, 0.5037000228185207, 0.49279999802820385, 0.49944999045692384, 0.4835500003537163, 0.48334999883081764, 0.5010000022593886, 0.48340001376345754, 0.5067499878350645, 0.4986999847460538, 0.49625002429820597, 0.498099994729273, 0.490249993163161, 0.4849499819101766, 0.5008000007364899, 0.49700001545716077, 0.4867999959969893, 0.525400013430044, 0.48850000894162804, 0.4811999970115721, 0.48620002053212374, 0.4924000095343217, 0.4898999904980883, 0.487750003230758, 0.49885000044014305, 0.4898999904980883, 0.4923000087728724, 0.5500499974004924, 0.646399988909252, 0.4320500011090189, 0.6010999786667526, 0.5950999911874533, 0.6348500173771754, 0.4852999991271645, 0.49095001304522157, 0.49690001469571143, 0.4938999918522313, 0.4926000110572204, 0.48845000856090337, 0.4811999970115721, 0.5002999969292432, 0.4958500067004934, 0.49100001342594624, 0.4970500012859702],
  "QPU": "7000000",
  "Qubits": 9,
  "Queue durations [ms]": [0.0, 0.0, 0.0, 0.0, 0.0, 0.0, 0.0, 0.0, 0.0, 0.0, 0.0, 0.0, 0.0, 0.0, 0.0, 0.0, 0.0, 0.0, 0.0, 0.0, 0.0, 0.0, 0.0, 0.0, 0.0, 0.0, 0.0, 0.0, 0.0, 0.0, 0.0, 0.0, 0.0, 0.0, 0.0, 0.0, 0.0, 0.0, 0.0, 0.0, 0.0, 0.0, 0.0, 0.0, 0.0, 0.0, 0.0, 0.0, 0.0, 0.0, 0.0, 0.0, 0.0, 0.0, 0.0, 0.0, 0.0, 0.0, 0.0, 0.0, 0.0, 0.0, 0.0, 0.0, 0.0, 0.0, 0.0, 0.0, 0.0, 0.0, 0.0, 0.0, 0.0, 0.0, 0.0, 0.0, 0.0, 0.0, 0.0, 0.0, 0.0, 0.0, 0.0, 0.0, 0.0, 0.0, 0.0, 0.0, 0.0, 0.0, 0.0, 0.0, 0.0, 0.0, 0.0, 0.0, 0.0, 0.0, 0.0, 0.0, 0.0, 0.0, 0.0, 0.0, 0.0, 0.0, 0.0, 0.0, 0.0, 0.0, 0.0, 0.0, 0.0, 0.0, 0.0, 0.0, 0.0, 0.0, 0.0, 0.0, 0.0, 0.0, 0.0, 0.0, 0.0, 0.0, 0.0, 0.0, 0.0, 0.0, 0.0, 0.0, 0.0, 0.0, 0.0, 0.0, 0.0, 0.0, 0.0, 0.0, 0.0, 0.0, 0.0, 0.0, 0.0, 0.0, 0.0, 0.0, 0.0, 0.0, 0.0, 0.0, 0.0, 0.0, 0.0, 0.0, 0.0, 0.0, 0.0, 0.0, 0.0, 0.0, 0.0, 0.0, 0.0, 0.0, 0.0, 0.0, 0.0, 0.0, 0.0, 0.0, 0.0, 0.0, 0.0, 0.0, 0.0, 0.0, 0.0, 0.0, 0.0, 0.0, 0.0, 0.0, 0.0, 0.0, 0.0, 0.0, 0.0, 0.0, 0.0, 0.0, 0.0, 0.0, 0.0, 0.0, 0.0, 0.0, 0.0, 0.0, 0.0, 0.0, 0.0, 0.0, 0.0, 0.0, 0.0, 0.0, 0.0, 0.0, 0.0, 0.0, 0.0, 0.0, 0.0, 0.0, 0.0, 0.0, 0.0, 0.0, 0.0, 0.0, 0.0, 0.0, 0.0, 0.0, 0.0, 0.0, 0.0, 0.0, 0.0, 0.0, 0.0, 0.0, 0.0, 0.0, 0.0, 0.0, 0.0, 0.0, 0.0, 0.0, 0.0, 0.0, 0.0, 0.0, 0.0, 0.0, 0.0, 0.0, 0.0, 0.0, 0.0, 0.0, 0.0, 0.0, 0.0, 0.0, 0.0, 0.0, 0.0, 0.0, 0.0, 0.0, 0.0, 0.0, 0.0, 0.0, 0.0, 0.0, 0.0, 0.0, 0.0, 0.0, 0.0, 0.0, 0.0, 0.0, 0.0, 0.0, 0.0, 0.0, 0.0, 0.0, 0.0, 0.0, 0.0, 0.0, 0.0, 0.0, 0.0, 0.0, 0.0, 0.0, 0.0, 0.0, 0.0, 0.0, 0.0, 0.0, 0.0, 0.0, 0.0, 0.0, 0.0, 0.0, 0.0, 0.0, 0.0, 0.0, 0.0, 0.0, 0.0, 0.0, 0.0, 0.0, 0.0, 0.0, 0.0, 0.0, 0.0, 0.0, 0.0, 0.0, 0.0, 0.0, 0.0, 0.0, 0.0, 0.0, 0.0, 0.0, 0.0, 0.0, 0.0, 0.0, 0.0, 0.0, 0.0, 0.0, 0.0, 0.0, 0.0, 0.0, 0.0, 0.0, 0.0, 0.0, 0.0, 0.0, 0.0, 0.0, 0.0, 0.0, 0.0, 0.0, 0.0, 0.0, 0.0, 0.0, 0.0, 0.0, 0.0, 0.0, 0.0, 0.0, 0.0, 0.0, 0.0, 0.0, 0.0, 0.0, 0.0, 0.0, 0.0, 0.0, 0.0, 0.0, 0.0, 0.0, 0.0, 0.0, 0.0, 0.0, 0.0, 0.0, 0.0, 0.0, 0.0, 0.0, 0.0, 0.0, 0.0, 0.0, 0.0, 0.0, 0.0, 0.0, 0.0, 0.0, 0.0, 0.0, 0.0, 0.0, 0.0, 0.0, 0.0, 0.0, 0.0, 0.0, 0.0, 0.0, 0.0, 0.0, 0.0, 0.0, 0.0, 0.0, 0.0, 0.0, 0.0, 0.0, 0.0, 0.0, 0.0, 0.0, 0.0, 0.0, 0.0, 0.0, 0.0, 0.0, 0.0, 0.0, 0.0, 0.0, 0.0, 0.0, 0.0, 0.0, 0.0, 0.0, 0.0, 0.0, 0.0, 0.0, 0.0, 0.0, 0.0, 0.0, 0.0, 0.0, 0.0, 0.0, 0.0, 0.0, 0.0, 0.0, 0.0, 0.0, 0.0, 0.0, 0.0, 0.0, 0.0, 0.0, 0.0, 0.0, 0.0, 0.0, 0.0, 0.0, 0.0, 0.0, 0.0, 0.0, 0.0, 0.0, 0.0, 0.0, 0.0, 0.0, 0.0, 0.0, 0.0, 0.0, 0.0, 0.0, 0.0, 0.0, 0.0, 0.0, 0.0, 0.0, 0.0, 0.0, 0.0, 0.0, 0.0, 0.0, 0.0, 0.0, 0.0, 0.0, 0.0, 0.0, 0.0, 0.0, 0.0, 0.0, 0.0, 0.0, 0.0, 0.0, 0.0, 0.0, 0.0, 0.0, 0.0, 0.0, 0.0, 0.0, 0.0, 0.0, 0.0, 0.0, 0.0, 0.0, 0.0, 0.0, 0.0, 0.0, 0.0, 0.0, 0.0, 0.0, 0.0, 0.0, 0.0, 0.0, 0.0, 0.0, 0.0, 0.0, 0.0, 0.0, 0.0, 0.0, 0.0, 0.0, 0.0, 0.0, 0.0, 0.0, 0.0, 0.0, 0.0, 0.0, 0.0, 0.0, 0.0, 0.0, 0.0, 0.0, 0.0, 0.0, 0.0, 0.0, 0.0, 0.0, 0.0, 0.0, 0.0, 0.0, 0.0, 0.0, 0.0, 0.0, 0.0, 0.0, 0.0, 0.0, 0.0, 0.0, 0.0, 0.0, 0.0, 0.0, 0.0, 0.0, 0.0, 0.0, 0.0, 0.0, 0.0, 0.0, 0.0, 0.0, 0.0, 0.0, 0.0, 0.0, 0.0, 0.0, 0.0, 0.0, 0.0, 0.0, 0.0, 0.0, 0.0, 0.0, 0.0, 0.0, 0.0, 0.0, 0.0, 0.0, 0.0, 0.0, 0.0, 0.0, 0.0, 0.0, 0.0, 0.0, 0.0, 0.0, 0.0, 0.0, 0.0, 0.0, 0.0, 0.0, 0.0, 0.0, 0.0, 0.0, 0.0, 0.0, 0.0, 0.0, 0.0, 0.0, 0.0, 0.0, 0.0, 0.0, 0.0, 0.0, 0.0, 0.0, 0.0, 0.0, 0.0, 0.0, 0.0, 0.0, 0.0, 0.0, 0.0, 0.0, 0.0, 0.0, 0.0, 0.0, 0.0, 0.0, 0.0, 0.0, 0.0, 0.0, 0.0, 0.0, 0.0, 0.0, 0.0, 0.0, 0.0, 0.0, 0.0, 0.0, 0.0, 0.0, 0.0, 0.0, 0.0, 0.0, 0.0, 0.0, 0.0, 0.0, 0.0, 0.0, 0.0, 0.0, 0.0, 0.0, 0.0, 0.0, 0.0, 0.0, 0.0, 0.0, 0.0, 0.0, 0.0, 0.0, 0.0, 0.0, 0.0, 0.0, 0.0, 0.0, 0.0, 0.0, 0.0, 0.0, 0.0, 0.0, 0.0, 0.0, 0.0, 0.0, 0.0, 0.0, 0.0, 0.0, 0.0, 0.0, 0.0, 0.0, 0.0, 0.0, 0.0, 0.0, 0.0, 0.0, 0.0, 0.0, 0.0, 0.0, 0.0, 0.0, 0.0, 0.0, 0.0, 0.0, 0.0, 0.0, 0.0, 0.0, 0.0, 0.0, 0.0, 0.0, 0.0, 0.0, 0.0, 0.0, 0.0, 0.0, 0.0, 0.0, 0.0, 0.0, 0.0, 0.0, 0.0, 0.0, 0.0, 0.0, 0.0, 0.0, 0.0, 0.0, 0.0, 0.0, 0.0, 0.0, 0.0, 0.0, 0.0, 0.0, 0.0, 0.0, 0.0, 0.0, 0.0, 0.0, 0.0, 0.0],
  "Shots": 4096,
  "Size": 9,
  "Total Algorithm duration [s]": 8.817,
  "Total Classic duration [s]": 8.423619999874965,
  "Total Quantum duration [s]": 0.3933800001250347
}
