{
  "Circuit execution durations [ms]": [0.4999999946448952, 0.48550000065006316, 0.5741500062867999, 0.49425000906921923, 0.5134500097483397, 0.47870000707916915, 0.484800009871833, 0.496899985591881, 0.51045001600869, 0.4927499976474792, 0.49920000310521573, 0.49765000585466623, 0.5510500050149858, 0.49134998698718846, 0.5316499882610515, 0.4866499948548153, 0.49700000090524554, 0.48704999790061265, 0.5237000004854053, 0.4036999889649451, 0.477700014016591, 0.4933500022161752, 0.4922499938402325, 0.5441999819595367, 0.5045500001870096, 0.47524999536108226, 0.4897500039078295, 0.49574999138712883, 0.5356499896151945, 0.49000000581145287, 0.48674999561626464, 0.48504999722354114, 0.4904999950667843, 0.48329999845009297, 0.4799499874934554, 0.4952500021317974, 0.5024999991292134, 0.48040000547189265, 0.48460000834893435, 0.4856999876210466, 0.48909999895840883, 0.4797000146936625, 0.484050004160963, 0.48764998791739345, 0.5131999932928011, 0.48469999455846846, 0.4957999917678535, 0.4952000017510727, 0.48395000339951366, 0.4813999985344708, 0.4911499854642898, 0.4963999963365495, 0.49685001431498677, 0.49059999582823366, 0.48830000741872936, 0.49860001308843493, 0.49369999032933265, 0.5019500094931573, 0.49739998939912766, 0.4889499832643196, 0.5078500107629225, 0.4899500054307282, 0.5016999930376187, 0.48060000699479133, 0.5290500121191144, 0.4807999939657748, 0.4877499886788428, 0.4986499989172444, 0.5073000065749511, 0.4782000178238377, 0.4981500096619129, 0.484200005303137, 0.5012999899918213, 0.4914000164717436, 0.49560000479687005, 0.48740000056568533, 0.49315001524519175, 0.4999999946448952, 0.48239999159704894, 0.4974000039510429, 0.49854999815579504, 0.4917499900329858, 0.4866499948548153, 0.48835000779945403, 0.48745000094641, 0.48525001329835504, 0.4896500031463802, 0.4949500143993646, 0.490549995447509, 0.4860500048380345, 0.5885999999009073, 0.5135999817866832, 0.5544000014197081, 0.4930999857606366, 0.48165000043809414, 0.4950500151608139, 0.5014499911339954, 0.49134998698718846, 0.4847999953199178, 0.524500006577, 0.49170000420417637, 0.4901000065729022, 0.48204998893197626, 0.48409998998977244, 0.48180000158026814, 0.48729998525232077, 0.4944499960402027, 0.4893999866908416, 0.4963999963365495, 0.48904999857768416, 0.49950000538956374, 0.47885000822134316, 0.5580999859375879, 0.5109999910928309, 0.4931000148644671, 0.49834999663289636, 0.49739998939912766, 0.4867999959969893, 0.4890000127488747, 0.48129998322110623, 0.5212499963818118, 0.5046500009484589, 0.4916500038234517, 0.4883499932475388, 0.4885499947704375, 0.4835500003537163, 0.49614997988101095, 0.5039499956183136, 0.48080000851769, 0.49404999299440533, 0.4882500070380047, 0.5020000098738819, 0.48505001177545637, 0.49470001249574125, 0.4849499964620918, 0.4821499896934256, 0.48099999548867345, 0.4963999963365495, 0.4885999805992469, 0.49744998977985233, 0.4951499868184328, 0.49684999976307154, 0.4988500149920583, 0.4803000047104433, 0.4841999907512218, 0.4962000093655661, 0.49595000746194273, 0.48940000124275684, 0.4921000072499737, 0.5097500106785446, 0.4937500198138878, 0.48794999020174146, 0.4887499817414209, 0.48320001224055886, 0.4889999981969595, 0.4978499928256497, 0.4865500086452812, 0.4926999972667545, 0.4948999994667247, 0.4876500024693087, 0.49545000365469605, 0.49074998241849244, 0.49130001571029425, 0.49334998766425997, 0.4910999850835651, 0.49175000458490103, 0.4886999959126115, 0.47805000212974846, 0.45274999865796417, 0.48865001008380204, 0.48239999159704894, 0.4889499978162348, 0.487600002088584, 0.48400000378023833, 0.4884999943897128, 0.4869499971391633, 0.4958000063197687, 0.49765000585466623, 0.48994999087881297, 0.5004000122426078, 0.49679998483043164, 0.4773499967996031, 0.5119499983265996, 0.6581000052392483, 0.6449499924201518, 0.4986999847460538, 0.4954499891027808, 0.5096499953651801, 0.49754999054130167, 0.48994999087881297, 0.4864000075031072, 0.4943499807268381, 0.4949000140186399, 0.4964499967172742, 0.4904999950667843, 0.5232999828876927, 0.4868500109296292, 0.48305001109838486, 0.5114500090712681, 0.4862000059802085, 0.4933500022161752, 0.49074999697040766, 0.4999999946448952, 0.494699997943826, 0.4846499941777438, 0.4931000148644671, 0.4889499978162348, 0.49250001029577106, 0.4981500096619129, 0.48564998724032193, 0.47739998262841254, 0.4963500105077401, 0.49265001143794507, 0.48740000056568533, 0.5040000105509534, 0.49440001021139324, 0.48630000674165785, 0.5018499941797927, 0.4885499947704375, 0.49909998779185116, 0.5018000083509833, 0.4829500103369355, 0.5110499914735556, 0.4825999931199476, 0.48239999159704894, 0.502099996083416, 0.4978499928256497, 0.5070999905001372, 0.4968000139342621, 0.4920000064885244, 0.4878499894402921, 0.4913500015391037, 0.4873999860137701, 0.49375000526197255, 0.48585000331513584, 0.5480999825522304, 0.49095001304522157, 0.4822500195587054, 0.5001500103389844, 0.5014000053051859, 0.4816000146092847, 0.49920000310521573, 0.5006500141462311, 0.49134998698718846, 0.4937000048812479, 0.49500000022817403, 0.5048000020906329, 0.49170000420417637, 0.49879998550750315, 0.4899500054307282, 0.48114999663084745, 0.4999499942641705, 0.49924998893402517, 0.4902500077150762, 0.48779998905956745, 0.48824999248608947, 0.48779998905956745, 0.5086000164737925, 0.4964500112691894, 0.49214999307878315, 0.4879500047536567, 0.49074999697040766, 0.4944500105921179, 0.49074999697040766, 0.4924999811919406, 0.4940000071655959, 0.5029500025557354, 0.4871500132139772, 0.49330001638736576, 0.48785000399220735, 0.4921999934595078, 0.4921000072499737, 0.49504998605698347, 0.4896000027656555, 0.6076999998185784, 0.49065001076087356, 0.49184999079443514, 0.4862500063609332, 0.49354998918715864, 0.49840001156553626, 0.4870500124525279, 0.5063999851699919, 0.48299999616574496, 0.48335001338273287, 0.47864999214652926, 0.49360000411979854, 0.4927499976474792, 0.4999499797122553, 0.4835000145249069, 0.49845001194626093, 0.48874999629333615, 0.4972500028088689, 0.4926000110572204, 0.48734998563304543, 0.48925000010058284, 0.4909000126644969, 0.487750003230758, 0.5011500034015626, 0.5144999886397272, 0.5284500075504184, 0.4851499979849905, 0.49745000433176756, 0.4743000026792288, 0.49155000306200236, 0.4844000068260357, 0.4787499929079786, 0.5000499950256199, 0.4935500037390739, 0.49059999582823366, 0.48990000505000353, 0.48284999502357095, 0.501799993799068, 0.48439999227412045, 0.48979998973663896, 0.48255000729113817, 0.5029000021750107, 0.4970500012859702, 0.49399999261368066, 0.4859500040765852, 0.4886000097030774, 0.48925000010058284, 0.4834500141441822, 0.4943000094499439, 0.4893500008620322, 0.5024499987484887, 0.5028000159654766, 0.48909999895840883, 0.5015499918954447, 0.4955000040354207, 0.48534999950788915, 0.490099992020987, 0.5077999958302826, 0.48865001008380204, 0.47894999443087727, 0.494399995659478, 0.5022500117775053, 0.49575000593904406, 0.4883999936282635, 0.5052000051364303, 0.529499986441806, 0.49470001249574125, 0.6113999988883734, 0.519599998369813, 0.5717000167351216, 0.5033000052208081, 0.5616499984171242, 0.5864000122528523, 0.4993499896954745, 0.5030499887652695, 0.5276500014588237, 0.5626000056508929, 0.48985000466927886, 0.5111999926157296, 0.49264999688602984, 0.49649999709799886, 0.5063500138930976, 0.49079999735113233, 0.48504999722354114, 0.4889999981969595, 0.4810499958693981, 0.4842999915126711, 0.5120499990880489, 0.49100001342594624, 0.592650001635775, 0.4959499929100275, 0.49664999824017286, 0.4965999978594482, 0.49375000526197255, 0.48745000094641, 0.4876500024693087, 0.48329999845009297, 0.4914499877486378, 0.4903000080958009, 0.5018499941797927, 0.4892999859293923, 0.48484998114872724, 0.4918000049656257, 0.5165999755263329, 0.49059999582823366, 0.49524998757988214, 0.49175000458490103, 0.4876999882981181, 0.48675001016817987, 0.4887999966740608, 0.49080001190304756, 0.48745001549832523, 0.50970001029782, 0.5113499937579036, 0.4986999847460538, 0.5127499898662791, 0.5050000036135316, 0.5026999861001968, 0.49834999663289636, 0.500449983519502, 0.4941000079270452, 0.4962000093655661, 0.4853500140598044, 0.4928000125801191, 0.4932000010740012, 0.5065000004833564, 0.4870999982813373, 0.5194999830564484, 0.4837000014958903, 0.4924000095343217, 0.4989500012015924, 0.4989000008208677, 0.4769999941345304, 0.4889000119874254, 0.4842500056838617, 0.493649989948608, 0.497049986734055, 0.4901000065729022, 0.5003999976906925, 0.49185000534635037, 0.5076499946881086, 0.4988000000594184, 0.4876999882981181, 0.4956500051775947, 0.4821499896934256, 0.4959999932907522, 0.5106000025989488, 0.4894500016234815, 0.49434999527875334, 0.49694998597260565, 0.5019499803893268, 0.49235000915359706, 0.5000999954063445, 0.4903499939246103, 0.49140000191982836, 0.48814999172464013, 0.4926999972667545, 0.4844499926548451, 0.4826500080525875, 0.49885000044014305, 0.4889000119874254, 0.4863499925704673, 0.48180000158026814, 0.48985000466927886, 0.5205499764997512, 0.4838500026380643, 0.4887999966740608, 0.5099000118207186, 0.4858999891439453, 0.49325000145472586, 0.49005000619217753, 0.49700000090524554, 0.4866499948548153, 0.48439999227412045, 0.4864999937126413, 0.508299985085614, 0.4948499845340848, 0.48830000741872936, 0.5018500087317079, 0.6201000069268048, 0.5408500146586448, 0.4921999934595078, 0.487900004372932, 0.4972000024281442, 0.5033500056015328, 0.4923000087728724, 0.49345000297762454, 0.4854500002693385, 0.4983000108040869, 0.49504998605698347, 0.48314999730791897, 0.4928499984089285, 0.497499990160577, 0.48320001224055886, 0.4951999871991575, 0.49524998757988214, 0.49185000534635037, 0.48719999904278666, 0.4921999934595078, 0.4963999817846343, 0.4893500008620322, 0.4991999885533005, 0.48099999548867345, 0.4945999971823767, 0.48949998745229095, 0.4845999937970191, 0.5001500103389844, 0.4928999987896532, 0.49044999468605965, 0.49675001355353743, 0.4964500112691894, 0.4828999954042956, 0.4880499909631908, 0.4898999904980883, 0.484050004160963, 0.48005000280682, 0.49509998643770814, 0.49044999468605965, 0.4932000010740012, 0.4964499967172742, 0.4843499918933958, 0.4870500124525279, 0.48689999675843865, 0.49270001181866974, 0.4819000023417175, 0.4895000020042062, 0.4839999892283231, 0.48314998275600374, 0.490699996589683, 0.4935500037390739, 0.5103499861434102, 0.4893000004813075, 0.48454999341629446, 0.48574998800177127, 0.4873999860137701, 0.4907500115223229, 0.48505001177545637, 0.4867999959969893, 0.5119500128785148, 0.48395000339951366, 0.49340000259689987, 0.4993000184185803, 0.4988499858882278, 0.48290000995621085, 0.4976999916834757, 0.4878499894402921, 0.5018000083509833, 0.4927500121993944, 0.49664999824017286, 0.5044000135967508, 0.4788999940501526, 0.5195499979890883, 0.5052000051364303, 0.484050004160963, 0.486849996377714, 0.49235000915359706, 0.4965999978594482, 0.494249994517304, 0.5113500083098188, 0.49345000297762454, 0.4954000178258866, 0.4864999937126413, 0.4904999950667843, 0.48510001215618104, 0.49455001135356724, 0.4887000104645267, 0.48460000834893435, 0.49795000813901424, 0.49504998605698347, 0.49945000500883907, 0.4972999886376783, 0.5830500012962148, 0.5060500116087496, 0.4862999921897426, 0.506450014654547, 0.487149998662062, 0.4895499878330156, 0.5229000089457259, 0.505700008943677, 0.4831000114791095, 0.4937500198138878, 0.5707500095013529, 0.4901999927824363, 0.5364499957067892, 0.49119998584501445, 0.5022000113967806, 0.4862500063609332, 0.5455000064102933, 0.4910999850835651, 0.5435499915620312, 0.4963000101270154, 0.48505001177545637, 0.5254999850876629, 0.5076499946881086, 0.480650007375516, 0.5999000131851062, 0.49780000699684024, 0.4958000063197687, 0.4946000117342919, 0.4860499902861193, 0.48165000043809414, 0.48919999971985817, 0.5788999842479825, 0.4951999871991575, 0.49560000479687005, 0.487600002088584, 0.48254999273922294, 0.494549996801652, 0.4921500076306984, 0.4903000080958009, 0.49274998309556395, 0.4839999892283231, 0.49404999299440533, 0.490849997731857, 0.4803999909199774, 0.4884000081801787, 0.494249994517304, 0.5003499973099679, 0.4956499906256795, 0.4999000084353611, 0.4909000126644969, 0.4904500092379749, 0.5013999907532707, 0.484800009871833, 0.4991000168956816, 0.4890000127488747, 0.5226000066613778, 0.48519999836571515, 0.49020000733435154, 0.48750000132713467, 0.5011500034015626, 0.4953500028932467, 0.4978499928256497, 0.4914000164717436, 0.500100024510175, 0.4935500037390739, 0.49029999354388565, 0.4923499800497666, 0.4884999798377976, 0.4899500054307282, 0.4825000069104135, 0.49014999240171164, 0.5075500084785745, 0.4880499909631908, 0.5049000028520823, 0.5024999991292134, 0.4887000104645267, 0.5030499887652695, 0.4946999833919108, 0.47995000204537064, 0.48859999515116215, 0.4923000087728724, 0.497349989018403, 0.493799991090782, 0.4894500016234815, 0.4887000104645267, 0.48979998973663896, 0.4997500072931871, 0.484650008729659, 0.5109500198159367, 0.4889499978162348, 0.49300001410301775, 0.4986500134691596, 0.4865000082645565, 0.48785000399220735, 0.4981499951099977, 0.4881999921053648, 0.4954999894835055, 0.5024999991292134, 0.4985000123269856, 0.5008000007364899, 0.4929999995511025, 0.49640001088846475, 0.5018500087317079, 0.4862999921897426, 0.5008500011172146, 0.48985000466927886, 0.4872000135947019, 0.4896500031463802, 0.48704999790061265, 0.526249990798533, 0.494399995659478, 0.490399994305335, 0.5065999866928905, 0.49900000158231705, 0.4955999902449548, 0.49324998690281063, 0.4988499858882278, 0.4888499970547855, 0.49414997920393944, 0.48829999286681414, 0.49244998081121594, 0.4972000024281442, 0.4971000162186101, 0.4815499851247296, 0.487900004372932, 0.490549995447509, 0.4985999985365197, 0.5023499834351242, 0.48800000513438135, 0.5044999998062849, 0.49095001304522157, 0.5052499909652397, 0.49234999460168183, 0.49345000297762454, 0.4913500015391037, 0.4895499878330156, 0.4832499835174531, 0.488050005515106, 0.49479998415336013, 0.4958500067004934, 0.4964499967172742, 0.49069998203776777, 0.4867999959969893, 0.4986499989172444, 0.5074499931652099, 0.484650008729659, 0.49235000915359706, 0.5120499845361337, 0.49085001228377223, 0.49089999811258167, 0.4937000048812479, 0.4984499828424305, 0.5266500083962455, 0.48910001351032406, 0.498099994729273, 0.48534999950788915, 0.48874999629333615, 0.4838500026380643, 0.49089998356066644, 0.4891499993391335, 0.5076499946881086, 0.4893500008620322, 0.49464999756310135, 0.4932500160066411, 0.4859500040765852, 0.5151999939698726, 0.484200005303137, 0.5018500087317079, 0.49300001410301775, 0.4909499839413911, 0.48745000094641, 0.5100999842397869, 0.49294999917037785, 0.49604999367147684, 0.4793000116478652, 0.490999998874031, 0.49915000272449106, 0.5038499948568642, 0.494549996801652, 0.49104998470284045, 0.6532999977935106, 0.5241500039119273, 0.5291999987093732, 0.509100005729124, 0.4956499906256795, 0.490699996589683, 0.4892000142717734, 0.4985999985365197, 0.49765000585466623, 0.49185000534635037, 0.5044999998062849, 0.49500000022817403, 0.4893500154139474, 0.49610000860411674, 0.515749998157844, 0.49170000420417637, 0.4897500039078295, 0.48755000170785934, 0.497949993587099, 0.4890000127488747, 0.506000011228025, 0.49550001858733594, 0.48430000606458634, 0.4950500151608139, 0.490099992020987, 0.5082999996375293, 0.5025000136811286, 0.49435000983066857, 0.4976999916834757, 0.4885499947704375, 0.4927499976474792, 0.48570001672487706, 0.493649989948608, 0.4889000119874254, 0.4937500198138878, 0.4920999926980585, 0.49184999079443514, 0.4896000027656555, 0.48499999684281647, 0.49950000538956374, 0.5199500010348856, 0.4847999953199178, 0.4957500204909593, 0.4844999930355698, 0.4794000124093145, 0.49094999849330634, 0.5288499960443005, 0.48915001389104873, 0.49409999337513, 0.48329999845009297, 0.4952500021317974, 0.5054500070400536, 0.4895000165561214, 0.4895000020042062, 0.5024999991292134, 0.49285001296084374, 0.4969500005245209, 0.4794500127900392, 0.49625000974629074, 0.5251500115264207, 0.494549996801652, 0.4858499887632206, 0.4853999998886138, 0.49375000526197255, 0.4865000082645565, 0.4844999930355698, 0.5077999958302826, 0.4982999962521717, 0.4958500067004934, 0.49900000158231705],
  "Depth": 20.5,
  "Expectation Value": -10.611989974975586,
  "Optimal Expectation Value": -11.109565734863281,
  "Optimizer durations [ms]": [10.97, 10.92, 12.533, 10.543, 11.107, 20.868, 10.681, 14.318, 10.992, 10.745, 10.929, 10.867, 11.766, 21.359, 11.51, 10.537, 11.06, 10.246, 11.607, 18.615, 10.515, 10.479, 13.126, 11.634, 10.566, 26.235, 16.679, 10.905, 11.675, 10.554, 10.74, 10.717, 10.558, 10.91, 10.399, 10.789, 10.794, 10.582, 10.469, 10.619, 11.076, 10.185, 10.64, 10.786, 11.267, 10.541, 10.626, 10.704, 10.536, 10.823, 10.678, 10.797, 10.818, 10.822, 10.748, 10.418, 10.633, 11.117, 10.996, 10.704, 10.647, 10.719, 10.799, 10.644, 11.813, 10.311, 10.726, 10.822, 10.942, 10.58, 10.727, 10.467, 10.987, 10.917, 10.535, 10.733, 10.891, 10.743, 10.673, 10.661, 10.471, 10.891, 10.735, 10.471, 10.946, 10.577, 10.865, 10.688, 10.833, 10.803, 12.232, 22.509, 11.744, 10.722, 10.831, 10.63, 10.545, 11.022, 10.548, 11.473, 10.626, 10.851, 10.451, 10.809, 10.551, 10.474, 10.925, 11.014, 10.756, 10.844, 10.801, 10.681, 12.207, 10.656, 10.825, 11.066, 10.741, 10.653, 12.794, 10.524, 11.461, 10.589, 10.65, 10.539, 10.777, 10.775, 11.012, 10.531, 10.526, 10.981, 10.441, 11.006, 10.596, 10.767, 10.633, 10.592, 10.347, 10.813, 10.693, 10.527, 10.896, 10.608, 10.849, 10.208, 10.441, 11.226, 10.809, 10.987, 10.863, 11.098, 10.789, 10.721, 10.495, 10.891, 10.716, 10.965, 10.71, 10.752, 10.885, 10.607, 10.793, 10.601, 10.876, 10.352, 10.835, 10.911, 10.783, 10.308, 9.831, 10.694, 10.823, 10.874, 10.767, 10.651, 10.849, 10.65, 10.819, 10.716, 10.803, 10.501, 11.086, 10.32, 10.926, 23.201, 15.74, 10.808, 10.66, 10.916, 11.033, 10.864, 10.467, 10.784, 11.091, 10.84, 10.615, 11.338, 10.577, 10.683, 11.016, 10.805, 10.668, 10.629, 11.175, 10.703, 10.47, 11.054, 10.915, 10.713, 10.717, 10.621, 12.041, 10.858, 10.743, 10.585, 10.728, 10.844, 10.596, 11.129, 10.522, 10.718, 11.016, 10.455, 11.283, 10.342, 10.718, 10.889, 10.896, 10.891, 10.747, 10.935, 10.511, 10.584, 10.751, 11.015, 10.634, 11.733, 10.587, 10.504, 12.453, 10.627, 10.601, 10.749, 11.023, 10.271, 10.896, 10.67, 10.817, 10.843, 11.169, 10.676, 10.547, 10.771, 10.965, 10.643, 10.849, 10.734, 10.478, 11.312, 10.801, 10.809, 10.654, 10.985, 10.737, 10.673, 10.661, 10.307, 11.197, 10.495, 10.378, 10.907, 10.69, 10.694, 11.029, 10.871, 13.163, 10.684, 10.972, 18.291, 10.814, 13.73, 10.678, 10.879, 10.577, 11.23, 10.55, 16.991, 10.942, 10.706, 10.876, 10.669, 10.492, 14.123, 13.553, 10.672, 10.721, 11.297, 10.558, 10.959, 22.766, 11.383, 10.792, 10.974, 10.182, 10.789, 10.189, 10.552, 10.953, 10.563, 10.971, 10.736, 10.521, 10.489, 10.84, 10.63, 10.72, 10.756, 10.819, 10.933, 10.36, 10.666, 11.062, 10.469, 10.886, 10.534, 11.136, 10.87, 10.831, 10.938, 10.843, 10.679, 10.456, 11.033, 10.625, 10.636, 10.632, 10.742, 10.677, 10.532, 11.075, 11.433, 10.715, 13.608, 11.294, 13.506, 18.914, 12.4, 13.362, 11.86, 13.513, 14.111, 12.954, 10.751, 10.918, 10.985, 10.627, 10.914, 10.702, 10.671, 10.286, 10.815, 10.686, 10.959, 24.364, 13.394, 10.822, 10.874, 10.557, 10.98, 10.892, 10.573, 10.544, 10.53, 10.536, 11.057, 10.491, 10.749, 10.803, 11.058, 10.848, 11.133, 10.918, 10.694, 10.479, 10.923, 10.888, 10.741, 10.784, 11.108, 10.594, 15.743, 10.93, 10.967, 10.985, 10.785, 10.835, 10.662, 10.596, 10.57, 10.625, 10.873, 10.596, 11.432, 10.611, 10.948, 10.777, 10.482, 10.621, 10.604, 10.273, 10.758, 11.037, 10.716, 10.71, 10.676, 11.245, 11.091, 10.498, 10.802, 10.957, 10.645, 10.967, 10.891, 10.544, 10.449, 11.011, 10.82, 10.951, 10.746, 10.552, 10.784, 10.609, 10.746, 10.507, 10.621, 10.705, 10.741, 10.364, 10.751, 11.231, 10.48, 10.854, 11.055, 10.681, 10.742, 10.467, 11.172, 10.573, 10.437, 10.792, 11.37, 10.685, 10.637, 10.799, 13.568, 25.094, 10.67, 10.46, 10.56, 10.875, 11.033, 10.601, 10.627, 11.119, 10.936, 10.53, 10.762, 11.079, 10.621, 10.995, 10.787, 10.953, 10.663, 10.461, 10.82, 10.759, 10.516, 10.791, 10.724, 10.583, 10.57, 10.924, 10.768, 10.783, 10.732, 11.069, 10.518, 10.649, 10.776, 10.545, 10.775, 10.832, 10.541, 10.756, 10.649, 10.574, 10.422, 10.86, 10.745, 10.366, 10.522, 10.603, 10.411, 10.561, 10.797, 10.851, 10.942, 10.432, 10.943, 10.752, 10.703, 10.763, 10.582, 11.251, 10.617, 10.733, 11.017, 10.992, 10.32, 10.994, 10.432, 11.074, 10.828, 10.755, 10.975, 10.477, 11.215, 11.09, 10.802, 10.665, 10.888, 10.53, 10.544, 11.204, 10.664, 11.047, 10.52, 10.793, 10.639, 11.056, 10.945, 10.587, 11.449, 10.615, 10.963, 10.913, 12.563, 10.883, 10.599, 21.19, 10.669, 13.997, 11.318, 10.928, 10.581, 10.773, 12.394, 20.64, 11.53, 11.01, 10.799, 10.953, 11.793, 19.156, 11.466, 10.848, 10.843, 11.294, 11.007, 22.013, 14.803, 10.507, 10.832, 10.551, 10.77, 10.372, 12.766, 12.6, 10.692, 10.9, 10.66, 10.67, 10.74, 10.421, 11.171, 10.73, 10.465, 10.68, 10.563, 10.643, 10.361, 10.949, 10.747, 10.598, 10.85, 10.614, 10.752, 10.972, 10.78, 10.77, 10.395, 11.606, 10.545, 11.006, 10.832, 10.543, 10.804, 10.936, 10.734, 10.481, 10.841, 10.459, 10.712, 10.238, 10.855, 10.638, 10.471, 11.138, 10.763, 10.883, 11.038, 10.721, 10.94, 10.42, 10.837, 10.642, 10.532, 10.931, 10.706, 10.48, 10.919, 10.382, 11.043, 10.675, 10.656, 29.015, 10.793, 10.472, 10.806, 10.217, 11.116, 10.778, 10.793, 10.946, 10.544, 10.679, 10.906, 10.64, 10.921, 10.629, 10.785, 10.8, 10.607, 11.036, 10.664, 11.718, 10.52, 11.029, 11.242, 10.863, 10.838, 10.78, 12.809, 10.696, 10.835, 10.538, 10.86, 10.802, 10.838, 10.498, 10.803, 10.451, 10.717, 11.067, 10.909, 10.705, 10.464, 10.959, 10.941, 10.708, 10.54, 11.007, 10.411, 10.771, 10.945, 10.666, 10.638, 10.682, 10.838, 10.902, 10.716, 10.705, 10.694, 11.029, 11.071, 10.911, 10.636, 10.597, 11.282, 10.997, 10.834, 10.392, 10.836, 10.373, 11.112, 10.626, 10.925, 10.878, 10.855, 10.903, 10.749, 11.255, 10.432, 11.125, 10.827, 10.593, 10.81, 10.993, 10.56, 10.628, 10.68, 10.598, 10.842, 11.035, 10.854, 10.644, 14.134, 20.424, 11.772, 10.711, 10.866, 10.637, 10.711, 10.612, 10.895, 10.815, 10.921, 10.993, 10.342, 10.843, 10.868, 10.943, 10.638, 10.883, 10.629, 10.6, 11.022, 10.704, 10.759, 10.751, 10.573, 10.893, 11.244, 10.795, 12.148, 10.617, 10.855, 10.666, 10.66, 10.39, 10.854, 10.317, 10.8, 10.921, 10.738, 10.762, 11.464, 10.54, 10.684, 10.95, 10.352, 10.829, 11.662, 10.877, 10.957, 10.774, 10.954, 11.056, 10.893, 10.329, 10.885, 10.714, 10.789, 10.502, 11.226, 11.5, 10.665, 11.028, 10.779, 10.717, 10.624, 10.504, 11.199, 10.786, 10.821, 10.852],
  "Optimizer iterations": 795,
  "Optimizer params": [0.42585149552607343, 0.05923536582985344, 0.9433570466690534, 0.4498173909447853, 0.04972431140686679, 0.5433820286602628, 0.014303285628673367, 0.5295225247929788, 0.9286343489762853, 0.4105771887215904, 0.5793589446989713, 0.9398003248706456, 0.10060327934326524, 0.2683788056160148, 0.47416957841783947, 0.9879722520493915, 0.9706886414431849, 0.45919082565134783, 0.5152084304489382, 0.5052062086076645, 0.9873065472473769, 0.5251471666192229, 0.5248240021823722, 0.4212892920650141, 0.37658339991959805, 0.6246615827324556, 0.4695187127310326, 0.28668222144592964, 0.1379952860654618, 0.7866439137000524, 0.3306389996067167, 0.7092027965344275, 0.9874339570076623, 0.9638432672343912, 0.4756609694529901, 0.04604529063439991],
  "P": 0,
  "Problem": "IC",
  "QJob durations [ms]": [0.4999999946448952, 0.48550000065006316, 0.5741500062867999, 0.49425000906921923, 0.5134500097483397, 0.47870000707916915, 0.484800009871833, 0.496899985591881, 0.51045001600869, 0.4927499976474792, 0.49920000310521573, 0.49765000585466623, 0.5510500050149858, 0.49134998698718846, 0.5316499882610515, 0.4866499948548153, 0.49700000090524554, 0.48704999790061265, 0.5237000004854053, 0.4036999889649451, 0.477700014016591, 0.4933500022161752, 0.4922499938402325, 0.5441999819595367, 0.5045500001870096, 0.47524999536108226, 0.4897500039078295, 0.49574999138712883, 0.5356499896151945, 0.49000000581145287, 0.48674999561626464, 0.48504999722354114, 0.4904999950667843, 0.48329999845009297, 0.4799499874934554, 0.4952500021317974, 0.5024999991292134, 0.48040000547189265, 0.48460000834893435, 0.4856999876210466, 0.48909999895840883, 0.4797000146936625, 0.484050004160963, 0.48764998791739345, 0.5131999932928011, 0.48469999455846846, 0.4957999917678535, 0.4952000017510727, 0.48395000339951366, 0.4813999985344708, 0.4911499854642898, 0.4963999963365495, 0.49685001431498677, 0.49059999582823366, 0.48830000741872936, 0.49860001308843493, 0.49369999032933265, 0.5019500094931573, 0.49739998939912766, 0.4889499832643196, 0.5078500107629225, 0.4899500054307282, 0.5016999930376187, 0.48060000699479133, 0.5290500121191144, 0.4807999939657748, 0.4877499886788428, 0.4986499989172444, 0.5073000065749511, 0.4782000178238377, 0.4981500096619129, 0.484200005303137, 0.5012999899918213, 0.4914000164717436, 0.49560000479687005, 0.48740000056568533, 0.49315001524519175, 0.4999999946448952, 0.48239999159704894, 0.4974000039510429, 0.49854999815579504, 0.4917499900329858, 0.4866499948548153, 0.48835000779945403, 0.48745000094641, 0.48525001329835504, 0.4896500031463802, 0.4949500143993646, 0.490549995447509, 0.4860500048380345, 0.5885999999009073, 0.5135999817866832, 0.5544000014197081, 0.4930999857606366, 0.48165000043809414, 0.4950500151608139, 0.5014499911339954, 0.49134998698718846, 0.4847999953199178, 0.524500006577, 0.49170000420417637, 0.4901000065729022, 0.48204998893197626, 0.48409998998977244, 0.48180000158026814, 0.48729998525232077, 0.4944499960402027, 0.4893999866908416, 0.4963999963365495, 0.48904999857768416, 0.49950000538956374, 0.47885000822134316, 0.5580999859375879, 0.5109999910928309, 0.4931000148644671, 0.49834999663289636, 0.49739998939912766, 0.4867999959969893, 0.4890000127488747, 0.48129998322110623, 0.5212499963818118, 0.5046500009484589, 0.4916500038234517, 0.4883499932475388, 0.4885499947704375, 0.4835500003537163, 0.49614997988101095, 0.5039499956183136, 0.48080000851769, 0.49404999299440533, 0.4882500070380047, 0.5020000098738819, 0.48505001177545637, 0.49470001249574125, 0.4849499964620918, 0.4821499896934256, 0.48099999548867345, 0.4963999963365495, 0.4885999805992469, 0.49744998977985233, 0.4951499868184328, 0.49684999976307154, 0.4988500149920583, 0.4803000047104433, 0.4841999907512218, 0.4962000093655661, 0.49595000746194273, 0.48940000124275684, 0.4921000072499737, 0.5097500106785446, 0.4937500198138878, 0.48794999020174146, 0.4887499817414209, 0.48320001224055886, 0.4889999981969595, 0.4978499928256497, 0.4865500086452812, 0.4926999972667545, 0.4948999994667247, 0.4876500024693087, 0.49545000365469605, 0.49074998241849244, 0.49130001571029425, 0.49334998766425997, 0.4910999850835651, 0.49175000458490103, 0.4886999959126115, 0.47805000212974846, 0.45274999865796417, 0.48865001008380204, 0.48239999159704894, 0.4889499978162348, 0.487600002088584, 0.48400000378023833, 0.4884999943897128, 0.4869499971391633, 0.4958000063197687, 0.49765000585466623, 0.48994999087881297, 0.5004000122426078, 0.49679998483043164, 0.4773499967996031, 0.5119499983265996, 0.6581000052392483, 0.6449499924201518, 0.4986999847460538, 0.4954499891027808, 0.5096499953651801, 0.49754999054130167, 0.48994999087881297, 0.4864000075031072, 0.4943499807268381, 0.4949000140186399, 0.4964499967172742, 0.4904999950667843, 0.5232999828876927, 0.4868500109296292, 0.48305001109838486, 0.5114500090712681, 0.4862000059802085, 0.4933500022161752, 0.49074999697040766, 0.4999999946448952, 0.494699997943826, 0.4846499941777438, 0.4931000148644671, 0.4889499978162348, 0.49250001029577106, 0.4981500096619129, 0.48564998724032193, 0.47739998262841254, 0.4963500105077401, 0.49265001143794507, 0.48740000056568533, 0.5040000105509534, 0.49440001021139324, 0.48630000674165785, 0.5018499941797927, 0.4885499947704375, 0.49909998779185116, 0.5018000083509833, 0.4829500103369355, 0.5110499914735556, 0.4825999931199476, 0.48239999159704894, 0.502099996083416, 0.4978499928256497, 0.5070999905001372, 0.4968000139342621, 0.4920000064885244, 0.4878499894402921, 0.4913500015391037, 0.4873999860137701, 0.49375000526197255, 0.48585000331513584, 0.5480999825522304, 0.49095001304522157, 0.4822500195587054, 0.5001500103389844, 0.5014000053051859, 0.4816000146092847, 0.49920000310521573, 0.5006500141462311, 0.49134998698718846, 0.4937000048812479, 0.49500000022817403, 0.5048000020906329, 0.49170000420417637, 0.49879998550750315, 0.4899500054307282, 0.48114999663084745, 0.4999499942641705, 0.49924998893402517, 0.4902500077150762, 0.48779998905956745, 0.48824999248608947, 0.48779998905956745, 0.5086000164737925, 0.4964500112691894, 0.49214999307878315, 0.4879500047536567, 0.49074999697040766, 0.4944500105921179, 0.49074999697040766, 0.4924999811919406, 0.4940000071655959, 0.5029500025557354, 0.4871500132139772, 0.49330001638736576, 0.48785000399220735, 0.4921999934595078, 0.4921000072499737, 0.49504998605698347, 0.4896000027656555, 0.6076999998185784, 0.49065001076087356, 0.49184999079443514, 0.4862500063609332, 0.49354998918715864, 0.49840001156553626, 0.4870500124525279, 0.5063999851699919, 0.48299999616574496, 0.48335001338273287, 0.47864999214652926, 0.49360000411979854, 0.4927499976474792, 0.4999499797122553, 0.4835000145249069, 0.49845001194626093, 0.48874999629333615, 0.4972500028088689, 0.4926000110572204, 0.48734998563304543, 0.48925000010058284, 0.4909000126644969, 0.487750003230758, 0.5011500034015626, 0.5144999886397272, 0.5284500075504184, 0.4851499979849905, 0.49745000433176756, 0.4743000026792288, 0.49155000306200236, 0.4844000068260357, 0.4787499929079786, 0.5000499950256199, 0.4935500037390739, 0.49059999582823366, 0.48990000505000353, 0.48284999502357095, 0.501799993799068, 0.48439999227412045, 0.48979998973663896, 0.48255000729113817, 0.5029000021750107, 0.4970500012859702, 0.49399999261368066, 0.4859500040765852, 0.4886000097030774, 0.48925000010058284, 0.4834500141441822, 0.4943000094499439, 0.4893500008620322, 0.5024499987484887, 0.5028000159654766, 0.48909999895840883, 0.5015499918954447, 0.4955000040354207, 0.48534999950788915, 0.490099992020987, 0.5077999958302826, 0.48865001008380204, 0.47894999443087727, 0.494399995659478, 0.5022500117775053, 0.49575000593904406, 0.4883999936282635, 0.5052000051364303, 0.529499986441806, 0.49470001249574125, 0.6113999988883734, 0.519599998369813, 0.5717000167351216, 0.5033000052208081, 0.5616499984171242, 0.5864000122528523, 0.4993499896954745, 0.5030499887652695, 0.5276500014588237, 0.5626000056508929, 0.48985000466927886, 0.5111999926157296, 0.49264999688602984, 0.49649999709799886, 0.5063500138930976, 0.49079999735113233, 0.48504999722354114, 0.4889999981969595, 0.4810499958693981, 0.4842999915126711, 0.5120499990880489, 0.49100001342594624, 0.592650001635775, 0.4959499929100275, 0.49664999824017286, 0.4965999978594482, 0.49375000526197255, 0.48745000094641, 0.4876500024693087, 0.48329999845009297, 0.4914499877486378, 0.4903000080958009, 0.5018499941797927, 0.4892999859293923, 0.48484998114872724, 0.4918000049656257, 0.5165999755263329, 0.49059999582823366, 0.49524998757988214, 0.49175000458490103, 0.4876999882981181, 0.48675001016817987, 0.4887999966740608, 0.49080001190304756, 0.48745001549832523, 0.50970001029782, 0.5113499937579036, 0.4986999847460538, 0.5127499898662791, 0.5050000036135316, 0.5026999861001968, 0.49834999663289636, 0.500449983519502, 0.4941000079270452, 0.4962000093655661, 0.4853500140598044, 0.4928000125801191, 0.4932000010740012, 0.5065000004833564, 0.4870999982813373, 0.5194999830564484, 0.4837000014958903, 0.4924000095343217, 0.4989500012015924, 0.4989000008208677, 0.4769999941345304, 0.4889000119874254, 0.4842500056838617, 0.493649989948608, 0.497049986734055, 0.4901000065729022, 0.5003999976906925, 0.49185000534635037, 0.5076499946881086, 0.4988000000594184, 0.4876999882981181, 0.4956500051775947, 0.4821499896934256, 0.4959999932907522, 0.5106000025989488, 0.4894500016234815, 0.49434999527875334, 0.49694998597260565, 0.5019499803893268, 0.49235000915359706, 0.5000999954063445, 0.4903499939246103, 0.49140000191982836, 0.48814999172464013, 0.4926999972667545, 0.4844499926548451, 0.4826500080525875, 0.49885000044014305, 0.4889000119874254, 0.4863499925704673, 0.48180000158026814, 0.48985000466927886, 0.5205499764997512, 0.4838500026380643, 0.4887999966740608, 0.5099000118207186, 0.4858999891439453, 0.49325000145472586, 0.49005000619217753, 0.49700000090524554, 0.4866499948548153, 0.48439999227412045, 0.4864999937126413, 0.508299985085614, 0.4948499845340848, 0.48830000741872936, 0.5018500087317079, 0.6201000069268048, 0.5408500146586448, 0.4921999934595078, 0.487900004372932, 0.4972000024281442, 0.5033500056015328, 0.4923000087728724, 0.49345000297762454, 0.4854500002693385, 0.4983000108040869, 0.49504998605698347, 0.48314999730791897, 0.4928499984089285, 0.497499990160577, 0.48320001224055886, 0.4951999871991575, 0.49524998757988214, 0.49185000534635037, 0.48719999904278666, 0.4921999934595078, 0.4963999817846343, 0.4893500008620322, 0.4991999885533005, 0.48099999548867345, 0.4945999971823767, 0.48949998745229095, 0.4845999937970191, 0.5001500103389844, 0.4928999987896532, 0.49044999468605965, 0.49675001355353743, 0.4964500112691894, 0.4828999954042956, 0.4880499909631908, 0.4898999904980883, 0.484050004160963, 0.48005000280682, 0.49509998643770814, 0.49044999468605965, 0.4932000010740012, 0.4964499967172742, 0.4843499918933958, 0.4870500124525279, 0.48689999675843865, 0.49270001181866974, 0.4819000023417175, 0.4895000020042062, 0.4839999892283231, 0.48314998275600374, 0.490699996589683, 0.4935500037390739, 0.5103499861434102, 0.4893000004813075, 0.48454999341629446, 0.48574998800177127, 0.4873999860137701, 0.4907500115223229, 0.48505001177545637, 0.4867999959969893, 0.5119500128785148, 0.48395000339951366, 0.49340000259689987, 0.4993000184185803, 0.4988499858882278, 0.48290000995621085, 0.4976999916834757, 0.4878499894402921, 0.5018000083509833, 0.4927500121993944, 0.49664999824017286, 0.5044000135967508, 0.4788999940501526, 0.5195499979890883, 0.5052000051364303, 0.484050004160963, 0.486849996377714, 0.49235000915359706, 0.4965999978594482, 0.494249994517304, 0.5113500083098188, 0.49345000297762454, 0.4954000178258866, 0.4864999937126413, 0.4904999950667843, 0.48510001215618104, 0.49455001135356724, 0.4887000104645267, 0.48460000834893435, 0.49795000813901424, 0.49504998605698347, 0.49945000500883907, 0.4972999886376783, 0.5830500012962148, 0.5060500116087496, 0.4862999921897426, 0.506450014654547, 0.487149998662062, 0.4895499878330156, 0.5229000089457259, 0.505700008943677, 0.4831000114791095, 0.4937500198138878, 0.5707500095013529, 0.4901999927824363, 0.5364499957067892, 0.49119998584501445, 0.5022000113967806, 0.4862500063609332, 0.5455000064102933, 0.4910999850835651, 0.5435499915620312, 0.4963000101270154, 0.48505001177545637, 0.5254999850876629, 0.5076499946881086, 0.480650007375516, 0.5999000131851062, 0.49780000699684024, 0.4958000063197687, 0.4946000117342919, 0.4860499902861193, 0.48165000043809414, 0.48919999971985817, 0.5788999842479825, 0.4951999871991575, 0.49560000479687005, 0.487600002088584, 0.48254999273922294, 0.494549996801652, 0.4921500076306984, 0.4903000080958009, 0.49274998309556395, 0.4839999892283231, 0.49404999299440533, 0.490849997731857, 0.4803999909199774, 0.4884000081801787, 0.494249994517304, 0.5003499973099679, 0.4956499906256795, 0.4999000084353611, 0.4909000126644969, 0.4904500092379749, 0.5013999907532707, 0.484800009871833, 0.4991000168956816, 0.4890000127488747, 0.5226000066613778, 0.48519999836571515, 0.49020000733435154, 0.48750000132713467, 0.5011500034015626, 0.4953500028932467, 0.4978499928256497, 0.4914000164717436, 0.500100024510175, 0.4935500037390739, 0.49029999354388565, 0.4923499800497666, 0.4884999798377976, 0.4899500054307282, 0.4825000069104135, 0.49014999240171164, 0.5075500084785745, 0.4880499909631908, 0.5049000028520823, 0.5024999991292134, 0.4887000104645267, 0.5030499887652695, 0.4946999833919108, 0.47995000204537064, 0.48859999515116215, 0.4923000087728724, 0.497349989018403, 0.493799991090782, 0.4894500016234815, 0.4887000104645267, 0.48979998973663896, 0.4997500072931871, 0.484650008729659, 0.5109500198159367, 0.4889499978162348, 0.49300001410301775, 0.4986500134691596, 0.4865000082645565, 0.48785000399220735, 0.4981499951099977, 0.4881999921053648, 0.4954999894835055, 0.5024999991292134, 0.4985000123269856, 0.5008000007364899, 0.4929999995511025, 0.49640001088846475, 0.5018500087317079, 0.4862999921897426, 0.5008500011172146, 0.48985000466927886, 0.4872000135947019, 0.4896500031463802, 0.48704999790061265, 0.526249990798533, 0.494399995659478, 0.490399994305335, 0.5065999866928905, 0.49900000158231705, 0.4955999902449548, 0.49324998690281063, 0.4988499858882278, 0.4888499970547855, 0.49414997920393944, 0.48829999286681414, 0.49244998081121594, 0.4972000024281442, 0.4971000162186101, 0.4815499851247296, 0.487900004372932, 0.490549995447509, 0.4985999985365197, 0.5023499834351242, 0.48800000513438135, 0.5044999998062849, 0.49095001304522157, 0.5052499909652397, 0.49234999460168183, 0.49345000297762454, 0.4913500015391037, 0.4895499878330156, 0.4832499835174531, 0.488050005515106, 0.49479998415336013, 0.4958500067004934, 0.4964499967172742, 0.49069998203776777, 0.4867999959969893, 0.4986499989172444, 0.5074499931652099, 0.484650008729659, 0.49235000915359706, 0.5120499845361337, 0.49085001228377223, 0.49089999811258167, 0.4937000048812479, 0.4984499828424305, 0.5266500083962455, 0.48910001351032406, 0.498099994729273, 0.48534999950788915, 0.48874999629333615, 0.4838500026380643, 0.49089998356066644, 0.4891499993391335, 0.5076499946881086, 0.4893500008620322, 0.49464999756310135, 0.4932500160066411, 0.4859500040765852, 0.5151999939698726, 0.484200005303137, 0.5018500087317079, 0.49300001410301775, 0.4909499839413911, 0.48745000094641, 0.5100999842397869, 0.49294999917037785, 0.49604999367147684, 0.4793000116478652, 0.490999998874031, 0.49915000272449106, 0.5038499948568642, 0.494549996801652, 0.49104998470284045, 0.6532999977935106, 0.5241500039119273, 0.5291999987093732, 0.509100005729124, 0.4956499906256795, 0.490699996589683, 0.4892000142717734, 0.4985999985365197, 0.49765000585466623, 0.49185000534635037, 0.5044999998062849, 0.49500000022817403, 0.4893500154139474, 0.49610000860411674, 0.515749998157844, 0.49170000420417637, 0.4897500039078295, 0.48755000170785934, 0.497949993587099, 0.4890000127488747, 0.506000011228025, 0.49550001858733594, 0.48430000606458634, 0.4950500151608139, 0.490099992020987, 0.5082999996375293, 0.5025000136811286, 0.49435000983066857, 0.4976999916834757, 0.4885499947704375, 0.4927499976474792, 0.48570001672487706, 0.493649989948608, 0.4889000119874254, 0.4937500198138878, 0.4920999926980585, 0.49184999079443514, 0.4896000027656555, 0.48499999684281647, 0.49950000538956374, 0.5199500010348856, 0.4847999953199178, 0.4957500204909593, 0.4844999930355698, 0.4794000124093145, 0.49094999849330634, 0.5288499960443005, 0.48915001389104873, 0.49409999337513, 0.48329999845009297, 0.4952500021317974, 0.5054500070400536, 0.4895000165561214, 0.4895000020042062, 0.5024999991292134, 0.49285001296084374, 0.4969500005245209, 0.4794500127900392, 0.49625000974629074, 0.5251500115264207, 0.494549996801652, 0.4858499887632206, 0.4853999998886138, 0.49375000526197255, 0.4865000082645565, 0.4844999930355698, 0.5077999958302826, 0.4982999962521717, 0.4958500067004934, 0.49900000158231705],
  "QPU": "7000000",
  "Qubits": 9,
  "Queue durations [ms]": [0.0, 0.0, 0.0, 0.0, 0.0, 0.0, 0.0, 0.0, 0.0, 0.0, 0.0, 0.0, 0.0, 0.0, 0.0, 0.0, 0.0, 0.0, 0.0, 0.0, 0.0, 0.0, 0.0, 0.0, 0.0, 0.0, 0.0, 0.0, 0.0, 0.0, 0.0, 0.0, 0.0, 0.0, 0.0, 0.0, 0.0, 0.0, 0.0, 0.0, 0.0, 0.0, 0.0, 0.0, 0.0, 0.0, 0.0, 0.0, 0.0, 0.0, 0.0, 0.0, 0.0, 0.0, 0.0, 0.0, 0.0, 0.0, 0.0, 0.0, 0.0, 0.0, 0.0, 0.0, 0.0, 0.0, 0.0, 0.0, 0.0, 0.0, 0.0, 0.0, 0.0, 0.0, 0.0, 0.0, 0.0, 0.0, 0.0, 0.0, 0.0, 0.0, 0.0, 0.0, 0.0, 0.0, 0.0, 0.0, 0.0, 0.0, 0.0, 0.0, 0.0, 0.0, 0.0, 0.0, 0.0, 0.0, 0.0, 0.0, 0.0, 0.0, 0.0, 0.0, 0.0, 0.0, 0.0, 0.0, 0.0, 0.0, 0.0, 0.0, 0.0, 0.0, 0.0, 0.0, 0.0, 0.0, 0.0, 0.0, 0.0, 0.0, 0.0, 0.0, 0.0, 0.0, 0.0, 0.0, 0.0, 0.0, 0.0, 0.0, 0.0, 0.0, 0.0, 0.0, 0.0, 0.0, 0.0, 0.0, 0.0, 0.0, 0.0, 0.0, 0.0, 0.0, 0.0, 0.0, 0.0, 0.0, 0.0, 0.0, 0.0, 0.0, 0.0, 0.0, 0.0, 0.0, 0.0, 0.0, 0.0, 0.0, 0.0, 0.0, 0.0, 0.0, 0.0, 0.0, 0.0, 0.0, 0.0, 0.0, 0.0, 0.0, 0.0, 0.0, 0.0, 0.0, 0.0, 0.0, 0.0, 0.0, 0.0, 0.0, 0.0, 0.0, 0.0, 0.0, 0.0, 0.0, 0.0, 0.0, 0.0, 0.0, 0.0, 0.0, 0.0, 0.0, 0.0, 0.0, 0.0, 0.0, 0.0, 0.0, 0.0, 0.0, 0.0, 0.0, 0.0, 0.0, 0.0, 0.0, 0.0, 0.0, 0.0, 0.0, 0.0, 0.0, 0.0, 0.0, 0.0, 0.0, 0.0, 0.0, 0.0, 0.0, 0.0, 0.0, 0.0, 0.0, 0.0, 0.0, 0.0, 0.0, 0.0, 0.0, 0.0, 0.0, 0.0, 0.0, 0.0, 0.0, 0.0, 0.0, 0.0, 0.0, 0.0, 0.0, 0.0, 0.0, 0.0, 0.0, 0.0, 0.0, 0.0, 0.0, 0.0, 0.0, 0.0, 0.0, 0.0, 0.0, 0.0, 0.0, 0.0, 0.0, 0.0, 0.0, 0.0, 0.0, 0.0, 0.0, 0.0, 0.0, 0.0, 0.0, 0.0, 0.0, 0.0, 0.0, 0.0, 0.0, 0.0, 0.0, 0.0, 0.0, 0.0, 0.0, 0.0, 0.0, 0.0, 0.0, 0.0, 0.0, 0.0, 0.0, 0.0, 0.0, 0.0, 0.0, 0.0, 0.0, 0.0, 0.0, 0.0, 0.0, 0.0, 0.0, 0.0, 0.0, 0.0, 0.0, 0.0, 0.0, 0.0, 0.0, 0.0, 0.0, 0.0, 0.0, 0.0, 0.0, 0.0, 0.0, 0.0, 0.0, 0.0, 0.0, 0.0, 0.0, 0.0, 0.0, 0.0, 0.0, 0.0, 0.0, 0.0, 0.0, 0.0, 0.0, 0.0, 0.0, 0.0, 0.0, 0.0, 0.0, 0.0, 0.0, 0.0, 0.0, 0.0, 0.0, 0.0, 0.0, 0.0, 0.0, 0.0, 0.0, 0.0, 0.0, 0.0, 0.0, 0.0, 0.0, 0.0, 0.0, 0.0, 0.0, 0.0, 0.0, 0.0, 0.0, 0.0, 0.0, 0.0, 0.0, 0.0, 0.0, 0.0, 0.0, 0.0, 0.0, 0.0, 0.0, 0.0, 0.0, 0.0, 0.0, 0.0, 0.0, 0.0, 0.0, 0.0, 0.0, 0.0, 0.0, 0.0, 0.0, 0.0, 0.0, 0.0, 0.0, 0.0, 0.0, 0.0, 0.0, 0.0, 0.0, 0.0, 0.0, 0.0, 0.0, 0.0, 0.0, 0.0, 0.0, 0.0, 0.0, 0.0, 0.0, 0.0, 0.0, 0.0, 0.0, 0.0, 0.0, 0.0, 0.0, 0.0, 0.0, 0.0, 0.0, 0.0, 0.0, 0.0, 0.0, 0.0, 0.0, 0.0, 0.0, 0.0, 0.0, 0.0, 0.0, 0.0, 0.0, 0.0, 0.0, 0.0, 0.0, 0.0, 0.0, 0.0, 0.0, 0.0, 0.0, 0.0, 0.0, 0.0, 0.0, 0.0, 0.0, 0.0, 0.0, 0.0, 0.0, 0.0, 0.0, 0.0, 0.0, 0.0, 0.0, 0.0, 0.0, 0.0, 0.0, 0.0, 0.0, 0.0, 0.0, 0.0, 0.0, 0.0, 0.0, 0.0, 0.0, 0.0, 0.0, 0.0, 0.0, 0.0, 0.0, 0.0, 0.0, 0.0, 0.0, 0.0, 0.0, 0.0, 0.0, 0.0, 0.0, 0.0, 0.0, 0.0, 0.0, 0.0, 0.0, 0.0, 0.0, 0.0, 0.0, 0.0, 0.0, 0.0, 0.0, 0.0, 0.0, 0.0, 0.0, 0.0, 0.0, 0.0, 0.0, 0.0, 0.0, 0.0, 0.0, 0.0, 0.0, 0.0, 0.0, 0.0, 0.0, 0.0, 0.0, 0.0, 0.0, 0.0, 0.0, 0.0, 0.0, 0.0, 0.0, 0.0, 0.0, 0.0, 0.0, 0.0, 0.0, 0.0, 0.0, 0.0, 0.0, 0.0, 0.0, 0.0, 0.0, 0.0, 0.0, 0.0, 0.0, 0.0, 0.0, 0.0, 0.0, 0.0, 0.0, 0.0, 0.0, 0.0, 0.0, 0.0, 0.0, 0.0, 0.0, 0.0, 0.0, 0.0, 0.0, 0.0, 0.0, 0.0, 0.0, 0.0, 0.0, 0.0, 0.0, 0.0, 0.0, 0.0, 0.0, 0.0, 0.0, 0.0, 0.0, 0.0, 0.0, 0.0, 0.0, 0.0, 0.0, 0.0, 0.0, 0.0, 0.0, 0.0, 0.0, 0.0, 0.0, 0.0, 0.0, 0.0, 0.0, 0.0, 0.0, 0.0, 0.0, 0.0, 0.0, 0.0, 0.0, 0.0, 0.0, 0.0, 0.0, 0.0, 0.0, 0.0, 0.0, 0.0, 0.0, 0.0, 0.0, 0.0, 0.0, 0.0, 0.0, 0.0, 0.0, 0.0, 0.0, 0.0, 0.0, 0.0, 0.0, 0.0, 0.0, 0.0, 0.0, 0.0, 0.0, 0.0, 0.0, 0.0, 0.0, 0.0, 0.0, 0.0, 0.0, 0.0, 0.0, 0.0, 0.0, 0.0, 0.0, 0.0, 0.0, 0.0, 0.0, 0.0, 0.0, 0.0, 0.0, 0.0, 0.0, 0.0, 0.0, 0.0, 0.0, 0.0, 0.0, 0.0, 0.0, 0.0, 0.0, 0.0, 0.0, 0.0, 0.0, 0.0, 0.0, 0.0, 0.0, 0.0, 0.0, 0.0, 0.0, 0.0, 0.0, 0.0, 0.0, 0.0, 0.0, 0.0, 0.0, 0.0, 0.0, 0.0, 0.0, 0.0, 0.0, 0.0, 0.0, 0.0, 0.0, 0.0, 0.0, 0.0, 0.0, 0.0, 0.0, 0.0, 0.0, 0.0, 0.0, 0.0, 0.0, 0.0, 0.0, 0.0, 0.0, 0.0, 0.0, 0.0, 0.0, 0.0, 0.0, 0.0, 0.0, 0.0, 0.0, 0.0, 0.0, 0.0, 0.0, 0.0, 0.0, 0.0, 0.0, 0.0, 0.0, 0.0, 0.0, 0.0, 0.0, 0.0, 0.0, 0.0, 0.0, 0.0, 0.0, 0.0, 0.0, 0.0, 0.0, 0.0, 0.0, 0.0, 0.0, 0.0, 0.0, 0.0, 0.0, 0.0, 0.0, 0.0, 0.0, 0.0, 0.0, 0.0, 0.0, 0.0, 0.0, 0.0, 0.0, 0.0, 0.0, 0.0, 0.0, 0.0, 0.0, 0.0, 0.0, 0.0],
  "Shots": 4096,
  "Size": 9,
  "Total Algorithm duration [s]": 8.854,
  "Total Classic duration [s]": 8.459347350036026,
  "Total Quantum duration [s]": 0.3946526499639731
}
