{
  "Circuit execution durations [ms]": [0.14560000272467732, 0.13174999912735075, 0.1314999972237274, 0.13080000280751847, 0.13535000107367523, 0.1296500013268087, 0.12985000284970738, 0.13020000187680125, 0.12790000255336054, 0.13219999891589396, 0.13264999870443717, 0.12849999984609894, 0.13029999900027178, 0.13364999904297292, 0.12805000369553454, 0.1283999990846496, 0.12829999832320027, 0.1268499981961213, 0.1294999965466559, 0.12910000441479497, 0.1286999977310188, 0.1296500013268087, 0.12819999756175093, 0.12865000098827295, 0.12665000031120144, 0.12790000255336054, 0.12959999730810523, 0.1282499979424756, 0.12984999557374977, 0.1280999968003016, 0.12834999870392494, 0.12814999718102627, 0.1262500009033829, 0.12635000166483223, 0.1248500011570286, 0.1282500015804544, 0.12990000323043205, 0.13235000369604677, 0.13564999972004443, 0.13039999976172112, 0.1304500001424458, 0.13799999942420982, 0.1350999991700519, 0.14370000280905515, 0.12865000098827295, 0.131050001073163, 0.13049999688519165, 0.14165000175125897, 0.13760000001639128, 0.12870000136899762, 0.131350003357511, 0.1388000018778257, 0.12885000251117162, 0.13335000039660372, 0.1299499999731779, 0.13750000289292075, 0.13100000069243833, 0.13314999887370504, 0.13179999950807542, 0.1316499983659014, 0.1324500008195173, 0.13094999667373486, 0.13189999663154595, 0.13175000276532955, 0.13389999730861746, 0.13300000136950985, 0.13150000449968502, 0.13209999815444462, 0.13195000428822823, 0.13019999823882245, 0.13070000204606913, 0.13734999811276793, 0.13184999625082128, 0.13145000048098154, 0.1294999965466559, 0.1320000010309741, 0.12884999887319282, 0.1512000017100945, 0.130749998788815, 0.1303000026382506, 0.12815000081900507, 0.12870000136899762, 0.12944999980391003, 0.14999999984866008, 0.13604999912786298, 0.13349999790079892, 0.1299499999731779, 0.13100000069243833, 0.13700000272365287, 0.13189999663154595, 0.13354999828152359, 0.1327500031038653, 0.1293499954044819, 0.12855000386480242, 0.13299999773153104, 0.131200002215337, 0.12925000191899016, 0.12739999874611385, 0.13205000141169876, 0.13055000090389512, 0.12414999582688324, 0.12849999984609894, 0.12939999578520656, 0.1295000038226135, 0.13309999849298038, 0.1626999983272981, 0.1380500034429133, 0.1370999998471234, 0.12990000323043205, 0.12924999828101136, 0.12800000331480987, 0.1344500014965888, 0.13249999756226316, 0.1328999969700817, 0.13034999938099645, 0.13305000175023451, 0.1298000024689827, 0.12889999925391749, 0.12834999506594613, 0.12820000119972974, 0.13329999637790024, 0.12229999992996454, 0.12159999823779799, 0.12265000259503722, 0.13984999532112852, 0.13019999823882245, 0.1310499974351842, 0.1321500021731481, 0.13129999570082873, 0.13125000259606168, 0.13124999895808287, 0.13464999574352987, 0.13295000098878518, 0.13255000158096664, 0.1389500030199997, 0.12939999942318536, 0.13189999663154595, 0.1336999994236976, 0.13039999976172112, 0.12985000284970738, 0.1291999979002867, 0.1280999968003016, 0.1277999981539324, 0.1283999990846496, 0.12844999946537428, 0.1291999979002867, 0.12830000196117908, 0.12745000276481733, 0.1296500013268087, 0.12885000251117162, 0.12775000141118653, 0.1291999979002867, 0.12720000086119398, 0.12849999984609894, 0.13424999997369014, 0.1354000014543999, 0.13160000162315555, 0.1324500008195173, 0.13620000027003698, 0.13704999946639873, 0.1368000012007542, 0.13444999785861, 0.13184999988880008, 0.13500000204658136, 0.1294999965466559, 0.13034999574301764, 0.1278000017919112, 0.13124999895808287, 0.1307500024267938, 0.12939999942318536, 0.12894999963464215, 0.1279499956581276, 0.1282500015804544, 0.12859999696956947, 0.1290500040340703, 0.1302499986195471, 0.12930000229971483, 0.12970000170753337, 0.1354000014543999, 0.13369999578571878, 0.13885000225855038, 0.13114999819663353, 0.12989999959245324, 0.13109999781590886, 0.20039999071741477, 0.13079999916953966, 0.13190000026952475, 0.13005000073462725, 0.17484999989392236, 0.13409999883151613, 0.13180000314605422, 0.13110000145388767, 0.13354999828152359, 0.13354999828152359, 0.12784999853465706, 0.12830000196117908, 0.1303000026382506, 0.1299499963351991, 0.13070000204606913, 0.13015000149607658, 0.13330000365385786, 0.13240000043879263, 0.13324999963515438, 0.13100000069243833, 0.2486000012140721, 0.13250000120024197, 0.13165000200388022, 0.12999999671592377, 0.18394999642623588, 0.13224999929661863, 0.1343000003544148, 0.1330499981122557, 0.33424999128328636, 0.14149999697110616, 0.2011500037042424, 0.1351000028080307, 0.12995000361115672, 0.1311999985773582, 0.11650000305962749, 0.13475000378093682, 0.1350999991700519, 0.18494999676477164, 0.13029999536229298, 0.13374999980442226, 0.13019999823882245, 0.2735500020207837, 0.1343000039923936, 0.13174999912735075, 0.18420000196783803, 0.13040000339969993, 0.1307500024267938, 0.13025000225752592, 0.24075000692391768, 0.16599999798927456, 0.13264999870443717, 0.12989999595447443, 0.18595000801724382, 0.1298000024689827, 0.14814999667578377, 0.12724999760393985, 0.24640000265208073, 0.1314999972237274, 0.1292000015382655, 0.12910000077681616, 0.12909999713883735, 0.13039999976172112, 0.13235000005806796, 0.131050001073163, 0.12024999887216836, 0.1449999981559813, 0.1333499967586249, 0.12914999751956202, 0.1315500048804097, 0.13240000043879263, 0.1307500024267938, 0.13484999726642855, 0.12169999899924733, 0.13219999891589396, 0.12815000081900507, 0.18569999883766286, 0.12844999946537428, 0.1292000015382655, 0.12859999696956947, 0.1290500003960915, 0.324200009345077, 0.2205500059062615, 0.2020499960053712, 0.1428500036126934, 0.13114999819663353, 0.13284999658935703, 0.13294999735080637, 0.1308999962930102, 0.1320000010309741, 0.13130000297678635, 0.13155000124243088, 0.13070000204606913, 0.12924999828101136, 0.12834999870392494, 0.13109999781590886, 0.13760000001639128, 0.1274999995075632, 0.1289000028918963, 0.13204999777371995, 0.13529999705497175, 0.13799999942420982, 0.1735500045469962, 0.13335000039660372, 0.256800001807278, 0.1323000033153221, 0.13069999840809032, 0.13380000382312573, 0.13380000382312573, 0.14464999912888743, 0.13140000010025688, 0.13195000065024942, 0.13770000077784061, 0.1295000001846347, 0.13010000111535192, 0.13165000200388022, 0.15070000517880544, 0.13080000280751847, 0.13110000145388767, 0.1297999988310039, 0.12954999692738056, 0.12884999887319282, 0.1295000001846347, 0.1282499979424756, 0.13360000230022706, 0.13039999976172112, 0.13154999760445207, 0.13235000005806796, 0.13020000187680125, 0.1327500031038653, 0.13110000145388767, 0.13219999891589396, 0.13424999633571133, 0.13159999798517674, 0.13084999955026433, 0.13139999646227807, 0.1338500005658716, 0.14245000056689605, 0.13450000187731348, 0.13464999574352987, 0.13140000010025688, 0.13624999701278284, 0.13085000318824314, 0.131050001073163, 0.13025000225752592, 0.13115000183461234, 0.14375000318977982, 0.13064999802736565, 0.1290500040340703, 0.12850000348407775, 0.14150000060908496, 0.13254999794298783, 0.13520000356948003, 0.13839999883202836, 0.13654999565915205, 0.1379000023007393, 0.13035000301897526, 0.12879999485448934, 0.13350000153877772, 0.13610000314656645, 0.13620000027003698, 0.13435000073513947, 0.12910000441479497, 0.131050001073163, 0.13055000090389512, 0.13050000052317046, 0.1306000012846198, 0.130749998788815, 0.13039999976172112, 0.1302499986195471, 0.13029999900027178, 0.12889999925391749, 0.15874999735387973, 0.13000000035390258, 0.13310000213095918, 0.13070000204606913, 0.1304500001424458, 0.12999999671592377, 0.13000000399188139, 0.13054999726591632, 0.14060000103199854, 0.13034999938099645, 0.12970000170753337, 0.13029999900027178, 0.13390000458457507, 0.13080000280751847, 0.13080000280751847, 0.12989999595447443, 0.1293499990424607, 0.13029999900027178, 0.1327499958279077, 0.12960000094608404, 0.13154999760445207, 0.1389500030199997, 0.1304500001424458, 0.13010000111535192, 0.1334000007773284, 0.13364999904297292, 0.12929999866173603, 0.12984999921172857, 0.12960000094608404, 0.13109999781590886, 0.14009999722475186, 0.13065000166534446, 0.13160000162315555, 0.13720000424655154, 0.13785000192001462, 0.14125000234344043, 0.13224999929661863, 0.12785000217263587, 0.13220000255387276, 0.12805000005755574, 0.1283999990846496, 0.1270500033569988, 0.12739999874611385, 0.130899999930989, 0.1283999990846496, 0.1282500015804544, 0.13160000162315555, 0.1293499990424607, 0.13005000437260605, 0.12989999959245324, 0.1297999951930251, 0.13004999709664844, 0.12975000208825804, 0.1278000017919112, 0.12789999891538173, 0.12844999946537428, 0.1279499992961064, 0.12835000234190375, 0.1287500017497223, 0.1299499999731779, 0.20429999858606607, 0.13184999988880008, 0.13039999976172112, 0.1307500024267938, 0.1339999980700668, 0.12984999921172857, 0.12984999921172857, 0.13015000149607658, 0.13094999667373486, 0.1297999988310039, 0.13269999544718303, 0.1302499986195471, 0.1448500006517861, 0.13160000162315555, 0.13490000128513202, 0.13169999874662608, 0.1400500041199848, 0.13335000039660372, 0.12955000056535937, 0.13545000183512457, 0.1302499986195471, 0.13029999900027178, 0.13130000297678635, 0.13249999756226316, 0.1320000010309741, 0.20865000260528177, 0.1375499996356666, 0.1384999995934777, 0.13475000014295802, 0.134149995574262, 0.13114999819663353, 0.12874999811174348, 0.12865000462625176, 0.1448499970138073, 0.1314999972237274, 0.13115000183461234, 0.131050001073163, 0.13324999963515438, 0.1324499971815385, 0.13235000005806796, 0.12340000102994964, 0.24259999918285757, 0.10969999857479706, 0.265800001216121, 0.11730000187526457, 0.13189999663154595, 0.13354999828152359, 0.13285000022733584, 0.13240000043879263, 0.13439999747788534, 0.1323000033153221, 0.13140000010025688, 0.13264999870443717, 0.1316499983659014, 0.13129999570082873, 0.1369500023429282, 0.13184999988880008, 0.13054999726591632, 0.12960000094608404, 0.13210000179242343, 0.13309999849298038, 0.13269999544718303, 0.13209999815444462, 0.1297999988310039, 0.131350003357511, 0.1337000030616764, 0.12865000098827295, 0.13180000314605422, 0.13169999874662608, 0.13240000043879263, 0.13514999955077656, 0.13095000031171367, 0.13174999912735075, 0.1314999972237274, 0.13269999908516183, 0.13179999950807542, 0.13184999625082128, 0.13070000204606913, 0.13595000200439245, 0.1310499974351842, 0.13914999726694077, 0.13100000069243833, 0.1327500031038653, 0.13069999840809032, 0.12939999942318536, 0.12885000251117162, 0.13464999938150868, 0.13549999857787043, 0.1308999962930102, 0.13050000052317046, 0.1304500001424458, 0.13180000314605422, 0.1307500024267938, 0.13010000111535192, 0.13154999760445207, 0.13774999752058648, 0.13240000043879263, 0.13550000221584924, 0.13124999895808287, 0.13035000301897526, 0.13905000014347024, 0.13145000048098154, 0.13219999527791515, 0.13354999828152359, 0.1341500028502196, 0.14060000103199854, 0.1293499990424607, 0.14060000103199854, 0.13624999701278284, 0.13084999955026433, 0.13239999680081382, 0.1321500021731481, 0.1364499948977027, 0.13240000043879263, 0.13144999684300274, 0.13174999912735075, 0.13115000183461234, 0.12990000323043205, 0.13204999777371995, 0.13269999908516183, 0.13225000293459743, 0.13254999794298783, 0.13034999938099645, 0.1295000038226135, 0.12899999637738802, 0.13094999667373486, 0.1296500013268087, 0.12895000327262096, 0.13005000073462725, 0.12804999641957693, 0.1389500030199997, 0.14364999879035167, 0.13625000065076165, 0.1349500016658567, 0.13269999908516183, 0.12930000229971483, 0.12900000365334563, 0.13154999760445207, 0.2613000033306889, 0.12410000272211619, 0.13050000052317046, 0.1338500005658716, 0.13799999942420982, 0.13174999548937194, 0.13044999650446698, 0.1326000019616913, 0.13234999642008916, 0.13305000175023451, 0.13025000225752592, 0.13210000179242343, 0.145650003105402, 0.13765000039711595, 0.1282500015804544, 0.13095000031171367, 0.13195000065024942, 0.13145000048098154, 0.13140000373823568, 0.13084999955026433, 0.1339999980700668, 0.13345000115805306, 0.1324500008195173, 0.1328999969700817, 0.13530000069295056, 0.13040000339969993, 0.13390000094659626, 0.1314999972237274, 0.12955000056535937, 0.13085000318824314, 0.12969999806955457, 0.12969999806955457, 0.1306000012846198, 0.13915000090491958, 0.13285000386531465, 0.13084999955026433, 0.13034999574301764, 0.13070000204606913, 0.12939999578520656, 0.1310499974351842, 0.13280000348458998, 0.13514999591279775, 0.13254999794298783, 0.12884999887319282, 0.13240000407677144, 0.13780000153928995, 0.14209999790182337, 0.14369999553309754, 0.13100000069243833, 0.12945000344188884, 0.14074999853619374, 0.12929999866173603, 0.12834999870392494, 0.1311999985773582, 0.13984999895910732, 0.12874999811174348, 0.12910000077681616, 0.12720000086119398, 0.1311999985773582, 0.130749998788815, 0.13129999570082873, 0.12900000001536682, 0.12900000365334563, 0.1292000015382655, 0.12944999980391003, 0.13485000090440735, 0.16249999680439942, 0.12944999980391003, 0.13524999667424709, 0.1339999980700668, 0.12989999959245324, 0.13299999773153104, 0.1299499963351991, 0.1290500003960915, 0.12725000124191865, 0.12865000098827295, 0.13110000145388767, 0.1293500026804395, 0.13035000301897526, 0.130749998788815, 0.13014999785809778, 0.13174999548937194, 0.130599997646641, 0.12925000191899016, 0.16325000251526944, 0.13010000111535192, 0.12789999891538173, 0.12900000365334563, 0.1274999995075632, 0.12680000145337544, 0.12730000162264332, 0.12885000251117162, 0.13300000500748865, 0.13505000242730603, 0.13519999993150122, 0.13114999819663353, 0.13674999718205072, 0.1373999984934926, 0.13779999790131114, 0.14245000056689605, 0.12955000056535937, 0.17280000247410499, 0.13010000475333072, 0.13424999633571133, 0.12835000234190375, 0.13205000141169876, 0.1289000028918963, 0.12844999946537428, 0.1287500017497223, 0.1297999988310039, 0.13745000251219608, 0.13315000251168385, 0.13240000043879263, 0.1330499981122557, 0.12955000420333818, 0.1292000015382655, 0.1296499976888299, 0.12915000115754083, 0.12945000344188884, 0.12834999870392494, 0.1278000017919112, 0.1293500026804395, 0.1322999996773433, 0.1292000015382655, 0.1292000015382655, 0.12939999578520656, 0.1264000020455569, 0.13190000390750356, 0.1289000028918963, 0.12849999984609894, 0.12829999832320027, 0.13015000149607658, 0.1258000011148397, 0.12710000373772345, 0.13079999916953966, 0.12619999688467942, 0.13145000411896035, 0.1283999990846496, 0.134299996716436, 0.13209999815444462, 0.13759999637841247, 0.1285500002268236, 0.13295000098878518, 0.12940000306116417, 0.12960000094608404, 0.12954999692738056, 0.12975000208825804, 0.12744999912683852, 0.14680000094813295, 0.13424999997369014, 0.13410000246949494, 0.13069999840809032, 0.2005499991355464, 0.1298000024689827, 0.12704999971901998, 0.12619999688467942, 0.13209999815444462, 0.1274999995075632, 0.13390000094659626, 0.13095000394969247, 0.1350999991700519, 0.13589999798568897, 0.130599997646641, 0.13019999823882245, 0.13080000280751847, 0.12990000323043205, 0.1293500026804395, 0.12805000369553454, 0.12674999743467197, 0.23609999334439635, 0.23075000353856012, 0.17010000374284573, 0.16989999858196825, 0.14730000111740083, 0.13004999709664844, 0.13084999591228552, 0.13065000166534446, 0.16390000382671133, 0.13025000225752592, 0.12724999760393985, 0.11939999967580661, 0.12974999845027924, 0.12670000432990491, 0.13389999730861746, 0.13079999916953966, 0.1282500015804544, 0.13964999743620865, 0.12850000348407775, 0.1269999993382953, 0.12704999971901998, 0.1315000008617062, 0.12760000390699133, 0.12829999832320027, 0.12734999836538918, 0.1269999993382953, 0.13589999798568897, 0.13410000246949494, 0.13000000035390258, 0.12849999984609894, 0.1279500029340852, 0.13440000111586414, 0.136500002554385, 0.1353999978164211, 0.1361499998893123, 0.12715000411844812, 0.12759999663103372, 0.1274499954888597, 0.1266999970539473, 0.12759999663103372, 0.1268500018341001, 0.1267000006919261, 0.12834999870392494, 0.13475000378093682, 0.12954999692738056, 0.12549999883049168, 0.12599999899975955, 0.12675000107265078, 0.1256500036106445, 0.12690000221482478, 0.12620000416063704, 0.24584999482613057, 0.14000000010128133, 0.13314999887370504, 0.1286999977310188, 0.13980000221636146, 0.13039999976172112, 0.12754999988828786, 0.13299999773153104, 0.12974999481230043, 0.12939999578520656, 0.12894999963464215, 0.12865000098827295, 0.13350000517675653, 0.13005000073462725, 0.13010000111535192, 0.1292000015382655, 0.13065000166534446, 0.12775000504916534, 0.1279499992961064, 0.12870000136899762, 0.12859999696956947, 0.12844999946537428, 0.13004999709664844, 0.13204999777371995, 0.13765000039711595, 0.13140000010025688, 0.1289000028918963, 0.12864999735029414, 0.12865000098827295, 0.12775000141118653, 0.1277999981539324, 0.1276499970117584, 0.12805000005755574, 0.12989999959245324, 0.12960000094608404, 0.1281000004382804, 0.12800000331480987, 0.12915000115754083, 0.12860000060754828, 0.12860000060754828, 0.1304500001424458, 0.1263999984075781, 0.13034999574301764, 0.12910000077681616, 0.12969999806955457, 0.13514999955077656, 0.23950000468175858, 0.13224999929661863, 0.12984999921172857, 0.14054999701329507, 0.131350003357511, 0.1320000010309741, 0.1361499962513335, 0.13729999773204327, 0.1366500000585802, 0.12865000098827295, 0.13115000183461234, 0.13000000399188139, 0.13885000225855038, 0.12865000098827295, 0.12730000162264332, 0.13055000090389512, 0.145500001963228, 0.13000000035390258, 0.12844999946537428, 0.1285500002268236, 0.13884999862057157, 0.1293499990424607, 0.12879999849246815, 0.13014999785809778, 0.13254999794298783, 0.12955000056535937, 0.13029999900027178, 0.1299499999731779, 0.1303000026382506, 0.13219999527791515, 0.12799999603885226, 0.12804999641957693, 0.12849999984609894, 0.1296499976888299, 0.12909999713883735, 0.1285500002268236, 0.12860000060754828, 0.12815000081900507, 0.14009999722475186, 0.12860000060754828, 0.12820000119972974, 0.1290500003960915, 0.18495000404072925, 0.1298000024689827, 0.1282500015804544, 0.13000000399188139, 0.1391000005241949, 0.14074999853619374, 0.13535000107367523, 0.134599999000784, 0.1366500000585802, 0.13220000255387276, 0.1318500035267789, 0.1296499976888299, 0.13545000183512457, 0.1290500003960915, 0.12860000060754828, 0.12845000310335308, 0.13115000183461234, 0.1351000028080307, 0.13464999938150868, 0.13419999595498666, 0.1300999974773731, 0.12734999836538918, 0.1274499954888597, 0.12960000094608404, 0.12879999485448934, 0.1367999975627754, 0.1282499979424756, 0.12894999963464215, 0.12819999756175093, 0.12775000141118653, 0.1285499965888448, 0.1323000033153221, 0.13770000077784061, 0.1327500031038653, 0.1760500017553568, 0.1266999970539473, 0.13010000111535192, 0.1282500015804544, 0.1297999951930251, 0.13264999870443717, 0.13034999938099645, 0.1297999951930251, 0.1367999975627754, 0.12789999891538173, 0.1265499995497521, 0.12759999663103372, 0.17425000260118395, 0.13490000128513202, 0.13199999739299528, 0.12754999988828786, 0.12889999561593868, 0.1321500021731481, 0.12770000103046186, 0.13859999671694823, 0.12865000098827295, 0.13194999701227061, 0.13050000052317046, 0.1279500029340852, 0.1262499972654041, 0.12695000259554945, 0.13000000035390258, 0.12930000229971483, 0.12955000056535937, 0.12940000306116417, 0.13085000318824314, 0.12910000077681616, 0.1296499976888299, 0.12799999967683107, 0.12844999946537428, 0.13475000378093682, 0.13915000090491958, 0.13564999972004443, 0.13300000136950985, 0.1285499965888448, 0.12814999718102627, 0.12675000107265078, 0.12910000077681616, 0.12915000115754083, 0.12909999713883735, 0.1278000017919112, 0.1278000017919112, 0.1386500007356517, 0.12909999713883735, 0.12800000331480987, 0.12784999853465706],
  "Depth": 2.0,
  "Expectation Value": -4.559816837310791,
  "Optimal Expectation Value": -4.610499858856201,
  "Optimizer durations [ms]": [6.485, 3.581, 3.568, 3.511, 3.642, 3.574, 3.466, 3.496, 3.684, 3.617, 3.715, 3.507, 3.634, 3.643, 3.474, 3.516, 3.512, 3.442, 3.407, 3.409, 3.395, 3.432, 3.461, 3.559, 3.559, 3.558, 3.536, 3.524, 3.502, 3.497, 3.626, 3.446, 3.424, 3.419, 3.403, 3.524, 7.173, 3.528, 3.621, 3.491, 3.477, 3.845, 3.679, 3.883, 3.532, 3.698, 3.689, 3.781, 3.706, 3.567, 3.801, 3.828, 3.548, 3.597, 3.556, 3.692, 3.535, 3.573, 3.592, 3.615, 3.57, 3.584, 3.547, 3.601, 3.593, 3.604, 3.529, 3.64, 3.585, 3.481, 3.524, 3.673, 3.792, 3.518, 3.488, 3.655, 3.481, 3.992, 3.507, 3.529, 3.549, 3.536, 3.539, 4.081, 3.865, 3.599, 3.499, 3.696, 3.772, 3.591, 3.657, 3.707, 3.546, 3.536, 3.584, 3.584, 3.551, 3.513, 3.579, 3.54, 3.476, 3.549, 3.659, 3.552, 3.699, 4.247, 3.728, 4.384, 3.512, 3.603, 3.517, 3.603, 3.536, 3.54, 3.516, 3.584, 3.523, 3.553, 3.521, 4.023, 3.828, 3.428, 3.405, 3.381, 3.727, 3.492, 3.57, 3.539, 3.537, 3.547, 3.726, 3.808, 3.677, 3.549, 3.926, 3.559, 3.762, 3.635, 3.525, 3.498, 3.531, 3.514, 3.535, 3.537, 3.5, 3.52, 3.489, 3.504, 3.53, 3.523, 4.497, 3.911, 3.519, 3.497, 3.631, 3.75, 3.597, 3.54, 3.686, 3.627, 3.682, 3.625, 3.537, 3.713, 3.523, 3.675, 3.634, 3.547, 3.475, 3.507, 3.557, 3.531, 3.533, 3.559, 3.56, 3.594, 3.541, 3.507, 3.613, 3.909, 3.861, 3.633, 3.671, 3.523, 4.984, 3.527, 3.526, 3.575, 4.493, 3.652, 3.528, 3.484, 3.605, 3.627, 3.547, 3.469, 3.559, 3.581, 3.597, 3.577, 4.088, 4.567, 4.121, 3.502, 5.928, 3.802, 3.537, 3.507, 4.692, 3.695, 3.793, 3.648, 7.21, 8.17, 5.034, 3.909, 3.658, 3.657, 7.005, 3.965, 3.816, 4.684, 3.571, 3.714, 3.611, 6.323, 3.764, 3.509, 4.616, 3.56, 3.545, 3.748, 5.705, 18.347, 3.61, 3.528, 4.678, 3.52, 3.916, 3.453, 5.872, 3.59, 3.665, 3.549, 4.74, 3.613, 3.599, 3.58, 6.455, 16.256, 3.729, 3.523, 5.384, 3.833, 3.506, 3.832, 6.57, 3.705, 3.528, 4.677, 3.486, 3.517, 3.515, 5.177, 18.674, 6.039, 5.813, 4.307, 3.57, 3.598, 3.566, 3.573, 3.558, 3.576, 3.581, 3.52, 3.67, 3.51, 3.618, 3.826, 3.54, 3.552, 3.62, 3.751, 3.752, 4.458, 3.791, 5.772, 5.964, 3.57, 3.694, 3.614, 3.836, 3.559, 3.538, 3.777, 3.532, 3.541, 3.674, 4.023, 3.516, 3.533, 3.578, 3.557, 3.53, 3.547, 3.492, 3.65, 3.521, 3.537, 3.558, 3.539, 3.588, 3.532, 3.567, 3.607, 3.626, 3.539, 3.51, 3.575, 3.978, 3.74, 3.776, 3.662, 3.736, 3.518, 3.517, 3.512, 3.568, 3.766, 3.594, 3.595, 3.513, 3.823, 3.548, 3.684, 3.704, 3.716, 3.863, 3.576, 3.527, 4.092, 3.85, 3.819, 3.697, 3.656, 3.516, 3.542, 3.53, 3.509, 3.539, 3.514, 3.514, 3.499, 3.559, 4.07, 3.545, 3.62, 3.581, 3.585, 3.585, 3.512, 3.526, 3.762, 3.548, 3.513, 3.569, 3.679, 3.51, 3.505, 3.538, 3.519, 3.499, 3.709, 3.655, 3.693, 3.69, 3.488, 3.483, 3.761, 3.608, 3.548, 3.559, 3.64, 3.644, 3.845, 3.544, 3.705, 3.696, 3.795, 3.815, 3.615, 3.566, 3.626, 3.533, 3.536, 3.492, 3.494, 3.578, 3.513, 3.634, 3.644, 3.582, 3.512, 3.484, 3.49, 3.496, 3.525, 3.531, 3.561, 3.524, 3.522, 3.506, 3.532, 3.55, 5.081, 3.571, 3.502, 3.503, 3.597, 3.482, 3.497, 3.511, 4.023, 3.491, 3.577, 3.522, 3.864, 3.691, 3.759, 3.558, 3.993, 3.641, 3.651, 3.774, 3.534, 3.543, 3.616, 3.723, 3.585, 5.138, 3.916, 3.846, 3.754, 3.604, 3.632, 3.496, 3.527, 3.843, 3.521, 3.504, 3.398, 4.174, 4.028, 3.505, 3.399, 5.459, 17.676, 8.129, 3.834, 3.645, 3.611, 3.602, 4.32, 3.709, 3.545, 3.529, 3.565, 3.537, 3.665, 3.947, 3.678, 3.697, 3.571, 3.603, 3.65, 3.556, 3.705, 3.58, 3.755, 3.72, 3.56, 3.604, 3.64, 3.564, 3.689, 3.563, 3.544, 3.529, 3.56, 3.499, 3.535, 3.523, 3.662, 3.61, 5.308, 17.409, 3.643, 3.629, 3.543, 3.538, 3.682, 3.735, 3.533, 3.502, 3.518, 3.549, 3.529, 3.54, 3.533, 3.924, 3.573, 3.826, 3.614, 3.598, 3.787, 3.609, 3.873, 3.779, 3.641, 3.751, 3.636, 3.862, 3.759, 3.633, 3.643, 3.55, 3.651, 3.543, 3.538, 3.55, 3.563, 3.508, 3.551, 3.577, 3.609, 3.623, 3.607, 3.604, 3.566, 3.545, 3.596, 3.578, 3.576, 3.535, 3.715, 3.907, 3.738, 3.648, 3.6, 3.541, 3.521, 3.578, 5.986, 5.335, 3.539, 3.604, 3.895, 3.64, 3.546, 3.699, 3.747, 3.595, 3.543, 3.571, 3.851, 3.831, 3.615, 3.665, 4.396, 3.564, 3.452, 3.596, 3.619, 3.639, 3.609, 3.576, 3.637, 3.599, 3.789, 3.716, 3.677, 3.63, 3.49, 3.573, 3.571, 3.835, 3.698, 3.561, 3.612, 3.568, 3.564, 3.664, 3.699, 3.904, 3.683, 3.491, 3.518, 3.638, 3.838, 3.878, 3.634, 3.471, 4.045, 3.611, 3.515, 3.554, 3.725, 3.454, 3.517, 3.46, 3.577, 3.583, 3.538, 3.508, 3.487, 3.49, 3.498, 3.724, 4.322, 3.573, 3.718, 3.688, 3.472, 3.603, 3.565, 3.576, 3.557, 3.587, 3.597, 3.502, 3.484, 3.536, 3.517, 3.522, 3.498, 3.512, 4.21, 3.491, 3.45, 3.701, 3.449, 3.435, 3.467, 3.593, 3.742, 3.729, 3.795, 3.61, 3.9, 4.266, 3.743, 3.98, 3.504, 4.413, 3.699, 3.751, 3.507, 3.6, 3.54, 3.53, 3.554, 3.553, 3.905, 3.766, 3.729, 3.782, 3.585, 3.56, 3.555, 3.576, 3.565, 3.522, 3.5, 3.515, 3.568, 3.455, 3.459, 3.497, 3.515, 3.609, 3.56, 3.563, 3.527, 3.571, 3.445, 3.437, 3.573, 3.592, 3.588, 3.533, 3.784, 3.731, 3.797, 3.531, 3.821, 3.551, 3.546, 3.575, 3.555, 3.518, 3.99, 3.696, 3.693, 3.531, 5.108, 3.618, 3.444, 3.452, 3.557, 3.478, 3.743, 3.644, 3.733, 3.654, 3.517, 3.499, 3.537, 3.542, 3.527, 3.529, 3.467, 5.52, 17.732, 4.668, 4.909, 4.074, 3.53, 3.533, 3.62, 4.354, 3.585, 3.506, 3.4, 3.571, 3.573, 3.652, 3.641, 3.515, 3.934, 3.545, 3.511, 3.492, 3.635, 3.54, 3.507, 3.688, 3.443, 3.848, 3.711, 3.534, 3.594, 3.448, 3.743, 3.878, 3.718, 3.74, 3.534, 3.519, 3.516, 3.502, 3.516, 3.507, 3.517, 3.558, 3.711, 3.487, 3.415, 3.444, 4.455, 4.426, 3.885, 3.451, 5.885, 19.764, 3.727, 3.512, 3.952, 3.64, 3.477, 3.636, 3.529, 3.493, 3.538, 3.528, 3.539, 3.453, 3.588, 3.544, 3.57, 3.493, 3.468, 3.577, 3.578, 3.504, 3.542, 3.75, 3.81, 3.6, 3.5, 3.49, 3.52, 3.44, 3.459, 3.451, 3.547, 3.612, 3.572, 3.49, 3.503, 3.496, 3.481, 3.505, 3.536, 3.451, 4.029, 4.389, 3.462, 3.716, 5.665, 6.551, 3.543, 3.812, 3.587, 3.612, 3.734, 3.744, 3.698, 3.505, 3.569, 3.473, 3.634, 3.467, 3.648, 3.715, 3.976, 3.554, 3.5, 3.475, 3.694, 3.528, 3.546, 3.673, 3.648, 3.495, 3.488, 3.436, 3.52, 3.612, 3.483, 3.505, 3.523, 3.559, 3.515, 3.516, 3.534, 3.542, 3.77, 3.529, 3.515, 3.554, 4.872, 3.555, 3.481, 3.645, 3.876, 3.901, 3.754, 3.777, 3.876, 3.637, 3.583, 3.558, 3.696, 3.533, 3.55, 3.494, 3.536, 3.704, 3.706, 3.648, 3.564, 3.495, 3.485, 4.334, 3.565, 3.693, 3.535, 3.559, 3.517, 3.649, 3.729, 3.704, 3.786, 3.69, 4.521, 3.478, 3.555, 3.51, 3.883, 3.678, 3.554, 3.464, 3.81, 3.492, 3.461, 3.484, 4.479, 3.753, 3.651, 3.466, 3.558, 3.739, 3.473, 3.995, 3.524, 3.566, 3.516, 3.45, 3.45, 3.452, 3.519, 3.564, 3.495, 3.525, 3.505, 3.552, 3.51, 3.424, 3.836, 3.793, 3.84, 3.693, 3.616, 3.503, 3.456, 3.465, 3.531, 3.494, 3.543, 3.503, 3.516, 3.72, 3.537, 3.501, 3.502],
  "Optimizer iterations": 946,
  "Optimizer params": [0.9981587247780661, 0.5030115329148225, 0.9954860187849174, 0.4988175158701976, 0.5043692248610835, 0.004585395601647356, 0.49922762480151417, 0.4104061618677445],
  "P": 0,
  "Problem": "RH",
  "QJob durations [ms]": [0.14560000272467732, 0.13174999912735075, 0.1314999972237274, 0.13080000280751847, 0.13535000107367523, 0.1296500013268087, 0.12985000284970738, 0.13020000187680125, 0.12790000255336054, 0.13219999891589396, 0.13264999870443717, 0.12849999984609894, 0.13029999900027178, 0.13364999904297292, 0.12805000369553454, 0.1283999990846496, 0.12829999832320027, 0.1268499981961213, 0.1294999965466559, 0.12910000441479497, 0.1286999977310188, 0.1296500013268087, 0.12819999756175093, 0.12865000098827295, 0.12665000031120144, 0.12790000255336054, 0.12959999730810523, 0.1282499979424756, 0.12984999557374977, 0.1280999968003016, 0.12834999870392494, 0.12814999718102627, 0.1262500009033829, 0.12635000166483223, 0.1248500011570286, 0.1282500015804544, 0.12990000323043205, 0.13235000369604677, 0.13564999972004443, 0.13039999976172112, 0.1304500001424458, 0.13799999942420982, 0.1350999991700519, 0.14370000280905515, 0.12865000098827295, 0.131050001073163, 0.13049999688519165, 0.14165000175125897, 0.13760000001639128, 0.12870000136899762, 0.131350003357511, 0.1388000018778257, 0.12885000251117162, 0.13335000039660372, 0.1299499999731779, 0.13750000289292075, 0.13100000069243833, 0.13314999887370504, 0.13179999950807542, 0.1316499983659014, 0.1324500008195173, 0.13094999667373486, 0.13189999663154595, 0.13175000276532955, 0.13389999730861746, 0.13300000136950985, 0.13150000449968502, 0.13209999815444462, 0.13195000428822823, 0.13019999823882245, 0.13070000204606913, 0.13734999811276793, 0.13184999625082128, 0.13145000048098154, 0.1294999965466559, 0.1320000010309741, 0.12884999887319282, 0.1512000017100945, 0.130749998788815, 0.1303000026382506, 0.12815000081900507, 0.12870000136899762, 0.12944999980391003, 0.14999999984866008, 0.13604999912786298, 0.13349999790079892, 0.1299499999731779, 0.13100000069243833, 0.13700000272365287, 0.13189999663154595, 0.13354999828152359, 0.1327500031038653, 0.1293499954044819, 0.12855000386480242, 0.13299999773153104, 0.131200002215337, 0.12925000191899016, 0.12739999874611385, 0.13205000141169876, 0.13055000090389512, 0.12414999582688324, 0.12849999984609894, 0.12939999578520656, 0.1295000038226135, 0.13309999849298038, 0.1626999983272981, 0.1380500034429133, 0.1370999998471234, 0.12990000323043205, 0.12924999828101136, 0.12800000331480987, 0.1344500014965888, 0.13249999756226316, 0.1328999969700817, 0.13034999938099645, 0.13305000175023451, 0.1298000024689827, 0.12889999925391749, 0.12834999506594613, 0.12820000119972974, 0.13329999637790024, 0.12229999992996454, 0.12159999823779799, 0.12265000259503722, 0.13984999532112852, 0.13019999823882245, 0.1310499974351842, 0.1321500021731481, 0.13129999570082873, 0.13125000259606168, 0.13124999895808287, 0.13464999574352987, 0.13295000098878518, 0.13255000158096664, 0.1389500030199997, 0.12939999942318536, 0.13189999663154595, 0.1336999994236976, 0.13039999976172112, 0.12985000284970738, 0.1291999979002867, 0.1280999968003016, 0.1277999981539324, 0.1283999990846496, 0.12844999946537428, 0.1291999979002867, 0.12830000196117908, 0.12745000276481733, 0.1296500013268087, 0.12885000251117162, 0.12775000141118653, 0.1291999979002867, 0.12720000086119398, 0.12849999984609894, 0.13424999997369014, 0.1354000014543999, 0.13160000162315555, 0.1324500008195173, 0.13620000027003698, 0.13704999946639873, 0.1368000012007542, 0.13444999785861, 0.13184999988880008, 0.13500000204658136, 0.1294999965466559, 0.13034999574301764, 0.1278000017919112, 0.13124999895808287, 0.1307500024267938, 0.12939999942318536, 0.12894999963464215, 0.1279499956581276, 0.1282500015804544, 0.12859999696956947, 0.1290500040340703, 0.1302499986195471, 0.12930000229971483, 0.12970000170753337, 0.1354000014543999, 0.13369999578571878, 0.13885000225855038, 0.13114999819663353, 0.12989999959245324, 0.13109999781590886, 0.20039999071741477, 0.13079999916953966, 0.13190000026952475, 0.13005000073462725, 0.17484999989392236, 0.13409999883151613, 0.13180000314605422, 0.13110000145388767, 0.13354999828152359, 0.13354999828152359, 0.12784999853465706, 0.12830000196117908, 0.1303000026382506, 0.1299499963351991, 0.13070000204606913, 0.13015000149607658, 0.13330000365385786, 0.13240000043879263, 0.13324999963515438, 0.13100000069243833, 0.2486000012140721, 0.13250000120024197, 0.13165000200388022, 0.12999999671592377, 0.18394999642623588, 0.13224999929661863, 0.1343000003544148, 0.1330499981122557, 0.33424999128328636, 0.14149999697110616, 0.2011500037042424, 0.1351000028080307, 0.12995000361115672, 0.1311999985773582, 0.11650000305962749, 0.13475000378093682, 0.1350999991700519, 0.18494999676477164, 0.13029999536229298, 0.13374999980442226, 0.13019999823882245, 0.2735500020207837, 0.1343000039923936, 0.13174999912735075, 0.18420000196783803, 0.13040000339969993, 0.1307500024267938, 0.13025000225752592, 0.24075000692391768, 0.16599999798927456, 0.13264999870443717, 0.12989999595447443, 0.18595000801724382, 0.1298000024689827, 0.14814999667578377, 0.12724999760393985, 0.24640000265208073, 0.1314999972237274, 0.1292000015382655, 0.12910000077681616, 0.12909999713883735, 0.13039999976172112, 0.13235000005806796, 0.131050001073163, 0.12024999887216836, 0.1449999981559813, 0.1333499967586249, 0.12914999751956202, 0.1315500048804097, 0.13240000043879263, 0.1307500024267938, 0.13484999726642855, 0.12169999899924733, 0.13219999891589396, 0.12815000081900507, 0.18569999883766286, 0.12844999946537428, 0.1292000015382655, 0.12859999696956947, 0.1290500003960915, 0.324200009345077, 0.2205500059062615, 0.2020499960053712, 0.1428500036126934, 0.13114999819663353, 0.13284999658935703, 0.13294999735080637, 0.1308999962930102, 0.1320000010309741, 0.13130000297678635, 0.13155000124243088, 0.13070000204606913, 0.12924999828101136, 0.12834999870392494, 0.13109999781590886, 0.13760000001639128, 0.1274999995075632, 0.1289000028918963, 0.13204999777371995, 0.13529999705497175, 0.13799999942420982, 0.1735500045469962, 0.13335000039660372, 0.256800001807278, 0.1323000033153221, 0.13069999840809032, 0.13380000382312573, 0.13380000382312573, 0.14464999912888743, 0.13140000010025688, 0.13195000065024942, 0.13770000077784061, 0.1295000001846347, 0.13010000111535192, 0.13165000200388022, 0.15070000517880544, 0.13080000280751847, 0.13110000145388767, 0.1297999988310039, 0.12954999692738056, 0.12884999887319282, 0.1295000001846347, 0.1282499979424756, 0.13360000230022706, 0.13039999976172112, 0.13154999760445207, 0.13235000005806796, 0.13020000187680125, 0.1327500031038653, 0.13110000145388767, 0.13219999891589396, 0.13424999633571133, 0.13159999798517674, 0.13084999955026433, 0.13139999646227807, 0.1338500005658716, 0.14245000056689605, 0.13450000187731348, 0.13464999574352987, 0.13140000010025688, 0.13624999701278284, 0.13085000318824314, 0.131050001073163, 0.13025000225752592, 0.13115000183461234, 0.14375000318977982, 0.13064999802736565, 0.1290500040340703, 0.12850000348407775, 0.14150000060908496, 0.13254999794298783, 0.13520000356948003, 0.13839999883202836, 0.13654999565915205, 0.1379000023007393, 0.13035000301897526, 0.12879999485448934, 0.13350000153877772, 0.13610000314656645, 0.13620000027003698, 0.13435000073513947, 0.12910000441479497, 0.131050001073163, 0.13055000090389512, 0.13050000052317046, 0.1306000012846198, 0.130749998788815, 0.13039999976172112, 0.1302499986195471, 0.13029999900027178, 0.12889999925391749, 0.15874999735387973, 0.13000000035390258, 0.13310000213095918, 0.13070000204606913, 0.1304500001424458, 0.12999999671592377, 0.13000000399188139, 0.13054999726591632, 0.14060000103199854, 0.13034999938099645, 0.12970000170753337, 0.13029999900027178, 0.13390000458457507, 0.13080000280751847, 0.13080000280751847, 0.12989999595447443, 0.1293499990424607, 0.13029999900027178, 0.1327499958279077, 0.12960000094608404, 0.13154999760445207, 0.1389500030199997, 0.1304500001424458, 0.13010000111535192, 0.1334000007773284, 0.13364999904297292, 0.12929999866173603, 0.12984999921172857, 0.12960000094608404, 0.13109999781590886, 0.14009999722475186, 0.13065000166534446, 0.13160000162315555, 0.13720000424655154, 0.13785000192001462, 0.14125000234344043, 0.13224999929661863, 0.12785000217263587, 0.13220000255387276, 0.12805000005755574, 0.1283999990846496, 0.1270500033569988, 0.12739999874611385, 0.130899999930989, 0.1283999990846496, 0.1282500015804544, 0.13160000162315555, 0.1293499990424607, 0.13005000437260605, 0.12989999959245324, 0.1297999951930251, 0.13004999709664844, 0.12975000208825804, 0.1278000017919112, 0.12789999891538173, 0.12844999946537428, 0.1279499992961064, 0.12835000234190375, 0.1287500017497223, 0.1299499999731779, 0.20429999858606607, 0.13184999988880008, 0.13039999976172112, 0.1307500024267938, 0.1339999980700668, 0.12984999921172857, 0.12984999921172857, 0.13015000149607658, 0.13094999667373486, 0.1297999988310039, 0.13269999544718303, 0.1302499986195471, 0.1448500006517861, 0.13160000162315555, 0.13490000128513202, 0.13169999874662608, 0.1400500041199848, 0.13335000039660372, 0.12955000056535937, 0.13545000183512457, 0.1302499986195471, 0.13029999900027178, 0.13130000297678635, 0.13249999756226316, 0.1320000010309741, 0.20865000260528177, 0.1375499996356666, 0.1384999995934777, 0.13475000014295802, 0.134149995574262, 0.13114999819663353, 0.12874999811174348, 0.12865000462625176, 0.1448499970138073, 0.1314999972237274, 0.13115000183461234, 0.131050001073163, 0.13324999963515438, 0.1324499971815385, 0.13235000005806796, 0.12340000102994964, 0.24259999918285757, 0.10969999857479706, 0.265800001216121, 0.11730000187526457, 0.13189999663154595, 0.13354999828152359, 0.13285000022733584, 0.13240000043879263, 0.13439999747788534, 0.1323000033153221, 0.13140000010025688, 0.13264999870443717, 0.1316499983659014, 0.13129999570082873, 0.1369500023429282, 0.13184999988880008, 0.13054999726591632, 0.12960000094608404, 0.13210000179242343, 0.13309999849298038, 0.13269999544718303, 0.13209999815444462, 0.1297999988310039, 0.131350003357511, 0.1337000030616764, 0.12865000098827295, 0.13180000314605422, 0.13169999874662608, 0.13240000043879263, 0.13514999955077656, 0.13095000031171367, 0.13174999912735075, 0.1314999972237274, 0.13269999908516183, 0.13179999950807542, 0.13184999625082128, 0.13070000204606913, 0.13595000200439245, 0.1310499974351842, 0.13914999726694077, 0.13100000069243833, 0.1327500031038653, 0.13069999840809032, 0.12939999942318536, 0.12885000251117162, 0.13464999938150868, 0.13549999857787043, 0.1308999962930102, 0.13050000052317046, 0.1304500001424458, 0.13180000314605422, 0.1307500024267938, 0.13010000111535192, 0.13154999760445207, 0.13774999752058648, 0.13240000043879263, 0.13550000221584924, 0.13124999895808287, 0.13035000301897526, 0.13905000014347024, 0.13145000048098154, 0.13219999527791515, 0.13354999828152359, 0.1341500028502196, 0.14060000103199854, 0.1293499990424607, 0.14060000103199854, 0.13624999701278284, 0.13084999955026433, 0.13239999680081382, 0.1321500021731481, 0.1364499948977027, 0.13240000043879263, 0.13144999684300274, 0.13174999912735075, 0.13115000183461234, 0.12990000323043205, 0.13204999777371995, 0.13269999908516183, 0.13225000293459743, 0.13254999794298783, 0.13034999938099645, 0.1295000038226135, 0.12899999637738802, 0.13094999667373486, 0.1296500013268087, 0.12895000327262096, 0.13005000073462725, 0.12804999641957693, 0.1389500030199997, 0.14364999879035167, 0.13625000065076165, 0.1349500016658567, 0.13269999908516183, 0.12930000229971483, 0.12900000365334563, 0.13154999760445207, 0.2613000033306889, 0.12410000272211619, 0.13050000052317046, 0.1338500005658716, 0.13799999942420982, 0.13174999548937194, 0.13044999650446698, 0.1326000019616913, 0.13234999642008916, 0.13305000175023451, 0.13025000225752592, 0.13210000179242343, 0.145650003105402, 0.13765000039711595, 0.1282500015804544, 0.13095000031171367, 0.13195000065024942, 0.13145000048098154, 0.13140000373823568, 0.13084999955026433, 0.1339999980700668, 0.13345000115805306, 0.1324500008195173, 0.1328999969700817, 0.13530000069295056, 0.13040000339969993, 0.13390000094659626, 0.1314999972237274, 0.12955000056535937, 0.13085000318824314, 0.12969999806955457, 0.12969999806955457, 0.1306000012846198, 0.13915000090491958, 0.13285000386531465, 0.13084999955026433, 0.13034999574301764, 0.13070000204606913, 0.12939999578520656, 0.1310499974351842, 0.13280000348458998, 0.13514999591279775, 0.13254999794298783, 0.12884999887319282, 0.13240000407677144, 0.13780000153928995, 0.14209999790182337, 0.14369999553309754, 0.13100000069243833, 0.12945000344188884, 0.14074999853619374, 0.12929999866173603, 0.12834999870392494, 0.1311999985773582, 0.13984999895910732, 0.12874999811174348, 0.12910000077681616, 0.12720000086119398, 0.1311999985773582, 0.130749998788815, 0.13129999570082873, 0.12900000001536682, 0.12900000365334563, 0.1292000015382655, 0.12944999980391003, 0.13485000090440735, 0.16249999680439942, 0.12944999980391003, 0.13524999667424709, 0.1339999980700668, 0.12989999959245324, 0.13299999773153104, 0.1299499963351991, 0.1290500003960915, 0.12725000124191865, 0.12865000098827295, 0.13110000145388767, 0.1293500026804395, 0.13035000301897526, 0.130749998788815, 0.13014999785809778, 0.13174999548937194, 0.130599997646641, 0.12925000191899016, 0.16325000251526944, 0.13010000111535192, 0.12789999891538173, 0.12900000365334563, 0.1274999995075632, 0.12680000145337544, 0.12730000162264332, 0.12885000251117162, 0.13300000500748865, 0.13505000242730603, 0.13519999993150122, 0.13114999819663353, 0.13674999718205072, 0.1373999984934926, 0.13779999790131114, 0.14245000056689605, 0.12955000056535937, 0.17280000247410499, 0.13010000475333072, 0.13424999633571133, 0.12835000234190375, 0.13205000141169876, 0.1289000028918963, 0.12844999946537428, 0.1287500017497223, 0.1297999988310039, 0.13745000251219608, 0.13315000251168385, 0.13240000043879263, 0.1330499981122557, 0.12955000420333818, 0.1292000015382655, 0.1296499976888299, 0.12915000115754083, 0.12945000344188884, 0.12834999870392494, 0.1278000017919112, 0.1293500026804395, 0.1322999996773433, 0.1292000015382655, 0.1292000015382655, 0.12939999578520656, 0.1264000020455569, 0.13190000390750356, 0.1289000028918963, 0.12849999984609894, 0.12829999832320027, 0.13015000149607658, 0.1258000011148397, 0.12710000373772345, 0.13079999916953966, 0.12619999688467942, 0.13145000411896035, 0.1283999990846496, 0.134299996716436, 0.13209999815444462, 0.13759999637841247, 0.1285500002268236, 0.13295000098878518, 0.12940000306116417, 0.12960000094608404, 0.12954999692738056, 0.12975000208825804, 0.12744999912683852, 0.14680000094813295, 0.13424999997369014, 0.13410000246949494, 0.13069999840809032, 0.2005499991355464, 0.1298000024689827, 0.12704999971901998, 0.12619999688467942, 0.13209999815444462, 0.1274999995075632, 0.13390000094659626, 0.13095000394969247, 0.1350999991700519, 0.13589999798568897, 0.130599997646641, 0.13019999823882245, 0.13080000280751847, 0.12990000323043205, 0.1293500026804395, 0.12805000369553454, 0.12674999743467197, 0.23609999334439635, 0.23075000353856012, 0.17010000374284573, 0.16989999858196825, 0.14730000111740083, 0.13004999709664844, 0.13084999591228552, 0.13065000166534446, 0.16390000382671133, 0.13025000225752592, 0.12724999760393985, 0.11939999967580661, 0.12974999845027924, 0.12670000432990491, 0.13389999730861746, 0.13079999916953966, 0.1282500015804544, 0.13964999743620865, 0.12850000348407775, 0.1269999993382953, 0.12704999971901998, 0.1315000008617062, 0.12760000390699133, 0.12829999832320027, 0.12734999836538918, 0.1269999993382953, 0.13589999798568897, 0.13410000246949494, 0.13000000035390258, 0.12849999984609894, 0.1279500029340852, 0.13440000111586414, 0.136500002554385, 0.1353999978164211, 0.1361499998893123, 0.12715000411844812, 0.12759999663103372, 0.1274499954888597, 0.1266999970539473, 0.12759999663103372, 0.1268500018341001, 0.1267000006919261, 0.12834999870392494, 0.13475000378093682, 0.12954999692738056, 0.12549999883049168, 0.12599999899975955, 0.12675000107265078, 0.1256500036106445, 0.12690000221482478, 0.12620000416063704, 0.24584999482613057, 0.14000000010128133, 0.13314999887370504, 0.1286999977310188, 0.13980000221636146, 0.13039999976172112, 0.12754999988828786, 0.13299999773153104, 0.12974999481230043, 0.12939999578520656, 0.12894999963464215, 0.12865000098827295, 0.13350000517675653, 0.13005000073462725, 0.13010000111535192, 0.1292000015382655, 0.13065000166534446, 0.12775000504916534, 0.1279499992961064, 0.12870000136899762, 0.12859999696956947, 0.12844999946537428, 0.13004999709664844, 0.13204999777371995, 0.13765000039711595, 0.13140000010025688, 0.1289000028918963, 0.12864999735029414, 0.12865000098827295, 0.12775000141118653, 0.1277999981539324, 0.1276499970117584, 0.12805000005755574, 0.12989999959245324, 0.12960000094608404, 0.1281000004382804, 0.12800000331480987, 0.12915000115754083, 0.12860000060754828, 0.12860000060754828, 0.1304500001424458, 0.1263999984075781, 0.13034999574301764, 0.12910000077681616, 0.12969999806955457, 0.13514999955077656, 0.23950000468175858, 0.13224999929661863, 0.12984999921172857, 0.14054999701329507, 0.131350003357511, 0.1320000010309741, 0.1361499962513335, 0.13729999773204327, 0.1366500000585802, 0.12865000098827295, 0.13115000183461234, 0.13000000399188139, 0.13885000225855038, 0.12865000098827295, 0.12730000162264332, 0.13055000090389512, 0.145500001963228, 0.13000000035390258, 0.12844999946537428, 0.1285500002268236, 0.13884999862057157, 0.1293499990424607, 0.12879999849246815, 0.13014999785809778, 0.13254999794298783, 0.12955000056535937, 0.13029999900027178, 0.1299499999731779, 0.1303000026382506, 0.13219999527791515, 0.12799999603885226, 0.12804999641957693, 0.12849999984609894, 0.1296499976888299, 0.12909999713883735, 0.1285500002268236, 0.12860000060754828, 0.12815000081900507, 0.14009999722475186, 0.12860000060754828, 0.12820000119972974, 0.1290500003960915, 0.18495000404072925, 0.1298000024689827, 0.1282500015804544, 0.13000000399188139, 0.1391000005241949, 0.14074999853619374, 0.13535000107367523, 0.134599999000784, 0.1366500000585802, 0.13220000255387276, 0.1318500035267789, 0.1296499976888299, 0.13545000183512457, 0.1290500003960915, 0.12860000060754828, 0.12845000310335308, 0.13115000183461234, 0.1351000028080307, 0.13464999938150868, 0.13419999595498666, 0.1300999974773731, 0.12734999836538918, 0.1274499954888597, 0.12960000094608404, 0.12879999485448934, 0.1367999975627754, 0.1282499979424756, 0.12894999963464215, 0.12819999756175093, 0.12775000141118653, 0.1285499965888448, 0.1323000033153221, 0.13770000077784061, 0.1327500031038653, 0.1760500017553568, 0.1266999970539473, 0.13010000111535192, 0.1282500015804544, 0.1297999951930251, 0.13264999870443717, 0.13034999938099645, 0.1297999951930251, 0.1367999975627754, 0.12789999891538173, 0.1265499995497521, 0.12759999663103372, 0.17425000260118395, 0.13490000128513202, 0.13199999739299528, 0.12754999988828786, 0.12889999561593868, 0.1321500021731481, 0.12770000103046186, 0.13859999671694823, 0.12865000098827295, 0.13194999701227061, 0.13050000052317046, 0.1279500029340852, 0.1262499972654041, 0.12695000259554945, 0.13000000035390258, 0.12930000229971483, 0.12955000056535937, 0.12940000306116417, 0.13085000318824314, 0.12910000077681616, 0.1296499976888299, 0.12799999967683107, 0.12844999946537428, 0.13475000378093682, 0.13915000090491958, 0.13564999972004443, 0.13300000136950985, 0.1285499965888448, 0.12814999718102627, 0.12675000107265078, 0.12910000077681616, 0.12915000115754083, 0.12909999713883735, 0.1278000017919112, 0.1278000017919112, 0.1386500007356517, 0.12909999713883735, 0.12800000331480987, 0.12784999853465706],
  "QPU": "7000000",
  "Qubits": 8,
  "Queue durations [ms]": [0.0, 0.0, 0.0, 0.0, 0.0, 0.0, 0.0, 0.0, 0.0, 0.0, 0.0, 0.0, 0.0, 0.0, 0.0, 0.0, 0.0, 0.0, 0.0, 0.0, 0.0, 0.0, 0.0, 0.0, 0.0, 0.0, 0.0, 0.0, 0.0, 0.0, 0.0, 0.0, 0.0, 0.0, 0.0, 0.0, 0.0, 0.0, 0.0, 0.0, 0.0, 0.0, 0.0, 0.0, 0.0, 0.0, 0.0, 0.0, 0.0, 0.0, 0.0, 0.0, 0.0, 0.0, 0.0, 0.0, 0.0, 0.0, 0.0, 0.0, 0.0, 0.0, 0.0, 0.0, 0.0, 0.0, 0.0, 0.0, 0.0, 0.0, 0.0, 0.0, 0.0, 0.0, 0.0, 0.0, 0.0, 0.0, 0.0, 0.0, 0.0, 0.0, 0.0, 0.0, 0.0, 0.0, 0.0, 0.0, 0.0, 0.0, 0.0, 0.0, 0.0, 0.0, 0.0, 0.0, 0.0, 0.0, 0.0, 0.0, 0.0, 0.0, 0.0, 0.0, 0.0, 0.0, 0.0, 0.0, 0.0, 0.0, 0.0, 0.0, 0.0, 0.0, 0.0, 0.0, 0.0, 0.0, 0.0, 0.0, 0.0, 0.0, 0.0, 0.0, 0.0, 0.0, 0.0, 0.0, 0.0, 0.0, 0.0, 0.0, 0.0, 0.0, 0.0, 0.0, 0.0, 0.0, 0.0, 0.0, 0.0, 0.0, 0.0, 0.0, 0.0, 0.0, 0.0, 0.0, 0.0, 0.0, 0.0, 0.0, 0.0, 0.0, 0.0, 0.0, 0.0, 0.0, 0.0, 0.0, 0.0, 0.0, 0.0, 0.0, 0.0, 0.0, 0.0, 0.0, 0.0, 0.0, 0.0, 0.0, 0.0, 0.0, 0.0, 0.0, 0.0, 0.0, 0.0, 0.0, 0.0, 0.0, 0.0, 0.0, 0.0, 0.0, 0.0, 0.0, 0.0, 0.0, 0.0, 0.0, 0.0, 0.0, 0.0, 0.0, 0.0, 0.0, 0.0, 0.0, 0.0, 0.0, 0.0, 0.0, 0.0, 0.0, 0.0, 0.0, 0.0, 0.0, 0.0, 0.0, 0.0, 0.0, 0.0, 0.0, 0.0, 0.0, 0.0, 0.0, 0.0, 0.0, 0.0, 0.0, 0.0, 0.0, 0.0, 0.0, 0.0, 0.0, 0.0, 0.0, 0.0, 0.0, 0.0, 0.0, 0.0, 0.0, 0.0, 0.0, 0.0, 0.0, 0.0, 0.0, 0.0, 0.0, 0.0, 0.0, 0.0, 0.0, 0.0, 0.0, 0.0, 0.0, 0.0, 0.0, 0.0, 0.0, 0.0, 0.0, 0.0, 0.0, 0.0, 0.0, 0.0, 0.0, 0.0, 0.0, 0.0, 0.0, 0.0, 0.0, 0.0, 0.0, 0.0, 0.0, 0.0, 0.0, 0.0, 0.0, 0.0, 0.0, 0.0, 0.0, 0.0, 0.0, 0.0, 0.0, 0.0, 0.0, 0.0, 0.0, 0.0, 0.0, 0.0, 0.0, 0.0, 0.0, 0.0, 0.0, 0.0, 0.0, 0.0, 0.0, 0.0, 0.0, 0.0, 0.0, 0.0, 0.0, 0.0, 0.0, 0.0, 0.0, 0.0, 0.0, 0.0, 0.0, 0.0, 0.0, 0.0, 0.0, 0.0, 0.0, 0.0, 0.0, 0.0, 0.0, 0.0, 0.0, 0.0, 0.0, 0.0, 0.0, 0.0, 0.0, 0.0, 0.0, 0.0, 0.0, 0.0, 0.0, 0.0, 0.0, 0.0, 0.0, 0.0, 0.0, 0.0, 0.0, 0.0, 0.0, 0.0, 0.0, 0.0, 0.0, 0.0, 0.0, 0.0, 0.0, 0.0, 0.0, 0.0, 0.0, 0.0, 0.0, 0.0, 0.0, 0.0, 0.0, 0.0, 0.0, 0.0, 0.0, 0.0, 0.0, 0.0, 0.0, 0.0, 0.0, 0.0, 0.0, 0.0, 0.0, 0.0, 0.0, 0.0, 0.0, 0.0, 0.0, 0.0, 0.0, 0.0, 0.0, 0.0, 0.0, 0.0, 0.0, 0.0, 0.0, 0.0, 0.0, 0.0, 0.0, 0.0, 0.0, 0.0, 0.0, 0.0, 0.0, 0.0, 0.0, 0.0, 0.0, 0.0, 0.0, 0.0, 0.0, 0.0, 0.0, 0.0, 0.0, 0.0, 0.0, 0.0, 0.0, 0.0, 0.0, 0.0, 0.0, 0.0, 0.0, 0.0, 0.0, 0.0, 0.0, 0.0, 0.0, 0.0, 0.0, 0.0, 0.0, 0.0, 0.0, 0.0, 0.0, 0.0, 0.0, 0.0, 0.0, 0.0, 0.0, 0.0, 0.0, 0.0, 0.0, 0.0, 0.0, 0.0, 0.0, 0.0, 0.0, 0.0, 0.0, 0.0, 0.0, 0.0, 0.0, 0.0, 0.0, 0.0, 0.0, 0.0, 0.0, 0.0, 0.0, 0.0, 0.0, 0.0, 0.0, 0.0, 0.0, 0.0, 0.0, 0.0, 0.0, 0.0, 0.0, 0.0, 0.0, 0.0, 0.0, 0.0, 0.0, 0.0, 0.0, 0.0, 0.0, 0.0, 0.0, 0.0, 0.0, 0.0, 0.0, 0.0, 0.0, 0.0, 0.0, 0.0, 0.0, 0.0, 0.0, 0.0, 0.0, 0.0, 0.0, 0.0, 0.0, 0.0, 0.0, 0.0, 0.0, 0.0, 0.0, 0.0, 0.0, 0.0, 0.0, 0.0, 0.0, 0.0, 0.0, 0.0, 0.0, 0.0, 0.0, 0.0, 0.0, 0.0, 0.0, 0.0, 0.0, 0.0, 0.0, 0.0, 0.0, 0.0, 0.0, 0.0, 0.0, 0.0, 0.0, 0.0, 0.0, 0.0, 0.0, 0.0, 0.0, 0.0, 0.0, 0.0, 0.0, 0.0, 0.0, 0.0, 0.0, 0.0, 0.0, 0.0, 0.0, 0.0, 0.0, 0.0, 0.0, 0.0, 0.0, 0.0, 0.0, 0.0, 0.0, 0.0, 0.0, 0.0, 0.0, 0.0, 0.0, 0.0, 0.0, 0.0, 0.0, 0.0, 0.0, 0.0, 0.0, 0.0, 0.0, 0.0, 0.0, 0.0, 0.0, 0.0, 0.0, 0.0, 0.0, 0.0, 0.0, 0.0, 0.0, 0.0, 0.0, 0.0, 0.0, 0.0, 0.0, 0.0, 0.0, 0.0, 0.0, 0.0, 0.0, 0.0, 0.0, 0.0, 0.0, 0.0, 0.0, 0.0, 0.0, 0.0, 0.0, 0.0, 0.0, 0.0, 0.0, 0.0, 0.0, 0.0, 0.0, 0.0, 0.0, 0.0, 0.0, 0.0, 0.0, 0.0, 0.0, 0.0, 0.0, 0.0, 0.0, 0.0, 0.0, 0.0, 0.0, 0.0, 0.0, 0.0, 0.0, 0.0, 0.0, 0.0, 0.0, 0.0, 0.0, 0.0, 0.0, 0.0, 0.0, 0.0, 0.0, 0.0, 0.0, 0.0, 0.0, 0.0, 0.0, 0.0, 0.0, 0.0, 0.0, 0.0, 0.0, 0.0, 0.0, 0.0, 0.0, 0.0, 0.0, 0.0, 0.0, 0.0, 0.0, 0.0, 0.0, 0.0, 0.0, 0.0, 0.0, 0.0, 0.0, 0.0, 0.0, 0.0, 0.0, 0.0, 0.0, 0.0, 0.0, 0.0, 0.0, 0.0, 0.0, 0.0, 0.0, 0.0, 0.0, 0.0, 0.0, 0.0, 0.0, 0.0, 0.0, 0.0, 0.0, 0.0, 0.0, 0.0, 0.0, 0.0, 0.0, 0.0, 0.0, 0.0, 0.0, 0.0, 0.0, 0.0, 0.0, 0.0, 0.0, 0.0, 0.0, 0.0, 0.0, 0.0, 0.0, 0.0, 0.0, 0.0, 0.0, 0.0, 0.0, 0.0, 0.0, 0.0, 0.0, 0.0, 0.0, 0.0, 0.0, 0.0, 0.0, 0.0, 0.0, 0.0, 0.0, 0.0, 0.0, 0.0, 0.0, 0.0, 0.0, 0.0, 0.0, 0.0, 0.0, 0.0, 0.0, 0.0, 0.0, 0.0, 0.0, 0.0, 0.0, 0.0, 0.0, 0.0, 0.0, 0.0, 0.0, 0.0, 0.0, 0.0, 0.0, 0.0, 0.0, 0.0, 0.0, 0.0, 0.0, 0.0, 0.0, 0.0, 0.0, 0.0, 0.0, 0.0, 0.0, 0.0, 0.0, 0.0, 0.0, 0.0, 0.0, 0.0, 0.0, 0.0, 0.0, 0.0, 0.0, 0.0, 0.0, 0.0, 0.0, 0.0, 0.0, 0.0, 0.0, 0.0, 0.0, 0.0, 0.0, 0.0, 0.0, 0.0, 0.0, 0.0, 0.0, 0.0, 0.0, 0.0, 0.0, 0.0, 0.0, 0.0, 0.0, 0.0, 0.0, 0.0, 0.0, 0.0, 0.0, 0.0, 0.0, 0.0, 0.0, 0.0, 0.0, 0.0, 0.0, 0.0, 0.0, 0.0, 0.0, 0.0, 0.0, 0.0, 0.0, 0.0, 0.0, 0.0, 0.0, 0.0, 0.0, 0.0, 0.0, 0.0, 0.0, 0.0, 0.0, 0.0, 0.0, 0.0, 0.0, 0.0, 0.0, 0.0, 0.0, 0.0, 0.0, 0.0, 0.0, 0.0, 0.0, 0.0, 0.0, 0.0, 0.0, 0.0, 0.0, 0.0, 0.0, 0.0, 0.0, 0.0, 0.0, 0.0, 0.0, 0.0, 0.0, 0.0, 0.0, 0.0, 0.0, 0.0, 0.0, 0.0, 0.0, 0.0, 0.0, 0.0, 0.0, 0.0, 0.0, 0.0, 0.0, 0.0, 0.0, 0.0, 0.0, 0.0, 0.0, 0.0, 0.0, 0.0, 0.0, 0.0, 0.0, 0.0, 0.0, 0.0, 0.0, 0.0, 0.0, 0.0, 0.0],
  "Shots": 4096,
  "Size": 8,
  "Total Algorithm duration [s]": 3.613,
  "Total Classic duration [s]": 3.4855635499686177,
  "Total Quantum duration [s]": 0.12743645003138226
}
