{
  "Circuit execution durations [ms]": [0.13509999553207308, 0.1321500021731481, 0.1475000026402995, 0.15559999883407727, 0.13439999747788534, 0.13114999819663353, 0.12999999671592377, 0.1638999965507537, 0.13169999874662608, 0.13159999798517674, 0.12975000208825804, 0.13380000018514693, 0.1349500016658567, 0.1329000006080605, 0.1418999963789247, 0.13219999891589396, 0.13270000272314064, 0.13500000204658136, 0.13079999916953966, 0.13050000052317046, 0.13299999773153104, 0.1313499960815534, 0.1304500001424458, 0.13504999878932722, 0.13464999938150868, 0.13055000090389512, 0.13285000386531465, 0.13080000280751847, 0.1294999965466559, 0.12985000284970738, 0.12945000344188884, 0.12925000191899016, 0.1278000017919112, 0.13025000225752592, 0.1298000024689827, 0.13054999726591632, 0.13254999794298783, 0.1322999996773433, 0.13240000407677144, 0.13700000272365287, 0.13700000272365287, 0.13764999675913714, 0.16725000023143366, 0.13050000052317046, 0.13785000192001462, 0.13094999667373486, 0.1298000024689827, 0.12815000081900507, 0.13095000031171367, 0.1287500017497223, 0.1331999992544297, 0.12865000098827295, 0.1268500018341001, 0.12770000466844067, 0.1279499992961064, 0.1276499970117584, 0.12729999798466451, 0.12599999899975955, 0.1277999981539324, 0.1285500002268236, 0.12865000098827295, 0.14030000238562934, 0.13020000187680125, 0.13129999570082873, 0.13490000128513202, 0.13019999823882245, 0.12829999832320027, 0.13019999823882245, 0.1325999983237125, 0.13195000065024942, 0.13115000183461234, 0.12589999823831022, 0.12589999823831022, 0.12694999531959184, 0.12629999764612876, 0.12660000356845558, 0.13224999565863982, 0.1266999970539473, 0.1335500019195024, 0.1327499958279077, 0.12665000031120144, 0.12665000031120144, 0.1265499995497521, 0.12885000251117162, 0.12955000056535937, 0.13049999688519165, 0.1282499979424756, 0.130599997646641, 0.1353999978164211, 0.1350999991700519, 0.13064999802736565, 0.1299499999731779, 0.1321500021731481, 0.13530000069295056, 0.1368000012007542, 0.13359999866224825, 0.12754999625030905, 0.12745000276481733, 0.12740000238409266, 0.12629999764612876, 0.1295000001846347, 0.1353999978164211, 0.12939999942318536, 0.1330499981122557, 0.12805000005755574, 0.13079999916953966, 0.12989999959245324, 0.14199999714037403, 0.14740000187885016, 0.13050000052317046, 0.12974999845027924, 0.13810000018565916, 0.13620000027003698, 0.13475000014295802, 0.13020000187680125, 0.13480000052368268, 0.12955000420333818, 0.1296500013268087, 0.1314999972237274, 0.13670000043930486, 0.1286999977310188, 0.12815000081900507, 0.1299499963351991, 0.12955000056535937, 0.1353999978164211, 0.1269999993382953, 0.12775000141118653, 0.12519999654614367, 0.14280000323196873, 0.12815000081900507, 0.1281000040762592, 0.12784999853465706, 0.12909999713883735, 0.12790000255336054, 0.12665000031120144, 0.12894999599666335, 0.14404999819817021, 0.13110000145388767, 0.1328999969700817, 0.12930000229971483, 0.12969999806955457, 0.12924999828101136, 0.12889999925391749, 0.12910000077681616, 0.12819999756175093, 0.12814999718102627],
  "Depth": 2.0,
  "Expectation Value": -3.669300079345703,
  "Optimal Expectation Value": -4.610499858856201,
  "Optimizer durations [ms]": [3.794, 3.524, 3.858, 4.03, 3.701, 3.565, 3.618, 4.259, 3.553, 3.628, 3.551, 3.694, 3.598, 3.624, 3.858, 3.574, 3.64, 3.627, 3.497, 3.53, 3.718, 3.561, 3.538, 3.678, 3.606, 3.527, 3.576, 3.477, 3.484, 3.466, 3.523, 3.563, 3.514, 3.583, 3.458, 3.521, 3.574, 3.537, 3.566, 3.701, 3.68, 3.677, 4.249, 3.525, 4.023, 3.502, 3.421, 3.44, 3.508, 3.458, 3.666, 3.533, 3.484, 3.494, 3.483, 3.504, 3.479, 3.497, 3.508, 3.401, 3.406, 3.753, 3.528, 3.546, 3.947, 3.534, 3.497, 3.647, 3.68, 3.609, 3.582, 3.439, 4.01, 3.414, 3.448, 3.477, 3.55, 3.441, 3.698, 3.677, 3.422, 3.436, 3.436, 3.505, 3.45, 3.503, 3.474, 3.616, 3.785, 3.752, 3.641, 3.554, 3.624, 3.698, 3.723, 3.599, 3.482, 3.484, 3.562, 3.393, 3.639, 3.722, 3.503, 3.623, 3.504, 3.535, 3.529, 3.828, 4.091, 3.557, 3.539, 3.894, 3.726, 3.712, 3.459, 3.552, 3.408, 3.429, 3.6, 3.866, 3.531, 3.531, 3.532, 3.474, 3.593, 3.436, 3.452, 3.398, 4.064, 3.539, 3.509, 3.488, 3.665, 3.5, 3.528, 3.461, 3.885, 3.445, 3.523, 3.407, 3.464, 3.41, 3.443, 3.537, 3.498, 3.473],
  "Optimizer iterations": 146,
  "Optimizer params": [0.9952215339698753, 0.49777839418946, 1.0, 0.5045447528451665, 0.9983365333454044, 0.9974965075199484, 0.5044829222326244, 0.5026764295726249],
  "P": 0,
  "Problem": "RH",
  "QJob durations [ms]": [0.13509999553207308, 0.1321500021731481, 0.1475000026402995, 0.15559999883407727, 0.13439999747788534, 0.13114999819663353, 0.12999999671592377, 0.1638999965507537, 0.13169999874662608, 0.13159999798517674, 0.12975000208825804, 0.13380000018514693, 0.1349500016658567, 0.1329000006080605, 0.1418999963789247, 0.13219999891589396, 0.13270000272314064, 0.13500000204658136, 0.13079999916953966, 0.13050000052317046, 0.13299999773153104, 0.1313499960815534, 0.1304500001424458, 0.13504999878932722, 0.13464999938150868, 0.13055000090389512, 0.13285000386531465, 0.13080000280751847, 0.1294999965466559, 0.12985000284970738, 0.12945000344188884, 0.12925000191899016, 0.1278000017919112, 0.13025000225752592, 0.1298000024689827, 0.13054999726591632, 0.13254999794298783, 0.1322999996773433, 0.13240000407677144, 0.13700000272365287, 0.13700000272365287, 0.13764999675913714, 0.16725000023143366, 0.13050000052317046, 0.13785000192001462, 0.13094999667373486, 0.1298000024689827, 0.12815000081900507, 0.13095000031171367, 0.1287500017497223, 0.1331999992544297, 0.12865000098827295, 0.1268500018341001, 0.12770000466844067, 0.1279499992961064, 0.1276499970117584, 0.12729999798466451, 0.12599999899975955, 0.1277999981539324, 0.1285500002268236, 0.12865000098827295, 0.14030000238562934, 0.13020000187680125, 0.13129999570082873, 0.13490000128513202, 0.13019999823882245, 0.12829999832320027, 0.13019999823882245, 0.1325999983237125, 0.13195000065024942, 0.13115000183461234, 0.12589999823831022, 0.12589999823831022, 0.12694999531959184, 0.12629999764612876, 0.12660000356845558, 0.13224999565863982, 0.1266999970539473, 0.1335500019195024, 0.1327499958279077, 0.12665000031120144, 0.12665000031120144, 0.1265499995497521, 0.12885000251117162, 0.12955000056535937, 0.13049999688519165, 0.1282499979424756, 0.130599997646641, 0.1353999978164211, 0.1350999991700519, 0.13064999802736565, 0.1299499999731779, 0.1321500021731481, 0.13530000069295056, 0.1368000012007542, 0.13359999866224825, 0.12754999625030905, 0.12745000276481733, 0.12740000238409266, 0.12629999764612876, 0.1295000001846347, 0.1353999978164211, 0.12939999942318536, 0.1330499981122557, 0.12805000005755574, 0.13079999916953966, 0.12989999959245324, 0.14199999714037403, 0.14740000187885016, 0.13050000052317046, 0.12974999845027924, 0.13810000018565916, 0.13620000027003698, 0.13475000014295802, 0.13020000187680125, 0.13480000052368268, 0.12955000420333818, 0.1296500013268087, 0.1314999972237274, 0.13670000043930486, 0.1286999977310188, 0.12815000081900507, 0.1299499963351991, 0.12955000056535937, 0.1353999978164211, 0.1269999993382953, 0.12775000141118653, 0.12519999654614367, 0.14280000323196873, 0.12815000081900507, 0.1281000040762592, 0.12784999853465706, 0.12909999713883735, 0.12790000255336054, 0.12665000031120144, 0.12894999599666335, 0.14404999819817021, 0.13110000145388767, 0.1328999969700817, 0.12930000229971483, 0.12969999806955457, 0.12924999828101136, 0.12889999925391749, 0.12910000077681616, 0.12819999756175093, 0.12814999718102627],
  "QPU": "7000000",
  "Qubits": 8,
  "Queue durations [ms]": [0.0, 0.0, 0.0, 0.0, 0.0, 0.0, 0.0, 0.0, 0.0, 0.0, 0.0, 0.0, 0.0, 0.0, 0.0, 0.0, 0.0, 0.0, 0.0, 0.0, 0.0, 0.0, 0.0, 0.0, 0.0, 0.0, 0.0, 0.0, 0.0, 0.0, 0.0, 0.0, 0.0, 0.0, 0.0, 0.0, 0.0, 0.0, 0.0, 0.0, 0.0, 0.0, 0.0, 0.0, 0.0, 0.0, 0.0, 0.0, 0.0, 0.0, 0.0, 0.0, 0.0, 0.0, 0.0, 0.0, 0.0, 0.0, 0.0, 0.0, 0.0, 0.0, 0.0, 0.0, 0.0, 0.0, 0.0, 0.0, 0.0, 0.0, 0.0, 0.0, 0.0, 0.0, 0.0, 0.0, 0.0, 0.0, 0.0, 0.0, 0.0, 0.0, 0.0, 0.0, 0.0, 0.0, 0.0, 0.0, 0.0, 0.0, 0.0, 0.0, 0.0, 0.0, 0.0, 0.0, 0.0, 0.0, 0.0, 0.0, 0.0, 0.0, 0.0, 0.0, 0.0, 0.0, 0.0, 0.0, 0.0, 0.0, 0.0, 0.0, 0.0, 0.0, 0.0, 0.0, 0.0, 0.0, 0.0, 0.0, 0.0, 0.0, 0.0, 0.0, 0.0, 0.0, 0.0, 0.0, 0.0, 0.0, 0.0, 0.0, 0.0, 0.0, 0.0, 0.0, 0.0, 0.0, 0.0, 0.0, 0.0, 0.0, 0.0, 0.0, 0.0, 0.0],
  "Shots": 4096,
  "Size": 8,
  "Total Algorithm duration [s]": 0.524,
  "Total Classic duration [s]": 0.5047415500399657,
  "Total Quantum duration [s]": 0.01925844996003434
}
