{
  "Circuit execution durations [ms]": [0.13379999654716812, 0.14240000018617138, 0.1313499960815534, 0.1294999965466559, 0.1359999987471383, 0.12874999811174348, 0.13034999938099645, 0.1327499994658865, 0.14384999667527154, 0.1309000035689678, 0.13064999802736565, 0.13285000022733584, 0.13685000158147886, 0.13634999777423218, 0.14264999845181592, 0.12940000306116417, 0.13949999993201345, 0.1306000012846198, 0.13039999976172112, 0.1297999988310039, 0.14689999807160348, 0.13004999709664844, 0.12944999616593122, 0.12969999806955457, 0.14820000069448724, 0.12770000466844067, 0.1285500002268236, 0.12815000445698388, 0.13970000145491213, 0.1306000012846198, 0.12989999959245324, 0.12969999806955457, 0.1286999977310188, 0.13985000259708613, 0.13079999553156085, 0.1290500003960915, 0.13035000301897526, 0.13174999912735075, 0.13664999642060138, 0.12680000145337544, 0.12674999743467197, 0.13860000035492703, 0.13624999701278284, 0.13290000424603932, 0.1286000042455271, 0.13195000428822823, 0.12885000251117162, 0.12814999718102627, 0.12885000251117162, 0.12760000390699133, 0.14224999904399738, 0.12615000014193356, 0.12679999781539664, 0.12579999747686088, 0.13014999785809778, 0.1256500036106445, 0.12560000322991982, 0.1267000006919261, 0.131050001073163, 0.12865000098827295, 0.1283999990846496, 0.12850000348407775, 0.12844999946537428, 0.14125000234344043, 0.13410000246949494, 0.13590000162366778, 0.14335000014398247, 0.13469999612425454, 0.12495000191847794, 0.12689999857684597, 0.12924999828101136, 0.15840000196476467, 0.12720000086119398, 0.1253000009455718, 0.1265500031877309, 0.12829999832320027, 0.12620000416063704, 0.12505000267992727, 0.1321499985351693, 0.131350003357511, 0.13159999798517674, 0.12769999739248306, 0.15685000107623637, 0.12865000098827295, 0.12955000056535937, 0.12800000331480987, 0.12734999836538918, 0.12910000077681616, 0.13670000043930486, 0.13144999684300274, 0.13114999819663353, 0.127350002003368, 0.1280999968003016, 0.13464999938150868, 0.12819999756175093, 0.1286999977310188, 0.13014999785809778, 0.13410000246949494, 0.1277999981539324, 0.12800000331480987, 0.1272000044991728, 0.13639999815495685, 0.12829999832320027, 0.11930000255233608, 0.13110000145388767, 0.1316499983659014, 0.13064999802736565, 0.131050001073163, 0.13339999713934958, 0.1343000039923936, 0.13410000246949494, 0.12939999578520656, 0.13184999988880008, 0.1370999998471234, 0.13559999570134096, 0.1306000012846198, 0.13470000340021215, 0.13480000052368268, 0.13390000094659626, 0.1277999981539324, 0.12725000124191865, 0.12495000191847794, 0.12489999789977446, 0.1327499994658865, 0.13005000073462725, 0.1330499981122557, 0.12880000213044696, 0.12819999756175093, 0.12849999984609894, 0.12805000005755574, 0.12725000124191865, 0.1307500024267938, 0.12855000386480242, 0.12725000124191865, 0.12710000009974465, 0.127350002003368, 0.12744999912683852, 0.13765000403509475, 0.12599999899975955, 0.1268500018341001, 0.13424999997369014, 0.12619999688467942, 0.12584999785758555, 0.12649999916902743, 0.12715000048046932, 0.1291999979002867, 0.12805000369553454, 0.1279499992961064, 0.12695000259554945, 0.12985000284970738, 0.12805000005755574, 0.12784999853465706, 0.1277999981539324, 0.13795000268146396, 0.1280999968003016, 0.1270500033569988, 0.13205000141169876, 0.12805000005755574, 0.13655000293510966, 0.1325999983237125, 0.13094999667373486, 0.1352500003122259, 0.12895000327262096, 0.12814999718102627, 0.12754999988828786, 0.13079999916953966, 0.130749998788815, 0.13205000141169876, 0.13369999578571878, 0.1337000030616764, 0.1315000008617062, 0.1338499969278928, 0.12559999959194101, 0.12570000399136916, 0.12615000377991237, 0.12775000141118653, 0.1272000044991728, 0.12759999663103372, 0.12769999739248306, 0.3253499889979139, 0.14474999625235796, 0.21079999714856967, 0.13685000158147886, 0.13065000166534446, 0.13115000183461234, 0.1293499990424607, 0.1343000003544148, 0.13845000285073183, 0.13300000136950985, 0.1296499976888299, 0.1270500033569988, 0.12659999993047677, 0.12674999743467197, 0.12549999883049168, 0.12930000229971483, 0.13010000111535192, 0.14069999815546907, 0.12910000077681616, 0.12760000026901253, 0.1339999980700668, 0.1307500024267938, 0.12534999768831767, 0.1313499960815534, 0.143599998409627, 0.13285000022733584, 0.12830000196117908, 0.1292000015382655, 0.1853500070865266, 0.12970000170753337, 0.1292000051762443, 0.1576999966346193, 0.14704999557579868, 0.12749999586958438, 0.1262499972654041, 0.1276500006497372, 0.13070000204606913, 0.12969999806955457, 0.12744999912683852, 0.1297999988310039, 0.12955000056535937, 0.13195000065024942, 0.13315000251168385, 0.13330000001587905, 0.12630000492208637, 0.13220000255387276, 0.127650004287716, 0.1276500006497372, 0.13595000200439245, 0.1331999992544297, 0.1274999995075632, 0.13115000183461234, 0.12799999967683107, 0.1258000011148397, 0.13069999840809032, 0.12870000136899762, 0.13439999747788534, 0.13235000005806796, 0.13905000378144905, 0.13239999680081382, 0.1302499986195471, 0.12804999641957693, 0.17765000666258857, 0.13379999654716812, 0.12819999756175093, 0.12985000284970738, 0.14944999566068873, 0.13029999900027178, 0.12659999993047677, 0.12799999967683107, 0.12760000026901253, 0.1387999982398469, 0.13180000314605422, 0.13255000158096664, 0.13020000187680125, 0.13069999840809032, 0.12849999984609894, 0.12885000251117162, 0.1327500031038653, 0.12820000119972974, 0.12729999798466451, 0.12770000103046186, 0.12849999984609894, 0.1277999981539324, 0.12785000217263587, 0.12805000005755574, 0.12804999641957693, 0.12844999946537428, 0.13269999908516183, 0.12745000276481733, 0.12820000119972974, 0.12704999971901998, 0.12694999895757064, 0.13884999862057157, 0.13339999713934958, 0.1371000034851022, 0.14125000234344043, 0.13250000120024197, 0.12619999688467942, 0.12659999993047677, 0.12665000031120144, 0.12644999878830276, 0.12659999993047677, 0.12489999789977446, 0.13734999811276793, 0.12554999557323754, 0.1262499972654041, 0.1262499972654041, 0.12555000284919515, 0.14894999912939966, 0.12729999798466451, 0.1309000035689678, 0.12900000001536682, 0.13610000314656645, 0.12645000242628157, 0.12619999688467942, 0.12530000458355062, 0.1260999997612089, 0.13365000268095173, 0.1279499992961064, 0.12804999641957693, 0.12659999993047677, 0.12305000200285576, 0.12550000246847048, 0.12560000322991982, 0.12760000026901253, 0.14200000077835284, 0.12975000208825804, 0.1292000051762443, 0.1333499967586249, 0.13439999747788534, 0.13190000026952475, 0.12725000124191865, 0.1289000028918963, 0.12984999557374977, 0.13859999307896942, 0.12915000115754083, 0.12740000238409266, 0.1276500006497372, 0.13010000111535192, 0.13335000039660372, 0.12844999946537428, 0.12540000170702115, 0.13965000107418746, 0.12725000124191865, 0.12704999608104117, 0.12819999756175093, 0.13314999523572624, 0.13760000365437008, 0.13465000301948749, 0.13125000259606168, 0.12715000048046932, 0.13169999874662608, 0.12775000141118653, 0.1336999994236976, 0.13305000175023451, 0.13744999887421727, 0.12739999874611385, 0.12774999777320772, 0.12814999718102627, 0.12884999887319282, 0.1327500031038653, 0.12860000060754828, 0.12725000124191865, 0.1290500003960915, 0.13209999815444462, 0.13065000166534446, 0.13129999933880754],
  "Depth": 2.0,
  "Expectation Value": -4.60712194442749,
  "Optimal Expectation Value": -4.610499858856201,
  "Optimizer durations [ms]": [3.773, 3.868, 3.63, 3.656, 3.757, 3.598, 3.567, 3.609, 3.791, 6.448, 3.568, 3.576, 3.688, 3.741, 3.813, 3.554, 3.849, 3.548, 3.54, 3.514, 3.926, 3.539, 3.503, 3.499, 3.921, 3.539, 3.544, 3.579, 3.756, 3.534, 3.488, 3.503, 3.507, 3.755, 3.572, 3.5, 3.555, 3.53, 3.828, 3.588, 3.539, 4.101, 3.925, 3.641, 3.519, 3.6, 3.566, 3.542, 3.549, 3.543, 3.777, 3.48, 3.513, 3.548, 3.534, 3.457, 3.434, 3.488, 3.563, 3.521, 3.527, 3.572, 3.539, 3.946, 3.701, 3.927, 3.794, 3.823, 3.425, 3.541, 3.685, 4.247, 3.456, 3.386, 3.542, 3.612, 3.456, 3.529, 3.732, 3.646, 3.593, 3.507, 4.127, 3.54, 3.67, 3.561, 3.502, 3.541, 3.887, 3.714, 3.612, 3.544, 3.589, 3.668, 3.499, 3.518, 3.554, 3.639, 3.498, 3.519, 3.509, 3.699, 3.496, 3.425, 3.708, 3.696, 3.621, 3.634, 3.677, 3.834, 3.765, 3.622, 3.759, 3.843, 3.865, 3.586, 3.647, 3.687, 3.672, 3.519, 3.483, 3.415, 3.405, 3.619, 3.487, 3.535, 3.437, 3.523, 3.5, 3.519, 3.463, 3.57, 3.487, 3.471, 3.484, 3.506, 3.53, 3.76, 3.427, 3.581, 3.703, 3.462, 3.445, 3.466, 3.536, 3.557, 3.541, 3.518, 3.526, 3.68, 3.556, 3.495, 3.485, 3.769, 3.534, 3.518, 3.644, 4.554, 3.894, 3.659, 3.648, 4.007, 3.562, 3.592, 3.526, 3.585, 3.563, 3.644, 3.664, 3.671, 3.724, 3.638, 3.416, 3.414, 3.482, 3.53, 3.507, 3.504, 3.511, 7.548, 17.087, 6.531, 3.825, 3.574, 3.588, 3.545, 4.043, 3.777, 3.713, 3.575, 3.468, 3.422, 3.472, 3.401, 3.517, 3.701, 4.007, 3.541, 3.486, 3.774, 3.632, 3.486, 3.593, 3.923, 3.692, 3.499, 3.557, 4.73, 3.547, 3.506, 4.096, 4.072, 3.444, 3.438, 3.492, 3.532, 3.467, 3.425, 3.484, 3.499, 4.235, 3.644, 3.638, 3.602, 3.694, 3.525, 3.516, 3.824, 3.847, 3.555, 3.565, 3.464, 3.439, 3.576, 3.489, 3.745, 3.701, 3.818, 3.69, 3.628, 3.473, 4.511, 3.677, 3.49, 3.662, 4.052, 3.506, 3.419, 3.429, 3.647, 3.911, 3.63, 3.67, 3.616, 3.614, 3.532, 3.508, 3.586, 3.58, 3.425, 3.409, 3.455, 3.479, 3.564, 3.544, 3.446, 3.397, 3.587, 3.491, 3.473, 3.463, 3.442, 3.771, 3.524, 3.8, 4.013, 3.637, 3.506, 3.458, 3.419, 3.476, 7.025, 3.382, 3.658, 3.454, 3.426, 3.421, 3.534, 4.039, 3.466, 3.625, 3.527, 3.639, 3.421, 3.448, 3.385, 3.543, 4.001, 3.507, 3.494, 3.457, 3.372, 3.382, 3.352, 3.573, 3.772, 3.549, 3.496, 3.713, 3.857, 3.712, 3.458, 3.534, 3.487, 3.749, 3.524, 3.504, 3.499, 3.522, 3.628, 3.694, 3.398, 3.917, 3.455, 3.423, 3.471, 3.602, 3.863, 3.614, 3.551, 3.484, 3.55, 3.494, 3.825, 3.798, 3.912, 3.519, 3.491, 3.492, 3.547, 3.599, 3.488, 3.519, 3.507, 3.591, 3.459, 3.471],
  "Optimizer iterations": 347,
  "Optimizer params": [0.002890276538113958, 0.4968620927916187, 0.9961322238389294, 0.5014153861988367, 0.49846873031115174, 1.0, 0.5028222811900392, 0.5233012538478291],
  "P": 0,
  "Problem": "RH",
  "QJob durations [ms]": [0.13379999654716812, 0.14240000018617138, 0.1313499960815534, 0.1294999965466559, 0.1359999987471383, 0.12874999811174348, 0.13034999938099645, 0.1327499994658865, 0.14384999667527154, 0.1309000035689678, 0.13064999802736565, 0.13285000022733584, 0.13685000158147886, 0.13634999777423218, 0.14264999845181592, 0.12940000306116417, 0.13949999993201345, 0.1306000012846198, 0.13039999976172112, 0.1297999988310039, 0.14689999807160348, 0.13004999709664844, 0.12944999616593122, 0.12969999806955457, 0.14820000069448724, 0.12770000466844067, 0.1285500002268236, 0.12815000445698388, 0.13970000145491213, 0.1306000012846198, 0.12989999959245324, 0.12969999806955457, 0.1286999977310188, 0.13985000259708613, 0.13079999553156085, 0.1290500003960915, 0.13035000301897526, 0.13174999912735075, 0.13664999642060138, 0.12680000145337544, 0.12674999743467197, 0.13860000035492703, 0.13624999701278284, 0.13290000424603932, 0.1286000042455271, 0.13195000428822823, 0.12885000251117162, 0.12814999718102627, 0.12885000251117162, 0.12760000390699133, 0.14224999904399738, 0.12615000014193356, 0.12679999781539664, 0.12579999747686088, 0.13014999785809778, 0.1256500036106445, 0.12560000322991982, 0.1267000006919261, 0.131050001073163, 0.12865000098827295, 0.1283999990846496, 0.12850000348407775, 0.12844999946537428, 0.14125000234344043, 0.13410000246949494, 0.13590000162366778, 0.14335000014398247, 0.13469999612425454, 0.12495000191847794, 0.12689999857684597, 0.12924999828101136, 0.15840000196476467, 0.12720000086119398, 0.1253000009455718, 0.1265500031877309, 0.12829999832320027, 0.12620000416063704, 0.12505000267992727, 0.1321499985351693, 0.131350003357511, 0.13159999798517674, 0.12769999739248306, 0.15685000107623637, 0.12865000098827295, 0.12955000056535937, 0.12800000331480987, 0.12734999836538918, 0.12910000077681616, 0.13670000043930486, 0.13144999684300274, 0.13114999819663353, 0.127350002003368, 0.1280999968003016, 0.13464999938150868, 0.12819999756175093, 0.1286999977310188, 0.13014999785809778, 0.13410000246949494, 0.1277999981539324, 0.12800000331480987, 0.1272000044991728, 0.13639999815495685, 0.12829999832320027, 0.11930000255233608, 0.13110000145388767, 0.1316499983659014, 0.13064999802736565, 0.131050001073163, 0.13339999713934958, 0.1343000039923936, 0.13410000246949494, 0.12939999578520656, 0.13184999988880008, 0.1370999998471234, 0.13559999570134096, 0.1306000012846198, 0.13470000340021215, 0.13480000052368268, 0.13390000094659626, 0.1277999981539324, 0.12725000124191865, 0.12495000191847794, 0.12489999789977446, 0.1327499994658865, 0.13005000073462725, 0.1330499981122557, 0.12880000213044696, 0.12819999756175093, 0.12849999984609894, 0.12805000005755574, 0.12725000124191865, 0.1307500024267938, 0.12855000386480242, 0.12725000124191865, 0.12710000009974465, 0.127350002003368, 0.12744999912683852, 0.13765000403509475, 0.12599999899975955, 0.1268500018341001, 0.13424999997369014, 0.12619999688467942, 0.12584999785758555, 0.12649999916902743, 0.12715000048046932, 0.1291999979002867, 0.12805000369553454, 0.1279499992961064, 0.12695000259554945, 0.12985000284970738, 0.12805000005755574, 0.12784999853465706, 0.1277999981539324, 0.13795000268146396, 0.1280999968003016, 0.1270500033569988, 0.13205000141169876, 0.12805000005755574, 0.13655000293510966, 0.1325999983237125, 0.13094999667373486, 0.1352500003122259, 0.12895000327262096, 0.12814999718102627, 0.12754999988828786, 0.13079999916953966, 0.130749998788815, 0.13205000141169876, 0.13369999578571878, 0.1337000030616764, 0.1315000008617062, 0.1338499969278928, 0.12559999959194101, 0.12570000399136916, 0.12615000377991237, 0.12775000141118653, 0.1272000044991728, 0.12759999663103372, 0.12769999739248306, 0.3253499889979139, 0.14474999625235796, 0.21079999714856967, 0.13685000158147886, 0.13065000166534446, 0.13115000183461234, 0.1293499990424607, 0.1343000003544148, 0.13845000285073183, 0.13300000136950985, 0.1296499976888299, 0.1270500033569988, 0.12659999993047677, 0.12674999743467197, 0.12549999883049168, 0.12930000229971483, 0.13010000111535192, 0.14069999815546907, 0.12910000077681616, 0.12760000026901253, 0.1339999980700668, 0.1307500024267938, 0.12534999768831767, 0.1313499960815534, 0.143599998409627, 0.13285000022733584, 0.12830000196117908, 0.1292000015382655, 0.1853500070865266, 0.12970000170753337, 0.1292000051762443, 0.1576999966346193, 0.14704999557579868, 0.12749999586958438, 0.1262499972654041, 0.1276500006497372, 0.13070000204606913, 0.12969999806955457, 0.12744999912683852, 0.1297999988310039, 0.12955000056535937, 0.13195000065024942, 0.13315000251168385, 0.13330000001587905, 0.12630000492208637, 0.13220000255387276, 0.127650004287716, 0.1276500006497372, 0.13595000200439245, 0.1331999992544297, 0.1274999995075632, 0.13115000183461234, 0.12799999967683107, 0.1258000011148397, 0.13069999840809032, 0.12870000136899762, 0.13439999747788534, 0.13235000005806796, 0.13905000378144905, 0.13239999680081382, 0.1302499986195471, 0.12804999641957693, 0.17765000666258857, 0.13379999654716812, 0.12819999756175093, 0.12985000284970738, 0.14944999566068873, 0.13029999900027178, 0.12659999993047677, 0.12799999967683107, 0.12760000026901253, 0.1387999982398469, 0.13180000314605422, 0.13255000158096664, 0.13020000187680125, 0.13069999840809032, 0.12849999984609894, 0.12885000251117162, 0.1327500031038653, 0.12820000119972974, 0.12729999798466451, 0.12770000103046186, 0.12849999984609894, 0.1277999981539324, 0.12785000217263587, 0.12805000005755574, 0.12804999641957693, 0.12844999946537428, 0.13269999908516183, 0.12745000276481733, 0.12820000119972974, 0.12704999971901998, 0.12694999895757064, 0.13884999862057157, 0.13339999713934958, 0.1371000034851022, 0.14125000234344043, 0.13250000120024197, 0.12619999688467942, 0.12659999993047677, 0.12665000031120144, 0.12644999878830276, 0.12659999993047677, 0.12489999789977446, 0.13734999811276793, 0.12554999557323754, 0.1262499972654041, 0.1262499972654041, 0.12555000284919515, 0.14894999912939966, 0.12729999798466451, 0.1309000035689678, 0.12900000001536682, 0.13610000314656645, 0.12645000242628157, 0.12619999688467942, 0.12530000458355062, 0.1260999997612089, 0.13365000268095173, 0.1279499992961064, 0.12804999641957693, 0.12659999993047677, 0.12305000200285576, 0.12550000246847048, 0.12560000322991982, 0.12760000026901253, 0.14200000077835284, 0.12975000208825804, 0.1292000051762443, 0.1333499967586249, 0.13439999747788534, 0.13190000026952475, 0.12725000124191865, 0.1289000028918963, 0.12984999557374977, 0.13859999307896942, 0.12915000115754083, 0.12740000238409266, 0.1276500006497372, 0.13010000111535192, 0.13335000039660372, 0.12844999946537428, 0.12540000170702115, 0.13965000107418746, 0.12725000124191865, 0.12704999608104117, 0.12819999756175093, 0.13314999523572624, 0.13760000365437008, 0.13465000301948749, 0.13125000259606168, 0.12715000048046932, 0.13169999874662608, 0.12775000141118653, 0.1336999994236976, 0.13305000175023451, 0.13744999887421727, 0.12739999874611385, 0.12774999777320772, 0.12814999718102627, 0.12884999887319282, 0.1327500031038653, 0.12860000060754828, 0.12725000124191865, 0.1290500003960915, 0.13209999815444462, 0.13065000166534446, 0.13129999933880754],
  "QPU": "7000000",
  "Qubits": 8,
  "Queue durations [ms]": [0.0, 0.0, 0.0, 0.0, 0.0, 0.0, 0.0, 0.0, 0.0, 0.0, 0.0, 0.0, 0.0, 0.0, 0.0, 0.0, 0.0, 0.0, 0.0, 0.0, 0.0, 0.0, 0.0, 0.0, 0.0, 0.0, 0.0, 0.0, 0.0, 0.0, 0.0, 0.0, 0.0, 0.0, 0.0, 0.0, 0.0, 0.0, 0.0, 0.0, 0.0, 0.0, 0.0, 0.0, 0.0, 0.0, 0.0, 0.0, 0.0, 0.0, 0.0, 0.0, 0.0, 0.0, 0.0, 0.0, 0.0, 0.0, 0.0, 0.0, 0.0, 0.0, 0.0, 0.0, 0.0, 0.0, 0.0, 0.0, 0.0, 0.0, 0.0, 0.0, 0.0, 0.0, 0.0, 0.0, 0.0, 0.0, 0.0, 0.0, 0.0, 0.0, 0.0, 0.0, 0.0, 0.0, 0.0, 0.0, 0.0, 0.0, 0.0, 0.0, 0.0, 0.0, 0.0, 0.0, 0.0, 0.0, 0.0, 0.0, 0.0, 0.0, 0.0, 0.0, 0.0, 0.0, 0.0, 0.0, 0.0, 0.0, 0.0, 0.0, 0.0, 0.0, 0.0, 0.0, 0.0, 0.0, 0.0, 0.0, 0.0, 0.0, 0.0, 0.0, 0.0, 0.0, 0.0, 0.0, 0.0, 0.0, 0.0, 0.0, 0.0, 0.0, 0.0, 0.0, 0.0, 0.0, 0.0, 0.0, 0.0, 0.0, 0.0, 0.0, 0.0, 0.0, 0.0, 0.0, 0.0, 0.0, 0.0, 0.0, 0.0, 0.0, 0.0, 0.0, 0.0, 0.0, 0.0, 0.0, 0.0, 0.0, 0.0, 0.0, 0.0, 0.0, 0.0, 0.0, 0.0, 0.0, 0.0, 0.0, 0.0, 0.0, 0.0, 0.0, 0.0, 0.0, 0.0, 0.0, 0.0, 0.0, 0.0, 0.0, 0.0, 0.0, 0.0, 0.0, 0.0, 0.0, 0.0, 0.0, 0.0, 0.0, 0.0, 0.0, 0.0, 0.0, 0.0, 0.0, 0.0, 0.0, 0.0, 0.0, 0.0, 0.0, 0.0, 0.0, 0.0, 0.0, 0.0, 0.0, 0.0, 0.0, 0.0, 0.0, 0.0, 0.0, 0.0, 0.0, 0.0, 0.0, 0.0, 0.0, 0.0, 0.0, 0.0, 0.0, 0.0, 0.0, 0.0, 0.0, 0.0, 0.0, 0.0, 0.0, 0.0, 0.0, 0.0, 0.0, 0.0, 0.0, 0.0, 0.0, 0.0, 0.0, 0.0, 0.0, 0.0, 0.0, 0.0, 0.0, 0.0, 0.0, 0.0, 0.0, 0.0, 0.0, 0.0, 0.0, 0.0, 0.0, 0.0, 0.0, 0.0, 0.0, 0.0, 0.0, 0.0, 0.0, 0.0, 0.0, 0.0, 0.0, 0.0, 0.0, 0.0, 0.0, 0.0, 0.0, 0.0, 0.0, 0.0, 0.0, 0.0, 0.0, 0.0, 0.0, 0.0, 0.0, 0.0, 0.0, 0.0, 0.0, 0.0, 0.0, 0.0, 0.0, 0.0, 0.0, 0.0, 0.0, 0.0, 0.0, 0.0, 0.0, 0.0, 0.0, 0.0, 0.0, 0.0, 0.0, 0.0, 0.0, 0.0, 0.0, 0.0, 0.0, 0.0, 0.0, 0.0, 0.0, 0.0, 0.0, 0.0, 0.0, 0.0, 0.0, 0.0, 0.0, 0.0, 0.0, 0.0, 0.0, 0.0, 0.0, 0.0, 0.0, 0.0, 0.0, 0.0, 0.0, 0.0, 0.0, 0.0, 0.0, 0.0],
  "Shots": 4096,
  "Size": 8,
  "Total Algorithm duration [s]": 1.279,
  "Total Classic duration [s]": 1.2332057999715325,
  "Total Quantum duration [s]": 0.04579420002846746
}
