{
  "Circuit execution durations [ms]": [0.14010000086273067, 0.13224999929661863, 0.14014999760547653, 0.12914999751956202, 0.1299499999731779, 0.13140000010025688, 0.13069999840809032, 0.12865000098827295, 0.12900000365334563, 0.14899999951012433, 0.13084999955026433, 0.13624999701278284, 0.12940000306116417, 0.13100000433041714, 0.1295000001846347, 0.13099999705445953, 0.13314999523572624, 0.13605000276584178, 0.13324999963515438, 0.12974999845027924, 0.12770000103046186, 0.1293499990424607, 0.13269999908516183, 0.13054999726591632, 0.130749998788815, 0.13689999832422473, 0.14569999621016905, 0.12904999675811268, 0.1291999979002867, 0.12885000251117162, 0.17654999828664586, 0.12770000466844067, 0.14990000272518955, 0.1347499965049792, 0.13040000339969993, 0.13844999921275303, 0.13139999646227807, 0.1290500003960915, 0.1349500016658567, 0.23624999812454917, 0.12799999967683107, 0.13580000086221844, 0.12759999663103372, 0.13114999819663353, 0.1292000015382655, 0.13095000031171367, 0.12984999921172857, 0.13129999570082873, 0.13549999857787043, 0.12999999671592377, 0.12960000094608404, 0.12969999806955457, 0.1322999960393645, 0.13305000175023451, 0.12989999959245324, 0.131350003357511, 0.13595000200439245, 0.13025000225752592, 0.1307500024267938, 0.13110000509186648, 0.13814999692840502, 0.1303000026382506, 0.13050000052317046, 0.1302499986195471, 0.1307500024267938, 0.13129999933880754, 0.13050000052317046, 0.1302499986195471, 0.12955000420333818, 0.13114999819663353, 0.12985000284970738, 0.13085000318824314, 0.12834999870392494, 0.228899996727705, 0.13575000048149377, 0.1316499983659014, 0.13579999722423963, 0.13449999823933467, 0.12885000251117162, 0.13000000035390258, 0.13065000166534446, 0.13055000090389512, 0.13265000234241597, 0.13029999536229298, 0.1292000015382655, 0.12814999718102627, 0.13589999798568897, 0.13270000272314064, 0.13354999828152359, 0.13299999773153104, 0.13720000060857274, 0.13919999764766544, 0.14089999967836775, 0.13435000073513947, 0.14095000369707122, 0.12879999849246815, 0.12834999870392494, 0.1282499979424756, 0.1294999965466559, 0.14184999963617884, 0.13240000407677144, 0.131200002215337, 0.14154999735183083, 0.13394999768934213, 0.12829999832320027, 0.12840000272262841, 0.12694999895757064, 0.1285500002268236, 0.12785000217263587, 0.12889999925391749, 0.12849999984609894, 0.24384999414905906, 0.16099999629659578, 0.13064999802736565, 0.1508999994257465],
  "Depth": 2.0,
  "Expectation Value": -4.610499858856201,
  "Optimal Expectation Value": -4.610499858856201,
  "Optimizer durations [ms]": [3.943, 3.563, 3.828, 3.578, 3.716, 3.581, 3.503, 3.487, 3.481, 4.212, 3.715, 3.769, 3.519, 3.742, 3.643, 3.739, 3.622, 3.656, 3.62, 3.579, 3.527, 3.583, 3.6, 3.513, 3.591, 3.705, 3.941, 3.53, 3.547, 3.533, 4.563, 3.528, 4.036, 3.703, 3.644, 3.716, 3.59, 3.521, 3.792, 5.636, 15.593, 3.905, 3.485, 3.539, 3.517, 3.49, 3.489, 3.548, 3.603, 3.504, 3.491, 3.49, 3.806, 3.715, 3.639, 3.647, 3.729, 3.538, 3.515, 3.529, 3.697, 3.51, 3.499, 3.507, 3.543, 3.554, 3.49, 3.526, 3.521, 3.568, 3.481, 3.549, 3.537, 5.363, 3.929, 3.827, 3.835, 4.743, 3.566, 3.57, 3.589, 3.645, 3.561, 3.521, 3.546, 3.563, 3.693, 3.606, 3.55, 3.567, 3.685, 3.755, 3.78, 3.674, 3.845, 3.508, 3.551, 3.512, 3.398, 4.088, 3.582, 3.51, 3.911, 3.738, 3.5, 3.508, 3.5, 4.058, 3.506, 3.518, 3.534, 5.677, 4.585, 3.588, 4.012],
  "Optimizer iterations": 115,
  "Optimizer params": [0.998954972939775, 0.4998958804744179, 0.9960648175815454, 0.500925631932716, 0.5000736330092126, 1.0, 0.5017622618798071, 0.4973989349239208],
  "P": 0,
  "Problem": "RH",
  "QJob durations [ms]": [0.14010000086273067, 0.13224999929661863, 0.14014999760547653, 0.12914999751956202, 0.1299499999731779, 0.13140000010025688, 0.13069999840809032, 0.12865000098827295, 0.12900000365334563, 0.14899999951012433, 0.13084999955026433, 0.13624999701278284, 0.12940000306116417, 0.13100000433041714, 0.1295000001846347, 0.13099999705445953, 0.13314999523572624, 0.13605000276584178, 0.13324999963515438, 0.12974999845027924, 0.12770000103046186, 0.1293499990424607, 0.13269999908516183, 0.13054999726591632, 0.130749998788815, 0.13689999832422473, 0.14569999621016905, 0.12904999675811268, 0.1291999979002867, 0.12885000251117162, 0.17654999828664586, 0.12770000466844067, 0.14990000272518955, 0.1347499965049792, 0.13040000339969993, 0.13844999921275303, 0.13139999646227807, 0.1290500003960915, 0.1349500016658567, 0.23624999812454917, 0.12799999967683107, 0.13580000086221844, 0.12759999663103372, 0.13114999819663353, 0.1292000015382655, 0.13095000031171367, 0.12984999921172857, 0.13129999570082873, 0.13549999857787043, 0.12999999671592377, 0.12960000094608404, 0.12969999806955457, 0.1322999960393645, 0.13305000175023451, 0.12989999959245324, 0.131350003357511, 0.13595000200439245, 0.13025000225752592, 0.1307500024267938, 0.13110000509186648, 0.13814999692840502, 0.1303000026382506, 0.13050000052317046, 0.1302499986195471, 0.1307500024267938, 0.13129999933880754, 0.13050000052317046, 0.1302499986195471, 0.12955000420333818, 0.13114999819663353, 0.12985000284970738, 0.13085000318824314, 0.12834999870392494, 0.228899996727705, 0.13575000048149377, 0.1316499983659014, 0.13579999722423963, 0.13449999823933467, 0.12885000251117162, 0.13000000035390258, 0.13065000166534446, 0.13055000090389512, 0.13265000234241597, 0.13029999536229298, 0.1292000015382655, 0.12814999718102627, 0.13589999798568897, 0.13270000272314064, 0.13354999828152359, 0.13299999773153104, 0.13720000060857274, 0.13919999764766544, 0.14089999967836775, 0.13435000073513947, 0.14095000369707122, 0.12879999849246815, 0.12834999870392494, 0.1282499979424756, 0.1294999965466559, 0.14184999963617884, 0.13240000407677144, 0.131200002215337, 0.14154999735183083, 0.13394999768934213, 0.12829999832320027, 0.12840000272262841, 0.12694999895757064, 0.1285500002268236, 0.12785000217263587, 0.12889999925391749, 0.12849999984609894, 0.24384999414905906, 0.16099999629659578, 0.13064999802736565, 0.1508999994257465],
  "QPU": "7000000",
  "Qubits": 8,
  "Queue durations [ms]": [0.0, 0.0, 0.0, 0.0, 0.0, 0.0, 0.0, 0.0, 0.0, 0.0, 0.0, 0.0, 0.0, 0.0, 0.0, 0.0, 0.0, 0.0, 0.0, 0.0, 0.0, 0.0, 0.0, 0.0, 0.0, 0.0, 0.0, 0.0, 0.0, 0.0, 0.0, 0.0, 0.0, 0.0, 0.0, 0.0, 0.0, 0.0, 0.0, 0.0, 0.0, 0.0, 0.0, 0.0, 0.0, 0.0, 0.0, 0.0, 0.0, 0.0, 0.0, 0.0, 0.0, 0.0, 0.0, 0.0, 0.0, 0.0, 0.0, 0.0, 0.0, 0.0, 0.0, 0.0, 0.0, 0.0, 0.0, 0.0, 0.0, 0.0, 0.0, 0.0, 0.0, 0.0, 0.0, 0.0, 0.0, 0.0, 0.0, 0.0, 0.0, 0.0, 0.0, 0.0, 0.0, 0.0, 0.0, 0.0, 0.0, 0.0, 0.0, 0.0, 0.0, 0.0, 0.0, 0.0, 0.0, 0.0, 0.0, 0.0, 0.0, 0.0, 0.0, 0.0, 0.0, 0.0, 0.0, 0.0, 0.0, 0.0, 0.0, 0.0, 0.0, 0.0, 0.0],
  "Shots": 4096,
  "Size": 8,
  "Total Algorithm duration [s]": 0.438,
  "Total Classic duration [s]": 0.42238985003667767,
  "Total Quantum duration [s]": 0.015610149963322328
}
