{
  "Circuit execution durations [ms]": [1626.125454902649, 1676.6636371612549, 1623.8903999328613, 1625.2224445343018, 1694.348931312561, 1632.861614227295, 1575.5888223648071, 1649.7834920883179, 1711.4142179489136, 1696.6089010238647, 1843.9024686813354, 1643.46182346344, 1638.0430459976196, 1641.8085098266602, 1681.3791990280151, 1606.3166856765747, 1554.0653467178345, 1601.125955581665, 1671.3805198669434, 1690.0826692581177, 1607.7544689178467, 1680.3687810897827, 1708.6474895477295, 1680.0775527954102, 1845.2346324920654, 1757.5346231460571, 1658.2883596420288, 1627.7719736099243, 1844.1293239593506, 1735.1830005645752, 1737.3944520950317, 1704.577922821045, 1606.0187816619873, 1575.8016109466553, 1660.0120067596436, 1644.270658493042, 1723.8003015518188, 1599.6910333633423, 1689.881682395935, 1775.1281261444092, 1588.220477104187, 1803.871750831604, 1557.9596757888794, 1595.4076051712036, 1609.8542213439941, 1627.0262002944946, 1693.5969591140747, 1788.762092590332, 1553.7583827972412, 1785.3946685791016, 1589.53058719635, 1585.7821702957153, 1608.2912683486938, 1664.496898651123, 1644.191861152649, 1731.3464879989624, 1641.3159370422363, 1609.1935634613037, 1624.6798038482666, 1700.0199556350708, 1568.9494609832764, 1596.1776971817017, 1636.733889579773, 1738.501787185669, 1588.0056619644165, 1649.945616722107, 1624.4726181030273, 1647.7173566818237, 1669.0870523452759, 1646.5914249420166, 1675.0397682189941, 1614.5824193954468, 1547.573447227478, 1658.231496810913, 1607.9846620559692, 1636.3277435302734, 1600.8847951889038, 1527.864933013916, 1651.004433631897, 1604.9798727035522, 1629.331111907959, 1557.6947927474976, 1640.2939558029175, 1580.1548957824707, 1684.7673654556274, 1606.8376302719116, 1703.6125659942627, 1585.198163986206, 1598.0160236358643, 1589.2261266708374, 1763.8925313949585, 1612.510085105896, 1560.3969097137451, 1582.1830034255981, 1688.8253688812256, 1655.0712585449219, 1630.2194595336914, 1769.717812538147, 1671.6785430908203, 1776.8391370773315, 1716.8396711349487, 1651.1845588684082, 1595.7157611846924, 1608.9203357696533, 1569.7566270828247, 1583.740472793579, 1654.587984085083, 1724.7295379638672, 1556.383728981018, 1702.5038003921509, 1760.5786323547363, 1791.8362617492676, 1759.2774629592896, 1634.608268737793, 1544.137716293335, 1602.8883457183838, 1703.3981084823608, 1730.8036088943481, 1549.6914386749268, 1682.314395904541, 1655.3562879562378, 1672.1711158752441, 1562.0158910751343, 1686.4992380142212, 1667.5220727920532, 1554.1328191757202, 1533.5426330566406, 1627.8152465820313, 1560.1881742477417, 1634.3934535980225, 1660.487413406372, 1759.5460414886475, 1528.1505584716797, 1856.6685914993286, 1816.394567489624, 1615.0822639465332, 1547.751784324646, 1536.010503768921, 1608.81769657135, 1590.6131267547607, 1578.1688690185547, 1536.5105867385864, 1644.3387269973755, 1574.4690895080566, 1790.095567703247, 1742.8052425384521, 1587.9706144332886, 1598.2484817504883, 1559.7509145736694, 1620.0859546661377, 1708.580732345581, 1639.5907402038574, 1711.9334936141968, 1591.4206504821777, 1741.6666746139526, 1767.6048278808594, 1625.0128746032715, 1598.1860160827637, 1542.4455404281616, 1634.385108947754, 1546.6629266738892, 1575.8131742477417, 1647.7059125900269, 1569.018840789795, 1668.8200235366821, 1680.5158853530884, 1650.2920389175415, 1574.3261575698853, 1723.6196994781494, 1558.5315227508545, 1696.1172819137573, 1743.070125579834, 1650.5101919174194, 1938.7829303741455, 1854.9377918243408, 1680.3547143936157, 1757.96377658844, 1596.238613128662, 1764.7563219070435, 1624.1037845611572, 1666.3594245910645, 1597.8368520736694, 1618.7820434570313, 1616.5554523468018, 1523.5556364059448, 1728.3600568771362, 1656.851053237915, 1739.9882078170776, 1561.2266063690186, 1656.2122106552124, 1569.1416263580322, 1648.6732959747314, 1620.603084564209, 1650.7205963134766, 1662.5269651412964, 1618.3933019638062, 1767.861008644104, 1564.61763381958, 1699.4441747665405, 1686.9659423828125, 1698.5063552856445, 1544.793963432312, 1582.8700065612793, 1793.4964895248413, 1637.776255607605, 1683.0592155456543, 1623.85094165802, 1646.4697122573853, 1710.4328870773315, 1573.4463930130005, 1709.5023393630981, 1726.84907913208, 1596.2350368499756, 1652.1925926208496, 1657.2034358978271, 1723.2038974761963, 1793.7337160110474, 1717.8258895874023, 1627.0009279251099, 1696.7747211456299, 1780.6620597839355, 1624.0185499191284, 1553.2798767089844, 1739.762544631958, 1598.5748767852783, 1620.8128929138184, 1562.9487037658691, 1666.2360429763794, 1672.985315322876, 1610.4599237442017, 1604.967713356018, 1580.1645517349243, 1632.706880569458, 1612.8383874893188, 1668.8482761383057, 1612.7076148986816, 1706.2420845031738, 1551.6366958618164, 1675.8357286453247, 1612.1104955673218, 1587.5029563903809, 1581.4242362976074, 1613.1300926208496, 1583.4072828292847, 1631.4798593521118, 1597.4268913269043, 1722.4135398864746, 1655.9416055679321, 1757.8309774398804, 1810.7839822769165, 1582.2832584381104, 1789.5033359527588, 1572.0431804656982, 1677.9217720031738, 1620.0453042984009, 1536.3026857376099, 1679.241418838501, 1781.4077138900757, 1645.2593803405762, 1611.1347675323486, 1676.19788646698, 1880.704402923584, 1590.6078815460205, 1606.84335231781, 1670.551061630249, 1599.5092391967773, 1634.8726749420166, 1652.5781154632568, 1654.6965837478638, 1822.0056295394897, 1581.3660621643066, 1650.5005359649658, 1689.3452405929565, 1679.3049573898315, 1559.1052770614624, 1650.7524251937866, 1568.2183504104614, 1614.456295967102, 1588.507056236267, 1579.156756401062, 1701.7512321472168, 1571.0346698760986, 1597.9934930801392, 1721.4328050613403, 1673.5620498657227, 1595.5888032913208, 1555.383563041687, 1739.330768585205, 1747.4392652511597, 1733.3815097808838, 1798.5609769821167, 1714.391589164734, 1609.0891361236572, 1618.17467212677, 1630.882978439331, 1560.2120161056519, 1689.021110534668, 1709.0845108032227, 1701.0672092437744, 1694.8915719985962, 1688.1535053253174, 1784.8955392837524, 1876.5487670898438, 1660.902976989746, 1628.6474466323853, 1673.4906435012817, 1777.0211696624756, 1571.9670057296753, 1592.7085876464844, 1681.4920902252197, 1607.6887845993042, 1745.221495628357, 1705.0923109054565, 1629.3736696243286, 1631.903886795044, 1741.9357299804688, 1693.009853363037, 1656.3454866409302, 1603.3835411071777, 1561.289668083191, 1563.6487007141113, 1649.3844985961914, 1618.0994510650635, 1666.437268257141, 1578.9903402328491, 1799.3967533111572, 1782.9303741455078, 1585.4612588882446, 1685.4331493377686, 1557.424783706665, 1575.7389068603516, 1637.7909183502197, 1690.0149583816528, 1691.426157951355, 1699.8076438903809, 1660.1226329803467, 1688.2244348526, 1562.3053312301636, 1572.2227096557617, 1732.0712804794312, 1727.9155254364014, 1647.7125883102417, 1578.1134366989136, 1605.141520500183, 1589.0382528305054, 1628.5173892974854, 1928.7091493606567, 1653.8758277893066, 1593.098759651184, 1752.576231956482, 1813.066840171814, 1615.4078245162964, 1637.7464532852173, 1766.7230367660522, 1593.045711517334, 1762.3168230056763, 1825.569748878479, 1591.8476581573486, 1740.3650283813477, 1672.6192235946655, 1753.9514303207397, 1820.1261758804321, 1744.5480823516846, 1674.4098663330078, 1606.2984466552734, 1775.9199142456055, 1650.4225730895996, 1598.9723205566406, 1604.8582792282104, 1638.1200551986694, 1671.0964441299438, 1850.3637313842773, 1841.4077758789063, 1818.2346820831299, 1659.6571207046509, 1577.3988962173462, 1559.9864721298218, 1665.551781654358, 1676.0843992233276, 1538.52117061615, 1651.423454284668, 1659.4054698944092, 1585.0540399551392, 1538.534164428711, 1637.471079826355, 1642.4646377563477, 1622.2542524337769, 1655.023694038391, 1717.9160118103027, 1639.4259929656982, 1524.7031450271606, 1714.5116329193115, 1712.937355041504, 1698.7234354019165, 1578.213095664978, 1628.7572383880615, 1742.5642013549805, 1669.6012020111084, 1573.5890865325928, 1671.0264682769775, 1611.722469329834, 1597.1972942352295, 1692.3969984054565, 1544.8625087738037, 1826.9081115722656, 1622.8537559509277, 1604.712724685669, 1576.9799947738647, 1592.6522016525269, 1622.035264968872, 1623.9545345306396, 1573.9564895629883, 1621.8560934066772, 1594.5992469787598, 1620.8902597427368, 1783.1251621246338, 1606.2451601028442],
  "Depth": 16.5,
  "Expectation Value": -7.359375,
  "Optimal Expectation Value": -8.5667724609375,
  "Optimizer durations [ms]": [5969.798, 6114.447, 5978.344, 6001.307, 5807.942, 5949.425, 5867.114, 5989.98, 6045.715, 6266.672, 6427.971, 5855.122, 5815.038, 6084.083, 6028.146, 5839.145, 5716.567, 5827.065, 6155.728, 6053.333, 5877.869, 5825.878, 6187.136, 6119.299, 6260.64, 6001.081, 5967.566, 6036.626, 6273.737, 6066.209, 6269.29, 6057.088, 5821.932, 5803.399, 5998.213, 6036.863, 6104.031, 5813.613, 5926.457, 6241.448, 6003.617, 6191.977, 5658.319, 5725.273, 5903.753, 5882.571, 6034.083, 6193.507, 5560.177, 6063.501, 5550.907, 5746.675, 5792.023, 5973.042, 5963.343, 6105.054, 5791.409, 5616.332, 5819.031, 6107.011, 5811.015, 5771.038, 5990.196, 6207.224, 5848.688, 5771.082, 5869.356, 5986.996, 6013.154, 6223.564, 6099.993, 5707.952, 5728.932, 5818.223, 5723.175, 5886.834, 5900.747, 5562.098, 5788.609, 5865.688, 5798.641, 5619.897, 5865.384, 5883.09, 5857.661, 5752.896, 5981.377, 5804.167, 5790.486, 5878.768, 6382.361, 5794.045, 5793.904, 5819.018, 6143.207, 5820.68, 5839.819, 6131.578, 6052.826, 6281.82, 5960.284, 5905.532, 5976.985, 6008.864, 5962.753, 5926.52, 6187.952, 6093.185, 5815.495, 5957.495, 6167.148, 6217.702, 6251.811, 5975.493, 5633.852, 5884.544, 5824.614, 6035.209, 5852.327, 6060.216, 5898.202, 6110.42, 5744.948, 5857.655, 6049.925, 5811.923, 5659.344, 5838.147, 5884.497, 6036.704, 6142.274, 6102.63, 5626.299, 6312.049, 6313.33, 5846.637, 5745.756, 5714.863, 5768.734, 5651.738, 5962.446, 5595.065, 5823.03, 5929.81, 6029.063, 6295.97, 5679.19, 5733.423, 5736.176, 5869.462, 5961.689, 5781.106, 5949.196, 6072.883, 6045.119, 6055.721, 5839.737, 5917.851, 5598.27, 5871.885, 5836.727, 5897.788, 5857.383, 5836.596, 5959.932, 6143.298, 5876.368, 5740.97, 6093.096, 5720.602, 5937.54, 6093.424, 5928.405, 6611.344, 6478.834, 6183.905, 5958.321, 5824.172, 5976.872, 5941.849, 5880.762, 5909.059, 5859.583, 6273.978, 5584.244, 6129.972, 5864.638, 6089.963, 5707.721, 5842.744, 5638.038, 6120.556, 5844.649, 5785.544, 6079.772, 5757.966, 6005.453, 5705.518, 5899.288, 5907.293, 5912.945, 5733.362, 5822.795, 6188.586, 6015.233, 6031.288, 5996.019, 5906.02, 6108.68, 5711.345, 6337.153, 6100.3, 5657.858, 6158.515, 5920.559, 6115.294, 6166.093, 6153.752, 6188.328, 5876.398, 6158.593, 5976.179, 5799.162, 6142.231, 5808.439, 6108.79, 5918.018, 5987.158, 6029.347, 5901.45, 5856.201, 6050.92, 5864.741, 5940.361, 5889.771, 5805.748, 6270.386, 5911.276, 6110.909, 5787.404, 5964.787, 5913.129, 5800.421, 5734.46, 5856.076, 5922.002, 6059.308, 5911.137, 6239.024, 6183.369, 5795.455, 6300.862, 5719.808, 5828.742, 5884.464, 5682.908, 6267.8, 6330.719, 5973.203, 5799.778, 5967.504, 6387.877, 5657.793, 5729.076, 6211.483, 5663.233, 5966.122, 5873.414, 5997.952, 6312.59, 5842.832, 5925.0, 5929.119, 6041.967, 5844.977, 6096.414, 5695.885, 5860.144, 5768.934, 5815.669, 6184.41, 5904.614, 5750.948, 6216.948, 6193.951, 5771.964, 5760.465, 6371.924, 6342.083, 6153.229, 6564.345, 6165.489, 5789.907, 5794.277, 5975.115, 5953.997, 6088.741, 6200.598, 6103.927, 6093.926, 6135.476, 6083.859, 6483.83, 6089.617, 5902.818, 6344.648, 6173.555, 5805.242, 5808.527, 5863.18, 5816.982, 5991.543, 6077.305, 5908.622, 6014.421, 6247.919, 5973.881, 5812.154, 5815.814, 5749.195, 5810.174, 5820.173, 5712.464, 5981.388, 5982.961, 6279.629, 6211.295, 5689.259, 5810.384, 5825.187, 5814.859, 5995.156, 5942.76, 6023.803, 6076.156, 5926.006, 5970.804, 5642.961, 5956.108, 6002.602, 6354.1, 6000.224, 5890.28, 5921.377, 6037.374, 5803.676, 6590.407, 5808.323, 5903.383, 6243.872, 6332.891, 6038.077, 5968.852, 6186.635, 6042.744, 6073.41, 6742.006, 6207.88, 6441.288, 6058.801, 6548.277, 6595.672, 6062.029, 5873.893, 5850.772, 6074.017, 5998.857, 5799.85, 6125.177, 5855.196, 6198.13, 6356.896, 6262.692, 6453.616, 5943.843, 5906.256, 5828.944, 6017.511, 5940.316, 5768.736, 5817.241, 6203.64, 5806.702, 5949.023, 5698.308, 5947.492, 5719.069, 5817.286, 6147.128, 5847.652, 5632.645, 6038.334, 6236.458, 5951.633, 5736.556, 5722.521, 6007.914, 5917.992, 5702.567, 5909.316, 5764.944, 5801.806, 5856.81, 5640.367, 6448.976, 5818.701, 5714.263, 5712.322, 5895.096, 5911.612, 5811.487, 6126.305, 5920.732, 5946.623, 5888.62, 6154.068, 5796.372],
  "Optimizer iterations": 417,
  "Optimizer params": [0.888440992411285, 0.9738873162528279, 0.5925400756550508, 0.27016590237463484, 0.718086749243047, 0.2510790905241406, 0.7485965688461266, 0.3929857914674992, 0.4357448314174448, 0.693205500295257, 0.5872883113346533, 0.538653416954794, 0.9832511579398534, 0.5230487378561712, 0.9829153604676293, 0.03361426410718071, 0.4691920806001249, 0.009311461686505066, 0.9078729157841297, 0.6581727005497802, 0.6596912092061239, 0.2690024889105691, 0.8366534685553403, 0.7630531671965304, 0.0786884528333839, 0.4982032495605987, 0.9991111919220921, 0.9103085531207205],
  "P": 0,
  "Problem": "IC",
  "QJob durations [ms]": [2947.4626779556274, 3026.6135931015015, 2951.517343521118, 2967.9192304611206, 2876.3328790664673, 2928.977131843567, 2904.61266040802, 2956.187605857849, 2989.8681640625, 3103.618860244751, 3164.549231529236, 2881.664991378784, 2847.7773666381836, 2998.317837715149, 2971.6397523880005, 2885.605812072754, 2828.0872106552124, 2885.1176500320435, 3038.089394569397, 2995.118260383606, 2910.313367843628, 2884.3541145324707, 3060.5612993240356, 3026.926636695862, 3098.823070526123, 2970.3630208969116, 2945.7443952560425, 2962.7768993377686, 3100.1291275024414, 3000.908851623535, 3097.239375114441, 2995.131492614746, 2856.0386896133423, 2871.380567550659, 2964.9168252944946, 2987.7349138259888, 3017.3356533050537, 2860.0770235061646, 2920.415163040161, 3076.038956642151, 2958.9534997940063, 3058.8629245758057, 2789.9316549301147, 2823.5567808151245, 2922.3068952560425, 2904.0170907974243, 2983.8671684265137, 3069.0534114837646, 2752.068877220154, 3001.396059989929, 2747.209906578064, 2842.77081489563, 2865.864396095276, 2956.814169883728, 2952.327609062195, 3020.496129989624, 2866.8986558914185, 2778.8156270980835, 2878.3090114593506, 3006.935238838196, 2872.6850748062134, 2855.981230735779, 2965.8970832824707, 3071.683645248413, 2872.209906578064, 2857.291579246521, 2904.215931892395, 2943.675398826599, 2967.7953720092773, 3078.8828134536743, 3019.5192098617554, 2822.025418281555, 2831.331253051758, 2874.3863105773926, 2829.5772075653076, 2896.832585334778, 2921.1015701293945, 2747.9668855667114, 2863.5181188583374, 2895.1231241226196, 2866.283893585205, 2776.3640880584717, 2895.3864574432373, 2908.7233543395996, 2900.874137878418, 2843.6132669448853, 2942.254066467285, 2871.8641996383667, 2863.34764957428, 2885.56706905365, 3157.4078798294067, 2836.7584943771362, 2857.9955101013184, 2881.0611963272095, 3033.1462621688843, 2874.9303817749023, 2890.1554346084595, 3034.6860885620117, 2994.1189289093018, 3111.3526821136475, 2945.921778678894, 2924.8952865600586, 2960.471034049988, 2970.881938934326, 2944.7546005249023, 2930.8449029922485, 3065.274715423584, 3017.6336765289307, 2878.1856298446655, 2947.0874071121216, 3052.33371257782, 3078.5568952560425, 3092.231273651123, 2930.289626121521, 2783.914566040039, 2907.907247543335, 2883.050799369812, 2987.132430076599, 2874.1180896759033, 3001.6112327575684, 2914.192795753479, 3026.5939235687256, 2821.839690208435, 2896.632432937622, 2994.369864463806, 2875.183939933777, 2801.4731407165527, 2886.1091136932373, 2909.3884229660034, 2984.1827154159546, 3037.154793739319, 3019.1153287887573, 2785.1905822753906, 3119.8302507400513, 3124.0025758743286, 2893.150568008423, 2844.2938327789307, 2826.7472982406616, 2856.4926385879517, 2796.8777418136597, 2926.145076751709, 2758.9306831359863, 2878.6096572875977, 2934.2061281204224, 2985.2770566940308, 3093.8639640808105, 2808.9250326156616, 2835.423707962036, 2833.0832719802856, 2899.1562128067017, 2949.5235681533813, 2858.304738998413, 2940.4399394989014, 3003.695249557495, 2985.8514070510864, 2999.4362592697144, 2881.366729736328, 2923.438787460327, 2770.0165510177612, 2905.3951501846313, 2888.2358074188232, 2915.2752161026, 2896.477222442627, 2879.7285556793213, 2951.723337173462, 3023.298144340515, 2893.986463546753, 2778.6481380462646, 3004.173755645752, 2830.116033554077, 2930.894136428833, 3010.2518796920776, 2911.818265914917, 3271.220922470093, 3199.853539466858, 3027.707576751709, 2944.455862045288, 2859.6417903900146, 2948.6156702041626, 2940.606713294983, 2907.9612493515015, 2920.625329017639, 2887.844681739807, 3072.0510482788086, 2759.954333305359, 3031.3782691955566, 2889.479637145996, 3009.6497535705566, 2823.7656354904175, 2866.0372495651245, 2784.9881649017334, 3026.632308959961, 2889.1977071762085, 2862.187385559082, 2990.948796272278, 2842.8088426589966, 2974.5038747787476, 2815.2732849121094, 2919.9942350387573, 2906.9360494613647, 2895.7594633102417, 2814.882278442383, 2875.8007287979126, 3059.2740774154663, 2970.648407936096, 2979.378819465637, 2963.0861282348633, 2914.642095565796, 3016.398310661316, 2823.211431503296, 3140.6697034835815, 3006.0778856277466, 2798.167824745178, 3047.3978519439697, 2918.8462495803833, 3004.651188850403, 3050.477623939514, 3044.310688972473, 3042.571783065796, 2904.9593210220337, 3034.7825288772583, 2937.7447366714478, 2864.0140295028687, 3023.483633995056, 2871.647000312805, 3021.6572284698486, 2881.346821784973, 2960.1404666900635, 2983.485460281372, 2915.408968925476, 2870.5955743789673, 2986.7501258850098, 2882.446050643921, 2932.458281517029, 2908.876895904541, 2866.8642044067383, 3105.291962623596, 2918.360948562622, 3009.275794029236, 2846.2581634521484, 2946.621894836426, 2924.4399070739746, 2865.7392263412476, 2838.04190158844, 2897.9753255844116, 2915.3380393981934, 2995.0685501098633, 2919.2038774490356, 3069.080710411072, 3063.2344484329224, 2865.4552698135376, 3119.9570894241333, 2825.657367706299, 2867.4800395965576, 2911.8595123291016, 2806.120991706848, 3098.405122756958, 3134.043335914612, 2941.5982961654663, 2863.8490438461304, 2951.6483545303345, 3165.5277013778687, 2799.1822957992554, 2830.744504928589, 3069.6457624435425, 2798.6408472061157, 2952.7677297592163, 2907.0239067077637, 2967.36741065979, 3109.8190546035767, 2892.191767692566, 2933.6421489715576, 2919.7031259536743, 2981.76372051239, 2888.838768005371, 2999.11367893219, 2813.088893890381, 2892.7385807037354, 2827.3221254348755, 2865.66960811615, 3026.8962383270264, 2915.605664253235, 2843.9911603927612, 3073.5024213790894, 3044.5055961608887, 2850.417733192444, 2851.763963699341, 3153.3684730529785, 3117.4933910369873, 3028.849244117737, 3251.706838607788, 3044.3166494369507, 2859.4573736190796, 2865.7158613204956, 2943.580746650696, 2943.3207511901855, 3012.9802227020264, 3057.9482316970825, 2998.350501060486, 2994.1630363464355, 3031.213164329529, 3007.86030292511, 3192.1573877334595, 3013.2994651794434, 2918.6211824417114, 3126.7961263656616, 3050.524592399597, 2845.516085624695, 2873.3692169189453, 2902.904152870178, 2879.1396617889404, 2966.3668870925903, 3006.1413049697876, 2921.370029449463, 2974.9878644943237, 3092.167019844055, 2958.558440208435, 2873.321771621704, 2875.2397298812866, 2842.3898220062256, 2876.962900161743, 2880.430579185486, 2824.761986732483, 2959.6753120422363, 2961.9014263153076, 3109.6410751342773, 3078.1556367874146, 2812.7875328063965, 2873.6883401870728, 2843.4795141220093, 2876.7037391662598, 2960.5467319488525, 2942.599654197693, 2980.8660745620728, 2988.649606704712, 2928.6943674087524, 2956.36248588562, 2789.0686988830566, 2946.011185646057, 2957.470655441284, 3146.071672439575, 2969.7508811950684, 2916.8007373809814, 2924.5405197143555, 2957.8142166137695, 2861.990213394165, 3245.9369897842407, 2870.6493377685547, 2909.7992181777954, 3085.232973098755, 3126.5361309051514, 2973.2425212860107, 2952.865481376648, 3037.908673286438, 2983.6642742156982, 3005.8659315109253, 3299.991488456726, 3042.818069458008, 3179.499626159668, 2986.502170562744, 3226.018786430359, 3243.3717250823975, 2999.6895790100098, 2905.7410955429077, 2891.294240951538, 3004.512667655945, 2959.811568260193, 2852.7255058288574, 3029.4066667556763, 2897.7153301239014, 3060.285806655884, 3125.919818878174, 3098.8086462020874, 3189.534068107605, 2943.203926086426, 2900.4138708114624, 2875.262975692749, 2971.5033769607544, 2929.64768409729, 2843.7323570251465, 2875.2092123031616, 3065.9793615341187, 2869.5074319839478, 2918.063759803772, 2818.2034492492676, 2946.0633993148804, 2812.67511844635, 2874.8369216918945, 3014.3001079559326, 2889.773726463318, 2788.7269258499146, 2990.014672279358, 3085.4333639144897, 2944.8190927505493, 2831.796646118164, 2827.896475791931, 2956.660747528076, 2930.4282665252686, 2817.859649658203, 2919.7895526885986, 2850.9368896484375, 2857.70583152771, 2897.225022315979, 2787.037968635559, 3171.8724966049194, 2876.9675493240356, 2822.7505683898926, 2824.0084648132324, 2911.6886854171753, 2920.9243059158325, 2857.1683168411255, 3033.169984817505, 2929.470419883728, 2944.252610206604, 2915.5088663101196, 3031.0264825820923, 2862.1299266815186],
  "QPU": "6010030",
  "Qubits": 7,
  "Shots": 4096,
  "Size": 7,
  "Total Algorithm duration [s]": 2486.626,
  "Total Classic duration [s]": 1258.717702103615,
  "Total Quantum duration [s]": 1227.9082978963852
}
