{
  "Circuit execution durations [ms]": [9.401082992553711, 9.769678115844727, 9.77945327758789, 9.863138198852539, 9.560346603393555, 9.638071060180664, 9.494304656982422, 9.639501571655273, 9.835958480834961, 9.849309921264648, 9.48643684387207, 9.823322296142578, 9.509563446044922, 9.431123733520508, 9.735345840454102, 9.729623794555664, 9.691715240478516, 9.656429290771484, 9.969472885131836, 9.572029113769531, 9.64045524597168, 9.717941284179688, 9.896993637084961, 9.602069854736328, 9.830236434936523, 9.622335433959961, 9.598493576049805, 9.827852249145508, 9.803056716918945, 9.644746780395508, 9.947061538696289, 9.905815124511719, 9.802103042602539, 9.774446487426758, 9.81903076171875, 9.68170166015625, 9.797811508178711, 9.628534317016602, 9.639739990234375, 9.598016738891602, 9.711742401123047, 9.677648544311523, 9.704828262329102, 9.570598602294922, 9.684324264526367, 9.673357009887695, 9.796619415283203, 9.692907333374023, 9.840011596679688, 9.872674942016602, 9.591102600097656, 9.582757949829102, 9.81283187866211, 9.646415710449219, 9.705781936645508, 9.842872619628906, 9.658575057983398, 9.72604751586914, 9.701251983642578, 9.683609008789063, 9.85264778137207, 9.995698928833008, 9.578466415405273, 9.937763214111328, 9.989023208618164, 9.75656509399414, 9.811162948608398, 9.676933288574219, 9.563207626342773, 9.81593132019043, 9.810686111450195, 9.924650192260742, 9.828329086303711, 9.737253189086914, 9.884357452392578, 9.514331817626953, 9.89532470703125, 9.459972381591797, 9.633302688598633, 10.099649429321289, 9.77778434753418, 9.571313858032227, 9.967327117919922, 9.626388549804688, 9.83428955078125, 9.77945327758789, 9.882926940917969, 10.008096694946289, 9.763479232788086, 9.875059127807617, 9.73367691040039, 9.775876998901367, 9.632110595703125, 9.866714477539063, 9.571313858032227, 9.703874588012695, 9.795427322387695, 9.575366973876953, 9.966373443603516, 9.85860824584961, 9.658098220825195, 9.88459587097168, 9.712696075439453, 9.48786735534668, 9.65118408203125, 9.844064712524414, 9.56416130065918, 9.638071060180664, 9.60540771484375, 9.908676147460938, 9.671211242675781, 9.991645812988281, 9.864091873168945, 9.581804275512695, 9.60230827331543],
  "Depth": 167.0,
  "Expectation Value": -1.843017578125,
  "Optimal Expectation Value": -3.0,
  "Optimizer durations [ms]": [331.233, 247.675, 247.4, 248.528, 328.238, 247.324, 246.397, 326.797, 246.947, 247.215, 328.841, 247.513, 246.28, 247.595, 330.736, 247.391, 247.319, 329.797, 247.499, 247.393, 328.324, 247.715, 246.997, 246.662, 329.06, 247.999, 246.598, 329.61, 247.492, 246.24, 328.728, 247.353, 246.88, 247.229, 328.299, 247.341, 247.795, 329.392, 246.747, 246.979, 328.351, 246.973, 247.09, 246.62, 330.449, 247.022, 247.118, 329.892, 247.223, 247.016, 329.688, 247.775, 246.532, 246.575, 328.732, 247.358, 246.455, 329.894, 247.241, 246.847, 328.535, 247.715, 246.644, 247.404, 328.499, 247.48, 246.849, 329.215, 246.908, 247.143, 327.988, 246.81, 247.126, 247.646, 328.616, 247.514, 247.791, 330.091, 247.02, 247.195, 329.045, 246.92, 247.081, 245.84, 329.047, 247.268, 246.858, 329.91, 247.924, 246.8, 328.999, 247.368, 246.748, 247.499, 328.288, 246.651, 247.025, 329.228, 248.601, 248.738, 328.25, 247.422, 247.795, 248.167, 328.735, 247.223, 247.429, 329.167, 248.397, 247.26, 328.271, 247.264, 246.791, 246.163, 328.367],
  "Optimizer iterations": 115,
  "Optimizer params": [0.9129039100014081, 0.5426296227726767, 0.4256527566885339, 0.6095482087788885, 0.6364145330708884, 0.6363384777844046],
  "P": 3,
  "Problem": "DSP",
  "QJob durations [ms]": [265.8071517944336, 182.13820457458496, 181.57482147216797, 182.53445625305176, 181.64682388305664, 181.84781074523926, 181.3831329345703, 181.8411350250244, 181.6999912261963, 182.19852447509766, 263.90886306762695, 182.30915069580078, 181.10299110412598, 182.0530891418457, 182.33156204223633, 181.85067176818848, 181.78343772888184, 181.78629875183105, 182.3592185974121, 181.5469264984131, 263.2782459259033, 182.51967430114746, 181.35404586791992, 181.21600151062012, 182.2803020477295, 182.36351013183594, 181.3797950744629, 182.2490692138672, 182.0223331451416, 181.107759475708, 263.05699348449707, 182.19923973083496, 181.5950870513916, 181.7317008972168, 182.08003044128418, 182.16800689697266, 182.21640586853027, 181.64706230163574, 181.66470527648926, 181.57172203063965, 262.9570960998535, 181.83422088623047, 181.7026138305664, 180.99737167358398, 181.84208869934082, 181.4556121826172, 181.75435066223145, 181.5659999847412, 182.28840827941895, 181.8087100982666, 263.97037506103516, 181.8411350250244, 181.22529983520508, 181.26201629638672, 181.94246292114258, 181.70499801635742, 181.19335174560547, 182.42430686950684, 181.9617748260498, 181.32615089416504, 263.3228302001953, 182.22546577453613, 181.427001953125, 181.9593906402588, 182.06405639648438, 181.7777156829834, 181.15568161010742, 181.8540096282959, 181.81347846984863, 181.6854476928711, 262.5148296356201, 181.54072761535645, 181.8077564239502, 182.35373497009277, 182.0201873779297, 181.98060989379883, 182.1882724761963, 181.74362182617188, 181.74266815185547, 181.55407905578613, 263.8230323791504, 181.70499801635742, 181.53023719787598, 180.77635765075684, 182.2066307067871, 181.87451362609863, 181.67781829833984, 182.05666542053223, 182.59692192077637, 181.30922317504883, 263.6442184448242, 182.09290504455566, 181.47873878479004, 182.02686309814453, 181.72001838684082, 181.09893798828125, 181.56719207763672, 181.5958023071289, 183.5622787475586, 183.3667755126953, 262.9740238189697, 182.38115310668945, 182.11913108825684, 182.3887825012207, 182.31987953186035, 182.21211433410645, 181.81824684143066, 181.24771118164063, 182.90185928344727, 181.8673610687256, 263.00883293151855, 182.2340488433838, 181.4579963684082, 181.0307502746582, 181.60653114318848],
  "QPU": "3010008",
  "Qubits": 7,
  "Queue durations [ms]": [0.0, 0.0, 0.0, 0.0, 0.0, 0.0, 0.0, 0.0, 0.0, 0.0, 0.0, 0.0, 0.0, 0.0, 0.0, 0.0, 0.0, 0.0, 0.0, 0.0, 0.0, 0.0, 0.0, 0.0, 0.0, 0.0, 0.0, 0.0, 0.0, 0.0, 0.0, 0.0, 0.0, 0.0, 0.0, 0.0, 0.0, 0.0, 0.0, 0.0, 0.0, 0.0, 0.0, 0.0, 0.0, 0.0, 0.0, 0.0, 0.0, 0.0, 0.0, 0.0, 0.0, 0.0, 0.0, 0.0, 0.0, 0.0, 0.0, 0.0, 0.0, 0.0, 0.0, 0.0, 0.0, 0.0, 0.0, 0.0, 0.0, 0.0, 0.0, 0.0, 0.0, 0.0, 0.0, 0.0, 0.0, 0.0, 0.0, 0.0, 0.0, 0.0, 0.0, 0.0, 0.0, 0.0, 0.0, 0.0, 0.0, 0.0, 0.0, 0.0, 0.0, 0.0, 0.0, 0.0, 0.0, 0.0, 0.0, 0.0, 0.0, 0.0, 0.0, 0.0, 0.0, 0.0, 0.0, 0.0, 0.0, 0.0, 0.0, 0.0, 0.0, 0.0, 0.0],
  "Shots": 4096,
  "Size": 4,
  "Total Algorithm duration [s]": 31.293,
  "Total Classic duration [s]": 9.400525587081908,
  "Total Quantum duration [s]": 21.89247441291809
}
