{
  "Depth": 2.0,
  "Job durations [ms]": [0.08139999772538431, 0.22275000446825288, 0.07729999924777076, 0.07420000110869296, 0.07404999996651895, 0.0761500014050398, 0.08114999945973977, 0.11209999865968712, 0.07714999810559675, 0.07990000085555948, 0.07589999950141646, 0.0790999984019436, 0.07329999789362773, 0.11024999912478961, 0.0795499981904868, 0.08164999962900765, 0.07414999708998948, 0.07695000022067688, 0.08440000237897038, 0.08494999929098412, 0.07794999692123383, 0.07625000216648914],
  "Optimizer durations [ms]": [2.595, 5.515, 2.63, 2.49, 3.089, 3.015, 2.655, 3.282, 2.462, 2.688, 2.533, 2.965, 2.479, 3.303, 2.566, 2.564, 2.447, 2.449, 2.801, 3.659, 2.49, 2.461],
  "Optimizer iterations": 22,
  "Qubits": 2,
  "Total Algorithm duration [s]": 0.063,
  "Total Classic duration [s]": 0.06106945000818814,
  "Total Quantum duration [s]": 0.0019305499918118585,
  "Expectation Value": -1.4114999771118164,
  "Optimal Expectation Value": -1.4114999771118164,
  "Optimizer params": [1.0, 0.5009344868654901],
  "QPU": "7000000",
  "Problem": "RH",
  "Size": 2,
  "P": 0,
  "Shots": 4096
}