{
  "Circuit execution durations [ms]": [32.04822540283203, 37.441253662109375, 38.24329376220703, 32.29665756225586, 32.15742111206055, 33.803701400756836, 32.74703025817871, 31.90445899963379, 32.02247619628906, 32.190561294555664, 31.988143920898438, 31.8906307220459, 31.978130340576172, 32.346487045288086, 31.980037689208984, 32.29713439941406, 31.949520111083984, 32.81831741333008, 31.90755844116211, 32.009124755859375, 32.109975814819336, 34.23333168029785, 32.405853271484375, 32.01413154602051, 31.733989715576172, 32.07278251647949, 43.45822334289551, 32.137393951416016, 34.25264358520508, 40.50946235656738, 32.05370903015137, 31.435012817382813, 32.29379653930664, 32.02652931213379, 60.00113487243652, 32.96923637390137, 32.16242790222168, 32.686710357666016, 35.90035438537598, 31.83746337890625, 32.004356384277344, 37.16564178466797, 34.60121154785156, 31.8753719329834, 77.94547080993652, 108.95705223083496, 921.351432800293, 706.9299221038818, 32.95469284057617, 195.98150253295898, 74.18704032897949, 214.48445320129395, 880.291223526001, 403.8124084472656, 407.01794624328613, 31.839370727539063, 35.0651741027832, 32.39130973815918, 32.08041191101074, 31.77666664123535, 32.49764442443848, 31.8450927734375, 32.08017349243164, 32.196044921875, 31.749486923217773, 32.485246658325195, 32.007694244384766, 32.120704650878906, 32.33480453491211, 32.83429145812988, 32.714128494262695, 32.74416923522949, 32.12404251098633, 32.62186050415039, 32.43398666381836, 32.765865325927734, 32.15479850769043, 32.6840877532959, 32.373666763305664, 31.835317611694336, 32.076358795166016, 32.00411796569824, 32.41610527038574, 31.687498092651367, 32.29951858520508, 32.274723052978516, 32.88626670837402, 31.719207763671875, 31.989336013793945, 32.206058502197266, 31.908035278320313, 32.00578689575195, 31.889677047729492, 32.81116485595703, 32.52744674682617, 32.12428092956543, 32.067298889160156, 31.95333480834961, 31.580209732055664, 32.243967056274414, 39.66546058654785, 32.34982490539551, 32.18483924865723, 33.40625762939453, 32.06014633178711, 31.73995018005371, 32.07826614379883, 32.37175941467285, 32.05442428588867, 32.07039833068848, 32.062530517578125, 32.49382972717285, 31.618833541870117],
  "Depth": 758.0,
  "Expectation Value": -5.05517578125,
  "Optimal Expectation Value": -8.0,
  "Optimizer durations [ms]": [633.245, 725.034, 720.431, 717.148, 719.765, 722.461, 632.542, 719.201, 712.197, 716.029, 717.156, 717.101, 721.043, 721.503, 633.478, 718.223, 712.027, 713.276, 717.858, 718.373, 719.944, 636.496, 717.293, 710.549, 711.142, 712.951, 725.132, 716.713, 719.035, 728.151, 722.715, 632.899, 745.307, 716.861, 742.998, 719.768, 721.728, 721.984, 651.925, 725.532, 713.235, 722.051, 722.848, 756.854, 852.399, 809.71, 1618.911, 1416.518, 647.847, 966.563, 771.22, 948.377, 1576.905, 1098.754, 1099.771, 635.125, 722.25, 718.899, 712.751, 714.853, 716.709, 717.908, 721.128, 634.239, 718.097, 711.062, 713.186, 719.092, 721.352, 729.08, 720.817, 637.931, 717.052, 711.992, 722.58, 723.473, 720.738, 722.853, 726.149, 638.363, 720.306, 718.288, 718.775, 721.12, 725.281, 727.672, 639.696, 721.498, 715.624, 715.54, 719.221, 719.675, 724.772, 725.643, 633.605, 720.901, 710.899, 716.179, 719.405, 722.439, 728.389, 632.732, 718.587, 712.647, 712.124, 716.326, 719.046, 719.418, 721.856, 633.13, 719.822, 713.23, 717.426],
  "Optimizer iterations": 113,
  "Optimizer params": [0.20554099627597008, 0.9914724419095416, 0.961462487805131, 0.849777641711709, 0.08324399343588694, 0.7008034772395288],
  "P": 3,
  "Problem": "DSP",
  "QJob durations [ms]": [475.6815433502197, 480.694055557251, 482.590913772583, 476.76634788513184, 478.085994720459, 565.2308464050293, 475.59309005737305, 475.1477241516113, 474.64704513549805, 476.5443801879883, 476.0165214538574, 475.94189643859863, 564.267635345459, 565.0534629821777, 476.1645793914795, 476.2382507324219, 476.23252868652344, 475.98862648010254, 475.7421016693115, 477.12111473083496, 562.3514652252197, 479.7224998474121, 475.32200813293457, 475.8729934692383, 475.4471778869629, 475.48556327819824, 486.2663745880127, 475.4014015197754, 478.2137870788574, 571.4187622070313, 565.9763813018799, 475.5852222442627, 502.673864364624, 479.1393280029297, 503.9689540863037, 478.0738353729248, 478.73878479003906, 564.011812210083, 494.0938949584961, 479.5546531677246, 475.6929874420166, 484.2956066131592, 483.81519317626953, 510.85662841796875, 609.1756820678711, 556.9751262664795, 1460.1759910583496, 1252.3200511932373, 485.78786849975586, 650.6147384643555, 520.4448699951172, 700.8559703826904, 1331.0842514038086, 854.3539047241211, 854.435920715332, 476.0098457336426, 481.48417472839355, 475.0232696533203, 476.35531425476074, 476.86123847961426, 476.32622718811035, 477.04219818115234, 564.237117767334, 476.4220714569092, 474.4839668273926, 476.1950969696045, 475.6937026977539, 478.60050201416016, 478.82866859436035, 571.3605880737305, 564.464807510376, 479.9017906188965, 474.2765426635742, 474.3969440460205, 483.4873676300049, 482.94734954833984, 478.8830280303955, 480.1149368286133, 569.007396697998, 481.10008239746094, 477.10514068603516, 479.755163192749, 477.0548343658447, 478.5945415496826, 567.5368309020996, 570.3237056732178, 482.64241218566895, 476.37057304382324, 478.8684844970703, 477.3402214050293, 478.0101776123047, 478.73425483703613, 482.0747375488281, 568.2740211486816, 476.8202304840088, 477.4010181427002, 474.23481941223145, 475.1300811767578, 477.30159759521484, 565.8957958221436, 571.4008808135986, 476.5198230743408, 475.28886795043945, 476.837158203125, 474.1823673248291, 476.4528274536133, 478.0886173248291, 476.70722007751465, 564.4519329071045, 476.179838180542, 475.9209156036377, 476.1652946472168, 476.72390937805176],
  "QPU": "3010008",
  "Qubits": 15,
  "Queue durations [ms]": [0.0, 0.0, 0.0, 0.0, 0.0, 0.0, 0.0, 0.0, 0.0, 0.0, 0.0, 0.0, 0.0, 0.0, 0.0, 0.0, 0.0, 0.0, 0.0, 0.0, 0.0, 0.0, 0.0, 0.0, 0.0, 0.0, 0.0, 0.0, 0.0, 0.0, 0.0, 0.0, 0.0, 0.0, 0.0, 0.0, 0.0, 0.0, 0.0, 0.0, 0.0, 0.0, 0.0, 0.0, 0.0, 0.0, 0.0, 0.0, 0.0, 0.0, 0.0, 0.0, 0.0, 0.0, 0.0, 0.0, 0.0, 0.0, 0.0, 0.0, 0.0, 0.0, 0.0, 0.0, 0.0, 0.0, 0.0, 0.0, 0.0, 0.0, 0.0, 0.0, 0.0, 0.0, 0.0, 0.0, 0.0, 0.0, 0.0, 0.0, 0.0, 0.0, 0.0, 0.0, 0.0, 0.0, 0.0, 0.0, 0.0, 0.0, 0.0, 0.0, 0.0, 0.0, 0.0, 0.0, 0.0, 0.0, 0.0, 0.0, 0.0, 0.0, 0.0, 0.0, 0.0, 0.0, 0.0, 0.0, 0.0, 0.0, 0.0, 0.0, 0.0],
  "Shots": 4096,
  "Size": 10,
  "Total Algorithm duration [s]": 84.078,
  "Total Classic duration [s]": 24.47215526390076,
  "Total Quantum duration [s]": 59.60584473609924
}
