{
  "Circuit execution durations [ms]": [19.334971000000003, 14.828928000000001, 39.925456000000004, 40.146486, 19.226489000000004, 14.891593000000002, 19.531277, 19.432952, 19.322963, 19.312077000000002, 20.913132, 19.524208, 20.310476, 19.840415, 19.756298, 19.48577, 14.832011000000001, 19.64076, 16.029735, 40.531338, 19.239195000000002, 20.106356, 15.069877, 19.459011, 19.977343, 20.738946000000002, 29.379204, 19.48677, 14.997685, 19.683151000000002, 40.193168, 19.658515, 19.625487, 15.133903, 39.973176, 19.523004, 40.506884, 19.563165, 40.618396000000004, 40.552384, 19.611014, 15.132606000000001, 20.284207000000002, 19.680102, 20.879126000000003, 14.976134, 19.7128, 40.719185, 19.913669000000002, 31.278605000000002, 19.746261, 19.411861000000002, 15.754793, 41.297449, 19.265836, 19.60015, 40.954086000000004, 15.022642000000001, 20.056186, 19.590377000000004, 19.613195, 19.841409000000002, 19.466334000000003, 35.519702, 40.192653, 14.880129, 29.677667, 19.502730000000003, 40.258945000000004, 19.672776000000002, 15.189456, 19.223804, 14.880743, 40.795227000000004, 19.248481, 19.688662000000004, 19.611324000000003, 19.165488, 19.619146, 19.63542, 19.508748000000004, 14.909676000000001, 19.63327, 19.748993000000002, 42.859276, 40.476406, 28.981305000000003, 17.016667, 19.604331000000002, 19.973471, 20.121074000000004, 19.568615, 19.297241, 19.520266000000003, 39.358987000000006, 23.333486, 30.563558, 19.215928, 30.364959, 40.412245, 15.042328000000001, 40.275033, 39.916632, 19.999684, 30.389618, 16.594126],
  "Depth": 401.0,
  "Expectation Value": -1.92041015625,
  "Optimal Expectation Value": -2.0,
  "Optimizer durations [ms]": [21199.253, 8578.394, 8965.215, 6217.567, 7263.945, 6865.808, 129701.038, 10820.904, 8865.499, 8270.847, 7405.435, 6255.285, 8144.491, 6533.259, 6826.805, 7333.755, 10842.732, 7550.672, 6369.958, 6581.089, 7187.856, 7613.871, 8122.114, 7688.465, 7340.268, 7810.736, 61499.054, 7214.491, 7428.284, 6797.802, 61118.445, 7263.888, 7417.297, 7148.439, 7757.512, 7179.045, 7386.495, 7299.78, 7008.984, 89256.338, 6779.192, 8199.419, 7499.973, 6832.625, 7306.586, 7386.55, 8134.171, 70943.887, 7270.8, 8200.69, 7180.488, 7772.404, 7900.147, 6692.004, 6988.272, 7225.068, 7709.307, 6909.415, 8211.522, 8091.083, 8051.228, 25356.825, 7116.81, 6895.054, 6925.069, 7139.62, 7899.971, 7788.773, 72094.292, 12231.658, 7131.594, 10208.318, 8272.21, 8168.39, 7986.902, 6753.25, 6929.2, 60269.786, 7323.366, 6964.497, 7245.818, 6794.924, 7040.073, 6648.255, 69677.631, 7447.98, 10147.9, 69812.509, 68641.479, 6842.073, 7373.518, 7055.035, 65845.175, 7132.561, 7248.951, 14112.404, 7901.903, 15095.663, 8244.833, 7553.873, 8228.551, 43036.279, 7316.919, 7112.617, 7719.778, 7193.982],
  "Optimizer iterations": 106,
  "Optimizer params": [0.6838167215178822, 0.2574324072479879, 0.8013086884757336, 0.8415049603128456, 0.5446314456416148, 0.30799666892385347],
  "P": 3,
  "Problem": "MIS",
  "QJob durations [ms]": [20967.187881469727, 8462.87226676941, 8739.139318466187, 6100.766181945801, 7143.385648727417, 6742.965459823608, 129581.98428153992, 10702.968835830688, 8747.592449188232, 8044.170379638672, 7284.74760055542, 6020.194292068481, 8030.614376068115, 6291.264057159424, 6710.603475570679, 7100.510835647583, 10725.242853164673, 7323.476552963257, 6255.55682182312, 6346.907138824463, 7069.659471511841, 7378.612518310547, 8003.016948699951, 7569.949150085449, 7223.949909210205, 7689.795732498169, 61383.76998901367, 7094.043254852295, 7188.426494598389, 6681.216716766357, 60896.00586891174, 7147.75824546814, 7198.975563049316, 7030.315160751343, 7537.614107131958, 7063.1422996521, 7148.568868637085, 7185.566663742065, 6772.193193435669, 89136.0330581665, 6554.073333740234, 8080.91139793396, 7259.91415977478, 6713.788986206055, 7072.4756717681885, 7271.730899810791, 7893.863677978516, 70823.7054347992, 7038.544654846191, 8083.9948654174805, 6943.700075149536, 7653.5303592681885, 7666.029214859009, 6573.01926612854, 6753.559827804565, 7105.926036834717, 7471.275091171265, 6795.05729675293, 7977.981805801392, 7972.481727600098, 7815.2711391448975, 25235.3413105011, 6883.172988891602, 6776.079416275024, 6679.4397830963135, 7021.354198455811, 7680.230140686035, 7669.70682144165, 71857.44833946228, 12114.027976989746, 6902.131080627441, 10086.774826049805, 8043.762445449829, 8046.93341255188, 7752.718448638916, 6635.112524032593, 6701.795816421509, 60149.09052848816, 7091.303586959839, 6845.353603363037, 7008.5129737854, 6671.456098556519, 6802.293539047241, 6524.907350540161, 69454.89454269409, 7334.797143936157, 9914.391040802002, 69692.26670265198, 68407.7742099762, 6702.94976234436, 7132.939577102661, 6935.557842254639, 65608.70885848999, 7014.254093170166, 7019.45686340332, 13991.560220718384, 7665.445566177368, 14981.760740280151, 8013.085126876831, 7428.756237030029, 7987.239837646484, 42918.23863983154, 7091.40682220459, 6987.876892089844, 7485.458135604858, 7077.389478683472],
  "QPU": "4010001",
  "Qubits": 10,
  "Queue durations [ms]": [14484.0, 2472.0, 2023.0000000000002, 697.0, 675.0, 747.0, 62085.0, 4108.0, 1678.0, 2215.0, 1226.0, 1029.0, 1313.0, 824.0, 832.0, 808.0, 4464.0, 1376.0, 616.0, 736.0, 801.0, 1035.0, 941.0, 1037.0, 1882.0, 1187.0, 54596.0, 1127.0, 843.0, 759.0, 55189.0, 970.0, 798.0, 686.0, 1052.0, 777.0, 903.0, 1032.0, 847.0, 55705.0, 888.0, 1934.0, 744.0, 822.0, 1115.0, 1442.0, 789.0, 63137.0, 728.0, 2138.0, 873.0, 895.0, 1756.0, 839.0, 770.0, 1228.0, 869.0, 876.0, 2024.0, 739.0, 625.0, 4653.0, 1098.0, 979.0, 799.0, 1255.0, 1772.0, 2039.0000000000002, 1991.0, 690.0, 720.0, 2084.0, 861.0, 782.0, 992.0, 1016.0, 748.0, 53922.0, 949.0, 981.0, 986.0, 1002.0, 1748.0, 863.0, 1848.0, 848.0, 4000.0, 974.0, 61926.0, 1020.0, 894.0, 1020.9999999999999, 54417.0, 805.0, 774.0, 2692.0, 1036.0, 8767.0, 1216.0, 752.0, 2214.0, 1107.0, 1038.0, 748.0, 1689.0, 1066.0],
  "Shots": 4096,
  "Size": 7,
  "Total Algorithm duration [s]": 1621.342,
  "Total Classic duration [s]": 18.075245611190894,
  "Total Quantum duration [s]": 1603.2667543888092
}
