{
  "Circuit execution durations [ms]": [0.37740000698249787, 0.36234999424777925, 0.3617000038502738, 0.35195000236853957, 0.35244999162387103, 0.36014999204780906, 0.3683499962789938, 0.3551499976310879, 0.3569999971659854, 0.3549499961081892, 0.421949996962212, 0.375300005543977, 0.3567500098142773, 0.41489998693577945, 0.3503499901853502, 0.35709999792743474, 0.35679999564308673, 0.36284999805502594, 0.3515499993227422, 0.35459999344311655, 0.367450003977865, 0.3512499970383942, 0.35230000503361225, 0.3480500017758459, 0.3521000035107136, 0.3575000009732321, 0.3631999861681834, 0.3607500111684203, 0.3541999903973192, 0.371750007616356, 0.374399998690933, 0.3511499962769449, 0.3513999981805682, 0.3553499991539866, 0.36094999813940376, 0.35354999999981374, 0.3527999942889437, 0.3585499944165349, 0.3579500043997541, 0.3536000003805384, 0.3556500014383346, 0.3521000035107136, 0.3498500009300187, 0.3587499959394336, 0.3657999914139509, 0.36125000042375177, 0.3515499993227422, 0.35539999953471124, 0.35635000676847994, 0.3578000032575801, 0.36499999987427145, 0.35054999170824885, 0.3559500037226826, 0.38649998896289617, 0.34995000169146806, 0.36475001252256334, 0.35615000524558127, 0.3524999920045957, 0.3802999999606982, 0.35119999665766954, 0.39289999403990805, 0.5154500104254112, 0.48899998364504427, 0.35400000342633575, 0.36195000575389713, 0.3528500092215836, 0.3684999974211678, 0.3539999888744205, 0.35694999678526074, 0.371300004189834, 0.35620000562630594, 0.3598999901441857, 0.3522000042721629, 0.3578999894671142, 0.3651000006357208, 0.35230000503361225, 0.3634999884525314, 0.36965000617783517, 0.3546499938238412, 0.3560499899322167, 0.35524999839253724, 0.35134999779984355, 0.34350001078564674, 0.3504000051179901, 0.35864999517798424, 0.35000000207219273, 0.34884999331552535, 0.36264999653212726, 0.3548499953467399, 0.3555000002961606, 0.36014999204780906, 0.3489500086288899, 0.3615000023273751, 0.34840000444091856, 0.35489999572746456, 0.34655000490602106, 0.3513000119710341, 0.3485000052023679, 0.3634000022429973, 0.3547999949660152, 0.3612000000430271, 0.3497500001685694, 0.38440000207629055, 0.34654999035410583, 0.35585000296123326, 0.35679999564308673, 0.35504999686963856, 0.35259999276604503, 0.3555000002961606, 0.3512999974191189, 0.3576500021154061, 0.35940000088885427, 0.35850000858772546, 0.3598000039346516, 0.35215000389143825, 0.35450000723358244, 0.3467499918770045, 0.35790000401902944, 0.35930000012740493, 0.3684499970404431, 0.35709999792743474, 0.35000000207219273, 0.3598500043153763, 0.35584998840931803, 0.3551500121830031, 0.34779999987222254, 0.36410000757314265, 0.3656999906525016, 0.3552000125637278, 0.3641500079538673, 0.35880001087207347, 0.3680499939946458, 0.36959999124519527, 0.35185000160709023, 0.4063499945914373, 0.3560999903129414, 0.3495499986456707, 0.35679999564308673, 0.3624499950092286, 0.3525000065565109, 0.3522000042721629, 0.36249999538995326, 0.35755000135395676, 0.3509499947540462, 0.35239999124314636, 0.3603999939514324, 0.3506499924696982, 0.3556500014383346, 0.3563000063877553, 0.35110001044813544, 0.35615000524558127, 0.3829000052064657, 0.34855000558309257, 0.3551499976310879, 0.35165000008419156, 0.3566499945009127, 0.3502000035950914, 0.34574999881442636, 0.35339999885763973, 0.3561000048648566, 0.36204999196343124, 0.35709999792743474, 0.34995000169146806, 0.35850000858772546, 0.3691000019898638, 0.3620000061346218, 0.3570499975467101, 0.3558000025805086, 0.3608499973779544, 0.35289999505039304, 0.35334999847691506, 0.3551499976310879, 0.3630999999586493, 0.3583499928936362, 0.35605000448413193, 0.34845000482164323, 0.35945000126957893, 0.35480000951793045, 0.3542000049492344, 0.3664499963633716, 0.35770000249613076, 0.37039999733678997, 0.35539999953471124, 0.4061499930685386, 0.35394998849369586, 0.5341999931260943, 0.36619999445974827, 0.34744999720714986, 0.4315999976824969, 0.35650000791065395, 0.418550000176765, 0.35694999678526074, 0.3536500007612631, 0.35894999746233225, 0.36345000262372196, 0.47840000479482114, 0.3545499930623919, 0.3998500033048913, 0.36040000850334764, 0.4795499989995733, 0.38085000414866954, 0.3495499986456707, 0.3598000039346516, 0.36759999056812376, 0.35850000858772546, 0.40084999636746943, 0.35679999564308673, 0.32604999432805926, 0.3562499914551154, 0.35415000456850976, 0.36330000148154795, 0.38235000101849437, 0.4046499961987138, 0.3520500031299889, 0.36615000863093883, 0.3583499928936362, 0.35445000685285777, 0.3645999968284741, 0.34845000482164323, 0.3602499928092584, 0.37009999505244195, 0.3597999893827364, 0.3584000078262761, 0.3538999881129712, 0.35659999412018806, 0.3615500027080998, 0.3703499969560653, 0.3578999894671142, 0.35849999403581023, 0.3767500020330772, 0.3520500031299889, 0.3515999997034669, 0.3580999909900129, 0.34980000054929405, 0.34839998988900334, 0.3522500046528876, 0.3513000119710341, 0.3504999913275242, 0.3556000010576099, 0.3546000079950318, 0.36854999780189246, 0.3581500059226528, 0.34914999559987336, 0.3556000010576099, 0.41710000368766487, 0.3583999932743609, 0.35195000236853957, 0.4200499824946746, 0.35429999115876853, 0.36175000423099846, 0.3542000049492344, 0.35259999276604503, 0.35659999412018806, 0.35509999725036323, 0.36094999813940376, 0.3612000000430271, 0.3548499953467399, 0.35524999839253724, 0.35334999847691506, 0.3565499937394634, 0.3597000031732023, 0.35650000791065395, 0.3616500034695491, 0.3546999942045659, 0.3526499931467697, 0.3553499991539866, 0.35770000249613076, 0.35295000998303294, 0.35865000972989947, 0.38610000046901405, 0.35025000397581607, 0.3609000123105943, 0.3555000002961606, 0.35644999297801405, 0.35740000021178275, 0.35209998895879835, 0.3532499977154657, 0.3523499908624217, 0.35605000448413193, 0.3651000006357208, 0.3588999970816076, 0.3588999970816076, 0.35814999137073755, 0.3532499977154657, 0.35134999779984355, 0.3554499999154359, 0.37519999023061246, 0.35694999678526074, 0.36654999712482095, 0.35740000021178275, 0.35629999183584005, 0.3478500002529472, 0.3582499921321869, 0.36539998836815357, 0.36064999585505575, 0.35924999974668026, 0.5661500181304291, 0.4228000034345314, 0.3597000031732023, 0.3672500024549663, 0.35659999412018806, 0.36434999492485076, 0.35849999403581023, 0.36035000812262297, 0.35694999678526074, 0.3635500033851713, 0.36034999357070774, 0.3562500060070306, 0.3588999970816076, 0.34544999653007835, 0.35060000664088875, 0.3706499992404133, 0.36025000736117363, 0.35370000114198774, 0.3511500108288601, 0.3547999949660152, 0.34670000604819506, 0.3594999870983884, 0.3531499969540164, 0.3551499976310879, 0.35930000012740493, 0.35570000181905925, 0.36025000736117363, 0.3515999997034669, 0.3634000022429973, 0.3580499906092882, 0.3576000017346814, 0.3557500021997839, 0.34860000596381724, 0.3540500038070604, 0.36785000702366233, 0.35600000410340726, 0.36660001205746084, 0.35955000203102827, 0.3573499998310581, 0.36174998967908323, 0.3592000139178708, 0.3669500001706183, 0.3506500070216134, 0.39664999349042773, 0.37834999966435134, 0.35859999479725957, 0.3655500040622428, 0.34640000376384705, 0.3491000097710639, 0.3637999907368794, 0.35370000114198774, 0.36294999881647527, 0.3647499979706481, 0.3544999926816672, 0.3550000110408291, 0.3514499985612929, 0.3572999994503334, 0.35599998955149204, 0.35429999115876853, 0.35940000088885427, 0.34610000147949904, 0.3606000100262463, 0.36034999357070774, 0.3635000030044466, 0.35450000723358244, 0.35599998955149204, 0.35835000744555146, 0.35195000236853957, 0.3508000081637874, 0.37259999953676015, 0.3546999942045659, 0.37724999128840864, 0.35775000287685543, 0.4049499984830618, 0.3534499992383644, 0.35105001006741077, 0.36359998921398073, 0.3551499976310879, 0.35849999403581023, 0.36094999813940376, 0.35709999792743474, 0.35489999572746456, 0.3526499931467697, 0.3633500018622726, 0.3541999903973192, 0.3538000019034371, 0.3480500017758459, 0.3540499892551452, 0.36475001252256334, 0.3610499989008531, 0.38240000139921904, 0.3503500047372654, 0.3571999986888841, 0.3595000016503036, 0.36079999699722975, 0.3620999923441559, 0.36619999445974827, 0.35555000067688525, 0.3540500038070604, 0.3635000030044466, 0.3556500014383346, 0.3529499954311177, 0.35339999885763973, 0.37024999619461596, 0.3607499966165051, 0.3573499998310581, 0.3531499969540164, 0.3547500091372058, 0.3528499946696684, 0.35879999632015824, 0.3622000076575205, 0.35354999999981374, 0.3524999920045957, 0.3537500015227124, 0.3524999920045957, 0.35254999238532037, 0.3566000086721033, 0.36654999712482095, 0.36145000194665045, 0.3659499925561249, 0.44600000546779484, 0.36374999035615474, 0.4820500034838915, 0.3598500043153763, 0.3726499999174848, 0.3546000079950318, 0.3622999938670546, 0.36219999310560524, 0.35489999572746456, 0.35790000401902944, 0.35280000884085894, 0.35709999792743474, 0.3549999964889139, 0.35679999564308673, 0.3529999958118424, 0.3616499889176339, 0.34834998950827867, 0.34499999310355633, 0.3539000026648864, 0.3646499972091988, 0.35930000012740493, 0.35955000203102827, 0.3586000093491748, 0.35025000397581607, 0.3536000003805384, 0.3667999990284443, 0.3619499912019819, 0.35439999192021787, 0.3615500027080998, 0.36130000080447644, 0.3580000047804788, 0.35775000287685543, 0.3591999993659556, 0.3637000045273453, 0.35180000122636557, 0.3586000093491748, 0.36794999323319644, 0.35605000448413193, 0.36019999242853373, 0.3597000031732023, 0.38115000643301755, 0.3566999948816374, 0.35334999847691506, 0.38380001205950975, 0.3558000025805086, 0.35269999352749437, 0.3565499937394634, 0.35594998917076737, 0.3565499937394634, 0.3575000009732321, 0.3576000017346814, 0.3525000065565109, 0.3571999986888841, 0.3547999949660152, 0.3444500034675002, 0.3630499995779246, 0.34860000596381724, 0.3536500007612631, 0.3550000110408291, 0.36189999082125723, 0.3515499993227422, 0.36005000583827496, 0.3559000033419579, 0.3575000009732321, 0.36064999585505575, 0.367600005120039, 0.360950012691319, 0.3970499965362251, 0.3659499925561249, 0.35349999961908907, 0.3452500095590949, 0.3601000062189996, 0.36699998599942774, 0.36249999538995326, 0.378400000045076, 0.34589999995660037, 0.3564000071492046, 0.35370000114198774, 0.3503500047372654, 0.3522500046528876, 0.3573499998310581, 0.34764999873004854, 0.37560000782832503, 0.3511499962769449, 0.35310001112520695, 0.3522000042721629, 0.36269999691285193, 0.3574500005925074, 0.3591499989852309, 0.35539999953471124, 0.3546999942045659, 0.3605999954743311, 0.3583499928936362, 0.3553499991539866, 0.35165000008419156, 0.3564999933587387, 0.3527999942889437, 0.3643000090960413, 0.36145000194665045, 0.3510999958962202, 0.3497500001685694, 0.35045000549871475, 0.3614000015659258, 0.35850000858772546, 0.37560000782832503, 0.3477499994914979, 0.3607500111684203, 0.35805000516120344, 0.35104999551549554, 0.3497500001685694, 0.3565499937394634, 0.3501499886624515, 0.3549999964889139, 0.3523499908624217, 0.35319999733474106, 0.3581999917514622, 0.3511499962769449, 0.3612000000430271, 0.35694999678526074, 0.4123499966226518, 0.3512999974191189, 0.48234999121632427, 0.36029999318998307, 0.35215000389143825, 0.36545000330079347, 0.3542500053299591, 0.35555000067688525, 0.3547999949660152, 0.35894999746233225, 0.4061999934492633, 0.3528499946696684, 0.5059999966761097, 0.36535000253934413, 0.3582500066841021, 0.35170000046491623, 0.3608999977586791, 0.3625999961514026, 0.3637999907368794, 0.3539999888744205, 0.3508500085445121, 0.35749998642131686, 0.3531499969540164, 0.4225500160828233, 0.3656999906525016, 0.3532499977154657, 0.3614000015659258, 0.3567500098142773, 0.35319999733474106, 0.35295000998303294, 0.3630499995779246, 0.49089999811258167, 0.38810000114608556, 0.437700015027076, 0.360950012691319, 0.3582499921321869, 0.3620999923441559, 0.3588999970816076, 0.3895499976351857, 0.35564998688641936, 0.3601000062189996, 0.35509999725036323, 0.363900006050244, 0.3581500059226528, 0.3547000087564811, 0.3659999929368496, 0.3456000122241676, 0.36715000169351697, 0.3702500107465312, 0.36014999204780906, 0.35829999251291156, 0.36669999826699495, 0.35394998849369586, 0.3634000022429973, 0.35740000021178275, 0.3596500027924776, 0.35864999517798424, 0.35430000571068376, 0.3680499939946458, 0.35180000122636557, 0.3532499977154657, 0.3443000023253262, 0.35694999678526074, 0.35600000410340726, 0.3579499898478389, 0.35010000283364207, 0.3544000064721331, 0.35274999390821904, 0.35865000972989947, 0.3627500118454918, 0.3603999939514324, 0.3614000015659258, 0.4107999993721023, 0.3634000022429973, 0.3515499993227422, 0.3608499973779544, 0.3540500038070604, 0.3546999942045659, 0.36375000490806997, 0.3666500124381855, 0.3617999900598079, 0.3721999964909628, 0.3539000026648864, 0.364050007192418, 0.35185000160709023, 0.3504000051179901, 0.35969998862128705, 0.3801499988185242, 0.35605000448413193, 0.35975000355392694, 0.38544999551959336, 0.35635000676847994, 0.35585000296123326, 0.3486499917926267, 0.3612000000430271, 0.35119999665766954, 0.3575000009732321, 0.3542000049492344, 0.35930000012740493, 0.3466000052867457, 0.3802499995799735, 0.36079999699722975, 0.3793499927269295, 0.35939998633693904, 0.3529000096023083, 0.3523500054143369, 0.3566000086721033, 0.35864999517798424, 0.3647999983513728, 0.3464500041445717, 0.36419999378267676, 0.3557500021997839, 0.35900001239497215, 0.36499999987427145, 0.3612000000430271, 0.36330000148154795, 0.35740000021178275, 0.5631999956676736, 0.34234998747706413, 0.4552000173134729, 0.3634999884525314, 0.3618000046117231, 0.38094999035820365, 0.35165000008419156, 0.35339999885763973, 0.3580499906092882, 0.3559000033419579, 0.3640000068116933, 0.35615000524558127, 0.35570000181905925, 0.35194998781662434, 0.35849999403581023, 0.35339999885763973, 0.3486500063445419, 0.36049999471288174, 0.35349999961908907, 0.36269999691285193, 0.35275000846013427, 0.35134999779984355, 0.37519999023061246, 0.35879999632015824, 0.3577999887056649, 0.3618000046117231, 0.36114999966230243, 0.35539999953471124, 0.3489499940769747, 0.35755000135395676, 0.3549000102793798, 0.36029999318998307, 0.3566499945009127, 0.3564999933587387, 0.35769998794421554, 0.35134999779984355, 0.35709999792743474, 0.3549499961081892, 0.3616500034695491, 0.36365000414662063, 0.3585499944165349, 0.34964999940712005, 0.3580000047804788, 0.35829999251291156, 0.3893999964930117, 0.36439999530557543, 0.3578000032575801, 0.36374999035615474, 0.3576000017346814, 0.3601000062189996, 0.35224999010097235, 0.35829999251291156, 0.3604500088840723, 0.3566499945009127, 0.36535000253934413, 0.3529999958118424, 0.37214999611023813, 0.3639499918790534, 0.3586999955587089, 0.3546000079950318, 0.35415000456850976, 0.36064999585505575, 0.3504000051179901, 0.36380000528879464, 0.4018500039819628, 0.3570499975467101, 0.35195000236853957, 0.3562500060070306, 0.3603000077418983, 0.3476999991107732, 0.35665000905282795, 0.3681999951368198, 0.36484999873209745, 0.35200000274926424, 0.3563000063877553, 0.3527999942889437, 0.3632500011008233, 0.3561999910743907, 0.3534499992383644, 0.36550000368151814, 0.3540499892551452, 0.3536000003805384, 0.3559000033419579, 0.3561999910743907, 0.35844999365508556, 0.34884999331552535, 0.3600000054575503, 0.3428000054555014, 0.35424999077804387, 0.35289999505039304, 0.36425000871531665, 0.3540500038070604, 0.34890000824816525, 0.3537499869707972, 0.3557500021997839, 0.36574999103322625, 0.35125001159030944, 0.36109999928157777, 0.3532499977154657, 0.3584500082070008, 0.3529499954311177, 0.36145000194665045, 0.3617000038502738, 0.37170000723563135, 0.34980000054929405, 0.3549000102793798, 0.3520499885780737, 0.3505500062601641, 0.3547500091372058, 0.36344998807180673, 0.3551500121830031],
  "Depth": 16.5,
  "Expectation Value": -7.913546085357666,
  "Optimal Expectation Value": -8.5667724609375,
  "Optimizer durations [ms]": [8.585, 8.304, 8.254, 7.948, 8.206, 8.309, 8.412, 8.191, 8.436, 7.86, 9.375, 8.543, 8.125, 9.246, 7.813, 8.305, 8.039, 8.766, 8.195, 7.938, 8.488, 8.092, 7.842, 7.986, 8.25, 8.186, 8.029, 8.004, 8.251, 8.637, 8.252, 7.979, 8.206, 7.998, 8.631, 8.087, 7.831, 8.072, 8.388, 8.149, 8.023, 8.197, 7.877, 8.016, 8.656, 7.948, 8.162, 8.237, 8.196, 8.258, 8.247, 8.092, 7.871, 8.759, 8.052, 8.423, 8.155, 8.079, 8.511, 7.863, 9.177, 20.563, 12.168, 8.085, 8.297, 8.075, 8.375, 8.262, 8.075, 8.514, 8.187, 8.284, 7.98, 7.88, 8.721, 8.186, 8.173, 8.395, 8.164, 8.302, 8.15, 7.771, 7.88, 8.144, 8.237, 7.987, 8.175, 8.119, 8.413, 7.886, 8.255, 8.169, 8.371, 8.133, 8.091, 8.138, 7.757, 8.204, 8.358, 8.119, 8.135, 8.018, 8.517, 7.959, 8.526, 8.131, 8.136, 8.127, 7.808, 8.224, 8.281, 8.414, 8.284, 7.948, 8.352, 7.984, 7.786, 8.361, 8.085, 8.628, 8.118, 8.029, 8.301, 8.164, 8.041, 8.194, 8.132, 8.371, 8.17, 8.325, 7.904, 8.602, 8.493, 7.814, 9.229, 8.232, 8.28, 7.952, 8.349, 8.087, 8.07, 8.518, 8.116, 8.176, 7.886, 8.41, 7.974, 7.996, 8.263, 8.235, 8.275, 8.669, 8.047, 8.038, 7.884, 8.481, 7.842, 8.165, 7.916, 8.302, 8.373, 7.965, 8.282, 8.01, 8.393, 8.06, 8.139, 8.255, 8.451, 8.041, 8.108, 8.029, 8.21, 8.356, 8.026, 8.021, 8.457, 8.198, 7.97, 8.379, 8.254, 9.045, 8.188, 9.097, 8.129, 11.466, 8.868, 7.96, 9.957, 8.061, 9.1, 8.376, 9.96, 8.635, 8.548, 10.394, 19.239, 8.975, 8.51, 10.383, 8.454, 8.007, 8.365, 18.946, 8.174, 9.021, 7.925, 10.829, 8.014, 8.217, 8.829, 26.852, 9.569, 7.785, 11.968, 8.191, 7.963, 8.24, 8.272, 7.945, 8.662, 8.104, 8.309, 8.029, 7.909, 8.186, 9.098, 8.302, 8.0, 8.742, 8.056, 8.091, 8.153, 8.124, 7.707, 8.219, 8.102, 8.102, 7.984, 8.114, 8.183, 8.119, 8.134, 8.032, 9.09, 8.279, 8.251, 9.535, 7.813, 8.33, 8.187, 8.21, 8.34, 7.839, 8.436, 8.33, 8.556, 8.192, 7.838, 8.182, 8.487, 8.263, 8.301, 7.861, 8.431, 8.222, 8.126, 7.824, 8.07, 8.608, 8.236, 8.31, 8.041, 8.263, 7.899, 8.354, 8.029, 8.167, 8.139, 8.393, 8.021, 8.241, 8.253, 7.978, 9.311, 8.156, 8.566, 8.131, 8.456, 8.488, 8.044, 8.174, 8.228, 8.303, 8.121, 8.291, 11.803, 23.016, 8.294, 8.327, 8.063, 8.496, 8.151, 8.236, 8.081, 8.109, 8.422, 7.892, 8.321, 7.846, 8.277, 8.65, 8.291, 7.861, 8.18, 7.943, 8.235, 7.923, 8.461, 8.114, 8.01, 8.337, 8.34, 7.973, 8.22, 8.38, 8.107, 7.948, 7.997, 8.085, 8.59, 7.84, 8.552, 8.677, 9.652, 8.288, 8.283, 8.504, 7.804, 9.013, 8.647, 8.188, 8.423, 7.773, 8.174, 8.265, 7.958, 8.333, 8.354, 8.081, 8.232, 8.075, 7.968, 8.348, 7.825, 8.062, 7.884, 8.306, 8.341, 8.09, 8.175, 8.293, 8.126, 7.919, 8.042, 8.831, 7.995, 8.329, 8.318, 9.16, 7.848, 8.075, 8.503, 7.996, 8.336, 8.365, 7.927, 8.118, 8.019, 8.179, 8.334, 8.048, 8.141, 7.979, 8.382, 8.232, 8.747, 8.023, 8.183, 8.112, 8.306, 8.037, 8.514, 8.027, 8.185, 8.362, 8.278, 8.03, 7.878, 8.341, 8.515, 8.075, 8.102, 8.049, 7.947, 8.09, 8.447, 8.136, 7.899, 8.188, 7.903, 7.948, 8.278, 8.147, 8.475, 8.195, 10.118, 19.981, 11.042, 8.137, 8.263, 8.391, 8.461, 8.233, 8.157, 7.92, 8.373, 8.15, 7.89, 8.14, 8.419, 8.227, 8.051, 7.737, 8.189, 8.139, 8.322, 7.956, 8.145, 8.093, 7.89, 8.366, 8.329, 8.209, 8.162, 8.08, 8.337, 8.35, 7.96, 8.231, 8.033, 8.204, 8.517, 8.231, 8.275, 8.106, 8.925, 8.091, 8.264, 8.632, 8.236, 8.08, 8.114, 8.375, 8.201, 8.05, 8.176, 8.17, 8.079, 8.227, 7.95, 8.465, 7.988, 8.095, 7.951, 8.46, 8.046, 8.131, 8.311, 8.205, 7.912, 8.46, 8.418, 8.558, 8.588, 7.911, 7.912, 8.065, 8.65, 8.063, 9.147, 8.331, 8.161, 8.042, 7.901, 8.057, 8.539, 7.764, 8.394, 8.206, 8.212, 7.945, 8.248, 8.218, 8.136, 7.944, 8.294, 8.575, 8.192, 8.023, 7.915, 8.118, 8.124, 8.123, 8.594, 8.022, 8.099, 7.981, 8.158, 8.207, 8.388, 8.142, 8.357, 8.252, 7.994, 8.1, 7.855, 8.236, 7.958, 8.194, 8.225, 7.906, 8.393, 8.151, 8.232, 9.189, 8.117, 10.197, 8.159, 8.591, 8.322, 16.208, 8.552, 9.028, 8.001, 9.278, 7.796, 10.988, 8.256, 8.396, 8.414, 18.563, 8.348, 9.258, 8.009, 9.567, 8.202, 7.861, 9.644, 19.132, 8.287, 8.221, 8.064, 8.282, 8.701, 8.398, 10.511, 23.441, 10.216, 8.324, 10.359, 8.212, 8.212, 8.737, 8.151, 8.235, 7.896, 8.589, 8.116, 8.102, 8.183, 7.868, 8.731, 8.693, 8.19, 8.114, 8.294, 8.034, 8.478, 7.938, 8.006, 8.036, 8.216, 8.575, 7.739, 8.192, 7.862, 8.324, 8.086, 8.505, 7.856, 8.094, 8.216, 7.962, 8.485, 8.037, 8.19, 9.299, 8.364, 7.895, 8.377, 7.825, 8.141, 8.262, 8.61, 8.022, 8.784, 7.823, 8.421, 7.928, 8.144, 8.477, 8.647, 8.173, 8.245, 8.702, 8.094, 8.316, 7.952, 8.148, 7.917, 8.435, 8.08, 7.924, 7.939, 8.789, 8.255, 8.967, 8.311, 7.943, 8.055, 8.207, 7.983, 8.459, 7.714, 8.355, 8.419, 8.221, 8.123, 8.152, 8.547, 8.236, 12.217, 21.063, 10.438, 8.458, 8.164, 8.659, 8.238, 7.988, 8.364, 7.832, 8.708, 8.095, 8.049, 8.09, 8.057, 8.336, 7.862, 8.368, 8.02, 8.301, 7.96, 8.311, 8.352, 8.265, 8.244, 8.075, 8.383, 8.03, 8.213, 7.871, 8.307, 8.144, 8.239, 7.923, 8.242, 8.258, 8.099, 8.739, 9.819, 8.239, 8.058, 8.167, 8.169, 8.031, 8.869, 8.344, 8.279, 8.463, 8.289, 8.479, 7.996, 8.374, 8.222, 7.971, 8.472, 8.114, 8.402, 8.528, 8.188, 8.108, 8.17, 8.256, 7.808, 8.356, 9.002, 7.935, 8.217, 7.932, 8.171, 8.059, 8.278, 8.351, 8.213, 9.048, 8.275, 7.902, 8.284, 8.399, 7.964, 8.49, 8.235, 8.213, 8.162, 8.148, 8.11, 8.154, 8.003, 8.145, 8.225, 7.931, 8.448, 7.82, 8.171, 8.011, 8.296, 8.323, 8.003, 8.245, 8.204, 8.073, 8.222, 7.971, 8.55, 8.511, 8.122, 8.091, 8.014, 8.103, 8.11, 8.3, 8.086],
  "Optimizer iterations": 763,
  "Optimizer params": [0.5649004259926267, 0.5655546480767026, 0.9999640761857738, 1.0, 0.9277507955487754, 0.41617372031105815, 0.42710841989043885, 0.628282129360812, 0.8509000720630477, 0.9911677818911121, 0.2908100736404917, 0.26274949784132773, 0.571762308755529, 0.5293011968351785, 0.5044973498571205, 0.9943932398977798, 0.5015402115322081, 0.9704416748060108, 0.032018526799030896, 0.50785314178639, 0.05555851126857575, 0.9824953349475336, 0.6394501405758553, 0.21976678117145065, 0.14215099236777673, 0.6090049396425867, 0.09122680754200689, 0.9675862441064598],
  "P": 0,
  "Problem": "IC",
  "QJob durations [ms]": [0.37740000698249787, 0.36234999424777925, 0.3617000038502738, 0.35195000236853957, 0.35244999162387103, 0.36014999204780906, 0.3683499962789938, 0.3551499976310879, 0.3569999971659854, 0.3549499961081892, 0.421949996962212, 0.375300005543977, 0.3567500098142773, 0.41489998693577945, 0.3503499901853502, 0.35709999792743474, 0.35679999564308673, 0.36284999805502594, 0.3515499993227422, 0.35459999344311655, 0.367450003977865, 0.3512499970383942, 0.35230000503361225, 0.3480500017758459, 0.3521000035107136, 0.3575000009732321, 0.3631999861681834, 0.3607500111684203, 0.3541999903973192, 0.371750007616356, 0.374399998690933, 0.3511499962769449, 0.3513999981805682, 0.3553499991539866, 0.36094999813940376, 0.35354999999981374, 0.3527999942889437, 0.3585499944165349, 0.3579500043997541, 0.3536000003805384, 0.3556500014383346, 0.3521000035107136, 0.3498500009300187, 0.3587499959394336, 0.3657999914139509, 0.36125000042375177, 0.3515499993227422, 0.35539999953471124, 0.35635000676847994, 0.3578000032575801, 0.36499999987427145, 0.35054999170824885, 0.3559500037226826, 0.38649998896289617, 0.34995000169146806, 0.36475001252256334, 0.35615000524558127, 0.3524999920045957, 0.3802999999606982, 0.35119999665766954, 0.39289999403990805, 0.5154500104254112, 0.48899998364504427, 0.35400000342633575, 0.36195000575389713, 0.3528500092215836, 0.3684999974211678, 0.3539999888744205, 0.35694999678526074, 0.371300004189834, 0.35620000562630594, 0.3598999901441857, 0.3522000042721629, 0.3578999894671142, 0.3651000006357208, 0.35230000503361225, 0.3634999884525314, 0.36965000617783517, 0.3546499938238412, 0.3560499899322167, 0.35524999839253724, 0.35134999779984355, 0.34350001078564674, 0.3504000051179901, 0.35864999517798424, 0.35000000207219273, 0.34884999331552535, 0.36264999653212726, 0.3548499953467399, 0.3555000002961606, 0.36014999204780906, 0.3489500086288899, 0.3615000023273751, 0.34840000444091856, 0.35489999572746456, 0.34655000490602106, 0.3513000119710341, 0.3485000052023679, 0.3634000022429973, 0.3547999949660152, 0.3612000000430271, 0.3497500001685694, 0.38440000207629055, 0.34654999035410583, 0.35585000296123326, 0.35679999564308673, 0.35504999686963856, 0.35259999276604503, 0.3555000002961606, 0.3512999974191189, 0.3576500021154061, 0.35940000088885427, 0.35850000858772546, 0.3598000039346516, 0.35215000389143825, 0.35450000723358244, 0.3467499918770045, 0.35790000401902944, 0.35930000012740493, 0.3684499970404431, 0.35709999792743474, 0.35000000207219273, 0.3598500043153763, 0.35584998840931803, 0.3551500121830031, 0.34779999987222254, 0.36410000757314265, 0.3656999906525016, 0.3552000125637278, 0.3641500079538673, 0.35880001087207347, 0.3680499939946458, 0.36959999124519527, 0.35185000160709023, 0.4063499945914373, 0.3560999903129414, 0.3495499986456707, 0.35679999564308673, 0.3624499950092286, 0.3525000065565109, 0.3522000042721629, 0.36249999538995326, 0.35755000135395676, 0.3509499947540462, 0.35239999124314636, 0.3603999939514324, 0.3506499924696982, 0.3556500014383346, 0.3563000063877553, 0.35110001044813544, 0.35615000524558127, 0.3829000052064657, 0.34855000558309257, 0.3551499976310879, 0.35165000008419156, 0.3566499945009127, 0.3502000035950914, 0.34574999881442636, 0.35339999885763973, 0.3561000048648566, 0.36204999196343124, 0.35709999792743474, 0.34995000169146806, 0.35850000858772546, 0.3691000019898638, 0.3620000061346218, 0.3570499975467101, 0.3558000025805086, 0.3608499973779544, 0.35289999505039304, 0.35334999847691506, 0.3551499976310879, 0.3630999999586493, 0.3583499928936362, 0.35605000448413193, 0.34845000482164323, 0.35945000126957893, 0.35480000951793045, 0.3542000049492344, 0.3664499963633716, 0.35770000249613076, 0.37039999733678997, 0.35539999953471124, 0.4061499930685386, 0.35394998849369586, 0.5341999931260943, 0.36619999445974827, 0.34744999720714986, 0.4315999976824969, 0.35650000791065395, 0.418550000176765, 0.35694999678526074, 0.3536500007612631, 0.35894999746233225, 0.36345000262372196, 0.47840000479482114, 0.3545499930623919, 0.3998500033048913, 0.36040000850334764, 0.4795499989995733, 0.38085000414866954, 0.3495499986456707, 0.3598000039346516, 0.36759999056812376, 0.35850000858772546, 0.40084999636746943, 0.35679999564308673, 0.32604999432805926, 0.3562499914551154, 0.35415000456850976, 0.36330000148154795, 0.38235000101849437, 0.4046499961987138, 0.3520500031299889, 0.36615000863093883, 0.3583499928936362, 0.35445000685285777, 0.3645999968284741, 0.34845000482164323, 0.3602499928092584, 0.37009999505244195, 0.3597999893827364, 0.3584000078262761, 0.3538999881129712, 0.35659999412018806, 0.3615500027080998, 0.3703499969560653, 0.3578999894671142, 0.35849999403581023, 0.3767500020330772, 0.3520500031299889, 0.3515999997034669, 0.3580999909900129, 0.34980000054929405, 0.34839998988900334, 0.3522500046528876, 0.3513000119710341, 0.3504999913275242, 0.3556000010576099, 0.3546000079950318, 0.36854999780189246, 0.3581500059226528, 0.34914999559987336, 0.3556000010576099, 0.41710000368766487, 0.3583999932743609, 0.35195000236853957, 0.4200499824946746, 0.35429999115876853, 0.36175000423099846, 0.3542000049492344, 0.35259999276604503, 0.35659999412018806, 0.35509999725036323, 0.36094999813940376, 0.3612000000430271, 0.3548499953467399, 0.35524999839253724, 0.35334999847691506, 0.3565499937394634, 0.3597000031732023, 0.35650000791065395, 0.3616500034695491, 0.3546999942045659, 0.3526499931467697, 0.3553499991539866, 0.35770000249613076, 0.35295000998303294, 0.35865000972989947, 0.38610000046901405, 0.35025000397581607, 0.3609000123105943, 0.3555000002961606, 0.35644999297801405, 0.35740000021178275, 0.35209998895879835, 0.3532499977154657, 0.3523499908624217, 0.35605000448413193, 0.3651000006357208, 0.3588999970816076, 0.3588999970816076, 0.35814999137073755, 0.3532499977154657, 0.35134999779984355, 0.3554499999154359, 0.37519999023061246, 0.35694999678526074, 0.36654999712482095, 0.35740000021178275, 0.35629999183584005, 0.3478500002529472, 0.3582499921321869, 0.36539998836815357, 0.36064999585505575, 0.35924999974668026, 0.5661500181304291, 0.4228000034345314, 0.3597000031732023, 0.3672500024549663, 0.35659999412018806, 0.36434999492485076, 0.35849999403581023, 0.36035000812262297, 0.35694999678526074, 0.3635500033851713, 0.36034999357070774, 0.3562500060070306, 0.3588999970816076, 0.34544999653007835, 0.35060000664088875, 0.3706499992404133, 0.36025000736117363, 0.35370000114198774, 0.3511500108288601, 0.3547999949660152, 0.34670000604819506, 0.3594999870983884, 0.3531499969540164, 0.3551499976310879, 0.35930000012740493, 0.35570000181905925, 0.36025000736117363, 0.3515999997034669, 0.3634000022429973, 0.3580499906092882, 0.3576000017346814, 0.3557500021997839, 0.34860000596381724, 0.3540500038070604, 0.36785000702366233, 0.35600000410340726, 0.36660001205746084, 0.35955000203102827, 0.3573499998310581, 0.36174998967908323, 0.3592000139178708, 0.3669500001706183, 0.3506500070216134, 0.39664999349042773, 0.37834999966435134, 0.35859999479725957, 0.3655500040622428, 0.34640000376384705, 0.3491000097710639, 0.3637999907368794, 0.35370000114198774, 0.36294999881647527, 0.3647499979706481, 0.3544999926816672, 0.3550000110408291, 0.3514499985612929, 0.3572999994503334, 0.35599998955149204, 0.35429999115876853, 0.35940000088885427, 0.34610000147949904, 0.3606000100262463, 0.36034999357070774, 0.3635000030044466, 0.35450000723358244, 0.35599998955149204, 0.35835000744555146, 0.35195000236853957, 0.3508000081637874, 0.37259999953676015, 0.3546999942045659, 0.37724999128840864, 0.35775000287685543, 0.4049499984830618, 0.3534499992383644, 0.35105001006741077, 0.36359998921398073, 0.3551499976310879, 0.35849999403581023, 0.36094999813940376, 0.35709999792743474, 0.35489999572746456, 0.3526499931467697, 0.3633500018622726, 0.3541999903973192, 0.3538000019034371, 0.3480500017758459, 0.3540499892551452, 0.36475001252256334, 0.3610499989008531, 0.38240000139921904, 0.3503500047372654, 0.3571999986888841, 0.3595000016503036, 0.36079999699722975, 0.3620999923441559, 0.36619999445974827, 0.35555000067688525, 0.3540500038070604, 0.3635000030044466, 0.3556500014383346, 0.3529499954311177, 0.35339999885763973, 0.37024999619461596, 0.3607499966165051, 0.3573499998310581, 0.3531499969540164, 0.3547500091372058, 0.3528499946696684, 0.35879999632015824, 0.3622000076575205, 0.35354999999981374, 0.3524999920045957, 0.3537500015227124, 0.3524999920045957, 0.35254999238532037, 0.3566000086721033, 0.36654999712482095, 0.36145000194665045, 0.3659499925561249, 0.44600000546779484, 0.36374999035615474, 0.4820500034838915, 0.3598500043153763, 0.3726499999174848, 0.3546000079950318, 0.3622999938670546, 0.36219999310560524, 0.35489999572746456, 0.35790000401902944, 0.35280000884085894, 0.35709999792743474, 0.3549999964889139, 0.35679999564308673, 0.3529999958118424, 0.3616499889176339, 0.34834998950827867, 0.34499999310355633, 0.3539000026648864, 0.3646499972091988, 0.35930000012740493, 0.35955000203102827, 0.3586000093491748, 0.35025000397581607, 0.3536000003805384, 0.3667999990284443, 0.3619499912019819, 0.35439999192021787, 0.3615500027080998, 0.36130000080447644, 0.3580000047804788, 0.35775000287685543, 0.3591999993659556, 0.3637000045273453, 0.35180000122636557, 0.3586000093491748, 0.36794999323319644, 0.35605000448413193, 0.36019999242853373, 0.3597000031732023, 0.38115000643301755, 0.3566999948816374, 0.35334999847691506, 0.38380001205950975, 0.3558000025805086, 0.35269999352749437, 0.3565499937394634, 0.35594998917076737, 0.3565499937394634, 0.3575000009732321, 0.3576000017346814, 0.3525000065565109, 0.3571999986888841, 0.3547999949660152, 0.3444500034675002, 0.3630499995779246, 0.34860000596381724, 0.3536500007612631, 0.3550000110408291, 0.36189999082125723, 0.3515499993227422, 0.36005000583827496, 0.3559000033419579, 0.3575000009732321, 0.36064999585505575, 0.367600005120039, 0.360950012691319, 0.3970499965362251, 0.3659499925561249, 0.35349999961908907, 0.3452500095590949, 0.3601000062189996, 0.36699998599942774, 0.36249999538995326, 0.378400000045076, 0.34589999995660037, 0.3564000071492046, 0.35370000114198774, 0.3503500047372654, 0.3522500046528876, 0.3573499998310581, 0.34764999873004854, 0.37560000782832503, 0.3511499962769449, 0.35310001112520695, 0.3522000042721629, 0.36269999691285193, 0.3574500005925074, 0.3591499989852309, 0.35539999953471124, 0.3546999942045659, 0.3605999954743311, 0.3583499928936362, 0.3553499991539866, 0.35165000008419156, 0.3564999933587387, 0.3527999942889437, 0.3643000090960413, 0.36145000194665045, 0.3510999958962202, 0.3497500001685694, 0.35045000549871475, 0.3614000015659258, 0.35850000858772546, 0.37560000782832503, 0.3477499994914979, 0.3607500111684203, 0.35805000516120344, 0.35104999551549554, 0.3497500001685694, 0.3565499937394634, 0.3501499886624515, 0.3549999964889139, 0.3523499908624217, 0.35319999733474106, 0.3581999917514622, 0.3511499962769449, 0.3612000000430271, 0.35694999678526074, 0.4123499966226518, 0.3512999974191189, 0.48234999121632427, 0.36029999318998307, 0.35215000389143825, 0.36545000330079347, 0.3542500053299591, 0.35555000067688525, 0.3547999949660152, 0.35894999746233225, 0.4061999934492633, 0.3528499946696684, 0.5059999966761097, 0.36535000253934413, 0.3582500066841021, 0.35170000046491623, 0.3608999977586791, 0.3625999961514026, 0.3637999907368794, 0.3539999888744205, 0.3508500085445121, 0.35749998642131686, 0.3531499969540164, 0.4225500160828233, 0.3656999906525016, 0.3532499977154657, 0.3614000015659258, 0.3567500098142773, 0.35319999733474106, 0.35295000998303294, 0.3630499995779246, 0.49089999811258167, 0.38810000114608556, 0.437700015027076, 0.360950012691319, 0.3582499921321869, 0.3620999923441559, 0.3588999970816076, 0.3895499976351857, 0.35564998688641936, 0.3601000062189996, 0.35509999725036323, 0.363900006050244, 0.3581500059226528, 0.3547000087564811, 0.3659999929368496, 0.3456000122241676, 0.36715000169351697, 0.3702500107465312, 0.36014999204780906, 0.35829999251291156, 0.36669999826699495, 0.35394998849369586, 0.3634000022429973, 0.35740000021178275, 0.3596500027924776, 0.35864999517798424, 0.35430000571068376, 0.3680499939946458, 0.35180000122636557, 0.3532499977154657, 0.3443000023253262, 0.35694999678526074, 0.35600000410340726, 0.3579499898478389, 0.35010000283364207, 0.3544000064721331, 0.35274999390821904, 0.35865000972989947, 0.3627500118454918, 0.3603999939514324, 0.3614000015659258, 0.4107999993721023, 0.3634000022429973, 0.3515499993227422, 0.3608499973779544, 0.3540500038070604, 0.3546999942045659, 0.36375000490806997, 0.3666500124381855, 0.3617999900598079, 0.3721999964909628, 0.3539000026648864, 0.364050007192418, 0.35185000160709023, 0.3504000051179901, 0.35969998862128705, 0.3801499988185242, 0.35605000448413193, 0.35975000355392694, 0.38544999551959336, 0.35635000676847994, 0.35585000296123326, 0.3486499917926267, 0.3612000000430271, 0.35119999665766954, 0.3575000009732321, 0.3542000049492344, 0.35930000012740493, 0.3466000052867457, 0.3802499995799735, 0.36079999699722975, 0.3793499927269295, 0.35939998633693904, 0.3529000096023083, 0.3523500054143369, 0.3566000086721033, 0.35864999517798424, 0.3647999983513728, 0.3464500041445717, 0.36419999378267676, 0.3557500021997839, 0.35900001239497215, 0.36499999987427145, 0.3612000000430271, 0.36330000148154795, 0.35740000021178275, 0.5631999956676736, 0.34234998747706413, 0.4552000173134729, 0.3634999884525314, 0.3618000046117231, 0.38094999035820365, 0.35165000008419156, 0.35339999885763973, 0.3580499906092882, 0.3559000033419579, 0.3640000068116933, 0.35615000524558127, 0.35570000181905925, 0.35194998781662434, 0.35849999403581023, 0.35339999885763973, 0.3486500063445419, 0.36049999471288174, 0.35349999961908907, 0.36269999691285193, 0.35275000846013427, 0.35134999779984355, 0.37519999023061246, 0.35879999632015824, 0.3577999887056649, 0.3618000046117231, 0.36114999966230243, 0.35539999953471124, 0.3489499940769747, 0.35755000135395676, 0.3549000102793798, 0.36029999318998307, 0.3566499945009127, 0.3564999933587387, 0.35769998794421554, 0.35134999779984355, 0.35709999792743474, 0.3549499961081892, 0.3616500034695491, 0.36365000414662063, 0.3585499944165349, 0.34964999940712005, 0.3580000047804788, 0.35829999251291156, 0.3893999964930117, 0.36439999530557543, 0.3578000032575801, 0.36374999035615474, 0.3576000017346814, 0.3601000062189996, 0.35224999010097235, 0.35829999251291156, 0.3604500088840723, 0.3566499945009127, 0.36535000253934413, 0.3529999958118424, 0.37214999611023813, 0.3639499918790534, 0.3586999955587089, 0.3546000079950318, 0.35415000456850976, 0.36064999585505575, 0.3504000051179901, 0.36380000528879464, 0.4018500039819628, 0.3570499975467101, 0.35195000236853957, 0.3562500060070306, 0.3603000077418983, 0.3476999991107732, 0.35665000905282795, 0.3681999951368198, 0.36484999873209745, 0.35200000274926424, 0.3563000063877553, 0.3527999942889437, 0.3632500011008233, 0.3561999910743907, 0.3534499992383644, 0.36550000368151814, 0.3540499892551452, 0.3536000003805384, 0.3559000033419579, 0.3561999910743907, 0.35844999365508556, 0.34884999331552535, 0.3600000054575503, 0.3428000054555014, 0.35424999077804387, 0.35289999505039304, 0.36425000871531665, 0.3540500038070604, 0.34890000824816525, 0.3537499869707972, 0.3557500021997839, 0.36574999103322625, 0.35125001159030944, 0.36109999928157777, 0.3532499977154657, 0.3584500082070008, 0.3529499954311177, 0.36145000194665045, 0.3617000038502738, 0.37170000723563135, 0.34980000054929405, 0.3549000102793798, 0.3520499885780737, 0.3505500062601641, 0.3547500091372058, 0.36344998807180673, 0.3551500121830031],
  "QPU": "7000000",
  "Qubits": 7,
  "Queue durations [ms]": [0.0, 0.0, 0.0, 0.0, 0.0, 0.0, 0.0, 0.0, 0.0, 0.0, 0.0, 0.0, 0.0, 0.0, 0.0, 0.0, 0.0, 0.0, 0.0, 0.0, 0.0, 0.0, 0.0, 0.0, 0.0, 0.0, 0.0, 0.0, 0.0, 0.0, 0.0, 0.0, 0.0, 0.0, 0.0, 0.0, 0.0, 0.0, 0.0, 0.0, 0.0, 0.0, 0.0, 0.0, 0.0, 0.0, 0.0, 0.0, 0.0, 0.0, 0.0, 0.0, 0.0, 0.0, 0.0, 0.0, 0.0, 0.0, 0.0, 0.0, 0.0, 0.0, 0.0, 0.0, 0.0, 0.0, 0.0, 0.0, 0.0, 0.0, 0.0, 0.0, 0.0, 0.0, 0.0, 0.0, 0.0, 0.0, 0.0, 0.0, 0.0, 0.0, 0.0, 0.0, 0.0, 0.0, 0.0, 0.0, 0.0, 0.0, 0.0, 0.0, 0.0, 0.0, 0.0, 0.0, 0.0, 0.0, 0.0, 0.0, 0.0, 0.0, 0.0, 0.0, 0.0, 0.0, 0.0, 0.0, 0.0, 0.0, 0.0, 0.0, 0.0, 0.0, 0.0, 0.0, 0.0, 0.0, 0.0, 0.0, 0.0, 0.0, 0.0, 0.0, 0.0, 0.0, 0.0, 0.0, 0.0, 0.0, 0.0, 0.0, 0.0, 0.0, 0.0, 0.0, 0.0, 0.0, 0.0, 0.0, 0.0, 0.0, 0.0, 0.0, 0.0, 0.0, 0.0, 0.0, 0.0, 0.0, 0.0, 0.0, 0.0, 0.0, 0.0, 0.0, 0.0, 0.0, 0.0, 0.0, 0.0, 0.0, 0.0, 0.0, 0.0, 0.0, 0.0, 0.0, 0.0, 0.0, 0.0, 0.0, 0.0, 0.0, 0.0, 0.0, 0.0, 0.0, 0.0, 0.0, 0.0, 0.0, 0.0, 0.0, 0.0, 0.0, 0.0, 0.0, 0.0, 0.0, 0.0, 0.0, 0.0, 0.0, 0.0, 0.0, 0.0, 0.0, 0.0, 0.0, 0.0, 0.0, 0.0, 0.0, 0.0, 0.0, 0.0, 0.0, 0.0, 0.0, 0.0, 0.0, 0.0, 0.0, 0.0, 0.0, 0.0, 0.0, 0.0, 0.0, 0.0, 0.0, 0.0, 0.0, 0.0, 0.0, 0.0, 0.0, 0.0, 0.0, 0.0, 0.0, 0.0, 0.0, 0.0, 0.0, 0.0, 0.0, 0.0, 0.0, 0.0, 0.0, 0.0, 0.0, 0.0, 0.0, 0.0, 0.0, 0.0, 0.0, 0.0, 0.0, 0.0, 0.0, 0.0, 0.0, 0.0, 0.0, 0.0, 0.0, 0.0, 0.0, 0.0, 0.0, 0.0, 0.0, 0.0, 0.0, 0.0, 0.0, 0.0, 0.0, 0.0, 0.0, 0.0, 0.0, 0.0, 0.0, 0.0, 0.0, 0.0, 0.0, 0.0, 0.0, 0.0, 0.0, 0.0, 0.0, 0.0, 0.0, 0.0, 0.0, 0.0, 0.0, 0.0, 0.0, 0.0, 0.0, 0.0, 0.0, 0.0, 0.0, 0.0, 0.0, 0.0, 0.0, 0.0, 0.0, 0.0, 0.0, 0.0, 0.0, 0.0, 0.0, 0.0, 0.0, 0.0, 0.0, 0.0, 0.0, 0.0, 0.0, 0.0, 0.0, 0.0, 0.0, 0.0, 0.0, 0.0, 0.0, 0.0, 0.0, 0.0, 0.0, 0.0, 0.0, 0.0, 0.0, 0.0, 0.0, 0.0, 0.0, 0.0, 0.0, 0.0, 0.0, 0.0, 0.0, 0.0, 0.0, 0.0, 0.0, 0.0, 0.0, 0.0, 0.0, 0.0, 0.0, 0.0, 0.0, 0.0, 0.0, 0.0, 0.0, 0.0, 0.0, 0.0, 0.0, 0.0, 0.0, 0.0, 0.0, 0.0, 0.0, 0.0, 0.0, 0.0, 0.0, 0.0, 0.0, 0.0, 0.0, 0.0, 0.0, 0.0, 0.0, 0.0, 0.0, 0.0, 0.0, 0.0, 0.0, 0.0, 0.0, 0.0, 0.0, 0.0, 0.0, 0.0, 0.0, 0.0, 0.0, 0.0, 0.0, 0.0, 0.0, 0.0, 0.0, 0.0, 0.0, 0.0, 0.0, 0.0, 0.0, 0.0, 0.0, 0.0, 0.0, 0.0, 0.0, 0.0, 0.0, 0.0, 0.0, 0.0, 0.0, 0.0, 0.0, 0.0, 0.0, 0.0, 0.0, 0.0, 0.0, 0.0, 0.0, 0.0, 0.0, 0.0, 0.0, 0.0, 0.0, 0.0, 0.0, 0.0, 0.0, 0.0, 0.0, 0.0, 0.0, 0.0, 0.0, 0.0, 0.0, 0.0, 0.0, 0.0, 0.0, 0.0, 0.0, 0.0, 0.0, 0.0, 0.0, 0.0, 0.0, 0.0, 0.0, 0.0, 0.0, 0.0, 0.0, 0.0, 0.0, 0.0, 0.0, 0.0, 0.0, 0.0, 0.0, 0.0, 0.0, 0.0, 0.0, 0.0, 0.0, 0.0, 0.0, 0.0, 0.0, 0.0, 0.0, 0.0, 0.0, 0.0, 0.0, 0.0, 0.0, 0.0, 0.0, 0.0, 0.0, 0.0, 0.0, 0.0, 0.0, 0.0, 0.0, 0.0, 0.0, 0.0, 0.0, 0.0, 0.0, 0.0, 0.0, 0.0, 0.0, 0.0, 0.0, 0.0, 0.0, 0.0, 0.0, 0.0, 0.0, 0.0, 0.0, 0.0, 0.0, 0.0, 0.0, 0.0, 0.0, 0.0, 0.0, 0.0, 0.0, 0.0, 0.0, 0.0, 0.0, 0.0, 0.0, 0.0, 0.0, 0.0, 0.0, 0.0, 0.0, 0.0, 0.0, 0.0, 0.0, 0.0, 0.0, 0.0, 0.0, 0.0, 0.0, 0.0, 0.0, 0.0, 0.0, 0.0, 0.0, 0.0, 0.0, 0.0, 0.0, 0.0, 0.0, 0.0, 0.0, 0.0, 0.0, 0.0, 0.0, 0.0, 0.0, 0.0, 0.0, 0.0, 0.0, 0.0, 0.0, 0.0, 0.0, 0.0, 0.0, 0.0, 0.0, 0.0, 0.0, 0.0, 0.0, 0.0, 0.0, 0.0, 0.0, 0.0, 0.0, 0.0, 0.0, 0.0, 0.0, 0.0, 0.0, 0.0, 0.0, 0.0, 0.0, 0.0, 0.0, 0.0, 0.0, 0.0, 0.0, 0.0, 0.0, 0.0, 0.0, 0.0, 0.0, 0.0, 0.0, 0.0, 0.0, 0.0, 0.0, 0.0, 0.0, 0.0, 0.0, 0.0, 0.0, 0.0, 0.0, 0.0, 0.0, 0.0, 0.0, 0.0, 0.0, 0.0, 0.0, 0.0, 0.0, 0.0, 0.0, 0.0, 0.0, 0.0, 0.0, 0.0, 0.0, 0.0, 0.0, 0.0, 0.0, 0.0, 0.0, 0.0, 0.0, 0.0, 0.0, 0.0, 0.0, 0.0, 0.0, 0.0, 0.0, 0.0, 0.0, 0.0, 0.0, 0.0, 0.0, 0.0, 0.0, 0.0, 0.0, 0.0, 0.0, 0.0, 0.0, 0.0, 0.0, 0.0, 0.0, 0.0, 0.0, 0.0, 0.0, 0.0, 0.0, 0.0, 0.0, 0.0, 0.0, 0.0, 0.0, 0.0, 0.0, 0.0, 0.0, 0.0, 0.0, 0.0, 0.0, 0.0, 0.0, 0.0, 0.0, 0.0, 0.0, 0.0, 0.0, 0.0, 0.0, 0.0, 0.0, 0.0, 0.0, 0.0, 0.0, 0.0, 0.0, 0.0, 0.0, 0.0, 0.0, 0.0, 0.0, 0.0, 0.0, 0.0, 0.0, 0.0, 0.0, 0.0, 0.0, 0.0, 0.0, 0.0, 0.0, 0.0, 0.0, 0.0, 0.0, 0.0, 0.0, 0.0, 0.0, 0.0, 0.0, 0.0, 0.0, 0.0, 0.0, 0.0, 0.0, 0.0],
  "Shots": 4096,
  "Size": 7,
  "Total Algorithm duration [s]": 6.467,
  "Total Classic duration [s]": 6.190912000306882,
  "Total Quantum duration [s]": 0.27608799969311804
}
