{
  "Circuit execution durations [ms]": [0.36249999538995326, 0.3482000029180199, 0.4129000153625384, 0.3573499998310581, 0.3515999997034669, 0.35414999001659453, 0.352299990481697, 0.40674999763723463, 0.3559000033419579, 0.35445000685285777, 0.35304999619256705, 0.3497999859973788, 0.3507000074023381, 0.35790000401902944, 0.3546999942045659, 0.4096500051673502, 0.3506500070216134, 0.36625000939238816, 0.3691500023705885, 0.46779998228885233, 0.3519000019878149, 0.3578000032575801, 0.3595000016503036, 0.3476000129012391, 0.34950001281686127, 0.3600499912863597, 0.3757499944185838, 0.35504999686963856, 0.3567000094335526, 0.3684499970404431, 0.3589999978430569, 0.36219999310560524, 0.36094999813940376, 0.35474999458529055, 0.3585499944165349, 0.34595000033732504, 0.37480000173673034, 0.35909999860450625, 0.35400000342633575, 0.3559000033419579, 0.3479000006336719, 0.35379998735152185, 0.3574500005925074, 0.3539999888744205, 0.3667999990284443, 0.3556000010576099, 0.3554499999154359, 0.35674999526236206, 0.3558000025805086, 0.3632000007200986, 0.3589999978430569, 0.35859999479725957, 0.3539500030456111, 0.3494499978842214, 0.3704999980982393, 0.34889999369625, 0.37369999336078763, 0.3613500011852011, 0.3641499934019521, 0.35680001019500196, 0.3639499918790534, 0.3504000051179901, 0.3682999958982691, 0.3588499967008829, 0.35570000181905925, 0.3520500031299889, 0.36130000080447644, 0.3546499938238412, 0.3588499967008829, 0.3547999949660152, 0.35289999505039304, 0.35849999403581023, 0.3595000016503036, 0.3566499945009127, 0.3549499961081892, 0.3655500040622428, 0.3458499995758757, 0.36619999445974827, 0.36565000482369214, 0.3664999967440963, 0.3541000041877851, 0.3538499877322465, 0.34920001053251326, 0.3514499985612929, 0.35274999390821904, 0.3520500031299889, 0.37730000622104853, 0.35564998688641936, 0.35605000448413193, 0.3511499962769449, 0.35025000397581607, 0.35435000609140843, 0.35370000114198774, 0.3557500021997839, 0.363900006050244, 0.3647999983513728, 0.3649499994935468, 0.3515999997034669, 0.3582500066841021, 0.3649499994935468, 0.3546499938238412, 0.35134999779984355, 0.34764999873004854, 0.3544000064721331, 0.3898000140907243, 0.48745000094641, 0.35015000321436673, 0.3532999980961904, 0.35370000114198774, 0.3555000002961606, 0.35700001171790063, 0.38455000321846455, 0.36360000376589596, 0.3660500078694895, 0.36839999665971845, 0.3539500030456111, 0.3530999965732917, 0.35799999022856355, 0.35635000676847994, 0.34929999674204737, 0.36094999813940376, 0.36160000308882445, 0.3531499969540164, 0.3552999987732619, 0.36094999813940376, 0.35230000503361225, 0.35945000126957893, 0.3522500046528876, 0.3489500086288899, 0.35990000469610095, 0.35319999733474106, 0.36450001061894, 0.35650000791065395, 0.3542000049492344, 0.3651000006357208, 0.35025000397581607, 0.35629999183584005, 0.3522000042721629, 0.3510999958962202, 0.35715001286007464, 0.3487000067252666, 0.35709999792743474, 0.3519000019878149, 0.3608499973779544, 0.3556500014383346, 0.36705000093206763, 0.3610499989008531, 0.3581000055419281, 0.3728000010596588, 0.36099999852012843, 0.3525000065565109, 0.35180000122636557, 0.3684999974211678, 0.3506499924696982, 0.35075000778306276, 0.3531499969540164, 0.3637000045273453, 0.35385000228416175, 0.34890000824816525, 0.3470999945420772, 0.35814999137073755, 0.3566499945009127, 0.3682500100694597, 0.3576000017346814, 0.3618000046117231, 0.3546000079950318, 0.3470499941613525, 0.3616500034695491, 0.35414999001659453, 0.35354999999981374, 0.3525000065565109, 0.3560499899322167, 0.3539000026648864, 0.34654999035410583, 0.367750006262213, 0.3556000010576099, 0.3585499944165349, 0.3549000102793798, 0.34705000871326774, 0.3638500056695193, 0.3649499994935468, 0.3544999926816672, 0.35955000203102827, 0.36040000850334764, 0.35629999183584005, 0.35089999437332153, 0.35349999961908907, 0.3539000026648864, 0.37000000884290785, 0.35849999403581023, 0.3583000070648268, 0.3689500008476898, 0.35689999640453607, 0.35984998976346105, 0.35260000731796026, 0.37059999885968864, 0.36025000736117363, 0.35709999792743474, 0.3539999888744205, 0.3541999903973192, 0.35955000203102827, 0.34640000376384705, 0.3552000125637278, 0.3892999957315624, 0.3546999942045659, 0.35679999564308673, 0.3584500082070008, 0.35195000236853957, 0.35585000296123326, 0.3557500021997839, 0.35659999412018806, 0.3605999954743311, 0.3665999975055456, 0.3583499928936362, 0.3600000054575503, 0.35650000791065395, 0.3652500017778948, 0.35430000571068376, 0.35770000249613076, 0.3589500120142475, 0.3568499960238114, 0.3564500075299293, 0.3545500076143071, 0.35230000503361225, 0.5201000167289749, 0.4997999931219965, 0.35339999885763973, 0.35069999285042286, 0.35054999170824885, 0.3560499899322167, 0.3786000015679747, 0.35644999297801405, 0.3576500021154061, 0.35555000067688525, 0.3547999949660152, 0.35740000021178275, 0.35615000524558127, 0.3551499976310879, 0.3589000116335228, 0.35850000858772546, 0.35644999297801405, 0.34964999940712005, 0.36130000080447644, 0.3608999977586791, 0.38320000749081373, 0.348749992554076, 0.35945000126957893, 0.36210000689607114, 0.3532499977154657, 0.35075000778306276, 0.35540001408662647, 0.3515999997034669, 0.36099999852012843, 0.3534499992383644, 0.35909999860450625, 0.35195000236853957, 0.3520500031299889, 0.3524000057950616, 0.3471500094747171, 0.35445000685285777, 0.3515499993227422, 0.3887999919243157, 0.34675000642891973, 0.36859999818261713, 0.3563999925972894, 0.3566999948816374, 0.3500500024529174, 0.3558000025805086, 0.35709999792743474, 0.3589999978430569, 0.345649998052977, 0.35805000516120344, 0.3606000100262463, 0.35689999640453607, 0.3588499967008829, 0.35930000012740493, 0.34830000367946923, 0.3572999994503334, 0.3481500025372952, 0.35844999365508556, 0.35924999974668026, 0.3481500025372952, 0.3711000026669353, 0.3537499869707972, 0.34670000604819506, 0.3513000119710341, 0.35349999961908907, 0.3645999968284741, 0.36014999204780906, 0.36025000736117363, 0.3590499982237816, 0.35180000122636557, 0.3587499959394336, 0.34854999103117734, 0.3663499956019223, 0.3615500027080998, 0.35510001180227846, 0.35370000114198774, 0.3532499977154657, 0.352299990481697, 0.36404999264050275, 0.3607499966165051, 0.348599991411902, 0.35764998756349087, 0.36824999551754445, 0.3512499970383942, 0.3568499960238114, 0.3557500021997839, 0.3513500123517588, 0.3561999910743907, 0.35400000342633575, 0.3525500069372356, 0.3549000102793798, 0.35679999564308673, 0.37170000723563135, 0.35930000012740493, 0.35635000676847994, 0.35265000769868493, 0.3542500053299591, 0.3588499967008829, 0.3588999970816076, 0.3573499998310581, 0.3595999878598377, 0.3519000019878149, 0.3576500021154061, 0.34905000939033926, 0.3514499985612929, 0.3532499977154657, 0.3567000094335526, 0.35304999619256705, 0.3544999926816672, 0.3581999917514622, 0.3570499975467101, 0.3655500040622428, 0.35370000114198774, 0.3580000047804788, 0.37295000220183283, 0.3645999968284741, 0.3571999986888841, 0.3520500031299889, 0.35524999839253724, 0.35459999344311655, 0.3566499945009127, 0.36094999813940376, 0.37325000448618084, 0.34935001167468727, 0.3546000079950318, 0.36550000368151814, 0.3480000013951212, 0.35165000008419156, 0.35215000389143825, 0.36279999767430127, 0.3608999977586791, 0.3440000000409782, 0.4088499990757555, 0.36234999424777925, 0.34899999445769936, 0.34559999767225236, 0.5406000127550215, 0.36114999966230243, 0.4165499994996935, 0.35195000236853957, 0.35254999238532037, 0.3463000030023977, 0.3589000116335228, 0.3554499999154359, 0.3255500050727278, 0.34705000871326774, 0.3546000079950318, 0.3563499922165647, 0.3477499994914979, 0.3546000079950318, 0.35370000114198774, 0.3678499924717471, 0.38875000609550625, 0.3804500011028722, 0.34875000710599124, 0.3590499982237816, 0.35280000884085894, 0.3536500007612631, 0.35185000160709023, 0.35349999961908907, 0.3579499898478389, 0.36109999928157777, 0.3538999881129712, 0.36130000080447644, 0.35215000389143825, 0.364050007192418, 0.3586000093491748, 0.34839998988900334, 0.3569999971659854, 0.3632000007200986, 0.3522000042721629, 0.3583000070648268, 0.34919999598059803, 0.348449990269728, 0.3619499912019819, 0.3468000068096444, 0.42979998397640884, 0.35489999572746456, 0.35879999632015824, 0.3694000042742118, 0.35435000609140843, 0.3465000045252964, 0.3550000110408291, 0.3437000123085454, 0.3444500034675002, 0.35280000884085894, 0.3593500005081296, 0.3630499995779246, 0.35119999665766954, 0.36765000550076365, 0.3537500015227124, 0.35740000021178275, 0.3537500015227124, 0.36125000042375177, 0.36079999699722975, 0.34980000054929405, 0.3560999903129414, 0.34980000054929405, 0.35594998917076737, 0.35060000664088875, 0.37984999653417617, 0.3505999920889735, 0.3633500018622726, 0.3499999875202775, 0.3505999920889735, 0.3449500072747469, 0.35230000503361225, 0.3607499966165051, 0.3549499961081892, 0.35259999276604503, 0.3538499877322465, 0.3549499961081892, 0.3522500046528876, 0.35849999403581023, 0.36360000376589596, 0.36639999598264694, 0.36175000423099846, 0.37745000736322254, 0.3529999958118424, 0.3595000016503036, 0.35195000236853957, 0.3584000078262761, 0.36109999928157777, 0.35615000524558127, 0.35024998942390084, 0.3595000016503036, 0.3614000015659258, 0.3590499982237816, 0.3663499956019223, 0.35585000296123326, 0.35000000207219273, 0.3536500007612631, 0.3570499975467101, 0.36204999196343124, 0.39330001163762063, 0.35269999352749437, 0.3519000019878149, 0.34625000262167305, 0.434150017099455, 0.3981000045314431, 0.3570499975467101, 0.36064999585505575, 0.3532499977154657, 0.37739999243058264, 0.34779999987222254, 0.3483500040601939, 0.34869999217335135, 0.41865000093821436, 0.3659000067273155, 0.3578000032575801, 0.3497500001685694, 0.36145000194665045, 0.3578000032575801, 0.35579998802859336, 0.36955000541638583, 0.3521999897202477, 0.35025000397581607, 0.3492499963613227, 0.3499000013107434, 0.35269999352749437, 0.36380000528879464, 0.35339999885763973, 0.3551499976310879, 0.361100013833493, 0.3548500098986551, 0.3505999920889735, 0.36130000080447644, 0.3539500030456111, 0.3608499973779544, 0.3515499993227422, 0.35524999839253724, 0.3562500060070306, 0.35180000122636557, 0.36125000042375177, 0.3591499989852309, 0.3709500015247613, 0.3641500079538673, 0.3536000003805384, 0.36735000321641564, 0.3545499930623919, 0.36184999044053257, 0.3668999997898936, 0.3606999962357804, 0.3531499969540164, 0.3552999987732619, 0.3597499890020117, 0.35339999885763973, 0.34995000169146806, 0.3610499989008531, 0.3497500001685694, 0.3613499866332859, 0.36419999378267676, 0.3600499912863597, 0.34980000054929405, 0.3672499879030511, 0.35709999792743474, 0.3515499993227422, 0.35790000401902944, 0.3541000041877851, 0.3587500104913488, 0.3544999926816672, 0.3545499930623919, 0.34964999940712005, 0.352149989339523, 0.3633499873103574, 0.3468999930191785, 0.3531499969540164, 0.3506499924696982, 0.3540500038070604, 0.363900006050244, 0.3549499961081892, 0.3529499954311177, 0.3584500082070008, 0.3498500009300187, 0.3565500082913786, 0.3486499917926267, 0.34819998836610466, 0.3530000103637576, 0.364050007192418, 0.35319999733474106, 0.3557499876478687, 0.35385000228416175, 0.35230000503361225, 0.35975000355392694, 0.34749999758787453, 0.35165000008419156, 0.3559500037226826, 0.3614000015659258, 0.35195000236853957, 0.35400000342633575, 0.352149989339523, 0.35060000664088875, 0.35555000067688525, 0.3490999952191487, 0.35215000389143825, 0.3644499956863001, 0.35849999403581023, 0.37275000067893416, 0.3505999920889735, 0.3546000079950318, 0.3549499961081892, 0.35885001125279814, 0.3505999920889735, 0.3551499976310879, 0.3626000107033178, 0.3564500075299293, 0.35740000021178275, 0.3528500092215836, 0.35430000571068376, 0.3599499905249104, 0.3751499898498878, 0.3567500098142773, 0.35790000401902944, 0.3547000087564811, 0.3556000010576099, 0.35400000342633575, 0.3568499960238114, 0.3583499928936362, 0.5608500068774447, 0.47110000741668046, 0.35259999276604503, 0.3591499989852309, 0.3588499967008829, 0.3576500021154061, 0.37369999336078763, 0.36809999437537044, 0.3576000017346814, 0.3623500087996945, 0.35790000401902944, 0.35394998849369586, 0.35319999733474106, 0.35149999894201756, 0.3534499992383644, 0.35600000410340726, 0.3507000074023381, 0.3529999958118424, 0.3637000045273453, 0.3504000051179901, 0.3547000087564811, 0.3528499946696684, 0.36055000964552164, 0.3538999881129712, 0.35775000287685543, 0.3575000009732321, 0.3613500011852011, 0.3659999929368496, 0.34934999712277204, 0.3507999936118722, 0.35790000401902944, 0.3579500043997541, 0.3496999997878447, 0.35584998840931803, 0.3536500007612631, 0.3591999993659556, 0.3493999975034967, 0.3802999999606982, 0.3549499961081892, 0.3581999917514622, 0.3663499956019223, 0.3558999887900427, 0.3547000087564811, 0.3531499969540164, 0.35785000363830477, 0.35349999961908907, 0.35509999725036323, 0.3531499969540164, 0.36619999445974827, 0.3477499994914979, 0.35770000249613076, 0.35960000241175294, 0.3512999974191189, 0.3480500017758459, 0.36225000803824514, 0.35474999458529055, 0.32279999868478626, 0.3507000074023381, 0.367750006262213, 0.3542500053299591, 0.35709999792743474, 0.34889999369625, 0.35170000046491623, 0.35709999792743474, 0.35555000067688525, 0.35339999885763973, 0.3486500063445419, 0.3605999954743311, 0.3491500101517886, 0.3595000016503036, 0.40889999945648015, 0.3604500088840723, 0.35260000731796026, 0.35339999885763973, 0.35564998688641936, 0.3522000042721629, 0.3531499969540164, 0.35870001011062413, 0.3588499967008829, 0.35409998963586986, 0.36195000575389713, 0.36070001078769565, 0.3579500043997541, 0.3539999888744205, 0.35474999458529055, 0.3460500010987744, 0.3549999964889139, 0.3599499905249104, 0.3462999884504825, 0.35149999894201756, 0.36359998921398073, 0.3507000074023381, 0.3539000026648864, 0.36125000042375177, 0.3565499937394634, 0.3546000079950318, 0.3558000025805086, 0.3961000038543716, 0.3585499944165349, 0.3946999931940809, 0.3528499946696684, 0.35170000046491623, 0.35185000160709023, 0.3539000026648864, 0.35694999678526074, 0.36055000964552164, 0.36530000215861946, 0.3556000010576099, 0.36299999919719994, 0.3562500060070306, 0.3585499944165349, 0.3539999888744205, 0.3576000017346814, 0.3548499953467399, 0.3527999942889437, 0.3622000076575205, 0.3513999981805682, 0.36279999767430127, 0.35740000021178275, 0.3603000077418983, 0.36970000655855983, 0.40919998718891293, 0.3581000055419281, 0.5273499846225604, 0.41170000622514635, 0.35755000135395676, 0.4507999983616173, 0.3584000078262761, 0.42729999404400587, 0.361100013833493, 0.35539999953471124, 0.34825000329874456, 0.35149999894201756, 0.47494999307673424, 0.34714999492280185, 0.3583999932743609, 0.3497500001685694, 0.42180001037195325, 0.35339999885763973, 0.4206999874440953, 0.36994999391026795, 0.3504000051179901, 0.35930000012740493, 0.41449999844189733, 0.35195000236853957, 0.3522000042721629, 0.3513999981805682, 0.3545500076143071, 0.4785499913850799, 0.5515999946510419, 0.46514999121427536, 0.35149999894201756, 0.3490000090096146, 0.3520500031299889, 0.3595000016503036, 0.3603999939514324, 0.35555000067688525, 0.35409998963586986, 0.35770000249613076, 0.36100001307204366, 0.3806000022450462, 0.3605999954743311, 0.35990000469610095, 0.36345000262372196, 0.3714499907800928, 0.34344999585300684, 0.36125000042375177, 0.3565499937394634, 0.3524999920045957, 0.36604999331757426, 0.35339999885763973, 0.35849999403581023, 0.36034999357070774, 0.36365000414662063, 0.34729999606497586, 0.3532000118866563, 0.35524999839253724, 0.35864999517798424, 0.3569000109564513, 0.3621499927248806, 0.3510999958962202, 0.34995000169146806, 0.3509499947540462, 0.35165000008419156, 0.35585000296123326, 0.3556500014383346, 0.3514499985612929, 0.35724999906960875, 0.35435000609140843, 0.36315000033937395, 0.3564999933587387, 0.3522500046528876, 0.34720000985544175, 0.3600000054575503],
  "Depth": 16.5,
  "Expectation Value": -8.092991828918457,
  "Optimal Expectation Value": -8.5667724609375,
  "Optimizer durations [ms]": [8.393, 7.916, 19.704, 8.159, 8.005, 8.061, 8.025, 9.179, 8.051, 7.985, 21.956, 7.764, 8.226, 8.057, 8.165, 8.748, 8.306, 8.313, 18.015, 12.844, 8.043, 8.286, 8.268, 7.811, 8.078, 7.994, 8.601, 8.138, 8.057, 8.313, 8.366, 8.562, 7.978, 8.569, 8.105, 7.791, 8.559, 7.969, 8.191, 8.224, 8.027, 7.993, 8.054, 7.863, 8.625, 11.726, 7.9, 8.39, 8.136, 8.542, 8.109, 8.315, 8.101, 7.736, 8.641, 7.802, 8.569, 8.175, 8.362, 8.143, 8.329, 8.02, 8.408, 8.09, 8.537, 7.94, 8.218, 8.219, 8.298, 8.117, 8.014, 8.293, 7.998, 8.341, 8.234, 8.089, 8.049, 8.407, 8.184, 8.414, 8.005, 8.408, 8.025, 7.873, 8.019, 8.388, 8.459, 8.145, 8.178, 7.97, 7.855, 8.378, 7.959, 8.33, 8.244, 8.144, 8.378, 8.36, 8.099, 8.29, 8.256, 7.734, 7.93, 8.264, 19.953, 12.73, 8.045, 8.167, 8.119, 8.355, 8.247, 8.684, 8.235, 8.426, 8.731, 8.421, 8.114, 8.176, 8.152, 7.723, 8.298, 8.346, 8.233, 7.892, 8.25, 8.179, 8.123, 8.017, 8.053, 8.369, 7.929, 8.241, 8.818, 8.103, 8.491, 7.95, 7.944, 8.369, 8.133, 8.145, 10.012, 7.948, 7.878, 8.549, 7.914, 8.535, 8.208, 8.033, 8.524, 8.342, 8.135, 7.95, 8.793, 7.875, 8.094, 8.137, 8.501, 8.001, 8.059, 7.836, 8.337, 7.919, 8.459, 8.051, 13.199, 8.416, 7.902, 8.32, 7.866, 8.682, 8.027, 8.15, 7.79, 8.268, 8.356, 8.099, 8.24, 8.529, 8.063, 8.454, 8.461, 7.813, 8.183, 8.351, 8.314, 7.831, 7.993, 8.078, 8.575, 8.099, 8.156, 8.371, 8.425, 8.226, 7.816, 8.622, 8.219, 8.088, 8.164, 8.008, 8.472, 7.748, 8.252, 8.654, 8.442, 8.106, 8.02, 8.229, 8.058, 8.195, 8.27, 7.97, 8.331, 8.514, 8.011, 8.066, 8.366, 8.167, 8.184, 8.138, 8.137, 8.143, 8.075, 8.083, 15.59, 18.964, 8.169, 7.808, 8.152, 7.798, 8.82, 8.388, 8.259, 8.189, 8.275, 8.229, 8.048, 8.162, 8.071, 8.514, 7.943, 8.331, 8.176, 8.27, 8.632, 8.24, 8.079, 8.211, 8.295, 8.038, 8.156, 8.094, 8.187, 8.055, 8.349, 7.97, 7.931, 7.858, 8.133, 7.938, 10.111, 8.696, 7.969, 8.702, 8.114, 8.151, 8.118, 8.279, 8.006, 8.27, 7.852, 8.454, 8.248, 8.227, 7.974, 8.129, 7.87, 8.131, 7.912, 8.289, 8.146, 8.027, 8.434, 13.587, 7.897, 8.173, 8.066, 8.154, 8.488, 8.196, 8.401, 7.828, 8.501, 7.881, 8.644, 8.25, 8.012, 8.3, 7.922, 7.781, 8.269, 8.383, 8.478, 8.256, 8.407, 8.068, 8.469, 8.264, 8.091, 8.075, 8.325, 7.959, 8.176, 8.093, 8.606, 8.06, 8.16, 8.308, 8.148, 8.054, 8.398, 8.053, 8.603, 7.82, 8.657, 7.982, 8.244, 7.818, 8.255, 8.293, 8.289, 7.998, 8.142, 8.474, 8.221, 8.236, 8.371, 8.454, 8.01, 8.177, 8.168, 7.977, 8.398, 8.217, 10.625, 7.938, 8.236, 8.076, 12.647, 7.843, 8.545, 8.549, 8.025, 7.955, 9.294, 8.284, 9.194, 7.916, 15.353, 11.178, 9.147, 7.875, 8.006, 8.08, 8.505, 8.203, 23.653, 8.274, 8.111, 7.879, 9.574, 7.948, 8.418, 8.339, 18.208, 10.969, 10.479, 8.465, 8.188, 8.068, 7.967, 8.013, 8.028, 8.465, 7.86, 8.448, 7.977, 8.331, 8.212, 8.093, 8.002, 8.468, 8.155, 8.237, 7.961, 8.101, 7.95, 8.257, 14.403, 8.082, 8.088, 8.311, 8.117, 8.073, 8.007, 8.019, 7.953, 8.164, 8.116, 8.342, 8.104, 8.116, 8.151, 8.249, 8.143, 8.373, 8.252, 7.976, 8.09, 8.126, 7.884, 8.02, 8.534, 8.104, 8.639, 7.865, 8.117, 7.744, 8.004, 8.209, 8.141, 7.946, 7.994, 8.26, 8.047, 8.387, 8.212, 8.325, 8.36, 8.623, 7.991, 8.285, 7.968, 8.654, 8.351, 8.297, 7.699, 8.162, 8.434, 7.956, 8.637, 8.162, 7.934, 8.224, 8.304, 8.384, 8.913, 7.923, 8.208, 7.814, 20.199, 11.45, 8.579, 8.206, 8.167, 8.451, 8.053, 8.188, 7.851, 9.155, 8.598, 7.991, 7.985, 8.55, 8.202, 7.92, 8.636, 7.815, 8.214, 7.988, 7.916, 8.012, 8.533, 7.987, 8.117, 8.253, 8.066, 7.829, 8.432, 7.916, 8.198, 8.429, 7.863, 8.575, 7.998, 8.072, 12.825, 8.373, 8.496, 7.925, 8.557, 8.135, 8.262, 8.211, 8.363, 8.259, 8.085, 8.178, 8.014, 7.985, 8.326, 8.03, 8.113, 8.377, 8.193, 8.0, 8.601, 13.932, 8.161, 8.323, 8.044, 8.052, 8.186, 7.982, 8.041, 8.204, 8.0, 8.091, 8.234, 7.953, 8.191, 8.121, 8.221, 8.249, 8.175, 8.033, 8.153, 7.651, 8.126, 7.876, 8.447, 8.284, 8.176, 8.082, 7.824, 8.195, 8.055, 8.177, 8.043, 8.186, 8.219, 8.171, 7.92, 8.327, 7.88, 8.277, 8.111, 8.035, 8.466, 8.306, 8.148, 8.016, 7.883, 8.521, 7.868, 8.859, 8.48, 8.178, 8.06, 8.242, 8.06, 8.116, 8.673, 8.074, 8.05, 8.451, 8.146, 7.881, 8.212, 8.142, 18.388, 18.143, 7.855, 8.255, 8.389, 8.047, 8.69, 8.831, 8.064, 8.531, 8.155, 8.099, 8.232, 8.036, 7.777, 8.085, 8.183, 7.893, 8.445, 8.089, 8.121, 8.03, 8.109, 8.272, 8.249, 8.087, 8.416, 8.373, 7.958, 7.982, 8.008, 8.424, 8.03, 7.895, 8.276, 8.633, 8.55, 8.669, 8.448, 8.436, 8.272, 8.184, 8.182, 8.027, 8.066, 7.979, 8.222, 7.877, 8.495, 8.128, 7.931, 8.068, 8.133, 8.085, 8.398, 8.097, 12.142, 7.957, 8.577, 8.04, 8.119, 8.228, 7.733, 8.442, 8.254, 7.991, 7.739, 8.234, 8.064, 8.236, 9.163, 8.435, 7.761, 8.115, 8.396, 8.083, 8.091, 8.291, 8.084, 8.019, 8.333, 8.376, 8.097, 7.994, 8.25, 8.02, 8.116, 8.068, 8.025, 8.133, 8.197, 8.149, 8.27, 7.97, 8.459, 8.232, 8.089, 8.853, 8.403, 8.705, 8.503, 8.191, 7.851, 8.412, 8.016, 8.267, 8.375, 8.092, 8.328, 8.265, 8.09, 8.126, 8.541, 8.142, 7.799, 8.193, 8.093, 8.303, 8.35, 8.271, 11.291, 9.444, 8.215, 11.463, 9.075, 8.23, 9.709, 8.204, 9.265, 8.346, 9.949, 8.963, 7.936, 10.212, 18.939, 8.336, 8.14, 9.374, 7.908, 9.539, 8.497, 21.031, 8.092, 9.126, 7.824, 11.078, 8.843, 7.957, 10.619, 21.852, 10.679, 8.338, 8.14, 7.94, 8.106, 8.286, 8.316, 7.97, 8.325, 8.024, 8.871, 8.004, 8.18, 8.153, 8.572, 8.185, 7.914, 8.322, 8.128, 8.338, 11.659, 8.221, 7.945, 8.446, 8.085, 7.905, 8.242, 7.969, 8.233, 8.079, 8.141, 8.025, 8.018, 8.088, 8.341, 7.944, 8.146, 8.109, 8.248, 8.305, 8.01, 8.438, 7.809, 8.435],
  "Optimizer iterations": 774,
  "Optimizer params": [0.00019713779737859572, 0.5766802209586128, 0.9338429540320741, 0.0618835733001444, 0.5601622104698746, 0.8935160519196345, 0.35977932753408026, 0.9583745992869197, 0.6018454259716872, 0.3074655411517336, 0.8002221831249652, 0.8704617639203773, 0.4741450976014352, 0.9983760104700773, 0.9723195396087945, 0.46031073044955384, 0.4775328418722821, 0.033372326871578796, 0.4756758704990584, 0.6062475667510251, 0.6543366591380926, 0.08013682229883735, 0.08844271320111703, 0.009749080052573475, 0.6595068169764176, 0.0370809649681877, 0.31023359151294805, 0.7175541852046287],
  "P": 0,
  "Problem": "IC",
  "QJob durations [ms]": [0.36249999538995326, 0.3482000029180199, 0.4129000153625384, 0.3573499998310581, 0.3515999997034669, 0.35414999001659453, 0.352299990481697, 0.40674999763723463, 0.3559000033419579, 0.35445000685285777, 0.35304999619256705, 0.3497999859973788, 0.3507000074023381, 0.35790000401902944, 0.3546999942045659, 0.4096500051673502, 0.3506500070216134, 0.36625000939238816, 0.3691500023705885, 0.46779998228885233, 0.3519000019878149, 0.3578000032575801, 0.3595000016503036, 0.3476000129012391, 0.34950001281686127, 0.3600499912863597, 0.3757499944185838, 0.35504999686963856, 0.3567000094335526, 0.3684499970404431, 0.3589999978430569, 0.36219999310560524, 0.36094999813940376, 0.35474999458529055, 0.3585499944165349, 0.34595000033732504, 0.37480000173673034, 0.35909999860450625, 0.35400000342633575, 0.3559000033419579, 0.3479000006336719, 0.35379998735152185, 0.3574500005925074, 0.3539999888744205, 0.3667999990284443, 0.3556000010576099, 0.3554499999154359, 0.35674999526236206, 0.3558000025805086, 0.3632000007200986, 0.3589999978430569, 0.35859999479725957, 0.3539500030456111, 0.3494499978842214, 0.3704999980982393, 0.34889999369625, 0.37369999336078763, 0.3613500011852011, 0.3641499934019521, 0.35680001019500196, 0.3639499918790534, 0.3504000051179901, 0.3682999958982691, 0.3588499967008829, 0.35570000181905925, 0.3520500031299889, 0.36130000080447644, 0.3546499938238412, 0.3588499967008829, 0.3547999949660152, 0.35289999505039304, 0.35849999403581023, 0.3595000016503036, 0.3566499945009127, 0.3549499961081892, 0.3655500040622428, 0.3458499995758757, 0.36619999445974827, 0.36565000482369214, 0.3664999967440963, 0.3541000041877851, 0.3538499877322465, 0.34920001053251326, 0.3514499985612929, 0.35274999390821904, 0.3520500031299889, 0.37730000622104853, 0.35564998688641936, 0.35605000448413193, 0.3511499962769449, 0.35025000397581607, 0.35435000609140843, 0.35370000114198774, 0.3557500021997839, 0.363900006050244, 0.3647999983513728, 0.3649499994935468, 0.3515999997034669, 0.3582500066841021, 0.3649499994935468, 0.3546499938238412, 0.35134999779984355, 0.34764999873004854, 0.3544000064721331, 0.3898000140907243, 0.48745000094641, 0.35015000321436673, 0.3532999980961904, 0.35370000114198774, 0.3555000002961606, 0.35700001171790063, 0.38455000321846455, 0.36360000376589596, 0.3660500078694895, 0.36839999665971845, 0.3539500030456111, 0.3530999965732917, 0.35799999022856355, 0.35635000676847994, 0.34929999674204737, 0.36094999813940376, 0.36160000308882445, 0.3531499969540164, 0.3552999987732619, 0.36094999813940376, 0.35230000503361225, 0.35945000126957893, 0.3522500046528876, 0.3489500086288899, 0.35990000469610095, 0.35319999733474106, 0.36450001061894, 0.35650000791065395, 0.3542000049492344, 0.3651000006357208, 0.35025000397581607, 0.35629999183584005, 0.3522000042721629, 0.3510999958962202, 0.35715001286007464, 0.3487000067252666, 0.35709999792743474, 0.3519000019878149, 0.3608499973779544, 0.3556500014383346, 0.36705000093206763, 0.3610499989008531, 0.3581000055419281, 0.3728000010596588, 0.36099999852012843, 0.3525000065565109, 0.35180000122636557, 0.3684999974211678, 0.3506499924696982, 0.35075000778306276, 0.3531499969540164, 0.3637000045273453, 0.35385000228416175, 0.34890000824816525, 0.3470999945420772, 0.35814999137073755, 0.3566499945009127, 0.3682500100694597, 0.3576000017346814, 0.3618000046117231, 0.3546000079950318, 0.3470499941613525, 0.3616500034695491, 0.35414999001659453, 0.35354999999981374, 0.3525000065565109, 0.3560499899322167, 0.3539000026648864, 0.34654999035410583, 0.367750006262213, 0.3556000010576099, 0.3585499944165349, 0.3549000102793798, 0.34705000871326774, 0.3638500056695193, 0.3649499994935468, 0.3544999926816672, 0.35955000203102827, 0.36040000850334764, 0.35629999183584005, 0.35089999437332153, 0.35349999961908907, 0.3539000026648864, 0.37000000884290785, 0.35849999403581023, 0.3583000070648268, 0.3689500008476898, 0.35689999640453607, 0.35984998976346105, 0.35260000731796026, 0.37059999885968864, 0.36025000736117363, 0.35709999792743474, 0.3539999888744205, 0.3541999903973192, 0.35955000203102827, 0.34640000376384705, 0.3552000125637278, 0.3892999957315624, 0.3546999942045659, 0.35679999564308673, 0.3584500082070008, 0.35195000236853957, 0.35585000296123326, 0.3557500021997839, 0.35659999412018806, 0.3605999954743311, 0.3665999975055456, 0.3583499928936362, 0.3600000054575503, 0.35650000791065395, 0.3652500017778948, 0.35430000571068376, 0.35770000249613076, 0.3589500120142475, 0.3568499960238114, 0.3564500075299293, 0.3545500076143071, 0.35230000503361225, 0.5201000167289749, 0.4997999931219965, 0.35339999885763973, 0.35069999285042286, 0.35054999170824885, 0.3560499899322167, 0.3786000015679747, 0.35644999297801405, 0.3576500021154061, 0.35555000067688525, 0.3547999949660152, 0.35740000021178275, 0.35615000524558127, 0.3551499976310879, 0.3589000116335228, 0.35850000858772546, 0.35644999297801405, 0.34964999940712005, 0.36130000080447644, 0.3608999977586791, 0.38320000749081373, 0.348749992554076, 0.35945000126957893, 0.36210000689607114, 0.3532499977154657, 0.35075000778306276, 0.35540001408662647, 0.3515999997034669, 0.36099999852012843, 0.3534499992383644, 0.35909999860450625, 0.35195000236853957, 0.3520500031299889, 0.3524000057950616, 0.3471500094747171, 0.35445000685285777, 0.3515499993227422, 0.3887999919243157, 0.34675000642891973, 0.36859999818261713, 0.3563999925972894, 0.3566999948816374, 0.3500500024529174, 0.3558000025805086, 0.35709999792743474, 0.3589999978430569, 0.345649998052977, 0.35805000516120344, 0.3606000100262463, 0.35689999640453607, 0.3588499967008829, 0.35930000012740493, 0.34830000367946923, 0.3572999994503334, 0.3481500025372952, 0.35844999365508556, 0.35924999974668026, 0.3481500025372952, 0.3711000026669353, 0.3537499869707972, 0.34670000604819506, 0.3513000119710341, 0.35349999961908907, 0.3645999968284741, 0.36014999204780906, 0.36025000736117363, 0.3590499982237816, 0.35180000122636557, 0.3587499959394336, 0.34854999103117734, 0.3663499956019223, 0.3615500027080998, 0.35510001180227846, 0.35370000114198774, 0.3532499977154657, 0.352299990481697, 0.36404999264050275, 0.3607499966165051, 0.348599991411902, 0.35764998756349087, 0.36824999551754445, 0.3512499970383942, 0.3568499960238114, 0.3557500021997839, 0.3513500123517588, 0.3561999910743907, 0.35400000342633575, 0.3525500069372356, 0.3549000102793798, 0.35679999564308673, 0.37170000723563135, 0.35930000012740493, 0.35635000676847994, 0.35265000769868493, 0.3542500053299591, 0.3588499967008829, 0.3588999970816076, 0.3573499998310581, 0.3595999878598377, 0.3519000019878149, 0.3576500021154061, 0.34905000939033926, 0.3514499985612929, 0.3532499977154657, 0.3567000094335526, 0.35304999619256705, 0.3544999926816672, 0.3581999917514622, 0.3570499975467101, 0.3655500040622428, 0.35370000114198774, 0.3580000047804788, 0.37295000220183283, 0.3645999968284741, 0.3571999986888841, 0.3520500031299889, 0.35524999839253724, 0.35459999344311655, 0.3566499945009127, 0.36094999813940376, 0.37325000448618084, 0.34935001167468727, 0.3546000079950318, 0.36550000368151814, 0.3480000013951212, 0.35165000008419156, 0.35215000389143825, 0.36279999767430127, 0.3608999977586791, 0.3440000000409782, 0.4088499990757555, 0.36234999424777925, 0.34899999445769936, 0.34559999767225236, 0.5406000127550215, 0.36114999966230243, 0.4165499994996935, 0.35195000236853957, 0.35254999238532037, 0.3463000030023977, 0.3589000116335228, 0.3554499999154359, 0.3255500050727278, 0.34705000871326774, 0.3546000079950318, 0.3563499922165647, 0.3477499994914979, 0.3546000079950318, 0.35370000114198774, 0.3678499924717471, 0.38875000609550625, 0.3804500011028722, 0.34875000710599124, 0.3590499982237816, 0.35280000884085894, 0.3536500007612631, 0.35185000160709023, 0.35349999961908907, 0.3579499898478389, 0.36109999928157777, 0.3538999881129712, 0.36130000080447644, 0.35215000389143825, 0.364050007192418, 0.3586000093491748, 0.34839998988900334, 0.3569999971659854, 0.3632000007200986, 0.3522000042721629, 0.3583000070648268, 0.34919999598059803, 0.348449990269728, 0.3619499912019819, 0.3468000068096444, 0.42979998397640884, 0.35489999572746456, 0.35879999632015824, 0.3694000042742118, 0.35435000609140843, 0.3465000045252964, 0.3550000110408291, 0.3437000123085454, 0.3444500034675002, 0.35280000884085894, 0.3593500005081296, 0.3630499995779246, 0.35119999665766954, 0.36765000550076365, 0.3537500015227124, 0.35740000021178275, 0.3537500015227124, 0.36125000042375177, 0.36079999699722975, 0.34980000054929405, 0.3560999903129414, 0.34980000054929405, 0.35594998917076737, 0.35060000664088875, 0.37984999653417617, 0.3505999920889735, 0.3633500018622726, 0.3499999875202775, 0.3505999920889735, 0.3449500072747469, 0.35230000503361225, 0.3607499966165051, 0.3549499961081892, 0.35259999276604503, 0.3538499877322465, 0.3549499961081892, 0.3522500046528876, 0.35849999403581023, 0.36360000376589596, 0.36639999598264694, 0.36175000423099846, 0.37745000736322254, 0.3529999958118424, 0.3595000016503036, 0.35195000236853957, 0.3584000078262761, 0.36109999928157777, 0.35615000524558127, 0.35024998942390084, 0.3595000016503036, 0.3614000015659258, 0.3590499982237816, 0.3663499956019223, 0.35585000296123326, 0.35000000207219273, 0.3536500007612631, 0.3570499975467101, 0.36204999196343124, 0.39330001163762063, 0.35269999352749437, 0.3519000019878149, 0.34625000262167305, 0.434150017099455, 0.3981000045314431, 0.3570499975467101, 0.36064999585505575, 0.3532499977154657, 0.37739999243058264, 0.34779999987222254, 0.3483500040601939, 0.34869999217335135, 0.41865000093821436, 0.3659000067273155, 0.3578000032575801, 0.3497500001685694, 0.36145000194665045, 0.3578000032575801, 0.35579998802859336, 0.36955000541638583, 0.3521999897202477, 0.35025000397581607, 0.3492499963613227, 0.3499000013107434, 0.35269999352749437, 0.36380000528879464, 0.35339999885763973, 0.3551499976310879, 0.361100013833493, 0.3548500098986551, 0.3505999920889735, 0.36130000080447644, 0.3539500030456111, 0.3608499973779544, 0.3515499993227422, 0.35524999839253724, 0.3562500060070306, 0.35180000122636557, 0.36125000042375177, 0.3591499989852309, 0.3709500015247613, 0.3641500079538673, 0.3536000003805384, 0.36735000321641564, 0.3545499930623919, 0.36184999044053257, 0.3668999997898936, 0.3606999962357804, 0.3531499969540164, 0.3552999987732619, 0.3597499890020117, 0.35339999885763973, 0.34995000169146806, 0.3610499989008531, 0.3497500001685694, 0.3613499866332859, 0.36419999378267676, 0.3600499912863597, 0.34980000054929405, 0.3672499879030511, 0.35709999792743474, 0.3515499993227422, 0.35790000401902944, 0.3541000041877851, 0.3587500104913488, 0.3544999926816672, 0.3545499930623919, 0.34964999940712005, 0.352149989339523, 0.3633499873103574, 0.3468999930191785, 0.3531499969540164, 0.3506499924696982, 0.3540500038070604, 0.363900006050244, 0.3549499961081892, 0.3529499954311177, 0.3584500082070008, 0.3498500009300187, 0.3565500082913786, 0.3486499917926267, 0.34819998836610466, 0.3530000103637576, 0.364050007192418, 0.35319999733474106, 0.3557499876478687, 0.35385000228416175, 0.35230000503361225, 0.35975000355392694, 0.34749999758787453, 0.35165000008419156, 0.3559500037226826, 0.3614000015659258, 0.35195000236853957, 0.35400000342633575, 0.352149989339523, 0.35060000664088875, 0.35555000067688525, 0.3490999952191487, 0.35215000389143825, 0.3644499956863001, 0.35849999403581023, 0.37275000067893416, 0.3505999920889735, 0.3546000079950318, 0.3549499961081892, 0.35885001125279814, 0.3505999920889735, 0.3551499976310879, 0.3626000107033178, 0.3564500075299293, 0.35740000021178275, 0.3528500092215836, 0.35430000571068376, 0.3599499905249104, 0.3751499898498878, 0.3567500098142773, 0.35790000401902944, 0.3547000087564811, 0.3556000010576099, 0.35400000342633575, 0.3568499960238114, 0.3583499928936362, 0.5608500068774447, 0.47110000741668046, 0.35259999276604503, 0.3591499989852309, 0.3588499967008829, 0.3576500021154061, 0.37369999336078763, 0.36809999437537044, 0.3576000017346814, 0.3623500087996945, 0.35790000401902944, 0.35394998849369586, 0.35319999733474106, 0.35149999894201756, 0.3534499992383644, 0.35600000410340726, 0.3507000074023381, 0.3529999958118424, 0.3637000045273453, 0.3504000051179901, 0.3547000087564811, 0.3528499946696684, 0.36055000964552164, 0.3538999881129712, 0.35775000287685543, 0.3575000009732321, 0.3613500011852011, 0.3659999929368496, 0.34934999712277204, 0.3507999936118722, 0.35790000401902944, 0.3579500043997541, 0.3496999997878447, 0.35584998840931803, 0.3536500007612631, 0.3591999993659556, 0.3493999975034967, 0.3802999999606982, 0.3549499961081892, 0.3581999917514622, 0.3663499956019223, 0.3558999887900427, 0.3547000087564811, 0.3531499969540164, 0.35785000363830477, 0.35349999961908907, 0.35509999725036323, 0.3531499969540164, 0.36619999445974827, 0.3477499994914979, 0.35770000249613076, 0.35960000241175294, 0.3512999974191189, 0.3480500017758459, 0.36225000803824514, 0.35474999458529055, 0.32279999868478626, 0.3507000074023381, 0.367750006262213, 0.3542500053299591, 0.35709999792743474, 0.34889999369625, 0.35170000046491623, 0.35709999792743474, 0.35555000067688525, 0.35339999885763973, 0.3486500063445419, 0.3605999954743311, 0.3491500101517886, 0.3595000016503036, 0.40889999945648015, 0.3604500088840723, 0.35260000731796026, 0.35339999885763973, 0.35564998688641936, 0.3522000042721629, 0.3531499969540164, 0.35870001011062413, 0.3588499967008829, 0.35409998963586986, 0.36195000575389713, 0.36070001078769565, 0.3579500043997541, 0.3539999888744205, 0.35474999458529055, 0.3460500010987744, 0.3549999964889139, 0.3599499905249104, 0.3462999884504825, 0.35149999894201756, 0.36359998921398073, 0.3507000074023381, 0.3539000026648864, 0.36125000042375177, 0.3565499937394634, 0.3546000079950318, 0.3558000025805086, 0.3961000038543716, 0.3585499944165349, 0.3946999931940809, 0.3528499946696684, 0.35170000046491623, 0.35185000160709023, 0.3539000026648864, 0.35694999678526074, 0.36055000964552164, 0.36530000215861946, 0.3556000010576099, 0.36299999919719994, 0.3562500060070306, 0.3585499944165349, 0.3539999888744205, 0.3576000017346814, 0.3548499953467399, 0.3527999942889437, 0.3622000076575205, 0.3513999981805682, 0.36279999767430127, 0.35740000021178275, 0.3603000077418983, 0.36970000655855983, 0.40919998718891293, 0.3581000055419281, 0.5273499846225604, 0.41170000622514635, 0.35755000135395676, 0.4507999983616173, 0.3584000078262761, 0.42729999404400587, 0.361100013833493, 0.35539999953471124, 0.34825000329874456, 0.35149999894201756, 0.47494999307673424, 0.34714999492280185, 0.3583999932743609, 0.3497500001685694, 0.42180001037195325, 0.35339999885763973, 0.4206999874440953, 0.36994999391026795, 0.3504000051179901, 0.35930000012740493, 0.41449999844189733, 0.35195000236853957, 0.3522000042721629, 0.3513999981805682, 0.3545500076143071, 0.4785499913850799, 0.5515999946510419, 0.46514999121427536, 0.35149999894201756, 0.3490000090096146, 0.3520500031299889, 0.3595000016503036, 0.3603999939514324, 0.35555000067688525, 0.35409998963586986, 0.35770000249613076, 0.36100001307204366, 0.3806000022450462, 0.3605999954743311, 0.35990000469610095, 0.36345000262372196, 0.3714499907800928, 0.34344999585300684, 0.36125000042375177, 0.3565499937394634, 0.3524999920045957, 0.36604999331757426, 0.35339999885763973, 0.35849999403581023, 0.36034999357070774, 0.36365000414662063, 0.34729999606497586, 0.3532000118866563, 0.35524999839253724, 0.35864999517798424, 0.3569000109564513, 0.3621499927248806, 0.3510999958962202, 0.34995000169146806, 0.3509499947540462, 0.35165000008419156, 0.35585000296123326, 0.3556500014383346, 0.3514499985612929, 0.35724999906960875, 0.35435000609140843, 0.36315000033937395, 0.3564999933587387, 0.3522500046528876, 0.34720000985544175, 0.3600000054575503],
  "QPU": "7000000",
  "Qubits": 7,
  "Queue durations [ms]": [0.0, 0.0, 0.0, 0.0, 0.0, 0.0, 0.0, 0.0, 0.0, 0.0, 0.0, 0.0, 0.0, 0.0, 0.0, 0.0, 0.0, 0.0, 0.0, 0.0, 0.0, 0.0, 0.0, 0.0, 0.0, 0.0, 0.0, 0.0, 0.0, 0.0, 0.0, 0.0, 0.0, 0.0, 0.0, 0.0, 0.0, 0.0, 0.0, 0.0, 0.0, 0.0, 0.0, 0.0, 0.0, 0.0, 0.0, 0.0, 0.0, 0.0, 0.0, 0.0, 0.0, 0.0, 0.0, 0.0, 0.0, 0.0, 0.0, 0.0, 0.0, 0.0, 0.0, 0.0, 0.0, 0.0, 0.0, 0.0, 0.0, 0.0, 0.0, 0.0, 0.0, 0.0, 0.0, 0.0, 0.0, 0.0, 0.0, 0.0, 0.0, 0.0, 0.0, 0.0, 0.0, 0.0, 0.0, 0.0, 0.0, 0.0, 0.0, 0.0, 0.0, 0.0, 0.0, 0.0, 0.0, 0.0, 0.0, 0.0, 0.0, 0.0, 0.0, 0.0, 0.0, 0.0, 0.0, 0.0, 0.0, 0.0, 0.0, 0.0, 0.0, 0.0, 0.0, 0.0, 0.0, 0.0, 0.0, 0.0, 0.0, 0.0, 0.0, 0.0, 0.0, 0.0, 0.0, 0.0, 0.0, 0.0, 0.0, 0.0, 0.0, 0.0, 0.0, 0.0, 0.0, 0.0, 0.0, 0.0, 0.0, 0.0, 0.0, 0.0, 0.0, 0.0, 0.0, 0.0, 0.0, 0.0, 0.0, 0.0, 0.0, 0.0, 0.0, 0.0, 0.0, 0.0, 0.0, 0.0, 0.0, 0.0, 0.0, 0.0, 0.0, 0.0, 0.0, 0.0, 0.0, 0.0, 0.0, 0.0, 0.0, 0.0, 0.0, 0.0, 0.0, 0.0, 0.0, 0.0, 0.0, 0.0, 0.0, 0.0, 0.0, 0.0, 0.0, 0.0, 0.0, 0.0, 0.0, 0.0, 0.0, 0.0, 0.0, 0.0, 0.0, 0.0, 0.0, 0.0, 0.0, 0.0, 0.0, 0.0, 0.0, 0.0, 0.0, 0.0, 0.0, 0.0, 0.0, 0.0, 0.0, 0.0, 0.0, 0.0, 0.0, 0.0, 0.0, 0.0, 0.0, 0.0, 0.0, 0.0, 0.0, 0.0, 0.0, 0.0, 0.0, 0.0, 0.0, 0.0, 0.0, 0.0, 0.0, 0.0, 0.0, 0.0, 0.0, 0.0, 0.0, 0.0, 0.0, 0.0, 0.0, 0.0, 0.0, 0.0, 0.0, 0.0, 0.0, 0.0, 0.0, 0.0, 0.0, 0.0, 0.0, 0.0, 0.0, 0.0, 0.0, 0.0, 0.0, 0.0, 0.0, 0.0, 0.0, 0.0, 0.0, 0.0, 0.0, 0.0, 0.0, 0.0, 0.0, 0.0, 0.0, 0.0, 0.0, 0.0, 0.0, 0.0, 0.0, 0.0, 0.0, 0.0, 0.0, 0.0, 0.0, 0.0, 0.0, 0.0, 0.0, 0.0, 0.0, 0.0, 0.0, 0.0, 0.0, 0.0, 0.0, 0.0, 0.0, 0.0, 0.0, 0.0, 0.0, 0.0, 0.0, 0.0, 0.0, 0.0, 0.0, 0.0, 0.0, 0.0, 0.0, 0.0, 0.0, 0.0, 0.0, 0.0, 0.0, 0.0, 0.0, 0.0, 0.0, 0.0, 0.0, 0.0, 0.0, 0.0, 0.0, 0.0, 0.0, 0.0, 0.0, 0.0, 0.0, 0.0, 0.0, 0.0, 0.0, 0.0, 0.0, 0.0, 0.0, 0.0, 0.0, 0.0, 0.0, 0.0, 0.0, 0.0, 0.0, 0.0, 0.0, 0.0, 0.0, 0.0, 0.0, 0.0, 0.0, 0.0, 0.0, 0.0, 0.0, 0.0, 0.0, 0.0, 0.0, 0.0, 0.0, 0.0, 0.0, 0.0, 0.0, 0.0, 0.0, 0.0, 0.0, 0.0, 0.0, 0.0, 0.0, 0.0, 0.0, 0.0, 0.0, 0.0, 0.0, 0.0, 0.0, 0.0, 0.0, 0.0, 0.0, 0.0, 0.0, 0.0, 0.0, 0.0, 0.0, 0.0, 0.0, 0.0, 0.0, 0.0, 0.0, 0.0, 0.0, 0.0, 0.0, 0.0, 0.0, 0.0, 0.0, 0.0, 0.0, 0.0, 0.0, 0.0, 0.0, 0.0, 0.0, 0.0, 0.0, 0.0, 0.0, 0.0, 0.0, 0.0, 0.0, 0.0, 0.0, 0.0, 0.0, 0.0, 0.0, 0.0, 0.0, 0.0, 0.0, 0.0, 0.0, 0.0, 0.0, 0.0, 0.0, 0.0, 0.0, 0.0, 0.0, 0.0, 0.0, 0.0, 0.0, 0.0, 0.0, 0.0, 0.0, 0.0, 0.0, 0.0, 0.0, 0.0, 0.0, 0.0, 0.0, 0.0, 0.0, 0.0, 0.0, 0.0, 0.0, 0.0, 0.0, 0.0, 0.0, 0.0, 0.0, 0.0, 0.0, 0.0, 0.0, 0.0, 0.0, 0.0, 0.0, 0.0, 0.0, 0.0, 0.0, 0.0, 0.0, 0.0, 0.0, 0.0, 0.0, 0.0, 0.0, 0.0, 0.0, 0.0, 0.0, 0.0, 0.0, 0.0, 0.0, 0.0, 0.0, 0.0, 0.0, 0.0, 0.0, 0.0, 0.0, 0.0, 0.0, 0.0, 0.0, 0.0, 0.0, 0.0, 0.0, 0.0, 0.0, 0.0, 0.0, 0.0, 0.0, 0.0, 0.0, 0.0, 0.0, 0.0, 0.0, 0.0, 0.0, 0.0, 0.0, 0.0, 0.0, 0.0, 0.0, 0.0, 0.0, 0.0, 0.0, 0.0, 0.0, 0.0, 0.0, 0.0, 0.0, 0.0, 0.0, 0.0, 0.0, 0.0, 0.0, 0.0, 0.0, 0.0, 0.0, 0.0, 0.0, 0.0, 0.0, 0.0, 0.0, 0.0, 0.0, 0.0, 0.0, 0.0, 0.0, 0.0, 0.0, 0.0, 0.0, 0.0, 0.0, 0.0, 0.0, 0.0, 0.0, 0.0, 0.0, 0.0, 0.0, 0.0, 0.0, 0.0, 0.0, 0.0, 0.0, 0.0, 0.0, 0.0, 0.0, 0.0, 0.0, 0.0, 0.0, 0.0, 0.0, 0.0, 0.0, 0.0, 0.0, 0.0, 0.0, 0.0, 0.0, 0.0, 0.0, 0.0, 0.0, 0.0, 0.0, 0.0, 0.0, 0.0, 0.0, 0.0, 0.0, 0.0, 0.0, 0.0, 0.0, 0.0, 0.0, 0.0, 0.0, 0.0, 0.0, 0.0, 0.0, 0.0, 0.0, 0.0, 0.0, 0.0, 0.0, 0.0, 0.0, 0.0, 0.0, 0.0, 0.0, 0.0, 0.0, 0.0, 0.0, 0.0, 0.0, 0.0, 0.0, 0.0, 0.0, 0.0, 0.0, 0.0, 0.0, 0.0, 0.0, 0.0, 0.0, 0.0, 0.0, 0.0, 0.0, 0.0, 0.0, 0.0, 0.0, 0.0, 0.0, 0.0, 0.0, 0.0, 0.0, 0.0, 0.0, 0.0, 0.0, 0.0, 0.0, 0.0, 0.0, 0.0, 0.0, 0.0, 0.0, 0.0, 0.0, 0.0, 0.0, 0.0, 0.0, 0.0, 0.0, 0.0, 0.0, 0.0, 0.0, 0.0, 0.0, 0.0, 0.0, 0.0, 0.0, 0.0, 0.0, 0.0, 0.0, 0.0, 0.0, 0.0, 0.0, 0.0, 0.0, 0.0, 0.0, 0.0, 0.0, 0.0, 0.0, 0.0, 0.0, 0.0, 0.0, 0.0, 0.0, 0.0, 0.0, 0.0, 0.0, 0.0, 0.0, 0.0, 0.0, 0.0, 0.0, 0.0, 0.0, 0.0, 0.0, 0.0, 0.0, 0.0, 0.0, 0.0, 0.0, 0.0, 0.0, 0.0, 0.0, 0.0, 0.0, 0.0, 0.0, 0.0, 0.0, 0.0, 0.0, 0.0, 0.0, 0.0, 0.0, 0.0, 0.0, 0.0],
  "Shots": 4096,
  "Size": 7,
  "Total Algorithm duration [s]": 6.605,
  "Total Classic duration [s]": 6.325975299991551,
  "Total Quantum duration [s]": 0.27902470000844914
}
