{
  "Circuit execution durations [ms]": [0.36785000702366233, 0.36365000414662063, 0.3571999986888841, 0.36800000816583633, 0.3571999986888841, 0.37429999792948365, 0.3499000013107434, 0.3595000016503036, 0.3504999913275242, 0.34855000558309257, 0.3606999962357804, 0.3484999906504527, 0.36294999881647527, 0.3502999898046255, 0.3659999929368496, 0.3486499917926267, 0.3547999949660152, 0.35679999564308673, 0.34980000054929405, 0.35089999437332153, 0.35244999162387103, 0.3547999949660152, 0.35230000503361225, 0.36055000964552164, 0.3542000049492344, 0.3562500060070306, 0.4903000080958009, 0.3502000035950914, 0.3601500065997243, 0.36025000736117363, 0.3568499960238114, 0.3480000013951212, 0.3505500062601641, 0.35694999678526074, 0.34905000939033926, 0.3536500007612631, 0.35835000744555146, 0.35855000896845013, 0.3528499946696684, 0.3571999986888841, 0.3581000055419281, 0.3437999985180795, 0.3536500007612631, 0.3464500041445717, 0.3606000100262463, 0.3521000035107136, 0.35805000516120344, 0.3515999997034669, 0.35785000363830477, 0.34729999606497586, 0.3584000078262761, 0.3533000126481056, 0.36779999209102243, 0.3477499994914979, 0.35615000524558127, 0.36055000964552164, 0.35354999999981374, 0.3530999965732917, 0.3588999970816076, 0.3504499909467995, 0.3502000035950914, 0.35099999513477087, 0.3510000096866861, 0.35239999124314636, 0.3447500057518482, 0.36109999928157777, 0.3530999965732917, 0.3493999975034967, 0.36099999852012843, 0.3525000065565109, 0.3476000129012391, 0.3686499985633418, 0.36404999264050275, 0.3721999964909628, 0.3625999961514026, 0.3498500009300187, 0.3647999983513728, 0.5601000011665747, 0.51045001600869, 0.37120000342838466, 0.3536500007612631, 0.3554499999154359, 0.3549999964889139, 0.34250000317115337, 0.36360000376589596, 0.35075000778306276, 0.3560499899322167, 0.3463500033831224, 0.3605499950936064, 0.34964999940712005, 0.4157499934080988, 0.3559500037226826, 0.3472499956842512, 0.3498500009300187, 0.3636499895947054, 0.35474999458529055, 0.36175000423099846, 0.3588999970816076, 0.3566000086721033, 0.36869999894406646, 0.35450000723358244, 0.35319999733474106, 0.3595000016503036, 0.3539500030456111, 0.3497500001685694, 0.40404999163001776, 0.3473000106168911, 0.35149999894201756, 0.34830000367946923, 0.3572999994503334, 0.3517500008456409, 0.35615000524558127, 0.4931500006932765, 0.35030000435654074, 0.36285001260694116, 0.36979999276809394, 0.3573499998310581, 0.36175000423099846, 0.3618500049924478, 0.36279999767430127, 0.3517500008456409, 0.36854999780189246, 0.3538000019034371, 0.34935001167468727, 0.3593500005081296, 0.38409999979194254, 0.3494499978842214, 0.3644499956863001, 0.3492499963613227, 0.3449000068940222, 0.35694999678526074, 0.3651000006357208, 0.3522000042721629, 0.345199994626455, 0.3541000041877851, 0.3583499928936362, 0.37114998849574476, 0.35519999801181257, 0.36020000698044896, 0.3483500040601939, 0.35879999632015824, 0.34919999598059803, 0.35170000046491623, 0.3588499967008829, 0.3546000079950318, 0.3507499932311475, 0.3531499969540164, 0.3507000074023381, 0.3504000051179901, 0.39230000402312726, 0.36449999606702477, 0.35414999001659453, 0.3507999936118722, 0.3524999920045957, 0.3558000025805086, 0.35775000287685543, 0.35770000249613076, 0.3588999970816076, 0.35185000160709023, 0.3659999929368496, 0.35555000067688525, 0.38374999712686986, 0.3530999965732917, 0.35849999403581023, 0.3534500137902796, 0.35465000837575644, 0.3522500046528876, 0.35370000114198774, 0.3528500092215836, 0.35659999412018806, 0.3625999961514026, 0.3489499940769747, 0.35230000503361225, 0.35430000571068376, 0.3543499915394932, 0.3524000057950616, 0.35539999953471124, 0.3573499998310581, 0.3691500023705885, 0.3632000007200986, 0.3610499989008531, 0.3555000002961606, 0.3495499986456707, 0.3553499991539866, 0.35439999192021787, 0.3499000013107434, 0.3564999933587387, 0.35254999238532037, 0.35439999192021787, 0.3598000039346516, 0.35239999124314636, 0.3553499991539866, 0.3443000023253262, 0.3525500069372356, 0.3487999929348007, 0.3507999936118722, 0.35215000389143825, 0.48580000293441117, 0.35319999733474106, 0.36839999665971845, 0.3607499966165051, 0.3588999970816076, 0.3565499937394634, 0.3506500070216134, 0.3591999993659556, 0.39755000034347177, 0.3555000002961606, 0.5021500110160559, 0.3681999951368198, 0.35304999619256705, 0.3642499941634014, 0.37475000135600567, 0.35775000287685543, 0.4228500183671713, 0.3531500115059316, 0.35629999183584005, 0.3548500098986551, 0.3588499967008829, 0.4509000136749819, 0.3475499979685992, 0.35385000228416175, 0.3534499992383644, 0.3610499989008531, 0.36830001045018435, 0.410699998610653, 0.35010000283364207, 0.4970500012859702, 0.43569999979808927, 0.36225000803824514, 0.4031999997096136, 0.3539000026648864, 0.35785000363830477, 0.36040000850334764, 0.3654000029200688, 0.36545000330079347, 0.35185000160709023, 0.3595000016503036, 0.3580000047804788, 0.3612000000430271, 0.36419999378267676, 0.36625000939238816, 0.3522500046528876, 0.3587500104913488, 0.36859999818261713, 0.3565500082913786, 0.3463999892119318, 0.35155001387465745, 0.348599991411902, 0.3572999994503334, 0.3567500098142773, 0.35924999974668026, 0.3502000035950914, 0.35620000562630594, 0.36824999551754445, 0.3536500007612631, 0.3471000090939924, 0.35465000837575644, 0.3576000017346814, 0.3564500075299293, 0.3564000071492046, 0.36114999966230243, 0.35149999894201756, 0.3623999946285039, 0.35524999839253724, 0.3521000035107136, 0.3565499937394634, 0.35764998756349087, 0.35844999365508556, 0.3590499982237816, 0.35089999437332153, 0.35644999297801405, 0.3520500031299889, 0.3591999993659556, 0.35584998840931803, 0.3607499966165051, 0.3521999897202477, 0.35894999746233225, 0.348599991411902, 0.3607499966165051, 0.3507499932311475, 0.3522000042721629, 0.3573499998310581, 0.35539999953471124, 0.3495499986456707, 0.35829999251291156, 0.3571999986888841, 0.3593500005081296, 0.35304999619256705, 0.3530999965732917, 0.35010000283364207, 0.35644999297801405, 0.3563499922165647, 0.3465000045252964, 0.3612000000430271, 0.35570000181905925, 0.3560999903129414, 0.3603000077418983, 0.35859999479725957, 0.35254999238532037, 0.3458499995758757, 0.35304999619256705, 0.3523500054143369, 0.35414999001659453, 0.3581500059226528, 0.36330000148154795, 0.35740000021178275, 0.36854999780189246, 0.3567500098142773, 0.3613500011852011, 0.3443500027060509, 0.36589999217540026, 0.3540500038070604, 0.4746000049635768, 0.3571999986888841, 0.5292999994708225, 0.35570000181905925, 0.36020000698044896, 0.3582500066841021, 0.3508000081637874, 0.3577999887056649, 0.36125000042375177, 0.35629999183584005, 0.3514500131132081, 0.3571999986888841, 0.3581000055419281, 0.36550000368151814, 0.3674000035971403, 0.3575000009732321, 0.35149999894201756, 0.3576000017346814, 0.35864999517798424, 0.3613500011852011, 0.36005000583827496, 0.34914999559987336, 0.35755000135395676, 0.35790000401902944, 0.35450000723358244, 0.35439999192021787, 0.35045000549871475, 0.35635000676847994, 0.36330000148154795, 0.351699985913001, 0.35680001019500196, 0.3510999958962202, 0.3662999952211976, 0.3549999964889139, 0.3605999954743311, 0.3557500021997839, 0.40395000542048365, 0.3562500060070306, 0.3468999930191785, 0.35200000274926424, 0.3540500038070604, 0.34914999559987336, 0.3525000065565109, 0.3648500132840127, 0.3512499970383942, 0.36550000368151814, 0.3696999920066446, 0.35859999479725957, 0.36515000101644546, 0.35149999894201756, 0.34949999826494604, 0.36130000080447644, 0.35715001286007464, 0.3692499885801226, 0.3706499992404133, 0.5434000049717724, 0.3485000052023679, 0.3576500021154061, 0.3529499954311177, 0.3606999962357804, 0.35095000930596143, 0.34875000710599124, 0.34664999111555517, 0.3708000003825873, 0.355699987267144, 0.36189999082125723, 0.35304999619256705, 0.3510999958962202, 0.3607499966165051, 0.35659999412018806, 0.35075000778306276, 0.3536000003805384, 0.36264999653212726, 0.3517500008456409, 0.35524999839253724, 0.3607499966165051, 0.35644999297801405, 0.3546000079950318, 0.35525001294445246, 0.3565499937394634, 0.35620000562630594, 0.3492499963613227, 0.35709999792743474, 0.3515499993227422, 0.36234999424777925, 0.3552999987732619, 0.35269999352749437, 0.35489999572746456, 0.35975000355392694, 0.3499000013107434, 0.3547500091372058, 0.34420000156387687, 0.35775000287685543, 0.35400000342633575, 0.3825000021606684, 0.3470000083325431, 0.3544000064721331, 0.3569999971659854, 0.34779999987222254, 0.3561999910743907, 0.3496999997878447, 0.35415000456850976, 0.3496999997878447, 0.3597000031732023, 0.3515999997034669, 0.36264999653212726, 0.35689999640453607, 0.36524998722597957, 0.3588999970816076, 0.3551500121830031, 0.34905000939033926, 0.35775000287685543, 0.35015000321436673, 0.36160000308882445, 0.3593500005081296, 0.3574500005925074, 0.36985000770073384, 0.36339998769108206, 0.35370000114198774, 0.35275000846013427, 0.36359998921398073, 0.3479000006336719, 0.5455499922391027, 0.35784998908638954, 0.3536000003805384, 0.35674999526236206, 0.3576500021154061, 0.35785000363830477, 0.3563499922165647, 0.3526499931467697, 0.3559500037226826, 0.34889999369625, 0.3569999971659854, 0.35554998612497, 0.34860000596381724, 0.36669999826699495, 0.35525001294445246, 0.34729999606497586, 0.35099999513477087, 0.35349999961908907, 0.3583000070648268, 0.3539500030456111, 0.3546000079950318, 0.34964999940712005, 0.35855000896845013, 0.35679999564308673, 0.36484999873209745, 0.35280000884085894, 0.35755000135395676, 0.35010000283364207, 0.35089999437332153, 0.3522000042721629, 0.3492499963613227, 0.35930000012740493, 0.3586999955587089, 0.3606999962357804, 0.4245000018272549, 0.3488500078674406, 0.3575000009732321, 0.35054999170824885, 0.3487000067252666, 0.34840000444091856, 0.35820000630337745, 0.36175000423099846],
  "Depth": 16.5,
  "Expectation Value": -8.43823528289795,
  "Optimal Expectation Value": -8.5667724609375,
  "Optimizer durations [ms]": [8.276, 8.648, 8.062, 8.465, 8.206, 8.33, 8.061, 8.329, 8.173, 8.19, 12.75, 7.656, 8.415, 7.992, 8.401, 7.984, 8.072, 8.124, 8.129, 7.965, 8.206, 8.011, 8.001, 8.333, 8.08, 8.112, 10.588, 8.713, 8.194, 8.094, 8.181, 8.4, 7.916, 8.405, 7.712, 8.457, 8.038, 8.302, 8.089, 8.123, 8.279, 8.157, 7.893, 8.245, 8.184, 8.104, 8.285, 7.946, 8.15, 7.745, 8.359, 8.214, 8.519, 7.867, 8.183, 8.307, 7.983, 8.252, 8.291, 7.892, 8.095, 8.123, 8.0, 7.9, 8.044, 8.397, 8.188, 7.951, 8.133, 8.021, 7.905, 8.3, 8.222, 8.787, 8.085, 8.311, 8.238, 11.964, 22.52, 9.267, 8.095, 7.992, 8.071, 7.883, 8.39, 8.096, 8.159, 7.946, 8.379, 7.675, 9.349, 8.468, 7.71, 8.063, 8.32, 7.963, 8.153, 8.597, 7.802, 8.379, 8.093, 7.992, 8.514, 7.814, 8.102, 9.347, 7.942, 10.888, 8.282, 8.406, 7.869, 8.463, 10.538, 8.173, 8.518, 8.309, 8.14, 8.314, 8.474, 8.123, 8.433, 8.612, 7.717, 8.293, 8.005, 9.09, 8.435, 8.412, 7.903, 7.806, 8.484, 8.329, 7.839, 7.967, 8.142, 8.394, 8.23, 8.118, 8.133, 7.937, 8.552, 7.883, 7.737, 8.286, 8.072, 8.025, 8.15, 8.081, 7.809, 9.153, 8.308, 8.227, 8.104, 7.904, 8.267, 8.264, 8.161, 7.907, 8.101, 8.397, 8.143, 8.751, 7.933, 8.082, 8.166, 8.107, 8.078, 7.966, 8.204, 8.108, 8.518, 7.806, 8.174, 8.066, 8.172, 7.962, 8.217, 8.135, 8.303, 8.567, 8.166, 8.023, 8.179, 8.059, 8.062, 8.004, 8.152, 7.945, 8.087, 8.275, 7.914, 8.183, 8.094, 8.075, 7.737, 8.158, 7.889, 10.696, 8.217, 8.534, 8.207, 16.622, 8.351, 8.855, 8.275, 8.85, 7.983, 11.128, 8.319, 7.827, 8.239, 18.96, 8.152, 9.587, 8.0, 9.553, 8.905, 8.126, 10.139, 17.517, 8.224, 7.964, 8.096, 9.034, 8.968, 7.771, 11.067, 21.438, 15.023, 8.875, 8.043, 8.248, 8.424, 8.51, 8.559, 8.129, 8.261, 8.45, 7.921, 8.179, 8.402, 8.344, 8.342, 8.522, 9.65, 7.609, 8.272, 8.016, 8.217, 8.197, 8.456, 8.098, 7.99, 8.287, 8.312, 8.122, 8.134, 8.189, 8.117, 8.173, 8.191, 7.793, 8.468, 8.118, 8.006, 8.224, 8.273, 8.337, 8.086, 8.012, 8.364, 7.883, 8.115, 8.373, 8.084, 7.88, 8.208, 8.168, 8.282, 8.092, 8.106, 8.227, 8.194, 7.979, 8.15, 8.317, 8.203, 7.971, 8.261, 7.893, 8.482, 8.078, 7.939, 7.968, 8.536, 8.152, 8.095, 8.043, 8.248, 8.114, 8.201, 8.12, 8.168, 8.088, 8.413, 8.067, 8.395, 8.302, 8.02, 8.118, 8.2, 8.03, 10.614, 16.036, 13.409, 8.297, 8.192, 8.019, 8.738, 8.308, 8.302, 8.178, 8.102, 8.181, 8.309, 8.4, 8.565, 8.102, 8.141, 7.792, 8.427, 8.447, 8.124, 8.279, 8.126, 8.281, 8.022, 8.103, 8.026, 8.11, 8.523, 7.855, 8.321, 8.024, 8.369, 8.237, 8.15, 8.323, 9.167, 8.131, 7.906, 8.013, 8.04, 7.889, 8.243, 8.35, 8.131, 8.491, 8.432, 8.264, 8.509, 7.963, 8.026, 8.017, 8.533, 8.112, 8.841, 14.071, 8.3, 8.232, 7.903, 8.282, 8.274, 7.899, 7.709, 8.699, 7.981, 8.448, 8.184, 8.229, 8.005, 8.108, 8.222, 8.067, 8.061, 8.249, 8.053, 8.387, 8.192, 8.086, 8.131, 8.068, 8.229, 8.003, 7.901, 8.211, 8.49, 8.061, 7.962, 8.097, 8.06, 8.215, 7.917, 8.114, 8.243, 8.117, 8.667, 7.76, 8.163, 8.509, 8.108, 8.106, 7.901, 8.405, 7.926, 8.114, 8.087, 8.392, 8.288, 8.247, 8.308, 7.924, 8.137, 8.317, 7.925, 8.282, 8.106, 8.235, 8.453, 8.41, 7.982, 8.248, 7.961, 21.732, 14.046, 8.49, 8.095, 8.206, 8.204, 8.19, 7.895, 8.32, 8.198, 7.824, 8.451, 8.175, 7.751, 8.518, 8.191, 8.031, 7.845, 7.989, 8.403, 8.178, 7.901, 8.487, 8.024, 8.497, 8.235, 8.14, 8.107, 7.804, 8.078, 8.189, 8.058, 8.478, 8.238, 8.024, 9.59, 8.29, 8.113, 8.357, 7.86, 7.84, 8.319, 8.125],
  "Optimizer iterations": 476,
  "Optimizer params": [0.9322267844701146, 0.9254332457361143, 0.058400119735660554, 0.04980088647440589, 0.9333955934099685, 0.9148214043652104, 0.12301347121604193, 0.9991991000044252, 0.05499369659989446, 0.9982067056367298, 0.9813410259002723, 0.9616698746505993, 0.9379310716200615, 0.999242343208389, 0.05025453861477233, 0.9458012271042463, 0.071316135102193, 0.08301625675486579, 0.05407400775165542, 0.9818730954967632, 0.920400540404833, 0.9742798543390677, 0.5193308235457778, 0.9523373655077105, 0.03640584000955995, 0.9540982182604482, 0.591353568931833, 0.9575609956340658],
  "P": 0,
  "Problem": "IC",
  "QJob durations [ms]": [0.36785000702366233, 0.36365000414662063, 0.3571999986888841, 0.36800000816583633, 0.3571999986888841, 0.37429999792948365, 0.3499000013107434, 0.3595000016503036, 0.3504999913275242, 0.34855000558309257, 0.3606999962357804, 0.3484999906504527, 0.36294999881647527, 0.3502999898046255, 0.3659999929368496, 0.3486499917926267, 0.3547999949660152, 0.35679999564308673, 0.34980000054929405, 0.35089999437332153, 0.35244999162387103, 0.3547999949660152, 0.35230000503361225, 0.36055000964552164, 0.3542000049492344, 0.3562500060070306, 0.4903000080958009, 0.3502000035950914, 0.3601500065997243, 0.36025000736117363, 0.3568499960238114, 0.3480000013951212, 0.3505500062601641, 0.35694999678526074, 0.34905000939033926, 0.3536500007612631, 0.35835000744555146, 0.35855000896845013, 0.3528499946696684, 0.3571999986888841, 0.3581000055419281, 0.3437999985180795, 0.3536500007612631, 0.3464500041445717, 0.3606000100262463, 0.3521000035107136, 0.35805000516120344, 0.3515999997034669, 0.35785000363830477, 0.34729999606497586, 0.3584000078262761, 0.3533000126481056, 0.36779999209102243, 0.3477499994914979, 0.35615000524558127, 0.36055000964552164, 0.35354999999981374, 0.3530999965732917, 0.3588999970816076, 0.3504499909467995, 0.3502000035950914, 0.35099999513477087, 0.3510000096866861, 0.35239999124314636, 0.3447500057518482, 0.36109999928157777, 0.3530999965732917, 0.3493999975034967, 0.36099999852012843, 0.3525000065565109, 0.3476000129012391, 0.3686499985633418, 0.36404999264050275, 0.3721999964909628, 0.3625999961514026, 0.3498500009300187, 0.3647999983513728, 0.5601000011665747, 0.51045001600869, 0.37120000342838466, 0.3536500007612631, 0.3554499999154359, 0.3549999964889139, 0.34250000317115337, 0.36360000376589596, 0.35075000778306276, 0.3560499899322167, 0.3463500033831224, 0.3605499950936064, 0.34964999940712005, 0.4157499934080988, 0.3559500037226826, 0.3472499956842512, 0.3498500009300187, 0.3636499895947054, 0.35474999458529055, 0.36175000423099846, 0.3588999970816076, 0.3566000086721033, 0.36869999894406646, 0.35450000723358244, 0.35319999733474106, 0.3595000016503036, 0.3539500030456111, 0.3497500001685694, 0.40404999163001776, 0.3473000106168911, 0.35149999894201756, 0.34830000367946923, 0.3572999994503334, 0.3517500008456409, 0.35615000524558127, 0.4931500006932765, 0.35030000435654074, 0.36285001260694116, 0.36979999276809394, 0.3573499998310581, 0.36175000423099846, 0.3618500049924478, 0.36279999767430127, 0.3517500008456409, 0.36854999780189246, 0.3538000019034371, 0.34935001167468727, 0.3593500005081296, 0.38409999979194254, 0.3494499978842214, 0.3644499956863001, 0.3492499963613227, 0.3449000068940222, 0.35694999678526074, 0.3651000006357208, 0.3522000042721629, 0.345199994626455, 0.3541000041877851, 0.3583499928936362, 0.37114998849574476, 0.35519999801181257, 0.36020000698044896, 0.3483500040601939, 0.35879999632015824, 0.34919999598059803, 0.35170000046491623, 0.3588499967008829, 0.3546000079950318, 0.3507499932311475, 0.3531499969540164, 0.3507000074023381, 0.3504000051179901, 0.39230000402312726, 0.36449999606702477, 0.35414999001659453, 0.3507999936118722, 0.3524999920045957, 0.3558000025805086, 0.35775000287685543, 0.35770000249613076, 0.3588999970816076, 0.35185000160709023, 0.3659999929368496, 0.35555000067688525, 0.38374999712686986, 0.3530999965732917, 0.35849999403581023, 0.3534500137902796, 0.35465000837575644, 0.3522500046528876, 0.35370000114198774, 0.3528500092215836, 0.35659999412018806, 0.3625999961514026, 0.3489499940769747, 0.35230000503361225, 0.35430000571068376, 0.3543499915394932, 0.3524000057950616, 0.35539999953471124, 0.3573499998310581, 0.3691500023705885, 0.3632000007200986, 0.3610499989008531, 0.3555000002961606, 0.3495499986456707, 0.3553499991539866, 0.35439999192021787, 0.3499000013107434, 0.3564999933587387, 0.35254999238532037, 0.35439999192021787, 0.3598000039346516, 0.35239999124314636, 0.3553499991539866, 0.3443000023253262, 0.3525500069372356, 0.3487999929348007, 0.3507999936118722, 0.35215000389143825, 0.48580000293441117, 0.35319999733474106, 0.36839999665971845, 0.3607499966165051, 0.3588999970816076, 0.3565499937394634, 0.3506500070216134, 0.3591999993659556, 0.39755000034347177, 0.3555000002961606, 0.5021500110160559, 0.3681999951368198, 0.35304999619256705, 0.3642499941634014, 0.37475000135600567, 0.35775000287685543, 0.4228500183671713, 0.3531500115059316, 0.35629999183584005, 0.3548500098986551, 0.3588499967008829, 0.4509000136749819, 0.3475499979685992, 0.35385000228416175, 0.3534499992383644, 0.3610499989008531, 0.36830001045018435, 0.410699998610653, 0.35010000283364207, 0.4970500012859702, 0.43569999979808927, 0.36225000803824514, 0.4031999997096136, 0.3539000026648864, 0.35785000363830477, 0.36040000850334764, 0.3654000029200688, 0.36545000330079347, 0.35185000160709023, 0.3595000016503036, 0.3580000047804788, 0.3612000000430271, 0.36419999378267676, 0.36625000939238816, 0.3522500046528876, 0.3587500104913488, 0.36859999818261713, 0.3565500082913786, 0.3463999892119318, 0.35155001387465745, 0.348599991411902, 0.3572999994503334, 0.3567500098142773, 0.35924999974668026, 0.3502000035950914, 0.35620000562630594, 0.36824999551754445, 0.3536500007612631, 0.3471000090939924, 0.35465000837575644, 0.3576000017346814, 0.3564500075299293, 0.3564000071492046, 0.36114999966230243, 0.35149999894201756, 0.3623999946285039, 0.35524999839253724, 0.3521000035107136, 0.3565499937394634, 0.35764998756349087, 0.35844999365508556, 0.3590499982237816, 0.35089999437332153, 0.35644999297801405, 0.3520500031299889, 0.3591999993659556, 0.35584998840931803, 0.3607499966165051, 0.3521999897202477, 0.35894999746233225, 0.348599991411902, 0.3607499966165051, 0.3507499932311475, 0.3522000042721629, 0.3573499998310581, 0.35539999953471124, 0.3495499986456707, 0.35829999251291156, 0.3571999986888841, 0.3593500005081296, 0.35304999619256705, 0.3530999965732917, 0.35010000283364207, 0.35644999297801405, 0.3563499922165647, 0.3465000045252964, 0.3612000000430271, 0.35570000181905925, 0.3560999903129414, 0.3603000077418983, 0.35859999479725957, 0.35254999238532037, 0.3458499995758757, 0.35304999619256705, 0.3523500054143369, 0.35414999001659453, 0.3581500059226528, 0.36330000148154795, 0.35740000021178275, 0.36854999780189246, 0.3567500098142773, 0.3613500011852011, 0.3443500027060509, 0.36589999217540026, 0.3540500038070604, 0.4746000049635768, 0.3571999986888841, 0.5292999994708225, 0.35570000181905925, 0.36020000698044896, 0.3582500066841021, 0.3508000081637874, 0.3577999887056649, 0.36125000042375177, 0.35629999183584005, 0.3514500131132081, 0.3571999986888841, 0.3581000055419281, 0.36550000368151814, 0.3674000035971403, 0.3575000009732321, 0.35149999894201756, 0.3576000017346814, 0.35864999517798424, 0.3613500011852011, 0.36005000583827496, 0.34914999559987336, 0.35755000135395676, 0.35790000401902944, 0.35450000723358244, 0.35439999192021787, 0.35045000549871475, 0.35635000676847994, 0.36330000148154795, 0.351699985913001, 0.35680001019500196, 0.3510999958962202, 0.3662999952211976, 0.3549999964889139, 0.3605999954743311, 0.3557500021997839, 0.40395000542048365, 0.3562500060070306, 0.3468999930191785, 0.35200000274926424, 0.3540500038070604, 0.34914999559987336, 0.3525000065565109, 0.3648500132840127, 0.3512499970383942, 0.36550000368151814, 0.3696999920066446, 0.35859999479725957, 0.36515000101644546, 0.35149999894201756, 0.34949999826494604, 0.36130000080447644, 0.35715001286007464, 0.3692499885801226, 0.3706499992404133, 0.5434000049717724, 0.3485000052023679, 0.3576500021154061, 0.3529499954311177, 0.3606999962357804, 0.35095000930596143, 0.34875000710599124, 0.34664999111555517, 0.3708000003825873, 0.355699987267144, 0.36189999082125723, 0.35304999619256705, 0.3510999958962202, 0.3607499966165051, 0.35659999412018806, 0.35075000778306276, 0.3536000003805384, 0.36264999653212726, 0.3517500008456409, 0.35524999839253724, 0.3607499966165051, 0.35644999297801405, 0.3546000079950318, 0.35525001294445246, 0.3565499937394634, 0.35620000562630594, 0.3492499963613227, 0.35709999792743474, 0.3515499993227422, 0.36234999424777925, 0.3552999987732619, 0.35269999352749437, 0.35489999572746456, 0.35975000355392694, 0.3499000013107434, 0.3547500091372058, 0.34420000156387687, 0.35775000287685543, 0.35400000342633575, 0.3825000021606684, 0.3470000083325431, 0.3544000064721331, 0.3569999971659854, 0.34779999987222254, 0.3561999910743907, 0.3496999997878447, 0.35415000456850976, 0.3496999997878447, 0.3597000031732023, 0.3515999997034669, 0.36264999653212726, 0.35689999640453607, 0.36524998722597957, 0.3588999970816076, 0.3551500121830031, 0.34905000939033926, 0.35775000287685543, 0.35015000321436673, 0.36160000308882445, 0.3593500005081296, 0.3574500005925074, 0.36985000770073384, 0.36339998769108206, 0.35370000114198774, 0.35275000846013427, 0.36359998921398073, 0.3479000006336719, 0.5455499922391027, 0.35784998908638954, 0.3536000003805384, 0.35674999526236206, 0.3576500021154061, 0.35785000363830477, 0.3563499922165647, 0.3526499931467697, 0.3559500037226826, 0.34889999369625, 0.3569999971659854, 0.35554998612497, 0.34860000596381724, 0.36669999826699495, 0.35525001294445246, 0.34729999606497586, 0.35099999513477087, 0.35349999961908907, 0.3583000070648268, 0.3539500030456111, 0.3546000079950318, 0.34964999940712005, 0.35855000896845013, 0.35679999564308673, 0.36484999873209745, 0.35280000884085894, 0.35755000135395676, 0.35010000283364207, 0.35089999437332153, 0.3522000042721629, 0.3492499963613227, 0.35930000012740493, 0.3586999955587089, 0.3606999962357804, 0.4245000018272549, 0.3488500078674406, 0.3575000009732321, 0.35054999170824885, 0.3487000067252666, 0.34840000444091856, 0.35820000630337745, 0.36175000423099846],
  "QPU": "7000000",
  "Qubits": 7,
  "Queue durations [ms]": [0.0, 0.0, 0.0, 0.0, 0.0, 0.0, 0.0, 0.0, 0.0, 0.0, 0.0, 0.0, 0.0, 0.0, 0.0, 0.0, 0.0, 0.0, 0.0, 0.0, 0.0, 0.0, 0.0, 0.0, 0.0, 0.0, 0.0, 0.0, 0.0, 0.0, 0.0, 0.0, 0.0, 0.0, 0.0, 0.0, 0.0, 0.0, 0.0, 0.0, 0.0, 0.0, 0.0, 0.0, 0.0, 0.0, 0.0, 0.0, 0.0, 0.0, 0.0, 0.0, 0.0, 0.0, 0.0, 0.0, 0.0, 0.0, 0.0, 0.0, 0.0, 0.0, 0.0, 0.0, 0.0, 0.0, 0.0, 0.0, 0.0, 0.0, 0.0, 0.0, 0.0, 0.0, 0.0, 0.0, 0.0, 0.0, 0.0, 0.0, 0.0, 0.0, 0.0, 0.0, 0.0, 0.0, 0.0, 0.0, 0.0, 0.0, 0.0, 0.0, 0.0, 0.0, 0.0, 0.0, 0.0, 0.0, 0.0, 0.0, 0.0, 0.0, 0.0, 0.0, 0.0, 0.0, 0.0, 0.0, 0.0, 0.0, 0.0, 0.0, 0.0, 0.0, 0.0, 0.0, 0.0, 0.0, 0.0, 0.0, 0.0, 0.0, 0.0, 0.0, 0.0, 0.0, 0.0, 0.0, 0.0, 0.0, 0.0, 0.0, 0.0, 0.0, 0.0, 0.0, 0.0, 0.0, 0.0, 0.0, 0.0, 0.0, 0.0, 0.0, 0.0, 0.0, 0.0, 0.0, 0.0, 0.0, 0.0, 0.0, 0.0, 0.0, 0.0, 0.0, 0.0, 0.0, 0.0, 0.0, 0.0, 0.0, 0.0, 0.0, 0.0, 0.0, 0.0, 0.0, 0.0, 0.0, 0.0, 0.0, 0.0, 0.0, 0.0, 0.0, 0.0, 0.0, 0.0, 0.0, 0.0, 0.0, 0.0, 0.0, 0.0, 0.0, 0.0, 0.0, 0.0, 0.0, 0.0, 0.0, 0.0, 0.0, 0.0, 0.0, 0.0, 0.0, 0.0, 0.0, 0.0, 0.0, 0.0, 0.0, 0.0, 0.0, 0.0, 0.0, 0.0, 0.0, 0.0, 0.0, 0.0, 0.0, 0.0, 0.0, 0.0, 0.0, 0.0, 0.0, 0.0, 0.0, 0.0, 0.0, 0.0, 0.0, 0.0, 0.0, 0.0, 0.0, 0.0, 0.0, 0.0, 0.0, 0.0, 0.0, 0.0, 0.0, 0.0, 0.0, 0.0, 0.0, 0.0, 0.0, 0.0, 0.0, 0.0, 0.0, 0.0, 0.0, 0.0, 0.0, 0.0, 0.0, 0.0, 0.0, 0.0, 0.0, 0.0, 0.0, 0.0, 0.0, 0.0, 0.0, 0.0, 0.0, 0.0, 0.0, 0.0, 0.0, 0.0, 0.0, 0.0, 0.0, 0.0, 0.0, 0.0, 0.0, 0.0, 0.0, 0.0, 0.0, 0.0, 0.0, 0.0, 0.0, 0.0, 0.0, 0.0, 0.0, 0.0, 0.0, 0.0, 0.0, 0.0, 0.0, 0.0, 0.0, 0.0, 0.0, 0.0, 0.0, 0.0, 0.0, 0.0, 0.0, 0.0, 0.0, 0.0, 0.0, 0.0, 0.0, 0.0, 0.0, 0.0, 0.0, 0.0, 0.0, 0.0, 0.0, 0.0, 0.0, 0.0, 0.0, 0.0, 0.0, 0.0, 0.0, 0.0, 0.0, 0.0, 0.0, 0.0, 0.0, 0.0, 0.0, 0.0, 0.0, 0.0, 0.0, 0.0, 0.0, 0.0, 0.0, 0.0, 0.0, 0.0, 0.0, 0.0, 0.0, 0.0, 0.0, 0.0, 0.0, 0.0, 0.0, 0.0, 0.0, 0.0, 0.0, 0.0, 0.0, 0.0, 0.0, 0.0, 0.0, 0.0, 0.0, 0.0, 0.0, 0.0, 0.0, 0.0, 0.0, 0.0, 0.0, 0.0, 0.0, 0.0, 0.0, 0.0, 0.0, 0.0, 0.0, 0.0, 0.0, 0.0, 0.0, 0.0, 0.0, 0.0, 0.0, 0.0, 0.0, 0.0, 0.0, 0.0, 0.0, 0.0, 0.0, 0.0, 0.0, 0.0, 0.0, 0.0, 0.0, 0.0, 0.0, 0.0, 0.0, 0.0, 0.0, 0.0, 0.0, 0.0, 0.0, 0.0, 0.0, 0.0, 0.0, 0.0, 0.0, 0.0, 0.0, 0.0, 0.0, 0.0, 0.0, 0.0, 0.0, 0.0, 0.0, 0.0, 0.0, 0.0, 0.0, 0.0, 0.0, 0.0, 0.0, 0.0, 0.0, 0.0, 0.0, 0.0, 0.0, 0.0, 0.0, 0.0, 0.0, 0.0, 0.0, 0.0, 0.0, 0.0, 0.0, 0.0, 0.0, 0.0, 0.0, 0.0, 0.0, 0.0, 0.0, 0.0, 0.0, 0.0, 0.0, 0.0, 0.0, 0.0, 0.0, 0.0, 0.0, 0.0, 0.0],
  "Shots": 4096,
  "Size": 7,
  "Total Algorithm duration [s]": 4.034,
  "Total Classic duration [s]": 3.862100749859004,
  "Total Quantum duration [s]": 0.17189925014099572
}
