{
  "Circuit execution durations [ms]": [0.3525500069372356, 0.36005000583827496, 0.34574999881442636, 0.3591499989852309, 0.3704999980982393, 0.3589999978430569, 0.3505000058794394, 0.3504999913275242, 0.3461500018602237, 0.35695001133717597, 0.36759999056812376, 0.3519000019878149, 0.3800999984377995, 0.35509999725036323, 0.3639499918790534, 0.3543499915394932, 0.35030000435654074, 0.3486500063445419, 0.3548499953467399, 0.3524999920045957, 0.3556500014383346, 0.34670000604819506, 0.35149999894201756, 0.3542500053299591, 0.36419999378267676, 0.35024998942390084, 0.3568499960238114, 0.3511499962769449, 0.3534500137902796, 0.3491000097710639, 0.3512999974191189, 0.35180000122636557, 0.3806000022450462, 0.3532499977154657, 0.34834998950827867, 0.35459999344311655, 0.3473999968264252, 0.3593500005081296, 0.3613500011852011, 0.35429999115876853, 0.35245000617578626, 0.3576000017346814, 0.35930000012740493, 0.3532999980961904, 0.3563499922165647, 0.40484999772161245, 0.35030000435654074, 0.35280000884085894, 0.3501499886624515, 0.3588999970816076, 0.3524999920045957, 0.3492499963613227, 0.35370000114198774, 0.3580499906092882, 0.3791499912040308, 0.3553499991539866, 0.37190000875853, 0.3593500005081296, 0.41455001337453723, 0.3542500053299591, 0.35415000456850976, 0.3680499939946458, 0.3510000096866861, 0.35245000617578626, 0.35459999344311655, 0.4507999983616173, 0.3530000103637576, 0.3541000041877851, 0.3598000039346516, 0.3494499978842214, 0.3574500005925074, 0.5272499984130263, 0.34964999940712005, 0.35195000236853957, 0.35635000676847994, 0.3612000000430271, 0.34664999111555517, 0.35185000160709023, 0.35459999344311655, 0.3228999994462356, 0.3802999999606982, 0.3529999958118424, 0.3512999974191189, 0.35509999725036323, 0.36049999471288174, 0.3542500053299591, 0.36735000321641564, 0.38100000529084355, 0.45384999248199165, 0.35635000676847994, 0.3554499999154359, 0.3591999993659556, 0.36094999813940376, 0.35215000389143825, 0.34699999378062785, 0.3548499953467399, 0.3523499908624217, 0.35445000685285777, 0.3539000026648864, 0.3467999922577292, 0.3484999906504527, 0.35224999010097235, 0.3696999920066446, 0.35674999526236206, 0.35274999390821904, 0.35289999505039304, 0.36395000643096864, 0.3536000003805384, 0.35180000122636557, 0.3493999975034967, 0.3586000093491748, 0.3633500018622726, 0.3526499931467697, 0.35555000067688525, 0.36199999158270657, 0.35489999572746456, 0.3637000045273453, 0.3497500001685694, 0.3572999994503334, 0.3539000026648864, 0.3620000061346218, 0.35394998849369586, 0.3557500021997839, 0.3608499973779544, 0.3563499922165647, 0.35009998828172684, 0.3587499959394336, 0.3555000002961606, 0.3585499944165349, 0.35054999170824885, 0.35274999390821904, 0.3539000026648864, 0.3598000039346516, 0.3515499993227422, 0.38195001252461225, 0.3536000003805384, 0.3551499976310879, 0.35364998620934784, 0.3522500046528876, 0.3523499908624217, 0.35224999010097235, 0.35200000274926424, 0.35075000778306276, 0.3626500110840425, 0.3549499961081892, 0.3649499994935468, 0.3496999997878447, 0.3515999997034669, 0.3456999984337017, 0.37969999539200217, 0.3532000118866563, 0.39250000554602593, 0.3463000030023977, 0.36195000575389713, 0.3482000029180199, 0.35859999479725957, 0.35349999961908907, 0.3659999929368496, 0.3607499966165051, 0.35740000021178275, 0.3581500059226528, 0.352299990481697, 0.3576500021154061, 0.3608999977586791, 0.3495499986456707, 0.35930000012740493, 0.3466000052867457, 0.3522500046528876, 0.35134999779984355, 0.3490000090096146, 0.3752999909920618, 0.3539500030456111, 0.3498500009300187, 0.3539999888744205, 0.37895000423304737, 0.49655001203063875, 0.3571499983081594, 0.35254999238532037, 0.36130000080447644, 0.374399998690933, 0.35269999352749437, 0.35289999505039304, 0.3632000007200986, 0.35785000363830477, 0.34934999712277204, 0.35585000296123326, 0.35480000951793045, 0.35615000524558127, 0.35930000012740493, 0.3536500007612631, 0.3546999942045659, 0.3557500021997839, 0.3470999945420772, 0.3522500046528876, 0.3601000062189996, 0.3532999980961904, 0.36299999919719994, 0.351849987055175, 0.35555000067688525, 0.3504999913275242, 0.41220001003239304, 0.3575000009732321, 0.3547999949660152, 0.34995000169146806, 0.35930000012740493, 0.35879999632015824, 0.3573499998310581, 0.35679999564308673, 0.3539500030456111, 0.3590499982237816, 0.35960000241175294, 0.35319999733474106, 0.3480000013951212, 0.3600999916670844, 0.3522000042721629, 0.3525500069372356, 0.36700000055134296, 0.36005000583827496, 0.3515999997034669, 0.35400000342633575, 0.3510999958962202, 0.3686499985633418, 0.3826500033028424, 0.35509999725036323, 0.3575000009732321, 0.3522000042721629, 0.3561000048648566, 0.35010000283364207, 0.3694000042742118, 0.3504000051179901, 0.36559998989105225, 0.35349999961908907, 0.3580000047804788, 0.36449999606702477, 0.35650000791065395, 0.3558000025805086, 0.3536000003805384, 0.3549999964889139, 0.35600000410340726, 0.3652000013971701, 0.34559999767225236, 0.3510999958962202, 0.3494499978842214, 0.3674000035971403, 0.35435000609140843, 0.3583499928936362, 0.35134999779984355, 0.35790000401902944, 0.3504999913275242, 0.3627499972935766, 0.35180000122636557, 0.35334999847691506, 0.3620000061346218, 0.3542000049492344, 0.3812000068137422, 0.3586999955587089, 0.3539000026648864, 0.360800011549145, 0.35319999733474106, 0.3657500055851415, 0.3480000013951212, 0.35134999779984355, 0.360650010406971, 0.35685001057572663, 0.3628999984357506, 0.35685001057572663, 0.3573499998310581, 0.3701000096043572, 0.3506499924696982, 0.3625999961514026, 0.348749992554076, 0.3508000081637874, 0.34729999606497586, 0.3549999964889139, 0.3473999968264252, 0.35170000046491623, 0.35445000685285777, 0.3565499937394634, 0.3524999920045957, 0.35209998895879835, 0.35269999352749437, 0.3558000025805086, 0.35104999551549554, 0.40920000174082816, 0.3510000096866861, 0.3511499962769449, 0.35340001340955496, 0.3546499938238412, 0.3571999986888841, 0.3537500015227124, 0.3681499947560951, 0.3537500015227124, 0.35339999885763973, 0.3475499979685992, 0.4672499926527962, 0.5651999963447452, 0.4969500005245209, 0.35754998680204153, 0.35125001159030944, 0.3637999907368794, 0.34744999720714986, 0.35245000617578626, 0.3587499959394336, 0.35215000389143825, 0.35269999352749437, 0.3532999980961904, 0.35679999564308673, 0.35000000207219273, 0.3532999980961904, 0.3604499943321571, 0.3635000030044466, 0.3602499928092584, 0.35400000342633575, 0.35650000791065395, 0.35280000884085894, 0.3551499976310879, 0.35555000067688525, 0.35510001180227846, 0.3510999958962202, 0.3563999925972894, 0.35310001112520695, 0.3530999965732917, 0.35180000122636557, 0.3530999965732917, 0.34949999826494604, 0.3506499924696982, 0.3622499934863299, 0.3526499931467697, 0.35045000549871475, 0.3463500033831224, 0.35415000456850976, 0.36025000736117363, 0.3529499954311177, 0.3580000047804788, 0.35354999999981374, 0.35504999686963856, 0.35585000296123326, 0.35685001057572663, 0.35785000363830477, 0.35000000207219273, 0.3647999983513728, 0.36830001045018435, 0.35754998680204153, 0.3581500059226528, 0.35665000905282795, 0.35489999572746456, 0.3538000019034371, 0.36079999699722975, 0.3470999945420772, 0.3583999932743609, 0.35200000274926424, 0.3565499937394634, 0.3547000087564811, 0.3589999978430569, 0.35385000228416175, 0.3569999971659854, 0.352299990481697, 0.36949999048374593, 0.34664999111555517, 0.35509999725036323, 0.36824999551754445, 0.3515499993227422, 0.35870001011062413, 0.3552999987732619, 0.35349999961908907, 0.3512499970383942, 0.3539000026648864, 0.3563000063877553, 0.3615500027080998, 0.3476999991107732, 0.39429999014828354, 0.3481500025372952, 0.3529499954311177, 0.3538000019034371, 0.4001500055892393, 0.3548499953467399, 0.35339999885763973, 0.3464500041445717, 0.3487999929348007, 0.35850000858772546, 0.3503500047372654, 0.3593500005081296, 0.3520500031299889, 0.3487999929348007, 0.3547999949660152, 0.3551499976310879, 0.3511500108288601, 0.3548499953467399, 0.3569999971659854, 0.3604500088840723, 0.3571499983081594, 0.39674999425187707, 0.3546999942045659, 0.3539000026648864, 0.34989998675882816, 0.35615000524558127, 0.35185000160709023, 0.3539000026648864, 0.35855000896845013, 0.3489500086288899, 0.36025000736117363, 0.351849987055175, 0.3550000110408291, 0.3591999993659556, 0.36700000055134296, 0.3651000006357208, 0.3572000132407993, 0.3527999942889437, 0.3483500040601939, 0.35370000114198774, 0.3872499946737662, 0.34729999606497586, 0.35269999352749437, 0.3495499986456707, 0.35740000021178275, 0.36530000215861946, 0.3505999920889735, 0.3537500015227124, 0.3584000078262761, 0.35829999251291156, 0.3561999910743907, 0.35230000503361225, 0.3537500015227124, 0.35149999894201756, 0.40290001197718084, 0.3548499953467399, 0.3482000029180199, 0.3471000090939924, 0.3527999942889437, 0.3549999964889139, 0.47080000513233244, 0.35400000342633575, 0.40604999230708927, 0.3511500108288601, 0.34744999720714986, 0.3666499978862703, 0.36114999966230243, 0.3578000032575801, 0.3559000033419579, 0.35679999564308673, 0.35790000401902944, 0.35680001019500196, 0.3469500079518184, 0.3527999942889437, 0.36225000803824514, 0.5319999909261242, 0.35125001159030944, 0.4975000047124922, 0.3541999903973192, 0.3496999997878447, 0.36100001307204366, 0.35930000012740493, 0.3627499972935766, 0.35650000791065395, 0.3539000026648864, 0.3564500075299293, 0.3589500120142475, 0.36255001032259315, 0.36079999699722975, 0.35165000008419156, 0.3525000065565109, 0.3583499928936362, 0.3531500115059316, 0.37024999619461596, 0.35915001353714615, 0.3644499956863001, 0.3545499930623919, 0.35489999572746456, 0.3517500008456409, 0.36125000042375177, 0.3578000032575801, 0.3507499932311475, 0.3586000093491748, 0.36034999357070774, 0.3620000061346218, 0.3597000031732023, 0.35474999458529055, 0.3612000000430271, 0.36094999813940376, 0.3580999909900129, 0.35215000389143825, 0.35924999974668026, 0.3554499999154359, 0.35149999894201756, 0.3557500021997839, 0.3517500008456409, 0.36294999881647527, 0.35024998942390084, 0.3513999981805682, 0.3530999965732917, 0.35650000791065395, 0.35354999999981374, 0.35075000778306276, 0.36374999035615474, 0.34649998997338116, 0.35805000516120344, 0.3499999875202775, 0.34759999834932387, 0.36299999919719994, 0.364350009476766, 0.3553499991539866, 0.35045000549871475, 0.3485000052023679, 0.3576500021154061, 0.3497500001685694, 0.35960000241175294, 0.35180000122636557, 0.40454999543726444, 0.3493999975034967, 0.34884999331552535, 0.38329999370034784, 0.3589500120142475, 0.34764999873004854, 0.3554499999154359, 0.360800011549145, 0.35180000122636557, 0.3528499946696684, 0.35674999526236206, 0.35850000858772546, 0.3561000048648566, 0.3826500033028424, 0.3540500038070604, 0.3622999938670546, 0.3558000025805086, 0.3588999970816076, 0.3821499994955957, 0.3496999997878447, 0.35715001286007464, 0.3483500040601939, 0.35060000664088875, 0.35614999069366604, 0.37214999611023813, 0.3721999964909628, 0.38654998934362084, 0.2671999973244965, 0.3509499947540462, 0.35030000435654074, 0.34929999674204737, 0.36130000080447644, 0.36020000698044896, 0.35015000321436673, 0.3608499973779544, 0.3718499938258901, 0.3605999954743311, 0.35319999733474106, 0.35519999801181257, 0.3621500072767958, 0.35319999733474106, 0.3616500034695491, 0.3569999971659854, 0.35495001066010445, 0.35799999022856355, 0.36190000537317246, 0.3724999987753108, 0.3493000112939626, 0.3479000006336719, 0.35180000122636557, 0.3581000055419281, 0.35400000342633575, 0.3579499898478389, 0.35289999505039304, 0.3530999965732917, 0.35414999001659453, 0.3447500057518482, 0.3620000061346218, 0.3532999980961904, 0.3580999909900129, 0.3494499978842214, 0.35924999974668026, 0.34825000329874456, 0.3543499915394932, 0.35579998802859336, 0.363900006050244, 0.35010000283364207, 0.3544000064721331, 0.3536500007612631, 0.34949999826494604, 0.3643000090960413, 0.35180000122636557, 0.3569999971659854, 0.3496999997878447, 0.3527999942889437, 0.3595000016503036, 0.3919000009773299, 0.3548499953467399, 0.4267000040272251, 0.3540500038070604, 0.3643000090960413, 0.3580000047804788, 0.35334999847691506, 0.3506500070216134, 0.35024998942390084, 0.3479000006336719, 0.35879999632015824, 0.3684499970404431, 0.3536500007612631, 0.34729999606497586, 0.35260000731796026, 0.3568499960238114, 0.35024998942390084, 0.35385000228416175, 0.3654000029200688, 0.3741500113392249, 0.35740000021178275, 0.3621500072767958, 0.35960000241175294, 0.3524999920045957, 0.3590499982237816, 0.35599998955149204, 0.3515499993227422, 0.39164999907370657, 0.3497500001685694, 0.3668999997898936, 0.3544999926816672, 0.3590499982237816, 0.3538000019034371, 0.35244999162387103, 0.3634000022429973, 0.34995000169146806, 0.35930000012740493, 0.3582499921321869, 0.3600000054575503, 0.3558000025805086, 0.3575000009732321, 0.35685001057572663, 0.3668999997898936, 0.35489999572746456, 0.3558000025805086, 0.35099999513477087, 0.3614000015659258, 0.35185000160709023, 0.3549999964889139, 0.3684000112116337, 0.3553499991539866, 0.35539999953471124, 0.3693999897222966, 0.36499999987427145, 0.36234999424777925, 0.3561000048648566, 0.3452499950071797, 0.36079999699722975, 0.3578000032575801, 0.3466500056674704, 0.3616500034695491, 0.3545500076143071, 0.35755000135395676, 0.3591499989852309, 0.35149999894201756, 0.3524000057950616, 0.3603000077418983, 0.3495999990263954, 0.35149999894201756, 0.35570000181905925, 0.5312999855959788, 0.37560000782832503, 0.4314499965403229, 0.36559998989105225, 0.3480500017758459, 0.39435000508092344, 0.3521000035107136, 0.3627499972935766, 0.3515499993227422, 0.3512999974191189, 0.3506500070216134, 0.3615500027080998, 0.3610499989008531, 0.3507999936118722, 0.35025000397581607, 0.34705000871326774, 0.35084999399259686, 0.3514499985612929, 0.35265000769868493, 0.35695001133717597, 0.3531500115059316, 0.35010000283364207, 0.35579998802859336, 0.35269999352749437, 0.35119999665766954, 0.3542000049492344, 0.36345000262372196, 0.35269999352749437, 0.4268500197213143, 0.35509999725036323, 0.34664999111555517, 0.35894999746233225, 0.3514499985612929, 0.3570499975467101, 0.36020000698044896, 0.35000000207219273, 0.34919999598059803, 0.3566499945009127, 0.35289999505039304, 0.3507499932311475, 0.3581000055419281, 0.3972999984398484, 0.3638500056695193, 0.34750001213978976, 0.3556500014383346, 0.35090000892523676, 0.3605499950936064, 0.35650000791065395, 0.34574999881442636, 0.3499000013107434, 0.367450003977865, 0.34889999369625, 0.34425000194460154, 0.35474999458529055, 0.3666499978862703, 0.3634999884525314, 0.3656499902717769, 0.3482000029180199, 0.3628999984357506, 0.35349999961908907, 0.3599499905249104, 0.363900006050244, 0.3558999887900427, 0.3604499943321571, 0.35084999399259686, 0.35180000122636557, 0.35444999230094254, 0.35790000401902944, 0.35239999124314636, 0.35504999686963856, 0.3475499979685992, 0.3561000048648566, 0.35844999365508556, 0.3543499915394932, 0.3469500079518184, 0.3708000003825873, 0.3500500024529174, 0.3542000049492344, 0.34934999712277204, 0.3582499921321869, 0.3578999894671142, 0.3539500030456111, 0.3553499991539866, 0.35015000321436673, 0.3600000054575503, 0.3559500037226826, 0.3612000000430271, 0.3557500021997839, 0.35754998680204153, 0.35244999162387103, 0.3565499937394634, 0.34929999674204737, 0.3509499947540462, 0.3545499930623919, 0.3556000010576099, 0.3540500038070604, 0.381199992261827, 0.3586999955587089, 0.35784998908638954, 0.36109999928157777, 0.35030000435654074, 0.3513500123517588, 0.3639499918790534, 0.35674999526236206, 0.3552999987732619, 0.35894999746233225, 0.36189999082125723],
  "Depth": 16.5,
  "Expectation Value": -8.184438705444336,
  "Optimal Expectation Value": -8.5667724609375,
  "Optimizer durations [ms]": [7.976, 8.182, 7.964, 8.621, 8.436, 8.197, 7.972, 7.881, 8.275, 7.882, 8.422, 7.938, 8.636, 8.215, 8.182, 8.146, 7.984, 8.104, 7.959, 8.324, 7.862, 8.074, 8.374, 7.751, 8.192, 8.253, 7.957, 8.257, 7.97, 7.997, 8.061, 7.963, 8.705, 7.928, 8.226, 7.908, 8.114, 8.008, 8.269, 8.128, 7.836, 8.465, 7.97, 8.255, 8.019, 9.135, 8.112, 7.91, 8.057, 8.263, 8.077, 7.873, 8.105, 8.214, 8.872, 9.175, 9.057, 8.149, 9.301, 7.972, 8.161, 11.697, 8.141, 8.417, 8.226, 9.828, 8.303, 7.937, 8.328, 8.509, 8.212, 21.46, 7.977, 8.59, 8.072, 9.85, 8.134, 8.156, 8.057, 19.939, 8.509, 8.076, 8.079, 8.296, 8.948, 8.126, 8.24, 15.652, 14.856, 8.325, 8.895, 8.205, 8.15, 8.051, 8.166, 8.107, 8.21, 8.197, 8.084, 7.86, 8.059, 7.955, 8.28, 8.207, 8.132, 7.978, 8.504, 7.858, 8.113, 8.159, 8.092, 8.386, 7.943, 8.396, 8.224, 8.077, 8.401, 8.142, 8.197, 7.905, 8.409, 7.979, 7.972, 8.568, 8.065, 7.941, 8.234, 7.918, 8.29, 7.931, 8.206, 7.91, 8.36, 7.957, 8.639, 8.151, 8.092, 8.176, 8.076, 8.113, 7.884, 8.069, 7.835, 8.239, 8.191, 8.274, 8.173, 7.908, 8.099, 8.547, 8.061, 8.773, 8.077, 8.43, 8.17, 8.175, 8.045, 8.342, 8.343, 8.081, 8.202, 8.021, 8.094, 8.39, 8.013, 8.113, 8.052, 8.007, 8.3, 7.851, 8.632, 9.543, 7.761, 8.403, 19.445, 12.237, 7.989, 8.111, 8.176, 8.824, 8.017, 8.037, 8.219, 8.254, 8.068, 8.189, 8.134, 7.973, 8.281, 8.016, 7.924, 7.972, 8.246, 7.759, 8.57, 8.082, 8.351, 8.046, 7.981, 8.058, 9.062, 8.491, 8.131, 7.806, 8.188, 8.121, 8.27, 8.27, 7.752, 8.531, 8.289, 7.915, 10.538, 8.512, 7.923, 7.94, 8.389, 8.447, 8.301, 8.031, 7.811, 8.346, 8.864, 8.105, 8.077, 8.329, 8.086, 7.784, 8.299, 7.984, 8.671, 8.009, 8.151, 8.051, 8.61, 8.01, 8.095, 8.135, 8.044, 8.234, 8.179, 8.019, 7.83, 8.343, 8.193, 8.266, 8.257, 8.078, 8.128, 8.232, 8.189, 7.786, 8.361, 8.144, 8.817, 8.281, 8.131, 8.207, 7.903, 8.26, 8.8, 7.966, 8.278, 8.049, 8.727, 8.647, 8.013, 8.725, 7.796, 8.291, 8.12, 8.104, 8.118, 8.041, 8.127, 7.749, 8.339, 8.37, 8.073, 8.032, 7.861, 8.018, 7.953, 9.163, 7.974, 8.15, 7.946, 8.26, 8.302, 8.124, 8.451, 9.612, 8.307, 7.845, 10.301, 12.714, 19.267, 7.969, 8.279, 8.11, 8.109, 8.015, 8.147, 7.84, 8.115, 8.087, 8.237, 8.089, 7.97, 8.228, 8.049, 8.299, 8.437, 8.19, 8.029, 8.093, 8.235, 8.295, 7.709, 8.501, 8.081, 7.824, 8.222, 7.852, 8.164, 7.993, 8.406, 8.046, 7.925, 7.675, 8.183, 8.291, 9.196, 8.214, 7.952, 8.281, 8.198, 7.935, 8.047, 8.023, 8.558, 8.506, 8.212, 8.117, 8.002, 8.254, 8.123, 8.175, 7.839, 8.226, 8.299, 8.151, 8.073, 8.227, 8.019, 8.092, 8.169, 8.297, 7.87, 8.349, 8.562, 7.925, 8.104, 8.253, 7.89, 7.976, 7.98, 8.365, 8.057, 7.917, 9.012, 7.982, 7.785, 8.158, 9.308, 8.074, 7.821, 8.152, 7.937, 8.015, 8.36, 8.176, 8.039, 7.954, 8.052, 8.025, 8.125, 8.19, 7.956, 8.303, 8.256, 8.967, 8.129, 8.04, 8.092, 7.998, 8.105, 8.134, 8.267, 8.058, 8.207, 8.041, 8.24, 8.124, 8.195, 8.509, 8.184, 7.963, 8.178, 7.988, 8.562, 9.779, 8.004, 8.112, 7.91, 8.529, 8.976, 8.033, 8.172, 8.251, 12.408, 8.123, 7.788, 8.925, 9.118, 7.964, 7.78, 8.28, 8.11, 7.803, 21.534, 7.81, 9.458, 7.767, 11.578, 8.647, 8.069, 8.384, 21.407, 8.477, 8.119, 7.923, 8.185, 8.095, 8.207, 11.589, 18.099, 11.54, 8.088, 12.702, 8.084, 8.363, 8.104, 8.082, 8.575, 8.257, 8.087, 8.144, 8.49, 8.07, 8.059, 8.313, 7.985, 8.338, 8.258, 8.307, 8.252, 7.949, 8.072, 8.256, 8.298, 8.007, 7.864, 8.474, 7.943, 8.425, 7.862, 8.205, 8.223, 8.169, 8.214, 8.147, 8.418, 7.887, 8.15, 7.867, 8.484, 7.668, 8.312, 8.549, 8.228, 7.738, 8.055, 8.168, 8.185, 8.157, 8.189, 7.956, 8.045, 8.506, 8.0, 7.926, 8.084, 8.103, 7.936, 8.304, 7.941, 9.255, 7.752, 8.24, 8.702, 8.163, 8.016, 7.909, 8.359, 8.283, 7.845, 8.391, 8.318, 7.865, 8.996, 7.807, 8.253, 8.108, 8.229, 8.416, 9.965, 8.225, 7.714, 8.272, 8.119, 8.962, 16.569, 12.216, 6.386, 8.177, 7.848, 7.865, 8.469, 8.149, 7.968, 8.242, 8.719, 8.204, 8.086, 8.065, 8.519, 7.805, 8.163, 8.355, 8.227, 8.12, 8.103, 8.605, 7.958, 7.935, 8.006, 8.429, 8.177, 8.26, 8.066, 7.965, 8.071, 7.837, 8.48, 7.901, 8.387, 7.868, 8.084, 8.162, 8.066, 8.128, 8.485, 7.904, 8.045, 8.129, 7.94, 8.455, 7.967, 8.035, 8.179, 8.069, 8.101, 8.799, 8.37, 9.165, 7.901, 8.43, 8.172, 8.11, 8.009, 8.202, 8.004, 8.191, 8.185, 7.998, 8.454, 8.118, 7.967, 8.253, 7.835, 8.158, 8.696, 8.155, 8.469, 8.268, 7.749, 8.395, 8.175, 7.968, 8.811, 7.901, 8.449, 8.51, 8.268, 8.086, 7.876, 8.265, 8.132, 7.899, 8.18, 8.295, 8.165, 8.039, 8.157, 8.392, 8.267, 8.205, 7.935, 8.19, 8.237, 7.858, 8.429, 8.315, 8.04, 8.452, 8.266, 8.144, 8.37, 7.693, 8.311, 8.11, 8.236, 8.08, 8.46, 8.038, 8.143, 10.289, 7.734, 8.481, 7.921, 8.153, 7.826, 11.525, 21.74, 9.538, 9.096, 7.677, 8.87, 8.178, 8.041, 8.292, 8.04, 7.733, 8.329, 8.283, 8.166, 7.807, 8.315, 7.998, 8.007, 7.845, 8.064, 8.242, 8.041, 8.154, 7.754, 8.254, 8.163, 8.275, 8.202, 9.523, 7.941, 7.986, 8.235, 8.152, 8.11, 8.501, 7.975, 7.873, 8.23, 10.845, 8.097, 8.168, 8.6, 8.172, 8.294, 8.06, 8.313, 8.145, 7.97, 8.062, 7.738, 8.145, 7.989, 8.028, 8.299, 8.323, 8.426, 8.157, 8.062, 8.449, 8.063, 8.2, 8.283, 8.334, 8.035, 8.3, 7.918, 8.181, 8.036, 8.13, 8.061, 8.286, 7.872, 8.39, 7.988, 7.986, 8.432, 8.149, 8.178, 7.905, 8.076, 8.013, 8.335, 7.923, 7.938, 8.506, 7.872, 8.317, 9.941, 7.959, 8.069, 8.42, 8.052, 7.977, 7.875, 8.301, 7.938, 8.685, 8.466, 8.194, 8.118, 8.172, 8.039, 8.36, 7.964, 8.342, 8.29, 8.429],
  "Optimizer iterations": 760,
  "Optimizer params": [0.5596134305796076, 0.44031878994405804, 0.9441617204386463, 0.4333707550824397, 0.9725299843128676, 0.9323914452432406, 0.005974576619034919, 0.8813940747603103, 0.00018925538817123438, 0.5764143290323257, 0.7770061705500203, 0.7762095340799797, 0.34982077717661364, 0.06355189706228263, 0.48305057614029506, 0.9762333951928449, 0.5058458336834293, 0.4944754170473673, 0.49085463267965757, 0.9899660183262736, 0.9961505926766286, 0.58676252005936, 0.294185375140794, 0.20598954348153653, 0.728173838419806, 0.04601510099411928, 0.20406219833203554, 0.9264638579573051],
  "P": 0,
  "Problem": "IC",
  "QJob durations [ms]": [0.3525500069372356, 0.36005000583827496, 0.34574999881442636, 0.3591499989852309, 0.3704999980982393, 0.3589999978430569, 0.3505000058794394, 0.3504999913275242, 0.3461500018602237, 0.35695001133717597, 0.36759999056812376, 0.3519000019878149, 0.3800999984377995, 0.35509999725036323, 0.3639499918790534, 0.3543499915394932, 0.35030000435654074, 0.3486500063445419, 0.3548499953467399, 0.3524999920045957, 0.3556500014383346, 0.34670000604819506, 0.35149999894201756, 0.3542500053299591, 0.36419999378267676, 0.35024998942390084, 0.3568499960238114, 0.3511499962769449, 0.3534500137902796, 0.3491000097710639, 0.3512999974191189, 0.35180000122636557, 0.3806000022450462, 0.3532499977154657, 0.34834998950827867, 0.35459999344311655, 0.3473999968264252, 0.3593500005081296, 0.3613500011852011, 0.35429999115876853, 0.35245000617578626, 0.3576000017346814, 0.35930000012740493, 0.3532999980961904, 0.3563499922165647, 0.40484999772161245, 0.35030000435654074, 0.35280000884085894, 0.3501499886624515, 0.3588999970816076, 0.3524999920045957, 0.3492499963613227, 0.35370000114198774, 0.3580499906092882, 0.3791499912040308, 0.3553499991539866, 0.37190000875853, 0.3593500005081296, 0.41455001337453723, 0.3542500053299591, 0.35415000456850976, 0.3680499939946458, 0.3510000096866861, 0.35245000617578626, 0.35459999344311655, 0.4507999983616173, 0.3530000103637576, 0.3541000041877851, 0.3598000039346516, 0.3494499978842214, 0.3574500005925074, 0.5272499984130263, 0.34964999940712005, 0.35195000236853957, 0.35635000676847994, 0.3612000000430271, 0.34664999111555517, 0.35185000160709023, 0.35459999344311655, 0.3228999994462356, 0.3802999999606982, 0.3529999958118424, 0.3512999974191189, 0.35509999725036323, 0.36049999471288174, 0.3542500053299591, 0.36735000321641564, 0.38100000529084355, 0.45384999248199165, 0.35635000676847994, 0.3554499999154359, 0.3591999993659556, 0.36094999813940376, 0.35215000389143825, 0.34699999378062785, 0.3548499953467399, 0.3523499908624217, 0.35445000685285777, 0.3539000026648864, 0.3467999922577292, 0.3484999906504527, 0.35224999010097235, 0.3696999920066446, 0.35674999526236206, 0.35274999390821904, 0.35289999505039304, 0.36395000643096864, 0.3536000003805384, 0.35180000122636557, 0.3493999975034967, 0.3586000093491748, 0.3633500018622726, 0.3526499931467697, 0.35555000067688525, 0.36199999158270657, 0.35489999572746456, 0.3637000045273453, 0.3497500001685694, 0.3572999994503334, 0.3539000026648864, 0.3620000061346218, 0.35394998849369586, 0.3557500021997839, 0.3608499973779544, 0.3563499922165647, 0.35009998828172684, 0.3587499959394336, 0.3555000002961606, 0.3585499944165349, 0.35054999170824885, 0.35274999390821904, 0.3539000026648864, 0.3598000039346516, 0.3515499993227422, 0.38195001252461225, 0.3536000003805384, 0.3551499976310879, 0.35364998620934784, 0.3522500046528876, 0.3523499908624217, 0.35224999010097235, 0.35200000274926424, 0.35075000778306276, 0.3626500110840425, 0.3549499961081892, 0.3649499994935468, 0.3496999997878447, 0.3515999997034669, 0.3456999984337017, 0.37969999539200217, 0.3532000118866563, 0.39250000554602593, 0.3463000030023977, 0.36195000575389713, 0.3482000029180199, 0.35859999479725957, 0.35349999961908907, 0.3659999929368496, 0.3607499966165051, 0.35740000021178275, 0.3581500059226528, 0.352299990481697, 0.3576500021154061, 0.3608999977586791, 0.3495499986456707, 0.35930000012740493, 0.3466000052867457, 0.3522500046528876, 0.35134999779984355, 0.3490000090096146, 0.3752999909920618, 0.3539500030456111, 0.3498500009300187, 0.3539999888744205, 0.37895000423304737, 0.49655001203063875, 0.3571499983081594, 0.35254999238532037, 0.36130000080447644, 0.374399998690933, 0.35269999352749437, 0.35289999505039304, 0.3632000007200986, 0.35785000363830477, 0.34934999712277204, 0.35585000296123326, 0.35480000951793045, 0.35615000524558127, 0.35930000012740493, 0.3536500007612631, 0.3546999942045659, 0.3557500021997839, 0.3470999945420772, 0.3522500046528876, 0.3601000062189996, 0.3532999980961904, 0.36299999919719994, 0.351849987055175, 0.35555000067688525, 0.3504999913275242, 0.41220001003239304, 0.3575000009732321, 0.3547999949660152, 0.34995000169146806, 0.35930000012740493, 0.35879999632015824, 0.3573499998310581, 0.35679999564308673, 0.3539500030456111, 0.3590499982237816, 0.35960000241175294, 0.35319999733474106, 0.3480000013951212, 0.3600999916670844, 0.3522000042721629, 0.3525500069372356, 0.36700000055134296, 0.36005000583827496, 0.3515999997034669, 0.35400000342633575, 0.3510999958962202, 0.3686499985633418, 0.3826500033028424, 0.35509999725036323, 0.3575000009732321, 0.3522000042721629, 0.3561000048648566, 0.35010000283364207, 0.3694000042742118, 0.3504000051179901, 0.36559998989105225, 0.35349999961908907, 0.3580000047804788, 0.36449999606702477, 0.35650000791065395, 0.3558000025805086, 0.3536000003805384, 0.3549999964889139, 0.35600000410340726, 0.3652000013971701, 0.34559999767225236, 0.3510999958962202, 0.3494499978842214, 0.3674000035971403, 0.35435000609140843, 0.3583499928936362, 0.35134999779984355, 0.35790000401902944, 0.3504999913275242, 0.3627499972935766, 0.35180000122636557, 0.35334999847691506, 0.3620000061346218, 0.3542000049492344, 0.3812000068137422, 0.3586999955587089, 0.3539000026648864, 0.360800011549145, 0.35319999733474106, 0.3657500055851415, 0.3480000013951212, 0.35134999779984355, 0.360650010406971, 0.35685001057572663, 0.3628999984357506, 0.35685001057572663, 0.3573499998310581, 0.3701000096043572, 0.3506499924696982, 0.3625999961514026, 0.348749992554076, 0.3508000081637874, 0.34729999606497586, 0.3549999964889139, 0.3473999968264252, 0.35170000046491623, 0.35445000685285777, 0.3565499937394634, 0.3524999920045957, 0.35209998895879835, 0.35269999352749437, 0.3558000025805086, 0.35104999551549554, 0.40920000174082816, 0.3510000096866861, 0.3511499962769449, 0.35340001340955496, 0.3546499938238412, 0.3571999986888841, 0.3537500015227124, 0.3681499947560951, 0.3537500015227124, 0.35339999885763973, 0.3475499979685992, 0.4672499926527962, 0.5651999963447452, 0.4969500005245209, 0.35754998680204153, 0.35125001159030944, 0.3637999907368794, 0.34744999720714986, 0.35245000617578626, 0.3587499959394336, 0.35215000389143825, 0.35269999352749437, 0.3532999980961904, 0.35679999564308673, 0.35000000207219273, 0.3532999980961904, 0.3604499943321571, 0.3635000030044466, 0.3602499928092584, 0.35400000342633575, 0.35650000791065395, 0.35280000884085894, 0.3551499976310879, 0.35555000067688525, 0.35510001180227846, 0.3510999958962202, 0.3563999925972894, 0.35310001112520695, 0.3530999965732917, 0.35180000122636557, 0.3530999965732917, 0.34949999826494604, 0.3506499924696982, 0.3622499934863299, 0.3526499931467697, 0.35045000549871475, 0.3463500033831224, 0.35415000456850976, 0.36025000736117363, 0.3529499954311177, 0.3580000047804788, 0.35354999999981374, 0.35504999686963856, 0.35585000296123326, 0.35685001057572663, 0.35785000363830477, 0.35000000207219273, 0.3647999983513728, 0.36830001045018435, 0.35754998680204153, 0.3581500059226528, 0.35665000905282795, 0.35489999572746456, 0.3538000019034371, 0.36079999699722975, 0.3470999945420772, 0.3583999932743609, 0.35200000274926424, 0.3565499937394634, 0.3547000087564811, 0.3589999978430569, 0.35385000228416175, 0.3569999971659854, 0.352299990481697, 0.36949999048374593, 0.34664999111555517, 0.35509999725036323, 0.36824999551754445, 0.3515499993227422, 0.35870001011062413, 0.3552999987732619, 0.35349999961908907, 0.3512499970383942, 0.3539000026648864, 0.3563000063877553, 0.3615500027080998, 0.3476999991107732, 0.39429999014828354, 0.3481500025372952, 0.3529499954311177, 0.3538000019034371, 0.4001500055892393, 0.3548499953467399, 0.35339999885763973, 0.3464500041445717, 0.3487999929348007, 0.35850000858772546, 0.3503500047372654, 0.3593500005081296, 0.3520500031299889, 0.3487999929348007, 0.3547999949660152, 0.3551499976310879, 0.3511500108288601, 0.3548499953467399, 0.3569999971659854, 0.3604500088840723, 0.3571499983081594, 0.39674999425187707, 0.3546999942045659, 0.3539000026648864, 0.34989998675882816, 0.35615000524558127, 0.35185000160709023, 0.3539000026648864, 0.35855000896845013, 0.3489500086288899, 0.36025000736117363, 0.351849987055175, 0.3550000110408291, 0.3591999993659556, 0.36700000055134296, 0.3651000006357208, 0.3572000132407993, 0.3527999942889437, 0.3483500040601939, 0.35370000114198774, 0.3872499946737662, 0.34729999606497586, 0.35269999352749437, 0.3495499986456707, 0.35740000021178275, 0.36530000215861946, 0.3505999920889735, 0.3537500015227124, 0.3584000078262761, 0.35829999251291156, 0.3561999910743907, 0.35230000503361225, 0.3537500015227124, 0.35149999894201756, 0.40290001197718084, 0.3548499953467399, 0.3482000029180199, 0.3471000090939924, 0.3527999942889437, 0.3549999964889139, 0.47080000513233244, 0.35400000342633575, 0.40604999230708927, 0.3511500108288601, 0.34744999720714986, 0.3666499978862703, 0.36114999966230243, 0.3578000032575801, 0.3559000033419579, 0.35679999564308673, 0.35790000401902944, 0.35680001019500196, 0.3469500079518184, 0.3527999942889437, 0.36225000803824514, 0.5319999909261242, 0.35125001159030944, 0.4975000047124922, 0.3541999903973192, 0.3496999997878447, 0.36100001307204366, 0.35930000012740493, 0.3627499972935766, 0.35650000791065395, 0.3539000026648864, 0.3564500075299293, 0.3589500120142475, 0.36255001032259315, 0.36079999699722975, 0.35165000008419156, 0.3525000065565109, 0.3583499928936362, 0.3531500115059316, 0.37024999619461596, 0.35915001353714615, 0.3644499956863001, 0.3545499930623919, 0.35489999572746456, 0.3517500008456409, 0.36125000042375177, 0.3578000032575801, 0.3507499932311475, 0.3586000093491748, 0.36034999357070774, 0.3620000061346218, 0.3597000031732023, 0.35474999458529055, 0.3612000000430271, 0.36094999813940376, 0.3580999909900129, 0.35215000389143825, 0.35924999974668026, 0.3554499999154359, 0.35149999894201756, 0.3557500021997839, 0.3517500008456409, 0.36294999881647527, 0.35024998942390084, 0.3513999981805682, 0.3530999965732917, 0.35650000791065395, 0.35354999999981374, 0.35075000778306276, 0.36374999035615474, 0.34649998997338116, 0.35805000516120344, 0.3499999875202775, 0.34759999834932387, 0.36299999919719994, 0.364350009476766, 0.3553499991539866, 0.35045000549871475, 0.3485000052023679, 0.3576500021154061, 0.3497500001685694, 0.35960000241175294, 0.35180000122636557, 0.40454999543726444, 0.3493999975034967, 0.34884999331552535, 0.38329999370034784, 0.3589500120142475, 0.34764999873004854, 0.3554499999154359, 0.360800011549145, 0.35180000122636557, 0.3528499946696684, 0.35674999526236206, 0.35850000858772546, 0.3561000048648566, 0.3826500033028424, 0.3540500038070604, 0.3622999938670546, 0.3558000025805086, 0.3588999970816076, 0.3821499994955957, 0.3496999997878447, 0.35715001286007464, 0.3483500040601939, 0.35060000664088875, 0.35614999069366604, 0.37214999611023813, 0.3721999964909628, 0.38654998934362084, 0.2671999973244965, 0.3509499947540462, 0.35030000435654074, 0.34929999674204737, 0.36130000080447644, 0.36020000698044896, 0.35015000321436673, 0.3608499973779544, 0.3718499938258901, 0.3605999954743311, 0.35319999733474106, 0.35519999801181257, 0.3621500072767958, 0.35319999733474106, 0.3616500034695491, 0.3569999971659854, 0.35495001066010445, 0.35799999022856355, 0.36190000537317246, 0.3724999987753108, 0.3493000112939626, 0.3479000006336719, 0.35180000122636557, 0.3581000055419281, 0.35400000342633575, 0.3579499898478389, 0.35289999505039304, 0.3530999965732917, 0.35414999001659453, 0.3447500057518482, 0.3620000061346218, 0.3532999980961904, 0.3580999909900129, 0.3494499978842214, 0.35924999974668026, 0.34825000329874456, 0.3543499915394932, 0.35579998802859336, 0.363900006050244, 0.35010000283364207, 0.3544000064721331, 0.3536500007612631, 0.34949999826494604, 0.3643000090960413, 0.35180000122636557, 0.3569999971659854, 0.3496999997878447, 0.3527999942889437, 0.3595000016503036, 0.3919000009773299, 0.3548499953467399, 0.4267000040272251, 0.3540500038070604, 0.3643000090960413, 0.3580000047804788, 0.35334999847691506, 0.3506500070216134, 0.35024998942390084, 0.3479000006336719, 0.35879999632015824, 0.3684499970404431, 0.3536500007612631, 0.34729999606497586, 0.35260000731796026, 0.3568499960238114, 0.35024998942390084, 0.35385000228416175, 0.3654000029200688, 0.3741500113392249, 0.35740000021178275, 0.3621500072767958, 0.35960000241175294, 0.3524999920045957, 0.3590499982237816, 0.35599998955149204, 0.3515499993227422, 0.39164999907370657, 0.3497500001685694, 0.3668999997898936, 0.3544999926816672, 0.3590499982237816, 0.3538000019034371, 0.35244999162387103, 0.3634000022429973, 0.34995000169146806, 0.35930000012740493, 0.3582499921321869, 0.3600000054575503, 0.3558000025805086, 0.3575000009732321, 0.35685001057572663, 0.3668999997898936, 0.35489999572746456, 0.3558000025805086, 0.35099999513477087, 0.3614000015659258, 0.35185000160709023, 0.3549999964889139, 0.3684000112116337, 0.3553499991539866, 0.35539999953471124, 0.3693999897222966, 0.36499999987427145, 0.36234999424777925, 0.3561000048648566, 0.3452499950071797, 0.36079999699722975, 0.3578000032575801, 0.3466500056674704, 0.3616500034695491, 0.3545500076143071, 0.35755000135395676, 0.3591499989852309, 0.35149999894201756, 0.3524000057950616, 0.3603000077418983, 0.3495999990263954, 0.35149999894201756, 0.35570000181905925, 0.5312999855959788, 0.37560000782832503, 0.4314499965403229, 0.36559998989105225, 0.3480500017758459, 0.39435000508092344, 0.3521000035107136, 0.3627499972935766, 0.3515499993227422, 0.3512999974191189, 0.3506500070216134, 0.3615500027080998, 0.3610499989008531, 0.3507999936118722, 0.35025000397581607, 0.34705000871326774, 0.35084999399259686, 0.3514499985612929, 0.35265000769868493, 0.35695001133717597, 0.3531500115059316, 0.35010000283364207, 0.35579998802859336, 0.35269999352749437, 0.35119999665766954, 0.3542000049492344, 0.36345000262372196, 0.35269999352749437, 0.4268500197213143, 0.35509999725036323, 0.34664999111555517, 0.35894999746233225, 0.3514499985612929, 0.3570499975467101, 0.36020000698044896, 0.35000000207219273, 0.34919999598059803, 0.3566499945009127, 0.35289999505039304, 0.3507499932311475, 0.3581000055419281, 0.3972999984398484, 0.3638500056695193, 0.34750001213978976, 0.3556500014383346, 0.35090000892523676, 0.3605499950936064, 0.35650000791065395, 0.34574999881442636, 0.3499000013107434, 0.367450003977865, 0.34889999369625, 0.34425000194460154, 0.35474999458529055, 0.3666499978862703, 0.3634999884525314, 0.3656499902717769, 0.3482000029180199, 0.3628999984357506, 0.35349999961908907, 0.3599499905249104, 0.363900006050244, 0.3558999887900427, 0.3604499943321571, 0.35084999399259686, 0.35180000122636557, 0.35444999230094254, 0.35790000401902944, 0.35239999124314636, 0.35504999686963856, 0.3475499979685992, 0.3561000048648566, 0.35844999365508556, 0.3543499915394932, 0.3469500079518184, 0.3708000003825873, 0.3500500024529174, 0.3542000049492344, 0.34934999712277204, 0.3582499921321869, 0.3578999894671142, 0.3539500030456111, 0.3553499991539866, 0.35015000321436673, 0.3600000054575503, 0.3559500037226826, 0.3612000000430271, 0.3557500021997839, 0.35754998680204153, 0.35244999162387103, 0.3565499937394634, 0.34929999674204737, 0.3509499947540462, 0.3545499930623919, 0.3556000010576099, 0.3540500038070604, 0.381199992261827, 0.3586999955587089, 0.35784998908638954, 0.36109999928157777, 0.35030000435654074, 0.3513500123517588, 0.3639499918790534, 0.35674999526236206, 0.3552999987732619, 0.35894999746233225, 0.36189999082125723],
  "QPU": "7000000",
  "Qubits": 7,
  "Queue durations [ms]": [0.0, 0.0, 0.0, 0.0, 0.0, 0.0, 0.0, 0.0, 0.0, 0.0, 0.0, 0.0, 0.0, 0.0, 0.0, 0.0, 0.0, 0.0, 0.0, 0.0, 0.0, 0.0, 0.0, 0.0, 0.0, 0.0, 0.0, 0.0, 0.0, 0.0, 0.0, 0.0, 0.0, 0.0, 0.0, 0.0, 0.0, 0.0, 0.0, 0.0, 0.0, 0.0, 0.0, 0.0, 0.0, 0.0, 0.0, 0.0, 0.0, 0.0, 0.0, 0.0, 0.0, 0.0, 0.0, 0.0, 0.0, 0.0, 0.0, 0.0, 0.0, 0.0, 0.0, 0.0, 0.0, 0.0, 0.0, 0.0, 0.0, 0.0, 0.0, 0.0, 0.0, 0.0, 0.0, 0.0, 0.0, 0.0, 0.0, 0.0, 0.0, 0.0, 0.0, 0.0, 0.0, 0.0, 0.0, 0.0, 0.0, 0.0, 0.0, 0.0, 0.0, 0.0, 0.0, 0.0, 0.0, 0.0, 0.0, 0.0, 0.0, 0.0, 0.0, 0.0, 0.0, 0.0, 0.0, 0.0, 0.0, 0.0, 0.0, 0.0, 0.0, 0.0, 0.0, 0.0, 0.0, 0.0, 0.0, 0.0, 0.0, 0.0, 0.0, 0.0, 0.0, 0.0, 0.0, 0.0, 0.0, 0.0, 0.0, 0.0, 0.0, 0.0, 0.0, 0.0, 0.0, 0.0, 0.0, 0.0, 0.0, 0.0, 0.0, 0.0, 0.0, 0.0, 0.0, 0.0, 0.0, 0.0, 0.0, 0.0, 0.0, 0.0, 0.0, 0.0, 0.0, 0.0, 0.0, 0.0, 0.0, 0.0, 0.0, 0.0, 0.0, 0.0, 0.0, 0.0, 0.0, 0.0, 0.0, 0.0, 0.0, 0.0, 0.0, 0.0, 0.0, 0.0, 0.0, 0.0, 0.0, 0.0, 0.0, 0.0, 0.0, 0.0, 0.0, 0.0, 0.0, 0.0, 0.0, 0.0, 0.0, 0.0, 0.0, 0.0, 0.0, 0.0, 0.0, 0.0, 0.0, 0.0, 0.0, 0.0, 0.0, 0.0, 0.0, 0.0, 0.0, 0.0, 0.0, 0.0, 0.0, 0.0, 0.0, 0.0, 0.0, 0.0, 0.0, 0.0, 0.0, 0.0, 0.0, 0.0, 0.0, 0.0, 0.0, 0.0, 0.0, 0.0, 0.0, 0.0, 0.0, 0.0, 0.0, 0.0, 0.0, 0.0, 0.0, 0.0, 0.0, 0.0, 0.0, 0.0, 0.0, 0.0, 0.0, 0.0, 0.0, 0.0, 0.0, 0.0, 0.0, 0.0, 0.0, 0.0, 0.0, 0.0, 0.0, 0.0, 0.0, 0.0, 0.0, 0.0, 0.0, 0.0, 0.0, 0.0, 0.0, 0.0, 0.0, 0.0, 0.0, 0.0, 0.0, 0.0, 0.0, 0.0, 0.0, 0.0, 0.0, 0.0, 0.0, 0.0, 0.0, 0.0, 0.0, 0.0, 0.0, 0.0, 0.0, 0.0, 0.0, 0.0, 0.0, 0.0, 0.0, 0.0, 0.0, 0.0, 0.0, 0.0, 0.0, 0.0, 0.0, 0.0, 0.0, 0.0, 0.0, 0.0, 0.0, 0.0, 0.0, 0.0, 0.0, 0.0, 0.0, 0.0, 0.0, 0.0, 0.0, 0.0, 0.0, 0.0, 0.0, 0.0, 0.0, 0.0, 0.0, 0.0, 0.0, 0.0, 0.0, 0.0, 0.0, 0.0, 0.0, 0.0, 0.0, 0.0, 0.0, 0.0, 0.0, 0.0, 0.0, 0.0, 0.0, 0.0, 0.0, 0.0, 0.0, 0.0, 0.0, 0.0, 0.0, 0.0, 0.0, 0.0, 0.0, 0.0, 0.0, 0.0, 0.0, 0.0, 0.0, 0.0, 0.0, 0.0, 0.0, 0.0, 0.0, 0.0, 0.0, 0.0, 0.0, 0.0, 0.0, 0.0, 0.0, 0.0, 0.0, 0.0, 0.0, 0.0, 0.0, 0.0, 0.0, 0.0, 0.0, 0.0, 0.0, 0.0, 0.0, 0.0, 0.0, 0.0, 0.0, 0.0, 0.0, 0.0, 0.0, 0.0, 0.0, 0.0, 0.0, 0.0, 0.0, 0.0, 0.0, 0.0, 0.0, 0.0, 0.0, 0.0, 0.0, 0.0, 0.0, 0.0, 0.0, 0.0, 0.0, 0.0, 0.0, 0.0, 0.0, 0.0, 0.0, 0.0, 0.0, 0.0, 0.0, 0.0, 0.0, 0.0, 0.0, 0.0, 0.0, 0.0, 0.0, 0.0, 0.0, 0.0, 0.0, 0.0, 0.0, 0.0, 0.0, 0.0, 0.0, 0.0, 0.0, 0.0, 0.0, 0.0, 0.0, 0.0, 0.0, 0.0, 0.0, 0.0, 0.0, 0.0, 0.0, 0.0, 0.0, 0.0, 0.0, 0.0, 0.0, 0.0, 0.0, 0.0, 0.0, 0.0, 0.0, 0.0, 0.0, 0.0, 0.0, 0.0, 0.0, 0.0, 0.0, 0.0, 0.0, 0.0, 0.0, 0.0, 0.0, 0.0, 0.0, 0.0, 0.0, 0.0, 0.0, 0.0, 0.0, 0.0, 0.0, 0.0, 0.0, 0.0, 0.0, 0.0, 0.0, 0.0, 0.0, 0.0, 0.0, 0.0, 0.0, 0.0, 0.0, 0.0, 0.0, 0.0, 0.0, 0.0, 0.0, 0.0, 0.0, 0.0, 0.0, 0.0, 0.0, 0.0, 0.0, 0.0, 0.0, 0.0, 0.0, 0.0, 0.0, 0.0, 0.0, 0.0, 0.0, 0.0, 0.0, 0.0, 0.0, 0.0, 0.0, 0.0, 0.0, 0.0, 0.0, 0.0, 0.0, 0.0, 0.0, 0.0, 0.0, 0.0, 0.0, 0.0, 0.0, 0.0, 0.0, 0.0, 0.0, 0.0, 0.0, 0.0, 0.0, 0.0, 0.0, 0.0, 0.0, 0.0, 0.0, 0.0, 0.0, 0.0, 0.0, 0.0, 0.0, 0.0, 0.0, 0.0, 0.0, 0.0, 0.0, 0.0, 0.0, 0.0, 0.0, 0.0, 0.0, 0.0, 0.0, 0.0, 0.0, 0.0, 0.0, 0.0, 0.0, 0.0, 0.0, 0.0, 0.0, 0.0, 0.0, 0.0, 0.0, 0.0, 0.0, 0.0, 0.0, 0.0, 0.0, 0.0, 0.0, 0.0, 0.0, 0.0, 0.0, 0.0, 0.0, 0.0, 0.0, 0.0, 0.0, 0.0, 0.0, 0.0, 0.0, 0.0, 0.0, 0.0, 0.0, 0.0, 0.0, 0.0, 0.0, 0.0, 0.0, 0.0, 0.0, 0.0, 0.0, 0.0, 0.0, 0.0, 0.0, 0.0, 0.0, 0.0, 0.0, 0.0, 0.0, 0.0, 0.0, 0.0, 0.0, 0.0, 0.0, 0.0, 0.0, 0.0, 0.0, 0.0, 0.0, 0.0, 0.0, 0.0, 0.0, 0.0, 0.0, 0.0, 0.0, 0.0, 0.0, 0.0, 0.0, 0.0, 0.0, 0.0, 0.0, 0.0, 0.0, 0.0, 0.0, 0.0, 0.0, 0.0, 0.0, 0.0, 0.0, 0.0, 0.0, 0.0, 0.0, 0.0, 0.0, 0.0, 0.0, 0.0, 0.0, 0.0, 0.0, 0.0, 0.0, 0.0, 0.0, 0.0, 0.0, 0.0, 0.0, 0.0, 0.0, 0.0, 0.0, 0.0, 0.0, 0.0, 0.0, 0.0, 0.0, 0.0, 0.0, 0.0, 0.0, 0.0, 0.0, 0.0, 0.0, 0.0, 0.0, 0.0, 0.0, 0.0, 0.0, 0.0, 0.0, 0.0, 0.0, 0.0, 0.0, 0.0, 0.0, 0.0, 0.0, 0.0, 0.0, 0.0, 0.0, 0.0, 0.0, 0.0, 0.0, 0.0, 0.0, 0.0, 0.0, 0.0, 0.0, 0.0, 0.0, 0.0],
  "Shots": 4096,
  "Size": 7,
  "Total Algorithm duration [s]": 6.395,
  "Total Classic duration [s]": 6.122011900118668,
  "Total Quantum duration [s]": 0.27298809988133144
}
