{
  "Circuit execution durations [ms]": [0.158200000441866, 0.14984999870648608, 0.20339999900897965, 0.15500000154133886, 0.1523000028100796, 0.2822499955072999, 0.14909999663359486, 0.210749996767845, 0.14805000319029205, 0.15029999849502929, 0.26389999402454123, 0.1527500025986228, 0.1510500005679205, 0.2271999946970027, 0.15440000061062165, 0.15019999773357995, 0.22975000320002437, 0.14874999760650098, 0.14585000099032186, 0.1478000012866687, 0.14759999612579122, 0.14715000361320563, 0.15500000154133886, 0.3223999956389889, 0.12305000200285576, 0.14714999997522682, 0.15205000090645626, 0.15005000022938475, 0.18884999735746533, 0.14879999798722565, 0.25690000620670617, 0.15365000217570923, 0.14859999646432698, 0.20084999414393678, 0.14800000280956738, 0.14909999663359486, 0.14929999815649353, 0.3300499956822023, 0.15859999984968454, 0.1501500009908341, 0.14799999553360976, 0.14775000454392284, 0.15410000196425244, 0.15220000204863027, 0.26554999203654006, 0.15619999612681568, 0.14989999908721074, 0.1475000026402995, 0.1528999964648392, 0.16105000395327806, 0.1813000017136801, 0.35895000473828986, 0.33239999902434647, 0.2278500032844022, 0.2675500072655268, 0.15055000403663144, 0.14895000276737846, 0.1473500014981255, 0.13484999726642855, 0.1539999975648243, 0.14860000010230578, 0.1556999995955266, 0.15884999811532907, 0.18540000382927246, 0.15350000103353523, 0.1494999996793922, 0.1496500008215662, 0.14569999984814785, 0.19550000070012175, 0.14754999938304536, 0.1600499999767635, 0.1862499993876554, 0.14680000458611175, 0.1507499982835725, 0.14739999824087135, 0.1467000001866836, 0.1460999992559664, 0.14649999866378494, 0.15519999578827992, 0.1611499974387698, 0.1537000025564339, 0.14885000200592913, 0.1510499969299417, 0.14714999997522682, 0.14690000170958228, 0.14785000166739337, 0.14770000052521937, 0.14690000170958228, 0.1527500025986228, 0.15705000259913504, 0.16730000425013714, 0.14995000310591422, 0.14849999934085645, 0.14679999731015414, 0.1465499954065308, 0.14814999667578377, 0.14819999705650844, 0.15040000289445743, 0.14630000077886507, 0.15815000369912013, 0.1904500022646971, 0.1468499976908788, 0.15544999769190326, 0.18695000107982196, 0.1529500041215215, 0.14810000357101671, 0.14895000276737846, 0.15530000018770806, 0.15745000200695358, 0.19040000188397244, 0.14999999984866008, 0.15055000039865263, 0.15405000158352777, 0.15150000035646372, 0.15305000124499202, 0.15280000297934748, 0.15379999967990443, 0.16039999900385737, 0.19320000137668103, 0.15729999722680077, 0.15659999553463422, 0.15380000331788324, 0.149500003317371, 0.15054999676067382, 0.15580000035697594, 0.15239999993355013, 0.15195000014500692, 0.20379999477881938, 0.15874999735387973, 0.15295000048354268, 0.15309999798773788, 0.1660999987507239, 0.1491999973950442, 0.15319999874918722, 0.15029999849502929, 0.15659999917261302, 0.1778999976522755, 0.16940000205067918, 0.16194999625440687, 0.1479499987908639, 0.14789999841013923, 0.15189999976428226, 0.14390000069397502, 0.15219999841065146, 0.14925000505172648, 0.1599000024725683, 0.185950004379265, 0.15404999794554897, 0.1476500001444947, 0.2804500036290847, 0.1494999960414134, 0.14879999798722565, 0.15144999633776024, 0.1536999989184551, 0.15470000289496966, 0.1568000006955117, 0.14725000073667616, 0.14630000441684388, 0.14665000344393775, 0.16370000230381265, 0.14840000221738592, 0.1460999992559664, 0.1462499967601616, 0.16309999773511663, 0.1876499954960309, 0.14680000094813295, 0.16444999710074626, 0.15725000412203372, 0.1506000007793773, 0.1476499965065159, 0.1515500043751672, 0.15564999557682313, 0.19779999638558365, 0.15800000255694613, 0.14569999984814785, 0.1478000012866687, 0.14835000183666125, 0.16165000124601647, 0.15335000352934003, 0.14759999976377003, 0.16090000281110406, 0.15764999989187345, 0.1866999955382198, 0.14840000221738592, 0.20770000264747068, 0.1499499994679354, 0.1541500023449771, 0.1507500019215513, 0.1554000009491574, 0.15150000035646372, 0.14699999883305281, 0.15359999815700576, 0.14584999735234305, 0.14520000331685878, 0.14870000086375512, 0.1472000003559515, 0.14980000196374021, 0.145650003105402, 0.14820000069448724, 0.14704999921377748, 0.16829999731271528, 0.14749999536434188, 0.15144999997573905, 0.16200000391108915, 0.1464000015403144, 0.14475000352831557, 0.14834999819868244, 0.1453000004403293, 0.1535499977762811, 0.1479499987908639, 0.31805000617168844, 0.31754999508848414, 0.2193000036641024, 0.1517000018793624, 0.15505000192206353, 0.17890000162879005, 0.14869999722577631, 0.15144999997573905, 0.14854999972158112, 0.1496500008215662, 0.14885000200592913, 0.1482499974372331, 0.16445000073872507, 0.15360000179498456, 0.192749997950159, 0.15309999798773788, 0.14854999972158112, 0.14730000111740083, 0.14760000340174884, 0.14894999912939966, 0.15094999980647117, 0.1527500025986228, 0.1500000034866389, 0.14944999929866754, 0.1874999943538569, 0.154650002514245, 0.14960000044084154, 0.17225000192411244, 0.14679999731015414, 0.14670000382466242, 0.14834999819868244, 0.14700000247103162, 0.15020000137155876, 0.14815000031376258, 0.18389999604551122, 0.1482499974372331, 0.14770000052521937, 0.14619999637943693, 0.15174999862210825, 0.14784999802941456, 0.14630000077886507, 0.14880000162520446, 0.15764999989187345, 0.1679499982856214, 0.1507500019215513, 0.1955499974428676, 0.15405000158352777, 0.15160000111791305, 0.2481500014255289, 0.15350000467151403, 0.14895000276737846, 0.18564999481895939, 0.14854999972158112, 0.1475000026402995, 0.15055000039865263, 0.14645000192103907, 0.14944999929866754, 0.26789999174070545, 0.1668499971856363, 0.15595000149914995, 0.16900000264286064, 0.1497999983257614, 0.1526000014564488, 0.15704999896115623, 0.14755000302102417, 0.3457000129856169, 0.15775000065332279, 0.21829999968758784, 0.1523000028100796, 0.15419999908772297, 0.1500000034866389, 0.35295000998303294, 0.1535500014142599, 0.14834999819868244, 0.15144999997573905, 0.1483999985794071, 0.1482500010752119, 0.1941499940585345, 0.15375000293715857, 0.14815000031376258, 0.14474999989033677, 0.14575000022887252, 0.1464000015403144, 0.14615000327466987, 0.14605000251322053, 0.1955499974428676, 0.1649999976507388, 0.1512000017100945, 0.15179999900283292, 0.1466999965487048, 0.14604999887524173, 0.14799999917158857, 0.14869999722577631, 0.1460999956179876, 0.14925000141374767, 0.15225000242935494, 0.19145000260323286, 0.15115000132936984, 0.14685000132885762, 0.15025000175228342, 0.1470500028517563, 0.14969999756431207, 0.14634999752161093, 0.15054999676067382, 0.15559999883407727, 0.1874999979918357, 0.1483999985794071, 0.1463999979023356, 0.15174999862210825, 0.15335000352934003, 0.14630000077886507, 0.1463999979023356, 0.14690000170958228, 0.1510500005679205, 0.16150000010384247, 0.19299999985378236, 0.16014999710023403, 0.15530000382568687, 0.14604999523726292, 0.14635000115958974, 0.145500001963228, 0.1462499967601616, 0.15145000361371785, 0.15420000272570178, 0.1639500005694572, 0.14740000187885016, 0.1468499976908788, 0.14555000234395266, 0.16994999896269292, 0.1510500042058993, 0.1462500003981404, 0.15799999891896732, 0.18834999718819745, 0.149500003317371, 0.1459500017517712, 0.22164999973028898, 0.1510500005679205, 0.14629999714088626, 0.149200001033023, 0.14670000382466242, 0.1468499976908788, 0.14680000094813295, 0.15039999925647862, 0.18879999697674066, 0.14840000221738592, 0.14789999841013923, 0.14865000048303045, 0.14680000094813295, 0.14909999663359486, 0.14835000183666125, 0.14549999832524918, 0.15025000175228342, 0.17750000188243575, 0.16755000251578167, 0.14960000044084154, 0.1468499976908788, 0.14584999735234305, 0.1507499982835725, 0.1468499976908788, 0.1470500028517563, 0.1489000023866538, 0.2190000050177332, 0.15410000196425244, 0.1507500019215513, 0.15470000289496966, 0.15490000077988952, 0.15205000454443507, 0.15800000255694613, 0.16220000179600902, 0.15690000145696104, 0.19425000209594145, 0.15324999912991188, 0.1479499987908639, 0.14620000001741573, 0.1474999990023207, 0.149200001033023, 0.14790000204811804, 0.14604999887524173, 0.14564999946742319, 0.14700000247103162, 0.1910499995574355, 0.14729999747942202, 0.15085000268300064, 0.14564999582944438, 0.15079999866429716, 0.1565000020491425, 0.14744999862159602, 0.14744999862159602, 0.14940000255592167, 0.15564999921480194, 0.1505999971413985, 0.14664999616798013, 0.16184999913093634, 0.15390000044135377, 0.1499499958299566, 0.1470500028517563, 0.20704999769805, 0.1514999967184849, 0.15144999633776024, 0.14884999836795032, 0.15314999836846255, 0.1516499978606589, 0.152900000102818, 0.15530000018770806, 0.15210000128718093, 0.15130000247154385, 0.1599000024725683, 0.15160000111791305, 0.15615000302204862, 0.1534000002720859, 0.15350000103353523, 0.15910000001895241, 0.15019999773357995, 0.15595000149914995, 0.1518499993835576, 0.15269999857991934, 0.15454999811481684, 0.22360000002663583, 0.15210000492515974, 0.15559999883407727, 0.21515000480576418, 0.1655000014579855, 0.14980000196374021, 0.15169999824138358, 0.13845000285073183, 0.30655000591650605, 0.1538500036986079, 0.15509999502683058, 0.15350000103353523, 0.15504999828408472, 0.19010000687558204, 0.1520000041637104, 0.1496499971835874, 0.15424999583046883, 0.15334999989136122, 0.149200001033023, 0.15129999883356504, 0.14894999912939966, 0.14975000158301555, 0.1483999985794071, 0.14899999587214552, 0.15084999904502183, 0.16479999976581894, 0.15345000065281056, 0.15195000014500692, 0.1508999994257465, 0.15080000230227597, 0.15625000014551915, 0.15024999811430462, 0.19335000251885504, 0.15250000069499947, 0.14870000086375512, 0.14830000145593658, 0.14745000225957483, 0.14774999726796523, 0.149049999890849, 0.15659999917261302, 0.1499499994679354, 0.15435000022989698, 0.15269999857991934, 0.14690000170958228, 0.14620000001741573, 0.14880000162520446, 0.1476500037824735, 0.15005000022938475, 0.14760000340174884, 0.14820000069448724, 0.15084999540704302, 0.18465000175638124, 0.15564999921480194, 0.14894999912939966, 0.15669999993406236, 0.15334999625338241, 0.1691999968898017, 0.15564999921480194, 0.14759999976377003, 0.15205000090645626, 0.18474999160389416, 0.19585000700317323, 0.15479999638046138, 0.15545000132988207, 0.15785000141477212, 0.14785000166739337, 0.14870000086375512, 0.14759999976377003, 0.17545000446261838, 0.14729999747942202, 0.14694999845232815, 0.14740000187885016, 0.15639999764971435, 0.15069999790284783, 0.1493499985372182, 0.27084999237558804, 0.2627499998197891, 0.15390000044135377, 0.13354999828152359, 0.15249999705702066, 0.14884999836795032, 0.1541499950690195, 0.15144999997573905, 0.152749998960644, 0.16529999993508682, 0.1879499941424001, 0.15284999972209334, 0.1473499978601467, 0.15124999845284037, 0.14864999684505165, 0.14675000056740828, 0.14770000052521937, 0.1586500002304092, 0.14849999570287764, 0.1479499987908639, 0.22720000561093912, 0.14955000006011687, 0.14999999621068127, 0.1497999983257614, 0.15169999824138358, 0.1482500010752119, 0.14829999781795777, 0.15685000107623637, 0.15144999997573905, 0.15435000386787578, 0.1523000028100796, 0.14969999756431207, 0.14849999934085645, 0.14960000044084154, 0.18839999756892212, 0.14820000069448724, 0.15174999862210825, 0.15174999862210825, 0.1918499983730726, 0.14929999815649353, 0.14805000319029205, 0.149200001033023, 0.14760000340174884, 0.14980000196374021, 0.14885000200592913, 0.15430000348715112, 0.1923000017995946, 0.15440000424860045, 0.14975000158301555, 0.14709999959450215, 0.15014999735285528, 0.14899999951012433, 0.16229999891947955, 0.15359999815700576, 0.15334999989136122, 0.15005000022938475, 0.14715000361320563, 0.17250000382773578, 0.14620000001741573, 0.14710000323248096, 0.14690000170958228, 0.15669999993406236, 0.14965000445954502, 0.14774999726796523, 0.1472000039939303, 0.183449996256968, 0.1621999981580302, 0.15165000149863772, 0.1507499982835725, 0.1473499978601467, 0.2266000010422431, 0.152749998960644, 0.14680000094813295, 0.14975000158301555, 0.15454999811481684, 0.18570000247564167, 0.14859999646432698, 0.1467000001866836, 0.1476500037824735, 0.14659999942523427, 0.15449999773409218, 0.15139999959501438, 0.1519999968877528, 0.147149996337248, 0.16209999739658087, 0.1843999998527579, 0.16075000166893005, 0.15100000018719584, 0.15129999883356504, 0.14869999722577631, 0.14810000357101671, 0.14695000209030695, 0.14784999802941456, 0.161749998369487, 0.17610000213608146, 0.14969999756431207, 0.14805000319029205, 0.1466999965487048, 0.14770000052521937, 0.14799999917158857, 0.14719999671797268, 0.14629999714088626, 0.19080000129179098, 0.1507499982835725, 0.15810000331839547, 0.19865000285790302, 0.15939999866532162, 0.15294999684556387, 0.14704999921377748, 0.1513499992142897, 0.14800000280956738, 0.15520000306423753, 0.192149993381463, 0.15475000327569433, 0.15999999959603883, 0.14844999896013178, 0.1512000017100945, 0.15405000158352777, 0.15295000048354268, 0.15564999557682313, 0.15220000204863027, 0.17795000167097896, 0.14880000162520446, 0.16370000230381265, 0.14724999709869735, 0.15055000039865263, 0.15070000154082663, 0.1489000023866538, 0.1473499978601467, 0.15159999747993425, 0.15195000378298573, 0.1869000043370761, 0.15064999752212316, 0.14820000433246605, 0.15240000357152894, 0.15110000094864517, 0.1486000037402846, 0.19955000243498944, 0.15345000065281056, 0.1870499982032925, 0.15174999862210825, 0.1479500024288427, 0.1499499994679354, 0.15005000022938475, 0.1563500009069685, 0.15094999980647117, 0.14985000234446488, 0.15160000111791305, 0.149049999890849, 0.14740000187885016, 0.14254999769036658, 0.14309999824035913, 0.14310000187833793, 0.14789999841013923, 0.1424999973096419, 0.15885000175330788, 0.15005000022938475, 0.15265000183717348, 0.23639999926672317, 0.15744999836897478, 0.14959999680286273, 0.14759999612579122, 0.14989999908721074, 0.14844999896013178, 0.15644999803043902, 0.13320000289240852, 0.1535500050522387, 0.20310000400058925, 0.15404999794554897, 0.14805000319029205, 0.27009999394067563, 0.1527499953226652, 0.1473500014981255, 0.20974999279133044, 0.18840000120690092, 0.14844999532215297, 0.14694999845232815, 0.15219999841065146, 0.14700000247103162, 0.14759999612579122, 0.1531000016257167, 0.14879999798722565, 0.17464999837102368, 0.3213500094716437, 0.16065000090748072, 0.15234999955282547, 0.2044000029854942, 0.15590000111842528, 0.1482499974372331, 0.14775000090594403, 0.2895500074373558, 0.15159999747993425, 0.14785000166739337, 0.20850000146310776, 0.14989999908721074, 0.1475000026402995, 0.24715000472497195, 0.17870000010589138, 0.1520000005257316, 0.14774999726796523, 0.20230000518495217, 0.17255000057048164, 0.3588999970816076, 0.15859999984968454, 0.3420000066398643, 0.15430000348715112, 0.14910000027157366, 0.14880000162520446, 0.2729499938141089, 0.15300000086426735, 0.28664999990724027, 0.20684999617515132, 0.15615000302204862, 0.15469999925699085, 0.15130000247154385, 0.1550999986648094, 0.16229999891947955, 0.15034999887575395, 0.14980000196374021, 0.15064999752212316, 0.15690000145696104, 0.15929999790387228, 0.1573999979882501, 0.1870500054792501, 0.15654999879188836, 0.15055000403663144, 0.152449996676296, 0.15194999650702812, 0.15324999912991188, 0.1507499982835725, 0.15039999925647862, 0.15855000310693868, 0.18960000306833535, 0.15305000124499202, 0.15220000204863027, 0.24219999613706023, 0.15904999600024894, 0.15079999866429716, 0.15054999676067382, 0.15034999523777515, 0.15839999832678586, 0.1507500019215513, 0.15895000251475722, 0.15985000209184363, 0.14884999836795032, 0.15455000175279565, 0.1511999980721157, 0.14985000234446488, 0.14984999870648608, 0.15299999722628854, 0.14969999756431207, 0.19064999651163816, 0.15854999946895987, 0.15125000209081918, 0.16075000166893005, 0.15379999967990443, 0.15900000289548188, 0.14939999891794287, 0.14709999595652334, 0.14804999955231324, 0.18605000514071435, 0.15124999845284037, 0.14910000027157366, 0.15419999544974416, 0.15169999824138358, 0.14689999807160348, 0.14675000056740828, 0.15190000340226106, 0.15640000128769316, 0.189049998880364, 0.14860000010230578, 0.1483000050939154, 0.14865000048303045, 0.15430000348715112, 0.15284999972209334, 0.1526000014564488, 0.14785000166739337, 0.15219999841065146, 0.15605000226059929, 0.1904500022646971, 0.15109999731066637, 0.16305000463034958, 0.14745000225957483, 0.15155000073718838, 0.14869999722577631, 0.14774999726796523, 0.14714999997522682, 0.15479999638046138, 0.1821999940148089, 0.14840000221738592, 0.15195000014500692, 0.15235000319080427],
  "Depth": 2.0,
  "Expectation Value": -5.344695091247559,
  "Optimal Expectation Value": -6.403900146484375,
  "Optimizer durations [ms]": [11.993, 4.16, 5.24, 4.568, 4.229, 6.582, 10.26, 5.418, 4.183, 4.193, 6.358, 4.518, 4.248, 5.54, 5.07, 4.314, 5.604, 4.942, 4.081, 4.945, 4.398, 4.135, 4.348, 7.209, 15.717, 4.3, 4.261, 5.237, 5.038, 4.139, 5.929, 4.599, 4.141, 5.146, 4.161, 4.176, 4.167, 7.371, 15.123, 4.171, 4.143, 5.166, 4.369, 4.283, 6.185, 4.519, 4.13, 5.201, 4.356, 4.505, 4.871, 8.04, 20.902, 5.848, 13.286, 4.297, 4.118, 4.14, 7.111, 4.54, 4.133, 4.299, 4.338, 4.907, 4.336, 4.146, 4.132, 4.056, 5.084, 8.86, 4.458, 4.891, 3.967, 4.248, 4.278, 4.077, 4.062, 4.072, 4.264, 4.487, 4.642, 4.172, 4.243, 4.077, 4.057, 4.298, 4.141, 4.072, 4.286, 4.583, 4.57, 4.179, 4.121, 4.095, 4.09, 4.131, 4.192, 4.22, 4.084, 4.336, 5.008, 4.141, 4.304, 5.077, 4.326, 4.13, 4.239, 4.373, 4.437, 5.065, 4.374, 4.163, 4.306, 4.155, 4.141, 4.097, 4.119, 4.344, 5.072, 4.382, 4.314, 4.225, 4.115, 4.201, 4.288, 4.091, 4.177, 5.179, 4.826, 4.3, 4.288, 4.536, 4.141, 4.283, 4.169, 4.361, 4.755, 5.317, 4.503, 4.134, 4.169, 4.231, 5.61, 4.325, 4.137, 4.382, 4.908, 4.403, 4.205, 6.718, 4.206, 4.181, 4.244, 4.327, 5.11, 4.458, 4.132, 4.073, 4.107, 4.483, 4.105, 4.083, 4.196, 4.458, 5.028, 4.142, 4.521, 4.385, 4.233, 4.192, 4.714, 4.251, 5.187, 4.32, 4.079, 4.065, 4.086, 4.442, 4.329, 4.122, 4.414, 4.477, 4.967, 4.165, 5.205, 4.207, 4.165, 4.222, 4.292, 4.321, 4.756, 4.41, 4.079, 4.07, 4.131, 4.089, 4.23, 4.105, 4.165, 4.089, 4.612, 4.139, 4.236, 4.421, 4.104, 4.049, 4.039, 4.008, 4.374, 4.112, 7.285, 20.598, 5.783, 4.276, 4.248, 4.767, 4.146, 4.287, 4.134, 4.176, 4.16, 4.15, 4.569, 4.183, 5.163, 4.291, 4.14, 4.089, 4.097, 4.272, 4.283, 4.276, 4.256, 4.171, 4.96, 4.403, 4.178, 4.668, 4.106, 4.085, 4.142, 4.075, 4.288, 4.133, 4.924, 4.17, 4.118, 4.094, 4.442, 4.135, 4.061, 4.009, 4.564, 4.555, 4.242, 5.097, 4.36, 4.218, 5.867, 4.943, 4.189, 4.944, 4.181, 4.111, 4.155, 4.183, 5.221, 6.618, 4.629, 4.387, 4.71, 4.197, 5.246, 4.407, 4.104, 7.667, 4.692, 5.489, 4.343, 4.287, 4.241, 7.758, 4.365, 4.148, 4.152, 4.127, 4.119, 5.118, 4.424, 4.143, 4.067, 4.095, 4.056, 4.075, 4.503, 5.072, 4.523, 4.204, 4.254, 4.111, 4.058, 4.18, 4.224, 4.067, 4.179, 4.22, 5.043, 4.339, 4.101, 4.235, 4.125, 4.162, 4.243, 4.17, 4.345, 4.969, 4.221, 4.067, 4.289, 4.22, 4.083, 4.148, 4.134, 4.137, 4.555, 5.089, 4.41, 4.31, 4.054, 4.073, 4.319, 3.993, 4.257, 4.354, 4.6, 4.116, 4.071, 4.057, 4.706, 4.251, 4.096, 4.333, 5.087, 4.182, 4.069, 5.483, 4.335, 4.12, 4.179, 4.071, 4.121, 4.089, 4.253, 4.969, 4.212, 4.181, 4.116, 4.12, 4.161, 4.117, 4.079, 4.14, 4.735, 4.687, 4.154, 4.076, 4.104, 4.19, 4.095, 4.093, 4.161, 5.486, 4.274, 4.146, 4.381, 4.316, 4.372, 4.408, 4.483, 4.365, 5.144, 4.364, 4.154, 4.103, 4.124, 4.2, 4.158, 4.072, 4.107, 4.118, 5.089, 4.243, 4.34, 4.6, 4.217, 4.392, 4.121, 4.092, 4.164, 4.94, 4.341, 4.166, 4.404, 4.389, 4.187, 4.125, 5.314, 5.066, 4.307, 4.278, 4.274, 4.265, 4.265, 5.202, 4.237, 4.175, 4.313, 5.043, 4.363, 4.254, 4.313, 4.379, 4.177, 4.255, 4.163, 4.186, 4.281, 5.406, 4.246, 4.313, 5.108, 4.702, 4.147, 5.18, 22.741, 7.3, 4.494, 4.286, 4.226, 4.222, 4.934, 4.228, 4.097, 4.223, 4.312, 4.157, 4.211, 4.111, 4.149, 4.131, 4.683, 4.157, 4.477, 4.212, 4.276, 4.169, 4.165, 4.254, 4.118, 5.141, 4.314, 4.142, 4.114, 4.089, 4.065, 4.729, 4.403, 4.152, 5.028, 4.361, 4.089, 4.213, 4.206, 4.108, 4.215, 4.105, 4.127, 4.292, 4.923, 4.322, 4.05, 4.4, 4.276, 4.57, 4.379, 4.119, 4.315, 4.896, 5.132, 4.985, 9.262, 4.425, 4.169, 4.205, 4.172, 4.661, 4.153, 4.108, 4.168, 4.381, 4.118, 4.106, 6.221, 6.75, 4.72, 7.338, 4.297, 4.158, 4.326, 4.215, 4.286, 4.662, 4.962, 4.417, 4.153, 4.208, 4.153, 4.13, 4.243, 4.457, 4.143, 4.139, 5.729, 4.222, 4.219, 4.282, 4.233, 4.173, 4.187, 4.33, 4.297, 5.059, 4.182, 4.221, 4.143, 4.181, 4.979, 4.178, 4.191, 4.291, 5.214, 4.226, 4.231, 4.166, 4.168, 4.251, 4.151, 5.683, 5.129, 4.454, 4.192, 4.099, 4.223, 4.128, 4.594, 4.319, 4.26, 4.191, 4.136, 4.688, 4.11, 4.237, 4.112, 4.369, 4.215, 4.171, 4.11, 4.88, 4.631, 4.213, 4.201, 4.145, 5.648, 4.418, 4.129, 4.192, 4.345, 4.993, 4.201, 4.186, 4.15, 4.121, 4.271, 4.226, 4.203, 4.118, 4.494, 4.859, 4.551, 4.21, 4.263, 4.177, 4.127, 4.153, 4.135, 4.472, 4.836, 4.286, 4.101, 4.134, 4.152, 4.193, 4.105, 4.099, 5.165, 4.553, 4.496, 5.187, 4.564, 4.267, 4.184, 4.23, 4.192, 4.34, 5.365, 4.54, 4.483, 4.183, 4.3, 4.318, 4.342, 4.311, 4.162, 4.878, 4.119, 4.465, 4.102, 4.248, 4.199, 4.174, 4.145, 4.293, 4.37, 4.953, 4.34, 4.162, 4.365, 4.33, 4.135, 5.157, 4.367, 4.931, 4.303, 4.14, 4.135, 4.173, 4.364, 4.216, 4.219, 4.219, 4.174, 4.18, 4.544, 4.038, 4.049, 4.142, 3.909, 4.423, 4.238, 4.249, 5.76, 6.704, 4.18, 5.193, 4.224, 4.19, 4.205, 7.097, 9.23, 5.241, 4.421, 4.156, 6.204, 4.659, 4.121, 5.31, 5.061, 4.192, 5.285, 5.818, 4.1, 5.152, 4.275, 4.131, 4.756, 7.57, 16.623, 4.405, 5.196, 4.463, 4.605, 3.976, 6.8, 4.302, 4.073, 5.329, 4.21, 4.089, 5.99, 18.292, 4.633, 4.141, 5.15, 4.7, 8.56, 5.57, 7.937, 5.307, 4.153, 4.187, 6.452, 14.258, 9.185, 5.874, 4.4, 4.354, 5.408, 8.601, 4.476, 4.106, 4.115, 4.148, 4.442, 4.448, 4.429, 4.931, 4.41, 4.154, 4.194, 4.261, 4.217, 4.134, 4.132, 4.366, 4.961, 4.255, 4.19, 5.589, 4.619, 4.145, 4.214, 4.21, 4.363, 4.704, 4.412, 4.508, 4.155, 4.275, 4.193, 4.228, 4.185, 4.198, 4.203, 5.026, 4.393, 4.231, 4.451, 4.262, 4.433, 4.191, 4.144, 4.209, 4.964, 4.365, 4.163, 4.36, 4.315, 4.163, 4.161, 4.241, 4.294, 5.032, 4.207, 4.145, 4.207, 4.333, 4.25, 4.316, 4.095, 4.301, 4.363, 5.01, 4.332, 4.522, 4.142, 4.176, 4.142, 4.256, 4.131, 4.305, 5.003, 4.182, 4.264, 4.901],
  "Optimizer iterations": 794,
  "Optimizer params": [0.003786536521754083, 0.5017257765334225, 0.9955712683637573, 0.9927943141034401, 0.5247180118548892, 0.9984579452387574, 0.49796759827322795, 0.5030609082615731, 0.001863240578557256, 0.495870660485336, 0.0026756068580105433],
  "P": 0,
  "Problem": "RH",
  "QJob durations [ms]": [0.158200000441866, 0.14984999870648608, 0.20339999900897965, 0.15500000154133886, 0.1523000028100796, 0.2822499955072999, 0.14909999663359486, 0.210749996767845, 0.14805000319029205, 0.15029999849502929, 0.26389999402454123, 0.1527500025986228, 0.1510500005679205, 0.2271999946970027, 0.15440000061062165, 0.15019999773357995, 0.22975000320002437, 0.14874999760650098, 0.14585000099032186, 0.1478000012866687, 0.14759999612579122, 0.14715000361320563, 0.15500000154133886, 0.3223999956389889, 0.12305000200285576, 0.14714999997522682, 0.15205000090645626, 0.15005000022938475, 0.18884999735746533, 0.14879999798722565, 0.25690000620670617, 0.15365000217570923, 0.14859999646432698, 0.20084999414393678, 0.14800000280956738, 0.14909999663359486, 0.14929999815649353, 0.3300499956822023, 0.15859999984968454, 0.1501500009908341, 0.14799999553360976, 0.14775000454392284, 0.15410000196425244, 0.15220000204863027, 0.26554999203654006, 0.15619999612681568, 0.14989999908721074, 0.1475000026402995, 0.1528999964648392, 0.16105000395327806, 0.1813000017136801, 0.35895000473828986, 0.33239999902434647, 0.2278500032844022, 0.2675500072655268, 0.15055000403663144, 0.14895000276737846, 0.1473500014981255, 0.13484999726642855, 0.1539999975648243, 0.14860000010230578, 0.1556999995955266, 0.15884999811532907, 0.18540000382927246, 0.15350000103353523, 0.1494999996793922, 0.1496500008215662, 0.14569999984814785, 0.19550000070012175, 0.14754999938304536, 0.1600499999767635, 0.1862499993876554, 0.14680000458611175, 0.1507499982835725, 0.14739999824087135, 0.1467000001866836, 0.1460999992559664, 0.14649999866378494, 0.15519999578827992, 0.1611499974387698, 0.1537000025564339, 0.14885000200592913, 0.1510499969299417, 0.14714999997522682, 0.14690000170958228, 0.14785000166739337, 0.14770000052521937, 0.14690000170958228, 0.1527500025986228, 0.15705000259913504, 0.16730000425013714, 0.14995000310591422, 0.14849999934085645, 0.14679999731015414, 0.1465499954065308, 0.14814999667578377, 0.14819999705650844, 0.15040000289445743, 0.14630000077886507, 0.15815000369912013, 0.1904500022646971, 0.1468499976908788, 0.15544999769190326, 0.18695000107982196, 0.1529500041215215, 0.14810000357101671, 0.14895000276737846, 0.15530000018770806, 0.15745000200695358, 0.19040000188397244, 0.14999999984866008, 0.15055000039865263, 0.15405000158352777, 0.15150000035646372, 0.15305000124499202, 0.15280000297934748, 0.15379999967990443, 0.16039999900385737, 0.19320000137668103, 0.15729999722680077, 0.15659999553463422, 0.15380000331788324, 0.149500003317371, 0.15054999676067382, 0.15580000035697594, 0.15239999993355013, 0.15195000014500692, 0.20379999477881938, 0.15874999735387973, 0.15295000048354268, 0.15309999798773788, 0.1660999987507239, 0.1491999973950442, 0.15319999874918722, 0.15029999849502929, 0.15659999917261302, 0.1778999976522755, 0.16940000205067918, 0.16194999625440687, 0.1479499987908639, 0.14789999841013923, 0.15189999976428226, 0.14390000069397502, 0.15219999841065146, 0.14925000505172648, 0.1599000024725683, 0.185950004379265, 0.15404999794554897, 0.1476500001444947, 0.2804500036290847, 0.1494999960414134, 0.14879999798722565, 0.15144999633776024, 0.1536999989184551, 0.15470000289496966, 0.1568000006955117, 0.14725000073667616, 0.14630000441684388, 0.14665000344393775, 0.16370000230381265, 0.14840000221738592, 0.1460999992559664, 0.1462499967601616, 0.16309999773511663, 0.1876499954960309, 0.14680000094813295, 0.16444999710074626, 0.15725000412203372, 0.1506000007793773, 0.1476499965065159, 0.1515500043751672, 0.15564999557682313, 0.19779999638558365, 0.15800000255694613, 0.14569999984814785, 0.1478000012866687, 0.14835000183666125, 0.16165000124601647, 0.15335000352934003, 0.14759999976377003, 0.16090000281110406, 0.15764999989187345, 0.1866999955382198, 0.14840000221738592, 0.20770000264747068, 0.1499499994679354, 0.1541500023449771, 0.1507500019215513, 0.1554000009491574, 0.15150000035646372, 0.14699999883305281, 0.15359999815700576, 0.14584999735234305, 0.14520000331685878, 0.14870000086375512, 0.1472000003559515, 0.14980000196374021, 0.145650003105402, 0.14820000069448724, 0.14704999921377748, 0.16829999731271528, 0.14749999536434188, 0.15144999997573905, 0.16200000391108915, 0.1464000015403144, 0.14475000352831557, 0.14834999819868244, 0.1453000004403293, 0.1535499977762811, 0.1479499987908639, 0.31805000617168844, 0.31754999508848414, 0.2193000036641024, 0.1517000018793624, 0.15505000192206353, 0.17890000162879005, 0.14869999722577631, 0.15144999997573905, 0.14854999972158112, 0.1496500008215662, 0.14885000200592913, 0.1482499974372331, 0.16445000073872507, 0.15360000179498456, 0.192749997950159, 0.15309999798773788, 0.14854999972158112, 0.14730000111740083, 0.14760000340174884, 0.14894999912939966, 0.15094999980647117, 0.1527500025986228, 0.1500000034866389, 0.14944999929866754, 0.1874999943538569, 0.154650002514245, 0.14960000044084154, 0.17225000192411244, 0.14679999731015414, 0.14670000382466242, 0.14834999819868244, 0.14700000247103162, 0.15020000137155876, 0.14815000031376258, 0.18389999604551122, 0.1482499974372331, 0.14770000052521937, 0.14619999637943693, 0.15174999862210825, 0.14784999802941456, 0.14630000077886507, 0.14880000162520446, 0.15764999989187345, 0.1679499982856214, 0.1507500019215513, 0.1955499974428676, 0.15405000158352777, 0.15160000111791305, 0.2481500014255289, 0.15350000467151403, 0.14895000276737846, 0.18564999481895939, 0.14854999972158112, 0.1475000026402995, 0.15055000039865263, 0.14645000192103907, 0.14944999929866754, 0.26789999174070545, 0.1668499971856363, 0.15595000149914995, 0.16900000264286064, 0.1497999983257614, 0.1526000014564488, 0.15704999896115623, 0.14755000302102417, 0.3457000129856169, 0.15775000065332279, 0.21829999968758784, 0.1523000028100796, 0.15419999908772297, 0.1500000034866389, 0.35295000998303294, 0.1535500014142599, 0.14834999819868244, 0.15144999997573905, 0.1483999985794071, 0.1482500010752119, 0.1941499940585345, 0.15375000293715857, 0.14815000031376258, 0.14474999989033677, 0.14575000022887252, 0.1464000015403144, 0.14615000327466987, 0.14605000251322053, 0.1955499974428676, 0.1649999976507388, 0.1512000017100945, 0.15179999900283292, 0.1466999965487048, 0.14604999887524173, 0.14799999917158857, 0.14869999722577631, 0.1460999956179876, 0.14925000141374767, 0.15225000242935494, 0.19145000260323286, 0.15115000132936984, 0.14685000132885762, 0.15025000175228342, 0.1470500028517563, 0.14969999756431207, 0.14634999752161093, 0.15054999676067382, 0.15559999883407727, 0.1874999979918357, 0.1483999985794071, 0.1463999979023356, 0.15174999862210825, 0.15335000352934003, 0.14630000077886507, 0.1463999979023356, 0.14690000170958228, 0.1510500005679205, 0.16150000010384247, 0.19299999985378236, 0.16014999710023403, 0.15530000382568687, 0.14604999523726292, 0.14635000115958974, 0.145500001963228, 0.1462499967601616, 0.15145000361371785, 0.15420000272570178, 0.1639500005694572, 0.14740000187885016, 0.1468499976908788, 0.14555000234395266, 0.16994999896269292, 0.1510500042058993, 0.1462500003981404, 0.15799999891896732, 0.18834999718819745, 0.149500003317371, 0.1459500017517712, 0.22164999973028898, 0.1510500005679205, 0.14629999714088626, 0.149200001033023, 0.14670000382466242, 0.1468499976908788, 0.14680000094813295, 0.15039999925647862, 0.18879999697674066, 0.14840000221738592, 0.14789999841013923, 0.14865000048303045, 0.14680000094813295, 0.14909999663359486, 0.14835000183666125, 0.14549999832524918, 0.15025000175228342, 0.17750000188243575, 0.16755000251578167, 0.14960000044084154, 0.1468499976908788, 0.14584999735234305, 0.1507499982835725, 0.1468499976908788, 0.1470500028517563, 0.1489000023866538, 0.2190000050177332, 0.15410000196425244, 0.1507500019215513, 0.15470000289496966, 0.15490000077988952, 0.15205000454443507, 0.15800000255694613, 0.16220000179600902, 0.15690000145696104, 0.19425000209594145, 0.15324999912991188, 0.1479499987908639, 0.14620000001741573, 0.1474999990023207, 0.149200001033023, 0.14790000204811804, 0.14604999887524173, 0.14564999946742319, 0.14700000247103162, 0.1910499995574355, 0.14729999747942202, 0.15085000268300064, 0.14564999582944438, 0.15079999866429716, 0.1565000020491425, 0.14744999862159602, 0.14744999862159602, 0.14940000255592167, 0.15564999921480194, 0.1505999971413985, 0.14664999616798013, 0.16184999913093634, 0.15390000044135377, 0.1499499958299566, 0.1470500028517563, 0.20704999769805, 0.1514999967184849, 0.15144999633776024, 0.14884999836795032, 0.15314999836846255, 0.1516499978606589, 0.152900000102818, 0.15530000018770806, 0.15210000128718093, 0.15130000247154385, 0.1599000024725683, 0.15160000111791305, 0.15615000302204862, 0.1534000002720859, 0.15350000103353523, 0.15910000001895241, 0.15019999773357995, 0.15595000149914995, 0.1518499993835576, 0.15269999857991934, 0.15454999811481684, 0.22360000002663583, 0.15210000492515974, 0.15559999883407727, 0.21515000480576418, 0.1655000014579855, 0.14980000196374021, 0.15169999824138358, 0.13845000285073183, 0.30655000591650605, 0.1538500036986079, 0.15509999502683058, 0.15350000103353523, 0.15504999828408472, 0.19010000687558204, 0.1520000041637104, 0.1496499971835874, 0.15424999583046883, 0.15334999989136122, 0.149200001033023, 0.15129999883356504, 0.14894999912939966, 0.14975000158301555, 0.1483999985794071, 0.14899999587214552, 0.15084999904502183, 0.16479999976581894, 0.15345000065281056, 0.15195000014500692, 0.1508999994257465, 0.15080000230227597, 0.15625000014551915, 0.15024999811430462, 0.19335000251885504, 0.15250000069499947, 0.14870000086375512, 0.14830000145593658, 0.14745000225957483, 0.14774999726796523, 0.149049999890849, 0.15659999917261302, 0.1499499994679354, 0.15435000022989698, 0.15269999857991934, 0.14690000170958228, 0.14620000001741573, 0.14880000162520446, 0.1476500037824735, 0.15005000022938475, 0.14760000340174884, 0.14820000069448724, 0.15084999540704302, 0.18465000175638124, 0.15564999921480194, 0.14894999912939966, 0.15669999993406236, 0.15334999625338241, 0.1691999968898017, 0.15564999921480194, 0.14759999976377003, 0.15205000090645626, 0.18474999160389416, 0.19585000700317323, 0.15479999638046138, 0.15545000132988207, 0.15785000141477212, 0.14785000166739337, 0.14870000086375512, 0.14759999976377003, 0.17545000446261838, 0.14729999747942202, 0.14694999845232815, 0.14740000187885016, 0.15639999764971435, 0.15069999790284783, 0.1493499985372182, 0.27084999237558804, 0.2627499998197891, 0.15390000044135377, 0.13354999828152359, 0.15249999705702066, 0.14884999836795032, 0.1541499950690195, 0.15144999997573905, 0.152749998960644, 0.16529999993508682, 0.1879499941424001, 0.15284999972209334, 0.1473499978601467, 0.15124999845284037, 0.14864999684505165, 0.14675000056740828, 0.14770000052521937, 0.1586500002304092, 0.14849999570287764, 0.1479499987908639, 0.22720000561093912, 0.14955000006011687, 0.14999999621068127, 0.1497999983257614, 0.15169999824138358, 0.1482500010752119, 0.14829999781795777, 0.15685000107623637, 0.15144999997573905, 0.15435000386787578, 0.1523000028100796, 0.14969999756431207, 0.14849999934085645, 0.14960000044084154, 0.18839999756892212, 0.14820000069448724, 0.15174999862210825, 0.15174999862210825, 0.1918499983730726, 0.14929999815649353, 0.14805000319029205, 0.149200001033023, 0.14760000340174884, 0.14980000196374021, 0.14885000200592913, 0.15430000348715112, 0.1923000017995946, 0.15440000424860045, 0.14975000158301555, 0.14709999959450215, 0.15014999735285528, 0.14899999951012433, 0.16229999891947955, 0.15359999815700576, 0.15334999989136122, 0.15005000022938475, 0.14715000361320563, 0.17250000382773578, 0.14620000001741573, 0.14710000323248096, 0.14690000170958228, 0.15669999993406236, 0.14965000445954502, 0.14774999726796523, 0.1472000039939303, 0.183449996256968, 0.1621999981580302, 0.15165000149863772, 0.1507499982835725, 0.1473499978601467, 0.2266000010422431, 0.152749998960644, 0.14680000094813295, 0.14975000158301555, 0.15454999811481684, 0.18570000247564167, 0.14859999646432698, 0.1467000001866836, 0.1476500037824735, 0.14659999942523427, 0.15449999773409218, 0.15139999959501438, 0.1519999968877528, 0.147149996337248, 0.16209999739658087, 0.1843999998527579, 0.16075000166893005, 0.15100000018719584, 0.15129999883356504, 0.14869999722577631, 0.14810000357101671, 0.14695000209030695, 0.14784999802941456, 0.161749998369487, 0.17610000213608146, 0.14969999756431207, 0.14805000319029205, 0.1466999965487048, 0.14770000052521937, 0.14799999917158857, 0.14719999671797268, 0.14629999714088626, 0.19080000129179098, 0.1507499982835725, 0.15810000331839547, 0.19865000285790302, 0.15939999866532162, 0.15294999684556387, 0.14704999921377748, 0.1513499992142897, 0.14800000280956738, 0.15520000306423753, 0.192149993381463, 0.15475000327569433, 0.15999999959603883, 0.14844999896013178, 0.1512000017100945, 0.15405000158352777, 0.15295000048354268, 0.15564999557682313, 0.15220000204863027, 0.17795000167097896, 0.14880000162520446, 0.16370000230381265, 0.14724999709869735, 0.15055000039865263, 0.15070000154082663, 0.1489000023866538, 0.1473499978601467, 0.15159999747993425, 0.15195000378298573, 0.1869000043370761, 0.15064999752212316, 0.14820000433246605, 0.15240000357152894, 0.15110000094864517, 0.1486000037402846, 0.19955000243498944, 0.15345000065281056, 0.1870499982032925, 0.15174999862210825, 0.1479500024288427, 0.1499499994679354, 0.15005000022938475, 0.1563500009069685, 0.15094999980647117, 0.14985000234446488, 0.15160000111791305, 0.149049999890849, 0.14740000187885016, 0.14254999769036658, 0.14309999824035913, 0.14310000187833793, 0.14789999841013923, 0.1424999973096419, 0.15885000175330788, 0.15005000022938475, 0.15265000183717348, 0.23639999926672317, 0.15744999836897478, 0.14959999680286273, 0.14759999612579122, 0.14989999908721074, 0.14844999896013178, 0.15644999803043902, 0.13320000289240852, 0.1535500050522387, 0.20310000400058925, 0.15404999794554897, 0.14805000319029205, 0.27009999394067563, 0.1527499953226652, 0.1473500014981255, 0.20974999279133044, 0.18840000120690092, 0.14844999532215297, 0.14694999845232815, 0.15219999841065146, 0.14700000247103162, 0.14759999612579122, 0.1531000016257167, 0.14879999798722565, 0.17464999837102368, 0.3213500094716437, 0.16065000090748072, 0.15234999955282547, 0.2044000029854942, 0.15590000111842528, 0.1482499974372331, 0.14775000090594403, 0.2895500074373558, 0.15159999747993425, 0.14785000166739337, 0.20850000146310776, 0.14989999908721074, 0.1475000026402995, 0.24715000472497195, 0.17870000010589138, 0.1520000005257316, 0.14774999726796523, 0.20230000518495217, 0.17255000057048164, 0.3588999970816076, 0.15859999984968454, 0.3420000066398643, 0.15430000348715112, 0.14910000027157366, 0.14880000162520446, 0.2729499938141089, 0.15300000086426735, 0.28664999990724027, 0.20684999617515132, 0.15615000302204862, 0.15469999925699085, 0.15130000247154385, 0.1550999986648094, 0.16229999891947955, 0.15034999887575395, 0.14980000196374021, 0.15064999752212316, 0.15690000145696104, 0.15929999790387228, 0.1573999979882501, 0.1870500054792501, 0.15654999879188836, 0.15055000403663144, 0.152449996676296, 0.15194999650702812, 0.15324999912991188, 0.1507499982835725, 0.15039999925647862, 0.15855000310693868, 0.18960000306833535, 0.15305000124499202, 0.15220000204863027, 0.24219999613706023, 0.15904999600024894, 0.15079999866429716, 0.15054999676067382, 0.15034999523777515, 0.15839999832678586, 0.1507500019215513, 0.15895000251475722, 0.15985000209184363, 0.14884999836795032, 0.15455000175279565, 0.1511999980721157, 0.14985000234446488, 0.14984999870648608, 0.15299999722628854, 0.14969999756431207, 0.19064999651163816, 0.15854999946895987, 0.15125000209081918, 0.16075000166893005, 0.15379999967990443, 0.15900000289548188, 0.14939999891794287, 0.14709999595652334, 0.14804999955231324, 0.18605000514071435, 0.15124999845284037, 0.14910000027157366, 0.15419999544974416, 0.15169999824138358, 0.14689999807160348, 0.14675000056740828, 0.15190000340226106, 0.15640000128769316, 0.189049998880364, 0.14860000010230578, 0.1483000050939154, 0.14865000048303045, 0.15430000348715112, 0.15284999972209334, 0.1526000014564488, 0.14785000166739337, 0.15219999841065146, 0.15605000226059929, 0.1904500022646971, 0.15109999731066637, 0.16305000463034958, 0.14745000225957483, 0.15155000073718838, 0.14869999722577631, 0.14774999726796523, 0.14714999997522682, 0.15479999638046138, 0.1821999940148089, 0.14840000221738592, 0.15195000014500692, 0.15235000319080427],
  "QPU": "7000000",
  "Qubits": 11,
  "Queue durations [ms]": [0.0, 0.0, 0.0, 0.0, 0.0, 0.0, 0.0, 0.0, 0.0, 0.0, 0.0, 0.0, 0.0, 0.0, 0.0, 0.0, 0.0, 0.0, 0.0, 0.0, 0.0, 0.0, 0.0, 0.0, 0.0, 0.0, 0.0, 0.0, 0.0, 0.0, 0.0, 0.0, 0.0, 0.0, 0.0, 0.0, 0.0, 0.0, 0.0, 0.0, 0.0, 0.0, 0.0, 0.0, 0.0, 0.0, 0.0, 0.0, 0.0, 0.0, 0.0, 0.0, 0.0, 0.0, 0.0, 0.0, 0.0, 0.0, 0.0, 0.0, 0.0, 0.0, 0.0, 0.0, 0.0, 0.0, 0.0, 0.0, 0.0, 0.0, 0.0, 0.0, 0.0, 0.0, 0.0, 0.0, 0.0, 0.0, 0.0, 0.0, 0.0, 0.0, 0.0, 0.0, 0.0, 0.0, 0.0, 0.0, 0.0, 0.0, 0.0, 0.0, 0.0, 0.0, 0.0, 0.0, 0.0, 0.0, 0.0, 0.0, 0.0, 0.0, 0.0, 0.0, 0.0, 0.0, 0.0, 0.0, 0.0, 0.0, 0.0, 0.0, 0.0, 0.0, 0.0, 0.0, 0.0, 0.0, 0.0, 0.0, 0.0, 0.0, 0.0, 0.0, 0.0, 0.0, 0.0, 0.0, 0.0, 0.0, 0.0, 0.0, 0.0, 0.0, 0.0, 0.0, 0.0, 0.0, 0.0, 0.0, 0.0, 0.0, 0.0, 0.0, 0.0, 0.0, 0.0, 0.0, 0.0, 0.0, 0.0, 0.0, 0.0, 0.0, 0.0, 0.0, 0.0, 0.0, 0.0, 0.0, 0.0, 0.0, 0.0, 0.0, 0.0, 0.0, 0.0, 0.0, 0.0, 0.0, 0.0, 0.0, 0.0, 0.0, 0.0, 0.0, 0.0, 0.0, 0.0, 0.0, 0.0, 0.0, 0.0, 0.0, 0.0, 0.0, 0.0, 0.0, 0.0, 0.0, 0.0, 0.0, 0.0, 0.0, 0.0, 0.0, 0.0, 0.0, 0.0, 0.0, 0.0, 0.0, 0.0, 0.0, 0.0, 0.0, 0.0, 0.0, 0.0, 0.0, 0.0, 0.0, 0.0, 0.0, 0.0, 0.0, 0.0, 0.0, 0.0, 0.0, 0.0, 0.0, 0.0, 0.0, 0.0, 0.0, 0.0, 0.0, 0.0, 0.0, 0.0, 0.0, 0.0, 0.0, 0.0, 0.0, 0.0, 0.0, 0.0, 0.0, 0.0, 0.0, 0.0, 0.0, 0.0, 0.0, 0.0, 0.0, 0.0, 0.0, 0.0, 0.0, 0.0, 0.0, 0.0, 0.0, 0.0, 0.0, 0.0, 0.0, 0.0, 0.0, 0.0, 0.0, 0.0, 0.0, 0.0, 0.0, 0.0, 0.0, 0.0, 0.0, 0.0, 0.0, 0.0, 0.0, 0.0, 0.0, 0.0, 0.0, 0.0, 0.0, 0.0, 0.0, 0.0, 0.0, 0.0, 0.0, 0.0, 0.0, 0.0, 0.0, 0.0, 0.0, 0.0, 0.0, 0.0, 0.0, 0.0, 0.0, 0.0, 0.0, 0.0, 0.0, 0.0, 0.0, 0.0, 0.0, 0.0, 0.0, 0.0, 0.0, 0.0, 0.0, 0.0, 0.0, 0.0, 0.0, 0.0, 0.0, 0.0, 0.0, 0.0, 0.0, 0.0, 0.0, 0.0, 0.0, 0.0, 0.0, 0.0, 0.0, 0.0, 0.0, 0.0, 0.0, 0.0, 0.0, 0.0, 0.0, 0.0, 0.0, 0.0, 0.0, 0.0, 0.0, 0.0, 0.0, 0.0, 0.0, 0.0, 0.0, 0.0, 0.0, 0.0, 0.0, 0.0, 0.0, 0.0, 0.0, 0.0, 0.0, 0.0, 0.0, 0.0, 0.0, 0.0, 0.0, 0.0, 0.0, 0.0, 0.0, 0.0, 0.0, 0.0, 0.0, 0.0, 0.0, 0.0, 0.0, 0.0, 0.0, 0.0, 0.0, 0.0, 0.0, 0.0, 0.0, 0.0, 0.0, 0.0, 0.0, 0.0, 0.0, 0.0, 0.0, 0.0, 0.0, 0.0, 0.0, 0.0, 0.0, 0.0, 0.0, 0.0, 0.0, 0.0, 0.0, 0.0, 0.0, 0.0, 0.0, 0.0, 0.0, 0.0, 0.0, 0.0, 0.0, 0.0, 0.0, 0.0, 0.0, 0.0, 0.0, 0.0, 0.0, 0.0, 0.0, 0.0, 0.0, 0.0, 0.0, 0.0, 0.0, 0.0, 0.0, 0.0, 0.0, 0.0, 0.0, 0.0, 0.0, 0.0, 0.0, 0.0, 0.0, 0.0, 0.0, 0.0, 0.0, 0.0, 0.0, 0.0, 0.0, 0.0, 0.0, 0.0, 0.0, 0.0, 0.0, 0.0, 0.0, 0.0, 0.0, 0.0, 0.0, 0.0, 0.0, 0.0, 0.0, 0.0, 0.0, 0.0, 0.0, 0.0, 0.0, 0.0, 0.0, 0.0, 0.0, 0.0, 0.0, 0.0, 0.0, 0.0, 0.0, 0.0, 0.0, 0.0, 0.0, 0.0, 0.0, 0.0, 0.0, 0.0, 0.0, 0.0, 0.0, 0.0, 0.0, 0.0, 0.0, 0.0, 0.0, 0.0, 0.0, 0.0, 0.0, 0.0, 0.0, 0.0, 0.0, 0.0, 0.0, 0.0, 0.0, 0.0, 0.0, 0.0, 0.0, 0.0, 0.0, 0.0, 0.0, 0.0, 0.0, 0.0, 0.0, 0.0, 0.0, 0.0, 0.0, 0.0, 0.0, 0.0, 0.0, 0.0, 0.0, 0.0, 0.0, 0.0, 0.0, 0.0, 0.0, 0.0, 0.0, 0.0, 0.0, 0.0, 0.0, 0.0, 0.0, 0.0, 0.0, 0.0, 0.0, 0.0, 0.0, 0.0, 0.0, 0.0, 0.0, 0.0, 0.0, 0.0, 0.0, 0.0, 0.0, 0.0, 0.0, 0.0, 0.0, 0.0, 0.0, 0.0, 0.0, 0.0, 0.0, 0.0, 0.0, 0.0, 0.0, 0.0, 0.0, 0.0, 0.0, 0.0, 0.0, 0.0, 0.0, 0.0, 0.0, 0.0, 0.0, 0.0, 0.0, 0.0, 0.0, 0.0, 0.0, 0.0, 0.0, 0.0, 0.0, 0.0, 0.0, 0.0, 0.0, 0.0, 0.0, 0.0, 0.0, 0.0, 0.0, 0.0, 0.0, 0.0, 0.0, 0.0, 0.0, 0.0, 0.0, 0.0, 0.0, 0.0, 0.0, 0.0, 0.0, 0.0, 0.0, 0.0, 0.0, 0.0, 0.0, 0.0, 0.0, 0.0, 0.0, 0.0, 0.0, 0.0, 0.0, 0.0, 0.0, 0.0, 0.0, 0.0, 0.0, 0.0, 0.0, 0.0, 0.0, 0.0, 0.0, 0.0, 0.0, 0.0, 0.0, 0.0, 0.0, 0.0, 0.0, 0.0, 0.0, 0.0, 0.0, 0.0, 0.0, 0.0, 0.0, 0.0, 0.0, 0.0, 0.0, 0.0, 0.0, 0.0, 0.0, 0.0, 0.0, 0.0, 0.0, 0.0, 0.0, 0.0, 0.0, 0.0, 0.0, 0.0, 0.0, 0.0, 0.0, 0.0, 0.0, 0.0, 0.0, 0.0, 0.0, 0.0, 0.0, 0.0, 0.0, 0.0, 0.0, 0.0, 0.0, 0.0, 0.0, 0.0, 0.0, 0.0, 0.0, 0.0, 0.0, 0.0, 0.0, 0.0, 0.0, 0.0, 0.0, 0.0, 0.0, 0.0, 0.0, 0.0, 0.0, 0.0, 0.0, 0.0, 0.0, 0.0, 0.0, 0.0, 0.0, 0.0, 0.0, 0.0, 0.0, 0.0, 0.0, 0.0, 0.0, 0.0, 0.0, 0.0, 0.0, 0.0, 0.0, 0.0, 0.0, 0.0, 0.0, 0.0, 0.0, 0.0, 0.0, 0.0, 0.0, 0.0, 0.0, 0.0, 0.0, 0.0, 0.0, 0.0, 0.0, 0.0, 0.0, 0.0, 0.0, 0.0, 0.0, 0.0, 0.0, 0.0, 0.0, 0.0, 0.0, 0.0, 0.0, 0.0, 0.0, 0.0, 0.0, 0.0, 0.0, 0.0, 0.0, 0.0, 0.0, 0.0, 0.0, 0.0, 0.0],
  "Shots": 4096,
  "Size": 11,
  "Total Algorithm duration [s]": 3.706,
  "Total Classic duration [s]": 3.578018899939576,
  "Total Quantum duration [s]": 0.12798110006042407
}
