{
  "Circuit execution durations [ms]": [0.15409999468829483, 0.1949499965121504, 0.1482499974372331, 0.15254999743774533, 0.14709999959450215, 0.15435000022989698, 0.14984999870648608, 0.15130000247154385, 0.14835000183666125, 0.14884999836795032, 0.15039999925647862, 0.1512000017100945, 0.1565000056871213, 0.15445000099134631, 0.15250000069499947, 0.14730000111740083, 0.18629999249242246, 0.14815000031376258, 0.14600000213249587, 0.15099999654921703, 0.14719999671797268, 0.15499999790336005, 0.2500000045984052, 0.15004999659140594, 0.21039999774075113, 0.2312500000698492, 0.15345000065281056, 0.1769500013324432, 0.3499000013107434, 0.21284999820636585, 0.15744999836897478, 0.14805000319029205, 0.14525000005960464, 0.21689999266527593, 0.15469999925699085, 0.3389000048628077, 0.15250000069499947, 0.14960000407882035, 0.2100000056088902, 0.15374999929917976, 0.14874999760650098, 0.26684999829740264, 0.1517000018793624, 0.15040000289445743, 0.22715000523021445, 0.15419999908772297, 0.1480999999330379, 0.14989999544923194, 0.3428499912843108, 0.15549999807262793, 0.15254999743774533, 0.23314999270951375, 0.15464999887626618, 0.14770000052521937, 0.14699999883305281, 0.2936500095529482, 0.15235000319080427, 0.15010000061010942, 0.21135000133654103, 0.17395000395481475, 0.15239999993355013, 0.2743500044743996, 0.13264999870443717, 0.1538500000606291, 0.15450000137207098, 0.23065000277711079, 0.1509000030637253, 0.14745000225957483, 0.23920000239741057, 0.14995000310591422, 0.14804999955231324, 0.14520000331685878, 0.20555000082822517, 0.18944999465020373, 0.1473499978601467, 0.3217499906895682, 0.18294999608770013, 0.2581999942776747, 0.15279999934136868, 0.14820000069448724, 0.14885000200592913, 0.14815000031376258, 0.1473499978601467, 0.15144999997573905, 0.19370000518392771, 0.15290000374079682, 0.15564999921480194, 0.16124999820021912, 0.14560000272467732, 0.1508999994257465, 0.14960000044084154, 0.14694999845232815, 0.14830000145593658, 0.14900000314810313, 0.14704999921377748, 0.1554000009491574, 0.17699999807518907, 0.149350002175197, 0.15069999790284783, 0.14650000230176374, 0.14694999845232815, 0.15264999819919467, 0.15040000289445743, 0.14690000170958228, 0.14990000272518955, 0.19489999976940453, 0.15250000433297828, 0.148899998748675, 0.1479499987908639, 0.15549999807262793, 0.1526000014564488, 0.14790000204811804, 0.148899998748675, 0.1462500003981404, 0.15239999629557133, 0.18910000289906748, 0.1524500003142748, 0.14605000251322053, 0.14725000437465496, 0.14664999616798013, 0.20185000175843015, 0.1541500023449771, 0.1466999965487048, 0.14590000137104653, 0.14804999591433443, 0.14759999976377003, 0.14584999735234305, 0.14810000357101671, 0.14800000280956738, 0.14644999828306027, 0.1628500031074509, 0.14745000225957483, 0.1490499962528702, 0.15390000407933258, 0.18635000014910474, 0.14805000319029205, 0.15254999743774533, 0.1554000009491574, 0.15290000374079682, 0.14704999921377748, 0.14620000001741573, 0.14740000187885016, 0.1463999979023356, 0.15910000365693122, 0.14805000319029205, 0.1478000012866687, 0.14605000251322053, 0.1460999992559664, 0.14689999807160348, 0.14775000454392284, 0.1467000001866836, 0.1462500003981404, 0.17120000120485201, 0.15140000323299319, 0.1472000039939303, 0.1459499981137924, 0.14924999777576886, 0.14585000099032186, 0.1452999968023505, 0.1480999962950591, 0.15115000132936984, 0.14704999557579868, 0.18394999642623588, 0.18780000391416252, 0.14770000416319817, 0.14709999959450215, 0.14714999997522682, 0.15174999862210825, 0.15129999883356504, 0.14844999896013178, 0.16340000001946464, 0.15065000116010197, 0.1499499994679354, 0.1476500001444947, 0.1542999998491723, 0.19475000226520933, 0.15195000014500692, 0.15529999654972926, 0.14744999862159602, 0.15220000204863027, 0.1555499984533526, 0.22344999888446182, 0.16095000319182873, 0.14620000365539454, 0.15054999676067382, 0.1480999999330379, 0.14925000141374767, 0.14635000115958974, 0.1621999981580302, 0.19874999998137355, 0.1616000008652918, 0.14860000010230578, 0.14999999984866008, 0.14659999578725547, 0.14814999667578377, 0.15344999701483175, 0.15335000352934003, 0.15439999697264284, 0.17280000247410499, 0.22774999524699524, 0.14910000390955247, 0.14840000221738592, 0.1479500024288427, 0.1479500024288427, 0.14974999794503674, 0.14680000094813295, 0.14784999802941456, 0.14709999959450215, 0.14645000192103907, 0.1550999986648094, 0.14744999862159602, 0.14679999731015414, 0.1462500003981404, 0.14930000179447234, 0.14870000450173393, 0.15195000378298573, 0.14749999536434188, 0.15645000530639663, 0.18370000179857016, 0.14815000395174138, 0.14645000192103907, 0.15080000230227597, 0.14744999862159602, 0.1466999965487048, 0.14805000319029205, 0.147149996337248, 0.1486000037402846, 0.14844999896013178, 0.1870499982032925, 0.15430000348715112, 0.15165000149863772, 0.2829999939422123, 0.13589999798568897, 0.1551000023027882, 0.1556999995955266, 0.15470000289496966, 0.2018999948631972, 0.12995000361115672, 0.32980000105453655, 0.20485000277403742, 0.1545999984955415, 0.15830000120331533, 0.1523000028100796, 0.15025000175228342, 0.1500999969721306, 0.15025000175228342, 0.14880000162520446, 0.1485499960836023, 0.15179999900283292, 0.14709999959450215, 0.14614999963669106, 0.14690000170958228, 0.15290000374079682, 0.14954999642213807, 0.14574999659089372, 0.14674999692942947, 0.15055000039865263, 0.14755000302102417, 0.16789999790489674, 0.14860000010230578, 0.16089999553514645, 0.14694999845232815, 0.14635000115958974, 0.20155000675003976, 0.15225000242935494, 0.14789999841013923, 0.14694999845232815, 0.1538500036986079, 0.1454499979445245, 0.14490000467048958, 0.14710000323248096, 0.1474999990023207, 0.14650000230176374, 0.14689999807160348, 0.18400000044493936, 0.1480999999330379, 0.14849999934085645, 0.1886000027297996, 0.15315000200644135, 0.1479499987908639, 0.14590000137104653, 0.15984999845386483, 0.15249999705702066, 0.14704999921377748, 0.14700000247103162, 0.1556999995955266, 0.15430000348715112, 0.15735000124550425, 0.15690000145696104, 0.15065000116010197, 0.1459500017517712, 0.1476500001444947, 0.1460999992559664, 0.14630000077886507, 0.14600000213249587, 0.20325000514276326, 0.15365000217570923, 0.14784999802941456, 0.14879999798722565, 0.14754999938304536, 0.14874999760650098, 0.14635000115958974, 0.15295000048354268, 0.3546000079950318, 0.156299996888265, 0.1490500035288278],
  "Depth": 2.0,
  "Expectation Value": -5.354946613311768,
  "Optimal Expectation Value": -6.403900146484375,
  "Optimizer durations [ms]": [7.711, 5.058, 4.223, 4.221, 4.119, 4.334, 4.645, 4.313, 4.152, 4.175, 4.194, 4.115, 4.425, 4.292, 4.295, 4.137, 4.938, 4.181, 4.094, 4.309, 4.116, 4.22, 6.037, 4.297, 5.328, 6.542, 4.441, 4.712, 7.926, 5.523, 9.351, 4.211, 12.814, 5.51, 11.586, 7.527, 4.264, 4.137, 5.185, 4.44, 4.162, 6.308, 4.362, 4.169, 5.408, 4.474, 4.101, 4.154, 7.834, 15.719, 4.256, 5.58, 4.423, 4.092, 4.086, 6.746, 4.535, 4.229, 5.345, 4.76, 4.131, 6.263, 16.477, 4.358, 4.29, 5.647, 4.293, 4.151, 5.858, 4.481, 4.104, 4.045, 5.144, 5.071, 4.121, 7.407, 17.984, 7.24, 9.583, 4.109, 4.164, 4.148, 4.1, 4.192, 5.143, 5.035, 4.887, 4.505, 4.081, 4.184, 4.145, 4.095, 4.131, 4.128, 4.106, 4.362, 4.771, 4.165, 4.174, 4.115, 4.094, 4.323, 4.232, 4.103, 4.121, 5.178, 4.346, 4.095, 4.163, 4.289, 4.067, 4.135, 4.144, 4.061, 4.229, 5.105, 4.328, 4.091, 4.127, 4.133, 5.253, 4.361, 4.124, 4.1, 4.677, 4.108, 4.111, 4.144, 4.146, 4.092, 4.66, 4.111, 4.17, 4.332, 4.98, 4.188, 4.228, 4.33, 4.271, 4.117, 4.089, 4.111, 4.938, 4.464, 4.718, 4.194, 4.071, 4.066, 4.114, 4.098, 4.069, 4.066, 4.492, 4.237, 4.121, 4.111, 4.144, 4.077, 4.078, 4.155, 4.216, 4.159, 4.942, 5.007, 4.178, 4.094, 4.022, 4.223, 4.188, 4.117, 4.337, 5.02, 4.179, 4.125, 4.228, 5.147, 4.219, 4.316, 4.12, 4.341, 4.406, 5.372, 4.617, 4.088, 4.189, 4.145, 4.185, 4.154, 4.547, 5.132, 4.665, 4.185, 4.131, 4.063, 4.186, 4.339, 4.358, 4.391, 4.65, 5.616, 4.175, 4.118, 4.099, 4.056, 4.183, 4.207, 4.135, 4.1, 4.81, 4.495, 4.138, 4.14, 4.089, 4.191, 4.072, 4.231, 4.092, 4.372, 4.925, 4.175, 4.219, 4.151, 4.158, 4.121, 4.149, 4.127, 4.172, 4.149, 4.996, 4.399, 4.111, 11.427, 6.772, 4.427, 4.924, 4.369, 5.159, 17.269, 10.656, 6.153, 4.399, 4.377, 4.195, 4.183, 4.109, 4.094, 4.023, 4.87, 4.404, 4.178, 4.089, 4.091, 4.223, 4.164, 4.052, 4.083, 4.155, 4.091, 4.602, 4.153, 4.461, 4.088, 4.1, 5.185, 4.345, 4.09, 4.635, 4.345, 4.088, 4.068, 4.108, 4.087, 4.094, 3.991, 4.875, 4.099, 4.144, 5.59, 4.406, 4.094, 4.117, 4.402, 4.158, 4.125, 4.115, 5.12, 4.39, 4.432, 4.379, 4.199, 4.078, 4.059, 4.163, 4.06, 4.102, 5.245, 4.857, 4.097, 4.137, 4.259, 4.131, 4.074, 4.231, 7.735, 4.569, 4.201],
  "Optimizer iterations": 306,
  "Optimizer params": [0.002443388531925341, 0.5020352445406617, 0.9933585187909116, 0.02847406895855644, 0.49637657851837, 0.003813736056322361, 0.5020645785978878, 0.496464952278871, 0.9990793860299737, 0.4787571844605068, 0.9965889891422436],
  "P": 0,
  "Problem": "RH",
  "QJob durations [ms]": [0.15409999468829483, 0.1949499965121504, 0.1482499974372331, 0.15254999743774533, 0.14709999959450215, 0.15435000022989698, 0.14984999870648608, 0.15130000247154385, 0.14835000183666125, 0.14884999836795032, 0.15039999925647862, 0.1512000017100945, 0.1565000056871213, 0.15445000099134631, 0.15250000069499947, 0.14730000111740083, 0.18629999249242246, 0.14815000031376258, 0.14600000213249587, 0.15099999654921703, 0.14719999671797268, 0.15499999790336005, 0.2500000045984052, 0.15004999659140594, 0.21039999774075113, 0.2312500000698492, 0.15345000065281056, 0.1769500013324432, 0.3499000013107434, 0.21284999820636585, 0.15744999836897478, 0.14805000319029205, 0.14525000005960464, 0.21689999266527593, 0.15469999925699085, 0.3389000048628077, 0.15250000069499947, 0.14960000407882035, 0.2100000056088902, 0.15374999929917976, 0.14874999760650098, 0.26684999829740264, 0.1517000018793624, 0.15040000289445743, 0.22715000523021445, 0.15419999908772297, 0.1480999999330379, 0.14989999544923194, 0.3428499912843108, 0.15549999807262793, 0.15254999743774533, 0.23314999270951375, 0.15464999887626618, 0.14770000052521937, 0.14699999883305281, 0.2936500095529482, 0.15235000319080427, 0.15010000061010942, 0.21135000133654103, 0.17395000395481475, 0.15239999993355013, 0.2743500044743996, 0.13264999870443717, 0.1538500000606291, 0.15450000137207098, 0.23065000277711079, 0.1509000030637253, 0.14745000225957483, 0.23920000239741057, 0.14995000310591422, 0.14804999955231324, 0.14520000331685878, 0.20555000082822517, 0.18944999465020373, 0.1473499978601467, 0.3217499906895682, 0.18294999608770013, 0.2581999942776747, 0.15279999934136868, 0.14820000069448724, 0.14885000200592913, 0.14815000031376258, 0.1473499978601467, 0.15144999997573905, 0.19370000518392771, 0.15290000374079682, 0.15564999921480194, 0.16124999820021912, 0.14560000272467732, 0.1508999994257465, 0.14960000044084154, 0.14694999845232815, 0.14830000145593658, 0.14900000314810313, 0.14704999921377748, 0.1554000009491574, 0.17699999807518907, 0.149350002175197, 0.15069999790284783, 0.14650000230176374, 0.14694999845232815, 0.15264999819919467, 0.15040000289445743, 0.14690000170958228, 0.14990000272518955, 0.19489999976940453, 0.15250000433297828, 0.148899998748675, 0.1479499987908639, 0.15549999807262793, 0.1526000014564488, 0.14790000204811804, 0.148899998748675, 0.1462500003981404, 0.15239999629557133, 0.18910000289906748, 0.1524500003142748, 0.14605000251322053, 0.14725000437465496, 0.14664999616798013, 0.20185000175843015, 0.1541500023449771, 0.1466999965487048, 0.14590000137104653, 0.14804999591433443, 0.14759999976377003, 0.14584999735234305, 0.14810000357101671, 0.14800000280956738, 0.14644999828306027, 0.1628500031074509, 0.14745000225957483, 0.1490499962528702, 0.15390000407933258, 0.18635000014910474, 0.14805000319029205, 0.15254999743774533, 0.1554000009491574, 0.15290000374079682, 0.14704999921377748, 0.14620000001741573, 0.14740000187885016, 0.1463999979023356, 0.15910000365693122, 0.14805000319029205, 0.1478000012866687, 0.14605000251322053, 0.1460999992559664, 0.14689999807160348, 0.14775000454392284, 0.1467000001866836, 0.1462500003981404, 0.17120000120485201, 0.15140000323299319, 0.1472000039939303, 0.1459499981137924, 0.14924999777576886, 0.14585000099032186, 0.1452999968023505, 0.1480999962950591, 0.15115000132936984, 0.14704999557579868, 0.18394999642623588, 0.18780000391416252, 0.14770000416319817, 0.14709999959450215, 0.14714999997522682, 0.15174999862210825, 0.15129999883356504, 0.14844999896013178, 0.16340000001946464, 0.15065000116010197, 0.1499499994679354, 0.1476500001444947, 0.1542999998491723, 0.19475000226520933, 0.15195000014500692, 0.15529999654972926, 0.14744999862159602, 0.15220000204863027, 0.1555499984533526, 0.22344999888446182, 0.16095000319182873, 0.14620000365539454, 0.15054999676067382, 0.1480999999330379, 0.14925000141374767, 0.14635000115958974, 0.1621999981580302, 0.19874999998137355, 0.1616000008652918, 0.14860000010230578, 0.14999999984866008, 0.14659999578725547, 0.14814999667578377, 0.15344999701483175, 0.15335000352934003, 0.15439999697264284, 0.17280000247410499, 0.22774999524699524, 0.14910000390955247, 0.14840000221738592, 0.1479500024288427, 0.1479500024288427, 0.14974999794503674, 0.14680000094813295, 0.14784999802941456, 0.14709999959450215, 0.14645000192103907, 0.1550999986648094, 0.14744999862159602, 0.14679999731015414, 0.1462500003981404, 0.14930000179447234, 0.14870000450173393, 0.15195000378298573, 0.14749999536434188, 0.15645000530639663, 0.18370000179857016, 0.14815000395174138, 0.14645000192103907, 0.15080000230227597, 0.14744999862159602, 0.1466999965487048, 0.14805000319029205, 0.147149996337248, 0.1486000037402846, 0.14844999896013178, 0.1870499982032925, 0.15430000348715112, 0.15165000149863772, 0.2829999939422123, 0.13589999798568897, 0.1551000023027882, 0.1556999995955266, 0.15470000289496966, 0.2018999948631972, 0.12995000361115672, 0.32980000105453655, 0.20485000277403742, 0.1545999984955415, 0.15830000120331533, 0.1523000028100796, 0.15025000175228342, 0.1500999969721306, 0.15025000175228342, 0.14880000162520446, 0.1485499960836023, 0.15179999900283292, 0.14709999959450215, 0.14614999963669106, 0.14690000170958228, 0.15290000374079682, 0.14954999642213807, 0.14574999659089372, 0.14674999692942947, 0.15055000039865263, 0.14755000302102417, 0.16789999790489674, 0.14860000010230578, 0.16089999553514645, 0.14694999845232815, 0.14635000115958974, 0.20155000675003976, 0.15225000242935494, 0.14789999841013923, 0.14694999845232815, 0.1538500036986079, 0.1454499979445245, 0.14490000467048958, 0.14710000323248096, 0.1474999990023207, 0.14650000230176374, 0.14689999807160348, 0.18400000044493936, 0.1480999999330379, 0.14849999934085645, 0.1886000027297996, 0.15315000200644135, 0.1479499987908639, 0.14590000137104653, 0.15984999845386483, 0.15249999705702066, 0.14704999921377748, 0.14700000247103162, 0.1556999995955266, 0.15430000348715112, 0.15735000124550425, 0.15690000145696104, 0.15065000116010197, 0.1459500017517712, 0.1476500001444947, 0.1460999992559664, 0.14630000077886507, 0.14600000213249587, 0.20325000514276326, 0.15365000217570923, 0.14784999802941456, 0.14879999798722565, 0.14754999938304536, 0.14874999760650098, 0.14635000115958974, 0.15295000048354268, 0.3546000079950318, 0.156299996888265, 0.1490500035288278],
  "QPU": "7000000",
  "Qubits": 11,
  "Queue durations [ms]": [0.0, 0.0, 0.0, 0.0, 0.0, 0.0, 0.0, 0.0, 0.0, 0.0, 0.0, 0.0, 0.0, 0.0, 0.0, 0.0, 0.0, 0.0, 0.0, 0.0, 0.0, 0.0, 0.0, 0.0, 0.0, 0.0, 0.0, 0.0, 0.0, 0.0, 0.0, 0.0, 0.0, 0.0, 0.0, 0.0, 0.0, 0.0, 0.0, 0.0, 0.0, 0.0, 0.0, 0.0, 0.0, 0.0, 0.0, 0.0, 0.0, 0.0, 0.0, 0.0, 0.0, 0.0, 0.0, 0.0, 0.0, 0.0, 0.0, 0.0, 0.0, 0.0, 0.0, 0.0, 0.0, 0.0, 0.0, 0.0, 0.0, 0.0, 0.0, 0.0, 0.0, 0.0, 0.0, 0.0, 0.0, 0.0, 0.0, 0.0, 0.0, 0.0, 0.0, 0.0, 0.0, 0.0, 0.0, 0.0, 0.0, 0.0, 0.0, 0.0, 0.0, 0.0, 0.0, 0.0, 0.0, 0.0, 0.0, 0.0, 0.0, 0.0, 0.0, 0.0, 0.0, 0.0, 0.0, 0.0, 0.0, 0.0, 0.0, 0.0, 0.0, 0.0, 0.0, 0.0, 0.0, 0.0, 0.0, 0.0, 0.0, 0.0, 0.0, 0.0, 0.0, 0.0, 0.0, 0.0, 0.0, 0.0, 0.0, 0.0, 0.0, 0.0, 0.0, 0.0, 0.0, 0.0, 0.0, 0.0, 0.0, 0.0, 0.0, 0.0, 0.0, 0.0, 0.0, 0.0, 0.0, 0.0, 0.0, 0.0, 0.0, 0.0, 0.0, 0.0, 0.0, 0.0, 0.0, 0.0, 0.0, 0.0, 0.0, 0.0, 0.0, 0.0, 0.0, 0.0, 0.0, 0.0, 0.0, 0.0, 0.0, 0.0, 0.0, 0.0, 0.0, 0.0, 0.0, 0.0, 0.0, 0.0, 0.0, 0.0, 0.0, 0.0, 0.0, 0.0, 0.0, 0.0, 0.0, 0.0, 0.0, 0.0, 0.0, 0.0, 0.0, 0.0, 0.0, 0.0, 0.0, 0.0, 0.0, 0.0, 0.0, 0.0, 0.0, 0.0, 0.0, 0.0, 0.0, 0.0, 0.0, 0.0, 0.0, 0.0, 0.0, 0.0, 0.0, 0.0, 0.0, 0.0, 0.0, 0.0, 0.0, 0.0, 0.0, 0.0, 0.0, 0.0, 0.0, 0.0, 0.0, 0.0, 0.0, 0.0, 0.0, 0.0, 0.0, 0.0, 0.0, 0.0, 0.0, 0.0, 0.0, 0.0, 0.0, 0.0, 0.0, 0.0, 0.0, 0.0, 0.0, 0.0, 0.0, 0.0, 0.0, 0.0, 0.0, 0.0, 0.0, 0.0, 0.0, 0.0, 0.0, 0.0, 0.0, 0.0, 0.0, 0.0, 0.0, 0.0, 0.0, 0.0, 0.0, 0.0, 0.0, 0.0, 0.0, 0.0, 0.0, 0.0, 0.0, 0.0, 0.0, 0.0, 0.0, 0.0, 0.0, 0.0, 0.0, 0.0, 0.0, 0.0, 0.0, 0.0, 0.0, 0.0, 0.0, 0.0, 0.0, 0.0, 0.0, 0.0, 0.0, 0.0],
  "Shots": 4096,
  "Size": 11,
  "Total Algorithm duration [s]": 1.458,
  "Total Classic duration [s]": 1.408308649931685,
  "Total Quantum duration [s]": 0.04969135006831493
}
