{
  "Circuit execution durations [ms]": [0.1646999953663908, 0.15100000018719584, 0.15314999836846255, 0.18799999452312477, 0.15065000116010197, 0.1565000020491425, 0.1496500008215662, 0.19440000323811546, 0.15205000090645626, 0.14954999642213807, 0.16290000348817557, 0.15205000090645626, 0.1518500030215364, 0.1607000049261842, 0.1506000007793773, 0.15014999735285528, 0.14970000120229088, 0.15035000251373276, 0.14985000234446488, 0.15184999574557878, 0.15499999790336005, 0.19504999363562092, 0.15700000221841037, 0.14829999781795777, 0.17785000090952963, 0.15124999845284037, 0.15099999654921703, 0.149350002175197, 0.15925000479910523, 0.1540000012028031, 0.1501500046288129, 0.19109999993816018, 0.1518500030215364, 0.15084999904502183, 0.1510500005679205, 0.15589999748044647, 0.14879999798722565, 0.1513499992142897, 0.1524500003142748, 0.1566500031913165, 0.18850000196835026, 0.15110000094864517, 0.1549500011606142, 0.14899999951012433, 0.14760000340174884, 0.14820000069448724, 0.16474999574711546, 0.14834999819868244, 0.14870000086375512, 0.1997499930439517, 0.15785000141477212, 0.15420000272570178, 0.1510500005679205, 0.15249999705702066, 0.14854999972158112, 0.14955000006011687, 0.14894999912939966, 0.2644499945745338, 0.12510000306065194, 0.21260000357870013, 0.1552499998069834, 0.1522999991721008, 0.1527500025986228, 0.15630000416422263, 0.16865000361576676, 0.15189999976428226, 0.1500000034866389, 0.16334999963873997, 0.14775000090594403, 0.14614999963669106, 0.152749998960644, 0.16850000247359276, 0.15069999790284783, 0.149049999890849, 0.15605000226059929, 0.15844999870751053, 0.15005000386736356, 0.1522999991721008, 0.15254999743774533, 0.15070000154082663, 0.15424999946844764, 0.15420000272570178, 0.15160000111791305, 0.15160000111791305, 0.16790000518085435, 0.15064999752212316, 0.15020000137155876, 0.15299999722628854, 0.15034999887575395, 0.14999999984866008, 0.14989999908721074, 0.15365000217570923, 0.15284999972209334, 0.14799999553360976, 0.1473500014981255, 0.15595000149914995, 0.15050000365590677, 0.15110000094864517, 0.15305000124499202, 0.15094999980647117, 0.15595000149914995, 0.1547499959997367, 0.1587999977346044, 0.1557000032335054, 0.15315000200644135, 0.15024999811430462, 0.20795000455109403, 0.152299995534122, 0.14984999870648608, 0.15339999663410708, 0.1555500020913314, 0.18694999744184315, 0.15365000217570923, 0.15099999654921703, 0.16655000217724591, 0.15014999735285528, 0.1701500041235704, 0.15764999989187345, 0.15094999980647117, 0.15535000420641154, 0.21839999681105837, 0.15334999625338241, 0.1465500026824884, 0.26730000536190346, 0.15985000209184363, 0.14860000010230578, 0.1530499976070132, 0.1573999979882501, 0.15240000357152894, 0.19444999998086132, 0.1520000005257316, 0.1569500018376857, 0.15255000107572414, 0.17300000035902485, 0.1500000034866389, 0.14960000407882035, 0.16295000023092143, 0.15450000137207098, 0.15604999498464167, 0.15035000251373276, 0.15129999883356504, 0.15234999591484666, 0.1511999980721157, 0.15049999637994915, 0.15239999993355013, 0.15670000357204117, 0.18869999621529132, 0.16044999938458204, 0.1503000021330081, 0.15895000251475722, 0.1517000018793624, 0.1512000017100945, 0.15455000175279565, 0.1583499979460612, 0.1666999996814411, 0.16239999968092889, 0.1596000001882203, 0.15114999769139104, 0.1494999996793922, 0.14760000340174884, 0.1494999996793922, 0.15405000522150658, 0.1486000037402846, 0.1529500041215215, 0.15814999642316252, 0.19160000374540687, 0.15034999887575395, 0.14999999984866008, 0.15594999786117114, 0.23535000218544155, 0.15419999908772297, 0.1524500039522536, 0.16010000035748817, 0.15225000242935494, 0.19305000023450702, 0.15210000128718093, 0.15144999633776024, 0.15500000154133886, 0.1513499992142897, 0.15205000090645626, 0.1579000017954968, 0.19194999913452193, 0.15505000192206353, 0.15435000386787578, 0.13099999705445953, 0.15280000297934748, 0.15139999959501438, 0.1514999967184849, 0.14894999912939966, 0.19740000425372273, 0.1545000050100498, 0.14894999912939966, 0.14760000340174884, 0.1513499955763109, 0.15209999764920212, 0.148899998748675, 0.149200001033023, 0.15100000018719584, 0.15254999743774533, 0.15799999528098851, 0.15039999561849982, 0.1506000007793773, 0.23764999787090346, 0.1568000043334905, 0.15359999815700576, 0.15434999659191817, 0.19199999223928899, 0.15780000103404745, 0.3024500074388925, 0.1538499964226503, 0.14955000369809568, 0.15685000107623637, 0.1563500045449473, 0.18745000488706864, 0.20495000717346556, 0.15410000196425244, 0.15299999722628854, 0.1513499992142897, 0.15319999874918722, 0.15195000014500692, 0.1506000007793773, 0.15049999637994915, 0.15764999989187345, 0.17690000095171854, 0.16135000259964727, 0.16429999959655106, 0.15124999845284037, 0.1511999980721157, 0.14959999680286273, 0.15609999536536634, 0.18879999697674066, 0.15359999815700576, 0.16540000069653615, 0.15395000082207844, 0.15505000192206353, 0.15234999955282547, 0.15379999967990443, 0.15239999993355013, 0.15300000086426735, 0.1687500007392373, 0.19085000531049445, 0.15249999705702066, 0.1795999996829778, 0.15344999701483175, 0.15204999726847745, 0.14974999794503674, 0.2079499972751364, 0.15329999951063655, 0.15189999976428226, 0.15720000374130905, 0.15150000399444252, 0.15309999798773788, 0.15174999498412944, 0.16725000023143366, 0.15100000018719584, 0.15169999824138358, 0.15350000103353523, 0.1532500027678907, 0.1593000015418511, 0.15574999633827247, 0.15904999600024894, 0.15619999976479448, 0.1514999967184849, 0.16390000382671133, 0.1512000017100945, 0.15110000094864517, 0.1524500039522536, 0.15594999786117114, 0.19439999596215785, 0.15279999934136868, 0.15764999625389464, 0.15174999862210825, 0.1521500016679056, 0.15154999709920958, 0.15295000048354268, 0.12789999891538173, 0.16909999976633117, 0.22870000248076394, 0.15789999815751798, 0.15294999684556387, 0.24935000328696333, 0.1586500002304092, 0.2058000027318485, 0.15435000022989698, 0.14965000445954502, 0.27319999207975343, 0.15615000302204862, 0.15109999731066637, 0.2076499986287672, 0.15334999989136122, 0.15039999925647862, 0.2234499916085042, 0.1521499980299268, 0.15900000289548188, 0.1510500005679205, 0.15224999515339732, 0.1493499985372182, 0.15139999959501438, 0.2718499963521026, 0.13684999794350006, 0.1537000025564339, 0.15079999866429716, 0.20555000810418278, 0.1496500008215662, 0.14925000141374767, 0.14969999756431207, 0.2960499987239018, 0.16945000243140385, 0.15515000268351287, 0.19754999811993912, 0.15985000209184363, 0.15504999828408472, 0.2704500002437271, 0.1407999989169184, 0.1584999990882352, 0.15334999989136122, 0.1568000006955117, 0.15224999879137613, 0.14980000196374021, 0.22340000214171596, 0.1931000006152317, 0.1521500016679056, 0.2066000015474856, 0.15139999959501438, 0.15305000124499202, 0.1517000018793624, 0.12990000323043205, 0.22020000324118882, 0.15334999625338241, 0.15349999739555642, 0.1523000028100796, 0.1572499968460761, 0.156149995746091, 0.19114999304292724, 0.15824999718461186, 0.15505000192206353, 0.15659999917261302, 0.15460000213352032, 0.16015000437619165, 0.14759999612579122, 0.15484999676118605, 0.15469999925699085, 0.1642499992158264, 0.18325000564800575, 0.1518499993835576, 0.14799999917158857, 0.1510500005679205, 0.1496500008215662, 0.14659999578725547, 0.15364999853773043, 0.14789999841013923, 0.14759999976377003, 0.14724999709869735, 0.14725000073667616, 0.14719999671797268, 0.14635000115958974, 0.14925000141374767, 0.14769999688724056, 0.1490500035288278, 0.14619999637943693, 0.15794999853824265, 0.15614999938406982, 0.19350000366102904, 0.15239999629557133, 0.16309999773511663, 0.15435000386787578, 0.15050000365590677, 0.14614999963669106, 0.14830000145593658, 0.1479499987908639, 0.15234999591484666, 0.18649999401532114, 0.14774999726796523, 0.2744000084931031, 0.15359999815700576, 0.1474999990023207],
  "Depth": 2.0,
  "Expectation Value": -6.398172378540039,
  "Optimal Expectation Value": -6.403900146484375,
  "Optimizer durations [ms]": [6.998, 4.199, 5.023, 5.058, 4.195, 4.53, 4.596, 5.478, 4.233, 4.132, 4.534, 4.873, 4.215, 4.405, 4.156, 4.144, 4.101, 4.206, 4.12, 4.151, 4.407, 5.12, 4.461, 4.08, 4.677, 4.107, 4.102, 4.125, 4.427, 4.349, 4.144, 4.941, 4.183, 4.04, 4.061, 4.559, 4.109, 4.285, 4.36, 4.358, 4.98, 4.286, 4.477, 4.099, 4.086, 4.117, 4.442, 4.118, 4.102, 5.137, 4.362, 4.236, 4.152, 4.19, 4.095, 4.107, 4.161, 6.304, 18.471, 6.794, 4.408, 4.213, 4.206, 4.398, 4.664, 4.219, 4.236, 4.497, 4.136, 4.085, 4.252, 4.599, 4.149, 4.675, 4.26, 4.395, 4.145, 4.251, 4.297, 4.12, 4.315, 4.709, 4.837, 4.209, 4.5, 4.148, 4.127, 4.179, 4.132, 4.108, 4.091, 4.35, 4.888, 4.106, 4.086, 4.282, 4.159, 4.245, 4.275, 5.169, 4.452, 5.031, 4.396, 4.268, 4.183, 4.239, 5.477, 4.211, 4.11, 4.228, 4.275, 5.364, 4.264, 4.073, 4.69, 4.139, 4.591, 4.416, 4.146, 4.268, 5.247, 4.462, 4.108, 6.205, 6.311, 4.113, 4.163, 5.1, 4.153, 5.004, 4.278, 4.471, 4.336, 4.742, 4.144, 4.22, 4.401, 5.116, 4.393, 4.159, 4.152, 4.27, 4.159, 4.248, 4.281, 4.273, 4.951, 4.383, 4.234, 4.33, 4.166, 4.165, 4.339, 4.374, 4.498, 5.067, 4.472, 4.251, 4.158, 4.089, 4.19, 4.309, 4.124, 4.276, 4.336, 4.999, 4.147, 4.108, 4.207, 5.468, 4.756, 4.113, 4.517, 4.203, 5.075, 4.338, 4.098, 4.37, 4.17, 5.778, 9.29, 4.989, 9.282, 4.586, 6.937, 4.262, 4.322, 4.222, 4.254, 5.163, 4.329, 4.146, 4.084, 4.143, 4.197, 4.141, 4.138, 5.046, 9.074, 4.318, 4.158, 4.132, 5.842, 4.328, 4.309, 4.23, 5.021, 4.414, 7.185, 11.085, 4.172, 4.214, 4.194, 4.934, 5.241, 4.283, 4.225, 4.165, 4.159, 4.097, 4.078, 4.302, 4.377, 4.775, 4.627, 4.898, 4.143, 4.173, 4.218, 4.335, 5.041, 5.04, 4.524, 4.347, 4.271, 4.148, 4.305, 4.123, 4.334, 4.52, 4.976, 4.252, 4.687, 4.118, 4.391, 4.183, 5.542, 4.183, 4.151, 4.296, 4.921, 4.282, 4.175, 4.588, 4.205, 4.218, 4.277, 4.238, 4.533, 5.126, 4.317, 4.326, 4.195, 4.513, 4.169, 4.177, 4.304, 4.265, 5.075, 4.24, 4.298, 4.178, 4.15, 4.194, 4.243, 7.331, 4.655, 5.675, 4.305, 4.169, 5.974, 11.594, 5.304, 4.814, 4.109, 6.541, 4.298, 4.293, 5.189, 4.286, 4.162, 5.623, 5.735, 4.425, 5.165, 4.202, 4.107, 4.133, 6.401, 15.04, 4.313, 4.139, 5.186, 4.155, 4.093, 4.133, 6.892, 4.763, 4.346, 5.136, 4.429, 4.236, 6.413, 15.95, 4.504, 4.421, 5.414, 4.227, 4.148, 5.289, 7.385, 4.148, 5.198, 4.185, 4.216, 4.627, 19.479, 6.28, 4.622, 9.917, 4.256, 4.385, 4.285, 5.112, 4.897, 4.282, 4.181, 4.265, 4.439, 4.157, 4.354, 4.317, 4.484, 4.983, 4.253, 4.143, 4.172, 4.17, 4.215, 4.28, 4.11, 4.111, 4.133, 4.785, 4.089, 4.097, 4.18, 4.105, 4.148, 4.11, 4.41, 4.332, 5.095, 5.729, 4.55, 4.291, 4.211, 4.086, 4.118, 4.159, 4.355, 4.972, 4.185, 6.452, 4.539, 4.148],
  "Optimizer iterations": 376,
  "Optimizer params": [0.9999242010371195, 0.5029498145730192, 0.0290473101753873, 0.495581054713853, 0.5029249924090281, 0.9994722293989269, 0.4977307928667983, 0.5040928725756451, 0.9994008052964484, 0.4916487238463118, 0.003905291361468058],
  "P": 0,
  "Problem": "RH",
  "QJob durations [ms]": [0.1646999953663908, 0.15100000018719584, 0.15314999836846255, 0.18799999452312477, 0.15065000116010197, 0.1565000020491425, 0.1496500008215662, 0.19440000323811546, 0.15205000090645626, 0.14954999642213807, 0.16290000348817557, 0.15205000090645626, 0.1518500030215364, 0.1607000049261842, 0.1506000007793773, 0.15014999735285528, 0.14970000120229088, 0.15035000251373276, 0.14985000234446488, 0.15184999574557878, 0.15499999790336005, 0.19504999363562092, 0.15700000221841037, 0.14829999781795777, 0.17785000090952963, 0.15124999845284037, 0.15099999654921703, 0.149350002175197, 0.15925000479910523, 0.1540000012028031, 0.1501500046288129, 0.19109999993816018, 0.1518500030215364, 0.15084999904502183, 0.1510500005679205, 0.15589999748044647, 0.14879999798722565, 0.1513499992142897, 0.1524500003142748, 0.1566500031913165, 0.18850000196835026, 0.15110000094864517, 0.1549500011606142, 0.14899999951012433, 0.14760000340174884, 0.14820000069448724, 0.16474999574711546, 0.14834999819868244, 0.14870000086375512, 0.1997499930439517, 0.15785000141477212, 0.15420000272570178, 0.1510500005679205, 0.15249999705702066, 0.14854999972158112, 0.14955000006011687, 0.14894999912939966, 0.2644499945745338, 0.12510000306065194, 0.21260000357870013, 0.1552499998069834, 0.1522999991721008, 0.1527500025986228, 0.15630000416422263, 0.16865000361576676, 0.15189999976428226, 0.1500000034866389, 0.16334999963873997, 0.14775000090594403, 0.14614999963669106, 0.152749998960644, 0.16850000247359276, 0.15069999790284783, 0.149049999890849, 0.15605000226059929, 0.15844999870751053, 0.15005000386736356, 0.1522999991721008, 0.15254999743774533, 0.15070000154082663, 0.15424999946844764, 0.15420000272570178, 0.15160000111791305, 0.15160000111791305, 0.16790000518085435, 0.15064999752212316, 0.15020000137155876, 0.15299999722628854, 0.15034999887575395, 0.14999999984866008, 0.14989999908721074, 0.15365000217570923, 0.15284999972209334, 0.14799999553360976, 0.1473500014981255, 0.15595000149914995, 0.15050000365590677, 0.15110000094864517, 0.15305000124499202, 0.15094999980647117, 0.15595000149914995, 0.1547499959997367, 0.1587999977346044, 0.1557000032335054, 0.15315000200644135, 0.15024999811430462, 0.20795000455109403, 0.152299995534122, 0.14984999870648608, 0.15339999663410708, 0.1555500020913314, 0.18694999744184315, 0.15365000217570923, 0.15099999654921703, 0.16655000217724591, 0.15014999735285528, 0.1701500041235704, 0.15764999989187345, 0.15094999980647117, 0.15535000420641154, 0.21839999681105837, 0.15334999625338241, 0.1465500026824884, 0.26730000536190346, 0.15985000209184363, 0.14860000010230578, 0.1530499976070132, 0.1573999979882501, 0.15240000357152894, 0.19444999998086132, 0.1520000005257316, 0.1569500018376857, 0.15255000107572414, 0.17300000035902485, 0.1500000034866389, 0.14960000407882035, 0.16295000023092143, 0.15450000137207098, 0.15604999498464167, 0.15035000251373276, 0.15129999883356504, 0.15234999591484666, 0.1511999980721157, 0.15049999637994915, 0.15239999993355013, 0.15670000357204117, 0.18869999621529132, 0.16044999938458204, 0.1503000021330081, 0.15895000251475722, 0.1517000018793624, 0.1512000017100945, 0.15455000175279565, 0.1583499979460612, 0.1666999996814411, 0.16239999968092889, 0.1596000001882203, 0.15114999769139104, 0.1494999996793922, 0.14760000340174884, 0.1494999996793922, 0.15405000522150658, 0.1486000037402846, 0.1529500041215215, 0.15814999642316252, 0.19160000374540687, 0.15034999887575395, 0.14999999984866008, 0.15594999786117114, 0.23535000218544155, 0.15419999908772297, 0.1524500039522536, 0.16010000035748817, 0.15225000242935494, 0.19305000023450702, 0.15210000128718093, 0.15144999633776024, 0.15500000154133886, 0.1513499992142897, 0.15205000090645626, 0.1579000017954968, 0.19194999913452193, 0.15505000192206353, 0.15435000386787578, 0.13099999705445953, 0.15280000297934748, 0.15139999959501438, 0.1514999967184849, 0.14894999912939966, 0.19740000425372273, 0.1545000050100498, 0.14894999912939966, 0.14760000340174884, 0.1513499955763109, 0.15209999764920212, 0.148899998748675, 0.149200001033023, 0.15100000018719584, 0.15254999743774533, 0.15799999528098851, 0.15039999561849982, 0.1506000007793773, 0.23764999787090346, 0.1568000043334905, 0.15359999815700576, 0.15434999659191817, 0.19199999223928899, 0.15780000103404745, 0.3024500074388925, 0.1538499964226503, 0.14955000369809568, 0.15685000107623637, 0.1563500045449473, 0.18745000488706864, 0.20495000717346556, 0.15410000196425244, 0.15299999722628854, 0.1513499992142897, 0.15319999874918722, 0.15195000014500692, 0.1506000007793773, 0.15049999637994915, 0.15764999989187345, 0.17690000095171854, 0.16135000259964727, 0.16429999959655106, 0.15124999845284037, 0.1511999980721157, 0.14959999680286273, 0.15609999536536634, 0.18879999697674066, 0.15359999815700576, 0.16540000069653615, 0.15395000082207844, 0.15505000192206353, 0.15234999955282547, 0.15379999967990443, 0.15239999993355013, 0.15300000086426735, 0.1687500007392373, 0.19085000531049445, 0.15249999705702066, 0.1795999996829778, 0.15344999701483175, 0.15204999726847745, 0.14974999794503674, 0.2079499972751364, 0.15329999951063655, 0.15189999976428226, 0.15720000374130905, 0.15150000399444252, 0.15309999798773788, 0.15174999498412944, 0.16725000023143366, 0.15100000018719584, 0.15169999824138358, 0.15350000103353523, 0.1532500027678907, 0.1593000015418511, 0.15574999633827247, 0.15904999600024894, 0.15619999976479448, 0.1514999967184849, 0.16390000382671133, 0.1512000017100945, 0.15110000094864517, 0.1524500039522536, 0.15594999786117114, 0.19439999596215785, 0.15279999934136868, 0.15764999625389464, 0.15174999862210825, 0.1521500016679056, 0.15154999709920958, 0.15295000048354268, 0.12789999891538173, 0.16909999976633117, 0.22870000248076394, 0.15789999815751798, 0.15294999684556387, 0.24935000328696333, 0.1586500002304092, 0.2058000027318485, 0.15435000022989698, 0.14965000445954502, 0.27319999207975343, 0.15615000302204862, 0.15109999731066637, 0.2076499986287672, 0.15334999989136122, 0.15039999925647862, 0.2234499916085042, 0.1521499980299268, 0.15900000289548188, 0.1510500005679205, 0.15224999515339732, 0.1493499985372182, 0.15139999959501438, 0.2718499963521026, 0.13684999794350006, 0.1537000025564339, 0.15079999866429716, 0.20555000810418278, 0.1496500008215662, 0.14925000141374767, 0.14969999756431207, 0.2960499987239018, 0.16945000243140385, 0.15515000268351287, 0.19754999811993912, 0.15985000209184363, 0.15504999828408472, 0.2704500002437271, 0.1407999989169184, 0.1584999990882352, 0.15334999989136122, 0.1568000006955117, 0.15224999879137613, 0.14980000196374021, 0.22340000214171596, 0.1931000006152317, 0.1521500016679056, 0.2066000015474856, 0.15139999959501438, 0.15305000124499202, 0.1517000018793624, 0.12990000323043205, 0.22020000324118882, 0.15334999625338241, 0.15349999739555642, 0.1523000028100796, 0.1572499968460761, 0.156149995746091, 0.19114999304292724, 0.15824999718461186, 0.15505000192206353, 0.15659999917261302, 0.15460000213352032, 0.16015000437619165, 0.14759999612579122, 0.15484999676118605, 0.15469999925699085, 0.1642499992158264, 0.18325000564800575, 0.1518499993835576, 0.14799999917158857, 0.1510500005679205, 0.1496500008215662, 0.14659999578725547, 0.15364999853773043, 0.14789999841013923, 0.14759999976377003, 0.14724999709869735, 0.14725000073667616, 0.14719999671797268, 0.14635000115958974, 0.14925000141374767, 0.14769999688724056, 0.1490500035288278, 0.14619999637943693, 0.15794999853824265, 0.15614999938406982, 0.19350000366102904, 0.15239999629557133, 0.16309999773511663, 0.15435000386787578, 0.15050000365590677, 0.14614999963669106, 0.14830000145593658, 0.1479499987908639, 0.15234999591484666, 0.18649999401532114, 0.14774999726796523, 0.2744000084931031, 0.15359999815700576, 0.1474999990023207],
  "QPU": "7000000",
  "Qubits": 11,
  "Queue durations [ms]": [0.0, 0.0, 0.0, 0.0, 0.0, 0.0, 0.0, 0.0, 0.0, 0.0, 0.0, 0.0, 0.0, 0.0, 0.0, 0.0, 0.0, 0.0, 0.0, 0.0, 0.0, 0.0, 0.0, 0.0, 0.0, 0.0, 0.0, 0.0, 0.0, 0.0, 0.0, 0.0, 0.0, 0.0, 0.0, 0.0, 0.0, 0.0, 0.0, 0.0, 0.0, 0.0, 0.0, 0.0, 0.0, 0.0, 0.0, 0.0, 0.0, 0.0, 0.0, 0.0, 0.0, 0.0, 0.0, 0.0, 0.0, 0.0, 0.0, 0.0, 0.0, 0.0, 0.0, 0.0, 0.0, 0.0, 0.0, 0.0, 0.0, 0.0, 0.0, 0.0, 0.0, 0.0, 0.0, 0.0, 0.0, 0.0, 0.0, 0.0, 0.0, 0.0, 0.0, 0.0, 0.0, 0.0, 0.0, 0.0, 0.0, 0.0, 0.0, 0.0, 0.0, 0.0, 0.0, 0.0, 0.0, 0.0, 0.0, 0.0, 0.0, 0.0, 0.0, 0.0, 0.0, 0.0, 0.0, 0.0, 0.0, 0.0, 0.0, 0.0, 0.0, 0.0, 0.0, 0.0, 0.0, 0.0, 0.0, 0.0, 0.0, 0.0, 0.0, 0.0, 0.0, 0.0, 0.0, 0.0, 0.0, 0.0, 0.0, 0.0, 0.0, 0.0, 0.0, 0.0, 0.0, 0.0, 0.0, 0.0, 0.0, 0.0, 0.0, 0.0, 0.0, 0.0, 0.0, 0.0, 0.0, 0.0, 0.0, 0.0, 0.0, 0.0, 0.0, 0.0, 0.0, 0.0, 0.0, 0.0, 0.0, 0.0, 0.0, 0.0, 0.0, 0.0, 0.0, 0.0, 0.0, 0.0, 0.0, 0.0, 0.0, 0.0, 0.0, 0.0, 0.0, 0.0, 0.0, 0.0, 0.0, 0.0, 0.0, 0.0, 0.0, 0.0, 0.0, 0.0, 0.0, 0.0, 0.0, 0.0, 0.0, 0.0, 0.0, 0.0, 0.0, 0.0, 0.0, 0.0, 0.0, 0.0, 0.0, 0.0, 0.0, 0.0, 0.0, 0.0, 0.0, 0.0, 0.0, 0.0, 0.0, 0.0, 0.0, 0.0, 0.0, 0.0, 0.0, 0.0, 0.0, 0.0, 0.0, 0.0, 0.0, 0.0, 0.0, 0.0, 0.0, 0.0, 0.0, 0.0, 0.0, 0.0, 0.0, 0.0, 0.0, 0.0, 0.0, 0.0, 0.0, 0.0, 0.0, 0.0, 0.0, 0.0, 0.0, 0.0, 0.0, 0.0, 0.0, 0.0, 0.0, 0.0, 0.0, 0.0, 0.0, 0.0, 0.0, 0.0, 0.0, 0.0, 0.0, 0.0, 0.0, 0.0, 0.0, 0.0, 0.0, 0.0, 0.0, 0.0, 0.0, 0.0, 0.0, 0.0, 0.0, 0.0, 0.0, 0.0, 0.0, 0.0, 0.0, 0.0, 0.0, 0.0, 0.0, 0.0, 0.0, 0.0, 0.0, 0.0, 0.0, 0.0, 0.0, 0.0, 0.0, 0.0, 0.0, 0.0, 0.0, 0.0, 0.0, 0.0, 0.0, 0.0, 0.0, 0.0, 0.0, 0.0, 0.0, 0.0, 0.0, 0.0, 0.0, 0.0, 0.0, 0.0, 0.0, 0.0, 0.0, 0.0, 0.0, 0.0, 0.0, 0.0, 0.0, 0.0, 0.0, 0.0, 0.0, 0.0, 0.0, 0.0, 0.0, 0.0, 0.0, 0.0, 0.0, 0.0, 0.0, 0.0, 0.0, 0.0, 0.0, 0.0, 0.0, 0.0, 0.0, 0.0, 0.0, 0.0, 0.0, 0.0, 0.0, 0.0, 0.0, 0.0, 0.0, 0.0, 0.0, 0.0, 0.0, 0.0, 0.0, 0.0, 0.0, 0.0, 0.0, 0.0, 0.0, 0.0, 0.0, 0.0, 0.0, 0.0],
  "Shots": 4096,
  "Size": 11,
  "Total Algorithm duration [s]": 1.781,
  "Total Classic duration [s]": 1.7203951999954878,
  "Total Quantum duration [s]": 0.06060480000451207
}
