{
  "Circuit execution durations [ms]": [0.31460000172955915, 0.16089999553514645, 0.22555000032298267, 0.15070000154082663, 0.1510500042058993, 0.14925000141374767, 0.15145000361371785, 0.14574999659089372, 0.15314999836846255, 0.1483000050939154, 0.1497999983257614, 0.14649999866378494, 0.19529999553924426, 0.15799999891896732, 0.14709999959450215, 0.14775000454392284, 0.14980000196374021, 0.1480999962950591, 0.1513499992142897, 0.1645500015001744, 0.15069999790284783, 0.15530000018770806, 0.27660000341711566, 0.15160000111791305, 0.1473500014981255, 0.14714999997522682, 0.1506000044173561, 0.15014999735285528, 0.14975000158301555, 0.16340000001946464, 0.18849999469239265, 0.15474999963771552, 0.15350000103353523, 0.15279999934136868, 0.1520000005257316, 0.15079999866429716, 0.15949999942677096, 0.1487500012444798, 0.1564999984111637, 0.19109999630018137, 0.15675000031478703, 0.15034999887575395, 0.1521500016679056, 0.15549999807262793, 0.15299999722628854, 0.1517000018793624, 0.1542999998491723, 0.15454999811481684, 0.1555499984533526, 0.15420000272570178, 0.15545000132988207, 0.1597500013303943, 0.15549999807262793, 0.15520000306423753, 0.15205000090645626, 0.15095000344444998, 0.14970000120229088, 0.15920000078040175, 0.14915000065229833, 0.16335000327671878, 0.15365000217570923, 0.15065000116010197, 0.14599999849451706, 0.14620000001741573, 0.15100000018719584, 0.15270000221789815, 0.18404999718768522, 0.1508999994257465, 0.15014999735285528, 0.14864999684505165, 0.14820000433246605, 0.15010000061010942, 0.1517000018793624, 0.14894999912939966, 0.14894999912939966, 0.149500003317371, 0.14924999777576886, 0.18899999849963933, 0.15424999583046883, 0.1537000061944127, 0.14929999815649353, 0.1523000028100796, 0.15375000293715857, 0.14690000170958228, 0.14724999709869735, 0.1530499976070132, 0.22465000074589625, 0.15474999963771552, 0.1482499974372331, 0.14790000204811804, 0.14975000158301555, 0.1521499980299268, 0.1504499996372033, 0.1501500009908341, 0.15324999912991188, 0.1518499993835576, 0.1483999985794071, 0.14910000390955247, 0.1520000005257316, 0.14940000255592167, 0.1544499973533675, 0.15094999980647117, 0.15535000056843273, 0.14969999756431207, 0.1583499979460612, 0.16704999870853499, 0.15055000039865263, 0.14100000043981709, 0.1473499978601467, 0.15265000183717348, 0.1472000003559515, 0.15084999904502183, 0.1478000012866687, 0.1486000037402846, 0.14659999942523427, 0.20134999795118347, 0.15269999857991934, 0.14744999862159602, 0.15084999904502183, 0.15294999684556387, 0.15195000014500692, 0.14729999747942202, 0.1473500014981255, 0.15934999828459695, 0.19830000383080915, 0.1524500039522536, 0.1478000012866687, 0.14719999671797268, 0.1464000015403144, 0.22244999854592606, 0.15609999900334515, 0.15449999773409218, 0.15785000141477212, 0.1538500000606291, 0.15155000073718838, 0.1468499976908788, 0.35180000122636557, 0.3531500115059316, 0.1918499947350938, 0.24119999579852447, 0.322899992170278, 0.16665000293869525, 0.15830000120331533, 0.14944999929866754, 0.146999995195074, 0.1593000015418511, 0.19210000391467474, 0.14810000357101671, 0.14664999616798013, 0.15095000344444998, 0.15549999807262793, 0.14635000115958974, 0.14939999527996406, 0.14680000094813295, 0.1503000021330081, 0.1866999955382198, 0.14929999815649353, 0.14784999802941456, 0.14695000209030695, 0.15745000200695358, 0.1472000003559515, 0.14619999637943693, 0.15100000018719584, 0.17175000175484456, 0.1554000009491574, 0.15330000314861536, 0.1540000012028031, 0.14614999599871226, 0.14599999849451706, 0.14620000001741573, 0.15220000204863027, 0.14695000209030695, 0.14815000395174138, 0.15259999781847, 0.20349999249447137, 0.14865000048303045, 0.14554999506799504, 0.252199995884439, 0.29400000494206324, 0.27690000570146367, 0.15994999557733536, 0.14805000319029205, 0.14955000006011687, 0.15020000137155876, 0.149350002175197, 0.14865000412100926, 0.14744999862159602, 0.1570999993418809, 0.14939999891794287, 0.15420000272570178, 0.1554000009491574, 0.15770000027259812, 0.1512000017100945, 0.15070000154082663, 0.14675000056740828, 0.14709999959450215, 0.14620000001741573, 0.15209999764920212, 0.17550000120536424, 0.1569499981997069, 0.14664999616798013, 0.14515000293613411, 0.15110000094864517, 0.14690000170958228, 0.14634999752161093, 0.14879999798722565, 0.1527499953226652, 0.1489000023866538, 0.18385000294074416, 0.15019999773357995, 0.14700000247103162, 0.14725000073667616, 0.1468499976908788, 0.14984999506850727, 0.14915000429027714, 0.14844999896013178, 0.14770000416319817, 0.15085000268300064, 0.14850000297883525, 0.14560000272467732, 0.15210000128718093, 0.15440000424860045, 0.1489000023866538, 0.14774999726796523, 0.20165000023553148, 0.1540000012028031, 0.17294999997830018, 0.1517000018793624, 0.14865000048303045, 0.1467000001866836, 0.15094999980647117, 0.1967999996850267, 0.15485000039916486, 0.14689999807160348, 0.14679999731015414, 0.19284999507362954, 0.15319999874918722, 0.15224999879137613, 0.15409999468829483, 0.14844999532215297, 0.14910000390955247, 0.16399999731220305, 0.15775000065332279, 0.15404999794554897, 0.15255000107572414, 0.1310500047111418, 0.15434999659191817, 0.14854999972158112, 0.15749999874969944, 0.14999999621068127, 0.1482499974372331, 0.14760000340174884, 0.15405000158352777, 0.19559999782359228, 0.19220000103814527, 0.15744999836897478, 0.14770000052521937, 0.15094999616849236, 0.15110000094864517, 0.14700000247103162, 0.14674999692942947, 0.1625500008231029, 0.14864999684505165, 0.18574999558040872, 0.15374999929917976, 0.14895000276737846, 0.14679999731015414, 0.1468499976908788, 0.14719999671797268, 0.15210000128718093, 0.15640000128769316, 0.14674999692942947, 0.1540000012028031, 0.1800500031094998, 0.14769999688724056, 0.1468499976908788, 0.14939999891794287, 0.15145000361371785, 0.1462500040361192, 0.1454499979445245, 0.16135000259964727, 0.16150000374182127, 0.17674999980954453, 0.1494999960414134, 0.14775000454392284, 0.14700000247103162, 0.14674999692942947, 0.1575499991304241, 0.1499499994679354, 0.15175000226008706, 0.15410000196425244, 0.15335000352934003, 0.17785000090952963, 0.15684999743825756, 0.16030000188038684, 0.1549500011606142, 0.15129999519558623, 0.1519999968877528, 0.14664999616798013, 0.14719999671797268, 0.1477999976486899, 0.18619999900693074, 0.1592499975231476, 0.15004999659140594, 0.14770000052521937, 0.14854999972158112, 0.14725000073667616, 0.1468499976908788, 0.14695000209030695, 0.17389999993611127, 0.1860999982454814, 0.15409999832627364, 0.1531000016257167, 0.1522999991721008, 0.1479499987908639, 0.14689999807160348, 0.17320000188192353, 0.14799999917158857, 0.14799999917158857, 0.15749999874969944, 0.18629999976838008, 0.1473500051361043, 0.15445000462932512, 0.14770000052521937, 0.14790000204811804, 0.15094999980647117, 0.14725000073667616, 0.1599000024725683, 0.1483999985794071, 0.1640999980736524, 0.15490000077988952, 0.1524500003142748, 0.14914999701431952, 0.1472000039939303, 0.15110000094864517, 0.14694999845232815, 0.1462500003981404, 0.14645000192103907, 0.1569500018376857, 0.1510500005679205, 0.14694999845232815, 0.19640000391518697, 0.15319999874918722, 0.1465500026824884, 0.14739999824087135, 0.2205499986303039, 0.15470000653294846, 0.15899999561952427, 0.16704999870853499, 0.15900000289548188, 0.1549500011606142, 0.14944999929866754, 0.14730000111740083, 0.15055000039865263, 0.14695000209030695, 0.18140000611310825, 0.1478000012866687, 0.29880000511184335, 0.16744999447837472, 0.1474999990023207, 0.14770000416319817, 0.14894999912939966, 0.1476500037824735, 0.14670000382466242, 0.18769999951473437, 0.14910000027157366, 0.346050008374732, 0.15505000192206353, 0.15204999726847745, 0.1479500024288427, 0.15319999874918722, 0.16634999701636843, 0.14869999722577631, 0.14730000475537963, 0.3441499939071946, 0.15485000039916486, 0.1520000005257316, 0.15210000492515974, 0.15055000039865263, 0.14910000390955247, 0.1485499960836023, 0.19225000141886994, 0.14770000052521937, 0.1462500003981404, 0.14614999963669106, 0.1572500004840549, 0.14635000115958974, 0.14665000344393775, 0.19740000061574392, 0.15530000382568687, 0.1857999959611334, 0.14860000010230578, 0.1473499978601467, 0.14725000073667616, 0.14880000526318327, 0.15830000120331533, 0.1531000016257167, 0.15279999570338987, 0.14894999912939966, 0.15425000310642645, 0.15315000200644135, 0.1482499974372331, 0.15010000061010942, 0.1980500019271858, 0.15500000154133886, 0.189200000022538, 0.14894999912939966, 0.14725000437465496, 0.14769999688724056, 0.1339999980700668, 0.2054999968095217, 0.1535500014142599, 0.15005000022938475, 0.1486000037402846, 0.15550000534858555, 0.18760000602924265, 0.1945999938470777, 0.14869999722577631, 0.14614999963669106, 0.14525000369758345, 0.15050000001792796, 0.1474999990023207, 0.14769999688724056, 0.15460000213352032, 0.15804999566171318, 0.15405000158352777, 0.34544999653007835, 0.13679999392479658, 0.18745000488706864, 0.21005000235163607, 0.15294999684556387, 0.14860000010230578, 0.14790000204811804, 0.29245000041555613, 0.15184999574557878, 0.14759999612579122, 0.20385000243550166, 0.1884500015876256, 0.14739999824087135, 0.2722000062931329, 0.1291999979002867, 0.1548000000184402, 0.14879999798722565, 0.2628499969432596, 0.15494999388465658, 0.14745000225957483, 0.2647500004968606, 0.1540000012028031, 0.14775000454392284, 0.20464999761315994, 0.15574999997625127, 0.14999999984866008, 0.17825000031734817, 0.12894999963464215, 0.25615000049583614, 0.2632999967318028, 0.15350000467151403, 0.1506000044173561, 0.16540000069653615, 0.14700000247103162, 0.14675000056740828, 0.14995000310591422, 0.14644999828306027, 0.14680000094813295, 0.14685000132885762, 0.1612999985809438, 0.1473500014981255, 0.1477999976486899, 0.14760000340174884, 0.14970000120229088, 0.14584999735234305, 0.145500001963228, 0.14744999498361722, 0.1465499990445096, 0.15544999769190326, 0.1836500014178455, 0.16094999955384992, 0.15839999832678586, 0.16220000543398783, 0.15195000014500692, 0.14620000001741573, 0.15064999752212316, 0.1482500010752119, 0.1299499963351991, 0.15425000310642645, 0.15099999654921703, 0.1479500024288427, 0.1480999962950591, 0.149200001033023, 0.14865000048303045, 0.14704999921377748, 0.15299999722628854, 0.15250000069499947, 0.1848499996413011, 0.1548000000184402, 0.14549999832524918, 0.14910000027157366, 0.14825000471319072, 0.1462500040361192, 0.14679999731015414, 0.1473500051361043, 0.14944999929866754, 0.1549500011606142, 0.18260000069858506, 0.1500000034866389, 0.15264999819919467, 0.15160000475589186, 0.14834999819868244, 0.1490499962528702, 0.15065000116010197, 0.15070000154082663, 0.1542999998491723, 0.1985500057344325, 0.15249999705702066, 0.14709999959450215, 0.14775000454392284, 0.14730000111740083, 0.14660000306321308, 0.17610000213608146, 0.1487500012444798, 0.14854999972158112, 0.14704999921377748, 0.18740000086836517, 0.207199998840224, 0.14909999663359486, 0.15359999815700576, 0.15039999925647862, 0.14970000120229088, 0.15560000247205608, 0.15870000061113387, 0.1614499997231178, 0.15889999849605374, 0.15360000179498456, 0.2298500003234949, 0.15034999887575395, 0.14789999841013923, 0.15295000048354268, 0.1517000018793624, 0.14664999616798013, 0.15659999917261302, 0.18665000243345276, 0.1528999964648392, 0.14589999773306772, 0.1460999992559664, 0.15234999955282547, 0.1475000026402995, 0.14709999959450215, 0.14880000162520446, 0.1548000000184402, 0.19034999422729015, 0.15239999993355013, 0.15534999693045393, 0.1460999992559664],
  "Depth": 2.0,
  "Expectation Value": -5.025575637817383,
  "Optimal Expectation Value": -6.403900146484375,
  "Optimizer durations [ms]": [7.292, 4.582, 5.771, 4.234, 4.204, 4.174, 4.291, 4.068, 4.221, 4.155, 4.177, 4.144, 5.142, 4.533, 4.115, 4.209, 4.171, 4.131, 4.221, 4.47, 5.017, 4.44, 6.577, 5.556, 4.11, 4.25, 4.171, 4.119, 4.02, 4.582, 4.956, 4.25, 4.19, 4.212, 4.146, 4.179, 4.392, 4.111, 4.377, 4.949, 4.48, 4.131, 4.122, 4.289, 4.196, 4.18, 4.366, 4.352, 4.993, 4.322, 4.48, 4.641, 4.238, 4.375, 4.225, 4.162, 4.113, 4.373, 4.635, 4.515, 4.831, 4.211, 4.121, 4.068, 4.155, 4.261, 4.884, 4.185, 4.148, 4.137, 4.11, 4.199, 4.162, 4.132, 4.156, 4.148, 4.153, 5.038, 4.372, 4.261, 4.057, 4.187, 4.306, 4.115, 4.092, 4.353, 5.299, 4.605, 4.519, 4.136, 4.215, 4.304, 4.186, 4.134, 4.323, 4.368, 4.145, 4.285, 4.213, 4.172, 4.27, 4.295, 4.291, 4.173, 4.565, 4.658, 4.213, 3.959, 4.12, 4.17, 4.079, 4.166, 4.152, 4.146, 4.806, 5.161, 4.289, 4.171, 4.201, 4.296, 4.231, 4.132, 4.242, 4.335, 5.18, 4.372, 4.184, 4.089, 4.072, 5.45, 4.462, 4.288, 4.527, 4.983, 4.321, 4.12, 7.878, 17.466, 5.046, 5.778, 7.653, 4.641, 4.33, 4.15, 4.081, 4.394, 4.979, 4.135, 4.282, 4.033, 4.395, 4.11, 4.157, 4.121, 4.165, 4.962, 4.149, 4.108, 4.156, 4.351, 4.109, 4.084, 4.204, 4.655, 4.515, 5.005, 4.362, 4.114, 4.123, 4.09, 4.236, 4.107, 4.187, 4.245, 5.364, 4.199, 4.083, 6.145, 15.57, 10.098, 5.472, 4.157, 4.131, 4.245, 4.16, 4.099, 4.152, 4.342, 4.665, 4.222, 4.193, 4.43, 4.154, 4.249, 4.096, 4.103, 4.174, 4.264, 4.722, 4.407, 4.144, 4.075, 4.202, 4.1, 4.124, 4.15, 4.347, 4.155, 4.876, 4.329, 4.109, 4.11, 4.104, 4.088, 4.048, 4.021, 4.804, 4.301, 4.111, 4.071, 4.093, 4.295, 4.152, 4.144, 5.18, 4.362, 4.626, 4.31, 4.208, 4.093, 4.181, 5.187, 4.395, 4.118, 4.08, 4.934, 4.353, 4.359, 4.25, 4.136, 4.156, 4.534, 4.361, 4.298, 4.261, 7.015, 4.515, 4.217, 4.359, 4.074, 4.099, 4.162, 4.286, 5.176, 5.043, 4.415, 4.129, 4.344, 4.224, 4.147, 4.095, 4.466, 4.163, 4.916, 4.253, 4.186, 4.087, 4.095, 4.123, 4.11, 4.403, 4.091, 4.366, 4.846, 4.112, 4.108, 4.213, 4.261, 4.08, 4.024, 4.503, 4.561, 4.829, 4.196, 4.134, 4.097, 4.035, 4.459, 4.195, 4.244, 4.401, 4.223, 4.746, 4.404, 4.551, 4.323, 4.234, 4.199, 4.102, 4.092, 4.137, 4.923, 4.453, 4.208, 4.115, 4.159, 4.084, 4.096, 4.122, 4.593, 4.975, 4.377, 4.389, 4.45, 4.165, 4.121, 4.776, 4.154, 4.176, 4.351, 4.996, 4.254, 4.349, 4.175, 4.146, 4.297, 4.134, 4.43, 4.147, 4.569, 4.394, 4.332, 4.171, 4.087, 4.207, 4.084, 4.086, 4.824, 4.477, 4.178, 4.089, 5.113, 4.387, 4.107, 4.194, 5.33, 5.1, 4.477, 4.495, 4.442, 4.405, 4.214, 4.114, 4.253, 4.131, 5.263, 4.185, 7.08, 4.728, 4.199, 4.128, 4.178, 4.144, 4.096, 4.983, 4.199, 7.889, 4.431, 4.218, 4.099, 4.265, 4.619, 4.117, 4.161, 8.569, 4.37, 4.258, 5.097, 4.238, 4.117, 4.039, 5.1, 4.168, 4.065, 4.084, 4.331, 4.149, 4.163, 5.11, 4.437, 4.97, 4.207, 4.167, 4.096, 4.162, 4.465, 4.329, 4.334, 4.128, 4.581, 4.334, 4.558, 4.046, 8.562, 4.391, 4.982, 4.21, 4.145, 5.128, 11.814, 5.455, 4.395, 4.171, 5.211, 7.344, 4.965, 5.108, 4.201, 4.117, 4.08, 7.19, 4.113, 4.118, 6.076, 4.471, 4.273, 7.612, 15.948, 5.026, 5.431, 4.29, 4.134, 4.09, 6.787, 4.403, 4.109, 5.172, 5.018, 4.121, 6.217, 16.191, 4.428, 4.144, 6.265, 4.898, 4.145, 6.351, 4.356, 4.088, 5.23, 4.563, 4.191, 5.29, 20.87, 6.798, 6.623, 6.145, 4.272, 4.466, 4.081, 4.074, 4.295, 4.071, 4.064, 4.866, 4.464, 4.101, 4.095, 4.086, 4.211, 4.073, 4.064, 4.675, 4.08, 4.325, 4.831, 4.658, 5.325, 4.56, 4.25, 4.118, 4.224, 4.214, 3.751, 5.067, 4.248, 4.167, 4.125, 4.18, 4.153, 4.104, 4.273, 4.373, 4.919, 4.31, 4.047, 4.162, 4.147, 4.093, 4.074, 4.09, 4.179, 4.348, 4.822, 4.266, 4.284, 4.202, 4.129, 4.202, 4.088, 4.212, 4.297, 5.156, 4.345, 4.043, 4.21, 4.09, 4.152, 4.69, 4.203, 4.124, 4.106, 5.011, 5.358, 4.105, 4.128, 4.09, 4.038, 4.35, 4.41, 4.504, 5.179, 4.417, 5.684, 4.259, 4.177, 4.237, 4.24, 4.108, 4.317, 5.05, 4.385, 4.066, 4.078, 4.25, 4.115, 4.083, 4.153, 4.285, 5.105, 4.232, 4.34, 4.077],
  "Optimizer iterations": 553,
  "Optimizer params": [0.0011095203215275731, 0.5163813943413007, 0.9999866971848496, 0.4997131149390741, 0.495231172908097, 4.421708682288236e-05, 0.9842014491523641, 0.5018967782311166, 0.9972965087115992, 0.49606854011767204, 0.999541210820201],
  "P": 0,
  "Problem": "RH",
  "QJob durations [ms]": [0.31460000172955915, 0.16089999553514645, 0.22555000032298267, 0.15070000154082663, 0.1510500042058993, 0.14925000141374767, 0.15145000361371785, 0.14574999659089372, 0.15314999836846255, 0.1483000050939154, 0.1497999983257614, 0.14649999866378494, 0.19529999553924426, 0.15799999891896732, 0.14709999959450215, 0.14775000454392284, 0.14980000196374021, 0.1480999962950591, 0.1513499992142897, 0.1645500015001744, 0.15069999790284783, 0.15530000018770806, 0.27660000341711566, 0.15160000111791305, 0.1473500014981255, 0.14714999997522682, 0.1506000044173561, 0.15014999735285528, 0.14975000158301555, 0.16340000001946464, 0.18849999469239265, 0.15474999963771552, 0.15350000103353523, 0.15279999934136868, 0.1520000005257316, 0.15079999866429716, 0.15949999942677096, 0.1487500012444798, 0.1564999984111637, 0.19109999630018137, 0.15675000031478703, 0.15034999887575395, 0.1521500016679056, 0.15549999807262793, 0.15299999722628854, 0.1517000018793624, 0.1542999998491723, 0.15454999811481684, 0.1555499984533526, 0.15420000272570178, 0.15545000132988207, 0.1597500013303943, 0.15549999807262793, 0.15520000306423753, 0.15205000090645626, 0.15095000344444998, 0.14970000120229088, 0.15920000078040175, 0.14915000065229833, 0.16335000327671878, 0.15365000217570923, 0.15065000116010197, 0.14599999849451706, 0.14620000001741573, 0.15100000018719584, 0.15270000221789815, 0.18404999718768522, 0.1508999994257465, 0.15014999735285528, 0.14864999684505165, 0.14820000433246605, 0.15010000061010942, 0.1517000018793624, 0.14894999912939966, 0.14894999912939966, 0.149500003317371, 0.14924999777576886, 0.18899999849963933, 0.15424999583046883, 0.1537000061944127, 0.14929999815649353, 0.1523000028100796, 0.15375000293715857, 0.14690000170958228, 0.14724999709869735, 0.1530499976070132, 0.22465000074589625, 0.15474999963771552, 0.1482499974372331, 0.14790000204811804, 0.14975000158301555, 0.1521499980299268, 0.1504499996372033, 0.1501500009908341, 0.15324999912991188, 0.1518499993835576, 0.1483999985794071, 0.14910000390955247, 0.1520000005257316, 0.14940000255592167, 0.1544499973533675, 0.15094999980647117, 0.15535000056843273, 0.14969999756431207, 0.1583499979460612, 0.16704999870853499, 0.15055000039865263, 0.14100000043981709, 0.1473499978601467, 0.15265000183717348, 0.1472000003559515, 0.15084999904502183, 0.1478000012866687, 0.1486000037402846, 0.14659999942523427, 0.20134999795118347, 0.15269999857991934, 0.14744999862159602, 0.15084999904502183, 0.15294999684556387, 0.15195000014500692, 0.14729999747942202, 0.1473500014981255, 0.15934999828459695, 0.19830000383080915, 0.1524500039522536, 0.1478000012866687, 0.14719999671797268, 0.1464000015403144, 0.22244999854592606, 0.15609999900334515, 0.15449999773409218, 0.15785000141477212, 0.1538500000606291, 0.15155000073718838, 0.1468499976908788, 0.35180000122636557, 0.3531500115059316, 0.1918499947350938, 0.24119999579852447, 0.322899992170278, 0.16665000293869525, 0.15830000120331533, 0.14944999929866754, 0.146999995195074, 0.1593000015418511, 0.19210000391467474, 0.14810000357101671, 0.14664999616798013, 0.15095000344444998, 0.15549999807262793, 0.14635000115958974, 0.14939999527996406, 0.14680000094813295, 0.1503000021330081, 0.1866999955382198, 0.14929999815649353, 0.14784999802941456, 0.14695000209030695, 0.15745000200695358, 0.1472000003559515, 0.14619999637943693, 0.15100000018719584, 0.17175000175484456, 0.1554000009491574, 0.15330000314861536, 0.1540000012028031, 0.14614999599871226, 0.14599999849451706, 0.14620000001741573, 0.15220000204863027, 0.14695000209030695, 0.14815000395174138, 0.15259999781847, 0.20349999249447137, 0.14865000048303045, 0.14554999506799504, 0.252199995884439, 0.29400000494206324, 0.27690000570146367, 0.15994999557733536, 0.14805000319029205, 0.14955000006011687, 0.15020000137155876, 0.149350002175197, 0.14865000412100926, 0.14744999862159602, 0.1570999993418809, 0.14939999891794287, 0.15420000272570178, 0.1554000009491574, 0.15770000027259812, 0.1512000017100945, 0.15070000154082663, 0.14675000056740828, 0.14709999959450215, 0.14620000001741573, 0.15209999764920212, 0.17550000120536424, 0.1569499981997069, 0.14664999616798013, 0.14515000293613411, 0.15110000094864517, 0.14690000170958228, 0.14634999752161093, 0.14879999798722565, 0.1527499953226652, 0.1489000023866538, 0.18385000294074416, 0.15019999773357995, 0.14700000247103162, 0.14725000073667616, 0.1468499976908788, 0.14984999506850727, 0.14915000429027714, 0.14844999896013178, 0.14770000416319817, 0.15085000268300064, 0.14850000297883525, 0.14560000272467732, 0.15210000128718093, 0.15440000424860045, 0.1489000023866538, 0.14774999726796523, 0.20165000023553148, 0.1540000012028031, 0.17294999997830018, 0.1517000018793624, 0.14865000048303045, 0.1467000001866836, 0.15094999980647117, 0.1967999996850267, 0.15485000039916486, 0.14689999807160348, 0.14679999731015414, 0.19284999507362954, 0.15319999874918722, 0.15224999879137613, 0.15409999468829483, 0.14844999532215297, 0.14910000390955247, 0.16399999731220305, 0.15775000065332279, 0.15404999794554897, 0.15255000107572414, 0.1310500047111418, 0.15434999659191817, 0.14854999972158112, 0.15749999874969944, 0.14999999621068127, 0.1482499974372331, 0.14760000340174884, 0.15405000158352777, 0.19559999782359228, 0.19220000103814527, 0.15744999836897478, 0.14770000052521937, 0.15094999616849236, 0.15110000094864517, 0.14700000247103162, 0.14674999692942947, 0.1625500008231029, 0.14864999684505165, 0.18574999558040872, 0.15374999929917976, 0.14895000276737846, 0.14679999731015414, 0.1468499976908788, 0.14719999671797268, 0.15210000128718093, 0.15640000128769316, 0.14674999692942947, 0.1540000012028031, 0.1800500031094998, 0.14769999688724056, 0.1468499976908788, 0.14939999891794287, 0.15145000361371785, 0.1462500040361192, 0.1454499979445245, 0.16135000259964727, 0.16150000374182127, 0.17674999980954453, 0.1494999960414134, 0.14775000454392284, 0.14700000247103162, 0.14674999692942947, 0.1575499991304241, 0.1499499994679354, 0.15175000226008706, 0.15410000196425244, 0.15335000352934003, 0.17785000090952963, 0.15684999743825756, 0.16030000188038684, 0.1549500011606142, 0.15129999519558623, 0.1519999968877528, 0.14664999616798013, 0.14719999671797268, 0.1477999976486899, 0.18619999900693074, 0.1592499975231476, 0.15004999659140594, 0.14770000052521937, 0.14854999972158112, 0.14725000073667616, 0.1468499976908788, 0.14695000209030695, 0.17389999993611127, 0.1860999982454814, 0.15409999832627364, 0.1531000016257167, 0.1522999991721008, 0.1479499987908639, 0.14689999807160348, 0.17320000188192353, 0.14799999917158857, 0.14799999917158857, 0.15749999874969944, 0.18629999976838008, 0.1473500051361043, 0.15445000462932512, 0.14770000052521937, 0.14790000204811804, 0.15094999980647117, 0.14725000073667616, 0.1599000024725683, 0.1483999985794071, 0.1640999980736524, 0.15490000077988952, 0.1524500003142748, 0.14914999701431952, 0.1472000039939303, 0.15110000094864517, 0.14694999845232815, 0.1462500003981404, 0.14645000192103907, 0.1569500018376857, 0.1510500005679205, 0.14694999845232815, 0.19640000391518697, 0.15319999874918722, 0.1465500026824884, 0.14739999824087135, 0.2205499986303039, 0.15470000653294846, 0.15899999561952427, 0.16704999870853499, 0.15900000289548188, 0.1549500011606142, 0.14944999929866754, 0.14730000111740083, 0.15055000039865263, 0.14695000209030695, 0.18140000611310825, 0.1478000012866687, 0.29880000511184335, 0.16744999447837472, 0.1474999990023207, 0.14770000416319817, 0.14894999912939966, 0.1476500037824735, 0.14670000382466242, 0.18769999951473437, 0.14910000027157366, 0.346050008374732, 0.15505000192206353, 0.15204999726847745, 0.1479500024288427, 0.15319999874918722, 0.16634999701636843, 0.14869999722577631, 0.14730000475537963, 0.3441499939071946, 0.15485000039916486, 0.1520000005257316, 0.15210000492515974, 0.15055000039865263, 0.14910000390955247, 0.1485499960836023, 0.19225000141886994, 0.14770000052521937, 0.1462500003981404, 0.14614999963669106, 0.1572500004840549, 0.14635000115958974, 0.14665000344393775, 0.19740000061574392, 0.15530000382568687, 0.1857999959611334, 0.14860000010230578, 0.1473499978601467, 0.14725000073667616, 0.14880000526318327, 0.15830000120331533, 0.1531000016257167, 0.15279999570338987, 0.14894999912939966, 0.15425000310642645, 0.15315000200644135, 0.1482499974372331, 0.15010000061010942, 0.1980500019271858, 0.15500000154133886, 0.189200000022538, 0.14894999912939966, 0.14725000437465496, 0.14769999688724056, 0.1339999980700668, 0.2054999968095217, 0.1535500014142599, 0.15005000022938475, 0.1486000037402846, 0.15550000534858555, 0.18760000602924265, 0.1945999938470777, 0.14869999722577631, 0.14614999963669106, 0.14525000369758345, 0.15050000001792796, 0.1474999990023207, 0.14769999688724056, 0.15460000213352032, 0.15804999566171318, 0.15405000158352777, 0.34544999653007835, 0.13679999392479658, 0.18745000488706864, 0.21005000235163607, 0.15294999684556387, 0.14860000010230578, 0.14790000204811804, 0.29245000041555613, 0.15184999574557878, 0.14759999612579122, 0.20385000243550166, 0.1884500015876256, 0.14739999824087135, 0.2722000062931329, 0.1291999979002867, 0.1548000000184402, 0.14879999798722565, 0.2628499969432596, 0.15494999388465658, 0.14745000225957483, 0.2647500004968606, 0.1540000012028031, 0.14775000454392284, 0.20464999761315994, 0.15574999997625127, 0.14999999984866008, 0.17825000031734817, 0.12894999963464215, 0.25615000049583614, 0.2632999967318028, 0.15350000467151403, 0.1506000044173561, 0.16540000069653615, 0.14700000247103162, 0.14675000056740828, 0.14995000310591422, 0.14644999828306027, 0.14680000094813295, 0.14685000132885762, 0.1612999985809438, 0.1473500014981255, 0.1477999976486899, 0.14760000340174884, 0.14970000120229088, 0.14584999735234305, 0.145500001963228, 0.14744999498361722, 0.1465499990445096, 0.15544999769190326, 0.1836500014178455, 0.16094999955384992, 0.15839999832678586, 0.16220000543398783, 0.15195000014500692, 0.14620000001741573, 0.15064999752212316, 0.1482500010752119, 0.1299499963351991, 0.15425000310642645, 0.15099999654921703, 0.1479500024288427, 0.1480999962950591, 0.149200001033023, 0.14865000048303045, 0.14704999921377748, 0.15299999722628854, 0.15250000069499947, 0.1848499996413011, 0.1548000000184402, 0.14549999832524918, 0.14910000027157366, 0.14825000471319072, 0.1462500040361192, 0.14679999731015414, 0.1473500051361043, 0.14944999929866754, 0.1549500011606142, 0.18260000069858506, 0.1500000034866389, 0.15264999819919467, 0.15160000475589186, 0.14834999819868244, 0.1490499962528702, 0.15065000116010197, 0.15070000154082663, 0.1542999998491723, 0.1985500057344325, 0.15249999705702066, 0.14709999959450215, 0.14775000454392284, 0.14730000111740083, 0.14660000306321308, 0.17610000213608146, 0.1487500012444798, 0.14854999972158112, 0.14704999921377748, 0.18740000086836517, 0.207199998840224, 0.14909999663359486, 0.15359999815700576, 0.15039999925647862, 0.14970000120229088, 0.15560000247205608, 0.15870000061113387, 0.1614499997231178, 0.15889999849605374, 0.15360000179498456, 0.2298500003234949, 0.15034999887575395, 0.14789999841013923, 0.15295000048354268, 0.1517000018793624, 0.14664999616798013, 0.15659999917261302, 0.18665000243345276, 0.1528999964648392, 0.14589999773306772, 0.1460999992559664, 0.15234999955282547, 0.1475000026402995, 0.14709999959450215, 0.14880000162520446, 0.1548000000184402, 0.19034999422729015, 0.15239999993355013, 0.15534999693045393, 0.1460999992559664],
  "QPU": "7000000",
  "Qubits": 11,
  "Queue durations [ms]": [0.0, 0.0, 0.0, 0.0, 0.0, 0.0, 0.0, 0.0, 0.0, 0.0, 0.0, 0.0, 0.0, 0.0, 0.0, 0.0, 0.0, 0.0, 0.0, 0.0, 0.0, 0.0, 0.0, 0.0, 0.0, 0.0, 0.0, 0.0, 0.0, 0.0, 0.0, 0.0, 0.0, 0.0, 0.0, 0.0, 0.0, 0.0, 0.0, 0.0, 0.0, 0.0, 0.0, 0.0, 0.0, 0.0, 0.0, 0.0, 0.0, 0.0, 0.0, 0.0, 0.0, 0.0, 0.0, 0.0, 0.0, 0.0, 0.0, 0.0, 0.0, 0.0, 0.0, 0.0, 0.0, 0.0, 0.0, 0.0, 0.0, 0.0, 0.0, 0.0, 0.0, 0.0, 0.0, 0.0, 0.0, 0.0, 0.0, 0.0, 0.0, 0.0, 0.0, 0.0, 0.0, 0.0, 0.0, 0.0, 0.0, 0.0, 0.0, 0.0, 0.0, 0.0, 0.0, 0.0, 0.0, 0.0, 0.0, 0.0, 0.0, 0.0, 0.0, 0.0, 0.0, 0.0, 0.0, 0.0, 0.0, 0.0, 0.0, 0.0, 0.0, 0.0, 0.0, 0.0, 0.0, 0.0, 0.0, 0.0, 0.0, 0.0, 0.0, 0.0, 0.0, 0.0, 0.0, 0.0, 0.0, 0.0, 0.0, 0.0, 0.0, 0.0, 0.0, 0.0, 0.0, 0.0, 0.0, 0.0, 0.0, 0.0, 0.0, 0.0, 0.0, 0.0, 0.0, 0.0, 0.0, 0.0, 0.0, 0.0, 0.0, 0.0, 0.0, 0.0, 0.0, 0.0, 0.0, 0.0, 0.0, 0.0, 0.0, 0.0, 0.0, 0.0, 0.0, 0.0, 0.0, 0.0, 0.0, 0.0, 0.0, 0.0, 0.0, 0.0, 0.0, 0.0, 0.0, 0.0, 0.0, 0.0, 0.0, 0.0, 0.0, 0.0, 0.0, 0.0, 0.0, 0.0, 0.0, 0.0, 0.0, 0.0, 0.0, 0.0, 0.0, 0.0, 0.0, 0.0, 0.0, 0.0, 0.0, 0.0, 0.0, 0.0, 0.0, 0.0, 0.0, 0.0, 0.0, 0.0, 0.0, 0.0, 0.0, 0.0, 0.0, 0.0, 0.0, 0.0, 0.0, 0.0, 0.0, 0.0, 0.0, 0.0, 0.0, 0.0, 0.0, 0.0, 0.0, 0.0, 0.0, 0.0, 0.0, 0.0, 0.0, 0.0, 0.0, 0.0, 0.0, 0.0, 0.0, 0.0, 0.0, 0.0, 0.0, 0.0, 0.0, 0.0, 0.0, 0.0, 0.0, 0.0, 0.0, 0.0, 0.0, 0.0, 0.0, 0.0, 0.0, 0.0, 0.0, 0.0, 0.0, 0.0, 0.0, 0.0, 0.0, 0.0, 0.0, 0.0, 0.0, 0.0, 0.0, 0.0, 0.0, 0.0, 0.0, 0.0, 0.0, 0.0, 0.0, 0.0, 0.0, 0.0, 0.0, 0.0, 0.0, 0.0, 0.0, 0.0, 0.0, 0.0, 0.0, 0.0, 0.0, 0.0, 0.0, 0.0, 0.0, 0.0, 0.0, 0.0, 0.0, 0.0, 0.0, 0.0, 0.0, 0.0, 0.0, 0.0, 0.0, 0.0, 0.0, 0.0, 0.0, 0.0, 0.0, 0.0, 0.0, 0.0, 0.0, 0.0, 0.0, 0.0, 0.0, 0.0, 0.0, 0.0, 0.0, 0.0, 0.0, 0.0, 0.0, 0.0, 0.0, 0.0, 0.0, 0.0, 0.0, 0.0, 0.0, 0.0, 0.0, 0.0, 0.0, 0.0, 0.0, 0.0, 0.0, 0.0, 0.0, 0.0, 0.0, 0.0, 0.0, 0.0, 0.0, 0.0, 0.0, 0.0, 0.0, 0.0, 0.0, 0.0, 0.0, 0.0, 0.0, 0.0, 0.0, 0.0, 0.0, 0.0, 0.0, 0.0, 0.0, 0.0, 0.0, 0.0, 0.0, 0.0, 0.0, 0.0, 0.0, 0.0, 0.0, 0.0, 0.0, 0.0, 0.0, 0.0, 0.0, 0.0, 0.0, 0.0, 0.0, 0.0, 0.0, 0.0, 0.0, 0.0, 0.0, 0.0, 0.0, 0.0, 0.0, 0.0, 0.0, 0.0, 0.0, 0.0, 0.0, 0.0, 0.0, 0.0, 0.0, 0.0, 0.0, 0.0, 0.0, 0.0, 0.0, 0.0, 0.0, 0.0, 0.0, 0.0, 0.0, 0.0, 0.0, 0.0, 0.0, 0.0, 0.0, 0.0, 0.0, 0.0, 0.0, 0.0, 0.0, 0.0, 0.0, 0.0, 0.0, 0.0, 0.0, 0.0, 0.0, 0.0, 0.0, 0.0, 0.0, 0.0, 0.0, 0.0, 0.0, 0.0, 0.0, 0.0, 0.0, 0.0, 0.0, 0.0, 0.0, 0.0, 0.0, 0.0, 0.0, 0.0, 0.0, 0.0, 0.0, 0.0, 0.0, 0.0, 0.0, 0.0, 0.0, 0.0, 0.0, 0.0, 0.0, 0.0, 0.0, 0.0, 0.0, 0.0, 0.0, 0.0, 0.0, 0.0, 0.0, 0.0, 0.0, 0.0, 0.0, 0.0, 0.0, 0.0, 0.0, 0.0, 0.0, 0.0, 0.0, 0.0, 0.0, 0.0, 0.0, 0.0, 0.0, 0.0, 0.0, 0.0, 0.0, 0.0, 0.0, 0.0, 0.0, 0.0, 0.0, 0.0, 0.0, 0.0, 0.0, 0.0, 0.0, 0.0, 0.0, 0.0, 0.0, 0.0, 0.0, 0.0, 0.0, 0.0, 0.0, 0.0, 0.0, 0.0, 0.0, 0.0, 0.0, 0.0, 0.0, 0.0, 0.0, 0.0, 0.0, 0.0, 0.0, 0.0, 0.0],
  "Shots": 4096,
  "Size": 11,
  "Total Algorithm duration [s]": 2.543,
  "Total Classic duration [s]": 2.4543417999578816,
  "Total Quantum duration [s]": 0.08865820004211855
}
