{
  "Circuit execution durations [ms]": [0.16060000052675605, 0.14849999934085645, 0.2002500077651348, 0.1930499929585494, 0.1510499969299417, 0.15255000471370295, 0.21829999604960904, 0.15549999807262793, 0.14895000276737846, 0.15235000319080427, 0.149200001033023, 0.1542999998491723, 0.1870500054792501, 0.15895000251475722, 0.14999999984866008, 0.1461000028939452, 0.14819999705650844, 0.1479499987908639, 0.1600499999767635, 0.1523000028100796, 0.14619999637943693, 0.16070000128820539, 0.18619999900693074, 0.1496499971835874, 0.15320000238716602, 0.15284999972209334, 0.15070000154082663, 0.16465000226162374, 0.1558499970997218, 0.15110000094864517, 0.15519999942625873, 0.18065000767819583, 0.158200000441866, 0.14799999917158857, 0.14819999705650844, 0.15150000399444252, 0.1482500010752119, 0.14854999972158112, 0.15265000183717348, 0.1477999976486899, 0.15424999946844764, 0.15410000196425244, 0.1518499993835576, 0.1487500012444798, 0.14984999870648608, 0.14854999972158112, 0.15224999879137613, 0.15205000454443507, 0.14849999934085645, 0.16434999997727573, 0.16044999938458204, 0.15929999790387228, 0.15675000031478703, 0.14854999972158112, 0.14680000094813295, 0.20625000252039172, 0.15279999570338987, 0.15380000331788324, 0.14740000187885016, 0.14980000196374021, 0.1470500028517563, 0.14660000306321308, 0.1477999976486899, 0.15764999989187345, 0.14719999671797268, 0.14775000454392284, 0.14730000111740083, 0.16229999891947955, 0.18120000459020957, 0.14870000086375512, 0.16810000306577422, 0.17829999706009403, 0.14999999984866008, 0.1571000029798597, 0.15124999845284037, 0.1490500035288278, 0.18819999604602344, 0.26524999702814966, 0.1510500005679205, 0.1475000026402995, 0.14820000069448724, 0.1474999990023207, 0.14725000073667616, 0.14694999845232815, 0.15040000289445743, 0.1479499987908639, 0.15115000132936984, 0.14844999896013178, 0.14704999921377748, 0.14759999976377003, 0.14749999536434188, 0.1534000039100647, 0.14789999841013923, 0.29645000176969916, 0.2657000077306293, 0.21284999820636585, 0.15154999709920958, 0.1817500015022233, 0.1526000014564488, 0.15259999781847, 0.19265000082668848, 0.15915000039967708, 0.15604999862262048, 0.15869999697315507, 0.1614499997231178, 0.15409999832627364, 0.15225000242935494, 0.15804999566171318, 0.189049998880364, 0.15094999980647117, 0.1513499992142897, 0.18045000615529716, 0.15350000103353523, 0.1494999960414134, 0.15094999616849236, 0.14975000158301555, 0.15504999828408472, 0.1557000032335054, 0.23165000675362535, 0.15139999959501438, 0.15020000137155876, 0.15464999887626618, 0.15225000242935494, 0.15024999811430462, 0.15010000061010942, 0.15454999811481684, 0.14955000006011687, 0.19094999879598618, 0.1516499978606589, 0.1520000005257316, 0.15174999862210825, 0.15579999671899714, 0.1555500020913314, 0.1610000035725534, 0.15329999587265775, 0.15140000323299319, 0.15460000577149913, 0.154800003656419, 0.15139999595703557, 0.1921499970194418, 0.15239999629557133, 0.14975000158301555, 0.15549999807262793, 0.1637499954085797, 0.156299996888265, 0.15969999367371202, 0.19405000057304278, 0.15269999857991934, 0.15324999912991188, 0.15174999862210825, 0.16014999710023403, 0.18304999684914947, 0.15690000145696104, 0.27290000434732065, 0.18775000353343785, 0.1613000022189226, 0.1600500036147423, 0.15189999976428226, 0.15520000306423753, 0.15720000374130905, 0.15315000200644135, 0.15445000099134631, 0.16110000069602393, 0.23895000776974484, 0.15654999879188836, 0.14975000158301555, 0.1604999997653067, 0.1510500005679205, 0.1524500003142748, 0.15890000213403255, 0.152749998960644, 0.1875000016298145, 0.1505999971413985, 0.15655000242986716, 0.15169999824138358, 0.15050000001792796, 0.15110000094864517, 0.15439999697264284, 0.14955000006011687, 0.15594999786117114, 0.17405000107828528, 0.1552500034449622, 0.1541499950690195, 0.15625000378349796, 0.15449999773409218, 0.1503000021330081, 0.15555000572931021, 0.15079999866429716, 0.14879999798722565, 0.14984999870648608, 0.15829999756533653, 0.1931000006152317, 0.15070000154082663, 0.2716999952099286, 0.15815000369912013, 0.15284999972209334, 0.15125000209081918, 0.15100000018719584, 0.3578999894671142, 0.19179999799234793, 0.17484999989392236, 0.15254999743774533, 0.1616000008652918, 0.15785000141477212, 0.1583500052220188, 0.15219999841065146, 0.15055000039865263, 0.19049999536946416, 0.16134999896166846, 0.15300000086426735, 0.1506000007793773, 0.22105000243755057, 0.15420000272570178, 0.15169999824138358, 0.15064999752212316, 0.23654999677091837, 0.1569500018376857, 0.3389000048628077, 0.1550999986648094, 0.16209999739658087, 0.15094999616849236, 0.1514999967184849, 0.15145000361371785, 0.1558499970997218, 0.16405000133090653, 0.15285000336007215, 0.14940000255592167, 0.1489000023866538, 0.19964999955845997, 0.1532500027678907, 0.15329999951063655, 0.1904500022646971, 0.15154999709920958, 0.14989999908721074, 0.149500003317371, 0.15309999798773788, 0.1521500016679056, 0.15574999997625127, 0.15379999967990443, 0.15084999904502183, 0.15729999722680077, 0.1859499971033074, 0.16180000238819048, 0.1532500027678907, 0.15324999549193308, 0.15655000242986716, 0.15165000149863772, 0.15389999680337496, 0.15020000137155876, 0.15664999591535889, 0.1942999952007085, 0.1515500043751672, 0.16769999638199806, 0.15239999993355013, 0.1521499980299268, 0.15019999773357995, 0.1504499996372033, 0.15085000268300064, 0.15035000251373276, 0.1524500003142748, 0.1558499970997218, 0.15174999862210825, 0.15350000467151403, 0.15574999633827247, 0.1518499993835576, 0.1513499992142897, 0.1545999984955415, 0.1590999963809736, 0.15419999908772297, 0.15024999811430462, 0.14930000179447234, 0.15044999599922448, 0.149049999890849, 0.1494999996793922, 0.15475000327569433, 0.15505000192206353, 0.16485000378452241, 0.15460000213352032, 0.18999999520019628, 0.15129999883356504, 0.1510500005679205, 0.1685999995970633, 0.15405000158352777, 0.1518499993835576, 0.1507499982835725, 0.15825000446056947, 0.15334999989136122, 0.18679999629966915, 0.19609999799286015, 0.15300000450224616, 0.15175000226008706, 0.1503000021330081, 0.16899999900488183, 0.15029999849502929, 0.14989999908721074, 0.1605500037840102, 0.152900000102818, 0.15460000213352032, 0.19839999731630087, 0.1541499987069983, 0.14790000204811804, 0.15194999650702812, 0.15150000035646372, 0.14939999891794287, 0.15034999887575395, 0.15269999857991934, 0.31260000105248764, 0.16044999938458204, 0.32454999745823443, 0.12075000267941505, 0.18009999621426687, 0.20349999977042899, 0.15390000044135377, 0.1538499964226503, 0.268749994575046, 0.19839999367832206, 0.1518499993835576, 0.1518499993835576, 0.15655000242986716, 0.13885000225855038, 0.1644000003580004, 0.158500002726214, 0.20884999685222283, 0.1911999970616307, 0.15390000407933258, 0.26964999779011123, 0.15144999997573905, 0.1490500035288278, 0.21159999596420676, 0.15175000226008706, 0.15044999599922448, 0.15580000035697594, 0.342100000125356, 0.17255000420846045, 0.1551000023027882, 0.20664999829023145, 0.1536999989184551, 0.15189999976428226, 0.18835000082617626, 0.15184999574557878, 0.15155000073718838, 0.1496500008215662, 0.15055000403663144, 0.15125000209081918, 0.1497999983257614, 0.2694999966479372, 0.13175000276532955, 0.15970000094966963, 0.15494999752263539, 0.1544499973533675, 0.1535500014142599, 0.15264999819919467, 0.2514500047254842],
  "Depth": 2.0,
  "Expectation Value": -6.403080463409424,
  "Optimal Expectation Value": -6.403900146484375,
  "Optimizer durations [ms]": [7.634, 4.191, 5.159, 5.122, 4.19, 4.266, 5.396, 4.412, 4.159, 4.271, 4.185, 4.312, 5.011, 4.478, 4.212, 4.135, 4.156, 4.205, 4.322, 4.31, 3.978, 4.485, 5.025, 4.251, 4.301, 4.275, 4.332, 4.486, 4.257, 4.322, 4.324, 5.01, 4.459, 4.145, 4.197, 4.342, 4.143, 4.205, 4.231, 4.212, 5.073, 4.324, 4.373, 4.129, 4.171, 4.172, 4.256, 4.233, 4.143, 4.633, 5.091, 4.559, 4.411, 4.182, 4.111, 5.231, 4.449, 4.19, 4.908, 4.211, 4.119, 4.146, 4.123, 4.414, 4.124, 4.143, 4.144, 4.437, 4.95, 4.193, 4.874, 4.811, 4.209, 4.405, 4.203, 4.143, 4.997, 6.363, 4.279, 4.111, 4.223, 4.143, 4.098, 4.099, 4.215, 4.106, 4.459, 4.162, 4.14, 4.141, 4.096, 4.238, 4.157, 6.909, 21.557, 5.731, 4.363, 4.833, 4.316, 4.302, 5.066, 4.404, 4.334, 4.409, 4.385, 4.279, 4.28, 4.375, 4.922, 4.233, 4.222, 4.884, 4.403, 4.132, 4.258, 4.17, 4.317, 4.257, 5.675, 4.226, 4.186, 4.452, 4.199, 4.136, 4.16, 4.335, 4.147, 4.975, 4.274, 4.107, 4.055, 4.324, 4.437, 4.363, 4.173, 4.238, 4.377, 5.053, 4.213, 5.003, 4.224, 4.221, 4.313, 4.416, 4.419, 4.446, 4.962, 4.188, 4.343, 4.24, 4.439, 5.0, 4.434, 6.331, 6.64, 4.53, 4.492, 4.21, 4.321, 4.272, 4.302, 4.309, 4.439, 5.54, 4.499, 4.149, 4.359, 4.199, 4.296, 4.487, 4.193, 4.891, 4.203, 4.214, 4.232, 4.172, 4.183, 4.242, 4.118, 4.419, 4.626, 4.347, 5.63, 4.451, 4.305, 4.171, 4.271, 4.189, 4.168, 4.319, 4.378, 5.104, 4.185, 6.625, 4.29, 4.098, 4.133, 4.266, 7.774, 5.254, 4.67, 4.222, 4.534, 4.413, 4.441, 4.177, 4.178, 5.15, 4.338, 4.179, 4.171, 5.569, 4.275, 4.206, 4.154, 5.708, 5.105, 12.472, 4.379, 4.36, 4.185, 4.142, 4.203, 4.239, 5.199, 12.164, 4.136, 4.117, 5.134, 4.25, 4.186, 4.999, 4.205, 4.148, 4.109, 4.138, 4.183, 4.366, 4.267, 4.16, 4.389, 4.876, 4.477, 4.331, 4.309, 4.363, 4.327, 4.331, 4.141, 4.352, 5.149, 4.181, 4.67, 4.228, 4.14, 4.127, 4.151, 4.125, 4.841, 4.251, 4.211, 4.172, 4.335, 4.335, 4.201, 4.181, 4.454, 4.51, 4.346, 4.722, 4.128, 4.198, 4.093, 4.149, 4.25, 4.221, 4.571, 4.227, 4.939, 4.215, 4.153, 4.678, 4.25, 4.297, 4.187, 4.254, 4.209, 4.918, 5.244, 4.256, 4.265, 4.166, 4.577, 4.111, 4.186, 4.319, 4.978, 4.316, 5.288, 4.391, 4.195, 4.177, 4.196, 4.159, 4.291, 5.034, 11.45, 9.545, 9.658, 8.616, 6.897, 5.204, 4.313, 4.291, 6.428, 11.479, 4.842, 4.175, 4.409, 7.067, 4.578, 4.442, 5.182, 5.078, 4.297, 6.189, 4.436, 4.109, 5.368, 4.195, 4.157, 4.299, 7.601, 16.24, 4.384, 5.186, 4.231, 4.215, 4.941, 7.299, 4.136, 4.108, 5.172, 4.24, 4.142, 6.309, 16.389, 4.591, 4.294, 5.583, 4.272, 4.264, 6.181],
  "Optimizer iterations": 353,
  "Optimizer params": [0.9996771052788193, 0.5001187352234275, 0.012069640912831116, 0.5007593701443436, 0.5035118849553378, 0.9989057930503339, 0.5020435419467593, 0.5040880154294576, 0.9986405915849518, 0.498224612423434, 0.9996518814739415],
  "P": 0,
  "Problem": "RH",
  "QJob durations [ms]": [0.16060000052675605, 0.14849999934085645, 0.2002500077651348, 0.1930499929585494, 0.1510499969299417, 0.15255000471370295, 0.21829999604960904, 0.15549999807262793, 0.14895000276737846, 0.15235000319080427, 0.149200001033023, 0.1542999998491723, 0.1870500054792501, 0.15895000251475722, 0.14999999984866008, 0.1461000028939452, 0.14819999705650844, 0.1479499987908639, 0.1600499999767635, 0.1523000028100796, 0.14619999637943693, 0.16070000128820539, 0.18619999900693074, 0.1496499971835874, 0.15320000238716602, 0.15284999972209334, 0.15070000154082663, 0.16465000226162374, 0.1558499970997218, 0.15110000094864517, 0.15519999942625873, 0.18065000767819583, 0.158200000441866, 0.14799999917158857, 0.14819999705650844, 0.15150000399444252, 0.1482500010752119, 0.14854999972158112, 0.15265000183717348, 0.1477999976486899, 0.15424999946844764, 0.15410000196425244, 0.1518499993835576, 0.1487500012444798, 0.14984999870648608, 0.14854999972158112, 0.15224999879137613, 0.15205000454443507, 0.14849999934085645, 0.16434999997727573, 0.16044999938458204, 0.15929999790387228, 0.15675000031478703, 0.14854999972158112, 0.14680000094813295, 0.20625000252039172, 0.15279999570338987, 0.15380000331788324, 0.14740000187885016, 0.14980000196374021, 0.1470500028517563, 0.14660000306321308, 0.1477999976486899, 0.15764999989187345, 0.14719999671797268, 0.14775000454392284, 0.14730000111740083, 0.16229999891947955, 0.18120000459020957, 0.14870000086375512, 0.16810000306577422, 0.17829999706009403, 0.14999999984866008, 0.1571000029798597, 0.15124999845284037, 0.1490500035288278, 0.18819999604602344, 0.26524999702814966, 0.1510500005679205, 0.1475000026402995, 0.14820000069448724, 0.1474999990023207, 0.14725000073667616, 0.14694999845232815, 0.15040000289445743, 0.1479499987908639, 0.15115000132936984, 0.14844999896013178, 0.14704999921377748, 0.14759999976377003, 0.14749999536434188, 0.1534000039100647, 0.14789999841013923, 0.29645000176969916, 0.2657000077306293, 0.21284999820636585, 0.15154999709920958, 0.1817500015022233, 0.1526000014564488, 0.15259999781847, 0.19265000082668848, 0.15915000039967708, 0.15604999862262048, 0.15869999697315507, 0.1614499997231178, 0.15409999832627364, 0.15225000242935494, 0.15804999566171318, 0.189049998880364, 0.15094999980647117, 0.1513499992142897, 0.18045000615529716, 0.15350000103353523, 0.1494999960414134, 0.15094999616849236, 0.14975000158301555, 0.15504999828408472, 0.1557000032335054, 0.23165000675362535, 0.15139999959501438, 0.15020000137155876, 0.15464999887626618, 0.15225000242935494, 0.15024999811430462, 0.15010000061010942, 0.15454999811481684, 0.14955000006011687, 0.19094999879598618, 0.1516499978606589, 0.1520000005257316, 0.15174999862210825, 0.15579999671899714, 0.1555500020913314, 0.1610000035725534, 0.15329999587265775, 0.15140000323299319, 0.15460000577149913, 0.154800003656419, 0.15139999595703557, 0.1921499970194418, 0.15239999629557133, 0.14975000158301555, 0.15549999807262793, 0.1637499954085797, 0.156299996888265, 0.15969999367371202, 0.19405000057304278, 0.15269999857991934, 0.15324999912991188, 0.15174999862210825, 0.16014999710023403, 0.18304999684914947, 0.15690000145696104, 0.27290000434732065, 0.18775000353343785, 0.1613000022189226, 0.1600500036147423, 0.15189999976428226, 0.15520000306423753, 0.15720000374130905, 0.15315000200644135, 0.15445000099134631, 0.16110000069602393, 0.23895000776974484, 0.15654999879188836, 0.14975000158301555, 0.1604999997653067, 0.1510500005679205, 0.1524500003142748, 0.15890000213403255, 0.152749998960644, 0.1875000016298145, 0.1505999971413985, 0.15655000242986716, 0.15169999824138358, 0.15050000001792796, 0.15110000094864517, 0.15439999697264284, 0.14955000006011687, 0.15594999786117114, 0.17405000107828528, 0.1552500034449622, 0.1541499950690195, 0.15625000378349796, 0.15449999773409218, 0.1503000021330081, 0.15555000572931021, 0.15079999866429716, 0.14879999798722565, 0.14984999870648608, 0.15829999756533653, 0.1931000006152317, 0.15070000154082663, 0.2716999952099286, 0.15815000369912013, 0.15284999972209334, 0.15125000209081918, 0.15100000018719584, 0.3578999894671142, 0.19179999799234793, 0.17484999989392236, 0.15254999743774533, 0.1616000008652918, 0.15785000141477212, 0.1583500052220188, 0.15219999841065146, 0.15055000039865263, 0.19049999536946416, 0.16134999896166846, 0.15300000086426735, 0.1506000007793773, 0.22105000243755057, 0.15420000272570178, 0.15169999824138358, 0.15064999752212316, 0.23654999677091837, 0.1569500018376857, 0.3389000048628077, 0.1550999986648094, 0.16209999739658087, 0.15094999616849236, 0.1514999967184849, 0.15145000361371785, 0.1558499970997218, 0.16405000133090653, 0.15285000336007215, 0.14940000255592167, 0.1489000023866538, 0.19964999955845997, 0.1532500027678907, 0.15329999951063655, 0.1904500022646971, 0.15154999709920958, 0.14989999908721074, 0.149500003317371, 0.15309999798773788, 0.1521500016679056, 0.15574999997625127, 0.15379999967990443, 0.15084999904502183, 0.15729999722680077, 0.1859499971033074, 0.16180000238819048, 0.1532500027678907, 0.15324999549193308, 0.15655000242986716, 0.15165000149863772, 0.15389999680337496, 0.15020000137155876, 0.15664999591535889, 0.1942999952007085, 0.1515500043751672, 0.16769999638199806, 0.15239999993355013, 0.1521499980299268, 0.15019999773357995, 0.1504499996372033, 0.15085000268300064, 0.15035000251373276, 0.1524500003142748, 0.1558499970997218, 0.15174999862210825, 0.15350000467151403, 0.15574999633827247, 0.1518499993835576, 0.1513499992142897, 0.1545999984955415, 0.1590999963809736, 0.15419999908772297, 0.15024999811430462, 0.14930000179447234, 0.15044999599922448, 0.149049999890849, 0.1494999996793922, 0.15475000327569433, 0.15505000192206353, 0.16485000378452241, 0.15460000213352032, 0.18999999520019628, 0.15129999883356504, 0.1510500005679205, 0.1685999995970633, 0.15405000158352777, 0.1518499993835576, 0.1507499982835725, 0.15825000446056947, 0.15334999989136122, 0.18679999629966915, 0.19609999799286015, 0.15300000450224616, 0.15175000226008706, 0.1503000021330081, 0.16899999900488183, 0.15029999849502929, 0.14989999908721074, 0.1605500037840102, 0.152900000102818, 0.15460000213352032, 0.19839999731630087, 0.1541499987069983, 0.14790000204811804, 0.15194999650702812, 0.15150000035646372, 0.14939999891794287, 0.15034999887575395, 0.15269999857991934, 0.31260000105248764, 0.16044999938458204, 0.32454999745823443, 0.12075000267941505, 0.18009999621426687, 0.20349999977042899, 0.15390000044135377, 0.1538499964226503, 0.268749994575046, 0.19839999367832206, 0.1518499993835576, 0.1518499993835576, 0.15655000242986716, 0.13885000225855038, 0.1644000003580004, 0.158500002726214, 0.20884999685222283, 0.1911999970616307, 0.15390000407933258, 0.26964999779011123, 0.15144999997573905, 0.1490500035288278, 0.21159999596420676, 0.15175000226008706, 0.15044999599922448, 0.15580000035697594, 0.342100000125356, 0.17255000420846045, 0.1551000023027882, 0.20664999829023145, 0.1536999989184551, 0.15189999976428226, 0.18835000082617626, 0.15184999574557878, 0.15155000073718838, 0.1496500008215662, 0.15055000403663144, 0.15125000209081918, 0.1497999983257614, 0.2694999966479372, 0.13175000276532955, 0.15970000094966963, 0.15494999752263539, 0.1544499973533675, 0.1535500014142599, 0.15264999819919467, 0.2514500047254842],
  "QPU": "7000000",
  "Qubits": 11,
  "Queue durations [ms]": [0.0, 0.0, 0.0, 0.0, 0.0, 0.0, 0.0, 0.0, 0.0, 0.0, 0.0, 0.0, 0.0, 0.0, 0.0, 0.0, 0.0, 0.0, 0.0, 0.0, 0.0, 0.0, 0.0, 0.0, 0.0, 0.0, 0.0, 0.0, 0.0, 0.0, 0.0, 0.0, 0.0, 0.0, 0.0, 0.0, 0.0, 0.0, 0.0, 0.0, 0.0, 0.0, 0.0, 0.0, 0.0, 0.0, 0.0, 0.0, 0.0, 0.0, 0.0, 0.0, 0.0, 0.0, 0.0, 0.0, 0.0, 0.0, 0.0, 0.0, 0.0, 0.0, 0.0, 0.0, 0.0, 0.0, 0.0, 0.0, 0.0, 0.0, 0.0, 0.0, 0.0, 0.0, 0.0, 0.0, 0.0, 0.0, 0.0, 0.0, 0.0, 0.0, 0.0, 0.0, 0.0, 0.0, 0.0, 0.0, 0.0, 0.0, 0.0, 0.0, 0.0, 0.0, 0.0, 0.0, 0.0, 0.0, 0.0, 0.0, 0.0, 0.0, 0.0, 0.0, 0.0, 0.0, 0.0, 0.0, 0.0, 0.0, 0.0, 0.0, 0.0, 0.0, 0.0, 0.0, 0.0, 0.0, 0.0, 0.0, 0.0, 0.0, 0.0, 0.0, 0.0, 0.0, 0.0, 0.0, 0.0, 0.0, 0.0, 0.0, 0.0, 0.0, 0.0, 0.0, 0.0, 0.0, 0.0, 0.0, 0.0, 0.0, 0.0, 0.0, 0.0, 0.0, 0.0, 0.0, 0.0, 0.0, 0.0, 0.0, 0.0, 0.0, 0.0, 0.0, 0.0, 0.0, 0.0, 0.0, 0.0, 0.0, 0.0, 0.0, 0.0, 0.0, 0.0, 0.0, 0.0, 0.0, 0.0, 0.0, 0.0, 0.0, 0.0, 0.0, 0.0, 0.0, 0.0, 0.0, 0.0, 0.0, 0.0, 0.0, 0.0, 0.0, 0.0, 0.0, 0.0, 0.0, 0.0, 0.0, 0.0, 0.0, 0.0, 0.0, 0.0, 0.0, 0.0, 0.0, 0.0, 0.0, 0.0, 0.0, 0.0, 0.0, 0.0, 0.0, 0.0, 0.0, 0.0, 0.0, 0.0, 0.0, 0.0, 0.0, 0.0, 0.0, 0.0, 0.0, 0.0, 0.0, 0.0, 0.0, 0.0, 0.0, 0.0, 0.0, 0.0, 0.0, 0.0, 0.0, 0.0, 0.0, 0.0, 0.0, 0.0, 0.0, 0.0, 0.0, 0.0, 0.0, 0.0, 0.0, 0.0, 0.0, 0.0, 0.0, 0.0, 0.0, 0.0, 0.0, 0.0, 0.0, 0.0, 0.0, 0.0, 0.0, 0.0, 0.0, 0.0, 0.0, 0.0, 0.0, 0.0, 0.0, 0.0, 0.0, 0.0, 0.0, 0.0, 0.0, 0.0, 0.0, 0.0, 0.0, 0.0, 0.0, 0.0, 0.0, 0.0, 0.0, 0.0, 0.0, 0.0, 0.0, 0.0, 0.0, 0.0, 0.0, 0.0, 0.0, 0.0, 0.0, 0.0, 0.0, 0.0, 0.0, 0.0, 0.0, 0.0, 0.0, 0.0, 0.0, 0.0, 0.0, 0.0, 0.0, 0.0, 0.0, 0.0, 0.0, 0.0, 0.0, 0.0, 0.0, 0.0, 0.0, 0.0, 0.0, 0.0, 0.0, 0.0, 0.0, 0.0, 0.0, 0.0, 0.0, 0.0, 0.0, 0.0, 0.0, 0.0, 0.0, 0.0, 0.0, 0.0, 0.0, 0.0, 0.0, 0.0, 0.0, 0.0, 0.0, 0.0, 0.0, 0.0, 0.0, 0.0, 0.0, 0.0, 0.0, 0.0],
  "Shots": 4096,
  "Size": 11,
  "Total Algorithm duration [s]": 1.679,
  "Total Classic duration [s]": 1.6210415499917,
  "Total Quantum duration [s]": 0.05795845000830013
}
