{
  "Circuit execution durations [ms]": [0.3059999944525771, 0.22015000286046416, 0.15519999578827992, 0.14790000204811804, 0.14899999587214552, 0.15039999925647862, 0.14960000407882035, 0.14855000335955992, 0.14895000276737846, 0.146999995195074, 0.14699999883305281, 0.18385000294074416, 0.15735000124550425, 0.1503000021330081, 0.14685000132885762, 0.15870000424911268, 0.15064999752212316, 0.14730000111740083, 0.14770000052521937, 0.1485499960836023, 0.14900000314810313, 0.15284999608411454, 0.14724999709869735, 0.15324999549193308, 0.1465499990445096, 0.1475000026402995, 0.1503000021330081, 0.14704999921377748, 0.14925000141374767, 0.1463999979023356, 0.18665000243345276, 0.15504999828408472, 0.15064999752212316, 0.1521500016679056, 0.16804999904707074, 0.14769999688724056, 0.14700000247103162, 0.15410000196425244, 0.14740000187885016, 0.19330000577610917, 0.15039999925647862, 0.1511999980721157, 0.15179999900283292, 0.14884999836795032, 0.15440000424860045, 0.1504500032751821, 0.14865000048303045, 0.15055000403663144, 0.1487500012444798, 0.1541500023449771, 0.1973000034922734, 0.16519999917363748, 0.1494999960414134, 0.15014999735285528, 0.14274999557528645, 0.14165000175125897, 0.1476499965065159, 0.14725000073667616, 0.18265000835526735, 0.15345000429078937, 0.14675000056740828, 0.14869999722577631, 0.14834999819868244, 0.14649999866378494, 0.14710000323248096, 0.1479500024288427, 0.33090000215452164, 0.22855000133858994, 0.19769999926211312, 0.15390000044135377, 0.1480999999330379, 0.1493499985372182, 0.19009999959962443, 0.1510500005679205, 0.14754999938304536, 0.14644999828306027, 0.1531000016257167, 0.14650000230176374, 0.14739999824087135, 0.14844999896013178, 0.14709999959450215, 0.14760000340174884, 0.16529999993508682, 0.19145000260323286, 0.15005000022938475, 0.14784999802941456, 0.15345000065281056, 0.14974999794503674, 0.1482499974372331, 0.15390000044135377, 0.17349999689031392, 0.16150000374182127, 0.1738499995553866, 0.14870000086375512, 0.17315000150119886, 0.14664999616798013, 0.1459499981137924, 0.15690000509493984, 0.16385000344598666, 0.14775000090594403, 0.1484500025981106, 0.16404999769292772, 0.15749999874969944, 0.15600000187987462, 0.1707500014163088, 0.1467000001866836, 0.152749998960644, 0.14815000031376258, 0.1503000021330081, 0.1480999999330379, 0.14690000170958228, 0.20379999114084058, 0.15744999836897478, 0.14790000204811804, 0.14539999756379984, 0.15730000086477958, 0.1484500025981106, 0.1503000021330081, 0.14695000209030695, 0.15795000217622146, 0.1876499954960309, 0.14664999980595894, 0.14760000340174884, 0.145800004247576, 0.1464000015403144, 0.15484999676118605, 0.16265000158455223, 0.1475000026402995, 0.16434999997727573, 0.26664999677450396, 0.15529999654972926, 0.14725000073667616, 0.14649999866378494, 0.14690000170958228, 0.14924999777576886, 0.14984999870648608, 0.16655000217724591, 0.14829999781795777, 0.18950000230688602, 0.15634999726898968, 0.14804999955231324, 0.15154999709920958, 0.14894999912939966, 0.15205000090645626, 0.14630000077886507, 0.2647000001161359, 0.15014999735285528, 0.31105000380193815, 0.14980000196374021, 0.1475000026402995, 0.15995000285329297, 0.19600000086938962, 0.14930000179447234, 0.15254999743774533, 0.14725000073667616, 0.15475000327569433, 0.1496499971835874, 0.1472000003559515, 0.14645000192103907, 0.17050000315066427, 0.14820000433246605, 0.15135000285226852, 0.13649999891640618, 0.15174999862210825, 0.14664999980595894, 0.14985000234446488, 0.14844999532215297, 0.14724999709869735, 0.15220000204863027, 0.15344999701483175, 0.1517000018793624, 0.1508999994257465, 0.14620000001741573, 0.15225000242935494, 0.15440000061062165, 0.14739999824087135, 0.1807000007829629, 0.16350000441889279, 0.19095000243396498, 0.15419999908772297, 0.1473500014981255, 0.15504999828408472, 0.15019999773357995, 0.14719999671797268, 0.14635000115958974, 0.15165000149863772, 0.14879999798722565, 0.15720000010333024, 0.18574999558040872, 0.14774999726796523, 0.18014999659499153, 0.1518500030215364, 0.1512000017100945, 0.15069999790284783, 0.1462500040361192, 0.1472000003559515, 0.18754999837256037, 0.1640999980736524, 0.1652000028116163, 0.15795000217622146, 0.14899999951012433, 0.1538500000606291, 0.1500000034866389, 0.1466999965487048, 0.14789999841013923, 0.15360000179498456, 0.18780000391416252, 0.15130000247154385, 0.14909999663359486, 0.15069999790284783, 0.14590000137104653, 0.15279999934136868, 0.15144999997573905, 0.145650003105402, 0.14620000365539454, 0.15699999494245276, 0.18994999845745042, 0.15064999752212316, 0.1497999983257614, 0.15789999815751798, 0.1414499965903815, 0.14564999946742319, 0.21055000615888275, 0.15545000132988207, 0.147149996337248, 0.1751000017975457, 0.1566500031913165, 0.15100000018719584, 0.14759999976377003, 0.14980000196374021, 0.14884999836795032, 0.14739999824087135, 0.14770000052521937, 0.16235000293818302, 0.1882499964267481, 0.14915000065229833, 0.14775000090594403, 0.14835000183666125, 0.15675000395276584, 0.14789999841013923, 0.16214999777730554, 0.14710000323248096, 0.14969999756431207, 0.20230000882293098, 0.15319999874918722, 0.14670000382466242, 0.14694999845232815, 0.15150000399444252, 0.16039999900385737, 0.1534000002720859, 0.156149995746091, 0.16229999891947955, 0.15625000378349796, 0.18825000006472692, 0.17755000226316042, 0.14829999781795777, 0.1537000025564339],
  "Depth": 2.0,
  "Expectation Value": -5.744723320007324,
  "Optimal Expectation Value": -6.403900146484375,
  "Optimizer durations [ms]": [7.334, 5.696, 4.517, 4.145, 4.292, 4.169, 4.165, 4.145, 4.169, 4.115, 4.103, 4.885, 4.446, 4.181, 4.094, 4.339, 4.203, 4.116, 4.123, 4.174, 4.311, 4.36, 4.514, 4.288, 4.12, 4.092, 4.184, 4.141, 4.213, 4.096, 4.947, 4.183, 4.21, 4.889, 4.585, 4.119, 4.088, 4.286, 4.109, 5.09, 4.208, 4.216, 4.264, 4.158, 4.321, 4.174, 4.143, 4.173, 4.202, 4.27, 5.149, 4.575, 4.147, 4.22, 4.028, 4.009, 4.104, 4.091, 4.881, 4.259, 4.094, 4.13, 4.13, 4.12, 4.118, 4.131, 7.558, 20.492, 5.568, 4.406, 4.152, 4.126, 5.034, 4.315, 4.109, 4.08, 4.215, 4.08, 4.14, 4.176, 4.109, 4.121, 4.571, 4.997, 4.253, 4.123, 4.281, 4.078, 3.996, 4.347, 4.642, 4.426, 4.702, 4.224, 4.644, 4.166, 4.196, 4.328, 4.553, 4.163, 4.899, 4.462, 4.462, 4.317, 4.56, 4.1, 4.284, 4.115, 4.201, 4.109, 4.882, 5.288, 4.432, 4.118, 4.095, 4.412, 4.157, 4.184, 4.208, 4.351, 4.989, 4.148, 4.256, 4.097, 4.071, 4.297, 4.56, 4.007, 4.649, 6.115, 6.897, 4.148, 4.112, 4.104, 4.046, 4.254, 4.555, 4.13, 5.028, 4.438, 4.124, 4.28, 4.187, 4.189, 4.093, 6.477, 5.852, 16.936, 13.115, 4.099, 4.393, 5.211, 4.16, 4.317, 4.099, 4.319, 4.178, 4.122, 4.305, 5.153, 4.062, 4.225, 6.006, 4.279, 4.124, 4.154, 4.132, 4.137, 4.21, 5.235, 4.349, 4.192, 4.078, 4.256, 4.325, 4.129, 4.778, 4.508, 5.0, 4.259, 4.128, 4.305, 4.332, 4.138, 4.096, 4.246, 4.142, 4.345, 5.018, 4.182, 4.803, 4.298, 4.233, 4.272, 4.116, 4.054, 4.907, 4.592, 4.561, 4.458, 4.15, 4.254, 4.147, 4.131, 4.124, 4.293, 4.971, 4.304, 4.168, 4.194, 3.97, 4.409, 4.239, 4.103, 4.104, 4.403, 4.972, 4.273, 4.191, 4.437, 4.029, 4.083, 5.305, 4.447, 4.07, 4.683, 4.224, 4.26, 4.137, 4.176, 4.147, 4.134, 4.068, 4.509, 4.984, 4.156, 4.159, 4.263, 4.29, 4.324, 5.029, 4.161, 4.3, 5.298, 4.366, 4.106, 4.103, 4.138, 4.469, 4.28, 4.351, 4.518, 4.35, 5.104, 4.834, 4.116, 4.258],
  "Optimizer iterations": 257,
  "Optimizer params": [0.00016772900516471895, 0.4994330062489359, 0.9895423683878514, 0.4930764202687117, 0.49720200115520413, 0.9917503965824862, 0.49972156611999813, 0.013099059522514186, 0.0003694575565373302, 0.49985273570103794, 0.9999954597008293],
  "P": 0,
  "Problem": "RH",
  "QJob durations [ms]": [0.3059999944525771, 0.22015000286046416, 0.15519999578827992, 0.14790000204811804, 0.14899999587214552, 0.15039999925647862, 0.14960000407882035, 0.14855000335955992, 0.14895000276737846, 0.146999995195074, 0.14699999883305281, 0.18385000294074416, 0.15735000124550425, 0.1503000021330081, 0.14685000132885762, 0.15870000424911268, 0.15064999752212316, 0.14730000111740083, 0.14770000052521937, 0.1485499960836023, 0.14900000314810313, 0.15284999608411454, 0.14724999709869735, 0.15324999549193308, 0.1465499990445096, 0.1475000026402995, 0.1503000021330081, 0.14704999921377748, 0.14925000141374767, 0.1463999979023356, 0.18665000243345276, 0.15504999828408472, 0.15064999752212316, 0.1521500016679056, 0.16804999904707074, 0.14769999688724056, 0.14700000247103162, 0.15410000196425244, 0.14740000187885016, 0.19330000577610917, 0.15039999925647862, 0.1511999980721157, 0.15179999900283292, 0.14884999836795032, 0.15440000424860045, 0.1504500032751821, 0.14865000048303045, 0.15055000403663144, 0.1487500012444798, 0.1541500023449771, 0.1973000034922734, 0.16519999917363748, 0.1494999960414134, 0.15014999735285528, 0.14274999557528645, 0.14165000175125897, 0.1476499965065159, 0.14725000073667616, 0.18265000835526735, 0.15345000429078937, 0.14675000056740828, 0.14869999722577631, 0.14834999819868244, 0.14649999866378494, 0.14710000323248096, 0.1479500024288427, 0.33090000215452164, 0.22855000133858994, 0.19769999926211312, 0.15390000044135377, 0.1480999999330379, 0.1493499985372182, 0.19009999959962443, 0.1510500005679205, 0.14754999938304536, 0.14644999828306027, 0.1531000016257167, 0.14650000230176374, 0.14739999824087135, 0.14844999896013178, 0.14709999959450215, 0.14760000340174884, 0.16529999993508682, 0.19145000260323286, 0.15005000022938475, 0.14784999802941456, 0.15345000065281056, 0.14974999794503674, 0.1482499974372331, 0.15390000044135377, 0.17349999689031392, 0.16150000374182127, 0.1738499995553866, 0.14870000086375512, 0.17315000150119886, 0.14664999616798013, 0.1459499981137924, 0.15690000509493984, 0.16385000344598666, 0.14775000090594403, 0.1484500025981106, 0.16404999769292772, 0.15749999874969944, 0.15600000187987462, 0.1707500014163088, 0.1467000001866836, 0.152749998960644, 0.14815000031376258, 0.1503000021330081, 0.1480999999330379, 0.14690000170958228, 0.20379999114084058, 0.15744999836897478, 0.14790000204811804, 0.14539999756379984, 0.15730000086477958, 0.1484500025981106, 0.1503000021330081, 0.14695000209030695, 0.15795000217622146, 0.1876499954960309, 0.14664999980595894, 0.14760000340174884, 0.145800004247576, 0.1464000015403144, 0.15484999676118605, 0.16265000158455223, 0.1475000026402995, 0.16434999997727573, 0.26664999677450396, 0.15529999654972926, 0.14725000073667616, 0.14649999866378494, 0.14690000170958228, 0.14924999777576886, 0.14984999870648608, 0.16655000217724591, 0.14829999781795777, 0.18950000230688602, 0.15634999726898968, 0.14804999955231324, 0.15154999709920958, 0.14894999912939966, 0.15205000090645626, 0.14630000077886507, 0.2647000001161359, 0.15014999735285528, 0.31105000380193815, 0.14980000196374021, 0.1475000026402995, 0.15995000285329297, 0.19600000086938962, 0.14930000179447234, 0.15254999743774533, 0.14725000073667616, 0.15475000327569433, 0.1496499971835874, 0.1472000003559515, 0.14645000192103907, 0.17050000315066427, 0.14820000433246605, 0.15135000285226852, 0.13649999891640618, 0.15174999862210825, 0.14664999980595894, 0.14985000234446488, 0.14844999532215297, 0.14724999709869735, 0.15220000204863027, 0.15344999701483175, 0.1517000018793624, 0.1508999994257465, 0.14620000001741573, 0.15225000242935494, 0.15440000061062165, 0.14739999824087135, 0.1807000007829629, 0.16350000441889279, 0.19095000243396498, 0.15419999908772297, 0.1473500014981255, 0.15504999828408472, 0.15019999773357995, 0.14719999671797268, 0.14635000115958974, 0.15165000149863772, 0.14879999798722565, 0.15720000010333024, 0.18574999558040872, 0.14774999726796523, 0.18014999659499153, 0.1518500030215364, 0.1512000017100945, 0.15069999790284783, 0.1462500040361192, 0.1472000003559515, 0.18754999837256037, 0.1640999980736524, 0.1652000028116163, 0.15795000217622146, 0.14899999951012433, 0.1538500000606291, 0.1500000034866389, 0.1466999965487048, 0.14789999841013923, 0.15360000179498456, 0.18780000391416252, 0.15130000247154385, 0.14909999663359486, 0.15069999790284783, 0.14590000137104653, 0.15279999934136868, 0.15144999997573905, 0.145650003105402, 0.14620000365539454, 0.15699999494245276, 0.18994999845745042, 0.15064999752212316, 0.1497999983257614, 0.15789999815751798, 0.1414499965903815, 0.14564999946742319, 0.21055000615888275, 0.15545000132988207, 0.147149996337248, 0.1751000017975457, 0.1566500031913165, 0.15100000018719584, 0.14759999976377003, 0.14980000196374021, 0.14884999836795032, 0.14739999824087135, 0.14770000052521937, 0.16235000293818302, 0.1882499964267481, 0.14915000065229833, 0.14775000090594403, 0.14835000183666125, 0.15675000395276584, 0.14789999841013923, 0.16214999777730554, 0.14710000323248096, 0.14969999756431207, 0.20230000882293098, 0.15319999874918722, 0.14670000382466242, 0.14694999845232815, 0.15150000399444252, 0.16039999900385737, 0.1534000002720859, 0.156149995746091, 0.16229999891947955, 0.15625000378349796, 0.18825000006472692, 0.17755000226316042, 0.14829999781795777, 0.1537000025564339],
  "QPU": "7000000",
  "Qubits": 11,
  "Queue durations [ms]": [0.0, 0.0, 0.0, 0.0, 0.0, 0.0, 0.0, 0.0, 0.0, 0.0, 0.0, 0.0, 0.0, 0.0, 0.0, 0.0, 0.0, 0.0, 0.0, 0.0, 0.0, 0.0, 0.0, 0.0, 0.0, 0.0, 0.0, 0.0, 0.0, 0.0, 0.0, 0.0, 0.0, 0.0, 0.0, 0.0, 0.0, 0.0, 0.0, 0.0, 0.0, 0.0, 0.0, 0.0, 0.0, 0.0, 0.0, 0.0, 0.0, 0.0, 0.0, 0.0, 0.0, 0.0, 0.0, 0.0, 0.0, 0.0, 0.0, 0.0, 0.0, 0.0, 0.0, 0.0, 0.0, 0.0, 0.0, 0.0, 0.0, 0.0, 0.0, 0.0, 0.0, 0.0, 0.0, 0.0, 0.0, 0.0, 0.0, 0.0, 0.0, 0.0, 0.0, 0.0, 0.0, 0.0, 0.0, 0.0, 0.0, 0.0, 0.0, 0.0, 0.0, 0.0, 0.0, 0.0, 0.0, 0.0, 0.0, 0.0, 0.0, 0.0, 0.0, 0.0, 0.0, 0.0, 0.0, 0.0, 0.0, 0.0, 0.0, 0.0, 0.0, 0.0, 0.0, 0.0, 0.0, 0.0, 0.0, 0.0, 0.0, 0.0, 0.0, 0.0, 0.0, 0.0, 0.0, 0.0, 0.0, 0.0, 0.0, 0.0, 0.0, 0.0, 0.0, 0.0, 0.0, 0.0, 0.0, 0.0, 0.0, 0.0, 0.0, 0.0, 0.0, 0.0, 0.0, 0.0, 0.0, 0.0, 0.0, 0.0, 0.0, 0.0, 0.0, 0.0, 0.0, 0.0, 0.0, 0.0, 0.0, 0.0, 0.0, 0.0, 0.0, 0.0, 0.0, 0.0, 0.0, 0.0, 0.0, 0.0, 0.0, 0.0, 0.0, 0.0, 0.0, 0.0, 0.0, 0.0, 0.0, 0.0, 0.0, 0.0, 0.0, 0.0, 0.0, 0.0, 0.0, 0.0, 0.0, 0.0, 0.0, 0.0, 0.0, 0.0, 0.0, 0.0, 0.0, 0.0, 0.0, 0.0, 0.0, 0.0, 0.0, 0.0, 0.0, 0.0, 0.0, 0.0, 0.0, 0.0, 0.0, 0.0, 0.0, 0.0, 0.0, 0.0, 0.0, 0.0, 0.0, 0.0, 0.0, 0.0, 0.0, 0.0, 0.0, 0.0, 0.0, 0.0, 0.0, 0.0, 0.0, 0.0, 0.0, 0.0, 0.0, 0.0, 0.0, 0.0, 0.0, 0.0, 0.0, 0.0, 0.0, 0.0, 0.0, 0.0, 0.0, 0.0, 0.0, 0.0, 0.0, 0.0, 0.0, 0.0, 0.0],
  "Shots": 4096,
  "Size": 11,
  "Total Algorithm duration [s]": 1.168,
  "Total Classic duration [s]": 1.1272698499436664,
  "Total Quantum duration [s]": 0.040730150056333514
}
