{
  "Circuit execution durations [ms]": [0.24339999799849465, 0.1522999991721008, 0.15319999874918722, 0.14864999684505165, 0.1555499984533526, 0.15870000061113387, 0.1504500032751821, 0.19284999871160835, 0.15209999764920212, 0.15624999650754035, 0.1494999960414134, 0.15080000230227597, 0.15159999747993425, 0.1527500025986228, 0.1514999967184849, 0.1508999957877677, 0.15759999951114878, 0.1579000017954968, 0.1867500031949021, 0.15239999993355013, 0.15179999900283292, 0.14939999891794287, 0.15255000107572414, 0.15390000044135377, 0.1541500023449771, 0.15269999494194053, 0.15519999942625873, 0.18710000222199596, 0.15139999959501438, 0.15350000103353523, 0.14940000255592167, 0.1510499969299417, 0.15094999980647117, 0.1569500018376857, 0.1526000014564488, 0.1504499996372033, 0.15099999654921703, 0.1501500009908341, 0.152449996676296, 0.1487500012444798, 0.14955000006011687, 0.20150000273133628, 0.15270000221789815, 0.1512000017100945, 0.16265000158455223, 0.15714999608462676, 0.18984999769600108, 0.15180000264081173, 0.18205000378657132, 0.16050000340328552, 0.15675000031478703, 0.1568000006955117, 0.15094999980647117, 0.14840000221738592, 0.1551000023027882, 0.20040000526933, 0.152749998960644, 0.15175000226008706, 0.15070000154082663, 0.16200000391108915, 0.15350000103353523, 0.15314999836846255, 0.23644999237149023, 0.3095499996561557, 0.21669999841833487, 0.2119999990100041, 0.15789999451953918, 0.15895000251475722, 0.1551000023027882, 0.19070000416832045, 0.14679999731015414, 0.15174999862210825, 0.16134999896166846, 0.1512000017100945, 0.14980000196374021, 0.14914999701431952, 0.14830000145593658, 0.1614499997231178, 0.1579000017954968, 0.2005499991355464, 0.15319999874918722, 0.15235000319080427, 0.1517000018793624, 0.15309999798773788, 0.15065000116010197, 0.15875000099185854, 0.1496499971835874, 0.1676499960012734, 0.18050000653602183, 0.15195000014500692, 0.14894999912939966, 0.15035000251373276, 0.15150000035646372, 0.14945000293664634, 0.14955000006011687, 0.14804999955231324, 0.14849999934085645, 0.1883999939309433, 0.15195000378298573, 0.15580000035697594, 0.1586500002304092, 0.1752499956637621, 0.15870000061113387, 0.1570999993418809, 0.15500000154133886, 0.15419999544974416, 0.13949999993201345, 0.15344999701483175, 0.15390000044135377, 0.1468499976908788, 0.14740000187885016, 0.14569999984814785, 0.14980000196374021, 0.1472000003559515, 0.1468499976908788, 0.1472000039939303, 0.14689999807160348, 0.15270000221789815, 0.14564999582944438, 0.15440000424860045, 0.1462499967601616, 0.1554000009491574, 0.14799999917158857, 0.14694999845232815, 0.14680000094813295, 0.14659999942523427, 0.20485000277403742, 0.1496499971835874, 0.1511999980721157, 0.149200001033023, 0.1313499960815534, 0.15110000094864517, 0.14914999701431952, 0.15029999849502929, 0.1569500018376857, 0.19020000036107376, 0.22714999431627803, 0.15180000264081173, 0.1535499977762811, 0.1549500011606142, 0.15755000276840292, 0.14894999912939966, 0.1477999976486899, 0.16060000052675605, 0.18724999972619116, 0.14770000052521937, 0.15209999764920212, 0.16820000018924475, 0.14740000187885016, 0.14790000204811804, 0.15205000090645626, 0.14879999798722565, 0.15470000289496966, 0.18969999291584827, 0.20650000078603625, 0.1555499984533526, 0.15205000454443507, 0.15624999650754035, 0.14789999841013923, 0.15050000001792796, 0.15150000035646372, 0.1974500046344474, 0.15084999904502183, 0.14599999849451706, 0.14740000187885016, 0.1453000004403293, 0.1476500037824735, 0.1464000015403144, 0.18244999591843225, 0.14929999815649353, 0.14620000001741573, 0.20930000391672365, 0.1493499985372182, 0.14840000221738592, 0.14960000407882035, 0.15139999959501438, 0.14770000416319817, 0.1497999983257614, 0.14675000056740828, 0.15224999879137613, 0.1494999996793922, 0.16755000251578167, 0.16245000006165355, 0.19039999824599363, 0.14915000065229833, 0.14989999908721074, 0.15504999828408472, 0.15545000496786088, 0.149049999890849, 0.22184999397723004, 0.188749996596016, 0.1507499982835725, 0.14695000209030695, 0.15729999722680077, 0.1510500005679205, 0.14634999752161093, 0.14789999841013923, 0.15054999676067382, 0.1872000066214241, 0.15144999633776024, 0.14865000048303045, 0.14970000120229088, 0.1504500032751821, 0.14865000048303045, 0.15069999790284783, 0.1501500009908341, 0.154800003656419, 0.16180000238819048, 0.15329999951063655, 0.18090000230586156, 0.15189999612630345, 0.14939999891794287, 0.15180000264081173, 0.23564999719383195, 0.3333500135340728, 0.17565000598551705, 0.3573499998310581, 0.1603499986231327, 0.14974999794503674, 0.15019999773357995, 0.14910000027157366, 0.1473500014981255, 0.16554999820073135, 0.1485499960836023, 0.15284999972209334, 0.14844999896013178, 0.14804999591433443, 0.1482500010752119, 0.14700000247103162, 0.1812999944377225, 0.15305000124499202, 0.14729999747942202, 0.14739999824087135, 0.15714999608462676, 0.15419999908772297, 0.15294999684556387, 0.24944999677245505, 0.15580000035697594, 0.14899999951012433, 0.14590000137104653, 0.1506000044173561, 0.14840000221738592, 0.1866000020527281, 0.34425000194460154, 0.15179999900283292, 0.15079999866429716, 0.1487500012444798, 0.14880000162520446, 0.1482499974372331, 0.148899998748675, 0.1556999995955266, 0.18414999794913456, 0.15770000027259812, 0.1465499990445096, 0.15155000073718838, 0.1483999985794071, 0.14999999984866008, 0.15224999879137613, 0.14834999819868244, 0.15295000048354268, 0.1885999990918208, 0.1500999969721306, 0.14650000230176374, 0.1545999948575627, 0.15085000268300064, 0.15034999887575395, 0.148899998748675, 0.2029999959631823, 0.1563500009069685, 0.18774999989545904, 0.167199999850709],
  "Depth": 2.0,
  "Expectation Value": -6.403650760650635,
  "Optimal Expectation Value": -6.403900146484375,
  "Optimizer durations [ms]": [6.235, 4.371, 4.211, 4.108, 4.275, 4.304, 4.143, 5.087, 4.236, 4.268, 4.129, 4.157, 4.227, 4.127, 4.192, 4.233, 4.342, 4.384, 4.92, 4.232, 4.17, 4.226, 4.16, 4.194, 4.406, 4.271, 4.261, 4.925, 4.204, 4.221, 4.193, 4.172, 4.155, 4.394, 4.332, 4.211, 4.19, 4.754, 4.209, 4.109, 4.118, 5.176, 4.292, 4.134, 4.645, 4.231, 4.984, 4.182, 4.862, 4.567, 4.405, 4.364, 4.166, 4.14, 4.299, 5.129, 4.162, 4.098, 4.149, 4.477, 4.222, 4.188, 5.839, 17.614, 6.521, 6.209, 4.4, 4.41, 4.274, 4.92, 4.103, 4.199, 4.376, 4.173, 4.128, 4.13, 4.227, 4.339, 4.342, 5.268, 4.247, 4.167, 4.14, 4.171, 4.148, 4.366, 4.132, 4.464, 4.727, 4.17, 4.064, 4.216, 4.182, 4.143, 4.12, 4.093, 4.129, 5.064, 4.234, 4.287, 4.474, 4.683, 4.462, 4.303, 4.303, 4.275, 3.994, 4.997, 4.388, 4.095, 4.129, 4.081, 4.185, 4.107, 4.136, 4.165, 5.049, 4.335, 4.086, 4.251, 4.011, 4.294, 4.108, 4.148, 4.105, 4.095, 5.216, 4.235, 4.168, 4.166, 6.859, 4.856, 4.272, 4.182, 4.367, 4.986, 5.418, 4.454, 4.217, 4.302, 4.444, 4.152, 4.169, 4.465, 4.972, 4.205, 4.277, 4.527, 4.126, 4.128, 4.303, 4.179, 4.367, 5.065, 5.295, 4.376, 4.168, 4.345, 4.028, 4.183, 4.309, 5.145, 4.229, 4.058, 4.172, 4.09, 4.135, 4.095, 5.306, 4.155, 4.089, 5.273, 4.241, 4.101, 4.18, 4.217, 4.11, 4.1, 4.242, 4.232, 4.14, 4.55, 4.449, 5.067, 4.196, 4.233, 4.343, 4.326, 4.147, 5.419, 5.048, 4.371, 4.135, 4.393, 4.222, 4.094, 4.135, 4.095, 4.92, 4.32, 3.999, 4.247, 4.2, 4.339, 4.185, 4.163, 4.276, 4.399, 4.131, 4.803, 4.334, 4.236, 4.26, 5.633, 8.156, 7.378, 9.155, 4.662, 4.214, 4.186, 4.143, 4.161, 4.597, 4.788, 4.313, 4.125, 4.19, 4.164, 4.102, 4.826, 4.275, 4.093, 4.121, 4.392, 4.858, 4.362, 5.843, 4.558, 4.161, 4.128, 4.249, 4.125, 4.955, 10.827, 4.292, 4.198, 4.15, 4.163, 4.126, 4.153, 4.409, 4.838, 4.4, 4.121, 4.18, 4.153, 4.204, 4.363, 4.149, 4.297, 4.998, 4.209, 4.115, 4.287, 4.246, 4.075, 4.149, 5.285, 4.375, 4.988, 4.624],
  "Optimizer iterations": 271,
  "Optimizer params": [4.163336342344337e-17, 0.50300909975967, 0.004317469448942478, 0.501067689840919, 0.5000657117619427, 1.0, 0.4998243430538631, 0.4990838137178092, 0.0021073341762557823, 0.5008451091721133, 0.006786934492523232],
  "P": 0,
  "Problem": "RH",
  "QJob durations [ms]": [0.24339999799849465, 0.1522999991721008, 0.15319999874918722, 0.14864999684505165, 0.1555499984533526, 0.15870000061113387, 0.1504500032751821, 0.19284999871160835, 0.15209999764920212, 0.15624999650754035, 0.1494999960414134, 0.15080000230227597, 0.15159999747993425, 0.1527500025986228, 0.1514999967184849, 0.1508999957877677, 0.15759999951114878, 0.1579000017954968, 0.1867500031949021, 0.15239999993355013, 0.15179999900283292, 0.14939999891794287, 0.15255000107572414, 0.15390000044135377, 0.1541500023449771, 0.15269999494194053, 0.15519999942625873, 0.18710000222199596, 0.15139999959501438, 0.15350000103353523, 0.14940000255592167, 0.1510499969299417, 0.15094999980647117, 0.1569500018376857, 0.1526000014564488, 0.1504499996372033, 0.15099999654921703, 0.1501500009908341, 0.152449996676296, 0.1487500012444798, 0.14955000006011687, 0.20150000273133628, 0.15270000221789815, 0.1512000017100945, 0.16265000158455223, 0.15714999608462676, 0.18984999769600108, 0.15180000264081173, 0.18205000378657132, 0.16050000340328552, 0.15675000031478703, 0.1568000006955117, 0.15094999980647117, 0.14840000221738592, 0.1551000023027882, 0.20040000526933, 0.152749998960644, 0.15175000226008706, 0.15070000154082663, 0.16200000391108915, 0.15350000103353523, 0.15314999836846255, 0.23644999237149023, 0.3095499996561557, 0.21669999841833487, 0.2119999990100041, 0.15789999451953918, 0.15895000251475722, 0.1551000023027882, 0.19070000416832045, 0.14679999731015414, 0.15174999862210825, 0.16134999896166846, 0.1512000017100945, 0.14980000196374021, 0.14914999701431952, 0.14830000145593658, 0.1614499997231178, 0.1579000017954968, 0.2005499991355464, 0.15319999874918722, 0.15235000319080427, 0.1517000018793624, 0.15309999798773788, 0.15065000116010197, 0.15875000099185854, 0.1496499971835874, 0.1676499960012734, 0.18050000653602183, 0.15195000014500692, 0.14894999912939966, 0.15035000251373276, 0.15150000035646372, 0.14945000293664634, 0.14955000006011687, 0.14804999955231324, 0.14849999934085645, 0.1883999939309433, 0.15195000378298573, 0.15580000035697594, 0.1586500002304092, 0.1752499956637621, 0.15870000061113387, 0.1570999993418809, 0.15500000154133886, 0.15419999544974416, 0.13949999993201345, 0.15344999701483175, 0.15390000044135377, 0.1468499976908788, 0.14740000187885016, 0.14569999984814785, 0.14980000196374021, 0.1472000003559515, 0.1468499976908788, 0.1472000039939303, 0.14689999807160348, 0.15270000221789815, 0.14564999582944438, 0.15440000424860045, 0.1462499967601616, 0.1554000009491574, 0.14799999917158857, 0.14694999845232815, 0.14680000094813295, 0.14659999942523427, 0.20485000277403742, 0.1496499971835874, 0.1511999980721157, 0.149200001033023, 0.1313499960815534, 0.15110000094864517, 0.14914999701431952, 0.15029999849502929, 0.1569500018376857, 0.19020000036107376, 0.22714999431627803, 0.15180000264081173, 0.1535499977762811, 0.1549500011606142, 0.15755000276840292, 0.14894999912939966, 0.1477999976486899, 0.16060000052675605, 0.18724999972619116, 0.14770000052521937, 0.15209999764920212, 0.16820000018924475, 0.14740000187885016, 0.14790000204811804, 0.15205000090645626, 0.14879999798722565, 0.15470000289496966, 0.18969999291584827, 0.20650000078603625, 0.1555499984533526, 0.15205000454443507, 0.15624999650754035, 0.14789999841013923, 0.15050000001792796, 0.15150000035646372, 0.1974500046344474, 0.15084999904502183, 0.14599999849451706, 0.14740000187885016, 0.1453000004403293, 0.1476500037824735, 0.1464000015403144, 0.18244999591843225, 0.14929999815649353, 0.14620000001741573, 0.20930000391672365, 0.1493499985372182, 0.14840000221738592, 0.14960000407882035, 0.15139999959501438, 0.14770000416319817, 0.1497999983257614, 0.14675000056740828, 0.15224999879137613, 0.1494999996793922, 0.16755000251578167, 0.16245000006165355, 0.19039999824599363, 0.14915000065229833, 0.14989999908721074, 0.15504999828408472, 0.15545000496786088, 0.149049999890849, 0.22184999397723004, 0.188749996596016, 0.1507499982835725, 0.14695000209030695, 0.15729999722680077, 0.1510500005679205, 0.14634999752161093, 0.14789999841013923, 0.15054999676067382, 0.1872000066214241, 0.15144999633776024, 0.14865000048303045, 0.14970000120229088, 0.1504500032751821, 0.14865000048303045, 0.15069999790284783, 0.1501500009908341, 0.154800003656419, 0.16180000238819048, 0.15329999951063655, 0.18090000230586156, 0.15189999612630345, 0.14939999891794287, 0.15180000264081173, 0.23564999719383195, 0.3333500135340728, 0.17565000598551705, 0.3573499998310581, 0.1603499986231327, 0.14974999794503674, 0.15019999773357995, 0.14910000027157366, 0.1473500014981255, 0.16554999820073135, 0.1485499960836023, 0.15284999972209334, 0.14844999896013178, 0.14804999591433443, 0.1482500010752119, 0.14700000247103162, 0.1812999944377225, 0.15305000124499202, 0.14729999747942202, 0.14739999824087135, 0.15714999608462676, 0.15419999908772297, 0.15294999684556387, 0.24944999677245505, 0.15580000035697594, 0.14899999951012433, 0.14590000137104653, 0.1506000044173561, 0.14840000221738592, 0.1866000020527281, 0.34425000194460154, 0.15179999900283292, 0.15079999866429716, 0.1487500012444798, 0.14880000162520446, 0.1482499974372331, 0.148899998748675, 0.1556999995955266, 0.18414999794913456, 0.15770000027259812, 0.1465499990445096, 0.15155000073718838, 0.1483999985794071, 0.14999999984866008, 0.15224999879137613, 0.14834999819868244, 0.15295000048354268, 0.1885999990918208, 0.1500999969721306, 0.14650000230176374, 0.1545999948575627, 0.15085000268300064, 0.15034999887575395, 0.148899998748675, 0.2029999959631823, 0.1563500009069685, 0.18774999989545904, 0.167199999850709],
  "QPU": "7000000",
  "Qubits": 11,
  "Queue durations [ms]": [0.0, 0.0, 0.0, 0.0, 0.0, 0.0, 0.0, 0.0, 0.0, 0.0, 0.0, 0.0, 0.0, 0.0, 0.0, 0.0, 0.0, 0.0, 0.0, 0.0, 0.0, 0.0, 0.0, 0.0, 0.0, 0.0, 0.0, 0.0, 0.0, 0.0, 0.0, 0.0, 0.0, 0.0, 0.0, 0.0, 0.0, 0.0, 0.0, 0.0, 0.0, 0.0, 0.0, 0.0, 0.0, 0.0, 0.0, 0.0, 0.0, 0.0, 0.0, 0.0, 0.0, 0.0, 0.0, 0.0, 0.0, 0.0, 0.0, 0.0, 0.0, 0.0, 0.0, 0.0, 0.0, 0.0, 0.0, 0.0, 0.0, 0.0, 0.0, 0.0, 0.0, 0.0, 0.0, 0.0, 0.0, 0.0, 0.0, 0.0, 0.0, 0.0, 0.0, 0.0, 0.0, 0.0, 0.0, 0.0, 0.0, 0.0, 0.0, 0.0, 0.0, 0.0, 0.0, 0.0, 0.0, 0.0, 0.0, 0.0, 0.0, 0.0, 0.0, 0.0, 0.0, 0.0, 0.0, 0.0, 0.0, 0.0, 0.0, 0.0, 0.0, 0.0, 0.0, 0.0, 0.0, 0.0, 0.0, 0.0, 0.0, 0.0, 0.0, 0.0, 0.0, 0.0, 0.0, 0.0, 0.0, 0.0, 0.0, 0.0, 0.0, 0.0, 0.0, 0.0, 0.0, 0.0, 0.0, 0.0, 0.0, 0.0, 0.0, 0.0, 0.0, 0.0, 0.0, 0.0, 0.0, 0.0, 0.0, 0.0, 0.0, 0.0, 0.0, 0.0, 0.0, 0.0, 0.0, 0.0, 0.0, 0.0, 0.0, 0.0, 0.0, 0.0, 0.0, 0.0, 0.0, 0.0, 0.0, 0.0, 0.0, 0.0, 0.0, 0.0, 0.0, 0.0, 0.0, 0.0, 0.0, 0.0, 0.0, 0.0, 0.0, 0.0, 0.0, 0.0, 0.0, 0.0, 0.0, 0.0, 0.0, 0.0, 0.0, 0.0, 0.0, 0.0, 0.0, 0.0, 0.0, 0.0, 0.0, 0.0, 0.0, 0.0, 0.0, 0.0, 0.0, 0.0, 0.0, 0.0, 0.0, 0.0, 0.0, 0.0, 0.0, 0.0, 0.0, 0.0, 0.0, 0.0, 0.0, 0.0, 0.0, 0.0, 0.0, 0.0, 0.0, 0.0, 0.0, 0.0, 0.0, 0.0, 0.0, 0.0, 0.0, 0.0, 0.0, 0.0, 0.0, 0.0, 0.0, 0.0, 0.0, 0.0, 0.0, 0.0, 0.0, 0.0, 0.0, 0.0, 0.0, 0.0, 0.0, 0.0, 0.0, 0.0, 0.0, 0.0, 0.0, 0.0, 0.0, 0.0, 0.0, 0.0, 0.0, 0.0, 0.0, 0.0, 0.0],
  "Shots": 4096,
  "Size": 11,
  "Total Algorithm duration [s]": 1.222,
  "Total Classic duration [s]": 1.1783076000304136,
  "Total Quantum duration [s]": 0.043692399969586404
}
