{
  "Circuit execution durations [ms]": [0.2562500012572855, 0.25630000163801014, 0.25440000172238797, 0.2560500070103444, 0.24375000066356733, 0.29874999017920345, 0.26190000062342733, 0.2535499952500686, 0.2540499990573153, 0.24824999854899943, 0.24639999901410192, 0.2447500082780607, 0.25299999106209725, 0.2469000028213486, 0.24364999262616038, 0.24819999816827476, 0.2420999953756109, 0.28730000485666096, 0.24480000138282776, 0.26384998636785895, 0.24570000095991418, 0.2708000029087998, 0.24355000641662627, 0.24545000633224845, 0.2531999925849959, 0.24839999969117343, 0.2448499944875948, 0.25090000417549163, 0.26599998818710446, 0.2681500045582652, 0.2552499936427921, 0.2523000002838671, 0.24760000815149397, 0.2840999950421974, 0.24554999981774017, 0.25100000493694097, 0.2512500068405643, 0.2484500000718981, 0.2560499997343868, 0.24775000201771036, 0.24710000434424728, 0.2576000115368515, 0.2519999979995191, 0.2489500038791448, 0.2528000040911138, 0.2466000005370006, 0.2565500035416335, 0.2459499955875799, 0.2509500045562163, 0.24559999292250723, 0.2596499980427325, 0.25159999495372176, 0.2571000004536472, 0.258550004218705, 0.240100001974497, 0.25024999922607094, 0.26354999863542616, 0.2570000069681555, 0.25350000942125916, 0.2456500005791895, 0.25085000379476696, 0.2564000023994595, 0.2466000005370006, 0.2460000032442622, 0.2537499967729673, 0.2450499960104935, 0.26899999647866935, 0.24500000290572643, 0.24554999981774017, 0.24834999203449115, 0.24470000062137842, 0.261649998719804, 0.25540000933688134, 0.24539999867556617, 0.25195000489475206, 0.25314999220427126, 0.24405000294791535, 0.24884998856578022, 0.24629999825265259, 0.23850000434322283, 0.2524499941500835, 0.247349998971913, 0.2442499971948564, 0.25320000713691115, 0.2474999928381294, 0.2486000012140721, 0.24680000933585688, 0.2449000021442771, 0.2503499999875203, 0.25024999922607094, 0.24580000172136351, 0.24524999753339216, 0.24529999791411683, 0.24980001035146415, 0.25185001140926033, 0.2491000050213188, 0.2451999971526675, 0.2486000012140721, 0.2531999925849959, 0.402899990149308, 0.2501499984646216, 0.2554499951656908, 0.25240000104531646, 0.2520499983802438, 0.2714000002015382, 0.2546499890740961, 0.2509500045562163, 0.25129999994533136, 0.25289999757660553, 0.2554499951656908, 0.2180500014219433, 0.2482999989297241, 0.24995001149363816, 0.24590000248281285, 0.24585000210208818, 0.25164999533444643, 0.24634999135741964, 0.25009999808389693, 0.24619999021524563, 0.24470000062137842, 0.24855000810930505, 0.243649999902118, 0.3677000058814883, 0.25350000942125916, 0.25120000645983964, 0.24410000332864001, 0.25645000278018415, 0.24729999859118834, 0.2448499944875948, 0.2590500080259517, 0.24920000578276813, 0.2467500016791746, 0.24935000692494214, 0.2491999912308529, 0.2900500039686449, 0.2567000046838075, 0.24590000248281285, 0.25195000489475206, 0.2439499949105084, 0.25925000954885036, 0.24635000590933487, 0.25114999880315736, 0.2524500014260411, 0.24614999711047858, 0.24924999888753518, 0.24745000700931996, 0.24635000590933487, 0.24975000269478187, 0.24855000083334744, 0.24495000252500176, 0.2463000055286102, 0.24205000227084383, 0.2548000047681853, 0.2525999952922575, 0.25010000535985455, 0.24510000366717577, 0.24920000578276813, 0.24540000595152378, 0.2845499984687194, 0.24470000062137842, 0.243800001044292, 0.255000006291084, 0.24640000629005954, 0.2464499993948266, 0.24525000480934978, 0.25240000832127407, 0.25215000641765073, 0.25099999766098335, 0.24900000425986946, 0.2595999976620078, 0.25105000531766564, 0.25174999609589577, 0.25100000493694097, 0.24359999224543571, 0.28155000472906977, 0.2513999934308231, 0.2463000055286102, 0.2471999905537814, 0.2510999911464751, 0.25520000053802505, 0.25385001208633184, 0.2489500038791448, 0.250149991188664, 0.24259999918285757, 0.26250000519212335, 0.24680000205989927, 0.25070000265259296, 0.24804999702610075, 0.2524500014260411, 0.25224999990314245, 0.24924999888753518, 0.24974999541882426, 0.25025000650202855, 0.24680000205989927, 0.24710000434424728, 0.24354999914066866, 0.25019999884534627, 0.2530999990995042, 0.24735000624787062, 0.253999991400633, 0.24580000172136351, 0.2451999971526675, 0.26074999914271757, 0.25430000096093863, 0.26640000578481704, 0.2638500081957318, 0.25209999876096845, 0.25240000104531646, 0.2418000003672205, 0.24894999660318717, 0.2475500077707693, 0.25179999647662044, 0.251049998041708, 0.24500000290572643, 0.24794999626465142, 0.2649000016390346, 0.2464500066707842, 0.25485000514891, 0.25054999423446134, 0.2443999983370304, 0.25425000058021396, 0.24964999465737492, 0.27075000252807513, 0.25534999440424144, 0.25290000485256314, 0.25785000616451725, 0.246899995545391, 0.2474000066285953, 0.24774999474175274, 0.24560000019846484, 0.24234999727923423, 0.24644999211886898, 0.2514000007067807, 0.2477000089129433, 0.2508999896235764, 0.3117500018561259, 0.25535000895615667, 0.356099997588899, 0.2527499891584739, 0.24524999025743455, 0.25349999486934394, 0.24190000112866983, 0.24610000400571153, 0.24804999702610075, 0.24920000578276813, 0.25135000760201365, 0.25040000036824495, 0.24900000425986946, 0.25749999622348696, 0.24729999859118834, 0.2528000040911138, 0.2443999983370304, 0.24924999888753518, 0.26274999254383147, 0.24495000252500176, 0.2456500005791895, 0.24924999161157757, 0.25705000007292256, 0.2538499975344166, 0.2487499950802885, 0.2486500088707544, 0.2484500000718981, 0.24540000595152378, 0.2460999967297539, 0.25224999990314245, 0.24410001060459763, 0.2531500067561865, 0.24624999787192792, 0.258100000792183, 0.2500000045984052, 0.24794999626465142, 0.25919999461621046, 0.24979999579954892, 0.2540499990573153, 0.24614999711047858, 0.24474999372614548, 0.24709999706828967, 0.24819999816827476, 0.24149999808287248, 0.25510000705253333, 0.24800001119729131, 0.2501499984646216, 0.24774999474175274, 0.24655000015627593, 0.2480000039213337, 0.24494999524904415, 0.24730000586714596, 0.2412000103504397, 0.24400000256719068, 0.24525000480934978, 0.2453500055707991, 0.24624999787192792, 0.24454999947920442, 0.2461500043864362, 0.2522999930079095, 0.24639999901410192, 0.24625000514788553, 0.2509499972802587, 0.24169999960577115, 0.2452000044286251, 0.2460999894537963, 0.25425000058021396, 0.2590999938547611, 0.2475500077707693, 0.2482999989297241, 0.2558499982114881, 0.24804999702610075, 0.24685000244062394, 0.2526500029489398, 0.24499999562976882, 0.2514999941922724, 0.24774999474175274, 0.25749999622348696, 0.26020000223070383, 0.24650000705150887, 0.24319999647559598, 0.26700000307755545, 0.24544999905629084, 0.24459999258397147, 0.25400001322850585, 0.25769999774638563, 0.25015001301653683, 0.24995001149363816, 0.24744999973336235, 0.22774999524699524, 0.24310000299010426, 0.2800000074785203, 0.24580000899732113, 0.2515499945729971, 0.24869999469956383, 0.24915000540204346, 0.2456500005791895, 0.2471999905537814, 0.24015000235522166, 0.2508000034140423, 0.24794999626465142, 0.2460999967297539, 0.2539999986765906, 0.2538999979151413, 0.25475000438746065, 0.25055000151041895, 0.24450000637443736, 0.24994999694172293, 0.2508000034140423, 0.2614499971969053, 0.24509999639121816, 0.24809999740682542, 0.24485000176355243, 0.24994999694172293, 0.24529999063815922, 0.26390000857645646, 0.24584999482613057, 0.247349998971913, 0.24434999795630574, 0.25079998886212707, 0.25024999922607094, 0.24979999579954892, 0.25379999715369195, 0.24820001272019, 0.247199997829739, 0.24465000024065375, 0.2491000050213188, 0.24880000273697078, 0.2514000007067807, 0.24789999588392675, 0.24759999359957874, 0.24900000425986946, 0.2523500006645918, 0.24994999694172293, 0.25599999935366213, 0.24924999888753518, 0.2550999925006181, 0.24364999262616038, 0.2507500030333176, 0.25615000049583614, 0.2515500091249123, 0.25484999059699476, 0.24920000578276813, 0.25084998924285173, 0.2433500048937276, 0.25070000265259296, 0.2480000039213337, 0.24890000349842012, 0.24554999254178256, 0.2456500005791895, 0.2536999963922426, 0.2791500082821585, 0.24890000349842012, 0.2530499914428219, 0.2512499922886491, 0.2426999999443069, 0.25440000172238797, 0.24905000464059412, 0.2494999935152009, 0.24625000514788553, 0.25749999622348696, 0.2537499967729673, 0.24290000146720558, 0.2515499945729971, 0.2744000084931031, 0.38184998993529007, 0.2882999979192391, 0.24670000129844993, 0.24625000514788553, 0.2487500023562461, 0.2495500084478408, 0.2617499994812533, 0.24710000434424728, 0.24839999969117343, 0.24730000586714596, 0.24724999821046367, 0.251300007221289, 0.2475500077707693, 0.2523000002838671, 0.2532499929657206, 0.2518499968573451, 0.24715000472497195, 0.24819999816827476, 0.25320000713691115, 0.25209999876096845, 0.24979999579954892, 0.2530000056140125, 0.2494000073056668, 0.24800001119729131, 0.24850000045262277, 0.2478500027791597, 0.25800000003073364, 0.2528000040911138, 0.247349998971913, 0.24665000091772527, 0.24745000700931996, 0.251450008363463, 0.24370000028284267, 0.24699999630684033, 0.25194999761879444, 0.24239999038400128, 0.25209999876096845, 0.25800000003073364, 0.25084998924285173, 0.24850000045262277, 0.25004999770317227, 0.2478500100551173, 0.2459499955875799, 0.2520499983802438, 0.24359999952139333, 0.24449999909847975, 0.24530000519007444, 0.24885000311769545, 0.25135000032605603, 0.24974999541882426, 0.36460001138038933, 0.25069998810067773, 0.2677000011317432, 0.24385000142501667, 0.25180000375257805, 0.24554999981774017, 0.2520499983802438, 0.24745000700931996, 0.2550999925006181, 0.24454999947920442, 0.2484500000718981, 0.24729999859118834, 0.24619999749120325, 0.2488999962224625, 0.246899995545391, 0.26440000510774553, 0.2519000045140274, 0.24744999245740473, 0.24050000502029434, 0.25200001255143434, 0.27540000155568123, 0.2628999936860055, 0.2494999935152009, 0.2482999989297241, 0.25690000620670617, 0.27304999821353704, 0.24614999711047858, 0.3036499983863905, 0.24934999964898452, 0.24489999486831948, 0.2531000063754618, 0.24950000806711614, 0.2531999925849959, 0.25779999850783497, 0.25004999770317227, 0.24655000743223354, 0.2528000040911138, 0.2937500030384399, 0.24885000311769545, 0.2524500014260411, 0.25040000036824495, 0.2518500041333027, 0.25519999326206744, 0.24744999973336235, 0.24629999825265259, 0.246899995545391, 0.25794999237405136, 0.26235000404994935, 0.24190000840462744, 0.2700000040931627, 0.25290000485256314, 0.2474999928381294, 0.261649998719804, 0.2448499944875948, 0.247049996687565, 0.25719999393913895, 0.2506500022718683, 0.24470000062137842, 0.2524500014260411, 0.24780000967439264, 0.2564000023994595, 0.24915000540204346, 0.24145000497810543, 0.24759999359957874, 0.24374999338760972, 0.24465000751661137, 0.24139999732142314, 0.2451999971526675, 0.2446999933454208, 0.24539999867556617],
  "Depth": 12.5,
  "Expectation Value": -5.632696628570557,
  "Optimal Expectation Value": -6.026674270629883,
  "Optimizer durations [ms]": [13.369, 6.321, 6.03, 6.017, 5.895, 6.971, 6.418, 5.903, 6.145, 5.814, 6.152, 5.872, 5.982, 5.667, 5.884, 6.104, 6.014, 6.657, 5.742, 6.085, 6.151, 6.32, 5.791, 6.181, 6.073, 6.068, 5.811, 5.875, 6.327, 6.307, 5.943, 6.168, 5.885, 6.789, 5.958, 5.906, 6.046, 5.549, 6.449, 5.82, 5.986, 6.51, 6.0, 6.481, 6.071, 5.758, 6.111, 6.075, 6.061, 5.886, 6.058, 5.959, 6.103, 6.037, 5.848, 6.148, 6.107, 6.371, 5.952, 6.113, 6.12, 6.207, 5.88, 5.686, 6.067, 5.751, 6.502, 6.151, 5.906, 5.739, 5.944, 6.375, 6.063, 5.58, 6.014, 6.153, 5.607, 6.127, 5.953, 7.735, 6.212, 5.741, 5.743, 6.192, 6.175, 12.553, 5.786, 6.118, 5.977, 6.624, 6.025, 6.19, 5.986, 5.953, 6.158, 6.023, 5.97, 5.957, 5.786, 17.738, 5.832, 6.052, 6.491, 5.927, 6.468, 6.077, 6.135, 5.915, 6.193, 5.991, 18.178, 6.019, 5.875, 5.706, 6.069, 6.076, 7.917, 5.815, 6.314, 5.761, 6.079, 21.642, 8.471, 6.153, 5.913, 10.261, 6.252, 5.766, 5.957, 6.168, 5.917, 6.037, 5.85, 5.732, 6.854, 6.281, 5.787, 5.961, 5.95, 6.181, 5.945, 5.835, 6.214, 6.003, 5.896, 5.892, 5.793, 6.168, 5.724, 5.935, 5.77, 5.806, 6.207, 6.161, 5.883, 15.75, 6.099, 6.087, 6.625, 5.598, 6.093, 6.31, 5.97, 5.62, 5.836, 6.23, 5.929, 6.178, 5.723, 6.236, 6.162, 5.888, 6.121, 5.65, 6.671, 6.201, 6.046, 6.004, 6.113, 6.073, 6.226, 5.891, 5.916, 5.927, 6.119, 6.208, 6.032, 5.751, 6.228, 5.703, 6.226, 5.916, 6.106, 5.809, 6.175, 5.613, 6.174, 6.166, 5.672, 6.222, 6.093, 6.057, 6.18, 6.079, 6.237, 6.242, 6.217, 5.979, 6.118, 5.948, 5.955, 5.727, 6.13, 6.082, 5.8, 6.158, 6.2, 6.176, 6.111, 5.761, 6.296, 6.014, 6.19, 5.843, 6.088, 6.418, 5.564, 6.448, 5.706, 5.819, 6.219, 5.794, 5.964, 5.96, 5.953, 6.928, 17.491, 8.664, 6.187, 5.792, 6.039, 5.977, 5.768, 5.954, 6.121, 6.023, 6.165, 5.929, 6.187, 5.859, 5.903, 6.181, 5.675, 6.078, 6.172, 5.92, 5.767, 6.271, 6.014, 6.077, 6.057, 6.035, 5.813, 5.998, 6.013, 5.847, 6.086, 5.749, 6.2, 6.075, 5.714, 6.36, 6.111, 5.979, 5.807, 6.154, 5.829, 5.824, 5.818, 6.304, 5.84, 6.143, 5.97, 5.706, 6.101, 6.133, 5.863, 7.442, 6.358, 5.895, 5.928, 5.863, 5.881, 5.794, 6.051, 6.173, 5.919, 5.593, 5.883, 5.853, 6.106, 6.171, 5.911, 6.348, 5.689, 6.177, 5.711, 6.085, 6.06, 5.917, 6.147, 6.03, 5.953, 6.241, 5.971, 5.679, 6.351, 14.642, 5.804, 5.907, 6.328, 6.029, 6.043, 6.168, 6.946, 5.83, 6.564, 6.195, 5.822, 6.178, 5.815, 5.955, 5.674, 6.043, 6.245, 5.784, 6.163, 6.231, 6.218, 6.256, 5.715, 6.001, 6.042, 5.868, 6.346, 5.687, 5.915, 6.014, 5.94, 5.607, 6.39, 5.803, 5.887, 5.993, 5.985, 6.026, 6.201, 5.717, 6.333, 5.743, 6.19, 6.142, 5.867, 6.355, 5.731, 6.094, 5.996, 6.083, 5.997, 6.149, 5.945, 6.04, 5.965, 6.158, 6.044, 6.005, 6.297, 6.089, 5.666, 5.926, 6.172, 5.993, 5.931, 5.936, 6.02, 6.059, 6.501, 6.074, 6.109, 5.811, 5.816, 6.326, 5.941, 5.809, 5.715, 6.317, 6.066, 5.808, 6.093, 12.184, 16.241, 6.83, 5.896, 6.106, 6.02, 5.706, 6.157, 6.088, 5.947, 6.308, 5.911, 5.947, 6.137, 6.114, 6.049, 5.914, 6.04, 5.738, 6.29, 6.052, 5.808, 6.265, 6.041, 5.869, 5.853, 5.972, 6.189, 6.045, 5.801, 5.855, 6.162, 5.883, 5.774, 5.79, 5.985, 6.06, 5.977, 6.245, 6.11, 5.704, 6.254, 5.874, 6.023, 5.767, 5.95, 6.293, 5.537, 6.171, 6.036, 5.741, 8.34, 6.016, 6.148, 5.771, 6.296, 6.11, 6.167, 6.129, 6.021, 5.881, 6.004, 5.816, 5.883, 6.063, 5.664, 6.352, 6.154, 5.92, 6.116, 5.802, 6.609, 6.263, 5.931, 6.159, 6.151, 6.265, 6.196, 7.087, 12.025, 6.085, 6.152, 5.924, 5.823, 6.342, 5.867, 5.802, 6.105, 7.077, 5.736, 6.171, 5.749, 6.19, 6.135, 5.846, 6.091, 5.689, 6.458, 6.125, 6.093, 6.497, 6.286, 5.864, 6.108, 6.164, 6.006, 6.172, 5.953, 5.97, 5.787, 6.319, 6.101, 5.895, 5.968, 5.677, 5.949, 6.01, 5.733, 5.682, 5.996, 5.892],
  "Optimizer iterations": 520,
  "Optimizer params": [0.9999999999999999, 0.4291210322621226, 0.9449420072117096, 0.07203680612253083, 0.9957915888378494, 0.010438413170317316, 0.4611426881248955, 0.9021374192993469, 0.4480046568217911, 0.825028296850684, 0.011712936687260204, 0.4866629165127155, 0.508232671765543, 0.9997182453462092, 0.0007312077792590426, 0.9519404394117242, 0.5796501106373017, 0.8849076570419755, 0.2099268734706698, 0.3388283215582584],
  "P": 0,
  "Problem": "IC",
  "QJob durations [ms]": [0.2562500012572855, 0.25630000163801014, 0.25440000172238797, 0.2560500070103444, 0.24375000066356733, 0.29874999017920345, 0.26190000062342733, 0.2535499952500686, 0.2540499990573153, 0.24824999854899943, 0.24639999901410192, 0.2447500082780607, 0.25299999106209725, 0.2469000028213486, 0.24364999262616038, 0.24819999816827476, 0.2420999953756109, 0.28730000485666096, 0.24480000138282776, 0.26384998636785895, 0.24570000095991418, 0.2708000029087998, 0.24355000641662627, 0.24545000633224845, 0.2531999925849959, 0.24839999969117343, 0.2448499944875948, 0.25090000417549163, 0.26599998818710446, 0.2681500045582652, 0.2552499936427921, 0.2523000002838671, 0.24760000815149397, 0.2840999950421974, 0.24554999981774017, 0.25100000493694097, 0.2512500068405643, 0.2484500000718981, 0.2560499997343868, 0.24775000201771036, 0.24710000434424728, 0.2576000115368515, 0.2519999979995191, 0.2489500038791448, 0.2528000040911138, 0.2466000005370006, 0.2565500035416335, 0.2459499955875799, 0.2509500045562163, 0.24559999292250723, 0.2596499980427325, 0.25159999495372176, 0.2571000004536472, 0.258550004218705, 0.240100001974497, 0.25024999922607094, 0.26354999863542616, 0.2570000069681555, 0.25350000942125916, 0.2456500005791895, 0.25085000379476696, 0.2564000023994595, 0.2466000005370006, 0.2460000032442622, 0.2537499967729673, 0.2450499960104935, 0.26899999647866935, 0.24500000290572643, 0.24554999981774017, 0.24834999203449115, 0.24470000062137842, 0.261649998719804, 0.25540000933688134, 0.24539999867556617, 0.25195000489475206, 0.25314999220427126, 0.24405000294791535, 0.24884998856578022, 0.24629999825265259, 0.23850000434322283, 0.2524499941500835, 0.247349998971913, 0.2442499971948564, 0.25320000713691115, 0.2474999928381294, 0.2486000012140721, 0.24680000933585688, 0.2449000021442771, 0.2503499999875203, 0.25024999922607094, 0.24580000172136351, 0.24524999753339216, 0.24529999791411683, 0.24980001035146415, 0.25185001140926033, 0.2491000050213188, 0.2451999971526675, 0.2486000012140721, 0.2531999925849959, 0.402899990149308, 0.2501499984646216, 0.2554499951656908, 0.25240000104531646, 0.2520499983802438, 0.2714000002015382, 0.2546499890740961, 0.2509500045562163, 0.25129999994533136, 0.25289999757660553, 0.2554499951656908, 0.2180500014219433, 0.2482999989297241, 0.24995001149363816, 0.24590000248281285, 0.24585000210208818, 0.25164999533444643, 0.24634999135741964, 0.25009999808389693, 0.24619999021524563, 0.24470000062137842, 0.24855000810930505, 0.243649999902118, 0.3677000058814883, 0.25350000942125916, 0.25120000645983964, 0.24410000332864001, 0.25645000278018415, 0.24729999859118834, 0.2448499944875948, 0.2590500080259517, 0.24920000578276813, 0.2467500016791746, 0.24935000692494214, 0.2491999912308529, 0.2900500039686449, 0.2567000046838075, 0.24590000248281285, 0.25195000489475206, 0.2439499949105084, 0.25925000954885036, 0.24635000590933487, 0.25114999880315736, 0.2524500014260411, 0.24614999711047858, 0.24924999888753518, 0.24745000700931996, 0.24635000590933487, 0.24975000269478187, 0.24855000083334744, 0.24495000252500176, 0.2463000055286102, 0.24205000227084383, 0.2548000047681853, 0.2525999952922575, 0.25010000535985455, 0.24510000366717577, 0.24920000578276813, 0.24540000595152378, 0.2845499984687194, 0.24470000062137842, 0.243800001044292, 0.255000006291084, 0.24640000629005954, 0.2464499993948266, 0.24525000480934978, 0.25240000832127407, 0.25215000641765073, 0.25099999766098335, 0.24900000425986946, 0.2595999976620078, 0.25105000531766564, 0.25174999609589577, 0.25100000493694097, 0.24359999224543571, 0.28155000472906977, 0.2513999934308231, 0.2463000055286102, 0.2471999905537814, 0.2510999911464751, 0.25520000053802505, 0.25385001208633184, 0.2489500038791448, 0.250149991188664, 0.24259999918285757, 0.26250000519212335, 0.24680000205989927, 0.25070000265259296, 0.24804999702610075, 0.2524500014260411, 0.25224999990314245, 0.24924999888753518, 0.24974999541882426, 0.25025000650202855, 0.24680000205989927, 0.24710000434424728, 0.24354999914066866, 0.25019999884534627, 0.2530999990995042, 0.24735000624787062, 0.253999991400633, 0.24580000172136351, 0.2451999971526675, 0.26074999914271757, 0.25430000096093863, 0.26640000578481704, 0.2638500081957318, 0.25209999876096845, 0.25240000104531646, 0.2418000003672205, 0.24894999660318717, 0.2475500077707693, 0.25179999647662044, 0.251049998041708, 0.24500000290572643, 0.24794999626465142, 0.2649000016390346, 0.2464500066707842, 0.25485000514891, 0.25054999423446134, 0.2443999983370304, 0.25425000058021396, 0.24964999465737492, 0.27075000252807513, 0.25534999440424144, 0.25290000485256314, 0.25785000616451725, 0.246899995545391, 0.2474000066285953, 0.24774999474175274, 0.24560000019846484, 0.24234999727923423, 0.24644999211886898, 0.2514000007067807, 0.2477000089129433, 0.2508999896235764, 0.3117500018561259, 0.25535000895615667, 0.356099997588899, 0.2527499891584739, 0.24524999025743455, 0.25349999486934394, 0.24190000112866983, 0.24610000400571153, 0.24804999702610075, 0.24920000578276813, 0.25135000760201365, 0.25040000036824495, 0.24900000425986946, 0.25749999622348696, 0.24729999859118834, 0.2528000040911138, 0.2443999983370304, 0.24924999888753518, 0.26274999254383147, 0.24495000252500176, 0.2456500005791895, 0.24924999161157757, 0.25705000007292256, 0.2538499975344166, 0.2487499950802885, 0.2486500088707544, 0.2484500000718981, 0.24540000595152378, 0.2460999967297539, 0.25224999990314245, 0.24410001060459763, 0.2531500067561865, 0.24624999787192792, 0.258100000792183, 0.2500000045984052, 0.24794999626465142, 0.25919999461621046, 0.24979999579954892, 0.2540499990573153, 0.24614999711047858, 0.24474999372614548, 0.24709999706828967, 0.24819999816827476, 0.24149999808287248, 0.25510000705253333, 0.24800001119729131, 0.2501499984646216, 0.24774999474175274, 0.24655000015627593, 0.2480000039213337, 0.24494999524904415, 0.24730000586714596, 0.2412000103504397, 0.24400000256719068, 0.24525000480934978, 0.2453500055707991, 0.24624999787192792, 0.24454999947920442, 0.2461500043864362, 0.2522999930079095, 0.24639999901410192, 0.24625000514788553, 0.2509499972802587, 0.24169999960577115, 0.2452000044286251, 0.2460999894537963, 0.25425000058021396, 0.2590999938547611, 0.2475500077707693, 0.2482999989297241, 0.2558499982114881, 0.24804999702610075, 0.24685000244062394, 0.2526500029489398, 0.24499999562976882, 0.2514999941922724, 0.24774999474175274, 0.25749999622348696, 0.26020000223070383, 0.24650000705150887, 0.24319999647559598, 0.26700000307755545, 0.24544999905629084, 0.24459999258397147, 0.25400001322850585, 0.25769999774638563, 0.25015001301653683, 0.24995001149363816, 0.24744999973336235, 0.22774999524699524, 0.24310000299010426, 0.2800000074785203, 0.24580000899732113, 0.2515499945729971, 0.24869999469956383, 0.24915000540204346, 0.2456500005791895, 0.2471999905537814, 0.24015000235522166, 0.2508000034140423, 0.24794999626465142, 0.2460999967297539, 0.2539999986765906, 0.2538999979151413, 0.25475000438746065, 0.25055000151041895, 0.24450000637443736, 0.24994999694172293, 0.2508000034140423, 0.2614499971969053, 0.24509999639121816, 0.24809999740682542, 0.24485000176355243, 0.24994999694172293, 0.24529999063815922, 0.26390000857645646, 0.24584999482613057, 0.247349998971913, 0.24434999795630574, 0.25079998886212707, 0.25024999922607094, 0.24979999579954892, 0.25379999715369195, 0.24820001272019, 0.247199997829739, 0.24465000024065375, 0.2491000050213188, 0.24880000273697078, 0.2514000007067807, 0.24789999588392675, 0.24759999359957874, 0.24900000425986946, 0.2523500006645918, 0.24994999694172293, 0.25599999935366213, 0.24924999888753518, 0.2550999925006181, 0.24364999262616038, 0.2507500030333176, 0.25615000049583614, 0.2515500091249123, 0.25484999059699476, 0.24920000578276813, 0.25084998924285173, 0.2433500048937276, 0.25070000265259296, 0.2480000039213337, 0.24890000349842012, 0.24554999254178256, 0.2456500005791895, 0.2536999963922426, 0.2791500082821585, 0.24890000349842012, 0.2530499914428219, 0.2512499922886491, 0.2426999999443069, 0.25440000172238797, 0.24905000464059412, 0.2494999935152009, 0.24625000514788553, 0.25749999622348696, 0.2537499967729673, 0.24290000146720558, 0.2515499945729971, 0.2744000084931031, 0.38184998993529007, 0.2882999979192391, 0.24670000129844993, 0.24625000514788553, 0.2487500023562461, 0.2495500084478408, 0.2617499994812533, 0.24710000434424728, 0.24839999969117343, 0.24730000586714596, 0.24724999821046367, 0.251300007221289, 0.2475500077707693, 0.2523000002838671, 0.2532499929657206, 0.2518499968573451, 0.24715000472497195, 0.24819999816827476, 0.25320000713691115, 0.25209999876096845, 0.24979999579954892, 0.2530000056140125, 0.2494000073056668, 0.24800001119729131, 0.24850000045262277, 0.2478500027791597, 0.25800000003073364, 0.2528000040911138, 0.247349998971913, 0.24665000091772527, 0.24745000700931996, 0.251450008363463, 0.24370000028284267, 0.24699999630684033, 0.25194999761879444, 0.24239999038400128, 0.25209999876096845, 0.25800000003073364, 0.25084998924285173, 0.24850000045262277, 0.25004999770317227, 0.2478500100551173, 0.2459499955875799, 0.2520499983802438, 0.24359999952139333, 0.24449999909847975, 0.24530000519007444, 0.24885000311769545, 0.25135000032605603, 0.24974999541882426, 0.36460001138038933, 0.25069998810067773, 0.2677000011317432, 0.24385000142501667, 0.25180000375257805, 0.24554999981774017, 0.2520499983802438, 0.24745000700931996, 0.2550999925006181, 0.24454999947920442, 0.2484500000718981, 0.24729999859118834, 0.24619999749120325, 0.2488999962224625, 0.246899995545391, 0.26440000510774553, 0.2519000045140274, 0.24744999245740473, 0.24050000502029434, 0.25200001255143434, 0.27540000155568123, 0.2628999936860055, 0.2494999935152009, 0.2482999989297241, 0.25690000620670617, 0.27304999821353704, 0.24614999711047858, 0.3036499983863905, 0.24934999964898452, 0.24489999486831948, 0.2531000063754618, 0.24950000806711614, 0.2531999925849959, 0.25779999850783497, 0.25004999770317227, 0.24655000743223354, 0.2528000040911138, 0.2937500030384399, 0.24885000311769545, 0.2524500014260411, 0.25040000036824495, 0.2518500041333027, 0.25519999326206744, 0.24744999973336235, 0.24629999825265259, 0.246899995545391, 0.25794999237405136, 0.26235000404994935, 0.24190000840462744, 0.2700000040931627, 0.25290000485256314, 0.2474999928381294, 0.261649998719804, 0.2448499944875948, 0.247049996687565, 0.25719999393913895, 0.2506500022718683, 0.24470000062137842, 0.2524500014260411, 0.24780000967439264, 0.2564000023994595, 0.24915000540204346, 0.24145000497810543, 0.24759999359957874, 0.24374999338760972, 0.24465000751661137, 0.24139999732142314, 0.2451999971526675, 0.2446999933454208, 0.24539999867556617],
  "QPU": "7000000",
  "Qubits": 5,
  "Queue durations [ms]": [0.0, 0.0, 0.0, 0.0, 0.0, 0.0, 0.0, 0.0, 0.0, 0.0, 0.0, 0.0, 0.0, 0.0, 0.0, 0.0, 0.0, 0.0, 0.0, 0.0, 0.0, 0.0, 0.0, 0.0, 0.0, 0.0, 0.0, 0.0, 0.0, 0.0, 0.0, 0.0, 0.0, 0.0, 0.0, 0.0, 0.0, 0.0, 0.0, 0.0, 0.0, 0.0, 0.0, 0.0, 0.0, 0.0, 0.0, 0.0, 0.0, 0.0, 0.0, 0.0, 0.0, 0.0, 0.0, 0.0, 0.0, 0.0, 0.0, 0.0, 0.0, 0.0, 0.0, 0.0, 0.0, 0.0, 0.0, 0.0, 0.0, 0.0, 0.0, 0.0, 0.0, 0.0, 0.0, 0.0, 0.0, 0.0, 0.0, 0.0, 0.0, 0.0, 0.0, 0.0, 0.0, 0.0, 0.0, 0.0, 0.0, 0.0, 0.0, 0.0, 0.0, 0.0, 0.0, 0.0, 0.0, 0.0, 0.0, 0.0, 0.0, 0.0, 0.0, 0.0, 0.0, 0.0, 0.0, 0.0, 0.0, 0.0, 0.0, 0.0, 0.0, 0.0, 0.0, 0.0, 0.0, 0.0, 0.0, 0.0, 0.0, 0.0, 0.0, 0.0, 0.0, 0.0, 0.0, 0.0, 0.0, 0.0, 0.0, 0.0, 0.0, 0.0, 0.0, 0.0, 0.0, 0.0, 0.0, 0.0, 0.0, 0.0, 0.0, 0.0, 0.0, 0.0, 0.0, 0.0, 0.0, 0.0, 0.0, 0.0, 0.0, 0.0, 0.0, 0.0, 0.0, 0.0, 0.0, 0.0, 0.0, 0.0, 0.0, 0.0, 0.0, 0.0, 0.0, 0.0, 0.0, 0.0, 0.0, 0.0, 0.0, 0.0, 0.0, 0.0, 0.0, 0.0, 0.0, 0.0, 0.0, 0.0, 0.0, 0.0, 0.0, 0.0, 0.0, 0.0, 0.0, 0.0, 0.0, 0.0, 0.0, 0.0, 0.0, 0.0, 0.0, 0.0, 0.0, 0.0, 0.0, 0.0, 0.0, 0.0, 0.0, 0.0, 0.0, 0.0, 0.0, 0.0, 0.0, 0.0, 0.0, 0.0, 0.0, 0.0, 0.0, 0.0, 0.0, 0.0, 0.0, 0.0, 0.0, 0.0, 0.0, 0.0, 0.0, 0.0, 0.0, 0.0, 0.0, 0.0, 0.0, 0.0, 0.0, 0.0, 0.0, 0.0, 0.0, 0.0, 0.0, 0.0, 0.0, 0.0, 0.0, 0.0, 0.0, 0.0, 0.0, 0.0, 0.0, 0.0, 0.0, 0.0, 0.0, 0.0, 0.0, 0.0, 0.0, 0.0, 0.0, 0.0, 0.0, 0.0, 0.0, 0.0, 0.0, 0.0, 0.0, 0.0, 0.0, 0.0, 0.0, 0.0, 0.0, 0.0, 0.0, 0.0, 0.0, 0.0, 0.0, 0.0, 0.0, 0.0, 0.0, 0.0, 0.0, 0.0, 0.0, 0.0, 0.0, 0.0, 0.0, 0.0, 0.0, 0.0, 0.0, 0.0, 0.0, 0.0, 0.0, 0.0, 0.0, 0.0, 0.0, 0.0, 0.0, 0.0, 0.0, 0.0, 0.0, 0.0, 0.0, 0.0, 0.0, 0.0, 0.0, 0.0, 0.0, 0.0, 0.0, 0.0, 0.0, 0.0, 0.0, 0.0, 0.0, 0.0, 0.0, 0.0, 0.0, 0.0, 0.0, 0.0, 0.0, 0.0, 0.0, 0.0, 0.0, 0.0, 0.0, 0.0, 0.0, 0.0, 0.0, 0.0, 0.0, 0.0, 0.0, 0.0, 0.0, 0.0, 0.0, 0.0, 0.0, 0.0, 0.0, 0.0, 0.0, 0.0, 0.0, 0.0, 0.0, 0.0, 0.0, 0.0, 0.0, 0.0, 0.0, 0.0, 0.0, 0.0, 0.0, 0.0, 0.0, 0.0, 0.0, 0.0, 0.0, 0.0, 0.0, 0.0, 0.0, 0.0, 0.0, 0.0, 0.0, 0.0, 0.0, 0.0, 0.0, 0.0, 0.0, 0.0, 0.0, 0.0, 0.0, 0.0, 0.0, 0.0, 0.0, 0.0, 0.0, 0.0, 0.0, 0.0, 0.0, 0.0, 0.0, 0.0, 0.0, 0.0, 0.0, 0.0, 0.0, 0.0, 0.0, 0.0, 0.0, 0.0, 0.0, 0.0, 0.0, 0.0, 0.0, 0.0, 0.0, 0.0, 0.0, 0.0, 0.0, 0.0, 0.0, 0.0, 0.0, 0.0, 0.0, 0.0, 0.0, 0.0, 0.0, 0.0, 0.0, 0.0, 0.0, 0.0, 0.0, 0.0, 0.0, 0.0, 0.0, 0.0, 0.0, 0.0, 0.0, 0.0, 0.0, 0.0, 0.0, 0.0, 0.0, 0.0, 0.0, 0.0, 0.0, 0.0, 0.0, 0.0, 0.0, 0.0, 0.0, 0.0, 0.0, 0.0, 0.0, 0.0, 0.0, 0.0, 0.0, 0.0, 0.0, 0.0, 0.0, 0.0, 0.0, 0.0, 0.0, 0.0, 0.0, 0.0, 0.0, 0.0, 0.0, 0.0, 0.0, 0.0, 0.0, 0.0, 0.0, 0.0, 0.0, 0.0, 0.0, 0.0, 0.0, 0.0, 0.0, 0.0, 0.0, 0.0, 0.0, 0.0, 0.0, 0.0, 0.0, 0.0, 0.0, 0.0, 0.0, 0.0],
  "Shots": 4096,
  "Size": 5,
  "Total Algorithm duration [s]": 3.259,
  "Total Classic duration [s]": 3.1278569998121237,
  "Total Quantum duration [s]": 0.13114300018787617
}
