{
  "Circuit execution durations [ms]": [0.2639500016812235, 0.24454999947920442, 0.24744999973336235, 0.24945000768639147, 0.2586999980849214, 0.2487499950802885, 0.25040000036824495, 0.24804999702610075, 0.25070000265259296, 0.2537000036682002, 0.24914999085012823, 0.24375000066356733, 0.25985000684158877, 0.25485000514891, 0.2631499955896288, 0.2521499991416931, 0.255000006291084, 0.24960000882856548, 0.25105000531766564, 0.2600500010885298, 0.24794999626465142, 0.2551500001573004, 0.2519999979995191, 0.2587500057416037, 0.2563500020187348, 0.24605000362498686, 0.2536000029067509, 0.2545000024838373, 0.2579000065452419, 0.2506500022718683, 0.2606499911053106, 0.25180001102853566, 0.2505000011296943, 0.24745000700931996, 0.25255000218749046, 0.28795000253012404, 0.25135000760201365, 0.24575000134063885, 0.2746500031207688, 0.2506000018911436, 0.24665000091772527, 0.2558499982114881, 0.2505000084056519, 0.2430500026093796, 0.2472500054864213, 0.24870000197552145, 0.240400004258845, 0.2487499950802885, 0.25334999372716993, 0.24514999677194282, 0.25534999440424144, 0.2567000046838075, 0.24915000540204346, 0.24525000480934978, 0.24584999482613057, 0.24840000696713105, 0.26000000070780516, 0.25105000531766564, 0.25454998831264675, 0.24614999711047858, 0.24790000315988436, 0.2597499988041818, 0.24640000629005954, 0.2457999944454059, 0.26619998971000314, 0.25440000172238797, 0.24850000045262277, 0.2578999992692843, 0.24995001149363816, 0.2583500026958063, 0.259150008787401, 0.2554499951656908, 0.25105000531766564, 0.2609999937703833, 0.251150006079115, 0.2450499960104935, 0.24975000997073948, 0.24515000404790044, 0.2499999973224476, 0.2531000063754618, 0.26154999795835465, 0.24870000197552145, 0.2415000053588301, 0.24744999245740473, 0.2565500035416335, 0.2481499977875501, 0.24714999744901434, 0.2502999996067956, 0.24435000523226336, 0.2535999956307933, 0.24939999275375158, 0.2474999928381294, 0.2482999989297241, 0.2518499968573451, 0.24375000066356733, 0.24979999579954892, 0.25985000684158877, 0.2555499959271401, 0.2555000100983307, 0.24550000671297312, 0.24700000358279794, 0.2599500003270805, 0.2487499950802885, 0.24849999317666516, 0.2444500059937127, 0.24989999656099826, 0.2469000028213486, 0.24420000409008935, 0.2641000028233975, 0.25240000104531646, 0.24755000049481168, 0.24410000332864001, 0.23220000002766028, 0.24985001073218882, 0.2507999961380847, 0.24480000138282776, 0.35075000050710514, 0.2525000018067658, 0.27984999178443104, 0.25534999440424144, 0.25764999736566097, 0.3897500137099996, 0.2503499999875203, 0.29254999390104786, 0.251450008363463, 0.27984999906038865, 0.20819999917875975, 0.25195001217070967, 0.24479999410687014, 0.24729999131523073, 0.24995000421768054, 0.3499000013107434, 0.2558499909355305, 0.2594500037957914, 0.24525000480934978, 0.2541499998187646, 0.39185000059660524, 0.24619999749120325, 0.24420000409008935, 0.2930000046035275, 0.24780000239843503, 0.27629999385681003, 0.2480000039213337, 0.25114999152719975, 0.2956000025733374, 0.2446999933454208, 0.23135000083129853, 0.25645000278018415, 0.393000002077315, 0.2537500040489249, 0.2569999924162403, 0.2508000034140423, 0.24890000349842012, 0.25009999808389693, 0.24994999694172293, 0.25100000493694097, 0.2637000070535578, 0.25564999668858945, 0.2475500077707693, 0.251600009505637, 0.24290000146720558, 0.2567999908933416, 0.2521999995224178, 0.24790000315988436, 0.24790000315988436, 0.24619999749120325, 0.24775000929366797, 0.2440999960526824, 0.24189999385271221, 0.25669999013189226, 0.25335000827908516, 0.2562500012572855, 0.25329999334644526, 0.2464500066707842, 0.2501500057405792, 0.25485000514891, 0.25069999537663534, 0.2533999941078946, 0.255000006291084, 0.25474999711150303, 0.283800000033807, 0.24774999474175274, 0.2589499927125871, 0.25240000104531646, 0.24465000751661137, 0.2649999951245263, 0.2562500012572855, 0.25224999990314245, 0.26145001174882054, 0.2499999973224476, 0.2552499936427921, 0.2477000089129433, 0.2453499982948415, 0.25009999808389693, 0.24480000138282776, 0.24789999588392675, 0.2540499990573153, 0.2477999951224774, 0.24344999837921932, 0.24620001204311848, 0.24935000692494214, 0.2604500041343272, 0.24480000138282776, 0.26190000062342733, 0.24639999901410192, 0.24979999579954892, 0.2562000008765608, 0.24659999326104298, 0.2490499973646365, 0.2491000050213188, 0.25514999288134277, 0.24864999431883916, 0.2452000044286251, 0.254700004006736, 0.2725500089582056, 0.25144999381154776, 0.2537499967729673, 0.2507500030333176, 0.24835000658640638, 0.24850000045262277, 0.25224999990314245, 0.2562500012572855, 0.25224999990314245, 0.24974999541882426, 0.2584999892860651, 0.24729999859118834, 0.24930000654421747, 0.24489999486831948, 0.2481499977875501, 0.25490000552963465, 0.2507500030333176, 0.24259999918285757, 0.2529499979573302, 0.2444500059937127, 0.2525000090827234, 0.24505001056240872, 0.2501499984646216, 0.24819999816827476, 0.24639999901410192, 0.24845000734785572, 0.2471999905537814, 0.24714999744901434, 0.25955000455724075, 0.2446000071358867, 0.2549500059103593, 0.2516999957151711, 0.24580000172136351, 0.2474999928381294, 0.2450500032864511, 0.24870000197552145, 0.2565500035416335, 0.25379999715369195, 0.271849989076145, 0.24759999359957874, 0.2514000079827383, 0.25440000172238797, 0.24709999706828967, 0.24720000510569662, 0.254700004006736, 0.2531000063754618, 0.25615000049583614, 0.24850000045262277, 0.2543499867897481, 0.22724999871570617, 0.4126999992877245, 0.2535499952500686, 0.24909999046940356, 0.25949999690055847, 0.254550002864562, 0.25800000003073364, 0.2558499982114881, 0.25409999943803996, 0.2575999969849363, 0.2538499975344166, 0.25334999372716993, 0.2571500081103295, 0.27174998831469566, 0.2963500010082498, 0.2518499968573451, 0.2515499945729971, 0.25425000058021396, 0.24914999085012823, 0.2597999991849065, 0.2557499974500388, 0.24820000544423237, 0.25695000658743083, 0.2523500006645918, 0.2587500057416037, 0.24715000472497195, 0.2459499955875799, 0.25009999808389693, 0.25350000942125916, 0.2520500056562014, 0.24880000273697078, 0.2539999986765906, 0.26544999855104834, 0.2481500050635077, 0.25340000865980983, 0.2491999912308529, 0.25025001377798617, 0.2539999986765906, 0.2476499939803034, 0.24739999935263768, 0.2512500068405643, 0.25475000438746065, 0.2555999963078648, 0.2523500006645918, 0.2499999973224476, 0.2631999959703535, 0.24604999634902924, 0.25209999876096845, 0.2469000028213486, 0.26015000184997916, 0.25120000645983964, 0.24694999592611566, 0.26259999140165746, 0.24710000434424728, 0.2597499915282242, 0.2474999928381294, 0.2484500000718981, 0.25070000265259296, 0.24649999977555126, 0.25209999876096845, 0.2495500084478408, 0.24565000785514712, 0.26015000184997916, 0.2599500003270805, 0.2564000023994595, 0.24959999427665025, 0.24780000967439264, 0.2512500068405643, 0.2649000089149922, 0.25129999266937375, 0.2502999996067956, 0.2503499999875203, 0.24774999474175274, 0.24634999135741964, 0.24634999135741964, 0.2487500023562461, 0.2592999953776598, 0.27475001115817577, 0.2501499984646216, 0.240100001974497, 0.247049996687565, 0.25120000645983964, 0.2518999972380698, 0.25549999554641545, 0.2507500030333176, 0.2490499900886789, 0.2908500100602396, 0.2507500030333176, 0.24655000015627593, 0.247349998971913, 0.2512500068405643, 0.26074999186675996, 0.24924999888753518, 0.25040000036824495, 0.24870000197552145, 0.24729999859118834, 0.25734999508131295, 0.2503499999875203, 0.2475500077707693, 0.24975000997073948, 0.2516999957151711, 0.25070000265259296, 0.24580000899732113, 0.2491000050213188, 0.25565000396454707, 0.2509500045562163, 0.24665000091772527, 0.2510499907657504, 0.24849999317666516, 0.24595001013949513, 0.24989999656099826, 0.24935000692494214, 0.2457000082358718, 0.2425499988021329, 0.24714999744901434, 0.24909999046940356, 0.25254999491153285, 0.2454999994370155, 0.25599999935366213, 0.261199995293282, 0.2629000009619631, 0.2535999956307933, 0.2584000103524886, 0.24529999791411683, 0.25800000730669126, 0.2601500091259368, 0.25340000865980983],
  "Depth": 12.5,
  "Expectation Value": -5.897665500640869,
  "Optimal Expectation Value": -6.026674270629883,
  "Optimizer durations [ms]": [6.255, 6.054, 5.932, 5.836, 6.205, 5.939, 5.777, 5.992, 5.817, 6.341, 5.674, 6.396, 6.073, 6.172, 6.465, 5.936, 6.148, 8.345, 6.811, 6.372, 5.554, 6.345, 5.915, 6.124, 6.106, 5.915, 7.621, 6.16, 6.057, 6.069, 6.231, 6.007, 6.171, 5.857, 6.161, 6.761, 5.825, 5.883, 6.633, 5.802, 6.273, 5.976, 6.128, 6.518, 5.779, 5.76, 6.174, 6.238, 5.873, 6.032, 6.107, 6.226, 5.988, 5.798, 5.933, 5.822, 6.059, 6.176, 5.92, 5.998, 5.72, 6.584, 5.758, 5.916, 6.38, 5.923, 6.121, 6.276, 5.947, 6.096, 6.176, 6.249, 5.672, 6.456, 5.733, 5.951, 5.931, 5.979, 6.055, 5.832, 6.254, 6.088, 5.502, 6.305, 6.083, 6.047, 5.864, 6.04, 6.012, 6.0, 5.858, 6.036, 5.9, 6.086, 5.815, 5.858, 6.286, 6.494, 5.91, 5.813, 5.808, 6.3, 5.777, 5.918, 6.011, 5.966, 5.792, 5.885, 9.769, 6.262, 6.014, 5.712, 7.891, 11.264, 5.872, 6.018, 7.873, 6.055, 6.659, 5.877, 6.379, 8.766, 5.936, 6.83, 6.044, 6.328, 17.475, 6.132, 5.964, 5.934, 6.02, 7.834, 5.971, 6.441, 5.829, 6.181, 8.766, 16.031, 6.09, 6.904, 5.903, 6.234, 7.414, 5.817, 6.995, 5.94, 7.633, 15.906, 9.85, 5.989, 6.286, 6.042, 9.139, 6.372, 5.868, 5.924, 6.297, 5.948, 6.043, 6.083, 5.841, 6.253, 5.695, 6.235, 5.857, 5.639, 6.01, 5.745, 5.85, 6.072, 6.246, 6.12, 14.107, 5.629, 6.181, 6.165, 6.145, 6.06, 5.822, 6.267, 6.913, 5.644, 6.233, 6.045, 5.777, 6.401, 6.199, 6.066, 6.242, 5.96, 6.232, 5.738, 6.104, 5.697, 5.964, 5.903, 5.955, 5.926, 5.823, 5.882, 5.834, 6.44, 5.932, 5.924, 6.206, 5.847, 6.256, 5.934, 5.828, 5.97, 5.848, 6.037, 5.951, 6.041, 6.364, 6.164, 6.009, 5.947, 6.099, 5.817, 6.151, 5.955, 6.299, 6.094, 6.158, 6.0, 5.907, 5.855, 6.184, 6.204, 5.814, 5.802, 5.971, 6.057, 6.109, 6.014, 5.992, 5.709, 5.976, 5.749, 6.274, 5.74, 6.145, 6.098, 6.255, 5.91, 5.87, 5.927, 5.738, 6.097, 6.066, 6.248, 6.478, 6.015, 5.853, 6.042, 6.059, 5.873, 6.233, 6.048, 6.097, 5.976, 6.031, 19.785, 11.354, 5.79, 5.987, 6.188, 5.944, 6.392, 6.06, 6.081, 6.135, 6.11, 6.222, 5.903, 6.702, 7.037, 5.966, 6.102, 6.27, 5.973, 5.961, 6.271, 5.95, 6.179, 5.757, 6.493, 5.803, 5.769, 6.111, 6.28, 6.092, 6.106, 6.144, 6.358, 5.766, 6.102, 6.081, 5.932, 5.986, 6.078, 5.796, 6.228, 5.952, 5.836, 6.072, 5.899, 6.416, 6.054, 6.046, 5.882, 6.145, 6.091, 7.093, 6.29, 5.802, 6.3, 5.882, 5.85, 6.178, 5.755, 6.123, 6.034, 5.641, 6.268, 6.403, 6.196, 6.379, 6.051, 5.808, 6.247, 14.402, 5.83, 5.96, 6.03, 5.793, 5.958, 5.96, 6.012, 6.678, 5.972, 6.168, 5.93, 6.126, 6.825, 6.241, 5.938, 6.044, 6.853, 5.816, 5.988, 6.187, 5.708, 6.413, 6.184, 6.055, 6.269, 5.588, 6.425, 5.967, 5.878, 5.911, 6.019, 5.759, 6.088, 5.916, 6.212, 5.918, 5.694, 6.072, 5.922, 5.794, 6.002, 6.014, 6.209, 5.858, 5.994, 5.886, 6.042, 5.871, 5.975, 6.13, 6.345, 5.93, 6.22, 5.8, 6.025, 6.197, 6.355],
  "Optimizer iterations": 390,
  "Optimizer params": [0.9334935105644165, 0.9321499048045476, 0.5734213200270403, 0.08762341954369936, 0.9456444249942438, 0.9907252521309424, 0.7637323456906836, 0.10274813594775667, 0.46311796527758436, 0.5574732752901316, 0.992473497354521, 0.9954413913652022, 0.4980820019914271, 0.4841700430889126, 0.9453334012117733, 0.33138080502990935, 0.17257651105875296, 0.06147832690910456, 0.5546375512729712, 0.49307369341778323],
  "P": 0,
  "Problem": "IC",
  "QJob durations [ms]": [0.2639500016812235, 0.24454999947920442, 0.24744999973336235, 0.24945000768639147, 0.2586999980849214, 0.2487499950802885, 0.25040000036824495, 0.24804999702610075, 0.25070000265259296, 0.2537000036682002, 0.24914999085012823, 0.24375000066356733, 0.25985000684158877, 0.25485000514891, 0.2631499955896288, 0.2521499991416931, 0.255000006291084, 0.24960000882856548, 0.25105000531766564, 0.2600500010885298, 0.24794999626465142, 0.2551500001573004, 0.2519999979995191, 0.2587500057416037, 0.2563500020187348, 0.24605000362498686, 0.2536000029067509, 0.2545000024838373, 0.2579000065452419, 0.2506500022718683, 0.2606499911053106, 0.25180001102853566, 0.2505000011296943, 0.24745000700931996, 0.25255000218749046, 0.28795000253012404, 0.25135000760201365, 0.24575000134063885, 0.2746500031207688, 0.2506000018911436, 0.24665000091772527, 0.2558499982114881, 0.2505000084056519, 0.2430500026093796, 0.2472500054864213, 0.24870000197552145, 0.240400004258845, 0.2487499950802885, 0.25334999372716993, 0.24514999677194282, 0.25534999440424144, 0.2567000046838075, 0.24915000540204346, 0.24525000480934978, 0.24584999482613057, 0.24840000696713105, 0.26000000070780516, 0.25105000531766564, 0.25454998831264675, 0.24614999711047858, 0.24790000315988436, 0.2597499988041818, 0.24640000629005954, 0.2457999944454059, 0.26619998971000314, 0.25440000172238797, 0.24850000045262277, 0.2578999992692843, 0.24995001149363816, 0.2583500026958063, 0.259150008787401, 0.2554499951656908, 0.25105000531766564, 0.2609999937703833, 0.251150006079115, 0.2450499960104935, 0.24975000997073948, 0.24515000404790044, 0.2499999973224476, 0.2531000063754618, 0.26154999795835465, 0.24870000197552145, 0.2415000053588301, 0.24744999245740473, 0.2565500035416335, 0.2481499977875501, 0.24714999744901434, 0.2502999996067956, 0.24435000523226336, 0.2535999956307933, 0.24939999275375158, 0.2474999928381294, 0.2482999989297241, 0.2518499968573451, 0.24375000066356733, 0.24979999579954892, 0.25985000684158877, 0.2555499959271401, 0.2555000100983307, 0.24550000671297312, 0.24700000358279794, 0.2599500003270805, 0.2487499950802885, 0.24849999317666516, 0.2444500059937127, 0.24989999656099826, 0.2469000028213486, 0.24420000409008935, 0.2641000028233975, 0.25240000104531646, 0.24755000049481168, 0.24410000332864001, 0.23220000002766028, 0.24985001073218882, 0.2507999961380847, 0.24480000138282776, 0.35075000050710514, 0.2525000018067658, 0.27984999178443104, 0.25534999440424144, 0.25764999736566097, 0.3897500137099996, 0.2503499999875203, 0.29254999390104786, 0.251450008363463, 0.27984999906038865, 0.20819999917875975, 0.25195001217070967, 0.24479999410687014, 0.24729999131523073, 0.24995000421768054, 0.3499000013107434, 0.2558499909355305, 0.2594500037957914, 0.24525000480934978, 0.2541499998187646, 0.39185000059660524, 0.24619999749120325, 0.24420000409008935, 0.2930000046035275, 0.24780000239843503, 0.27629999385681003, 0.2480000039213337, 0.25114999152719975, 0.2956000025733374, 0.2446999933454208, 0.23135000083129853, 0.25645000278018415, 0.393000002077315, 0.2537500040489249, 0.2569999924162403, 0.2508000034140423, 0.24890000349842012, 0.25009999808389693, 0.24994999694172293, 0.25100000493694097, 0.2637000070535578, 0.25564999668858945, 0.2475500077707693, 0.251600009505637, 0.24290000146720558, 0.2567999908933416, 0.2521999995224178, 0.24790000315988436, 0.24790000315988436, 0.24619999749120325, 0.24775000929366797, 0.2440999960526824, 0.24189999385271221, 0.25669999013189226, 0.25335000827908516, 0.2562500012572855, 0.25329999334644526, 0.2464500066707842, 0.2501500057405792, 0.25485000514891, 0.25069999537663534, 0.2533999941078946, 0.255000006291084, 0.25474999711150303, 0.283800000033807, 0.24774999474175274, 0.2589499927125871, 0.25240000104531646, 0.24465000751661137, 0.2649999951245263, 0.2562500012572855, 0.25224999990314245, 0.26145001174882054, 0.2499999973224476, 0.2552499936427921, 0.2477000089129433, 0.2453499982948415, 0.25009999808389693, 0.24480000138282776, 0.24789999588392675, 0.2540499990573153, 0.2477999951224774, 0.24344999837921932, 0.24620001204311848, 0.24935000692494214, 0.2604500041343272, 0.24480000138282776, 0.26190000062342733, 0.24639999901410192, 0.24979999579954892, 0.2562000008765608, 0.24659999326104298, 0.2490499973646365, 0.2491000050213188, 0.25514999288134277, 0.24864999431883916, 0.2452000044286251, 0.254700004006736, 0.2725500089582056, 0.25144999381154776, 0.2537499967729673, 0.2507500030333176, 0.24835000658640638, 0.24850000045262277, 0.25224999990314245, 0.2562500012572855, 0.25224999990314245, 0.24974999541882426, 0.2584999892860651, 0.24729999859118834, 0.24930000654421747, 0.24489999486831948, 0.2481499977875501, 0.25490000552963465, 0.2507500030333176, 0.24259999918285757, 0.2529499979573302, 0.2444500059937127, 0.2525000090827234, 0.24505001056240872, 0.2501499984646216, 0.24819999816827476, 0.24639999901410192, 0.24845000734785572, 0.2471999905537814, 0.24714999744901434, 0.25955000455724075, 0.2446000071358867, 0.2549500059103593, 0.2516999957151711, 0.24580000172136351, 0.2474999928381294, 0.2450500032864511, 0.24870000197552145, 0.2565500035416335, 0.25379999715369195, 0.271849989076145, 0.24759999359957874, 0.2514000079827383, 0.25440000172238797, 0.24709999706828967, 0.24720000510569662, 0.254700004006736, 0.2531000063754618, 0.25615000049583614, 0.24850000045262277, 0.2543499867897481, 0.22724999871570617, 0.4126999992877245, 0.2535499952500686, 0.24909999046940356, 0.25949999690055847, 0.254550002864562, 0.25800000003073364, 0.2558499982114881, 0.25409999943803996, 0.2575999969849363, 0.2538499975344166, 0.25334999372716993, 0.2571500081103295, 0.27174998831469566, 0.2963500010082498, 0.2518499968573451, 0.2515499945729971, 0.25425000058021396, 0.24914999085012823, 0.2597999991849065, 0.2557499974500388, 0.24820000544423237, 0.25695000658743083, 0.2523500006645918, 0.2587500057416037, 0.24715000472497195, 0.2459499955875799, 0.25009999808389693, 0.25350000942125916, 0.2520500056562014, 0.24880000273697078, 0.2539999986765906, 0.26544999855104834, 0.2481500050635077, 0.25340000865980983, 0.2491999912308529, 0.25025001377798617, 0.2539999986765906, 0.2476499939803034, 0.24739999935263768, 0.2512500068405643, 0.25475000438746065, 0.2555999963078648, 0.2523500006645918, 0.2499999973224476, 0.2631999959703535, 0.24604999634902924, 0.25209999876096845, 0.2469000028213486, 0.26015000184997916, 0.25120000645983964, 0.24694999592611566, 0.26259999140165746, 0.24710000434424728, 0.2597499915282242, 0.2474999928381294, 0.2484500000718981, 0.25070000265259296, 0.24649999977555126, 0.25209999876096845, 0.2495500084478408, 0.24565000785514712, 0.26015000184997916, 0.2599500003270805, 0.2564000023994595, 0.24959999427665025, 0.24780000967439264, 0.2512500068405643, 0.2649000089149922, 0.25129999266937375, 0.2502999996067956, 0.2503499999875203, 0.24774999474175274, 0.24634999135741964, 0.24634999135741964, 0.2487500023562461, 0.2592999953776598, 0.27475001115817577, 0.2501499984646216, 0.240100001974497, 0.247049996687565, 0.25120000645983964, 0.2518999972380698, 0.25549999554641545, 0.2507500030333176, 0.2490499900886789, 0.2908500100602396, 0.2507500030333176, 0.24655000015627593, 0.247349998971913, 0.2512500068405643, 0.26074999186675996, 0.24924999888753518, 0.25040000036824495, 0.24870000197552145, 0.24729999859118834, 0.25734999508131295, 0.2503499999875203, 0.2475500077707693, 0.24975000997073948, 0.2516999957151711, 0.25070000265259296, 0.24580000899732113, 0.2491000050213188, 0.25565000396454707, 0.2509500045562163, 0.24665000091772527, 0.2510499907657504, 0.24849999317666516, 0.24595001013949513, 0.24989999656099826, 0.24935000692494214, 0.2457000082358718, 0.2425499988021329, 0.24714999744901434, 0.24909999046940356, 0.25254999491153285, 0.2454999994370155, 0.25599999935366213, 0.261199995293282, 0.2629000009619631, 0.2535999956307933, 0.2584000103524886, 0.24529999791411683, 0.25800000730669126, 0.2601500091259368, 0.25340000865980983],
  "QPU": "7000000",
  "Qubits": 5,
  "Queue durations [ms]": [0.0, 0.0, 0.0, 0.0, 0.0, 0.0, 0.0, 0.0, 0.0, 0.0, 0.0, 0.0, 0.0, 0.0, 0.0, 0.0, 0.0, 0.0, 0.0, 0.0, 0.0, 0.0, 0.0, 0.0, 0.0, 0.0, 0.0, 0.0, 0.0, 0.0, 0.0, 0.0, 0.0, 0.0, 0.0, 0.0, 0.0, 0.0, 0.0, 0.0, 0.0, 0.0, 0.0, 0.0, 0.0, 0.0, 0.0, 0.0, 0.0, 0.0, 0.0, 0.0, 0.0, 0.0, 0.0, 0.0, 0.0, 0.0, 0.0, 0.0, 0.0, 0.0, 0.0, 0.0, 0.0, 0.0, 0.0, 0.0, 0.0, 0.0, 0.0, 0.0, 0.0, 0.0, 0.0, 0.0, 0.0, 0.0, 0.0, 0.0, 0.0, 0.0, 0.0, 0.0, 0.0, 0.0, 0.0, 0.0, 0.0, 0.0, 0.0, 0.0, 0.0, 0.0, 0.0, 0.0, 0.0, 0.0, 0.0, 0.0, 0.0, 0.0, 0.0, 0.0, 0.0, 0.0, 0.0, 0.0, 0.0, 0.0, 0.0, 0.0, 0.0, 0.0, 0.0, 0.0, 0.0, 0.0, 0.0, 0.0, 0.0, 0.0, 0.0, 0.0, 0.0, 0.0, 0.0, 0.0, 0.0, 0.0, 0.0, 0.0, 0.0, 0.0, 0.0, 0.0, 0.0, 0.0, 0.0, 0.0, 0.0, 0.0, 0.0, 0.0, 0.0, 0.0, 0.0, 0.0, 0.0, 0.0, 0.0, 0.0, 0.0, 0.0, 0.0, 0.0, 0.0, 0.0, 0.0, 0.0, 0.0, 0.0, 0.0, 0.0, 0.0, 0.0, 0.0, 0.0, 0.0, 0.0, 0.0, 0.0, 0.0, 0.0, 0.0, 0.0, 0.0, 0.0, 0.0, 0.0, 0.0, 0.0, 0.0, 0.0, 0.0, 0.0, 0.0, 0.0, 0.0, 0.0, 0.0, 0.0, 0.0, 0.0, 0.0, 0.0, 0.0, 0.0, 0.0, 0.0, 0.0, 0.0, 0.0, 0.0, 0.0, 0.0, 0.0, 0.0, 0.0, 0.0, 0.0, 0.0, 0.0, 0.0, 0.0, 0.0, 0.0, 0.0, 0.0, 0.0, 0.0, 0.0, 0.0, 0.0, 0.0, 0.0, 0.0, 0.0, 0.0, 0.0, 0.0, 0.0, 0.0, 0.0, 0.0, 0.0, 0.0, 0.0, 0.0, 0.0, 0.0, 0.0, 0.0, 0.0, 0.0, 0.0, 0.0, 0.0, 0.0, 0.0, 0.0, 0.0, 0.0, 0.0, 0.0, 0.0, 0.0, 0.0, 0.0, 0.0, 0.0, 0.0, 0.0, 0.0, 0.0, 0.0, 0.0, 0.0, 0.0, 0.0, 0.0, 0.0, 0.0, 0.0, 0.0, 0.0, 0.0, 0.0, 0.0, 0.0, 0.0, 0.0, 0.0, 0.0, 0.0, 0.0, 0.0, 0.0, 0.0, 0.0, 0.0, 0.0, 0.0, 0.0, 0.0, 0.0, 0.0, 0.0, 0.0, 0.0, 0.0, 0.0, 0.0, 0.0, 0.0, 0.0, 0.0, 0.0, 0.0, 0.0, 0.0, 0.0, 0.0, 0.0, 0.0, 0.0, 0.0, 0.0, 0.0, 0.0, 0.0, 0.0, 0.0, 0.0, 0.0, 0.0, 0.0, 0.0, 0.0, 0.0, 0.0, 0.0, 0.0, 0.0, 0.0, 0.0, 0.0, 0.0, 0.0, 0.0, 0.0, 0.0, 0.0, 0.0, 0.0, 0.0, 0.0, 0.0, 0.0, 0.0, 0.0, 0.0, 0.0, 0.0, 0.0, 0.0, 0.0, 0.0, 0.0, 0.0, 0.0, 0.0, 0.0, 0.0, 0.0, 0.0, 0.0, 0.0, 0.0, 0.0, 0.0, 0.0, 0.0, 0.0, 0.0, 0.0, 0.0, 0.0, 0.0, 0.0, 0.0, 0.0, 0.0, 0.0, 0.0, 0.0, 0.0, 0.0, 0.0, 0.0],
  "Shots": 4096,
  "Size": 5,
  "Total Algorithm duration [s]": 2.463,
  "Total Classic duration [s]": 2.363832349783741,
  "Total Quantum duration [s]": 0.09916765021625906
}
