{
  "Circuit execution durations [ms]": [0.262400004430674, 0.2514999941922724, 0.24824999854899943, 0.38294999103527516, 0.24954999389592558, 0.2489500038791448, 0.24280000070575625, 0.24465000751661137, 0.25024999922607094, 0.2466000005370006, 0.24944999313447624, 0.24899998970795423, 0.2511000056983903, 0.2478500027791597, 0.24599999596830457, 0.2615999910631217, 0.24810000468278304, 0.24860000849002972, 0.24920000578276813, 0.21574999846052378, 0.25395000557182357, 0.24500000290572643, 0.2484500000718981, 0.2477999951224774, 0.2455500070936978, 0.26995000371243805, 0.25070000265259296, 0.25690000620670617, 0.20814999879803509, 0.37680000241380185, 0.23774999135639518, 0.2552499936427921, 0.25320000713691115, 0.2559000058681704, 0.2406999992672354, 0.2474000066285953, 0.24509999639121816, 0.26089999300893396, 0.24554999981774017, 0.24499999562976882, 0.3810500056715682, 0.243649999902118, 0.24429999029962346, 0.2864499983843416, 0.2543500013416633, 0.23844999668654054, 0.2523500006645918, 0.24399999529123306, 0.24590000248281285, 0.24714999744901434, 0.25299999106209725, 0.24834999931044877, 0.25100000493694097, 0.254700004006736, 0.24604999634902924, 0.25769999774638563, 0.24530000519007444, 0.2505000011296943, 0.24014999507926404, 0.24285000108648092, 0.2498499961802736, 0.25054999423446134, 0.24344999837921932, 0.2454999994370155, 0.27364998823031783, 0.2445499922032468, 0.2454999994370155, 0.255150007433258, 0.25769999774638563, 0.2530000056140125, 0.2501499984646216, 0.24414999643340707, 0.24385000142501667, 0.2534500017645769, 0.24324999685632065, 0.26345000514993444, 0.2532499929657206, 0.2599500003270805, 0.2932999996119179, 0.2512499922886491, 0.2538999979151413, 0.25555000320309773, 0.250899996899534, 0.24624999787192792, 0.24344999837921932, 0.24865000159479678, 0.24310000299010426, 0.26104999415110797, 0.24769999436102808, 0.2590500080259517, 0.25430000096093863, 0.2564999958849512, 0.2427500076009892, 0.2504500007489696, 0.24285000108648092, 0.2526500029489398, 0.2529500052332878, 0.2507999961380847, 0.24870000197552145, 0.2514999941922724, 0.24360000679735094, 0.2612999960547313, 0.26285000785719603, 0.2490499900886789, 0.2556999970693141, 0.24290000146720558, 0.2443999983370304, 0.24470000062137842, 0.25105000531766564, 0.25009999808389693, 0.2492500061634928, 0.2494000073056668, 0.24575000861659646, 0.243950002186466, 0.2494000073056668, 0.24715000472497195, 0.2562500012572855, 0.23874999897088856, 0.2504500007489696, 0.25150000146823004, 0.24885000311769545, 0.2525000018067658, 0.24980001035146415, 0.2470500039635226, 0.2604500041343272, 0.25304999871877953, 0.246899995545391, 0.24710000434424728, 0.25705000734888017, 0.2833500038832426, 0.2531000063754618, 0.25440000172238797, 0.25764999736566097, 0.24824999854899943, 0.25520000781398267, 0.23905000125523657, 0.24665000091772527, 0.26950000756187364, 0.25084999651880935, 0.24885000311769545, 0.2436500071780756, 0.2446999933454208, 0.2516999957151711, 0.24389999452978373, 0.2502000061213039, 0.3719999876921065, 0.349600006302353, 0.2766999969026074, 0.24544999905629084, 0.2570999931776896, 0.24914999812608585, 0.24970000959001482, 0.2477000016369857, 0.24745000700931996, 0.24354999186471105, 0.2512499922886491, 0.2501499984646216, 0.2304499939782545, 0.251300007221289, 0.24560000019846484, 0.24685000244062394, 0.2454999921610579, 0.25704999279696494, 0.25040000036824495, 0.24709998979233205, 0.2504500007489696, 0.24865000159479678, 0.2533000078983605, 0.24559999292250723, 0.24275000032503158, 0.24679999478394166, 0.25290000485256314, 0.24715000472497195, 0.2456500005791895, 0.2454999994370155, 0.2524500014260411, 0.24649999977555126, 0.2583999958005734, 0.25430000096093863, 0.24395000946242362, 0.25409999943803996, 0.24470000062137842, 0.25850000383798033, 0.24739999207668006, 0.2513999934308231, 0.25725000159582123, 0.25070000265259296, 0.24550000671297312, 0.24400000256719068, 0.25510000705253333, 0.25055000151041895, 0.25040000036824495, 0.28560000646393746, 0.24634999863337725, 0.25474999711150303, 0.24905000464059412, 0.2572999947005883, 0.25070000265259296, 0.24544999905629084, 0.2536000029067509, 0.24614999711047858, 0.2504500007489696, 0.24474999372614548, 0.24509999639121816, 0.24935000692494214, 0.24934999964898452, 0.24330000451300293, 0.26044999685836956, 0.24410000332864001, 0.24759999359957874, 0.2421000026515685, 0.25599999935366213, 0.25105000531766564, 0.2464500066707842, 0.24495000252500176, 0.25510000705253333, 0.24885000311769545, 0.24585000210208818, 0.24885000311769545, 0.24109999503707513, 0.2523000002838671, 0.2450500032864511, 0.2448499944875948, 0.24870000197552145, 0.24575000861659646, 0.23985000007087365, 0.26480000087758526, 0.25275000371038914, 0.24864998704288155, 0.25504999939585105, 0.2661500038811937, 0.24855000810930505, 0.25024999922607094, 0.2702000056160614, 0.24569999368395656, 0.2499999973224476, 0.25775001267902553, 0.25194999761879444, 0.29090000316500664, 0.26220000290777534, 0.24665000091772527, 0.24655000015627593, 0.24954999389592558, 0.25334999372716993, 0.2498499961802736, 0.24939999275375158, 0.246749994403217, 0.2546500036260113, 0.25610000011511147, 0.2530000056140125, 0.2532500002416782, 0.25004999770317227, 0.2501499984646216, 0.2471999905537814, 0.24644999211886898, 0.24735000624787062, 0.24750000739004463, 0.2451999971526675, 0.24624999787192792, 0.2436500071780756, 0.24620001204311848, 0.2495500011718832, 0.253999991400633, 0.24345000565517694, 0.2508000034140423, 0.24575000134063885, 0.24990000383695588, 0.2543500013416633, 0.25654998898971826, 0.24834999203449115, 0.25105000531766564, 0.25260000256821513, 0.2518999972380698, 0.24620000476716086, 0.24994999694172293, 0.24974999541882426, 0.25499999173916876, 0.24680000205989927, 0.2426999999443069, 0.2564000096754171, 0.25535000895615667, 0.2506000018911436, 0.2558999985922128, 0.2433500048937276, 0.2552499936427921, 0.2449000021442771, 0.24485000176355243, 0.25784999888855964, 0.2539999986765906, 0.24995001149363816, 0.2541499998187646, 0.2549499913584441, 0.2374499963480048, 0.24730000586714596, 0.2539000051910989, 0.24665000091772527, 0.25555001047905535, 0.2523500079405494, 0.24930000654421747, 0.2523000002838671, 0.25674999051261693, 0.2458500093780458, 0.24649999977555126, 0.25284999719588086, 0.25349999486934394, 0.26375000015832484, 0.2571500081103295, 0.25934999575838447, 0.21019999985583127, 0.3698500004247762, 0.25074999575736, 0.2525000018067658, 0.25549999554641545, 0.2512500068405643, 0.24905000464059412, 0.24685000244062394, 0.2489500038791448, 0.247349998971913, 0.2451999971526675, 0.2510999911464751, 0.2469000028213486, 0.24914999085012823, 0.24850000772858039, 0.2483000062056817, 0.24924999888753518, 0.25054999423446134, 0.24500000290572643, 0.24745000700931996, 0.25830000231508166, 0.25425000058021396, 0.2505000084056519, 0.2503499999875203, 0.25074999575736, 0.2527499891584739, 0.24760000087553635, 0.24420000409008935, 0.2470500039635226, 0.25734999508131295, 0.26244999025948346, 0.2465499928803183, 0.24860000849002972, 0.24855000083334744, 0.24805001157801598, 0.25719999393913895, 0.24495000252500176, 0.24755000049481168, 0.25194999761879444, 0.25355000980198383, 0.25690000620670617, 0.24915000540204346, 0.2550999925006181, 0.24265000683953986, 0.25409999943803996, 0.25174999609589577, 0.24755000049481168, 0.2594500037957914, 0.24929999199230224, 0.25040000036824495, 0.24480000138282776, 0.2548999909777194, 0.2437999937683344, 0.24965000193333253, 0.26220000290777534, 0.2464500066707842, 0.2494000000297092, 0.24965000920929015, 0.28809999639634043, 0.2546500036260113, 0.24685000244062394, 0.2488999889465049, 0.2570000069681555, 0.24724999093450606, 0.25269998877774924, 0.25224999990314245, 0.25719999393913895, 0.25379999715369195, 0.24930000654421747, 0.24714999744901434, 0.2420999953756109, 0.25024999922607094, 0.2490499973646365, 0.24995000421768054, 0.2546500036260113, 0.24720000510569662, 0.2498499961802736, 0.2592999953776598, 0.24585000210208818, 0.27624999347608536, 0.2520499983802438, 0.25394999829586595, 0.25135000760201365, 0.2572999947005883, 0.2482999989297241, 0.25984999956563115, 0.24920000578276813, 0.24865000159479678, 0.2506000018911436, 0.2466000005370006, 0.26455000624991953, 0.25270000332966447, 0.25094999000430107, 0.2530999918235466, 0.25680000544525683, 0.24775000201771036, 0.24929999199230224, 0.24760000087553635, 0.26015000184997916, 0.2637999932630919, 0.24880000273697078, 0.24979999579954892, 0.24974999541882426, 0.24730000586714596, 0.25645000278018415, 0.2512500068405643, 0.24914999085012823, 0.24304999533342198, 0.2502999996067956, 0.2472500054864213, 0.2498499961802736, 0.2503499999875203, 0.24415000370936468, 0.2529499906813726],
  "Depth": 12.5,
  "Expectation Value": -5.834056854248047,
  "Optimal Expectation Value": -6.026674270629883,
  "Optimizer durations [ms]": [6.103, 6.116, 6.089, 8.572, 6.105, 5.749, 6.024, 5.734, 14.447, 10.078, 6.027, 6.574, 5.885, 6.137, 7.781, 5.978, 6.426, 6.124, 6.055, 19.984, 6.234, 6.504, 6.11, 6.011, 8.259, 6.359, 5.969, 6.287, 21.948, 8.125, 6.751, 6.151, 6.128, 6.158, 5.715, 6.003, 7.625, 6.285, 5.934, 5.929, 8.445, 5.991, 5.888, 6.701, 5.882, 6.025, 5.858, 6.053, 5.877, 6.328, 6.063, 5.779, 6.328, 6.094, 5.679, 6.356, 6.131, 5.83, 5.941, 5.75, 6.052, 6.03, 6.279, 5.746, 6.444, 5.851, 6.131, 6.063, 6.329, 5.942, 6.305, 5.713, 5.855, 6.083, 5.969, 6.095, 6.148, 6.133, 7.05, 5.838, 6.046, 6.24, 6.169, 5.831, 5.78, 5.884, 5.845, 6.352, 5.813, 5.968, 5.977, 6.194, 6.086, 5.692, 6.107, 6.133, 5.858, 6.194, 5.95, 6.123, 5.588, 6.399, 6.36, 5.843, 6.179, 5.809, 6.045, 5.962, 5.962, 6.061, 5.654, 6.072, 6.07, 5.874, 6.093, 5.677, 6.124, 6.051, 5.88, 5.828, 6.171, 6.152, 5.891, 5.988, 6.074, 6.22, 5.888, 6.013, 6.297, 6.536, 6.106, 5.873, 6.585, 5.615, 6.169, 5.881, 6.035, 6.334, 5.894, 6.017, 5.698, 5.952, 5.814, 5.982, 5.823, 8.531, 21.376, 6.817, 5.839, 6.265, 5.844, 6.118, 5.676, 6.205, 5.83, 6.068, 5.815, 6.495, 6.135, 6.203, 6.065, 5.613, 6.44, 5.763, 6.208, 6.017, 6.123, 5.895, 5.992, 5.834, 5.802, 6.101, 5.943, 5.927, 6.017, 5.819, 5.83, 6.406, 5.944, 5.72, 6.068, 6.229, 6.203, 5.976, 6.151, 6.132, 5.89, 11.978, 5.868, 6.265, 5.915, 5.828, 6.973, 5.55, 5.953, 5.767, 6.165, 6.004, 9.749, 5.909, 6.026, 6.123, 5.985, 5.925, 6.016, 5.752, 6.221, 6.196, 5.882, 5.709, 6.289, 6.114, 5.889, 6.119, 5.855, 6.364, 5.938, 5.942, 5.763, 5.994, 5.986, 6.071, 5.793, 5.891, 5.799, 5.991, 6.455, 6.096, 5.688, 6.038, 6.317, 6.038, 5.984, 6.178, 6.148, 5.753, 6.3, 6.164, 6.686, 6.171, 6.188, 5.95, 5.864, 5.886, 6.209, 5.874, 5.897, 5.938, 6.326, 5.767, 6.291, 5.904, 5.967, 5.785, 5.889, 6.066, 5.825, 6.187, 5.572, 6.073, 5.662, 6.096, 6.029, 5.992, 5.905, 5.968, 6.055, 6.115, 6.219, 5.87, 6.047, 6.089, 5.929, 5.896, 6.059, 5.677, 6.377, 5.985, 5.476, 6.082, 6.337, 5.918, 5.867, 5.893, 6.232, 5.657, 6.059, 5.989, 6.341, 5.963, 6.154, 6.189, 6.251, 6.075, 6.128, 5.832, 6.157, 6.079, 6.175, 5.898, 6.17, 5.779, 5.935, 5.987, 5.914, 6.12, 6.113, 6.259, 20.293, 9.232, 6.443, 6.148, 6.029, 5.983, 5.72, 6.376, 5.679, 6.14, 6.147, 5.924, 5.969, 5.845, 6.053, 5.899, 5.817, 6.218, 5.778, 5.968, 6.23, 6.119, 5.979, 5.915, 6.078, 5.87, 6.05, 5.846, 6.115, 5.993, 6.387, 5.814, 5.957, 5.721, 6.106, 5.915, 6.293, 5.908, 5.796, 6.344, 6.174, 14.226, 6.312, 5.824, 6.109, 6.0, 5.775, 6.25, 5.892, 6.123, 5.724, 6.016, 6.223, 6.665, 6.13, 5.74, 6.176, 5.778, 6.835, 6.199, 5.957, 5.929, 6.146, 6.152, 5.871, 5.922, 6.262, 6.108, 6.055, 5.73, 6.051, 6.095, 5.667, 6.125, 6.336, 5.937, 5.852, 6.283, 5.776, 6.666, 6.074, 6.024, 5.809, 6.413, 5.779, 6.478, 5.946, 5.678, 6.104, 6.267, 6.402, 5.853, 6.067, 6.459, 6.232, 6.094, 5.866, 5.848, 6.223, 6.353, 5.958, 5.799, 5.835, 5.912, 6.295, 6.067, 5.63, 5.989, 6.2, 5.87, 6.005, 5.91, 5.939, 6.073],
  "Optimizer iterations": 422,
  "Optimizer params": [0.43236912406194794, 0.5585708877534936, 0.9381524991222141, 0.5725160888371144, 0.421514127716525, 0.12060488540511834, 0.5288281857345433, 0.028535333598467456, 0.9382812518441477, 0.9896924100079629, 0.4904597180504935, 0.9990423693534833, 0.5016383735454876, 0.464982445302657, 0.91619963615157, 0.2889359095225591, 0.3706267967039771, 0.12973083467524346, 0.3731912279080438, 0.5583161480669384],
  "P": 0,
  "Problem": "IC",
  "QJob durations [ms]": [0.262400004430674, 0.2514999941922724, 0.24824999854899943, 0.38294999103527516, 0.24954999389592558, 0.2489500038791448, 0.24280000070575625, 0.24465000751661137, 0.25024999922607094, 0.2466000005370006, 0.24944999313447624, 0.24899998970795423, 0.2511000056983903, 0.2478500027791597, 0.24599999596830457, 0.2615999910631217, 0.24810000468278304, 0.24860000849002972, 0.24920000578276813, 0.21574999846052378, 0.25395000557182357, 0.24500000290572643, 0.2484500000718981, 0.2477999951224774, 0.2455500070936978, 0.26995000371243805, 0.25070000265259296, 0.25690000620670617, 0.20814999879803509, 0.37680000241380185, 0.23774999135639518, 0.2552499936427921, 0.25320000713691115, 0.2559000058681704, 0.2406999992672354, 0.2474000066285953, 0.24509999639121816, 0.26089999300893396, 0.24554999981774017, 0.24499999562976882, 0.3810500056715682, 0.243649999902118, 0.24429999029962346, 0.2864499983843416, 0.2543500013416633, 0.23844999668654054, 0.2523500006645918, 0.24399999529123306, 0.24590000248281285, 0.24714999744901434, 0.25299999106209725, 0.24834999931044877, 0.25100000493694097, 0.254700004006736, 0.24604999634902924, 0.25769999774638563, 0.24530000519007444, 0.2505000011296943, 0.24014999507926404, 0.24285000108648092, 0.2498499961802736, 0.25054999423446134, 0.24344999837921932, 0.2454999994370155, 0.27364998823031783, 0.2445499922032468, 0.2454999994370155, 0.255150007433258, 0.25769999774638563, 0.2530000056140125, 0.2501499984646216, 0.24414999643340707, 0.24385000142501667, 0.2534500017645769, 0.24324999685632065, 0.26345000514993444, 0.2532499929657206, 0.2599500003270805, 0.2932999996119179, 0.2512499922886491, 0.2538999979151413, 0.25555000320309773, 0.250899996899534, 0.24624999787192792, 0.24344999837921932, 0.24865000159479678, 0.24310000299010426, 0.26104999415110797, 0.24769999436102808, 0.2590500080259517, 0.25430000096093863, 0.2564999958849512, 0.2427500076009892, 0.2504500007489696, 0.24285000108648092, 0.2526500029489398, 0.2529500052332878, 0.2507999961380847, 0.24870000197552145, 0.2514999941922724, 0.24360000679735094, 0.2612999960547313, 0.26285000785719603, 0.2490499900886789, 0.2556999970693141, 0.24290000146720558, 0.2443999983370304, 0.24470000062137842, 0.25105000531766564, 0.25009999808389693, 0.2492500061634928, 0.2494000073056668, 0.24575000861659646, 0.243950002186466, 0.2494000073056668, 0.24715000472497195, 0.2562500012572855, 0.23874999897088856, 0.2504500007489696, 0.25150000146823004, 0.24885000311769545, 0.2525000018067658, 0.24980001035146415, 0.2470500039635226, 0.2604500041343272, 0.25304999871877953, 0.246899995545391, 0.24710000434424728, 0.25705000734888017, 0.2833500038832426, 0.2531000063754618, 0.25440000172238797, 0.25764999736566097, 0.24824999854899943, 0.25520000781398267, 0.23905000125523657, 0.24665000091772527, 0.26950000756187364, 0.25084999651880935, 0.24885000311769545, 0.2436500071780756, 0.2446999933454208, 0.2516999957151711, 0.24389999452978373, 0.2502000061213039, 0.3719999876921065, 0.349600006302353, 0.2766999969026074, 0.24544999905629084, 0.2570999931776896, 0.24914999812608585, 0.24970000959001482, 0.2477000016369857, 0.24745000700931996, 0.24354999186471105, 0.2512499922886491, 0.2501499984646216, 0.2304499939782545, 0.251300007221289, 0.24560000019846484, 0.24685000244062394, 0.2454999921610579, 0.25704999279696494, 0.25040000036824495, 0.24709998979233205, 0.2504500007489696, 0.24865000159479678, 0.2533000078983605, 0.24559999292250723, 0.24275000032503158, 0.24679999478394166, 0.25290000485256314, 0.24715000472497195, 0.2456500005791895, 0.2454999994370155, 0.2524500014260411, 0.24649999977555126, 0.2583999958005734, 0.25430000096093863, 0.24395000946242362, 0.25409999943803996, 0.24470000062137842, 0.25850000383798033, 0.24739999207668006, 0.2513999934308231, 0.25725000159582123, 0.25070000265259296, 0.24550000671297312, 0.24400000256719068, 0.25510000705253333, 0.25055000151041895, 0.25040000036824495, 0.28560000646393746, 0.24634999863337725, 0.25474999711150303, 0.24905000464059412, 0.2572999947005883, 0.25070000265259296, 0.24544999905629084, 0.2536000029067509, 0.24614999711047858, 0.2504500007489696, 0.24474999372614548, 0.24509999639121816, 0.24935000692494214, 0.24934999964898452, 0.24330000451300293, 0.26044999685836956, 0.24410000332864001, 0.24759999359957874, 0.2421000026515685, 0.25599999935366213, 0.25105000531766564, 0.2464500066707842, 0.24495000252500176, 0.25510000705253333, 0.24885000311769545, 0.24585000210208818, 0.24885000311769545, 0.24109999503707513, 0.2523000002838671, 0.2450500032864511, 0.2448499944875948, 0.24870000197552145, 0.24575000861659646, 0.23985000007087365, 0.26480000087758526, 0.25275000371038914, 0.24864998704288155, 0.25504999939585105, 0.2661500038811937, 0.24855000810930505, 0.25024999922607094, 0.2702000056160614, 0.24569999368395656, 0.2499999973224476, 0.25775001267902553, 0.25194999761879444, 0.29090000316500664, 0.26220000290777534, 0.24665000091772527, 0.24655000015627593, 0.24954999389592558, 0.25334999372716993, 0.2498499961802736, 0.24939999275375158, 0.246749994403217, 0.2546500036260113, 0.25610000011511147, 0.2530000056140125, 0.2532500002416782, 0.25004999770317227, 0.2501499984646216, 0.2471999905537814, 0.24644999211886898, 0.24735000624787062, 0.24750000739004463, 0.2451999971526675, 0.24624999787192792, 0.2436500071780756, 0.24620001204311848, 0.2495500011718832, 0.253999991400633, 0.24345000565517694, 0.2508000034140423, 0.24575000134063885, 0.24990000383695588, 0.2543500013416633, 0.25654998898971826, 0.24834999203449115, 0.25105000531766564, 0.25260000256821513, 0.2518999972380698, 0.24620000476716086, 0.24994999694172293, 0.24974999541882426, 0.25499999173916876, 0.24680000205989927, 0.2426999999443069, 0.2564000096754171, 0.25535000895615667, 0.2506000018911436, 0.2558999985922128, 0.2433500048937276, 0.2552499936427921, 0.2449000021442771, 0.24485000176355243, 0.25784999888855964, 0.2539999986765906, 0.24995001149363816, 0.2541499998187646, 0.2549499913584441, 0.2374499963480048, 0.24730000586714596, 0.2539000051910989, 0.24665000091772527, 0.25555001047905535, 0.2523500079405494, 0.24930000654421747, 0.2523000002838671, 0.25674999051261693, 0.2458500093780458, 0.24649999977555126, 0.25284999719588086, 0.25349999486934394, 0.26375000015832484, 0.2571500081103295, 0.25934999575838447, 0.21019999985583127, 0.3698500004247762, 0.25074999575736, 0.2525000018067658, 0.25549999554641545, 0.2512500068405643, 0.24905000464059412, 0.24685000244062394, 0.2489500038791448, 0.247349998971913, 0.2451999971526675, 0.2510999911464751, 0.2469000028213486, 0.24914999085012823, 0.24850000772858039, 0.2483000062056817, 0.24924999888753518, 0.25054999423446134, 0.24500000290572643, 0.24745000700931996, 0.25830000231508166, 0.25425000058021396, 0.2505000084056519, 0.2503499999875203, 0.25074999575736, 0.2527499891584739, 0.24760000087553635, 0.24420000409008935, 0.2470500039635226, 0.25734999508131295, 0.26244999025948346, 0.2465499928803183, 0.24860000849002972, 0.24855000083334744, 0.24805001157801598, 0.25719999393913895, 0.24495000252500176, 0.24755000049481168, 0.25194999761879444, 0.25355000980198383, 0.25690000620670617, 0.24915000540204346, 0.2550999925006181, 0.24265000683953986, 0.25409999943803996, 0.25174999609589577, 0.24755000049481168, 0.2594500037957914, 0.24929999199230224, 0.25040000036824495, 0.24480000138282776, 0.2548999909777194, 0.2437999937683344, 0.24965000193333253, 0.26220000290777534, 0.2464500066707842, 0.2494000000297092, 0.24965000920929015, 0.28809999639634043, 0.2546500036260113, 0.24685000244062394, 0.2488999889465049, 0.2570000069681555, 0.24724999093450606, 0.25269998877774924, 0.25224999990314245, 0.25719999393913895, 0.25379999715369195, 0.24930000654421747, 0.24714999744901434, 0.2420999953756109, 0.25024999922607094, 0.2490499973646365, 0.24995000421768054, 0.2546500036260113, 0.24720000510569662, 0.2498499961802736, 0.2592999953776598, 0.24585000210208818, 0.27624999347608536, 0.2520499983802438, 0.25394999829586595, 0.25135000760201365, 0.2572999947005883, 0.2482999989297241, 0.25984999956563115, 0.24920000578276813, 0.24865000159479678, 0.2506000018911436, 0.2466000005370006, 0.26455000624991953, 0.25270000332966447, 0.25094999000430107, 0.2530999918235466, 0.25680000544525683, 0.24775000201771036, 0.24929999199230224, 0.24760000087553635, 0.26015000184997916, 0.2637999932630919, 0.24880000273697078, 0.24979999579954892, 0.24974999541882426, 0.24730000586714596, 0.25645000278018415, 0.2512500068405643, 0.24914999085012823, 0.24304999533342198, 0.2502999996067956, 0.2472500054864213, 0.2498499961802736, 0.2503499999875203, 0.24415000370936468, 0.2529499906813726],
  "QPU": "7000000",
  "Qubits": 5,
  "Queue durations [ms]": [0.0, 0.0, 0.0, 0.0, 0.0, 0.0, 0.0, 0.0, 0.0, 0.0, 0.0, 0.0, 0.0, 0.0, 0.0, 0.0, 0.0, 0.0, 0.0, 0.0, 0.0, 0.0, 0.0, 0.0, 0.0, 0.0, 0.0, 0.0, 0.0, 0.0, 0.0, 0.0, 0.0, 0.0, 0.0, 0.0, 0.0, 0.0, 0.0, 0.0, 0.0, 0.0, 0.0, 0.0, 0.0, 0.0, 0.0, 0.0, 0.0, 0.0, 0.0, 0.0, 0.0, 0.0, 0.0, 0.0, 0.0, 0.0, 0.0, 0.0, 0.0, 0.0, 0.0, 0.0, 0.0, 0.0, 0.0, 0.0, 0.0, 0.0, 0.0, 0.0, 0.0, 0.0, 0.0, 0.0, 0.0, 0.0, 0.0, 0.0, 0.0, 0.0, 0.0, 0.0, 0.0, 0.0, 0.0, 0.0, 0.0, 0.0, 0.0, 0.0, 0.0, 0.0, 0.0, 0.0, 0.0, 0.0, 0.0, 0.0, 0.0, 0.0, 0.0, 0.0, 0.0, 0.0, 0.0, 0.0, 0.0, 0.0, 0.0, 0.0, 0.0, 0.0, 0.0, 0.0, 0.0, 0.0, 0.0, 0.0, 0.0, 0.0, 0.0, 0.0, 0.0, 0.0, 0.0, 0.0, 0.0, 0.0, 0.0, 0.0, 0.0, 0.0, 0.0, 0.0, 0.0, 0.0, 0.0, 0.0, 0.0, 0.0, 0.0, 0.0, 0.0, 0.0, 0.0, 0.0, 0.0, 0.0, 0.0, 0.0, 0.0, 0.0, 0.0, 0.0, 0.0, 0.0, 0.0, 0.0, 0.0, 0.0, 0.0, 0.0, 0.0, 0.0, 0.0, 0.0, 0.0, 0.0, 0.0, 0.0, 0.0, 0.0, 0.0, 0.0, 0.0, 0.0, 0.0, 0.0, 0.0, 0.0, 0.0, 0.0, 0.0, 0.0, 0.0, 0.0, 0.0, 0.0, 0.0, 0.0, 0.0, 0.0, 0.0, 0.0, 0.0, 0.0, 0.0, 0.0, 0.0, 0.0, 0.0, 0.0, 0.0, 0.0, 0.0, 0.0, 0.0, 0.0, 0.0, 0.0, 0.0, 0.0, 0.0, 0.0, 0.0, 0.0, 0.0, 0.0, 0.0, 0.0, 0.0, 0.0, 0.0, 0.0, 0.0, 0.0, 0.0, 0.0, 0.0, 0.0, 0.0, 0.0, 0.0, 0.0, 0.0, 0.0, 0.0, 0.0, 0.0, 0.0, 0.0, 0.0, 0.0, 0.0, 0.0, 0.0, 0.0, 0.0, 0.0, 0.0, 0.0, 0.0, 0.0, 0.0, 0.0, 0.0, 0.0, 0.0, 0.0, 0.0, 0.0, 0.0, 0.0, 0.0, 0.0, 0.0, 0.0, 0.0, 0.0, 0.0, 0.0, 0.0, 0.0, 0.0, 0.0, 0.0, 0.0, 0.0, 0.0, 0.0, 0.0, 0.0, 0.0, 0.0, 0.0, 0.0, 0.0, 0.0, 0.0, 0.0, 0.0, 0.0, 0.0, 0.0, 0.0, 0.0, 0.0, 0.0, 0.0, 0.0, 0.0, 0.0, 0.0, 0.0, 0.0, 0.0, 0.0, 0.0, 0.0, 0.0, 0.0, 0.0, 0.0, 0.0, 0.0, 0.0, 0.0, 0.0, 0.0, 0.0, 0.0, 0.0, 0.0, 0.0, 0.0, 0.0, 0.0, 0.0, 0.0, 0.0, 0.0, 0.0, 0.0, 0.0, 0.0, 0.0, 0.0, 0.0, 0.0, 0.0, 0.0, 0.0, 0.0, 0.0, 0.0, 0.0, 0.0, 0.0, 0.0, 0.0, 0.0, 0.0, 0.0, 0.0, 0.0, 0.0, 0.0, 0.0, 0.0, 0.0, 0.0, 0.0, 0.0, 0.0, 0.0, 0.0, 0.0, 0.0, 0.0, 0.0, 0.0, 0.0, 0.0, 0.0, 0.0, 0.0, 0.0, 0.0, 0.0, 0.0, 0.0, 0.0, 0.0, 0.0, 0.0, 0.0, 0.0, 0.0, 0.0, 0.0, 0.0, 0.0, 0.0, 0.0, 0.0, 0.0, 0.0, 0.0, 0.0, 0.0, 0.0, 0.0, 0.0, 0.0, 0.0, 0.0, 0.0, 0.0, 0.0, 0.0, 0.0, 0.0, 0.0, 0.0, 0.0, 0.0, 0.0, 0.0, 0.0, 0.0],
  "Shots": 4096,
  "Size": 5,
  "Total Algorithm duration [s]": 2.656,
  "Total Classic duration [s]": 2.549482199913706,
  "Total Quantum duration [s]": 0.1065178000862943
}
