{
  "Circuit execution durations [ms]": [0.24950000806711614, 0.25550000282237306, 0.25129999994533136, 0.28634999762289226, 0.2469000028213486, 0.25275000371038914, 0.2484500000718981, 0.2455500070936978, 0.24249999842140824, 0.25615000049583614, 0.24340000527445227, 0.2482999989297241, 0.2494999935152009, 0.24639999901410192, 0.24710000434424728, 0.24539999867556617, 0.2478500100551173, 0.2422500037937425, 0.3104499919572845, 0.24975000997073948, 0.2605500048957765, 0.2521499991416931, 0.24524999753339216, 0.3691500096465461, 0.24995000421768054, 0.2460999967297539, 0.24909999046940356, 0.35045000549871475, 0.2555499959271401, 0.2720499978750013, 0.2467500016791746, 0.25135000760201365, 0.25349999486934394, 0.24819999816827476, 0.2923499996541068, 0.26450000586919487, 0.2452000044286251, 0.24834999931044877, 0.2495500084478408, 0.24179999309126288, 0.24385000870097429, 0.35165000008419156, 0.2469000028213486, 0.27609999233391136, 0.2508999896235764, 0.25299999106209725, 0.40815000102156773, 0.24924999161157757, 0.25070000265259296, 0.287650000245776, 0.247199997829739, 0.2625999986776151, 0.24249999842140824, 0.24639999901410192, 0.2917500023613684, 0.24340000527445227, 0.29519999952754006, 0.24920000578276813, 0.3727000148501247, 0.24685000244062394, 0.2538499975344166, 0.2558000123826787, 0.24640000629005954, 0.25690000620670617, 0.2505000011296943, 0.24790000315988436, 0.25874999118968844, 0.2446999933454208, 0.25069998810067773, 0.2593000026536174, 0.25954999728128314, 0.25675000506453216, 0.2499999973224476, 0.2530000056140125, 0.26029998844023794, 0.25409999943803996, 0.2573000092525035, 0.24605000362498686, 0.24649999977555126, 0.2652000039233826, 0.2498500034562312, 0.25594999897293746, 0.25024999922607094, 0.24485000176355243, 0.25844998890534043, 0.2536999963922426, 0.2565000031609088, 0.25540000933688134, 0.25209999876096845, 0.24870000197552145, 0.24450000637443736, 0.2426999999443069, 0.24695000320207328, 0.2456500005791895, 0.25669999013189226, 0.24825000582495704, 0.26095000794157386, 0.2488999962224625, 0.2491999912308529, 0.25019999884534627, 0.24405000294791535, 0.2506000018911436, 0.2540499990573153, 0.24885000311769545, 0.254700004006736, 0.2821500020218082, 0.2520000052754767, 0.24629999825265259, 0.25024999922607094, 0.24850000045262277, 0.2491000050213188, 0.2505000084056519, 0.2505000011296943, 0.24840000696713105, 0.24920000578276813, 0.2545000097597949, 0.26449999131727964, 0.2504500007489696, 0.2499999973224476, 0.24550000671297312, 0.24920000578276813, 0.2558499982114881, 0.26250000519212335, 0.24695000320207328, 0.2521499991416931, 0.24965000193333253, 0.25740000273799524, 0.24060000578174368, 0.2472500054864213, 0.24634999863337725, 0.2573999954620376, 0.2463999917381443, 0.24399999529123306, 0.2564000023994595, 0.24325000413227826, 0.24789999588392675, 0.24909999046940356, 0.24924999161157757, 0.255150007433258, 0.25224999990314245, 0.2541499998187646, 0.2502000061213039, 0.2505999873392284, 0.24414999643340707, 0.24419999681413174, 0.2523000002838671, 0.2605499976198189, 0.24499999562976882, 0.25105000531766564, 0.2688000022317283, 0.24744999245740473, 0.2474999928381294, 0.2525000018067658, 0.2501499984646216, 0.2506000018911436, 0.24809999740682542, 0.2506500022718683, 0.2629000009619631, 0.24499999562976882, 0.24560000019846484, 0.2495500084478408, 0.24145000497810543, 0.24400000256719068, 0.24620000476716086, 0.25105000531766564, 0.24834999931044877, 0.269049996859394, 0.2447500010021031, 0.24604999634902924, 0.27505000616656616, 0.2597999991849065, 0.2538499975344166, 0.25004999770317227, 0.24870000197552145, 0.3637999907368794, 0.3834999952232465, 0.28390000079525635, 0.2450499960104935, 0.25460000324528664, 0.2456499933032319, 0.2532499929657206, 0.2463000055286102, 0.24550000671297312, 0.2453500055707991, 0.24694999592611566, 0.24310000299010426, 0.25454998831264675, 0.24094999389490113, 0.25299999833805487, 0.2494000000297092, 0.25334999372716993, 0.2460000032442622, 0.24580000172136351, 0.2506499949959107, 0.24665000819368288, 0.2484499927959405, 0.25469999673077837, 0.2503499999875203, 0.24319999647559598, 0.25024999922607094, 0.25394999829586595, 0.2511000056983903, 0.24249999842140824, 0.27704999956768006, 0.25119999918388203, 0.2504500007489696, 0.24629999097669497, 0.2867500006686896, 0.25275000371038914, 0.24459999985992908, 0.262550005572848, 0.24974999541882426, 0.25770000502234325, 0.246899995545391, 0.2517000029911287, 0.25024999922607094, 0.2423999976599589, 0.25850000383798033, 0.2464500066707842, 0.25010000535985455, 0.2488999962224625, 0.24765000125626102, 0.2516999957151711, 0.2477000089129433, 0.24324999685632065, 0.247349998971913, 0.24599999596830457, 0.26244999025948346, 0.25484999059699476, 0.20400000357767567, 0.2495500011718832, 0.2658500015968457, 0.2486000012140721, 0.25615000777179375, 0.2515499945729971, 0.24759999359957874, 0.2636499993968755, 0.24960000882856548, 0.2421000026515685, 0.2519999979995191, 0.24874998780433089, 0.24885000311769545, 0.25320000713691115, 0.24960000155260786, 0.25069999537663534, 0.24700000358279794, 0.2464499993948266, 0.2443000048515387, 0.24194999423343688, 0.25144999381154776, 0.2602499953354709, 0.2534000013838522, 0.24710000434424728, 0.24930000654421747, 0.24679999478394166, 0.25289999757660553, 0.24894999660318717, 0.24380000832024962, 0.24310000299010426, 0.24485000903951004, 0.25135000032605603, 0.25090000417549163, 0.25145000108750537, 0.24400000256719068, 0.2494000000297092, 0.24605000362498686, 0.24914999085012823, 0.2347999979974702, 0.24495000252500176, 0.2506500022718683, 0.24404999567195773, 0.25475000438746065, 0.2452000044286251, 0.24834999931044877, 0.24960000882856548, 0.2503499999875203, 0.24735000624787062, 0.265199996647425, 0.2532500002416782, 0.25520000053802505, 0.25260000256821513, 0.23825000243959948, 0.24454999947920442, 0.25159999495372176, 0.24399999529123306, 0.24530000519007444, 0.2457999944454059, 0.24800001119729131, 0.24274999304907396, 0.24970000959001482, 0.247049996687565, 0.24864999431883916, 0.2477000016369857, 0.2613500109873712, 0.25209999876096845, 0.2558999985922128, 0.2484500000718981, 0.24420000409008935, 0.24890000349842012, 0.24385000142501667, 0.2566999974078499, 0.24759999359957874, 0.24794999626465142, 0.25024999922607094, 0.2487500023562461, 0.24515000404790044, 0.2474999928381294, 0.24769999436102808, 0.24954999389592558, 0.24915000540204346, 0.25040000036824495, 0.265650000073947, 0.24805001157801598, 0.25475000438746065, 0.25260000256821513, 0.24584999482613057, 0.283499997749459, 0.2506500022718683, 0.2533000078983605, 0.25145000108750537, 0.25100000493694097, 0.28565000684466213, 0.24700000358279794, 0.25224999990314245, 0.2525000018067658, 0.24265000683953986, 0.24934999964898452, 0.2469000028213486, 0.2412999965599738, 0.2503499999875203, 0.25859999732347205, 0.25845000345725566, 0.25150000874418765, 0.25174999609589577, 0.2498499961802736, 0.24995000421768054, 0.2630500093800947, 0.22755000100005418, 0.3651999868452549, 0.2440999960526824, 0.24529999791411683, 0.24989999656099826, 0.25069999537663534, 0.2499999973224476, 0.26110000908374786, 0.25409999943803996, 0.2628500005812384, 0.2523500006645918, 0.26080000679939985, 0.2490499900886789, 0.24589999520685524, 0.2558499982114881, 0.24655000015627593, 0.24684999516466632, 0.25485000514891, 0.25025000650202855, 0.24375000066356733, 0.24765000125626102, 0.2589499927125871, 0.24584999482613057, 0.2460999967297539, 0.2486000012140721, 0.2530499914428219, 0.2447500082780607, 0.2608499999041669, 0.24655000015627593, 0.25079998886212707, 0.24859998666215688, 0.2500000118743628, 0.2466000078129582, 0.2506500022718683, 0.25394999829586595, 0.24900000425986946, 0.2488000100129284, 0.24790000315988436, 0.2538999979151413, 0.2426999999443069, 0.2523000002838671, 0.25114999880315736, 0.2455500070936978, 0.2494000000297092, 0.2538000117056072, 0.24589999520685524, 0.2531000063754618, 0.25334999372716993, 0.2512499922886491, 0.2573500096332282, 0.24704998941160738, 0.25349999486934394, 0.24629999825265259, 0.25610000011511147, 0.2505000011296943, 0.2613500109873712, 0.2514000079827383, 0.2517000029911287, 0.2454999994370155, 0.2562000008765608, 0.258100000792183, 0.24914999812608585, 0.24885000311769545, 0.247199997829739, 0.24700000358279794, 0.2566499970271252, 0.2519999979995191, 0.2535500025260262, 0.2524500014260411, 0.2523000002838671],
  "Depth": 12.5,
  "Expectation Value": -5.736456394195557,
  "Optimal Expectation Value": -6.026674270629883,
  "Optimizer durations [ms]": [5.692, 6.464, 5.981, 6.692, 5.879, 6.016, 5.9, 5.982, 5.595, 6.12, 6.07, 6.069, 6.116, 5.901, 5.947, 5.765, 6.031, 5.954, 7.311, 6.295, 6.268, 6.159, 5.94, 8.365, 10.474, 6.207, 5.656, 8.017, 6.173, 7.448, 6.201, 5.887, 9.267, 6.024, 6.871, 6.339, 17.858, 10.119, 6.057, 6.265, 6.115, 7.969, 5.896, 6.56, 6.053, 6.001, 8.915, 15.299, 5.933, 6.875, 6.089, 6.031, 7.365, 5.915, 6.79, 5.848, 6.969, 16.015, 9.544, 6.535, 6.33, 6.189, 5.658, 6.268, 5.704, 8.163, 6.274, 6.025, 5.649, 6.154, 6.103, 6.392, 6.05, 6.093, 6.145, 6.212, 6.001, 6.39, 5.512, 6.469, 5.82, 6.218, 6.148, 6.023, 6.287, 5.885, 6.215, 6.142, 6.039, 6.219, 5.657, 6.028, 5.779, 5.827, 6.217, 5.686, 6.588, 5.88, 6.068, 5.928, 5.782, 6.161, 6.243, 5.778, 5.97, 6.899, 5.94, 6.02, 6.058, 5.691, 6.017, 6.27, 5.899, 5.948, 5.855, 5.713, 6.627, 6.014, 6.054, 5.856, 5.831, 5.977, 6.196, 6.035, 6.013, 5.768, 6.248, 5.78, 5.936, 5.898, 6.216, 5.75, 5.72, 6.056, 5.981, 5.795, 6.002, 6.179, 6.098, 6.037, 5.984, 6.255, 5.977, 5.785, 6.036, 6.01, 6.215, 5.971, 6.077, 6.571, 5.825, 5.625, 6.353, 6.021, 6.088, 5.861, 6.216, 6.206, 6.094, 6.343, 5.871, 5.855, 6.055, 5.883, 5.811, 6.131, 6.298, 5.708, 6.11, 6.246, 6.332, 5.999, 5.997, 5.854, 8.334, 23.186, 7.273, 5.578, 6.07, 6.283, 6.272, 5.73, 5.998, 6.054, 5.907, 5.789, 6.218, 5.851, 6.253, 5.95, 14.472, 5.665, 5.846, 6.169, 5.823, 5.962, 6.27, 6.055, 5.804, 6.266, 6.013, 5.993, 5.644, 6.756, 5.907, 6.022, 5.571, 6.88, 5.822, 5.827, 6.45, 5.72, 6.297, 5.741, 6.117, 5.84, 5.84, 6.476, 6.105, 6.113, 6.041, 5.967, 6.006, 5.812, 6.07, 5.651, 5.98, 7.602, 6.284, 5.072, 5.834, 6.328, 5.991, 6.364, 5.739, 6.08, 6.293, 5.729, 6.092, 5.877, 6.107, 5.832, 6.381, 5.63, 6.028, 6.101, 5.591, 5.837, 5.76, 5.928, 6.267, 6.313, 5.811, 5.827, 6.229, 5.807, 5.974, 5.913, 6.032, 6.044, 6.142, 5.962, 5.984, 5.987, 5.951, 5.869, 5.992, 7.102, 5.739, 5.898, 5.959, 6.192, 5.849, 6.042, 5.98, 6.068, 5.892, 6.248, 5.921, 6.328, 5.703, 5.74, 6.089, 5.832, 6.131, 5.908, 6.199, 5.869, 6.025, 5.938, 6.061, 5.816, 6.22, 6.331, 6.013, 6.137, 5.805, 5.905, 5.962, 5.653, 6.184, 5.935, 6.176, 6.139, 5.811, 6.176, 5.739, 6.23, 6.263, 5.986, 5.854, 6.239, 6.137, 6.006, 6.177, 5.782, 6.88, 6.088, 6.181, 5.728, 6.085, 6.631, 5.783, 6.303, 5.837, 6.099, 5.893, 5.88, 6.055, 5.738, 5.926, 6.343, 6.142, 5.644, 6.267, 5.907, 6.408, 23.292, 8.123, 5.855, 6.05, 6.11, 6.015, 5.729, 6.639, 5.93, 6.212, 5.803, 6.218, 6.144, 5.839, 5.99, 5.994, 5.832, 6.406, 10.77, 5.697, 6.243, 5.958, 6.162, 6.141, 6.018, 6.019, 5.901, 6.442, 5.717, 5.85, 6.21, 5.966, 6.107, 5.977, 6.075, 5.67, 5.957, 6.178, 5.955, 6.092, 5.984, 6.069, 6.116, 5.686, 6.058, 5.755, 6.27, 6.198, 6.083, 6.028, 5.977, 6.022, 6.221, 7.302, 5.692, 6.451, 5.917, 6.177, 5.9, 6.27, 6.432, 5.966, 5.831, 5.891, 5.787, 6.215, 6.006, 6.306, 6.104, 5.994],
  "Optimizer iterations": 407,
  "Optimizer params": [0.9619254802510745, 1.0, 0.9834950046215836, 0.4339579634081184, 0.17932449600334388, 0.34566581914877104, 0.9553108007808278, 0.24371789918139017, 0.3831869663684834, 0.8918427174094804, 0.0819494640614369, 0.1208888875239887, 0.1400565925917961, 0.3390386388173891, 0.6719874381601462, 0.5430519032109994, 0.5230596949901032, 0.5091676259514217, 0.06528348301097525, 0.23594969774287222],
  "P": 0,
  "Problem": "IC",
  "QJob durations [ms]": [0.24950000806711614, 0.25550000282237306, 0.25129999994533136, 0.28634999762289226, 0.2469000028213486, 0.25275000371038914, 0.2484500000718981, 0.2455500070936978, 0.24249999842140824, 0.25615000049583614, 0.24340000527445227, 0.2482999989297241, 0.2494999935152009, 0.24639999901410192, 0.24710000434424728, 0.24539999867556617, 0.2478500100551173, 0.2422500037937425, 0.3104499919572845, 0.24975000997073948, 0.2605500048957765, 0.2521499991416931, 0.24524999753339216, 0.3691500096465461, 0.24995000421768054, 0.2460999967297539, 0.24909999046940356, 0.35045000549871475, 0.2555499959271401, 0.2720499978750013, 0.2467500016791746, 0.25135000760201365, 0.25349999486934394, 0.24819999816827476, 0.2923499996541068, 0.26450000586919487, 0.2452000044286251, 0.24834999931044877, 0.2495500084478408, 0.24179999309126288, 0.24385000870097429, 0.35165000008419156, 0.2469000028213486, 0.27609999233391136, 0.2508999896235764, 0.25299999106209725, 0.40815000102156773, 0.24924999161157757, 0.25070000265259296, 0.287650000245776, 0.247199997829739, 0.2625999986776151, 0.24249999842140824, 0.24639999901410192, 0.2917500023613684, 0.24340000527445227, 0.29519999952754006, 0.24920000578276813, 0.3727000148501247, 0.24685000244062394, 0.2538499975344166, 0.2558000123826787, 0.24640000629005954, 0.25690000620670617, 0.2505000011296943, 0.24790000315988436, 0.25874999118968844, 0.2446999933454208, 0.25069998810067773, 0.2593000026536174, 0.25954999728128314, 0.25675000506453216, 0.2499999973224476, 0.2530000056140125, 0.26029998844023794, 0.25409999943803996, 0.2573000092525035, 0.24605000362498686, 0.24649999977555126, 0.2652000039233826, 0.2498500034562312, 0.25594999897293746, 0.25024999922607094, 0.24485000176355243, 0.25844998890534043, 0.2536999963922426, 0.2565000031609088, 0.25540000933688134, 0.25209999876096845, 0.24870000197552145, 0.24450000637443736, 0.2426999999443069, 0.24695000320207328, 0.2456500005791895, 0.25669999013189226, 0.24825000582495704, 0.26095000794157386, 0.2488999962224625, 0.2491999912308529, 0.25019999884534627, 0.24405000294791535, 0.2506000018911436, 0.2540499990573153, 0.24885000311769545, 0.254700004006736, 0.2821500020218082, 0.2520000052754767, 0.24629999825265259, 0.25024999922607094, 0.24850000045262277, 0.2491000050213188, 0.2505000084056519, 0.2505000011296943, 0.24840000696713105, 0.24920000578276813, 0.2545000097597949, 0.26449999131727964, 0.2504500007489696, 0.2499999973224476, 0.24550000671297312, 0.24920000578276813, 0.2558499982114881, 0.26250000519212335, 0.24695000320207328, 0.2521499991416931, 0.24965000193333253, 0.25740000273799524, 0.24060000578174368, 0.2472500054864213, 0.24634999863337725, 0.2573999954620376, 0.2463999917381443, 0.24399999529123306, 0.2564000023994595, 0.24325000413227826, 0.24789999588392675, 0.24909999046940356, 0.24924999161157757, 0.255150007433258, 0.25224999990314245, 0.2541499998187646, 0.2502000061213039, 0.2505999873392284, 0.24414999643340707, 0.24419999681413174, 0.2523000002838671, 0.2605499976198189, 0.24499999562976882, 0.25105000531766564, 0.2688000022317283, 0.24744999245740473, 0.2474999928381294, 0.2525000018067658, 0.2501499984646216, 0.2506000018911436, 0.24809999740682542, 0.2506500022718683, 0.2629000009619631, 0.24499999562976882, 0.24560000019846484, 0.2495500084478408, 0.24145000497810543, 0.24400000256719068, 0.24620000476716086, 0.25105000531766564, 0.24834999931044877, 0.269049996859394, 0.2447500010021031, 0.24604999634902924, 0.27505000616656616, 0.2597999991849065, 0.2538499975344166, 0.25004999770317227, 0.24870000197552145, 0.3637999907368794, 0.3834999952232465, 0.28390000079525635, 0.2450499960104935, 0.25460000324528664, 0.2456499933032319, 0.2532499929657206, 0.2463000055286102, 0.24550000671297312, 0.2453500055707991, 0.24694999592611566, 0.24310000299010426, 0.25454998831264675, 0.24094999389490113, 0.25299999833805487, 0.2494000000297092, 0.25334999372716993, 0.2460000032442622, 0.24580000172136351, 0.2506499949959107, 0.24665000819368288, 0.2484499927959405, 0.25469999673077837, 0.2503499999875203, 0.24319999647559598, 0.25024999922607094, 0.25394999829586595, 0.2511000056983903, 0.24249999842140824, 0.27704999956768006, 0.25119999918388203, 0.2504500007489696, 0.24629999097669497, 0.2867500006686896, 0.25275000371038914, 0.24459999985992908, 0.262550005572848, 0.24974999541882426, 0.25770000502234325, 0.246899995545391, 0.2517000029911287, 0.25024999922607094, 0.2423999976599589, 0.25850000383798033, 0.2464500066707842, 0.25010000535985455, 0.2488999962224625, 0.24765000125626102, 0.2516999957151711, 0.2477000089129433, 0.24324999685632065, 0.247349998971913, 0.24599999596830457, 0.26244999025948346, 0.25484999059699476, 0.20400000357767567, 0.2495500011718832, 0.2658500015968457, 0.2486000012140721, 0.25615000777179375, 0.2515499945729971, 0.24759999359957874, 0.2636499993968755, 0.24960000882856548, 0.2421000026515685, 0.2519999979995191, 0.24874998780433089, 0.24885000311769545, 0.25320000713691115, 0.24960000155260786, 0.25069999537663534, 0.24700000358279794, 0.2464499993948266, 0.2443000048515387, 0.24194999423343688, 0.25144999381154776, 0.2602499953354709, 0.2534000013838522, 0.24710000434424728, 0.24930000654421747, 0.24679999478394166, 0.25289999757660553, 0.24894999660318717, 0.24380000832024962, 0.24310000299010426, 0.24485000903951004, 0.25135000032605603, 0.25090000417549163, 0.25145000108750537, 0.24400000256719068, 0.2494000000297092, 0.24605000362498686, 0.24914999085012823, 0.2347999979974702, 0.24495000252500176, 0.2506500022718683, 0.24404999567195773, 0.25475000438746065, 0.2452000044286251, 0.24834999931044877, 0.24960000882856548, 0.2503499999875203, 0.24735000624787062, 0.265199996647425, 0.2532500002416782, 0.25520000053802505, 0.25260000256821513, 0.23825000243959948, 0.24454999947920442, 0.25159999495372176, 0.24399999529123306, 0.24530000519007444, 0.2457999944454059, 0.24800001119729131, 0.24274999304907396, 0.24970000959001482, 0.247049996687565, 0.24864999431883916, 0.2477000016369857, 0.2613500109873712, 0.25209999876096845, 0.2558999985922128, 0.2484500000718981, 0.24420000409008935, 0.24890000349842012, 0.24385000142501667, 0.2566999974078499, 0.24759999359957874, 0.24794999626465142, 0.25024999922607094, 0.2487500023562461, 0.24515000404790044, 0.2474999928381294, 0.24769999436102808, 0.24954999389592558, 0.24915000540204346, 0.25040000036824495, 0.265650000073947, 0.24805001157801598, 0.25475000438746065, 0.25260000256821513, 0.24584999482613057, 0.283499997749459, 0.2506500022718683, 0.2533000078983605, 0.25145000108750537, 0.25100000493694097, 0.28565000684466213, 0.24700000358279794, 0.25224999990314245, 0.2525000018067658, 0.24265000683953986, 0.24934999964898452, 0.2469000028213486, 0.2412999965599738, 0.2503499999875203, 0.25859999732347205, 0.25845000345725566, 0.25150000874418765, 0.25174999609589577, 0.2498499961802736, 0.24995000421768054, 0.2630500093800947, 0.22755000100005418, 0.3651999868452549, 0.2440999960526824, 0.24529999791411683, 0.24989999656099826, 0.25069999537663534, 0.2499999973224476, 0.26110000908374786, 0.25409999943803996, 0.2628500005812384, 0.2523500006645918, 0.26080000679939985, 0.2490499900886789, 0.24589999520685524, 0.2558499982114881, 0.24655000015627593, 0.24684999516466632, 0.25485000514891, 0.25025000650202855, 0.24375000066356733, 0.24765000125626102, 0.2589499927125871, 0.24584999482613057, 0.2460999967297539, 0.2486000012140721, 0.2530499914428219, 0.2447500082780607, 0.2608499999041669, 0.24655000015627593, 0.25079998886212707, 0.24859998666215688, 0.2500000118743628, 0.2466000078129582, 0.2506500022718683, 0.25394999829586595, 0.24900000425986946, 0.2488000100129284, 0.24790000315988436, 0.2538999979151413, 0.2426999999443069, 0.2523000002838671, 0.25114999880315736, 0.2455500070936978, 0.2494000000297092, 0.2538000117056072, 0.24589999520685524, 0.2531000063754618, 0.25334999372716993, 0.2512499922886491, 0.2573500096332282, 0.24704998941160738, 0.25349999486934394, 0.24629999825265259, 0.25610000011511147, 0.2505000011296943, 0.2613500109873712, 0.2514000079827383, 0.2517000029911287, 0.2454999994370155, 0.2562000008765608, 0.258100000792183, 0.24914999812608585, 0.24885000311769545, 0.247199997829739, 0.24700000358279794, 0.2566499970271252, 0.2519999979995191, 0.2535500025260262, 0.2524500014260411, 0.2523000002838671],
  "QPU": "7000000",
  "Qubits": 5,
  "Queue durations [ms]": [0.0, 0.0, 0.0, 0.0, 0.0, 0.0, 0.0, 0.0, 0.0, 0.0, 0.0, 0.0, 0.0, 0.0, 0.0, 0.0, 0.0, 0.0, 0.0, 0.0, 0.0, 0.0, 0.0, 0.0, 0.0, 0.0, 0.0, 0.0, 0.0, 0.0, 0.0, 0.0, 0.0, 0.0, 0.0, 0.0, 0.0, 0.0, 0.0, 0.0, 0.0, 0.0, 0.0, 0.0, 0.0, 0.0, 0.0, 0.0, 0.0, 0.0, 0.0, 0.0, 0.0, 0.0, 0.0, 0.0, 0.0, 0.0, 0.0, 0.0, 0.0, 0.0, 0.0, 0.0, 0.0, 0.0, 0.0, 0.0, 0.0, 0.0, 0.0, 0.0, 0.0, 0.0, 0.0, 0.0, 0.0, 0.0, 0.0, 0.0, 0.0, 0.0, 0.0, 0.0, 0.0, 0.0, 0.0, 0.0, 0.0, 0.0, 0.0, 0.0, 0.0, 0.0, 0.0, 0.0, 0.0, 0.0, 0.0, 0.0, 0.0, 0.0, 0.0, 0.0, 0.0, 0.0, 0.0, 0.0, 0.0, 0.0, 0.0, 0.0, 0.0, 0.0, 0.0, 0.0, 0.0, 0.0, 0.0, 0.0, 0.0, 0.0, 0.0, 0.0, 0.0, 0.0, 0.0, 0.0, 0.0, 0.0, 0.0, 0.0, 0.0, 0.0, 0.0, 0.0, 0.0, 0.0, 0.0, 0.0, 0.0, 0.0, 0.0, 0.0, 0.0, 0.0, 0.0, 0.0, 0.0, 0.0, 0.0, 0.0, 0.0, 0.0, 0.0, 0.0, 0.0, 0.0, 0.0, 0.0, 0.0, 0.0, 0.0, 0.0, 0.0, 0.0, 0.0, 0.0, 0.0, 0.0, 0.0, 0.0, 0.0, 0.0, 0.0, 0.0, 0.0, 0.0, 0.0, 0.0, 0.0, 0.0, 0.0, 0.0, 0.0, 0.0, 0.0, 0.0, 0.0, 0.0, 0.0, 0.0, 0.0, 0.0, 0.0, 0.0, 0.0, 0.0, 0.0, 0.0, 0.0, 0.0, 0.0, 0.0, 0.0, 0.0, 0.0, 0.0, 0.0, 0.0, 0.0, 0.0, 0.0, 0.0, 0.0, 0.0, 0.0, 0.0, 0.0, 0.0, 0.0, 0.0, 0.0, 0.0, 0.0, 0.0, 0.0, 0.0, 0.0, 0.0, 0.0, 0.0, 0.0, 0.0, 0.0, 0.0, 0.0, 0.0, 0.0, 0.0, 0.0, 0.0, 0.0, 0.0, 0.0, 0.0, 0.0, 0.0, 0.0, 0.0, 0.0, 0.0, 0.0, 0.0, 0.0, 0.0, 0.0, 0.0, 0.0, 0.0, 0.0, 0.0, 0.0, 0.0, 0.0, 0.0, 0.0, 0.0, 0.0, 0.0, 0.0, 0.0, 0.0, 0.0, 0.0, 0.0, 0.0, 0.0, 0.0, 0.0, 0.0, 0.0, 0.0, 0.0, 0.0, 0.0, 0.0, 0.0, 0.0, 0.0, 0.0, 0.0, 0.0, 0.0, 0.0, 0.0, 0.0, 0.0, 0.0, 0.0, 0.0, 0.0, 0.0, 0.0, 0.0, 0.0, 0.0, 0.0, 0.0, 0.0, 0.0, 0.0, 0.0, 0.0, 0.0, 0.0, 0.0, 0.0, 0.0, 0.0, 0.0, 0.0, 0.0, 0.0, 0.0, 0.0, 0.0, 0.0, 0.0, 0.0, 0.0, 0.0, 0.0, 0.0, 0.0, 0.0, 0.0, 0.0, 0.0, 0.0, 0.0, 0.0, 0.0, 0.0, 0.0, 0.0, 0.0, 0.0, 0.0, 0.0, 0.0, 0.0, 0.0, 0.0, 0.0, 0.0, 0.0, 0.0, 0.0, 0.0, 0.0, 0.0, 0.0, 0.0, 0.0, 0.0, 0.0, 0.0, 0.0, 0.0, 0.0, 0.0, 0.0, 0.0, 0.0, 0.0, 0.0, 0.0, 0.0, 0.0, 0.0, 0.0, 0.0, 0.0, 0.0, 0.0, 0.0, 0.0, 0.0, 0.0, 0.0, 0.0, 0.0, 0.0, 0.0, 0.0, 0.0, 0.0, 0.0, 0.0, 0.0, 0.0, 0.0, 0.0, 0.0, 0.0, 0.0],
  "Shots": 4096,
  "Size": 5,
  "Total Algorithm duration [s]": 2.576,
  "Total Classic duration [s]": 2.4727031498395955,
  "Total Quantum duration [s]": 0.10329685016040457
}
