{
  "Circuit execution durations [ms]": [0.41640001290943474, 0.2174500041292049, 0.4335999838076532, 0.29805000667693093, 0.43014999391743913, 0.3867499908665195, 0.368350010830909, 0.3540499892551452, 0.29009999707341194, 0.4169000021647662, 0.26339999749325216, 0.2699000033317134, 0.2878500090446323, 0.33710000570863485, 0.4262500078766607, 0.2720500051509589, 0.23440000222763047, 0.25394999829586595, 0.24730000586714596, 0.26030000299215317, 0.25299999106209725, 0.2535500025260262, 0.25749999622348696, 0.2524500014260411, 0.2442499971948564, 0.25100000493694097, 0.2484500000718981, 0.24850000045262277, 0.2661500038811937, 0.2474000066285953, 0.2488000100129284, 0.24965000920929015, 0.261799999861978, 0.24819999089231715, 0.25599999935366213, 0.2477000016369857, 0.25394999829586595, 0.25090000417549163, 0.258250001934357, 0.24745000700931996, 0.25534999440424144, 0.2490499900886789, 0.25284998991992325, 0.251300007221289, 0.24860000849002972, 0.25854998966678977, 0.2669500026968308, 0.24819999816827476, 0.254700004006736, 0.2476499939803034, 0.258850006503053, 0.2536000101827085, 0.2527499891584739, 0.25099999038502574, 0.25260000256821513, 0.24774999474175274, 0.39069999183993787, 0.2527999968151562, 0.26735001301858574, 0.29599999834317714, 0.28199999360367656, 0.2860000022337772, 0.2309500050614588, 0.2718500036280602, 0.3899999937857501, 0.2506500022718683, 0.24275000032503158, 0.2570000069681555, 0.24994999694172293, 0.24245000531664118, 0.2570000069681555, 0.24915000540204346, 0.25460000324528664, 0.24744999973336235, 0.27084999601356685, 0.258250001934357, 0.2455500070936978, 0.2523500006645918, 0.24149999808287248, 0.25180001102853566, 0.25240000104531646, 0.24849999317666516, 0.2626000059535727, 0.25240000832127407, 0.24205000227084383, 0.25594999897293746, 0.24709999706828967, 0.24744999973336235, 0.25725000159582123, 0.24599999596830457, 0.2474000066285953, 0.24229999689850956, 0.2573000092525035, 0.2440999960526824, 0.24679999478394166, 0.24760000815149397, 0.2467500016791746, 0.25260000256821513, 0.2492500061634928, 0.2548999909777194, 0.265950002358295, 0.2527999895391986, 0.24480000138282776, 0.24214999575633556, 0.24759999359957874, 0.25934999575838447, 0.2518499968573451, 0.2600500010885298, 0.24959999427665025, 0.2556999970693141, 0.2487500023562461, 0.251300007221289, 0.24810000468278304, 0.25240000104531646, 0.2539999986765906, 0.2460999967297539, 0.27749998844228685, 0.24710000434424728, 0.2563500020187348, 0.24989999656099826, 0.2474999928381294, 0.24585000210208818, 0.2549499913584441, 0.2510999911464751, 0.24604999634902924, 0.24530000519007444, 0.2569499920355156, 0.25129999266937375, 0.24634999863337725, 0.25764999736566097, 0.25350000942125916, 0.2503499999875203, 0.25209999876096845, 0.2514999941922724, 0.24450000637443736, 0.2433500048937276, 0.2547999902162701, 0.2503499999875203, 0.2636500066728331, 0.2529499906813726, 0.24950000079115853, 0.2868000010494143, 0.25770001229830086, 0.2467500016791746, 0.2524999945308082, 0.24455000675516203, 0.3887000057147816, 0.2528500044718385, 0.25290000485256314, 0.2683500060811639, 0.25970000569941476, 0.2517000102670863, 0.25174999609589577, 0.31564998789690435, 0.2523000002838671, 0.24735000624787062, 0.251450008363463, 0.2511999919079244, 0.25415000709472224, 0.2577499981271103, 0.2562000081525184, 0.2528500044718385, 0.25025000650202855, 0.26015000184997916, 0.24580000172136351, 0.2523000002838671, 0.2520499983802438, 0.25105000531766564, 0.24924999888753518, 0.255000006291084, 0.2493499923730269, 0.2521999995224178, 0.2431499960948713, 0.21415000082924962, 0.2521499991416931, 0.26175000675721094, 0.24440000561298802, 0.25120000645983964, 0.2491000050213188, 0.24395000946242362, 0.25340000865980983, 0.24839999241521582, 0.2419500087853521, 0.23075000353856012, 0.2482999989297241, 0.2911000046879053, 0.24404999567195773, 0.27134999982081354, 0.2472500054864213, 0.24194999423343688, 0.25290000485256314, 0.4107999993721023, 0.32160000409930944, 0.2544999879319221, 0.43009999353671446, 0.2562500085332431, 0.4386999789858237, 0.3751499971258454, 0.2751499996520579, 0.24839999969117343, 0.25364999601151794, 0.2501499984646216, 0.24575000134063885, 0.3126500087091699, 0.2486000012140721, 0.2674999996088445, 0.24914999085012823, 0.2508000034140423, 0.24890000349842012, 0.25040000036824495, 0.2457000082358718, 0.2564499882282689, 0.2553000012994744, 0.2518499968573451, 0.24560000019846484, 0.2476499939803034, 0.2569499920355156, 0.2499999973224476, 0.25024999922607094, 0.24729999131523073, 0.24920000578276813, 0.25490000552963465, 0.25270000332966447, 0.25040000036824495, 0.2494999935152009, 0.2515500091249123, 0.2484500000718981, 0.24750000739004463, 0.2446999933454208, 0.24839999969117343, 0.24759999359957874, 0.24385000142501667, 0.2538499975344166, 0.24839999969117343, 0.2536000029067509, 0.24354999914066866, 0.2655000062077306, 0.24919999850681052, 0.2536000101827085, 0.24560000019846484, 0.2410000015515834, 0.2493499923730269, 0.24400000256719068, 0.24744999973336235, 0.25275000371038914, 0.25925000227289274, 0.2599500003270805, 0.24649999977555126, 0.24670000129844993, 0.24685000244062394, 0.24929999199230224, 0.26185000024270266, 0.2479999966453761, 0.24169999960577115, 0.25919999461621046, 0.24610000400571153, 0.24915000540204346, 0.24679999478394166, 0.24920000578276813, 0.24839999969117343, 0.2479999966453761, 0.2660000027390197, 0.24994999694172293, 0.25085000379476696, 0.2472500054864213, 0.2363500025239773, 0.2520499983802438, 0.26079999952344224, 0.24295000184793025, 0.24735000624787062, 0.2516999957151711, 0.2480999901308678, 0.2848999938578345, 0.25240000104531646, 0.24540000595152378, 0.23985000007087365, 0.2510999911464751, 0.25895000726450235, 0.2412999965599738, 0.24804999702610075, 0.2854499907698482, 0.2452000044286251, 0.2675499927136116, 0.24934999964898452, 0.2548000047681853, 0.2516999957151711, 0.2467500016791746, 0.25320000713691115, 0.2507499884814024, 0.24795001081656665, 0.2520499983802438, 0.24900000425986946, 0.24554999981774017, 0.2515499945729971, 0.2663000050233677, 0.24894999660318717, 0.24695000320207328, 0.2521999995224178, 0.24570000095991418, 0.2505000011296943, 0.4077500125276856, 0.21750000450992957, 0.4189000028418377, 0.243800001044292, 0.2562000008765608, 0.24805000430205837, 0.25334999372716993, 0.2581999942776747, 0.2487500023562461, 0.24495000252500176, 0.24834999931044877, 0.24760000815149397, 0.254700004006736, 0.25019999156938866, 0.25889999233186245, 0.2513499930500984, 0.2499999973224476, 0.25329999334644526, 0.25329999334644526, 0.2504500007489696, 0.2505000011296943, 0.2494000073056668, 0.2570000069681555, 0.2560499997343868, 0.24655000015627593, 0.254550002864562, 0.25070000265259296, 0.2426999999443069, 0.24464999296469614, 0.2506500022718683, 0.2532499929657206, 0.2506500022718683, 0.24414999643340707, 0.25984999956563115, 0.2519999979995191, 0.25255000218749046, 0.2511000056983903, 0.24370000755880028, 0.2750000057858415, 0.24529999063815922, 0.24710000434424728, 0.25009999808389693, 0.2443000048515387, 0.24839999969117343, 0.24730000586714596, 0.24914999085012823, 0.2478500027791597, 0.2570999931776896, 0.2470500039635226, 0.2523500006645918, 0.24585000210208818, 0.25719999393913895, 0.24619999749120325, 0.2608499926282093, 0.2499999973224476, 0.2528500044718385, 0.2439499949105084, 0.24414999643340707, 0.2523500006645918, 0.25224999990314245, 0.2566499970271252, 0.25344999448861927, 0.25099999766098335, 0.24694999592611566, 0.25579999783076346, 0.25055000151041895, 0.25755000388016924, 0.2590999938547611, 0.26185000024270266, 0.25264998839702457, 0.26080000679939985, 0.2511000056983903, 0.24699999630684033, 0.2457000082358718, 0.24604999634902924, 0.24804999702610075, 0.24750000739004463, 0.2429000087431632, 0.2576000115368515, 0.2512499922886491, 0.25040000036824495, 0.2512500068405643, 0.254449994827155, 0.24824999854899943, 0.258550004218705, 0.2512500068405643, 0.2778999987640418, 0.24759999359957874, 0.25579999783076346, 0.24420000409008935, 0.24685000244062394, 0.25564999668858945, 0.24800001119729131, 0.2495500011718832, 0.24629999825265259, 0.25185001140926033, 0.24970000959001482, 0.2477000016369857, 0.2474000066285953, 0.24900000425986946, 0.2457000082358718, 0.2562000008765608, 0.24989999656099826, 0.26125001022592187, 0.2495500011718832, 0.24674998712725937, 0.25535000168019906, 0.24590000248281285, 0.251300007221289, 0.24290000146720558, 0.2525000018067658, 0.25270000332966447, 0.24449999909847975, 0.2512500068405643, 0.2423999976599589, 0.24994999694172293, 0.25040000036824495, 0.25094999000430107, 0.2589499927125871, 0.2812000020639971, 0.2511000056983903, 0.24974999541882426, 0.25784999888855964, 0.25844999618129805, 0.2531500067561865, 0.24905000464059412, 0.24480000138282776, 0.2511999919079244, 0.2507500030333176, 0.24255000607809052, 0.24434999795630574, 0.2565500035416335, 0.25335000827908516, 0.2484500000718981, 0.24530000519007444, 0.24805000430205837, 0.27255000168224797, 0.247349998971913, 0.2858499938156456, 0.25334999372716993, 0.2491999912308529, 0.24599999596830457, 0.2529499906813726, 0.26420000358484685, 0.247049996687565, 0.24479999410687014, 0.27709999994840473, 0.2494999935152009, 0.25135000032605603, 0.25040000036824495, 0.24364999262616038, 0.28384999313857406, 0.2508000034140423, 0.2478500027791597, 0.24839999969117343, 0.25015001301653683, 0.2505499869585037, 0.25240000832127407, 0.24730000586714596, 0.2552499936427921, 0.2449000094202347, 0.2517000029911287, 0.22924999939277768, 0.37980001070536673, 0.25179999647662044, 0.2511999919079244, 0.25334999372716993, 0.25129999266937375, 0.24750000011408702, 0.25499999173916876, 0.2502999996067956, 0.24525000480934978, 0.2504500007489696, 0.258250001934357, 0.25949999690055847, 0.25114999152719975, 0.24710000434424728, 0.24950000806711614, 0.24964999465737492, 0.2528000040911138, 0.2469000028213486, 0.25564999668858945, 0.2506500022718683, 0.2477000089129433, 0.2527999968151562, 0.2482999989297241, 0.2470500039635226, 0.24000000121304765, 0.24570000095991418, 0.2506500022718683, 0.25484999059699476, 0.25425000058021396, 0.24554999254178256, 0.24739999935263768, 0.2426999999443069, 0.24780000239843503, 0.24345000565517694, 0.2469000028213486, 0.2565000031609088, 0.2533000078983605, 0.25425000058021396, 0.2497000023140572, 0.2531500067561865, 0.26279999292455614, 0.25090000417549163],
  "Depth": 12.5,
  "Expectation Value": -5.038420677185059,
  "Optimal Expectation Value": -6.026674270629883,
  "Optimizer durations [ms]": [11.376, 24.757, 15.138, 8.141, 13.594, 10.89, 22.314, 21.391, 12.652, 9.231, 6.745, 6.806, 8.315, 8.641, 11.814, 6.876, 7.095, 8.704, 5.901, 6.342, 6.2, 5.898, 6.346, 5.694, 6.162, 5.754, 6.081, 6.283, 6.249, 5.888, 5.959, 5.929, 6.399, 5.639, 6.046, 6.145, 5.94, 6.076, 6.055, 6.001, 6.309, 5.889, 6.108, 6.042, 5.842, 6.076, 6.189, 6.068, 6.002, 6.072, 6.397, 6.275, 7.967, 6.296, 5.997, 5.746, 8.62, 8.989, 9.517, 9.261, 7.341, 9.986, 11.578, 15.658, 16.779, 5.872, 5.999, 6.246, 5.881, 6.234, 6.118, 5.852, 6.301, 5.782, 6.276, 6.265, 5.994, 5.961, 5.963, 5.907, 6.232, 5.952, 6.115, 5.971, 5.972, 6.366, 5.956, 5.568, 6.004, 6.014, 6.061, 5.894, 6.16, 6.083, 5.906, 5.941, 6.009, 6.037, 5.756, 6.363, 6.312, 6.001, 5.957, 5.991, 5.683, 6.3, 5.864, 6.277, 5.75, 6.175, 5.967, 6.134, 5.785, 6.121, 5.976, 5.715, 7.014, 5.822, 6.309, 5.906, 5.888, 5.916, 6.344, 6.153, 5.989, 6.235, 6.153, 6.104, 6.058, 5.983, 6.325, 6.01, 5.873, 6.004, 5.997, 5.925, 6.148, 5.669, 6.424, 6.17, 5.859, 6.841, 6.208, 5.867, 6.165, 5.879, 8.453, 5.799, 6.392, 6.161, 6.372, 5.815, 6.118, 7.409, 6.391, 6.121, 6.184, 6.006, 6.118, 12.877, 6.387, 6.028, 5.751, 6.76, 6.079, 6.044, 6.057, 6.304, 5.931, 6.056, 6.591, 5.965, 7.7, 17.318, 5.744, 6.36, 5.823, 6.293, 8.969, 5.805, 5.974, 6.002, 5.802, 19.525, 6.007, 6.745, 6.195, 17.489, 8.461, 8.303, 7.827, 21.82, 8.524, 12.095, 14.589, 20.725, 15.275, 8.817, 6.589, 6.024, 6.149, 6.089, 5.719, 7.451, 5.943, 6.167, 8.015, 5.805, 6.465, 6.129, 5.719, 6.009, 5.981, 6.198, 6.0, 5.833, 6.295, 5.966, 5.846, 5.954, 6.088, 6.203, 5.976, 6.075, 5.786, 5.995, 6.073, 5.955, 5.955, 5.796, 6.031, 5.752, 6.23, 5.88, 6.015, 5.869, 6.316, 6.117, 6.27, 5.69, 6.049, 5.979, 6.031, 6.064, 5.927, 6.36, 6.251, 5.905, 5.76, 6.134, 5.741, 6.413, 5.71, 5.746, 6.289, 5.701, 5.988, 5.845, 6.065, 6.063, 5.727, 6.443, 5.99, 6.007, 5.845, 7.934, 5.926, 6.307, 5.705, 6.099, 5.986, 6.133, 6.385, 6.349, 5.692, 5.945, 5.884, 6.118, 5.985, 5.732, 6.767, 6.045, 6.479, 5.868, 5.917, 6.221, 5.87, 6.155, 6.13, 5.96, 6.244, 5.902, 6.093, 5.867, 6.404, 6.036, 5.965, 6.131, 5.805, 6.047, 9.052, 18.869, 9.334, 6.16, 6.126, 5.992, 5.792, 6.375, 5.654, 6.167, 6.179, 5.841, 6.142, 5.809, 6.302, 6.061, 5.998, 5.845, 6.145, 6.174, 6.045, 5.98, 6.233, 6.105, 5.819, 6.157, 5.865, 5.827, 6.253, 5.81, 6.096, 5.892, 5.833, 6.184, 6.378, 5.969, 6.196, 5.902, 6.536, 5.665, 6.206, 6.013, 6.039, 5.904, 5.968, 5.907, 5.997, 5.931, 6.07, 6.006, 6.01, 6.06, 6.039, 5.997, 9.219, 5.82, 5.924, 5.917, 6.008, 5.897, 6.198, 5.978, 5.916, 6.116, 6.149, 5.86, 6.025, 6.113, 6.598, 8.653, 6.1, 6.008, 5.912, 6.061, 5.793, 6.18, 5.845, 5.929, 6.178, 6.063, 5.997, 5.709, 6.104, 5.967, 6.061, 6.122, 6.63, 5.933, 5.975, 6.092, 5.697, 6.266, 5.826, 5.761, 6.02, 6.254, 5.861, 5.935, 5.808, 6.106, 5.728, 6.263, 5.732, 6.313, 6.151, 5.896, 6.308, 5.79, 6.035, 6.127, 5.959, 5.858, 5.853, 6.142, 5.942, 6.001, 6.064, 5.758, 6.356, 6.622, 6.084, 5.808, 6.419, 14.059, 6.259, 5.84, 6.066, 5.954, 5.929, 5.86, 5.829, 6.267, 6.162, 6.059, 5.91, 5.722, 6.478, 5.974, 6.45, 6.589, 6.095, 5.664, 6.005, 6.318, 5.995, 5.975, 6.388, 5.822, 6.171, 6.231, 5.669, 6.739, 5.991, 5.925, 6.134, 5.89, 5.856, 5.998, 6.297, 6.028, 6.119, 7.817, 21.264, 8.59, 6.025, 6.148, 6.199, 6.068, 5.61, 6.365, 5.749, 6.268, 5.884, 6.0, 6.374, 5.67, 5.882, 6.261, 6.116, 5.959, 5.741, 6.233, 5.955, 5.774, 6.33, 6.08, 5.64, 6.05, 5.71, 6.05, 6.159, 6.03, 6.051, 5.721, 6.018, 5.766, 6.12, 5.824, 6.248, 5.995, 6.126, 5.815, 6.124, 6.122, 5.879],
  "Optimizer iterations": 505,
  "Optimizer params": [0.1346834978482814, 0.2738316585614465, 0.6051370791765568, 0.06750908306230595, 0.9758934333855337, 0.958375818615222, 0.9908576074574109, 0.895977662805269, 0.10097840573979029, 0.49578947698988274, 0.9984484809215117, 0.003643883879076949, 0.9994251230967087, 0.5059878524043043, 0.9834970871330738, 0.04831732792608534, 0.9879436802002101, 0.9819134171272853, 0.9119838211716368, 0.46859566210499876],
  "P": 0,
  "Problem": "IC",
  "QJob durations [ms]": [0.41640001290943474, 0.2174500041292049, 0.4335999838076532, 0.29805000667693093, 0.43014999391743913, 0.3867499908665195, 0.368350010830909, 0.3540499892551452, 0.29009999707341194, 0.4169000021647662, 0.26339999749325216, 0.2699000033317134, 0.2878500090446323, 0.33710000570863485, 0.4262500078766607, 0.2720500051509589, 0.23440000222763047, 0.25394999829586595, 0.24730000586714596, 0.26030000299215317, 0.25299999106209725, 0.2535500025260262, 0.25749999622348696, 0.2524500014260411, 0.2442499971948564, 0.25100000493694097, 0.2484500000718981, 0.24850000045262277, 0.2661500038811937, 0.2474000066285953, 0.2488000100129284, 0.24965000920929015, 0.261799999861978, 0.24819999089231715, 0.25599999935366213, 0.2477000016369857, 0.25394999829586595, 0.25090000417549163, 0.258250001934357, 0.24745000700931996, 0.25534999440424144, 0.2490499900886789, 0.25284998991992325, 0.251300007221289, 0.24860000849002972, 0.25854998966678977, 0.2669500026968308, 0.24819999816827476, 0.254700004006736, 0.2476499939803034, 0.258850006503053, 0.2536000101827085, 0.2527499891584739, 0.25099999038502574, 0.25260000256821513, 0.24774999474175274, 0.39069999183993787, 0.2527999968151562, 0.26735001301858574, 0.29599999834317714, 0.28199999360367656, 0.2860000022337772, 0.2309500050614588, 0.2718500036280602, 0.3899999937857501, 0.2506500022718683, 0.24275000032503158, 0.2570000069681555, 0.24994999694172293, 0.24245000531664118, 0.2570000069681555, 0.24915000540204346, 0.25460000324528664, 0.24744999973336235, 0.27084999601356685, 0.258250001934357, 0.2455500070936978, 0.2523500006645918, 0.24149999808287248, 0.25180001102853566, 0.25240000104531646, 0.24849999317666516, 0.2626000059535727, 0.25240000832127407, 0.24205000227084383, 0.25594999897293746, 0.24709999706828967, 0.24744999973336235, 0.25725000159582123, 0.24599999596830457, 0.2474000066285953, 0.24229999689850956, 0.2573000092525035, 0.2440999960526824, 0.24679999478394166, 0.24760000815149397, 0.2467500016791746, 0.25260000256821513, 0.2492500061634928, 0.2548999909777194, 0.265950002358295, 0.2527999895391986, 0.24480000138282776, 0.24214999575633556, 0.24759999359957874, 0.25934999575838447, 0.2518499968573451, 0.2600500010885298, 0.24959999427665025, 0.2556999970693141, 0.2487500023562461, 0.251300007221289, 0.24810000468278304, 0.25240000104531646, 0.2539999986765906, 0.2460999967297539, 0.27749998844228685, 0.24710000434424728, 0.2563500020187348, 0.24989999656099826, 0.2474999928381294, 0.24585000210208818, 0.2549499913584441, 0.2510999911464751, 0.24604999634902924, 0.24530000519007444, 0.2569499920355156, 0.25129999266937375, 0.24634999863337725, 0.25764999736566097, 0.25350000942125916, 0.2503499999875203, 0.25209999876096845, 0.2514999941922724, 0.24450000637443736, 0.2433500048937276, 0.2547999902162701, 0.2503499999875203, 0.2636500066728331, 0.2529499906813726, 0.24950000079115853, 0.2868000010494143, 0.25770001229830086, 0.2467500016791746, 0.2524999945308082, 0.24455000675516203, 0.3887000057147816, 0.2528500044718385, 0.25290000485256314, 0.2683500060811639, 0.25970000569941476, 0.2517000102670863, 0.25174999609589577, 0.31564998789690435, 0.2523000002838671, 0.24735000624787062, 0.251450008363463, 0.2511999919079244, 0.25415000709472224, 0.2577499981271103, 0.2562000081525184, 0.2528500044718385, 0.25025000650202855, 0.26015000184997916, 0.24580000172136351, 0.2523000002838671, 0.2520499983802438, 0.25105000531766564, 0.24924999888753518, 0.255000006291084, 0.2493499923730269, 0.2521999995224178, 0.2431499960948713, 0.21415000082924962, 0.2521499991416931, 0.26175000675721094, 0.24440000561298802, 0.25120000645983964, 0.2491000050213188, 0.24395000946242362, 0.25340000865980983, 0.24839999241521582, 0.2419500087853521, 0.23075000353856012, 0.2482999989297241, 0.2911000046879053, 0.24404999567195773, 0.27134999982081354, 0.2472500054864213, 0.24194999423343688, 0.25290000485256314, 0.4107999993721023, 0.32160000409930944, 0.2544999879319221, 0.43009999353671446, 0.2562500085332431, 0.4386999789858237, 0.3751499971258454, 0.2751499996520579, 0.24839999969117343, 0.25364999601151794, 0.2501499984646216, 0.24575000134063885, 0.3126500087091699, 0.2486000012140721, 0.2674999996088445, 0.24914999085012823, 0.2508000034140423, 0.24890000349842012, 0.25040000036824495, 0.2457000082358718, 0.2564499882282689, 0.2553000012994744, 0.2518499968573451, 0.24560000019846484, 0.2476499939803034, 0.2569499920355156, 0.2499999973224476, 0.25024999922607094, 0.24729999131523073, 0.24920000578276813, 0.25490000552963465, 0.25270000332966447, 0.25040000036824495, 0.2494999935152009, 0.2515500091249123, 0.2484500000718981, 0.24750000739004463, 0.2446999933454208, 0.24839999969117343, 0.24759999359957874, 0.24385000142501667, 0.2538499975344166, 0.24839999969117343, 0.2536000029067509, 0.24354999914066866, 0.2655000062077306, 0.24919999850681052, 0.2536000101827085, 0.24560000019846484, 0.2410000015515834, 0.2493499923730269, 0.24400000256719068, 0.24744999973336235, 0.25275000371038914, 0.25925000227289274, 0.2599500003270805, 0.24649999977555126, 0.24670000129844993, 0.24685000244062394, 0.24929999199230224, 0.26185000024270266, 0.2479999966453761, 0.24169999960577115, 0.25919999461621046, 0.24610000400571153, 0.24915000540204346, 0.24679999478394166, 0.24920000578276813, 0.24839999969117343, 0.2479999966453761, 0.2660000027390197, 0.24994999694172293, 0.25085000379476696, 0.2472500054864213, 0.2363500025239773, 0.2520499983802438, 0.26079999952344224, 0.24295000184793025, 0.24735000624787062, 0.2516999957151711, 0.2480999901308678, 0.2848999938578345, 0.25240000104531646, 0.24540000595152378, 0.23985000007087365, 0.2510999911464751, 0.25895000726450235, 0.2412999965599738, 0.24804999702610075, 0.2854499907698482, 0.2452000044286251, 0.2675499927136116, 0.24934999964898452, 0.2548000047681853, 0.2516999957151711, 0.2467500016791746, 0.25320000713691115, 0.2507499884814024, 0.24795001081656665, 0.2520499983802438, 0.24900000425986946, 0.24554999981774017, 0.2515499945729971, 0.2663000050233677, 0.24894999660318717, 0.24695000320207328, 0.2521999995224178, 0.24570000095991418, 0.2505000011296943, 0.4077500125276856, 0.21750000450992957, 0.4189000028418377, 0.243800001044292, 0.2562000008765608, 0.24805000430205837, 0.25334999372716993, 0.2581999942776747, 0.2487500023562461, 0.24495000252500176, 0.24834999931044877, 0.24760000815149397, 0.254700004006736, 0.25019999156938866, 0.25889999233186245, 0.2513499930500984, 0.2499999973224476, 0.25329999334644526, 0.25329999334644526, 0.2504500007489696, 0.2505000011296943, 0.2494000073056668, 0.2570000069681555, 0.2560499997343868, 0.24655000015627593, 0.254550002864562, 0.25070000265259296, 0.2426999999443069, 0.24464999296469614, 0.2506500022718683, 0.2532499929657206, 0.2506500022718683, 0.24414999643340707, 0.25984999956563115, 0.2519999979995191, 0.25255000218749046, 0.2511000056983903, 0.24370000755880028, 0.2750000057858415, 0.24529999063815922, 0.24710000434424728, 0.25009999808389693, 0.2443000048515387, 0.24839999969117343, 0.24730000586714596, 0.24914999085012823, 0.2478500027791597, 0.2570999931776896, 0.2470500039635226, 0.2523500006645918, 0.24585000210208818, 0.25719999393913895, 0.24619999749120325, 0.2608499926282093, 0.2499999973224476, 0.2528500044718385, 0.2439499949105084, 0.24414999643340707, 0.2523500006645918, 0.25224999990314245, 0.2566499970271252, 0.25344999448861927, 0.25099999766098335, 0.24694999592611566, 0.25579999783076346, 0.25055000151041895, 0.25755000388016924, 0.2590999938547611, 0.26185000024270266, 0.25264998839702457, 0.26080000679939985, 0.2511000056983903, 0.24699999630684033, 0.2457000082358718, 0.24604999634902924, 0.24804999702610075, 0.24750000739004463, 0.2429000087431632, 0.2576000115368515, 0.2512499922886491, 0.25040000036824495, 0.2512500068405643, 0.254449994827155, 0.24824999854899943, 0.258550004218705, 0.2512500068405643, 0.2778999987640418, 0.24759999359957874, 0.25579999783076346, 0.24420000409008935, 0.24685000244062394, 0.25564999668858945, 0.24800001119729131, 0.2495500011718832, 0.24629999825265259, 0.25185001140926033, 0.24970000959001482, 0.2477000016369857, 0.2474000066285953, 0.24900000425986946, 0.2457000082358718, 0.2562000008765608, 0.24989999656099826, 0.26125001022592187, 0.2495500011718832, 0.24674998712725937, 0.25535000168019906, 0.24590000248281285, 0.251300007221289, 0.24290000146720558, 0.2525000018067658, 0.25270000332966447, 0.24449999909847975, 0.2512500068405643, 0.2423999976599589, 0.24994999694172293, 0.25040000036824495, 0.25094999000430107, 0.2589499927125871, 0.2812000020639971, 0.2511000056983903, 0.24974999541882426, 0.25784999888855964, 0.25844999618129805, 0.2531500067561865, 0.24905000464059412, 0.24480000138282776, 0.2511999919079244, 0.2507500030333176, 0.24255000607809052, 0.24434999795630574, 0.2565500035416335, 0.25335000827908516, 0.2484500000718981, 0.24530000519007444, 0.24805000430205837, 0.27255000168224797, 0.247349998971913, 0.2858499938156456, 0.25334999372716993, 0.2491999912308529, 0.24599999596830457, 0.2529499906813726, 0.26420000358484685, 0.247049996687565, 0.24479999410687014, 0.27709999994840473, 0.2494999935152009, 0.25135000032605603, 0.25040000036824495, 0.24364999262616038, 0.28384999313857406, 0.2508000034140423, 0.2478500027791597, 0.24839999969117343, 0.25015001301653683, 0.2505499869585037, 0.25240000832127407, 0.24730000586714596, 0.2552499936427921, 0.2449000094202347, 0.2517000029911287, 0.22924999939277768, 0.37980001070536673, 0.25179999647662044, 0.2511999919079244, 0.25334999372716993, 0.25129999266937375, 0.24750000011408702, 0.25499999173916876, 0.2502999996067956, 0.24525000480934978, 0.2504500007489696, 0.258250001934357, 0.25949999690055847, 0.25114999152719975, 0.24710000434424728, 0.24950000806711614, 0.24964999465737492, 0.2528000040911138, 0.2469000028213486, 0.25564999668858945, 0.2506500022718683, 0.2477000089129433, 0.2527999968151562, 0.2482999989297241, 0.2470500039635226, 0.24000000121304765, 0.24570000095991418, 0.2506500022718683, 0.25484999059699476, 0.25425000058021396, 0.24554999254178256, 0.24739999935263768, 0.2426999999443069, 0.24780000239843503, 0.24345000565517694, 0.2469000028213486, 0.2565000031609088, 0.2533000078983605, 0.25425000058021396, 0.2497000023140572, 0.2531500067561865, 0.26279999292455614, 0.25090000417549163],
  "QPU": "7000000",
  "Qubits": 5,
  "Queue durations [ms]": [0.0, 0.0, 0.0, 0.0, 0.0, 0.0, 0.0, 0.0, 0.0, 0.0, 0.0, 0.0, 0.0, 0.0, 0.0, 0.0, 0.0, 0.0, 0.0, 0.0, 0.0, 0.0, 0.0, 0.0, 0.0, 0.0, 0.0, 0.0, 0.0, 0.0, 0.0, 0.0, 0.0, 0.0, 0.0, 0.0, 0.0, 0.0, 0.0, 0.0, 0.0, 0.0, 0.0, 0.0, 0.0, 0.0, 0.0, 0.0, 0.0, 0.0, 0.0, 0.0, 0.0, 0.0, 0.0, 0.0, 0.0, 0.0, 0.0, 0.0, 0.0, 0.0, 0.0, 0.0, 0.0, 0.0, 0.0, 0.0, 0.0, 0.0, 0.0, 0.0, 0.0, 0.0, 0.0, 0.0, 0.0, 0.0, 0.0, 0.0, 0.0, 0.0, 0.0, 0.0, 0.0, 0.0, 0.0, 0.0, 0.0, 0.0, 0.0, 0.0, 0.0, 0.0, 0.0, 0.0, 0.0, 0.0, 0.0, 0.0, 0.0, 0.0, 0.0, 0.0, 0.0, 0.0, 0.0, 0.0, 0.0, 0.0, 0.0, 0.0, 0.0, 0.0, 0.0, 0.0, 0.0, 0.0, 0.0, 0.0, 0.0, 0.0, 0.0, 0.0, 0.0, 0.0, 0.0, 0.0, 0.0, 0.0, 0.0, 0.0, 0.0, 0.0, 0.0, 0.0, 0.0, 0.0, 0.0, 0.0, 0.0, 0.0, 0.0, 0.0, 0.0, 0.0, 0.0, 0.0, 0.0, 0.0, 0.0, 0.0, 0.0, 0.0, 0.0, 0.0, 0.0, 0.0, 0.0, 0.0, 0.0, 0.0, 0.0, 0.0, 0.0, 0.0, 0.0, 0.0, 0.0, 0.0, 0.0, 0.0, 0.0, 0.0, 0.0, 0.0, 0.0, 0.0, 0.0, 0.0, 0.0, 0.0, 0.0, 0.0, 0.0, 0.0, 0.0, 0.0, 0.0, 0.0, 0.0, 0.0, 0.0, 0.0, 0.0, 0.0, 0.0, 0.0, 0.0, 0.0, 0.0, 0.0, 0.0, 0.0, 0.0, 0.0, 0.0, 0.0, 0.0, 0.0, 0.0, 0.0, 0.0, 0.0, 0.0, 0.0, 0.0, 0.0, 0.0, 0.0, 0.0, 0.0, 0.0, 0.0, 0.0, 0.0, 0.0, 0.0, 0.0, 0.0, 0.0, 0.0, 0.0, 0.0, 0.0, 0.0, 0.0, 0.0, 0.0, 0.0, 0.0, 0.0, 0.0, 0.0, 0.0, 0.0, 0.0, 0.0, 0.0, 0.0, 0.0, 0.0, 0.0, 0.0, 0.0, 0.0, 0.0, 0.0, 0.0, 0.0, 0.0, 0.0, 0.0, 0.0, 0.0, 0.0, 0.0, 0.0, 0.0, 0.0, 0.0, 0.0, 0.0, 0.0, 0.0, 0.0, 0.0, 0.0, 0.0, 0.0, 0.0, 0.0, 0.0, 0.0, 0.0, 0.0, 0.0, 0.0, 0.0, 0.0, 0.0, 0.0, 0.0, 0.0, 0.0, 0.0, 0.0, 0.0, 0.0, 0.0, 0.0, 0.0, 0.0, 0.0, 0.0, 0.0, 0.0, 0.0, 0.0, 0.0, 0.0, 0.0, 0.0, 0.0, 0.0, 0.0, 0.0, 0.0, 0.0, 0.0, 0.0, 0.0, 0.0, 0.0, 0.0, 0.0, 0.0, 0.0, 0.0, 0.0, 0.0, 0.0, 0.0, 0.0, 0.0, 0.0, 0.0, 0.0, 0.0, 0.0, 0.0, 0.0, 0.0, 0.0, 0.0, 0.0, 0.0, 0.0, 0.0, 0.0, 0.0, 0.0, 0.0, 0.0, 0.0, 0.0, 0.0, 0.0, 0.0, 0.0, 0.0, 0.0, 0.0, 0.0, 0.0, 0.0, 0.0, 0.0, 0.0, 0.0, 0.0, 0.0, 0.0, 0.0, 0.0, 0.0, 0.0, 0.0, 0.0, 0.0, 0.0, 0.0, 0.0, 0.0, 0.0, 0.0, 0.0, 0.0, 0.0, 0.0, 0.0, 0.0, 0.0, 0.0, 0.0, 0.0, 0.0, 0.0, 0.0, 0.0, 0.0, 0.0, 0.0, 0.0, 0.0, 0.0, 0.0, 0.0, 0.0, 0.0, 0.0, 0.0, 0.0, 0.0, 0.0, 0.0, 0.0, 0.0, 0.0, 0.0, 0.0, 0.0, 0.0, 0.0, 0.0, 0.0, 0.0, 0.0, 0.0, 0.0, 0.0, 0.0, 0.0, 0.0, 0.0, 0.0, 0.0, 0.0, 0.0, 0.0, 0.0, 0.0, 0.0, 0.0, 0.0, 0.0, 0.0, 0.0, 0.0, 0.0, 0.0, 0.0, 0.0, 0.0, 0.0, 0.0, 0.0, 0.0, 0.0, 0.0, 0.0, 0.0, 0.0, 0.0, 0.0, 0.0, 0.0, 0.0, 0.0, 0.0, 0.0, 0.0, 0.0, 0.0, 0.0, 0.0, 0.0, 0.0, 0.0, 0.0, 0.0, 0.0, 0.0, 0.0, 0.0, 0.0, 0.0, 0.0, 0.0, 0.0, 0.0, 0.0, 0.0, 0.0, 0.0, 0.0, 0.0, 0.0, 0.0, 0.0, 0.0, 0.0, 0.0, 0.0, 0.0],
  "Shots": 4096,
  "Size": 5,
  "Total Algorithm duration [s]": 3.379,
  "Total Classic duration [s]": 3.248730899845308,
  "Total Quantum duration [s]": 0.13026910015469184
}
