{
  "Circuit execution durations [ms]": [0.25910000840667635, 0.24620000476716086, 0.24294999457197264, 0.2461500043864362, 0.23979999969014898, 0.2632999967318028, 0.26095000794157386, 0.2519999979995191, 0.2518499968573451, 0.24820000544423237, 0.2537499967729673, 0.24640000629005954, 0.24850000045262277, 0.24505001056240872, 0.25275000371038914, 0.24334999034181237, 0.25164999533444643, 0.26089999300893396, 0.24664999364176765, 0.2532500075176358, 0.24695000320207328, 0.24669999402249232, 0.24509999639121816, 0.2436500071780756, 0.24440000561298802, 0.24790000315988436, 0.24595000286353752, 0.2529499906813726, 0.24565000785514712, 0.25270000332966447, 0.25019999884534627, 0.25394999829586595, 0.24440000561298802, 0.24730000586714596, 0.2555499959271401, 0.24824999854899943, 0.2499999973224476, 0.24494999524904415, 0.24664999364176765, 0.2521999995224178, 0.24819999816827476, 0.24554999981774017, 0.247349998971913, 0.25355000980198383, 0.24945000768639147, 0.25409999943803996, 0.25004999770317227, 0.2845999988494441, 0.2598999999463558, 0.24979999579954892, 0.24435000523226336, 0.24500000290572643, 0.2780499999062158, 0.25159999495372176, 0.24985001073218882, 0.25380000442964956, 0.24489999486831948, 0.2335499957553111, 0.22794999676989391, 0.39754998579155654, 0.24124999617924914, 0.25654998898971826, 0.2547999974922277, 0.2519999979995191, 0.24550000671297312, 0.24215000303229317, 0.25570001162122935, 0.24825000582495704, 0.2572499943198636, 0.24935000692494214, 0.2528000040911138, 0.24375000066356733, 0.25164999533444643, 0.25895000726450235, 0.254700004006736, 0.2473499916959554, 0.24855000083334744, 0.2597999991849065, 0.24835000658640638, 0.2496999950380996, 0.255000006291084, 0.2538999979151413, 0.24850000045262277, 0.24665000091772527, 0.251300007221289, 0.2578999992692843, 0.2508000034140423, 0.26879999495577067, 0.2734000008786097, 0.2520499983802438, 0.2503499999875203, 0.24624999787192792, 0.2584999965620227, 0.25379999715369195, 0.25830000231508166, 0.25555001047905535, 0.25024999922607094, 0.2569499920355156, 0.2476499939803034, 0.2612999960547313, 0.2676499934750609, 0.2575000107754022, 0.25019999156938866, 0.24655000015627593, 0.3881999946315773, 0.2541499998187646, 0.24870000197552145, 0.2544499875511974, 0.2565000031609088, 0.24679999478394166, 0.24855000083334744, 0.25504999211989343, 0.2549499913584441, 0.2498499961802736, 0.2565999893704429, 0.2523000002838671, 0.2580500004114583, 0.24529999791411683, 0.24840000696713105, 0.24894998932722956, 0.24850000045262277, 0.2499999973224476, 0.2523500006645918, 0.24780000967439264, 0.2572499943198636, 0.25194999761879444, 0.2523499933886342, 0.24570000095991418, 0.25859999004751444, 0.25209999876096845, 0.2555000100983307, 0.2444500059937127, 0.25394999829586595, 0.24569999368395656, 0.248350013862364, 0.25194999761879444, 0.2543499867897481, 0.24810000468278304, 0.25475000438746065, 0.2641000028233975, 0.25105000531766564, 0.25085000379476696, 0.2598999999463558, 0.2520499983802438, 0.2541499998187646, 0.24715000472497195, 0.2499999973224476, 0.287349997961428, 0.25594999897293746, 0.24595000286353752, 0.2435000060359016, 0.2493499923730269, 0.26205000176560134, 0.24855000083334744, 0.25305000599473715, 0.24470000062137842, 0.25314999220427126, 0.25610000011511147, 0.2443999910610728, 0.2562500012572855, 0.25224999990314245, 0.25194999761879444, 0.24595000286353752, 0.2569499993114732, 0.2508000034140423, 0.26184999296674505, 0.24640000629005954, 0.25179999647662044, 0.25164999533444643, 0.2499999973224476, 0.2454999994370155, 0.2549500059103593, 0.27940000290982425, 0.24649999249959365, 0.2542000001994893, 0.25179999647662044, 0.25284998991992325, 0.26670000806916505, 0.25270000332966447, 0.25009999808389693, 0.2507999961380847, 0.2537499967729673, 0.28464999923016876, 0.24890000349842012, 0.25334999372716993, 0.2552999940235168, 0.24720000510569662, 0.25684999127406627, 0.26050000451505184, 0.2527499891584739, 0.25255000218749046, 0.2490499973646365, 0.2558499982114881, 0.255450009717606, 0.25224999990314245, 0.24960000882856548, 0.2516999957151711, 0.25159999495372176, 0.28849999216618016, 0.2538499975344166, 0.26760000037029386, 0.25934999575838447, 0.2448499944875948, 0.2973000009660609, 0.2523500006645918, 0.2634999982547015, 0.2498499961802736, 0.250899996899534, 0.2466000078129582, 0.24700000358279794, 0.26130001060664654, 0.251300007221289, 0.24570000095991418, 0.25534999440424144, 0.2487500023562461, 0.24880000273697078, 0.2588499992270954, 0.25164999533444643, 0.39629999082535505, 0.24709999706828967, 0.2922999919974245, 0.25340000865980983, 0.25889999960782006, 0.24750000739004463, 0.24994999694172293, 0.2489500038791448, 0.37090000114403665, 0.24695000320207328, 0.28575000033015385, 0.24935000692494214, 0.2529499906813726, 0.3228999994462356, 0.25070000265259296, 0.2888000017264858, 0.24714999017305672, 0.28839999868068844, 0.24750000011408702, 0.25445000210311264, 0.27084999601356685, 0.24539999867556617, 0.25919999461621046, 0.38189999031601474, 0.24855000810930505, 0.29609999182866886, 0.24974999541882426, 0.25660000392235816, 0.21364999702200294, 0.24635000590933487, 0.2782499941531569, 0.2503499999875203, 0.24909999774536118, 0.3929499871446751, 0.2501499984646216, 0.29800000629620627, 0.2449000021442771, 0.25119999918388203, 0.3366999881109223, 0.2741499920375645, 0.30189999961294234, 0.25045000802492723, 0.24995001149363816, 0.246899995545391, 0.2527999968151562, 0.25440000172238797, 0.24485000176355243, 0.25019999884534627, 0.24544999178033322, 0.2456500005791895, 0.2494000073056668, 0.25419998564757407, 0.2526500029489398, 0.2486000012140721, 0.2509499972802587, 0.2564999886089936, 0.24744999245740473, 0.25024999922607094, 0.24354999914066866, 0.243499998759944, 0.26059999800054356, 0.24929999926825985, 0.2538499975344166, 0.25240000104531646, 0.24835000658640638, 0.24900000425986946, 0.25475000438746065, 0.24485000176355243, 0.24509999639121816, 0.25680000544525683, 0.24330000451300293, 0.2530499914428219, 0.2514999941922724, 0.24695000320207328, 0.24255000607809052, 0.25019999884534627, 0.24455000675516203, 0.2520000052754767, 0.2675499999895692, 0.25874999118968844, 0.27674999728333205, 0.2519999979995191, 0.2500500049791299, 0.2594499965198338, 0.25299999106209725, 0.25314999220427126, 0.24584999482613057, 0.2467500016791746, 0.26265000633429736, 0.247049996687565, 0.24685000244062394, 0.25579999783076346, 0.2571499935584143, 0.2487500023562461, 0.24864999431883916, 0.26309999520890415, 0.2529500052332878, 0.24865000159479678, 0.2510499907657504, 0.24420000409008935, 0.2453500055707991, 0.2511999919079244, 0.24494999524904415, 0.2476499939803034, 0.25505000667180866, 0.25394999829586595, 0.24629999097669497, 0.24859998666215688, 0.24495000980095938, 0.2613000033306889, 0.24709999706828967, 0.2446000071358867, 0.25599999935366213, 0.24739999935263768, 0.2503499999875203, 0.2532499929657206, 0.2504499861970544, 0.25260000256821513, 0.24634999863337725, 0.2954500014311634, 0.2454999994370155, 0.2499999973224476, 0.2449000094202347, 0.2470500039635226, 0.2533999941078946, 0.2457999944454059, 0.26790000265464187, 0.25159999495372176, 0.24694999592611566, 0.2457000082358718, 0.2535499952500686, 0.2600500010885298, 0.2629000082379207, 0.2563500020187348, 0.25910000840667635, 0.2566500043030828, 0.24364999262616038, 0.24905000464059412, 0.2555999963078648, 0.25660000392235816, 0.24684999516466632, 0.2453499982948415, 0.25164999533444643, 0.2499000111129135, 0.2518499968573451, 0.25599999935366213, 0.24769999436102808, 0.25769999774638563, 0.25599999935366213, 0.2505000011296943, 0.24605000362498686, 0.2489500038791448, 0.26145001174882054, 0.24339999799849465, 0.26139999681618065, 0.23309999232878909, 0.34914999559987336, 0.28079999901819974, 0.24470000062137842, 0.23784999939380214, 0.24970000959001482, 0.2562000008765608, 0.2533000078983605, 0.2471999905537814, 0.2518999972380698, 0.2622499960125424, 0.2525000018067658, 0.2541499998187646, 0.2550999997765757, 0.25100000493694097, 0.25284998991992325, 0.2456500005791895, 0.2649000016390346, 0.24595000286353752, 0.25260000256821513, 0.24939999275375158, 0.24545000633224845, 0.26154999795835465, 0.2491999912308529, 0.2527999895391986, 0.2576000042608939, 0.2538999979151413, 0.258550004218705, 0.2578999992692843, 0.21084999752929434, 0.24989999656099826, 0.2470500039635226, 0.24959999427665025, 0.2411499954177998, 0.2426999999443069, 0.2496999950380996, 0.2477999951224774, 0.2518999972380698, 0.2460999967297539, 0.24500000290572643, 0.2481499977875501, 0.27100000443169847, 0.2598999999463558, 0.24385000142501667, 0.24995001149363816, 0.24685000244062394, 0.2480000039213337, 0.24715000472497195, 0.2482999989297241, 0.2531999925849959, 0.2413500042166561, 0.25159999495372176, 0.24789999588392675, 0.25349999486934394, 0.24935000692494214],
  "Depth": 12.5,
  "Expectation Value": -5.941380500793457,
  "Optimal Expectation Value": -6.026674270629883,
  "Optimizer durations [ms]": [6.285, 5.575, 5.873, 5.891, 6.49, 6.071, 6.038, 6.351, 6.109, 5.816, 6.183, 5.9, 6.056, 5.725, 5.983, 5.963, 5.791, 6.452, 5.75, 6.147, 5.703, 6.056, 5.783, 5.941, 6.045, 5.887, 5.944, 6.056, 5.989, 5.964, 6.033, 6.061, 5.796, 5.999, 6.033, 5.978, 5.802, 5.937, 5.975, 5.989, 6.047, 5.811, 5.989, 5.949, 6.202, 6.175, 6.293, 6.545, 6.009, 5.893, 6.119, 5.737, 6.586, 6.112, 5.935, 6.162, 5.647, 7.727, 21.317, 8.863, 6.017, 5.894, 6.319, 6.12, 5.662, 6.064, 6.263, 5.696, 6.241, 5.928, 5.879, 6.015, 5.712, 6.327, 5.874, 6.035, 6.053, 6.375, 5.933, 5.681, 6.273, 6.123, 5.802, 6.255, 5.783, 6.449, 5.772, 6.147, 6.321, 13.64, 6.04, 5.733, 6.326, 6.088, 6.092, 6.155, 5.995, 6.166, 5.875, 6.294, 6.216, 6.492, 5.841, 5.783, 8.78, 5.919, 6.098, 7.493, 6.198, 6.043, 5.971, 6.22, 5.99, 5.795, 6.221, 6.001, 6.138, 5.991, 5.911, 5.961, 5.845, 6.255, 6.071, 5.838, 6.333, 5.916, 6.022, 5.952, 6.292, 5.869, 6.151, 5.8, 6.088, 5.887, 5.923, 6.302, 6.157, 5.901, 5.94, 6.53, 6.153, 5.819, 6.314, 5.862, 6.201, 6.068, 5.895, 6.777, 6.129, 5.856, 5.818, 6.176, 6.139, 5.763, 6.166, 5.71, 6.131, 5.938, 5.946, 6.271, 5.976, 6.085, 5.718, 5.964, 5.946, 6.56, 5.697, 6.284, 5.936, 5.976, 6.142, 6.106, 6.429, 5.945, 6.186, 5.938, 5.879, 6.533, 6.034, 5.764, 6.154, 6.057, 6.69, 5.991, 6.116, 6.047, 5.742, 6.113, 6.46, 5.889, 6.176, 5.983, 6.152, 6.214, 6.174, 5.921, 5.903, 6.153, 6.922, 5.908, 6.408, 6.254, 5.795, 7.067, 6.13, 6.269, 5.985, 6.201, 5.977, 5.599, 6.507, 5.803, 6.018, 6.356, 5.955, 5.699, 6.086, 6.03, 8.82, 6.068, 6.777, 6.282, 5.897, 15.408, 5.934, 6.028, 8.299, 5.929, 6.936, 6.073, 6.026, 8.273, 6.138, 6.672, 6.074, 6.781, 17.581, 6.23, 6.084, 6.086, 6.206, 8.497, 6.006, 6.691, 6.064, 6.465, 19.774, 5.709, 6.81, 6.012, 5.917, 8.63, 5.709, 7.225, 5.678, 5.912, 19.843, 6.999, 7.908, 6.073, 5.992, 10.28, 5.698, 6.182, 5.892, 5.88, 5.915, 6.094, 6.066, 6.15, 5.989, 6.093, 5.692, 6.401, 5.828, 6.049, 5.901, 5.717, 6.393, 5.976, 6.072, 6.101, 5.897, 5.693, 6.263, 5.82, 5.836, 6.365, 5.864, 6.09, 6.107, 5.79, 5.732, 6.013, 6.121, 6.023, 6.328, 6.303, 6.222, 6.16, 6.336, 6.283, 6.068, 5.912, 5.825, 5.936, 6.222, 5.775, 5.869, 6.021, 6.122, 6.287, 5.616, 6.369, 6.179, 5.837, 5.951, 5.883, 6.018, 5.879, 6.141, 5.607, 6.226, 5.968, 6.11, 5.899, 5.813, 6.409, 5.799, 6.052, 6.159, 5.924, 6.125, 5.96, 6.035, 5.938, 6.099, 6.79, 5.984, 5.641, 5.893, 6.257, 5.993, 5.796, 6.467, 6.091, 5.643, 6.021, 6.301, 6.039, 6.448, 6.156, 6.248, 6.102, 6.052, 5.621, 7.875, 5.833, 6.087, 6.008, 6.106, 6.011, 6.305, 5.996, 6.218, 5.783, 6.182, 5.912, 5.75, 6.347, 6.191, 5.972, 6.286, 20.614, 8.34, 6.869, 5.856, 6.437, 5.988, 6.442, 6.115, 5.99, 5.76, 6.14, 6.283, 5.995, 6.018, 6.217, 5.876, 5.771, 6.326, 5.937, 6.12, 6.129, 5.796, 6.171, 6.103, 5.931, 6.091, 5.992, 6.384, 6.293, 11.517, 5.62, 6.117, 5.816, 6.041, 5.924, 5.919, 5.806, 5.977, 6.007, 5.839, 6.171, 6.364, 6.402, 5.924, 5.909, 5.974, 5.79, 5.854, 6.052, 6.068, 10.392, 5.917, 6.109, 6.013, 6.29],
  "Optimizer iterations": 428,
  "Optimizer params": [0.07279356470081565, 0.9336529707683434, 0.5757637992399404, 0.9163710910203136, 0.9901783051024213, 0.3795032616712403, 0.13630511327646225, 0.8754225215902118, 0.028576003317494287, 0.9461083534411535, 0.0034836363784710726, 0.01565568855376505, 0.5097294986020572, 0.49390974238003876, 0.9999494655740646, 0.1426750991025725, 0.4739458241890615, 0.38489572440640735, 0.9904692135181419, 0.9617123373507874],
  "P": 0,
  "Problem": "IC",
  "QJob durations [ms]": [0.25910000840667635, 0.24620000476716086, 0.24294999457197264, 0.2461500043864362, 0.23979999969014898, 0.2632999967318028, 0.26095000794157386, 0.2519999979995191, 0.2518499968573451, 0.24820000544423237, 0.2537499967729673, 0.24640000629005954, 0.24850000045262277, 0.24505001056240872, 0.25275000371038914, 0.24334999034181237, 0.25164999533444643, 0.26089999300893396, 0.24664999364176765, 0.2532500075176358, 0.24695000320207328, 0.24669999402249232, 0.24509999639121816, 0.2436500071780756, 0.24440000561298802, 0.24790000315988436, 0.24595000286353752, 0.2529499906813726, 0.24565000785514712, 0.25270000332966447, 0.25019999884534627, 0.25394999829586595, 0.24440000561298802, 0.24730000586714596, 0.2555499959271401, 0.24824999854899943, 0.2499999973224476, 0.24494999524904415, 0.24664999364176765, 0.2521999995224178, 0.24819999816827476, 0.24554999981774017, 0.247349998971913, 0.25355000980198383, 0.24945000768639147, 0.25409999943803996, 0.25004999770317227, 0.2845999988494441, 0.2598999999463558, 0.24979999579954892, 0.24435000523226336, 0.24500000290572643, 0.2780499999062158, 0.25159999495372176, 0.24985001073218882, 0.25380000442964956, 0.24489999486831948, 0.2335499957553111, 0.22794999676989391, 0.39754998579155654, 0.24124999617924914, 0.25654998898971826, 0.2547999974922277, 0.2519999979995191, 0.24550000671297312, 0.24215000303229317, 0.25570001162122935, 0.24825000582495704, 0.2572499943198636, 0.24935000692494214, 0.2528000040911138, 0.24375000066356733, 0.25164999533444643, 0.25895000726450235, 0.254700004006736, 0.2473499916959554, 0.24855000083334744, 0.2597999991849065, 0.24835000658640638, 0.2496999950380996, 0.255000006291084, 0.2538999979151413, 0.24850000045262277, 0.24665000091772527, 0.251300007221289, 0.2578999992692843, 0.2508000034140423, 0.26879999495577067, 0.2734000008786097, 0.2520499983802438, 0.2503499999875203, 0.24624999787192792, 0.2584999965620227, 0.25379999715369195, 0.25830000231508166, 0.25555001047905535, 0.25024999922607094, 0.2569499920355156, 0.2476499939803034, 0.2612999960547313, 0.2676499934750609, 0.2575000107754022, 0.25019999156938866, 0.24655000015627593, 0.3881999946315773, 0.2541499998187646, 0.24870000197552145, 0.2544499875511974, 0.2565000031609088, 0.24679999478394166, 0.24855000083334744, 0.25504999211989343, 0.2549499913584441, 0.2498499961802736, 0.2565999893704429, 0.2523000002838671, 0.2580500004114583, 0.24529999791411683, 0.24840000696713105, 0.24894998932722956, 0.24850000045262277, 0.2499999973224476, 0.2523500006645918, 0.24780000967439264, 0.2572499943198636, 0.25194999761879444, 0.2523499933886342, 0.24570000095991418, 0.25859999004751444, 0.25209999876096845, 0.2555000100983307, 0.2444500059937127, 0.25394999829586595, 0.24569999368395656, 0.248350013862364, 0.25194999761879444, 0.2543499867897481, 0.24810000468278304, 0.25475000438746065, 0.2641000028233975, 0.25105000531766564, 0.25085000379476696, 0.2598999999463558, 0.2520499983802438, 0.2541499998187646, 0.24715000472497195, 0.2499999973224476, 0.287349997961428, 0.25594999897293746, 0.24595000286353752, 0.2435000060359016, 0.2493499923730269, 0.26205000176560134, 0.24855000083334744, 0.25305000599473715, 0.24470000062137842, 0.25314999220427126, 0.25610000011511147, 0.2443999910610728, 0.2562500012572855, 0.25224999990314245, 0.25194999761879444, 0.24595000286353752, 0.2569499993114732, 0.2508000034140423, 0.26184999296674505, 0.24640000629005954, 0.25179999647662044, 0.25164999533444643, 0.2499999973224476, 0.2454999994370155, 0.2549500059103593, 0.27940000290982425, 0.24649999249959365, 0.2542000001994893, 0.25179999647662044, 0.25284998991992325, 0.26670000806916505, 0.25270000332966447, 0.25009999808389693, 0.2507999961380847, 0.2537499967729673, 0.28464999923016876, 0.24890000349842012, 0.25334999372716993, 0.2552999940235168, 0.24720000510569662, 0.25684999127406627, 0.26050000451505184, 0.2527499891584739, 0.25255000218749046, 0.2490499973646365, 0.2558499982114881, 0.255450009717606, 0.25224999990314245, 0.24960000882856548, 0.2516999957151711, 0.25159999495372176, 0.28849999216618016, 0.2538499975344166, 0.26760000037029386, 0.25934999575838447, 0.2448499944875948, 0.2973000009660609, 0.2523500006645918, 0.2634999982547015, 0.2498499961802736, 0.250899996899534, 0.2466000078129582, 0.24700000358279794, 0.26130001060664654, 0.251300007221289, 0.24570000095991418, 0.25534999440424144, 0.2487500023562461, 0.24880000273697078, 0.2588499992270954, 0.25164999533444643, 0.39629999082535505, 0.24709999706828967, 0.2922999919974245, 0.25340000865980983, 0.25889999960782006, 0.24750000739004463, 0.24994999694172293, 0.2489500038791448, 0.37090000114403665, 0.24695000320207328, 0.28575000033015385, 0.24935000692494214, 0.2529499906813726, 0.3228999994462356, 0.25070000265259296, 0.2888000017264858, 0.24714999017305672, 0.28839999868068844, 0.24750000011408702, 0.25445000210311264, 0.27084999601356685, 0.24539999867556617, 0.25919999461621046, 0.38189999031601474, 0.24855000810930505, 0.29609999182866886, 0.24974999541882426, 0.25660000392235816, 0.21364999702200294, 0.24635000590933487, 0.2782499941531569, 0.2503499999875203, 0.24909999774536118, 0.3929499871446751, 0.2501499984646216, 0.29800000629620627, 0.2449000021442771, 0.25119999918388203, 0.3366999881109223, 0.2741499920375645, 0.30189999961294234, 0.25045000802492723, 0.24995001149363816, 0.246899995545391, 0.2527999968151562, 0.25440000172238797, 0.24485000176355243, 0.25019999884534627, 0.24544999178033322, 0.2456500005791895, 0.2494000073056668, 0.25419998564757407, 0.2526500029489398, 0.2486000012140721, 0.2509499972802587, 0.2564999886089936, 0.24744999245740473, 0.25024999922607094, 0.24354999914066866, 0.243499998759944, 0.26059999800054356, 0.24929999926825985, 0.2538499975344166, 0.25240000104531646, 0.24835000658640638, 0.24900000425986946, 0.25475000438746065, 0.24485000176355243, 0.24509999639121816, 0.25680000544525683, 0.24330000451300293, 0.2530499914428219, 0.2514999941922724, 0.24695000320207328, 0.24255000607809052, 0.25019999884534627, 0.24455000675516203, 0.2520000052754767, 0.2675499999895692, 0.25874999118968844, 0.27674999728333205, 0.2519999979995191, 0.2500500049791299, 0.2594499965198338, 0.25299999106209725, 0.25314999220427126, 0.24584999482613057, 0.2467500016791746, 0.26265000633429736, 0.247049996687565, 0.24685000244062394, 0.25579999783076346, 0.2571499935584143, 0.2487500023562461, 0.24864999431883916, 0.26309999520890415, 0.2529500052332878, 0.24865000159479678, 0.2510499907657504, 0.24420000409008935, 0.2453500055707991, 0.2511999919079244, 0.24494999524904415, 0.2476499939803034, 0.25505000667180866, 0.25394999829586595, 0.24629999097669497, 0.24859998666215688, 0.24495000980095938, 0.2613000033306889, 0.24709999706828967, 0.2446000071358867, 0.25599999935366213, 0.24739999935263768, 0.2503499999875203, 0.2532499929657206, 0.2504499861970544, 0.25260000256821513, 0.24634999863337725, 0.2954500014311634, 0.2454999994370155, 0.2499999973224476, 0.2449000094202347, 0.2470500039635226, 0.2533999941078946, 0.2457999944454059, 0.26790000265464187, 0.25159999495372176, 0.24694999592611566, 0.2457000082358718, 0.2535499952500686, 0.2600500010885298, 0.2629000082379207, 0.2563500020187348, 0.25910000840667635, 0.2566500043030828, 0.24364999262616038, 0.24905000464059412, 0.2555999963078648, 0.25660000392235816, 0.24684999516466632, 0.2453499982948415, 0.25164999533444643, 0.2499000111129135, 0.2518499968573451, 0.25599999935366213, 0.24769999436102808, 0.25769999774638563, 0.25599999935366213, 0.2505000011296943, 0.24605000362498686, 0.2489500038791448, 0.26145001174882054, 0.24339999799849465, 0.26139999681618065, 0.23309999232878909, 0.34914999559987336, 0.28079999901819974, 0.24470000062137842, 0.23784999939380214, 0.24970000959001482, 0.2562000008765608, 0.2533000078983605, 0.2471999905537814, 0.2518999972380698, 0.2622499960125424, 0.2525000018067658, 0.2541499998187646, 0.2550999997765757, 0.25100000493694097, 0.25284998991992325, 0.2456500005791895, 0.2649000016390346, 0.24595000286353752, 0.25260000256821513, 0.24939999275375158, 0.24545000633224845, 0.26154999795835465, 0.2491999912308529, 0.2527999895391986, 0.2576000042608939, 0.2538999979151413, 0.258550004218705, 0.2578999992692843, 0.21084999752929434, 0.24989999656099826, 0.2470500039635226, 0.24959999427665025, 0.2411499954177998, 0.2426999999443069, 0.2496999950380996, 0.2477999951224774, 0.2518999972380698, 0.2460999967297539, 0.24500000290572643, 0.2481499977875501, 0.27100000443169847, 0.2598999999463558, 0.24385000142501667, 0.24995001149363816, 0.24685000244062394, 0.2480000039213337, 0.24715000472497195, 0.2482999989297241, 0.2531999925849959, 0.2413500042166561, 0.25159999495372176, 0.24789999588392675, 0.25349999486934394, 0.24935000692494214],
  "QPU": "7000000",
  "Qubits": 5,
  "Queue durations [ms]": [0.0, 0.0, 0.0, 0.0, 0.0, 0.0, 0.0, 0.0, 0.0, 0.0, 0.0, 0.0, 0.0, 0.0, 0.0, 0.0, 0.0, 0.0, 0.0, 0.0, 0.0, 0.0, 0.0, 0.0, 0.0, 0.0, 0.0, 0.0, 0.0, 0.0, 0.0, 0.0, 0.0, 0.0, 0.0, 0.0, 0.0, 0.0, 0.0, 0.0, 0.0, 0.0, 0.0, 0.0, 0.0, 0.0, 0.0, 0.0, 0.0, 0.0, 0.0, 0.0, 0.0, 0.0, 0.0, 0.0, 0.0, 0.0, 0.0, 0.0, 0.0, 0.0, 0.0, 0.0, 0.0, 0.0, 0.0, 0.0, 0.0, 0.0, 0.0, 0.0, 0.0, 0.0, 0.0, 0.0, 0.0, 0.0, 0.0, 0.0, 0.0, 0.0, 0.0, 0.0, 0.0, 0.0, 0.0, 0.0, 0.0, 0.0, 0.0, 0.0, 0.0, 0.0, 0.0, 0.0, 0.0, 0.0, 0.0, 0.0, 0.0, 0.0, 0.0, 0.0, 0.0, 0.0, 0.0, 0.0, 0.0, 0.0, 0.0, 0.0, 0.0, 0.0, 0.0, 0.0, 0.0, 0.0, 0.0, 0.0, 0.0, 0.0, 0.0, 0.0, 0.0, 0.0, 0.0, 0.0, 0.0, 0.0, 0.0, 0.0, 0.0, 0.0, 0.0, 0.0, 0.0, 0.0, 0.0, 0.0, 0.0, 0.0, 0.0, 0.0, 0.0, 0.0, 0.0, 0.0, 0.0, 0.0, 0.0, 0.0, 0.0, 0.0, 0.0, 0.0, 0.0, 0.0, 0.0, 0.0, 0.0, 0.0, 0.0, 0.0, 0.0, 0.0, 0.0, 0.0, 0.0, 0.0, 0.0, 0.0, 0.0, 0.0, 0.0, 0.0, 0.0, 0.0, 0.0, 0.0, 0.0, 0.0, 0.0, 0.0, 0.0, 0.0, 0.0, 0.0, 0.0, 0.0, 0.0, 0.0, 0.0, 0.0, 0.0, 0.0, 0.0, 0.0, 0.0, 0.0, 0.0, 0.0, 0.0, 0.0, 0.0, 0.0, 0.0, 0.0, 0.0, 0.0, 0.0, 0.0, 0.0, 0.0, 0.0, 0.0, 0.0, 0.0, 0.0, 0.0, 0.0, 0.0, 0.0, 0.0, 0.0, 0.0, 0.0, 0.0, 0.0, 0.0, 0.0, 0.0, 0.0, 0.0, 0.0, 0.0, 0.0, 0.0, 0.0, 0.0, 0.0, 0.0, 0.0, 0.0, 0.0, 0.0, 0.0, 0.0, 0.0, 0.0, 0.0, 0.0, 0.0, 0.0, 0.0, 0.0, 0.0, 0.0, 0.0, 0.0, 0.0, 0.0, 0.0, 0.0, 0.0, 0.0, 0.0, 0.0, 0.0, 0.0, 0.0, 0.0, 0.0, 0.0, 0.0, 0.0, 0.0, 0.0, 0.0, 0.0, 0.0, 0.0, 0.0, 0.0, 0.0, 0.0, 0.0, 0.0, 0.0, 0.0, 0.0, 0.0, 0.0, 0.0, 0.0, 0.0, 0.0, 0.0, 0.0, 0.0, 0.0, 0.0, 0.0, 0.0, 0.0, 0.0, 0.0, 0.0, 0.0, 0.0, 0.0, 0.0, 0.0, 0.0, 0.0, 0.0, 0.0, 0.0, 0.0, 0.0, 0.0, 0.0, 0.0, 0.0, 0.0, 0.0, 0.0, 0.0, 0.0, 0.0, 0.0, 0.0, 0.0, 0.0, 0.0, 0.0, 0.0, 0.0, 0.0, 0.0, 0.0, 0.0, 0.0, 0.0, 0.0, 0.0, 0.0, 0.0, 0.0, 0.0, 0.0, 0.0, 0.0, 0.0, 0.0, 0.0, 0.0, 0.0, 0.0, 0.0, 0.0, 0.0, 0.0, 0.0, 0.0, 0.0, 0.0, 0.0, 0.0, 0.0, 0.0, 0.0, 0.0, 0.0, 0.0, 0.0, 0.0, 0.0, 0.0, 0.0, 0.0, 0.0, 0.0, 0.0, 0.0, 0.0, 0.0, 0.0, 0.0, 0.0, 0.0, 0.0, 0.0, 0.0, 0.0, 0.0, 0.0, 0.0, 0.0, 0.0, 0.0, 0.0, 0.0, 0.0, 0.0, 0.0, 0.0, 0.0, 0.0, 0.0, 0.0, 0.0, 0.0, 0.0, 0.0, 0.0, 0.0, 0.0, 0.0, 0.0, 0.0, 0.0, 0.0, 0.0, 0.0, 0.0, 0.0, 0.0],
  "Shots": 4096,
  "Size": 5,
  "Total Algorithm duration [s]": 2.722,
  "Total Classic duration [s]": 2.612783300208568,
  "Total Quantum duration [s]": 0.10921669979143189
}
