{
  "Circuit execution durations [ms]": [0.25705000734888017, 0.24950000806711614, 0.25615000049583614, 0.2779500064207241, 0.25264998839702457, 0.24344999837921932, 0.2516999957151711, 0.24840000696713105, 0.24119999579852447, 0.24234999727923423, 0.24624999787192792, 0.2506000018911436, 0.24329999723704532, 0.2484500000718981, 0.24515000404790044, 0.2491999912308529, 0.2512499922886491, 0.2532500002416782, 0.2550999997765757, 0.2586499977041967, 0.24639999901410192, 0.25305000599473715, 0.246749994403217, 0.24375000793952495, 0.251150006079115, 0.24865000159479678, 0.2430500026093796, 0.24400000256719068, 0.2578999992692843, 0.24414999643340707, 0.2538000117056072, 0.24919999850681052, 0.2627499998197891, 0.24819999816827476, 0.24909999046940356, 0.24295000184793025, 0.24750000739004463, 0.25460000324528664, 0.251600009505637, 0.24585000210208818, 0.25159999495372176, 0.2526500029489398, 0.25880000612232834, 0.2411499954177998, 0.2546499963500537, 0.21844999719178304, 0.2727999963099137, 0.31230000604409724, 0.24924999888753518, 0.25094999000430107, 0.24879998818505555, 0.2512499922886491, 0.2504500007489696, 0.24744999245740473, 0.2452000044286251, 0.25090000417549163, 0.24560000747442245, 0.2538999979151413, 0.25114999880315736, 0.246899995545391, 0.26220001018373296, 0.2530499914428219, 0.2532500075176358, 0.25355000980198383, 0.24695000320207328, 0.2582499946583994, 0.2511999919079244, 0.25594999169697985, 0.2500500049791299, 0.24644999211886898, 0.25299999106209725, 0.25599999935366213, 0.2461500043864362, 0.251750010647811, 0.2514000079827383, 0.2523500006645918, 0.24599999596830457, 0.2506000018911436, 0.24640000629005954, 0.2505000084056519, 0.24449999909847975, 0.2507999961380847, 0.2454999994370155, 0.24934999964898452, 0.24989999656099826, 0.25165000261040404, 0.2505000011296943, 0.25364999601151794, 0.2529499906813726, 0.24015000235522166, 0.2413500042166561, 0.24220000341301784, 0.2507500030333176, 0.2446999933454208, 0.24755000049481168, 0.24704998941160738, 0.24739999935263768, 0.24825001310091466, 0.24290000146720558, 0.24695000320207328, 0.27055000828113407, 0.2545000024838373, 0.25954999728128314, 0.24595001013949513, 0.25334999372716993, 0.24994999694172293, 0.24420000409008935, 0.24795000354060903, 0.24804999702610075, 0.24755000049481168, 0.2479999966453761, 0.24744999973336235, 0.2469000028213486, 0.27085000328952447, 0.25260000256821513, 0.2523500006645918, 0.24454999947920442, 0.2472500054864213, 0.2521499991416931, 0.24485000176355243, 0.2537499967729673, 0.24449999909847975, 0.25004999770317227, 0.2841499954229221, 0.24264999956358224, 0.2484500000718981, 0.2545000024838373, 0.24455000675516203, 0.2518499968573451, 0.24459999985992908, 0.2515499945729971, 0.25024999922607094, 0.2504500007489696, 0.2481499977875501, 0.24554999981774017, 0.2452000044286251, 0.3003000019816682, 0.2523000002838671, 0.2538999979151413, 0.25379999715369195, 0.2533999941078946, 0.2511999919079244, 0.2447500010021031, 0.2558000123826787, 0.25490000552963465, 0.25240000104531646, 0.24885000311769545, 0.24295000184793025, 0.24619999749120325, 0.2515499945729971, 0.2408500004094094, 0.25114999152719975, 0.24544999905629084, 0.2496999950380996, 0.25179999647662044, 0.24905000464059412, 0.2506500022718683, 0.2528000040911138, 0.24790000315988436, 0.2502999996067956, 0.24665000819368288, 0.24745000700931996, 0.2456499933032319, 0.2457000082358718, 0.24714999017305672, 0.25484999059699476, 0.24950000079115853, 0.24870000197552145, 0.24640000629005954, 0.25409999943803996, 0.24959999427665025, 0.2501499984646216, 0.24664999364176765, 0.24855000810930505, 0.257949999650009, 0.24590000248281285, 0.25550000282237306, 0.2516999957151711, 0.2494000000297092, 0.25135000760201365, 0.2550999925006181, 0.24720000510569662, 0.26020000223070383, 0.2774500026134774, 0.25814999389695004, 0.24894999660318717, 0.24880000273697078, 0.2499000111129135, 0.27215000591240823, 0.2527499891584739, 0.25185001140926033, 0.2487500023562461, 0.2501499984646216, 0.27874999796040356, 0.2576500119175762, 0.24974999541882426, 0.2512500068405643, 0.25314999220427126, 0.2481499977875501, 0.24859998666215688, 0.25024999922607094, 0.2564000023994595, 0.2502999996067956, 0.2528500044718385, 0.24570000095991418, 0.25144999381154776, 0.2412999965599738, 0.2577499981271103, 0.3830999994534068, 0.2554500024416484, 0.24670000857440755, 0.25579999783076346, 0.24275000032503158, 0.25430000096093863, 0.24375000066356733, 0.24985001073218882, 0.254700004006736, 0.2534000013838522, 0.24604999634902924, 0.24605000362498686, 0.2447500010021031, 0.25024999922607094, 0.25499999173916876, 0.2519999979995191, 0.27055000100517645, 0.2543499940657057, 0.24809999740682542, 0.24575000861659646, 0.25180000375257805, 0.24824999854899943, 0.25004999770317227, 0.27174998831469566, 0.2574499958427623, 0.24804999702610075, 0.2486000012140721, 0.2464499993948266, 0.24605001090094447, 0.2513499930500984, 0.24665000091772527, 0.2606000052765012, 0.24890000349842012, 0.24989999656099826, 0.25019999884534627, 0.26020000223070383, 0.2512499995646067, 0.2490499900886789, 0.25710000772960484, 0.25344999448861927, 0.36639999598264694, 0.2529500052332878, 0.2537500113248825, 0.24900000425986946, 0.2689499960979447, 0.2508000034140423, 0.2586999980849214, 0.25385000481037423, 0.24935000692494214, 0.40919999446487054, 0.24554999254178256, 0.2479999966453761, 0.24790000315988436, 0.25329999334644526, 0.2506500022718683, 0.25055000151041895, 0.24794999626465142, 0.2489500038791448, 0.26539999817032367, 0.2511999919079244, 0.24665000091772527, 0.23360000341199338, 0.24750000739004463, 0.2517500033718534, 0.2542000001994893, 0.2705000079004094, 0.2589499927125871, 0.24744999973336235, 0.2499000111129135, 0.2501499984646216, 0.25485000514891, 0.24735000624787062, 0.2556500112405047, 0.24715000472497195, 0.25459999596932903, 0.2460999967297539, 0.24104999465635046, 0.24390000180574134, 0.24935000692494214, 0.2428499938105233, 0.24699999630684033, 0.24755000049481168, 0.24855000810930505, 0.24939999275375158, 0.24755000049481168, 0.24434999795630574, 0.2594499965198338, 0.25460000324528664, 0.24649999977555126, 0.2975000097649172, 0.2504500007489696, 0.24669999402249232, 0.25364999601151794, 0.24985001073218882, 0.2498499961802736, 0.24879998818505555, 0.2558999985922128, 0.2564000096754171, 0.24480000138282776, 0.2562000008765608, 0.2466000005370006, 0.24794999626465142, 0.25440000172238797, 0.24529999791411683, 0.2500000118743628, 0.25430000096093863, 0.2511000056983903, 0.25085000379476696, 0.25290000485256314, 0.2455500070936978, 0.24914999812608585, 0.2589999930933118, 0.24585000210208818, 0.24624999787192792, 0.2448499944875948, 0.2611499949125573, 0.2463000055286102, 0.24715000472497195, 0.25659999664640054, 0.24809999740682542, 0.24750000011408702, 0.2515499945729971, 0.247049996687565, 0.2460999967297539, 0.25019999884534627, 0.24590000248281285, 0.2519999979995191, 0.2505499869585037, 0.2587500057416037, 0.25239998649340123, 0.2496999950380996, 0.2481499977875501, 0.25289999757660553, 0.2595999976620078, 0.24885000311769545, 0.24194999423343688, 0.2458500093780458, 0.2490499973646365, 0.24804999702610075, 0.24620000476716086, 0.24589999520685524, 0.2562500012572855, 0.25024999922607094, 0.24570000095991418, 0.2584999965620227, 0.24715000472497195, 0.2514000079827383, 0.25055000151041895, 0.25800000003073364, 0.2524500014260411, 0.24585000210208818, 0.25949999690055847, 0.24850000045262277, 0.2491999912308529, 0.2477000016369857, 0.24525000480934978, 0.25024999922607094, 0.25194999761879444, 0.25255000218749046, 0.2528999903006479, 0.2493499923730269, 0.2837999927578494, 0.24095000117085874, 0.2498499961802736, 0.24784999550320208, 0.25224999990314245, 0.25845000345725566, 0.24869999469956383, 0.2519999979995191, 0.26294999406673014, 0.2467500016791746, 0.25695000658743083, 0.2524500014260411, 0.24685000244062394, 0.2443000048515387, 0.24884998856578022, 0.2549500059103593, 0.24700000358279794, 0.24760000815149397, 0.24929999199230224, 0.20434999896679074, 0.24435000523226336, 0.25334999372716993, 0.24960000155260786, 0.24765000853221864, 0.25019999884534627, 0.24900000425986946, 0.26354999863542616, 0.24354999914066866, 0.24735000624787062, 0.2519999979995191, 0.2514000079827383, 0.2524500014260411, 0.2516999957151711, 0.25329999334644526, 0.24634999863337725, 0.2374499963480048, 0.2573999954620376, 0.27445000159787014, 0.2538000117056072, 0.25209999876096845, 0.37880000309087336, 0.27874999068444595, 0.25579999055480585, 0.2702999991015531, 0.25070000265259296, 0.25074999575736, 0.2451999971526675, 0.2517000102670863, 0.3789000111282803, 0.25100000493694097, 0.2569999924162403, 0.25275000371038914, 0.2506500095478259, 0.24850000772858039, 0.2508000034140423, 0.25019999884534627, 0.25004999770317227, 0.2572000084910542, 0.27100000443169847, 0.24500000290572643, 0.2566500043030828, 0.25560001085978, 0.2523000002838671, 0.25269998877774924, 0.24399999529123306, 0.24810000468278304, 0.25180001102853566, 0.24349999148398638, 0.25270000332966447, 0.24900000425986946, 0.2550999925006181, 0.2630499948281795, 0.2532499929657206, 0.24364999262616038, 0.24625000514788553, 0.2510999911464751, 0.24775000201771036, 0.24914999812608585, 0.2520000052754767, 0.24280000070575625, 0.24805000430205837, 0.24805001157801598, 0.2507500030333176, 0.27349999436410144, 0.24810000468278304, 0.2552499936427921, 0.247199997829739, 0.2534500090405345, 0.255150007433258, 0.24979999579954892, 0.2481499977875501, 0.24334999761777, 0.24780000239843503, 0.25299999106209725, 0.24804999702610075, 0.24415000370936468, 0.258700005360879, 0.2433500048937276, 0.24634999863337725, 0.26104999415110797, 0.25164999533444643, 0.24784999550320208, 0.2429999949526973, 0.24774999474175274, 0.25409999943803996, 0.2506500022718683, 0.2484500000718981, 0.2514000079827383, 0.25100000493694097, 0.2412999965599738, 0.24554999254178256, 0.24464999296469614, 0.2466000005370006, 0.24570000095991418, 0.2542000001994893],
  "Depth": 12.5,
  "Expectation Value": -5.5715718269348145,
  "Optimal Expectation Value": -6.026674270629883,
  "Optimizer durations [ms]": [6.021, 6.03, 6.383, 6.464, 5.987, 5.977, 5.997, 5.846, 5.646, 6.144, 5.95, 5.682, 6.08, 5.883, 5.957, 5.937, 6.069, 6.165, 6.258, 6.298, 5.832, 6.092, 5.68, 5.972, 5.906, 5.884, 5.928, 5.643, 6.057, 6.082, 6.319, 5.929, 6.498, 5.936, 6.244, 6.132, 5.806, 6.126, 6.02, 5.857, 5.889, 6.291, 5.912, 6.052, 6.068, 19.521, 6.483, 7.607, 6.223, 6.056, 6.013, 5.728, 6.397, 5.604, 6.198, 5.981, 6.006, 5.979, 5.959, 5.636, 6.222, 6.135, 6.079, 5.954, 6.041, 6.221, 5.74, 6.181, 5.86, 5.908, 5.919, 6.126, 5.835, 6.188, 6.252, 6.111, 5.674, 5.845, 6.142, 6.022, 6.005, 5.893, 5.614, 6.25, 5.977, 5.887, 5.93, 6.124, 6.093, 14.02, 5.849, 5.877, 5.977, 6.03, 5.842, 5.914, 6.82, 5.968, 5.638, 6.029, 6.441, 5.969, 6.161, 6.136, 5.805, 6.215, 5.771, 5.905, 6.319, 5.818, 6.097, 5.914, 5.784, 6.699, 6.198, 6.087, 5.584, 6.115, 5.96, 5.991, 5.881, 6.063, 5.952, 6.514, 6.074, 5.78, 6.086, 5.865, 6.804, 5.831, 6.109, 5.851, 6.042, 5.708, 6.184, 5.646, 7.17, 6.18, 5.974, 6.076, 5.974, 5.998, 6.006, 5.954, 6.151, 6.033, 5.851, 5.899, 5.952, 5.967, 5.87, 6.052, 5.882, 5.942, 6.093, 5.954, 6.278, 6.117, 5.82, 6.017, 6.011, 5.637, 6.066, 5.969, 5.947, 6.1, 6.02, 5.798, 6.037, 6.018, 5.83, 6.381, 5.753, 6.151, 6.071, 5.668, 6.251, 6.019, 5.896, 6.114, 5.967, 6.13, 6.037, 15.525, 6.537, 5.705, 6.243, 5.867, 6.676, 5.948, 5.829, 6.119, 6.027, 6.444, 6.259, 5.96, 6.001, 6.03, 6.046, 5.726, 6.131, 5.933, 6.042, 6.064, 5.961, 5.819, 7.702, 18.97, 8.713, 6.043, 6.046, 6.326, 6.075, 5.989, 6.222, 5.666, 6.156, 5.959, 6.14, 5.853, 5.724, 6.082, 6.143, 5.788, 6.843, 6.143, 5.833, 5.666, 6.201, 5.897, 5.92, 6.377, 5.98, 6.321, 5.831, 5.793, 5.801, 5.885, 5.968, 6.173, 6.158, 5.839, 6.229, 6.067, 6.053, 6.001, 6.4, 5.856, 8.352, 5.909, 6.218, 5.799, 6.461, 6.129, 6.027, 6.209, 6.194, 8.896, 5.919, 5.897, 6.036, 6.064, 6.005, 5.848, 6.14, 6.16, 6.351, 5.982, 5.734, 6.929, 5.876, 6.116, 5.891, 6.508, 6.452, 6.025, 6.006, 6.069, 5.946, 6.307, 6.156, 5.709, 6.246, 5.625, 5.829, 6.103, 5.84, 5.911, 5.939, 5.985, 5.959, 5.945, 6.096, 5.878, 6.258, 6.232, 5.921, 7.008, 5.95, 6.074, 5.947, 5.901, 5.879, 6.077, 5.951, 6.149, 5.93, 6.111, 6.112, 5.655, 6.31, 5.869, 5.859, 6.227, 5.895, 5.852, 6.313, 5.62, 5.85, 6.156, 5.903, 5.724, 6.027, 6.474, 5.898, 5.699, 6.336, 5.947, 6.044, 5.997, 5.909, 5.725, 6.094, 5.896, 6.006, 6.027, 6.201, 6.09, 6.211, 5.64, 6.371, 6.062, 5.917, 5.856, 5.9, 6.245, 5.989, 5.736, 6.26, 5.909, 6.0, 5.925, 6.455, 5.808, 6.011, 5.927, 6.006, 6.193, 5.839, 5.986, 6.063, 6.023, 5.953, 6.068, 5.782, 6.224, 6.37, 6.14, 6.024, 6.713, 12.126, 6.089, 6.007, 5.817, 14.949, 6.112, 6.023, 6.399, 5.787, 6.196, 6.273, 5.928, 6.136, 5.764, 6.173, 6.77, 6.017, 6.478, 17.474, 5.685, 6.392, 5.814, 6.105, 6.101, 6.661, 6.056, 5.946, 5.98, 5.759, 13.821, 8.218, 6.105, 6.05, 5.829, 7.871, 5.988, 6.882, 13.492, 16.274, 11.588, 6.871, 6.23, 6.408, 10.063, 5.686, 5.9, 6.07, 8.741, 5.626, 6.436, 6.64, 6.228, 5.851, 6.114, 5.855, 5.888, 6.255, 6.37, 5.939, 6.29, 6.298, 5.821, 5.969, 6.136, 5.656, 6.066, 6.048, 6.001, 5.972, 5.875, 6.379, 5.851, 6.077, 5.859, 6.137, 5.672, 6.154, 6.247, 5.874, 6.142, 5.808, 5.862, 6.461, 6.095, 6.182, 5.842, 5.902, 6.25, 6.175, 5.645, 5.979, 5.883, 6.153, 5.819, 5.978, 5.884, 6.062, 5.916, 6.388, 5.877, 5.964, 5.9, 5.854, 6.071, 5.98, 5.744, 5.98, 5.9, 6.099, 5.691, 6.066, 6.012, 6.076, 5.993],
  "Optimizer iterations": 484,
  "Optimizer params": [0.9999700795400925, 0.06734385680596132, 0.9528351301421268, 0.9362928550885489, 1.0, 0.9653064845529844, 0.019977670309738776, 0.9717838949050424, 0.9387527585096314, 0.728912951918883, 0.9997246427707729, 0.9962658365979115, 0.01610150037407127, 0.958256360704614, 0.9991896822643215, 0.5286757934052385, 0.724475050693049, 0.2536576227001011, 0.29621407724051935, 0.2583389930033093],
  "P": 0,
  "Problem": "IC",
  "QJob durations [ms]": [0.25705000734888017, 0.24950000806711614, 0.25615000049583614, 0.2779500064207241, 0.25264998839702457, 0.24344999837921932, 0.2516999957151711, 0.24840000696713105, 0.24119999579852447, 0.24234999727923423, 0.24624999787192792, 0.2506000018911436, 0.24329999723704532, 0.2484500000718981, 0.24515000404790044, 0.2491999912308529, 0.2512499922886491, 0.2532500002416782, 0.2550999997765757, 0.2586499977041967, 0.24639999901410192, 0.25305000599473715, 0.246749994403217, 0.24375000793952495, 0.251150006079115, 0.24865000159479678, 0.2430500026093796, 0.24400000256719068, 0.2578999992692843, 0.24414999643340707, 0.2538000117056072, 0.24919999850681052, 0.2627499998197891, 0.24819999816827476, 0.24909999046940356, 0.24295000184793025, 0.24750000739004463, 0.25460000324528664, 0.251600009505637, 0.24585000210208818, 0.25159999495372176, 0.2526500029489398, 0.25880000612232834, 0.2411499954177998, 0.2546499963500537, 0.21844999719178304, 0.2727999963099137, 0.31230000604409724, 0.24924999888753518, 0.25094999000430107, 0.24879998818505555, 0.2512499922886491, 0.2504500007489696, 0.24744999245740473, 0.2452000044286251, 0.25090000417549163, 0.24560000747442245, 0.2538999979151413, 0.25114999880315736, 0.246899995545391, 0.26220001018373296, 0.2530499914428219, 0.2532500075176358, 0.25355000980198383, 0.24695000320207328, 0.2582499946583994, 0.2511999919079244, 0.25594999169697985, 0.2500500049791299, 0.24644999211886898, 0.25299999106209725, 0.25599999935366213, 0.2461500043864362, 0.251750010647811, 0.2514000079827383, 0.2523500006645918, 0.24599999596830457, 0.2506000018911436, 0.24640000629005954, 0.2505000084056519, 0.24449999909847975, 0.2507999961380847, 0.2454999994370155, 0.24934999964898452, 0.24989999656099826, 0.25165000261040404, 0.2505000011296943, 0.25364999601151794, 0.2529499906813726, 0.24015000235522166, 0.2413500042166561, 0.24220000341301784, 0.2507500030333176, 0.2446999933454208, 0.24755000049481168, 0.24704998941160738, 0.24739999935263768, 0.24825001310091466, 0.24290000146720558, 0.24695000320207328, 0.27055000828113407, 0.2545000024838373, 0.25954999728128314, 0.24595001013949513, 0.25334999372716993, 0.24994999694172293, 0.24420000409008935, 0.24795000354060903, 0.24804999702610075, 0.24755000049481168, 0.2479999966453761, 0.24744999973336235, 0.2469000028213486, 0.27085000328952447, 0.25260000256821513, 0.2523500006645918, 0.24454999947920442, 0.2472500054864213, 0.2521499991416931, 0.24485000176355243, 0.2537499967729673, 0.24449999909847975, 0.25004999770317227, 0.2841499954229221, 0.24264999956358224, 0.2484500000718981, 0.2545000024838373, 0.24455000675516203, 0.2518499968573451, 0.24459999985992908, 0.2515499945729971, 0.25024999922607094, 0.2504500007489696, 0.2481499977875501, 0.24554999981774017, 0.2452000044286251, 0.3003000019816682, 0.2523000002838671, 0.2538999979151413, 0.25379999715369195, 0.2533999941078946, 0.2511999919079244, 0.2447500010021031, 0.2558000123826787, 0.25490000552963465, 0.25240000104531646, 0.24885000311769545, 0.24295000184793025, 0.24619999749120325, 0.2515499945729971, 0.2408500004094094, 0.25114999152719975, 0.24544999905629084, 0.2496999950380996, 0.25179999647662044, 0.24905000464059412, 0.2506500022718683, 0.2528000040911138, 0.24790000315988436, 0.2502999996067956, 0.24665000819368288, 0.24745000700931996, 0.2456499933032319, 0.2457000082358718, 0.24714999017305672, 0.25484999059699476, 0.24950000079115853, 0.24870000197552145, 0.24640000629005954, 0.25409999943803996, 0.24959999427665025, 0.2501499984646216, 0.24664999364176765, 0.24855000810930505, 0.257949999650009, 0.24590000248281285, 0.25550000282237306, 0.2516999957151711, 0.2494000000297092, 0.25135000760201365, 0.2550999925006181, 0.24720000510569662, 0.26020000223070383, 0.2774500026134774, 0.25814999389695004, 0.24894999660318717, 0.24880000273697078, 0.2499000111129135, 0.27215000591240823, 0.2527499891584739, 0.25185001140926033, 0.2487500023562461, 0.2501499984646216, 0.27874999796040356, 0.2576500119175762, 0.24974999541882426, 0.2512500068405643, 0.25314999220427126, 0.2481499977875501, 0.24859998666215688, 0.25024999922607094, 0.2564000023994595, 0.2502999996067956, 0.2528500044718385, 0.24570000095991418, 0.25144999381154776, 0.2412999965599738, 0.2577499981271103, 0.3830999994534068, 0.2554500024416484, 0.24670000857440755, 0.25579999783076346, 0.24275000032503158, 0.25430000096093863, 0.24375000066356733, 0.24985001073218882, 0.254700004006736, 0.2534000013838522, 0.24604999634902924, 0.24605000362498686, 0.2447500010021031, 0.25024999922607094, 0.25499999173916876, 0.2519999979995191, 0.27055000100517645, 0.2543499940657057, 0.24809999740682542, 0.24575000861659646, 0.25180000375257805, 0.24824999854899943, 0.25004999770317227, 0.27174998831469566, 0.2574499958427623, 0.24804999702610075, 0.2486000012140721, 0.2464499993948266, 0.24605001090094447, 0.2513499930500984, 0.24665000091772527, 0.2606000052765012, 0.24890000349842012, 0.24989999656099826, 0.25019999884534627, 0.26020000223070383, 0.2512499995646067, 0.2490499900886789, 0.25710000772960484, 0.25344999448861927, 0.36639999598264694, 0.2529500052332878, 0.2537500113248825, 0.24900000425986946, 0.2689499960979447, 0.2508000034140423, 0.2586999980849214, 0.25385000481037423, 0.24935000692494214, 0.40919999446487054, 0.24554999254178256, 0.2479999966453761, 0.24790000315988436, 0.25329999334644526, 0.2506500022718683, 0.25055000151041895, 0.24794999626465142, 0.2489500038791448, 0.26539999817032367, 0.2511999919079244, 0.24665000091772527, 0.23360000341199338, 0.24750000739004463, 0.2517500033718534, 0.2542000001994893, 0.2705000079004094, 0.2589499927125871, 0.24744999973336235, 0.2499000111129135, 0.2501499984646216, 0.25485000514891, 0.24735000624787062, 0.2556500112405047, 0.24715000472497195, 0.25459999596932903, 0.2460999967297539, 0.24104999465635046, 0.24390000180574134, 0.24935000692494214, 0.2428499938105233, 0.24699999630684033, 0.24755000049481168, 0.24855000810930505, 0.24939999275375158, 0.24755000049481168, 0.24434999795630574, 0.2594499965198338, 0.25460000324528664, 0.24649999977555126, 0.2975000097649172, 0.2504500007489696, 0.24669999402249232, 0.25364999601151794, 0.24985001073218882, 0.2498499961802736, 0.24879998818505555, 0.2558999985922128, 0.2564000096754171, 0.24480000138282776, 0.2562000008765608, 0.2466000005370006, 0.24794999626465142, 0.25440000172238797, 0.24529999791411683, 0.2500000118743628, 0.25430000096093863, 0.2511000056983903, 0.25085000379476696, 0.25290000485256314, 0.2455500070936978, 0.24914999812608585, 0.2589999930933118, 0.24585000210208818, 0.24624999787192792, 0.2448499944875948, 0.2611499949125573, 0.2463000055286102, 0.24715000472497195, 0.25659999664640054, 0.24809999740682542, 0.24750000011408702, 0.2515499945729971, 0.247049996687565, 0.2460999967297539, 0.25019999884534627, 0.24590000248281285, 0.2519999979995191, 0.2505499869585037, 0.2587500057416037, 0.25239998649340123, 0.2496999950380996, 0.2481499977875501, 0.25289999757660553, 0.2595999976620078, 0.24885000311769545, 0.24194999423343688, 0.2458500093780458, 0.2490499973646365, 0.24804999702610075, 0.24620000476716086, 0.24589999520685524, 0.2562500012572855, 0.25024999922607094, 0.24570000095991418, 0.2584999965620227, 0.24715000472497195, 0.2514000079827383, 0.25055000151041895, 0.25800000003073364, 0.2524500014260411, 0.24585000210208818, 0.25949999690055847, 0.24850000045262277, 0.2491999912308529, 0.2477000016369857, 0.24525000480934978, 0.25024999922607094, 0.25194999761879444, 0.25255000218749046, 0.2528999903006479, 0.2493499923730269, 0.2837999927578494, 0.24095000117085874, 0.2498499961802736, 0.24784999550320208, 0.25224999990314245, 0.25845000345725566, 0.24869999469956383, 0.2519999979995191, 0.26294999406673014, 0.2467500016791746, 0.25695000658743083, 0.2524500014260411, 0.24685000244062394, 0.2443000048515387, 0.24884998856578022, 0.2549500059103593, 0.24700000358279794, 0.24760000815149397, 0.24929999199230224, 0.20434999896679074, 0.24435000523226336, 0.25334999372716993, 0.24960000155260786, 0.24765000853221864, 0.25019999884534627, 0.24900000425986946, 0.26354999863542616, 0.24354999914066866, 0.24735000624787062, 0.2519999979995191, 0.2514000079827383, 0.2524500014260411, 0.2516999957151711, 0.25329999334644526, 0.24634999863337725, 0.2374499963480048, 0.2573999954620376, 0.27445000159787014, 0.2538000117056072, 0.25209999876096845, 0.37880000309087336, 0.27874999068444595, 0.25579999055480585, 0.2702999991015531, 0.25070000265259296, 0.25074999575736, 0.2451999971526675, 0.2517000102670863, 0.3789000111282803, 0.25100000493694097, 0.2569999924162403, 0.25275000371038914, 0.2506500095478259, 0.24850000772858039, 0.2508000034140423, 0.25019999884534627, 0.25004999770317227, 0.2572000084910542, 0.27100000443169847, 0.24500000290572643, 0.2566500043030828, 0.25560001085978, 0.2523000002838671, 0.25269998877774924, 0.24399999529123306, 0.24810000468278304, 0.25180001102853566, 0.24349999148398638, 0.25270000332966447, 0.24900000425986946, 0.2550999925006181, 0.2630499948281795, 0.2532499929657206, 0.24364999262616038, 0.24625000514788553, 0.2510999911464751, 0.24775000201771036, 0.24914999812608585, 0.2520000052754767, 0.24280000070575625, 0.24805000430205837, 0.24805001157801598, 0.2507500030333176, 0.27349999436410144, 0.24810000468278304, 0.2552499936427921, 0.247199997829739, 0.2534500090405345, 0.255150007433258, 0.24979999579954892, 0.2481499977875501, 0.24334999761777, 0.24780000239843503, 0.25299999106209725, 0.24804999702610075, 0.24415000370936468, 0.258700005360879, 0.2433500048937276, 0.24634999863337725, 0.26104999415110797, 0.25164999533444643, 0.24784999550320208, 0.2429999949526973, 0.24774999474175274, 0.25409999943803996, 0.2506500022718683, 0.2484500000718981, 0.2514000079827383, 0.25100000493694097, 0.2412999965599738, 0.24554999254178256, 0.24464999296469614, 0.2466000005370006, 0.24570000095991418, 0.2542000001994893],
  "QPU": "7000000",
  "Qubits": 5,
  "Queue durations [ms]": [0.0, 0.0, 0.0, 0.0, 0.0, 0.0, 0.0, 0.0, 0.0, 0.0, 0.0, 0.0, 0.0, 0.0, 0.0, 0.0, 0.0, 0.0, 0.0, 0.0, 0.0, 0.0, 0.0, 0.0, 0.0, 0.0, 0.0, 0.0, 0.0, 0.0, 0.0, 0.0, 0.0, 0.0, 0.0, 0.0, 0.0, 0.0, 0.0, 0.0, 0.0, 0.0, 0.0, 0.0, 0.0, 0.0, 0.0, 0.0, 0.0, 0.0, 0.0, 0.0, 0.0, 0.0, 0.0, 0.0, 0.0, 0.0, 0.0, 0.0, 0.0, 0.0, 0.0, 0.0, 0.0, 0.0, 0.0, 0.0, 0.0, 0.0, 0.0, 0.0, 0.0, 0.0, 0.0, 0.0, 0.0, 0.0, 0.0, 0.0, 0.0, 0.0, 0.0, 0.0, 0.0, 0.0, 0.0, 0.0, 0.0, 0.0, 0.0, 0.0, 0.0, 0.0, 0.0, 0.0, 0.0, 0.0, 0.0, 0.0, 0.0, 0.0, 0.0, 0.0, 0.0, 0.0, 0.0, 0.0, 0.0, 0.0, 0.0, 0.0, 0.0, 0.0, 0.0, 0.0, 0.0, 0.0, 0.0, 0.0, 0.0, 0.0, 0.0, 0.0, 0.0, 0.0, 0.0, 0.0, 0.0, 0.0, 0.0, 0.0, 0.0, 0.0, 0.0, 0.0, 0.0, 0.0, 0.0, 0.0, 0.0, 0.0, 0.0, 0.0, 0.0, 0.0, 0.0, 0.0, 0.0, 0.0, 0.0, 0.0, 0.0, 0.0, 0.0, 0.0, 0.0, 0.0, 0.0, 0.0, 0.0, 0.0, 0.0, 0.0, 0.0, 0.0, 0.0, 0.0, 0.0, 0.0, 0.0, 0.0, 0.0, 0.0, 0.0, 0.0, 0.0, 0.0, 0.0, 0.0, 0.0, 0.0, 0.0, 0.0, 0.0, 0.0, 0.0, 0.0, 0.0, 0.0, 0.0, 0.0, 0.0, 0.0, 0.0, 0.0, 0.0, 0.0, 0.0, 0.0, 0.0, 0.0, 0.0, 0.0, 0.0, 0.0, 0.0, 0.0, 0.0, 0.0, 0.0, 0.0, 0.0, 0.0, 0.0, 0.0, 0.0, 0.0, 0.0, 0.0, 0.0, 0.0, 0.0, 0.0, 0.0, 0.0, 0.0, 0.0, 0.0, 0.0, 0.0, 0.0, 0.0, 0.0, 0.0, 0.0, 0.0, 0.0, 0.0, 0.0, 0.0, 0.0, 0.0, 0.0, 0.0, 0.0, 0.0, 0.0, 0.0, 0.0, 0.0, 0.0, 0.0, 0.0, 0.0, 0.0, 0.0, 0.0, 0.0, 0.0, 0.0, 0.0, 0.0, 0.0, 0.0, 0.0, 0.0, 0.0, 0.0, 0.0, 0.0, 0.0, 0.0, 0.0, 0.0, 0.0, 0.0, 0.0, 0.0, 0.0, 0.0, 0.0, 0.0, 0.0, 0.0, 0.0, 0.0, 0.0, 0.0, 0.0, 0.0, 0.0, 0.0, 0.0, 0.0, 0.0, 0.0, 0.0, 0.0, 0.0, 0.0, 0.0, 0.0, 0.0, 0.0, 0.0, 0.0, 0.0, 0.0, 0.0, 0.0, 0.0, 0.0, 0.0, 0.0, 0.0, 0.0, 0.0, 0.0, 0.0, 0.0, 0.0, 0.0, 0.0, 0.0, 0.0, 0.0, 0.0, 0.0, 0.0, 0.0, 0.0, 0.0, 0.0, 0.0, 0.0, 0.0, 0.0, 0.0, 0.0, 0.0, 0.0, 0.0, 0.0, 0.0, 0.0, 0.0, 0.0, 0.0, 0.0, 0.0, 0.0, 0.0, 0.0, 0.0, 0.0, 0.0, 0.0, 0.0, 0.0, 0.0, 0.0, 0.0, 0.0, 0.0, 0.0, 0.0, 0.0, 0.0, 0.0, 0.0, 0.0, 0.0, 0.0, 0.0, 0.0, 0.0, 0.0, 0.0, 0.0, 0.0, 0.0, 0.0, 0.0, 0.0, 0.0, 0.0, 0.0, 0.0, 0.0, 0.0, 0.0, 0.0, 0.0, 0.0, 0.0, 0.0, 0.0, 0.0, 0.0, 0.0, 0.0, 0.0, 0.0, 0.0, 0.0, 0.0, 0.0, 0.0, 0.0, 0.0, 0.0, 0.0, 0.0, 0.0, 0.0, 0.0, 0.0, 0.0, 0.0, 0.0, 0.0, 0.0, 0.0, 0.0, 0.0, 0.0, 0.0, 0.0, 0.0, 0.0, 0.0, 0.0, 0.0, 0.0, 0.0, 0.0, 0.0, 0.0, 0.0, 0.0, 0.0, 0.0, 0.0, 0.0, 0.0, 0.0, 0.0, 0.0, 0.0, 0.0, 0.0, 0.0, 0.0, 0.0, 0.0, 0.0, 0.0, 0.0, 0.0, 0.0, 0.0, 0.0, 0.0, 0.0, 0.0, 0.0, 0.0, 0.0, 0.0, 0.0, 0.0, 0.0, 0.0, 0.0, 0.0, 0.0, 0.0, 0.0, 0.0, 0.0, 0.0, 0.0, 0.0],
  "Shots": 4096,
  "Size": 5,
  "Total Algorithm duration [s]": 3.045,
  "Total Classic duration [s]": 2.9227931499353144,
  "Total Quantum duration [s]": 0.12220685006468557
}
