{
  "Circuit execution durations [ms]": [0.2529500052332878, 0.2537499967729673, 0.24595000286353752, 0.2510999911464751, 0.24644999211886898, 0.24979999579954892, 0.24739999207668006, 0.24840000696713105, 0.24765000853221864, 0.2691000117920339, 0.25224999990314245, 0.247049996687565, 0.24599999596830457, 0.2591499942354858, 0.2556000035838224, 0.2450500032864511, 0.2500000045984052, 0.2507499884814024, 0.24930000654421747, 0.3441499939071946, 0.2491999912308529, 0.24599999596830457, 0.24714999017305672, 0.243800001044292, 0.2467500016791746, 0.24674998712725937, 0.24840000696713105, 0.2504500007489696, 0.24995001149363816, 0.2629999944474548, 0.2524500014260411, 0.24584999482613057, 0.25445000210311264, 0.2534500090405345, 0.25260000256821513, 0.25164999533444643, 0.2523500006645918, 0.24369999300688505, 0.35825001396005973, 0.24634999863337725, 0.24554999981774017, 0.24769999436102808, 0.2460000032442622, 0.2477999951224774, 0.2568500058259815, 0.25850000383798033, 0.2513999934308231, 0.26464999245945364, 0.24514999677194282, 0.2502999996067956, 0.251049998041708, 0.24595000286353752, 0.2487500023562461, 0.24345000565517694, 0.2638000005390495, 0.2849000011337921, 0.2450500032864511, 0.25019999156938866, 0.3247500062570907, 0.24420000409008935, 0.31879999733064324, 0.2558499982114881, 0.26109999453183264, 0.258250001934357, 0.24850000045262277, 0.2960999991046265, 0.24685000244062394, 0.24560000019846484, 0.2556000035838224, 0.24760000815149397, 0.2990499997395091, 0.2502999996067956, 0.2477000016369857, 0.24915000540204346, 0.2507500030333176, 0.251450008363463, 0.24680000205989927, 0.25135000760201365, 0.2464499993948266, 0.38159999530762434, 0.2549499986344017, 0.2474999928381294, 0.2478500027791597, 0.25615000049583614, 0.2855500060832128, 0.2598999999463558, 0.2576000115368515, 0.2641500032041222, 0.24625000514788553, 0.2505000011296943, 0.25564999668858945, 0.24974999541882426, 0.25379999715369195, 0.24755000049481168, 0.24530000519007444, 0.258250001934357, 0.24375000793952495, 0.24810001195874065, 0.2492500061634928, 0.24700000358279794, 0.2495500084478408, 0.2491999912308529, 0.24574999406468123, 0.2458500093780458, 0.24620000476716086, 0.24945000768639147, 0.25024999922607094, 0.2608499926282093, 0.2562999870860949, 0.2450500032864511, 0.24735000624787062, 0.24554999981774017, 0.25270000332966447, 0.24550000671297312, 0.24249999842140824, 0.24994999694172293, 0.2511999919079244, 0.25114999152719975, 0.24050000502029434, 0.24634999863337725, 0.25445000210311264, 0.24649999977555126, 0.2535999956307933, 0.28095000016037375, 0.24344999837921932, 0.25460000324528664, 0.25040000036824495, 0.26080000679939985, 0.2517000102670863, 0.2479999966453761, 0.24944999313447624, 0.24979999579954892, 0.24870000197552145, 0.25630000163801014, 0.24700000358279794, 0.24390000908169895, 0.24419999681413174, 0.2548999909777194, 0.2530000056140125, 0.2535999956307933, 0.2560500070103444, 0.24539999139960855, 0.24745000700931996, 0.25485000514891, 0.24720000510569662, 0.2447500010021031, 0.26140000409213826, 0.2485999939381145, 0.24890000349842012, 0.2556999970693141, 0.2504500007489696, 0.24715000472497195, 0.2533000078983605, 0.250299992330838, 0.24755000049481168, 0.24164999922504649, 0.2504500007489696, 0.2612000025692396, 0.24884999584173784, 0.24854999355738983, 0.25340000865980983, 0.24945000768639147, 0.2479999966453761, 0.24295000184793025, 0.24605000362498686, 0.25204999110428616, 0.2502000061213039, 0.24404999567195773, 0.24599999596830457, 0.2541499998187646, 0.25469999673077837, 0.2553999947849661, 0.24624999787192792, 0.25209999876096845, 0.2617499994812533, 0.254550002864562, 0.2541499998187646, 0.25489999825367704, 0.24614998983452097, 0.2681500045582652, 0.24124999617924914, 0.24954999389592558, 0.2784000025712885, 0.25505000667180866, 0.24960000882856548, 0.2494000000297092, 0.2456499933032319, 0.24834999931044877, 0.2639500016812235, 0.2531000063754618, 0.2467500016791746, 0.24695000320207328, 0.2425499915261753, 0.30714999593328685, 0.34940001205541193, 0.35400000342633575, 0.243499998759944, 0.24634999863337725, 0.25979999190894887, 0.24485000176355243, 0.2487499950802885, 0.254700004006736, 0.24559999292250723, 0.2494000000297092, 0.25430000096093863, 0.24220000341301784, 0.24554999254178256, 0.2573999954620376, 0.2527999895391986, 0.25150000146823004, 0.2559999920777045, 0.25409999943803996, 0.24710000434424728, 0.25779999850783497, 0.24220000341301784, 0.2424000049359165, 0.2569499993114732, 0.24495000252500176, 0.24680000205989927, 0.25504999939585105, 0.24230000417446718, 0.2582999877631664, 0.24375000066356733, 0.2578000130597502, 0.2502999996067956, 0.24614999711047858, 0.25255000218749046, 0.250899996899534, 0.2427500076009892, 0.25070000265259296, 0.2581000080681406, 0.29445000109262764, 0.24494999524904415, 0.25120000645983964, 0.243950002186466, 0.24804999702610075, 0.2582000015536323, 0.2528500044718385, 0.2534500090405345, 0.2509500045562163, 0.25784999888855964, 0.2477999951224774, 0.24080000002868474, 0.24979999579954892, 0.41849999252008274, 0.24754999321885407, 0.24584999482613057, 0.2504500007489696, 0.25019999156938866, 0.2489500038791448, 0.2512500068405643, 0.2554499951656908, 0.25165000988636166, 0.24739999935263768, 0.24509999639121816, 0.2512499922886491, 0.24735000624787062, 0.23905000125523657, 0.2574500103946775, 0.2613500037114136, 0.2451999971526675, 0.25004999770317227, 0.247199997829739, 0.24595000286353752, 0.25440000172238797, 0.24514999677194282, 0.2487500023562461, 0.24730000586714596, 0.24454999947920442, 0.24884998856578022, 0.24545000633224845, 0.24894998932722956, 0.24285000108648092, 0.24935000692494214, 0.243950002186466, 0.24735000624787062, 0.24614999711047858, 0.2513999934308231, 0.24914999812608585, 0.2466000005370006, 0.2450499960104935, 0.2545000024838373, 0.24824999854899943, 0.24634999135741964, 0.24279999342979863, 0.2910999974119477, 0.2528000040911138, 0.24855000810930505, 0.24544999905629084, 0.24659999326104298, 0.2495500084478408, 0.2482999989297241, 0.25934999575838447, 0.2506000018911436, 0.25485000514891, 0.25200001255143434, 0.2513999934308231, 0.2611499949125573, 0.24695000320207328, 0.2508000034140423, 0.24700000358279794, 0.24580000172136351, 0.24709999706828967, 0.24614999711047858, 0.243499998759944, 0.24685000244062394, 0.24935000692494214, 0.2545000024838373, 0.25179999647662044, 0.24449999909847975, 0.2546500036260113, 0.24559999292250723, 0.24755000049481168, 0.25365000328747556, 0.2542000001994893, 0.24285000108648092, 0.243649999902118, 0.2493499923730269, 0.25299999106209725, 0.24900000425986946, 0.2472500054864213, 0.2489500038791448, 0.23940000392030925, 0.24534999101888388, 0.24359999952139333, 0.24304999533342198, 0.24415000370936468, 0.24470000062137842, 0.2411499954177998, 0.2408500004094094, 0.24515000404790044, 0.24959999427665025, 0.25934999575838447, 0.24389999452978373, 0.2463000055286102, 0.24480000865878537, 0.24485000176355243, 0.2518999972380698, 0.25004999770317227, 0.2554499951656908, 0.2450499960104935, 0.2519999979995191, 0.24954999389592558, 0.24215000303229317, 0.27254999440629035, 0.2560499997343868, 0.25055000151041895, 0.2499000111129135, 0.2443999910610728, 0.25150000874418765, 0.24750000739004463, 0.2499999973224476, 0.25555001047905535, 0.2503499999875203, 0.2460000032442622, 0.2470500039635226, 0.42109999048989266, 0.26154999795835465, 0.41164998401654884, 0.2490499900886789, 0.24420000409008935, 0.25255000218749046, 0.24164999922504649, 0.2512499922886491, 0.24109999503707513, 0.24950000806711614, 0.2560500070103444, 0.2482999989297241, 0.257949999650009, 0.24470000062137842, 0.25024999922607094, 0.2631499955896288, 0.24759999359957874, 0.25009999808389693, 0.2504500007489696, 0.25164999533444643, 0.2485499862814322, 0.2517000102670863, 0.24694999592611566, 0.25485000514891, 0.24020000273594633, 0.25019999884534627, 0.2526500029489398, 0.24500000290572643, 0.2596499980427325, 0.24715000472497195, 0.24489999486831948, 0.2447500010021031, 0.243800001044292, 0.2538499975344166, 0.24595000286353752, 0.2477000016369857, 0.24280000070575625, 0.24384999414905906, 0.2498499961802736, 0.24619999749120325, 0.24124999617924914, 0.24805000430205837, 0.25165000988636166, 0.26294999406673014, 0.2477000089129433, 0.2506499949959107, 0.2514000079827383, 0.2492500061634928, 0.2574499958427623, 0.24584999482613057, 0.24205000227084383, 0.24860000849002972, 0.24715000472497195, 0.24824999854899943, 0.24909999774536118, 0.2476499939803034, 0.2470500039635226, 0.243499998759944, 0.2461500043864362, 0.2514999941922724, 0.24589999520685524, 0.2491000050213188, 0.24755000049481168, 0.2499999973224476, 0.24569999368395656, 0.24380000832024962, 0.2554000020609237, 0.24174999998649582, 0.25260000256821513, 0.25779999850783497, 0.24494999524904415, 0.2530499914428219, 0.2503499999875203, 0.24420000409008935, 0.24635000590933487, 0.24080000002868474, 0.25660000392235816, 0.25925000954885036, 0.24470000062137842, 0.25430000096093863, 0.25019999884534627, 0.2445499922032468, 0.25564999668858945, 0.24695000320207328, 0.2469000028213486, 0.2506499949959107, 0.24620000476716086],
  "Depth": 12.5,
  "Expectation Value": -5.885903835296631,
  "Optimal Expectation Value": -6.026674270629883,
  "Optimizer durations [ms]": [5.854, 6.171, 6.014, 6.059, 6.029, 5.941, 5.992, 5.874, 5.965, 6.392, 6.009, 5.975, 5.825, 5.916, 6.057, 6.112, 5.811, 6.206, 5.798, 7.956, 5.581, 5.948, 5.945, 5.798, 5.988, 5.947, 6.092, 5.884, 6.065, 6.029, 5.964, 6.063, 5.983, 5.861, 6.404, 14.645, 5.783, 5.8, 8.126, 6.047, 5.958, 5.938, 5.962, 5.624, 12.516, 6.189, 6.048, 6.339, 6.114, 6.009, 6.053, 5.731, 5.974, 5.992, 6.246, 6.679, 5.923, 6.239, 19.336, 6.027, 7.273, 6.083, 6.041, 8.057, 5.964, 6.806, 5.954, 6.003, 19.651, 5.648, 7.097, 6.082, 5.801, 8.239, 5.999, 5.982, 5.994, 6.145, 15.559, 14.116, 6.353, 6.005, 5.702, 8.422, 6.695, 6.146, 6.085, 6.372, 6.012, 5.841, 6.276, 5.763, 6.012, 6.004, 6.043, 6.05, 5.884, 6.158, 5.903, 5.987, 5.829, 6.192, 5.834, 6.066, 5.962, 5.887, 6.004, 6.037, 6.034, 6.202, 5.935, 5.864, 5.975, 5.702, 5.79, 6.115, 6.161, 5.865, 6.578, 6.193, 5.811, 5.963, 6.197, 6.558, 5.959, 5.911, 5.953, 6.574, 6.036, 5.732, 6.164, 5.875, 5.918, 6.106, 6.233, 5.814, 6.029, 6.23, 5.941, 6.284, 5.997, 5.764, 5.743, 6.148, 5.945, 5.674, 6.322, 5.866, 5.936, 6.188, 5.826, 5.991, 5.933, 6.221, 5.784, 6.182, 5.791, 6.266, 5.993, 5.971, 6.095, 5.912, 5.99, 5.953, 5.955, 6.188, 5.82, 5.894, 5.949, 6.12, 6.205, 6.28, 5.805, 6.074, 6.145, 6.096, 6.044, 6.288, 5.773, 6.366, 6.05, 5.885, 6.558, 6.445, 5.986, 6.124, 5.683, 6.193, 6.395, 13.791, 5.893, 6.04, 5.781, 7.287, 21.567, 8.218, 5.979, 5.574, 6.534, 5.822, 6.125, 7.174, 5.65, 6.842, 6.109, 5.696, 6.199, 6.407, 6.024, 5.838, 6.27, 5.871, 6.251, 6.013, 6.443, 5.829, 5.964, 6.22, 5.695, 6.108, 5.843, 6.311, 5.597, 6.247, 6.048, 5.839, 6.053, 5.981, 5.99, 5.801, 6.006, 6.838, 5.953, 6.07, 6.093, 5.814, 6.424, 5.997, 6.104, 6.081, 6.128, 5.949, 5.813, 5.962, 9.351, 6.123, 5.854, 6.106, 6.007, 5.907, 6.001, 6.14, 5.988, 6.073, 5.69, 6.108, 5.887, 5.84, 6.138, 6.277, 6.055, 5.924, 6.036, 5.955, 6.0, 6.003, 6.056, 5.732, 5.733, 6.167, 5.906, 5.8, 6.143, 5.741, 6.091, 5.891, 5.824, 6.219, 5.832, 6.173, 5.744, 6.148, 6.058, 5.741, 5.895, 6.898, 6.192, 6.086, 5.799, 5.884, 5.996, 5.704, 6.349, 6.098, 5.985, 6.075, 5.859, 6.311, 5.8, 6.111, 6.053, 5.997, 5.82, 5.925, 5.721, 6.359, 5.702, 6.074, 6.052, 5.551, 6.378, 5.892, 5.644, 6.067, 6.091, 5.676, 6.015, 5.882, 6.178, 5.971, 6.035, 5.816, 5.915, 5.976, 5.948, 5.719, 6.041, 5.67, 5.72, 6.132, 5.76, 5.849, 6.407, 5.604, 6.028, 5.734, 6.136, 6.072, 5.756, 6.31, 5.758, 6.304, 5.922, 5.652, 6.515, 6.249, 6.027, 6.003, 5.752, 5.987, 14.689, 5.813, 6.073, 6.438, 5.597, 6.02, 9.397, 16.114, 9.383, 5.925, 6.211, 6.077, 6.059, 5.975, 6.063, 5.779, 6.299, 5.847, 6.239, 5.851, 5.778, 6.29, 6.072, 6.015, 5.725, 6.07, 6.751, 6.125, 5.703, 6.657, 6.063, 6.249, 5.809, 6.031, 6.699, 5.836, 5.881, 5.951, 6.099, 6.067, 6.096, 5.775, 5.642, 6.155, 5.784, 5.703, 6.104, 5.796, 5.79, 6.209, 6.118, 5.854, 6.061, 6.114, 5.858, 6.0, 5.728, 6.294, 7.276, 6.107, 6.03, 5.946, 5.765, 6.01, 5.794, 6.116, 5.701, 6.085, 6.268, 5.811, 5.899, 5.772, 6.31, 5.831, 5.949, 6.058, 5.901, 6.0, 6.0, 5.965, 5.719, 6.085, 6.081, 6.215, 6.033, 5.739, 6.034, 5.956, 6.183, 6.038, 5.933, 6.112, 5.833],
  "Optimizer iterations": 443,
  "Optimizer params": [0.5692610579399251, 0.9363689644708086, 0.43788386461812784, 0.9288186902287058, 0.0004612190705608151, 0.4789094467749489, 0.7117269365037493, 0.81820380590698, 0.07615649453150579, 0.7987698056104675, 0.47790872761537606, 0.47632401179075656, 0.4871200784036583, 0.48995464739440514, 0.00021826524424040385, 0.06336173411757984, 0.9093507199850779, 0.8902854174149687, 0.8943859006081253, 0.043599104678679064],
  "P": 0,
  "Problem": "IC",
  "QJob durations [ms]": [0.2529500052332878, 0.2537499967729673, 0.24595000286353752, 0.2510999911464751, 0.24644999211886898, 0.24979999579954892, 0.24739999207668006, 0.24840000696713105, 0.24765000853221864, 0.2691000117920339, 0.25224999990314245, 0.247049996687565, 0.24599999596830457, 0.2591499942354858, 0.2556000035838224, 0.2450500032864511, 0.2500000045984052, 0.2507499884814024, 0.24930000654421747, 0.3441499939071946, 0.2491999912308529, 0.24599999596830457, 0.24714999017305672, 0.243800001044292, 0.2467500016791746, 0.24674998712725937, 0.24840000696713105, 0.2504500007489696, 0.24995001149363816, 0.2629999944474548, 0.2524500014260411, 0.24584999482613057, 0.25445000210311264, 0.2534500090405345, 0.25260000256821513, 0.25164999533444643, 0.2523500006645918, 0.24369999300688505, 0.35825001396005973, 0.24634999863337725, 0.24554999981774017, 0.24769999436102808, 0.2460000032442622, 0.2477999951224774, 0.2568500058259815, 0.25850000383798033, 0.2513999934308231, 0.26464999245945364, 0.24514999677194282, 0.2502999996067956, 0.251049998041708, 0.24595000286353752, 0.2487500023562461, 0.24345000565517694, 0.2638000005390495, 0.2849000011337921, 0.2450500032864511, 0.25019999156938866, 0.3247500062570907, 0.24420000409008935, 0.31879999733064324, 0.2558499982114881, 0.26109999453183264, 0.258250001934357, 0.24850000045262277, 0.2960999991046265, 0.24685000244062394, 0.24560000019846484, 0.2556000035838224, 0.24760000815149397, 0.2990499997395091, 0.2502999996067956, 0.2477000016369857, 0.24915000540204346, 0.2507500030333176, 0.251450008363463, 0.24680000205989927, 0.25135000760201365, 0.2464499993948266, 0.38159999530762434, 0.2549499986344017, 0.2474999928381294, 0.2478500027791597, 0.25615000049583614, 0.2855500060832128, 0.2598999999463558, 0.2576000115368515, 0.2641500032041222, 0.24625000514788553, 0.2505000011296943, 0.25564999668858945, 0.24974999541882426, 0.25379999715369195, 0.24755000049481168, 0.24530000519007444, 0.258250001934357, 0.24375000793952495, 0.24810001195874065, 0.2492500061634928, 0.24700000358279794, 0.2495500084478408, 0.2491999912308529, 0.24574999406468123, 0.2458500093780458, 0.24620000476716086, 0.24945000768639147, 0.25024999922607094, 0.2608499926282093, 0.2562999870860949, 0.2450500032864511, 0.24735000624787062, 0.24554999981774017, 0.25270000332966447, 0.24550000671297312, 0.24249999842140824, 0.24994999694172293, 0.2511999919079244, 0.25114999152719975, 0.24050000502029434, 0.24634999863337725, 0.25445000210311264, 0.24649999977555126, 0.2535999956307933, 0.28095000016037375, 0.24344999837921932, 0.25460000324528664, 0.25040000036824495, 0.26080000679939985, 0.2517000102670863, 0.2479999966453761, 0.24944999313447624, 0.24979999579954892, 0.24870000197552145, 0.25630000163801014, 0.24700000358279794, 0.24390000908169895, 0.24419999681413174, 0.2548999909777194, 0.2530000056140125, 0.2535999956307933, 0.2560500070103444, 0.24539999139960855, 0.24745000700931996, 0.25485000514891, 0.24720000510569662, 0.2447500010021031, 0.26140000409213826, 0.2485999939381145, 0.24890000349842012, 0.2556999970693141, 0.2504500007489696, 0.24715000472497195, 0.2533000078983605, 0.250299992330838, 0.24755000049481168, 0.24164999922504649, 0.2504500007489696, 0.2612000025692396, 0.24884999584173784, 0.24854999355738983, 0.25340000865980983, 0.24945000768639147, 0.2479999966453761, 0.24295000184793025, 0.24605000362498686, 0.25204999110428616, 0.2502000061213039, 0.24404999567195773, 0.24599999596830457, 0.2541499998187646, 0.25469999673077837, 0.2553999947849661, 0.24624999787192792, 0.25209999876096845, 0.2617499994812533, 0.254550002864562, 0.2541499998187646, 0.25489999825367704, 0.24614998983452097, 0.2681500045582652, 0.24124999617924914, 0.24954999389592558, 0.2784000025712885, 0.25505000667180866, 0.24960000882856548, 0.2494000000297092, 0.2456499933032319, 0.24834999931044877, 0.2639500016812235, 0.2531000063754618, 0.2467500016791746, 0.24695000320207328, 0.2425499915261753, 0.30714999593328685, 0.34940001205541193, 0.35400000342633575, 0.243499998759944, 0.24634999863337725, 0.25979999190894887, 0.24485000176355243, 0.2487499950802885, 0.254700004006736, 0.24559999292250723, 0.2494000000297092, 0.25430000096093863, 0.24220000341301784, 0.24554999254178256, 0.2573999954620376, 0.2527999895391986, 0.25150000146823004, 0.2559999920777045, 0.25409999943803996, 0.24710000434424728, 0.25779999850783497, 0.24220000341301784, 0.2424000049359165, 0.2569499993114732, 0.24495000252500176, 0.24680000205989927, 0.25504999939585105, 0.24230000417446718, 0.2582999877631664, 0.24375000066356733, 0.2578000130597502, 0.2502999996067956, 0.24614999711047858, 0.25255000218749046, 0.250899996899534, 0.2427500076009892, 0.25070000265259296, 0.2581000080681406, 0.29445000109262764, 0.24494999524904415, 0.25120000645983964, 0.243950002186466, 0.24804999702610075, 0.2582000015536323, 0.2528500044718385, 0.2534500090405345, 0.2509500045562163, 0.25784999888855964, 0.2477999951224774, 0.24080000002868474, 0.24979999579954892, 0.41849999252008274, 0.24754999321885407, 0.24584999482613057, 0.2504500007489696, 0.25019999156938866, 0.2489500038791448, 0.2512500068405643, 0.2554499951656908, 0.25165000988636166, 0.24739999935263768, 0.24509999639121816, 0.2512499922886491, 0.24735000624787062, 0.23905000125523657, 0.2574500103946775, 0.2613500037114136, 0.2451999971526675, 0.25004999770317227, 0.247199997829739, 0.24595000286353752, 0.25440000172238797, 0.24514999677194282, 0.2487500023562461, 0.24730000586714596, 0.24454999947920442, 0.24884998856578022, 0.24545000633224845, 0.24894998932722956, 0.24285000108648092, 0.24935000692494214, 0.243950002186466, 0.24735000624787062, 0.24614999711047858, 0.2513999934308231, 0.24914999812608585, 0.2466000005370006, 0.2450499960104935, 0.2545000024838373, 0.24824999854899943, 0.24634999135741964, 0.24279999342979863, 0.2910999974119477, 0.2528000040911138, 0.24855000810930505, 0.24544999905629084, 0.24659999326104298, 0.2495500084478408, 0.2482999989297241, 0.25934999575838447, 0.2506000018911436, 0.25485000514891, 0.25200001255143434, 0.2513999934308231, 0.2611499949125573, 0.24695000320207328, 0.2508000034140423, 0.24700000358279794, 0.24580000172136351, 0.24709999706828967, 0.24614999711047858, 0.243499998759944, 0.24685000244062394, 0.24935000692494214, 0.2545000024838373, 0.25179999647662044, 0.24449999909847975, 0.2546500036260113, 0.24559999292250723, 0.24755000049481168, 0.25365000328747556, 0.2542000001994893, 0.24285000108648092, 0.243649999902118, 0.2493499923730269, 0.25299999106209725, 0.24900000425986946, 0.2472500054864213, 0.2489500038791448, 0.23940000392030925, 0.24534999101888388, 0.24359999952139333, 0.24304999533342198, 0.24415000370936468, 0.24470000062137842, 0.2411499954177998, 0.2408500004094094, 0.24515000404790044, 0.24959999427665025, 0.25934999575838447, 0.24389999452978373, 0.2463000055286102, 0.24480000865878537, 0.24485000176355243, 0.2518999972380698, 0.25004999770317227, 0.2554499951656908, 0.2450499960104935, 0.2519999979995191, 0.24954999389592558, 0.24215000303229317, 0.27254999440629035, 0.2560499997343868, 0.25055000151041895, 0.2499000111129135, 0.2443999910610728, 0.25150000874418765, 0.24750000739004463, 0.2499999973224476, 0.25555001047905535, 0.2503499999875203, 0.2460000032442622, 0.2470500039635226, 0.42109999048989266, 0.26154999795835465, 0.41164998401654884, 0.2490499900886789, 0.24420000409008935, 0.25255000218749046, 0.24164999922504649, 0.2512499922886491, 0.24109999503707513, 0.24950000806711614, 0.2560500070103444, 0.2482999989297241, 0.257949999650009, 0.24470000062137842, 0.25024999922607094, 0.2631499955896288, 0.24759999359957874, 0.25009999808389693, 0.2504500007489696, 0.25164999533444643, 0.2485499862814322, 0.2517000102670863, 0.24694999592611566, 0.25485000514891, 0.24020000273594633, 0.25019999884534627, 0.2526500029489398, 0.24500000290572643, 0.2596499980427325, 0.24715000472497195, 0.24489999486831948, 0.2447500010021031, 0.243800001044292, 0.2538499975344166, 0.24595000286353752, 0.2477000016369857, 0.24280000070575625, 0.24384999414905906, 0.2498499961802736, 0.24619999749120325, 0.24124999617924914, 0.24805000430205837, 0.25165000988636166, 0.26294999406673014, 0.2477000089129433, 0.2506499949959107, 0.2514000079827383, 0.2492500061634928, 0.2574499958427623, 0.24584999482613057, 0.24205000227084383, 0.24860000849002972, 0.24715000472497195, 0.24824999854899943, 0.24909999774536118, 0.2476499939803034, 0.2470500039635226, 0.243499998759944, 0.2461500043864362, 0.2514999941922724, 0.24589999520685524, 0.2491000050213188, 0.24755000049481168, 0.2499999973224476, 0.24569999368395656, 0.24380000832024962, 0.2554000020609237, 0.24174999998649582, 0.25260000256821513, 0.25779999850783497, 0.24494999524904415, 0.2530499914428219, 0.2503499999875203, 0.24420000409008935, 0.24635000590933487, 0.24080000002868474, 0.25660000392235816, 0.25925000954885036, 0.24470000062137842, 0.25430000096093863, 0.25019999884534627, 0.2445499922032468, 0.25564999668858945, 0.24695000320207328, 0.2469000028213486, 0.2506499949959107, 0.24620000476716086],
  "QPU": "7000000",
  "Qubits": 5,
  "Queue durations [ms]": [0.0, 0.0, 0.0, 0.0, 0.0, 0.0, 0.0, 0.0, 0.0, 0.0, 0.0, 0.0, 0.0, 0.0, 0.0, 0.0, 0.0, 0.0, 0.0, 0.0, 0.0, 0.0, 0.0, 0.0, 0.0, 0.0, 0.0, 0.0, 0.0, 0.0, 0.0, 0.0, 0.0, 0.0, 0.0, 0.0, 0.0, 0.0, 0.0, 0.0, 0.0, 0.0, 0.0, 0.0, 0.0, 0.0, 0.0, 0.0, 0.0, 0.0, 0.0, 0.0, 0.0, 0.0, 0.0, 0.0, 0.0, 0.0, 0.0, 0.0, 0.0, 0.0, 0.0, 0.0, 0.0, 0.0, 0.0, 0.0, 0.0, 0.0, 0.0, 0.0, 0.0, 0.0, 0.0, 0.0, 0.0, 0.0, 0.0, 0.0, 0.0, 0.0, 0.0, 0.0, 0.0, 0.0, 0.0, 0.0, 0.0, 0.0, 0.0, 0.0, 0.0, 0.0, 0.0, 0.0, 0.0, 0.0, 0.0, 0.0, 0.0, 0.0, 0.0, 0.0, 0.0, 0.0, 0.0, 0.0, 0.0, 0.0, 0.0, 0.0, 0.0, 0.0, 0.0, 0.0, 0.0, 0.0, 0.0, 0.0, 0.0, 0.0, 0.0, 0.0, 0.0, 0.0, 0.0, 0.0, 0.0, 0.0, 0.0, 0.0, 0.0, 0.0, 0.0, 0.0, 0.0, 0.0, 0.0, 0.0, 0.0, 0.0, 0.0, 0.0, 0.0, 0.0, 0.0, 0.0, 0.0, 0.0, 0.0, 0.0, 0.0, 0.0, 0.0, 0.0, 0.0, 0.0, 0.0, 0.0, 0.0, 0.0, 0.0, 0.0, 0.0, 0.0, 0.0, 0.0, 0.0, 0.0, 0.0, 0.0, 0.0, 0.0, 0.0, 0.0, 0.0, 0.0, 0.0, 0.0, 0.0, 0.0, 0.0, 0.0, 0.0, 0.0, 0.0, 0.0, 0.0, 0.0, 0.0, 0.0, 0.0, 0.0, 0.0, 0.0, 0.0, 0.0, 0.0, 0.0, 0.0, 0.0, 0.0, 0.0, 0.0, 0.0, 0.0, 0.0, 0.0, 0.0, 0.0, 0.0, 0.0, 0.0, 0.0, 0.0, 0.0, 0.0, 0.0, 0.0, 0.0, 0.0, 0.0, 0.0, 0.0, 0.0, 0.0, 0.0, 0.0, 0.0, 0.0, 0.0, 0.0, 0.0, 0.0, 0.0, 0.0, 0.0, 0.0, 0.0, 0.0, 0.0, 0.0, 0.0, 0.0, 0.0, 0.0, 0.0, 0.0, 0.0, 0.0, 0.0, 0.0, 0.0, 0.0, 0.0, 0.0, 0.0, 0.0, 0.0, 0.0, 0.0, 0.0, 0.0, 0.0, 0.0, 0.0, 0.0, 0.0, 0.0, 0.0, 0.0, 0.0, 0.0, 0.0, 0.0, 0.0, 0.0, 0.0, 0.0, 0.0, 0.0, 0.0, 0.0, 0.0, 0.0, 0.0, 0.0, 0.0, 0.0, 0.0, 0.0, 0.0, 0.0, 0.0, 0.0, 0.0, 0.0, 0.0, 0.0, 0.0, 0.0, 0.0, 0.0, 0.0, 0.0, 0.0, 0.0, 0.0, 0.0, 0.0, 0.0, 0.0, 0.0, 0.0, 0.0, 0.0, 0.0, 0.0, 0.0, 0.0, 0.0, 0.0, 0.0, 0.0, 0.0, 0.0, 0.0, 0.0, 0.0, 0.0, 0.0, 0.0, 0.0, 0.0, 0.0, 0.0, 0.0, 0.0, 0.0, 0.0, 0.0, 0.0, 0.0, 0.0, 0.0, 0.0, 0.0, 0.0, 0.0, 0.0, 0.0, 0.0, 0.0, 0.0, 0.0, 0.0, 0.0, 0.0, 0.0, 0.0, 0.0, 0.0, 0.0, 0.0, 0.0, 0.0, 0.0, 0.0, 0.0, 0.0, 0.0, 0.0, 0.0, 0.0, 0.0, 0.0, 0.0, 0.0, 0.0, 0.0, 0.0, 0.0, 0.0, 0.0, 0.0, 0.0, 0.0, 0.0, 0.0, 0.0, 0.0, 0.0, 0.0, 0.0, 0.0, 0.0, 0.0, 0.0, 0.0, 0.0, 0.0, 0.0, 0.0, 0.0, 0.0, 0.0, 0.0, 0.0, 0.0, 0.0, 0.0, 0.0, 0.0, 0.0, 0.0, 0.0, 0.0, 0.0, 0.0, 0.0, 0.0, 0.0, 0.0, 0.0, 0.0, 0.0, 0.0, 0.0, 0.0, 0.0, 0.0, 0.0, 0.0, 0.0, 0.0, 0.0, 0.0, 0.0, 0.0, 0.0, 0.0, 0.0],
  "Shots": 4096,
  "Size": 5,
  "Total Algorithm duration [s]": 2.795,
  "Total Classic duration [s]": 2.682821649936086,
  "Total Quantum duration [s]": 0.11217835006391397
}
