{
  "Circuit execution durations [ms]": [23.63109588623047, 23.735404014587402, 23.384451866149902, 23.646950721740723, 23.68795871734619, 23.56255054473877, 23.015379905700684, 23.093104362487793, 23.230314254760742, 23.67556095123291, 23.70321750640869, 23.787617683410645, 23.659825325012207, 23.37515354156494, 23.37169647216797, 23.122668266296387, 23.408889770507813, 22.82083034515381, 23.88608455657959, 23.012518882751465, 23.327350616455078, 23.35047721862793, 23.330211639404297, 23.185133934020996, 23.793816566467285, 23.259282112121582, 23.45454692840576, 24.102091789245605, 23.33223819732666, 23.40519428253174, 23.804187774658203, 23.64802360534668, 23.76079559326172, 23.761868476867676, 23.14436435699463, 23.182988166809082, 23.201584815979004, 23.767948150634766, 23.731231689453125, 23.424386978149414, 22.900938987731934, 23.139119148254395, 22.982001304626465, 23.04518222808838, 23.154258728027344, 23.258566856384277, 23.2541561126709],
  "Depth": 4.5,
  "Expectation Value": -1.0,
  "Optimal Expectation Value": -1.0,
  "Optimizer durations [ms]": [1450.398, 1473.119, 1497.528, 1481.988, 1446.182, 1474.135, 1478.633, 1441.182, 1491.671, 1478.908, 1474.013, 1474.199, 1444.261, 1475.873, 1469.783, 1475.203, 1474.911, 1480.953, 1473.616, 1473.351, 1446.188, 1494.825, 1474.985, 1446.028, 1475.078, 1473.529, 1479.043, 1479.33, 1473.372, 1477.533, 1476.327, 1449.184, 1476.211, 1476.297, 1499.386, 1485.427, 1452.26, 1479.321, 1479.993, 1467.775, 1461.331, 1503.476, 1475.186, 1473.776, 1447.16, 1475.388, 1473.986],
  "Optimizer iterations": 47,
  "Optimizer params": [0.0, 0.8839017022870593, 1.0, 1.0],
  "P": 0,
  "Problem": "IC",
  "QJob durations [ms]": [716.0588502883911, 728.5009622573853, 729.436993598938, 732.9730987548828, 715.1496410369873, 729.117751121521, 731.275200843811, 712.6017808914185, 726.3482809066772, 731.4267158508301, 729.0347814559937, 729.1224002838135, 714.0686511993408, 729.7921180725098, 726.9428968429565, 717.5614833831787, 729.3871641159058, 732.4100732803345, 728.7811040878296, 728.6509275436401, 715.119481086731, 728.0398607254028, 729.3843030929565, 715.0243520736694, 729.5223474502563, 728.8192510604858, 731.5458059310913, 731.688380241394, 716.9828414916992, 730.7331562042236, 730.1664352416992, 716.6608572006226, 730.2424907684326, 730.1781177520752, 729.956865310669, 734.6409559249878, 718.021035194397, 731.6950559616089, 731.9686412811279, 725.8849143981934, 722.6439714431763, 732.2834730148315, 729.5082807540894, 728.843092918396, 715.5334949493408, 729.7625541687012, 729.0289402008057],
  "QPU": "6010013",
  "Qubits": 1,
  "Queue durations [ms]": [0.0, 0.0, 0.0, 0.0, 0.0, 0.0, 0.0, 0.0, 0.0, 0.0, 0.0, 0.0, 0.0, 0.0, 0.0, 0.0, 0.0, 0.0, 0.0, 0.0, 0.0, 0.0, 0.0, 0.0, 0.0, 0.0, 0.0, 0.0, 0.0, 0.0, 0.0, 0.0, 0.0, 0.0, 0.0, 0.0, 0.0, 0.0, 0.0, 0.0, 0.0, 0.0, 0.0, 0.0, 0.0, 0.0, 0.0],
  "Shots": 4096,
  "Size": 1,
  "Total Algorithm duration [s]": 69.202,
  "Total Classic duration [s]": 35.05948016834259,
  "Total Quantum duration [s]": 34.14251983165741
}
