{
  "Circuit execution durations [ms]": [14.594619162380695, 14.59132693707943, 8.991236798465252, 9.009242057800293, 8.93083680421114, 9.152102284133434, 14.669119846075773, 15.053301118314266, 8.944860193878412, 9.183872025460005, 9.452581871300936, 9.071824606508017, 9.069102816283703, 8.850025944411755, 14.528535772114992, 9.063791017979383, 20.1784810051322, 14.424243476241827, 14.782611280679703, 14.544440899044275, 9.728859178721905, 14.793270267546177, 14.560269191861153, 9.418218862265348, 8.955683093518019, 9.035725146532059, 14.608549885451794, 14.641075395047665, 8.931935299187899, 14.53833607956767, 14.61397297680378, 8.904415182769299, 14.537306036800146, 8.9323865249753, 9.625096805393696, 9.117732755839825, 14.318091794848442, 8.913605473935604, 8.835169952362776, 8.848153986036777, 14.950599055737257, 9.064998012036085, 9.078411385416985, 9.021779522299767, 15.03682741895318, 8.956925477832556, 9.602646343410015, 14.615611173212528, 14.354920480400324, 14.1924605704844, 8.828879334032536, 8.967082481831312, 9.08023165538907, 9.103154763579369, 9.134791791439056, 8.88117728754878, 10.03644336014986, 14.619731809943914, 10.204833466559649],
  "Depth": 2.0,
  "Expectation Value": -2.2720563411712646,
  "Optimal Expectation Value": -2.2741000652313232,
  "Optimizer durations [ms]": [84188.223, 24385.275, 81385.867, 52489.159, 69447.633, 16137.725, 28892.75, 17834.486, 78789.578, 18848.514, 127513.02, 75878.717, 16177.617, 22661.711, 71837.554, 16666.498, 36485.978, 69268.551, 34711.506, 18827.12, 92645.871, 22920.386, 14744.593, 109170.11, 21053.577, 54038.89, 21678.933, 18759.103, 20040.349, 80128.916, 23974.74, 20202.474, 173053.69, 19734.445, 16694.382, 71110.204, 19424.757, 135880.157, 73713.324, 142207.238, 23179.092, 79350.626, 39384.709, 17766.764, 107869.578, 29088.225, 14936.555, 26739.303, 17550.144, 44835.049, 15715.605, 14826.417, 14844.516, 17037.27, 16383.075, 29380.85, 96017.727, 16012.119, 28753.239],
  "Optimizer iterations": 59,
  "Optimizer params": [1.0, 0.5107850116010352, 0.0, 0.5015414684297408],
  "P": 0,
  "Problem": "RH",
  "QJob durations [ms]": [42044.23427581787, 12109.199047088623, 40640.13433456421, 26191.176414489746, 34669.7678565979, 7985.342502593994, 14395.618915557861, 8863.450050354004, 39343.360900878906, 9339.635372161865, 63703.8688659668, 37886.857986450195, 8033.273696899414, 11247.468948364258, 35866.299629211426, 8282.796859741211, 18193.028450012207, 34551.010608673096, 17302.858352661133, 9361.512660980225, 46270.99847793579, 11378.026008605957, 7321.601629257202, 54532.708168029785, 10472.9642868042, 26937.10231781006, 10786.77225112915, 9325.501441955566, 9967.759132385254, 39979.483127593994, 11936.08570098877, 10051.19514465332, 86476.79901123047, 9785.694599151611, 8295.81356048584, 35501.24502182007, 9659.375667572021, 67862.47944831848, 36806.17666244507, 71051.025390625, 11537.654876708984, 39591.40348434448, 19642.138957977295, 8830.692291259766, 53882.79628753662, 14460.522651672363, 7414.3524169921875, 13318.692207336426, 8722.36680984497, 22331.503868103027, 7804.427146911621, 7361.16361618042, 7370.039939880371, 8431.087255477905, 8136.728048324585, 14639.074802398682, 47956.38370513916, 7925.307750701904, 14324.830055236816],
  "QPU": "4010001",
  "Qubits": 4,
  "Queue durations [ms]": [981.000006198883, 5300.499796867371, 27809.499114751816, 14367.999941110611, 871.999979019165, 1056.4999878406525, 1387.000024318695, 1604.4999957084656, 31880.000054836273, 2459.9999487400055, 28385.00052690506, 31226.999580860138, 880.5000185966492, 728.5000085830688, 655.4999947547913, 1439.0000402927399, 7673.00021648407, 28220.50040960312, 872.5000023841858, 769.9999809265137, 28225.000023841858, 1009.4999969005585, 674.5000183582306, 47585.00099182129, 811.5000128746033, 2237.499952316284, 1415.5000150203705, 1014.9999856948853, 1408.5000157356262, 1304.999977350235, 1493.499994277954, 1504.5000314712524, 32247.000575065613, 828.5000026226044, 1118.9999878406525, 1524.500012397766, 874.4999766349792, 59961.00103855133, 28519.499361515045, 31348.499417304993, 960.500031709671, 31442.999243736267, 5136.49982213974, 2113.0000352859497, 46800.498098134995, 1032.999962568283, 1031.499981880188, 1523.0000019073486, 2250.0, 14160.499662160873, 1064.4999742507935, 926.4999628067017, 1259.9999904632568, 2452.499955892563, 2183.500051498413, 4912.999987602234, 31202.99917459488, 840.499997138977, 883.5000097751617],
  "Shots": 4096,
  "Size": 4,
  "Total Algorithm duration [s]": 2763.274,
  "Total Classic duration [s]": 1385.1831310501098,
  "Total Quantum duration [s]": 1378.0908689498901
}
