{
  "Depth": 131.0,
  "Expectation Value": -9.087474822998047,
  "Job durations [ms]": [0.8729, 0.9433, 0.8467, 1.0831, 0.8986000000000001, 0.8788999999999999, 1.0629000000000002, 0.8434, 0.9229, 0.8404, 1.0771000000000002, 0.8333, 0.8635999999999999, 1.0971, 1.1222999999999999, 1.2384, 0.9412, 0.9797, 0.9386000000000001, 0.843, 0.8318000000000001, 0.8291999999999999, 0.8654, 1.0090999999999999, 0.9430999999999999, 0.9724999999999999, 1.2437, 0.9349000000000001, 0.8462, 0.9554, 0.9364, 0.842, 0.9774, 0.8466, 0.8561000000000001, 1.0512, 0.8654, 0.8614999999999999, 0.9266, 0.9265, 0.944, 1.0798999999999999, 0.9353, 0.9276, 1.0343, 0.9927, 0.8526, 0.8444, 0.9322999999999999, 1.0453999999999999, 0.8612, 0.9829000000000001, 0.8453999999999999, 0.8706, 0.9551, 0.8803, 0.838, 0.8188, 0.8527, 0.934, 0.821, 0.8519000000000001, 0.9433999999999999, 0.9438, 0.8187, 0.8484999999999999, 0.8394999999999999, 0.8473, 0.8357, 0.6947, 0.8714999999999999, 0.8553999999999999, 0.9311, 0.9375, 0.9144, 0.9211, 0.9286, 0.8481, 0.8400000000000001, 1.227, 0.9290999999999999, 1.1176000000000001, 0.8862, 1.0053, 0.945, 0.8556, 1.2479, 0.8453999999999999, 0.8138000000000001, 0.9138, 0.7752, 0.7846, 0.9370999999999999, 1.0606, 0.7703, 0.8209, 0.9629000000000001, 0.8352, 0.8323999999999999, 0.8966, 0.9326, 0.893, 0.9753000000000001, 1.0551, 0.8564, 0.8465, 0.953, 0.8449, 0.8382, 0.8978, 0.9188, 0.966, 0.8405, 1.1628999999999998, 0.8488, 0.9201, 0.8416, 1.0502, 0.8453999999999999, 1.0933, 0.9251],
  "Optimal Expectation Value": -10.0,
  "Optimizer durations [ms]": [18.891, 14.792, 18.795, 15.221, 19.316, 18.941, 18.201, 15.452, 14.684, 18.502, 15.286, 18.586, 18.623, 18.164, 14.997, 17.801, 14.891, 12.667, 11.73, 18.64, 18.516, 18.498, 14.421, 17.919, 14.768, 17.441, 17.736, 17.96, 18.535, 10.788, 14.607, 18.501, 13.476, 16.71, 19.124, 15.838, 18.92, 15.824, 14.675, 11.926, 12.595, 15.889, 14.654, 14.469, 17.864, 15.262, 18.46, 18.6, 14.779, 17.729, 18.75, 11.101, 18.746, 17.703, 15.029, 15.213, 16.938, 15.316, 16.676, 14.589, 17.174, 17.069, 14.528, 14.631, 18.317, 18.481, 18.431, 18.729, 14.843, 12.013, 11.441, 18.682, 10.748, 14.552, 10.843, 14.457, 14.502, 16.368, 18.833, 18.107, 13.52, 18.067, 18.823, 14.307, 14.536, 18.729, 18.028, 15.096, 14.01, 15.012, 17.915, 18.049, 12.138, 13.967, 12.872, 18.447, 14.927, 17.867, 18.66, 17.982, 11.81, 19.304, 17.827, 15.967, 18.727, 18.573, 11.501, 18.476, 15.559, 14.222, 14.533, 11.949, 18.754, 13.808, 17.065, 14.729, 16.447, 14.282, 18.745, 18.007, 14.596],
  "Optimizer iterations": 121,
  "Optimizer params": [0.5611503673930676, 0.9198992414965637, 0.9898900984699676, 0.3139329308331878, 0.9431486349908846, 0.8769466558325016],
  "P": 3,
  "Problem": "MCP",
  "QPU": "7000000",
  "Qubits": 7,
  "Shots": 4096,
  "Size": 7,
  "Total Algorithm duration [s]": 1.951,
  "Total Classic duration [s]": 1.8394639000000002,
  "Total Quantum duration [s]": 0.11153610000000001
}
