{
  "Depth": 131.0,
  "Expectation Value": -8.99152946472168,
  "Job durations [ms]": [0.8562, 0.8441, 0.8482000000000001, 0.8624999999999999, 0.8597, 0.8418, 1.0986, 0.8632, 0.8354, 0.8319, 0.8402000000000001, 0.8411, 0.8459, 0.8543, 0.8551, 0.8296, 0.8778, 0.9749, 0.8438, 0.8288, 0.8502, 1.1431, 0.8391, 0.9255, 1.1576, 0.9121999999999999, 0.8275, 0.8523, 0.8321999999999999, 0.8539, 0.8557, 1.2463000000000002, 0.8404, 0.8761, 1.2815999999999999, 0.8597, 1.1482, 0.8165, 0.8545, 1.0904, 0.9079999999999999, 0.8428, 0.8389, 0.8194, 0.8517, 0.8447, 0.9287, 1.1215000000000002, 0.8458, 0.9697, 0.9081, 0.8384, 0.9265, 0.8402000000000001, 0.8388, 0.9056, 0.8577, 1.1865, 0.8497, 1.2304, 1.21, 0.9223, 1.0173, 1.1669, 0.8543, 0.8291000000000001, 0.8296, 0.8495, 0.8315, 1.1845, 0.8347, 0.8294, 0.8385, 0.8502, 1.0567, 0.8319, 1.1551, 0.8336, 1.2222, 0.9775999999999999, 0.8597, 1.0168, 0.8459, 0.8386, 1.2191, 0.8448, 0.8646],
  "Optimal Expectation Value": -10.0,
  "Optimizer durations [ms]": [18.825, 18.72, 18.466, 16.318, 18.79, 18.738, 17.767, 16.01, 18.632, 18.454, 17.828, 18.679, 18.558, 18.914, 18.763, 18.287, 18.92, 15.948, 18.649, 18.264, 19.02, 14.714, 17.848, 17.926, 15.386, 18.159, 18.542, 15.992, 13.662, 18.615, 16.022, 17.835, 18.062, 18.871, 18.496, 18.871, 12.834, 18.167, 15.757, 14.517, 17.845, 18.624, 18.447, 15.387, 16.203, 15.795, 17.936, 16.479, 18.657, 15.075, 11.78, 18.375, 14.779, 14.044, 18.67, 10.66, 18.726, 17.685, 18.439, 15.603, 15.425, 14.559, 18.008, 14.871, 17.953, 14.216, 18.433, 15.38, 18.121, 17.681, 15.632, 15.768, 18.539, 17.627, 17.835, 15.572, 18.293, 18.539, 15.398, 10.988, 17.938, 17.978, 15.67, 18.544, 18.029, 18.569, 17.516],
  "Optimizer iterations": 87,
  "Optimizer params": [0.3534602206617247, 0.29390708733404775, 0.05276691133831091, 0.15273160976191646, 0.8482849046993963, 0.7671914203327566],
  "P": 3,
  "Problem": "MCP",
  "QPU": "7000000",
  "Qubits": 7,
  "Shots": 4096,
  "Size": 7,
  "Total Algorithm duration [s]": 1.485,
  "Total Classic duration [s]": 1.4046364,
  "Total Quantum duration [s]": 0.08036360000000004
}
