{
  "Depth": 131.0,
  "Expectation Value": -8.699300765991211,
  "Job durations [ms]": [0.8725, 0.8667, 0.8327, 1.0713000000000001, 0.8461000000000001, 0.9067, 0.8167, 0.9156000000000001, 0.8331999999999999, 0.8549, 1.2358, 0.8344, 0.8551, 0.8442000000000001, 0.8484, 0.8270000000000001, 0.8392000000000001, 0.8352999999999999, 0.9771000000000001, 0.8439, 0.8399, 1.0315999999999999, 1.1306, 0.9187000000000001, 0.8490000000000001, 0.8746, 0.8321, 0.8118, 0.9263, 0.8057, 0.8258, 0.8947999999999999, 0.9759, 1.0227000000000002, 0.9394, 1.1015000000000001, 1.2213, 0.9234, 0.8630000000000001, 0.8438, 0.8354, 0.8474, 1.2349999999999999, 0.9279, 0.9161, 0.8521, 0.8524, 0.9433, 0.8318000000000001, 0.8857999999999999, 0.843, 0.8281000000000001, 0.9894000000000001, 0.8478, 0.9284, 0.9105, 0.8400000000000001, 0.9672, 1.2181, 0.8524, 0.9265, 0.8302999999999999, 1.2509000000000001, 0.8417, 0.8751, 0.8583, 0.8474, 1.1714, 0.8297, 0.8585, 0.8378, 0.8429000000000001, 0.8426, 0.9779999999999999, 0.975, 0.8338, 0.9811, 0.8377, 1.1515, 0.8338],
  "Optimal Expectation Value": -10.0,
  "Optimizer durations [ms]": [18.636, 18.859, 18.575, 15.517, 18.751, 14.242, 18.471, 14.081, 18.318, 18.549, 13.666, 18.659, 18.642, 18.427, 14.147, 14.794, 18.568, 18.399, 17.471, 18.399, 18.373, 18.035, 13.571, 14.88, 18.526, 19.219, 18.383, 18.274, 14.712, 15.292, 14.938, 17.891, 15.161, 17.136, 14.722, 18.035, 16.38, 11.398, 16.226, 18.613, 18.091, 15.635, 17.991, 18.009, 11.401, 17.079, 18.715, 17.921, 14.49, 17.371, 18.371, 18.446, 14.184, 18.788, 14.49, 17.882, 15.819, 15.12, 13.793, 15.75, 14.518, 13.971, 18.3, 18.718, 15.078, 15.377, 18.431, 18.001, 18.563, 18.839, 16.462, 18.676, 15.152, 17.633, 15.02, 15.241, 17.951, 18.69, 14.502, 18.339],
  "Optimizer iterations": 80,
  "Optimizer params": [0.9887928245460006, 0.9931027630602277, 0.6022451139243875, 0.42903372234534576, 0.9996621417209645, 0.2296057880075044],
  "P": 3,
  "Problem": "MCP",
  "QPU": "7000000",
  "Qubits": 7,
  "Shots": 4096,
  "Size": 7,
  "Total Algorithm duration [s]": 1.341,
  "Total Classic duration [s]": 1.2678551999999998,
  "Total Quantum duration [s]": 0.07314480000000002
}
