{
  "Depth": 131.0,
  "Expectation Value": -9.419194221496582,
  "Job durations [ms]": [0.86, 0.8402999999999999, 0.8233, 0.9077, 0.8259, 0.8474, 0.8633, 0.992, 0.8295, 0.8225, 0.9724999999999999, 0.898, 0.8358, 0.8437, 0.8411, 0.9318, 0.8407, 0.8316, 0.9207, 0.8377, 0.8392000000000001, 0.8489, 0.852, 0.9370999999999999, 0.8401, 0.9744, 0.8402999999999999, 0.8317, 0.8512, 0.8762000000000001, 0.8622000000000001, 0.9692999999999999, 0.8381000000000001, 0.8431, 0.8506, 1.2216, 0.8667, 0.8559, 0.8394999999999999, 0.9585, 1.1577, 0.9261, 0.9347, 0.8422, 0.8423, 0.8489, 0.9124, 0.8413999999999999, 0.8465, 1.1300999999999999, 0.8779, 0.8635, 1.1747, 0.8777, 0.8385, 0.8442000000000001, 0.8425, 0.8262999999999999, 0.9353, 0.8291999999999999, 1.1604, 0.8466, 0.8663, 0.8487, 0.8313, 0.8268000000000001, 0.8399, 0.8351, 0.9536, 0.8732, 0.9243, 0.9738, 0.7483000000000001, 1.0597],
  "Optimal Expectation Value": -10.0,
  "Optimizer durations [ms]": [18.784, 18.449, 18.488, 11.405, 13.91, 18.534, 18.774, 17.058, 15.836, 18.42, 18.287, 14.657, 18.791, 18.459, 18.849, 10.537, 16.543, 18.463, 14.627, 18.458, 17.298, 18.651, 15.189, 11.164, 15.256, 14.093, 18.718, 18.268, 18.479, 17.72, 15.617, 17.918, 18.489, 15.082, 15.614, 18.237, 18.817, 18.59, 18.066, 16.248, 18.213, 18.216, 17.061, 18.574, 15.152, 18.714, 14.371, 18.594, 18.876, 13.568, 18.009, 17.599, 16.413, 14.946, 18.298, 18.36, 13.895, 15.302, 14.059, 18.346, 15.195, 17.746, 18.787, 15.338, 15.266, 17.262, 18.457, 18.644, 12.131, 16.715, 11.968, 13.785, 17.666, 15.846],
  "Optimizer iterations": 74,
  "Optimizer params": [0.9884501463916451, 0.6161001120386137, 0.39536990705904596, 0.26134737940434616, 0.7190190714217634, 0.5373392225417134],
  "P": 3,
  "Problem": "MCP",
  "QPU": "7000000",
  "Qubits": 7,
  "Shots": 4096,
  "Size": 7,
  "Total Algorithm duration [s]": 1.236,
  "Total Classic duration [s]": 1.1700578,
  "Total Quantum duration [s]": 0.06594220000000002
}
