{
  "Depth": 131.0,
  "Expectation Value": -9.561657905578613,
  "Job durations [ms]": [0.8426, 0.8563000000000001, 0.8397, 1.1854, 0.8412, 0.8191999999999999, 0.842, 0.911, 0.8668, 0.8349, 0.8413999999999999, 0.8321999999999999, 0.8547, 0.8351, 0.9043, 0.9238999999999999, 0.8161, 0.8543, 0.8335, 1.0598999999999998, 0.8314, 0.8559, 0.8304, 0.8346, 0.8928999999999999, 0.8422, 1.2259, 0.9066000000000001, 0.8236, 0.8448, 0.9825999999999999, 0.8436, 0.83, 0.846, 1.0253, 0.8354, 0.9226, 0.8321999999999999, 0.8392000000000001, 0.8356, 0.8281000000000001, 0.8432999999999999, 0.8505, 0.8260000000000001, 0.8835, 1.0645, 0.9192, 0.9393, 0.8350000000000001, 0.8377, 1.1303999999999998, 0.8259, 0.8445, 0.8437, 0.8418, 0.8422, 1.1675, 0.8260000000000001, 1.2175, 0.8513999999999999, 0.8407, 1.1670999999999998, 0.8352999999999999, 0.8415, 0.824, 0.8294, 0.8376, 0.8188, 0.8294, 0.8248, 0.9111, 1.1444, 0.8249000000000001, 1.2064000000000001, 0.846, 0.8361, 1.1774, 1.2229999999999999, 0.8297, 0.8606, 0.8563000000000001, 1.0258, 0.8375, 0.9801, 0.8227, 0.8285, 0.8611, 0.8272, 0.9716, 0.8321999999999999, 0.8262, 0.8205, 0.8264, 0.8613, 1.034, 1.0344, 1.1655, 0.9091, 0.8688, 1.2141000000000002],
  "Optimal Expectation Value": -10.0,
  "Optimizer durations [ms]": [18.383, 18.558, 18.573, 15.052, 13.709, 18.565, 18.422, 17.07, 18.846, 18.29, 18.7, 15.573, 15.244, 18.416, 13.695, 10.992, 16.452, 18.584, 16.804, 18.211, 18.661, 18.684, 15.781, 18.434, 18.976, 18.923, 15.217, 13.334, 18.389, 18.773, 15.87, 15.659, 18.431, 18.719, 13.855, 17.995, 14.629, 15.933, 17.668, 18.469, 18.325, 15.913, 16.787, 18.792, 17.737, 15.538, 14.502, 9.82, 16.886, 14.103, 17.896, 18.097, 18.02, 17.584, 17.76, 18.643, 13.283, 16.973, 15.487, 14.565, 18.872, 18.051, 16.059, 18.52, 18.339, 18.614, 14.124, 14.668, 18.083, 18.468, 10.236, 18.159, 17.803, 17.571, 16.312, 15.078, 18.068, 17.206, 15.568, 18.681, 18.5, 18.284, 17.088, 13.659, 14.429, 18.543, 13.325, 18.489, 15.112, 18.438, 16.688, 14.061, 18.356, 19.074, 17.502, 13.429, 17.961, 16.738, 17.206, 15.483],
  "Optimizer iterations": 100,
  "Optimizer params": [0.8447230962996883, 0.0603200400695959, 0.4156863061243344, 0.6296614881298662, 0.029097041666933735, 0.2557361823841934],
  "P": 3,
  "Problem": "MCP",
  "QPU": "7000000",
  "Qubits": 7,
  "Shots": 4096,
  "Size": 7,
  "Total Algorithm duration [s]": 1.678,
  "Total Classic duration [s]": 1.5875952,
  "Total Quantum duration [s]": 0.09040480000000001
}
