{
  "Depth": 131.0,
  "Expectation Value": -8.682927131652832,
  "Job durations [ms]": [0.8875000000000001, 0.8677, 0.9359000000000001, 0.8442000000000001, 0.9871000000000001, 0.8562, 1.0567, 0.8342999999999999, 0.8140000000000001, 0.8365999999999999, 0.8288, 0.9222, 0.8579, 0.8274, 0.8579, 1.2275, 0.9592999999999999, 0.8341000000000001, 0.8587999999999999, 0.9379, 0.8822, 1.0328, 0.9566, 0.9829000000000001, 0.8522, 1.1232, 0.8792, 0.8996, 0.9993000000000001, 0.8905000000000001, 0.9232, 0.8416, 0.9956999999999999, 0.8406, 0.8133, 0.8331000000000001, 0.9544, 0.8422, 0.8285, 0.9359000000000001, 0.8473, 0.9123, 0.8434, 0.9967999999999999, 0.8164, 0.8400000000000001, 0.8288, 0.8538, 1.0464, 0.9387, 0.9485, 1.0245, 0.9512, 1.2692, 0.9298000000000001, 0.85, 0.8317, 0.847, 0.8241, 1.0448, 0.8400000000000001, 0.8597, 0.8291999999999999, 0.8272, 0.9128, 0.8281999999999999, 0.8350000000000001, 0.9328, 0.8478, 0.867, 0.8315, 1.1811, 1.0218, 0.8302999999999999, 0.8662, 1.0467, 0.8548, 0.8533, 0.8658, 0.9639, 1.0682, 0.8644, 0.9314, 0.8404, 1.0331, 0.8426, 1.0747],
  "Optimal Expectation Value": -10.0,
  "Optimizer durations [ms]": [18.732, 18.868, 14.748, 16.172, 12.574, 18.465, 15.952, 14.168, 18.524, 18.247, 18.595, 10.953, 18.814, 18.794, 18.299, 15.326, 15.106, 17.156, 17.83, 13.283, 17.956, 17.685, 12.423, 15.084, 18.016, 17.599, 18.958, 19.191, 15.514, 16.615, 14.662, 18.691, 17.547, 18.716, 16.899, 18.289, 12.799, 18.491, 15.811, 11.424, 18.149, 11.561, 18.549, 14.018, 18.452, 17.257, 18.298, 14.754, 17.947, 12.574, 14.938, 17.157, 12.694, 17.992, 14.756, 17.306, 18.507, 19.078, 16.067, 17.99, 14.29, 19.121, 13.805, 14.039, 19.44, 18.559, 18.621, 13.654, 15.756, 18.039, 18.096, 18.123, 18.269, 18.604, 15.625, 17.776, 15.714, 15.804, 19.048, 14.871, 18.42, 16.724, 14.423, 17.423, 18.159, 18.295, 18.116],
  "Optimizer iterations": 87,
  "Optimizer params": [0.9806796212442156, 0.5840519614482971, 0.9177524138392875, 0.9913390080273546, 0.9999999999999999, 0.7892982865672573],
  "P": 3,
  "Problem": "MCP",
  "QPU": "7000000",
  "Qubits": 7,
  "Shots": 4096,
  "Size": 7,
  "Total Algorithm duration [s]": 1.449,
  "Total Classic duration [s]": 1.3696664,
  "Total Quantum duration [s]": 0.07933360000000002
}
