{
  "Circuit execution durations [ms]": [11.641857214272022, 11.462538503110409, 11.4873549900949, 11.404251214116812, 11.334637645632029, 12.214528396725655, 11.743996292352676, 11.214821599423885, 18.44939775764942, 11.678565293550491, 11.354832910001278, 11.389642022550106, 11.475776322185993, 11.5129086188972, 18.67266232147813, 11.512849945574999, 11.409989092499018, 11.417011730372906, 18.231051042675972, 11.389355175197124, 11.327517684549093, 11.363638564944267, 12.376023922115564, 11.411013081669807, 11.578198987990618, 11.36213168501854, 11.17419358342886, 11.526449583470821, 11.20672281831503, 11.371680535376072, 11.622062418609858, 11.36097265407443, 11.816262267529964, 11.790810618549585, 11.305822059512138, 11.372802779078484, 11.324376799166203, 11.141718365252018, 11.422503739595413, 18.3998248539865, 11.167282238602638, 11.263127904385328, 18.21565069258213, 11.232943274080753, 11.373684741556644, 12.132565025240183, 18.564659170806408, 11.258338112384081, 11.098204646259546, 11.222612112760544, 11.08452444896102, 11.466460768133402, 15.155183617025614, 11.50772301480174, 11.115422938019037, 11.24372472986579, 11.46724633872509, 11.183480732142925, 11.278063990175724, 11.296223383396864, 11.222980450838804, 11.343989986926317, 11.252311058342457, 11.267630383372307, 11.295981239527464, 11.47585129365325, 11.520491912961006, 11.23390020802617, 11.318704579025507, 11.282578576356173, 11.462818831205368, 11.404563207179308, 11.087900958955288, 11.236260645091534, 11.100221425294876, 11.231812182813883, 16.93044602870941, 11.434330139309168, 11.360387783497572, 11.137341149151325, 11.27789681777358, 18.213902600109577, 11.346710380166769, 11.371929664164782, 11.28244400024414, 11.360644828528166, 18.587036058306694, 10.994774755090475, 11.222060304135084, 11.384603567421436],
  "Depth": 2.0,
  "Expectation Value": -2.6926302909851074,
  "Optimal Expectation Value": -3.5925002098083496,
  "Optimizer durations [ms]": [14619.048, 15346.997, 16401.532, 42066.013, 71525.877, 43420.027, 16467.909, 19357.513, 14081.116, 69678.409, 168629.943, 16249.749, 22625.73, 98281.265, 75792.169, 17582.419, 14641.324, 18495.629, 20469.224, 16184.844, 17899.468, 16542.307, 17933.038, 77220.845, 15567.651, 16526.373, 32612.799, 79161.234, 16561.471, 15255.552, 15643.231, 41780.954, 17577.827, 29956.236, 24123.143, 77326.249, 77829.127, 17082.045, 83984.573, 96316.274, 15426.383, 77974.347, 59496.282, 30939.326, 55412.237, 71312.675, 18790.545, 43923.375, 69192.393, 43919.852, 71367.332, 75228.207, 44415.996, 22000.928, 30208.893, 90035.835, 17523.46, 16905.415, 44190.521, 23407.76, 28237.521, 72361.834, 17621.354, 35982.937, 74038.301, 17239.158, 23340.329, 69784.328, 15071.566, 20370.29, 15601.208, 15920.165, 73123.256, 17424.334, 17299.883, 77594.034, 15044.313, 16204.685, 16116.459, 77740.894, 16076.761, 17814.321, 78242.654, 15576.031, 16174.679, 17361.062, 15124.05, 16273.104, 43460.134, 14584.238],
  "Optimizer iterations": 90,
  "Optimizer params": [0.9999999999999999, 0.4989533740233826, 0.004547473956294834, 0.52046428049604, 0.9310280207192411, 0.9886341860518635],
  "P": 0,
  "Problem": "RH",
  "QJob durations [ms]": [7215.743064880371, 7618.819713592529, 8145.898818969727, 20944.99921798706, 35710.52885055542, 21653.451919555664, 8180.798053741455, 9593.259572982788, 6989.165306091309, 34786.21816635132, 84259.71221923828, 8039.3385887146, 11257.75957107544, 49087.76664733887, 37841.41826629639, 8735.912799835205, 7268.893718719482, 9191.958665847778, 10182.678937911987, 8007.605075836182, 8896.697044372559, 8218.985557556152, 8912.629127502441, 38522.226333618164, 7733.291149139404, 8209.693431854248, 16254.900932312012, 39493.736267089844, 8229.055881500244, 7576.166152954102, 7733.928203582764, 20838.722944259644, 8738.41381072998, 14924.485206604004, 11973.404884338379, 38606.505155563354, 38864.04037475586, 8486.916542053223, 41906.49700164795, 48107.282638549805, 7661.81492805481, 38932.50322341919, 29696.04253768921, 15420.194625854492, 27652.75287628174, 35602.61154174805, 9310.271501541138, 21907.43064880371, 34544.265270233154, 21907.200813293457, 35598.72484207153, 37561.34486198425, 22155.00259399414, 10947.38483428955, 15017.00210571289, 44964.813232421875, 8708.966493606567, 8368.194580078125, 22041.873455047607, 11650.36153793335, 14066.439867019653, 36093.9245223999, 8757.508754730225, 17940.23036956787, 36965.44647216797, 8529.152870178223, 11619.98987197876, 34839.58983421326, 7479.546785354614, 10134.186267852783, 7746.821641921997, 7905.75647354126, 36508.206367492676, 8624.320983886719, 8596.9557762146, 38744.8353767395, 7469.793319702148, 8014.292478561401, 8005.924463272095, 38817.28553771973, 7986.832141876221, 8817.802667617798, 39066.70379638672, 7735.082626342773, 8000.703811645508, 8629.00447845459, 7507.874488830566, 8082.139015197754, 21641.326904296875, 7239.269733428955],
  "QPU": "4010001",
  "Qubits": 6,
  "Queue durations [ms]": [838.9999866485596, 886.000007390976, 707.0000171661377, 873.0000257492065, 28717.499375343323, 14623.000025749207, 775.0000059604645, 3153.999984264374, 1132.500022649765, 862.500011920929, 77516.00074768066, 838.4999930858612, 783.0000221729279, 1507.4999630451202, 700.4999965429306, 1571.9999969005585, 1143.4999704360962, 2434.999942779541, 1181.9999814033508, 1122.5000023841858, 1644.499957561493, 1501.9999742507935, 1401.4999568462372, 31643.500804901123, 1151.4999866485596, 1286.5000069141388, 1459.9999785423279, 31717.4990773201, 928.0000030994415, 955.0000131130219, 973.9999771118164, 14778.499901294708, 1140.500009059906, 766.4999961853027, 4806.500107049942, 31551.999926567078, 32061.500012874603, 1547.0000207424164, 27234.499722719193, 41549.00074005127, 943.5000121593475, 1406.5000414848328, 1771.9999551773071, 8566.499829292297, 20946.00009918213, 29185.999274253845, 2390.999972820282, 1043.0000126361847, 27519.999265670776, 14162.500083446503, 28277.99952030182, 31272.500872612, 14703.500151634216, 1064.0000104904175, 936.5000128746033, 24114.999771118164, 1634.0000629425049, 1142.0000195503235, 14656.000435352325, 1555.5000305175781, 7547.000050544739, 28584.00070667267, 916.9999957084656, 1115.5000030994415, 29811.00022792816, 1397.000014781952, 5120.9999322891235, 28226.00030899048, 1034.0000092983246, 2542.9999828338623, 720.5000221729279, 978.5000085830688, 29467.499613761902, 1385.5000138282776, 1481.9999933242798, 1546.999990940094, 1287.999987602234, 1170.4999804496765, 894.4999873638153, 1108.9999675750732, 1401.0000228881836, 1545.5000400543213, 31625.000834465027, 1026.999980211258, 1083.99997651577, 668.4999763965607, 1060.5000257492065, 852.5000214576721, 14266.500174999237, 754.50000166893],
  "Shots": 4096,
  "Size": 6,
  "Total Algorithm duration [s]": 3467.292,
  "Total Classic duration [s]": 1739.136789981842,
  "Total Quantum duration [s]": 1728.155210018158
}
