{
  "Depth": 109.0,
  "Expectation Value": -1.89599609375,
  "Job durations [ms]": [27.809, 27.539, 27.556, 27.649, 27.923, 27.729, 27.688000000000002, 27.871, 28.035999999999998, 27.591, 27.979, 27.77, 27.691, 27.923, 27.785, 27.421999999999997, 27.619999999999997, 27.746, 27.566, 27.951, 27.599999999999998, 27.747999999999998, 27.85, 27.562, 27.737000000000002, 27.771, 29.084, 28.486, 28.028000000000002, 27.684, 28.03, 27.936, 27.754, 27.77, 27.928, 27.611, 27.813000000000002, 28.051, 27.651, 28.014, 28.255, 27.922, 100.731, 28.616, 27.726, 27.668000000000003, 28.011000000000003, 27.699, 27.941, 27.616000000000003, 27.473999999999997, 27.761999999999997, 27.953, 28.415, 27.802, 27.682, 27.642, 27.619999999999997, 27.806, 27.595000000000002, 27.836, 27.543000000000003, 27.592, 27.668000000000003, 27.883000000000003, 27.445, 27.785, 27.726, 27.584999999999997, 27.764, 27.754, 27.631, 27.864, 101.24900000000001, 27.682, 27.607, 28.056, 27.566, 27.673, 27.974, 27.705000000000002, 28.102999999999998, 28.041, 27.703, 27.953, 27.798, 27.584, 27.904999999999998],
  "Optimal Expectation Value": -1.0,
  "Optimizer durations [ms]": [108.759, 33.698, 33.485, 33.522, 33.784, 33.686, 33.615, 33.776, 33.916, 33.63, 33.879, 33.82, 33.799, 33.907, 33.776, 33.5, 33.579, 33.87, 33.662, 33.924, 33.642, 33.727, 33.911, 33.502, 33.691, 33.825, 35.022, 34.353, 34.059, 33.615, 34.03, 33.933, 33.611, 33.663, 33.993, 33.588, 33.811, 34.047, 33.708, 34.005, 34.193, 33.897, 106.764, 34.789, 33.785, 33.726, 34.005, 33.608, 34.112, 33.667, 33.408, 33.762, 34.068, 34.316, 33.84, 33.713, 33.629, 33.571, 33.789, 33.676, 33.744, 33.57, 33.673, 33.614, 33.968, 33.659, 33.862, 33.724, 33.594, 33.985, 34.015, 33.625, 33.748, 107.416, 33.857, 33.519, 33.931, 33.512, 33.813, 33.944, 33.745, 34.015, 33.931, 33.699, 33.835, 33.726, 33.655, 33.795],
  "Optimizer iterations": 88,
  "Optimizer params": [0.9858936777526671, 0.5605948982029916, 0.034612849030885164, 0.27758177081709307, 0.7445576526983095, 0.3612027566350539],
  "P": 3,
  "Problem": "MIS",
  "QPU": "9000001",
  "Qubits": 5,
  "Shots": 4096,
  "Size": 4,
  "Total Algorithm duration [s]": 3.196,
  "Total Classic duration [s]": 0.6024370000000014,
  "Total Quantum duration [s]": 2.5935629999999987
}
