{
  "Circuit execution durations [ms]": [230.89241981506348, 230.99875450134277, 230.53836822509766, 229.7205924987793, 229.57634925842285, 230.3171157836914, 230.6976318359375, 229.9339771270752, 228.88970375061035, 230.1950454711914, 230.31139373779297, 229.74467277526855, 230.6220531463623, 230.99756240844727, 230.7751178741455, 298.7849712371826, 230.1177978515625, 230.5319309234619, 230.20052909851074, 230.69477081298828, 230.58032989501953, 299.4110584259033, 229.77328300476074, 231.0194969177246, 231.82201385498047, 230.00574111938477, 230.6225299835205, 300.0912666320801, 230.42917251586914, 230.94844818115234, 230.84092140197754, 230.67641258239746, 229.48527336120605, 230.62634468078613, 229.35009002685547, 230.39698600769043, 230.90648651123047, 231.123685836792, 231.23788833618164, 229.93898391723633, 230.45897483825684, 230.35788536071777, 231.55856132507324, 230.28135299682617, 230.2076816558838, 230.6375503540039, 296.7534065246582, 230.07822036743164, 230.4079532623291, 229.52938079833984, 230.3621768951416, 230.35454750061035, 297.2383499145508, 230.25894165039063, 230.82208633422852, 230.53526878356934, 230.54742813110352, 230.93390464782715, 297.69158363342285, 230.2684783935547, 229.83789443969727, 230.44371604919434, 229.95901107788086, 230.00764846801758, 299.45921897888184, 229.6609878540039, 231.49514198303223, 231.1849594116211, 230.4840087890625, 229.69985008239746, 231.22048377990723, 229.81762886047363, 230.78370094299316, 230.79919815063477, 230.50832748413086, 231.07099533081055, 230.45635223388672, 230.8938503265381, 231.1258316040039, 229.99906539916992, 230.7882308959961, 230.25012016296387, 230.8800220489502, 298.9919185638428, 232.67340660095215, 229.59113121032715, 230.34286499023438, 230.85498809814453, 230.42821884155273, 299.03125762939453, 229.58827018737793, 230.35097122192383, 230.6656837463379, 230.82971572875977, 231.22787475585938, 300.5080223083496, 231.13512992858887, 230.59582710266113, 231.07647895812988, 230.49235343933105, 230.43394088745117, 230.73983192443848, 232.58066177368164],
  "Depth": 686.0,
  "Expectation Value": -3.184326171875,
  "Optimal Expectation Value": -4.0,
  "Optimizer durations [ms]": [274.178, 274.266, 273.861, 341.468, 272.542, 273.432, 273.932, 273.057, 268.851, 341.418, 273.643, 273.035, 273.5, 274.417, 274.301, 341.746, 273.357, 273.866, 273.46, 273.946, 274.049, 342.688, 272.857, 274.221, 275.108, 273.229, 273.537, 343.316, 273.379, 274.211, 274.277, 274.03, 272.966, 273.811, 339.902, 273.436, 274.052, 274.127, 274.701, 272.968, 341.202, 273.544, 274.566, 273.268, 273.288, 273.937, 340.106, 273.342, 273.499, 272.457, 273.664, 273.759, 340.337, 273.553, 273.968, 273.723, 273.927, 274.19, 340.763, 273.617, 273.288, 273.505, 273.351, 273.475, 342.467, 272.468, 274.633, 274.308, 273.63, 272.556, 274.434, 341.031, 273.993, 273.898, 273.915, 274.102, 273.757, 342.556, 274.255, 273.198, 274.008, 273.639, 273.999, 342.297, 275.972, 272.536, 273.675, 274.261, 273.615, 342.539, 272.73, 273.656, 274.021, 273.993, 274.463, 344.206, 273.975, 273.616, 274.422, 273.507, 273.596, 273.934, 342.953],
  "Optimizer iterations": 103,
  "Optimizer params": [0.12029636866175604, 0.11260444371440394, 0.9089216496101314, 0.2899844699277112, 0.2911488307544238, 0.016661282236114593],
  "P": 3,
  "Problem": "MIS",
  "QJob durations [ms]": [230.89241981506348, 230.99875450134277, 230.53836822509766, 229.7205924987793, 229.57634925842285, 230.3171157836914, 230.6976318359375, 229.9339771270752, 228.88970375061035, 230.1950454711914, 230.31139373779297, 229.74467277526855, 230.6220531463623, 230.99756240844727, 230.7751178741455, 298.7849712371826, 230.1177978515625, 230.5319309234619, 230.20052909851074, 230.69477081298828, 230.58032989501953, 299.4110584259033, 229.77328300476074, 231.0194969177246, 231.82201385498047, 230.00574111938477, 230.6225299835205, 300.0912666320801, 230.42917251586914, 230.94844818115234, 230.84092140197754, 230.67641258239746, 229.48527336120605, 230.62634468078613, 229.35009002685547, 230.39698600769043, 230.90648651123047, 231.123685836792, 231.23788833618164, 229.93898391723633, 230.45897483825684, 230.35788536071777, 231.55856132507324, 230.28135299682617, 230.2076816558838, 230.6375503540039, 296.7534065246582, 230.07822036743164, 230.4079532623291, 229.52938079833984, 230.3621768951416, 230.35454750061035, 297.2383499145508, 230.25894165039063, 230.82208633422852, 230.53526878356934, 230.54742813110352, 230.93390464782715, 297.69158363342285, 230.2684783935547, 229.83789443969727, 230.44371604919434, 229.95901107788086, 230.00764846801758, 299.45921897888184, 229.6609878540039, 231.49514198303223, 231.1849594116211, 230.4840087890625, 229.69985008239746, 231.22048377990723, 229.81762886047363, 230.78370094299316, 230.79919815063477, 230.50832748413086, 231.07099533081055, 230.45635223388672, 230.8938503265381, 231.1258316040039, 229.99906539916992, 230.7882308959961, 230.25012016296387, 230.8800220489502, 298.9919185638428, 232.67340660095215, 229.59113121032715, 230.34286499023438, 230.85498809814453, 230.42821884155273, 299.03125762939453, 229.58827018737793, 230.35097122192383, 230.6656837463379, 230.82971572875977, 231.22787475585938, 300.5080223083496, 231.13512992858887, 230.59582710266113, 231.07647895812988, 230.49235343933105, 230.43394088745117, 230.73983192443848, 232.58066177368164],
  "QPU": "9000001",
  "Qubits": 15,
  "Queue durations [ms]": [0.0, 0.0, 0.0, 0.0, 0.0, 0.0, 0.0, 0.0, 0.0, 0.0, 0.0, 0.0, 0.0, 0.0, 0.0, 0.0, 0.0, 0.0, 0.0, 0.0, 0.0, 0.0, 0.0, 0.0, 0.0, 0.0, 0.0, 0.0, 0.0, 0.0, 0.0, 0.0, 0.0, 0.0, 0.0, 0.0, 0.0, 0.0, 0.0, 0.0, 0.0, 0.0, 0.0, 0.0, 0.0, 0.0, 0.0, 0.0, 0.0, 0.0, 0.0, 0.0, 0.0, 0.0, 0.0, 0.0, 0.0, 0.0, 0.0, 0.0, 0.0, 0.0, 0.0, 0.0, 0.0, 0.0, 0.0, 0.0, 0.0, 0.0, 0.0, 0.0, 0.0, 0.0, 0.0, 0.0, 0.0, 0.0, 0.0, 0.0, 0.0, 0.0, 0.0, 0.0, 0.0, 0.0, 0.0, 0.0, 0.0, 0.0, 0.0, 0.0, 0.0, 0.0, 0.0, 0.0, 0.0, 0.0, 0.0, 0.0, 0.0, 0.0, 0.0],
  "Shots": 4096,
  "Size": 12,
  "Total Algorithm duration [s]": 29.348,
  "Total Classic duration [s]": 4.9219243030548085,
  "Total Quantum duration [s]": 24.42607569694519
}
