{
  "Circuit execution durations [ms]": [79.07307147979736, 58.33721160888672, 55.58121204376221, 56.26392364501953, 57.858943939208984, 82.64696598052979, 58.008790016174316, 82.43513107299805, 55.56058883666992, 82.36467838287354, 56.444764137268066, 56.006431579589844, 55.13739585876465, 57.13188648223877, 84.9374532699585, 56.60355091094971, 82.37099647521973, 56.84244632720947, 83.98401737213135, 56.30338191986084, 58.62855911254883, 57.274699211120605, 58.04276466369629, 80.25884628295898, 55.82845211029053, 82.73983001708984, 55.428504943847656, 82.4660062789917, 54.40247058868408, 59.723615646362305, 54.935574531555176, 58.11655521392822, 83.64295959472656, 57.98208713531494, 83.43875408172607, 56.916117668151855, 83.1766128540039, 58.403849601745605, 58.473825454711914, 58.81154537200928, 59.46767330169678, 81.86006546020508, 59.80348587036133, 80.59728145599365, 56.43880367279053, 83.58120918273926, 55.458784103393555, 57.86120891571045, 59.214115142822266, 59.544920921325684, 81.6948413848877, 57.06202983856201, 83.78195762634277, 54.76665496826172, 82.54218101501465, 58.46762657165527, 56.68365955352783, 58.89153480529785, 55.59349060058594, 84.2902660369873, 56.609272956848145, 83.02199840545654, 56.4652681350708, 82.49342441558838, 58.65657329559326, 56.59008026123047, 56.42127990722656, 58.64548683166504, 82.99267292022705, 58.14647674560547, 82.46040344238281, 56.78915977478027, 83.66119861602783, 56.884765625, 57.93333053588867, 59.15641784667969, 56.60581588745117, 83.54902267456055, 55.03237247467041, 82.46064186096191, 56.987881660461426, 83.22381973266602, 55.38368225097656, 58.26461315155029, 56.68807029724121, 59.24808979034424, 82.39102363586426, 56.82659149169922, 80.94358444213867, 54.578304290771484, 82.44812488555908, 59.615135192871094, 57.168006896972656, 53.885817527770996, 55.0769567489624, 79.70821857452393, 57.785868644714355, 79.60355281829834, 57.8763484954834, 83.31871032714844, 60.84716320037842, 56.02109432220459, 57.22033977508545, 55.88972568511963, 82.23700523376465, 57.60812759399414, 81.02977275848389, 56.90658092498779, 82.21876621246338, 55.44912815093994, 58.8228702545166, 56.77604675292969, 53.59697341918945, 83.6111307144165, 56.25474452972412, 81.34603500366211, 55.11486530303955, 79.66649532318115, 56.26881122589111, 57.63256549835205, 58.67958068847656, 57.079195976257324, 81.89201354980469, 57.102084159851074, 81.27140998840332, 57.52384662628174, 82.497239112854, 57.23106861114502, 56.002020835876465, 54.30018901824951, 56.365013122558594, 85.71505546569824, 56.580424308776855, 79.16700839996338, 55.237650871276855, 82.22031593322754, 56.54251575469971, 57.79731273651123, 58.07697772979736, 55.03106117248535, 83.30845832824707, 56.928396224975586, 80.42824268341064, 55.144309997558594, 82.51547813415527, 55.236220359802246, 56.33282661437988, 58.33446979522705, 58.53676795959473, 84.71763134002686, 55.34076690673828, 82.32271671295166, 58.507323265075684, 83.79518985748291, 59.185028076171875, 57.883262634277344, 58.35902690887451, 57.540297508239746, 81.0999870300293, 57.112693786621094, 82.67450332641602, 57.03306198120117, 84.08868312835693, 57.3502779006958, 60.001492500305176, 55.9992790222168, 55.4509162902832, 83.82642269134521, 56.0450553894043, 81.96640014648438, 57.090044021606445, 84.19167995452881, 59.49580669403076, 54.56805229187012, 57.52980709075928, 58.934688568115234, 80.64913749694824, 57.1446418762207, 83.31680297851563, 53.99942398071289, 84.10084247589111, 56.78904056549072, 56.867003440856934, 58.69150161743164, 58.61806869506836, 84.31541919708252, 56.3274621963501, 81.70592784881592, 55.043935775756836, 83.56106281280518, 57.1361780166626, 57.74366855621338, 57.73043632507324, 57.20949172973633, 81.51543140411377, 57.1446418762207, 81.31134510040283, 57.35313892364502, 83.44805240631104, 59.53037738800049, 58.34782123565674, 57.97600746154785, 57.76715278625488, 81.72738552093506, 58.14635753631592, 82.63134956359863, 58.54082107543945, 81.66694641113281, 58.393001556396484, 57.14762210845947, 58.379292488098145, 61.11633777618408, 82.34214782714844, 57.32905864715576, 82.90374279022217, 56.19382858276367, 82.21054077148438, 55.6330680847168, 56.04100227355957, 60.1041316986084, 57.45553970336914, 85.14523506164551, 56.267499923706055, 82.13257789611816, 55.922508239746094, 83.76467227935791, 56.86640739440918, 57.28614330291748, 56.403398513793945, 58.370232582092285, 84.830641746521, 54.984331130981445, 79.7501802444458, 57.76393413543701, 84.56707000732422, 57.42156505584717, 57.06989765167236, 56.59747123718262, 59.34035778045654, 82.55374431610107, 58.20000171661377, 81.88223838806152, 56.88464641571045, 83.90486240386963, 54.198265075683594, 56.94866180419922, 57.517170906066895, 59.67843532562256],
  "Depth": 10.5,
  "Expectation Value": -3.623046875,
  "Optimal Expectation Value": -4.75877046585083,
  "Optimizer durations [ms]": [666.081, 623.098, 667.558, 613.89, 668.439, 625.743, 668.992, 624.699, 656.453, 669.804, 616.431, 668.21, 612.447, 665.522, 627.684, 664.553, 625.907, 658.137, 675.777, 616.966, 673.847, 617.751, 668.032, 617.948, 661.155, 625.261, 656.371, 673.382, 610.2, 676.862, 611.413, 667.311, 626.551, 673.816, 625.579, 660.371, 673.528, 621.138, 672.225, 619.09, 671.209, 622.94, 668.009, 620.551, 659.597, 674.373, 615.359, 671.533, 627.093, 669.861, 623.095, 663.433, 626.945, 659.315, 673.79, 620.617, 670.25, 619.774, 661.922, 628.636, 664.606, 625.356, 656.891, 671.769, 617.643, 669.511, 614.876, 669.598, 625.534, 666.434, 624.312, 660.543, 674.405, 617.792, 672.735, 618.62, 663.845, 625.777, 659.953, 626.337, 660.517, 672.598, 616.853, 674.722, 616.857, 674.426, 624.9, 663.073, 619.618, 656.933, 671.729, 624.695, 671.458, 608.035, 659.227, 616.43, 665.971, 616.584, 661.86, 673.106, 625.561, 668.293, 615.8, 663.229, 624.006, 665.776, 623.023, 659.334, 671.451, 613.562, 675.078, 615.603, 658.365, 625.71, 663.972, 621.034, 656.584, 665.646, 616.264, 671.473, 617.984, 667.666, 623.887, 664.716, 623.806, 660.851, 673.318, 615.777, 667.65, 611.851, 662.259, 631.277, 664.753, 616.611, 655.613, 671.577, 616.484, 670.447, 615.482, 659.399, 624.316, 662.352, 620.781, 655.515, 671.232, 612.679, 669.259, 617.684, 668.258, 629.57, 659.357, 623.706, 662.252, 672.835, 622.816, 671.736, 616.824, 665.719, 619.959, 663.627, 628.286, 661.441, 675.734, 619.263, 677.51, 613.81, 661.721, 625.749, 664.183, 622.302, 659.832, 677.245, 625.592, 665.519, 615.796, 669.408, 621.123, 663.521, 627.311, 651.974, 674.455, 618.325, 671.776, 621.06, 669.822, 627.46, 664.218, 622.4, 656.032, 674.576, 618.569, 672.278, 617.261, 666.161, 623.656, 663.294, 622.129, 660.331, 675.518, 625.514, 674.416, 616.698, 669.836, 621.966, 666.837, 623.355, 663.804, 668.697, 618.926, 669.866, 618.695, 673.422, 624.448, 665.937, 623.974, 657.92, 672.159, 613.026, 667.819, 620.151, 665.766, 629.796, 664.607, 624.36, 659.684, 679.422, 615.682, 670.247, 613.656, 667.058, 630.819, 658.248, 619.123, 661.347, 675.839, 621.419, 669.08, 616.0, 672.434, 623.149, 667.803, 623.607, 660.471, 675.211, 611.97, 670.145, 617.392, 670.313],
  "Optimizer iterations": 248,
  "Optimizer params": [0.9559325987966627, 0.9914524034865084, 0.5048926883536138, 0.11127422336805351, 0.22637906458518223, 0.5957174011790805, 0.9365574099754232, 0.034501655061424684, 0.11584212833555001, 0.17372543563327586, 0.6167236291151157, 0.6254005979256616, 0.10028919427989916, 0.9800000873615761, 0.9687041045918404, 0.2082972034999792],
  "P": 0,
  "Problem": "IC",
  "QJob durations [ms]": [101.91261768341064, 81.81023597717285, 103.8428544998169, 78.84657382965088, 81.33113384246826, 105.57901859283447, 81.30824565887451, 105.65340518951416, 78.21416854858398, 104.9642562866211, 79.69403266906738, 104.45868968963623, 77.70156860351563, 79.99598979949951, 107.10275173187256, 80.10530471801758, 105.45694828033447, 79.88357543945313, 107.00225830078125, 79.29015159606934, 107.42616653442383, 80.55198192596436, 81.06911182403564, 102.97489166259766, 78.79257202148438, 105.8206558227539, 78.61411571502686, 105.97169399261475, 77.32546329498291, 108.28948020935059, 77.96931266784668, 81.05325698852539, 106.31930828094482, 81.77304267883301, 106.32383823394775, 79.97524738311768, 105.94260692596436, 81.23421669006348, 106.2396764755249, 81.09033107757568, 82.3214054107666, 105.01348972320557, 82.26156234741211, 103.73950004577637, 79.84983921051025, 106.49704933166504, 78.30560207366943, 106.10544681549072, 82.57055282592773, 82.2439193725586, 104.80570793151855, 79.76067066192627, 106.75501823425293, 78.06992530822754, 105.38673400878906, 81.69066905975342, 104.87902164459229, 81.78985118865967, 78.02414894104004, 107.42056369781494, 79.42485809326172, 105.81719875335693, 79.59377765655518, 105.64267635345459, 80.9628963470459, 104.94387149810791, 79.56826686859131, 81.59232139587402, 105.59499263763428, 81.20739459991455, 105.27586936950684, 79.95295524597168, 107.31422901153564, 79.49686050415039, 106.82368278503418, 81.94983005523682, 79.43141460418701, 106.21201992034912, 77.72946357727051, 105.70287704467773, 79.99050617218018, 105.78417778015137, 78.87482643127441, 106.71007633209229, 79.76388931274414, 82.41784572601318, 105.24547100067139, 79.79512214660645, 103.78634929656982, 78.18078994750977, 105.73172569274902, 82.90839195251465, 105.57246208190918, 76.46358013153076, 77.92842388153076, 102.55289077758789, 80.87289333343506, 102.0650863647461, 81.00450038909912, 106.34684562683105, 83.96792411804199, 104.35235500335693, 80.2842378616333, 78.84776592254639, 105.18443584442139, 80.61397075653076, 103.8748025894165, 79.90407943725586, 105.15224933624268, 78.33123207092285, 107.08963871002197, 79.92708683013916, 76.34377479553223, 106.3697338104248, 79.28073406219482, 104.51698303222656, 78.4369707107544, 102.74183750152588, 78.86171340942383, 105.6222915649414, 81.33554458618164, 80.06560802459717, 104.8583984375, 80.05106449127197, 104.31551933288574, 80.72936534881592, 105.92162609100342, 79.76233959197998, 104.49516773223877, 77.48055458068848, 79.08666133880615, 108.47592353820801, 79.46789264678955, 101.83572769165039, 78.17661762237549, 105.21793365478516, 79.58865165710449, 105.89349269866943, 80.54983615875244, 77.49879360198975, 105.98218441009521, 79.51223850250244, 103.5851240158081, 77.66377925872803, 105.35967350006104, 78.07004451751709, 104.67016696929932, 81.26723766326904, 81.54165744781494, 107.79082775115967, 77.85677909851074, 105.1875352859497, 81.50827884674072, 106.64403438568115, 82.24296569824219, 106.36317729949951, 81.4141035079956, 80.25658130645752, 103.67226600646973, 80.07073402404785, 106.14585876464844, 80.46865463256836, 107.43498802185059, 80.13176918029785, 108.84332656860352, 78.88531684875488, 78.51815223693848, 106.4310073852539, 79.38098907470703, 104.84731197357178, 79.98394966125488, 107.6054573059082, 83.12904834747314, 103.11508178710938, 80.30509948730469, 81.56561851501465, 103.4688949584961, 80.34932613372803, 106.60481452941895, 76.5080451965332, 106.86206817626953, 80.0403356552124, 105.1853895187378, 81.93850517272949, 81.91466331481934, 106.95517063140869, 79.22244071960449, 104.78091239929199, 77.98254489898682, 106.6519021987915, 80.41560649871826, 106.38570785522461, 80.68716526031494, 80.238938331604, 104.58207130432129, 80.04438877105713, 104.0797233581543, 80.20353317260742, 107.08653926849365, 82.52859115600586, 106.90975189208984, 80.72137832641602, 80.79659938812256, 104.46655750274658, 81.2222957611084, 105.26275634765625, 81.66754245758057, 104.08532619476318, 81.37011528015137, 105.36551475524902, 81.0689926147461, 84.2665433883667, 105.24463653564453, 80.6436538696289, 105.54683208465576, 79.44965362548828, 104.99417781829834, 78.50098609924316, 104.00116443634033, 82.8324556350708, 80.46042919158936, 107.89752006530762, 79.59890365600586, 104.45570945739746, 79.51760292053223, 107.38849639892578, 79.21862602233887, 105.44443130493164, 78.92262935638428, 80.8948278427124, 108.19828510284424, 78.0174732208252, 102.89406776428223, 81.01928234100342, 107.7336072921753, 80.91986179351807, 104.95352745056152, 79.67448234558105, 82.70668983459473, 105.21888732910156, 81.10082149505615, 104.58040237426758, 80.35516738891602, 107.11216926574707, 77.15737819671631, 105.202317237854, 80.56521415710449, 82.4284553527832],
  "QPU": "3000010",
  "Qubits": 4,
  "Queue durations [ms]": [0.0, 0.0, 0.0, 0.0, 0.0, 0.0, 0.0, 0.0, 0.0, 0.0, 0.0, 0.0, 0.0, 0.0, 0.0, 0.0, 0.0, 0.0, 0.0, 0.0, 0.0, 0.0, 0.0, 0.0, 0.0, 0.0, 0.0, 0.0, 0.0, 0.0, 0.0, 0.0, 0.0, 0.0, 0.0, 0.0, 0.0, 0.0, 0.0, 0.0, 0.0, 0.0, 0.0, 0.0, 0.0, 0.0, 0.0, 0.0, 0.0, 0.0, 0.0, 0.0, 0.0, 0.0, 0.0, 0.0, 0.0, 0.0, 0.0, 0.0, 0.0, 0.0, 0.0, 0.0, 0.0, 0.0, 0.0, 0.0, 0.0, 0.0, 0.0, 0.0, 0.0, 0.0, 0.0, 0.0, 0.0, 0.0, 0.0, 0.0, 0.0, 0.0, 0.0, 0.0, 0.0, 0.0, 0.0, 0.0, 0.0, 0.0, 0.0, 0.0, 0.0, 0.0, 0.0, 0.0, 0.0, 0.0, 0.0, 0.0, 0.0, 0.0, 0.0, 0.0, 0.0, 0.0, 0.0, 0.0, 0.0, 0.0, 0.0, 0.0, 0.0, 0.0, 0.0, 0.0, 0.0, 0.0, 0.0, 0.0, 0.0, 0.0, 0.0, 0.0, 0.0, 0.0, 0.0, 0.0, 0.0, 0.0, 0.0, 0.0, 0.0, 0.0, 0.0, 0.0, 0.0, 0.0, 0.0, 0.0, 0.0, 0.0, 0.0, 0.0, 0.0, 0.0, 0.0, 0.0, 0.0, 0.0, 0.0, 0.0, 0.0, 0.0, 0.0, 0.0, 0.0, 0.0, 0.0, 0.0, 0.0, 0.0, 0.0, 0.0, 0.0, 0.0, 0.0, 0.0, 0.0, 0.0, 0.0, 0.0, 0.0, 0.0, 0.0, 0.0, 0.0, 0.0, 0.0, 0.0, 0.0, 0.0, 0.0, 0.0, 0.0, 0.0, 0.0, 0.0, 0.0, 0.0, 0.0, 0.0, 0.0, 0.0, 0.0, 0.0, 0.0, 0.0, 0.0, 0.0, 0.0, 0.0, 0.0, 0.0, 0.0, 0.0, 0.0, 0.0, 0.0, 0.0, 0.0, 0.0, 0.0, 0.0, 0.0, 0.0, 0.0, 0.0, 0.0, 0.0, 0.0, 0.0, 0.0, 0.0, 0.0, 0.0, 0.0, 0.0, 0.0, 0.0, 0.0, 0.0, 0.0, 0.0, 0.0, 0.0, 0.0, 0.0, 0.0, 0.0, 0.0, 0.0, 0.0, 0.0, 0.0, 0.0, 0.0, 0.0],
  "Shots": 4096,
  "Size": 4,
  "Total Algorithm duration [s]": 160.313,
  "Total Classic duration [s]": 137.65163222599028,
  "Total Quantum duration [s]": 22.661367774009705
}
