{
  "Circuit execution durations [ms]": [25.845646858215332, 26.674747467041016, 27.85468101501465, 27.74178981781006, 24.47187900543213, 26.675701141357422, 25.554180145263672, 28.02729606628418, 26.46803855895996, 28.32627296447754, 28.157949447631836, 26.461362838745117, 27.49502658843994, 27.439475059509277, 26.62348747253418, 27.877211570739746, 27.65202522277832, 27.32980251312256, 28.0379056930542, 29.303908348083496, 51.89919471740723, 26.673197746276855, 28.16462516784668, 26.769280433654785, 27.416706085205078, 26.037931442260742, 25.826096534729004, 25.832176208496094, 27.542471885681152, 25.930285453796387, 30.091166496276855, 29.56521511077881, 24.841666221618652, 26.98647975921631, 28.814077377319336, 25.653481483459473, 26.24654769897461, 25.799036026000977, 27.315139770507813, 28.180360794067383, 27.5421142578125, 26.953935623168945, 25.878190994262695, 29.325008392333984, 51.067352294921875, 24.8565673828125, 28.00285816192627],
  "Depth": 4.5,
  "Expectation Value": -0.9541015625,
  "Optimal Expectation Value": -1.0,
  "Optimizer durations [ms]": [287.076, 337.831, 292.369, 347.437, 283.918, 336.716, 288.907, 339.327, 287.807, 340.839, 293.463, 335.117, 292.39, 336.857, 288.631, 337.66, 289.559, 335.191, 293.006, 343.836, 339.278, 289.598, 341.907, 289.51, 341.537, 287.427, 336.778, 290.168, 339.554, 288.416, 345.972, 295.752, 331.758, 289.916, 339.933, 286.776, 333.119, 287.573, 335.805, 292.414, 336.482, 289.406, 332.126, 295.399, 337.31, 284.273, 340.753],
  "Optimizer iterations": 47,
  "Optimizer params": [0.550278165258923, 0.5333707276902518, 0.5450978325484778, 0.9734465909976076],
  "P": 0,
  "Problem": "IC",
  "QJob durations [ms]": [32.71031379699707, 33.547401428222656, 34.7522497177124, 34.58738327026367, 31.307339668273926, 33.64551067352295, 32.41729736328125, 34.85405445098877, 33.26880931854248, 35.31336784362793, 35.045742988586426, 33.29777717590332, 34.41190719604492, 34.284353256225586, 33.51473808288574, 34.96289253234863, 34.49225425720215, 34.18552875518799, 34.880638122558594, 36.176204681396484, 58.99322032928467, 33.563852310180664, 59.53371524810791, 33.905029296875, 34.28614139556885, 32.892584800720215, 32.67812728881836, 32.691359519958496, 34.44170951843262, 32.819151878356934, 36.954641342163086, 36.42106056213379, 31.695127487182617, 33.81836414337158, 35.67981719970703, 32.521605491638184, 33.056020736694336, 32.65678882598877, 34.20209884643555, 35.24744510650635, 34.43014621734619, 33.7986946105957, 32.69040584564209, 36.232829093933105, 57.97243118286133, 31.676411628723145, 59.55314636230469],
  "QPU": "3000020",
  "Qubits": 1,
  "Queue durations [ms]": [0.0, 0.0, 0.0, 0.0, 0.0, 0.0, 0.0, 0.0, 0.0, 0.0, 0.0, 0.0, 0.0, 0.0, 0.0, 0.0, 0.0, 0.0, 0.0, 0.0, 0.0, 0.0, 0.0, 0.0, 0.0, 0.0, 0.0, 0.0, 0.0, 0.0, 0.0, 0.0, 0.0, 0.0, 0.0, 0.0, 0.0, 0.0, 0.0, 0.0, 0.0, 0.0, 0.0, 0.0, 0.0, 0.0, 0.0],
  "Shots": 4096,
  "Size": 1,
  "Total Algorithm duration [s]": 14.786,
  "Total Classic duration [s]": 13.089932309150695,
  "Total Quantum duration [s]": 1.6960676908493042
}
