{
  "Depth": 2.0,
  "Job durations [ms]": [10.151863098144531, 10.719656944274902, 10.345816612243652, 10.404348373413086, 10.029196739196777, 10.529160499572754, 10.148882865905762, 10.400533676147461, 11.153459548950195, 10.017156600952148, 10.52999496459961, 10.119438171386719, 10.23852825164795, 10.330557823181152, 10.460734367370605, 10.291337966918945, 10.021805763244629, 11.59524917602539, 10.6583833694458, 9.931802749633789, 10.34247875213623, 11.081099510192871, 10.286808013916016, 9.858965873718262, 9.835481643676758, 9.946703910827637, 10.254383087158203, 10.03563404083252, 10.70857048034668, 10.087966918945312, 10.343074798583984, 10.213971138000488, 10.444283485412598, 10.626912117004395, 10.622143745422363, 9.909272193908691, 9.92429256439209, 11.48831844329834, 9.862303733825684, 10.218620300292969, 10.214686393737793, 10.135769844055176, 10.102629661560059, 10.118961334228516, 9.986519813537598, 9.850621223449707, 9.91666316986084, 10.099530220031738, 10.552048683166504, 10.15174388885498, 9.883761405944824, 9.913086891174316, 9.881019592285156, 9.865045547485352, 10.266304016113281, 10.168671607971191, 10.274648666381836, 10.009407997131348, 10.051488876342773, 10.27369499206543, 10.314702987670898, 9.928584098815918, 9.857654571533203, 9.796619415283203, 10.371208190917969, 10.208487510681152, 9.724736213684082, 9.929656982421875, 9.950518608093262, 9.942173957824707, 10.712981224060059, 10.207176208496094, 10.68413257598877, 10.049939155578613, 10.35606861114502, 9.756326675415039, 9.796500205993652],
  "Optimizer durations [ms]": [191.926, 140.823, 139.107, 198.927, 142.213, 140.446, 141.538, 193.941, 138.77, 137.247, 137.86, 182.059, 140.741, 135.772, 138.817, 213.507, 134.45, 141.238, 147.959, 185.222, 142.81, 145.165, 140.732, 192.027, 140.307, 135.894, 140.393, 208.268, 147.773, 144.062, 145.206, 197.785, 155.91, 147.201, 195.218, 141.984, 138.572, 151.904, 205.547, 143.334, 137.011, 139.268, 193.454, 136.446, 141.127, 134.702, 189.242, 136.753, 142.284, 136.501, 185.607, 134.578, 133.419, 133.86, 195.062, 137.774, 139.695, 140.038, 191.48, 139.253, 140.605, 139.593, 198.422, 136.508, 138.727, 189.059, 136.837, 134.005, 133.276, 183.912, 138.174, 135.428, 159.246, 215.336, 141.63, 135.988, 134.501],
  "Optimizer iterations": 77,
  "Qubits": 6,
  "Total Algorithm duration [s]": 11.891,
  "Total Classic duration [s]": 11.10352703666687,
  "Total Quantum duration [s]": 0.7874729633331299,
  "Expectation Value": -3.5900063514709473,
  "Optimal Expectation Value": -3.5925002098083496,
  "Optimizer params": [0.9993581835633688, 0.5055822305518805, 0.9943170951727561, 0.5076772692171888, 0.5070472513985177, 0.999267014699408],
  "QPU": "3010008",
  "Problem": "RH",
  "Size": 6,
  "P": 0,
  "Shots": 4096
}