{
  "Circuit execution durations [ms]": [1.9344, 1.9406, 1.9627, 1.9551999999999998, 1.9299, 1.9526999999999999, 1.9274, 1.9491, 1.2259, 1.9365, 1.234, 1.9157, 1.2273, 1.9400000000000002, 1.2504, 1.9805000000000001, 1.3002, 2.0358, 1.2490999999999999, 1.9828, 1.2223, 1.9343, 1.2404, 1.9575999999999998, 1.228, 1.9383, 1.2339, 1.2315, 1.9514, 1.2023, 1.9079, 1.2259, 1.9713999999999998, 1.9583000000000002, 1.9434, 1.2106000000000001, 1.9252, 1.2279, 1.9566000000000001, 1.2258, 1.9622, 1.2375, 1.2266, 1.9324999999999999, 1.2339, 1.9252, 1.2286000000000001, 1.9491, 1.2455999999999998, 1.2255, 1.9924000000000002, 1.9471, 1.9512, 1.9385999999999999, 1.9443, 1.9581, 1.9342000000000001, 1.9423000000000001, 1.925, 1.965, 1.9308, 1.9304999999999999, 1.911, 1.9336, 1.9524, 2.0204, 2.0778, 1.9581999999999997, 1.9258000000000002, 1.9804000000000002, 1.9266999999999999, 1.9008, 1.9336, 1.9572, 1.9606, 1.9622, 1.9978, 1.9052, 1.9629999999999999, 1.9304000000000001, 1.9469, 1.9224, 1.9554, 1.9737, 1.9185999999999999, 1.9236, 1.9215, 1.9532999999999998, 1.9149, 1.9526000000000001, 1.9154, 1.9268],
  "Depth": 257.0,
  "Expectation Value": -15.866666793823242,
  "Optimal Expectation Value": -20.0,
  "Optimizer durations [ms]": [23.192, 23.088, 23.092, 23.21, 22.737, 23.189, 22.629, 23.056, 15.717, 22.943, 15.967, 22.578, 16.009, 22.83, 16.178, 23.511, 21.324, 23.843, 16.139, 23.413, 16.616, 22.874, 15.815, 23.151, 15.803, 22.786, 15.941, 15.946, 23.182, 15.464, 22.586, 15.753, 23.399, 23.151, 23.06, 15.778, 22.88, 15.932, 22.991, 15.858, 23.414, 15.941, 15.694, 22.868, 15.645, 22.83, 15.892, 23.124, 16.093, 15.986, 23.409, 22.719, 23.151, 23.037, 22.992, 23.122, 22.858, 22.786, 22.705, 23.101, 23.096, 22.939, 22.698, 23.008, 22.951, 28.763, 24.298, 23.269, 22.958, 23.245, 22.844, 22.644, 22.754, 23.219, 23.071, 23.231, 23.525, 22.496, 23.054, 22.926, 23.082, 22.678, 23.149, 23.19, 22.839, 22.841, 22.7, 23.128, 22.795, 23.094, 22.781, 22.763],
  "Optimizer iterations": 92,
  "Optimizer params": [0.5260025589177257, 0.9981607338708733, 0.9983216882894661, 0.2997896080735784, 0.942443367116881, 0.9699269039582187],
  "P": 3,
  "Problem": "MCP",
  "QJob durations [ms]": [1.9344, 1.9406, 1.9627, 1.9551999999999998, 1.9299, 1.9526999999999999, 1.9274, 1.9491, 1.2259, 1.9365, 1.234, 1.9157, 1.2273, 1.9400000000000002, 1.2504, 1.9805000000000001, 1.3002, 2.0358, 1.2490999999999999, 1.9828, 1.2223, 1.9343, 1.2404, 1.9575999999999998, 1.228, 1.9383, 1.2339, 1.2315, 1.9514, 1.2023, 1.9079, 1.2259, 1.9713999999999998, 1.9583000000000002, 1.9434, 1.2106000000000001, 1.9252, 1.2279, 1.9566000000000001, 1.2258, 1.9622, 1.2375, 1.2266, 1.9324999999999999, 1.2339, 1.9252, 1.2286000000000001, 1.9491, 1.2455999999999998, 1.2255, 1.9924000000000002, 1.9471, 1.9512, 1.9385999999999999, 1.9443, 1.9581, 1.9342000000000001, 1.9423000000000001, 1.925, 1.965, 1.9308, 1.9304999999999999, 1.911, 1.9336, 1.9524, 2.0204, 2.0778, 1.9581999999999997, 1.9258000000000002, 1.9804000000000002, 1.9266999999999999, 1.9008, 1.9336, 1.9572, 1.9606, 1.9622, 1.9978, 1.9052, 1.9629999999999999, 1.9304000000000001, 1.9469, 1.9224, 1.9554, 1.9737, 1.9185999999999999, 1.9236, 1.9215, 1.9532999999999998, 1.9149, 1.9526000000000001, 1.9154, 1.9268],
  "QPU": "7000000",
  "Qubits": 14,
  "Queue durations [ms]": [0.0, 0.0, 0.0, 0.0, 0.0, 0.0, 0.0, 0.0, 0.0, 0.0, 0.0, 0.0, 0.0, 0.0, 0.0, 0.0, 0.0, 0.0, 0.0, 0.0, 0.0, 0.0, 0.0, 0.0, 0.0, 0.0, 0.0, 0.0, 0.0, 0.0, 0.0, 0.0, 0.0, 0.0, 0.0, 0.0, 0.0, 0.0, 0.0, 0.0, 0.0, 0.0, 0.0, 0.0, 0.0, 0.0, 0.0, 0.0, 0.0, 0.0, 0.0, 0.0, 0.0, 0.0, 0.0, 0.0, 0.0, 0.0, 0.0, 0.0, 0.0, 0.0, 0.0, 0.0, 0.0, 0.0, 0.0, 0.0, 0.0, 0.0, 0.0, 0.0, 0.0, 0.0, 0.0, 0.0, 0.0, 0.0, 0.0, 0.0, 0.0, 0.0, 0.0, 0.0, 0.0, 0.0, 0.0, 0.0, 0.0, 0.0, 0.0, 0.0],
  "Shots": 4096,
  "Size": 14,
  "Total Algorithm duration [s]": 1.973,
  "Total Classic duration [s]": 1.8095284,
  "Total Quantum duration [s]": 0.16347160000000002
}
