{
  "Circuit execution durations [ms]": [1.9654, 1.9543, 1.9208999999999998, 1.9559, 1.9551999999999998, 1.9492, 1.9512, 1.9565, 1.9401, 1.9441, 1.9327999999999999, 1.9551999999999998, 1.9594999999999998, 1.931, 1.9518, 1.964, 1.9949999999999999, 1.9513, 1.9518, 1.9485999999999999, 1.9322, 1.9503000000000001, 1.9483000000000001, 1.9635, 1.9604000000000001, 1.9411999999999998, 1.9535, 1.9493, 1.9480000000000002, 1.9781, 1.9659, 2.2619, 2.0376000000000003, 1.9529, 1.9554, 1.9285999999999999, 1.9459, 1.9605, 1.9475, 1.9567999999999999, 1.9464000000000001, 2.0181999999999998, 1.9498, 1.9597999999999998, 1.9618, 1.9262000000000001, 1.9457, 1.9421, 1.9264, 1.9779, 1.9201000000000001, 1.9443, 1.9256, 1.9457, 1.9343, 1.9519, 1.9551, 1.9274, 1.9243999999999999, 1.9504, 1.9237, 1.9661000000000002, 1.9535, 1.9314, 1.9546, 1.9331, 1.9689999999999999, 1.9555000000000002, 1.9475, 1.9756, 1.9607999999999999, 1.9384000000000001, 1.9669, 1.9796000000000002, 2.1444, 1.9675, 1.9543999999999997, 1.931, 1.9643, 1.96, 1.9359, 1.9503000000000001, 1.9405, 1.8935, 1.9632999999999998, 1.9722, 1.8726, 1.9567, 1.9252, 1.9623000000000002, 1.9569, 1.9477],
  "Depth": 257.0,
  "Expectation Value": -18.44931411743164,
  "Optimal Expectation Value": -20.0,
  "Optimizer durations [ms]": [23.208, 23.085, 22.745, 23.256, 23.213, 23.135, 23.082, 23.189, 22.856, 22.887, 22.748, 23.275, 23.202, 23.002, 23.144, 23.315, 23.627, 23.059, 23.496, 23.069, 22.995, 23.082, 22.845, 23.194, 23.133, 23.038, 23.02, 23.022, 22.903, 23.479, 23.29, 30.924, 24.011, 23.084, 23.31, 22.906, 22.87, 23.292, 23.142, 23.146, 23.051, 23.623, 23.177, 23.036, 23.481, 22.663, 23.069, 22.921, 22.714, 23.355, 22.712, 23.176, 22.818, 22.798, 22.841, 22.896, 23.095, 22.721, 22.899, 22.927, 22.858, 23.17, 23.044, 22.749, 23.192, 22.929, 23.063, 23.184, 23.049, 23.395, 23.332, 22.901, 23.138, 24.037, 25.197, 23.143, 23.06, 22.937, 25.811, 23.11, 23.772, 23.132, 22.97, 28.459, 23.159, 23.782, 32.237, 23.06, 22.809, 23.35, 23.225, 22.828],
  "Optimizer iterations": 92,
  "Optimizer params": [0.9760183799992288, 0.03196937463355248, 0.051514267154671826, 0.2561747668107939, 0.6119109522486823, 0.6192954763322921],
  "P": 3,
  "Problem": "MCP",
  "QJob durations [ms]": [1.9654, 1.9543, 1.9208999999999998, 1.9559, 1.9551999999999998, 1.9492, 1.9512, 1.9565, 1.9401, 1.9441, 1.9327999999999999, 1.9551999999999998, 1.9594999999999998, 1.931, 1.9518, 1.964, 1.9949999999999999, 1.9513, 1.9518, 1.9485999999999999, 1.9322, 1.9503000000000001, 1.9483000000000001, 1.9635, 1.9604000000000001, 1.9411999999999998, 1.9535, 1.9493, 1.9480000000000002, 1.9781, 1.9659, 2.2619, 2.0376000000000003, 1.9529, 1.9554, 1.9285999999999999, 1.9459, 1.9605, 1.9475, 1.9567999999999999, 1.9464000000000001, 2.0181999999999998, 1.9498, 1.9597999999999998, 1.9618, 1.9262000000000001, 1.9457, 1.9421, 1.9264, 1.9779, 1.9201000000000001, 1.9443, 1.9256, 1.9457, 1.9343, 1.9519, 1.9551, 1.9274, 1.9243999999999999, 1.9504, 1.9237, 1.9661000000000002, 1.9535, 1.9314, 1.9546, 1.9331, 1.9689999999999999, 1.9555000000000002, 1.9475, 1.9756, 1.9607999999999999, 1.9384000000000001, 1.9669, 1.9796000000000002, 2.1444, 1.9675, 1.9543999999999997, 1.931, 1.9643, 1.96, 1.9359, 1.9503000000000001, 1.9405, 1.8935, 1.9632999999999998, 1.9722, 1.8726, 1.9567, 1.9252, 1.9623000000000002, 1.9569, 1.9477],
  "QPU": "7000000",
  "Qubits": 14,
  "Queue durations [ms]": [0.0, 0.0, 0.0, 0.0, 0.0, 0.0, 0.0, 0.0, 0.0, 0.0, 0.0, 0.0, 0.0, 0.0, 0.0, 0.0, 0.0, 0.0, 0.0, 0.0, 0.0, 0.0, 0.0, 0.0, 0.0, 0.0, 0.0, 0.0, 0.0, 0.0, 0.0, 0.0, 0.0, 0.0, 0.0, 0.0, 0.0, 0.0, 0.0, 0.0, 0.0, 0.0, 0.0, 0.0, 0.0, 0.0, 0.0, 0.0, 0.0, 0.0, 0.0, 0.0, 0.0, 0.0, 0.0, 0.0, 0.0, 0.0, 0.0, 0.0, 0.0, 0.0, 0.0, 0.0, 0.0, 0.0, 0.0, 0.0, 0.0, 0.0, 0.0, 0.0, 0.0, 0.0, 0.0, 0.0, 0.0, 0.0, 0.0, 0.0, 0.0, 0.0, 0.0, 0.0, 0.0, 0.0, 0.0, 0.0, 0.0, 0.0, 0.0, 0.0],
  "Shots": 4096,
  "Size": 14,
  "Total Algorithm duration [s]": 2.153,
  "Total Classic duration [s]": 1.9730405,
  "Total Quantum duration [s]": 0.1799595
}
