{
  "Circuit execution durations [ms]": [1.9452, 1.9371, 1.9597, 1.9529, 1.9124999999999999, 1.9356, 1.9456, 1.9678999999999998, 1.9620000000000002, 1.9481, 1.925, 1.8638000000000001, 1.9354, 1.966, 1.7623, 1.9121, 1.9482, 1.7808, 1.9142000000000001, 1.9285999999999999, 1.8552, 1.964, 1.2667, 1.2308, 1.9333, 1.2532, 1.9049, 1.2368, 1.9346, 1.2939, 1.9294, 1.2355999999999998, 1.227, 1.9398, 1.2389000000000001, 1.9058, 1.2239, 1.9407, 1.9298, 1.9335, 1.9312, 1.9503000000000001, 1.9313, 1.925, 1.9556, 1.9374, 1.9364000000000001, 1.9452, 1.9155000000000002, 1.9547, 1.9384000000000001, 1.9259, 1.9462, 1.9664000000000001, 1.8558, 1.9589999999999999, 1.9935, 1.9371, 1.9212, 1.9321, 1.9388, 1.9337, 1.9146, 1.9588, 1.9138, 1.9324999999999999, 1.932, 1.9276, 1.9421, 1.9554, 1.9147, 1.9326, 1.9276, 1.9005999999999998, 1.9094, 1.9511],
  "Depth": 257.0,
  "Expectation Value": -19.384614944458008,
  "Optimal Expectation Value": -20.0,
  "Optimizer durations [ms]": [23.168, 22.933, 23.328, 23.146, 22.649, 23.017, 23.175, 23.277, 23.24, 23.124, 29.009, 25.938, 22.867, 23.261, 29.608, 22.53, 23.232, 29.671, 22.885, 23.002, 31.683, 23.478, 16.314, 15.85, 22.97, 16.191, 22.65, 16.026, 22.942, 16.381, 22.739, 15.899, 15.894, 22.889, 16.123, 22.701, 15.654, 22.8, 22.74, 22.883, 23.005, 23.244, 23.008, 22.863, 23.098, 23.152, 22.817, 23.008, 22.617, 23.304, 23.122, 22.662, 23.04, 23.106, 31.886, 26.12, 23.334, 22.847, 22.939, 22.831, 23.025, 22.752, 22.747, 22.974, 22.648, 22.807, 22.761, 22.969, 23.037, 23.138, 22.914, 22.924, 22.754, 22.636, 22.743, 23.064],
  "Optimizer iterations": 76,
  "Optimizer params": [0.7057237358919692, 0.9511497706502648, 0.07547103711078555, 0.9482386037472091, 0.4558592903071806, 0.23108690180562733],
  "P": 3,
  "Problem": "MCP",
  "QJob durations [ms]": [1.9452, 1.9371, 1.9597, 1.9529, 1.9124999999999999, 1.9356, 1.9456, 1.9678999999999998, 1.9620000000000002, 1.9481, 1.925, 1.8638000000000001, 1.9354, 1.966, 1.7623, 1.9121, 1.9482, 1.7808, 1.9142000000000001, 1.9285999999999999, 1.8552, 1.964, 1.2667, 1.2308, 1.9333, 1.2532, 1.9049, 1.2368, 1.9346, 1.2939, 1.9294, 1.2355999999999998, 1.227, 1.9398, 1.2389000000000001, 1.9058, 1.2239, 1.9407, 1.9298, 1.9335, 1.9312, 1.9503000000000001, 1.9313, 1.925, 1.9556, 1.9374, 1.9364000000000001, 1.9452, 1.9155000000000002, 1.9547, 1.9384000000000001, 1.9259, 1.9462, 1.9664000000000001, 1.8558, 1.9589999999999999, 1.9935, 1.9371, 1.9212, 1.9321, 1.9388, 1.9337, 1.9146, 1.9588, 1.9138, 1.9324999999999999, 1.932, 1.9276, 1.9421, 1.9554, 1.9147, 1.9326, 1.9276, 1.9005999999999998, 1.9094, 1.9511],
  "QPU": "7000000",
  "Qubits": 14,
  "Queue durations [ms]": [0.0, 0.0, 0.0, 0.0, 0.0, 0.0, 0.0, 0.0, 0.0, 0.0, 0.0, 0.0, 0.0, 0.0, 0.0, 0.0, 0.0, 0.0, 0.0, 0.0, 0.0, 0.0, 0.0, 0.0, 0.0, 0.0, 0.0, 0.0, 0.0, 0.0, 0.0, 0.0, 0.0, 0.0, 0.0, 0.0, 0.0, 0.0, 0.0, 0.0, 0.0, 0.0, 0.0, 0.0, 0.0, 0.0, 0.0, 0.0, 0.0, 0.0, 0.0, 0.0, 0.0, 0.0, 0.0, 0.0, 0.0, 0.0, 0.0, 0.0, 0.0, 0.0, 0.0, 0.0, 0.0, 0.0, 0.0, 0.0, 0.0, 0.0, 0.0, 0.0, 0.0, 0.0, 0.0, 0.0],
  "Shots": 4096,
  "Size": 14,
  "Total Algorithm duration [s]": 1.725,
  "Total Classic duration [s]": 1.5845757,
  "Total Quantum duration [s]": 0.14042430000000006
}
