{
  "Circuit execution durations [ms]": [1.9158, 1.9219, 1.9547, 1.9525000000000001, 1.9422000000000001, 1.9643, 1.9462, 1.9577000000000002, 1.9594999999999998, 1.9479, 1.9334, 1.2228, 1.9477, 1.2427, 1.9365999999999999, 1.2219, 1.9308999999999998, 1.2281, 1.9169, 1.232, 1.9797999999999998, 1.2336, 1.2257, 1.9541, 1.2231, 1.2347000000000001, 1.9311, 1.9291, 1.9463, 1.9632999999999998, 1.9979, 1.9173, 1.961, 1.9976, 1.9391, 1.8285, 1.9425, 1.9182, 1.7912, 1.9183, 2.0161, 1.865, 1.9375, 1.9207, 1.929, 1.9335, 1.8956000000000002, 1.913, 1.9458, 1.9397, 1.9135, 1.9361000000000002, 1.9468, 1.9095, 1.9285, 1.9201000000000001, 1.8955, 1.9223000000000001, 1.9224, 1.9331, 1.9123, 1.9132, 1.9291, 1.9231, 1.9627, 1.9277, 1.9344, 1.9221, 1.9253, 1.9474],
  "Depth": 257.0,
  "Expectation Value": -16.648649215698242,
  "Optimal Expectation Value": -20.0,
  "Optimizer durations [ms]": [23.092, 22.679, 23.292, 23.097, 22.831, 23.09, 22.96, 23.149, 23.279, 22.901, 22.915, 15.889, 22.989, 15.876, 22.915, 15.583, 22.794, 15.878, 22.67, 15.917, 23.508, 15.782, 15.745, 23.187, 15.89, 15.842, 22.838, 22.787, 23.082, 23.084, 23.72, 26.341, 24.884, 23.448, 22.921, 29.315, 22.842, 22.723, 29.427, 22.774, 23.815, 31.857, 23.063, 22.844, 22.81, 23.036, 22.403, 22.69, 22.988, 23.035, 22.753, 22.699, 23.062, 22.946, 22.797, 22.255, 22.603, 22.637, 22.924, 22.888, 22.831, 22.672, 22.962, 22.815, 23.113, 22.906, 22.728, 22.709, 22.85, 22.906],
  "Optimizer iterations": 70,
  "Optimizer params": [0.5383685105786203, 0.7942699209117491, 0.952476187687939, 0.5146087295793089, 0.2825893383874786, 0.898083175784326],
  "P": 3,
  "Problem": "MCP",
  "QJob durations [ms]": [1.9158, 1.9219, 1.9547, 1.9525000000000001, 1.9422000000000001, 1.9643, 1.9462, 1.9577000000000002, 1.9594999999999998, 1.9479, 1.9334, 1.2228, 1.9477, 1.2427, 1.9365999999999999, 1.2219, 1.9308999999999998, 1.2281, 1.9169, 1.232, 1.9797999999999998, 1.2336, 1.2257, 1.9541, 1.2231, 1.2347000000000001, 1.9311, 1.9291, 1.9463, 1.9632999999999998, 1.9979, 1.9173, 1.961, 1.9976, 1.9391, 1.8285, 1.9425, 1.9182, 1.7912, 1.9183, 2.0161, 1.865, 1.9375, 1.9207, 1.929, 1.9335, 1.8956000000000002, 1.913, 1.9458, 1.9397, 1.9135, 1.9361000000000002, 1.9468, 1.9095, 1.9285, 1.9201000000000001, 1.8955, 1.9223000000000001, 1.9224, 1.9331, 1.9123, 1.9132, 1.9291, 1.9231, 1.9627, 1.9277, 1.9344, 1.9221, 1.9253, 1.9474],
  "QPU": "7000000",
  "Qubits": 14,
  "Queue durations [ms]": [0.0, 0.0, 0.0, 0.0, 0.0, 0.0, 0.0, 0.0, 0.0, 0.0, 0.0, 0.0, 0.0, 0.0, 0.0, 0.0, 0.0, 0.0, 0.0, 0.0, 0.0, 0.0, 0.0, 0.0, 0.0, 0.0, 0.0, 0.0, 0.0, 0.0, 0.0, 0.0, 0.0, 0.0, 0.0, 0.0, 0.0, 0.0, 0.0, 0.0, 0.0, 0.0, 0.0, 0.0, 0.0, 0.0, 0.0, 0.0, 0.0, 0.0, 0.0, 0.0, 0.0, 0.0, 0.0, 0.0, 0.0, 0.0, 0.0, 0.0, 0.0, 0.0, 0.0, 0.0, 0.0, 0.0, 0.0, 0.0, 0.0, 0.0],
  "Shots": 4096,
  "Size": 14,
  "Total Algorithm duration [s]": 1.568,
  "Total Classic duration [s]": 1.4390709000000002,
  "Total Quantum duration [s]": 0.12892909999999996
}
