{
  "Circuit execution durations [ms]": [1.9366999999999999, 1.9354, 1.9729, 1.9419000000000002, 2.2191, 1.9256, 1.9497, 1.9292, 1.924, 2.0184, 1.9488999999999999, 2.1343, 1.9513, 2.1435, 2.008, 2.0108, 2.0155, 1.9350999999999998, 1.9905000000000002, 1.9174, 1.9069, 1.9851999999999999, 1.9311, 1.9296, 1.9185999999999999, 1.9292999999999998, 1.9173, 1.9307, 1.9605, 1.9457, 1.2268, 1.9485, 1.2539, 1.2605, 1.9298, 1.2316, 1.9903999999999997, 1.2279, 1.9511, 1.2446, 1.2310999999999999, 1.9678, 1.9485, 1.9632, 1.9613, 1.9476, 1.9182, 1.9643, 1.9008, 2.036, 1.9495, 1.9678, 1.9413, 1.9667999999999999, 1.9302, 1.9416, 1.9405, 1.9407, 1.9324, 1.9503000000000001, 1.9536000000000002, 1.9388999999999998, 1.9694, 1.9343, 1.9283, 1.9243999999999999, 1.9521, 1.9680000000000002, 1.9601000000000002, 1.9491, 1.9303000000000001, 1.9189999999999998],
  "Depth": 257.0,
  "Expectation Value": -20.0,
  "Optimal Expectation Value": -20.0,
  "Optimizer durations [ms]": [22.932, 22.961, 23.349, 23.042, 25.77, 22.838, 23.198, 22.947, 27.804, 23.684, 22.921, 24.978, 23.091, 24.842, 23.79, 28.471, 23.643, 22.936, 23.569, 22.638, 22.641, 23.602, 22.73, 22.958, 22.831, 22.895, 22.784, 22.884, 23.188, 23.191, 15.764, 22.963, 16.207, 16.165, 22.685, 15.787, 23.343, 15.983, 23.019, 15.987, 15.997, 23.231, 23.097, 23.066, 23.307, 22.947, 22.694, 23.261, 32.407, 24.187, 23.042, 23.209, 23.078, 23.322, 22.839, 23.003, 22.911, 22.92, 22.924, 22.918, 22.957, 22.903, 23.089, 22.952, 22.798, 22.811, 22.933, 23.27, 22.796, 23.138, 22.72, 22.784],
  "Optimizer iterations": 72,
  "Optimizer params": [0.964778529876715, 0.8557630968087472, 0.053381637232457445, 0.5239775887261523, 0.4989218933017718, 0.6411630192814302],
  "P": 3,
  "Problem": "MCP",
  "QJob durations [ms]": [1.9366999999999999, 1.9354, 1.9729, 1.9419000000000002, 2.2191, 1.9256, 1.9497, 1.9292, 1.924, 2.0184, 1.9488999999999999, 2.1343, 1.9513, 2.1435, 2.008, 2.0108, 2.0155, 1.9350999999999998, 1.9905000000000002, 1.9174, 1.9069, 1.9851999999999999, 1.9311, 1.9296, 1.9185999999999999, 1.9292999999999998, 1.9173, 1.9307, 1.9605, 1.9457, 1.2268, 1.9485, 1.2539, 1.2605, 1.9298, 1.2316, 1.9903999999999997, 1.2279, 1.9511, 1.2446, 1.2310999999999999, 1.9678, 1.9485, 1.9632, 1.9613, 1.9476, 1.9182, 1.9643, 1.9008, 2.036, 1.9495, 1.9678, 1.9413, 1.9667999999999999, 1.9302, 1.9416, 1.9405, 1.9407, 1.9324, 1.9503000000000001, 1.9536000000000002, 1.9388999999999998, 1.9694, 1.9343, 1.9283, 1.9243999999999999, 1.9521, 1.9680000000000002, 1.9601000000000002, 1.9491, 1.9303000000000001, 1.9189999999999998],
  "QPU": "7000000",
  "Qubits": 14,
  "Queue durations [ms]": [0.0, 0.0, 0.0, 0.0, 0.0, 0.0, 0.0, 0.0, 0.0, 0.0, 0.0, 0.0, 0.0, 0.0, 0.0, 0.0, 0.0, 0.0, 0.0, 0.0, 0.0, 0.0, 0.0, 0.0, 0.0, 0.0, 0.0, 0.0, 0.0, 0.0, 0.0, 0.0, 0.0, 0.0, 0.0, 0.0, 0.0, 0.0, 0.0, 0.0, 0.0, 0.0, 0.0, 0.0, 0.0, 0.0, 0.0, 0.0, 0.0, 0.0, 0.0, 0.0, 0.0, 0.0, 0.0, 0.0, 0.0, 0.0, 0.0, 0.0, 0.0, 0.0, 0.0, 0.0, 0.0, 0.0, 0.0, 0.0, 0.0, 0.0, 0.0, 0.0],
  "Shots": 4096,
  "Size": 14,
  "Total Algorithm duration [s]": 1.636,
  "Total Classic duration [s]": 1.4999444,
  "Total Quantum duration [s]": 0.13605559999999994
}
