{
  "Depth": 110.0,
  "Expectation Value": 2.855356454849243,
  "Job durations [ms]": [25.588199999999997, 27.2849, 23.3141, 21.128, 26.3684, 43.716499999999996, 34.688900000000004, 28.164, 22.024700000000003, 24.5499, 20.9776, 21.7077, 26.116400000000002, 20.9062, 22.256800000000002, 21.361, 21.626099999999997, 21.5176, 23.8457, 22.9126, 20.455299999999998, 22.9406, 20.9029, 18.4989, 23.1064, 25.9988, 26.213, 21.707400000000003, 20.3997, 20.0974, 19.4651, 22.8368, 28.3894, 23.7784, 23.3449, 19.9129, 26.7046, 20.5792, 39.8737, 29.311500000000002, 20.2145, 17.132, 18.4605, 20.4874, 19.9168, 31.550799999999995, 25.7397, 26.859399999999997, 23.2539, 23.9727, 23.9719, 20.6861, 21.3564, 20.1659, 20.026100000000003, 21.6191, 18.8849, 24.6486, 20.686300000000003, 22.9787, 25.8701, 21.6049, 18.133, 25.5616, 26.417199999999998, 25.1157, 29.7983, 20.5042, 20.7647, 19.7524, 21.9946, 21.4846, 21.1308, 20.1275, 19.7026, 23.000300000000003, 22.7724, 22.746599999999997, 26.5099, 22.4573, 18.862000000000002, 17.005699999999997, 21.656100000000002, 22.8363, 26.4606, 23.3857, 24.9592, 25.9057, 20.492900000000002],
  "Optimal Expectation Value": -4.0,
  "Optimizer durations [ms]": [262.061, 297.846, 243.232, 221.232, 288.194, 448.815, 369.009, 309.618, 238.722, 262.097, 236.18, 226.747, 281.45, 222.878, 233.281, 219.849, 238.656, 225.729, 246.566, 241.385, 234.985, 239.382, 234.981, 232.407, 238.218, 274.197, 278.127, 247.332, 214.436, 218.741, 204.951, 258.939, 310.456, 274.237, 245.431, 219.926, 282.105, 231.337, 428.535, 338.575, 227.396, 183.21, 192.754, 215.264, 212.518, 322.923, 293.918, 274.739, 238.716, 246.834, 246.17, 231.143, 224.786, 212.499, 217.389, 222.256, 200.366, 262.246, 232.751, 276.816, 267.743, 242.202, 211.576, 272.606, 280.93, 259.324, 307.748, 234.641, 217.627, 223.285, 230.049, 224.654, 238.019, 227.191, 216.742, 236.612, 237.648, 238.685, 281.919, 230.561, 222.085, 193.639, 228.561, 255.405, 285.175, 243.756, 266.171, 275.597, 230.8],
  "Optimizer iterations": 89,
  "Optimizer params": [0.5594687749602857, 0.12839835208588976, 0.16293866441026658, 0.4298152793968208, 0.3329799909263607, 0.530751548603904],
  "P": 3,
  "Problem": "TSP",
  "QPU": "7000000",
  "Qubits": 16,
  "Shots": 4096,
  "Size": 4,
  "Total Algorithm duration [s]": 22.336,
  "Total Classic duration [s]": 20.2618032,
  "Total Quantum duration [s]": 2.0741968
}
