{
  "Depth": 110.0,
  "Expectation Value": 21.871248245239258,
  "Job durations [ms]": [25.6747, 29.2136, 26.0774, 41.8005, 26.6753, 23.2689, 25.3842, 28.043, 19.0427, 22.4823, 24.4312, 21.8956, 23.7109, 23.8879, 27.938299999999998, 24.1134, 25.860999999999997, 27.054499999999997, 22.799, 26.444399999999998, 22.8865, 24.8509, 25.9635, 19.0727, 22.8444, 29.0325, 21.476499999999998, 29.936899999999998, 27.4217, 25.717899999999997, 25.3894, 29.3655, 27.779999999999998, 30.8781, 27.1382, 29.686500000000002, 23.8124, 24.0166, 25.6541, 27.7044, 26.98, 22.289099999999998, 20.8708, 24.8146, 21.412899999999997, 29.083399999999997, 28.9874, 21.631899999999998, 31.733900000000002, 32.357, 28.7325, 22.836599999999997, 19.9378, 24.7672, 22.1429, 23.642400000000002, 24.530199999999997, 38.035399999999996, 21.8427, 29.9743, 27.669, 25.588199999999997, 27.8969, 28.438000000000002, 50.194900000000004, 26.631700000000002, 23.4511, 27.989, 25.4314, 25.356199999999998, 27.422800000000002, 22.216099999999997, 25.6772, 35.668, 37.0205, 36.6338, 26.4982, 29.8368, 30.365, 25.531200000000002, 32.3216, 30.920099999999998, 27.5066, 30.6633, 20.552, 33.3122, 24.913999999999998, 24.767500000000002, 27.4546, 30.5471, 26.2076, 26.5948, 27.2368, 23.0276, 23.2878],
  "Optimal Expectation Value": -4.0,
  "Optimizer durations [ms]": [262.511, 309.912, 290.717, 444.869, 307.296, 263.387, 269.824, 303.831, 225.676, 250.573, 270.185, 248.741, 247.103, 257.328, 300.134, 251.126, 268.167, 288.898, 244.787, 307.069, 253.968, 258.551, 296.774, 200.7, 250.622, 300.316, 242.742, 327.229, 304.812, 283.531, 282.563, 318.926, 302.141, 330.415, 298.036, 303.324, 245.003, 251.922, 268.281, 293.957, 293.61, 233.225, 228.408, 271.648, 236.426, 314.069, 315.543, 223.523, 347.016, 342.486, 309.764, 258.223, 233.545, 258.395, 235.657, 263.979, 255.15, 401.98, 244.8, 338.073, 306.73, 265.694, 288.693, 311.014, 512.542, 299.981, 262.492, 290.198, 264.107, 263.801, 282.272, 254.27, 264.019, 370.112, 381.635, 377.404, 287.561, 315.607, 334.707, 277.762, 343.122, 335.246, 302.62, 323.915, 215.995, 341.331, 307.578, 273.082, 315.523, 322.081, 305.836, 288.202, 280.806, 248.171, 245.077],
  "Optimizer iterations": 95,
  "Optimizer params": [0.9643002399908112, 0.6256119071803696, 0.5286594695388921, 0.8189210587452611, 0.9836649821078128, 0.9842116161553909],
  "P": 3,
  "Problem": "TSP",
  "QPU": "7000000",
  "Qubits": 16,
  "Shots": 4096,
  "Size": 4,
  "Total Algorithm duration [s]": 27.49,
  "Total Classic duration [s]": 24.942139899999997,
  "Total Quantum duration [s]": 2.5478601000000003
}
