{
  "Circuit execution durations [ms]": [34.61158275604248, 34.063100814819336, 34.12067890167236, 34.10530090332031, 33.80537033081055, 34.03806686401367, 34.29245948791504, 33.9808464050293, 34.45851802825928, 34.5768928527832, 34.278154373168945, 71.60770893096924, 33.93077850341797, 33.90693664550781, 34.04676914215088, 33.927202224731445, 33.88667106628418, 34.160733222961426, 33.93411636352539, 33.77640247344971, 34.09731388092041, 34.55853462219238, 33.91575813293457, 34.08622741699219, 33.99252891540527, 34.741878509521484, 69.9397325515747, 34.329891204833984, 34.23869609832764, 33.770084381103516, 33.74207019805908, 33.84959697723389, 34.560441970825195, 34.179091453552246, 34.079909324645996, 34.967660903930664, 34.209370613098145, 34.285664558410645, 34.16764736175537, 34.5306396484375, 34.108757972717285, 70.04880905151367, 34.29543972015381, 34.12210941314697, 34.215569496154785, 34.00564193725586, 33.99217128753662, 34.15846824645996, 33.966898918151855, 34.24358367919922, 34.00444984436035, 34.17623043060303, 34.00278091430664, 34.25109386444092, 33.77878665924072, 34.20102596282959, 70.0298547744751, 34.050822257995605, 33.70404243469238, 33.959031105041504, 33.73551368713379, 34.05570983886719, 33.84816646575928, 34.18231010437012, 33.8747501373291, 34.16311740875244, 34.22558307647705, 34.10947322845459, 34.59656238555908, 34.33489799499512, 34.056663513183594, 70.47927379608154, 34.29079055786133, 33.84387493133545, 33.9970588684082, 34.13057327270508, 34.10983085632324, 34.30795669555664, 33.91408920288086, 33.945679664611816, 34.16550159454346, 34.413814544677734, 34.1792106628418, 34.42561626434326, 34.33668613433838, 34.1418981552124, 70.32430171966553, 34.36136245727539, 33.896684646606445, 34.04581546783447, 34.789323806762695, 33.881187438964844, 33.753395080566406, 33.97035598754883, 34.16180610656738, 34.206509590148926, 34.30914878845215, 34.221649169921875, 34.21139717102051, 34.40976142883301, 33.85353088378906, 69.90170478820801, 34.73925590515137, 34.08396244049072, 34.10613536834717, 34.093379974365234, 34.29126739501953, 33.90240669250488, 34.366726875305176, 33.843398094177246, 34.13283824920654, 33.815622329711914, 34.13951396942139, 33.98787975311279, 34.150004386901855, 34.23655033111572, 70.13630867004395, 34.032344818115234, 33.737778663635254, 34.41894054412842, 34.299254417419434, 34.096598625183105, 33.79988670349121, 34.26384925842285, 33.551812171936035, 33.95545482635498, 34.430503845214844, 33.867597579956055, 33.978819847106934, 33.75422954559326, 34.23440456390381, 69.95069980621338, 34.07716751098633, 33.976078033447266, 33.806443214416504, 34.24370288848877, 33.548593521118164, 34.09683704376221, 34.55770015716553, 34.19959545135498, 34.249186515808105, 34.2259407043457, 34.23178195953369, 34.21497344970703, 33.86390209197998, 33.969998359680176, 70.1819658279419, 34.589171409606934, 34.5921516418457, 34.04510021209717, 34.20901298522949, 33.81156921386719, 34.07871723175049, 33.97345542907715, 34.18242931365967, 34.7599983215332, 35.15326976776123, 34.7750186920166, 34.82186794281006, 34.71553325653076, 34.45160388946533, 70.20413875579834, 34.57355499267578, 34.002065658569336, 34.76572036743164, 34.325361251831055, 34.36136245727539, 34.90328788757324, 34.56223011016846, 34.15679931640625, 34.30509567260742, 33.89739990234375, 34.5531702041626, 34.52622890472412, 35.20047664642334, 34.77835655212402, 72.13211059570313, 35.13920307159424, 34.44027900695801, 33.9970588684082, 34.31546688079834, 34.066081047058105, 33.91122817993164, 34.197211265563965, 34.19232368469238, 34.25335884094238, 34.18433666229248, 34.39140319824219, 34.54267978668213, 34.40570831298828, 34.17801856994629, 70.1141357421875, 34.45708751678467, 34.203410148620605, 34.05892848968506, 33.951401710510254, 34.02101993560791, 34.08479690551758, 34.246206283569336, 33.988356590270996, 34.23440456390381, 34.12449359893799, 34.108519554138184, 34.41417217254639, 34.36470031738281, 34.00266170501709, 70.56903839111328, 34.44409370422363, 33.85722637176514, 34.04664993286133, 34.038662910461426, 33.649444580078125, 33.68532657623291, 34.186601638793945, 34.06250476837158, 34.03949737548828, 34.04593467712402, 34.12127494812012, 33.59782695770264, 33.77890586853027, 34.34324264526367, 69.88906860351563, 33.74636173248291, 33.88798236846924, 34.07442569732666, 34.258365631103516, 34.24942493438721, 34.39760208129883, 34.43348407745361, 33.83827209472656, 34.15572643280029, 34.38830375671387, 34.38997268676758, 34.043073654174805, 33.873915672302246, 34.15226936340332, 70.21355628967285, 34.00719165802002, 33.91718864440918, 33.930182456970215, 33.88690948486328, 33.91122817993164, 34.331679344177246, 33.92481803894043, 33.90014171600342, 34.001827239990234, 34.22200679779053, 34.22582149505615, 34.063100814819336, 33.89573097229004, 34.180402755737305, 69.7944164276123, 34.274935722351074, 33.72073173522949, 34.13558006286621, 34.24429893493652, 33.89894962310791, 33.881187438964844, 34.0195894241333, 33.85043144226074, 34.192562103271484, 34.60431098937988, 34.166693687438965, 33.972859382629395, 34.11233425140381, 34.03973579406738, 70.20795345306396, 34.3092679977417, 34.03449058532715, 34.62016582489014, 34.24239158630371, 34.10184383392334, 34.2559814453125, 34.09302234649658, 34.3245267868042, 33.86104106903076, 34.322500228881836, 34.027814865112305, 34.35969352722168, 34.131407737731934, 33.99789333343506, 70.08635997772217, 34.3548059463501, 33.90192985534668, 34.12508964538574, 34.149765968322754, 33.93197059631348, 34.0275764465332, 34.37352180480957, 33.83529186248779, 34.38878059387207, 34.05404090881348, 34.14559364318848, 35.20643711090088, 34.36851501464844, 34.10148620605469, 69.9855089187622, 34.39748287200928, 36.33320331573486, 40.81010818481445, 38.308024406433105, 38.49077224731445, 34.91520881652832, 35.794734954833984, 36.21220588684082, 34.55495834350586, 34.253716468811035, 34.20543670654297, 34.00552272796631, 33.892273902893066, 33.97393226623535, 71.34830951690674, 34.038424491882324, 33.83493423461914, 34.01792049407959, 33.94043445587158, 34.189820289611816, 33.9665412902832, 34.28387641906738, 33.615827560424805, 33.983469009399414, 33.86688232421875, 34.284353256225586, 33.739566802978516, 34.771084785461426, 34.173011779785156, 70.26469707489014, 34.2864990234375, 33.69426727294922, 33.877015113830566, 34.220099449157715, 34.22856330871582, 34.01303291320801, 33.78129005432129, 33.806443214416504, 34.28518772125244, 34.02984142303467, 34.1721773147583, 34.13033485412598, 34.031033515930176, 33.69545936584473, 70.26159763336182, 34.20460224151611, 33.870577812194824, 34.18326377868652, 34.07752513885498, 34.026145935058594, 33.92636775970459, 34.42060947418213, 33.85162353515625, 34.011244773864746, 34.378767013549805, 34.31057929992676, 34.029603004455566, 34.36076641082764, 34.06381607055664, 70.27852535247803, 34.21986103057861, 34.06679630279541, 33.812522888183594, 34.23047065734863, 33.85961055755615, 34.37840938568115, 34.11245346069336, 33.96177291870117, 33.98168087005615, 34.757137298583984, 34.06989574432373, 34.2259407043457, 34.00528430938721, 34.02054309844971, 69.88823413848877, 34.51740741729736, 34.477829933166504, 34.34872627258301, 33.959388732910156, 34.1031551361084, 34.150004386901855, 34.16752815246582, 33.982157707214355, 34.0116024017334, 34.15489196777344, 34.50727462768555, 34.48331356048584, 34.705281257629395, 34.19852256774902, 70.6782341003418, 34.395575523376465, 34.17694568634033, 34.1947078704834, 33.9123010635376, 33.85484218597412, 34.24787521362305, 34.104347229003906, 34.12032127380371, 33.983707427978516, 34.29245948791504, 34.31892395019531, 34.13224220275879, 33.81466865539551, 34.36481952667236, 69.92864608764648, 34.3012809753418, 33.86211395263672, 34.01613235473633, 34.316420555114746, 34.18886661529541, 34.12508964538574, 34.40594673156738, 33.922433853149414, 33.94746780395508, 33.96177291870117, 33.80131721496582, 33.79356861114502, 33.75577926635742, 33.99205207824707, 70.41645050048828, 33.98537635803223, 34.027934074401855, 34.272074699401855, 33.98787975311279, 33.67424011230469, 33.957719802856445, 34.015774726867676, 33.72514247894287, 34.34038162231445, 34.26158428192139, 34.224867820739746, 34.226179122924805, 34.77442264556885, 33.856868743896484, 70.33538818359375, 33.78260135650635, 33.95676612854004, 34.08968448638916, 33.99229049682617, 34.331560134887695, 34.02435779571533, 34.39056873321533, 34.0503454208374, 34.59131717681885, 34.026145935058594, 33.86080265045166, 34.027695655822754, 33.73396396636963, 34.31844711303711, 70.1744556427002, 33.858656883239746, 34.19780731201172, 33.88690948486328, 33.812642097473145, 34.21366214752197, 34.21223163604736, 34.35790538787842, 34.300804138183594, 34.16109085083008, 34.104228019714355, 34.15060043334961, 34.13951396942139, 33.96415710449219, 34.232258796691895, 69.96524333953857, 34.22677516937256, 33.57422351837158, 34.1796875, 34.09111499786377, 33.8214635848999, 34.08181667327881, 34.267306327819824, 34.19625759124756, 34.180402755737305, 34.20984745025635, 33.76054763793945, 34.11233425140381, 34.35862064361572, 33.97774696350098, 70.44100761413574, 33.7367057800293, 33.89561176300049, 34.523725509643555, 34.02996063232422, 33.69176387786865, 33.817410469055176, 34.14642810821533, 33.66410732269287, 34.23953056335449, 34.085869789123535, 33.86521339416504, 34.400343894958496, 34.32106971740723, 34.34550762176514, 71.25520706176758, 34.47151184082031, 33.704400062561035, 34.2869758605957, 34.29746627807617, 34.13653373718262, 34.035563468933105, 34.03604030609131, 33.959031105041504, 33.92207622528076, 34.22725200653076, 34.02149677276611, 34.99627113342285, 34.14928913116455, 34.128665924072266, 70.04332542419434, 34.34288501739502, 33.95116329193115, 34.1947078704834, 33.90932083129883, 34.65080261230469, 33.965229988098145, 34.349918365478516, 34.264564514160156, 34.05475616455078, 34.19137001037598, 34.3092679977417, 33.696651458740234, 33.817172050476074, 33.93542766571045, 70.02568244934082, 34.29436683654785, 34.281134605407715, 34.050822257995605, 34.200310707092285, 33.738017082214355, 34.00897979736328, 34.157633781433105, 34.279704093933105, 34.47282314300537, 34.32309627532959, 34.23905372619629, 34.09457206726074, 34.063100814819336, 34.83140468597412, 70.50788402557373, 34.064531326293945, 34.05201435089111, 34.11698341369629, 34.25276279449463, 34.17623043060303, 34.188270568847656, 34.35194492340088, 34.203410148620605, 34.30330753326416, 34.21449661254883, 34.15238857269287, 34.68799591064453, 35.07959842681885, 35.00032424926758, 71.63059711456299, 34.203171730041504, 34.40868854522705, 34.60502624511719, 35.31801700592041, 33.91599655151367, 34.64221954345703, 34.88278388977051, 35.018324851989746, 34.54160690307617, 35.691261291503906, 34.79647636413574, 34.71732139587402, 34.18111801147461, 34.14022922515869, 70.16074657440186, 34.02376174926758, 33.74588489532471, 33.771395683288574, 34.29830074310303, 33.997416496276855, 33.760905265808105, 34.258484840393066, 33.83922576904297, 34.391164779663086, 34.5151424407959, 33.87093544006348, 33.86855125427246, 34.246087074279785, 34.13259983062744, 70.02663612365723, 34.27863121032715, 34.27016735076904, 34.77919101715088, 34.03282165527344, 33.93387794494629, 34.13867950439453, 34.061551094055176, 34.367918968200684, 34.3400239944458, 34.33561325073242, 34.02411937713623, 33.98609161376953, 33.90789031982422, 34.284353256225586, 70.21749019622803, 34.11293029785156, 34.02304649353027, 34.03925895690918, 33.91623497009277, 34.17932987213135, 34.13248062133789, 34.042954444885254, 33.7604284286499, 34.06476974487305, 34.57188606262207, 34.11734104156494, 34.888505935668945, 34.0803861618042, 33.74588489532471, 70.06502151489258, 34.433603286743164, 34.16931629180908, 34.05308723449707, 34.149169921875, 34.009337425231934, 34.134864807128906, 34.59489345550537, 33.80286693572998, 34.278035163879395, 34.09290313720703, 33.7221622467041, 34.61587429046631, 34.06655788421631, 33.76352787017822, 70.08242607116699, 34.383416175842285, 33.94949436187744, 33.80119800567627, 34.340500831604004, 33.89132022857666, 34.06190872192383, 34.001946449279785, 34.114837646484375, 34.067392349243164, 34.04951095581055, 33.8287353515625, 34.44933891296387, 34.10780429840088, 34.04593467712402, 70.24800777435303, 34.12485122680664, 34.14011001586914, 33.80167484283447, 33.959031105041504, 34.001946449279785, 34.192562103271484, 34.018754959106445, 34.171462059020996, 34.107089042663574, 33.92302989959717, 33.91671180725098, 34.1564416885376, 34.253597259521484, 33.838510513305664, 69.96440887451172, 34.0343713760376, 33.61165523529053, 34.381866455078125, 34.11054611206055, 33.65159034729004, 34.00862216949463, 34.065842628479004, 33.96153450012207, 34.28387641906738, 34.15381908416748, 34.07108783721924, 34.00731086730957, 33.98621082305908, 34.17098522186279, 70.62411308288574, 34.456491470336914, 33.878326416015625, 34.18600559234619, 34.1411828994751, 34.13355350494385, 34.03604030609131, 34.14559364318848, 33.92624855041504, 34.26706790924072, 33.87093544006348, 34.37447547912598, 34.143924713134766, 34.639835357666016, 34.13224220275879, 70.22583484649658, 34.17062759399414, 33.57839584350586, 33.94436836242676, 34.22975540161133, 33.8129997253418, 34.111976623535156, 34.174561500549316, 33.85269641876221, 33.85615348815918, 34.15942192077637, 33.666253089904785, 34.32333469390869, 33.96022319793701, 33.82539749145508, 70.20831108093262, 34.52408313751221, 34.2402458190918, 34.17158126831055, 34.746408462524414, 34.01219844818115, 34.29770469665527, 34.09779071807861, 34.014225006103516, 34.08992290496826, 34.23869609832764, 33.907175064086914, 34.27255153656006, 34.09624099731445, 33.96642208099365, 70.11926174163818, 33.98466110229492, 34.16943550109863, 33.96153450012207, 33.96928310394287, 33.91373157501221, 33.92636775970459, 34.099698066711426, 34.095168113708496, 35.044312477111816, 34.0801477432251, 34.05499458312988, 34.10148620605469, 34.662723541259766, 33.887624740600586, 70.32597064971924, 33.98287296295166, 34.360289573669434, 34.154295921325684, 34.211158752441406, 33.79487991333008, 34.01768207550049, 33.926963806152344, 33.74660015106201, 34.21461582183838, 34.28494930267334, 34.095048904418945, 33.98144245147705, 34.15071964263916, 34.026145935058594, 70.01650333404541, 34.27386283874512, 33.69283676147461, 34.05642509460449, 34.03615951538086, 34.10196304321289, 34.05416011810303, 33.76615047454834, 34.11459922790527, 34.37817096710205, 34.00552272796631, 34.166932106018066, 34.11662578582764, 34.18076038360596, 33.92899036407471, 69.87297534942627, 34.06703472137451, 33.922672271728516, 33.90800952911377, 33.61797332763672, 34.139156341552734, 34.19649600982666, 34.116506576538086, 34.22141075134277, 34.18397903442383, 34.32786464691162, 33.6453914642334, 34.11257266998291, 34.53183174133301, 34.046053886413574, 69.77832317352295, 34.130096435546875, 33.96880626678467, 33.94627571105957, 34.58905220031738, 34.22892093658447, 34.10971164703369, 33.84196758270264, 33.80429744720459, 34.19506549835205, 34.13534164428711, 34.26015377044678, 34.532785415649414, 34.28637981414795, 33.90622138977051, 70.1524019241333, 34.00695323944092, 34.13116931915283, 33.78486633300781, 33.88679027557373, 33.87761116027832, 34.3320369720459, 34.32643413543701, 34.308791160583496, 34.06083583831787, 34.38282012939453, 33.87010097503662, 34.70206260681152, 34.55400466918945, 33.7296724319458, 70.20604610443115, 34.40248966217041, 33.89108180999756, 33.97488594055176, 34.19756889343262, 34.032225608825684, 34.15048122406006, 34.10053253173828, 34.09457206726074, 34.30831432342529, 34.26539897918701, 34.267544746398926, 34.20984745025635, 34.01041030883789, 33.69426727294922, 70.15669345855713, 33.79201889038086, 34.155845642089844, 33.90777111053467, 34.25455093383789, 33.95342826843262, 34.21223163604736, 33.974647521972656, 33.64574909210205, 33.86688232421875, 34.02209281921387, 34.014225006103516, 34.15381908416748, 33.99229049682617, 34.091949462890625, 69.87607479095459, 34.36386585235596, 33.99467468261719, 33.960938453674316, 34.46841239929199, 34.03139114379883, 34.041404724121094, 34.421682357788086, 34.26682949066162, 33.83052349090576, 34.4083309173584, 34.20305252075195, 33.99229049682617, 33.978819847106934, 33.614277839660645, 70.304274559021, 34.32726860046387, 34.21330451965332, 34.009456634521484, 34.032344818115234, 34.12652015686035, 33.8597297668457, 34.14261341094971, 33.975958824157715, 34.14463996887207, 34.299373626708984, 33.84387493133545, 34.08074378967285, 33.91838073730469, 34.12210941314697, 70.46961784362793, 33.88500213623047, 33.776044845581055, 33.92386436462402, 34.74283218383789, 33.6989164352417, 34.00290012359619, 34.120917320251465, 33.99765491485596, 34.41035747528076, 33.937931060791016, 33.78880023956299, 34.2479944229126, 34.081459045410156, 34.21139717102051, 70.32549381256104, 34.34097766876221, 34.21056270599365, 34.20901298522949, 33.823251724243164, 34.081101417541504, 34.15524959564209, 34.04653072357178, 34.16585922241211, 34.0113639831543, 34.072279930114746, 33.75256061553955, 34.78407859802246, 33.875346183776855, 33.97870063781738, 69.9613094329834, 34.60514545440674, 33.64896774291992, 34.09016132354736, 33.72037410736084, 34.16609764099121, 34.151315689086914, 34.15870666503906, 34.668922424316406, 34.235358238220215, 34.279584884643555, 33.89573097229004, 34.155845642089844, 33.792972564697266, 33.89561176300049, 69.87333297729492, 33.98430347442627, 34.15322303771973, 33.92744064331055, 34.18576717376709, 34.082651138305664],
  "Depth": 22.5,
  "Expectation Value": -10.814453125,
  "Optimal Expectation Value": -12.381489753723145,
  "Optimizer durations [ms]": [82.68, 81.02, 81.526, 80.965, 80.359, 80.93, 81.389, 80.785, 81.62, 82.478, 81.408, 156.442, 81.113, 80.59, 80.91, 80.538, 80.595, 80.938, 80.546, 80.378, 81.284, 82.193, 80.621, 81.093, 80.687, 82.176, 152.797, 81.482, 81.322, 80.359, 80.18, 80.537, 82.132, 81.136, 81.355, 82.885, 81.295, 81.43, 81.262, 81.691, 80.888, 152.927, 81.483, 81.215, 81.646, 80.968, 80.968, 81.447, 80.657, 81.298, 80.982, 81.225, 80.876, 81.416, 80.479, 81.485, 153.459, 81.088, 80.347, 81.04, 80.388, 81.01, 80.655, 81.36, 80.677, 81.341, 81.359, 81.517, 82.228, 81.481, 81.31, 154.23, 81.488, 80.625, 80.821, 81.232, 81.083, 81.777, 80.728, 81.6, 81.35, 81.762, 81.361, 81.996, 81.442, 81.274, 153.662, 81.711, 80.689, 81.026, 83.144, 80.774, 80.478, 80.784, 81.085, 81.304, 81.654, 81.418, 81.316, 81.698, 80.732, 152.812, 82.832, 81.157, 81.287, 81.145, 81.727, 80.721, 81.789, 80.673, 81.3, 80.573, 81.268, 80.835, 81.264, 81.333, 153.457, 81.312, 80.523, 81.823, 81.493, 81.129, 80.506, 81.39, 79.866, 80.83, 81.89, 80.734, 81.024, 80.293, 81.462, 152.819, 81.171, 80.942, 80.422, 81.337, 80.003, 81.574, 81.917, 81.205, 81.577, 81.368, 81.678, 81.385, 80.615, 80.962, 153.286, 81.888, 82.016, 81.593, 81.421, 80.692, 82.783, 80.922, 81.401, 83.059, 84.821, 84.024, 83.722, 83.518, 82.679, 154.001, 82.38, 80.815, 82.367, 81.652, 82.202, 84.014, 83.134, 82.873, 82.611, 81.377, 82.031, 82.492, 84.797, 83.168, 158.083, 84.355, 82.141, 80.925, 81.52, 80.982, 80.671, 81.255, 81.672, 81.837, 81.032, 82.098, 82.03, 81.655, 81.248, 153.331, 82.011, 81.661, 81.05, 80.899, 81.163, 81.258, 81.372, 80.944, 81.335, 81.094, 80.997, 81.658, 81.57, 80.795, 153.937, 81.983, 80.558, 81.02, 81.05, 80.372, 80.209, 81.412, 81.132, 81.066, 80.969, 81.226, 80.094, 80.649, 81.856, 152.89, 80.799, 80.815, 81.194, 81.571, 81.366, 81.649, 81.753, 80.678, 81.307, 81.927, 81.824, 81.291, 80.817, 81.059, 153.338, 81.161, 80.793, 80.967, 80.695, 80.735, 81.7, 80.803, 80.707, 80.928, 81.652, 81.313, 81.163, 80.803, 81.223, 152.453, 81.583, 80.307, 81.362, 81.419, 80.727, 81.083, 80.914, 80.62, 81.218, 82.247, 81.299, 80.838, 81.137, 81.12, 153.78, 81.854, 80.988, 82.263, 81.323, 81.229, 81.466, 80.941, 81.595, 80.674, 81.592, 81.103, 82.071, 81.155, 80.91, 153.16, 81.712, 80.673, 80.976, 81.178, 80.953, 80.922, 81.61, 80.989, 82.017, 81.178, 81.561, 84.104, 82.006, 81.017, 152.968, 81.603, 86.16, 96.38, 92.636, 91.744, 83.797, 86.167, 87.014, 82.977, 82.051, 82.027, 81.084, 80.724, 81.026, 155.832, 81.567, 80.705, 80.958, 80.983, 81.368, 80.762, 81.457, 80.073, 80.951, 80.617, 81.926, 80.546, 83.337, 81.304, 153.535, 82.051, 80.268, 80.632, 81.328, 81.403, 80.883, 80.479, 80.57, 82.121, 81.006, 81.147, 81.294, 80.95, 80.44, 153.495, 81.376, 80.605, 82.093, 81.077, 80.794, 81.621, 81.653, 80.603, 80.867, 81.614, 81.759, 81.227, 81.555, 80.927, 153.552, 81.452, 81.693, 80.776, 81.379, 80.791, 81.785, 81.483, 80.612, 80.822, 82.387, 80.941, 81.279, 81.035, 81.021, 153.081, 82.139, 81.81, 81.66, 80.55, 81.078, 81.193, 81.155, 80.866, 81.053, 81.522, 82.103, 81.748, 82.265, 81.225, 155.127, 81.98, 81.388, 81.263, 80.817, 80.469, 81.844, 81.278, 81.694, 80.809, 81.829, 81.697, 81.013, 80.443, 81.47, 152.955, 81.498, 80.619, 81.004, 81.746, 81.558, 81.19, 81.67, 80.813, 80.796, 80.734, 80.418, 80.433, 80.373, 80.935, 153.851, 81.506, 81.012, 81.385, 80.865, 80.406, 80.84, 81.046, 80.432, 81.373, 81.381, 81.415, 81.154, 82.854, 80.626, 153.898, 80.732, 80.72, 81.058, 80.969, 81.524, 80.815, 81.935, 80.882, 82.256, 81.074, 80.491, 80.951, 80.538, 81.498, 153.32, 80.849, 81.353, 80.773, 80.344, 81.324, 81.503, 81.681, 81.33, 81.147, 81.28, 81.243, 81.232, 80.822, 81.212, 152.694, 81.47, 80.274, 81.687, 81.115, 80.698, 81.1, 81.523, 81.112, 81.211, 81.16, 80.34, 81.024, 81.577, 81.053, 153.881, 80.599, 80.723, 82.019, 80.942, 80.324, 80.52, 81.05, 80.415, 81.235, 80.925, 80.736, 81.845, 81.783, 81.599, 155.429, 82.144, 80.425, 81.565, 81.493, 81.159, 81.238, 80.998, 81.034, 80.689, 81.386, 81.121, 82.943, 81.46, 80.968, 153.127, 81.526, 80.882, 81.302, 80.78, 82.65, 80.875, 81.448, 81.93, 81.567, 81.343, 81.483, 80.414, 80.554, 80.704, 153.137, 81.887, 81.659, 81.135, 81.231, 80.54, 80.935, 81.097, 81.596, 81.897, 81.408, 81.471, 81.36, 80.939, 84.845, 154.161, 81.355, 81.052, 81.21, 81.369, 81.198, 81.395, 81.927, 81.331, 81.659, 81.816, 81.318, 83.081, 84.201, 83.98, 157.238, 81.792, 81.969, 83.198, 84.446, 80.882, 82.615, 84.177, 84.087, 82.888, 85.202, 83.524, 85.534, 81.74, 81.216, 153.311, 81.243, 80.222, 80.629, 81.474, 81.021, 80.715, 81.266, 80.623, 81.814, 81.825, 80.726, 80.584, 81.463, 81.248, 153.159, 81.759, 81.422, 82.545, 81.055, 80.575, 81.171, 81.058, 81.618, 81.939, 82.026, 81.055, 80.871, 80.7, 81.475, 153.457, 81.278, 80.877, 81.004, 80.657, 81.408, 81.339, 80.828, 80.675, 81.169, 82.387, 81.186, 82.544, 80.929, 80.432, 153.324, 81.92, 81.222, 81.165, 81.348, 81.179, 81.106, 81.953, 80.352, 81.305, 81.047, 80.224, 82.028, 80.83, 80.277, 153.414, 81.981, 80.705, 80.48, 81.573, 80.921, 81.022, 80.864, 81.147, 80.803, 80.908, 80.551, 81.646, 81.244, 81.191, 153.431, 81.559, 81.135, 80.442, 80.75, 80.872, 81.269, 81.112, 82.195, 81.191, 80.745, 80.759, 81.187, 81.298, 80.636, 152.818, 80.985, 80.078, 81.574, 81.055, 80.236, 81.004, 81.196, 80.938, 81.383, 81.247, 81.163, 80.9, 80.841, 81.196, 154.17, 82.019, 80.61, 81.299, 81.083, 81.333, 81.188, 81.23, 80.523, 81.464, 80.758, 81.766, 81.229, 82.245, 81.309, 153.423, 81.45, 80.114, 80.971, 81.372, 80.653, 81.279, 81.245, 80.518, 80.725, 81.326, 80.204, 81.728, 80.84, 80.533, 153.243, 82.263, 81.283, 81.243, 82.346, 81.188, 81.529, 81.042, 80.879, 81.219, 81.443, 81.043, 81.363, 80.93, 80.542, 153.025, 81.277, 81.36, 80.794, 80.715, 80.854, 80.819, 81.264, 81.086, 82.972, 81.011, 81.033, 81.399, 82.171, 80.865, 153.891, 80.815, 81.756, 81.284, 81.209, 80.617, 81.081, 80.773, 80.276, 81.301, 81.325, 81.276, 80.868, 81.23, 81.133, 153.055, 81.562, 80.319, 80.934, 80.998, 80.97, 80.957, 80.392, 81.3, 81.751, 80.84, 81.423, 81.288, 81.286, 80.655, 152.747, 81.043, 80.857, 80.783, 80.364, 81.136, 81.417, 81.391, 82.208, 81.307, 81.566, 80.537, 81.072, 81.916, 81.048, 152.538, 81.448, 80.918, 80.944, 82.226, 81.647, 81.146, 80.487, 80.311, 81.354, 81.127, 81.6, 81.959, 81.507, 80.815, 153.244, 81.092, 81.204, 80.406, 80.657, 80.81, 81.711, 81.725, 81.745, 81.2, 81.679, 80.579, 82.351, 82.124, 80.448, 153.208, 81.964, 80.668, 80.885, 81.189, 81.072, 81.363, 81.01, 81.373, 81.913, 81.565, 81.533, 81.28, 80.949, 80.253, 153.114, 80.654, 81.354, 80.73, 81.421, 81.033, 81.308, 80.826, 80.34, 80.778, 80.777, 80.829, 81.183, 81.054, 81.013, 152.876, 81.734, 80.99, 80.943, 81.898, 80.971, 81.119, 81.757, 81.322, 80.659, 81.785, 81.358, 80.74, 80.701, 80.177, 153.688, 81.863, 81.417, 80.991, 80.945, 81.213, 80.696, 81.429, 80.933, 81.244, 81.425, 80.85, 81.194, 80.744, 81.116, 153.821, 80.787, 80.34, 81.278, 83.046, 80.335, 81.022, 81.138, 80.89, 81.598, 80.727, 80.666, 81.487, 81.113, 81.368, 154.035, 81.789, 81.215, 81.344, 80.567, 81.237, 81.162, 81.043, 81.25, 80.762, 81.108, 80.464, 82.545, 80.789, 80.845, 152.959, 82.209, 80.192, 81.151, 80.445, 81.163, 81.151, 81.14, 82.513, 81.433, 81.496, 80.614, 81.27, 80.664, 80.693, 152.709, 80.938, 81.191, 80.729, 81.126, 81.025],
  "Optimizer iterations": 917,
  "Optimizer params": [0.13556890795631038, 0.9727803617967083, 0.7720562947560773, 0.9723941488634049, 0.7659098293070694, 0.9878039896735078, 0.5837776203231446, 0.7018328835663004, 0.39593600365635456, 0.7303949181201863, 0.7788446210746899, 0.32989047715179215, 0.09018337960232803, 0.2943234771635123, 0.8028776595547078, 0.6291823129533944, 0.4376120886012496, 0.4808649797044005, 0.3170029139674245, 0.15285316367788895, 0.13898806213944953, 0.164685183796891, 0.17623966644762704, 0.1295512618667235, 0.11503353615501692, 0.8298210419787505, 0.9087257494244407, 0.6015263377947119, 0.6687360745656913, 0.9960288306936048, 0.9674989423742296, 0.4702835671742037, 0.4749868911660139, 0.5987174783234595, 0.34834638449885946, 0.12359682672126392, 0.3611983184678239, 0.9585153597687074, 0.7827995814325481, 0.7655229648952192],
  "P": 0,
  "Problem": "IC",
  "QJob durations [ms]": [34.61158275604248, 34.063100814819336, 34.12067890167236, 34.10530090332031, 33.80537033081055, 34.03806686401367, 34.29245948791504, 33.9808464050293, 34.45851802825928, 34.5768928527832, 34.278154373168945, 71.60770893096924, 33.93077850341797, 33.90693664550781, 34.04676914215088, 33.927202224731445, 33.88667106628418, 34.160733222961426, 33.93411636352539, 33.77640247344971, 34.09731388092041, 34.55853462219238, 33.91575813293457, 34.08622741699219, 33.99252891540527, 34.741878509521484, 69.9397325515747, 34.329891204833984, 34.23869609832764, 33.770084381103516, 33.74207019805908, 33.84959697723389, 34.560441970825195, 34.179091453552246, 34.079909324645996, 34.967660903930664, 34.209370613098145, 34.285664558410645, 34.16764736175537, 34.5306396484375, 34.108757972717285, 70.04880905151367, 34.29543972015381, 34.12210941314697, 34.215569496154785, 34.00564193725586, 33.99217128753662, 34.15846824645996, 33.966898918151855, 34.24358367919922, 34.00444984436035, 34.17623043060303, 34.00278091430664, 34.25109386444092, 33.77878665924072, 34.20102596282959, 70.0298547744751, 34.050822257995605, 33.70404243469238, 33.959031105041504, 33.73551368713379, 34.05570983886719, 33.84816646575928, 34.18231010437012, 33.8747501373291, 34.16311740875244, 34.22558307647705, 34.10947322845459, 34.59656238555908, 34.33489799499512, 34.056663513183594, 70.47927379608154, 34.29079055786133, 33.84387493133545, 33.9970588684082, 34.13057327270508, 34.10983085632324, 34.30795669555664, 33.91408920288086, 33.945679664611816, 34.16550159454346, 34.413814544677734, 34.1792106628418, 34.42561626434326, 34.33668613433838, 34.1418981552124, 70.32430171966553, 34.36136245727539, 33.896684646606445, 34.04581546783447, 34.789323806762695, 33.881187438964844, 33.753395080566406, 33.97035598754883, 34.16180610656738, 34.206509590148926, 34.30914878845215, 34.221649169921875, 34.21139717102051, 34.40976142883301, 33.85353088378906, 69.90170478820801, 34.73925590515137, 34.08396244049072, 34.10613536834717, 34.093379974365234, 34.29126739501953, 33.90240669250488, 34.366726875305176, 33.843398094177246, 34.13283824920654, 33.815622329711914, 34.13951396942139, 33.98787975311279, 34.150004386901855, 34.23655033111572, 70.13630867004395, 34.032344818115234, 33.737778663635254, 34.41894054412842, 34.299254417419434, 34.096598625183105, 33.79988670349121, 34.26384925842285, 33.551812171936035, 33.95545482635498, 34.430503845214844, 33.867597579956055, 33.978819847106934, 33.75422954559326, 34.23440456390381, 69.95069980621338, 34.07716751098633, 33.976078033447266, 33.806443214416504, 34.24370288848877, 33.548593521118164, 34.09683704376221, 34.55770015716553, 34.19959545135498, 34.249186515808105, 34.2259407043457, 34.23178195953369, 34.21497344970703, 33.86390209197998, 33.969998359680176, 70.1819658279419, 34.589171409606934, 34.5921516418457, 34.04510021209717, 34.20901298522949, 33.81156921386719, 34.07871723175049, 33.97345542907715, 34.18242931365967, 34.7599983215332, 35.15326976776123, 34.7750186920166, 34.82186794281006, 34.71553325653076, 34.45160388946533, 70.20413875579834, 34.57355499267578, 34.002065658569336, 34.76572036743164, 34.325361251831055, 34.36136245727539, 34.90328788757324, 34.56223011016846, 34.15679931640625, 34.30509567260742, 33.89739990234375, 34.5531702041626, 34.52622890472412, 35.20047664642334, 34.77835655212402, 72.13211059570313, 35.13920307159424, 34.44027900695801, 33.9970588684082, 34.31546688079834, 34.066081047058105, 33.91122817993164, 34.197211265563965, 34.19232368469238, 34.25335884094238, 34.18433666229248, 34.39140319824219, 34.54267978668213, 34.40570831298828, 34.17801856994629, 70.1141357421875, 34.45708751678467, 34.203410148620605, 34.05892848968506, 33.951401710510254, 34.02101993560791, 34.08479690551758, 34.246206283569336, 33.988356590270996, 34.23440456390381, 34.12449359893799, 34.108519554138184, 34.41417217254639, 34.36470031738281, 34.00266170501709, 70.56903839111328, 34.44409370422363, 33.85722637176514, 34.04664993286133, 34.038662910461426, 33.649444580078125, 33.68532657623291, 34.186601638793945, 34.06250476837158, 34.03949737548828, 34.04593467712402, 34.12127494812012, 33.59782695770264, 33.77890586853027, 34.34324264526367, 69.88906860351563, 33.74636173248291, 33.88798236846924, 34.07442569732666, 34.258365631103516, 34.24942493438721, 34.39760208129883, 34.43348407745361, 33.83827209472656, 34.15572643280029, 34.38830375671387, 34.38997268676758, 34.043073654174805, 33.873915672302246, 34.15226936340332, 70.21355628967285, 34.00719165802002, 33.91718864440918, 33.930182456970215, 33.88690948486328, 33.91122817993164, 34.331679344177246, 33.92481803894043, 33.90014171600342, 34.001827239990234, 34.22200679779053, 34.22582149505615, 34.063100814819336, 33.89573097229004, 34.180402755737305, 69.7944164276123, 34.274935722351074, 33.72073173522949, 34.13558006286621, 34.24429893493652, 33.89894962310791, 33.881187438964844, 34.0195894241333, 33.85043144226074, 34.192562103271484, 34.60431098937988, 34.166693687438965, 33.972859382629395, 34.11233425140381, 34.03973579406738, 70.20795345306396, 34.3092679977417, 34.03449058532715, 34.62016582489014, 34.24239158630371, 34.10184383392334, 34.2559814453125, 34.09302234649658, 34.3245267868042, 33.86104106903076, 34.322500228881836, 34.027814865112305, 34.35969352722168, 34.131407737731934, 33.99789333343506, 70.08635997772217, 34.3548059463501, 33.90192985534668, 34.12508964538574, 34.149765968322754, 33.93197059631348, 34.0275764465332, 34.37352180480957, 33.83529186248779, 34.38878059387207, 34.05404090881348, 34.14559364318848, 35.20643711090088, 34.36851501464844, 34.10148620605469, 69.9855089187622, 34.39748287200928, 36.33320331573486, 40.81010818481445, 38.308024406433105, 38.49077224731445, 34.91520881652832, 35.794734954833984, 36.21220588684082, 34.55495834350586, 34.253716468811035, 34.20543670654297, 34.00552272796631, 33.892273902893066, 33.97393226623535, 71.34830951690674, 34.038424491882324, 33.83493423461914, 34.01792049407959, 33.94043445587158, 34.189820289611816, 33.9665412902832, 34.28387641906738, 33.615827560424805, 33.983469009399414, 33.86688232421875, 34.284353256225586, 33.739566802978516, 34.771084785461426, 34.173011779785156, 70.26469707489014, 34.2864990234375, 33.69426727294922, 33.877015113830566, 34.220099449157715, 34.22856330871582, 34.01303291320801, 33.78129005432129, 33.806443214416504, 34.28518772125244, 34.02984142303467, 34.1721773147583, 34.13033485412598, 34.031033515930176, 33.69545936584473, 70.26159763336182, 34.20460224151611, 33.870577812194824, 34.18326377868652, 34.07752513885498, 34.026145935058594, 33.92636775970459, 34.42060947418213, 33.85162353515625, 34.011244773864746, 34.378767013549805, 34.31057929992676, 34.029603004455566, 34.36076641082764, 34.06381607055664, 70.27852535247803, 34.21986103057861, 34.06679630279541, 33.812522888183594, 34.23047065734863, 33.85961055755615, 34.37840938568115, 34.11245346069336, 33.96177291870117, 33.98168087005615, 34.757137298583984, 34.06989574432373, 34.2259407043457, 34.00528430938721, 34.02054309844971, 69.88823413848877, 34.51740741729736, 34.477829933166504, 34.34872627258301, 33.959388732910156, 34.1031551361084, 34.150004386901855, 34.16752815246582, 33.982157707214355, 34.0116024017334, 34.15489196777344, 34.50727462768555, 34.48331356048584, 34.705281257629395, 34.19852256774902, 70.6782341003418, 34.395575523376465, 34.17694568634033, 34.1947078704834, 33.9123010635376, 33.85484218597412, 34.24787521362305, 34.104347229003906, 34.12032127380371, 33.983707427978516, 34.29245948791504, 34.31892395019531, 34.13224220275879, 33.81466865539551, 34.36481952667236, 69.92864608764648, 34.3012809753418, 33.86211395263672, 34.01613235473633, 34.316420555114746, 34.18886661529541, 34.12508964538574, 34.40594673156738, 33.922433853149414, 33.94746780395508, 33.96177291870117, 33.80131721496582, 33.79356861114502, 33.75577926635742, 33.99205207824707, 70.41645050048828, 33.98537635803223, 34.027934074401855, 34.272074699401855, 33.98787975311279, 33.67424011230469, 33.957719802856445, 34.015774726867676, 33.72514247894287, 34.34038162231445, 34.26158428192139, 34.224867820739746, 34.226179122924805, 34.77442264556885, 33.856868743896484, 70.33538818359375, 33.78260135650635, 33.95676612854004, 34.08968448638916, 33.99229049682617, 34.331560134887695, 34.02435779571533, 34.39056873321533, 34.0503454208374, 34.59131717681885, 34.026145935058594, 33.86080265045166, 34.027695655822754, 33.73396396636963, 34.31844711303711, 70.1744556427002, 33.858656883239746, 34.19780731201172, 33.88690948486328, 33.812642097473145, 34.21366214752197, 34.21223163604736, 34.35790538787842, 34.300804138183594, 34.16109085083008, 34.104228019714355, 34.15060043334961, 34.13951396942139, 33.96415710449219, 34.232258796691895, 69.96524333953857, 34.22677516937256, 33.57422351837158, 34.1796875, 34.09111499786377, 33.8214635848999, 34.08181667327881, 34.267306327819824, 34.19625759124756, 34.180402755737305, 34.20984745025635, 33.76054763793945, 34.11233425140381, 34.35862064361572, 33.97774696350098, 70.44100761413574, 33.7367057800293, 33.89561176300049, 34.523725509643555, 34.02996063232422, 33.69176387786865, 33.817410469055176, 34.14642810821533, 33.66410732269287, 34.23953056335449, 34.085869789123535, 33.86521339416504, 34.400343894958496, 34.32106971740723, 34.34550762176514, 71.25520706176758, 34.47151184082031, 33.704400062561035, 34.2869758605957, 34.29746627807617, 34.13653373718262, 34.035563468933105, 34.03604030609131, 33.959031105041504, 33.92207622528076, 34.22725200653076, 34.02149677276611, 34.99627113342285, 34.14928913116455, 34.128665924072266, 70.04332542419434, 34.34288501739502, 33.95116329193115, 34.1947078704834, 33.90932083129883, 34.65080261230469, 33.965229988098145, 34.349918365478516, 34.264564514160156, 34.05475616455078, 34.19137001037598, 34.3092679977417, 33.696651458740234, 33.817172050476074, 33.93542766571045, 70.02568244934082, 34.29436683654785, 34.281134605407715, 34.050822257995605, 34.200310707092285, 33.738017082214355, 34.00897979736328, 34.157633781433105, 34.279704093933105, 34.47282314300537, 34.32309627532959, 34.23905372619629, 34.09457206726074, 34.063100814819336, 34.83140468597412, 70.50788402557373, 34.064531326293945, 34.05201435089111, 34.11698341369629, 34.25276279449463, 34.17623043060303, 34.188270568847656, 34.35194492340088, 34.203410148620605, 34.30330753326416, 34.21449661254883, 34.15238857269287, 34.68799591064453, 35.07959842681885, 35.00032424926758, 71.63059711456299, 34.203171730041504, 34.40868854522705, 34.60502624511719, 35.31801700592041, 33.91599655151367, 34.64221954345703, 34.88278388977051, 35.018324851989746, 34.54160690307617, 35.691261291503906, 34.79647636413574, 34.71732139587402, 34.18111801147461, 34.14022922515869, 70.16074657440186, 34.02376174926758, 33.74588489532471, 33.771395683288574, 34.29830074310303, 33.997416496276855, 33.760905265808105, 34.258484840393066, 33.83922576904297, 34.391164779663086, 34.5151424407959, 33.87093544006348, 33.86855125427246, 34.246087074279785, 34.13259983062744, 70.02663612365723, 34.27863121032715, 34.27016735076904, 34.77919101715088, 34.03282165527344, 33.93387794494629, 34.13867950439453, 34.061551094055176, 34.367918968200684, 34.3400239944458, 34.33561325073242, 34.02411937713623, 33.98609161376953, 33.90789031982422, 34.284353256225586, 70.21749019622803, 34.11293029785156, 34.02304649353027, 34.03925895690918, 33.91623497009277, 34.17932987213135, 34.13248062133789, 34.042954444885254, 33.7604284286499, 34.06476974487305, 34.57188606262207, 34.11734104156494, 34.888505935668945, 34.0803861618042, 33.74588489532471, 70.06502151489258, 34.433603286743164, 34.16931629180908, 34.05308723449707, 34.149169921875, 34.009337425231934, 34.134864807128906, 34.59489345550537, 33.80286693572998, 34.278035163879395, 34.09290313720703, 33.7221622467041, 34.61587429046631, 34.06655788421631, 33.76352787017822, 70.08242607116699, 34.383416175842285, 33.94949436187744, 33.80119800567627, 34.340500831604004, 33.89132022857666, 34.06190872192383, 34.001946449279785, 34.114837646484375, 34.067392349243164, 34.04951095581055, 33.8287353515625, 34.44933891296387, 34.10780429840088, 34.04593467712402, 70.24800777435303, 34.12485122680664, 34.14011001586914, 33.80167484283447, 33.959031105041504, 34.001946449279785, 34.192562103271484, 34.018754959106445, 34.171462059020996, 34.107089042663574, 33.92302989959717, 33.91671180725098, 34.1564416885376, 34.253597259521484, 33.838510513305664, 69.96440887451172, 34.0343713760376, 33.61165523529053, 34.381866455078125, 34.11054611206055, 33.65159034729004, 34.00862216949463, 34.065842628479004, 33.96153450012207, 34.28387641906738, 34.15381908416748, 34.07108783721924, 34.00731086730957, 33.98621082305908, 34.17098522186279, 70.62411308288574, 34.456491470336914, 33.878326416015625, 34.18600559234619, 34.1411828994751, 34.13355350494385, 34.03604030609131, 34.14559364318848, 33.92624855041504, 34.26706790924072, 33.87093544006348, 34.37447547912598, 34.143924713134766, 34.639835357666016, 34.13224220275879, 70.22583484649658, 34.17062759399414, 33.57839584350586, 33.94436836242676, 34.22975540161133, 33.8129997253418, 34.111976623535156, 34.174561500549316, 33.85269641876221, 33.85615348815918, 34.15942192077637, 33.666253089904785, 34.32333469390869, 33.96022319793701, 33.82539749145508, 70.20831108093262, 34.52408313751221, 34.2402458190918, 34.17158126831055, 34.746408462524414, 34.01219844818115, 34.29770469665527, 34.09779071807861, 34.014225006103516, 34.08992290496826, 34.23869609832764, 33.907175064086914, 34.27255153656006, 34.09624099731445, 33.96642208099365, 70.11926174163818, 33.98466110229492, 34.16943550109863, 33.96153450012207, 33.96928310394287, 33.91373157501221, 33.92636775970459, 34.099698066711426, 34.095168113708496, 35.044312477111816, 34.0801477432251, 34.05499458312988, 34.10148620605469, 34.662723541259766, 33.887624740600586, 70.32597064971924, 33.98287296295166, 34.360289573669434, 34.154295921325684, 34.211158752441406, 33.79487991333008, 34.01768207550049, 33.926963806152344, 33.74660015106201, 34.21461582183838, 34.28494930267334, 34.095048904418945, 33.98144245147705, 34.15071964263916, 34.026145935058594, 70.01650333404541, 34.27386283874512, 33.69283676147461, 34.05642509460449, 34.03615951538086, 34.10196304321289, 34.05416011810303, 33.76615047454834, 34.11459922790527, 34.37817096710205, 34.00552272796631, 34.166932106018066, 34.11662578582764, 34.18076038360596, 33.92899036407471, 69.87297534942627, 34.06703472137451, 33.922672271728516, 33.90800952911377, 33.61797332763672, 34.139156341552734, 34.19649600982666, 34.116506576538086, 34.22141075134277, 34.18397903442383, 34.32786464691162, 33.6453914642334, 34.11257266998291, 34.53183174133301, 34.046053886413574, 69.77832317352295, 34.130096435546875, 33.96880626678467, 33.94627571105957, 34.58905220031738, 34.22892093658447, 34.10971164703369, 33.84196758270264, 33.80429744720459, 34.19506549835205, 34.13534164428711, 34.26015377044678, 34.532785415649414, 34.28637981414795, 33.90622138977051, 70.1524019241333, 34.00695323944092, 34.13116931915283, 33.78486633300781, 33.88679027557373, 33.87761116027832, 34.3320369720459, 34.32643413543701, 34.308791160583496, 34.06083583831787, 34.38282012939453, 33.87010097503662, 34.70206260681152, 34.55400466918945, 33.7296724319458, 70.20604610443115, 34.40248966217041, 33.89108180999756, 33.97488594055176, 34.19756889343262, 34.032225608825684, 34.15048122406006, 34.10053253173828, 34.09457206726074, 34.30831432342529, 34.26539897918701, 34.267544746398926, 34.20984745025635, 34.01041030883789, 33.69426727294922, 70.15669345855713, 33.79201889038086, 34.155845642089844, 33.90777111053467, 34.25455093383789, 33.95342826843262, 34.21223163604736, 33.974647521972656, 33.64574909210205, 33.86688232421875, 34.02209281921387, 34.014225006103516, 34.15381908416748, 33.99229049682617, 34.091949462890625, 69.87607479095459, 34.36386585235596, 33.99467468261719, 33.960938453674316, 34.46841239929199, 34.03139114379883, 34.041404724121094, 34.421682357788086, 34.26682949066162, 33.83052349090576, 34.4083309173584, 34.20305252075195, 33.99229049682617, 33.978819847106934, 33.614277839660645, 70.304274559021, 34.32726860046387, 34.21330451965332, 34.009456634521484, 34.032344818115234, 34.12652015686035, 33.8597297668457, 34.14261341094971, 33.975958824157715, 34.14463996887207, 34.299373626708984, 33.84387493133545, 34.08074378967285, 33.91838073730469, 34.12210941314697, 70.46961784362793, 33.88500213623047, 33.776044845581055, 33.92386436462402, 34.74283218383789, 33.6989164352417, 34.00290012359619, 34.120917320251465, 33.99765491485596, 34.41035747528076, 33.937931060791016, 33.78880023956299, 34.2479944229126, 34.081459045410156, 34.21139717102051, 70.32549381256104, 34.34097766876221, 34.21056270599365, 34.20901298522949, 33.823251724243164, 34.081101417541504, 34.15524959564209, 34.04653072357178, 34.16585922241211, 34.0113639831543, 34.072279930114746, 33.75256061553955, 34.78407859802246, 33.875346183776855, 33.97870063781738, 69.9613094329834, 34.60514545440674, 33.64896774291992, 34.09016132354736, 33.72037410736084, 34.16609764099121, 34.151315689086914, 34.15870666503906, 34.668922424316406, 34.235358238220215, 34.279584884643555, 33.89573097229004, 34.155845642089844, 33.792972564697266, 33.89561176300049, 69.87333297729492, 33.98430347442627, 34.15322303771973, 33.92744064331055, 34.18576717376709, 34.082651138305664],
  "QPU": "9000001",
  "Qubits": 10,
  "Queue durations [ms]": [0.0, 0.0, 0.0, 0.0, 0.0, 0.0, 0.0, 0.0, 0.0, 0.0, 0.0, 0.0, 0.0, 0.0, 0.0, 0.0, 0.0, 0.0, 0.0, 0.0, 0.0, 0.0, 0.0, 0.0, 0.0, 0.0, 0.0, 0.0, 0.0, 0.0, 0.0, 0.0, 0.0, 0.0, 0.0, 0.0, 0.0, 0.0, 0.0, 0.0, 0.0, 0.0, 0.0, 0.0, 0.0, 0.0, 0.0, 0.0, 0.0, 0.0, 0.0, 0.0, 0.0, 0.0, 0.0, 0.0, 0.0, 0.0, 0.0, 0.0, 0.0, 0.0, 0.0, 0.0, 0.0, 0.0, 0.0, 0.0, 0.0, 0.0, 0.0, 0.0, 0.0, 0.0, 0.0, 0.0, 0.0, 0.0, 0.0, 0.0, 0.0, 0.0, 0.0, 0.0, 0.0, 0.0, 0.0, 0.0, 0.0, 0.0, 0.0, 0.0, 0.0, 0.0, 0.0, 0.0, 0.0, 0.0, 0.0, 0.0, 0.0, 0.0, 0.0, 0.0, 0.0, 0.0, 0.0, 0.0, 0.0, 0.0, 0.0, 0.0, 0.0, 0.0, 0.0, 0.0, 0.0, 0.0, 0.0, 0.0, 0.0, 0.0, 0.0, 0.0, 0.0, 0.0, 0.0, 0.0, 0.0, 0.0, 0.0, 0.0, 0.0, 0.0, 0.0, 0.0, 0.0, 0.0, 0.0, 0.0, 0.0, 0.0, 0.0, 0.0, 0.0, 0.0, 0.0, 0.0, 0.0, 0.0, 0.0, 0.0, 0.0, 0.0, 0.0, 0.0, 0.0, 0.0, 0.0, 0.0, 0.0, 0.0, 0.0, 0.0, 0.0, 0.0, 0.0, 0.0, 0.0, 0.0, 0.0, 0.0, 0.0, 0.0, 0.0, 0.0, 0.0, 0.0, 0.0, 0.0, 0.0, 0.0, 0.0, 0.0, 0.0, 0.0, 0.0, 0.0, 0.0, 0.0, 0.0, 0.0, 0.0, 0.0, 0.0, 0.0, 0.0, 0.0, 0.0, 0.0, 0.0, 0.0, 0.0, 0.0, 0.0, 0.0, 0.0, 0.0, 0.0, 0.0, 0.0, 0.0, 0.0, 0.0, 0.0, 0.0, 0.0, 0.0, 0.0, 0.0, 0.0, 0.0, 0.0, 0.0, 0.0, 0.0, 0.0, 0.0, 0.0, 0.0, 0.0, 0.0, 0.0, 0.0, 0.0, 0.0, 0.0, 0.0, 0.0, 0.0, 0.0, 0.0, 0.0, 0.0, 0.0, 0.0, 0.0, 0.0, 0.0, 0.0, 0.0, 0.0, 0.0, 0.0, 0.0, 0.0, 0.0, 0.0, 0.0, 0.0, 0.0, 0.0, 0.0, 0.0, 0.0, 0.0, 0.0, 0.0, 0.0, 0.0, 0.0, 0.0, 0.0, 0.0, 0.0, 0.0, 0.0, 0.0, 0.0, 0.0, 0.0, 0.0, 0.0, 0.0, 0.0, 0.0, 0.0, 0.0, 0.0, 0.0, 0.0, 0.0, 0.0, 0.0, 0.0, 0.0, 0.0, 0.0, 0.0, 0.0, 0.0, 0.0, 0.0, 0.0, 0.0, 0.0, 0.0, 0.0, 0.0, 0.0, 0.0, 0.0, 0.0, 0.0, 0.0, 0.0, 0.0, 0.0, 0.0, 0.0, 0.0, 0.0, 0.0, 0.0, 0.0, 0.0, 0.0, 0.0, 0.0, 0.0, 0.0, 0.0, 0.0, 0.0, 0.0, 0.0, 0.0, 0.0, 0.0, 0.0, 0.0, 0.0, 0.0, 0.0, 0.0, 0.0, 0.0, 0.0, 0.0, 0.0, 0.0, 0.0, 0.0, 0.0, 0.0, 0.0, 0.0, 0.0, 0.0, 0.0, 0.0, 0.0, 0.0, 0.0, 0.0, 0.0, 0.0, 0.0, 0.0, 0.0, 0.0, 0.0, 0.0, 0.0, 0.0, 0.0, 0.0, 0.0, 0.0, 0.0, 0.0, 0.0, 0.0, 0.0, 0.0, 0.0, 0.0, 0.0, 0.0, 0.0, 0.0, 0.0, 0.0, 0.0, 0.0, 0.0, 0.0, 0.0, 0.0, 0.0, 0.0, 0.0, 0.0, 0.0, 0.0, 0.0, 0.0, 0.0, 0.0, 0.0, 0.0, 0.0, 0.0, 0.0, 0.0, 0.0, 0.0, 0.0, 0.0, 0.0, 0.0, 0.0, 0.0, 0.0, 0.0, 0.0, 0.0, 0.0, 0.0, 0.0, 0.0, 0.0, 0.0, 0.0, 0.0, 0.0, 0.0, 0.0, 0.0, 0.0, 0.0, 0.0, 0.0, 0.0, 0.0, 0.0, 0.0, 0.0, 0.0, 0.0, 0.0, 0.0, 0.0, 0.0, 0.0, 0.0, 0.0, 0.0, 0.0, 0.0, 0.0, 0.0, 0.0, 0.0, 0.0, 0.0, 0.0, 0.0, 0.0, 0.0, 0.0, 0.0, 0.0, 0.0, 0.0, 0.0, 0.0, 0.0, 0.0, 0.0, 0.0, 0.0, 0.0, 0.0, 0.0, 0.0, 0.0, 0.0, 0.0, 0.0, 0.0, 0.0, 0.0, 0.0, 0.0, 0.0, 0.0, 0.0, 0.0, 0.0, 0.0, 0.0, 0.0, 0.0, 0.0, 0.0, 0.0, 0.0, 0.0, 0.0, 0.0, 0.0, 0.0, 0.0, 0.0, 0.0, 0.0, 0.0, 0.0, 0.0, 0.0, 0.0, 0.0, 0.0, 0.0, 0.0, 0.0, 0.0, 0.0, 0.0, 0.0, 0.0, 0.0, 0.0, 0.0, 0.0, 0.0, 0.0, 0.0, 0.0, 0.0, 0.0, 0.0, 0.0, 0.0, 0.0, 0.0, 0.0, 0.0, 0.0, 0.0, 0.0, 0.0, 0.0, 0.0, 0.0, 0.0, 0.0, 0.0, 0.0, 0.0, 0.0, 0.0, 0.0, 0.0, 0.0, 0.0, 0.0, 0.0, 0.0, 0.0, 0.0, 0.0, 0.0, 0.0, 0.0, 0.0, 0.0, 0.0, 0.0, 0.0, 0.0, 0.0, 0.0, 0.0, 0.0, 0.0, 0.0, 0.0, 0.0, 0.0, 0.0, 0.0, 0.0, 0.0, 0.0, 0.0, 0.0, 0.0, 0.0, 0.0, 0.0, 0.0, 0.0, 0.0, 0.0, 0.0, 0.0, 0.0, 0.0, 0.0, 0.0, 0.0, 0.0, 0.0, 0.0, 0.0, 0.0, 0.0, 0.0, 0.0, 0.0, 0.0, 0.0, 0.0, 0.0, 0.0, 0.0, 0.0, 0.0, 0.0, 0.0, 0.0, 0.0, 0.0, 0.0, 0.0, 0.0, 0.0, 0.0, 0.0, 0.0, 0.0, 0.0, 0.0, 0.0, 0.0, 0.0, 0.0, 0.0, 0.0, 0.0, 0.0, 0.0, 0.0, 0.0, 0.0, 0.0, 0.0, 0.0, 0.0, 0.0, 0.0, 0.0, 0.0, 0.0, 0.0, 0.0, 0.0, 0.0, 0.0, 0.0, 0.0, 0.0, 0.0, 0.0, 0.0, 0.0, 0.0, 0.0, 0.0, 0.0, 0.0, 0.0, 0.0, 0.0, 0.0, 0.0, 0.0, 0.0, 0.0, 0.0, 0.0, 0.0, 0.0, 0.0, 0.0, 0.0, 0.0, 0.0, 0.0, 0.0, 0.0, 0.0, 0.0, 0.0, 0.0, 0.0, 0.0, 0.0, 0.0, 0.0, 0.0, 0.0, 0.0, 0.0, 0.0, 0.0, 0.0, 0.0, 0.0, 0.0, 0.0, 0.0, 0.0, 0.0, 0.0, 0.0, 0.0, 0.0, 0.0, 0.0, 0.0, 0.0, 0.0, 0.0, 0.0, 0.0, 0.0, 0.0, 0.0, 0.0, 0.0, 0.0, 0.0, 0.0, 0.0, 0.0, 0.0, 0.0, 0.0, 0.0, 0.0, 0.0, 0.0, 0.0, 0.0, 0.0, 0.0, 0.0, 0.0, 0.0, 0.0, 0.0, 0.0, 0.0, 0.0, 0.0, 0.0, 0.0, 0.0, 0.0, 0.0, 0.0, 0.0, 0.0, 0.0, 0.0, 0.0, 0.0, 0.0, 0.0, 0.0, 0.0, 0.0, 0.0, 0.0, 0.0, 0.0, 0.0, 0.0, 0.0, 0.0, 0.0, 0.0, 0.0, 0.0, 0.0, 0.0, 0.0, 0.0, 0.0, 0.0, 0.0, 0.0, 0.0, 0.0, 0.0, 0.0, 0.0, 0.0, 0.0, 0.0, 0.0, 0.0, 0.0, 0.0, 0.0, 0.0, 0.0, 0.0, 0.0, 0.0, 0.0, 0.0, 0.0, 0.0, 0.0, 0.0, 0.0, 0.0, 0.0, 0.0, 0.0, 0.0, 0.0, 0.0, 0.0, 0.0, 0.0, 0.0, 0.0, 0.0, 0.0, 0.0, 0.0, 0.0, 0.0, 0.0, 0.0, 0.0, 0.0, 0.0, 0.0, 0.0, 0.0, 0.0, 0.0, 0.0, 0.0, 0.0, 0.0, 0.0, 0.0, 0.0, 0.0, 0.0, 0.0, 0.0, 0.0, 0.0, 0.0, 0.0, 0.0, 0.0, 0.0, 0.0, 0.0, 0.0, 0.0, 0.0, 0.0, 0.0, 0.0, 0.0, 0.0, 0.0, 0.0, 0.0, 0.0, 0.0, 0.0, 0.0, 0.0, 0.0, 0.0, 0.0, 0.0, 0.0, 0.0, 0.0, 0.0, 0.0, 0.0, 0.0, 0.0, 0.0, 0.0, 0.0, 0.0, 0.0, 0.0, 0.0, 0.0, 0.0, 0.0, 0.0],
  "Shots": 4096,
  "Size": 10,
  "Total Algorithm duration [s]": 79.003,
  "Total Classic duration [s]": 45.475062826156616,
  "Total Quantum duration [s]": 33.527937173843384
}
