{
  "Circuit execution durations [ms]": [22.36795425415039, 22.075891494750977, 22.207260131835938, 22.03965187072754, 22.156476974487305, 22.190332412719727, 22.23992347717285, 22.214651107788086, 22.255897521972656, 22.135496139526367, 22.032737731933594, 22.084951400756836, 22.278547286987305, 22.128582000732422, 22.10712432861328, 22.367000579833984, 22.234201431274414, 22.196531295776367, 22.07016944885254, 22.211790084838867, 22.319316864013672, 22.349834442138672, 22.319316864013672, 22.266149520874023, 22.24898338317871, 22.082090377807617, 22.23372459411621, 22.200822830200195, 22.053956985473633, 22.32527732849121, 22.28689193725586, 22.54629135131836, 22.14670181274414, 22.49932289123535, 22.255659103393555, 22.155284881591797, 22.36318588256836, 22.111892700195313, 22.19557762145996, 22.25470542907715, 22.368192672729492, 22.425413131713867, 22.475242614746094, 22.11928367614746, 22.2475528717041, 22.02749252319336, 22.179603576660156, 22.304296493530273, 22.153377532958984, 22.135496139526367, 22.339344024658203, 22.362947463989258, 22.292375564575195, 22.29762077331543, 22.431373596191406, 22.560834884643555, 22.185325622558594, 22.303104400634766, 22.184133529663086, 22.27783203125, 22.32217788696289, 22.046804428100586, 22.21512794494629, 22.22585678100586, 22.225379943847656, 22.21512794494629, 22.206783294677734, 22.194862365722656, 22.347688674926758, 22.26090431213379, 22.174358367919922, 22.14360237121582, 22.16935157775879, 22.11737632751465, 22.229433059692383, 22.333145141601563, 22.345304489135742, 22.205591201782227, 22.191286087036133, 22.441387176513672, 22.40610122680664, 22.119760513305664, 22.190332412719727, 22.364139556884766, 22.18484878540039, 22.32646942138672, 22.327184677124023, 22.348880767822266, 22.267818450927734, 22.331714630126953, 22.336959838867188, 22.232532501220703, 22.27926254272461, 22.359371185302734, 22.340774536132813, 22.3543643951416, 22.1560001373291, 22.204875946044922, 22.455692291259766, 22.24111557006836, 22.063732147216797],
  "Depth": 515.0,
  "Expectation Value": -2.474365234375,
  "Optimal Expectation Value": -3.0,
  "Optimizer durations [ms]": [345.542, 425.583, 426.447, 345.369, 432.041, 344.866, 429.929, 345.027, 426.859, 344.143, 425.036, 431.203, 345.495, 428.933, 344.454, 425.815, 433.351, 346.167, 430.44, 344.559, 429.356, 345.019, 426.915, 427.584, 343.73, 430.376, 345.555, 429.481, 344.862, 427.659, 426.71, 344.316, 430.575, 345.238, 430.141, 345.92, 425.834, 427.001, 344.562, 432.671, 345.82, 429.979, 345.151, 427.902, 345.318, 424.377, 431.426, 345.103, 429.732, 345.166, 426.474, 433.944, 346.282, 431.211, 345.87, 428.412, 345.707, 427.59, 426.134, 344.786, 431.178, 345.678, 430.32, 344.92, 426.664, 426.944, 344.46, 431.449, 344.874, 429.575, 345.83, 424.929, 427.048, 343.397, 431.856, 346.301, 430.067, 344.667, 426.936, 344.455, 426.226, 431.48, 345.144, 430.365, 345.235, 425.633, 433.996, 344.931, 432.341, 344.954, 429.71, 344.313, 426.281, 426.637, 343.974, 430.862, 344.439, 429.025, 346.209, 426.684, 426.166],
  "Optimizer iterations": 101,
  "Optimizer params": [1.0, 0.9098181360362617, 0.9410402075838263, 0.8560290277805304, 0.9309126364174504, 0.37692925224295404],
  "P": 3,
  "Problem": "MIS",
  "QJob durations [ms]": [228.5621166229248, 227.71406173706055, 310.26148796081543, 228.54208946228027, 314.7897720336914, 228.20067405700684, 228.25312614440918, 228.1033992767334, 227.3235321044922, 227.65493392944336, 227.9343605041504, 314.7118091583252, 227.86211967468262, 227.61988639831543, 227.65254974365234, 228.09553146362305, 316.6193962097168, 228.03688049316406, 227.71239280700684, 227.5853157043457, 228.40285301208496, 228.0430793762207, 228.1017303466797, 310.9011650085449, 227.60438919067383, 228.13749313354492, 227.8003692626953, 227.88095474243164, 227.89955139160156, 228.2414436340332, 310.546875, 227.51355171203613, 227.87714004516602, 228.32870483398438, 228.17206382751465, 228.83176803588867, 227.8585433959961, 310.33778190612793, 228.0864715576172, 315.69695472717285, 228.712797164917, 227.69880294799805, 227.8144359588623, 227.98395156860352, 228.6984920501709, 227.8437614440918, 314.84436988830566, 228.11174392700195, 228.76572608947754, 228.0251979827881, 228.27792167663574, 317.1224594116211, 229.39586639404297, 228.56593132019043, 229.02703285217285, 227.22983360290527, 228.8193702697754, 229.4776439666748, 309.4966411590576, 228.38664054870605, 228.14369201660156, 227.74219512939453, 229.25567626953125, 228.00731658935547, 228.06429862976074, 309.9985122680664, 227.65088081359863, 228.74140739440918, 227.97346115112305, 227.56433486938477, 229.0821075439453, 227.3733615875244, 310.3833198547363, 226.99594497680664, 314.70680236816406, 229.25162315368652, 228.18422317504883, 228.00135612487793, 227.17618942260742, 228.0261516571045, 229.33435440063477, 315.02819061279297, 228.19948196411133, 228.05356979370117, 228.09171676635742, 228.0271053314209, 316.99061393737793, 227.93889045715332, 228.255033493042, 227.99372673034668, 227.87809371948242, 227.77414321899414, 227.88166999816895, 309.84973907470703, 227.51617431640625, 228.39784622192383, 227.51808166503906, 227.83184051513672, 228.78360748291016, 227.57911682128906, 309.816837310791],
  "QPU": "3010008",
  "Qubits": 12,
  "Queue durations [ms]": [0.0, 0.0, 0.0, 0.0, 0.0, 0.0, 0.0, 0.0, 0.0, 0.0, 0.0, 0.0, 0.0, 0.0, 0.0, 0.0, 0.0, 0.0, 0.0, 0.0, 0.0, 0.0, 0.0, 0.0, 0.0, 0.0, 0.0, 0.0, 0.0, 0.0, 0.0, 0.0, 0.0, 0.0, 0.0, 0.0, 0.0, 0.0, 0.0, 0.0, 0.0, 0.0, 0.0, 0.0, 0.0, 0.0, 0.0, 0.0, 0.0, 0.0, 0.0, 0.0, 0.0, 0.0, 0.0, 0.0, 0.0, 0.0, 0.0, 0.0, 0.0, 0.0, 0.0, 0.0, 0.0, 0.0, 0.0, 0.0, 0.0, 0.0, 0.0, 0.0, 0.0, 0.0, 0.0, 0.0, 0.0, 0.0, 0.0, 0.0, 0.0, 0.0, 0.0, 0.0, 0.0, 0.0, 0.0, 0.0, 0.0, 0.0, 0.0, 0.0, 0.0, 0.0, 0.0, 0.0, 0.0, 0.0, 0.0, 0.0, 0.0],
  "Shots": 4096,
  "Size": 9,
  "Total Algorithm duration [s]": 39.707,
  "Total Classic duration [s]": 15.142140371322633,
  "Total Quantum duration [s]": 24.564859628677368
}
