{
  "Circuit execution durations [ms]": [0.10194999777013436, 0.09894999675452709, 0.10004999785451218, 0.09964999844669364, 0.09885000326903537, 0.10535000183153898, 0.10364999980083667, 0.09795000005397014, 0.09744999988470227, 0.09870000212686136, 0.10140000085812062, 0.11335000090184622, 0.10459999975864775, 0.10525000107008964, 0.10650000331224874, 0.10439999823574908, 0.10159999874304049, 0.10039999688160606, 0.09999999747378752, 0.10014999861596152, 0.100200002634665, 0.10760000077425502, 0.10110000221175142, 0.10354999903938733, 0.10285000098519959, 0.10144999760086648, 0.09955000132322311, 0.11685000208672136, 0.10069999916595407, 0.10085000030812807, 0.10169999950448982, 0.10090000068885274, 0.10044999726233073, 0.09899999713525176, 0.09805000081541948, 0.0987999992503319, 0.10059999840450473, 0.09824999870033935, 0.09669999781181104, 0.09715000123833306, 0.09860000136541203, 0.0973999995039776, 0.10254999870085157, 0.09825000233831815, 0.09694999971543439, 0.1072999948519282, 0.09819999831961468, 0.09870000212686136, 0.1050000028044451, 0.10095000106957741, 0.09959999806596898, 0.15889999849605374, 0.09884999963105656, 0.09744999988470227, 0.09795000005397014, 0.10040000051958486, 0.0885500012373086, 0.10105000183102675, 0.20149999545537867, 0.10734999887063168, 0.09900000077323057, 0.11250000170548446, 0.21799999376526102, 0.10230000043520704, 0.1064000025507994, 0.10399999882793054, 0.15835000158404, 0.10239999755867757, 0.09744999988470227, 0.09795000005397014, 0.09779999891179614, 0.09005000174511224, 0.0989500003925059, 0.10040000051958486],
  "Depth": 2.0,
  "Expectation Value": -2.7446999549865723,
  "Optimal Expectation Value": -2.7446999549865723,
  "Optimizer durations [ms]": [3.454, 2.952, 2.967, 2.956, 2.918, 3.249, 3.007, 2.968, 2.936, 2.957, 3.134, 3.39, 3.007, 3.051, 3.089, 3.046, 2.977, 2.914, 2.889, 2.903, 2.886, 3.284, 2.933, 2.968, 3.037, 2.981, 2.93, 3.281, 2.933, 2.948, 3.001, 2.939, 3.155, 2.982, 2.962, 2.92, 3.082, 3.019, 2.922, 2.93, 2.955, 2.935, 3.061, 2.976, 2.938, 3.117, 2.932, 5.13, 5.514, 2.923, 2.833, 4.202, 2.999, 2.974, 2.928, 2.927, 6.357, 8.36, 5.041, 3.254, 3.07, 3.47, 5.167, 4.83, 3.066, 3.074, 4.178, 3.049, 2.961, 2.934, 2.932, 5.817, 3.09, 3.092],
  "Optimizer iterations": 74,
  "Optimizer params": [1.0, 0.5017363948722177, 0.9981045570614562, 0.5007650080814936, 0.5042533476101536],
  "P": 0,
  "Problem": "RH",
  "QJob durations [ms]": [0.10194999777013436, 0.09894999675452709, 0.10004999785451218, 0.09964999844669364, 0.09885000326903537, 0.10535000183153898, 0.10364999980083667, 0.09795000005397014, 0.09744999988470227, 0.09870000212686136, 0.10140000085812062, 0.11335000090184622, 0.10459999975864775, 0.10525000107008964, 0.10650000331224874, 0.10439999823574908, 0.10159999874304049, 0.10039999688160606, 0.09999999747378752, 0.10014999861596152, 0.100200002634665, 0.10760000077425502, 0.10110000221175142, 0.10354999903938733, 0.10285000098519959, 0.10144999760086648, 0.09955000132322311, 0.11685000208672136, 0.10069999916595407, 0.10085000030812807, 0.10169999950448982, 0.10090000068885274, 0.10044999726233073, 0.09899999713525176, 0.09805000081541948, 0.0987999992503319, 0.10059999840450473, 0.09824999870033935, 0.09669999781181104, 0.09715000123833306, 0.09860000136541203, 0.0973999995039776, 0.10254999870085157, 0.09825000233831815, 0.09694999971543439, 0.1072999948519282, 0.09819999831961468, 0.09870000212686136, 0.1050000028044451, 0.10095000106957741, 0.09959999806596898, 0.15889999849605374, 0.09884999963105656, 0.09744999988470227, 0.09795000005397014, 0.10040000051958486, 0.0885500012373086, 0.10105000183102675, 0.20149999545537867, 0.10734999887063168, 0.09900000077323057, 0.11250000170548446, 0.21799999376526102, 0.10230000043520704, 0.1064000025507994, 0.10399999882793054, 0.15835000158404, 0.10239999755867757, 0.09744999988470227, 0.09795000005397014, 0.09779999891179614, 0.09005000174511224, 0.0989500003925059, 0.10040000051958486],
  "QPU": "7000000",
  "Qubits": 5,
  "Queue durations [ms]": [0.0, 0.0, 0.0, 0.0, 0.0, 0.0, 0.0, 0.0, 0.0, 0.0, 0.0, 0.0, 0.0, 0.0, 0.0, 0.0, 0.0, 0.0, 0.0, 0.0, 0.0, 0.0, 0.0, 0.0, 0.0, 0.0, 0.0, 0.0, 0.0, 0.0, 0.0, 0.0, 0.0, 0.0, 0.0, 0.0, 0.0, 0.0, 0.0, 0.0, 0.0, 0.0, 0.0, 0.0, 0.0, 0.0, 0.0, 0.0, 0.0, 0.0, 0.0, 0.0, 0.0, 0.0, 0.0, 0.0, 0.0, 0.0, 0.0, 0.0, 0.0, 0.0, 0.0, 0.0, 0.0, 0.0, 0.0, 0.0, 0.0, 0.0, 0.0, 0.0, 0.0, 0.0],
  "Shots": 4096,
  "Size": 5,
  "Total Algorithm duration [s]": 0.248,
  "Total Classic duration [s]": 0.24019245001586387,
  "Total Quantum duration [s]": 0.007807549984136131
}
