{
  "Circuit execution durations [ms]": [0.09934999980032444, 0.09694999971543439, 0.10095000106957741, 0.10289999772794545, 0.10200000178883784, 0.10199999815085903, 0.10660000043571927, 0.10090000068885274, 0.10054999802378006, 0.10054999802378006, 0.10119999933522195, 0.10289999772794545, 0.10024999937741086, 0.10214999929303303, 0.09884999963105656, 0.1009499974315986, 0.11074999929405749, 0.10054999802378006, 0.10085000030812807, 0.10100000145030208, 0.10939999992842786, 0.10930000280495733, 0.1021999996737577, 0.11379999705241062, 0.10705000022426248, 0.1083999995898921, 0.11204999827896245, 0.09995000073104165, 0.10185000064666383, 0.10869999823626131, 0.10574999760137871, 0.11320000339765102, 0.1020499985315837, 0.10489999840501696, 0.10230000043520704, 0.10164999912376516, 0.10284999734722078, 0.09919999865815043, 0.10180000026593916, 0.10019999899668619, 0.09919999865815043, 0.09974999920814298, 0.10140000085812062, 0.09820000195759349, 0.09870000212686136, 0.09905000115395524, 0.0989500003925059, 0.10349999865866266, 0.10074999954667874, 0.09760000102687627, 0.09620000128052197, 0.09974999920814298, 0.10135000047739595, 0.0958499986154493, 0.0972500019997824, 0.09664999743108638, 0.09724999836180359, 0.09724999836180359, 0.09685000259196386, 0.0975500006461516, 0.09694999971543439, 0.09795000005397014, 0.10194999777013436, 0.09900000077323057, 0.09684999895398505, 0.09714999760035425, 0.09734999912325293, 0.09634999878471717, 0.09789999967324547, 0.09829999908106402, 0.09779999891179614, 0.09670000144978985, 0.0973999995039776, 0.09720000161905773, 0.09919999865815043, 0.10414999997010455, 0.10399999882793054, 0.10805000056279823, 0.10660000043571927, 0.09864999810815789, 0.10045000090030953, 0.1003500001388602, 0.0978499992925208, 0.09730000238050707, 0.09694999971543439, 0.10289999772794545, 0.09729999874252826, 0.09720000161905773, 0.0974000031419564, 0.09760000102687627, 0.09770000178832561, 0.09675000183051452, 0.09770000178832561, 0.09709999721962959, 0.09775000216905028, 0.09649999992689118, 0.09634999878471717, 0.09760000102687627, 0.09780000254977494, 0.10929999916697852, 0.1020499985315837, 0.09839999984251335, 0.09779999891179614, 0.0992499990388751, 0.11464999988675117, 0.0989500003925059, 0.10864999785553664, 0.09705000047688372, 0.09704999683890492, 0.1659500012465287, 0.09805000081541948, 0.09625000166124664, 0.0995499976852443, 0.09694999971543439, 0.0989500003925059, 0.09850000060396269, 0.0961500008997973, 0.09710000085760839, 0.09685000259196386, 0.09689999933470972, 0.09639999916544184, 0.09765000140760094, 0.09900000077323057, 0.09744999988470227, 0.10800000382005237, 0.09810000119614415, 0.10085000030812807, 0.10540000221226364, 0.10509999992791563, 0.10909999764407985, 0.09834999946178868, 0.09700000009615906, 0.09670000144978985, 0.09719999798107892, 0.10015000225394033, 0.09870000212686136, 0.09850000060396269, 0.10040000051958486, 0.09839999984251335, 0.09869999848888256, 0.1095000006898772, 0.09974999920814298, 0.09829999908106402, 0.09774999853107147, 0.09750000026542693, 0.09810000119614415, 0.09839999984251335, 0.09719999798107892, 0.0974000031419564, 0.09689999933470972],
  "Depth": 2.0,
  "Expectation Value": -2.73962664604187,
  "Optimal Expectation Value": -2.7446999549865723,
  "Optimizer durations [ms]": [3.06, 2.916, 3.171, 2.974, 2.963, 3.017, 3.062, 2.941, 2.914, 2.975, 2.951, 2.986, 3.545, 2.911, 2.898, 2.941, 3.103, 2.944, 2.946, 2.924, 3.281, 3.109, 3.026, 3.409, 3.127, 3.279, 3.213, 2.985, 2.946, 3.239, 3.021, 3.179, 3.023, 3.039, 2.936, 2.933, 2.999, 2.896, 3.015, 2.921, 2.934, 3.022, 3.042, 2.96, 2.997, 2.991, 3.008, 2.915, 3.164, 2.953, 2.899, 3.086, 2.964, 2.937, 2.92, 2.925, 2.96, 2.933, 2.958, 2.934, 2.969, 2.955, 2.962, 2.93, 3.107, 2.968, 2.913, 3.145, 2.984, 2.916, 2.907, 2.922, 2.968, 2.958, 2.96, 3.122, 3.102, 3.234, 2.939, 2.829, 3.092, 3.078, 2.998, 2.942, 2.89, 3.071, 2.928, 2.96, 2.942, 2.998, 2.918, 2.931, 2.96, 2.931, 2.958, 2.936, 2.972, 2.911, 2.942, 3.017, 2.905, 2.843, 2.805, 2.948, 3.294, 2.971, 3.186, 2.945, 2.936, 4.275, 2.979, 2.918, 2.945, 2.911, 3.474, 2.916, 2.925, 2.924, 2.959, 2.915, 2.906, 2.955, 2.963, 2.956, 3.116, 2.958, 3.06, 3.01, 3.07, 3.115, 2.902, 2.946, 2.948, 2.985, 3.119, 2.83, 2.851, 2.993, 2.959, 2.97, 3.274, 2.973, 2.942, 2.953, 2.947, 3.808, 2.952, 2.93, 2.919, 2.91],
  "Optimizer iterations": 150,
  "Optimizer params": [0.006973738513837445, 0.5011820233865897, 0.017212390115294567, 0.5002004888541117, 0.4814137327562051],
  "P": 0,
  "Problem": "RH",
  "QJob durations [ms]": [0.09934999980032444, 0.09694999971543439, 0.10095000106957741, 0.10289999772794545, 0.10200000178883784, 0.10199999815085903, 0.10660000043571927, 0.10090000068885274, 0.10054999802378006, 0.10054999802378006, 0.10119999933522195, 0.10289999772794545, 0.10024999937741086, 0.10214999929303303, 0.09884999963105656, 0.1009499974315986, 0.11074999929405749, 0.10054999802378006, 0.10085000030812807, 0.10100000145030208, 0.10939999992842786, 0.10930000280495733, 0.1021999996737577, 0.11379999705241062, 0.10705000022426248, 0.1083999995898921, 0.11204999827896245, 0.09995000073104165, 0.10185000064666383, 0.10869999823626131, 0.10574999760137871, 0.11320000339765102, 0.1020499985315837, 0.10489999840501696, 0.10230000043520704, 0.10164999912376516, 0.10284999734722078, 0.09919999865815043, 0.10180000026593916, 0.10019999899668619, 0.09919999865815043, 0.09974999920814298, 0.10140000085812062, 0.09820000195759349, 0.09870000212686136, 0.09905000115395524, 0.0989500003925059, 0.10349999865866266, 0.10074999954667874, 0.09760000102687627, 0.09620000128052197, 0.09974999920814298, 0.10135000047739595, 0.0958499986154493, 0.0972500019997824, 0.09664999743108638, 0.09724999836180359, 0.09724999836180359, 0.09685000259196386, 0.0975500006461516, 0.09694999971543439, 0.09795000005397014, 0.10194999777013436, 0.09900000077323057, 0.09684999895398505, 0.09714999760035425, 0.09734999912325293, 0.09634999878471717, 0.09789999967324547, 0.09829999908106402, 0.09779999891179614, 0.09670000144978985, 0.0973999995039776, 0.09720000161905773, 0.09919999865815043, 0.10414999997010455, 0.10399999882793054, 0.10805000056279823, 0.10660000043571927, 0.09864999810815789, 0.10045000090030953, 0.1003500001388602, 0.0978499992925208, 0.09730000238050707, 0.09694999971543439, 0.10289999772794545, 0.09729999874252826, 0.09720000161905773, 0.0974000031419564, 0.09760000102687627, 0.09770000178832561, 0.09675000183051452, 0.09770000178832561, 0.09709999721962959, 0.09775000216905028, 0.09649999992689118, 0.09634999878471717, 0.09760000102687627, 0.09780000254977494, 0.10929999916697852, 0.1020499985315837, 0.09839999984251335, 0.09779999891179614, 0.0992499990388751, 0.11464999988675117, 0.0989500003925059, 0.10864999785553664, 0.09705000047688372, 0.09704999683890492, 0.1659500012465287, 0.09805000081541948, 0.09625000166124664, 0.0995499976852443, 0.09694999971543439, 0.0989500003925059, 0.09850000060396269, 0.0961500008997973, 0.09710000085760839, 0.09685000259196386, 0.09689999933470972, 0.09639999916544184, 0.09765000140760094, 0.09900000077323057, 0.09744999988470227, 0.10800000382005237, 0.09810000119614415, 0.10085000030812807, 0.10540000221226364, 0.10509999992791563, 0.10909999764407985, 0.09834999946178868, 0.09700000009615906, 0.09670000144978985, 0.09719999798107892, 0.10015000225394033, 0.09870000212686136, 0.09850000060396269, 0.10040000051958486, 0.09839999984251335, 0.09869999848888256, 0.1095000006898772, 0.09974999920814298, 0.09829999908106402, 0.09774999853107147, 0.09750000026542693, 0.09810000119614415, 0.09839999984251335, 0.09719999798107892, 0.0974000031419564, 0.09689999933470972],
  "QPU": "7000000",
  "Qubits": 5,
  "Queue durations [ms]": [0.0, 0.0, 0.0, 0.0, 0.0, 0.0, 0.0, 0.0, 0.0, 0.0, 0.0, 0.0, 0.0, 0.0, 0.0, 0.0, 0.0, 0.0, 0.0, 0.0, 0.0, 0.0, 0.0, 0.0, 0.0, 0.0, 0.0, 0.0, 0.0, 0.0, 0.0, 0.0, 0.0, 0.0, 0.0, 0.0, 0.0, 0.0, 0.0, 0.0, 0.0, 0.0, 0.0, 0.0, 0.0, 0.0, 0.0, 0.0, 0.0, 0.0, 0.0, 0.0, 0.0, 0.0, 0.0, 0.0, 0.0, 0.0, 0.0, 0.0, 0.0, 0.0, 0.0, 0.0, 0.0, 0.0, 0.0, 0.0, 0.0, 0.0, 0.0, 0.0, 0.0, 0.0, 0.0, 0.0, 0.0, 0.0, 0.0, 0.0, 0.0, 0.0, 0.0, 0.0, 0.0, 0.0, 0.0, 0.0, 0.0, 0.0, 0.0, 0.0, 0.0, 0.0, 0.0, 0.0, 0.0, 0.0, 0.0, 0.0, 0.0, 0.0, 0.0, 0.0, 0.0, 0.0, 0.0, 0.0, 0.0, 0.0, 0.0, 0.0, 0.0, 0.0, 0.0, 0.0, 0.0, 0.0, 0.0, 0.0, 0.0, 0.0, 0.0, 0.0, 0.0, 0.0, 0.0, 0.0, 0.0, 0.0, 0.0, 0.0, 0.0, 0.0, 0.0, 0.0, 0.0, 0.0, 0.0, 0.0, 0.0, 0.0, 0.0, 0.0, 0.0, 0.0, 0.0, 0.0, 0.0, 0.0],
  "Shots": 4096,
  "Size": 5,
  "Total Algorithm duration [s]": 0.451,
  "Total Classic duration [s]": 0.43588180001368165,
  "Total Quantum duration [s]": 0.01511819998631836
}
