{
  "Circuit execution durations [ms]": [0.10169999950448982, 0.11214999904041179, 0.10324999675503932, 0.10029999975813553, 0.09979999958886765, 0.10095000106957741, 0.10744999963208102, 0.10269999984302558, 0.10174999988521449, 0.10104999819304794, 0.10135000047739595, 0.10085000030812807, 0.1007999999274034, 0.10564999683992937, 0.10040000051958486, 0.10055000166175887, 0.09929999941959977, 0.10009999823523685, 0.10120000297320075, 0.10074999954667874, 0.09929999941959977, 0.10509999992791563, 0.10005000149249099, 0.09965000208467245, 0.1003500001388602, 0.11069999891333282, 0.10429999747429974, 0.1051500003086403, 0.09804999717744067, 0.10240000119665638, 0.10454999937792309, 0.10834999920916744, 0.10104999819304794, 0.10114999895449728, 0.1024999983201269, 0.0989500003925059, 0.10090000068885274, 0.10009999823523685, 0.1003500001388602, 0.10120000297320075, 0.10105000183102675, 0.10435000149300322, 0.11780000204453245, 0.10439999823574908, 0.10055000166175887, 0.09974999920814298, 0.10174999988521449, 0.1003500001388602, 0.10159999874304049, 0.09980000322684646, 0.10069999916595407, 0.10054999802378006, 0.16075000166893005, 0.10130000009667128, 0.10314999963156879, 0.09979999958886765, 0.10085000030812807, 0.10734999887063168, 0.10000000111176632, 0.09485000191489235, 0.1007999999274034, 0.09934999980032444, 0.1003500001388602, 0.09959999806596898, 0.1049999991664663, 0.10104999819304794, 0.09944999692379497, 0.09965000208467245, 0.09969999882741831, 0.10045000090030953, 0.09950000094249845, 0.10025000301538967, 0.10730000212788582, 0.10019999899668619, 0.10005000149249099, 0.10174999988521449],
  "Depth": 2.0,
  "Expectation Value": -1.708520531654358,
  "Optimal Expectation Value": -2.7446999549865723,
  "Optimizer durations [ms]": [2.952, 3.905, 3.142, 3.038, 3.049, 3.049, 3.134, 2.99, 2.955, 2.937, 2.924, 3.034, 2.977, 3.051, 2.951, 2.987, 2.953, 2.95, 2.925, 2.931, 2.905, 3.239, 2.946, 2.91, 2.883, 3.412, 3.047, 3.086, 2.895, 3.06, 3.13, 3.243, 3.089, 2.947, 3.063, 2.908, 2.952, 3.577, 2.979, 2.967, 3.053, 3.338, 3.521, 3.053, 2.952, 2.91, 3.008, 2.932, 2.96, 2.981, 2.973, 2.942, 4.176, 2.97, 2.95, 2.919, 3.043, 3.828, 2.974, 2.876, 2.958, 3.043, 2.941, 2.908, 3.106, 3.068, 2.93, 2.984, 2.926, 2.99, 2.922, 2.951, 3.088, 2.904, 2.922, 2.951],
  "Optimizer iterations": 76,
  "Optimizer params": [0.00031409634879802744, 0.5033709090084804, 0.9999999999999984, 0.9582545597323359, 0.5010723187713063],
  "P": 0,
  "Problem": "RH",
  "QJob durations [ms]": [0.10169999950448982, 0.11214999904041179, 0.10324999675503932, 0.10029999975813553, 0.09979999958886765, 0.10095000106957741, 0.10744999963208102, 0.10269999984302558, 0.10174999988521449, 0.10104999819304794, 0.10135000047739595, 0.10085000030812807, 0.1007999999274034, 0.10564999683992937, 0.10040000051958486, 0.10055000166175887, 0.09929999941959977, 0.10009999823523685, 0.10120000297320075, 0.10074999954667874, 0.09929999941959977, 0.10509999992791563, 0.10005000149249099, 0.09965000208467245, 0.1003500001388602, 0.11069999891333282, 0.10429999747429974, 0.1051500003086403, 0.09804999717744067, 0.10240000119665638, 0.10454999937792309, 0.10834999920916744, 0.10104999819304794, 0.10114999895449728, 0.1024999983201269, 0.0989500003925059, 0.10090000068885274, 0.10009999823523685, 0.1003500001388602, 0.10120000297320075, 0.10105000183102675, 0.10435000149300322, 0.11780000204453245, 0.10439999823574908, 0.10055000166175887, 0.09974999920814298, 0.10174999988521449, 0.1003500001388602, 0.10159999874304049, 0.09980000322684646, 0.10069999916595407, 0.10054999802378006, 0.16075000166893005, 0.10130000009667128, 0.10314999963156879, 0.09979999958886765, 0.10085000030812807, 0.10734999887063168, 0.10000000111176632, 0.09485000191489235, 0.1007999999274034, 0.09934999980032444, 0.1003500001388602, 0.09959999806596898, 0.1049999991664663, 0.10104999819304794, 0.09944999692379497, 0.09965000208467245, 0.09969999882741831, 0.10045000090030953, 0.09950000094249845, 0.10025000301538967, 0.10730000212788582, 0.10019999899668619, 0.10005000149249099, 0.10174999988521449],
  "QPU": "7000000",
  "Qubits": 5,
  "Queue durations [ms]": [0.0, 0.0, 0.0, 0.0, 0.0, 0.0, 0.0, 0.0, 0.0, 0.0, 0.0, 0.0, 0.0, 0.0, 0.0, 0.0, 0.0, 0.0, 0.0, 0.0, 0.0, 0.0, 0.0, 0.0, 0.0, 0.0, 0.0, 0.0, 0.0, 0.0, 0.0, 0.0, 0.0, 0.0, 0.0, 0.0, 0.0, 0.0, 0.0, 0.0, 0.0, 0.0, 0.0, 0.0, 0.0, 0.0, 0.0, 0.0, 0.0, 0.0, 0.0, 0.0, 0.0, 0.0, 0.0, 0.0, 0.0, 0.0, 0.0, 0.0, 0.0, 0.0, 0.0, 0.0, 0.0, 0.0, 0.0, 0.0, 0.0, 0.0, 0.0, 0.0, 0.0, 0.0, 0.0, 0.0],
  "Shots": 4096,
  "Size": 5,
  "Total Algorithm duration [s]": 0.232,
  "Total Classic duration [s]": 0.22419865000486608,
  "Total Quantum duration [s]": 0.007801349995133933
}
