{
  "Circuit execution durations [ms]": [0.10149999798159115, 0.10189999738940969, 0.11064999853260815, 0.09825000233831815, 0.1172499978565611, 0.10245000157738104, 0.1188000023830682, 0.10325000039301813, 0.10755000039353035, 0.10074999954667874, 0.10150000161956996, 0.10070000280393288, 0.10259999908157624, 0.09830000271904282, 0.09679999857326038, 0.09719999798107892, 0.0962999984039925, 0.09720000161905773, 0.0978499992925208, 0.10615000064717606, 0.09720000161905773, 0.09800000043469481, 0.09674999819253571, 0.09694999971543439, 0.09809999755816534, 0.09904999751597643, 0.09874999886960723, 0.10305000250809826, 0.09874999886960723, 0.09814999793889001, 0.09814999793889001, 0.09805000081541948, 0.0972500019997824, 0.1041999967128504, 0.10285000098519959, 0.09744999988470227, 0.0972500019997824, 0.09729999874252826, 0.09730000238050707, 0.10579999798210338, 0.07859999823267572, 0.0995499976852443, 0.10069999916595407, 0.1021999996737577, 0.09780000254977494, 0.09795000005397014, 0.09854999734670855, 0.09705000047688372, 0.10235000081593171, 0.10085000030812807, 0.0972500019997824, 0.09744999988470227, 0.09940000018104911, 0.10570000085863285, 0.10480000128154643, 0.11645000267890282, 0.10299999848939478, 0.0972500019997824, 0.09950000094249845, 0.09670000144978985, 0.0973999995039776, 0.09624999802326784, 0.09660000068834051, 0.09855000098468736, 0.12545000208774582, 0.0986500017461367, 0.10320000365027227, 0.09764999776962213, 0.09679999857326038, 0.11050000102841295, 0.09834999946178868, 0.09814999793889001, 0.10244999793940224, 0.09850000060396269, 0.09940000018104911, 0.09804999717744067, 0.09930000305757858, 0.0976999981503468, 0.0978499992925208, 0.09914999827742577, 0.09805000081541948, 0.09710000085760839, 0.10364999980083667, 0.10545000259298831, 0.10400000246590935, 0.09814999793889001, 0.09984999996959232, 0.09845000022323802, 0.09795000005397014, 0.09760000102687627, 0.09689999933470972, 0.09580000187270343, 0.10140000085812062, 0.09869999848888256, 0.10040000051958486, 0.09914999827742577, 0.09864999810815789, 0.09724999836180359, 0.09724999836180359, 0.09674999819253571, 0.12770000466844067, 0.09675000183051452, 0.09764999776962213, 0.09874999886960723, 0.09929999941959977, 0.10535000183153898, 0.10480000128154643, 0.10335000115446746, 0.10000000111176632],
  "Depth": 2.0,
  "Expectation Value": -2.742405414581299,
  "Optimal Expectation Value": -2.7446999549865723,
  "Optimizer durations [ms]": [2.966, 2.938, 3.157, 2.76, 5.238, 17.2, 3.636, 3.073, 3.098, 2.864, 3.019, 3.023, 3.096, 2.99, 2.973, 2.963, 2.932, 2.932, 2.916, 3.093, 2.868, 2.947, 2.88, 2.896, 3.023, 2.886, 3.937, 3.121, 2.983, 3.086, 2.904, 2.955, 2.908, 3.157, 3.053, 2.912, 2.933, 2.915, 2.927, 3.211, 7.352, 3.053, 3.045, 3.037, 2.94, 2.942, 2.937, 2.915, 3.106, 3.139, 2.929, 2.976, 3.072, 3.045, 3.139, 3.335, 3.059, 2.925, 2.876, 2.912, 2.954, 2.919, 2.965, 2.905, 3.511, 2.894, 3.183, 2.928, 2.911, 3.326, 3.02, 2.964, 3.123, 2.966, 2.968, 2.969, 2.956, 2.99, 2.956, 3.314, 2.946, 3.065, 3.178, 3.414, 2.937, 2.827, 3.075, 3.008, 2.952, 2.948, 2.919, 2.925, 3.187, 2.939, 2.89, 2.827, 2.885, 2.935, 2.972, 2.953, 3.547, 2.935, 2.987, 2.943, 3.021, 3.188, 3.14, 3.061, 2.992],
  "Optimizer iterations": 109,
  "Optimizer params": [0.004704972190893622, 0.49853242236197953, 0.019182924409357226, 0.5004994315012026, 0.4992651274674595],
  "P": 0,
  "Problem": "RH",
  "QJob durations [ms]": [0.10149999798159115, 0.10189999738940969, 0.11064999853260815, 0.09825000233831815, 0.1172499978565611, 0.10245000157738104, 0.1188000023830682, 0.10325000039301813, 0.10755000039353035, 0.10074999954667874, 0.10150000161956996, 0.10070000280393288, 0.10259999908157624, 0.09830000271904282, 0.09679999857326038, 0.09719999798107892, 0.0962999984039925, 0.09720000161905773, 0.0978499992925208, 0.10615000064717606, 0.09720000161905773, 0.09800000043469481, 0.09674999819253571, 0.09694999971543439, 0.09809999755816534, 0.09904999751597643, 0.09874999886960723, 0.10305000250809826, 0.09874999886960723, 0.09814999793889001, 0.09814999793889001, 0.09805000081541948, 0.0972500019997824, 0.1041999967128504, 0.10285000098519959, 0.09744999988470227, 0.0972500019997824, 0.09729999874252826, 0.09730000238050707, 0.10579999798210338, 0.07859999823267572, 0.0995499976852443, 0.10069999916595407, 0.1021999996737577, 0.09780000254977494, 0.09795000005397014, 0.09854999734670855, 0.09705000047688372, 0.10235000081593171, 0.10085000030812807, 0.0972500019997824, 0.09744999988470227, 0.09940000018104911, 0.10570000085863285, 0.10480000128154643, 0.11645000267890282, 0.10299999848939478, 0.0972500019997824, 0.09950000094249845, 0.09670000144978985, 0.0973999995039776, 0.09624999802326784, 0.09660000068834051, 0.09855000098468736, 0.12545000208774582, 0.0986500017461367, 0.10320000365027227, 0.09764999776962213, 0.09679999857326038, 0.11050000102841295, 0.09834999946178868, 0.09814999793889001, 0.10244999793940224, 0.09850000060396269, 0.09940000018104911, 0.09804999717744067, 0.09930000305757858, 0.0976999981503468, 0.0978499992925208, 0.09914999827742577, 0.09805000081541948, 0.09710000085760839, 0.10364999980083667, 0.10545000259298831, 0.10400000246590935, 0.09814999793889001, 0.09984999996959232, 0.09845000022323802, 0.09795000005397014, 0.09760000102687627, 0.09689999933470972, 0.09580000187270343, 0.10140000085812062, 0.09869999848888256, 0.10040000051958486, 0.09914999827742577, 0.09864999810815789, 0.09724999836180359, 0.09724999836180359, 0.09674999819253571, 0.12770000466844067, 0.09675000183051452, 0.09764999776962213, 0.09874999886960723, 0.09929999941959977, 0.10535000183153898, 0.10480000128154643, 0.10335000115446746, 0.10000000111176632],
  "QPU": "7000000",
  "Qubits": 5,
  "Queue durations [ms]": [0.0, 0.0, 0.0, 0.0, 0.0, 0.0, 0.0, 0.0, 0.0, 0.0, 0.0, 0.0, 0.0, 0.0, 0.0, 0.0, 0.0, 0.0, 0.0, 0.0, 0.0, 0.0, 0.0, 0.0, 0.0, 0.0, 0.0, 0.0, 0.0, 0.0, 0.0, 0.0, 0.0, 0.0, 0.0, 0.0, 0.0, 0.0, 0.0, 0.0, 0.0, 0.0, 0.0, 0.0, 0.0, 0.0, 0.0, 0.0, 0.0, 0.0, 0.0, 0.0, 0.0, 0.0, 0.0, 0.0, 0.0, 0.0, 0.0, 0.0, 0.0, 0.0, 0.0, 0.0, 0.0, 0.0, 0.0, 0.0, 0.0, 0.0, 0.0, 0.0, 0.0, 0.0, 0.0, 0.0, 0.0, 0.0, 0.0, 0.0, 0.0, 0.0, 0.0, 0.0, 0.0, 0.0, 0.0, 0.0, 0.0, 0.0, 0.0, 0.0, 0.0, 0.0, 0.0, 0.0, 0.0, 0.0, 0.0, 0.0, 0.0, 0.0, 0.0, 0.0, 0.0, 0.0, 0.0, 0.0, 0.0],
  "Shots": 4096,
  "Size": 5,
  "Total Algorithm duration [s]": 0.35,
  "Total Classic duration [s]": 0.3390434999979334,
  "Total Quantum duration [s]": 0.010956500002066605
}
