{
  "Circuit execution durations [ms]": [0.0991000015346799, 0.09815000157686882, 0.10520000068936497, 0.09715000123833306, 0.09679999857326038, 0.10385000132373534, 0.09805000081541948, 0.1082500020856969, 0.09634999878471717, 0.1003500001388602, 0.0958499986154493, 0.09720000161905773, 0.09665000106906518, 0.09774999853107147, 0.09649999992689118, 0.0975500006461516, 0.09890000001178123, 0.09724999836180359, 0.09814999793889001, 0.09789999967324547, 0.1020499985315837, 0.10044999726233073, 0.10130000009667128, 0.0990999978967011, 0.1007999999274034, 0.10335000115446746, 0.10520000432734378, 0.103750000562286, 0.09704999683890492, 0.10075000318465754, 0.09795000005397014, 0.0973999995039776, 0.09660000068834051, 0.09855000098468736, 0.09824999870033935, 0.09905000115395524, 0.09780000254977494, 0.09824999870033935, 0.09689999933470972, 0.09775000216905028, 0.10349999865866266, 0.10400000246590935, 0.09850000060396269, 0.0987999992503319, 0.10534999819356017, 0.09950000094249845, 0.09795000005397014, 0.09770000178832561, 0.09809999755816534, 0.0995499976852443, 0.09904999751597643, 0.10430000111227855, 0.09815000157686882, 0.09670000144978985, 0.11490000179037452, 0.1307500024267938, 0.09659999705036171, 0.0976999981503468, 0.10260000271955505, 0.10009999823523685, 0.09744999988470227, 0.09810000119614415, 0.09639999916544184, 0.09795000005397014, 0.1023499971779529, 0.09705000047688372, 0.09690000297268853, 0.09715000123833306, 0.09680000221123919, 0.09730000238050707, 0.10769999789772555, 0.09679999857326038, 0.09644999954616651],
  "Depth": 2.0,
  "Expectation Value": -2.7446999549865723,
  "Optimal Expectation Value": -2.7446999549865723,
  "Optimizer durations [ms]": [3.018, 2.962, 3.11, 2.968, 2.968, 3.09, 2.908, 3.101, 2.93, 2.949, 2.924, 2.932, 2.924, 2.923, 2.917, 2.927, 2.893, 2.944, 3.064, 2.964, 3.103, 2.908, 2.967, 2.966, 3.01, 3.069, 3.131, 3.044, 2.936, 3.272, 2.972, 2.972, 2.917, 2.949, 2.886, 2.919, 2.898, 2.9, 2.944, 2.992, 3.104, 3.037, 2.885, 2.927, 3.053, 2.902, 2.929, 2.874, 2.902, 3.034, 2.98, 3.173, 2.957, 2.957, 3.252, 3.728, 2.919, 2.929, 3.15, 4.373, 2.972, 2.949, 2.926, 2.964, 2.996, 2.908, 2.949, 2.987, 2.924, 2.96, 3.155, 2.95, 2.936],
  "Optimizer iterations": 73,
  "Optimizer params": [0.998279468029647, 0.49811279905434697, 0.9995458878185749, 0.4975138864194109, 0.5019623038946629],
  "P": 0,
  "Problem": "RH",
  "QJob durations [ms]": [0.0991000015346799, 0.09815000157686882, 0.10520000068936497, 0.09715000123833306, 0.09679999857326038, 0.10385000132373534, 0.09805000081541948, 0.1082500020856969, 0.09634999878471717, 0.1003500001388602, 0.0958499986154493, 0.09720000161905773, 0.09665000106906518, 0.09774999853107147, 0.09649999992689118, 0.0975500006461516, 0.09890000001178123, 0.09724999836180359, 0.09814999793889001, 0.09789999967324547, 0.1020499985315837, 0.10044999726233073, 0.10130000009667128, 0.0990999978967011, 0.1007999999274034, 0.10335000115446746, 0.10520000432734378, 0.103750000562286, 0.09704999683890492, 0.10075000318465754, 0.09795000005397014, 0.0973999995039776, 0.09660000068834051, 0.09855000098468736, 0.09824999870033935, 0.09905000115395524, 0.09780000254977494, 0.09824999870033935, 0.09689999933470972, 0.09775000216905028, 0.10349999865866266, 0.10400000246590935, 0.09850000060396269, 0.0987999992503319, 0.10534999819356017, 0.09950000094249845, 0.09795000005397014, 0.09770000178832561, 0.09809999755816534, 0.0995499976852443, 0.09904999751597643, 0.10430000111227855, 0.09815000157686882, 0.09670000144978985, 0.11490000179037452, 0.1307500024267938, 0.09659999705036171, 0.0976999981503468, 0.10260000271955505, 0.10009999823523685, 0.09744999988470227, 0.09810000119614415, 0.09639999916544184, 0.09795000005397014, 0.1023499971779529, 0.09705000047688372, 0.09690000297268853, 0.09715000123833306, 0.09680000221123919, 0.09730000238050707, 0.10769999789772555, 0.09679999857326038, 0.09644999954616651],
  "QPU": "7000000",
  "Qubits": 5,
  "Queue durations [ms]": [0.0, 0.0, 0.0, 0.0, 0.0, 0.0, 0.0, 0.0, 0.0, 0.0, 0.0, 0.0, 0.0, 0.0, 0.0, 0.0, 0.0, 0.0, 0.0, 0.0, 0.0, 0.0, 0.0, 0.0, 0.0, 0.0, 0.0, 0.0, 0.0, 0.0, 0.0, 0.0, 0.0, 0.0, 0.0, 0.0, 0.0, 0.0, 0.0, 0.0, 0.0, 0.0, 0.0, 0.0, 0.0, 0.0, 0.0, 0.0, 0.0, 0.0, 0.0, 0.0, 0.0, 0.0, 0.0, 0.0, 0.0, 0.0, 0.0, 0.0, 0.0, 0.0, 0.0, 0.0, 0.0, 0.0, 0.0, 0.0, 0.0, 0.0, 0.0, 0.0, 0.0],
  "Shots": 4096,
  "Size": 5,
  "Total Algorithm duration [s]": 0.219,
  "Total Classic duration [s]": 0.21170854999122093,
  "Total Quantum duration [s]": 0.007291450008779066
}
