{
  "Circuit execution durations [ms]": [0.1188000023830682, 0.10504999954719096, 0.10260000271955505, 0.1079499998013489, 0.09919999865815043, 0.10269999984302558, 0.10200000178883784, 0.10244999793940224, 0.10059999840450473, 0.10069999916595407, 0.10200000178883784, 0.1020500021695625, 0.09915000191540457, 0.10320000001229346, 0.10395000208518468, 0.10099999781232327, 0.10159999874304049, 0.10130000009667128, 0.10180000026593916, 0.10180000026593916, 0.10159999874304049, 0.1007999999274034, 0.0986500017461367, 0.10060000204248354, 0.09974999920814298, 0.09774999853107147, 0.0987999992503319, 0.13839999883202836, 0.09859999772743322, 0.09929999941959977, 0.09969999882741831, 0.10674999793991446, 0.10504999954719096, 0.10574999760137871, 0.11314999937894754, 0.10299999848939478, 0.3110999896307476, 0.10579999798210338, 0.1033000007737428, 0.10019999899668619, 0.09904999751597643, 0.0989500003925059, 0.09890000001178123, 0.09679999857326038, 0.09804999717744067, 0.11390000145183876, 0.09839999984251335, 0.09465000039199367, 0.09669999781181104, 0.09690000297268853, 0.10720000136643648, 0.10269999984302558, 0.10104999819304794, 0.09625000166124664, 0.09689999933470972, 0.10870000187424012, 0.10070000280393288, 0.1065500000549946, 0.10739999925135635, 0.09850000060396269, 0.09824999870033935, 0.10560000009718351, 0.09850000060396269, 0.09834999946178868, 0.09805000081541948, 0.0986500017461367, 0.09804999717744067, 0.09795000005397014, 0.09800000043469481, 0.10584999836282805, 0.10119999933522195],
  "Depth": 2.0,
  "Expectation Value": -2.7443721294403076,
  "Optimal Expectation Value": -2.7446999549865723,
  "Optimizer durations [ms]": [3.655, 3.047, 2.968, 3.206, 2.982, 2.993, 2.952, 2.946, 2.948, 2.94, 2.959, 2.988, 2.919, 3.076, 3.021, 3.1, 3.028, 2.906, 3.008, 2.954, 2.993, 2.965, 2.906, 2.941, 2.933, 2.921, 3.105, 3.818, 2.903, 3.008, 2.949, 3.144, 3.097, 3.25, 3.337, 3.042, 6.718, 3.482, 3.091, 2.992, 2.918, 2.919, 2.935, 2.808, 2.875, 3.214, 2.913, 2.812, 2.845, 2.836, 3.174, 3.077, 3.006, 2.832, 2.894, 3.179, 3.12, 3.06, 3.163, 2.889, 2.937, 3.148, 2.913, 2.891, 2.913, 2.995, 2.908, 2.949, 2.907, 2.997, 3.002],
  "Optimizer iterations": 71,
  "Optimizer params": [0.00475715736200365, 0.5028630925213456, 0.992295427945172, 0.5000464828723966, 0.5048143279197798],
  "P": 0,
  "Problem": "RH",
  "QJob durations [ms]": [0.1188000023830682, 0.10504999954719096, 0.10260000271955505, 0.1079499998013489, 0.09919999865815043, 0.10269999984302558, 0.10200000178883784, 0.10244999793940224, 0.10059999840450473, 0.10069999916595407, 0.10200000178883784, 0.1020500021695625, 0.09915000191540457, 0.10320000001229346, 0.10395000208518468, 0.10099999781232327, 0.10159999874304049, 0.10130000009667128, 0.10180000026593916, 0.10180000026593916, 0.10159999874304049, 0.1007999999274034, 0.0986500017461367, 0.10060000204248354, 0.09974999920814298, 0.09774999853107147, 0.0987999992503319, 0.13839999883202836, 0.09859999772743322, 0.09929999941959977, 0.09969999882741831, 0.10674999793991446, 0.10504999954719096, 0.10574999760137871, 0.11314999937894754, 0.10299999848939478, 0.3110999896307476, 0.10579999798210338, 0.1033000007737428, 0.10019999899668619, 0.09904999751597643, 0.0989500003925059, 0.09890000001178123, 0.09679999857326038, 0.09804999717744067, 0.11390000145183876, 0.09839999984251335, 0.09465000039199367, 0.09669999781181104, 0.09690000297268853, 0.10720000136643648, 0.10269999984302558, 0.10104999819304794, 0.09625000166124664, 0.09689999933470972, 0.10870000187424012, 0.10070000280393288, 0.1065500000549946, 0.10739999925135635, 0.09850000060396269, 0.09824999870033935, 0.10560000009718351, 0.09850000060396269, 0.09834999946178868, 0.09805000081541948, 0.0986500017461367, 0.09804999717744067, 0.09795000005397014, 0.09800000043469481, 0.10584999836282805, 0.10119999933522195],
  "QPU": "7000000",
  "Qubits": 5,
  "Queue durations [ms]": [0.0, 0.0, 0.0, 0.0, 0.0, 0.0, 0.0, 0.0, 0.0, 0.0, 0.0, 0.0, 0.0, 0.0, 0.0, 0.0, 0.0, 0.0, 0.0, 0.0, 0.0, 0.0, 0.0, 0.0, 0.0, 0.0, 0.0, 0.0, 0.0, 0.0, 0.0, 0.0, 0.0, 0.0, 0.0, 0.0, 0.0, 0.0, 0.0, 0.0, 0.0, 0.0, 0.0, 0.0, 0.0, 0.0, 0.0, 0.0, 0.0, 0.0, 0.0, 0.0, 0.0, 0.0, 0.0, 0.0, 0.0, 0.0, 0.0, 0.0, 0.0, 0.0, 0.0, 0.0, 0.0, 0.0, 0.0, 0.0, 0.0, 0.0, 0.0],
  "Shots": 4096,
  "Size": 5,
  "Total Algorithm duration [s]": 0.218,
  "Total Classic duration [s]": 0.21053535002208082,
  "Total Quantum duration [s]": 0.00746464997791918
}
