{
  "Circuit execution durations [ms]": [123.11625480651855, 69.77653503417969, 65.1085376739502, 64.10074234008789, 66.59197807312012, 66.57814979553223, 66.8797492980957, 66.69497489929199, 62.734127044677734, 61.42425537109375, 121.6437816619873, 67.09718704223633, 63.77100944519043, 69.26894187927246, 65.49906730651855, 63.330888748168945, 66.10751152038574, 65.68431854248047, 66.13302230834961, 65.93132019042969, 121.96612358093262, 63.12680244445801, 67.1243667602539, 65.79184532165527, 64.24283981323242, 65.36507606506348, 63.03286552429199, 66.79034233093262, 69.80657577514648, 65.94181060791016, 120.9867000579834, 63.89307975769043, 66.09010696411133, 69.13518905639648, 66.42556190490723, 66.24722480773926, 63.86280059814453, 66.09082221984863, 68.11308860778809, 65.27876853942871, 122.71976470947266, 67.28100776672363, 63.286542892456055, 63.93003463745117, 66.73002243041992, 65.28568267822266, 62.334537506103516, 69.35834884643555, 63.48609924316406, 65.66548347473145, 118.51119995117188, 67.60954856872559, 66.97726249694824, 65.61088562011719, 64.02587890625, 64.53442573547363, 65.36269187927246, 64.77785110473633, 62.380313873291016, 65.86289405822754, 120.31412124633789, 66.01285934448242, 70.48463821411133, 67.36898422241211, 67.21782684326172, 65.25301933288574, 65.31143188476563, 67.60025024414063, 65.67931175231934, 65.24252891540527, 121.56534194946289, 65.68694114685059, 65.23752212524414, 65.06681442260742, 65.37079811096191, 62.48784065246582, 65.37365913391113, 64.67175483703613, 62.27898597717285, 67.46077537536621],
  "Depth": 95.0,
  "Expectation Value": -5.02294921875,
  "Optimal Expectation Value": -6.0,
  "Optimizer durations [ms]": [414.926, 362.437, 401.676, 404.337, 407.412, 403.91, 410.132, 408.736, 410.489, 405.23, 412.884, 356.863, 399.803, 405.368, 403.544, 402.252, 405.627, 408.048, 411.099, 415.035, 413.667, 353.654, 403.313, 400.965, 401.774, 401.665, 403.963, 408.518, 414.048, 414.328, 411.439, 356.798, 401.996, 403.856, 404.505, 404.488, 405.043, 408.355, 407.46, 412.547, 414.486, 359.107, 399.674, 400.757, 403.881, 401.664, 402.8, 411.805, 410.601, 410.583, 408.21, 357.637, 402.403, 399.21, 402.868, 401.549, 405.766, 407.204, 407.799, 410.004, 409.429, 356.789, 407.412, 401.131, 401.891, 402.608, 403.373, 411.958, 411.307, 413.033, 413.071, 356.971, 401.532, 400.377, 402.196, 400.745, 404.689, 404.203, 407.107, 408.379],
  "Optimizer iterations": 80,
  "Optimizer params": [0.25914122827126485, 0.2916373072315006, 0.596437865960234, 0.27503373133899334, 0.7177843581437, 0.0670089355003208],
  "P": 3,
  "Problem": "MCP",
  "QJob durations [ms]": [196.26641273498535, 142.4245834350586, 137.4366283416748, 137.90297508239746, 137.58158683776855, 137.98880577087402, 142.00067520141602, 138.72265815734863, 137.94851303100586, 186.1286163330078, 194.3492889404297, 138.07082176208496, 135.21218299865723, 141.52193069458008, 138.60082626342773, 135.819673538208, 137.35032081604004, 138.4587287902832, 138.04078102111816, 194.64564323425293, 193.82667541503906, 133.81314277648926, 139.6780014038086, 137.79807090759277, 136.73830032348633, 136.11912727355957, 135.92958450317383, 138.61560821533203, 142.0755386352539, 194.6547031402588, 192.1834945678711, 137.94875144958496, 137.81428337097168, 141.07537269592285, 138.97061347961426, 138.8554573059082, 137.4351978302002, 138.17620277404785, 135.22076606750488, 193.24874877929688, 195.44553756713867, 140.09499549865723, 136.30414009094238, 136.92045211791992, 138.8239860534668, 136.2752914428711, 134.97424125671387, 142.15445518493652, 137.1161937713623, 191.1933422088623, 189.32485580444336, 139.68229293823242, 139.32156562805176, 136.95645332336426, 138.00382614135742, 135.66017150878906, 137.82143592834473, 137.5267505645752, 136.02733612060547, 190.2780532836914, 190.80758094787598, 137.92967796325684, 144.2551612854004, 138.76938819885254, 137.4070644378662, 137.36772537231445, 136.23881340026855, 140.79546928405762, 138.3063793182373, 192.122220993042, 194.48590278625488, 138.48304748535156, 138.6733055114746, 138.32616806030273, 137.82095909118652, 135.1156234741211, 137.40921020507813, 135.2071762084961, 135.53905487060547, 188.38000297546387],
  "QPU": "3000010",
  "Qubits": 5,
  "Queue durations [ms]": [0.0, 0.0, 0.0, 0.0, 0.0, 0.0, 0.0, 0.0, 0.0, 0.0, 0.0, 0.0, 0.0, 0.0, 0.0, 0.0, 0.0, 0.0, 0.0, 0.0, 0.0, 0.0, 0.0, 0.0, 0.0, 0.0, 0.0, 0.0, 0.0, 0.0, 0.0, 0.0, 0.0, 0.0, 0.0, 0.0, 0.0, 0.0, 0.0, 0.0, 0.0, 0.0, 0.0, 0.0, 0.0, 0.0, 0.0, 0.0, 0.0, 0.0, 0.0, 0.0, 0.0, 0.0, 0.0, 0.0, 0.0, 0.0, 0.0, 0.0, 0.0, 0.0, 0.0, 0.0, 0.0, 0.0, 0.0, 0.0, 0.0, 0.0, 0.0, 0.0, 0.0, 0.0, 0.0, 0.0, 0.0, 0.0, 0.0, 0.0],
  "Shots": 4096,
  "Size": 5,
  "Total Algorithm duration [s]": 32.118,
  "Total Classic duration [s]": 20.208005397796633,
  "Total Quantum duration [s]": 11.90999460220337
}
