{
  "Circuit execution durations [ms]": [363.4960651397705, 338.53697776794434, 327.73804664611816, 320.82581520080566, 322.7691650390625, 329.1046619415283, 306.78582191467285, 620.2385425567627, 336.67778968811035, 327.76331901550293, 327.52180099487305, 342.9372310638428, 329.93459701538086, 632.6272487640381, 323.2712745666504, 334.4860076904297, 361.8159294128418, 425.8263111114502, 372.88355827331543, 325.17361640930176, 338.7308120727539, 368.5111999511719, 365.37742614746094, 343.8301086425781, 340.09838104248047, 329.45799827575684, 342.7577018737793, 325.3779411315918, 317.81721115112305, 313.61985206604004, 337.705135345459, 331.1617374420166, 315.05870819091797, 338.350772857666, 329.9546241760254, 419.22569274902344, 317.9295063018799, 321.9459056854248, 304.66246604919434, 314.0828609466553, 332.03935623168945, 312.772274017334, 310.68944931030273, 307.6000213623047, 305.4490089416504, 320.42622566223145, 316.81346893310547, 310.4205131530762, 310.87732315063477, 317.27123260498047, 313.948392868042, 328.48095893859863, 315.80328941345215, 332.4294090270996, 335.5898857116699, 323.14300537109375, 350.222110748291, 338.49477767944336, 618.8068389892578, 363.1401062011719, 327.56638526916504, 305.9124946594238, 309.0817928314209, 312.3927116394043, 327.90517807006836, 327.4810314178467, 301.8343448638916, 309.7717761993408, 314.5792484283447, 322.2041130065918, 336.74097061157227, 325.5155086517334, 309.7057342529297, 319.69141960144043, 331.4933776855469, 307.0845603942871, 314.4490718841553, 351.0410785675049, 629.9340724945068, 327.1222114562988, 320.8894729614258, 308.75658988952637, 333.5297107696533, 312.6561641693115, 316.5566921234131, 312.73627281188965, 334.9895477294922, 331.1922550201416],
  "Depth": 32.0,
  "Expectation Value": -1.998046875,
  "Optimal Expectation Value": -2.0,
  "Optimizer durations [ms]": [4937.223, 4870.387, 5191.678, 4858.267, 5029.853, 4999.991, 5402.155, 5171.532, 5042.567, 5202.601, 5010.857, 4890.099, 5776.945, 5202.828, 5056.222, 4833.573, 5300.902, 5535.992, 5207.573, 5046.249, 5064.969, 5015.356, 5301.495, 5357.935, 4981.227, 4988.152, 4922.193, 5055.544, 7437.399, 4915.046, 4986.66, 4972.116, 5221.602, 5010.654, 5066.049, 4985.596, 5046.332, 4945.626, 4892.382, 4995.972, 5414.16, 4929.462, 4796.329, 5073.194, 4852.038, 5331.938, 4907.389, 6142.142, 4863.208, 5304.912, 5012.454, 4877.744, 4869.588, 4926.392, 5131.913, 5507.61, 5038.366, 5014.919, 5134.371, 4876.628, 4878.31, 4869.76, 4937.723, 4945.522, 6254.275, 4864.533, 4963.369, 5012.883, 4817.315, 4870.015, 4994.044, 5012.951, 4968.059, 4857.08, 4912.739, 4829.796, 4888.088, 4880.276, 5213.178, 4962.45, 4832.913, 4872.957, 4940.441, 5040.48, 4831.999, 4920.476, 5014.692, 5063.092],
  "Optimizer iterations": 88,
  "Optimizer params": [0.6796646723688545, 0.9753047617890148, 0.9253435422660446, 0.8395204651401925, 0.32994605604897886, 0.6657524987530454],
  "P": 3,
  "Problem": "MCP",
  "QJob durations [ms]": [4931.671380996704, 4864.656448364258, 5186.112403869629, 4852.237224578857, 5024.376153945923, 4948.4405517578125, 5396.761417388916, 5166.3243770599365, 5037.458896636963, 5196.7809200286865, 5005.490303039551, 4884.675741195679, 5771.731853485107, 5197.701454162598, 5051.222324371338, 4828.274726867676, 5293.612241744995, 5529.759883880615, 5201.829195022583, 5040.2116775512695, 5058.367490768433, 5009.836435317993, 5296.2281703948975, 5299.861669540405, 4975.887298583984, 4982.870101928711, 4916.775703430176, 5050.357103347778, 7432.29341506958, 4910.027980804443, 4981.232166290283, 4966.891527175903, 5216.306209564209, 5005.310297012329, 5060.710430145264, 4977.896213531494, 5040.398359298706, 4940.148115158081, 4886.940956115723, 4990.653038024902, 5408.73384475708, 4880.138635635376, 4791.2163734436035, 5068.028926849365, 4846.883296966553, 5326.7176151275635, 4902.199745178223, 6137.082815170288, 4858.149528503418, 5299.258470535278, 5007.290601730347, 4872.457504272461, 4864.30025100708, 4921.106338500977, 5126.717090606689, 5502.4659633636475, 5033.119201660156, 5009.666681289673, 5128.615856170654, 4871.608018875122, 4873.142957687378, 4864.57371711731, 4932.496786117554, 4940.441131591797, 6249.114990234375, 4859.172344207764, 4958.230495452881, 5007.593870162964, 4811.986923217773, 4864.345550537109, 4988.757848739624, 5007.729291915894, 4962.903022766113, 4851.906538009644, 4907.59015083313, 4824.663877487183, 4882.932901382446, 4875.243663787842, 5207.437992095947, 4957.307815551758, 4827.67128944397, 4867.778062820435, 4935.204744338989, 5035.300731658936, 4826.729536056519, 4915.1952266693115, 5009.278774261475, 5057.864665985107],
  "QPU": "6000004",
  "Qubits": 3,
  "Queue durations [ms]": [0.0, 0.0, 0.0, 0.0, 0.0, 0.0, 0.0, 0.0, 0.0, 0.0, 0.0, 0.0, 0.0, 0.0, 0.0, 0.0, 0.0, 0.0, 0.0, 0.0, 0.0, 0.0, 0.0, 0.0, 0.0, 0.0, 0.0, 0.0, 0.0, 0.0, 0.0, 0.0, 0.0, 0.0, 0.0, 0.0, 0.0, 0.0, 0.0, 0.0, 0.0, 0.0, 0.0, 0.0, 0.0, 0.0, 0.0, 0.0, 0.0, 0.0, 0.0, 0.0, 0.0, 0.0, 0.0, 0.0, 0.0, 0.0, 0.0, 0.0, 0.0, 0.0, 0.0, 0.0, 0.0, 0.0, 0.0, 0.0, 0.0, 0.0, 0.0, 0.0, 0.0, 0.0, 0.0, 0.0, 0.0, 0.0, 0.0, 0.0, 0.0, 0.0, 0.0, 0.0, 0.0, 0.0, 0.0, 0.0],
  "Shots": 4096,
  "Size": 3,
  "Total Algorithm duration [s]": 447.184,
  "Total Classic duration [s]": 0.6173264827728531,
  "Total Quantum duration [s]": 446.5666735172272
}
