{
  "Circuit execution durations [ms]": [20685.102224349976, 30881.041765213013, 33555.69767951965, 24487.82253265381, 21630.50103187561, 21806.537628173828, 35061.612606048584, 29042.901277542114, 30325.53267478943, 28665.114879608154, 29681.69403076172, 30028.976917266846, 20664.244174957275, 30839.237213134766, 21694.254875183105, 30844.743490219116, 34961.061239242554, 35859.38858985901, 34646.91209793091, 20601.37367248535, 21929.460763931274, 31615.34285545349, 23681.849002838135, 31159.751176834106, 35513.5760307312, 29676.893711090088, 34191.285371780396, 24893.3367729187, 28327.911376953125, 31171.409130096436, 32133.50796699524, 20390.06996154785, 35519.31977272034, 27634.92465019226, 21718.111276626587, 21544.66986656189, 34990.42224884033, 20879.197120666504, 32971.320390701294, 20608.433961868286, 20664.175271987915, 28589.275598526, 29244.23360824585, 21558.316946029663, 21619.00281906128, 28859.89236831665, 24876.44648551941, 28763.15712928772, 20817.652225494385, 20690.50168991089, 35489.673137664795, 29004.60648536682, 34849.76530075073, 30198.47011566162, 30909.234046936035, 24561.37728691101, 31872.280836105347, 21841.10736846924, 23527.393579483032, 35897.5293636322, 29758.1307888031, 20652.27437019348, 30935.79411506653, 27935.675144195557, 20791.428327560425, 29469.560861587524, 29275.166749954224, 21715.57307243347, 21792.653799057007, 20590.61574935913, 29530.961275100708, 21736.412286758423, 29043.866634368896, 21616.62530899048, 31528.377294540405, 20570.98388671875, 32738.158464431763, 20602.17237472534, 33657.612323760986, 27701.553106307983, 20789.093732833862, 30648.377656936646, 20478.35946083069, 32493.96276473999, 29270.150661468506, 28894.65570449829, 20745.63431739807, 21572.354555130005, 31543.837308883667, 21662.42790222168, 21932.687520980835, 30586.72523498535, 32210.744619369507, 36309.8680973053, 35575.297117233276, 27717.679262161255, 28700.02293586731, 34940.9613609314, 29307.16586112976, 20606.42385482788, 32609.31420326233, 28494.511604309082, 29971.118211746216, 21491.692066192627, 21617.68412590027, 28577.740907669067, 20629.042148590088, 36047.603368759155, 33394.47093009949, 30787.63484954834, 24378.370761871338, 30595.747470855713],
  "Depth": 41.0,
  "Expectation Value": -3.05322265625,
  "Optimal Expectation Value": -4.0,
  "Optimizer durations [ms]": [28305.454, 41346.146, 45092.22, 33688.881, 28936.406, 29177.26, 45668.051, 40131.165, 41767.68, 39360.507, 40520.781, 40918.767, 28400.639, 41313.522, 29241.809, 42081.435, 47126.114, 46519.51, 46948.975, 28602.686, 29291.454, 41948.635, 33661.5, 41741.819, 46128.693, 40053.078, 46617.337, 34255.963, 39130.461, 42328.015, 42077.422, 28282.147, 47203.54, 37651.432, 29076.259, 28969.383, 46159.994, 28483.767, 43733.771, 28384.232, 28768.115, 38947.669, 39229.408, 28746.548, 28995.058, 38912.774, 34468.675, 38792.218, 28539.926, 28387.886, 46703.327, 39020.221, 46656.028, 41003.061, 41605.113, 34210.452, 43066.509, 29254.415, 33297.724, 46793.374, 41147.739, 28686.439, 41321.282, 38090.757, 28829.096, 39783.781, 39279.826, 29044.572, 29170.876, 28326.525, 40146.225, 29189.775, 39994.189, 29116.638, 42851.687, 28408.207, 44034.071, 28228.285, 44662.93, 38117.529, 28681.315, 42974.681, 28708.36, 42903.394, 40392.092, 39894.708, 28610.819, 29372.204, 42535.386, 29440.415, 29214.009, 41367.392, 42912.973, 47617.928, 47465.78, 38014.871, 39064.132, 47245.73, 39647.261, 28643.834, 43961.831, 39370.478, 42018.295, 28825.391, 29492.569, 39695.921, 28676.25, 47582.819, 45064.189, 41358.965, 33720.362, 41207.035],
  "Optimizer iterations": 112,
  "Optimizer params": [0.2326413584490862, 0.39437759505464764, 0.8124772627858583, 0.9999629042017668, 0.5781018329911566, 0.971135034017827],
  "P": 3,
  "Problem": "MCP",
  "QJob durations [ms]": [28299.076318740845, 41339.38264846802, 45085.7572555542, 33682.101249694824, 28930.026531219482, 29170.990705490112, 45661.63682937622, 40124.97591972351, 41761.33704185486, 39354.30455207825, 40514.63031768799, 40912.21213340759, 28394.37437057495, 41307.20233917236, 29235.368251800537, 42074.94521141052, 47119.94528770447, 46513.18454742432, 46942.594051361084, 28596.66347503662, 29285.032510757446, 41942.35420227051, 33655.22265434265, 41735.6493473053, 46122.23410606384, 40046.90408706665, 46611.13214492798, 34249.55749511719, 39124.279737472534, 42321.58398628235, 42070.46627998352, 28275.680541992188, 47197.11375236511, 37645.278215408325, 29070.12176513672, 28962.711334228516, 46153.69415283203, 28477.147579193115, 43727.50639915466, 28377.847909927368, 28761.995315551758, 38941.2100315094, 39223.219871520996, 28738.98434638977, 28988.91806602478, 38906.349182128906, 34462.50128746033, 38741.00995063782, 28533.74481201172, 28381.64448738098, 46697.05557823181, 39013.89718055725, 46649.717569351196, 40996.82688713074, 41598.67525100708, 34203.9999961853, 43060.033082962036, 29248.310804367065, 33291.41354560852, 46787.11128234863, 41141.31569862366, 28680.137395858765, 41314.95761871338, 38084.590673446655, 28822.720289230347, 39777.459144592285, 39273.52428436279, 29038.145542144775, 29164.194107055664, 28276.257514953613, 40139.939308166504, 29183.57825279236, 39987.98966407776, 29110.29052734375, 42845.476150512695, 28401.95083618164, 44027.421712875366, 28221.973657608032, 44656.660079956055, 38111.233711242676, 28673.83909225464, 42968.36805343628, 28702.192306518555, 42896.9988822937, 40385.576248168945, 39888.07535171509, 28604.38370704651, 29365.82064628601, 42528.944969177246, 29434.012174606323, 29207.942247390747, 41316.887855529785, 42906.41522407532, 47611.613750457764, 47459.5410823822, 38008.37182998657, 39057.94644355774, 47194.164514541626, 39640.94591140747, 28637.518644332886, 43955.442905426025, 39364.08066749573, 42012.07661628723, 28818.990230560303, 29485.414266586304, 39688.963651657104, 28669.72327232361, 47576.2939453125, 45057.6810836792, 41352.84185409546, 33713.961124420166, 41200.86097717285],
  "QPU": "6000004",
  "Qubits": 4,
  "Queue durations [ms]": [0.0, 0.0, 0.0, 0.0, 0.0, 0.0, 0.0, 0.0, 0.0, 0.0, 0.0, 0.0, 0.0, 0.0, 0.0, 0.0, 0.0, 0.0, 0.0, 0.0, 0.0, 0.0, 0.0, 0.0, 0.0, 0.0, 0.0, 0.0, 0.0, 0.0, 0.0, 0.0, 0.0, 0.0, 0.0, 0.0, 0.0, 0.0, 0.0, 0.0, 0.0, 0.0, 0.0, 0.0, 0.0, 0.0, 0.0, 0.0, 0.0, 0.0, 0.0, 0.0, 0.0, 0.0, 0.0, 0.0, 0.0, 0.0, 0.0, 0.0, 0.0, 0.0, 0.0, 0.0, 0.0, 0.0, 0.0, 0.0, 0.0, 0.0, 0.0, 0.0, 0.0, 0.0, 0.0, 0.0, 0.0, 0.0, 0.0, 0.0, 0.0, 0.0, 0.0, 0.0, 0.0, 0.0, 0.0, 0.0, 0.0, 0.0, 0.0, 0.0, 0.0, 0.0, 0.0, 0.0, 0.0, 0.0, 0.0, 0.0, 0.0, 0.0, 0.0, 0.0, 0.0, 0.0, 0.0, 0.0, 0.0, 0.0, 0.0, 0.0],
  "Shots": 4096,
  "Size": 4,
  "Total Algorithm duration [s]": 4179.837,
  "Total Classic duration [s]": 0.892448532104936,
  "Total Quantum duration [s]": 4178.9445514678955
}
