{
  "Circuit execution durations [ms]": [21830.851078033447, 35292.64736175537, 34984.0943813324, 20527.81891822815, 21428.287029266357, 21261.36803627014, 23608.644008636475, 21626.871585845947, 24710.817337036133, 34460.05415916443, 35872.71070480347, 21578.646421432495, 21513.54694366455, 32609.309196472168, 28757.062911987305, 27528.632402420044, 20778.95975112915, 21785.37082672119, 21581.62569999695, 23541.110277175903, 20814.305305480957, 35647.21083641052, 36579.20742034912, 35933.38918685913, 28066.514492034912, 28935.741662979126, 35140.037059783936, 28065.655946731567, 29313.819885253906, 29441.96653366089, 20549.570560455322, 28713.826179504395, 21471.482038497925, 20845.260620117188, 27487.024307250977, 36730.93104362488, 21786.60821914673, 27457.88288116455, 29105.04674911499, 29160.57777404785, 21432.915925979614, 35192.564249038696, 32518.620014190674, 31588.319778442383, 35129.6272277832, 30869.287490844727, 35710.2952003479, 27883.286476135254, 32649.17230606079, 31582.716941833496, 31486.18793487549, 31786.2229347229, 29441.816568374634, 28768.439769744873, 21889.665603637695, 28092.32783317566, 20504.957914352417, 20836.45462989807, 35816.773653030396, 21535.07113456726, 20769.654035568237, 21568.0570602417, 23656.27121925354, 20573.136806488037, 21861.25898361206, 31722.2957611084, 29042.93417930603, 21408.533573150635, 35192.08908081055, 30780.508995056152, 21832.666873931885, 32854.87914085388, 21762.56823539734, 21695.401191711426, 29165.785551071167, 29143.353939056396, 29024.640560150146, 21687.8879070282, 23797.906637191772, 36193.172216415405, 28744.76671218872, 21560.043334960938, 33041.587829589844, 28015.815496444702, 21466.793298721313, 27830.27219772339, 28606.247186660767, 35909.1055393219, 23714.202404022217, 29404.120445251465, 30968.351364135742, 28156.1918258667, 30411.632537841797, 35322.70312309265, 21822.248697280884, 34750.40125846863, 36498.30889701843, 21319.087028503418, 35567.88969039917, 28858.527421951294, 35882.429361343384, 29653.342962265015, 35203.50933074951, 34936.747312545776, 21747.276067733765, 30108.3881855011, 20535.727500915527, 28652.601957321167, 36961.793184280396, 29105.611085891724, 29529.89172935486, 29074.017763137817, 20723.942041397095, 35979.48598861694, 21584.87033843994, 24409.09457206726],
  "Depth": 41.0,
  "Expectation Value": -3.974609375,
  "Optimal Expectation Value": -4.0,
  "Optimizer durations [ms]": [29386.816, 45367.448, 46769.301, 28632.39, 28685.017, 28662.887, 33284.89, 29117.638, 34014.652, 46022.246, 46346.74, 29110.02, 28834.687, 43165.905, 39644.054, 38056.063, 28757.377, 29140.121, 29067.94, 33503.262, 28807.106, 45905.86, 47844.177, 46640.298, 39104.443, 39425.646, 47570.08, 39420.102, 40046.098, 40279.18, 28342.023, 38671.145, 28765.983, 28947.917, 37612.154, 48272.647, 29349.865, 37714.812, 39823.027, 40014.025, 28970.358, 47984.436, 42860.974, 42960.561, 47062.743, 41255.871, 45804.038, 38503.192, 43252.993, 42600.719, 41896.543, 42347.984, 40637.125, 39640.897, 29269.118, 38544.545, 28534.204, 28641.924, 46336.504, 28957.146, 28719.885, 28903.598, 33706.451, 28064.215, 29043.866, 42063.714, 39809.885, 28692.879, 47016.65, 41366.478, 29167.459, 45458.009, 29001.175, 28889.822, 40038.039, 39188.504, 38896.186, 28920.703, 35637.995, 48738.123, 38830.581, 29113.136, 44395.32, 38536.712, 28836.872, 38478.687, 38835.212, 46550.021, 33391.705, 40162.005, 41366.65, 39171.023, 42565.619, 46568.798, 29113.66, 46089.988, 47509.427, 28488.866, 46211.914, 39158.28, 46604.05, 40841.593, 46712.238, 47435.031, 29043.053, 41008.332, 28505.65, 40002.893, 47873.555, 39833.132, 40109.739, 39780.636, 28773.606, 48627.354, 28932.97, 33836.463],
  "Optimizer iterations": 116,
  "Optimizer params": [0.8646320759860119, 0.2644957268614967, 0.9957892287423061, 0.3847770221151592, 0.265237462436308, 0.23692284739997885],
  "P": 3,
  "Problem": "MCP",
  "QJob durations [ms]": [29380.601406097412, 45361.0897064209, 46762.917041778564, 28626.312494277954, 28678.47442626953, 28656.75449371338, 33278.767585754395, 29111.32550239563, 34008.64386558533, 45970.29805183411, 46340.370655059814, 29103.981256484985, 28828.500986099243, 43159.762144088745, 39637.739181518555, 38050.10414123535, 28751.09100341797, 29133.955478668213, 29061.87868118286, 33496.88744544983, 28800.85015296936, 45899.48797225952, 47837.70442008972, 46633.69798660278, 39098.12664985657, 39419.42262649536, 47564.05019760132, 39413.72799873352, 40039.96014595032, 40272.82500267029, 28335.857629776, 38664.73293304443, 28759.94896888733, 28941.872596740723, 37606.09483718872, 48266.335010528564, 29343.852043151855, 37664.03102874756, 39817.068576812744, 40007.20953941345, 28964.35523033142, 47978.14631462097, 42854.5446395874, 42954.26869392395, 47055.81068992615, 41249.45664405823, 45797.823905944824, 38496.7360496521, 43246.79398536682, 42594.50960159302, 41890.15054702759, 42341.755867004395, 40631.09230995178, 39634.66715812683, 29262.766122817993, 38538.30432891846, 28527.966022491455, 28635.788679122925, 46330.33013343811, 28951.12419128418, 28713.593244552612, 28897.522687911987, 33700.124740600586, 28057.93333053589, 29037.83106803894, 42012.88199424744, 39803.67588996887, 28686.511993408203, 46965.112924575806, 41360.334634780884, 29161.0209941864, 45451.953172683716, 28994.881629943848, 28883.62956047058, 40031.6846370697, 39182.38401412964, 38889.89996910095, 28914.40200805664, 35631.62159919739, 48732.051372528076, 38824.40376281738, 29107.086420059204, 44388.95773887634, 38530.454874038696, 28830.609798431396, 38472.37229347229, 38829.0810585022, 46543.68233680725, 33385.724782943726, 40155.646085739136, 41360.7063293457, 39164.745807647705, 42559.452295303345, 46562.782764434814, 29107.384204864502, 46082.849740982056, 47457.24177360535, 28482.783794403076, 46205.75141906738, 39106.92572593689, 46597.901821136475, 40835.34383773804, 46661.33403778076, 47428.8911819458, 29036.15951538086, 41002.29549407959, 28499.38988685608, 39996.62733078003, 47867.41352081299, 39826.75075531006, 40103.59597206116, 39774.22523498535, 28767.540216445923, 48620.832443237305, 28926.729679107666, 33830.03544807434],
  "QPU": "6000004",
  "Qubits": 4,
  "Queue durations [ms]": [0.0, 0.0, 0.0, 0.0, 0.0, 0.0, 0.0, 0.0, 0.0, 0.0, 0.0, 0.0, 0.0, 0.0, 0.0, 0.0, 0.0, 0.0, 0.0, 0.0, 0.0, 0.0, 0.0, 0.0, 0.0, 0.0, 0.0, 0.0, 0.0, 0.0, 0.0, 0.0, 0.0, 0.0, 0.0, 0.0, 0.0, 0.0, 0.0, 0.0, 0.0, 0.0, 0.0, 0.0, 0.0, 0.0, 0.0, 0.0, 0.0, 0.0, 0.0, 0.0, 0.0, 0.0, 0.0, 0.0, 0.0, 0.0, 0.0, 0.0, 0.0, 0.0, 0.0, 0.0, 0.0, 0.0, 0.0, 0.0, 0.0, 0.0, 0.0, 0.0, 0.0, 0.0, 0.0, 0.0, 0.0, 0.0, 0.0, 0.0, 0.0, 0.0, 0.0, 0.0, 0.0, 0.0, 0.0, 0.0, 0.0, 0.0, 0.0, 0.0, 0.0, 0.0, 0.0, 0.0, 0.0, 0.0, 0.0, 0.0, 0.0, 0.0, 0.0, 0.0, 0.0, 0.0, 0.0, 0.0, 0.0, 0.0, 0.0, 0.0, 0.0, 0.0, 0.0, 0.0],
  "Shots": 4096,
  "Size": 4,
  "Total Algorithm duration [s]": 4376.806,
  "Total Classic duration [s]": 1.040536170959058,
  "Total Quantum duration [s]": 4375.7654638290405
}
