{
  "Depth": 167.0,
  "Job durations [ms]": [9.517669677734375, 9.530067443847656, 10.085821151733398, 12.334585189819336, 12.221097946166992, 12.361288070678711, 12.50767707824707, 12.040138244628906, 12.476921081542969, 9.705543518066406, 9.529590606689453, 9.514570236206055, 9.65261459350586, 9.645700454711914, 9.91511344909668, 9.680986404418945, 9.53531265258789, 9.603500366210938, 9.729385375976562, 9.739398956298828, 9.728670120239258, 9.840250015258789, 10.076522827148438, 9.726762771606445, 9.939908981323242, 10.006189346313477, 9.56273078918457, 9.644269943237305, 9.514808654785156, 9.60993766784668, 9.541749954223633, 9.491682052612305, 9.630680084228516, 10.036230087280273, 9.668350219726562, 9.754180908203125, 10.436773300170898, 9.857654571533203, 9.566068649291992, 10.143756866455078, 9.728193283081055, 10.006427764892578, 9.62209701538086, 9.616374969482422, 10.041475296020508, 9.778738021850586, 9.543895721435547, 9.796380996704102, 9.804487228393555, 9.667158126831055, 9.601354598999023, 9.815216064453125, 9.643793106079102, 9.845495223999023, 9.864568710327148, 9.78708267211914, 9.899377822875977, 9.559154510498047, 10.300636291503906, 9.664535522460938, 9.76705551147461, 11.432409286499023, 9.570121765136719, 9.596109390258789, 9.888172149658203, 10.255098342895508, 9.597063064575195, 10.293722152709961, 9.790897369384766, 9.87100601196289, 10.303258895874023, 9.709358215332031, 9.710073471069336, 10.670661926269531, 9.811162948608398, 10.173320770263672, 9.839534759521484, 10.329961776733398, 9.722471237182617, 9.69839096069336, 9.712696075439453, 9.76252555847168, 9.786844253540039, 9.658336639404297, 9.603261947631836, 9.626626968383789, 9.719133377075195, 9.842872619628906, 9.82522964477539, 9.935379028320312, 9.74583625793457, 9.663820266723633, 9.986162185668945, 9.876489639282227, 9.693145751953125, 11.247634887695312, 9.566068649291992, 9.62209701538086, 9.68027114868164, 9.743213653564453, 10.183334350585938],
  "Optimizer durations [ms]": [297.625, 259.28, 253.741, 330.93, 296.765, 307.826, 344.947, 296.24, 297.96, 333.116, 251.552, 253.938, 292.921, 253.742, 254.6, 287.298, 247.773, 252.425, 293.639, 247.787, 259.251, 296.995, 249.712, 253.572, 291.717, 255.402, 256.548, 304.908, 249.743, 258.995, 299.847, 253.653, 256.042, 305.574, 254.277, 257.909, 320.316, 249.574, 257.079, 293.765, 249.107, 252.547, 291.29, 254.942, 255.16, 302.267, 250.51, 259.014, 301.893, 255.916, 251.645, 299.623, 257.656, 255.236, 297.797, 253.858, 253.499, 300.792, 254.005, 256.582, 319.35, 263.776, 256.321, 298.834, 256.297, 255.444, 297.025, 249.635, 255.515, 297.107, 249.507, 256.018, 294.39, 252.799, 254.564, 294.404, 255.284, 258.061, 305.747, 251.829, 253.821, 294.241, 250.129, 253.174, 290.912, 254.329, 252.915, 294.35, 248.766, 254.082, 291.057, 251.695, 251.893, 293.152, 250.484, 257.969, 293.094, 248.196, 254.109, 292.577, 249.178],
  "Optimizer iterations": 101,
  "Qubits": 9,
  "Total Algorithm duration [s]": 27.434,
  "Total Classic duration [s]": 26.42679856681824,
  "Total Quantum duration [s]": 1.0072014331817627,
  "Expectation Value": -1.38720703125,
  "Optimal Expectation Value": -3.0,
  "Optimizer params": [0.3248663121213145, 0.4698747913388125, 0.017064817967579773, 0.1605055388074588, 0.22433749069062475, 0.8574807487029183],
  "QPU": "3010002",
  "Problem": "DSP",
  "Size": 4,
  "P": 3,
  "Shots": 4096
}