{
  "Circuit execution durations [ms]": [80.3680419921875, 135.51926612854004, 104.94792461395264, 78.70280742645264, 80.65235614776611, 76.72297954559326, 77.33762264251709, 76.1411190032959, 104.59733009338379, 134.4149112701416, 76.14850997924805, 77.93760299682617, 76.57039165496826, 78.08613777160645, 76.8275260925293, 76.85530185699463, 132.82299041748047, 103.88219356536865, 75.85155963897705, 76.22301578521729, 76.32017135620117, 76.80189609527588, 75.95312595367432, 105.16023635864258, 131.6589117050171, 76.50291919708252, 75.78849792480469, 77.60274410247803, 78.02629470825195, 76.4157772064209, 79.50282096862793, 135.84625720977783, 103.0052900314331, 76.42781734466553, 76.85208320617676, 76.40743255615234, 76.48468017578125, 75.98137855529785, 134.10961627960205, 104.10070419311523, 76.71940326690674, 77.61037349700928, 75.95062255859375, 79.6968936920166, 75.64234733581543, 103.6447286605835, 135.18035411834717, 76.43818855285645, 76.75743103027344, 76.20632648468018, 75.74760913848877, 77.84295082092285, 78.16565036773682, 134.12749767303467, 105.31246662139893, 78.0184268951416, 76.63118839263916, 77.3237943649292, 77.23796367645264, 75.77478885650635, 104.95197772979736, 132.06684589385986, 77.2714614868164, 76.31194591522217, 76.05087757110596, 76.5080451965332, 80.92701435089111, 78.1773328781128, 138.46778869628906, 103.4473180770874, 76.35641098022461],
  "Depth": 2.0,
  "Expectation Value": -3.4533708095550537,
  "Optimal Expectation Value": -3.5925002098083496,
  "Optimizer durations [ms]": [770.638, 831.203, 783.373, 780.908, 779.423, 768.208, 768.216, 759.548, 806.495, 784.687, 779.562, 778.787, 771.201, 772.305, 765.305, 752.665, 821.256, 781.95, 776.709, 773.939, 769.633, 766.762, 759.816, 808.252, 782.224, 783.595, 776.764, 774.122, 770.52, 761.404, 761.572, 827.979, 778.293, 778.301, 773.35, 771.861, 764.754, 754.581, 827.015, 785.761, 779.672, 781.23, 770.764, 774.865, 760.829, 805.303, 789.909, 783.268, 774.142, 769.353, 765.925, 762.539, 757.923, 824.239, 781.491, 776.862, 774.676, 767.588, 765.655, 758.291, 803.116, 777.787, 784.643, 771.634, 768.894, 764.931, 779.319, 763.042, 838.224, 778.44, 775.845],
  "Optimizer iterations": 71,
  "Optimizer params": [0.9996705286181333, 0.48864354692917866, 0.9985589356294587, 0.4866121370817038, 0.47982486182026723, 0.9943287447265365],
  "P": 0,
  "Problem": "RH",
  "QJob durations [ms]": [90.72530269622803, 145.8348035812378, 142.9121494293213, 89.01190757751465, 90.86477756500244, 87.1894359588623, 87.77117729187012, 86.42911911010742, 114.80116844177246, 144.8746919631958, 86.5553617477417, 88.25385570526123, 86.81261539459229, 88.55390548706055, 87.18395233154297, 87.18204498291016, 143.11552047729492, 114.28999900817871, 86.18569374084473, 86.61365509033203, 86.66181564331055, 87.10074424743652, 86.22097969055176, 115.47303199768066, 141.98267459869385, 86.89248561859131, 86.16697788238525, 87.94498443603516, 88.30893039703369, 86.69829368591309, 90.22653102874756, 146.31307125091553, 113.51442337036133, 86.76576614379883, 87.119460105896, 86.96269989013672, 86.75992488861084, 86.2727165222168, 144.43886280059814, 143.2431936264038, 87.07785606384277, 87.9896879196167, 86.52567863464355, 89.97631072998047, 86.00187301635742, 113.94071578979492, 145.99013328552246, 86.73465251922607, 87.18979358673096, 86.50875091552734, 86.25519275665283, 88.1502628326416, 88.80174160003662, 144.44923400878906, 115.6766414642334, 88.40048313140869, 87.05651760101318, 87.63337135314941, 87.50522136688232, 86.0452651977539, 115.23139476776123, 142.34256744384766, 87.79728412628174, 86.5631103515625, 86.2962007522583, 86.77911758422852, 91.23718738555908, 88.83988857269287, 148.8180160522461, 113.95716667175293, 86.63499355316162],
  "QPU": "300002E",
  "Qubits": 6,
  "Queue durations [ms]": [0.0, 0.0, 0.0, 0.0, 0.0, 0.0, 0.0, 0.0, 0.0, 0.0, 0.0, 0.0, 0.0, 0.0, 0.0, 0.0, 0.0, 0.0, 0.0, 0.0, 0.0, 0.0, 0.0, 0.0, 0.0, 0.0, 0.0, 0.0, 0.0, 0.0, 0.0, 0.0, 0.0, 0.0, 0.0, 0.0, 0.0, 0.0, 0.0, 0.0, 0.0, 0.0, 0.0, 0.0, 0.0, 0.0, 0.0, 0.0, 0.0, 0.0, 0.0, 0.0, 0.0, 0.0, 0.0, 0.0, 0.0, 0.0, 0.0, 0.0, 0.0, 0.0, 0.0, 0.0, 0.0, 0.0, 0.0, 0.0, 0.0, 0.0, 0.0],
  "Shots": 4096,
  "Size": 6,
  "Total Algorithm duration [s]": 55.313,
  "Total Classic duration [s]": 48.20036498355866,
  "Total Quantum duration [s]": 7.112635016441345
}
