{
  "Circuit execution durations [ms]": [77.88896560668945, 78.91607284545898, 134.42909717559814, 103.18589210510254, 76.57456398010254, 79.67829704284668, 76.60341262817383, 76.01666450500488, 76.52044296264648, 107.62107372283936, 134.49549674987793, 78.51409912109375, 77.60024070739746, 76.29287242889404, 78.28474044799805, 76.77292823791504, 75.51419734954834, 131.85203075408936, 105.43155670166016, 76.58803462982178, 75.79207420349121, 80.06775379180908, 75.37102699279785, 76.75981521606445, 108.33430290222168, 134.81485843658447, 76.99871063232422, 75.80232620239258, 75.80327987670898, 77.85511016845703, 76.48599147796631, 76.50899887084961, 131.22808933258057, 103.23119163513184, 76.02071762084961, 75.18446445465088, 76.42960548400879, 76.91502571105957, 75.91795921325684, 133.0394744873047, 104.50196266174316, 74.90432262420654, 75.39176940917969, 76.39682292938232, 78.55796813964844, 76.78735256195068, 105.4919958114624, 131.28232955932617, 75.86967945098877, 76.41887664794922, 77.34477519989014, 75.68418979644775, 76.37739181518555, 83.62448215484619, 134.81378555297852, 103.43360900878906, 78.82404327392578, 75.6760835647583, 75.86491107940674, 77.06809043884277, 79.03683185577393, 106.90724849700928, 133.74459743499756, 78.11427116394043, 76.82371139526367, 76.53045654296875, 77.23116874694824, 76.99036598205566, 75.78015327453613, 135.00428199768066, 106.57083988189697, 75.62971115112305, 75.27709007263184, 76.04765892028809, 76.41327381134033, 76.14696025848389, 136.8197202682495, 103.21009159088135, 77.18825340270996],
  "Depth": 2.0,
  "Expectation Value": -3.4234659671783447,
  "Optimal Expectation Value": -3.5925002098083496,
  "Optimizer durations [ms]": [764.573, 765.001, 825.849, 782.324, 779.52, 780.332, 770.1, 766.569, 760.008, 814.556, 784.516, 782.833, 777.8, 773.356, 785.418, 759.802, 750.299, 818.859, 781.045, 774.842, 770.42, 773.134, 762.474, 755.501, 813.136, 791.084, 785.138, 774.312, 768.005, 768.541, 761.411, 752.542, 814.983, 777.654, 775.622, 771.267, 764.663, 761.961, 752.674, 821.336, 779.937, 773.883, 771.326, 768.296, 768.907, 756.79, 808.199, 778.72, 777.423, 773.082, 771.161, 766.874, 758.184, 764.699, 824.019, 777.265, 780.785, 769.846, 766.988, 768.087, 763.669, 813.009, 786.427, 784.417, 776.582, 774.292, 773.15, 762.433, 751.264, 829.225, 787.892, 774.86, 767.025, 764.759, 760.392, 753.807, 833.552, 782.438, 779.242],
  "Optimizer iterations": 79,
  "Optimizer params": [0.9617744170569563, 0.4862772651731398, 0.9999737002411182, 0.4962701613953978, 0.5404556531046445, 0.9941960271004302],
  "P": 0,
  "Problem": "RH",
  "QJob durations [ms]": [88.1263017654419, 89.44785594940186, 144.7763442993164, 141.46113395690918, 86.90333366394043, 90.0028944015503, 87.07308769226074, 86.37106418609619, 86.77804470062256, 117.99228191375732, 144.93370056152344, 88.7986421585083, 87.95547485351563, 86.54344081878662, 88.74905109405518, 87.18109130859375, 85.79134941101074, 142.12334156036377, 116.00363254547119, 86.94660663604736, 86.04395389556885, 90.36266803741455, 85.66057682037354, 87.0593786239624, 118.56722831726074, 145.42126655578613, 87.371826171875, 86.03930473327637, 86.05194091796875, 88.1890058517456, 86.7990255355835, 87.14401721954346, 141.48151874542236, 113.66534233093262, 86.40706539154053, 85.50810813903809, 86.92359924316406, 87.17465400695801, 86.22074127197266, 143.31305027008057, 142.50874519348145, 85.2285623550415, 85.68286895751953, 86.81917190551758, 88.7904167175293, 87.00549602508545, 115.75007438659668, 141.73150062561035, 86.15612983703613, 86.69674396514893, 87.58962154388428, 86.11416816711426, 86.59660816192627, 93.88375282287598, 145.09940147399902, 113.75284194946289, 89.06865119934082, 85.97075939178467, 86.16185188293457, 87.35918998718262, 89.36858177185059, 117.27452278137207, 143.98133754730225, 88.6765718460083, 87.11040019989014, 86.85433864593506, 87.61799335479736, 87.26298809051514, 86.47763729095459, 145.40016651153564, 117.27571487426758, 85.86585521697998, 85.63375473022461, 86.43245697021484, 86.66622638702393, 86.38811111450195, 147.27723598480225, 141.70682430267334, 87.52810955047607],
  "QPU": "300002E",
  "Qubits": 6,
  "Queue durations [ms]": [0.0, 0.0, 0.0, 0.0, 0.0, 0.0, 0.0, 0.0, 0.0, 0.0, 0.0, 0.0, 0.0, 0.0, 0.0, 0.0, 0.0, 0.0, 0.0, 0.0, 0.0, 0.0, 0.0, 0.0, 0.0, 0.0, 0.0, 0.0, 0.0, 0.0, 0.0, 0.0, 0.0, 0.0, 0.0, 0.0, 0.0, 0.0, 0.0, 0.0, 0.0, 0.0, 0.0, 0.0, 0.0, 0.0, 0.0, 0.0, 0.0, 0.0, 0.0, 0.0, 0.0, 0.0, 0.0, 0.0, 0.0, 0.0, 0.0, 0.0, 0.0, 0.0, 0.0, 0.0, 0.0, 0.0, 0.0, 0.0, 0.0, 0.0, 0.0, 0.0, 0.0, 0.0, 0.0, 0.0, 0.0, 0.0, 0.0],
  "Shots": 4096,
  "Size": 6,
  "Total Algorithm duration [s]": 61.436,
  "Total Classic duration [s]": 53.52387167072296,
  "Total Quantum duration [s]": 7.912128329277039
}
