{
  "Circuit execution durations [ms]": [54.44765090942383, 54.14557456970215, 54.88753318786621, 54.55303192138672, 54.50868606567383, 54.50725555419922, 54.77547645568848, 54.163217544555664, 54.604530334472656, 54.07524108886719, 54.75783348083496, 54.53205108642578, 54.76951599121094, 55.70507049560547, 54.5809268951416, 119.61102485656738, 54.54874038696289, 53.537845611572266, 54.19278144836426, 54.76021766662598, 54.45265769958496, 55.05061149597168, 54.92377281188965, 54.24237251281738, 54.37040328979492, 54.26454544067383, 54.07094955444336, 54.25286293029785, 54.26621437072754, 53.696632385253906, 54.132938385009766, 53.71356010437012, 53.659677505493164, 54.799795150756836, 119.07076835632324, 54.66151237487793, 53.44438552856445, 54.57806587219238, 54.22544479370117, 54.58354949951172, 54.33964729309082, 54.08000946044922, 54.19206619262695, 53.716421127319336, 54.476022720336914, 54.48436737060547, 54.65269088745117, 54.093360900878906, 53.92718315124512, 53.91383171081543, 54.15797233581543, 118.41297149658203, 53.82895469665527, 53.558349609375, 54.76117134094238, 54.41999435424805, 55.24277687072754, 54.32629585266113, 54.97574806213379, 54.11028861999512, 54.120540618896484, 54.57663536071777, 54.57639694213867, 54.43763732910156, 54.1689395904541, 54.105281829833984, 54.50177192687988, 54.55279350280762, 54.265737533569336, 55.001020431518555, 54.369449615478516, 54.556846618652344, 53.97772789001465, 54.38995361328125, 54.46171760559082, 54.433345794677734, 55.196285247802734, 54.29220199584961, 54.8553466796875, 54.47983741760254, 54.16250228881836, 53.86185646057129, 54.09407615661621, 54.38590049743652, 54.779052734375, 54.34727668762207, 54.4126033782959, 54.60786819458008, 53.957462310791016, 54.50034141540527, 53.635597229003906, 54.85343933105469, 54.802656173706055, 54.24141883850098, 53.80845069885254],
  "Depth": 203.0,
  "Expectation Value": -14.302734375,
  "Optimal Expectation Value": -16.0,
  "Optimizer durations [ms]": [69.442, 68.761, 69.367, 69.114, 69.282, 68.998, 69.366, 68.757, 69.098, 68.659, 69.495, 69.117, 69.466, 70.377, 69.329, 134.5, 69.217, 68.103, 68.954, 69.412, 69.053, 69.53, 69.595, 68.786, 69.185, 68.942, 68.863, 69.001, 68.954, 68.394, 68.879, 68.36, 68.138, 69.177, 133.609, 69.119, 67.901, 69.078, 68.752, 68.961, 69.104, 68.804, 68.683, 68.222, 68.985, 68.882, 69.194, 68.679, 68.547, 68.483, 68.686, 132.998, 68.405, 68.093, 69.516, 69.183, 69.721, 68.869, 69.488, 68.417, 68.687, 68.928, 68.999, 68.946, 68.729, 68.636, 68.935, 69.115, 68.759, 69.847, 68.994, 131.972, 68.463, 69.009, 69.072, 69.059, 69.822, 68.878, 69.765, 69.296, 68.769, 68.198, 68.658, 69.033, 69.481, 68.806, 68.905, 69.123, 68.647, 132.019, 68.322, 69.284, 69.297, 69.052, 68.643],
  "Optimizer iterations": 95,
  "Optimizer params": [0.9874165507928715, 0.9887404892329473, 0.9044566439496465, 0.946742689877911, 0.3387120908147376, 0.5670633591052051],
  "P": 3,
  "Problem": "MCP",
  "QJob durations [ms]": [54.44765090942383, 54.14557456970215, 54.88753318786621, 54.55303192138672, 54.50868606567383, 54.50725555419922, 54.77547645568848, 54.163217544555664, 54.604530334472656, 54.07524108886719, 54.75783348083496, 54.53205108642578, 54.76951599121094, 55.70507049560547, 54.5809268951416, 119.61102485656738, 54.54874038696289, 53.537845611572266, 54.19278144836426, 54.76021766662598, 54.45265769958496, 55.05061149597168, 54.92377281188965, 54.24237251281738, 54.37040328979492, 54.26454544067383, 54.07094955444336, 54.25286293029785, 54.26621437072754, 53.696632385253906, 54.132938385009766, 53.71356010437012, 53.659677505493164, 54.799795150756836, 119.07076835632324, 54.66151237487793, 53.44438552856445, 54.57806587219238, 54.22544479370117, 54.58354949951172, 54.33964729309082, 54.08000946044922, 54.19206619262695, 53.716421127319336, 54.476022720336914, 54.48436737060547, 54.65269088745117, 54.093360900878906, 53.92718315124512, 53.91383171081543, 54.15797233581543, 118.41297149658203, 53.82895469665527, 53.558349609375, 54.76117134094238, 54.41999435424805, 55.24277687072754, 54.32629585266113, 54.97574806213379, 54.11028861999512, 54.120540618896484, 54.57663536071777, 54.57639694213867, 54.43763732910156, 54.1689395904541, 54.105281829833984, 54.50177192687988, 54.55279350280762, 54.265737533569336, 55.001020431518555, 54.369449615478516, 54.556846618652344, 53.97772789001465, 54.38995361328125, 54.46171760559082, 54.433345794677734, 55.196285247802734, 54.29220199584961, 54.8553466796875, 54.47983741760254, 54.16250228881836, 53.86185646057129, 54.09407615661621, 54.38590049743652, 54.779052734375, 54.34727668762207, 54.4126033782959, 54.60786819458008, 53.957462310791016, 54.50034141540527, 53.635597229003906, 54.85343933105469, 54.802656173706055, 54.24141883850098, 53.80845069885254],
  "QPU": "9000001",
  "Qubits": 11,
  "Queue durations [ms]": [0.0, 0.0, 0.0, 0.0, 0.0, 0.0, 0.0, 0.0, 0.0, 0.0, 0.0, 0.0, 0.0, 0.0, 0.0, 0.0, 0.0, 0.0, 0.0, 0.0, 0.0, 0.0, 0.0, 0.0, 0.0, 0.0, 0.0, 0.0, 0.0, 0.0, 0.0, 0.0, 0.0, 0.0, 0.0, 0.0, 0.0, 0.0, 0.0, 0.0, 0.0, 0.0, 0.0, 0.0, 0.0, 0.0, 0.0, 0.0, 0.0, 0.0, 0.0, 0.0, 0.0, 0.0, 0.0, 0.0, 0.0, 0.0, 0.0, 0.0, 0.0, 0.0, 0.0, 0.0, 0.0, 0.0, 0.0, 0.0, 0.0, 0.0, 0.0, 0.0, 0.0, 0.0, 0.0, 0.0, 0.0, 0.0, 0.0, 0.0, 0.0, 0.0, 0.0, 0.0, 0.0, 0.0, 0.0, 0.0, 0.0, 0.0, 0.0, 0.0, 0.0, 0.0, 0.0],
  "Shots": 4096,
  "Size": 11,
  "Total Algorithm duration [s]": 6.872,
  "Total Classic duration [s]": 1.512434980392456,
  "Total Quantum duration [s]": 5.359565019607544
}
