{
  "Depth": 22.5,
  "Job durations [ms]": [34.368500113487244, 34.16699916124344, 34.29950028657913, 34.251000732183456, 34.06300023198128, 34.47899967432022, 37.59950026869774, 33.64099934697151, 33.791499212384224, 35.70899926126003, 67.35200062394142, 34.40599888563156, 34.25700031220913, 34.331001341342926, 34.62299890816212, 34.21750105917454, 34.15700048208237, 34.57600064575672, 34.55349989235401, 34.50100123882294, 34.26700085401535, 34.17050093412399, 34.60399992763996, 67.9014977067709, 34.33150053024292, 34.875499084591866, 34.94250029325485, 34.14050117135048, 34.65900011360645, 34.962499514222145, 34.698501229286194, 35.20699962973595, 34.821001812815666, 34.30500067770481, 34.275999292731285, 34.19799916446209, 67.04499945044518, 33.98299962282181, 33.512501046061516, 34.24300067126751, 34.050000831484795, 34.58149917423725, 34.10149924457073, 34.13349948823452, 34.76499952375889, 34.345999360084534, 34.26600061357021, 34.5585010945797, 34.566499292850494, 67.44350120425224, 33.795999363064766, 34.03949923813343, 34.25250016152859, 34.34650041162968, 34.02850031852722, 34.45100039243698, 33.50199945271015, 33.7969996035099, 33.622998744249344, 33.77050161361694, 33.93250145018101, 33.87149982154369, 72.99299910664558, 34.041501581668854, 34.143999218940735, 34.62049923837185, 34.35350023210049, 33.92700105905533, 33.61600078642368, 33.51850062608719, 33.99999998509884, 34.729501232504845, 34.06300023198128, 34.39600020647049, 34.145500510931015, 66.65799953043461, 33.90800021588802, 33.832501620054245, 34.18100066483021, 34.16050039231777, 33.730000257492065, 33.58100168406963, 33.799998462200165, 33.686500042676926, 34.143999218940735, 34.49450060725212, 34.42449867725372, 34.20500084757805, 68.5614999383688, 34.50600057840347, 34.59000028669834, 34.14350003004074, 33.69849920272827, 34.194499254226685, 34.00699980556965, 33.9100006967783, 34.43150036036968, 36.421999335289, 34.71150062978268, 33.743999898433685, 35.20049899816513, 67.99200177192688, 34.26999971270561, 34.03200022876263, 34.174999222159386, 34.31900031864643, 34.481000155210495, 34.50850024819374, 34.362999722361565, 35.94150021672249, 34.85000133514404, 34.57000106573105, 34.21750105917454, 34.528499469161034, 68.05299781262875, 34.48699973523617, 34.26549956202507, 34.17100012302399, 35.44200025498867, 34.225499257445335, 33.9954998344183, 34.32399965822697, 34.3019999563694, 34.50150042772293, 34.10299867391586, 35.13349965214729, 33.829500898718834, 67.39250011742115, 34.27349962294102, 34.1779999434948, 34.86200049519539, 34.446001052856445, 33.83349999785423, 34.24599952995777, 33.94949994981289, 33.7154995650053, 33.977000042796135, 35.28450056910515, 34.07349996268749, 33.89899991452694, 66.56600162386894, 33.681999891996384, 33.997999504208565, 33.869000151753426, 34.1775007545948, 33.89950096607208, 33.865999430418015, 33.989500254392624, 33.69800001382828, 34.535499289631844, 34.39350053668022, 34.571001306176186, 34.347500652074814, 67.22699850797653, 34.32700037956238, 34.48049910366535, 34.1814998537302, 34.3449991196394, 34.57900136709213, 33.957500010728836, 37.899499759078026, 34.43849831819534, 34.80149991810322, 34.50649976730347, 34.44899991154671, 34.85650010406971, 67.73499958217144, 34.096499904990196, 34.29600037634373, 34.30650010704994, 34.340498968958855, 34.79900024831295, 33.45100022852421, 33.80499966442585, 33.805498853325844, 33.67550112307072, 34.040000289678574, 33.952999860048294, 33.65200012922287, 66.56650081276894, 33.736998215317726, 33.7584987282753, 33.807000145316124, 36.03999875485897, 33.91049988567829, 33.86150114238262, 34.0495016425848, 34.06799957156181, 33.933499827980995, 34.13099981844425, 34.40600074827671, 34.48349982500076, 67.50300154089928, 34.55599956214428, 34.632500261068344, 36.55000030994415, 34.52799841761589, 34.1935008764267, 37.547001615166664, 33.645499497652054, 35.83550080657005, 34.17149931192398, 33.996500074863434, 34.43500027060509, 34.40700098872185, 67.66200251877308, 34.299999475479126, 34.32449884712696, 34.60649959743023, 34.48750078678131, 34.83849950134754, 34.366000443696976, 34.01600010693073, 34.17150117456913, 34.230999648571014, 34.05399993062019, 33.864500001072884, 33.98999944329262, 66.99499860405922, 34.094998612999916, 34.12650153040886, 34.15350057184696, 34.08000059425831, 34.38249975442886, 34.52249988913536, 34.06349942088127, 34.199999645352364, 34.40749831497669, 34.29049998521805, 33.93849916756153, 34.331999719142914, 67.47100129723549, 34.19549949467182, 34.39699858427048, 34.79450009763241, 34.50649976730347, 34.10499915480614, 33.99699926376343, 34.39350053668022, 34.781500697135925, 34.04200077056885, 34.144001081585884, 34.35099869966507, 34.246498718857765, 67.35850125551224, 34.2009998857975, 34.34550017118454, 34.06650014221668, 34.035999327898026, 34.41050089895725, 34.378498792648315, 34.97299924492836, 34.152498468756676, 34.45599973201752, 34.661998972296715, 34.437499940395355, 34.52499955892563, 68.2549998164177, 33.96200016140938, 33.824000507593155, 34.14300084114075, 33.636000007390976, 33.77649933099747, 33.65899994969368, 33.6615014821291, 37.23650053143501, 34.21100042760372, 34.03650037944317, 34.159500151872635, 34.187499433755875, 67.80299916863441, 34.31650064885616, 34.30899977684021, 34.507500007748604, 34.47500057518482, 34.35499966144562, 34.37900170683861, 33.78249891102314, 33.86249952018261, 34.02950055897236, 34.04650092124939, 33.39800052344799, 33.81449915468693, 66.8764989823103, 34.10699963569641, 33.85800123214722, 33.97350013256073, 33.71750004589558, 34.03950110077858, 34.073999151587486, 34.69900041818619, 34.10950116813183, 34.15750153362751, 35.122498869895935, 33.942000940442085, 33.97450037300587, 67.32150167226791, 34.54899974167347, 34.31200049817562, 35.02050042152405, 37.949999794363976, 33.906999975442886, 33.96550007164478, 33.510999754071236, 34.16549973189831, 34.16750021278858, 33.844999969005585, 33.56250002980232, 33.7080005556345, 67.50299967825413, 33.69950130581856, 34.36500020325184, 33.792998641729355, 33.54649990797043, 33.93799997866154, 33.92400033771992, 33.66850130259991, 33.86849910020828, 33.85100141167641, 34.19950045645237, 34.04249995946884, 34.117499366402626, 66.93999841809273, 34.12550128996372, 34.54050049185753, 34.61750037968159, 34.61800143122673, 34.475501626729965, 35.03899835050106, 34.5079991966486, 34.392500296235085, 34.169500693678856, 35.12449935078621, 34.47499871253967, 34.45199877023697, 67.38799810409546, 33.78549963235855, 33.675000071525574, 33.91150012612343, 33.71500037610531, 37.58150152862072, 33.26350077986717, 34.03950110077858, 33.578500151634216, 33.99149887263775, 33.902501687407494, 35.466501489281654, 34.51650030910969, 67.373501136899, 34.48349982500076, 34.58099998533726, 34.666500985622406, 34.15900096297264, 34.15899910032749, 34.298000857234, 33.903999254107475, 34.660499542951584, 34.22200120985508, 34.41249951720238, 34.30799953639507, 34.135499969124794, 67.55200028419495, 34.74299982190132, 34.43349897861481, 34.13650020956993, 34.487999975681305, 34.49799865484238, 34.55300070345402, 34.646499902009964, 36.4995002746582, 34.7329992800951, 34.4299990683794, 34.26850028336048, 34.47650000452995, 67.50449910759926, 34.56149995326996, 34.10100005567074, 34.83649902045727, 34.347500652074814, 34.30050052702427, 34.445999190211296, 34.59450043737888, 34.29550118744373, 34.45499949157238, 34.33400020003319, 34.103998914361, 34.416498616337776, 67.97299906611443, 34.451501443982124, 34.47999991476536, 34.421999007463455, 34.133000299334526, 34.54999998211861, 34.41249951720238, 34.815000370144844, 34.552499651908875, 34.194499254226685, 34.277500584721565, 34.359999001026154, 34.230999648571014, 67.26700067520142, 34.85499881207943, 34.47450138628483, 34.518999978899956, 34.86800007522106, 34.18100066483021, 34.11499969661236, 34.5585010945797, 34.647999331355095, 34.527501091361046, 34.14900042116642, 34.24149937927723, 34.36700068414211, 67.6450002938509, 34.42949987947941, 34.53049995005131, 34.28650088608265, 34.12749990820885, 33.88050012290478, 33.891500905156136, 33.76749902963638, 33.89200009405613, 33.75749848783016, 33.79550017416477, 33.641500398516655, 33.884499222040176, 66.75249896943569, 33.539000898599625, 33.903999254107475, 33.94399955868721, 33.68700109422207, 33.9950006455183, 34.17600132524967, 34.18000042438507, 34.290000796318054, 34.050000831484795, 34.19150039553642, 34.29199941456318, 34.35899876058102, 69.82549838721752, 33.84399972856045, 33.813999965786934, 33.82699936628342, 33.78549963235855, 33.848000690340996, 34.431999549269676, 34.493500366806984, 33.95500034093857, 34.385500475764275, 34.16699916124344, 34.29950028657913, 34.331999719142914, 67.12749972939491, 34.21949967741966, 34.265000373125076, 34.60949845612049, 34.20550003647804, 34.244999289512634, 34.04550068080425, 34.25700031220913, 33.83049927651882, 34.034499898552895, 33.81450101733208, 34.11399945616722, 34.34250131249428, 66.83100014925003, 34.48899835348129, 34.43299978971481, 34.26999971270561, 34.40700098872185, 34.56000052392483, 34.2009998857975, 34.41449999809265, 34.50450114905834, 34.18849967420101, 33.8749997317791, 33.80199894309044, 33.81999954581261, 66.47399999201298, 33.73649902641773, 33.68150070309639, 33.54249894618988, 33.88500027358532, 33.86799991130829, 33.858999609947205, 33.90599973499775, 34.34550017118454, 34.277500584721565, 34.452999010682106, 34.22150015830994, 34.42699834704399, 67.8860004991293, 34.34249944984913, 33.7895005941391, 34.392500296235085, 34.43450108170509, 34.680500626564026, 34.690000116825104, 33.95249880850315, 34.17550027370453, 34.552501514554024, 34.38049927353859, 34.5270000398159, 34.1429989784956, 67.04399921000004, 33.86400081217289, 33.9060015976429, 33.87049958109856, 33.70149992406368, 33.735498785972595, 34.22099910676479, 34.67649966478348, 34.56149995326996, 34.78500060737133, 34.258998930454254, 34.71699915826321, 33.80049951374531, 67.4120020121336, 34.4415009021759, 34.94350053369999, 34.23899970948696, 33.64350087940693, 33.79200026392937, 33.62349979579449, 33.620500937104225, 34.07999873161316, 33.81199948489666, 33.634500578045845, 34.320998936891556, 33.740000799298286, 66.6240006685257, 33.92300009727478, 33.934999257326126, 33.879999071359634, 34.23499874770641, 33.66700001060963, 34.021999686956406, 34.12899933755398, 33.98800082504749, 34.58449989557266, 33.997999504208565, 34.27349962294102, 35.20349971950054, 67.2484990209341, 35.235000774264336, 34.55050103366375, 34.04949977993965, 34.27650034427643, 34.48300063610077, 34.98449921607971, 34.20799970626831, 34.41550023853779, 33.91600027680397, 34.18550081551075, 34.484000876545906, 34.32049974799156, 70.30749879777431, 34.53799895942211, 34.146498888731, 34.39749963581562, 34.26400013267994, 34.65850092470646, 34.04350019991398, 33.973999321460724, 34.22199934720993, 34.458501264452934, 34.45900045335293, 34.39499996602535, 35.48100031912327, 66.92749820649624, 33.912500366568565, 33.70399959385395, 35.11049970984459, 34.23300012946129, 34.119999036192894, 34.11899879574776, 34.50300171971321, 34.26250070333481, 34.4420000910759, 34.22199934720993, 34.02850031852722, 33.96200016140938, 66.84549897909164, 33.53300131857395, 33.89099985361099, 33.86300057172775, 34.109000116586685, 33.6460005491972, 34.18649919331074, 33.94800052046776, 33.9525006711483, 33.7505005300045, 34.10799987614155, 33.69149938225746, 34.081000834703445, 67.10050068795681, 34.02250073850155, 33.68799947202206, 33.86399894952774, 33.87500159442425, 34.09400023519993, 33.75600092113018, 33.69499929249287, 34.21449847519398, 34.265000373125076, 34.3795008957386, 34.373000264167786, 34.23149883747101, 67.24999845027924, 34.019000828266144, 34.08600017428398, 34.10149924457073, 34.298500046133995, 33.96349959075451, 34.551000222563744, 34.26950052380562, 34.536998718976974, 33.52100029587746, 33.853499218821526, 34.02850031852722, 34.01800058782101, 68.03550198674202, 34.05299969017506, 34.50850024819374, 33.84849987924099, 34.39350053668022, 34.724000841379166, 33.92150066792965, 34.13799963891506, 34.6124991774559, 34.24900025129318, 34.785499796271324, 33.94149988889694, 33.983999863266945, 67.40699894726276, 34.04700011014938, 34.114500507712364, 33.9915007352829, 34.08749960362911, 34.423500299453735, 33.77750143408775, 33.8090006262064, 34.21049937605858, 34.15300138294697, 33.76849927008152, 33.98450091481209, 34.56349857151508, 68.16699914634228, 34.056998789310455, 34.792499616742134, 33.72499905526638, 34.12749990820885, 33.7969996035099, 33.973000943660736, 34.22099910676479, 34.16300006210804, 33.77149999141693, 34.124499186873436, 34.21749919652939, 34.05449911952019, 69.40850056707859, 34.10649858415127, 34.239498898386955, 34.254999831318855, 34.07450020313263, 33.9720007032156, 34.04649905860424, 33.66299904882908, 34.21249985694885, 34.29749980568886, 34.005001187324524, 34.540001302957535, 33.96349959075451, 67.62100011110306, 33.812498673796654, 33.96099992096424, 34.078000113368034, 34.11499969661236, 33.91999937593937, 33.90100039541721, 33.712999895215034, 34.50249880552292, 34.01250019669533, 33.78850035369396, 34.29950028657913, 34.287501126527786, 68.80600191652775, 34.03650037944317, 34.31499935686588, 35.043999552726746, 34.23199988901615, 33.98850001394749, 34.453000873327255, 34.281499683856964, 34.29599851369858, 34.302499145269394, 34.42300111055374, 34.53799895942211, 34.85799953341484, 67.54850037395954, 34.146498888731, 35.00249981880188, 33.920999616384506, 33.75500068068504, 34.297000616788864, 34.03349965810776, 34.16050039231777, 34.77349877357483, 33.938998356461525, 33.99449959397316, 34.142499789595604, 34.201500937342644, 68.31100024282932, 34.10449996590614, 34.09050032496452, 34.10799987614155, 34.32700037956238, 34.25149992108345, 33.8749997317791, 34.26600061357021, 34.23150070011616, 34.61650013923645, 34.29749980568886, 34.1970007866621, 34.64299999177456, 68.33150051534176, 33.69699977338314, 33.955998718738556, 34.39350053668022, 34.561000764369965, 34.308500587940216, 35.313500091433525, 33.676499500870705, 34.17599946260452, 34.39600020647049, 34.364499151706696, 33.959999680519104, 34.170499071478844, 67.86349974572659, 34.19850021600723, 34.04949977993965, 34.34150107204914, 34.56849977374077, 34.179000183939934, 34.208500757813454, 34.46749970316887, 34.51249934732914, 34.80149991810322, 34.317001700401306, 33.9989997446537, 34.36749987304211, 67.86200031638145, 34.25699844956398, 34.025998786091805, 35.58199852705002, 35.18100082874298, 33.920999616384506, 34.24850106239319, 34.21400114893913, 34.38049927353859, 34.42549891769886, 33.91049988567829, 34.02649983763695, 34.25299935042858, 68.65749880671501, 37.15450130403042, 34.10699963569641, 34.18949991464615, 34.312499687075615, 34.10499915480614, 35.15949845314026, 34.10550020635128, 34.15049985051155, 34.53049995005131, 34.0224988758564, 34.623000770807266, 34.35700014233589, 67.83900037407875, 34.0454988181591, 34.295499324798584, 33.99699926376343, 34.00399908423424, 34.67949852347374, 33.99199992418289, 34.31849926710129, 34.33850035071373, 34.646499902009964, 34.413499757647514, 34.75849889218807, 34.75500084459782, 68.24600137770176, 33.83900038897991, 34.40400026738644, 34.7410012036562, 35.90000048279762, 34.53350067138672, 34.825000911951065, 34.036001190543175, 34.128500148653984],
  "Optimizer durations [ms]": [81.922, 81.055, 81.237, 81.08, 81.135, 81.764, 87.956, 80.562, 80.481, 84.234, 147.811, 81.523, 81.268, 81.39, 82.583, 81.325, 81.229, 82.038, 82.002, 82.005, 81.082, 81.327, 82.159, 148.656, 81.394, 82.456, 82.519, 81.433, 82.108, 83.303, 83.493, 83.294, 82.598, 81.841, 81.411, 81.331, 146.923, 80.293, 79.521, 81.304, 80.825, 81.976, 81.022, 80.789, 82.419, 81.557, 81.663, 81.695, 82.18, 147.72, 80.188, 81.086, 81.699, 82.147, 80.834, 81.832, 80.349, 80.451, 79.944, 80.212, 80.837, 80.476, 159.047, 82.824, 81.332, 82.353, 81.711, 80.754, 79.998, 79.86, 80.603, 82.12, 81.021, 81.49, 81.776, 146.329, 81.082, 80.527, 81.063, 80.918, 80.447, 79.886, 80.316, 80.522, 80.872, 81.817, 82.019, 81.322, 149.814, 82.203, 82.448, 81.621, 80.452, 81.866, 81.228, 81.446, 82.135, 86.914, 83.949, 80.673, 83.602, 149.678, 82.006, 81.469, 81.296, 81.575, 81.885, 81.898, 81.733, 85.08, 83.167, 83.621, 82.143, 82.107, 149.164, 82.202, 81.334, 81.262, 83.598, 81.587, 81.147, 81.679, 81.348, 82.228, 81.319, 83.265, 80.358, 148.075, 81.593, 81.425, 82.544, 82.043, 80.686, 81.413, 80.407, 80.446, 80.484, 84.412, 81.153, 80.487, 146.013, 80.246, 80.456, 80.571, 81.438, 80.439, 81.006, 80.664, 80.096, 82.209, 81.486, 82.027, 81.584, 147.469, 81.368, 82.0, 81.748, 81.56, 82.785, 80.811, 89.09, 82.103, 82.22, 81.697, 82.109, 82.379, 148.558, 81.378, 81.404, 82.113, 81.531, 82.575, 79.783, 80.316, 80.169, 79.927, 81.06, 80.592, 80.082, 145.852, 80.399, 80.581, 80.112, 84.806, 80.632, 80.274, 80.852, 81.198, 80.831, 80.866, 81.943, 81.533, 147.965, 82.05, 82.223, 86.14, 81.932, 81.266, 87.705, 80.366, 84.76, 81.657, 80.64, 82.13, 81.644, 148.857, 81.81, 81.775, 81.742, 81.697, 82.554, 81.668, 80.835, 81.534, 81.973, 80.8, 80.972, 80.713, 147.078, 81.581, 81.146, 81.056, 81.187, 81.902, 82.286, 81.029, 81.32, 81.656, 82.168, 81.07, 82.026, 148.076, 81.409, 81.573, 82.227, 81.879, 81.301, 80.862, 81.637, 82.779, 81.422, 81.185, 82.24, 81.521, 147.371, 81.12, 81.314, 80.847, 81.032, 81.953, 81.967, 83.243, 81.308, 82.01, 82.306, 81.807, 81.914, 149.622, 80.443, 80.849, 80.965, 80.073, 80.395, 80.495, 79.773, 87.727, 81.649, 80.921, 81.375, 81.359, 148.43, 81.588, 81.79, 81.89, 82.222, 81.876, 81.383, 80.38, 80.243, 80.653, 80.847, 79.479, 80.285, 146.71, 81.183, 80.69, 81.206, 80.028, 80.833, 80.946, 82.284, 81.173, 81.611, 82.855, 80.742, 81.072, 147.589, 82.719, 81.766, 82.812, 89.246, 80.284, 80.713, 79.585, 81.017, 81.038, 80.408, 79.834, 80.033, 147.823, 80.246, 81.252, 80.216, 79.762, 80.467, 80.652, 80.371, 80.569, 81.267, 81.164, 80.769, 81.262, 146.838, 81.598, 81.832, 82.913, 82.205, 82.291, 82.874, 81.911, 81.916, 81.302, 82.839, 82.221, 81.944, 148.014, 80.38, 80.076, 80.408, 80.275, 88.065, 79.416, 81.095, 80.155, 80.81, 80.696, 84.023, 82.266, 147.601, 81.499, 81.92, 82.072, 81.273, 81.419, 81.484, 80.573, 82.658, 81.409, 81.907, 81.345, 81.008, 148.031, 82.292, 81.577, 81.184, 81.973, 81.932, 82.105, 82.708, 85.957, 82.862, 81.707, 81.119, 81.499, 147.817, 82.258, 81.788, 82.385, 81.681, 81.676, 81.731, 82.171, 81.701, 81.929, 81.635, 80.781, 81.689, 148.789, 82.159, 81.822, 81.994, 82.788, 82.104, 81.635, 82.48, 82.261, 81.233, 81.366, 81.248, 81.615, 147.422, 83.38, 82.357, 81.834, 82.891, 81.468, 81.181, 81.748, 82.288, 82.487, 81.206, 82.326, 81.197, 147.897, 81.813, 81.605, 81.616, 81.091, 80.256, 80.618, 80.089, 80.602, 80.504, 80.355, 80.036, 80.534, 146.787, 80.597, 80.24, 80.523, 79.874, 80.915, 81.074, 81.247, 81.721, 81.164, 81.281, 81.869, 81.929, 152.601, 80.53, 80.131, 80.319, 80.081, 80.381, 82.041, 81.529, 80.938, 81.509, 82.139, 81.517, 81.884, 147.408, 81.015, 81.154, 81.997, 81.389, 81.52, 81.091, 81.408, 80.127, 81.216, 80.224, 81.301, 81.677, 146.645, 81.878, 81.553, 81.562, 81.772, 82.022, 80.97, 82.171, 81.795, 81.403, 80.512, 80.28, 80.291, 145.645, 80.219, 80.217, 79.947, 80.481, 80.484, 80.792, 80.407, 81.324, 81.275, 81.978, 81.117, 81.661, 148.61, 81.717, 80.617, 81.864, 81.813, 82.798, 82.107, 81.026, 81.3, 81.699, 81.821, 81.931, 81.177, 147.053, 80.665, 80.524, 80.787, 80.03, 80.748, 81.355, 81.856, 82.001, 83.938, 82.159, 82.54, 80.334, 147.63, 81.757, 83.402, 81.702, 79.843, 80.119, 80.018, 79.874, 80.96, 80.375, 80.047, 81.683, 80.275, 145.966, 80.86, 80.434, 80.488, 81.077, 79.906, 80.8, 81.033, 80.77, 81.676, 80.829, 81.366, 83.307, 147.787, 83.57, 81.666, 80.989, 81.598, 81.993, 82.93, 81.252, 81.696, 80.845, 81.239, 82.141, 81.588, 153.473, 82.18, 81.104, 81.86, 81.492, 82.035, 81.198, 80.833, 81.097, 81.54, 82.283, 81.796, 83.871, 146.205, 80.561, 80.379, 82.954, 81.397, 80.997, 81.23, 81.618, 81.905, 82.17, 81.647, 80.93, 81.012, 146.215, 79.57, 80.313, 80.7, 80.924, 79.658, 80.823, 80.834, 80.622, 80.572, 80.84, 79.969, 80.835, 146.854, 80.713, 80.361, 80.912, 80.587, 80.9, 80.591, 80.304, 81.322, 81.152, 81.574, 81.642, 81.417, 147.697, 81.121, 81.317, 81.147, 81.806, 81.117, 82.678, 81.323, 82.13, 79.573, 81.219, 80.812, 80.691, 149.484, 81.22, 81.718, 81.199, 81.468, 82.343, 80.631, 81.1, 81.927, 81.157, 82.199, 80.703, 81.179, 147.611, 81.096, 81.307, 80.67, 81.258, 81.45, 80.172, 80.513, 81.236, 80.919, 80.422, 80.74, 81.794, 148.988, 81.219, 82.276, 80.162, 80.984, 80.404, 80.645, 81.141, 80.971, 80.414, 81.051, 80.973, 80.919, 152.298, 81.171, 81.167, 81.129, 80.915, 80.778, 80.865, 80.35, 81.286, 81.264, 80.813, 81.912, 80.789, 147.924, 80.664, 80.768, 80.74, 80.941, 80.549, 80.759, 79.965, 81.415, 81.234, 81.017, 81.958, 81.67, 150.253, 80.88, 81.429, 82.98, 81.175, 81.062, 81.508, 81.138, 81.368, 82.039, 82.205, 82.053, 82.855, 148.081, 81.279, 82.744, 80.605, 80.433, 81.313, 80.592, 81.757, 82.436, 80.56, 80.626, 81.04, 81.049, 149.95, 81.34, 81.085, 81.355, 81.135, 81.262, 81.065, 81.702, 81.294, 82.023, 81.421, 81.111, 81.921, 149.535, 80.618, 80.849, 81.46, 82.204, 81.654, 84.559, 80.316, 80.997, 81.606, 81.347, 80.603, 81.718, 148.636, 81.197, 80.918, 81.728, 81.757, 81.247, 81.119, 81.685, 82.019, 82.596, 81.568, 81.008, 81.463, 148.288, 81.381, 81.281, 83.93, 83.109, 81.03, 81.362, 81.176, 81.344, 81.619, 80.541, 80.913, 81.307, 150.01, 87.353, 81.068, 81.064, 81.494, 80.964, 83.188, 81.211, 81.319, 81.779, 81.078, 82.052, 81.711, 148.865, 81.379, 81.885, 80.745, 80.948, 82.471, 81.031, 83.297, 82.162, 83.469, 81.597, 83.001, 83.129, 149.31, 80.8, 81.943, 82.601, 85.239, 82.389, 82.727, 81.123, 81.52],
  "Optimizer iterations": 799,
  "Qubits": 10,
  "Total Algorithm duration [s]": 69.174,
  "Total Classic duration [s]": 39.75506600120664,
  "Total Quantum duration [s]": 29.418933998793364,
  "Expectation Value": -11.416015625,
  "Optimal Expectation Value": -12.381489753723145,
  "Optimizer params": [0.45903553305639905, 0.774244999961619, 0.6126380890824017, 0.5115114200652532, 0.6251380733973037, 0.8191689093942063, 0.5900038763769027, 0.5366350715087551, 0.5485714237800751, 0.5504887597342981, 0.47718912909842165, 0.46978682817666373, 0.47422080155216895, 0.49659315263641873, 0.736046186315597, 0.47573762542584036, 0.7756357133655204, 0.6565831360154989, 0.6503159537244079, 0.4664633674026291, 0.47931986322288206, 0.32673332638828745, 0.4743306042031727, 0.4767273272702358, 0.4650259261113004, 0.4676746001011139, 0.49330354275226784, 0.5166634824772055, 0.7048487077986342, 0.5717155653773661, 0.5111754117018599, 0.4603353469253603, 0.4618359984218342, 0.4941736611676521, 0.48868458126564496, 0.4831156248351508, 0.47156934638771925, 0.4762449971067406, 0.4660146671479998, 0.41220216671052595],
  "QPU": "9000001",
  "Problem": "IC",
  "Size": 10,
  "P": 0,
  "Shots": 4096
}