{
  "Depth": 14.0,
  "Job durations [ms]": [7159.923076629639, 6843.971967697144, 6857.821464538574, 6830.517530441284, 6801.490545272827, 6737.795829772949, 6875.341892242432, 6723.670959472656, 6739.914655685425, 6747.866868972778, 6888.994932174683, 6765.903949737549, 6794.042348861694, 6729.990482330322, 6824.329376220703, 6738.956928253174, 6729.106187820435, 6851.239919662476, 7146.924018859863, 6797.35255241394, 7059.762001037598, 6834.628582000732, 7225.9275913238525, 6691.740274429321, 6900.859594345093, 7240.458250045776, 6700.782299041748, 6782.551050186157, 6855.874300003052, 7060.493230819702, 6839.982509613037, 6787.723064422607, 7092.709302902222, 6871.677875518799, 6871.633052825928, 7063.072681427002, 6753.26681137085, 6761.726140975952, 7057.353734970093, 6916.906356811523, 6705.684423446655, 6946.236133575439, 6702.974081039429, 7122.6770877838135, 6797.92594909668, 6775.3942012786865, 6754.971742630005, 6772.290229797363, 6776.736736297607, 6798.903942108154, 6839.742422103882, 6857.936143875122, 6832.413911819458, 6908.903360366821, 6840.017795562744, 6778.749942779541, 6727.508068084717, 6839.331150054932, 6740.750312805176, 6762.02392578125, 6760.213851928711, 6780.045509338379, 6772.519111633301, 7311.999320983887, 6829.08821105957, 7270.525693893433, 6761.402368545532, 7350.661039352417, 6797.162294387817, 6724.952936172485, 6849.091291427612, 6812.380075454712, 6836.9340896606445, 6884.966611862183, 6641.133069992065, 6803.008794784546, 7060.832262039185, 6988.81721496582, 6935.293674468994, 6808.356046676636, 6813.210725784302],
  "Optimizer durations [ms]": [17463.601, 19834.257, 20382.266, 19852.006, 19968.137, 21542.353, 17877.834, 21028.832, 19647.194, 20987.727, 18679.953, 20259.024, 19678.776, 20126.246, 20154.391, 19957.389, 20379.336, 19728.628, 21018.266, 19023.317, 19679.248, 20718.266, 44906.125, 35475.733, 60484.258, 19656.965, 18996.88, 19561.809, 20740.307, 19998.251, 20110.8, 19181.05, 20089.271, 19965.662, 22112.631, 18232.827, 21305.966, 18183.732, 20897.861, 30242.731, 29388.422, 19489.112, 21352.158, 19191.344, 20936.43, 19448.494, 19943.019, 19773.83, 19468.2, 20480.014, 20435.575, 19543.724, 19634.665, 21344.082, 18833.821, 20199.573, 19778.94, 20852.578, 19054.076, 20694.352, 20611.378, 18825.035, 20585.356, 19072.634, 20014.435, 20631.769, 19679.776, 20091.66, 20799.577, 19166.635, 20319.517, 19399.262, 20194.776, 20493.068, 19839.283, 20452.79, 19233.334, 20221.963, 50707.984, 19535.486, 19762.838],
  "Optimizer iterations": 81,
  "Qubits": 2,
  "Total Algorithm duration [s]": 1747.61,
  "Total Classic duration [s]": 1191.5819500541686,
  "Total Quantum duration [s]": 556.0280499458313,
  "Expectation Value": -0.921630859375,
  "Optimal Expectation Value": -1.0,
  "Optimizer params": [0.42422527658757975, 0.7751519580816303, 0.2679133090721148, 0.8127571323186792, 0.43735317979749605, 0.8803354171896209],
  "QPU": "402001B",
  "Problem": "MCP",
  "Size": 2,
  "P": 3,
  "Shots": 4096
}