{
  "Depth": 41.0,
  "Expectation Value": -2.43115234375,
  "Job durations [ms]": [4495.593786239624, 4360.82911491394, 4395.394086837769, 4367.160081863403, 4457.731008529663, 4367.992639541626, 4442.997455596924, 4943.214893341064, 4306.931734085083, 4367.960214614868, 4505.1374435424805, 4434.838771820068, 4511.902332305908, 4406.990051269531, 4365.47589302063, 4436.287403106689, 4317.237854003906, 4402.6734828948975, 4484.8973751068115, 4664.950609207153, 4362.745761871338, 4657.367706298828, 4379.601716995239, 4698.22096824646, 4388.448476791382, 4560.9776973724365, 4908.490419387817, 4571.892499923706, 4360.277414321899, 4357.613801956177, 4423.431873321533, 4538.217306137085, 4414.627552032471, 4342.488527297974, 4480.565309524536, 4396.423816680908, 4594.408273696899, 4454.010248184204, 4416.727066040039, 4331.023454666138, 4700.49524307251, 4349.401235580444, 4420.773029327393, 4558.3178997039795, 4325.00147819519, 4394.456148147583, 5001.023292541504, 4356.2750816345215, 4464.987277984619, 4499.311208724976, 4612.549066543579, 4425.954341888428, 4911.613702774048, 4866.575241088867, 4392.481327056885, 4401.8707275390625, 4357.9261302948, 4350.105047225952, 4416.102886199951, 4447.306394577026, 4560.121059417725, 4292.163133621216, 4485.203266143799, 4495.348930358887, 4608.139991760254, 4444.70739364624, 4437.453031539917, 5298.68745803833, 4346.790075302124, 4439.952611923218, 4708.571195602417, 4334.210157394409, 4392.600774765015, 4557.245254516602, 4382.893085479736, 4466.825485229492, 4456.002712249756, 4298.891305923462, 4395.279884338379, 4321.854591369629, 4426.823854446411, 4599.226236343384, 4455.322504043579, 4245.440244674683, 4509.5884799957275],
  "Optimal Expectation Value": -4.0,
  "Optimizer durations [ms]": [19982.677, 21108.2, 19320.409, 19351.057, 20539.087, 20094.206, 19723.318, 19962.543, 19585.432, 20426.475, 19705.406, 20043.665, 20055.307, 19972.996, 20734.37, 19237.71, 20379.214, 19363.739, 20756.692, 20274.885, 19524.697, 20260.969, 20879.31, 18772.595, 20588.506, 18928.952, 20689.308, 19773.123, 20056.963, 20328.808, 19629.013, 19775.521, 19900.657, 20254.331, 20291.129, 19868.224, 20363.734, 19777.641, 20098.086, 19768.674, 19921.761, 20324.083, 19574.62, 50998.785, 19437.896, 19705.404, 20321.124, 19897.186, 19725.95, 40389.719, 19571.749, 20265.793, 20400.172, 59638.251, 19674.408, 20922.773, 19534.824, 19657.127, 19881.96, 19935.876, 20619.844, 19331.575, 20795.166, 19967.288, 19781.631, 21248.596, 18517.803, 20239.658, 20106.453, 20147.035, 19322.997, 20827.243, 19269.89, 19961.123, 20086.39, 21010.323, 19279.382, 20054.482, 19583.357, 20723.85, 19685.183, 20054.656, 19414.479, 21102.672, 18945.25],
  "Optimizer iterations": 85,
  "Optimizer params": [0.6626934197984812, 0.35650901094749593, 0.9999999999999999, 0.42853878368353787, 0.5337062638553798, 0.48500533683132124],
  "P": 3,
  "Problem": "MCP",
  "QPU": "402002E",
  "Qubits": 4,
  "Shots": 4096,
  "Size": 4,
  "Total Algorithm duration [s]": 1790.003,
  "Total Classic duration [s]": 1409.117374399185,
  "Total Quantum duration [s]": 380.8856256008148
}
