{
  "Depth": 41.0,
  "Expectation Value": -2.39306640625,
  "Job durations [ms]": [5103.20520401001, 4481.913328170776, 4501.407623291016, 4402.811765670776, 4367.905616760254, 4556.647062301636, 4356.207847595215, 4449.937343597412, 4548.463344573975, 4444.666147232056, 4361.050605773926, 4444.086074829102, 4587.109088897705, 4381.803274154663, 4463.713884353638, 4552.435398101807, 4612.148284912109, 4513.223886489868, 4424.156665802002, 4524.6288776397705, 4554.070711135864, 4483.285665512085, 4412.2865200042725, 4618.280410766602, 4551.068305969238, 4490.842580795288, 4461.827993392944, 4332.099199295044, 4581.367492675781, 4585.091114044189, 4464.299201965332, 5009.256839752197, 4543.251752853394, 4510.164022445679, 4464.058399200439, 4526.677370071411, 4497.771263122559, 4438.102245330811, 4519.026517868042, 4411.870718002319, 4436.4049434661865, 4486.026287078857, 4298.474550247192, 4598.574876785278, 4374.152421951294, 5450.2246379852295, 4656.944274902344, 4567.944288253784, 4502.944707870483, 4374.704122543335, 4438.861608505249, 4551.89061164856, 4506.468057632446, 4479.43377494812, 4515.491247177124, 4438.19522857666, 4453.015565872192, 4502.767562866211, 4444.416522979736, 4511.336088180542, 4431.58221244812, 4488.758563995361, 4527.426958084106, 4444.085121154785, 4471.277236938477, 4362.589120864868, 4659.856796264648, 4411.027193069458, 4963.61231803894, 4366.048574447632, 4525.902509689331, 4485.532760620117, 4660.970687866211, 4422.672748565674, 4521.570205688477, 4582.380056381226, 4507.529258728027, 4543.235778808594, 4561.421632766724],
  "Optimal Expectation Value": -4.0,
  "Optimizer durations [ms]": [19521.486, 21204.854, 19173.588, 19601.841, 20762.094, 19828.826, 19817.811, 19873.947, 20737.147, 20005.899, 19776.964, 19299.88, 20276.955, 32637.997, 16904.194, 20692.561, 28888.43, 32349.228, 18419.378, 19622.978, 20144.572, 20201.874, 20897.115, 19442.658, 21187.302, 18857.353, 19793.828, 20569.33, 18963.451, 20704.962, 19711.019, 20037.584, 19676.682, 21063.593, 19723.896, 19758.727, 19412.352, 20431.606, 29103.647, 20911.159, 19824.998, 20656.074, 19416.869, 20596.005, 19690.783, 19860.952, 20551.161, 19068.445, 20478.3, 19515.137, 20819.224, 19616.857, 20470.765, 19149.526, 20248.517, 20519.252, 19881.096, 19089.372, 20194.834, 20309.544, 19789.473, 20191.888, 19979.855, 20574.233, 19637.16, 19776.709, 19821.966, 25251.61, 15112.721, 20321.567, 19928.126, 19676.477, 20248.263, 19395.41, 20602.482, 19470.394, 24692.214, 26048.754, 19471.823],
  "Optimizer iterations": 79,
  "Optimizer params": [0.07407156328200734, 0.34810607218575984, 0.4312839475221734, 0.819670415497814, 0.5733134177862262, 0.9389046496792076],
  "P": 3,
  "Problem": "MCP",
  "QPU": "402002E",
  "Qubits": 4,
  "Shots": 4096,
  "Size": 4,
  "Total Algorithm duration [s]": 1629.937,
  "Total Classic duration [s]": 1272.879029237747,
  "Total Quantum duration [s]": 357.0579707622528
}
