{
  "Depth": 457.0,
  "Job durations [ms]": [15.75016975402832, 16.213655471801758, 19.751548767089844, 19.129514694213867, 19.513845443725586, 15.925407409667969, 15.715360641479492, 17.442941665649414, 15.627384185791016, 16.90387725830078, 19.3479061126709, 19.37580108642578, 19.44589614868164, 20.531415939331055, 16.72196388244629, 15.881538391113281, 16.94798469543457, 16.09659194946289, 15.757560729980469, 19.61517333984375, 19.59848403930664, 19.50860023498535, 19.447803497314453, 15.702247619628906, 15.688419342041016, 15.65694808959961, 15.760183334350586, 15.929460525512695, 15.734434127807617, 18.133878707885742, 15.86151123046875, 16.012907028198242, 17.241477966308594, 16.530752182006836, 15.662908554077148, 15.948295593261719, 15.758991241455078, 15.764236450195312, 15.918493270874023, 15.776634216308594, 15.877246856689453, 15.706539154052734, 15.769481658935547, 15.990972518920898, 15.668630599975586, 15.726804733276367, 16.232013702392578, 15.873908996582031, 16.08729362487793, 15.69056510925293, 15.83242416381836, 15.596389770507812, 15.850067138671875, 15.764474868774414, 17.006874084472656, 16.17145538330078, 15.83719253540039, 15.678644180297852, 15.900373458862305, 15.625476837158203, 16.10112190246582, 16.017436981201172, 16.007423400878906, 15.633583068847656, 17.22097396850586, 15.990734100341797, 16.793251037597656, 16.009092330932617, 15.800952911376953, 16.127347946166992, 15.653848648071289, 15.911340713500977, 16.232013702392578, 15.559911727905273, 15.796184539794922, 15.70439338684082, 15.985965728759766, 15.749692916870117, 15.7470703125, 19.18506622314453, 19.5162296295166, 19.63329315185547, 19.652128219604492, 15.942096710205078, 15.715599060058594, 15.861272811889648, 16.614675521850586, 16.120433807373047, 16.08896255493164, 15.74563980102539, 15.857696533203125, 16.340970993041992, 16.117095947265625, 15.709877014160156],
  "Optimizer durations [ms]": [443.192, 400.208, 527.048, 489.816, 529.225, 528.759, 405.184, 443.398, 404.204, 443.267, 473.253, 493.162, 528.977, 474.875, 524.311, 446.623, 423.17, 451.589, 397.672, 490.262, 532.67, 474.039, 524.781, 442.854, 437.221, 444.468, 396.133, 441.187, 393.05, 447.321, 462.176, 396.059, 445.986, 397.678, 441.719, 461.514, 394.688, 444.378, 397.147, 439.697, 450.058, 427.493, 444.463, 395.246, 438.974, 445.512, 395.562, 445.2, 393.606, 442.233, 445.854, 401.422, 444.701, 402.021, 442.175, 446.182, 397.216, 440.894, 395.02, 441.815, 447.072, 396.54, 441.272, 394.555, 437.152, 492.612, 394.862, 440.959, 397.067, 436.985, 449.572, 397.804, 446.114, 397.495, 455.441, 444.511, 394.434, 445.659, 395.918, 445.042, 525.459, 487.989, 535.595, 469.709, 441.416, 446.266, 398.315, 445.402, 396.439, 440.614, 445.448, 405.601, 471.078, 435.293],
  "Optimizer iterations": 94,
  "Qubits": 11,
  "Total Algorithm duration [s]": 41.564,
  "Total Classic duration [s]": 40.00463758850098,
  "Total Quantum duration [s]": 1.5593624114990234,
  "Expectation Value": -2.267822265625,
  "Optimal Expectation Value": -4.0,
  "Optimizer params": [0.5599305731273119, 0.009666670362107143, 0.881865235648163, 0.7300178013075661, 0.18505814115329136, 0.10202790669401622],
  "QPU": "3010008",
  "Problem": "DSP",
  "Size": 6,
  "P": 3,
  "Shots": 4096
}