{
  "Circuit execution durations [ms]": [7001.680850982666, 7125.9355545043945, 6599.187850952148, 7019.570589065552, 6611.934661865234, 6743.497848510742, 6959.644556045532, 6780.147314071655, 7686.135768890381, 7176.463842391968, 6638.4289264678955, 6625.279188156128, 6800.112247467041, 7101.7303466796875, 6643.67938041687, 6855.848073959351, 6929.637432098389, 6863.69252204895, 6906.149864196777, 6730.255126953125, 6906.262159347534, 6735.771179199219, 6811.7687702178955, 6937.47091293335, 6881.938695907593, 6593.82700920105, 6910.804033279419, 6590.7111167907715, 6481.308698654175, 6567.9919719696045, 7081.176519393921, 6653.049468994141, 6631.384372711182, 6835.722208023071, 6696.165323257446, 6842.421293258667, 6714.633941650391, 7080.1215171813965, 6862.264394760132, 6757.489204406738, 6516.685009002686, 6751.097679138184, 7047.9736328125, 6627.385377883911, 7212.035655975342, 6901.9060134887695, 6886.227369308472, 6937.651634216309, 6652.890920639038, 6728.461980819702, 6625.817537307739, 6604.625225067139, 6630.221605300903, 7013.38005065918, 6582.364797592163, 6626.370191574097, 7246.558666229248, 6882.344007492065, 7223.940134048462, 6783.900737762451, 7353.493690490723, 6591.09902381897, 6715.473413467407, 6653.688669204712, 6769.3023681640625, 6792.668581008911, 6943.7055587768555, 6610.084533691406, 6991.613388061523, 6680.952072143555, 6630.627632141113, 7007.298231124878, 6768.74852180481, 6663.421630859375, 6613.7940883636475, 6741.671562194824, 6883.014917373657, 6993.136644363403, 6595.658540725708, 6653.12123298645, 6623.919725418091, 6571.331262588501, 6570.843458175659, 6649.635076522827, 6572.044610977173],
  "Depth": 14.0,
  "Expectation Value": -0.878662109375,
  "Optimal Expectation Value": -1.0,
  "Optimizer durations [ms]": [38056.227, 47715.958, 20397.874, 19659.143, 30216.908, 29377.262, 20284.112, 30115.878, 20068.25, 20057.882, 21313.88, 40870.061, 19264.856, 18596.395, 40036.816, 27547.268, 22424.415, 20068.545, 30039.858, 21530.232, 21650.215, 17723.928, 29993.786, 19148.237, 40040.704, 20271.332, 19457.8, 20173.13, 20174.692, 21192.165, 20483.196, 18329.497, 19866.832, 20105.284, 20027.615, 20488.839, 19862.351, 19455.236, 20277.838, 19461.452, 20169.152, 20167.977, 19972.204, 19444.359, 20589.845, 19868.976, 20276.256, 20019.118, 27904.775, 22220.642, 29406.124, 137303.066, 32972.078, 39832.79, 19968.506, 20431.242, 19910.036, 19972.148, 19924.992, 20010.988, 20071.512, 19704.103, 20129.524, 20273.237, 19734.567, 19816.146, 27212.9, 22841.237, 20119.569, 20172.859, 19579.093, 20204.704, 20068.974, 20179.489, 19756.493, 29590.146, 20790.044, 19483.178, 20249.232, 19866.438, 20069.639, 20274.963, 19865.378, 20173.728, 30794.86],
  "Optimizer iterations": 85,
  "Optimizer params": [0.9008996434746014, 0.4116281931982546, 0.9151429265426433, 0.7862538217177906, 0.9958821023196426, 0.1680163499928189],
  "P": 3,
  "Problem": "MCP",
  "QJob durations [ms]": [25766.950845718384, 47605.003356933594, 20329.36668395996, 19598.27184677124, 30160.62879562378, 29328.41396331787, 20222.909450531006, 30055.620193481445, 19987.20383644104, 19977.05626487732, 21237.50114440918, 40787.20140457153, 19187.872648239136, 18514.48655128479, 39955.00469207764, 27465.439558029175, 22342.35692024231, 19997.21050262451, 29909.80291366577, 21486.545085906982, 21589.787483215332, 17661.112785339355, 29915.66228866577, 19071.05779647827, 39958.32657814026, 20199.562072753906, 19319.82159614563, 20113.22069168091, 20115.134477615356, 21113.709211349487, 20420.928478240967, 18248.689651489258, 19805.771589279175, 20022.966384887695, 19866.540908813477, 20419.80767250061, 19793.00880432129, 19390.372276306152, 20209.349393844604, 19404.726266860962, 20106.897354125977, 20085.89768409729, 19837.769508361816, 19367.6598072052, 20529.752492904663, 19801.894426345825, 20193.85838508606, 19957.440853118896, 27820.94383239746, 22136.701583862305, 29251.3325214386, 137220.61109542847, 32889.37473297119, 39748.2385635376, 19884.53483581543, 20355.167865753174, 19830.561876296997, 19903.60188484192, 19850.570678710938, 19948.718070983887, 19988.62338066101, 19626.04784965515, 20074.024438858032, 20216.46785736084, 19678.136110305786, 19752.97260284424, 27131.449699401855, 22702.61836051941, 20036.213636398315, 20088.12165260315, 19521.740913391113, 20122.95174598694, 19986.07087135315, 20105.957746505737, 19681.9806098938, 29432.335376739502, 20730.982303619385, 19400.07448196411, 20167.680978775024, 19782.593488693237, 19989.70341682434, 20190.65022468567, 19805.786848068237, 20006.068468093872, 30723.376989364624],
  "QPU": "4020010",
  "Qubits": 2,
  "Queue durations [ms]": [1175.0, 11718.0, 985.0, 1077.0, 1103.0, 415.0, 1205.0, 604.0, 832.0, 1006.0, 999.0, 9967.0, 1022.9999999999999, 1068.0, 13872.0, 1084.0, 582.0, 1624.0, 852.0, 757.0, 908.0, 872.0, 1380.0, 1132.0, 913.0, 888.0, 587.0, 926.0, 1165.0, 988.0, 912.0, 776.0, 708.0, 1134.0, 853.0, 2181.0, 833.0, 739.0, 1057.0, 840.0, 899.0, 872.0, 926.0, 2467.0, 968.0, 1108.0, 1027.0, 1356.0, 1047.0, 1046.0, 959.0, 988.0, 2855.0, 736.0, 843.0, 936.0, 971.0, 1156.0, 977.0, 562.0, 900.0, 741.0, 1018.0, 1219.0, 945.0, 830.0, 1189.0, 723.0, 643.0, 846.0, 922.0, 951.0, 884.0, 814.0, 824.0, 1074.0, 759.0, 811.0, 740.0, 679.0, 1085.0, 755.0, 724.0, 791.0, 808.0],
  "Shots": 4096,
  "Size": 2,
  "Total Algorithm duration [s]": 2067.213,
  "Total Classic duration [s]": 18.99443882751484,
  "Total Quantum duration [s]": 2048.2185611724854
}
