{
  "Depth": 2.0,
  "Job durations [ms]": [583.086371421814, 569.3858861923218, 563.4032487869263, 562.5178813934326, 555.6461811065674, 569.27490234375, 585.4605436325073, 562.7133846282959, 569.1635608673096, 568.2847499847412, 561.8352890014648, 557.3514699935913, 574.0458965301514, 559.238076210022, 553.9464950561523, 565.156102180481, 559.0245723724365, 563.1498098373413, 583.8754177093506, 562.2568130493164, 567.585825920105, 570.419430732727, 566.1929845809937, 725.7986068725586, 580.2160501480103, 558.8921308517456, 554.8709630966187, 563.9398097991943, 568.6521530151367, 561.616063117981, 585.8691930770874, 570.3836679458618, 719.4875478744507, 560.1316690444946, 562.0222091674805, 708.9337110519409, 574.3981599807739, 562.2872114181519, 575.7877826690674, 571.4788436889648, 556.5930604934692, 573.26340675354, 725.8092164993286, 556.2219619750977, 576.364278793335, 571.3893175125122, 716.2941694259644, 562.2897148132324, 583.9818716049194, 569.1841840744019, 556.4091205596924, 564.5684003829956, 554.7726154327393, 569.6423053741455, 587.9071950912476, 571.5162754058838, 558.8582754135132, 561.5534782409668, 567.7652359008789, 574.1357803344727, 582.4767351150513, 570.3017711639404, 564.4015073776245, 565.7168626785278, 722.9952812194824, 562.0089769363403, 572.2963809967041, 564.7491216659546, 568.9433813095093, 563.654899597168, 569.7594881057739, 560.9577894210815, 736.9914054870605, 558.721661567688, 566.1401748657227, 716.6153192520142, 568.6415433883667, 575.1439332962036, 573.2860565185547, 728.1266450881958, 568.1030750274658, 569.5767402648926, 562.5045299530029, 570.2874660491943, 584.5381021499634, 571.2599754333496, 569.0284967422485, 564.5303726196289, 555.4252862930298, 710.8417749404907, 574.8782157897949, 652.6216268539429, 622.6322650909424, 569.8947906494141, 566.2425756454468, 559.023380279541, 574.387788772583, 607.1792840957642, 667.555570602417, 569.0100193023682, 562.9388093948364, 712.0646238327026, 600.7940769195557, 581.1610221862793, 584.4348669052124, 567.5276517868042, 581.9101333618164, 569.2799091339111, 580.284833908081, 569.0208673477173, 562.1806383132935, 563.5833740234375, 569.5897340774536, 565.1106834411621, 582.5798511505127, 562.2446537017822, 558.7002038955688, 565.6827688217163, 564.1850233078003, 560.637354850769, 582.6722383499146, 568.3096647262573, 559.7959756851196, 570.1898336410522, 559.5500469207764, 568.630576133728, 728.3302545547485, 568.816065788269, 555.6066036224365, 562.8125667572021, 558.884859085083, 726.0497808456421, 586.3672494888306, 569.7134733200073, 562.4227523803711, 556.7198991775513, 559.4220161437988, 569.7958469390869, 578.5640478134155, 563.5244846343994, 553.7095069885254, 571.114182472229, 558.3349466323853, 555.1333427429199, 577.3160457611084, 568.5025453567505, 562.4386072158813, 571.0303783416748, 554.7949075698853],
  "Optimizer durations [ms]": [3697.687, 3636.321, 3591.989, 3669.404, 3561.383, 3626.525, 3654.48, 3652.105, 3571.971, 3601.96, 3596.22, 3591.113, 3583.69, 3599.058, 3574.738, 3659.488, 3574.858, 3610.768, 3675.189, 3645.394, 3613.815, 3647.529, 3597.777, 3949.591, 3633.618, 3609.955, 3588.745, 3592.11, 3637.842, 3638.278, 3661.698, 3635.983, 3880.756, 3621.429, 3639.715, 3866.008, 3640.06, 3599.433, 3636.994, 3658.419, 3535.951, 3633.055, 3970.454, 3562.375, 3662.23, 3682.872, 3873.923, 3596.883, 3666.272, 3657.462, 3553.174, 3635.516, 3535.128, 3656.423, 3707.837, 3646.031, 3591.617, 3595.379, 3651.918, 3656.654, 3661.648, 3652.756, 3607.15, 3644.17, 3941.097, 3606.412, 3669.867, 3569.277, 3649.893, 3627.876, 3631.793, 3600.276, 3917.922, 3744.78, 3592.145, 3914.578, 3706.58, 3646.02, 3662.818, 3902.282, 3611.79, 3612.135, 3645.904, 3630.455, 3609.021, 3669.157, 3638.72, 3613.859, 3530.654, 3890.936, 3591.122, 3802.272, 3816.07, 3614.797, 3582.439, 3533.191, 3578.121, 3644.945, 3897.994, 3499.905, 3390.432, 3952.014, 3461.342, 3558.24, 3500.038, 3455.542, 3593.011, 3412.155, 3608.977, 3628.651, 3414.747, 3633.185, 3604.178, 3401.269, 3712.564, 3594.612, 3348.965, 3651.361, 3587.524, 3390.435, 3660.546, 3535.81, 3476.655, 3640.601, 3594.197, 3584.922, 3927.291, 3597.434, 3568.271, 3624.705, 3574.909, 3937.792, 3717.247, 3602.773, 3567.247, 3556.309, 3605.308, 3615.238, 3683.276, 3576.496, 3528.516, 3630.587, 3585.947, 3585.31, 3655.285, 3633.389, 3580.758, 3632.419, 3618.705],
  "Optimizer iterations": 149,
  "Qubits": 8,
  "Total Algorithm duration [s]": 541.755,
  "Total Classic duration [s]": 454.88478541851043,
  "Total Quantum duration [s]": 86.87021458148956,
  "Expectation Value": -4.600367069244385,
  "Optimal Expectation Value": -4.610499858856201,
  "Optimizer params": [0.9918499033965803, 0.5040857793538892, 0.9747620901194511, 0.5004691751962507, 0.5016687589594276, 0.9999999999999999, 0.4963630853579359, 0.5269742815925638],
  "QPU": "6010003",
  "Problem": "RH",
  "Size": 8,
  "P": 0,
  "Shots": 4096
}