{
  "Depth": 2.0,
  "Job durations [ms]": [713.477611541748, 577.8331756591797, 559.6901178359985, 561.6070032119751, 560.6906414031982, 567.3112869262695, 566.8454170227051, 572.7325677871704, 569.4900751113892, 553.0250072479248, 559.0137243270874, 568.6901807785034, 570.9158182144165, 579.4925689697266, 562.0155334472656, 553.1148910522461, 572.8429555892944, 566.8083429336548, 561.0798597335815, 579.2863368988037, 562.5573396682739, 564.8672580718994, 558.151364326477, 560.5373382568359, 567.4421787261963, 579.9729824066162, 557.9125881195068, 560.1575374603271, 562.6949071884155, 569.0220594406128, 566.2111043930054, 574.6124982833862, 562.4611377716064, 570.2940225601196, 719.1740274429321, 556.9583177566528, 571.336030960083, 579.2242288589478, 569.4401264190674, 562.4487400054932, 570.9359645843506, 570.554256439209, 562.1720552444458, 582.4259519577026, 564.8146867752075, 570.2732801437378, 575.3110647201538, 567.0037269592285, 570.1637268066406, 578.7065029144287, 562.542200088501, 564.0912055969238, 792.6832437515259, 568.8378810882568, 574.3000507354736, 584.2403173446655, 557.4285984039307, 562.995433807373, 570.7701444625854, 567.9816007614136, 594.8467254638672, 689.8545026779175, 558.12668800354, 559.2547655105591, 577.6686668395996, 568.3610439300537, 571.2460279464722, 574.9019384384155, 559.6824884414673, 568.8955783843994, 553.7378787994385, 554.6128749847412, 561.6703033447266, 577.8670310974121, 565.8410787582397, 570.6270933151245, 551.3509511947632, 560.4010820388794, 569.6954727172852, 579.5351266860962, 566.1450624465942, 573.0117559432983, 714.5618200302124, 567.9453611373901, 570.0042247772217, 577.6689052581787, 570.2592134475708, 571.2258815765381, 561.3409280776978, 564.6871328353882, 561.1417293548584, 581.9661617279053, 560.4883432388306, 716.8205976486206, 572.9330778121948, 563.9733076095581, 561.2854957580566, 571.3528394699097, 569.5961713790894, 562.0697736740112, 564.366340637207, 554.7888278961182, 565.5382871627808],
  "Optimizer durations [ms]": [3847.188, 3630.862, 3643.233, 3580.803, 3576.124, 3675.345, 3601.743, 3602.679, 3610.661, 3595.692, 3581.281, 3604.427, 3621.502, 3639.606, 3649.356, 3537.602, 3616.239, 3591.419, 3623.151, 3620.877, 3611.783, 3617.148, 3588.673, 3549.7, 3627.827, 3620.911, 3569.525, 3614.086, 3561.943, 3613.805, 3658.473, 3597.3, 3574.345, 3655.041, 3921.486, 3529.064, 3636.808, 3629.104, 3637.45, 3637.868, 3631.049, 3633.232, 3561.365, 3645.546, 3593.596, 3599.851, 3648.816, 3594.587, 3671.258, 3640.72, 3603.945, 3646.767, 4057.463, 3621.192, 3641.998, 3638.298, 3567.96, 3578.65, 3683.379, 3628.09, 3650.008, 3851.4, 3554.34, 3565.309, 3633.186, 3681.517, 3603.967, 3628.63, 3603.756, 3585.401, 3592.255, 3545.569, 3616.932, 3631.564, 3593.406, 3598.33, 3526.788, 3630.645, 3614.91, 3595.544, 3645.489, 3643.299, 3887.823, 3625.783, 3627.037, 3650.657, 3625.635, 3650.953, 3624.217, 3635.877, 3556.734, 3621.871, 3582.026, 3972.43, 3588.292, 3585.931, 3625.778, 3591.673, 3614.453, 3589.85, 3620.274, 3520.544, 3582.945],
  "Optimizer iterations": 103,
  "Qubits": 8,
  "Total Algorithm duration [s]": 373.763,
  "Total Classic duration [s]": 314.3819806461334,
  "Total Quantum duration [s]": 59.38101935386658,
  "Expectation Value": -4.6008830070495605,
  "Optimal Expectation Value": -4.610499858856201,
  "Optimizer params": [0.9923494068656845, 0.48866344781901044, 0.9758248795996811, 0.5040410463514103, 0.4890183976414938, 0.9999999999999999, 0.4982161453266663, 0.48332674686616933],
  "QPU": "6010003",
  "Problem": "RH",
  "Size": 8,
  "P": 0,
  "Shots": 4096
}