{
  "Circuit execution durations [ms]": [0.20554999355226755, 0.19955000607296824, 0.20510000467766076, 0.2043999993475154, 0.23079999664332718, 0.2032999982475303, 0.20455000776564702, 0.2031499971053563, 0.20429999858606607, 0.21135000133654103, 0.2058000027318485, 0.23320000764215365, 0.20415000471984968, 0.2042499982053414, 0.2032999909715727, 0.20349999977042899, 0.20234999828971922, 0.21175000438233837, 0.20324999786680564, 0.1936999979079701, 0.2135500035365112, 0.20385000243550166, 0.20375000895000994, 0.20319999748608097, 0.2026999936788343, 0.2099999983329326, 0.23735000286251307, 0.2069999900413677, 0.2065499938908033, 0.2013000048464164, 0.20139999833190814, 0.21335000201361254, 0.23045000853016973, 0.20590000349329785, 0.24205000954680145, 0.20465000125113875, 0.20494999625952914, 0.19959999190177768, 0.20510000467766076, 0.20214999676682055, 0.22124999668449163, 0.20385000243550166, 0.20459999359445646, 0.20104999566683546, 0.20175000827293843, 0.2012999975704588, 0.20649999351007864, 0.23119999968912452, 0.3345000004628673, 0.21579999884124845, 0.20140000560786575, 0.21489999926416203, 0.3132499987259507, 0.24565000785514712, 0.34595000761328265, 0.20834999304497615, 0.20464999397518113, 0.20325000514276326, 0.2716999952099286, 0.23249999503605068, 0.24665000819368288, 0.20184999448247254, 0.25979999190894887, 0.24104999465635046, 0.20670000230893493, 0.23665000480832532, 0.3716999854077585, 0.14960000044084154, 0.20869999571004882, 0.23289999808184803, 0.20059999951627105, 0.3281499957665801, 0.20300000323913991, 0.17210000078193843, 0.21484999888343737, 0.30745000549359247, 0.1768000001902692, 0.20295001013437286, 0.2791499937302433, 0.28124999516876414, 0.20745000074384734, 0.1656499989621807, 0.1797500008251518, 0.37435000558616593, 0.15684999380027875, 0.16070000128820539, 0.33725000685080886, 0.17585000023245811, 0.2065499938908033, 0.2084500083583407, 0.20290000247769058, 0.20164999295957386, 0.20304999634390697, 0.20555000810418278, 0.1951000012923032, 0.20219999714754522, 0.2031499971053563, 0.20899999799439684, 0.20000000222353265, 0.20184999448247254, 0.20510000467766076, 0.20429999131010845, 0.2115500028594397, 0.20450000010896474, 0.20015000336570665, 0.2035999932559207, 0.22214999626157805, 0.2058000027318485, 0.21085000480525196, 0.20244999905116856, 0.21019999985583127, 0.20474999473663047, 0.20300000323913991, 0.2060999904642813, 0.20065000717295334, 0.20825000683544204, 0.19874999998137355, 0.2021000036620535, 0.20345000666566193, 0.20344999938970432, 0.20134999067522585, 0.19899999460903928, 0.20504999702097848, 0.20124999718973413, 0.20864999532932416, 0.20304999634390697, 0.20295000285841525, 0.19800000154646114, 0.20075000065844506, 0.19320000137668103, 0.2029999959631823, 0.20570000197039917, 0.20325000514276326, 0.20400000357767567, 0.2032000047620386, 0.20124999718973413, 0.20989999757148325, 0.21564999769907445, 0.20685000345110893, 0.206899996555876, 0.20065000717295334, 0.20044999837409705, 0.22834999253973365, 0.2053499993053265, 0.20285000937292352, 0.2020499960053712, 0.21334999473765492, 0.2052000054391101, 0.20200000290060416, 0.22625000565312803, 0.20235000556567684, 0.20309999672463164, 0.19904999498976395, 0.2032000047620386, 0.2011499964282848, 0.2101499994751066, 0.2097000033245422, 0.23119999968912452, 0.2035999932559207, 0.20125000446569175, 0.20665000192821026, 0.20399999630171806, 0.21380000544013456, 0.29370000993367285, 0.20679999579442665, 0.21654999727616087, 0.20385000243550166, 0.20234999828971922, 0.20924999262206256, 0.20450000010896474, 0.23209999926621094, 0.203650000912603, 0.2011499964282848, 0.20234999828971922, 0.2022500048042275, 0.20400000357767567, 0.24264999956358224, 0.22900000476511195, 0.20200000290060416, 0.20200000290060416, 0.19839999731630087, 0.20479999511735514, 0.2023999986704439, 0.20175000099698082, 0.22629999148193747, 0.2045500004896894, 0.19985000108135864, 0.20589999621734023, 0.20294999558245763, 0.20649999351007864, 0.20384999515954405, 0.23175000387709588, 0.3606000027502887, 0.15534999693045393, 0.3026999911526218, 0.2325000023120083, 0.20264999329810962, 0.20254999253666028, 0.20190000213915482, 0.20385000243550166, 0.2022499975282699, 0.21055000252090394, 0.2482999989297241, 0.20310000400058925, 0.20184999448247254, 0.19874999998137355, 0.20244999905116856, 0.20750000840052962, 0.20695000421255827, 0.23330000112764537, 0.20360000053187832, 0.2022499975282699, 0.20075000065844506, 0.20324999786680564, 0.20470000890782103, 0.24950000079115853, 0.21109999943291768, 0.21025000023655593, 0.20249999215593562, 0.2043999993475154, 0.20880000374745578, 0.2029999959631823, 0.1959000001079403, 0.20200000290060416, 0.203800002054777, 0.2008500014198944, 0.21600000036414713, 0.20370000129332766, 0.22614999033976346, 0.20775000302819535, 0.20219999714754522, 0.20205000328132883, 0.20260000019334257, 0.2020499960053712, 0.1995999991777353, 0.20370000129332766, 0.23130000045057386, 0.20244999177521095, 0.20680000307038426, 0.20265000057406723, 0.20330000552348793, 0.20209999638609588, 0.38204998418223113, 0.23149999469751492, 0.2062499988824129, 0.20860000950051472, 0.20724999194499105, 0.20344999938970432, 0.20209999638609588, 0.19785000040428713, 0.2312500000698492, 0.2014499987126328, 0.2022499975282699, 0.19959999190177768, 0.21179999748710543, 0.20154999219812453, 0.20039999799337238, 0.22629999875789508, 0.2016500075114891, 0.20775000302819535, 0.20179999410174787, 0.19979999342467636, 0.20059999951627105, 0.20139999105595052, 0.23245000193128362, 0.20570000197039917, 0.20819999917875975, 0.2097000033245422, 0.20694999693660066, 0.20104999566683546, 0.21009999909438193, 0.19869999960064888, 0.2230500031146221, 0.2021000036620535, 0.21319999359548092, 0.20930000755470246, 0.20854999456787482, 0.2318499973625876, 0.20685000345110893, 0.2063000065390952, 0.20045000565005466, 0.1976999919861555, 0.20200000290060416, 0.21529999503400177, 0.20344999938970432, 0.20180000137770548, 0.20050000603077933, 0.20175000099698082, 0.1999000014620833, 0.20135000522714108, 0.20709999807877466, 0.19869999232469127, 0.20645000040531158, 0.20105000294279307, 0.20305000361986458, 0.20005000260425732, 0.19875000725733116, 0.2013000048464164, 0.19799999427050352, 0.20545000006677583, 0.2005499991355464, 0.19999999494757503, 0.23955000506248325, 0.2049999966402538, 0.20464999397518113, 0.2037499943980947, 0.20219999714754522, 0.20510000467766076, 0.20015000336570665, 0.20060000679222867, 0.20634999964386225, 0.21869999181944877, 0.2028500020969659, 0.20419999782461673, 0.20370000129332766, 0.20760000188602135, 0.20339999900897965, 0.2056499943137169, 0.21345000277506188, 0.21135000133654103, 0.20760000188602135, 0.20105000294279307, 0.20529999892460182, 0.20704999769805, 0.20134999795118347, 0.23114999203244224, 0.2011499964282848, 0.2027000009547919, 0.2020499960053712, 0.19920000340789557, 0.22735000675311312, 0.20799999765586108, 0.21205000666668639, 0.2046999943559058, 0.203800002054777, 0.2050500042969361, 0.22220000391826034, 0.20090000180061907, 0.2315500023541972, 0.20235000556567684, 0.20870000298600644, 0.20545000734273344, 0.20179999410174787, 0.20504999702097848, 0.2032999982475303, 0.23209999199025333, 0.20899999799439684, 0.20105000294279307, 0.2132499939762056, 0.20434999896679074, 0.2032999909715727, 0.20884999685222283, 0.23005000548437238, 0.22390000231098384, 0.2031499971053563, 0.20135000522714108, 0.19984999380540103, 0.20164999295957386, 0.21289999858709052, 0.2070500049740076, 0.3328000020701438, 0.19995000184280798, 0.23269999655894935, 0.20289999520173296, 0.20049999875482172, 0.19905000226572156, 0.20049999875482172, 0.20570000924635679, 0.2007000002777204, 0.21179999748710543, 0.19654999778140336, 0.204250005481299, 0.20105000294279307, 0.2018999948631972, 0.2064500076812692, 0.20570000197039917, 0.2078500037896447, 0.23164999583968893, 0.20415000471984968, 0.20694999693660066, 0.20385000243550166, 0.21004999871365726, 0.21124999329913408, 0.20980000408599153, 0.2268999960506335, 0.20009999570902437, 0.20545000734273344, 0.2266000083182007, 0.20249999215593562, 0.2000499953282997, 0.21359999664127827, 0.20415000471984968, 0.2014499987126328, 0.2032999982475303, 0.20414999744389206, 0.2606999987619929, 0.20274999405955896, 0.20165000023553148, 0.20039999071741477, 0.20134999795118347, 0.24599999596830457, 0.20349999977042899, 0.2010000025620684, 0.21290000586304814, 0.23505000717705116, 0.20555000082822517, 0.20274999405955896, 0.19994999456685036, 0.17459999799029902, 0.20005000260425732, 0.23460000375052914, 0.20504999702097848, 0.2011500037042424, 0.20545000006677583, 0.2014499987126328, 0.20080000103916973, 0.20635000691981986, 0.23239999427460134, 0.20414999744389206, 0.19924999651266262, 0.20014999608974904, 0.2152500019292347, 0.20024999685119838, 0.22989999706624076, 0.2286000017193146, 0.20479999511735514, 0.34684999991441146, 0.20474999473663047, 0.20485000277403742, 0.20414999744389206, 0.22500000341096893, 0.20809999841731042, 0.21160000324016437, 0.2114000017172657, 0.2095500094583258, 0.2045500004896894, 0.20695000421255827, 0.19675000658025965, 0.20400000357767567, 0.20825000683544204, 0.20319999748608097, 0.2055000004475005, 0.20234999828971922, 0.2282999994349666, 0.21249999554129317, 0.20405000395840034, 0.20504999702097848, 0.20184999448247254, 0.20180000137770548, 0.20989999757148325, 0.2097000033245422, 0.23159999545896426, 0.20399999630171806, 0.20349999249447137, 0.20825000683544204, 0.2014499987126328, 0.20420000510057434, 0.22805000480730087, 0.229049997869879, 0.2104500017594546, 0.2040999970631674, 0.2023999986704439, 0.20869999571004882, 0.20289999520173296, 0.20429999858606607, 0.22494999575428665, 0.20324999786680564, 0.2020499960053712, 0.21009999909438193, 0.20334999862825498, 0.24780000967439264, 0.20760000188602135, 0.20134999067522585, 0.2021000036620535, 0.20459999359445646, 0.20825000683544204, 0.20175000099698082, 0.20235000556567684, 0.23209999926621094, 0.20390000281622633, 0.20124999718973413, 0.20165000023553148, 0.2011499964282848, 0.20745000074384734, 0.20969999604858458, 0.23215000692289323, 0.20539999968605116, 0.20599998970283195, 0.2073499927064404, 0.20494999625952914, 0.2023999986704439, 0.20784999651368707, 0.23055000201566145, 0.20154999947408214, 0.3557499876478687, 0.2884999994421378, 0.22015000286046416, 0.2019500025198795, 0.23329999385168776, 0.20265000785002485, 0.20220000442350283, 0.20379999477881938, 0.207500001124572, 0.20165000023553148, 0.21564999769907445, 0.20230000518495217, 0.21444999583764002, 0.19920000340789557, 0.20295000285841525, 0.22360000002663583, 0.20304999634390697, 0.2334000018890947, 0.20224999025231227, 0.20059999951627105, 0.20424999092938378, 0.20234999828971922, 0.20384999515954405, 0.20819999917875975, 0.20475000201258808, 0.23079999664332718, 0.20534999202936888, 0.20119999680900946, 0.21845000446774065, 0.2029999959631823, 0.20339999900897965, 0.2055000004475005, 0.20519999816315249, 0.2042499982053414, 0.20230000518495217, 0.28169999859528616, 0.23254999541677535, 0.20444999972824007, 0.20464999397518113, 0.28145000396762043, 0.20270000823074952, 0.20120000408496708, 0.19704999431269243, 0.23285000497708097, 0.2858500010916032, 0.20470000890782103, 0.2014499987126328, 0.19610000163083896, 0.20429999858606607, 0.26929999876301736, 0.18119999731425196, 0.20935000065946952, 0.24685000244062394, 0.2175999979954213, 0.2798000059556216, 0.2015999925788492, 0.1987999930861406, 0.27245000092079863, 0.2032999909715727, 0.2718999967328273, 0.20504999702097848, 0.2024000059464015, 0.24499999562976882, 0.20190000213915482, 0.20049999875482172, 0.3322500051581301, 0.19994999456685036, 0.2479999966453761, 0.20364999363664538, 0.20330000552348793, 0.1590999963809736, 0.30810000316705555, 0.21460000425577164, 0.20419999782461673, 0.23304999194806442, 0.20419999782461673, 0.20509999740170315, 0.2028500020969659, 0.20215000404277816, 0.2016500075114891, 0.20154999947408214, 0.1995999991777353, 0.20274999405955896, 0.20355000015115365, 0.2151000007870607, 0.2012999975704588, 0.22259999968810007, 0.20180000137770548, 0.20184999448247254, 0.2240999965579249, 0.20010000298498198, 0.20424999092938378, 0.20029998995596543, 0.2007000002777204, 0.2321499996469356, 0.2019500025198795, 0.23519999376730993, 0.20880000374745578, 0.20610000501619652, 0.22319999698083848, 0.19904999498976395, 0.20940000104019418, 0.24140000459738076, 0.20844999380642548, 0.2167999991797842, 0.21489999926416203, 0.20604999735951424, 0.22059999173507094, 0.2060999977402389, 0.2032999982475303, 0.2096499956678599, 0.2027000009547919, 0.20349999977042899, 0.2011500037042424, 0.20589999621734023, 0.21410000044852495, 0.2048499954980798, 0.20884999685222283, 0.2033500059042126, 0.203800002054777, 0.22315000387607142, 0.20340000628493726, 0.1994499980355613, 0.21475000539794564, 0.21859999833395705, 0.2032999909715727, 0.20390000281622633, 0.20539999968605116, 0.20205000328132883, 0.1969499935512431, 0.2082499922835268, 0.20230000518495217, 0.20095000218134373, 0.20059999951627105, 0.20180000137770548, 0.2009999952861108, 0.23659999715164304, 0.20000000222353265, 0.20245000632712618, 0.2035000070463866, 0.2009999952861108, 0.20264999329810962, 0.20515000505838543, 0.20149999181739986, 0.20465000125113875, 0.20670000230893493, 0.20245000632712618, 0.2136999974027276, 0.22000000899424776, 0.20714999845949933, 0.20650000078603625, 0.2034499921137467, 0.2046999943559058, 0.20415000471984968],
  "Depth": 2.0,
  "Expectation Value": -8.160689353942871,
  "Optimal Expectation Value": -8.16510009765625,
  "Optimizer durations [ms]": [9.802, 5.792, 5.79, 5.846, 6.222, 5.876, 5.832, 5.709, 5.831, 5.801, 5.777, 6.059, 5.874, 5.654, 5.832, 5.754, 5.786, 5.937, 5.777, 6.055, 5.918, 5.683, 5.821, 5.765, 5.666, 5.853, 6.374, 5.683, 5.798, 5.709, 5.759, 6.032, 6.437, 5.891, 6.265, 5.803, 15.159, 12.083, 10.587, 5.742, 5.893, 13.116, 6.317, 5.686, 5.7, 5.719, 10.548, 6.229, 17.933, 6.043, 10.57, 15.404, 17.1, 6.572, 16.987, 8.962, 5.741, 5.752, 6.825, 6.575, 11.629, 5.721, 6.937, 6.291, 5.739, 7.255, 9.003, 15.247, 8.892, 6.265, 6.475, 16.468, 5.731, 7.311, 11.61, 20.14, 16.435, 5.812, 7.004, 7.379, 20.145, 10.88, 16.573, 9.235, 19.506, 19.598, 23.619, 15.127, 6.107, 5.781, 5.725, 5.732, 5.734, 5.863, 6.08, 5.791, 5.725, 5.811, 5.76, 5.727, 5.771, 5.751, 6.1, 5.804, 5.769, 5.801, 5.969, 5.887, 5.735, 6.056, 5.693, 5.817, 5.822, 5.695, 5.747, 5.709, 6.355, 5.832, 5.777, 5.863, 5.719, 5.748, 5.872, 5.767, 5.813, 5.785, 5.683, 5.716, 5.726, 6.285, 5.742, 5.895, 6.698, 5.724, 5.806, 5.791, 6.659, 6.001, 5.849, 5.746, 5.754, 5.724, 6.105, 5.913, 5.816, 5.693, 5.819, 5.852, 5.711, 6.033, 5.975, 5.712, 5.718, 5.709, 5.758, 5.761, 5.875, 6.039, 5.765, 5.745, 5.841, 6.473, 6.13, 7.556, 6.223, 5.751, 5.764, 5.816, 5.89, 5.763, 6.325, 5.722, 5.735, 5.802, 5.737, 5.866, 6.238, 6.229, 5.762, 5.713, 5.724, 5.938, 5.719, 5.704, 6.086, 5.751, 5.763, 5.761, 5.796, 5.854, 5.839, 6.253, 8.344, 19.305, 8.159, 6.246, 5.799, 5.723, 5.697, 5.812, 5.71, 5.942, 6.781, 5.777, 5.881, 5.643, 5.765, 5.893, 5.711, 6.265, 5.673, 5.688, 5.776, 5.689, 5.696, 6.475, 6.1, 5.936, 5.764, 5.736, 5.8, 5.73, 6.018, 5.752, 5.796, 5.777, 5.946, 5.7, 6.09, 5.874, 5.871, 5.8, 5.814, 5.74, 5.767, 5.741, 6.072, 5.783, 5.716, 5.749, 5.694, 5.732, 8.986, 6.232, 5.953, 5.862, 5.9, 5.809, 5.736, 6.473, 6.228, 5.819, 5.72, 5.711, 5.98, 5.736, 5.783, 6.176, 5.745, 5.807, 5.736, 5.701, 5.809, 5.752, 6.427, 5.817, 5.866, 5.836, 5.817, 5.736, 5.875, 5.687, 6.115, 5.848, 5.925, 5.834, 5.983, 6.361, 5.789, 5.809, 5.804, 5.743, 5.84, 5.985, 5.917, 5.763, 5.671, 5.83, 6.481, 5.718, 5.877, 5.727, 5.76, 5.691, 5.742, 5.694, 5.656, 5.71, 5.765, 5.821, 5.786, 5.776, 6.321, 5.796, 5.782, 5.855, 5.74, 5.729, 5.732, 5.703, 5.791, 5.825, 5.751, 5.799, 5.798, 5.835, 5.705, 5.895, 6.063, 5.871, 5.821, 5.717, 5.797, 5.826, 5.726, 6.207, 5.746, 5.72, 5.747, 5.591, 5.939, 10.919, 9.924, 5.824, 5.742, 6.302, 6.053, 5.78, 6.221, 5.718, 5.806, 5.815, 5.72, 5.73, 5.764, 6.297, 5.896, 5.703, 5.908, 5.838, 5.718, 5.813, 6.293, 6.163, 5.728, 5.758, 5.772, 5.8, 6.042, 18.824, 9.7, 6.428, 6.242, 5.689, 5.701, 5.648, 5.722, 5.924, 5.698, 6.007, 6.275, 5.747, 5.775, 5.725, 5.848, 5.889, 5.77, 6.254, 5.832, 5.785, 5.829, 5.85, 5.912, 5.881, 6.177, 6.666, 5.737, 6.032, 5.764, 5.777, 5.927, 5.814, 5.877, 5.795, 5.832, 6.802, 5.925, 5.766, 5.752, 5.751, 6.497, 5.818, 5.696, 5.895, 6.508, 5.879, 5.848, 5.844, 8.032, 6.022, 6.375, 5.849, 5.773, 5.775, 5.804, 5.809, 5.758, 6.193, 5.774, 5.84, 5.777, 5.945, 5.774, 6.562, 6.385, 5.891, 8.353, 5.808, 5.781, 5.833, 6.339, 5.91, 5.698, 5.775, 6.004, 5.841, 5.939, 6.116, 5.799, 5.928, 5.81, 5.829, 5.809, 6.061, 5.815, 5.846, 5.825, 5.828, 5.729, 5.836, 5.832, 6.287, 5.809, 5.762, 5.911, 5.763, 5.786, 6.223, 6.107, 5.904, 5.903, 5.74, 5.856, 5.78, 5.81, 5.96, 5.787, 5.851, 6.046, 5.865, 6.693, 5.845, 5.77, 5.73, 5.738, 5.761, 5.774, 5.803, 6.576, 5.816, 5.784, 5.777, 5.719, 5.89, 5.924, 6.072, 5.836, 5.866, 5.874, 5.851, 5.797, 5.923, 6.264, 5.761, 8.737, 7.277, 6.126, 5.789, 6.311, 5.792, 5.765, 5.821, 5.863, 5.823, 5.969, 5.692, 5.775, 5.726, 5.767, 7.128, 5.864, 6.274, 5.813, 5.818, 5.872, 5.771, 5.772, 5.873, 5.723, 6.285, 5.831, 5.757, 6.065, 5.744, 5.972, 9.767, 5.907, 5.869, 5.839, 7.444, 12.051, 5.836, 5.999, 7.249, 5.795, 5.836, 5.717, 6.155, 7.432, 5.755, 5.744, 5.797, 5.738, 7.017, 20.647, 5.864, 6.624, 6.085, 7.297, 5.778, 5.643, 6.907, 5.817, 7.122, 17.813, 5.731, 6.482, 5.798, 5.771, 8.197, 5.841, 6.776, 5.876, 5.826, 23.096, 8.487, 10.571, 5.896, 6.458, 5.709, 5.855, 5.759, 5.815, 5.724, 5.745, 5.745, 5.698, 5.844, 5.95, 5.745, 6.19, 5.817, 5.763, 6.224, 5.742, 5.807, 5.818, 5.688, 6.403, 5.775, 6.373, 5.922, 5.92, 5.867, 5.717, 5.934, 6.3, 5.722, 5.878, 5.829, 5.92, 6.044, 5.854, 6.523, 5.975, 5.817, 5.903, 5.882, 5.878, 6.15, 5.816, 5.893, 5.807, 5.759, 5.92, 5.823, 6.351, 5.953, 6.018, 5.731, 5.844, 5.851, 5.829, 5.693, 5.87, 5.753, 5.851, 5.702, 5.83, 5.788, 6.789, 5.74, 5.786, 5.848, 5.909, 5.843, 5.848, 5.786, 5.759, 5.823, 5.75, 5.837, 6.059, 5.821, 5.952, 5.799, 5.802, 5.837],
  "Optimizer iterations": 648,
  "Optimizer params": [0.9977742066442493, 0.49818807448038976, 0.002815319830418892, 0.49543556464190475, 0.5016156137571387, 0.9975531261426053, 0.4985171553051987, 0.5037975180601931, 0.9988011180601151, 0.5266914665872031, 0.998735973640327, 0.004147931913162782, 0.004752878955749183],
  "P": 0,
  "Problem": "RH",
  "QJob durations [ms]": [0.20554999355226755, 0.19955000607296824, 0.20510000467766076, 0.2043999993475154, 0.23079999664332718, 0.2032999982475303, 0.20455000776564702, 0.2031499971053563, 0.20429999858606607, 0.21135000133654103, 0.2058000027318485, 0.23320000764215365, 0.20415000471984968, 0.2042499982053414, 0.2032999909715727, 0.20349999977042899, 0.20234999828971922, 0.21175000438233837, 0.20324999786680564, 0.1936999979079701, 0.2135500035365112, 0.20385000243550166, 0.20375000895000994, 0.20319999748608097, 0.2026999936788343, 0.2099999983329326, 0.23735000286251307, 0.2069999900413677, 0.2065499938908033, 0.2013000048464164, 0.20139999833190814, 0.21335000201361254, 0.23045000853016973, 0.20590000349329785, 0.24205000954680145, 0.20465000125113875, 0.20494999625952914, 0.19959999190177768, 0.20510000467766076, 0.20214999676682055, 0.22124999668449163, 0.20385000243550166, 0.20459999359445646, 0.20104999566683546, 0.20175000827293843, 0.2012999975704588, 0.20649999351007864, 0.23119999968912452, 0.3345000004628673, 0.21579999884124845, 0.20140000560786575, 0.21489999926416203, 0.3132499987259507, 0.24565000785514712, 0.34595000761328265, 0.20834999304497615, 0.20464999397518113, 0.20325000514276326, 0.2716999952099286, 0.23249999503605068, 0.24665000819368288, 0.20184999448247254, 0.25979999190894887, 0.24104999465635046, 0.20670000230893493, 0.23665000480832532, 0.3716999854077585, 0.14960000044084154, 0.20869999571004882, 0.23289999808184803, 0.20059999951627105, 0.3281499957665801, 0.20300000323913991, 0.17210000078193843, 0.21484999888343737, 0.30745000549359247, 0.1768000001902692, 0.20295001013437286, 0.2791499937302433, 0.28124999516876414, 0.20745000074384734, 0.1656499989621807, 0.1797500008251518, 0.37435000558616593, 0.15684999380027875, 0.16070000128820539, 0.33725000685080886, 0.17585000023245811, 0.2065499938908033, 0.2084500083583407, 0.20290000247769058, 0.20164999295957386, 0.20304999634390697, 0.20555000810418278, 0.1951000012923032, 0.20219999714754522, 0.2031499971053563, 0.20899999799439684, 0.20000000222353265, 0.20184999448247254, 0.20510000467766076, 0.20429999131010845, 0.2115500028594397, 0.20450000010896474, 0.20015000336570665, 0.2035999932559207, 0.22214999626157805, 0.2058000027318485, 0.21085000480525196, 0.20244999905116856, 0.21019999985583127, 0.20474999473663047, 0.20300000323913991, 0.2060999904642813, 0.20065000717295334, 0.20825000683544204, 0.19874999998137355, 0.2021000036620535, 0.20345000666566193, 0.20344999938970432, 0.20134999067522585, 0.19899999460903928, 0.20504999702097848, 0.20124999718973413, 0.20864999532932416, 0.20304999634390697, 0.20295000285841525, 0.19800000154646114, 0.20075000065844506, 0.19320000137668103, 0.2029999959631823, 0.20570000197039917, 0.20325000514276326, 0.20400000357767567, 0.2032000047620386, 0.20124999718973413, 0.20989999757148325, 0.21564999769907445, 0.20685000345110893, 0.206899996555876, 0.20065000717295334, 0.20044999837409705, 0.22834999253973365, 0.2053499993053265, 0.20285000937292352, 0.2020499960053712, 0.21334999473765492, 0.2052000054391101, 0.20200000290060416, 0.22625000565312803, 0.20235000556567684, 0.20309999672463164, 0.19904999498976395, 0.2032000047620386, 0.2011499964282848, 0.2101499994751066, 0.2097000033245422, 0.23119999968912452, 0.2035999932559207, 0.20125000446569175, 0.20665000192821026, 0.20399999630171806, 0.21380000544013456, 0.29370000993367285, 0.20679999579442665, 0.21654999727616087, 0.20385000243550166, 0.20234999828971922, 0.20924999262206256, 0.20450000010896474, 0.23209999926621094, 0.203650000912603, 0.2011499964282848, 0.20234999828971922, 0.2022500048042275, 0.20400000357767567, 0.24264999956358224, 0.22900000476511195, 0.20200000290060416, 0.20200000290060416, 0.19839999731630087, 0.20479999511735514, 0.2023999986704439, 0.20175000099698082, 0.22629999148193747, 0.2045500004896894, 0.19985000108135864, 0.20589999621734023, 0.20294999558245763, 0.20649999351007864, 0.20384999515954405, 0.23175000387709588, 0.3606000027502887, 0.15534999693045393, 0.3026999911526218, 0.2325000023120083, 0.20264999329810962, 0.20254999253666028, 0.20190000213915482, 0.20385000243550166, 0.2022499975282699, 0.21055000252090394, 0.2482999989297241, 0.20310000400058925, 0.20184999448247254, 0.19874999998137355, 0.20244999905116856, 0.20750000840052962, 0.20695000421255827, 0.23330000112764537, 0.20360000053187832, 0.2022499975282699, 0.20075000065844506, 0.20324999786680564, 0.20470000890782103, 0.24950000079115853, 0.21109999943291768, 0.21025000023655593, 0.20249999215593562, 0.2043999993475154, 0.20880000374745578, 0.2029999959631823, 0.1959000001079403, 0.20200000290060416, 0.203800002054777, 0.2008500014198944, 0.21600000036414713, 0.20370000129332766, 0.22614999033976346, 0.20775000302819535, 0.20219999714754522, 0.20205000328132883, 0.20260000019334257, 0.2020499960053712, 0.1995999991777353, 0.20370000129332766, 0.23130000045057386, 0.20244999177521095, 0.20680000307038426, 0.20265000057406723, 0.20330000552348793, 0.20209999638609588, 0.38204998418223113, 0.23149999469751492, 0.2062499988824129, 0.20860000950051472, 0.20724999194499105, 0.20344999938970432, 0.20209999638609588, 0.19785000040428713, 0.2312500000698492, 0.2014499987126328, 0.2022499975282699, 0.19959999190177768, 0.21179999748710543, 0.20154999219812453, 0.20039999799337238, 0.22629999875789508, 0.2016500075114891, 0.20775000302819535, 0.20179999410174787, 0.19979999342467636, 0.20059999951627105, 0.20139999105595052, 0.23245000193128362, 0.20570000197039917, 0.20819999917875975, 0.2097000033245422, 0.20694999693660066, 0.20104999566683546, 0.21009999909438193, 0.19869999960064888, 0.2230500031146221, 0.2021000036620535, 0.21319999359548092, 0.20930000755470246, 0.20854999456787482, 0.2318499973625876, 0.20685000345110893, 0.2063000065390952, 0.20045000565005466, 0.1976999919861555, 0.20200000290060416, 0.21529999503400177, 0.20344999938970432, 0.20180000137770548, 0.20050000603077933, 0.20175000099698082, 0.1999000014620833, 0.20135000522714108, 0.20709999807877466, 0.19869999232469127, 0.20645000040531158, 0.20105000294279307, 0.20305000361986458, 0.20005000260425732, 0.19875000725733116, 0.2013000048464164, 0.19799999427050352, 0.20545000006677583, 0.2005499991355464, 0.19999999494757503, 0.23955000506248325, 0.2049999966402538, 0.20464999397518113, 0.2037499943980947, 0.20219999714754522, 0.20510000467766076, 0.20015000336570665, 0.20060000679222867, 0.20634999964386225, 0.21869999181944877, 0.2028500020969659, 0.20419999782461673, 0.20370000129332766, 0.20760000188602135, 0.20339999900897965, 0.2056499943137169, 0.21345000277506188, 0.21135000133654103, 0.20760000188602135, 0.20105000294279307, 0.20529999892460182, 0.20704999769805, 0.20134999795118347, 0.23114999203244224, 0.2011499964282848, 0.2027000009547919, 0.2020499960053712, 0.19920000340789557, 0.22735000675311312, 0.20799999765586108, 0.21205000666668639, 0.2046999943559058, 0.203800002054777, 0.2050500042969361, 0.22220000391826034, 0.20090000180061907, 0.2315500023541972, 0.20235000556567684, 0.20870000298600644, 0.20545000734273344, 0.20179999410174787, 0.20504999702097848, 0.2032999982475303, 0.23209999199025333, 0.20899999799439684, 0.20105000294279307, 0.2132499939762056, 0.20434999896679074, 0.2032999909715727, 0.20884999685222283, 0.23005000548437238, 0.22390000231098384, 0.2031499971053563, 0.20135000522714108, 0.19984999380540103, 0.20164999295957386, 0.21289999858709052, 0.2070500049740076, 0.3328000020701438, 0.19995000184280798, 0.23269999655894935, 0.20289999520173296, 0.20049999875482172, 0.19905000226572156, 0.20049999875482172, 0.20570000924635679, 0.2007000002777204, 0.21179999748710543, 0.19654999778140336, 0.204250005481299, 0.20105000294279307, 0.2018999948631972, 0.2064500076812692, 0.20570000197039917, 0.2078500037896447, 0.23164999583968893, 0.20415000471984968, 0.20694999693660066, 0.20385000243550166, 0.21004999871365726, 0.21124999329913408, 0.20980000408599153, 0.2268999960506335, 0.20009999570902437, 0.20545000734273344, 0.2266000083182007, 0.20249999215593562, 0.2000499953282997, 0.21359999664127827, 0.20415000471984968, 0.2014499987126328, 0.2032999982475303, 0.20414999744389206, 0.2606999987619929, 0.20274999405955896, 0.20165000023553148, 0.20039999071741477, 0.20134999795118347, 0.24599999596830457, 0.20349999977042899, 0.2010000025620684, 0.21290000586304814, 0.23505000717705116, 0.20555000082822517, 0.20274999405955896, 0.19994999456685036, 0.17459999799029902, 0.20005000260425732, 0.23460000375052914, 0.20504999702097848, 0.2011500037042424, 0.20545000006677583, 0.2014499987126328, 0.20080000103916973, 0.20635000691981986, 0.23239999427460134, 0.20414999744389206, 0.19924999651266262, 0.20014999608974904, 0.2152500019292347, 0.20024999685119838, 0.22989999706624076, 0.2286000017193146, 0.20479999511735514, 0.34684999991441146, 0.20474999473663047, 0.20485000277403742, 0.20414999744389206, 0.22500000341096893, 0.20809999841731042, 0.21160000324016437, 0.2114000017172657, 0.2095500094583258, 0.2045500004896894, 0.20695000421255827, 0.19675000658025965, 0.20400000357767567, 0.20825000683544204, 0.20319999748608097, 0.2055000004475005, 0.20234999828971922, 0.2282999994349666, 0.21249999554129317, 0.20405000395840034, 0.20504999702097848, 0.20184999448247254, 0.20180000137770548, 0.20989999757148325, 0.2097000033245422, 0.23159999545896426, 0.20399999630171806, 0.20349999249447137, 0.20825000683544204, 0.2014499987126328, 0.20420000510057434, 0.22805000480730087, 0.229049997869879, 0.2104500017594546, 0.2040999970631674, 0.2023999986704439, 0.20869999571004882, 0.20289999520173296, 0.20429999858606607, 0.22494999575428665, 0.20324999786680564, 0.2020499960053712, 0.21009999909438193, 0.20334999862825498, 0.24780000967439264, 0.20760000188602135, 0.20134999067522585, 0.2021000036620535, 0.20459999359445646, 0.20825000683544204, 0.20175000099698082, 0.20235000556567684, 0.23209999926621094, 0.20390000281622633, 0.20124999718973413, 0.20165000023553148, 0.2011499964282848, 0.20745000074384734, 0.20969999604858458, 0.23215000692289323, 0.20539999968605116, 0.20599998970283195, 0.2073499927064404, 0.20494999625952914, 0.2023999986704439, 0.20784999651368707, 0.23055000201566145, 0.20154999947408214, 0.3557499876478687, 0.2884999994421378, 0.22015000286046416, 0.2019500025198795, 0.23329999385168776, 0.20265000785002485, 0.20220000442350283, 0.20379999477881938, 0.207500001124572, 0.20165000023553148, 0.21564999769907445, 0.20230000518495217, 0.21444999583764002, 0.19920000340789557, 0.20295000285841525, 0.22360000002663583, 0.20304999634390697, 0.2334000018890947, 0.20224999025231227, 0.20059999951627105, 0.20424999092938378, 0.20234999828971922, 0.20384999515954405, 0.20819999917875975, 0.20475000201258808, 0.23079999664332718, 0.20534999202936888, 0.20119999680900946, 0.21845000446774065, 0.2029999959631823, 0.20339999900897965, 0.2055000004475005, 0.20519999816315249, 0.2042499982053414, 0.20230000518495217, 0.28169999859528616, 0.23254999541677535, 0.20444999972824007, 0.20464999397518113, 0.28145000396762043, 0.20270000823074952, 0.20120000408496708, 0.19704999431269243, 0.23285000497708097, 0.2858500010916032, 0.20470000890782103, 0.2014499987126328, 0.19610000163083896, 0.20429999858606607, 0.26929999876301736, 0.18119999731425196, 0.20935000065946952, 0.24685000244062394, 0.2175999979954213, 0.2798000059556216, 0.2015999925788492, 0.1987999930861406, 0.27245000092079863, 0.2032999909715727, 0.2718999967328273, 0.20504999702097848, 0.2024000059464015, 0.24499999562976882, 0.20190000213915482, 0.20049999875482172, 0.3322500051581301, 0.19994999456685036, 0.2479999966453761, 0.20364999363664538, 0.20330000552348793, 0.1590999963809736, 0.30810000316705555, 0.21460000425577164, 0.20419999782461673, 0.23304999194806442, 0.20419999782461673, 0.20509999740170315, 0.2028500020969659, 0.20215000404277816, 0.2016500075114891, 0.20154999947408214, 0.1995999991777353, 0.20274999405955896, 0.20355000015115365, 0.2151000007870607, 0.2012999975704588, 0.22259999968810007, 0.20180000137770548, 0.20184999448247254, 0.2240999965579249, 0.20010000298498198, 0.20424999092938378, 0.20029998995596543, 0.2007000002777204, 0.2321499996469356, 0.2019500025198795, 0.23519999376730993, 0.20880000374745578, 0.20610000501619652, 0.22319999698083848, 0.19904999498976395, 0.20940000104019418, 0.24140000459738076, 0.20844999380642548, 0.2167999991797842, 0.21489999926416203, 0.20604999735951424, 0.22059999173507094, 0.2060999977402389, 0.2032999982475303, 0.2096499956678599, 0.2027000009547919, 0.20349999977042899, 0.2011500037042424, 0.20589999621734023, 0.21410000044852495, 0.2048499954980798, 0.20884999685222283, 0.2033500059042126, 0.203800002054777, 0.22315000387607142, 0.20340000628493726, 0.1994499980355613, 0.21475000539794564, 0.21859999833395705, 0.2032999909715727, 0.20390000281622633, 0.20539999968605116, 0.20205000328132883, 0.1969499935512431, 0.2082499922835268, 0.20230000518495217, 0.20095000218134373, 0.20059999951627105, 0.20180000137770548, 0.2009999952861108, 0.23659999715164304, 0.20000000222353265, 0.20245000632712618, 0.2035000070463866, 0.2009999952861108, 0.20264999329810962, 0.20515000505838543, 0.20149999181739986, 0.20465000125113875, 0.20670000230893493, 0.20245000632712618, 0.2136999974027276, 0.22000000899424776, 0.20714999845949933, 0.20650000078603625, 0.2034499921137467, 0.2046999943559058, 0.20415000471984968],
  "QPU": "7000000",
  "Qubits": 13,
  "Queue durations [ms]": [0.0, 0.0, 0.0, 0.0, 0.0, 0.0, 0.0, 0.0, 0.0, 0.0, 0.0, 0.0, 0.0, 0.0, 0.0, 0.0, 0.0, 0.0, 0.0, 0.0, 0.0, 0.0, 0.0, 0.0, 0.0, 0.0, 0.0, 0.0, 0.0, 0.0, 0.0, 0.0, 0.0, 0.0, 0.0, 0.0, 0.0, 0.0, 0.0, 0.0, 0.0, 0.0, 0.0, 0.0, 0.0, 0.0, 0.0, 0.0, 0.0, 0.0, 0.0, 0.0, 0.0, 0.0, 0.0, 0.0, 0.0, 0.0, 0.0, 0.0, 0.0, 0.0, 0.0, 0.0, 0.0, 0.0, 0.0, 0.0, 0.0, 0.0, 0.0, 0.0, 0.0, 0.0, 0.0, 0.0, 0.0, 0.0, 0.0, 0.0, 0.0, 0.0, 0.0, 0.0, 0.0, 0.0, 0.0, 0.0, 0.0, 0.0, 0.0, 0.0, 0.0, 0.0, 0.0, 0.0, 0.0, 0.0, 0.0, 0.0, 0.0, 0.0, 0.0, 0.0, 0.0, 0.0, 0.0, 0.0, 0.0, 0.0, 0.0, 0.0, 0.0, 0.0, 0.0, 0.0, 0.0, 0.0, 0.0, 0.0, 0.0, 0.0, 0.0, 0.0, 0.0, 0.0, 0.0, 0.0, 0.0, 0.0, 0.0, 0.0, 0.0, 0.0, 0.0, 0.0, 0.0, 0.0, 0.0, 0.0, 0.0, 0.0, 0.0, 0.0, 0.0, 0.0, 0.0, 0.0, 0.0, 0.0, 0.0, 0.0, 0.0, 0.0, 0.0, 0.0, 0.0, 0.0, 0.0, 0.0, 0.0, 0.0, 0.0, 0.0, 0.0, 0.0, 0.0, 0.0, 0.0, 0.0, 0.0, 0.0, 0.0, 0.0, 0.0, 0.0, 0.0, 0.0, 0.0, 0.0, 0.0, 0.0, 0.0, 0.0, 0.0, 0.0, 0.0, 0.0, 0.0, 0.0, 0.0, 0.0, 0.0, 0.0, 0.0, 0.0, 0.0, 0.0, 0.0, 0.0, 0.0, 0.0, 0.0, 0.0, 0.0, 0.0, 0.0, 0.0, 0.0, 0.0, 0.0, 0.0, 0.0, 0.0, 0.0, 0.0, 0.0, 0.0, 0.0, 0.0, 0.0, 0.0, 0.0, 0.0, 0.0, 0.0, 0.0, 0.0, 0.0, 0.0, 0.0, 0.0, 0.0, 0.0, 0.0, 0.0, 0.0, 0.0, 0.0, 0.0, 0.0, 0.0, 0.0, 0.0, 0.0, 0.0, 0.0, 0.0, 0.0, 0.0, 0.0, 0.0, 0.0, 0.0, 0.0, 0.0, 0.0, 0.0, 0.0, 0.0, 0.0, 0.0, 0.0, 0.0, 0.0, 0.0, 0.0, 0.0, 0.0, 0.0, 0.0, 0.0, 0.0, 0.0, 0.0, 0.0, 0.0, 0.0, 0.0, 0.0, 0.0, 0.0, 0.0, 0.0, 0.0, 0.0, 0.0, 0.0, 0.0, 0.0, 0.0, 0.0, 0.0, 0.0, 0.0, 0.0, 0.0, 0.0, 0.0, 0.0, 0.0, 0.0, 0.0, 0.0, 0.0, 0.0, 0.0, 0.0, 0.0, 0.0, 0.0, 0.0, 0.0, 0.0, 0.0, 0.0, 0.0, 0.0, 0.0, 0.0, 0.0, 0.0, 0.0, 0.0, 0.0, 0.0, 0.0, 0.0, 0.0, 0.0, 0.0, 0.0, 0.0, 0.0, 0.0, 0.0, 0.0, 0.0, 0.0, 0.0, 0.0, 0.0, 0.0, 0.0, 0.0, 0.0, 0.0, 0.0, 0.0, 0.0, 0.0, 0.0, 0.0, 0.0, 0.0, 0.0, 0.0, 0.0, 0.0, 0.0, 0.0, 0.0, 0.0, 0.0, 0.0, 0.0, 0.0, 0.0, 0.0, 0.0, 0.0, 0.0, 0.0, 0.0, 0.0, 0.0, 0.0, 0.0, 0.0, 0.0, 0.0, 0.0, 0.0, 0.0, 0.0, 0.0, 0.0, 0.0, 0.0, 0.0, 0.0, 0.0, 0.0, 0.0, 0.0, 0.0, 0.0, 0.0, 0.0, 0.0, 0.0, 0.0, 0.0, 0.0, 0.0, 0.0, 0.0, 0.0, 0.0, 0.0, 0.0, 0.0, 0.0, 0.0, 0.0, 0.0, 0.0, 0.0, 0.0, 0.0, 0.0, 0.0, 0.0, 0.0, 0.0, 0.0, 0.0, 0.0, 0.0, 0.0, 0.0, 0.0, 0.0, 0.0, 0.0, 0.0, 0.0, 0.0, 0.0, 0.0, 0.0, 0.0, 0.0, 0.0, 0.0, 0.0, 0.0, 0.0, 0.0, 0.0, 0.0, 0.0, 0.0, 0.0, 0.0, 0.0, 0.0, 0.0, 0.0, 0.0, 0.0, 0.0, 0.0, 0.0, 0.0, 0.0, 0.0, 0.0, 0.0, 0.0, 0.0, 0.0, 0.0, 0.0, 0.0, 0.0, 0.0, 0.0, 0.0, 0.0, 0.0, 0.0, 0.0, 0.0, 0.0, 0.0, 0.0, 0.0, 0.0, 0.0, 0.0, 0.0, 0.0, 0.0, 0.0, 0.0, 0.0, 0.0, 0.0, 0.0, 0.0, 0.0, 0.0, 0.0, 0.0, 0.0, 0.0, 0.0, 0.0, 0.0, 0.0, 0.0, 0.0, 0.0, 0.0, 0.0, 0.0, 0.0, 0.0, 0.0, 0.0, 0.0, 0.0, 0.0, 0.0, 0.0, 0.0, 0.0, 0.0, 0.0, 0.0, 0.0, 0.0, 0.0, 0.0, 0.0, 0.0, 0.0, 0.0, 0.0, 0.0, 0.0, 0.0, 0.0, 0.0, 0.0, 0.0, 0.0, 0.0, 0.0, 0.0, 0.0, 0.0, 0.0, 0.0, 0.0, 0.0, 0.0, 0.0, 0.0, 0.0, 0.0, 0.0, 0.0, 0.0, 0.0, 0.0, 0.0, 0.0, 0.0, 0.0, 0.0, 0.0, 0.0, 0.0, 0.0, 0.0, 0.0, 0.0, 0.0, 0.0, 0.0, 0.0, 0.0, 0.0, 0.0, 0.0, 0.0, 0.0, 0.0, 0.0, 0.0, 0.0, 0.0, 0.0, 0.0, 0.0, 0.0, 0.0, 0.0, 0.0, 0.0, 0.0, 0.0, 0.0, 0.0, 0.0, 0.0, 0.0, 0.0, 0.0, 0.0, 0.0, 0.0, 0.0, 0.0, 0.0, 0.0, 0.0, 0.0, 0.0, 0.0, 0.0, 0.0, 0.0, 0.0, 0.0, 0.0, 0.0, 0.0, 0.0, 0.0, 0.0, 0.0, 0.0, 0.0, 0.0, 0.0, 0.0, 0.0, 0.0, 0.0, 0.0, 0.0, 0.0, 0.0, 0.0, 0.0],
  "Shots": 4096,
  "Size": 13,
  "Total Algorithm duration [s]": 4.192,
  "Total Classic duration [s]": 4.054536100255966,
  "Total Quantum duration [s]": 0.13746389974403428
}
