{
  "Circuit execution durations [ms]": [0.3445000111241825, 0.20190000213915482, 0.21069999638712034, 0.2424000049359165, 0.20559999393299222, 0.21054999524494633, 0.2299999978276901, 0.21264999668346718, 0.21050000214017928, 0.21529999503400177, 0.20655000116676092, 0.203950003196951, 0.2005499991355464, 0.2633499971125275, 0.20570000197039917, 0.203950003196951, 0.2027000009547919, 0.20355000015115365, 0.2065499938908033, 0.23130000772653148, 0.20584999583661556, 0.2063000065390952, 0.20280000171624124, 0.20819999190280214, 0.20315000438131392, 0.20164999295957386, 0.21389999892562628, 0.23075000353856012, 0.2044500070041977, 0.20289999520173296, 0.20449999283300713, 0.206899996555876, 0.2044500070041977, 0.21064999600639567, 0.2162000018870458, 0.20729999960167333, 0.2031499971053563, 0.20945000869687647, 0.2045499932137318, 0.27335000049788505, 0.21890000061830506, 0.29105000430718064, 0.20524999126791954, 0.20924999262206256, 0.2343500018469058, 0.2060999904642813, 0.2125999963027425, 0.20745000074384734, 0.20704999042209238, 0.2091000060318038, 0.21320000087143853, 0.23684999905526638, 0.20355000015115365, 0.20315000438131392, 0.20434999896679074, 0.2028500020969659, 0.20489999587880448, 0.22024999634595588, 0.20525000581983477, 0.20940000104019418, 0.21220000053290278, 0.20735000725835562, 0.2095500021823682, 0.21255000319797546, 0.23460000375052914, 0.20969999604858458, 0.20619999850168824, 0.2136999974027276, 0.20584999583661556, 0.20249999943189323, 0.2032000047620386, 0.21079999714856967, 0.20850000146310776, 0.20799999765586108, 0.203950003196951, 0.20709999807877466, 0.20395001047290862, 0.20759999461006373, 0.20860000950051472, 0.20769999537151307, 0.21770000603282824, 0.20179999410174787, 0.204100004339125, 0.2046999943559058, 0.23360000341199338, 0.2055000004475005, 0.20420000510057434, 0.20339999173302203, 0.25754999660421163, 0.20260000019334257, 0.21115000708959997, 0.22049999824957922, 0.21364999702200294, 0.20585000311257318, 0.20474999473663047, 0.20509999740170315, 0.22920000628801063, 0.2358999990974553, 0.20390000281622633, 0.20665000192821026, 0.20600000425474718, 0.2069000038318336, 0.2090499910991639, 0.21890000061830506, 0.20294999558245763, 0.2046000081463717, 0.20385000243550166, 0.24095000117085874, 0.2829000077326782, 0.24334999761777, 0.2485999939381145, 0.26679999427869916, 0.2349499918636866, 0.37515001167776063, 0.3749999959836714, 0.20665000192821026, 0.20665000920416787, 0.20489999587880448, 0.20429999858606607, 0.2035999932559207, 0.20495000353548676, 0.20485000277403742, 0.22595000336878002, 0.37670001620426774, 0.206899996555876, 0.2114000017172657, 0.20494999625952914, 0.23079999664332718, 0.20040000526933, 0.2140500073437579, 0.2032999982475303, 0.20514999778242782, 0.20275000133551657, 0.207199998840224, 0.3735000136657618, 0.23145000159274787, 0.21020000713178888, 0.2062499988824129, 0.2062499988824129, 0.21245000243652612, 0.21114999981364235, 0.2335499957553111, 0.16604999836999923, 0.2342000007047318, 0.21209999977145344, 0.21519999427255243, 0.2085999949485995, 0.20375000167405233, 0.21415000082924962, 0.2326500034541823, 0.38169998879311606, 0.20545000734273344, 0.23070000315783545, 0.2050500042969361, 0.2021999898715876, 0.20914999913657084, 0.2046999943559058, 0.20479999511735514, 0.21069999638712034, 0.20275000133551657, 0.2062499988824129, 0.20324999786680564, 0.20575000235112384, 0.2025499998126179, 0.20010000298498198, 0.21034999372204766, 0.20264999329810962, 0.20389999554026872, 0.20309999672463164, 0.20459999359445646, 0.27570000384002924, 0.2015000063693151, 0.200700007553678, 0.20510000467766076, 0.20554999355226755, 0.27350000164005905, 0.20510000467766076, 0.2328000045963563, 0.20339999900897965, 0.28234999626874924, 0.20450000738492236, 0.20219999714754522, 0.20440000662347302, 0.2014499987126328, 0.27599999884841964, 0.20539999241009355, 0.20645000040531158, 0.2061500053969212, 0.20589999621734023, 0.27555000269785523, 0.165149995154934, 0.20504999702097848, 0.20775000302819535, 0.20540000696200877, 0.20540000696200877, 0.2855499988072552, 0.20379999477881938, 0.22865000210003927, 0.2149499996448867, 0.20710000535473228, 0.1702499939710833, 0.18265000107930973, 0.21160000324016437, 0.24585000210208818, 0.21019999257987365, 0.20870000298600644, 0.21460000425577164, 0.20994999795220792, 0.24405000294791535, 0.2052000054391101, 0.25389999063918367, 0.2338499980396591, 0.31740000849822536, 0.21470000501722097, 0.20820000645471737, 0.20740000763908029, 0.2045500004896894, 0.21055000252090394, 0.2182000025641173, 0.20650000078603625, 0.17255000420846045, 0.20635000691981986, 0.20294999558245763, 0.23570000485051423, 0.20589999621734023, 0.2057999954558909, 0.20414999744389206, 0.20265000057406723, 0.21175000438233837, 0.20860000950051472, 0.21290000586304814, 0.2363499952480197, 0.2045499932137318, 0.22354999964591116, 0.2039499959209934, 0.2061500053969212, 0.20355000015115365, 0.20704999769805, 0.1969500008272007, 0.20369999401737005, 0.2082999999402091, 0.20470000163186342, 0.20304999634390697, 0.2056499943137169, 0.2049000031547621, 0.20475000201258808, 0.21505000768229365, 0.20489999587880448, 0.2040999970631674, 0.20865000260528177, 0.22204999550012872, 0.31009999656816944, 0.20730000687763095, 0.20560000120894983, 0.20659999427152798, 0.20234999828971922, 0.20975000370526686, 0.21740000374848023, 0.2048499954980798, 0.20260000746930018, 0.20260000019334257, 0.20725000649690628, 0.20235000556567684, 0.20460000087041408, 0.2356000040890649, 0.20475000201258808, 0.2031499898293987, 0.20474999473663047, 0.20650000078603625, 0.20915000641252846, 0.2125999963027425, 0.23015000624582171, 0.20745000074384734, 0.20465000125113875, 0.20379999477881938, 0.20190000213915482, 0.20360000053187832, 0.20525000581983477, 0.23314999998547137, 0.20050000603077933, 0.21580000611720607, 0.2121499928762205, 0.20699999731732532, 0.20479999511735514, 0.20775001030415297, 0.19179999799234793, 0.20555000810418278, 0.20604999735951424, 0.2044500070041977, 0.20300000323913991, 0.21275000472087413, 0.2634999982547015, 0.20745000801980495, 0.21624999499181286, 0.20485000277403742, 0.20944999414496124, 0.21764999837614596, 0.2055000077234581, 0.20884998957626522, 0.2055000004475005, 0.2062499916064553],
  "Depth": 2.0,
  "Expectation Value": -8.160904884338379,
  "Optimal Expectation Value": -8.16510009765625,
  "Optimizer durations [ms]": [9.9, 5.823, 5.989, 6.353, 5.826, 5.89, 6.383, 5.951, 5.84, 5.909, 5.816, 5.733, 5.832, 7.038, 5.888, 5.762, 6.293, 5.663, 5.695, 6.279, 5.837, 5.786, 5.762, 6.011, 5.749, 5.761, 5.951, 6.05, 5.789, 5.796, 5.771, 5.87, 5.676, 5.854, 7.014, 5.891, 5.779, 5.802, 5.884, 7.188, 23.133, 7.864, 5.713, 5.828, 6.352, 5.885, 5.783, 5.843, 5.943, 5.784, 5.961, 6.372, 5.77, 5.748, 5.808, 5.689, 5.762, 5.832, 6.385, 5.805, 5.9, 5.918, 5.768, 5.93, 6.178, 5.919, 5.855, 6.068, 5.816, 5.726, 5.713, 5.847, 5.988, 5.95, 5.788, 5.784, 5.774, 5.865, 6.628, 5.861, 5.856, 5.793, 5.787, 5.845, 6.333, 5.798, 5.8, 5.714, 6.716, 8.334, 5.804, 6.037, 5.965, 5.853, 5.74, 5.846, 6.413, 11.036, 5.877, 5.851, 10.705, 5.792, 5.807, 14.215, 5.686, 11.682, 5.831, 6.528, 18.011, 6.422, 6.501, 6.912, 6.493, 16.062, 13.866, 14.048, 5.812, 15.17, 12.552, 6.543, 18.897, 5.752, 15.946, 13.717, 12.146, 10.062, 5.783, 6.411, 7.463, 6.161, 5.771, 10.775, 5.756, 5.868, 16.411, 11.942, 5.897, 5.82, 5.844, 5.833, 5.751, 14.136, 15.886, 6.356, 10.637, 6.579, 5.971, 15.294, 10.853, 6.227, 15.753, 5.754, 14.556, 10.654, 5.816, 5.864, 8.425, 5.755, 5.868, 6.42, 6.002, 5.745, 5.744, 5.739, 5.821, 5.753, 5.8, 5.915, 6.645, 5.758, 7.194, 5.748, 5.747, 6.651, 5.826, 7.032, 12.215, 6.318, 5.757, 7.422, 5.799, 5.734, 5.985, 5.724, 6.913, 5.852, 5.697, 6.869, 5.774, 7.301, 12.064, 9.099, 5.686, 6.588, 5.864, 7.193, 6.543, 6.303, 6.06, 5.871, 7.766, 16.094, 6.126, 6.561, 5.949, 5.915, 8.837, 6.009, 6.494, 5.844, 6.508, 14.722, 11.915, 6.189, 7.091, 5.836, 5.803, 5.902, 6.087, 5.87, 8.143, 5.771, 5.737, 6.117, 5.926, 5.811, 5.799, 5.898, 5.821, 5.904, 6.065, 6.319, 5.811, 6.182, 5.674, 5.746, 5.961, 5.856, 5.985, 6.734, 6.004, 5.974, 5.806, 5.726, 6.902, 5.823, 5.962, 5.878, 5.822, 5.933, 6.148, 7.886, 5.872, 5.966, 5.813, 5.79, 5.995, 6.124, 5.846, 5.881, 5.729, 5.881, 5.764, 5.799, 6.588, 5.809, 5.751, 5.767, 5.903, 5.691, 6.004, 6.265, 6.084, 5.872, 5.942, 5.999, 5.727, 5.958, 6.34, 5.932, 6.046, 5.921, 5.839, 5.773, 5.783, 6.55, 5.814, 5.833, 5.768, 5.71, 5.69, 7.008, 5.688, 6.007, 5.852, 5.87, 5.879, 5.921, 5.928, 5.953, 5.859],
  "Optimizer iterations": 301,
  "Optimizer params": [0.9989735251608055, 0.49589599465665474, 0.9991481379986787, 0.5005125587418089, 0.501278027389815, 0.9987258990248707, 0.501377726143691, 0.49879650379363694, 1.0, 0.49854313075973467, 1.0, 0.010493994506551486, 0.01262226974570874],
  "P": 0,
  "Problem": "RH",
  "QJob durations [ms]": [0.3445000111241825, 0.20190000213915482, 0.21069999638712034, 0.2424000049359165, 0.20559999393299222, 0.21054999524494633, 0.2299999978276901, 0.21264999668346718, 0.21050000214017928, 0.21529999503400177, 0.20655000116676092, 0.203950003196951, 0.2005499991355464, 0.2633499971125275, 0.20570000197039917, 0.203950003196951, 0.2027000009547919, 0.20355000015115365, 0.2065499938908033, 0.23130000772653148, 0.20584999583661556, 0.2063000065390952, 0.20280000171624124, 0.20819999190280214, 0.20315000438131392, 0.20164999295957386, 0.21389999892562628, 0.23075000353856012, 0.2044500070041977, 0.20289999520173296, 0.20449999283300713, 0.206899996555876, 0.2044500070041977, 0.21064999600639567, 0.2162000018870458, 0.20729999960167333, 0.2031499971053563, 0.20945000869687647, 0.2045499932137318, 0.27335000049788505, 0.21890000061830506, 0.29105000430718064, 0.20524999126791954, 0.20924999262206256, 0.2343500018469058, 0.2060999904642813, 0.2125999963027425, 0.20745000074384734, 0.20704999042209238, 0.2091000060318038, 0.21320000087143853, 0.23684999905526638, 0.20355000015115365, 0.20315000438131392, 0.20434999896679074, 0.2028500020969659, 0.20489999587880448, 0.22024999634595588, 0.20525000581983477, 0.20940000104019418, 0.21220000053290278, 0.20735000725835562, 0.2095500021823682, 0.21255000319797546, 0.23460000375052914, 0.20969999604858458, 0.20619999850168824, 0.2136999974027276, 0.20584999583661556, 0.20249999943189323, 0.2032000047620386, 0.21079999714856967, 0.20850000146310776, 0.20799999765586108, 0.203950003196951, 0.20709999807877466, 0.20395001047290862, 0.20759999461006373, 0.20860000950051472, 0.20769999537151307, 0.21770000603282824, 0.20179999410174787, 0.204100004339125, 0.2046999943559058, 0.23360000341199338, 0.2055000004475005, 0.20420000510057434, 0.20339999173302203, 0.25754999660421163, 0.20260000019334257, 0.21115000708959997, 0.22049999824957922, 0.21364999702200294, 0.20585000311257318, 0.20474999473663047, 0.20509999740170315, 0.22920000628801063, 0.2358999990974553, 0.20390000281622633, 0.20665000192821026, 0.20600000425474718, 0.2069000038318336, 0.2090499910991639, 0.21890000061830506, 0.20294999558245763, 0.2046000081463717, 0.20385000243550166, 0.24095000117085874, 0.2829000077326782, 0.24334999761777, 0.2485999939381145, 0.26679999427869916, 0.2349499918636866, 0.37515001167776063, 0.3749999959836714, 0.20665000192821026, 0.20665000920416787, 0.20489999587880448, 0.20429999858606607, 0.2035999932559207, 0.20495000353548676, 0.20485000277403742, 0.22595000336878002, 0.37670001620426774, 0.206899996555876, 0.2114000017172657, 0.20494999625952914, 0.23079999664332718, 0.20040000526933, 0.2140500073437579, 0.2032999982475303, 0.20514999778242782, 0.20275000133551657, 0.207199998840224, 0.3735000136657618, 0.23145000159274787, 0.21020000713178888, 0.2062499988824129, 0.2062499988824129, 0.21245000243652612, 0.21114999981364235, 0.2335499957553111, 0.16604999836999923, 0.2342000007047318, 0.21209999977145344, 0.21519999427255243, 0.2085999949485995, 0.20375000167405233, 0.21415000082924962, 0.2326500034541823, 0.38169998879311606, 0.20545000734273344, 0.23070000315783545, 0.2050500042969361, 0.2021999898715876, 0.20914999913657084, 0.2046999943559058, 0.20479999511735514, 0.21069999638712034, 0.20275000133551657, 0.2062499988824129, 0.20324999786680564, 0.20575000235112384, 0.2025499998126179, 0.20010000298498198, 0.21034999372204766, 0.20264999329810962, 0.20389999554026872, 0.20309999672463164, 0.20459999359445646, 0.27570000384002924, 0.2015000063693151, 0.200700007553678, 0.20510000467766076, 0.20554999355226755, 0.27350000164005905, 0.20510000467766076, 0.2328000045963563, 0.20339999900897965, 0.28234999626874924, 0.20450000738492236, 0.20219999714754522, 0.20440000662347302, 0.2014499987126328, 0.27599999884841964, 0.20539999241009355, 0.20645000040531158, 0.2061500053969212, 0.20589999621734023, 0.27555000269785523, 0.165149995154934, 0.20504999702097848, 0.20775000302819535, 0.20540000696200877, 0.20540000696200877, 0.2855499988072552, 0.20379999477881938, 0.22865000210003927, 0.2149499996448867, 0.20710000535473228, 0.1702499939710833, 0.18265000107930973, 0.21160000324016437, 0.24585000210208818, 0.21019999257987365, 0.20870000298600644, 0.21460000425577164, 0.20994999795220792, 0.24405000294791535, 0.2052000054391101, 0.25389999063918367, 0.2338499980396591, 0.31740000849822536, 0.21470000501722097, 0.20820000645471737, 0.20740000763908029, 0.2045500004896894, 0.21055000252090394, 0.2182000025641173, 0.20650000078603625, 0.17255000420846045, 0.20635000691981986, 0.20294999558245763, 0.23570000485051423, 0.20589999621734023, 0.2057999954558909, 0.20414999744389206, 0.20265000057406723, 0.21175000438233837, 0.20860000950051472, 0.21290000586304814, 0.2363499952480197, 0.2045499932137318, 0.22354999964591116, 0.2039499959209934, 0.2061500053969212, 0.20355000015115365, 0.20704999769805, 0.1969500008272007, 0.20369999401737005, 0.2082999999402091, 0.20470000163186342, 0.20304999634390697, 0.2056499943137169, 0.2049000031547621, 0.20475000201258808, 0.21505000768229365, 0.20489999587880448, 0.2040999970631674, 0.20865000260528177, 0.22204999550012872, 0.31009999656816944, 0.20730000687763095, 0.20560000120894983, 0.20659999427152798, 0.20234999828971922, 0.20975000370526686, 0.21740000374848023, 0.2048499954980798, 0.20260000746930018, 0.20260000019334257, 0.20725000649690628, 0.20235000556567684, 0.20460000087041408, 0.2356000040890649, 0.20475000201258808, 0.2031499898293987, 0.20474999473663047, 0.20650000078603625, 0.20915000641252846, 0.2125999963027425, 0.23015000624582171, 0.20745000074384734, 0.20465000125113875, 0.20379999477881938, 0.20190000213915482, 0.20360000053187832, 0.20525000581983477, 0.23314999998547137, 0.20050000603077933, 0.21580000611720607, 0.2121499928762205, 0.20699999731732532, 0.20479999511735514, 0.20775001030415297, 0.19179999799234793, 0.20555000810418278, 0.20604999735951424, 0.2044500070041977, 0.20300000323913991, 0.21275000472087413, 0.2634999982547015, 0.20745000801980495, 0.21624999499181286, 0.20485000277403742, 0.20944999414496124, 0.21764999837614596, 0.2055000077234581, 0.20884998957626522, 0.2055000004475005, 0.2062499916064553],
  "QPU": "7000000",
  "Qubits": 13,
  "Queue durations [ms]": [0.0, 0.0, 0.0, 0.0, 0.0, 0.0, 0.0, 0.0, 0.0, 0.0, 0.0, 0.0, 0.0, 0.0, 0.0, 0.0, 0.0, 0.0, 0.0, 0.0, 0.0, 0.0, 0.0, 0.0, 0.0, 0.0, 0.0, 0.0, 0.0, 0.0, 0.0, 0.0, 0.0, 0.0, 0.0, 0.0, 0.0, 0.0, 0.0, 0.0, 0.0, 0.0, 0.0, 0.0, 0.0, 0.0, 0.0, 0.0, 0.0, 0.0, 0.0, 0.0, 0.0, 0.0, 0.0, 0.0, 0.0, 0.0, 0.0, 0.0, 0.0, 0.0, 0.0, 0.0, 0.0, 0.0, 0.0, 0.0, 0.0, 0.0, 0.0, 0.0, 0.0, 0.0, 0.0, 0.0, 0.0, 0.0, 0.0, 0.0, 0.0, 0.0, 0.0, 0.0, 0.0, 0.0, 0.0, 0.0, 0.0, 0.0, 0.0, 0.0, 0.0, 0.0, 0.0, 0.0, 0.0, 0.0, 0.0, 0.0, 0.0, 0.0, 0.0, 0.0, 0.0, 0.0, 0.0, 0.0, 0.0, 0.0, 0.0, 0.0, 0.0, 0.0, 0.0, 0.0, 0.0, 0.0, 0.0, 0.0, 0.0, 0.0, 0.0, 0.0, 0.0, 0.0, 0.0, 0.0, 0.0, 0.0, 0.0, 0.0, 0.0, 0.0, 0.0, 0.0, 0.0, 0.0, 0.0, 0.0, 0.0, 0.0, 0.0, 0.0, 0.0, 0.0, 0.0, 0.0, 0.0, 0.0, 0.0, 0.0, 0.0, 0.0, 0.0, 0.0, 0.0, 0.0, 0.0, 0.0, 0.0, 0.0, 0.0, 0.0, 0.0, 0.0, 0.0, 0.0, 0.0, 0.0, 0.0, 0.0, 0.0, 0.0, 0.0, 0.0, 0.0, 0.0, 0.0, 0.0, 0.0, 0.0, 0.0, 0.0, 0.0, 0.0, 0.0, 0.0, 0.0, 0.0, 0.0, 0.0, 0.0, 0.0, 0.0, 0.0, 0.0, 0.0, 0.0, 0.0, 0.0, 0.0, 0.0, 0.0, 0.0, 0.0, 0.0, 0.0, 0.0, 0.0, 0.0, 0.0, 0.0, 0.0, 0.0, 0.0, 0.0, 0.0, 0.0, 0.0, 0.0, 0.0, 0.0, 0.0, 0.0, 0.0, 0.0, 0.0, 0.0, 0.0, 0.0, 0.0, 0.0, 0.0, 0.0, 0.0, 0.0, 0.0, 0.0, 0.0, 0.0, 0.0, 0.0, 0.0, 0.0, 0.0, 0.0, 0.0, 0.0, 0.0, 0.0, 0.0, 0.0, 0.0, 0.0, 0.0, 0.0, 0.0, 0.0, 0.0, 0.0, 0.0, 0.0, 0.0, 0.0, 0.0, 0.0, 0.0, 0.0, 0.0, 0.0, 0.0, 0.0, 0.0, 0.0, 0.0, 0.0, 0.0, 0.0, 0.0, 0.0, 0.0, 0.0, 0.0, 0.0, 0.0, 0.0, 0.0, 0.0, 0.0, 0.0, 0.0, 0.0, 0.0, 0.0, 0.0, 0.0, 0.0, 0.0, 0.0, 0.0],
  "Shots": 4096,
  "Size": 13,
  "Total Algorithm duration [s]": 2.083,
  "Total Classic duration [s]": 2.017901799908403,
  "Total Quantum duration [s]": 0.06509820009159739
}
