{
  "Circuit execution durations [ms]": [0.2319999985047616, 0.2707499952521175, 0.21040000137872994, 0.20375000167405233, 0.20444999972824007, 0.20539999241009355, 0.20379999477881938, 0.20444999972824007, 0.20460000087041408, 0.20230000518495217, 0.22034999710740522, 0.20485000277403742, 0.20574999507516623, 0.2087499960907735, 0.23185000463854522, 0.20475000201258808, 0.20914999186061323, 0.2045500004896894, 0.2060999977402389, 0.2022500048042275, 0.20279999444028363, 0.2421000026515685, 0.23094999778550118, 0.20790000417036936, 0.2022500048042275, 0.20319999748608097, 0.20360000053187832, 0.2877999941119924, 0.2215000058640726, 0.2045500004896894, 0.2869000018108636, 0.28780000138795003, 0.20200000290060416, 0.2873499906854704, 0.1963500035344623, 0.20434999896679074, 0.2899000028264709, 0.287199996819254, 0.2845499911927618, 0.2830000012181699, 0.38124999264255166, 0.32264999754261225, 0.34964999940712005, 0.37945000804029405, 0.20665000192821026, 0.2890999967348762, 0.16725000023143366, 0.20695000421255827, 0.2878500017686747, 0.204250005481299, 0.28440000460250303, 0.29055000049993396, 0.21315000049071386, 0.2865999995265156, 0.28979999478906393, 0.2057999954558909, 0.2824499970301986, 0.28249999741092324, 0.2898500024457462, 0.20334999862825498, 0.2884999994421378, 0.287650000245776, 0.2316999962204136, 0.2024000059464015, 0.2853499972843565, 0.2040999970631674, 0.29010000434936956, 0.2072000061161816, 0.2872000040952116, 0.2037499943980947, 0.29024999821558595, 0.21069998911116272, 0.23230000806506723, 0.20485000277403742, 0.1756999990902841, 0.2046999943559058, 0.2872500044759363, 0.21070000366307795, 0.35050001315539703, 0.21944999025436118, 0.20755000150529668, 0.2343500018469058, 0.15939999866532162, 0.20610000501619652, 0.21474999812198803, 0.26879999495577067, 0.2067500099656172, 0.20529999892460182, 0.2119999917340465, 0.20554999355226755, 0.2079499972751364, 0.20514999778242782, 0.2037499943980947, 0.20379999477881938, 0.2085999949485995, 0.2062499988824129, 0.203650000912603, 0.19854999845847487, 0.21540000307140872, 0.21050000214017928, 0.2079499972751364, 0.229199999012053, 0.2056500015896745, 0.20569999469444156, 0.203800002054777, 0.20339999900897965, 0.2028499948210083, 0.20850000146310776, 0.21684999956050888, 0.20324999786680564, 0.20509999740170315, 0.2061500053969212, 0.2029999959631823, 0.20589999621734023, 0.21485000615939498, 0.23349999537458643, 0.20865000260528177, 0.20339999900897965, 0.2039499959209934, 0.2069000038318336, 0.20430000586202368, 0.2554000020609237, 0.22629999875789508, 0.20370000129332766, 0.20914999913657084, 0.210449994483497, 0.21559999731834978, 0.20039999799337238, 0.21289999858709052, 0.20680000307038426, 0.2011500037042424, 0.2034499921137467, 0.21835000370629132, 0.20049999875482172, 0.2073499927064404, 0.23409999994328246, 0.20940000104019418, 0.20940000104019418, 0.21085000480525196, 0.20935000793542713, 0.20974999642930925, 0.20450000010896474, 0.23860000510467216, 0.20465000852709636, 0.20175000099698082, 0.20784999651368707, 0.20170000061625615, 0.2062499988824129, 0.23235000116983429, 0.20334999862825498, 0.20610000501619652, 0.20230000518495217, 0.20614999812096357, 0.20405000395840034, 0.20219999714754522, 0.21925000328337774, 0.23235000116983429, 0.20900000527035445, 0.21360000391723588, 0.2031499971053563, 0.20640000002458692, 0.2009999952861108, 0.20575000962708145, 0.265950002358295, 0.20465000125113875, 0.28795000253012404, 0.20300000323913991, 0.20355000742711127, 0.20939999376423657, 0.22259999241214246, 0.20655000116676092, 0.2048499954980798, 0.20825000683544204, 0.2035999932559207, 0.2056499943137169, 0.23230000078910962, 0.20315000438131392, 0.20724999922094867, 0.2139000062015839, 0.20289999520173296, 0.20429999131010845, 0.17110000044340268, 0.30029999470571056, 0.3121999980066903, 0.1979000007850118, 0.2080999911413528, 0.21655000455211848, 0.2318499973625876, 0.2043999993475154, 0.20589999621734023, 0.20384999515954405, 0.2132499939762056, 0.20450000738492236, 0.21019999985583127, 0.2357499979552813, 0.20135000522714108, 0.21139999444130808, 0.2087500033667311, 0.20680000307038426, 0.20419999782461673, 0.20525000581983477, 0.2342000007047318, 0.2060999977402389, 0.20334999862825498, 0.2099999983329326, 0.20354999287519604, 0.20449999283300713, 0.23945000430103391, 0.20684999617515132, 0.20664999465225264, 0.20435000624274835, 0.2042499982053414, 0.20840000070165843, 0.20729999232571572, 0.23055000929161906, 0.21094999101478606, 0.21099999867146835, 0.21245000243652612, 0.20519999088719487, 0.20294999558245763, 0.20599999697878957, 0.2336999968974851, 0.20214999676682055, 0.20545000734273344, 0.2035000070463866, 0.20420000510057434, 0.20419999782461673, 0.2089000045089051, 0.20404999668244272, 0.20424999092938378, 0.22759999410482123, 0.2079499972751364, 0.21190000552451238, 0.20765000226674601, 0.20619999122573063, 0.20825000683544204, 0.20345000666566193, 0.2049999966402538, 0.20134999795118347, 0.20495000353548676, 0.23115000658435747, 0.20729999232571572, 0.20620000577764586, 0.20909999147988856, 0.20390000281622633, 0.22005000209901482, 0.1866000020527281, 0.21035000099800527, 0.23905000125523657, 0.20805000531254336, 0.20795000455109403, 0.20109999604756013, 0.20345000666566193, 0.2160500080208294, 0.21610000112559646, 0.20125000446569175, 0.21114999981364235, 0.20560000120894983, 0.20809999841731042, 0.20560000120894983, 0.20360000780783594, 0.20685000345110893, 0.20650000806199387, 0.20250000670785084, 0.20670000230893493, 0.20379999477881938, 0.21009999181842431, 0.21139999444130808, 0.23719999444438145, 0.2031499971053563, 0.20644999312935397, 0.2050500042969361, 0.21099999867146835, 0.20444999972824007, 0.2051499905064702, 0.20884998957626522, 0.2027000009547919, 0.20489999587880448, 0.20629999926313758, 0.20519999816315249, 0.20604999008355662, 0.20400000357767567, 0.23579999833600596, 0.20475000201258808, 0.20679999579442665, 0.2135499962605536, 0.2066000015474856, 0.20684999617515132, 0.20450000010896474, 0.23094999050954357, 0.21374999778345227, 0.2050500042969361, 0.20295000285841525, 0.19795000844169408, 0.20405000395840034, 0.2080000049318187, 0.20360000053187832, 0.20009999570902437, 0.20465000125113875, 0.2015999998548068, 0.20995000522816554, 0.20610000501619652, 0.23300000611925498, 0.21350000315578654, 0.20385000243550166, 0.20485001004999503, 0.20614999812096357],
  "Depth": 2.0,
  "Expectation Value": -6.466096878051758,
  "Optimal Expectation Value": -8.16510009765625,
  "Optimizer durations [ms]": [6.338, 7.112, 5.718, 5.804, 5.802, 5.808, 5.873, 5.727, 5.845, 5.757, 5.873, 5.696, 5.821, 6.095, 6.205, 5.817, 5.975, 5.76, 5.801, 5.813, 5.834, 6.502, 6.379, 5.704, 5.921, 5.844, 5.81, 7.497, 6.0, 5.787, 7.433, 7.433, 5.804, 7.455, 6.291, 5.869, 7.221, 7.383, 7.391, 7.369, 8.835, 22.497, 9.032, 23.625, 5.854, 7.512, 19.191, 5.888, 7.23, 10.611, 7.367, 7.556, 5.812, 7.301, 7.508, 5.996, 7.396, 7.496, 7.545, 5.8, 7.515, 7.24, 6.461, 5.865, 7.316, 5.822, 7.484, 5.928, 7.536, 5.85, 7.48, 6.143, 15.523, 5.89, 8.053, 5.892, 7.147, 15.496, 18.743, 10.936, 10.573, 6.179, 17.048, 10.741, 5.933, 7.041, 5.891, 10.603, 10.673, 15.556, 10.616, 5.834, 5.813, 5.773, 5.898, 6.297, 5.836, 6.438, 5.985, 5.984, 6.015, 6.402, 5.86, 5.772, 5.941, 5.988, 5.825, 5.959, 6.518, 5.813, 5.769, 5.749, 5.808, 5.685, 6.096, 6.458, 5.898, 5.754, 5.716, 5.942, 5.768, 6.717, 6.101, 5.85, 5.974, 5.958, 5.795, 5.813, 5.905, 5.728, 5.794, 5.803, 5.818, 5.785, 5.818, 6.39, 5.872, 5.853, 5.987, 6.056, 5.827, 5.861, 6.461, 5.94, 5.811, 5.981, 5.793, 5.846, 6.405, 5.836, 5.794, 5.727, 5.751, 5.816, 5.74, 6.201, 6.469, 5.99, 6.154, 5.848, 5.883, 5.798, 5.818, 6.881, 5.875, 7.301, 6.292, 5.772, 5.799, 6.211, 5.835, 5.819, 5.762, 5.73, 5.703, 6.297, 5.742, 5.788, 5.924, 5.712, 5.851, 8.085, 17.835, 8.325, 6.865, 5.788, 5.962, 6.182, 5.846, 5.776, 5.768, 6.044, 5.818, 5.775, 6.417, 5.846, 5.747, 5.778, 5.908, 5.816, 5.807, 6.419, 5.852, 5.822, 6.022, 5.705, 5.856, 6.201, 5.854, 5.797, 5.931, 5.914, 5.836, 5.934, 6.267, 5.899, 6.045, 6.097, 5.784, 5.754, 5.865, 6.365, 5.813, 5.863, 5.822, 5.769, 5.894, 5.904, 5.89, 5.888, 6.013, 10.018, 5.912, 5.848, 6.007, 5.943, 5.833, 5.842, 6.406, 5.737, 6.04, 5.857, 5.773, 5.816, 5.859, 6.265, 6.839, 5.996, 6.341, 5.733, 5.767, 5.762, 5.802, 5.844, 5.977, 5.787, 5.898, 5.764, 5.862, 5.804, 5.893, 5.804, 6.308, 5.748, 5.685, 5.835, 5.865, 5.93, 6.226, 5.779, 5.766, 5.965, 5.949, 5.721, 5.797, 5.998, 5.782, 5.837, 5.838, 5.962, 5.818, 5.708, 6.243, 5.882, 5.801, 5.695, 5.95, 5.956, 5.905, 6.308, 6.133, 5.866, 5.863, 5.771, 5.784, 5.878, 5.906, 5.796, 5.813, 5.822, 6.006, 5.772, 6.291, 5.983, 5.828, 5.801, 5.902],
  "Optimizer iterations": 307,
  "Optimizer params": [0.999309127965843, 0.49608223892940406, 0.9998639164289563, 0.9987869903908874, 0.5029780219367191, 0.005526214830411458, 0.49511509208019966, 0.5003001124679681, 0.011084626696777695, 0.9822367067683774, 0.0038394645901644936, 0.9976690273593382, 0.9990150545323],
  "P": 0,
  "Problem": "RH",
  "QJob durations [ms]": [0.2319999985047616, 0.2707499952521175, 0.21040000137872994, 0.20375000167405233, 0.20444999972824007, 0.20539999241009355, 0.20379999477881938, 0.20444999972824007, 0.20460000087041408, 0.20230000518495217, 0.22034999710740522, 0.20485000277403742, 0.20574999507516623, 0.2087499960907735, 0.23185000463854522, 0.20475000201258808, 0.20914999186061323, 0.2045500004896894, 0.2060999977402389, 0.2022500048042275, 0.20279999444028363, 0.2421000026515685, 0.23094999778550118, 0.20790000417036936, 0.2022500048042275, 0.20319999748608097, 0.20360000053187832, 0.2877999941119924, 0.2215000058640726, 0.2045500004896894, 0.2869000018108636, 0.28780000138795003, 0.20200000290060416, 0.2873499906854704, 0.1963500035344623, 0.20434999896679074, 0.2899000028264709, 0.287199996819254, 0.2845499911927618, 0.2830000012181699, 0.38124999264255166, 0.32264999754261225, 0.34964999940712005, 0.37945000804029405, 0.20665000192821026, 0.2890999967348762, 0.16725000023143366, 0.20695000421255827, 0.2878500017686747, 0.204250005481299, 0.28440000460250303, 0.29055000049993396, 0.21315000049071386, 0.2865999995265156, 0.28979999478906393, 0.2057999954558909, 0.2824499970301986, 0.28249999741092324, 0.2898500024457462, 0.20334999862825498, 0.2884999994421378, 0.287650000245776, 0.2316999962204136, 0.2024000059464015, 0.2853499972843565, 0.2040999970631674, 0.29010000434936956, 0.2072000061161816, 0.2872000040952116, 0.2037499943980947, 0.29024999821558595, 0.21069998911116272, 0.23230000806506723, 0.20485000277403742, 0.1756999990902841, 0.2046999943559058, 0.2872500044759363, 0.21070000366307795, 0.35050001315539703, 0.21944999025436118, 0.20755000150529668, 0.2343500018469058, 0.15939999866532162, 0.20610000501619652, 0.21474999812198803, 0.26879999495577067, 0.2067500099656172, 0.20529999892460182, 0.2119999917340465, 0.20554999355226755, 0.2079499972751364, 0.20514999778242782, 0.2037499943980947, 0.20379999477881938, 0.2085999949485995, 0.2062499988824129, 0.203650000912603, 0.19854999845847487, 0.21540000307140872, 0.21050000214017928, 0.2079499972751364, 0.229199999012053, 0.2056500015896745, 0.20569999469444156, 0.203800002054777, 0.20339999900897965, 0.2028499948210083, 0.20850000146310776, 0.21684999956050888, 0.20324999786680564, 0.20509999740170315, 0.2061500053969212, 0.2029999959631823, 0.20589999621734023, 0.21485000615939498, 0.23349999537458643, 0.20865000260528177, 0.20339999900897965, 0.2039499959209934, 0.2069000038318336, 0.20430000586202368, 0.2554000020609237, 0.22629999875789508, 0.20370000129332766, 0.20914999913657084, 0.210449994483497, 0.21559999731834978, 0.20039999799337238, 0.21289999858709052, 0.20680000307038426, 0.2011500037042424, 0.2034499921137467, 0.21835000370629132, 0.20049999875482172, 0.2073499927064404, 0.23409999994328246, 0.20940000104019418, 0.20940000104019418, 0.21085000480525196, 0.20935000793542713, 0.20974999642930925, 0.20450000010896474, 0.23860000510467216, 0.20465000852709636, 0.20175000099698082, 0.20784999651368707, 0.20170000061625615, 0.2062499988824129, 0.23235000116983429, 0.20334999862825498, 0.20610000501619652, 0.20230000518495217, 0.20614999812096357, 0.20405000395840034, 0.20219999714754522, 0.21925000328337774, 0.23235000116983429, 0.20900000527035445, 0.21360000391723588, 0.2031499971053563, 0.20640000002458692, 0.2009999952861108, 0.20575000962708145, 0.265950002358295, 0.20465000125113875, 0.28795000253012404, 0.20300000323913991, 0.20355000742711127, 0.20939999376423657, 0.22259999241214246, 0.20655000116676092, 0.2048499954980798, 0.20825000683544204, 0.2035999932559207, 0.2056499943137169, 0.23230000078910962, 0.20315000438131392, 0.20724999922094867, 0.2139000062015839, 0.20289999520173296, 0.20429999131010845, 0.17110000044340268, 0.30029999470571056, 0.3121999980066903, 0.1979000007850118, 0.2080999911413528, 0.21655000455211848, 0.2318499973625876, 0.2043999993475154, 0.20589999621734023, 0.20384999515954405, 0.2132499939762056, 0.20450000738492236, 0.21019999985583127, 0.2357499979552813, 0.20135000522714108, 0.21139999444130808, 0.2087500033667311, 0.20680000307038426, 0.20419999782461673, 0.20525000581983477, 0.2342000007047318, 0.2060999977402389, 0.20334999862825498, 0.2099999983329326, 0.20354999287519604, 0.20449999283300713, 0.23945000430103391, 0.20684999617515132, 0.20664999465225264, 0.20435000624274835, 0.2042499982053414, 0.20840000070165843, 0.20729999232571572, 0.23055000929161906, 0.21094999101478606, 0.21099999867146835, 0.21245000243652612, 0.20519999088719487, 0.20294999558245763, 0.20599999697878957, 0.2336999968974851, 0.20214999676682055, 0.20545000734273344, 0.2035000070463866, 0.20420000510057434, 0.20419999782461673, 0.2089000045089051, 0.20404999668244272, 0.20424999092938378, 0.22759999410482123, 0.2079499972751364, 0.21190000552451238, 0.20765000226674601, 0.20619999122573063, 0.20825000683544204, 0.20345000666566193, 0.2049999966402538, 0.20134999795118347, 0.20495000353548676, 0.23115000658435747, 0.20729999232571572, 0.20620000577764586, 0.20909999147988856, 0.20390000281622633, 0.22005000209901482, 0.1866000020527281, 0.21035000099800527, 0.23905000125523657, 0.20805000531254336, 0.20795000455109403, 0.20109999604756013, 0.20345000666566193, 0.2160500080208294, 0.21610000112559646, 0.20125000446569175, 0.21114999981364235, 0.20560000120894983, 0.20809999841731042, 0.20560000120894983, 0.20360000780783594, 0.20685000345110893, 0.20650000806199387, 0.20250000670785084, 0.20670000230893493, 0.20379999477881938, 0.21009999181842431, 0.21139999444130808, 0.23719999444438145, 0.2031499971053563, 0.20644999312935397, 0.2050500042969361, 0.21099999867146835, 0.20444999972824007, 0.2051499905064702, 0.20884998957626522, 0.2027000009547919, 0.20489999587880448, 0.20629999926313758, 0.20519999816315249, 0.20604999008355662, 0.20400000357767567, 0.23579999833600596, 0.20475000201258808, 0.20679999579442665, 0.2135499962605536, 0.2066000015474856, 0.20684999617515132, 0.20450000010896474, 0.23094999050954357, 0.21374999778345227, 0.2050500042969361, 0.20295000285841525, 0.19795000844169408, 0.20405000395840034, 0.2080000049318187, 0.20360000053187832, 0.20009999570902437, 0.20465000125113875, 0.2015999998548068, 0.20995000522816554, 0.20610000501619652, 0.23300000611925498, 0.21350000315578654, 0.20385000243550166, 0.20485001004999503, 0.20614999812096357],
  "QPU": "7000000",
  "Qubits": 13,
  "Queue durations [ms]": [0.0, 0.0, 0.0, 0.0, 0.0, 0.0, 0.0, 0.0, 0.0, 0.0, 0.0, 0.0, 0.0, 0.0, 0.0, 0.0, 0.0, 0.0, 0.0, 0.0, 0.0, 0.0, 0.0, 0.0, 0.0, 0.0, 0.0, 0.0, 0.0, 0.0, 0.0, 0.0, 0.0, 0.0, 0.0, 0.0, 0.0, 0.0, 0.0, 0.0, 0.0, 0.0, 0.0, 0.0, 0.0, 0.0, 0.0, 0.0, 0.0, 0.0, 0.0, 0.0, 0.0, 0.0, 0.0, 0.0, 0.0, 0.0, 0.0, 0.0, 0.0, 0.0, 0.0, 0.0, 0.0, 0.0, 0.0, 0.0, 0.0, 0.0, 0.0, 0.0, 0.0, 0.0, 0.0, 0.0, 0.0, 0.0, 0.0, 0.0, 0.0, 0.0, 0.0, 0.0, 0.0, 0.0, 0.0, 0.0, 0.0, 0.0, 0.0, 0.0, 0.0, 0.0, 0.0, 0.0, 0.0, 0.0, 0.0, 0.0, 0.0, 0.0, 0.0, 0.0, 0.0, 0.0, 0.0, 0.0, 0.0, 0.0, 0.0, 0.0, 0.0, 0.0, 0.0, 0.0, 0.0, 0.0, 0.0, 0.0, 0.0, 0.0, 0.0, 0.0, 0.0, 0.0, 0.0, 0.0, 0.0, 0.0, 0.0, 0.0, 0.0, 0.0, 0.0, 0.0, 0.0, 0.0, 0.0, 0.0, 0.0, 0.0, 0.0, 0.0, 0.0, 0.0, 0.0, 0.0, 0.0, 0.0, 0.0, 0.0, 0.0, 0.0, 0.0, 0.0, 0.0, 0.0, 0.0, 0.0, 0.0, 0.0, 0.0, 0.0, 0.0, 0.0, 0.0, 0.0, 0.0, 0.0, 0.0, 0.0, 0.0, 0.0, 0.0, 0.0, 0.0, 0.0, 0.0, 0.0, 0.0, 0.0, 0.0, 0.0, 0.0, 0.0, 0.0, 0.0, 0.0, 0.0, 0.0, 0.0, 0.0, 0.0, 0.0, 0.0, 0.0, 0.0, 0.0, 0.0, 0.0, 0.0, 0.0, 0.0, 0.0, 0.0, 0.0, 0.0, 0.0, 0.0, 0.0, 0.0, 0.0, 0.0, 0.0, 0.0, 0.0, 0.0, 0.0, 0.0, 0.0, 0.0, 0.0, 0.0, 0.0, 0.0, 0.0, 0.0, 0.0, 0.0, 0.0, 0.0, 0.0, 0.0, 0.0, 0.0, 0.0, 0.0, 0.0, 0.0, 0.0, 0.0, 0.0, 0.0, 0.0, 0.0, 0.0, 0.0, 0.0, 0.0, 0.0, 0.0, 0.0, 0.0, 0.0, 0.0, 0.0, 0.0, 0.0, 0.0, 0.0, 0.0, 0.0, 0.0, 0.0, 0.0, 0.0, 0.0, 0.0, 0.0, 0.0, 0.0, 0.0, 0.0, 0.0, 0.0, 0.0, 0.0, 0.0, 0.0, 0.0, 0.0, 0.0, 0.0, 0.0, 0.0, 0.0, 0.0, 0.0, 0.0, 0.0, 0.0, 0.0, 0.0, 0.0, 0.0, 0.0, 0.0, 0.0, 0.0, 0.0, 0.0, 0.0, 0.0, 0.0, 0.0, 0.0],
  "Shots": 4096,
  "Size": 13,
  "Total Algorithm duration [s]": 2.022,
  "Total Classic duration [s]": 1.9548071500494841,
  "Total Quantum duration [s]": 0.06719284995051567
}
