{
  "Circuit execution durations [ms]": [0.3675499974633567, 0.2431499960948713, 0.20650000078603625, 0.21439999545691535, 0.23610000062035397, 0.210299993341323, 0.2430500026093796, 0.2056499943137169, 0.2590999938547611, 0.22909999825060368, 0.359949997800868, 0.20524999854387715, 0.21505000040633604, 0.20714999845949933, 0.23385000531561673, 0.2234999992651865, 0.20294999558245763, 0.20249999943189323, 0.20110000332351774, 0.19920000340789557, 0.3780999904847704, 0.1559999982418958, 0.2055000077234581, 0.16884999786270782, 0.20160000713076442, 0.3781500054174103, 0.20434999896679074, 0.2845499984687194, 0.2017499937210232, 0.3815000018221326, 0.2332500007469207, 0.20334999862825498, 0.23389999842038378, 0.20300000323913991, 0.21764999837614596, 0.25394999101990834, 0.20260000019334257, 0.20605000463547185, 0.3770500043174252, 0.2944499865407124, 0.2087500033667311, 0.20349999249447137, 0.20990000484744087, 0.21120000019436702, 0.19719999545486644, 0.2015999998548068, 0.21304999972926453, 0.20679999579442665, 0.2107499894918874, 0.23469999723602086, 0.2031499971053563, 0.2007000002777204, 0.20545000006677583, 0.20480000239331275, 0.2040999970631674, 0.21535000996664166, 0.15130000247154385, 0.3696999992826022, 0.20294999558245763, 0.23499999952036887, 0.37284998688846827, 0.20655000116676092, 0.20405000395840034, 0.21070000366307795, 0.2066999950329773, 0.2035999932559207, 0.20305000361986458, 0.2027000009547919, 0.20835000032093376, 0.21565000497503206, 0.2023499910137616, 0.23469999723602086, 0.21454999659908935, 0.20274999405955896, 0.2007000002777204, 0.2039499959209934, 0.20339999900897965, 0.20244999905116856, 0.2014499987126328, 0.2028499948210083, 0.2010000025620684, 0.2028499948210083, 0.20334999862825498, 0.2009999952861108, 0.20205000328132883, 0.19734999659704044, 0.21065000328235328, 0.20384999515954405, 0.20389999554026872, 0.21024999296059832, 0.20230000518495217, 0.2105000094161369, 0.2894000062951818, 0.20835000032093376, 0.18804999854182824, 0.20404999668244272, 0.276850005320739, 0.19845000497298315, 0.3317499940749258, 0.20604999735951424, 0.20355000015115365, 0.21434999507619068, 0.21114999253768474, 0.23549999605165794, 0.20344999938970432, 0.2052000054391101, 0.20429999858606607, 0.20710000535473228, 0.20629999926313758, 0.23579999833600596, 0.20385000243550166, 0.20399999630171806, 0.20234999828971922, 0.2018999948631972, 0.20265000785002485, 0.20219999714754522, 0.20645000040531158, 0.20190000213915482, 0.22555000032298267, 0.20744999346788973, 0.2058000027318485, 0.204100004339125, 0.2066999950329773, 0.20974999642930925, 0.22939999325899407, 0.20354999287519604, 0.20309999672463164, 0.20384999515954405, 0.20305000361986458, 0.2024000059464015, 0.20940000104019418, 0.22965000243857503, 0.204100004339125, 0.20205000328132883, 0.20375000167405233, 0.20715000573545694, 0.2097000033245422, 0.20219999714754522, 0.2338499980396591, 0.2059499965980649, 0.20590000349329785, 0.20680000307038426, 0.2109500055667013, 0.2180500014219433, 0.20850000146310776, 0.20095000218134373, 0.3663500028778799, 0.20390000281622633, 0.24234999727923423, 0.204100004339125, 0.2193000036641024, 0.2032999982475303, 0.20280000171624124, 0.2019500025198795, 0.20209999638609588, 0.20504999702097848, 0.20319999748608097, 0.23270000383490697, 0.20510000467766076, 0.20219999714754522, 0.19874999270541593, 0.21315000049071386, 0.20480000966927037, 0.2754500092123635, 0.19925000378862023, 0.20444999972824007, 0.2104500017594546, 0.2028499948210083, 0.21109999215696007, 0.20319999748608097, 0.20695000421255827, 0.23300000611925498, 0.203650000912603, 0.2234999992651865, 0.2025500070885755, 0.2008500014198944, 0.21090000518597662, 0.20305000361986458, 0.20154999947408214, 0.20835000032093376, 0.23954999778652564, 0.20539999968605116, 0.20305000361986458, 0.204250005481299, 0.2211499959230423, 0.20375000167405233, 0.20315000438131392, 0.2058000027318485, 0.20390000281622633, 0.24500000290572643, 0.20435000624274835, 0.20140000560786575, 0.1980499946512282, 0.2056500015896745, 0.21004999871365726, 0.20364999363664538, 0.2028499948210083, 0.2152500019292347, 0.20840000070165843, 0.20160000713076442, 0.21505000768229365, 0.21264999668346718, 0.20850000146310776, 0.2033500059042126, 0.22385000193025917, 0.206899996555876, 0.20509999740170315, 0.20219999714754522, 0.215150008443743, 0.204250005481299, 0.2090499983751215, 0.20960000256309286, 0.23260000307345763, 0.20400000357767567, 0.20005000260425732, 0.20489999587880448, 0.20280000171624124, 0.20305000361986458, 0.21055000252090394, 0.2319999985047616, 0.20369999401737005, 0.21094999829074368, 0.20280000171624124, 0.21859999833395705, 0.21145000209799036, 0.20215000404277816, 0.23795000015525147, 0.20390000281622633, 0.20355000742711127, 0.20370000856928527, 0.21345000277506188, 0.20789999689441174, 0.21274999744491652, 0.20390000281622633, 0.2414499904261902, 0.20399999630171806, 0.2031499971053563, 0.2012999975704588, 0.20640000002458692, 0.2143500023521483, 0.20145000598859042, 0.2007000002777204, 0.2088999972329475, 0.2000499953282997, 0.2003499976126477, 0.22554999304702505, 0.20205000328132883, 0.20324999059084803, 0.2020499960053712, 0.20260000746930018, 0.20769999537151307, 0.20895000488962978, 0.21950000518700108, 0.23225000040838495, 0.20430000586202368, 0.2060999977402389, 0.20175000099698082, 0.20400000357767567, 0.20805000531254336, 0.210899997910019, 0.20209999638609588, 0.20205000328132883, 0.20134999795118347, 0.15885000175330788, 0.2028500020969659, 0.20640000002458692, 0.24205000227084383, 0.20480000239331275, 0.21120000747032464, 0.23979999241419137, 0.20420000510057434, 0.20134999795118347, 0.20304999634390697, 0.20154999219812453, 0.20809999841731042, 0.20755000150529668, 0.19644999701995403, 0.21219999325694516, 0.20294999558245763, 0.21594999998342246, 0.20509999740170315, 0.20340000628493726, 0.2720000047702342, 0.20554999355226755],
  "Depth": 2.0,
  "Expectation Value": -6.7874226570129395,
  "Optimal Expectation Value": -8.16510009765625,
  "Optimizer durations [ms]": [8.775, 6.52, 5.753, 5.804, 9.446, 5.639, 6.545, 5.764, 6.754, 20.536, 14.698, 5.739, 5.967, 5.79, 6.438, 6.205, 13.021, 5.689, 5.667, 5.873, 16.283, 16.506, 5.839, 7.965, 5.771, 13.681, 11.538, 7.405, 13.567, 13.89, 11.258, 5.749, 6.226, 10.524, 5.907, 6.61, 19.903, 5.797, 15.829, 7.49, 10.54, 5.787, 5.874, 12.406, 6.347, 18.177, 6.07, 5.846, 5.929, 6.461, 5.889, 5.761, 5.832, 5.876, 5.866, 5.918, 15.394, 8.806, 5.87, 11.173, 19.356, 10.744, 5.822, 10.815, 5.924, 5.836, 5.712, 5.758, 6.001, 7.508, 5.882, 16.546, 10.725, 5.83, 5.743, 5.864, 5.811, 5.808, 5.737, 5.937, 5.789, 5.749, 5.902, 10.64, 5.885, 5.742, 6.09, 5.86, 5.86, 6.008, 5.832, 5.707, 8.502, 5.915, 7.106, 5.87, 7.418, 19.944, 8.363, 5.796, 5.808, 6.04, 5.805, 6.146, 5.818, 5.8, 5.802, 5.705, 5.814, 6.427, 5.818, 5.749, 5.728, 5.761, 5.726, 5.758, 5.749, 6.123, 6.133, 5.784, 5.846, 5.776, 5.842, 5.801, 6.233, 5.895, 5.732, 5.791, 5.805, 5.716, 6.011, 6.141, 5.75, 5.792, 5.79, 5.78, 6.053, 5.736, 6.085, 5.841, 5.79, 5.859, 5.924, 6.043, 5.808, 5.778, 9.023, 5.75, 6.493, 5.922, 9.086, 5.768, 5.752, 5.789, 5.732, 5.765, 5.689, 6.333, 5.804, 5.765, 5.825, 6.009, 5.774, 7.056, 6.163, 5.786, 5.807, 5.756, 5.776, 5.766, 5.76, 6.303, 5.812, 6.059, 5.774, 5.798, 5.786, 5.76, 6.442, 6.069, 6.449, 5.867, 5.733, 5.789, 5.967, 5.789, 5.839, 5.872, 5.83, 6.705, 5.698, 6.478, 5.72, 5.714, 5.875, 5.73, 5.771, 6.148, 5.85, 5.752, 5.811, 5.85, 5.942, 5.84, 6.033, 5.92, 5.748, 5.85, 5.73, 5.766, 5.883, 5.89, 6.084, 5.808, 5.717, 5.764, 5.785, 5.808, 5.973, 6.173, 5.833, 5.79, 5.778, 5.846, 5.887, 5.876, 6.185, 5.772, 5.742, 5.689, 5.915, 5.848, 5.842, 5.917, 6.508, 5.769, 5.812, 5.855, 5.885, 6.36, 5.789, 5.755, 5.836, 5.785, 5.811, 6.341, 5.815, 5.765, 5.776, 5.786, 6.065, 5.958, 6.038, 6.242, 5.781, 5.756, 5.785, 5.832, 5.817, 5.899, 7.47, 5.823, 5.875, 19.382, 17.489, 5.787, 6.411, 5.785, 5.885, 6.48, 5.842, 5.752, 5.856, 5.825, 5.991, 5.999, 5.799, 5.711, 5.708, 5.787, 5.782, 5.766, 7.265, 5.848],
  "Optimizer iterations": 284,
  "Optimizer params": [0.9999999999999998, 0.4965362994348606, 0.9963695683957791, 0.5015503839480436, 0.5033928039992449, 0.005565500544576868, 0.9948929974004643, 0.49688949278315314, 0.9998327251573375, 0.49713813558984854, 0.999793814240565, 0.0017219922881704407, 0.0010956847945454004],
  "P": 0,
  "Problem": "RH",
  "QJob durations [ms]": [0.3675499974633567, 0.2431499960948713, 0.20650000078603625, 0.21439999545691535, 0.23610000062035397, 0.210299993341323, 0.2430500026093796, 0.2056499943137169, 0.2590999938547611, 0.22909999825060368, 0.359949997800868, 0.20524999854387715, 0.21505000040633604, 0.20714999845949933, 0.23385000531561673, 0.2234999992651865, 0.20294999558245763, 0.20249999943189323, 0.20110000332351774, 0.19920000340789557, 0.3780999904847704, 0.1559999982418958, 0.2055000077234581, 0.16884999786270782, 0.20160000713076442, 0.3781500054174103, 0.20434999896679074, 0.2845499984687194, 0.2017499937210232, 0.3815000018221326, 0.2332500007469207, 0.20334999862825498, 0.23389999842038378, 0.20300000323913991, 0.21764999837614596, 0.25394999101990834, 0.20260000019334257, 0.20605000463547185, 0.3770500043174252, 0.2944499865407124, 0.2087500033667311, 0.20349999249447137, 0.20990000484744087, 0.21120000019436702, 0.19719999545486644, 0.2015999998548068, 0.21304999972926453, 0.20679999579442665, 0.2107499894918874, 0.23469999723602086, 0.2031499971053563, 0.2007000002777204, 0.20545000006677583, 0.20480000239331275, 0.2040999970631674, 0.21535000996664166, 0.15130000247154385, 0.3696999992826022, 0.20294999558245763, 0.23499999952036887, 0.37284998688846827, 0.20655000116676092, 0.20405000395840034, 0.21070000366307795, 0.2066999950329773, 0.2035999932559207, 0.20305000361986458, 0.2027000009547919, 0.20835000032093376, 0.21565000497503206, 0.2023499910137616, 0.23469999723602086, 0.21454999659908935, 0.20274999405955896, 0.2007000002777204, 0.2039499959209934, 0.20339999900897965, 0.20244999905116856, 0.2014499987126328, 0.2028499948210083, 0.2010000025620684, 0.2028499948210083, 0.20334999862825498, 0.2009999952861108, 0.20205000328132883, 0.19734999659704044, 0.21065000328235328, 0.20384999515954405, 0.20389999554026872, 0.21024999296059832, 0.20230000518495217, 0.2105000094161369, 0.2894000062951818, 0.20835000032093376, 0.18804999854182824, 0.20404999668244272, 0.276850005320739, 0.19845000497298315, 0.3317499940749258, 0.20604999735951424, 0.20355000015115365, 0.21434999507619068, 0.21114999253768474, 0.23549999605165794, 0.20344999938970432, 0.2052000054391101, 0.20429999858606607, 0.20710000535473228, 0.20629999926313758, 0.23579999833600596, 0.20385000243550166, 0.20399999630171806, 0.20234999828971922, 0.2018999948631972, 0.20265000785002485, 0.20219999714754522, 0.20645000040531158, 0.20190000213915482, 0.22555000032298267, 0.20744999346788973, 0.2058000027318485, 0.204100004339125, 0.2066999950329773, 0.20974999642930925, 0.22939999325899407, 0.20354999287519604, 0.20309999672463164, 0.20384999515954405, 0.20305000361986458, 0.2024000059464015, 0.20940000104019418, 0.22965000243857503, 0.204100004339125, 0.20205000328132883, 0.20375000167405233, 0.20715000573545694, 0.2097000033245422, 0.20219999714754522, 0.2338499980396591, 0.2059499965980649, 0.20590000349329785, 0.20680000307038426, 0.2109500055667013, 0.2180500014219433, 0.20850000146310776, 0.20095000218134373, 0.3663500028778799, 0.20390000281622633, 0.24234999727923423, 0.204100004339125, 0.2193000036641024, 0.2032999982475303, 0.20280000171624124, 0.2019500025198795, 0.20209999638609588, 0.20504999702097848, 0.20319999748608097, 0.23270000383490697, 0.20510000467766076, 0.20219999714754522, 0.19874999270541593, 0.21315000049071386, 0.20480000966927037, 0.2754500092123635, 0.19925000378862023, 0.20444999972824007, 0.2104500017594546, 0.2028499948210083, 0.21109999215696007, 0.20319999748608097, 0.20695000421255827, 0.23300000611925498, 0.203650000912603, 0.2234999992651865, 0.2025500070885755, 0.2008500014198944, 0.21090000518597662, 0.20305000361986458, 0.20154999947408214, 0.20835000032093376, 0.23954999778652564, 0.20539999968605116, 0.20305000361986458, 0.204250005481299, 0.2211499959230423, 0.20375000167405233, 0.20315000438131392, 0.2058000027318485, 0.20390000281622633, 0.24500000290572643, 0.20435000624274835, 0.20140000560786575, 0.1980499946512282, 0.2056500015896745, 0.21004999871365726, 0.20364999363664538, 0.2028499948210083, 0.2152500019292347, 0.20840000070165843, 0.20160000713076442, 0.21505000768229365, 0.21264999668346718, 0.20850000146310776, 0.2033500059042126, 0.22385000193025917, 0.206899996555876, 0.20509999740170315, 0.20219999714754522, 0.215150008443743, 0.204250005481299, 0.2090499983751215, 0.20960000256309286, 0.23260000307345763, 0.20400000357767567, 0.20005000260425732, 0.20489999587880448, 0.20280000171624124, 0.20305000361986458, 0.21055000252090394, 0.2319999985047616, 0.20369999401737005, 0.21094999829074368, 0.20280000171624124, 0.21859999833395705, 0.21145000209799036, 0.20215000404277816, 0.23795000015525147, 0.20390000281622633, 0.20355000742711127, 0.20370000856928527, 0.21345000277506188, 0.20789999689441174, 0.21274999744491652, 0.20390000281622633, 0.2414499904261902, 0.20399999630171806, 0.2031499971053563, 0.2012999975704588, 0.20640000002458692, 0.2143500023521483, 0.20145000598859042, 0.2007000002777204, 0.2088999972329475, 0.2000499953282997, 0.2003499976126477, 0.22554999304702505, 0.20205000328132883, 0.20324999059084803, 0.2020499960053712, 0.20260000746930018, 0.20769999537151307, 0.20895000488962978, 0.21950000518700108, 0.23225000040838495, 0.20430000586202368, 0.2060999977402389, 0.20175000099698082, 0.20400000357767567, 0.20805000531254336, 0.210899997910019, 0.20209999638609588, 0.20205000328132883, 0.20134999795118347, 0.15885000175330788, 0.2028500020969659, 0.20640000002458692, 0.24205000227084383, 0.20480000239331275, 0.21120000747032464, 0.23979999241419137, 0.20420000510057434, 0.20134999795118347, 0.20304999634390697, 0.20154999219812453, 0.20809999841731042, 0.20755000150529668, 0.19644999701995403, 0.21219999325694516, 0.20294999558245763, 0.21594999998342246, 0.20509999740170315, 0.20340000628493726, 0.2720000047702342, 0.20554999355226755],
  "QPU": "7000000",
  "Qubits": 13,
  "Queue durations [ms]": [0.0, 0.0, 0.0, 0.0, 0.0, 0.0, 0.0, 0.0, 0.0, 0.0, 0.0, 0.0, 0.0, 0.0, 0.0, 0.0, 0.0, 0.0, 0.0, 0.0, 0.0, 0.0, 0.0, 0.0, 0.0, 0.0, 0.0, 0.0, 0.0, 0.0, 0.0, 0.0, 0.0, 0.0, 0.0, 0.0, 0.0, 0.0, 0.0, 0.0, 0.0, 0.0, 0.0, 0.0, 0.0, 0.0, 0.0, 0.0, 0.0, 0.0, 0.0, 0.0, 0.0, 0.0, 0.0, 0.0, 0.0, 0.0, 0.0, 0.0, 0.0, 0.0, 0.0, 0.0, 0.0, 0.0, 0.0, 0.0, 0.0, 0.0, 0.0, 0.0, 0.0, 0.0, 0.0, 0.0, 0.0, 0.0, 0.0, 0.0, 0.0, 0.0, 0.0, 0.0, 0.0, 0.0, 0.0, 0.0, 0.0, 0.0, 0.0, 0.0, 0.0, 0.0, 0.0, 0.0, 0.0, 0.0, 0.0, 0.0, 0.0, 0.0, 0.0, 0.0, 0.0, 0.0, 0.0, 0.0, 0.0, 0.0, 0.0, 0.0, 0.0, 0.0, 0.0, 0.0, 0.0, 0.0, 0.0, 0.0, 0.0, 0.0, 0.0, 0.0, 0.0, 0.0, 0.0, 0.0, 0.0, 0.0, 0.0, 0.0, 0.0, 0.0, 0.0, 0.0, 0.0, 0.0, 0.0, 0.0, 0.0, 0.0, 0.0, 0.0, 0.0, 0.0, 0.0, 0.0, 0.0, 0.0, 0.0, 0.0, 0.0, 0.0, 0.0, 0.0, 0.0, 0.0, 0.0, 0.0, 0.0, 0.0, 0.0, 0.0, 0.0, 0.0, 0.0, 0.0, 0.0, 0.0, 0.0, 0.0, 0.0, 0.0, 0.0, 0.0, 0.0, 0.0, 0.0, 0.0, 0.0, 0.0, 0.0, 0.0, 0.0, 0.0, 0.0, 0.0, 0.0, 0.0, 0.0, 0.0, 0.0, 0.0, 0.0, 0.0, 0.0, 0.0, 0.0, 0.0, 0.0, 0.0, 0.0, 0.0, 0.0, 0.0, 0.0, 0.0, 0.0, 0.0, 0.0, 0.0, 0.0, 0.0, 0.0, 0.0, 0.0, 0.0, 0.0, 0.0, 0.0, 0.0, 0.0, 0.0, 0.0, 0.0, 0.0, 0.0, 0.0, 0.0, 0.0, 0.0, 0.0, 0.0, 0.0, 0.0, 0.0, 0.0, 0.0, 0.0, 0.0, 0.0, 0.0, 0.0, 0.0, 0.0, 0.0, 0.0, 0.0, 0.0, 0.0, 0.0, 0.0, 0.0, 0.0, 0.0, 0.0, 0.0, 0.0, 0.0, 0.0, 0.0, 0.0, 0.0, 0.0, 0.0, 0.0, 0.0, 0.0, 0.0, 0.0, 0.0, 0.0, 0.0, 0.0, 0.0, 0.0, 0.0, 0.0, 0.0, 0.0, 0.0, 0.0, 0.0],
  "Shots": 4096,
  "Size": 13,
  "Total Algorithm duration [s]": 1.944,
  "Total Classic duration [s]": 1.8827153000170656,
  "Total Quantum duration [s]": 0.0612846999829344
}
