{
  "Circuit execution durations [ms]": [0.3357500027050264, 0.2057999954558909, 0.2835500054061413, 0.29105000430718064, 0.20909999875584617, 0.29055000049993396, 0.22774999524699524, 0.20544999279081821, 0.28789999487344176, 0.21160000324016437, 0.21025000023655593, 0.24074999237200245, 0.15749999874969944, 0.20384999515954405, 0.22695000370731577, 0.20659999427152798, 0.20725000649690628, 0.20699999731732532, 0.2822499955072999, 0.2861499960999936, 0.21034999372204766, 0.2835000050254166, 0.28500000189524144, 0.20275000133551657, 0.2792999948724173, 0.20554999355226755, 0.17305000073974952, 0.20599999697878957, 0.21004999871365726, 0.28639999800361693, 0.2024000059464015, 0.2060999977402389, 0.29099999665049836, 0.17069999739760533, 0.28619999648071826, 0.2954499941552058, 0.29289999656612054, 0.20470000163186342, 0.28559999918797985, 0.2884499990614131, 0.20470000163186342, 0.3482999964035116, 0.21660000493284315, 0.2338499980396591, 0.2868000010494143, 0.2825999981723726, 0.2049999966402538, 0.28759999986505136, 0.23474999761674553, 0.28005000058328733, 0.20850000146310776, 0.29150000045774505, 0.28649999876506627, 0.2134000023943372, 0.21640000340994447, 0.2515500091249123, 0.2864500056602992, 0.3030499938176945, 0.20640000002458692, 0.20665000192821026, 0.20325000514276326, 0.20234999828971922, 0.22465000074589625, 0.2336999968974851, 0.21874999947613105, 0.20429999858606607, 0.20740000036312267, 0.20929999300278723, 0.20510000467766076, 0.20330000552348793, 0.23225000040838495, 0.20665000192821026, 0.2059500038740225, 0.20979999681003392, 0.20399999630171806, 0.2043999993475154, 0.20265000057406723, 0.2321499996469356, 0.20325000514276326, 0.20310000400058925, 0.2121500001521781, 0.2055000077234581, 0.20855000184383243, 0.21164999634493142, 0.23135000083129853, 0.20485000277403742, 0.2044500070041977, 0.20344999938970432, 0.2062499988824129, 0.2021000036620535, 0.20355000015115365, 0.22894999710842967, 0.20605000463547185, 0.22759999410482123, 0.20554999355226755, 0.20694999693660066, 0.2103000006172806, 0.2056500015896745, 0.2100000056088902, 0.20725000649690628, 0.20575000962708145, 0.20604999008355662, 0.20330000552348793, 0.20670000230893493, 0.23504999990109354, 0.2064500076812692, 0.20905000565107912, 0.2085999949485995, 0.21565000497503206, 0.21079999714856967, 0.2098500044667162, 0.22909999825060368, 0.20434999896679074, 0.20450000010896474, 0.20730000687763095, 0.20319999748608097, 0.20384999515954405, 0.20614999812096357, 0.22300000273389742, 0.20500000391621143, 0.20334999135229737, 0.2025499998126179, 0.20319999748608097, 0.20330000552348793, 0.21815000945935026, 0.23415000759996474, 0.21200000628596172, 0.21784999989904463, 0.20524999126791954, 0.2135500035365112, 0.2049999966402538, 0.23360000341199338, 0.2553000012994744, 0.20169999334029853, 0.2060999977402389, 0.2021000036620535, 0.20540000696200877, 0.28664999990724027, 0.204100004339125, 0.21004999871365726, 0.20629999926313758, 0.2826999989338219, 0.2053499993053265, 0.2090499910991639, 0.2321499996469356, 0.20219999714754522, 0.28095000016037375, 0.20589999621734023, 0.22415000421460718, 0.20470000163186342, 0.22820000594947487, 0.16689999756636098, 0.2023499910137616, 0.2086000022245571, 0.24909999774536118, 0.20444999972824007, 0.2531500067561865, 0.20514999778242782, 0.20509999740170315, 0.24560000019846484, 0.2062499916064553, 0.25674999778857455, 0.1566499995533377, 0.20495000353548676, 0.24390000180574134, 0.20309999672463164, 0.20384999515954405, 0.20560000120894983, 0.20364999363664538, 0.24825000582495704, 0.20404999668244272, 0.25074999575736, 0.15504999464610592, 0.31999999919207767, 0.22849999368190765, 0.21104999905219302, 0.20560000120894983, 0.20480000239331275, 0.20864999532932416, 0.20440000662347302, 0.20780000340892002, 0.2116999967256561, 0.23260000307345763, 0.23010000586509705, 0.2059500038740225, 0.20459999359445646, 0.21300000662449747, 0.21680000645574182, 0.21485000615939498, 0.23669999791309237, 0.20379999477881938, 0.20670000230893493, 0.20529999892460182, 0.2035999932559207, 0.20290000247769058, 0.23440000222763047, 0.2076499949907884, 0.20304999634390697, 0.20400000357767567, 0.20375000167405233, 0.2091999995172955, 0.22175000049173832, 0.22865000210003927, 0.20470000163186342, 0.210749996767845, 0.20540000696200877, 0.21070000366307795, 0.20645000040531158, 0.20514999778242782, 0.23249999503605068, 0.2013000048464164, 0.20414999744389206, 0.2016500075114891, 0.2069000038318336, 0.2174500041292049, 0.23729999520583078, 0.20369999401737005, 0.203800002054777, 0.20645000040531158, 0.2037499943980947, 0.2038000093307346, 0.20185000175843015, 0.23330000112764537, 0.2013000048464164, 0.20294999558245763, 0.20324999786680564, 0.20289999520173296, 0.27240000054007396, 0.1965000046766363, 0.2121500001521781, 0.20599999697878957, 0.20614999084500596, 0.20790000417036936, 0.2045499932137318, 0.20539999968605116, 0.2317000034963712, 0.20629999926313758, 0.20600000425474718, 0.2147999985027127, 0.20974999642930925, 0.207349999982398, 0.20400000357767567, 0.2282999994349666, 0.20655000116676092, 0.21370000467868522, 0.20929999300278723, 0.20364999363664538, 0.20245000632712618, 0.20465000125113875, 0.24790000315988436, 0.20525000581983477, 0.20285000937292352, 0.20539999968605116, 0.2142000084859319, 0.20220000442350283, 0.21924999600742012, 0.2319999985047616, 0.20539999968605116, 0.20914999913657084, 0.20265000785002485, 0.20604999735951424, 0.20239999139448628, 0.23050000163493678, 0.21109999943291768, 0.2028500020969659, 0.20310000400058925, 0.2081500060739927, 0.2055000004475005, 0.20569999469444156, 0.23254999541677535, 0.20509999740170315, 0.2066000015474856, 0.20714999845949933, 0.21239999477984384, 0.20475000201258808, 0.20459999359445646, 0.2177500064135529, 0.23299999884329736, 0.20590000349329785, 0.20885000412818044, 0.20480000239331275, 0.20480000239331275, 0.2132499939762056, 0.2037499943980947, 0.2518999972380698, 0.203800002054777, 0.2058000027318485, 0.2205499986303039, 0.20414999016793445, 0.21399999968707561, 0.16465000226162374, 0.3444500034675002, 0.20574999507516623, 0.29085000278428197, 0.26775000151246786, 0.2057999954558909, 0.20885000412818044, 0.20495000353548676, 0.20724999194499105, 0.20399999630171806, 0.20799999765586108, 0.20080000103916973, 0.20460000087041408, 0.20459999359445646, 0.21769999875687063, 0.20465000125113875, 0.20370000856928527, 0.2295500016771257, 0.20475000201258808, 0.21130000095581636, 0.20604999008355662, 0.2056500015896745, 0.20640000002458692, 0.20914999913657084, 0.21969999943394214, 0.20799999765586108, 0.20459999359445646, 0.20950000180164352, 0.20474999473663047, 0.2053499993053265, 0.21940000442555174, 0.22330000501824543, 0.203950003196951, 0.20509999740170315, 0.20984999719075859, 0.2395999981672503, 0.210449994483497, 0.22504999651573598, 0.20850000146310776, 0.2035999932559207, 0.20300000323913991, 0.2032999909715727, 0.2023999986704439, 0.2079499972751364, 0.21019999985583127, 0.23175000387709588, 0.2045499932137318, 0.20849999418715015, 0.2608500071801245, 0.20560000120894983, 0.20559999393299222, 0.20339999173302203, 0.20360000780783594, 0.20965000294381753, 0.2109500055667013, 0.21284999093040824, 0.21054999524494633, 0.23459999647457153, 0.2652500043041073, 0.2043999993475154, 0.20415000471984968, 0.20450000010896474, 0.206899996555876, 0.20604999735951424, 0.20709999807877466, 0.20075000793440267, 0.2435000060359016, 0.200550006411504, 0.21045000903541222, 0.20574999507516623, 0.20474999473663047, 0.21085000480525196, 0.2046999943559058, 0.20685000345110893, 0.20285000937292352, 0.204250005481299, 0.21430000924738124, 0.20614999812096357, 0.23459999647457153, 0.20610000501619652, 0.20695000421255827, 0.2022500048042275, 0.2011500037042424, 0.20450000010896474, 0.23245000920724124, 0.20509999012574553, 0.21585000649793074, 0.2069000038318336, 0.20390000281622633, 0.23925000277813524, 0.20589999621734023, 0.20500000391621143, 0.2091000060318038, 0.2062499988824129, 0.20694999693660066, 0.20575000235112384, 0.20509999740170315, 0.2022499975282699, 0.20735000725835562, 0.21069999638712034, 0.20610000501619652, 0.20419999782461673, 0.21010000637033954, 0.20620000577764586, 0.2077999961329624, 0.23710000095888972, 0.21054999524494633, 0.21219999325694516, 0.2084500010823831, 0.21129999367985874, 0.2123500089510344, 0.20529999892460182, 0.21809999452671036, 0.21935000404482707, 0.204100004339125, 0.2021000036620535, 0.20175000099698082, 0.2015000063693151, 0.20570000197039917, 0.2309500050614588, 0.20360000053187832, 0.20400000357767567, 0.20635000691981986, 0.20849999418715015, 0.21200000628596172, 0.20819999917875975, 0.23234999389387667, 0.2059499965980649, 0.2169499930460006, 0.20310000400058925, 0.2078500037896447, 0.19674999930430204, 0.21054999524494633, 0.20294999558245763, 0.20500000391621143, 0.203650000912603, 0.2069000038318336, 0.20390000281622633, 0.20464999397518113, 0.20864999532932416, 0.23674999829381704, 0.2070500049740076, 0.20309999672463164, 0.20479999511735514, 0.20310000400058925, 0.2052999916486442, 0.2035000070463866, 0.23240000155055895, 0.20524999126791954, 0.2052000054391101, 0.20134999795118347, 0.20110000332351774, 0.20525000581983477, 0.20889998995698988, 0.203650000912603, 0.20610000501619652, 0.20399999630171806, 0.2179000002797693, 0.2122999940183945, 0.21920001017861068, 0.24184999347198755, 0.2050500042969361, 0.21815000218339264, 0.203800002054777, 0.20450000010896474, 0.2856999999494292, 0.23955000506248325, 0.23255000269273296, 0.20370000129332766, 0.20790000417036936, 0.23589999182149768, 0.21370000467868522, 0.21660000493284315, 0.20179999410174787, 0.20249999943189323, 0.21200000628596172, 0.20850000873906538, 0.23825000243959948, 0.21004999871365726, 0.20494999625952914, 0.2063999927486293, 0.2021000036620535, 0.20450000010896474, 0.2140500073437579, 0.23024999973131344, 0.20205000328132883, 0.20175000099698082, 0.2080000049318187, 0.20155000675003976, 0.20005000260425732, 0.20789998961845413, 0.23179999698186293, 0.2028499948210083, 0.20714999845949933, 0.2046000081463717, 0.2132499939762056, 0.20105000294279307, 0.20295001013437286, 0.2330999996047467, 0.20319999748608097, 0.20369999401737005, 0.204100004339125, 0.20249999943189323, 0.2416500065010041, 0.203800002054777, 0.23314999998547137, 0.2061500053969212, 0.20944999414496124, 0.2667500011739321, 0.20465000852709636, 0.20175000099698082, 0.2347999979974702, 0.2023499910137616, 0.2677000011317432, 0.20330000552348793, 0.2045499932137318, 0.20709999807877466, 0.2201000024797395, 0.21669999841833487, 0.20844999380642548, 0.2014499987126328, 0.20724999922094867, 0.20209999638609588, 0.20640000002458692, 0.23055000201566145, 0.2019500025198795, 0.20375000895000994, 0.20504999702097848, 0.2059500038740225, 0.2015999998548068, 0.2026999936788343, 0.26050000451505184, 0.2032999982475303, 0.2011499964282848, 0.20029999723192304, 0.2007000002777204, 0.20704999769805, 0.2317000034963712, 0.2020499960053712, 0.20599998970283195, 0.20024999685119838, 0.20139999833190814, 0.2001999964704737, 0.20379999477881938, 0.2119999990100041, 0.21855000522919, 0.20180000137770548, 0.2035000070463866],
  "Depth": 2.0,
  "Expectation Value": -8.16076946258545,
  "Optimal Expectation Value": -8.16510009765625,
  "Optimizer durations [ms]": [9.711, 5.76, 7.58, 7.53, 5.84, 7.358, 6.2, 5.839, 7.43, 5.89, 6.206, 6.527, 19.995, 5.822, 6.38, 5.832, 5.801, 5.989, 7.153, 7.248, 5.962, 7.42, 7.39, 5.762, 7.308, 5.818, 8.104, 5.722, 6.088, 7.303, 5.914, 5.916, 7.369, 7.884, 7.545, 12.412, 7.448, 5.782, 7.162, 7.462, 5.816, 8.479, 11.597, 6.348, 7.458, 7.457, 5.938, 7.268, 6.123, 7.492, 5.832, 7.279, 7.509, 5.872, 6.049, 7.23, 7.476, 22.71, 11.482, 11.348, 5.854, 5.96, 5.938, 6.415, 6.21, 5.857, 5.824, 5.887, 5.823, 5.853, 6.314, 5.837, 5.857, 5.905, 5.836, 5.866, 5.871, 6.398, 5.865, 5.852, 5.925, 5.921, 6.038, 6.023, 6.351, 5.839, 5.839, 5.845, 5.928, 5.717, 5.946, 6.112, 5.765, 6.273, 5.75, 5.856, 5.952, 5.919, 6.646, 5.828, 5.698, 5.831, 5.827, 5.783, 6.231, 5.832, 5.816, 5.763, 5.973, 5.977, 6.044, 6.333, 5.854, 5.805, 5.918, 5.747, 5.791, 5.739, 6.186, 6.064, 5.78, 5.86, 5.808, 5.862, 5.863, 6.485, 5.802, 5.9, 5.855, 6.026, 5.813, 6.238, 6.867, 6.155, 6.072, 5.869, 5.902, 7.474, 11.326, 6.107, 5.943, 7.308, 5.767, 5.806, 6.705, 5.891, 7.409, 5.719, 6.079, 5.906, 6.264, 7.907, 18.563, 5.852, 6.56, 5.848, 6.646, 5.853, 5.866, 6.419, 5.824, 7.454, 19.148, 5.881, 6.491, 6.063, 5.811, 8.498, 5.815, 6.777, 5.821, 6.508, 20.379, 8.553, 11.325, 5.958, 5.781, 5.822, 5.805, 5.836, 5.767, 5.936, 6.277, 6.015, 5.897, 5.789, 5.747, 5.761, 6.079, 6.412, 5.844, 5.858, 5.792, 5.842, 7.104, 6.413, 5.926, 5.741, 5.786, 6.201, 5.916, 6.254, 6.804, 5.85, 5.979, 5.826, 5.91, 5.788, 5.859, 6.093, 5.754, 5.822, 5.864, 5.944, 6.135, 6.556, 5.895, 5.848, 5.824, 5.824, 5.761, 5.829, 6.225, 5.832, 5.85, 5.903, 5.828, 7.168, 7.669, 6.462, 5.758, 5.844, 5.744, 5.898, 5.747, 6.254, 5.867, 5.776, 5.933, 5.712, 5.894, 5.736, 6.259, 5.934, 5.917, 5.915, 5.844, 5.767, 5.783, 6.672, 5.88, 5.755, 5.785, 6.085, 5.933, 6.131, 6.462, 5.825, 5.879, 5.833, 5.732, 5.866, 6.058, 5.906, 5.72, 5.818, 5.818, 5.849, 5.764, 6.043, 5.85, 5.832, 5.812, 5.84, 5.803, 5.86, 6.047, 6.102, 5.872, 5.768, 5.821, 5.851, 6.09, 5.815, 6.747, 5.815, 5.807, 6.09, 5.895, 5.953, 16.697, 13.11, 6.345, 7.408, 7.111, 6.076, 5.788, 5.855, 5.814, 5.843, 5.775, 6.197, 5.771, 5.864, 5.853, 5.924, 5.857, 6.388, 5.854, 5.756, 5.799, 5.929, 5.86, 5.882, 5.942, 5.8, 5.844, 5.728, 5.873, 5.882, 6.059, 6.179, 5.754, 5.912, 5.678, 6.618, 5.949, 5.871, 6.033, 5.866, 5.761, 5.76, 5.858, 5.941, 5.843, 6.43, 5.852, 5.935, 6.695, 8.481, 6.093, 5.872, 5.738, 5.792, 5.776, 5.761, 6.009, 6.319, 7.054, 5.861, 5.952, 5.751, 5.951, 6.019, 5.907, 6.21, 6.397, 5.764, 5.944, 5.85, 5.727, 5.991, 5.835, 5.898, 5.793, 5.851, 5.752, 5.717, 6.296, 5.827, 5.855, 5.819, 7.83, 5.868, 6.196, 5.817, 6.09, 5.835, 5.854, 6.242, 5.821, 5.832, 7.048, 5.796, 5.856, 5.855, 5.828, 5.7, 5.918, 5.739, 5.85, 5.837, 5.878, 5.883, 5.94, 6.341, 5.681, 6.001, 5.799, 5.913, 5.886, 5.81, 5.913, 6.168, 5.791, 5.735, 5.693, 5.723, 5.739, 6.27, 5.753, 5.794, 5.792, 5.929, 6.063, 5.972, 6.054, 5.874, 5.973, 5.749, 5.881, 6.703, 5.865, 6.415, 5.732, 5.835, 5.743, 5.72, 5.821, 6.025, 6.162, 5.842, 5.696, 5.756, 5.787, 5.754, 5.807, 6.358, 5.798, 5.723, 5.746, 5.701, 5.917, 5.983, 5.833, 5.714, 5.773, 5.754, 5.969, 5.989, 6.409, 5.838, 5.972, 5.697, 5.863, 7.389, 22.75, 6.537, 11.694, 5.798, 6.456, 5.951, 5.788, 5.921, 5.765, 5.835, 5.795, 6.218, 5.815, 5.81, 5.753, 5.711, 5.785, 5.893, 6.179, 5.763, 5.742, 5.969, 5.693, 5.731, 5.859, 6.258, 5.836, 5.855, 5.879, 5.763, 5.848, 5.895, 6.135, 5.845, 5.939, 5.892, 5.787, 6.267, 5.85, 6.406, 5.791, 5.899, 7.034, 5.705, 5.831, 6.451, 5.769, 7.158, 7.501, 5.799, 5.834, 5.958, 6.081, 5.911, 5.708, 5.907, 5.804, 5.96, 6.315, 5.811, 5.86, 5.813, 5.844, 5.825, 5.8, 6.985, 5.871, 5.773, 5.765, 5.757, 5.855, 6.218, 5.765, 5.973, 5.774, 5.811, 5.749, 5.86, 5.854, 6.148, 5.787, 5.842],
  "Optimizer iterations": 538,
  "Optimizer params": [0.998824335371786, 0.4985483813164329, 0.9996789715841868, 0.48139480797033146, 0.4984242540868816, 0.9997537455786566, 0.4988018874920137, 0.502646828936098, 0.9980083832926943, 0.5019681996156905, 0.007641297664441572, 0.005411990367795069, 0.003539908172829279],
  "P": 0,
  "Problem": "RH",
  "QJob durations [ms]": [0.3357500027050264, 0.2057999954558909, 0.2835500054061413, 0.29105000430718064, 0.20909999875584617, 0.29055000049993396, 0.22774999524699524, 0.20544999279081821, 0.28789999487344176, 0.21160000324016437, 0.21025000023655593, 0.24074999237200245, 0.15749999874969944, 0.20384999515954405, 0.22695000370731577, 0.20659999427152798, 0.20725000649690628, 0.20699999731732532, 0.2822499955072999, 0.2861499960999936, 0.21034999372204766, 0.2835000050254166, 0.28500000189524144, 0.20275000133551657, 0.2792999948724173, 0.20554999355226755, 0.17305000073974952, 0.20599999697878957, 0.21004999871365726, 0.28639999800361693, 0.2024000059464015, 0.2060999977402389, 0.29099999665049836, 0.17069999739760533, 0.28619999648071826, 0.2954499941552058, 0.29289999656612054, 0.20470000163186342, 0.28559999918797985, 0.2884499990614131, 0.20470000163186342, 0.3482999964035116, 0.21660000493284315, 0.2338499980396591, 0.2868000010494143, 0.2825999981723726, 0.2049999966402538, 0.28759999986505136, 0.23474999761674553, 0.28005000058328733, 0.20850000146310776, 0.29150000045774505, 0.28649999876506627, 0.2134000023943372, 0.21640000340994447, 0.2515500091249123, 0.2864500056602992, 0.3030499938176945, 0.20640000002458692, 0.20665000192821026, 0.20325000514276326, 0.20234999828971922, 0.22465000074589625, 0.2336999968974851, 0.21874999947613105, 0.20429999858606607, 0.20740000036312267, 0.20929999300278723, 0.20510000467766076, 0.20330000552348793, 0.23225000040838495, 0.20665000192821026, 0.2059500038740225, 0.20979999681003392, 0.20399999630171806, 0.2043999993475154, 0.20265000057406723, 0.2321499996469356, 0.20325000514276326, 0.20310000400058925, 0.2121500001521781, 0.2055000077234581, 0.20855000184383243, 0.21164999634493142, 0.23135000083129853, 0.20485000277403742, 0.2044500070041977, 0.20344999938970432, 0.2062499988824129, 0.2021000036620535, 0.20355000015115365, 0.22894999710842967, 0.20605000463547185, 0.22759999410482123, 0.20554999355226755, 0.20694999693660066, 0.2103000006172806, 0.2056500015896745, 0.2100000056088902, 0.20725000649690628, 0.20575000962708145, 0.20604999008355662, 0.20330000552348793, 0.20670000230893493, 0.23504999990109354, 0.2064500076812692, 0.20905000565107912, 0.2085999949485995, 0.21565000497503206, 0.21079999714856967, 0.2098500044667162, 0.22909999825060368, 0.20434999896679074, 0.20450000010896474, 0.20730000687763095, 0.20319999748608097, 0.20384999515954405, 0.20614999812096357, 0.22300000273389742, 0.20500000391621143, 0.20334999135229737, 0.2025499998126179, 0.20319999748608097, 0.20330000552348793, 0.21815000945935026, 0.23415000759996474, 0.21200000628596172, 0.21784999989904463, 0.20524999126791954, 0.2135500035365112, 0.2049999966402538, 0.23360000341199338, 0.2553000012994744, 0.20169999334029853, 0.2060999977402389, 0.2021000036620535, 0.20540000696200877, 0.28664999990724027, 0.204100004339125, 0.21004999871365726, 0.20629999926313758, 0.2826999989338219, 0.2053499993053265, 0.2090499910991639, 0.2321499996469356, 0.20219999714754522, 0.28095000016037375, 0.20589999621734023, 0.22415000421460718, 0.20470000163186342, 0.22820000594947487, 0.16689999756636098, 0.2023499910137616, 0.2086000022245571, 0.24909999774536118, 0.20444999972824007, 0.2531500067561865, 0.20514999778242782, 0.20509999740170315, 0.24560000019846484, 0.2062499916064553, 0.25674999778857455, 0.1566499995533377, 0.20495000353548676, 0.24390000180574134, 0.20309999672463164, 0.20384999515954405, 0.20560000120894983, 0.20364999363664538, 0.24825000582495704, 0.20404999668244272, 0.25074999575736, 0.15504999464610592, 0.31999999919207767, 0.22849999368190765, 0.21104999905219302, 0.20560000120894983, 0.20480000239331275, 0.20864999532932416, 0.20440000662347302, 0.20780000340892002, 0.2116999967256561, 0.23260000307345763, 0.23010000586509705, 0.2059500038740225, 0.20459999359445646, 0.21300000662449747, 0.21680000645574182, 0.21485000615939498, 0.23669999791309237, 0.20379999477881938, 0.20670000230893493, 0.20529999892460182, 0.2035999932559207, 0.20290000247769058, 0.23440000222763047, 0.2076499949907884, 0.20304999634390697, 0.20400000357767567, 0.20375000167405233, 0.2091999995172955, 0.22175000049173832, 0.22865000210003927, 0.20470000163186342, 0.210749996767845, 0.20540000696200877, 0.21070000366307795, 0.20645000040531158, 0.20514999778242782, 0.23249999503605068, 0.2013000048464164, 0.20414999744389206, 0.2016500075114891, 0.2069000038318336, 0.2174500041292049, 0.23729999520583078, 0.20369999401737005, 0.203800002054777, 0.20645000040531158, 0.2037499943980947, 0.2038000093307346, 0.20185000175843015, 0.23330000112764537, 0.2013000048464164, 0.20294999558245763, 0.20324999786680564, 0.20289999520173296, 0.27240000054007396, 0.1965000046766363, 0.2121500001521781, 0.20599999697878957, 0.20614999084500596, 0.20790000417036936, 0.2045499932137318, 0.20539999968605116, 0.2317000034963712, 0.20629999926313758, 0.20600000425474718, 0.2147999985027127, 0.20974999642930925, 0.207349999982398, 0.20400000357767567, 0.2282999994349666, 0.20655000116676092, 0.21370000467868522, 0.20929999300278723, 0.20364999363664538, 0.20245000632712618, 0.20465000125113875, 0.24790000315988436, 0.20525000581983477, 0.20285000937292352, 0.20539999968605116, 0.2142000084859319, 0.20220000442350283, 0.21924999600742012, 0.2319999985047616, 0.20539999968605116, 0.20914999913657084, 0.20265000785002485, 0.20604999735951424, 0.20239999139448628, 0.23050000163493678, 0.21109999943291768, 0.2028500020969659, 0.20310000400058925, 0.2081500060739927, 0.2055000004475005, 0.20569999469444156, 0.23254999541677535, 0.20509999740170315, 0.2066000015474856, 0.20714999845949933, 0.21239999477984384, 0.20475000201258808, 0.20459999359445646, 0.2177500064135529, 0.23299999884329736, 0.20590000349329785, 0.20885000412818044, 0.20480000239331275, 0.20480000239331275, 0.2132499939762056, 0.2037499943980947, 0.2518999972380698, 0.203800002054777, 0.2058000027318485, 0.2205499986303039, 0.20414999016793445, 0.21399999968707561, 0.16465000226162374, 0.3444500034675002, 0.20574999507516623, 0.29085000278428197, 0.26775000151246786, 0.2057999954558909, 0.20885000412818044, 0.20495000353548676, 0.20724999194499105, 0.20399999630171806, 0.20799999765586108, 0.20080000103916973, 0.20460000087041408, 0.20459999359445646, 0.21769999875687063, 0.20465000125113875, 0.20370000856928527, 0.2295500016771257, 0.20475000201258808, 0.21130000095581636, 0.20604999008355662, 0.2056500015896745, 0.20640000002458692, 0.20914999913657084, 0.21969999943394214, 0.20799999765586108, 0.20459999359445646, 0.20950000180164352, 0.20474999473663047, 0.2053499993053265, 0.21940000442555174, 0.22330000501824543, 0.203950003196951, 0.20509999740170315, 0.20984999719075859, 0.2395999981672503, 0.210449994483497, 0.22504999651573598, 0.20850000146310776, 0.2035999932559207, 0.20300000323913991, 0.2032999909715727, 0.2023999986704439, 0.2079499972751364, 0.21019999985583127, 0.23175000387709588, 0.2045499932137318, 0.20849999418715015, 0.2608500071801245, 0.20560000120894983, 0.20559999393299222, 0.20339999173302203, 0.20360000780783594, 0.20965000294381753, 0.2109500055667013, 0.21284999093040824, 0.21054999524494633, 0.23459999647457153, 0.2652500043041073, 0.2043999993475154, 0.20415000471984968, 0.20450000010896474, 0.206899996555876, 0.20604999735951424, 0.20709999807877466, 0.20075000793440267, 0.2435000060359016, 0.200550006411504, 0.21045000903541222, 0.20574999507516623, 0.20474999473663047, 0.21085000480525196, 0.2046999943559058, 0.20685000345110893, 0.20285000937292352, 0.204250005481299, 0.21430000924738124, 0.20614999812096357, 0.23459999647457153, 0.20610000501619652, 0.20695000421255827, 0.2022500048042275, 0.2011500037042424, 0.20450000010896474, 0.23245000920724124, 0.20509999012574553, 0.21585000649793074, 0.2069000038318336, 0.20390000281622633, 0.23925000277813524, 0.20589999621734023, 0.20500000391621143, 0.2091000060318038, 0.2062499988824129, 0.20694999693660066, 0.20575000235112384, 0.20509999740170315, 0.2022499975282699, 0.20735000725835562, 0.21069999638712034, 0.20610000501619652, 0.20419999782461673, 0.21010000637033954, 0.20620000577764586, 0.2077999961329624, 0.23710000095888972, 0.21054999524494633, 0.21219999325694516, 0.2084500010823831, 0.21129999367985874, 0.2123500089510344, 0.20529999892460182, 0.21809999452671036, 0.21935000404482707, 0.204100004339125, 0.2021000036620535, 0.20175000099698082, 0.2015000063693151, 0.20570000197039917, 0.2309500050614588, 0.20360000053187832, 0.20400000357767567, 0.20635000691981986, 0.20849999418715015, 0.21200000628596172, 0.20819999917875975, 0.23234999389387667, 0.2059499965980649, 0.2169499930460006, 0.20310000400058925, 0.2078500037896447, 0.19674999930430204, 0.21054999524494633, 0.20294999558245763, 0.20500000391621143, 0.203650000912603, 0.2069000038318336, 0.20390000281622633, 0.20464999397518113, 0.20864999532932416, 0.23674999829381704, 0.2070500049740076, 0.20309999672463164, 0.20479999511735514, 0.20310000400058925, 0.2052999916486442, 0.2035000070463866, 0.23240000155055895, 0.20524999126791954, 0.2052000054391101, 0.20134999795118347, 0.20110000332351774, 0.20525000581983477, 0.20889998995698988, 0.203650000912603, 0.20610000501619652, 0.20399999630171806, 0.2179000002797693, 0.2122999940183945, 0.21920001017861068, 0.24184999347198755, 0.2050500042969361, 0.21815000218339264, 0.203800002054777, 0.20450000010896474, 0.2856999999494292, 0.23955000506248325, 0.23255000269273296, 0.20370000129332766, 0.20790000417036936, 0.23589999182149768, 0.21370000467868522, 0.21660000493284315, 0.20179999410174787, 0.20249999943189323, 0.21200000628596172, 0.20850000873906538, 0.23825000243959948, 0.21004999871365726, 0.20494999625952914, 0.2063999927486293, 0.2021000036620535, 0.20450000010896474, 0.2140500073437579, 0.23024999973131344, 0.20205000328132883, 0.20175000099698082, 0.2080000049318187, 0.20155000675003976, 0.20005000260425732, 0.20789998961845413, 0.23179999698186293, 0.2028499948210083, 0.20714999845949933, 0.2046000081463717, 0.2132499939762056, 0.20105000294279307, 0.20295001013437286, 0.2330999996047467, 0.20319999748608097, 0.20369999401737005, 0.204100004339125, 0.20249999943189323, 0.2416500065010041, 0.203800002054777, 0.23314999998547137, 0.2061500053969212, 0.20944999414496124, 0.2667500011739321, 0.20465000852709636, 0.20175000099698082, 0.2347999979974702, 0.2023499910137616, 0.2677000011317432, 0.20330000552348793, 0.2045499932137318, 0.20709999807877466, 0.2201000024797395, 0.21669999841833487, 0.20844999380642548, 0.2014499987126328, 0.20724999922094867, 0.20209999638609588, 0.20640000002458692, 0.23055000201566145, 0.2019500025198795, 0.20375000895000994, 0.20504999702097848, 0.2059500038740225, 0.2015999998548068, 0.2026999936788343, 0.26050000451505184, 0.2032999982475303, 0.2011499964282848, 0.20029999723192304, 0.2007000002777204, 0.20704999769805, 0.2317000034963712, 0.2020499960053712, 0.20599998970283195, 0.20024999685119838, 0.20139999833190814, 0.2001999964704737, 0.20379999477881938, 0.2119999990100041, 0.21855000522919, 0.20180000137770548, 0.2035000070463866],
  "QPU": "7000000",
  "Qubits": 13,
  "Queue durations [ms]": [0.0, 0.0, 0.0, 0.0, 0.0, 0.0, 0.0, 0.0, 0.0, 0.0, 0.0, 0.0, 0.0, 0.0, 0.0, 0.0, 0.0, 0.0, 0.0, 0.0, 0.0, 0.0, 0.0, 0.0, 0.0, 0.0, 0.0, 0.0, 0.0, 0.0, 0.0, 0.0, 0.0, 0.0, 0.0, 0.0, 0.0, 0.0, 0.0, 0.0, 0.0, 0.0, 0.0, 0.0, 0.0, 0.0, 0.0, 0.0, 0.0, 0.0, 0.0, 0.0, 0.0, 0.0, 0.0, 0.0, 0.0, 0.0, 0.0, 0.0, 0.0, 0.0, 0.0, 0.0, 0.0, 0.0, 0.0, 0.0, 0.0, 0.0, 0.0, 0.0, 0.0, 0.0, 0.0, 0.0, 0.0, 0.0, 0.0, 0.0, 0.0, 0.0, 0.0, 0.0, 0.0, 0.0, 0.0, 0.0, 0.0, 0.0, 0.0, 0.0, 0.0, 0.0, 0.0, 0.0, 0.0, 0.0, 0.0, 0.0, 0.0, 0.0, 0.0, 0.0, 0.0, 0.0, 0.0, 0.0, 0.0, 0.0, 0.0, 0.0, 0.0, 0.0, 0.0, 0.0, 0.0, 0.0, 0.0, 0.0, 0.0, 0.0, 0.0, 0.0, 0.0, 0.0, 0.0, 0.0, 0.0, 0.0, 0.0, 0.0, 0.0, 0.0, 0.0, 0.0, 0.0, 0.0, 0.0, 0.0, 0.0, 0.0, 0.0, 0.0, 0.0, 0.0, 0.0, 0.0, 0.0, 0.0, 0.0, 0.0, 0.0, 0.0, 0.0, 0.0, 0.0, 0.0, 0.0, 0.0, 0.0, 0.0, 0.0, 0.0, 0.0, 0.0, 0.0, 0.0, 0.0, 0.0, 0.0, 0.0, 0.0, 0.0, 0.0, 0.0, 0.0, 0.0, 0.0, 0.0, 0.0, 0.0, 0.0, 0.0, 0.0, 0.0, 0.0, 0.0, 0.0, 0.0, 0.0, 0.0, 0.0, 0.0, 0.0, 0.0, 0.0, 0.0, 0.0, 0.0, 0.0, 0.0, 0.0, 0.0, 0.0, 0.0, 0.0, 0.0, 0.0, 0.0, 0.0, 0.0, 0.0, 0.0, 0.0, 0.0, 0.0, 0.0, 0.0, 0.0, 0.0, 0.0, 0.0, 0.0, 0.0, 0.0, 0.0, 0.0, 0.0, 0.0, 0.0, 0.0, 0.0, 0.0, 0.0, 0.0, 0.0, 0.0, 0.0, 0.0, 0.0, 0.0, 0.0, 0.0, 0.0, 0.0, 0.0, 0.0, 0.0, 0.0, 0.0, 0.0, 0.0, 0.0, 0.0, 0.0, 0.0, 0.0, 0.0, 0.0, 0.0, 0.0, 0.0, 0.0, 0.0, 0.0, 0.0, 0.0, 0.0, 0.0, 0.0, 0.0, 0.0, 0.0, 0.0, 0.0, 0.0, 0.0, 0.0, 0.0, 0.0, 0.0, 0.0, 0.0, 0.0, 0.0, 0.0, 0.0, 0.0, 0.0, 0.0, 0.0, 0.0, 0.0, 0.0, 0.0, 0.0, 0.0, 0.0, 0.0, 0.0, 0.0, 0.0, 0.0, 0.0, 0.0, 0.0, 0.0, 0.0, 0.0, 0.0, 0.0, 0.0, 0.0, 0.0, 0.0, 0.0, 0.0, 0.0, 0.0, 0.0, 0.0, 0.0, 0.0, 0.0, 0.0, 0.0, 0.0, 0.0, 0.0, 0.0, 0.0, 0.0, 0.0, 0.0, 0.0, 0.0, 0.0, 0.0, 0.0, 0.0, 0.0, 0.0, 0.0, 0.0, 0.0, 0.0, 0.0, 0.0, 0.0, 0.0, 0.0, 0.0, 0.0, 0.0, 0.0, 0.0, 0.0, 0.0, 0.0, 0.0, 0.0, 0.0, 0.0, 0.0, 0.0, 0.0, 0.0, 0.0, 0.0, 0.0, 0.0, 0.0, 0.0, 0.0, 0.0, 0.0, 0.0, 0.0, 0.0, 0.0, 0.0, 0.0, 0.0, 0.0, 0.0, 0.0, 0.0, 0.0, 0.0, 0.0, 0.0, 0.0, 0.0, 0.0, 0.0, 0.0, 0.0, 0.0, 0.0, 0.0, 0.0, 0.0, 0.0, 0.0, 0.0, 0.0, 0.0, 0.0, 0.0, 0.0, 0.0, 0.0, 0.0, 0.0, 0.0, 0.0, 0.0, 0.0, 0.0, 0.0, 0.0, 0.0, 0.0, 0.0, 0.0, 0.0, 0.0, 0.0, 0.0, 0.0, 0.0, 0.0, 0.0, 0.0, 0.0, 0.0, 0.0, 0.0, 0.0, 0.0, 0.0, 0.0, 0.0, 0.0, 0.0, 0.0, 0.0, 0.0, 0.0, 0.0, 0.0, 0.0, 0.0, 0.0, 0.0, 0.0, 0.0, 0.0, 0.0, 0.0, 0.0, 0.0, 0.0, 0.0, 0.0, 0.0, 0.0, 0.0, 0.0, 0.0, 0.0, 0.0, 0.0, 0.0, 0.0, 0.0, 0.0, 0.0, 0.0, 0.0, 0.0, 0.0, 0.0, 0.0, 0.0, 0.0, 0.0, 0.0, 0.0, 0.0, 0.0, 0.0, 0.0, 0.0, 0.0, 0.0, 0.0, 0.0, 0.0, 0.0, 0.0, 0.0, 0.0, 0.0, 0.0, 0.0, 0.0, 0.0, 0.0, 0.0, 0.0, 0.0, 0.0, 0.0, 0.0, 0.0, 0.0, 0.0, 0.0, 0.0, 0.0, 0.0, 0.0, 0.0, 0.0, 0.0, 0.0, 0.0, 0.0, 0.0, 0.0, 0.0, 0.0, 0.0, 0.0, 0.0, 0.0],
  "Shots": 4096,
  "Size": 13,
  "Total Algorithm duration [s]": 3.416,
  "Total Classic duration [s]": 3.299773499925155,
  "Total Quantum duration [s]": 0.11622650007484481
}
