{
  "Circuit execution durations [ms]": [15.971183776855469, 16.091108322143555, 16.056060791015625, 15.915870666503906, 15.864133834838867, 16.034603118896484, 15.847206115722656, 15.825033187866211, 16.239166259765625, 16.028404235839844, 15.923738479614258, 16.089439392089844, 16.047239303588867, 15.941619873046875, 15.878915786743164, 16.14975929260254, 15.950679779052734, 15.828132629394531, 15.983104705810547, 16.134262084960938, 15.842199325561523, 16.12377166748047, 16.168832778930664, 16.107797622680664, 16.161680221557617, 15.923261642456055, 16.0062313079834, 16.11185073852539, 15.96379280090332, 15.862226486206055, 15.936851501464844, 15.986442565917969, 15.935182571411133, 15.905141830444336, 15.856266021728516, 16.01123809814453, 15.944242477416992, 15.984535217285156, 15.851259231567383, 16.02792739868164, 15.984296798706055, 15.999317169189453, 15.869617462158203, 15.960216522216797, 16.013622283935547, 16.029834747314453, 15.887022018432617, 15.829801559448242, 16.091108322143555, 15.999555587768555, 15.841484069824219, 15.914201736450195, 15.903711318969727, 15.907049179077148, 15.848875045776367, 16.099214553833008, 15.91348648071289, 16.106605529785156, 15.959978103637695, 15.976905822753906, 16.01409912109375, 15.914678573608398, 16.03841781616211, 16.056060791015625, 15.85531234741211, 16.066312789916992, 15.93327522277832, 16.103744506835938, 15.886306762695313, 15.954017639160156, 15.978336334228516, 16.021251678466797, 15.839576721191406, 15.83242416381836, 15.912294387817383, 15.933513641357422, 15.820503234863281],
  "Depth": 185.0,
  "Expectation Value": -12.966796875,
  "Optimal Expectation Value": -14.0,
  "Optimizer durations [ms]": [262.818, 221.465, 221.917, 262.996, 222.162, 221.361, 222.798, 263.656, 222.856, 222.385, 262.568, 222.062, 221.826, 261.778, 221.508, 222.531, 261.92, 222.11, 221.772, 264.372, 221.671, 222.115, 223.694, 261.261, 222.939, 221.715, 265.518, 221.65, 223.293, 260.464, 222.319, 222.494, 261.076, 222.687, 221.087, 262.051, 221.011, 222.179, 221.711, 259.901, 221.841, 221.939, 262.047, 221.575, 221.786, 259.845, 221.891, 221.832, 261.202, 224.123, 221.56, 262.625, 222.183, 222.051, 263.638, 222.293, 221.942, 221.47, 262.929, 221.947, 222.919, 262.382, 222.387, 222.329, 260.691, 222.31, 221.825, 261.782, 222.371, 222.632, 262.056, 221.522, 221.399, 222.023, 260.091, 223.383, 222.374],
  "Optimizer iterations": 77,
  "Optimizer params": [0.9309725213053882, 0.8851526673860575, 0.6719548702178784, 0.5508642353295231, 0.9736080907509606, 0.13770811305287015],
  "P": 3,
  "Problem": "MCP",
  "QJob durations [ms]": [197.47257232666016, 156.26764297485352, 156.9056510925293, 197.50308990478516, 156.9063663482666, 156.66937828063965, 156.9204330444336, 158.09917449951172, 157.24682807922363, 156.9814682006836, 156.9063663482666, 156.65411949157715, 156.77523612976074, 157.08684921264648, 156.55112266540527, 157.07945823669434, 196.547269821167, 156.68821334838867, 156.6600799560547, 198.75454902648926, 156.7060947418213, 156.83412551879883, 157.35363960266113, 157.09233283996582, 157.13047981262207, 157.11474418640137, 156.76236152648926, 156.78668022155762, 157.64904022216797, 156.96263313293457, 156.94355964660645, 156.61025047302246, 196.59066200256348, 156.9960117340088, 156.53443336486816, 196.9897747039795, 156.46600723266602, 156.71491622924805, 156.79574012756348, 156.51845932006836, 156.79025650024414, 156.70394897460938, 157.18317031860352, 156.59117698669434, 156.71515464782715, 157.37247467041016, 156.77404403686523, 157.14740753173828, 157.3634147644043, 158.77318382263184, 156.52084350585938, 197.5114345550537, 156.74901008605957, 157.00268745422363, 197.0498561859131, 157.1035385131836, 156.8922996520996, 156.4171314239502, 157.7906608581543, 156.74114227294922, 157.77254104614258, 156.6915512084961, 157.8199863433838, 156.9383144378662, 156.64386749267578, 156.50463104248047, 156.77475929260254, 196.73442840576172, 157.1500301361084, 157.6831340789795, 197.04818725585938, 156.83627128601074, 156.5253734588623, 157.23919868469238, 156.2521457672119, 158.3995819091797, 156.82721138000488],
  "QPU": "3010008",
  "Qubits": 10,
  "Queue durations [ms]": [0.0, 0.0, 0.0, 0.0, 0.0, 0.0, 0.0, 0.0, 0.0, 0.0, 0.0, 0.0, 0.0, 0.0, 0.0, 0.0, 0.0, 0.0, 0.0, 0.0, 0.0, 0.0, 0.0, 0.0, 0.0, 0.0, 0.0, 0.0, 0.0, 0.0, 0.0, 0.0, 0.0, 0.0, 0.0, 0.0, 0.0, 0.0, 0.0, 0.0, 0.0, 0.0, 0.0, 0.0, 0.0, 0.0, 0.0, 0.0, 0.0, 0.0, 0.0, 0.0, 0.0, 0.0, 0.0, 0.0, 0.0, 0.0, 0.0, 0.0, 0.0, 0.0, 0.0, 0.0, 0.0, 0.0, 0.0, 0.0, 0.0, 0.0, 0.0, 0.0, 0.0, 0.0, 0.0, 0.0, 0.0],
  "Shots": 4096,
  "Size": 10,
  "Total Algorithm duration [s]": 18.062,
  "Total Classic duration [s]": 5.572738134384156,
  "Total Quantum duration [s]": 12.489261865615845
}
