{
  "Circuit execution durations [ms]": [161.0, 152.0, 161.0, 135.0, 137.0, 135.0, 152.0, 142.0, 141.0, 164.0, 141.0, 139.0, 138.0, 158.0, 162.0, 133.0, 151.0, 145.0, 146.0, 163.0, 189.0, 129.0, 146.0, 158.0, 202.0, 133.0, 138.0, 154.0, 145.0, 152.0, 204.0, 152.0, 147.0, 168.0, 163.0, 143.0, 150.0, 139.0, 132.0, 147.0, 138.0, 150.0, 150.0, 161.0, 263.0, 141.0, 187.0, 147.0, 143.0, 258.0, 152.0, 163.0, 154.0, 142.0, 150.0, 197.0, 188.0, 158.0, 148.0, 239.0, 152.0, 148.0, 220.0, 149.0, 138.0, 125.0, 135.0, 143.0, 152.0, 138.0, 132.0, 147.0, 142.0, 150.0, 149.0, 196.0, 156.0, 146.0, 140.0, 158.0, 139.0, 148.0, 164.0, 166.0, 173.0, 151.0, 162.0, 160.0, 139.0, 148.0, 153.0, 141.0, 132.0, 157.0, 150.0, 144.0, 155.0, 138.0, 139.0, 252.0, 129.0, 148.0, 153.0, 179.0, 148.0, 138.0, 143.0, 157.0, 145.0, 174.0, 149.0, 154.0, 139.0],
  "Depth": 532.0,
  "Expectation Value": -3.20654296875,
  "Optimal Expectation Value": -5.0,
  "Optimizer durations [ms]": [6507.284, 6144.587, 6252.259, 6294.974, 6182.229, 6238.353, 6236.735, 6403.562, 6365.157, 6232.897, 6184.301, 6418.845, 6305.83, 6240.772, 6138.31, 6593.256, 6212.286, 6277.995, 6130.103, 6367.519, 6200.379, 6416.557, 6347.836, 6222.52, 6337.799, 6407.32, 6514.642, 6433.224, 6442.701, 6496.117, 6303.259, 6235.054, 6412.298, 6109.921, 6244.275, 6297.486, 6314.769, 6304.343, 6258.661, 6249.504, 6504.161, 6257.045, 6272.148, 6665.083, 6253.646, 6435.576, 6336.374, 6402.152, 6212.968, 6113.946, 6192.965, 6358.282, 6186.777, 6265.502, 6502.181, 6333.575, 6303.581, 6531.16, 6208.568, 6316.466, 6199.225, 6303.543, 6251.819, 6281.674, 6344.527, 6558.992, 6476.027, 6512.883, 6787.459, 6253.564, 6233.64, 6294.975, 6180.093, 6466.496, 6374.604, 6298.121, 6831.823, 6199.639, 6148.53, 6295.449, 6369.67, 6218.212, 6246.829, 6485.576, 6353.983, 6162.369, 6457.929, 6212.204, 6250.782, 6225.837, 6149.969, 6307.181, 6218.165, 6250.999, 6227.379, 6285.689, 6377.419, 6333.443, 6356.716, 7412.84, 6312.116, 6288.224, 6182.821, 6548.561, 6240.006, 6116.162, 6172.66, 6385.935, 6184.853, 6447.82, 6280.649, 16948.598, 6488.948],
  "Optimizer iterations": 113,
  "Optimizer params": [0.26612586403717203, 0.9401138914055037, 0.043747432739159514, 0.9610256797098742, 0.030131547620662086, 0.4144807993294525],
  "P": 3,
  "Problem": "DSP",
  "QJob durations [ms]": [6335.146427154541, 6019.969940185547, 6069.039583206177, 6155.047178268433, 6008.5289478302, 6116.640329360962, 6066.833019256592, 6281.9664478302, 6154.332637786865, 6109.521865844727, 6059.189081192017, 6294.466733932495, 6181.905031204224, 6057.794570922852, 6013.874769210815, 6412.22620010376, 6081.58016204834, 6099.782705307007, 5994.792461395264, 6117.048740386963, 6067.868709564209, 6243.71337890625, 6217.530727386475, 6095.336675643921, 6190.717458724976, 6281.4271450042725, 6334.078788757324, 6308.755397796631, 6260.414600372314, 6353.478670120239, 6123.002529144287, 6109.361410140991, 6236.120700836182, 5985.16583442688, 6073.476791381836, 6171.983480453491, 6191.320180892944, 6176.384925842285, 6135.623455047607, 6070.870637893677, 6377.269506454468, 6077.685832977295, 6148.89669418335, 6494.323253631592, 6131.091117858887, 6265.1002407073975, 6212.455987930298, 6232.241153717041, 6089.789628982544, 5989.0077114105225, 6065.019369125366, 6234.964847564697, 6006.661415100098, 6141.255617141724, 6329.050064086914, 6209.23638343811, 6133.377552032471, 6406.5070152282715, 6037.707805633545, 6191.463232040405, 6019.917249679565, 6177.209138870239, 6123.153209686279, 6150.524616241455, 6219.45333480835, 6340.008020401001, 6344.179630279541, 6335.0794315338135, 6661.12756729126, 6072.668552398682, 6108.293294906616, 6118.251800537109, 6053.830146789551, 6287.522077560425, 6249.655961990356, 6175.60887336731, 6710.2460861206055, 6074.8021602630615, 5969.018220901489, 6169.085502624512, 6191.488027572632, 6096.316576004028, 6066.754102706909, 6360.437870025635, 6185.988187789917, 6033.805131912231, 6276.066780090332, 6088.86456489563, 6124.336242675781, 6100.989818572998, 6026.412725448608, 6131.784677505493, 6094.6455001831055, 6072.958469390869, 6102.35595703125, 6108.124494552612, 6253.826141357422, 6146.726369857788, 6217.4999713897705, 7231.107711791992, 6184.452295303345, 6164.297342300415, 6058.771371841431, 6422.226667404175, 6063.116073608398, 5971.816062927246, 5985.910415649414, 6261.219501495361, 6010.611057281494, 6323.6823081970215, 6092.092990875244, 16822.62372970581, 6314.781188964844],
  "QPU": "10000001",
  "Qubits": 12,
  "Queue durations [ms]": [0.0, 0.0, 0.0, 0.0, 0.0, 0.0, 0.0, 0.0, 0.0, 0.0, 0.0, 0.0, 0.0, 0.0, 0.0, 0.0, 0.0, 0.0, 0.0, 0.0, 0.0, 0.0, 0.0, 0.0, 0.0, 0.0, 0.0, 0.0, 0.0, 0.0, 0.0, 0.0, 0.0, 0.0, 0.0, 0.0, 0.0, 0.0, 0.0, 0.0, 0.0, 0.0, 0.0, 0.0, 0.0, 0.0, 0.0, 0.0, 0.0, 0.0, 0.0, 0.0, 0.0, 0.0, 0.0, 0.0, 0.0, 0.0, 0.0, 0.0, 0.0, 0.0, 0.0, 0.0, 0.0, 0.0, 0.0, 0.0, 0.0, 0.0, 0.0, 0.0, 0.0, 0.0, 0.0, 0.0, 0.0, 0.0, 0.0, 0.0, 0.0, 0.0, 0.0, 0.0, 0.0, 0.0, 0.0, 0.0, 0.0, 0.0, 0.0, 0.0, 0.0, 0.0, 0.0, 0.0, 0.0, 0.0, 0.0, 0.0, 0.0, 0.0, 0.0, 0.0, 0.0, 0.0, 0.0, 0.0, 0.0, 0.0, 0.0, 0.0, 0.0],
  "Shots": 4096,
  "Size": 7,
  "Total Algorithm duration [s]": 725.721,
  "Total Classic duration [s]": 16.745852037429813,
  "Total Quantum duration [s]": 708.9751479625702
}
