{
  "Depth": 6.5,
  "Job durations [ms]": [9.911499917507172, 10.015000123530626, 10.046999901533127, 10.019500274211168, 9.88100003451109, 9.844500105828047, 9.711500257253647, 9.778500068932772, 10.13900013640523, 9.979000315070152, 9.935500100255013, 42.82399918884039, 10.06999984383583, 10.160999838262796, 9.911499917507172, 9.992999956011772, 9.94399981573224, 10.147499851882458, 10.071000084280968, 10.084999725222588, 9.965499863028526, 9.954500012099743, 9.997499641031027, 9.740999899804592, 10.035000275820494, 9.90599999204278, 9.954999666661024, 10.063499677926302, 11.48850005120039, 10.043499991297722, 9.941499680280685, 9.911499917507172, 9.984499774873257, 9.905500337481499, 9.933999739587307, 9.891499765217304, 9.940499905496836, 9.855000302195549, 10.060499887913465, 10.280500166118145, 9.92499990388751, 42.872498743236065, 10.325499810278416, 10.053500067442656, 10.181499645113945, 10.00749971717596, 9.95749980211258, 10.16499986872077, 10.009499732404947, 10.066499933600426, 10.171500034630299, 10.187999811023474, 10.098000057041645, 10.251999832689762, 9.977499954402447, 10.0190001539886, 10.342500172555447, 10.191999841481447, 9.943000040948391, 10.231500025838614, 9.928499814122915, 9.978000074625015, 10.154999792575836, 9.92400012910366, 9.985999669879675, 10.030500125139952, 10.111999697983265, 9.88700008019805, 9.943000040948391, 9.736500214785337, 10.047500021755695, 43.4305015951395, 10.065499693155289, 9.871499612927437, 10.00100001692772, 9.88700008019805, 9.850500151515007, 10.02699974924326, 9.755500126630068, 9.93099994957447, 9.86100034788251, 9.95699968189001, 9.891000110656023, 10.121999774128199, 9.936499875038862, 9.961499832570553, 9.890999644994736, 9.852000046521425, 9.790000040084124, 10.12700004503131, 9.8365000449121, 9.903000202029943, 9.923500008881092, 9.86800016835332, 9.89900017157197, 10.022500064224005],
  "Optimizer durations [ms]": [22.275, 22.215, 22.254, 22.275, 22.01, 21.898, 21.521, 21.763, 22.585, 22.321, 22.082, 88.014, 22.477, 22.616, 22.128, 22.149, 22.136, 22.764, 22.425, 22.455, 22.057, 22.022, 22.136, 21.685, 22.183, 22.122, 22.172, 22.322, 25.778, 22.437, 22.227, 21.933, 22.131, 21.874, 22.081, 22.004, 21.955, 21.974, 22.373, 22.997, 22.11, 88.212, 23.037, 22.313, 22.561, 22.237, 21.998, 22.518, 22.287, 22.342, 22.463, 22.49, 22.349, 22.788, 22.183, 22.191, 23.032, 22.71, 22.105, 22.853, 21.982, 22.334, 22.635, 21.997, 22.313, 22.388, 22.464, 22.213, 22.178, 21.644, 22.505, 89.75, 22.419, 21.996, 22.117, 21.937, 21.844, 22.274, 21.798, 22.053, 21.814, 22.127, 21.966, 22.453, 22.294, 22.299, 22.03, 21.94, 21.79, 22.56, 21.975, 21.994, 21.956, 21.965, 21.895, 22.188],
  "Optimizer iterations": 96,
  "Qubits": 2,
  "Total Algorithm duration [s]": 2.335,
  "Total Classic duration [s]": 1.2753080041520297,
  "Total Quantum duration [s]": 1.0596919958479702,
  "Expectation Value": -2.14990234375,
  "Optimal Expectation Value": -2.2360680103302,
  "Optimizer params": [0.4475266199869587, 0.643854760202271, 0.5273202925459209, 0.4743525241951515, 0.7981017632834304, 0.46756271943693434, 0.5926327181651512, 0.24577965286759465],
  "QPU": "9000001",
  "Problem": "IC",
  "Size": 2,
  "P": 0,
  "Shots": 4096
}