{
  "Depth": 293.0,
  "Job durations [ms]": [25.89106559753418, 25.64406394958496, 26.03459358215332, 25.920391082763672, 25.721073150634766, 25.744915008544922, 25.866985321044922, 25.628089904785156, 25.835752487182617, 26.163578033447266, 28.450965881347656, 25.60281753540039, 25.642871856689453, 31.68511390686035, 25.737524032592773, 26.032209396362305, 25.74944496154785, 25.608539581298828, 26.133060455322266, 25.940656661987305, 26.16262435913086, 25.6655216217041, 31.977176666259766, 25.74944496154785, 25.661945343017578, 26.117801666259766, 26.03912353515625, 41.58353805541992, 25.731801986694336, 25.414705276489258, 31.27455711364746, 25.655031204223633, 67.21234321594238, 25.984525680541992, 26.114702224731445, 29.236793518066406, 25.765657424926758, 54.244041442871094, 25.846004486083984, 25.754928588867188, 26.569128036499023, 25.740623474121094, 25.8634090423584, 25.975465774536133, 25.93207359313965, 41.37015342712402, 25.87103843688965, 61.293840408325195, 26.211977005004883, 25.815248489379883, 35.703420639038086, 25.902748107910156, 52.10280418395996, 25.844097137451172, 26.016950607299805, 26.862382888793945, 25.979995727539062, 26.077747344970703, 25.77352523803711, 25.654077529907227, 25.64382553100586, 26.01790428161621, 26.102542877197266, 26.038646697998047, 25.44856071472168, 25.959014892578125, 26.16262435913086, 25.620222091674805, 25.475263595581055, 25.442123413085938, 26.274919509887695, 35.40205955505371, 25.758028030395508, 25.409221649169922, 25.785446166992188, 25.726795196533203, 25.786161422729492, 25.751352310180664, 26.736736297607422, 25.88963508605957, 49.53765869140625, 25.78878402709961, 25.763273239135742, 25.979280471801758, 25.63786506652832, 28.7930965423584, 25.83146095275879],
  "Optimizer durations [ms]": [416.258, 379.298, 377.867, 418.723, 377.497, 416.327, 378.8, 418.529, 378.014, 417.22, 380.034, 376.047, 419.467, 382.925, 418.349, 378.9, 417.193, 377.385, 418.36, 377.855, 376.632, 416.887, 385.571, 417.836, 376.86, 417.485, 377.645, 434.718, 378.521, 416.039, 383.624, 377.43, 459.645, 377.843, 417.967, 381.582, 419.276, 407.567, 418.308, 378.708, 380.165, 415.809, 379.294, 416.121, 379.483, 434.29, 378.78, 451.995, 377.699, 379.556, 427.292, 379.048, 448.455, 377.587, 416.753, 379.67, 417.748, 381.269, 377.67, 415.409, 377.32, 418.92, 377.827, 416.225, 376.938, 417.293, 379.92, 417.46, 377.758, 377.515, 418.824, 387.359, 417.721, 377.731, 417.104, 378.602, 416.304, 377.403, 380.413, 418.823, 400.438, 415.7, 378.565, 419.103, 379.954, 420.76, 377.643],
  "Optimizer iterations": 87,
  "Qubits": 16,
  "Total Algorithm duration [s]": 34.679,
  "Total Classic duration [s]": 32.19645080947876,
  "Total Quantum duration [s]": 2.4825491905212402,
  "Expectation Value": -18.46435546875,
  "Optimal Expectation Value": -24.0,
  "Optimizer params": [0.9914828082077585, 0.7481096504724432, 0.8958816351508018, 0.8570797098273155, 0.0566191073768523, 0.05661484539022348],
  "QPU": "3010002",
  "Problem": "MCP",
  "Size": 16,
  "P": 3,
  "Shots": 4096
}