{
  "Depth": 293.0,
  "Job durations [ms]": [25.759458541870117, 26.04222297668457, 25.71702003479004, 25.635957717895508, 25.77042579650879, 25.675296783447266, 25.61187744140625, 25.895357131958008, 30.912399291992188, 25.925159454345703, 48.651695251464844, 25.736331939697266, 26.72290802001953, 25.917768478393555, 25.765419006347656, 25.81000328063965, 25.803804397583008, 25.69127082824707, 26.155948638916016, 25.90036392211914, 25.865554809570312, 26.012659072875977, 25.832414627075195, 25.847673416137695, 25.798320770263672, 25.829315185546875, 44.562339782714844, 25.87103843688965, 25.53272247314453, 25.466203689575195, 25.808334350585938, 26.02982521057129, 25.62236785888672, 25.423049926757812, 35.7508659362793, 25.365352630615234, 25.847673416137695, 25.638103485107422, 25.43330192565918, 25.62713623046875, 25.855541229248047, 26.01766586303711, 25.415658950805664, 29.32572364807129, 25.47931671142578, 25.5587100982666, 49.70955848693848, 25.981664657592773, 52.16407775878906, 25.597095489501953, 25.653839111328125, 49.08108711242676, 25.437355041503906, 52.7498722076416, 25.310754776000977, 26.26490592956543, 25.458097457885742, 25.43807029724121, 25.67577362060547, 25.423765182495117, 25.48980712890625, 25.896072387695312, 25.7720947265625, 25.71272850036621, 25.773286819458008, 25.846481323242188, 25.83146095275879, 28.599977493286133, 25.444507598876953, 25.84052085876465, 25.621891021728516, 25.466442108154297, 51.8038272857666, 25.717735290527344, 25.52008628845215, 25.720834732055664, 25.586605072021484, 25.408506393432617, 25.923490524291992, 28.579235076904297, 25.559663772583008, 28.577804565429688, 25.78282356262207, 25.735855102539062, 25.899648666381836, 25.783061981201172, 25.416851043701172, 39.14523124694824],
  "Optimizer durations [ms]": [417.953, 378.73, 418.597, 379.739, 417.706, 378.497, 377.368, 419.357, 384.485, 418.639, 401.329, 417.296, 377.426, 420.475, 377.516, 376.162, 417.905, 380.185, 418.347, 377.866, 417.004, 377.969, 419.7, 378.722, 377.5, 414.525, 395.78, 416.38, 379.95, 417.342, 376.837, 417.56, 377.296, 375.805, 427.779, 375.542, 419.834, 377.152, 418.824, 375.937, 377.162, 417.611, 376.257, 423.825, 376.734, 415.804, 401.784, 419.062, 402.68, 376.472, 416.547, 400.386, 415.801, 405.328, 416.987, 377.543, 376.997, 415.335, 379.592, 418.026, 375.414, 417.039, 376.508, 376.399, 417.858, 381.44, 417.796, 381.315, 418.256, 376.91, 416.94, 376.225, 401.416, 416.565, 376.971, 415.74, 376.608, 415.526, 376.416, 380.269, 418.519, 378.884, 419.307, 378.802, 418.232, 377.538, 378.451, 428.91],
  "Optimizer iterations": 88,
  "Qubits": 16,
  "Total Algorithm duration [s]": 34.993,
  "Total Classic duration [s]": 32.51967999267578,
  "Total Quantum duration [s]": 2.4733200073242188,
  "Expectation Value": -20.70166015625,
  "Optimal Expectation Value": -24.0,
  "Optimizer params": [0.973414669370862, 0.5509314203452067, 0.5799589796908028, 0.5832912547207818, 0.33920338457857363, 0.4598010212536939],
  "QPU": "3010002",
  "Problem": "MCP",
  "Size": 16,
  "P": 3,
  "Shots": 4096
}