{
  "Circuit execution durations [ms]": [0.9355, 0.9666, 0.9062, 0.92, 0.9116000000000001, 0.9337, 0.9288000000000001, 0.9206000000000001, 0.9144, 0.9227000000000001, 0.9261999999999999, 0.9238000000000001, 0.9143, 0.9301, 0.9581000000000001, 0.9742999999999999, 0.9215, 0.9217, 0.9086, 0.9422, 0.9290999999999999, 0.9301, 0.9163, 0.9156000000000001, 0.9454, 0.9179, 0.9083, 0.9254, 0.9290999999999999, 0.9188, 0.9147, 0.9329, 0.9261, 0.9522, 0.925, 0.9206000000000001, 0.9190999999999999, 0.9146, 0.941, 0.9224, 1.1312, 0.9179999999999999, 0.9294, 0.9172, 0.9309000000000001, 0.9126, 0.9248000000000001, 0.9226, 0.9208000000000001, 0.9416, 0.9245, 0.9244, 0.9169999999999999, 0.9252, 0.9317000000000001, 0.9287, 0.9211, 0.9234, 0.9072, 0.9485, 0.9266, 0.9221, 0.9089, 0.9202, 0.9339, 0.9385, 0.9280999999999999, 0.9280999999999999, 0.9356, 0.916, 0.9316, 0.9261999999999999, 0.9093, 0.916, 0.9511, 0.9229, 1.0238, 0.9309999999999999, 0.9144, 0.912, 0.9211, 0.9383, 0.9313, 0.9143, 1.0761, 0.9338000000000001, 0.9308, 0.944, 0.9426, 0.9329, 0.9477, 0.9158000000000001, 0.9621999999999999, 0.9806000000000001, 0.9301999999999999, 0.9236, 0.9198999999999999, 0.9623999999999999, 0.9594999999999999, 0.9234, 0.9379, 0.9341, 0.9297, 0.9309000000000001, 0.9197, 0.9271, 0.9193, 0.9188, 0.9188, 0.9565, 0.9422, 0.9267000000000001, 0.9988, 0.9227000000000001, 0.9451, 0.9363, 0.9217, 0.9246, 0.9229, 0.9288000000000001, 0.9211999999999999, 0.9219999999999999, 0.9155, 0.9142, 0.9271, 0.9430000000000001, 0.9248999999999999, 0.9274, 0.9369, 0.9425, 0.9217, 0.9412, 0.9329, 0.9132, 0.9286, 0.9240999999999999, 0.9305, 0.9115, 0.9211, 0.9472, 0.939, 0.9218, 0.9244, 0.9150999999999999, 0.9285, 0.9591, 0.9313, 0.9221, 0.9351, 0.9254, 0.9318, 0.9219, 0.933, 0.9116000000000001, 0.9547, 0.9451, 0.9126, 0.9223, 0.9391999999999999, 0.9129999999999999, 0.9264, 0.9289, 0.9213, 0.9370999999999999, 0.9447, 0.9367, 0.9301999999999999, 0.9288000000000001, 0.9121999999999999, 0.9223, 0.9204, 0.9269000000000001, 0.9238000000000001, 0.9234, 0.9275000000000001, 0.9279, 0.9319000000000001, 0.9336, 0.9169999999999999, 0.8743, 0.9129, 0.9334, 0.9272, 0.9129999999999999, 0.9097000000000001, 0.919, 0.9335, 0.9359000000000001, 0.8578, 0.9282, 0.9261999999999999, 1.0774000000000001, 0.9462, 0.9326, 0.9684999999999999, 1.0434999999999999, 0.9217, 0.9243, 0.9386000000000001, 0.9146, 0.9231, 0.9656, 0.9380999999999999, 0.9736, 0.9117, 0.9401999999999999, 0.9401, 0.9142, 0.9147, 0.9148999999999999, 0.9155, 0.9342, 0.9525, 0.9315, 0.919],
  "Depth": 132.0,
  "Expectation Value": -1.9073575735092163,
  "Optimal Expectation Value": -2.0,
  "Optimizer durations [ms]": [9.773, 10.233, 9.773, 9.39, 9.743, 9.858, 9.789, 9.522, 9.648, 9.878, 9.807, 9.43, 9.881, 9.685, 10.027, 11.771, 9.832, 9.739, 9.577, 9.922, 9.796, 9.834, 9.346, 9.903, 9.807, 9.773, 9.352, 10.06, 9.853, 10.027, 9.562, 9.992, 9.596, 9.916, 9.835, 9.7, 9.639, 9.747, 9.818, 9.682, 11.888, 9.677, 9.635, 9.697, 9.784, 9.556, 9.774, 9.85, 9.713, 9.99, 9.44, 9.773, 9.784, 9.727, 9.762, 9.746, 9.769, 9.766, 9.569, 9.948, 9.61, 10.017, 9.305, 9.718, 9.862, 9.929, 9.485, 9.83, 9.938, 9.741, 9.654, 9.781, 9.634, 9.705, 10.165, 19.057, 16.844, 9.809, 9.76, 9.686, 9.67, 9.824, 9.81, 9.66, 11.266, 9.91, 9.75, 9.82, 9.951, 9.651, 10.233, 9.547, 9.949, 10.439, 9.901, 9.484, 9.801, 10.114, 9.945, 9.893, 10.002, 9.52, 9.897, 10.044, 9.431, 9.998, 9.701, 9.551, 9.559, 10.167, 10.009, 9.665, 10.48, 9.527, 10.275, 9.523, 9.805, 9.903, 9.656, 9.799, 9.769, 9.556, 9.673, 9.696, 9.643, 9.975, 9.921, 9.454, 10.015, 9.818, 9.863, 10.015, 9.635, 9.857, 9.805, 9.541, 9.785, 9.617, 9.699, 9.966, 10.169, 9.729, 9.91, 9.561, 9.726, 10.168, 9.754, 9.606, 9.871, 9.685, 10.169, 9.452, 10.034, 9.618, 10.145, 9.827, 9.706, 9.408, 9.898, 10.004, 9.563, 10.026, 9.479, 9.924, 9.853, 10.17, 9.748, 9.701, 9.826, 9.642, 9.803, 9.453, 9.933, 9.638, 9.796, 9.748, 11.948, 9.932, 9.359, 16.924, 9.934, 9.69, 9.759, 9.762, 9.734, 9.741, 9.938, 9.957, 18.676, 9.74, 9.846, 11.378, 9.817, 9.891, 9.865, 15.355, 9.732, 9.845, 9.718, 9.769, 9.985, 9.813, 19.327, 14.933, 10.118, 14.373, 9.821, 9.685, 9.777, 9.501, 9.617, 9.935, 10.013, 9.756, 9.717],
  "Optimizer iterations": 215,
  "Optimizer params": [0.8161097050089112, 0.9968586547673798, 0.6725508382456141, 0.6004640436001174, 0.14025397260368622, 0.15134734302514932],
  "P": 3,
  "Problem": "DSP",
  "QJob durations [ms]": [0.9355, 0.9666, 0.9062, 0.92, 0.9116000000000001, 0.9337, 0.9288000000000001, 0.9206000000000001, 0.9144, 0.9227000000000001, 0.9261999999999999, 0.9238000000000001, 0.9143, 0.9301, 0.9581000000000001, 0.9742999999999999, 0.9215, 0.9217, 0.9086, 0.9422, 0.9290999999999999, 0.9301, 0.9163, 0.9156000000000001, 0.9454, 0.9179, 0.9083, 0.9254, 0.9290999999999999, 0.9188, 0.9147, 0.9329, 0.9261, 0.9522, 0.925, 0.9206000000000001, 0.9190999999999999, 0.9146, 0.941, 0.9224, 1.1312, 0.9179999999999999, 0.9294, 0.9172, 0.9309000000000001, 0.9126, 0.9248000000000001, 0.9226, 0.9208000000000001, 0.9416, 0.9245, 0.9244, 0.9169999999999999, 0.9252, 0.9317000000000001, 0.9287, 0.9211, 0.9234, 0.9072, 0.9485, 0.9266, 0.9221, 0.9089, 0.9202, 0.9339, 0.9385, 0.9280999999999999, 0.9280999999999999, 0.9356, 0.916, 0.9316, 0.9261999999999999, 0.9093, 0.916, 0.9511, 0.9229, 1.0238, 0.9309999999999999, 0.9144, 0.912, 0.9211, 0.9383, 0.9313, 0.9143, 1.0761, 0.9338000000000001, 0.9308, 0.944, 0.9426, 0.9329, 0.9477, 0.9158000000000001, 0.9621999999999999, 0.9806000000000001, 0.9301999999999999, 0.9236, 0.9198999999999999, 0.9623999999999999, 0.9594999999999999, 0.9234, 0.9379, 0.9341, 0.9297, 0.9309000000000001, 0.9197, 0.9271, 0.9193, 0.9188, 0.9188, 0.9565, 0.9422, 0.9267000000000001, 0.9988, 0.9227000000000001, 0.9451, 0.9363, 0.9217, 0.9246, 0.9229, 0.9288000000000001, 0.9211999999999999, 0.9219999999999999, 0.9155, 0.9142, 0.9271, 0.9430000000000001, 0.9248999999999999, 0.9274, 0.9369, 0.9425, 0.9217, 0.9412, 0.9329, 0.9132, 0.9286, 0.9240999999999999, 0.9305, 0.9115, 0.9211, 0.9472, 0.939, 0.9218, 0.9244, 0.9150999999999999, 0.9285, 0.9591, 0.9313, 0.9221, 0.9351, 0.9254, 0.9318, 0.9219, 0.933, 0.9116000000000001, 0.9547, 0.9451, 0.9126, 0.9223, 0.9391999999999999, 0.9129999999999999, 0.9264, 0.9289, 0.9213, 0.9370999999999999, 0.9447, 0.9367, 0.9301999999999999, 0.9288000000000001, 0.9121999999999999, 0.9223, 0.9204, 0.9269000000000001, 0.9238000000000001, 0.9234, 0.9275000000000001, 0.9279, 0.9319000000000001, 0.9336, 0.9169999999999999, 0.8743, 0.9129, 0.9334, 0.9272, 0.9129999999999999, 0.9097000000000001, 0.919, 0.9335, 0.9359000000000001, 0.8578, 0.9282, 0.9261999999999999, 1.0774000000000001, 0.9462, 0.9326, 0.9684999999999999, 1.0434999999999999, 0.9217, 0.9243, 0.9386000000000001, 0.9146, 0.9231, 0.9656, 0.9380999999999999, 0.9736, 0.9117, 0.9401999999999999, 0.9401, 0.9142, 0.9147, 0.9148999999999999, 0.9155, 0.9342, 0.9525, 0.9315, 0.919],
  "QPU": "7000000",
  "Qubits": 6,
  "Queue durations [ms]": [0.0, 0.0, 0.0, 0.0, 0.0, 0.0, 0.0, 0.0, 0.0, 0.0, 0.0, 0.0, 0.0, 0.0, 0.0, 0.0, 0.0, 0.0, 0.0, 0.0, 0.0, 0.0, 0.0, 0.0, 0.0, 0.0, 0.0, 0.0, 0.0, 0.0, 0.0, 0.0, 0.0, 0.0, 0.0, 0.0, 0.0, 0.0, 0.0, 0.0, 0.0, 0.0, 0.0, 0.0, 0.0, 0.0, 0.0, 0.0, 0.0, 0.0, 0.0, 0.0, 0.0, 0.0, 0.0, 0.0, 0.0, 0.0, 0.0, 0.0, 0.0, 0.0, 0.0, 0.0, 0.0, 0.0, 0.0, 0.0, 0.0, 0.0, 0.0, 0.0, 0.0, 0.0, 0.0, 0.0, 0.0, 0.0, 0.0, 0.0, 0.0, 0.0, 0.0, 0.0, 0.0, 0.0, 0.0, 0.0, 0.0, 0.0, 0.0, 0.0, 0.0, 0.0, 0.0, 0.0, 0.0, 0.0, 0.0, 0.0, 0.0, 0.0, 0.0, 0.0, 0.0, 0.0, 0.0, 0.0, 0.0, 0.0, 0.0, 0.0, 0.0, 0.0, 0.0, 0.0, 0.0, 0.0, 0.0, 0.0, 0.0, 0.0, 0.0, 0.0, 0.0, 0.0, 0.0, 0.0, 0.0, 0.0, 0.0, 0.0, 0.0, 0.0, 0.0, 0.0, 0.0, 0.0, 0.0, 0.0, 0.0, 0.0, 0.0, 0.0, 0.0, 0.0, 0.0, 0.0, 0.0, 0.0, 0.0, 0.0, 0.0, 0.0, 0.0, 0.0, 0.0, 0.0, 0.0, 0.0, 0.0, 0.0, 0.0, 0.0, 0.0, 0.0, 0.0, 0.0, 0.0, 0.0, 0.0, 0.0, 0.0, 0.0, 0.0, 0.0, 0.0, 0.0, 0.0, 0.0, 0.0, 0.0, 0.0, 0.0, 0.0, 0.0, 0.0, 0.0, 0.0, 0.0, 0.0, 0.0, 0.0, 0.0, 0.0, 0.0, 0.0, 0.0, 0.0, 0.0, 0.0, 0.0, 0.0, 0.0, 0.0, 0.0, 0.0, 0.0, 0.0, 0.0, 0.0, 0.0, 0.0, 0.0, 0.0],
  "Shots": 4096,
  "Size": 3,
  "Total Algorithm duration [s]": 2.17,
  "Total Classic duration [s]": 1.9696821999999998,
  "Total Quantum duration [s]": 0.20031780000000005
}
