{
  "Circuit execution durations [ms]": [0.9277000000000001, 0.9245, 0.9085, 0.9194, 0.945, 0.9311, 0.9269000000000001, 0.9571000000000001, 0.9541999999999999, 0.9202, 0.9365, 0.9394, 0.9278, 0.9278, 0.9233, 0.9474, 0.9354, 0.9064, 0.9341, 0.9336, 0.9058, 0.9247, 0.9274, 0.9271, 0.9171, 0.9211999999999999, 1.0196, 0.9259000000000001, 0.9227000000000001, 0.9214, 0.921, 0.9196, 0.9306, 0.9346, 0.9462999999999999, 0.9245, 0.875, 0.9208000000000001, 0.9274, 0.9144, 0.9237, 0.9917000000000001, 0.9108, 0.9313, 0.9195, 0.8323, 0.9133, 0.9343, 0.9305, 0.9100999999999999, 0.9238000000000001, 0.9282999999999999, 0.8347, 0.9305, 0.9252, 0.9272, 0.9290999999999999, 0.9223, 0.9600000000000001, 0.9100999999999999, 1.1586, 0.9599, 0.9343, 0.9031, 0.9287, 0.9405, 0.9213, 0.9886999999999999, 0.9179999999999999, 0.9292, 0.9211, 0.9163, 0.9261999999999999, 0.9089, 0.9322999999999999, 0.925, 0.9255, 0.9228, 0.9295, 0.919, 0.9218, 0.9326, 0.9106, 0.9211, 0.9243, 0.92, 0.9279, 0.9345, 0.9186, 0.9142, 1.1702, 1.0646, 0.9248000000000001, 0.9338000000000001, 1.0173999999999999, 0.9309000000000001, 0.9282, 1.0690000000000002, 0.9494, 0.9407000000000001, 0.9366, 0.9273, 0.9205, 0.9186, 0.9793000000000001, 0.9285, 0.9321, 0.9357, 0.8983, 0.9343, 0.9364, 0.9158000000000001, 0.9616, 0.9301, 0.9448, 0.9345, 0.9268, 0.9353, 0.9306, 0.9274, 0.921, 0.9193, 0.9190999999999999, 0.9259000000000001, 0.9208999999999999, 0.9884, 0.9326, 0.9337, 0.9522, 0.9136, 1.2944, 0.9188, 1.2469, 0.9504999999999999, 0.9343, 0.9294, 0.9317000000000001, 0.9167, 0.9032, 0.9039999999999999, 0.9218, 0.9235, 0.9349999999999999, 0.9301999999999999, 0.9252, 0.9264, 0.9171, 0.9309000000000001, 0.9282, 0.9127000000000001, 0.9275000000000001, 0.9182, 0.9598, 0.9248000000000001, 0.9266, 0.9341, 0.9269999999999999, 0.9179999999999999, 0.9309000000000001, 0.933, 0.9286, 0.9462, 0.9252, 0.9337, 0.9348, 0.9228, 0.9205, 0.9190999999999999, 0.9299, 0.9137000000000001, 0.9435, 0.9414, 0.9271, 0.9248000000000001],
  "Depth": 132.0,
  "Expectation Value": -1.850158929824829,
  "Optimal Expectation Value": -2.0,
  "Optimizer durations [ms]": [9.837, 9.97, 9.704, 9.466, 9.974, 10.113, 9.451, 10.411, 10.023, 9.586, 9.864, 9.983, 9.67, 9.827, 9.558, 10.015, 9.922, 9.262, 10.043, 9.819, 9.477, 9.669, 9.925, 9.436, 9.897, 9.698, 10.417, 10.099, 9.74, 9.382, 9.907, 9.615, 9.829, 10.897, 9.729, 9.765, 16.636, 10.001, 9.512, 9.782, 9.66, 10.409, 9.855, 9.699, 9.635, 18.396, 9.544, 10.123, 9.496, 10.006, 9.722, 9.759, 18.239, 10.049, 9.497, 10.032, 9.811, 10.061, 10.04, 19.087, 14.12, 10.432, 13.052, 10.576, 9.584, 9.942, 9.762, 10.368, 9.61, 9.785, 9.942, 9.495, 10.107, 9.403, 10.167, 9.706, 9.705, 9.826, 9.784, 9.891, 9.667, 9.906, 9.4, 9.706, 9.601, 9.633, 10.016, 9.973, 9.358, 9.887, 13.949, 11.194, 9.624, 10.001, 10.593, 9.703, 9.786, 11.327, 9.948, 9.891, 9.824, 9.841, 9.803, 9.587, 10.326, 9.689, 9.736, 9.822, 9.249, 9.928, 9.896, 9.845, 9.907, 9.838, 10.092, 9.914, 9.615, 9.942, 9.738, 9.833, 9.562, 9.786, 9.634, 9.791, 9.695, 10.344, 9.859, 9.725, 9.899, 9.88, 13.517, 19.238, 13.733, 10.01, 9.918, 9.744, 9.835, 9.734, 9.244, 9.727, 9.701, 9.535, 9.961, 9.989, 9.444, 9.878, 10.039, 9.632, 9.626, 10.507, 9.638, 9.946, 10.142, 9.73, 9.65, 9.891, 9.717, 9.719, 9.506, 10.04, 9.86, 10.021, 11.437, 9.514, 10.054, 9.391, 9.925, 9.723, 9.612, 9.53, 10.093, 9.957, 9.992, 9.454],
  "Optimizer iterations": 174,
  "Optimizer params": [0.7530965392145632, 0.35933032514381363, 0.8947771248450683, 0.49919991755211374, 0.22872560771454173, 0.4777799649419264],
  "P": 3,
  "Problem": "DSP",
  "QJob durations [ms]": [0.9277000000000001, 0.9245, 0.9085, 0.9194, 0.945, 0.9311, 0.9269000000000001, 0.9571000000000001, 0.9541999999999999, 0.9202, 0.9365, 0.9394, 0.9278, 0.9278, 0.9233, 0.9474, 0.9354, 0.9064, 0.9341, 0.9336, 0.9058, 0.9247, 0.9274, 0.9271, 0.9171, 0.9211999999999999, 1.0196, 0.9259000000000001, 0.9227000000000001, 0.9214, 0.921, 0.9196, 0.9306, 0.9346, 0.9462999999999999, 0.9245, 0.875, 0.9208000000000001, 0.9274, 0.9144, 0.9237, 0.9917000000000001, 0.9108, 0.9313, 0.9195, 0.8323, 0.9133, 0.9343, 0.9305, 0.9100999999999999, 0.9238000000000001, 0.9282999999999999, 0.8347, 0.9305, 0.9252, 0.9272, 0.9290999999999999, 0.9223, 0.9600000000000001, 0.9100999999999999, 1.1586, 0.9599, 0.9343, 0.9031, 0.9287, 0.9405, 0.9213, 0.9886999999999999, 0.9179999999999999, 0.9292, 0.9211, 0.9163, 0.9261999999999999, 0.9089, 0.9322999999999999, 0.925, 0.9255, 0.9228, 0.9295, 0.919, 0.9218, 0.9326, 0.9106, 0.9211, 0.9243, 0.92, 0.9279, 0.9345, 0.9186, 0.9142, 1.1702, 1.0646, 0.9248000000000001, 0.9338000000000001, 1.0173999999999999, 0.9309000000000001, 0.9282, 1.0690000000000002, 0.9494, 0.9407000000000001, 0.9366, 0.9273, 0.9205, 0.9186, 0.9793000000000001, 0.9285, 0.9321, 0.9357, 0.8983, 0.9343, 0.9364, 0.9158000000000001, 0.9616, 0.9301, 0.9448, 0.9345, 0.9268, 0.9353, 0.9306, 0.9274, 0.921, 0.9193, 0.9190999999999999, 0.9259000000000001, 0.9208999999999999, 0.9884, 0.9326, 0.9337, 0.9522, 0.9136, 1.2944, 0.9188, 1.2469, 0.9504999999999999, 0.9343, 0.9294, 0.9317000000000001, 0.9167, 0.9032, 0.9039999999999999, 0.9218, 0.9235, 0.9349999999999999, 0.9301999999999999, 0.9252, 0.9264, 0.9171, 0.9309000000000001, 0.9282, 0.9127000000000001, 0.9275000000000001, 0.9182, 0.9598, 0.9248000000000001, 0.9266, 0.9341, 0.9269999999999999, 0.9179999999999999, 0.9309000000000001, 0.933, 0.9286, 0.9462, 0.9252, 0.9337, 0.9348, 0.9228, 0.9205, 0.9190999999999999, 0.9299, 0.9137000000000001, 0.9435, 0.9414, 0.9271, 0.9248000000000001],
  "QPU": "7000000",
  "Qubits": 6,
  "Queue durations [ms]": [0.0, 0.0, 0.0, 0.0, 0.0, 0.0, 0.0, 0.0, 0.0, 0.0, 0.0, 0.0, 0.0, 0.0, 0.0, 0.0, 0.0, 0.0, 0.0, 0.0, 0.0, 0.0, 0.0, 0.0, 0.0, 0.0, 0.0, 0.0, 0.0, 0.0, 0.0, 0.0, 0.0, 0.0, 0.0, 0.0, 0.0, 0.0, 0.0, 0.0, 0.0, 0.0, 0.0, 0.0, 0.0, 0.0, 0.0, 0.0, 0.0, 0.0, 0.0, 0.0, 0.0, 0.0, 0.0, 0.0, 0.0, 0.0, 0.0, 0.0, 0.0, 0.0, 0.0, 0.0, 0.0, 0.0, 0.0, 0.0, 0.0, 0.0, 0.0, 0.0, 0.0, 0.0, 0.0, 0.0, 0.0, 0.0, 0.0, 0.0, 0.0, 0.0, 0.0, 0.0, 0.0, 0.0, 0.0, 0.0, 0.0, 0.0, 0.0, 0.0, 0.0, 0.0, 0.0, 0.0, 0.0, 0.0, 0.0, 0.0, 0.0, 0.0, 0.0, 0.0, 0.0, 0.0, 0.0, 0.0, 0.0, 0.0, 0.0, 0.0, 0.0, 0.0, 0.0, 0.0, 0.0, 0.0, 0.0, 0.0, 0.0, 0.0, 0.0, 0.0, 0.0, 0.0, 0.0, 0.0, 0.0, 0.0, 0.0, 0.0, 0.0, 0.0, 0.0, 0.0, 0.0, 0.0, 0.0, 0.0, 0.0, 0.0, 0.0, 0.0, 0.0, 0.0, 0.0, 0.0, 0.0, 0.0, 0.0, 0.0, 0.0, 0.0, 0.0, 0.0, 0.0, 0.0, 0.0, 0.0, 0.0, 0.0, 0.0, 0.0, 0.0, 0.0, 0.0, 0.0, 0.0, 0.0, 0.0, 0.0, 0.0, 0.0],
  "Shots": 4096,
  "Size": 3,
  "Total Algorithm duration [s]": 1.775,
  "Total Classic duration [s]": 1.6120211,
  "Total Quantum duration [s]": 0.16297889999999995
}
