{
  "Circuit execution durations [ms]": [0.9259000000000001, 0.9705, 0.9232, 0.911, 0.9380000000000001, 0.9226, 0.9447, 0.9293, 0.9154, 0.9414, 0.9208999999999999, 0.9163, 0.9357, 0.916, 0.9207, 0.9322, 0.9179999999999999, 1.0004, 0.9379, 0.9295, 0.8989, 0.9224, 0.9119, 0.9194, 0.9177000000000001, 0.9158000000000001, 0.9356, 0.9328, 0.9265, 0.9255, 0.9263, 0.9106, 0.9129999999999999, 0.9225, 0.9297, 0.928, 0.9185000000000001, 0.9234, 0.9308, 0.9253, 0.9240999999999999, 0.9259000000000001, 0.9317000000000001, 0.9185000000000001, 0.9460999999999999, 0.9268, 0.8934000000000001, 0.9293, 0.9179, 0.9256, 0.9326, 0.9349999999999999, 0.9171, 0.9142, 0.9275000000000001, 0.9236, 0.9161, 0.9089, 1.026, 0.9351999999999999, 0.9105, 0.9742000000000001, 0.9265, 0.9179, 0.9488, 0.9297, 0.9143, 0.9093, 0.9412999999999999, 0.9284, 0.9172, 0.9182, 0.9342, 0.9304, 0.9162, 0.9253, 0.9391, 0.9785, 0.9248999999999999, 0.9121, 0.9181, 0.921, 0.9252, 0.9343, 0.9158999999999999, 0.9921000000000001, 0.9093, 0.9286, 0.9248000000000001, 0.9285, 0.9225, 0.93, 0.923, 0.9179999999999999, 0.9462, 0.9299, 0.9430000000000001, 0.9342, 0.9318, 1.171, 0.9443, 0.9541999999999999, 0.9222, 0.9259999999999999, 0.9169999999999999, 0.9258, 0.9345, 0.9608000000000001, 0.934, 0.9266, 0.9375, 0.944, 0.9132, 0.9379, 0.9835, 0.9087999999999999, 0.9248999999999999, 0.9315, 0.9236, 0.9441999999999999, 0.9312, 0.9211999999999999, 0.9217, 0.9246, 0.9175, 0.9255, 0.9156000000000001, 0.9354, 0.9328, 0.9290999999999999, 0.9436, 0.9406, 0.9171, 0.9316, 0.9432, 0.9621000000000001, 0.9375, 0.9238000000000001, 0.9396, 0.9219, 0.9238000000000001, 0.9162, 0.9203, 0.9307, 0.9368, 0.9246, 0.9173, 0.9322999999999999, 0.9264, 0.9447, 0.9304, 0.9248999999999999, 0.9102, 0.9308, 0.9368, 0.9158999999999999, 0.9387, 0.9387, 0.9248999999999999, 0.9667, 0.9405, 0.9192, 0.9819, 0.9269000000000001, 0.9263, 0.9332, 0.9237, 0.9255, 0.9305, 0.9313, 0.9198000000000001, 0.9472, 0.9242, 0.9437, 0.9376, 0.9304, 1.016, 0.9268, 0.9369, 0.9232, 0.9460000000000001, 0.9385, 0.9318, 0.9274, 0.9257, 0.9234, 0.9198999999999999, 0.9327, 0.9132, 0.9427, 0.9105, 0.9245, 0.9202, 0.9121, 0.9309999999999999, 0.9575, 0.94, 0.9369, 1.0673, 0.9314, 0.9192, 0.9375, 0.9299, 0.924, 0.9218, 0.9252, 0.9366, 0.9136, 0.9438, 0.9289, 0.9286, 0.8337, 0.9211, 0.9197, 0.9486, 0.9351999999999999, 0.9228, 0.9253, 0.8521, 0.9261, 0.93, 0.9246],
  "Depth": 132.0,
  "Expectation Value": -1.9486804008483887,
  "Optimal Expectation Value": -2.0,
  "Optimizer durations [ms]": [9.967, 10.063, 9.826, 9.626, 9.949, 9.564, 9.878, 10.444, 10.062, 9.642, 9.954, 9.647, 9.569, 9.87, 9.842, 9.743, 9.627, 10.296, 10.161, 9.593, 9.814, 9.752, 9.474, 9.701, 9.848, 9.496, 10.067, 9.549, 10.125, 9.642, 9.79, 9.679, 9.438, 9.674, 9.766, 9.768, 9.713, 9.621, 9.907, 9.712, 9.749, 9.903, 9.587, 9.866, 9.967, 9.453, 9.779, 9.581, 9.844, 9.738, 9.901, 9.702, 9.655, 9.772, 9.624, 9.713, 9.689, 9.667, 10.713, 9.768, 9.858, 10.285, 9.65, 9.563, 9.921, 9.923, 9.357, 9.916, 10.022, 9.82, 9.606, 9.729, 9.672, 9.605, 9.784, 9.621, 10.083, 10.199, 9.866, 9.698, 9.813, 9.738, 9.624, 9.772, 9.993, 10.098, 9.812, 9.909, 9.862, 9.66, 9.738, 9.741, 9.619, 9.746, 9.946, 9.89, 9.628, 9.919, 19.367, 17.42, 9.921, 10.238, 9.619, 9.613, 9.968, 9.64, 9.97, 9.771, 10.008, 9.823, 9.786, 9.875, 9.637, 10.024, 10.163, 9.697, 9.714, 9.975, 9.679, 10.024, 9.735, 9.67, 9.933, 9.532, 9.679, 9.906, 9.416, 10.222, 9.95, 10.069, 9.939, 9.753, 9.756, 9.86, 9.804, 10.216, 9.725, 9.752, 9.769, 9.754, 10.189, 9.38, 9.779, 9.899, 10.001, 9.47, 9.881, 9.618, 9.717, 10.224, 9.834, 9.811, 9.279, 9.733, 10.056, 9.362, 9.879, 10.188, 9.77, 10.035, 9.779, 9.746, 10.308, 10.051, 9.72, 9.737, 9.959, 9.772, 9.653, 9.885, 9.812, 10.009, 9.857, 9.855, 9.933, 9.692, 10.775, 9.79, 9.713, 10.006, 9.76, 10.124, 9.901, 9.589, 9.648, 9.98, 9.661, 9.508, 9.928, 9.802, 9.596, 9.847, 9.748, 9.482, 9.628, 10.162, 10.001, 9.548, 11.46, 9.957, 9.435, 10.018, 14.225, 9.613, 9.636, 9.765, 9.842, 9.525, 10.019, 9.623, 9.93, 18.386, 9.788, 9.697, 9.9, 9.804, 9.767, 9.845, 18.552, 9.73, 9.772, 9.623],
  "Optimizer iterations": 222,
  "Optimizer params": [0.5378401340553823, 0.27347852643665793, 0.43298900580892635, 0.7043217413335741, 0.025435327900184, 0.8315803226856968],
  "P": 3,
  "Problem": "DSP",
  "QJob durations [ms]": [0.9259000000000001, 0.9705, 0.9232, 0.911, 0.9380000000000001, 0.9226, 0.9447, 0.9293, 0.9154, 0.9414, 0.9208999999999999, 0.9163, 0.9357, 0.916, 0.9207, 0.9322, 0.9179999999999999, 1.0004, 0.9379, 0.9295, 0.8989, 0.9224, 0.9119, 0.9194, 0.9177000000000001, 0.9158000000000001, 0.9356, 0.9328, 0.9265, 0.9255, 0.9263, 0.9106, 0.9129999999999999, 0.9225, 0.9297, 0.928, 0.9185000000000001, 0.9234, 0.9308, 0.9253, 0.9240999999999999, 0.9259000000000001, 0.9317000000000001, 0.9185000000000001, 0.9460999999999999, 0.9268, 0.8934000000000001, 0.9293, 0.9179, 0.9256, 0.9326, 0.9349999999999999, 0.9171, 0.9142, 0.9275000000000001, 0.9236, 0.9161, 0.9089, 1.026, 0.9351999999999999, 0.9105, 0.9742000000000001, 0.9265, 0.9179, 0.9488, 0.9297, 0.9143, 0.9093, 0.9412999999999999, 0.9284, 0.9172, 0.9182, 0.9342, 0.9304, 0.9162, 0.9253, 0.9391, 0.9785, 0.9248999999999999, 0.9121, 0.9181, 0.921, 0.9252, 0.9343, 0.9158999999999999, 0.9921000000000001, 0.9093, 0.9286, 0.9248000000000001, 0.9285, 0.9225, 0.93, 0.923, 0.9179999999999999, 0.9462, 0.9299, 0.9430000000000001, 0.9342, 0.9318, 1.171, 0.9443, 0.9541999999999999, 0.9222, 0.9259999999999999, 0.9169999999999999, 0.9258, 0.9345, 0.9608000000000001, 0.934, 0.9266, 0.9375, 0.944, 0.9132, 0.9379, 0.9835, 0.9087999999999999, 0.9248999999999999, 0.9315, 0.9236, 0.9441999999999999, 0.9312, 0.9211999999999999, 0.9217, 0.9246, 0.9175, 0.9255, 0.9156000000000001, 0.9354, 0.9328, 0.9290999999999999, 0.9436, 0.9406, 0.9171, 0.9316, 0.9432, 0.9621000000000001, 0.9375, 0.9238000000000001, 0.9396, 0.9219, 0.9238000000000001, 0.9162, 0.9203, 0.9307, 0.9368, 0.9246, 0.9173, 0.9322999999999999, 0.9264, 0.9447, 0.9304, 0.9248999999999999, 0.9102, 0.9308, 0.9368, 0.9158999999999999, 0.9387, 0.9387, 0.9248999999999999, 0.9667, 0.9405, 0.9192, 0.9819, 0.9269000000000001, 0.9263, 0.9332, 0.9237, 0.9255, 0.9305, 0.9313, 0.9198000000000001, 0.9472, 0.9242, 0.9437, 0.9376, 0.9304, 1.016, 0.9268, 0.9369, 0.9232, 0.9460000000000001, 0.9385, 0.9318, 0.9274, 0.9257, 0.9234, 0.9198999999999999, 0.9327, 0.9132, 0.9427, 0.9105, 0.9245, 0.9202, 0.9121, 0.9309999999999999, 0.9575, 0.94, 0.9369, 1.0673, 0.9314, 0.9192, 0.9375, 0.9299, 0.924, 0.9218, 0.9252, 0.9366, 0.9136, 0.9438, 0.9289, 0.9286, 0.8337, 0.9211, 0.9197, 0.9486, 0.9351999999999999, 0.9228, 0.9253, 0.8521, 0.9261, 0.93, 0.9246],
  "QPU": "7000000",
  "Qubits": 6,
  "Queue durations [ms]": [0.0, 0.0, 0.0, 0.0, 0.0, 0.0, 0.0, 0.0, 0.0, 0.0, 0.0, 0.0, 0.0, 0.0, 0.0, 0.0, 0.0, 0.0, 0.0, 0.0, 0.0, 0.0, 0.0, 0.0, 0.0, 0.0, 0.0, 0.0, 0.0, 0.0, 0.0, 0.0, 0.0, 0.0, 0.0, 0.0, 0.0, 0.0, 0.0, 0.0, 0.0, 0.0, 0.0, 0.0, 0.0, 0.0, 0.0, 0.0, 0.0, 0.0, 0.0, 0.0, 0.0, 0.0, 0.0, 0.0, 0.0, 0.0, 0.0, 0.0, 0.0, 0.0, 0.0, 0.0, 0.0, 0.0, 0.0, 0.0, 0.0, 0.0, 0.0, 0.0, 0.0, 0.0, 0.0, 0.0, 0.0, 0.0, 0.0, 0.0, 0.0, 0.0, 0.0, 0.0, 0.0, 0.0, 0.0, 0.0, 0.0, 0.0, 0.0, 0.0, 0.0, 0.0, 0.0, 0.0, 0.0, 0.0, 0.0, 0.0, 0.0, 0.0, 0.0, 0.0, 0.0, 0.0, 0.0, 0.0, 0.0, 0.0, 0.0, 0.0, 0.0, 0.0, 0.0, 0.0, 0.0, 0.0, 0.0, 0.0, 0.0, 0.0, 0.0, 0.0, 0.0, 0.0, 0.0, 0.0, 0.0, 0.0, 0.0, 0.0, 0.0, 0.0, 0.0, 0.0, 0.0, 0.0, 0.0, 0.0, 0.0, 0.0, 0.0, 0.0, 0.0, 0.0, 0.0, 0.0, 0.0, 0.0, 0.0, 0.0, 0.0, 0.0, 0.0, 0.0, 0.0, 0.0, 0.0, 0.0, 0.0, 0.0, 0.0, 0.0, 0.0, 0.0, 0.0, 0.0, 0.0, 0.0, 0.0, 0.0, 0.0, 0.0, 0.0, 0.0, 0.0, 0.0, 0.0, 0.0, 0.0, 0.0, 0.0, 0.0, 0.0, 0.0, 0.0, 0.0, 0.0, 0.0, 0.0, 0.0, 0.0, 0.0, 0.0, 0.0, 0.0, 0.0, 0.0, 0.0, 0.0, 0.0, 0.0, 0.0, 0.0, 0.0, 0.0, 0.0, 0.0, 0.0, 0.0, 0.0, 0.0, 0.0, 0.0, 0.0, 0.0, 0.0, 0.0, 0.0, 0.0, 0.0],
  "Shots": 4096,
  "Size": 3,
  "Total Algorithm duration [s]": 2.218,
  "Total Classic duration [s]": 2.0112688999999997,
  "Total Quantum duration [s]": 0.2067311000000001
}
