{
  "Circuit execution durations [ms]": [0.9654, 0.9628, 0.925, 0.9467, 0.9443, 0.9251, 1.0165, 0.9182, 0.924, 0.9481999999999999, 0.912, 0.9374, 0.9475, 0.9293, 0.916, 0.9121999999999999, 0.9132, 0.921, 0.9271, 0.9218, 0.9408, 0.9233, 0.9313, 0.9329, 0.9184, 0.9153, 0.9129999999999999, 0.9190999999999999, 0.9330999999999999, 0.9261999999999999, 0.9253, 0.9319000000000001, 0.939, 0.9538, 0.9470000000000001, 0.9359999999999999, 0.9188999999999999, 0.9293, 0.9346, 0.934, 0.9125, 0.9378000000000001, 0.9257, 0.9195, 1.2264000000000002, 0.9391, 1.1351, 0.9193, 0.9049, 0.9274, 0.9349000000000001, 0.9309999999999999, 0.9739, 0.9372999999999999, 0.9349000000000001, 0.9238999999999999, 0.9203, 0.9247, 0.9205, 0.9232, 0.9161, 0.9514, 0.9292, 0.9334, 0.9321, 0.9184, 0.9848000000000001, 0.9158000000000001, 0.9119, 0.9512999999999999, 0.9087999999999999, 0.9435, 0.9225, 0.9202, 0.9333, 0.9286, 0.8833, 0.975, 0.9238000000000001, 0.9508, 0.9169999999999999, 0.9269000000000001, 0.9219, 0.9251, 0.9314, 0.9177000000000001, 0.9353, 0.9162, 0.9313, 0.9330999999999999, 0.9167, 0.9093, 0.9384, 0.9155, 0.9111, 0.9309000000000001, 0.9233, 0.9423, 0.9305, 0.9296000000000001, 0.9277000000000001, 0.9269000000000001, 0.9319999999999999, 0.9269999999999999, 0.9196, 0.9192, 0.9418, 1.0321, 0.9248000000000001, 0.9173, 0.9181, 0.9369, 0.925, 0.9287, 0.9123, 0.9266, 0.9356, 0.9192, 0.9600000000000001, 0.9197, 0.9179, 0.9288000000000001, 0.9997999999999999, 0.9227000000000001],
  "Depth": 132.0,
  "Expectation Value": -1.7768272161483765,
  "Optimal Expectation Value": -2.0,
  "Optimizer durations [ms]": [9.979, 10.246, 9.89, 9.988, 9.932, 9.74, 10.626, 9.759, 9.647, 10.141, 9.476, 9.778, 10.08, 9.896, 9.333, 9.762, 9.519, 9.95, 9.635, 9.677, 9.763, 10.048, 9.801, 9.85, 9.496, 9.868, 9.671, 9.407, 10.067, 9.83, 9.757, 9.828, 9.932, 10.026, 9.749, 9.83, 9.65, 9.877, 9.806, 9.94, 9.455, 9.902, 10.025, 9.656, 12.466, 19.46, 12.669, 9.646, 9.808, 9.823, 9.691, 9.806, 10.437, 9.968, 9.908, 9.562, 9.957, 9.614, 9.836, 9.642, 9.58, 9.894, 9.785, 9.647, 9.864, 9.926, 10.274, 9.445, 9.997, 9.728, 9.832, 9.889, 9.83, 9.684, 9.653, 9.672, 12.558, 10.612, 9.677, 9.988, 9.781, 9.722, 9.542, 9.762, 9.871, 9.561, 9.887, 9.553, 9.781, 9.908, 9.409, 9.845, 9.722, 9.927, 9.469, 9.694, 9.754, 9.868, 9.99, 9.714, 9.88, 9.558, 9.876, 9.674, 9.835, 9.589, 10.083, 10.785, 9.956, 9.691, 9.508, 9.901, 9.739, 9.974, 9.64, 9.632, 9.7, 9.582, 10.273, 9.825, 9.368, 9.987, 10.475, 9.754],
  "Optimizer iterations": 124,
  "Optimizer params": [0.29258225158849677, 0.36976235157598275, 0.9555235353396233, 0.1896484066542964, 0.830156299499602, 0.05194987135403239],
  "P": 3,
  "Problem": "DSP",
  "QJob durations [ms]": [0.9654, 0.9628, 0.925, 0.9467, 0.9443, 0.9251, 1.0165, 0.9182, 0.924, 0.9481999999999999, 0.912, 0.9374, 0.9475, 0.9293, 0.916, 0.9121999999999999, 0.9132, 0.921, 0.9271, 0.9218, 0.9408, 0.9233, 0.9313, 0.9329, 0.9184, 0.9153, 0.9129999999999999, 0.9190999999999999, 0.9330999999999999, 0.9261999999999999, 0.9253, 0.9319000000000001, 0.939, 0.9538, 0.9470000000000001, 0.9359999999999999, 0.9188999999999999, 0.9293, 0.9346, 0.934, 0.9125, 0.9378000000000001, 0.9257, 0.9195, 1.2264000000000002, 0.9391, 1.1351, 0.9193, 0.9049, 0.9274, 0.9349000000000001, 0.9309999999999999, 0.9739, 0.9372999999999999, 0.9349000000000001, 0.9238999999999999, 0.9203, 0.9247, 0.9205, 0.9232, 0.9161, 0.9514, 0.9292, 0.9334, 0.9321, 0.9184, 0.9848000000000001, 0.9158000000000001, 0.9119, 0.9512999999999999, 0.9087999999999999, 0.9435, 0.9225, 0.9202, 0.9333, 0.9286, 0.8833, 0.975, 0.9238000000000001, 0.9508, 0.9169999999999999, 0.9269000000000001, 0.9219, 0.9251, 0.9314, 0.9177000000000001, 0.9353, 0.9162, 0.9313, 0.9330999999999999, 0.9167, 0.9093, 0.9384, 0.9155, 0.9111, 0.9309000000000001, 0.9233, 0.9423, 0.9305, 0.9296000000000001, 0.9277000000000001, 0.9269000000000001, 0.9319999999999999, 0.9269999999999999, 0.9196, 0.9192, 0.9418, 1.0321, 0.9248000000000001, 0.9173, 0.9181, 0.9369, 0.925, 0.9287, 0.9123, 0.9266, 0.9356, 0.9192, 0.9600000000000001, 0.9197, 0.9179, 0.9288000000000001, 0.9997999999999999, 0.9227000000000001],
  "QPU": "7000000",
  "Qubits": 6,
  "Queue durations [ms]": [0.0, 0.0, 0.0, 0.0, 0.0, 0.0, 0.0, 0.0, 0.0, 0.0, 0.0, 0.0, 0.0, 0.0, 0.0, 0.0, 0.0, 0.0, 0.0, 0.0, 0.0, 0.0, 0.0, 0.0, 0.0, 0.0, 0.0, 0.0, 0.0, 0.0, 0.0, 0.0, 0.0, 0.0, 0.0, 0.0, 0.0, 0.0, 0.0, 0.0, 0.0, 0.0, 0.0, 0.0, 0.0, 0.0, 0.0, 0.0, 0.0, 0.0, 0.0, 0.0, 0.0, 0.0, 0.0, 0.0, 0.0, 0.0, 0.0, 0.0, 0.0, 0.0, 0.0, 0.0, 0.0, 0.0, 0.0, 0.0, 0.0, 0.0, 0.0, 0.0, 0.0, 0.0, 0.0, 0.0, 0.0, 0.0, 0.0, 0.0, 0.0, 0.0, 0.0, 0.0, 0.0, 0.0, 0.0, 0.0, 0.0, 0.0, 0.0, 0.0, 0.0, 0.0, 0.0, 0.0, 0.0, 0.0, 0.0, 0.0, 0.0, 0.0, 0.0, 0.0, 0.0, 0.0, 0.0, 0.0, 0.0, 0.0, 0.0, 0.0, 0.0, 0.0, 0.0, 0.0, 0.0, 0.0, 0.0, 0.0, 0.0, 0.0, 0.0, 0.0],
  "Shots": 4096,
  "Size": 3,
  "Total Algorithm duration [s]": 1.235,
  "Total Classic duration [s]": 1.1190534,
  "Total Quantum duration [s]": 0.11594659999999997
}
