{
  "Circuit execution durations [ms]": [0.9462999999999999, 0.9089, 0.9171, 0.9322999999999999, 0.9259000000000001, 0.9292, 0.9079999999999999, 0.9325, 0.9675, 0.8963000000000001, 1.2176, 0.9327, 0.9415, 0.9123, 0.923, 0.9330999999999999, 0.9248000000000001, 0.9223, 0.9375, 0.9081, 0.9304, 0.9366, 0.939, 0.9158999999999999, 0.9269999999999999, 0.9179, 0.9317000000000001, 0.9242, 0.9296000000000001, 0.9095000000000001, 0.9219, 0.9179, 0.9287, 0.9238000000000001, 0.9115, 0.9201, 0.9171, 0.9341, 0.9235, 0.9351999999999999, 0.9293, 0.9157, 0.9198000000000001, 0.9341, 0.9298000000000001, 0.9126, 0.9330999999999999, 0.94, 0.9391, 0.9282999999999999, 0.9173, 0.9129999999999999, 0.9271, 0.9228, 0.9548, 0.9074000000000001, 0.9409000000000001, 0.9203, 0.9269999999999999, 0.9082, 0.9351999999999999, 0.9211999999999999, 0.9723, 0.9359000000000001, 0.9174, 0.9351999999999999, 0.9925999999999999, 0.9215, 0.9204, 0.9319000000000001, 0.9167, 0.9301999999999999, 0.9325, 0.9941, 0.9322999999999999, 0.9301, 0.9365, 0.9318, 0.9113, 0.9227000000000001, 0.9335],
  "Depth": 132.0,
  "Expectation Value": -1.8046932220458984,
  "Optimal Expectation Value": -2.0,
  "Optimizer durations [ms]": [9.819, 9.739, 9.86, 9.696, 9.825, 9.706, 9.609, 9.897, 14.98, 14.677, 12.826, 9.863, 10.054, 9.459, 9.882, 9.823, 9.717, 9.744, 9.77, 9.436, 9.783, 10.082, 10.062, 9.65, 9.587, 9.884, 9.66, 9.93, 9.584, 9.84, 9.471, 9.718, 10.009, 9.483, 9.686, 9.736, 9.667, 9.857, 9.587, 9.829, 9.821, 9.601, 10.547, 9.803, 9.835, 9.558, 9.726, 9.668, 10.066, 9.539, 9.853, 9.291, 10.015, 9.713, 9.859, 9.589, 10.042, 9.703, 9.787, 9.597, 10.172, 9.784, 10.114, 10.002, 9.66, 9.767, 10.334, 9.757, 9.827, 9.678, 9.711, 9.818, 9.715, 10.464, 9.632, 10.05, 9.607, 9.74, 10.01, 9.604, 9.783],
  "Optimizer iterations": 81,
  "Optimizer params": [0.6789000110316861, 0.5888573785978465, 0.2144895486301612, 0.9821772171943711, 0.9077104373714456, 0.9999999999999999],
  "P": 3,
  "Problem": "DSP",
  "QJob durations [ms]": [0.9462999999999999, 0.9089, 0.9171, 0.9322999999999999, 0.9259000000000001, 0.9292, 0.9079999999999999, 0.9325, 0.9675, 0.8963000000000001, 1.2176, 0.9327, 0.9415, 0.9123, 0.923, 0.9330999999999999, 0.9248000000000001, 0.9223, 0.9375, 0.9081, 0.9304, 0.9366, 0.939, 0.9158999999999999, 0.9269999999999999, 0.9179, 0.9317000000000001, 0.9242, 0.9296000000000001, 0.9095000000000001, 0.9219, 0.9179, 0.9287, 0.9238000000000001, 0.9115, 0.9201, 0.9171, 0.9341, 0.9235, 0.9351999999999999, 0.9293, 0.9157, 0.9198000000000001, 0.9341, 0.9298000000000001, 0.9126, 0.9330999999999999, 0.94, 0.9391, 0.9282999999999999, 0.9173, 0.9129999999999999, 0.9271, 0.9228, 0.9548, 0.9074000000000001, 0.9409000000000001, 0.9203, 0.9269999999999999, 0.9082, 0.9351999999999999, 0.9211999999999999, 0.9723, 0.9359000000000001, 0.9174, 0.9351999999999999, 0.9925999999999999, 0.9215, 0.9204, 0.9319000000000001, 0.9167, 0.9301999999999999, 0.9325, 0.9941, 0.9322999999999999, 0.9301, 0.9365, 0.9318, 0.9113, 0.9227000000000001, 0.9335],
  "QPU": "7000000",
  "Qubits": 6,
  "Queue durations [ms]": [0.0, 0.0, 0.0, 0.0, 0.0, 0.0, 0.0, 0.0, 0.0, 0.0, 0.0, 0.0, 0.0, 0.0, 0.0, 0.0, 0.0, 0.0, 0.0, 0.0, 0.0, 0.0, 0.0, 0.0, 0.0, 0.0, 0.0, 0.0, 0.0, 0.0, 0.0, 0.0, 0.0, 0.0, 0.0, 0.0, 0.0, 0.0, 0.0, 0.0, 0.0, 0.0, 0.0, 0.0, 0.0, 0.0, 0.0, 0.0, 0.0, 0.0, 0.0, 0.0, 0.0, 0.0, 0.0, 0.0, 0.0, 0.0, 0.0, 0.0, 0.0, 0.0, 0.0, 0.0, 0.0, 0.0, 0.0, 0.0, 0.0, 0.0, 0.0, 0.0, 0.0, 0.0, 0.0, 0.0, 0.0, 0.0, 0.0, 0.0, 0.0],
  "Shots": 4096,
  "Size": 3,
  "Total Algorithm duration [s]": 0.806,
  "Total Classic duration [s]": 0.7305116,
  "Total Quantum duration [s]": 0.07548839999999998
}
