{
  "Circuit execution durations [ms]": [55.5194616317749, 52.13963985443115, 53.86531352996826, 53.8787841796875, 52.53159999847412, 53.63750457763672, 53.3980131149292, 76.56717300415039, 76.93731784820557, 56.91814422607422, 54.06689643859863, 55.33957481384277, 53.829073905944824, 52.591681480407715, 55.06563186645508, 55.21690845489502, 52.49619483947754, 77.71611213684082, 80.34205436706543, 55.90665340423584, 54.291725158691406, 51.96797847747803, 53.998351097106934, 53.65288257598877, 52.00517177581787, 51.91540718078613, 53.53736877441406, 76.13766193389893, 80.01077175140381, 54.324984550476074, 53.40397357940674, 52.38664150238037, 53.766489028930664, 55.300235748291016, 53.71665954589844, 53.90810966491699, 53.72190475463867, 78.09817790985107, 79.1236162185669, 56.04863166809082, 51.714420318603516, 53.716301918029785, 53.40921878814697, 53.39992046356201, 54.85403537750244, 53.9851188659668, 54.9849271774292, 76.79402828216553, 76.97975635528564, 52.96957492828369, 52.31606960296631, 51.80251598358154, 51.963090896606445, 52.211642265319824, 51.87797546386719, 52.80756950378418, 53.90322208404541, 79.7044038772583, 79.13053035736084, 55.43637275695801, 52.55711078643799, 54.01754379272461, 54.05628681182861, 54.436445236206055, 53.69269847869873, 54.230690002441406, 52.704811096191406, 77.82292366027832, 79.85115051269531, 55.6793212890625, 54.87990379333496, 53.38621139526367, 53.91097068786621, 52.547335624694824, 51.608920097351074, 52.083611488342285, 53.51531505584717, 76.62630081176758, 77.38089561462402, 53.682804107666016, 53.37858200073242, 51.92971229553223, 53.70533466339111, 51.94723606109619, 54.207444190979004, 51.621079444885254, 51.677584648132324, 76.99847221374512, 80.10542392730713, 52.00767517089844, 52.02591419219971, 51.99909210205078, 52.75452136993408, 53.787946701049805, 51.99408531188965, 53.37214469909668, 52.11794376373291, 79.46538925170898, 77.31413841247559, 54.21924591064453, 51.87535285949707, 55.03392219543457, 53.276658058166504, 53.66086959838867, 52.63960361480713, 51.45621299743652, 51.71763896942139, 75.84583759307861, 77.62289047241211, 51.70762538909912, 51.697731018066406, 51.34737491607666, 52.28924751281738, 53.19714546203613, 52.13773250579834, 53.54452133178711, 51.71096324920654, 75.56653022766113, 80.11400699615479, 52.39248275756836, 55.083513259887695, 53.3980131149292, 52.16491222381592, 53.42698097229004, 53.01308631896973, 54.82351779937744, 53.92813682556152, 76.23863220214844, 78.37796211242676, 52.08420753479004, 55.12690544128418, 52.07407474517822, 53.79080772399902, 53.96544933319092, 51.84125900268555, 53.74181270599365, 52.10590362548828, 79.48696613311768, 78.4146785736084, 53.73358726501465, 55.081725120544434, 51.54561996459961, 54.10563945770264, 52.21211910247803, 53.66802215576172, 53.70473861694336, 53.36558818817139, 79.21779155731201, 77.26728916168213, 51.888346672058105, 53.54773998260498, 53.6191463470459, 51.86879634857178, 52.86896228790283, 52.36542224884033, 51.88477039337158, 55.38785457611084, 78.80759239196777, 78.36508750915527, 52.054762840270996, 51.787734031677246, 53.98058891296387, 52.17337608337402, 52.61349678039551, 52.31046676635742, 52.02126502990723, 53.48777770996094, 76.14827156066895, 78.54092121124268, 53.815364837646484, 53.71451377868652, 55.66549301147461, 52.00982093811035, 52.03211307525635, 55.11331558227539, 52.47318744659424, 55.48286437988281, 77.9505968093872, 80.34682273864746, 51.661133766174316, 52.11436748504639, 55.14800548553467, 55.26602268218994, 55.15563488006592, 51.788330078125, 54.06010150909424, 53.703904151916504, 78.18663120269775, 76.67934894561768, 54.90458011627197, 53.782105445861816, 53.73382568359375, 51.82027816772461, 52.228569984436035, 54.135680198669434, 51.65600776672363, 53.64394187927246, 76.55799388885498, 78.41002941131592, 52.2838830947876, 51.65386199951172, 52.15013027191162, 53.67839336395264, 53.04062366485596, 51.79572105407715, 51.72836780548096, 53.70140075683594, 76.25889778137207, 77.15165615081787, 54.90589141845703, 52.77442932128906, 53.54630947113037, 52.02031135559082, 51.85806751251221, 54.51762676239014, 54.65972423553467, 55.03833293914795, 78.04131507873535, 83.01043510437012, 52.372097969055176, 52.854299545288086, 51.8108606338501, 51.815032958984375, 52.080392837524414, 52.20448970794678, 53.998351097106934, 51.993727684020996, 77.77667045593262, 76.75635814666748, 54.215073585510254, 53.86364459991455, 53.54452133178711, 52.00338363647461, 54.715871810913086, 53.621530532836914, 53.57563495635986, 52.63817310333252, 77.73423194885254, 76.81596279144287, 52.32572555541992, 53.51221561431885, 53.23135852813721, 51.96952819824219, 51.937222480773926, 53.797364234924316, 51.87666416168213, 51.87499523162842, 75.89638233184814, 78.86183261871338, 51.445603370666504, 53.63917350769043, 52.5202751159668, 53.021788597106934, 53.92324924468994, 53.037405014038086, 53.29608917236328, 51.22995376586914, 75.64377784729004, 77.46779918670654, 51.38754844665527, 51.46658420562744, 53.20620536804199, 53.520917892456055, 56.36632442474365, 51.40125751495361, 51.53000354766846, 53.6043643951416, 76.82740688323975, 81.3601016998291, 51.79297924041748, 53.363919258117676, 54.95047569274902, 53.600430488586426, 51.90551280975342, 51.68914794921875, 53.28643321990967, 51.90277099609375, 76.24387741088867, 76.5995979309082, 55.07326126098633, 52.68394947052002, 51.93173885345459, 51.36382579803467, 52.08015441894531, 51.67806148529053, 52.0702600479126, 55.01830577850342, 76.24936103820801, 76.7136812210083, 51.941752433776855, 53.49910259246826, 53.771376609802246, 55.38487434387207, 53.488969802856445, 53.026556968688965, 53.65598201751709, 52.31761932373047, 76.07269287109375, 78.47702503204346, 53.52628231048584, 55.100321769714355, 53.46560478210449, 53.42221260070801, 52.300333976745605, 51.31173133850098, 53.014516830444336, 51.673173904418945, 76.14672183990479, 76.38537883758545, 52.32739448547363, 51.91171169281006, 55.26435375213623, 52.1472692489624, 52.2770881652832, 51.63609981536865, 51.64754390716553, 51.70178413391113, 75.56545734405518, 76.93195343017578, 53.20274829864502, 51.522254943847656, 52.05881595611572, 52.068233489990234, 51.79572105407715],
  "Depth": 12.5,
  "Expectation Value": -4.18603515625,
  "Optimal Expectation Value": -6.026674270629883,
  "Optimizer durations [ms]": [585.41, 583.978, 631.133, 586.537, 587.408, 637.849, 589.984, 588.965, 640.741, 599.579, 587.216, 588.668, 631.14, 581.44, 592.545, 638.667, 583.235, 592.633, 641.352, 593.689, 594.955, 584.056, 631.386, 584.644, 590.838, 632.668, 590.387, 592.278, 642.854, 594.453, 587.011, 587.562, 632.297, 590.368, 588.697, 638.497, 588.666, 593.143, 641.312, 595.421, 583.127, 587.195, 632.91, 584.451, 591.282, 638.71, 596.287, 590.368, 637.699, 590.566, 580.805, 588.177, 628.072, 579.405, 588.255, 633.816, 586.751, 593.337, 638.966, 594.257, 583.203, 586.225, 632.091, 588.976, 591.569, 634.33, 587.151, 593.634, 644.558, 593.611, 588.693, 590.177, 630.252, 583.972, 587.77, 634.856, 588.654, 588.672, 639.606, 591.832, 583.966, 586.109, 631.088, 580.558, 596.822, 637.212, 587.272, 591.554, 645.615, 590.196, 582.31, 587.717, 631.405, 592.218, 587.657, 637.603, 585.048, 597.804, 638.375, 591.326, 583.3, 592.658, 632.9, 586.147, 590.96, 632.001, 587.251, 592.068, 639.007, 590.589, 583.573, 586.213, 632.666, 587.942, 586.538, 639.85, 587.288, 587.63, 645.687, 592.913, 587.999, 589.868, 630.896, 588.485, 591.604, 641.229, 589.288, 589.225, 640.47, 587.909, 589.744, 584.321, 632.639, 586.918, 589.845, 636.306, 585.704, 591.707, 643.254, 594.63, 590.118, 586.406, 632.227, 583.48, 588.358, 636.421, 585.88, 594.972, 638.644, 589.472, 585.661, 591.118, 630.166, 582.687, 586.162, 632.169, 588.288, 596.299, 642.797, 591.331, 583.47, 593.837, 630.251, 586.33, 586.006, 635.279, 588.509, 589.461, 641.533, 595.64, 587.458, 593.367, 630.286, 587.883, 594.663, 632.649, 593.371, 591.018, 646.054, 588.259, 583.07, 593.853, 637.264, 590.722, 591.401, 637.724, 585.082, 592.038, 638.67, 593.855, 587.387, 585.123, 632.517, 588.258, 590.091, 634.218, 590.562, 592.284, 640.747, 590.596, 582.474, 586.713, 635.129, 588.504, 589.459, 634.342, 592.23, 587.955, 639.459, 591.461, 581.009, 586.2, 628.07, 582.856, 591.635, 639.002, 592.222, 590.282, 646.733, 588.938, 581.308, 586.233, 629.961, 585.98, 588.645, 637.812, 587.749, 593.802, 639.604, 597.204, 586.88, 589.501, 630.396, 592.08, 591.965, 639.547, 589.414, 592.899, 639.392, 591.099, 585.428, 587.917, 625.786, 582.823, 587.666, 629.286, 583.558, 587.987, 638.817, 585.717, 583.638, 584.602, 627.299, 583.221, 587.619, 635.504, 581.471, 586.658, 635.813, 585.333, 579.193, 586.09, 629.28, 589.645, 583.581, 631.537, 584.874, 588.408, 642.581, 586.529, 582.498, 589.51, 629.822, 580.752, 583.72, 636.434, 584.007, 587.072, 635.001, 591.479, 581.929, 585.304, 626.137, 580.182, 584.644, 631.227, 588.319, 586.493, 635.426, 587.767, 584.546, 585.781, 635.422, 584.104, 590.282, 634.058, 583.841, 588.164, 638.956, 587.818, 585.9, 585.661, 631.783, 582.541, 583.748, 633.526, 584.123, 586.296, 634.237, 586.74, 581.272, 590.144, 626.879, 582.244, 583.574, 629.462, 581.563, 584.503, 635.937, 590.641, 578.974, 582.559, 627.895, 581.176],
  "Optimizer iterations": 324,
  "Optimizer params": [0.010153197931917046, 0.5387691583528996, 0.4493299467105604, 0.04577993457480501, 0.5074827782624316, 0.993853858368728, 0.058234559542774074, 0.42345799349320795, 0.14993892810961307, 0.678176283424874, 0.891059963748433, 0.6107293726216143, 0.08697533138205704, 0.5430596444475698, 0.5569725729565297, 0.9046770728075337, 0.5193844552266079, 0.5877673924335671, 0.33856764017946966, 0.4999478114375304],
  "P": 0,
  "Problem": "IC",
  "QJob durations [ms]": [83.50050449371338, 80.42609691619873, 81.97212219238281, 82.35788345336914, 81.09486103057861, 81.97271823883057, 81.7795991897583, 104.91502285003662, 106.04584217071533, 85.43181419372559, 82.61275291442871, 83.37843418121338, 82.31854438781738, 80.83534240722656, 83.6399793624878, 83.2669734954834, 80.49988746643066, 106.62567615509033, 109.08126831054688, 84.2522382736206, 82.82017707824707, 80.06095886230469, 82.06653594970703, 81.84576034545898, 80.71494102478027, 80.61778545379639, 81.9997787475586, 105.10492324829102, 108.58273506164551, 82.54146575927734, 81.86578750610352, 80.9931755065918, 82.41689205169678, 83.5195779800415, 81.99310302734375, 82.41260051727295, 82.2136402130127, 106.74643516540527, 107.67793655395508, 84.32328701019287, 80.64520359039307, 81.73990249633789, 81.78246021270752, 81.68399333953857, 83.20033550262451, 82.63170719146729, 83.2827091217041, 105.34274578094482, 105.6290864944458, 81.59410953521729, 80.45768737792969, 80.32417297363281, 80.3762674331665, 80.25884628295898, 80.33084869384766, 81.2922716140747, 81.80809020996094, 108.29317569732666, 107.65790939331055, 83.84323120117188, 80.85548877716064, 81.7875862121582, 82.31484889984131, 82.93688297271729, 82.33368396759033, 82.366943359375, 80.9934139251709, 106.42886161804199, 109.44700241088867, 83.79793167114258, 83.23299884796143, 81.95662498474121, 82.09609985351563, 80.86669445037842, 80.14237880706787, 80.7943344116211, 81.9789171218872, 105.22079467773438, 106.04143142700195, 81.83526992797852, 81.40063285827637, 80.28900623321533, 81.93385601043701, 80.26361465454102, 82.97586441040039, 80.37829399108887, 79.99145984649658, 105.5985689163208, 108.87563228607178, 80.26301860809326, 80.36196231842041, 80.2222490310669, 80.97267150878906, 82.0857286453247, 80.29031753540039, 82.02791213989258, 79.98788356781006, 107.93113708496094, 106.07707500457764, 82.08286762237549, 80.35600185394287, 83.46879482269287, 81.69329166412354, 81.71713352203369, 81.32791519165039, 79.53596115112305, 80.2769660949707, 104.69043254852295, 106.13024234771729, 80.24084568023682, 79.91647720336914, 80.11102676391602, 80.93643188476563, 81.60209655761719, 80.44540882110596, 82.34179019927979, 80.42287826538086, 103.89590263366699, 108.99472236633301, 81.0929536819458, 83.41312408447266, 81.5885066986084, 80.42609691619873, 81.74574375152588, 81.51352405548096, 83.40895175933838, 82.6880931854248, 104.76469993591309, 107.12432861328125, 80.17873764038086, 83.31680297851563, 80.24322986602783, 81.64525032043457, 82.2608470916748, 80.59334754943848, 82.03279972076416, 80.67560195922852, 107.37729072570801, 107.45573043823242, 82.27932453155518, 83.61649513244629, 80.27255535125732, 82.52692222595215, 80.59394359588623, 82.14068412780762, 81.96878433227539, 81.6500186920166, 107.81025886535645, 105.87942600250244, 80.1926851272583, 81.7946195602417, 82.31961727142334, 80.41071891784668, 80.72376251220703, 80.31201362609863, 80.25979995727539, 83.1000804901123, 107.47742652893066, 107.09762573242188, 80.57844638824463, 80.17468452453613, 82.85868167877197, 80.59978485107422, 81.00032806396484, 80.93476295471191, 80.74772357940674, 81.5058946609497, 104.43973541259766, 107.1544885635376, 82.33404159545898, 82.08656311035156, 84.31553840637207, 80.42407035827637, 80.6959867477417, 83.82236957550049, 81.11310005187988, 83.69719982147217, 106.69064521789551, 109.3529462814331, 79.96809482574463, 80.63280582427979, 83.92882347106934, 83.64975452423096, 83.53686332702637, 80.58381080627441, 82.27324485778809, 81.70473575592041, 106.63115978240967, 105.11982440948486, 83.18459987640381, 81.86781406402588, 81.86161518096924, 80.361008644104, 80.90806007385254, 82.55600929260254, 80.10745048522949, 81.795334815979, 105.08513450622559, 106.95290565490723, 81.02381229400635, 79.74815368652344, 80.71720600128174, 82.32498168945313, 81.67743682861328, 80.45041561126709, 80.11484146118164, 82.4192762374878, 104.60901260375977, 106.08887672424316, 83.56893062591553, 80.7943344116211, 82.00883865356445, 80.2839994430542, 79.94067668914795, 83.03380012512207, 82.92102813720703, 83.54270458221436, 106.04262351989746, 111.33408546447754, 80.85775375366211, 80.9316635131836, 80.22022247314453, 80.40058612823486, 80.64389228820801, 80.6952714920044, 82.46755599975586, 80.42633533477783, 106.28104209899902, 105.67331314086914, 82.83734321594238, 81.96747303009033, 82.05389976501465, 80.41274547576904, 83.14132690429688, 81.91633224487305, 81.98106288909912, 81.10237121582031, 106.35411739349365, 105.5978536605835, 80.6891918182373, 81.91800117492676, 81.83765411376953, 80.08456230163574, 80.32715320587158, 81.97903633117676, 79.8497200012207, 79.84590530395508, 104.16388511657715, 107.22589492797852, 79.76019382476807, 81.91561698913574, 80.78515529632568, 81.25722408294678, 81.86960220336914, 81.31587505340576, 81.80642127990723, 79.19013500213623, 104.05218601226807, 106.16838932037354, 79.4515609741211, 79.72478866577148, 81.5204381942749, 81.74741268157959, 84.65147018432617, 79.44023609161377, 79.70869541168213, 81.28118515014648, 105.08465766906738, 109.72404479980469, 80.02066612243652, 81.37917518615723, 83.45913887023926, 81.66372776031494, 80.03711700439453, 79.80000972747803, 81.57575130462646, 80.24847507476807, 104.39705848693848, 105.34512996673584, 82.91709423065186, 80.9696912765503, 80.53863048553467, 79.72347736358643, 80.11627197265625, 79.93602752685547, 80.25360107421875, 83.11855792999268, 104.48288917541504, 105.24988174438477, 80.30343055725098, 82.07285404205322, 82.01134204864502, 83.79817008972168, 81.48157596588135, 81.62164688110352, 82.11398124694824, 80.63948154449463, 104.2947769165039, 106.97746276855469, 81.23469352722168, 83.37879180908203, 81.75909519195557, 81.85017108917236, 80.31988143920898, 79.2684555053711, 81.21037483215332, 79.97608184814453, 104.29060459136963, 104.84051704406738, 80.33549785614014, 80.21676540374756, 83.75132083892822, 79.92792129516602, 80.54125308990479, 79.91087436676025, 79.91886138916016, 79.96416091918945, 103.61897945404053, 105.67879676818848, 81.54988288879395, 79.79631423950195, 80.51943778991699, 80.46913146972656, 79.98573780059814],
  "QPU": "3000013",
  "Qubits": 5,
  "Queue durations [ms]": [0.0, 0.0, 0.0, 0.0, 0.0, 0.0, 0.0, 0.0, 0.0, 0.0, 0.0, 0.0, 0.0, 0.0, 0.0, 0.0, 0.0, 0.0, 0.0, 0.0, 0.0, 0.0, 0.0, 0.0, 0.0, 0.0, 0.0, 0.0, 0.0, 0.0, 0.0, 0.0, 0.0, 0.0, 0.0, 0.0, 0.0, 0.0, 0.0, 0.0, 0.0, 0.0, 0.0, 0.0, 0.0, 0.0, 0.0, 0.0, 0.0, 0.0, 0.0, 0.0, 0.0, 0.0, 0.0, 0.0, 0.0, 0.0, 0.0, 0.0, 0.0, 0.0, 0.0, 0.0, 0.0, 0.0, 0.0, 0.0, 0.0, 0.0, 0.0, 0.0, 0.0, 0.0, 0.0, 0.0, 0.0, 0.0, 0.0, 0.0, 0.0, 0.0, 0.0, 0.0, 0.0, 0.0, 0.0, 0.0, 0.0, 0.0, 0.0, 0.0, 0.0, 0.0, 0.0, 0.0, 0.0, 0.0, 0.0, 0.0, 0.0, 0.0, 0.0, 0.0, 0.0, 0.0, 0.0, 0.0, 0.0, 0.0, 0.0, 0.0, 0.0, 0.0, 0.0, 0.0, 0.0, 0.0, 0.0, 0.0, 0.0, 0.0, 0.0, 0.0, 0.0, 0.0, 0.0, 0.0, 0.0, 0.0, 0.0, 0.0, 0.0, 0.0, 0.0, 0.0, 0.0, 0.0, 0.0, 0.0, 0.0, 0.0, 0.0, 0.0, 0.0, 0.0, 0.0, 0.0, 0.0, 0.0, 0.0, 0.0, 0.0, 0.0, 0.0, 0.0, 0.0, 0.0, 0.0, 0.0, 0.0, 0.0, 0.0, 0.0, 0.0, 0.0, 0.0, 0.0, 0.0, 0.0, 0.0, 0.0, 0.0, 0.0, 0.0, 0.0, 0.0, 0.0, 0.0, 0.0, 0.0, 0.0, 0.0, 0.0, 0.0, 0.0, 0.0, 0.0, 0.0, 0.0, 0.0, 0.0, 0.0, 0.0, 0.0, 0.0, 0.0, 0.0, 0.0, 0.0, 0.0, 0.0, 0.0, 0.0, 0.0, 0.0, 0.0, 0.0, 0.0, 0.0, 0.0, 0.0, 0.0, 0.0, 0.0, 0.0, 0.0, 0.0, 0.0, 0.0, 0.0, 0.0, 0.0, 0.0, 0.0, 0.0, 0.0, 0.0, 0.0, 0.0, 0.0, 0.0, 0.0, 0.0, 0.0, 0.0, 0.0, 0.0, 0.0, 0.0, 0.0, 0.0, 0.0, 0.0, 0.0, 0.0, 0.0, 0.0, 0.0, 0.0, 0.0, 0.0, 0.0, 0.0, 0.0, 0.0, 0.0, 0.0, 0.0, 0.0, 0.0, 0.0, 0.0, 0.0, 0.0, 0.0, 0.0, 0.0, 0.0, 0.0, 0.0, 0.0, 0.0, 0.0, 0.0, 0.0, 0.0, 0.0, 0.0, 0.0, 0.0, 0.0, 0.0, 0.0, 0.0, 0.0, 0.0, 0.0, 0.0, 0.0, 0.0, 0.0, 0.0, 0.0, 0.0, 0.0, 0.0, 0.0, 0.0, 0.0, 0.0, 0.0, 0.0, 0.0, 0.0, 0.0, 0.0, 0.0, 0.0, 0.0, 0.0, 0.0, 0.0, 0.0, 0.0, 0.0, 0.0, 0.0, 0.0, 0.0, 0.0, 0.0, 0.0, 0.0],
  "Shots": 4096,
  "Size": 5,
  "Total Algorithm duration [s]": 195.108,
  "Total Classic duration [s]": 167.1247052745819,
  "Total Quantum duration [s]": 27.98329472541809
}
