{
  "Circuit execution durations [ms]": [2224.8737812042236, 2168.8506603240967, 2240.1974201202393, 2229.4585704803467, 2231.952428817749, 2228.8460731506348, 2233.2522869110107, 2237.1134757995605, 2232.042074203491, 2235.2616786956787, 2241.016149520874, 2537.046194076538, 2228.9505004882813, 2230.3757667541504, 2537.201166152954, 2230.3466796875, 2238.396406173706, 2224.670886993408, 2176.1767864227295, 2228.5404205322266, 2238.1842136383057, 2231.577157974243, 2219.3875312805176, 2227.6341915130615, 2225.722312927246, 2227.0548343658447, 2249.9425411224365, 2237.34712600708, 2229.1135787963867, 2238.6722564697266, 2231.743097305298, 2235.2523803710938, 2232.8665256500244, 2232.994794845581, 2244.575262069702, 2233.1454753875732, 2269.219398498535, 2237.245559692383, 2233.1511974334717, 2232.90753364563, 2233.827829360962, 2236.3040447235107, 2483.5214614868164, 2227.76460647583, 2207.9997062683105, 2228.6715507507324, 2231.1244010925293, 2234.847068786621, 2225.203275680542, 2229.696035385132, 2535.70294380188, 2226.287841796875, 2163.377523422241, 2234.6720695495605, 2232.3784828186035, 2275.7561206817627, 2221.7319011688232, 2216.6147232055664, 2224.3411540985107, 2167.840003967285, 2232.6488494873047, 2230.4165363311768, 2228.8506031036377, 2230.741500854492, 2240.3905391693115, 2235.898494720459, 2239.8436069488525, 2276.167869567871, 2231.0266494750977, 2226.853847503662, 2228.910207748413, 2229.8402786254883, 2223.4203815460205, 2233.8178157806396, 2207.169532775879, 2227.9412746429443, 2232.9506874084473, 2252.1846294403076, 2242.0527935028076, 2234.6034049987793, 2238.5549545288086, 2171.8175411224365, 2230.3614616394043, 2237.6630306243896, 2234.518051147461, 2233.3526611328125, 2271.5048789978027, 2230.0851345062256, 2212.3873233795166, 2241.0545349121094, 2213.815450668335],
  "Depth": 41.0,
  "Expectation Value": -3.58984375,
  "Optimal Expectation Value": -4.0,
  "Optimizer durations [ms]": [3479.355, 3449.151, 3523.634, 3482.928, 3549.255, 3506.606, 3491.165, 3515.209, 3502.84, 3474.454, 3521.06, 3817.104, 3476.836, 3503.348, 3861.394, 3484.011, 3510.333, 3499.203, 3411.111, 3510.054, 3518.084, 3521.422, 3469.821, 3508.215, 3505.52, 3475.499, 3559.423, 3517.209, 3477.068, 3513.003, 3517.596, 3481.261, 3503.71, 3507.703, 3493.19, 3513.461, 3546.439, 3485.969, 3516.194, 3507.897, 3510.807, 3486.045, 3771.575, 3507.471, 3459.021, 3543.111, 3516.899, 3486.02, 3501.171, 3501.74, 3800.923, 3491.241, 3441.092, 3524.006, 3485.323, 3550.716, 3493.631, 3469.381, 3487.981, 3445.088, 3476.348, 3508.876, 3515.616, 3472.635, 3515.965, 3511.277, 3482.076, 3550.501, 3509.356, 3470.621, 3504.235, 3509.424, 3471.685, 3506.245, 3477.694, 3500.618, 3479.873, 3530.478, 3519.133, 3483.3, 3513.024, 3454.396, 3484.945, 3520.844, 3514.535, 3496.603, 3535.693, 3506.677, 3494.107, 3498.197, 3490.153],
  "Optimizer iterations": 91,
  "Optimizer params": [0.05735140026891638, 0.3171591661413705, 0.9999935493545982, 0.2146529670919716, 0.8395665812946824, 0.09825117717746283],
  "P": 3,
  "Problem": "MCP",
  "QJob durations [ms]": [3472.789525985718, 3442.3301219940186, 3516.655206680298, 3476.2468338012695, 3498.560905456543, 3500.242233276367, 3485.0006103515625, 3508.850336074829, 3496.2425231933594, 3468.1262969970703, 3514.6234035491943, 3810.797929763794, 3470.733880996704, 3496.9704151153564, 3813.513994216919, 3477.759599685669, 3504.10795211792, 3492.7072525024414, 3404.820442199707, 3503.840684890747, 3511.7506980895996, 3515.157461166382, 3463.681221008301, 3501.89471244812, 3499.135971069336, 3469.247817993164, 3511.1069679260254, 3510.9286308288574, 3470.824718475342, 3506.6702365875244, 3511.4147663116455, 3475.0826358795166, 3497.3766803741455, 3501.3229846954346, 3486.9635105133057, 3506.769895553589, 3540.2095317840576, 3479.8076152801514, 3509.7908973693848, 3501.7271041870117, 3504.6045780181885, 3479.473114013672, 3765.399932861328, 3500.779628753662, 3452.4500370025635, 3494.852066040039, 3510.6201171875, 3479.5615673065186, 3494.8079586029053, 3495.5222606658936, 3793.9209938049316, 3484.988212585449, 3434.85951423645, 3517.5700187683105, 3478.9490699768066, 3543.621778488159, 3487.231969833374, 3462.9857540130615, 3481.8129539489746, 3438.8461112976074, 3469.9666500091553, 3502.450704574585, 3509.3722343444824, 3466.3095474243164, 3509.7601413726807, 3505.073308944702, 3475.8431911468506, 3544.3849563598633, 3503.0531883239746, 3464.240074157715, 3498.042345046997, 3503.216028213501, 3465.2175903320313, 3500.072956085205, 3471.543788909912, 3494.0178394317627, 3473.447322845459, 3523.4427452087402, 3512.708902359009, 3477.0867824554443, 3506.899356842041, 3447.981357574463, 3478.7325859069824, 3514.3790245056152, 3508.134126663208, 3490.37504196167, 3529.580593109131, 3500.36358833313, 3487.788438796997, 3491.9583797454834, 3483.750581741333],
  "QPU": "6010003",
  "Qubits": 4,
  "Queue durations [ms]": [0.0, 0.0, 0.0, 0.0, 0.0, 0.0, 0.0, 0.0, 0.0, 0.0, 0.0, 0.0, 0.0, 0.0, 0.0, 0.0, 0.0, 0.0, 0.0, 0.0, 0.0, 0.0, 0.0, 0.0, 0.0, 0.0, 0.0, 0.0, 0.0, 0.0, 0.0, 0.0, 0.0, 0.0, 0.0, 0.0, 0.0, 0.0, 0.0, 0.0, 0.0, 0.0, 0.0, 0.0, 0.0, 0.0, 0.0, 0.0, 0.0, 0.0, 0.0, 0.0, 0.0, 0.0, 0.0, 0.0, 0.0, 0.0, 0.0, 0.0, 0.0, 0.0, 0.0, 0.0, 0.0, 0.0, 0.0, 0.0, 0.0, 0.0, 0.0, 0.0, 0.0, 0.0, 0.0, 0.0, 0.0, 0.0, 0.0, 0.0, 0.0, 0.0, 0.0, 0.0, 0.0, 0.0, 0.0, 0.0, 0.0, 0.0, 0.0],
  "Shots": 4096,
  "Size": 4,
  "Total Algorithm duration [s]": 319.686,
  "Total Classic duration [s]": 0.7481647834777618,
  "Total Quantum duration [s]": 318.9378352165222
}
