{
  "Circuit execution durations [ms]": [3.3901, 3.3931, 3.3890000000000002, 3.3896, 3.4561, 3.3655, 3.3878, 3.3487999999999998, 3.3736, 3.4160000000000004, 3.387, 3.3884000000000003, 3.4067, 3.6365999999999996, 3.2785, 3.4102, 3.3468, 3.4097, 3.3630999999999998, 3.4069, 3.4018, 3.411, 3.3468999999999998, 3.375, 3.352, 3.3278000000000003, 3.3617999999999997, 3.3868, 3.35, 3.3944, 3.3333999999999997, 3.3758, 3.4155, 3.3607, 3.4158, 3.3693999999999997, 3.3754000000000004, 3.3829, 3.4742, 3.3967, 3.3621, 3.376, 3.3223, 3.6155, 3.4213999999999998, 3.4175999999999997, 3.3054, 3.3727, 3.3363, 3.4299999999999997, 3.4492, 3.3901, 3.3794, 3.382, 3.3508999999999998, 3.4311, 3.3342, 3.3452, 3.4661, 3.4078, 3.3813, 3.3722000000000003, 3.4318, 3.423, 3.3529, 3.3566, 3.3453, 3.3518, 3.3617999999999997, 3.3699, 3.4834, 3.4045, 3.4149, 3.4076000000000004, 3.3749000000000002, 3.3566, 3.3951, 3.3872, 3.4072, 3.3525, 3.3674, 3.3815, 3.3803, 3.3958999999999997, 3.3752999999999997, 3.4423, 3.3893, 3.3546, 3.368, 3.3385, 3.4363, 3.3726, 3.4342],
  "Depth": 532.0,
  "Expectation Value": -3.4458041191101074,
  "Optimal Expectation Value": -5.0,
  "Optimizer durations [ms]": [34.647, 34.41, 34.438, 34.299, 35.34, 33.905, 34.736, 34.084, 34.032, 34.622, 34.799, 34.7, 34.66, 36.701, 42.415, 34.402, 34.277, 34.394, 34.445, 34.549, 34.619, 34.656, 33.819, 34.557, 33.93, 34.098, 34.082, 34.23, 34.249, 34.229, 34.191, 34.091, 34.78, 34.271, 34.524, 34.521, 34.072, 34.583, 35.394, 34.483, 34.006, 34.358, 33.731, 36.619, 35.332, 34.87, 40.89, 34.315, 41.478, 34.973, 44.565, 34.358, 34.386, 34.28, 34.079, 34.84, 34.309, 34.156, 35.086, 34.42, 34.52, 34.353, 34.886, 34.942, 33.796, 34.474, 33.873, 33.9, 34.287, 34.451, 35.485, 44.31, 34.442, 34.849, 34.47, 34.142, 34.608, 34.415, 35.416, 34.025, 34.195, 34.329, 35.294, 34.635, 34.439, 35.167, 34.169, 34.316, 34.188, 34.066, 34.668, 34.49, 35.01],
  "Optimizer iterations": 93,
  "Optimizer params": [0.5339060316848797, 0.4230867683157873, 0.9990312126604523, 0.45366065006414574, 0.06350427310453116, 0.42075796708065755],
  "P": 3,
  "Problem": "DSP",
  "QJob durations [ms]": [3.3901, 3.3931, 3.3890000000000002, 3.3896, 3.4561, 3.3655, 3.3878, 3.3487999999999998, 3.3736, 3.4160000000000004, 3.387, 3.3884000000000003, 3.4067, 3.6365999999999996, 3.2785, 3.4102, 3.3468, 3.4097, 3.3630999999999998, 3.4069, 3.4018, 3.411, 3.3468999999999998, 3.375, 3.352, 3.3278000000000003, 3.3617999999999997, 3.3868, 3.35, 3.3944, 3.3333999999999997, 3.3758, 3.4155, 3.3607, 3.4158, 3.3693999999999997, 3.3754000000000004, 3.3829, 3.4742, 3.3967, 3.3621, 3.376, 3.3223, 3.6155, 3.4213999999999998, 3.4175999999999997, 3.3054, 3.3727, 3.3363, 3.4299999999999997, 3.4492, 3.3901, 3.3794, 3.382, 3.3508999999999998, 3.4311, 3.3342, 3.3452, 3.4661, 3.4078, 3.3813, 3.3722000000000003, 3.4318, 3.423, 3.3529, 3.3566, 3.3453, 3.3518, 3.3617999999999997, 3.3699, 3.4834, 3.4045, 3.4149, 3.4076000000000004, 3.3749000000000002, 3.3566, 3.3951, 3.3872, 3.4072, 3.3525, 3.3674, 3.3815, 3.3803, 3.3958999999999997, 3.3752999999999997, 3.4423, 3.3893, 3.3546, 3.368, 3.3385, 3.4363, 3.3726, 3.4342],
  "QPU": "7000000",
  "Qubits": 12,
  "Queue durations [ms]": [0.0, 0.0, 0.0, 0.0, 0.0, 0.0, 0.0, 0.0, 0.0, 0.0, 0.0, 0.0, 0.0, 0.0, 0.0, 0.0, 0.0, 0.0, 0.0, 0.0, 0.0, 0.0, 0.0, 0.0, 0.0, 0.0, 0.0, 0.0, 0.0, 0.0, 0.0, 0.0, 0.0, 0.0, 0.0, 0.0, 0.0, 0.0, 0.0, 0.0, 0.0, 0.0, 0.0, 0.0, 0.0, 0.0, 0.0, 0.0, 0.0, 0.0, 0.0, 0.0, 0.0, 0.0, 0.0, 0.0, 0.0, 0.0, 0.0, 0.0, 0.0, 0.0, 0.0, 0.0, 0.0, 0.0, 0.0, 0.0, 0.0, 0.0, 0.0, 0.0, 0.0, 0.0, 0.0, 0.0, 0.0, 0.0, 0.0, 0.0, 0.0, 0.0, 0.0, 0.0, 0.0, 0.0, 0.0, 0.0, 0.0, 0.0, 0.0, 0.0, 0.0],
  "Shots": 4096,
  "Size": 7,
  "Total Algorithm duration [s]": 3.25,
  "Total Classic duration [s]": 2.9347872,
  "Total Quantum duration [s]": 0.3152127999999999
}
