{
  "Circuit execution durations [ms]": [3.4312, 3.3516000000000004, 3.3308999999999997, 3.4207, 3.4786, 3.3623, 3.3662, 3.4049, 3.4425, 3.3722000000000003, 3.3554, 3.4114, 3.3961, 3.4766, 3.4153000000000002, 3.3520999999999996, 3.3556, 3.3922000000000003, 3.4877, 3.297, 3.4534000000000002, 3.3736, 3.3693, 3.4181, 3.3511, 3.3764, 3.369, 3.391, 3.3926999999999996, 3.3771, 3.373, 3.3402000000000003, 3.4343, 3.3755, 3.3830999999999998, 3.3794, 3.4543999999999997, 3.412, 3.3427000000000002, 3.3691, 3.4044000000000003, 3.3834, 3.3676, 3.4321, 3.4164, 3.3581000000000003, 3.4242, 3.4356, 3.3879, 3.3639, 3.3750999999999998, 3.3877, 3.3851, 3.4111, 3.3741000000000003, 3.441, 3.3686, 3.3939999999999997, 3.4218, 3.3996, 3.3935, 3.3874, 3.3705, 3.392, 3.4364999999999997, 3.4022, 3.383, 3.3590999999999998, 3.3447, 3.3555, 3.391, 3.412, 3.4305, 3.4065, 3.3942, 3.379, 3.3804999999999996, 3.4646, 3.4396, 3.3842, 3.3628, 3.4656000000000002, 3.3868, 3.3991, 3.6077000000000004, 3.5515, 3.3482999999999996, 3.3378, 3.3796, 3.4082, 3.3739999999999997, 3.3542, 3.4063000000000003, 3.4393000000000002, 3.3647, 3.392, 3.3808000000000002, 3.366, 3.3787000000000003, 3.356, 3.4129, 3.3779, 3.3935, 3.3636999999999997, 3.4308, 3.3925, 3.4257, 3.4266, 3.4502, 3.3825000000000003, 3.3684000000000003, 3.3674, 3.4042999999999997],
  "Depth": 532.0,
  "Expectation Value": -3.841463327407837,
  "Optimal Expectation Value": -5.0,
  "Optimizer durations [ms]": [34.823, 34.258, 33.857, 34.77, 35.407, 34.104, 34.29, 34.656, 34.775, 34.391, 34.184, 34.384, 34.743, 35.165, 34.782, 34.009, 34.122, 34.356, 45.147, 38.851, 34.866, 34.516, 34.281, 34.647, 34.076, 34.246, 34.304, 34.302, 34.896, 34.158, 34.113, 34.307, 34.893, 34.249, 34.37, 34.517, 35.032, 34.562, 34.227, 33.978, 34.796, 34.4, 34.369, 34.849, 34.617, 34.117, 34.983, 43.943, 34.286, 34.408, 34.347, 34.408, 34.493, 34.594, 34.228, 35.18, 34.385, 34.621, 34.792, 34.466, 34.623, 34.482, 34.36, 34.519, 34.642, 34.758, 34.422, 34.155, 34.068, 34.116, 34.176, 34.922, 34.843, 34.522, 34.603, 34.277, 34.722, 35.188, 35.016, 34.32, 34.395, 35.174, 34.642, 34.704, 41.893, 36.636, 34.871, 33.832, 34.379, 34.553, 34.264, 34.119, 34.454, 34.865, 34.309, 34.468, 34.549, 34.265, 34.07, 34.19, 34.747, 34.328, 34.463, 34.306, 34.865, 43.929, 34.907, 35.022, 35.127, 34.173, 34.492, 34.205, 34.351],
  "Optimizer iterations": 113,
  "Optimizer params": [0.3719439208449197, 0.27675603994931, 0.6728585702049984, 0.06629859503943074, 0.00854870975286172, 0.24649099976485384],
  "P": 3,
  "Problem": "DSP",
  "QJob durations [ms]": [3.4312, 3.3516000000000004, 3.3308999999999997, 3.4207, 3.4786, 3.3623, 3.3662, 3.4049, 3.4425, 3.3722000000000003, 3.3554, 3.4114, 3.3961, 3.4766, 3.4153000000000002, 3.3520999999999996, 3.3556, 3.3922000000000003, 3.4877, 3.297, 3.4534000000000002, 3.3736, 3.3693, 3.4181, 3.3511, 3.3764, 3.369, 3.391, 3.3926999999999996, 3.3771, 3.373, 3.3402000000000003, 3.4343, 3.3755, 3.3830999999999998, 3.3794, 3.4543999999999997, 3.412, 3.3427000000000002, 3.3691, 3.4044000000000003, 3.3834, 3.3676, 3.4321, 3.4164, 3.3581000000000003, 3.4242, 3.4356, 3.3879, 3.3639, 3.3750999999999998, 3.3877, 3.3851, 3.4111, 3.3741000000000003, 3.441, 3.3686, 3.3939999999999997, 3.4218, 3.3996, 3.3935, 3.3874, 3.3705, 3.392, 3.4364999999999997, 3.4022, 3.383, 3.3590999999999998, 3.3447, 3.3555, 3.391, 3.412, 3.4305, 3.4065, 3.3942, 3.379, 3.3804999999999996, 3.4646, 3.4396, 3.3842, 3.3628, 3.4656000000000002, 3.3868, 3.3991, 3.6077000000000004, 3.5515, 3.3482999999999996, 3.3378, 3.3796, 3.4082, 3.3739999999999997, 3.3542, 3.4063000000000003, 3.4393000000000002, 3.3647, 3.392, 3.3808000000000002, 3.366, 3.3787000000000003, 3.356, 3.4129, 3.3779, 3.3935, 3.3636999999999997, 3.4308, 3.3925, 3.4257, 3.4266, 3.4502, 3.3825000000000003, 3.3684000000000003, 3.3674, 3.4042999999999997],
  "QPU": "7000000",
  "Qubits": 12,
  "Queue durations [ms]": [0.0, 0.0, 0.0, 0.0, 0.0, 0.0, 0.0, 0.0, 0.0, 0.0, 0.0, 0.0, 0.0, 0.0, 0.0, 0.0, 0.0, 0.0, 0.0, 0.0, 0.0, 0.0, 0.0, 0.0, 0.0, 0.0, 0.0, 0.0, 0.0, 0.0, 0.0, 0.0, 0.0, 0.0, 0.0, 0.0, 0.0, 0.0, 0.0, 0.0, 0.0, 0.0, 0.0, 0.0, 0.0, 0.0, 0.0, 0.0, 0.0, 0.0, 0.0, 0.0, 0.0, 0.0, 0.0, 0.0, 0.0, 0.0, 0.0, 0.0, 0.0, 0.0, 0.0, 0.0, 0.0, 0.0, 0.0, 0.0, 0.0, 0.0, 0.0, 0.0, 0.0, 0.0, 0.0, 0.0, 0.0, 0.0, 0.0, 0.0, 0.0, 0.0, 0.0, 0.0, 0.0, 0.0, 0.0, 0.0, 0.0, 0.0, 0.0, 0.0, 0.0, 0.0, 0.0, 0.0, 0.0, 0.0, 0.0, 0.0, 0.0, 0.0, 0.0, 0.0, 0.0, 0.0, 0.0, 0.0, 0.0, 0.0, 0.0, 0.0, 0.0],
  "Shots": 4096,
  "Size": 7,
  "Total Algorithm duration [s]": 3.942,
  "Total Classic duration [s]": 3.5582701,
  "Total Quantum duration [s]": 0.38372989999999996
}
