{
  "Circuit execution durations [ms]": [3.4728, 3.3668, 3.3609999999999998, 3.3614, 3.3604, 3.3551, 3.4318999999999997, 3.3906, 3.5672, 3.3776, 3.3653, 3.3764, 3.3652, 3.3949000000000003, 3.3924, 3.3544, 3.3774, 3.3536, 3.3423, 3.4446, 3.4285, 3.3701, 3.3653, 3.3943, 3.4026, 3.3704, 3.3827000000000003, 3.3733999999999997, 3.346, 3.3576, 3.3907999999999996, 3.6258000000000004, 3.3661, 3.4061999999999997, 3.4156, 3.5887, 3.3755, 3.4169, 3.3739999999999997, 3.3892, 3.3564, 3.4865, 3.436, 3.3803, 3.3787000000000003, 3.3819000000000004, 3.371, 3.3648, 3.4053, 3.398, 3.3603, 3.3800000000000003, 3.3343000000000003, 3.3982, 3.3948, 3.4346, 3.5856, 3.7544000000000004, 3.4665999999999997, 3.3731999999999998, 3.3863, 3.4050000000000002, 3.3662, 3.4456, 3.35, 3.3655999999999997, 3.3607, 3.3448, 3.3487, 3.5179, 3.4093, 3.3795, 3.3868, 3.3755, 3.3357, 3.3351, 3.469, 3.3495, 3.3985, 3.3752999999999997, 3.4042, 3.4002, 3.403, 3.366, 3.4751, 3.5546, 3.8717, 3.4050000000000002, 3.4212000000000002, 3.3487999999999998, 3.4199, 3.3630999999999998, 3.3931, 3.4501000000000004, 3.385, 3.3642, 3.3455999999999997, 3.4061, 3.3836999999999997, 3.3834999999999997, 3.3926, 3.3823999999999996, 3.4005, 3.3197, 3.4014, 3.3558, 3.3669, 3.373],
  "Depth": 532.0,
  "Expectation Value": -3.2357017993927,
  "Optimal Expectation Value": -5.0,
  "Optimizer durations [ms]": [35.214, 34.394, 34.377, 34.163, 34.066, 34.215, 34.89, 34.491, 36.127, 34.256, 34.177, 34.367, 34.155, 34.546, 34.402, 34.185, 34.154, 34.087, 34.145, 34.704, 35.134, 33.969, 34.477, 34.201, 34.949, 34.151, 34.466, 34.03, 34.3, 34.084, 34.589, 36.515, 34.397, 34.366, 34.692, 36.506, 43.974, 38.268, 34.537, 34.243, 34.338, 35.208, 35.211, 34.258, 34.298, 34.281, 34.386, 34.402, 34.573, 34.628, 34.025, 34.458, 33.874, 34.614, 34.507, 34.644, 36.476, 39.684, 35.318, 34.184, 34.667, 34.508, 34.18, 34.898, 34.265, 34.282, 34.124, 34.041, 34.135, 35.729, 34.509, 34.167, 34.534, 34.224, 34.072, 34.801, 34.993, 34.125, 34.56, 34.313, 34.466, 34.653, 34.495, 34.285, 35.071, 36.445, 39.282, 34.535, 34.935, 33.982, 34.941, 34.055, 34.493, 34.846, 34.801, 34.152, 33.918, 34.575, 34.461, 34.345, 34.384, 34.402, 34.551, 34.186, 34.348, 34.265, 34.372, 34.142],
  "Optimizer iterations": 108,
  "Optimizer params": [0.8883995826217732, 0.8211444329882484, 0.4184427111444876, 0.7118861720669278, 0.9607052154539545, 0.82039955377539],
  "P": 3,
  "Problem": "DSP",
  "QJob durations [ms]": [3.4728, 3.3668, 3.3609999999999998, 3.3614, 3.3604, 3.3551, 3.4318999999999997, 3.3906, 3.5672, 3.3776, 3.3653, 3.3764, 3.3652, 3.3949000000000003, 3.3924, 3.3544, 3.3774, 3.3536, 3.3423, 3.4446, 3.4285, 3.3701, 3.3653, 3.3943, 3.4026, 3.3704, 3.3827000000000003, 3.3733999999999997, 3.346, 3.3576, 3.3907999999999996, 3.6258000000000004, 3.3661, 3.4061999999999997, 3.4156, 3.5887, 3.3755, 3.4169, 3.3739999999999997, 3.3892, 3.3564, 3.4865, 3.436, 3.3803, 3.3787000000000003, 3.3819000000000004, 3.371, 3.3648, 3.4053, 3.398, 3.3603, 3.3800000000000003, 3.3343000000000003, 3.3982, 3.3948, 3.4346, 3.5856, 3.7544000000000004, 3.4665999999999997, 3.3731999999999998, 3.3863, 3.4050000000000002, 3.3662, 3.4456, 3.35, 3.3655999999999997, 3.3607, 3.3448, 3.3487, 3.5179, 3.4093, 3.3795, 3.3868, 3.3755, 3.3357, 3.3351, 3.469, 3.3495, 3.3985, 3.3752999999999997, 3.4042, 3.4002, 3.403, 3.366, 3.4751, 3.5546, 3.8717, 3.4050000000000002, 3.4212000000000002, 3.3487999999999998, 3.4199, 3.3630999999999998, 3.3931, 3.4501000000000004, 3.385, 3.3642, 3.3455999999999997, 3.4061, 3.3836999999999997, 3.3834999999999997, 3.3926, 3.3823999999999996, 3.4005, 3.3197, 3.4014, 3.3558, 3.3669, 3.373],
  "QPU": "7000000",
  "Qubits": 12,
  "Queue durations [ms]": [0.0, 0.0, 0.0, 0.0, 0.0, 0.0, 0.0, 0.0, 0.0, 0.0, 0.0, 0.0, 0.0, 0.0, 0.0, 0.0, 0.0, 0.0, 0.0, 0.0, 0.0, 0.0, 0.0, 0.0, 0.0, 0.0, 0.0, 0.0, 0.0, 0.0, 0.0, 0.0, 0.0, 0.0, 0.0, 0.0, 0.0, 0.0, 0.0, 0.0, 0.0, 0.0, 0.0, 0.0, 0.0, 0.0, 0.0, 0.0, 0.0, 0.0, 0.0, 0.0, 0.0, 0.0, 0.0, 0.0, 0.0, 0.0, 0.0, 0.0, 0.0, 0.0, 0.0, 0.0, 0.0, 0.0, 0.0, 0.0, 0.0, 0.0, 0.0, 0.0, 0.0, 0.0, 0.0, 0.0, 0.0, 0.0, 0.0, 0.0, 0.0, 0.0, 0.0, 0.0, 0.0, 0.0, 0.0, 0.0, 0.0, 0.0, 0.0, 0.0, 0.0, 0.0, 0.0, 0.0, 0.0, 0.0, 0.0, 0.0, 0.0, 0.0, 0.0, 0.0, 0.0, 0.0, 0.0, 0.0],
  "Shots": 4096,
  "Size": 7,
  "Total Algorithm duration [s]": 3.752,
  "Total Classic duration [s]": 3.3843666999999997,
  "Total Quantum duration [s]": 0.3676332999999999
}
