{
  "Circuit execution durations [ms]": [102.14495658874512, 102.26011276245117, 102.03146934509277, 101.69148445129395, 102.2646427154541, 102.52022743225098, 171.3261604309082, 101.85360908508301, 102.43988037109375, 102.25296020507813, 102.32782363891602, 102.23698616027832, 101.7458438873291, 101.84121131896973, 170.99761962890625, 102.55098342895508, 101.83525085449219, 101.9136905670166, 102.29277610778809, 101.64451599121094, 102.03766822814941, 102.09798812866211, 101.74298286437988, 171.88787460327148, 101.92203521728516, 102.12016105651855, 102.33306884765625, 101.95231437683105, 101.50337219238281, 102.35953330993652, 102.29921340942383, 101.73797607421875, 170.03846168518066, 102.04839706420898, 102.13303565979004, 102.01549530029297, 101.99809074401855, 102.03886032104492, 102.55002975463867, 102.16069221496582, 102.09274291992188, 170.335054397583, 102.19120979309082, 102.60653495788574, 102.66661643981934, 102.05435752868652, 101.80401802062988, 101.98521614074707, 102.05507278442383, 101.81045532226563, 170.57204246520996, 102.30541229248047, 102.06842422485352, 103.87635231018066, 102.10084915161133, 102.05960273742676, 102.3554801940918, 102.79226303100586, 101.7141342163086, 170.26519775390625, 102.40721702575684, 102.34689712524414, 102.16450691223145, 101.64475440979004, 101.64713859558105, 102.04887390136719, 102.45037078857422, 101.75037384033203, 170.4113483428955, 102.28753089904785, 102.3106575012207, 102.13923454284668, 102.11682319641113, 102.02908515930176, 102.59413719177246, 102.05197334289551, 102.48661041259766, 170.34149169921875, 101.93920135498047, 102.49114036560059, 102.23865509033203, 101.70269012451172, 101.73296928405762, 103.73163223266602, 102.65088081359863, 101.94873809814453, 170.05348205566406, 102.20170021057129, 101.8364429473877, 102.39720344543457, 101.87697410583496, 101.79948806762695, 102.32877731323242, 102.16283798217773, 101.37605667114258, 170.44758796691895],
  "Depth": 458.0,
  "Expectation Value": -1.966796875,
  "Optimal Expectation Value": -2.0,
  "Optimizer durations [ms]": [127.379, 127.331, 126.979, 126.445, 127.177, 127.618, 196.678, 127.175, 127.855, 127.395, 127.363, 127.238, 126.768, 127.126, 196.665, 127.753, 127.079, 126.943, 127.215, 127.065, 127.23, 127.37, 127.471, 197.243, 126.82, 126.707, 126.984, 127.048, 126.781, 127.91, 127.77, 127.366, 195.41, 126.76, 127.059, 126.881, 126.999, 127.617, 128.442, 127.513, 127.567, 195.665, 127.467, 127.61, 127.911, 127.203, 127.173, 126.971, 127.051, 127.079, 195.618, 127.415, 127.392, 129.094, 126.961, 127.422, 127.468, 127.887, 126.839, 195.869, 127.588, 127.57, 126.995, 126.471, 126.809, 127.204, 127.91, 127.493, 195.951, 127.333, 127.079, 126.807, 127.02, 127.23, 128.11, 127.493, 127.884, 195.428, 126.851, 127.285, 127.013, 127.068, 127.32, 128.935, 127.757, 127.29, 195.197, 127.173, 126.725, 127.479, 126.847, 126.992, 127.367, 127.192, 126.708, 195.829],
  "Optimizer iterations": 96,
  "Optimizer params": [0.6324680705803436, 0.22951777435895912, 0.9456878250020458, 0.1609358809510515, 0.9907762173062871, 0.9533929597582651],
  "P": 3,
  "Problem": "MIS",
  "QJob durations [ms]": [102.14495658874512, 102.26011276245117, 102.03146934509277, 101.69148445129395, 102.2646427154541, 102.52022743225098, 171.3261604309082, 101.85360908508301, 102.43988037109375, 102.25296020507813, 102.32782363891602, 102.23698616027832, 101.7458438873291, 101.84121131896973, 170.99761962890625, 102.55098342895508, 101.83525085449219, 101.9136905670166, 102.29277610778809, 101.64451599121094, 102.03766822814941, 102.09798812866211, 101.74298286437988, 171.88787460327148, 101.92203521728516, 102.12016105651855, 102.33306884765625, 101.95231437683105, 101.50337219238281, 102.35953330993652, 102.29921340942383, 101.73797607421875, 170.03846168518066, 102.04839706420898, 102.13303565979004, 102.01549530029297, 101.99809074401855, 102.03886032104492, 102.55002975463867, 102.16069221496582, 102.09274291992188, 170.335054397583, 102.19120979309082, 102.60653495788574, 102.66661643981934, 102.05435752868652, 101.80401802062988, 101.98521614074707, 102.05507278442383, 101.81045532226563, 170.57204246520996, 102.30541229248047, 102.06842422485352, 103.87635231018066, 102.10084915161133, 102.05960273742676, 102.3554801940918, 102.79226303100586, 101.7141342163086, 170.26519775390625, 102.40721702575684, 102.34689712524414, 102.16450691223145, 101.64475440979004, 101.64713859558105, 102.04887390136719, 102.45037078857422, 101.75037384033203, 170.4113483428955, 102.28753089904785, 102.3106575012207, 102.13923454284668, 102.11682319641113, 102.02908515930176, 102.59413719177246, 102.05197334289551, 102.48661041259766, 170.34149169921875, 101.93920135498047, 102.49114036560059, 102.23865509033203, 101.70269012451172, 101.73296928405762, 103.73163223266602, 102.65088081359863, 101.94873809814453, 170.05348205566406, 102.20170021057129, 101.8364429473877, 102.39720344543457, 101.87697410583496, 101.79948806762695, 102.32877731323242, 102.16283798217773, 101.37605667114258, 170.44758796691895],
  "QPU": "9000001",
  "Qubits": 11,
  "Queue durations [ms]": [0.0, 0.0, 0.0, 0.0, 0.0, 0.0, 0.0, 0.0, 0.0, 0.0, 0.0, 0.0, 0.0, 0.0, 0.0, 0.0, 0.0, 0.0, 0.0, 0.0, 0.0, 0.0, 0.0, 0.0, 0.0, 0.0, 0.0, 0.0, 0.0, 0.0, 0.0, 0.0, 0.0, 0.0, 0.0, 0.0, 0.0, 0.0, 0.0, 0.0, 0.0, 0.0, 0.0, 0.0, 0.0, 0.0, 0.0, 0.0, 0.0, 0.0, 0.0, 0.0, 0.0, 0.0, 0.0, 0.0, 0.0, 0.0, 0.0, 0.0, 0.0, 0.0, 0.0, 0.0, 0.0, 0.0, 0.0, 0.0, 0.0, 0.0, 0.0, 0.0, 0.0, 0.0, 0.0, 0.0, 0.0, 0.0, 0.0, 0.0, 0.0, 0.0, 0.0, 0.0, 0.0, 0.0, 0.0, 0.0, 0.0, 0.0, 0.0, 0.0, 0.0, 0.0, 0.0, 0.0],
  "Shots": 4096,
  "Size": 8,
  "Total Algorithm duration [s]": 12.975,
  "Total Classic duration [s]": 2.415994024276733,
  "Total Quantum duration [s]": 10.559005975723267
}
