{
  "Circuit execution durations [ms]": [104.69722747802734, 174.90434646606445, 102.19049453735352, 102.14662551879883, 102.02312469482422, 102.22315788269043, 103.00970077514648, 102.07200050354004, 102.35285758972168, 103.56545448303223, 170.21679878234863, 103.00040245056152, 102.68211364746094, 102.06031799316406, 103.14726829528809, 102.69021987915039, 102.61845588684082, 102.17165946960449, 170.2902317047119, 102.62703895568848, 102.57172584533691, 102.67806053161621, 102.25105285644531, 103.31058502197266, 102.7989387512207, 102.2641658782959, 170.8235740661621, 102.94795036315918, 102.61321067810059, 102.15187072753906, 103.86514663696289, 102.13232040405273, 102.7524471282959, 102.80203819274902, 101.89199447631836, 170.70245742797852, 102.66757011413574, 102.62894630432129, 102.48446464538574, 102.31709480285645, 102.56004333496094, 102.6308536529541, 102.4777889251709, 102.57673263549805, 170.83334922790527, 102.09274291992188, 102.52594947814941, 102.51641273498535, 102.61964797973633, 102.42557525634766, 102.9508113861084, 102.52594947814941, 102.81896591186523, 170.50719261169434, 102.10824012756348, 102.22291946411133, 102.44917869567871, 102.59032249450684, 102.55193710327148, 102.58674621582031, 103.67226600646973, 102.88381576538086, 170.8199977874756, 103.05166244506836, 102.19502449035645, 102.22935676574707, 102.91886329650879, 102.14376449584961, 102.57458686828613, 102.66613960266113, 102.24270820617676, 170.8085536956787, 102.58197784423828, 102.64730453491211, 102.32281684875488, 102.30493545532227, 101.99213027954102, 102.36358642578125, 102.39243507385254, 102.36620903015137, 170.2578067779541, 102.6153564453125, 101.79352760314941, 102.67400741577148, 102.87857055664063, 102.33163833618164, 102.60677337646484],
  "Depth": 458.0,
  "Expectation Value": -1.989990234375,
  "Optimal Expectation Value": -2.0,
  "Optimizer durations [ms]": [131.206, 200.77, 127.072, 126.782, 126.735, 127.529, 127.938, 126.851, 127.324, 128.394, 195.073, 128.131, 127.413, 126.915, 128.079, 127.339, 127.3, 127.155, 195.064, 127.291, 127.491, 127.41, 126.98, 128.589, 127.568, 127.086, 195.946, 127.851, 127.462, 127.054, 128.661, 126.868, 127.635, 127.597, 126.487, 195.933, 127.667, 127.3, 127.231, 127.218, 127.503, 127.531, 127.289, 127.498, 196.1, 127.014, 127.3, 127.402, 127.356, 127.166, 128.17, 127.536, 127.701, 195.852, 126.894, 126.833, 127.045, 127.335, 127.396, 127.484, 128.476, 127.773, 195.842, 128.014, 126.84, 126.88, 127.909, 127.042, 127.669, 127.638, 127.235, 195.845, 127.595, 127.462, 127.166, 127.364, 127.064, 127.364, 127.125, 127.095, 195.135, 127.515, 126.552, 127.409, 127.652, 127.049, 127.467],
  "Optimizer iterations": 87,
  "Optimizer params": [0.9969822875296153, 0.9810623873162727, 0.12688820695118383, 0.8178955203127464, 0.36891594589513704, 0.14517316366533997],
  "P": 3,
  "Problem": "MIS",
  "QJob durations [ms]": [104.69722747802734, 174.90434646606445, 102.19049453735352, 102.14662551879883, 102.02312469482422, 102.22315788269043, 103.00970077514648, 102.07200050354004, 102.35285758972168, 103.56545448303223, 170.21679878234863, 103.00040245056152, 102.68211364746094, 102.06031799316406, 103.14726829528809, 102.69021987915039, 102.61845588684082, 102.17165946960449, 170.2902317047119, 102.62703895568848, 102.57172584533691, 102.67806053161621, 102.25105285644531, 103.31058502197266, 102.7989387512207, 102.2641658782959, 170.8235740661621, 102.94795036315918, 102.61321067810059, 102.15187072753906, 103.86514663696289, 102.13232040405273, 102.7524471282959, 102.80203819274902, 101.89199447631836, 170.70245742797852, 102.66757011413574, 102.62894630432129, 102.48446464538574, 102.31709480285645, 102.56004333496094, 102.6308536529541, 102.4777889251709, 102.57673263549805, 170.83334922790527, 102.09274291992188, 102.52594947814941, 102.51641273498535, 102.61964797973633, 102.42557525634766, 102.9508113861084, 102.52594947814941, 102.81896591186523, 170.50719261169434, 102.10824012756348, 102.22291946411133, 102.44917869567871, 102.59032249450684, 102.55193710327148, 102.58674621582031, 103.67226600646973, 102.88381576538086, 170.8199977874756, 103.05166244506836, 102.19502449035645, 102.22935676574707, 102.91886329650879, 102.14376449584961, 102.57458686828613, 102.66613960266113, 102.24270820617676, 170.8085536956787, 102.58197784423828, 102.64730453491211, 102.32281684875488, 102.30493545532227, 101.99213027954102, 102.36358642578125, 102.39243507385254, 102.36620903015137, 170.2578067779541, 102.6153564453125, 101.79352760314941, 102.67400741577148, 102.87857055664063, 102.33163833618164, 102.60677337646484],
  "QPU": "9000001",
  "Qubits": 11,
  "Queue durations [ms]": [0.0, 0.0, 0.0, 0.0, 0.0, 0.0, 0.0, 0.0, 0.0, 0.0, 0.0, 0.0, 0.0, 0.0, 0.0, 0.0, 0.0, 0.0, 0.0, 0.0, 0.0, 0.0, 0.0, 0.0, 0.0, 0.0, 0.0, 0.0, 0.0, 0.0, 0.0, 0.0, 0.0, 0.0, 0.0, 0.0, 0.0, 0.0, 0.0, 0.0, 0.0, 0.0, 0.0, 0.0, 0.0, 0.0, 0.0, 0.0, 0.0, 0.0, 0.0, 0.0, 0.0, 0.0, 0.0, 0.0, 0.0, 0.0, 0.0, 0.0, 0.0, 0.0, 0.0, 0.0, 0.0, 0.0, 0.0, 0.0, 0.0, 0.0, 0.0, 0.0, 0.0, 0.0, 0.0, 0.0, 0.0, 0.0, 0.0, 0.0, 0.0, 0.0, 0.0, 0.0, 0.0, 0.0, 0.0],
  "Shots": 4096,
  "Size": 8,
  "Total Algorithm duration [s]": 11.775,
  "Total Classic duration [s]": 2.1667477130889896,
  "Total Quantum duration [s]": 9.60825228691101
}
