{
  "Circuit execution durations [ms]": [1.8332000000000002, 1.8203, 1.8345, 1.8128, 1.7956, 1.8072, 1.7909, 1.818, 1.8074000000000001, 1.7937, 1.8217, 1.8161, 1.8054, 1.8139, 1.8320999999999998, 1.7838, 1.8078, 1.8239, 1.825, 1.8043, 1.8036, 1.8174000000000001, 2.095, 1.7989, 1.8342, 1.8059, 1.8128, 1.8803999999999998, 1.8296000000000001, 1.8258, 1.8064, 1.8187, 1.8399, 1.868, 2.059, 1.7863, 1.8287, 1.7987000000000002, 1.7984, 1.8112, 1.7895, 1.8008, 1.8059, 1.8052000000000001, 1.8148000000000002, 1.8391, 1.8389, 1.8092, 1.8178999999999998, 1.8124, 1.8271, 1.8094999999999999, 1.8119, 1.8205, 1.8063, 1.8245, 1.8293000000000001, 1.8001, 1.8594, 1.8017, 1.8211, 1.8319, 1.8048, 1.8109, 1.8087000000000002, 1.807, 1.8107, 1.811, 1.7914999999999999, 1.7982, 1.7885, 2.0652, 1.8553, 1.7792999999999999, 1.8003],
  "Depth": 287.0,
  "Expectation Value": -1.0,
  "Optimal Expectation Value": -1.0,
  "Optimizer durations [ms]": [18.826, 18.922, 18.537, 18.882, 18.606, 18.452, 18.486, 18.65, 18.629, 18.108, 18.679, 18.576, 18.693, 18.533, 18.824, 18.263, 18.604, 18.822, 18.908, 18.955, 18.536, 19.211, 21.397, 18.59, 18.804, 18.368, 25.002, 19.398, 18.761, 18.758, 22.119, 18.537, 19.101, 28.841, 24.041, 18.503, 18.729, 18.592, 18.715, 18.482, 18.576, 18.244, 18.616, 18.754, 18.444, 19.55, 18.772, 18.942, 18.534, 18.784, 18.767, 18.352, 18.85, 18.666, 18.546, 18.739, 18.811, 18.461, 19.275, 18.487, 18.506, 18.867, 18.524, 18.753, 18.606, 18.557, 18.317, 19.231, 18.371, 18.392, 18.572, 21.108, 28.668, 19.261, 18.441],
  "Optimizer iterations": 75,
  "Optimizer params": [0.5977991267331729, 0.08792986244130041, 0.8539177406522196, 0.7677805454413458, 0.5723186289105174, 0.2820240307571103],
  "P": 3,
  "Problem": "MIS",
  "QJob durations [ms]": [1.8332000000000002, 1.8203, 1.8345, 1.8128, 1.7956, 1.8072, 1.7909, 1.818, 1.8074000000000001, 1.7937, 1.8217, 1.8161, 1.8054, 1.8139, 1.8320999999999998, 1.7838, 1.8078, 1.8239, 1.825, 1.8043, 1.8036, 1.8174000000000001, 2.095, 1.7989, 1.8342, 1.8059, 1.8128, 1.8803999999999998, 1.8296000000000001, 1.8258, 1.8064, 1.8187, 1.8399, 1.868, 2.059, 1.7863, 1.8287, 1.7987000000000002, 1.7984, 1.8112, 1.7895, 1.8008, 1.8059, 1.8052000000000001, 1.8148000000000002, 1.8391, 1.8389, 1.8092, 1.8178999999999998, 1.8124, 1.8271, 1.8094999999999999, 1.8119, 1.8205, 1.8063, 1.8245, 1.8293000000000001, 1.8001, 1.8594, 1.8017, 1.8211, 1.8319, 1.8048, 1.8109, 1.8087000000000002, 1.807, 1.8107, 1.811, 1.7914999999999999, 1.7982, 1.7885, 2.0652, 1.8553, 1.7792999999999999, 1.8003],
  "QPU": "7000000",
  "Qubits": 8,
  "Queue durations [ms]": [0.0, 0.0, 0.0, 0.0, 0.0, 0.0, 0.0, 0.0, 0.0, 0.0, 0.0, 0.0, 0.0, 0.0, 0.0, 0.0, 0.0, 0.0, 0.0, 0.0, 0.0, 0.0, 0.0, 0.0, 0.0, 0.0, 0.0, 0.0, 0.0, 0.0, 0.0, 0.0, 0.0, 0.0, 0.0, 0.0, 0.0, 0.0, 0.0, 0.0, 0.0, 0.0, 0.0, 0.0, 0.0, 0.0, 0.0, 0.0, 0.0, 0.0, 0.0, 0.0, 0.0, 0.0, 0.0, 0.0, 0.0, 0.0, 0.0, 0.0, 0.0, 0.0, 0.0, 0.0, 0.0, 0.0, 0.0, 0.0, 0.0, 0.0, 0.0, 0.0, 0.0, 0.0, 0.0],
  "Shots": 4096,
  "Size": 5,
  "Total Algorithm duration [s]": 1.441,
  "Total Classic duration [s]": 1.3041251,
  "Total Quantum duration [s]": 0.13687489999999997
}
