{
  "Circuit execution durations [ms]": [1.8664, 1.7851, 1.8034999999999999, 1.8369, 1.8258, 1.817, 1.8427, 1.7953000000000001, 1.831, 1.8225, 1.7923, 1.7963, 1.8285, 1.8281, 1.7959, 1.8137999999999999, 1.8188, 1.8073, 1.7872000000000001, 1.7851, 1.8216, 1.7963, 1.8068, 1.7939, 1.8178, 1.7972000000000001, 1.7871, 1.7848, 1.811, 1.7998999999999998, 1.8034, 1.8028, 1.8205, 1.7809, 1.7943, 1.9657, 1.8951, 1.7915999999999999, 1.8312000000000002, 1.8185, 1.7733, 1.7766, 1.8033000000000001, 1.7885, 1.8186, 1.7943, 1.8151000000000002, 1.8568, 1.7998, 1.8214, 1.7692, 1.8085, 2.1619, 1.7775, 1.7862, 1.8124, 1.8374000000000001, 1.8084, 1.8168, 1.8093, 1.8246, 1.8097, 1.7852000000000001, 1.7998999999999998, 1.7881, 1.8238, 1.8469, 1.7930000000000001, 1.8039, 1.8044, 1.8168, 1.7943, 1.8166, 1.8056, 1.83, 1.8117, 1.7997, 1.7876, 1.8049, 1.8166, 1.8041, 1.8102, 1.8167, 1.8275, 1.8222],
  "Depth": 287.0,
  "Expectation Value": -1.0,
  "Optimal Expectation Value": -1.0,
  "Optimizer durations [ms]": [19.055, 18.703, 18.431, 19.014, 18.701, 18.518, 18.954, 18.274, 18.781, 18.705, 18.477, 18.34, 18.884, 18.813, 18.357, 18.665, 18.545, 18.676, 18.464, 18.31, 18.725, 18.411, 18.659, 18.523, 18.541, 18.665, 18.372, 18.309, 18.522, 18.686, 18.523, 18.271, 18.897, 18.049, 18.756, 25.031, 19.254, 18.805, 18.931, 18.554, 18.194, 18.405, 18.502, 18.631, 18.609, 18.472, 18.742, 18.909, 18.374, 18.596, 18.198, 18.966, 22.005, 18.217, 18.443, 18.652, 18.821, 18.542, 18.705, 18.527, 18.859, 18.619, 18.234, 18.453, 18.502, 18.648, 19.013, 18.354, 18.677, 18.387, 18.957, 18.502, 18.497, 18.601, 18.957, 18.736, 18.434, 18.418, 18.361, 18.828, 18.568, 18.646, 18.761, 18.713, 18.857],
  "Optimizer iterations": 85,
  "Optimizer params": [0.9042083718517577, 0.27157371868674535, 0.055193119736565675, 0.5456042201717043, 0.21738565729962167, 0.4640467957067965],
  "P": 3,
  "Problem": "MIS",
  "QJob durations [ms]": [1.8664, 1.7851, 1.8034999999999999, 1.8369, 1.8258, 1.817, 1.8427, 1.7953000000000001, 1.831, 1.8225, 1.7923, 1.7963, 1.8285, 1.8281, 1.7959, 1.8137999999999999, 1.8188, 1.8073, 1.7872000000000001, 1.7851, 1.8216, 1.7963, 1.8068, 1.7939, 1.8178, 1.7972000000000001, 1.7871, 1.7848, 1.811, 1.7998999999999998, 1.8034, 1.8028, 1.8205, 1.7809, 1.7943, 1.9657, 1.8951, 1.7915999999999999, 1.8312000000000002, 1.8185, 1.7733, 1.7766, 1.8033000000000001, 1.7885, 1.8186, 1.7943, 1.8151000000000002, 1.8568, 1.7998, 1.8214, 1.7692, 1.8085, 2.1619, 1.7775, 1.7862, 1.8124, 1.8374000000000001, 1.8084, 1.8168, 1.8093, 1.8246, 1.8097, 1.7852000000000001, 1.7998999999999998, 1.7881, 1.8238, 1.8469, 1.7930000000000001, 1.8039, 1.8044, 1.8168, 1.7943, 1.8166, 1.8056, 1.83, 1.8117, 1.7997, 1.7876, 1.8049, 1.8166, 1.8041, 1.8102, 1.8167, 1.8275, 1.8222],
  "QPU": "7000000",
  "Qubits": 8,
  "Queue durations [ms]": [0.0, 0.0, 0.0, 0.0, 0.0, 0.0, 0.0, 0.0, 0.0, 0.0, 0.0, 0.0, 0.0, 0.0, 0.0, 0.0, 0.0, 0.0, 0.0, 0.0, 0.0, 0.0, 0.0, 0.0, 0.0, 0.0, 0.0, 0.0, 0.0, 0.0, 0.0, 0.0, 0.0, 0.0, 0.0, 0.0, 0.0, 0.0, 0.0, 0.0, 0.0, 0.0, 0.0, 0.0, 0.0, 0.0, 0.0, 0.0, 0.0, 0.0, 0.0, 0.0, 0.0, 0.0, 0.0, 0.0, 0.0, 0.0, 0.0, 0.0, 0.0, 0.0, 0.0, 0.0, 0.0, 0.0, 0.0, 0.0, 0.0, 0.0, 0.0, 0.0, 0.0, 0.0, 0.0, 0.0, 0.0, 0.0, 0.0, 0.0, 0.0, 0.0, 0.0, 0.0, 0.0],
  "Shots": 4096,
  "Size": 5,
  "Total Algorithm duration [s]": 1.591,
  "Total Classic duration [s]": 1.4367208,
  "Total Quantum duration [s]": 0.15427920000000003
}
