{
  "Circuit execution durations [ms]": [1.8083, 1.9142000000000001, 1.9036000000000002, 1.7512999999999999, 1.9302, 1.8079999999999998, 1.8544, 1.873, 2.0244999999999997, 1.7984, 1.8101, 1.8063, 1.7904, 1.8077, 1.8603, 1.8143, 1.8235000000000001, 1.8143, 1.8128, 1.8344, 1.8064, 1.9127, 1.8121, 1.8371, 1.8194000000000001, 1.7815, 1.8136, 1.8069, 1.838, 1.8228, 1.8326, 1.83, 1.8682, 1.7887, 1.7867, 1.8428, 1.8143, 1.785, 1.8226, 1.8017, 1.7765000000000002, 1.8010000000000002, 1.778, 1.7922, 1.8089, 1.9469999999999998, 1.8552, 1.807, 1.8281, 1.8002, 1.8155000000000001, 1.8186, 1.7849000000000002, 1.812, 1.8087000000000002, 1.7776, 1.7973999999999999, 1.8169, 1.7927, 1.8016, 1.8044, 1.8245, 1.802, 1.8174000000000001, 1.8536, 1.8434, 1.8336999999999999, 1.8175000000000001, 1.8145, 1.7853999999999999, 1.8448, 1.8291, 1.8046, 1.8253, 1.8423999999999998, 1.8117999999999999, 1.8317999999999999, 1.7839, 1.8248, 1.8195, 1.7956, 1.817, 1.8258, 1.7934999999999999, 1.8018999999999998, 1.8345, 1.8282, 1.7928, 1.7992, 1.8439, 1.8191, 1.8333, 1.8599],
  "Depth": 287.0,
  "Expectation Value": -1.0,
  "Optimal Expectation Value": -1.0,
  "Optimizer durations [ms]": [18.621, 19.735, 19.429, 27.508, 19.845, 19.237, 18.961, 28.69, 20.995, 18.479, 18.593, 18.859, 18.212, 18.476, 19.142, 18.916, 18.668, 18.38, 18.639, 18.743, 18.639, 19.722, 18.329, 19.088, 18.668, 18.056, 18.902, 18.548, 18.781, 18.522, 18.804, 19.029, 18.909, 18.743, 18.043, 19.022, 18.569, 18.441, 18.565, 18.576, 18.223, 18.526, 18.407, 18.301, 18.755, 20.776, 26.734, 18.64, 18.716, 18.829, 18.7, 18.424, 18.539, 18.521, 18.664, 18.592, 18.172, 18.713, 18.624, 18.406, 18.596, 18.698, 21.168, 18.401, 19.099, 19.026, 18.867, 18.565, 18.611, 18.239, 19.293, 18.92, 18.285, 18.693, 18.873, 18.618, 18.97, 18.058, 18.925, 18.734, 18.304, 18.74, 18.64, 18.643, 18.434, 18.961, 18.679, 18.445, 18.499, 18.931, 18.677, 18.749, 19.05],
  "Optimizer iterations": 93,
  "Optimizer params": [0.0, 0.27631225236298335, 0.10379414615698764, 0.18673548115242974, 1.0, 1.0],
  "P": 3,
  "Problem": "MIS",
  "QJob durations [ms]": [1.8083, 1.9142000000000001, 1.9036000000000002, 1.7512999999999999, 1.9302, 1.8079999999999998, 1.8544, 1.873, 2.0244999999999997, 1.7984, 1.8101, 1.8063, 1.7904, 1.8077, 1.8603, 1.8143, 1.8235000000000001, 1.8143, 1.8128, 1.8344, 1.8064, 1.9127, 1.8121, 1.8371, 1.8194000000000001, 1.7815, 1.8136, 1.8069, 1.838, 1.8228, 1.8326, 1.83, 1.8682, 1.7887, 1.7867, 1.8428, 1.8143, 1.785, 1.8226, 1.8017, 1.7765000000000002, 1.8010000000000002, 1.778, 1.7922, 1.8089, 1.9469999999999998, 1.8552, 1.807, 1.8281, 1.8002, 1.8155000000000001, 1.8186, 1.7849000000000002, 1.812, 1.8087000000000002, 1.7776, 1.7973999999999999, 1.8169, 1.7927, 1.8016, 1.8044, 1.8245, 1.802, 1.8174000000000001, 1.8536, 1.8434, 1.8336999999999999, 1.8175000000000001, 1.8145, 1.7853999999999999, 1.8448, 1.8291, 1.8046, 1.8253, 1.8423999999999998, 1.8117999999999999, 1.8317999999999999, 1.7839, 1.8248, 1.8195, 1.7956, 1.817, 1.8258, 1.7934999999999999, 1.8018999999999998, 1.8345, 1.8282, 1.7928, 1.7992, 1.8439, 1.8191, 1.8333, 1.8599],
  "QPU": "7000000",
  "Qubits": 8,
  "Queue durations [ms]": [0.0, 0.0, 0.0, 0.0, 0.0, 0.0, 0.0, 0.0, 0.0, 0.0, 0.0, 0.0, 0.0, 0.0, 0.0, 0.0, 0.0, 0.0, 0.0, 0.0, 0.0, 0.0, 0.0, 0.0, 0.0, 0.0, 0.0, 0.0, 0.0, 0.0, 0.0, 0.0, 0.0, 0.0, 0.0, 0.0, 0.0, 0.0, 0.0, 0.0, 0.0, 0.0, 0.0, 0.0, 0.0, 0.0, 0.0, 0.0, 0.0, 0.0, 0.0, 0.0, 0.0, 0.0, 0.0, 0.0, 0.0, 0.0, 0.0, 0.0, 0.0, 0.0, 0.0, 0.0, 0.0, 0.0, 0.0, 0.0, 0.0, 0.0, 0.0, 0.0, 0.0, 0.0, 0.0, 0.0, 0.0, 0.0, 0.0, 0.0, 0.0, 0.0, 0.0, 0.0, 0.0, 0.0, 0.0, 0.0, 0.0, 0.0, 0.0, 0.0, 0.0],
  "Shots": 4096,
  "Size": 5,
  "Total Algorithm duration [s]": 1.772,
  "Total Classic duration [s]": 1.6024578,
  "Total Quantum duration [s]": 0.16954219999999998
}
