{
  "Circuit execution durations [ms]": [1.8236999999999999, 1.8021, 1.863, 1.8190000000000002, 1.825, 1.8077, 1.8283, 1.7978, 1.8333, 1.818, 1.7879, 1.7658, 1.8304, 1.8175000000000001, 1.8132000000000001, 1.7965, 1.8353, 1.8283, 1.8147, 1.7995, 1.8233, 1.8129000000000002, 1.8171000000000002, 1.8526, 1.8139, 1.8004, 1.8190000000000002, 1.7899, 1.8263, 1.7856, 1.7946, 1.8188, 1.7975, 1.7885, 1.8037999999999998, 1.8741999999999999, 1.7946, 1.9249, 1.9524, 2.0402, 1.8174000000000001, 1.8216, 1.8274000000000001, 1.7933000000000001, 1.8091, 1.8166, 1.8164, 1.8028, 1.8357, 1.8214, 1.8165, 1.7921, 1.8243999999999998, 1.8052000000000001, 1.9249, 1.8500999999999999, 1.8348, 1.81, 1.7924, 1.813, 1.7969, 1.8182999999999998, 1.8056999999999999, 1.8089, 1.8098, 1.8024, 1.8334, 1.8688, 1.7934999999999999, 1.7971000000000001, 1.7905, 1.8281, 1.8293000000000001, 1.7969, 1.8253, 1.8129000000000002, 1.7982, 1.8008, 1.8175999999999999, 1.7805, 1.802, 1.8041, 1.8137999999999999, 1.7955],
  "Depth": 287.0,
  "Expectation Value": -1.0,
  "Optimal Expectation Value": -1.0,
  "Optimizer durations [ms]": [18.715, 19.296, 19.358, 18.677, 18.661, 18.749, 18.522, 18.536, 18.883, 18.651, 18.442, 18.329, 18.674, 18.747, 18.523, 18.386, 18.941, 18.847, 18.418, 18.744, 18.536, 18.782, 18.719, 19.0, 18.467, 18.786, 18.516, 18.577, 18.863, 18.062, 18.57, 18.748, 18.514, 18.345, 18.46, 19.526, 18.308, 19.671, 22.691, 23.168, 18.532, 18.783, 18.488, 18.777, 18.326, 18.989, 18.452, 18.715, 18.879, 18.806, 18.675, 18.425, 18.792, 18.495, 19.888, 18.913, 18.944, 18.557, 18.353, 18.72, 18.271, 18.673, 18.633, 18.381, 18.678, 18.492, 18.844, 19.416, 18.69, 18.457, 18.309, 18.643, 18.894, 18.565, 18.561, 18.511, 18.676, 18.444, 18.808, 18.147, 18.648, 18.626, 18.452, 18.713],
  "Optimizer iterations": 84,
  "Optimizer params": [1.0, 0.01918314449706255, 0.1157746050079136, 0.0019461837122949387, 2.207763293994794e-17, 0.2754256976961711],
  "P": 3,
  "Problem": "MIS",
  "QJob durations [ms]": [1.8236999999999999, 1.8021, 1.863, 1.8190000000000002, 1.825, 1.8077, 1.8283, 1.7978, 1.8333, 1.818, 1.7879, 1.7658, 1.8304, 1.8175000000000001, 1.8132000000000001, 1.7965, 1.8353, 1.8283, 1.8147, 1.7995, 1.8233, 1.8129000000000002, 1.8171000000000002, 1.8526, 1.8139, 1.8004, 1.8190000000000002, 1.7899, 1.8263, 1.7856, 1.7946, 1.8188, 1.7975, 1.7885, 1.8037999999999998, 1.8741999999999999, 1.7946, 1.9249, 1.9524, 2.0402, 1.8174000000000001, 1.8216, 1.8274000000000001, 1.7933000000000001, 1.8091, 1.8166, 1.8164, 1.8028, 1.8357, 1.8214, 1.8165, 1.7921, 1.8243999999999998, 1.8052000000000001, 1.9249, 1.8500999999999999, 1.8348, 1.81, 1.7924, 1.813, 1.7969, 1.8182999999999998, 1.8056999999999999, 1.8089, 1.8098, 1.8024, 1.8334, 1.8688, 1.7934999999999999, 1.7971000000000001, 1.7905, 1.8281, 1.8293000000000001, 1.7969, 1.8253, 1.8129000000000002, 1.7982, 1.8008, 1.8175999999999999, 1.7805, 1.802, 1.8041, 1.8137999999999999, 1.7955],
  "QPU": "7000000",
  "Qubits": 8,
  "Queue durations [ms]": [0.0, 0.0, 0.0, 0.0, 0.0, 0.0, 0.0, 0.0, 0.0, 0.0, 0.0, 0.0, 0.0, 0.0, 0.0, 0.0, 0.0, 0.0, 0.0, 0.0, 0.0, 0.0, 0.0, 0.0, 0.0, 0.0, 0.0, 0.0, 0.0, 0.0, 0.0, 0.0, 0.0, 0.0, 0.0, 0.0, 0.0, 0.0, 0.0, 0.0, 0.0, 0.0, 0.0, 0.0, 0.0, 0.0, 0.0, 0.0, 0.0, 0.0, 0.0, 0.0, 0.0, 0.0, 0.0, 0.0, 0.0, 0.0, 0.0, 0.0, 0.0, 0.0, 0.0, 0.0, 0.0, 0.0, 0.0, 0.0, 0.0, 0.0, 0.0, 0.0, 0.0, 0.0, 0.0, 0.0, 0.0, 0.0, 0.0, 0.0, 0.0, 0.0, 0.0, 0.0],
  "Shots": 4096,
  "Size": 5,
  "Total Algorithm duration [s]": 1.577,
  "Total Classic duration [s]": 1.4241071,
  "Total Quantum duration [s]": 0.1528929
}
