{
  "Circuit execution durations [ms]": [1.8425, 1.7837, 1.8058, 1.8316999999999999, 1.7891000000000001, 1.8306, 1.849, 1.8114, 1.8098, 1.8335000000000001, 1.8065, 1.8255000000000001, 1.8288, 1.7912, 1.7937, 1.8107, 1.8121999999999998, 1.8220999999999998, 1.8204, 1.8011, 1.8152000000000001, 1.8285, 1.8042, 1.8278999999999999, 1.8448, 2.1247000000000003, 1.7992, 1.8044, 1.8760999999999999, 1.8011, 1.7964, 1.8386, 2.036, 1.8228, 1.784, 1.8224, 2.1108, 2.1768, 2.0578, 1.8216, 1.803, 1.7937999999999998, 1.8127, 1.8315, 1.8316000000000001, 1.8289, 1.7973999999999999, 1.8462999999999998, 1.8108, 1.7971000000000001, 1.8226, 1.8320999999999998, 1.8051, 1.8140999999999998, 1.8178, 1.8075, 1.8008, 1.8155999999999999, 1.8391, 1.8320999999999998, 1.8222, 1.8495, 1.8941999999999999, 1.8201999999999998, 1.7897, 1.8225, 1.8465, 1.8223, 1.8488, 1.7937999999999998, 1.8078, 1.8128, 1.8225, 1.7958, 1.9237, 2.1735, 2.0771, 1.8487],
  "Depth": 287.0,
  "Expectation Value": -1.0,
  "Optimal Expectation Value": -1.0,
  "Optimizer durations [ms]": [18.801, 18.499, 18.54, 18.81, 18.482, 18.774, 19.134, 18.524, 18.773, 18.897, 18.549, 18.598, 18.802, 18.337, 18.85, 18.581, 18.55, 18.804, 18.661, 18.642, 18.666, 18.96, 19.276, 18.452, 19.929, 21.591, 18.514, 18.586, 19.203, 22.913, 18.367, 19.077, 20.653, 18.663, 18.563, 18.6, 21.823, 24.173, 22.228, 21.323, 18.686, 18.371, 18.741, 18.854, 18.569, 18.978, 18.578, 18.913, 18.77, 18.325, 18.669, 19.059, 18.403, 18.697, 18.629, 18.538, 18.564, 18.96, 18.858, 18.798, 18.852, 19.005, 19.529, 18.513, 18.579, 18.604, 19.234, 18.689, 18.955, 18.137, 18.784, 18.606, 18.659, 18.494, 20.005, 25.658, 23.372, 19.038],
  "Optimizer iterations": 78,
  "Optimizer params": [0.15558995010829724, 0.5490132101235438, 0.03177504656393389, 0.1334755238867915, 0.8704950244591456, 0.885353262341648],
  "P": 3,
  "Problem": "MIS",
  "QJob durations [ms]": [1.8425, 1.7837, 1.8058, 1.8316999999999999, 1.7891000000000001, 1.8306, 1.849, 1.8114, 1.8098, 1.8335000000000001, 1.8065, 1.8255000000000001, 1.8288, 1.7912, 1.7937, 1.8107, 1.8121999999999998, 1.8220999999999998, 1.8204, 1.8011, 1.8152000000000001, 1.8285, 1.8042, 1.8278999999999999, 1.8448, 2.1247000000000003, 1.7992, 1.8044, 1.8760999999999999, 1.8011, 1.7964, 1.8386, 2.036, 1.8228, 1.784, 1.8224, 2.1108, 2.1768, 2.0578, 1.8216, 1.803, 1.7937999999999998, 1.8127, 1.8315, 1.8316000000000001, 1.8289, 1.7973999999999999, 1.8462999999999998, 1.8108, 1.7971000000000001, 1.8226, 1.8320999999999998, 1.8051, 1.8140999999999998, 1.8178, 1.8075, 1.8008, 1.8155999999999999, 1.8391, 1.8320999999999998, 1.8222, 1.8495, 1.8941999999999999, 1.8201999999999998, 1.7897, 1.8225, 1.8465, 1.8223, 1.8488, 1.7937999999999998, 1.8078, 1.8128, 1.8225, 1.7958, 1.9237, 2.1735, 2.0771, 1.8487],
  "QPU": "7000000",
  "Qubits": 8,
  "Queue durations [ms]": [0.0, 0.0, 0.0, 0.0, 0.0, 0.0, 0.0, 0.0, 0.0, 0.0, 0.0, 0.0, 0.0, 0.0, 0.0, 0.0, 0.0, 0.0, 0.0, 0.0, 0.0, 0.0, 0.0, 0.0, 0.0, 0.0, 0.0, 0.0, 0.0, 0.0, 0.0, 0.0, 0.0, 0.0, 0.0, 0.0, 0.0, 0.0, 0.0, 0.0, 0.0, 0.0, 0.0, 0.0, 0.0, 0.0, 0.0, 0.0, 0.0, 0.0, 0.0, 0.0, 0.0, 0.0, 0.0, 0.0, 0.0, 0.0, 0.0, 0.0, 0.0, 0.0, 0.0, 0.0, 0.0, 0.0, 0.0, 0.0, 0.0, 0.0, 0.0, 0.0, 0.0, 0.0, 0.0, 0.0, 0.0, 0.0],
  "Shots": 4096,
  "Size": 5,
  "Total Algorithm duration [s]": 1.497,
  "Total Classic duration [s]": 1.3529959,
  "Total Quantum duration [s]": 0.1440041
}
