{
  "Circuit execution durations [ms]": [1.8102, 1.8055, 1.7764, 1.8243999999999998, 1.7905, 1.7976999999999999, 1.7965, 1.8103, 1.8078, 1.8434, 1.7885, 1.7922, 1.8094999999999999, 1.8116, 1.8075, 1.795, 1.8291, 1.8095999999999999, 1.8534000000000002, 1.8301999999999998, 1.7968000000000002, 1.8065, 1.8178999999999998, 1.806, 1.858, 1.7953000000000001, 1.8957, 1.8852, 1.9781999999999997, 1.829, 1.7895, 1.8167, 1.8235000000000001, 1.8235000000000001, 1.7987000000000002, 1.7927, 1.8081, 1.7843, 1.8139, 1.8058, 1.8238, 1.8029000000000002, 1.7764, 1.9467, 1.8079, 1.7857999999999998, 1.7926000000000002, 1.8212, 1.7955, 1.8191, 1.8144, 1.8037, 1.8232000000000002, 1.7965, 1.8101, 1.8217, 1.85, 1.8227, 1.7946, 1.7995999999999999, 1.8034999999999999, 1.7872999999999999, 1.7798, 1.8178999999999998, 1.8093, 1.8056, 1.8005, 1.7832, 1.805, 1.7979, 1.8407, 1.7984, 1.8094999999999999, 1.8013000000000001, 1.8027, 1.8088, 1.7991000000000001, 1.8078, 1.8052000000000001, 1.8137999999999999, 1.7918, 1.8166, 1.8308, 2.0788, 1.8079],
  "Depth": 287.0,
  "Expectation Value": -1.0,
  "Optimal Expectation Value": -1.0,
  "Optimizer durations [ms]": [18.782, 18.447, 18.402, 18.724, 18.191, 18.471, 18.658, 18.595, 18.507, 18.907, 18.373, 18.542, 18.526, 18.42, 18.949, 18.456, 18.83, 18.267, 19.315, 18.626, 18.673, 18.255, 18.936, 18.492, 19.138, 18.621, 19.496, 28.658, 21.227, 18.59, 18.575, 18.584, 18.665, 18.904, 18.493, 18.343, 18.671, 18.326, 18.722, 18.623, 18.887, 18.536, 18.414, 19.818, 18.732, 18.173, 18.681, 18.727, 18.348, 18.727, 18.839, 18.635, 18.524, 18.741, 18.571, 18.724, 18.806, 18.973, 18.456, 18.25, 18.787, 18.481, 18.348, 18.713, 18.333, 18.834, 18.434, 18.362, 18.594, 18.379, 19.007, 18.564, 18.632, 18.397, 18.723, 18.353, 18.788, 18.49, 18.506, 18.779, 19.158, 18.726, 19.052, 21.4, 18.438],
  "Optimizer iterations": 85,
  "Optimizer params": [0.033955392611317504, 0.6703272461891174, 0.9999642212241706, 1.0, 0.07055565415141327, 1.0],
  "P": 3,
  "Problem": "MIS",
  "QJob durations [ms]": [1.8102, 1.8055, 1.7764, 1.8243999999999998, 1.7905, 1.7976999999999999, 1.7965, 1.8103, 1.8078, 1.8434, 1.7885, 1.7922, 1.8094999999999999, 1.8116, 1.8075, 1.795, 1.8291, 1.8095999999999999, 1.8534000000000002, 1.8301999999999998, 1.7968000000000002, 1.8065, 1.8178999999999998, 1.806, 1.858, 1.7953000000000001, 1.8957, 1.8852, 1.9781999999999997, 1.829, 1.7895, 1.8167, 1.8235000000000001, 1.8235000000000001, 1.7987000000000002, 1.7927, 1.8081, 1.7843, 1.8139, 1.8058, 1.8238, 1.8029000000000002, 1.7764, 1.9467, 1.8079, 1.7857999999999998, 1.7926000000000002, 1.8212, 1.7955, 1.8191, 1.8144, 1.8037, 1.8232000000000002, 1.7965, 1.8101, 1.8217, 1.85, 1.8227, 1.7946, 1.7995999999999999, 1.8034999999999999, 1.7872999999999999, 1.7798, 1.8178999999999998, 1.8093, 1.8056, 1.8005, 1.7832, 1.805, 1.7979, 1.8407, 1.7984, 1.8094999999999999, 1.8013000000000001, 1.8027, 1.8088, 1.7991000000000001, 1.8078, 1.8052000000000001, 1.8137999999999999, 1.7918, 1.8166, 1.8308, 2.0788, 1.8079],
  "QPU": "7000000",
  "Qubits": 8,
  "Queue durations [ms]": [0.0, 0.0, 0.0, 0.0, 0.0, 0.0, 0.0, 0.0, 0.0, 0.0, 0.0, 0.0, 0.0, 0.0, 0.0, 0.0, 0.0, 0.0, 0.0, 0.0, 0.0, 0.0, 0.0, 0.0, 0.0, 0.0, 0.0, 0.0, 0.0, 0.0, 0.0, 0.0, 0.0, 0.0, 0.0, 0.0, 0.0, 0.0, 0.0, 0.0, 0.0, 0.0, 0.0, 0.0, 0.0, 0.0, 0.0, 0.0, 0.0, 0.0, 0.0, 0.0, 0.0, 0.0, 0.0, 0.0, 0.0, 0.0, 0.0, 0.0, 0.0, 0.0, 0.0, 0.0, 0.0, 0.0, 0.0, 0.0, 0.0, 0.0, 0.0, 0.0, 0.0, 0.0, 0.0, 0.0, 0.0, 0.0, 0.0, 0.0, 0.0, 0.0, 0.0, 0.0, 0.0],
  "Shots": 4096,
  "Size": 5,
  "Total Algorithm duration [s]": 1.599,
  "Total Classic duration [s]": 1.4445738000000001,
  "Total Quantum duration [s]": 0.15442619999999993
}
