{
  "Circuit execution durations [ms]": [1.9400000000000002, 1.7335, 1.9732999999999998, 1.7949000000000002, 1.8066, 1.8082, 1.7245, 1.8535, 1.8191, 2.0733, 1.7782, 1.804, 1.8840000000000001, 2.2531, 1.7772000000000001, 1.7998, 1.8052000000000001, 1.8325, 1.797, 1.8086, 1.8021999999999998, 1.7984, 1.8045, 1.8249, 1.7852000000000001, 1.8194000000000001, 1.8327, 1.8046, 1.824, 1.8165, 1.8101, 1.8075, 1.7975, 1.8227, 1.7873999999999999, 1.7855, 1.8013000000000001, 1.8071000000000002, 1.8652, 1.8037999999999998, 1.8168, 1.8222, 1.8016, 1.8195, 1.7976999999999999, 1.799, 1.8092, 1.8121999999999998, 1.7979999999999998, 1.7685000000000002, 1.8033000000000001, 1.9276, 2.1753, 1.9962, 1.7749000000000001, 1.7898, 1.8136999999999999, 1.8073, 1.8504, 1.8010000000000002, 1.8174000000000001, 1.7976999999999999, 1.8154, 1.8049, 1.8446, 1.7998, 1.7873999999999999, 1.7937999999999998, 1.9200000000000002],
  "Depth": 287.0,
  "Expectation Value": -1.0,
  "Optimal Expectation Value": -1.0,
  "Optimizer durations [ms]": [19.716, 26.081, 20.328, 18.402, 18.49, 18.744, 26.731, 19.276, 18.82, 21.025, 18.212, 18.838, 19.422, 23.01, 27.994, 20.958, 18.648, 19.083, 18.358, 18.442, 18.54, 18.758, 18.635, 18.506, 18.597, 18.576, 18.691, 18.652, 18.693, 18.692, 18.565, 18.76, 18.417, 18.656, 18.371, 18.558, 18.171, 18.679, 19.224, 18.425, 18.765, 18.86, 18.217, 18.939, 18.438, 18.54, 18.595, 18.636, 18.819, 18.486, 18.212, 20.163, 27.646, 20.347, 18.346, 18.397, 18.738, 18.458, 19.227, 18.435, 18.892, 18.143, 18.785, 18.54, 19.101, 18.507, 18.21, 18.519, 19.951],
  "Optimizer iterations": 69,
  "Optimizer params": [0.8478707157799341, 0.9881393691914915, 0.5909649810734756, 0.19327338650190554, 0.4943982414954232, 0.5901130430391859],
  "P": 3,
  "Problem": "MIS",
  "QJob durations [ms]": [1.9400000000000002, 1.7335, 1.9732999999999998, 1.7949000000000002, 1.8066, 1.8082, 1.7245, 1.8535, 1.8191, 2.0733, 1.7782, 1.804, 1.8840000000000001, 2.2531, 1.7772000000000001, 1.7998, 1.8052000000000001, 1.8325, 1.797, 1.8086, 1.8021999999999998, 1.7984, 1.8045, 1.8249, 1.7852000000000001, 1.8194000000000001, 1.8327, 1.8046, 1.824, 1.8165, 1.8101, 1.8075, 1.7975, 1.8227, 1.7873999999999999, 1.7855, 1.8013000000000001, 1.8071000000000002, 1.8652, 1.8037999999999998, 1.8168, 1.8222, 1.8016, 1.8195, 1.7976999999999999, 1.799, 1.8092, 1.8121999999999998, 1.7979999999999998, 1.7685000000000002, 1.8033000000000001, 1.9276, 2.1753, 1.9962, 1.7749000000000001, 1.7898, 1.8136999999999999, 1.8073, 1.8504, 1.8010000000000002, 1.8174000000000001, 1.7976999999999999, 1.8154, 1.8049, 1.8446, 1.7998, 1.7873999999999999, 1.7937999999999998, 1.9200000000000002],
  "QPU": "7000000",
  "Qubits": 8,
  "Queue durations [ms]": [0.0, 0.0, 0.0, 0.0, 0.0, 0.0, 0.0, 0.0, 0.0, 0.0, 0.0, 0.0, 0.0, 0.0, 0.0, 0.0, 0.0, 0.0, 0.0, 0.0, 0.0, 0.0, 0.0, 0.0, 0.0, 0.0, 0.0, 0.0, 0.0, 0.0, 0.0, 0.0, 0.0, 0.0, 0.0, 0.0, 0.0, 0.0, 0.0, 0.0, 0.0, 0.0, 0.0, 0.0, 0.0, 0.0, 0.0, 0.0, 0.0, 0.0, 0.0, 0.0, 0.0, 0.0, 0.0, 0.0, 0.0, 0.0, 0.0, 0.0, 0.0, 0.0, 0.0, 0.0, 0.0, 0.0, 0.0, 0.0, 0.0],
  "Shots": 4096,
  "Size": 5,
  "Total Algorithm duration [s]": 1.335,
  "Total Classic duration [s]": 1.2085678,
  "Total Quantum duration [s]": 0.12643220000000005
}
