{
  "Circuit execution durations [ms]": [190.85216522216797, 177.75440216064453, 173.22492599487305, 188.3866786956787, 191.96677207946777, 186.8417263031006, 186.59639358520508, 181.80322647094727, 174.15809631347656, 178.3757209777832, 188.10606002807617, 186.9971752166748, 184.78941917419434, 189.26143646240234, 174.42083358764648, 172.64032363891602, 189.009428024292, 189.62550163269043, 188.9042854309082, 190.63735008239746, 185.10079383850098, 172.20282554626465, 173.4943389892578, 187.0708465576172, 194.57364082336426, 193.1593418121338, 255.37395477294922, 182.6193332672119, 182.82604217529297, 173.48003387451172, 176.01561546325684, 183.23993682861328, 198.06480407714844, 182.88540840148926, 191.01572036743164, 184.31377410888672, 173.51055145263672, 177.70719528198242, 181.85114860534668, 183.83193016052246, 183.05206298828125, 191.4517879486084, 174.62515830993652, 174.23701286315918, 182.99531936645508, 185.2729320526123, 192.14963912963867, 179.70776557922363, 177.69646644592285, 176.08237266540527, 175.95744132995605, 173.73347282409668, 189.19014930725098, 184.3569278717041, 181.08463287353516, 182.56258964538574, 172.96576499938965, 180.50909042358398, 186.2351894378662, 187.2248649597168, 184.16476249694824, 183.66098403930664, 194.38457489013672, 181.08201026916504, 189.1496181488037, 185.01758575439453, 185.84537506103516, 191.57075881958008, 190.96088409423828, 183.57563018798828, 203.0186653137207, 189.21542167663574, 192.7170753479004, 187.90793418884277, 183.32338333129883, 185.92238426208496, 186.04421615600586, 174.55530166625977, 185.4994297027588, 260.1187229156494, 179.0909767150879, 190.7484531402588, 187.34073638916016, 184.70406532287598, 195.53065299987793, 192.48032569885254, 173.94375801086426, 178.14159393310547, 193.6194896697998, 185.96911430358887, 193.6352252960205, 178.85923385620117, 182.1746826171875, 177.34193801879883, 178.9393424987793, 189.1467571258545, 194.1845417022705, 182.72638320922852, 184.3738555908203, 256.76941871643066, 182.27052688598633, 171.9503402709961, 175.06814002990723, 191.25127792358398, 191.8642520904541, 185.3322982788086, 188.1105899810791],
  "Depth": 110.0,
  "Expectation Value": 5.13427734375,
  "Optimal Expectation Value": -4.0,
  "Optimizer durations [ms]": [218.427, 207.335, 209.593, 215.163, 219.38, 213.855, 213.526, 208.671, 201.178, 214.782, 215.501, 214.786, 212.112, 216.746, 202.008, 207.22, 215.837, 218.121, 216.984, 217.887, 212.421, 198.927, 210.195, 213.662, 222.327, 220.587, 282.695, 209.375, 209.653, 200.301, 212.929, 210.494, 224.824, 209.924, 218.14, 211.59, 200.513, 207.047, 208.663, 210.38, 209.89, 218.795, 201.563, 210.167, 209.673, 212.186, 219.642, 206.75, 204.779, 211.394, 283.969, 208.894, 215.766, 211.703, 207.774, 209.86, 199.689, 215.744, 213.786, 214.583, 211.334, 211.18, 222.854, 209.396, 222.265, 212.171, 212.791, 218.978, 218.206, 210.943, 230.261, 229.345, 222.216, 214.948, 210.133, 213.245, 214.35, 201.588, 219.557, 287.105, 215.747, 218.451, 214.921, 211.299, 222.821, 220.002, 201.135, 218.915, 220.951, 212.82, 221.023, 205.717, 209.133, 204.601, 215.797, 216.568, 221.437, 209.928, 211.058, 283.914, 209.452, 198.852, 213.285, 218.176, 219.267, 213.237, 216.085],
  "Optimizer iterations": 107,
  "Optimizer params": [0.2025582228100061, 0.2212964022064779, 0.6119326866049607, 0.4367989584454191, 0.33453460326628764, 0.8955019519630213],
  "P": 3,
  "Problem": "TSP",
  "QJob durations [ms]": [190.85216522216797, 177.75440216064453, 173.22492599487305, 188.3866786956787, 191.96677207946777, 186.8417263031006, 186.59639358520508, 181.80322647094727, 174.15809631347656, 178.3757209777832, 188.10606002807617, 186.9971752166748, 184.78941917419434, 189.26143646240234, 174.42083358764648, 172.64032363891602, 189.009428024292, 189.62550163269043, 188.9042854309082, 190.63735008239746, 185.10079383850098, 172.20282554626465, 173.4943389892578, 187.0708465576172, 194.57364082336426, 193.1593418121338, 255.37395477294922, 182.6193332672119, 182.82604217529297, 173.48003387451172, 176.01561546325684, 183.23993682861328, 198.06480407714844, 182.88540840148926, 191.01572036743164, 184.31377410888672, 173.51055145263672, 177.70719528198242, 181.85114860534668, 183.83193016052246, 183.05206298828125, 191.4517879486084, 174.62515830993652, 174.23701286315918, 182.99531936645508, 185.2729320526123, 192.14963912963867, 179.70776557922363, 177.69646644592285, 176.08237266540527, 175.95744132995605, 173.73347282409668, 189.19014930725098, 184.3569278717041, 181.08463287353516, 182.56258964538574, 172.96576499938965, 180.50909042358398, 186.2351894378662, 187.2248649597168, 184.16476249694824, 183.66098403930664, 194.38457489013672, 181.08201026916504, 189.1496181488037, 185.01758575439453, 185.84537506103516, 191.57075881958008, 190.96088409423828, 183.57563018798828, 203.0186653137207, 189.21542167663574, 192.7170753479004, 187.90793418884277, 183.32338333129883, 185.92238426208496, 186.04421615600586, 174.55530166625977, 185.4994297027588, 260.1187229156494, 179.0909767150879, 190.7484531402588, 187.34073638916016, 184.70406532287598, 195.53065299987793, 192.48032569885254, 173.94375801086426, 178.14159393310547, 193.6194896697998, 185.96911430358887, 193.6352252960205, 178.85923385620117, 182.1746826171875, 177.34193801879883, 178.9393424987793, 189.1467571258545, 194.1845417022705, 182.72638320922852, 184.3738555908203, 256.76941871643066, 182.27052688598633, 171.9503402709961, 175.06814002990723, 191.25127792358398, 191.8642520904541, 185.3322982788086, 188.1105899810791],
  "QPU": "9000001",
  "Qubits": 16,
  "Queue durations [ms]": [0.0, 0.0, 0.0, 0.0, 0.0, 0.0, 0.0, 0.0, 0.0, 0.0, 0.0, 0.0, 0.0, 0.0, 0.0, 0.0, 0.0, 0.0, 0.0, 0.0, 0.0, 0.0, 0.0, 0.0, 0.0, 0.0, 0.0, 0.0, 0.0, 0.0, 0.0, 0.0, 0.0, 0.0, 0.0, 0.0, 0.0, 0.0, 0.0, 0.0, 0.0, 0.0, 0.0, 0.0, 0.0, 0.0, 0.0, 0.0, 0.0, 0.0, 0.0, 0.0, 0.0, 0.0, 0.0, 0.0, 0.0, 0.0, 0.0, 0.0, 0.0, 0.0, 0.0, 0.0, 0.0, 0.0, 0.0, 0.0, 0.0, 0.0, 0.0, 0.0, 0.0, 0.0, 0.0, 0.0, 0.0, 0.0, 0.0, 0.0, 0.0, 0.0, 0.0, 0.0, 0.0, 0.0, 0.0, 0.0, 0.0, 0.0, 0.0, 0.0, 0.0, 0.0, 0.0, 0.0, 0.0, 0.0, 0.0, 0.0, 0.0, 0.0, 0.0, 0.0, 0.0, 0.0, 0.0],
  "Shots": 4096,
  "Size": 4,
  "Total Algorithm duration [s]": 23.077,
  "Total Classic duration [s]": 3.1459175128936785,
  "Total Quantum duration [s]": 19.931082487106323
}
