{
  "Circuit execution durations [ms]": [51.31857469677925, 43.180469423532486, 34.61942821741104, 36.418864503502846, 44.964464381337166, 36.06012836098671, 43.665651232004166, 44.842629693448544, 63.499124720692635, 63.695790246129036, 30.86703084409237, 38.85284438729286, 61.80075742304325, 37.72232495248318, 72.11033254861832, 44.751789420843124, 38.477156311273575, 50.00299774110317, 31.819752417504787, 40.3885655105114, 38.22290524840355, 38.454605266451836, 39.28200528025627, 45.77389732003212, 38.45290467143059, 41.895586997270584, 38.14970329403877, 40.66453501582146, 25.14114324003458, 32.80220367014408, 39.37603905797005, 36.474792286753654, 48.327088356018066, 28.644262813031673, 39.856741204857826, 32.401363365352154, 29.107497073709965, 33.029464073479176, 33.52754935622215, 40.55921919643879, 30.9152714908123, 37.18111850321293, 42.197272181510925, 38.95950876176357, 52.593160420656204, 96.88497707247734, 113.1659708917141, 38.8460885733366, 30.237297527492046, 38.43190521001816, 54.335376247763634, 61.47482618689537, 40.3995830565691, 32.49919414520264, 66.738186404109, 39.84920494258404, 40.99022597074509, 36.91636770963669, 34.92072410881519, 33.41834060847759, 39.79715704917908, 35.263027995824814, 42.56048798561096, 44.2377720028162, 67.24577397108078, 36.53800114989281, 54.3103888630867, 28.22781540453434, 37.35412657260895, 34.021830186247826, 37.91223093867302, 34.32886302471161, 57.03088454902172, 66.74115173518658, 60.70197559893131, 52.57066152989864, 37.649523466825485, 50.86284317076206, 37.30485774576664, 36.27741523087025, 82.26264361292124, 50.55856145918369, 65.07783383131027, 28.021368198096752, 41.29377380013466, 69.4639440625906, 44.9333842843771, 38.742173463106155, 38.269560784101486, 35.465722903609276, 40.74826091527939, 39.90313038229942, 50.63455179333687, 42.56637021899223, 41.4262879639864, 62.78144754469395, 35.02262756228447, 50.70644989609718, 45.18474265933037, 42.50802844762802, 37.84606605768204, 38.16748782992363, 39.33694213628769, 55.53051829338074, 48.918167129158974, 33.262995071709156, 39.295412600040436, 34.091297537088394, 39.98954966664314, 39.438340812921524, 55.142948403954506, 52.51097492873669, 33.86087901890278, 38.41118514537811, 39.18337635695934, 39.99824821949005, 63.84511850774288, 70.59414871037006, 36.70962154865265, 46.857500448822975, 65.4516164213419, 104.0489710867405, 53.42416651546955, 40.85873253643513, 36.03766672313213, 38.55496644973755, 52.7034942060709, 21.791932173073292, 39.1763411462307, 33.15784968435764, 30.951691791415215, 36.87594924122095, 52.777206525206566, 40.627602487802505, 57.51141160726547, 37.12077811360359, 44.85690966248512, 35.863135010004044, 55.91086111962795, 37.683602422475815, 30.972963199019432, 59.26060117781162, 34.2924864962697, 81.42919279634953, 54.85985521227121, 71.14195823669434, 65.21324440836906, 55.774593725800514, 49.693699926137924, 37.957917898893356, 37.512725219130516, 42.93110594153404, 47.9086060076952, 37.98279166221619, 35.44922266155481, 45.474838465452194, 37.294911220669746, 91.47612191736698, 37.142883986234665],
  "Depth": 2.0,
  "Expectation Value": -5.872878551483154,
  "Optimal Expectation Value": -5.893400192260742,
  "Optimizer durations [ms]": [60578.221, 32090.094, 16511.517, 14556.627, 84115.466, 547040.31, 107876.548, 137859.761, 126064.073, 54959.377, 107708.576, 29511.289, 25976.392, 46547.587, 40672.164, 54679.549, 70324.789, 43160.429, 24407.019, 27252.195, 19022.86, 70957.349, 59456.968, 357622.932, 266884.043, 93460.238, 52455.453, 29032.596, 35023.931, 54851.924, 36672.628, 57728.178, 34831.163, 19081.959, 37085.728, 19771.776, 28055.833, 17092.706, 23815.832, 28068.834, 42058.935, 30628.323, 25902.944, 24647.381, 74140.999, 18460.556, 20955.168, 27857.175, 67163.77, 91710.819, 29785.055, 19316.144, 22980.33, 60249.856, 16799.518, 17781.953, 22668.923, 28219.449, 32424.874, 24984.162, 19525.139, 21970.413, 39967.413, 22572.001, 18648.27, 15575.538, 20224.293, 17998.544, 22677.438, 17803.671, 17733.408, 32818.552, 23472.987, 28330.821, 116802.835, 39362.472, 24555.375, 16800.639, 21250.836, 15306.075, 22665.953, 15916.208, 23551.88, 35671.68, 14907.812, 20261.037, 15199.04, 14871.722, 25989.096, 25576.541, 53406.191, 46847.295, 22339.618, 16039.669, 16638.686, 17451.46, 15320.544, 18863.259, 14944.792, 79919.37, 28060.618, 14751.498, 17631.469, 14532.706, 19727.393, 25209.327, 15611.227, 83055.723, 17412.169, 18295.804, 77532.449, 15235.764, 16288.533, 16559.754, 74420.349, 16520.579, 14724.626, 16216.18, 71121.775, 16533.514, 15658.003, 15871.001, 78373.914, 15716.663, 15606.659, 20115.353, 17249.439, 43272.064, 15701.139, 15292.253, 14380.721, 68949.323, 14628.456, 13866.242, 13933.318, 15258.716, 19537.957, 76256.69, 17479.209, 22973.273, 25561.403, 47124.952, 17112.524, 70919.348, 18848.36, 17983.763, 15548.52, 21563.813, 13999.537, 16290.181, 23861.715, 15412.657, 77719.366, 16322.187, 16018.19, 14852.174, 15787.878, 21277.729, 15622.064],
  "Optimizer iterations": 159,
  "Optimizer params": [0.004821354871999309, 0.5076906875414802, 0.9985882777544216, 0.49864617412547424, 0.5142158352354111, 0.9999999999999999, 0.4835285810937225, 0.45785692930243355, 0.008970860411153518, 0.5060686922613847],
  "P": 0,
  "Problem": "RH",
  "QJob durations [ms]": [30234.708786010742, 15906.563758850098, 8197.057008743286, 7218.462944030762, 41997.43747711182, 273376.60789489746, 53879.54139709473, 68872.68829345703, 62974.063873291016, 27345.853805541992, 53795.41301727295, 14695.873260498047, 12930.872917175293, 23138.94557952881, 20277.851104736328, 27280.81512451172, 35105.50117492676, 21446.56467437744, 12147.281646728516, 13569.691181182861, 9451.485633850098, 35347.938537597656, 29671.15068435669, 178753.13568115234, 133383.1558227539, 46593.868255615234, 26169.001579284668, 14458.356380462646, 17453.312397003174, 27292.041778564453, 18278.15055847168, 28808.70532989502, 17357.251167297363, 9405.481815338135, 18486.722946166992, 9829.297065734863, 13972.111701965332, 8408.003330230713, 11851.108074188232, 13975.871562957764, 20973.68049621582, 15255.517959594727, 12898.72407913208, 12264.449119567871, 37015.71083068848, 9093.239545822144, 10419.223308563232, 13871.708869934082, 33518.04161071777, 45716.91846847534, 14836.184024810791, 9600.632667541504, 11434.688568115234, 29992.913246154785, 8345.630645751953, 8833.433151245117, 11276.024341583252, 14052.635192871094, 16157.453060150146, 12435.11152267456, 9708.75072479248, 10930.416584014893, 19854.1898727417, 11230.863571166992, 9267.552375793457, 7732.422351837158, 9976.457595825195, 8940.989017486572, 11278.735637664795, 8845.633506774902, 8812.212944030762, 16271.163940429688, 11681.17094039917, 14112.905979156494, 58348.35624694824, 19542.092323303223, 12221.054553985596, 8345.394134521484, 10565.107822418213, 7515.0909423828125, 11276.941776275635, 7899.794578552246, 11717.980861663818, 17777.360439300537, 7314.03374671936, 10074.26142692566, 7543.304443359375, 7379.237413406372, 12859.397888183594, 12734.716415405273, 26655.450344085693, 23373.836517333984, 11036.765575408936, 7964.990615844727, 8264.723777770996, 8669.81840133667, 7605.340957641602, 9293.96939277649, 7414.7937297821045, 39903.79047393799, 13976.240634918213, 7239.693641662598, 8757.219314575195, 7209.9292278289795, 9805.661678314209, 12468.835353851318, 7751.987934112549, 41472.14460372925, 8646.822690963745, 9089.51711654663, 38628.17907333374, 7560.376167297363, 8086.972713470459, 8222.736358642578, 37072.92914390564, 8203.28426361084, 7304.69274520874, 8053.223133087158, 35417.661905288696, 8210.672855377197, 7773.901462554932, 7878.377437591553, 39130.714893341064, 7711.669921875, 7744.133949279785, 9997.735023498535, 8567.198753356934, 21497.08843231201, 7795.482873916626, 7589.911460876465, 7131.552219390869, 34416.52297973633, 7174.519300460815, 6876.961469650269, 6910.774707794189, 7573.497772216797, 9629.600048065186, 38073.74143600464, 8680.140972137451, 11431.936264038086, 12724.602699279785, 23417.57106781006, 8500.121116638184, 35403.157234191895, 9365.780353546143, 8860.318183898926, 7717.792510986328, 10725.327968597412, 6943.351268768311, 8005.048751831055, 11876.710414886475, 7650.599002838135, 38805.636405944824, 8107.275009155273, 7866.59574508667, 7372.195243835449, 7834.446907043457, 10584.13028717041, 7663.459777832031],
  "QPU": "4010001",
  "Qubits": 10,
  "Queue durations [ms]": [24324.000358581543, 9383.000373840332, 1446.0000395774841, 1451.9999623298645, 15806.499481201172, 258922.00565338135, 47610.00061035156, 62401.5007019043, 52821.49887084961, 20889.999866485596, 46991.000175476074, 8155.500173568726, 5864.999830722809, 16713.000297546387, 13923.500061035156, 20723.50025177002, 15096.499919891357, 14788.999557495117, 5771.0002064704895, 7241.999864578247, 3175.5000352859497, 29495.000541210175, 9766.999959945679, 171384.00268554688, 125680.00411987305, 39843.5001373291, 20196.500301361084, 8118.499994277954, 10945.000171661377, 20437.50047683716, 11954.500198364258, 21555.00030517578, 10444.499731063843, 1326.999992132187, 4495.9999322891235, 3850.99995136261, 7521.000146865845, 2044.9999570846558, 5097.000002861023, 7669.49987411499, 14846.00019454956, 7694.000244140625, 5700.999975204468, 6031.500220298767, 30934.499740600586, 2290.499985218048, 3393.00000667572, 6623.500108718872, 25280.999660491943, 7899.00004863739, 8750.0, 3029.9999713897705, 5355.499982833862, 23551.000595092773, 1931.9999814033508, 2181.5000772476196, 5147.499799728394, 7339.9999141693115, 9604.000091552734, 5826.499938964844, 2923.9999055862427, 4711.999893188477, 13309.500366449356, 4682.500243186951, 3596.000075340271, 1733.5000038146973, 4027.000069618225, 2508.9999437332153, 4874.4999170303345, 2313.4999871253967, 2501.5000104904175, 9837.50033378601, 5131.000280380249, 7985.50009727478, 23122.49928712845, 12957.499742507935, 5757.499814033508, 2286.9999408721924, 3903.500020503998, 1324.999988079071, 4603.500008583069, 1558.0000281333923, 5078.499853610992, 11626.999855041504, 1075.4999816417694, 3847.0000624656677, 1032.9999923706055, 1147.5000083446503, 5967.9999351501465, 5124.500155448914, 6929.500102996826, 16552.499771118164, 4389.500021934509, 1462.499976158142, 2036.9999408721924, 2079.9999833106995, 1396.0000276565552, 913.0000174045563, 1223.5000133514404, 1740.0000095367432, 2813.9999508857727, 787.4999940395355, 2300.9999990463257, 1426.9999861717224, 2929.500013589859, 5972.5000858306885, 1005.4999887943268, 2094.9999690055847, 1614.4999563694, 2538.5000705718994, 4277.000069618225, 1162.0000004768372, 1925.000011920929, 1127.0000040531158, 30357.99926519394, 1704.5000195503235, 1078.5000324249268, 1784.4999432563782, 28969.500243663788, 1814.5000338554382, 1203.000009059906, 1439.9999976158142, 1546.999990940094, 1157.4999690055847, 1064.5000040531158, 2357.4999570846558, 2248.0000257492065, 15380.49989938736, 1297.5000143051147, 877.0000040531158, 879.50000166893, 991.9999837875366, 1187.5, 1074.4999945163727, 889.5000219345093, 1076.999992132187, 3417.4999594688416, 1252.5000274181366, 2391.5000557899475, 5318.999767303467, 6438.00014257431, 9065.999865531921, 1829.5000195503235, 28751.9993185997, 1577.9999494552612, 2403.500020503998, 1201.9999623298645, 4036.4999771118164, 903.4999907016754, 1879.0000081062317, 2233.5000038146973, 1391.0000324249268, 1658.500075340271, 1619.4999814033508, 1360.5000376701355, 1209.500014781952, 1447.4999904632568, 2433.4999322891235, 1477.0000278949738],
  "Shots": 4096,
  "Size": 10,
  "Total Algorithm duration [s]": 6362.768,
  "Total Classic duration [s]": 3193.308702342987,
  "Total Quantum duration [s]": 3169.459297657013
}
