{
  "Depth": 758.0,
  "Job durations [ms]": [1644.5071697235107, 1398.491382598877, 1291.6734218597412, 1780.2729606628418, 1729.7611236572266, 757.2836875915527, 704.8673629760742, 1123.4338283538818, 1737.2987270355225, 1766.7992115020752, 364.7308349609375, 1801.5210628509521, 464.5547866821289, 755.1829814910889, 1297.295093536377, 1174.328327178955, 906.1496257781982, 342.2739505767822, 1809.6637725830078, 397.08614349365234, 1788.4521484375, 489.9435043334961, 1762.2230052947998, 176.61738395690918, 385.6518268585205, 345.25179862976074, 1742.4900531768799, 126.56235694885254, 1743.9250946044922, 1762.2644901275635, 1470.2458381652832, 359.85708236694336, 1746.739149093628, 1767.8277492523193, 718.994140625, 307.8298568725586, 1519.8886394500732, 609.2848777770996, 186.05637550354004, 182.7561855316162, 363.2347583770752, 937.1685981750488, 87.66555786132812, 153.89537811279297, 1746.3200092315674, 367.68555641174316, 482.9425811767578, 158.30612182617188, 1080.080270767212, 930.3550720214844, 1726.9434928894043, 1432.1725368499756, 1362.6840114593506, 1757.4710845947266, 641.0691738128662, 1659.5571041107178, 1962.3842239379883, 1293.856143951416, 1768.2342529296875, 1529.052972793579, 963.4268283843994, 1736.1865043640137, 1804.830551147461, 1236.539602279663, 748.1708526611328, 972.5306034088135, 1726.9871234893799, 172.93763160705566, 620.1672554016113, 472.45001792907715, 1804.1775226593018, 1862.9424571990967, 1440.0873184204102, 1921.776533126831, 1697.3891258239746, 1752.7213096618652, 167.79017448425293, 1802.9327392578125, 797.245979309082, 649.4889259338379, 847.9571342468262, 78.5365104675293, 1254.7607421875, 1625.6811618804932, 367.94447898864746, 1629.539966583252, 1317.78883934021],
  "Optimizer durations [ms]": [2298.598, 2057.674, 1954.752, 2436.262, 2395.278, 1416.359, 1366.382, 1796.135, 2340.0, 2418.538, 1024.749, 2451.279, 1108.712, 1410.494, 1955.901, 1829.331, 1563.08, 994.357, 2468.327, 1063.3, 2455.978, 1172.095, 2434.804, 844.65, 1050.763, 960.078, 2422.752, 776.865, 2388.697, 2410.196, 2127.178, 1016.729, 2409.982, 2422.718, 1399.067, 1005.131, 2190.415, 1275.194, 852.529, 833.438, 1018.94, 1543.846, 764.902, 810.578, 2398.197, 1010.657, 1135.849, 808.993, 1728.526, 1589.653, 2387.53, 2094.103, 2032.164, 2416.163, 1295.96, 2321.848, 2688.875, 1973.22, 2381.375, 2181.765, 1627.79, 2384.787, 2453.448, 1880.054, 1406.752, 1620.763, 2385.063, 832.173, 1282.022, 1142.274, 2550.182, 2873.958, 2144.962, 2614.259, 2445.592, 2362.086, 847.882, 2453.333, 1446.834, 1307.652, 1500.573, 735.571, 1906.021, 2288.914, 1022.425, 2284.236, 2002.455],
  "Optimizer iterations": 87,
  "Qubits": 15,
  "Total Algorithm duration [s]": 153.184,
  "Total Classic duration [s]": 57.829896196365354,
  "Total Quantum duration [s]": 95.35410380363464,
  "Expectation Value": -4.015380859375,
  "Optimal Expectation Value": -8.0,
  "Optimizer params": [0.6787596004958373, 0.3696185639386132, 0.8202963342249818, 0.3723974273103358, 0.27010683453681816, 0.22104053637280766],
  "QPU": "3010002",
  "Problem": "DSP",
  "Size": 10,
  "P": 3,
  "Shots": 4096
}