{
  "Depth": 113.0,
  "Job durations [ms]": [11.009454727172852, 11.074542999267578, 10.74981689453125, 10.989189147949219, 11.062860488891602, 11.048078536987305, 10.885000228881836, 11.005640029907227, 11.200666427612305, 11.073589324951172, 10.898590087890625, 10.985851287841797, 10.870933532714844, 10.804891586303711, 11.107206344604492, 10.857582092285156, 11.123895645141602, 10.676383972167969, 10.825872421264648, 10.979175567626953, 10.981321334838867, 11.008262634277344, 11.11459732055664, 10.666131973266602, 10.665655136108398, 11.035680770874023, 11.04879379272461, 10.887384414672852, 10.67495346069336, 10.843276977539062, 10.664224624633789, 11.109113693237305, 10.631084442138672, 10.886430740356445, 11.090993881225586, 11.2457275390625, 10.983943939208984, 11.150598526000977, 10.952234268188477, 10.890960693359375, 11.020421981811523, 11.092662811279297, 10.837554931640625, 10.981321334838867, 10.759592056274414, 10.85209846496582, 10.851860046386719, 10.851144790649414, 11.099576950073242, 11.211395263671875, 10.741472244262695, 10.789632797241211, 10.83517074584961, 10.648965835571289, 11.216402053833008, 10.69951057434082, 11.03353500366211, 10.689020156860352, 11.0321044921875, 10.978221893310547, 11.059045791625977, 11.014461517333984, 10.808706283569336, 10.52999496459961, 11.114120483398438, 11.016130447387695, 11.209249496459961, 10.764122009277344, 11.072635650634766, 10.678529739379883, 10.954618453979492, 11.141061782836914, 10.9710693359375, 10.705947875976562, 11.081933975219727, 10.86282730102539, 11.189937591552734, 11.154890060424805, 10.827064514160156, 11.09766960144043, 10.984659194946289, 11.159420013427734, 11.129140853881836, 10.875701904296875, 11.129140853881836, 10.976552963256836, 11.122465133666992, 11.063098907470703, 10.987997055053711, 11.06572151184082, 10.705232620239258, 10.897397994995117, 10.77580451965332, 10.690927505493164, 10.863542556762695, 10.830163955688477, 10.932683944702148, 10.923624038696289, 10.932207107543945, 11.163473129272461, 10.918617248535156, 10.694265365600586, 10.897159576416016, 10.930538177490234, 10.955810546875, 11.061906814575195, 10.983705520629883, 10.86282730102539, 10.875940322875977, 10.94961166381836, 10.917901992797852, 10.98322868347168, 10.80632209777832, 11.105060577392578, 10.916471481323242, 11.129379272460938, 10.83230972290039, 10.947942733764648, 10.925531387329102, 11.030912399291992, 10.982990264892578],
  "Optimizer durations [ms]": [150.123, 150.911, 150.04, 191.494, 151.087, 151.29, 150.112, 150.884, 190.383, 150.989, 151.468, 151.994, 190.141, 151.171, 150.357, 150.122, 150.641, 189.954, 150.445, 151.261, 150.614, 191.382, 151.159, 151.153, 150.72, 190.982, 150.476, 150.171, 150.645, 151.182, 190.022, 150.934, 151.118, 150.667, 189.461, 152.301, 153.119, 151.417, 150.697, 189.954, 150.38, 151.459, 150.738, 192.665, 150.503, 150.397, 152.219, 190.831, 150.969, 151.959, 150.988, 151.081, 190.34, 150.959, 150.317, 151.051, 191.233, 150.625, 150.293, 150.564, 150.573, 192.335, 151.587, 150.367, 150.799, 191.474, 150.327, 150.461, 151.1, 189.674, 151.968, 150.991, 150.624, 151.715, 191.153, 150.255, 151.868, 151.129, 190.08, 151.245, 150.836, 152.264, 151.2, 190.85, 151.742, 151.477, 151.475, 194.413, 150.592, 150.935, 151.689, 191.04, 150.86, 151.824, 150.998, 151.636, 191.324, 150.236, 150.75, 151.797, 191.432, 151.778, 151.687, 150.807, 150.479, 190.524, 151.146, 151.165, 150.359, 191.599, 150.395, 151.508, 151.756, 191.326, 150.312, 150.629, 150.438, 150.373, 190.632, 151.329, 149.996],
  "Optimizer iterations": 121,
  "Qubits": 6,
  "Total Algorithm duration [s]": 19.35,
  "Total Classic duration [s]": 18.025846338272096,
  "Total Quantum duration [s]": 1.3241536617279053,
  "Expectation Value": -7.20556640625,
  "Optimal Expectation Value": -8.0,
  "Optimizer params": [0.6959343777252912, 0.23497751708308867, 0.9078417650615545, 0.8960227714425695, 0.746561249258571, 0.24363376982107937],
  "QPU": "3010002",
  "Problem": "MCP",
  "Size": 6,
  "P": 3,
  "Shots": 4096
}