{
  "Circuit execution durations [ms]": [3.6357, 3.6732, 3.7734, 3.6594, 3.677, 3.7407, 3.6754000000000002, 3.6413, 3.7651, 3.6803, 3.7126, 3.6929, 3.657, 3.6584, 3.6728, 3.7079, 3.6889000000000003, 3.6132999999999997, 3.6785, 3.732, 3.6974, 3.6901, 3.6677, 3.7163999999999997, 3.7725, 3.7039, 3.6974, 3.7095000000000002, 3.8571999999999997, 3.6769, 3.7027, 3.7686, 3.7196, 3.7025, 3.7976, 3.6885, 3.6955, 3.7409000000000003, 3.7721999999999998, 3.6755, 3.7019, 3.6873, 3.7222, 3.7664, 3.7103, 3.7361, 3.6819, 3.6696, 3.6912999999999996, 3.7497, 3.6812, 3.7036000000000002, 3.7018, 3.6647, 3.7536, 3.7229, 3.8124000000000002, 3.6729000000000003, 3.7375, 3.6819, 3.6859, 3.7877, 3.8847, 3.6283000000000003, 3.7339, 3.7031, 3.7225, 3.6397, 3.7218, 3.7079, 3.7103, 3.6788, 3.7017, 3.7134, 3.6904, 3.6706999999999996, 3.6619, 3.6999, 3.6788, 3.6688, 3.799, 3.8952, 3.6715, 3.6924, 3.7234, 3.7239, 3.7233, 3.7517, 3.7068000000000003, 3.7361999999999997, 3.7405, 3.6776999999999997, 3.7069, 3.7083, 3.7190000000000003, 3.6853, 3.6801999999999997, 3.7163999999999997, 3.6868, 3.7166, 3.7188, 3.7198],
  "Depth": 572.0,
  "Expectation Value": -2.7953317165374756,
  "Optimal Expectation Value": -3.0,
  "Optimizer durations [ms]": [37.016, 37.196, 47.888, 37.15, 37.363, 37.893, 37.369, 37.062, 38.141, 37.468, 37.588, 37.574, 37.259, 37.291, 37.346, 37.641, 37.374, 36.711, 37.58, 38.001, 37.647, 37.449, 37.088, 37.964, 38.115, 37.785, 37.524, 37.703, 39.264, 47.027, 37.621, 38.289, 37.791, 37.428, 38.803, 37.489, 37.358, 37.926, 38.522, 37.24, 37.615, 37.494, 37.879, 38.205, 37.504, 38.2, 37.349, 37.461, 37.533, 37.914, 37.634, 37.666, 37.731, 37.415, 38.16, 37.803, 38.545, 37.34, 37.84, 37.632, 37.509, 38.296, 39.679, 45.711, 38.113, 37.595, 37.829, 37.159, 37.642, 37.956, 37.473, 37.491, 37.486, 37.802, 37.405, 37.469, 37.229, 37.49, 37.531, 37.253, 38.614, 39.524, 47.005, 37.499, 37.834, 37.89, 37.803, 38.313, 37.591, 37.838, 38.161, 37.314, 37.702, 37.471, 38.097, 37.379, 37.468, 37.774, 37.4, 37.762, 37.922, 37.837],
  "Optimizer iterations": 102,
  "Optimizer params": [0.27382766393724073, 0.9258764744254596, 0.9999997063826966, 0.9914672613539747, 0.05074655113894441, 0.07353048617828267],
  "P": 3,
  "Problem": "MIS",
  "QJob durations [ms]": [3.6357, 3.6732, 3.7734, 3.6594, 3.677, 3.7407, 3.6754000000000002, 3.6413, 3.7651, 3.6803, 3.7126, 3.6929, 3.657, 3.6584, 3.6728, 3.7079, 3.6889000000000003, 3.6132999999999997, 3.6785, 3.732, 3.6974, 3.6901, 3.6677, 3.7163999999999997, 3.7725, 3.7039, 3.6974, 3.7095000000000002, 3.8571999999999997, 3.6769, 3.7027, 3.7686, 3.7196, 3.7025, 3.7976, 3.6885, 3.6955, 3.7409000000000003, 3.7721999999999998, 3.6755, 3.7019, 3.6873, 3.7222, 3.7664, 3.7103, 3.7361, 3.6819, 3.6696, 3.6912999999999996, 3.7497, 3.6812, 3.7036000000000002, 3.7018, 3.6647, 3.7536, 3.7229, 3.8124000000000002, 3.6729000000000003, 3.7375, 3.6819, 3.6859, 3.7877, 3.8847, 3.6283000000000003, 3.7339, 3.7031, 3.7225, 3.6397, 3.7218, 3.7079, 3.7103, 3.6788, 3.7017, 3.7134, 3.6904, 3.6706999999999996, 3.6619, 3.6999, 3.6788, 3.6688, 3.799, 3.8952, 3.6715, 3.6924, 3.7234, 3.7239, 3.7233, 3.7517, 3.7068000000000003, 3.7361999999999997, 3.7405, 3.6776999999999997, 3.7069, 3.7083, 3.7190000000000003, 3.6853, 3.6801999999999997, 3.7163999999999997, 3.6868, 3.7166, 3.7188, 3.7198],
  "QPU": "7000000",
  "Qubits": 13,
  "Queue durations [ms]": [0.0, 0.0, 0.0, 0.0, 0.0, 0.0, 0.0, 0.0, 0.0, 0.0, 0.0, 0.0, 0.0, 0.0, 0.0, 0.0, 0.0, 0.0, 0.0, 0.0, 0.0, 0.0, 0.0, 0.0, 0.0, 0.0, 0.0, 0.0, 0.0, 0.0, 0.0, 0.0, 0.0, 0.0, 0.0, 0.0, 0.0, 0.0, 0.0, 0.0, 0.0, 0.0, 0.0, 0.0, 0.0, 0.0, 0.0, 0.0, 0.0, 0.0, 0.0, 0.0, 0.0, 0.0, 0.0, 0.0, 0.0, 0.0, 0.0, 0.0, 0.0, 0.0, 0.0, 0.0, 0.0, 0.0, 0.0, 0.0, 0.0, 0.0, 0.0, 0.0, 0.0, 0.0, 0.0, 0.0, 0.0, 0.0, 0.0, 0.0, 0.0, 0.0, 0.0, 0.0, 0.0, 0.0, 0.0, 0.0, 0.0, 0.0, 0.0, 0.0, 0.0, 0.0, 0.0, 0.0, 0.0, 0.0, 0.0, 0.0, 0.0, 0.0],
  "Shots": 4096,
  "Size": 10,
  "Total Algorithm duration [s]": 3.884,
  "Total Classic duration [s]": 3.5055724999999995,
  "Total Quantum duration [s]": 0.3784275000000003
}
