{
  "Circuit execution durations [ms]": [3.7287000000000003, 3.7087, 3.6678, 3.6931, 3.6898, 3.6556, 3.7122, 3.729, 3.682, 3.6575, 3.6928, 3.6507, 3.6827, 3.7209, 3.6811000000000003, 3.6725999999999996, 3.7201, 3.6603999999999997, 3.8817, 3.7345, 3.7076000000000002, 3.6598, 3.6547, 3.7312, 3.6806, 3.6571, 3.6589, 3.6698, 3.7158, 3.6892, 3.6546, 3.6904, 3.6871, 3.6806, 3.6733, 3.6354, 3.7019, 3.6678, 3.6537, 3.7339, 3.6324, 3.6354, 3.6885, 3.7015, 3.7556, 3.7211000000000003, 3.7023, 3.6729000000000003, 3.6907, 3.6704, 3.6973000000000003, 3.6893, 3.7035, 3.7245, 3.641, 3.7173000000000003, 3.7477, 3.6376, 3.7107, 3.6968, 3.6847999999999996, 3.6667, 3.6696, 3.6844, 3.6804, 3.6909, 3.6652, 3.6568, 3.6957, 3.6709, 3.6706, 3.7783, 3.6985, 3.6693],
  "Depth": 572.0,
  "Expectation Value": -2.803680896759033,
  "Optimal Expectation Value": -3.0,
  "Optimizer durations [ms]": [37.962, 37.823, 37.141, 37.562, 37.533, 37.014, 37.9, 38.003, 37.456, 37.171, 37.31, 37.218, 37.251, 38.003, 37.408, 37.399, 37.583, 37.434, 39.335, 45.548, 37.593, 37.415, 37.198, 37.887, 37.353, 37.109, 37.353, 41.796, 37.867, 37.402, 37.18, 37.487, 37.539, 37.297, 37.238, 36.907, 37.58, 37.358, 36.917, 38.068, 37.086, 36.75, 37.693, 37.7, 38.262, 47.421, 37.628, 37.387, 37.497, 37.372, 37.642, 37.275, 37.782, 37.873, 37.04, 37.571, 38.236, 37.031, 37.654, 37.505, 37.268, 37.209, 37.345, 37.553, 37.159, 37.72, 37.223, 37.238, 37.577, 37.127, 37.495, 38.53, 37.722, 38.235],
  "Optimizer iterations": 74,
  "Optimizer params": [0.8297264257652567, 0.5936724310866879, 0.4252639325126221, 0.45659636953584387, 0.9813142574740779, 0.5382904745325093],
  "P": 3,
  "Problem": "MIS",
  "QJob durations [ms]": [3.7287000000000003, 3.7087, 3.6678, 3.6931, 3.6898, 3.6556, 3.7122, 3.729, 3.682, 3.6575, 3.6928, 3.6507, 3.6827, 3.7209, 3.6811000000000003, 3.6725999999999996, 3.7201, 3.6603999999999997, 3.8817, 3.7345, 3.7076000000000002, 3.6598, 3.6547, 3.7312, 3.6806, 3.6571, 3.6589, 3.6698, 3.7158, 3.6892, 3.6546, 3.6904, 3.6871, 3.6806, 3.6733, 3.6354, 3.7019, 3.6678, 3.6537, 3.7339, 3.6324, 3.6354, 3.6885, 3.7015, 3.7556, 3.7211000000000003, 3.7023, 3.6729000000000003, 3.6907, 3.6704, 3.6973000000000003, 3.6893, 3.7035, 3.7245, 3.641, 3.7173000000000003, 3.7477, 3.6376, 3.7107, 3.6968, 3.6847999999999996, 3.6667, 3.6696, 3.6844, 3.6804, 3.6909, 3.6652, 3.6568, 3.6957, 3.6709, 3.6706, 3.7783, 3.6985, 3.6693],
  "QPU": "7000000",
  "Qubits": 13,
  "Queue durations [ms]": [0.0, 0.0, 0.0, 0.0, 0.0, 0.0, 0.0, 0.0, 0.0, 0.0, 0.0, 0.0, 0.0, 0.0, 0.0, 0.0, 0.0, 0.0, 0.0, 0.0, 0.0, 0.0, 0.0, 0.0, 0.0, 0.0, 0.0, 0.0, 0.0, 0.0, 0.0, 0.0, 0.0, 0.0, 0.0, 0.0, 0.0, 0.0, 0.0, 0.0, 0.0, 0.0, 0.0, 0.0, 0.0, 0.0, 0.0, 0.0, 0.0, 0.0, 0.0, 0.0, 0.0, 0.0, 0.0, 0.0, 0.0, 0.0, 0.0, 0.0, 0.0, 0.0, 0.0, 0.0, 0.0, 0.0, 0.0, 0.0, 0.0, 0.0, 0.0, 0.0, 0.0, 0.0],
  "Shots": 4096,
  "Size": 10,
  "Total Algorithm duration [s]": 2.798,
  "Total Classic duration [s]": 2.5249561,
  "Total Quantum duration [s]": 0.2730439
}
