{
  "Circuit execution durations [ms]": [3.6532, 3.6545, 3.6725, 3.6955999999999998, 3.715, 3.6531, 3.7737000000000003, 3.716, 3.7342, 3.6747, 3.686, 3.7225, 3.6862000000000004, 3.7558000000000002, 3.7089, 3.625, 3.6932, 3.7039, 3.7073, 3.6939, 3.7245, 3.7419, 3.6872, 3.6998, 3.6827, 3.6579, 3.6716, 3.6874, 3.7107, 3.7049000000000003, 3.6936999999999998, 3.7066, 3.8154999999999997, 3.7084, 3.6734, 3.6434, 3.6698, 3.7526, 3.6967, 3.6538999999999997, 3.6670000000000003, 3.747, 3.6688, 3.6484, 3.6787, 3.6477, 3.6519, 3.6554, 3.7206, 3.6691, 3.7014, 3.6831, 3.6638, 3.7173000000000003, 3.6741, 3.713, 3.6782, 3.7531, 3.7145, 3.9144999999999994, 3.6697, 3.6879999999999997, 3.6639, 3.6626, 3.7001, 3.6207000000000003, 3.6714, 3.6925, 3.7298999999999998, 3.7547, 3.6740000000000004, 3.6706999999999996, 3.7241, 3.7106, 3.6719, 3.6799, 3.678, 3.7596000000000003, 3.6538, 3.6736999999999997, 3.6753, 3.6557, 3.7020999999999997, 3.6673, 3.6837, 3.7675, 3.6911, 3.6566, 3.69, 3.6704, 3.6870000000000003, 3.6614999999999998, 3.7561999999999998, 3.879, 3.6516, 3.7125, 3.6573, 3.6721000000000004, 3.6813000000000002, 3.7039999999999997, 3.6803],
  "Depth": 572.0,
  "Expectation Value": -2.8050639629364014,
  "Optimal Expectation Value": -3.0,
  "Optimizer durations [ms]": [37.152, 37.37, 37.215, 37.596, 37.95, 37.089, 38.107, 38.031, 37.795, 40.492, 42.373, 37.976, 42.202, 38.38, 47.38, 41.47, 37.845, 37.484, 37.798, 37.485, 37.765, 38.166, 37.281, 37.812, 37.582, 37.094, 37.241, 37.454, 37.682, 37.731, 37.393, 37.729, 38.731, 47.337, 37.319, 37.03, 37.446, 38.06, 37.678, 36.923, 37.403, 37.989, 37.182, 37.036, 37.241, 37.137, 37.023, 37.224, 37.812, 37.348, 37.72, 37.428, 37.336, 37.596, 37.254, 37.831, 37.153, 38.405, 37.775, 39.777, 45.678, 37.502, 37.069, 37.228, 37.667, 36.774, 37.399, 37.362, 38.046, 37.912, 37.61, 37.176, 37.963, 37.661, 37.37, 37.214, 37.421, 38.306, 37.06, 37.242, 37.367, 37.149, 37.572, 37.091, 37.409, 38.487, 37.484, 37.038, 37.536, 37.324, 37.338, 37.357, 38.265, 39.311, 46.494, 37.662, 37.308, 37.441, 37.323, 37.561, 37.475],
  "Optimizer iterations": 101,
  "Optimizer params": [0.7037346034338371, 0.9441793865997532, 0.4424862215156201, 0.6987599456961304, 0.8492318722501053, 0.315011922757663],
  "P": 3,
  "Problem": "MIS",
  "QJob durations [ms]": [3.6532, 3.6545, 3.6725, 3.6955999999999998, 3.715, 3.6531, 3.7737000000000003, 3.716, 3.7342, 3.6747, 3.686, 3.7225, 3.6862000000000004, 3.7558000000000002, 3.7089, 3.625, 3.6932, 3.7039, 3.7073, 3.6939, 3.7245, 3.7419, 3.6872, 3.6998, 3.6827, 3.6579, 3.6716, 3.6874, 3.7107, 3.7049000000000003, 3.6936999999999998, 3.7066, 3.8154999999999997, 3.7084, 3.6734, 3.6434, 3.6698, 3.7526, 3.6967, 3.6538999999999997, 3.6670000000000003, 3.747, 3.6688, 3.6484, 3.6787, 3.6477, 3.6519, 3.6554, 3.7206, 3.6691, 3.7014, 3.6831, 3.6638, 3.7173000000000003, 3.6741, 3.713, 3.6782, 3.7531, 3.7145, 3.9144999999999994, 3.6697, 3.6879999999999997, 3.6639, 3.6626, 3.7001, 3.6207000000000003, 3.6714, 3.6925, 3.7298999999999998, 3.7547, 3.6740000000000004, 3.6706999999999996, 3.7241, 3.7106, 3.6719, 3.6799, 3.678, 3.7596000000000003, 3.6538, 3.6736999999999997, 3.6753, 3.6557, 3.7020999999999997, 3.6673, 3.6837, 3.7675, 3.6911, 3.6566, 3.69, 3.6704, 3.6870000000000003, 3.6614999999999998, 3.7561999999999998, 3.879, 3.6516, 3.7125, 3.6573, 3.6721000000000004, 3.6813000000000002, 3.7039999999999997, 3.6803],
  "QPU": "7000000",
  "Qubits": 13,
  "Queue durations [ms]": [0.0, 0.0, 0.0, 0.0, 0.0, 0.0, 0.0, 0.0, 0.0, 0.0, 0.0, 0.0, 0.0, 0.0, 0.0, 0.0, 0.0, 0.0, 0.0, 0.0, 0.0, 0.0, 0.0, 0.0, 0.0, 0.0, 0.0, 0.0, 0.0, 0.0, 0.0, 0.0, 0.0, 0.0, 0.0, 0.0, 0.0, 0.0, 0.0, 0.0, 0.0, 0.0, 0.0, 0.0, 0.0, 0.0, 0.0, 0.0, 0.0, 0.0, 0.0, 0.0, 0.0, 0.0, 0.0, 0.0, 0.0, 0.0, 0.0, 0.0, 0.0, 0.0, 0.0, 0.0, 0.0, 0.0, 0.0, 0.0, 0.0, 0.0, 0.0, 0.0, 0.0, 0.0, 0.0, 0.0, 0.0, 0.0, 0.0, 0.0, 0.0, 0.0, 0.0, 0.0, 0.0, 0.0, 0.0, 0.0, 0.0, 0.0, 0.0, 0.0, 0.0, 0.0, 0.0, 0.0, 0.0, 0.0, 0.0, 0.0, 0.0],
  "Shots": 4096,
  "Size": 10,
  "Total Algorithm duration [s]": 3.848,
  "Total Classic duration [s]": 3.4747723,
  "Total Quantum duration [s]": 0.37322769999999983
}
