{
  "Circuit execution durations [ms]": [3.6888, 3.6839, 3.6943, 3.6582, 3.6732, 3.6833, 3.6489000000000003, 3.659, 3.6748000000000003, 3.6432, 3.6351, 3.6603999999999997, 3.6601, 3.6979, 3.7028999999999996, 3.6753, 3.7342, 3.678, 3.6698999999999997, 3.6740000000000004, 3.7655000000000003, 3.6822, 3.6249, 3.6683000000000003, 3.6663, 3.6646, 3.6827, 3.7087, 3.6849000000000003, 3.7018, 3.7199, 3.6446, 3.6736, 3.6804, 3.6613, 3.6903, 3.6947, 3.7407, 3.6483000000000003, 3.6537, 3.7163, 3.6895000000000002, 3.7266, 3.6872, 3.6794000000000002, 3.6473999999999998, 3.7288, 3.7269, 3.755, 3.8777, 3.5402, 3.6762, 3.6459, 3.7620999999999998, 3.6898999999999997, 3.6676, 3.6503, 3.6487999999999996, 3.7077999999999998, 3.6635, 3.6816, 3.7472999999999996, 3.6695, 3.6543, 3.679, 3.7020999999999997, 3.6916, 3.6698999999999997, 3.7365, 3.6911, 3.6846, 3.6846, 3.7289, 4.1023, 3.7234, 3.6629, 3.6638, 3.7332, 3.6587, 3.6706, 3.6609, 3.705, 3.6351999999999998, 3.6584999999999996, 3.6691, 3.6767000000000003, 3.6826, 3.6496, 3.6703, 3.6787, 3.6654999999999998, 3.6487, 3.669, 3.7632999999999996, 3.6658, 3.6963, 3.7311, 3.7066999999999997, 3.6609, 3.8661, 3.6435, 3.6891],
  "Depth": 572.0,
  "Expectation Value": -2.796855926513672,
  "Optimal Expectation Value": -3.0,
  "Optimizer durations [ms]": [37.542, 37.466, 37.566, 36.953, 37.617, 37.492, 37.127, 37.037, 37.51, 37.143, 36.985, 37.22, 37.25, 37.652, 37.4, 37.34, 38.083, 37.432, 37.151, 37.598, 47.968, 37.707, 36.89, 37.302, 37.036, 37.513, 37.259, 37.875, 37.508, 37.417, 37.967, 36.871, 37.434, 37.449, 37.191, 37.564, 37.333, 38.022, 37.262, 36.967, 37.862, 37.577, 37.654, 37.555, 37.548, 37.004, 37.725, 38.024, 37.979, 39.563, 45.668, 37.308, 42.475, 38.037, 47.156, 42.89, 37.178, 36.914, 37.878, 37.082, 37.527, 37.956, 37.458, 37.176, 37.251, 37.641, 37.272, 37.309, 38.031, 37.32, 37.566, 37.464, 37.721, 47.188, 37.711, 37.079, 37.443, 37.701, 37.347, 37.451, 36.974, 37.776, 36.881, 37.363, 37.351, 37.46, 37.389, 37.147, 37.348, 37.169, 37.457, 37.06, 37.402, 38.138, 37.327, 37.722, 37.697, 37.815, 36.998, 39.497, 46.822, 37.56],
  "Optimizer iterations": 102,
  "Optimizer params": [0.10251841742189326, 0.615128306773189, 0.302181014343165, 0.7238567068417576, 0.9999999999999994, 0.06415615210179847],
  "P": 3,
  "Problem": "MIS",
  "QJob durations [ms]": [3.6888, 3.6839, 3.6943, 3.6582, 3.6732, 3.6833, 3.6489000000000003, 3.659, 3.6748000000000003, 3.6432, 3.6351, 3.6603999999999997, 3.6601, 3.6979, 3.7028999999999996, 3.6753, 3.7342, 3.678, 3.6698999999999997, 3.6740000000000004, 3.7655000000000003, 3.6822, 3.6249, 3.6683000000000003, 3.6663, 3.6646, 3.6827, 3.7087, 3.6849000000000003, 3.7018, 3.7199, 3.6446, 3.6736, 3.6804, 3.6613, 3.6903, 3.6947, 3.7407, 3.6483000000000003, 3.6537, 3.7163, 3.6895000000000002, 3.7266, 3.6872, 3.6794000000000002, 3.6473999999999998, 3.7288, 3.7269, 3.755, 3.8777, 3.5402, 3.6762, 3.6459, 3.7620999999999998, 3.6898999999999997, 3.6676, 3.6503, 3.6487999999999996, 3.7077999999999998, 3.6635, 3.6816, 3.7472999999999996, 3.6695, 3.6543, 3.679, 3.7020999999999997, 3.6916, 3.6698999999999997, 3.7365, 3.6911, 3.6846, 3.6846, 3.7289, 4.1023, 3.7234, 3.6629, 3.6638, 3.7332, 3.6587, 3.6706, 3.6609, 3.705, 3.6351999999999998, 3.6584999999999996, 3.6691, 3.6767000000000003, 3.6826, 3.6496, 3.6703, 3.6787, 3.6654999999999998, 3.6487, 3.669, 3.7632999999999996, 3.6658, 3.6963, 3.7311, 3.7066999999999997, 3.6609, 3.8661, 3.6435, 3.6891],
  "QPU": "7000000",
  "Qubits": 13,
  "Queue durations [ms]": [0.0, 0.0, 0.0, 0.0, 0.0, 0.0, 0.0, 0.0, 0.0, 0.0, 0.0, 0.0, 0.0, 0.0, 0.0, 0.0, 0.0, 0.0, 0.0, 0.0, 0.0, 0.0, 0.0, 0.0, 0.0, 0.0, 0.0, 0.0, 0.0, 0.0, 0.0, 0.0, 0.0, 0.0, 0.0, 0.0, 0.0, 0.0, 0.0, 0.0, 0.0, 0.0, 0.0, 0.0, 0.0, 0.0, 0.0, 0.0, 0.0, 0.0, 0.0, 0.0, 0.0, 0.0, 0.0, 0.0, 0.0, 0.0, 0.0, 0.0, 0.0, 0.0, 0.0, 0.0, 0.0, 0.0, 0.0, 0.0, 0.0, 0.0, 0.0, 0.0, 0.0, 0.0, 0.0, 0.0, 0.0, 0.0, 0.0, 0.0, 0.0, 0.0, 0.0, 0.0, 0.0, 0.0, 0.0, 0.0, 0.0, 0.0, 0.0, 0.0, 0.0, 0.0, 0.0, 0.0, 0.0, 0.0, 0.0, 0.0, 0.0, 0.0],
  "Shots": 4096,
  "Size": 10,
  "Total Algorithm duration [s]": 3.881,
  "Total Classic duration [s]": 3.5046315999999997,
  "Total Quantum duration [s]": 0.37636840000000005
}
