{
  "Circuit execution durations [ms]": [3.6831, 3.6803, 3.6735, 3.6833, 3.6894, 3.6946000000000003, 3.7001999999999997, 3.6787, 3.7298, 3.6372, 3.682, 3.6989, 3.6807, 3.7423, 3.9087999999999994, 3.695, 3.6878, 3.6801999999999997, 3.6686, 3.7128, 3.721, 3.6492, 3.7081000000000004, 3.6172, 3.6991, 3.6638, 3.6998, 3.6818, 3.6868, 3.6641, 3.6721000000000004, 3.6775, 3.7224, 3.6735, 3.7417000000000002, 3.6883, 3.6676, 3.7481, 3.6821, 3.7001, 3.7648, 3.6953, 3.6936999999999998, 3.6828, 3.6716, 3.6507, 3.7376, 3.7859, 3.6771, 3.6270000000000002, 3.7047999999999996, 3.6468999999999996, 3.6472, 3.6500999999999997, 3.6685, 3.7276000000000002, 3.6468999999999996, 3.6532, 3.7266999999999997, 3.6278, 3.712, 3.6544, 3.6814999999999998, 3.6532999999999998, 3.6743, 3.6854, 3.7509, 3.7433, 3.6516, 3.6483000000000003, 3.6180000000000003, 3.7171000000000003, 3.6427, 3.6883, 3.6978, 3.6592000000000002, 3.6649, 3.6595999999999997, 3.6486, 3.6270000000000002, 3.6574, 3.6465, 3.6931, 3.6656000000000004, 3.6619, 3.66, 3.6538, 3.6765, 3.6679999999999997, 3.7163, 3.6742, 3.6719999999999997, 3.666, 3.7982, 3.646, 3.6905, 3.6549, 3.6351999999999998, 3.6519, 3.6107, 3.6662, 3.6635999999999997, 3.6621, 3.6534, 3.6554, 3.6706999999999996, 3.6399000000000004, 3.6805000000000003, 3.7245999999999997, 3.64, 3.6687, 3.706],
  "Depth": 572.0,
  "Expectation Value": -2.7956724166870117,
  "Optimal Expectation Value": -3.0,
  "Optimizer durations [ms]": [37.717, 37.347, 37.498, 37.37, 37.275, 37.897, 37.481, 37.362, 37.991, 36.955, 37.473, 37.617, 37.345, 38.157, 42.156, 37.662, 37.587, 37.53, 37.43, 37.632, 37.966, 37.219, 37.505, 36.857, 37.627, 37.243, 37.545, 37.589, 37.615, 37.378, 37.332, 37.444, 37.707, 37.469, 37.966, 37.583, 37.435, 38.141, 37.39, 37.622, 38.254, 37.592, 41.083, 37.387, 40.052, 36.972, 39.178, 38.615, 47.215, 40.643, 37.594, 37.295, 36.847, 37.126, 37.208, 38.057, 36.973, 37.342, 37.838, 36.87, 37.504, 37.205, 37.245, 37.094, 37.43, 37.542, 38.055, 47.588, 37.139, 37.123, 36.747, 37.838, 36.984, 37.609, 37.558, 37.299, 37.228, 37.181, 36.948, 36.904, 36.957, 37.251, 37.541, 37.19, 37.21, 37.266, 37.148, 37.425, 37.106, 37.784, 37.166, 37.454, 37.16, 38.709, 46.705, 37.497, 37.242, 37.076, 37.161, 37.131, 37.522, 37.346, 37.004, 37.392, 37.169, 37.399, 36.939, 37.38, 37.991, 37.055, 37.104, 37.711],
  "Optimizer iterations": 112,
  "Optimizer params": [0.2743686858143121, 0.21779505213866251, 0.999924727782365, 0.9995999562565184, 0.042370476063214715, 0.9784293300298434],
  "P": 3,
  "Problem": "MIS",
  "QJob durations [ms]": [3.6831, 3.6803, 3.6735, 3.6833, 3.6894, 3.6946000000000003, 3.7001999999999997, 3.6787, 3.7298, 3.6372, 3.682, 3.6989, 3.6807, 3.7423, 3.9087999999999994, 3.695, 3.6878, 3.6801999999999997, 3.6686, 3.7128, 3.721, 3.6492, 3.7081000000000004, 3.6172, 3.6991, 3.6638, 3.6998, 3.6818, 3.6868, 3.6641, 3.6721000000000004, 3.6775, 3.7224, 3.6735, 3.7417000000000002, 3.6883, 3.6676, 3.7481, 3.6821, 3.7001, 3.7648, 3.6953, 3.6936999999999998, 3.6828, 3.6716, 3.6507, 3.7376, 3.7859, 3.6771, 3.6270000000000002, 3.7047999999999996, 3.6468999999999996, 3.6472, 3.6500999999999997, 3.6685, 3.7276000000000002, 3.6468999999999996, 3.6532, 3.7266999999999997, 3.6278, 3.712, 3.6544, 3.6814999999999998, 3.6532999999999998, 3.6743, 3.6854, 3.7509, 3.7433, 3.6516, 3.6483000000000003, 3.6180000000000003, 3.7171000000000003, 3.6427, 3.6883, 3.6978, 3.6592000000000002, 3.6649, 3.6595999999999997, 3.6486, 3.6270000000000002, 3.6574, 3.6465, 3.6931, 3.6656000000000004, 3.6619, 3.66, 3.6538, 3.6765, 3.6679999999999997, 3.7163, 3.6742, 3.6719999999999997, 3.666, 3.7982, 3.646, 3.6905, 3.6549, 3.6351999999999998, 3.6519, 3.6107, 3.6662, 3.6635999999999997, 3.6621, 3.6534, 3.6554, 3.6706999999999996, 3.6399000000000004, 3.6805000000000003, 3.7245999999999997, 3.64, 3.6687, 3.706],
  "QPU": "7000000",
  "Qubits": 13,
  "Queue durations [ms]": [0.0, 0.0, 0.0, 0.0, 0.0, 0.0, 0.0, 0.0, 0.0, 0.0, 0.0, 0.0, 0.0, 0.0, 0.0, 0.0, 0.0, 0.0, 0.0, 0.0, 0.0, 0.0, 0.0, 0.0, 0.0, 0.0, 0.0, 0.0, 0.0, 0.0, 0.0, 0.0, 0.0, 0.0, 0.0, 0.0, 0.0, 0.0, 0.0, 0.0, 0.0, 0.0, 0.0, 0.0, 0.0, 0.0, 0.0, 0.0, 0.0, 0.0, 0.0, 0.0, 0.0, 0.0, 0.0, 0.0, 0.0, 0.0, 0.0, 0.0, 0.0, 0.0, 0.0, 0.0, 0.0, 0.0, 0.0, 0.0, 0.0, 0.0, 0.0, 0.0, 0.0, 0.0, 0.0, 0.0, 0.0, 0.0, 0.0, 0.0, 0.0, 0.0, 0.0, 0.0, 0.0, 0.0, 0.0, 0.0, 0.0, 0.0, 0.0, 0.0, 0.0, 0.0, 0.0, 0.0, 0.0, 0.0, 0.0, 0.0, 0.0, 0.0, 0.0, 0.0, 0.0, 0.0, 0.0, 0.0, 0.0, 0.0, 0.0, 0.0],
  "Shots": 4096,
  "Size": 10,
  "Total Algorithm duration [s]": 4.236,
  "Total Classic duration [s]": 3.8236342999999997,
  "Total Quantum duration [s]": 0.41236569999999995
}
