{
  "Circuit execution durations [ms]": [3.7245, 3.6949, 3.7374, 3.7052, 3.6976, 3.7024, 3.6522, 3.65, 3.7796000000000003, 3.6869, 3.7101, 3.662, 3.6576, 3.6998, 3.6788, 3.6743, 3.7186, 3.7198, 3.7094, 3.657, 3.7291999999999996, 3.7038, 3.7025, 3.6441, 3.6735, 3.7163999999999997, 3.7081000000000004, 3.7047999999999996, 3.7119, 3.7131999999999996, 3.7134, 3.665, 3.7020999999999997, 3.6763, 3.7507, 3.6361000000000003, 3.6814999999999998, 3.7025, 3.5515, 3.7084, 3.7076000000000002, 3.8117, 3.7439, 3.6752, 3.697, 3.7135, 3.6681, 3.699, 3.7117, 3.7908, 3.7087, 3.6792000000000002, 3.6999, 3.7168, 3.7147, 3.6969, 3.7133000000000003, 3.6651000000000002, 3.6774, 3.6812, 3.7923, 3.7017, 3.6881, 3.7063, 3.7012, 3.6995999999999998, 3.6754000000000002, 3.6751, 3.6827, 3.7868, 3.6736999999999997, 3.6849000000000003, 3.7109, 3.6809999999999996, 3.6788, 3.6993, 3.7406, 3.6957999999999998, 3.725, 3.6557999999999997, 3.766, 3.7153, 3.7149, 3.6602, 3.685, 3.6819, 3.7223, 3.9316999999999998, 3.7356, 3.6795, 3.6774, 3.7006, 3.6503, 3.6419, 3.6614, 3.7359, 3.7536, 3.7266999999999997, 3.682, 3.6849000000000003, 3.6951, 3.7263, 3.6607, 3.695, 3.684, 3.7014, 3.6879999999999997],
  "Depth": 572.0,
  "Expectation Value": -2.796414613723755,
  "Optimal Expectation Value": -3.0,
  "Optimizer durations [ms]": [38.073, 37.387, 38.204, 37.602, 37.563, 37.616, 37.153, 37.218, 48.207, 37.247, 37.695, 37.278, 37.32, 37.632, 37.303, 37.401, 37.751, 37.801, 37.779, 37.184, 38.03, 37.456, 37.773, 37.054, 37.309, 37.65, 37.683, 37.581, 37.575, 37.889, 37.658, 37.32, 37.734, 37.413, 38.236, 36.763, 37.567, 40.623, 45.37, 37.745, 39.523, 38.717, 47.613, 37.219, 37.75, 37.764, 37.137, 37.437, 37.904, 38.336, 37.827, 37.277, 37.755, 37.563, 37.902, 37.625, 37.722, 37.063, 37.504, 37.344, 38.306, 47.286, 37.659, 37.633, 37.614, 37.681, 37.223, 37.441, 37.43, 38.565, 38.248, 37.359, 37.555, 37.698, 37.405, 37.502, 37.805, 37.73, 37.93, 36.926, 38.382, 37.859, 37.712, 37.289, 37.609, 37.403, 37.726, 40.076, 42.797, 37.424, 37.414, 37.552, 37.101, 36.996, 37.224, 38.047, 37.942, 37.756, 37.454, 37.226, 37.701, 37.968, 37.18, 37.707, 37.225, 37.742, 37.419],
  "Optimizer iterations": 107,
  "Optimizer params": [1.0, 0.005328826842434218, 0.8899585432468835, 0.9163512164121912, 0.5865097675709529, 0.4301154696387599],
  "P": 3,
  "Problem": "MIS",
  "QJob durations [ms]": [3.7245, 3.6949, 3.7374, 3.7052, 3.6976, 3.7024, 3.6522, 3.65, 3.7796000000000003, 3.6869, 3.7101, 3.662, 3.6576, 3.6998, 3.6788, 3.6743, 3.7186, 3.7198, 3.7094, 3.657, 3.7291999999999996, 3.7038, 3.7025, 3.6441, 3.6735, 3.7163999999999997, 3.7081000000000004, 3.7047999999999996, 3.7119, 3.7131999999999996, 3.7134, 3.665, 3.7020999999999997, 3.6763, 3.7507, 3.6361000000000003, 3.6814999999999998, 3.7025, 3.5515, 3.7084, 3.7076000000000002, 3.8117, 3.7439, 3.6752, 3.697, 3.7135, 3.6681, 3.699, 3.7117, 3.7908, 3.7087, 3.6792000000000002, 3.6999, 3.7168, 3.7147, 3.6969, 3.7133000000000003, 3.6651000000000002, 3.6774, 3.6812, 3.7923, 3.7017, 3.6881, 3.7063, 3.7012, 3.6995999999999998, 3.6754000000000002, 3.6751, 3.6827, 3.7868, 3.6736999999999997, 3.6849000000000003, 3.7109, 3.6809999999999996, 3.6788, 3.6993, 3.7406, 3.6957999999999998, 3.725, 3.6557999999999997, 3.766, 3.7153, 3.7149, 3.6602, 3.685, 3.6819, 3.7223, 3.9316999999999998, 3.7356, 3.6795, 3.6774, 3.7006, 3.6503, 3.6419, 3.6614, 3.7359, 3.7536, 3.7266999999999997, 3.682, 3.6849000000000003, 3.6951, 3.7263, 3.6607, 3.695, 3.684, 3.7014, 3.6879999999999997],
  "QPU": "7000000",
  "Qubits": 13,
  "Queue durations [ms]": [0.0, 0.0, 0.0, 0.0, 0.0, 0.0, 0.0, 0.0, 0.0, 0.0, 0.0, 0.0, 0.0, 0.0, 0.0, 0.0, 0.0, 0.0, 0.0, 0.0, 0.0, 0.0, 0.0, 0.0, 0.0, 0.0, 0.0, 0.0, 0.0, 0.0, 0.0, 0.0, 0.0, 0.0, 0.0, 0.0, 0.0, 0.0, 0.0, 0.0, 0.0, 0.0, 0.0, 0.0, 0.0, 0.0, 0.0, 0.0, 0.0, 0.0, 0.0, 0.0, 0.0, 0.0, 0.0, 0.0, 0.0, 0.0, 0.0, 0.0, 0.0, 0.0, 0.0, 0.0, 0.0, 0.0, 0.0, 0.0, 0.0, 0.0, 0.0, 0.0, 0.0, 0.0, 0.0, 0.0, 0.0, 0.0, 0.0, 0.0, 0.0, 0.0, 0.0, 0.0, 0.0, 0.0, 0.0, 0.0, 0.0, 0.0, 0.0, 0.0, 0.0, 0.0, 0.0, 0.0, 0.0, 0.0, 0.0, 0.0, 0.0, 0.0, 0.0, 0.0, 0.0, 0.0, 0.0],
  "Shots": 4096,
  "Size": 10,
  "Total Algorithm duration [s]": 4.073,
  "Total Classic duration [s]": 3.6770026000000002,
  "Total Quantum duration [s]": 0.3959974000000002
}
