{
  "Circuit execution durations [ms]": [38.11800479888916, 39.59453105926514, 38.29813003540039, 38.31970691680908, 39.20304775238037, 40.282368659973145, 38.99526596069336, 39.33084011077881, 37.8795862197876, 38.81192207336426, 38.107872009277344, 38.192033767700195, 40.25626182556152, 38.49232196807861, 36.97824478149414, 41.394948959350586, 38.36321830749512, 38.7803316116333, 38.92922401428223, 40.82357883453369, 36.37504577636719, 37.74988651275635, 36.553382873535156, 37.369489669799805, 37.738800048828125, 37.17958927154541, 40.460824966430664, 39.44563865661621, 38.00153732299805, 39.41500186920166, 38.97500038146973, 37.94288635253906, 41.13197326660156, 37.57667541503906, 39.11912441253662, 37.37747669219971, 39.96288776397705, 37.89412975311279, 39.10255432128906, 41.61858558654785, 37.92285919189453, 40.82167148590088, 38.20061683654785, 38.219571113586426, 39.1315221786499, 39.75260257720947, 38.70654106140137, 39.14904594421387, 37.73856163024902, 37.547945976257324],
  "Depth": 2.0,
  "Expectation Value": -1.6454943418502808,
  "Optimal Expectation Value": -1.746999979019165,
  "Optimizer durations [ms]": [368.012, 415.561, 415.494, 412.306, 417.148, 371.939, 413.253, 418.503, 411.857, 416.165, 366.295, 410.507, 421.161, 410.904, 414.816, 374.954, 411.859, 413.657, 413.454, 421.203, 363.752, 411.423, 412.03, 409.813, 413.914, 366.973, 415.539, 418.696, 412.074, 416.594, 374.119, 410.778, 420.951, 411.883, 413.695, 363.117, 414.759, 412.893, 413.73, 419.835, 366.897, 414.237, 413.392, 411.313, 417.275, 371.306, 412.238, 420.006, 411.78, 412.643],
  "Optimizer iterations": 50,
  "Optimizer params": [0.0, 0.5152454498441045, 5.5511151231257815e-17],
  "P": 0,
  "Problem": "RH",
  "QJob durations [ms]": [46.11659049987793, 47.76644706726074, 46.21279239654541, 46.23675346374512, 47.30963706970215, 48.044800758361816, 47.02281951904297, 46.947598457336426, 45.63462734222412, 46.834707260131836, 45.75061798095703, 46.15664482116699, 48.12741279602051, 45.75479030609131, 44.978976249694824, 49.156785011291504, 46.334266662597656, 45.973777770996094, 46.75436019897461, 48.795461654663086, 44.10409927368164, 45.68624496459961, 44.237494468688965, 45.02749443054199, 45.894503593444824, 44.90339756011963, 48.3778715133667, 47.31094837188721, 45.70209980010986, 47.28686809539795, 47.45078086853027, 45.96352577209473, 48.853397369384766, 45.41504383087158, 46.061158180236816, 44.541120529174805, 47.939300537109375, 45.14014720916748, 46.92232608795166, 49.09563064575195, 45.64344882965088, 47.8057861328125, 45.01056671142578, 45.47274112701416, 47.16956615447998, 46.98479175567627, 46.60356044769287, 47.327280044555664, 45.3944206237793, 45.05789279937744],
  "QPU": "3000020",
  "Qubits": 3,
  "Queue durations [ms]": [0.0, 0.0, 0.0, 0.0, 0.0, 0.0, 0.0, 0.0, 0.0, 0.0, 0.0, 0.0, 0.0, 0.0, 0.0, 0.0, 0.0, 0.0, 0.0, 0.0, 0.0, 0.0, 0.0, 0.0, 0.0, 0.0, 0.0, 0.0, 0.0, 0.0, 0.0, 0.0, 0.0, 0.0, 0.0, 0.0, 0.0, 0.0, 0.0, 0.0, 0.0, 0.0, 0.0, 0.0, 0.0, 0.0, 0.0, 0.0, 0.0, 0.0],
  "Shots": 4096,
  "Size": 3,
  "Total Algorithm duration [s]": 20.266,
  "Total Classic duration [s]": 17.94170662498474,
  "Total Quantum duration [s]": 2.324293375015259
}
