{
  "Depth": 95.0,
  "Expectation Value": -5.949926376342773,
  "Job durations [ms]": [0.6449, 0.61, 0.618, 0.6388, 0.7396, 0.5998, 0.6029, 0.844, 0.6922, 0.6917, 0.8587999999999999, 0.6911, 0.611, 0.6825, 0.9255, 0.6144, 0.588, 0.6928000000000001, 0.6045999999999999, 0.8964, 0.6304000000000001, 0.8298, 0.7366999999999999, 0.6221, 0.6327, 0.5653, 0.8595, 0.6095999999999999, 0.6251, 0.7651, 0.6258, 0.7494999999999999, 0.5861, 0.6177, 0.925, 0.6185, 0.5977, 0.8034, 0.6069, 0.6740999999999999, 0.6087, 0.6158, 1.0189000000000001, 0.6019000000000001, 0.6069, 0.6128, 0.6798000000000001, 0.6233000000000001, 0.6263, 0.6149, 0.7041000000000001, 0.6937, 0.6022, 1.0234, 0.8299, 0.5839000000000001, 0.6177, 0.747, 0.7607999999999999, 0.5998, 0.6223, 0.6071, 0.6206, 0.6457, 0.9872, 0.6181, 0.6116999999999999, 0.6883, 0.6148, 0.6127, 0.6163, 0.6137, 1.0041, 0.6436999999999999, 0.6222000000000001, 0.6752, 0.6377, 0.6192, 0.6084, 0.7889, 0.6059, 0.6099, 0.626, 0.6307, 0.7663, 0.6169, 0.5987, 0.8573, 0.6875, 0.7936, 0.6415000000000001, 0.6173, 0.6171, 0.6948, 0.8026, 0.6293, 1.0002, 0.6941999999999999, 0.617, 0.6023, 0.8172999999999999, 0.9449000000000001],
  "Optimal Expectation Value": -6.0,
  "Optimizer durations [ms]": [16.517, 16.052, 16.661, 13.525, 8.102, 16.048, 16.138, 12.882, 12.381, 12.167, 16.202, 12.178, 16.43, 12.297, 15.771, 16.266, 16.021, 12.15, 12.893, 11.957, 16.164, 15.529, 11.914, 11.797, 16.539, 10.937, 14.133, 15.922, 16.487, 13.892, 13.626, 14.114, 15.816, 13.336, 16.394, 13.355, 15.928, 12.927, 13.864, 14.398, 16.322, 15.939, 11.463, 13.087, 16.338, 16.069, 14.294, 16.407, 16.41, 12.52, 12.458, 12.346, 15.966, 16.237, 15.629, 14.863, 13.812, 14.554, 15.642, 15.888, 16.399, 16.061, 16.302, 15.23, 12.354, 16.445, 16.247, 15.851, 15.68, 16.283, 16.292, 11.95, 14.069, 13.218, 13.098, 16.815, 12.33, 15.974, 16.168, 15.526, 13.735, 12.887, 16.401, 15.834, 11.289, 16.163, 15.952, 15.506, 11.986, 15.644, 15.701, 14.816, 16.185, 12.32, 15.621, 16.481, 11.669, 12.216, 12.348, 14.402, 14.865, 14.172],
  "Optimizer iterations": 102,
  "Optimizer params": [0.5525171739149647, 0.7427182744132355, 0.3073065636570135, 0.5590711201654373, 0.18306900499211737, 0.2891901591733303],
  "P": 3,
  "Problem": "MCP",
  "QPU": "7000000",
  "Qubits": 5,
  "Shots": 4096,
  "Size": 5,
  "Total Algorithm duration [s]": 1.484,
  "Total Classic duration [s]": 1.4137709999999999,
  "Total Quantum duration [s]": 0.07022900000000003
}
