{
  "Depth": 95.0,
  "Expectation Value": -5.908868312835693,
  "Job durations [ms]": [0.6504, 0.6259, 0.5998, 0.8661, 0.6199, 0.7463, 1.0726, 0.6089, 0.6373000000000001, 0.6798000000000001, 0.6031, 0.6052, 0.5214, 0.6981, 0.7426, 0.6587000000000001, 0.5716, 0.8428, 0.5720999999999999, 0.5278, 0.5786, 0.5955999999999999, 0.6061000000000001, 0.6214000000000001, 0.9314, 0.5795, 1.0376, 0.5758, 0.6994, 0.7744, 0.5888, 0.5747, 0.6454, 0.9879000000000001, 0.632, 0.9255, 0.9018999999999999, 0.7324, 0.8566, 0.5767, 0.6005, 0.4887, 0.607, 0.5617000000000001, 0.6835, 0.5998, 0.7785, 0.6066999999999999, 1.0166000000000002, 0.8631, 0.5705, 0.5952999999999999, 0.5427000000000001, 0.8025, 0.609, 0.8479, 0.5398000000000001, 0.5698, 0.6976, 0.5796, 0.5857, 0.5949, 0.5910000000000001, 0.6238, 0.6906, 0.5571, 0.5785, 0.5663, 0.7099, 0.8394999999999999, 0.6959, 0.5633, 0.5687, 0.5374000000000001, 0.9364, 0.7198, 0.5625, 0.5760000000000001, 0.5640000000000001, 0.589, 0.6, 0.6948, 0.5730000000000001, 0.5981, 0.9847, 0.736],
  "Optimal Expectation Value": -6.0,
  "Optimizer durations [ms]": [16.959, 16.493, 15.98, 13.11, 13.389, 12.729, 15.961, 15.246, 16.713, 16.942, 16.405, 15.517, 15.657, 12.473, 12.762, 13.988, 15.94, 15.343, 15.798, 15.685, 16.067, 16.028, 15.493, 16.402, 15.816, 16.044, 15.73, 15.791, 12.464, 12.476, 16.148, 15.876, 11.896, 15.208, 15.449, 15.482, 14.54, 10.051, 15.876, 16.004, 14.108, 15.301, 15.972, 15.809, 12.046, 16.061, 13.216, 16.399, 12.841, 14.015, 16.078, 16.158, 15.604, 15.796, 16.401, 15.376, 13.067, 14.599, 8.308, 15.956, 15.782, 16.18, 16.383, 16.492, 14.047, 16.135, 16.012, 15.701, 12.234, 15.688, 12.351, 12.673, 16.129, 15.456, 15.876, 12.457, 15.731, 16.197, 11.181, 16.11, 14.274, 11.435, 16.106, 16.234, 15.744, 10.61],
  "Optimizer iterations": 86,
  "Optimizer params": [0.305433134091295, 0.9368852708679951, 0.2764918620854691, 0.9991816728634169, 0.9983194902934461, 0.675001426604825],
  "P": 3,
  "Problem": "MCP",
  "QPU": "7000000",
  "Qubits": 5,
  "Shots": 4096,
  "Size": 5,
  "Total Algorithm duration [s]": 1.278,
  "Total Classic duration [s]": 1.2201302,
  "Total Quantum duration [s]": 0.057869800000000006
}
