{
  "Depth": 95.0,
  "Expectation Value": -6.0,
  "Job durations [ms]": [0.6412, 0.6465000000000001, 0.6394000000000001, 0.8767999999999999, 0.6204999999999999, 0.6197, 0.9810000000000001, 0.7037, 0.6716, 0.6066, 0.9476, 0.6924, 0.6218, 0.6225, 0.6130000000000001, 0.6192, 0.6009, 0.6084, 0.7404, 0.8986000000000001, 0.6011000000000001, 0.7583, 0.6275999999999999, 0.8578, 0.6433, 0.6936000000000001, 0.6214999999999999, 0.6338, 0.6906, 0.6246999999999999, 0.6204999999999999, 0.6059, 0.8663, 0.6154, 0.6169, 0.7408, 0.6214000000000001, 0.9314, 0.7109, 0.6474, 0.7408, 0.8387, 0.6184, 0.636, 0.7404, 0.7815, 0.8513000000000001, 0.6478999999999999, 0.7182999999999999, 0.6908, 0.8045, 0.6126, 0.6219, 0.6145999999999999, 0.8178000000000001, 0.6202, 0.594, 0.6412, 0.6177, 0.6286, 0.6263, 0.6264000000000001, 0.6199, 0.747, 0.6106, 0.6148, 0.6979, 0.6214999999999999, 0.6135, 0.8607, 0.6225999999999999, 1.0070999999999999, 0.6053999999999999, 0.7491000000000001, 0.639, 0.7987, 0.6029, 0.6066, 0.6235, 0.6063000000000001, 1.0051999999999999],
  "Optimal Expectation Value": -6.0,
  "Optimizer durations [ms]": [16.453, 16.591, 16.53, 14.127, 16.11, 16.434, 15.705, 11.714, 14.518, 16.017, 15.434, 12.515, 16.311, 16.276, 12.998, 16.463, 15.948, 13.634, 12.682, 12.022, 16.067, 12.931, 12.349, 11.979, 16.55, 8.632, 12.513, 16.716, 9.237, 16.302, 12.173, 16.221, 15.718, 16.136, 12.8, 15.699, 13.234, 15.67, 12.269, 13.942, 12.349, 11.178, 12.663, 16.517, 15.195, 12.592, 13.622, 15.028, 12.611, 12.314, 12.271, 15.02, 15.057, 12.58, 11.466, 12.799, 15.033, 13.101, 13.95, 13.381, 16.483, 16.485, 16.431, 15.834, 15.135, 16.096, 7.76, 16.307, 14.013, 12.969, 16.486, 15.173, 15.817, 15.379, 16.4, 16.035, 11.816, 16.234, 13.668, 13.445, 11.183],
  "Optimizer iterations": 81,
  "Optimizer params": [0.7884684894988816, 0.9762972896366003, 0.8849128793260315, 0.10972111678784101, 0.9130515704549755, 0.23627896688453068],
  "P": 3,
  "Problem": "MCP",
  "QPU": "7000000",
  "Qubits": 5,
  "Shots": 4096,
  "Size": 5,
  "Total Algorithm duration [s]": 1.153,
  "Total Classic duration [s]": 1.0969568,
  "Total Quantum duration [s]": 0.056043199999999994
}
