{
  "Depth": 95.0,
  "Expectation Value": -6.0,
  "Job durations [ms]": [0.679, 0.6725, 0.7234, 0.7947, 0.6336, 0.6222000000000001, 0.5827, 0.983, 0.6922, 0.6088, 0.6153000000000001, 0.7007, 0.6130000000000001, 0.6122000000000001, 0.6185, 0.6158, 0.7385, 0.7094, 0.7151, 0.6328, 0.6015, 0.611, 0.6199, 0.6249, 0.6965, 0.6531, 0.9494, 0.625, 0.6164999999999999, 0.6342, 0.627, 0.6308, 0.6158, 0.7602000000000001, 0.6382, 0.49410000000000004, 0.6354000000000001, 0.7943, 0.7066, 0.7411, 0.804, 0.6057, 0.7614, 0.6384, 0.7240000000000001, 0.9747, 0.6986, 0.9056, 0.6066999999999999, 0.6286, 0.6152, 0.8957999999999999, 0.6264000000000001, 0.6351, 0.6262000000000001, 0.6019000000000001, 0.5986, 0.6139, 0.7646000000000001, 0.7136, 0.7957, 0.8347, 0.6197, 0.6777000000000001, 0.9642000000000001, 0.6880999999999999, 0.6129, 0.6058, 0.6177, 0.9809, 0.6269, 0.7175, 0.7089000000000001, 0.8976000000000001, 0.4456, 0.6267, 0.6179, 0.7427, 0.6369, 0.6127, 0.6522, 0.699, 0.7012999999999999, 0.6249, 0.8603999999999999, 0.7172, 0.6219, 0.8341000000000001],
  "Optimal Expectation Value": -6.0,
  "Optimizer durations [ms]": [15.465, 12.328, 12.543, 15.566, 16.54, 16.022, 16.226, 15.494, 12.974, 16.138, 16.407, 12.216, 14.408, 12.073, 16.299, 16.234, 12.657, 12.1, 10.985, 16.365, 13.527, 15.932, 14.475, 16.467, 12.457, 13.593, 13.991, 16.387, 16.242, 16.242, 16.349, 16.385, 13.05, 10.869, 16.547, 10.361, 15.817, 11.677, 8.582, 15.771, 13.682, 16.0, 12.18, 14.545, 12.671, 15.893, 12.21, 12.998, 15.994, 15.858, 16.272, 15.569, 16.252, 16.303, 16.465, 16.252, 15.944, 14.992, 15.608, 12.337, 13.264, 11.308, 12.359, 10.131, 15.465, 10.59, 12.186, 14.427, 16.373, 15.775, 15.729, 12.465, 9.267, 14.244, 9.924, 16.345, 16.32, 8.298, 16.431, 15.647, 15.132, 10.932, 12.214, 16.586, 12.101, 11.767, 16.354, 15.705],
  "Optimizer iterations": 88,
  "Optimizer params": [0.7801586568838128, 0.29996709312762176, 0.7735640066701964, 0.9696057027386767, 0.9254233810993366, 0.9161250421338173],
  "P": 3,
  "Problem": "MCP",
  "QPU": "7000000",
  "Qubits": 5,
  "Shots": 4096,
  "Size": 5,
  "Total Algorithm duration [s]": 1.249,
  "Total Classic duration [s]": 1.1883803000000002,
  "Total Quantum duration [s]": 0.060619699999999964
}
