{
  "Depth": 95.0,
  "Expectation Value": -5.944090366363525,
  "Job durations [ms]": [0.6453, 0.6204000000000001, 0.6166, 0.618, 0.6131, 0.4628, 0.6317999999999999, 0.6983999999999999, 0.6156, 0.6, 0.6289, 0.6028, 0.6114, 0.6343, 0.6922999999999999, 0.6329, 0.8400000000000001, 0.6043, 0.6256, 0.5821999999999999, 0.6051, 0.8612, 0.9443, 0.5966, 0.7037, 0.5915, 0.6134, 0.7062, 0.7231, 0.5777, 0.7352, 0.8691, 0.5906, 0.609, 0.7088, 0.7119, 0.7347, 0.9187000000000001, 0.6129, 0.7404999999999999, 0.9097000000000001, 0.6082000000000001, 0.6527, 0.9423, 0.7006, 0.6396000000000001, 0.7371, 0.6374, 0.6954, 0.6174000000000001, 0.6338, 0.7111, 0.7055, 0.714, 0.619, 0.6227, 0.6222000000000001, 0.6, 0.6082000000000001, 0.7571, 0.6081, 0.8291999999999999, 0.6308, 0.622, 0.9531999999999999, 0.6093999999999999, 0.621, 0.6206999999999999, 0.6112, 0.6258],
  "Optimal Expectation Value": -6.0,
  "Optimizer durations [ms]": [16.437, 16.381, 16.514, 13.706, 16.078, 9.979, 14.595, 9.492, 16.259, 16.379, 14.968, 14.073, 12.567, 16.412, 15.588, 15.968, 10.636, 16.025, 16.351, 15.956, 13.543, 15.597, 13.794, 15.388, 12.319, 15.291, 16.056, 12.532, 12.363, 16.125, 14.151, 15.539, 16.045, 12.533, 9.156, 12.169, 12.869, 10.491, 16.455, 12.689, 12.437, 16.096, 14.309, 13.955, 11.05, 16.588, 8.955, 16.672, 10.99, 16.134, 12.566, 12.221, 11.749, 12.183, 15.39, 16.391, 14.895, 16.359, 16.083, 10.007, 16.393, 15.841, 16.079, 16.389, 15.711, 12.792, 15.926, 16.348, 12.997, 16.415],
  "Optimizer iterations": 70,
  "Optimizer params": [0.579526507259307, 0.45568584470023177, 0.10874265996414399, 0.050006222846249, 0.10390138847800989, 0.404994140770194],
  "P": 3,
  "Problem": "MCP",
  "QPU": "7000000",
  "Qubits": 5,
  "Shots": 4096,
  "Size": 5,
  "Total Algorithm duration [s]": 0.999,
  "Total Classic duration [s]": 0.9518037,
  "Total Quantum duration [s]": 0.04719630000000001
}
