{
  "Depth": 95.0,
  "Expectation Value": -5.936118125915527,
  "Job durations [ms]": [0.6373000000000001, 0.6183, 0.6244999999999999, 0.6177999999999999, 0.6077, 0.6295, 0.6048, 0.6995, 0.6101, 0.5814, 0.6930000000000001, 1.0114, 0.6282, 0.8056, 0.9781, 0.5864, 0.6162, 0.618, 0.9455, 0.6167, 0.6042000000000001, 0.6176, 0.9083, 0.6028, 0.626, 0.6138, 0.6713, 0.5958, 0.6267, 0.7434, 0.6275999999999999, 0.6135999999999999, 0.6214999999999999, 0.6197, 0.6884, 0.6218, 0.6476000000000001, 0.6424, 0.7477, 0.6418, 0.6108, 0.8302, 0.6261, 0.6209, 0.6266, 0.7326, 0.6052, 0.6012, 0.6187, 0.6970000000000001, 0.8429000000000001, 0.6972, 0.6865, 0.9587, 0.6202, 0.6206, 0.7135, 0.8112, 0.6176, 0.6105, 0.9359999999999999, 0.6062, 0.6203, 0.6056, 0.9601, 0.6428999999999999, 0.5941, 0.619, 0.6224, 0.8331000000000001, 0.6169, 0.6198, 0.9116000000000001, 0.8055, 0.6204999999999999, 0.717, 0.6267999999999999, 0.6255, 0.7544, 0.6111, 0.8363, 0.6108, 0.6163, 0.6424, 1.0021, 0.6179, 0.6901999999999999, 0.6576000000000001, 0.8162, 0.6093000000000001, 0.6167, 0.6194],
  "Optimal Expectation Value": -6.0,
  "Optimizer durations [ms]": [16.379, 16.406, 16.267, 13.73, 16.5, 16.174, 14.659, 12.122, 15.968, 15.629, 12.13, 12.057, 16.566, 15.849, 12.759, 11.584, 16.169, 16.099, 12.783, 12.707, 15.962, 16.382, 14.685, 12.832, 16.453, 16.142, 15.55, 16.028, 16.31, 12.574, 14.437, 12.729, 16.528, 15.965, 8.79, 13.205, 16.601, 15.678, 12.972, 16.508, 16.253, 15.577, 15.332, 16.369, 14.228, 12.998, 11.766, 15.867, 16.673, 9.096, 15.587, 12.329, 12.306, 15.472, 16.564, 15.064, 15.466, 15.567, 16.135, 16.283, 13.14, 16.308, 12.561, 16.405, 15.749, 14.289, 15.816, 16.181, 13.463, 15.271, 14.344, 16.38, 15.604, 15.52, 16.322, 14.49, 16.167, 16.639, 12.873, 16.253, 11.645, 13.78, 16.25, 14.992, 12.928, 12.406, 12.263, 15.235, 14.09, 16.231, 11.591, 15.421],
  "Optimizer iterations": 92,
  "Optimizer params": [0.9703151383061643, 0.6939424401387081, 0.7772156951912763, 0.721047568388913, 0.3367837230574989, 0.040226544200127716],
  "P": 3,
  "Problem": "MCP",
  "QPU": "7000000",
  "Qubits": 5,
  "Shots": 4096,
  "Size": 5,
  "Total Algorithm duration [s]": 1.354,
  "Total Classic duration [s]": 1.2911558,
  "Total Quantum duration [s]": 0.06284420000000002
}
