{
  "Circuit execution durations [ms]": [12.029647827148438, 12.352228164672852, 12.35342025756836, 12.175559997558594, 11.88206672668457, 12.409448623657227, 11.959075927734375, 12.00723648071289, 12.411355972290039, 12.041330337524414, 12.392044067382813, 12.048721313476563, 12.115001678466797, 12.375116348266602, 12.059211730957031, 11.836528778076172, 12.392044067382813, 12.064695358276367, 12.480735778808594, 12.106657028198242, 12.108325958251953, 12.105226516723633, 12.44807243347168, 11.994361877441406, 11.896610260009766, 12.454032897949219, 12.33983039855957, 12.110471725463867, 12.014389038085938, 12.025833129882813, 12.293338775634766, 12.496232986450195, 11.91568374633789, 12.202739715576172, 12.201070785522461, 12.04538345336914, 12.125253677368164, 12.008905410766602, 12.331247329711914, 12.02702522277832, 12.397527694702148, 12.074947357177734, 11.966943740844727, 11.912107467651367, 12.395858764648438, 12.042999267578125, 12.450695037841797, 11.977434158325195, 11.985301971435547, 12.035608291625977, 11.897087097167969, 12.507438659667969, 12.032032012939453, 12.317419052124023, 11.987447738647461, 12.329339981079102, 12.094974517822266, 12.438297271728516, 12.008428573608398, 12.373924255371094, 12.045145034790039, 12.255668640136719, 12.166500091552734, 12.305021286010742, 12.391805648803711, 11.97052001953125, 12.15052604675293, 12.68625259399414, 11.980533599853516, 12.13526725769043, 12.517213821411133, 11.948347091674805, 12.034177780151367, 12.399673461914063, 11.967658996582031, 12.005090713500977, 12.473821640014648, 12.549400329589844, 12.422800064086914, 12.242317199707031, 12.454032897949219, 12.400150299072266, 12.313604354858398],
  "Depth": 287.0,
  "Expectation Value": -1.0,
  "Optimal Expectation Value": -1.0,
  "Optimizer durations [ms]": [289.005, 207.528, 289.996, 208.159, 207.29, 293.594, 208.169, 208.426, 292.129, 207.956, 208.053, 289.848, 207.996, 208.041, 287.1, 207.948, 293.114, 207.925, 208.268, 290.063, 208.148, 207.524, 288.083, 208.183, 292.161, 208.64, 208.254, 289.805, 207.547, 207.577, 287.869, 208.197, 292.521, 208.133, 208.283, 289.735, 207.982, 208.32, 287.507, 208.222, 293.411, 210.255, 207.186, 289.709, 208.023, 208.596, 288.056, 208.099, 292.739, 207.992, 208.202, 290.021, 207.723, 208.776, 287.527, 208.604, 292.548, 209.068, 207.99, 289.554, 208.619, 209.734, 288.631, 208.719, 292.314, 208.516, 207.983, 291.847, 207.853, 207.614, 288.433, 209.305, 292.644, 208.054, 207.44, 290.047, 208.189, 208.792, 288.715, 209.532, 292.7, 208.454, 208.65],
  "Optimizer iterations": 83,
  "Optimizer params": [0.14101183837825287, 0.29955212237044787, 0.13344935655662926, 0.07566227100384779, 0.7178573932524311, 0.9563775668293856],
  "P": 3,
  "Problem": "MIS",
  "QJob durations [ms]": [126.7862319946289, 126.70731544494629, 208.5127830505371, 126.88088417053223, 126.0683536529541, 212.00823783874512, 126.7085075378418, 126.36137008666992, 127.09689140319824, 126.69801712036133, 126.64532661437988, 126.70540809631348, 126.29866600036621, 126.54757499694824, 126.30772590637207, 125.96631050109863, 127.28548049926758, 126.57928466796875, 126.97505950927734, 126.57761573791504, 126.75714492797852, 126.42121315002441, 127.03514099121094, 126.38378143310547, 126.74546241760254, 127.15601921081543, 126.60741806030273, 126.96170806884766, 126.45959854125977, 126.52587890625, 127.00963020324707, 126.75857543945313, 126.80673599243164, 126.74450874328613, 127.02703475952148, 126.82795524597168, 126.79338455200195, 126.83892250061035, 126.9068717956543, 126.2674331665039, 127.50601768493652, 127.93850898742676, 126.07526779174805, 126.4944076538086, 126.82914733886719, 126.55162811279297, 127.00390815734863, 126.3887882232666, 127.25973129272461, 126.58882141113281, 126.33442878723145, 127.15721130371094, 126.6019344329834, 127.19345092773438, 126.58190727233887, 126.49917602539063, 126.87897682189941, 126.94978713989258, 126.56545639038086, 127.09546089172363, 126.6789436340332, 127.87580490112305, 127.1669864654541, 126.31344795227051, 127.29859352111816, 126.84178352355957, 126.59668922424316, 127.35676765441895, 126.35087966918945, 126.495361328125, 127.03323364257813, 126.37162208557129, 127.17008590698242, 126.6477108001709, 126.17945671081543, 126.68895721435547, 126.91831588745117, 127.1357536315918, 127.03466415405273, 127.5644302368164, 127.51054763793945, 126.97982788085938, 127.00176239013672],
  "QPU": "3010008",
  "Qubits": 8,
  "Queue durations [ms]": [0.0, 0.0, 0.0, 0.0, 0.0, 0.0, 0.0, 0.0, 0.0, 0.0, 0.0, 0.0, 0.0, 0.0, 0.0, 0.0, 0.0, 0.0, 0.0, 0.0, 0.0, 0.0, 0.0, 0.0, 0.0, 0.0, 0.0, 0.0, 0.0, 0.0, 0.0, 0.0, 0.0, 0.0, 0.0, 0.0, 0.0, 0.0, 0.0, 0.0, 0.0, 0.0, 0.0, 0.0, 0.0, 0.0, 0.0, 0.0, 0.0, 0.0, 0.0, 0.0, 0.0, 0.0, 0.0, 0.0, 0.0, 0.0, 0.0, 0.0, 0.0, 0.0, 0.0, 0.0, 0.0, 0.0, 0.0, 0.0, 0.0, 0.0, 0.0, 0.0, 0.0, 0.0, 0.0, 0.0, 0.0, 0.0, 0.0, 0.0, 0.0, 0.0, 0.0],
  "Shots": 4096,
  "Size": 5,
  "Total Algorithm duration [s]": 19.83,
  "Total Classic duration [s]": 9.139542894363402,
  "Total Quantum duration [s]": 10.690457105636597
}
