{
  "Depth": 257.0,
  "Job durations [ms]": [174985.7997894287, 184488.16084861755, 182960.87527275085, 175852.92410850525, 176657.87744522095, 175519.83451843262, 175839.0016555786, 175954.02026176453, 176913.4976863861, 174698.3256340027, 176398.39720726013, 174582.74674415588, 175734.75003242493, 176772.05657958984, 174301.3355731964, 175171.51832580566, 176126.72305107117, 176094.18654441833, 174519.74439620972, 176693.84026527405, 175511.80458068848, 179302.53791809082, 187223.65856170654, 180240.154504776, 177332.07082748413, 179213.7806415558, 184726.5133857727, 178360.38208007812, 177053.9710521698, 180650.40135383606, 179115.02933502197, 180521.399974823, 177683.48836898804, 177517.9557800293, 178214.82515335083, 178548.13623428345, 176594.0887928009, 176949.21565055847, 179065.2277469635, 176073.0209350586, 175930.26447296143, 176367.9015636444, 176012.8791332245, 176663.36226463318, 175697.73054122925, 176164.94512557983, 176645.8933353424, 176089.91360664368, 176391.1476135254, 180325.23822784424, 179904.01482582092, 176775.8824825287, 178247.98822402954, 176745.57828903198, 182074.39732551575, 183046.58484458923, 176957.86547660828, 177093.75643730164, 176831.0887813568, 177231.34875297546, 174928.22861671448, 176952.2705078125, 176008.81838798523, 176273.02622795105, 177617.4349784851, 175617.58661270142, 175939.77689743042, 176805.52530288696, 176294.0788269043, 175310.14275550842, 176813.61842155457, 176622.02787399292, 175233.84475708008, 176676.94687843323, 177611.98353767395, 176534.93881225586, 176765.99764823914, 176708.22072029114, 175949.08499717712, 178025.22087097168],
  "Optimizer durations [ms]": [179323.345, 188808.047, 187274.211, 180202.112, 180989.406, 179802.896, 180135.832, 180242.661, 181208.591, 179030.29, 180698.546, 178833.087, 179992.035, 181088.09, 178617.209, 179482.762, 180396.834, 180425.954, 178867.52, 180995.117, 179832.542, 183612.887, 191913.106, 184857.121, 181603.003, 183500.448, 189409.227, 182858.04, 181403.579, 184908.302, 183555.787, 185120.918, 181996.397, 181913.134, 182627.78, 182943.338, 181061.061, 181315.516, 183502.928, 180387.349, 180250.013, 180726.162, 180341.374, 180960.965, 179992.796, 180434.665, 180951.787, 180414.698, 180659.349, 184802.187, 184225.946, 181128.98, 182543.155, 181020.494, 186456.541, 187462.236, 181254.654, 181368.08, 181182.805, 181556.691, 179207.204, 181250.051, 180271.699, 180532.498, 181958.998, 179903.858, 180239.139, 181128.988, 180669.122, 179606.952, 181134.933, 180936.897, 179532.668, 181030.762, 181908.276, 180875.741, 181089.645, 180981.779, 180248.801, 182323.876],
  "Optimizer iterations": 80,
  "Qubits": 14,
  "Total Algorithm duration [s]": 14537.302,
  "Total Classic duration [s]": 347.25216622543303,
  "Total Quantum duration [s]": 14190.049833774567,
  "Expectation Value": -15.77490234375,
  "Optimal Expectation Value": -20.0,
  "Optimizer params": [0.18677019889759713, 0.6133778348595228, 0.46315793904606384, 0.45839071079386146, 0.2428553191000472, 0.6802924545399129],
  "QPU": "6010003",
  "Problem": "MCP",
  "Size": 14,
  "P": 3,
  "Shots": 4096
}