{
  "Circuit execution durations [ms]": [63.0, 66.0, 60.0, 73.0, 63.0, 63.0, 63.0, 72.0, 62.0, 60.0, 61.0, 68.0, 71.0, 60.0, 74.0, 64.0, 56.0, 68.0, 66.0, 311.0, 95.0, 57.0, 62.0, 68.0, 69.0, 65.0, 62.0, 64.0, 59.0, 65.0, 65.0, 61.0, 75.0, 68.0, 62.0, 65.0, 74.0, 63.0, 67.0, 79.0, 60.0, 64.0, 67.0, 77.0, 182.0, 62.0, 76.0, 66.0, 64.0, 61.0, 58.0, 71.0, 65.0, 58.0, 70.0, 62.0, 61.0, 63.0, 62.0, 77.0, 63.0, 78.0, 60.0, 63.0, 66.0, 62.0, 65.0, 64.0, 63.0, 75.0, 59.0, 63.0, 70.0, 60.0, 58.0, 58.0, 76.0, 65.0, 82.0, 60.0, 67.0, 66.0, 61.0, 62.0, 63.0, 59.0, 66.0],
  "Depth": 384.0,
  "Expectation Value": -3.545166015625,
  "Optimal Expectation Value": -4.0,
  "Optimizer durations [ms]": [6001.451, 6132.699, 6038.581, 6045.269, 6247.001, 6045.115, 6059.233, 6044.08, 5989.002, 6145.409, 5954.435, 6142.814, 6049.982, 6196.335, 6115.952, 6041.825, 6331.193, 6043.022, 6094.34, 6017.671, 6070.792, 6320.758, 6234.069, 6169.533, 6017.508, 5960.918, 6237.307, 6092.524, 6266.812, 5956.017, 6067.376, 6071.845, 6097.15, 6114.897, 6111.304, 6187.433, 6034.143, 6078.072, 6091.486, 6046.926, 6289.073, 6206.196, 5996.105, 6125.838, 6096.94, 6102.077, 6016.549, 6110.365, 6089.952, 6118.789, 6087.334, 6092.995, 6215.399, 6014.642, 6106.878, 6091.856, 5991.097, 6136.765, 6136.43, 6278.184, 6242.045, 6045.796, 6118.191, 6053.566, 6127.424, 5999.618, 6023.54, 6137.163, 6045.589, 6153.297, 6090.319, 6154.5, 6303.454, 6203.793, 6081.421, 6008.443, 6081.127, 6094.141, 6034.723, 6316.451, 6204.598, 6093.78, 6131.289, 6204.518, 6040.006, 6311.455, 6193.386],
  "Optimizer iterations": 87,
  "Optimizer params": [0.4213420496841689, 0.1543862898454329, 0.580433301726546, 0.5697579803601038, 0.5080351491781621, 0.6070775110552037],
  "P": 3,
  "Problem": "DSP",
  "QJob durations [ms]": [5894.410133361816, 6026.067018508911, 5931.829214096069, 5940.3791427612305, 6091.715097427368, 5937.167644500732, 5904.625177383423, 5940.768718719482, 5883.971214294434, 5986.2189292907715, 5847.115278244019, 5968.874931335449, 5945.585012435913, 6088.73438835144, 6010.504245758057, 5935.480833053589, 6168.455123901367, 5935.321807861328, 5986.2425327301025, 5915.441274642944, 5957.168102264404, 6161.6973876953125, 6126.995325088501, 6015.5463218688965, 5909.698486328125, 5856.850385665894, 6073.573589324951, 5982.194662094116, 6093.341112136841, 5853.708028793335, 5962.071657180786, 5967.177152633667, 5988.085508346558, 5955.597639083862, 6008.646726608276, 6025.974273681641, 5929.010629653931, 5967.398166656494, 5932.641506195068, 5944.630861282349, 6134.124755859375, 6092.243671417236, 5886.033773422241, 5969.1362380981445, 5992.207050323486, 5935.816049575806, 5912.651538848877, 6002.882957458496, 5975.562810897827, 6014.175653457642, 5929.632902145386, 5982.976198196411, 6061.87629699707, 5907.095193862915, 6002.294540405273, 5932.339429855347, 5878.944158554077, 5966.620206832886, 6029.543161392212, 6174.037933349609, 6133.967638015747, 5940.793752670288, 5958.971738815308, 5945.557117462158, 6023.941278457642, 5891.34407043457, 5919.017314910889, 5977.001190185547, 5941.707611083984, 5992.0594692230225, 5982.330560684204, 6050.887584686279, 6139.303922653198, 6099.60675239563, 5916.86487197876, 5904.470682144165, 5975.607633590698, 5986.498832702637, 5930.744409561157, 6151.758432388306, 6097.531318664551, 5938.732147216797, 6026.169776916504, 6102.028369903564, 5881.1845779418945, 6202.948570251465, 6042.114496231079],
  "QPU": "10000001",
  "Qubits": 10,
  "Queue durations [ms]": [0.0, 0.0, 0.0, 0.0, 0.0, 0.0, 0.0, 0.0, 0.0, 0.0, 0.0, 0.0, 0.0, 0.0, 0.0, 0.0, 0.0, 0.0, 0.0, 0.0, 0.0, 0.0, 0.0, 0.0, 0.0, 0.0, 0.0, 0.0, 0.0, 0.0, 0.0, 0.0, 0.0, 0.0, 0.0, 0.0, 0.0, 0.0, 0.0, 0.0, 0.0, 0.0, 0.0, 0.0, 0.0, 0.0, 0.0, 0.0, 0.0, 0.0, 0.0, 0.0, 0.0, 0.0, 0.0, 0.0, 0.0, 0.0, 0.0, 0.0, 0.0, 0.0, 0.0, 0.0, 0.0, 0.0, 0.0, 0.0, 0.0, 0.0, 0.0, 0.0, 0.0, 0.0, 0.0, 0.0, 0.0, 0.0, 0.0, 0.0, 0.0, 0.0, 0.0, 0.0, 0.0, 0.0, 0.0],
  "Shots": 4096,
  "Size": 5,
  "Total Algorithm duration [s]": 531.759,
  "Total Classic duration [s]": 10.774746116638198,
  "Total Quantum duration [s]": 520.9842538833618
}
