{
  "Circuit execution durations [ms]": [71.83349132537842, 48.99775981903076, 50.92513561248779, 72.29721546173096, 49.14677143096924, 72.7384090423584, 46.8066930770874, 50.332069396972656, 72.73638248443604, 47.95992374420166, 48.92122745513916, 47.304630279541016, 50.864219665527344, 46.75900936126709, 47.88780212402344, 52.687764167785645, 47.986507415771484, 45.93014717102051, 47.621965408325195, 48.89082908630371, 47.767043113708496, 46.538352966308594, 74.32758808135986, 48.79176616668701, 75.93977451324463, 48.0649471282959, 48.45726490020752, 46.03993892669678, 49.9567985534668, 49.04651641845703, 49.45790767669678, 46.463847160339355, 48.33662509918213],
  "Depth": 2.0,
  "Expectation Value": -1.6777228116989136,
  "Optimal Expectation Value": -1.746999979019165,
  "Optimizer durations [ms]": [539.159, 494.452, 495.892, 491.592, 495.55, 540.654, 493.979, 494.735, 493.36, 490.866, 539.949, 488.657, 496.456, 490.407, 489.899, 545.801, 491.291, 481.621, 491.565, 491.861, 539.292, 485.555, 495.051, 494.464, 544.565, 500.895, 501.18, 490.255, 498.761, 543.483, 502.061, 487.32, 493.467],
  "Optimizer iterations": 33,
  "Optimizer params": [0.9969820295059978, 0.5069672018153937, 0.026552082692263907],
  "P": 0,
  "Problem": "RH",
  "QJob durations [ms]": [79.86867427825928, 56.75101280212402, 58.83002281188965, 80.19280433654785, 57.01470375061035, 80.58440685272217, 54.714202880859375, 58.19261074066162, 80.81388473510742, 55.848121643066406, 56.7246675491333, 55.2518367767334, 58.834195137023926, 54.642677307128906, 55.90832233428955, 60.591936111450195, 55.82070350646973, 53.81453037261963, 55.44412136077881, 56.778788566589355, 56.44822120666504, 54.37588691711426, 82.20028877258301, 56.6021203994751, 83.99677276611328, 56.10799789428711, 57.7545166015625, 80.12902736663818, 58.12489986419678, 56.87522888183594, 57.438015937805176, 54.40926551818848, 56.229233741760254],
  "QPU": "3000017",
  "Qubits": 3,
  "Queue durations [ms]": [0.0, 0.0, 0.0, 0.0, 0.0, 0.0, 0.0, 0.0, 0.0, 0.0, 0.0, 0.0, 0.0, 0.0, 0.0, 0.0, 0.0, 0.0, 0.0, 0.0, 0.0, 0.0, 0.0, 0.0, 0.0, 0.0, 0.0, 0.0, 0.0, 0.0, 0.0, 0.0, 0.0],
  "Shots": 4096,
  "Size": 3,
  "Total Algorithm duration [s]": 16.614,
  "Total Classic duration [s]": 14.57668630027771,
  "Total Quantum duration [s]": 2.03731369972229
}
