{
  "Circuit execution durations [ms]": [74.65708255767822, 46.922922134399414, 48.66063594818115, 71.68996334075928, 48.20215702056885, 72.4344253540039, 48.52712154388428, 46.42009735107422, 72.6696252822876, 49.318909645080566, 49.817681312561035, 52.877187728881836, 50.04310607910156, 47.887325286865234, 51.546454429626465, 50.18627643585205, 47.46675491333008, 49.57222938537598, 52.869439125061035, 49.8582124710083, 48.86579513549805, 48.659563064575195, 73.30453395843506, 47.240257263183594, 71.55442237854004, 48.79498481750488, 50.28176307678223, 51.6582727432251, 48.47311973571777, 47.185301780700684, 49.20923709869385, 49.57461357116699, 49.98505115509033, 75.6603479385376, 48.02370071411133, 47.41799831390381, 74.12147521972656, 48.0116605758667, 73.4330415725708, 48.947691917419434, 48.10833930969238, 72.83937931060791, 49.097657203674316, 48.44069480895996],
  "Depth": 2.0,
  "Expectation Value": -1.649043321609497,
  "Optimal Expectation Value": -1.746999979019165,
  "Optimizer durations [ms]": [546.927, 492.265, 491.624, 491.637, 493.152, 537.394, 495.599, 485.284, 491.819, 494.479, 541.782, 501.561, 492.568, 493.093, 496.625, 543.051, 490.901, 490.951, 503.167, 497.667, 535.526, 491.07, 495.119, 492.418, 534.503, 494.853, 493.032, 507.371, 493.003, 534.733, 493.871, 488.627, 495.483, 546.206, 494.249, 488.528, 496.017, 493.177, 540.598, 494.204, 488.327, 492.859, 493.253, 538.674],
  "Optimizer iterations": 44,
  "Optimizer params": [0.9891111785065528, 0.4733670482625585, 0.9496966179145349],
  "P": 0,
  "Problem": "RH",
  "QJob durations [ms]": [82.58497714996338, 54.84175682067871, 56.50186538696289, 79.60629463195801, 56.03146553039551, 80.42752742767334, 56.32758140563965, 54.322004318237305, 80.69372177124023, 57.15954303741455, 57.78300762176514, 60.8142614364624, 57.92391300201416, 55.80747127532959, 59.35871601104736, 58.08579921722412, 55.29642105102539, 57.54697322845459, 60.74655055999756, 58.858513832092285, 56.77235126495361, 56.51974678039551, 81.26068115234375, 55.09328842163086, 79.4215202331543, 56.620001792907715, 58.231472969055176, 84.55026149749756, 56.45251274108887, 55.02879619598389, 57.08956718444824, 57.44433403015137, 57.923197746276855, 83.66382122039795, 55.887579917907715, 55.254220962524414, 81.99942111968994, 55.88996410369873, 81.44283294677734, 56.88273906707764, 55.97424507141113, 80.88648319244385, 56.98263645172119, 56.374311447143555],
  "QPU": "3000017",
  "Qubits": 3,
  "Queue durations [ms]": [0.0, 0.0, 0.0, 0.0, 0.0, 0.0, 0.0, 0.0, 0.0, 0.0, 0.0, 0.0, 0.0, 0.0, 0.0, 0.0, 0.0, 0.0, 0.0, 0.0, 0.0, 0.0, 0.0, 0.0, 0.0, 0.0, 0.0, 0.0, 0.0, 0.0, 0.0, 0.0, 0.0, 0.0, 0.0, 0.0, 0.0, 0.0, 0.0, 0.0, 0.0, 0.0, 0.0, 0.0],
  "Shots": 4096,
  "Size": 3,
  "Total Algorithm duration [s]": 22.187,
  "Total Classic duration [s]": 19.412635647773744,
  "Total Quantum duration [s]": 2.7743643522262573
}
