{
  "Circuit execution durations [ms]": [25.108933448791504, 25.00021457672119, 24.711012840270996, 24.950861930847168, 25.645017623901367, 24.82771873474121, 25.73549747467041, 24.929404258728027],
  "Depth": 2.0,
  "Expectation Value": -0.574400007724762,
  "Optimal Expectation Value": -0.574400007724762,
  "Optimizer durations [ms]": [3056.4, 1471.82, 1475.107, 1471.529, 1477.737, 1468.4, 1443.607, 1474.32],
  "Optimizer iterations": 8,
  "Optimizer params": [1.0],
  "P": 0,
  "Problem": "RH",
  "QJob durations [ms]": [756.0981512069702, 730.5943965911865, 720.524787902832, 730.6499481201172, 733.7868213653564, 729.0542125701904, 716.7059183120728, 732.0435047149658],
  "QPU": "6010013",
  "Qubits": 1,
  "Queue durations [ms]": [0.0, 0.0, 0.0, 0.0, 0.0, 0.0, 0.0, 0.0],
  "Shots": 4096,
  "Size": 1,
  "Total Algorithm duration [s]": 13.338,
  "Total Classic duration [s]": 7.488542259216308,
  "Total Quantum duration [s]": 5.849457740783691
}
