{
  "Circuit execution durations [ms]": [26.170730590820313, 24.754762649536133, 25.008678436279297, 25.74944496154785, 25.02453327178955, 24.81245994567871, 24.845361709594727, 25.141119956970215, 24.63221549987793],
  "Depth": 2.0,
  "Expectation Value": -0.574400007724762,
  "Optimal Expectation Value": -0.574400007724762,
  "Optimizer durations [ms]": [1503.19, 1472.861, 1474.982, 1444.666, 1467.954, 1478.285, 1471.087, 1469.605, 1469.679],
  "Optimizer iterations": 9,
  "Optimizer params": [1.0],
  "P": 0,
  "Problem": "RH",
  "QJob durations [ms]": [735.3200912475586, 731.3007116317749, 732.1513891220093, 717.1875238418579, 728.767991065979, 734.025239944458, 730.3723096847534, 718.1190252304077, 729.6267747879028],
  "QPU": "6010013",
  "Qubits": 1,
  "Queue durations [ms]": [0.0, 0.0, 0.0, 0.0, 0.0, 0.0, 0.0, 0.0, 0.0],
  "Shots": 4096,
  "Size": 1,
  "Total Algorithm duration [s]": 13.252,
  "Total Classic duration [s]": 6.695128943443299,
  "Total Quantum duration [s]": 6.556871056556702
}
