{
  "Circuit execution durations [ms]": [151690.22583961487, 151445.143699646, 150685.2433681488, 148307.75451660156, 151087.27312088013, 148047.21879959106, 150108.9153289795, 152061.81812286377, 151786.4842414856, 150920.79305648804, 147986.14978790283, 151630.53035736084, 150930.3424358368, 150187.9003047943, 148190.18721580505, 150754.94718551636, 151446.15960121155, 150795.03321647644, 149727.45871543884, 149691.28322601318, 147670.42422294617, 146073.61435890198, 147452.30269432068, 152443.61996650696, 149485.96715927124, 150680.91988563538, 151509.43183898926, 146941.23649597168, 146610.0687980652, 147925.23980140686, 147948.66609573364, 144809.76390838623, 145344.84910964966, 147474.1232395172, 146677.7753829956, 146616.7027950287, 147886.2659931183, 147012.21585273743, 145063.78483772278, 147247.3087310791, 146158.36882591248, 146210.66188812256, 146872.1306324005, 147021.96979522705, 146966.783285141, 146518.49389076233, 144655.15208244324, 147468.4329032898, 146804.61525917053, 147483.4291934967, 146627.2463798523, 147000.02765655518, 146998.33631515503, 148808.59518051147, 148138.854265213, 147423.64597320557, 147131.1581134796, 145943.00150871277, 145434.0434074402, 149182.45816230774, 151214.9178981781, 150422.45388031006, 153915.17806053162, 149951.5175819397, 149355.6308746338, 147278.41997146606, 147539.36505317688, 147134.31525230408, 147694.4613456726, 149086.25650405884, 151185.04571914673, 151510.60152053833, 148408.7517261505, 150902.1224975586, 150254.59575653076, 146924.17812347412, 148568.99285316467, 148732.2690486908, 148600.95715522766, 149620.24784088135, 152598.13046455383, 152305.61137199402, 150349.2910861969, 148360.20755767822, 152951.61056518555, 149883.64267349243, 149326.93791389465, 151909.3897342682, 153045.1419353485, 149298.50554466248, 146814.48984146118, 148352.5950908661, 149866.74094200134, 148882.5545310974, 152282.77921676636, 149351.5920639038, 149634.78899002075, 147724.79581832886, 146158.48994255066, 149875.01764297485, 148536.5707874298, 153008.50176811218, 145959.3825340271, 148202.18324661255],
  "Depth": 458.0,
  "Expectation Value": -1.9219822883605957,
  "Optimal Expectation Value": -2.0,
  "Optimizer durations [ms]": [188266.888, 174611.896, 173627.544, 171389.338, 174013.127, 171019.753, 172862.434, 175061.451, 174607.593, 174072.371, 170934.341, 174551.257, 173839.49, 173072.215, 171047.637, 173583.526, 174480.559, 173961.867, 172725.658, 172669.312, 170491.036, 168810.487, 170025.865, 175180.85, 172716.544, 173717.355, 174447.631, 169918.17, 169201.753, 170570.53, 170839.043, 167413.729, 168128.404, 170251.424, 169364.35, 169371.616, 170419.136, 169680.445, 167655.484, 169838.771, 168928.974, 168834.522, 169513.521, 169687.996, 169680.8, 169334.95, 167251.099, 170210.063, 169661.722, 170118.074, 169301.345, 169721.665, 169716.564, 171616.672, 170819.371, 170158.828, 169909.526, 168715.824, 168147.878, 171936.88, 174206.487, 173843.257, 177294.117, 173342.935, 172441.67, 170190.981, 170402.251, 170132.821, 170671.992, 171862.943, 174396.295, 174704.684, 171385.581, 173879.537, 173261.663, 169826.009, 171537.882, 171786.425, 171506.852, 172566.247, 175807.976, 175427.885, 173615.847, 171674.065, 176033.484, 173008.88, 172452.685, 175089.714, 176145.535, 172631.436, 170009.053, 171465.354, 172823.366, 172382.811, 175331.425, 172381.411, 172588.776, 170879.458, 169025.67, 172837.544, 171285.627, 175727.167, 168936.749, 170962.064],
  "Optimizer iterations": 104,
  "Optimizer params": [0.937376890485672, 0.6533336289051789, 0.9829832526398321, 0.9766621611350502, 0.9085474369745412, 0.4945638273324007],
  "P": 3,
  "Problem": "MIS",
  "QJob durations [ms]": [181924.07751083374, 174565.0815963745, 173581.3021659851, 171342.88692474365, 173967.08583831787, 170973.27756881714, 172816.7703151703, 175014.37211036682, 174560.37163734436, 174025.55465698242, 170887.0759010315, 174504.32324409485, 173793.47229003906, 173024.5497226715, 171001.80435180664, 173536.91911697388, 174433.67218971252, 173913.37084770203, 172679.29315567017, 172623.39758872986, 170443.63522529602, 168763.64922523499, 169979.66027259827, 175134.38177108765, 172633.7296962738, 173670.8528995514, 174400.37536621094, 169872.26271629333, 169155.56287765503, 170524.12676811218, 170793.31064224243, 167367.8514957428, 168082.19814300537, 170204.78630065918, 169318.4335231781, 169294.4130897522, 170373.64029884338, 169634.40203666687, 167609.6842288971, 169793.2460308075, 168883.31484794617, 168788.95688056946, 169467.71717071533, 169642.2598361969, 169635.61463356018, 169289.4549369812, 167174.20315742493, 170163.78712654114, 169615.66472053528, 170072.33476638794, 169254.45318222046, 169675.96530914307, 169671.02479934692, 171571.29526138306, 170774.2166519165, 170113.35349082947, 169864.2463684082, 168671.02146148682, 168102.49090194702, 171890.18774032593, 174160.01319885254, 173796.34618759155, 177248.3730316162, 173296.98538780212, 172396.29220962524, 170144.86289024353, 170356.52828216553, 170087.7320766449, 170627.12407112122, 171817.12818145752, 174349.83468055725, 174659.6987247467, 171339.3201828003, 173833.9557647705, 173216.65406227112, 169781.27884864807, 171491.91331863403, 171741.27292633057, 171461.70902252197, 172520.92361450195, 175762.4876499176, 175383.16774368286, 173570.00756263733, 171628.20386886597, 175987.19716072083, 172963.24253082275, 172406.3422679901, 175043.80750656128, 176099.2555618286, 172585.78324317932, 169964.3156528473, 171420.48263549805, 172775.71845054626, 172336.86685562134, 175286.24606132507, 172335.31641960144, 172542.52743721008, 170833.72473716736, 168979.81524467468, 172792.13547706604, 171238.9702796936, 175680.40585517883, 168890.64741134644, 170915.76671600342],
  "QPU": "6010013",
  "Qubits": 11,
  "Queue durations [ms]": [0.0, 0.0, 0.0, 0.0, 0.0, 0.0, 0.0, 0.0, 0.0, 0.0, 0.0, 0.0, 0.0, 0.0, 0.0, 0.0, 0.0, 0.0, 0.0, 0.0, 0.0, 0.0, 0.0, 0.0, 0.0, 0.0, 0.0, 0.0, 0.0, 0.0, 0.0, 0.0, 0.0, 0.0, 0.0, 0.0, 0.0, 0.0, 0.0, 0.0, 0.0, 0.0, 0.0, 0.0, 0.0, 0.0, 0.0, 0.0, 0.0, 0.0, 0.0, 0.0, 0.0, 0.0, 0.0, 0.0, 0.0, 0.0, 0.0, 0.0, 0.0, 0.0, 0.0, 0.0, 0.0, 0.0, 0.0, 0.0, 0.0, 0.0, 0.0, 0.0, 0.0, 0.0, 0.0, 0.0, 0.0, 0.0, 0.0, 0.0, 0.0, 0.0, 0.0, 0.0, 0.0, 0.0, 0.0, 0.0, 0.0, 0.0, 0.0, 0.0, 0.0, 0.0, 0.0, 0.0, 0.0, 0.0, 0.0, 0.0, 0.0, 0.0, 0.0, 0.0],
  "Shots": 4096,
  "Size": 8,
  "Total Algorithm duration [s]": 17879.471,
  "Total Classic duration [s]": 11.180194421769556,
  "Total Quantum duration [s]": 17868.29080557823
}
