{
  "Average job duration [ms]": 26.870057685088806,
  "Depth": 14,
  "P": 3,
  "Shots": 4096,
  "QJob durations [ms]": [26.870057685088806, 26.870057685088806, 26.870057685088806, 26.870057685088806, 26.870057685088806, 26.870057685088806, 26.870057685088806, 26.870057685088806, 26.870057685088806, 26.870057685088806, 26.870057685088806, 26.870057685088806, 26.870057685088806, 26.870057685088806, 26.870057685088806, 26.870057685088806, 26.870057685088806, 26.870057685088806, 26.870057685088806, 26.870057685088806, 26.870057685088806, 26.870057685088806, 26.870057685088806, 26.870057685088806, 26.870057685088806, 26.870057685088806, 26.870057685088806, 26.870057685088806, 26.870057685088806, 26.870057685088806, 26.870057685088806, 26.870057685088806, 26.870057685088806, 26.870057685088806, 26.870057685088806, 26.870057685088806, 26.870057685088806, 26.870057685088806, 26.870057685088806, 26.870057685088806, 26.870057685088806, 26.870057685088806, 26.870057685088806, 26.870057685088806, 26.870057685088806, 26.870057685088806, 26.870057685088806, 26.870057685088806, 26.870057685088806, 26.870057685088806, 26.870057685088806, 26.870057685088806, 26.870057685088806, 26.870057685088806, 26.870057685088806, 26.870057685088806, 26.870057685088806, 26.870057685088806, 26.870057685088806, 26.870057685088806],
  "Circuit execution durations [ms]": [2.6870057685088806, 2.6870057685088806, 2.6870057685088806, 2.6870057685088806, 2.6870057685088806, 2.6870057685088806, 2.6870057685088806, 2.6870057685088806, 2.6870057685088806, 2.6870057685088806, 2.6870057685088806, 2.6870057685088806, 2.6870057685088806, 2.6870057685088806, 2.6870057685088806, 2.6870057685088806, 2.6870057685088806, 2.6870057685088806, 2.6870057685088806, 2.6870057685088806, 2.6870057685088806, 2.6870057685088806, 2.6870057685088806, 2.6870057685088806, 2.6870057685088806, 2.6870057685088806, 2.6870057685088806, 2.6870057685088806, 2.6870057685088806, 2.6870057685088806, 2.6870057685088806, 2.6870057685088806, 2.6870057685088806, 2.6870057685088806, 2.6870057685088806, 2.6870057685088806, 2.6870057685088806, 2.6870057685088806, 2.6870057685088806, 2.6870057685088806, 2.6870057685088806, 2.6870057685088806, 2.6870057685088806, 2.6870057685088806, 2.6870057685088806, 2.6870057685088806, 2.6870057685088806, 2.6870057685088806, 2.6870057685088806, 2.6870057685088806, 2.6870057685088806, 2.6870057685088806, 2.6870057685088806, 2.6870057685088806, 2.6870057685088806, 2.6870057685088806, 2.6870057685088806, 2.6870057685088806, 2.6870057685088806, 2.6870057685088806],
  "Optimal Expectation Value": -1,
  "Optimizer params": [0.1, 0.2, 0.3, 0.4, 0.5, 0.6],
  "Optimizer durations [ms]": [126.87005768508881, 126.87005768508881, 126.87005768508881, 126.87005768508881, 126.87005768508881, 126.87005768508881, 126.87005768508881, 126.87005768508881, 126.87005768508881, 126.87005768508881, 126.87005768508881, 126.87005768508881, 126.87005768508881, 126.87005768508881, 126.87005768508881, 126.87005768508881, 126.87005768508881, 126.87005768508881, 126.87005768508881, 126.87005768508881, 126.87005768508881, 126.87005768508881, 126.87005768508881, 126.87005768508881, 126.87005768508881, 126.87005768508881, 126.87005768508881, 126.87005768508881, 126.87005768508881, 126.87005768508881, 126.87005768508881, 126.87005768508881, 126.87005768508881, 126.87005768508881, 126.87005768508881, 126.87005768508881, 126.87005768508881, 126.87005768508881, 126.87005768508881, 126.87005768508881, 126.87005768508881, 126.87005768508881, 126.87005768508881, 126.87005768508881, 126.87005768508881, 126.87005768508881, 126.87005768508881, 126.87005768508881, 126.87005768508881, 126.87005768508881, 126.87005768508881, 126.87005768508881, 126.87005768508881, 126.87005768508881, 126.87005768508881, 126.87005768508881, 126.87005768508881, 126.87005768508881, 126.87005768508881, 126.87005768508881],
  "Optimizer iterations": 60,
  "Qubits": 2,
  "Expectation Value": -1.0,
  "Total Algorithm duration [s]": 9224.406922210657,
  "Total Classic duration [s]": 7612.203461105329,
  "Total Quantum duration [s]": 1612.203461105328
}