{
  "Depth": 2.0,
  "Expectation Value": -0.5446703433990479,
  "Job durations [ms]": [4336.002349853516, 4123.127460479736, 4126.673460006714, 4083.650827407837, 4106.000661849976, 4061.9211196899414, 4056.8666458129883, 4134.653568267822, 4249.04727935791, 4159.096240997314],
  "Optimal Expectation Value": -0.574400007724762,
  "Optimizer durations [ms]": [40385.539, 40291.834, 39475.886, 40371.549, 39201.406, 40969.295, 39154.899, 40407.564, 39178.708, 40779.535],
  "Optimizer iterations": 10,
  "Optimizer params": [0.9994541874999111],
  "P": 0,
  "Problem": "RH",
  "QPU": "402002E",
  "Qubits": 1,
  "Shots": 4096,
  "Size": 1,
  "Total Algorithm duration [s]": 400.216,
  "Total Classic duration [s]": 358.77896038627625,
  "Total Quantum duration [s]": 41.437039613723755
}
