{
  "Circuit execution durations [ms]": [51.60927772521973, 81.4584493637085, 53.78603935241699, 54.660797119140625, 82.18884468078613, 51.29420757293701, 51.83911323547363, 51.72932147979736, 52.50847339630127, 55.18078804016113, 77.47697830200195, 58.835744857788086, 50.06217956542969, 75.43718814849854, 49.278855323791504, 53.82108688354492, 55.07218837738037, 51.45263671875, 54.84449863433838, 79.67996597290039, 52.87313461303711, 55.539608001708984, 77.59404182434082, 53.77769470214844, 55.655837059020996, 50.016045570373535, 54.971933364868164, 53.10976505279541, 77.9726505279541, 52.39522457122803, 54.46338653564453, 78.78577709197998, 52.1925687789917, 52.274346351623535, 52.0479679107666, 55.53901195526123, 55.911898612976074, 82.17465877532959, 53.679823875427246, 53.63631248474121, 81.1680555343628, 56.03349208831787],
  "Depth": 2.0,
  "Expectation Value": -1.6716243028640747,
  "Optimal Expectation Value": -1.746999979019165,
  "Optimizer durations [ms]": [544.355, 603.37, 550.936, 548.83, 556.946, 543.734, 591.69, 545.103, 540.244, 555.069, 592.918, 560.451, 542.22, 542.251, 538.747, 595.925, 550.299, 537.193, 553.566, 599.206, 549.258, 551.804, 550.032, 550.001, 600.81, 540.139, 545.04, 547.055, 593.19, 549.276, 548.866, 550.693, 550.538, 592.671, 544.469, 547.64, 553.219, 601.65, 550.44, 545.978, 554.932, 552.825],
  "Optimizer iterations": 42,
  "Optimizer params": [0.017785649829320332, 0.5001253098253569, 0.9979241492700547],
  "P": 0,
  "Problem": "RH",
  "QJob durations [ms]": [59.56375598907471, 89.6921157836914, 61.89286708831787, 62.76547908782959, 90.14761447906494, 59.31079387664795, 59.80885028839111, 60.00387668609619, 60.422420501708984, 63.115596771240234, 85.33143997192383, 66.7872428894043, 58.28845500946045, 83.41801166534424, 57.21902847290039, 62.01732158660889, 63.18056583404541, 59.29899215698242, 62.78419494628906, 87.53812313079834, 60.88125705718994, 63.874244689941406, 85.58690547943115, 61.76769733428955, 63.68088722229004, 58.257460594177246, 62.903523445129395, 61.077117919921875, 85.91270446777344, 60.42516231536865, 62.712788581848145, 86.81058883666992, 60.190558433532715, 60.33587455749512, 60.28187274932861, 63.57848644256592, 63.91561031341553, 89.97905254364014, 61.73372268676758, 61.870574951171875, 89.17224407196045, 63.92204761505127],
  "QPU": "300002E",
  "Qubits": 3,
  "Queue durations [ms]": [0.0, 0.0, 0.0, 0.0, 0.0, 0.0, 0.0, 0.0, 0.0, 0.0, 0.0, 0.0, 0.0, 0.0, 0.0, 0.0, 0.0, 0.0, 0.0, 0.0, 0.0, 0.0, 0.0, 0.0, 0.0, 0.0, 0.0, 0.0, 0.0, 0.0, 0.0, 0.0, 0.0, 0.0, 0.0, 0.0, 0.0, 0.0, 0.0, 0.0, 0.0, 0.0],
  "Shots": 4096,
  "Size": 3,
  "Total Algorithm duration [s]": 23.463,
  "Total Classic duration [s]": 20.62154287147522,
  "Total Quantum duration [s]": 2.8414571285247803
}
