{
  "Circuit execution durations [ms]": [46.49066925048828, 47.248125076293945, 46.35262489318848, 51.3615608215332, 51.92756652832031, 91.17817878723145, 43.38836669921875, 44.03233528137207, 44.82698440551758, 43.54453086853027, 44.30246353149414, 47.39809036254883, 44.52228546142578, 91.47906303405762, 49.924612045288086, 47.77121543884277, 50.52304267883301, 44.893741607666016, 44.81387138366699, 44.70968246459961, 49.50857162475586, 47.67489433288574, 42.55485534667969, 43.95413398742676, 45.94874382019043, 44.94738578796387, 97.7323055267334, 44.28434371948242, 46.54359817504883, 47.67918586730957, 46.1421012878418, 44.184207916259766, 45.87244987487793, 43.15495491027832, 43.779611587524414, 46.51212692260742, 44.23832893371582, 45.00985145568848, 45.781850814819336, 45.0899600982666, 44.4028377532959, 45.08090019226074, 45.142173767089844, 45.09711265563965, 48.171281814575195, 45.16482353210449, 43.46466064453125, 94.52557563781738, 46.67377471923828, 43.29729080200195, 46.736955642700195, 46.97155952453613, 46.919822692871094, 48.21896553039551, 48.08950424194336, 94.06805038452148, 47.50323295593262, 46.75602912902832, 45.323848724365234, 46.835899353027344, 45.542240142822266, 47.99985885620117, 46.0667610168457, 43.93768310546875, 43.874502182006836, 47.5468635559082, 45.96543312072754, 51.00226402282715, 46.06819152832031, 47.80435562133789, 43.152570724487305, 49.72434043884277, 50.0941276550293, 48.632144927978516, 46.89168930053711, 46.85091972351074, 94.36893463134766, 48.05779457092285, 46.06032371520996, 47.22166061401367, 48.05874824523926, 45.84074020385742, 45.58563232421875],
  "Depth": 14.0,
  "Expectation Value": -0.9345703125,
  "Optimal Expectation Value": -1.0,
  "Optimizer durations [ms]": [224.577, 269.325, 276.846, 230.534, 274.804, 269.866, 220.98, 275.348, 223.424, 264.904, 269.254, 227.391, 267.766, 271.043, 228.453, 273.952, 229.703, 265.99, 271.595, 225.003, 273.662, 226.596, 263.106, 271.274, 224.578, 267.74, 276.332, 226.63, 272.429, 226.45, 267.77, 270.606, 224.575, 267.402, 221.666, 265.015, 269.905, 222.886, 266.721, 271.917, 223.247, 269.45, 224.697, 264.61, 272.677, 223.471, 265.511, 272.967, 225.103, 267.549, 225.464, 267.007, 272.733, 226.435, 270.387, 272.309, 225.678, 272.415, 224.142, 268.048, 271.917, 226.772, 270.263, 223.238, 263.569, 273.501, 224.849, 272.921, 273.636, 226.493, 268.325, 228.95, 269.927, 272.763, 225.637, 270.229, 272.993, 225.961, 270.822, 226.958, 269.267, 270.904, 224.78],
  "Optimizer iterations": 83,
  "Optimizer params": [0.10196189958476704, 0.9181060940615656, 0.786751641946499, 0.7020392409951542, 0.20009052523710963, 0.3802436668477833],
  "P": 3,
  "Problem": "MCP",
  "QJob durations [ms]": [58.10284614562988, 58.89749526977539, 57.976722717285156, 63.108205795288086, 63.695669174194336, 102.91886329650879, 55.00507354736328, 56.944847106933594, 57.00802803039551, 55.581092834472656, 55.87363243103027, 60.45413017272949, 56.151628494262695, 103.22833061218262, 61.6147518157959, 59.6005916595459, 62.2711181640625, 56.73408508300781, 56.620121002197266, 56.3044548034668, 61.20181083679199, 59.378862380981445, 54.25214767456055, 55.73892593383789, 57.63101577758789, 56.61439895629883, 109.46774482727051, 55.82284927368164, 58.333396911621094, 59.44657325744629, 57.82961845397949, 55.711984634399414, 57.56068229675293, 55.28426170349121, 55.30142784118652, 58.303117752075195, 56.0150146484375, 56.66995048522949, 57.22641944885254, 104.76517677307129, 56.485891342163086, 56.83302879333496, 56.92791938781738, 56.81729316711426, 60.44125556945801, 56.702613830566406, 55.61017990112305, 106.28128051757813, 58.321475982666016, 54.964303970336914, 58.353424072265625, 58.573007583618164, 60.201168060302734, 59.91721153259277, 59.68308448791504, 105.81398010253906, 59.17859077453613, 58.52866172790527, 57.0836067199707, 58.57110023498535, 57.622671127319336, 59.5705509185791, 57.65247344970703, 56.1213493347168, 55.89723587036133, 59.266090393066406, 57.75022506713867, 62.66021728515625, 106.02259635925293, 59.70406532287598, 55.05681037902832, 61.61355972290039, 61.723947525024414, 60.28461456298828, 58.65883827209473, 58.92181396484375, 106.22000694274902, 59.734344482421875, 57.62457847595215, 59.00859832763672, 59.73672866821289, 57.91449546813965, 57.2504997253418],
  "QPU": "3000017",
  "Qubits": 2,
  "Queue durations [ms]": [0.0, 0.0, 0.0, 0.0, 0.0, 0.0, 0.0, 0.0, 0.0, 0.0, 0.0, 0.0, 0.0, 0.0, 0.0, 0.0, 0.0, 0.0, 0.0, 0.0, 0.0, 0.0, 0.0, 0.0, 0.0, 0.0, 0.0, 0.0, 0.0, 0.0, 0.0, 0.0, 0.0, 0.0, 0.0, 0.0, 0.0, 0.0, 0.0, 0.0, 0.0, 0.0, 0.0, 0.0, 0.0, 0.0, 0.0, 0.0, 0.0, 0.0, 0.0, 0.0, 0.0, 0.0, 0.0, 0.0, 0.0, 0.0, 0.0, 0.0, 0.0, 0.0, 0.0, 0.0, 0.0, 0.0, 0.0, 0.0, 0.0, 0.0, 0.0, 0.0, 0.0, 0.0, 0.0, 0.0, 0.0, 0.0, 0.0, 0.0, 0.0, 0.0, 0.0],
  "Shots": 4096,
  "Size": 2,
  "Total Algorithm duration [s]": 20.996,
  "Total Classic duration [s]": 15.79404754257202,
  "Total Quantum duration [s]": 5.2019524574279785
}
