{
  "Depth": 167.0,
  "Job durations [ms]": [9.37795639038086, 9.906768798828125, 9.789228439331055, 9.524106979370117, 9.763956069946289, 9.728670120239258, 9.729146957397461, 9.543895721435547, 9.64045524597168, 9.732484817504883, 9.707212448120117, 9.74273681640625, 9.773731231689453, 9.593725204467773, 9.659767150878906, 9.999513626098633, 12.393474578857422, 9.616613388061523, 9.781599044799805, 9.882211685180664, 9.796619415283203, 9.564876556396484, 9.664773941040039, 9.929656982421875, 9.873390197753906, 9.887933731079102, 9.691476821899414, 9.992599487304688, 9.528398513793945, 9.81593132019043, 9.631156921386719, 9.839534759521484, 10.02812385559082, 9.592533111572266, 9.757280349731445, 9.70315933227539, 9.86790657043457, 9.629011154174805, 9.896993637084961, 9.715557098388672, 9.498119354248047, 9.753942489624023, 9.829044342041016, 9.840726852416992, 9.728193283081055, 9.973764419555664, 10.007143020629883, 9.688377380371094, 10.035991668701172, 9.770870208740234, 9.777069091796875, 9.745359420776367, 9.82522964477539, 9.682178497314453, 9.574413299560547, 9.937286376953125, 9.7198486328125, 9.932279586791992, 9.792327880859375, 9.86933708190918, 9.758949279785156, 9.658098220825195, 9.597301483154297, 9.699106216430664, 9.719610214233398, 9.914398193359375, 9.737730026245117, 9.671926498413086, 9.792804718017578, 9.81760025024414, 9.73820686340332, 9.719610214233398, 9.88626480102539, 9.927749633789062, 9.8876953125, 9.90605354309082, 9.80234146118164, 9.925365447998047, 9.907722473144531, 10.466814041137695, 9.59324836730957, 9.647846221923828, 9.705543518066406, 9.789228439331055, 10.030508041381836, 9.595870971679688, 9.572267532348633, 9.797811508178711, 9.613275527954102, 9.69243049621582, 9.666204452514648, 9.782075881958008, 9.692192077636719, 10.011911392211914, 9.63449478149414, 9.848356246948242, 10.894775390625, 9.894132614135742, 9.658336639404297],
  "Optimizer durations [ms]": [246.417, 246.712, 294.623, 246.897, 247.688, 285.448, 247.38, 246.207, 290.125, 245.965, 247.092, 287.917, 247.8, 245.876, 288.302, 250.563, 256.596, 296.494, 248.163, 245.865, 300.426, 248.887, 249.757, 289.818, 249.835, 253.36, 294.466, 247.89, 247.314, 288.386, 248.448, 250.397, 291.086, 250.705, 246.834, 289.885, 250.133, 250.426, 291.937, 250.941, 250.573, 293.14, 249.298, 247.556, 288.862, 247.545, 247.532, 291.064, 246.963, 252.228, 292.447, 246.373, 247.062, 291.361, 246.86, 246.791, 293.425, 246.157, 247.072, 290.642, 246.622, 246.064, 288.196, 246.763, 253.595, 289.7, 247.436, 246.994, 289.497, 247.633, 246.273, 289.708, 246.962, 247.455, 289.607, 247.333, 247.953, 288.329, 247.729, 248.063, 291.404, 247.634, 246.57, 288.35, 246.854, 247.315, 288.678, 252.245, 246.947, 289.201, 246.771, 248.283, 289.779, 247.841, 247.074, 290.828, 247.717, 248.35, 291.066],
  "Optimizer iterations": 99,
  "Qubits": 9,
  "Total Algorithm duration [s]": 25.97,
  "Total Classic duration [s]": 24.99906847000122,
  "Total Quantum duration [s]": 0.9709315299987793,
  "Expectation Value": -1.541259765625,
  "Optimal Expectation Value": -3.0,
  "Optimizer params": [0.5727453964913019, 0.19594524138973218, 0.384851748683184, 0.9501356884756402, 0.6463507000067461, 0.10403629390115592],
  "QPU": "3010008",
  "Problem": "DSP",
  "Size": 4,
  "P": 3,
  "Shots": 4096
}