{
  "Circuit execution durations [ms]": [1650.1696109771729, 1351.7484664916992, 1649.8043537139893, 1650.7346630096436, 1649.160623550415, 1581.1560153961182, 1354.6390533447266, 1648.716688156128, 1645.4277038574219, 1648.427963256836, 1352.5309562683105, 1640.242099761963, 1652.5568962097168, 1644.6259021759033, 1649.6713161468506, 1579.5605182647705, 1914.3309593200684, 1643.143653869629, 1644.8616981506348, 1647.716760635376, 1641.463279724121, 1640.0439739227295, 1639.30344581604, 1637.239933013916, 1944.8456764221191, 1325.444221496582, 1545.0921058654785, 1658.6291790008545, 1651.7598628997803, 1333.7492942810059, 1647.4359035491943, 1651.7302989959717, 1331.9237232208252, 1652.2507667541504, 1643.7275409698486, 1652.7385711669922, 1846.9533920288086, 1644.5095539093018, 1645.0707912445068, 1644.85764503479, 1650.1169204711914, 1648.3092308044434, 1649.935245513916, 1648.8995552062988, 1640.2523517608643, 1686.3081455230713, 1644.399881362915, 1390.7489776611328, 1366.096019744873, 1642.7936553955078, 1647.8948593139648, 1376.3799667358398, 1645.1466083526611, 1646.7854976654053, 1641.7744159698486, 1652.8053283691406, 1693.5627460479736, 1391.5281295776367, 1643.9874172210693, 1639.4052505493164, 1646.1849212646484, 1642.2367095947266, 1454.1268348693848, 1648.2758522033691, 1645.1013088226318, 1289.977788925171, 1299.726963043213, 1384.0210437774658, 1436.6755485534668, 1394.9830532073975, 1646.2290287017822, 1640.4438018798828, 1395.4217433929443, 1644.4571018218994, 1639.9755477905273, 1646.3892459869385, 1331.1169147491455, 1577.3279666900635, 1645.4181671142578, 1644.9081897735596, 1640.030860900879, 1650.2530574798584, 1330.0261497497559, 1403.4292697906494, 1645.6646919250488, 1645.7464694976807],
  "Depth": 32.0,
  "Expectation Value": -1.99853515625,
  "Optimal Expectation Value": -2.0,
  "Optimizer durations [ms]": [2524.039, 2195.775, 2525.763, 2494.978, 2496.264, 2455.711, 2197.316, 2522.418, 2490.026, 2574.6, 2194.766, 2524.961, 2497.0, 2525.668, 2491.93, 2447.288, 2766.749, 2509.401, 2491.259, 2513.781, 2493.045, 2556.082, 2491.279, 2511.372, 2794.69, 2195.999, 2397.832, 2534.7, 2495.84, 2209.23, 2492.34, 2529.384, 2175.664, 2571.17, 2491.473, 2500.787, 2727.932, 2495.034, 2522.035, 2488.684, 2526.638, 2492.459, 2526.758, 2492.856, 2513.349, 2530.011, 2529.91, 2232.982, 2233.962, 2487.064, 2517.948, 2224.021, 2516.195, 2491.69, 2511.789, 2497.303, 2564.403, 2233.135, 2519.423, 2486.256, 2524.113, 2487.725, 2299.186, 2527.168, 2490.408, 2144.837, 2157.949, 2239.367, 2334.265, 2239.309, 2516.823, 2483.815, 2264.199, 2488.772, 2514.65, 2490.277, 2200.013, 2420.436, 2517.739, 2494.897, 2557.807, 2494.666, 2201.842, 2250.5, 2518.346, 2489.254],
  "Optimizer iterations": 86,
  "Optimizer params": [0.6340834983828604, 0.44733360514314446, 0.7098219706029694, 0.3015281159923254, 0.7111731557824637, 0.8771063230903039],
  "P": 3,
  "Problem": "MCP",
  "QJob durations [ms]": [2518.583059310913, 2190.277576446533, 2520.354986190796, 2489.643096923828, 2490.675210952759, 2450.237512588501, 2191.948652267456, 2517.0536041259766, 2484.3969345092773, 2525.151014328003, 2189.634323120117, 2519.899606704712, 2492.0148849487305, 2520.3278064727783, 2486.603021621704, 2442.2593116760254, 2761.6653442382813, 2504.117727279663, 2485.9209060668945, 2508.554697036743, 2487.9865646362305, 2551.093816757202, 2485.966920852661, 2506.305932998657, 2789.7729873657227, 2190.9897327423096, 2392.719268798828, 2529.6988487243652, 2490.6890392303467, 2204.1094303131104, 2487.2400760650635, 2524.240016937256, 2170.7613468170166, 2566.1067962646484, 2486.3269329071045, 2495.6037998199463, 2722.942113876343, 2489.8900985717773, 2516.6873931884766, 2483.6435317993164, 2521.580934524536, 2487.295389175415, 2521.665096282959, 2487.776517868042, 2508.350610733032, 2525.059223175049, 2524.714946746826, 2227.768898010254, 2229.065179824829, 2481.9023609161377, 2512.7053260803223, 2218.8596725463867, 2511.169672012329, 2486.614465713501, 2506.497859954834, 2492.119312286377, 2559.349536895752, 2228.10697555542, 2514.30344581604, 2481.041669845581, 2518.9435482025146, 2482.3899269104004, 2294.102430343628, 2522.005081176758, 2485.4555130004883, 2139.814615249634, 2153.024196624756, 2234.1580390930176, 2287.158727645874, 2234.312057495117, 2511.751413345337, 2478.6176681518555, 2259.138822555542, 2483.6933612823486, 2509.6402168273926, 2484.9956035614014, 2194.8137283325195, 2415.2393341064453, 2512.585401535034, 2489.436149597168, 2510.934829711914, 2489.5777702331543, 2196.765184402466, 2245.360851287842, 2513.0999088287354, 2484.3034744262695],
  "QPU": "6010003",
  "Qubits": 3,
  "Queue durations [ms]": [0.0, 0.0, 0.0, 0.0, 0.0, 0.0, 0.0, 0.0, 0.0, 0.0, 0.0, 0.0, 0.0, 0.0, 0.0, 0.0, 0.0, 0.0, 0.0, 0.0, 0.0, 0.0, 0.0, 0.0, 0.0, 0.0, 0.0, 0.0, 0.0, 0.0, 0.0, 0.0, 0.0, 0.0, 0.0, 0.0, 0.0, 0.0, 0.0, 0.0, 0.0, 0.0, 0.0, 0.0, 0.0, 0.0, 0.0, 0.0, 0.0, 0.0, 0.0, 0.0, 0.0, 0.0, 0.0, 0.0, 0.0, 0.0, 0.0, 0.0, 0.0, 0.0, 0.0, 0.0, 0.0, 0.0, 0.0, 0.0, 0.0, 0.0, 0.0, 0.0, 0.0, 0.0, 0.0, 0.0, 0.0, 0.0, 0.0, 0.0, 0.0, 0.0, 0.0, 0.0, 0.0, 0.0],
  "Shots": 4096,
  "Size": 3,
  "Total Algorithm duration [s]": 210.59,
  "Total Classic duration [s]": 0.5706411266326938,
  "Total Quantum duration [s]": 210.0193588733673
}
