{
  "Circuit execution durations [ms]": [1649.2998600006104, 1649.653673171997, 1651.3776779174805, 1658.6542129516602, 1649.2257118225098, 1647.1235752105713, 1651.843547821045, 1646.3971138000488, 1644.2275047302246, 1643.991470336914, 1644.5116996765137, 1537.8711223602295, 1643.7358856201172, 1387.9468441009521, 1644.9599266052246, 1647.1748352050781, 1638.688087463379, 1891.9587135314941, 1662.2130870819092, 1322.7646350860596, 1331.998586654663, 1647.9177474975586, 1635.0665092468262, 1643.5565948486328, 1647.033929824829, 1641.2577629089355, 1656.3341617584229, 1695.4200267791748, 1649.9783992767334, 1645.5011367797852, 1310.3914260864258, 1556.272268295288, 1296.3988780975342, 1645.4660892486572, 1647.2561359405518, 1661.1850261688232, 1651.463270187378, 1637.3252868652344, 1689.478874206543, 1640.7358646392822, 1639.8932933807373, 1646.7392444610596, 1315.9379959106445, 1549.2196083068848, 1640.7489776611328, 1650.5019664764404, 1471.4369773864746, 1635.3678703308105, 1642.2138214111328, 1645.738124847412, 1648.883581161499, 1331.998586654663, 1644.8233127593994, 1378.0913352966309, 1483.6339950561523, 1526.1051654815674, 1652.1108150482178, 1653.8124084472656, 1647.9499340057373, 1640.8703327178955, 1640.4001712799072, 1646.167278289795, 1647.8428840637207, 1651.944637298584, 1645.106315612793, 1640.5208110809326, 1641.1280632019043, 1643.2456970214844, 1473.5517501831055, 1645.0016498565674, 1641.420602798462, 1646.6691493988037, 1655.2019119262695, 1649.2292881011963],
  "Depth": 32.0,
  "Expectation Value": -2.0,
  "Optimal Expectation Value": -2.0,
  "Optimizer durations [ms]": [2528.917, 2493.398, 2525.038, 2545.613, 2523.09, 2491.605, 2524.538, 2491.483, 2522.705, 2489.897, 2517.573, 2381.777, 2521.944, 2230.667, 2514.045, 2531.507, 2507.848, 2737.281, 2534.893, 2164.59, 2173.883, 2520.63, 2479.278, 2517.704, 2492.508, 2516.975, 2505.157, 2555.506, 2515.47, 2529.785, 2150.603, 2432.23, 2139.284, 2520.622, 2489.305, 2534.378, 2496.914, 2511.139, 2534.831, 2511.995, 2488.992, 2518.955, 2159.535, 2417.815, 2485.354, 2529.479, 2314.939, 2509.768, 2489.412, 2491.324, 2561.187, 2177.636, 2518.663, 2219.904, 2364.431, 2369.309, 2526.62, 2500.344, 2521.994, 2487.88, 2513.656, 2493.48, 2560.159, 2497.722, 2519.67, 2486.176, 2525.42, 2487.362, 2344.557, 2494.48, 2513.393, 2492.355, 2525.742, 2493.915],
  "Optimizer iterations": 74,
  "Optimizer params": [0.7120919961137963, 0.9238623662509626, 0.9287123509745318, 0.7416319045044397, 0.3255539850309993, 0.7053003517602003],
  "P": 3,
  "Problem": "MCP",
  "QJob durations [ms]": [2523.395538330078, 2487.718343734741, 2519.714593887329, 2540.473222732544, 2517.5693035125732, 2486.7570400238037, 2519.4289684295654, 2486.3765239715576, 2517.4615383148193, 2484.6718311309814, 2512.6912593841553, 2376.720666885376, 2516.90936088562, 2225.682258605957, 2509.1583728790283, 2526.489734649658, 2502.742290496826, 2732.283115386963, 2529.9136638641357, 2159.489154815674, 2168.8601970672607, 2515.5014991760254, 2474.4317531585693, 2512.8014087677, 2487.3809814453125, 2511.983633041382, 2500.1111030578613, 2550.445795059204, 2510.284662246704, 2524.7433185577393, 2145.5862522125244, 2427.2890090942383, 2134.1731548309326, 2515.4943466186523, 2484.158754348755, 2529.3502807617188, 2491.699695587158, 2506.0017108917236, 2529.738664627075, 2506.9503784179688, 2484.002113342285, 2513.8392448425293, 2154.4203758239746, 2412.9254817962646, 2480.2427291870117, 2524.1661071777344, 2309.7448348999023, 2504.8301219940186, 2484.5073223114014, 2486.2470626831055, 2514.8019790649414, 2172.588586807251, 2513.5812759399414, 2214.7340774536133, 2359.365224838257, 2364.4583225250244, 2521.3911533355713, 2495.1419830322266, 2516.827344894409, 2482.8317165374756, 2508.686065673828, 2488.3012771606445, 2513.36932182312, 2492.7616119384766, 2514.744520187378, 2480.931520462036, 2520.108699798584, 2482.380151748657, 2339.545726776123, 2489.1738891601563, 2508.2545280456543, 2487.4424934387207, 2520.5161571502686, 2488.8174533843994],
  "QPU": "6010003",
  "Qubits": 3,
  "Queue durations [ms]": [0.0, 0.0, 0.0, 0.0, 0.0, 0.0, 0.0, 0.0, 0.0, 0.0, 0.0, 0.0, 0.0, 0.0, 0.0, 0.0, 0.0, 0.0, 0.0, 0.0, 0.0, 0.0, 0.0, 0.0, 0.0, 0.0, 0.0, 0.0, 0.0, 0.0, 0.0, 0.0, 0.0, 0.0, 0.0, 0.0, 0.0, 0.0, 0.0, 0.0, 0.0, 0.0, 0.0, 0.0, 0.0, 0.0, 0.0, 0.0, 0.0, 0.0, 0.0, 0.0, 0.0, 0.0, 0.0, 0.0, 0.0, 0.0, 0.0, 0.0, 0.0, 0.0, 0.0, 0.0, 0.0, 0.0, 0.0, 0.0, 0.0, 0.0, 0.0, 0.0, 0.0, 0.0],
  "Shots": 4096,
  "Size": 3,
  "Total Algorithm duration [s]": 182.508,
  "Total Classic duration [s]": 0.45968614387513185,
  "Total Quantum duration [s]": 182.04831385612488
}
