{
  "Circuit execution durations [ms]": [0.21640000340994447, 0.24249999842140824, 0.2112500005750917, 0.20614999812096357, 0.21349999587982893, 0.21710000146413222, 0.21535000269068405, 0.21019999985583127, 0.2234499916085042, 0.24199999461416155, 0.21260000357870013, 0.21299999934853986, 0.20694999693660066, 0.21299999934853986, 0.21174999710638076, 0.20840000070165843, 0.21255000319797546, 0.22575000184588134, 0.21654999727616087, 0.21484999888343737, 0.22994999744696543, 0.2067500026896596, 0.20384999515954405, 0.23925000277813524, 0.23659999715164304, 0.20260000019334257, 0.2078500037896447, 0.21069999638712034, 0.2124499951605685, 0.20984999719075859, 0.20894999761367217, 0.23005000548437238, 0.20850000146310776, 0.20805000531254336, 0.20510000467766076, 0.20379999477881938, 0.20334999862825498, 0.20560000120894983, 0.20914999913657084, 0.210449994483497, 0.23555000370834023, 0.20814999879803509, 0.2053499993053265, 0.20965000294381753, 0.20684999617515132, 0.21085000480525196, 0.21315000049071386, 0.23440000950358808, 0.2095500021823682, 0.2089000045089051, 0.21069999638712034, 0.20695000421255827, 0.20994999795220792, 0.20974999642930925, 0.2165000041713938, 0.2126500039594248, 0.2031499971053563, 0.2131000001099892, 0.2056500015896745, 0.21610000112559646, 0.2173000029870309, 0.21920000290265307, 0.19940000493079424, 0.2308999974047765, 0.21854999795323238, 0.20664999465225264, 0.20914999913657084, 0.2027000009547919, 0.21249999554129317, 0.22634999186266214, 0.20979999681003392, 0.2104500017594546, 0.2118499978678301, 0.2118499978678301, 0.21235000167507678, 0.21279999782564119, 0.21825000294484198, 0.2373000024817884, 0.21120000019436702, 0.20814999879803509, 0.21160000324016437, 0.22990000434219837, 0.21120000019436702, 0.20980000408599153, 0.21385000582085922, 0.20954999490641057, 0.21394999930635095, 0.206899996555876, 0.21175000438233837, 0.20775000302819535, 0.23425000108545646, 0.20920000679325312, 0.20379999477881938, 0.21004999871365726, 0.21064999600639567, 0.21204999939072877, 0.2091000060318038, 0.20444999972824007, 0.21505000040633604, 0.20355000015115365, 0.23954999778652564, 0.20434999896679074, 0.21094999829074368, 0.20229999790899456, 0.24849999317666516, 0.21189999824855477, 0.20755000150529668, 0.23599999985890463, 0.20780000340892002, 0.2116999967256561, 0.2317000034963712, 0.20604999735951424, 0.20979999681003392, 0.38410001434385777, 0.2121500001521781, 0.25224999990314245, 0.21109999943291768, 0.20349999977042899, 0.36305001412983984, 0.21675000607501715, 0.21954999829176813, 0.20940000104019418, 0.24694999592611566, 0.21040000137872994, 0.21289999858709052, 0.2782500014291145, 0.2136999974027276, 0.2218999943579547, 0.20909999875584617, 0.21379999816417694, 0.25010000535985455, 0.21150000247871503, 0.2080000049318187, 0.3924999909941107, 0.18060000002151355, 0.21225000091362745, 0.1995999991777353, 0.20344999938970432, 0.2383499959250912, 0.3750000105355866, 0.21230000129435211, 0.2510999984224327, 0.21065000328235328, 0.20300000323913991, 0.28014999406877905, 0.29570000333478674, 0.20995000522816554, 0.20494999625952914, 0.25150000146823004, 0.20804999803658575, 0.20960000256309286, 0.27680000494001433, 0.23700000019744039, 0.20989999757148325, 0.210749996767845, 0.21050000214017928, 0.2543499940657057, 0.1731000011204742, 0.3596500027924776, 0.3286499995738268, 0.2114000017172657, 0.21639999613398686, 0.20819999917875975, 0.24339999799849465, 0.204100004339125, 0.21025000023655593, 0.20175000099698082, 0.21474999812198803, 0.20729999960167333, 0.20984999719075859, 0.21555000421358272, 0.21099999867146835, 0.21025000023655593, 0.21114999981364235, 0.22449999960372224, 0.20304999634390697, 0.20605000463547185, 0.210599995625671, 0.23694999981671572, 0.20954999490641057, 0.21025000023655593, 0.20979999681003392, 0.2450499960104935, 0.20260000019334257, 0.20190000213915482, 0.21574999846052378, 0.20504999702097848, 0.20604999735951424, 0.21449999621836469, 0.21749999723397195, 0.21239999477984384, 0.21505000040633604, 0.2126500039594248, 0.22090000129537657, 0.23054999473970383, 0.21145000209799036, 0.20880000374745578, 0.2037499943980947, 0.20199999562464654, 0.20339999900897965, 0.21070000366307795, 0.2143500023521483, 0.2019500025198795, 0.21345000277506188, 0.21299999934853986, 0.20575000235112384, 0.21374999778345227, 0.20539999968605116, 0.2135500035365112, 0.23694999981671572, 0.21485000615939498, 0.1919999995152466, 0.21130000095581636, 0.20909999875584617, 0.2086000022245571, 0.21144999482203275, 0.23540000256616622, 0.20655000116676092, 0.21249999554129317, 0.20305000361986458, 0.2523500079405494, 0.20180000137770548, 0.21529999503400177, 0.2091999995172955, 0.20729999960167333, 0.22034999710740522, 0.21104999905219302, 0.2087499960907735, 0.20945000142091885, 0.21335000201361254, 0.21515000116778538, 0.2142000012099743, 0.2155499969376251, 0.2106000029016286, 0.20814999879803509, 0.20865000260528177, 0.20814999879803509, 0.21159999596420676, 0.22290000197244808, 0.2097000033245422, 0.2392999958829023, 0.2164999968954362, 0.20504999702097848, 0.2091999995172955, 0.21065000328235328, 0.21239999477984384, 0.21220000053290278, 0.24249999114545062, 0.21249999554129317, 0.23714999406365678, 0.20400000357767567, 0.2160500007448718, 0.22229999740375206, 0.20589999621734023, 0.23800000053597614, 0.21019999985583127, 0.21174999710638076, 0.20645000040531158, 0.20914999913657084, 0.20355000015115365, 0.21109999943291768, 0.2019500025198795, 0.23694999981671572, 0.20369999401737005, 0.2077999961329624, 0.2106000029016286, 0.20494999625952914, 0.2084500010823831, 0.2193000036641024, 0.22095000167610124, 0.20784999651368707, 0.21299999934853986, 0.20279999444028363, 0.20049999875482172, 0.2013000048464164, 0.20744999346788973, 0.2121500001521781, 0.20909999875584617, 0.21744999685324728, 0.20295000285841525, 0.2025499998126179, 0.20854999456787482, 0.2013000048464164, 0.2121500001521781, 0.2112500005750917, 0.24205000227084383, 0.20385000243550166, 0.22435000573750585, 0.21145000209799036, 0.20444999972824007, 0.3514499985612929, 0.17430000298190862, 0.3435500038904138, 0.2094999945256859, 0.20899999799439684, 0.21419999393401667, 0.20614999812096357, 0.20974999642930925, 0.2059499965980649, 0.21230000129435211, 0.21515000116778538, 0.28810000367229804, 0.2091999995172955, 0.20120000408496708, 0.27335000049788505, 0.20515000505838543, 0.38100001256680116, 0.20289999520173296, 0.20809999841731042, 0.21174999710638076, 0.2101499994751066, 0.20355000015115365, 0.20419999782461673, 0.2059499965980649, 0.2097000033245422, 0.203650000912603, 0.203800002054777, 0.21270000434014946, 0.2018999948631972, 0.2007000002777204, 0.21570000535575673, 0.20000000222353265, 0.20994999795220792, 0.2087500033667311, 0.204100004339125, 0.20295000285841525, 0.2363500025239773, 0.20185000175843015, 0.2015999998548068, 0.20250000670785084, 0.20339999900897965, 0.21430000197142363],
  "Depth": 10.5,
  "Expectation Value": -3.3873467445373535,
  "Optimal Expectation Value": -4.75877046585083,
  "Optimizer durations [ms]": [5.188, 6.133, 6.108, 5.101, 5.046, 5.573, 5.613, 5.101, 5.605, 5.885, 5.041, 5.471, 5.133, 5.524, 5.106, 5.465, 5.112, 5.759, 5.01, 5.639, 5.577, 5.293, 5.151, 5.579, 6.216, 5.099, 5.182, 5.198, 5.126, 5.114, 5.31, 5.601, 5.23, 5.398, 5.266, 5.062, 5.046, 5.056, 5.085, 5.228, 5.814, 5.324, 5.165, 5.131, 5.241, 5.041, 5.19, 6.028, 5.218, 5.276, 5.086, 5.208, 5.261, 5.285, 5.046, 5.736, 5.097, 4.961, 5.254, 5.314, 5.479, 5.253, 5.985, 5.463, 5.414, 5.259, 5.078, 5.842, 5.01, 5.801, 5.099, 5.403, 5.093, 5.292, 5.106, 5.506, 5.336, 5.835, 5.373, 5.227, 5.138, 5.722, 5.335, 5.282, 5.403, 5.266, 5.479, 5.119, 4.965, 5.239, 5.614, 5.343, 5.832, 5.202, 5.031, 5.248, 5.531, 5.055, 5.165, 5.178, 5.919, 5.102, 5.149, 5.051, 5.864, 5.101, 6.0, 5.978, 5.096, 5.248, 5.843, 5.222, 5.307, 8.924, 5.059, 6.373, 5.263, 5.047, 8.107, 8.782, 6.443, 5.237, 5.856, 7.299, 5.336, 6.556, 5.293, 6.343, 6.471, 5.079, 6.087, 5.403, 5.155, 8.38, 15.476, 5.222, 6.031, 5.171, 5.854, 8.195, 5.192, 5.96, 5.463, 5.13, 6.316, 13.347, 5.511, 5.121, 5.933, 5.146, 5.091, 6.519, 5.632, 5.338, 6.611, 5.254, 6.218, 15.658, 9.889, 7.981, 5.902, 5.144, 5.386, 6.05, 5.171, 5.083, 5.096, 5.224, 5.018, 5.121, 5.238, 5.808, 5.192, 5.192, 5.498, 5.138, 5.181, 5.069, 5.335, 5.538, 5.022, 5.346, 5.847, 5.124, 5.201, 5.351, 5.766, 5.092, 5.51, 5.461, 5.249, 5.375, 5.142, 5.525, 5.785, 5.145, 5.131, 5.229, 5.135, 5.012, 5.176, 5.277, 5.78, 5.281, 5.456, 5.125, 5.137, 5.235, 5.372, 5.765, 5.196, 5.96, 5.396, 5.096, 5.113, 5.298, 5.767, 5.14, 5.436, 5.067, 5.932, 5.201, 5.285, 5.335, 5.413, 5.445, 5.355, 5.08, 5.184, 5.034, 5.323, 5.265, 5.783, 5.028, 5.336, 5.035, 5.224, 5.003, 5.337, 5.298, 5.932, 5.395, 5.13, 5.103, 5.228, 5.701, 5.212, 5.968, 5.183, 5.685, 5.195, 5.26, 5.611, 5.097, 5.472, 5.416, 5.103, 5.125, 5.295, 5.309, 5.122, 5.348, 5.768, 5.147, 5.171, 5.109, 5.282, 5.335, 5.247, 5.333, 5.546, 5.337, 5.086, 5.097, 5.026, 5.144, 5.087, 5.203, 5.578, 5.09, 5.006, 5.195, 5.071, 5.07, 5.311, 5.906, 5.175, 5.316, 5.39, 5.122, 8.398, 18.321, 8.34, 5.265, 5.21, 5.064, 5.225, 5.428, 5.142, 5.277, 5.463, 6.783, 5.347, 5.168, 6.541, 9.93, 8.597, 5.164, 5.228, 5.12, 5.087, 5.336, 5.049, 5.158, 5.189, 5.251, 5.105, 5.111, 5.146, 5.135, 4.994, 5.33, 5.153, 5.01, 5.386, 5.189, 5.508, 5.133, 5.097, 5.185, 5.096, 5.278],
  "Optimizer iterations": 332,
  "Optimizer params": [0.3588393486564938, 0.7949329569043405, 0.9998445025495357, 0.6525899329970409, 0.7268700245321694, 0.7692473034692773, 0.8063176068141144, 0.9747924737718163, 0.4970354678736262, 0.03911610543994937, 0.09183203569329625, 0.3422804294944228, 0.7241892123971387, 0.493342260252821, 0.22140387313612656, 0.4837463480702393],
  "P": 0,
  "Problem": "IC",
  "QJob durations [ms]": [0.21640000340994447, 0.24249999842140824, 0.2112500005750917, 0.20614999812096357, 0.21349999587982893, 0.21710000146413222, 0.21535000269068405, 0.21019999985583127, 0.2234499916085042, 0.24199999461416155, 0.21260000357870013, 0.21299999934853986, 0.20694999693660066, 0.21299999934853986, 0.21174999710638076, 0.20840000070165843, 0.21255000319797546, 0.22575000184588134, 0.21654999727616087, 0.21484999888343737, 0.22994999744696543, 0.2067500026896596, 0.20384999515954405, 0.23925000277813524, 0.23659999715164304, 0.20260000019334257, 0.2078500037896447, 0.21069999638712034, 0.2124499951605685, 0.20984999719075859, 0.20894999761367217, 0.23005000548437238, 0.20850000146310776, 0.20805000531254336, 0.20510000467766076, 0.20379999477881938, 0.20334999862825498, 0.20560000120894983, 0.20914999913657084, 0.210449994483497, 0.23555000370834023, 0.20814999879803509, 0.2053499993053265, 0.20965000294381753, 0.20684999617515132, 0.21085000480525196, 0.21315000049071386, 0.23440000950358808, 0.2095500021823682, 0.2089000045089051, 0.21069999638712034, 0.20695000421255827, 0.20994999795220792, 0.20974999642930925, 0.2165000041713938, 0.2126500039594248, 0.2031499971053563, 0.2131000001099892, 0.2056500015896745, 0.21610000112559646, 0.2173000029870309, 0.21920000290265307, 0.19940000493079424, 0.2308999974047765, 0.21854999795323238, 0.20664999465225264, 0.20914999913657084, 0.2027000009547919, 0.21249999554129317, 0.22634999186266214, 0.20979999681003392, 0.2104500017594546, 0.2118499978678301, 0.2118499978678301, 0.21235000167507678, 0.21279999782564119, 0.21825000294484198, 0.2373000024817884, 0.21120000019436702, 0.20814999879803509, 0.21160000324016437, 0.22990000434219837, 0.21120000019436702, 0.20980000408599153, 0.21385000582085922, 0.20954999490641057, 0.21394999930635095, 0.206899996555876, 0.21175000438233837, 0.20775000302819535, 0.23425000108545646, 0.20920000679325312, 0.20379999477881938, 0.21004999871365726, 0.21064999600639567, 0.21204999939072877, 0.2091000060318038, 0.20444999972824007, 0.21505000040633604, 0.20355000015115365, 0.23954999778652564, 0.20434999896679074, 0.21094999829074368, 0.20229999790899456, 0.24849999317666516, 0.21189999824855477, 0.20755000150529668, 0.23599999985890463, 0.20780000340892002, 0.2116999967256561, 0.2317000034963712, 0.20604999735951424, 0.20979999681003392, 0.38410001434385777, 0.2121500001521781, 0.25224999990314245, 0.21109999943291768, 0.20349999977042899, 0.36305001412983984, 0.21675000607501715, 0.21954999829176813, 0.20940000104019418, 0.24694999592611566, 0.21040000137872994, 0.21289999858709052, 0.2782500014291145, 0.2136999974027276, 0.2218999943579547, 0.20909999875584617, 0.21379999816417694, 0.25010000535985455, 0.21150000247871503, 0.2080000049318187, 0.3924999909941107, 0.18060000002151355, 0.21225000091362745, 0.1995999991777353, 0.20344999938970432, 0.2383499959250912, 0.3750000105355866, 0.21230000129435211, 0.2510999984224327, 0.21065000328235328, 0.20300000323913991, 0.28014999406877905, 0.29570000333478674, 0.20995000522816554, 0.20494999625952914, 0.25150000146823004, 0.20804999803658575, 0.20960000256309286, 0.27680000494001433, 0.23700000019744039, 0.20989999757148325, 0.210749996767845, 0.21050000214017928, 0.2543499940657057, 0.1731000011204742, 0.3596500027924776, 0.3286499995738268, 0.2114000017172657, 0.21639999613398686, 0.20819999917875975, 0.24339999799849465, 0.204100004339125, 0.21025000023655593, 0.20175000099698082, 0.21474999812198803, 0.20729999960167333, 0.20984999719075859, 0.21555000421358272, 0.21099999867146835, 0.21025000023655593, 0.21114999981364235, 0.22449999960372224, 0.20304999634390697, 0.20605000463547185, 0.210599995625671, 0.23694999981671572, 0.20954999490641057, 0.21025000023655593, 0.20979999681003392, 0.2450499960104935, 0.20260000019334257, 0.20190000213915482, 0.21574999846052378, 0.20504999702097848, 0.20604999735951424, 0.21449999621836469, 0.21749999723397195, 0.21239999477984384, 0.21505000040633604, 0.2126500039594248, 0.22090000129537657, 0.23054999473970383, 0.21145000209799036, 0.20880000374745578, 0.2037499943980947, 0.20199999562464654, 0.20339999900897965, 0.21070000366307795, 0.2143500023521483, 0.2019500025198795, 0.21345000277506188, 0.21299999934853986, 0.20575000235112384, 0.21374999778345227, 0.20539999968605116, 0.2135500035365112, 0.23694999981671572, 0.21485000615939498, 0.1919999995152466, 0.21130000095581636, 0.20909999875584617, 0.2086000022245571, 0.21144999482203275, 0.23540000256616622, 0.20655000116676092, 0.21249999554129317, 0.20305000361986458, 0.2523500079405494, 0.20180000137770548, 0.21529999503400177, 0.2091999995172955, 0.20729999960167333, 0.22034999710740522, 0.21104999905219302, 0.2087499960907735, 0.20945000142091885, 0.21335000201361254, 0.21515000116778538, 0.2142000012099743, 0.2155499969376251, 0.2106000029016286, 0.20814999879803509, 0.20865000260528177, 0.20814999879803509, 0.21159999596420676, 0.22290000197244808, 0.2097000033245422, 0.2392999958829023, 0.2164999968954362, 0.20504999702097848, 0.2091999995172955, 0.21065000328235328, 0.21239999477984384, 0.21220000053290278, 0.24249999114545062, 0.21249999554129317, 0.23714999406365678, 0.20400000357767567, 0.2160500007448718, 0.22229999740375206, 0.20589999621734023, 0.23800000053597614, 0.21019999985583127, 0.21174999710638076, 0.20645000040531158, 0.20914999913657084, 0.20355000015115365, 0.21109999943291768, 0.2019500025198795, 0.23694999981671572, 0.20369999401737005, 0.2077999961329624, 0.2106000029016286, 0.20494999625952914, 0.2084500010823831, 0.2193000036641024, 0.22095000167610124, 0.20784999651368707, 0.21299999934853986, 0.20279999444028363, 0.20049999875482172, 0.2013000048464164, 0.20744999346788973, 0.2121500001521781, 0.20909999875584617, 0.21744999685324728, 0.20295000285841525, 0.2025499998126179, 0.20854999456787482, 0.2013000048464164, 0.2121500001521781, 0.2112500005750917, 0.24205000227084383, 0.20385000243550166, 0.22435000573750585, 0.21145000209799036, 0.20444999972824007, 0.3514499985612929, 0.17430000298190862, 0.3435500038904138, 0.2094999945256859, 0.20899999799439684, 0.21419999393401667, 0.20614999812096357, 0.20974999642930925, 0.2059499965980649, 0.21230000129435211, 0.21515000116778538, 0.28810000367229804, 0.2091999995172955, 0.20120000408496708, 0.27335000049788505, 0.20515000505838543, 0.38100001256680116, 0.20289999520173296, 0.20809999841731042, 0.21174999710638076, 0.2101499994751066, 0.20355000015115365, 0.20419999782461673, 0.2059499965980649, 0.2097000033245422, 0.203650000912603, 0.203800002054777, 0.21270000434014946, 0.2018999948631972, 0.2007000002777204, 0.21570000535575673, 0.20000000222353265, 0.20994999795220792, 0.2087500033667311, 0.204100004339125, 0.20295000285841525, 0.2363500025239773, 0.20185000175843015, 0.2015999998548068, 0.20250000670785084, 0.20339999900897965, 0.21430000197142363],
  "QPU": "7000000",
  "Qubits": 4,
  "Queue durations [ms]": [0.0, 0.0, 0.0, 0.0, 0.0, 0.0, 0.0, 0.0, 0.0, 0.0, 0.0, 0.0, 0.0, 0.0, 0.0, 0.0, 0.0, 0.0, 0.0, 0.0, 0.0, 0.0, 0.0, 0.0, 0.0, 0.0, 0.0, 0.0, 0.0, 0.0, 0.0, 0.0, 0.0, 0.0, 0.0, 0.0, 0.0, 0.0, 0.0, 0.0, 0.0, 0.0, 0.0, 0.0, 0.0, 0.0, 0.0, 0.0, 0.0, 0.0, 0.0, 0.0, 0.0, 0.0, 0.0, 0.0, 0.0, 0.0, 0.0, 0.0, 0.0, 0.0, 0.0, 0.0, 0.0, 0.0, 0.0, 0.0, 0.0, 0.0, 0.0, 0.0, 0.0, 0.0, 0.0, 0.0, 0.0, 0.0, 0.0, 0.0, 0.0, 0.0, 0.0, 0.0, 0.0, 0.0, 0.0, 0.0, 0.0, 0.0, 0.0, 0.0, 0.0, 0.0, 0.0, 0.0, 0.0, 0.0, 0.0, 0.0, 0.0, 0.0, 0.0, 0.0, 0.0, 0.0, 0.0, 0.0, 0.0, 0.0, 0.0, 0.0, 0.0, 0.0, 0.0, 0.0, 0.0, 0.0, 0.0, 0.0, 0.0, 0.0, 0.0, 0.0, 0.0, 0.0, 0.0, 0.0, 0.0, 0.0, 0.0, 0.0, 0.0, 0.0, 0.0, 0.0, 0.0, 0.0, 0.0, 0.0, 0.0, 0.0, 0.0, 0.0, 0.0, 0.0, 0.0, 0.0, 0.0, 0.0, 0.0, 0.0, 0.0, 0.0, 0.0, 0.0, 0.0, 0.0, 0.0, 0.0, 0.0, 0.0, 0.0, 0.0, 0.0, 0.0, 0.0, 0.0, 0.0, 0.0, 0.0, 0.0, 0.0, 0.0, 0.0, 0.0, 0.0, 0.0, 0.0, 0.0, 0.0, 0.0, 0.0, 0.0, 0.0, 0.0, 0.0, 0.0, 0.0, 0.0, 0.0, 0.0, 0.0, 0.0, 0.0, 0.0, 0.0, 0.0, 0.0, 0.0, 0.0, 0.0, 0.0, 0.0, 0.0, 0.0, 0.0, 0.0, 0.0, 0.0, 0.0, 0.0, 0.0, 0.0, 0.0, 0.0, 0.0, 0.0, 0.0, 0.0, 0.0, 0.0, 0.0, 0.0, 0.0, 0.0, 0.0, 0.0, 0.0, 0.0, 0.0, 0.0, 0.0, 0.0, 0.0, 0.0, 0.0, 0.0, 0.0, 0.0, 0.0, 0.0, 0.0, 0.0, 0.0, 0.0, 0.0, 0.0, 0.0, 0.0, 0.0, 0.0, 0.0, 0.0, 0.0, 0.0, 0.0, 0.0, 0.0, 0.0, 0.0, 0.0, 0.0, 0.0, 0.0, 0.0, 0.0, 0.0, 0.0, 0.0, 0.0, 0.0, 0.0, 0.0, 0.0, 0.0, 0.0, 0.0, 0.0, 0.0, 0.0, 0.0, 0.0, 0.0, 0.0, 0.0, 0.0, 0.0, 0.0, 0.0, 0.0, 0.0, 0.0, 0.0, 0.0, 0.0, 0.0, 0.0, 0.0, 0.0, 0.0, 0.0, 0.0, 0.0, 0.0, 0.0, 0.0, 0.0, 0.0, 0.0, 0.0, 0.0, 0.0, 0.0, 0.0, 0.0, 0.0, 0.0, 0.0, 0.0, 0.0, 0.0, 0.0, 0.0, 0.0, 0.0, 0.0, 0.0, 0.0, 0.0, 0.0, 0.0],
  "Shots": 4096,
  "Size": 4,
  "Total Algorithm duration [s]": 1.86,
  "Total Classic duration [s]": 1.7875063500026591,
  "Total Quantum duration [s]": 0.07249364999734098
}
