{
  "Circuit execution durations [ms]": [172764.58024978638, 171598.96755218506, 171356.36854171753, 170966.00699424744, 170095.79873085022, 171593.46461296082, 171602.44488716125, 173704.08129692078, 173632.4667930603, 173363.178730011, 175336.3425731659, 178869.70806121826, 173976.42874717712, 175211.46297454834, 169983.23249816895, 180538.34795951843, 175062.29162216187, 172082.90815353394, 171554.9280643463, 170828.4363746643, 175165.74692726135, 173196.8138217926, 170484.47179794312, 173572.655916214, 172106.15873336792, 172272.47405052185, 172287.5154018402, 171951.9646167755, 171720.71433067322, 171089.22815322876, 172420.15194892883, 178415.86685180664, 174257.85374641418, 170298.11549186707, 169980.37600517273, 172419.81410980225, 172350.94094276428, 168880.29503822327, 172589.41531181335, 171798.39849472046, 170477.65731811523, 172950.12497901917, 175959.086894989, 176362.62035369873, 172317.87753105164, 171557.59644508362, 173806.50544166565, 176977.3576259613, 177681.15139007568, 171625.45251846313, 174816.35284423828, 172054.4970035553, 174491.30177497864, 176254.21810150146, 176740.60344696045, 172812.59036064148, 171581.35867118835, 170545.80068588257, 169038.05232048035, 172363.33870887756, 172221.64702415466, 171913.6655330658, 178678.06816101074, 171615.53478240967, 172169.55757141113, 171651.043176651, 171805.3059577942, 172760.89906692505, 171345.48234939575, 173244.46535110474, 173715.35420417786, 172235.7587814331, 172238.44528198242, 176618.12376976013, 169150.2299308777, 169792.67644882202, 170410.0992679596, 182162.63818740845, 169391.35670661926, 171396.92664146423, 169165.12846946716, 172781.91900253296, 173568.4735774994, 171484.3511581421, 173492.3312664032, 170555.4542541504, 171879.88758087158, 171512.64834403992],
  "Depth": 401.0,
  "Expectation Value": -1.8871958255767822,
  "Optimal Expectation Value": -2.0,
  "Optimizer durations [ms]": [196639.266, 196652.453, 196028.722, 194814.66, 194583.333, 194683.701, 195904.029, 197105.897, 196711.367, 197095.129, 198846.44, 202762.245, 199172.47, 200952.533, 193458.983, 204178.133, 199848.089, 198453.468, 196468.318, 195131.074, 198303.809, 196551.68, 193581.839, 196744.513, 196299.029, 195716.225, 196167.811, 195009.123, 195174.822, 195553.809, 196647.478, 202454.857, 198526.451, 195379.672, 195295.021, 196105.548, 197227.279, 192394.21, 196215.17, 195035.792, 194100.127, 196719.48, 199985.197, 200054.083, 197551.13, 195395.938, 198594.536, 202656.056, 201573.513, 195335.706, 197835.299, 195919.773, 199250.045, 200182.16, 200751.814, 197438.312, 195256.582, 194358.582, 193246.333, 196356.578, 195743.283, 198345.558, 203181.546, 195479.263, 197712.598, 196418.062, 197067.021, 196959.941, 194820.302, 198362.424, 198294.437, 197370.587, 196529.236, 200667.927, 193608.92, 193074.53, 194304.611, 206354.244, 193756.851, 195440.724, 193459.711, 196848.472, 197166.445, 194908.967, 197840.061, 194465.527, 195830.632, 194835.467],
  "Optimizer iterations": 88,
  "Optimizer params": [0.5481944857862467, 0.9755420673990269, 0.5579346297592948, 1.0, 0.2231527618035593, 0.9998750364276497],
  "P": 3,
  "Problem": "MIS",
  "QJob durations [ms]": [196570.4002380371, 196546.85831069946, 195958.78958702087, 194745.8975315094, 194499.1352558136, 194595.74127197266, 195823.99892807007, 197036.18264198303, 196619.88711357117, 196994.9016571045, 198731.55856132507, 202670.8164215088, 199102.45776176453, 200866.33586883545, 193383.91256332397, 204091.22037887573, 199692.040681839, 198368.1378364563, 196358.6392402649, 195042.2224998474, 198223.18029403687, 196464.5173549652, 193467.28658676147, 196585.95323562622, 196202.9905319214, 195632.89713859558, 196070.24478912354, 194910.4926586151, 195097.52011299133, 195482.76138305664, 196556.55217170715, 202368.4208393097, 198418.231010437, 195280.0121307373, 195120.53179740906, 196030.16304969788, 197156.0115814209, 192292.71340370178, 196143.8548564911, 194955.5902481079, 194027.672290802, 196647.89199829102, 199906.99195861816, 199959.15579795837, 197465.05117416382, 195312.56437301636, 198521.72088623047, 202527.6653766632, 201501.5058517456, 195248.94332885742, 197665.60983657837, 195817.9669380188, 199147.08137512207, 200111.18054389954, 200682.062625885, 197358.0596446991, 195183.94422531128, 194270.8466053009, 193163.6621952057, 196275.14386177063, 195557.88469314575, 198262.34889030457, 203085.7605934143, 195403.4230709076, 197629.13346290588, 196320.30749320984, 196914.1764640808, 196890.54346084595, 194727.5891304016, 198266.32022857666, 198216.472864151, 197283.98942947388, 196459.4919681549, 200598.37341308594, 193527.71711349487, 192989.44854736328, 194222.43285179138, 206242.50888824463, 193656.13651275635, 195371.50812149048, 193370.14985084534, 196764.96195793152, 197040.93766212463, 194828.15027236938, 197734.7333431244, 194389.09196853638, 195750.5657672882, 194758.68368148804],
  "QPU": "6010030",
  "Qubits": 10,
  "Shots": 4096,
  "Size": 7,
  "Total Algorithm duration [s]": 17335.283,
  "Total Classic duration [s]": 8.066377885817928,
  "Total Quantum duration [s]": 17327.21662211418
}
