{
  "Circuit execution durations [ms]": [389.7285461425781, 359.21645164489746, 421.0367202758789, 391.13855361938477, 362.3056411743164, 424.9446392059326, 345.5922603607178, 285.8541011810303, 414.68024253845215, 359.00306701660156, 358.93702507019043, 334.7315788269043, 388.2720470428467, 438.9214515686035, 315.01030921936035, 467.46087074279785, 587.0797634124756, 462.8796577453613, 478.76477241516113, 493.3967590332031, 477.54740715026855, 421.2453365325928, 367.43903160095215, 434.4644546508789, 373.732328414917, 385.4496479034424, 442.3651695251465, 408.57815742492676, 356.20951652526855, 338.26255798339844, 349.0180969238281, 404.67214584350586, 356.4801216125488, 355.96489906311035, 368.23081970214844, 336.1473083496094, 313.04144859313965, 350.6181240081787, 419.68536376953125, 405.9491157531738, 349.1194248199463, 312.00432777404785, 432.50584602355957, 464.036226272583, 316.8351650238037, 343.57738494873047, 380.2492618560791, 400.06542205810547, 355.1139831542969, 315.62280654907227, 377.69007682800293, 370.90492248535156, 380.4800510406494, 351.22227668762207, 329.55455780029297, 347.2144603729248, 412.8074645996094, 341.5372371673584, 357.27906227111816, 379.67991828918457, 369.88234519958496, 418.0257320404053, 443.18199157714844, 409.1787338256836, 352.73218154907227, 362.471342086792, 394.5581912994385, 356.64892196655273, 420.3979969024658, 427.58822441101074, 316.93029403686523, 434.43799018859863, 374.8626708984375, 412.06860542297363, 355.5946350097656, 360.61978340148926, 355.7262420654297, 367.79046058654785, 351.8240451812744, 403.0609130859375, 331.2723636627197, 331.9706916809082, 322.22461700439453, 340.79504013061523, 464.754581451416, 457.34572410583496, 367.5417900085449, 414.87956047058105, 322.45469093322754, 465.47460556030273, 451.1680603027344, 383.12768936157227, 386.83152198791504, 453.95827293395996, 348.8636016845703, 334.63335037231445, 347.1951484680176, 332.9894542694092, 351.22108459472656, 310.7016086578369, 353.5192012786865, 367.8462505340576, 357.91683197021484, 367.3694133758545, 311.0942840576172, 375.34451484680176, 406.38208389282227, 423.1457710266113, 365.87047576904297, 312.15357780456543, 315.6716823577881, 357.40041732788086, 396.98147773742676, 372.1311092376709, 327.7568817138672, 487.3063564300537, 401.83424949645996, 353.0111312866211, 340.60096740722656, 328.9988040924072, 372.04527854919434, 360.29529571533203, 413.18655014038086, 396.3162899017334, 315.60349464416504, 415.38500785827637, 418.3940887451172, 389.88637924194336, 411.07964515686035, 355.3612232208252, 358.14690589904785, 338.747501373291, 367.8302764892578, 352.4141311645508, 407.55224227905273, 311.0976219177246, 449.49841499328613, 367.7058219909668, 455.52778244018555, 333.71901512145996, 397.41015434265137, 349.14660453796387, 362.32709884643555, 352.88333892822266, 418.0159568786621, 406.21376037597656, 415.971040725708, 432.58213996887207, 375.1235008239746, 371.52647972106934, 322.48997688293457, 379.1234493255615, 368.2234287261963, 328.95565032958984, 351.07946395874023, 430.0541877746582, 310.24885177612305, 326.39551162719727, 314.4383430480957, 351.0270118713379, 386.7490291595459, 389.9874687194824, 363.64293098449707, 314.5604133605957, 365.94510078430176, 333.2822322845459, 462.94331550598145, 428.1659126281738, 398.58531951904297, 407.37462043762207, 382.9457759857178, 363.328218460083, 315.1073455810547, 382.1439743041992, 312.18934059143066, 439.9576187133789, 380.0950050354004, 333.21475982666016, 349.14159774780273, 410.1979732513428, 361.6499900817871, 420.20106315612793, 425.21166801452637, 339.4775390625, 330.9516906738281, 494.3349361419678, 381.5176486968994, 366.09959602355957, 369.5681095123291, 394.6807384490967, 319.1847801208496, 341.8467044830322, 418.1978702545166, 378.5593509674072, 383.16988945007324, 328.6457061767578, 392.672061920166, 380.2149295806885, 357.9063415527344, 377.54082679748535, 408.19787979125977, 471.2371826171875, 349.9467372894287, 343.51110458374023, 436.0651969909668, 318.6500072479248, 319.4262981414795, 378.5593509674072, 331.93492889404297, 332.17406272888184, 342.32258796691895, 425.5669116973877, 381.32309913635254, 317.0135021209717, 397.5403308868408, 402.5228023529053, 376.8942356109619, 404.55150604248047, 374.5737075805664, 316.1511421203613, 325.24609565734863, 315.74010848999023, 347.11527824401855, 314.01777267456055, 333.1162929534912, 350.77857971191406, 374.33815002441406, 367.14768409729004, 370.71895599365234, 418.4098243713379, 478.7859916687012, 324.840784072876, 376.65271759033203, 370.4245090484619, 334.5904350280762, 358.736515045166, 384.75799560546875, 331.20059967041016, 371.66404724121094, 311.36083602905273, 366.31155014038086, 369.08793449401855, 357.90157318115234, 378.1604766845703, 332.68022537231445, 359.7078323364258, 362.99896240234375, 377.363920211792, 405.96866607666016, 403.231143951416, 326.2026309967041, 336.28392219543457, 376.44195556640625, 315.11497497558594, 332.974910736084, 330.233097076416, 376.0051727294922, 356.71257972717285, 421.231746673584, 350.6507873535156, 353.01804542541504, 437.31236457824707, 389.2822265625, 334.4755172729492, 327.2221088409424, 379.7433376312256, 345.3869819641113, 332.2014808654785, 309.7360134124756, 445.68562507629395, 313.59243392944336, 374.22657012939453, 368.5345649719238, 317.4176216125488, 424.008846282959, 324.8586654663086, 337.51821517944336, 344.1205024719238, 384.4876289367676, 324.8250484466553, 373.7320899963379, 381.1166286468506, 324.9518871307373, 325.1991271972656, 335.6034755706787, 391.36409759521484, 379.8806667327881, 324.85508918762207, 372.87330627441406, 363.5103702545166, 330.0738334655762, 352.9186248779297, 357.6030731201172, 312.744140625, 315.7169818878174, 393.6324119567871, 450.5789279937744, 467.5445556640625, 430.3271770477295, 569.3597793579102, 400.8042812347412, 377.70986557006836, 390.7277584075928, 371.7153072357178, 356.89711570739746, 355.9894561767578, 472.0721244812012, 428.9698600769043, 362.5152111053467, 390.7012939453125, 331.1727046966553, 406.9650173187256, 463.7281894683838, 405.4405689239502, 388.5335922241211, 408.22315216064453, 409.4841480255127, 356.2648296356201, 387.5277042388916, 443.50194931030273, 396.6064453125, 393.03040504455566, 362.61653900146484, 365.0705814361572, 385.5135440826416, 395.77794075012207, 361.4363670349121, 358.4706783294678, 370.41378021240234, 320.4667568206787, 437.17384338378906, 390.0134563446045, 343.6620235443115, 345.37577629089355, 465.2273654937744, 419.9175834655762, 455.9648036956787, 402.484655380249, 333.9526653289795, 379.5595169067383, 393.6929702758789, 416.79835319519043, 334.03825759887695, 424.7925281524658, 384.1257095336914, 430.5384159088135, 372.04623222351074, 456.96043968200684, 389.97554779052734, 432.72900581359863, 369.63438987731934, 422.3024845123291, 421.75793647766113, 373.9440441131592, 422.3921298980713, 399.5225429534912, 369.1549301147461, 333.47058296203613, 349.1854667663574, 312.8702640533447, 315.3681755065918, 442.82031059265137, 430.4311275482178, 349.1859436035156, 366.1794662475586, 378.4654140472412, 353.75094413757324, 334.57016944885254, 356.6887378692627, 440.35935401916504, 358.5646152496338, 339.0047550201416, 344.0108299255371, 328.960657119751, 326.40910148620605, 377.2287368774414, 435.11509895324707, 354.88390922546387, 338.15646171569824, 353.8818359375, 382.92860984802246, 336.8239402770996, 310.97888946533203, 370.3022003173828, 329.3898105621338, 329.64038848876953, 359.3575954437256, 313.34733963012695, 377.683162689209, 428.7290573120117, 391.6141986846924, 374.50289726257324, 327.4669647216797, 359.6208095550537, 389.23001289367676, 357.2530746459961, 374.131441116333, 397.13406562805176, 337.36419677734375, 425.9076118469238, 379.38475608825684, 357.01775550842285, 414.6571159362793, 370.26023864746094, 385.1499557495117, 403.670072555542, 312.39891052246094, 337.5852108001709, 336.38453483581543, 373.868465423584, 326.5855312347412, 345.91174125671387, 330.7647705078125, 328.3095359802246, 376.53493881225586, 318.1123733520508, 360.5828285217285, 331.6380977630615, 370.29218673706055, 332.7932357788086, 399.67894554138184, 342.63086318969727, 441.3275718688965, 387.43019104003906, 423.7058162689209, 348.13594818115234, 322.33619689941406, 472.69296646118164, 404.674768447876, 340.93332290649414, 347.2256660461426, 424.694299697876, 334.6998691558838, 361.8018627166748, 332.9470157623291, 349.22122955322266, 311.4349842071533, 331.0551643371582, 333.8003158569336, 385.7989311218262, 315.31548500061035, 322.6785659790039, 360.48245429992676, 330.6546211242676, 472.8879928588867, 435.89305877685547, 483.65116119384766, 358.49952697753906, 404.93154525756836, 369.5487976074219, 420.0859069824219, 367.9172992706299, 376.7111301422119, 434.69953536987305, 345.1840877532959, 333.3296775817871, 342.56887435913086, 397.4332809448242, 357.7737808227539, 324.62358474731445, 427.02436447143555, 372.27535247802734, 358.08682441711426, 416.4712429046631, 382.9672336578369, 374.3419647216797, 387.7573013305664, 343.017578125, 356.5704822540283, 353.26147079467773, 345.6761837005615, 321.59924507141113, 426.6998767852783, 366.779088973999, 335.72864532470703, 405.9593677520752, 412.6119613647461, 355.42869567871094, 390.3169631958008, 394.47975158691406, 375.0154972076416, 351.2389659881592, 433.8204860687256, 394.67716217041016, 359.5409393310547, 394.4392204284668, 345.7016944885254, 348.1907844543457, 357.7427864074707, 425.243616104126, 374.248743057251, 407.9868793487549, 337.735652923584, 314.486026763916, 384.14931297302246, 390.7144069671631, 359.67087745666504, 312.5162124633789, 372.24888801574707, 316.8833255767822, 353.92165184020996, 316.845178604126, 412.4491214752197, 335.8747959136963, 345.64208984375, 384.9804401397705, 385.92004776000977, 331.129789352417, 390.6693458557129, 399.72567558288574, 389.4200325012207, 362.80131340026855, 314.33606147766113, 335.25896072387695, 381.3197612762451, 364.3624782562256, 338.89126777648926, 375.4236698150635, 342.5133228302002, 337.34655380249023, 360.6135845184326, 468.83463859558105, 378.27372550964355, 352.9534339904785, 345.7508087158203, 383.87513160705566, 332.5369358062744, 346.8444347381592, 313.1086826324463, 326.89380645751953, 357.2700023651123, 364.1490936279297, 317.8141117095947, 397.5179195404053, 360.93950271606445, 379.7571659088135, 389.7404670715332, 353.8203239440918, 396.5771198272705, 329.14018630981445, 349.78556632995605, 392.5492763519287, 355.82590103149414, 380.3520202636719, 358.31141471862793, 339.15185928344727, 377.25019454956055, 316.0233497619629, 359.21692848205566, 327.73351669311523, 413.0716323852539, 320.54615020751953, 354.3517589569092, 317.673921585083, 386.6007328033447, 364.3369674682617, 396.5461254119873, 376.7890930175781, 341.83216094970703, 372.9879856109619, 390.09761810302734, 385.21671295166016, 321.97022438049316, 386.2464427947998, 331.03227615356445, 381.134033203125, 347.1028804779053, 328.0949592590332, 327.64267921447754, 435.12773513793945, 358.57200622558594, 357.3908805847168, 416.3322448730469, 332.8368663787842, 469.8009490966797, 526.1197090148926, 458.3313465118408, 463.2153511047363, 355.2238941192627, 329.9579620361328, 318.38130950927734, 331.9716453552246, 425.2474308013916, 351.3305187225342, 411.0243320465088, 363.0232810974121, 322.2191333770752, 401.55982971191406, 373.21949005126953, 519.4003582000732, 451.216459274292, 389.40906524658203, 323.67825508117676, 343.03951263427734, 399.42216873168945, 331.35366439819336, 375.40435791015625, 315.1133060455322, 388.2405757904053, 317.46792793273926, 417.45924949645996, 353.6820411682129, 324.75733757019043, 357.7544689178467, 327.38351821899414, 332.08751678466797, 378.2484531402588, 327.40187644958496, 388.5819911956787, 313.2758140563965, 431.12826347351074, 370.30482292175293, 337.3560905456543, 331.1343193054199, 368.1058883666992, 363.7654781341553, 313.04001808166504, 311.1727237701416, 353.2280921936035, 375.23531913757324, 372.2531795501709, 343.1851863861084, 356.5104007720947, 351.47643089294434, 401.83091163635254, 365.8733367919922, 405.6112766265869, 389.50634002685547, 318.1636333465576, 314.12768363952637, 342.90122985839844, 367.236852645874, 431.39171600341797, 370.1763153076172, 416.71109199523926, 456.5274715423584, 424.8480796813965, 347.379207611084, 375.98180770874023, 313.32945823669434, 478.6877632141113, 385.35404205322266, 369.0011501312256, 410.200834274292, 431.9117069244385, 313.995361328125, 330.1568031311035, 411.76867485046387, 369.78602409362793, 376.86610221862793, 331.1769962310791, 334.90467071533203, 430.941104888916, 382.6863765716553, 355.21936416625977, 340.74902534484863, 392.92311668395996, 342.36884117126465, 346.9665050506592, 373.63147735595703, 328.2651901245117, 374.63903427124023, 346.3325500488281, 323.95362854003906, 395.4489231109619, 398.6086845397949, 405.69281578063965, 316.88547134399414, 370.4111576080322, 342.8077697753906, 343.9469337463379, 427.717924118042, 319.51236724853516, 327.59571075439453, 374.35340881347656, 380.2931308746338, 345.3364372253418, 385.41555404663086, 338.9420509338379, 325.44970512390137, 403.65052223205566, 350.3878116607666, 357.8977584838867, 317.0475959777832, 335.8786106109619, 357.14268684387207, 339.2503261566162, 326.9352912902832, 338.0866050720215, 398.4413146972656, 340.61455726623535, 494.62103843688965, 362.04981803894043, 427.0467758178711, 514.1818523406982, 387.7747058868408, 324.19610023498535, 415.56787490844727, 450.406551361084, 396.3024616241455, 328.5806179046631, 411.9844436645508, 387.1572017669678, 407.1087837219238, 329.59437370300293, 325.66046714782715, 317.61980056762695, 381.6699981689453, 326.62129402160645, 342.8187370300293, 341.4335250854492, 362.18714714050293, 331.2253952026367, 328.46951484680176, 373.3699321746826, 315.3564929962158, 358.4733009338379, 387.1805667877197, 340.2833938598633, 316.4186477661133, 376.8165111541748, 373.40831756591797, 481.8735122680664, 362.804651260376, 332.7763080596924, 345.7446098327637, 382.28368759155273, 342.04983711242676, 347.6698398590088, 377.5660991668701, 352.3392677307129, 316.11037254333496, 410.4607105255127, 329.61130142211914, 346.06003761291504, 326.7178535461426, 355.6661605834961, 399.19567108154297, 379.8708915710449, 325.83165168762207, 317.6157474517822, 430.2387237548828, 349.3001461029053, 368.3013916015625, 334.60521697998047, 327.09360122680664, 329.6351432800293, 322.0651149749756, 459.3064785003662, 375.4127025604248, 326.2913227081299, 377.5830268859863, 341.8090343475342, 384.7005367279053, 429.9283027648926, 314.5465850830078, 342.726469039917, 331.0530185699463, 385.1006031036377, 328.6607265472412, 421.25725746154785, 337.3258113861084, 351.8526554107666, 356.2033176422119, 367.5200939178467, 389.2371654510498, 337.6049995422363, 366.51062965393066, 395.7803249359131, 350.4180908203125, 313.0154609680176, 345.64995765686035, 365.4918670654297, 338.35434913635254, 339.9467468261719, 394.4716453552246, 347.8708267211914, 343.3070182800293, 314.27693367004395, 405.43508529663086, 338.8853073120117, 345.8528518676758, 322.5729465484619, 327.01563835144043, 327.26144790649414, 348.08897972106934, 522.8288173675537, 392.075777053833, 338.98234367370605, 315.9370422363281, 388.34404945373535, 329.05101776123047, 370.5785274505615, 314.3606185913086, 381.17003440856934, 372.8899955749512, 329.22863960266113, 327.29482650756836, 330.89470863342285, 355.7751178741455, 377.5322437286377, 408.8778495788574, 419.86703872680664, 331.61282539367676, 409.4696044921875, 334.95020866394043, 345.52597999572754, 451.5388011932373, 367.45238304138184, 377.3691654205322, 350.9631156921387, 335.7505798339844, 352.37622261047363, 337.44311332702637, 375.08678436279297, 367.08927154541016, 444.9045658111572, 339.8323059082031, 330.4474353790283, 427.0029067993164, 319.1642761230469, 354.0027141571045, 355.0722599029541, 347.8562831878662, 415.5914783477783, 417.0818328857422, 338.2279872894287, 369.39072608947754, 351.520299911499, 370.4206943511963, 419.01683807373047, 398.92125129699707, 381.1357021331787, 375.37288665771484, 372.8635311126709, 343.9908027648926, 387.14051246643066],
  "Depth": 14.0,
  "Expectation Value": -0.999755859375,
  "Optimal Expectation Value": -1.0,
  "Optimizer durations [ms]": [933.51, 975.505, 1219.439, 1068.817, 1055.958, 1041.62, 1060.785, 1075.085, 1222.792, 1018.166, 1115.405, 988.648, 1064.126, 951.464, 1025.257, 1098.933, 983.157, 1099.763, 995.186, 1079.367, 1035.221, 1010.36, 1072.651, 1084.612, 922.72, 999.64, 1086.807, 1017.628, 1099.716, 1043.574, 979.616, 1049.282, 990.784, 1072.913, 1051.55, 1047.799, 1021.005, 962.15, 934.371, 1039.519, 1314.163, 1035.045, 1021.149, 942.816, 1060.298, 974.38, 1062.363, 948.601, 1025.697, 975.3, 975.509, 955.377, 994.457, 1017.924, 1073.659, 1117.977, 1126.644, 1076.142, 1127.073, 948.369, 1130.782, 1120.971, 989.337, 1079.876, 983.486, 1010.634, 1028.22, 936.812, 1020.085, 1040.275, 1079.424, 986.062, 958.64, 1088.979, 962.982, 1047.004, 972.023, 1023.383, 1012.948, 1227.638, 1014.594, 1041.171, 971.473, 1068.289, 1121.443, 1048.169, 1017.809, 1068.742, 987.598, 949.632, 1092.725],
  "Optimizer iterations": 91,
  "Optimizer params": [0.9164589792335873, 0.1781496243459759, 0.07364188667406259, 0.016001931411164717, 0.3827124277366984, 0.06820182411541502],
  "P": 3,
  "Problem": "MCP",
  "QJob durations [ms]": [926.8605709075928, 968.8832759857178, 1212.8784656524658, 1059.9615573883057, 1048.4988689422607, 1033.6039066314697, 985.194206237793, 1067.0640468597412, 1215.498685836792, 1008.8784694671631, 1106.4002513885498, 981.9889068603516, 1056.5738677978516, 936.8693828582764, 1018.608570098877, 1089.9500846862793, 976.1159420013428, 1092.6284790039063, 986.5970611572266, 1072.2033977508545, 1028.667688369751, 1003.3893585205078, 1061.918020248413, 1075.150966644287, 915.708065032959, 993.1223392486572, 1077.897548675537, 1009.0978145599365, 1092.982292175293, 1036.5233421325684, 971.0485935211182, 1038.217544555664, 983.7067127227783, 1065.5534267425537, 1044.684648513794, 1028.7632942199707, 1014.0516757965088, 955.6636810302734, 927.448034286499, 1031.2225818634033, 1243.931770324707, 1025.383472442627, 1014.2116546630859, 933.0768585205078, 1049.6501922607422, 966.9439792633057, 1050.3358840942383, 940.9139156341553, 1016.8945789337158, 968.0614471435547, 968.5754776000977, 948.6191272735596, 985.2991104125977, 1009.829044342041, 1063.1654262542725, 1111.0069751739502, 1119.0836429595947, 1007.6568126678467, 1117.006778717041, 941.7178630828857, 1123.5957145690918, 1112.907886505127, 981.2977313995361, 1073.3051300048828, 977.1623611450195, 1002.4585723876953, 1021.3291645050049, 926.0780811309814, 1012.8974914550781, 1033.6987972259521, 1072.8845596313477, 979.2442321777344, 951.690673828125, 1081.772804260254, 955.3966522216797, 1040.1332378387451, 964.7049903869629, 1016.8197154998779, 1005.415678024292, 1220.656156539917, 1007.2386264801025, 1034.5027446746826, 964.8313522338867, 1061.8476867675781, 1112.943172454834, 1032.6759815216064, 1010.92529296875, 1061.0311031341553, 977.2021770477295, 942.5880908966064, 1085.1044654846191],
  "QPU": "6010030",
  "Qubits": 2,
  "Shots": 4096,
  "Size": 2,
  "Total Algorithm duration [s]": 94.449,
  "Total Classic duration [s]": 0.9232200374603252,
  "Total Quantum duration [s]": 93.52577996253967
}
