{
  "Depth": 2.0,
  "Expectation Value": -3.5925002098083496,
  "Job durations [ms]": [0.10004999785451218, 0.09195000166073442, 0.29349999749683775, 0.11409999569877982, 0.2298500039614737, 0.09499999941908754, 0.11950000043725595, 0.09984999996959232, 0.10344999463995919, 0.10859999747481197, 0.10569999722065404, 0.22204999550012872, 0.19505000454955734, 0.10829999882844277, 0.13579999722423963, 0.11525000081746839, 0.10685000233934261, 0.10470000052009709, 0.10259999908157624, 0.11604999963310547, 0.11359999916749075, 0.09309999950346537, 0.10865000149351545, 0.09300000237999484, 0.11825000183307566, 0.1065500000549946, 0.10639999891282059, 0.15490000077988952, 0.09750000026542693, 0.22570000146515667, 0.10174999988521449, 0.10044999726233073, 0.10575000123935752, 0.20005000260425732, 0.10099999781232327, 0.10240000119665638, 0.10739999925135635, 0.11084999641752802, 0.09884999963105656, 0.10584999836282805, 0.1568000006955117, 0.09770000178832561, 0.0932000002649147, 0.2425499951641541, 0.11174999963259324, 0.10029999975813553, 0.109200002043508, 0.10554999971645884, 0.10195000140811317, 0.12370000331429765, 0.10280000060447492, 0.11794999591074884, 0.2704500002437271, 0.10724999810918234, 0.10459999975864775, 0.11374999667168595, 0.10159999874304049, 0.20995000159018673, 0.11365000318619423, 0.09815000157686882, 0.09810000119614415, 0.107149997347733, 0.26879999495577067, 0.10805000056279823, 0.1126000024669338, 0.2727999926719349, 0.11320000339765102, 0.10109999857377261, 0.09264999971492216, 0.10169999586651102, 0.10420000035082921, 0.10910000128205866, 0.11065000217058696, 0.10630000178935006, 0.10565000047790818, 0.12339999739197083, 0.11965000521740876, 0.10000000111176632, 0.09795000005397014, 0.09990000035031699, 0.10025000301538967, 0.11189999713678844, 0.13690000196220353, 0.10404999920865521, 0.10110000221175142, 0.11015000200131908, 0.10665000445442274, 0.23360000341199338],
  "Optimal Expectation Value": -3.5925002098083496,
  "Optimizer durations [ms]": [20.064, 21.184, 19.817, 17.633, 16.22, 14.717, 22.432, 18.61, 22.315, 18.618, 18.484, 17.491, 16.186, 18.669, 21.675, 13.729, 22.126, 19.498, 19.852, 17.471, 17.658, 22.241, 15.074, 18.757, 18.829, 19.59, 17.262, 13.956, 19.385, 19.243, 22.239, 16.329, 16.7, 21.457, 18.945, 21.595, 16.249, 20.525, 16.418, 18.692, 19.604, 18.614, 18.286, 18.171, 22.206, 21.08, 16.038, 20.583, 19.77, 11.894, 18.848, 14.151, 14.222, 18.541, 19.497, 21.488, 14.754, 16.484, 19.404, 17.36, 22.295, 14.957, 17.024, 17.387, 21.043, 17.339, 16.259, 15.365, 20.851, 15.559, 20.668, 16.568, 22.586, 19.628, 22.839, 19.676, 18.366, 20.547, 22.153, 14.546, 17.464, 15.236, 21.993, 18.129, 19.084, 17.989, 17.434, 18.928],
  "Optimizer iterations": 88,
  "Optimizer params": [0.9993198284696356, 0.4970351200817368, 0.9965743434214365, 0.5036789082606253, 0.5006127571941255, 0.9999999999999999],
  "P": 0,
  "Problem": "RH",
  "QPU": "7000000",
  "Qubits": 6,
  "Shots": 4096,
  "Size": 6,
  "Total Algorithm duration [s]": 1.63,
  "Total Classic duration [s]": 1.6189394000056199,
  "Total Quantum duration [s]": 0.011060599994380027
}
