{
  "Depth": 2.0,
  "Expectation Value": -3.5925002098083496,
  "Job durations [ms]": [0.10350000229664147, 0.12385000081849284, 0.09554999996908009, 0.09499999941908754, 0.26980000257026404, 0.2851999961421825, 0.10090000068885274, 0.10740000288933516, 0.11325000014039688, 0.1099499968404416, 0.31614999898010865, 0.09590000263415277, 0.17449999722884968, 0.10150000161956996, 0.1157000006060116, 0.12354999853414483, 0.11059999815188348, 0.2709499967750162, 0.2658500052348245, 0.12089999654563144, 0.15279999934136868, 0.09724999836180359, 0.12375000005704351, 0.11000000085914508, 0.10710000060498714, 0.14105000445852056, 0.11605000327108428, 0.09999999747378752, 0.11529999756021425, 0.17189999925903976, 0.10579999798210338, 0.25400000595254824, 0.15115000132936984, 0.10095000106957741, 0.17189999925903976, 0.24339999436051585, 0.11029999950551428, 0.10900000052060932, 0.12114999844925478, 0.11249999806750566, 0.10745000327005982, 0.10440000187372789, 0.18854999871109612, 0.11660000018309802, 0.11539999832166359, 0.1109000004362315, 0.2551500001573004, 0.10154999836231582, 0.1068499987013638, 0.11085000005550683, 0.11535000157891773, 0.1114999977289699, 0.14400000509340316, 0.15195000014500692, 0.10320000001229346, 0.09394999869982712, 0.11915000141016208, 0.11330000052112155, 0.10720000136643648, 0.10214999929303303, 0.25019999884534627, 0.11504999929456972, 0.11775000166380778, 0.10370000018156134, 0.112599998828955, 0.10250000195810571, 0.2211499959230423, 0.12665000394918025, 0.1005000012810342, 0.11490000179037452, 0.24665000091772527, 0.25740000273799524, 0.11899999663000926, 0.11995000386377797, 0.10414999997010455, 0.10895000013988465, 0.22345000616041943, 0.10179999662796035, 0.19715000235009938, 0.15445000099134631, 0.0972500019997824, 0.10629999815137126, 0.10010000187321566, 0.11665000056382269, 0.1099499968404416, 0.10209999891230837, 0.10870000187424012, 0.10495000242372043],
  "Optimal Expectation Value": -3.5925002098083496,
  "Optimizer durations [ms]": [20.334, 18.501, 15.73, 14.544, 12.597, 21.863, 12.513, 19.432, 14.653, 20.943, 21.606, 18.369, 18.943, 22.376, 18.072, 17.925, 18.072, 21.52, 16.171, 13.712, 21.268, 16.449, 22.289, 19.509, 18.746, 17.86, 17.66, 17.3, 13.883, 21.536, 16.43, 18.69, 20.81, 18.642, 14.569, 16.917, 16.387, 16.178, 17.514, 19.144, 17.892, 20.231, 21.037, 20.289, 22.147, 20.278, 19.088, 15.192, 20.546, 18.353, 19.722, 13.32, 18.471, 16.38, 16.502, 15.474, 21.287, 16.132, 22.147, 20.975, 19.968, 21.802, 17.485, 22.402, 18.396, 15.955, 18.334, 21.047, 13.371, 18.599, 21.656, 16.329, 12.888, 18.545, 16.557, 15.797, 19.12, 20.231, 20.825, 20.394, 16.667, 22.809, 15.238, 15.549, 18.413, 14.454, 20.915, 18.694],
  "Optimizer iterations": 88,
  "Optimizer params": [0.9993198284696356, 0.4970351200817368, 0.9965743434214365, 0.5036789082606253, 0.5006127571941255, 0.9999999999999999],
  "P": 0,
  "Problem": "RH",
  "QPU": "7000000",
  "Qubits": 6,
  "Shots": 4096,
  "Size": 6,
  "Total Algorithm duration [s]": 1.607,
  "Total Classic duration [s]": 1.5948612499815062,
  "Total Quantum duration [s]": 0.012138750018493738
}
