{
  "Depth": 2.0,
  "Expectation Value": -3.5925002098083496,
  "Job durations [ms]": [0.12079999942216091, 0.12415000310284086, 0.11350000204402022, 0.11315000301692635, 0.10235000081593171, 0.10420000035082921, 0.11249999806750566, 0.10074999954667874, 0.2776000001176726, 0.24429999393760227, 0.0991000015346799, 0.1847000021371059, 0.10169999950448982, 0.09670000144978985, 0.10115000259247608, 0.10435000149300322, 0.0986500017461367, 0.09965000208467245, 0.12095000056433491, 0.1034500019159168, 0.09619999764254317, 0.19204999625799246, 0.3291500033810735, 0.3147000024910085, 0.13659999967785552, 0.10174999988521449, 0.10390000170446001, 0.11104999794042669, 0.2732499997364357, 0.10560000009718351, 0.10755000039353035, 0.09590000263415277, 0.11335000090184622, 0.1114999977289699, 0.10404999920865521, 0.09499999941908754, 0.1048500016622711, 0.10564999683992937, 0.09789999967324547, 0.10579999798210338, 0.10635000217007473, 0.10209999891230837, 0.2668000051926356, 0.11100000119768083, 0.09945000056177378, 0.1007999999274034, 0.24389999452978373, 0.09424999734619632, 0.09839999984251335, 0.12460000289138407, 0.2760500028671231, 0.09800000043469481, 0.09634999878471717, 0.09660000068834051, 0.10930000280495733, 0.23024999973131344, 0.09824999870033935, 0.1234499977726955, 0.10000000111176632, 0.11394999819458462, 0.11574999734875746, 0.10000000111176632, 0.2744000012171455, 0.10700000348151661, 0.11959999756072648, 0.2909499999077525, 0.10764999751700088, 0.10720000136643648, 0.0989500003925059, 0.10904999726335518, 0.23204999888548627, 0.09770000178832561, 0.1006500024232082, 0.2524999945308082, 0.09955000132322311, 0.09839999984251335, 0.22205000277608633, 0.1004999976430554, 0.22869999520480633, 0.10470000052009709, 0.11884999912581407, 0.09934999980032444, 0.11640000229817815, 0.10490000204299577, 0.2902999985963106, 0.09979999958886765, 0.09605000013834797, 0.10785000267787836],
  "Optimal Expectation Value": -3.5925002098083496,
  "Optimizer durations [ms]": [16.072, 18.699, 15.237, 9.859, 18.846, 17.737, 19.34, 20.905, 21.71, 14.671, 18.139, 17.903, 20.546, 17.643, 15.102, 18.314, 20.629, 16.501, 14.163, 19.199, 12.208, 21.688, 22.123, 22.02, 17.147, 21.451, 20.671, 17.192, 19.593, 18.103, 22.06, 18.851, 18.496, 15.943, 22.187, 18.056, 14.746, 21.36, 17.956, 18.526, 19.991, 19.932, 16.39, 20.858, 22.267, 17.906, 18.241, 15.218, 22.249, 10.564, 21.191, 14.452, 18.87, 17.945, 18.748, 17.758, 19.189, 18.395, 19.535, 15.581, 15.947, 9.05, 18.326, 21.277, 14.899, 17.942, 19.509, 19.085, 20.503, 19.129, 15.503, 20.084, 21.518, 19.338, 17.503, 21.546, 14.395, 22.508, 21.989, 17.877, 20.113, 22.314, 21.342, 17.975, 16.659, 19.133, 18.055, 19.351],
  "Optimizer iterations": 88,
  "Optimizer params": [0.9993198284696356, 0.4970351200817368, 0.9965743434214365, 0.5036789082606253, 0.5006127571941255, 0.9999999999999999],
  "P": 0,
  "Problem": "RH",
  "QPU": "7000000",
  "Qubits": 6,
  "Shots": 4096,
  "Size": 6,
  "Total Algorithm duration [s]": 1.619,
  "Total Classic duration [s]": 1.6069797999892617,
  "Total Quantum duration [s]": 0.012020200010738336
}
