{
  "Depth": 2.0,
  "Expectation Value": -3.5925002098083496,
  "Job durations [ms]": [0.10225000005448237, 0.09325000064563937, 0.11515000369399786, 0.12220000280649401, 0.10414999997010455, 0.10970000221277587, 0.0972500019997824, 0.10645000293152407, 0.10130000009667128, 0.10895000013988465, 0.1006500024232082, 0.14150000060908496, 0.10539999857428484, 0.14074999853619374, 0.20534999202936888, 0.20790000417036936, 0.23689999943599105, 0.09644999954616651, 0.1050000028044451, 0.3083000046899542, 0.10805000056279823, 0.21645000742864795, 0.10675000157789327, 0.10045000090030953, 0.11939999967580661, 0.11285000073257834, 0.3077000073972158, 0.10420000035082921, 0.11165000250912271, 0.222400005441159, 0.10459999975864775, 0.22059999173507094, 0.21835000370629132, 0.26110000180779025, 0.10829999519046396, 0.2115500028594397, 0.10164999912376516, 0.16635000065434724, 0.11719999747583643, 0.11074999929405749, 0.1110500015784055, 0.0959999997576233, 0.10604999988572672, 0.11344999802531675, 0.19144999896525405, 0.11155000174767338, 0.20515000505838543, 0.09494999903836288, 0.0987999992503319, 0.1076500047929585, 0.09819999831961468, 0.28915000439155847, 0.10645000293152407, 0.09605000013834797, 0.09625000166124664, 0.18020000425167382, 0.10100000145030208, 0.16630000027362257, 0.10124999971594661, 0.10069999916595407, 0.1155499994638376, 0.10584999836282805, 0.21764999473816715, 0.12314999912632629, 0.11010000162059441, 0.09554999996908009, 0.09385000157635659, 0.11694999921019189, 0.10059999840450473, 0.24975000997073948, 0.10459999975864775, 0.09655000030761585, 0.112749999971129, 0.09945000056177378, 0.10729999848990701, 0.11255000208620913, 0.12195000090287067, 0.11815000107162632, 0.2192999963881448, 0.10304999887011945, 0.12090000018361025, 0.11595000250963494, 0.17164999735541642, 0.14709999595652334, 0.09700000009615906, 0.09514999692328274, 0.13130000297678635, 0.1564999984111637],
  "Optimal Expectation Value": -3.5925002098083496,
  "Optimizer durations [ms]": [13.905, 22.254, 18.043, 20.817, 14.755, 20.946, 10.269, 22.015, 20.077, 16.841, 16.065, 16.84, 19.778, 21.879, 17.652, 20.098, 16.655, 19.67, 19.109, 19.206, 22.283, 19.759, 18.259, 18.854, 14.292, 10.29, 20.501, 18.777, 13.884, 18.062, 20.1, 19.806, 18.617, 18.411, 19.153, 18.5, 17.496, 17.035, 20.068, 17.137, 12.832, 17.699, 15.05, 22.195, 15.808, 20.731, 15.703, 17.93, 18.042, 16.214, 15.804, 13.573, 18.343, 17.695, 18.304, 16.786, 21.813, 17.042, 16.465, 20.25, 22.153, 14.531, 19.418, 12.738, 12.869, 17.973, 19.249, 10.774, 19.302, 17.313, 20.402, 16.798, 15.483, 20.04, 18.417, 14.183, 16.165, 19.654, 15.243, 20.805, 20.923, 19.406, 14.995, 18.033, 18.366, 18.231, 19.124, 21.647],
  "Optimizer iterations": 88,
  "Optimizer params": [0.9993198284696356, 0.4970351200817368, 0.9965743434214365, 0.5036789082606253, 0.5006127571941255, 0.9999999999999999],
  "P": 0,
  "Problem": "RH",
  "QPU": "7000000",
  "Qubits": 6,
  "Shots": 4096,
  "Size": 6,
  "Total Algorithm duration [s]": 1.57,
  "Total Classic duration [s]": 1.5580289499487845,
  "Total Quantum duration [s]": 0.01197105005121557
}
