{
  "Depth": 2.0,
  "Expectation Value": -3.5925002098083496,
  "Job durations [ms]": [0.10085000030812807, 0.17430000298190862, 0.10395000208518468, 0.10335000115446746, 0.1020499985315837, 0.26295000498066656, 0.10650000331224874, 0.1186500012408942, 0.12395000157994218, 0.14199999714037403, 0.10275000022375025, 0.10584999836282805, 0.10465000377735123, 0.11565000022528693, 0.09610000051907264, 0.29114999051671475, 0.09425000098417513, 0.09834999946178868, 0.23814999804017134, 0.1204999971378129, 0.10074999954667874, 0.1111999990826007, 0.12045000403304584, 0.28094999288441613, 0.09779999891179614, 0.09640000280342065, 0.16930000492720865, 0.1048500016622711, 0.12704999608104117, 0.09730000238050707, 0.20430000222404487, 0.0972500019997824, 0.20434999896679074, 0.10639999891282059, 0.2215000058640726, 0.10069999916595407, 0.11364999591023661, 0.2858499938156456, 0.11829999857582152, 0.14125000234344043, 0.09554999996908009, 0.1100999979826156, 0.09720000161905773, 0.09890000001178123, 0.0958500022534281, 0.12095000420231372, 0.10985000335494988, 0.1020499985315837, 0.094600000011269, 0.19794999752775766, 0.10180000026593916, 0.31335000312537886, 0.10200000178883784, 0.09535000208416022, 0.10955000107060187, 0.21954999829176813, 0.09454999963054433, 0.1049999991664663, 0.11240000094403513, 0.10699999984353781, 0.10169999950448982, 0.26494999474380165, 0.11314999937894754, 0.2805499898386188, 0.09789999967324547, 0.10209999891230837, 0.14290000035543926, 0.12264999531907961, 0.3061500028707087, 0.15205000090645626, 0.10075000318465754, 0.1024999983201269, 0.12405000234139152, 0.11404999895603396, 0.11005000123986974, 0.11035000352421775, 0.11004999760189094, 0.11954999718000181, 0.27070000214735046, 0.11795000318670645, 0.20489999587880448, 0.10960000145132653, 0.17049999951268546, 0.10730000212788582, 0.09900000077323057, 0.2660999962245114, 0.10385000132373534, 0.11240000458201393],
  "Optimal Expectation Value": -3.5925002098083496,
  "Optimizer durations [ms]": [22.26, 16.306, 18.806, 18.263, 18.893, 18.544, 22.553, 15.226, 18.308, 17.251, 17.966, 21.186, 17.634, 20.841, 15.827, 18.449, 18.337, 22.242, 19.357, 22.081, 15.053, 19.108, 16.419, 21.777, 22.085, 22.179, 18.745, 18.339, 21.938, 17.094, 20.058, 16.166, 19.025, 17.887, 18.716, 18.17, 18.409, 19.514, 22.37, 16.099, 20.213, 19.553, 14.352, 17.765, 17.699, 14.056, 6.44, 17.257, 19.473, 16.997, 22.262, 14.007, 19.383, 15.581, 22.327, 21.163, 19.489, 20.617, 21.147, 21.819, 20.65, 18.08, 22.691, 19.937, 15.365, 16.614, 17.772, 15.748, 16.117, 18.056, 21.48, 15.845, 18.159, 14.782, 11.207, 13.667, 16.522, 10.448, 17.155, 15.113, 18.44, 22.339, 21.75, 22.221, 19.155, 20.375, 14.883, 21.661],
  "Optimizer iterations": 88,
  "Optimizer params": [0.9993198284696356, 0.4970351200817368, 0.9965743434214365, 0.5036789082606253, 0.5006127571941255, 0.9999999999999999],
  "P": 0,
  "Problem": "RH",
  "QPU": "7000000",
  "Qubits": 6,
  "Shots": 4096,
  "Size": 6,
  "Total Algorithm duration [s]": 1.617,
  "Total Classic duration [s]": 1.6047731499946094,
  "Total Quantum duration [s]": 0.012226850005390588
}
