{
  "Depth": 2.0,
  "Expectation Value": -3.5925002098083496,
  "Job durations [ms]": [0.09850000060396269, 0.10169999950448982, 0.158200000441866, 0.14335000014398247, 0.13264999870443717, 0.11295000149402767, 0.11480000102892518, 0.11340000128257088, 0.11214999904041179, 0.1130499986174982, 0.1259499986190349, 0.18869999985327013, 0.11140000424347818, 0.09685000259196386, 0.10055000166175887, 0.19600000086938962, 0.11879999510711059, 0.2644500054884702, 0.10609999662847258, 0.2541499998187646, 0.09965000208467245, 0.10304999887011945, 0.12414999582688324, 0.11649999942164868, 0.09839999984251335, 0.170599996636156, 0.09850000060396269, 0.17009999646688811, 0.10075000318465754, 0.12119999882997945, 0.19700000120792538, 0.09905000115395524, 0.11645000267890282, 0.09934999980032444, 0.1994500053115189, 0.10779999865917489, 0.18910000653704628, 0.11054999777115881, 0.2700999903026968, 0.10325000039301813, 0.1957500062417239, 0.10674999793991446, 0.10210000255028717, 0.10900000415858813, 0.09704999683890492, 0.09655000030761585, 0.10724999810918234, 0.10399999882793054, 0.11805000031017698, 0.10304999887011945, 0.11435000124038197, 0.10275000386172906, 0.24280000434373505, 0.10479999764356762, 0.09335000140708871, 0.31489999673794955, 0.11315000301692635, 0.20149999909335747, 0.11484999777167104, 0.11464999988675117, 0.10304999887011945, 0.21239999477984384, 0.1326000055996701, 0.09465000039199367, 0.10189999738940969, 0.08745000013732351, 0.0986500017461367, 0.24035000024014153, 0.21864999871468171, 0.10519999705138616, 0.09689999933470972, 0.09420000060345046, 0.13889999536331743, 0.1078000022971537, 0.14965000445954502, 0.09789999967324547, 0.09829999908106402, 0.10465000013937242, 0.10610000026645139, 0.09884999963105656, 0.2595000078144949, 0.20524999854387715, 0.2189499937230721, 0.10914999802480452, 0.09519999730400741, 0.10104999819304794, 0.10910000128205866, 0.26059999800054356],
  "Optimal Expectation Value": -3.5925002098083496,
  "Optimizer durations [ms]": [18.937, 16.609, 21.635, 14.102, 17.147, 15.766, 12.978, 18.55, 14.428, 16.377, 18.813, 21.494, 17.002, 18.358, 18.388, 18.256, 13.975, 19.605, 16.419, 20.092, 19.946, 19.24, 22.866, 17.114, 16.855, 16.325, 19.527, 21.736, 14.445, 21.425, 17.53, 15.906, 12.753, 18.478, 21.308, 16.252, 17.158, 22.73, 17.787, 18.225, 19.708, 16.931, 20.389, 16.251, 21.269, 17.785, 20.665, 20.043, 22.729, 14.164, 21.468, 20.073, 18.918, 17.623, 21.537, 18.932, 14.675, 19.273, 16.926, 22.091, 19.073, 19.787, 14.456, 21.242, 22.125, 22.066, 14.596, 15.144, 18.889, 21.826, 17.769, 16.433, 20.176, 19.522, 21.87, 19.604, 17.748, 12.127, 19.568, 17.602, 17.863, 14.914, 21.726, 14.903, 22.059, 19.152, 17.97, 21.753],
  "Optimizer iterations": 88,
  "Optimizer params": [0.9993198284696356, 0.4970351200817368, 0.9965743434214365, 0.5036789082606253, 0.5006127571941255, 0.9999999999999999],
  "P": 0,
  "Problem": "RH",
  "QPU": "7000000",
  "Qubits": 6,
  "Shots": 4096,
  "Size": 6,
  "Total Algorithm duration [s]": 1.62,
  "Total Classic duration [s]": 1.6080377000008594,
  "Total Quantum duration [s]": 0.011962299999140669
}
