{
  "Depth": 2.0,
  "Expectation Value": -3.5925002098083496,
  "Job durations [ms]": [0.103449998277938, 0.09549999958835542, 0.10659999679774046, 0.10459999975864775, 0.11240000094403513, 0.1036000030580908, 0.18545000057201833, 0.3048499929718673, 0.10235000081593171, 0.10250000195810571, 0.09995000073104165, 0.11054999777115881, 0.1082499984477181, 0.21505000040633604, 0.11495000217109919, 0.10675000157789327, 0.10295000174664892, 0.12214999878779054, 0.10390000170446001, 0.12290000086068176, 0.18415000522509217, 0.09235000106855296, 0.1097999993362464, 0.16090000281110406, 0.25680000544525683, 0.11714999709511176, 0.10769999789772555, 0.09510000018053688, 0.10280000060447492, 0.09914999827742577, 0.2056500015896745, 0.10459999975864775, 0.11910000102943741, 0.11055000140913762, 0.09575000149197876, 0.12715000411844812, 0.09774999853107147, 0.10335000115446746, 0.10509999992791563, 0.10634999853209592, 0.09620000128052197, 0.1099500004784204, 0.11264999920967966, 0.2721499986364506, 0.10849999671336263, 0.11035000352421775, 0.10440000187372789, 0.14305000149761327, 0.11649999578366987, 0.16829999367473647, 0.10755000403150916, 0.1085499970940873, 0.11870000162161887, 0.12974999845027924, 0.10675000157789327, 0.13670000043930486, 0.09870000212686136, 0.11199999789823778, 0.10074999954667874, 0.11420000373618677, 0.11644999904092401, 0.09869999848888256, 0.15775000065332279, 0.1054499989550095, 0.10474999726284295, 0.09979999958886765, 0.10465000013937242, 0.10930000280495733, 0.09639999916544184, 0.2235999927506782, 0.10180000026593916, 0.09855000098468736, 0.1852999921538867, 0.21355000717449002, 0.09900000077323057, 0.10440000187372789, 0.10509999992791563, 0.11604999963310547, 0.13814999692840502, 0.3045499870495405, 0.10150000161956996, 0.09990000035031699, 0.09735000276123174, 0.11535000157891773, 0.10304999887011945, 0.185349999810569, 0.11779999840655364, 0.2860999957192689],
  "Optimal Expectation Value": -3.5925002098083496,
  "Optimizer durations [ms]": [14.739, 21.288, 22.119, 16.797, 16.242, 15.461, 14.155, 17.809, 22.003, 19.956, 22.026, 18.82, 18.088, 19.515, 20.789, 21.772, 20.672, 16.884, 22.428, 15.846, 21.431, 22.138, 20.032, 21.907, 19.964, 15.917, 21.162, 15.059, 14.638, 17.446, 16.884, 19.44, 16.831, 17.701, 22.032, 12.859, 19.181, 22.313, 19.694, 22.472, 19.372, 17.787, 21.495, 19.105, 19.954, 20.577, 18.331, 14.368, 15.033, 18.256, 14.779, 22.054, 15.499, 21.811, 14.541, 21.994, 15.103, 18.251, 18.252, 15.599, 22.446, 19.62, 21.143, 19.615, 17.347, 14.112, 18.305, 19.061, 17.444, 21.624, 18.674, 12.91, 16.42, 16.566, 19.087, 18.42, 21.697, 22.278, 15.081, 20.805, 19.393, 17.707, 22.139, 18.115, 17.369, 20.928, 11.333, 17.716],
  "Optimizer iterations": 88,
  "Optimizer params": [0.9993198284696356, 0.4970351200817368, 0.9965743434214365, 0.5036789082606253, 0.5006127571941255, 0.9999999999999999],
  "P": 0,
  "Problem": "RH",
  "QPU": "7000000",
  "Qubits": 6,
  "Shots": 4096,
  "Size": 6,
  "Total Algorithm duration [s]": 1.636,
  "Total Classic duration [s]": 1.624704650011641,
  "Total Quantum duration [s]": 0.011295349988358794
}
