{
  "Depth": 2.0,
  "Expectation Value": -3.5925002098083496,
  "Job durations [ms]": [0.10465000013937242, 0.2243999988422729, 0.10719999772845767, 0.12375000369502231, 0.1172499978565611, 0.11420000009820797, 0.10945000030915253, 0.12309999510762282, 0.10355000267736614, 0.10580000162008218, 0.09990000035031699, 0.1038999980664812, 0.23460000011255033, 0.11119999544462189, 0.10410000322735868, 0.09979999958886765, 0.10929999916697852, 0.12084999980288558, 0.10634999853209592, 0.10280000060447492, 0.2749500054051168, 0.10310000288882293, 0.11530000119819306, 0.11355000242474489, 0.11504999929456972, 0.10354999903938733, 0.16770000001997687, 0.10014999861596152, 0.10074999954667874, 0.10245000157738104, 0.2938499928859528, 0.09950000094249845, 0.29444999745464884, 0.10414999997010455, 0.2632000068842899, 0.10759999713627622, 0.09934999980032444, 0.11034999988623895, 0.09974999920814298, 0.10999999722116627, 0.19220000467612408, 0.11514999641804025, 0.0992499990388751, 0.10285000098519959, 0.0987999992503319, 0.10449999899719842, 0.3198000049451366, 0.11024999912478961, 0.11549999908311293, 0.19514999803504907, 0.09969999882741831, 0.10690000272006728, 0.10984999607899226, 0.11620000077527948, 0.09955000132322311, 0.09634999878471717, 0.13935000242781825, 0.12510000306065194, 0.11345000166329555, 0.11384999743313529, 0.11204999827896245, 0.11449999874457717, 0.10440000187372789, 0.1947999953699764, 0.11094999717897736, 0.10730000212788582, 0.2868000010494143, 0.26434999381308444, 0.112900001113303, 0.11190000077476725, 0.10875000225496478, 0.09520000094198622, 0.0962999984039925, 0.09864999810815789, 0.22784999600844458, 0.10750000001280569, 0.09945000056177378, 0.10349999865866266, 0.0976999981503468, 0.3066500030399766, 0.10760000077425502, 0.23985000007087365, 0.10199999815085903, 0.1159999992523808, 0.10130000009667128, 0.21409999317256734, 0.11434999760240316, 0.11340000128257088],
  "Optimal Expectation Value": -3.5925002098083496,
  "Optimizer durations [ms]": [19.722, 16.197, 21.247, 17.783, 13.626, 14.823, 17.155, 17.368, 15.033, 21.332, 19.08, 21.96, 19.11, 14.274, 18.839, 15.789, 21.524, 14.832, 19.235, 22.39, 19.272, 18.531, 13.721, 20.009, 12.138, 22.489, 18.757, 22.269, 16.525, 18.947, 17.534, 22.47, 18.989, 21.788, 15.089, 20.706, 21.434, 20.393, 20.567, 20.502, 16.55, 18.006, 14.871, 15.442, 22.019, 18.239, 21.587, 10.353, 15.996, 20.565, 21.528, 16.249, 22.222, 14.811, 15.862, 21.266, 15.011, 21.712, 14.183, 15.41, 19.316, 17.48, 21.389, 15.719, 19.609, 18.403, 17.751, 19.447, 12.339, 11.017, 19.992, 18.055, 19.492, 19.481, 18.862, 22.054, 16.521, 18.888, 15.828, 13.879, 16.137, 13.341, 17.435, 19.788, 22.209, 19.118, 18.512, 16.337],
  "Optimizer iterations": 88,
  "Optimizer params": [0.9993198284696356, 0.4970351200817368, 0.9965743434214365, 0.5036789082606253, 0.5006127571941255, 0.9999999999999999],
  "P": 0,
  "Problem": "RH",
  "QPU": "7000000",
  "Qubits": 6,
  "Shots": 4096,
  "Size": 6,
  "Total Algorithm duration [s]": 1.593,
  "Total Classic duration [s]": 1.581151250025112,
  "Total Quantum duration [s]": 0.011848749974888051
}
