{
  "Depth": 2.0,
  "Expectation Value": -3.5925002098083496,
  "Job durations [ms]": [0.10855000073206611, 0.12245000107213855, 0.10169999950448982, 0.09974999920814298, 0.10894999650190584, 0.09479999789618887, 0.11399999857530929, 0.09764999776962213, 0.10390000170446001, 0.11475000428617932, 0.09644999954616651, 0.12200000128359534, 0.14689999807160348, 0.182100004167296, 0.09734999912325293, 0.0976999981503468, 0.1099499968404416, 0.11545000234036706, 0.10394999844720587, 0.10585000200080685, 0.11300000187475234, 0.10465000377735123, 0.1067000011971686, 0.09620000128052197, 0.10990000009769574, 0.10349999865866266, 0.10540000221226364, 0.10214999929303303, 0.1041999967128504, 0.11350000204402022, 0.1099499968404416, 0.24950000079115853, 0.10015000225394033, 0.296499998512445, 0.09439999848837033, 0.2736999995249789, 0.09974999920814298, 0.10639999891282059, 0.1220499980263412, 0.11015000200131908, 0.09589999899617396, 0.10895000013988465, 0.2519999979995191, 0.1176999976451043, 0.09904999751597643, 0.1065500000549946, 0.10565000047790818, 0.10320000001229346, 0.23234999389387667, 0.1099500004784204, 0.10895000013988465, 0.10299999848939478, 0.2559999957156833, 0.1114999977289699, 0.12015000174869783, 0.09665000106906518, 0.23254999905475415, 0.12450000212993473, 0.27660000341711566, 0.28354999813018367, 0.11624999751802534, 0.11934999929508194, 0.10155000200029463, 0.11535000157891773, 0.11514999641804025, 0.11189999713678844, 0.14390000069397502, 0.14704999921377748, 0.10059999840450473, 0.10844999997061677, 0.10955000107060187, 0.22185000125318766, 0.11354999878676608, 0.10335000115446746, 0.11464999624877237, 0.09434999810764566, 0.11045000064768828, 0.10575000123935752, 0.2627499998197891, 0.10059999840450473, 0.09719999798107892, 0.1109000004362315, 0.10145000123884529, 0.10629999815137126, 0.10870000187424012, 0.10044999726233073, 0.1171000003523659, 0.2652500043041073],
  "Optimal Expectation Value": -3.5925002098083496,
  "Optimizer durations [ms]": [18.211, 22.394, 20.211, 18.283, 16.352, 10.362, 19.38, 16.394, 21.061, 10.668, 17.144, 22.501, 13.818, 21.355, 16.623, 18.237, 18.06, 22.643, 18.291, 22.32, 12.797, 21.22, 16.968, 20.985, 21.02, 18.763, 19.98, 15.644, 22.247, 15.276, 16.9, 14.339, 14.648, 21.651, 16.31, 21.165, 19.034, 12.924, 18.045, 11.969, 15.256, 22.157, 15.509, 17.149, 14.262, 22.413, 22.104, 21.899, 17.235, 22.308, 18.274, 18.982, 17.069, 20.973, 20.523, 20.098, 21.301, 18.398, 21.593, 21.365, 21.113, 17.635, 15.897, 18.117, 15.64, 14.33, 21.948, 17.885, 22.545, 20.044, 19.503, 17.272, 17.699, 20.237, 14.696, 22.136, 14.508, 18.271, 17.835, 15.805, 17.733, 22.173, 18.649, 18.23, 18.332, 18.63, 21.611, 14.501],
  "Optimizer iterations": 88,
  "Optimizer params": [0.9993198284696356, 0.4970351200817368, 0.9965743434214365, 0.5036789082606253, 0.5006127571941255, 0.9999999999999999],
  "P": 0,
  "Problem": "RH",
  "QPU": "7000000",
  "Qubits": 6,
  "Shots": 4096,
  "Size": 6,
  "Total Algorithm duration [s]": 1.618,
  "Total Classic duration [s]": 1.606565550025669,
  "Total Quantum duration [s]": 0.011434449974331073
}
