{
  "Depth": 2.0,
  "Expectation Value": -3.5925002098083496,
  "Job durations [ms]": [0.1476500001444947, 0.10380000094301067, 0.10300000212737359, 0.12135000361013226, 0.09399999908055179, 0.2087500033667311, 0.10725000174716115, 0.10085000030812807, 0.10195000140811317, 0.11420000373618677, 0.11164999887114391, 0.21415000082924962, 0.11139999696752056, 0.18665000607143156, 0.10614999700919725, 0.10999999722116627, 0.09795000005397014, 0.11684999844874255, 0.11505000293254852, 0.11375000394764356, 0.11620000077527948, 0.09684999895398505, 0.10674999793991446, 0.09520000094198622, 0.10835000284714624, 0.17785000090952963, 0.10354999903938733, 0.10285000098519959, 0.1378499982820358, 0.11074999929405749, 0.2620999948703684, 0.1083999995898921, 0.1419000000169035, 0.09605000013834797, 0.09890000001178123, 0.109200002043508, 0.10104999819304794, 0.10789999942062423, 0.13980000221636146, 0.11050000102841295, 0.11030000314349309, 0.1413000027241651, 0.24279999706777744, 0.1502499944763258, 0.10085000030812807, 0.3185500027029775, 0.11685000208672136, 0.19394999981159344, 0.3032999957213178, 0.10370000018156134, 0.11390000145183876, 0.10554999971645884, 0.10005000149249099, 0.09649999992689118, 0.09759999738889746, 0.10024999937741086, 0.11330000415910035, 0.11409999933675863, 0.11014999836334027, 0.11325000377837569, 0.13219999527791515, 0.1512000017100945, 0.1358499976049643, 0.22665000142296776, 0.11484999777167104, 0.10275000022375025, 0.2780499999062158, 0.11425000047893263, 0.1111999990826007, 0.11219999942113645, 0.11064999853260815, 0.11374999667168595, 0.09905000115395524, 0.14519999604090117, 0.12149999747634865, 0.09454999963054433, 0.09510000018053688, 0.10404999920865521, 0.10370000381954014, 0.09475000115344301, 0.11129999984405003, 0.11860000086016953, 0.10410000322735868, 0.25534999440424144, 0.21919999198871665, 0.11699999959091656, 0.1124500049627386, 0.09770000178832561],
  "Optimal Expectation Value": -3.5925002098083496,
  "Optimizer durations [ms]": [19.379, 20.584, 17.139, 18.228, 17.852, 12.895, 18.008, 19.539, 16.252, 17.916, 19.544, 14.249, 20.73, 18.397, 22.314, 17.667, 19.792, 17.263, 15.639, 14.451, 20.794, 19.02, 21.384, 17.876, 18.637, 18.81, 22.223, 14.371, 20.639, 18.301, 16.994, 22.342, 19.47, 17.095, 22.18, 19.036, 15.929, 16.129, 20.418, 18.584, 22.17, 17.992, 17.251, 18.499, 16.714, 19.475, 17.007, 20.211, 19.127, 19.461, 13.384, 17.439, 16.075, 15.48, 22.447, 19.677, 17.845, 17.758, 16.606, 16.935, 10.557, 19.415, 14.277, 21.904, 17.655, 21.931, 21.331, 18.081, 10.341, 17.146, 14.427, 15.585, 20.502, 18.98, 15.527, 17.162, 18.179, 18.916, 13.655, 19.842, 18.296, 14.155, 20.806, 17.242, 20.626, 17.428, 22.53, 15.939],
  "Optimizer iterations": 88,
  "Optimizer params": [0.9993198284696356, 0.4970351200817368, 0.9965743434214365, 0.5036789082606253, 0.5006127571941255, 0.9999999999999999],
  "P": 0,
  "Problem": "RH",
  "QPU": "7000000",
  "Qubits": 6,
  "Shots": 4096,
  "Size": 6,
  "Total Algorithm duration [s]": 1.592,
  "Total Classic duration [s]": 1.5805378999970272,
  "Total Quantum duration [s]": 0.011462100002972875
}
