{
  "Circuit execution durations [ms]": [4.1943, 4.1274, 4.155, 4.201899999999999, 4.1773, 4.184399999999999, 4.162599999999999, 4.1906, 4.1312, 4.1673, 4.2332, 4.1567, 4.1983999999999995, 4.236, 4.1396999999999995, 4.1924, 4.2039, 4.2187, 4.126, 4.3318, 4.0629, 4.1846000000000005, 4.184399999999999, 4.142200000000001, 4.1939, 4.175800000000001, 4.1655, 4.2406, 4.2281, 4.2149, 4.209700000000001, 4.19, 4.2042, 4.147600000000001, 4.1981, 4.1912, 4.1916, 4.2156, 4.1386, 4.1923, 4.1711, 4.1554, 4.1947, 4.186999999999999, 4.172000000000001, 4.4064000000000005, 4.1618, 4.205699999999999, 4.226, 4.4288, 4.232600000000001, 4.138199999999999, 4.133699999999999, 4.1838, 4.1764, 4.2261, 4.1847, 4.1526000000000005, 4.150799999999999, 4.1897, 4.1447, 4.1805, 4.1924, 4.2135, 4.1739999999999995, 4.1309, 4.428299999999999, 4.287, 4.1462, 4.2412, 4.2, 4.1694, 4.2074, 4.1745, 4.150799999999999, 4.1419999999999995, 4.1547, 4.175800000000001, 4.1722, 4.24, 4.172000000000001, 4.1729, 4.1686],
  "Depth": 629.0,
  "Expectation Value": -2.935103178024292,
  "Optimal Expectation Value": -3.0,
  "Optimizer durations [ms]": [43.013, 42.084, 42.175, 42.632, 42.596, 42.716, 42.389, 42.561, 42.02, 42.585, 43.084, 42.484, 42.591, 43.092, 42.234, 42.695, 42.825, 42.801, 42.083, 44.166, 51.013, 42.654, 42.663, 42.008, 42.746, 42.663, 42.446, 44.123, 42.883, 42.828, 42.917, 42.598, 42.981, 42.429, 42.55, 42.752, 42.865, 43.011, 42.194, 42.729, 42.592, 42.22, 42.822, 42.706, 42.545, 44.892, 48.357, 42.839, 43.075, 44.968, 48.606, 42.15, 42.109, 42.557, 42.576, 43.011, 42.538, 42.217, 42.218, 42.743, 42.333, 42.692, 42.519, 42.872, 42.396, 42.075, 45.111, 48.64, 42.266, 43.069, 42.773, 42.579, 42.677, 42.57, 42.14, 42.092, 42.383, 42.677, 42.596, 43.217, 42.431, 42.458, 42.562],
  "Optimizer iterations": 83,
  "Optimizer params": [0.13663145978088095, 0.9178532805161597, 0.1242743131485965, 0.07390615511003304, 0.9920587957423508, 0.9549748194913174],
  "P": 3,
  "Problem": "MIS",
  "QJob durations [ms]": [4.1943, 4.1274, 4.155, 4.201899999999999, 4.1773, 4.184399999999999, 4.162599999999999, 4.1906, 4.1312, 4.1673, 4.2332, 4.1567, 4.1983999999999995, 4.236, 4.1396999999999995, 4.1924, 4.2039, 4.2187, 4.126, 4.3318, 4.0629, 4.1846000000000005, 4.184399999999999, 4.142200000000001, 4.1939, 4.175800000000001, 4.1655, 4.2406, 4.2281, 4.2149, 4.209700000000001, 4.19, 4.2042, 4.147600000000001, 4.1981, 4.1912, 4.1916, 4.2156, 4.1386, 4.1923, 4.1711, 4.1554, 4.1947, 4.186999999999999, 4.172000000000001, 4.4064000000000005, 4.1618, 4.205699999999999, 4.226, 4.4288, 4.232600000000001, 4.138199999999999, 4.133699999999999, 4.1838, 4.1764, 4.2261, 4.1847, 4.1526000000000005, 4.150799999999999, 4.1897, 4.1447, 4.1805, 4.1924, 4.2135, 4.1739999999999995, 4.1309, 4.428299999999999, 4.287, 4.1462, 4.2412, 4.2, 4.1694, 4.2074, 4.1745, 4.150799999999999, 4.1419999999999995, 4.1547, 4.175800000000001, 4.1722, 4.24, 4.172000000000001, 4.1729, 4.1686],
  "QPU": "7000000",
  "Qubits": 14,
  "Queue durations [ms]": [0.0, 0.0, 0.0, 0.0, 0.0, 0.0, 0.0, 0.0, 0.0, 0.0, 0.0, 0.0, 0.0, 0.0, 0.0, 0.0, 0.0, 0.0, 0.0, 0.0, 0.0, 0.0, 0.0, 0.0, 0.0, 0.0, 0.0, 0.0, 0.0, 0.0, 0.0, 0.0, 0.0, 0.0, 0.0, 0.0, 0.0, 0.0, 0.0, 0.0, 0.0, 0.0, 0.0, 0.0, 0.0, 0.0, 0.0, 0.0, 0.0, 0.0, 0.0, 0.0, 0.0, 0.0, 0.0, 0.0, 0.0, 0.0, 0.0, 0.0, 0.0, 0.0, 0.0, 0.0, 0.0, 0.0, 0.0, 0.0, 0.0, 0.0, 0.0, 0.0, 0.0, 0.0, 0.0, 0.0, 0.0, 0.0, 0.0, 0.0, 0.0, 0.0, 0.0],
  "Shots": 4096,
  "Size": 11,
  "Total Algorithm duration [s]": 3.57,
  "Total Classic duration [s]": 3.2220828999999997,
  "Total Quantum duration [s]": 0.34791710000000003
}
