{
  "Circuit execution durations [ms]": [4.1935, 4.2139, 4.193, 4.1801, 4.1923, 4.2987, 4.1513, 4.148899999999999, 4.1597, 4.157, 4.2082, 4.160299999999999, 4.14, 4.1684, 4.1652, 4.4195, 4.3153999999999995, 4.1640999999999995, 4.1997, 4.1847, 4.222700000000001, 4.1833, 4.1992, 4.1784, 4.167599999999999, 4.1934, 4.1579, 4.1882, 4.1746, 4.1918, 4.1925, 4.1379, 4.2013, 4.1559, 4.204000000000001, 4.1981, 4.2788, 4.1792, 4.3157, 4.0972, 4.2067, 4.1799, 4.1898, 4.2363, 4.2934, 4.2199, 4.191000000000001, 4.2034, 4.2445, 4.1995000000000005, 4.1947, 4.2127, 4.314, 4.2378, 4.2512, 4.2043, 4.224399999999999, 4.2966999999999995, 4.3175, 4.2607, 4.2388, 4.1631, 4.2375, 4.2011, 4.2056000000000004, 4.2187, 4.204000000000001, 4.2268, 4.492699999999999, 4.3579, 4.2449, 4.1916, 4.238300000000001, 4.2103, 4.1779, 4.253500000000001, 4.2446, 4.2136, 4.313199999999999, 4.247199999999999, 4.222700000000001, 4.1775, 4.22, 4.2337, 4.1821, 4.253299999999999, 4.300199999999999, 4.2065, 4.2398, 4.2357000000000005, 4.1989, 4.1743, 4.2075000000000005, 4.218, 4.2608999999999995, 4.1923, 4.2719000000000005, 4.2383999999999995, 4.2303999999999995, 4.2456000000000005, 4.2915, 4.2405],
  "Depth": 629.0,
  "Expectation Value": -2.9163591861724854,
  "Optimal Expectation Value": -3.0,
  "Optimizer durations [ms]": [42.683, 42.708, 42.638, 42.442, 42.591, 43.752, 42.248, 42.283, 42.434, 42.389, 42.816, 42.159, 42.127, 42.558, 42.33, 45.039, 50.322, 42.253, 42.649, 42.781, 43.166, 42.462, 42.62, 42.676, 42.256, 42.591, 42.385, 42.597, 42.573, 42.694, 42.512, 42.426, 42.644, 42.441, 42.949, 42.984, 43.598, 42.486, 44.012, 51.251, 42.899, 42.573, 42.511, 43.161, 43.581, 42.964, 46.8, 42.942, 43.033, 42.716, 42.548, 42.881, 43.974, 43.229, 43.112, 42.642, 42.892, 43.581, 43.785, 43.381, 43.252, 42.542, 43.22, 42.74, 42.895, 44.821, 43.143, 43.139, 45.824, 49.325, 43.206, 42.622, 43.01, 42.701, 42.656, 43.12, 43.086, 43.112, 43.971, 43.093, 42.988, 42.63, 42.904, 43.155, 42.553, 53.068, 43.732, 42.956, 42.983, 43.158, 42.579, 42.471, 43.031, 43.065, 43.462, 42.492, 43.527, 42.977, 43.033, 43.246, 43.504, 43.344],
  "Optimizer iterations": 102,
  "Optimizer params": [1.0, 0.2374520998170783, 0.24841781206442548, 0.011367720836299222, 0.04167075055211817, 0.9025840691531188],
  "P": 3,
  "Problem": "MIS",
  "QJob durations [ms]": [4.1935, 4.2139, 4.193, 4.1801, 4.1923, 4.2987, 4.1513, 4.148899999999999, 4.1597, 4.157, 4.2082, 4.160299999999999, 4.14, 4.1684, 4.1652, 4.4195, 4.3153999999999995, 4.1640999999999995, 4.1997, 4.1847, 4.222700000000001, 4.1833, 4.1992, 4.1784, 4.167599999999999, 4.1934, 4.1579, 4.1882, 4.1746, 4.1918, 4.1925, 4.1379, 4.2013, 4.1559, 4.204000000000001, 4.1981, 4.2788, 4.1792, 4.3157, 4.0972, 4.2067, 4.1799, 4.1898, 4.2363, 4.2934, 4.2199, 4.191000000000001, 4.2034, 4.2445, 4.1995000000000005, 4.1947, 4.2127, 4.314, 4.2378, 4.2512, 4.2043, 4.224399999999999, 4.2966999999999995, 4.3175, 4.2607, 4.2388, 4.1631, 4.2375, 4.2011, 4.2056000000000004, 4.2187, 4.204000000000001, 4.2268, 4.492699999999999, 4.3579, 4.2449, 4.1916, 4.238300000000001, 4.2103, 4.1779, 4.253500000000001, 4.2446, 4.2136, 4.313199999999999, 4.247199999999999, 4.222700000000001, 4.1775, 4.22, 4.2337, 4.1821, 4.253299999999999, 4.300199999999999, 4.2065, 4.2398, 4.2357000000000005, 4.1989, 4.1743, 4.2075000000000005, 4.218, 4.2608999999999995, 4.1923, 4.2719000000000005, 4.2383999999999995, 4.2303999999999995, 4.2456000000000005, 4.2915, 4.2405],
  "QPU": "7000000",
  "Qubits": 14,
  "Queue durations [ms]": [0.0, 0.0, 0.0, 0.0, 0.0, 0.0, 0.0, 0.0, 0.0, 0.0, 0.0, 0.0, 0.0, 0.0, 0.0, 0.0, 0.0, 0.0, 0.0, 0.0, 0.0, 0.0, 0.0, 0.0, 0.0, 0.0, 0.0, 0.0, 0.0, 0.0, 0.0, 0.0, 0.0, 0.0, 0.0, 0.0, 0.0, 0.0, 0.0, 0.0, 0.0, 0.0, 0.0, 0.0, 0.0, 0.0, 0.0, 0.0, 0.0, 0.0, 0.0, 0.0, 0.0, 0.0, 0.0, 0.0, 0.0, 0.0, 0.0, 0.0, 0.0, 0.0, 0.0, 0.0, 0.0, 0.0, 0.0, 0.0, 0.0, 0.0, 0.0, 0.0, 0.0, 0.0, 0.0, 0.0, 0.0, 0.0, 0.0, 0.0, 0.0, 0.0, 0.0, 0.0, 0.0, 0.0, 0.0, 0.0, 0.0, 0.0, 0.0, 0.0, 0.0, 0.0, 0.0, 0.0, 0.0, 0.0, 0.0, 0.0, 0.0, 0.0],
  "Shots": 4096,
  "Size": 11,
  "Total Algorithm duration [s]": 4.418,
  "Total Classic duration [s]": 3.9875670000000003,
  "Total Quantum duration [s]": 0.43043300000000007
}
