{
  "Circuit execution durations [ms]": [4.2017, 4.191000000000001, 4.1713000000000005, 4.1433, 4.1370000000000005, 4.1449, 4.205, 4.2097999999999995, 4.1722, 4.172000000000001, 4.2378, 4.1881, 4.168200000000001, 4.185099999999999, 4.2427, 4.1939, 4.2316, 4.1713000000000005, 4.1509, 4.1748, 4.2157, 4.235, 4.132000000000001, 4.178699999999999, 4.1938, 4.1623, 4.1699, 4.1995000000000005, 4.178, 4.2379, 4.2108, 4.1298, 4.136500000000001, 4.164700000000001, 4.2091, 4.178699999999999, 4.2031, 4.2232, 4.1509, 4.1716, 4.1959, 4.1875, 4.2455, 4.203, 4.1501, 4.1776, 4.1821, 4.1277, 4.1739999999999995, 4.1772, 4.1122, 4.1092, 4.202100000000001, 4.1711, 4.2014000000000005, 4.1751000000000005, 4.2392, 4.1885, 4.1625000000000005, 4.167, 4.1673, 4.1450000000000005, 4.2044999999999995, 4.204000000000001, 4.1914, 4.184, 4.164700000000001, 4.1779, 4.2444, 4.160200000000001, 4.208, 4.1589, 4.1633, 4.1586, 4.1821, 4.1708, 4.1855, 4.1775, 4.17, 4.1366, 4.1692, 4.1575, 4.1921, 4.2204, 4.201, 4.192, 4.1566, 4.1669, 4.1699, 4.1698, 4.143199999999999, 4.1822, 4.3981, 4.2349, 4.2002999999999995, 4.1596, 4.1917, 4.153, 4.130199999999999, 4.2366, 4.3556, 4.487299999999999, 4.4392, 4.1936, 4.2135, 4.2002999999999995, 4.1864, 4.1447, 4.1761, 4.1623, 4.186999999999999, 4.1419999999999995, 4.253, 4.168500000000001, 4.1744, 4.1850000000000005, 4.2136, 4.226999999999999, 4.1919, 4.1739999999999995, 3.9896999999999996, 4.2919, 4.076, 4.1876, 4.2131, 4.2979, 4.2120999999999995, 4.1925, 4.2015, 4.2035, 4.2047, 4.1385, 4.1865000000000006, 4.1572, 4.1654, 4.156199999999999, 4.1589],
  "Depth": 629.0,
  "Expectation Value": -2.939192533493042,
  "Optimal Expectation Value": -3.0,
  "Optimizer durations [ms]": [42.928, 42.518, 42.332, 42.299, 42.262, 42.17, 42.822, 42.909, 42.493, 42.542, 43.088, 42.489, 42.513, 42.724, 43.268, 42.86, 42.921, 42.618, 42.27, 42.337, 43.097, 43.24, 51.669, 42.384, 42.785, 42.424, 42.279, 42.624, 42.389, 43.037, 42.911, 42.149, 42.203, 42.745, 42.915, 42.5, 42.784, 43.063, 42.465, 42.609, 42.552, 42.734, 43.316, 42.979, 42.144, 42.539, 42.533, 41.91, 42.763, 42.398, 41.691, 41.938, 52.523, 42.32, 42.847, 42.37, 43.023, 42.831, 42.893, 42.392, 42.258, 42.199, 42.836, 42.662, 42.805, 42.61, 42.275, 42.581, 43.103, 52.167, 42.906, 42.42, 42.302, 42.395, 42.601, 42.476, 42.556, 42.61, 42.54, 42.025, 42.497, 42.4, 42.595, 43.105, 42.597, 42.527, 42.352, 42.393, 42.402, 42.338, 42.034, 42.636, 44.579, 47.898, 42.889, 42.339, 42.626, 42.3, 41.947, 43.23, 47.437, 49.338, 51.245, 42.524, 42.948, 42.826, 42.607, 42.187, 42.694, 42.478, 42.466, 42.134, 43.402, 42.628, 42.455, 42.614, 42.793, 42.883, 42.514, 42.633, 50.332, 43.673, 51.119, 42.717, 42.888, 43.679, 42.681, 42.5, 42.895, 42.803, 42.667, 42.051, 42.549, 42.261, 42.248, 42.239, 42.405],
  "Optimizer iterations": 137,
  "Optimizer params": [0.10378882305936887, 0.013573902762061886, 0.3226741035301988, 0.38476311954145453, 1.0, 0.9491995272156223],
  "P": 3,
  "Problem": "MIS",
  "QJob durations [ms]": [4.2017, 4.191000000000001, 4.1713000000000005, 4.1433, 4.1370000000000005, 4.1449, 4.205, 4.2097999999999995, 4.1722, 4.172000000000001, 4.2378, 4.1881, 4.168200000000001, 4.185099999999999, 4.2427, 4.1939, 4.2316, 4.1713000000000005, 4.1509, 4.1748, 4.2157, 4.235, 4.132000000000001, 4.178699999999999, 4.1938, 4.1623, 4.1699, 4.1995000000000005, 4.178, 4.2379, 4.2108, 4.1298, 4.136500000000001, 4.164700000000001, 4.2091, 4.178699999999999, 4.2031, 4.2232, 4.1509, 4.1716, 4.1959, 4.1875, 4.2455, 4.203, 4.1501, 4.1776, 4.1821, 4.1277, 4.1739999999999995, 4.1772, 4.1122, 4.1092, 4.202100000000001, 4.1711, 4.2014000000000005, 4.1751000000000005, 4.2392, 4.1885, 4.1625000000000005, 4.167, 4.1673, 4.1450000000000005, 4.2044999999999995, 4.204000000000001, 4.1914, 4.184, 4.164700000000001, 4.1779, 4.2444, 4.160200000000001, 4.208, 4.1589, 4.1633, 4.1586, 4.1821, 4.1708, 4.1855, 4.1775, 4.17, 4.1366, 4.1692, 4.1575, 4.1921, 4.2204, 4.201, 4.192, 4.1566, 4.1669, 4.1699, 4.1698, 4.143199999999999, 4.1822, 4.3981, 4.2349, 4.2002999999999995, 4.1596, 4.1917, 4.153, 4.130199999999999, 4.2366, 4.3556, 4.487299999999999, 4.4392, 4.1936, 4.2135, 4.2002999999999995, 4.1864, 4.1447, 4.1761, 4.1623, 4.186999999999999, 4.1419999999999995, 4.253, 4.168500000000001, 4.1744, 4.1850000000000005, 4.2136, 4.226999999999999, 4.1919, 4.1739999999999995, 3.9896999999999996, 4.2919, 4.076, 4.1876, 4.2131, 4.2979, 4.2120999999999995, 4.1925, 4.2015, 4.2035, 4.2047, 4.1385, 4.1865000000000006, 4.1572, 4.1654, 4.156199999999999, 4.1589],
  "QPU": "7000000",
  "Qubits": 14,
  "Queue durations [ms]": [0.0, 0.0, 0.0, 0.0, 0.0, 0.0, 0.0, 0.0, 0.0, 0.0, 0.0, 0.0, 0.0, 0.0, 0.0, 0.0, 0.0, 0.0, 0.0, 0.0, 0.0, 0.0, 0.0, 0.0, 0.0, 0.0, 0.0, 0.0, 0.0, 0.0, 0.0, 0.0, 0.0, 0.0, 0.0, 0.0, 0.0, 0.0, 0.0, 0.0, 0.0, 0.0, 0.0, 0.0, 0.0, 0.0, 0.0, 0.0, 0.0, 0.0, 0.0, 0.0, 0.0, 0.0, 0.0, 0.0, 0.0, 0.0, 0.0, 0.0, 0.0, 0.0, 0.0, 0.0, 0.0, 0.0, 0.0, 0.0, 0.0, 0.0, 0.0, 0.0, 0.0, 0.0, 0.0, 0.0, 0.0, 0.0, 0.0, 0.0, 0.0, 0.0, 0.0, 0.0, 0.0, 0.0, 0.0, 0.0, 0.0, 0.0, 0.0, 0.0, 0.0, 0.0, 0.0, 0.0, 0.0, 0.0, 0.0, 0.0, 0.0, 0.0, 0.0, 0.0, 0.0, 0.0, 0.0, 0.0, 0.0, 0.0, 0.0, 0.0, 0.0, 0.0, 0.0, 0.0, 0.0, 0.0, 0.0, 0.0, 0.0, 0.0, 0.0, 0.0, 0.0, 0.0, 0.0, 0.0, 0.0, 0.0, 0.0, 0.0, 0.0, 0.0, 0.0, 0.0, 0.0],
  "Shots": 4096,
  "Size": 11,
  "Total Algorithm duration [s]": 5.908,
  "Total Classic duration [s]": 5.334188800000001,
  "Total Quantum duration [s]": 0.5738112000000001
}
