{
  "Circuit execution durations [ms]": [4.2243, 4.1354, 4.1961, 4.1807, 4.1727, 4.224600000000001, 4.1969, 4.1899, 4.1745, 4.3109, 4.1503, 4.3493, 4.2418000000000005, 4.2007, 4.2389, 4.1692, 4.1719, 4.1951, 4.1895, 4.1774000000000004, 4.2013, 4.2124, 4.1895999999999995, 4.1627, 4.211399999999999, 4.224600000000001, 4.2179, 4.1849, 4.2879, 4.1706, 4.1694, 4.1975, 4.2017, 4.1917, 4.279, 4.2806, 4.185300000000001, 4.1682999999999995, 4.1518, 4.1668, 4.1961, 4.2031, 4.2226, 4.2169, 4.255199999999999, 4.1779, 4.1894, 4.2176, 4.1483, 4.1968, 4.1716, 4.1637, 4.1615, 4.1933, 4.2116999999999996, 4.1548, 4.3263, 4.2187, 4.3394, 4.2588, 4.2139999999999995, 4.1482, 4.2273, 4.1901, 4.3593, 4.2918, 4.2294, 4.2655, 4.141500000000001, 4.1793000000000005, 4.253, 4.2288, 4.2039, 4.228899999999999, 4.1531, 4.2015, 4.2153, 4.2044999999999995, 4.1709, 4.260800000000001, 4.2319, 4.4247000000000005, 4.277, 4.2107, 4.197, 4.2397, 4.1914, 4.1961, 4.1575, 4.1463, 4.1669, 4.22, 4.230099999999999, 4.2024, 4.236700000000001, 4.1613, 4.1868],
  "Depth": 629.0,
  "Expectation Value": -2.9130969047546387,
  "Optimal Expectation Value": -3.0,
  "Optimizer durations [ms]": [42.976, 42.161, 42.6, 42.39, 42.437, 42.94, 42.759, 42.534, 42.624, 43.784, 42.304, 44.292, 49.89, 43.016, 43.121, 42.411, 42.525, 42.564, 42.72, 42.448, 42.868, 42.919, 42.844, 42.399, 42.933, 42.892, 42.896, 42.738, 43.757, 42.281, 42.598, 42.8, 42.82, 42.618, 43.564, 48.256, 42.475, 42.297, 42.33, 42.483, 42.861, 42.67, 43.062, 43.047, 43.417, 42.612, 42.492, 42.82, 42.448, 42.636, 42.418, 42.343, 42.501, 42.627, 43.027, 42.238, 43.966, 42.869, 43.959, 43.204, 42.735, 47.218, 43.059, 42.732, 44.448, 48.461, 43.076, 43.462, 42.167, 42.543, 43.416, 43.135, 42.823, 43.095, 42.135, 42.597, 42.753, 42.629, 42.542, 43.377, 42.913, 45.044, 48.441, 42.895, 42.605, 43.156, 42.671, 42.669, 42.308, 42.037, 42.417, 42.95, 42.955, 42.807, 43.044, 42.5, 42.668],
  "Optimizer iterations": 97,
  "Optimizer params": [0.6282592387783573, 0.5314443054277814, 0.7390678865460157, 0.6583845931956968, 0.9573045031940682, 0.23946866336261188],
  "P": 3,
  "Problem": "MIS",
  "QJob durations [ms]": [4.2243, 4.1354, 4.1961, 4.1807, 4.1727, 4.224600000000001, 4.1969, 4.1899, 4.1745, 4.3109, 4.1503, 4.3493, 4.2418000000000005, 4.2007, 4.2389, 4.1692, 4.1719, 4.1951, 4.1895, 4.1774000000000004, 4.2013, 4.2124, 4.1895999999999995, 4.1627, 4.211399999999999, 4.224600000000001, 4.2179, 4.1849, 4.2879, 4.1706, 4.1694, 4.1975, 4.2017, 4.1917, 4.279, 4.2806, 4.185300000000001, 4.1682999999999995, 4.1518, 4.1668, 4.1961, 4.2031, 4.2226, 4.2169, 4.255199999999999, 4.1779, 4.1894, 4.2176, 4.1483, 4.1968, 4.1716, 4.1637, 4.1615, 4.1933, 4.2116999999999996, 4.1548, 4.3263, 4.2187, 4.3394, 4.2588, 4.2139999999999995, 4.1482, 4.2273, 4.1901, 4.3593, 4.2918, 4.2294, 4.2655, 4.141500000000001, 4.1793000000000005, 4.253, 4.2288, 4.2039, 4.228899999999999, 4.1531, 4.2015, 4.2153, 4.2044999999999995, 4.1709, 4.260800000000001, 4.2319, 4.4247000000000005, 4.277, 4.2107, 4.197, 4.2397, 4.1914, 4.1961, 4.1575, 4.1463, 4.1669, 4.22, 4.230099999999999, 4.2024, 4.236700000000001, 4.1613, 4.1868],
  "QPU": "7000000",
  "Qubits": 14,
  "Queue durations [ms]": [0.0, 0.0, 0.0, 0.0, 0.0, 0.0, 0.0, 0.0, 0.0, 0.0, 0.0, 0.0, 0.0, 0.0, 0.0, 0.0, 0.0, 0.0, 0.0, 0.0, 0.0, 0.0, 0.0, 0.0, 0.0, 0.0, 0.0, 0.0, 0.0, 0.0, 0.0, 0.0, 0.0, 0.0, 0.0, 0.0, 0.0, 0.0, 0.0, 0.0, 0.0, 0.0, 0.0, 0.0, 0.0, 0.0, 0.0, 0.0, 0.0, 0.0, 0.0, 0.0, 0.0, 0.0, 0.0, 0.0, 0.0, 0.0, 0.0, 0.0, 0.0, 0.0, 0.0, 0.0, 0.0, 0.0, 0.0, 0.0, 0.0, 0.0, 0.0, 0.0, 0.0, 0.0, 0.0, 0.0, 0.0, 0.0, 0.0, 0.0, 0.0, 0.0, 0.0, 0.0, 0.0, 0.0, 0.0, 0.0, 0.0, 0.0, 0.0, 0.0, 0.0, 0.0, 0.0, 0.0, 0.0],
  "Shots": 4096,
  "Size": 11,
  "Total Algorithm duration [s]": 4.183,
  "Total Classic duration [s]": 3.7745872,
  "Total Quantum duration [s]": 0.4084128
}
