{
  "Circuit execution durations [ms]": [4.1809, 4.2252, 4.1829, 4.2207, 4.2338000000000005, 4.1983999999999995, 4.1874, 4.1801, 4.1809, 4.1847, 4.203799999999999, 4.2028, 4.182, 4.205, 4.2494000000000005, 4.1538, 4.1886, 4.2334, 4.1764, 4.4257, 4.217099999999999, 4.1909, 4.1833, 4.2122, 4.2061, 4.2487, 4.1894, 4.1949, 4.1998, 4.2520999999999995, 4.1707, 4.1952, 4.2164, 4.2168, 4.226299999999999, 4.221500000000001, 4.2956, 4.196, 4.2464, 4.2024, 4.2073, 4.1871, 4.226500000000001, 4.2101999999999995, 4.2069, 4.2432, 4.180599999999999, 4.1944, 4.2204, 4.4531, 4.402900000000001, 4.207800000000001, 4.1875, 4.257099999999999, 4.1975, 4.1886, 4.1918, 4.2424, 4.2007, 4.1883, 4.2066, 4.2257, 4.1892, 4.1831000000000005, 4.1868, 4.2309, 4.3951, 4.2916, 4.195, 4.1897, 4.250900000000001, 4.2085, 4.161, 4.2196, 4.1931, 4.2262, 4.1994, 4.1879, 4.1982, 4.1678, 4.2065, 4.1929, 4.1866, 4.1605, 4.250699999999999, 4.2181, 4.2182, 4.2194, 4.2059999999999995, 4.5056, 4.2490000000000006, 4.1947, 4.2319, 4.2292, 4.2371, 4.2664, 4.224600000000001, 4.2293, 4.228899999999999, 4.1939, 4.1704, 4.2040999999999995, 4.1893, 4.211399999999999, 4.194500000000001, 4.2587, 4.1962, 4.2082, 4.2124, 4.2197, 4.2040999999999995, 4.2334, 4.2559, 4.2021999999999995, 4.203, 4.222499999999999, 4.2474, 4.187200000000001, 4.2208000000000006, 4.2743],
  "Depth": 629.0,
  "Expectation Value": -2.932332754135132,
  "Optimal Expectation Value": -3.0,
  "Optimizer durations [ms]": [42.923, 43.031, 42.434, 43.087, 42.979, 42.598, 42.678, 42.57, 42.403, 42.662, 42.728, 42.641, 42.723, 42.967, 43.274, 42.354, 42.476, 43.117, 42.359, 45.02, 47.818, 42.684, 42.638, 43.012, 42.668, 43.2, 42.758, 42.765, 42.744, 43.316, 42.379, 42.723, 42.894, 42.738, 43.131, 42.865, 43.62, 42.842, 43.063, 42.85, 42.693, 42.704, 43.226, 42.787, 42.991, 43.093, 42.686, 42.799, 43.064, 45.288, 49.757, 42.708, 42.664, 43.305, 42.809, 42.625, 42.767, 43.105, 42.751, 42.742, 42.733, 42.898, 42.796, 42.639, 42.605, 42.931, 49.584, 43.578, 42.539, 42.741, 43.242, 43.017, 42.463, 42.988, 42.68, 42.978, 42.874, 42.596, 42.713, 42.274, 42.684, 42.554, 43.635, 42.401, 43.448, 43.017, 43.056, 42.99, 42.656, 45.902, 48.043, 42.599, 43.068, 43.151, 43.099, 43.433, 42.934, 46.119, 42.971, 42.829, 42.427, 42.654, 42.673, 42.695, 42.572, 43.459, 42.627, 43.035, 43.016, 42.773, 42.86, 42.941, 43.27, 42.629, 42.919, 42.852, 43.331, 42.561, 43.056, 53.26],
  "Optimizer iterations": 120,
  "Optimizer params": [0.4073950270504394, 0.03424196106758565, 0.1313681418017437, 0.5475490926202814, 0.9835156081467952, 0.43767062826549674],
  "P": 3,
  "Problem": "MIS",
  "QJob durations [ms]": [4.1809, 4.2252, 4.1829, 4.2207, 4.2338000000000005, 4.1983999999999995, 4.1874, 4.1801, 4.1809, 4.1847, 4.203799999999999, 4.2028, 4.182, 4.205, 4.2494000000000005, 4.1538, 4.1886, 4.2334, 4.1764, 4.4257, 4.217099999999999, 4.1909, 4.1833, 4.2122, 4.2061, 4.2487, 4.1894, 4.1949, 4.1998, 4.2520999999999995, 4.1707, 4.1952, 4.2164, 4.2168, 4.226299999999999, 4.221500000000001, 4.2956, 4.196, 4.2464, 4.2024, 4.2073, 4.1871, 4.226500000000001, 4.2101999999999995, 4.2069, 4.2432, 4.180599999999999, 4.1944, 4.2204, 4.4531, 4.402900000000001, 4.207800000000001, 4.1875, 4.257099999999999, 4.1975, 4.1886, 4.1918, 4.2424, 4.2007, 4.1883, 4.2066, 4.2257, 4.1892, 4.1831000000000005, 4.1868, 4.2309, 4.3951, 4.2916, 4.195, 4.1897, 4.250900000000001, 4.2085, 4.161, 4.2196, 4.1931, 4.2262, 4.1994, 4.1879, 4.1982, 4.1678, 4.2065, 4.1929, 4.1866, 4.1605, 4.250699999999999, 4.2181, 4.2182, 4.2194, 4.2059999999999995, 4.5056, 4.2490000000000006, 4.1947, 4.2319, 4.2292, 4.2371, 4.2664, 4.224600000000001, 4.2293, 4.228899999999999, 4.1939, 4.1704, 4.2040999999999995, 4.1893, 4.211399999999999, 4.194500000000001, 4.2587, 4.1962, 4.2082, 4.2124, 4.2197, 4.2040999999999995, 4.2334, 4.2559, 4.2021999999999995, 4.203, 4.222499999999999, 4.2474, 4.187200000000001, 4.2208000000000006, 4.2743],
  "QPU": "7000000",
  "Qubits": 14,
  "Queue durations [ms]": [0.0, 0.0, 0.0, 0.0, 0.0, 0.0, 0.0, 0.0, 0.0, 0.0, 0.0, 0.0, 0.0, 0.0, 0.0, 0.0, 0.0, 0.0, 0.0, 0.0, 0.0, 0.0, 0.0, 0.0, 0.0, 0.0, 0.0, 0.0, 0.0, 0.0, 0.0, 0.0, 0.0, 0.0, 0.0, 0.0, 0.0, 0.0, 0.0, 0.0, 0.0, 0.0, 0.0, 0.0, 0.0, 0.0, 0.0, 0.0, 0.0, 0.0, 0.0, 0.0, 0.0, 0.0, 0.0, 0.0, 0.0, 0.0, 0.0, 0.0, 0.0, 0.0, 0.0, 0.0, 0.0, 0.0, 0.0, 0.0, 0.0, 0.0, 0.0, 0.0, 0.0, 0.0, 0.0, 0.0, 0.0, 0.0, 0.0, 0.0, 0.0, 0.0, 0.0, 0.0, 0.0, 0.0, 0.0, 0.0, 0.0, 0.0, 0.0, 0.0, 0.0, 0.0, 0.0, 0.0, 0.0, 0.0, 0.0, 0.0, 0.0, 0.0, 0.0, 0.0, 0.0, 0.0, 0.0, 0.0, 0.0, 0.0, 0.0, 0.0, 0.0, 0.0, 0.0, 0.0, 0.0, 0.0, 0.0, 0.0],
  "Shots": 4096,
  "Size": 11,
  "Total Algorithm duration [s]": 5.187,
  "Total Classic duration [s]": 4.6806565,
  "Total Quantum duration [s]": 0.5063435000000002
}
