{
  "Circuit execution durations [ms]": [4.1958, 4.1819, 4.2017, 4.1884, 4.3061, 4.1183000000000005, 4.1631, 4.2475000000000005, 4.1841, 4.1583000000000006, 4.1935, 4.1838, 4.1923, 4.1876999999999995, 4.2039, 4.1697, 4.521599999999999, 4.276000000000001, 4.4472000000000005, 4.105700000000001, 4.125, 3.9861999999999997, 4.1566, 4.2093, 4.1812000000000005, 4.012499999999999, 4.0861, 4.226999999999999, 4.480300000000001, 4.2518, 4.4619, 4.1475, 4.1656, 4.272200000000001, 4.160200000000001, 4.2264, 4.1864, 4.2379999999999995, 4.1523, 4.2167, 4.2077, 4.216, 4.188899999999999, 4.208, 4.2029, 4.2218, 4.173, 4.2062, 4.1566, 4.2049, 4.1699, 4.1925, 4.2126, 4.1868, 4.165699999999999, 4.1885, 4.3732, 4.2423, 4.1699, 4.285, 4.2261, 4.240200000000001, 4.2021999999999995, 4.2005, 4.199, 4.2275, 4.1706, 4.2341999999999995, 4.1373, 4.2462, 4.1601, 4.2005, 4.2107, 4.1608, 4.2277000000000005, 4.231999999999999, 4.1873, 4.1855, 4.180599999999999, 4.1734, 4.1841, 4.1924, 4.1701999999999995, 4.1482],
  "Depth": 629.0,
  "Expectation Value": -2.8741068840026855,
  "Optimal Expectation Value": -3.0,
  "Optimizer durations [ms]": [42.899, 42.603, 42.81, 42.599, 43.656, 51.437, 42.564, 43.217, 42.458, 42.496, 42.528, 42.533, 42.784, 42.583, 42.699, 42.531, 46.092, 43.645, 51.11, 51.368, 51.614, 50.386, 42.341, 42.88, 42.574, 50.51, 51.585, 52.649, 47.894, 48.052, 46.839, 42.157, 42.632, 43.511, 47.713, 43.06, 42.455, 43.202, 42.343, 43.015, 42.788, 42.776, 42.736, 42.975, 42.743, 43.036, 42.322, 42.926, 42.241, 42.941, 42.703, 43.018, 43.293, 42.789, 42.312, 42.748, 49.509, 43.258, 42.517, 43.633, 42.854, 43.348, 42.859, 42.702, 42.838, 42.894, 42.506, 43.213, 42.034, 43.374, 42.314, 42.966, 42.974, 51.996, 43.031, 42.926, 42.775, 42.581, 42.604, 42.583, 42.617, 42.567, 42.374, 42.057],
  "Optimizer iterations": 84,
  "Optimizer params": [0.520536350048406, 0.7278207540512085, 0.9707347251820697, 0.6430354880458764, 0.8035075226375317, 0.1441821747731902],
  "P": 3,
  "Problem": "MIS",
  "QJob durations [ms]": [4.1958, 4.1819, 4.2017, 4.1884, 4.3061, 4.1183000000000005, 4.1631, 4.2475000000000005, 4.1841, 4.1583000000000006, 4.1935, 4.1838, 4.1923, 4.1876999999999995, 4.2039, 4.1697, 4.521599999999999, 4.276000000000001, 4.4472000000000005, 4.105700000000001, 4.125, 3.9861999999999997, 4.1566, 4.2093, 4.1812000000000005, 4.012499999999999, 4.0861, 4.226999999999999, 4.480300000000001, 4.2518, 4.4619, 4.1475, 4.1656, 4.272200000000001, 4.160200000000001, 4.2264, 4.1864, 4.2379999999999995, 4.1523, 4.2167, 4.2077, 4.216, 4.188899999999999, 4.208, 4.2029, 4.2218, 4.173, 4.2062, 4.1566, 4.2049, 4.1699, 4.1925, 4.2126, 4.1868, 4.165699999999999, 4.1885, 4.3732, 4.2423, 4.1699, 4.285, 4.2261, 4.240200000000001, 4.2021999999999995, 4.2005, 4.199, 4.2275, 4.1706, 4.2341999999999995, 4.1373, 4.2462, 4.1601, 4.2005, 4.2107, 4.1608, 4.2277000000000005, 4.231999999999999, 4.1873, 4.1855, 4.180599999999999, 4.1734, 4.1841, 4.1924, 4.1701999999999995, 4.1482],
  "QPU": "7000000",
  "Qubits": 14,
  "Queue durations [ms]": [0.0, 0.0, 0.0, 0.0, 0.0, 0.0, 0.0, 0.0, 0.0, 0.0, 0.0, 0.0, 0.0, 0.0, 0.0, 0.0, 0.0, 0.0, 0.0, 0.0, 0.0, 0.0, 0.0, 0.0, 0.0, 0.0, 0.0, 0.0, 0.0, 0.0, 0.0, 0.0, 0.0, 0.0, 0.0, 0.0, 0.0, 0.0, 0.0, 0.0, 0.0, 0.0, 0.0, 0.0, 0.0, 0.0, 0.0, 0.0, 0.0, 0.0, 0.0, 0.0, 0.0, 0.0, 0.0, 0.0, 0.0, 0.0, 0.0, 0.0, 0.0, 0.0, 0.0, 0.0, 0.0, 0.0, 0.0, 0.0, 0.0, 0.0, 0.0, 0.0, 0.0, 0.0, 0.0, 0.0, 0.0, 0.0, 0.0, 0.0, 0.0, 0.0, 0.0, 0.0],
  "Shots": 4096,
  "Size": 11,
  "Total Algorithm duration [s]": 3.7,
  "Total Classic duration [s]": 3.3467605000000002,
  "Total Quantum duration [s]": 0.3532395
}
