{
  "Circuit execution durations [ms]": [4.1535, 4.199, 4.1154, 4.1818, 4.477799999999999, 4.4687, 4.1718, 4.225, 4.2408, 4.2334, 4.1874, 4.3053, 4.230300000000001, 4.2177, 4.2462, 4.273, 4.281, 4.2468, 4.2306, 4.2046, 4.2188, 4.2467, 4.1400999999999994, 4.196400000000001, 4.2058, 4.2764, 4.2299, 4.198, 4.207599999999999, 4.2362, 4.2189000000000005, 4.2163, 4.033, 4.3551, 4.1493, 4.2286, 4.198300000000001, 4.2008, 4.2296, 4.2274, 4.2728, 4.2438, 4.207800000000001, 4.2551000000000005, 4.2423, 4.2205, 4.2147, 4.2212, 4.2613, 4.2627999999999995, 4.4445, 4.1989, 4.3027999999999995, 4.2063999999999995, 4.2418000000000005, 4.2063999999999995, 4.2314, 4.1934, 4.190799999999999, 4.2397, 4.2311, 4.2202, 4.2031, 4.2131, 4.1673, 4.2449, 4.337, 4.1954, 4.2406, 4.2408, 4.1665, 4.1575, 4.1618, 4.3984000000000005, 4.2698, 4.2241, 4.2693, 4.201, 4.2058, 4.1887, 4.2766, 4.2092, 4.1677, 4.1809, 4.2097999999999995, 4.196400000000001, 4.1886, 4.2097999999999995, 4.225300000000001, 4.1803, 4.2146, 4.1472, 4.1862, 4.2001, 4.236700000000001, 4.2166, 4.181500000000001, 4.1834999999999996, 4.1446, 4.2023, 4.1613, 4.1986, 4.2317, 4.381600000000001],
  "Depth": 629.0,
  "Expectation Value": -2.937561511993408,
  "Optimal Expectation Value": -3.0,
  "Optimizer durations [ms]": [42.626, 42.75, 42.032, 42.513, 45.6, 50.283, 42.364, 42.977, 42.973, 43.083, 42.463, 43.793, 43.014, 42.875, 43.327, 43.369, 43.763, 43.239, 43.079, 42.849, 42.819, 43.18, 42.056, 42.884, 42.779, 43.426, 42.985, 42.67, 42.873, 43.23, 42.978, 43.084, 50.899, 44.348, 51.852, 43.09, 42.894, 42.576, 43.237, 42.927, 43.393, 43.071, 42.766, 43.185, 43.157, 42.875, 42.804, 42.844, 43.168, 43.454, 45.038, 51.29, 43.78, 42.852, 43.222, 42.932, 42.899, 42.633, 47.975, 43.165, 43.204, 42.957, 42.852, 43.065, 42.332, 43.201, 44.214, 42.887, 43.003, 43.442, 42.521, 42.359, 42.203, 44.727, 48.429, 43.132, 43.56, 42.946, 42.634, 42.815, 43.402, 42.872, 42.266, 42.672, 42.756, 42.836, 42.555, 43.011, 42.849, 42.5, 42.954, 42.27, 42.439, 42.867, 43.181, 42.967, 42.582, 42.748, 42.316, 42.733, 46.792, 43.714, 42.935, 44.664],
  "Optimizer iterations": 104,
  "Optimizer params": [0.24445138391753635, 0.9805742384428492, 1.0, 0.9984507485313947, 0.0020157887896764836, 0.930019925593697],
  "P": 3,
  "Problem": "MIS",
  "QJob durations [ms]": [4.1535, 4.199, 4.1154, 4.1818, 4.477799999999999, 4.4687, 4.1718, 4.225, 4.2408, 4.2334, 4.1874, 4.3053, 4.230300000000001, 4.2177, 4.2462, 4.273, 4.281, 4.2468, 4.2306, 4.2046, 4.2188, 4.2467, 4.1400999999999994, 4.196400000000001, 4.2058, 4.2764, 4.2299, 4.198, 4.207599999999999, 4.2362, 4.2189000000000005, 4.2163, 4.033, 4.3551, 4.1493, 4.2286, 4.198300000000001, 4.2008, 4.2296, 4.2274, 4.2728, 4.2438, 4.207800000000001, 4.2551000000000005, 4.2423, 4.2205, 4.2147, 4.2212, 4.2613, 4.2627999999999995, 4.4445, 4.1989, 4.3027999999999995, 4.2063999999999995, 4.2418000000000005, 4.2063999999999995, 4.2314, 4.1934, 4.190799999999999, 4.2397, 4.2311, 4.2202, 4.2031, 4.2131, 4.1673, 4.2449, 4.337, 4.1954, 4.2406, 4.2408, 4.1665, 4.1575, 4.1618, 4.3984000000000005, 4.2698, 4.2241, 4.2693, 4.201, 4.2058, 4.1887, 4.2766, 4.2092, 4.1677, 4.1809, 4.2097999999999995, 4.196400000000001, 4.1886, 4.2097999999999995, 4.225300000000001, 4.1803, 4.2146, 4.1472, 4.1862, 4.2001, 4.236700000000001, 4.2166, 4.181500000000001, 4.1834999999999996, 4.1446, 4.2023, 4.1613, 4.1986, 4.2317, 4.381600000000001],
  "QPU": "7000000",
  "Qubits": 14,
  "Queue durations [ms]": [0.0, 0.0, 0.0, 0.0, 0.0, 0.0, 0.0, 0.0, 0.0, 0.0, 0.0, 0.0, 0.0, 0.0, 0.0, 0.0, 0.0, 0.0, 0.0, 0.0, 0.0, 0.0, 0.0, 0.0, 0.0, 0.0, 0.0, 0.0, 0.0, 0.0, 0.0, 0.0, 0.0, 0.0, 0.0, 0.0, 0.0, 0.0, 0.0, 0.0, 0.0, 0.0, 0.0, 0.0, 0.0, 0.0, 0.0, 0.0, 0.0, 0.0, 0.0, 0.0, 0.0, 0.0, 0.0, 0.0, 0.0, 0.0, 0.0, 0.0, 0.0, 0.0, 0.0, 0.0, 0.0, 0.0, 0.0, 0.0, 0.0, 0.0, 0.0, 0.0, 0.0, 0.0, 0.0, 0.0, 0.0, 0.0, 0.0, 0.0, 0.0, 0.0, 0.0, 0.0, 0.0, 0.0, 0.0, 0.0, 0.0, 0.0, 0.0, 0.0, 0.0, 0.0, 0.0, 0.0, 0.0, 0.0, 0.0, 0.0, 0.0, 0.0, 0.0, 0.0],
  "Shots": 4096,
  "Size": 11,
  "Total Algorithm duration [s]": 4.521,
  "Total Classic duration [s]": 4.0815708,
  "Total Quantum duration [s]": 0.43942919999999985
}
