{
  "Circuit execution durations [ms]": [4.248, 4.2233, 4.1881, 4.1649, 4.2068, 4.178699999999999, 4.1726, 4.1767, 4.1653, 4.1809, 4.2034, 4.184399999999999, 4.2464, 4.226500000000001, 4.2492, 4.2357000000000005, 4.1953, 4.1383, 4.1269, 4.1744, 4.230300000000001, 4.2034, 4.1867, 4.1776, 4.1895, 4.1686, 4.1407, 4.2199, 4.24, 4.1895999999999995, 4.1162, 4.1971, 4.1902, 4.194500000000001, 4.207800000000001, 4.2221, 4.4465, 4.357200000000001, 4.1767, 4.188, 4.1791, 4.252, 4.2322999999999995, 4.2627999999999995, 4.2048, 4.1689, 4.1769, 4.2042, 4.2581, 4.170100000000001, 4.1445, 4.2299, 4.2145, 4.183, 4.1771, 4.1993, 4.2669, 4.1937, 4.181, 4.2164, 4.2132000000000005, 4.1805, 4.2445, 4.175199999999999, 4.2027, 4.1453999999999995, 4.2165, 4.2094000000000005, 4.1884, 4.1914, 4.245900000000001, 4.236700000000001, 4.2074, 4.1999, 4.205, 4.1764, 4.2341999999999995, 4.2119, 4.1963, 4.2053, 4.1981, 4.1828, 4.2302, 4.6051, 4.2832, 4.2044999999999995, 4.1956, 4.1906, 4.1711, 4.1972, 4.2328, 4.1438999999999995, 4.1688, 4.1836, 4.1735, 4.1909],
  "Depth": 629.0,
  "Expectation Value": -2.907011032104492,
  "Optimal Expectation Value": -3.0,
  "Optimizer durations [ms]": [43.575, 42.975, 42.49, 42.522, 42.788, 42.705, 42.414, 42.6, 42.412, 42.542, 42.972, 42.611, 43.329, 52.479, 43.355, 43.231, 42.578, 42.281, 42.04, 42.736, 43.095, 42.994, 42.653, 42.685, 42.698, 42.388, 42.095, 43.009, 43.114, 42.611, 41.734, 42.592, 42.495, 42.83, 42.888, 42.804, 45.071, 50.083, 42.373, 42.604, 42.392, 43.418, 43.185, 43.499, 42.781, 42.324, 42.421, 42.805, 43.536, 42.429, 42.202, 43.057, 42.961, 42.489, 42.458, 42.885, 43.414, 42.643, 42.42, 42.999, 43.036, 43.717, 43.896, 42.557, 42.62, 42.18, 52.647, 42.922, 42.679, 42.641, 43.216, 43.129, 42.942, 42.685, 42.949, 42.39, 43.157, 42.852, 42.559, 42.96, 42.861, 42.536, 43.097, 51.753, 43.787, 42.741, 42.537, 42.659, 42.504, 42.769, 43.064, 42.325, 42.584, 42.407, 42.536, 42.522],
  "Optimizer iterations": 96,
  "Optimizer params": [0.9991803550412403, 0.49217414224295036, 0.9812393288548747, 0.0034035803080518113, 0.7496723306577824, 0.5022609309403607],
  "P": 3,
  "Problem": "MIS",
  "QJob durations [ms]": [4.248, 4.2233, 4.1881, 4.1649, 4.2068, 4.178699999999999, 4.1726, 4.1767, 4.1653, 4.1809, 4.2034, 4.184399999999999, 4.2464, 4.226500000000001, 4.2492, 4.2357000000000005, 4.1953, 4.1383, 4.1269, 4.1744, 4.230300000000001, 4.2034, 4.1867, 4.1776, 4.1895, 4.1686, 4.1407, 4.2199, 4.24, 4.1895999999999995, 4.1162, 4.1971, 4.1902, 4.194500000000001, 4.207800000000001, 4.2221, 4.4465, 4.357200000000001, 4.1767, 4.188, 4.1791, 4.252, 4.2322999999999995, 4.2627999999999995, 4.2048, 4.1689, 4.1769, 4.2042, 4.2581, 4.170100000000001, 4.1445, 4.2299, 4.2145, 4.183, 4.1771, 4.1993, 4.2669, 4.1937, 4.181, 4.2164, 4.2132000000000005, 4.1805, 4.2445, 4.175199999999999, 4.2027, 4.1453999999999995, 4.2165, 4.2094000000000005, 4.1884, 4.1914, 4.245900000000001, 4.236700000000001, 4.2074, 4.1999, 4.205, 4.1764, 4.2341999999999995, 4.2119, 4.1963, 4.2053, 4.1981, 4.1828, 4.2302, 4.6051, 4.2832, 4.2044999999999995, 4.1956, 4.1906, 4.1711, 4.1972, 4.2328, 4.1438999999999995, 4.1688, 4.1836, 4.1735, 4.1909],
  "QPU": "7000000",
  "Qubits": 14,
  "Queue durations [ms]": [0.0, 0.0, 0.0, 0.0, 0.0, 0.0, 0.0, 0.0, 0.0, 0.0, 0.0, 0.0, 0.0, 0.0, 0.0, 0.0, 0.0, 0.0, 0.0, 0.0, 0.0, 0.0, 0.0, 0.0, 0.0, 0.0, 0.0, 0.0, 0.0, 0.0, 0.0, 0.0, 0.0, 0.0, 0.0, 0.0, 0.0, 0.0, 0.0, 0.0, 0.0, 0.0, 0.0, 0.0, 0.0, 0.0, 0.0, 0.0, 0.0, 0.0, 0.0, 0.0, 0.0, 0.0, 0.0, 0.0, 0.0, 0.0, 0.0, 0.0, 0.0, 0.0, 0.0, 0.0, 0.0, 0.0, 0.0, 0.0, 0.0, 0.0, 0.0, 0.0, 0.0, 0.0, 0.0, 0.0, 0.0, 0.0, 0.0, 0.0, 0.0, 0.0, 0.0, 0.0, 0.0, 0.0, 0.0, 0.0, 0.0, 0.0, 0.0, 0.0, 0.0, 0.0, 0.0, 0.0],
  "Shots": 4096,
  "Size": 11,
  "Total Algorithm duration [s]": 4.144,
  "Total Classic duration [s]": 3.740118,
  "Total Quantum duration [s]": 0.4038820000000001
}
