{
  "Circuit execution durations [ms]": [4.168200000000001, 4.23, 4.1925, 4.2029, 4.2044, 4.1729, 4.1812000000000005, 4.2115, 4.1272, 4.3716, 4.286, 4.139600000000001, 4.114999999999999, 4.114999999999999, 4.2279, 4.161, 4.1892, 4.2447, 4.1613, 4.1592, 4.1964999999999995, 4.1845, 4.1838999999999995, 4.1182, 4.152, 4.1818, 4.3744, 4.3163, 4.1208, 4.2303999999999995, 4.1724, 4.164700000000001, 4.1738, 4.1826, 4.1948, 4.1786, 4.1282000000000005, 4.1770000000000005, 4.110499999999999, 4.1028, 4.1697, 4.1838, 4.1573, 4.1691, 4.1973, 4.1085, 4.224, 4.1429, 4.1915, 4.2527, 4.1417, 4.2412, 4.1779, 4.243399999999999, 4.141, 4.1881, 4.241, 4.2524, 4.1033, 4.1541, 4.1667, 4.2287, 4.146000000000001, 4.1744, 4.1512, 4.1294, 4.2549, 4.1897, 4.171, 4.1428, 4.1429, 4.2273, 4.154, 4.2296, 4.2527, 4.2043, 4.0744, 4.1834999999999996, 4.2213, 4.4364, 4.1123, 4.2134, 4.1773, 4.105, 4.190799999999999, 4.2363, 4.2245, 4.2414000000000005, 4.1377999999999995, 4.2252, 4.1498, 4.2237, 4.207800000000001, 4.1859, 4.1554, 4.2119, 4.4483, 4.2996, 4.2257, 4.2338000000000005, 4.2134, 4.2318, 4.1954, 4.2379999999999995, 4.2196, 4.231999999999999, 4.1739999999999995, 4.229, 4.1537, 4.1623, 4.2056000000000004, 4.1761, 4.2416, 4.1989, 4.1621999999999995],
  "Depth": 629.0,
  "Expectation Value": -2.9377307891845703,
  "Optimal Expectation Value": -3.0,
  "Optimizer durations [ms]": [42.53, 43.123, 42.635, 42.675, 42.658, 45.437, 47.624, 43.709, 41.882, 44.342, 49.569, 42.118, 41.982, 41.887, 43.074, 42.423, 42.758, 43.133, 42.432, 42.235, 42.548, 42.602, 42.608, 42.043, 42.198, 42.595, 44.59, 48.983, 41.835, 43.063, 42.524, 42.225, 42.731, 42.605, 42.863, 42.661, 41.851, 42.569, 41.801, 41.848, 42.489, 42.81, 42.652, 42.394, 42.613, 41.811, 43.077, 42.283, 42.539, 43.296, 51.677, 43.057, 42.477, 43.253, 42.152, 42.689, 42.997, 43.319, 41.681, 42.407, 42.422, 43.144, 42.176, 42.392, 42.347, 42.177, 43.25, 42.489, 42.461, 42.057, 41.999, 42.903, 42.137, 43.087, 46.41, 42.667, 51.076, 42.402, 42.959, 45.233, 49.684, 42.828, 42.51, 41.741, 42.813, 42.974, 43.08, 43.374, 42.184, 43.001, 42.298, 43.086, 42.871, 42.705, 42.191, 42.999, 45.292, 49.591, 43.027, 43.106, 42.865, 43.01, 42.652, 43.008, 43.013, 43.169, 42.362, 42.88, 42.322, 42.417, 42.75, 42.571, 43.336, 42.892, 42.489],
  "Optimizer iterations": 115,
  "Optimizer params": [0.24852199609668565, 0.11873372388709409, 1.0, 0.9999871824670021, 0.0, 0.9762631192990349],
  "P": 3,
  "Problem": "MIS",
  "QJob durations [ms]": [4.168200000000001, 4.23, 4.1925, 4.2029, 4.2044, 4.1729, 4.1812000000000005, 4.2115, 4.1272, 4.3716, 4.286, 4.139600000000001, 4.114999999999999, 4.114999999999999, 4.2279, 4.161, 4.1892, 4.2447, 4.1613, 4.1592, 4.1964999999999995, 4.1845, 4.1838999999999995, 4.1182, 4.152, 4.1818, 4.3744, 4.3163, 4.1208, 4.2303999999999995, 4.1724, 4.164700000000001, 4.1738, 4.1826, 4.1948, 4.1786, 4.1282000000000005, 4.1770000000000005, 4.110499999999999, 4.1028, 4.1697, 4.1838, 4.1573, 4.1691, 4.1973, 4.1085, 4.224, 4.1429, 4.1915, 4.2527, 4.1417, 4.2412, 4.1779, 4.243399999999999, 4.141, 4.1881, 4.241, 4.2524, 4.1033, 4.1541, 4.1667, 4.2287, 4.146000000000001, 4.1744, 4.1512, 4.1294, 4.2549, 4.1897, 4.171, 4.1428, 4.1429, 4.2273, 4.154, 4.2296, 4.2527, 4.2043, 4.0744, 4.1834999999999996, 4.2213, 4.4364, 4.1123, 4.2134, 4.1773, 4.105, 4.190799999999999, 4.2363, 4.2245, 4.2414000000000005, 4.1377999999999995, 4.2252, 4.1498, 4.2237, 4.207800000000001, 4.1859, 4.1554, 4.2119, 4.4483, 4.2996, 4.2257, 4.2338000000000005, 4.2134, 4.2318, 4.1954, 4.2379999999999995, 4.2196, 4.231999999999999, 4.1739999999999995, 4.229, 4.1537, 4.1623, 4.2056000000000004, 4.1761, 4.2416, 4.1989, 4.1621999999999995],
  "QPU": "7000000",
  "Qubits": 14,
  "Queue durations [ms]": [0.0, 0.0, 0.0, 0.0, 0.0, 0.0, 0.0, 0.0, 0.0, 0.0, 0.0, 0.0, 0.0, 0.0, 0.0, 0.0, 0.0, 0.0, 0.0, 0.0, 0.0, 0.0, 0.0, 0.0, 0.0, 0.0, 0.0, 0.0, 0.0, 0.0, 0.0, 0.0, 0.0, 0.0, 0.0, 0.0, 0.0, 0.0, 0.0, 0.0, 0.0, 0.0, 0.0, 0.0, 0.0, 0.0, 0.0, 0.0, 0.0, 0.0, 0.0, 0.0, 0.0, 0.0, 0.0, 0.0, 0.0, 0.0, 0.0, 0.0, 0.0, 0.0, 0.0, 0.0, 0.0, 0.0, 0.0, 0.0, 0.0, 0.0, 0.0, 0.0, 0.0, 0.0, 0.0, 0.0, 0.0, 0.0, 0.0, 0.0, 0.0, 0.0, 0.0, 0.0, 0.0, 0.0, 0.0, 0.0, 0.0, 0.0, 0.0, 0.0, 0.0, 0.0, 0.0, 0.0, 0.0, 0.0, 0.0, 0.0, 0.0, 0.0, 0.0, 0.0, 0.0, 0.0, 0.0, 0.0, 0.0, 0.0, 0.0, 0.0, 0.0, 0.0, 0.0],
  "Shots": 4096,
  "Size": 11,
  "Total Algorithm duration [s]": 4.965,
  "Total Classic duration [s]": 4.4826929,
  "Total Quantum duration [s]": 0.4823071000000001
}
