{
  "Circuit execution durations [ms]": [4.1892, 4.3083, 4.228199999999999, 4.4399, 4.2951, 4.2033000000000005, 4.1689, 4.150799999999999, 4.2298, 4.2435, 4.1651, 4.1999, 4.1770000000000005, 4.230700000000001, 4.1696, 4.173900000000001, 4.1445, 4.1926000000000005, 4.1803, 4.120699999999999, 4.6151, 4.3427, 4.2005, 4.265, 4.2181, 4.2053, 4.1495999999999995, 4.1967, 4.1613, 4.1762, 4.2015, 4.1653, 4.1529, 4.1786, 4.165900000000001, 4.1791, 4.1856, 4.2439, 4.213, 4.123, 4.1978, 4.120900000000001, 4.2749, 4.3094, 4.1117, 4.146999999999999, 4.1617, 4.1783, 4.1848, 4.156199999999999, 4.1956, 4.2435, 4.167599999999999, 4.2206, 4.1471, 4.1854, 4.1859, 4.1469000000000005, 4.1672, 4.1804, 4.166399999999999, 4.175, 4.1679, 4.2101, 4.2252, 4.2858, 4.1633, 4.2214, 4.1438999999999995, 4.3723, 4.1114999999999995, 4.2165, 4.211399999999999, 4.3989, 4.2490000000000006, 4.1986, 4.181500000000001, 4.0903, 4.2091, 4.2179, 4.1892, 4.2021999999999995, 4.168, 4.2086, 4.1732000000000005, 4.189100000000001],
  "Depth": 629.0,
  "Expectation Value": -2.916625738143921,
  "Optimal Expectation Value": -3.0,
  "Optimizer durations [ms]": [44.498, 43.883, 42.915, 44.963, 49.17, 42.866, 42.592, 42.184, 43.08, 43.232, 42.482, 42.807, 42.702, 43.049, 42.538, 42.684, 42.042, 42.837, 42.664, 41.778, 46.896, 46.762, 42.867, 43.469, 42.916, 42.68, 42.399, 42.761, 42.397, 42.684, 42.797, 42.258, 42.366, 42.67, 42.504, 42.526, 42.644, 43.252, 42.95, 42.038, 42.823, 41.912, 43.348, 44.032, 51.516, 42.079, 42.411, 42.623, 42.813, 42.445, 42.853, 43.897, 42.287, 43.057, 42.232, 42.828, 42.695, 42.389, 42.555, 42.721, 42.518, 42.436, 42.576, 43.013, 42.874, 43.736, 42.405, 43.075, 42.074, 44.505, 47.651, 42.999, 42.717, 44.696, 49.685, 42.627, 42.714, 43.255, 42.953, 42.896, 42.73, 42.71, 42.567, 42.863, 42.623, 42.589],
  "Optimizer iterations": 86,
  "Optimizer params": [0.9998967530201115, 0.9815027355707189, 0.27216712095313733, 0.9989187277345288, 0.00839209847703376, 0.99993011419636],
  "P": 3,
  "Problem": "MIS",
  "QJob durations [ms]": [4.1892, 4.3083, 4.228199999999999, 4.4399, 4.2951, 4.2033000000000005, 4.1689, 4.150799999999999, 4.2298, 4.2435, 4.1651, 4.1999, 4.1770000000000005, 4.230700000000001, 4.1696, 4.173900000000001, 4.1445, 4.1926000000000005, 4.1803, 4.120699999999999, 4.6151, 4.3427, 4.2005, 4.265, 4.2181, 4.2053, 4.1495999999999995, 4.1967, 4.1613, 4.1762, 4.2015, 4.1653, 4.1529, 4.1786, 4.165900000000001, 4.1791, 4.1856, 4.2439, 4.213, 4.123, 4.1978, 4.120900000000001, 4.2749, 4.3094, 4.1117, 4.146999999999999, 4.1617, 4.1783, 4.1848, 4.156199999999999, 4.1956, 4.2435, 4.167599999999999, 4.2206, 4.1471, 4.1854, 4.1859, 4.1469000000000005, 4.1672, 4.1804, 4.166399999999999, 4.175, 4.1679, 4.2101, 4.2252, 4.2858, 4.1633, 4.2214, 4.1438999999999995, 4.3723, 4.1114999999999995, 4.2165, 4.211399999999999, 4.3989, 4.2490000000000006, 4.1986, 4.181500000000001, 4.0903, 4.2091, 4.2179, 4.1892, 4.2021999999999995, 4.168, 4.2086, 4.1732000000000005, 4.189100000000001],
  "QPU": "7000000",
  "Qubits": 14,
  "Queue durations [ms]": [0.0, 0.0, 0.0, 0.0, 0.0, 0.0, 0.0, 0.0, 0.0, 0.0, 0.0, 0.0, 0.0, 0.0, 0.0, 0.0, 0.0, 0.0, 0.0, 0.0, 0.0, 0.0, 0.0, 0.0, 0.0, 0.0, 0.0, 0.0, 0.0, 0.0, 0.0, 0.0, 0.0, 0.0, 0.0, 0.0, 0.0, 0.0, 0.0, 0.0, 0.0, 0.0, 0.0, 0.0, 0.0, 0.0, 0.0, 0.0, 0.0, 0.0, 0.0, 0.0, 0.0, 0.0, 0.0, 0.0, 0.0, 0.0, 0.0, 0.0, 0.0, 0.0, 0.0, 0.0, 0.0, 0.0, 0.0, 0.0, 0.0, 0.0, 0.0, 0.0, 0.0, 0.0, 0.0, 0.0, 0.0, 0.0, 0.0, 0.0, 0.0, 0.0, 0.0, 0.0, 0.0, 0.0],
  "Shots": 4096,
  "Size": 11,
  "Total Algorithm duration [s]": 3.717,
  "Total Classic duration [s]": 3.3554202,
  "Total Quantum duration [s]": 0.36157979999999984
}
