{
  "Circuit execution durations [ms]": [4.185300000000001, 4.3618, 4.204000000000001, 4.157100000000001, 4.1861, 4.2591, 4.1918, 4.2412, 4.2493, 4.1648, 4.2048, 4.1892, 4.1674, 4.1753, 4.176, 4.213, 4.168500000000001, 4.1873, 4.1850000000000005, 4.2813, 4.181299999999999, 4.1937, 4.2231, 4.4015, 4.234, 4.1957, 4.1987, 4.2120999999999995, 4.2129, 4.117100000000001, 4.2158999999999995, 4.223, 4.1826, 4.1662, 4.2067, 4.1939, 4.1803, 4.1722, 4.1932, 4.1694, 4.4453000000000005, 4.3263, 4.2262, 4.2265999999999995, 4.1779, 4.2467, 4.2232, 4.2082999999999995, 4.2366, 4.2148, 4.215, 4.2338000000000005, 4.1957, 4.1811, 4.243399999999999, 4.277, 4.1684, 4.1976, 4.1316, 4.186299999999999, 4.1944, 4.184, 4.1907000000000005, 4.3241, 4.0743, 4.2764, 4.1557, 4.211399999999999, 4.193, 4.2633, 4.1996, 4.2063999999999995, 4.1997, 4.1784, 4.170100000000001, 4.201, 4.1785, 4.197, 4.1857999999999995, 4.183, 4.2232, 4.1579, 4.1926000000000005, 4.2538, 4.1829, 4.147900000000001, 4.2156, 4.2162, 4.1981, 4.2039, 4.2125, 4.198, 4.2819, 4.4742999999999995, 4.317200000000001, 4.194599999999999, 4.2197, 4.2449, 4.1538, 4.1639, 4.169499999999999, 4.1818, 4.1786, 4.1734, 4.1511],
  "Depth": 629.0,
  "Expectation Value": -2.9163591861724854,
  "Optimal Expectation Value": -3.0,
  "Optimizer durations [ms]": [42.997, 44.36, 42.755, 42.539, 42.441, 43.255, 42.644, 43.139, 43.435, 42.386, 42.86, 42.482, 42.459, 42.425, 42.399, 43.062, 42.58, 45.835, 43.564, 43.585, 47.485, 42.762, 43.087, 44.666, 47.861, 42.834, 42.737, 42.961, 42.72, 41.917, 42.773, 43.023, 42.594, 42.505, 42.879, 42.781, 42.426, 42.632, 42.841, 42.459, 45.168, 50.099, 43.021, 42.95, 42.351, 43.08, 43.195, 42.96, 43.115, 42.72, 42.96, 43.211, 42.63, 42.668, 43.247, 43.67, 42.364, 42.572, 42.035, 42.798, 42.743, 42.437, 42.585, 44.167, 51.241, 43.72, 42.368, 42.801, 42.77, 43.545, 42.589, 42.698, 42.733, 42.515, 42.495, 42.814, 42.412, 42.794, 42.746, 42.516, 42.906, 42.258, 42.731, 43.435, 42.546, 42.251, 42.994, 42.976, 42.678, 45.323, 47.626, 43.15, 43.476, 45.366, 48.913, 42.734, 42.777, 43.038, 42.272, 42.377, 42.304, 42.572, 42.48, 42.466, 42.126],
  "Optimizer iterations": 105,
  "Optimizer params": [1.0, 0.7366382677365242, 0.015930226403055622, 1.4897572721410711e-18, 0.2493627721902725, 1.0],
  "P": 3,
  "Problem": "MIS",
  "QJob durations [ms]": [4.185300000000001, 4.3618, 4.204000000000001, 4.157100000000001, 4.1861, 4.2591, 4.1918, 4.2412, 4.2493, 4.1648, 4.2048, 4.1892, 4.1674, 4.1753, 4.176, 4.213, 4.168500000000001, 4.1873, 4.1850000000000005, 4.2813, 4.181299999999999, 4.1937, 4.2231, 4.4015, 4.234, 4.1957, 4.1987, 4.2120999999999995, 4.2129, 4.117100000000001, 4.2158999999999995, 4.223, 4.1826, 4.1662, 4.2067, 4.1939, 4.1803, 4.1722, 4.1932, 4.1694, 4.4453000000000005, 4.3263, 4.2262, 4.2265999999999995, 4.1779, 4.2467, 4.2232, 4.2082999999999995, 4.2366, 4.2148, 4.215, 4.2338000000000005, 4.1957, 4.1811, 4.243399999999999, 4.277, 4.1684, 4.1976, 4.1316, 4.186299999999999, 4.1944, 4.184, 4.1907000000000005, 4.3241, 4.0743, 4.2764, 4.1557, 4.211399999999999, 4.193, 4.2633, 4.1996, 4.2063999999999995, 4.1997, 4.1784, 4.170100000000001, 4.201, 4.1785, 4.197, 4.1857999999999995, 4.183, 4.2232, 4.1579, 4.1926000000000005, 4.2538, 4.1829, 4.147900000000001, 4.2156, 4.2162, 4.1981, 4.2039, 4.2125, 4.198, 4.2819, 4.4742999999999995, 4.317200000000001, 4.194599999999999, 4.2197, 4.2449, 4.1538, 4.1639, 4.169499999999999, 4.1818, 4.1786, 4.1734, 4.1511],
  "QPU": "7000000",
  "Qubits": 14,
  "Queue durations [ms]": [0.0, 0.0, 0.0, 0.0, 0.0, 0.0, 0.0, 0.0, 0.0, 0.0, 0.0, 0.0, 0.0, 0.0, 0.0, 0.0, 0.0, 0.0, 0.0, 0.0, 0.0, 0.0, 0.0, 0.0, 0.0, 0.0, 0.0, 0.0, 0.0, 0.0, 0.0, 0.0, 0.0, 0.0, 0.0, 0.0, 0.0, 0.0, 0.0, 0.0, 0.0, 0.0, 0.0, 0.0, 0.0, 0.0, 0.0, 0.0, 0.0, 0.0, 0.0, 0.0, 0.0, 0.0, 0.0, 0.0, 0.0, 0.0, 0.0, 0.0, 0.0, 0.0, 0.0, 0.0, 0.0, 0.0, 0.0, 0.0, 0.0, 0.0, 0.0, 0.0, 0.0, 0.0, 0.0, 0.0, 0.0, 0.0, 0.0, 0.0, 0.0, 0.0, 0.0, 0.0, 0.0, 0.0, 0.0, 0.0, 0.0, 0.0, 0.0, 0.0, 0.0, 0.0, 0.0, 0.0, 0.0, 0.0, 0.0, 0.0, 0.0, 0.0, 0.0, 0.0, 0.0],
  "Shots": 4096,
  "Size": 11,
  "Total Algorithm duration [s]": 4.542,
  "Total Classic duration [s]": 4.0999423,
  "Total Quantum duration [s]": 0.4420576999999999
}
