{
  "Depth": 113.0,
  "Job durations [ms]": [113.0, 111.0, 81.0, 70.0, 67.0, 96.0, 76.0, 100.0, 26.0, 68.0, 209.0, 96.0, 92.0, 66.0, 149.0, 37.0, 502.0, 89.0, 77.0, 87.0, 97.0, 206.0, 104.0, 66.0, 190.0, 65.0, 387.0, 67.0, 87.0, 74.0, 63.0, 571.0, 73.0, 108.0, 66.0, 89.0, 74.0, 210.0, 73.0, 75.0, 94.0, 36.0, 132.0, 89.0, 146.0, 111.0, 93.0, 143.0, 64.0, 143.0, 148.0, 96.0, 90.0, 25.0, 178.0, 84.0, 67.0, 68.0, 193.0, 150.0, 67.0, 128.0, 47.0, 531.0, 61.0, 541.0, 55.0, 201.0, 339.0, 71.0, 99.0, 94.0, 84.0, 104.0, 197.0, 101.0, 80.0, 114.0, 68.0, 148.0, 75.0, 152.0, 93.0, 82.0, 103.0, 65.0, 109.0, 67.0, 203.0, 93.0, 76.0, 108.0, 94.0, 109.0, 62.0, 105.0, 85.0, 25.0, 65.0, 72.0, 182.0, 42.0, 77.0, 76.0, 85.0],
  "Optimizer durations [ms]": [5786.391, 5942.64, 5793.892, 5703.247, 6094.915, 5855.474, 5781.563, 5965.85, 5776.429, 5726.822, 5828.433, 5894.127, 5950.985, 5828.285, 5820.461, 5778.355, 5791.696, 5725.312, 5713.709, 5802.112, 5787.367, 5739.971, 5782.836, 5739.713, 5757.096, 5972.991, 5773.655, 5755.877, 5740.063, 5903.446, 5952.501, 5750.892, 5700.049, 5733.467, 5759.44, 5737.378, 5798.805, 5833.502, 5787.078, 5735.521, 5745.966, 5690.038, 5711.0, 5746.041, 5777.804, 5738.565, 5747.613, 5760.123, 5784.382, 5775.71, 5830.532, 5864.054, 5712.475, 5710.491, 5773.557, 5858.743, 5752.229, 5705.806, 5708.621, 5809.208, 5763.585, 6938.984, 5890.929, 5822.736, 10996.253, 6078.177, 5818.043, 5805.404, 5799.417, 5784.916, 5753.828, 5792.237, 5776.722, 5847.455, 5738.807, 5925.874, 5792.312, 5744.136, 5780.411, 5752.886, 5807.447, 5711.837, 5908.723, 6080.621, 5746.091, 5794.277, 5726.992, 5930.501, 5879.98, 5847.107, 5793.055, 5790.746, 5838.146, 5880.986, 5773.729, 5962.965, 5868.113, 5788.521, 5987.609, 5760.793, 5804.891, 6011.052, 5794.5, 5968.274, 5770.698],
  "Optimizer iterations": 105,
  "Qubits": 6,
  "Total Algorithm duration [s]": 616.336,
  "Total Classic duration [s]": 603.794,
  "Total Quantum duration [s]": 12.542,
  "Expectation Value": -7.79345703125,
  "Optimal Expectation Value": -8.0,
  "Optimizer params": [0.38725416040969074, 0.5641796532640968, 0.42407085952527024, 0.6260275273582238, 0.48521788967078744, 0.0659668211738767],
  "QPU": "10000001",
  "Problem": "MCP",
  "Size": 6,
  "P": 3,
  "Shots": 4096
}