{
  "Circuit execution durations [ms]": [7474.00426864624, 7393.623113632202, 7251.180410385132, 7052.68120765686, 7261.008739471436, 7261.754274368286, 7413.53702545166, 7396.333694458008, 7379.364490509033, 7353.851795196533, 7352.9393672943115, 7495.692491531372, 7175.715684890747, 7076.801061630249, 7453.612327575684, 7417.235374450684, 7217.4646854400635, 7190.449953079224, 7111.154794692993, 7042.858123779297, 7134.479284286499, 7053.085565567017, 6987.200975418091, 6950.623035430908, 7068.745851516724, 7337.917327880859, 7502.8321743011475, 7413.405418395996, 7146.223545074463, 6877.47049331665, 7781.836271286011, 7314.738512039185, 6920.401811599731, 7037.490367889404, 7210.882186889648, 7011.309862136841, 6802.2003173828125, 7342.746019363403, 7344.2063331604, 6883.525371551514, 7219.7558879852295, 7042.986154556274, 7291.483640670776, 6959.184169769287, 7485.740661621094, 7393.855094909668, 7598.968744277954, 7392.350435256958, 7453.532934188843, 7047.422409057617, 7036.709785461426, 7019.933223724365, 7677.005767822266, 6923.473596572876, 7400.266170501709, 7251.349210739136, 7025.3002643585205, 7126.875877380371, 7362.430095672607, 7054.189443588257, 7490.745306015015, 8853.279829025269, 7117.603302001953, 7141.830682754517, 7088.905811309814, 7321.504592895508, 7279.690265655518, 7105.506658554077, 7046.124458312988, 7195.326328277588, 7544.379949569702, 7049.935102462769, 6968.808889389038, 7018.490314483643, 6996.4964389801025, 7047.109365463257, 7148.3893394470215],
  "Depth": 131.0,
  "Expectation Value": -7.05712890625,
  "Optimal Expectation Value": -10.0,
  "Optimizer durations [ms]": [19037.617, 121786.785, 19141.128, 19394.112, 20378.39, 20075.753, 19486.665, 20484.758, 20159.515, 20158.269, 18974.743, 20061.852, 22302.774, 18879.076, 19189.723, 20396.105, 19657.994, 20033.248, 19742.784, 20371.561, 20986.136, 18068.414, 21724.082, 19435.388, 19421.503, 21302.787, 19218.239, 19426.69, 21418.471, 18272.257, 30913.337, 19274.063, 20833.034, 19541.586, 19836.12, 20479.445, 20985.235, 18754.433, 20355.551, 20225.683, 19415.32, 19949.654, 20367.354, 19434.083, 20676.666, 24341.702, 27053.932, 29129.982, 39491.868, 19948.729, 19531.07, 21827.398, 19743.251, 18565.713, 20070.124, 20689.377, 19210.621, 20472.254, 19748.172, 20160.575, 18998.897, 20692.928, 20042.103, 19433.372, 20257.138, 20180.538, 20549.834, 18702.635, 20374.119, 22761.582, 18175.389, 20053.522, 19323.512, 20366.307, 19532.141, 20628.984, 19550.983],
  "Optimizer iterations": 77,
  "Optimizer params": [0.33523130506697035, 0.7682290832236466, 0.5277739499097363, 0.8039860815688683, 0.477405912269422, 0.6288563124674782],
  "P": 3,
  "Problem": "MCP",
  "QJob durations [ms]": [18945.993185043335, 121689.55874443054, 19054.40068244934, 19233.027935028076, 20317.673683166504, 20012.948274612427, 19390.249013900757, 20394.07706260681, 20101.340770721436, 20096.19402885437, 18855.084657669067, 20004.340410232544, 22243.202447891235, 18818.927764892578, 19124.518156051636, 20279.600620269775, 19596.47035598755, 19939.351558685303, 19685.05907058716, 20309.179544448853, 20888.673305511475, 18012.33696937561, 21662.496328353882, 19369.415760040283, 19332.65447616577, 21243.457078933716, 19160.0604057312, 19311.36131286621, 21355.673789978027, 18175.081491470337, 30857.46431350708, 19213.31262588501, 20700.669050216675, 19476.174354553223, 19743.269681930542, 20412.96434402466, 20895.917415618896, 18695.39761543274, 20291.63670539856, 20159.680128097534, 19336.35687828064, 19890.09666442871, 20301.81860923767, 19372.079849243164, 20511.688947677612, 24271.835565567017, 26961.594343185425, 29044.89541053772, 39437.55841255188, 19828.02677154541, 19443.708419799805, 21731.770515441895, 19643.76711845398, 18468.172550201416, 19978.044509887695, 20628.04365158081, 19104.124307632446, 20409.254789352417, 19683.57825279236, 20060.150384902954, 18906.60524368286, 20574.899435043335, 19949.111700057983, 19369.693279266357, 20190.72723388672, 20116.00089073181, 20426.0835647583, 18640.366554260254, 20306.423902511597, 22654.542684555054, 18115.71431159973, 19992.077112197876, 19259.135007858276, 20236.54818534851, 19466.712474822998, 20561.4070892334, 19487.27536201477],
  "QPU": "402001B",
  "Qubits": 7,
  "Queue durations [ms]": [792.0, 839.0, 1016.0, 974.0, 1052.0, 983.0, 697.0, 860.0, 967.0, 1102.0, 988.0, 807.0, 905.0, 969.0, 827.0, 917.0, 967.0, 1125.0, 668.0, 899.0, 1147.0, 1105.0, 1162.0, 843.0, 1072.0, 1090.0, 1188.0, 932.0, 1092.0, 832.0, 1173.0, 1069.0, 1124.0, 1136.0, 1018.9999999999999, 822.0, 727.0, 837.0, 913.0, 724.0, 1128.0, 925.0, 958.0, 1094.0, 969.0, 5236.0, 864.0, 11058.0, 976.0, 502.0, 1064.0, 1072.0, 1000.9999999999999, 962.0, 919.0, 826.0, 905.0, 1010.9999999999999, 841.0, 782.0, 761.0, 1095.0, 921.0, 1195.0, 1024.0, 1288.0, 724.0, 1048.0, 1058.0, 1114.0, 846.0, 615.0, 1136.0, 767.0, 851.0, 1113.0, 829.0],
  "Shots": 4096,
  "Size": 7,
  "Total Algorithm duration [s]": 1689.637,
  "Total Classic duration [s]": 6.228214895248357,
  "Total Quantum duration [s]": 1683.4087851047516
}
