{
  "Depth": 2.0,
  "Job durations [ms]": [0.16360000154236332, 0.14375000318977982, 0.156299996888265, 0.14334999650600366, 0.15424999946844764, 0.15124999845284037, 0.17254999693250284, 0.14409999857889488, 0.14290000035543926, 0.1520000005257316, 0.17795000167097896, 0.14450000162469223, 0.15309999798773788, 0.1386500007356517, 0.17870000010589138, 0.13934999878983945, 0.14879999798722565, 0.1444000008632429, 0.17839999782154337, 0.17980000120587647, 0.15260000509442762, 0.1441999957023654, 0.15129999883356504, 0.1548000000184402, 0.1459500017517712, 0.15025000175228342, 0.14704999921377748, 0.18094999904860742, 0.1428499999747146, 0.17870000010589138, 0.15025000175228342, 0.14279999959398992, 0.14520000331685878, 0.17209999714395963, 0.15799999891896732, 0.15734999760752544, 0.14390000433195382, 0.17240000306628644, 0.18760000239126384, 0.1444000008632429, 0.14340000052470714, 0.2180499941459857, 0.15985000209184363, 0.14629999714088626, 0.1409499964211136, 0.1545999984955415, 0.13905000014347024, 0.1391500045428984, 0.22279999393504113, 0.15574999997625127, 0.14435000048251823, 0.14850000297883525, 0.17565000234753825, 0.14224999540601857, 0.13779999790131114, 0.13765000403509475, 0.1923000017995946, 0.14644999828306027, 0.14349999764817767, 0.15094999980647117, 0.1624000033189077, 0.14480000027106144, 0.1424999973096419, 0.14104999718256295, 0.16575000336160883, 0.14645000192103907, 0.19109999266220257, 0.14060000103199854, 0.16569999570492655, 0.14545000158250332, 0.1551000023027882, 0.13930000204709359, 0.16050000340328552, 0.14444999760598876, 0.21940000442555174, 0.13184999988880008, 0.1564999984111637, 0.14969999756431207, 0.18759999511530623, 0.15159999747993425, 0.15165000149863772, 0.17330000264337286, 0.16230000255745836, 0.18384999202680774, 0.14400000145542435, 0.18260000797454268, 0.17410000145900995, 0.13845000285073183, 0.1453000004403293, 0.15250000433297828, 0.1476500001444947, 0.14974999794503674, 0.1476499965065159, 0.22415000421460718, 0.14585000099032186, 0.14105000082054175, 0.14350000128615648, 0.17935000505531207, 0.14805000319029205, 0.13885000225855038, 0.1409499964211136, 0.14800000280956738, 0.1476500037824735, 0.14659999942523427, 0.14939999891794287, 0.1622500021767337, 0.14769999688724056, 0.1473500014981255, 0.18629999976838008, 0.15110000094864517, 0.17035000200849026, 0.2613500000734348, 0.34044999483739957, 0.21114999981364235, 0.13455000225803815, 0.1206499982799869, 0.3100500034634024, 0.34889999369625, 0.3167999966535717, 0.12099999730708078, 0.3303500052425079, 0.23430000146618113, 0.14634999752161093, 0.24249999842140824, 0.25224999990314245, 0.24619999749120325, 0.3108000018983148, 0.24160000612027943, 0.14770000052521937, 0.1468499976908788, 0.17719999959808774, 0.14849999934085645, 0.14770000052521937, 0.14349999764817767, 0.19459999748505652, 0.14429999646381475, 0.14505000217468478, 0.14975000158301555, 0.1424999973096419, 0.14990000636316836, 0.14310000187833793, 0.23720000899629667, 0.20799999765586108, 0.15854999946895987, 0.16535000031581149, 0.14000000373926014, 0.149500003317371, 0.14390000069397502, 0.15040000289445743, 0.14339999688672833, 0.14495000141323544, 0.15264999819919467, 0.14335000378196128, 0.2032000047620386, 0.1497999983257614, 0.14510000255540945, 0.16590000086580403],
  "Optimizer durations [ms]": [5.315, 4.253, 4.802, 4.041, 4.135, 4.15, 4.524, 3.886, 3.812, 4.984, 4.668, 3.853, 4.173, 3.816, 4.713, 3.754, 4.044, 4.039, 4.698, 4.737, 4.353, 4.39, 4.117, 4.145, 3.989, 4.052, 4.043, 4.706, 4.656, 4.757, 4.099, 4.117, 4.007, 4.578, 4.222, 4.297, 3.901, 4.608, 4.815, 3.984, 3.908, 5.149, 5.26, 4.028, 3.86, 4.665, 3.915, 3.864, 5.32, 4.423, 3.891, 4.087, 4.633, 3.975, 3.834, 3.942, 5.063, 4.774, 4.004, 4.029, 4.436, 3.998, 3.848, 3.965, 4.387, 4.011, 5.055, 3.839, 4.371, 4.426, 4.104, 3.768, 4.34, 3.935, 6.32, 11.286, 4.488, 4.115, 4.89, 5.012, 4.219, 4.606, 4.338, 4.77, 3.924, 4.609, 4.697, 3.825, 4.062, 4.544, 4.031, 4.179, 4.028, 5.536, 4.092, 3.855, 3.871, 4.755, 4.131, 3.828, 5.016, 4.564, 4.028, 3.974, 4.533, 4.659, 4.09, 4.168, 4.812, 4.021, 4.435, 6.165, 9.989, 22.156, 10.517, 17.374, 12.236, 12.914, 10.945, 8.488, 11.411, 5.566, 4.173, 5.674, 6.359, 19.385, 7.777, 6.362, 4.034, 4.03, 5.219, 4.178, 4.029, 3.948, 4.946, 3.909, 3.969, 3.979, 4.973, 4.504, 3.898, 5.689, 5.354, 4.504, 4.371, 4.53, 4.061, 3.906, 4.056, 3.871, 4.199, 4.064, 3.859, 5.037, 4.162, 4.437, 4.355],
  "Optimizer iterations": 157,
  "Qubits": 9,
  "Total Algorithm duration [s]": 0.791,
  "Total Classic duration [s]": 0.7648658499663871,
  "Total Quantum duration [s]": 0.02613415003361297,
  "Expectation Value": -5.571199893951416,
  "Optimal Expectation Value": -5.571199893951416,
  "Optimizer params": [0.9999999999999999, 0.5010232176618756, 0.9980999328587732, 0.497202370734671, 0.4993685234040475, 1.0, 0.499192002222628, 0.5047407328296405, 0.9965029800547647],
  "QPU": "7000000",
  "Problem": "RH",
  "Size": 9,
  "P": 0,
  "Shots": 4096
}