{
  "Circuit execution durations [ms]": [92.53478050231934, 95.14784812927246, 91.45236015319824, 92.08202362060547, 148.0236053466797, 93.13511848449707, 95.99781036376953, 94.06638145446777, 147.69244194030762, 91.61186218261719, 95.6261157989502, 89.51377868652344, 148.62465858459473, 98.01983833312988, 96.31943702697754, 93.8878059387207, 151.3345241546631, 94.81453895568848, 93.48011016845703, 93.81437301635742, 147.90844917297363, 94.01798248291016, 92.97919273376465, 92.10395812988281, 147.06850051879883, 92.78345108032227, 94.87009048461914, 98.70386123657227, 149.68180656433105, 89.59627151489258, 91.37868881225586, 93.13511848449707, 91.65072441101074, 92.38600730895996, 92.17715263366699, 91.24469757080078, 92.11277961730957, 95.44229507446289, 93.36352348327637, 95.94273567199707, 92.82565116882324, 98.92725944519043, 94.18368339538574, 91.65287017822266, 94.32721138000488, 90.83819389343262, 93.26839447021484, 95.1998233795166, 91.47787094116211, 91.51029586791992, 92.72623062133789, 94.83551979064941, 91.76993370056152, 94.82908248901367, 89.85400199890137, 101.01175308227539, 92.53430366516113, 92.92864799499512, 90.31295776367188, 92.14258193969727, 90.88397026062012, 91.3698673248291, 91.87126159667969, 92.08416938781738, 93.27363967895508, 92.19956398010254, 94.06375885009766, 93.89901161193848, 91.583251953125, 91.9499397277832, 91.26400947570801, 94.08903121948242, 90.95239639282227, 99.0452766418457, 90.88683128356934, 92.4992561340332, 92.10085868835449, 96.6806411743164, 91.50481224060059, 96.41861915588379, 90.51704406738281, 94.67720985412598, 92.33283996582031, 93.14322471618652, 90.81697463989258, 93.62316131591797, 92.9100513458252, 92.76819229125977],
  "Depth": 113.0,
  "Expectation Value": -6.171875,
  "Optimal Expectation Value": -8.0,
  "Optimizer durations [ms]": [539.518, 498.178, 488.556, 487.815, 540.675, 496.67, 519.265, 492.901, 541.266, 493.879, 499.971, 480.501, 539.691, 507.508, 500.258, 488.437, 541.319, 501.227, 497.097, 489.127, 540.897, 501.215, 495.132, 487.857, 535.502, 499.041, 500.076, 494.805, 542.353, 493.904, 494.783, 489.53, 483.938, 537.272, 494.868, 485.903, 484.741, 541.387, 499.616, 492.683, 486.074, 540.838, 496.505, 488.025, 490.954, 534.989, 498.144, 492.424, 484.72, 534.781, 496.367, 493.504, 486.751, 539.407, 495.398, 499.963, 488.914, 537.379, 490.98, 490.508, 484.18, 536.745, 492.073, 488.859, 487.253, 539.474, 502.247, 495.496, 486.818, 538.43, 494.483, 491.722, 481.736, 545.212, 495.817, 491.163, 483.94, 540.748, 497.205, 497.667, 479.5, 542.516, 490.607, 489.274, 484.604, 538.336, 496.371, 488.148],
  "Optimizer iterations": 88,
  "Optimizer params": [0.017610821773606747, 0.2267261384136499, 0.3802153366109722, 0.8457928453794749, 0.9838989533513397, 0.9969934487139094],
  "P": 3,
  "Problem": "MCP",
  "QJob durations [ms]": [234.77578163146973, 181.00857734680176, 175.80056190490723, 178.96175384521484, 235.41522026062012, 178.67565155029297, 182.57832527160645, 180.03535270690918, 234.7733974456787, 175.66347122192383, 181.18524551391602, 171.06318473815918, 235.5215549468994, 185.55450439453125, 182.21163749694824, 178.96437644958496, 236.11140251159668, 182.24382400512695, 179.1856288909912, 178.34186553955078, 234.21669006347656, 180.41300773620605, 178.7729263305664, 178.35283279418945, 229.31623458862305, 235.0447177886963, 182.3890209197998, 182.328462600708, 234.9858283996582, 231.43482208251953, 177.81448364257813, 177.9458522796631, 176.36370658874512, 235.6548309326172, 178.6479949951172, 175.4763126373291, 177.38699913024902, 240.0524616241455, 180.1745891571045, 180.72938919067383, 178.67302894592285, 239.8693561553955, 179.0752410888672, 176.3465404510498, 181.05387687683105, 233.5374355316162, 179.6090602874756, 180.7537078857422, 175.61078071594238, 233.36219787597656, 179.23641204833984, 181.48159980773926, 178.31754684448242, 238.08026313781738, 175.06146430969238, 187.33859062194824, 178.98821830749512, 236.4792823791504, 174.42655563354492, 179.2612075805664, 175.48394203186035, 236.23991012573242, 176.26643180847168, 177.95610427856445, 179.94332313537598, 237.16449737548828, 180.5551052093506, 182.07645416259766, 175.9355068206787, 235.4288101196289, 176.0733127593994, 180.01055717468262, 175.47607421875, 244.18044090270996, 176.1631965637207, 179.00872230529785, 176.64694786071777, 240.47160148620605, 177.72722244262695, 184.14711952209473, 173.80738258361816, 239.50767517089844, 174.90386962890625, 179.11100387573242, 175.20666122436523, 237.29944229125977, 179.0306568145752, 177.5379180908203],
  "QPU": "300002E",
  "Qubits": 6,
  "Queue durations [ms]": [0.0, 0.0, 0.0, 0.0, 0.0, 0.0, 0.0, 0.0, 0.0, 0.0, 0.0, 0.0, 0.0, 0.0, 0.0, 0.0, 0.0, 0.0, 0.0, 0.0, 0.0, 0.0, 0.0, 0.0, 0.0, 0.0, 0.0, 0.0, 0.0, 0.0, 0.0, 0.0, 0.0, 0.0, 0.0, 0.0, 0.0, 0.0, 0.0, 0.0, 0.0, 0.0, 0.0, 0.0, 0.0, 0.0, 0.0, 0.0, 0.0, 0.0, 0.0, 0.0, 0.0, 0.0, 0.0, 0.0, 0.0, 0.0, 0.0, 0.0, 0.0, 0.0, 0.0, 0.0, 0.0, 0.0, 0.0, 0.0, 0.0, 0.0, 0.0, 0.0, 0.0, 0.0, 0.0, 0.0, 0.0, 0.0, 0.0, 0.0, 0.0, 0.0, 0.0, 0.0, 0.0, 0.0, 0.0, 0.0],
  "Shots": 4096,
  "Size": 6,
  "Total Algorithm duration [s]": 44.386,
  "Total Classic duration [s]": 27.28050526237488,
  "Total Quantum duration [s]": 17.105494737625122
}
