{
  "Circuit execution durations [ms]": [72.40748405456543, 127.1665096282959, 73.49896430969238, 73.40264320373535, 73.64273071289063, 72.7837085723877, 73.0428695678711, 73.99415969848633, 74.63335990905762, 73.99153709411621, 73.25530052185059, 74.23806190490723, 72.82137870788574, 73.31299781799316, 73.06909561157227, 72.99447059631348, 75.83236694335938, 73.17042350769043, 73.2414722442627, 75.31404495239258, 71.12789154052734, 74.51677322387695, 72.36313819885254, 75.33693313598633, 127.75754928588867, 74.75066184997559, 77.44383811950684, 74.53107833862305, 74.54252243041992, 75.58369636535645, 128.3400058746338, 75.01101493835449, 75.5467414855957, 75.48046112060547, 75.05106925964355, 76.05218887329102, 129.54068183898926, 73.41456413269043, 75.75225830078125, 73.38571548461914, 74.48768615722656, 72.46255874633789, 126.77597999572754, 77.67844200134277, 79.27250862121582, 73.50945472717285, 75.05655288696289, 75.714111328125, 126.32560729980469, 75.27804374694824, 73.59433174133301, 74.80144500732422, 74.90253448486328, 75.12712478637695, 128.76534461975098, 72.2804069519043, 74.66340065002441, 72.12448120117188, 77.53276824951172, 76.01356506347656, 125.33950805664063, 76.2186050415039, 77.39734649658203, 74.08785820007324, 74.03182983398438, 71.33102416992188, 78.12976837158203, 73.53639602661133, 76.98702812194824, 73.00233840942383, 75.14524459838867, 73.71354103088379, 73.00877571105957, 74.50318336486816, 73.55594635009766, 75.07896423339844, 75.3335952758789, 73.03190231323242, 75.37961006164551, 74.91445541381836, 75.64949989318848, 73.95505905151367, 74.06282424926758, 75.38294792175293, 75.2408504486084, 76.07340812683105, 77.4073600769043, 74.42498207092285, 73.90236854553223, 127.07877159118652, 77.20685005187988, 73.03857803344727, 72.95536994934082, 77.45003700256348, 71.89130783081055],
  "Depth": 113.0,
  "Expectation Value": -6.50830078125,
  "Optimal Expectation Value": -8.0,
  "Optimizer durations [ms]": [419.826, 422.859, 367.595, 416.11, 413.332, 416.026, 420.295, 366.428, 410.23, 410.815, 410.318, 419.394, 419.447, 365.416, 410.801, 412.023, 416.604, 417.783, 419.392, 373.115, 409.377, 416.016, 411.908, 420.748, 421.015, 366.888, 415.73, 420.685, 415.683, 419.194, 421.991, 371.689, 412.172, 412.296, 416.805, 423.058, 423.417, 371.511, 421.455, 410.344, 415.973, 420.121, 419.085, 371.584, 418.022, 413.71, 418.867, 420.903, 421.121, 369.893, 413.238, 411.767, 418.93, 423.845, 420.092, 365.438, 412.168, 415.124, 428.781, 430.551, 419.431, 375.048, 420.748, 423.351, 415.343, 426.478, 372.632, 408.737, 415.242, 412.952, 422.516, 420.027, 365.302, 417.731, 415.717, 414.86, 427.173, 423.545, 367.342, 415.908, 412.843, 413.902, 419.748, 419.676, 366.918, 420.201, 418.106, 414.71, 416.437, 420.722, 377.279, 408.085, 412.528, 419.569, 416.556],
  "Optimizer iterations": 95,
  "Optimizer params": [0.28736716664016937, 0.9659667925653321, 0.08206967887886181, 0.46509605549098515, 0.39166323327539526, 0.5825795471890377],
  "P": 3,
  "Problem": "MCP",
  "QJob durations [ms]": [215.86346626281738, 215.3012752532959, 159.74760055541992, 160.87603569030762, 160.66884994506836, 158.3547592163086, 213.52076530456543, 161.16857528686523, 159.6381664276123, 160.76278686523438, 157.7434539794922, 162.11652755737305, 211.8377685546875, 158.83231163024902, 161.52667999267578, 158.96153450012207, 163.03443908691406, 161.49210929870605, 214.07318115234375, 166.05472564697266, 157.3503017425537, 161.03744506835938, 158.18166732788086, 165.04526138305664, 214.49542045593262, 161.10539436340332, 165.0826930999756, 161.1168384552002, 161.1495018005371, 162.7798080444336, 215.96574783325195, 162.8704071044922, 162.07623481750488, 160.71128845214844, 160.72440147399902, 163.42639923095703, 216.2926197052002, 163.28811645507813, 170.63546180725098, 159.49487686157227, 160.46690940856934, 161.34023666381836, 211.7917537689209, 165.16733169555664, 166.24975204467773, 160.41302680969238, 164.03746604919434, 215.545654296875, 213.8059139251709, 163.16938400268555, 159.72352027893066, 160.46833992004395, 162.71543502807617, 216.36271476745605, 214.00976181030273, 158.57911109924316, 159.1639518737793, 159.95049476623535, 166.3815975189209, 219.2375659942627, 212.3570442199707, 164.25609588623047, 164.18027877807617, 161.75103187561035, 159.69586372375488, 213.9902114868164, 166.52154922485352, 158.8592529296875, 163.7580394744873, 159.3480110168457, 162.69898414611816, 213.67645263671875, 159.3165397644043, 162.2486114501953, 159.79266166687012, 162.92262077331543, 164.62945938110352, 215.83938598632813, 161.91625595092773, 160.43591499328613, 161.29684448242188, 161.46373748779297, 162.6596450805664, 213.62042427062988, 161.29279136657715, 163.83004188537598, 164.69717025756836, 159.97719764709473, 160.3538990020752, 214.32256698608398, 166.40353202819824, 158.5099697113037, 160.3384017944336, 165.17114639282227, 159.0559482574463],
  "QPU": "300001B",
  "Qubits": 6,
  "Queue durations [ms]": [0.0, 0.0, 0.0, 0.0, 0.0, 0.0, 0.0, 0.0, 0.0, 0.0, 0.0, 0.0, 0.0, 0.0, 0.0, 0.0, 0.0, 0.0, 0.0, 0.0, 0.0, 0.0, 0.0, 0.0, 0.0, 0.0, 0.0, 0.0, 0.0, 0.0, 0.0, 0.0, 0.0, 0.0, 0.0, 0.0, 0.0, 0.0, 0.0, 0.0, 0.0, 0.0, 0.0, 0.0, 0.0, 0.0, 0.0, 0.0, 0.0, 0.0, 0.0, 0.0, 0.0, 0.0, 0.0, 0.0, 0.0, 0.0, 0.0, 0.0, 0.0, 0.0, 0.0, 0.0, 0.0, 0.0, 0.0, 0.0, 0.0, 0.0, 0.0, 0.0, 0.0, 0.0, 0.0, 0.0, 0.0, 0.0, 0.0, 0.0, 0.0, 0.0, 0.0, 0.0, 0.0, 0.0, 0.0, 0.0, 0.0, 0.0, 0.0, 0.0, 0.0, 0.0, 0.0],
  "Shots": 4096,
  "Size": 6,
  "Total Algorithm duration [s]": 38.897,
  "Total Classic duration [s]": 22.472827598571776,
  "Total Quantum duration [s]": 16.424172401428223
}
