{
  "Depth": 24.5,
  "Expectation Value": -9.9450044631958,
  "Job durations [ms]": [0.8295999723486602, 0.80825001350604, 0.7986499986145645, 0.8117000106722116, 0.6876499974168837, 0.6890000076964498, 0.6469500076491386, 0.6917499995324761, 0.6817000103183091, 0.6941499887034297, 0.6616000027861446, 0.7094499887898564, 0.667200016323477, 0.6793499924242496, 0.7287999906111509, 0.6696000054944307, 0.7030499982647598, 0.6469500076491386, 0.6964000058360398, 0.6571499980054796, 0.6891500088386238, 0.6563000206369907, 0.6854000093881041, 0.6509500090032816, 0.6397500110324472, 0.6973000126890838, 0.7907499966677278, 0.7305500039365143, 0.7390000100713223, 0.6962000043131411, 0.6960500031709671, 0.665250001475215, 0.6855999818071723, 0.6446500192396343, 0.6740999815519899, 0.680950004607439, 0.6776500085834414, 0.6710000161547214, 0.675899995258078, 0.6634999881498516, 0.666000007186085, 0.6767500017303973, 0.6627000111620873, 0.700899981893599, 0.6502500036731362, 0.6830999918747693, 0.6667999841738492, 0.7124499825295061, 0.6552500126417726, 0.6931000098120421, 0.6489999941550195, 0.6569499964825809, 0.6878000276628882, 0.6768500024918467, 0.7051999855320901, 0.6509500090032816, 0.6889500073157251, 0.6496999994851649, 0.6862999871373177, 0.6492499960586429, 0.7381000032182783, 0.6570999976247549, 0.7243999862112105, 0.7248499896377325, 0.6992999988142401, 0.6944000197108835, 0.8462500118184835, 0.6227999983821064, 0.8373500313609838, 0.8563500305172056, 0.7335499976761639, 0.7241000130306929, 0.6099999882280827, 0.614699994912371, 0.6285000126808882, 0.7410499965772033, 0.6291000172495842, 0.6270000012591481, 0.6443499878514558, 0.7419500034302473, 0.7360000163316727, 0.8899999957066029, 0.9987500088755041, 0.6425000028684735, 0.7908999978099018, 0.7195499783847481, 0.7743499882053584, 0.7680499984417111, 0.7760000007692724, 0.6997000018600374, 0.6611999997403473, 0.7297499978449196, 0.7273999799508601, 0.6529499951284379, 0.6884000031277537, 0.6582500063814223, 0.7159999804571271, 0.7151000027079135, 0.6704999832436442, 0.6570499972440302, 0.7125499832909554, 0.6575000006705523, 0.7487499970011413, 0.7357000140473247, 0.7397500157821923, 0.7444499933626503, 0.7017499883659184, 0.7077000045683235, 0.6513000116683543, 0.6902999884914607, 0.6625999812968075, 0.6724499980919063, 0.6606499955523759, 0.7993499748408794, 0.7470499840565026, 0.8587999909650534, 0.8488000312354416, 0.8361500222235918, 0.8057000231929123, 0.7359999872278422, 0.6867499905638397, 0.6815999804530293, 0.6532999977935106, 0.6983500206843019, 0.6558500172104686, 0.674000009894371, 0.7308000058401376, 0.7340000011026859, 0.7363000186160207, 0.7127999851945788, 0.754000007873401, 0.7194500067271292, 0.7348000071942806, 0.6604999944102019, 0.7011500129010528, 0.6452499947044998, 0.6249999860301614, 0.6850500067230314, 0.8108500041998923, 0.7931999862194061, 0.6870000215712935, 0.6582999776583165, 0.666750012896955, 0.6889500073157251, 0.6962500046938658, 0.684200000250712, 0.7016000163275748, 0.6524499913211912, 0.6509000086225569, 0.6942500185687095, 0.6552500126417726, 0.6954500277061015, 0.6451000226661563, 0.7053000153973699, 0.6540000031236559, 0.6921000021975487, 0.6431000074371696, 0.6915999983903021, 0.6465000042226166, 0.6433500093407929, 0.6639499915763736, 0.7129000150598586, 0.6889499782118946, 0.666150008328259, 0.6591499841306359, 0.6563999922946095, 0.6691500020679086, 0.6824499869253486, 0.666150008328259, 0.6844000017736107, 0.681250006891787, 0.6573499995283782, 0.660400022752583, 0.8493000059388578, 0.6751500186510384, 0.7192500052042305, 0.7775500125717372, 0.8394999895244837, 0.8115500095300376, 0.7886500097811222, 0.8174499962478876, 0.8353500161319971, 0.6870499928481877, 0.6534499989356846, 0.684200000250712, 0.6455499969888479, 0.6637500191573054, 0.6720999954268336, 0.6506000063382089, 0.690849992679432, 0.6431500078178942, 0.682849989971146, 0.6782499840483069, 0.766999990446493, 0.6507999787572771, 0.6972499832045287, 0.6684499967377633, 0.7270500063896179, 0.6465000042226166, 0.686249986756593, 0.6507500074803829, 0.6748999876435846, 0.6804500008001924, 0.6567999953404069, 0.6920000014360994, 0.6393500079866499, 0.6600999913644046, 0.7016000163275748, 0.6482999888248742, 0.6674000178463757, 0.6453999958466738, 0.6818000110797584, 0.6639999919570982, 0.665100000333041, 0.6487500213552266, 0.6437999836634845, 0.7161499815993011, 0.6571499980054796, 0.683899997966364, 0.6842500006314367, 0.7089999853633344, 0.7092999876476824, 0.6428500055335462, 0.6810999766457826, 0.6549499812535942, 0.7198499806690961, 0.6558999884873629, 0.6876999977976084, 0.6588999822270125, 0.7058000192046165, 0.6558500172104686, 0.6903000175952911, 0.6488999933935702, 0.7348000071942806, 0.6585999799426645, 0.6863500166218728, 0.6964000058360398, 0.6522499897982925, 0.7008500106167048, 0.6676499906461686, 0.8234999841079116, 0.8166999905370176, 0.83045000792481, 0.8273500134237111, 0.6303499976638705, 0.8249500242527574, 0.6906499911565334, 0.6480500160250813, 0.665400002617389, 0.6850500067230314, 0.6609499978367239, 0.6783499848097563, 0.6590000120922923, 0.677250005537644, 0.6610499985981733, 0.6674500182271004, 0.6693500035908073, 0.6540000031236559, 0.7487499970011413, 0.6763999990653247, 0.6711499881930649, 0.6850500067230314, 0.7031499990262091, 0.6597000174224377, 0.6722499965690076, 0.6646499969065189, 0.6754500209353864, 0.7824000203981996, 0.6670499860774726, 0.5792999872937799, 0.7017999887466431, 0.7348000071942806, 0.6334999925456941, 0.6792000203859061, 0.651650014333427, 0.6280999805312604, 0.6730500026606023, 0.7180499960668385, 0.6484999903477728, 0.6020500150043517, 0.7472500146832317, 0.7897000177763402, 0.6765500002074987, 0.7745999901089817, 0.7011499837972224, 0.8087999885901809, 0.6770500040147454, 0.674450013320893, 0.6680999940726906, 0.7344000041484833, 0.6673000170849264, 0.6639999919570982, 0.673550006467849, 0.67045001196675, 0.6658000056631863, 0.7231000054161996, 0.7264000014401972, 0.6767000013496727, 0.6999500037636608, 0.6956500001251698, 0.7066999969538301, 0.7404999923892319, 0.7266000029630959, 0.8270999824162573, 0.8293000282719731, 0.6310500029940158, 0.8177999989129603, 0.7507999835070223, 0.6523999909404665, 0.7072500011418015, 0.6568999961018562, 0.690999993821606, 0.6546500080730766, 0.7096000190358609, 0.7192500052042305, 0.6938499864190817, 0.7038000039756298, 0.7030999986454844, 0.6848000048194081, 0.6780000112485141, 0.6941500178072602, 0.7035500020720065, 0.6492499960586429, 0.6770500040147454, 0.6427500047720969, 0.6649999995715916, 0.6677000201307237, 0.6590499833691865, 0.678849988617003, 0.6400499842129648, 0.7691000064369291, 0.7048000115901232, 0.680950004607439, 0.6685999978799373, 0.6552499835379422, 0.6909499934408814, 0.6467499770224094, 0.760800001444295, 0.6955499993637204, 0.7021999917924404, 0.6697999779134989, 0.6747999868821353, 0.6438999844249338, 0.6750999891664833, 0.6543500057887286, 0.661700003547594, 0.6608499970752746, 0.6524500204250216, 0.7209999894257635, 0.6556499865837395, 0.6460000004153699, 0.683299993397668, 0.6564499926753342, 0.7054499874357134, 0.6411499925889075, 0.7199499814305454, 0.7030500273685902, 0.6755499925930053, 0.6570999976247549, 0.7246000168379396, 0.6571999983862042, 0.6702999817207456, 0.6580500048585236, 0.694099988322705, 0.7453500002156943, 0.674300012178719, 0.6545000069309026, 0.7496500038541853, 0.818000000435859, 0.822750007500872, 0.8482500270474702, 0.8029500022530556, 0.674450013320893, 0.6954500277061015, 0.6645500252489001, 0.7143999973777682, 0.6839999987278134, 0.6917999999132007, 0.6528999947477132, 0.7060500211082399, 0.6461000011768192, 0.6811999774072319, 0.6618000043090433, 0.6996500014793128, 0.6799500260967761, 0.6602999928873032, 0.6688499997835606, 0.6533999985549599, 0.8368999697268009, 0.6525499920826405, 0.7260499987751245, 0.6613500008825213, 0.6849000055808574, 0.680350000038743, 0.7064499950502068, 0.7502000080421567, 0.6867000192869455, 0.6606999959331006, 0.7030499982647598, 0.6621499778702855, 0.6817000103183091, 0.6680999940726906, 0.696449977112934, 0.658450007904321, 0.6543500057887286, 0.7233000069390982, 0.7105500262696296, 0.6606999959331006, 0.6863499875180423, 0.6505500059574842, 0.6661000079475343, 0.6730500026606023, 0.6543000054080039, 0.7190000033006072, 0.6702500104438514, 0.6438499840442091, 0.6480999873019755, 0.6742000114172697, 0.6506000063382089, 0.6653500022366643, 0.6655499746557325, 0.753700005589053, 0.6614500016439706, 0.6699000077787787, 0.7020999910309911, 0.7485500245820731, 0.665550003759563, 0.808100012363866, 0.6747499865014106, 0.6566999945789576, 0.6889500073157251, 0.6439500139094889, 0.7611000037286431, 0.8371000294573605, 0.8103500003926456, 0.7136999920476228, 0.8296000014524907, 0.7683500007260591, 0.6631000142078847, 0.6677999917883426, 0.6701000093016773, 0.6421500002034009, 0.7038500043563545, 0.6693999748677015, 0.6927500071469694, 0.652550021186471, 0.7177499937824905, 0.6534999993164092, 0.6948999944142997, 0.6680999940726906, 0.7172499899752438, 0.6588000105693936, 0.7090500148478895, 0.6641499930992723, 0.7021499914117157, 0.6594000151380897, 0.673400005325675, 0.6535499996971339, 0.7107499986886978, 0.6628000119235367, 0.7084500102791935, 0.6818000110797584, 0.6501000025309622, 0.6810500053688884, 0.6650499999523163],
  "Optimal Expectation Value": -13.653643608093262,
  "Optimizer durations [ms]": [23.705, 17.061, 23.393, 24.318, 15.741, 14.768, 14.074, 15.403, 14.698, 14.715, 14.101, 15.251, 14.22, 14.798, 15.39, 14.403, 15.009, 13.69, 14.988, 13.99, 14.835, 14.111, 14.428, 14.098, 13.487, 14.807, 16.93, 22.54, 16.421, 14.599, 14.956, 20.249, 14.637, 14.157, 14.797, 14.739, 14.508, 14.421, 14.418, 15.187, 14.167, 14.355, 14.388, 15.065, 13.743, 14.927, 14.551, 15.336, 14.143, 14.637, 14.493, 14.168, 14.695, 14.763, 15.332, 13.739, 14.979, 13.985, 15.117, 14.071, 15.91, 14.471, 15.411, 26.968, 14.849, 15.471, 18.123, 20.966, 18.639, 21.045, 16.629, 30.496, 30.087, 28.099, 25.906, 30.967, 22.575, 29.1, 29.227, 26.108, 16.878, 19.321, 32.134, 33.692, 17.665, 15.751, 16.599, 16.246, 16.438, 19.993, 15.671, 15.787, 15.506, 26.774, 15.518, 17.059, 15.306, 30.308, 14.298, 19.98, 15.316, 14.229, 16.039, 15.956, 15.815, 15.784, 14.94, 15.389, 14.395, 15.027, 14.538, 14.802, 14.805, 32.091, 16.859, 22.631, 18.235, 21.036, 19.823, 24.893, 16.889, 14.768, 14.153, 15.04, 16.947, 15.459, 15.595, 16.063, 15.957, 15.416, 16.869, 15.707, 15.566, 14.406, 15.166, 13.955, 29.292, 22.526, 24.496, 31.396, 14.506, 14.22, 14.577, 14.812, 14.767, 16.978, 15.127, 13.925, 14.076, 14.958, 14.331, 15.043, 13.915, 15.244, 14.333, 14.984, 14.105, 14.888, 13.883, 13.977, 14.455, 15.099, 14.606, 14.662, 13.923, 14.583, 14.686, 14.937, 14.368, 15.609, 14.754, 14.537, 14.127, 18.066, 17.651, 21.657, 16.693, 21.205, 21.81, 17.51, 24.897, 18.212, 14.88, 14.352, 15.097, 13.964, 14.294, 14.549, 14.147, 15.213, 14.108, 14.635, 14.766, 16.511, 14.138, 15.34, 14.388, 15.469, 14.11, 14.833, 14.009, 14.747, 14.872, 30.799, 14.901, 13.985, 14.403, 15.539, 14.098, 14.398, 22.995, 14.74, 14.308, 14.466, 14.641, 14.23, 15.435, 13.994, 15.054, 20.866, 15.527, 15.148, 13.759, 15.051, 14.106, 15.125, 14.525, 15.025, 14.288, 14.827, 14.637, 14.806, 14.372, 19.156, 15.063, 14.862, 15.78, 15.08, 14.907, 15.173, 17.82, 17.687, 17.837, 20.211, 19.739, 17.501, 14.954, 14.071, 14.58, 14.43, 14.198, 14.52, 14.026, 14.914, 14.452, 14.539, 14.327, 14.227, 16.137, 14.722, 15.463, 14.981, 15.758, 14.418, 14.432, 14.458, 14.551, 16.52, 15.189, 23.211, 15.041, 19.297, 13.955, 14.958, 14.03, 26.129, 14.584, 17.41, 13.859, 28.567, 15.691, 16.889, 14.685, 29.109, 15.509, 17.068, 14.692, 14.513, 14.617, 15.588, 14.52, 15.648, 14.374, 15.0, 14.707, 17.483, 15.425, 14.703, 14.903, 14.946, 14.997, 16.107, 15.738, 21.364, 17.673, 21.642, 18.521, 21.054, 14.385, 15.056, 14.302, 14.92, 14.311, 14.978, 15.562, 14.781, 15.033, 14.899, 14.8, 14.538, 14.718, 15.369, 14.352, 14.445, 13.92, 14.329, 14.485, 14.285, 14.594, 18.888, 26.745, 15.359, 14.48, 14.345, 14.067, 14.857, 13.934, 16.18, 15.26, 18.001, 14.624, 14.637, 13.975, 14.508, 14.1, 14.408, 14.508, 14.062, 15.611, 14.275, 18.698, 15.045, 14.31, 14.981, 14.191, 15.757, 14.987, 14.309, 14.369, 16.084, 14.124, 14.66, 18.36, 14.88, 15.734, 14.692, 14.054, 16.171, 17.883, 18.401, 21.203, 21.13, 15.975, 14.768, 14.545, 15.206, 14.929, 15.074, 14.103, 15.305, 13.821, 14.64, 14.611, 14.713, 14.495, 14.144, 14.495, 14.221, 23.45, 14.305, 15.348, 14.64, 14.554, 14.818, 25.746, 16.259, 15.075, 14.59, 14.973, 14.288, 14.85, 14.657, 15.208, 14.233, 14.413, 17.422, 15.215, 14.228, 14.734, 14.389, 14.331, 14.674, 14.062, 15.497, 14.241, 16.67, 14.2, 14.659, 14.032, 15.082, 14.176, 16.406, 14.362, 14.697, 15.023, 16.091, 14.317, 20.359, 14.567, 15.041, 14.935, 13.595, 16.285, 18.003, 17.836, 27.612, 17.72, 18.004, 14.298, 14.313, 14.65, 13.893, 15.912, 14.474, 14.815, 14.124, 15.549, 14.313, 15.044, 14.592, 15.295, 13.97, 15.349, 14.44, 15.354, 14.089, 14.528, 13.911, 15.445, 15.677, 14.928, 22.431, 14.001, 14.681, 14.312],
  "Optimizer iterations": 465,
  "Optimizer params": [0.7500137236413262, 0.7499621156345794, 0.7499927817471362, 0.7499739406080649, 0.7500335857660083, 0.7499716164626672, 0.7499695423055761, 0.7499933548230325, 0.7500285576522099, 0.7499636604881783, 0.7500326262501491, 0.5000202874263555, 0.5000017309643123, 0.4999998351620079, 0.5000190264690285, 0.5000127452862535, 0.4999475378213351, 0.5000332482888797, 0.5000214113664919, 0.5000305533535325, 0.5000076759714938, 0.7500310953861636, 0.49998879663673373, 0.5000284893217758, 0.5000155139445105, 0.5000467441537163, 0.5000554673582152, 0.5000132746266771, 0.5000001194766265, 0.500000681733226, 0.5000467340355605, 0.5000677267694824, 0.4999303586095103, 0.5000836486242256, 0.5000853468620994, 0.5000115116357842, 0.500000719010894, 0.5000521973013693, 0.4999734966361484, 0.5000550829371474, 0.5000018698383136, 0.500039817576324, 0.49993801422093126, 0.5000477603325201],
  "P": 0,
  "Problem": "IC",
  "QPU": "7000000",
  "Qubits": 11,
  "Shots": 4096,
  "Size": 11,
  "Total Algorithm duration [s]": 7.563,
  "Total Classic duration [s]": 7.239585899520432,
  "Total Quantum duration [s]": 0.3234141004795674
}
