{
  "Depth": 24.5,
  "Expectation Value": -9.9450044631958,
  "Job durations [ms]": [0.767599995015189, 0.7881000055931509, 0.7451499986927956, 0.6244500109460205, 0.676499999826774, 0.7097500201780349, 0.6529999955091625, 0.6672499876003712, 0.6596999883186072, 0.668499997118488, 0.6682999955955893, 0.670150009682402, 0.7367999933194369, 0.6607499963138252, 0.7065999961923808, 0.6391999777406454, 0.6977499870117754, 0.6643499946221709, 0.6864499882794917, 0.6478500145021826, 0.6935500132385641, 0.655200012261048, 0.7998500077519566, 0.7683500007260591, 0.6626999820582569, 0.6882000016048551, 0.6628500123042613, 0.7035000016912818, 0.6637999904341996, 0.6647999980486929, 0.7220499974209815, 0.656100019114092, 0.673100003041327, 0.6613500008825213, 0.7119999791029841, 0.6679499929305166, 0.6911999953445047, 0.6541500042658299, 0.7038500043563545, 0.6543000054080039, 0.6504500051960349, 0.7304000027943403, 0.7442499918397516, 0.6588500109501183, 0.6643499946221709, 0.6897500134073198, 0.6579000037163496, 0.6633499870076776, 0.6530499958898872, 0.7168000156525522, 0.6558499881066382, 0.6608999974559993, 0.651800015475601, 0.6748499872628599, 0.6763999990653247, 0.6563000206369907, 0.7182999979704618, 0.6579000037163496, 0.7700000132899731, 0.658750010188669, 0.7369499944616109, 0.6735000060871243, 0.6575500010512769, 0.7676999957766384, 0.8470499888062477, 0.8085000154096633, 0.8264499774668366, 0.8154999813996255, 0.8125999884214252, 0.7034500013105571, 0.6513500120490789, 0.6485999911092222, 0.6669500144198537, 0.7010500121396035, 0.6450999935623258, 0.6883500027470291, 0.6533499981742352, 0.6884000031277537, 0.67785001010634, 0.7166000141296536, 0.6946499925106764, 0.7039500051178038, 0.6423500017262995, 0.7002000056672841, 0.6429000059142709, 0.6917499995324761, 0.666000007186085, 0.6773499771952629, 0.6548500095959753, 0.6571999983862042, 0.7068999984767288, 0.6582500063814223, 0.6894500111229718, 0.6626499816775322, 0.6618000043090433, 0.6525999924633652, 0.739800016162917, 0.6704000115860254, 0.6704499828629196, 0.6816500099375844, 0.662150006974116, 0.673250004183501, 0.6886499759275466, 0.6507500074803829, 0.8432000176981091, 0.7598499942105263, 0.6565999938175082, 0.7069999992381781, 0.651650014333427, 0.6625500100199133, 0.7014000148046762, 0.670150009682402, 0.7129500154405832, 0.6560500187333673, 0.7454500009771436, 0.6576500018127263, 0.6991499976720661, 0.6614000012632459, 0.7082999800331891, 0.6461000011768192, 0.694699992891401, 0.6669500144198537, 0.6921000021975487, 0.6602999928873032, 0.7016999879851937, 0.6507500074803829, 0.6440999859478325, 0.8422999817412347, 0.8268000092357397, 0.8177000272553414, 0.8328999974764884, 0.7317500130739063, 0.6818999827373773, 0.6863499875180423, 0.6603499932680279, 0.680049997754395, 0.6559499888680875, 0.6830999918747693, 0.6491000240202993, 0.6497499998658895, 0.6864499882794917, 0.6507000070996583, 0.6933000113349408, 0.6550000107381493, 0.7018000178504735, 0.6559999892488122, 0.6775499787181616, 0.6789000181015581, 0.6458999996539205, 0.6693000032100827, 0.8402000239584595, 0.6328499875962734, 0.6597000174224377, 0.689199980115518, 0.6865999894216657, 0.6553000130224973, 0.6591500132344663, 0.6787000165786594, 0.6676000193692744, 0.7002000056672841, 0.6432500085793436, 0.6927500071469694, 0.6546499789692461, 0.6872499943710864, 0.6522499897982925, 0.8098999969661236, 0.6756499933544546, 0.680199998896569, 0.6483000179287046, 0.7229000038933009, 0.6945999921299517, 0.64825001754798, 0.6772000051569194, 0.6501500029116869, 0.6750999891664833, 0.6681499944534153, 0.679899996612221, 0.7049000123515725, 0.6772000051569194, 0.6501500029116869, 0.6883000023663044, 0.6516499852295965, 0.6785000150557607, 0.6554500141646713, 0.6631500145886093, 0.7297499978449196, 0.6674499891232699, 0.7210500189103186, 0.6812000065110624, 0.7010000117588788, 0.6448999920394272, 0.8650499803479761, 0.8564500021748245, 0.7294999959412962, 0.8182000019587576, 0.7224000000860542, 0.6913500255905092, 0.6662500090897083, 0.6706500134896487, 0.6490499945357442, 0.6773000059183687, 0.6609999982174486, 0.6699500081595033, 0.6740499811712652, 0.6649999995715916, 0.7031499990262091, 0.6619000050704926, 0.7127499848138541, 0.6202000076882541, 0.7537999772466719, 0.686999992467463, 0.659350014757365, 0.6559000175911933, 0.7030999986454844, 0.7839500030968338, 0.7576500065624714, 0.7177999941632152, 0.6501500029116869, 0.6862999871373177, 0.692899979185313, 0.7906999962870032, 0.6628999835811555, 0.7611000037286431, 0.6469500076491386, 0.7218999962788075, 0.6486999918706715, 0.686999992467463, 0.6920000014360994, 0.7058499904815108, 0.6547000084538013, 0.6836499960627407, 0.665700004901737, 0.694699992891401, 0.6524499913211912, 0.7249500195030123, 0.6618499755859375, 0.753100001020357, 0.6532000261358917, 0.693349982611835, 0.6576500018127263, 0.6930000090505928, 0.7095499895513058, 0.6957000005058944, 0.6693000032100827, 0.669850007398054, 0.7428500102832913, 0.6762999983038753, 0.6468999781645834, 0.6570999976247549, 0.7168499869294465, 0.6616000027861446, 0.6951000250410289, 0.6568999961018562, 0.6624000088777393, 0.6611499993596226, 0.8736999880056828, 0.8211000240407884, 0.811950012575835, 0.7752499950584024, 0.7170499884523451, 0.7523999956902117, 0.6743999838363379, 0.6969000096432865, 0.6815000087954104, 0.7161500107031316, 0.6652000010944903, 0.6513499829452485, 0.7056499889586121, 0.6472500099334866, 0.672499998472631, 0.6510999810416251, 0.7060499920044094, 0.666600011754781, 0.6790000188630074, 0.6520500173792243, 0.7510000141337514, 0.6637999904341996, 0.6895000115036964, 0.697199982823804, 0.6774999783374369, 0.7001500052865595, 0.6892000092193484, 0.6646999972872436, 0.6728500011377037, 0.6453999958466738, 0.6811500061303377, 0.6574500002898276, 0.6325499853119254, 0.6716500211041421, 0.659950019326061, 0.6553000130224973, 0.7384000055026263, 0.7132500177249312, 0.7325499900616705, 0.7497500046156347, 0.797600019723177, 0.7040500058792531, 0.7049500127322972, 0.6696000054944307, 0.7004500075709075, 0.6482000171672553, 0.6980000180192292, 0.6619999767281115, 0.6863500166218728, 0.6573499995283782, 0.6881000008434057, 0.6522499897982925, 0.6824500160291791, 0.6989499961491674, 0.6553999846801162, 0.6890500080771744, 0.6591999845113605, 0.690849992679432, 0.7253499934449792, 0.7156500068958849, 0.6527499936055392, 0.7063999946694821, 0.7505999819841236, 0.84299998707138, 0.8480499964207411, 0.8218999719247222, 0.8171000226866454, 0.8150999783538282, 0.6608999974559993, 0.6597499886993319, 0.6836000247858465, 0.6870000215712935, 0.7126000127755105, 0.707999977748841, 0.7054499874357134, 0.6821499846410006, 0.6951499963179231, 0.6686999986413866, 0.6779000104870647, 0.65565001568757, 0.679749995470047, 0.6886500050313771, 0.6568999961018562, 0.7112000021152198, 0.6631500145886093, 0.7035500020720065, 0.6643999950028956, 0.6426500040106475, 0.8072000055108219, 0.6565999938175082, 0.6894000107422471, 0.6645499961450696, 0.6720000237692147, 0.6471500091720372, 0.6753999914508313, 0.7118999783415347, 0.6527500227093697, 0.6907499919179827, 0.6478499853983521, 0.7251499919220805, 0.6536000000778586, 0.6753999914508313, 0.7135999912861735, 0.8412500319536775, 0.8381499792449176, 0.7576000061817467, 0.8669999951962382, 0.8686999790370464, 0.8142000006046146, 0.7949999999254942, 0.7306999759748578, 0.7293499947991222, 0.7138999935705215, 0.7370999956037849, 0.6662999803666025, 0.7290500216186047, 0.6703999824821949, 0.6962000043131411, 0.6754000205546618, 0.6579000037163496, 0.6859000131953508, 0.6634999881498516, 0.6852500082459301, 0.7231500057969242, 0.6694499752484262, 0.6503000040538609, 0.8671999676153064, 0.840049993712455, 0.7289499917533249, 0.8939999679569155, 0.8466500148642808, 0.8481500262860209, 0.6576500018127263, 0.8851000166032463, 0.9045499900821596, 0.7830499962437898, 0.8937500242609531, 0.6597500178031623, 0.6791500200051814, 0.6929000082891434, 0.6403500156011432, 0.670300010824576, 0.8855499909259379, 0.582150008995086, 0.8113000076264143, 0.7937999907881021, 0.7864499930292368, 0.686399987898767, 0.6436500116251409, 0.6730500026606023, 0.6825999880675226, 0.665250001475215, 0.7275000098161399, 0.6962500046938658, 0.7199499814305454, 0.7035000016912818, 0.682849989971146, 0.6867500196676701, 0.6544000061694533, 0.6708000146318227, 0.6963500054553151, 0.6944999913685024, 0.6815999804530293, 0.6881000008434057, 0.6913999968674034, 0.6844000017736107, 0.672199996188283, 0.6668000132776797, 0.662750011542812, 0.6894500111229718, 0.6501000025309622, 0.6616000027861446, 0.7289000204764307, 0.7332499953918159, 0.8530000050086528, 0.8342500077560544, 0.8492999768350273, 0.8136500255204737, 0.80825001350604, 0.617649988271296, 0.7198499806690961, 0.6669500144198537, 0.7211499905679375, 0.7310000073630363, 0.6537000008393079, 0.6844500021543354, 0.6504999764729291, 0.6826000171713531, 0.6605499947909266, 0.7309000066015869, 0.7031499990262091, 0.684200000250712, 0.7206499867606908, 0.7918500050436705, 0.7524499960709363, 0.7943999953567982, 0.8580000139772892, 0.7917500042822212, 0.7548000139649957, 0.7050500134937465, 0.8310000121127814, 0.6845500029157847, 0.6472000095527619, 0.7305500039365143, 0.6439499848056585, 0.676049996400252, 0.658750010188669, 0.7202500128187239, 0.6676999910268933, 0.665550003759563],
  "Optimal Expectation Value": -13.653643608093262,
  "Optimizer durations [ms]": [28.267, 20.979, 17.275, 13.359, 14.397, 15.4, 14.247, 14.476, 13.979, 14.497, 14.402, 14.327, 15.792, 14.189, 14.7, 13.971, 14.839, 14.55, 14.936, 13.864, 14.828, 15.322, 16.913, 28.992, 14.31, 14.702, 15.235, 14.677, 14.857, 14.447, 15.181, 13.978, 14.467, 14.509, 15.423, 14.384, 14.76, 13.68, 15.379, 13.852, 13.924, 15.57, 15.749, 14.264, 14.324, 14.803, 14.346, 14.379, 14.011, 15.258, 14.164, 14.651, 14.467, 14.632, 14.846, 14.315, 15.527, 13.986, 16.323, 14.419, 15.94, 14.697, 14.875, 16.293, 18.36, 17.364, 23.682, 17.958, 18.067, 15.187, 18.839, 14.531, 14.332, 15.277, 14.05, 15.331, 14.059, 14.866, 14.526, 15.441, 15.208, 15.379, 14.141, 15.083, 14.0, 15.062, 14.45, 14.814, 14.309, 14.142, 22.473, 14.333, 14.816, 14.188, 14.692, 14.64, 31.053, 14.508, 19.426, 14.693, 23.728, 14.765, 18.672, 13.931, 28.243, 16.427, 15.209, 15.352, 14.041, 14.206, 15.146, 14.539, 15.227, 14.282, 16.448, 14.112, 14.839, 14.542, 15.296, 14.019, 15.052, 14.677, 15.124, 14.138, 14.917, 13.928, 24.903, 19.064, 17.671, 19.782, 17.828, 17.67, 14.433, 14.983, 14.164, 14.391, 15.484, 14.7, 14.99, 13.895, 14.764, 14.242, 15.116, 14.067, 15.11, 14.153, 19.725, 14.776, 14.471, 14.595, 18.89, 26.023, 14.181, 17.057, 14.984, 14.168, 14.359, 14.594, 14.527, 14.799, 14.23, 14.848, 14.38, 15.216, 14.049, 17.437, 14.735, 15.06, 14.066, 15.822, 18.219, 14.252, 17.505, 14.242, 14.794, 14.468, 14.74, 15.739, 14.546, 14.011, 14.734, 14.616, 14.51, 15.149, 14.175, 15.472, 14.131, 15.466, 14.528, 15.036, 14.113, 20.259, 20.595, 25.921, 22.668, 21.264, 15.115, 14.377, 14.443, 14.111, 14.789, 14.191, 14.44, 15.332, 14.334, 15.324, 14.481, 15.487, 24.528, 16.227, 14.61, 14.392, 14.327, 15.219, 25.338, 17.648, 16.064, 14.211, 14.791, 14.907, 16.763, 14.3, 16.075, 14.377, 15.59, 13.989, 14.972, 14.795, 15.212, 14.156, 14.952, 14.489, 14.864, 14.411, 15.341, 14.263, 16.667, 14.283, 14.871, 14.348, 15.074, 15.239, 14.959, 14.404, 14.569, 15.865, 14.791, 14.115, 14.185, 15.708, 14.273, 14.878, 14.24, 14.511, 14.573, 22.469, 18.815, 17.773, 21.535, 15.402, 16.144, 16.312, 14.993, 14.717, 15.369, 14.305, 14.226, 15.366, 13.7, 14.32, 14.207, 14.894, 14.425, 14.965, 17.191, 16.286, 14.197, 14.628, 15.038, 17.445, 14.849, 22.882, 14.193, 14.68, 14.133, 14.681, 14.351, 29.304, 14.461, 15.391, 14.108, 27.356, 15.672, 15.604, 16.049, 17.232, 27.446, 15.166, 14.44, 15.029, 14.382, 15.082, 14.134, 14.908, 14.097, 14.928, 14.16, 14.73, 15.025, 14.179, 15.193, 15.021, 14.825, 15.681, 15.402, 14.237, 15.197, 16.174, 18.865, 18.329, 20.416, 20.521, 17.743, 14.21, 14.907, 14.643, 15.237, 15.34, 15.739, 15.284, 14.773, 14.936, 14.457, 14.867, 13.891, 14.726, 15.066, 14.176, 15.477, 14.426, 15.13, 14.003, 24.408, 19.333, 14.243, 14.986, 15.033, 14.605, 14.276, 14.516, 15.174, 14.088, 15.034, 14.098, 15.331, 14.163, 14.683, 15.56, 19.936, 25.406, 16.503, 19.137, 18.615, 18.511, 23.839, 16.086, 15.896, 16.538, 15.936, 14.354, 15.645, 14.663, 15.073, 16.77, 14.879, 15.027, 14.638, 14.702, 15.356, 14.535, 21.414, 19.999, 19.193, 33.005, 33.545, 33.874, 27.442, 32.909, 24.266, 19.829, 33.247, 29.637, 19.899, 23.464, 30.369, 36.705, 34.732, 29.349, 28.935, 31.468, 16.812, 17.206, 15.045, 13.791, 14.309, 14.84, 14.055, 15.309, 15.239, 15.772, 15.452, 15.779, 14.825, 14.41, 14.53, 15.208, 15.04, 15.626, 14.835, 16.146, 14.968, 14.472, 14.486, 14.984, 15.313, 14.31, 14.212, 15.669, 15.839, 19.155, 18.222, 18.09, 17.53, 17.876, 19.937, 20.468, 14.281, 15.545, 21.361, 14.344, 14.947, 14.13, 14.808, 14.307, 15.62, 15.47, 34.269, 16.019, 17.604, 16.382, 18.045, 25.107, 20.845, 16.491, 19.14, 22.982, 21.595, 20.695, 15.53, 13.77, 14.628, 14.717, 28.53, 14.532, 17.169],
  "Optimizer iterations": 465,
  "Optimizer params": [0.7500137236413262, 0.7499621156345794, 0.7499927817471362, 0.7499739406080649, 0.7500335857660083, 0.7499716164626672, 0.7499695423055761, 0.7499933548230325, 0.7500285576522099, 0.7499636604881783, 0.7500326262501491, 0.5000202874263555, 0.5000017309643123, 0.4999998351620079, 0.5000190264690285, 0.5000127452862535, 0.4999475378213351, 0.5000332482888797, 0.5000214113664919, 0.5000305533535325, 0.5000076759714938, 0.7500310953861636, 0.49998879663673373, 0.5000284893217758, 0.5000155139445105, 0.5000467441537163, 0.5000554673582152, 0.5000132746266771, 0.5000001194766265, 0.500000681733226, 0.5000467340355605, 0.5000677267694824, 0.4999303586095103, 0.5000836486242256, 0.5000853468620994, 0.5000115116357842, 0.500000719010894, 0.5000521973013693, 0.4999734966361484, 0.5000550829371474, 0.5000018698383136, 0.500039817576324, 0.49993801422093126, 0.5000477603325201],
  "P": 0,
  "Problem": "IC",
  "QPU": "7000000",
  "Qubits": 11,
  "Shots": 4096,
  "Size": 11,
  "Total Algorithm duration [s]": 7.662,
  "Total Classic duration [s]": 7.336147299607284,
  "Total Quantum duration [s]": 0.32585270039271563
}
