{
  "Depth": 2.0,
  "Expectation Value": -2.2741000652313232,
  "Job durations [ms]": [0.08619999789516442, 0.08895000064512715, 0.09684999895398505, 0.09940000018104911, 0.09715000123833306, 0.10370000018156134, 0.2319999948667828, 0.0835999999253545, 0.23549999968963675, 0.0882499989529606, 0.08130000060191378, 0.08185000115190633, 0.08434999836026691, 0.08370000068680383, 0.08614999751443975, 0.08920000254875049, 0.07959999857121147, 0.0885500012373086, 0.08214999979827553, 0.08964999869931489, 0.08184999751392752, 0.08344999878318049, 0.08460000026389025, 0.10750000365078449, 0.09370000043418258, 0.09404999946127646, 0.08719999823370017, 0.08985000022221357, 0.08600000001024455, 0.08879999950295314, 0.09814999793889001, 0.15240000357152894, 0.10269999984302558, 0.29504999474738725, 0.08585000250604935, 0.21984999330015853, 0.09209999916492961, 0.1006499987852294, 0.08335000165970996, 0.11074999929405749, 0.0929000016185455, 0.09489999865763821, 0.10520000068936497, 0.1479500024288427, 0.08369999704882503, 0.10615000064717606, 0.08009999874047935, 0.22175000049173832, 0.103599999420112, 0.2553000012994744, 0.25439999444643036, 0.21869999545742758, 0.08069999967119657, 0.08454999988316558, 0.09494999903836288, 0.10509999992791563, 0.0941500002227258, 0.2901499974541366, 0.08465000064461492, 0.10674999793991446, 0.07885000013629906, 0.10900000052060932, 0.08439999874099158, 0.11850000009872019, 0.10030000339611433, 0.09325000064563937, 0.2956999887828715, 0.15144999633776024, 0.10665000081644394, 0.11314999937894754, 0.10154999836231582],
  "Optimal Expectation Value": -2.2741000652313232,
  "Optimizer durations [ms]": [17.735, 21.889, 22.169, 22.313, 17.436, 18.821, 21.394, 14.507, 21.269, 20.698, 21.081, 21.157, 20.631, 21.822, 22.11, 18.647, 21.275, 15.926, 18.382, 22.052, 21.841, 21.95, 22.012, 22.379, 17.044, 21.724, 21.83, 20.468, 14.402, 21.753, 18.3, 21.372, 17.848, 21.331, 22.053, 21.383, 20.262, 22.548, 17.559, 22.012, 21.887, 22.035, 20.808, 21.127, 19.043, 19.402, 21.654, 19.193, 21.309, 14.327, 21.268, 18.359, 21.828, 14.661, 21.822, 18.784, 13.368, 14.598, 21.864, 22.087, 21.692, 19.214, 18.46, 21.42, 19.244, 20.769, 20.842, 16.004, 15.14, 20.051, 16.927],
  "Optimizer iterations": 71,
  "Optimizer params": [1.0, 0.50119019900664, 1.0, 0.5030802324885272],
  "P": 0,
  "Problem": "RH",
  "QPU": "7000000",
  "Qubits": 4,
  "Shots": 4096,
  "Size": 4,
  "Total Algorithm duration [s]": 1.41,
  "Total Classic duration [s]": 1.4016456000464677,
  "Total Quantum duration [s]": 0.008354399953532265
}
