{
  "Depth": 2.0,
  "Expectation Value": -2.2741000652313232,
  "Job durations [ms]": [0.12379999679978937, 0.08354999954462983, 0.08905000140657648, 0.0986500017461367, 0.1799000019673258, 0.10164999548578635, 0.08524999793735333, 0.09554999996908009, 0.08420000085607171, 0.0930499991227407, 0.11185000039404258, 0.09479999789618887, 0.10275000022375025, 0.15159999747993425, 0.12775000141118653, 0.08920000254875049, 0.09244999819202349, 0.1955499974428676, 0.08805000106804073, 0.09704999683890492, 0.09359999967273325, 0.08520000119460747, 0.09094999768421985, 0.08690000322530977, 0.10325000039301813, 0.2396500058239326, 0.08644999979878776, 0.09819999831961468, 0.17855000260169618, 0.10114999895449728, 0.0857499981066212, 0.07535000258940272, 0.103599999420112, 0.0978499992925208, 0.09024999963003211, 0.09529999806545675, 0.09414999658474699, 0.08755000089877285, 0.1051500003086403, 0.10354999903938733, 0.08340000204043463, 0.18790000467561185, 0.10195000140811317, 0.09109999882639386, 0.25469999673077837, 0.10519999705138616, 0.08620000153314322, 0.09365000005345792, 0.08739999975659885, 0.09045000115293078, 0.25129999994533136, 0.08665000132168643, 0.08125000022118911, 0.1079500034393277, 0.13004999709664844, 0.10320000001229346, 0.0840499997138977, 0.08270000034826808, 0.08275000072899275, 0.08254999920609407, 0.08795000030659139, 0.10230000043520704, 0.1574000016262289, 0.09480000153416768, 0.08440000237897038, 0.28514999939943664, 0.29195000752224587, 0.0870000003487803, 0.09155000225291587, 0.0992499990388751, 0.1109000040742103],
  "Optimal Expectation Value": -2.2741000652313232,
  "Optimizer durations [ms]": [12.972, 17.316, 19.594, 16.818, 21.666, 14.517, 22.127, 15.346, 18.783, 13.065, 21.291, 20.861, 13.834, 19.697, 17.214, 19.101, 14.119, 21.788, 18.348, 18.417, 19.674, 18.882, 18.016, 18.816, 22.098, 17.074, 22.088, 11.909, 17.307, 18.135, 19.802, 17.237, 19.175, 15.176, 14.535, 11.925, 19.631, 16.72, 16.019, 17.515, 18.711, 17.438, 21.897, 18.368, 17.663, 17.31, 19.475, 22.396, 20.169, 20.712, 16.548, 15.184, 17.417, 17.737, 21.419, 18.547, 21.964, 16.953, 20.61, 18.818, 17.718, 17.028, 18.565, 17.63, 18.288, 20.008, 15.1, 20.97, 17.492, 14.502, 12.95],
  "Optimizer iterations": 71,
  "Optimizer params": [1.0, 0.50119019900664, 1.0, 0.5030802324885272],
  "P": 0,
  "Problem": "RH",
  "QPU": "7000000",
  "Qubits": 4,
  "Shots": 4096,
  "Size": 4,
  "Total Algorithm duration [s]": 1.278,
  "Total Classic duration [s]": 1.2699448499858845,
  "Total Quantum duration [s]": 0.008055150014115497
}
