{
  "Depth": 2.0,
  "Expectation Value": -2.2741000652313232,
  "Job durations [ms]": [0.13159999798517674, 0.08834999971440993, 0.08729999899514951, 0.09195000166073442, 0.08460000026389025, 0.08610000077169389, 0.25549999918439426, 0.21269999342621304, 0.09649999992689118, 0.28190000739414245, 0.09394999869982712, 0.12494999828049913, 0.09580000187270343, 0.0871499978529755, 0.09340000178781338, 0.08900000102585182, 0.0989500003925059, 0.08800000068731606, 0.17655000192462467, 0.08909999814932235, 0.16834999769343995, 0.09709999721962959, 0.09035000039148144, 0.25815000844886526, 0.08254999920609407, 0.0972500019997824, 0.09710000085760839, 0.2393000031588599, 0.10085000030812807, 0.09380000119563192, 0.1527500025986228, 0.09225000030710362, 0.09449999924981967, 0.09454999963054433, 0.08650000017951243, 0.16369999502785504, 0.10719999772845767, 0.08009999874047935, 0.09344999853055924, 0.22824999905424193, 0.1438999970559962, 0.100200002634665, 0.2708999963942915, 0.09595000301487744, 0.08560000060242601, 0.09819999831961468, 0.0840499997138977, 0.10509999992791563, 0.09309999950346537, 0.27075000616605394, 0.08460000026389025, 0.08380000144825317, 0.0840499997138977, 0.1721500011626631, 0.19144999896525405, 0.10460000339662656, 0.09209999916492961, 0.14885000200592913, 0.1770999951986596, 0.24774999474175274, 0.0809499979368411, 0.09479999789618887, 0.09985000360757113, 0.2280999942740891, 0.1718500025162939, 0.08795000030659139, 0.28544999804580584, 0.09494999903836288, 0.09099999806494452, 0.3129999968223274, 0.09285000123782083],
  "Optimal Expectation Value": -2.2741000652313232,
  "Optimizer durations [ms]": [12.812, 16.724, 14.527, 18.788, 13.86, 17.455, 17.583, 19.703, 21.334, 21.441, 17.43, 17.977, 13.007, 17.999, 15.672, 18.935, 17.78, 17.428, 18.449, 17.118, 16.31, 17.744, 22.182, 13.237, 20.816, 11.985, 12.656, 20.893, 16.27, 20.435, 17.473, 21.686, 15.193, 21.007, 17.131, 18.49, 13.899, 21.661, 15.981, 21.41, 14.227, 18.021, 20.922, 15.343, 20.618, 12.524, 14.971, 16.999, 18.672, 18.014, 21.901, 15.963, 19.298, 16.889, 17.114, 19.217, 18.573, 14.045, 16.711, 21.204, 14.532, 17.841, 22.142, 17.823, 21.479, 17.978, 20.61, 16.111, 13.243, 17.497, 20.999],
  "Optimizer iterations": 71,
  "Optimizer params": [1.0, 0.50119019900664, 1.0, 0.5030802324885272],
  "P": 0,
  "Problem": "RH",
  "QPU": "7000000",
  "Qubits": 4,
  "Shots": 4096,
  "Size": 4,
  "Total Algorithm duration [s]": 1.254,
  "Total Classic duration [s]": 1.2446536500093353,
  "Total Quantum duration [s]": 0.009346349990664748
}
