{
  "Depth": 2.0,
  "Expectation Value": -2.2741000652313232,
  "Job durations [ms]": [0.1970000048459042, 0.22095000167610124, 0.09064999903785065, 0.08460000026389025, 0.0871499978529755, 0.08729999899514951, 0.0840499997138977, 0.08889999662642367, 0.24345000201719813, 0.10694999946281314, 0.10424999709357508, 0.09169999975711107, 0.09045000115293078, 0.08605000039096922, 0.08285000149044208, 0.08945000081439503, 0.24634999499539845, 0.08644999979878776, 0.18995000573340803, 0.1175500001409091, 0.09535000208416022, 0.08430000161752105, 0.10844999997061677, 0.11385000107111409, 0.12629999764612876, 0.09594999937689863, 0.09990000035031699, 0.09624999802326784, 0.10274999658577144, 0.09955000132322311, 0.0927500004763715, 0.09890000001178123, 0.10405000284663402, 0.09694999971543439, 0.11690000246744603, 0.2667500011739321, 0.08779999916441739, 0.08410000009462237, 0.09204999878420494, 0.10760000077425502, 0.09225000030710362, 0.09465000039199367, 0.09770000178832561, 0.10300000212737359, 0.2721499949984718, 0.2950999951281119, 0.0870000003487803, 0.10114999895449728, 0.08470000102533959, 0.15424999946844764, 0.2755499954218976, 0.11774999802582897, 0.08594999962951988, 0.09040000077220611, 0.09589999899617396, 0.0995499976852443, 0.09344999853055924, 0.11005000123986974, 0.0886999987415038, 0.08715000149095431, 0.10159999874304049, 0.18249999629915692, 0.08415000047534704, 0.08884999988367781, 0.0959999997576233, 0.09200000204145908, 0.08874999912222847, 0.08959999831859022, 0.07994999759830534, 0.09214999954565428, 0.10230000043520704],
  "Optimal Expectation Value": -2.2741000652313232,
  "Optimizer durations [ms]": [16.896, 13.202, 22.16, 19.09, 20.471, 19.332, 21.887, 15.664, 19.34, 17.435, 17.735, 7.5, 13.461, 19.446, 17.324, 20.79, 15.425, 22.301, 14.333, 21.365, 18.805, 17.055, 13.074, 18.418, 21.597, 17.622, 19.745, 18.128, 18.537, 18.258, 20.175, 18.14, 16.407, 18.813, 19.121, 17.152, 21.93, 17.238, 19.21, 18.1, 17.114, 16.213, 17.188, 19.696, 20.919, 18.787, 17.503, 22.473, 20.515, 19.594, 17.021, 18.734, 21.829, 21.925, 21.215, 16.921, 15.064, 19.435, 18.217, 19.475, 22.042, 20.185, 21.844, 22.09, 16.115, 17.689, 22.031, 21.62, 15.663, 22.091, 17.601],
  "Optimizer iterations": 71,
  "Optimizer params": [1.0, 0.50119019900664, 1.0, 0.5030802324885272],
  "P": 0,
  "Problem": "RH",
  "QPU": "7000000",
  "Qubits": 4,
  "Shots": 4096,
  "Size": 4,
  "Total Algorithm duration [s]": 1.321,
  "Total Classic duration [s]": 1.3127292000172892,
  "Total Quantum duration [s]": 0.008270799982710741
}
