{
  "Circuit execution durations [ms]": [58.0, 38.0, 45.0, 38.0, 42.0, 39.0, 43.0, 35.0, 39.0, 34.0, 51.0, 40.0, 86.0, 42.0, 40.0, 61.0, 34.0, 48.0, 46.0, 38.0, 47.0, 39.0, 37.0, 45.0, 40.0, 52.0, 39.0, 44.0, 38.0, 46.0, 35.0, 35.0, 38.0, 35.0, 35.0, 35.0, 40.0, 36.0, 34.0, 36.0, 36.0, 47.0, 58.0, 41.0, 49.0, 38.0, 52.0, 34.0, 63.0, 50.0, 48.0, 47.0, 37.0, 28.0, 35.0, 44.0, 40.0, 35.0, 38.0, 46.0, 39.0, 43.0, 38.0, 37.0, 34.0, 40.0, 57.0, 43.0, 46.0, 43.0, 49.0, 42.0, 40.0, 44.0, 66.0, 38.0, 54.0, 39.0, 39.0, 82.0, 35.0, 38.0, 40.0, 37.0, 38.0, 42.0, 36.0, 39.0, 34.0, 29.0, 33.0, 35.0, 36.0, 40.0, 36.0, 40.0, 39.0, 49.0, 128.0, 35.0, 41.0, 37.0, 34.0, 36.0, 35.0, 38.0, 35.0],
  "Depth": 287.0,
  "Expectation Value": -1.0,
  "Optimal Expectation Value": -1.0,
  "Optimizer durations [ms]": [6095.432, 6040.974, 5968.89, 5959.093, 6160.797, 5937.712, 6228.063, 6141.164, 5959.348, 5993.01, 6236.658, 5951.794, 6213.043, 6276.789, 5916.018, 6034.728, 5971.217, 5931.57, 5927.704, 5960.729, 6388.297, 5946.732, 6083.982, 6001.697, 6190.166, 6194.014, 6133.094, 6102.768, 5923.233, 5991.477, 5969.847, 6095.195, 6051.419, 6086.854, 5922.609, 5976.922, 6015.696, 6089.846, 6190.18, 5905.23, 5950.374, 6107.271, 6004.891, 6114.983, 5996.223, 6030.501, 5959.489, 6252.221, 5919.625, 5912.586, 5955.979, 5953.456, 6162.671, 6058.104, 5958.54, 5962.612, 5979.425, 5991.821, 6077.713, 6194.56, 6152.15, 6039.171, 6219.343, 6290.791, 5910.682, 6024.654, 5938.658, 6111.924, 6222.951, 6010.919, 5947.801, 6204.593, 5935.734, 5955.241, 6031.393, 5923.064, 5989.38, 6119.999, 5942.066, 6096.928, 6063.367, 5945.468, 6116.041, 5947.934, 6147.659, 5914.099, 5954.572, 5989.558, 5961.168, 6081.654, 5956.509, 5908.716, 6043.399, 6014.89, 5946.993, 6056.216, 6141.632, 6026.776, 6024.303, 6142.886, 5956.093, 5995.857, 5933.558, 5926.783, 6013.152, 5972.156, 6158.891],
  "Optimizer iterations": 107,
  "Optimizer params": [0.5079239948052041, 0.4704609472129827, 0.680056913387191, 0.5622736533254663, 0.8726864688310765, 0.11999215963436112],
  "P": 3,
  "Problem": "MIS",
  "QJob durations [ms]": [6004.138946533203, 5946.076393127441, 5874.2218017578125, 5865.064382553101, 6065.347671508789, 5845.726490020752, 6132.385015487671, 6041.349172592163, 5866.219282150269, 5899.094104766846, 6140.058517456055, 5860.369682312012, 6118.960857391357, 6181.184530258179, 5825.62518119812, 5936.297416687012, 5876.315116882324, 5781.660318374634, 5834.133625030518, 5866.550445556641, 6237.317085266113, 5849.947214126587, 5985.610246658325, 5853.514671325684, 6097.698211669922, 6105.010509490967, 5978.280067443848, 6012.216567993164, 5829.393148422241, 5853.553771972656, 5875.338315963745, 6003.722906112671, 5908.336400985718, 5993.813514709473, 5827.006816864014, 5825.5934715271, 5914.513826370239, 5994.1956996917725, 6049.89767074585, 5808.0198764801025, 5855.708360671997, 5960.5042934417725, 5909.586429595947, 6014.662027359009, 5852.606773376465, 5933.852195739746, 5863.985776901245, 6100.919723510742, 5825.647830963135, 5801.959276199341, 5810.868978500366, 5858.624458312988, 6064.8438930511475, 5913.582563400269, 5860.858201980591, 5869.039297103882, 5831.448078155518, 5895.358562469482, 5985.570907592773, 6050.425052642822, 6054.952621459961, 5945.058822631836, 6072.048902511597, 6198.137998580933, 5814.596891403198, 5874.443292617798, 5850.963830947876, 6018.3656215667725, 6074.51057434082, 5916.1131381988525, 5852.026462554932, 6052.199363708496, 5842.327833175659, 5860.8458042144775, 5883.9850425720215, 5828.441619873047, 5897.899150848389, 5975.788593292236, 5848.389625549316, 6004.91189956665, 5911.3476276397705, 5853.429317474365, 6020.724773406982, 5805.971384048462, 6051.125764846802, 5816.152334213257, 5809.661865234375, 5894.134998321533, 5868.464231491089, 5936.740159988403, 5860.450029373169, 5814.097166061401, 5895.0982093811035, 5920.354604721069, 5850.750207901001, 5908.403396606445, 6047.175645828247, 5931.963682174683, 5877.043962478638, 6047.285556793213, 5858.996629714966, 5900.1147747039795, 5837.865352630615, 5829.660177230835, 5922.154664993286, 5876.359462738037, 6064.351558685303],
  "QPU": "10000001",
  "Qubits": 8,
  "Queue durations [ms]": [0.0, 0.0, 0.0, 0.0, 0.0, 0.0, 0.0, 0.0, 0.0, 0.0, 0.0, 0.0, 0.0, 0.0, 0.0, 0.0, 0.0, 0.0, 0.0, 0.0, 0.0, 0.0, 0.0, 0.0, 0.0, 0.0, 0.0, 0.0, 0.0, 0.0, 0.0, 0.0, 0.0, 0.0, 0.0, 0.0, 0.0, 0.0, 0.0, 0.0, 0.0, 0.0, 0.0, 0.0, 0.0, 0.0, 0.0, 0.0, 0.0, 0.0, 0.0, 0.0, 0.0, 0.0, 0.0, 0.0, 0.0, 0.0, 0.0, 0.0, 0.0, 0.0, 0.0, 0.0, 0.0, 0.0, 0.0, 0.0, 0.0, 0.0, 0.0, 0.0, 0.0, 0.0, 0.0, 0.0, 0.0, 0.0, 0.0, 0.0, 0.0, 0.0, 0.0, 0.0, 0.0, 0.0, 0.0, 0.0, 0.0, 0.0, 0.0, 0.0, 0.0, 0.0, 0.0, 0.0, 0.0, 0.0, 0.0, 0.0, 0.0, 0.0, 0.0, 0.0, 0.0, 0.0, 0.0],
  "Shots": 4096,
  "Size": 5,
  "Total Algorithm duration [s]": 646.114,
  "Total Classic duration [s]": 11.614303745269808,
  "Total Quantum duration [s]": 634.4996962547302
}
