{
  "Circuit execution durations [ms]": [81.0, 52.0, 49.0, 73.0, 80.0, 56.0, 54.0, 57.0, 36.0, 54.0, 40.0, 45.0, 41.0, 60.0, 40.0, 94.0, 76.0, 43.0, 38.0, 49.0, 43.0, 35.0, 43.0, 66.0, 48.0, 49.0, 40.0, 44.0, 47.0, 41.0, 64.0, 38.0, 45.0, 43.0, 37.0, 37.0, 45.0, 43.0, 36.0, 42.0, 34.0, 34.0, 36.0, 36.0, 35.0, 39.0, 43.0, 44.0, 55.0, 36.0, 36.0, 53.0, 35.0, 37.0, 35.0, 40.0, 26.0, 42.0, 40.0, 46.0, 35.0, 40.0, 37.0, 36.0, 46.0, 36.0, 39.0, 42.0, 36.0, 47.0],
  "Depth": 287.0,
  "Expectation Value": -0.99951171875,
  "Optimal Expectation Value": -1.0,
  "Optimizer durations [ms]": [6008.536, 6004.769, 5953.69, 5951.325, 5932.849, 6064.696, 6054.573, 6179.524, 5954.387, 6097.223, 6108.557, 5974.72, 5948.918, 6029.586, 6040.239, 6195.359, 6032.644, 5939.786, 5927.305, 5956.941, 5967.335, 5976.368, 5963.192, 5897.113, 5992.507, 6040.298, 6128.884, 6007.672, 6074.383, 5933.886, 6001.231, 6015.59, 5985.556, 5951.547, 6005.166, 6111.733, 5938.575, 6225.482, 5958.201, 6002.54, 6084.932, 5988.235, 5907.761, 6077.968, 5913.041, 5963.255, 5988.403, 6056.848, 6132.271, 6033.017, 5918.458, 6166.232, 6162.819, 5962.691, 6031.21, 6210.232, 5987.975, 5926.66, 6001.435, 6032.825, 5961.247, 6012.569, 5949.462, 6170.853, 6006.672, 5998.206, 6122.72, 5970.507, 5952.718, 6141.777],
  "Optimizer iterations": 70,
  "Optimizer params": [0.6301623145375086, 0.9882766262369342, 0.9905743116918629, 0.4628257015075605, 0.6861704953461089, 0.9626476255307148],
  "P": 3,
  "Problem": "MIS",
  "QJob durations [ms]": [5915.823936462402, 5855.303764343262, 5857.352495193481, 5854.890823364258, 5766.584157943726, 5965.632677078247, 5961.6539478302, 6033.781290054321, 5859.622240066528, 6005.074024200439, 5954.319953918457, 5877.052307128906, 5855.71813583374, 5880.096435546875, 5941.659450531006, 6098.319530487061, 5879.275560379028, 5844.604730606079, 5832.950115203857, 5807.704925537109, 5874.2945194244385, 5871.634006500244, 5820.971727371216, 5803.485631942749, 5898.332357406616, 5892.7319049835205, 6035.98690032959, 5914.3548011779785, 5924.705505371094, 5837.723731994629, 5894.798755645752, 5866.1181926727295, 5889.280319213867, 5856.710910797119, 5857.14864730835, 6019.449949264526, 5839.982032775879, 6069.753885269165, 5864.62664604187, 5909.120082855225, 5937.602996826172, 5896.988153457642, 5815.248489379883, 5928.313732147217, 5821.405410766602, 5867.095470428467, 5838.068246841431, 5964.45369720459, 6037.389516830444, 5887.836456298828, 5825.872898101807, 6068.1469440460205, 6013.289451599121, 5872.360944747925, 5935.36901473999, 6117.262363433838, 5892.122030258179, 5827.738523483276, 5909.302711486816, 5937.263011932373, 5866.2309646606445, 5919.921875, 5855.701684951782, 6073.91881942749, 5913.215398788452, 5904.417991638184, 6025.917530059814, 5878.485441207886, 5858.038902282715, 6052.045583724976],
  "QPU": "10000001",
  "Qubits": 8,
  "Queue durations [ms]": [0.0, 0.0, 0.0, 0.0, 0.0, 0.0, 0.0, 0.0, 0.0, 0.0, 0.0, 0.0, 0.0, 0.0, 0.0, 0.0, 0.0, 0.0, 0.0, 0.0, 0.0, 0.0, 0.0, 0.0, 0.0, 0.0, 0.0, 0.0, 0.0, 0.0, 0.0, 0.0, 0.0, 0.0, 0.0, 0.0, 0.0, 0.0, 0.0, 0.0, 0.0, 0.0, 0.0, 0.0, 0.0, 0.0, 0.0, 0.0, 0.0, 0.0, 0.0, 0.0, 0.0, 0.0, 0.0, 0.0, 0.0, 0.0, 0.0, 0.0, 0.0, 0.0, 0.0, 0.0, 0.0, 0.0, 0.0, 0.0, 0.0, 0.0],
  "Shots": 4096,
  "Size": 5,
  "Total Algorithm duration [s]": 421.365,
  "Total Classic duration [s]": 7.635344734191904,
  "Total Quantum duration [s]": 413.7296552658081
}
