{
  "Circuit execution durations [ms]": [61.0, 72.0, 43.0, 45.0, 38.0, 56.0, 29.0, 49.0, 30.0, 52.0, 42.0, 53.0, 36.0, 54.0, 124.0, 57.0, 30.0, 40.0, 32.0, 58.0, 44.0, 44.0, 37.0, 78.0, 55.0, 59.0, 40.0, 32.0, 36.0, 31.0, 31.0, 55.0, 31.0, 33.0, 42.0, 40.0, 50.0, 55.0, 38.0, 29.0, 38.0, 49.0, 48.0, 49.0, 33.0, 51.0, 55.0, 56.0, 57.0, 39.0, 42.0, 38.0, 50.0, 40.0, 37.0, 40.0, 52.0, 50.0, 55.0, 46.0, 39.0, 56.0, 39.0, 41.0, 38.0, 48.0, 40.0, 58.0, 51.0, 38.0, 43.0, 43.0, 42.0, 50.0, 40.0, 50.0, 55.0, 56.0, 38.0, 55.0, 41.0, 58.0, 30.0, 58.0, 38.0],
  "Depth": 131.0,
  "Expectation Value": -8.810546875,
  "Optimal Expectation Value": -10.0,
  "Optimizer durations [ms]": [5931.556, 6035.497, 6253.137, 5971.494, 6290.287, 6292.081, 6426.304, 6361.776, 6189.792, 6250.642, 6147.106, 6368.215, 6160.824, 6281.289, 6112.544, 6244.911, 6105.041, 6314.578, 6627.945, 6240.362, 6080.57, 6104.115, 6264.12, 5863.731, 6414.679, 5985.944, 6239.673, 6034.347, 6098.162, 6362.022, 6241.284, 6455.248, 6294.98, 6042.084, 6039.986, 6299.754, 6199.079, 6156.448, 6567.631, 6264.711, 6349.12, 6150.317, 6249.778, 5857.029, 6288.679, 6278.578, 6453.917, 6426.562, 6061.934, 6063.953, 6330.108, 6299.329, 6210.493, 6270.49, 6148.687, 6364.349, 6485.374, 6406.257, 6148.299, 6236.284, 7253.088, 6078.576, 6227.298, 6250.043, 6384.563, 6325.134, 6045.484, 5994.784, 6117.721, 6441.827, 5937.454, 6170.063, 6448.996, 6057.156, 6227.303, 6242.334, 5896.95, 6691.172, 6219.811, 6305.937, 5843.52, 6157.511, 6181.911, 6334.983, 6402.821],
  "Optimizer iterations": 85,
  "Optimizer params": [0.29857653698063397, 0.3551334130544978, 0.20215133655733034, 0.180232523591187, 0.9997444854615193, 0.2127980048726903],
  "P": 3,
  "Problem": "MCP",
  "QJob durations [ms]": [5876.091957092285, 5958.679914474487, 6185.05859375, 5805.810928344727, 6201.855421066284, 6217.684745788574, 6348.266124725342, 6291.762351989746, 6116.408586502075, 6170.66764831543, 6071.886777877808, 6298.533916473389, 6026.496171951294, 6213.4668827056885, 6045.124530792236, 6163.479804992676, 6025.483131408691, 6161.570072174072, 6556.916952133179, 6158.938646316528, 6011.186122894287, 6034.8076820373535, 6113.301515579224, 5790.004253387451, 6343.835830688477, 5909.460067749023, 6172.264575958252, 5969.1362380981445, 6025.827169418335, 6294.9817180633545, 6160.13503074646, 6307.523250579834, 6220.391511917114, 5973.9320278167725, 5966.152667999268, 6219.216585159302, 6041.151762008667, 6070.7433223724365, 6486.024856567383, 6192.489385604858, 6276.79443359375, 6000.611066818237, 6169.316530227661, 5797.567844390869, 6209.645986557007, 6197.736024856567, 6377.053260803223, 6353.062391281128, 5995.4774379730225, 5991.9593334198, 6165.940523147583, 6218.86134147644, 6140.411853790283, 6163.683891296387, 6073.773622512817, 6187.556743621826, 6410.125017166138, 6343.890190124512, 6071.416616439819, 6155.496835708618, 7110.591888427734, 6003.248453140259, 6145.920515060425, 6181.542158126831, 6314.676761627197, 6245.230674743652, 5953.6237716674805, 5921.671152114868, 6036.629676818848, 6291.9371128082275, 5860.796213150024, 6109.639644622803, 6368.837356567383, 5976.707220077515, 6093.607187271118, 6165.2374267578125, 5824.055910110474, 6610.14199256897, 6144.930839538574, 6156.899452209473, 5767.591953277588, 6084.769487380981, 6114.084959030151, 6260.544300079346, 6316.083192825317],
  "QPU": "10000001",
  "Qubits": 7,
  "Queue durations [ms]": [0.0, 0.0, 0.0, 0.0, 0.0, 0.0, 0.0, 0.0, 0.0, 0.0, 0.0, 0.0, 0.0, 0.0, 0.0, 0.0, 0.0, 0.0, 0.0, 0.0, 0.0, 0.0, 0.0, 0.0, 0.0, 0.0, 0.0, 0.0, 0.0, 0.0, 0.0, 0.0, 0.0, 0.0, 0.0, 0.0, 0.0, 0.0, 0.0, 0.0, 0.0, 0.0, 0.0, 0.0, 0.0, 0.0, 0.0, 0.0, 0.0, 0.0, 0.0, 0.0, 0.0, 0.0, 0.0, 0.0, 0.0, 0.0, 0.0, 0.0, 0.0, 0.0, 0.0, 0.0, 0.0, 0.0, 0.0, 0.0, 0.0, 0.0, 0.0, 0.0, 0.0, 0.0, 0.0, 0.0, 0.0, 0.0, 0.0, 0.0, 0.0, 0.0, 0.0, 0.0, 0.0],
  "Shots": 4096,
  "Size": 7,
  "Total Algorithm duration [s]": 529.929,
  "Total Classic duration [s]": 7.372871021270726,
  "Total Quantum duration [s]": 522.5561289787292
}
