{
  "Circuit execution durations [ms]": [0.8061, 0.5053, 0.5686000000000001, 0.4782, 0.4699, 0.7466, 0.48840000000000006, 0.5645, 0.49269999999999997, 0.4845, 0.7808999999999999, 0.48040000000000005, 0.4773, 0.46900000000000003, 0.5843, 0.4875, 0.4733, 0.4743, 0.4806, 0.5598, 0.4849, 0.4708, 0.7728, 0.35790000000000005, 0.4817, 0.47209999999999996, 0.5680999999999999, 0.4794, 0.5333, 0.4844, 0.4818, 0.5736, 0.4813, 0.4803, 0.7829, 0.7564, 0.7181000000000001, 0.5625, 0.4829, 0.4773, 0.48250000000000004, 0.4815, 0.486, 0.4818, 0.47859999999999997, 0.4795, 0.4776, 0.4848, 0.4824, 0.4835, 0.48710000000000003, 0.4868, 0.4918, 0.4957, 0.481, 0.48569999999999997, 0.4726, 0.49069999999999997, 0.494, 0.4869, 0.48519999999999996, 0.47209999999999996, 0.4779, 0.5072, 0.4872, 0.483, 0.48529999999999995, 0.4704, 0.4707, 0.4803, 0.4788, 0.4697, 0.4784, 0.4781, 0.4798, 0.4796, 0.4795, 0.4769, 0.4738, 0.4767, 0.47619999999999996, 0.4778, 0.4702],
  "Depth": 59.0,
  "Expectation Value": -1.0,
  "Optimal Expectation Value": -1.0,
  "Optimizer durations [ms]": [8.397, 5.529, 6.341, 5.444, 5.093, 7.869, 5.434, 5.984, 5.535, 5.441, 8.411, 9.848, 7.249, 5.201, 6.446, 5.269, 5.517, 8.149, 5.138, 6.197, 5.384, 4.928, 8.274, 12.983, 5.196, 5.365, 5.928, 5.477, 5.813, 6.919, 5.469, 6.021, 5.455, 5.187, 8.366, 10.439, 10.103, 6.125, 5.191, 5.571, 5.238, 6.548, 5.227, 5.474, 5.041, 5.332, 5.523, 5.113, 5.446, 5.328, 5.294, 5.383, 5.375, 5.463, 5.227, 5.401, 5.294, 5.223, 5.563, 5.025, 5.357, 5.415, 5.129, 5.609, 5.232, 5.296, 5.381, 5.081, 5.306, 5.247, 5.119, 5.225, 5.355, 5.351, 5.251, 5.188, 5.492, 5.144, 5.263, 5.232, 5.209, 5.335, 5.164],
  "Optimizer iterations": 83,
  "Optimizer params": [0.648702729605197, 0.32191662070883115, 0.70504274225013, 0.4972693195135128, 0.6564123507554305, 0.9083983011837224],
  "P": 3,
  "Problem": "DSP",
  "QJob durations [ms]": [0.8061, 0.5053, 0.5686000000000001, 0.4782, 0.4699, 0.7466, 0.48840000000000006, 0.5645, 0.49269999999999997, 0.4845, 0.7808999999999999, 0.48040000000000005, 0.4773, 0.46900000000000003, 0.5843, 0.4875, 0.4733, 0.4743, 0.4806, 0.5598, 0.4849, 0.4708, 0.7728, 0.35790000000000005, 0.4817, 0.47209999999999996, 0.5680999999999999, 0.4794, 0.5333, 0.4844, 0.4818, 0.5736, 0.4813, 0.4803, 0.7829, 0.7564, 0.7181000000000001, 0.5625, 0.4829, 0.4773, 0.48250000000000004, 0.4815, 0.486, 0.4818, 0.47859999999999997, 0.4795, 0.4776, 0.4848, 0.4824, 0.4835, 0.48710000000000003, 0.4868, 0.4918, 0.4957, 0.481, 0.48569999999999997, 0.4726, 0.49069999999999997, 0.494, 0.4869, 0.48519999999999996, 0.47209999999999996, 0.4779, 0.5072, 0.4872, 0.483, 0.48529999999999995, 0.4704, 0.4707, 0.4803, 0.4788, 0.4697, 0.4784, 0.4781, 0.4798, 0.4796, 0.4795, 0.4769, 0.4738, 0.4767, 0.47619999999999996, 0.4778, 0.4702],
  "QPU": "7000000",
  "Qubits": 4,
  "Queue durations [ms]": [0.0, 0.0, 0.0, 0.0, 0.0, 0.0, 0.0, 0.0, 0.0, 0.0, 0.0, 0.0, 0.0, 0.0, 0.0, 0.0, 0.0, 0.0, 0.0, 0.0, 0.0, 0.0, 0.0, 0.0, 0.0, 0.0, 0.0, 0.0, 0.0, 0.0, 0.0, 0.0, 0.0, 0.0, 0.0, 0.0, 0.0, 0.0, 0.0, 0.0, 0.0, 0.0, 0.0, 0.0, 0.0, 0.0, 0.0, 0.0, 0.0, 0.0, 0.0, 0.0, 0.0, 0.0, 0.0, 0.0, 0.0, 0.0, 0.0, 0.0, 0.0, 0.0, 0.0, 0.0, 0.0, 0.0, 0.0, 0.0, 0.0, 0.0, 0.0, 0.0, 0.0, 0.0, 0.0, 0.0, 0.0, 0.0, 0.0, 0.0, 0.0, 0.0, 0.0],
  "Shots": 4096,
  "Size": 2,
  "Total Algorithm duration [s]": 0.491,
  "Total Classic duration [s]": 0.44852,
  "Total Quantum duration [s]": 0.04248
}
