{
  "Circuit execution durations [ms]": [0.6283000000000001, 0.46930000000000005, 0.49200000000000005, 0.4973, 0.4699, 0.4692, 0.4722, 0.4688, 0.46940000000000004, 0.4799, 0.4836, 0.48460000000000003, 0.4808, 0.4779, 0.4749, 0.4842, 0.47100000000000003, 0.5006999999999999, 0.47459999999999997, 0.49, 0.4718, 0.4744, 0.4707, 0.4744, 0.4629, 0.4864, 0.5791999999999999, 0.4743, 0.5358999999999999, 0.6658000000000001, 0.47009999999999996, 0.4764, 0.4792, 0.48519999999999996, 0.47419999999999995, 0.5714, 0.4725, 0.4712, 0.4844, 0.49700000000000005, 0.474, 0.48899999999999993, 0.4781, 0.4734, 0.5362, 0.4844, 0.4883, 0.4994, 0.4817, 0.4865, 0.48050000000000004, 0.4697, 0.47869999999999996, 0.4728, 0.4879, 0.5045, 0.48319999999999996, 0.47350000000000003, 0.6073, 0.4691],
  "Depth": 59.0,
  "Expectation Value": -1.0,
  "Optimal Expectation Value": -1.0,
  "Optimizer durations [ms]": [6.542, 5.619, 5.417, 5.542, 5.294, 5.041, 5.262, 5.176, 5.122, 5.461, 5.331, 5.132, 5.56, 5.306, 5.066, 5.348, 5.178, 5.605, 5.378, 5.414, 5.136, 5.227, 5.246, 5.028, 5.32, 5.112, 6.631, 9.895, 13.432, 7.067, 5.231, 5.311, 5.369, 5.205, 5.454, 6.269, 5.077, 5.077, 5.462, 5.487, 5.217, 5.263, 5.23, 5.087, 6.163, 5.191, 5.261, 5.43, 5.065, 5.611, 5.085, 5.284, 5.465, 5.197, 5.126, 5.631, 5.179, 5.444, 6.233, 5.247],
  "Optimizer iterations": 60,
  "Optimizer params": [0.997189108713689, 0.44070727361011, 0.987471530738691, 0.45837527505619974, 0.3650355400944779, 0.5956924321512915],
  "P": 3,
  "Problem": "DSP",
  "QJob durations [ms]": [0.6283000000000001, 0.46930000000000005, 0.49200000000000005, 0.4973, 0.4699, 0.4692, 0.4722, 0.4688, 0.46940000000000004, 0.4799, 0.4836, 0.48460000000000003, 0.4808, 0.4779, 0.4749, 0.4842, 0.47100000000000003, 0.5006999999999999, 0.47459999999999997, 0.49, 0.4718, 0.4744, 0.4707, 0.4744, 0.4629, 0.4864, 0.5791999999999999, 0.4743, 0.5358999999999999, 0.6658000000000001, 0.47009999999999996, 0.4764, 0.4792, 0.48519999999999996, 0.47419999999999995, 0.5714, 0.4725, 0.4712, 0.4844, 0.49700000000000005, 0.474, 0.48899999999999993, 0.4781, 0.4734, 0.5362, 0.4844, 0.4883, 0.4994, 0.4817, 0.4865, 0.48050000000000004, 0.4697, 0.47869999999999996, 0.4728, 0.4879, 0.5045, 0.48319999999999996, 0.47350000000000003, 0.6073, 0.4691],
  "QPU": "7000000",
  "Qubits": 4,
  "Queue durations [ms]": [0.0, 0.0, 0.0, 0.0, 0.0, 0.0, 0.0, 0.0, 0.0, 0.0, 0.0, 0.0, 0.0, 0.0, 0.0, 0.0, 0.0, 0.0, 0.0, 0.0, 0.0, 0.0, 0.0, 0.0, 0.0, 0.0, 0.0, 0.0, 0.0, 0.0, 0.0, 0.0, 0.0, 0.0, 0.0, 0.0, 0.0, 0.0, 0.0, 0.0, 0.0, 0.0, 0.0, 0.0, 0.0, 0.0, 0.0, 0.0, 0.0, 0.0, 0.0, 0.0, 0.0, 0.0, 0.0, 0.0, 0.0, 0.0, 0.0, 0.0],
  "Shots": 4096,
  "Size": 2,
  "Total Algorithm duration [s]": 0.337,
  "Total Classic duration [s]": 0.3074658,
  "Total Quantum duration [s]": 0.029534200000000007
}
