{
  "Circuit execution durations [ms]": [0.4911, 0.4785, 0.49799999999999994, 0.4647, 0.46799999999999997, 0.4944, 0.5523, 0.5904, 0.4657, 0.4922, 0.4967, 0.4848, 0.4831, 0.48050000000000004, 0.4683, 0.4789, 0.4851, 0.4726, 0.4697, 0.4856, 0.4722, 0.48119999999999996, 0.4831, 0.4975, 0.4847, 0.5569000000000001, 0.4711, 0.48879999999999996, 0.5059, 0.4719, 0.4842, 0.479, 0.4831, 0.4749, 0.4781, 0.47009999999999996, 0.51, 0.4708, 0.47590000000000005, 0.47300000000000003, 0.46890000000000004, 0.4847, 0.4729, 0.4745, 0.4788, 0.4769, 0.47659999999999997, 0.49280000000000007, 0.4737, 0.4754, 0.46959999999999996, 0.49299999999999994, 0.47550000000000003, 0.4855, 0.4793, 0.474, 0.48250000000000004, 0.479, 0.4819, 0.4845, 0.47419999999999995, 0.4743, 0.4695, 0.48529999999999995, 0.4729, 0.4733],
  "Depth": 59.0,
  "Expectation Value": -1.0,
  "Optimal Expectation Value": -1.0,
  "Optimizer durations [ms]": [5.253, 5.66, 5.155, 5.497, 4.903, 5.33, 6.413, 9.623, 5.176, 5.424, 5.306, 5.522, 5.298, 5.282, 5.272, 5.134, 5.478, 4.964, 5.499, 5.073, 5.317, 5.239, 5.376, 5.408, 5.415, 5.812, 5.505, 5.341, 5.618, 5.104, 5.13, 5.366, 5.355, 5.142, 5.114, 5.434, 5.423, 5.206, 5.365, 5.21, 5.07, 5.368, 5.197, 5.338, 5.314, 5.137, 5.219, 5.463, 5.122, 5.112, 5.52, 5.153, 5.346, 5.185, 5.588, 5.142, 5.278, 5.27, 5.157, 5.417, 5.025, 5.238, 5.277, 5.309, 5.495, 5.195],
  "Optimizer iterations": 66,
  "Optimizer params": [0.9899397184987566, 0.9904615855256571, 0.1429755732932652, 0.5116223201684127, 0.2667459156673896, 0.9708488601138249],
  "P": 3,
  "Problem": "DSP",
  "QJob durations [ms]": [0.4911, 0.4785, 0.49799999999999994, 0.4647, 0.46799999999999997, 0.4944, 0.5523, 0.5904, 0.4657, 0.4922, 0.4967, 0.4848, 0.4831, 0.48050000000000004, 0.4683, 0.4789, 0.4851, 0.4726, 0.4697, 0.4856, 0.4722, 0.48119999999999996, 0.4831, 0.4975, 0.4847, 0.5569000000000001, 0.4711, 0.48879999999999996, 0.5059, 0.4719, 0.4842, 0.479, 0.4831, 0.4749, 0.4781, 0.47009999999999996, 0.51, 0.4708, 0.47590000000000005, 0.47300000000000003, 0.46890000000000004, 0.4847, 0.4729, 0.4745, 0.4788, 0.4769, 0.47659999999999997, 0.49280000000000007, 0.4737, 0.4754, 0.46959999999999996, 0.49299999999999994, 0.47550000000000003, 0.4855, 0.4793, 0.474, 0.48250000000000004, 0.479, 0.4819, 0.4845, 0.47419999999999995, 0.4743, 0.4695, 0.48529999999999995, 0.4729, 0.4733],
  "QPU": "7000000",
  "Qubits": 4,
  "Queue durations [ms]": [0.0, 0.0, 0.0, 0.0, 0.0, 0.0, 0.0, 0.0, 0.0, 0.0, 0.0, 0.0, 0.0, 0.0, 0.0, 0.0, 0.0, 0.0, 0.0, 0.0, 0.0, 0.0, 0.0, 0.0, 0.0, 0.0, 0.0, 0.0, 0.0, 0.0, 0.0, 0.0, 0.0, 0.0, 0.0, 0.0, 0.0, 0.0, 0.0, 0.0, 0.0, 0.0, 0.0, 0.0, 0.0, 0.0, 0.0, 0.0, 0.0, 0.0, 0.0, 0.0, 0.0, 0.0, 0.0, 0.0, 0.0, 0.0, 0.0, 0.0, 0.0, 0.0, 0.0, 0.0, 0.0, 0.0],
  "Shots": 4096,
  "Size": 2,
  "Total Algorithm duration [s]": 0.355,
  "Total Classic duration [s]": 0.3230575,
  "Total Quantum duration [s]": 0.0319425
}
