{
  "Circuit execution durations [ms]": [0.4801, 0.5769, 0.4727, 0.499, 0.4827, 0.5883, 0.5325, 0.5011, 0.48109999999999997, 0.49299999999999994, 0.4813, 0.4914, 0.5091, 0.47459999999999997, 0.4688, 0.4854, 0.48260000000000003, 0.4801, 0.5153, 0.4827, 0.4718, 0.4788, 0.4777, 0.4836, 0.4684, 0.4713, 0.46900000000000003, 0.47869999999999996, 0.4836, 0.4719, 0.4761, 0.4722, 0.47140000000000004, 0.4765, 0.49019999999999997, 0.4745, 0.49870000000000003, 0.5322, 0.5038, 0.5051, 0.5398999999999999, 0.5046, 0.4893, 0.4973, 0.4734, 0.4719, 0.5008, 0.4679, 0.48500000000000004, 0.4975, 0.4768, 0.4705, 0.483, 0.4709, 0.46940000000000004, 0.4716, 0.4688, 0.4662, 0.47709999999999997, 0.48700000000000004, 0.48919999999999997, 0.4686, 0.47590000000000005, 0.4758, 0.4664, 0.4729, 0.4765, 0.48710000000000003, 0.4831, 0.4743, 0.4874, 0.4816, 0.4869, 0.46690000000000004],
  "Depth": 59.0,
  "Expectation Value": -1.0,
  "Optimal Expectation Value": -1.0,
  "Optimizer durations [ms]": [5.266, 6.409, 5.226, 5.472, 5.315, 6.28, 5.602, 5.596, 5.256, 5.341, 5.365, 5.317, 5.639, 5.246, 5.422, 5.193, 5.3, 5.337, 5.72, 5.222, 5.307, 5.313, 5.133, 5.319, 5.178, 5.397, 5.318, 4.936, 5.638, 5.171, 5.005, 5.33, 5.238, 9.784, 5.379, 5.414, 5.486, 5.831, 5.217, 5.936, 5.824, 5.438, 5.294, 5.543, 5.06, 5.414, 5.645, 5.124, 5.243, 5.57, 5.203, 5.031, 5.629, 5.205, 5.138, 5.228, 4.981, 5.335, 5.274, 5.171, 5.484, 5.184, 5.191, 5.296, 5.163, 5.37, 4.932, 5.444, 9.945, 5.35, 5.202, 5.411, 5.105, 5.355],
  "Optimizer iterations": 74,
  "Optimizer params": [0.061059176308841015, 0.9839992304093402, 0.3742294806267293, 0.49867583189948983, 0.9942674313541533, 0.9151208718628132],
  "P": 3,
  "Problem": "DSP",
  "QJob durations [ms]": [0.4801, 0.5769, 0.4727, 0.499, 0.4827, 0.5883, 0.5325, 0.5011, 0.48109999999999997, 0.49299999999999994, 0.4813, 0.4914, 0.5091, 0.47459999999999997, 0.4688, 0.4854, 0.48260000000000003, 0.4801, 0.5153, 0.4827, 0.4718, 0.4788, 0.4777, 0.4836, 0.4684, 0.4713, 0.46900000000000003, 0.47869999999999996, 0.4836, 0.4719, 0.4761, 0.4722, 0.47140000000000004, 0.4765, 0.49019999999999997, 0.4745, 0.49870000000000003, 0.5322, 0.5038, 0.5051, 0.5398999999999999, 0.5046, 0.4893, 0.4973, 0.4734, 0.4719, 0.5008, 0.4679, 0.48500000000000004, 0.4975, 0.4768, 0.4705, 0.483, 0.4709, 0.46940000000000004, 0.4716, 0.4688, 0.4662, 0.47709999999999997, 0.48700000000000004, 0.48919999999999997, 0.4686, 0.47590000000000005, 0.4758, 0.4664, 0.4729, 0.4765, 0.48710000000000003, 0.4831, 0.4743, 0.4874, 0.4816, 0.4869, 0.46690000000000004],
  "QPU": "7000000",
  "Qubits": 4,
  "Queue durations [ms]": [0.0, 0.0, 0.0, 0.0, 0.0, 0.0, 0.0, 0.0, 0.0, 0.0, 0.0, 0.0, 0.0, 0.0, 0.0, 0.0, 0.0, 0.0, 0.0, 0.0, 0.0, 0.0, 0.0, 0.0, 0.0, 0.0, 0.0, 0.0, 0.0, 0.0, 0.0, 0.0, 0.0, 0.0, 0.0, 0.0, 0.0, 0.0, 0.0, 0.0, 0.0, 0.0, 0.0, 0.0, 0.0, 0.0, 0.0, 0.0, 0.0, 0.0, 0.0, 0.0, 0.0, 0.0, 0.0, 0.0, 0.0, 0.0, 0.0, 0.0, 0.0, 0.0, 0.0, 0.0, 0.0, 0.0, 0.0, 0.0, 0.0, 0.0, 0.0, 0.0, 0.0, 0.0],
  "Shots": 4096,
  "Size": 2,
  "Total Algorithm duration [s]": 0.405,
  "Total Classic duration [s]": 0.3690043,
  "Total Quantum duration [s]": 0.035995700000000005
}
