{
  "Depth": 14.5,
  "Job durations [ms]": [21.519499830901623, 21.593499928712845, 22.17049989849329, 21.36700041592121, 21.490000188350677, 21.5640002861619, 21.388999186456203, 22.10849989205599, 21.73049934208393, 21.564499475061893, 21.764500066637993, 21.47749997675419, 21.58850058913231, 21.63300011307001, 21.55450079590082, 21.541000343859196, 22.859000600874424, 21.522999741137028, 21.574500016868114, 21.790500730276108, 21.471000276505947, 21.4474992826581, 21.401499398052692, 21.56549971550703, 21.458500064909458, 21.718500182032585, 21.64600044488907, 21.602999418973923, 22.031000815331936, 21.54500037431717, 21.441499702632427, 21.869000047445297, 21.88749983906746, 21.41250018030405, 21.76550030708313, 21.353499963879585, 24.85049981623888, 21.616999991238117, 21.434500813484192, 21.72250021249056, 21.669999696314335, 21.45749982446432, 22.08700031042099, 21.733500063419342, 21.594000048935413, 21.53200004249811, 21.719500422477722, 21.47749997675419, 22.028500214219093, 21.85450028628111, 21.807500161230564, 21.7289999127388, 21.8299999833107, 21.712000481784344, 21.46800048649311, 21.71000000089407, 24.93949979543686, 21.563000045716763, 21.654999814927578, 25.216500274837017, 21.38299960643053, 21.40749990940094, 21.36250026524067, 21.38849999755621, 21.35749999433756, 55.51899969577789, 21.689499728381634, 21.56950067728758, 21.515500731766224, 21.514500491321087, 21.757500246167183, 21.282999776303768, 21.543500013649464, 21.594000048935413, 21.398499608039856, 21.600999869406223, 21.688000299036503, 21.74600027501583, 21.39150071889162, 21.807000041007996, 21.623999811708927, 22.15700037777424, 21.70100063085556, 21.594499237835407, 21.463999524712563, 21.581999957561493, 21.37099951505661, 21.571499295532703, 21.74100000411272, 21.45150024443865, 21.428000181913376, 21.8939995393157, 21.643999963998795, 21.445500664412975, 21.58800046890974, 21.67399972677231, 21.47199958562851, 21.64500020444393, 21.616999991238117, 21.718500182032585, 21.875999867916107, 21.649000234901905, 54.869500920176506, 21.467500366270542, 21.43399976193905, 21.52199950069189, 21.710500121116638, 21.495000459253788, 21.537000313401222, 21.8299999833107, 21.693499758839607, 21.484999917447567, 21.572500467300415, 21.550999954342842, 24.41900037229061, 22.05049991607666, 21.713499911129475, 21.333000622689724, 21.569999866187572, 21.58949989825487, 22.21349999308586, 21.866999566555023, 21.592499688267708, 21.611999720335007, 21.6494994238019, 21.608000621199608, 21.663499996066093, 55.4059986025095, 21.28699980676174, 21.52600046247244, 21.611500531435013, 21.59749995917082, 21.66599966585636, 21.70250006020069, 21.697000600397587, 21.469500847160816, 21.44799940288067, 21.43999934196472, 21.45799994468689, 21.348999813199043, 21.50849997997284, 21.449999883770943, 21.696999669075012, 21.611999720335007, 21.354000084102154, 21.6650003567338, 54.92300074547529, 21.467000246047974, 21.411499939858913, 21.60349953919649, 21.53800055384636, 21.02150022983551, 21.215000189840794, 21.204999648034573, 20.836999639868736, 20.779499784111977, 21.014499478042126, 21.106000058352947, 20.998000167310238, 21.069500595331192, 21.001500077545643, 21.036500111222267, 55.89450150728226, 21.564500406384468, 21.189499646425247, 21.203499287366867, 21.26700058579445, 21.065499633550644, 21.058499813079834, 21.460000425577164, 21.776000037789345, 21.999499760568142, 21.804500371217728, 21.88050001859665, 21.61549963057041, 21.542999893426895, 55.280499160289764, 23.730000481009483, 21.415499970316887, 21.33150026202202, 21.406499668955803, 21.358000114560127, 21.767999976873398, 21.43150009214878, 21.394500508904457, 21.45999949425459, 21.374499425292015, 21.599499508738518, 21.619999781250954, 21.359499543905258, 22.267499938607216, 21.708999760448933, 21.613999269902706, 21.838000044226646, 21.429499611258507, 21.660499274730682, 21.58949989825487, 21.48700039833784, 21.62299957126379, 21.77300024777651, 21.560000255703926, 21.59749995917082, 22.304500453174114, 21.599000319838524, 21.360499784350395, 21.606499329209328, 21.78400009870529, 21.53200004249811, 21.750999614596367, 21.440000273287296, 21.37749921530485, 26.085499674081802, 21.492999978363514, 21.52749989181757, 21.49599976837635, 21.42699994146824, 21.43050078302622, 21.18450030684471, 21.119000390172005, 21.239999681711197, 21.171499975025654, 21.341999992728233, 21.23750001192093, 21.290000528097153, 21.187500096857548, 21.170499734580517, 21.378500387072563, 21.168500185012817, 21.239000372588634, 21.191000007092953, 21.16899937391281, 21.466000005602837, 21.619999781250954, 21.554499864578247, 21.67349960654974, 21.529999561607838, 21.55399974435568, 22.423500195145607, 21.93550020456314, 21.405999548733234, 21.492499858140945, 21.555500105023384, 21.377000026404858, 21.82499971240759, 54.85000088810921, 21.634500473737717, 21.451999433338642, 21.415499970316887, 21.57799992710352, 21.488499827682972, 21.962500177323818, 21.555500105023384, 21.49450033903122, 21.541500464081764, 21.529999561607838, 21.427500061690807, 22.300999611616135, 21.503999829292297, 21.359499543905258, 21.64500020444393, 21.5464998036623, 21.370500326156616, 21.893499419093132, 21.780500188469887, 21.434000693261623, 21.50700055062771, 21.566499955952168, 21.4010002091527, 21.480499766767025, 21.603500470519066, 21.413500420749187, 21.795500069856644, 21.50700055062771, 21.646499633789062, 21.951000206172466, 21.567500196397305, 21.55549917370081, 21.6669999063015, 21.486000157892704, 21.53050061315298, 21.555500105023384, 54.524500854313374, 21.497000008821487, 21.601499989628792, 21.40800002962351, 21.509000100195408, 21.508000791072845, 21.498000249266624, 21.45949937403202, 21.580499596893787, 21.43900003284216, 21.170999854803085, 21.44099958240986, 21.090500056743622, 21.14100009202957, 21.305499598383904, 21.523999981582165, 21.16100024431944, 21.123499609529972, 21.186500787734985, 21.146499551832676, 21.382500417530537, 21.380499936640263, 21.15049958229065, 21.03850059211254, 21.115499548614025, 54.64999936521053, 21.350499242544174, 21.422000601887703, 21.9485005363822, 21.446499973535538, 21.644999273121357, 21.321499720215797, 21.410000510513783, 21.474000066518784, 22.061499767005444, 21.54500037431717, 21.36700041592121, 21.422000601887703, 21.568000316619873, 21.560000255703926, 21.6279998421669, 21.57799992710352, 21.560000255703926, 21.5640002861619, 55.21449912339449, 21.60200010985136, 21.40249963849783, 21.588999778032303, 21.273499354720116, 21.111500449478626, 21.26799989491701, 21.232000552117825, 21.23399917036295, 20.955500192940235, 21.220000460743904, 21.27400040626526, 21.1175000295043, 21.231500431895256, 22.121000103652477, 21.722499281167984, 55.26250135153532, 21.452000364661217, 22.414499893784523, 21.780500188469887, 21.57799992710352, 22.69150037318468, 22.456000559031963, 21.951500326395035, 22.19450008124113, 21.53949998319149, 21.858999505639076, 21.861999295651913, 22.033999674022198, 59.217000380158424, 21.726000122725964, 21.574500016868114, 22.18100056052208, 22.10049983114004, 21.60950005054474, 21.804500371217728, 23.767000064253807, 21.983999758958817, 21.487999707460403, 21.61400020122528, 21.86099998652935, 21.774000488221645, 21.869000047445297],
  "Optimizer durations [ms]": [49.162, 49.222, 50.606, 48.987, 49.29, 49.287, 48.97, 50.574, 50.119, 49.372, 49.862, 49.178, 49.505, 49.732, 49.534, 49.278, 52.072, 49.4, 49.732, 49.997, 49.282, 49.081, 49.078, 49.471, 49.287, 49.894, 49.662, 49.578, 50.859, 49.526, 49.253, 50.161, 50.425, 49.248, 49.745, 48.977, 56.037, 49.718, 49.188, 50.283, 49.714, 49.341, 50.449, 49.794, 49.712, 49.383, 49.807, 49.348, 50.738, 50.206, 50.198, 49.896, 50.364, 50.092, 49.416, 50.076, 56.454, 49.585, 49.674, 56.989, 49.153, 49.222, 49.239, 49.34, 49.054, 117.397, 49.738, 49.853, 49.479, 49.289, 50.026, 48.97, 49.575, 49.48, 49.139, 49.462, 49.795, 50.05, 49.154, 49.863, 49.512, 50.617, 49.741, 49.524, 49.148, 49.494, 48.971, 49.451, 50.02, 49.24, 49.22, 50.553, 49.943, 49.365, 49.574, 49.733, 49.376, 49.586, 49.585, 49.742, 49.929, 49.631, 116.098, 49.192, 49.085, 49.322, 49.895, 49.464, 49.403, 50.04, 49.897, 49.413, 49.624, 49.464, 55.218, 50.662, 49.887, 49.07, 49.342, 49.357, 50.768, 50.258, 49.44, 49.48, 49.636, 49.489, 49.937, 117.353, 48.98, 49.388, 49.553, 49.454, 49.566, 50.198, 49.801, 49.364, 49.301, 49.018, 49.069, 49.027, 49.455, 49.176, 49.736, 49.627, 48.991, 49.872, 116.409, 49.385, 49.262, 49.561, 49.308, 48.194, 48.523, 48.656, 47.98, 47.733, 47.952, 48.212, 48.094, 48.179, 48.026, 48.015, 118.113, 49.796, 48.705, 48.591, 48.859, 48.494, 48.223, 49.384, 49.987, 50.241, 50.207, 49.994, 49.589, 49.463, 116.915, 53.882, 49.076, 48.822, 49.01, 48.936, 50.329, 49.251, 49.023, 49.278, 49.226, 49.532, 49.535, 48.919, 50.803, 49.91, 49.602, 50.103, 49.144, 49.625, 49.544, 49.293, 49.534, 49.838, 49.409, 49.638, 51.172, 49.885, 49.107, 49.556, 49.983, 49.426, 49.984, 49.234, 49.033, 58.748, 49.41, 49.596, 49.383, 49.105, 49.136, 48.64, 48.417, 48.809, 48.568, 48.864, 48.814, 49.164, 48.598, 48.563, 49.159, 48.61, 48.884, 48.824, 48.516, 50.042, 49.497, 49.466, 50.007, 49.37, 49.507, 51.349, 50.534, 49.108, 49.313, 49.332, 49.033, 50.32, 116.33, 49.545, 49.287, 49.181, 49.436, 49.267, 50.215, 49.478, 49.435, 49.393, 49.226, 49.131, 50.92, 49.22, 48.944, 49.554, 49.207, 49.071, 50.476, 50.061, 49.06, 49.25, 49.574, 49.142, 49.155, 49.458, 49.093, 50.04, 49.477, 49.569, 50.347, 49.352, 49.402, 49.921, 49.276, 49.419, 49.439, 115.538, 49.509, 49.458, 49.217, 49.274, 49.28, 49.573, 49.196, 49.458, 49.187, 48.673, 49.122, 48.268, 48.463, 48.796, 49.477, 48.627, 48.406, 48.663, 48.363, 49.076, 49.281, 48.528, 48.14, 48.618, 115.761, 48.837, 49.11, 50.506, 49.141, 49.66, 48.962, 49.05, 49.222, 50.471, 49.47, 49.11, 49.143, 49.269, 49.346, 49.85, 49.5, 49.467, 49.457, 117.083, 49.427, 49.014, 49.392, 48.712, 48.589, 48.811, 48.618, 48.808, 48.06, 48.672, 48.836, 48.45, 48.528, 51.092, 50.198, 117.362, 49.681, 51.756, 50.637, 49.916, 52.281, 51.814, 50.55, 51.819, 49.712, 50.73, 50.477, 51.054, 125.499, 50.42, 49.724, 51.415, 51.572, 49.738, 50.951, 54.258, 51.355, 49.396, 49.65, 50.184, 50.179, 50.334],
  "Optimizer iterations": 368,
  "Qubits": 6,
  "Total Algorithm duration [s]": 19.075,
  "Total Classic duration [s]": 10.713691491447388,
  "Total Quantum duration [s]": 8.36130850855261,
  "Expectation Value": -5.30712890625,
  "Optimal Expectation Value": -7.296229839324951,
  "Optimizer params": [0.4557852532728392, 0.7606491008490619, 0.5279969233007333, 0.8122002706403676, 0.5042742398335872, 0.48201138131285326, 0.5054312314646066, 0.4720802055239272, 0.7373950852880895, 0.4757567747811184, 0.7475767731486195, 0.7954726784730539, 0.465469850105552, 0.6459662298672426, 0.759621341678012, 0.6881971577781252, 0.6496739464541977, 0.6468794176265157, 0.527449703518014, 0.4468306437305323, 0.45377557510501143, 0.5121579026692604, 0.45939067843227466, 0.7522204747464315],
  "QPU": "9000001",
  "Problem": "IC",
  "Size": 6,
  "P": 0,
  "Shots": 4096
}