{
  "Depth": 203.0,
  "Job durations [ms]": [25125.40030479431, 25271.785020828247, 25341.097831726074, 25084.213972091675, 25244.92359161377, 25277.902126312256, 25437.74151802063, 25121.850728988647, 25074.864387512207, 25424.625635147095, 25172.6655960083, 25390.408992767334, 25145.204067230225, 25397.03679084778, 25246.505975723267, 25105.24082183838, 25365.856885910034, 25169.193744659424, 25323.91595840454, 25451.722145080566, 25475.334405899048, 25160.995483398438, 25054.378509521484, 25422.297954559326, 25259.41562652588, 25196.09522819519, 25215.176343917847, 25236.01460456848, 25328.210592269897, 25174.832582473755, 25180.848598480225, 25431.71715736389, 25165.179014205933, 25364.670991897583, 25304.972648620605, 25296.261072158813, 25112.672805786133, 25481.266975402832, 25426.162719726562, 25592.15545654297, 25324.002981185913, 24999.09543991089, 25225.290536880493, 25473.63781929016, 25177.281856536865, 25289.194107055664, 25300.133228302002, 25757.111072540283, 25263.188123703003, 25163.991689682007, 24968.08123588562, 25325.644493103027, 25206.809043884277, 25120.630741119385, 25129.091501235962, 25213.00721168518, 25180.661916732788, 25045.69673538208, 25146.405935287476, 25303.31778526306, 25147.074699401855, 25349.244117736816, 25380.08737564087, 25068.91679763794, 25253.037929534912, 25465.819120407104, 25308.526039123535, 25353.66201400757, 25287.588834762573, 25210.22057533264, 25256.128072738647, 25590.44623374939, 25208.978414535522, 24912.800550460815, 25067.342519760132, 25186.64264678955, 25135.016918182373, 25278.98597717285, 25421.074390411377, 25248.809814453125, 25436.445951461792, 25365.07487297058, 25298.426389694214, 25265.17939567566],
  "Optimizer durations [ms]": [28438.538, 28584.738, 28643.203, 28420.099, 28586.701, 28577.471, 28724.541, 28439.404, 28346.617, 28733.77, 28454.013, 28773.958, 28474.315, 28699.93, 28543.231, 28400.806, 28669.058, 28528.323, 28630.846, 28778.539, 28758.21, 28477.361, 28420.014, 28743.313, 28583.786, 28491.509, 28535.428, 28588.522, 28625.323, 28482.986, 28467.624, 28732.552, 28517.765, 28673.463, 28595.181, 28611.334, 28464.373, 28806.3, 28746.233, 28905.46, 28618.147, 28296.293, 28554.774, 28749.669, 28492.367, 28586.724, 28615.526, 29057.092, 28539.674, 28494.973, 28296.047, 28615.859, 28596.008, 28410.455, 28459.158, 28522.34, 28496.636, 28389.448, 28463.146, 28589.868, 28456.633, 28654.296, 28673.954, 28439.689, 28528.378, 28752.228, 28629.595, 28642.838, 28672.629, 28550.63, 28560.216, 28918.063, 28513.209, 28259.734, 28403.543, 28488.024, 28445.44, 28601.176, 28761.667, 28592.014, 28742.383, 28697.964, 28604.736, 28640.668],
  "Optimizer iterations": 84,
  "Qubits": 11,
  "Total Algorithm duration [s]": 2400.748,
  "Total Classic duration [s]": 278.5893820266724,
  "Total Quantum duration [s]": 2122.1586179733276,
  "Expectation Value": -12.26318359375,
  "Optimal Expectation Value": -16.0,
  "Optimizer params": [0.6658080095902735, 0.5814153326812856, 0.7427912226648337, 0.31656800858613954, 0.4714851788198147, 0.34340857159437016],
  "QPU": "6010003",
  "Problem": "MCP",
  "Size": 11,
  "P": 3,
  "Shots": 4096
}