{
  "Circuit execution durations [ms]": [57.45553970336914, 80.41822910308838, 56.347012519836426, 53.63953113555908, 58.135032653808594, 53.01845073699951, 81.98773860931396, 57.26349353790283, 78.4764289855957, 58.2195520401001, 54.827094078063965, 55.92453479766846, 81.42149448394775, 56.915283203125, 81.0539722442627, 54.189324378967285, 55.44281005859375, 55.99856376647949, 56.3429594039917, 81.48074150085449, 56.434035301208496, 80.54208755493164, 55.17935752868652, 55.88066577911377, 55.30214309692383, 82.07404613494873, 55.6563138961792, 82.25452899932861, 57.86240100860596, 55.335402488708496, 53.67147922515869, 57.921767234802246, 80.74581623077393, 55.40430545806885, 81.9920301437378, 54.22234535217285, 54.746389389038086, 55.246591567993164, 83.52255821228027, 55.478572845458984, 80.49142360687256, 54.66580390930176, 56.14125728607178, 55.527448654174805, 57.80375003814697, 79.2989730834961, 56.414246559143066, 80.82544803619385, 56.185245513916016, 54.0393590927124, 55.59241771697998, 82.20350742340088, 55.44555187225342, 80.84404468536377, 56.35952949523926, 54.96692657470703, 56.15520477294922, 54.66616153717041, 81.92873001098633, 55.57823181152344, 80.90996742248535, 56.55932426452637, 57.17349052429199, 53.62069606781006, 80.97827434539795, 54.007768630981445, 81.47060871124268, 53.31897735595703, 56.37669563293457, 54.35597896575928, 54.84116077423096, 80.28054237365723, 56.75983428955078, 81.34198188781738, 57.75284767150879, 54.19325828552246, 56.02383613586426, 80.62708377838135, 59.226393699645996, 78.17602157592773, 56.36298656463623, 56.407928466796875, 56.30362033843994, 56.027889251708984, 82.2896957397461, 56.36429786682129, 82.2591781616211, 55.49943447113037, 57.062506675720215, 57.514309883117676, 81.64310455322266, 55.426955223083496, 79.79428768157959, 54.074645042419434, 55.86659908294678, 57.872772216796875, 56.853294372558594, 81.9627046585083, 56.391119956970215, 79.2839527130127, 56.74397945404053, 57.653069496154785, 53.6191463470459, 80.23440837860107, 57.23774433135986, 82.46636390686035, 57.68871307373047, 55.79876899719238, 54.937124252319336, 57.69491195678711, 81.12061023712158, 56.87582492828369, 80.08038997650146, 58.641672134399414, 56.01334571838379, 53.87604236602783, 80.33180236816406, 55.41694164276123, 80.36518096923828, 56.644320487976074, 56.31434917449951, 57.81412124633789, 54.49783802032471, 81.51030540466309, 55.86433410644531, 82.20672607421875, 54.474830627441406, 52.985548973083496, 56.80537223815918, 82.38828182220459, 56.34033679962158, 81.55417442321777, 56.60736560821533, 54.89504337310791, 55.84585666656494, 56.508660316467285, 81.0166597366333, 53.29442024230957, 80.65783977508545, 53.116679191589355, 55.55868148803711, 55.93538284301758, 82.23223686218262, 54.787516593933105, 80.2234411239624, 57.974934577941895, 56.621432304382324, 54.03745174407959, 55.38296699523926, 83.32133293151855, 55.968523025512695, 80.8326005935669, 54.278016090393066, 55.66048622131348, 55.385708808898926, 78.60946655273438, 56.10156059265137, 78.79269123077393, 56.89084529876709, 54.79311943054199, 56.651949882507324, 54.28576469421387, 83.17887783050537, 55.040955543518066],
  "Depth": 8.5,
  "Expectation Value": -2.6806640625,
  "Optimal Expectation Value": -3.4939591884613037,
  "Optimizer durations [ms]": [646.677, 654.383, 603.349, 649.432, 606.366, 644.157, 611.21, 653.864, 602.86, 652.275, 606.485, 644.067, 657.725, 606.952, 656.971, 600.436, 653.055, 602.441, 651.174, 611.663, 653.587, 608.988, 646.282, 608.032, 642.49, 658.888, 603.743, 657.577, 605.272, 654.681, 596.401, 651.943, 607.273, 651.35, 612.473, 646.895, 607.081, 642.963, 662.591, 602.927, 655.172, 601.82, 654.991, 600.568, 651.572, 605.475, 651.867, 607.771, 649.073, 603.814, 642.135, 656.814, 604.412, 657.785, 602.718, 651.631, 600.794, 647.717, 610.11, 649.275, 611.1, 649.196, 612.205, 636.564, 656.116, 601.488, 659.025, 598.19, 653.657, 598.556, 651.413, 608.064, 653.349, 610.166, 652.059, 607.228, 644.709, 657.787, 615.178, 650.888, 604.306, 654.194, 602.375, 651.987, 612.348, 652.005, 613.15, 646.825, 611.921, 645.042, 656.223, 604.13, 654.272, 600.21, 655.161, 607.011, 650.853, 611.599, 652.774, 606.085, 650.17, 613.023, 639.298, 652.41, 606.769, 660.645, 606.075, 654.314, 598.684, 653.492, 611.095, 652.249, 607.772, 652.801, 607.018, 640.394, 655.474, 603.454, 655.938, 604.098, 654.72, 603.972, 646.759, 610.232, 650.98, 613.165, 646.43, 603.188, 643.731, 660.683, 606.113, 657.939, 604.055, 651.338, 601.504, 652.947, 610.783, 646.58, 609.538, 641.36, 606.987, 644.128, 660.281, 602.903, 654.546, 611.27, 657.663, 597.366, 647.935, 616.918, 650.939, 610.95, 643.755, 608.374, 642.443, 654.461, 604.37, 652.615, 604.818, 653.481, 602.205, 646.555, 614.567, 649.603],
  "Optimizer iterations": 164,
  "Optimizer params": [0.5008293406342659, 0.04454356863868606, 0.9236826991084957, 0.30973039849429673, 0.7996846180460866, 0.8359460472522471, 0.5554636260673957, 0.5998538636658842, 0.9590412267463094, 0.19373320267521058, 0.9570601981680229, 0.697504018114943],
  "P": 0,
  "Problem": "IC",
  "QJob durations [ms]": [75.51169395446777, 98.77336025238037, 74.2330551147461, 71.53654098510742, 76.36904716491699, 71.21527194976807, 100.33345222473145, 75.54924488067627, 96.44198417663574, 76.40135288238525, 73.07219505310059, 73.9133358001709, 99.71022605895996, 74.94330406188965, 99.07186031341553, 72.5327730178833, 73.31621646881104, 74.43058490753174, 74.50258731842041, 99.66206550598145, 74.68116283416748, 98.59097003936768, 73.33803176879883, 74.318528175354, 73.35317134857178, 100.26919841766357, 73.52292537689209, 100.16942024230957, 75.63889026641846, 73.65763187408447, 71.50757312774658, 75.8206844329834, 98.57523441314697, 73.53353500366211, 100.20828247070313, 72.4400281906128, 73.12262058258057, 73.28593730926514, 102.06234455108643, 73.59826564788818, 98.58107566833496, 72.61168956756592, 74.22196865081787, 73.72152805328369, 75.77776908874512, 97.21481800079346, 74.73337650299072, 98.9009141921997, 74.11718368530273, 72.02041149139404, 73.63927364349365, 99.9528169631958, 73.33159446716309, 99.2358922958374, 74.37753677368164, 73.02498817443848, 74.11718368530273, 72.45421409606934, 99.94494915008545, 73.21369647979736, 99.00283813476563, 74.63395595550537, 75.69968700408936, 71.46859169006348, 99.05922412872314, 72.30377197265625, 99.63071346282959, 71.46596908569336, 74.4316577911377, 72.41272926330566, 72.90852069854736, 98.61516952514648, 75.13892650604248, 99.32756423950195, 75.98388195037842, 72.63588905334473, 74.06222820281982, 99.07567501068115, 77.56292819976807, 96.33755683898926, 74.25904273986816, 74.4251012802124, 74.70130920410156, 74.30124282836914, 100.54934024810791, 74.3778944015503, 100.50475597381592, 73.55117797851563, 75.37257671356201, 75.52874088287354, 99.6544361114502, 73.5619068145752, 97.59759902954102, 72.43490219116211, 74.12910461425781, 76.30002498626709, 75.04665851593018, 100.1129150390625, 74.42092895507813, 97.63455390930176, 74.64087009429932, 76.09021663665771, 71.84839248657227, 98.3191728591919, 75.38449764251709, 100.85558891296387, 75.76203346252441, 74.18406009674072, 73.14860820770264, 75.68395137786865, 99.55739974975586, 74.78821277618408, 98.1518030166626, 76.62081718444824, 74.0208625793457, 71.87187671661377, 98.7464189529419, 73.32098484039307, 98.55854511260986, 74.82874393463135, 74.23162460327148, 76.1803388595581, 72.65746593475342, 99.67589378356934, 73.73285293579102, 100.38554668426514, 72.65317440032959, 71.35450839996338, 74.85747337341309, 100.8141040802002, 74.5002031326294, 99.62379932403564, 74.46551322937012, 72.91018962860107, 74.45263862609863, 74.77116584777832, 99.34496879577637, 71.54607772827148, 98.8314151763916, 70.97899913787842, 73.59206676483154, 73.83334636688232, 100.65019130706787, 72.94285297393799, 98.41883182525635, 76.03490352630615, 75.08111000061035, 72.20149040222168, 73.39847087860107, 101.50754451751709, 73.92597198486328, 99.00474548339844, 72.50070571899414, 74.18239116668701, 73.28474521636963, 97.16081619262695, 74.12302494049072, 97.27752208709717, 74.96929168701172, 73.0046033859253, 75.05011558532715, 72.17681407928467, 101.42064094543457, 73.11320304870605],
  "QPU": "3000010",
  "Qubits": 3,
  "Queue durations [ms]": [0.0, 0.0, 0.0, 0.0, 0.0, 0.0, 0.0, 0.0, 0.0, 0.0, 0.0, 0.0, 0.0, 0.0, 0.0, 0.0, 0.0, 0.0, 0.0, 0.0, 0.0, 0.0, 0.0, 0.0, 0.0, 0.0, 0.0, 0.0, 0.0, 0.0, 0.0, 0.0, 0.0, 0.0, 0.0, 0.0, 0.0, 0.0, 0.0, 0.0, 0.0, 0.0, 0.0, 0.0, 0.0, 0.0, 0.0, 0.0, 0.0, 0.0, 0.0, 0.0, 0.0, 0.0, 0.0, 0.0, 0.0, 0.0, 0.0, 0.0, 0.0, 0.0, 0.0, 0.0, 0.0, 0.0, 0.0, 0.0, 0.0, 0.0, 0.0, 0.0, 0.0, 0.0, 0.0, 0.0, 0.0, 0.0, 0.0, 0.0, 0.0, 0.0, 0.0, 0.0, 0.0, 0.0, 0.0, 0.0, 0.0, 0.0, 0.0, 0.0, 0.0, 0.0, 0.0, 0.0, 0.0, 0.0, 0.0, 0.0, 0.0, 0.0, 0.0, 0.0, 0.0, 0.0, 0.0, 0.0, 0.0, 0.0, 0.0, 0.0, 0.0, 0.0, 0.0, 0.0, 0.0, 0.0, 0.0, 0.0, 0.0, 0.0, 0.0, 0.0, 0.0, 0.0, 0.0, 0.0, 0.0, 0.0, 0.0, 0.0, 0.0, 0.0, 0.0, 0.0, 0.0, 0.0, 0.0, 0.0, 0.0, 0.0, 0.0, 0.0, 0.0, 0.0, 0.0, 0.0, 0.0, 0.0, 0.0, 0.0, 0.0, 0.0, 0.0, 0.0, 0.0, 0.0, 0.0, 0.0, 0.0, 0.0, 0.0, 0.0],
  "Shots": 4096,
  "Size": 3,
  "Total Algorithm duration [s]": 103.442,
  "Total Classic duration [s]": 90.0501644296646,
  "Total Quantum duration [s]": 13.391835570335388
}
