{
  "Depth": 458.0,
  "Expectation Value": -1.967529296875,
  "Job durations [ms]": [101.101, 100.81700000000001, 101.06400000000001, 100.134, 101.315, 100.693, 100.62, 100.19, 100.937, 100.93900000000001, 100.607, 100.93100000000001, 101.06099999999999, 100.785, 100.591, 176.383, 101.247, 100.667, 101.25399999999999, 101.312, 100.482, 101.074, 100.786, 100.618, 176.76, 100.753, 100.275, 100.928, 100.41, 100.85, 100.964, 101.255, 100.466, 176.85500000000002, 101.662, 100.89, 100.537, 100.478, 101.007, 100.839, 101.04599999999999, 100.674, 177.204, 101.081, 100.718, 100.854, 101.05699999999999, 100.506, 100.887, 100.84899999999999, 101.08, 176.5, 100.9, 100.508, 100.988, 100.883, 102.304, 100.537, 100.975, 100.883, 176.59900000000002, 100.615, 101.174, 101.259, 100.922, 100.549, 100.88900000000001, 100.97399999999999, 100.662, 176.916, 100.61399999999999, 100.356, 100.714, 101.138, 100.622, 101.188, 101.388, 100.976, 177.196, 100.821, 100.744, 100.65100000000001, 100.51599999999999, 100.93299999999999, 101.405, 100.453, 101.05699999999999, 177.072, 100.923, 100.578, 100.81099999999999, 100.43, 100.604, 100.96900000000001, 101.119, 100.64399999999999, 176.518, 100.9, 100.9, 101.158, 100.78, 100.71, 100.83699999999999, 100.813, 101.08399999999999, 176.49200000000002, 101.24900000000001, 100.89399999999999, 100.786, 101.027, 100.745, 100.87899999999999, 101.086, 101.184, 177.02599999999998, 101.972, 100.82900000000001, 100.884, 101.26899999999999, 100.799, 101.47399999999999, 100.99, 100.584, 177.474, 100.65100000000001, 100.601],
  "Optimal Expectation Value": -2.0,
  "Optimizer durations [ms]": [126.477, 125.934, 126.29, 125.4, 126.648, 125.997, 201.487, 125.265, 125.917, 126.18, 126.008, 126.107, 126.4, 126.408, 125.838, 201.807, 126.339, 125.926, 126.359, 126.94, 125.58, 126.237, 126.032, 125.947, 202.434, 125.821, 125.198, 126.026, 125.434, 126.035, 126.055, 126.496, 125.963, 202.281, 126.714, 125.874, 125.601, 125.59, 126.118, 126.062, 126.465, 125.912, 202.703, 126.147, 125.629, 125.874, 126.202, 125.933, 126.034, 126.237, 126.336, 201.869, 125.883, 125.619, 126.123, 125.886, 127.624, 125.73, 126.132, 126.027, 202.004, 125.652, 126.349, 126.425, 126.332, 125.76, 125.994, 126.075, 125.838, 202.771, 125.863, 125.348, 125.979, 126.394, 125.767, 126.461, 126.64, 126.501, 202.72, 125.934, 125.669, 125.76, 125.588, 126.14, 126.723, 125.817, 126.405, 202.548, 125.981, 125.506, 126.045, 125.976, 126.047, 126.299, 126.497, 125.882, 201.958, 125.904, 126.045, 126.507, 125.747, 126.057, 126.26, 126.274, 126.568, 201.939, 126.685, 126.042, 125.9, 126.301, 125.754, 126.116, 126.407, 126.339, 202.853, 127.094, 126.015, 126.044, 126.423, 126.041, 126.818, 126.265, 126.266, 203.056, 125.897, 125.749],
  "Optimizer iterations": 126,
  "Optimizer params": [0.821525408890007, 0.6756055716298758, 0.5962266530510095, 0.9995056440943405, 0.47456744565408987, 0.19906851722538602],
  "P": 3,
  "Problem": "MIS",
  "QPU": "9000001",
  "Qubits": 11,
  "Shots": 4096,
  "Size": 8,
  "Total Algorithm duration [s]": 16.954,
  "Total Classic duration [s]": 3.255953,
  "Total Quantum duration [s]": 13.698047
}
