{
  "Depth": 16.5,
  "Job durations [ms]": [24.05599970370531, 23.889999836683273, 23.9869998767972, 24.10149946808815, 23.81699997931719, 24.021499790251255, 24.40200001001358, 24.15500022470951, 24.458500556647778, 24.273999966681004, 24.317000061273575, 24.646500125527382, 25.756999850273132, 24.65649973601103, 24.0684999153018, 23.982000537216663, 23.972999304533005, 24.055500514805317, 24.02300015091896, 23.92750047147274, 56.74800090491772, 23.951999843120575, 23.954499512910843, 23.987499997019768, 24.267500266432762, 24.066000245511532, 23.838999681174755, 23.82999937981367, 23.79249967634678, 24.277999997138977, 23.773500695824623, 23.77850003540516, 24.361499585211277, 24.21050053089857, 24.907500483095646, 24.076499976217747, 23.946000263094902, 23.838000372052193, 23.8044997677207, 24.128000251948833, 24.07150063663721, 23.969500325620174, 23.962000384926796, 24.10000003874302, 24.001999758183956, 23.920499719679356, 23.87000061571598, 24.15050007402897, 23.965000174939632, 23.919000290334225, 24.103499948978424, 24.22300074249506, 23.917999118566513, 23.993000388145447, 24.01100005954504, 23.84050004184246, 23.918000049889088, 58.71699843555689, 24.2490004748106, 24.5520006865263, 24.482999928295612, 24.523000232875347, 24.652499705553055, 24.31999985128641, 24.751500226557255, 24.530500173568726, 24.31900054216385, 24.22149945050478, 23.88450037688017, 24.284000508487225, 23.932999931275845, 24.065999314188957, 23.900000378489494, 24.071999825537205, 24.072500877082348, 23.875500075519085, 24.027499370276928, 23.983499966561794, 24.01749975979328, 23.94650038331747, 23.943500593304634, 24.172499775886536, 24.248999543488026, 57.028998620808125, 24.162499234080315, 23.98450020700693, 24.09399952739477, 24.366999976336956, 24.09300021827221, 24.62800033390522, 24.48799926787615, 24.66849982738495, 24.446499533951283, 24.57449957728386, 24.25550017505884, 24.52750038355589, 24.399500340223312, 24.47500079870224, 24.716999381780624, 24.62150063365698, 24.35849979519844, 24.575999937951565, 24.58450011909008, 58.46149940043688, 23.873000405728817, 24.07300006598234, 24.397999979555607, 23.97949993610382, 27.750499546527863, 24.575499817728996, 24.509000591933727, 24.348999373614788, 24.40200001001358, 24.386500008404255, 24.477999657392502, 24.764999747276306, 24.853000417351723, 24.321499280631542, 24.469000287353992, 60.92400196939707, 24.19400028884411, 24.144000373780727, 24.137500673532486, 23.872499354183674, 24.29950051009655, 28.218000195920467, 24.489499628543854, 24.449000135064125, 24.606999941170216, 24.452999234199524, 24.43300001323223, 25.028000585734844, 57.680497877299786, 24.276000447571278, 24.552499875426292, 24.458499625325203, 28.12000084668398, 24.42600019276142, 24.622000753879547, 24.211999960243702, 24.422000162303448, 24.83799960464239, 24.3520000949502, 24.557500146329403, 24.305500090122223, 24.260499514639378, 24.36350006610155, 24.307500571012497, 24.70599953085184, 24.75500013679266, 24.233000352978706, 24.249999783933163, 24.769500829279423, 24.5364997535944, 24.317000061273575, 24.424999952316284, 24.480000138282776, 24.170000106096268, 24.587499909102917, 25.049500167369843, 24.36850033700466, 24.708500131964684, 24.555999785661697, 24.333499372005463, 24.522999301552773, 24.48799926787615, 24.858499877154827, 24.542500264942646, 24.393999949097633, 24.13499914109707, 24.518500082194805, 28.543000109493732, 24.121000431478024, 23.865999653935432, 23.975000716745853, 24.0489998832345, 23.993000388145447, 24.002999998629093, 23.887000046670437, 23.880000226199627, 24.019000120460987, 23.984499275684357, 23.911000229418278, 24.12350010126829, 23.98550044745207, 23.999500088393688, 23.80399964749813, 23.881500586867332, 24.086499586701393, 24.298000149428844, 24.209500290453434, 24.16899986565113, 24.29450023919344, 24.24450032413006, 24.373000487685204, 24.596999399363995, 24.422500282526016, 24.53599963337183, 24.3344996124506, 24.276000447571278, 24.42099992185831, 58.41649975627661, 24.221500381827354, 24.379000067710876, 24.518500082194805, 24.402499198913574, 27.2019999101758, 24.721999652683735, 24.47349950671196, 24.776999838650227, 24.293499998748302, 25.082499720156193, 24.272500537335873, 24.486499838531017, 24.381999857723713, 24.884999729692936, 24.44949932396412, 24.357999674975872, 24.757000617682934, 24.348000064492226, 24.48499947786331, 24.24400020390749, 24.362499825656414, 24.435500614345074, 24.64149985462427, 24.394500069320202, 24.416999891400337, 24.586999788880348, 24.24599975347519, 24.703499861061573, 24.722999893128872, 24.474499747157097, 24.52000044286251, 24.535000324249268, 24.547500535845757, 24.32400081306696, 24.632500484585762, 24.83650017529726, 57.09500145167112, 24.550999514758587, 24.728000164031982, 23.884999565780163, 24.041499942541122, 23.933500051498413, 23.970499634742737, 24.046500213444233, 25.125499814748764, 23.862999863922596, 23.926500231027603, 24.153999984264374, 24.205000139772892, 24.196499958634377, 23.968500085175037, 24.33550078421831, 23.865999653935432, 24.089500308036804, 23.855499923229218, 24.032999761402607, 24.06799979507923, 24.24350008368492, 23.932999931275845, 24.064499884843826, 24.12099950015545, 23.874999955296516, 60.09399984031916, 23.932000622153282, 23.97949993610382, 23.950000293552876, 24.18299950659275, 23.99849984794855, 24.271500296890736, 24.140000343322754, 23.951000533998013, 24.041499942541122, 24.038000032305717, 24.637999944388866, 24.299999698996544, 24.66600015759468, 24.72400013357401, 24.706500582396984, 25.054000318050385, 24.702000431716442, 24.46599956601858, 24.290000088512897, 57.774501852691174, 24.265000596642494, 24.62150063365698, 25.313999503850937, 24.546999484300613, 24.184999987483025, 24.267000146210194, 24.343499913811684, 24.596999399363995, 24.286000058054924, 24.36350006610155, 24.420499801635742, 24.959499947726727, 24.258500896394253, 24.366499856114388, 24.68550018966198, 57.522498071193695, 24.519500322639942, 24.524000473320484, 24.783500470221043, 24.561000056564808, 24.335499852895737, 24.45449959486723, 24.492500349879265, 24.796999990940094, 24.49049986898899, 24.230999872088432, 24.49049986898899, 24.54450074583292, 24.29900038987398, 57.550000958144665, 24.341500364243984, 24.16899986565113, 24.461500346660614, 24.122499860823154, 24.028499610722065, 24.449500255286694, 24.02800042182207, 24.140000343322754, 23.900000378489494, 23.913499899208546, 24.0860003978014, 23.71850050985813, 23.889999836683273, 23.717000149190426, 24.094500578939915, 23.85499980300665, 23.948500864207745, 24.701500311493874, 24.668999947607517, 24.442500434815884, 24.71849974244833, 24.542500264942646, 24.393499828875065, 24.839499965310097, 24.30600021034479, 24.090000428259373, 24.58599954843521, 24.354000575840473, 24.518500082194805, 24.392499588429928, 24.351000785827637, 24.350500665605068, 24.294999428093433, 24.989500641822815, 24.172499775886536, 24.559499695897102, 24.34149943292141, 24.50750023126602, 24.310999549925327, 24.222999811172485, 24.28349945694208, 24.874999187886715, 24.36400018632412, 24.080000817775726, 24.42849986255169, 24.613000452518463, 27.78499945998192, 24.380000308156013, 24.391000159084797, 24.419499561190605, 24.39300063997507, 24.364500306546688, 24.385999888181686, 24.66600015759468, 24.633499793708324, 24.389500729739666, 24.67900048941374, 24.244999513030052, 24.577999487519264, 24.691499769687653, 24.385000579059124, 24.1714995354414, 24.61350057274103, 24.627000093460083, 24.4974996894598, 24.546499364078045, 24.650000035762787, 24.44350067526102, 57.76300001889467, 24.145999923348427, 24.24749918282032, 24.69100058078766, 24.30600021034479, 24.411999620497227, 24.57199990749359, 24.896999821066856, 24.331499822437763, 24.397999979555607, 24.29950051009655, 24.270000867545605, 24.603499099612236, 23.93599972128868, 23.780000396072865, 23.974000476300716, 24.062500335276127, 24.052000604569912, 23.919999599456787, 23.9850003272295, 23.953000083565712, 23.942500352859497, 23.947500623762608],
  "Optimizer durations [ms]": [55.695, 55.153, 55.448, 55.543, 55.019, 55.523, 56.076, 55.738, 56.401, 56.256, 55.975, 56.929, 59.07, 57.064, 55.562, 55.297, 55.28, 55.547, 55.744, 55.404, 121.164, 55.389, 55.233, 55.21, 55.886, 55.813, 55.131, 55.023, 54.954, 56.209, 55.368, 55.189, 56.272, 55.977, 57.482, 55.884, 55.39, 55.142, 54.993, 55.749, 55.588, 55.35, 55.541, 56.051, 55.426, 55.328, 55.146, 56.264, 55.674, 55.467, 55.659, 55.962, 55.414, 55.74, 55.529, 55.15, 55.262, 125.26, 55.93, 56.613, 56.477, 56.621, 56.74, 56.225, 57.584, 56.925, 56.353, 55.88, 55.098, 56.197, 55.555, 55.661, 55.427, 56.112, 55.782, 55.16, 55.519, 55.442, 55.577, 55.357, 55.201, 55.998, 56.433, 121.921, 55.586, 55.435, 56.193, 56.333, 55.596, 57.044, 56.587, 56.972, 56.575, 56.679, 56.067, 56.688, 56.352, 56.505, 57.041, 57.43, 56.451, 56.697, 56.723, 124.936, 55.07, 55.74, 56.23, 55.461, 62.922, 56.664, 56.574, 56.41, 56.496, 56.09, 56.461, 57.445, 57.488, 56.319, 56.488, 129.712, 55.978, 55.746, 55.708, 55.492, 56.196, 63.907, 56.502, 56.468, 56.769, 56.559, 56.284, 57.78, 123.63, 56.319, 56.599, 56.353, 64.048, 56.409, 56.849, 55.966, 56.586, 57.541, 56.323, 56.619, 56.25, 56.113, 56.223, 56.201, 57.352, 57.256, 56.049, 56.067, 56.963, 56.803, 56.202, 56.299, 56.515, 55.91, 56.698, 57.595, 56.177, 56.82, 56.773, 56.234, 56.585, 57.339, 57.713, 57.042, 56.465, 55.785, 56.562, 64.853, 55.878, 55.16, 55.601, 55.886, 55.345, 55.501, 55.31, 55.379, 55.551, 55.342, 55.35, 55.848, 55.915, 55.507, 55.107, 55.211, 55.548, 56.303, 56.012, 55.895, 55.959, 56.055, 56.255, 56.759, 56.285, 56.57, 56.356, 56.04, 56.371, 124.428, 56.119, 56.162, 56.577, 56.268, 62.303, 57.056, 56.469, 56.921, 56.134, 57.629, 56.004, 56.475, 56.484, 57.24, 56.437, 56.34, 57.417, 56.645, 56.61, 55.988, 56.175, 56.463, 56.914, 56.377, 56.325, 56.752, 56.053, 57.046, 56.917, 56.393, 56.962, 56.521, 56.629, 56.153, 57.371, 57.858, 122.204, 56.726, 57.201, 55.204, 55.621, 55.362, 55.472, 55.491, 57.592, 55.131, 55.326, 55.629, 55.827, 55.837, 55.495, 56.619, 55.465, 55.722, 55.201, 55.459, 55.652, 56.198, 55.631, 55.635, 56.057, 55.42, 127.659, 55.454, 55.442, 55.259, 56.062, 55.446, 56.449, 55.806, 55.476, 55.527, 55.575, 57.208, 56.091, 56.821, 57.198, 56.968, 57.525, 56.81, 56.52, 56.244, 123.167, 56.093, 56.725, 58.755, 56.849, 55.751, 55.892, 56.45, 57.722, 55.978, 56.173, 56.263, 57.609, 56.309, 56.357, 56.85, 122.58, 56.599, 56.562, 57.355, 56.968, 56.286, 56.431, 56.547, 57.363, 56.562, 55.937, 56.398, 56.536, 56.139, 123.07, 56.4, 55.967, 56.444, 55.634, 55.465, 56.754, 55.626, 55.871, 55.218, 55.325, 55.686, 54.808, 55.187, 55.151, 55.769, 55.222, 55.353, 56.931, 56.846, 56.466, 57.019, 56.676, 56.301, 57.585, 56.385, 55.826, 56.816, 56.288, 56.728, 56.487, 56.348, 56.255, 56.228, 57.63, 55.868, 56.623, 56.334, 56.573, 56.319, 56.006, 56.25, 57.873, 56.333, 55.776, 56.425, 56.961, 63.332, 56.228, 56.26, 56.393, 56.246, 56.319, 56.388, 56.952, 57.003, 56.407, 57.002, 56.035, 57.127, 57.352, 56.425, 55.738, 56.698, 57.083, 56.945, 56.715, 56.924, 56.552, 123.289, 55.753, 56.007, 56.861, 56.18, 56.365, 56.549, 57.915, 56.618, 56.275, 56.123, 56.123, 57.444, 55.579, 54.911, 55.514, 55.584, 55.499, 55.514, 55.366, 55.29, 55.339, 55.248],
  "Optimizer iterations": 406,
  "Qubits": 7,
  "Total Algorithm duration [s]": 23.744,
  "Total Classic duration [s]": 13.413243483804166,
  "Total Quantum duration [s]": 10.330756516195834,
  "Expectation Value": -6.97705078125,
  "Optimal Expectation Value": -8.5667724609375,
  "Optimizer params": [0.4556021177279439, 0.7990994453527017, 0.626606176498399, 0.4673777349798599, 0.5960039846824714, 0.5478371113424197, 0.39292576845066646, 0.41687254773376975, 0.6539623928593855, 0.7856435235287662, 0.6773266398785958, 0.8305068850529679, 0.8117278877337615, 0.487683443349751, 0.5231416921956776, 0.6432300240332599, 0.7695864583424747, 0.7646663779708865, 0.7280660150707112, 0.3694050982865289, 0.45589664439753913, 0.5907047069608521, 0.31057270359092987, 0.43720594483022635, 0.5112669080946125, 0.5030552286396892, 0.45692211332917676, 0.3159564005251862],
  "QPU": "9000001",
  "Problem": "IC",
  "Size": 7,
  "P": 0,
  "Shots": 4096
}