{
  "Depth": 287.0,
  "Expectation Value": -1.0,
  "Job durations [ms]": [1.7895, 1.7577, 1.7889, 1.8081, 1.8631, 1.813, 1.8243, 1.8042, 1.8396000000000001, 1.7991000000000001, 1.7949000000000002, 1.8004, 1.8052000000000001, 1.815, 1.8034, 1.8016, 1.8197, 1.8713, 1.8276, 1.7933000000000001, 1.8201999999999998, 1.8409, 1.8061, 1.823, 1.7931, 1.8317999999999999, 1.8074000000000001, 1.7917, 1.8233, 1.8301999999999998, 1.8954, 1.7885, 1.8602, 1.7879, 1.8358999999999999, 1.8234, 1.8053, 1.8014999999999999, 1.8027, 1.8055, 1.8159, 1.8061, 1.8159999999999998, 1.8725, 2.2622, 2.1694, 1.8012, 1.7975999999999999, 1.7857, 1.8307, 1.7992, 1.8010000000000002, 1.8158, 1.8782, 1.8089, 1.7885, 1.7750000000000001, 1.8105, 1.8491, 1.7995999999999999, 1.7973, 1.8777, 1.8045, 1.8563, 1.7753999999999999, 1.7985, 1.8301999999999998, 1.8034, 1.8172, 1.8415000000000001, 1.849, 1.8178, 1.8328000000000002, 1.7915999999999999, 1.815, 1.7953000000000001, 1.8187, 1.8051, 1.8226, 1.7909],
  "Optimal Expectation Value": -1.0,
  "Optimizer durations [ms]": [18.392, 18.105, 18.422, 18.558, 19.191, 18.732, 18.54, 18.668, 21.62, 18.287, 18.794, 18.356, 18.508, 18.798, 18.414, 18.554, 18.811, 19.316, 18.89, 18.473, 18.408, 18.95, 18.495, 18.612, 18.642, 18.731, 18.655, 18.454, 18.575, 18.982, 19.538, 18.129, 19.454, 18.121, 18.736, 19.045, 20.353, 18.32, 18.661, 18.426, 22.589, 18.634, 18.809, 19.258, 25.503, 22.381, 18.649, 18.531, 18.276, 18.83, 18.197, 18.934, 18.719, 19.367, 18.296, 18.532, 18.282, 18.478, 19.203, 18.579, 18.298, 21.16, 18.577, 18.925, 18.639, 18.57, 18.71, 18.587, 18.654, 18.933, 19.043, 18.679, 18.765, 18.532, 18.743, 18.31, 18.651, 18.739, 18.627, 18.734],
  "Optimizer iterations": 80,
  "Optimizer params": [0.778530970818824, 0.8079859859075853, 0.07550461679226345, 0.0028351984889212274, 0.14120809393935368, 0.0006876710301509757],
  "P": 3,
  "Problem": "MIS",
  "QPU": "7000000",
  "Qubits": 8,
  "Shots": 4096,
  "Size": 5,
  "Total Algorithm duration [s]": 1.514,
  "Total Classic duration [s]": 1.3679822,
  "Total Quantum duration [s]": 0.14601780000000003
}
