{
  "Depth": 682.0,
  "Expectation Value": -4.049045562744141,
  "Job durations [ms]": [4.4465, 4.489199999999999, 4.4801, 4.419099999999999, 4.485399999999999, 4.3561, 4.3816999999999995, 4.4795, 4.4573, 4.4538, 4.4269, 4.443199999999999, 4.4287, 4.6246, 4.6445, 4.436599999999999, 4.4587, 4.4154, 4.4897, 4.434699999999999, 4.4368, 4.5734, 4.5888, 4.6112, 4.4072, 4.4381, 4.6764, 4.3738, 4.4559, 4.401000000000001, 4.4364, 4.5313, 4.610600000000001, 4.444100000000001, 4.5183, 4.413, 4.4381, 4.460000000000001, 4.647, 4.4818, 4.4165, 4.3987, 4.470400000000001, 4.441, 4.405, 4.4306, 4.6356, 4.3465, 4.4878, 4.4006, 4.4543, 4.4371, 4.3987, 4.3812, 4.4279, 4.438, 4.4801, 4.385, 4.4204, 4.473000000000001, 4.3394, 4.3904, 4.3964, 4.5036, 4.449599999999999, 4.3704, 4.4231, 4.449, 4.409800000000001, 4.4181, 4.4791, 4.4211, 4.404100000000001, 4.4361, 4.4438, 4.4495000000000005, 4.6267000000000005, 4.405, 4.445099999999999, 4.4111, 4.3945, 4.5375, 4.3466, 4.4187, 4.4761999999999995, 4.4575, 4.5353, 4.4985, 4.5122, 4.3917, 4.4757, 4.4266000000000005, 4.4846, 4.4487, 4.4326, 4.449, 4.414000000000001, 4.4658, 4.4413, 4.4542, 4.3931, 4.4032, 4.5077, 4.4657],
  "Optimal Expectation Value": -7.0,
  "Optimizer durations [ms]": [54.959, 55.423, 55.431, 54.762, 55.295, 53.953, 54.478, 55.329, 55.116, 54.959, 54.658, 54.93, 54.785, 51.785, 52.048, 54.861, 55.131, 54.729, 55.216, 54.837, 54.875, 56.395, 51.679, 51.733, 54.638, 54.814, 52.312, 54.208, 54.972, 54.292, 55.026, 55.868, 51.735, 54.748, 55.566, 54.64, 54.767, 54.991, 52.135, 55.08, 54.738, 54.55, 55.348, 54.837, 54.608, 54.823, 51.978, 53.918, 55.278, 54.401, 54.998, 54.916, 54.274, 54.416, 54.504, 55.024, 55.415, 54.659, 54.507, 55.159, 53.907, 54.342, 54.572, 55.561, 54.821, 54.337, 54.729, 55.034, 54.61, 54.871, 55.294, 54.542, 54.39, 54.802, 55.044, 54.9, 51.941, 54.524, 55.009, 54.567, 54.531, 55.623, 53.99, 54.746, 55.189, 54.905, 55.598, 55.229, 55.736, 54.476, 55.277, 54.835, 55.246, 55.02, 54.845, 54.989, 54.452, 55.179, 55.056, 55.114, 54.579, 54.572, 55.725, 54.978],
  "Optimizer iterations": 104,
  "Optimizer params": [0.9682465539598281, 0.4913920956415902, 0.9528555675831187, 0.7852443125255266, 0.6655724826821823, 0.7585732936515074],
  "P": 3,
  "Problem": "DSP",
  "QPU": "7000000",
  "Qubits": 14,
  "Shots": 4096,
  "Size": 9,
  "Total Algorithm duration [s]": 5.681,
  "Total Classic duration [s]": 5.2175744,
  "Total Quantum duration [s]": 0.46342560000000016
}
