{
  "Depth": 682.0,
  "Expectation Value": -4.387588977813721,
  "Job durations [ms]": [4.4754, 4.3886, 4.3891, 4.4346000000000005, 4.4383, 4.404599999999999, 4.412100000000001, 4.453399999999999, 4.3901, 4.4484, 4.5889, 4.4616999999999996, 4.434900000000001, 4.4412, 4.293, 4.3799, 4.4656, 4.4483, 4.453, 4.409, 4.6283, 4.399, 4.4510000000000005, 4.3949, 4.4359, 4.3974, 4.3781, 4.3844, 4.4466, 4.4017, 4.534599999999999, 4.3671999999999995, 4.3979, 4.4049, 4.4642, 4.3875, 4.6045, 4.3783, 4.366700000000001, 4.3886, 4.4117, 4.4995, 4.479699999999999, 4.4415000000000004, 4.3887, 4.442, 4.5657, 4.56, 4.4694, 4.425, 4.4166, 4.3767, 4.412, 4.5778, 4.5653, 4.3744, 4.4754, 4.3915999999999995, 4.596, 4.5307, 4.5040000000000004, 4.3476, 4.382099999999999, 4.431, 4.4261, 4.4089, 4.4003000000000005, 4.4742999999999995, 4.4436, 4.3925, 4.398, 4.2914, 4.487299999999999, 4.4068, 4.4727, 4.4139, 4.406700000000001, 4.4471, 4.4247000000000005, 4.398, 4.397200000000001, 4.4769, 4.5632, 4.4293, 4.4045000000000005, 4.4586, 4.4532, 4.4315999999999995, 4.4064000000000005, 4.5008, 4.6071, 4.408399999999999, 4.4024, 4.5965, 4.4443, 4.5629, 4.6089, 4.3968, 4.44, 4.4285000000000005, 4.3652, 4.6159, 4.4417, 4.5705, 4.653, 4.3905, 4.434900000000001, 4.4578999999999995, 4.4392, 4.404, 4.433000000000001],
  "Optimal Expectation Value": -7.0,
  "Optimizer durations [ms]": [55.13, 54.503, 54.365, 54.913, 54.896, 54.62, 54.742, 55.152, 54.595, 54.91, 51.719, 55.186, 54.718, 54.915, 53.577, 54.273, 55.193, 55.105, 55.246, 54.6, 52.006, 54.514, 54.934, 54.478, 54.795, 54.379, 54.452, 54.146, 54.944, 54.431, 55.979, 54.117, 54.661, 54.449, 55.229, 54.398, 51.967, 54.325, 54.396, 54.588, 54.687, 55.679, 55.387, 54.827, 54.407, 55.025, 51.46, 51.076, 55.187, 54.804, 54.699, 54.387, 54.63, 51.399, 51.164, 54.189, 55.368, 54.259, 51.789, 50.973, 55.641, 54.172, 54.113, 55.015, 54.748, 54.743, 54.633, 55.477, 55.078, 54.53, 54.418, 53.656, 55.605, 54.699, 55.211, 54.784, 54.778, 54.753, 54.743, 54.349, 54.497, 55.351, 51.518, 54.766, 54.722, 55.266, 55.127, 54.716, 54.61, 55.636, 51.791, 54.602, 54.54, 51.7, 55.0, 51.52, 51.861, 54.624, 54.777, 54.862, 54.309, 52.043, 54.951, 51.481, 52.416, 54.394, 54.94, 55.132, 55.033, 54.762, 54.978],
  "Optimizer iterations": 111,
  "Optimizer params": [0.3709957158872876, 0.12262244981730276, 0.10133467316838586, 0.09274544308343353, 0.9959882237052756, 1.0],
  "P": 3,
  "Problem": "DSP",
  "QPU": "7000000",
  "Qubits": 14,
  "Shots": 4096,
  "Size": 9,
  "Total Algorithm duration [s]": 6.026,
  "Total Classic duration [s]": 5.532398199999999,
  "Total Quantum duration [s]": 0.49360180000000015
}
