{
  "Depth": 682.0,
  "Expectation Value": -3.9061033725738525,
  "Job durations [ms]": [4.385, 4.3938, 4.3923, 4.3463, 4.4294, 4.6529, 4.6486, 4.4517999999999995, 4.4425, 4.4140999999999995, 4.4123, 4.4146, 4.4545, 4.4163, 4.471, 4.4673, 4.4481, 4.4681, 4.4140999999999995, 4.4227, 4.4466, 4.3678, 4.3619, 4.439, 4.4352, 4.4151, 4.3911, 4.4202, 4.6966, 4.6146, 4.4637, 4.4453000000000005, 4.3901, 4.4504, 4.4173, 4.3628, 4.3764, 4.4333, 4.4277, 4.4540999999999995, 4.4057, 4.4227, 4.3998, 4.4117999999999995, 4.5390999999999995, 4.422599999999999, 4.3679, 4.3895, 4.4168, 4.3706, 4.4735000000000005, 4.5792, 4.6053, 4.3375, 4.4551, 4.4597999999999995, 4.5887, 4.3837, 4.418, 4.4481, 4.4221, 4.4777000000000005, 4.3812, 4.4465, 4.415, 4.4326, 4.4222, 4.4709, 4.5269, 4.408600000000001, 4.4497, 4.351, 4.497199999999999, 4.4095, 4.3027, 4.4256, 4.428, 4.4329, 4.6255999999999995, 4.3968, 4.410500000000001, 4.6258, 4.612, 4.4674, 4.4473, 4.4241, 4.7115, 4.4421, 4.406700000000001, 4.417, 4.4268, 4.4064000000000005, 4.3877999999999995, 4.4155, 4.482, 4.6121, 4.4106, 4.3981, 4.4272],
  "Optimal Expectation Value": -7.0,
  "Optimizer durations [ms]": [54.493, 54.229, 54.565, 53.986, 54.742, 52.228, 52.108, 55.041, 55.006, 54.719, 54.859, 54.531, 55.082, 54.875, 55.265, 55.151, 55.063, 55.3, 54.745, 54.8, 54.931, 54.352, 53.977, 54.795, 54.886, 54.791, 54.532, 54.816, 52.479, 51.878, 55.373, 55.114, 54.431, 55.086, 54.785, 54.337, 54.48, 55.077, 54.635, 54.982, 54.767, 54.763, 54.683, 54.701, 51.172, 54.767, 54.3, 54.621, 54.662, 54.283, 55.156, 51.524, 51.653, 54.106, 55.111, 55.252, 51.491, 54.51, 54.686, 55.122, 54.719, 55.458, 54.615, 55.063, 54.96, 55.064, 54.629, 55.315, 55.933, 54.776, 55.058, 53.791, 55.512, 54.401, 53.469, 54.889, 54.993, 54.889, 51.916, 54.569, 54.722, 52.146, 51.887, 55.223, 55.265, 54.923, 52.855, 54.804, 54.702, 54.859, 54.98, 54.608, 54.588, 54.596, 55.284, 51.625, 54.788, 54.606, 54.845],
  "Optimizer iterations": 99,
  "Optimizer params": [0.13971374691653646, 0.07605795643891253, 0.824713037856699, 0.47136503556537646, 0.31829021819232023, 0.8427342011054106],
  "P": 3,
  "Problem": "DSP",
  "QPU": "7000000",
  "Qubits": 14,
  "Shots": 4096,
  "Size": 9,
  "Total Algorithm duration [s]": 5.387,
  "Total Classic duration [s]": 4.9466961,
  "Total Quantum duration [s]": 0.4403039000000001
}
