{
  "Depth": 2.0,
  "Expectation Value": -5.893400192260742,
  "Job durations [ms]": [0.14620000001741573, 0.15995000285329297, 0.1571000029798597, 0.2996499970322475, 0.13640000179293565, 0.14234999980544671, 0.12985000284970738, 0.12865000098827295, 0.12710000373772345, 0.3372999999555759, 0.1428500036126934, 0.2015999998548068, 0.14519999967887998, 0.12775000141118653, 0.14030000238562934, 0.13404999845079146, 0.13919999764766544, 0.23630000214325264, 0.265349997789599, 0.1380500034429133, 0.13814999692840502, 0.1412999990861863, 0.24905000464059412, 0.1612999985809438, 0.33734999306034297, 0.1569500018376857, 0.25689999893074855, 0.1355499989585951, 0.12504999904194847, 0.1438999970559962, 0.29320000612642616, 0.28530000417958945, 0.15364999853773043, 0.15809999604243785, 0.26449999859323725, 0.3024500038009137, 0.1421999950252939, 0.17219999426743016, 0.23739999596728012, 0.1295000001846347, 0.21449999621836469, 0.12474999675760046, 0.13464999574352987, 0.14540000120177865, 0.13535000107367523, 0.1358500012429431, 0.34399998548906296, 0.11330000052112155, 0.13079999916953966, 0.13829999807057902, 0.28035000286763534, 0.17534999642521143, 0.12874999811174348, 0.13580000086221844, 0.13360000230022706, 0.13269999908516183, 0.125299997307593, 0.15374999566120096, 0.3444500107434578, 0.13899999976274557, 0.18485000327927992, 0.22419999731937423, 0.276550003036391, 0.1584999990882352, 0.23615000100107864, 0.1396000006934628, 0.1336999994236976, 0.1426999988325406, 0.12775000504916534, 0.16694999794708565, 0.29829999402863905, 0.14335000014398247, 0.13635000141221099, 0.13514999591279775, 0.13860000035492703, 0.13655000293510966, 0.14289999671746045, 0.13535000107367523, 0.1265500031877309, 0.1432999997632578, 0.3194500022800639, 0.19139999494655058, 0.24065000616246834, 0.1406499977747444, 0.14989999908721074, 0.1357000037387479, 0.1380499998049345, 0.16649999452056363, 0.30705000972375274, 0.13529999705497175, 0.31319999834522605, 0.22659999376628548, 0.1386499970976729, 0.1304500037804246, 0.2503000068827532, 0.14029999874765053, 0.12995000361115672, 0.13854999997420236, 0.3174499943270348, 0.13914999726694077, 0.27039999258704484, 0.3175000019837171, 0.13464999938150868, 0.21625000226777047, 0.14474999989033677, 0.3027500060852617, 0.13079999916953966, 0.1310500047111418, 0.14635000479756854, 0.13314999887370504, 0.1313499997195322, 0.13239999680081382, 0.13839999883202836, 0.13209999815444462, 0.28574999305419624, 0.13160000162315555, 0.3280000091763213, 0.1357000001007691, 0.13129999933880754, 0.13284999658935703, 0.1566499995533377, 0.1380500034429133, 0.1343000003544148, 0.3259999939473346, 0.13444999785861, 0.13544999819714576, 0.12704999971901998, 0.1449999981559813, 0.16065000090748072, 0.26315000286558643, 0.14960000407882035, 0.26905000413535163, 0.1403499991283752, 0.12489999789977446, 0.18870000349124894, 0.1531000016257167, 0.13359999866224825, 0.26139999681618065, 0.13734999811276793, 0.3293000045232475, 0.13309999849298038, 0.14784999802941456, 0.1670500059844926, 0.14584999735234305, 0.29794999136356637, 0.30410000908887014, 0.1326000019616913, 0.2973500086227432, 0.22215000353753567, 0.1657999964663759, 0.15529999654972926, 0.32365001243306324, 0.14495000505121425, 0.22295000235317275, 0.12659999993047677, 0.12774999777320772, 0.1335500019195024],
  "Optimal Expectation Value": -5.893400192260742,
  "Optimizer durations [ms]": [23.033, 16.514, 14.583, 20.327, 18.296, 20.842, 14.815, 23.132, 20.067, 21.747, 21.243, 18.822, 15.657, 22.813, 17.084, 16.103, 15.356, 18.554, 22.641, 22.054, 23.393, 15.988, 22.248, 16.682, 22.115, 18.85, 18.189, 19.482, 18.986, 23.071, 18.667, 19.419, 18.58, 17.465, 18.498, 18.393, 16.653, 14.662, 17.374, 20.204, 17.49, 16.067, 22.027, 16.521, 22.124, 20.094, 22.124, 12.122, 17.509, 18.617, 23.171, 16.611, 20.168, 20.761, 20.897, 18.877, 21.935, 15.435, 20.885, 18.735, 20.763, 22.581, 15.308, 14.102, 20.402, 21.282, 16.975, 21.076, 19.694, 16.797, 17.621, 20.376, 23.181, 21.718, 20.055, 19.932, 15.989, 18.923, 19.768, 22.867, 17.018, 22.102, 15.021, 22.619, 16.494, 22.534, 20.858, 15.046, 17.71, 17.273, 16.283, 18.544, 19.007, 19.027, 18.511, 19.531, 20.483, 23.032, 22.586, 22.939, 19.675, 20.447, 19.767, 22.397, 15.259, 13.691, 16.144, 17.338, 18.787, 19.399, 18.334, 15.698, 17.892, 15.723, 22.004, 21.01, 19.737, 22.498, 18.859, 16.946, 10.636, 16.793, 18.193, 16.032, 22.702, 22.934, 22.407, 21.052, 22.355, 18.864, 20.605, 14.606, 18.112, 20.047, 21.737, 12.626, 22.908, 22.383, 15.768, 19.557, 19.934, 18.24, 16.044, 20.572, 17.153, 19.103, 22.695, 20.074, 21.954, 17.396, 15.435, 16.694, 21.911, 18.256, 17.388, 19.264, 19.245],
  "Optimizer iterations": 157,
  "Optimizer params": [1.0, 0.4993686024035266, 0.998143737568004, 0.49817695336169576, 0.4952185934008808, 1.0, 0.4972279494444949, 0.4993443793258448, 0.9970185095937423, 0.5024825631007656],
  "P": 0,
  "Problem": "RH",
  "QPU": "7000000",
  "Qubits": 10,
  "Shots": 4096,
  "Size": 10,
  "Total Algorithm duration [s]": 2.994,
  "Total Classic duration [s]": 2.965574499988492,
  "Total Quantum duration [s]": 0.02842550001150812
}
