{
  "Depth": 2.0,
  "Expectation Value": -5.893400192260742,
  "Job durations [ms]": [0.15219999477267265, 0.19824999617412686, 0.14000000373926014, 0.2826000054483302, 0.14084999929764308, 0.31585000397171825, 0.12615000014193356, 0.22894999710842967, 0.13065000166534446, 0.30390000029001385, 0.12615000014193356, 0.3261500023654662, 0.12564999997266568, 0.17780000052880496, 0.13155000124243088, 0.15595000149914995, 0.1432999997632578, 0.12704999971901998, 0.16460000188089907, 0.1473500014981255, 0.1556999995955266, 0.13219999891589396, 0.34535001032054424, 0.12739999874611385, 0.1294999965466559, 0.15084999904502183, 0.3085000062128529, 0.14724999709869735, 0.26885000261245295, 0.13395000132732093, 0.221800000872463, 0.13840000247000717, 0.23665000480832532, 0.16364999464713037, 0.1369500023429282, 0.13890000263927504, 0.2806999909807928, 0.12930000229971483, 0.14804999955231324, 0.13079999916953966, 0.12414999946486205, 0.13300000136950985, 0.15279999934136868, 0.14169999485602602, 0.3001999939442612, 0.2500500049791299, 0.24670000129844993, 0.13480000052368268, 0.22154999169288203, 0.156299996888265, 0.15454999811481684, 0.14124999870546162, 0.16975000471575186, 0.13249999756226316, 0.23020000662654638, 0.1265499995497521, 0.12635000166483223, 0.12675000471062958, 0.1531000016257167, 0.1450000017939601, 0.13070000204606913, 0.13779999790131114, 0.30160000460455194, 0.1616000008652918, 0.26214999525109306, 0.3067500074394047, 0.2563500020187348, 0.13160000162315555, 0.1300999974773731, 0.13494999802787788, 0.13770000077784061, 0.1318500035267789, 0.24765000125626102, 0.12909999713883735, 0.17854999896371737, 0.3034000037587248, 0.16039999900385737, 0.13625000065076165, 0.12504999540396966, 0.31719999242341146, 0.13625000065076165, 0.12635000166483223, 0.12865000098827295, 0.12799999603885226, 0.12770000103046186, 0.2673500057426281, 0.13070000204606913, 0.15619999612681568, 0.12459999561542645, 0.14089999604038894, 0.12495000191847794, 0.1276500006497372, 0.23939999664435163, 0.13095000031171367, 0.13294999735080637, 0.13165000200388022, 0.13869999384041876, 0.3185500027029775, 0.13309999849298038, 0.19895000150427222, 0.3269000008003786, 0.13969999781693332, 0.1392499980283901, 0.309600007312838, 0.1411500015819911, 0.13480000052368268, 0.29740000172751024, 0.1718499988783151, 0.1362999973935075, 0.13250000120024197, 0.1279500029340852, 0.13464999574352987, 0.16814999980852008, 0.1268500018341001, 0.13315000251168385, 0.25019999884534627, 0.14614999963669106, 0.2085999949485995, 0.13324999599717557, 0.14154999735183083, 0.24485000176355243, 0.1259500022570137, 0.1326000019616913, 0.1279499992961064, 0.17559999832883477, 0.2764999953797087, 0.12635000166483223, 0.13624999701278284, 0.14415000259759836, 0.1505999971413985, 0.2739000046858564, 0.1572499968460761, 0.13550000221584924, 0.13404999845079146, 0.13779999790131114, 0.1458000006095972, 0.1389499957440421, 0.12560000322991982, 0.2955999952973798, 0.1362000039080158, 0.2576500046416186, 0.1258000011148397, 0.1287500017497223, 0.1570999957039021, 0.1464000015403144, 0.24540000595152378, 0.21684999956050888, 0.16394999693147838, 0.13315000251168385, 0.28949999978067353, 0.13529999705497175, 0.14214999828254804, 0.14014999760547653, 0.1267000006919261, 0.15910000365693122, 0.21880000713281333, 0.13480000052368268],
  "Optimal Expectation Value": -5.893400192260742,
  "Optimizer durations [ms]": [23.115, 20.219, 23.005, 18.177, 16.21, 22.069, 23.1, 19.778, 21.158, 16.971, 20.563, 21.819, 20.847, 18.235, 17.13, 15.357, 17.302, 23.083, 11.729, 23.23, 16.334, 16.325, 20.286, 18.693, 19.544, 22.686, 14.807, 22.257, 18.637, 22.802, 14.848, 19.052, 16.66, 22.317, 18.779, 19.927, 17.929, 17.793, 19.76, 18.608, 22.302, 20.385, 23.095, 19.554, 18.728, 17.471, 19.802, 17.846, 22.202, 14.22, 22.6, 16.144, 20.193, 17.606, 22.332, 15.346, 19.927, 18.23, 18.12, 23.175, 21.753, 16.33, 17.619, 16.078, 19.333, 19.198, 17.486, 18.141, 16.798, 21.171, 21.663, 23.125, 19.505, 18.706, 22.444, 22.519, 15.477, 19.608, 18.719, 18.384, 17.877, 18.646, 19.743, 18.279, 18.728, 19.379, 22.915, 15.369, 14.829, 20.141, 13.039, 23.007, 18.534, 17.214, 21.355, 20.874, 23.234, 18.485, 15.471, 19.601, 17.903, 20.079, 22.729, 14.212, 18.718, 19.871, 22.406, 20.855, 17.128, 22.788, 15.378, 22.387, 21.565, 17.888, 23.207, 20.316, 19.785, 22.39, 19.43, 20.064, 18.158, 15.172, 18.349, 23.142, 17.316, 22.337, 19.22, 23.044, 20.2, 20.375, 17.171, 21.045, 17.478, 20.236, 18.133, 19.261, 18.939, 21.022, 15.576, 23.186, 19.393, 22.136, 21.021, 16.43, 21.342, 22.344, 14.89, 23.367, 14.832, 22.547, 19.149, 22.932, 16.264, 22.149, 14.622, 19.927, 22.644],
  "Optimizer iterations": 157,
  "Optimizer params": [1.0, 0.4993686024035266, 0.998143737568004, 0.49817695336169576, 0.4952185934008808, 1.0, 0.4972279494444949, 0.4993443793258448, 0.9970185095937423, 0.5024825631007656],
  "P": 0,
  "Problem": "RH",
  "QPU": "7000000",
  "Qubits": 10,
  "Shots": 4096,
  "Size": 10,
  "Total Algorithm duration [s]": 3.045,
  "Total Classic duration [s]": 3.0176557999820215,
  "Total Quantum duration [s]": 0.027344200017978437
}
