{
  "Depth": 2.0,
  "Expectation Value": -5.893400192260742,
  "Job durations [ms]": [0.15210000128718093, 0.32934999762801453, 0.1358500012429431, 0.30514999525621533, 0.14899999951012433, 0.14084999929764308, 0.1385000032314565, 0.13950000356999226, 0.14589999773306772, 0.1251499998033978, 0.15010000061010942, 0.2819500004989095, 0.1462500003981404, 0.14739999824087135, 0.15474999963771552, 0.12769999739248306, 0.2676500007510185, 0.14974999794503674, 0.1321499985351693, 0.1521500053058844, 0.19285000598756596, 0.1405000002705492, 0.13015000149607658, 0.16630000027362257, 0.12475000039557926, 0.13079999916953966, 0.1403499991283752, 0.13145000048098154, 0.13564999608206563, 0.13499999840860255, 0.1235999989148695, 0.1915500033646822, 0.30929999775253236, 0.13139999646227807, 0.1347499965049792, 0.17999999545281753, 0.12579999747686088, 0.1324500044574961, 0.12819999756175093, 0.13874999785912223, 0.1329000006080605, 0.13389999730861746, 0.13949999629403464, 0.12985000284970738, 0.1296499976888299, 0.14525000005960464, 0.16714999946998432, 0.14319999900180846, 0.13704999946639873, 0.1545000050100498, 0.1581999968038872, 0.14894999912939966, 0.12664999667322263, 0.13094999667373486, 0.13550000221584924, 0.1568000006955117, 0.15595000149914995, 0.31534999288851395, 0.14954999642213807, 0.14075000217417255, 0.3387500037206337, 0.2948000037577003, 0.14010000450070947, 0.1357000037387479, 0.1289000028918963, 0.1436000020476058, 0.13660000331583433, 0.15895000251475722, 0.13839999883202836, 0.15395000082207844, 0.13609999587060884, 0.14840000221738592, 0.1704500027699396, 0.12885000251117162, 0.28604999533854425, 0.16384999617002904, 0.20229999790899456, 0.155999994603917, 0.14619999637943693, 0.1335500019195024, 0.1397500018356368, 0.3195000026607886, 0.12880000213044696, 0.12969999806955457, 0.12944999980391003, 0.1501500009908341, 0.1867500031949021, 0.12859999696956947, 0.12800000331480987, 0.1496499971835874, 0.1304500001424458, 0.136500002554385, 0.170899998920504, 0.19949999841628596, 0.28145000396762043, 0.13070000204606913, 0.236850006331224, 0.22050000552553684, 0.1263999984075781, 0.1586500002304092, 0.2798000059556216, 0.16390000382671133, 0.15210000128718093, 0.14039999587112106, 0.1414500002283603, 0.1535499977762811, 0.1545000050100498, 0.14700000610901043, 0.22020000324118882, 0.13824999768985435, 0.1503000021330081, 0.1327499994658865, 0.33490000350866467, 0.15919999714242294, 0.24279999342979863, 0.1271499968424905, 0.13995000335853547, 0.15474999963771552, 0.12940000306116417, 0.14020000162418, 0.30435000371653587, 0.13635000141221099, 0.14390000433195382, 0.14405000183614902, 0.13494999802787788, 0.1520000005257316, 0.1510500005679205, 0.327349996950943, 0.12704999971901998, 0.2321499996469356, 0.14714999997522682, 0.1234499977726955, 0.15365000581368804, 0.13285000386531465, 0.15434999659191817, 0.16139999934239313, 0.13660000331583433, 0.12770000103046186, 0.15390000044135377, 0.13234999642008916, 0.1259499986190349, 0.23540000256616622, 0.18399999680696055, 0.12734999836538918, 0.20344999938970432, 0.22364999313140288, 0.14945000293664634, 0.15775000065332279, 0.13730000137002207, 0.15744999836897478, 0.13409999883151613, 0.13904999650549144, 0.1341500028502196, 0.13910000416217372, 0.21984999330015853, 0.2208500009146519, 0.13860000035492703],
  "Optimal Expectation Value": -5.893400192260742,
  "Optimizer durations [ms]": [21.559, 21.715, 18.599, 19.55, 23.215, 17.988, 18.406, 22.927, 20.299, 16.016, 18.092, 22.187, 20.527, 19.894, 12.255, 15.065, 17.824, 15.664, 20.425, 13.613, 17.719, 20.268, 21.885, 12.691, 17.28, 21.659, 21.799, 16.661, 19.057, 19.069, 15.657, 19.463, 19.772, 19.054, 18.879, 18.49, 19.422, 22.535, 15.313, 23.064, 20.317, 19.751, 16.425, 17.395, 15.837, 15.883, 19.232, 19.849, 22.392, 17.597, 15.03, 21.237, 18.978, 22.799, 20.151, 16.176, 15.161, 19.207, 20.308, 18.62, 17.729, 19.549, 21.004, 21.551, 19.874, 21.665, 17.013, 19.005, 17.372, 14.806, 19.158, 22.277, 16.496, 21.767, 17.539, 19.19, 15.302, 16.317, 18.976, 16.826, 21.643, 19.227, 19.032, 21.169, 17.595, 21.959, 20.596, 21.07, 23.17, 20.16, 23.156, 15.843, 17.151, 19.955, 22.402, 20.141, 20.466, 18.524, 22.867, 11.999, 14.26, 16.091, 12.774, 18.956, 20.36, 18.956, 17.857, 22.358, 21.769, 22.979, 17.915, 20.088, 17.783, 22.068, 20.492, 18.422, 20.86, 21.221, 17.696, 14.683, 22.402, 15.282, 17.898, 20.213, 18.643, 21.003, 18.845, 19.362, 18.826, 17.04, 20.369, 22.899, 15.56, 22.956, 17.245, 12.216, 18.484, 14.51, 13.892, 16.479, 19.8, 20.541, 17.663, 20.864, 15.669, 19.278, 20.046, 18.946, 21.064, 16.685, 22.432, 23.035, 12.338, 17.573, 20.889, 17.28, 22.721],
  "Optimizer iterations": 157,
  "Optimizer params": [1.0, 0.4993686024035266, 0.998143737568004, 0.49817695336169576, 0.4952185934008808, 1.0, 0.4972279494444949, 0.4993443793258448, 0.9970185095937423, 0.5024825631007656],
  "P": 0,
  "Problem": "RH",
  "QPU": "7000000",
  "Qubits": 10,
  "Shots": 4096,
  "Size": 10,
  "Total Algorithm duration [s]": 2.968,
  "Total Classic duration [s]": 2.9421432499795337,
  "Total Quantum duration [s]": 0.02585675002046628
}
