{
  "Depth": 2.0,
  "Expectation Value": -5.893400192260742,
  "Job durations [ms]": [0.16504999803146347, 0.3333000058773905, 0.1357000001007691, 0.3116000007139519, 0.15324999549193308, 0.15339999663410708, 0.16899999900488183, 0.35960000968771055, 0.12864999735029414, 0.13095000031171367, 0.14214999828254804, 0.13935000242781825, 0.222100003156811, 0.13250000120024197, 0.13299999773153104, 0.2008500014198944, 0.14385000031325035, 0.13069999840809032, 0.2446000071358867, 0.19614999473560601, 0.22285000886768103, 0.16044999938458204, 0.2811500016832724, 0.1320000010309741, 0.17289999959757552, 0.20980000408599153, 0.12615000014193356, 0.1532500027678907, 0.1628499958314933, 0.1249999986612238, 0.1255999959539622, 0.319649996527005, 0.13155000124243088, 0.15339999663410708, 0.13774999752058648, 0.1186500012408942, 0.1279499992961064, 0.13109999781590886, 0.31075000151759014, 0.1339999980700668, 0.1321500021731481, 0.12914999751956202, 0.13140000373823568, 0.24760000087553635, 0.24459999985992908, 0.26249999791616574, 0.27754999609896913, 0.20780000340892002, 0.34935001167468727, 0.14915000065229833, 0.13609999950858764, 0.15005000022938475, 0.2529499979573302, 0.13944999591330998, 0.2782500014291145, 0.15390000044135377, 0.14709999959450215, 0.13795000268146396, 0.1335500019195024, 0.13630000466946512, 0.14155000098980963, 0.2945000014733523, 0.33820000680861995, 0.1370999998471234, 0.19639999663922936, 0.31894999847281724, 0.13979999857838266, 0.152299995534122, 0.15165000149863772, 0.13765000039711595, 0.15124999845284037, 0.15335000352934003, 0.13829999807057902, 0.2706000013859011, 0.13580000086221844, 0.1269999993382953, 0.15315000200644135, 0.156299996888265, 0.15205000090645626, 0.14459999511018395, 0.1358499976049643, 0.13419999959296547, 0.1400500041199848, 0.3440500149736181, 0.12249999781488441, 0.13689999832422473, 0.2940500053227879, 0.316400000883732, 0.12845000310335308, 0.1262499972654041, 0.12815000081900507, 0.134299996716436, 0.3185499954270199, 0.16340000001946464, 0.21559999731834978, 0.2205499986303039, 0.14504999853670597, 0.13295000098878518, 0.14590000137104653, 0.12769999739248306, 0.21684999956050888, 0.13070000204606913, 0.2946500026155263, 0.13394999768934213, 0.17839999782154337, 0.2518500041333027, 0.13419999959296547, 0.16494999727001414, 0.15315000200644135, 0.15360000543296337, 0.12719999722321518, 0.3471000018180348, 0.15934999828459695, 0.15519999578827992, 0.1562000034027733, 0.14250000094762072, 0.15205000090645626, 0.12874999811174348, 0.22885000362293795, 0.1442499997210689, 0.2375999974901788, 0.1290500003960915, 0.13349999790079892, 0.13144999684300274, 0.12805000369553454, 0.12830000196117908, 0.2532500002416782, 0.1432999997632578, 0.139749998197658, 0.13590000162366778, 0.2197499998146668, 0.1664000010350719, 0.2638000005390495, 0.14789999841013923, 0.13349999790079892, 0.12894999599666335, 0.1328999969700817, 0.1531000016257167, 0.15110000094864517, 0.1659500012465287, 0.12159999823779799, 0.1332500032731332, 0.1371000034851022, 0.134599999000784, 0.1531000016257167, 0.14659999942523427, 0.16090000281110406, 0.1414500002283603, 0.1304500001424458, 0.3300500029581599, 0.14930000179447234, 0.13109999781590886, 0.30309999419841915, 0.14869999722577631, 0.13065000166534446, 0.1350999991700519, 0.12910000077681616],
  "Optimal Expectation Value": -5.893400192260742,
  "Optimizer durations [ms]": [23.325, 20.08, 20.346, 22.6, 18.808, 18.483, 19.236, 9.488, 13.885, 22.029, 15.752, 22.766, 17.569, 22.691, 20.371, 22.216, 23.061, 20.031, 20.526, 22.689, 19.424, 17.492, 18.275, 15.867, 18.338, 21.88, 19.565, 14.485, 19.274, 18.802, 15.757, 18.451, 19.238, 13.593, 14.809, 20.764, 17.913, 22.686, 19.0, 13.916, 16.529, 17.481, 20.896, 21.72, 22.707, 16.251, 20.789, 18.603, 19.694, 20.728, 22.696, 20.18, 18.478, 20.267, 18.131, 14.682, 16.823, 20.801, 16.167, 15.761, 20.456, 17.691, 21.559, 21.1, 21.57, 20.31, 17.387, 18.779, 13.559, 21.484, 20.708, 13.309, 19.522, 22.23, 21.177, 20.125, 20.943, 23.15, 22.128, 23.349, 22.594, 22.953, 23.083, 17.726, 18.557, 22.376, 14.48, 17.479, 17.317, 19.697, 18.466, 17.95, 20.797, 18.387, 19.439, 19.76, 18.072, 20.596, 17.453, 16.337, 17.271, 20.244, 22.221, 20.595, 17.788, 19.81, 22.582, 20.326, 18.86, 15.212, 18.773, 19.527, 16.027, 14.421, 17.501, 22.912, 18.409, 19.673, 18.2, 19.508, 22.37, 20.616, 18.026, 15.621, 17.913, 21.488, 19.036, 21.483, 20.833, 22.948, 12.831, 22.107, 19.791, 22.336, 15.982, 21.995, 18.358, 16.186, 12.953, 20.265, 22.756, 18.535, 22.14, 20.876, 13.693, 21.765, 14.73, 20.383, 20.013, 18.941, 17.112, 20.706, 18.448, 18.9, 22.524, 17.427, 18.605],
  "Optimizer iterations": 157,
  "Optimizer params": [1.0, 0.4993686024035266, 0.998143737568004, 0.49817695336169576, 0.4952185934008808, 1.0, 0.4972279494444949, 0.4993443793258448, 0.9970185095937423, 0.5024825631007656],
  "P": 0,
  "Problem": "RH",
  "QPU": "7000000",
  "Qubits": 10,
  "Shots": 4096,
  "Size": 10,
  "Total Algorithm duration [s]": 3.009,
  "Total Classic duration [s]": 2.9813458499684056,
  "Total Quantum duration [s]": 0.027654150031594327
}
