{
  "Depth": 2.0,
  "Expectation Value": -5.893400192260742,
  "Job durations [ms]": [0.1507499982835725, 0.327199995808769, 0.15144999633776024, 0.1374000021314714, 0.14224999904399738, 0.14084999929764308, 0.1436000020476058, 0.13270000272314064, 0.13270000272314064, 0.14675000056740828, 0.13970000145491213, 0.203650000912603, 0.13349999790079892, 0.1929499994730577, 0.15315000200644135, 0.1967999996850267, 0.15364999853773043, 0.12745000276481733, 0.2451499894959852, 0.1956000050995499, 0.23320000764215365, 0.12074999904143624, 0.28929999825777486, 0.13524999667424709, 0.13154999760445207, 0.28824999753851444, 0.1549500011606142, 0.12889999561593868, 0.12975000208825804, 0.13249999756226316, 0.14545000158250332, 0.1690499993856065, 0.29535000066971406, 0.13955000031273812, 0.13579999722423963, 0.15549999807262793, 0.13419999959296547, 0.12575000073411502, 0.12664999667322263, 0.12879999849246815, 0.12395000157994218, 0.14020000162418, 0.13989999570185319, 0.15404999430757016, 0.1372500046272762, 0.15634999726898968, 0.13174999912735075, 0.1630000042496249, 0.14509999891743064, 0.12859999696956947, 0.1330499981122557, 0.14434999684453942, 0.13965000471216626, 0.13639999815495685, 0.29525000718422234, 0.12925000191899016, 0.2995999966515228, 0.15454999811481684, 0.13239999680081382, 0.1338500042038504, 0.35605000448413193, 0.14450000162469223, 0.1324500044574961, 0.12675000107265078, 0.1333499967586249, 0.2099999983329326, 0.13379999654716812, 0.14095000005909242, 0.15240000357152894, 0.13640000179293565, 0.12724999760393985, 0.15725000412203372, 0.14579999697161838, 0.12715000048046932, 0.24450000637443736, 0.13175000276532955, 0.13994999972055666, 0.31349999335361645, 0.13095000031171367, 0.12520000382210128, 0.23689999943599105, 0.12900000001536682, 0.13070000204606913, 0.1521500016679056, 0.3463000030023977, 0.12704999608104117, 0.24094999389490113, 0.1423499961674679, 0.12844999946537428, 0.1996000064536929, 0.1462500003981404, 0.22075000015320256, 0.1373999984934926, 0.13079999916953966, 0.13875000513507985, 0.29880000511184335, 0.1569500018376857, 0.3121999980066903, 0.15020000137155876, 0.13530000069295056, 0.13204999777371995, 0.1584999990882352, 0.163950004207436, 0.1518499993835576, 0.13070000204606913, 0.2869000018108636, 0.24249999842140824, 0.13299999773153104, 0.15195000014500692, 0.19255000370321795, 0.1369499987049494, 0.3098500019405037, 0.2396500058239326, 0.13324999963515438, 0.24089999351417646, 0.31069999386090785, 0.13095000031171367, 0.1304500037804246, 0.12959999730810523, 0.3150999982608482, 0.13335000039660372, 0.13390000094659626, 0.1545999984955415, 0.15504999828408472, 0.13419999959296547, 0.130599997646641, 0.14024999836692587, 0.14010000086273067, 0.14070000179344788, 0.27034999220632017, 0.1285500002268236, 0.13125000259606168, 0.12830000196117908, 0.14885000200592913, 0.13675000082002953, 0.17954999930225313, 0.13504999878932722, 0.13675000082002953, 0.13080000280751847, 0.1317999958700966, 0.16220000543398783, 0.22680000984109938, 0.32374999864259735, 0.14395000107469968, 0.23795000015525147, 0.13779999790131114, 0.13320000289240852, 0.20989999757148325, 0.1396000006934628, 0.12889999925391749, 0.27830000180983916, 0.16760000289650634, 0.13179999950807542, 0.14039999950909987, 0.14944999566068873, 0.1369499987049494, 0.1399000029778108],
  "Optimal Expectation Value": -5.893400192260742,
  "Optimizer durations [ms]": [23.236, 20.046, 18.673, 20.141, 23.252, 18.076, 23.347, 17.52, 19.423, 19.148, 15.795, 19.616, 21.799, 20.667, 17.907, 16.041, 22.068, 18.415, 17.188, 22.349, 17.83, 18.04, 19.515, 22.243, 16.963, 20.2, 17.367, 16.542, 18.729, 19.456, 18.86, 15.81, 13.663, 21.952, 19.711, 12.926, 22.929, 15.451, 23.021, 13.044, 19.749, 17.415, 20.187, 15.121, 18.864, 18.806, 18.377, 23.253, 19.296, 19.082, 18.48, 19.492, 19.33, 19.403, 18.496, 19.395, 21.272, 17.035, 19.962, 19.287, 21.421, 23.325, 18.99, 22.503, 20.619, 20.023, 18.008, 18.294, 15.753, 18.48, 19.156, 20.113, 23.518, 18.576, 19.61, 18.482, 22.131, 20.969, 20.09, 19.756, 20.378, 18.501, 19.941, 12.501, 21.347, 22.19, 21.151, 18.55, 19.267, 17.089, 16.063, 18.253, 19.073, 18.631, 18.641, 20.443, 14.767, 22.218, 16.615, 17.669, 22.099, 12.505, 17.632, 14.547, 19.269, 22.279, 17.6, 22.736, 11.432, 12.587, 20.182, 16.838, 21.236, 16.191, 21.414, 19.227, 20.429, 18.832, 18.764, 18.668, 18.481, 18.915, 15.863, 15.144, 20.509, 20.158, 22.834, 19.796, 20.823, 23.315, 22.582, 17.772, 16.848, 22.866, 21.69, 16.688, 22.804, 14.485, 14.7, 17.772, 13.842, 22.483, 17.033, 20.645, 17.81, 22.364, 19.397, 18.395, 19.23, 19.18, 18.031, 18.236, 18.661, 20.605, 18.322, 16.655, 20.382],
  "Optimizer iterations": 157,
  "Optimizer params": [1.0, 0.4993686024035266, 0.998143737568004, 0.49817695336169576, 0.4952185934008808, 1.0, 0.4972279494444949, 0.4993443793258448, 0.9970185095937423, 0.5024825631007656],
  "P": 0,
  "Problem": "RH",
  "QPU": "7000000",
  "Qubits": 10,
  "Shots": 4096,
  "Size": 10,
  "Total Algorithm duration [s]": 2.984,
  "Total Classic duration [s]": 2.9575323999921093,
  "Total Quantum duration [s]": 0.026467600007890724
}
