{
  "Depth": 2.0,
  "Expectation Value": -5.893400192260742,
  "Job durations [ms]": [0.13994999608257785, 0.33274999441346154, 0.1579000017954968, 0.15209999764920212, 0.1375499959976878, 0.12659999993047677, 0.1293499954044819, 0.12370000331429765, 0.16450000111944973, 0.1293499990424607, 0.15644999803043902, 0.1375499996356666, 0.15870000061113387, 0.1356999964627903, 0.12485000479500741, 0.3240000078221783, 0.13980000221636146, 0.15804999566171318, 0.15144999997573905, 0.1594499990460463, 0.1359999987471383, 0.17405000107828528, 0.1414500002283603, 0.12740000238409266, 0.15420000272570178, 0.19420000171521679, 0.13224999929661863, 0.327600006130524, 0.12109999806853011, 0.13839999883202836, 0.1306000012846198, 0.27794999186880887, 0.13234999642008916, 0.294550001854077, 0.12914999751956202, 0.12969999806955457, 0.12715000411844812, 0.3073999978369102, 0.13760000001639128, 0.23690000671194866, 0.13704999946639873, 0.1444000008632429, 0.335000004270114, 0.14545000158250332, 0.22215000353753567, 0.12245000107213855, 0.1703000016277656, 0.13184999625082128, 0.2267500021844171, 0.13610000314656645, 0.13029999900027178, 0.15764999989187345, 0.13940000280854292, 0.13450000187731348, 0.14119999832473695, 0.13374999616644345, 0.1311999985773582, 0.12944999616593122, 0.22670000180369243, 0.1298000024689827, 0.13205000141169876, 0.1384999995934777, 0.18154999997932464, 0.1311999949393794, 0.14164999811328016, 0.15364999853773043, 0.15890000213403255, 0.12940000306116417, 0.13139999646227807, 0.12635000166483223, 0.12955000056535937, 0.16850000247359276, 0.22000000171829015, 0.1299499999731779, 0.12904999675811268, 0.1268500018341001, 0.1507500019215513, 0.18319999799132347, 0.1871999993454665, 0.14150000060908496, 0.15854999946895987, 0.12789999891538173, 0.14124999870546162, 0.13114999819663353, 0.13210000179242343, 0.15305000124499202, 0.1281000004382804, 0.1361499998893123, 0.2243999915663153, 0.29269999504322186, 0.30034999508643523, 0.13760000001639128, 0.17035000200849026, 0.12805000369553454, 0.25415000709472224, 0.12245000107213855, 0.28124999516876414, 0.2353999952902086, 0.13389999730861746, 0.25695000658743083, 0.1383499984513037, 0.13235000369604677, 0.1794499985408038, 0.1545999984955415, 0.24364999262616038, 0.25395000557182357, 0.130599997646641, 0.13800000306218863, 0.13729999773204327, 0.13015000149607658, 0.131200002215337, 0.13579999722423963, 0.1996000064536929, 0.1516499978606589, 0.1657999964663759, 0.1429999974789098, 0.1552500034449622, 0.32929999724728987, 0.17054999625543132, 0.15885000175330788, 0.2377500059083104, 0.11824999819509685, 0.27159999444847926, 0.24509999639121816, 0.13720000424655154, 0.15770000027259812, 0.1358499976049643, 0.13475000014295802, 0.24585000210208818, 0.16000000323401764, 0.13269999908516183, 0.32884999382076785, 0.13374999980442226, 0.1304500001424458, 0.13609999950858764, 0.15179999900283292, 0.2611500021885149, 0.1436000020476058, 0.21314999321475625, 0.12680000145337544, 0.13324999963515438, 0.34884999331552535, 0.1340000017080456, 0.13774999752058648, 0.1355500025965739, 0.27335000049788505, 0.152900000102818, 0.15109999731066637, 0.14109999756328762, 0.27134999982081354, 0.15124999845284037, 0.18134999845642596, 0.12815000081900507, 0.3272499961894937, 0.3279999873484485, 0.1355499989585951, 0.1825500003178604],
  "Optimal Expectation Value": -5.893400192260742,
  "Optimizer durations [ms]": [23.296, 19.896, 14.261, 16.582, 17.989, 18.884, 15.791, 22.57, 18.878, 22.939, 11.496, 17.529, 16.109, 17.201, 18.327, 17.847, 22.794, 14.307, 18.68, 16.641, 18.711, 18.196, 19.796, 22.21, 18.941, 14.75, 22.101, 14.853, 18.654, 20.762, 22.56, 19.561, 23.016, 14.959, 19.76, 20.156, 22.991, 18.491, 21.925, 16.077, 17.35, 15.132, 15.152, 22.464, 19.964, 23.119, 19.242, 22.715, 19.914, 20.529, 11.625, 19.079, 22.339, 22.774, 15.558, 20.657, 19.131, 21.146, 18.482, 22.483, 16.497, 16.355, 20.217, 21.062, 15.2, 17.198, 17.136, 23.0, 16.331, 21.53, 20.653, 22.416, 16.112, 20.961, 20.605, 17.648, 20.716, 19.601, 16.849, 21.243, 14.256, 20.616, 22.719, 19.016, 22.024, 13.178, 18.525, 22.93, 13.712, 20.14, 17.778, 22.938, 14.704, 20.161, 16.115, 18.571, 22.262, 19.764, 22.376, 21.283, 20.148, 19.931, 19.8, 17.643, 19.56, 22.209, 15.554, 19.272, 20.971, 19.579, 21.102, 17.763, 17.684, 18.753, 15.616, 23.309, 16.499, 17.87, 19.892, 13.745, 22.016, 16.531, 21.973, 18.119, 14.675, 22.323, 19.366, 14.047, 18.386, 19.004, 16.829, 21.944, 22.736, 16.344, 22.732, 19.152, 20.016, 17.712, 19.486, 18.349, 19.361, 18.205, 22.387, 20.16, 22.694, 16.668, 18.736, 13.746, 15.276, 20.096, 23.288, 18.167, 22.698, 19.079, 18.106, 20.536, 18.598],
  "Optimizer iterations": 157,
  "Optimizer params": [1.0, 0.4993686024035266, 0.998143737568004, 0.49817695336169576, 0.4952185934008808, 1.0, 0.4972279494444949, 0.4993443793258448, 0.9970185095937423, 0.5024825631007656],
  "P": 0,
  "Problem": "RH",
  "QPU": "7000000",
  "Qubits": 10,
  "Shots": 4096,
  "Size": 10,
  "Total Algorithm duration [s]": 2.99,
  "Total Classic duration [s]": 2.9630527000501754,
  "Total Quantum duration [s]": 0.02694729994982481
}
