{
  "Circuit execution durations [ms]": [12.667417526245117, 12.506842613220215, 12.848973274230957, 12.633562088012695, 12.690544128417969, 12.517213821411133, 12.643814086914063, 12.544870376586914, 12.664318084716797, 48.58660697937012, 12.471199035644531, 12.778878211975098, 12.599587440490723, 12.577056884765625, 12.646317481994629, 12.758135795593262, 12.593984603881836, 12.479066848754883, 12.56871223449707, 12.457489967346191, 12.477397918701172, 12.704968452453613, 12.495994567871094, 12.556314468383789, 12.756824493408203, 12.524604797363281, 13.169169425964355, 12.612223625183105, 12.73047924041748, 12.69066333770752, 12.71200180053711, 48.78950119018555, 12.579798698425293, 12.69543170928955, 12.668967247009277, 12.640237808227539, 12.76099681854248, 12.509584426879883, 12.487530708312988, 12.677788734436035, 12.568950653076172, 12.624025344848633, 12.711644172668457, 12.522220611572266, 12.598156929016113, 12.560606002807617, 12.609601020812988, 12.666583061218262, 12.749195098876953, 48.72775077819824, 12.665390968322754, 12.721776962280273, 12.643933296203613, 12.661099433898926, 12.613296508789063, 12.537956237792969, 12.681245803833008, 12.81893253326416, 12.6417875289917, 12.54737377166748, 12.635588645935059, 12.757182121276855, 12.824535369873047, 12.47704029083252, 48.039913177490234, 12.511253356933594, 12.575030326843262, 12.52436637878418, 12.521028518676758, 12.586832046508789, 12.490510940551758, 12.578725814819336, 12.632966041564941, 12.635946273803711, 12.479305267333984, 12.510299682617188, 12.536168098449707, 12.938261032104492, 12.550711631774902, 12.52293586730957, 12.599468231201172, 12.561321258544922, 12.44807243347168, 12.517571449279785, 12.599945068359375, 12.711882591247559, 12.648701667785645, 12.445807456970215, 12.594819068908691, 12.694597244262695, 12.712717056274414, 12.449979782104492, 12.719273567199707, 12.574553489685059, 12.389302253723145, 12.622714042663574, 12.646675109863281, 12.4434232711792, 12.458443641662598, 12.572526931762695, 12.585759162902832, 12.526988983154297, 12.659192085266113, 12.655854225158691, 12.693047523498535, 12.707233428955078, 12.558341026306152, 12.519478797912598, 12.615203857421875, 12.601137161254883, 12.421965599060059, 12.564778327941895, 12.561917304992676, 12.68303394317627, 12.613415718078613, 12.62974739074707, 12.462258338928223, 12.588262557983398, 12.555480003356934, 12.715935707092285, 12.631773948669434, 12.395381927490234, 12.40384578704834, 12.630939483642578, 12.537479400634766, 12.734770774841309, 12.871384620666504, 12.442231178283691, 12.607693672180176, 12.595057487487793, 12.516140937805176, 12.54892349243164, 12.593865394592285, 12.654662132263184, 12.514472007751465, 12.53819465637207, 12.653231620788574, 12.509942054748535, 12.658238410949707, 48.37191104888916, 12.641549110412598, 12.712478637695313, 12.487053871154785, 12.501955032348633, 12.647390365600586, 12.39323616027832, 12.511610984802246, 12.8021240234375, 12.531638145446777, 12.638211250305176, 12.676596641540527, 12.472271919250488, 12.638568878173828, 12.577652931213379, 12.51518726348877],
  "Depth": 8.5,
  "Expectation Value": -3.10107421875,
  "Optimal Expectation Value": -3.4939591884613037,
  "Optimizer durations [ms]": [28.74, 28.195, 28.905, 28.519, 28.603, 28.195, 28.582, 28.313, 28.493, 100.587, 28.147, 28.857, 28.311, 28.423, 28.488, 28.873, 28.334, 28.218, 28.307, 27.955, 28.08, 28.701, 28.183, 28.269, 28.777, 28.178, 29.697, 28.429, 28.745, 28.562, 28.624, 100.898, 28.28, 28.617, 28.45, 28.497, 28.647, 28.176, 28.155, 28.599, 28.344, 28.358, 28.722, 28.447, 28.452, 28.297, 28.559, 28.524, 28.627, 100.883, 28.562, 28.715, 28.421, 28.527, 28.346, 28.367, 28.58, 28.951, 28.587, 28.189, 28.378, 28.77, 28.956, 28.095, 99.534, 28.31, 28.306, 28.319, 28.177, 28.422, 28.169, 28.404, 28.473, 28.584, 28.122, 28.316, 28.403, 29.043, 28.272, 28.222, 28.377, 28.354, 28.06, 28.444, 28.456, 28.605, 28.475, 28.211, 28.393, 28.631, 28.665, 28.142, 28.593, 28.358, 27.942, 28.412, 28.583, 28.034, 28.093, 28.495, 28.47, 28.175, 28.504, 28.46, 28.619, 28.618, 28.397, 28.161, 28.476, 28.457, 28.007, 28.233, 28.227, 28.606, 28.334, 28.546, 28.28, 28.395, 28.34, 28.626, 28.515, 27.851, 27.982, 28.428, 28.321, 28.653, 29.078, 28.174, 28.407, 28.313, 28.315, 28.247, 28.394, 28.619, 28.217, 28.167, 28.647, 28.215, 28.72, 99.964, 28.498, 28.722, 28.215, 28.087, 28.617, 27.845, 28.21, 28.889, 28.177, 28.358, 28.607, 28.172, 28.458, 28.335, 28.134],
  "Optimizer iterations": 155,
  "Optimizer params": [0.3048752938111028, 0.0392603700745275, 0.9653330481148867, 0.3109324787108192, 0.22209260479034482, 0.8964163527984919, 0.9256026539235429, 0.9732911453658082, 0.6456627756911931, 0.449286375001702, 0.3677557018418664, 0.668193378178344],
  "P": 0,
  "Problem": "IC",
  "QJob durations [ms]": [12.667417526245117, 12.506842613220215, 12.848973274230957, 12.633562088012695, 12.690544128417969, 12.517213821411133, 12.643814086914063, 12.544870376586914, 12.664318084716797, 48.58660697937012, 12.471199035644531, 12.778878211975098, 12.599587440490723, 12.577056884765625, 12.646317481994629, 12.758135795593262, 12.593984603881836, 12.479066848754883, 12.56871223449707, 12.457489967346191, 12.477397918701172, 12.704968452453613, 12.495994567871094, 12.556314468383789, 12.756824493408203, 12.524604797363281, 13.169169425964355, 12.612223625183105, 12.73047924041748, 12.69066333770752, 12.71200180053711, 48.78950119018555, 12.579798698425293, 12.69543170928955, 12.668967247009277, 12.640237808227539, 12.76099681854248, 12.509584426879883, 12.487530708312988, 12.677788734436035, 12.568950653076172, 12.624025344848633, 12.711644172668457, 12.522220611572266, 12.598156929016113, 12.560606002807617, 12.609601020812988, 12.666583061218262, 12.749195098876953, 48.72775077819824, 12.665390968322754, 12.721776962280273, 12.643933296203613, 12.661099433898926, 12.613296508789063, 12.537956237792969, 12.681245803833008, 12.81893253326416, 12.6417875289917, 12.54737377166748, 12.635588645935059, 12.757182121276855, 12.824535369873047, 12.47704029083252, 48.039913177490234, 12.511253356933594, 12.575030326843262, 12.52436637878418, 12.521028518676758, 12.586832046508789, 12.490510940551758, 12.578725814819336, 12.632966041564941, 12.635946273803711, 12.479305267333984, 12.510299682617188, 12.536168098449707, 12.938261032104492, 12.550711631774902, 12.52293586730957, 12.599468231201172, 12.561321258544922, 12.44807243347168, 12.517571449279785, 12.599945068359375, 12.711882591247559, 12.648701667785645, 12.445807456970215, 12.594819068908691, 12.694597244262695, 12.712717056274414, 12.449979782104492, 12.719273567199707, 12.574553489685059, 12.389302253723145, 12.622714042663574, 12.646675109863281, 12.4434232711792, 12.458443641662598, 12.572526931762695, 12.585759162902832, 12.526988983154297, 12.659192085266113, 12.655854225158691, 12.693047523498535, 12.707233428955078, 12.558341026306152, 12.519478797912598, 12.615203857421875, 12.601137161254883, 12.421965599060059, 12.564778327941895, 12.561917304992676, 12.68303394317627, 12.613415718078613, 12.62974739074707, 12.462258338928223, 12.588262557983398, 12.555480003356934, 12.715935707092285, 12.631773948669434, 12.395381927490234, 12.40384578704834, 12.630939483642578, 12.537479400634766, 12.734770774841309, 12.871384620666504, 12.442231178283691, 12.607693672180176, 12.595057487487793, 12.516140937805176, 12.54892349243164, 12.593865394592285, 12.654662132263184, 12.514472007751465, 12.53819465637207, 12.653231620788574, 12.509942054748535, 12.658238410949707, 48.37191104888916, 12.641549110412598, 12.712478637695313, 12.487053871154785, 12.501955032348633, 12.647390365600586, 12.39323616027832, 12.511610984802246, 12.8021240234375, 12.531638145446777, 12.638211250305176, 12.676596641540527, 12.472271919250488, 12.638568878173828, 12.577652931213379, 12.51518726348877],
  "QPU": "9000001",
  "Qubits": 3,
  "Queue durations [ms]": [0.0, 0.0, 0.0, 0.0, 0.0, 0.0, 0.0, 0.0, 0.0, 0.0, 0.0, 0.0, 0.0, 0.0, 0.0, 0.0, 0.0, 0.0, 0.0, 0.0, 0.0, 0.0, 0.0, 0.0, 0.0, 0.0, 0.0, 0.0, 0.0, 0.0, 0.0, 0.0, 0.0, 0.0, 0.0, 0.0, 0.0, 0.0, 0.0, 0.0, 0.0, 0.0, 0.0, 0.0, 0.0, 0.0, 0.0, 0.0, 0.0, 0.0, 0.0, 0.0, 0.0, 0.0, 0.0, 0.0, 0.0, 0.0, 0.0, 0.0, 0.0, 0.0, 0.0, 0.0, 0.0, 0.0, 0.0, 0.0, 0.0, 0.0, 0.0, 0.0, 0.0, 0.0, 0.0, 0.0, 0.0, 0.0, 0.0, 0.0, 0.0, 0.0, 0.0, 0.0, 0.0, 0.0, 0.0, 0.0, 0.0, 0.0, 0.0, 0.0, 0.0, 0.0, 0.0, 0.0, 0.0, 0.0, 0.0, 0.0, 0.0, 0.0, 0.0, 0.0, 0.0, 0.0, 0.0, 0.0, 0.0, 0.0, 0.0, 0.0, 0.0, 0.0, 0.0, 0.0, 0.0, 0.0, 0.0, 0.0, 0.0, 0.0, 0.0, 0.0, 0.0, 0.0, 0.0, 0.0, 0.0, 0.0, 0.0, 0.0, 0.0, 0.0, 0.0, 0.0, 0.0, 0.0, 0.0, 0.0, 0.0, 0.0, 0.0, 0.0, 0.0, 0.0, 0.0, 0.0, 0.0, 0.0, 0.0, 0.0, 0.0, 0.0, 0.0],
  "Shots": 4096,
  "Size": 3,
  "Total Algorithm duration [s]": 4.765,
  "Total Classic duration [s]": 2.631836309432983,
  "Total Quantum duration [s]": 2.1331636905670166
}
