{
  "Circuit execution durations [ms]": [12.68017292022705, 12.651562690734863, 12.60364055633545, 12.494206428527832, 12.703537940979004, 12.487292289733887, 12.602567672729492, 12.557387351989746, 12.49241828918457, 12.740254402160645, 12.40992546081543, 12.543559074401855, 12.715816497802734, 12.988805770874023, 12.438178062438965, 12.648940086364746, 12.697815895080566, 12.40694522857666, 12.638092041015625, 12.8096342086792, 12.430667877197266, 12.744307518005371, 12.862801551818848, 12.456297874450684, 12.726664543151855, 12.720346450805664, 12.674212455749512, 12.718677520751953, 12.545466423034668, 12.510180473327637, 12.459039688110352, 12.552976608276367, 12.521982192993164, 12.581229209899902, 12.525200843811035, 12.417197227478027, 12.596487998962402, 12.568116188049316, 12.328863143920898, 12.564659118652344, 12.584924697875977, 12.30311393737793, 12.574553489685059, 12.619853019714355, 12.423992156982422, 12.527942657470703, 12.415051460266113, 12.584328651428223, 12.763023376464844, 12.725114822387695, 12.511610984802246, 12.566089630126953, 12.68160343170166, 12.509822845458984, 12.895345687866211, 12.497544288635254, 12.458205223083496, 12.474298477172852, 12.683391571044922, 12.717604637145996, 12.528061866760254, 12.59148120880127, 12.457609176635742, 12.446403503417969, 12.552380561828613, 12.488842010498047, 12.51208782196045, 12.33828067779541, 12.388229370117188, 12.675881385803223, 48.670172691345215, 12.715458869934082, 12.655258178710938, 12.56561279296875, 12.48025894165039, 12.570858001708984, 12.576818466186523, 12.558817863464355, 12.547492980957031, 12.526273727416992, 12.437939643859863, 12.646794319152832, 12.477755546569824, 12.460947036743164, 12.547969818115234, 12.44652271270752, 12.841463088989258, 12.75932788848877, 12.92574405670166, 12.514114379882813, 12.583613395690918, 12.578845024108887, 12.407422065734863, 12.636065483093262, 12.57479190826416, 12.838244438171387, 12.690901756286621, 12.56704330444336, 12.559890747070313, 12.494325637817383, 12.616157531738281, 12.534499168395996, 12.502670288085938, 12.35818862915039, 12.466907501220703, 12.595653533935547, 12.606263160705566, 12.660384178161621, 12.574434280395508, 12.456893920898438, 12.555241584777832, 48.628807067871094, 12.716293334960938, 12.487292289733887, 13.444185256958008, 12.719392776489258, 12.558698654174805, 12.605071067810059, 12.465715408325195, 12.7105712890625, 12.545228004455566, 12.51375675201416, 12.520909309387207, 12.514114379882813, 12.679100036621094, 12.546062469482422, 12.488961219787598, 12.525796890258789, 12.389779090881348, 12.413740158081055, 12.660980224609375, 12.431502342224121, 12.64965534210205, 12.583494186401367, 12.446403503417969, 12.58242130279541, 12.324810028076172, 12.413859367370605, 12.565255165100098, 48.77448081970215],
  "Depth": 8.5,
  "Expectation Value": -3.13916015625,
  "Optimal Expectation Value": -3.4939591884613037,
  "Optimizer durations [ms]": [28.634, 28.494, 28.572, 28.069, 28.538, 28.195, 28.451, 28.288, 28.213, 28.71, 28.048, 28.308, 28.667, 29.279, 28.235, 28.674, 28.66, 28.046, 28.409, 28.948, 28.049, 28.784, 29.318, 28.148, 28.618, 28.71, 28.757, 28.573, 28.331, 28.238, 28.04, 28.3, 28.325, 28.328, 28.278, 27.966, 28.445, 28.282, 27.776, 28.291, 28.52, 27.775, 28.469, 28.399, 27.921, 28.217, 28.144, 28.358, 28.718, 28.836, 28.22, 28.362, 28.477, 28.293, 28.961, 28.235, 28.003, 28.168, 28.578, 28.652, 28.371, 28.389, 28.097, 28.24, 28.386, 28.119, 28.163, 27.923, 27.919, 28.471, 100.603, 28.889, 28.404, 28.293, 28.158, 28.29, 28.424, 28.377, 28.243, 28.2, 28.086, 28.593, 28.094, 28.129, 28.389, 28.046, 28.889, 28.802, 29.153, 28.164, 28.394, 28.456, 27.971, 28.517, 28.498, 28.866, 28.674, 28.387, 28.382, 28.17, 28.36, 28.336, 28.146, 27.923, 28.108, 28.371, 28.505, 28.478, 28.492, 28.036, 28.334, 100.727, 28.741, 28.166, 30.051, 28.799, 28.295, 28.322, 28.072, 28.775, 28.349, 28.332, 28.224, 28.128, 28.541, 28.287, 28.121, 28.225, 27.96, 28.156, 28.603, 28.063, 28.428, 28.326, 28.086, 28.337, 27.868, 27.964, 28.349, 100.94],
  "Optimizer iterations": 140,
  "Optimizer params": [0.47049888032871895, 0.9229110325641512, 0.30614526196763253, 0.12815685970536936, 0.3934422793520042, 0.644467533250727, 0.7872029387046735, 0.17981168193138508, 0.6373117242893125, 0.14455067267445318, 0.3678063497595263, 0.8343306632871134],
  "P": 0,
  "Problem": "IC",
  "QJob durations [ms]": [12.68017292022705, 12.651562690734863, 12.60364055633545, 12.494206428527832, 12.703537940979004, 12.487292289733887, 12.602567672729492, 12.557387351989746, 12.49241828918457, 12.740254402160645, 12.40992546081543, 12.543559074401855, 12.715816497802734, 12.988805770874023, 12.438178062438965, 12.648940086364746, 12.697815895080566, 12.40694522857666, 12.638092041015625, 12.8096342086792, 12.430667877197266, 12.744307518005371, 12.862801551818848, 12.456297874450684, 12.726664543151855, 12.720346450805664, 12.674212455749512, 12.718677520751953, 12.545466423034668, 12.510180473327637, 12.459039688110352, 12.552976608276367, 12.521982192993164, 12.581229209899902, 12.525200843811035, 12.417197227478027, 12.596487998962402, 12.568116188049316, 12.328863143920898, 12.564659118652344, 12.584924697875977, 12.30311393737793, 12.574553489685059, 12.619853019714355, 12.423992156982422, 12.527942657470703, 12.415051460266113, 12.584328651428223, 12.763023376464844, 12.725114822387695, 12.511610984802246, 12.566089630126953, 12.68160343170166, 12.509822845458984, 12.895345687866211, 12.497544288635254, 12.458205223083496, 12.474298477172852, 12.683391571044922, 12.717604637145996, 12.528061866760254, 12.59148120880127, 12.457609176635742, 12.446403503417969, 12.552380561828613, 12.488842010498047, 12.51208782196045, 12.33828067779541, 12.388229370117188, 12.675881385803223, 48.670172691345215, 12.715458869934082, 12.655258178710938, 12.56561279296875, 12.48025894165039, 12.570858001708984, 12.576818466186523, 12.558817863464355, 12.547492980957031, 12.526273727416992, 12.437939643859863, 12.646794319152832, 12.477755546569824, 12.460947036743164, 12.547969818115234, 12.44652271270752, 12.841463088989258, 12.75932788848877, 12.92574405670166, 12.514114379882813, 12.583613395690918, 12.578845024108887, 12.407422065734863, 12.636065483093262, 12.57479190826416, 12.838244438171387, 12.690901756286621, 12.56704330444336, 12.559890747070313, 12.494325637817383, 12.616157531738281, 12.534499168395996, 12.502670288085938, 12.35818862915039, 12.466907501220703, 12.595653533935547, 12.606263160705566, 12.660384178161621, 12.574434280395508, 12.456893920898438, 12.555241584777832, 48.628807067871094, 12.716293334960938, 12.487292289733887, 13.444185256958008, 12.719392776489258, 12.558698654174805, 12.605071067810059, 12.465715408325195, 12.7105712890625, 12.545228004455566, 12.51375675201416, 12.520909309387207, 12.514114379882813, 12.679100036621094, 12.546062469482422, 12.488961219787598, 12.525796890258789, 12.389779090881348, 12.413740158081055, 12.660980224609375, 12.431502342224121, 12.64965534210205, 12.583494186401367, 12.446403503417969, 12.58242130279541, 12.324810028076172, 12.413859367370605, 12.565255165100098, 48.77448081970215],
  "QPU": "9000001",
  "Qubits": 3,
  "Queue durations [ms]": [0.0, 0.0, 0.0, 0.0, 0.0, 0.0, 0.0, 0.0, 0.0, 0.0, 0.0, 0.0, 0.0, 0.0, 0.0, 0.0, 0.0, 0.0, 0.0, 0.0, 0.0, 0.0, 0.0, 0.0, 0.0, 0.0, 0.0, 0.0, 0.0, 0.0, 0.0, 0.0, 0.0, 0.0, 0.0, 0.0, 0.0, 0.0, 0.0, 0.0, 0.0, 0.0, 0.0, 0.0, 0.0, 0.0, 0.0, 0.0, 0.0, 0.0, 0.0, 0.0, 0.0, 0.0, 0.0, 0.0, 0.0, 0.0, 0.0, 0.0, 0.0, 0.0, 0.0, 0.0, 0.0, 0.0, 0.0, 0.0, 0.0, 0.0, 0.0, 0.0, 0.0, 0.0, 0.0, 0.0, 0.0, 0.0, 0.0, 0.0, 0.0, 0.0, 0.0, 0.0, 0.0, 0.0, 0.0, 0.0, 0.0, 0.0, 0.0, 0.0, 0.0, 0.0, 0.0, 0.0, 0.0, 0.0, 0.0, 0.0, 0.0, 0.0, 0.0, 0.0, 0.0, 0.0, 0.0, 0.0, 0.0, 0.0, 0.0, 0.0, 0.0, 0.0, 0.0, 0.0, 0.0, 0.0, 0.0, 0.0, 0.0, 0.0, 0.0, 0.0, 0.0, 0.0, 0.0, 0.0, 0.0, 0.0, 0.0, 0.0, 0.0, 0.0, 0.0, 0.0, 0.0, 0.0, 0.0, 0.0],
  "Shots": 4096,
  "Size": 3,
  "Total Algorithm duration [s]": 4.189,
  "Total Classic duration [s]": 2.319996823310852,
  "Total Quantum duration [s]": 1.869003176689148
}
