{
  "Circuit execution durations [ms]": [0.4254000086802989, 0.4785999917658046, 0.41819999751169235, 0.4337499995017424, 0.46010001096874475, 0.43154999730177224, 0.41909998981282115, 0.41530000453349203, 0.42464998841751367, 0.42594999831635505, 0.4195500077912584, 0.43065000500064343, 0.4189000028418377, 0.4164499987382442, 0.4156500071985647, 0.4235499945934862, 0.42174999543931335, 0.42320000648032874, 0.42455000220797956, 0.42529999336693436, 0.42564999603200704, 0.42074998782482, 0.4307000053813681, 0.4192000051261857, 0.4224500007694587, 0.4165499994996935, 0.41635001252871007, 0.4215499939164147, 0.4193500062683597, 0.42144999315496534, 0.4147500003455207, 0.42440000106580555, 0.4234000080032274, 0.4457500035641715, 0.4235499945934862, 0.4211000050418079, 0.4263500013621524, 0.4134500049985945, 0.42114999087061733, 0.444350007455796, 0.4329999937908724, 0.41865000093821436, 0.4236999957356602, 0.4210500046610832, 0.41700000292621553, 0.43080000614281744, 0.42135000694543123, 0.42475000373087823, 0.4216999950585887, 0.4221499984851107, 0.4749500076286495, 0.4240499984007329, 0.4266499890945852, 0.4271000070730224, 0.4394000134197995, 0.4212500061839819, 0.4317999992053956, 0.42389999725855887, 0.43065000500064343, 0.41604999569244683, 0.4257499967934564, 0.42389999725855887, 0.4170500033069402, 0.415150003391318, 0.4202499985694885, 0.417799994465895, 0.4230999911669642, 0.4280499997548759, 0.42174999543931335, 0.4371499962871894, 0.4138000076636672, 0.42630000098142773, 0.4188499879091978, 0.4167000006418675, 0.42270000267308205, 0.4136500065214932, 0.4565000126603991, 0.4137499927310273, 0.418550000176765, 0.42729999404400587, 0.42379999649710953, 0.41700000292621553, 0.42359999497421086, 0.4152000037720427, 0.4285000031813979, 0.417199989897199, 0.4257499967934564, 0.4157499934080988, 0.43840000580530614, 0.41799999598879367, 0.42559999565128237, 0.42645000212360173, 0.42359999497421086, 0.4189000028418377, 0.41760000749491155, 0.4143499972997233, 0.41519998922012746, 0.4359499871497974, 0.4339500010246411, 0.4456000024219975, 0.43909999658353627, 0.41790000977925956, 0.4285000031813979, 0.4305500042391941, 0.44469999556895345, 0.570549993426539, 0.4165000136708841, 0.4187500016996637, 0.417949995608069, 0.4231000057188794, 0.464299984741956, 0.4272499936632812, 0.4198500100756064, 0.4243000003043562, 0.41725000482983887, 0.4259000124875456, 0.42135000694543123, 0.43634999019559473, 0.42424999992363155, 0.4215500084683299, 0.42209999810438603, 0.4288000054657459, 0.41385000804439187, 0.4282000008970499, 0.4226999881211668, 0.414549998822622, 0.4143499972997233, 0.4228000034345314, 0.4270000063115731, 0.4244500014465302, 0.4261499998392537, 0.41930000588763505, 0.42114999087061733, 0.4243000003043562, 0.4245000018272549, 0.41429999691899866, 0.4232500068610534, 0.4189000028418377, 0.42424999992363155, 0.4199999966658652, 0.41974999476224184, 0.458399998024106, 0.41525000415276736, 0.42189999658148736, 0.417499992181547, 0.4199499962851405, 0.4200999974273145, 0.43015000119339675, 0.41485000110697, 0.4158500087214634, 0.4176500078756362, 0.41789999522734433, 0.4149999876972288, 0.411750006605871, 0.42529999336693436, 0.41739999142009765, 0.41959999362006783, 0.41880000208038837, 0.41730000521056354, 0.42570001096464694, 0.4258999979356304, 0.411150002037175, 0.4219999973429367, 0.41649999911896884, 0.4266500036465004, 0.4215499939164147, 0.41784999484661967, 0.41125000279862434, 0.40889999945648015, 0.4308499919716269, 0.41464999958407134, 0.42204999772366136, 0.4251000063959509, 0.41825001244433224, 0.4268500051693991, 0.4195500077912584, 0.4322500026319176, 0.41885000246111304, 0.42314999154768884, 0.41930000588763505, 0.41754999256227165, 0.4213999927742407, 0.4260499990778044, 0.4266500036465004, 0.418249997892417, 0.42550000944174826, 0.4312499950174242, 0.42240000038873404, 0.41804999636951834, 0.41545000567566603, 0.41819999751169235, 0.41795001015998423, 0.44454999442677945, 0.4364500055089593, 0.4158500087214634, 0.43899999582208693, 0.41325000347569585, 0.421949996962212, 0.4138000076636672, 0.4197999951429665, 0.43104999349452555, 0.4259999986970797, 0.42055000085383654, 0.42070000199601054, 0.4165499994996935, 0.4290000069886446, 0.4144000122323632, 0.42195001151412725, 0.42520000715740025, 0.41510000301059335, 0.41849999979604036, 0.42159999429713935, 0.3952999977627769, 0.4226000019116327, 0.4760000010719523, 0.41629999759607017, 0.41599999531172216, 0.41185000736732036, 0.4241999995429069, 0.48230000538751483, 0.4304000030970201, 0.4918999911751598, 0.42320000648032874, 0.417349991039373, 0.4638999962480739, 0.4505500110099092, 0.4327500064391643, 0.38255000254139304, 0.4244500014465302, 0.4208000027574599, 0.41569999302737415, 0.4436999879544601, 0.4194000066490844, 0.46615001338068396, 0.44410000555217266, 0.4427999956533313, 0.4244500014465302, 0.4204500000923872, 0.4215499939164147, 0.4238499968778342, 0.4189500032225624, 0.42830000165849924, 0.45599999430123717, 0.4147500003455207, 0.42469998879823834, 0.41584999416954815, 0.41939999209716916, 0.43694999476429075, 0.4202499985694885, 0.43139999615959823, 0.4294499958632514, 0.41819999751169235, 0.41619999683462083, 0.4165999998804182, 0.42204999772366136, 0.42064998706337065, 0.42195001151412725, 0.41810001130215824, 0.4250000056345016, 0.4301000008126721, 0.42305000533815473, 0.41795001015998423, 0.4221499984851107, 0.4258499975549057, 0.4228000034345314, 0.42219999886583537, 0.4155000060563907, 0.43524999637156725, 0.4374999989522621, 0.4273999948054552, 0.4094500036444515, 0.4319500003475696, 0.4154999915044755, 0.4224500007694587, 0.41969999438151717, 0.4233999934513122, 0.4229500045767054, 0.4409499961184338, 0.418550000176765, 0.43515001016203314, 0.4409499961184338, 0.41784999484661967, 0.41924999095499516, 0.42094998934771866, 0.41825001244433224, 0.4322500026319176, 0.4272499936632812, 0.42050000047311187, 0.4329499934101477, 0.41464999958407134, 0.4410499968798831, 0.413949994253926, 0.42609999945852906, 0.42389999725855887, 0.4278000124031678, 0.4239999980200082, 0.41349999082740396, 0.421949996962212, 0.41700000292621553, 0.4360499879112467, 0.44800000614486635, 0.4194000066490844, 0.42394999763928354, 0.4337499995017424, 0.4277499974705279, 0.41625001176726073, 0.4329499934101477, 0.41930000588763505, 0.5521000130102038, 0.5797999911010265, 0.4199999966658652, 0.41710000368766487, 0.4208000027574599, 0.41485000110697, 0.4787499929079786, 0.41709998913574964, 0.4234999942127615, 0.41179999243468046, 0.41730000521056354, 0.44410000555217266, 0.41199999395757914, 0.4133500042371452, 0.41819999751169235, 0.41530000453349203, 0.46279998787213117, 0.418099996750243, 0.42799999937415123, 0.421949996962212, 0.4235499945934862, 0.4191000043647364, 0.41700000292621553, 0.41715000406838953, 0.42215001303702593, 0.41554999188520014, 0.42209999810438603, 0.4139500088058412, 0.4202499985694885, 0.4155999922659248, 0.4188499879091978, 0.41030001011677086, 0.4272499936632812, 0.4228000034345314, 0.4167000006418675, 0.41119998786598444, 0.41900000360328704, 0.4308500065235421, 0.4243500006850809, 0.41849999979604036, 0.4219000111334026, 0.41725000482983887, 0.4225000011501834, 0.4327999922679737, 0.4276000108802691, 0.4378500016173348, 0.4294499958632514, 0.417349991039373, 0.42460000258870423, 0.41485000110697, 0.41969999438151717, 0.4221499984851107, 0.42320000648032874, 0.421799995820038, 0.42455000220797956, 0.4156500071985647, 0.41745000635273755, 0.4208000027574599, 0.41524998960085213, 0.4130000015720725, 0.4098499921383336, 0.418550000176765, 0.4150999884586781, 0.40780000563245267, 0.42424999992363155, 0.42264998774044216, 0.4200999974273145, 0.42645000212360173, 0.4380999889690429, 0.41704998875502497, 0.42004999704658985, 0.42270000267308205, 0.42130000656470656, 0.41665000026114285, 0.4193500062683597, 0.4174499918008223, 0.4295499966247007, 0.40859999717213213, 0.41965000855270773, 0.4244500014465302, 0.418550000176765, 0.43479999294504523, 0.41554999188520014, 0.4186000005574897, 0.4199000104563311, 0.41789999522734433, 0.4245000018272549, 0.418099996750243, 0.4317999992053956, 0.42675000440794975, 0.4186000005574897, 0.41429999691899866, 0.41420001070946455, 0.418550000176765, 0.4255499952705577, 0.41310000233352184, 0.4194999928586185, 0.41444999806117266, 0.41554999188520014, 0.4334999975981191, 0.42949999624397606, 0.42720000783447176, 0.418550000176765, 0.4321000014897436, 0.4238499968778342, 0.4130999877816066, 0.40889999945648015, 0.41280000004917383, 0.42100000428035855, 0.41900000360328704, 0.41024999518413097, 0.42409999878145754, 0.4489499988267198, 0.4180000105407089, 0.4123999970033765, 0.4253000079188496, 0.4246500029694289, 0.43215000187046826, 0.41865000093821436, 0.4147500003455207, 0.43154999730177224, 0.42305000533815473, 0.4134499904466793, 0.4292999947210774, 0.4202999989502132, 0.41105000127572566, 0.42074998782482, 0.4556500061880797, 0.41834999865386635, 0.42440000106580555, 0.41754999256227165, 0.42039999971166253, 0.42964999738615006, 0.4072500014444813, 0.42455000220797956, 0.4251000063959509, 0.4138000076636672, 0.6011499935993925, 0.4452499997569248, 0.42070000199601054, 0.42815000051632524, 0.4320500011090189, 0.428449988248758, 0.4196499940007925, 0.41774999408517033, 0.43125000956933945, 0.42329999268986285, 0.411000000895001, 0.4192999913357198, 0.41849999979604036, 0.42749999556690454, 0.42409999878145754, 0.41449999844189733, 0.41754999256227165, 0.4158999945502728, 0.41870000131893903, 0.4319500003475696, 0.42389999725855887, 0.4167500010225922, 0.44550000166054815, 0.4204500000923872, 0.4195000074105337, 0.41885000246111304, 0.42070000199601054, 0.4189000028418377, 0.4249500052537769, 0.4138000076636672, 0.43495000863913447, 0.42224999924656004, 0.4217000096105039, 0.41435001185163856, 0.42209999810438603, 0.42749999556690454, 0.4232499923091382, 0.45355000474955887, 0.4285500035621226, 0.42004999704658985, 0.42070000199601054, 0.4222999996272847, 0.4143499972997233, 0.41865000093821436, 0.42055000085383654, 0.43339999683666974, 0.42484998994041234, 0.42905000736936927, 0.4252500075381249, 0.42204999772366136, 0.4190499894320965, 0.4199999966658652, 0.42594999831635505, 0.415000002249144, 0.4120999947190285, 0.4191499901935458, 0.42300000495743006, 0.4249499907018617, 0.42475000373087823, 0.42174999543931335, 0.4226000019116327, 0.41700000292621553, 0.42329999268986285, 0.4250000056345016, 0.42499999108258635, 0.41619999683462083, 0.42815000051632524, 0.4192500055069104, 0.4153500049142167, 0.41849999979604036, 0.41959999362006783, 0.42320000648032874, 0.4193500062683597, 0.47569998423568904, 0.4160999960731715, 0.4189000028418377, 0.4232500068610534, 0.5706499941879883, 0.45449999743141234, 0.4159499949309975, 0.5438999942271039, 0.45735001913271844, 0.4153500049142167, 0.5928499886067584, 0.4227500030538067, 0.4796499997610226, 0.4225000011501834, 0.4388999950606376, 0.46875000407453626, 0.4199499962851405, 0.38115000643301755, 0.42209999810438603, 0.4188499879091978, 0.4120999947190285, 0.4323999892221764, 0.46799999836366624, 0.4320500011090189, 0.4468500119401142, 0.4089499998372048, 0.41870000131893903, 0.4193499917164445, 0.42520000715740025, 0.4118000069865957, 0.4199499962851405, 0.41900000360328704, 0.42129999201279134, 0.41680000140331686, 0.41634999797679484, 0.42145000770688057, 0.41874998714774847, 0.4103499959455803, 0.41784999484661967, 0.4170500033069402, 0.4227500030538067, 0.44919998617842793, 0.4226500022923574, 0.41989999590441585, 0.421349992393516, 0.41870000131893903, 0.42550000944174826, 0.4139500088058412, 0.4116999916732311, 0.4318999999668449, 0.41700000292621553, 0.4202499985694885, 0.4126999992877245, 0.4174000059720129, 0.41825001244433224, 0.4187500016996637, 0.42100000428035855, 0.4259999986970797, 0.4210500046610832, 0.43995000305585563, 0.4273999948054552, 0.42219999886583537, 0.42165000922977924, 0.4122499958612025, 0.4229500045767054, 0.4147500003455207, 0.42074998782482, 0.41709998913574964, 0.421199991251342, 0.421199991251342, 0.448200007667765, 0.4209000035189092, 0.41944999247789383, 0.41909998981282115, 0.42570001096464694, 0.42025001312140375, 0.42899999243672937, 0.42684999061748385, 0.4189500032225624, 0.41784999484661967, 0.4208000027574599, 0.42270000267308205, 0.4442999925231561, 0.4131500027142465, 0.41510000301059335, 0.42675000440794975, 0.40920000174082816, 0.4322500026319176, 0.42174999543931335, 0.43885000923182815, 0.421199991251342, 0.4126999992877245, 0.41649999911896884, 0.4226000019116327, 0.42910000775009394, 0.41974999476224184, 0.4202999989502132, 0.4192999913357198, 0.4263500013621524, 0.5551000067498535, 0.5110999918542802, 0.42144999315496534, 0.418099996750243, 0.415000002249144, 0.42335000762250274, 0.4302999877836555, 0.41965000855270773, 0.4294500104151666, 0.46505000500474125, 0.418550000176765, 0.4216999950585887, 0.4235500091454014, 0.41974999476224184, 0.41885000246111304, 0.41495000186841935, 0.4141999961575493, 0.4125499981455505, 0.4144500126130879, 0.4219999973429367, 0.4187500016996637, 0.41789999522734433, 0.4333499964559451, 0.4252499929862097, 0.4309000069042668, 0.42144999315496534, 0.418399999034591, 0.4320500011090189, 0.42764999670907855, 0.4131500027142465, 0.43145001109223813, 0.421049990109168, 0.55340000835713, 0.43230000301264226, 0.41745000635273755, 0.5037000082666054, 0.4164499987382442, 0.4254500090610236, 0.4239999980200082, 0.41665000026114285, 0.4196499940007925, 0.41464999958407134, 0.418099996750243, 0.42004999704658985, 0.4118000069865957, 0.4230499907862395, 0.42174999543931335, 0.4096000047866255, 0.4265000025043264, 0.41795001015998423, 0.41525000415276736, 0.4410999972606078, 0.4207500023767352, 0.42690000555012375, 0.414699999964796, 0.41795001015998423, 0.4263500013621524, 0.4268999909982085, 0.4227499885018915, 0.4259999986970797, 0.4159500094829127, 0.48915001389104873, 0.41980000969488174, 0.42050000047311187, 0.4140499950153753, 0.41354999120812863, 0.4397000011522323, 0.41980000969488174, 0.42055000085383654, 0.4131499881623313, 0.41220001003239304, 0.4373500123620033, 0.4197000089334324, 0.4206500016152859, 0.42055000085383654, 0.4234999942127615, 0.4437500028871, 0.4227500030538067, 0.4248000041116029, 0.4327500064391643, 0.4240499984007329, 0.42729999404400587, 0.41724999027792364, 0.4307999915909022, 0.4732999950647354, 0.41880000208038837, 0.4191000043647364, 0.43920001189690083, 0.4279500135453418, 0.41649999911896884, 0.4182000120636076, 0.42070000199601054, 0.4236999957356602, 0.4258999979356304, 0.4106499982299283, 0.4175000067334622, 0.4683500010287389, 0.4240499984007329, 0.4140499950153753, 0.42490000487305224, 0.42159999429713935, 0.41214999509975314, 0.4628999886335805, 0.4266499890945852, 0.44874999730382115, 0.4444499936653301, 0.42359999497421086, 0.4140999953961, 0.41900000360328704, 0.42475000373087823, 0.41199999395757914, 0.41215000965166837, 0.41915000474546105, 0.47024998639244586, 0.4252500075381249, 0.4192000051261857, 0.42699999175965786, 0.4286500043235719, 0.4326999915065244, 0.42910000775009394, 0.4202499985694885, 0.4184499994153157, 0.4170500033069402, 0.4123999970033765, 0.41604999569244683, 0.41879998752847314, 0.43200000072829425, 0.4368499940028414, 0.41865000093821436, 0.42115000542253256, 0.42565001058392227, 0.41819999751169235, 0.4211000050418079, 0.4203500138828531, 0.4249500052537769, 0.41205000889021903, 0.4277499974705279, 0.4383999912533909, 0.4294499958632514, 0.4150500026298687, 0.417349991039373, 0.43184999958612025, 0.41014999442268163, 0.4253999941283837, 0.417199989897199, 0.414249996538274, 0.4209000035189092, 0.4138000076636672, 0.4218499962007627, 0.41634999797679484, 0.43184999958612025, 0.4191000043647364, 0.4133000038564205, 0.4224500007694587, 0.4317999992053956, 0.4175999929429963, 0.41614999645389616, 0.40869999793358147, 0.4243000003043562, 0.41340000461786985, 0.42380001104902476, 0.43920001189690083, 0.41259999852627516, 0.4314499965403229, 0.41485000110697, 0.4192000051261857, 0.4168500017840415, 0.4186000005574897, 0.43080000614281744, 0.42409999878145754, 0.4156499926466495, 0.417949995608069, 0.41334998968522996, 0.42335000762250274, 0.4212500061839819, 0.42969999776687473, 0.4125499981455505, 0.4230999911669642, 0.4645000008167699, 0.41834999865386635, 0.41170000622514635, 0.4172000044491142, 0.40950000402517617, 0.4265000025043264, 0.4231000057188794, 0.4157999937888235, 0.41870000131893903, 0.4226500022923574, 0.41784999484661967, 0.4226999881211668, 0.42549999488983303, 0.4156500071985647, 0.418249997892417, 0.4298999992897734, 0.4238499968778342, 0.4227499885018915, 0.4239999980200082, 0.41120000241789967, 0.40944998909253627, 0.41280000004917383, 0.4233999934513122, 0.42380001104902476, 0.41325000347569585, 0.4233499930705875, 0.41310000233352184, 0.4117499920539558, 0.41849999979604036, 0.4266500036465004, 0.4163999983575195, 0.4799499874934554, 0.41289998625870794, 0.4078999918419868, 0.41349999082740396, 0.5707499949494377, 0.440200004959479, 0.42100000428035855, 0.5627999926218763, 0.4602999979397282, 0.4248000041116029, 0.43339999683666974, 0.42374999611638486, 0.4249500052537769, 0.4167000006418675, 0.42124999163206667, 0.4660499980673194, 0.4156499926466495, 0.41214999509975314, 0.4309499927330762, 0.417949995608069, 0.5677499866578728, 0.4167500010225922, 0.4291499935789034, 0.5969999911030754, 0.5378999921958894, 0.41120000241789967, 0.4182999982731417, 0.41665000026114285, 0.4261499998392537, 0.41954999323934317, 0.4213999927742407, 0.42470000335015357, 0.41769999370444566, 0.41295000119134784, 0.421049990109168, 0.4260499990778044, 0.41694998799357563, 0.41880000208038837, 0.4388499946799129, 0.42180001037195325, 0.4235499945934862, 0.41044999670702964, 0.40920000174082816, 0.41584999416954815, 0.4273999948054552, 0.4132000030949712, 0.417799994465895, 0.44084999535698444, 0.42785001278389245, 0.43245000415481627, 0.41730000521056354, 0.421799995820038, 0.41444999806117266, 0.4216999950585887, 0.41789999522734433, 0.41560000681784004, 0.4212000058032572, 0.4271500074537471, 0.41310000233352184, 0.4332999960752204, 0.42019999818876386, 0.41459999920334667, 0.42684999061748385, 0.411300003179349, 0.41485000110697, 0.4195000074105337, 0.42204999772366136, 0.4202499985694885],
  "Depth": 18.5,
  "Expectation Value": -8.438569068908691,
  "Optimal Expectation Value": -9.83795166015625,
  "Optimizer durations [ms]": [28.676, 10.905, 9.189, 9.582, 10.186, 9.563, 9.495, 9.275, 9.543, 9.458, 9.539, 9.639, 9.436, 9.304, 9.332, 9.447, 9.234, 9.475, 9.881, 9.211, 9.695, 9.22, 9.85, 9.537, 9.266, 9.303, 9.523, 9.476, 9.525, 9.222, 9.453, 9.413, 9.171, 10.247, 9.347, 9.435, 9.865, 9.029, 9.45, 9.902, 9.607, 9.513, 9.463, 9.28, 9.491, 9.614, 9.346, 9.43, 9.465, 9.408, 10.5, 9.484, 9.402, 9.465, 10.147, 9.379, 9.55, 9.426, 9.433, 9.49, 9.471, 9.252, 9.485, 9.153, 9.58, 9.151, 9.624, 9.594, 9.278, 9.728, 9.596, 9.297, 9.498, 9.433, 9.276, 9.327, 9.84, 9.419, 9.609, 9.485, 9.263, 9.751, 9.239, 9.654, 9.313, 9.574, 9.491, 9.193, 9.82, 9.432, 9.512, 9.604, 9.585, 9.224, 9.662, 9.411, 9.262, 9.786, 9.827, 11.225, 9.565, 9.734, 9.602, 9.638, 18.314, 15.557, 9.391, 9.22, 9.383, 9.235, 10.118, 9.39, 9.417, 9.597, 9.102, 9.606, 9.316, 9.747, 9.289, 9.457, 9.548, 9.68, 9.201, 9.513, 9.55, 9.273, 9.184, 9.498, 9.584, 9.437, 9.75, 9.174, 9.545, 9.59, 9.311, 9.502, 9.47, 9.789, 9.463, 9.279, 9.406, 10.154, 9.005, 9.408, 9.527, 9.152, 9.688, 9.611, 9.065, 9.488, 9.663, 9.098, 9.506, 9.326, 9.647, 9.241, 9.203, 9.631, 9.203, 9.323, 9.53, 9.528, 9.256, 9.334, 9.68, 9.383, 9.208, 9.507, 9.145, 9.745, 9.267, 9.468, 9.46, 9.327, 9.774, 9.125, 9.698, 9.202, 9.744, 9.236, 9.703, 9.511, 9.662, 9.577, 9.318, 9.578, 9.609, 9.525, 9.379, 9.317, 9.277, 9.302, 9.75, 9.741, 9.488, 9.707, 9.361, 9.476, 9.313, 9.272, 9.895, 9.409, 9.439, 9.435, 9.265, 9.422, 9.57, 9.348, 9.561, 9.379, 9.49, 9.353, 18.24, 9.266, 10.475, 9.532, 9.168, 9.399, 9.248, 10.648, 9.697, 23.602, 9.262, 9.665, 12.918, 9.886, 9.729, 23.892, 9.441, 9.579, 9.122, 10.042, 9.548, 10.284, 26.857, 10.035, 9.637, 9.432, 10.039, 9.617, 9.443, 9.482, 10.159, 9.366, 9.486, 9.322, 9.212, 9.806, 9.442, 9.472, 9.3, 9.762, 9.276, 9.26, 9.62, 9.704, 9.439, 9.384, 9.574, 9.514, 9.525, 9.549, 9.503, 9.628, 9.401, 9.49, 9.268, 9.696, 9.809, 9.596, 9.142, 9.763, 9.349, 9.489, 9.405, 9.44, 9.504, 9.687, 9.403, 9.765, 9.847, 9.161, 9.456, 9.148, 9.717, 9.711, 9.466, 9.55, 9.592, 8.998, 9.908, 9.072, 9.519, 9.64, 9.491, 9.604, 9.266, 9.462, 9.102, 9.747, 9.636, 9.7, 9.528, 9.488, 9.882, 9.329, 9.579, 9.527, 12.047, 25.54, 9.506, 9.097, 9.594, 9.045, 10.513, 9.372, 9.394, 9.266, 9.677, 9.907, 9.071, 9.413, 9.317, 9.306, 10.165, 9.186, 9.643, 9.396, 9.399, 9.563, 9.286, 9.334, 9.465, 9.098, 9.753, 9.474, 9.378, 9.073, 9.581, 9.185, 9.415, 10.674, 9.706, 9.344, 9.52, 9.675, 9.525, 9.291, 9.552, 9.122, 9.713, 9.675, 9.378, 9.865, 9.393, 9.449, 9.333, 9.318, 9.466, 9.538, 9.475, 9.591, 9.427, 9.443, 9.489, 9.131, 9.357, 9.304, 9.278, 9.257, 9.221, 9.487, 9.342, 9.473, 9.506, 9.613, 9.666, 9.45, 9.198, 9.566, 9.543, 9.023, 9.597, 9.153, 9.648, 9.289, 9.437, 9.598, 9.314, 9.701, 9.37, 9.341, 9.426, 9.361, 9.655, 9.281, 9.698, 9.348, 9.513, 9.37, 9.214, 9.418, 9.547, 9.35, 9.23, 9.554, 9.178, 9.604, 9.59, 9.463, 9.209, 9.756, 9.594, 28.239, 9.303, 9.285, 9.325, 9.432, 9.376, 9.52, 9.782, 9.498, 9.176, 9.554, 9.41, 9.596, 9.25, 9.562, 9.586, 9.591, 9.268, 9.513, 9.206, 9.494, 9.445, 9.955, 9.34, 9.282, 9.487, 9.2, 9.604, 9.157, 9.467, 9.382, 9.186, 12.902, 10.1, 9.34, 10.753, 9.374, 9.591, 9.317, 9.159, 9.697, 9.355, 9.343, 9.435, 9.444, 9.385, 9.435, 9.365, 9.343, 9.161, 9.269, 9.639, 9.347, 9.542, 9.829, 9.521, 9.658, 9.315, 9.192, 9.618, 9.588, 9.155, 9.847, 9.396, 9.387, 9.282, 9.399, 9.652, 9.244, 10.029, 9.842, 9.478, 9.776, 9.427, 9.275, 9.336, 9.451, 9.83, 9.29, 9.624, 9.513, 9.423, 9.389, 9.318, 9.523, 9.025, 9.557, 9.357, 9.254, 9.762, 9.493, 9.574, 9.395, 9.394, 9.334, 9.643, 9.665, 9.39, 9.341, 9.571, 9.397, 9.474, 9.1, 9.753, 10.354, 10.223, 9.37, 17.852, 9.325, 12.579, 10.07, 9.271, 11.739, 10.041, 9.447, 12.59, 15.894, 10.345, 9.599, 11.118, 10.501, 9.527, 21.381, 9.423, 9.203, 9.306, 9.922, 10.347, 9.515, 27.385, 9.49, 9.431, 11.932, 9.38, 9.386, 9.419, 9.371, 9.526, 9.183, 9.241, 9.681, 9.308, 9.018, 9.58, 9.406, 9.172, 9.84, 9.648, 9.45, 9.288, 9.7, 9.524, 8.999, 9.435, 9.826, 9.286, 9.358, 9.457, 9.072, 9.454, 9.388, 9.418, 9.631, 9.214, 9.663, 9.692, 9.266, 9.849, 9.238, 9.494, 8.971, 9.622, 9.34, 9.429, 9.462, 9.956, 9.366, 9.233, 9.335, 9.667, 9.462, 9.411, 9.738, 9.254, 9.482, 9.505, 9.272, 9.987, 8.953, 9.427, 9.508, 9.218, 9.776, 9.262, 10.367, 9.386, 9.288, 9.17, 9.663, 9.618, 9.259, 9.752, 9.362, 9.509, 24.118, 11.215, 9.429, 9.257, 9.432, 9.372, 9.842, 9.193, 9.632, 10.029, 9.628, 9.211, 9.535, 9.388, 9.63, 9.323, 9.193, 9.222, 9.582, 9.51, 9.292, 9.382, 9.448, 9.555, 9.856, 9.495, 9.304, 9.621, 9.517, 9.326, 9.71, 9.407, 12.014, 9.491, 9.229, 10.811, 9.307, 9.602, 9.34, 9.494, 9.118, 9.599, 9.414, 9.332, 9.375, 9.618, 9.394, 9.16, 9.526, 9.349, 9.198, 9.727, 9.365, 9.746, 9.248, 9.38, 9.409, 9.575, 9.496, 9.667, 9.329, 10.909, 9.368, 9.25, 9.489, 9.075, 10.024, 9.29, 9.343, 9.303, 9.287, 9.781, 9.105, 9.361, 9.322, 9.543, 10.184, 9.279, 9.326, 9.585, 9.552, 9.669, 9.461, 9.513, 10.482, 9.252, 9.524, 9.375, 9.586, 9.502, 9.242, 9.192, 9.58, 9.666, 9.079, 9.247, 10.097, 9.675, 9.316, 9.374, 9.216, 9.571, 9.663, 9.509, 27.823, 10.074, 9.391, 9.493, 9.5, 9.474, 9.303, 9.05, 9.355, 10.698, 9.596, 9.417, 9.356, 9.94, 9.473, 9.841, 9.257, 9.274, 9.537, 9.085, 9.578, 9.255, 9.74, 9.804, 9.365, 9.632, 9.471, 9.301, 9.7, 9.366, 9.419, 9.237, 14.836, 9.822, 9.723, 9.409, 9.101, 9.871, 9.276, 9.318, 9.411, 9.533, 9.438, 9.409, 9.498, 9.163, 9.643, 9.312, 9.32, 9.523, 9.501, 9.504, 9.235, 8.94, 9.604, 9.494, 9.33, 9.658, 9.167, 9.659, 9.247, 9.528, 9.262, 9.419, 9.687, 9.39, 9.194, 9.224, 9.229, 9.504, 9.569, 9.469, 9.389, 9.611, 9.956, 9.462, 9.132, 9.458, 9.211, 9.42, 9.478, 9.367, 9.443, 9.612, 10.298, 9.359, 9.58, 9.078, 9.292, 9.579, 9.614, 9.546, 9.39, 9.351, 9.156, 9.063, 9.481, 9.564, 9.224, 9.468, 9.209, 9.388, 9.377, 9.762, 10.532, 10.523, 9.019, 18.183, 9.421, 12.384, 9.822, 9.486, 12.026, 10.092, 9.735, 22.544, 9.679, 9.389, 9.501, 9.501, 10.397, 9.457, 22.982, 9.585, 9.142, 12.157, 9.603, 9.531, 13.149, 24.696, 9.224, 9.329, 9.298, 9.613, 9.47, 9.356, 9.598, 9.398, 9.362, 9.23, 9.766, 9.411, 9.239, 9.641, 9.45, 9.439, 8.978, 9.447, 9.467, 9.498, 9.463, 9.147, 9.812, 9.335, 9.627, 9.107, 9.363, 9.49, 9.491, 9.196, 9.434, 9.344, 9.432, 9.291, 10.089, 9.654, 8.946, 9.413, 9.591, 9.142, 9.477, 9.457, 9.059],
  "Optimizer iterations": 894,
  "Optimizer params": [0.9668532257034818, 0.11225109104808528, 0.7351103867839093, 0.6341554249761051, 0.9867732990201291, 0.5746864731458641, 0.5797538250968507, 0.5297330711795817, 0.229748011249948, 0.6016313575389867, 0.9805302554786033, 0.8254080761230109, 0.8334449319308431, 0.9873804430112906, 0.5979258577013334, 0.08325495726290902, 0.004694061190042246, 0.0006429065258702005, 0.49477073538202015, 0.5077220083997002, 0.48610805193742146, 0.5401947421214179, 0.05874933134893921, 0.053437022976759695, 0.9434580132243069, 0.37986408275853534, 0.4936604279000521, 0.9851016562406595, 0.34642542706559704, 0.05433882341155378, 0.9309820190977438, 0.15790373714255634],
  "P": 0,
  "Problem": "IC",
  "QJob durations [ms]": [0.4254000086802989, 0.4785999917658046, 0.41819999751169235, 0.4337499995017424, 0.46010001096874475, 0.43154999730177224, 0.41909998981282115, 0.41530000453349203, 0.42464998841751367, 0.42594999831635505, 0.4195500077912584, 0.43065000500064343, 0.4189000028418377, 0.4164499987382442, 0.4156500071985647, 0.4235499945934862, 0.42174999543931335, 0.42320000648032874, 0.42455000220797956, 0.42529999336693436, 0.42564999603200704, 0.42074998782482, 0.4307000053813681, 0.4192000051261857, 0.4224500007694587, 0.4165499994996935, 0.41635001252871007, 0.4215499939164147, 0.4193500062683597, 0.42144999315496534, 0.4147500003455207, 0.42440000106580555, 0.4234000080032274, 0.4457500035641715, 0.4235499945934862, 0.4211000050418079, 0.4263500013621524, 0.4134500049985945, 0.42114999087061733, 0.444350007455796, 0.4329999937908724, 0.41865000093821436, 0.4236999957356602, 0.4210500046610832, 0.41700000292621553, 0.43080000614281744, 0.42135000694543123, 0.42475000373087823, 0.4216999950585887, 0.4221499984851107, 0.4749500076286495, 0.4240499984007329, 0.4266499890945852, 0.4271000070730224, 0.4394000134197995, 0.4212500061839819, 0.4317999992053956, 0.42389999725855887, 0.43065000500064343, 0.41604999569244683, 0.4257499967934564, 0.42389999725855887, 0.4170500033069402, 0.415150003391318, 0.4202499985694885, 0.417799994465895, 0.4230999911669642, 0.4280499997548759, 0.42174999543931335, 0.4371499962871894, 0.4138000076636672, 0.42630000098142773, 0.4188499879091978, 0.4167000006418675, 0.42270000267308205, 0.4136500065214932, 0.4565000126603991, 0.4137499927310273, 0.418550000176765, 0.42729999404400587, 0.42379999649710953, 0.41700000292621553, 0.42359999497421086, 0.4152000037720427, 0.4285000031813979, 0.417199989897199, 0.4257499967934564, 0.4157499934080988, 0.43840000580530614, 0.41799999598879367, 0.42559999565128237, 0.42645000212360173, 0.42359999497421086, 0.4189000028418377, 0.41760000749491155, 0.4143499972997233, 0.41519998922012746, 0.4359499871497974, 0.4339500010246411, 0.4456000024219975, 0.43909999658353627, 0.41790000977925956, 0.4285000031813979, 0.4305500042391941, 0.44469999556895345, 0.570549993426539, 0.4165000136708841, 0.4187500016996637, 0.417949995608069, 0.4231000057188794, 0.464299984741956, 0.4272499936632812, 0.4198500100756064, 0.4243000003043562, 0.41725000482983887, 0.4259000124875456, 0.42135000694543123, 0.43634999019559473, 0.42424999992363155, 0.4215500084683299, 0.42209999810438603, 0.4288000054657459, 0.41385000804439187, 0.4282000008970499, 0.4226999881211668, 0.414549998822622, 0.4143499972997233, 0.4228000034345314, 0.4270000063115731, 0.4244500014465302, 0.4261499998392537, 0.41930000588763505, 0.42114999087061733, 0.4243000003043562, 0.4245000018272549, 0.41429999691899866, 0.4232500068610534, 0.4189000028418377, 0.42424999992363155, 0.4199999966658652, 0.41974999476224184, 0.458399998024106, 0.41525000415276736, 0.42189999658148736, 0.417499992181547, 0.4199499962851405, 0.4200999974273145, 0.43015000119339675, 0.41485000110697, 0.4158500087214634, 0.4176500078756362, 0.41789999522734433, 0.4149999876972288, 0.411750006605871, 0.42529999336693436, 0.41739999142009765, 0.41959999362006783, 0.41880000208038837, 0.41730000521056354, 0.42570001096464694, 0.4258999979356304, 0.411150002037175, 0.4219999973429367, 0.41649999911896884, 0.4266500036465004, 0.4215499939164147, 0.41784999484661967, 0.41125000279862434, 0.40889999945648015, 0.4308499919716269, 0.41464999958407134, 0.42204999772366136, 0.4251000063959509, 0.41825001244433224, 0.4268500051693991, 0.4195500077912584, 0.4322500026319176, 0.41885000246111304, 0.42314999154768884, 0.41930000588763505, 0.41754999256227165, 0.4213999927742407, 0.4260499990778044, 0.4266500036465004, 0.418249997892417, 0.42550000944174826, 0.4312499950174242, 0.42240000038873404, 0.41804999636951834, 0.41545000567566603, 0.41819999751169235, 0.41795001015998423, 0.44454999442677945, 0.4364500055089593, 0.4158500087214634, 0.43899999582208693, 0.41325000347569585, 0.421949996962212, 0.4138000076636672, 0.4197999951429665, 0.43104999349452555, 0.4259999986970797, 0.42055000085383654, 0.42070000199601054, 0.4165499994996935, 0.4290000069886446, 0.4144000122323632, 0.42195001151412725, 0.42520000715740025, 0.41510000301059335, 0.41849999979604036, 0.42159999429713935, 0.3952999977627769, 0.4226000019116327, 0.4760000010719523, 0.41629999759607017, 0.41599999531172216, 0.41185000736732036, 0.4241999995429069, 0.48230000538751483, 0.4304000030970201, 0.4918999911751598, 0.42320000648032874, 0.417349991039373, 0.4638999962480739, 0.4505500110099092, 0.4327500064391643, 0.38255000254139304, 0.4244500014465302, 0.4208000027574599, 0.41569999302737415, 0.4436999879544601, 0.4194000066490844, 0.46615001338068396, 0.44410000555217266, 0.4427999956533313, 0.4244500014465302, 0.4204500000923872, 0.4215499939164147, 0.4238499968778342, 0.4189500032225624, 0.42830000165849924, 0.45599999430123717, 0.4147500003455207, 0.42469998879823834, 0.41584999416954815, 0.41939999209716916, 0.43694999476429075, 0.4202499985694885, 0.43139999615959823, 0.4294499958632514, 0.41819999751169235, 0.41619999683462083, 0.4165999998804182, 0.42204999772366136, 0.42064998706337065, 0.42195001151412725, 0.41810001130215824, 0.4250000056345016, 0.4301000008126721, 0.42305000533815473, 0.41795001015998423, 0.4221499984851107, 0.4258499975549057, 0.4228000034345314, 0.42219999886583537, 0.4155000060563907, 0.43524999637156725, 0.4374999989522621, 0.4273999948054552, 0.4094500036444515, 0.4319500003475696, 0.4154999915044755, 0.4224500007694587, 0.41969999438151717, 0.4233999934513122, 0.4229500045767054, 0.4409499961184338, 0.418550000176765, 0.43515001016203314, 0.4409499961184338, 0.41784999484661967, 0.41924999095499516, 0.42094998934771866, 0.41825001244433224, 0.4322500026319176, 0.4272499936632812, 0.42050000047311187, 0.4329499934101477, 0.41464999958407134, 0.4410499968798831, 0.413949994253926, 0.42609999945852906, 0.42389999725855887, 0.4278000124031678, 0.4239999980200082, 0.41349999082740396, 0.421949996962212, 0.41700000292621553, 0.4360499879112467, 0.44800000614486635, 0.4194000066490844, 0.42394999763928354, 0.4337499995017424, 0.4277499974705279, 0.41625001176726073, 0.4329499934101477, 0.41930000588763505, 0.5521000130102038, 0.5797999911010265, 0.4199999966658652, 0.41710000368766487, 0.4208000027574599, 0.41485000110697, 0.4787499929079786, 0.41709998913574964, 0.4234999942127615, 0.41179999243468046, 0.41730000521056354, 0.44410000555217266, 0.41199999395757914, 0.4133500042371452, 0.41819999751169235, 0.41530000453349203, 0.46279998787213117, 0.418099996750243, 0.42799999937415123, 0.421949996962212, 0.4235499945934862, 0.4191000043647364, 0.41700000292621553, 0.41715000406838953, 0.42215001303702593, 0.41554999188520014, 0.42209999810438603, 0.4139500088058412, 0.4202499985694885, 0.4155999922659248, 0.4188499879091978, 0.41030001011677086, 0.4272499936632812, 0.4228000034345314, 0.4167000006418675, 0.41119998786598444, 0.41900000360328704, 0.4308500065235421, 0.4243500006850809, 0.41849999979604036, 0.4219000111334026, 0.41725000482983887, 0.4225000011501834, 0.4327999922679737, 0.4276000108802691, 0.4378500016173348, 0.4294499958632514, 0.417349991039373, 0.42460000258870423, 0.41485000110697, 0.41969999438151717, 0.4221499984851107, 0.42320000648032874, 0.421799995820038, 0.42455000220797956, 0.4156500071985647, 0.41745000635273755, 0.4208000027574599, 0.41524998960085213, 0.4130000015720725, 0.4098499921383336, 0.418550000176765, 0.4150999884586781, 0.40780000563245267, 0.42424999992363155, 0.42264998774044216, 0.4200999974273145, 0.42645000212360173, 0.4380999889690429, 0.41704998875502497, 0.42004999704658985, 0.42270000267308205, 0.42130000656470656, 0.41665000026114285, 0.4193500062683597, 0.4174499918008223, 0.4295499966247007, 0.40859999717213213, 0.41965000855270773, 0.4244500014465302, 0.418550000176765, 0.43479999294504523, 0.41554999188520014, 0.4186000005574897, 0.4199000104563311, 0.41789999522734433, 0.4245000018272549, 0.418099996750243, 0.4317999992053956, 0.42675000440794975, 0.4186000005574897, 0.41429999691899866, 0.41420001070946455, 0.418550000176765, 0.4255499952705577, 0.41310000233352184, 0.4194999928586185, 0.41444999806117266, 0.41554999188520014, 0.4334999975981191, 0.42949999624397606, 0.42720000783447176, 0.418550000176765, 0.4321000014897436, 0.4238499968778342, 0.4130999877816066, 0.40889999945648015, 0.41280000004917383, 0.42100000428035855, 0.41900000360328704, 0.41024999518413097, 0.42409999878145754, 0.4489499988267198, 0.4180000105407089, 0.4123999970033765, 0.4253000079188496, 0.4246500029694289, 0.43215000187046826, 0.41865000093821436, 0.4147500003455207, 0.43154999730177224, 0.42305000533815473, 0.4134499904466793, 0.4292999947210774, 0.4202999989502132, 0.41105000127572566, 0.42074998782482, 0.4556500061880797, 0.41834999865386635, 0.42440000106580555, 0.41754999256227165, 0.42039999971166253, 0.42964999738615006, 0.4072500014444813, 0.42455000220797956, 0.4251000063959509, 0.4138000076636672, 0.6011499935993925, 0.4452499997569248, 0.42070000199601054, 0.42815000051632524, 0.4320500011090189, 0.428449988248758, 0.4196499940007925, 0.41774999408517033, 0.43125000956933945, 0.42329999268986285, 0.411000000895001, 0.4192999913357198, 0.41849999979604036, 0.42749999556690454, 0.42409999878145754, 0.41449999844189733, 0.41754999256227165, 0.4158999945502728, 0.41870000131893903, 0.4319500003475696, 0.42389999725855887, 0.4167500010225922, 0.44550000166054815, 0.4204500000923872, 0.4195000074105337, 0.41885000246111304, 0.42070000199601054, 0.4189000028418377, 0.4249500052537769, 0.4138000076636672, 0.43495000863913447, 0.42224999924656004, 0.4217000096105039, 0.41435001185163856, 0.42209999810438603, 0.42749999556690454, 0.4232499923091382, 0.45355000474955887, 0.4285500035621226, 0.42004999704658985, 0.42070000199601054, 0.4222999996272847, 0.4143499972997233, 0.41865000093821436, 0.42055000085383654, 0.43339999683666974, 0.42484998994041234, 0.42905000736936927, 0.4252500075381249, 0.42204999772366136, 0.4190499894320965, 0.4199999966658652, 0.42594999831635505, 0.415000002249144, 0.4120999947190285, 0.4191499901935458, 0.42300000495743006, 0.4249499907018617, 0.42475000373087823, 0.42174999543931335, 0.4226000019116327, 0.41700000292621553, 0.42329999268986285, 0.4250000056345016, 0.42499999108258635, 0.41619999683462083, 0.42815000051632524, 0.4192500055069104, 0.4153500049142167, 0.41849999979604036, 0.41959999362006783, 0.42320000648032874, 0.4193500062683597, 0.47569998423568904, 0.4160999960731715, 0.4189000028418377, 0.4232500068610534, 0.5706499941879883, 0.45449999743141234, 0.4159499949309975, 0.5438999942271039, 0.45735001913271844, 0.4153500049142167, 0.5928499886067584, 0.4227500030538067, 0.4796499997610226, 0.4225000011501834, 0.4388999950606376, 0.46875000407453626, 0.4199499962851405, 0.38115000643301755, 0.42209999810438603, 0.4188499879091978, 0.4120999947190285, 0.4323999892221764, 0.46799999836366624, 0.4320500011090189, 0.4468500119401142, 0.4089499998372048, 0.41870000131893903, 0.4193499917164445, 0.42520000715740025, 0.4118000069865957, 0.4199499962851405, 0.41900000360328704, 0.42129999201279134, 0.41680000140331686, 0.41634999797679484, 0.42145000770688057, 0.41874998714774847, 0.4103499959455803, 0.41784999484661967, 0.4170500033069402, 0.4227500030538067, 0.44919998617842793, 0.4226500022923574, 0.41989999590441585, 0.421349992393516, 0.41870000131893903, 0.42550000944174826, 0.4139500088058412, 0.4116999916732311, 0.4318999999668449, 0.41700000292621553, 0.4202499985694885, 0.4126999992877245, 0.4174000059720129, 0.41825001244433224, 0.4187500016996637, 0.42100000428035855, 0.4259999986970797, 0.4210500046610832, 0.43995000305585563, 0.4273999948054552, 0.42219999886583537, 0.42165000922977924, 0.4122499958612025, 0.4229500045767054, 0.4147500003455207, 0.42074998782482, 0.41709998913574964, 0.421199991251342, 0.421199991251342, 0.448200007667765, 0.4209000035189092, 0.41944999247789383, 0.41909998981282115, 0.42570001096464694, 0.42025001312140375, 0.42899999243672937, 0.42684999061748385, 0.4189500032225624, 0.41784999484661967, 0.4208000027574599, 0.42270000267308205, 0.4442999925231561, 0.4131500027142465, 0.41510000301059335, 0.42675000440794975, 0.40920000174082816, 0.4322500026319176, 0.42174999543931335, 0.43885000923182815, 0.421199991251342, 0.4126999992877245, 0.41649999911896884, 0.4226000019116327, 0.42910000775009394, 0.41974999476224184, 0.4202999989502132, 0.4192999913357198, 0.4263500013621524, 0.5551000067498535, 0.5110999918542802, 0.42144999315496534, 0.418099996750243, 0.415000002249144, 0.42335000762250274, 0.4302999877836555, 0.41965000855270773, 0.4294500104151666, 0.46505000500474125, 0.418550000176765, 0.4216999950585887, 0.4235500091454014, 0.41974999476224184, 0.41885000246111304, 0.41495000186841935, 0.4141999961575493, 0.4125499981455505, 0.4144500126130879, 0.4219999973429367, 0.4187500016996637, 0.41789999522734433, 0.4333499964559451, 0.4252499929862097, 0.4309000069042668, 0.42144999315496534, 0.418399999034591, 0.4320500011090189, 0.42764999670907855, 0.4131500027142465, 0.43145001109223813, 0.421049990109168, 0.55340000835713, 0.43230000301264226, 0.41745000635273755, 0.5037000082666054, 0.4164499987382442, 0.4254500090610236, 0.4239999980200082, 0.41665000026114285, 0.4196499940007925, 0.41464999958407134, 0.418099996750243, 0.42004999704658985, 0.4118000069865957, 0.4230499907862395, 0.42174999543931335, 0.4096000047866255, 0.4265000025043264, 0.41795001015998423, 0.41525000415276736, 0.4410999972606078, 0.4207500023767352, 0.42690000555012375, 0.414699999964796, 0.41795001015998423, 0.4263500013621524, 0.4268999909982085, 0.4227499885018915, 0.4259999986970797, 0.4159500094829127, 0.48915001389104873, 0.41980000969488174, 0.42050000047311187, 0.4140499950153753, 0.41354999120812863, 0.4397000011522323, 0.41980000969488174, 0.42055000085383654, 0.4131499881623313, 0.41220001003239304, 0.4373500123620033, 0.4197000089334324, 0.4206500016152859, 0.42055000085383654, 0.4234999942127615, 0.4437500028871, 0.4227500030538067, 0.4248000041116029, 0.4327500064391643, 0.4240499984007329, 0.42729999404400587, 0.41724999027792364, 0.4307999915909022, 0.4732999950647354, 0.41880000208038837, 0.4191000043647364, 0.43920001189690083, 0.4279500135453418, 0.41649999911896884, 0.4182000120636076, 0.42070000199601054, 0.4236999957356602, 0.4258999979356304, 0.4106499982299283, 0.4175000067334622, 0.4683500010287389, 0.4240499984007329, 0.4140499950153753, 0.42490000487305224, 0.42159999429713935, 0.41214999509975314, 0.4628999886335805, 0.4266499890945852, 0.44874999730382115, 0.4444499936653301, 0.42359999497421086, 0.4140999953961, 0.41900000360328704, 0.42475000373087823, 0.41199999395757914, 0.41215000965166837, 0.41915000474546105, 0.47024998639244586, 0.4252500075381249, 0.4192000051261857, 0.42699999175965786, 0.4286500043235719, 0.4326999915065244, 0.42910000775009394, 0.4202499985694885, 0.4184499994153157, 0.4170500033069402, 0.4123999970033765, 0.41604999569244683, 0.41879998752847314, 0.43200000072829425, 0.4368499940028414, 0.41865000093821436, 0.42115000542253256, 0.42565001058392227, 0.41819999751169235, 0.4211000050418079, 0.4203500138828531, 0.4249500052537769, 0.41205000889021903, 0.4277499974705279, 0.4383999912533909, 0.4294499958632514, 0.4150500026298687, 0.417349991039373, 0.43184999958612025, 0.41014999442268163, 0.4253999941283837, 0.417199989897199, 0.414249996538274, 0.4209000035189092, 0.4138000076636672, 0.4218499962007627, 0.41634999797679484, 0.43184999958612025, 0.4191000043647364, 0.4133000038564205, 0.4224500007694587, 0.4317999992053956, 0.4175999929429963, 0.41614999645389616, 0.40869999793358147, 0.4243000003043562, 0.41340000461786985, 0.42380001104902476, 0.43920001189690083, 0.41259999852627516, 0.4314499965403229, 0.41485000110697, 0.4192000051261857, 0.4168500017840415, 0.4186000005574897, 0.43080000614281744, 0.42409999878145754, 0.4156499926466495, 0.417949995608069, 0.41334998968522996, 0.42335000762250274, 0.4212500061839819, 0.42969999776687473, 0.4125499981455505, 0.4230999911669642, 0.4645000008167699, 0.41834999865386635, 0.41170000622514635, 0.4172000044491142, 0.40950000402517617, 0.4265000025043264, 0.4231000057188794, 0.4157999937888235, 0.41870000131893903, 0.4226500022923574, 0.41784999484661967, 0.4226999881211668, 0.42549999488983303, 0.4156500071985647, 0.418249997892417, 0.4298999992897734, 0.4238499968778342, 0.4227499885018915, 0.4239999980200082, 0.41120000241789967, 0.40944998909253627, 0.41280000004917383, 0.4233999934513122, 0.42380001104902476, 0.41325000347569585, 0.4233499930705875, 0.41310000233352184, 0.4117499920539558, 0.41849999979604036, 0.4266500036465004, 0.4163999983575195, 0.4799499874934554, 0.41289998625870794, 0.4078999918419868, 0.41349999082740396, 0.5707499949494377, 0.440200004959479, 0.42100000428035855, 0.5627999926218763, 0.4602999979397282, 0.4248000041116029, 0.43339999683666974, 0.42374999611638486, 0.4249500052537769, 0.4167000006418675, 0.42124999163206667, 0.4660499980673194, 0.4156499926466495, 0.41214999509975314, 0.4309499927330762, 0.417949995608069, 0.5677499866578728, 0.4167500010225922, 0.4291499935789034, 0.5969999911030754, 0.5378999921958894, 0.41120000241789967, 0.4182999982731417, 0.41665000026114285, 0.4261499998392537, 0.41954999323934317, 0.4213999927742407, 0.42470000335015357, 0.41769999370444566, 0.41295000119134784, 0.421049990109168, 0.4260499990778044, 0.41694998799357563, 0.41880000208038837, 0.4388499946799129, 0.42180001037195325, 0.4235499945934862, 0.41044999670702964, 0.40920000174082816, 0.41584999416954815, 0.4273999948054552, 0.4132000030949712, 0.417799994465895, 0.44084999535698444, 0.42785001278389245, 0.43245000415481627, 0.41730000521056354, 0.421799995820038, 0.41444999806117266, 0.4216999950585887, 0.41789999522734433, 0.41560000681784004, 0.4212000058032572, 0.4271500074537471, 0.41310000233352184, 0.4332999960752204, 0.42019999818876386, 0.41459999920334667, 0.42684999061748385, 0.411300003179349, 0.41485000110697, 0.4195000074105337, 0.42204999772366136, 0.4202499985694885],
  "QPU": "7000000",
  "Qubits": 8,
  "Queue durations [ms]": [0.0, 0.0, 0.0, 0.0, 0.0, 0.0, 0.0, 0.0, 0.0, 0.0, 0.0, 0.0, 0.0, 0.0, 0.0, 0.0, 0.0, 0.0, 0.0, 0.0, 0.0, 0.0, 0.0, 0.0, 0.0, 0.0, 0.0, 0.0, 0.0, 0.0, 0.0, 0.0, 0.0, 0.0, 0.0, 0.0, 0.0, 0.0, 0.0, 0.0, 0.0, 0.0, 0.0, 0.0, 0.0, 0.0, 0.0, 0.0, 0.0, 0.0, 0.0, 0.0, 0.0, 0.0, 0.0, 0.0, 0.0, 0.0, 0.0, 0.0, 0.0, 0.0, 0.0, 0.0, 0.0, 0.0, 0.0, 0.0, 0.0, 0.0, 0.0, 0.0, 0.0, 0.0, 0.0, 0.0, 0.0, 0.0, 0.0, 0.0, 0.0, 0.0, 0.0, 0.0, 0.0, 0.0, 0.0, 0.0, 0.0, 0.0, 0.0, 0.0, 0.0, 0.0, 0.0, 0.0, 0.0, 0.0, 0.0, 0.0, 0.0, 0.0, 0.0, 0.0, 0.0, 0.0, 0.0, 0.0, 0.0, 0.0, 0.0, 0.0, 0.0, 0.0, 0.0, 0.0, 0.0, 0.0, 0.0, 0.0, 0.0, 0.0, 0.0, 0.0, 0.0, 0.0, 0.0, 0.0, 0.0, 0.0, 0.0, 0.0, 0.0, 0.0, 0.0, 0.0, 0.0, 0.0, 0.0, 0.0, 0.0, 0.0, 0.0, 0.0, 0.0, 0.0, 0.0, 0.0, 0.0, 0.0, 0.0, 0.0, 0.0, 0.0, 0.0, 0.0, 0.0, 0.0, 0.0, 0.0, 0.0, 0.0, 0.0, 0.0, 0.0, 0.0, 0.0, 0.0, 0.0, 0.0, 0.0, 0.0, 0.0, 0.0, 0.0, 0.0, 0.0, 0.0, 0.0, 0.0, 0.0, 0.0, 0.0, 0.0, 0.0, 0.0, 0.0, 0.0, 0.0, 0.0, 0.0, 0.0, 0.0, 0.0, 0.0, 0.0, 0.0, 0.0, 0.0, 0.0, 0.0, 0.0, 0.0, 0.0, 0.0, 0.0, 0.0, 0.0, 0.0, 0.0, 0.0, 0.0, 0.0, 0.0, 0.0, 0.0, 0.0, 0.0, 0.0, 0.0, 0.0, 0.0, 0.0, 0.0, 0.0, 0.0, 0.0, 0.0, 0.0, 0.0, 0.0, 0.0, 0.0, 0.0, 0.0, 0.0, 0.0, 0.0, 0.0, 0.0, 0.0, 0.0, 0.0, 0.0, 0.0, 0.0, 0.0, 0.0, 0.0, 0.0, 0.0, 0.0, 0.0, 0.0, 0.0, 0.0, 0.0, 0.0, 0.0, 0.0, 0.0, 0.0, 0.0, 0.0, 0.0, 0.0, 0.0, 0.0, 0.0, 0.0, 0.0, 0.0, 0.0, 0.0, 0.0, 0.0, 0.0, 0.0, 0.0, 0.0, 0.0, 0.0, 0.0, 0.0, 0.0, 0.0, 0.0, 0.0, 0.0, 0.0, 0.0, 0.0, 0.0, 0.0, 0.0, 0.0, 0.0, 0.0, 0.0, 0.0, 0.0, 0.0, 0.0, 0.0, 0.0, 0.0, 0.0, 0.0, 0.0, 0.0, 0.0, 0.0, 0.0, 0.0, 0.0, 0.0, 0.0, 0.0, 0.0, 0.0, 0.0, 0.0, 0.0, 0.0, 0.0, 0.0, 0.0, 0.0, 0.0, 0.0, 0.0, 0.0, 0.0, 0.0, 0.0, 0.0, 0.0, 0.0, 0.0, 0.0, 0.0, 0.0, 0.0, 0.0, 0.0, 0.0, 0.0, 0.0, 0.0, 0.0, 0.0, 0.0, 0.0, 0.0, 0.0, 0.0, 0.0, 0.0, 0.0, 0.0, 0.0, 0.0, 0.0, 0.0, 0.0, 0.0, 0.0, 0.0, 0.0, 0.0, 0.0, 0.0, 0.0, 0.0, 0.0, 0.0, 0.0, 0.0, 0.0, 0.0, 0.0, 0.0, 0.0, 0.0, 0.0, 0.0, 0.0, 0.0, 0.0, 0.0, 0.0, 0.0, 0.0, 0.0, 0.0, 0.0, 0.0, 0.0, 0.0, 0.0, 0.0, 0.0, 0.0, 0.0, 0.0, 0.0, 0.0, 0.0, 0.0, 0.0, 0.0, 0.0, 0.0, 0.0, 0.0, 0.0, 0.0, 0.0, 0.0, 0.0, 0.0, 0.0, 0.0, 0.0, 0.0, 0.0, 0.0, 0.0, 0.0, 0.0, 0.0, 0.0, 0.0, 0.0, 0.0, 0.0, 0.0, 0.0, 0.0, 0.0, 0.0, 0.0, 0.0, 0.0, 0.0, 0.0, 0.0, 0.0, 0.0, 0.0, 0.0, 0.0, 0.0, 0.0, 0.0, 0.0, 0.0, 0.0, 0.0, 0.0, 0.0, 0.0, 0.0, 0.0, 0.0, 0.0, 0.0, 0.0, 0.0, 0.0, 0.0, 0.0, 0.0, 0.0, 0.0, 0.0, 0.0, 0.0, 0.0, 0.0, 0.0, 0.0, 0.0, 0.0, 0.0, 0.0, 0.0, 0.0, 0.0, 0.0, 0.0, 0.0, 0.0, 0.0, 0.0, 0.0, 0.0, 0.0, 0.0, 0.0, 0.0, 0.0, 0.0, 0.0, 0.0, 0.0, 0.0, 0.0, 0.0, 0.0, 0.0, 0.0, 0.0, 0.0, 0.0, 0.0, 0.0, 0.0, 0.0, 0.0, 0.0, 0.0, 0.0, 0.0, 0.0, 0.0, 0.0, 0.0, 0.0, 0.0, 0.0, 0.0, 0.0, 0.0, 0.0, 0.0, 0.0, 0.0, 0.0, 0.0, 0.0, 0.0, 0.0, 0.0, 0.0, 0.0, 0.0, 0.0, 0.0, 0.0, 0.0, 0.0, 0.0, 0.0, 0.0, 0.0, 0.0, 0.0, 0.0, 0.0, 0.0, 0.0, 0.0, 0.0, 0.0, 0.0, 0.0, 0.0, 0.0, 0.0, 0.0, 0.0, 0.0, 0.0, 0.0, 0.0, 0.0, 0.0, 0.0, 0.0, 0.0, 0.0, 0.0, 0.0, 0.0, 0.0, 0.0, 0.0, 0.0, 0.0, 0.0, 0.0, 0.0, 0.0, 0.0, 0.0, 0.0, 0.0, 0.0, 0.0, 0.0, 0.0, 0.0, 0.0, 0.0, 0.0, 0.0, 0.0, 0.0, 0.0, 0.0, 0.0, 0.0, 0.0, 0.0, 0.0, 0.0, 0.0, 0.0, 0.0, 0.0, 0.0, 0.0, 0.0, 0.0, 0.0, 0.0, 0.0, 0.0, 0.0, 0.0, 0.0, 0.0, 0.0, 0.0, 0.0, 0.0, 0.0, 0.0, 0.0, 0.0, 0.0, 0.0, 0.0, 0.0, 0.0, 0.0, 0.0, 0.0, 0.0, 0.0, 0.0, 0.0, 0.0, 0.0, 0.0, 0.0, 0.0, 0.0, 0.0, 0.0, 0.0, 0.0, 0.0, 0.0, 0.0, 0.0, 0.0, 0.0, 0.0, 0.0, 0.0, 0.0, 0.0, 0.0, 0.0, 0.0, 0.0, 0.0, 0.0, 0.0, 0.0, 0.0, 0.0, 0.0, 0.0, 0.0, 0.0, 0.0, 0.0, 0.0, 0.0, 0.0, 0.0, 0.0, 0.0, 0.0, 0.0, 0.0, 0.0, 0.0, 0.0, 0.0, 0.0, 0.0, 0.0, 0.0, 0.0, 0.0, 0.0, 0.0, 0.0, 0.0, 0.0, 0.0, 0.0, 0.0, 0.0, 0.0, 0.0, 0.0, 0.0, 0.0, 0.0, 0.0, 0.0, 0.0, 0.0, 0.0, 0.0, 0.0, 0.0, 0.0, 0.0, 0.0, 0.0, 0.0, 0.0, 0.0, 0.0, 0.0, 0.0, 0.0, 0.0, 0.0, 0.0, 0.0, 0.0, 0.0, 0.0, 0.0, 0.0, 0.0, 0.0, 0.0, 0.0, 0.0, 0.0, 0.0, 0.0, 0.0, 0.0, 0.0, 0.0, 0.0, 0.0, 0.0, 0.0, 0.0, 0.0, 0.0, 0.0, 0.0, 0.0, 0.0, 0.0, 0.0, 0.0, 0.0, 0.0, 0.0, 0.0, 0.0, 0.0, 0.0, 0.0, 0.0, 0.0, 0.0, 0.0, 0.0, 0.0, 0.0, 0.0, 0.0, 0.0, 0.0, 0.0, 0.0, 0.0, 0.0, 0.0, 0.0, 0.0, 0.0, 0.0, 0.0, 0.0, 0.0, 0.0, 0.0, 0.0, 0.0, 0.0, 0.0, 0.0, 0.0, 0.0, 0.0, 0.0, 0.0, 0.0, 0.0, 0.0, 0.0, 0.0, 0.0, 0.0, 0.0, 0.0, 0.0, 0.0, 0.0, 0.0, 0.0, 0.0, 0.0, 0.0, 0.0, 0.0, 0.0, 0.0, 0.0, 0.0, 0.0, 0.0, 0.0, 0.0, 0.0, 0.0, 0.0, 0.0, 0.0, 0.0, 0.0, 0.0, 0.0, 0.0, 0.0, 0.0, 0.0, 0.0, 0.0, 0.0, 0.0, 0.0, 0.0, 0.0, 0.0, 0.0, 0.0, 0.0, 0.0, 0.0, 0.0, 0.0, 0.0, 0.0, 0.0, 0.0, 0.0, 0.0, 0.0, 0.0, 0.0, 0.0, 0.0, 0.0, 0.0, 0.0, 0.0, 0.0, 0.0, 0.0],
  "Shots": 4096,
  "Size": 8,
  "Total Algorithm duration [s]": 8.779,
  "Total Classic duration [s]": 8.398122800242621,
  "Total Quantum duration [s]": 0.38087719975737855
}
