{
  "Circuit execution durations [ms]": [0.41340000461786985, 0.43554999865591526, 0.4172000044491142, 0.4229000041959807, 0.41960000817198306, 0.4395500000100583, 0.41805001092143357, 0.414399997680448, 0.41834999865386635, 0.42344999383203685, 0.41730000521056354, 0.4207500023767352, 0.41605001024436206, 0.4245000018272549, 0.41900000360328704, 0.4168500017840415, 0.4262000002199784, 0.41184999281540513, 0.41200000850949436, 0.4200999974273145, 0.414549998822622, 0.43745001312345266, 0.4270000063115731, 0.41634999797679484, 0.4292499943403527, 0.41799999598879367, 0.4123999970033765, 0.41235001117456704, 0.411750006605871, 0.4256000102031976, 0.4167000006418675, 0.4268000047886744, 0.4259000124875456, 0.411300003179349, 0.4413999995449558, 0.4267999902367592, 0.5040500109316781, 0.44750000233761966, 0.42394999763928354, 0.43235000339336693, 0.4118000069865957, 0.41909998981282115, 0.44309998338576406, 0.4157499934080988, 0.43459999142214656, 0.41530000453349203, 0.4165999998804182, 0.4113500035600737, 0.4506000113906339, 0.42224999924656004, 0.42460000258870423, 0.4582000110531226, 0.41244999738410115, 0.4162499972153455, 0.4135999915888533, 0.5692500126315281, 0.4184499994153157, 0.41074999899137765, 0.5499999970197678, 0.4160999960731715, 0.415000002249144, 0.538099993718788, 0.4126000130781904, 0.4742500022985041, 0.4601499967975542, 0.41885000246111304, 0.45804999535903335, 0.41554999188520014, 0.40284999704454094, 0.4206000012345612, 0.4204500000923872, 0.4842500202357769, 0.421649994677864, 0.43045000347774476, 0.4371999966679141, 0.4072500014444813, 0.6005500181345269, 0.41649999911896884, 0.4204500000923872, 0.4241999995429069, 0.42505000601522624, 0.4150500026298687, 0.418399999034591, 0.44559998787008226, 0.41480000072624534, 0.4344999906606972, 0.4122500104131177, 0.414549998822622, 0.41939999209716916, 0.414399997680448, 0.4219000111334026, 0.4206000012345612, 0.41485000110697, 0.414549998822622, 0.42219999886583537, 0.41480000072624534, 0.4141999961575493, 0.4290000069886446, 0.42255000153090805, 0.4178000090178102, 0.41024999518413097, 0.4201499978080392, 0.4215499939164147, 0.41865000093821436, 0.4215499939164147, 0.4135000053793192, 0.4106499982299283, 0.42889999167528003, 0.41880000208038837, 0.41024999518413097, 0.4387500084703788, 0.4195000074105337, 0.4189000028418377, 0.42315000609960407, 0.41414999577682465, 0.42714999290183187, 0.4233999934513122, 0.4147500003455207, 0.4123499966226518, 0.41399999463465065, 0.42984999890904874, 0.44249999336898327, 0.41959999362006783, 0.4239999980200082, 0.43480000749696046, 0.4313000099500641, 0.40860001172404736, 0.42240000038873404, 0.41449999844189733, 0.417949995608069, 0.4341000021668151, 0.41560000681784004, 0.42079998820554465, 0.44489999709185213, 0.4310500080464408, 0.39989998913370073, 0.4194999928586185, 0.4202999989502132, 0.4149999876972288, 0.41310000233352184, 0.415000002249144, 0.42475000373087823, 0.41280000004917383, 0.4156500071985647, 0.4810999962501228, 0.42114999087061733, 0.4270999925211072, 0.41700000292621553, 0.42374999611638486, 0.5964500014670193, 0.5138999986229464, 0.41155000508297235, 0.41259999852627516, 0.41120000241789967, 0.41199999395757914, 0.4219999973429367, 0.40859999717213213, 0.4197000089334324, 0.41915000474546105, 0.41495000186841935, 0.4209000035189092, 0.4092500021215528, 0.4193499917164445, 0.41390000842511654, 0.41885000246111304, 0.42600001324899495, 0.41575000796001405, 0.4258499975549057, 0.4380000027595088, 0.4174499918008223, 0.41370000690221786, 0.42145000770688057, 0.41865000093821436, 0.4202499985694885, 0.41969999438151717, 0.4097500059287995, 0.4317499988246709, 0.4235500091454014, 0.44615000660996884, 0.4222999996272847, 0.4170500033069402, 0.4221499984851107, 0.4175500071141869, 0.4207500023767352, 0.41459999920334667, 0.4260499990778044, 0.4195000074105337, 0.411450004321523, 0.421799995820038, 0.4268999909982085, 0.4237000102875754, 0.4181500116828829, 0.4161000106250867, 0.41870000131893903, 0.4236499953549355, 0.4167500010225922, 0.41295000119134784, 0.4107999993721023, 0.40994999289978296, 0.4152000037720427, 0.41709998913574964, 0.4208000027574599, 0.4149000014876947, 0.41834999865386635, 0.4175999929429963, 0.41975000931415707, 0.4251500067766756, 0.43245000415481627, 0.4110999871045351, 0.457649992313236, 0.4118000069865957, 0.41695000254549086, 0.43509999522939324, 0.4232500068610534, 0.41259999852627516, 0.41295000119134784, 0.41545000567566603, 0.43119999463669956, 0.41399999463465065, 0.43149999692104757, 0.4158500087214634, 0.4210500046610832, 0.4167000006418675, 0.4113999893888831, 0.4197999951429665, 0.41619999683462083, 0.4194999928586185, 0.4192500055069104, 0.4189999890513718, 0.4197999951429665, 0.4131500027142465, 0.42734999442473054, 0.4245000018272549, 0.4175000067334622, 0.4192999913357198, 0.42135000694543123, 0.42315000609960407, 0.4200999974273145, 0.6068999937269837, 0.44469999556895345, 0.42979999852832407, 0.46335000661201775, 0.41619999683462083, 0.4091000009793788, 0.4254500090610236, 0.41885000246111304, 0.43110000842716545, 0.4343999898992479, 0.41569999302737415, 0.41974999476224184, 0.41614999645389616, 0.41149999015033245, 0.43629998981487006, 0.44025000534020364, 0.5174500111024827, 0.4217000096105039, 0.43095000728499144, 0.4084000102011487, 0.4152999899815768, 0.4112499882467091, 0.4142500110901892, 0.41295000119134784, 0.4117499920539558, 0.41709998913574964, 0.42460000258870423, 0.41584999416954815, 0.42094998934771866, 0.42609999945852906, 0.41865000093821436, 0.4231000057188794, 0.41909998981282115, 0.4120999947190285, 0.41259999852627516, 0.4271000070730224, 0.4365499917184934, 0.42130000656470656, 0.43149999692104757, 0.41974999476224184, 0.41364999196957797, 0.4264499875716865, 0.4213999927742407, 0.42630000098142773, 0.4425999941304326, 0.42215001303702593, 0.4126499989069998, 0.4189000028418377, 0.414549998822622, 0.4236499953549355, 0.4165499994996935, 0.4109500005142763, 0.41710000368766487, 0.41584999416954815, 0.43929999810643494, 0.4228000034345314, 0.411300003179349, 0.4292499943403527, 0.4229500045767054, 0.4119500081287697, 0.4262000002199784, 0.41405000956729054, 0.4229500045767054, 0.42520000715740025, 0.4170500033069402, 0.41125000279862434, 0.42770001164171845, 0.4292000085115433, 0.4167000006418675, 0.41569999302737415, 0.42815000051632524, 0.41775000863708556, 0.4240499984007329, 0.45575000694952905, 0.41090000013355166, 0.4204500000923872, 0.41945000702980906, 0.4207500023767352, 0.41945000702980906, 0.4118999931961298, 0.42305000533815473, 0.4278999986127019, 0.41510000301059335, 0.4123999970033765, 0.4128500004298985, 0.42559999565128237, 0.41560000681784004, 0.4283500020392239, 0.410849999752827, 0.415150003391318, 0.42180001037195325, 0.42660000326577574, 0.4304000030970201, 0.42579999717418104, 0.41105000127572566, 0.418249997892417, 0.4223500000080094, 0.41870000131893903, 0.4235499945934862, 0.42294999002479017, 0.43730001198127866, 0.4334499972173944, 0.4139500088058412, 0.5648999940603971, 0.4000999906565994, 0.44484999671112746, 0.4199499962851405, 0.4343499895185232, 0.418099996750243, 0.41099998634308577, 0.42150000808760524, 0.4330500087235123, 0.42034999933093786, 0.42130000656470656, 0.4199499962851405, 0.414399997680448, 0.41205000889021903, 0.4149000014876947, 0.5368999991333112, 0.4199999966658652, 0.4158999945502728, 0.42949999624397606, 0.42284998926334083, 0.40780000563245267, 0.417499992181547, 0.42810000013560057, 0.41354999120812863, 0.42484998994041234, 0.42150000808760524, 0.42165000922977924, 0.4285000031813979, 0.42389999725855887, 0.4135999915888533, 0.4174000059720129, 0.43929999810643494, 0.4132000030949712, 0.41090000013355166, 0.4290999931981787, 0.4169999883743003, 0.4995500057702884, 0.43215000187046826, 0.40994999289978296, 0.4174499918008223, 0.41665000026114285, 0.42559999565128237, 0.42394999763928354, 0.42145000770688057, 0.4359499871497974, 0.5735500017181039, 0.4180000105407089, 0.41540000529494137, 0.414699999964796, 0.41629999759607017, 0.42034999933093786, 0.4275000101188198, 0.42055000085383654, 0.4308500065235421, 0.42219999886583537, 0.41629999759607017, 0.42505000601522624, 0.42224999924656004, 0.42964999738615006, 0.41530000453349203, 0.4123000107938424, 0.41625001176726073, 0.4157499934080988, 0.45244998182170093, 0.4155000060563907, 0.4168500017840415, 0.4219999973429367, 0.4147999861743301, 0.41280000004917383, 0.4206000012345612, 0.4215499939164147, 0.42195001151412725, 0.41665000026114285, 0.42514999222476035, 0.40729998727329075, 0.42180001037195325, 0.4188999882899225, 0.41399999463465065, 0.41725000482983887, 0.41510000301059335, 0.4227500030538067, 0.4119500081287697, 0.4263500013621524, 0.417949995608069, 0.4165999998804182, 0.41259999852627516, 0.4168500017840415, 0.4136500065214932, 0.41695000254549086, 0.42470000335015357, 0.41655001405160874, 0.4307999915909022, 0.44410000555217266, 0.4187500016996637, 0.41915000474546105, 0.41525000415276736, 0.41155000508297235, 0.41310000233352184, 0.42174999543931335, 0.42070000199601054, 0.5649000086123124, 0.5565999890677631, 0.40970000554807484, 0.43995000305585563, 0.42660000326577574, 0.4297499981475994, 0.41799999598879367, 0.4216999950585887, 0.42410001333337277, 0.41974999476224184, 0.4210500046610832, 0.41485000110697, 0.41545000567566603, 0.4113500035600737, 0.43835000542458147, 0.4140999953961, 0.6076499994378537, 0.4664999869419262, 0.4136500065214932, 0.4295999970054254, 0.4241499991621822, 0.42490000487305224, 0.4171499895164743, 0.4212000058032572, 0.41730000521056354, 0.41975000931415707, 0.4225000011501834, 0.4156500071985647, 0.42305000533815473, 0.4097499913768843, 0.4268999909982085, 0.4203000135021284, 0.4229500045767054, 0.411000000895001, 0.4165999998804182, 0.42949999624397606, 0.43325001024641097, 0.4200000112177804, 0.4226500022923574, 0.41799999598879367, 0.4115499905310571, 0.411150002037175, 0.41510000301059335, 0.4099500074516982, 0.41760000749491155, 0.42064998706337065, 0.4199499962851405, 0.4210500046610832, 0.41665000026114285, 0.43125000956933945, 0.413949994253926, 0.4158000083407387, 0.41880000208038837, 0.4226500022923574, 0.4267499898560345, 0.4184499994153157, 0.42189999658148736, 0.411150002037175, 0.40844999602995813, 0.40950000402517617, 0.4136500065214932, 0.4235499945934862, 0.40800000715535134, 0.45754999155178666, 0.417199989897199, 0.4192000051261857, 0.43184999958612025, 0.4164499987382442, 0.4229000041959807, 0.4155000060563907, 0.4233000072417781, 0.41449999844189733, 0.4318999999668449, 0.42350000876467675, 0.41349999082740396, 0.4254500090610236, 0.41965000855270773, 0.4165999998804182, 0.41319998854305595, 0.42630000098142773, 0.4097500059287995, 0.42320000648032874, 0.41375000728294253, 0.4202999989502132, 0.42149999353569, 0.4202499985694885, 0.4368499940028414, 0.4206000012345612, 0.4437500028871, 0.4284999886294827, 0.4193499917164445, 0.4278499982319772, 0.42270000267308205, 0.41384999349247664, 0.41464999958407134, 0.4146000137552619, 0.4169000021647662, 0.4236499953549355, 0.42594999831635505, 0.41435001185163856, 0.41849999979604036, 0.4205499863019213, 0.43354999797884375, 0.4540000081760809, 0.4138999938732013, 0.42549999488983303, 0.42874999053310603, 0.4140499950153753, 0.41385000804439187, 0.4113500035600737, 0.4165499994996935, 0.4334999975981191, 0.4117499920539558, 0.41155000508297235, 0.48755000170785934, 0.40940000326372683, 0.4162499972153455, 0.4117499920539558, 0.4330000083427876, 0.48445000720676035, 0.5165500188013539, 0.4282500012777746, 0.4210500046610832, 0.4153500049142167, 0.41819999751169235, 0.4152999899815768, 0.41310000233352184, 0.4248000041116029, 0.41510000301059335, 0.4112499882467091, 0.4096999909961596, 0.418099996750243, 0.4140000091865659, 0.4227500030538067, 0.4151499888394028, 0.41340000461786985, 0.4157000075792894, 0.4273999948054552, 0.4191499901935458, 0.4220500122755766, 0.43265000567771494, 0.4149000014876947, 0.43080000614281744, 0.4169000021647662, 0.41629999759607017, 0.4167000006418675, 0.4158500087214634, 0.43245000415481627, 0.41769999370444566, 0.4257500113453716, 0.4292499943403527, 0.41695000254549086, 0.414249996538274, 0.42209999810438603, 0.42559999565128237, 0.414549998822622, 0.4403999919304624, 0.41164999129250646, 0.41804999636951834, 0.41795001015998423, 0.4135000053793192, 0.4259999986970797, 0.4104999970877543, 0.42240000038873404, 0.41009999404195696, 0.42144999315496534, 0.4336499987402931, 0.41214999509975314, 0.4217000096105039, 0.41629999759607017, 0.4275000101188198, 0.40869999793358147, 0.41665000026114285, 0.41710000368766487, 0.42019999818876386, 0.41140000394079834, 0.41629999759607017, 0.4482500080484897, 0.40630000876262784, 0.41974999476224184, 0.4199999966658652, 0.4276999970898032, 0.413799993111752, 0.4258499975549057, 0.4158000083407387, 0.42725000821519643, 0.42130000656470656, 0.41745000635273755],
  "Depth": 18.5,
  "Expectation Value": -9.152425765991211,
  "Optimal Expectation Value": -9.83795166015625,
  "Optimizer durations [ms]": [9.017, 10.084, 9.29, 9.659, 9.115, 9.792, 9.308, 9.397, 9.442, 9.263, 9.62, 9.14, 9.304, 9.521, 9.44, 9.083, 9.656, 9.062, 9.384, 9.318, 8.992, 9.584, 9.793, 9.09, 9.468, 9.567, 9.079, 9.284, 9.308, 9.276, 9.304, 9.566, 9.564, 9.161, 9.812, 9.395, 11.189, 14.216, 9.673, 9.71, 9.33, 9.494, 9.791, 9.369, 9.735, 9.229, 9.222, 9.146, 9.943, 9.585, 11.188, 10.224, 9.366, 17.291, 9.109, 12.498, 9.324, 9.38, 11.745, 9.137, 9.569, 11.611, 19.056, 10.162, 10.251, 10.247, 10.251, 9.343, 23.086, 9.399, 9.237, 10.682, 9.193, 9.788, 9.781, 23.82, 13.691, 9.472, 9.805, 9.729, 9.509, 9.129, 9.366, 10.019, 8.973, 9.737, 9.071, 9.428, 9.25, 9.407, 9.498, 9.482, 9.424, 9.105, 9.658, 9.457, 9.282, 9.465, 9.576, 9.445, 8.89, 9.444, 9.769, 9.072, 9.711, 9.018, 9.262, 9.879, 9.243, 9.073, 9.837, 9.419, 9.353, 9.454, 9.001, 9.747, 9.433, 9.49, 9.065, 9.531, 9.282, 10.005, 9.443, 9.238, 9.932, 9.694, 9.157, 9.491, 9.171, 9.301, 9.573, 9.323, 9.209, 9.912, 9.581, 18.542, 9.287, 9.635, 9.277, 9.19, 9.406, 9.561, 9.155, 9.459, 10.713, 9.596, 9.625, 9.247, 9.208, 24.221, 11.375, 9.237, 9.233, 9.436, 9.091, 9.414, 9.104, 9.581, 9.482, 9.186, 9.42, 9.282, 9.189, 9.54, 9.155, 9.545, 9.409, 9.273, 9.886, 9.205, 9.252, 9.373, 9.633, 9.408, 9.503, 9.145, 9.512, 9.423, 9.696, 9.493, 9.358, 9.276, 11.158, 9.422, 9.364, 9.482, 9.552, 9.211, 9.388, 9.428, 9.807, 9.177, 9.271, 9.37, 9.58, 9.557, 9.091, 9.355, 8.921, 9.608, 9.213, 9.522, 9.151, 9.298, 9.54, 9.575, 9.489, 9.693, 9.215, 10.042, 8.947, 9.283, 9.762, 9.265, 9.293, 9.389, 9.531, 9.603, 9.276, 9.607, 9.427, 9.353, 9.238, 9.487, 9.525, 9.252, 9.217, 9.592, 9.188, 9.575, 9.298, 9.578, 9.417, 9.086, 9.807, 9.464, 9.257, 9.569, 13.184, 17.28, 9.52, 10.241, 9.416, 9.31, 9.519, 9.551, 9.522, 9.7, 9.205, 9.6, 9.409, 9.213, 9.844, 20.95, 11.594, 9.293, 9.494, 9.378, 9.431, 9.143, 9.136, 9.468, 9.137, 9.273, 9.645, 9.35, 9.169, 9.591, 9.444, 9.491, 9.066, 9.52, 9.202, 9.511, 9.787, 9.286, 9.626, 9.473, 8.994, 9.857, 9.209, 9.766, 9.586, 9.614, 9.349, 9.229, 11.191, 9.296, 9.485, 9.242, 9.561, 9.211, 9.754, 9.52, 9.095, 9.556, 9.469, 9.325, 9.487, 9.05, 9.817, 9.508, 9.415, 9.028, 9.583, 9.612, 9.222, 9.418, 9.677, 9.47, 9.343, 10.363, 9.063, 9.743, 9.235, 9.415, 9.448, 9.292, 9.418, 9.708, 9.026, 9.372, 9.158, 9.661, 9.055, 9.778, 9.396, 9.374, 9.368, 9.564, 9.55, 9.61, 9.023, 9.3, 9.629, 9.214, 9.304, 9.606, 9.494, 9.776, 9.29, 12.663, 20.088, 9.603, 9.352, 9.854, 9.496, 9.068, 9.237, 9.769, 9.574, 9.201, 9.579, 9.203, 9.167, 9.348, 12.069, 9.076, 9.392, 9.793, 12.941, 9.033, 9.354, 9.617, 9.429, 9.508, 9.571, 9.17, 9.455, 22.291, 9.328, 9.098, 9.718, 9.15, 9.288, 9.691, 9.418, 10.791, 18.725, 9.4, 9.209, 9.266, 9.317, 9.653, 9.442, 21.681, 12.241, 9.246, 9.465, 9.186, 9.425, 9.286, 9.731, 9.234, 9.663, 9.499, 9.209, 9.625, 9.456, 9.509, 9.226, 9.446, 9.464, 9.313, 9.925, 9.051, 9.663, 9.498, 8.948, 9.472, 9.511, 9.289, 9.313, 9.358, 9.648, 8.923, 9.609, 9.553, 9.234, 9.424, 9.337, 9.342, 9.684, 9.683, 9.281, 9.456, 9.412, 9.341, 9.1, 9.424, 9.523, 9.387, 9.457, 9.817, 9.39, 9.544, 9.422, 9.256, 9.009, 9.662, 9.326, 12.113, 19.65, 9.094, 10.082, 9.399, 9.782, 9.546, 9.254, 9.696, 9.225, 9.711, 9.364, 9.168, 9.547, 9.413, 9.02, 13.287, 22.962, 9.583, 9.627, 9.413, 9.677, 9.424, 9.447, 9.471, 9.5, 9.39, 9.443, 9.512, 9.008, 9.815, 9.336, 9.436, 9.313, 9.141, 9.409, 9.696, 9.361, 9.284, 9.65, 9.098, 9.227, 9.193, 9.466, 9.297, 9.583, 9.398, 9.205, 9.262, 14.135, 9.47, 9.361, 9.326, 9.548, 9.487, 9.464, 9.191, 9.239, 9.48, 9.191, 9.127, 9.214, 9.152, 10.263, 9.288, 9.227, 9.621, 9.397, 9.406, 9.278, 9.51, 9.322, 9.635, 9.467, 9.129, 9.659, 9.198, 9.503, 9.082, 9.49, 9.241, 9.357, 9.409, 9.374, 9.332, 9.419, 9.79, 9.191, 9.857, 9.775, 9.363, 9.544, 9.474, 9.342, 9.272, 9.099, 9.585, 9.505, 9.314, 9.372, 9.704, 9.278, 9.52, 22.312, 9.182, 9.673, 9.488, 9.374, 9.488, 9.301, 9.369, 9.567, 9.415, 9.359, 10.501, 9.316, 9.362, 8.983, 9.368, 10.863, 26.255, 9.708, 9.435, 9.279, 9.596, 9.456, 9.252, 9.207, 9.442, 9.07, 9.298, 9.374, 9.219, 9.724, 9.045, 9.166, 9.427, 9.655, 9.457, 9.386, 9.551, 9.567, 9.579, 9.395, 9.458, 9.222, 9.385, 9.436, 9.795, 9.453, 9.502, 9.487, 14.27, 9.563, 9.351, 9.497, 9.923, 9.255, 9.335, 9.343, 9.479, 9.418, 9.242, 9.35, 9.261, 9.245, 9.983, 8.929, 9.819, 9.112, 9.504, 9.139, 9.616, 9.074, 9.714, 9.212, 9.348, 9.816, 9.372, 9.364, 9.174, 9.798, 9.281, 9.357, 9.3, 9.765, 9.453, 9.481],
  "Optimizer iterations": 629,
  "Optimizer params": [0.9830278566783296, 0.42315977423645734, 0.9519133957019126, 0.5457546435591432, 0.9970841598449541, 6.20594931373942e-05, 0.0792411429866528, 0.3340735003145336, 0.2909700976188324, 0.5402560417778333, 0.36410151643788924, 0.8858100192084062, 0.22041091925355516, 0.004894645966844568, 0.6358410959545052, 0.13037999285437885, 0.01932736295306824, 0.4858720132730134, 0.5087738922615799, 0.49618957157992116, 0.5916503862540159, 0.8565035475215929, 0.15083752529180466, 0.6555648588076337, 0.12005212088762746, 0.6382098782869363, 0.8805173618488074, 0.27002817332585294, 0.056411761229652906, 0.4896971043603522, 0.0355877433432364, 0.7476352644583432],
  "P": 0,
  "Problem": "IC",
  "QJob durations [ms]": [0.41340000461786985, 0.43554999865591526, 0.4172000044491142, 0.4229000041959807, 0.41960000817198306, 0.4395500000100583, 0.41805001092143357, 0.414399997680448, 0.41834999865386635, 0.42344999383203685, 0.41730000521056354, 0.4207500023767352, 0.41605001024436206, 0.4245000018272549, 0.41900000360328704, 0.4168500017840415, 0.4262000002199784, 0.41184999281540513, 0.41200000850949436, 0.4200999974273145, 0.414549998822622, 0.43745001312345266, 0.4270000063115731, 0.41634999797679484, 0.4292499943403527, 0.41799999598879367, 0.4123999970033765, 0.41235001117456704, 0.411750006605871, 0.4256000102031976, 0.4167000006418675, 0.4268000047886744, 0.4259000124875456, 0.411300003179349, 0.4413999995449558, 0.4267999902367592, 0.5040500109316781, 0.44750000233761966, 0.42394999763928354, 0.43235000339336693, 0.4118000069865957, 0.41909998981282115, 0.44309998338576406, 0.4157499934080988, 0.43459999142214656, 0.41530000453349203, 0.4165999998804182, 0.4113500035600737, 0.4506000113906339, 0.42224999924656004, 0.42460000258870423, 0.4582000110531226, 0.41244999738410115, 0.4162499972153455, 0.4135999915888533, 0.5692500126315281, 0.4184499994153157, 0.41074999899137765, 0.5499999970197678, 0.4160999960731715, 0.415000002249144, 0.538099993718788, 0.4126000130781904, 0.4742500022985041, 0.4601499967975542, 0.41885000246111304, 0.45804999535903335, 0.41554999188520014, 0.40284999704454094, 0.4206000012345612, 0.4204500000923872, 0.4842500202357769, 0.421649994677864, 0.43045000347774476, 0.4371999966679141, 0.4072500014444813, 0.6005500181345269, 0.41649999911896884, 0.4204500000923872, 0.4241999995429069, 0.42505000601522624, 0.4150500026298687, 0.418399999034591, 0.44559998787008226, 0.41480000072624534, 0.4344999906606972, 0.4122500104131177, 0.414549998822622, 0.41939999209716916, 0.414399997680448, 0.4219000111334026, 0.4206000012345612, 0.41485000110697, 0.414549998822622, 0.42219999886583537, 0.41480000072624534, 0.4141999961575493, 0.4290000069886446, 0.42255000153090805, 0.4178000090178102, 0.41024999518413097, 0.4201499978080392, 0.4215499939164147, 0.41865000093821436, 0.4215499939164147, 0.4135000053793192, 0.4106499982299283, 0.42889999167528003, 0.41880000208038837, 0.41024999518413097, 0.4387500084703788, 0.4195000074105337, 0.4189000028418377, 0.42315000609960407, 0.41414999577682465, 0.42714999290183187, 0.4233999934513122, 0.4147500003455207, 0.4123499966226518, 0.41399999463465065, 0.42984999890904874, 0.44249999336898327, 0.41959999362006783, 0.4239999980200082, 0.43480000749696046, 0.4313000099500641, 0.40860001172404736, 0.42240000038873404, 0.41449999844189733, 0.417949995608069, 0.4341000021668151, 0.41560000681784004, 0.42079998820554465, 0.44489999709185213, 0.4310500080464408, 0.39989998913370073, 0.4194999928586185, 0.4202999989502132, 0.4149999876972288, 0.41310000233352184, 0.415000002249144, 0.42475000373087823, 0.41280000004917383, 0.4156500071985647, 0.4810999962501228, 0.42114999087061733, 0.4270999925211072, 0.41700000292621553, 0.42374999611638486, 0.5964500014670193, 0.5138999986229464, 0.41155000508297235, 0.41259999852627516, 0.41120000241789967, 0.41199999395757914, 0.4219999973429367, 0.40859999717213213, 0.4197000089334324, 0.41915000474546105, 0.41495000186841935, 0.4209000035189092, 0.4092500021215528, 0.4193499917164445, 0.41390000842511654, 0.41885000246111304, 0.42600001324899495, 0.41575000796001405, 0.4258499975549057, 0.4380000027595088, 0.4174499918008223, 0.41370000690221786, 0.42145000770688057, 0.41865000093821436, 0.4202499985694885, 0.41969999438151717, 0.4097500059287995, 0.4317499988246709, 0.4235500091454014, 0.44615000660996884, 0.4222999996272847, 0.4170500033069402, 0.4221499984851107, 0.4175500071141869, 0.4207500023767352, 0.41459999920334667, 0.4260499990778044, 0.4195000074105337, 0.411450004321523, 0.421799995820038, 0.4268999909982085, 0.4237000102875754, 0.4181500116828829, 0.4161000106250867, 0.41870000131893903, 0.4236499953549355, 0.4167500010225922, 0.41295000119134784, 0.4107999993721023, 0.40994999289978296, 0.4152000037720427, 0.41709998913574964, 0.4208000027574599, 0.4149000014876947, 0.41834999865386635, 0.4175999929429963, 0.41975000931415707, 0.4251500067766756, 0.43245000415481627, 0.4110999871045351, 0.457649992313236, 0.4118000069865957, 0.41695000254549086, 0.43509999522939324, 0.4232500068610534, 0.41259999852627516, 0.41295000119134784, 0.41545000567566603, 0.43119999463669956, 0.41399999463465065, 0.43149999692104757, 0.4158500087214634, 0.4210500046610832, 0.4167000006418675, 0.4113999893888831, 0.4197999951429665, 0.41619999683462083, 0.4194999928586185, 0.4192500055069104, 0.4189999890513718, 0.4197999951429665, 0.4131500027142465, 0.42734999442473054, 0.4245000018272549, 0.4175000067334622, 0.4192999913357198, 0.42135000694543123, 0.42315000609960407, 0.4200999974273145, 0.6068999937269837, 0.44469999556895345, 0.42979999852832407, 0.46335000661201775, 0.41619999683462083, 0.4091000009793788, 0.4254500090610236, 0.41885000246111304, 0.43110000842716545, 0.4343999898992479, 0.41569999302737415, 0.41974999476224184, 0.41614999645389616, 0.41149999015033245, 0.43629998981487006, 0.44025000534020364, 0.5174500111024827, 0.4217000096105039, 0.43095000728499144, 0.4084000102011487, 0.4152999899815768, 0.4112499882467091, 0.4142500110901892, 0.41295000119134784, 0.4117499920539558, 0.41709998913574964, 0.42460000258870423, 0.41584999416954815, 0.42094998934771866, 0.42609999945852906, 0.41865000093821436, 0.4231000057188794, 0.41909998981282115, 0.4120999947190285, 0.41259999852627516, 0.4271000070730224, 0.4365499917184934, 0.42130000656470656, 0.43149999692104757, 0.41974999476224184, 0.41364999196957797, 0.4264499875716865, 0.4213999927742407, 0.42630000098142773, 0.4425999941304326, 0.42215001303702593, 0.4126499989069998, 0.4189000028418377, 0.414549998822622, 0.4236499953549355, 0.4165499994996935, 0.4109500005142763, 0.41710000368766487, 0.41584999416954815, 0.43929999810643494, 0.4228000034345314, 0.411300003179349, 0.4292499943403527, 0.4229500045767054, 0.4119500081287697, 0.4262000002199784, 0.41405000956729054, 0.4229500045767054, 0.42520000715740025, 0.4170500033069402, 0.41125000279862434, 0.42770001164171845, 0.4292000085115433, 0.4167000006418675, 0.41569999302737415, 0.42815000051632524, 0.41775000863708556, 0.4240499984007329, 0.45575000694952905, 0.41090000013355166, 0.4204500000923872, 0.41945000702980906, 0.4207500023767352, 0.41945000702980906, 0.4118999931961298, 0.42305000533815473, 0.4278999986127019, 0.41510000301059335, 0.4123999970033765, 0.4128500004298985, 0.42559999565128237, 0.41560000681784004, 0.4283500020392239, 0.410849999752827, 0.415150003391318, 0.42180001037195325, 0.42660000326577574, 0.4304000030970201, 0.42579999717418104, 0.41105000127572566, 0.418249997892417, 0.4223500000080094, 0.41870000131893903, 0.4235499945934862, 0.42294999002479017, 0.43730001198127866, 0.4334499972173944, 0.4139500088058412, 0.5648999940603971, 0.4000999906565994, 0.44484999671112746, 0.4199499962851405, 0.4343499895185232, 0.418099996750243, 0.41099998634308577, 0.42150000808760524, 0.4330500087235123, 0.42034999933093786, 0.42130000656470656, 0.4199499962851405, 0.414399997680448, 0.41205000889021903, 0.4149000014876947, 0.5368999991333112, 0.4199999966658652, 0.4158999945502728, 0.42949999624397606, 0.42284998926334083, 0.40780000563245267, 0.417499992181547, 0.42810000013560057, 0.41354999120812863, 0.42484998994041234, 0.42150000808760524, 0.42165000922977924, 0.4285000031813979, 0.42389999725855887, 0.4135999915888533, 0.4174000059720129, 0.43929999810643494, 0.4132000030949712, 0.41090000013355166, 0.4290999931981787, 0.4169999883743003, 0.4995500057702884, 0.43215000187046826, 0.40994999289978296, 0.4174499918008223, 0.41665000026114285, 0.42559999565128237, 0.42394999763928354, 0.42145000770688057, 0.4359499871497974, 0.5735500017181039, 0.4180000105407089, 0.41540000529494137, 0.414699999964796, 0.41629999759607017, 0.42034999933093786, 0.4275000101188198, 0.42055000085383654, 0.4308500065235421, 0.42219999886583537, 0.41629999759607017, 0.42505000601522624, 0.42224999924656004, 0.42964999738615006, 0.41530000453349203, 0.4123000107938424, 0.41625001176726073, 0.4157499934080988, 0.45244998182170093, 0.4155000060563907, 0.4168500017840415, 0.4219999973429367, 0.4147999861743301, 0.41280000004917383, 0.4206000012345612, 0.4215499939164147, 0.42195001151412725, 0.41665000026114285, 0.42514999222476035, 0.40729998727329075, 0.42180001037195325, 0.4188999882899225, 0.41399999463465065, 0.41725000482983887, 0.41510000301059335, 0.4227500030538067, 0.4119500081287697, 0.4263500013621524, 0.417949995608069, 0.4165999998804182, 0.41259999852627516, 0.4168500017840415, 0.4136500065214932, 0.41695000254549086, 0.42470000335015357, 0.41655001405160874, 0.4307999915909022, 0.44410000555217266, 0.4187500016996637, 0.41915000474546105, 0.41525000415276736, 0.41155000508297235, 0.41310000233352184, 0.42174999543931335, 0.42070000199601054, 0.5649000086123124, 0.5565999890677631, 0.40970000554807484, 0.43995000305585563, 0.42660000326577574, 0.4297499981475994, 0.41799999598879367, 0.4216999950585887, 0.42410001333337277, 0.41974999476224184, 0.4210500046610832, 0.41485000110697, 0.41545000567566603, 0.4113500035600737, 0.43835000542458147, 0.4140999953961, 0.6076499994378537, 0.4664999869419262, 0.4136500065214932, 0.4295999970054254, 0.4241499991621822, 0.42490000487305224, 0.4171499895164743, 0.4212000058032572, 0.41730000521056354, 0.41975000931415707, 0.4225000011501834, 0.4156500071985647, 0.42305000533815473, 0.4097499913768843, 0.4268999909982085, 0.4203000135021284, 0.4229500045767054, 0.411000000895001, 0.4165999998804182, 0.42949999624397606, 0.43325001024641097, 0.4200000112177804, 0.4226500022923574, 0.41799999598879367, 0.4115499905310571, 0.411150002037175, 0.41510000301059335, 0.4099500074516982, 0.41760000749491155, 0.42064998706337065, 0.4199499962851405, 0.4210500046610832, 0.41665000026114285, 0.43125000956933945, 0.413949994253926, 0.4158000083407387, 0.41880000208038837, 0.4226500022923574, 0.4267499898560345, 0.4184499994153157, 0.42189999658148736, 0.411150002037175, 0.40844999602995813, 0.40950000402517617, 0.4136500065214932, 0.4235499945934862, 0.40800000715535134, 0.45754999155178666, 0.417199989897199, 0.4192000051261857, 0.43184999958612025, 0.4164499987382442, 0.4229000041959807, 0.4155000060563907, 0.4233000072417781, 0.41449999844189733, 0.4318999999668449, 0.42350000876467675, 0.41349999082740396, 0.4254500090610236, 0.41965000855270773, 0.4165999998804182, 0.41319998854305595, 0.42630000098142773, 0.4097500059287995, 0.42320000648032874, 0.41375000728294253, 0.4202999989502132, 0.42149999353569, 0.4202499985694885, 0.4368499940028414, 0.4206000012345612, 0.4437500028871, 0.4284999886294827, 0.4193499917164445, 0.4278499982319772, 0.42270000267308205, 0.41384999349247664, 0.41464999958407134, 0.4146000137552619, 0.4169000021647662, 0.4236499953549355, 0.42594999831635505, 0.41435001185163856, 0.41849999979604036, 0.4205499863019213, 0.43354999797884375, 0.4540000081760809, 0.4138999938732013, 0.42549999488983303, 0.42874999053310603, 0.4140499950153753, 0.41385000804439187, 0.4113500035600737, 0.4165499994996935, 0.4334999975981191, 0.4117499920539558, 0.41155000508297235, 0.48755000170785934, 0.40940000326372683, 0.4162499972153455, 0.4117499920539558, 0.4330000083427876, 0.48445000720676035, 0.5165500188013539, 0.4282500012777746, 0.4210500046610832, 0.4153500049142167, 0.41819999751169235, 0.4152999899815768, 0.41310000233352184, 0.4248000041116029, 0.41510000301059335, 0.4112499882467091, 0.4096999909961596, 0.418099996750243, 0.4140000091865659, 0.4227500030538067, 0.4151499888394028, 0.41340000461786985, 0.4157000075792894, 0.4273999948054552, 0.4191499901935458, 0.4220500122755766, 0.43265000567771494, 0.4149000014876947, 0.43080000614281744, 0.4169000021647662, 0.41629999759607017, 0.4167000006418675, 0.4158500087214634, 0.43245000415481627, 0.41769999370444566, 0.4257500113453716, 0.4292499943403527, 0.41695000254549086, 0.414249996538274, 0.42209999810438603, 0.42559999565128237, 0.414549998822622, 0.4403999919304624, 0.41164999129250646, 0.41804999636951834, 0.41795001015998423, 0.4135000053793192, 0.4259999986970797, 0.4104999970877543, 0.42240000038873404, 0.41009999404195696, 0.42144999315496534, 0.4336499987402931, 0.41214999509975314, 0.4217000096105039, 0.41629999759607017, 0.4275000101188198, 0.40869999793358147, 0.41665000026114285, 0.41710000368766487, 0.42019999818876386, 0.41140000394079834, 0.41629999759607017, 0.4482500080484897, 0.40630000876262784, 0.41974999476224184, 0.4199999966658652, 0.4276999970898032, 0.413799993111752, 0.4258499975549057, 0.4158000083407387, 0.42725000821519643, 0.42130000656470656, 0.41745000635273755],
  "QPU": "7000000",
  "Qubits": 8,
  "Queue durations [ms]": [0.0, 0.0, 0.0, 0.0, 0.0, 0.0, 0.0, 0.0, 0.0, 0.0, 0.0, 0.0, 0.0, 0.0, 0.0, 0.0, 0.0, 0.0, 0.0, 0.0, 0.0, 0.0, 0.0, 0.0, 0.0, 0.0, 0.0, 0.0, 0.0, 0.0, 0.0, 0.0, 0.0, 0.0, 0.0, 0.0, 0.0, 0.0, 0.0, 0.0, 0.0, 0.0, 0.0, 0.0, 0.0, 0.0, 0.0, 0.0, 0.0, 0.0, 0.0, 0.0, 0.0, 0.0, 0.0, 0.0, 0.0, 0.0, 0.0, 0.0, 0.0, 0.0, 0.0, 0.0, 0.0, 0.0, 0.0, 0.0, 0.0, 0.0, 0.0, 0.0, 0.0, 0.0, 0.0, 0.0, 0.0, 0.0, 0.0, 0.0, 0.0, 0.0, 0.0, 0.0, 0.0, 0.0, 0.0, 0.0, 0.0, 0.0, 0.0, 0.0, 0.0, 0.0, 0.0, 0.0, 0.0, 0.0, 0.0, 0.0, 0.0, 0.0, 0.0, 0.0, 0.0, 0.0, 0.0, 0.0, 0.0, 0.0, 0.0, 0.0, 0.0, 0.0, 0.0, 0.0, 0.0, 0.0, 0.0, 0.0, 0.0, 0.0, 0.0, 0.0, 0.0, 0.0, 0.0, 0.0, 0.0, 0.0, 0.0, 0.0, 0.0, 0.0, 0.0, 0.0, 0.0, 0.0, 0.0, 0.0, 0.0, 0.0, 0.0, 0.0, 0.0, 0.0, 0.0, 0.0, 0.0, 0.0, 0.0, 0.0, 0.0, 0.0, 0.0, 0.0, 0.0, 0.0, 0.0, 0.0, 0.0, 0.0, 0.0, 0.0, 0.0, 0.0, 0.0, 0.0, 0.0, 0.0, 0.0, 0.0, 0.0, 0.0, 0.0, 0.0, 0.0, 0.0, 0.0, 0.0, 0.0, 0.0, 0.0, 0.0, 0.0, 0.0, 0.0, 0.0, 0.0, 0.0, 0.0, 0.0, 0.0, 0.0, 0.0, 0.0, 0.0, 0.0, 0.0, 0.0, 0.0, 0.0, 0.0, 0.0, 0.0, 0.0, 0.0, 0.0, 0.0, 0.0, 0.0, 0.0, 0.0, 0.0, 0.0, 0.0, 0.0, 0.0, 0.0, 0.0, 0.0, 0.0, 0.0, 0.0, 0.0, 0.0, 0.0, 0.0, 0.0, 0.0, 0.0, 0.0, 0.0, 0.0, 0.0, 0.0, 0.0, 0.0, 0.0, 0.0, 0.0, 0.0, 0.0, 0.0, 0.0, 0.0, 0.0, 0.0, 0.0, 0.0, 0.0, 0.0, 0.0, 0.0, 0.0, 0.0, 0.0, 0.0, 0.0, 0.0, 0.0, 0.0, 0.0, 0.0, 0.0, 0.0, 0.0, 0.0, 0.0, 0.0, 0.0, 0.0, 0.0, 0.0, 0.0, 0.0, 0.0, 0.0, 0.0, 0.0, 0.0, 0.0, 0.0, 0.0, 0.0, 0.0, 0.0, 0.0, 0.0, 0.0, 0.0, 0.0, 0.0, 0.0, 0.0, 0.0, 0.0, 0.0, 0.0, 0.0, 0.0, 0.0, 0.0, 0.0, 0.0, 0.0, 0.0, 0.0, 0.0, 0.0, 0.0, 0.0, 0.0, 0.0, 0.0, 0.0, 0.0, 0.0, 0.0, 0.0, 0.0, 0.0, 0.0, 0.0, 0.0, 0.0, 0.0, 0.0, 0.0, 0.0, 0.0, 0.0, 0.0, 0.0, 0.0, 0.0, 0.0, 0.0, 0.0, 0.0, 0.0, 0.0, 0.0, 0.0, 0.0, 0.0, 0.0, 0.0, 0.0, 0.0, 0.0, 0.0, 0.0, 0.0, 0.0, 0.0, 0.0, 0.0, 0.0, 0.0, 0.0, 0.0, 0.0, 0.0, 0.0, 0.0, 0.0, 0.0, 0.0, 0.0, 0.0, 0.0, 0.0, 0.0, 0.0, 0.0, 0.0, 0.0, 0.0, 0.0, 0.0, 0.0, 0.0, 0.0, 0.0, 0.0, 0.0, 0.0, 0.0, 0.0, 0.0, 0.0, 0.0, 0.0, 0.0, 0.0, 0.0, 0.0, 0.0, 0.0, 0.0, 0.0, 0.0, 0.0, 0.0, 0.0, 0.0, 0.0, 0.0, 0.0, 0.0, 0.0, 0.0, 0.0, 0.0, 0.0, 0.0, 0.0, 0.0, 0.0, 0.0, 0.0, 0.0, 0.0, 0.0, 0.0, 0.0, 0.0, 0.0, 0.0, 0.0, 0.0, 0.0, 0.0, 0.0, 0.0, 0.0, 0.0, 0.0, 0.0, 0.0, 0.0, 0.0, 0.0, 0.0, 0.0, 0.0, 0.0, 0.0, 0.0, 0.0, 0.0, 0.0, 0.0, 0.0, 0.0, 0.0, 0.0, 0.0, 0.0, 0.0, 0.0, 0.0, 0.0, 0.0, 0.0, 0.0, 0.0, 0.0, 0.0, 0.0, 0.0, 0.0, 0.0, 0.0, 0.0, 0.0, 0.0, 0.0, 0.0, 0.0, 0.0, 0.0, 0.0, 0.0, 0.0, 0.0, 0.0, 0.0, 0.0, 0.0, 0.0, 0.0, 0.0, 0.0, 0.0, 0.0, 0.0, 0.0, 0.0, 0.0, 0.0, 0.0, 0.0, 0.0, 0.0, 0.0, 0.0, 0.0, 0.0, 0.0, 0.0, 0.0, 0.0, 0.0, 0.0, 0.0, 0.0, 0.0, 0.0, 0.0, 0.0, 0.0, 0.0, 0.0, 0.0, 0.0, 0.0, 0.0, 0.0, 0.0, 0.0, 0.0, 0.0, 0.0, 0.0, 0.0, 0.0, 0.0, 0.0, 0.0, 0.0, 0.0, 0.0, 0.0, 0.0, 0.0, 0.0, 0.0, 0.0, 0.0, 0.0, 0.0, 0.0, 0.0, 0.0, 0.0, 0.0, 0.0, 0.0, 0.0, 0.0, 0.0, 0.0, 0.0, 0.0, 0.0, 0.0, 0.0, 0.0, 0.0, 0.0, 0.0, 0.0, 0.0, 0.0, 0.0, 0.0, 0.0, 0.0, 0.0, 0.0, 0.0, 0.0, 0.0, 0.0, 0.0, 0.0, 0.0, 0.0, 0.0, 0.0, 0.0, 0.0, 0.0, 0.0, 0.0, 0.0, 0.0, 0.0, 0.0, 0.0, 0.0, 0.0, 0.0, 0.0, 0.0, 0.0, 0.0, 0.0, 0.0, 0.0, 0.0, 0.0, 0.0, 0.0, 0.0, 0.0, 0.0, 0.0, 0.0, 0.0, 0.0, 0.0, 0.0, 0.0, 0.0, 0.0, 0.0],
  "Shots": 4096,
  "Size": 8,
  "Total Algorithm duration [s]": 6.182,
  "Total Classic duration [s]": 5.914697049737908,
  "Total Quantum duration [s]": 0.26730295026209205
}
