{
  "Circuit execution durations [ms]": [0.41804999636951834, 0.44559998787008226, 0.43974998698104173, 0.4417999880388379, 0.4119500081287697, 0.4358000005595386, 0.4231999919284135, 0.41510000301059335, 0.43045000347774476, 0.4221499984851107, 0.41649999911896884, 0.4186000005574897, 0.4288500058464706, 0.4227500030538067, 0.43914999696426094, 0.4133500042371452, 0.42279998888261616, 0.42159999429713935, 0.41444999806117266, 0.41874998714774847, 0.4189500032225624, 0.41649999911896884, 0.4315999976824969, 0.41539999074302614, 0.42440000106580555, 0.41530000453349203, 0.41619999683462083, 0.4653999931178987, 0.42174999543931335, 0.4163000121479854, 0.42860000394284725, 0.411450004321523, 0.43089999235235155, 0.41530000453349203, 0.418249997892417, 0.42964999738615006, 0.4233000072417781, 0.42195001151412725, 0.41604999569244683, 0.413799993111752, 0.4157000075792894, 0.41259999852627516, 0.41265001345891505, 0.41969999438151717, 0.41790000977925956, 0.4256999964127317, 0.42719999328255653, 0.41099998634308577, 0.44565000280272216, 0.42204999772366136, 0.42050000047311187, 0.4162499972153455, 0.4144000122323632, 0.41369999235030264, 0.41444999806117266, 0.5619500007014722, 0.5844000115757808, 0.4371999966679141, 0.4291499935789034, 0.41584999416954815, 0.4175999929429963, 0.4217000096105039, 0.4221499984851107, 0.4193500062683597, 0.4154499911237508, 0.42934999510180205, 0.42470000335015357, 0.42189999658148736, 0.41819999751169235, 0.41525000415276736, 0.40869999793358147, 0.41545000567566603, 0.4091000009793788, 0.41954999323934317, 0.4280499997548759, 0.4234999942127615, 0.470300015877001, 0.415150003391318, 0.4160999960731715, 0.43169999844394624, 0.42645000212360173, 0.42165000922977924, 0.4100500082131475, 0.4392499977257103, 0.421799995820038, 0.41590000910218805, 0.4642999992938712, 0.4232499923091382, 0.4126499989069998, 0.461199990240857, 0.42740000935737044, 0.4096000047866255, 0.42010001197922975, 0.42320000648032874, 0.42195001151412725, 0.41444999806117266, 0.4133999900659546, 0.4197999951429665, 0.40550000267103314, 0.4126999992877245, 0.41819999751169235, 0.4187500016996637, 0.41090000013355166, 0.41939999209716916, 0.41274999966844916, 0.42004999704658985, 0.42660000326577574, 0.4655999946407974, 0.42100000428035855, 0.42475000373087823, 0.42655000288505107, 0.4167000006418675, 0.41364999196957797, 0.4275499959476292, 0.414249996538274, 0.4168500017840415, 0.42394999763928354, 0.4213999927742407, 0.4192000051261857, 0.413949994253926, 0.4346499918028712, 0.42359999497421086, 0.4224500007694587, 0.42469998879823834, 0.41725000482983887, 0.42714999290183187, 0.42705000669229776, 0.4118999931961298, 0.4183500132057816, 0.41540000529494137, 0.4208000027574599, 0.4173500055912882, 0.41789999522734433, 0.42884999129455537, 0.421949996962212, 0.42440000106580555, 0.42830000165849924, 0.4149999876972288, 0.4158500087214634, 0.4236499953549355, 0.4149000014876947, 0.4262000002199784, 0.41289998625870794, 0.4206500016152859, 0.4165999998804182, 0.4151499888394028, 0.4208000027574599, 0.4149000014876947, 0.43265000567771494, 0.42514999222476035, 0.4201500123599544, 0.4099500074516982, 0.4211000050418079, 0.4250000056345016, 0.4292999947210774, 0.4201499978080392, 0.4152999899815768, 0.4136500065214932, 0.410699998610653, 0.4219000111334026, 0.41885000246111304, 0.4188999882899225, 0.42270000267308205, 0.41569999302737415, 0.4200999974273145, 0.4161500110058114, 0.41545000567566603, 0.4249500052537769, 0.4186000005574897, 0.480200003948994, 0.4140499950153753, 0.4254500090610236, 0.3784500004258007, 0.42964999738615006, 0.41340000461786985, 0.4609500028891489, 0.4262000002199784, 0.4295499966247007, 0.42609999945852906, 0.411600005463697, 0.4164499987382442, 0.41540000529494137, 0.43250000453554094, 0.4240499984007329, 0.4165999998804182, 0.421649994677864, 0.41795001015998423, 0.5224499909672886, 0.4202499985694885, 0.5299000040395185, 0.41924999095499516, 0.41449999844189733, 0.4302500019548461, 0.4212500061839819, 0.44550000166054815, 0.41464999958407134, 0.41885000246111304, 0.4204500000923872, 0.4206000012345612, 0.4202499985694885, 0.4303500027162954, 0.4116500058444217, 0.4398500022944063, 0.42565001058392227, 0.4186000005574897, 0.41205000889021903, 0.4208499885862693, 0.42034999933093786, 0.41179999243468046, 0.4278499982319772, 0.41614999645389616, 0.42529999336693436, 0.41760000749491155, 0.4159499949309975, 0.4169000021647662, 0.41569999302737415, 0.41044999670702964, 0.41915000474546105, 0.41354999120812863, 0.4159499949309975, 0.4149000014876947, 0.42130000656470656, 0.4164499987382442, 0.42285000381525606, 0.4214000073261559, 0.4209500038996339, 0.41760000749491155, 0.4197000089334324, 0.4393999988678843, 0.42460000258870423, 0.41969999438151717, 0.4204500000923872, 0.4236499953549355, 0.4885499947704375, 0.41784999484661967, 0.4195500077912584, 0.41965000855270773, 0.4346999921835959, 0.4246500029694289, 0.4222999996272847, 0.4241999995429069, 0.4305000038584694, 0.4121999954804778, 0.41885000246111304, 0.4152000037720427, 0.414399997680448, 0.42779999785125256, 0.4123999970033765, 0.4149999876972288, 0.42189999658148736, 0.4160999960731715, 0.42240000038873404, 0.41120000241789967, 0.4136500065214932, 0.414249996538274, 0.42224999924656004, 0.41429999691899866, 0.4167000006418675, 0.4232500068610534, 0.41604999569244683, 0.42860000394284725, 0.5667000077664852, 0.5380000075092539, 0.421049990109168, 0.4435500013642013, 0.4182000120636076, 0.4136500065214932, 0.4261499998392537, 0.41485000110697, 0.417349991039373, 0.4424499929882586, 0.43369999912101775, 0.477400011732243, 0.4261499998392537, 0.42400001257192343, 0.4201499978080392, 0.4226500022923574, 0.4154499911237508, 0.42344999383203685, 0.41789999522734433, 0.4092500021215528, 0.4253999941283837, 0.4200999974273145, 0.4302999877836555, 0.42565001058392227, 0.42684999061748385, 0.4106499982299283, 0.41340000461786985, 0.4387500084703788, 0.4163999983575195, 0.41534999036230147, 0.44040000648237765, 0.4143499972997233, 0.4236000095261261, 0.41590000910218805, 0.4193500062683597, 0.42454998765606433, 0.41134998900815845, 0.41774999408517033, 0.4138000076636672, 0.43744999857153744, 0.4222999996272847, 0.421949996962212, 0.4172000044491142, 0.4196499940007925, 0.40809999336488545, 0.4267499898560345, 0.41989999590441585, 0.41444999806117266, 0.4157499934080988, 0.414699999964796, 0.4239999980200082, 0.41510000301059335, 0.4210500046610832, 0.414249996538274, 0.41885000246111304, 0.41754999256227165, 0.41554999188520014, 0.42255000153090805, 0.4235499945934862, 0.408050007536076, 0.4349000082584098, 0.4126499989069998, 0.42299999040551484, 0.42675000440794975, 0.41259999852627516, 0.4201499978080392, 0.4255499952705577, 0.4250000056345016, 0.4159499949309975, 0.41849999979604036, 0.43759999971371144, 0.4165999998804182, 0.41029999556485564, 0.4250999918440357, 0.42240000038873404, 0.4304000030970201, 0.4273999948054552, 0.41310000233352184, 0.41954999323934317, 0.4155000060563907, 0.43559999903663993, 0.4195500077912584, 0.4206000012345612, 0.4272499936632812, 0.4164499987382442, 0.4409499961184338, 0.4293500096537173, 0.4319500003475696, 0.42050000047311187, 0.42074998782482, 0.41540000529494137, 0.4140999953961, 0.4157999937888235, 0.4140000091865659, 0.4277499974705279, 0.41464999958407134, 0.41629999759607017, 0.4189000028418377, 0.44075000914745033, 0.4303500027162954, 0.4172999906586483, 0.42794999899342656, 0.41259999852627516, 0.43739999819081277, 0.4304999893065542, 0.411300003179349, 0.5469999887282029, 0.418399999034591, 0.42209999810438603, 0.42270000267308205, 0.43420000292826444, 0.42305000533815473, 0.42905000736936927, 0.42145000770688057, 0.42535000829957426, 0.42165000922977924, 0.41199999395757914, 0.4133500042371452, 0.41745000635273755, 0.4239999980200082, 0.41710000368766487, 0.40970000554807484, 0.41774999408517033, 0.4165999998804182, 0.42189999658148736, 0.42070000199601054, 0.4285500035621226, 0.42699999175965786, 0.4232499923091382, 0.42555000982247293, 0.417949995608069, 0.4153500049142167, 0.41799999598879367, 0.41215000965166837, 0.43835000542458147, 0.4202499985694885, 0.4222999996272847, 0.43679999362211674, 0.4201499978080392, 0.4115499905310571, 0.4345500055933371, 0.41534999036230147, 0.4163999983575195, 0.4224500007694587, 0.41715000406838953, 0.4156500071985647, 0.4198499955236912, 0.42764999670907855, 0.40889999945648015, 0.42579999717418104, 0.4211000050418079, 0.4095999902347103, 0.4210500046610832, 0.41545000567566603, 0.42625000060070306, 0.41775000863708556, 0.421349992393516, 0.41695000254549086, 0.4219999973429367, 0.43569999979808927, 0.42485000449232757, 0.4189500032225624, 0.417199989897199, 0.4181499971309677, 0.4218500107526779, 0.4272499936632812, 0.42209999810438603, 0.4198499955236912, 0.4292000085115433, 0.4130000015720725, 0.4194000066490844, 0.4098999925190583, 0.41885000246111304, 0.41725000482983887, 0.421199991251342, 0.41930000588763505, 0.40859999717213213, 0.4214000073261559, 0.4215499939164147, 0.41545000567566603, 0.4395500000100583, 0.4164499987382442, 0.42100000428035855, 0.43170001299586147, 0.4236499953549355, 0.4267000040272251, 0.42559999565128237, 0.4222999996272847, 0.4234000080032274, 0.4230999911669642, 0.41444999806117266, 0.4283500020392239, 0.41545000567566603, 0.4169999883743003, 0.4180000105407089, 0.4258999979356304, 0.4192999913357198, 0.410849999752827, 0.42594999831635505, 0.41485000110697, 0.41774999408517033, 0.4186000005574897, 0.42749999556690454, 0.4724999889731407, 0.42004999704658985, 0.4140999953961, 0.45790000876877457, 0.4155000060563907, 0.4158999945502728, 0.42594999831635505, 0.41510000301059335, 0.48255000729113817, 0.43054998968727887, 0.4252500075381249, 0.41179999243468046, 0.5572499940171838, 0.41405000956729054, 0.41280000004917383, 0.5351499858079478, 0.4219999973429367, 0.41634999797679484, 0.5154499958734959, 0.404350008466281, 0.4667499888455495, 0.424449986894615, 0.41155000508297235, 0.49325000145472586, 0.4215500084683299, 0.5563000158872455, 0.42964999738615006, 0.41909998981282115, 0.4991000023437664, 0.42660000326577574, 0.41634999797679484, 0.47035001625772566, 0.4379500023787841, 0.5273999995552003, 0.4165999998804182, 0.42329999268986285, 0.42129999201279134, 0.42394999763928354, 0.4288000054657459, 0.42594999831635505, 0.4161000106250867, 0.4194999928586185, 0.41599999531172216, 0.41599999531172216, 0.421799995820038, 0.41310000233352184, 0.4191499901935458, 0.440350006101653, 0.415000002249144, 0.4219999973429367, 0.41360000614076853, 0.44859999616164714, 0.4165499994996935, 0.42204999772366136, 0.4208000027574599, 0.41789999522734433, 0.42470000335015357, 0.4232499923091382, 0.41385000804439187, 0.4215499939164147, 0.4168500017840415, 0.42559999565128237, 0.4195000074105337, 0.4130500019527972, 0.43494999408721924, 0.44380000326782465, 0.4352000105427578, 0.4282000008970499, 0.43104999349452555, 0.4227500030538067, 0.4174000059720129, 0.41605001024436206, 0.4357999860076234, 0.42039999971166253, 0.4202499985694885, 0.4189999890513718, 0.41375000728294253, 0.4222999996272847, 0.454699998954311, 0.4262000002199784, 0.4228999896440655, 0.4167500010225922, 0.41495000186841935, 0.4381000035209581, 0.41805001092143357, 0.41849999979604036, 0.42034999933093786, 0.42115000542253256, 0.42424999992363155, 0.418249997892417, 0.42460000258870423, 0.43080000614281744, 0.4135000053793192, 0.4138000076636672, 0.41959999362006783, 0.41804999636951834, 0.42729999404400587, 0.4194999928586185, 0.42255000153090805, 0.4270000063115731, 0.418249997892417, 0.42799999937415123, 0.411450004321523, 0.4168500017840415, 0.4208000027574599, 0.4262999864295125, 0.5385500116972253, 0.4344500048318878, 0.5228999943938106, 0.4274500097380951, 0.4132000030949712, 0.41560000681784004, 0.447149999672547, 0.4259999986970797, 0.4381500039016828, 0.42039999971166253, 0.42094998934771866, 0.4173500055912882, 0.4352999967522919, 0.42115000542253256, 0.41614999645389616, 0.4648500034818426, 0.42335000762250274, 0.4285500035621226, 0.4259999986970797, 0.4149000014876947, 0.41789999522734433, 0.4329499934101477, 0.41369999235030264, 0.4235499945934862, 0.4133000038564205, 0.42159999429713935, 0.4282000008970499, 0.41340000461786985, 0.42219999886583537, 0.4246500029694289, 0.4289499920560047, 0.41274999966844916, 0.4212000058032572, 0.41459999920334667, 0.4429500113474205, 0.41619999683462083, 0.4233999934513122, 0.4138999938732013, 0.4156500071985647, 0.4270000063115731, 0.4132000030949712, 0.408500010962598, 0.4180000105407089, 0.4219999973429367, 0.4236499953549355, 0.4147500003455207, 0.4219999973429367, 0.4126999992877245, 0.42109999048989266, 0.4523000097833574, 0.41804999636951834, 0.4903499939246103, 0.4211000050418079, 0.4154499911237508, 0.4201500123599544, 0.41485000110697, 0.4104999970877543, 0.4228000034345314, 0.4141500103287399, 0.4182999982731417, 0.41250001231674105, 0.4168500017840415, 0.42949999624397606, 0.417649993323721, 0.42409999878145754, 0.42625000060070306, 0.421799995820038, 0.41539999074302614, 0.41900000360328704, 0.4224500007694587, 0.40979999175760895, 0.41680000140331686, 0.42130000656470656, 0.4143499972997233, 0.421349992393516, 0.40985000669024885, 0.4201499978080392, 0.4461499920580536, 0.4164499987382442, 0.4218499962007627, 0.4191999905742705, 0.41634999797679484, 0.4337499995017424, 0.4224500007694587, 0.414549998822622, 0.4295000107958913, 0.41799999598879367, 0.4903499939246103, 0.4229000041959807, 0.41354999120812863, 0.4302000015741214, 0.41170000622514635, 0.418099996750243, 0.415150003391318, 0.42039999971166253, 0.4200999974273145, 0.41804999636951834, 0.43245000415481627, 0.4209999897284433, 0.42600001324899495, 0.41665000026114285, 0.42215001303702593, 0.41619999683462083, 0.43820000428240746, 0.4231999919284135, 0.41774999408517033, 0.42379999649710953, 0.4504500102484599, 0.5302999925334007, 0.4161500110058114, 0.46969999675638974, 0.41364999196957797, 0.4263500013621524, 0.43805000314023346, 0.4261499998392537, 0.4337999998824671, 0.41784999484661967, 0.4249500052537769, 0.4273999948054552, 0.4258000117260963, 0.417949995608069, 0.45829998271074146, 0.4209000035189092, 0.4678000113926828, 0.41620001138653606, 0.4261499998392537, 0.42255000153090805, 0.4202999989502132, 0.42905000736936927, 0.4343999898992479, 0.4130500019527972, 0.44175000221002847, 0.4157499934080988, 0.4321000014897436, 0.4233999934513122, 0.4161500110058114, 0.4158999945502728, 0.4138999938732013, 0.4222999996272847, 0.42454998765606433, 0.42150000808760524, 0.4101999948034063, 0.42299999040551484, 0.4186000005574897, 0.41649999911896884, 0.41745000635273755, 0.42320000648032874, 0.41885000246111304, 0.43685000855475664, 0.42019999818876386, 0.4173500055912882, 0.4124999977648258, 0.41464999958407134, 0.4232499923091382, 0.41989999590441585, 0.43754999933298677, 0.4197999951429665, 0.43000000005122274, 0.4198499955236912, 0.4223500000080094, 0.41364999196957797, 0.4287999909138307, 0.42115000542253256, 0.41849999979604036, 0.414399997680448, 0.42394999763928354, 0.4327000060584396, 0.4250999918440357, 0.42129999201279134, 0.4190500039840117, 0.42845000280067325, 0.43134999577887356, 0.4224500007694587, 0.44595000508707017, 0.42984999890904874, 0.41789999522734433, 0.4169000021647662, 0.425049991463311, 0.4278999986127019, 0.42625000060070306, 0.4325499903643504, 0.41710000368766487, 0.4133999900659546, 0.4287000047042966, 0.41480000072624534, 0.43289999302942306, 0.4186000005574897, 0.42699999175965786, 0.4227500030538067, 0.4317999992053956, 0.42124999163206667, 0.43559999903663993, 0.4150500026298687, 0.4226000019116327, 0.41360000614076853, 0.4103499959455803, 0.4198499955236912, 0.417949995608069, 0.4128500004298985, 0.4221499984851107, 0.42460000258870423, 0.4233000072417781, 0.41989999590441585, 0.41865000093821436, 0.4215499939164147, 0.4157499934080988, 0.4134499904466793, 0.4117499920539558, 0.41614999645389616, 0.4209500038996339, 0.42550000944174826, 0.5211500101722777, 0.43494999408721924, 0.41405000956729054, 0.5327499966369942, 0.421049990109168, 0.41710000368766487, 0.41849999979604036, 0.46654998732265085, 0.4172000044491142, 0.4182999982731417, 0.41510000301059335, 0.4456999886315316, 0.38649998896289617, 0.44565000280272216, 0.41044999670702964, 0.5556999967666343, 0.42039999971166253, 0.41665000026114285, 0.4181499971309677, 0.4014000005554408, 0.42004999704658985, 0.4259999986970797, 0.440650008386001, 0.41945000702980906, 0.41894998867064714, 0.4415500006871298, 0.45360000513028353, 0.43200000072829425, 0.414399997680448, 0.42714999290183187, 0.4199999966658652, 0.42860000394284725, 0.43400000140536577, 0.4268999909982085, 0.41325000347569585, 0.42455000220797956, 0.4189000028418377, 0.4363999905763194, 0.424749989178963, 0.4327000060584396, 0.41290000081062317, 0.41790000977925956, 0.42305000533815473, 0.43104999349452555, 0.42315000609960407, 0.4319500003475696, 0.4303500027162954, 0.4241999995429069, 0.4092499875696376, 0.425349993747659, 0.4263500013621524, 0.4162499972153455, 0.4308500065235421, 0.41629999759607017, 0.4157000075792894, 0.4190499894320965, 0.42300000495743006, 0.4175999929429963, 0.4335999983595684, 0.41120000241789967, 0.4268500051693991, 0.4190499894320965, 0.42455000220797956, 0.41014999442268163, 0.4236999957356602, 0.4191999905742705, 0.4238499968778342, 0.4132999893045053, 0.4210500046610832, 0.4132000030949712, 0.46675000339746475, 0.42499999108258635, 0.42365000990685076, 0.4278499982319772, 0.42100000428035855, 0.41960000817198306, 0.4192500055069104, 0.4285000031813979, 0.4162499972153455, 0.4258499975549057, 0.41989999590441585, 0.41784999484661967, 0.4278499982319772, 0.4184499994153157, 0.41265001345891505, 0.41619999683462083, 0.4186000005574897, 0.4447999963304028, 0.4202999989502132, 0.42189999658148736, 0.44550000166054815, 0.42070000199601054, 0.40920000174082816, 0.42224999924656004, 0.41715000406838953, 0.4226999881211668, 0.41504998807795346, 0.41954999323934317, 0.4175500071141869, 0.41485000110697, 0.602099986281246, 0.46869998914189637, 0.48325001262128353, 0.41354999120812863, 0.4133500042371452, 0.42720000783447176, 0.43400000140536577, 0.42070000199601054, 0.42100000428035855, 0.41399999463465065, 0.4150500026298687, 0.42514999222476035, 0.41319998854305595, 0.43230000301264226, 0.41954999323934317, 0.45664999925065786, 0.41554999188520014, 0.4202999989502132, 0.4206000012345612, 0.42335000762250274, 0.41325000347569585, 0.4162499972153455, 0.41954999323934317, 0.4191499901935458, 0.41525000415276736, 0.41980000969488174, 0.4251500067766756, 0.4208000027574599, 0.43975000153295696, 0.4167000006418675, 0.41945000702980906, 0.41665000026114285, 0.4165499994996935, 0.4282000008970499],
  "Depth": 18.5,
  "Expectation Value": -8.971569061279297,
  "Optimal Expectation Value": -9.83795166015625,
  "Optimizer durations [ms]": [9.332, 9.588, 9.735, 9.869, 9.051, 9.676, 9.463, 9.496, 9.483, 9.57, 9.256, 9.352, 9.67, 9.496, 9.694, 9.235, 9.502, 9.519, 9.384, 9.498, 9.476, 9.014, 9.56, 9.516, 9.465, 9.371, 8.937, 10.378, 9.25, 9.38, 9.719, 9.0, 9.902, 9.334, 9.381, 9.603, 9.547, 9.422, 9.447, 9.403, 9.154, 9.37, 9.316, 9.337, 9.37, 9.579, 9.505, 9.306, 9.815, 9.504, 9.533, 9.434, 9.393, 9.271, 9.292, 12.305, 21.599, 10.457, 9.562, 9.535, 9.405, 9.23, 9.557, 9.536, 8.998, 9.723, 9.4, 9.616, 9.276, 9.232, 9.398, 9.348, 9.43, 9.383, 9.673, 9.577, 10.088, 9.17, 10.271, 9.625, 9.427, 9.514, 9.372, 9.879, 9.415, 9.257, 10.27, 9.173, 12.059, 10.409, 9.387, 9.254, 9.57, 9.382, 9.307, 9.594, 9.165, 9.538, 9.043, 9.153, 9.571, 9.511, 8.907, 9.531, 9.377, 9.21, 9.643, 10.352, 9.628, 9.556, 9.462, 9.403, 9.213, 9.6, 9.356, 9.355, 9.453, 9.386, 9.534, 9.116, 9.928, 9.484, 9.316, 9.462, 9.304, 9.637, 9.779, 9.131, 9.219, 9.4, 9.274, 9.534, 9.452, 9.624, 9.361, 9.695, 9.635, 9.286, 9.521, 9.464, 9.258, 9.535, 9.255, 9.241, 9.374, 9.451, 9.543, 9.313, 9.393, 9.603, 9.301, 9.268, 9.162, 9.365, 9.708, 9.251, 9.38, 9.504, 9.215, 9.202, 10.56, 9.494, 9.202, 18.233, 9.214, 9.583, 9.182, 9.652, 9.208, 10.835, 9.25, 9.262, 24.431, 9.818, 9.357, 9.957, 9.517, 9.455, 9.637, 16.532, 9.348, 9.154, 9.683, 9.537, 9.42, 9.506, 9.453, 11.186, 20.817, 11.77, 9.349, 9.475, 9.462, 9.543, 9.698, 9.575, 9.401, 9.14, 9.373, 9.516, 9.428, 9.341, 9.806, 9.465, 9.684, 9.133, 9.534, 9.478, 9.247, 9.536, 9.411, 9.506, 9.393, 9.286, 9.597, 9.256, 9.212, 9.494, 9.341, 9.297, 9.355, 9.42, 9.225, 9.386, 9.649, 9.292, 9.476, 9.261, 9.875, 9.368, 9.587, 9.215, 9.649, 10.599, 9.349, 9.363, 9.494, 9.735, 9.725, 9.339, 9.421, 9.791, 9.276, 9.397, 9.083, 9.404, 9.618, 9.283, 9.314, 9.53, 9.37, 9.345, 9.169, 9.612, 9.41, 9.292, 9.252, 9.389, 9.586, 9.341, 9.672, 12.15, 25.651, 9.264, 9.872, 9.264, 9.31, 9.269, 9.316, 9.467, 9.552, 9.85, 10.104, 9.49, 9.598, 9.484, 9.694, 9.321, 9.637, 9.426, 9.247, 9.767, 9.946, 9.667, 9.433, 9.477, 9.322, 8.92, 10.047, 9.22, 9.124, 9.716, 9.218, 9.376, 9.597, 9.507, 9.49, 9.043, 9.517, 9.212, 9.649, 9.431, 9.395, 9.166, 9.396, 9.464, 9.561, 9.454, 9.183, 9.362, 9.132, 9.582, 9.251, 9.571, 9.298, 9.47, 9.206, 9.329, 9.593, 9.579, 9.067, 9.577, 8.955, 9.479, 9.813, 9.136, 9.317, 9.461, 9.588, 9.504, 9.189, 9.78, 9.365, 8.986, 9.65, 9.372, 9.571, 9.288, 9.448, 9.569, 9.32, 9.864, 9.253, 9.51, 9.699, 9.445, 9.572, 9.589, 9.808, 9.482, 9.497, 9.113, 9.581, 9.217, 9.375, 9.436, 9.194, 9.622, 9.389, 9.501, 9.52, 9.586, 9.476, 8.953, 9.956, 9.798, 22.578, 12.96, 9.597, 9.224, 9.466, 9.635, 9.607, 10.713, 9.418, 9.534, 9.584, 9.275, 9.091, 9.489, 9.129, 9.758, 9.246, 9.533, 9.298, 9.525, 9.209, 9.743, 9.309, 9.579, 9.509, 9.307, 9.42, 9.412, 9.062, 9.737, 9.279, 9.441, 9.638, 9.504, 9.01, 9.6, 9.595, 9.248, 9.594, 9.304, 9.141, 9.435, 9.545, 9.434, 9.366, 9.679, 8.989, 9.598, 9.01, 9.404, 9.208, 9.564, 9.327, 9.373, 9.528, 9.725, 9.308, 9.429, 9.438, 9.24, 9.815, 9.603, 9.462, 9.323, 9.407, 9.321, 9.213, 9.824, 9.468, 9.353, 9.278, 9.137, 9.435, 9.385, 9.329, 9.645, 9.16, 9.391, 9.535, 9.618, 9.238, 9.638, 9.392, 9.323, 9.704, 9.413, 9.54, 9.378, 9.248, 9.389, 9.515, 9.454, 9.139, 9.484, 9.433, 9.116, 9.868, 9.462, 10.426, 9.536, 9.296, 9.902, 9.419, 9.125, 9.788, 9.276, 10.313, 9.699, 17.524, 9.032, 11.885, 9.532, 9.052, 11.816, 9.536, 9.199, 11.14, 19.859, 10.094, 9.673, 10.716, 10.875, 9.191, 23.007, 9.644, 9.534, 10.706, 9.879, 9.263, 10.273, 19.588, 11.518, 9.461, 14.836, 9.641, 9.65, 9.463, 9.713, 9.423, 9.452, 9.378, 9.13, 9.684, 9.254, 9.489, 9.662, 9.508, 9.483, 9.143, 9.868, 9.43, 9.479, 9.522, 9.111, 9.726, 9.603, 9.024, 9.752, 9.126, 9.578, 9.522, 9.109, 9.481, 9.64, 9.604, 9.457, 9.637, 9.399, 9.444, 9.389, 9.57, 9.504, 9.609, 9.319, 9.217, 9.428, 10.325, 9.51, 9.403, 9.259, 9.535, 9.736, 9.433, 9.402, 9.364, 9.656, 9.497, 9.231, 10.516, 9.881, 9.215, 9.331, 9.523, 9.542, 9.572, 9.352, 9.619, 9.383, 9.625, 9.606, 9.113, 9.145, 9.393, 9.748, 11.78, 17.676, 11.731, 9.42, 9.277, 9.36, 9.745, 9.456, 9.861, 9.387, 9.421, 9.386, 9.672, 9.603, 9.052, 10.32, 9.525, 10.144, 9.552, 9.407, 9.102, 9.712, 9.432, 9.423, 9.182, 9.548, 9.573, 9.496, 9.367, 9.665, 9.506, 9.287, 9.641, 9.066, 9.972, 9.429, 9.433, 9.313, 9.387, 9.691, 9.13, 9.508, 9.179, 9.628, 9.382, 9.407, 9.605, 9.199, 9.515, 9.711, 9.363, 11.045, 9.454, 9.382, 9.349, 9.409, 9.12, 9.7, 9.148, 9.536, 9.186, 9.638, 9.594, 9.372, 9.51, 9.42, 9.667, 9.117, 9.603, 9.186, 9.438, 9.472, 9.516, 9.353, 9.347, 9.071, 9.377, 9.742, 9.222, 10.561, 9.437, 9.437, 9.427, 9.764, 9.085, 9.463, 9.327, 11.027, 9.238, 9.234, 9.777, 9.269, 9.547, 9.362, 9.388, 9.29, 9.403, 9.788, 9.347, 9.757, 9.486, 9.457, 9.175, 9.88, 9.23, 10.172, 9.145, 17.642, 15.212, 9.444, 10.178, 8.933, 9.327, 9.732, 9.473, 9.936, 9.447, 9.481, 9.596, 9.698, 9.258, 10.439, 9.199, 10.409, 9.189, 9.672, 9.362, 9.671, 9.39, 9.572, 9.345, 9.828, 9.054, 9.593, 9.372, 9.469, 9.303, 9.19, 11.856, 9.645, 9.435, 9.301, 9.457, 9.499, 9.214, 9.465, 9.388, 9.242, 9.955, 9.472, 9.42, 9.308, 9.295, 9.504, 9.295, 9.777, 9.213, 9.793, 9.542, 9.48, 9.023, 9.576, 9.566, 9.502, 9.204, 9.604, 9.531, 9.508, 9.459, 9.177, 9.692, 9.473, 9.521, 9.62, 9.784, 9.375, 9.114, 9.713, 9.572, 9.59, 9.675, 9.298, 8.977, 9.733, 9.132, 9.703, 9.436, 9.329, 9.451, 9.549, 9.467, 9.785, 9.469, 9.302, 9.365, 9.334, 9.392, 9.168, 9.488, 9.443, 9.332, 9.753, 9.52, 9.111, 9.605, 9.377, 9.011, 9.287, 9.514, 9.22, 9.47, 11.478, 9.934, 9.286, 11.295, 13.116, 9.467, 13.193, 10.109, 9.434, 10.658, 9.389, 9.689, 25.292, 9.913, 9.281, 12.052, 9.342, 9.477, 9.355, 21.027, 9.527, 9.36, 11.399, 9.598, 9.547, 15.266, 15.79, 14.411, 9.528, 9.311, 9.32, 9.517, 9.606, 9.702, 8.96, 9.718, 9.473, 9.65, 9.417, 9.758, 9.051, 9.527, 9.45, 9.577, 9.351, 9.609, 9.577, 9.809, 9.239, 9.411, 9.481, 9.21, 9.782, 9.292, 9.356, 9.507, 9.348, 9.291, 9.751, 8.916, 9.82, 9.177, 9.722, 9.002, 9.568, 9.461, 9.479, 9.244, 9.335, 9.206, 10.371, 9.511, 9.422, 9.51, 9.615, 9.528, 9.241, 10.018, 9.085, 9.586, 9.289, 9.584, 9.515, 9.272, 9.251, 9.267, 9.182, 9.896, 9.438, 9.329, 9.886, 9.423, 9.236, 9.362, 9.589, 9.467, 9.231, 9.405, 9.463, 9.121, 13.182, 20.091, 11.321, 9.223, 9.159, 9.574, 9.695, 9.553, 9.424, 9.126, 9.288, 9.651, 9.054, 9.627, 9.582, 10.039, 9.413, 9.445, 9.471, 9.446, 9.285, 9.055, 9.468, 9.532, 9.257, 9.505, 9.185, 9.45, 9.692, 9.247, 9.549, 9.186, 9.267, 10.061],
  "Optimizer iterations": 915,
  "Optimizer params": [0.9519020958173844, 0.45503492436525245, 0.9385374976417482, 1.0, 1.0, 0.9251210023674166, 0.5676807209487983, 0.4940047566089476, 0.9655930944837002, 0.9925828788054922, 0.3970982401725765, 0.06642005757876011, 0.5664447472336507, 0.5568515869631435, 0.9999160164249646, 0.16807937513752294, 0.9783774293098998, 0.4779915080969353, 0.4992714182962251, 0.9999999999999998, 0.06958309099285434, 0.9645730536323336, 0.49250609399307405, 0.9690046562122838, 0.8196610895487224, 0.21469438308929917, 0.7963220333722205, 0.7933608481172126, 0.1131081223282817, 0.3491297836306939, 0.09194457780377199, 0.9939282489748208],
  "P": 0,
  "Problem": "IC",
  "QJob durations [ms]": [0.41804999636951834, 0.44559998787008226, 0.43974998698104173, 0.4417999880388379, 0.4119500081287697, 0.4358000005595386, 0.4231999919284135, 0.41510000301059335, 0.43045000347774476, 0.4221499984851107, 0.41649999911896884, 0.4186000005574897, 0.4288500058464706, 0.4227500030538067, 0.43914999696426094, 0.4133500042371452, 0.42279998888261616, 0.42159999429713935, 0.41444999806117266, 0.41874998714774847, 0.4189500032225624, 0.41649999911896884, 0.4315999976824969, 0.41539999074302614, 0.42440000106580555, 0.41530000453349203, 0.41619999683462083, 0.4653999931178987, 0.42174999543931335, 0.4163000121479854, 0.42860000394284725, 0.411450004321523, 0.43089999235235155, 0.41530000453349203, 0.418249997892417, 0.42964999738615006, 0.4233000072417781, 0.42195001151412725, 0.41604999569244683, 0.413799993111752, 0.4157000075792894, 0.41259999852627516, 0.41265001345891505, 0.41969999438151717, 0.41790000977925956, 0.4256999964127317, 0.42719999328255653, 0.41099998634308577, 0.44565000280272216, 0.42204999772366136, 0.42050000047311187, 0.4162499972153455, 0.4144000122323632, 0.41369999235030264, 0.41444999806117266, 0.5619500007014722, 0.5844000115757808, 0.4371999966679141, 0.4291499935789034, 0.41584999416954815, 0.4175999929429963, 0.4217000096105039, 0.4221499984851107, 0.4193500062683597, 0.4154499911237508, 0.42934999510180205, 0.42470000335015357, 0.42189999658148736, 0.41819999751169235, 0.41525000415276736, 0.40869999793358147, 0.41545000567566603, 0.4091000009793788, 0.41954999323934317, 0.4280499997548759, 0.4234999942127615, 0.470300015877001, 0.415150003391318, 0.4160999960731715, 0.43169999844394624, 0.42645000212360173, 0.42165000922977924, 0.4100500082131475, 0.4392499977257103, 0.421799995820038, 0.41590000910218805, 0.4642999992938712, 0.4232499923091382, 0.4126499989069998, 0.461199990240857, 0.42740000935737044, 0.4096000047866255, 0.42010001197922975, 0.42320000648032874, 0.42195001151412725, 0.41444999806117266, 0.4133999900659546, 0.4197999951429665, 0.40550000267103314, 0.4126999992877245, 0.41819999751169235, 0.4187500016996637, 0.41090000013355166, 0.41939999209716916, 0.41274999966844916, 0.42004999704658985, 0.42660000326577574, 0.4655999946407974, 0.42100000428035855, 0.42475000373087823, 0.42655000288505107, 0.4167000006418675, 0.41364999196957797, 0.4275499959476292, 0.414249996538274, 0.4168500017840415, 0.42394999763928354, 0.4213999927742407, 0.4192000051261857, 0.413949994253926, 0.4346499918028712, 0.42359999497421086, 0.4224500007694587, 0.42469998879823834, 0.41725000482983887, 0.42714999290183187, 0.42705000669229776, 0.4118999931961298, 0.4183500132057816, 0.41540000529494137, 0.4208000027574599, 0.4173500055912882, 0.41789999522734433, 0.42884999129455537, 0.421949996962212, 0.42440000106580555, 0.42830000165849924, 0.4149999876972288, 0.4158500087214634, 0.4236499953549355, 0.4149000014876947, 0.4262000002199784, 0.41289998625870794, 0.4206500016152859, 0.4165999998804182, 0.4151499888394028, 0.4208000027574599, 0.4149000014876947, 0.43265000567771494, 0.42514999222476035, 0.4201500123599544, 0.4099500074516982, 0.4211000050418079, 0.4250000056345016, 0.4292999947210774, 0.4201499978080392, 0.4152999899815768, 0.4136500065214932, 0.410699998610653, 0.4219000111334026, 0.41885000246111304, 0.4188999882899225, 0.42270000267308205, 0.41569999302737415, 0.4200999974273145, 0.4161500110058114, 0.41545000567566603, 0.4249500052537769, 0.4186000005574897, 0.480200003948994, 0.4140499950153753, 0.4254500090610236, 0.3784500004258007, 0.42964999738615006, 0.41340000461786985, 0.4609500028891489, 0.4262000002199784, 0.4295499966247007, 0.42609999945852906, 0.411600005463697, 0.4164499987382442, 0.41540000529494137, 0.43250000453554094, 0.4240499984007329, 0.4165999998804182, 0.421649994677864, 0.41795001015998423, 0.5224499909672886, 0.4202499985694885, 0.5299000040395185, 0.41924999095499516, 0.41449999844189733, 0.4302500019548461, 0.4212500061839819, 0.44550000166054815, 0.41464999958407134, 0.41885000246111304, 0.4204500000923872, 0.4206000012345612, 0.4202499985694885, 0.4303500027162954, 0.4116500058444217, 0.4398500022944063, 0.42565001058392227, 0.4186000005574897, 0.41205000889021903, 0.4208499885862693, 0.42034999933093786, 0.41179999243468046, 0.4278499982319772, 0.41614999645389616, 0.42529999336693436, 0.41760000749491155, 0.4159499949309975, 0.4169000021647662, 0.41569999302737415, 0.41044999670702964, 0.41915000474546105, 0.41354999120812863, 0.4159499949309975, 0.4149000014876947, 0.42130000656470656, 0.4164499987382442, 0.42285000381525606, 0.4214000073261559, 0.4209500038996339, 0.41760000749491155, 0.4197000089334324, 0.4393999988678843, 0.42460000258870423, 0.41969999438151717, 0.4204500000923872, 0.4236499953549355, 0.4885499947704375, 0.41784999484661967, 0.4195500077912584, 0.41965000855270773, 0.4346999921835959, 0.4246500029694289, 0.4222999996272847, 0.4241999995429069, 0.4305000038584694, 0.4121999954804778, 0.41885000246111304, 0.4152000037720427, 0.414399997680448, 0.42779999785125256, 0.4123999970033765, 0.4149999876972288, 0.42189999658148736, 0.4160999960731715, 0.42240000038873404, 0.41120000241789967, 0.4136500065214932, 0.414249996538274, 0.42224999924656004, 0.41429999691899866, 0.4167000006418675, 0.4232500068610534, 0.41604999569244683, 0.42860000394284725, 0.5667000077664852, 0.5380000075092539, 0.421049990109168, 0.4435500013642013, 0.4182000120636076, 0.4136500065214932, 0.4261499998392537, 0.41485000110697, 0.417349991039373, 0.4424499929882586, 0.43369999912101775, 0.477400011732243, 0.4261499998392537, 0.42400001257192343, 0.4201499978080392, 0.4226500022923574, 0.4154499911237508, 0.42344999383203685, 0.41789999522734433, 0.4092500021215528, 0.4253999941283837, 0.4200999974273145, 0.4302999877836555, 0.42565001058392227, 0.42684999061748385, 0.4106499982299283, 0.41340000461786985, 0.4387500084703788, 0.4163999983575195, 0.41534999036230147, 0.44040000648237765, 0.4143499972997233, 0.4236000095261261, 0.41590000910218805, 0.4193500062683597, 0.42454998765606433, 0.41134998900815845, 0.41774999408517033, 0.4138000076636672, 0.43744999857153744, 0.4222999996272847, 0.421949996962212, 0.4172000044491142, 0.4196499940007925, 0.40809999336488545, 0.4267499898560345, 0.41989999590441585, 0.41444999806117266, 0.4157499934080988, 0.414699999964796, 0.4239999980200082, 0.41510000301059335, 0.4210500046610832, 0.414249996538274, 0.41885000246111304, 0.41754999256227165, 0.41554999188520014, 0.42255000153090805, 0.4235499945934862, 0.408050007536076, 0.4349000082584098, 0.4126499989069998, 0.42299999040551484, 0.42675000440794975, 0.41259999852627516, 0.4201499978080392, 0.4255499952705577, 0.4250000056345016, 0.4159499949309975, 0.41849999979604036, 0.43759999971371144, 0.4165999998804182, 0.41029999556485564, 0.4250999918440357, 0.42240000038873404, 0.4304000030970201, 0.4273999948054552, 0.41310000233352184, 0.41954999323934317, 0.4155000060563907, 0.43559999903663993, 0.4195500077912584, 0.4206000012345612, 0.4272499936632812, 0.4164499987382442, 0.4409499961184338, 0.4293500096537173, 0.4319500003475696, 0.42050000047311187, 0.42074998782482, 0.41540000529494137, 0.4140999953961, 0.4157999937888235, 0.4140000091865659, 0.4277499974705279, 0.41464999958407134, 0.41629999759607017, 0.4189000028418377, 0.44075000914745033, 0.4303500027162954, 0.4172999906586483, 0.42794999899342656, 0.41259999852627516, 0.43739999819081277, 0.4304999893065542, 0.411300003179349, 0.5469999887282029, 0.418399999034591, 0.42209999810438603, 0.42270000267308205, 0.43420000292826444, 0.42305000533815473, 0.42905000736936927, 0.42145000770688057, 0.42535000829957426, 0.42165000922977924, 0.41199999395757914, 0.4133500042371452, 0.41745000635273755, 0.4239999980200082, 0.41710000368766487, 0.40970000554807484, 0.41774999408517033, 0.4165999998804182, 0.42189999658148736, 0.42070000199601054, 0.4285500035621226, 0.42699999175965786, 0.4232499923091382, 0.42555000982247293, 0.417949995608069, 0.4153500049142167, 0.41799999598879367, 0.41215000965166837, 0.43835000542458147, 0.4202499985694885, 0.4222999996272847, 0.43679999362211674, 0.4201499978080392, 0.4115499905310571, 0.4345500055933371, 0.41534999036230147, 0.4163999983575195, 0.4224500007694587, 0.41715000406838953, 0.4156500071985647, 0.4198499955236912, 0.42764999670907855, 0.40889999945648015, 0.42579999717418104, 0.4211000050418079, 0.4095999902347103, 0.4210500046610832, 0.41545000567566603, 0.42625000060070306, 0.41775000863708556, 0.421349992393516, 0.41695000254549086, 0.4219999973429367, 0.43569999979808927, 0.42485000449232757, 0.4189500032225624, 0.417199989897199, 0.4181499971309677, 0.4218500107526779, 0.4272499936632812, 0.42209999810438603, 0.4198499955236912, 0.4292000085115433, 0.4130000015720725, 0.4194000066490844, 0.4098999925190583, 0.41885000246111304, 0.41725000482983887, 0.421199991251342, 0.41930000588763505, 0.40859999717213213, 0.4214000073261559, 0.4215499939164147, 0.41545000567566603, 0.4395500000100583, 0.4164499987382442, 0.42100000428035855, 0.43170001299586147, 0.4236499953549355, 0.4267000040272251, 0.42559999565128237, 0.4222999996272847, 0.4234000080032274, 0.4230999911669642, 0.41444999806117266, 0.4283500020392239, 0.41545000567566603, 0.4169999883743003, 0.4180000105407089, 0.4258999979356304, 0.4192999913357198, 0.410849999752827, 0.42594999831635505, 0.41485000110697, 0.41774999408517033, 0.4186000005574897, 0.42749999556690454, 0.4724999889731407, 0.42004999704658985, 0.4140999953961, 0.45790000876877457, 0.4155000060563907, 0.4158999945502728, 0.42594999831635505, 0.41510000301059335, 0.48255000729113817, 0.43054998968727887, 0.4252500075381249, 0.41179999243468046, 0.5572499940171838, 0.41405000956729054, 0.41280000004917383, 0.5351499858079478, 0.4219999973429367, 0.41634999797679484, 0.5154499958734959, 0.404350008466281, 0.4667499888455495, 0.424449986894615, 0.41155000508297235, 0.49325000145472586, 0.4215500084683299, 0.5563000158872455, 0.42964999738615006, 0.41909998981282115, 0.4991000023437664, 0.42660000326577574, 0.41634999797679484, 0.47035001625772566, 0.4379500023787841, 0.5273999995552003, 0.4165999998804182, 0.42329999268986285, 0.42129999201279134, 0.42394999763928354, 0.4288000054657459, 0.42594999831635505, 0.4161000106250867, 0.4194999928586185, 0.41599999531172216, 0.41599999531172216, 0.421799995820038, 0.41310000233352184, 0.4191499901935458, 0.440350006101653, 0.415000002249144, 0.4219999973429367, 0.41360000614076853, 0.44859999616164714, 0.4165499994996935, 0.42204999772366136, 0.4208000027574599, 0.41789999522734433, 0.42470000335015357, 0.4232499923091382, 0.41385000804439187, 0.4215499939164147, 0.4168500017840415, 0.42559999565128237, 0.4195000074105337, 0.4130500019527972, 0.43494999408721924, 0.44380000326782465, 0.4352000105427578, 0.4282000008970499, 0.43104999349452555, 0.4227500030538067, 0.4174000059720129, 0.41605001024436206, 0.4357999860076234, 0.42039999971166253, 0.4202499985694885, 0.4189999890513718, 0.41375000728294253, 0.4222999996272847, 0.454699998954311, 0.4262000002199784, 0.4228999896440655, 0.4167500010225922, 0.41495000186841935, 0.4381000035209581, 0.41805001092143357, 0.41849999979604036, 0.42034999933093786, 0.42115000542253256, 0.42424999992363155, 0.418249997892417, 0.42460000258870423, 0.43080000614281744, 0.4135000053793192, 0.4138000076636672, 0.41959999362006783, 0.41804999636951834, 0.42729999404400587, 0.4194999928586185, 0.42255000153090805, 0.4270000063115731, 0.418249997892417, 0.42799999937415123, 0.411450004321523, 0.4168500017840415, 0.4208000027574599, 0.4262999864295125, 0.5385500116972253, 0.4344500048318878, 0.5228999943938106, 0.4274500097380951, 0.4132000030949712, 0.41560000681784004, 0.447149999672547, 0.4259999986970797, 0.4381500039016828, 0.42039999971166253, 0.42094998934771866, 0.4173500055912882, 0.4352999967522919, 0.42115000542253256, 0.41614999645389616, 0.4648500034818426, 0.42335000762250274, 0.4285500035621226, 0.4259999986970797, 0.4149000014876947, 0.41789999522734433, 0.4329499934101477, 0.41369999235030264, 0.4235499945934862, 0.4133000038564205, 0.42159999429713935, 0.4282000008970499, 0.41340000461786985, 0.42219999886583537, 0.4246500029694289, 0.4289499920560047, 0.41274999966844916, 0.4212000058032572, 0.41459999920334667, 0.4429500113474205, 0.41619999683462083, 0.4233999934513122, 0.4138999938732013, 0.4156500071985647, 0.4270000063115731, 0.4132000030949712, 0.408500010962598, 0.4180000105407089, 0.4219999973429367, 0.4236499953549355, 0.4147500003455207, 0.4219999973429367, 0.4126999992877245, 0.42109999048989266, 0.4523000097833574, 0.41804999636951834, 0.4903499939246103, 0.4211000050418079, 0.4154499911237508, 0.4201500123599544, 0.41485000110697, 0.4104999970877543, 0.4228000034345314, 0.4141500103287399, 0.4182999982731417, 0.41250001231674105, 0.4168500017840415, 0.42949999624397606, 0.417649993323721, 0.42409999878145754, 0.42625000060070306, 0.421799995820038, 0.41539999074302614, 0.41900000360328704, 0.4224500007694587, 0.40979999175760895, 0.41680000140331686, 0.42130000656470656, 0.4143499972997233, 0.421349992393516, 0.40985000669024885, 0.4201499978080392, 0.4461499920580536, 0.4164499987382442, 0.4218499962007627, 0.4191999905742705, 0.41634999797679484, 0.4337499995017424, 0.4224500007694587, 0.414549998822622, 0.4295000107958913, 0.41799999598879367, 0.4903499939246103, 0.4229000041959807, 0.41354999120812863, 0.4302000015741214, 0.41170000622514635, 0.418099996750243, 0.415150003391318, 0.42039999971166253, 0.4200999974273145, 0.41804999636951834, 0.43245000415481627, 0.4209999897284433, 0.42600001324899495, 0.41665000026114285, 0.42215001303702593, 0.41619999683462083, 0.43820000428240746, 0.4231999919284135, 0.41774999408517033, 0.42379999649710953, 0.4504500102484599, 0.5302999925334007, 0.4161500110058114, 0.46969999675638974, 0.41364999196957797, 0.4263500013621524, 0.43805000314023346, 0.4261499998392537, 0.4337999998824671, 0.41784999484661967, 0.4249500052537769, 0.4273999948054552, 0.4258000117260963, 0.417949995608069, 0.45829998271074146, 0.4209000035189092, 0.4678000113926828, 0.41620001138653606, 0.4261499998392537, 0.42255000153090805, 0.4202999989502132, 0.42905000736936927, 0.4343999898992479, 0.4130500019527972, 0.44175000221002847, 0.4157499934080988, 0.4321000014897436, 0.4233999934513122, 0.4161500110058114, 0.4158999945502728, 0.4138999938732013, 0.4222999996272847, 0.42454998765606433, 0.42150000808760524, 0.4101999948034063, 0.42299999040551484, 0.4186000005574897, 0.41649999911896884, 0.41745000635273755, 0.42320000648032874, 0.41885000246111304, 0.43685000855475664, 0.42019999818876386, 0.4173500055912882, 0.4124999977648258, 0.41464999958407134, 0.4232499923091382, 0.41989999590441585, 0.43754999933298677, 0.4197999951429665, 0.43000000005122274, 0.4198499955236912, 0.4223500000080094, 0.41364999196957797, 0.4287999909138307, 0.42115000542253256, 0.41849999979604036, 0.414399997680448, 0.42394999763928354, 0.4327000060584396, 0.4250999918440357, 0.42129999201279134, 0.4190500039840117, 0.42845000280067325, 0.43134999577887356, 0.4224500007694587, 0.44595000508707017, 0.42984999890904874, 0.41789999522734433, 0.4169000021647662, 0.425049991463311, 0.4278999986127019, 0.42625000060070306, 0.4325499903643504, 0.41710000368766487, 0.4133999900659546, 0.4287000047042966, 0.41480000072624534, 0.43289999302942306, 0.4186000005574897, 0.42699999175965786, 0.4227500030538067, 0.4317999992053956, 0.42124999163206667, 0.43559999903663993, 0.4150500026298687, 0.4226000019116327, 0.41360000614076853, 0.4103499959455803, 0.4198499955236912, 0.417949995608069, 0.4128500004298985, 0.4221499984851107, 0.42460000258870423, 0.4233000072417781, 0.41989999590441585, 0.41865000093821436, 0.4215499939164147, 0.4157499934080988, 0.4134499904466793, 0.4117499920539558, 0.41614999645389616, 0.4209500038996339, 0.42550000944174826, 0.5211500101722777, 0.43494999408721924, 0.41405000956729054, 0.5327499966369942, 0.421049990109168, 0.41710000368766487, 0.41849999979604036, 0.46654998732265085, 0.4172000044491142, 0.4182999982731417, 0.41510000301059335, 0.4456999886315316, 0.38649998896289617, 0.44565000280272216, 0.41044999670702964, 0.5556999967666343, 0.42039999971166253, 0.41665000026114285, 0.4181499971309677, 0.4014000005554408, 0.42004999704658985, 0.4259999986970797, 0.440650008386001, 0.41945000702980906, 0.41894998867064714, 0.4415500006871298, 0.45360000513028353, 0.43200000072829425, 0.414399997680448, 0.42714999290183187, 0.4199999966658652, 0.42860000394284725, 0.43400000140536577, 0.4268999909982085, 0.41325000347569585, 0.42455000220797956, 0.4189000028418377, 0.4363999905763194, 0.424749989178963, 0.4327000060584396, 0.41290000081062317, 0.41790000977925956, 0.42305000533815473, 0.43104999349452555, 0.42315000609960407, 0.4319500003475696, 0.4303500027162954, 0.4241999995429069, 0.4092499875696376, 0.425349993747659, 0.4263500013621524, 0.4162499972153455, 0.4308500065235421, 0.41629999759607017, 0.4157000075792894, 0.4190499894320965, 0.42300000495743006, 0.4175999929429963, 0.4335999983595684, 0.41120000241789967, 0.4268500051693991, 0.4190499894320965, 0.42455000220797956, 0.41014999442268163, 0.4236999957356602, 0.4191999905742705, 0.4238499968778342, 0.4132999893045053, 0.4210500046610832, 0.4132000030949712, 0.46675000339746475, 0.42499999108258635, 0.42365000990685076, 0.4278499982319772, 0.42100000428035855, 0.41960000817198306, 0.4192500055069104, 0.4285000031813979, 0.4162499972153455, 0.4258499975549057, 0.41989999590441585, 0.41784999484661967, 0.4278499982319772, 0.4184499994153157, 0.41265001345891505, 0.41619999683462083, 0.4186000005574897, 0.4447999963304028, 0.4202999989502132, 0.42189999658148736, 0.44550000166054815, 0.42070000199601054, 0.40920000174082816, 0.42224999924656004, 0.41715000406838953, 0.4226999881211668, 0.41504998807795346, 0.41954999323934317, 0.4175500071141869, 0.41485000110697, 0.602099986281246, 0.46869998914189637, 0.48325001262128353, 0.41354999120812863, 0.4133500042371452, 0.42720000783447176, 0.43400000140536577, 0.42070000199601054, 0.42100000428035855, 0.41399999463465065, 0.4150500026298687, 0.42514999222476035, 0.41319998854305595, 0.43230000301264226, 0.41954999323934317, 0.45664999925065786, 0.41554999188520014, 0.4202999989502132, 0.4206000012345612, 0.42335000762250274, 0.41325000347569585, 0.4162499972153455, 0.41954999323934317, 0.4191499901935458, 0.41525000415276736, 0.41980000969488174, 0.4251500067766756, 0.4208000027574599, 0.43975000153295696, 0.4167000006418675, 0.41945000702980906, 0.41665000026114285, 0.4165499994996935, 0.4282000008970499],
  "QPU": "7000000",
  "Qubits": 8,
  "Queue durations [ms]": [0.0, 0.0, 0.0, 0.0, 0.0, 0.0, 0.0, 0.0, 0.0, 0.0, 0.0, 0.0, 0.0, 0.0, 0.0, 0.0, 0.0, 0.0, 0.0, 0.0, 0.0, 0.0, 0.0, 0.0, 0.0, 0.0, 0.0, 0.0, 0.0, 0.0, 0.0, 0.0, 0.0, 0.0, 0.0, 0.0, 0.0, 0.0, 0.0, 0.0, 0.0, 0.0, 0.0, 0.0, 0.0, 0.0, 0.0, 0.0, 0.0, 0.0, 0.0, 0.0, 0.0, 0.0, 0.0, 0.0, 0.0, 0.0, 0.0, 0.0, 0.0, 0.0, 0.0, 0.0, 0.0, 0.0, 0.0, 0.0, 0.0, 0.0, 0.0, 0.0, 0.0, 0.0, 0.0, 0.0, 0.0, 0.0, 0.0, 0.0, 0.0, 0.0, 0.0, 0.0, 0.0, 0.0, 0.0, 0.0, 0.0, 0.0, 0.0, 0.0, 0.0, 0.0, 0.0, 0.0, 0.0, 0.0, 0.0, 0.0, 0.0, 0.0, 0.0, 0.0, 0.0, 0.0, 0.0, 0.0, 0.0, 0.0, 0.0, 0.0, 0.0, 0.0, 0.0, 0.0, 0.0, 0.0, 0.0, 0.0, 0.0, 0.0, 0.0, 0.0, 0.0, 0.0, 0.0, 0.0, 0.0, 0.0, 0.0, 0.0, 0.0, 0.0, 0.0, 0.0, 0.0, 0.0, 0.0, 0.0, 0.0, 0.0, 0.0, 0.0, 0.0, 0.0, 0.0, 0.0, 0.0, 0.0, 0.0, 0.0, 0.0, 0.0, 0.0, 0.0, 0.0, 0.0, 0.0, 0.0, 0.0, 0.0, 0.0, 0.0, 0.0, 0.0, 0.0, 0.0, 0.0, 0.0, 0.0, 0.0, 0.0, 0.0, 0.0, 0.0, 0.0, 0.0, 0.0, 0.0, 0.0, 0.0, 0.0, 0.0, 0.0, 0.0, 0.0, 0.0, 0.0, 0.0, 0.0, 0.0, 0.0, 0.0, 0.0, 0.0, 0.0, 0.0, 0.0, 0.0, 0.0, 0.0, 0.0, 0.0, 0.0, 0.0, 0.0, 0.0, 0.0, 0.0, 0.0, 0.0, 0.0, 0.0, 0.0, 0.0, 0.0, 0.0, 0.0, 0.0, 0.0, 0.0, 0.0, 0.0, 0.0, 0.0, 0.0, 0.0, 0.0, 0.0, 0.0, 0.0, 0.0, 0.0, 0.0, 0.0, 0.0, 0.0, 0.0, 0.0, 0.0, 0.0, 0.0, 0.0, 0.0, 0.0, 0.0, 0.0, 0.0, 0.0, 0.0, 0.0, 0.0, 0.0, 0.0, 0.0, 0.0, 0.0, 0.0, 0.0, 0.0, 0.0, 0.0, 0.0, 0.0, 0.0, 0.0, 0.0, 0.0, 0.0, 0.0, 0.0, 0.0, 0.0, 0.0, 0.0, 0.0, 0.0, 0.0, 0.0, 0.0, 0.0, 0.0, 0.0, 0.0, 0.0, 0.0, 0.0, 0.0, 0.0, 0.0, 0.0, 0.0, 0.0, 0.0, 0.0, 0.0, 0.0, 0.0, 0.0, 0.0, 0.0, 0.0, 0.0, 0.0, 0.0, 0.0, 0.0, 0.0, 0.0, 0.0, 0.0, 0.0, 0.0, 0.0, 0.0, 0.0, 0.0, 0.0, 0.0, 0.0, 0.0, 0.0, 0.0, 0.0, 0.0, 0.0, 0.0, 0.0, 0.0, 0.0, 0.0, 0.0, 0.0, 0.0, 0.0, 0.0, 0.0, 0.0, 0.0, 0.0, 0.0, 0.0, 0.0, 0.0, 0.0, 0.0, 0.0, 0.0, 0.0, 0.0, 0.0, 0.0, 0.0, 0.0, 0.0, 0.0, 0.0, 0.0, 0.0, 0.0, 0.0, 0.0, 0.0, 0.0, 0.0, 0.0, 0.0, 0.0, 0.0, 0.0, 0.0, 0.0, 0.0, 0.0, 0.0, 0.0, 0.0, 0.0, 0.0, 0.0, 0.0, 0.0, 0.0, 0.0, 0.0, 0.0, 0.0, 0.0, 0.0, 0.0, 0.0, 0.0, 0.0, 0.0, 0.0, 0.0, 0.0, 0.0, 0.0, 0.0, 0.0, 0.0, 0.0, 0.0, 0.0, 0.0, 0.0, 0.0, 0.0, 0.0, 0.0, 0.0, 0.0, 0.0, 0.0, 0.0, 0.0, 0.0, 0.0, 0.0, 0.0, 0.0, 0.0, 0.0, 0.0, 0.0, 0.0, 0.0, 0.0, 0.0, 0.0, 0.0, 0.0, 0.0, 0.0, 0.0, 0.0, 0.0, 0.0, 0.0, 0.0, 0.0, 0.0, 0.0, 0.0, 0.0, 0.0, 0.0, 0.0, 0.0, 0.0, 0.0, 0.0, 0.0, 0.0, 0.0, 0.0, 0.0, 0.0, 0.0, 0.0, 0.0, 0.0, 0.0, 0.0, 0.0, 0.0, 0.0, 0.0, 0.0, 0.0, 0.0, 0.0, 0.0, 0.0, 0.0, 0.0, 0.0, 0.0, 0.0, 0.0, 0.0, 0.0, 0.0, 0.0, 0.0, 0.0, 0.0, 0.0, 0.0, 0.0, 0.0, 0.0, 0.0, 0.0, 0.0, 0.0, 0.0, 0.0, 0.0, 0.0, 0.0, 0.0, 0.0, 0.0, 0.0, 0.0, 0.0, 0.0, 0.0, 0.0, 0.0, 0.0, 0.0, 0.0, 0.0, 0.0, 0.0, 0.0, 0.0, 0.0, 0.0, 0.0, 0.0, 0.0, 0.0, 0.0, 0.0, 0.0, 0.0, 0.0, 0.0, 0.0, 0.0, 0.0, 0.0, 0.0, 0.0, 0.0, 0.0, 0.0, 0.0, 0.0, 0.0, 0.0, 0.0, 0.0, 0.0, 0.0, 0.0, 0.0, 0.0, 0.0, 0.0, 0.0, 0.0, 0.0, 0.0, 0.0, 0.0, 0.0, 0.0, 0.0, 0.0, 0.0, 0.0, 0.0, 0.0, 0.0, 0.0, 0.0, 0.0, 0.0, 0.0, 0.0, 0.0, 0.0, 0.0, 0.0, 0.0, 0.0, 0.0, 0.0, 0.0, 0.0, 0.0, 0.0, 0.0, 0.0, 0.0, 0.0, 0.0, 0.0, 0.0, 0.0, 0.0, 0.0, 0.0, 0.0, 0.0, 0.0, 0.0, 0.0, 0.0, 0.0, 0.0, 0.0, 0.0, 0.0, 0.0, 0.0, 0.0, 0.0, 0.0, 0.0, 0.0, 0.0, 0.0, 0.0, 0.0, 0.0, 0.0, 0.0, 0.0, 0.0, 0.0, 0.0, 0.0, 0.0, 0.0, 0.0, 0.0, 0.0, 0.0, 0.0, 0.0, 0.0, 0.0, 0.0, 0.0, 0.0, 0.0, 0.0, 0.0, 0.0, 0.0, 0.0, 0.0, 0.0, 0.0, 0.0, 0.0, 0.0, 0.0, 0.0, 0.0, 0.0, 0.0, 0.0, 0.0, 0.0, 0.0, 0.0, 0.0, 0.0, 0.0, 0.0, 0.0, 0.0, 0.0, 0.0, 0.0, 0.0, 0.0, 0.0, 0.0, 0.0, 0.0, 0.0, 0.0, 0.0, 0.0, 0.0, 0.0, 0.0, 0.0, 0.0, 0.0, 0.0, 0.0, 0.0, 0.0, 0.0, 0.0, 0.0, 0.0, 0.0, 0.0, 0.0, 0.0, 0.0, 0.0, 0.0, 0.0, 0.0, 0.0, 0.0, 0.0, 0.0, 0.0, 0.0, 0.0, 0.0, 0.0, 0.0, 0.0, 0.0, 0.0, 0.0, 0.0, 0.0, 0.0, 0.0, 0.0, 0.0, 0.0, 0.0, 0.0, 0.0, 0.0, 0.0, 0.0, 0.0, 0.0, 0.0, 0.0, 0.0, 0.0, 0.0, 0.0, 0.0, 0.0, 0.0, 0.0, 0.0, 0.0, 0.0, 0.0, 0.0, 0.0, 0.0, 0.0, 0.0, 0.0, 0.0, 0.0, 0.0, 0.0, 0.0, 0.0, 0.0, 0.0, 0.0, 0.0, 0.0, 0.0, 0.0, 0.0, 0.0, 0.0, 0.0, 0.0, 0.0, 0.0, 0.0, 0.0, 0.0, 0.0, 0.0, 0.0, 0.0, 0.0, 0.0, 0.0, 0.0, 0.0, 0.0, 0.0, 0.0, 0.0, 0.0, 0.0, 0.0, 0.0, 0.0, 0.0, 0.0, 0.0, 0.0, 0.0, 0.0, 0.0, 0.0, 0.0, 0.0, 0.0, 0.0, 0.0, 0.0, 0.0, 0.0, 0.0, 0.0, 0.0, 0.0, 0.0, 0.0, 0.0, 0.0, 0.0, 0.0, 0.0, 0.0, 0.0, 0.0, 0.0, 0.0, 0.0, 0.0, 0.0, 0.0, 0.0, 0.0, 0.0, 0.0, 0.0, 0.0, 0.0, 0.0, 0.0, 0.0, 0.0, 0.0, 0.0, 0.0, 0.0, 0.0, 0.0, 0.0, 0.0, 0.0, 0.0, 0.0, 0.0, 0.0, 0.0, 0.0, 0.0, 0.0, 0.0, 0.0, 0.0, 0.0, 0.0, 0.0, 0.0, 0.0, 0.0, 0.0, 0.0, 0.0, 0.0, 0.0, 0.0, 0.0, 0.0, 0.0, 0.0, 0.0, 0.0, 0.0, 0.0, 0.0, 0.0, 0.0, 0.0, 0.0, 0.0, 0.0, 0.0, 0.0, 0.0, 0.0, 0.0, 0.0, 0.0, 0.0, 0.0, 0.0, 0.0, 0.0, 0.0, 0.0, 0.0, 0.0, 0.0, 0.0, 0.0, 0.0, 0.0, 0.0, 0.0, 0.0, 0.0],
  "Shots": 4096,
  "Size": 8,
  "Total Algorithm duration [s]": 8.932,
  "Total Classic duration [s]": 8.542735750262393,
  "Total Quantum duration [s]": 0.3892642497376073
}
