{
  "Circuit execution durations [ms]": [0.43569999979808927, 0.4486499819904566, 0.4334999975981191, 0.4141000099480152, 0.4337499995017424, 0.42124999163206667, 0.4192500055069104, 0.41059999784920365, 0.42114999087061733, 0.41819999751169235, 0.42055000085383654, 0.41974999476224184, 0.407750005251728, 0.44595000508707017, 0.4182999982731417, 0.418099996750243, 0.4049499984830618, 0.42484998994041234, 0.4231000057188794, 0.43265000567771494, 0.410849999752827, 0.43054998968727887, 0.4123499966226518, 0.4134500049985945, 0.47055001778062433, 0.41524998960085213, 0.4302500019548461, 0.43175001337658614, 0.41560000681784004, 0.4346000059740618, 0.414249996538274, 0.41865000093821436, 0.453649990959093, 0.42129999201279134, 0.44004998926538974, 0.42380001104902476, 0.4175000067334622, 0.42019999818876386, 0.43420000292826444, 0.417799994465895, 0.42320000648032874, 0.4225999873597175, 0.4427499952726066, 0.4222999996272847, 0.4288000054657459, 0.43369999912101775, 0.42305000533815473, 0.4226000019116327, 0.4199499962851405, 0.40129999979399145, 0.42625000060070306, 0.41030001011677086, 0.4172999906586483, 0.4300500004319474, 0.4182999982731417, 0.4155000060563907, 0.41364999196957797, 0.4282000008970499, 0.41784999484661967, 0.41325000347569585, 0.4138999938732013, 0.4206500016152859, 0.42675000440794975, 0.41760000749491155, 0.42359999497421086, 0.44160000106785446, 0.418249997892417, 0.42365000990685076, 0.4069499991601333, 0.39394998748321086, 0.42779999785125256, 0.5978499975753948, 0.5322500073816627, 0.6420499994419515, 0.4847000091103837, 0.5325999954948202, 0.5802000086987391, 0.5486000154633075, 0.4783500044140965, 0.4589500022120774, 0.5043999990448356, 0.44069999421481043, 0.48925001465249807, 0.4962499951943755, 0.41429999691899866, 0.43694999476429075, 0.41360000614076853, 0.4194000066490844, 0.4280499997548759, 0.3885000041918829, 0.4222999996272847, 0.4234999942127615, 0.4359500017017126, 0.42070000199601054, 0.4148499865550548, 0.4397999873617664, 0.4364500055089593, 0.5278999888105318, 0.4144000122323632, 0.4299499996704981, 0.4424499929882586, 0.4285000031813979, 0.527600001078099, 0.4182999982731417, 0.4454000008990988, 0.4364500055089593, 0.41799999598879367, 0.4134500049985945, 0.41619999683462083, 0.4383000050438568, 0.4236999957356602, 0.42264998774044216, 0.4189000028418377, 0.41199999395757914, 0.4169000021647662, 0.4257500113453716, 0.42485000449232757, 0.4164499987382442, 0.4299499996704981, 0.4230999911669642, 0.42890000622719526, 0.4217500099912286, 0.4320500011090189, 0.42810000013560057, 0.4435500013642013, 0.40985000669024885, 0.4190500039840117, 0.4169999883743003, 0.4195000074105337, 0.42979999852832407, 0.4349000082584098, 0.41604999569244683, 0.42374999611638486, 0.4172000044491142, 0.42854998901020736, 0.4082999948877841, 0.4212000058032572, 0.4201499978080392, 0.42409999878145754, 0.49434999527875334, 0.4226000019116327, 0.4204500000923872, 0.4904000088572502, 0.4115499905310571, 0.41619999683462083, 0.4174000059720129, 0.4132999893045053, 0.4206000012345612, 0.4206999874440953, 0.41700000292621553, 0.4173500055912882, 0.4143499972997233, 0.4259999986970797, 0.4251000063959509, 0.41775000863708556, 0.41355000576004386, 0.418550000176765, 0.4453000001376495, 0.4238499968778342, 0.42204999772366136, 0.4307000053813681, 0.42219999886583537, 0.4209000035189092, 0.4221499984851107, 0.4240499984007329, 0.41739999142009765, 0.4368999943835661, 0.4257499967934564, 0.4150500026298687, 0.4130500019527972, 0.5564500170294195, 0.44985000567976385, 0.4563999973470345, 0.4318999999668449, 0.41665000026114285, 0.4224500007694587, 0.42195001151412725, 0.41804999636951834, 0.42300000495743006, 0.42424999992363155, 0.4134500049985945, 0.4126999992877245, 0.4195000074105337, 0.42359999497421086, 0.42300000495743006, 0.4189999890513718, 0.4241999995429069, 0.4157000075792894, 0.4163999983575195, 0.42374999611638486, 0.43214998731855303, 0.42440000106580555, 0.41250001231674105, 0.41199999395757914, 0.41789999522734433, 0.4063500091433525, 0.42115000542253256, 0.4138000076636672, 0.4246500029694289, 0.42344999383203685, 0.42344999383203685, 0.42389999725855887, 0.417649993323721, 0.43465000635478646, 0.41614999645389616, 0.4246500029694289, 0.6150499975774437, 0.41140000394079834, 0.4283500020392239, 0.4525499971350655, 0.42655000288505107, 0.4280499997548759, 0.42379999649710953, 0.41724999027792364, 0.4130500019527972, 0.4320500011090189, 0.41700000292621553, 0.4182999982731417, 0.4616000078385696, 0.4243500006850809, 0.4245000018272549, 0.43134999577887356, 0.42100000428035855, 0.4159499949309975, 0.41634999797679484, 0.4239000118104741, 0.4086499975528568, 0.41449999844189733, 0.41125000279862434, 0.4123000107938424, 0.4299499996704981, 0.4243000003043562, 0.42314999154768884, 0.415000002249144, 0.42764999670907855, 0.42690000555012375, 0.4191999905742705, 0.4199499962851405, 0.4206000012345612, 0.4158999945502728, 0.4233499930705875, 0.41880000208038837, 0.4220500122755766, 0.4351499956101179, 0.4167500010225922, 0.41590000910218805, 0.44175000221002847, 0.4228000034345314, 0.5033000197727233, 0.4132000030949712, 0.42039999971166253, 0.4294499958632514, 0.41760000749491155, 0.41754999256227165, 0.42165000922977924, 0.4348499933257699, 0.4437000025063753, 0.41599999531172216, 0.4106499982299283, 0.4309000069042668, 0.4236499953549355, 0.4175000067334622, 0.4157499934080988, 0.42764999670907855, 0.4425000079208985, 0.41635001252871007, 0.41715000406838953, 0.43200000072829425, 0.4154999915044755, 0.41954999323934317, 0.4236000095261261, 0.42949999624397606, 0.4204500000923872, 0.42440000106580555, 0.5100999987917021, 0.4140000091865659, 0.4334999975981191, 0.42034999933093786, 0.4196499940007925, 0.43539999751374125, 0.42779999785125256, 0.42409999878145754, 0.417649993323721, 0.4181500116828829, 0.41384999349247664, 0.42389999725855887, 0.42344999383203685, 0.42475000373087823, 0.4221499984851107, 0.41974999476224184, 0.4170500033069402, 0.41575000796001405, 0.42100000428035855, 0.4174499918008223, 0.421649994677864, 0.41804999636951834, 0.41024999518413097, 0.4334499972173944, 0.42824998672585934, 0.42979999852832407, 0.4230999911669642, 0.41554999188520014, 0.41725000482983887, 0.424899990321137, 0.4198499955236912, 0.4506499972194433, 0.414699999964796, 0.4200000112177804, 0.4254500090610236, 0.6183000077726319, 0.4202499985694885, 0.46714999189134687, 0.4193500062683597, 0.41629999759607017, 0.4275999963283539, 0.4165999998804182, 0.44809999235440046, 0.42109999048989266, 0.4253000079188496, 0.444950012024492, 0.4243000003043562, 0.4345500055933371, 0.4123499966226518, 0.42079998820554465, 0.4189000028418377, 0.42529999336693436, 0.4130999877816066, 0.41649999911896884, 0.4135000053793192, 0.4258499975549057, 0.4186000005574897, 0.42204999772366136, 0.4235499945934862, 0.4118999931961298, 0.41849999979604036, 0.41620001138653606, 0.418249997892417, 0.41429999691899866, 0.425349993747659, 0.44504999823402613, 0.42329999268986285, 0.42034999933093786, 0.4150500026298687, 0.4212500061839819, 0.41349999082740396, 0.4202499985694885, 0.4275499959476292, 0.41945000702980906, 0.4119500081287697, 0.41364999196957797, 0.41530000453349203, 0.4218500107526779, 0.4728500061901286, 0.41870000131893903, 0.41325000347569585, 0.4234500083839521, 0.4241499991621822, 0.42249998659826815, 0.4234500083839521, 0.4171499895164743, 0.4165999998804182, 0.4130500019527972, 0.4273999948054552, 0.4065500106662512, 0.41799999598879367, 0.4337499995017424, 0.4211000050418079, 0.41399999463465065, 0.41519998922012746, 0.41880000208038837, 0.42984999890904874, 0.421349992393516, 0.41710000368766487, 0.42449998727533966, 0.41960000817198306, 0.42625000060070306, 0.4198499955236912, 0.42224999924656004, 0.42064998706337065, 0.40854999679140747, 0.45784999383613467, 0.41885000246111304, 0.4178500093985349, 0.4192500055069104, 0.4250999918440357, 0.41965000855270773, 0.4170500033069402, 0.42470000335015357, 0.41945000702980906, 0.42594999831635505, 0.42424999992363155, 0.3922000032616779, 0.4170500033069402, 0.42305000533815473, 0.5615499976556748, 0.4661999992094934, 0.41590000910218805, 0.4261499998392537, 0.417499992181547, 0.4741000011563301, 0.4116999916732311, 0.4251000063959509, 0.468449987238273, 0.4229500045767054, 0.45525000314228237, 0.5424999981187284, 0.4222999996272847, 0.4227500030538067, 0.520350004080683, 0.41715000406838953, 0.4751000087708235, 0.4394999996293336, 0.42440000106580555, 0.41880000208038837, 0.4184499994153157, 0.4314499965403229, 0.41915000474546105, 0.4317499988246709, 0.4276999970898032, 0.4271500074537471, 0.4282500012777746, 0.4199499962851405, 0.4192999913357198, 0.4084999964106828, 0.41599999531172216, 0.41619999683462083, 0.4174499918008223, 0.4183500132057816, 0.43235000339336693, 0.41184999281540513, 0.40935000288300216, 0.4158000083407387, 0.4189500032225624, 0.4118000069865957, 0.4098999925190583, 0.4198500100756064, 0.4193500062683597, 0.4229500045767054, 0.42034999933093786, 0.4119500081287697, 0.418399999034591, 0.421649994677864, 0.42749999556690454, 0.4187500016996637, 0.4284000024199486, 0.4230499907862395, 0.42544999450910836, 0.4191499901935458, 0.4209000035189092, 0.42004999704658985, 0.42294999002479017, 0.41205000889021903, 0.4154999915044755, 0.458099995739758, 0.42409999878145754, 0.43694999476429075, 0.42209999810438603, 0.4187500016996637, 0.4150999884586781, 0.41184999281540513, 0.4393499984871596, 0.4141500103287399, 0.43039998854510486, 0.413949994253926, 0.41880000208038837, 0.42240000038873404, 0.4122499958612025, 0.43575000017881393, 0.4238499968778342, 0.41290000081062317, 0.42270000267308205, 0.41724999027792364, 0.4133000038564205, 0.4191000043647364, 0.41649999911896884, 0.41900000360328704, 0.41715000406838953, 0.41900000360328704, 0.4322000022511929, 0.44329999946057796, 0.5552000075113028, 0.4278499982319772, 0.4155000060563907, 0.4122499958612025, 0.4183500132057816, 0.42055000085383654, 0.4153500049142167, 0.41540000529494137, 0.42174999543931335, 0.43474999256432056, 0.43559999903663993, 0.41725000482983887, 0.42645000212360173, 0.4172000044491142, 0.4224500007694587, 0.4226500022923574, 0.4122499958612025, 0.41340000461786985, 0.44409999100025743, 0.41449999844189733, 0.43110000842716545, 0.4246500029694289, 0.4189999890513718, 0.4275000101188198, 0.42109999048989266, 0.4120499943383038, 0.4106499982299283, 0.4309999931138009, 0.41680000140331686, 0.4386000073282048, 0.4127500142203644, 0.42949999624397606, 0.4159499949309975, 0.4525499971350655, 0.42609999945852906, 0.4439999902388081, 0.41704998875502497, 0.4251500067766756, 0.4328499926486984, 0.4199499962851405, 0.4193499917164445, 0.4128500004298985, 0.4186000005574897, 0.41464999958407134, 0.41614999645389616, 0.41399999463465065, 0.4184499994153157, 0.4121000092709437, 0.41789999522734433, 0.41354999120812863, 0.41959999362006783, 0.4257499967934564, 0.4188499879091978, 0.4129999870201573, 0.43044998892582953, 0.4239000118104741, 0.4165999998804182, 0.4191999905742705, 0.4175500071141869, 0.4174000059720129, 0.4126499989069998, 0.4334999975981191, 0.41369999235030264, 0.4206000012345612, 0.43065000500064343, 0.4154499911237508, 0.42034999933093786, 0.4163999983575195, 0.4116500058444217, 0.42209999810438603, 0.4178000090178102, 0.4165499994996935, 0.4168500017840415, 0.44204998994246125, 0.45950000640004873, 0.41819999751169235, 0.46004999603610486, 0.41310000233352184, 0.40859999717213213, 0.41945000702980906, 0.41179999243468046, 0.41700000292621553, 0.4314499965403229, 0.4268500051693991, 0.4152000037720427, 0.41894998867064714, 0.41449999844189733, 0.4253000079188496, 0.41704998875502497, 0.41694998799357563, 0.4249500052537769, 0.42079998820554465, 0.4225000011501834, 0.4177000082563609, 0.4280499997548759, 0.4223500000080094, 0.4190500039840117, 0.43459999142214656, 0.4107999993721023, 0.4130000015720725, 0.42299999040551484, 0.4257499967934564, 0.5527000030269846, 0.4209000035189092, 0.5165999900782481, 0.4199999966658652, 0.4157999937888235, 0.4215499939164147, 0.42684999061748385, 0.4265000025043264, 0.4212500061839819, 0.40970000554807484, 0.46470000233966857, 0.418550000176765, 0.4253000079188496, 0.4201499978080392, 0.41244999738410115, 0.4449499974725768, 0.42240000038873404, 0.415000002249144, 0.42224999924656004, 0.4103499959455803, 0.41730000521056354, 0.41944999247789383, 0.42064998706337065, 0.4292999947210774, 0.4259000124875456, 0.4207500023767352, 0.4175999929429963, 0.42440000106580555, 0.4421499907039106, 0.42144999315496534, 0.4071000003023073, 0.4212500061839819, 0.4326000052969903, 0.41149999015033245, 0.441400014096871, 0.4442999925231561],
  "Depth": 18.5,
  "Expectation Value": -8.582509994506836,
  "Optimal Expectation Value": -9.83795166015625,
  "Optimizer durations [ms]": [9.735, 9.969, 9.218, 9.495, 9.754, 9.444, 9.315, 9.335, 9.423, 9.397, 9.478, 9.175, 13.242, 9.884, 9.746, 9.346, 9.057, 9.305, 9.8, 9.393, 9.45, 9.35, 9.534, 9.192, 10.309, 9.33, 9.526, 9.511, 9.382, 9.624, 9.219, 9.36, 10.144, 9.192, 9.993, 9.479, 9.192, 9.55, 9.454, 9.616, 9.469, 9.586, 9.658, 9.615, 9.359, 9.719, 9.41, 9.553, 9.312, 9.614, 9.293, 9.365, 9.116, 9.756, 9.304, 9.144, 9.448, 9.531, 9.396, 9.409, 9.361, 9.398, 9.476, 9.451, 9.236, 10.045, 9.364, 9.205, 9.314, 26.866, 22.871, 25.213, 12.399, 15.232, 10.746, 12.109, 22.851, 11.732, 13.487, 17.552, 10.976, 9.666, 10.676, 23.107, 10.161, 10.08, 9.168, 9.39, 9.437, 22.179, 9.595, 9.342, 9.558, 9.225, 10.643, 9.754, 25.354, 11.716, 9.095, 9.538, 9.943, 9.619, 11.618, 9.492, 9.671, 9.732, 9.361, 9.343, 9.154, 9.459, 9.654, 9.586, 9.285, 9.129, 9.261, 9.725, 9.398, 9.218, 9.726, 9.313, 9.65, 9.289, 9.568, 9.756, 9.893, 9.103, 9.351, 9.466, 9.161, 9.611, 9.969, 9.159, 9.555, 9.343, 9.622, 9.154, 9.488, 9.189, 9.649, 10.795, 9.143, 10.031, 10.577, 9.35, 9.185, 9.329, 9.293, 9.366, 9.46, 9.286, 9.681, 9.208, 9.599, 9.478, 9.432, 9.194, 9.498, 9.79, 9.363, 9.533, 9.805, 9.54, 9.349, 9.593, 9.633, 9.241, 9.566, 9.748, 9.346, 9.203, 12.214, 21.284, 9.972, 9.708, 9.358, 9.59, 9.283, 9.279, 9.521, 9.601, 9.306, 9.051, 9.495, 9.549, 9.591, 9.521, 9.464, 9.445, 9.232, 9.454, 9.414, 9.673, 9.206, 9.301, 9.058, 9.084, 9.534, 9.375, 9.714, 9.203, 9.712, 9.465, 9.33, 9.667, 9.439, 9.415, 13.542, 9.275, 9.399, 10.094, 9.561, 9.613, 9.538, 9.528, 8.987, 9.733, 9.543, 9.427, 10.288, 9.469, 9.251, 9.829, 9.335, 9.4, 9.505, 9.486, 8.914, 9.611, 9.189, 9.509, 9.365, 9.637, 9.527, 9.381, 9.356, 9.957, 9.158, 9.636, 9.337, 9.627, 9.401, 9.471, 9.661, 9.451, 9.471, 9.05, 9.749, 9.763, 10.854, 9.173, 9.475, 9.719, 9.361, 9.3, 9.136, 9.702, 9.807, 9.444, 8.949, 9.27, 9.893, 9.241, 9.347, 9.394, 10.023, 9.463, 9.344, 9.571, 9.45, 9.161, 9.709, 9.671, 9.407, 9.608, 10.863, 25.702, 9.855, 9.503, 9.343, 9.778, 9.269, 9.761, 9.22, 9.381, 9.097, 9.839, 9.418, 9.526, 9.604, 9.518, 9.487, 9.199, 9.463, 9.112, 9.596, 9.423, 9.087, 9.623, 9.591, 9.868, 9.48, 9.086, 9.45, 9.552, 9.286, 9.779, 9.234, 9.21, 9.525, 13.263, 9.399, 10.175, 9.482, 9.65, 9.56, 9.331, 9.835, 9.514, 9.489, 9.871, 9.398, 9.771, 9.197, 9.42, 9.132, 9.879, 9.384, 9.124, 9.305, 9.605, 9.334, 9.72, 9.555, 9.272, 9.316, 9.435, 9.212, 9.579, 9.369, 10.069, 9.61, 9.551, 9.213, 9.456, 9.381, 9.292, 9.521, 9.144, 9.431, 9.347, 9.161, 9.449, 10.41, 9.537, 9.211, 9.471, 9.448, 9.584, 9.547, 9.486, 9.258, 9.28, 9.557, 9.168, 9.177, 9.662, 9.445, 9.241, 9.128, 9.653, 9.578, 9.43, 9.456, 9.341, 9.667, 9.446, 9.441, 9.283, 9.563, 9.553, 9.842, 9.438, 17.115, 9.548, 9.502, 9.558, 9.294, 9.555, 9.256, 9.772, 9.605, 25.009, 9.108, 9.373, 12.357, 10.283, 9.357, 20.706, 9.208, 10.395, 9.237, 9.712, 10.287, 9.476, 23.817, 11.856, 9.641, 9.363, 11.52, 11.481, 10.71, 9.483, 9.69, 9.274, 9.287, 9.663, 9.529, 9.526, 9.736, 9.488, 9.682, 9.757, 9.205, 9.45, 9.37, 9.021, 9.58, 9.248, 9.439, 9.404, 9.199, 9.14, 9.46, 9.242, 8.984, 9.641, 9.439, 9.669, 9.512, 9.231, 9.358, 9.407, 9.572, 9.315, 9.574, 9.582, 9.434, 9.341, 9.69, 9.352, 9.414, 9.388, 9.395, 10.082, 9.416, 9.831, 9.43, 9.329, 9.521, 8.982, 9.798, 9.313, 9.561, 9.126, 9.479, 9.474, 9.204, 9.468, 9.605, 9.159, 9.459, 9.201, 9.452, 9.461, 9.501, 9.409, 9.276, 9.345, 9.954, 20.895, 12.134, 9.555, 9.291, 9.425, 9.385, 9.337, 9.488, 9.318, 9.49, 9.492, 9.943, 9.024, 9.396, 9.638, 9.396, 9.489, 9.102, 9.492, 9.955, 9.33, 9.547, 9.515, 9.335, 9.479, 9.697, 9.229, 8.912, 9.746, 8.998, 10.02, 13.603, 9.803, 17.378, 9.965, 9.704, 9.936, 9.093, 9.773, 9.861, 9.5, 9.571, 9.092, 9.361, 9.606, 9.385, 9.085, 9.307, 9.623, 9.507, 9.069, 9.401, 9.524, 9.458, 9.007, 9.635, 9.797, 9.245, 9.536, 9.336, 9.288, 9.347, 9.664, 9.244, 9.429, 9.605, 9.496, 9.48, 9.166, 9.345, 9.329, 9.561, 9.235, 9.309, 9.746, 10.169, 9.395, 10.044, 9.133, 9.438, 9.295, 9.39, 9.406, 9.466, 9.649, 9.3, 9.239, 9.573, 9.68, 9.4, 9.174, 9.585, 9.255, 9.691, 9.187, 9.556, 9.657, 9.18, 9.608, 9.11, 9.972, 9.301, 9.724, 11.864, 19.372, 11.312, 9.497, 9.311, 9.477, 9.161, 9.622, 9.487, 9.243, 10.448, 9.211, 9.634, 9.43, 9.175, 9.759, 9.654, 9.091, 9.789, 9.104, 9.369, 9.525, 9.354, 9.744, 9.219, 9.67, 9.357, 9.555, 9.749, 9.464, 9.26, 9.25, 10.295, 20.31, 9.696, 9.771],
  "Optimizer iterations": 618,
  "Optimizer params": [0.4186699794620354, 0.0465366376555843, 0.8749602965041953, 0.7932759092598848, 0.5888834109214133, 0.9479643179067951, 0.4178901957871302, 0.3715913103408136, 0.6407153374409869, 0.3313820207053303, 0.30339367917771665, 0.9427989885959523, 0.13348298232151298, 0.11388924668088221, 0.9712324220918906, 0.5227598378348959, 0.49585854208962243, 0.5107372116958248, 0.9872994563291223, 0.5023613619009994, 0.49582579402964533, 0.5001565181822353, 0.4224545086443271, 0.1409212246614702, 0.6879190584283107, 0.9513263969553298, 0.20380159718605223, 0.4745622497258206, 0.024541525079725412, 0.6290565620360321, 0.7417788214465811, 0.7107545740894665],
  "P": 0,
  "Problem": "IC",
  "QJob durations [ms]": [0.43569999979808927, 0.4486499819904566, 0.4334999975981191, 0.4141000099480152, 0.4337499995017424, 0.42124999163206667, 0.4192500055069104, 0.41059999784920365, 0.42114999087061733, 0.41819999751169235, 0.42055000085383654, 0.41974999476224184, 0.407750005251728, 0.44595000508707017, 0.4182999982731417, 0.418099996750243, 0.4049499984830618, 0.42484998994041234, 0.4231000057188794, 0.43265000567771494, 0.410849999752827, 0.43054998968727887, 0.4123499966226518, 0.4134500049985945, 0.47055001778062433, 0.41524998960085213, 0.4302500019548461, 0.43175001337658614, 0.41560000681784004, 0.4346000059740618, 0.414249996538274, 0.41865000093821436, 0.453649990959093, 0.42129999201279134, 0.44004998926538974, 0.42380001104902476, 0.4175000067334622, 0.42019999818876386, 0.43420000292826444, 0.417799994465895, 0.42320000648032874, 0.4225999873597175, 0.4427499952726066, 0.4222999996272847, 0.4288000054657459, 0.43369999912101775, 0.42305000533815473, 0.4226000019116327, 0.4199499962851405, 0.40129999979399145, 0.42625000060070306, 0.41030001011677086, 0.4172999906586483, 0.4300500004319474, 0.4182999982731417, 0.4155000060563907, 0.41364999196957797, 0.4282000008970499, 0.41784999484661967, 0.41325000347569585, 0.4138999938732013, 0.4206500016152859, 0.42675000440794975, 0.41760000749491155, 0.42359999497421086, 0.44160000106785446, 0.418249997892417, 0.42365000990685076, 0.4069499991601333, 0.39394998748321086, 0.42779999785125256, 0.5978499975753948, 0.5322500073816627, 0.6420499994419515, 0.4847000091103837, 0.5325999954948202, 0.5802000086987391, 0.5486000154633075, 0.4783500044140965, 0.4589500022120774, 0.5043999990448356, 0.44069999421481043, 0.48925001465249807, 0.4962499951943755, 0.41429999691899866, 0.43694999476429075, 0.41360000614076853, 0.4194000066490844, 0.4280499997548759, 0.3885000041918829, 0.4222999996272847, 0.4234999942127615, 0.4359500017017126, 0.42070000199601054, 0.4148499865550548, 0.4397999873617664, 0.4364500055089593, 0.5278999888105318, 0.4144000122323632, 0.4299499996704981, 0.4424499929882586, 0.4285000031813979, 0.527600001078099, 0.4182999982731417, 0.4454000008990988, 0.4364500055089593, 0.41799999598879367, 0.4134500049985945, 0.41619999683462083, 0.4383000050438568, 0.4236999957356602, 0.42264998774044216, 0.4189000028418377, 0.41199999395757914, 0.4169000021647662, 0.4257500113453716, 0.42485000449232757, 0.4164499987382442, 0.4299499996704981, 0.4230999911669642, 0.42890000622719526, 0.4217500099912286, 0.4320500011090189, 0.42810000013560057, 0.4435500013642013, 0.40985000669024885, 0.4190500039840117, 0.4169999883743003, 0.4195000074105337, 0.42979999852832407, 0.4349000082584098, 0.41604999569244683, 0.42374999611638486, 0.4172000044491142, 0.42854998901020736, 0.4082999948877841, 0.4212000058032572, 0.4201499978080392, 0.42409999878145754, 0.49434999527875334, 0.4226000019116327, 0.4204500000923872, 0.4904000088572502, 0.4115499905310571, 0.41619999683462083, 0.4174000059720129, 0.4132999893045053, 0.4206000012345612, 0.4206999874440953, 0.41700000292621553, 0.4173500055912882, 0.4143499972997233, 0.4259999986970797, 0.4251000063959509, 0.41775000863708556, 0.41355000576004386, 0.418550000176765, 0.4453000001376495, 0.4238499968778342, 0.42204999772366136, 0.4307000053813681, 0.42219999886583537, 0.4209000035189092, 0.4221499984851107, 0.4240499984007329, 0.41739999142009765, 0.4368999943835661, 0.4257499967934564, 0.4150500026298687, 0.4130500019527972, 0.5564500170294195, 0.44985000567976385, 0.4563999973470345, 0.4318999999668449, 0.41665000026114285, 0.4224500007694587, 0.42195001151412725, 0.41804999636951834, 0.42300000495743006, 0.42424999992363155, 0.4134500049985945, 0.4126999992877245, 0.4195000074105337, 0.42359999497421086, 0.42300000495743006, 0.4189999890513718, 0.4241999995429069, 0.4157000075792894, 0.4163999983575195, 0.42374999611638486, 0.43214998731855303, 0.42440000106580555, 0.41250001231674105, 0.41199999395757914, 0.41789999522734433, 0.4063500091433525, 0.42115000542253256, 0.4138000076636672, 0.4246500029694289, 0.42344999383203685, 0.42344999383203685, 0.42389999725855887, 0.417649993323721, 0.43465000635478646, 0.41614999645389616, 0.4246500029694289, 0.6150499975774437, 0.41140000394079834, 0.4283500020392239, 0.4525499971350655, 0.42655000288505107, 0.4280499997548759, 0.42379999649710953, 0.41724999027792364, 0.4130500019527972, 0.4320500011090189, 0.41700000292621553, 0.4182999982731417, 0.4616000078385696, 0.4243500006850809, 0.4245000018272549, 0.43134999577887356, 0.42100000428035855, 0.4159499949309975, 0.41634999797679484, 0.4239000118104741, 0.4086499975528568, 0.41449999844189733, 0.41125000279862434, 0.4123000107938424, 0.4299499996704981, 0.4243000003043562, 0.42314999154768884, 0.415000002249144, 0.42764999670907855, 0.42690000555012375, 0.4191999905742705, 0.4199499962851405, 0.4206000012345612, 0.4158999945502728, 0.4233499930705875, 0.41880000208038837, 0.4220500122755766, 0.4351499956101179, 0.4167500010225922, 0.41590000910218805, 0.44175000221002847, 0.4228000034345314, 0.5033000197727233, 0.4132000030949712, 0.42039999971166253, 0.4294499958632514, 0.41760000749491155, 0.41754999256227165, 0.42165000922977924, 0.4348499933257699, 0.4437000025063753, 0.41599999531172216, 0.4106499982299283, 0.4309000069042668, 0.4236499953549355, 0.4175000067334622, 0.4157499934080988, 0.42764999670907855, 0.4425000079208985, 0.41635001252871007, 0.41715000406838953, 0.43200000072829425, 0.4154999915044755, 0.41954999323934317, 0.4236000095261261, 0.42949999624397606, 0.4204500000923872, 0.42440000106580555, 0.5100999987917021, 0.4140000091865659, 0.4334999975981191, 0.42034999933093786, 0.4196499940007925, 0.43539999751374125, 0.42779999785125256, 0.42409999878145754, 0.417649993323721, 0.4181500116828829, 0.41384999349247664, 0.42389999725855887, 0.42344999383203685, 0.42475000373087823, 0.4221499984851107, 0.41974999476224184, 0.4170500033069402, 0.41575000796001405, 0.42100000428035855, 0.4174499918008223, 0.421649994677864, 0.41804999636951834, 0.41024999518413097, 0.4334499972173944, 0.42824998672585934, 0.42979999852832407, 0.4230999911669642, 0.41554999188520014, 0.41725000482983887, 0.424899990321137, 0.4198499955236912, 0.4506499972194433, 0.414699999964796, 0.4200000112177804, 0.4254500090610236, 0.6183000077726319, 0.4202499985694885, 0.46714999189134687, 0.4193500062683597, 0.41629999759607017, 0.4275999963283539, 0.4165999998804182, 0.44809999235440046, 0.42109999048989266, 0.4253000079188496, 0.444950012024492, 0.4243000003043562, 0.4345500055933371, 0.4123499966226518, 0.42079998820554465, 0.4189000028418377, 0.42529999336693436, 0.4130999877816066, 0.41649999911896884, 0.4135000053793192, 0.4258499975549057, 0.4186000005574897, 0.42204999772366136, 0.4235499945934862, 0.4118999931961298, 0.41849999979604036, 0.41620001138653606, 0.418249997892417, 0.41429999691899866, 0.425349993747659, 0.44504999823402613, 0.42329999268986285, 0.42034999933093786, 0.4150500026298687, 0.4212500061839819, 0.41349999082740396, 0.4202499985694885, 0.4275499959476292, 0.41945000702980906, 0.4119500081287697, 0.41364999196957797, 0.41530000453349203, 0.4218500107526779, 0.4728500061901286, 0.41870000131893903, 0.41325000347569585, 0.4234500083839521, 0.4241499991621822, 0.42249998659826815, 0.4234500083839521, 0.4171499895164743, 0.4165999998804182, 0.4130500019527972, 0.4273999948054552, 0.4065500106662512, 0.41799999598879367, 0.4337499995017424, 0.4211000050418079, 0.41399999463465065, 0.41519998922012746, 0.41880000208038837, 0.42984999890904874, 0.421349992393516, 0.41710000368766487, 0.42449998727533966, 0.41960000817198306, 0.42625000060070306, 0.4198499955236912, 0.42224999924656004, 0.42064998706337065, 0.40854999679140747, 0.45784999383613467, 0.41885000246111304, 0.4178500093985349, 0.4192500055069104, 0.4250999918440357, 0.41965000855270773, 0.4170500033069402, 0.42470000335015357, 0.41945000702980906, 0.42594999831635505, 0.42424999992363155, 0.3922000032616779, 0.4170500033069402, 0.42305000533815473, 0.5615499976556748, 0.4661999992094934, 0.41590000910218805, 0.4261499998392537, 0.417499992181547, 0.4741000011563301, 0.4116999916732311, 0.4251000063959509, 0.468449987238273, 0.4229500045767054, 0.45525000314228237, 0.5424999981187284, 0.4222999996272847, 0.4227500030538067, 0.520350004080683, 0.41715000406838953, 0.4751000087708235, 0.4394999996293336, 0.42440000106580555, 0.41880000208038837, 0.4184499994153157, 0.4314499965403229, 0.41915000474546105, 0.4317499988246709, 0.4276999970898032, 0.4271500074537471, 0.4282500012777746, 0.4199499962851405, 0.4192999913357198, 0.4084999964106828, 0.41599999531172216, 0.41619999683462083, 0.4174499918008223, 0.4183500132057816, 0.43235000339336693, 0.41184999281540513, 0.40935000288300216, 0.4158000083407387, 0.4189500032225624, 0.4118000069865957, 0.4098999925190583, 0.4198500100756064, 0.4193500062683597, 0.4229500045767054, 0.42034999933093786, 0.4119500081287697, 0.418399999034591, 0.421649994677864, 0.42749999556690454, 0.4187500016996637, 0.4284000024199486, 0.4230499907862395, 0.42544999450910836, 0.4191499901935458, 0.4209000035189092, 0.42004999704658985, 0.42294999002479017, 0.41205000889021903, 0.4154999915044755, 0.458099995739758, 0.42409999878145754, 0.43694999476429075, 0.42209999810438603, 0.4187500016996637, 0.4150999884586781, 0.41184999281540513, 0.4393499984871596, 0.4141500103287399, 0.43039998854510486, 0.413949994253926, 0.41880000208038837, 0.42240000038873404, 0.4122499958612025, 0.43575000017881393, 0.4238499968778342, 0.41290000081062317, 0.42270000267308205, 0.41724999027792364, 0.4133000038564205, 0.4191000043647364, 0.41649999911896884, 0.41900000360328704, 0.41715000406838953, 0.41900000360328704, 0.4322000022511929, 0.44329999946057796, 0.5552000075113028, 0.4278499982319772, 0.4155000060563907, 0.4122499958612025, 0.4183500132057816, 0.42055000085383654, 0.4153500049142167, 0.41540000529494137, 0.42174999543931335, 0.43474999256432056, 0.43559999903663993, 0.41725000482983887, 0.42645000212360173, 0.4172000044491142, 0.4224500007694587, 0.4226500022923574, 0.4122499958612025, 0.41340000461786985, 0.44409999100025743, 0.41449999844189733, 0.43110000842716545, 0.4246500029694289, 0.4189999890513718, 0.4275000101188198, 0.42109999048989266, 0.4120499943383038, 0.4106499982299283, 0.4309999931138009, 0.41680000140331686, 0.4386000073282048, 0.4127500142203644, 0.42949999624397606, 0.4159499949309975, 0.4525499971350655, 0.42609999945852906, 0.4439999902388081, 0.41704998875502497, 0.4251500067766756, 0.4328499926486984, 0.4199499962851405, 0.4193499917164445, 0.4128500004298985, 0.4186000005574897, 0.41464999958407134, 0.41614999645389616, 0.41399999463465065, 0.4184499994153157, 0.4121000092709437, 0.41789999522734433, 0.41354999120812863, 0.41959999362006783, 0.4257499967934564, 0.4188499879091978, 0.4129999870201573, 0.43044998892582953, 0.4239000118104741, 0.4165999998804182, 0.4191999905742705, 0.4175500071141869, 0.4174000059720129, 0.4126499989069998, 0.4334999975981191, 0.41369999235030264, 0.4206000012345612, 0.43065000500064343, 0.4154499911237508, 0.42034999933093786, 0.4163999983575195, 0.4116500058444217, 0.42209999810438603, 0.4178000090178102, 0.4165499994996935, 0.4168500017840415, 0.44204998994246125, 0.45950000640004873, 0.41819999751169235, 0.46004999603610486, 0.41310000233352184, 0.40859999717213213, 0.41945000702980906, 0.41179999243468046, 0.41700000292621553, 0.4314499965403229, 0.4268500051693991, 0.4152000037720427, 0.41894998867064714, 0.41449999844189733, 0.4253000079188496, 0.41704998875502497, 0.41694998799357563, 0.4249500052537769, 0.42079998820554465, 0.4225000011501834, 0.4177000082563609, 0.4280499997548759, 0.4223500000080094, 0.4190500039840117, 0.43459999142214656, 0.4107999993721023, 0.4130000015720725, 0.42299999040551484, 0.4257499967934564, 0.5527000030269846, 0.4209000035189092, 0.5165999900782481, 0.4199999966658652, 0.4157999937888235, 0.4215499939164147, 0.42684999061748385, 0.4265000025043264, 0.4212500061839819, 0.40970000554807484, 0.46470000233966857, 0.418550000176765, 0.4253000079188496, 0.4201499978080392, 0.41244999738410115, 0.4449499974725768, 0.42240000038873404, 0.415000002249144, 0.42224999924656004, 0.4103499959455803, 0.41730000521056354, 0.41944999247789383, 0.42064998706337065, 0.4292999947210774, 0.4259000124875456, 0.4207500023767352, 0.4175999929429963, 0.42440000106580555, 0.4421499907039106, 0.42144999315496534, 0.4071000003023073, 0.4212500061839819, 0.4326000052969903, 0.41149999015033245, 0.441400014096871, 0.4442999925231561],
  "QPU": "7000000",
  "Qubits": 8,
  "Queue durations [ms]": [0.0, 0.0, 0.0, 0.0, 0.0, 0.0, 0.0, 0.0, 0.0, 0.0, 0.0, 0.0, 0.0, 0.0, 0.0, 0.0, 0.0, 0.0, 0.0, 0.0, 0.0, 0.0, 0.0, 0.0, 0.0, 0.0, 0.0, 0.0, 0.0, 0.0, 0.0, 0.0, 0.0, 0.0, 0.0, 0.0, 0.0, 0.0, 0.0, 0.0, 0.0, 0.0, 0.0, 0.0, 0.0, 0.0, 0.0, 0.0, 0.0, 0.0, 0.0, 0.0, 0.0, 0.0, 0.0, 0.0, 0.0, 0.0, 0.0, 0.0, 0.0, 0.0, 0.0, 0.0, 0.0, 0.0, 0.0, 0.0, 0.0, 0.0, 0.0, 0.0, 0.0, 0.0, 0.0, 0.0, 0.0, 0.0, 0.0, 0.0, 0.0, 0.0, 0.0, 0.0, 0.0, 0.0, 0.0, 0.0, 0.0, 0.0, 0.0, 0.0, 0.0, 0.0, 0.0, 0.0, 0.0, 0.0, 0.0, 0.0, 0.0, 0.0, 0.0, 0.0, 0.0, 0.0, 0.0, 0.0, 0.0, 0.0, 0.0, 0.0, 0.0, 0.0, 0.0, 0.0, 0.0, 0.0, 0.0, 0.0, 0.0, 0.0, 0.0, 0.0, 0.0, 0.0, 0.0, 0.0, 0.0, 0.0, 0.0, 0.0, 0.0, 0.0, 0.0, 0.0, 0.0, 0.0, 0.0, 0.0, 0.0, 0.0, 0.0, 0.0, 0.0, 0.0, 0.0, 0.0, 0.0, 0.0, 0.0, 0.0, 0.0, 0.0, 0.0, 0.0, 0.0, 0.0, 0.0, 0.0, 0.0, 0.0, 0.0, 0.0, 0.0, 0.0, 0.0, 0.0, 0.0, 0.0, 0.0, 0.0, 0.0, 0.0, 0.0, 0.0, 0.0, 0.0, 0.0, 0.0, 0.0, 0.0, 0.0, 0.0, 0.0, 0.0, 0.0, 0.0, 0.0, 0.0, 0.0, 0.0, 0.0, 0.0, 0.0, 0.0, 0.0, 0.0, 0.0, 0.0, 0.0, 0.0, 0.0, 0.0, 0.0, 0.0, 0.0, 0.0, 0.0, 0.0, 0.0, 0.0, 0.0, 0.0, 0.0, 0.0, 0.0, 0.0, 0.0, 0.0, 0.0, 0.0, 0.0, 0.0, 0.0, 0.0, 0.0, 0.0, 0.0, 0.0, 0.0, 0.0, 0.0, 0.0, 0.0, 0.0, 0.0, 0.0, 0.0, 0.0, 0.0, 0.0, 0.0, 0.0, 0.0, 0.0, 0.0, 0.0, 0.0, 0.0, 0.0, 0.0, 0.0, 0.0, 0.0, 0.0, 0.0, 0.0, 0.0, 0.0, 0.0, 0.0, 0.0, 0.0, 0.0, 0.0, 0.0, 0.0, 0.0, 0.0, 0.0, 0.0, 0.0, 0.0, 0.0, 0.0, 0.0, 0.0, 0.0, 0.0, 0.0, 0.0, 0.0, 0.0, 0.0, 0.0, 0.0, 0.0, 0.0, 0.0, 0.0, 0.0, 0.0, 0.0, 0.0, 0.0, 0.0, 0.0, 0.0, 0.0, 0.0, 0.0, 0.0, 0.0, 0.0, 0.0, 0.0, 0.0, 0.0, 0.0, 0.0, 0.0, 0.0, 0.0, 0.0, 0.0, 0.0, 0.0, 0.0, 0.0, 0.0, 0.0, 0.0, 0.0, 0.0, 0.0, 0.0, 0.0, 0.0, 0.0, 0.0, 0.0, 0.0, 0.0, 0.0, 0.0, 0.0, 0.0, 0.0, 0.0, 0.0, 0.0, 0.0, 0.0, 0.0, 0.0, 0.0, 0.0, 0.0, 0.0, 0.0, 0.0, 0.0, 0.0, 0.0, 0.0, 0.0, 0.0, 0.0, 0.0, 0.0, 0.0, 0.0, 0.0, 0.0, 0.0, 0.0, 0.0, 0.0, 0.0, 0.0, 0.0, 0.0, 0.0, 0.0, 0.0, 0.0, 0.0, 0.0, 0.0, 0.0, 0.0, 0.0, 0.0, 0.0, 0.0, 0.0, 0.0, 0.0, 0.0, 0.0, 0.0, 0.0, 0.0, 0.0, 0.0, 0.0, 0.0, 0.0, 0.0, 0.0, 0.0, 0.0, 0.0, 0.0, 0.0, 0.0, 0.0, 0.0, 0.0, 0.0, 0.0, 0.0, 0.0, 0.0, 0.0, 0.0, 0.0, 0.0, 0.0, 0.0, 0.0, 0.0, 0.0, 0.0, 0.0, 0.0, 0.0, 0.0, 0.0, 0.0, 0.0, 0.0, 0.0, 0.0, 0.0, 0.0, 0.0, 0.0, 0.0, 0.0, 0.0, 0.0, 0.0, 0.0, 0.0, 0.0, 0.0, 0.0, 0.0, 0.0, 0.0, 0.0, 0.0, 0.0, 0.0, 0.0, 0.0, 0.0, 0.0, 0.0, 0.0, 0.0, 0.0, 0.0, 0.0, 0.0, 0.0, 0.0, 0.0, 0.0, 0.0, 0.0, 0.0, 0.0, 0.0, 0.0, 0.0, 0.0, 0.0, 0.0, 0.0, 0.0, 0.0, 0.0, 0.0, 0.0, 0.0, 0.0, 0.0, 0.0, 0.0, 0.0, 0.0, 0.0, 0.0, 0.0, 0.0, 0.0, 0.0, 0.0, 0.0, 0.0, 0.0, 0.0, 0.0, 0.0, 0.0, 0.0, 0.0, 0.0, 0.0, 0.0, 0.0, 0.0, 0.0, 0.0, 0.0, 0.0, 0.0, 0.0, 0.0, 0.0, 0.0, 0.0, 0.0, 0.0, 0.0, 0.0, 0.0, 0.0, 0.0, 0.0, 0.0, 0.0, 0.0, 0.0, 0.0, 0.0, 0.0, 0.0, 0.0, 0.0, 0.0, 0.0, 0.0, 0.0, 0.0, 0.0, 0.0, 0.0, 0.0, 0.0, 0.0, 0.0, 0.0, 0.0, 0.0, 0.0, 0.0, 0.0, 0.0, 0.0, 0.0, 0.0, 0.0, 0.0, 0.0, 0.0, 0.0, 0.0, 0.0, 0.0, 0.0, 0.0, 0.0, 0.0, 0.0, 0.0, 0.0, 0.0, 0.0, 0.0, 0.0, 0.0, 0.0, 0.0, 0.0, 0.0, 0.0, 0.0, 0.0, 0.0, 0.0, 0.0, 0.0, 0.0, 0.0, 0.0, 0.0, 0.0, 0.0, 0.0, 0.0, 0.0, 0.0, 0.0, 0.0, 0.0, 0.0, 0.0, 0.0, 0.0, 0.0, 0.0, 0.0, 0.0, 0.0],
  "Shots": 4096,
  "Size": 8,
  "Total Algorithm duration [s]": 6.151,
  "Total Classic duration [s]": 5.886638750164071,
  "Total Quantum duration [s]": 0.2643612498359289
}
