{
  "Circuit execution durations [ms]": [0.43679999362211674, 0.447600003099069, 0.43074999121017754, 0.4131500027142465, 0.4190499894320965, 0.4253000079188496, 0.42394999763928354, 0.4212500061839819, 0.41444999806117266, 0.41700000292621553, 0.4265999887138605, 0.4119500081287697, 0.42705000669229776, 0.4619000101229176, 0.4233499930705875, 0.4337999998824671, 0.41290000081062317, 0.599299994064495, 0.4386500077089295, 0.5361499934224412, 0.4216000088490546, 0.42004999704658985, 0.4285500035621226, 0.42174999543931335, 0.41495000186841935, 0.418399999034591, 0.41290000081062317, 0.4157999937888235, 0.4240499984007329, 0.487299999804236, 0.42565001058392227, 0.41760000749491155, 0.4320500011090189, 0.4170500033069402, 0.42549999488983303, 0.43420000292826444, 0.4287999909138307, 0.42299999040551484, 0.4351999959908426, 0.4131500027142465, 0.41015000897459686, 0.4165999998804182, 0.43045000347774476, 0.4196499940007925, 0.4163000121479854, 0.42019999818876386, 0.4280499997548759, 0.42124999163206667, 0.4288500058464706, 0.4198500100756064, 0.4182999982731417, 0.4329000075813383, 0.4260499990778044, 0.41695000254549086, 0.4354499978944659, 0.425199992605485, 0.4253000079188496, 0.49870001384988427, 0.5149499920662493, 0.41784999484661967, 0.41634999797679484, 0.4317999992053956, 0.41530000453349203, 0.42594999831635505, 0.4196499940007925, 0.41804999636951834, 0.42124999163206667, 0.4234500083839521, 0.4687000036938116, 0.417499992181547, 0.4417000018293038, 0.4140000091865659, 0.4504500102484599, 0.4449499974725768, 0.41995001083705574, 0.440200004959479, 0.414699999964796, 0.41519998922012746, 0.418399999034591, 0.4253999941283837, 0.4233999934513122, 0.4186000005574897, 0.414549998822622, 0.44759998854715377, 0.4223500000080094, 0.42565001058392227, 0.41725000482983887, 0.41769999370444566, 0.41954999323934317, 0.4257499967934564, 0.44100001105107367, 0.4186000005574897, 0.4178000090178102, 0.4227500030538067, 0.41745000635273755, 0.4127999854972586, 0.42734999442473054, 0.41620001138653606, 0.41680000140331686, 0.4257499967934564, 0.4139500088058412, 0.414699999964796, 0.42570001096464694, 0.4227500030538067, 0.4319500003475696, 0.4116500058444217, 0.42969999776687473, 0.41725000482983887, 0.4219000111334026, 0.4186000005574897, 0.42204999772366136, 0.4133000038564205, 0.42189999658148736, 0.4305500042391941, 0.4123999970033765, 0.414549998822622, 0.41900000360328704, 0.40905000059865415, 0.4384500061860308, 0.44070000876672566, 0.4277499974705279, 0.42130000656470656, 0.4206500016152859, 0.42460000258870423, 0.41975000931415707, 0.42019999818876386, 0.421649994677864, 0.41290000081062317, 0.42070000199601054, 0.4293999954825267, 0.4342499887570739, 0.42314999154768884, 0.4131500027142465, 0.4212000058032572, 0.41244999738410115, 0.5545500025618821, 0.41965000855270773, 0.41614999645389616, 0.41420001070946455, 0.42209999810438603, 0.44175000221002847, 0.4157499934080988, 0.4136500065214932, 0.4197999951429665, 0.41569999302737415, 0.4240499984007329, 0.44439999328460544, 0.42189999658148736, 0.4135000053793192, 0.41420001070946455, 0.4089499998372048, 0.41620001138653606, 0.4192000051261857, 0.4202999989502132, 0.4197999951429665, 0.4480499919736758, 0.4101999948034063, 0.40704999992158264, 0.42150000808760524, 0.4155000060563907, 0.41649999911896884, 0.44595000508707017, 0.4124999977648258, 0.5143500166013837, 0.44175000221002847, 0.4679500125348568, 0.5568999913521111, 0.5423499969765544, 0.5239500023890287, 0.41745000635273755, 0.42329999268986285, 0.4262000002199784, 0.4178000090178102, 0.41289998625870794, 0.4056999896420166, 0.4292000085115433, 0.41849999979604036, 0.4092500021215528, 0.41900000360328704, 0.4076999903190881, 0.41694998799357563, 0.4225000011501834, 0.41789999522734433, 0.4165999998804182, 0.4157000075792894, 0.41244999738410115, 0.40854999679140747, 0.4216999950585887, 0.4254500090610236, 0.418099996750243, 0.4598499945132062, 0.4274500097380951, 0.41745000635273755, 0.4186999867670238, 0.4160000098636374, 0.41974999476224184, 0.4109500005142763, 0.4096999909961596, 0.4206000012345612, 0.41384999349247664, 0.4243000003043562, 0.41399999463465065, 0.421649994677864, 0.413799993111752, 0.4158500087214634, 0.42475000373087823, 0.4258499975549057, 0.414699999964796, 0.4266500036465004, 0.4274500097380951, 0.41325000347569585, 0.41310000233352184, 0.425349993747659, 0.41700000292621553, 0.41480000072624534, 0.4096000047866255, 0.4157499934080988, 0.43030000233557075, 0.5801499937660992, 0.5101499846205115, 0.41915000474546105, 0.41709998913574964, 0.4126999992877245, 0.4131500027142465, 0.4434999864315614, 0.41944999247789383, 0.4129499866394326, 0.4226999881211668, 0.41429999691899866, 0.4269500059308484, 0.41930000588763505, 0.41769999370444566, 0.42129999201279134, 0.41649999911896884, 0.42594999831635505, 0.447300000814721, 0.4285500035621226, 0.41775000863708556, 0.42285000381525606, 0.41384999349247664, 0.42204999772366136, 0.42219999886583537, 0.4204500000923872, 0.41414999577682465, 0.4133000038564205, 0.4133000038564205, 0.41665000026114285, 0.4210500046610832, 0.421949996962212, 0.42010001197922975, 0.4175000067334622, 0.41834999865386635, 0.41185000736732036, 0.4130000015720725, 0.41214999509975314, 0.4439999902388081, 0.41804999636951834, 0.4277499974705279, 0.4160000098636374, 0.4427499952726066, 0.41665000026114285, 0.4112499882467091, 0.41915000474546105, 0.4126499989069998, 0.4186000005574897, 0.41614999645389616, 0.4187500016996637, 0.41710000368766487, 0.4675999953178689, 0.4161000106250867, 0.42905000736936927, 0.42624998604878783, 0.418099996750243, 0.42034999933093786, 0.4178000090178102, 0.4154499911237508, 0.4199999966658652, 0.43119999463669956, 0.4174000059720129, 0.4131500027142465, 0.4128500004298985, 0.4074999887961894, 0.40345000161323696, 0.4250999918440357, 0.42335000762250274, 0.43230000301264226, 0.4220500122755766, 0.41259999852627516, 0.42100000428035855, 0.417499992181547, 0.4198499955236912, 0.4228999896440655, 0.41199999395757914, 0.4495000030146912, 0.4160999960731715, 0.41429999691899866, 0.4201499978080392, 0.4193499917164445, 0.4255499952705577, 0.4174499918008223, 0.42224999924656004, 0.43015000119339675, 0.40854999679140747, 0.4216999950585887, 0.4229000041959807, 0.4274499951861799, 0.43230000301264226, 0.42174999543931335, 0.41799999598879367, 0.41870000131893903, 0.421799995820038, 0.41370000690221786, 0.41029999556485564, 0.4107999993721023, 0.4295499966247007, 0.415000002249144, 0.41569999302737415, 0.44380000326782465, 0.4165499994996935, 0.42224999924656004, 0.4096500051673502, 0.5525500018848106, 0.45924998994451016, 0.41414999577682465, 0.4193500062683597, 0.4187500016996637, 0.4184499994153157, 0.41014999442268163, 0.42374999611638486, 0.4132499889237806, 0.41459999920334667, 0.41739999142009765, 0.4115000047022477, 0.4084999964106828, 0.4343000036897138, 0.40779999108053744, 0.41125000279862434, 0.42559999565128237, 0.41739999142009765, 0.4163999983575195, 0.4124500119360164, 0.4157000075792894, 0.4182999982731417, 0.42270000267308205, 0.4317999992053956, 0.4096000047866255, 0.4229500045767054, 0.4116999916732311, 0.42440000106580555, 0.47774999984540045, 0.4232500068610534, 0.42305000533815473, 0.4226000019116327, 0.4228000034345314, 0.418249997892417, 0.421049990109168, 0.41680000140331686, 0.42845000280067325, 0.41325000347569585, 0.6385999877238646, 0.41799999598879367, 0.42565001058392227, 0.41125000279862434, 0.4226000019116327, 0.4198500100756064, 0.415000002249144, 0.45200000749900937, 0.4189500032225624, 0.41449999844189733, 0.4699500132119283, 0.45065001177135855, 0.42934999510180205, 0.41619999683462083, 0.4121000092709437, 0.41179999243468046, 0.4256000102031976, 0.4149000014876947, 0.4124000115552917, 0.42219999886583537, 0.41539999074302614, 0.4319500003475696, 0.4208000027574599, 0.4268500051693991, 0.41259999852627516, 0.43709999590646476, 0.41629999759607017, 0.418249997892417, 0.42130000656470656, 0.40589999116491526, 0.4226000019116327, 0.4262000002199784, 0.40899998566601425, 0.41449999844189733, 0.41930000588763505, 0.4116999916732311, 0.4190499894320965, 0.42294999002479017, 0.4520499933278188, 0.41125000279862434, 0.4189500032225624, 0.41510000301059335, 0.4281999863451347, 0.424899990321137, 0.4250999918440357, 0.4153500049142167, 0.418550000176765, 0.4155000060563907, 0.42749999556690454, 0.4236999957356602, 0.40774999069981277, 0.4208000027574599, 0.42209999810438603, 0.4273999948054552, 0.41924999095499516, 0.41229999624192715, 0.4150999884586781, 0.4115999909117818, 0.41665000026114285, 0.4147500003455207, 0.42374999611638486, 0.414549998822622, 0.4206500016152859, 0.417649993323721, 0.4257499967934564, 0.41354999120812863, 0.5094499938422814, 0.4130000015720725, 0.42204999772366136, 0.4107999993721023, 0.425049991463311, 0.41554999188520014, 0.5630499799735844, 0.4202999989502132, 0.4182999982731417, 0.5480999971041456, 0.410699998610653, 0.41710000368766487, 0.4199499962851405, 0.4096500051673502, 0.4194000066490844, 0.4428999964147806, 0.4193499917164445, 0.4502500087255612, 0.40860001172404736, 0.41604999569244683, 0.42150000808760524, 0.41495000186841935, 0.41059999784920365, 0.42124999163206667, 0.4166999860899523, 0.42149999353569, 0.43879999429918826, 0.41429999691899866, 0.5550000059884042, 0.4107999993721023, 0.42270000267308205, 0.41390000842511654, 0.4222999996272847, 0.42409999878145754, 0.5519500118680298, 0.41340000461786985, 0.41969999438151717, 0.40639999497216195, 0.41024999518413097, 0.4197999951429665, 0.41525000415276736, 0.4133500042371452, 0.42630000098142773, 0.4381000035209581, 0.424449986894615, 0.45220000902190804, 0.42779999785125256, 0.41885000246111304, 0.4240499984007329, 0.42174999543931335, 0.4212000058032572, 0.4144000122323632, 0.4222999996272847, 0.4354999982751906, 0.41274999966844916, 0.53114999900572, 0.43110000842716545, 0.4187500016996637, 0.4364000051282346, 0.44090001028962433, 0.4332999960752204, 0.43569999979808927, 0.4464999947231263, 0.4270999925211072, 0.4395500000100583, 0.4292499943403527, 0.424449986894615, 0.4168499872321263, 0.41870000131893903, 0.4337999998824671, 0.4460500058485195, 0.4663499857997522, 0.4640999832190573, 0.4209000035189092, 0.4265999887138605, 0.44999999227002263, 0.43730001198127866, 0.447750004241243, 0.4284000024199486, 0.4250999918440357, 0.46030001249164343, 0.46475000272039324, 0.43324999569449574, 0.4536500055110082, 0.41355000576004386, 0.4169000021647662, 0.41554999188520014, 0.45319998753257096, 0.4270999925211072, 0.4235500091454014, 0.4348499933257699, 0.41774999408517033, 0.4124999977648258, 0.4219000111334026, 0.42764999670907855, 0.4273999948054552, 0.4120999947190285, 0.4276999970898032, 0.44424999214243144, 0.5074500077171251, 0.5490500043379143, 0.4200999974273145, 0.4197999951429665, 0.4232500068610534, 0.4271000070730224, 0.4223500000080094, 0.4452499997569248, 0.41775000863708556, 0.41399999463465065, 0.41689998761285096, 0.41310000233352184, 0.41525000415276736, 0.4157499934080988, 0.45089999912306666, 0.4292000085115433, 0.4133500042371452, 0.4453000001376495, 0.41295000119134784, 0.41870000131893903, 0.4199499962851405, 0.4199499962851405, 0.4275999963283539, 0.41924999095499516, 0.43089999235235155, 0.46024999755900353, 0.42570001096464694, 0.41959999362006783, 0.4213999927742407, 0.41009999404195696, 0.42490000487305224, 0.42394999763928354, 0.4277499974705279, 0.42714999290183187, 0.42529999336693436, 0.46169997949618846, 0.46519999159500003, 0.41524998960085213, 0.4206500016152859, 0.4200500115985051, 0.4295499966247007, 0.421799995820038, 0.4191000043647364, 0.42485000449232757, 0.425199992605485, 0.4233999934513122, 0.44699998397845775, 0.41789999522734433, 0.4192500055069104, 0.42779999785125256, 0.4131499881623313, 0.44424999214243144, 0.4197999951429665, 0.4250000056345016, 0.4191999905742705, 0.4133999900659546, 0.42389999725855887, 0.41710000368766487, 0.43709999590646476, 0.41710000368766487, 0.41554999188520014, 0.4304999893065542, 0.4104999970877543, 0.4059000057168305, 0.4198499955236912, 0.4190499894320965, 0.4227500030538067, 0.4284000024199486, 0.4186000005574897, 0.4189000028418377, 0.4250000056345016, 0.42740000935737044, 0.4115499905310571, 0.4101999948034063, 0.4512000159593299, 0.4118999931961298, 0.45864999992772937, 0.42174999543931335, 0.4316499980632216, 0.4172000044491142, 0.41555000643711537, 0.41029999556485564, 0.4152000037720427, 0.42520000715740025, 0.4194000066490844, 0.41745000635273755, 0.4162499972153455, 0.4292499943403527, 0.4150500026298687, 0.41710000368766487, 0.41384999349247664, 0.4212500061839819, 0.414549998822622, 0.4096500051673502, 0.4303500027162954, 0.4116500058444217, 0.42385001142974943, 0.42149999353569, 0.41939999209716916, 0.4186000005574897, 0.40955000440590084, 0.42725000821519643, 0.4717499978141859, 0.40515000000596046, 0.5051500047557056, 0.4202999989502132, 0.4233000072417781, 0.4237500106683001, 0.4204500000923872, 0.4236000095261261, 0.4383000050438568, 0.4254000086802989, 0.41349999082740396, 0.4154499911237508, 0.4158500087214634, 0.4181499971309677, 0.41464999958407134, 0.4175500071141869, 0.4304000030970201, 0.41194999357685447, 0.4275499959476292, 0.4140499950153753, 0.4213999927742407, 0.417349991039373, 0.4140999953961, 0.43134999577887356, 0.418249997892417, 0.41184999281540513, 0.4313500103307888, 0.4230999911669642, 0.4173500055912882, 0.4199000104563311, 0.4175000067334622, 0.44180000259075314, 0.4158999945502728, 0.41944999247789383, 0.4175999929429963, 0.4155999922659248, 0.49644998216535896, 0.4207500023767352, 0.4121999954804778, 0.4132499889237806, 0.41975000931415707, 0.4102500097360462, 0.41620001138653606, 0.42830000165849924, 0.4141500103287399, 0.4447000101208687, 0.4650000046240166, 0.424749989178963, 0.4226500022923574, 0.41024999518413097, 0.4191000043647364, 0.4188499879091978, 0.4149000014876947, 0.4218499962007627, 0.41989999590441585, 0.4088500136276707, 0.44770000386051834, 0.4253999941283837, 0.4227500030538067, 0.4219999973429367, 0.4141999961575493, 0.42704999214038253, 0.4226500022923574, 0.4155000060563907, 0.42270000267308205, 0.42699999175965786, 0.4135999915888533, 0.4130500019527972, 0.4149000014876947, 0.4173500055912882, 0.4287999909138307, 0.424899990321137, 0.42144999315496534, 0.4162499972153455, 0.4174000059720129, 0.415000002249144, 0.5646999925374985, 0.4206000012345612, 0.40345000161323696, 0.4376500000944361, 0.4192000051261857, 0.4267000040272251, 0.4251500067766756, 0.41540000529494137, 0.421949996962212, 0.40859999717213213, 0.42810000013560057, 0.42440000106580555, 0.4278000124031678, 0.4349999944679439, 0.4189000028418377, 0.41480000072624534, 0.4388999950606376, 0.4190499894320965, 0.4158000083407387, 0.4223500000080094, 0.4217500099912286, 0.42734999442473054, 0.4124500119360164, 0.41665000026114285, 0.4421500052558258, 0.41704998875502497, 0.5839499935973436, 0.4488499980652705, 0.41399999463465065, 0.6116499862400815, 0.49065001076087356, 0.4252500075381249, 0.4277499974705279, 0.4604499990819022, 0.4314499965403229, 0.41760000749491155, 0.473250009235926, 0.42055000085383654, 0.397400013753213, 0.41649999911896884, 0.4743499885080382, 0.43729999742936343, 0.41804999636951834, 0.4653000069083646, 0.4200999974273145, 0.518300017574802, 0.4157999937888235, 0.4243000003043562, 0.4947499983245507, 0.4197999951429665, 0.41629999759607017, 0.4306499904487282, 0.41429999691899866, 0.44580000394489616, 0.41730000521056354, 0.41304998740088195, 0.41695000254549086, 0.5804999964311719, 0.42305000533815473, 0.42875000508502126, 0.41939999209716916, 0.4252499929862097, 0.41179999243468046, 0.43280000681988895, 0.4235500091454014, 0.4151499888394028, 0.4440000047907233, 0.4329999937908724, 0.43200000072829425, 0.4227499885018915, 0.40800000715535134, 0.43914999696426094, 0.41725000482983887, 0.4131500027142465, 0.4288500058464706, 0.41540000529494137, 0.44129999878350645, 0.4228000034345314, 0.41880000208038837, 0.4122499958612025, 0.4144500126130879, 0.4227500030538067, 0.4123999970033765, 0.4206500016152859, 0.4307000053813681, 0.4321999876992777, 0.41375000728294253, 0.41575000796001405, 0.41119998786598444, 0.4243500006850809, 0.42869999015238136, 0.41680000140331686, 0.41364999196957797, 0.42544999450910836, 0.4250999918440357, 0.41649999911896884, 0.4158500087214634, 0.41619999683462083, 0.4164499987382442, 0.42514999222476035, 0.4134500049985945, 0.410549997468479, 0.421649994677864, 0.4157499934080988, 0.4521999944699928, 0.4280499997548759, 0.4165999998804182, 0.4534499894361943, 0.41200000850949436, 0.415000002249144, 0.41695000254549086, 0.40809999336488545, 0.4141500103287399, 0.41930000588763505, 0.42294999002479017, 0.41870000131893903, 0.4200000112177804, 0.4211000050418079, 0.40699999954085797, 0.4099999932805076, 0.41604999569244683, 0.41495000186841935, 0.418099996750243, 0.4326999915065244, 0.36765000550076365, 0.5108999903313816, 0.4191999905742705, 0.41399999463465065, 0.41629999759607017, 0.4167500010225922, 0.4211000050418079, 0.4202999989502132, 0.41510000301059335, 0.4292999947210774, 0.4185499856248498, 0.41619999683462083, 0.4168499872321263, 0.42484998994041234, 0.4230499907862395, 0.4098499921383336, 0.41799999598879367, 0.4092499875696376, 0.4160000098636374, 0.41280000004917383, 0.4173500055912882, 0.4154999915044755, 0.41619999683462083, 0.424449986894615, 0.43059999006800354, 0.44144999992568046, 0.4222999996272847, 0.42219999886583537, 0.4198499955236912, 0.42180001037195325, 0.41290000081062317, 0.4254000086802989, 0.41710000368766487, 0.5535000091185793, 0.4349999944679439, 0.44600000546779484, 0.341799997841008, 0.40970000554807484, 0.41355000576004386, 0.4118999931961298, 0.4271000070730224, 0.41480000072624534, 0.42585001210682094, 0.4159500094829127, 0.5188999930396676, 0.4245000018272549, 0.4088499990757555, 0.4378000012366101, 0.41834999865386635, 0.4369000089354813, 0.4196499940007925, 0.410699998610653, 0.43509999522939324, 0.41050001163966954, 0.4207500023767352, 0.42240000038873404, 0.4100500082131475, 0.42374999611638486, 0.421949996962212, 0.41295000119134784, 0.4186000005574897, 0.41464999958407134, 0.4289499920560047, 0.418099996750243, 0.41760000749491155, 0.42645000212360173, 0.41310000233352184, 0.4159499949309975, 0.41599999531172216, 0.4160999960731715, 0.4096500051673502, 0.4241499991621822, 0.41870000131893903, 0.411300003179349, 0.4186000005574897, 0.4407499945955351, 0.4120999947190285, 0.42625000060070306, 0.4209000035189092, 0.42559999565128237, 0.41459999920334667, 0.41819999751169235, 0.41530000453349203, 0.4182999982731417, 0.4236499953549355, 0.41700000292621553, 0.41989999590441585, 0.43390000064391643, 0.4172999906586483, 0.4125499981455505, 0.4165999998804182, 0.4250000056345016, 0.41555000643711537, 0.41545000567566603, 0.4212500061839819, 0.4335999983595684, 0.4106499982299283, 0.41774999408517033, 0.42799999937415123, 0.418399999034591, 0.41784999484661967, 0.4115000047022477, 0.4189000028418377, 0.4897500039078295, 0.4415000003064051, 0.4939500067848712, 0.42224999924656004, 0.41229999624192715, 0.42779999785125256, 0.41399999463465065, 0.4187500016996637, 0.4162499972153455, 0.4099999932805076, 0.418399999034591, 0.42144999315496534, 0.41575000796001405, 0.41530000453349203, 0.4158999945502728, 0.44114999764133245, 0.4132499889237806, 0.4123499966226518, 0.42085000313818455, 0.4125499981455505, 0.42415001371409744, 0.418399999034591, 0.4158999945502728, 0.41280000004917383, 0.4278999986127019, 0.41259999852627516, 0.43075000576209277, 0.4234999942127615, 0.42145000770688057, 0.4122500104131177, 0.4092500021215528, 0.4140000091865659, 0.4140999953961, 0.414549998822622, 0.5134999955771491, 0.4259999986970797, 0.3876000118907541, 0.4243500006850809, 0.42755001049954444, 0.4158500087214634, 0.42630000098142773, 0.41545000567566603, 0.4320500011090189, 0.45859998499508947, 0.418550000176765, 0.4169000021647662, 0.4287000047042966, 0.4173500055912882, 0.4318999999668449, 0.411450004321523, 0.4172000044491142, 0.4387499939184636, 0.4295999970054254, 0.4172999906586483, 0.43650000588968396, 0.418249997892417, 0.41584999416954815, 0.4157000075792894, 0.42135000694543123, 0.41885000246111304, 0.417949995608069, 0.42520000715740025, 0.41629999759607017, 0.41619999683462083, 0.4411999980220571, 0.4250999918440357, 0.41414999577682465, 0.4216000088490546, 0.4191000043647364, 0.4155999922659248, 0.42454998765606433, 0.42114999087061733, 0.4123999970033765, 0.42135000694543123, 0.44334999984130263, 0.4388000088511035, 0.42270000267308205, 0.41050001163966954, 0.42255000153090805, 0.4165499994996935, 0.444650009740144, 0.4288500058464706, 0.4164499987382442, 0.4238499968778342, 0.41530000453349203, 0.4236000095261261, 0.4202499985694885, 0.41604999569244683, 0.4440000047907233, 0.4236499953549355, 0.4141999961575493, 0.4191999905742705, 0.41375000728294253, 0.41274999966844916, 0.42919999395962805, 0.41014999442268163, 0.4165999998804182],
  "Depth": 18.5,
  "Expectation Value": -9.670048713684082,
  "Optimal Expectation Value": -9.83795166015625,
  "Optimizer durations [ms]": [9.704, 9.43, 9.488, 9.291, 9.222, 9.642, 9.245, 9.604, 9.288, 9.344, 9.487, 9.197, 9.202, 10.052, 9.262, 9.598, 9.268, 13.188, 16.327, 11.826, 9.132, 9.821, 9.333, 9.58, 9.418, 9.245, 9.347, 9.385, 9.502, 10.844, 9.389, 9.142, 9.424, 9.612, 9.54, 9.683, 9.433, 9.361, 9.658, 9.049, 9.475, 9.028, 9.702, 9.527, 9.297, 9.407, 9.722, 9.411, 9.671, 9.356, 14.84, 9.504, 9.69, 9.479, 9.628, 9.59, 9.416, 10.549, 25.463, 9.493, 9.198, 9.768, 9.013, 9.563, 10.15, 9.648, 9.423, 9.396, 9.999, 9.382, 9.628, 9.111, 10.151, 9.92, 9.196, 9.837, 8.953, 9.535, 9.274, 9.449, 9.58, 9.201, 9.285, 9.782, 9.31, 9.401, 9.56, 9.358, 9.217, 9.578, 9.655, 9.188, 9.711, 9.289, 9.533, 9.196, 9.535, 9.433, 9.296, 9.723, 9.274, 9.404, 9.508, 9.302, 9.833, 8.986, 9.52, 9.506, 9.547, 9.484, 9.294, 9.173, 9.299, 9.631, 9.081, 9.561, 9.429, 9.096, 9.91, 9.695, 10.008, 9.8, 9.34, 18.243, 9.573, 9.294, 9.411, 9.287, 9.113, 9.647, 9.595, 9.439, 23.712, 9.517, 9.369, 12.0, 9.469, 9.433, 9.099, 22.105, 9.812, 9.325, 10.039, 9.322, 9.376, 25.139, 10.09, 9.294, 9.488, 9.178, 9.217, 9.392, 9.506, 9.467, 9.614, 9.783, 23.467, 9.337, 9.295, 9.745, 8.981, 9.638, 9.385, 11.312, 9.96, 10.059, 12.074, 11.948, 11.475, 9.172, 9.653, 9.378, 9.535, 9.267, 8.955, 9.651, 9.451, 9.109, 9.303, 9.359, 9.202, 9.385, 9.563, 9.286, 9.372, 9.235, 8.984, 9.657, 9.555, 9.464, 10.093, 9.469, 9.048, 9.744, 9.171, 9.433, 9.158, 9.174, 9.27, 9.507, 9.44, 9.466, 9.351, 9.166, 9.355, 9.702, 9.271, 9.527, 9.358, 9.47, 9.443, 9.049, 9.606, 9.384, 9.339, 9.151, 9.175, 9.614, 12.494, 25.615, 9.336, 9.097, 9.427, 9.262, 9.775, 9.216, 9.404, 9.571, 9.094, 9.675, 9.367, 9.46, 9.554, 9.251, 9.416, 9.656, 9.692, 9.081, 9.511, 9.064, 9.58, 9.568, 9.507, 9.345, 9.22, 9.3, 9.148, 9.525, 9.294, 9.623, 9.401, 13.042, 9.268, 9.308, 9.064, 10.01, 9.442, 25.679, 9.213, 9.866, 9.382, 9.191, 9.473, 8.954, 9.631, 9.23, 9.489, 9.391, 10.548, 9.022, 9.709, 9.601, 9.168, 9.369, 9.459, 9.188, 9.552, 9.589, 9.106, 9.382, 9.324, 8.917, 9.178, 9.36, 9.66, 9.684, 9.511, 9.006, 9.487, 9.276, 9.567, 9.48, 9.27, 9.967, 9.173, 9.161, 9.5, 9.505, 9.618, 9.486, 9.393, 9.584, 9.006, 9.334, 9.472, 9.537, 9.765, 9.586, 9.319, 9.307, 9.309, 9.58, 8.913, 9.17, 9.866, 9.174, 9.199, 10.227, 9.337, 9.413, 9.111, 11.675, 23.368, 9.229, 9.394, 9.42, 9.393, 9.373, 9.558, 8.981, 9.256, 9.557, 9.014, 9.222, 9.732, 9.133, 8.992, 9.669, 9.198, 9.433, 9.348, 9.173, 9.433, 9.511, 9.33, 9.285, 9.569, 8.99, 9.679, 10.444, 9.557, 9.489, 9.259, 9.459, 15.387, 9.421, 9.244, 9.741, 9.205, 13.352, 9.561, 9.586, 9.15, 9.206, 9.637, 9.247, 9.99, 9.358, 9.215, 10.293, 10.14, 9.342, 9.653, 9.182, 9.195, 9.436, 9.385, 9.19, 9.577, 9.159, 9.774, 9.249, 9.642, 9.016, 9.822, 9.177, 9.51, 9.383, 9.151, 9.38, 9.455, 9.293, 9.388, 9.247, 9.425, 9.223, 9.686, 9.799, 9.208, 9.537, 9.088, 9.607, 9.375, 9.39, 9.575, 9.374, 9.24, 9.326, 9.54, 9.315, 9.354, 9.574, 9.594, 9.458, 9.161, 9.576, 9.274, 9.23, 9.292, 9.498, 9.122, 9.559, 9.444, 9.518, 9.272, 11.187, 9.233, 9.591, 9.012, 15.13, 9.531, 12.044, 9.471, 9.506, 11.865, 9.244, 9.294, 9.243, 21.218, 9.58, 9.907, 11.051, 9.566, 9.082, 16.843, 9.675, 9.168, 9.267, 9.678, 9.064, 9.568, 9.519, 23.96, 12.04, 9.151, 11.212, 9.43, 9.308, 9.608, 11.686, 13.151, 9.389, 9.26, 9.279, 9.162, 9.472, 9.023, 9.573, 9.445, 9.853, 9.65, 9.624, 9.403, 9.212, 9.56, 9.574, 9.317, 9.549, 9.514, 9.26, 11.786, 10.704, 9.389, 10.065, 9.998, 9.856, 9.879, 10.515, 9.493, 10.505, 9.636, 9.483, 9.409, 9.449, 9.514, 10.037, 10.335, 10.029, 9.519, 11.507, 12.759, 9.889, 10.864, 9.755, 9.504, 10.718, 10.563, 10.475, 10.64, 9.133, 9.561, 9.099, 9.988, 9.619, 9.655, 9.747, 9.385, 9.223, 9.603, 9.424, 9.697, 9.054, 9.806, 10.075, 25.023, 11.967, 9.657, 9.308, 9.626, 9.348, 9.687, 9.829, 9.416, 9.121, 9.46, 8.932, 9.386, 9.288, 9.778, 9.832, 9.055, 9.969, 9.158, 9.539, 9.418, 9.179, 9.88, 9.213, 9.869, 9.769, 9.477, 9.348, 9.341, 9.428, 9.353, 9.826, 14.259, 9.35, 9.713, 10.197, 19.577, 9.31, 9.243, 9.61, 9.44, 9.375, 9.672, 9.36, 9.361, 9.886, 9.721, 9.506, 9.53, 9.406, 9.21, 10.185, 9.363, 9.374, 9.432, 9.502, 9.616, 9.067, 9.786, 9.319, 9.401, 9.423, 9.232, 9.116, 9.577, 9.54, 9.435, 9.588, 9.342, 9.427, 9.33, 9.577, 9.469, 9.332, 9.767, 9.116, 9.727, 9.304, 9.563, 9.3, 9.255, 9.498, 9.1, 9.568, 9.389, 9.193, 9.409, 9.639, 9.106, 9.586, 9.214, 9.561, 9.323, 8.903, 9.929, 8.928, 9.826, 9.429, 9.175, 9.561, 9.203, 9.728, 10.183, 24.854, 12.162, 9.379, 9.451, 9.579, 9.231, 9.512, 9.519, 9.497, 9.504, 9.326, 9.141, 9.676, 8.994, 9.32, 9.463, 9.405, 9.429, 9.52, 9.235, 9.628, 9.169, 9.524, 9.263, 9.452, 9.461, 9.608, 9.257, 9.425, 9.233, 9.947, 9.257, 9.163, 9.469, 9.287, 10.515, 24.43, 21.282, 9.358, 9.405, 9.146, 9.409, 9.525, 9.223, 9.849, 9.966, 9.326, 9.297, 9.137, 9.505, 9.474, 9.064, 9.31, 9.366, 9.317, 9.747, 9.563, 9.455, 9.25, 9.64, 9.432, 9.525, 9.319, 9.547, 9.726, 9.294, 8.987, 9.527, 9.254, 9.482, 9.469, 9.358, 9.559, 9.356, 9.16, 12.077, 9.388, 9.264, 9.785, 9.094, 9.656, 9.642, 9.097, 9.601, 8.883, 9.746, 9.457, 9.481, 9.855, 9.302, 9.352, 9.698, 9.634, 9.286, 9.288, 9.663, 9.53, 9.296, 9.136, 9.76, 9.299, 12.572, 9.809, 9.179, 12.672, 10.714, 9.451, 12.708, 9.911, 9.72, 10.086, 10.251, 9.299, 18.372, 9.138, 10.42, 9.835, 10.218, 10.111, 9.596, 23.137, 9.245, 9.351, 11.04, 9.361, 9.148, 9.697, 24.06, 10.02, 9.221, 13.816, 9.411, 25.25, 20.275, 9.746, 9.502, 9.49, 9.102, 9.535, 9.426, 9.455, 10.368, 9.875, 9.62, 9.305, 9.145, 9.671, 9.556, 9.168, 9.548, 9.614, 9.688, 9.523, 9.159, 9.223, 9.287, 9.337, 9.615, 9.48, 9.369, 9.572, 9.522, 9.162, 9.39, 9.343, 9.573, 9.366, 8.959, 9.45, 9.702, 9.277, 9.415, 9.426, 9.257, 9.449, 9.394, 8.98, 9.339, 9.511, 10.1, 9.49, 9.466, 9.947, 9.188, 9.383, 9.562, 8.984, 9.329, 9.418, 9.39, 9.534, 9.512, 9.395, 9.099, 9.169, 9.471, 9.305, 9.182, 9.547, 19.123, 13.446, 9.366, 9.289, 9.292, 9.363, 9.355, 9.453, 9.366, 9.334, 9.524, 9.307, 9.38, 9.495, 9.697, 9.021, 9.467, 9.212, 9.124, 9.294, 9.318, 9.517, 9.317, 9.308, 9.473, 9.711, 9.474, 9.537, 9.246, 9.532, 9.294, 9.345, 9.161, 11.97, 9.623, 15.178, 18.693, 9.928, 9.529, 9.035, 9.398, 9.478, 9.602, 9.304, 11.192, 9.399, 9.058, 10.064, 9.177, 9.662, 9.384, 8.877, 9.773, 9.258, 9.558, 9.601, 9.078, 9.474, 9.369, 9.345, 9.563, 9.378, 9.526, 9.324, 9.392, 9.616, 9.294, 9.32, 9.344, 9.342, 9.204, 9.521, 9.405, 9.102, 9.638, 9.585, 9.463, 9.376, 9.312, 9.437, 9.679, 9.334, 9.55, 9.09, 9.617, 9.155, 9.278, 9.672, 9.539, 9.352, 9.271, 9.41, 9.292, 9.526, 9.517, 9.887, 8.96, 9.541, 9.651, 9.085, 9.297, 9.406, 9.606, 10.543, 22.353, 11.11, 9.646, 9.141, 9.715, 9.234, 9.531, 9.26, 8.987, 9.509, 9.263, 9.528, 9.316, 9.296, 9.658, 9.366, 9.183, 9.286, 9.314, 9.701, 9.114, 9.556, 9.218, 9.417, 9.384, 9.625, 9.591, 9.388, 9.276, 9.015, 9.4, 9.294, 9.523, 10.987, 21.769, 23.99, 10.788, 9.456, 9.371, 9.733, 9.214, 9.757, 9.954, 9.239, 9.694, 9.48, 9.12, 9.35, 9.405, 9.26, 9.709, 9.797, 9.153, 9.696, 9.33, 9.433, 9.342, 9.658, 9.357, 9.436, 9.566, 9.254, 9.946, 9.728, 9.679, 9.05, 9.626, 9.559, 9.302, 9.33, 9.3, 9.342, 9.628, 9.768, 9.883, 9.482, 9.144, 9.57, 9.335, 9.638, 9.522, 9.51, 9.347, 9.262, 9.749, 9.401, 9.33, 9.542, 9.282, 9.374, 9.399, 9.364, 9.061, 9.51, 9.531, 9.202],
  "Optimizer iterations": 1026,
  "Optimizer params": [0.5766326119640409, 0.4213953427489095, 0.41914399809337466, 0.5688432998162629, 0.923278106891341, 0.9132053707592558, 0.41255123322663, 0.47369730149957623, 0.700179627831506, 0.9383540935616683, 0.9749703986324834, 0.2589810992439575, 0.644419551995272, 0.533682301813078, 0.3807888804647632, 0.09660244119599133, 0.4231306787439372, 0.9940655148283477, 0.004587548024423051, 0.9992978887622271, 0.5033561044696352, 0.9732530971733059, 0.5139275063249652, 0.9977285737872482, 0.7892973243195939, 0.9093679304988935, 0.03925144180644777, 0.9179898690851873, 0.3555510651469956, 0.9846885508450847, 0.47373406474709506, 0.41516149214554005],
  "P": 0,
  "Problem": "IC",
  "QJob durations [ms]": [0.43679999362211674, 0.447600003099069, 0.43074999121017754, 0.4131500027142465, 0.4190499894320965, 0.4253000079188496, 0.42394999763928354, 0.4212500061839819, 0.41444999806117266, 0.41700000292621553, 0.4265999887138605, 0.4119500081287697, 0.42705000669229776, 0.4619000101229176, 0.4233499930705875, 0.4337999998824671, 0.41290000081062317, 0.599299994064495, 0.4386500077089295, 0.5361499934224412, 0.4216000088490546, 0.42004999704658985, 0.4285500035621226, 0.42174999543931335, 0.41495000186841935, 0.418399999034591, 0.41290000081062317, 0.4157999937888235, 0.4240499984007329, 0.487299999804236, 0.42565001058392227, 0.41760000749491155, 0.4320500011090189, 0.4170500033069402, 0.42549999488983303, 0.43420000292826444, 0.4287999909138307, 0.42299999040551484, 0.4351999959908426, 0.4131500027142465, 0.41015000897459686, 0.4165999998804182, 0.43045000347774476, 0.4196499940007925, 0.4163000121479854, 0.42019999818876386, 0.4280499997548759, 0.42124999163206667, 0.4288500058464706, 0.4198500100756064, 0.4182999982731417, 0.4329000075813383, 0.4260499990778044, 0.41695000254549086, 0.4354499978944659, 0.425199992605485, 0.4253000079188496, 0.49870001384988427, 0.5149499920662493, 0.41784999484661967, 0.41634999797679484, 0.4317999992053956, 0.41530000453349203, 0.42594999831635505, 0.4196499940007925, 0.41804999636951834, 0.42124999163206667, 0.4234500083839521, 0.4687000036938116, 0.417499992181547, 0.4417000018293038, 0.4140000091865659, 0.4504500102484599, 0.4449499974725768, 0.41995001083705574, 0.440200004959479, 0.414699999964796, 0.41519998922012746, 0.418399999034591, 0.4253999941283837, 0.4233999934513122, 0.4186000005574897, 0.414549998822622, 0.44759998854715377, 0.4223500000080094, 0.42565001058392227, 0.41725000482983887, 0.41769999370444566, 0.41954999323934317, 0.4257499967934564, 0.44100001105107367, 0.4186000005574897, 0.4178000090178102, 0.4227500030538067, 0.41745000635273755, 0.4127999854972586, 0.42734999442473054, 0.41620001138653606, 0.41680000140331686, 0.4257499967934564, 0.4139500088058412, 0.414699999964796, 0.42570001096464694, 0.4227500030538067, 0.4319500003475696, 0.4116500058444217, 0.42969999776687473, 0.41725000482983887, 0.4219000111334026, 0.4186000005574897, 0.42204999772366136, 0.4133000038564205, 0.42189999658148736, 0.4305500042391941, 0.4123999970033765, 0.414549998822622, 0.41900000360328704, 0.40905000059865415, 0.4384500061860308, 0.44070000876672566, 0.4277499974705279, 0.42130000656470656, 0.4206500016152859, 0.42460000258870423, 0.41975000931415707, 0.42019999818876386, 0.421649994677864, 0.41290000081062317, 0.42070000199601054, 0.4293999954825267, 0.4342499887570739, 0.42314999154768884, 0.4131500027142465, 0.4212000058032572, 0.41244999738410115, 0.5545500025618821, 0.41965000855270773, 0.41614999645389616, 0.41420001070946455, 0.42209999810438603, 0.44175000221002847, 0.4157499934080988, 0.4136500065214932, 0.4197999951429665, 0.41569999302737415, 0.4240499984007329, 0.44439999328460544, 0.42189999658148736, 0.4135000053793192, 0.41420001070946455, 0.4089499998372048, 0.41620001138653606, 0.4192000051261857, 0.4202999989502132, 0.4197999951429665, 0.4480499919736758, 0.4101999948034063, 0.40704999992158264, 0.42150000808760524, 0.4155000060563907, 0.41649999911896884, 0.44595000508707017, 0.4124999977648258, 0.5143500166013837, 0.44175000221002847, 0.4679500125348568, 0.5568999913521111, 0.5423499969765544, 0.5239500023890287, 0.41745000635273755, 0.42329999268986285, 0.4262000002199784, 0.4178000090178102, 0.41289998625870794, 0.4056999896420166, 0.4292000085115433, 0.41849999979604036, 0.4092500021215528, 0.41900000360328704, 0.4076999903190881, 0.41694998799357563, 0.4225000011501834, 0.41789999522734433, 0.4165999998804182, 0.4157000075792894, 0.41244999738410115, 0.40854999679140747, 0.4216999950585887, 0.4254500090610236, 0.418099996750243, 0.4598499945132062, 0.4274500097380951, 0.41745000635273755, 0.4186999867670238, 0.4160000098636374, 0.41974999476224184, 0.4109500005142763, 0.4096999909961596, 0.4206000012345612, 0.41384999349247664, 0.4243000003043562, 0.41399999463465065, 0.421649994677864, 0.413799993111752, 0.4158500087214634, 0.42475000373087823, 0.4258499975549057, 0.414699999964796, 0.4266500036465004, 0.4274500097380951, 0.41325000347569585, 0.41310000233352184, 0.425349993747659, 0.41700000292621553, 0.41480000072624534, 0.4096000047866255, 0.4157499934080988, 0.43030000233557075, 0.5801499937660992, 0.5101499846205115, 0.41915000474546105, 0.41709998913574964, 0.4126999992877245, 0.4131500027142465, 0.4434999864315614, 0.41944999247789383, 0.4129499866394326, 0.4226999881211668, 0.41429999691899866, 0.4269500059308484, 0.41930000588763505, 0.41769999370444566, 0.42129999201279134, 0.41649999911896884, 0.42594999831635505, 0.447300000814721, 0.4285500035621226, 0.41775000863708556, 0.42285000381525606, 0.41384999349247664, 0.42204999772366136, 0.42219999886583537, 0.4204500000923872, 0.41414999577682465, 0.4133000038564205, 0.4133000038564205, 0.41665000026114285, 0.4210500046610832, 0.421949996962212, 0.42010001197922975, 0.4175000067334622, 0.41834999865386635, 0.41185000736732036, 0.4130000015720725, 0.41214999509975314, 0.4439999902388081, 0.41804999636951834, 0.4277499974705279, 0.4160000098636374, 0.4427499952726066, 0.41665000026114285, 0.4112499882467091, 0.41915000474546105, 0.4126499989069998, 0.4186000005574897, 0.41614999645389616, 0.4187500016996637, 0.41710000368766487, 0.4675999953178689, 0.4161000106250867, 0.42905000736936927, 0.42624998604878783, 0.418099996750243, 0.42034999933093786, 0.4178000090178102, 0.4154499911237508, 0.4199999966658652, 0.43119999463669956, 0.4174000059720129, 0.4131500027142465, 0.4128500004298985, 0.4074999887961894, 0.40345000161323696, 0.4250999918440357, 0.42335000762250274, 0.43230000301264226, 0.4220500122755766, 0.41259999852627516, 0.42100000428035855, 0.417499992181547, 0.4198499955236912, 0.4228999896440655, 0.41199999395757914, 0.4495000030146912, 0.4160999960731715, 0.41429999691899866, 0.4201499978080392, 0.4193499917164445, 0.4255499952705577, 0.4174499918008223, 0.42224999924656004, 0.43015000119339675, 0.40854999679140747, 0.4216999950585887, 0.4229000041959807, 0.4274499951861799, 0.43230000301264226, 0.42174999543931335, 0.41799999598879367, 0.41870000131893903, 0.421799995820038, 0.41370000690221786, 0.41029999556485564, 0.4107999993721023, 0.4295499966247007, 0.415000002249144, 0.41569999302737415, 0.44380000326782465, 0.4165499994996935, 0.42224999924656004, 0.4096500051673502, 0.5525500018848106, 0.45924998994451016, 0.41414999577682465, 0.4193500062683597, 0.4187500016996637, 0.4184499994153157, 0.41014999442268163, 0.42374999611638486, 0.4132499889237806, 0.41459999920334667, 0.41739999142009765, 0.4115000047022477, 0.4084999964106828, 0.4343000036897138, 0.40779999108053744, 0.41125000279862434, 0.42559999565128237, 0.41739999142009765, 0.4163999983575195, 0.4124500119360164, 0.4157000075792894, 0.4182999982731417, 0.42270000267308205, 0.4317999992053956, 0.4096000047866255, 0.4229500045767054, 0.4116999916732311, 0.42440000106580555, 0.47774999984540045, 0.4232500068610534, 0.42305000533815473, 0.4226000019116327, 0.4228000034345314, 0.418249997892417, 0.421049990109168, 0.41680000140331686, 0.42845000280067325, 0.41325000347569585, 0.6385999877238646, 0.41799999598879367, 0.42565001058392227, 0.41125000279862434, 0.4226000019116327, 0.4198500100756064, 0.415000002249144, 0.45200000749900937, 0.4189500032225624, 0.41449999844189733, 0.4699500132119283, 0.45065001177135855, 0.42934999510180205, 0.41619999683462083, 0.4121000092709437, 0.41179999243468046, 0.4256000102031976, 0.4149000014876947, 0.4124000115552917, 0.42219999886583537, 0.41539999074302614, 0.4319500003475696, 0.4208000027574599, 0.4268500051693991, 0.41259999852627516, 0.43709999590646476, 0.41629999759607017, 0.418249997892417, 0.42130000656470656, 0.40589999116491526, 0.4226000019116327, 0.4262000002199784, 0.40899998566601425, 0.41449999844189733, 0.41930000588763505, 0.4116999916732311, 0.4190499894320965, 0.42294999002479017, 0.4520499933278188, 0.41125000279862434, 0.4189500032225624, 0.41510000301059335, 0.4281999863451347, 0.424899990321137, 0.4250999918440357, 0.4153500049142167, 0.418550000176765, 0.4155000060563907, 0.42749999556690454, 0.4236999957356602, 0.40774999069981277, 0.4208000027574599, 0.42209999810438603, 0.4273999948054552, 0.41924999095499516, 0.41229999624192715, 0.4150999884586781, 0.4115999909117818, 0.41665000026114285, 0.4147500003455207, 0.42374999611638486, 0.414549998822622, 0.4206500016152859, 0.417649993323721, 0.4257499967934564, 0.41354999120812863, 0.5094499938422814, 0.4130000015720725, 0.42204999772366136, 0.4107999993721023, 0.425049991463311, 0.41554999188520014, 0.5630499799735844, 0.4202999989502132, 0.4182999982731417, 0.5480999971041456, 0.410699998610653, 0.41710000368766487, 0.4199499962851405, 0.4096500051673502, 0.4194000066490844, 0.4428999964147806, 0.4193499917164445, 0.4502500087255612, 0.40860001172404736, 0.41604999569244683, 0.42150000808760524, 0.41495000186841935, 0.41059999784920365, 0.42124999163206667, 0.4166999860899523, 0.42149999353569, 0.43879999429918826, 0.41429999691899866, 0.5550000059884042, 0.4107999993721023, 0.42270000267308205, 0.41390000842511654, 0.4222999996272847, 0.42409999878145754, 0.5519500118680298, 0.41340000461786985, 0.41969999438151717, 0.40639999497216195, 0.41024999518413097, 0.4197999951429665, 0.41525000415276736, 0.4133500042371452, 0.42630000098142773, 0.4381000035209581, 0.424449986894615, 0.45220000902190804, 0.42779999785125256, 0.41885000246111304, 0.4240499984007329, 0.42174999543931335, 0.4212000058032572, 0.4144000122323632, 0.4222999996272847, 0.4354999982751906, 0.41274999966844916, 0.53114999900572, 0.43110000842716545, 0.4187500016996637, 0.4364000051282346, 0.44090001028962433, 0.4332999960752204, 0.43569999979808927, 0.4464999947231263, 0.4270999925211072, 0.4395500000100583, 0.4292499943403527, 0.424449986894615, 0.4168499872321263, 0.41870000131893903, 0.4337999998824671, 0.4460500058485195, 0.4663499857997522, 0.4640999832190573, 0.4209000035189092, 0.4265999887138605, 0.44999999227002263, 0.43730001198127866, 0.447750004241243, 0.4284000024199486, 0.4250999918440357, 0.46030001249164343, 0.46475000272039324, 0.43324999569449574, 0.4536500055110082, 0.41355000576004386, 0.4169000021647662, 0.41554999188520014, 0.45319998753257096, 0.4270999925211072, 0.4235500091454014, 0.4348499933257699, 0.41774999408517033, 0.4124999977648258, 0.4219000111334026, 0.42764999670907855, 0.4273999948054552, 0.4120999947190285, 0.4276999970898032, 0.44424999214243144, 0.5074500077171251, 0.5490500043379143, 0.4200999974273145, 0.4197999951429665, 0.4232500068610534, 0.4271000070730224, 0.4223500000080094, 0.4452499997569248, 0.41775000863708556, 0.41399999463465065, 0.41689998761285096, 0.41310000233352184, 0.41525000415276736, 0.4157499934080988, 0.45089999912306666, 0.4292000085115433, 0.4133500042371452, 0.4453000001376495, 0.41295000119134784, 0.41870000131893903, 0.4199499962851405, 0.4199499962851405, 0.4275999963283539, 0.41924999095499516, 0.43089999235235155, 0.46024999755900353, 0.42570001096464694, 0.41959999362006783, 0.4213999927742407, 0.41009999404195696, 0.42490000487305224, 0.42394999763928354, 0.4277499974705279, 0.42714999290183187, 0.42529999336693436, 0.46169997949618846, 0.46519999159500003, 0.41524998960085213, 0.4206500016152859, 0.4200500115985051, 0.4295499966247007, 0.421799995820038, 0.4191000043647364, 0.42485000449232757, 0.425199992605485, 0.4233999934513122, 0.44699998397845775, 0.41789999522734433, 0.4192500055069104, 0.42779999785125256, 0.4131499881623313, 0.44424999214243144, 0.4197999951429665, 0.4250000056345016, 0.4191999905742705, 0.4133999900659546, 0.42389999725855887, 0.41710000368766487, 0.43709999590646476, 0.41710000368766487, 0.41554999188520014, 0.4304999893065542, 0.4104999970877543, 0.4059000057168305, 0.4198499955236912, 0.4190499894320965, 0.4227500030538067, 0.4284000024199486, 0.4186000005574897, 0.4189000028418377, 0.4250000056345016, 0.42740000935737044, 0.4115499905310571, 0.4101999948034063, 0.4512000159593299, 0.4118999931961298, 0.45864999992772937, 0.42174999543931335, 0.4316499980632216, 0.4172000044491142, 0.41555000643711537, 0.41029999556485564, 0.4152000037720427, 0.42520000715740025, 0.4194000066490844, 0.41745000635273755, 0.4162499972153455, 0.4292499943403527, 0.4150500026298687, 0.41710000368766487, 0.41384999349247664, 0.4212500061839819, 0.414549998822622, 0.4096500051673502, 0.4303500027162954, 0.4116500058444217, 0.42385001142974943, 0.42149999353569, 0.41939999209716916, 0.4186000005574897, 0.40955000440590084, 0.42725000821519643, 0.4717499978141859, 0.40515000000596046, 0.5051500047557056, 0.4202999989502132, 0.4233000072417781, 0.4237500106683001, 0.4204500000923872, 0.4236000095261261, 0.4383000050438568, 0.4254000086802989, 0.41349999082740396, 0.4154499911237508, 0.4158500087214634, 0.4181499971309677, 0.41464999958407134, 0.4175500071141869, 0.4304000030970201, 0.41194999357685447, 0.4275499959476292, 0.4140499950153753, 0.4213999927742407, 0.417349991039373, 0.4140999953961, 0.43134999577887356, 0.418249997892417, 0.41184999281540513, 0.4313500103307888, 0.4230999911669642, 0.4173500055912882, 0.4199000104563311, 0.4175000067334622, 0.44180000259075314, 0.4158999945502728, 0.41944999247789383, 0.4175999929429963, 0.4155999922659248, 0.49644998216535896, 0.4207500023767352, 0.4121999954804778, 0.4132499889237806, 0.41975000931415707, 0.4102500097360462, 0.41620001138653606, 0.42830000165849924, 0.4141500103287399, 0.4447000101208687, 0.4650000046240166, 0.424749989178963, 0.4226500022923574, 0.41024999518413097, 0.4191000043647364, 0.4188499879091978, 0.4149000014876947, 0.4218499962007627, 0.41989999590441585, 0.4088500136276707, 0.44770000386051834, 0.4253999941283837, 0.4227500030538067, 0.4219999973429367, 0.4141999961575493, 0.42704999214038253, 0.4226500022923574, 0.4155000060563907, 0.42270000267308205, 0.42699999175965786, 0.4135999915888533, 0.4130500019527972, 0.4149000014876947, 0.4173500055912882, 0.4287999909138307, 0.424899990321137, 0.42144999315496534, 0.4162499972153455, 0.4174000059720129, 0.415000002249144, 0.5646999925374985, 0.4206000012345612, 0.40345000161323696, 0.4376500000944361, 0.4192000051261857, 0.4267000040272251, 0.4251500067766756, 0.41540000529494137, 0.421949996962212, 0.40859999717213213, 0.42810000013560057, 0.42440000106580555, 0.4278000124031678, 0.4349999944679439, 0.4189000028418377, 0.41480000072624534, 0.4388999950606376, 0.4190499894320965, 0.4158000083407387, 0.4223500000080094, 0.4217500099912286, 0.42734999442473054, 0.4124500119360164, 0.41665000026114285, 0.4421500052558258, 0.41704998875502497, 0.5839499935973436, 0.4488499980652705, 0.41399999463465065, 0.6116499862400815, 0.49065001076087356, 0.4252500075381249, 0.4277499974705279, 0.4604499990819022, 0.4314499965403229, 0.41760000749491155, 0.473250009235926, 0.42055000085383654, 0.397400013753213, 0.41649999911896884, 0.4743499885080382, 0.43729999742936343, 0.41804999636951834, 0.4653000069083646, 0.4200999974273145, 0.518300017574802, 0.4157999937888235, 0.4243000003043562, 0.4947499983245507, 0.4197999951429665, 0.41629999759607017, 0.4306499904487282, 0.41429999691899866, 0.44580000394489616, 0.41730000521056354, 0.41304998740088195, 0.41695000254549086, 0.5804999964311719, 0.42305000533815473, 0.42875000508502126, 0.41939999209716916, 0.4252499929862097, 0.41179999243468046, 0.43280000681988895, 0.4235500091454014, 0.4151499888394028, 0.4440000047907233, 0.4329999937908724, 0.43200000072829425, 0.4227499885018915, 0.40800000715535134, 0.43914999696426094, 0.41725000482983887, 0.4131500027142465, 0.4288500058464706, 0.41540000529494137, 0.44129999878350645, 0.4228000034345314, 0.41880000208038837, 0.4122499958612025, 0.4144500126130879, 0.4227500030538067, 0.4123999970033765, 0.4206500016152859, 0.4307000053813681, 0.4321999876992777, 0.41375000728294253, 0.41575000796001405, 0.41119998786598444, 0.4243500006850809, 0.42869999015238136, 0.41680000140331686, 0.41364999196957797, 0.42544999450910836, 0.4250999918440357, 0.41649999911896884, 0.4158500087214634, 0.41619999683462083, 0.4164499987382442, 0.42514999222476035, 0.4134500049985945, 0.410549997468479, 0.421649994677864, 0.4157499934080988, 0.4521999944699928, 0.4280499997548759, 0.4165999998804182, 0.4534499894361943, 0.41200000850949436, 0.415000002249144, 0.41695000254549086, 0.40809999336488545, 0.4141500103287399, 0.41930000588763505, 0.42294999002479017, 0.41870000131893903, 0.4200000112177804, 0.4211000050418079, 0.40699999954085797, 0.4099999932805076, 0.41604999569244683, 0.41495000186841935, 0.418099996750243, 0.4326999915065244, 0.36765000550076365, 0.5108999903313816, 0.4191999905742705, 0.41399999463465065, 0.41629999759607017, 0.4167500010225922, 0.4211000050418079, 0.4202999989502132, 0.41510000301059335, 0.4292999947210774, 0.4185499856248498, 0.41619999683462083, 0.4168499872321263, 0.42484998994041234, 0.4230499907862395, 0.4098499921383336, 0.41799999598879367, 0.4092499875696376, 0.4160000098636374, 0.41280000004917383, 0.4173500055912882, 0.4154999915044755, 0.41619999683462083, 0.424449986894615, 0.43059999006800354, 0.44144999992568046, 0.4222999996272847, 0.42219999886583537, 0.4198499955236912, 0.42180001037195325, 0.41290000081062317, 0.4254000086802989, 0.41710000368766487, 0.5535000091185793, 0.4349999944679439, 0.44600000546779484, 0.341799997841008, 0.40970000554807484, 0.41355000576004386, 0.4118999931961298, 0.4271000070730224, 0.41480000072624534, 0.42585001210682094, 0.4159500094829127, 0.5188999930396676, 0.4245000018272549, 0.4088499990757555, 0.4378000012366101, 0.41834999865386635, 0.4369000089354813, 0.4196499940007925, 0.410699998610653, 0.43509999522939324, 0.41050001163966954, 0.4207500023767352, 0.42240000038873404, 0.4100500082131475, 0.42374999611638486, 0.421949996962212, 0.41295000119134784, 0.4186000005574897, 0.41464999958407134, 0.4289499920560047, 0.418099996750243, 0.41760000749491155, 0.42645000212360173, 0.41310000233352184, 0.4159499949309975, 0.41599999531172216, 0.4160999960731715, 0.4096500051673502, 0.4241499991621822, 0.41870000131893903, 0.411300003179349, 0.4186000005574897, 0.4407499945955351, 0.4120999947190285, 0.42625000060070306, 0.4209000035189092, 0.42559999565128237, 0.41459999920334667, 0.41819999751169235, 0.41530000453349203, 0.4182999982731417, 0.4236499953549355, 0.41700000292621553, 0.41989999590441585, 0.43390000064391643, 0.4172999906586483, 0.4125499981455505, 0.4165999998804182, 0.4250000056345016, 0.41555000643711537, 0.41545000567566603, 0.4212500061839819, 0.4335999983595684, 0.4106499982299283, 0.41774999408517033, 0.42799999937415123, 0.418399999034591, 0.41784999484661967, 0.4115000047022477, 0.4189000028418377, 0.4897500039078295, 0.4415000003064051, 0.4939500067848712, 0.42224999924656004, 0.41229999624192715, 0.42779999785125256, 0.41399999463465065, 0.4187500016996637, 0.4162499972153455, 0.4099999932805076, 0.418399999034591, 0.42144999315496534, 0.41575000796001405, 0.41530000453349203, 0.4158999945502728, 0.44114999764133245, 0.4132499889237806, 0.4123499966226518, 0.42085000313818455, 0.4125499981455505, 0.42415001371409744, 0.418399999034591, 0.4158999945502728, 0.41280000004917383, 0.4278999986127019, 0.41259999852627516, 0.43075000576209277, 0.4234999942127615, 0.42145000770688057, 0.4122500104131177, 0.4092500021215528, 0.4140000091865659, 0.4140999953961, 0.414549998822622, 0.5134999955771491, 0.4259999986970797, 0.3876000118907541, 0.4243500006850809, 0.42755001049954444, 0.4158500087214634, 0.42630000098142773, 0.41545000567566603, 0.4320500011090189, 0.45859998499508947, 0.418550000176765, 0.4169000021647662, 0.4287000047042966, 0.4173500055912882, 0.4318999999668449, 0.411450004321523, 0.4172000044491142, 0.4387499939184636, 0.4295999970054254, 0.4172999906586483, 0.43650000588968396, 0.418249997892417, 0.41584999416954815, 0.4157000075792894, 0.42135000694543123, 0.41885000246111304, 0.417949995608069, 0.42520000715740025, 0.41629999759607017, 0.41619999683462083, 0.4411999980220571, 0.4250999918440357, 0.41414999577682465, 0.4216000088490546, 0.4191000043647364, 0.4155999922659248, 0.42454998765606433, 0.42114999087061733, 0.4123999970033765, 0.42135000694543123, 0.44334999984130263, 0.4388000088511035, 0.42270000267308205, 0.41050001163966954, 0.42255000153090805, 0.4165499994996935, 0.444650009740144, 0.4288500058464706, 0.4164499987382442, 0.4238499968778342, 0.41530000453349203, 0.4236000095261261, 0.4202499985694885, 0.41604999569244683, 0.4440000047907233, 0.4236499953549355, 0.4141999961575493, 0.4191999905742705, 0.41375000728294253, 0.41274999966844916, 0.42919999395962805, 0.41014999442268163, 0.4165999998804182],
  "QPU": "7000000",
  "Qubits": 8,
  "Queue durations [ms]": [0.0, 0.0, 0.0, 0.0, 0.0, 0.0, 0.0, 0.0, 0.0, 0.0, 0.0, 0.0, 0.0, 0.0, 0.0, 0.0, 0.0, 0.0, 0.0, 0.0, 0.0, 0.0, 0.0, 0.0, 0.0, 0.0, 0.0, 0.0, 0.0, 0.0, 0.0, 0.0, 0.0, 0.0, 0.0, 0.0, 0.0, 0.0, 0.0, 0.0, 0.0, 0.0, 0.0, 0.0, 0.0, 0.0, 0.0, 0.0, 0.0, 0.0, 0.0, 0.0, 0.0, 0.0, 0.0, 0.0, 0.0, 0.0, 0.0, 0.0, 0.0, 0.0, 0.0, 0.0, 0.0, 0.0, 0.0, 0.0, 0.0, 0.0, 0.0, 0.0, 0.0, 0.0, 0.0, 0.0, 0.0, 0.0, 0.0, 0.0, 0.0, 0.0, 0.0, 0.0, 0.0, 0.0, 0.0, 0.0, 0.0, 0.0, 0.0, 0.0, 0.0, 0.0, 0.0, 0.0, 0.0, 0.0, 0.0, 0.0, 0.0, 0.0, 0.0, 0.0, 0.0, 0.0, 0.0, 0.0, 0.0, 0.0, 0.0, 0.0, 0.0, 0.0, 0.0, 0.0, 0.0, 0.0, 0.0, 0.0, 0.0, 0.0, 0.0, 0.0, 0.0, 0.0, 0.0, 0.0, 0.0, 0.0, 0.0, 0.0, 0.0, 0.0, 0.0, 0.0, 0.0, 0.0, 0.0, 0.0, 0.0, 0.0, 0.0, 0.0, 0.0, 0.0, 0.0, 0.0, 0.0, 0.0, 0.0, 0.0, 0.0, 0.0, 0.0, 0.0, 0.0, 0.0, 0.0, 0.0, 0.0, 0.0, 0.0, 0.0, 0.0, 0.0, 0.0, 0.0, 0.0, 0.0, 0.0, 0.0, 0.0, 0.0, 0.0, 0.0, 0.0, 0.0, 0.0, 0.0, 0.0, 0.0, 0.0, 0.0, 0.0, 0.0, 0.0, 0.0, 0.0, 0.0, 0.0, 0.0, 0.0, 0.0, 0.0, 0.0, 0.0, 0.0, 0.0, 0.0, 0.0, 0.0, 0.0, 0.0, 0.0, 0.0, 0.0, 0.0, 0.0, 0.0, 0.0, 0.0, 0.0, 0.0, 0.0, 0.0, 0.0, 0.0, 0.0, 0.0, 0.0, 0.0, 0.0, 0.0, 0.0, 0.0, 0.0, 0.0, 0.0, 0.0, 0.0, 0.0, 0.0, 0.0, 0.0, 0.0, 0.0, 0.0, 0.0, 0.0, 0.0, 0.0, 0.0, 0.0, 0.0, 0.0, 0.0, 0.0, 0.0, 0.0, 0.0, 0.0, 0.0, 0.0, 0.0, 0.0, 0.0, 0.0, 0.0, 0.0, 0.0, 0.0, 0.0, 0.0, 0.0, 0.0, 0.0, 0.0, 0.0, 0.0, 0.0, 0.0, 0.0, 0.0, 0.0, 0.0, 0.0, 0.0, 0.0, 0.0, 0.0, 0.0, 0.0, 0.0, 0.0, 0.0, 0.0, 0.0, 0.0, 0.0, 0.0, 0.0, 0.0, 0.0, 0.0, 0.0, 0.0, 0.0, 0.0, 0.0, 0.0, 0.0, 0.0, 0.0, 0.0, 0.0, 0.0, 0.0, 0.0, 0.0, 0.0, 0.0, 0.0, 0.0, 0.0, 0.0, 0.0, 0.0, 0.0, 0.0, 0.0, 0.0, 0.0, 0.0, 0.0, 0.0, 0.0, 0.0, 0.0, 0.0, 0.0, 0.0, 0.0, 0.0, 0.0, 0.0, 0.0, 0.0, 0.0, 0.0, 0.0, 0.0, 0.0, 0.0, 0.0, 0.0, 0.0, 0.0, 0.0, 0.0, 0.0, 0.0, 0.0, 0.0, 0.0, 0.0, 0.0, 0.0, 0.0, 0.0, 0.0, 0.0, 0.0, 0.0, 0.0, 0.0, 0.0, 0.0, 0.0, 0.0, 0.0, 0.0, 0.0, 0.0, 0.0, 0.0, 0.0, 0.0, 0.0, 0.0, 0.0, 0.0, 0.0, 0.0, 0.0, 0.0, 0.0, 0.0, 0.0, 0.0, 0.0, 0.0, 0.0, 0.0, 0.0, 0.0, 0.0, 0.0, 0.0, 0.0, 0.0, 0.0, 0.0, 0.0, 0.0, 0.0, 0.0, 0.0, 0.0, 0.0, 0.0, 0.0, 0.0, 0.0, 0.0, 0.0, 0.0, 0.0, 0.0, 0.0, 0.0, 0.0, 0.0, 0.0, 0.0, 0.0, 0.0, 0.0, 0.0, 0.0, 0.0, 0.0, 0.0, 0.0, 0.0, 0.0, 0.0, 0.0, 0.0, 0.0, 0.0, 0.0, 0.0, 0.0, 0.0, 0.0, 0.0, 0.0, 0.0, 0.0, 0.0, 0.0, 0.0, 0.0, 0.0, 0.0, 0.0, 0.0, 0.0, 0.0, 0.0, 0.0, 0.0, 0.0, 0.0, 0.0, 0.0, 0.0, 0.0, 0.0, 0.0, 0.0, 0.0, 0.0, 0.0, 0.0, 0.0, 0.0, 0.0, 0.0, 0.0, 0.0, 0.0, 0.0, 0.0, 0.0, 0.0, 0.0, 0.0, 0.0, 0.0, 0.0, 0.0, 0.0, 0.0, 0.0, 0.0, 0.0, 0.0, 0.0, 0.0, 0.0, 0.0, 0.0, 0.0, 0.0, 0.0, 0.0, 0.0, 0.0, 0.0, 0.0, 0.0, 0.0, 0.0, 0.0, 0.0, 0.0, 0.0, 0.0, 0.0, 0.0, 0.0, 0.0, 0.0, 0.0, 0.0, 0.0, 0.0, 0.0, 0.0, 0.0, 0.0, 0.0, 0.0, 0.0, 0.0, 0.0, 0.0, 0.0, 0.0, 0.0, 0.0, 0.0, 0.0, 0.0, 0.0, 0.0, 0.0, 0.0, 0.0, 0.0, 0.0, 0.0, 0.0, 0.0, 0.0, 0.0, 0.0, 0.0, 0.0, 0.0, 0.0, 0.0, 0.0, 0.0, 0.0, 0.0, 0.0, 0.0, 0.0, 0.0, 0.0, 0.0, 0.0, 0.0, 0.0, 0.0, 0.0, 0.0, 0.0, 0.0, 0.0, 0.0, 0.0, 0.0, 0.0, 0.0, 0.0, 0.0, 0.0, 0.0, 0.0, 0.0, 0.0, 0.0, 0.0, 0.0, 0.0, 0.0, 0.0, 0.0, 0.0, 0.0, 0.0, 0.0, 0.0, 0.0, 0.0, 0.0, 0.0, 0.0, 0.0, 0.0, 0.0, 0.0, 0.0, 0.0, 0.0, 0.0, 0.0, 0.0, 0.0, 0.0, 0.0, 0.0, 0.0, 0.0, 0.0, 0.0, 0.0, 0.0, 0.0, 0.0, 0.0, 0.0, 0.0, 0.0, 0.0, 0.0, 0.0, 0.0, 0.0, 0.0, 0.0, 0.0, 0.0, 0.0, 0.0, 0.0, 0.0, 0.0, 0.0, 0.0, 0.0, 0.0, 0.0, 0.0, 0.0, 0.0, 0.0, 0.0, 0.0, 0.0, 0.0, 0.0, 0.0, 0.0, 0.0, 0.0, 0.0, 0.0, 0.0, 0.0, 0.0, 0.0, 0.0, 0.0, 0.0, 0.0, 0.0, 0.0, 0.0, 0.0, 0.0, 0.0, 0.0, 0.0, 0.0, 0.0, 0.0, 0.0, 0.0, 0.0, 0.0, 0.0, 0.0, 0.0, 0.0, 0.0, 0.0, 0.0, 0.0, 0.0, 0.0, 0.0, 0.0, 0.0, 0.0, 0.0, 0.0, 0.0, 0.0, 0.0, 0.0, 0.0, 0.0, 0.0, 0.0, 0.0, 0.0, 0.0, 0.0, 0.0, 0.0, 0.0, 0.0, 0.0, 0.0, 0.0, 0.0, 0.0, 0.0, 0.0, 0.0, 0.0, 0.0, 0.0, 0.0, 0.0, 0.0, 0.0, 0.0, 0.0, 0.0, 0.0, 0.0, 0.0, 0.0, 0.0, 0.0, 0.0, 0.0, 0.0, 0.0, 0.0, 0.0, 0.0, 0.0, 0.0, 0.0, 0.0, 0.0, 0.0, 0.0, 0.0, 0.0, 0.0, 0.0, 0.0, 0.0, 0.0, 0.0, 0.0, 0.0, 0.0, 0.0, 0.0, 0.0, 0.0, 0.0, 0.0, 0.0, 0.0, 0.0, 0.0, 0.0, 0.0, 0.0, 0.0, 0.0, 0.0, 0.0, 0.0, 0.0, 0.0, 0.0, 0.0, 0.0, 0.0, 0.0, 0.0, 0.0, 0.0, 0.0, 0.0, 0.0, 0.0, 0.0, 0.0, 0.0, 0.0, 0.0, 0.0, 0.0, 0.0, 0.0, 0.0, 0.0, 0.0, 0.0, 0.0, 0.0, 0.0, 0.0, 0.0, 0.0, 0.0, 0.0, 0.0, 0.0, 0.0, 0.0, 0.0, 0.0, 0.0, 0.0, 0.0, 0.0, 0.0, 0.0, 0.0, 0.0, 0.0, 0.0, 0.0, 0.0, 0.0, 0.0, 0.0, 0.0, 0.0, 0.0, 0.0, 0.0, 0.0, 0.0, 0.0, 0.0, 0.0, 0.0, 0.0, 0.0, 0.0, 0.0, 0.0, 0.0, 0.0, 0.0, 0.0, 0.0, 0.0, 0.0, 0.0, 0.0, 0.0, 0.0, 0.0, 0.0, 0.0, 0.0, 0.0, 0.0, 0.0, 0.0, 0.0, 0.0, 0.0, 0.0, 0.0, 0.0, 0.0, 0.0, 0.0, 0.0, 0.0, 0.0, 0.0, 0.0, 0.0, 0.0, 0.0, 0.0, 0.0, 0.0, 0.0, 0.0, 0.0, 0.0, 0.0, 0.0, 0.0, 0.0, 0.0, 0.0, 0.0, 0.0, 0.0, 0.0, 0.0, 0.0, 0.0, 0.0, 0.0, 0.0, 0.0, 0.0, 0.0, 0.0, 0.0, 0.0, 0.0, 0.0, 0.0, 0.0, 0.0, 0.0, 0.0, 0.0, 0.0, 0.0, 0.0, 0.0, 0.0, 0.0, 0.0, 0.0, 0.0, 0.0, 0.0, 0.0, 0.0, 0.0, 0.0, 0.0, 0.0, 0.0, 0.0, 0.0, 0.0, 0.0, 0.0, 0.0, 0.0, 0.0, 0.0, 0.0, 0.0, 0.0, 0.0, 0.0, 0.0, 0.0, 0.0, 0.0, 0.0, 0.0, 0.0, 0.0, 0.0, 0.0, 0.0, 0.0, 0.0, 0.0, 0.0, 0.0, 0.0, 0.0, 0.0, 0.0, 0.0, 0.0, 0.0, 0.0, 0.0, 0.0, 0.0, 0.0, 0.0, 0.0, 0.0, 0.0, 0.0, 0.0, 0.0, 0.0, 0.0, 0.0, 0.0, 0.0, 0.0, 0.0, 0.0, 0.0, 0.0, 0.0, 0.0, 0.0, 0.0, 0.0, 0.0, 0.0, 0.0, 0.0, 0.0],
  "Shots": 4096,
  "Size": 8,
  "Total Algorithm duration [s]": 10.185,
  "Total Classic duration [s]": 9.747666200406966,
  "Total Quantum duration [s]": 0.4373337995930342
}
