{
  "Circuit execution durations [ms]": [0.4324000037740916, 0.42070000199601054, 0.4257499967934564, 0.41834999865386635, 0.42144999315496534, 0.42285000381525606, 0.414249996538274, 0.4522499948507175, 0.417649993323721, 0.4251500067766756, 0.4262000002199784, 0.42385001142974943, 0.4343999898992479, 0.42690000555012375, 0.42159999429713935, 0.41274999966844916, 0.4193500062683597, 0.4229000041959807, 0.42145000770688057, 0.4207500023767352, 0.41760000749491155, 0.4116500058444217, 0.4317999992053956, 0.41274999966844916, 0.43790000199805945, 0.41715000406838953, 0.414399997680448, 0.5828499852214009, 0.5902499979129061, 0.564950008993037, 0.42085000313818455, 0.41355000576004386, 0.5957999965175986, 0.484500007587485, 0.41619999683462083, 0.43134999577887356, 0.414249996538274, 0.4228999896440655, 0.41880000208038837, 0.421349992393516, 0.43000000005122274, 0.42640000174287707, 0.4156500071985647, 0.4683500010287389, 0.41029999556485564, 0.41120000241789967, 0.41885000246111304, 0.4133000038564205, 0.42970001231878996, 0.41695000254549086, 0.4183500132057816, 0.4158000083407387, 0.41560000681784004, 0.4244500014465302, 0.4206000012345612, 0.4240499984007329, 0.4206000012345612, 0.42550000944174826, 0.4320500011090189, 0.42810000013560057, 0.4198499955236912, 0.421349992393516, 0.4184499994153157, 0.4133500042371452, 0.424449986894615, 0.418550000176765, 0.5725500086555257, 0.41709998913574964, 0.41119998786598444, 0.4325500049162656, 0.4204500000923872, 0.4152000037720427, 0.4230999911669642, 0.4092500021215528, 0.418249997892417, 0.41930000588763505, 0.4163999983575195, 0.4266500036465004, 0.4101999948034063, 0.42640000174287707, 0.42085000313818455, 0.417799994465895, 0.4284000024199486, 0.41450001299381256, 0.42240000038873404, 0.4201499978080392, 0.4135000053793192, 0.4258999979356304, 0.4457000031834468, 0.4130500019527972, 0.4261499998392537, 0.41334998968522996, 0.43015000119339675, 0.42485000449232757, 0.41504998807795346, 0.4602999979397282, 0.42070000199601054, 0.4135000053793192, 0.42564999603200704, 0.41590000910218805, 0.41965000855270773, 0.4229500045767054, 0.41555000643711537, 0.45450001198332757, 0.413949994253926, 0.41590000910218805, 0.4241499991621822, 0.4175000067334622, 0.4297499981475994, 0.4109500005142763, 0.447750004241243, 0.43405000178609043, 0.43814998934976757, 0.4232500068610534, 0.4236999957356602, 0.4202999989502132, 0.43354999797884375, 0.42520000715740025, 0.43485000787768513, 0.41155000508297235, 0.4258499975549057, 0.4322000022511929, 0.4207500023767352, 0.41784999484661967, 0.41704998875502497, 0.41449999844189733, 0.4398500022944063, 0.4157999937888235, 0.4219999973429367, 0.44794999121222645, 0.4304999893065542, 0.4253000079188496, 0.42485000449232757, 0.41944999247789383, 0.44439999328460544, 0.415000002249144, 0.4031999997096136, 0.4310000076657161, 0.4435500013642013, 0.41834999865386635, 0.42359999497421086, 0.42485000449232757, 0.42565001058392227, 0.41619999683462083, 0.4193500062683597, 0.411750006605871, 0.48055000661406666, 0.43154999730177224, 0.3839999990304932, 0.41790000977925956, 0.42050000047311187, 0.43075000576209277, 0.4165499994996935, 0.42529999336693436, 0.43169999844394624, 0.5477000086102635, 0.4237500106683001, 0.414249996538274, 0.4229500045767054, 0.4250000056345016, 0.42424999992363155, 0.44589999015443027, 0.43744999857153744, 0.5110500060254708, 0.4289499920560047, 0.42475000373087823, 0.4212000058032572, 0.41200000850949436, 0.44040000648237765, 0.42919999395962805, 0.42764999670907855, 0.43489999370649457, 0.42344999383203685, 0.42395001219119877, 0.4230999911669642, 0.418099996750243, 0.42400001257192343, 0.42984999890904874, 0.4252499929862097, 0.43415000254753977, 0.42424999992363155, 0.4267999902367592, 0.4243000003043562, 0.4169000021647662, 0.4370499955257401, 0.42424999992363155, 0.4120999947190285, 0.4427999956533313, 0.4152000037720427, 0.42344999383203685, 0.4226999881211668, 0.410549997468479, 0.42475000373087823, 0.42004999704658985, 0.41974999476224184, 0.43405000178609043, 0.42374999611638486, 0.43200000072829425, 0.41665000026114285, 0.4257499967934564, 0.41290000081062317, 0.41074999899137765, 0.4189500032225624, 0.4194999928586185, 0.41125000279862434, 0.4225499869789928, 0.4282000008970499, 0.42329999268986285, 0.4192000051261857, 0.42470000335015357, 0.4302000015741214, 0.44514999899547547, 0.44720000005327165, 0.42034999933093786, 0.4349999944679439, 0.4226000019116327, 0.42210001265630126, 0.4225000011501834, 0.4334999975981191, 0.4195500077912584, 0.4241999995429069, 0.417949995608069, 0.4208000027574599, 0.4291499935789034, 0.43629998981487006, 0.411150002037175, 0.42320000648032874, 0.42740000935737044, 0.4209000035189092, 0.41959999362006783, 0.4184500139672309, 0.42115000542253256, 0.41900000360328704, 0.4381500039016828, 0.4197000089334324, 0.41360000614076853, 0.4369999951450154, 0.6358499958878383, 0.550450014998205, 0.43229998846072704, 0.4202499985694885, 0.4165999998804182, 0.4121999954804778, 0.42034999933093786, 0.4174000059720129, 0.42195001151412725, 0.4233499930705875, 0.4160000098636374, 0.42535000829957426, 0.43775000085588545, 0.4231999919284135, 0.4188999882899225, 0.4249500052537769, 0.40735000220593065, 0.41819999751169235, 0.4333500110078603, 0.4243999865138903, 0.4331499949330464, 0.4232499923091382, 0.425349993747659, 0.41444999806117266, 0.43110000842716545, 0.42470000335015357, 0.42455000220797956, 0.411300003179349, 0.41849999979604036, 0.4167000006418675, 0.43310000910423696, 0.42219999886583537, 0.4334499972173944, 0.4122499958612025, 0.4200999974273145, 0.41375000728294253, 0.42529999336693436, 0.41849999979604036, 0.4243500006850809, 0.41989999590441585, 0.42255000153090805, 0.4180000105407089, 0.4154999915044755, 0.4305000038584694, 0.4343999898992479, 0.41975000931415707, 0.4226000019116327, 0.4233499930705875, 0.42210001265630126, 0.4162499972153455, 0.4202499985694885, 0.41310000233352184, 0.41480000072624534, 0.421649994677864, 0.4190500039840117, 0.415150003391318, 0.42174999543931335, 0.4252500075381249, 0.4279000131646171, 0.4197999951429665, 0.41575000796001405, 0.4721000004792586, 0.41864998638629913, 0.4113999893888831, 0.4374999989522621, 0.41754999256227165, 0.41995001083705574, 0.41870000131893903, 0.4266500036465004, 0.41665000026114285, 0.4163999983575195, 0.45375000627245754, 0.41865000093821436, 0.42640000174287707, 0.44955000339541584, 0.428449988248758, 0.4231000057188794, 0.4153500049142167, 0.4269499913789332, 0.43015000119339675, 0.4158500087214634, 0.4226000019116327, 0.4225000011501834, 0.415150003391318, 0.44704999891109765, 0.421349992393516, 0.4243500006850809, 0.4277499974705279, 0.4247999895596877, 0.4322000022511929, 0.4259999986970797, 0.41634999797679484, 0.4206000012345612, 0.4297499981475994, 0.41725000482983887, 0.4135000053793192, 0.43149999692104757, 0.41939999209716916, 0.4535999905783683, 0.41199999395757914, 0.42520000715740025, 0.41900000360328704, 0.4278499982319772, 0.42699999175965786, 0.41229999624192715, 0.5444999842438847, 0.4233499930705875, 0.4172000044491142, 0.43524999637156725, 0.43095000728499144, 0.4241499991621822, 0.4216000088490546, 0.41649999911896884, 0.414249996538274, 0.4143000114709139, 0.4209000035189092, 0.4354499978944659, 0.4182000120636076, 0.4214000073261559, 0.4088499990757555, 0.425049991463311, 0.4089499998372048, 0.41200000850949436, 0.41975000931415707, 0.41385000804439187, 0.41480000072624534, 0.41760000749491155, 0.41945000702980906, 0.4366000066511333, 0.4283500020392239, 0.41569999302737415, 0.4297499981475994, 0.4116500058444217, 0.4188999882899225, 0.4256999964127317, 0.42394999763928354, 0.4422000056365505, 0.42389999725855887, 0.418099996750243, 0.4622499836841598, 0.417799994465895, 0.41429999691899866, 0.421199991251342, 0.43244998960290104, 0.41700000292621553, 0.4165000136708841, 0.413949994253926, 0.41849999979604036, 0.417649993323721, 0.41310000233352184, 0.4202999989502132, 0.4256999964127317, 0.411750006605871, 0.42424999992363155, 0.42055000085383654, 0.42034999933093786, 0.41804999636951834, 0.4165499994996935, 0.421349992393516, 0.4125499981455505, 0.41405000956729054, 0.40844999602995813, 0.42799999937415123, 0.42394999763928354, 0.4194999928586185, 0.4664999869419262, 0.4113500035600737, 0.41710000368766487, 0.42570001096464694, 0.41525000415276736, 0.41385000804439187, 0.42215001303702593, 0.4209500038996339, 0.4228000034345314, 0.4187500016996637, 0.42609999945852906, 0.4236999957356602, 0.41870000131893903, 0.4201499978080392, 0.41435001185163856, 0.42549999488983303, 0.44425000669434667, 0.42779999785125256, 0.4423500067787245, 0.41340000461786985, 0.4133500042371452, 0.4299499996704981, 0.42409999878145754, 0.42725000821519643, 0.41885000246111304, 0.4202999989502132, 0.4350500094005838, 0.4199999966658652, 0.4316499980632216, 0.4231999919284135, 0.42165000922977924, 0.4315999976824969, 0.4251000063959509, 0.41939999209716916, 0.4170500033069402, 0.4283500020392239, 0.42204999772366136, 0.41665000026114285, 0.4350500094005838, 0.42209999810438603, 0.42520000715740025, 0.4507500125328079, 0.41530000453349203, 0.41625001176726073, 0.4900499916402623, 0.42174999543931335, 0.4188999882899225, 0.414699999964796, 0.5594500107690692, 0.4231000057188794, 0.4209500038996339, 0.564200003282167, 0.42224999924656004, 0.4158000083407387, 0.5487999878823757, 0.4187500016996637, 0.4915500176139176, 0.4190499894320965, 0.4097500059287995, 0.4734499962069094, 0.4258999979356304, 0.42799999937415123, 0.4187500016996637, 0.4215499939164147, 0.4174499918008223, 0.5611999949906021, 0.4140999953961, 0.41969999438151717, 0.6026500050211325, 0.6369999900925905, 0.5339000053936616, 0.4187500016996637, 0.4173500055912882, 0.4130000015720725, 0.42004999704658985, 0.43354999797884375, 0.4322000022511929, 0.42145000770688057, 0.4164499987382442, 0.4167000006418675, 0.41364999196957797, 0.4257499967934564, 0.4301000008126721, 0.41575000796001405, 0.42779999785125256, 0.42255000153090805, 0.43385000026319176, 0.4090000002179295, 0.4167000006418675, 0.4231000057188794, 0.4252500075381249, 0.4619000101229176, 0.41214999509975314, 0.4262000002199784, 0.44129999878350645, 0.4155999922659248, 0.4317999992053956, 0.42129999201279134, 0.413949994253926, 0.4727000050479546, 0.41789999522734433, 0.41695000254549086, 0.42385001142974943, 0.4167500010225922, 0.42409999878145754, 0.4129999870201573, 0.417499992181547, 0.42055000085383654, 0.4120499943383038, 0.41954999323934317, 0.4170500033069402, 0.41325000347569585, 0.42794999899342656, 0.42529999336693436, 0.41280000004917383, 0.42300000495743006, 0.41795001015998423, 0.4558500077109784, 0.4213999927742407, 0.4167500010225922, 0.4325500049162656, 0.43664999247994274, 0.42149999353569, 0.41885000246111304, 0.4134500049985945, 0.4238499968778342, 0.4140499950153753, 0.41760000749491155, 0.413949994253926, 0.4133000038564205, 0.44889999844599515, 0.42485000449232757, 0.4282500012777746, 0.41235001117456704, 0.4209500038996339, 0.4284000024199486, 0.4167000006418675, 0.43479999294504523, 0.42389999725855887, 0.42315000609960407, 0.4259999986970797, 0.42130000656470656, 0.4309999931138009, 0.4832499980693683, 0.41185000736732036, 0.5499999970197678, 0.4410499968798831, 0.4199999966658652, 0.4395500000100583, 0.414549998822622, 0.4234000080032274, 0.43894999544136226, 0.40970000554807484, 0.41774999408517033, 0.4168500017840415, 0.43390000064391643, 0.46529999235644937, 0.4268999909982085, 0.41539999074302614, 0.41399999463465065, 0.42684999061748385, 0.4209500038996339, 0.41545000567566603, 0.4133000038564205, 0.4346000059740618, 0.42144999315496534, 0.4163999983575195, 0.4189500032225624, 0.4248000041116029, 0.42150000808760524, 0.4319500003475696, 0.4239999980200082, 0.42645000212360173, 0.4259999986970797, 0.42725000821519643, 0.4170500033069402, 0.417499992181547, 0.42320000648032874, 0.41870000131893903, 0.4382499901112169, 0.4251500067766756, 0.4292499943403527, 0.4361999890534207, 0.4153500049142167, 0.41649999911896884, 0.4163000121479854, 0.4224500007694587, 0.42460000258870423, 0.417199989897199, 0.4210500046610832, 0.4074000025866553, 0.4178500093985349, 0.43149999692104757, 0.4267000040272251, 0.40795000677462667, 0.4187500016996637, 0.4097499913768843, 0.41819999751169235, 0.4369999951450154, 0.4292499943403527, 0.42145000770688057, 0.41739999142009765, 0.4155000060563907, 0.41510000301059335, 0.4093000025022775, 0.41849999979604036, 0.4141500103287399, 0.4182999982731417, 0.41649999911896884, 0.4209999897284433, 0.4161500110058114, 0.41280000004917383, 0.4170500033069402, 0.4192000051261857, 0.43140001071151346, 0.4169000021647662, 0.4255499952705577, 0.42394999763928354, 0.4184499994153157, 0.4268500051693991, 0.4335000121500343, 0.4231999919284135, 0.42305000533815473, 0.42374999611638486, 0.4133000038564205, 0.42455000220797956, 0.43820000428240746, 0.41405000956729054, 0.43134999577887356, 0.41989999590441585, 0.4162499972153455, 0.4178000090178102, 0.4174000059720129, 0.42729999404400587, 0.4197999951429665, 0.4222999996272847, 0.41555000643711537, 0.4333499964559451, 0.43990000267513096, 0.4186000005574897, 0.4186000005574897, 0.4269499913789332, 0.4283500020392239, 0.4158000083407387, 0.4381500039016828, 0.4218499962007627, 0.4316499980632216, 0.42344999383203685, 0.4233499930705875, 0.5575499963015318, 0.43414998799562454, 0.4200999974273145, 0.4172000044491142, 0.42675000440794975, 0.428449988248758, 0.41880000208038837, 0.4140499950153753, 0.4273999948054552, 0.43235000339336693, 0.4237500106683001, 0.4188999882899225, 0.4226500022923574, 0.42899999243672937, 0.4300500004319474, 0.41975000931415707, 0.41865000093821436, 0.41464999958407134, 0.4245000018272549, 0.42019999818876386, 0.42109999048989266, 0.41799999598879367, 0.4395500000100583, 0.4405499930726364, 0.42255000153090805, 0.41870000131893903, 0.4231999919284135, 0.4136500065214932, 0.41880000208038837, 0.42144999315496534, 0.41709998913574964, 0.45945000601932406, 0.4229500045767054, 0.4201500123599544, 0.4269499913789332, 0.42490000487305224, 0.4186000005574897, 0.4243000003043562, 0.4123000107938424, 0.4120499943383038, 0.42720000783447176, 0.4164499987382442, 0.4329499934101477, 0.4158000083407387, 0.4291500081308186, 0.414399997680448, 0.42440000106580555, 0.4258499975549057, 0.40889999945648015, 0.43224998808000237, 0.41629999759607017, 0.414399997680448, 0.4168500017840415, 0.43995000305585563, 0.41649999911896884, 0.4175999929429963, 0.42764999670907855, 0.4530500009423122, 0.45479999971576035, 0.4227500030538067, 0.4216999950585887, 0.41775000863708556, 0.4200999974273145, 0.41804999636951834, 0.4350499948486686, 0.41700000292621553, 0.4154499911237508, 0.4218499962007627, 0.415000002249144, 0.4200999974273145, 0.4083499952685088, 0.41965000855270773, 0.417799994465895, 0.4302500019548461, 0.43450000521261245, 0.4633499920601025, 0.5616999842459336, 0.417799994465895, 0.43975000153295696, 0.4126499989069998, 0.41375000728294253, 0.4244500014465302, 0.418099996750243, 0.4157000075792894, 0.4358000005595386, 0.43200000072829425, 0.4215499939164147, 0.41640001290943474, 0.41939999209716916, 0.42209999810438603, 0.41555000643711537, 0.4107999993721023, 0.42559999565128237, 0.4170500033069402, 0.43250000453554094, 0.4228000034345314, 0.4117499920539558, 0.42460000258870423, 0.41420001070946455, 0.41059999784920365, 0.42640000174287707, 0.4133500042371452, 0.4325500049162656, 0.4269499913789332, 0.5560999998124316, 0.41695000254549086, 0.4183000128250569, 0.4393999988678843, 0.41980000969488174, 0.415000002249144, 0.41959999362006783, 0.4334499972173944, 0.4158000083407387, 0.41969999438151717, 0.4165999998804182, 0.44255000830162317, 0.4174000059720129, 0.45310000132303685, 0.42150000808760524, 0.46770001063123345, 0.43110000842716545, 0.413949994253926, 0.4190500039840117, 0.43339999683666974, 0.44785000500269234, 0.41525000415276736, 0.4152000037720427, 0.41834999865386635, 0.43489999370649457, 0.4715999821200967, 0.41694998799357563, 0.41915000474546105, 0.554450016352348, 0.4239999980200082, 0.42779999785125256, 0.41485000110697, 0.4291500081308186, 0.4208000027574599, 0.42934999510180205, 0.42085000313818455, 0.4158000083407387, 0.4225000011501834, 0.4200999974273145, 0.42329999268986285, 0.45044999569654465, 0.4383000050438568, 0.4122499958612025, 0.42875000508502126, 0.42070000199601054, 0.4125499981455505, 0.41969999438151717, 0.45289998524822295, 0.42895000660791993, 0.4154499911237508, 0.41584999416954815, 0.4295499966247007, 0.41969999438151717, 0.4182000120636076, 0.4364000051282346, 0.4256000102031976, 0.4116500058444217, 0.42204999772366136, 0.4270999925211072, 0.4285000031813979, 0.4308500065235421, 0.41849999979604036, 0.42389999725855887, 0.4261499998392537, 0.42699999175965786, 0.41795001015998423, 0.42949999624397606, 0.41945000702980906, 0.42224999924656004, 0.4325499903643504, 0.4224500007694587, 0.42374999611638486, 0.4251500067766756, 0.447300000814721, 0.41619999683462083, 0.41360000614076853, 0.4249500052537769, 0.42050000047311187, 0.41360000614076853, 0.4194999928586185, 0.42114999087061733, 0.411150002037175, 0.41700000292621553, 0.4206500016152859, 0.4239000118104741, 0.4285000031813979, 0.4228999896440655, 0.41870000131893903, 0.41194999357685447],
  "Depth": 18.5,
  "Expectation Value": -9.620553016662598,
  "Optimal Expectation Value": -9.83795166015625,
  "Optimizer durations [ms]": [9.726, 9.322, 9.596, 9.403, 9.19, 9.72, 9.292, 9.682, 9.579, 9.529, 9.417, 9.61, 9.516, 9.575, 9.431, 9.213, 9.624, 9.264, 9.29, 9.337, 9.248, 9.301, 9.617, 9.249, 9.352, 9.426, 9.314, 12.924, 17.223, 12.681, 9.575, 9.095, 12.557, 24.216, 9.386, 9.565, 9.501, 9.454, 9.547, 9.528, 9.518, 9.715, 9.101, 10.13, 9.43, 9.183, 9.177, 9.345, 9.804, 9.341, 9.413, 9.37, 9.128, 9.312, 9.532, 9.643, 9.54, 9.389, 9.785, 9.498, 10.93, 9.46, 9.179, 9.521, 9.636, 9.358, 12.195, 9.524, 9.238, 9.654, 9.222, 9.694, 9.386, 9.041, 9.42, 9.35, 9.553, 9.445, 9.056, 9.667, 9.488, 9.271, 9.475, 9.644, 9.615, 9.428, 9.348, 9.248, 10.341, 9.192, 9.715, 9.29, 9.579, 9.382, 9.677, 10.071, 9.539, 9.382, 9.604, 9.252, 9.305, 9.609, 9.211, 10.002, 9.455, 9.207, 9.73, 9.15, 9.625, 9.259, 10.029, 9.43, 9.897, 9.336, 9.829, 9.23, 9.711, 9.51, 9.567, 9.289, 9.369, 9.728, 9.583, 9.887, 9.296, 9.222, 9.699, 9.437, 9.549, 9.829, 9.448, 9.353, 9.708, 9.278, 9.861, 8.973, 11.852, 9.505, 9.68, 19.396, 9.246, 9.592, 9.553, 9.295, 9.294, 9.164, 10.72, 9.511, 17.042, 9.397, 9.395, 9.744, 10.638, 9.76, 9.597, 23.3, 9.716, 9.042, 9.767, 9.668, 10.333, 9.805, 21.34, 11.338, 9.8, 9.567, 9.309, 10.692, 9.734, 9.601, 9.752, 9.451, 9.42, 9.686, 9.381, 9.341, 9.317, 9.771, 9.747, 9.538, 9.42, 9.642, 9.907, 9.399, 9.807, 9.656, 9.219, 9.734, 9.445, 9.161, 9.716, 9.049, 9.638, 9.492, 9.529, 9.801, 9.274, 9.908, 9.266, 9.356, 9.503, 8.896, 9.608, 9.261, 8.99, 9.78, 9.607, 9.326, 9.363, 9.35, 9.812, 10.096, 9.814, 9.358, 9.923, 9.262, 9.551, 9.479, 9.841, 9.225, 9.617, 9.328, 9.517, 9.469, 9.53, 9.184, 9.726, 9.385, 9.557, 9.492, 9.153, 9.542, 9.483, 9.618, 9.387, 9.147, 9.833, 22.411, 13.202, 9.392, 9.712, 9.126, 9.393, 9.281, 9.503, 9.514, 9.536, 9.353, 9.261, 9.63, 9.528, 9.592, 9.475, 9.198, 9.028, 9.686, 9.368, 9.717, 9.583, 9.392, 9.065, 9.913, 9.553, 9.627, 9.333, 9.279, 9.403, 9.873, 9.493, 9.608, 9.414, 12.816, 9.382, 9.496, 9.609, 9.648, 9.383, 9.406, 9.518, 9.511, 9.431, 9.941, 9.435, 9.472, 9.434, 9.391, 9.518, 9.566, 9.18, 9.347, 9.472, 9.348, 9.3, 9.463, 9.226, 9.678, 9.385, 9.127, 10.711, 9.335, 9.256, 9.666, 9.375, 9.247, 9.494, 9.436, 9.539, 9.2, 10.232, 9.255, 9.448, 9.78, 9.734, 9.618, 9.469, 9.454, 9.487, 9.221, 9.321, 9.594, 9.215, 9.922, 9.302, 9.632, 9.511, 9.334, 9.777, 9.593, 9.364, 9.416, 9.581, 9.302, 9.1, 9.58, 9.629, 10.18, 9.183, 9.552, 9.385, 9.41, 9.616, 14.186, 21.646, 9.572, 9.085, 9.508, 9.847, 9.215, 9.446, 9.647, 9.327, 8.961, 9.512, 9.675, 9.374, 9.357, 9.369, 9.619, 8.899, 9.372, 9.353, 9.525, 9.386, 9.312, 9.133, 9.613, 9.834, 9.221, 9.411, 9.458, 9.242, 9.484, 9.716, 9.751, 9.509, 14.749, 9.935, 9.356, 9.371, 9.154, 9.668, 9.089, 9.678, 9.02, 9.354, 9.289, 9.535, 9.354, 9.552, 9.379, 9.539, 9.39, 9.372, 9.429, 9.206, 9.648, 8.932, 9.329, 9.488, 9.75, 9.544, 9.188, 10.341, 9.056, 9.598, 9.572, 9.157, 9.341, 9.538, 9.34, 9.686, 9.263, 9.675, 9.639, 9.168, 9.451, 9.315, 9.245, 9.705, 9.513, 9.689, 9.225, 9.038, 9.745, 9.471, 9.68, 9.299, 9.235, 9.662, 9.552, 9.731, 9.555, 9.46, 9.599, 9.607, 9.393, 9.229, 9.672, 9.509, 9.035, 9.715, 9.374, 9.378, 9.763, 9.2, 13.183, 10.769, 9.399, 17.347, 9.298, 12.102, 9.267, 9.518, 12.144, 9.253, 9.347, 12.161, 18.391, 10.392, 9.501, 10.165, 10.221, 9.458, 16.075, 9.33, 9.574, 9.129, 12.306, 9.483, 9.224, 12.895, 19.626, 11.591, 9.332, 9.395, 9.216, 9.473, 9.433, 9.779, 9.133, 9.508, 9.455, 9.039, 9.493, 9.488, 9.496, 9.667, 9.492, 9.417, 9.339, 9.45, 9.345, 9.886, 10.053, 9.047, 9.871, 9.762, 9.016, 9.94, 9.331, 9.36, 10.426, 9.249, 9.223, 9.667, 9.172, 9.706, 9.216, 9.044, 9.732, 9.108, 9.632, 9.403, 9.135, 9.643, 9.536, 9.193, 9.332, 10.158, 9.995, 9.556, 9.292, 9.531, 9.718, 9.457, 9.269, 9.277, 9.417, 9.203, 9.445, 9.232, 9.254, 9.647, 9.468, 9.565, 9.139, 9.468, 9.793, 9.018, 9.681, 9.331, 9.416, 9.609, 9.403, 9.526, 10.887, 21.519, 12.537, 9.937, 9.249, 10.099, 9.253, 9.492, 9.753, 9.275, 9.204, 9.605, 9.495, 9.997, 9.542, 9.454, 9.322, 9.345, 9.326, 9.596, 9.276, 9.606, 9.544, 9.478, 9.38, 9.332, 9.546, 9.582, 9.529, 9.674, 9.42, 9.637, 9.287, 9.517, 9.428, 11.303, 9.62, 9.52, 9.529, 9.627, 9.289, 9.508, 9.096, 9.582, 9.485, 9.262, 9.518, 9.501, 9.355, 9.259, 9.4, 9.124, 9.563, 9.256, 9.405, 9.76, 9.591, 9.272, 9.478, 9.211, 9.094, 9.411, 9.326, 9.204, 9.33, 9.297, 9.471, 9.202, 9.084, 9.646, 9.336, 9.713, 9.403, 9.574, 9.557, 9.234, 9.775, 9.79, 9.57, 9.596, 9.487, 8.94, 9.447, 9.63, 9.041, 9.718, 9.557, 9.492, 9.306, 9.383, 9.492, 9.495, 9.435, 9.279, 9.455, 9.881, 9.149, 9.39, 9.473, 9.801, 9.089, 9.749, 9.533, 9.62, 9.487, 22.599, 15.21, 9.772, 9.369, 9.482, 9.57, 9.615, 9.302, 9.618, 9.529, 9.666, 9.612, 9.398, 9.468, 9.606, 9.6, 9.189, 9.588, 9.25, 9.412, 9.572, 9.632, 9.244, 9.825, 9.415, 9.389, 9.292, 9.715, 9.14, 9.496, 9.4, 9.573, 9.85, 9.584, 14.224, 9.558, 9.573, 9.222, 9.603, 9.138, 9.556, 9.636, 9.234, 9.726, 9.137, 9.761, 9.212, 9.568, 9.43, 9.309, 9.571, 9.497, 9.042, 9.534, 9.752, 9.203, 9.24, 9.663, 10.115, 9.595, 9.717, 9.375, 9.433, 9.45, 9.152, 9.74, 9.091, 9.582, 9.257, 9.595, 9.319, 9.169, 9.441, 9.319, 9.629, 9.668, 10.555, 12.367, 9.2, 9.756, 9.189, 9.346, 9.569, 9.412, 9.155, 9.769, 9.517, 9.454, 9.358, 9.575, 9.408, 9.13, 9.673, 9.465, 9.22, 9.545, 9.8, 9.274, 9.499, 9.147, 9.39, 9.256, 9.439, 9.582, 9.613, 11.955, 9.489, 9.173, 9.696, 11.971, 9.239, 9.242, 9.421, 9.404, 9.644, 9.054, 9.783, 9.165, 18.001, 9.283, 10.481, 9.51, 9.655, 9.154, 9.802, 20.529, 9.142, 9.299, 9.426, 10.51, 10.606, 9.52, 21.905, 13.796, 9.452, 14.724, 9.861, 9.445, 9.273, 9.552, 9.646, 9.276, 9.235, 9.545, 9.462, 9.522, 10.018, 9.436, 9.451, 9.601, 9.128, 9.35, 10.069, 9.679, 9.299, 9.218, 9.682, 9.425, 9.17, 9.685, 9.745, 9.137, 9.406, 9.467, 9.546, 9.603, 9.53, 9.44, 9.556, 9.584, 9.272, 9.861, 9.411, 9.311, 9.766, 9.758, 9.547, 9.379, 9.994, 9.383, 9.288, 9.502, 9.567, 9.1, 9.276, 9.41, 9.357, 9.348, 9.151, 9.411, 9.604, 9.7, 9.196, 9.236],
  "Optimizer iterations": 844,
  "Optimizer params": [0.9513300408429948, 0.11294856562460885, 0.4242403015090566, 0.06011675241351227, 0.5589405765461164, 0.5683540546568961, 0.08021391314919872, 0.8331596178741824, 0.318803796607573, 0.56327149630475, 0.5337147474035676, 0.8115191706071534, 0.14543004826631062, 0.9987737591021767, 0.15648239405433073, 0.06254772175963062, 0.9794447590211051, 0.9833898067264888, 0.4691928255867339, 0.5534685613089144, 0.5697324662556937, 0.06689682574762193, 0.5374066410122323, 0.12733016607594594, 0.20005541934116894, 0.9791639354155723, 0.9646676837989977, 0.5665207474177881, 0.5917977141751997, 0.5132518050286395, 0.4335976939528054, 0.9390036027030063],
  "P": 0,
  "Problem": "IC",
  "QJob durations [ms]": [0.4324000037740916, 0.42070000199601054, 0.4257499967934564, 0.41834999865386635, 0.42144999315496534, 0.42285000381525606, 0.414249996538274, 0.4522499948507175, 0.417649993323721, 0.4251500067766756, 0.4262000002199784, 0.42385001142974943, 0.4343999898992479, 0.42690000555012375, 0.42159999429713935, 0.41274999966844916, 0.4193500062683597, 0.4229000041959807, 0.42145000770688057, 0.4207500023767352, 0.41760000749491155, 0.4116500058444217, 0.4317999992053956, 0.41274999966844916, 0.43790000199805945, 0.41715000406838953, 0.414399997680448, 0.5828499852214009, 0.5902499979129061, 0.564950008993037, 0.42085000313818455, 0.41355000576004386, 0.5957999965175986, 0.484500007587485, 0.41619999683462083, 0.43134999577887356, 0.414249996538274, 0.4228999896440655, 0.41880000208038837, 0.421349992393516, 0.43000000005122274, 0.42640000174287707, 0.4156500071985647, 0.4683500010287389, 0.41029999556485564, 0.41120000241789967, 0.41885000246111304, 0.4133000038564205, 0.42970001231878996, 0.41695000254549086, 0.4183500132057816, 0.4158000083407387, 0.41560000681784004, 0.4244500014465302, 0.4206000012345612, 0.4240499984007329, 0.4206000012345612, 0.42550000944174826, 0.4320500011090189, 0.42810000013560057, 0.4198499955236912, 0.421349992393516, 0.4184499994153157, 0.4133500042371452, 0.424449986894615, 0.418550000176765, 0.5725500086555257, 0.41709998913574964, 0.41119998786598444, 0.4325500049162656, 0.4204500000923872, 0.4152000037720427, 0.4230999911669642, 0.4092500021215528, 0.418249997892417, 0.41930000588763505, 0.4163999983575195, 0.4266500036465004, 0.4101999948034063, 0.42640000174287707, 0.42085000313818455, 0.417799994465895, 0.4284000024199486, 0.41450001299381256, 0.42240000038873404, 0.4201499978080392, 0.4135000053793192, 0.4258999979356304, 0.4457000031834468, 0.4130500019527972, 0.4261499998392537, 0.41334998968522996, 0.43015000119339675, 0.42485000449232757, 0.41504998807795346, 0.4602999979397282, 0.42070000199601054, 0.4135000053793192, 0.42564999603200704, 0.41590000910218805, 0.41965000855270773, 0.4229500045767054, 0.41555000643711537, 0.45450001198332757, 0.413949994253926, 0.41590000910218805, 0.4241499991621822, 0.4175000067334622, 0.4297499981475994, 0.4109500005142763, 0.447750004241243, 0.43405000178609043, 0.43814998934976757, 0.4232500068610534, 0.4236999957356602, 0.4202999989502132, 0.43354999797884375, 0.42520000715740025, 0.43485000787768513, 0.41155000508297235, 0.4258499975549057, 0.4322000022511929, 0.4207500023767352, 0.41784999484661967, 0.41704998875502497, 0.41449999844189733, 0.4398500022944063, 0.4157999937888235, 0.4219999973429367, 0.44794999121222645, 0.4304999893065542, 0.4253000079188496, 0.42485000449232757, 0.41944999247789383, 0.44439999328460544, 0.415000002249144, 0.4031999997096136, 0.4310000076657161, 0.4435500013642013, 0.41834999865386635, 0.42359999497421086, 0.42485000449232757, 0.42565001058392227, 0.41619999683462083, 0.4193500062683597, 0.411750006605871, 0.48055000661406666, 0.43154999730177224, 0.3839999990304932, 0.41790000977925956, 0.42050000047311187, 0.43075000576209277, 0.4165499994996935, 0.42529999336693436, 0.43169999844394624, 0.5477000086102635, 0.4237500106683001, 0.414249996538274, 0.4229500045767054, 0.4250000056345016, 0.42424999992363155, 0.44589999015443027, 0.43744999857153744, 0.5110500060254708, 0.4289499920560047, 0.42475000373087823, 0.4212000058032572, 0.41200000850949436, 0.44040000648237765, 0.42919999395962805, 0.42764999670907855, 0.43489999370649457, 0.42344999383203685, 0.42395001219119877, 0.4230999911669642, 0.418099996750243, 0.42400001257192343, 0.42984999890904874, 0.4252499929862097, 0.43415000254753977, 0.42424999992363155, 0.4267999902367592, 0.4243000003043562, 0.4169000021647662, 0.4370499955257401, 0.42424999992363155, 0.4120999947190285, 0.4427999956533313, 0.4152000037720427, 0.42344999383203685, 0.4226999881211668, 0.410549997468479, 0.42475000373087823, 0.42004999704658985, 0.41974999476224184, 0.43405000178609043, 0.42374999611638486, 0.43200000072829425, 0.41665000026114285, 0.4257499967934564, 0.41290000081062317, 0.41074999899137765, 0.4189500032225624, 0.4194999928586185, 0.41125000279862434, 0.4225499869789928, 0.4282000008970499, 0.42329999268986285, 0.4192000051261857, 0.42470000335015357, 0.4302000015741214, 0.44514999899547547, 0.44720000005327165, 0.42034999933093786, 0.4349999944679439, 0.4226000019116327, 0.42210001265630126, 0.4225000011501834, 0.4334999975981191, 0.4195500077912584, 0.4241999995429069, 0.417949995608069, 0.4208000027574599, 0.4291499935789034, 0.43629998981487006, 0.411150002037175, 0.42320000648032874, 0.42740000935737044, 0.4209000035189092, 0.41959999362006783, 0.4184500139672309, 0.42115000542253256, 0.41900000360328704, 0.4381500039016828, 0.4197000089334324, 0.41360000614076853, 0.4369999951450154, 0.6358499958878383, 0.550450014998205, 0.43229998846072704, 0.4202499985694885, 0.4165999998804182, 0.4121999954804778, 0.42034999933093786, 0.4174000059720129, 0.42195001151412725, 0.4233499930705875, 0.4160000098636374, 0.42535000829957426, 0.43775000085588545, 0.4231999919284135, 0.4188999882899225, 0.4249500052537769, 0.40735000220593065, 0.41819999751169235, 0.4333500110078603, 0.4243999865138903, 0.4331499949330464, 0.4232499923091382, 0.425349993747659, 0.41444999806117266, 0.43110000842716545, 0.42470000335015357, 0.42455000220797956, 0.411300003179349, 0.41849999979604036, 0.4167000006418675, 0.43310000910423696, 0.42219999886583537, 0.4334499972173944, 0.4122499958612025, 0.4200999974273145, 0.41375000728294253, 0.42529999336693436, 0.41849999979604036, 0.4243500006850809, 0.41989999590441585, 0.42255000153090805, 0.4180000105407089, 0.4154999915044755, 0.4305000038584694, 0.4343999898992479, 0.41975000931415707, 0.4226000019116327, 0.4233499930705875, 0.42210001265630126, 0.4162499972153455, 0.4202499985694885, 0.41310000233352184, 0.41480000072624534, 0.421649994677864, 0.4190500039840117, 0.415150003391318, 0.42174999543931335, 0.4252500075381249, 0.4279000131646171, 0.4197999951429665, 0.41575000796001405, 0.4721000004792586, 0.41864998638629913, 0.4113999893888831, 0.4374999989522621, 0.41754999256227165, 0.41995001083705574, 0.41870000131893903, 0.4266500036465004, 0.41665000026114285, 0.4163999983575195, 0.45375000627245754, 0.41865000093821436, 0.42640000174287707, 0.44955000339541584, 0.428449988248758, 0.4231000057188794, 0.4153500049142167, 0.4269499913789332, 0.43015000119339675, 0.4158500087214634, 0.4226000019116327, 0.4225000011501834, 0.415150003391318, 0.44704999891109765, 0.421349992393516, 0.4243500006850809, 0.4277499974705279, 0.4247999895596877, 0.4322000022511929, 0.4259999986970797, 0.41634999797679484, 0.4206000012345612, 0.4297499981475994, 0.41725000482983887, 0.4135000053793192, 0.43149999692104757, 0.41939999209716916, 0.4535999905783683, 0.41199999395757914, 0.42520000715740025, 0.41900000360328704, 0.4278499982319772, 0.42699999175965786, 0.41229999624192715, 0.5444999842438847, 0.4233499930705875, 0.4172000044491142, 0.43524999637156725, 0.43095000728499144, 0.4241499991621822, 0.4216000088490546, 0.41649999911896884, 0.414249996538274, 0.4143000114709139, 0.4209000035189092, 0.4354499978944659, 0.4182000120636076, 0.4214000073261559, 0.4088499990757555, 0.425049991463311, 0.4089499998372048, 0.41200000850949436, 0.41975000931415707, 0.41385000804439187, 0.41480000072624534, 0.41760000749491155, 0.41945000702980906, 0.4366000066511333, 0.4283500020392239, 0.41569999302737415, 0.4297499981475994, 0.4116500058444217, 0.4188999882899225, 0.4256999964127317, 0.42394999763928354, 0.4422000056365505, 0.42389999725855887, 0.418099996750243, 0.4622499836841598, 0.417799994465895, 0.41429999691899866, 0.421199991251342, 0.43244998960290104, 0.41700000292621553, 0.4165000136708841, 0.413949994253926, 0.41849999979604036, 0.417649993323721, 0.41310000233352184, 0.4202999989502132, 0.4256999964127317, 0.411750006605871, 0.42424999992363155, 0.42055000085383654, 0.42034999933093786, 0.41804999636951834, 0.4165499994996935, 0.421349992393516, 0.4125499981455505, 0.41405000956729054, 0.40844999602995813, 0.42799999937415123, 0.42394999763928354, 0.4194999928586185, 0.4664999869419262, 0.4113500035600737, 0.41710000368766487, 0.42570001096464694, 0.41525000415276736, 0.41385000804439187, 0.42215001303702593, 0.4209500038996339, 0.4228000034345314, 0.4187500016996637, 0.42609999945852906, 0.4236999957356602, 0.41870000131893903, 0.4201499978080392, 0.41435001185163856, 0.42549999488983303, 0.44425000669434667, 0.42779999785125256, 0.4423500067787245, 0.41340000461786985, 0.4133500042371452, 0.4299499996704981, 0.42409999878145754, 0.42725000821519643, 0.41885000246111304, 0.4202999989502132, 0.4350500094005838, 0.4199999966658652, 0.4316499980632216, 0.4231999919284135, 0.42165000922977924, 0.4315999976824969, 0.4251000063959509, 0.41939999209716916, 0.4170500033069402, 0.4283500020392239, 0.42204999772366136, 0.41665000026114285, 0.4350500094005838, 0.42209999810438603, 0.42520000715740025, 0.4507500125328079, 0.41530000453349203, 0.41625001176726073, 0.4900499916402623, 0.42174999543931335, 0.4188999882899225, 0.414699999964796, 0.5594500107690692, 0.4231000057188794, 0.4209500038996339, 0.564200003282167, 0.42224999924656004, 0.4158000083407387, 0.5487999878823757, 0.4187500016996637, 0.4915500176139176, 0.4190499894320965, 0.4097500059287995, 0.4734499962069094, 0.4258999979356304, 0.42799999937415123, 0.4187500016996637, 0.4215499939164147, 0.4174499918008223, 0.5611999949906021, 0.4140999953961, 0.41969999438151717, 0.6026500050211325, 0.6369999900925905, 0.5339000053936616, 0.4187500016996637, 0.4173500055912882, 0.4130000015720725, 0.42004999704658985, 0.43354999797884375, 0.4322000022511929, 0.42145000770688057, 0.4164499987382442, 0.4167000006418675, 0.41364999196957797, 0.4257499967934564, 0.4301000008126721, 0.41575000796001405, 0.42779999785125256, 0.42255000153090805, 0.43385000026319176, 0.4090000002179295, 0.4167000006418675, 0.4231000057188794, 0.4252500075381249, 0.4619000101229176, 0.41214999509975314, 0.4262000002199784, 0.44129999878350645, 0.4155999922659248, 0.4317999992053956, 0.42129999201279134, 0.413949994253926, 0.4727000050479546, 0.41789999522734433, 0.41695000254549086, 0.42385001142974943, 0.4167500010225922, 0.42409999878145754, 0.4129999870201573, 0.417499992181547, 0.42055000085383654, 0.4120499943383038, 0.41954999323934317, 0.4170500033069402, 0.41325000347569585, 0.42794999899342656, 0.42529999336693436, 0.41280000004917383, 0.42300000495743006, 0.41795001015998423, 0.4558500077109784, 0.4213999927742407, 0.4167500010225922, 0.4325500049162656, 0.43664999247994274, 0.42149999353569, 0.41885000246111304, 0.4134500049985945, 0.4238499968778342, 0.4140499950153753, 0.41760000749491155, 0.413949994253926, 0.4133000038564205, 0.44889999844599515, 0.42485000449232757, 0.4282500012777746, 0.41235001117456704, 0.4209500038996339, 0.4284000024199486, 0.4167000006418675, 0.43479999294504523, 0.42389999725855887, 0.42315000609960407, 0.4259999986970797, 0.42130000656470656, 0.4309999931138009, 0.4832499980693683, 0.41185000736732036, 0.5499999970197678, 0.4410499968798831, 0.4199999966658652, 0.4395500000100583, 0.414549998822622, 0.4234000080032274, 0.43894999544136226, 0.40970000554807484, 0.41774999408517033, 0.4168500017840415, 0.43390000064391643, 0.46529999235644937, 0.4268999909982085, 0.41539999074302614, 0.41399999463465065, 0.42684999061748385, 0.4209500038996339, 0.41545000567566603, 0.4133000038564205, 0.4346000059740618, 0.42144999315496534, 0.4163999983575195, 0.4189500032225624, 0.4248000041116029, 0.42150000808760524, 0.4319500003475696, 0.4239999980200082, 0.42645000212360173, 0.4259999986970797, 0.42725000821519643, 0.4170500033069402, 0.417499992181547, 0.42320000648032874, 0.41870000131893903, 0.4382499901112169, 0.4251500067766756, 0.4292499943403527, 0.4361999890534207, 0.4153500049142167, 0.41649999911896884, 0.4163000121479854, 0.4224500007694587, 0.42460000258870423, 0.417199989897199, 0.4210500046610832, 0.4074000025866553, 0.4178500093985349, 0.43149999692104757, 0.4267000040272251, 0.40795000677462667, 0.4187500016996637, 0.4097499913768843, 0.41819999751169235, 0.4369999951450154, 0.4292499943403527, 0.42145000770688057, 0.41739999142009765, 0.4155000060563907, 0.41510000301059335, 0.4093000025022775, 0.41849999979604036, 0.4141500103287399, 0.4182999982731417, 0.41649999911896884, 0.4209999897284433, 0.4161500110058114, 0.41280000004917383, 0.4170500033069402, 0.4192000051261857, 0.43140001071151346, 0.4169000021647662, 0.4255499952705577, 0.42394999763928354, 0.4184499994153157, 0.4268500051693991, 0.4335000121500343, 0.4231999919284135, 0.42305000533815473, 0.42374999611638486, 0.4133000038564205, 0.42455000220797956, 0.43820000428240746, 0.41405000956729054, 0.43134999577887356, 0.41989999590441585, 0.4162499972153455, 0.4178000090178102, 0.4174000059720129, 0.42729999404400587, 0.4197999951429665, 0.4222999996272847, 0.41555000643711537, 0.4333499964559451, 0.43990000267513096, 0.4186000005574897, 0.4186000005574897, 0.4269499913789332, 0.4283500020392239, 0.4158000083407387, 0.4381500039016828, 0.4218499962007627, 0.4316499980632216, 0.42344999383203685, 0.4233499930705875, 0.5575499963015318, 0.43414998799562454, 0.4200999974273145, 0.4172000044491142, 0.42675000440794975, 0.428449988248758, 0.41880000208038837, 0.4140499950153753, 0.4273999948054552, 0.43235000339336693, 0.4237500106683001, 0.4188999882899225, 0.4226500022923574, 0.42899999243672937, 0.4300500004319474, 0.41975000931415707, 0.41865000093821436, 0.41464999958407134, 0.4245000018272549, 0.42019999818876386, 0.42109999048989266, 0.41799999598879367, 0.4395500000100583, 0.4405499930726364, 0.42255000153090805, 0.41870000131893903, 0.4231999919284135, 0.4136500065214932, 0.41880000208038837, 0.42144999315496534, 0.41709998913574964, 0.45945000601932406, 0.4229500045767054, 0.4201500123599544, 0.4269499913789332, 0.42490000487305224, 0.4186000005574897, 0.4243000003043562, 0.4123000107938424, 0.4120499943383038, 0.42720000783447176, 0.4164499987382442, 0.4329499934101477, 0.4158000083407387, 0.4291500081308186, 0.414399997680448, 0.42440000106580555, 0.4258499975549057, 0.40889999945648015, 0.43224998808000237, 0.41629999759607017, 0.414399997680448, 0.4168500017840415, 0.43995000305585563, 0.41649999911896884, 0.4175999929429963, 0.42764999670907855, 0.4530500009423122, 0.45479999971576035, 0.4227500030538067, 0.4216999950585887, 0.41775000863708556, 0.4200999974273145, 0.41804999636951834, 0.4350499948486686, 0.41700000292621553, 0.4154499911237508, 0.4218499962007627, 0.415000002249144, 0.4200999974273145, 0.4083499952685088, 0.41965000855270773, 0.417799994465895, 0.4302500019548461, 0.43450000521261245, 0.4633499920601025, 0.5616999842459336, 0.417799994465895, 0.43975000153295696, 0.4126499989069998, 0.41375000728294253, 0.4244500014465302, 0.418099996750243, 0.4157000075792894, 0.4358000005595386, 0.43200000072829425, 0.4215499939164147, 0.41640001290943474, 0.41939999209716916, 0.42209999810438603, 0.41555000643711537, 0.4107999993721023, 0.42559999565128237, 0.4170500033069402, 0.43250000453554094, 0.4228000034345314, 0.4117499920539558, 0.42460000258870423, 0.41420001070946455, 0.41059999784920365, 0.42640000174287707, 0.4133500042371452, 0.4325500049162656, 0.4269499913789332, 0.5560999998124316, 0.41695000254549086, 0.4183000128250569, 0.4393999988678843, 0.41980000969488174, 0.415000002249144, 0.41959999362006783, 0.4334499972173944, 0.4158000083407387, 0.41969999438151717, 0.4165999998804182, 0.44255000830162317, 0.4174000059720129, 0.45310000132303685, 0.42150000808760524, 0.46770001063123345, 0.43110000842716545, 0.413949994253926, 0.4190500039840117, 0.43339999683666974, 0.44785000500269234, 0.41525000415276736, 0.4152000037720427, 0.41834999865386635, 0.43489999370649457, 0.4715999821200967, 0.41694998799357563, 0.41915000474546105, 0.554450016352348, 0.4239999980200082, 0.42779999785125256, 0.41485000110697, 0.4291500081308186, 0.4208000027574599, 0.42934999510180205, 0.42085000313818455, 0.4158000083407387, 0.4225000011501834, 0.4200999974273145, 0.42329999268986285, 0.45044999569654465, 0.4383000050438568, 0.4122499958612025, 0.42875000508502126, 0.42070000199601054, 0.4125499981455505, 0.41969999438151717, 0.45289998524822295, 0.42895000660791993, 0.4154499911237508, 0.41584999416954815, 0.4295499966247007, 0.41969999438151717, 0.4182000120636076, 0.4364000051282346, 0.4256000102031976, 0.4116500058444217, 0.42204999772366136, 0.4270999925211072, 0.4285000031813979, 0.4308500065235421, 0.41849999979604036, 0.42389999725855887, 0.4261499998392537, 0.42699999175965786, 0.41795001015998423, 0.42949999624397606, 0.41945000702980906, 0.42224999924656004, 0.4325499903643504, 0.4224500007694587, 0.42374999611638486, 0.4251500067766756, 0.447300000814721, 0.41619999683462083, 0.41360000614076853, 0.4249500052537769, 0.42050000047311187, 0.41360000614076853, 0.4194999928586185, 0.42114999087061733, 0.411150002037175, 0.41700000292621553, 0.4206500016152859, 0.4239000118104741, 0.4285000031813979, 0.4228999896440655, 0.41870000131893903, 0.41194999357685447],
  "QPU": "7000000",
  "Qubits": 8,
  "Queue durations [ms]": [0.0, 0.0, 0.0, 0.0, 0.0, 0.0, 0.0, 0.0, 0.0, 0.0, 0.0, 0.0, 0.0, 0.0, 0.0, 0.0, 0.0, 0.0, 0.0, 0.0, 0.0, 0.0, 0.0, 0.0, 0.0, 0.0, 0.0, 0.0, 0.0, 0.0, 0.0, 0.0, 0.0, 0.0, 0.0, 0.0, 0.0, 0.0, 0.0, 0.0, 0.0, 0.0, 0.0, 0.0, 0.0, 0.0, 0.0, 0.0, 0.0, 0.0, 0.0, 0.0, 0.0, 0.0, 0.0, 0.0, 0.0, 0.0, 0.0, 0.0, 0.0, 0.0, 0.0, 0.0, 0.0, 0.0, 0.0, 0.0, 0.0, 0.0, 0.0, 0.0, 0.0, 0.0, 0.0, 0.0, 0.0, 0.0, 0.0, 0.0, 0.0, 0.0, 0.0, 0.0, 0.0, 0.0, 0.0, 0.0, 0.0, 0.0, 0.0, 0.0, 0.0, 0.0, 0.0, 0.0, 0.0, 0.0, 0.0, 0.0, 0.0, 0.0, 0.0, 0.0, 0.0, 0.0, 0.0, 0.0, 0.0, 0.0, 0.0, 0.0, 0.0, 0.0, 0.0, 0.0, 0.0, 0.0, 0.0, 0.0, 0.0, 0.0, 0.0, 0.0, 0.0, 0.0, 0.0, 0.0, 0.0, 0.0, 0.0, 0.0, 0.0, 0.0, 0.0, 0.0, 0.0, 0.0, 0.0, 0.0, 0.0, 0.0, 0.0, 0.0, 0.0, 0.0, 0.0, 0.0, 0.0, 0.0, 0.0, 0.0, 0.0, 0.0, 0.0, 0.0, 0.0, 0.0, 0.0, 0.0, 0.0, 0.0, 0.0, 0.0, 0.0, 0.0, 0.0, 0.0, 0.0, 0.0, 0.0, 0.0, 0.0, 0.0, 0.0, 0.0, 0.0, 0.0, 0.0, 0.0, 0.0, 0.0, 0.0, 0.0, 0.0, 0.0, 0.0, 0.0, 0.0, 0.0, 0.0, 0.0, 0.0, 0.0, 0.0, 0.0, 0.0, 0.0, 0.0, 0.0, 0.0, 0.0, 0.0, 0.0, 0.0, 0.0, 0.0, 0.0, 0.0, 0.0, 0.0, 0.0, 0.0, 0.0, 0.0, 0.0, 0.0, 0.0, 0.0, 0.0, 0.0, 0.0, 0.0, 0.0, 0.0, 0.0, 0.0, 0.0, 0.0, 0.0, 0.0, 0.0, 0.0, 0.0, 0.0, 0.0, 0.0, 0.0, 0.0, 0.0, 0.0, 0.0, 0.0, 0.0, 0.0, 0.0, 0.0, 0.0, 0.0, 0.0, 0.0, 0.0, 0.0, 0.0, 0.0, 0.0, 0.0, 0.0, 0.0, 0.0, 0.0, 0.0, 0.0, 0.0, 0.0, 0.0, 0.0, 0.0, 0.0, 0.0, 0.0, 0.0, 0.0, 0.0, 0.0, 0.0, 0.0, 0.0, 0.0, 0.0, 0.0, 0.0, 0.0, 0.0, 0.0, 0.0, 0.0, 0.0, 0.0, 0.0, 0.0, 0.0, 0.0, 0.0, 0.0, 0.0, 0.0, 0.0, 0.0, 0.0, 0.0, 0.0, 0.0, 0.0, 0.0, 0.0, 0.0, 0.0, 0.0, 0.0, 0.0, 0.0, 0.0, 0.0, 0.0, 0.0, 0.0, 0.0, 0.0, 0.0, 0.0, 0.0, 0.0, 0.0, 0.0, 0.0, 0.0, 0.0, 0.0, 0.0, 0.0, 0.0, 0.0, 0.0, 0.0, 0.0, 0.0, 0.0, 0.0, 0.0, 0.0, 0.0, 0.0, 0.0, 0.0, 0.0, 0.0, 0.0, 0.0, 0.0, 0.0, 0.0, 0.0, 0.0, 0.0, 0.0, 0.0, 0.0, 0.0, 0.0, 0.0, 0.0, 0.0, 0.0, 0.0, 0.0, 0.0, 0.0, 0.0, 0.0, 0.0, 0.0, 0.0, 0.0, 0.0, 0.0, 0.0, 0.0, 0.0, 0.0, 0.0, 0.0, 0.0, 0.0, 0.0, 0.0, 0.0, 0.0, 0.0, 0.0, 0.0, 0.0, 0.0, 0.0, 0.0, 0.0, 0.0, 0.0, 0.0, 0.0, 0.0, 0.0, 0.0, 0.0, 0.0, 0.0, 0.0, 0.0, 0.0, 0.0, 0.0, 0.0, 0.0, 0.0, 0.0, 0.0, 0.0, 0.0, 0.0, 0.0, 0.0, 0.0, 0.0, 0.0, 0.0, 0.0, 0.0, 0.0, 0.0, 0.0, 0.0, 0.0, 0.0, 0.0, 0.0, 0.0, 0.0, 0.0, 0.0, 0.0, 0.0, 0.0, 0.0, 0.0, 0.0, 0.0, 0.0, 0.0, 0.0, 0.0, 0.0, 0.0, 0.0, 0.0, 0.0, 0.0, 0.0, 0.0, 0.0, 0.0, 0.0, 0.0, 0.0, 0.0, 0.0, 0.0, 0.0, 0.0, 0.0, 0.0, 0.0, 0.0, 0.0, 0.0, 0.0, 0.0, 0.0, 0.0, 0.0, 0.0, 0.0, 0.0, 0.0, 0.0, 0.0, 0.0, 0.0, 0.0, 0.0, 0.0, 0.0, 0.0, 0.0, 0.0, 0.0, 0.0, 0.0, 0.0, 0.0, 0.0, 0.0, 0.0, 0.0, 0.0, 0.0, 0.0, 0.0, 0.0, 0.0, 0.0, 0.0, 0.0, 0.0, 0.0, 0.0, 0.0, 0.0, 0.0, 0.0, 0.0, 0.0, 0.0, 0.0, 0.0, 0.0, 0.0, 0.0, 0.0, 0.0, 0.0, 0.0, 0.0, 0.0, 0.0, 0.0, 0.0, 0.0, 0.0, 0.0, 0.0, 0.0, 0.0, 0.0, 0.0, 0.0, 0.0, 0.0, 0.0, 0.0, 0.0, 0.0, 0.0, 0.0, 0.0, 0.0, 0.0, 0.0, 0.0, 0.0, 0.0, 0.0, 0.0, 0.0, 0.0, 0.0, 0.0, 0.0, 0.0, 0.0, 0.0, 0.0, 0.0, 0.0, 0.0, 0.0, 0.0, 0.0, 0.0, 0.0, 0.0, 0.0, 0.0, 0.0, 0.0, 0.0, 0.0, 0.0, 0.0, 0.0, 0.0, 0.0, 0.0, 0.0, 0.0, 0.0, 0.0, 0.0, 0.0, 0.0, 0.0, 0.0, 0.0, 0.0, 0.0, 0.0, 0.0, 0.0, 0.0, 0.0, 0.0, 0.0, 0.0, 0.0, 0.0, 0.0, 0.0, 0.0, 0.0, 0.0, 0.0, 0.0, 0.0, 0.0, 0.0, 0.0, 0.0, 0.0, 0.0, 0.0, 0.0, 0.0, 0.0, 0.0, 0.0, 0.0, 0.0, 0.0, 0.0, 0.0, 0.0, 0.0, 0.0, 0.0, 0.0, 0.0, 0.0, 0.0, 0.0, 0.0, 0.0, 0.0, 0.0, 0.0, 0.0, 0.0, 0.0, 0.0, 0.0, 0.0, 0.0, 0.0, 0.0, 0.0, 0.0, 0.0, 0.0, 0.0, 0.0, 0.0, 0.0, 0.0, 0.0, 0.0, 0.0, 0.0, 0.0, 0.0, 0.0, 0.0, 0.0, 0.0, 0.0, 0.0, 0.0, 0.0, 0.0, 0.0, 0.0, 0.0, 0.0, 0.0, 0.0, 0.0, 0.0, 0.0, 0.0, 0.0, 0.0, 0.0, 0.0, 0.0, 0.0, 0.0, 0.0, 0.0, 0.0, 0.0, 0.0, 0.0, 0.0, 0.0, 0.0, 0.0, 0.0, 0.0, 0.0, 0.0, 0.0, 0.0, 0.0, 0.0, 0.0, 0.0, 0.0, 0.0, 0.0, 0.0, 0.0, 0.0, 0.0, 0.0, 0.0, 0.0, 0.0, 0.0, 0.0, 0.0, 0.0, 0.0, 0.0, 0.0, 0.0, 0.0, 0.0, 0.0, 0.0, 0.0, 0.0, 0.0, 0.0, 0.0, 0.0, 0.0, 0.0, 0.0, 0.0, 0.0, 0.0, 0.0, 0.0, 0.0, 0.0, 0.0, 0.0, 0.0, 0.0, 0.0, 0.0, 0.0, 0.0, 0.0, 0.0, 0.0, 0.0, 0.0, 0.0, 0.0, 0.0, 0.0, 0.0, 0.0, 0.0, 0.0, 0.0, 0.0, 0.0, 0.0, 0.0, 0.0, 0.0, 0.0, 0.0, 0.0, 0.0, 0.0, 0.0, 0.0, 0.0, 0.0, 0.0, 0.0, 0.0, 0.0, 0.0, 0.0, 0.0, 0.0, 0.0, 0.0, 0.0, 0.0, 0.0, 0.0, 0.0, 0.0, 0.0, 0.0, 0.0, 0.0, 0.0, 0.0, 0.0, 0.0, 0.0, 0.0, 0.0, 0.0, 0.0, 0.0, 0.0, 0.0, 0.0, 0.0, 0.0, 0.0, 0.0, 0.0, 0.0, 0.0, 0.0, 0.0, 0.0, 0.0, 0.0],
  "Shots": 4096,
  "Size": 8,
  "Total Algorithm duration [s]": 8.276,
  "Total Classic duration [s]": 7.915196299744071,
  "Total Quantum duration [s]": 0.36080370025592856
}
