{
  "Circuit execution durations [ms]": [0.44365000212565064, 0.42320000648032874, 0.4299499996704981, 0.4209999897284433, 0.42145000770688057, 0.42634998681023717, 0.42019999818876386, 0.41205000889021903, 0.4225999873597175, 0.42209999810438603, 0.4150999884586781, 0.4226500022923574, 0.42300000495743006, 0.41495000186841935, 0.4069499991601333, 0.42224999924656004, 0.4210500046610832, 0.4149000014876947, 0.42335000762250274, 0.41495000186841935, 0.4302000015741214, 0.41310000233352184, 0.4215500084683299, 0.43045000347774476, 0.41375000728294253, 0.4191000043647364, 0.41909998981282115, 0.42984999890904874, 0.4202499985694885, 0.44129999878350645, 0.4107999993721023, 0.47164998250082135, 0.42195001151412725, 0.42979999852832407, 0.4284000024199486, 0.421949996962212, 0.4298999992897734, 0.42204999772366136, 0.42344999383203685, 0.41090000013355166, 0.40934998833108693, 0.4333499964559451, 0.4157999937888235, 0.421649994677864, 0.42129999201279134, 0.4199499962851405, 0.4209000035189092, 0.41444999806117266, 0.417799994465895, 0.41954999323934317, 0.4096500051673502, 0.4196499940007925, 0.4225499869789928, 0.42630000098142773, 0.43095000728499144, 0.411900007748045, 0.4130500019527972, 0.415000002249144, 0.421949996962212, 0.41885000246111304, 0.43230000301264226, 0.41605001024436206, 0.41599999531172216, 0.41405000956729054, 0.41355000576004386, 0.4206500016152859, 0.417349991039373, 0.41804999636951834, 0.4150500026298687, 0.41784999484661967, 0.41295000119134784, 0.41604999569244683, 0.4157999937888235, 0.41280000004917383, 0.42070000199601054, 0.42115000542253256, 0.41795001015998423, 0.4190500039840117, 0.42180001037195325, 0.45009999303147197, 0.4334499972173944, 0.41229999624192715, 0.4162499972153455, 0.4167000006418675, 0.4218500107526779, 0.4130000015720725, 0.41995001083705574, 0.4276000108802691, 0.4078499914612621, 0.417349991039373, 0.41700000292621553, 0.4184499994153157, 0.42135000694543123, 0.4452499997569248, 0.4208000027574599, 0.4200999974273145, 0.42735000897664577, 0.4322500026319176, 0.41319998854305595, 0.42645000212360173, 0.48454999341629446, 0.46039999870117754, 0.41745000635273755, 0.4304000030970201, 0.4249500052537769, 0.424899990321137, 0.4186000005574897, 0.4334999975981191, 0.46579999616369605, 0.4310999938752502, 0.418099996750243, 0.4271000070730224, 0.4194999928586185, 0.43539999751374125, 0.4206000012345612, 0.417199989897199, 0.43650000588968396, 0.41834999865386635, 0.420899988966994, 0.41915000474546105, 0.42464998841751367, 0.4157000075792894, 0.42910000775009394, 0.41819999751169235, 0.4345499910414219, 0.4258499975549057, 0.4619000101229176, 0.42240000038873404, 0.42004999704658985, 0.4324000037740916, 0.41885000246111304, 0.4121999954804778, 0.4091500013601035, 0.4619999963324517, 0.43390000064391643, 0.41554999188520014, 0.41290000081062317, 0.42019999818876386, 0.418249997892417, 0.42004999704658985, 0.42019999818876386, 0.42019999818876386, 0.4175999929429963, 0.4214000073261559, 0.41959999362006783, 0.4133500042371452, 0.4226000019116327, 0.414549998822622, 0.41640001290943474, 0.4181499971309677, 0.4212500061839819, 0.41074999899137765, 0.4581500106723979, 0.4250000056345016, 0.4305500042391941, 0.44129999878350645, 0.4191000043647364, 0.414549998822622, 0.42570001096464694, 0.41665000026114285, 0.4131500027142465, 0.41924999095499516, 0.42379999649710953, 0.4103499959455803, 0.4209000035189092, 0.4268000047886744, 0.4140999953961, 0.4165999998804182, 0.42485000449232757, 0.414249996538274, 0.4201499978080392, 0.42010001197922975, 0.41819999751169235, 0.41510000301059335, 0.4106000124011189, 0.4302000015741214, 0.41880000208038837, 0.4351499956101179, 0.39060000563040376, 0.3905000048689544, 0.4159499949309975, 0.421649994677864, 0.41944999247789383, 0.4288000054657459, 0.4197000089334324, 0.4165999998804182, 0.4350499948486686, 0.42159999429713935, 0.4252499929862097, 0.4277499974705279, 0.4191999905742705, 0.41510000301059335, 0.4293500096537173, 0.41710000368766487, 0.42055000085383654, 0.424899990321137, 0.4233999934513122, 0.42315000609960407, 0.41775000863708556, 0.42034999933093786, 0.4344999906606972, 0.41349999082740396, 0.47035001625772566, 0.42424999992363155, 0.4210500046610832, 0.4363999905763194, 0.5858999938936904, 0.454549997812137, 0.41554999188520014, 0.5672499974025413, 0.47015000018291175, 0.4189000028418377, 0.38285000482574105, 0.42505000601522624, 0.4236000095261261, 0.5481500120367855, 0.42129999201279134, 0.41880000208038837, 0.505649994011037, 0.4308499919716269, 0.47080000513233244, 0.42734999442473054, 0.41619999683462083, 0.4658999969251454, 0.4182999982731417, 0.4278499982319772, 0.5332000000635162, 0.420899988966994, 0.4243000003043562, 0.4288500058464706, 0.42735000897664577, 0.41310000233352184, 0.4253999941283837, 0.41870000131893903, 0.421049990109168, 0.41724999027792364, 0.42645000212360173, 0.42240000038873404, 0.4254000086802989, 0.42934999510180205, 0.4221499984851107, 0.42544999450910836, 0.4312999953981489, 0.4193499917164445, 0.4286500043235719, 0.4244500014465302, 0.4422000056365505, 0.40854999679140747, 0.42294999002479017, 0.41024999518413097, 0.4309999931138009, 0.41140000394079834, 0.4130500019527972, 0.42055000085383654, 0.4297499981475994, 0.43244998960290104, 0.41704998875502497, 0.418399999034591, 0.41295000119134784, 0.42770001164171845, 0.43500000901985914, 0.42755001049954444, 0.41680000140331686, 0.4286500043235719, 0.4228000034345314, 0.41199999395757914, 0.4282500012777746, 0.4106499982299283, 0.42749999556690454, 0.41865000093821436, 0.4170500033069402, 0.42135000694543123, 0.42490000487305224, 0.41819999751169235, 0.4138000076636672, 0.42010001197922975, 0.41965000855270773, 0.4204500000923872, 0.41969999438151717, 0.4255499952705577, 0.4227500030538067, 0.4164499987382442, 0.41849999979604036, 0.407600004109554, 0.41674998647067696, 0.42019999818876386, 0.4244500014465302, 0.4165499994996935, 0.42039999971166253, 0.41965000855270773, 0.4192000051261857, 0.424899990321137, 0.411600005463697, 0.42630000098142773, 0.4197999951429665, 0.4167500010225922, 0.4291499935789034, 0.41804999636951834, 0.4358000005595386, 0.42875000508502126, 0.4202999989502132, 0.5018000083509833, 0.43200000072829425, 0.42440000106580555, 0.41584999416954815, 0.4285500035621226, 0.46904999180696905, 0.4318999999668449, 0.41614999645389616, 0.4206500016152859, 0.4150500026298687, 0.42969999776687473, 0.4314499965403229, 0.4276999970898032, 0.4211000050418079, 0.4152999899815768, 0.41485000110697, 0.4157499934080988, 0.42389999725855887, 0.4308500065235421, 0.42174999543931335, 0.4229500045767054, 0.44025000534020364, 0.4158500087214634, 0.43360001291148365, 0.4159499949309975, 0.43060000461991876, 0.4352000105427578, 0.4339500010246411, 0.42424999992363155, 0.42514999222476035, 0.45089999912306666, 0.42640000174287707, 0.4462000069906935, 0.4141999961575493, 0.43569999979808927, 0.4164499987382442, 0.4141999961575493, 0.4135999915888533, 0.4275999963283539, 0.41105000127572566, 0.4175500071141869, 0.4249499907018617, 0.4236999957356602, 0.4173500055912882, 0.41525000415276736, 0.4271000070730224, 0.41340000461786985, 0.42055000085383654, 0.41635001252871007, 0.4469499981496483, 0.42039999971166253, 0.41849999979604036, 0.42224999924656004, 0.41700000292621553, 0.4255499952705577, 0.4137499927310273, 0.4270000063115731, 0.4270000063115731, 0.40865001210477203, 0.42145000770688057, 0.4130999877816066, 0.4192000051261857, 0.42315000609960407, 0.4134500049985945, 0.5045500147389248, 0.4266500036465004, 0.41429999691899866, 0.42255000153090805, 0.4130999877816066, 0.4193499917164445, 0.41444999806117266, 0.4164499987382442, 0.42019999818876386, 0.42144999315496534, 0.4114499897696078, 0.45659998431801796, 0.4119500081287697, 0.4174499918008223, 0.40615000762045383, 0.4176500078756362, 0.4334999975981191, 0.4187500016996637, 0.41090000013355166, 0.41870000131893903, 0.418550000176765, 0.4229500045767054, 0.4160999960731715, 0.42070000199601054, 0.4157499934080988, 0.4168500017840415, 0.41870000131893903, 0.42039999971166253, 0.411300003179349, 0.43559999903663993, 0.42729999404400587, 0.4232500068610534, 0.44389998947735876, 0.411300003179349, 0.4226000019116327, 0.4165499994996935, 0.42209999810438603, 0.4182999982731417, 0.41634999797679484, 0.5406500131357461, 0.4404500068631023, 0.535500017576851, 0.4193499917164445, 0.40704999992158264, 0.4122499958612025, 0.4207500023767352, 0.4133000038564205, 0.4291499935789034, 0.42034999933093786, 0.4276000108802691, 0.4247999895596877, 0.418550000176765, 0.4260499990778044, 0.4167500010225922, 0.4118999931961298, 0.43169999844394624, 0.41730000521056354, 0.4222999996272847, 0.4164499987382442, 0.42350000876467675, 0.4167000006418675, 0.4139500088058412, 0.42329999268986285, 0.41519998922012746, 0.4275999963283539, 0.41619999683462083, 0.4135000053793192, 0.42630000098142773, 0.4066499968757853, 0.51045001600869, 0.40905000059865415, 0.41804999636951834, 0.4639999970095232, 0.4290999931981787, 0.42640000174287707, 0.41774999408517033, 0.4215500084683299, 0.4141999961575493, 0.41184999281540513, 0.4149000014876947, 0.41614999645389616, 0.41449999844189733, 0.4254500090610236, 0.414699999964796, 0.4140999953961, 0.4209500038996339, 0.41540000529494137, 0.4158999945502728, 0.40920000174082816, 0.4117499920539558, 0.41874998714774847, 0.42794999899342656, 0.4191000043647364, 0.41364999196957797, 0.4209000035189092, 0.4206500016152859, 0.4324000037740916, 0.41340000461786985, 0.4220000118948519, 0.41390000842511654, 0.42529999336693436, 0.4191499901935458, 0.4170500033069402, 0.42544999450910836, 0.41539999074302614, 0.44410000555217266, 0.41704998875502497, 0.4190500039840117, 0.4327000060584396, 0.41634999797679484, 0.4275999963283539, 0.424749989178963, 0.41349999082740396, 0.4165499994996935, 0.41384999349247664, 0.41200000850949436, 0.41799999598879367, 0.4169000021647662, 0.42124999163206667, 0.448350008809939, 0.4181499971309677, 0.42300000495743006, 0.42204999772366136, 0.4279000131646171, 0.41700000292621553, 0.4160000098636374, 0.41074999899137765, 0.4091500013601035, 0.4284000024199486, 0.41870000131893903, 0.41930000588763505, 0.4343999898992479, 0.4088499990757555, 0.461499992525205, 0.41355000576004386, 0.42034999933093786, 0.41769999370444566, 0.43060000461991876, 0.418550000176765, 0.4217500099912286, 0.4171499895164743, 0.41725000482983887, 0.4227500030538067, 0.4169000021647662, 0.41959999362006783, 0.4189000028418377, 0.49935000424738973, 0.41930000588763505, 0.4236999957356602, 0.41789999522734433, 0.5760499916505069, 0.4231000057188794, 0.4200500115985051, 0.55929999507498, 0.44195000373292714, 0.4231000057188794, 0.5841999955009669, 0.410699998610653, 0.47045000246725976, 0.4165999998804182, 0.41834999865386635, 0.47545001143589616, 0.43295000796206295, 0.3979500033892691, 0.41799999598879367, 0.4199499962851405, 0.5508999893208966, 0.4226000019116327, 0.417349991039373, 0.5742500070482492, 0.4957000055583194, 0.41340000461786985, 0.5905499856453389, 0.4288500058464706, 0.41355000576004386, 0.413799993111752, 0.41614999645389616, 0.4164499987382442, 0.418550000176765, 0.4224500007694587, 0.415000002249144, 0.42050000047311187, 0.4170500033069402, 0.41865000093821436, 0.43200000072829425, 0.43585000094026327, 0.41969999438151717, 0.41074999899137765, 0.4168500017840415, 0.4161500110058114, 0.41355000576004386, 0.4158000083407387, 0.42004999704658985, 0.4199999966658652, 0.4175000067334622, 0.41280000004917383, 0.4216000088490546, 0.4161500110058114, 0.4147999861743301, 0.42189999658148736, 0.415000002249144, 0.4187500016996637, 0.41599999531172216, 0.41569999302737415, 0.41769999370444566, 0.41149999015033245, 0.424599988036789, 0.41974999476224184, 0.41464999958407134, 0.41364999196957797, 0.4168499872321263, 0.4228000034345314, 0.4169000021647662, 0.4226500022923574, 0.41280000004917383, 0.41340000461786985, 0.44430000707507133, 0.4101999948034063, 0.4187500016996637, 0.4294499958632514, 0.42979999852832407, 0.4241999995429069, 0.41545000567566603, 0.4140499950153753, 0.4212000058032572, 0.4224500007694587, 0.4256000102031976, 0.4126499989069998, 0.4143499972997233, 0.4202499985694885, 0.4129999870201573, 0.4156500071985647, 0.42219999886583537, 0.4202999989502132, 0.42335000762250274, 0.40940000326372683, 0.41584999416954815, 0.42219999886583537, 0.4235499945934862, 0.42305000533815473, 0.41680000140331686, 0.4167500010225922, 0.43400000140536577, 0.415150003391318, 0.5496499943546951, 0.4427999956533313, 0.4197999951429665, 0.4228999896440655, 0.42144999315496534, 0.41480000072624534, 0.41604999569244683, 0.41510000301059335, 0.4165499994996935, 0.4113500035600737, 0.417799994465895, 0.42609999945852906, 0.41789999522734433, 0.43080000614281744, 0.41599999531172216, 0.43060000461991876, 0.4361500032246113, 0.4134500049985945, 0.4143499972997233, 0.41140000394079834, 0.4378000012366101, 0.41495000186841935, 0.40800000715535134, 0.4293999954825267, 0.4172000044491142, 0.42034999933093786, 0.4258999979356304, 0.417349991039373, 0.4238499968778342, 0.41819999751169235, 0.43590000132098794, 0.4168500017840415, 0.4236499953549355, 0.41700000292621553, 0.4295999970054254, 0.4167500010225922, 0.41030001011677086, 0.41629999759607017, 0.4122500104131177, 0.43620000360533595, 0.41605001024436206, 0.4164499987382442, 0.42874999053310603, 0.4116999916732311, 0.4209500038996339, 0.4270000063115731, 0.41805001092143357, 0.42594999831635505, 0.41915000474546105, 0.41694998799357563, 0.415000002249144, 0.4201500123599544, 0.44049999269191176, 0.4225000011501834, 0.41959999362006783, 0.4254500090610236, 0.4157999937888235, 0.42284998926334083, 0.41790000977925956, 0.41524998960085213, 0.415000002249144, 0.425349993747659, 0.41605001024436206, 0.41444999806117266, 0.41545000567566603, 0.42440000106580555, 0.41769999370444566, 0.42625000060070306, 0.40859999717213213, 0.4209500038996339, 0.4158000083407387, 0.41804999636951834, 0.41290000081062317, 0.421949996962212, 0.421799995820038, 0.4223500000080094, 0.4314499965403229, 0.42219999886583537, 0.4189500032225624, 0.4151499888394028, 0.42735000897664577, 0.42860000394284725, 0.4155999922659248, 0.4297499981475994, 0.4202999989502132, 0.41954999323934317, 0.4369000089354813, 0.41760000749491155, 0.4202499985694885, 0.42159999429713935, 0.42050000047311187, 0.41504998807795346, 0.4120499943383038, 0.41295000119134784, 0.4161500110058114, 0.4192999913357198, 0.436950009316206, 0.4210500046610832, 0.42729999404400587, 0.43665000703185797, 0.4122499958612025, 0.42344999383203685, 0.4232500068610534, 0.42129999201279134, 0.42074998782482, 0.42034999933093786, 0.5546000029426068, 0.42460000258870423, 0.42315000609960407, 0.42645000212360173, 0.4192000051261857, 0.49414999375585467, 0.417799994465895, 0.43870000808965415, 0.4302500019548461, 0.4256999964127317, 0.41584999416954815, 0.43415000254753977, 0.41694998799357563, 0.4326999915065244, 0.4320500011090189, 0.42555000982247293, 0.42189999658148736, 0.41810001130215824, 0.4165999998804182, 0.42869999015238136, 0.418099996750243, 0.4315000114729628, 0.4202999989502132, 0.42284998926334083, 0.42255000153090805, 0.41604999569244683, 0.43909999658353627, 0.4670999915106222, 0.4259999986970797, 0.41310000233352184, 0.41414999577682465, 0.41384999349247664, 0.4209000035189092, 0.4137499927310273, 0.42284998926334083, 0.41384999349247664, 0.4228999896440655, 0.43319999531377107, 0.43095000728499144, 0.42219999886583537, 0.41459999920334667, 0.4102000093553215, 0.41619999683462083, 0.4159499949309975, 0.414549998822622, 0.4271000070730224, 0.41825001244433224, 0.41900000360328704, 0.4274500097380951, 0.43679999362211674, 0.42549999488983303, 0.41959999362006783, 0.42019999818876386, 0.42070000199601054, 0.4106499982299283, 0.4268500051693991, 0.42374999611638486, 0.415000002249144, 0.41745000635273755, 0.4206000012345612, 0.42719999328255653, 0.41464999958407134, 0.4307000053813681, 0.4090499860467389, 0.4262000002199784, 0.41715000406838953, 0.42779999785125256, 0.4266500036465004, 0.4211000050418079, 0.4173500055912882, 0.42594999831635505, 0.42984999890904874, 0.4229500045767054, 0.4378500016173348, 0.4245000018272549, 0.41259999852627516, 0.43139999615959823, 0.41485000110697, 0.4312499950174242, 0.421799995820038, 0.42224999924656004, 0.4140999953961, 0.4129499866394326, 0.4234000080032274, 0.4204500000923872, 0.41480000072624534, 0.4334999975981191, 0.4141999961575493, 0.4167000006418675, 0.4227500030538067, 0.42055000085383654, 0.4263500013621524, 0.40920000174082816, 0.418399999034591, 0.41495000186841935, 0.42320000648032874, 0.4192000051261857, 0.4226000019116327, 0.41584999416954815, 0.41974999476224184, 0.4202000127406791, 0.4178000090178102, 0.41775000863708556, 0.41989999590441585, 0.4707999905804172, 0.4092500021215528, 0.41799999598879367, 0.414249996538274, 0.5530000053113326, 0.4096500051673502, 0.4175000067334622, 0.5236500146565959, 0.4334499972173944, 0.4175999929429963, 0.500299982377328, 0.417499992181547, 0.47459999041166157, 0.41459999920334667, 0.4243000003043562, 0.4710999928647652, 0.41789999522734433, 0.545499991858378, 0.41110000165645033, 0.4791999963345006, 0.4273000085959211, 0.4159499949309975, 0.4728499916382134, 0.43480000749696046, 0.4031999997096136, 0.5286000086925924, 0.41774999408517033, 0.41730000521056354],
  "Depth": 18.5,
  "Expectation Value": -9.698507308959961,
  "Optimal Expectation Value": -9.83795166015625,
  "Optimizer durations [ms]": [9.566, 9.547, 9.706, 9.13, 9.823, 9.494, 9.433, 8.954, 9.486, 9.395, 9.263, 9.721, 9.346, 9.219, 9.419, 9.131, 9.505, 9.617, 9.382, 9.114, 9.3, 9.445, 9.261, 9.592, 9.404, 9.083, 9.586, 9.786, 9.357, 9.652, 9.484, 10.062, 9.308, 9.551, 9.615, 9.529, 9.629, 9.384, 9.477, 9.431, 8.947, 9.718, 9.336, 9.51, 9.463, 9.382, 9.329, 9.591, 9.532, 9.342, 9.305, 9.481, 9.536, 9.615, 9.396, 9.546, 9.354, 9.115, 9.568, 9.171, 9.589, 9.261, 9.598, 9.126, 9.542, 9.335, 9.313, 9.594, 9.374, 9.329, 9.138, 9.41, 9.478, 9.395, 9.201, 9.368, 9.506, 9.434, 9.359, 9.56, 9.609, 9.438, 9.354, 9.138, 9.351, 9.446, 9.203, 9.712, 9.059, 9.373, 9.391, 9.526, 9.448, 9.753, 9.63, 9.231, 9.843, 9.487, 9.092, 9.422, 10.886, 26.839, 9.435, 9.596, 9.757, 9.616, 9.325, 9.705, 10.27, 9.621, 9.498, 9.535, 9.252, 9.718, 9.531, 9.133, 9.754, 9.715, 9.44, 9.45, 9.97, 9.155, 9.821, 9.318, 9.695, 9.263, 10.285, 9.305, 9.268, 9.58, 9.529, 9.308, 9.286, 11.431, 9.287, 9.432, 9.26, 9.45, 9.398, 9.578, 9.188, 9.434, 9.271, 9.571, 9.549, 9.413, 9.351, 9.438, 9.41, 9.305, 9.713, 9.273, 10.036, 9.245, 9.658, 9.752, 9.496, 9.475, 9.644, 9.219, 9.218, 9.455, 9.612, 9.407, 9.245, 9.761, 9.24, 9.443, 9.742, 9.313, 9.382, 9.563, 9.137, 9.301, 9.249, 9.737, 9.13, 17.747, 22.708, 24.556, 9.442, 9.374, 9.312, 9.901, 9.186, 9.338, 10.561, 9.357, 9.698, 9.575, 9.234, 9.107, 9.679, 9.442, 9.368, 9.825, 9.554, 9.358, 9.396, 9.158, 9.632, 9.772, 10.18, 9.481, 17.568, 9.847, 12.279, 10.099, 9.277, 12.518, 9.901, 9.622, 24.565, 9.477, 9.636, 11.653, 9.34, 9.343, 10.786, 19.309, 10.174, 9.28, 12.651, 10.396, 9.383, 24.697, 11.91, 9.671, 13.805, 9.731, 9.35, 9.279, 9.592, 9.643, 9.413, 9.219, 9.381, 9.542, 9.277, 9.607, 9.669, 9.42, 9.589, 9.241, 9.763, 9.455, 9.865, 8.977, 9.606, 8.938, 9.625, 9.397, 9.087, 9.444, 9.62, 9.651, 9.247, 9.384, 9.239, 9.671, 9.443, 9.685, 9.038, 9.762, 9.502, 9.228, 9.635, 9.022, 9.584, 9.675, 9.242, 9.448, 9.258, 9.669, 9.045, 9.488, 9.613, 9.455, 9.344, 9.349, 9.685, 9.066, 9.352, 9.308, 9.316, 9.416, 9.292, 9.59, 9.244, 9.439, 9.492, 9.483, 9.106, 9.745, 9.57, 9.172, 9.885, 9.227, 9.821, 9.608, 24.47, 10.985, 9.501, 9.513, 9.194, 9.735, 10.227, 9.617, 9.577, 9.397, 9.138, 9.585, 9.338, 9.598, 9.288, 9.27, 9.13, 9.521, 9.482, 9.345, 9.522, 9.281, 10.024, 9.293, 9.626, 9.501, 9.377, 10.004, 9.536, 9.332, 9.553, 10.163, 9.628, 9.798, 9.36, 9.771, 9.441, 9.231, 9.039, 9.82, 9.093, 9.512, 9.46, 9.548, 9.37, 9.12, 9.689, 9.382, 9.422, 9.469, 10.066, 9.317, 9.434, 9.541, 9.315, 9.379, 9.104, 9.558, 9.565, 9.138, 9.385, 9.345, 9.345, 9.457, 9.357, 10.976, 9.378, 9.277, 9.489, 9.5, 9.212, 9.254, 9.455, 9.362, 9.33, 9.438, 9.817, 9.327, 9.442, 9.058, 9.249, 9.788, 9.312, 9.18, 9.564, 9.312, 9.456, 9.434, 9.23, 9.709, 9.286, 9.356, 9.162, 9.297, 9.95, 9.585, 9.548, 9.861, 9.113, 9.476, 9.388, 9.45, 9.521, 9.039, 11.876, 19.681, 11.854, 9.519, 8.946, 9.161, 9.717, 9.2, 9.805, 9.408, 9.47, 9.535, 9.522, 9.618, 9.527, 9.217, 9.586, 9.447, 9.435, 9.157, 9.696, 9.235, 9.431, 9.511, 9.251, 9.595, 9.38, 9.241, 9.735, 8.922, 11.311, 9.153, 9.462, 10.109, 9.537, 9.404, 9.633, 9.347, 9.155, 9.397, 9.148, 9.48, 9.116, 9.398, 9.377, 9.373, 9.211, 9.312, 9.451, 9.268, 9.36, 9.337, 9.571, 9.376, 9.483, 9.441, 9.323, 9.636, 9.345, 9.225, 9.596, 9.38, 9.414, 9.365, 9.675, 9.041, 9.654, 9.541, 9.25, 9.603, 9.146, 9.568, 9.243, 9.288, 9.43, 9.234, 9.339, 9.344, 9.084, 9.351, 9.79, 9.442, 9.469, 9.304, 9.689, 9.321, 9.462, 9.215, 9.086, 9.394, 9.679, 9.152, 9.596, 9.474, 9.867, 9.271, 9.29, 9.4, 9.825, 9.172, 9.859, 9.325, 9.489, 9.444, 9.455, 9.594, 9.248, 10.846, 9.475, 17.009, 9.389, 12.01, 9.6, 9.714, 11.928, 9.534, 9.57, 12.81, 16.464, 10.188, 9.295, 11.12, 10.157, 9.481, 24.836, 9.273, 9.391, 11.862, 9.406, 9.618, 12.448, 26.077, 9.306, 12.672, 9.814, 9.181, 9.385, 9.497, 9.347, 9.529, 9.583, 9.412, 9.354, 9.441, 9.274, 9.821, 9.753, 9.409, 9.292, 9.231, 9.251, 9.246, 9.569, 9.435, 9.431, 9.459, 9.285, 9.222, 9.685, 9.427, 9.227, 9.471, 9.25, 9.405, 9.372, 9.275, 9.47, 9.563, 9.412, 9.251, 9.286, 9.11, 9.604, 9.384, 9.547, 9.31, 9.1, 9.754, 9.444, 9.517, 9.501, 9.493, 9.483, 9.281, 9.554, 9.428, 9.658, 9.561, 9.638, 8.971, 9.636, 9.475, 9.313, 9.279, 9.452, 9.56, 8.946, 9.584, 9.39, 9.747, 9.588, 9.358, 9.423, 9.736, 9.22, 12.058, 22.515, 9.721, 9.703, 9.193, 9.579, 9.048, 9.484, 9.451, 9.309, 9.317, 9.505, 9.223, 9.443, 9.251, 9.667, 9.708, 9.396, 9.174, 9.303, 9.57, 9.518, 8.929, 9.485, 9.557, 9.207, 9.615, 9.37, 9.637, 9.119, 9.728, 9.516, 9.516, 13.922, 9.988, 9.256, 9.215, 9.572, 8.912, 9.473, 9.492, 9.178, 9.75, 9.223, 9.289, 9.413, 9.676, 9.387, 9.532, 9.395, 9.216, 9.55, 9.78, 9.453, 9.463, 9.493, 9.317, 9.535, 9.503, 9.135, 9.378, 9.449, 9.344, 9.49, 9.342, 9.553, 9.329, 9.384, 9.453, 9.512, 9.23, 9.386, 9.331, 9.416, 9.43, 9.581, 9.596, 9.509, 9.172, 9.767, 9.43, 9.754, 9.363, 9.54, 9.396, 9.315, 9.373, 9.37, 9.437, 9.551, 9.42, 9.158, 9.147, 9.366, 9.603, 9.34, 9.636, 9.416, 9.398, 9.564, 9.571, 9.596, 9.557, 9.496, 9.487, 19.441, 16.237, 9.341, 9.636, 9.33, 9.628, 10.798, 9.085, 10.075, 9.601, 9.334, 9.621, 9.697, 9.054, 9.901, 9.613, 9.553, 9.529, 9.377, 9.078, 9.742, 9.344, 9.646, 9.474, 9.421, 9.296, 9.618, 9.841, 10.178, 9.715, 9.334, 9.243, 14.559, 9.655, 9.168, 9.614, 9.372, 9.171, 9.696, 9.96, 9.262, 9.342, 9.163, 9.389, 9.442, 9.226, 9.571, 9.36, 9.344, 9.374, 9.828, 9.494, 9.252, 9.574, 9.147, 9.634, 9.287, 9.714, 9.306, 9.276, 9.46, 9.546, 9.109, 9.678, 9.483, 9.272, 9.608, 9.589, 9.321, 9.63, 9.178, 9.35, 9.947, 9.222, 9.578, 9.615, 9.409, 9.69, 9.026, 9.619, 9.64, 9.349, 9.297, 9.204, 9.491, 9.495, 9.191, 9.706, 9.168, 9.175, 9.606, 9.445, 9.243, 9.26, 9.71, 9.23, 9.32, 9.631, 9.265, 9.284, 9.417, 9.483, 9.363, 9.321, 12.138, 10.113, 9.761, 16.441, 9.524, 11.768, 9.202, 9.541, 11.351, 9.735, 9.192, 10.861, 20.687, 10.444, 9.404, 10.71, 9.938, 9.546, 19.162, 9.025, 10.706, 9.743, 9.158, 10.277, 9.813, 23.712, 11.841, 9.488, 14.815],
  "Optimizer iterations": 847,
  "Optimizer params": [0.5668961963711907, 0.9468237253984648, 0.5486604439984156, 0.9570805173051511, 0.46675454786204795, 0.9602917506724576, 0.5415386149005148, 0.5163140731092825, 0.9932626682562796, 0.6100279279724425, 0.9528984310099996, 0.4955030660491605, 0.5786094235837314, 0.4019238035510885, 0.16402538777696257, 0.1515385588990872, 0.5296598487627908, 0.43842382047197853, 0.4048894325304076, 0.6119436030569914, 0.6202291902483786, 0.3745366532501725, 0.39597940648977376, 0.9495324576219892, 0.5980836374365679, 0.9167380655207501, 0.9742004205933126, 0.49651430930112533, 0.5013738200125452, 0.0018600907507384554, 0.06637523691957053, 0.9888769881471385],
  "P": 0,
  "Problem": "IC",
  "QJob durations [ms]": [0.44365000212565064, 0.42320000648032874, 0.4299499996704981, 0.4209999897284433, 0.42145000770688057, 0.42634998681023717, 0.42019999818876386, 0.41205000889021903, 0.4225999873597175, 0.42209999810438603, 0.4150999884586781, 0.4226500022923574, 0.42300000495743006, 0.41495000186841935, 0.4069499991601333, 0.42224999924656004, 0.4210500046610832, 0.4149000014876947, 0.42335000762250274, 0.41495000186841935, 0.4302000015741214, 0.41310000233352184, 0.4215500084683299, 0.43045000347774476, 0.41375000728294253, 0.4191000043647364, 0.41909998981282115, 0.42984999890904874, 0.4202499985694885, 0.44129999878350645, 0.4107999993721023, 0.47164998250082135, 0.42195001151412725, 0.42979999852832407, 0.4284000024199486, 0.421949996962212, 0.4298999992897734, 0.42204999772366136, 0.42344999383203685, 0.41090000013355166, 0.40934998833108693, 0.4333499964559451, 0.4157999937888235, 0.421649994677864, 0.42129999201279134, 0.4199499962851405, 0.4209000035189092, 0.41444999806117266, 0.417799994465895, 0.41954999323934317, 0.4096500051673502, 0.4196499940007925, 0.4225499869789928, 0.42630000098142773, 0.43095000728499144, 0.411900007748045, 0.4130500019527972, 0.415000002249144, 0.421949996962212, 0.41885000246111304, 0.43230000301264226, 0.41605001024436206, 0.41599999531172216, 0.41405000956729054, 0.41355000576004386, 0.4206500016152859, 0.417349991039373, 0.41804999636951834, 0.4150500026298687, 0.41784999484661967, 0.41295000119134784, 0.41604999569244683, 0.4157999937888235, 0.41280000004917383, 0.42070000199601054, 0.42115000542253256, 0.41795001015998423, 0.4190500039840117, 0.42180001037195325, 0.45009999303147197, 0.4334499972173944, 0.41229999624192715, 0.4162499972153455, 0.4167000006418675, 0.4218500107526779, 0.4130000015720725, 0.41995001083705574, 0.4276000108802691, 0.4078499914612621, 0.417349991039373, 0.41700000292621553, 0.4184499994153157, 0.42135000694543123, 0.4452499997569248, 0.4208000027574599, 0.4200999974273145, 0.42735000897664577, 0.4322500026319176, 0.41319998854305595, 0.42645000212360173, 0.48454999341629446, 0.46039999870117754, 0.41745000635273755, 0.4304000030970201, 0.4249500052537769, 0.424899990321137, 0.4186000005574897, 0.4334999975981191, 0.46579999616369605, 0.4310999938752502, 0.418099996750243, 0.4271000070730224, 0.4194999928586185, 0.43539999751374125, 0.4206000012345612, 0.417199989897199, 0.43650000588968396, 0.41834999865386635, 0.420899988966994, 0.41915000474546105, 0.42464998841751367, 0.4157000075792894, 0.42910000775009394, 0.41819999751169235, 0.4345499910414219, 0.4258499975549057, 0.4619000101229176, 0.42240000038873404, 0.42004999704658985, 0.4324000037740916, 0.41885000246111304, 0.4121999954804778, 0.4091500013601035, 0.4619999963324517, 0.43390000064391643, 0.41554999188520014, 0.41290000081062317, 0.42019999818876386, 0.418249997892417, 0.42004999704658985, 0.42019999818876386, 0.42019999818876386, 0.4175999929429963, 0.4214000073261559, 0.41959999362006783, 0.4133500042371452, 0.4226000019116327, 0.414549998822622, 0.41640001290943474, 0.4181499971309677, 0.4212500061839819, 0.41074999899137765, 0.4581500106723979, 0.4250000056345016, 0.4305500042391941, 0.44129999878350645, 0.4191000043647364, 0.414549998822622, 0.42570001096464694, 0.41665000026114285, 0.4131500027142465, 0.41924999095499516, 0.42379999649710953, 0.4103499959455803, 0.4209000035189092, 0.4268000047886744, 0.4140999953961, 0.4165999998804182, 0.42485000449232757, 0.414249996538274, 0.4201499978080392, 0.42010001197922975, 0.41819999751169235, 0.41510000301059335, 0.4106000124011189, 0.4302000015741214, 0.41880000208038837, 0.4351499956101179, 0.39060000563040376, 0.3905000048689544, 0.4159499949309975, 0.421649994677864, 0.41944999247789383, 0.4288000054657459, 0.4197000089334324, 0.4165999998804182, 0.4350499948486686, 0.42159999429713935, 0.4252499929862097, 0.4277499974705279, 0.4191999905742705, 0.41510000301059335, 0.4293500096537173, 0.41710000368766487, 0.42055000085383654, 0.424899990321137, 0.4233999934513122, 0.42315000609960407, 0.41775000863708556, 0.42034999933093786, 0.4344999906606972, 0.41349999082740396, 0.47035001625772566, 0.42424999992363155, 0.4210500046610832, 0.4363999905763194, 0.5858999938936904, 0.454549997812137, 0.41554999188520014, 0.5672499974025413, 0.47015000018291175, 0.4189000028418377, 0.38285000482574105, 0.42505000601522624, 0.4236000095261261, 0.5481500120367855, 0.42129999201279134, 0.41880000208038837, 0.505649994011037, 0.4308499919716269, 0.47080000513233244, 0.42734999442473054, 0.41619999683462083, 0.4658999969251454, 0.4182999982731417, 0.4278499982319772, 0.5332000000635162, 0.420899988966994, 0.4243000003043562, 0.4288500058464706, 0.42735000897664577, 0.41310000233352184, 0.4253999941283837, 0.41870000131893903, 0.421049990109168, 0.41724999027792364, 0.42645000212360173, 0.42240000038873404, 0.4254000086802989, 0.42934999510180205, 0.4221499984851107, 0.42544999450910836, 0.4312999953981489, 0.4193499917164445, 0.4286500043235719, 0.4244500014465302, 0.4422000056365505, 0.40854999679140747, 0.42294999002479017, 0.41024999518413097, 0.4309999931138009, 0.41140000394079834, 0.4130500019527972, 0.42055000085383654, 0.4297499981475994, 0.43244998960290104, 0.41704998875502497, 0.418399999034591, 0.41295000119134784, 0.42770001164171845, 0.43500000901985914, 0.42755001049954444, 0.41680000140331686, 0.4286500043235719, 0.4228000034345314, 0.41199999395757914, 0.4282500012777746, 0.4106499982299283, 0.42749999556690454, 0.41865000093821436, 0.4170500033069402, 0.42135000694543123, 0.42490000487305224, 0.41819999751169235, 0.4138000076636672, 0.42010001197922975, 0.41965000855270773, 0.4204500000923872, 0.41969999438151717, 0.4255499952705577, 0.4227500030538067, 0.4164499987382442, 0.41849999979604036, 0.407600004109554, 0.41674998647067696, 0.42019999818876386, 0.4244500014465302, 0.4165499994996935, 0.42039999971166253, 0.41965000855270773, 0.4192000051261857, 0.424899990321137, 0.411600005463697, 0.42630000098142773, 0.4197999951429665, 0.4167500010225922, 0.4291499935789034, 0.41804999636951834, 0.4358000005595386, 0.42875000508502126, 0.4202999989502132, 0.5018000083509833, 0.43200000072829425, 0.42440000106580555, 0.41584999416954815, 0.4285500035621226, 0.46904999180696905, 0.4318999999668449, 0.41614999645389616, 0.4206500016152859, 0.4150500026298687, 0.42969999776687473, 0.4314499965403229, 0.4276999970898032, 0.4211000050418079, 0.4152999899815768, 0.41485000110697, 0.4157499934080988, 0.42389999725855887, 0.4308500065235421, 0.42174999543931335, 0.4229500045767054, 0.44025000534020364, 0.4158500087214634, 0.43360001291148365, 0.4159499949309975, 0.43060000461991876, 0.4352000105427578, 0.4339500010246411, 0.42424999992363155, 0.42514999222476035, 0.45089999912306666, 0.42640000174287707, 0.4462000069906935, 0.4141999961575493, 0.43569999979808927, 0.4164499987382442, 0.4141999961575493, 0.4135999915888533, 0.4275999963283539, 0.41105000127572566, 0.4175500071141869, 0.4249499907018617, 0.4236999957356602, 0.4173500055912882, 0.41525000415276736, 0.4271000070730224, 0.41340000461786985, 0.42055000085383654, 0.41635001252871007, 0.4469499981496483, 0.42039999971166253, 0.41849999979604036, 0.42224999924656004, 0.41700000292621553, 0.4255499952705577, 0.4137499927310273, 0.4270000063115731, 0.4270000063115731, 0.40865001210477203, 0.42145000770688057, 0.4130999877816066, 0.4192000051261857, 0.42315000609960407, 0.4134500049985945, 0.5045500147389248, 0.4266500036465004, 0.41429999691899866, 0.42255000153090805, 0.4130999877816066, 0.4193499917164445, 0.41444999806117266, 0.4164499987382442, 0.42019999818876386, 0.42144999315496534, 0.4114499897696078, 0.45659998431801796, 0.4119500081287697, 0.4174499918008223, 0.40615000762045383, 0.4176500078756362, 0.4334999975981191, 0.4187500016996637, 0.41090000013355166, 0.41870000131893903, 0.418550000176765, 0.4229500045767054, 0.4160999960731715, 0.42070000199601054, 0.4157499934080988, 0.4168500017840415, 0.41870000131893903, 0.42039999971166253, 0.411300003179349, 0.43559999903663993, 0.42729999404400587, 0.4232500068610534, 0.44389998947735876, 0.411300003179349, 0.4226000019116327, 0.4165499994996935, 0.42209999810438603, 0.4182999982731417, 0.41634999797679484, 0.5406500131357461, 0.4404500068631023, 0.535500017576851, 0.4193499917164445, 0.40704999992158264, 0.4122499958612025, 0.4207500023767352, 0.4133000038564205, 0.4291499935789034, 0.42034999933093786, 0.4276000108802691, 0.4247999895596877, 0.418550000176765, 0.4260499990778044, 0.4167500010225922, 0.4118999931961298, 0.43169999844394624, 0.41730000521056354, 0.4222999996272847, 0.4164499987382442, 0.42350000876467675, 0.4167000006418675, 0.4139500088058412, 0.42329999268986285, 0.41519998922012746, 0.4275999963283539, 0.41619999683462083, 0.4135000053793192, 0.42630000098142773, 0.4066499968757853, 0.51045001600869, 0.40905000059865415, 0.41804999636951834, 0.4639999970095232, 0.4290999931981787, 0.42640000174287707, 0.41774999408517033, 0.4215500084683299, 0.4141999961575493, 0.41184999281540513, 0.4149000014876947, 0.41614999645389616, 0.41449999844189733, 0.4254500090610236, 0.414699999964796, 0.4140999953961, 0.4209500038996339, 0.41540000529494137, 0.4158999945502728, 0.40920000174082816, 0.4117499920539558, 0.41874998714774847, 0.42794999899342656, 0.4191000043647364, 0.41364999196957797, 0.4209000035189092, 0.4206500016152859, 0.4324000037740916, 0.41340000461786985, 0.4220000118948519, 0.41390000842511654, 0.42529999336693436, 0.4191499901935458, 0.4170500033069402, 0.42544999450910836, 0.41539999074302614, 0.44410000555217266, 0.41704998875502497, 0.4190500039840117, 0.4327000060584396, 0.41634999797679484, 0.4275999963283539, 0.424749989178963, 0.41349999082740396, 0.4165499994996935, 0.41384999349247664, 0.41200000850949436, 0.41799999598879367, 0.4169000021647662, 0.42124999163206667, 0.448350008809939, 0.4181499971309677, 0.42300000495743006, 0.42204999772366136, 0.4279000131646171, 0.41700000292621553, 0.4160000098636374, 0.41074999899137765, 0.4091500013601035, 0.4284000024199486, 0.41870000131893903, 0.41930000588763505, 0.4343999898992479, 0.4088499990757555, 0.461499992525205, 0.41355000576004386, 0.42034999933093786, 0.41769999370444566, 0.43060000461991876, 0.418550000176765, 0.4217500099912286, 0.4171499895164743, 0.41725000482983887, 0.4227500030538067, 0.4169000021647662, 0.41959999362006783, 0.4189000028418377, 0.49935000424738973, 0.41930000588763505, 0.4236999957356602, 0.41789999522734433, 0.5760499916505069, 0.4231000057188794, 0.4200500115985051, 0.55929999507498, 0.44195000373292714, 0.4231000057188794, 0.5841999955009669, 0.410699998610653, 0.47045000246725976, 0.4165999998804182, 0.41834999865386635, 0.47545001143589616, 0.43295000796206295, 0.3979500033892691, 0.41799999598879367, 0.4199499962851405, 0.5508999893208966, 0.4226000019116327, 0.417349991039373, 0.5742500070482492, 0.4957000055583194, 0.41340000461786985, 0.5905499856453389, 0.4288500058464706, 0.41355000576004386, 0.413799993111752, 0.41614999645389616, 0.4164499987382442, 0.418550000176765, 0.4224500007694587, 0.415000002249144, 0.42050000047311187, 0.4170500033069402, 0.41865000093821436, 0.43200000072829425, 0.43585000094026327, 0.41969999438151717, 0.41074999899137765, 0.4168500017840415, 0.4161500110058114, 0.41355000576004386, 0.4158000083407387, 0.42004999704658985, 0.4199999966658652, 0.4175000067334622, 0.41280000004917383, 0.4216000088490546, 0.4161500110058114, 0.4147999861743301, 0.42189999658148736, 0.415000002249144, 0.4187500016996637, 0.41599999531172216, 0.41569999302737415, 0.41769999370444566, 0.41149999015033245, 0.424599988036789, 0.41974999476224184, 0.41464999958407134, 0.41364999196957797, 0.4168499872321263, 0.4228000034345314, 0.4169000021647662, 0.4226500022923574, 0.41280000004917383, 0.41340000461786985, 0.44430000707507133, 0.4101999948034063, 0.4187500016996637, 0.4294499958632514, 0.42979999852832407, 0.4241999995429069, 0.41545000567566603, 0.4140499950153753, 0.4212000058032572, 0.4224500007694587, 0.4256000102031976, 0.4126499989069998, 0.4143499972997233, 0.4202499985694885, 0.4129999870201573, 0.4156500071985647, 0.42219999886583537, 0.4202999989502132, 0.42335000762250274, 0.40940000326372683, 0.41584999416954815, 0.42219999886583537, 0.4235499945934862, 0.42305000533815473, 0.41680000140331686, 0.4167500010225922, 0.43400000140536577, 0.415150003391318, 0.5496499943546951, 0.4427999956533313, 0.4197999951429665, 0.4228999896440655, 0.42144999315496534, 0.41480000072624534, 0.41604999569244683, 0.41510000301059335, 0.4165499994996935, 0.4113500035600737, 0.417799994465895, 0.42609999945852906, 0.41789999522734433, 0.43080000614281744, 0.41599999531172216, 0.43060000461991876, 0.4361500032246113, 0.4134500049985945, 0.4143499972997233, 0.41140000394079834, 0.4378000012366101, 0.41495000186841935, 0.40800000715535134, 0.4293999954825267, 0.4172000044491142, 0.42034999933093786, 0.4258999979356304, 0.417349991039373, 0.4238499968778342, 0.41819999751169235, 0.43590000132098794, 0.4168500017840415, 0.4236499953549355, 0.41700000292621553, 0.4295999970054254, 0.4167500010225922, 0.41030001011677086, 0.41629999759607017, 0.4122500104131177, 0.43620000360533595, 0.41605001024436206, 0.4164499987382442, 0.42874999053310603, 0.4116999916732311, 0.4209500038996339, 0.4270000063115731, 0.41805001092143357, 0.42594999831635505, 0.41915000474546105, 0.41694998799357563, 0.415000002249144, 0.4201500123599544, 0.44049999269191176, 0.4225000011501834, 0.41959999362006783, 0.4254500090610236, 0.4157999937888235, 0.42284998926334083, 0.41790000977925956, 0.41524998960085213, 0.415000002249144, 0.425349993747659, 0.41605001024436206, 0.41444999806117266, 0.41545000567566603, 0.42440000106580555, 0.41769999370444566, 0.42625000060070306, 0.40859999717213213, 0.4209500038996339, 0.4158000083407387, 0.41804999636951834, 0.41290000081062317, 0.421949996962212, 0.421799995820038, 0.4223500000080094, 0.4314499965403229, 0.42219999886583537, 0.4189500032225624, 0.4151499888394028, 0.42735000897664577, 0.42860000394284725, 0.4155999922659248, 0.4297499981475994, 0.4202999989502132, 0.41954999323934317, 0.4369000089354813, 0.41760000749491155, 0.4202499985694885, 0.42159999429713935, 0.42050000047311187, 0.41504998807795346, 0.4120499943383038, 0.41295000119134784, 0.4161500110058114, 0.4192999913357198, 0.436950009316206, 0.4210500046610832, 0.42729999404400587, 0.43665000703185797, 0.4122499958612025, 0.42344999383203685, 0.4232500068610534, 0.42129999201279134, 0.42074998782482, 0.42034999933093786, 0.5546000029426068, 0.42460000258870423, 0.42315000609960407, 0.42645000212360173, 0.4192000051261857, 0.49414999375585467, 0.417799994465895, 0.43870000808965415, 0.4302500019548461, 0.4256999964127317, 0.41584999416954815, 0.43415000254753977, 0.41694998799357563, 0.4326999915065244, 0.4320500011090189, 0.42555000982247293, 0.42189999658148736, 0.41810001130215824, 0.4165999998804182, 0.42869999015238136, 0.418099996750243, 0.4315000114729628, 0.4202999989502132, 0.42284998926334083, 0.42255000153090805, 0.41604999569244683, 0.43909999658353627, 0.4670999915106222, 0.4259999986970797, 0.41310000233352184, 0.41414999577682465, 0.41384999349247664, 0.4209000035189092, 0.4137499927310273, 0.42284998926334083, 0.41384999349247664, 0.4228999896440655, 0.43319999531377107, 0.43095000728499144, 0.42219999886583537, 0.41459999920334667, 0.4102000093553215, 0.41619999683462083, 0.4159499949309975, 0.414549998822622, 0.4271000070730224, 0.41825001244433224, 0.41900000360328704, 0.4274500097380951, 0.43679999362211674, 0.42549999488983303, 0.41959999362006783, 0.42019999818876386, 0.42070000199601054, 0.4106499982299283, 0.4268500051693991, 0.42374999611638486, 0.415000002249144, 0.41745000635273755, 0.4206000012345612, 0.42719999328255653, 0.41464999958407134, 0.4307000053813681, 0.4090499860467389, 0.4262000002199784, 0.41715000406838953, 0.42779999785125256, 0.4266500036465004, 0.4211000050418079, 0.4173500055912882, 0.42594999831635505, 0.42984999890904874, 0.4229500045767054, 0.4378500016173348, 0.4245000018272549, 0.41259999852627516, 0.43139999615959823, 0.41485000110697, 0.4312499950174242, 0.421799995820038, 0.42224999924656004, 0.4140999953961, 0.4129499866394326, 0.4234000080032274, 0.4204500000923872, 0.41480000072624534, 0.4334999975981191, 0.4141999961575493, 0.4167000006418675, 0.4227500030538067, 0.42055000085383654, 0.4263500013621524, 0.40920000174082816, 0.418399999034591, 0.41495000186841935, 0.42320000648032874, 0.4192000051261857, 0.4226000019116327, 0.41584999416954815, 0.41974999476224184, 0.4202000127406791, 0.4178000090178102, 0.41775000863708556, 0.41989999590441585, 0.4707999905804172, 0.4092500021215528, 0.41799999598879367, 0.414249996538274, 0.5530000053113326, 0.4096500051673502, 0.4175000067334622, 0.5236500146565959, 0.4334499972173944, 0.4175999929429963, 0.500299982377328, 0.417499992181547, 0.47459999041166157, 0.41459999920334667, 0.4243000003043562, 0.4710999928647652, 0.41789999522734433, 0.545499991858378, 0.41110000165645033, 0.4791999963345006, 0.4273000085959211, 0.4159499949309975, 0.4728499916382134, 0.43480000749696046, 0.4031999997096136, 0.5286000086925924, 0.41774999408517033, 0.41730000521056354],
  "QPU": "7000000",
  "Qubits": 8,
  "Queue durations [ms]": [0.0, 0.0, 0.0, 0.0, 0.0, 0.0, 0.0, 0.0, 0.0, 0.0, 0.0, 0.0, 0.0, 0.0, 0.0, 0.0, 0.0, 0.0, 0.0, 0.0, 0.0, 0.0, 0.0, 0.0, 0.0, 0.0, 0.0, 0.0, 0.0, 0.0, 0.0, 0.0, 0.0, 0.0, 0.0, 0.0, 0.0, 0.0, 0.0, 0.0, 0.0, 0.0, 0.0, 0.0, 0.0, 0.0, 0.0, 0.0, 0.0, 0.0, 0.0, 0.0, 0.0, 0.0, 0.0, 0.0, 0.0, 0.0, 0.0, 0.0, 0.0, 0.0, 0.0, 0.0, 0.0, 0.0, 0.0, 0.0, 0.0, 0.0, 0.0, 0.0, 0.0, 0.0, 0.0, 0.0, 0.0, 0.0, 0.0, 0.0, 0.0, 0.0, 0.0, 0.0, 0.0, 0.0, 0.0, 0.0, 0.0, 0.0, 0.0, 0.0, 0.0, 0.0, 0.0, 0.0, 0.0, 0.0, 0.0, 0.0, 0.0, 0.0, 0.0, 0.0, 0.0, 0.0, 0.0, 0.0, 0.0, 0.0, 0.0, 0.0, 0.0, 0.0, 0.0, 0.0, 0.0, 0.0, 0.0, 0.0, 0.0, 0.0, 0.0, 0.0, 0.0, 0.0, 0.0, 0.0, 0.0, 0.0, 0.0, 0.0, 0.0, 0.0, 0.0, 0.0, 0.0, 0.0, 0.0, 0.0, 0.0, 0.0, 0.0, 0.0, 0.0, 0.0, 0.0, 0.0, 0.0, 0.0, 0.0, 0.0, 0.0, 0.0, 0.0, 0.0, 0.0, 0.0, 0.0, 0.0, 0.0, 0.0, 0.0, 0.0, 0.0, 0.0, 0.0, 0.0, 0.0, 0.0, 0.0, 0.0, 0.0, 0.0, 0.0, 0.0, 0.0, 0.0, 0.0, 0.0, 0.0, 0.0, 0.0, 0.0, 0.0, 0.0, 0.0, 0.0, 0.0, 0.0, 0.0, 0.0, 0.0, 0.0, 0.0, 0.0, 0.0, 0.0, 0.0, 0.0, 0.0, 0.0, 0.0, 0.0, 0.0, 0.0, 0.0, 0.0, 0.0, 0.0, 0.0, 0.0, 0.0, 0.0, 0.0, 0.0, 0.0, 0.0, 0.0, 0.0, 0.0, 0.0, 0.0, 0.0, 0.0, 0.0, 0.0, 0.0, 0.0, 0.0, 0.0, 0.0, 0.0, 0.0, 0.0, 0.0, 0.0, 0.0, 0.0, 0.0, 0.0, 0.0, 0.0, 0.0, 0.0, 0.0, 0.0, 0.0, 0.0, 0.0, 0.0, 0.0, 0.0, 0.0, 0.0, 0.0, 0.0, 0.0, 0.0, 0.0, 0.0, 0.0, 0.0, 0.0, 0.0, 0.0, 0.0, 0.0, 0.0, 0.0, 0.0, 0.0, 0.0, 0.0, 0.0, 0.0, 0.0, 0.0, 0.0, 0.0, 0.0, 0.0, 0.0, 0.0, 0.0, 0.0, 0.0, 0.0, 0.0, 0.0, 0.0, 0.0, 0.0, 0.0, 0.0, 0.0, 0.0, 0.0, 0.0, 0.0, 0.0, 0.0, 0.0, 0.0, 0.0, 0.0, 0.0, 0.0, 0.0, 0.0, 0.0, 0.0, 0.0, 0.0, 0.0, 0.0, 0.0, 0.0, 0.0, 0.0, 0.0, 0.0, 0.0, 0.0, 0.0, 0.0, 0.0, 0.0, 0.0, 0.0, 0.0, 0.0, 0.0, 0.0, 0.0, 0.0, 0.0, 0.0, 0.0, 0.0, 0.0, 0.0, 0.0, 0.0, 0.0, 0.0, 0.0, 0.0, 0.0, 0.0, 0.0, 0.0, 0.0, 0.0, 0.0, 0.0, 0.0, 0.0, 0.0, 0.0, 0.0, 0.0, 0.0, 0.0, 0.0, 0.0, 0.0, 0.0, 0.0, 0.0, 0.0, 0.0, 0.0, 0.0, 0.0, 0.0, 0.0, 0.0, 0.0, 0.0, 0.0, 0.0, 0.0, 0.0, 0.0, 0.0, 0.0, 0.0, 0.0, 0.0, 0.0, 0.0, 0.0, 0.0, 0.0, 0.0, 0.0, 0.0, 0.0, 0.0, 0.0, 0.0, 0.0, 0.0, 0.0, 0.0, 0.0, 0.0, 0.0, 0.0, 0.0, 0.0, 0.0, 0.0, 0.0, 0.0, 0.0, 0.0, 0.0, 0.0, 0.0, 0.0, 0.0, 0.0, 0.0, 0.0, 0.0, 0.0, 0.0, 0.0, 0.0, 0.0, 0.0, 0.0, 0.0, 0.0, 0.0, 0.0, 0.0, 0.0, 0.0, 0.0, 0.0, 0.0, 0.0, 0.0, 0.0, 0.0, 0.0, 0.0, 0.0, 0.0, 0.0, 0.0, 0.0, 0.0, 0.0, 0.0, 0.0, 0.0, 0.0, 0.0, 0.0, 0.0, 0.0, 0.0, 0.0, 0.0, 0.0, 0.0, 0.0, 0.0, 0.0, 0.0, 0.0, 0.0, 0.0, 0.0, 0.0, 0.0, 0.0, 0.0, 0.0, 0.0, 0.0, 0.0, 0.0, 0.0, 0.0, 0.0, 0.0, 0.0, 0.0, 0.0, 0.0, 0.0, 0.0, 0.0, 0.0, 0.0, 0.0, 0.0, 0.0, 0.0, 0.0, 0.0, 0.0, 0.0, 0.0, 0.0, 0.0, 0.0, 0.0, 0.0, 0.0, 0.0, 0.0, 0.0, 0.0, 0.0, 0.0, 0.0, 0.0, 0.0, 0.0, 0.0, 0.0, 0.0, 0.0, 0.0, 0.0, 0.0, 0.0, 0.0, 0.0, 0.0, 0.0, 0.0, 0.0, 0.0, 0.0, 0.0, 0.0, 0.0, 0.0, 0.0, 0.0, 0.0, 0.0, 0.0, 0.0, 0.0, 0.0, 0.0, 0.0, 0.0, 0.0, 0.0, 0.0, 0.0, 0.0, 0.0, 0.0, 0.0, 0.0, 0.0, 0.0, 0.0, 0.0, 0.0, 0.0, 0.0, 0.0, 0.0, 0.0, 0.0, 0.0, 0.0, 0.0, 0.0, 0.0, 0.0, 0.0, 0.0, 0.0, 0.0, 0.0, 0.0, 0.0, 0.0, 0.0, 0.0, 0.0, 0.0, 0.0, 0.0, 0.0, 0.0, 0.0, 0.0, 0.0, 0.0, 0.0, 0.0, 0.0, 0.0, 0.0, 0.0, 0.0, 0.0, 0.0, 0.0, 0.0, 0.0, 0.0, 0.0, 0.0, 0.0, 0.0, 0.0, 0.0, 0.0, 0.0, 0.0, 0.0, 0.0, 0.0, 0.0, 0.0, 0.0, 0.0, 0.0, 0.0, 0.0, 0.0, 0.0, 0.0, 0.0, 0.0, 0.0, 0.0, 0.0, 0.0, 0.0, 0.0, 0.0, 0.0, 0.0, 0.0, 0.0, 0.0, 0.0, 0.0, 0.0, 0.0, 0.0, 0.0, 0.0, 0.0, 0.0, 0.0, 0.0, 0.0, 0.0, 0.0, 0.0, 0.0, 0.0, 0.0, 0.0, 0.0, 0.0, 0.0, 0.0, 0.0, 0.0, 0.0, 0.0, 0.0, 0.0, 0.0, 0.0, 0.0, 0.0, 0.0, 0.0, 0.0, 0.0, 0.0, 0.0, 0.0, 0.0, 0.0, 0.0, 0.0, 0.0, 0.0, 0.0, 0.0, 0.0, 0.0, 0.0, 0.0, 0.0, 0.0, 0.0, 0.0, 0.0, 0.0, 0.0, 0.0, 0.0, 0.0, 0.0, 0.0, 0.0, 0.0, 0.0, 0.0, 0.0, 0.0, 0.0, 0.0, 0.0, 0.0, 0.0, 0.0, 0.0, 0.0, 0.0, 0.0, 0.0, 0.0, 0.0, 0.0, 0.0, 0.0, 0.0, 0.0, 0.0, 0.0, 0.0, 0.0, 0.0, 0.0, 0.0, 0.0, 0.0, 0.0, 0.0, 0.0, 0.0, 0.0, 0.0, 0.0, 0.0, 0.0, 0.0, 0.0, 0.0, 0.0, 0.0, 0.0, 0.0, 0.0, 0.0, 0.0, 0.0, 0.0, 0.0, 0.0, 0.0, 0.0, 0.0, 0.0, 0.0, 0.0, 0.0, 0.0, 0.0, 0.0, 0.0, 0.0, 0.0, 0.0, 0.0, 0.0, 0.0, 0.0, 0.0, 0.0, 0.0, 0.0, 0.0, 0.0, 0.0, 0.0, 0.0, 0.0, 0.0, 0.0, 0.0, 0.0, 0.0, 0.0, 0.0, 0.0, 0.0, 0.0, 0.0, 0.0, 0.0, 0.0, 0.0, 0.0, 0.0, 0.0, 0.0, 0.0, 0.0, 0.0, 0.0, 0.0, 0.0, 0.0, 0.0, 0.0, 0.0, 0.0, 0.0, 0.0, 0.0, 0.0, 0.0, 0.0, 0.0, 0.0, 0.0, 0.0, 0.0, 0.0, 0.0, 0.0, 0.0, 0.0, 0.0, 0.0],
  "Shots": 4096,
  "Size": 8,
  "Total Algorithm duration [s]": 8.339,
  "Total Classic duration [s]": 7.978380900101969,
  "Total Quantum duration [s]": 0.360619099898031
}
