{
  "Circuit execution durations [ms]": [0.43790000199805945, 0.42625000060070306, 0.4109500005142763, 0.4396500007715076, 0.4345500055933371, 0.43200000072829425, 0.41340000461786985, 0.4244500014465302, 0.4306499904487282, 0.418550000176765, 0.4246500029694289, 0.4263500013621524, 0.4327500064391643, 0.42070000199601054, 0.43655000627040863, 0.41039999632630497, 0.42979999852832407, 0.42544999450910836, 0.4174000059720129, 0.4268500051693991, 0.41259999852627516, 0.4257500113453716, 0.4153500049142167, 0.5439499946078286, 0.43759999971371144, 0.5459999956656247, 0.4201499978080392, 0.4189000028418377, 0.40985000669024885, 0.4228000034345314, 0.4187500016996637, 0.4226500022923574, 0.4253999941283837, 0.42209999810438603, 0.41710000368766487, 0.4241999995429069, 0.41429999691899866, 0.41105000127572566, 0.4199999966658652, 0.42520000715740025, 0.418550000176765, 0.41214999509975314, 0.43074999121017754, 0.42109999048989266, 0.4130000015720725, 0.4229000041959807, 0.4259999986970797, 0.4262000002199784, 0.4131500027142465, 0.43330001062713563, 0.4209000035189092, 0.4606000002240762, 0.40955000440590084, 0.417499992181547, 0.41894998867064714, 0.41120000241789967, 0.4134500049985945, 0.4227499885018915, 0.4222999996272847, 0.4167500010225922, 0.417649993323721, 0.4289499920560047, 0.42210001265630126, 0.4164499987382442, 0.41384999349247664, 0.41495000186841935, 0.42469998879823834, 0.4239999980200082, 0.4181500116828829, 0.42335000762250274, 0.44160000106785446, 0.42449998727533966, 0.43280000681988895, 0.421199991251342, 0.4295999970054254, 0.4115000047022477, 0.44544998672790825, 0.42285000381525606, 0.4056000034324825, 0.42359999497421086, 0.4121999954804778, 0.4188499879091978, 0.43390000064391643, 0.41879998752847314, 0.4191000043647364, 0.4405999934533611, 0.42135000694543123, 0.41945000702980906, 0.4220500122755766, 0.41555000643711537, 0.4190499894320965, 0.41804999636951834, 0.41885000246111304, 0.42564999603200704, 0.46305000432766974, 0.4270000063115731, 0.4132499889237806, 0.40800000715535134, 0.41724999027792364, 0.42285000381525606, 0.41980000969488174, 0.41575000796001405, 0.41455001337453723, 0.4150500026298687, 0.41540000529494137, 0.4206500016152859, 0.42725000821519643, 0.4258499975549057, 0.41849999979604036, 0.4140499950153753, 0.42224999924656004, 0.4282500012777746, 0.4265000025043264, 0.4109500005142763, 0.4184499994153157, 0.4215500084683299, 0.4126499989069998, 0.42135000694543123, 0.4267000040272251, 0.41459999920334667, 0.42409999878145754, 0.4174499918008223, 0.4156499926466495, 0.41634999797679484, 0.414549998822622, 0.42055000085383654, 0.41310000233352184, 0.41414999577682465, 0.5238000157987699, 0.4268000047886744, 0.4602999979397282, 0.4277499974705279, 0.4200999974273145, 0.4258499975549057, 0.42320000648032874, 0.4200999974273145, 0.4275999963283539, 0.417799994465895, 0.42350000876467675, 0.41939999209716916, 0.4247999895596877, 0.42209999810438603, 0.41184999281540513, 0.4261499998392537, 0.41665000026114285, 0.4377999866846949, 0.4282000008970499, 0.42669998947530985, 0.41545000567566603, 0.43000000005122274, 0.421799995820038, 0.41200000850949436, 0.4156499926466495, 0.4229000041959807, 0.4261499998392537, 0.42475000373087823, 0.41989999590441585, 0.42294999002479017, 0.41870000131893903, 0.4165499994996935, 0.41280000004917383, 0.42374999611638486, 0.4269500059308484, 0.4252500075381249, 0.4198500100756064, 0.42645000212360173, 0.4156499926466495, 0.4187500016996637, 0.42470000335015357, 0.4114499897696078, 0.4271000070730224, 0.4234000080032274, 0.41775000863708556, 0.418399999034591, 0.4266500036465004, 0.4349999944679439, 0.41604999569244683, 0.4167500010225922, 0.43059999006800354, 0.42559999565128237, 0.42034999933093786, 0.4478999908315018, 0.4149000014876947, 0.4230499907862395, 0.44299999717622995, 0.41510000301059335, 0.4218499962007627, 0.4202499985694885, 0.4216999950585887, 0.4173500055912882, 0.4276999970898032, 0.4163000121479854, 0.42579999717418104, 0.41754999256227165, 0.4280500143067911, 0.4216999950585887, 0.4271500074537471, 0.41039999632630497, 0.4191999905742705, 0.42135000694543123, 0.42055000085383654, 0.45680000039283186, 0.4159499949309975, 0.4167000006418675, 0.4215500084683299, 0.4133500042371452, 0.4088499990757555, 0.4341999883763492, 0.42270000267308205, 0.42204999772366136, 0.4167999868514016, 0.4276999970898032, 0.41960000817198306, 0.41125000279862434, 0.41459999920334667, 0.4141500103287399, 0.4228000034345314, 0.4165999998804182, 0.41399999463465065, 0.4168500017840415, 0.4278499982319772, 0.4202999989502132, 0.415000002249144, 0.41874998714774847, 0.4140999953961, 0.40994999289978296, 0.4513999883783981, 0.41870000131893903, 0.4299499996704981, 0.4305500042391941, 0.42299999040551484, 0.42884999129455537, 0.4619000101229176, 0.4257499967934564, 0.4696500109275803, 0.418550000176765, 0.4155999922659248, 0.42224999924656004, 0.5698000168194994, 0.41930000588763505, 0.41310000233352184, 0.562249988433905, 0.4197000089334324, 0.4209999897284433, 0.558300016564317, 0.4218499962007627, 0.461049989098683, 0.4100499936612323, 0.4226500022923574, 0.4624000139301643, 0.4204500000923872, 0.5216000135987997, 0.4157499934080988, 0.425199992605485, 0.5057999951532111, 0.4149999876972288, 0.4236000095261261, 0.4742500022985041, 0.4312999953981489, 0.5376000044634566, 0.4188999882899225, 0.4253999941283837, 0.45179999142419547, 0.42189999658148736, 0.4103499959455803, 0.4250999918440357, 0.4210500046610832, 0.42204999772366136, 0.4266500036465004, 0.414699999964796, 0.4200500115985051, 0.41634999797679484, 0.42559999565128237, 0.41680000140331686, 0.41360000614076853, 0.42374999611638486, 0.42379999649710953, 0.42085000313818455, 0.42645000212360173, 0.4188999882899225, 0.41730000521056354, 0.4130000015720725, 0.42039999971166253, 0.4292000085115433, 0.4119500081287697, 0.4192000051261857, 0.4310999938752502, 0.41695000254549086, 0.4318999999668449, 0.4167000006418675, 0.4067999980179593, 0.413949994253926, 0.4189999890513718, 0.4327000060584396, 0.42875000508502126, 0.42725000821519643, 0.4236999957356602, 0.42149999353569, 0.4155999922659248, 0.4227500030538067, 0.41774999408517033, 0.4271500074537471, 0.42109999048989266, 0.4344000044511631, 0.4249500052537769, 0.4233000072417781, 0.417499992181547, 0.42359999497421086, 0.4249499907018617, 0.4234999942127615, 0.4208499885862693, 0.4301000008126721, 0.4154499911237508, 0.4159499949309975, 0.41939999209716916, 0.42189999658148736, 0.4280499997548759, 0.4132000030949712, 0.43659999209921807, 0.4194999928586185, 0.42655000288505107, 0.40859999717213213, 0.4262000002199784, 0.4202999989502132, 0.41849999979604036, 0.42180001037195325, 0.4095999902347103, 0.41464999958407134, 0.4170500033069402, 0.4218499962007627, 0.4320500011090189, 0.45235001016408205, 0.5115000094519928, 0.4138999938732013, 0.5209000082686543, 0.42219999886583537, 0.41724999027792364, 0.41739999142009765, 0.418550000176765, 0.42984999890904874, 0.4256000102031976, 0.4192000051261857, 0.41244999738410115, 0.42860000394284725, 0.41215000965166837, 0.4344500048318878, 0.418249997892417, 0.417499992181547, 0.44510001316666603, 0.4165499994996935, 0.44160000106785446, 0.4280499997548759, 0.41385000804439187, 0.418249997892417, 0.41605001024436206, 0.42549999488983303, 0.41179999243468046, 0.4425000079208985, 0.4192500055069104, 0.4200000112177804, 0.47805000212974846, 0.4210500046610832, 0.41519998922012746, 0.41629999759607017, 0.43039998854510486, 0.455000001238659, 0.4394000134197995, 0.4191499901935458, 0.43754999933298677, 0.41524998960085213, 0.41944999247789383, 0.4206500016152859, 0.4141999961575493, 0.43659999209921807, 0.42799999937415123, 0.4170500033069402, 0.4191999905742705, 0.413949994253926, 0.4501000075833872, 0.4155999922659248, 0.43339999683666974, 0.4233499930705875, 0.4227500030538067, 0.4184499994153157, 0.4195500077912584, 0.4208000027574599, 0.4212000058032572, 0.44440000783652067, 0.4129499866394326, 0.4278499982319772, 0.4157999937888235, 0.42039999971166253, 0.4190500039840117, 0.4278999986127019, 0.41534999036230147, 0.421349992393516, 0.41274999966844916, 0.4253000079188496, 0.502750015584752, 0.42640000174287707, 0.40830000943969935, 0.42335000762250274, 0.42594999831635505, 0.4184499994153157, 0.4175000067334622, 0.41959999362006783, 0.411600005463697, 0.4200999974273145, 0.425349993747659, 0.4197000089334324, 0.4126499989069998, 0.4189000028418377, 0.42270000267308205, 0.4189500032225624, 0.42609999945852906, 0.4229500045767054, 0.4269499913789332, 0.41704998875502497, 0.4199499962851405, 0.4341000021668151, 0.42204999772366136, 0.4249500052537769, 0.41244999738410115, 0.42055000085383654, 0.4233000072417781, 0.4181499971309677, 0.4133999900659546, 0.42034999933093786, 0.44585000432562083, 0.41540000529494137, 0.44255000830162317, 0.4252500075381249, 0.4200999974273145, 0.4251000063959509, 0.4307000053813681, 0.4403999919304624, 0.4158500087214634, 0.45244999637361616, 0.5305500089889392, 0.4200999974273145, 0.4235499945934862, 0.42074998782482, 0.4309000069042668, 0.41665000026114285, 0.42255000153090805, 0.4143499972997233, 0.4288000054657459, 0.42124999163206667, 0.440200004959479, 0.4262000002199784, 0.4200000112177804, 0.4201499978080392, 0.41874998714774847, 0.44299999717622995, 0.418550000176765, 0.415000002249144, 0.4186000005574897, 0.4112499882467091, 0.45039999531582, 0.4178500093985349, 0.41619999683462083, 0.4413499991642311, 0.41584999416954815, 0.4271500074537471, 0.41429999691899866, 0.42905000736936927, 0.44129999878350645, 0.4230999911669642, 0.417799994465895, 0.4137499927310273, 0.411900007748045, 0.4212000058032572, 0.4197999951429665, 0.4130500019527972, 0.41310000233352184, 0.414549998822622, 0.4361500032246113, 0.413949994253926, 0.4096000047866255, 0.41105000127572566, 0.417349991039373, 0.42109999048989266, 0.42675000440794975, 0.41205000889021903, 0.4226000019116327, 0.414699999964796, 0.42400001257192343, 0.42734999442473054, 0.4277499974705279, 0.4259500128682703, 0.4435500013642013, 0.46234998444560915, 0.4149000014876947, 0.4133000038564205, 0.41414999577682465, 0.41880000208038837, 0.4140999953961, 0.42749999556690454, 0.4134500049985945, 0.40535000152885914, 0.4364000051282346, 0.41325000347569585, 0.45759999193251133, 0.4132000030949712, 0.4598500090651214, 0.42839998786803335, 0.4161000106250867, 0.4201499978080392, 0.4136500065214932, 0.42135000694543123, 0.4275499959476292, 0.42209999810438603, 0.41959999362006783, 0.4175999929429963, 0.4201499978080392, 0.41725000482983887, 0.43700000969693065, 0.42219999886583537, 0.421799995820038, 0.4236999957356602, 0.45619999582413584, 0.4250000056345016, 0.41039999632630497, 0.425049991463311, 0.42675000440794975, 0.4215499939164147, 0.41184999281540513, 0.41155000508297235, 0.43060000461991876, 0.42720000783447176, 0.4226500022923574, 0.4229000041959807, 0.4175500071141869, 0.41849999979604036, 0.420899988966994, 0.4147500003455207, 0.4246500029694289, 0.4315000114729628, 0.4222999996272847, 0.4175000067334622, 0.42535000829957426, 0.4947499983245507, 0.4221499984851107, 0.41715000406838953, 0.4310999938752502, 0.37665000127162784, 0.4228000034345314, 0.4158999945502728, 0.4277499974705279, 0.47620000259485096, 0.42039999971166253, 0.41959999362006783, 0.48054999206215143, 0.4501999937929213, 0.42830000165849924, 0.41360000614076853, 0.41334998968522996, 0.42549999488983303, 0.4131500027142465, 0.46919999294914305, 0.41870000131893903, 0.5276500014588237, 0.4158999945502728, 0.4209000035189092, 0.4845999937970191, 0.4130000015720725, 0.4253000079188496, 0.43485000787768513, 0.41429999691899866, 0.5072499916423112, 0.43485000787768513, 0.43054998968727887, 0.42050000047311187, 0.4383000050438568, 0.414699999964796, 0.42964999738615006, 0.4181499971309677, 0.42740000935737044, 0.41715000406838953, 0.4239999980200082, 0.42904999281745404, 0.42905000736936927, 0.4165499994996935, 0.43325001024641097, 0.414549998822622, 0.4194000066490844, 0.4267499898560345, 0.41325000347569585, 0.41944999247789383, 0.42145000770688057, 0.42109999048989266, 0.5221499886829406, 0.41534999036230147, 0.4223500000080094, 0.41459999920334667, 0.42845000280067325, 0.42359999497421086, 0.40530000114813447, 0.41915000474546105, 0.41360000614076853, 0.41459999920334667, 0.42174999543931335, 0.42815000051632524, 0.4258499975549057, 0.4192000051261857, 0.41880000208038837, 0.4402499907882884, 0.42174999543931335, 0.4231999919284135, 0.4202499985694885, 0.41435001185163856, 0.4200999974273145, 0.44600000546779484, 0.4243500006850809, 0.4244500014465302, 0.42314999154768884, 0.42655000288505107, 0.41709998913574964, 0.4200999974273145, 0.42889999167528003, 0.41680000140331686, 0.41575000796001405, 0.413949994253926, 0.415000002249144, 0.4206500016152859, 0.4143499972997233, 0.4219999973429367, 0.4268000047886744, 0.42100000428035855, 0.41375000728294253, 0.41519998922012746, 0.4122500104131177, 0.41480000072624534, 0.4182999982731417, 0.4301000008126721, 0.4194999928586185, 0.4226999881211668, 0.4218500107526779, 0.41730000521056354, 0.4206500016152859, 0.4320500011090189, 0.418099996750243, 0.5446999857667834, 0.5244999920250848, 0.42394999763928354, 0.41599999531172216, 0.43289999302942306, 0.41295000119134784, 0.41485000110697, 0.42964999738615006, 0.4321000014897436, 0.42609999945852906, 0.4196499940007925, 0.44284999603405595, 0.41274999966844916, 0.4126499989069998, 0.42255000153090805, 0.4304999893065542, 0.4294499958632514, 0.42209999810438603, 0.414399997680448, 0.418399999034591, 0.4169000021647662, 0.4240499984007329, 0.4194999928586185, 0.43790000199805945, 0.42645000212360173, 0.4157000075792894, 0.42579999717418104, 0.41554999188520014, 0.414699999964796, 0.4165999998804182, 0.4236000095261261, 0.46120001934468746, 0.4462000069906935, 0.4227500030538067, 0.41539999074302614, 0.41619999683462083, 0.41194999357685447, 0.41695000254549086, 0.42285000381525606, 0.4253999941283837, 0.4239000118104741, 0.4119500081287697, 0.43059999006800354, 0.41944999247789383, 0.42300000495743006, 0.4133999900659546, 0.4175000067334622, 0.4198499955236912, 0.41775000863708556, 0.4259000124875456, 0.4216999950585887, 0.4164499987382442, 0.43754999933298677, 0.42969999776687473, 0.4341000021668151, 0.4337499995017424, 0.41120000241789967, 0.4267999902367592, 0.4265000025043264, 0.41325000347569585, 0.42305000533815473, 0.41924999095499516, 0.4241499991621822, 0.417949995608069, 0.41799999598879367, 0.4326000052969903, 0.4286500043235719, 0.4211000050418079, 0.41495000186841935, 0.41725000482983887, 0.4126999992877245, 0.41915000474546105, 0.4320500011090189, 0.4140999953961, 0.4099000070709735, 0.4173500055912882, 0.4202999989502132, 0.41090000013355166, 0.4234000080032274, 0.42460000258870423, 0.42830000165849924, 0.42654998833313584, 0.41555000643711537, 0.42549999488983303, 0.4104999970877543, 0.4124999977648258, 0.41885000246111304, 0.4113999893888831, 0.43104999349452555, 0.4172000044491142, 0.4224500007694587, 0.4206000012345612, 0.40550000267103314, 0.41784999484661967, 0.41634999797679484, 0.4160999960731715, 0.4165999998804182, 0.42734999442473054, 0.4279500135453418, 0.42135000694543123, 0.42019999818876386, 0.4157000075792894, 0.41229999624192715, 0.42240000038873404, 0.42779999785125256, 0.43134999577887356, 0.5281500052660704, 0.41834999865386635, 0.4265000025043264, 0.414699999964796, 0.42240000038873404, 0.4310999938752502, 0.4212000058032572, 0.42484998994041234, 0.4206500016152859, 0.41715000406838953, 0.414549998822622, 0.41745000635273755, 0.41700000292621553, 0.4158500087214634, 0.43089999235235155, 0.42240000038873404, 0.42654998833313584, 0.41880000208038837, 0.4243000003043562, 0.4150500026298687, 0.43184999958612025, 0.41295000119134784, 0.42660000326577574, 0.42485000449232757, 0.43575000017881393, 0.41725000482983887, 0.4204500000923872, 0.42969999776687473, 0.41834999865386635, 0.4200999974273145, 0.42985001346096396, 0.4292000085115433, 0.4150500026298687, 0.4234500083839521, 0.4223500000080094, 0.42890000622719526, 0.4176500078756362, 0.4259999986970797, 0.4234999942127615, 0.41110000165645033, 0.41629999759607017, 0.41865000093821436, 0.41349999082740396, 0.41599999531172216, 0.4232499923091382, 0.43754999933298677, 0.415000002249144, 0.4107999993721023, 0.42019999818876386, 0.4304000030970201, 0.4161000106250867, 0.421349992393516, 0.441100011812523, 0.4122499958612025, 0.42505000601522624, 0.41730000521056354, 0.41485000110697, 0.43510000978130847, 0.4330000083427876, 0.42424999992363155, 0.4292000085115433, 0.42729999404400587, 0.4130500019527972, 0.4329000075813383, 0.4169000021647662, 0.42284998926334083, 0.421049990109168, 0.4224499862175435, 0.41774999408517033, 0.4147500003455207, 0.4167000006418675, 0.4123999970033765, 0.4192500055069104, 0.4123499966226518, 0.45179999142419547, 0.4226000019116327, 0.41754999256227165, 0.4232499923091382, 0.4326000052969903, 0.4217500099912286, 0.41525000415276736, 0.4125499981455505, 0.4241999995429069, 0.4234500083839521, 0.4243500006850809, 0.4202499985694885, 0.41444999806117266, 0.4251000063959509, 0.4288500058464706, 0.4290999931981787, 0.4164499987382442, 0.4233000072417781, 0.41555000643711537, 0.4135000053793192, 0.4353499971330166, 0.4253000079188496, 0.41555000643711537, 0.4248000041116029, 0.4133000038564205, 0.42544999450910836, 0.4320500011090189, 0.4360999882919714, 0.4253999941283837, 0.4256999964127317, 0.4241999995429069, 0.4726500192191452, 0.4162499972153455, 0.42919999395962805, 0.42455000220797956, 0.5611500091617927, 0.4269499913789332, 0.4113500035600737, 0.5426999850897118, 0.41524998960085213, 0.4165499994996935, 0.5429500160971656, 0.4211000050418079, 0.4791000101249665, 0.4216999950585887, 0.41229999624192715, 0.4521000082604587, 0.415150003391318, 0.39790000300854445, 0.4207500023767352, 0.41695000254549086, 0.5320499913068488, 0.4103499959455803, 0.41885000246111304, 0.5150000069988891, 0.403900005039759, 0.4903000080958009, 0.4173500055912882, 0.41125000279862434, 0.43489999370649457, 0.42699999175965786, 0.4138000076636672, 0.44409999100025743, 0.42860000394284725, 0.4181499971309677, 0.4167500010225922, 0.42114999087061733, 0.4274499951861799, 0.4197000089334324, 0.424749989178963, 0.4270999925211072, 0.41590000910218805, 0.4383000050438568, 0.4275999963283539, 0.41980000969488174, 0.4183000128250569, 0.5381500086514279, 0.49474998377263546, 0.45745000534225255, 0.425349993747659, 0.417949995608069, 0.5279499891912565, 0.4371499962871894, 0.47899999481160194, 0.41804999636951834, 0.4290000069886446, 0.4120999947190285, 0.4327500064391643, 0.41044999670702964, 0.4225999873597175, 0.42535000829957426, 0.414399997680448, 0.417949995608069, 0.4214000073261559, 0.40935000288300216, 0.4188999882899225, 0.42130000656470656, 0.44535000051837415, 0.4484999954001978, 0.4236000095261261, 0.4215499939164147, 0.4177000082563609, 0.41405000956729054, 0.4253000079188496, 0.4275999963283539, 0.42625000060070306, 0.4245000018272549, 0.40874999831430614, 0.42764999670907855, 0.4211000050418079, 0.4191000043647364, 0.4092500021215528, 0.41290000081062317, 0.40874999831430614, 0.4149000014876947, 0.4201499978080392, 0.43089999235235155, 0.41969999438151717, 0.4238499968778342, 0.4164499987382442, 0.4118999931961298, 0.4150500026298687, 0.418249997892417, 0.42640000174287707, 0.4250000056345016, 0.4219999973429367, 0.42625000060070306, 0.4276999970898032],
  "Depth": 18.5,
  "Expectation Value": -8.75949478149414,
  "Optimal Expectation Value": -9.83795166015625,
  "Optimizer durations [ms]": [9.765, 9.462, 8.971, 9.493, 9.729, 9.372, 9.377, 9.247, 9.686, 9.515, 9.548, 9.219, 9.343, 9.108, 9.586, 8.957, 9.652, 9.583, 9.257, 9.622, 9.041, 9.73, 9.279, 11.883, 16.642, 14.597, 9.264, 9.466, 9.127, 9.568, 9.25, 9.419, 9.544, 9.607, 9.272, 9.691, 9.149, 9.243, 9.521, 9.559, 9.11, 9.337, 9.72, 9.315, 9.596, 9.588, 9.343, 9.674, 9.135, 9.556, 9.376, 10.121, 9.379, 9.15, 9.741, 9.152, 9.331, 9.511, 9.421, 9.488, 9.096, 9.476, 9.663, 9.191, 9.417, 9.291, 9.56, 9.43, 9.423, 9.362, 9.723, 9.209, 9.72, 9.364, 9.725, 9.239, 9.847, 9.23, 9.396, 9.499, 9.281, 11.083, 9.74, 9.474, 9.31, 9.537, 9.276, 9.525, 9.311, 9.151, 9.586, 9.233, 9.225, 9.581, 10.241, 9.562, 9.254, 8.927, 9.413, 9.493, 9.532, 9.402, 9.162, 9.449, 9.26, 9.231, 9.653, 9.574, 9.219, 9.349, 9.193, 9.553, 9.612, 9.247, 9.371, 9.332, 9.437, 9.256, 9.727, 9.304, 9.671, 9.284, 9.462, 9.38, 9.283, 9.181, 9.573, 9.122, 11.266, 25.533, 10.625, 9.614, 9.407, 9.764, 9.567, 9.328, 9.638, 9.253, 9.67, 9.465, 9.642, 9.401, 9.069, 9.603, 9.195, 9.861, 9.338, 9.836, 9.193, 9.66, 9.394, 9.027, 9.308, 9.33, 9.452, 9.742, 9.504, 9.494, 9.354, 9.188, 9.511, 12.57, 9.692, 9.614, 9.41, 9.567, 9.191, 9.361, 9.66, 8.944, 9.639, 9.507, 9.396, 9.424, 9.393, 9.5, 9.644, 9.081, 9.703, 9.587, 9.35, 10.1, 9.244, 9.465, 9.651, 9.473, 9.352, 9.435, 9.486, 9.268, 9.573, 9.168, 9.664, 9.342, 9.683, 9.277, 9.461, 9.584, 9.235, 9.66, 9.47, 9.761, 9.478, 9.101, 9.628, 9.271, 8.951, 9.769, 9.545, 9.274, 9.55, 9.41, 9.59, 9.175, 9.151, 9.634, 9.504, 9.02, 9.615, 9.263, 9.583, 9.4, 9.204, 9.501, 9.204, 9.236, 9.904, 9.228, 9.313, 9.646, 9.572, 9.586, 10.236, 9.278, 10.509, 9.445, 17.302, 9.223, 12.415, 9.495, 9.38, 11.923, 9.306, 9.421, 11.999, 18.556, 9.908, 8.97, 11.644, 9.912, 9.203, 24.229, 9.1, 9.478, 10.762, 9.299, 9.614, 10.449, 21.425, 11.819, 9.276, 12.707, 10.189, 9.562, 9.295, 9.213, 9.747, 9.384, 9.875, 9.353, 9.156, 9.419, 9.639, 9.473, 9.091, 9.568, 9.705, 9.204, 9.737, 9.441, 9.311, 9.434, 9.363, 9.568, 9.243, 9.524, 9.704, 9.152, 9.706, 9.208, 9.247, 9.439, 9.523, 9.325, 9.66, 9.664, 9.666, 9.477, 9.363, 9.425, 9.32, 9.331, 9.739, 10.1, 9.531, 9.626, 9.234, 9.48, 9.594, 9.42, 9.427, 9.365, 9.383, 9.356, 9.296, 9.583, 9.986, 9.225, 9.783, 9.151, 9.323, 9.176, 9.619, 9.591, 9.284, 9.479, 9.296, 9.3, 9.502, 9.262, 9.673, 10.0, 11.374, 20.108, 12.476, 9.496, 9.408, 9.044, 9.362, 9.926, 9.703, 9.262, 9.241, 9.617, 9.111, 9.705, 9.261, 9.549, 9.554, 9.221, 9.658, 9.61, 9.457, 9.437, 9.225, 9.653, 8.98, 9.728, 9.444, 9.355, 10.536, 9.162, 9.458, 9.307, 9.621, 9.676, 9.907, 9.401, 9.605, 9.254, 9.407, 9.45, 9.218, 9.747, 9.701, 9.418, 9.477, 8.991, 9.966, 9.012, 9.576, 9.22, 9.725, 9.19, 9.609, 9.161, 9.604, 9.603, 9.296, 9.638, 9.41, 9.182, 9.467, 9.582, 9.351, 9.286, 9.204, 9.521, 11.061, 9.691, 9.181, 9.352, 9.636, 9.435, 9.416, 9.222, 9.513, 9.223, 9.531, 9.391, 9.254, 9.521, 9.56, 9.135, 9.568, 9.711, 9.646, 9.042, 9.656, 9.673, 9.466, 9.591, 9.074, 9.598, 9.486, 9.202, 9.254, 9.557, 10.107, 9.479, 9.866, 9.526, 9.296, 9.345, 9.726, 9.863, 9.354, 22.266, 12.024, 9.634, 9.62, 9.259, 9.713, 9.35, 9.399, 9.206, 9.737, 9.308, 9.634, 9.476, 9.307, 9.477, 9.275, 9.805, 9.422, 9.399, 9.317, 9.304, 9.955, 9.258, 9.27, 9.858, 9.226, 9.589, 8.99, 9.632, 9.782, 9.386, 9.463, 9.096, 12.435, 9.473, 9.341, 9.223, 9.519, 9.063, 9.972, 9.222, 9.051, 9.384, 9.451, 9.363, 9.742, 9.15, 9.65, 9.04, 9.436, 9.672, 9.364, 9.531, 9.956, 10.34, 9.142, 9.405, 9.311, 9.525, 9.091, 9.765, 9.325, 8.818, 9.579, 9.692, 10.056, 9.126, 9.94, 9.669, 9.318, 9.252, 9.622, 9.58, 9.544, 9.473, 9.868, 9.321, 9.161, 9.285, 9.648, 9.441, 9.442, 9.477, 10.074, 9.319, 9.667, 9.446, 9.736, 9.539, 9.142, 9.369, 9.382, 9.504, 9.586, 9.279, 9.583, 9.413, 9.41, 9.326, 9.529, 9.732, 9.63, 9.023, 9.739, 10.613, 9.531, 9.308, 9.824, 11.861, 9.418, 9.412, 9.51, 10.234, 9.122, 10.642, 10.269, 10.036, 20.171, 9.007, 10.308, 9.561, 9.07, 10.496, 9.325, 21.283, 9.569, 9.487, 10.44, 9.126, 10.382, 9.614, 25.832, 11.097, 10.056, 10.127, 11.004, 9.777, 9.294, 9.617, 9.209, 9.663, 9.398, 9.523, 9.838, 9.397, 9.43, 9.524, 9.649, 9.249, 9.829, 9.249, 9.243, 9.264, 9.387, 11.635, 9.043, 9.929, 9.559, 9.409, 9.566, 9.066, 9.285, 9.437, 9.242, 9.403, 9.704, 9.512, 9.163, 9.502, 9.778, 9.446, 9.47, 9.509, 9.061, 9.66, 9.713, 9.555, 9.291, 9.727, 9.583, 9.311, 9.433, 9.589, 9.337, 9.225, 9.502, 9.285, 9.635, 9.161, 9.618, 9.573, 9.471, 9.377, 9.324, 9.207, 9.089, 9.438, 9.885, 9.105, 9.502, 9.684, 9.122, 9.837, 9.784, 9.45, 12.078, 24.396, 9.36, 9.367, 9.79, 9.213, 9.333, 9.399, 9.465, 9.744, 9.306, 9.874, 9.37, 9.137, 9.63, 9.343, 9.651, 9.4, 9.443, 9.195, 9.558, 9.475, 9.14, 9.598, 9.596, 9.226, 9.483, 9.525, 9.272, 9.491, 9.536, 10.214, 9.682, 11.582, 9.328, 9.11, 9.162, 9.556, 9.597, 9.419, 9.164, 9.515, 9.399, 9.565, 9.337, 9.692, 9.147, 9.575, 9.217, 9.784, 9.476, 9.267, 10.03, 9.765, 9.703, 9.715, 9.263, 9.657, 9.38, 9.458, 9.525, 9.382, 9.61, 9.303, 9.131, 9.555, 9.734, 9.435, 9.362, 9.395, 9.468, 9.232, 9.711, 9.013, 9.512, 9.569, 9.136, 9.438, 9.598, 9.212, 9.515, 9.484, 9.399, 9.513, 9.235, 9.46, 9.508, 9.263, 9.489, 9.44, 9.383, 9.622, 9.185, 9.136, 9.289, 9.392, 9.505, 9.622, 9.433, 9.611, 9.49, 9.241, 9.299, 9.371, 9.699, 17.945, 14.265, 9.378, 9.71, 9.18, 9.292, 9.692, 9.754, 9.489, 9.42, 9.144, 9.406, 9.52, 9.292, 9.29, 9.621, 9.289, 9.767, 9.431, 9.607, 9.124, 9.812, 9.286, 9.572, 9.228, 9.932, 9.087, 9.584, 9.637, 9.35, 9.421, 10.111, 9.583, 10.413, 9.286, 9.737, 9.577, 9.163, 9.814, 9.288, 9.414, 9.317, 9.119, 9.365, 9.51, 9.292, 9.937, 9.289, 8.952, 9.508, 9.871, 9.176, 9.619, 9.816, 9.26, 9.498, 9.432, 9.088, 9.6, 9.845, 9.807, 9.384, 9.701, 9.223, 9.783, 9.218, 9.695, 9.246, 9.621, 9.242, 9.376, 9.102, 9.407, 9.359, 9.012, 10.17, 9.297, 9.517, 9.364, 9.708, 9.442, 9.415, 9.125, 9.525, 9.338, 9.414, 9.687, 9.263, 9.464, 9.344, 9.525, 9.518, 9.264, 9.528, 9.118, 9.719, 9.594, 9.013, 9.673, 8.993, 9.808, 9.358, 9.676, 9.742, 9.283, 9.592, 10.435, 9.407, 17.783, 9.242, 12.273, 9.338, 9.354, 11.856, 9.19, 9.293, 11.931, 18.977, 10.589, 9.485, 9.852, 10.07, 9.408, 25.05, 9.107, 9.507, 11.224, 9.353, 9.342, 11.155, 24.665, 10.744, 9.57, 9.111, 9.721, 9.848, 9.201, 9.712, 9.296, 9.651, 9.311, 9.487, 9.447, 9.364, 9.66, 9.412, 9.362, 9.748, 9.544, 9.232, 9.516, 12.313, 12.467, 11.149, 9.56, 9.409, 11.312, 10.008, 11.306, 9.293, 9.517, 9.34, 9.516, 9.638, 9.553, 9.627, 9.226, 9.487, 9.426, 9.078, 9.411, 9.499, 9.713, 10.163, 9.429, 9.35, 9.365, 9.437, 9.471, 9.29, 9.538, 9.623, 9.175, 9.534, 9.491, 9.388, 9.334, 9.295, 9.211, 9.309, 9.309, 9.67, 9.703, 9.521, 9.268, 9.338, 9.294, 9.355, 9.551, 9.591, 9.527, 9.763, 9.323],
  "Optimizer iterations": 950,
  "Optimizer params": [0.9351735157471899, 0.9325123419513571, 0.5709573843081083, 0.582608205658394, 0.9050316294584637, 0.02224766636361233, 0.29887890676266926, 0.6035184490518435, 0.9646686011618907, 0.4643099625941168, 0.9623585993209489, 0.4611629738250487, 0.9972913074451331, 0.5238659851309778, 0.9544593420079625, 0.501140486402577, 0.9475713929404608, 0.09825042636939796, 0.4260072710724237, 0.9628763999027303, 0.5123851129913363, 0.9997116620606221, 0.7772899016910487, 0.0023271405942083185, 0.4950793572951148, 0.03527738493196753, 0.49386046963880614, 0.4718010851067362, 0.994050258600286, 0.9877797561795854, 0.25991730861197193, 0.2150897399366211],
  "P": 0,
  "Problem": "IC",
  "QJob durations [ms]": [0.43790000199805945, 0.42625000060070306, 0.4109500005142763, 0.4396500007715076, 0.4345500055933371, 0.43200000072829425, 0.41340000461786985, 0.4244500014465302, 0.4306499904487282, 0.418550000176765, 0.4246500029694289, 0.4263500013621524, 0.4327500064391643, 0.42070000199601054, 0.43655000627040863, 0.41039999632630497, 0.42979999852832407, 0.42544999450910836, 0.4174000059720129, 0.4268500051693991, 0.41259999852627516, 0.4257500113453716, 0.4153500049142167, 0.5439499946078286, 0.43759999971371144, 0.5459999956656247, 0.4201499978080392, 0.4189000028418377, 0.40985000669024885, 0.4228000034345314, 0.4187500016996637, 0.4226500022923574, 0.4253999941283837, 0.42209999810438603, 0.41710000368766487, 0.4241999995429069, 0.41429999691899866, 0.41105000127572566, 0.4199999966658652, 0.42520000715740025, 0.418550000176765, 0.41214999509975314, 0.43074999121017754, 0.42109999048989266, 0.4130000015720725, 0.4229000041959807, 0.4259999986970797, 0.4262000002199784, 0.4131500027142465, 0.43330001062713563, 0.4209000035189092, 0.4606000002240762, 0.40955000440590084, 0.417499992181547, 0.41894998867064714, 0.41120000241789967, 0.4134500049985945, 0.4227499885018915, 0.4222999996272847, 0.4167500010225922, 0.417649993323721, 0.4289499920560047, 0.42210001265630126, 0.4164499987382442, 0.41384999349247664, 0.41495000186841935, 0.42469998879823834, 0.4239999980200082, 0.4181500116828829, 0.42335000762250274, 0.44160000106785446, 0.42449998727533966, 0.43280000681988895, 0.421199991251342, 0.4295999970054254, 0.4115000047022477, 0.44544998672790825, 0.42285000381525606, 0.4056000034324825, 0.42359999497421086, 0.4121999954804778, 0.4188499879091978, 0.43390000064391643, 0.41879998752847314, 0.4191000043647364, 0.4405999934533611, 0.42135000694543123, 0.41945000702980906, 0.4220500122755766, 0.41555000643711537, 0.4190499894320965, 0.41804999636951834, 0.41885000246111304, 0.42564999603200704, 0.46305000432766974, 0.4270000063115731, 0.4132499889237806, 0.40800000715535134, 0.41724999027792364, 0.42285000381525606, 0.41980000969488174, 0.41575000796001405, 0.41455001337453723, 0.4150500026298687, 0.41540000529494137, 0.4206500016152859, 0.42725000821519643, 0.4258499975549057, 0.41849999979604036, 0.4140499950153753, 0.42224999924656004, 0.4282500012777746, 0.4265000025043264, 0.4109500005142763, 0.4184499994153157, 0.4215500084683299, 0.4126499989069998, 0.42135000694543123, 0.4267000040272251, 0.41459999920334667, 0.42409999878145754, 0.4174499918008223, 0.4156499926466495, 0.41634999797679484, 0.414549998822622, 0.42055000085383654, 0.41310000233352184, 0.41414999577682465, 0.5238000157987699, 0.4268000047886744, 0.4602999979397282, 0.4277499974705279, 0.4200999974273145, 0.4258499975549057, 0.42320000648032874, 0.4200999974273145, 0.4275999963283539, 0.417799994465895, 0.42350000876467675, 0.41939999209716916, 0.4247999895596877, 0.42209999810438603, 0.41184999281540513, 0.4261499998392537, 0.41665000026114285, 0.4377999866846949, 0.4282000008970499, 0.42669998947530985, 0.41545000567566603, 0.43000000005122274, 0.421799995820038, 0.41200000850949436, 0.4156499926466495, 0.4229000041959807, 0.4261499998392537, 0.42475000373087823, 0.41989999590441585, 0.42294999002479017, 0.41870000131893903, 0.4165499994996935, 0.41280000004917383, 0.42374999611638486, 0.4269500059308484, 0.4252500075381249, 0.4198500100756064, 0.42645000212360173, 0.4156499926466495, 0.4187500016996637, 0.42470000335015357, 0.4114499897696078, 0.4271000070730224, 0.4234000080032274, 0.41775000863708556, 0.418399999034591, 0.4266500036465004, 0.4349999944679439, 0.41604999569244683, 0.4167500010225922, 0.43059999006800354, 0.42559999565128237, 0.42034999933093786, 0.4478999908315018, 0.4149000014876947, 0.4230499907862395, 0.44299999717622995, 0.41510000301059335, 0.4218499962007627, 0.4202499985694885, 0.4216999950585887, 0.4173500055912882, 0.4276999970898032, 0.4163000121479854, 0.42579999717418104, 0.41754999256227165, 0.4280500143067911, 0.4216999950585887, 0.4271500074537471, 0.41039999632630497, 0.4191999905742705, 0.42135000694543123, 0.42055000085383654, 0.45680000039283186, 0.4159499949309975, 0.4167000006418675, 0.4215500084683299, 0.4133500042371452, 0.4088499990757555, 0.4341999883763492, 0.42270000267308205, 0.42204999772366136, 0.4167999868514016, 0.4276999970898032, 0.41960000817198306, 0.41125000279862434, 0.41459999920334667, 0.4141500103287399, 0.4228000034345314, 0.4165999998804182, 0.41399999463465065, 0.4168500017840415, 0.4278499982319772, 0.4202999989502132, 0.415000002249144, 0.41874998714774847, 0.4140999953961, 0.40994999289978296, 0.4513999883783981, 0.41870000131893903, 0.4299499996704981, 0.4305500042391941, 0.42299999040551484, 0.42884999129455537, 0.4619000101229176, 0.4257499967934564, 0.4696500109275803, 0.418550000176765, 0.4155999922659248, 0.42224999924656004, 0.5698000168194994, 0.41930000588763505, 0.41310000233352184, 0.562249988433905, 0.4197000089334324, 0.4209999897284433, 0.558300016564317, 0.4218499962007627, 0.461049989098683, 0.4100499936612323, 0.4226500022923574, 0.4624000139301643, 0.4204500000923872, 0.5216000135987997, 0.4157499934080988, 0.425199992605485, 0.5057999951532111, 0.4149999876972288, 0.4236000095261261, 0.4742500022985041, 0.4312999953981489, 0.5376000044634566, 0.4188999882899225, 0.4253999941283837, 0.45179999142419547, 0.42189999658148736, 0.4103499959455803, 0.4250999918440357, 0.4210500046610832, 0.42204999772366136, 0.4266500036465004, 0.414699999964796, 0.4200500115985051, 0.41634999797679484, 0.42559999565128237, 0.41680000140331686, 0.41360000614076853, 0.42374999611638486, 0.42379999649710953, 0.42085000313818455, 0.42645000212360173, 0.4188999882899225, 0.41730000521056354, 0.4130000015720725, 0.42039999971166253, 0.4292000085115433, 0.4119500081287697, 0.4192000051261857, 0.4310999938752502, 0.41695000254549086, 0.4318999999668449, 0.4167000006418675, 0.4067999980179593, 0.413949994253926, 0.4189999890513718, 0.4327000060584396, 0.42875000508502126, 0.42725000821519643, 0.4236999957356602, 0.42149999353569, 0.4155999922659248, 0.4227500030538067, 0.41774999408517033, 0.4271500074537471, 0.42109999048989266, 0.4344000044511631, 0.4249500052537769, 0.4233000072417781, 0.417499992181547, 0.42359999497421086, 0.4249499907018617, 0.4234999942127615, 0.4208499885862693, 0.4301000008126721, 0.4154499911237508, 0.4159499949309975, 0.41939999209716916, 0.42189999658148736, 0.4280499997548759, 0.4132000030949712, 0.43659999209921807, 0.4194999928586185, 0.42655000288505107, 0.40859999717213213, 0.4262000002199784, 0.4202999989502132, 0.41849999979604036, 0.42180001037195325, 0.4095999902347103, 0.41464999958407134, 0.4170500033069402, 0.4218499962007627, 0.4320500011090189, 0.45235001016408205, 0.5115000094519928, 0.4138999938732013, 0.5209000082686543, 0.42219999886583537, 0.41724999027792364, 0.41739999142009765, 0.418550000176765, 0.42984999890904874, 0.4256000102031976, 0.4192000051261857, 0.41244999738410115, 0.42860000394284725, 0.41215000965166837, 0.4344500048318878, 0.418249997892417, 0.417499992181547, 0.44510001316666603, 0.4165499994996935, 0.44160000106785446, 0.4280499997548759, 0.41385000804439187, 0.418249997892417, 0.41605001024436206, 0.42549999488983303, 0.41179999243468046, 0.4425000079208985, 0.4192500055069104, 0.4200000112177804, 0.47805000212974846, 0.4210500046610832, 0.41519998922012746, 0.41629999759607017, 0.43039998854510486, 0.455000001238659, 0.4394000134197995, 0.4191499901935458, 0.43754999933298677, 0.41524998960085213, 0.41944999247789383, 0.4206500016152859, 0.4141999961575493, 0.43659999209921807, 0.42799999937415123, 0.4170500033069402, 0.4191999905742705, 0.413949994253926, 0.4501000075833872, 0.4155999922659248, 0.43339999683666974, 0.4233499930705875, 0.4227500030538067, 0.4184499994153157, 0.4195500077912584, 0.4208000027574599, 0.4212000058032572, 0.44440000783652067, 0.4129499866394326, 0.4278499982319772, 0.4157999937888235, 0.42039999971166253, 0.4190500039840117, 0.4278999986127019, 0.41534999036230147, 0.421349992393516, 0.41274999966844916, 0.4253000079188496, 0.502750015584752, 0.42640000174287707, 0.40830000943969935, 0.42335000762250274, 0.42594999831635505, 0.4184499994153157, 0.4175000067334622, 0.41959999362006783, 0.411600005463697, 0.4200999974273145, 0.425349993747659, 0.4197000089334324, 0.4126499989069998, 0.4189000028418377, 0.42270000267308205, 0.4189500032225624, 0.42609999945852906, 0.4229500045767054, 0.4269499913789332, 0.41704998875502497, 0.4199499962851405, 0.4341000021668151, 0.42204999772366136, 0.4249500052537769, 0.41244999738410115, 0.42055000085383654, 0.4233000072417781, 0.4181499971309677, 0.4133999900659546, 0.42034999933093786, 0.44585000432562083, 0.41540000529494137, 0.44255000830162317, 0.4252500075381249, 0.4200999974273145, 0.4251000063959509, 0.4307000053813681, 0.4403999919304624, 0.4158500087214634, 0.45244999637361616, 0.5305500089889392, 0.4200999974273145, 0.4235499945934862, 0.42074998782482, 0.4309000069042668, 0.41665000026114285, 0.42255000153090805, 0.4143499972997233, 0.4288000054657459, 0.42124999163206667, 0.440200004959479, 0.4262000002199784, 0.4200000112177804, 0.4201499978080392, 0.41874998714774847, 0.44299999717622995, 0.418550000176765, 0.415000002249144, 0.4186000005574897, 0.4112499882467091, 0.45039999531582, 0.4178500093985349, 0.41619999683462083, 0.4413499991642311, 0.41584999416954815, 0.4271500074537471, 0.41429999691899866, 0.42905000736936927, 0.44129999878350645, 0.4230999911669642, 0.417799994465895, 0.4137499927310273, 0.411900007748045, 0.4212000058032572, 0.4197999951429665, 0.4130500019527972, 0.41310000233352184, 0.414549998822622, 0.4361500032246113, 0.413949994253926, 0.4096000047866255, 0.41105000127572566, 0.417349991039373, 0.42109999048989266, 0.42675000440794975, 0.41205000889021903, 0.4226000019116327, 0.414699999964796, 0.42400001257192343, 0.42734999442473054, 0.4277499974705279, 0.4259500128682703, 0.4435500013642013, 0.46234998444560915, 0.4149000014876947, 0.4133000038564205, 0.41414999577682465, 0.41880000208038837, 0.4140999953961, 0.42749999556690454, 0.4134500049985945, 0.40535000152885914, 0.4364000051282346, 0.41325000347569585, 0.45759999193251133, 0.4132000030949712, 0.4598500090651214, 0.42839998786803335, 0.4161000106250867, 0.4201499978080392, 0.4136500065214932, 0.42135000694543123, 0.4275499959476292, 0.42209999810438603, 0.41959999362006783, 0.4175999929429963, 0.4201499978080392, 0.41725000482983887, 0.43700000969693065, 0.42219999886583537, 0.421799995820038, 0.4236999957356602, 0.45619999582413584, 0.4250000056345016, 0.41039999632630497, 0.425049991463311, 0.42675000440794975, 0.4215499939164147, 0.41184999281540513, 0.41155000508297235, 0.43060000461991876, 0.42720000783447176, 0.4226500022923574, 0.4229000041959807, 0.4175500071141869, 0.41849999979604036, 0.420899988966994, 0.4147500003455207, 0.4246500029694289, 0.4315000114729628, 0.4222999996272847, 0.4175000067334622, 0.42535000829957426, 0.4947499983245507, 0.4221499984851107, 0.41715000406838953, 0.4310999938752502, 0.37665000127162784, 0.4228000034345314, 0.4158999945502728, 0.4277499974705279, 0.47620000259485096, 0.42039999971166253, 0.41959999362006783, 0.48054999206215143, 0.4501999937929213, 0.42830000165849924, 0.41360000614076853, 0.41334998968522996, 0.42549999488983303, 0.4131500027142465, 0.46919999294914305, 0.41870000131893903, 0.5276500014588237, 0.4158999945502728, 0.4209000035189092, 0.4845999937970191, 0.4130000015720725, 0.4253000079188496, 0.43485000787768513, 0.41429999691899866, 0.5072499916423112, 0.43485000787768513, 0.43054998968727887, 0.42050000047311187, 0.4383000050438568, 0.414699999964796, 0.42964999738615006, 0.4181499971309677, 0.42740000935737044, 0.41715000406838953, 0.4239999980200082, 0.42904999281745404, 0.42905000736936927, 0.4165499994996935, 0.43325001024641097, 0.414549998822622, 0.4194000066490844, 0.4267499898560345, 0.41325000347569585, 0.41944999247789383, 0.42145000770688057, 0.42109999048989266, 0.5221499886829406, 0.41534999036230147, 0.4223500000080094, 0.41459999920334667, 0.42845000280067325, 0.42359999497421086, 0.40530000114813447, 0.41915000474546105, 0.41360000614076853, 0.41459999920334667, 0.42174999543931335, 0.42815000051632524, 0.4258499975549057, 0.4192000051261857, 0.41880000208038837, 0.4402499907882884, 0.42174999543931335, 0.4231999919284135, 0.4202499985694885, 0.41435001185163856, 0.4200999974273145, 0.44600000546779484, 0.4243500006850809, 0.4244500014465302, 0.42314999154768884, 0.42655000288505107, 0.41709998913574964, 0.4200999974273145, 0.42889999167528003, 0.41680000140331686, 0.41575000796001405, 0.413949994253926, 0.415000002249144, 0.4206500016152859, 0.4143499972997233, 0.4219999973429367, 0.4268000047886744, 0.42100000428035855, 0.41375000728294253, 0.41519998922012746, 0.4122500104131177, 0.41480000072624534, 0.4182999982731417, 0.4301000008126721, 0.4194999928586185, 0.4226999881211668, 0.4218500107526779, 0.41730000521056354, 0.4206500016152859, 0.4320500011090189, 0.418099996750243, 0.5446999857667834, 0.5244999920250848, 0.42394999763928354, 0.41599999531172216, 0.43289999302942306, 0.41295000119134784, 0.41485000110697, 0.42964999738615006, 0.4321000014897436, 0.42609999945852906, 0.4196499940007925, 0.44284999603405595, 0.41274999966844916, 0.4126499989069998, 0.42255000153090805, 0.4304999893065542, 0.4294499958632514, 0.42209999810438603, 0.414399997680448, 0.418399999034591, 0.4169000021647662, 0.4240499984007329, 0.4194999928586185, 0.43790000199805945, 0.42645000212360173, 0.4157000075792894, 0.42579999717418104, 0.41554999188520014, 0.414699999964796, 0.4165999998804182, 0.4236000095261261, 0.46120001934468746, 0.4462000069906935, 0.4227500030538067, 0.41539999074302614, 0.41619999683462083, 0.41194999357685447, 0.41695000254549086, 0.42285000381525606, 0.4253999941283837, 0.4239000118104741, 0.4119500081287697, 0.43059999006800354, 0.41944999247789383, 0.42300000495743006, 0.4133999900659546, 0.4175000067334622, 0.4198499955236912, 0.41775000863708556, 0.4259000124875456, 0.4216999950585887, 0.4164499987382442, 0.43754999933298677, 0.42969999776687473, 0.4341000021668151, 0.4337499995017424, 0.41120000241789967, 0.4267999902367592, 0.4265000025043264, 0.41325000347569585, 0.42305000533815473, 0.41924999095499516, 0.4241499991621822, 0.417949995608069, 0.41799999598879367, 0.4326000052969903, 0.4286500043235719, 0.4211000050418079, 0.41495000186841935, 0.41725000482983887, 0.4126999992877245, 0.41915000474546105, 0.4320500011090189, 0.4140999953961, 0.4099000070709735, 0.4173500055912882, 0.4202999989502132, 0.41090000013355166, 0.4234000080032274, 0.42460000258870423, 0.42830000165849924, 0.42654998833313584, 0.41555000643711537, 0.42549999488983303, 0.4104999970877543, 0.4124999977648258, 0.41885000246111304, 0.4113999893888831, 0.43104999349452555, 0.4172000044491142, 0.4224500007694587, 0.4206000012345612, 0.40550000267103314, 0.41784999484661967, 0.41634999797679484, 0.4160999960731715, 0.4165999998804182, 0.42734999442473054, 0.4279500135453418, 0.42135000694543123, 0.42019999818876386, 0.4157000075792894, 0.41229999624192715, 0.42240000038873404, 0.42779999785125256, 0.43134999577887356, 0.5281500052660704, 0.41834999865386635, 0.4265000025043264, 0.414699999964796, 0.42240000038873404, 0.4310999938752502, 0.4212000058032572, 0.42484998994041234, 0.4206500016152859, 0.41715000406838953, 0.414549998822622, 0.41745000635273755, 0.41700000292621553, 0.4158500087214634, 0.43089999235235155, 0.42240000038873404, 0.42654998833313584, 0.41880000208038837, 0.4243000003043562, 0.4150500026298687, 0.43184999958612025, 0.41295000119134784, 0.42660000326577574, 0.42485000449232757, 0.43575000017881393, 0.41725000482983887, 0.4204500000923872, 0.42969999776687473, 0.41834999865386635, 0.4200999974273145, 0.42985001346096396, 0.4292000085115433, 0.4150500026298687, 0.4234500083839521, 0.4223500000080094, 0.42890000622719526, 0.4176500078756362, 0.4259999986970797, 0.4234999942127615, 0.41110000165645033, 0.41629999759607017, 0.41865000093821436, 0.41349999082740396, 0.41599999531172216, 0.4232499923091382, 0.43754999933298677, 0.415000002249144, 0.4107999993721023, 0.42019999818876386, 0.4304000030970201, 0.4161000106250867, 0.421349992393516, 0.441100011812523, 0.4122499958612025, 0.42505000601522624, 0.41730000521056354, 0.41485000110697, 0.43510000978130847, 0.4330000083427876, 0.42424999992363155, 0.4292000085115433, 0.42729999404400587, 0.4130500019527972, 0.4329000075813383, 0.4169000021647662, 0.42284998926334083, 0.421049990109168, 0.4224499862175435, 0.41774999408517033, 0.4147500003455207, 0.4167000006418675, 0.4123999970033765, 0.4192500055069104, 0.4123499966226518, 0.45179999142419547, 0.4226000019116327, 0.41754999256227165, 0.4232499923091382, 0.4326000052969903, 0.4217500099912286, 0.41525000415276736, 0.4125499981455505, 0.4241999995429069, 0.4234500083839521, 0.4243500006850809, 0.4202499985694885, 0.41444999806117266, 0.4251000063959509, 0.4288500058464706, 0.4290999931981787, 0.4164499987382442, 0.4233000072417781, 0.41555000643711537, 0.4135000053793192, 0.4353499971330166, 0.4253000079188496, 0.41555000643711537, 0.4248000041116029, 0.4133000038564205, 0.42544999450910836, 0.4320500011090189, 0.4360999882919714, 0.4253999941283837, 0.4256999964127317, 0.4241999995429069, 0.4726500192191452, 0.4162499972153455, 0.42919999395962805, 0.42455000220797956, 0.5611500091617927, 0.4269499913789332, 0.4113500035600737, 0.5426999850897118, 0.41524998960085213, 0.4165499994996935, 0.5429500160971656, 0.4211000050418079, 0.4791000101249665, 0.4216999950585887, 0.41229999624192715, 0.4521000082604587, 0.415150003391318, 0.39790000300854445, 0.4207500023767352, 0.41695000254549086, 0.5320499913068488, 0.4103499959455803, 0.41885000246111304, 0.5150000069988891, 0.403900005039759, 0.4903000080958009, 0.4173500055912882, 0.41125000279862434, 0.43489999370649457, 0.42699999175965786, 0.4138000076636672, 0.44409999100025743, 0.42860000394284725, 0.4181499971309677, 0.4167500010225922, 0.42114999087061733, 0.4274499951861799, 0.4197000089334324, 0.424749989178963, 0.4270999925211072, 0.41590000910218805, 0.4383000050438568, 0.4275999963283539, 0.41980000969488174, 0.4183000128250569, 0.5381500086514279, 0.49474998377263546, 0.45745000534225255, 0.425349993747659, 0.417949995608069, 0.5279499891912565, 0.4371499962871894, 0.47899999481160194, 0.41804999636951834, 0.4290000069886446, 0.4120999947190285, 0.4327500064391643, 0.41044999670702964, 0.4225999873597175, 0.42535000829957426, 0.414399997680448, 0.417949995608069, 0.4214000073261559, 0.40935000288300216, 0.4188999882899225, 0.42130000656470656, 0.44535000051837415, 0.4484999954001978, 0.4236000095261261, 0.4215499939164147, 0.4177000082563609, 0.41405000956729054, 0.4253000079188496, 0.4275999963283539, 0.42625000060070306, 0.4245000018272549, 0.40874999831430614, 0.42764999670907855, 0.4211000050418079, 0.4191000043647364, 0.4092500021215528, 0.41290000081062317, 0.40874999831430614, 0.4149000014876947, 0.4201499978080392, 0.43089999235235155, 0.41969999438151717, 0.4238499968778342, 0.4164499987382442, 0.4118999931961298, 0.4150500026298687, 0.418249997892417, 0.42640000174287707, 0.4250000056345016, 0.4219999973429367, 0.42625000060070306, 0.4276999970898032],
  "QPU": "7000000",
  "Qubits": 8,
  "Queue durations [ms]": [0.0, 0.0, 0.0, 0.0, 0.0, 0.0, 0.0, 0.0, 0.0, 0.0, 0.0, 0.0, 0.0, 0.0, 0.0, 0.0, 0.0, 0.0, 0.0, 0.0, 0.0, 0.0, 0.0, 0.0, 0.0, 0.0, 0.0, 0.0, 0.0, 0.0, 0.0, 0.0, 0.0, 0.0, 0.0, 0.0, 0.0, 0.0, 0.0, 0.0, 0.0, 0.0, 0.0, 0.0, 0.0, 0.0, 0.0, 0.0, 0.0, 0.0, 0.0, 0.0, 0.0, 0.0, 0.0, 0.0, 0.0, 0.0, 0.0, 0.0, 0.0, 0.0, 0.0, 0.0, 0.0, 0.0, 0.0, 0.0, 0.0, 0.0, 0.0, 0.0, 0.0, 0.0, 0.0, 0.0, 0.0, 0.0, 0.0, 0.0, 0.0, 0.0, 0.0, 0.0, 0.0, 0.0, 0.0, 0.0, 0.0, 0.0, 0.0, 0.0, 0.0, 0.0, 0.0, 0.0, 0.0, 0.0, 0.0, 0.0, 0.0, 0.0, 0.0, 0.0, 0.0, 0.0, 0.0, 0.0, 0.0, 0.0, 0.0, 0.0, 0.0, 0.0, 0.0, 0.0, 0.0, 0.0, 0.0, 0.0, 0.0, 0.0, 0.0, 0.0, 0.0, 0.0, 0.0, 0.0, 0.0, 0.0, 0.0, 0.0, 0.0, 0.0, 0.0, 0.0, 0.0, 0.0, 0.0, 0.0, 0.0, 0.0, 0.0, 0.0, 0.0, 0.0, 0.0, 0.0, 0.0, 0.0, 0.0, 0.0, 0.0, 0.0, 0.0, 0.0, 0.0, 0.0, 0.0, 0.0, 0.0, 0.0, 0.0, 0.0, 0.0, 0.0, 0.0, 0.0, 0.0, 0.0, 0.0, 0.0, 0.0, 0.0, 0.0, 0.0, 0.0, 0.0, 0.0, 0.0, 0.0, 0.0, 0.0, 0.0, 0.0, 0.0, 0.0, 0.0, 0.0, 0.0, 0.0, 0.0, 0.0, 0.0, 0.0, 0.0, 0.0, 0.0, 0.0, 0.0, 0.0, 0.0, 0.0, 0.0, 0.0, 0.0, 0.0, 0.0, 0.0, 0.0, 0.0, 0.0, 0.0, 0.0, 0.0, 0.0, 0.0, 0.0, 0.0, 0.0, 0.0, 0.0, 0.0, 0.0, 0.0, 0.0, 0.0, 0.0, 0.0, 0.0, 0.0, 0.0, 0.0, 0.0, 0.0, 0.0, 0.0, 0.0, 0.0, 0.0, 0.0, 0.0, 0.0, 0.0, 0.0, 0.0, 0.0, 0.0, 0.0, 0.0, 0.0, 0.0, 0.0, 0.0, 0.0, 0.0, 0.0, 0.0, 0.0, 0.0, 0.0, 0.0, 0.0, 0.0, 0.0, 0.0, 0.0, 0.0, 0.0, 0.0, 0.0, 0.0, 0.0, 0.0, 0.0, 0.0, 0.0, 0.0, 0.0, 0.0, 0.0, 0.0, 0.0, 0.0, 0.0, 0.0, 0.0, 0.0, 0.0, 0.0, 0.0, 0.0, 0.0, 0.0, 0.0, 0.0, 0.0, 0.0, 0.0, 0.0, 0.0, 0.0, 0.0, 0.0, 0.0, 0.0, 0.0, 0.0, 0.0, 0.0, 0.0, 0.0, 0.0, 0.0, 0.0, 0.0, 0.0, 0.0, 0.0, 0.0, 0.0, 0.0, 0.0, 0.0, 0.0, 0.0, 0.0, 0.0, 0.0, 0.0, 0.0, 0.0, 0.0, 0.0, 0.0, 0.0, 0.0, 0.0, 0.0, 0.0, 0.0, 0.0, 0.0, 0.0, 0.0, 0.0, 0.0, 0.0, 0.0, 0.0, 0.0, 0.0, 0.0, 0.0, 0.0, 0.0, 0.0, 0.0, 0.0, 0.0, 0.0, 0.0, 0.0, 0.0, 0.0, 0.0, 0.0, 0.0, 0.0, 0.0, 0.0, 0.0, 0.0, 0.0, 0.0, 0.0, 0.0, 0.0, 0.0, 0.0, 0.0, 0.0, 0.0, 0.0, 0.0, 0.0, 0.0, 0.0, 0.0, 0.0, 0.0, 0.0, 0.0, 0.0, 0.0, 0.0, 0.0, 0.0, 0.0, 0.0, 0.0, 0.0, 0.0, 0.0, 0.0, 0.0, 0.0, 0.0, 0.0, 0.0, 0.0, 0.0, 0.0, 0.0, 0.0, 0.0, 0.0, 0.0, 0.0, 0.0, 0.0, 0.0, 0.0, 0.0, 0.0, 0.0, 0.0, 0.0, 0.0, 0.0, 0.0, 0.0, 0.0, 0.0, 0.0, 0.0, 0.0, 0.0, 0.0, 0.0, 0.0, 0.0, 0.0, 0.0, 0.0, 0.0, 0.0, 0.0, 0.0, 0.0, 0.0, 0.0, 0.0, 0.0, 0.0, 0.0, 0.0, 0.0, 0.0, 0.0, 0.0, 0.0, 0.0, 0.0, 0.0, 0.0, 0.0, 0.0, 0.0, 0.0, 0.0, 0.0, 0.0, 0.0, 0.0, 0.0, 0.0, 0.0, 0.0, 0.0, 0.0, 0.0, 0.0, 0.0, 0.0, 0.0, 0.0, 0.0, 0.0, 0.0, 0.0, 0.0, 0.0, 0.0, 0.0, 0.0, 0.0, 0.0, 0.0, 0.0, 0.0, 0.0, 0.0, 0.0, 0.0, 0.0, 0.0, 0.0, 0.0, 0.0, 0.0, 0.0, 0.0, 0.0, 0.0, 0.0, 0.0, 0.0, 0.0, 0.0, 0.0, 0.0, 0.0, 0.0, 0.0, 0.0, 0.0, 0.0, 0.0, 0.0, 0.0, 0.0, 0.0, 0.0, 0.0, 0.0, 0.0, 0.0, 0.0, 0.0, 0.0, 0.0, 0.0, 0.0, 0.0, 0.0, 0.0, 0.0, 0.0, 0.0, 0.0, 0.0, 0.0, 0.0, 0.0, 0.0, 0.0, 0.0, 0.0, 0.0, 0.0, 0.0, 0.0, 0.0, 0.0, 0.0, 0.0, 0.0, 0.0, 0.0, 0.0, 0.0, 0.0, 0.0, 0.0, 0.0, 0.0, 0.0, 0.0, 0.0, 0.0, 0.0, 0.0, 0.0, 0.0, 0.0, 0.0, 0.0, 0.0, 0.0, 0.0, 0.0, 0.0, 0.0, 0.0, 0.0, 0.0, 0.0, 0.0, 0.0, 0.0, 0.0, 0.0, 0.0, 0.0, 0.0, 0.0, 0.0, 0.0, 0.0, 0.0, 0.0, 0.0, 0.0, 0.0, 0.0, 0.0, 0.0, 0.0, 0.0, 0.0, 0.0, 0.0, 0.0, 0.0, 0.0, 0.0, 0.0, 0.0, 0.0, 0.0, 0.0, 0.0, 0.0, 0.0, 0.0, 0.0, 0.0, 0.0, 0.0, 0.0, 0.0, 0.0, 0.0, 0.0, 0.0, 0.0, 0.0, 0.0, 0.0, 0.0, 0.0, 0.0, 0.0, 0.0, 0.0, 0.0, 0.0, 0.0, 0.0, 0.0, 0.0, 0.0, 0.0, 0.0, 0.0, 0.0, 0.0, 0.0, 0.0, 0.0, 0.0, 0.0, 0.0, 0.0, 0.0, 0.0, 0.0, 0.0, 0.0, 0.0, 0.0, 0.0, 0.0, 0.0, 0.0, 0.0, 0.0, 0.0, 0.0, 0.0, 0.0, 0.0, 0.0, 0.0, 0.0, 0.0, 0.0, 0.0, 0.0, 0.0, 0.0, 0.0, 0.0, 0.0, 0.0, 0.0, 0.0, 0.0, 0.0, 0.0, 0.0, 0.0, 0.0, 0.0, 0.0, 0.0, 0.0, 0.0, 0.0, 0.0, 0.0, 0.0, 0.0, 0.0, 0.0, 0.0, 0.0, 0.0, 0.0, 0.0, 0.0, 0.0, 0.0, 0.0, 0.0, 0.0, 0.0, 0.0, 0.0, 0.0, 0.0, 0.0, 0.0, 0.0, 0.0, 0.0, 0.0, 0.0, 0.0, 0.0, 0.0, 0.0, 0.0, 0.0, 0.0, 0.0, 0.0, 0.0, 0.0, 0.0, 0.0, 0.0, 0.0, 0.0, 0.0, 0.0, 0.0, 0.0, 0.0, 0.0, 0.0, 0.0, 0.0, 0.0, 0.0, 0.0, 0.0, 0.0, 0.0, 0.0, 0.0, 0.0, 0.0, 0.0, 0.0, 0.0, 0.0, 0.0, 0.0, 0.0, 0.0, 0.0, 0.0, 0.0, 0.0, 0.0, 0.0, 0.0, 0.0, 0.0, 0.0, 0.0, 0.0, 0.0, 0.0, 0.0, 0.0, 0.0, 0.0, 0.0, 0.0, 0.0, 0.0, 0.0, 0.0, 0.0, 0.0, 0.0, 0.0, 0.0, 0.0, 0.0, 0.0, 0.0, 0.0, 0.0, 0.0, 0.0, 0.0, 0.0, 0.0, 0.0, 0.0, 0.0, 0.0, 0.0, 0.0, 0.0, 0.0, 0.0, 0.0, 0.0, 0.0, 0.0, 0.0, 0.0, 0.0, 0.0, 0.0, 0.0, 0.0, 0.0, 0.0, 0.0, 0.0, 0.0, 0.0, 0.0, 0.0, 0.0, 0.0, 0.0, 0.0, 0.0, 0.0, 0.0, 0.0, 0.0, 0.0, 0.0, 0.0, 0.0, 0.0, 0.0, 0.0, 0.0, 0.0, 0.0, 0.0, 0.0, 0.0, 0.0, 0.0, 0.0, 0.0, 0.0, 0.0, 0.0, 0.0, 0.0, 0.0, 0.0, 0.0, 0.0, 0.0, 0.0, 0.0, 0.0, 0.0, 0.0, 0.0, 0.0, 0.0, 0.0, 0.0, 0.0, 0.0, 0.0, 0.0, 0.0, 0.0, 0.0, 0.0, 0.0, 0.0, 0.0, 0.0, 0.0, 0.0, 0.0, 0.0, 0.0, 0.0, 0.0, 0.0, 0.0, 0.0, 0.0, 0.0, 0.0, 0.0, 0.0, 0.0, 0.0, 0.0, 0.0, 0.0, 0.0, 0.0, 0.0, 0.0, 0.0, 0.0, 0.0, 0.0, 0.0, 0.0, 0.0, 0.0],
  "Shots": 4096,
  "Size": 8,
  "Total Algorithm duration [s]": 9.284,
  "Total Classic duration [s]": 8.879149200060406,
  "Total Quantum duration [s]": 0.40485079993959516
}
