{
  "Circuit execution durations [ms]": [0.42720000783447176, 0.4187500016996637, 0.43914999696426094, 0.45280001359060407, 0.410549997468479, 0.44519999937620014, 0.4132999893045053, 0.4225000011501834, 0.41825001244433224, 0.41599999531172216, 0.4367500077933073, 0.41924999095499516, 0.4167500010225922, 0.43999998888466507, 0.4330000083427876, 0.41355000576004386, 0.41865000093821436, 0.42794999899342656, 0.42485000449232757, 0.42209999810438603, 0.42379999649710953, 0.4248000041116029, 0.4208000027574599, 0.4321000014897436, 0.4162499972153455, 0.43990000267513096, 0.41944999247789383, 0.4315999976824969, 0.42984999890904874, 0.42270000267308205, 0.4165999998804182, 0.41924999095499516, 0.41695000254549086, 0.4192500055069104, 0.41614999645389616, 0.4265999887138605, 0.4212000058032572, 0.43605000246316195, 0.443600001744926, 0.41784999484661967, 0.4157999937888235, 0.4191999905742705, 0.414399997680448, 0.43119999463669956, 0.4309000069042668, 0.4224500007694587, 0.42380001104902476, 0.4211000050418079, 0.4526999982772395, 0.41355000576004386, 0.414249996538274, 0.4230499907862395, 0.4202499985694885, 0.4275499959476292, 0.4158000083407387, 0.4341999883763492, 0.4418499884195626, 0.41110000165645033, 0.4097500059287995, 0.42100000428035855, 0.4189000028418377, 0.43575000017881393, 0.42409999878145754, 0.4269500059308484, 0.4331499949330464, 0.3976499865530059, 0.46284998825285584, 0.5850000161444768, 0.5080500122858211, 0.42359999497421086, 0.41429999691899866, 0.4351999959908426, 0.4282500012777746, 0.45054998190607876, 0.414399997680448, 0.41590000910218805, 0.4212500061839819, 0.4180000105407089, 0.4172000044491142, 0.4190500039840117, 0.41614999645389616, 0.4133500042371452, 0.4274499951861799, 0.415150003391318, 0.4114499897696078, 0.41354999120812863, 0.42055000085383654, 0.42010001197922975, 0.4186000005574897, 0.4192000051261857, 0.41715000406838953, 0.421949996962212, 0.4255499952705577, 0.414249996538274, 0.4237500106683001, 0.4206000012345612, 0.41334998968522996, 0.4186000005574897, 0.4170500033069402, 0.4360000020824373, 0.4155000060563907, 0.4107999993721023, 0.4315999976824969, 0.41244999738410115, 0.42905000736936927, 0.4346999921835959, 0.4481000069063157, 0.43224998808000237, 0.4189500032225624, 0.41680000140331686, 0.41575000796001405, 0.4093999887118116, 0.42055000085383654, 0.4257499967934564, 0.41819999751169235, 0.414549998822622, 0.417649993323721, 0.43229998846072704, 0.42455000220797956, 0.43304999417159706, 0.4369999951450154, 0.4230499907862395, 0.4275999963283539, 0.43000000005122274, 0.41769999370444566, 0.4267000040272251, 0.4165499994996935, 0.4218499962007627, 0.4199999966658652, 0.41120000241789967, 0.42779999785125256, 0.4241999995429069, 0.4298999992897734, 0.4167999868514016, 0.421049990109168, 0.42149999353569, 0.41590000910218805, 0.4181499971309677, 0.4197999951429665, 0.4158500087214634, 0.4331499949330464, 0.4184499994153157, 0.41199999395757914, 0.4409499961184338, 0.4200999974273145, 0.4169999883743003, 0.4276999970898032, 0.4112499882467091, 0.42135000694543123, 0.41289998625870794, 0.41105000127572566, 0.4272499936632812, 0.42704999214038253, 0.43474999256432056, 0.4138999938732013, 0.42645000212360173, 0.4200999974273145, 0.4137499927310273, 0.44934998732060194, 0.4411999980220571, 0.4156499926466495, 0.4222999996272847, 0.42830000165849924, 0.42609999945852906, 0.4199499962851405, 0.41599999531172216, 0.4168500017840415, 0.41524998960085213, 0.43929999810643494, 0.4229500045767054, 0.4168500017840415, 0.5516500095836818, 0.4270000063115731, 0.4328499926486984, 0.5596000119112432, 0.42559999565128237, 0.41325000347569585, 0.48565000179223716, 0.41900000360328704, 0.41819999751169235, 0.5103000003146008, 0.42224999924656004, 0.4131500027142465, 0.4143499972997233, 0.38225000025704503, 0.4268000047886744, 0.4189999890513718, 0.4118000069865957, 0.4155000060563907, 0.4211000050418079, 0.4156499926466495, 0.4483499942580238, 0.41745000635273755, 0.4159499949309975, 0.4123999970033765, 0.41694998799357563, 0.41649999911896884, 0.4291500081308186, 0.4102500097360462, 0.5819000070914626, 0.42174999543931335, 0.41584999416954815, 0.4260499990778044, 0.41110000165645033, 0.42039999971166253, 0.4223500000080094, 0.41665000026114285, 0.4454999871086329, 0.42630000098142773, 0.41805001092143357, 0.417199989897199, 0.4305000038584694, 0.41710000368766487, 0.41449999844189733, 0.42055000085383654, 0.4123999970033765, 0.4133000038564205, 0.44070000876672566, 0.42039999971166253, 0.4132000030949712, 0.41694998799357563, 0.4256999964127317, 0.41540000529494137, 0.4186000005574897, 0.44350000098347664, 0.421949996962212, 0.41399999463465065, 0.4139500088058412, 0.4245000018272549, 0.4258999979356304, 0.42704999214038253, 0.41510000301059335, 0.42329999268986285, 0.42490000487305224, 0.4152000037720427, 0.42320000648032874, 0.41635001252871007, 0.4468500119401142, 0.4297499981475994, 0.41769999370444566, 0.4231000057188794, 0.421199991251342, 0.42535000829957426, 0.4266500036465004, 0.41555000643711537, 0.4157000075792894, 0.42625000060070306, 0.42284998926334083, 0.4175000067334622, 0.4135000053793192, 0.41710000368766487, 0.421199991251342, 0.41399999463465065, 0.4261499998392537, 0.4107500135432929, 0.45274999865796417, 0.4113500035600737, 0.415000002249144, 0.43245000415481627, 0.4116500058444217, 0.42389999725855887, 0.4170500033069402, 0.40765000449027866, 0.42109999048989266, 0.42124999163206667, 0.42884999129455537, 0.4260499990778044, 0.41620001138653606, 0.49119998584501445, 0.45620001037605107, 0.417799994465895, 0.42449998727533966, 0.42934999510180205, 0.5806499975733459, 0.6229999999050051, 0.5828499852214009, 0.4230499907862395, 0.43170001299586147, 0.41405000956729054, 0.4171499895164743, 0.41039999632630497, 0.4202499985694885, 0.4300500004319474, 0.4302999877836555, 0.4417000018293038, 0.4154999915044755, 0.4147500003455207, 0.43184999958612025, 0.4187500016996637, 0.4182999982731417, 0.4229500045767054, 0.4625000001396984, 0.41495000186841935, 0.4240499984007329, 0.4392499977257103, 0.4209000035189092, 0.4162499972153455, 0.42475000373087823, 0.4188999882899225, 0.43095000728499144, 0.42210001265630126, 0.4106499982299283, 0.41805001092143357, 0.4226500022923574, 0.6067999929655343, 0.43929999810643494, 0.4269499913789332, 0.43509999522939324, 0.42300000495743006, 0.4182000120636076, 0.43184999958612025, 0.4157000075792894, 0.4219999973429367, 0.42329999268986285, 0.42889999167528003, 0.42640000174287707, 0.4163999983575195, 0.4224500007694587, 0.42180001037195325, 0.41104998672381043, 0.44489999709185213, 0.4187500016996637, 0.4130999877816066, 0.414249996538274, 0.4125499981455505, 0.42004999704658985, 0.4282000008970499, 0.4244500014465302, 0.48319999768864363, 0.4231000057188794, 0.4189000028418377, 0.4265000025043264, 0.42114999087061733, 0.4204500000923872, 0.4113999893888831, 0.4277499974705279, 0.42219999886583537, 0.41524998960085213, 0.4201499978080392, 0.41760000749491155, 0.4256999964127317, 0.40955000440590084, 0.42305000533815473, 0.4267000040272251, 0.42149999353569, 0.43330001062713563, 0.43295000796206295, 0.4325499903643504, 0.4164499987382442, 0.4302500019548461, 0.4172999906586483, 0.418550000176765, 0.42050000047311187, 0.4262000002199784, 0.42315000609960407, 0.418399999034591, 0.4258999979356304, 0.4217000096105039, 0.41604999569244683, 0.4186000005574897, 0.415000002249144, 0.4152000037720427, 0.42219999886583537, 0.4191999905742705, 0.4314499965403229, 0.4128500004298985, 0.424749989178963, 0.4320499865571037, 0.417949995608069, 0.4192000051261857, 0.41575000796001405, 0.418399999034591, 0.42270000267308205, 0.4295000107958913, 0.41789999522734433, 0.4223999858368188, 0.411450004321523, 0.5138499836903065, 0.4947500128764659, 0.5664499913109466, 0.42115000542253256, 0.41619999683462083, 0.4218500107526779, 0.4164499987382442, 0.45739999040961266, 0.4175999929429963, 0.40615000762045383, 0.42159999429713935, 0.4267999902367592, 0.40809999336488545, 0.4229000041959807, 0.41184999281540513, 0.42019999818876386, 0.4181499971309677, 0.42455000220797956, 0.468149984953925, 0.42285000381525606, 0.4360000020824373, 0.417949995608069, 0.4171499895164743, 0.41725000482983887, 0.42799999937415123, 0.4115499905310571, 0.41774999408517033, 0.4177000082563609, 0.44464998063631356, 0.4384499916341156, 0.4190499894320965, 0.49605000822339207, 0.42135000694543123, 0.4257499967934564, 0.4211000050418079, 0.41340000461786985, 0.42204999772366136, 0.42395001219119877, 0.4337999998824671, 0.43900001037400216, 0.41774999408517033, 0.4300500004319474, 0.42440000106580555, 0.4167500010225922, 0.41050001163966954, 0.4163999983575195, 0.4295499966247007, 0.4349000082584098, 0.4152000037720427, 0.4525499971350655, 0.4276000108802691, 0.42564999603200704, 0.4184499994153157, 0.4167500010225922, 0.41975000931415707, 0.43390000064391643, 0.4234000080032274, 0.41760000749491155, 0.4176500078756362, 0.41464999958407134, 0.4258999979356304, 0.4120499943383038, 0.4226000019116327, 0.41945000702980906, 0.4275499959476292, 0.4140499950153753, 0.42455000220797956, 0.42034999933093786, 0.4165499994996935, 0.4133999900659546, 0.4189000028418377, 0.4225000011501834, 0.4186000005574897, 0.44940000225324184, 0.4132000030949712, 0.4639000107999891, 0.41629999759607017, 0.42424999992363155, 0.4160999960731715, 0.4219999973429367, 0.41090000013355166, 0.42094998934771866, 0.42735000897664577, 0.4225000011501834, 0.4280499997548759, 0.42255000153090805, 0.4209000035189092, 0.4278000124031678, 0.42109999048989266, 0.4200999974273145, 0.41555000643711537, 0.4200999974273145, 0.41704998875502497, 0.4311499942559749, 0.42300000495743006, 0.42549999488983303, 0.41885000246111304, 0.4273999948054552, 0.41614999645389616, 0.41519998922012746, 0.4096500051673502, 0.4164499987382442, 0.4285000031813979, 0.4334499972173944, 0.4150500026298687, 0.42010001197922975, 0.418249997892417, 0.41975000931415707, 0.4259999986970797, 0.4192500055069104, 0.4200500115985051, 0.41799999598879367, 0.41519998922012746, 0.42535000829957426, 0.42315000609960407, 0.424899990321137, 0.4542500100797042, 0.521550013218075, 0.45244999637361616, 0.410699998610653, 0.4961500089848414, 0.4167500010225922, 0.4268500051693991, 0.5539499979931861, 0.4273000085959211, 0.4428999964147806, 0.4188499879091978, 0.4130500019527972, 0.41170000622514635, 0.42839998786803335, 0.4307000053813681, 0.42520000715740025, 0.5025999853387475, 0.4249500052537769, 0.4208499885862693, 0.4115999909117818, 0.40299999818671495, 0.4619000101229176, 0.4557000065688044, 0.42979999852832407, 0.43775000085588545, 0.4259999986970797, 0.4249500052537769, 0.4140999953961, 0.43149999692104757, 0.4258999979356304, 0.4158000083407387, 0.4260499990778044, 0.4210500046610832, 0.42219999886583537, 0.43360001291148365, 0.42895000660791993, 0.42189999658148736, 0.4319500003475696, 0.4132000030949712, 0.42315000609960407, 0.4474000015761703, 0.4165999998804182, 0.4267000040272251, 0.4329499934101477, 0.4202999989502132, 0.424899990321137, 0.41184999281540513, 0.41310000233352184, 0.41110000165645033, 0.42055000085383654, 0.4141999961575493, 0.4197999951429665, 0.4293999954825267, 0.41959999362006783, 0.4230499907862395, 0.41545000567566603, 0.4130500019527972, 0.4201499978080392, 0.41799999598879367, 0.4182000120636076, 0.4470000130822882, 0.41799999598879367, 0.440650008386001, 0.4181499971309677, 0.4199999966658652, 0.43044998892582953, 0.4156500071985647, 0.41530000453349203, 0.43245000415481627, 0.4197999951429665, 0.42734999442473054, 0.4299499996704981, 0.41524998960085213, 0.4358000005595386, 0.42224999924656004, 0.4236000095261261, 0.4236499953549355, 0.4271500074537471, 0.41355000576004386, 0.4169000021647662, 0.4143499972997233, 0.41695000254549086, 0.41945000702980906, 0.4112499882467091, 0.4163999983575195, 0.421649994677864, 0.414549998822622, 0.42424999992363155, 0.42305000533815473, 0.4134500049985945, 0.47679999261163175, 0.53854999714531, 0.4222999996272847, 0.5090000049676746, 0.4430999979376793, 0.42055000085383654, 0.417949995608069, 0.41959999362006783, 0.41449999844189733, 0.4196499940007925, 0.4141999961575493, 0.4184499994153157, 0.41694998799357563, 0.4133500042371452, 0.4164499987382442, 0.41525000415276736, 0.4311500088078901, 0.4219000111334026, 0.4243500006850809, 0.4121000092709437, 0.4132499889237806, 0.4198500100756064, 0.41449999844189733, 0.418099996750243, 0.415000002249144, 0.42964999738615006, 0.4162499972153455, 0.4317999992053956, 0.41399999463465065, 0.45464999857358634, 0.4200999974273145, 0.41399999463465065, 0.46070000098552555, 0.42240000038873404, 0.42195001151412725, 0.4677499964600429, 0.43479999294504523, 0.42255000153090805, 0.4195000074105337, 0.4226000019116327, 0.42305000533815473, 0.42255000153090805, 0.4197999951429665, 0.42379999649710953, 0.4140999953961, 0.42135000694543123, 0.43390000064391643, 0.42135000694543123, 0.421199991251342, 0.43125000956933945, 0.4163999983575195, 0.4195000074105337, 0.4233999934513122, 0.4258999979356304, 0.4196499940007925, 0.4246500029694289, 0.4219999973429367, 0.4378000012366101, 0.43009998626075685, 0.4222999996272847, 0.4192500055069104, 0.4334499972173944, 0.4198499955236912, 0.41745000635273755, 0.4312499950174242, 0.4142500110901892, 0.4301000008126721, 0.41464999958407134, 0.4292499943403527, 0.4191000043647364, 0.43134999577887356, 0.4445999948075041, 0.424449986894615, 0.42224999924656004, 0.4588000010699034, 0.41120000241789967, 0.4282500012777746, 0.43125000956933945, 0.41125000279862434, 0.44350000098347664, 0.4322000022511929, 0.42625000060070306, 0.4361000028438866, 0.4277499974705279, 0.41989999590441585, 0.4198500100756064, 0.4216999950585887, 0.4173500055912882, 0.42949999624397606, 0.42115000542253256, 0.42455000220797956, 0.42209999810438603, 0.42329999268986285, 0.42050000047311187, 0.41340000461786985, 0.4403999919304624, 0.4149000014876947, 0.43059999006800354, 0.41105000127572566, 0.41634999797679484, 0.44430000707507133, 0.41140000394079834, 0.4484000091906637, 0.4124000115552917, 0.43435000407043844, 0.4592500044964254, 0.4139500088058412, 0.4274500097380951, 0.42409999878145754, 0.4209999897284433, 0.43495000863913447, 0.41819999751169235, 0.41634999797679484, 0.4130999877816066, 0.4262000002199784, 0.4289499920560047, 0.4109500005142763, 0.4136500065214932, 0.41555000643711537, 0.4222999996272847, 0.45864998537581414, 0.42350000876467675, 0.4217000096105039, 0.42660000326577574, 0.4067999980179593, 0.4200999974273145, 0.411000000895001, 0.4099999932805076, 0.41885000246111304, 0.4195000074105337, 0.4219999973429367, 0.4209500038996339, 0.42374999611638486, 0.42520000715740025, 0.4113500035600737, 0.42055000085383654, 0.4226500022923574, 0.43104999349452555, 0.4521000082604587, 0.4615500074578449, 0.43715001083910465, 0.453949993243441, 0.42224999924656004, 0.41620001138653606, 0.4227500030538067, 0.4199999966658652, 0.4265000025043264, 0.42779999785125256, 0.42394999763928354, 0.42204999772366136, 0.42520000715740025, 0.4178500093985349, 0.44374998833518475, 0.41825001244433224, 0.4468500119401142, 0.4241999995429069, 0.4226500022923574, 0.4496500041568652, 0.41449999844189733, 0.4217500099912286, 0.4181500116828829, 0.42714999290183187, 0.42114999087061733, 0.41975000931415707, 0.43405000178609043, 0.42129999201279134, 0.42749999556690454, 0.4290000069886446, 0.42720000783447176, 0.42159999429713935, 0.41155000508297235, 0.41975000931415707, 0.421049990109168, 0.4172999906586483, 0.41944999247789383, 0.4141500103287399, 0.4130500019527972, 0.4228999896440655, 0.41754999256227165, 0.4232499923091382, 0.4134500049985945, 0.410699998610653, 0.41915000474546105, 0.4219999973429367, 0.4230499907862395, 0.4215500084683299, 0.4138999938732013, 0.4226000019116327, 0.4195500077912584, 0.42424999992363155, 0.4272499936632812, 0.4216999950585887, 0.4287000047042966, 0.44010000419802964, 0.42255000153090805, 0.43039998854510486, 0.4153500049142167, 0.4229000041959807, 0.4248000041116029, 0.41575000796001405, 0.4313000099500641, 0.41790000977925956, 0.4230999911669642, 0.43184999958612025, 0.4220500122755766, 0.4228000034345314, 0.41689998761285096, 0.4186000005574897, 0.5187999922782183, 0.4157999937888235, 0.41880000208038837, 0.4797000001417473, 0.43590000132098794, 0.47649999032728374, 0.41155000508297235, 0.42440000106580555, 0.421349992393516, 0.4204500000923872, 0.4236000095261261, 0.4246500029694289, 0.4209000035189092, 0.41229999624192715, 0.4204500000923872, 0.41214999509975314, 0.42484998994041234, 0.41725000482983887, 0.4212000058032572, 0.4233999934513122, 0.43030000233557075, 0.4149000014876947, 0.421649994677864, 0.41954999323934317, 0.41370000690221786, 0.4270000063115731, 0.4351999959908426, 0.45649999810848385, 0.5484999855980277, 0.4240500129526481, 0.4222999996272847, 0.4201499978080392, 0.4175000067334622, 0.44489999709185213, 0.42550000944174826, 0.43280000681988895, 0.4241499991621822, 0.4236999957356602, 0.4207500023767352, 0.42905000736936927, 0.4109500005142763, 0.4223500000080094, 0.4064499953528866, 0.41280000004917383, 0.4206500016152859, 0.411000000895001, 0.41635001252871007, 0.42145000770688057, 0.41620001138653606, 0.4212500061839819, 0.4090000002179295, 0.42984999890904874, 0.42314999154768884, 0.40844999602995813, 0.40940000326372683, 0.414699999964796, 0.4321000014897436, 0.414549998822622, 0.415150003391318, 0.4282000008970499, 0.4107999993721023, 0.41414999577682465, 0.417199989897199, 0.4250000056345016, 0.41915000474546105],
  "Depth": 18.5,
  "Expectation Value": -9.136659622192383,
  "Optimal Expectation Value": -9.83795166015625,
  "Optimizer durations [ms]": [9.484, 9.514, 9.887, 9.638, 9.122, 9.887, 9.215, 9.592, 9.196, 9.341, 9.571, 9.539, 9.22, 9.385, 9.669, 9.239, 9.415, 9.603, 9.598, 9.336, 9.587, 9.224, 9.236, 9.775, 9.133, 9.833, 9.422, 9.66, 9.492, 9.37, 9.185, 9.184, 9.458, 9.421, 9.223, 9.684, 9.311, 9.745, 9.793, 9.137, 9.58, 9.409, 9.318, 9.734, 9.511, 9.549, 9.366, 9.514, 9.755, 9.544, 9.256, 9.287, 9.523, 9.279, 9.495, 9.481, 9.861, 9.293, 9.054, 10.192, 9.335, 9.545, 9.325, 9.711, 9.39, 9.271, 19.293, 25.75, 11.142, 9.855, 9.192, 9.636, 9.794, 10.686, 8.956, 9.572, 9.361, 9.332, 9.552, 9.228, 9.219, 9.286, 9.685, 9.161, 9.37, 9.458, 9.399, 9.642, 9.426, 9.304, 9.384, 9.309, 9.245, 9.392, 9.392, 9.65, 9.113, 9.455, 10.363, 9.658, 9.351, 8.967, 9.745, 9.043, 9.456, 9.724, 10.062, 9.786, 9.377, 9.324, 9.254, 9.36, 9.55, 9.662, 9.385, 9.346, 9.174, 9.708, 9.47, 9.465, 9.709, 9.418, 9.477, 9.736, 9.382, 9.565, 9.479, 9.361, 9.569, 9.098, 9.512, 9.516, 9.624, 9.167, 9.431, 9.361, 9.431, 9.447, 9.066, 9.622, 9.751, 9.339, 9.344, 9.751, 9.445, 9.294, 9.598, 9.292, 9.586, 9.17, 9.097, 9.62, 9.284, 9.712, 9.207, 9.804, 9.272, 9.517, 9.577, 9.775, 9.204, 9.238, 9.559, 9.496, 9.398, 9.425, 9.415, 9.085, 9.95, 9.559, 9.316, 11.801, 9.554, 9.785, 12.114, 9.473, 9.31, 10.83, 9.342, 9.293, 10.926, 11.935, 9.29, 9.252, 18.541, 9.476, 9.662, 9.19, 8.998, 9.42, 9.421, 16.42, 9.335, 9.312, 9.352, 10.125, 9.145, 9.694, 25.836, 12.406, 9.351, 9.262, 9.619, 9.164, 9.649, 9.644, 9.259, 9.735, 9.568, 9.365, 9.182, 9.799, 9.085, 9.466, 9.544, 9.245, 9.083, 9.84, 9.424, 8.993, 9.303, 9.693, 9.31, 9.178, 9.639, 9.441, 9.216, 9.414, 9.283, 9.542, 9.568, 9.52, 9.268, 9.445, 9.22, 9.684, 9.241, 9.778, 9.588, 9.766, 9.481, 9.191, 9.698, 9.475, 9.104, 9.428, 9.611, 9.238, 9.552, 9.306, 9.314, 9.242, 9.262, 9.386, 9.232, 9.865, 9.297, 9.079, 9.664, 9.193, 9.427, 9.222, 9.275, 9.442, 9.234, 9.38, 9.646, 9.154, 10.782, 9.693, 9.699, 9.219, 9.52, 12.983, 15.568, 16.823, 9.534, 9.5, 9.358, 9.237, 9.132, 9.302, 9.698, 9.37, 9.786, 9.492, 9.066, 9.7, 9.453, 9.337, 9.495, 9.991, 9.524, 9.313, 9.821, 9.506, 9.412, 9.486, 9.329, 9.61, 9.456, 8.967, 9.443, 9.591, 12.873, 9.594, 9.555, 9.798, 9.528, 9.301, 9.59, 9.436, 9.474, 9.635, 9.574, 9.624, 9.298, 9.498, 9.312, 9.143, 9.929, 9.381, 9.234, 9.11, 9.4, 9.495, 9.397, 9.585, 10.48, 9.326, 9.208, 9.589, 9.517, 9.297, 9.197, 9.688, 9.39, 9.303, 9.219, 9.559, 9.475, 9.021, 9.581, 9.57, 9.34, 9.838, 9.705, 9.685, 9.205, 9.626, 9.408, 9.181, 9.561, 9.603, 9.632, 9.548, 9.437, 9.519, 9.098, 9.529, 9.365, 9.319, 9.492, 9.426, 9.427, 9.175, 9.678, 9.521, 9.519, 9.446, 9.141, 9.607, 9.331, 10.469, 9.455, 9.266, 9.42, 10.942, 13.615, 19.603, 9.681, 9.39, 9.576, 9.298, 10.12, 9.141, 9.128, 9.458, 9.284, 9.263, 9.524, 9.157, 9.362, 9.239, 9.475, 9.987, 9.861, 9.653, 9.358, 9.359, 9.307, 9.848, 9.101, 9.394, 9.463, 9.731, 9.815, 9.398, 11.038, 9.341, 9.348, 9.612, 9.485, 9.457, 9.353, 9.497, 9.67, 9.222, 9.472, 9.627, 9.339, 9.27, 9.272, 10.422, 9.662, 9.137, 9.933, 9.775, 9.438, 9.458, 9.336, 9.525, 9.585, 9.532, 9.343, 9.262, 9.314, 9.531, 9.345, 9.35, 9.266, 9.595, 9.246, 9.567, 9.155, 9.566, 9.358, 9.064, 9.51, 9.403, 9.712, 9.086, 10.4, 9.179, 9.543, 9.361, 9.334, 9.424, 9.297, 9.795, 9.378, 9.606, 9.265, 9.576, 9.587, 9.28, 9.453, 9.528, 9.426, 9.386, 9.345, 9.459, 9.542, 9.404, 9.604, 9.306, 9.41, 9.143, 9.133, 9.715, 9.695, 9.209, 13.879, 9.365, 9.421, 17.883, 9.741, 9.421, 9.482, 9.263, 9.487, 9.434, 9.502, 10.213, 22.988, 10.177, 9.219, 10.939, 9.084, 9.778, 12.005, 16.581, 9.854, 9.091, 9.271, 9.188, 9.608, 9.691, 17.903, 14.245, 9.63, 9.159, 9.458, 8.813, 10.55, 9.677, 9.398, 9.743, 9.55, 9.352, 9.198, 9.786, 9.532, 9.344, 9.469, 9.364, 9.434, 9.6, 9.596, 9.299, 9.57, 9.363, 9.276, 10.081, 9.267, 9.344, 9.73, 9.253, 9.54, 9.396, 9.295, 9.298, 9.426, 9.118, 9.466, 9.733, 9.552, 9.238, 9.736, 9.158, 9.499, 9.098, 9.26, 9.667, 9.657, 9.53, 9.366, 9.437, 9.498, 9.383, 9.065, 9.785, 9.192, 9.529, 9.713, 9.206, 9.626, 9.651, 9.545, 9.44, 9.55, 9.184, 9.48, 9.243, 9.308, 9.314, 9.38, 10.593, 9.455, 9.066, 9.626, 9.606, 9.087, 23.842, 13.056, 9.489, 11.434, 9.757, 9.623, 9.133, 9.338, 9.267, 9.442, 9.209, 9.321, 9.229, 9.361, 9.355, 9.467, 9.707, 9.525, 9.585, 9.266, 9.201, 9.434, 9.555, 9.404, 9.001, 9.849, 9.142, 9.712, 9.145, 10.073, 9.442, 11.939, 9.914, 9.938, 9.477, 9.911, 10.039, 9.526, 9.398, 9.442, 9.365, 9.475, 9.475, 9.529, 9.04, 9.528, 9.402, 9.749, 9.305, 9.691, 9.34, 9.477, 9.281, 9.743, 9.42, 9.34, 9.471, 9.762, 9.491, 9.295, 9.741, 9.671, 9.169, 9.28, 9.872, 9.293, 9.559, 9.039, 9.731, 9.473, 9.729, 9.457, 9.848, 9.301, 10.207, 9.052, 9.619, 9.662, 9.287, 9.471, 9.622, 9.636, 9.708, 9.423, 9.252, 9.525, 9.19, 9.318, 9.719, 9.146, 9.746, 9.295, 9.492, 9.5, 9.147, 9.634, 9.43, 11.247, 9.172, 9.483, 9.663, 9.149, 9.854, 9.078, 21.974, 10.38, 9.316, 9.405, 9.629, 9.54, 9.717, 9.271, 9.5, 9.195, 9.335, 9.612, 9.498, 9.292, 9.234, 9.634, 9.901, 9.481, 9.526, 9.531, 9.192, 9.419, 9.488, 9.204, 9.232, 9.698, 9.349, 9.693, 9.451, 9.463, 9.234, 9.307, 9.401, 9.522, 9.835, 10.244, 9.535, 9.934, 9.774, 9.13, 9.883, 9.355, 9.466, 9.699, 9.487, 9.544, 9.669, 9.185, 9.895, 9.292, 10.129, 9.441, 9.518, 10.1, 9.157, 9.21, 9.34, 9.653, 9.386, 9.171, 9.861, 9.416, 9.506, 9.76, 9.343, 9.636, 9.172, 9.418, 9.294, 9.164, 9.535, 9.583, 8.981, 9.418, 9.661, 9.767, 9.198, 9.355, 9.153, 9.62, 9.357, 9.482, 9.208, 9.494, 9.33, 9.28, 9.878, 9.22, 9.667, 9.693, 9.463, 9.582, 9.433, 9.462, 9.514, 9.456, 9.472, 9.359, 9.231, 11.52, 9.173, 9.838, 9.206, 9.454, 11.529, 9.335, 9.368, 10.226, 14.028, 10.215, 9.289, 9.542, 9.606, 9.342, 9.427, 10.211, 9.396, 20.548, 9.437, 9.096, 9.518, 9.287, 10.044, 9.392, 22.493, 9.3, 9.794, 9.273, 9.218, 9.619, 9.708, 19.561, 13.315, 9.467, 9.436, 9.468, 9.341, 9.906, 9.277, 9.741, 9.498, 9.381, 9.427, 9.691, 9.297, 9.31, 9.013, 9.552, 9.425, 9.026, 9.658, 9.247, 9.327, 9.54, 9.468, 9.714, 9.487, 9.079, 9.455, 9.146, 9.337, 9.606, 9.086, 9.712, 9.058, 9.562, 9.069, 9.626, 9.28],
  "Optimizer iterations": 856,
  "Optimizer params": [0.583981721894727, 0.08191992057171983, 7.651138471268226e-05, 0.9705173948355572, 0.4309895350240615, 0.4296453269829884, 0.021312046062335662, 0.19181368405863666, 0.9461149948051585, 0.29744065771459255, 0.9676522200668757, 0.6051256210641919, 0.8821271884046169, 0.1657507414516749, 0.6517496304816722, 0.9602598412942018, 0.4963404522008494, 0.5073583816352463, 0.9938986004794952, 0.04348405498084201, 0.4700732892159341, 0.9971655092446016, 0.4658000933400308, 0.8162873660510236, 0.4765422370370365, 0.995662966499288, 0.1864994629541069, 0.4380727448377193, 0.9961251161206583, 0.3883572305426377, 0.28402884921494786, 0.36717634692574375],
  "P": 0,
  "Problem": "IC",
  "QJob durations [ms]": [0.42720000783447176, 0.4187500016996637, 0.43914999696426094, 0.45280001359060407, 0.410549997468479, 0.44519999937620014, 0.4132999893045053, 0.4225000011501834, 0.41825001244433224, 0.41599999531172216, 0.4367500077933073, 0.41924999095499516, 0.4167500010225922, 0.43999998888466507, 0.4330000083427876, 0.41355000576004386, 0.41865000093821436, 0.42794999899342656, 0.42485000449232757, 0.42209999810438603, 0.42379999649710953, 0.4248000041116029, 0.4208000027574599, 0.4321000014897436, 0.4162499972153455, 0.43990000267513096, 0.41944999247789383, 0.4315999976824969, 0.42984999890904874, 0.42270000267308205, 0.4165999998804182, 0.41924999095499516, 0.41695000254549086, 0.4192500055069104, 0.41614999645389616, 0.4265999887138605, 0.4212000058032572, 0.43605000246316195, 0.443600001744926, 0.41784999484661967, 0.4157999937888235, 0.4191999905742705, 0.414399997680448, 0.43119999463669956, 0.4309000069042668, 0.4224500007694587, 0.42380001104902476, 0.4211000050418079, 0.4526999982772395, 0.41355000576004386, 0.414249996538274, 0.4230499907862395, 0.4202499985694885, 0.4275499959476292, 0.4158000083407387, 0.4341999883763492, 0.4418499884195626, 0.41110000165645033, 0.4097500059287995, 0.42100000428035855, 0.4189000028418377, 0.43575000017881393, 0.42409999878145754, 0.4269500059308484, 0.4331499949330464, 0.3976499865530059, 0.46284998825285584, 0.5850000161444768, 0.5080500122858211, 0.42359999497421086, 0.41429999691899866, 0.4351999959908426, 0.4282500012777746, 0.45054998190607876, 0.414399997680448, 0.41590000910218805, 0.4212500061839819, 0.4180000105407089, 0.4172000044491142, 0.4190500039840117, 0.41614999645389616, 0.4133500042371452, 0.4274499951861799, 0.415150003391318, 0.4114499897696078, 0.41354999120812863, 0.42055000085383654, 0.42010001197922975, 0.4186000005574897, 0.4192000051261857, 0.41715000406838953, 0.421949996962212, 0.4255499952705577, 0.414249996538274, 0.4237500106683001, 0.4206000012345612, 0.41334998968522996, 0.4186000005574897, 0.4170500033069402, 0.4360000020824373, 0.4155000060563907, 0.4107999993721023, 0.4315999976824969, 0.41244999738410115, 0.42905000736936927, 0.4346999921835959, 0.4481000069063157, 0.43224998808000237, 0.4189500032225624, 0.41680000140331686, 0.41575000796001405, 0.4093999887118116, 0.42055000085383654, 0.4257499967934564, 0.41819999751169235, 0.414549998822622, 0.417649993323721, 0.43229998846072704, 0.42455000220797956, 0.43304999417159706, 0.4369999951450154, 0.4230499907862395, 0.4275999963283539, 0.43000000005122274, 0.41769999370444566, 0.4267000040272251, 0.4165499994996935, 0.4218499962007627, 0.4199999966658652, 0.41120000241789967, 0.42779999785125256, 0.4241999995429069, 0.4298999992897734, 0.4167999868514016, 0.421049990109168, 0.42149999353569, 0.41590000910218805, 0.4181499971309677, 0.4197999951429665, 0.4158500087214634, 0.4331499949330464, 0.4184499994153157, 0.41199999395757914, 0.4409499961184338, 0.4200999974273145, 0.4169999883743003, 0.4276999970898032, 0.4112499882467091, 0.42135000694543123, 0.41289998625870794, 0.41105000127572566, 0.4272499936632812, 0.42704999214038253, 0.43474999256432056, 0.4138999938732013, 0.42645000212360173, 0.4200999974273145, 0.4137499927310273, 0.44934998732060194, 0.4411999980220571, 0.4156499926466495, 0.4222999996272847, 0.42830000165849924, 0.42609999945852906, 0.4199499962851405, 0.41599999531172216, 0.4168500017840415, 0.41524998960085213, 0.43929999810643494, 0.4229500045767054, 0.4168500017840415, 0.5516500095836818, 0.4270000063115731, 0.4328499926486984, 0.5596000119112432, 0.42559999565128237, 0.41325000347569585, 0.48565000179223716, 0.41900000360328704, 0.41819999751169235, 0.5103000003146008, 0.42224999924656004, 0.4131500027142465, 0.4143499972997233, 0.38225000025704503, 0.4268000047886744, 0.4189999890513718, 0.4118000069865957, 0.4155000060563907, 0.4211000050418079, 0.4156499926466495, 0.4483499942580238, 0.41745000635273755, 0.4159499949309975, 0.4123999970033765, 0.41694998799357563, 0.41649999911896884, 0.4291500081308186, 0.4102500097360462, 0.5819000070914626, 0.42174999543931335, 0.41584999416954815, 0.4260499990778044, 0.41110000165645033, 0.42039999971166253, 0.4223500000080094, 0.41665000026114285, 0.4454999871086329, 0.42630000098142773, 0.41805001092143357, 0.417199989897199, 0.4305000038584694, 0.41710000368766487, 0.41449999844189733, 0.42055000085383654, 0.4123999970033765, 0.4133000038564205, 0.44070000876672566, 0.42039999971166253, 0.4132000030949712, 0.41694998799357563, 0.4256999964127317, 0.41540000529494137, 0.4186000005574897, 0.44350000098347664, 0.421949996962212, 0.41399999463465065, 0.4139500088058412, 0.4245000018272549, 0.4258999979356304, 0.42704999214038253, 0.41510000301059335, 0.42329999268986285, 0.42490000487305224, 0.4152000037720427, 0.42320000648032874, 0.41635001252871007, 0.4468500119401142, 0.4297499981475994, 0.41769999370444566, 0.4231000057188794, 0.421199991251342, 0.42535000829957426, 0.4266500036465004, 0.41555000643711537, 0.4157000075792894, 0.42625000060070306, 0.42284998926334083, 0.4175000067334622, 0.4135000053793192, 0.41710000368766487, 0.421199991251342, 0.41399999463465065, 0.4261499998392537, 0.4107500135432929, 0.45274999865796417, 0.4113500035600737, 0.415000002249144, 0.43245000415481627, 0.4116500058444217, 0.42389999725855887, 0.4170500033069402, 0.40765000449027866, 0.42109999048989266, 0.42124999163206667, 0.42884999129455537, 0.4260499990778044, 0.41620001138653606, 0.49119998584501445, 0.45620001037605107, 0.417799994465895, 0.42449998727533966, 0.42934999510180205, 0.5806499975733459, 0.6229999999050051, 0.5828499852214009, 0.4230499907862395, 0.43170001299586147, 0.41405000956729054, 0.4171499895164743, 0.41039999632630497, 0.4202499985694885, 0.4300500004319474, 0.4302999877836555, 0.4417000018293038, 0.4154999915044755, 0.4147500003455207, 0.43184999958612025, 0.4187500016996637, 0.4182999982731417, 0.4229500045767054, 0.4625000001396984, 0.41495000186841935, 0.4240499984007329, 0.4392499977257103, 0.4209000035189092, 0.4162499972153455, 0.42475000373087823, 0.4188999882899225, 0.43095000728499144, 0.42210001265630126, 0.4106499982299283, 0.41805001092143357, 0.4226500022923574, 0.6067999929655343, 0.43929999810643494, 0.4269499913789332, 0.43509999522939324, 0.42300000495743006, 0.4182000120636076, 0.43184999958612025, 0.4157000075792894, 0.4219999973429367, 0.42329999268986285, 0.42889999167528003, 0.42640000174287707, 0.4163999983575195, 0.4224500007694587, 0.42180001037195325, 0.41104998672381043, 0.44489999709185213, 0.4187500016996637, 0.4130999877816066, 0.414249996538274, 0.4125499981455505, 0.42004999704658985, 0.4282000008970499, 0.4244500014465302, 0.48319999768864363, 0.4231000057188794, 0.4189000028418377, 0.4265000025043264, 0.42114999087061733, 0.4204500000923872, 0.4113999893888831, 0.4277499974705279, 0.42219999886583537, 0.41524998960085213, 0.4201499978080392, 0.41760000749491155, 0.4256999964127317, 0.40955000440590084, 0.42305000533815473, 0.4267000040272251, 0.42149999353569, 0.43330001062713563, 0.43295000796206295, 0.4325499903643504, 0.4164499987382442, 0.4302500019548461, 0.4172999906586483, 0.418550000176765, 0.42050000047311187, 0.4262000002199784, 0.42315000609960407, 0.418399999034591, 0.4258999979356304, 0.4217000096105039, 0.41604999569244683, 0.4186000005574897, 0.415000002249144, 0.4152000037720427, 0.42219999886583537, 0.4191999905742705, 0.4314499965403229, 0.4128500004298985, 0.424749989178963, 0.4320499865571037, 0.417949995608069, 0.4192000051261857, 0.41575000796001405, 0.418399999034591, 0.42270000267308205, 0.4295000107958913, 0.41789999522734433, 0.4223999858368188, 0.411450004321523, 0.5138499836903065, 0.4947500128764659, 0.5664499913109466, 0.42115000542253256, 0.41619999683462083, 0.4218500107526779, 0.4164499987382442, 0.45739999040961266, 0.4175999929429963, 0.40615000762045383, 0.42159999429713935, 0.4267999902367592, 0.40809999336488545, 0.4229000041959807, 0.41184999281540513, 0.42019999818876386, 0.4181499971309677, 0.42455000220797956, 0.468149984953925, 0.42285000381525606, 0.4360000020824373, 0.417949995608069, 0.4171499895164743, 0.41725000482983887, 0.42799999937415123, 0.4115499905310571, 0.41774999408517033, 0.4177000082563609, 0.44464998063631356, 0.4384499916341156, 0.4190499894320965, 0.49605000822339207, 0.42135000694543123, 0.4257499967934564, 0.4211000050418079, 0.41340000461786985, 0.42204999772366136, 0.42395001219119877, 0.4337999998824671, 0.43900001037400216, 0.41774999408517033, 0.4300500004319474, 0.42440000106580555, 0.4167500010225922, 0.41050001163966954, 0.4163999983575195, 0.4295499966247007, 0.4349000082584098, 0.4152000037720427, 0.4525499971350655, 0.4276000108802691, 0.42564999603200704, 0.4184499994153157, 0.4167500010225922, 0.41975000931415707, 0.43390000064391643, 0.4234000080032274, 0.41760000749491155, 0.4176500078756362, 0.41464999958407134, 0.4258999979356304, 0.4120499943383038, 0.4226000019116327, 0.41945000702980906, 0.4275499959476292, 0.4140499950153753, 0.42455000220797956, 0.42034999933093786, 0.4165499994996935, 0.4133999900659546, 0.4189000028418377, 0.4225000011501834, 0.4186000005574897, 0.44940000225324184, 0.4132000030949712, 0.4639000107999891, 0.41629999759607017, 0.42424999992363155, 0.4160999960731715, 0.4219999973429367, 0.41090000013355166, 0.42094998934771866, 0.42735000897664577, 0.4225000011501834, 0.4280499997548759, 0.42255000153090805, 0.4209000035189092, 0.4278000124031678, 0.42109999048989266, 0.4200999974273145, 0.41555000643711537, 0.4200999974273145, 0.41704998875502497, 0.4311499942559749, 0.42300000495743006, 0.42549999488983303, 0.41885000246111304, 0.4273999948054552, 0.41614999645389616, 0.41519998922012746, 0.4096500051673502, 0.4164499987382442, 0.4285000031813979, 0.4334499972173944, 0.4150500026298687, 0.42010001197922975, 0.418249997892417, 0.41975000931415707, 0.4259999986970797, 0.4192500055069104, 0.4200500115985051, 0.41799999598879367, 0.41519998922012746, 0.42535000829957426, 0.42315000609960407, 0.424899990321137, 0.4542500100797042, 0.521550013218075, 0.45244999637361616, 0.410699998610653, 0.4961500089848414, 0.4167500010225922, 0.4268500051693991, 0.5539499979931861, 0.4273000085959211, 0.4428999964147806, 0.4188499879091978, 0.4130500019527972, 0.41170000622514635, 0.42839998786803335, 0.4307000053813681, 0.42520000715740025, 0.5025999853387475, 0.4249500052537769, 0.4208499885862693, 0.4115999909117818, 0.40299999818671495, 0.4619000101229176, 0.4557000065688044, 0.42979999852832407, 0.43775000085588545, 0.4259999986970797, 0.4249500052537769, 0.4140999953961, 0.43149999692104757, 0.4258999979356304, 0.4158000083407387, 0.4260499990778044, 0.4210500046610832, 0.42219999886583537, 0.43360001291148365, 0.42895000660791993, 0.42189999658148736, 0.4319500003475696, 0.4132000030949712, 0.42315000609960407, 0.4474000015761703, 0.4165999998804182, 0.4267000040272251, 0.4329499934101477, 0.4202999989502132, 0.424899990321137, 0.41184999281540513, 0.41310000233352184, 0.41110000165645033, 0.42055000085383654, 0.4141999961575493, 0.4197999951429665, 0.4293999954825267, 0.41959999362006783, 0.4230499907862395, 0.41545000567566603, 0.4130500019527972, 0.4201499978080392, 0.41799999598879367, 0.4182000120636076, 0.4470000130822882, 0.41799999598879367, 0.440650008386001, 0.4181499971309677, 0.4199999966658652, 0.43044998892582953, 0.4156500071985647, 0.41530000453349203, 0.43245000415481627, 0.4197999951429665, 0.42734999442473054, 0.4299499996704981, 0.41524998960085213, 0.4358000005595386, 0.42224999924656004, 0.4236000095261261, 0.4236499953549355, 0.4271500074537471, 0.41355000576004386, 0.4169000021647662, 0.4143499972997233, 0.41695000254549086, 0.41945000702980906, 0.4112499882467091, 0.4163999983575195, 0.421649994677864, 0.414549998822622, 0.42424999992363155, 0.42305000533815473, 0.4134500049985945, 0.47679999261163175, 0.53854999714531, 0.4222999996272847, 0.5090000049676746, 0.4430999979376793, 0.42055000085383654, 0.417949995608069, 0.41959999362006783, 0.41449999844189733, 0.4196499940007925, 0.4141999961575493, 0.4184499994153157, 0.41694998799357563, 0.4133500042371452, 0.4164499987382442, 0.41525000415276736, 0.4311500088078901, 0.4219000111334026, 0.4243500006850809, 0.4121000092709437, 0.4132499889237806, 0.4198500100756064, 0.41449999844189733, 0.418099996750243, 0.415000002249144, 0.42964999738615006, 0.4162499972153455, 0.4317999992053956, 0.41399999463465065, 0.45464999857358634, 0.4200999974273145, 0.41399999463465065, 0.46070000098552555, 0.42240000038873404, 0.42195001151412725, 0.4677499964600429, 0.43479999294504523, 0.42255000153090805, 0.4195000074105337, 0.4226000019116327, 0.42305000533815473, 0.42255000153090805, 0.4197999951429665, 0.42379999649710953, 0.4140999953961, 0.42135000694543123, 0.43390000064391643, 0.42135000694543123, 0.421199991251342, 0.43125000956933945, 0.4163999983575195, 0.4195000074105337, 0.4233999934513122, 0.4258999979356304, 0.4196499940007925, 0.4246500029694289, 0.4219999973429367, 0.4378000012366101, 0.43009998626075685, 0.4222999996272847, 0.4192500055069104, 0.4334499972173944, 0.4198499955236912, 0.41745000635273755, 0.4312499950174242, 0.4142500110901892, 0.4301000008126721, 0.41464999958407134, 0.4292499943403527, 0.4191000043647364, 0.43134999577887356, 0.4445999948075041, 0.424449986894615, 0.42224999924656004, 0.4588000010699034, 0.41120000241789967, 0.4282500012777746, 0.43125000956933945, 0.41125000279862434, 0.44350000098347664, 0.4322000022511929, 0.42625000060070306, 0.4361000028438866, 0.4277499974705279, 0.41989999590441585, 0.4198500100756064, 0.4216999950585887, 0.4173500055912882, 0.42949999624397606, 0.42115000542253256, 0.42455000220797956, 0.42209999810438603, 0.42329999268986285, 0.42050000047311187, 0.41340000461786985, 0.4403999919304624, 0.4149000014876947, 0.43059999006800354, 0.41105000127572566, 0.41634999797679484, 0.44430000707507133, 0.41140000394079834, 0.4484000091906637, 0.4124000115552917, 0.43435000407043844, 0.4592500044964254, 0.4139500088058412, 0.4274500097380951, 0.42409999878145754, 0.4209999897284433, 0.43495000863913447, 0.41819999751169235, 0.41634999797679484, 0.4130999877816066, 0.4262000002199784, 0.4289499920560047, 0.4109500005142763, 0.4136500065214932, 0.41555000643711537, 0.4222999996272847, 0.45864998537581414, 0.42350000876467675, 0.4217000096105039, 0.42660000326577574, 0.4067999980179593, 0.4200999974273145, 0.411000000895001, 0.4099999932805076, 0.41885000246111304, 0.4195000074105337, 0.4219999973429367, 0.4209500038996339, 0.42374999611638486, 0.42520000715740025, 0.4113500035600737, 0.42055000085383654, 0.4226500022923574, 0.43104999349452555, 0.4521000082604587, 0.4615500074578449, 0.43715001083910465, 0.453949993243441, 0.42224999924656004, 0.41620001138653606, 0.4227500030538067, 0.4199999966658652, 0.4265000025043264, 0.42779999785125256, 0.42394999763928354, 0.42204999772366136, 0.42520000715740025, 0.4178500093985349, 0.44374998833518475, 0.41825001244433224, 0.4468500119401142, 0.4241999995429069, 0.4226500022923574, 0.4496500041568652, 0.41449999844189733, 0.4217500099912286, 0.4181500116828829, 0.42714999290183187, 0.42114999087061733, 0.41975000931415707, 0.43405000178609043, 0.42129999201279134, 0.42749999556690454, 0.4290000069886446, 0.42720000783447176, 0.42159999429713935, 0.41155000508297235, 0.41975000931415707, 0.421049990109168, 0.4172999906586483, 0.41944999247789383, 0.4141500103287399, 0.4130500019527972, 0.4228999896440655, 0.41754999256227165, 0.4232499923091382, 0.4134500049985945, 0.410699998610653, 0.41915000474546105, 0.4219999973429367, 0.4230499907862395, 0.4215500084683299, 0.4138999938732013, 0.4226000019116327, 0.4195500077912584, 0.42424999992363155, 0.4272499936632812, 0.4216999950585887, 0.4287000047042966, 0.44010000419802964, 0.42255000153090805, 0.43039998854510486, 0.4153500049142167, 0.4229000041959807, 0.4248000041116029, 0.41575000796001405, 0.4313000099500641, 0.41790000977925956, 0.4230999911669642, 0.43184999958612025, 0.4220500122755766, 0.4228000034345314, 0.41689998761285096, 0.4186000005574897, 0.5187999922782183, 0.4157999937888235, 0.41880000208038837, 0.4797000001417473, 0.43590000132098794, 0.47649999032728374, 0.41155000508297235, 0.42440000106580555, 0.421349992393516, 0.4204500000923872, 0.4236000095261261, 0.4246500029694289, 0.4209000035189092, 0.41229999624192715, 0.4204500000923872, 0.41214999509975314, 0.42484998994041234, 0.41725000482983887, 0.4212000058032572, 0.4233999934513122, 0.43030000233557075, 0.4149000014876947, 0.421649994677864, 0.41954999323934317, 0.41370000690221786, 0.4270000063115731, 0.4351999959908426, 0.45649999810848385, 0.5484999855980277, 0.4240500129526481, 0.4222999996272847, 0.4201499978080392, 0.4175000067334622, 0.44489999709185213, 0.42550000944174826, 0.43280000681988895, 0.4241499991621822, 0.4236999957356602, 0.4207500023767352, 0.42905000736936927, 0.4109500005142763, 0.4223500000080094, 0.4064499953528866, 0.41280000004917383, 0.4206500016152859, 0.411000000895001, 0.41635001252871007, 0.42145000770688057, 0.41620001138653606, 0.4212500061839819, 0.4090000002179295, 0.42984999890904874, 0.42314999154768884, 0.40844999602995813, 0.40940000326372683, 0.414699999964796, 0.4321000014897436, 0.414549998822622, 0.415150003391318, 0.4282000008970499, 0.4107999993721023, 0.41414999577682465, 0.417199989897199, 0.4250000056345016, 0.41915000474546105],
  "QPU": "7000000",
  "Qubits": 8,
  "Queue durations [ms]": [0.0, 0.0, 0.0, 0.0, 0.0, 0.0, 0.0, 0.0, 0.0, 0.0, 0.0, 0.0, 0.0, 0.0, 0.0, 0.0, 0.0, 0.0, 0.0, 0.0, 0.0, 0.0, 0.0, 0.0, 0.0, 0.0, 0.0, 0.0, 0.0, 0.0, 0.0, 0.0, 0.0, 0.0, 0.0, 0.0, 0.0, 0.0, 0.0, 0.0, 0.0, 0.0, 0.0, 0.0, 0.0, 0.0, 0.0, 0.0, 0.0, 0.0, 0.0, 0.0, 0.0, 0.0, 0.0, 0.0, 0.0, 0.0, 0.0, 0.0, 0.0, 0.0, 0.0, 0.0, 0.0, 0.0, 0.0, 0.0, 0.0, 0.0, 0.0, 0.0, 0.0, 0.0, 0.0, 0.0, 0.0, 0.0, 0.0, 0.0, 0.0, 0.0, 0.0, 0.0, 0.0, 0.0, 0.0, 0.0, 0.0, 0.0, 0.0, 0.0, 0.0, 0.0, 0.0, 0.0, 0.0, 0.0, 0.0, 0.0, 0.0, 0.0, 0.0, 0.0, 0.0, 0.0, 0.0, 0.0, 0.0, 0.0, 0.0, 0.0, 0.0, 0.0, 0.0, 0.0, 0.0, 0.0, 0.0, 0.0, 0.0, 0.0, 0.0, 0.0, 0.0, 0.0, 0.0, 0.0, 0.0, 0.0, 0.0, 0.0, 0.0, 0.0, 0.0, 0.0, 0.0, 0.0, 0.0, 0.0, 0.0, 0.0, 0.0, 0.0, 0.0, 0.0, 0.0, 0.0, 0.0, 0.0, 0.0, 0.0, 0.0, 0.0, 0.0, 0.0, 0.0, 0.0, 0.0, 0.0, 0.0, 0.0, 0.0, 0.0, 0.0, 0.0, 0.0, 0.0, 0.0, 0.0, 0.0, 0.0, 0.0, 0.0, 0.0, 0.0, 0.0, 0.0, 0.0, 0.0, 0.0, 0.0, 0.0, 0.0, 0.0, 0.0, 0.0, 0.0, 0.0, 0.0, 0.0, 0.0, 0.0, 0.0, 0.0, 0.0, 0.0, 0.0, 0.0, 0.0, 0.0, 0.0, 0.0, 0.0, 0.0, 0.0, 0.0, 0.0, 0.0, 0.0, 0.0, 0.0, 0.0, 0.0, 0.0, 0.0, 0.0, 0.0, 0.0, 0.0, 0.0, 0.0, 0.0, 0.0, 0.0, 0.0, 0.0, 0.0, 0.0, 0.0, 0.0, 0.0, 0.0, 0.0, 0.0, 0.0, 0.0, 0.0, 0.0, 0.0, 0.0, 0.0, 0.0, 0.0, 0.0, 0.0, 0.0, 0.0, 0.0, 0.0, 0.0, 0.0, 0.0, 0.0, 0.0, 0.0, 0.0, 0.0, 0.0, 0.0, 0.0, 0.0, 0.0, 0.0, 0.0, 0.0, 0.0, 0.0, 0.0, 0.0, 0.0, 0.0, 0.0, 0.0, 0.0, 0.0, 0.0, 0.0, 0.0, 0.0, 0.0, 0.0, 0.0, 0.0, 0.0, 0.0, 0.0, 0.0, 0.0, 0.0, 0.0, 0.0, 0.0, 0.0, 0.0, 0.0, 0.0, 0.0, 0.0, 0.0, 0.0, 0.0, 0.0, 0.0, 0.0, 0.0, 0.0, 0.0, 0.0, 0.0, 0.0, 0.0, 0.0, 0.0, 0.0, 0.0, 0.0, 0.0, 0.0, 0.0, 0.0, 0.0, 0.0, 0.0, 0.0, 0.0, 0.0, 0.0, 0.0, 0.0, 0.0, 0.0, 0.0, 0.0, 0.0, 0.0, 0.0, 0.0, 0.0, 0.0, 0.0, 0.0, 0.0, 0.0, 0.0, 0.0, 0.0, 0.0, 0.0, 0.0, 0.0, 0.0, 0.0, 0.0, 0.0, 0.0, 0.0, 0.0, 0.0, 0.0, 0.0, 0.0, 0.0, 0.0, 0.0, 0.0, 0.0, 0.0, 0.0, 0.0, 0.0, 0.0, 0.0, 0.0, 0.0, 0.0, 0.0, 0.0, 0.0, 0.0, 0.0, 0.0, 0.0, 0.0, 0.0, 0.0, 0.0, 0.0, 0.0, 0.0, 0.0, 0.0, 0.0, 0.0, 0.0, 0.0, 0.0, 0.0, 0.0, 0.0, 0.0, 0.0, 0.0, 0.0, 0.0, 0.0, 0.0, 0.0, 0.0, 0.0, 0.0, 0.0, 0.0, 0.0, 0.0, 0.0, 0.0, 0.0, 0.0, 0.0, 0.0, 0.0, 0.0, 0.0, 0.0, 0.0, 0.0, 0.0, 0.0, 0.0, 0.0, 0.0, 0.0, 0.0, 0.0, 0.0, 0.0, 0.0, 0.0, 0.0, 0.0, 0.0, 0.0, 0.0, 0.0, 0.0, 0.0, 0.0, 0.0, 0.0, 0.0, 0.0, 0.0, 0.0, 0.0, 0.0, 0.0, 0.0, 0.0, 0.0, 0.0, 0.0, 0.0, 0.0, 0.0, 0.0, 0.0, 0.0, 0.0, 0.0, 0.0, 0.0, 0.0, 0.0, 0.0, 0.0, 0.0, 0.0, 0.0, 0.0, 0.0, 0.0, 0.0, 0.0, 0.0, 0.0, 0.0, 0.0, 0.0, 0.0, 0.0, 0.0, 0.0, 0.0, 0.0, 0.0, 0.0, 0.0, 0.0, 0.0, 0.0, 0.0, 0.0, 0.0, 0.0, 0.0, 0.0, 0.0, 0.0, 0.0, 0.0, 0.0, 0.0, 0.0, 0.0, 0.0, 0.0, 0.0, 0.0, 0.0, 0.0, 0.0, 0.0, 0.0, 0.0, 0.0, 0.0, 0.0, 0.0, 0.0, 0.0, 0.0, 0.0, 0.0, 0.0, 0.0, 0.0, 0.0, 0.0, 0.0, 0.0, 0.0, 0.0, 0.0, 0.0, 0.0, 0.0, 0.0, 0.0, 0.0, 0.0, 0.0, 0.0, 0.0, 0.0, 0.0, 0.0, 0.0, 0.0, 0.0, 0.0, 0.0, 0.0, 0.0, 0.0, 0.0, 0.0, 0.0, 0.0, 0.0, 0.0, 0.0, 0.0, 0.0, 0.0, 0.0, 0.0, 0.0, 0.0, 0.0, 0.0, 0.0, 0.0, 0.0, 0.0, 0.0, 0.0, 0.0, 0.0, 0.0, 0.0, 0.0, 0.0, 0.0, 0.0, 0.0, 0.0, 0.0, 0.0, 0.0, 0.0, 0.0, 0.0, 0.0, 0.0, 0.0, 0.0, 0.0, 0.0, 0.0, 0.0, 0.0, 0.0, 0.0, 0.0, 0.0, 0.0, 0.0, 0.0, 0.0, 0.0, 0.0, 0.0, 0.0, 0.0, 0.0, 0.0, 0.0, 0.0, 0.0, 0.0, 0.0, 0.0, 0.0, 0.0, 0.0, 0.0, 0.0, 0.0, 0.0, 0.0, 0.0, 0.0, 0.0, 0.0, 0.0, 0.0, 0.0, 0.0, 0.0, 0.0, 0.0, 0.0, 0.0, 0.0, 0.0, 0.0, 0.0, 0.0, 0.0, 0.0, 0.0, 0.0, 0.0, 0.0, 0.0, 0.0, 0.0, 0.0, 0.0, 0.0, 0.0, 0.0, 0.0, 0.0, 0.0, 0.0, 0.0, 0.0, 0.0, 0.0, 0.0, 0.0, 0.0, 0.0, 0.0, 0.0, 0.0, 0.0, 0.0, 0.0, 0.0, 0.0, 0.0, 0.0, 0.0, 0.0, 0.0, 0.0, 0.0, 0.0, 0.0, 0.0, 0.0, 0.0, 0.0, 0.0, 0.0, 0.0, 0.0, 0.0, 0.0, 0.0, 0.0, 0.0, 0.0, 0.0, 0.0, 0.0, 0.0, 0.0, 0.0, 0.0, 0.0, 0.0, 0.0, 0.0, 0.0, 0.0, 0.0, 0.0, 0.0, 0.0, 0.0, 0.0, 0.0, 0.0, 0.0, 0.0, 0.0, 0.0, 0.0, 0.0, 0.0, 0.0, 0.0, 0.0, 0.0, 0.0, 0.0, 0.0, 0.0, 0.0, 0.0, 0.0, 0.0, 0.0, 0.0, 0.0, 0.0, 0.0, 0.0, 0.0, 0.0, 0.0, 0.0, 0.0, 0.0, 0.0, 0.0, 0.0, 0.0, 0.0, 0.0, 0.0, 0.0, 0.0, 0.0, 0.0, 0.0, 0.0, 0.0, 0.0, 0.0, 0.0, 0.0, 0.0, 0.0, 0.0, 0.0, 0.0, 0.0, 0.0, 0.0, 0.0, 0.0, 0.0, 0.0, 0.0, 0.0, 0.0, 0.0, 0.0, 0.0, 0.0, 0.0, 0.0, 0.0, 0.0, 0.0, 0.0, 0.0, 0.0, 0.0, 0.0, 0.0, 0.0, 0.0, 0.0, 0.0, 0.0, 0.0, 0.0, 0.0, 0.0, 0.0, 0.0, 0.0, 0.0, 0.0, 0.0, 0.0, 0.0, 0.0, 0.0, 0.0, 0.0, 0.0, 0.0, 0.0, 0.0, 0.0, 0.0, 0.0, 0.0, 0.0, 0.0, 0.0, 0.0, 0.0, 0.0, 0.0, 0.0, 0.0, 0.0, 0.0],
  "Shots": 4096,
  "Size": 8,
  "Total Algorithm duration [s]": 8.35,
  "Total Classic duration [s]": 7.984885400082566,
  "Total Quantum duration [s]": 0.3651145999174332
}
