{
  "Circuit execution durations [ms]": [0.42749999556690454, 0.46369998017326, 0.43834999087266624, 0.42209999810438603, 0.4219999973429367, 0.4115999909117818, 0.41584999416954815, 0.41769999370444566, 0.4336499987402931, 0.4234999942127615, 0.4220000118948519, 0.4256999964127317, 0.43330001062713563, 0.4311500088078901, 0.5365499964682385, 0.4251000063959509, 0.5591000081039965, 0.4183000128250569, 0.41954999323934317, 0.4563999973470345, 0.4311499942559749, 0.42529999336693436, 0.4188999882899225, 0.4319500003475696, 0.4229500045767054, 0.4158999945502728, 0.4288500058464706, 0.417649993323721, 0.40985000669024885, 0.43494999408721924, 0.421949996962212, 0.41789999522734433, 0.4126499989069998, 0.4345500055933371, 0.41405000956729054, 0.41554999188520014, 0.421799995820038, 0.44794999121222645, 0.41969999438151717, 0.42564999603200704, 0.42565001058392227, 0.4211000050418079, 0.43990000267513096, 0.4226999881211668, 0.42165000922977924, 0.42559999565128237, 0.4290999931981787, 0.4345500055933371, 0.4177000082563609, 0.4195500077912584, 0.4392499977257103, 0.42440000106580555, 0.40745000296738, 0.42505000601522624, 0.42004999704658985, 0.414549998822622, 0.42070000199601054, 0.41960000817198306, 0.41575000796001405, 0.418550000176765, 0.4175000067334622, 0.4286500043235719, 0.42145000770688057, 0.4191499901935458, 0.42300000495743006, 0.41244999738410115, 0.41199999395757914, 0.42669998947530985, 0.4168500017840415, 0.42100000428035855, 0.43230000301264226, 0.42050000047311187, 0.41634999797679484, 0.4384499916341156, 0.4216000088490546, 0.4190500039840117, 0.43385000026319176, 0.42490000487305224, 0.4203500138828531, 0.41959999362006783, 0.4246500029694289, 0.41480000072624534, 0.4261499998392537, 0.42640000174287707, 0.43215000187046826, 0.41629999759607017, 0.4235499945934862, 0.421349992393516, 0.42050000047311187, 0.4194000066490844, 0.4246500029694289, 0.4523499810602516, 0.4223500000080094, 0.4254500090610236, 0.4194000066490844, 0.4206000012345612, 0.41730000521056354, 0.41545000567566603, 0.4159500094829127, 0.4194000066490844, 0.4293999954825267, 0.41945000702980906, 0.42055000085383654, 0.4175000067334622, 0.42475000373087823, 0.4174499918008223, 0.4233499930705875, 0.4194999928586185, 0.41459999920334667, 0.4222999996272847, 0.4117499920539558, 0.42039999971166253, 0.4238499968778342, 0.4339500010246411, 0.41540000529494137, 0.42135000694543123, 0.4123499966226518, 0.42579999717418104, 0.41959999362006783, 0.614099990343675, 0.49834999663289636, 0.41695000254549086, 0.4305000038584694, 0.4159500094829127, 0.4183000128250569, 0.45840001257602125, 0.42050000047311187, 0.4174000059720129, 0.410699998610653, 0.41554999188520014, 0.4252499929862097, 0.4197999951429665, 0.42114999087061733, 0.43754999933298677, 0.4243500006850809, 0.43804998858831823, 0.41340000461786985, 0.4275499959476292, 0.41900000360328704, 0.414549998822622, 0.41695000254549086, 0.4197999951429665, 0.4249499907018617, 0.4349000082584098, 0.4231000057188794, 0.41789999522734433, 0.42294999002479017, 0.41170000622514635, 0.425199992605485, 0.42055000085383654, 0.4124999977648258, 0.4152999899815768, 0.42389999725855887, 0.5763499939348549, 0.4408999957377091, 0.420599986682646, 0.4315000114729628, 0.41900000360328704, 0.41634999797679484, 0.42424999992363155, 0.4136500065214932, 0.4315999976824969, 0.42565001058392227, 0.4197000089334324, 0.4364000051282346, 0.4249499907018617, 0.4121000092709437, 0.41414999577682465, 0.41680000140331686, 0.41924999095499516, 0.4248000041116029, 0.4219999973429367, 0.4258000117260963, 0.4178500093985349, 0.41880000208038837, 0.4447999963304028, 0.414699999964796, 0.42409999878145754, 0.43825000466313213, 0.41930000588763505, 0.4314499965403229, 0.4174000059720129, 0.42490000487305224, 0.41909998981282115, 0.4163000121479854, 0.4167500010225922, 0.4231000057188794, 0.42039999971166253, 0.41044999670702964, 0.421949996962212, 0.4350500094005838, 0.41974999476224184, 0.4238499968778342, 0.4199999966658652, 0.41880000208038837, 0.4189000028418377, 0.41694998799357563, 0.4911000141873956, 0.43075000576209277, 0.41710000368766487, 0.415150003391318, 0.4243500006850809, 0.4130500019527972, 0.4226500022923574, 0.41399999463465065, 0.4172999906586483, 0.42734999442473054, 0.41629999759607017, 0.4214000073261559, 0.42490000487305224, 0.4194999928586185, 0.41280000004917383, 0.44475001050159335, 0.4223500000080094, 0.41874998714774847, 0.41619999683462083, 0.41880000208038837, 0.4184499994153157, 0.41680000140331686, 0.4244500014465302, 0.4124999977648258, 0.4133000038564205, 0.41390000842511654, 0.44859999616164714, 0.4255499952705577, 0.41900000360328704, 0.42609999945852906, 0.41665000026114285, 0.4169000021647662, 0.4219999973429367, 0.4134500049985945, 0.41555000643711537, 0.4218499962007627, 0.43230000301264226, 0.4291499935789034, 0.38235000101849437, 0.4515000036917627, 0.42359999497421086, 0.48010000318754464, 0.41939999209716916, 0.42149999353569, 0.4208000027574599, 0.39480000850744545, 0.41414999577682465, 0.42899999243672937, 0.42705000669229776, 0.41545000567566603, 0.41605001024436206, 0.43324999569449574, 0.43834999087266624, 0.46805001329630613, 0.42389999725855887, 0.418399999034591, 0.4190499894320965, 0.41810001130215824, 0.42424999992363155, 0.4310999938752502, 0.41629999759607017, 0.4226999881211668, 0.41274999966844916, 0.4198500100756064, 0.4191000043647364, 0.417949995608069, 0.42964999738615006, 0.4224500007694587, 0.43990000267513096, 0.42845000280067325, 0.4139500088058412, 0.46284998825285584, 0.42055000085383654, 0.42830000165849924, 0.41634999797679484, 0.418399999034591, 0.414399997680448, 0.4325499903643504, 0.41804999636951834, 0.4117499920539558, 0.41960000817198306, 0.41965000855270773, 0.4243500006850809, 0.43315000948496163, 0.4274500097380951, 0.41975000931415707, 0.4455500020412728, 0.4150500026298687, 0.4197000089334324, 0.4194999928586185, 0.4217500099912286, 0.41745000635273755, 0.4168499872321263, 0.4161000106250867, 0.4276500112609938, 0.4266500036465004, 0.42400001257192343, 0.4188499879091978, 0.41325000347569585, 0.4182999982731417, 0.4204500000923872, 0.41849999979604036, 0.4199499962851405, 0.413949994253926, 0.42085000313818455, 0.4432499990798533, 0.41244999738410115, 0.418550000176765, 0.40934998833108693, 0.41259999852627516, 0.424899990321137, 0.4194999928586185, 0.447450001956895, 0.4188499879091978, 0.42204999772366136, 0.41909998981282115, 0.41930000588763505, 0.4304000030970201, 0.41995001083705574, 0.418399999034591, 0.42979999852832407, 0.4278999986127019, 0.42129999201279134, 0.420899988966994, 0.42240000038873404, 0.48874999629333615, 0.4238499968778342, 0.44440000783652067, 0.4931500006932765, 0.4160999960731715, 0.4290999931981787, 0.42300000495743006, 0.4091000009793788, 0.4812499973922968, 0.41885000246111304, 0.4123999970033765, 0.45619999582413584, 0.4224500007694587, 0.4259500128682703, 0.4407499945955351, 0.4279000131646171, 0.4206000012345612, 0.41259999852627516, 0.42740000935737044, 0.4102500097360462, 0.41530000453349203, 0.41885000246111304, 0.4190500039840117, 0.4356499994173646, 0.4174000059720129, 0.4158999945502728, 0.41965000855270773, 0.4133999900659546, 0.4246500029694289, 0.4321000014897436, 0.4320500011090189, 0.43390000064391643, 0.41604999569244683, 0.4190500039840117, 0.4259999986970797, 0.41614999645389616, 0.4259999986970797, 0.4381000035209581, 0.4308500065235421, 0.42314999154768884, 0.43015000119339675, 0.4328499926486984, 0.42039999971166253, 0.41704998875502497, 0.41384999349247664, 0.418099996750243, 0.43140001071151346, 0.41810001130215824, 0.4270999925211072, 0.4164499987382442, 0.4381500039016828, 0.42219999886583537, 0.4225000011501834, 0.4290999931981787, 0.415150003391318, 0.4259999986970797, 0.42714999290183187, 0.4107999993721023, 0.4253000079188496, 0.42034999933093786, 0.42535000829957426, 0.417799994465895, 0.42209999810438603, 0.42544999450910836, 0.42564999603200704, 0.4233000072417781, 0.4191999905742705, 0.41340000461786985, 0.43814998934976757, 0.4243000003043562, 0.4245000018272549, 0.424899990321137, 0.42475000373087823, 0.4190500039840117, 0.4133000038564205, 0.41390000842511654, 0.4246500029694289, 0.41784999484661967, 0.43230000301264226, 0.4222999996272847, 0.4245000018272549, 0.42389999725855887, 0.41700000292621553, 0.421349992393516, 0.43000000005122274, 0.418249997892417, 0.4181499971309677, 0.41420001070946455, 0.42135000694543123, 0.4192999913357198, 0.41819999751169235, 0.4786500066984445, 0.4219999973429367, 0.42189999658148736, 0.42389999725855887, 0.41495000186841935, 0.4134500049985945, 0.4212000058032572, 0.4178500093985349, 0.41989999590441585, 0.4447999963304028, 0.41864998638629913, 0.42039999971166253, 0.41485000110697, 0.4385999927762896, 0.4290999931981787, 0.44639999396167696, 0.4815499851247296, 0.4169000021647662, 0.41364999196957797, 0.4236999957356602, 0.417799994465895, 0.421799995820038, 0.41274999966844916, 0.41725000482983887, 0.440500007243827, 0.4246500029694289, 0.411000000895001, 0.4354999982751906, 0.4270000063115731, 0.4167500010225922, 0.4121999954804778, 0.41584999416954815, 0.4232500068610534, 0.41464999958407134, 0.4234000080032274, 0.4202499985694885, 0.4184499994153157, 0.42389999725855887, 0.42209999810438603, 0.41700000292621553, 0.42094998934771866, 0.41495000186841935, 0.4241499991621822, 0.41819999751169235, 0.4311499942559749, 0.41360000614076853, 0.41280000004917383, 0.4252499929862097, 0.41599999531172216, 0.44920000073034316, 0.4192500055069104, 0.4215499939164147, 0.41090000013355166, 0.4192999913357198, 0.417499992181547, 0.42204999772366136, 0.4156500071985647, 0.4116999916732311, 0.4202499985694885, 0.4252499929862097, 0.4263500013621524, 0.4243000003043562, 0.4214000073261559, 0.42165000922977924, 0.4150500026298687, 0.42050000047311187, 0.4214000073261559, 0.42470000335015357, 0.41704998875502497, 0.417949995608069, 0.42180001037195325, 0.41384999349247664, 0.4498499911278486, 0.41370000690221786, 0.4241499991621822, 0.41634999797679484, 0.4233499930705875, 0.4229500045767054, 0.414249996538274, 0.42359999497421086, 0.41280000004917383, 0.4167000006418675, 0.42660000326577574, 0.4153500049142167, 0.4225999873597175, 0.4150500026298687, 0.4216000088490546, 0.42285000381525606, 0.41244999738410115, 0.4226000019116327, 0.42129999201279134, 0.4088499990757555, 0.420899988966994, 0.4097499913768843, 0.41865000093821436, 0.41760000749491155, 0.4161000106250867, 0.41865000093821436, 0.41870000131893903, 0.4165999998804182, 0.4191499901935458, 0.41700000292621553, 0.42749999556690454, 0.4157999937888235, 0.43000000005122274, 0.4187500016996637, 0.42470000335015357, 0.4274499951861799, 0.42374999611638486, 0.4177000082563609, 0.418099996750243, 0.41810001130215824, 0.41760000749491155, 0.4334999975981191, 0.4229000041959807, 0.4246500029694289, 0.43274999188724905, 0.4773999971803278, 0.4156500071985647, 0.4182000120636076, 0.5396999913500622, 0.4115000047022477, 0.41629999759607017, 0.41945000702980906, 0.4286499897716567, 0.41769999370444566, 0.5610500084003434, 0.4307999915909022, 0.4158000083407387, 0.45929999032523483, 0.4454500012798235, 0.42640000174287707, 0.49774999206420034, 0.40905000059865415, 0.4206000012345612, 0.41325000347569585, 0.42109999048989266, 0.42440000106580555, 0.4257499967934564, 0.5157999985385686, 0.37199999496806413, 0.4187500016996637, 0.41024999518413097, 0.41059999784920365, 0.4137499927310273, 0.4801499890163541, 0.4317999992053956, 0.4326000052969903, 0.4673500079661608, 0.415000002249144, 0.4147500003455207, 0.5356500041671097, 0.43554999865591526, 0.42505000601522624, 0.4408999957377091, 0.41449999844189733, 0.42719999328255653, 0.42100000428035855, 0.42034999933093786, 0.42300000495743006, 0.4282500012777746, 0.4190499894320965, 0.42764999670907855, 0.42219999886583537, 0.4168500017840415, 0.41510000301059335, 0.4271000070730224, 0.4207500023767352, 0.41560000681784004, 0.42174999543931335, 0.41704998875502497, 0.4285500035621226, 0.42315000609960407, 0.414399997680448, 0.4304000030970201, 0.41924999095499516, 0.4106499982299283, 0.4393499984871596, 0.41555000643711537, 0.421349992393516, 0.4193499917164445, 0.41730000521056354, 0.41459999920334667, 0.4206500016152859, 0.41730000521056354, 0.4226500022923574, 0.4238499968778342, 0.47244998859241605, 0.4289499920560047, 0.41545000567566603, 0.41405000956729054, 0.4184499994153157, 0.4308500065235421, 0.42050000047311187, 0.4286500043235719, 0.4768999933730811, 0.41604999569244683, 0.4278999986127019, 0.42055000085383654, 0.4167500010225922, 0.45434999628923833, 0.4186000005574897, 0.4150999884586781, 0.42949999624397606, 0.41704998875502497, 0.43489999370649457, 0.41775000863708556, 0.41774999408517033, 0.4298999992897734, 0.4141999961575493, 0.41880000208038837, 0.4337999998824671, 0.4151499888394028, 0.4199499962851405, 0.4238499968778342, 0.4224500007694587, 0.4162499972153455, 0.4321000014897436, 0.41870000131893903, 0.4283500020392239, 0.4100500082131475, 0.516950007295236, 0.5386999837355688, 0.4726999904960394, 0.417349991039373, 0.4115999909117818, 0.41539999074302614, 0.41450001299381256, 0.4493500164244324, 0.4530500009423122, 0.42204999772366136, 0.42144999315496534, 0.41880000208038837, 0.4163999983575195, 0.4308499919716269, 0.42285000381525606, 0.411000000895001, 0.4138999938732013, 0.4113500035600737, 0.42115000542253256, 0.4158000083407387, 0.4158500087214634, 0.4253000079188496, 0.41444999806117266, 0.4395500000100583, 0.4216000088490546, 0.4278499982319772, 0.41620001138653606, 0.42329999268986285, 0.41804999636951834, 0.41429999691899866, 0.4207500023767352, 0.42300000495743006, 0.42224999924656004, 0.42109999048989266, 0.4159500094829127, 0.4233499930705875, 0.4152000037720427, 0.41900000360328704, 0.40669999725650996, 0.44920000073034316, 0.4138999938732013, 0.41680000140331686, 0.4386000073282048, 0.42315000609960407, 0.4243500006850809, 0.4161500110058114, 0.41510000301059335, 0.4116999916732311, 0.42740000935737044, 0.42559999565128237, 0.4222999996272847, 0.41700000292621553, 0.42440000106580555, 0.41695000254549086, 0.4161500110058114, 0.42904999281745404, 0.42485000449232757, 0.4130000015720725, 0.42449998727533966, 0.420899988966994, 0.42874999053310603, 0.4243500006850809, 0.43390000064391643, 0.42085000313818455, 0.411450004321523, 0.40985000669024885, 0.4122500104131177, 0.4374999989522621, 0.4167500010225922, 0.42300000495743006, 0.41555000643711537, 0.4131500027142465, 0.41229999624192715, 0.42085000313818455, 0.42070000199601054, 0.4172999906586483, 0.4241499991621822, 0.4497500049183145, 0.4267000040272251, 0.4222999996272847, 0.44580000394489616, 0.4135999915888533, 0.4175000067334622, 0.417649993323721, 0.4180000105407089, 0.42070000199601054, 0.42729999404400587, 0.43569999979808927, 0.4126499989069998, 0.4157999937888235, 0.4289499920560047, 0.4168500017840415, 0.4184499994153157, 0.4186000005574897, 0.4152000037720427, 0.4196499940007925, 0.4356499994173646, 0.4212000058032572, 0.4241499991621822, 0.4292499943403527, 0.441550015239045, 0.41604999569244683, 0.4116500058444217, 0.41545000567566603, 0.4144500126130879, 0.5977500113658607, 0.43744999857153744, 0.4647999885492027, 0.41804999636951834, 0.4138999938732013, 0.42460000258870423, 0.42379999649710953, 0.45300001511350274, 0.46675001794938, 0.417649993323721, 0.41939999209716916, 0.41370000690221786, 0.41865000093821436, 0.4273999948054552, 0.4133500042371452, 0.4227500030538067, 0.4218499962007627, 0.41540000529494137, 0.4378000012366101, 0.41710000368766487, 0.41405000956729054, 0.4181499971309677, 0.4199999966658652, 0.4298999992897734, 0.437250011600554, 0.4210500046610832, 0.4316500126151368, 0.41485000110697, 0.4216999950585887, 0.41274999966844916, 0.4183500132057816, 0.4195000074105337, 0.414399997680448, 0.42389999725855887, 0.4587500006891787, 0.4126999992877245, 0.4259999986970797, 0.41295000119134784, 0.42845000280067325, 0.4269499913789332, 0.41725000482983887, 0.41540000529494137, 0.42394999763928354, 0.4135000053793192, 0.43170001299586147, 0.4154499911237508, 0.4200500115985051, 0.4189999890513718, 0.415000002249144, 0.4202499985694885, 0.4132000030949712, 0.4285000031813979, 0.425049991463311, 0.4149000014876947, 0.4174499918008223, 0.4182999982731417, 0.4199999966658652, 0.4391999973449856, 0.42335000762250274, 0.4272499936632812, 0.4167500010225922, 0.4212500061839819, 0.4265000025043264, 0.43929999810643494, 0.42460000258870423, 0.4161500110058114, 0.41619999683462083, 0.4175000067334622, 0.41510000301059335, 0.41969999438151717, 0.4135999915888533, 0.4208000027574599],
  "Depth": 18.5,
  "Expectation Value": -9.095251083374023,
  "Optimal Expectation Value": -9.83795166015625,
  "Optimizer durations [ms]": [9.808, 9.863, 10.045, 9.428, 9.383, 9.355, 9.449, 9.086, 9.907, 9.511, 9.322, 9.468, 9.473, 9.739, 11.818, 17.005, 12.919, 9.405, 9.532, 10.183, 9.579, 9.361, 9.221, 9.621, 9.537, 9.415, 9.624, 9.339, 9.025, 9.649, 9.533, 9.445, 8.874, 9.627, 9.03, 9.547, 9.401, 9.838, 9.56, 9.422, 9.461, 9.216, 9.9, 9.415, 9.337, 9.595, 9.77, 9.668, 9.332, 13.548, 9.602, 9.596, 9.077, 9.579, 9.449, 9.293, 9.26, 9.456, 9.255, 9.362, 9.12, 9.774, 9.613, 9.415, 9.572, 9.083, 9.203, 9.59, 9.143, 9.41, 9.683, 9.68, 9.425, 9.764, 9.363, 9.306, 9.901, 9.624, 9.219, 9.28, 9.579, 9.329, 9.272, 9.379, 9.781, 9.305, 9.579, 9.391, 9.35, 9.36, 9.626, 10.014, 9.441, 9.493, 9.495, 9.469, 9.302, 9.386, 9.369, 9.243, 9.349, 9.574, 9.375, 9.321, 9.414, 9.322, 9.553, 9.565, 9.286, 9.45, 9.27, 9.247, 9.386, 9.702, 9.076, 9.678, 9.199, 9.586, 9.346, 13.095, 24.714, 9.278, 9.65, 9.255, 9.123, 10.564, 9.322, 9.459, 9.383, 9.168, 9.362, 9.749, 9.184, 9.535, 9.65, 9.608, 9.311, 9.683, 9.42, 9.113, 9.507, 9.152, 9.751, 9.535, 9.366, 9.273, 9.605, 9.073, 9.406, 9.637, 9.12, 9.177, 9.743, 12.303, 9.589, 9.818, 9.545, 9.407, 9.44, 9.409, 9.205, 9.768, 9.535, 9.111, 9.863, 9.471, 8.994, 9.442, 9.581, 9.296, 9.405, 9.572, 9.537, 9.158, 9.633, 9.771, 9.379, 9.363, 9.877, 9.459, 9.568, 9.53, 9.575, 9.461, 9.407, 9.236, 9.461, 9.552, 9.094, 9.604, 9.4, 9.638, 9.513, 9.346, 9.5, 9.182, 9.414, 10.712, 9.855, 9.351, 9.308, 9.572, 9.41, 9.412, 9.444, 9.064, 9.773, 9.366, 9.385, 9.51, 9.503, 9.467, 9.793, 9.581, 9.486, 9.294, 9.164, 9.542, 9.511, 9.321, 10.835, 9.329, 9.286, 13.364, 9.406, 9.195, 19.193, 9.261, 9.546, 9.561, 9.174, 9.392, 9.234, 9.493, 10.139, 20.162, 9.999, 9.631, 10.311, 9.396, 9.66, 9.468, 21.449, 9.277, 9.684, 9.431, 9.355, 9.115, 9.535, 19.446, 16.338, 9.46, 9.583, 9.331, 9.426, 9.517, 9.747, 9.355, 9.329, 9.375, 9.27, 9.226, 9.419, 9.605, 9.601, 9.668, 9.59, 9.267, 10.236, 9.292, 9.518, 9.615, 9.338, 9.276, 9.75, 9.169, 9.489, 9.176, 9.447, 9.566, 9.753, 9.297, 9.585, 10.057, 9.241, 9.609, 9.117, 9.738, 9.328, 9.428, 9.024, 9.682, 9.483, 9.489, 9.256, 9.417, 9.143, 9.728, 9.378, 9.324, 9.158, 9.406, 9.715, 9.172, 9.381, 9.206, 9.023, 9.544, 9.38, 9.786, 9.163, 9.747, 9.581, 9.184, 9.812, 9.151, 9.387, 9.614, 9.635, 9.408, 9.653, 9.524, 10.25, 9.836, 24.71, 11.109, 9.382, 9.696, 9.606, 9.115, 10.422, 9.182, 9.357, 10.229, 9.331, 9.593, 9.462, 9.687, 9.33, 9.321, 9.57, 9.289, 9.182, 9.656, 9.203, 9.612, 9.514, 9.481, 9.329, 9.379, 9.433, 9.81, 9.356, 9.885, 9.35, 9.373, 9.467, 9.492, 12.854, 9.83, 9.751, 9.466, 9.48, 9.529, 9.419, 9.457, 9.251, 9.44, 9.666, 9.342, 9.323, 9.493, 9.729, 9.64, 9.533, 9.56, 9.375, 9.443, 9.775, 8.987, 9.643, 9.511, 9.66, 9.478, 9.183, 9.544, 9.634, 9.513, 9.126, 9.541, 9.371, 9.523, 9.385, 9.63, 9.355, 9.503, 9.454, 9.116, 9.684, 9.224, 9.6, 9.268, 9.696, 9.416, 9.256, 9.585, 9.386, 9.435, 9.516, 9.263, 9.396, 9.349, 9.718, 10.134, 9.375, 9.748, 9.365, 9.402, 9.332, 9.283, 9.392, 9.395, 10.024, 9.315, 9.404, 9.035, 9.92, 9.357, 17.518, 14.848, 9.157, 9.504, 9.576, 9.122, 9.783, 9.378, 9.092, 9.927, 9.721, 9.276, 9.749, 9.431, 9.745, 9.24, 9.449, 9.236, 9.563, 9.411, 9.326, 9.384, 9.455, 9.511, 9.448, 9.342, 9.524, 9.46, 9.19, 9.665, 9.024, 9.455, 9.632, 9.063, 9.829, 9.445, 9.491, 9.446, 9.433, 9.405, 9.536, 9.248, 8.984, 9.677, 9.41, 9.68, 9.413, 9.483, 9.264, 9.412, 9.398, 9.556, 9.426, 9.324, 9.268, 9.657, 8.995, 10.067, 9.126, 9.515, 9.471, 9.41, 9.516, 8.975, 9.768, 9.379, 9.385, 9.512, 9.15, 9.542, 9.299, 9.245, 9.591, 9.29, 9.601, 9.265, 9.48, 9.406, 9.172, 9.44, 9.505, 9.081, 9.406, 9.537, 9.157, 9.258, 9.355, 9.571, 9.388, 9.405, 9.289, 9.782, 9.501, 9.683, 9.327, 9.412, 9.143, 9.603, 9.586, 9.672, 9.321, 9.553, 10.529, 9.06, 9.32, 11.771, 9.292, 9.298, 9.206, 12.249, 9.484, 12.324, 9.805, 9.465, 9.773, 9.746, 9.348, 10.699, 19.643, 9.395, 9.512, 9.242, 9.529, 9.467, 11.088, 15.692, 9.385, 9.061, 9.286, 9.079, 11.129, 9.677, 26.727, 10.524, 9.317, 9.131, 11.475, 9.562, 9.719, 9.637, 9.325, 9.368, 9.719, 9.414, 9.475, 9.464, 9.454, 9.511, 9.455, 9.313, 9.337, 9.694, 9.366, 9.336, 9.484, 9.349, 9.63, 9.511, 9.164, 9.554, 9.671, 8.915, 9.778, 9.365, 9.412, 9.627, 9.401, 9.298, 9.333, 9.071, 9.584, 9.275, 10.648, 9.573, 9.342, 9.261, 9.514, 9.546, 9.397, 9.507, 10.362, 9.132, 9.611, 9.344, 9.245, 9.883, 9.366, 9.07, 9.496, 9.395, 9.695, 9.305, 9.523, 9.646, 9.404, 9.112, 9.848, 9.204, 9.351, 9.341, 9.965, 9.233, 9.578, 9.484, 9.576, 9.08, 11.393, 20.38, 11.809, 9.272, 9.001, 9.595, 9.309, 9.972, 9.695, 9.557, 9.2, 9.458, 9.408, 9.742, 9.411, 9.336, 9.36, 9.126, 9.277, 9.359, 9.26, 9.708, 9.285, 9.594, 9.388, 9.521, 9.731, 9.38, 9.484, 9.188, 9.493, 9.44, 9.305, 9.311, 9.354, 14.742, 9.572, 9.335, 8.896, 9.814, 9.359, 9.08, 9.479, 9.413, 9.301, 9.381, 9.252, 9.394, 9.515, 9.494, 9.462, 9.344, 9.46, 9.406, 9.502, 9.427, 9.511, 9.381, 9.665, 9.153, 9.71, 9.443, 9.786, 9.161, 9.721, 9.139, 9.079, 9.822, 9.433, 9.447, 9.372, 8.951, 9.287, 9.647, 9.207, 9.625, 9.31, 9.74, 9.66, 9.203, 9.587, 9.498, 9.457, 9.201, 9.199, 9.618, 9.677, 9.54, 9.121, 9.609, 9.485, 9.428, 9.126, 9.717, 9.411, 9.242, 9.702, 9.34, 9.439, 9.715, 9.621, 9.254, 9.538, 9.068, 9.561, 12.891, 21.021, 10.574, 9.187, 9.302, 9.679, 9.491, 9.843, 9.93, 9.445, 9.149, 9.369, 9.314, 9.749, 9.343, 9.438, 9.397, 9.146, 9.929, 9.265, 9.276, 9.404, 9.354, 9.461, 10.059, 9.402, 9.627, 9.347, 9.378, 9.359, 9.139, 9.408, 9.411, 9.353, 10.038, 9.484, 9.437, 9.179, 9.561, 9.583, 9.52, 9.343, 9.584, 8.935, 9.445, 9.45, 9.358, 9.542, 9.159, 9.311, 9.35, 9.685, 9.673, 8.981, 9.547, 9.551, 9.429, 9.477, 9.289, 9.685, 9.521, 9.34, 9.536, 9.875, 11.963, 9.371, 9.377, 9.213, 9.37, 9.53, 9.331, 9.179],
  "Optimizer iterations": 811,
  "Optimizer params": [0.930540397048429, 0.5728257381577635, 0.9972461844745507, 0.5740140947096061, 0.47011443829986727, 0.4693702897201867, 0.995754851013788, 0.3040062117230113, 0.5459432025225123, 0.13466181138370564, 0.048744825528886294, 0.3333807572717542, 0.9989326440359279, 0.6667690692871855, 0.995394480267553, 0.9605964214503384, 0.04880789947865119, 0.46538932361065616, 0.5260079310151737, 0.5321285209961154, 0.05214436435399642, 0.11559225314417644, 0.6415757683671716, 0.7930846318817427, 0.8367208103411041, 0.6344246721706587, 0.9949903002239648, 0.6937270817472131, 0.6172986216605755, 0.5090483886794416, 0.5205564639665727, 0.5683048799822618],
  "P": 0,
  "Problem": "IC",
  "QJob durations [ms]": [0.42749999556690454, 0.46369998017326, 0.43834999087266624, 0.42209999810438603, 0.4219999973429367, 0.4115999909117818, 0.41584999416954815, 0.41769999370444566, 0.4336499987402931, 0.4234999942127615, 0.4220000118948519, 0.4256999964127317, 0.43330001062713563, 0.4311500088078901, 0.5365499964682385, 0.4251000063959509, 0.5591000081039965, 0.4183000128250569, 0.41954999323934317, 0.4563999973470345, 0.4311499942559749, 0.42529999336693436, 0.4188999882899225, 0.4319500003475696, 0.4229500045767054, 0.4158999945502728, 0.4288500058464706, 0.417649993323721, 0.40985000669024885, 0.43494999408721924, 0.421949996962212, 0.41789999522734433, 0.4126499989069998, 0.4345500055933371, 0.41405000956729054, 0.41554999188520014, 0.421799995820038, 0.44794999121222645, 0.41969999438151717, 0.42564999603200704, 0.42565001058392227, 0.4211000050418079, 0.43990000267513096, 0.4226999881211668, 0.42165000922977924, 0.42559999565128237, 0.4290999931981787, 0.4345500055933371, 0.4177000082563609, 0.4195500077912584, 0.4392499977257103, 0.42440000106580555, 0.40745000296738, 0.42505000601522624, 0.42004999704658985, 0.414549998822622, 0.42070000199601054, 0.41960000817198306, 0.41575000796001405, 0.418550000176765, 0.4175000067334622, 0.4286500043235719, 0.42145000770688057, 0.4191499901935458, 0.42300000495743006, 0.41244999738410115, 0.41199999395757914, 0.42669998947530985, 0.4168500017840415, 0.42100000428035855, 0.43230000301264226, 0.42050000047311187, 0.41634999797679484, 0.4384499916341156, 0.4216000088490546, 0.4190500039840117, 0.43385000026319176, 0.42490000487305224, 0.4203500138828531, 0.41959999362006783, 0.4246500029694289, 0.41480000072624534, 0.4261499998392537, 0.42640000174287707, 0.43215000187046826, 0.41629999759607017, 0.4235499945934862, 0.421349992393516, 0.42050000047311187, 0.4194000066490844, 0.4246500029694289, 0.4523499810602516, 0.4223500000080094, 0.4254500090610236, 0.4194000066490844, 0.4206000012345612, 0.41730000521056354, 0.41545000567566603, 0.4159500094829127, 0.4194000066490844, 0.4293999954825267, 0.41945000702980906, 0.42055000085383654, 0.4175000067334622, 0.42475000373087823, 0.4174499918008223, 0.4233499930705875, 0.4194999928586185, 0.41459999920334667, 0.4222999996272847, 0.4117499920539558, 0.42039999971166253, 0.4238499968778342, 0.4339500010246411, 0.41540000529494137, 0.42135000694543123, 0.4123499966226518, 0.42579999717418104, 0.41959999362006783, 0.614099990343675, 0.49834999663289636, 0.41695000254549086, 0.4305000038584694, 0.4159500094829127, 0.4183000128250569, 0.45840001257602125, 0.42050000047311187, 0.4174000059720129, 0.410699998610653, 0.41554999188520014, 0.4252499929862097, 0.4197999951429665, 0.42114999087061733, 0.43754999933298677, 0.4243500006850809, 0.43804998858831823, 0.41340000461786985, 0.4275499959476292, 0.41900000360328704, 0.414549998822622, 0.41695000254549086, 0.4197999951429665, 0.4249499907018617, 0.4349000082584098, 0.4231000057188794, 0.41789999522734433, 0.42294999002479017, 0.41170000622514635, 0.425199992605485, 0.42055000085383654, 0.4124999977648258, 0.4152999899815768, 0.42389999725855887, 0.5763499939348549, 0.4408999957377091, 0.420599986682646, 0.4315000114729628, 0.41900000360328704, 0.41634999797679484, 0.42424999992363155, 0.4136500065214932, 0.4315999976824969, 0.42565001058392227, 0.4197000089334324, 0.4364000051282346, 0.4249499907018617, 0.4121000092709437, 0.41414999577682465, 0.41680000140331686, 0.41924999095499516, 0.4248000041116029, 0.4219999973429367, 0.4258000117260963, 0.4178500093985349, 0.41880000208038837, 0.4447999963304028, 0.414699999964796, 0.42409999878145754, 0.43825000466313213, 0.41930000588763505, 0.4314499965403229, 0.4174000059720129, 0.42490000487305224, 0.41909998981282115, 0.4163000121479854, 0.4167500010225922, 0.4231000057188794, 0.42039999971166253, 0.41044999670702964, 0.421949996962212, 0.4350500094005838, 0.41974999476224184, 0.4238499968778342, 0.4199999966658652, 0.41880000208038837, 0.4189000028418377, 0.41694998799357563, 0.4911000141873956, 0.43075000576209277, 0.41710000368766487, 0.415150003391318, 0.4243500006850809, 0.4130500019527972, 0.4226500022923574, 0.41399999463465065, 0.4172999906586483, 0.42734999442473054, 0.41629999759607017, 0.4214000073261559, 0.42490000487305224, 0.4194999928586185, 0.41280000004917383, 0.44475001050159335, 0.4223500000080094, 0.41874998714774847, 0.41619999683462083, 0.41880000208038837, 0.4184499994153157, 0.41680000140331686, 0.4244500014465302, 0.4124999977648258, 0.4133000038564205, 0.41390000842511654, 0.44859999616164714, 0.4255499952705577, 0.41900000360328704, 0.42609999945852906, 0.41665000026114285, 0.4169000021647662, 0.4219999973429367, 0.4134500049985945, 0.41555000643711537, 0.4218499962007627, 0.43230000301264226, 0.4291499935789034, 0.38235000101849437, 0.4515000036917627, 0.42359999497421086, 0.48010000318754464, 0.41939999209716916, 0.42149999353569, 0.4208000027574599, 0.39480000850744545, 0.41414999577682465, 0.42899999243672937, 0.42705000669229776, 0.41545000567566603, 0.41605001024436206, 0.43324999569449574, 0.43834999087266624, 0.46805001329630613, 0.42389999725855887, 0.418399999034591, 0.4190499894320965, 0.41810001130215824, 0.42424999992363155, 0.4310999938752502, 0.41629999759607017, 0.4226999881211668, 0.41274999966844916, 0.4198500100756064, 0.4191000043647364, 0.417949995608069, 0.42964999738615006, 0.4224500007694587, 0.43990000267513096, 0.42845000280067325, 0.4139500088058412, 0.46284998825285584, 0.42055000085383654, 0.42830000165849924, 0.41634999797679484, 0.418399999034591, 0.414399997680448, 0.4325499903643504, 0.41804999636951834, 0.4117499920539558, 0.41960000817198306, 0.41965000855270773, 0.4243500006850809, 0.43315000948496163, 0.4274500097380951, 0.41975000931415707, 0.4455500020412728, 0.4150500026298687, 0.4197000089334324, 0.4194999928586185, 0.4217500099912286, 0.41745000635273755, 0.4168499872321263, 0.4161000106250867, 0.4276500112609938, 0.4266500036465004, 0.42400001257192343, 0.4188499879091978, 0.41325000347569585, 0.4182999982731417, 0.4204500000923872, 0.41849999979604036, 0.4199499962851405, 0.413949994253926, 0.42085000313818455, 0.4432499990798533, 0.41244999738410115, 0.418550000176765, 0.40934998833108693, 0.41259999852627516, 0.424899990321137, 0.4194999928586185, 0.447450001956895, 0.4188499879091978, 0.42204999772366136, 0.41909998981282115, 0.41930000588763505, 0.4304000030970201, 0.41995001083705574, 0.418399999034591, 0.42979999852832407, 0.4278999986127019, 0.42129999201279134, 0.420899988966994, 0.42240000038873404, 0.48874999629333615, 0.4238499968778342, 0.44440000783652067, 0.4931500006932765, 0.4160999960731715, 0.4290999931981787, 0.42300000495743006, 0.4091000009793788, 0.4812499973922968, 0.41885000246111304, 0.4123999970033765, 0.45619999582413584, 0.4224500007694587, 0.4259500128682703, 0.4407499945955351, 0.4279000131646171, 0.4206000012345612, 0.41259999852627516, 0.42740000935737044, 0.4102500097360462, 0.41530000453349203, 0.41885000246111304, 0.4190500039840117, 0.4356499994173646, 0.4174000059720129, 0.4158999945502728, 0.41965000855270773, 0.4133999900659546, 0.4246500029694289, 0.4321000014897436, 0.4320500011090189, 0.43390000064391643, 0.41604999569244683, 0.4190500039840117, 0.4259999986970797, 0.41614999645389616, 0.4259999986970797, 0.4381000035209581, 0.4308500065235421, 0.42314999154768884, 0.43015000119339675, 0.4328499926486984, 0.42039999971166253, 0.41704998875502497, 0.41384999349247664, 0.418099996750243, 0.43140001071151346, 0.41810001130215824, 0.4270999925211072, 0.4164499987382442, 0.4381500039016828, 0.42219999886583537, 0.4225000011501834, 0.4290999931981787, 0.415150003391318, 0.4259999986970797, 0.42714999290183187, 0.4107999993721023, 0.4253000079188496, 0.42034999933093786, 0.42535000829957426, 0.417799994465895, 0.42209999810438603, 0.42544999450910836, 0.42564999603200704, 0.4233000072417781, 0.4191999905742705, 0.41340000461786985, 0.43814998934976757, 0.4243000003043562, 0.4245000018272549, 0.424899990321137, 0.42475000373087823, 0.4190500039840117, 0.4133000038564205, 0.41390000842511654, 0.4246500029694289, 0.41784999484661967, 0.43230000301264226, 0.4222999996272847, 0.4245000018272549, 0.42389999725855887, 0.41700000292621553, 0.421349992393516, 0.43000000005122274, 0.418249997892417, 0.4181499971309677, 0.41420001070946455, 0.42135000694543123, 0.4192999913357198, 0.41819999751169235, 0.4786500066984445, 0.4219999973429367, 0.42189999658148736, 0.42389999725855887, 0.41495000186841935, 0.4134500049985945, 0.4212000058032572, 0.4178500093985349, 0.41989999590441585, 0.4447999963304028, 0.41864998638629913, 0.42039999971166253, 0.41485000110697, 0.4385999927762896, 0.4290999931981787, 0.44639999396167696, 0.4815499851247296, 0.4169000021647662, 0.41364999196957797, 0.4236999957356602, 0.417799994465895, 0.421799995820038, 0.41274999966844916, 0.41725000482983887, 0.440500007243827, 0.4246500029694289, 0.411000000895001, 0.4354999982751906, 0.4270000063115731, 0.4167500010225922, 0.4121999954804778, 0.41584999416954815, 0.4232500068610534, 0.41464999958407134, 0.4234000080032274, 0.4202499985694885, 0.4184499994153157, 0.42389999725855887, 0.42209999810438603, 0.41700000292621553, 0.42094998934771866, 0.41495000186841935, 0.4241499991621822, 0.41819999751169235, 0.4311499942559749, 0.41360000614076853, 0.41280000004917383, 0.4252499929862097, 0.41599999531172216, 0.44920000073034316, 0.4192500055069104, 0.4215499939164147, 0.41090000013355166, 0.4192999913357198, 0.417499992181547, 0.42204999772366136, 0.4156500071985647, 0.4116999916732311, 0.4202499985694885, 0.4252499929862097, 0.4263500013621524, 0.4243000003043562, 0.4214000073261559, 0.42165000922977924, 0.4150500026298687, 0.42050000047311187, 0.4214000073261559, 0.42470000335015357, 0.41704998875502497, 0.417949995608069, 0.42180001037195325, 0.41384999349247664, 0.4498499911278486, 0.41370000690221786, 0.4241499991621822, 0.41634999797679484, 0.4233499930705875, 0.4229500045767054, 0.414249996538274, 0.42359999497421086, 0.41280000004917383, 0.4167000006418675, 0.42660000326577574, 0.4153500049142167, 0.4225999873597175, 0.4150500026298687, 0.4216000088490546, 0.42285000381525606, 0.41244999738410115, 0.4226000019116327, 0.42129999201279134, 0.4088499990757555, 0.420899988966994, 0.4097499913768843, 0.41865000093821436, 0.41760000749491155, 0.4161000106250867, 0.41865000093821436, 0.41870000131893903, 0.4165999998804182, 0.4191499901935458, 0.41700000292621553, 0.42749999556690454, 0.4157999937888235, 0.43000000005122274, 0.4187500016996637, 0.42470000335015357, 0.4274499951861799, 0.42374999611638486, 0.4177000082563609, 0.418099996750243, 0.41810001130215824, 0.41760000749491155, 0.4334999975981191, 0.4229000041959807, 0.4246500029694289, 0.43274999188724905, 0.4773999971803278, 0.4156500071985647, 0.4182000120636076, 0.5396999913500622, 0.4115000047022477, 0.41629999759607017, 0.41945000702980906, 0.4286499897716567, 0.41769999370444566, 0.5610500084003434, 0.4307999915909022, 0.4158000083407387, 0.45929999032523483, 0.4454500012798235, 0.42640000174287707, 0.49774999206420034, 0.40905000059865415, 0.4206000012345612, 0.41325000347569585, 0.42109999048989266, 0.42440000106580555, 0.4257499967934564, 0.5157999985385686, 0.37199999496806413, 0.4187500016996637, 0.41024999518413097, 0.41059999784920365, 0.4137499927310273, 0.4801499890163541, 0.4317999992053956, 0.4326000052969903, 0.4673500079661608, 0.415000002249144, 0.4147500003455207, 0.5356500041671097, 0.43554999865591526, 0.42505000601522624, 0.4408999957377091, 0.41449999844189733, 0.42719999328255653, 0.42100000428035855, 0.42034999933093786, 0.42300000495743006, 0.4282500012777746, 0.4190499894320965, 0.42764999670907855, 0.42219999886583537, 0.4168500017840415, 0.41510000301059335, 0.4271000070730224, 0.4207500023767352, 0.41560000681784004, 0.42174999543931335, 0.41704998875502497, 0.4285500035621226, 0.42315000609960407, 0.414399997680448, 0.4304000030970201, 0.41924999095499516, 0.4106499982299283, 0.4393499984871596, 0.41555000643711537, 0.421349992393516, 0.4193499917164445, 0.41730000521056354, 0.41459999920334667, 0.4206500016152859, 0.41730000521056354, 0.4226500022923574, 0.4238499968778342, 0.47244998859241605, 0.4289499920560047, 0.41545000567566603, 0.41405000956729054, 0.4184499994153157, 0.4308500065235421, 0.42050000047311187, 0.4286500043235719, 0.4768999933730811, 0.41604999569244683, 0.4278999986127019, 0.42055000085383654, 0.4167500010225922, 0.45434999628923833, 0.4186000005574897, 0.4150999884586781, 0.42949999624397606, 0.41704998875502497, 0.43489999370649457, 0.41775000863708556, 0.41774999408517033, 0.4298999992897734, 0.4141999961575493, 0.41880000208038837, 0.4337999998824671, 0.4151499888394028, 0.4199499962851405, 0.4238499968778342, 0.4224500007694587, 0.4162499972153455, 0.4321000014897436, 0.41870000131893903, 0.4283500020392239, 0.4100500082131475, 0.516950007295236, 0.5386999837355688, 0.4726999904960394, 0.417349991039373, 0.4115999909117818, 0.41539999074302614, 0.41450001299381256, 0.4493500164244324, 0.4530500009423122, 0.42204999772366136, 0.42144999315496534, 0.41880000208038837, 0.4163999983575195, 0.4308499919716269, 0.42285000381525606, 0.411000000895001, 0.4138999938732013, 0.4113500035600737, 0.42115000542253256, 0.4158000083407387, 0.4158500087214634, 0.4253000079188496, 0.41444999806117266, 0.4395500000100583, 0.4216000088490546, 0.4278499982319772, 0.41620001138653606, 0.42329999268986285, 0.41804999636951834, 0.41429999691899866, 0.4207500023767352, 0.42300000495743006, 0.42224999924656004, 0.42109999048989266, 0.4159500094829127, 0.4233499930705875, 0.4152000037720427, 0.41900000360328704, 0.40669999725650996, 0.44920000073034316, 0.4138999938732013, 0.41680000140331686, 0.4386000073282048, 0.42315000609960407, 0.4243500006850809, 0.4161500110058114, 0.41510000301059335, 0.4116999916732311, 0.42740000935737044, 0.42559999565128237, 0.4222999996272847, 0.41700000292621553, 0.42440000106580555, 0.41695000254549086, 0.4161500110058114, 0.42904999281745404, 0.42485000449232757, 0.4130000015720725, 0.42449998727533966, 0.420899988966994, 0.42874999053310603, 0.4243500006850809, 0.43390000064391643, 0.42085000313818455, 0.411450004321523, 0.40985000669024885, 0.4122500104131177, 0.4374999989522621, 0.4167500010225922, 0.42300000495743006, 0.41555000643711537, 0.4131500027142465, 0.41229999624192715, 0.42085000313818455, 0.42070000199601054, 0.4172999906586483, 0.4241499991621822, 0.4497500049183145, 0.4267000040272251, 0.4222999996272847, 0.44580000394489616, 0.4135999915888533, 0.4175000067334622, 0.417649993323721, 0.4180000105407089, 0.42070000199601054, 0.42729999404400587, 0.43569999979808927, 0.4126499989069998, 0.4157999937888235, 0.4289499920560047, 0.4168500017840415, 0.4184499994153157, 0.4186000005574897, 0.4152000037720427, 0.4196499940007925, 0.4356499994173646, 0.4212000058032572, 0.4241499991621822, 0.4292499943403527, 0.441550015239045, 0.41604999569244683, 0.4116500058444217, 0.41545000567566603, 0.4144500126130879, 0.5977500113658607, 0.43744999857153744, 0.4647999885492027, 0.41804999636951834, 0.4138999938732013, 0.42460000258870423, 0.42379999649710953, 0.45300001511350274, 0.46675001794938, 0.417649993323721, 0.41939999209716916, 0.41370000690221786, 0.41865000093821436, 0.4273999948054552, 0.4133500042371452, 0.4227500030538067, 0.4218499962007627, 0.41540000529494137, 0.4378000012366101, 0.41710000368766487, 0.41405000956729054, 0.4181499971309677, 0.4199999966658652, 0.4298999992897734, 0.437250011600554, 0.4210500046610832, 0.4316500126151368, 0.41485000110697, 0.4216999950585887, 0.41274999966844916, 0.4183500132057816, 0.4195000074105337, 0.414399997680448, 0.42389999725855887, 0.4587500006891787, 0.4126999992877245, 0.4259999986970797, 0.41295000119134784, 0.42845000280067325, 0.4269499913789332, 0.41725000482983887, 0.41540000529494137, 0.42394999763928354, 0.4135000053793192, 0.43170001299586147, 0.4154499911237508, 0.4200500115985051, 0.4189999890513718, 0.415000002249144, 0.4202499985694885, 0.4132000030949712, 0.4285000031813979, 0.425049991463311, 0.4149000014876947, 0.4174499918008223, 0.4182999982731417, 0.4199999966658652, 0.4391999973449856, 0.42335000762250274, 0.4272499936632812, 0.4167500010225922, 0.4212500061839819, 0.4265000025043264, 0.43929999810643494, 0.42460000258870423, 0.4161500110058114, 0.41619999683462083, 0.4175000067334622, 0.41510000301059335, 0.41969999438151717, 0.4135999915888533, 0.4208000027574599],
  "QPU": "7000000",
  "Qubits": 8,
  "Queue durations [ms]": [0.0, 0.0, 0.0, 0.0, 0.0, 0.0, 0.0, 0.0, 0.0, 0.0, 0.0, 0.0, 0.0, 0.0, 0.0, 0.0, 0.0, 0.0, 0.0, 0.0, 0.0, 0.0, 0.0, 0.0, 0.0, 0.0, 0.0, 0.0, 0.0, 0.0, 0.0, 0.0, 0.0, 0.0, 0.0, 0.0, 0.0, 0.0, 0.0, 0.0, 0.0, 0.0, 0.0, 0.0, 0.0, 0.0, 0.0, 0.0, 0.0, 0.0, 0.0, 0.0, 0.0, 0.0, 0.0, 0.0, 0.0, 0.0, 0.0, 0.0, 0.0, 0.0, 0.0, 0.0, 0.0, 0.0, 0.0, 0.0, 0.0, 0.0, 0.0, 0.0, 0.0, 0.0, 0.0, 0.0, 0.0, 0.0, 0.0, 0.0, 0.0, 0.0, 0.0, 0.0, 0.0, 0.0, 0.0, 0.0, 0.0, 0.0, 0.0, 0.0, 0.0, 0.0, 0.0, 0.0, 0.0, 0.0, 0.0, 0.0, 0.0, 0.0, 0.0, 0.0, 0.0, 0.0, 0.0, 0.0, 0.0, 0.0, 0.0, 0.0, 0.0, 0.0, 0.0, 0.0, 0.0, 0.0, 0.0, 0.0, 0.0, 0.0, 0.0, 0.0, 0.0, 0.0, 0.0, 0.0, 0.0, 0.0, 0.0, 0.0, 0.0, 0.0, 0.0, 0.0, 0.0, 0.0, 0.0, 0.0, 0.0, 0.0, 0.0, 0.0, 0.0, 0.0, 0.0, 0.0, 0.0, 0.0, 0.0, 0.0, 0.0, 0.0, 0.0, 0.0, 0.0, 0.0, 0.0, 0.0, 0.0, 0.0, 0.0, 0.0, 0.0, 0.0, 0.0, 0.0, 0.0, 0.0, 0.0, 0.0, 0.0, 0.0, 0.0, 0.0, 0.0, 0.0, 0.0, 0.0, 0.0, 0.0, 0.0, 0.0, 0.0, 0.0, 0.0, 0.0, 0.0, 0.0, 0.0, 0.0, 0.0, 0.0, 0.0, 0.0, 0.0, 0.0, 0.0, 0.0, 0.0, 0.0, 0.0, 0.0, 0.0, 0.0, 0.0, 0.0, 0.0, 0.0, 0.0, 0.0, 0.0, 0.0, 0.0, 0.0, 0.0, 0.0, 0.0, 0.0, 0.0, 0.0, 0.0, 0.0, 0.0, 0.0, 0.0, 0.0, 0.0, 0.0, 0.0, 0.0, 0.0, 0.0, 0.0, 0.0, 0.0, 0.0, 0.0, 0.0, 0.0, 0.0, 0.0, 0.0, 0.0, 0.0, 0.0, 0.0, 0.0, 0.0, 0.0, 0.0, 0.0, 0.0, 0.0, 0.0, 0.0, 0.0, 0.0, 0.0, 0.0, 0.0, 0.0, 0.0, 0.0, 0.0, 0.0, 0.0, 0.0, 0.0, 0.0, 0.0, 0.0, 0.0, 0.0, 0.0, 0.0, 0.0, 0.0, 0.0, 0.0, 0.0, 0.0, 0.0, 0.0, 0.0, 0.0, 0.0, 0.0, 0.0, 0.0, 0.0, 0.0, 0.0, 0.0, 0.0, 0.0, 0.0, 0.0, 0.0, 0.0, 0.0, 0.0, 0.0, 0.0, 0.0, 0.0, 0.0, 0.0, 0.0, 0.0, 0.0, 0.0, 0.0, 0.0, 0.0, 0.0, 0.0, 0.0, 0.0, 0.0, 0.0, 0.0, 0.0, 0.0, 0.0, 0.0, 0.0, 0.0, 0.0, 0.0, 0.0, 0.0, 0.0, 0.0, 0.0, 0.0, 0.0, 0.0, 0.0, 0.0, 0.0, 0.0, 0.0, 0.0, 0.0, 0.0, 0.0, 0.0, 0.0, 0.0, 0.0, 0.0, 0.0, 0.0, 0.0, 0.0, 0.0, 0.0, 0.0, 0.0, 0.0, 0.0, 0.0, 0.0, 0.0, 0.0, 0.0, 0.0, 0.0, 0.0, 0.0, 0.0, 0.0, 0.0, 0.0, 0.0, 0.0, 0.0, 0.0, 0.0, 0.0, 0.0, 0.0, 0.0, 0.0, 0.0, 0.0, 0.0, 0.0, 0.0, 0.0, 0.0, 0.0, 0.0, 0.0, 0.0, 0.0, 0.0, 0.0, 0.0, 0.0, 0.0, 0.0, 0.0, 0.0, 0.0, 0.0, 0.0, 0.0, 0.0, 0.0, 0.0, 0.0, 0.0, 0.0, 0.0, 0.0, 0.0, 0.0, 0.0, 0.0, 0.0, 0.0, 0.0, 0.0, 0.0, 0.0, 0.0, 0.0, 0.0, 0.0, 0.0, 0.0, 0.0, 0.0, 0.0, 0.0, 0.0, 0.0, 0.0, 0.0, 0.0, 0.0, 0.0, 0.0, 0.0, 0.0, 0.0, 0.0, 0.0, 0.0, 0.0, 0.0, 0.0, 0.0, 0.0, 0.0, 0.0, 0.0, 0.0, 0.0, 0.0, 0.0, 0.0, 0.0, 0.0, 0.0, 0.0, 0.0, 0.0, 0.0, 0.0, 0.0, 0.0, 0.0, 0.0, 0.0, 0.0, 0.0, 0.0, 0.0, 0.0, 0.0, 0.0, 0.0, 0.0, 0.0, 0.0, 0.0, 0.0, 0.0, 0.0, 0.0, 0.0, 0.0, 0.0, 0.0, 0.0, 0.0, 0.0, 0.0, 0.0, 0.0, 0.0, 0.0, 0.0, 0.0, 0.0, 0.0, 0.0, 0.0, 0.0, 0.0, 0.0, 0.0, 0.0, 0.0, 0.0, 0.0, 0.0, 0.0, 0.0, 0.0, 0.0, 0.0, 0.0, 0.0, 0.0, 0.0, 0.0, 0.0, 0.0, 0.0, 0.0, 0.0, 0.0, 0.0, 0.0, 0.0, 0.0, 0.0, 0.0, 0.0, 0.0, 0.0, 0.0, 0.0, 0.0, 0.0, 0.0, 0.0, 0.0, 0.0, 0.0, 0.0, 0.0, 0.0, 0.0, 0.0, 0.0, 0.0, 0.0, 0.0, 0.0, 0.0, 0.0, 0.0, 0.0, 0.0, 0.0, 0.0, 0.0, 0.0, 0.0, 0.0, 0.0, 0.0, 0.0, 0.0, 0.0, 0.0, 0.0, 0.0, 0.0, 0.0, 0.0, 0.0, 0.0, 0.0, 0.0, 0.0, 0.0, 0.0, 0.0, 0.0, 0.0, 0.0, 0.0, 0.0, 0.0, 0.0, 0.0, 0.0, 0.0, 0.0, 0.0, 0.0, 0.0, 0.0, 0.0, 0.0, 0.0, 0.0, 0.0, 0.0, 0.0, 0.0, 0.0, 0.0, 0.0, 0.0, 0.0, 0.0, 0.0, 0.0, 0.0, 0.0, 0.0, 0.0, 0.0, 0.0, 0.0, 0.0, 0.0, 0.0, 0.0, 0.0, 0.0, 0.0, 0.0, 0.0, 0.0, 0.0, 0.0, 0.0, 0.0, 0.0, 0.0, 0.0, 0.0, 0.0, 0.0, 0.0, 0.0, 0.0, 0.0, 0.0, 0.0, 0.0, 0.0, 0.0, 0.0, 0.0, 0.0, 0.0, 0.0, 0.0, 0.0, 0.0, 0.0, 0.0, 0.0, 0.0, 0.0, 0.0, 0.0, 0.0, 0.0, 0.0, 0.0, 0.0, 0.0, 0.0, 0.0, 0.0, 0.0, 0.0, 0.0, 0.0, 0.0, 0.0, 0.0, 0.0, 0.0, 0.0, 0.0, 0.0, 0.0, 0.0, 0.0, 0.0, 0.0, 0.0, 0.0, 0.0, 0.0, 0.0, 0.0, 0.0, 0.0, 0.0, 0.0, 0.0, 0.0, 0.0, 0.0, 0.0, 0.0, 0.0, 0.0, 0.0, 0.0, 0.0, 0.0, 0.0, 0.0, 0.0, 0.0, 0.0, 0.0, 0.0, 0.0, 0.0, 0.0, 0.0, 0.0, 0.0, 0.0, 0.0, 0.0, 0.0, 0.0, 0.0, 0.0, 0.0, 0.0, 0.0, 0.0, 0.0, 0.0, 0.0, 0.0, 0.0, 0.0, 0.0, 0.0, 0.0, 0.0, 0.0, 0.0, 0.0, 0.0, 0.0, 0.0, 0.0, 0.0, 0.0, 0.0, 0.0, 0.0, 0.0, 0.0, 0.0, 0.0, 0.0, 0.0, 0.0, 0.0, 0.0, 0.0, 0.0, 0.0, 0.0, 0.0, 0.0, 0.0, 0.0, 0.0, 0.0, 0.0, 0.0, 0.0, 0.0, 0.0, 0.0, 0.0, 0.0, 0.0, 0.0, 0.0, 0.0, 0.0, 0.0, 0.0, 0.0, 0.0, 0.0, 0.0, 0.0, 0.0],
  "Shots": 4096,
  "Size": 8,
  "Total Algorithm duration [s]": 7.886,
  "Total Classic duration [s]": 7.541133649968775,
  "Total Quantum duration [s]": 0.344866350031225
}
