{
  "Circuit execution durations [ms]": [0.06475000009231735, 0.06270000085351057, 0.06519999988086056, 0.05779999992228113, 0.062000000980333425, 0.06229999962670263, 0.07574999835924245, 0.06959999882383272, 0.06309999844233971],
  "Depth": 2.0,
  "Expectation Value": -0.574400007724762,
  "Optimal Expectation Value": -0.574400007724762,
  "Optimizer durations [ms]": [2.495, 2.212, 2.363, 2.039, 2.161, 2.269, 2.593, 2.401, 2.177],
  "Optimizer iterations": 9,
  "Optimizer params": [0.0],
  "P": 0,
  "Problem": "RH",
  "QJob durations [ms]": [0.06475000009231735, 0.06270000085351057, 0.06519999988086056, 0.05779999992228113, 0.062000000980333425, 0.06229999962670263, 0.07574999835924245, 0.06959999882383272, 0.06309999844233971],
  "QPU": "7000000",
  "Qubits": 1,
  "Queue durations [ms]": [0.0, 0.0, 0.0, 0.0, 0.0, 0.0, 0.0, 0.0, 0.0],
  "Shots": 4096,
  "Size": 1,
  "Total Algorithm duration [s]": 0.02,
  "Total Classic duration [s]": 0.01941680000301858,
  "Total Quantum duration [s]": 0.0005831999969814206
}
