{
  "Circuit execution durations [ms]": [0.06974999996600673, 0.06540000140375923, 0.06639999992330559, 0.05984999916108791, 0.06764999852748588, 0.06874999962747097, 0.06295000093814451, 0.06184999983815942, 0.06215000030351803],
  "Depth": 2.0,
  "Expectation Value": -0.574400007724762,
  "Optimal Expectation Value": -0.574400007724762,
  "Optimizer durations [ms]": [2.38, 2.341, 2.312, 2.206, 2.485, 2.461, 2.234, 2.181, 2.235],
  "Optimizer iterations": 9,
  "Optimizer params": [0.0],
  "P": 0,
  "Problem": "RH",
  "QJob durations [ms]": [0.06974999996600673, 0.06540000140375923, 0.06639999992330559, 0.05984999916108791, 0.06764999852748588, 0.06874999962747097, 0.06295000093814451, 0.06184999983815942, 0.06215000030351803],
  "QPU": "7000000",
  "Qubits": 1,
  "Queue durations [ms]": [0.0, 0.0, 0.0, 0.0, 0.0, 0.0, 0.0, 0.0, 0.0],
  "Shots": 4096,
  "Size": 1,
  "Total Algorithm duration [s]": 0.02,
  "Total Classic duration [s]": 0.019415250000311062,
  "Total Quantum duration [s]": 0.0005847499996889383
}
