{
  "Circuit execution durations [ms]": [0.061400001868605614, 0.06215000030351803, 0.06174999907671008, 0.06455000038840808, 0.06350000148813706, 0.06184999983815942, 0.06310000026132911, 0.06344999928842299],
  "Depth": 2.0,
  "Expectation Value": -0.574400007724762,
  "Optimal Expectation Value": -0.574400007724762,
  "Optimizer durations [ms]": [2.156, 2.182, 2.425, 2.241, 2.181, 2.114, 2.134, 2.203],
  "Optimizer iterations": 8,
  "Optimizer params": [1.0],
  "P": 0,
  "Problem": "RH",
  "QJob durations [ms]": [0.061400001868605614, 0.06215000030351803, 0.06174999907671008, 0.06455000038840808, 0.06350000148813706, 0.06184999983815942, 0.06310000026132911, 0.06344999928842299],
  "QPU": "7000000",
  "Qubits": 1,
  "Queue durations [ms]": [0.0, 0.0, 0.0, 0.0, 0.0, 0.0, 0.0, 0.0],
  "Shots": 4096,
  "Size": 1,
  "Total Algorithm duration [s]": 0.017,
  "Total Classic duration [s]": 0.01649824999748671,
  "Total Quantum duration [s]": 0.0005017500025132904
}
