{
  "Circuit execution durations [ms]": [0.06550000034621917, 0.06424999992304947, 0.06439999924623407, 0.06575000224984251, 0.06269999903452117, 0.07274999916262459, 0.06215000030351803, 0.06304999988060445],
  "Depth": 2.0,
  "Expectation Value": -0.574400007724762,
  "Optimal Expectation Value": -0.574400007724762,
  "Optimizer durations [ms]": [2.273, 2.382, 2.43, 2.31, 2.185, 2.415, 2.198, 2.292],
  "Optimizer iterations": 8,
  "Optimizer params": [1.0],
  "P": 0,
  "Problem": "RH",
  "QJob durations [ms]": [0.06550000034621917, 0.06424999992304947, 0.06439999924623407, 0.06575000224984251, 0.06269999903452117, 0.07274999916262459, 0.06215000030351803, 0.06304999988060445],
  "QPU": "7000000",
  "Qubits": 1,
  "Queue durations [ms]": [0.0, 0.0, 0.0, 0.0, 0.0, 0.0, 0.0, 0.0],
  "Shots": 4096,
  "Size": 1,
  "Total Algorithm duration [s]": 0.018,
  "Total Classic duration [s]": 0.017479449999853385,
  "Total Quantum duration [s]": 0.0005205500001466135
}
