{
  "Circuit execution durations [ms]": [0.07885000013629906, 0.06174999907671008, 0.06035000114934519, 0.05394999971031211, 0.07075000030454248, 0.07905000165919773, 0.06675000076938886, 0.0624999993306119, 0.06145000043034088],
  "Depth": 2.0,
  "Expectation Value": -0.574400007724762,
  "Optimal Expectation Value": -0.574400007724762,
  "Optimizer durations [ms]": [3.4, 2.187, 2.168, 2.036, 5.043, 2.655, 2.455, 2.218, 2.162],
  "Optimizer iterations": 9,
  "Optimizer params": [0.0],
  "P": 0,
  "Problem": "RH",
  "QJob durations [ms]": [0.07885000013629906, 0.06174999907671008, 0.06035000114934519, 0.05394999971031211, 0.07075000030454248, 0.07905000165919773, 0.06675000076938886, 0.0624999993306119, 0.06145000043034088],
  "QPU": "7000000",
  "Qubits": 1,
  "Queue durations [ms]": [0.0, 0.0, 0.0, 0.0, 0.0, 0.0, 0.0, 0.0, 0.0],
  "Shots": 4096,
  "Size": 1,
  "Total Algorithm duration [s]": 0.024,
  "Total Classic duration [s]": 0.023404599997433252,
  "Total Quantum duration [s]": 0.0005954000025667483
}
