{
  "Circuit execution durations [ms]": [0.13184999988880008, 0.10320000001229346, 0.10284999734722078, 0.09950000094249845, 0.09934999980032444, 0.10135000047739595, 0.09984999996959232, 0.10250000195810571, 0.10414999997010455, 0.10039999688160606, 0.10244999793940224, 0.10409999958937988, 0.1550999986648094, 0.0995499976852443, 0.10149999798159115, 0.10074999954667874, 0.10015000225394033, 0.11205000191694126, 0.30515000253217295, 0.1157000006060116, 0.103750000562286, 0.1054499989550095, 0.10770000153570436, 0.10884999937843531, 0.1038999980664812, 0.23839999630581588, 0.10540000221226364, 0.1531000016257167, 0.10489999840501696, 0.10254999870085157, 0.10874999861698598, 0.10520000068936497, 0.306399986584438, 0.11905000428669155, 0.1021999996737577, 0.10784999903989956, 0.11224999980186112, 0.10859999747481197, 0.1054499989550095, 0.10320000001229346, 0.24124999981722794, 0.10194999777013436, 0.13984999895910732, 0.11300000187475234, 0.10494999878574163, 0.10370000018156134, 0.10005000149249099, 0.10074999954667874, 0.10209999891230837, 0.3078500012634322, 0.11249999806750566, 0.10280000060447492, 0.09990000035031699, 0.1611500010767486, 0.10509999992791563, 0.09984999996959232, 0.09905000115395524, 0.09845000022323802, 0.2402499994786922, 0.10140000085812062, 0.10394999844720587, 0.10289999772794545, 0.16194999989238568, 0.10209999891230837, 0.10070000280393288, 0.10015000225394033, 0.10294999810867012, 0.29889999859733507, 0.10309999925084412, 0.10154999836231582, 0.10280000060447492, 0.10154999836231582, 0.15995000285329297, 0.10380000094301067, 0.10895000377786346, 0.10545000259298831, 0.103750000562286, 0.2560500033723656, 0.10424999709357508, 0.10139999722014181, 0.10164999912376516, 0.1863999968918506, 0.10459999975864775, 0.10504999954719096, 0.10879999899771065, 0.24834999567246996, 0.10269999984302558, 0.12090000382158905, 0.12709999646176584, 0.11524999717948958, 0.10720000136643648, 0.10475000090082176, 0.11394999819458462, 0.1009499974315986, 0.10724999810918234, 0.10259999908157624, 0.10404999920865521, 0.1051500003086403, 0.1406499977747444, 0.10580000162008218, 0.10424999709357508, 0.10195000140811317, 0.10939999992842786, 0.10984999607899226, 0.10085000030812807, 0.09994999709306285, 0.1061000039044302, 0.10884999937843531, 0.1003500001388602, 0.09955000132322311, 0.09999999747378752, 0.19055000302614644, 0.1049999991664663, 0.10394999844720587, 0.10109999857377261, 0.10019999899668619, 0.10004999785451218, 0.10969999857479706, 0.10445000225445256, 0.10124999971594661, 0.1003500001388602, 0.1009499974315986, 0.10320000001229346, 0.10504999954719096, 0.13729999773204327, 0.10225000005448237, 0.10309999925084412, 0.1053000014508143, 0.10285000098519959, 0.10349999865866266, 0.10725000174716115, 0.10264999946230091, 0.10045000090030953, 0.10430000111227855, 0.10354999903938733, 0.10400000246590935, 0.11130000348202884, 0.11395000183256343, 0.10420000035082921, 0.11580000136746094, 0.10850000035134144, 0.1099500004784204, 0.10629999815137126, 0.10620000102790073, 0.103599999420112, 0.1033000007737428, 0.15499999790336005, 0.10104999819304794, 0.10465000013937242, 0.10029999975813553, 0.10095000106957741, 0.10910000128205866, 0.10054999802378006, 0.10275000022375025, 0.10060000204248354, 0.10010000187321566, 0.10164999912376516, 0.10015000225394033, 0.3110000070591923, 0.1052999978128355, 0.11150000136694871, 0.14464999912888743, 0.10554999971645884, 0.1085499970940873, 0.10814999768626876, 0.10280000060447492, 0.1033000007737428, 0.10340000153519213, 0.10434999785502441, 0.1054499989550095, 0.10720000136643648, 0.10069999916595407, 0.1003500001388602, 0.1045500030159019, 0.10390000170446001, 0.10560000009718351, 0.10395000208518468, 0.10459999975864775, 0.17270000535063446, 0.10769999789772555, 0.10145000123884529, 0.1007999999274034, 0.10575000123935752, 0.10984999607899226, 0.1021999996737577, 0.1003500001388602, 0.10649999967426993, 0.10439999823574908, 0.10424999709357508, 0.10299999848939478, 0.10285000098519959, 0.10214999929303303, 0.10540000221226364, 0.10104999819304794, 0.10114999895449728, 0.10040000051958486, 0.10069999916595407, 0.10095000106957741, 0.10124999971594661, 0.10295000174664892, 0.1095000006898772, 0.10295000174664892, 0.10304999887011945, 0.10060000204248354, 0.10844999997061677, 0.10055000166175887, 0.10135000047739595, 0.09990000035031699, 0.14474999989033677, 0.10560000009718351, 0.09965000208467245, 0.10295000174664892, 0.13419999959296547, 0.14279999959398992, 0.10254999870085157, 0.1050000028044451, 0.10465000013937242, 0.10295000174664892, 0.11195000115549192, 0.10150000161956996, 0.10290000136592425, 0.10364999980083667, 0.10805000420077704, 0.10425000073155388, 0.10399999882793054, 0.1448499970138073, 0.10715000098571181, 0.10364999980083667, 0.10749999637482688, 0.10865000149351545, 0.10960000145132653, 0.10615000064717606, 0.10414999997010455, 0.10145000123884529, 0.10215000293101184, 0.09979999958886765, 0.10009999823523685, 0.10620000102790073, 0.12494999828049913, 0.10174999988521449, 0.09979999958886765, 0.10010000187321566, 0.10309999925084412, 0.10019999899668619, 0.10124999971594661, 0.10010000187321566, 0.09970000246539712, 0.10024999937741086, 0.10100000145030208, 0.10124999971594661, 0.10074999954667874, 0.13704999582841992, 0.10199999815085903, 0.11230000018258579, 0.10259999908157624, 0.1062500014086254, 0.10364999980083667, 0.10329999713576399, 0.10775000191642903, 0.10124999971594661, 0.10085000030812807, 0.1247000036528334, 0.09959999806596898, 0.11395000183256343, 0.10550000297371298, 0.10295000174664892, 0.10364999980083667, 0.1038999980664812, 0.10399999882793054, 0.1034500019159168, 0.10594999912427738, 0.1007999999274034, 0.10024999937741086, 0.10649999603629112, 0.10280000060447492, 0.10040000051958486, 0.1078000022971537, 0.13759999637841247, 0.10919999840552919, 0.10789999942062423, 0.10404999920865521, 0.10755000039353035, 0.10874999861698598, 0.11059999815188348, 0.1051500003086403, 0.10285000098519959, 0.1005000012810342, 0.10019999899668619, 0.100200002634665, 0.09984999996959232, 0.09979999958886765, 0.10560000009718351, 0.10380000094301067, 0.10195000140811317, 0.1034500019159168, 0.09875000250758603, 0.09990000035031699, 0.10259999908157624, 0.14899999951012433, 0.10009999823523685, 0.1003500001388602, 0.10030000339611433, 0.10029999975813553, 0.1476500001444947, 0.10889999975915998, 0.10414999997010455, 0.10404999920865521, 0.10405000284663402, 0.16334999963873997, 0.15224999515339732, 0.09499999941908754, 0.10685000233934261, 0.10409999958937988, 0.10984999971697107, 0.1065500000549946, 0.24169999596779235, 0.1082499984477181, 0.10394999844720587, 0.109350003185682, 0.10635000217007473, 0.13685000158147886, 0.10289999772794545, 0.10140000085812062, 0.1007999999274034, 0.11169999925186858, 0.10089999705087394, 0.10124999971594661, 0.09990000035031699, 0.10114999895449728, 0.1006500024232082, 0.10114999895449728, 0.10240000119665638, 0.11010000162059441, 0.10835000284714624, 0.1097999993362464, 0.10630000178935006, 0.10775000191642903, 0.10480000128154643, 0.10404999920865521],
  "Depth": 2.0,
  "Expectation Value": -2.7414815425872803,
  "Optimal Expectation Value": -2.7446999549865723,
  "Optimizer durations [ms]": [3.858, 3.163, 3.152, 3.013, 2.98, 3.109, 2.988, 2.913, 3.035, 3.01, 3.081, 3.125, 4.133, 3.011, 2.962, 3.065, 2.998, 3.315, 6.979, 3.556, 4.013, 3.26, 3.282, 3.167, 3.098, 5.888, 9.176, 4.095, 3.01, 2.958, 3.154, 3.084, 6.736, 3.85, 3.033, 4.132, 3.151, 3.153, 3.044, 3.093, 5.812, 3.038, 3.812, 3.398, 4.299, 3.05, 2.956, 2.94, 3.059, 6.859, 16.123, 3.061, 3.002, 4.208, 3.135, 2.978, 2.981, 2.994, 5.445, 3.319, 2.993, 3.699, 4.253, 3.086, 2.977, 2.951, 3.002, 6.41, 14.577, 3.031, 3.459, 2.987, 4.189, 3.068, 3.069, 3.154, 3.053, 6.061, 3.129, 2.984, 2.987, 4.8, 3.065, 3.074, 3.28, 5.769, 20.684, 8.494, 3.515, 3.255, 3.041, 2.983, 3.255, 3.009, 3.102, 3.007, 3.025, 3.071, 3.697, 3.031, 3.111, 2.997, 3.184, 3.177, 2.969, 2.937, 3.02, 3.155, 2.938, 2.948, 2.942, 4.837, 3.08, 3.163, 2.997, 2.968, 2.977, 3.222, 3.027, 3.004, 2.966, 3.56, 2.961, 3.083, 3.89, 3.018, 3.074, 3.083, 2.987, 2.968, 3.164, 3.026, 2.967, 3.152, 3.056, 3.087, 3.222, 3.324, 3.122, 3.369, 3.139, 3.245, 3.086, 3.052, 3.003, 3.017, 4.111, 2.981, 3.023, 2.992, 3.691, 3.174, 2.938, 3.021, 2.952, 2.962, 3.011, 2.951, 7.086, 3.103, 3.207, 3.891, 3.019, 3.116, 3.132, 2.981, 2.915, 2.993, 3.076, 3.127, 3.119, 2.967, 2.96, 2.991, 3.654, 3.044, 3.006, 3.038, 6.785, 3.247, 2.999, 3.048, 3.056, 3.268, 2.999, 2.944, 3.207, 2.981, 3.003, 2.973, 3.064, 2.884, 3.129, 3.065, 2.971, 2.961, 3.039, 2.997, 2.941, 3.028, 3.268, 2.981, 3.076, 2.971, 3.148, 2.963, 3.01, 2.937, 3.982, 3.162, 3.013, 3.224, 3.755, 3.9, 3.003, 3.157, 3.061, 3.008, 3.139, 3.043, 3.01, 2.994, 3.199, 3.016, 2.991, 3.864, 3.113, 3.008, 3.318, 3.154, 3.168, 3.066, 3.111, 3.025, 3.022, 2.982, 2.964, 3.349, 3.448, 3.033, 2.919, 2.967, 3.039, 2.967, 2.964, 2.967, 2.942, 2.962, 2.961, 2.985, 2.988, 3.814, 2.991, 3.216, 3.047, 3.163, 3.013, 2.996, 3.192, 2.999, 2.98, 3.464, 2.97, 3.258, 3.216, 2.99, 3.101, 2.984, 2.966, 3.014, 3.112, 2.972, 2.956, 3.056, 3.054, 2.988, 3.097, 3.816, 3.388, 3.133, 2.983, 3.068, 3.089, 3.186, 3.0, 3.032, 2.972, 2.946, 2.95, 2.935, 3.546, 3.096, 3.089, 3.031, 3.156, 2.946, 2.939, 3.009, 3.949, 2.953, 2.989, 2.976, 2.964, 3.808, 3.263, 3.03, 3.048, 3.07, 4.342, 6.477, 16.994, 10.33, 2.968, 3.153, 3.137, 5.761, 3.235, 2.897, 3.225, 3.019, 3.697, 3.023, 2.985, 2.972, 3.183, 2.972, 2.952, 2.941, 2.952, 2.966, 2.962, 3.14, 3.228, 3.161, 5.376, 3.46, 3.137, 2.995, 3.087],
  "Optimizer iterations": 339,
  "Optimizer params": [0.9969998659328501, 0.4986666206057562, 1.0, 0.5023624277266552, 0.48078871633523546],
  "P": 0,
  "Problem": "RH",
  "QJob durations [ms]": [0.13184999988880008, 0.10320000001229346, 0.10284999734722078, 0.09950000094249845, 0.09934999980032444, 0.10135000047739595, 0.09984999996959232, 0.10250000195810571, 0.10414999997010455, 0.10039999688160606, 0.10244999793940224, 0.10409999958937988, 0.1550999986648094, 0.0995499976852443, 0.10149999798159115, 0.10074999954667874, 0.10015000225394033, 0.11205000191694126, 0.30515000253217295, 0.1157000006060116, 0.103750000562286, 0.1054499989550095, 0.10770000153570436, 0.10884999937843531, 0.1038999980664812, 0.23839999630581588, 0.10540000221226364, 0.1531000016257167, 0.10489999840501696, 0.10254999870085157, 0.10874999861698598, 0.10520000068936497, 0.306399986584438, 0.11905000428669155, 0.1021999996737577, 0.10784999903989956, 0.11224999980186112, 0.10859999747481197, 0.1054499989550095, 0.10320000001229346, 0.24124999981722794, 0.10194999777013436, 0.13984999895910732, 0.11300000187475234, 0.10494999878574163, 0.10370000018156134, 0.10005000149249099, 0.10074999954667874, 0.10209999891230837, 0.3078500012634322, 0.11249999806750566, 0.10280000060447492, 0.09990000035031699, 0.1611500010767486, 0.10509999992791563, 0.09984999996959232, 0.09905000115395524, 0.09845000022323802, 0.2402499994786922, 0.10140000085812062, 0.10394999844720587, 0.10289999772794545, 0.16194999989238568, 0.10209999891230837, 0.10070000280393288, 0.10015000225394033, 0.10294999810867012, 0.29889999859733507, 0.10309999925084412, 0.10154999836231582, 0.10280000060447492, 0.10154999836231582, 0.15995000285329297, 0.10380000094301067, 0.10895000377786346, 0.10545000259298831, 0.103750000562286, 0.2560500033723656, 0.10424999709357508, 0.10139999722014181, 0.10164999912376516, 0.1863999968918506, 0.10459999975864775, 0.10504999954719096, 0.10879999899771065, 0.24834999567246996, 0.10269999984302558, 0.12090000382158905, 0.12709999646176584, 0.11524999717948958, 0.10720000136643648, 0.10475000090082176, 0.11394999819458462, 0.1009499974315986, 0.10724999810918234, 0.10259999908157624, 0.10404999920865521, 0.1051500003086403, 0.1406499977747444, 0.10580000162008218, 0.10424999709357508, 0.10195000140811317, 0.10939999992842786, 0.10984999607899226, 0.10085000030812807, 0.09994999709306285, 0.1061000039044302, 0.10884999937843531, 0.1003500001388602, 0.09955000132322311, 0.09999999747378752, 0.19055000302614644, 0.1049999991664663, 0.10394999844720587, 0.10109999857377261, 0.10019999899668619, 0.10004999785451218, 0.10969999857479706, 0.10445000225445256, 0.10124999971594661, 0.1003500001388602, 0.1009499974315986, 0.10320000001229346, 0.10504999954719096, 0.13729999773204327, 0.10225000005448237, 0.10309999925084412, 0.1053000014508143, 0.10285000098519959, 0.10349999865866266, 0.10725000174716115, 0.10264999946230091, 0.10045000090030953, 0.10430000111227855, 0.10354999903938733, 0.10400000246590935, 0.11130000348202884, 0.11395000183256343, 0.10420000035082921, 0.11580000136746094, 0.10850000035134144, 0.1099500004784204, 0.10629999815137126, 0.10620000102790073, 0.103599999420112, 0.1033000007737428, 0.15499999790336005, 0.10104999819304794, 0.10465000013937242, 0.10029999975813553, 0.10095000106957741, 0.10910000128205866, 0.10054999802378006, 0.10275000022375025, 0.10060000204248354, 0.10010000187321566, 0.10164999912376516, 0.10015000225394033, 0.3110000070591923, 0.1052999978128355, 0.11150000136694871, 0.14464999912888743, 0.10554999971645884, 0.1085499970940873, 0.10814999768626876, 0.10280000060447492, 0.1033000007737428, 0.10340000153519213, 0.10434999785502441, 0.1054499989550095, 0.10720000136643648, 0.10069999916595407, 0.1003500001388602, 0.1045500030159019, 0.10390000170446001, 0.10560000009718351, 0.10395000208518468, 0.10459999975864775, 0.17270000535063446, 0.10769999789772555, 0.10145000123884529, 0.1007999999274034, 0.10575000123935752, 0.10984999607899226, 0.1021999996737577, 0.1003500001388602, 0.10649999967426993, 0.10439999823574908, 0.10424999709357508, 0.10299999848939478, 0.10285000098519959, 0.10214999929303303, 0.10540000221226364, 0.10104999819304794, 0.10114999895449728, 0.10040000051958486, 0.10069999916595407, 0.10095000106957741, 0.10124999971594661, 0.10295000174664892, 0.1095000006898772, 0.10295000174664892, 0.10304999887011945, 0.10060000204248354, 0.10844999997061677, 0.10055000166175887, 0.10135000047739595, 0.09990000035031699, 0.14474999989033677, 0.10560000009718351, 0.09965000208467245, 0.10295000174664892, 0.13419999959296547, 0.14279999959398992, 0.10254999870085157, 0.1050000028044451, 0.10465000013937242, 0.10295000174664892, 0.11195000115549192, 0.10150000161956996, 0.10290000136592425, 0.10364999980083667, 0.10805000420077704, 0.10425000073155388, 0.10399999882793054, 0.1448499970138073, 0.10715000098571181, 0.10364999980083667, 0.10749999637482688, 0.10865000149351545, 0.10960000145132653, 0.10615000064717606, 0.10414999997010455, 0.10145000123884529, 0.10215000293101184, 0.09979999958886765, 0.10009999823523685, 0.10620000102790073, 0.12494999828049913, 0.10174999988521449, 0.09979999958886765, 0.10010000187321566, 0.10309999925084412, 0.10019999899668619, 0.10124999971594661, 0.10010000187321566, 0.09970000246539712, 0.10024999937741086, 0.10100000145030208, 0.10124999971594661, 0.10074999954667874, 0.13704999582841992, 0.10199999815085903, 0.11230000018258579, 0.10259999908157624, 0.1062500014086254, 0.10364999980083667, 0.10329999713576399, 0.10775000191642903, 0.10124999971594661, 0.10085000030812807, 0.1247000036528334, 0.09959999806596898, 0.11395000183256343, 0.10550000297371298, 0.10295000174664892, 0.10364999980083667, 0.1038999980664812, 0.10399999882793054, 0.1034500019159168, 0.10594999912427738, 0.1007999999274034, 0.10024999937741086, 0.10649999603629112, 0.10280000060447492, 0.10040000051958486, 0.1078000022971537, 0.13759999637841247, 0.10919999840552919, 0.10789999942062423, 0.10404999920865521, 0.10755000039353035, 0.10874999861698598, 0.11059999815188348, 0.1051500003086403, 0.10285000098519959, 0.1005000012810342, 0.10019999899668619, 0.100200002634665, 0.09984999996959232, 0.09979999958886765, 0.10560000009718351, 0.10380000094301067, 0.10195000140811317, 0.1034500019159168, 0.09875000250758603, 0.09990000035031699, 0.10259999908157624, 0.14899999951012433, 0.10009999823523685, 0.1003500001388602, 0.10030000339611433, 0.10029999975813553, 0.1476500001444947, 0.10889999975915998, 0.10414999997010455, 0.10404999920865521, 0.10405000284663402, 0.16334999963873997, 0.15224999515339732, 0.09499999941908754, 0.10685000233934261, 0.10409999958937988, 0.10984999971697107, 0.1065500000549946, 0.24169999596779235, 0.1082499984477181, 0.10394999844720587, 0.109350003185682, 0.10635000217007473, 0.13685000158147886, 0.10289999772794545, 0.10140000085812062, 0.1007999999274034, 0.11169999925186858, 0.10089999705087394, 0.10124999971594661, 0.09990000035031699, 0.10114999895449728, 0.1006500024232082, 0.10114999895449728, 0.10240000119665638, 0.11010000162059441, 0.10835000284714624, 0.1097999993362464, 0.10630000178935006, 0.10775000191642903, 0.10480000128154643, 0.10404999920865521],
  "QPU": "7000000",
  "Qubits": 5,
  "Queue durations [ms]": [0.0, 0.0, 0.0, 0.0, 0.0, 0.0, 0.0, 0.0, 0.0, 0.0, 0.0, 0.0, 0.0, 0.0, 0.0, 0.0, 0.0, 0.0, 0.0, 0.0, 0.0, 0.0, 0.0, 0.0, 0.0, 0.0, 0.0, 0.0, 0.0, 0.0, 0.0, 0.0, 0.0, 0.0, 0.0, 0.0, 0.0, 0.0, 0.0, 0.0, 0.0, 0.0, 0.0, 0.0, 0.0, 0.0, 0.0, 0.0, 0.0, 0.0, 0.0, 0.0, 0.0, 0.0, 0.0, 0.0, 0.0, 0.0, 0.0, 0.0, 0.0, 0.0, 0.0, 0.0, 0.0, 0.0, 0.0, 0.0, 0.0, 0.0, 0.0, 0.0, 0.0, 0.0, 0.0, 0.0, 0.0, 0.0, 0.0, 0.0, 0.0, 0.0, 0.0, 0.0, 0.0, 0.0, 0.0, 0.0, 0.0, 0.0, 0.0, 0.0, 0.0, 0.0, 0.0, 0.0, 0.0, 0.0, 0.0, 0.0, 0.0, 0.0, 0.0, 0.0, 0.0, 0.0, 0.0, 0.0, 0.0, 0.0, 0.0, 0.0, 0.0, 0.0, 0.0, 0.0, 0.0, 0.0, 0.0, 0.0, 0.0, 0.0, 0.0, 0.0, 0.0, 0.0, 0.0, 0.0, 0.0, 0.0, 0.0, 0.0, 0.0, 0.0, 0.0, 0.0, 0.0, 0.0, 0.0, 0.0, 0.0, 0.0, 0.0, 0.0, 0.0, 0.0, 0.0, 0.0, 0.0, 0.0, 0.0, 0.0, 0.0, 0.0, 0.0, 0.0, 0.0, 0.0, 0.0, 0.0, 0.0, 0.0, 0.0, 0.0, 0.0, 0.0, 0.0, 0.0, 0.0, 0.0, 0.0, 0.0, 0.0, 0.0, 0.0, 0.0, 0.0, 0.0, 0.0, 0.0, 0.0, 0.0, 0.0, 0.0, 0.0, 0.0, 0.0, 0.0, 0.0, 0.0, 0.0, 0.0, 0.0, 0.0, 0.0, 0.0, 0.0, 0.0, 0.0, 0.0, 0.0, 0.0, 0.0, 0.0, 0.0, 0.0, 0.0, 0.0, 0.0, 0.0, 0.0, 0.0, 0.0, 0.0, 0.0, 0.0, 0.0, 0.0, 0.0, 0.0, 0.0, 0.0, 0.0, 0.0, 0.0, 0.0, 0.0, 0.0, 0.0, 0.0, 0.0, 0.0, 0.0, 0.0, 0.0, 0.0, 0.0, 0.0, 0.0, 0.0, 0.0, 0.0, 0.0, 0.0, 0.0, 0.0, 0.0, 0.0, 0.0, 0.0, 0.0, 0.0, 0.0, 0.0, 0.0, 0.0, 0.0, 0.0, 0.0, 0.0, 0.0, 0.0, 0.0, 0.0, 0.0, 0.0, 0.0, 0.0, 0.0, 0.0, 0.0, 0.0, 0.0, 0.0, 0.0, 0.0, 0.0, 0.0, 0.0, 0.0, 0.0, 0.0, 0.0, 0.0, 0.0, 0.0, 0.0, 0.0, 0.0, 0.0, 0.0, 0.0, 0.0, 0.0, 0.0, 0.0, 0.0, 0.0, 0.0, 0.0, 0.0, 0.0, 0.0, 0.0, 0.0, 0.0, 0.0, 0.0, 0.0, 0.0, 0.0, 0.0, 0.0, 0.0, 0.0, 0.0, 0.0, 0.0, 0.0, 0.0, 0.0, 0.0, 0.0, 0.0, 0.0, 0.0, 0.0, 0.0, 0.0, 0.0, 0.0, 0.0, 0.0, 0.0, 0.0, 0.0, 0.0, 0.0, 0.0],
  "Shots": 4096,
  "Size": 5,
  "Total Algorithm duration [s]": 1.187,
  "Total Classic duration [s]": 1.1486289000114194,
  "Total Quantum duration [s]": 0.03837109998858068
}
