{
  "Circuit execution durations [ms]": [13.500000350177288, 14.500000048428774, 15.49999974668026, 14.500000048428774, 15.500000678002834, 13.500000350177288, 19.000000320374966, 16.99999999254942, 19.499999471008778, 16.99999999254942, 17.49999960884452, 13.500000350177288, 15.999999828636646, 15.999999828636646, 13.500000350177288, 16.499999910593033, 14.000000432133675, 15.49999974668026, 17.500000074505806, 15.000000596046448, 13.499999884516, 13.999999966472387, 13.999999966472387, 18.50000023841858, 19.499999471008778, 15.999999828636646, 14.500000048428774, 16.99999999254942, 13.999999966472387, 16.499999444931746, 14.000000432133675, 13.500000350177288, 22.499999962747097, 13.000000268220901, 15.000000596046448, 13.500000350177288, 13.000000268220901, 16.000000294297934, 13.500000350177288, 20.00000048428774, 15.500000212341547, 15.999999828636646, 15.999999828636646, 16.499999910593033, 15.500000678002834, 13.999999966472387, 13.500000350177288, 15.500000212341547, 18.000000156462193, 15.000000596046448, 18.499999772757292, 24.999999906867743, 13.000000268220901, 15.000000596046448, 14.500000048428774, 15.999999828636646, 13.999999966472387, 15.49999974668026, 15.999999828636646, 15.49999974668026, 13.500000350177288, 14.000000432133675, 14.500000514090061, 13.999999966472387, 13.999999966472387, 15.999999828636646, 19.500000402331352, 13.500000350177288, 15.999999828636646, 16.99999999254942, 13.500000350177288, 13.500000350177288, 15.500000212341547, 13.999999966472387, 13.999999966472387, 15.49999974668026, 16.000000294297934, 13.000000268220901, 13.000000268220901, 25.500000454485416, 20.500000566244125, 16.99999999254942, 15.000000596046448, 25.499999523162842, 18.499999307096004, 16.99999999254942, 15.000000596046448, 14.500000048428774, 17.500000074505806, 16.499999444931746, 13.000000268220901, 18.000000156462193, 15.000000596046448, 17.500000074505806, 14.500000514090061, 14.500000048428774, 14.000000432133675, 14.500000514090061, 15.000000596046448, 31.50000050663948, 22.49999949708581, 14.500000048428774, 12.999999802559614, 16.499999910593033, 15.000000596046448, 20.999999716877937, 13.500000350177288, 14.000000432133675, 14.999999664723873, 16.00000075995922, 14.500000514090061, 18.99999938905239, 16.99999999254942, 15.000000596046448, 13.999999966472387, 18.50000023841858, 18.50000023841858, 14.500000048428774, 15.999999828636646, 16.000000294297934, 13.500000350177288, 14.500000514090061, 17.49999960884452, 13.999999966472387, 16.99999999254942, 15.500000678002834, 14.500000048428774, 15.000000596046448, 16.499999444931746, 15.000000596046448, 13.999999966472387, 14.000000432133675, 18.99999938905239, 15.999999828636646, 14.000000432133675, 14.000000432133675, 13.500000350177288, 20.999999716877937, 14.000000432133675, 15.000000596046448, 15.000000596046448, 13.500000350177288, 15.500000678002834, 14.500000048428774, 14.999999664723873, 15.000000596046448, 15.000000596046448, 15.999999828636646, 20.999999716877937, 20.500000566244125, 15.49999974668026, 18.50000023841858, 25.00000037252903, 15.500000212341547, 15.000000596046448, 16.99999999254942, 26.999999769032, 15.999999828636646, 15.000000596046448, 17.500000074505806, 21.499999798834324, 16.499999910593033, 21.000000182539225, 14.000000432133675, 15.500000678002834, 13.999999966472387, 18.000000156462193, 14.000000432133675, 15.999999828636646, 19.500000402331352, 15.500000212341547, 14.500000514090061, 13.999999966472387, 13.500000350177288, 15.999999828636646, 13.999999966472387, 16.499999910593033, 14.500000514090061, 14.500000514090061, 15.500000212341547, 13.499999884516, 15.49999974668026, 16.499999444931746, 13.999999966472387, 14.500000048428774, 16.999999526888132, 23.499999195337296, 21.99999988079071, 15.500000212341547, 13.999999966472387, 19.499999471008778, 16.00000075995922, 13.499999884516, 20.999999716877937, 18.99999985471368, 16.499999910593033, 15.999999828636646, 13.500000350177288, 13.000000268220901, 13.500000350177288, 21.499999798834324, 15.000000596046448, 16.99999999254942, 13.000000268220901, 15.000000596046448, 15.49999974668026, 13.499999884516, 13.500000350177288, 13.499999884516, 13.500000350177288, 15.000000596046448, 13.500000350177288, 15.999999828636646, 12.500000186264515, 15.49999974668026, 13.500000350177288, 12.500000186264515, 14.500000048428774, 14.500000514090061, 13.999999966472387, 18.000000156462193, 16.499999444931746, 12.500000186264515, 13.999999966472387, 14.500000048428774, 13.499999884516, 13.500000350177288, 13.000000268220901, 13.500000350177288, 19.000000320374966, 16.499999910593033, 15.999999828636646, 18.99999985471368, 13.000000268220901, 18.50000023841858, 13.000000268220901, 13.000000268220901],
  "Depth": 10.5,
  "Expectation Value": -4.369140625,
  "Optimal Expectation Value": -4.75877046585083,
  "Optimizer durations [ms]": [11948.542, 11769.93, 11681.257, 11707.453, 11596.929, 11687.127, 11901.958, 11927.935, 11950.692, 11737.372, 11937.136, 11723.584, 11748.198, 11741.856, 12105.019, 11746.966, 11707.785, 11678.008, 11753.226, 11647.31, 11708.028, 11614.344, 11828.472, 12027.752, 11727.472, 11915.77, 11857.058, 11956.644, 11781.733, 11614.775, 11835.58, 11681.094, 11850.755, 11729.123, 11945.321, 11778.297, 11613.152, 11948.488, 11678.262, 11881.419, 11647.707, 13404.0, 11768.175, 11891.991, 11659.751, 11721.814, 11631.165, 11718.867, 11800.022, 11868.923, 11664.863, 11651.761, 11852.296, 11911.67, 11671.351, 12129.152, 11944.27, 11667.497, 11816.492, 11717.369, 11713.578, 12070.392, 11844.907, 11706.283, 11908.587, 11714.476, 11798.161, 11980.54, 12138.484, 11740.46, 11672.888, 11779.598, 11800.877, 11696.552, 11891.779, 11741.649, 11962.324, 11770.693, 11811.816, 11696.279, 11900.432, 11714.252, 11775.739, 11753.449, 11738.691, 11984.118, 12175.097, 11747.027, 12072.45, 11898.71, 11731.847, 11895.628, 11631.216, 11853.157, 11719.819, 11811.272, 11876.102, 12199.025, 11952.126, 11899.77, 11677.611, 11934.453, 11929.3, 11725.36, 11738.679, 11644.954, 11713.638, 11866.427, 11752.188, 11671.748, 11931.057, 11654.995, 11679.182, 11731.843, 11787.374, 11695.201, 11640.684, 11625.999, 11968.475, 11940.12, 12031.73, 11616.628, 11707.751, 11692.41, 11848.125, 11872.747, 11861.444, 11627.233, 11829.162, 11870.767, 11732.656, 11778.866, 11670.992, 11759.013, 11783.588, 11878.723, 12061.673, 11733.659, 11826.792, 11798.648, 11826.043, 11699.563, 11741.593, 11881.083, 11817.574, 12089.484, 11652.704, 11690.139, 11726.019, 11751.155, 11659.52, 11745.29, 12002.169, 11712.419, 11670.874, 11679.764, 11713.759, 11744.602, 11807.155, 11916.502, 12010.648, 11868.706, 11732.982, 11635.508, 11696.192, 11715.981, 11720.149, 12023.673, 11855.386, 11772.323, 11873.625, 11706.611, 11744.655, 11698.532, 11676.565, 11862.081, 11803.666, 11774.309, 11715.835, 11874.163, 11739.115, 12028.888, 11888.734, 11694.455, 11910.02, 11741.661, 11846.101, 11989.388, 11656.036, 11735.91, 11905.164, 11696.222, 11656.304, 11732.485, 11893.387, 11845.645, 11589.56, 11625.849, 11849.431, 11775.738, 11736.334, 11780.233, 11825.069, 11902.007, 11678.064, 11906.742, 11852.433, 11951.156, 11688.673, 11878.527, 11812.473, 11713.177, 11711.798, 11751.936, 11744.975, 11604.447, 11751.796, 11841.855, 11674.65, 11680.264, 11749.236, 11812.698, 11949.028, 11760.876, 11655.058, 11722.566, 11878.501, 12051.493, 11660.257, 11888.614, 11805.262, 11721.542, 11778.106, 11649.001, 12053.954, 11795.56, 11557.628],
  "Optimizer iterations": 237,
  "Optimizer params": [0.9128327530485443, 0.9942916367452872, 0.6002190506384228, 0.5800790690021111, 0.4916934804203254, 0.7783464314134958, 0.9242542621267027, 0.9734698503627257, 0.9761309743338683, 0.9897336468561977, 0.5500185983073761, 0.09965256360898941, 0.12893281195962042, 0.8378276056025667, 0.8313412097769283, 0.15838196755134143],
  "P": 0,
  "Problem": "IC",
  "QJob durations [ms]": [5926.608562469482, 5834.0325355529785, 5793.097257614136, 5780.519247055054, 5748.300790786743, 5796.599864959717, 5903.408527374268, 5913.607835769653, 5931.097030639648, 5821.293830871582, 5893.338680267334, 5817.925453186035, 5828.43017578125, 5823.134899139404, 5980.475902557373, 5828.542470932007, 5806.6725730896, 5790.844440460205, 5801.199913024902, 5775.813102722168, 5805.083990097046, 5760.791778564453, 5834.959506988525, 5966.120481491089, 5815.869331359863, 5910.744190216064, 5852.164506912231, 5929.30793762207, 5840.820074081421, 5758.086204528809, 5843.432903289795, 5792.325973510742, 5877.1655559539795, 5789.5989418029785, 5924.039363861084, 5841.93754196167, 5758.551597595215, 5897.640228271484, 5787.762641906738, 5893.704414367676, 5776.799201965332, 6627.552509307861, 5838.7110233306885, 5896.772384643555, 5780.179262161255, 5785.292625427246, 5768.648147583008, 5811.939239501953, 5853.105545043945, 5859.962701797485, 5788.842439651489, 5777.472972869873, 5880.717039108276, 5880.638122558594, 5786.351680755615, 6017.925500869751, 5920.797824859619, 5788.222312927246, 5861.990451812744, 5813.316583633423, 5780.983209609985, 5976.370811462402, 5874.565839767456, 5807.806491851807, 5880.091667175293, 5811.653614044189, 5852.100849151611, 5942.387580871582, 5987.908840179443, 5825.19006729126, 5787.371635437012, 5842.9577350616455, 5823.952198028564, 5799.744129180908, 5898.013114929199, 5823.035001754761, 5905.14612197876, 5837.771415710449, 5859.511852264404, 5799.960136413574, 5875.703811645508, 5810.844898223877, 5840.7301902771, 5798.034191131592, 5820.855617523193, 5943.732976913452, 6042.325973510742, 5793.294668197632, 5984.873056411743, 5902.135610580444, 5817.443370819092, 5873.245716094971, 5766.181707382202, 5879.325151443481, 5810.304641723633, 5828.351736068726, 5890.48433303833, 6049.8926639556885, 5926.801681518555, 5873.851776123047, 5791.37396812439, 5919.658660888672, 5916.879415512085, 5788.1340980529785, 5819.6728229522705, 5776.50785446167, 5780.252933502197, 5885.101795196533, 5824.017524719238, 5790.036201477051, 5890.975475311279, 5782.972574234009, 5793.771266937256, 5819.9286460876465, 5818.100929260254, 5799.947261810303, 5771.140575408936, 5765.681028366089, 5910.173654556274, 5924.680709838867, 5967.110157012939, 5758.39376449585, 5779.4928550720215, 5798.976898193359, 5873.102188110352, 5887.59183883667, 5853.293180465698, 5765.007257461548, 5868.7849044799805, 5889.0790939331055, 5816.888332366943, 5843.824863433838, 5788.926601409912, 5803.681373596191, 5842.755317687988, 5894.354820251465, 5983.183145523071, 5790.632724761963, 5865.259408950806, 5850.778818130493, 5866.204261779785, 5774.078845977783, 5821.617126464844, 5895.183563232422, 5861.99951171875, 5972.555637359619, 5779.75058555603, 5795.218706130981, 5814.085245132446, 5798.483610153198, 5784.04974937439, 5823.753833770752, 5951.474666595459, 5783.290863037109, 5787.8098487854, 5791.2702560424805, 5807.584285736084, 5796.760082244873, 5856.068134307861, 5907.837629318237, 5930.558919906616, 5888.351678848267, 5818.857192993164, 5769.701957702637, 5775.2790451049805, 5810.976028442383, 5811.324119567871, 5962.330102920532, 5850.470542907715, 5837.852478027344, 5889.220714569092, 5805.033922195435, 5797.952651977539, 5799.680709838867, 5791.160106658936, 5881.989002227783, 5825.358629226685, 5841.9294357299805, 5808.899402618408, 5887.731552124023, 5791.023015975952, 5968.348503112793, 5896.527528762817, 5798.213243484497, 5908.919811248779, 5821.2902545928955, 5876.047849655151, 5918.994426727295, 5781.056880950928, 5818.099021911621, 5902.544260025024, 5772.546768188477, 5781.192302703857, 5817.441701889038, 5899.298191070557, 5844.966888427734, 5744.64750289917, 5764.137744903564, 5873.696327209473, 5809.120655059814, 5824.792146682739, 5840.3160572052, 5862.774133682251, 5873.112201690674, 5794.719696044922, 5908.474683761597, 5878.69119644165, 5901.452302932739, 5794.862270355225, 5889.086723327637, 5859.391212463379, 5810.100078582764, 5807.894229888916, 5829.647541046143, 5796.208381652832, 5757.94243812561, 5826.948642730713, 5869.912624359131, 5761.155843734741, 5790.981292724609, 5825.699329376221, 5855.770826339722, 5896.6522216796875, 5831.713438034058, 5777.624607086182, 5814.0974044799805, 5866.21356010437, 5980.5426597595215, 5778.962135314941, 5895.047426223755, 5832.780361175537, 5813.340663909912, 5842.634677886963, 5777.793169021606, 5950.564861297607, 5847.455739974976, 5730.42631149292],
  "QPU": "10000001",
  "Qubits": 4,
  "Queue durations [ms]": [0.0, 0.0, 0.0, 0.0, 0.0, 0.0, 0.0, 0.0, 0.0, 0.0, 0.0, 0.0, 0.0, 0.0, 0.0, 0.0, 0.0, 0.0, 0.0, 0.0, 0.0, 0.0, 0.0, 0.0, 0.0, 0.0, 0.0, 0.0, 0.0, 0.0, 0.0, 0.0, 0.0, 0.0, 0.0, 0.0, 0.0, 0.0, 0.0, 0.0, 0.0, 0.0, 0.0, 0.0, 0.0, 0.0, 0.0, 0.0, 0.0, 0.0, 0.0, 0.0, 0.0, 0.0, 0.0, 0.0, 0.0, 0.0, 0.0, 0.0, 0.0, 0.0, 0.0, 0.0, 0.0, 0.0, 0.0, 0.0, 0.0, 0.0, 0.0, 0.0, 0.0, 0.0, 0.0, 0.0, 0.0, 0.0, 0.0, 0.0, 0.0, 0.0, 0.0, 0.0, 0.0, 0.0, 0.0, 0.0, 0.0, 0.0, 0.0, 0.0, 0.0, 0.0, 0.0, 0.0, 0.0, 0.0, 0.0, 0.0, 0.0, 0.0, 0.0, 0.0, 0.0, 0.0, 0.0, 0.0, 0.0, 0.0, 0.0, 0.0, 0.0, 0.0, 0.0, 0.0, 0.0, 0.0, 0.0, 0.0, 0.0, 0.0, 0.0, 0.0, 0.0, 0.0, 0.0, 0.0, 0.0, 0.0, 0.0, 0.0, 0.0, 0.0, 0.0, 0.0, 0.0, 0.0, 0.0, 0.0, 0.0, 0.0, 0.0, 0.0, 0.0, 0.0, 0.0, 0.0, 0.0, 0.0, 0.0, 0.0, 0.0, 0.0, 0.0, 0.0, 0.0, 0.0, 0.0, 0.0, 0.0, 0.0, 0.0, 0.0, 0.0, 0.0, 0.0, 0.0, 0.0, 0.0, 0.0, 0.0, 0.0, 0.0, 0.0, 0.0, 0.0, 0.0, 0.0, 0.0, 0.0, 0.0, 0.0, 0.0, 0.0, 0.0, 0.0, 0.0, 0.0, 0.0, 0.0, 0.0, 0.0, 0.0, 0.0, 0.0, 0.0, 0.0, 0.0, 0.0, 0.0, 0.0, 0.0, 0.0, 0.0, 0.0, 0.0, 0.0, 0.0, 0.0, 0.0, 0.0, 0.0, 0.0, 0.0, 0.0, 0.0, 0.0, 0.0, 0.0, 0.0, 0.0, 0.0, 0.0, 0.0, 0.0, 0.0, 0.0, 0.0, 0.0, 0.0, 0.0, 0.0, 0.0, 0.0, 0.0, 0.0],
  "Shots": 4096,
  "Size": 4,
  "Total Algorithm duration [s]": 2796.938,
  "Total Classic duration [s]": 1411.3750205402375,
  "Total Quantum duration [s]": 1385.5629794597626
}
