{
  "Circuit execution durations [ms]": [2.7322, 2.6375, 2.6273, 2.6963, 2.6074, 2.9524, 2.897, 2.7528, 2.6953, 3.0986, 2.9345, 2.626, 2.6036, 2.6654, 2.6465, 2.7146000000000003, 2.6687, 2.6293, 2.7038, 2.6725, 2.6477, 2.6663, 2.6209, 2.6256999999999997, 2.6099, 2.6351999999999998, 2.6535, 2.6580000000000004, 2.6363, 2.6518, 2.6423, 2.6203, 2.6235999999999997, 2.6052, 2.6442, 2.7534, 2.6825, 2.6843000000000004, 2.6249, 2.6452, 2.6370999999999998, 2.6543, 2.6286, 2.6416, 2.6319, 2.6462999999999997, 2.6431, 2.6235, 2.6709, 2.6107, 2.6167, 2.6519999999999997, 2.6757, 2.6048, 2.648, 2.6769, 2.6865, 2.6148000000000002, 2.6408, 2.6500999999999997, 2.673, 2.6591, 2.67, 2.6721000000000004, 2.6331, 2.6393, 2.6181, 2.6591, 2.6819, 2.6254, 2.6176, 2.6687999999999996, 2.8996999999999997, 2.5934, 2.7805, 2.653, 2.6725, 2.6492999999999998, 2.689, 2.6541, 2.6500999999999997, 2.663, 2.6458, 2.64, 2.6645000000000003, 2.6562, 2.6367000000000003, 2.6406, 2.6848, 2.6336, 2.6426000000000003, 2.6241, 2.6515000000000004, 2.6348000000000003, 2.6325, 2.6691000000000003, 2.6473999999999998, 2.65, 2.6138, 2.6518, 2.6187, 2.639, 2.6429, 2.6936999999999998, 2.6423, 2.6459, 2.76, 2.6663, 2.676, 2.6404, 2.5553, 2.649, 2.6891, 2.9589],
  "Depth": 80.0,
  "Expectation Value": -1.5344997644424438,
  "Optimal Expectation Value": -3.0,
  "Optimizer durations [ms]": [27.628, 27.16, 26.696, 27.549, 34.794, 29.764, 29.41, 28.301, 27.479, 37.075, 29.631, 26.864, 26.886, 27.086, 27.113, 27.688, 26.995, 26.949, 27.718, 27.173, 27.05, 27.209, 26.641, 26.997, 26.442, 26.987, 27.043, 27.258, 26.881, 26.727, 27.321, 26.413, 26.994, 26.641, 26.993, 28.115, 36.666, 27.411, 27.105, 27.023, 27.514, 27.041, 26.799, 26.946, 26.952, 26.911, 27.15, 26.626, 27.419, 26.788, 26.744, 26.958, 27.228, 26.852, 26.926, 27.457, 27.058, 26.704, 27.259, 26.75, 27.423, 27.648, 27.309, 26.953, 27.063, 26.669, 26.902, 27.168, 27.228, 26.893, 26.478, 27.352, 29.252, 36.129, 28.388, 27.135, 27.262, 26.942, 27.227, 27.196, 27.04, 27.391, 26.655, 27.075, 27.189, 27.025, 26.974, 26.603, 27.579, 27.055, 26.814, 26.814, 27.051, 26.935, 26.782, 27.171, 26.84, 27.112, 26.71, 26.886, 26.902, 27.004, 27.04, 27.337, 26.994, 26.966, 28.12, 27.181, 27.365, 28.571, 35.574, 26.966, 29.54, 30.124],
  "Optimizer iterations": 114,
  "Optimizer params": [0.5735468964238463, 0.7819693466613432, 0.07297289022986117, 0.7683830837112353, 0.7009776924668235, 0.636167699604615],
  "P": 3,
  "Problem": "TSP",
  "QJob durations [ms]": [2.7322, 2.6375, 2.6273, 2.6963, 2.6074, 2.9524, 2.897, 2.7528, 2.6953, 3.0986, 2.9345, 2.626, 2.6036, 2.6654, 2.6465, 2.7146000000000003, 2.6687, 2.6293, 2.7038, 2.6725, 2.6477, 2.6663, 2.6209, 2.6256999999999997, 2.6099, 2.6351999999999998, 2.6535, 2.6580000000000004, 2.6363, 2.6518, 2.6423, 2.6203, 2.6235999999999997, 2.6052, 2.6442, 2.7534, 2.6825, 2.6843000000000004, 2.6249, 2.6452, 2.6370999999999998, 2.6543, 2.6286, 2.6416, 2.6319, 2.6462999999999997, 2.6431, 2.6235, 2.6709, 2.6107, 2.6167, 2.6519999999999997, 2.6757, 2.6048, 2.648, 2.6769, 2.6865, 2.6148000000000002, 2.6408, 2.6500999999999997, 2.673, 2.6591, 2.67, 2.6721000000000004, 2.6331, 2.6393, 2.6181, 2.6591, 2.6819, 2.6254, 2.6176, 2.6687999999999996, 2.8996999999999997, 2.5934, 2.7805, 2.653, 2.6725, 2.6492999999999998, 2.689, 2.6541, 2.6500999999999997, 2.663, 2.6458, 2.64, 2.6645000000000003, 2.6562, 2.6367000000000003, 2.6406, 2.6848, 2.6336, 2.6426000000000003, 2.6241, 2.6515000000000004, 2.6348000000000003, 2.6325, 2.6691000000000003, 2.6473999999999998, 2.65, 2.6138, 2.6518, 2.6187, 2.639, 2.6429, 2.6936999999999998, 2.6423, 2.6459, 2.76, 2.6663, 2.676, 2.6404, 2.5553, 2.649, 2.6891, 2.9589],
  "QPU": "7000000",
  "Qubits": 9,
  "Queue durations [ms]": [0.0, 0.0, 0.0, 0.0, 0.0, 0.0, 0.0, 0.0, 0.0, 0.0, 0.0, 0.0, 0.0, 0.0, 0.0, 0.0, 0.0, 0.0, 0.0, 0.0, 0.0, 0.0, 0.0, 0.0, 0.0, 0.0, 0.0, 0.0, 0.0, 0.0, 0.0, 0.0, 0.0, 0.0, 0.0, 0.0, 0.0, 0.0, 0.0, 0.0, 0.0, 0.0, 0.0, 0.0, 0.0, 0.0, 0.0, 0.0, 0.0, 0.0, 0.0, 0.0, 0.0, 0.0, 0.0, 0.0, 0.0, 0.0, 0.0, 0.0, 0.0, 0.0, 0.0, 0.0, 0.0, 0.0, 0.0, 0.0, 0.0, 0.0, 0.0, 0.0, 0.0, 0.0, 0.0, 0.0, 0.0, 0.0, 0.0, 0.0, 0.0, 0.0, 0.0, 0.0, 0.0, 0.0, 0.0, 0.0, 0.0, 0.0, 0.0, 0.0, 0.0, 0.0, 0.0, 0.0, 0.0, 0.0, 0.0, 0.0, 0.0, 0.0, 0.0, 0.0, 0.0, 0.0, 0.0, 0.0, 0.0, 0.0, 0.0, 0.0, 0.0, 0.0],
  "Shots": 4096,
  "Size": 3,
  "Total Algorithm duration [s]": 3.15,
  "Total Classic duration [s]": 2.8458334,
  "Total Quantum duration [s]": 0.3041665999999999
}
