{
  "Circuit execution durations [ms]": [2.7783, 2.7271, 2.6837, 2.6524, 2.6616999999999997, 2.6468, 2.6605000000000003, 2.6184, 2.6172, 2.6587, 2.7072, 2.6134, 2.6519, 2.5968, 2.6391, 2.6414, 2.678, 2.6631, 2.6077, 2.7182999999999997, 2.6466, 2.6957999999999998, 2.6658, 2.6311, 2.679, 2.6243, 2.6681, 2.7366, 2.6676, 2.6769, 2.6356, 2.63, 2.6297, 2.6512, 2.6483000000000003, 2.6203, 2.6307, 2.6723, 2.6334, 2.6256, 2.6459, 2.6294, 2.6378999999999997, 2.6327, 2.6429, 2.6866, 2.6243999999999996, 2.6168, 2.6406, 2.6475999999999997, 2.6666, 2.6224, 2.6466, 2.6393, 2.6583, 2.6151, 2.6435999999999997, 2.6542, 2.6266000000000003, 2.6281999999999996, 2.6786000000000003, 2.6394, 2.601, 2.7220999999999997, 2.748, 2.6894, 2.6329000000000002, 2.7798, 2.6083, 2.6300999999999997, 2.6414, 2.6449, 2.7155, 2.7195, 2.6424, 2.6567000000000003, 2.689, 2.661, 2.6368, 2.6955999999999998, 2.6458, 2.6486, 2.7123, 2.6513, 2.6353, 2.7147, 2.6135, 2.6265, 2.7036000000000002, 2.6384, 2.6151, 2.6961, 2.6586000000000003, 2.6271, 2.6748000000000003, 2.6029, 2.6470000000000002, 2.6737, 2.6832000000000003, 2.6581, 2.7006, 2.6235, 2.5796, 2.7123999999999997, 2.6472, 2.5486, 2.6369000000000002, 2.6336, 2.641, 2.855, 2.9440999999999997, 2.6313, 2.6232, 2.6356, 2.7063, 2.6262, 2.6806, 2.7220999999999997],
  "Depth": 80.0,
  "Expectation Value": -6.309606075286865,
  "Optimal Expectation Value": -3.0,
  "Optimizer durations [ms]": [28.349, 37.189, 27.437, 27.132, 27.517, 26.967, 27.558, 26.651, 26.613, 27.16, 27.477, 26.895, 26.903, 26.648, 27.011, 26.639, 27.607, 27.161, 26.485, 27.768, 26.779, 27.657, 27.769, 26.75, 27.44, 26.702, 27.302, 37.558, 34.354, 27.394, 26.986, 26.733, 26.934, 26.947, 27.117, 26.797, 26.503, 27.415, 26.829, 28.937, 26.879, 26.997, 26.735, 26.897, 27.022, 27.419, 26.465, 26.894, 27.002, 26.828, 27.402, 26.759, 26.761, 27.103, 26.825, 27.037, 27.067, 27.119, 26.458, 26.851, 27.36, 27.194, 26.218, 27.859, 37.514, 27.247, 27.73, 28.091, 26.673, 26.971, 27.091, 27.043, 27.629, 27.848, 26.842, 26.999, 27.37, 27.121, 27.043, 27.499, 26.775, 27.101, 27.73, 26.994, 26.993, 27.654, 26.819, 26.729, 27.562, 26.641, 26.833, 27.635, 27.226, 26.621, 27.515, 26.554, 26.851, 27.046, 27.51, 27.106, 27.698, 26.559, 26.28, 27.903, 26.907, 35.704, 27.029, 26.887, 27.204, 29.106, 30.074, 36.17, 31.597, 26.768, 27.873, 26.666, 27.219, 28.127],
  "Optimizer iterations": 118,
  "Optimizer params": [0.20871722636753098, 0.5099449216453361, 0.2657103974211539, 0.8803245933072832, 0.9420160322171657, 0.19887787585968808],
  "P": 3,
  "Problem": "TSP",
  "QJob durations [ms]": [2.7783, 2.7271, 2.6837, 2.6524, 2.6616999999999997, 2.6468, 2.6605000000000003, 2.6184, 2.6172, 2.6587, 2.7072, 2.6134, 2.6519, 2.5968, 2.6391, 2.6414, 2.678, 2.6631, 2.6077, 2.7182999999999997, 2.6466, 2.6957999999999998, 2.6658, 2.6311, 2.679, 2.6243, 2.6681, 2.7366, 2.6676, 2.6769, 2.6356, 2.63, 2.6297, 2.6512, 2.6483000000000003, 2.6203, 2.6307, 2.6723, 2.6334, 2.6256, 2.6459, 2.6294, 2.6378999999999997, 2.6327, 2.6429, 2.6866, 2.6243999999999996, 2.6168, 2.6406, 2.6475999999999997, 2.6666, 2.6224, 2.6466, 2.6393, 2.6583, 2.6151, 2.6435999999999997, 2.6542, 2.6266000000000003, 2.6281999999999996, 2.6786000000000003, 2.6394, 2.601, 2.7220999999999997, 2.748, 2.6894, 2.6329000000000002, 2.7798, 2.6083, 2.6300999999999997, 2.6414, 2.6449, 2.7155, 2.7195, 2.6424, 2.6567000000000003, 2.689, 2.661, 2.6368, 2.6955999999999998, 2.6458, 2.6486, 2.7123, 2.6513, 2.6353, 2.7147, 2.6135, 2.6265, 2.7036000000000002, 2.6384, 2.6151, 2.6961, 2.6586000000000003, 2.6271, 2.6748000000000003, 2.6029, 2.6470000000000002, 2.6737, 2.6832000000000003, 2.6581, 2.7006, 2.6235, 2.5796, 2.7123999999999997, 2.6472, 2.5486, 2.6369000000000002, 2.6336, 2.641, 2.855, 2.9440999999999997, 2.6313, 2.6232, 2.6356, 2.7063, 2.6262, 2.6806, 2.7220999999999997],
  "QPU": "7000000",
  "Qubits": 9,
  "Queue durations [ms]": [0.0, 0.0, 0.0, 0.0, 0.0, 0.0, 0.0, 0.0, 0.0, 0.0, 0.0, 0.0, 0.0, 0.0, 0.0, 0.0, 0.0, 0.0, 0.0, 0.0, 0.0, 0.0, 0.0, 0.0, 0.0, 0.0, 0.0, 0.0, 0.0, 0.0, 0.0, 0.0, 0.0, 0.0, 0.0, 0.0, 0.0, 0.0, 0.0, 0.0, 0.0, 0.0, 0.0, 0.0, 0.0, 0.0, 0.0, 0.0, 0.0, 0.0, 0.0, 0.0, 0.0, 0.0, 0.0, 0.0, 0.0, 0.0, 0.0, 0.0, 0.0, 0.0, 0.0, 0.0, 0.0, 0.0, 0.0, 0.0, 0.0, 0.0, 0.0, 0.0, 0.0, 0.0, 0.0, 0.0, 0.0, 0.0, 0.0, 0.0, 0.0, 0.0, 0.0, 0.0, 0.0, 0.0, 0.0, 0.0, 0.0, 0.0, 0.0, 0.0, 0.0, 0.0, 0.0, 0.0, 0.0, 0.0, 0.0, 0.0, 0.0, 0.0, 0.0, 0.0, 0.0, 0.0, 0.0, 0.0, 0.0, 0.0, 0.0, 0.0, 0.0, 0.0, 0.0, 0.0, 0.0, 0.0],
  "Shots": 4096,
  "Size": 3,
  "Total Algorithm duration [s]": 3.265,
  "Total Classic duration [s]": 2.9511969000000002,
  "Total Quantum duration [s]": 0.3138031000000001
}
