{
  "Circuit execution durations [ms]": [7.895231246948242, 8.031845092773438, 7.720947265625, 7.826566696166992, 8.050203323364258, 8.078813552856445, 7.666110992431641, 7.92694091796875, 7.987022399902344, 7.783174514770508, 8.076906204223633, 7.885456085205078, 7.794380187988281, 8.112907409667969, 8.067607879638672, 7.7762603759765625, 7.971048355102539, 7.637500762939453, 7.77125358581543, 7.808208465576172, 7.681608200073242, 7.798910140991211, 7.977008819580078, 8.08572769165039, 7.504701614379883, 7.525444030761719, 7.848024368286133, 8.06117057800293, 7.841348648071289, 7.773160934448242, 8.013010025024414, 7.837533950805664, 7.845640182495117, 8.02469253540039, 7.99250602722168, 8.045434951782227, 7.834196090698242, 7.800579071044922, 7.869482040405273, 7.947683334350586, 7.874727249145508, 8.038759231567383, 7.749319076538086, 8.072376251220703, 8.008480072021484, 7.85064697265625, 7.927179336547852, 7.784128189086914, 7.765531539916992, 8.055686950683594, 7.89642333984375, 7.714986801147461, 8.028507232666016, 7.697582244873047, 7.880210876464844, 8.090734481811523, 7.897138595581055, 7.783651351928711, 7.88426399230957, 7.655143737792969, 7.777214050292969, 8.040428161621094, 7.942676544189453, 7.861137390136719, 7.80797004699707, 7.8449249267578125, 7.700920104980469, 7.946968078613281, 8.12530517578125, 7.652521133422852, 8.021354675292969, 7.997989654541016, 7.982969284057617, 8.004903793334961, 7.997751235961914, 7.943153381347656, 7.997989654541016, 8.063793182373047, 7.517576217651367, 8.045196533203125],
  "Depth": 82.0,
  "Expectation Value": -1.0,
  "Optimal Expectation Value": -1.0,
  "Optimizer durations [ms]": [145.25, 144.434, 144.901, 146.388, 229.947, 145.198, 147.156, 145.105, 144.899, 145.907, 231.872, 149.99, 146.519, 147.57, 146.15, 229.217, 148.013, 146.474, 147.402, 147.986, 146.494, 233.372, 146.727, 145.729, 145.907, 147.42, 228.485, 144.876, 147.305, 144.65, 145.817, 228.136, 144.78, 147.197, 145.726, 146.416, 146.219, 227.782, 144.278, 144.929, 145.152, 146.523, 226.488, 145.313, 145.324, 146.406, 144.891, 144.926, 229.691, 144.788, 145.07, 146.252, 145.664, 227.946, 144.829, 145.737, 145.675, 145.805, 227.511, 145.492, 146.407, 145.12, 145.365, 146.531, 228.989, 145.497, 146.589, 144.883, 145.089, 146.037, 228.199, 145.029, 145.691, 144.881, 145.381, 226.229, 144.721, 145.434, 144.559, 146.42],
  "Optimizer iterations": 80,
  "Optimizer params": [0.988568256626802, 0.7650741794629435, 0.2115060332093465, 0.032329838350807716, 0.07203348074833808, 0.9071245470833198],
  "P": 3,
  "Problem": "MIS",
  "QJob durations [ms]": [95.94845771789551, 95.47805786132813, 95.48473358154297, 96.81248664855957, 179.9018383026123, 96.00949287414551, 97.52893447875977, 95.88050842285156, 95.6270694732666, 96.4972972869873, 97.95737266540527, 97.50175476074219, 96.29011154174805, 96.72951698303223, 96.49491310119629, 179.6412467956543, 96.62890434265137, 96.36306762695313, 97.06830978393555, 98.01769256591797, 96.81224822998047, 96.53186798095703, 96.74310684204102, 96.27223014831543, 96.29487991333008, 97.4433422088623, 96.07720375061035, 95.85714340209961, 97.1536636352539, 95.48807144165039, 96.35019302368164, 179.13174629211426, 95.69716453552246, 97.01848030090332, 96.29154205322266, 96.48442268371582, 96.39787673950195, 95.98350524902344, 95.15857696533203, 95.73149681091309, 95.68214416503906, 97.12338447570801, 177.07180976867676, 95.92080116271973, 96.0395336151123, 96.90523147583008, 95.30830383300781, 95.47686576843262, 96.63534164428711, 95.6876277923584, 95.69239616394043, 96.77004814147949, 96.17042541503906, 96.6804027557373, 95.75986862182617, 96.07505798339844, 96.36449813842773, 96.45438194274902, 178.40266227722168, 95.96443176269531, 95.9019660949707, 95.81875801086426, 96.15492820739746, 97.18918800354004, 95.51715850830078, 96.05550765991211, 96.93193435668945, 95.52812576293945, 95.89910507202148, 96.45199775695801, 96.29368782043457, 95.76845169067383, 96.48942947387695, 95.8869457244873, 95.53289413452148, 96.4348316192627, 95.76249122619629, 96.14062309265137, 95.0779914855957, 95.63326835632324],
  "QPU": "3010008",
  "Qubits": 4,
  "Queue durations [ms]": [0.0, 0.0, 0.0, 0.0, 0.0, 0.0, 0.0, 0.0, 0.0, 0.0, 0.0, 0.0, 0.0, 0.0, 0.0, 0.0, 0.0, 0.0, 0.0, 0.0, 0.0, 0.0, 0.0, 0.0, 0.0, 0.0, 0.0, 0.0, 0.0, 0.0, 0.0, 0.0, 0.0, 0.0, 0.0, 0.0, 0.0, 0.0, 0.0, 0.0, 0.0, 0.0, 0.0, 0.0, 0.0, 0.0, 0.0, 0.0, 0.0, 0.0, 0.0, 0.0, 0.0, 0.0, 0.0, 0.0, 0.0, 0.0, 0.0, 0.0, 0.0, 0.0, 0.0, 0.0, 0.0, 0.0, 0.0, 0.0, 0.0, 0.0, 0.0, 0.0, 0.0, 0.0, 0.0, 0.0, 0.0, 0.0, 0.0, 0.0],
  "Shots": 4096,
  "Size": 3,
  "Total Algorithm duration [s]": 12.829,
  "Total Classic duration [s]": 4.71556497001648,
  "Total Quantum duration [s]": 8.11343502998352
}
