{
  "Depth": 384.0,
  "Job durations [ms]": [270.0, 176.0, 276.0, 281.0, 358.0, 193.0, 237.0, 263.0, 276.0, 219.0, 264.0, 166.0, 289.0, 341.0, 260.0, 275.0, 267.0, 205.0, 232.0, 296.0, 258.0, 220.0, 242.0, 306.0, 265.0, 290.0, 267.0, 256.0, 283.0, 297.0, 348.0, 241.0, 274.0, 268.0, 304.0, 250.0, 253.0, 207.0, 234.0, 268.0, 248.0, 260.0, 285.0, 318.0, 279.0, 302.0, 272.0, 314.0, 247.0, 200.0, 247.0, 170.0, 244.0, 255.0, 311.0, 279.0, 213.0, 298.0, 321.0, 249.0, 280.0, 211.0, 234.0, 348.0, 301.0, 290.0, 257.0, 275.0, 367.0, 299.0, 250.0, 250.0, 275.0, 242.0, 365.0, 294.0, 222.0, 266.0, 287.0, 322.0, 276.0, 203.0, 260.0, 311.0, 316.0, 276.0, 195.0, 268.0, 250.0, 283.0, 185.0, 255.0, 188.0, 289.0, 332.0, 273.0, 272.0, 171.0, 270.0, 249.0, 266.0, 242.0, 319.0, 325.0, 231.0, 293.0, 249.0, 329.0, 294.0, 189.0, 258.0, 242.0, 243.0, 308.0, 267.0, 260.0, 193.0, 330.0, 334.0, 261.0, 297.0, 259.0, 313.0, 226.0, 277.0, 316.0, 214.0, 264.0, 295.0, 271.0, 252.0, 237.0, 318.0],
  "Optimizer durations [ms]": [6187.163, 5781.384, 5835.381, 5822.699, 5989.996, 5896.75, 5954.34, 6026.194, 6158.8, 6005.848, 6047.987, 5979.692, 6116.583, 6169.993, 5986.956, 6270.836, 6023.715, 6144.454, 5969.269, 6089.173, 6744.397, 6021.414, 6003.107, 5994.41, 5994.251, 6090.824, 6022.001, 6061.228, 6268.963, 6167.669, 6241.634, 5963.132, 6122.352, 5983.287, 6091.714, 6185.63, 5969.286, 6011.935, 6014.1, 6032.453, 6007.585, 6038.344, 6105.128, 6021.014, 6084.213, 5997.285, 6140.387, 5938.835, 6169.682, 6085.866, 6018.365, 6108.269, 6070.172, 5973.622, 6090.349, 6027.976, 6189.4, 6011.311, 6047.078, 6346.835, 5989.202, 6127.242, 6333.325, 5994.038, 6061.883, 6254.136, 6205.471, 6006.653, 6254.421, 6247.032, 6015.468, 6224.022, 6174.923, 6149.477, 6004.5, 5986.151, 6110.933, 5984.944, 6025.619, 6088.396, 6085.951, 5996.939, 6025.29, 6088.439, 6052.193, 6071.465, 6038.327, 6053.573, 6052.734, 6275.022, 6063.57, 6214.599, 6330.767, 6056.723, 6117.749, 6031.222, 5977.387, 6082.385, 6013.556, 6184.335, 6070.506, 5975.947, 6075.354, 5983.143, 6167.214, 6126.438, 6056.075, 6082.685, 5947.154, 6346.646, 6000.177, 6035.738, 6033.116, 6257.215, 6208.538, 6070.962, 5960.121, 6025.771, 6248.65, 6058.579, 5979.95, 6080.592, 6060.695, 6080.149, 6158.28, 6003.828, 6057.581, 6008.689, 6026.477, 6062.786, 6059.373, 6049.287, 6027.435],
  "Optimizer iterations": 133,
  "Qubits": 10,
  "Total Algorithm duration [s]": 808.348,
  "Total Classic duration [s]": 772.832,
  "Total Quantum duration [s]": 35.516,
  "Expectation Value": -3.73779296875,
  "Optimal Expectation Value": -4.0,
  "Optimizer params": [0.5422703638532701, 0.4468545419688635, 0.30195746101457915, 0.609405604071969, 0.08240888359462746, 0.6467545663135125],
  "QPU": "10000001",
  "Problem": "DSP",
  "Size": 5,
  "P": 3,
  "Shots": 4096
}