{
  "Circuit execution durations [ms]": [36.234958999999996, 63.752422, 183.447737, 171.666225, 69.125427, 413.48764500000004, 85.314501, 75.869342, 171.611561, 174.086477, 81.793032, 136.776038, 81.462024, 38.160641000000005, 150.638566, 162.96305999999998, 74.044922, 33.876241, 125.18942899999999, 89.32212100000001, 91.703079, 66.445321, 172.79640600000002, 37.108481, 125.06592699999999, 81.106453, 71.69089600000001, 66.159504, 62.586683, 58.236218, 37.65348, 37.851774, 79.030593, 72.262898, 95.02935599999999, 39.518992000000004, 61.863839, 79.282693, 47.765621, 57.586279, 40.578872000000004, 37.012641, 49.760285, 84.910729, 38.886461, 42.284299999999995, 68.10219000000001, 61.578379000000005, 50.437974, 36.752384, 49.597507, 87.372766, 73.885156, 68.706458, 71.539, 64.882174, 36.238067, 43.20532, 87.39321799999999, 37.796789, 76.072643, 33.040878, 77.427564, 63.095554, 62.409293, 36.565597999999994, 32.396256, 64.787232, 71.17238400000001, 344.814754, 153.116279, 438.471489, 157.275833, 433.88415000000003, 172.830498, 345.439242, 177.48059899999998, 195.547941, 179.53385699999998, 241.054666, 168.93096799999998, 171.867599, 154.908164, 399.66166400000003, 262.061191, 409.075399, 171.808007, 150.556405, 407.753211, 308.893908, 155.257113, 172.57051, 170.84064800000002, 169.611795],
  "Depth": 275.0,
  "Expectation Value": -19.58984375,
  "Optimal Expectation Value": -22.0,
  "Optimizer durations [ms]": [9690.886, 10005.321, 10456.122, 7583.888, 8717.44, 10222.444, 7899.284, 9017.701, 8596.107, 7742.442, 72408.657, 10699.234, 8241.398, 9107.634, 7950.54, 9625.202, 7559.396, 9485.748, 10763.164, 9355.323, 8693.317, 9679.276, 35692.569, 8967.306, 8061.099, 9121.808, 22948.652, 9830.34, 7824.81, 8691.055, 7313.545, 7657.729, 7728.43, 8689.933, 8160.751, 8448.657, 9717.818, 64092.966, 8733.35, 9081.229, 9465.468, 8643.339, 9368.41, 8668.194, 8955.937, 8125.214, 9874.702, 9335.334, 8198.271, 10320.96, 8645.135, 8212.515, 8592.232, 8072.319, 70460.193, 10602.383, 8377.031, 8579.15, 96877.329, 8462.909, 64832.917, 63101.176, 7381.916, 7820.49, 8107.216, 8512.813, 8730.794, 9762.172, 13842.406, 64766.343, 21337.698, 8140.92, 9182.666, 13744.391, 14980.576, 16478.545, 41928.435, 9120.363, 11082.943, 9040.323, 9771.308, 11049.015, 8540.763, 9323.768, 8379.924, 9497.632, 16041.83, 8100.455, 9670.555, 9342.895, 7698.035, 9207.024, 7904.955, 9100.205],
  "Optimizer iterations": 94,
  "Optimizer params": [0.3562646458824085, 0.5676343505827054, 0.46283696336757846, 0.6131364192472498, 0.4499593060764389, 0.041689665264789205],
  "P": 3,
  "Problem": "MCP",
  "QJob durations [ms]": [9583.476066589355, 9901.280164718628, 10275.768041610718, 7480.644226074219, 8522.091150283813, 10121.359825134277, 7716.047525405884, 8916.648387908936, 8488.358974456787, 7640.161752700806, 72303.71904373169, 10518.675804138184, 8135.298252105713, 8930.444240570068, 7850.057601928711, 9521.930932998657, 7451.115131378174, 9391.335248947144, 10582.002878189087, 9250.765800476074, 8507.620334625244, 9577.044486999512, 35579.625606536865, 8871.710777282715, 7955.3070068359375, 8945.243835449219, 22840.47269821167, 9648.642301559448, 7720.705509185791, 8587.84556388855, 7208.143472671509, 7545.807123184204, 7545.701026916504, 8587.68606185913, 7986.28044128418, 8335.119724273682, 9618.021011352539, 63987.4484539032, 8630.87248802185, 8901.802062988281, 9359.1787815094, 8465.982675552368, 9262.701988220215, 8564.594030380249, 8853.049755096436, 8020.601987838745, 9694.05746459961, 9234.335899353027, 8018.235206604004, 10216.982126235962, 8543.522596359253, 8112.327337265015, 8490.849733352661, 7885.735750198364, 70362.94627189636, 10420.864582061768, 8277.189493179321, 8472.031831741333, 96768.34464073181, 8361.66000366211, 64638.56387138367, 62994.14873123169, 7278.506278991699, 7720.099449157715, 8008.507490158081, 8420.531511306763, 8628.02529335022, 9575.39963722229, 13740.506649017334, 64666.76473617554, 21235.5318069458, 8038.1669998168945, 9007.723569869995, 13638.150930404663, 14791.388988494873, 16378.615379333496, 41824.395179748535, 9015.968084335327, 10980.428457260132, 8859.080791473389, 9670.832872390747, 10858.387470245361, 8438.951253890991, 9215.381145477295, 8272.212266921997, 9397.214889526367, 15859.644889831543, 7999.16410446167, 9492.86437034607, 9236.055374145508, 7598.859548568726, 9105.310201644897, 7797.8270053863525, 8913.434505462646],
  "QPU": "4010001",
  "Qubits": 15,
  "Queue durations [ms]": [1755.0, 2068.0, 916.0, 1623.0, 1650.0, 3121.0, 966.0, 2294.0, 1140.0, 1129.0, 64479.0, 2151.0, 1481.0, 1036.0, 1541.0, 1781.0, 1448.0, 1020.9999999999999, 4244.0, 2944.0, 1206.0, 2021.0, 28480.0, 1293.0, 1369.0, 1894.0, 1867.0, 2288.0, 1152.0, 1635.0, 604.0, 1196.0, 997.0, 1706.0, 802.0, 880.0, 1829.0, 1303.0, 1953.0, 1476.0, 2306.0, 1286.0, 1993.0, 1554.0, 1788.0, 1353.0, 2043.0000000000002, 1961.0, 1048.0, 3274.0, 1305.0, 1236.0, 1452.0, 1336.0, 1917.0, 3550.0, 1426.0, 1388.0, 62190.0, 1445.0, 57819.0, 55373.0, 711.0, 880.0, 978.0, 1367.0, 1832.0, 1103.0, 6480.0, 57449.0, 14558.0, 920.0, 1430.0, 6296.0, 7725.0, 9181.0, 34465.0, 1366.0, 3326.0, 1135.0, 2281.0, 3738.0, 1002.9999999999999, 1583.0, 2167.0, 1748.0, 9314.0, 961.0, 2089.0, 2440.0, 1179.0, 2032.0, 992.0, 781.0],
  "Shots": 4096,
  "Size": 15,
  "Total Algorithm duration [s]": 1387.623,
  "Total Classic duration [s]": 11.77888307380681,
  "Total Quantum duration [s]": 1375.8441169261932
}
