{
  "Circuit execution durations [ms]": [0.09665000106906518, 0.0941500002227258, 0.09309999950346537, 0.09729999874252826, 0.0962999984039925, 0.10339999789721332, 0.09299999874201603, 0.09314999988419004, 0.09169999975711107, 0.09110000246437266, 0.10264999946230091, 0.09849999696598388, 0.0989500003925059, 0.09805000081541948, 0.09175000013783574, 0.10304999887011945, 0.09325000064563937, 0.09280000085709617, 0.09314999988419004, 0.0927500004763715, 0.0916499993763864, 0.09440000212634914, 0.09209999916492961, 0.09285000123782083, 0.09139999747276306, 0.09245000183000229, 0.09169999975711107, 0.0926000029721763, 0.09305000276071951, 0.09190000128000975, 0.09219999992637895, 0.09080000018002465, 0.09594999937689863, 0.09250000221072696, 0.0930499991227407, 0.09110000246437266, 0.09145000149146654, 0.10245000157738104, 0.09284999759984203, 0.09114999920711853, 0.09270000009564683, 0.09245000183000229, 0.09000000136438757, 0.09449999924981967, 0.09209999916492961, 0.09224999666912481, 0.09114999920711853, 0.09219999992637895, 0.09565000073052943, 0.09214999954565428, 0.0898000034794677, 0.09085000056074932, 0.09085000056074932, 0.09080000018002465, 0.10430000111227855, 0.08935000005294569, 0.09064999903785065, 0.09014999886858277, 0.09080000018002465, 0.094600000011269, 0.09124999996856786, 0.09124999996856786, 0.0926000029721763, 0.0916499993763864, 0.12464999963412993],
  "Depth": 2.0,
  "Expectation Value": -2.2739362716674805,
  "Optimal Expectation Value": -2.2741000652313232,
  "Optimizer durations [ms]": [2.944, 2.845, 2.834, 2.885, 2.862, 3.079, 2.956, 2.822, 2.755, 2.733, 3.079, 2.923, 2.92, 2.919, 2.755, 3.0, 2.906, 2.78, 2.791, 2.743, 2.728, 3.149, 2.764, 2.735, 2.693, 2.738, 2.774, 2.748, 2.76, 2.706, 2.748, 2.706, 2.864, 2.756, 2.797, 2.796, 2.749, 3.174, 2.984, 2.791, 2.89, 2.815, 2.732, 2.802, 2.882, 2.753, 2.751, 2.775, 2.892, 2.811, 2.72, 2.744, 2.718, 2.773, 3.072, 2.773, 2.762, 2.708, 2.731, 2.608, 2.9, 2.739, 2.792, 2.764, 3.441],
  "Optimizer iterations": 65,
  "Optimizer params": [0.9999732261473505, 0.5035486875293887, 0.005674476014316762, 0.504420419792956],
  "P": 0,
  "Problem": "RH",
  "QJob durations [ms]": [0.09665000106906518, 0.0941500002227258, 0.09309999950346537, 0.09729999874252826, 0.0962999984039925, 0.10339999789721332, 0.09299999874201603, 0.09314999988419004, 0.09169999975711107, 0.09110000246437266, 0.10264999946230091, 0.09849999696598388, 0.0989500003925059, 0.09805000081541948, 0.09175000013783574, 0.10304999887011945, 0.09325000064563937, 0.09280000085709617, 0.09314999988419004, 0.0927500004763715, 0.0916499993763864, 0.09440000212634914, 0.09209999916492961, 0.09285000123782083, 0.09139999747276306, 0.09245000183000229, 0.09169999975711107, 0.0926000029721763, 0.09305000276071951, 0.09190000128000975, 0.09219999992637895, 0.09080000018002465, 0.09594999937689863, 0.09250000221072696, 0.0930499991227407, 0.09110000246437266, 0.09145000149146654, 0.10245000157738104, 0.09284999759984203, 0.09114999920711853, 0.09270000009564683, 0.09245000183000229, 0.09000000136438757, 0.09449999924981967, 0.09209999916492961, 0.09224999666912481, 0.09114999920711853, 0.09219999992637895, 0.09565000073052943, 0.09214999954565428, 0.0898000034794677, 0.09085000056074932, 0.09085000056074932, 0.09080000018002465, 0.10430000111227855, 0.08935000005294569, 0.09064999903785065, 0.09014999886858277, 0.09080000018002465, 0.094600000011269, 0.09124999996856786, 0.09124999996856786, 0.0926000029721763, 0.0916499993763864, 0.12464999963412993],
  "QPU": "7000000",
  "Qubits": 4,
  "Queue durations [ms]": [0.0, 0.0, 0.0, 0.0, 0.0, 0.0, 0.0, 0.0, 0.0, 0.0, 0.0, 0.0, 0.0, 0.0, 0.0, 0.0, 0.0, 0.0, 0.0, 0.0, 0.0, 0.0, 0.0, 0.0, 0.0, 0.0, 0.0, 0.0, 0.0, 0.0, 0.0, 0.0, 0.0, 0.0, 0.0, 0.0, 0.0, 0.0, 0.0, 0.0, 0.0, 0.0, 0.0, 0.0, 0.0, 0.0, 0.0, 0.0, 0.0, 0.0, 0.0, 0.0, 0.0, 0.0, 0.0, 0.0, 0.0, 0.0, 0.0, 0.0, 0.0, 0.0, 0.0, 0.0, 0.0],
  "Shots": 4096,
  "Size": 4,
  "Total Algorithm duration [s]": 0.184,
  "Total Classic duration [s]": 0.17788894998992327,
  "Total Quantum duration [s]": 0.006111050010076724
}
