{
  "Circuit execution durations [ms]": [0.10770000153570436, 0.09140000111074187, 0.10245000157738104, 0.0962999984039925, 0.09060000229510479, 0.09589999899617396, 0.09539999882690609, 0.09700000009615906, 0.09625000166124664, 0.09534999844618142, 0.09804999717744067, 0.09209999916492961, 0.0916499993763864, 0.09145000149146654, 0.09214999954565428, 0.09244999819202349, 0.09560000034980476, 0.09045000115293078, 0.09684999895398505, 0.09475000115344301, 0.09470000077271834, 0.09465000039199367, 0.09675000183051452, 0.09270000009564683, 0.09094999768421985, 0.09060000229510479, 0.08974999946076423, 0.09554999996908009, 0.09015000250656158, 0.09284999759984203, 0.08890000026440248, 0.09000000136438757, 0.09035000039148144, 0.10130000009667128, 0.09250000221072696, 0.09219999992637895, 0.10439999823574908, 0.09254999895347282, 0.09404999946127646, 0.09085000056074932, 0.09019999924930744, 0.09085000056074932, 0.0899499973456841, 0.09074999979929999, 0.11635000191745348, 0.09000000136438757, 0.09439999848837033, 0.09019999924930744, 0.09080000018002465, 0.09470000077271834, 0.09240000144927762, 0.09055000191438012, 0.09049999789567664, 0.08915000216802582, 0.08985000022221357, 0.09335000140708871, 0.09035000039148144, 0.09080000018002465, 0.09285000123782083, 0.09440000212634914, 0.09855000098468736, 0.0957000011112541, 0.09299999874201603, 0.0900999984878581, 0.09109999882639386, 0.09069999941857532, 0.09235000106855296, 0.09484999827691354, 0.09254999895347282, 0.08805000106804073, 0.08760000127949752, 0.09130000034929253, 0.10145000123884529, 0.08755000089877285, 0.08814999819151126, 0.09424999734619632, 0.09240000144927762, 0.10804999692481942, 0.091050002083648, 0.09024999963003211, 0.0911999995878432, 0.09144999785348773, 0.09109999882639386],
  "Depth": 2.0,
  "Expectation Value": -2.2739362716674805,
  "Optimal Expectation Value": -2.2741000652313232,
  "Optimizer durations [ms]": [3.097, 2.798, 2.99, 2.942, 2.807, 2.852, 2.834, 2.807, 2.837, 2.925, 3.102, 2.748, 2.737, 2.731, 2.761, 2.732, 2.8, 2.705, 2.859, 2.795, 2.771, 2.792, 2.859, 2.742, 2.739, 2.773, 2.714, 2.848, 2.638, 2.825, 2.686, 2.743, 2.762, 3.018, 2.794, 2.776, 3.193, 2.774, 2.794, 2.705, 2.762, 2.761, 2.72, 2.703, 3.251, 2.693, 2.796, 2.722, 2.735, 2.797, 2.826, 2.734, 2.693, 2.909, 2.778, 2.811, 2.712, 2.786, 2.779, 2.83, 2.96, 2.87, 2.794, 2.705, 2.654, 2.627, 2.649, 2.928, 2.827, 2.625, 2.661, 2.87, 3.032, 2.628, 2.635, 2.954, 2.836, 3.313, 2.786, 2.715, 2.727, 2.751, 2.739],
  "Optimizer iterations": 83,
  "Optimizer params": [0.998644810115798, 0.49899279156221477, 0.006644134179302778, 0.49889169489096363],
  "P": 0,
  "Problem": "RH",
  "QJob durations [ms]": [0.10770000153570436, 0.09140000111074187, 0.10245000157738104, 0.0962999984039925, 0.09060000229510479, 0.09589999899617396, 0.09539999882690609, 0.09700000009615906, 0.09625000166124664, 0.09534999844618142, 0.09804999717744067, 0.09209999916492961, 0.0916499993763864, 0.09145000149146654, 0.09214999954565428, 0.09244999819202349, 0.09560000034980476, 0.09045000115293078, 0.09684999895398505, 0.09475000115344301, 0.09470000077271834, 0.09465000039199367, 0.09675000183051452, 0.09270000009564683, 0.09094999768421985, 0.09060000229510479, 0.08974999946076423, 0.09554999996908009, 0.09015000250656158, 0.09284999759984203, 0.08890000026440248, 0.09000000136438757, 0.09035000039148144, 0.10130000009667128, 0.09250000221072696, 0.09219999992637895, 0.10439999823574908, 0.09254999895347282, 0.09404999946127646, 0.09085000056074932, 0.09019999924930744, 0.09085000056074932, 0.0899499973456841, 0.09074999979929999, 0.11635000191745348, 0.09000000136438757, 0.09439999848837033, 0.09019999924930744, 0.09080000018002465, 0.09470000077271834, 0.09240000144927762, 0.09055000191438012, 0.09049999789567664, 0.08915000216802582, 0.08985000022221357, 0.09335000140708871, 0.09035000039148144, 0.09080000018002465, 0.09285000123782083, 0.09440000212634914, 0.09855000098468736, 0.0957000011112541, 0.09299999874201603, 0.0900999984878581, 0.09109999882639386, 0.09069999941857532, 0.09235000106855296, 0.09484999827691354, 0.09254999895347282, 0.08805000106804073, 0.08760000127949752, 0.09130000034929253, 0.10145000123884529, 0.08755000089877285, 0.08814999819151126, 0.09424999734619632, 0.09240000144927762, 0.10804999692481942, 0.091050002083648, 0.09024999963003211, 0.0911999995878432, 0.09144999785348773, 0.09109999882639386],
  "QPU": "7000000",
  "Qubits": 4,
  "Queue durations [ms]": [0.0, 0.0, 0.0, 0.0, 0.0, 0.0, 0.0, 0.0, 0.0, 0.0, 0.0, 0.0, 0.0, 0.0, 0.0, 0.0, 0.0, 0.0, 0.0, 0.0, 0.0, 0.0, 0.0, 0.0, 0.0, 0.0, 0.0, 0.0, 0.0, 0.0, 0.0, 0.0, 0.0, 0.0, 0.0, 0.0, 0.0, 0.0, 0.0, 0.0, 0.0, 0.0, 0.0, 0.0, 0.0, 0.0, 0.0, 0.0, 0.0, 0.0, 0.0, 0.0, 0.0, 0.0, 0.0, 0.0, 0.0, 0.0, 0.0, 0.0, 0.0, 0.0, 0.0, 0.0, 0.0, 0.0, 0.0, 0.0, 0.0, 0.0, 0.0, 0.0, 0.0, 0.0, 0.0, 0.0, 0.0, 0.0, 0.0, 0.0, 0.0, 0.0, 0.0],
  "Shots": 4096,
  "Size": 4,
  "Total Algorithm duration [s]": 0.232,
  "Total Classic duration [s]": 0.2242452499959036,
  "Total Quantum duration [s]": 0.007754750004096422
}
