{
  "Circuit execution durations [ms]": [0.09810000119614415, 0.09329999738838524, 0.09219999992637895, 0.09299999874201603, 0.09230000068782829, 0.09169999975711107, 0.09335000140708871, 0.09204999878420494, 0.09160000263364054, 0.09314999988419004, 0.09169999975711107, 0.0933499977691099, 0.08864999836077914, 0.09675000183051452, 0.09719999798107892, 0.09214999954565428, 0.09339999814983457, 0.09114999920711853, 0.08775000242167152, 0.08784999954514205, 0.09425000098417513, 0.08890000026440248, 0.08800000068731606, 0.09354999929200858, 0.09510000018053688, 0.09775000216905028, 0.09510000018053688, 0.08924999929149635, 0.09124999996856786, 0.0895000011951197, 0.08864999836077914, 0.09185000089928508, 0.09229999704984948, 0.09314999988419004, 0.08905000140657648, 0.08829999933368526, 0.15479999638046138, 0.0899500009836629, 0.08989999696495943, 0.09019999924930744, 0.09175000013783574, 0.10159999874304049, 0.09110000246437266, 0.0914999982342124, 0.09050000153365545, 0.09270000009564683, 0.09089999730349518, 0.09569999747327529, 0.08969999908003956, 0.09349999891128391, 0.08849999721860513, 0.08865000199875794, 0.09850000060396269, 0.08929999967222102, 0.08784999954514205, 0.0885500012373086, 0.0911999995878432, 0.08879999950295314, 0.08850000085658394, 0.08755000089877285, 0.08820000221021473, 0.0885499975993298, 0.08819999857223593, 0.08815000182949007, 0.0911999995878432, 0.09035000039148144],
  "Depth": 2.0,
  "Expectation Value": -2.260073184967041,
  "Optimal Expectation Value": -2.2741000652313232,
  "Optimizer durations [ms]": [3.005, 2.754, 2.908, 2.651, 2.63, 2.66, 2.672, 2.639, 2.664, 2.673, 2.617, 2.663, 2.613, 2.901, 2.884, 2.654, 2.992, 2.849, 2.742, 2.756, 2.96, 2.755, 2.766, 2.838, 2.93, 3.017, 2.9, 2.798, 2.748, 2.735, 2.864, 2.671, 2.665, 2.71, 2.814, 2.725, 4.012, 2.847, 3.314, 2.654, 2.656, 3.015, 2.727, 2.683, 2.609, 2.668, 2.6, 3.083, 2.894, 2.964, 2.772, 2.735, 2.892, 2.717, 2.712, 2.695, 2.873, 2.766, 2.761, 2.714, 2.777, 2.724, 2.733, 2.792, 2.618, 2.68],
  "Optimizer iterations": 66,
  "Optimizer params": [0.9644276404916361, 0.5004356919145857, 0.9999999999999999, 0.5000018757088422],
  "P": 0,
  "Problem": "RH",
  "QJob durations [ms]": [0.09810000119614415, 0.09329999738838524, 0.09219999992637895, 0.09299999874201603, 0.09230000068782829, 0.09169999975711107, 0.09335000140708871, 0.09204999878420494, 0.09160000263364054, 0.09314999988419004, 0.09169999975711107, 0.0933499977691099, 0.08864999836077914, 0.09675000183051452, 0.09719999798107892, 0.09214999954565428, 0.09339999814983457, 0.09114999920711853, 0.08775000242167152, 0.08784999954514205, 0.09425000098417513, 0.08890000026440248, 0.08800000068731606, 0.09354999929200858, 0.09510000018053688, 0.09775000216905028, 0.09510000018053688, 0.08924999929149635, 0.09124999996856786, 0.0895000011951197, 0.08864999836077914, 0.09185000089928508, 0.09229999704984948, 0.09314999988419004, 0.08905000140657648, 0.08829999933368526, 0.15479999638046138, 0.0899500009836629, 0.08989999696495943, 0.09019999924930744, 0.09175000013783574, 0.10159999874304049, 0.09110000246437266, 0.0914999982342124, 0.09050000153365545, 0.09270000009564683, 0.09089999730349518, 0.09569999747327529, 0.08969999908003956, 0.09349999891128391, 0.08849999721860513, 0.08865000199875794, 0.09850000060396269, 0.08929999967222102, 0.08784999954514205, 0.0885500012373086, 0.0911999995878432, 0.08879999950295314, 0.08850000085658394, 0.08755000089877285, 0.08820000221021473, 0.0885499975993298, 0.08819999857223593, 0.08815000182949007, 0.0911999995878432, 0.09035000039148144],
  "QPU": "7000000",
  "Qubits": 4,
  "Queue durations [ms]": [0.0, 0.0, 0.0, 0.0, 0.0, 0.0, 0.0, 0.0, 0.0, 0.0, 0.0, 0.0, 0.0, 0.0, 0.0, 0.0, 0.0, 0.0, 0.0, 0.0, 0.0, 0.0, 0.0, 0.0, 0.0, 0.0, 0.0, 0.0, 0.0, 0.0, 0.0, 0.0, 0.0, 0.0, 0.0, 0.0, 0.0, 0.0, 0.0, 0.0, 0.0, 0.0, 0.0, 0.0, 0.0, 0.0, 0.0, 0.0, 0.0, 0.0, 0.0, 0.0, 0.0, 0.0, 0.0, 0.0, 0.0, 0.0, 0.0, 0.0, 0.0, 0.0, 0.0, 0.0, 0.0, 0.0],
  "Shots": 4096,
  "Size": 4,
  "Total Algorithm duration [s]": 0.184,
  "Total Classic duration [s]": 0.17789750001500942,
  "Total Quantum duration [s]": 0.0061024999849905726
}
