{
  "Depth": 2.0,
  "Job durations [ms]": [96.36899828910828, 60.9194990247488, 60.9159991145134, 94.20700185000896, 60.782499611377716, 60.85599958896637, 60.76250039041042, 93.87200325727463, 60.98650023341179, 60.77149882912636, 93.40899996459484, 61.3780003041029, 60.50749868154526, 94.00350227952003, 60.83250045776367, 60.99200062453747, 93.86099688708782, 61.024000868201256, 60.709500685334206, 60.148000717163086, 93.16650405526161, 62.29399889707565, 59.98549982905388, 93.41049753129482, 60.20849943161011, 60.27049943804741, 93.48399937152863, 60.018498450517654, 62.125999480485916, 92.8294975310564, 60.358500108122826, 60.160499066114426, 60.287000611424446, 93.51250156760216, 60.045499354600906, 60.49349904060364, 93.36499869823456, 60.928499326109886, 60.75499951839447, 94.26399692893028, 61.15899980068207, 61.11999973654747, 93.7339998781681, 61.80700100958347, 61.43050082027912, 60.763001441955566, 95.00699862837791, 61.172498390078545, 60.51350012421608, 93.48700009286404, 60.06699986755848, 60.000499710440636, 94.02300417423248, 60.08299998939037, 60.723500326275826, 94.92449648678303, 60.172999277710915, 61.20950169861317, 60.05449965596199, 93.11049617826939, 60.327500104904175, 60.068000108003616, 95.9325022995472, 60.482000932097435, 60.26950106024742, 93.1595005095005, 60.611000284552574, 59.76399965584278, 92.74550154805183, 60.98349951207638, 60.94449944794178, 60.7489999383688, 93.64399872720242, 61.11999973654747, 62.472498044371605, 94.15099769830704, 61.26900017261505, 59.892499819397926, 94.21850182116032, 60.685500502586365, 61.96200102567673, 94.47899833321571, 60.9154999256134, 61.45600043237209, 60.90399995446205, 97.49149903655052, 63.82399797439575, 62.08300031721592, 93.27850304543972, 60.150500386953354, 60.283999890089035, 94.76899914443493, 59.95899997651577, 59.9565003067255, 93.30749697983265, 60.11649966239929, 59.99399907886982, 63.22450190782547, 92.86300092935562, 59.87299978733063, 60.28749980032444, 93.75249780714512, 60.180000960826874, 60.181498527526855, 93.57849694788456, 60.52099913358688, 60.1039994508028, 94.75049749016762, 60.69499999284744, 60.997499153018, 60.96000038087368, 94.9030015617609, 59.76499989628792, 60.01549959182739, 93.89399737119675, 60.19199825823307, 60.14450080692768, 94.84799951314926, 60.721999034285545, 61.0945001244545, 93.62000040709972, 60.81799976527691, 60.517000034451485, 60.745999217033386, 94.05099786818027, 61.1799992620945, 61.00250035524368, 93.89200061559677, 60.875000432133675, 60.76500006020069, 94.2085012793541, 62.05949932336807, 60.67400053143501, 93.84350292384624, 60.59350073337555, 61.47200055420399, 60.88150106370449, 94.15750205516815, 60.8379989862442, 60.638999566435814, 94.22100149095058, 60.78849919140339, 60.29599905014038, 93.30050274729729],
  "Optimizer durations [ms]": [197.779, 126.805, 126.451, 193.095, 126.688, 126.38, 126.327, 192.465, 126.706, 126.003, 191.368, 127.596, 125.578, 192.726, 126.374, 126.884, 192.238, 126.745, 126.223, 124.968, 191.308, 128.945, 124.615, 191.516, 125.164, 125.432, 191.705, 124.697, 128.904, 190.362, 125.374, 124.703, 125.254, 191.937, 124.778, 125.584, 191.49, 126.513, 126.041, 193.238, 127.158, 126.845, 192.067, 128.279, 127.583, 126.359, 195.023, 126.857, 125.647, 191.759, 124.631, 124.669, 192.764, 124.889, 126.344, 194.404, 125.127, 126.971, 124.899, 190.954, 124.993, 124.732, 196.475, 125.677, 124.978, 190.872, 126.067, 124.093, 190.359, 126.649, 126.686, 125.976, 191.842, 126.943, 129.704, 193.131, 127.915, 124.361, 193.366, 126.04, 128.917, 193.914, 126.69, 128.116, 126.582, 200.261, 132.926, 129.202, 191.449, 124.875, 125.212, 194.303, 124.508, 124.485, 191.516, 124.881, 124.555, 131.046, 190.495, 124.276, 125.165, 192.304, 125.447, 124.881, 191.603, 125.65, 124.903, 194.14, 126.237, 126.782, 126.703, 194.468, 124.041, 124.786, 192.714, 124.941, 124.861, 194.314, 126.24, 126.697, 191.965, 126.564, 125.906, 126.26, 192.711, 126.931, 126.591, 192.692, 126.654, 126.288, 193.141, 128.873, 125.999, 192.308, 125.815, 127.883, 126.659, 193.094, 126.654, 125.972, 193.13, 126.198, 125.526, 191.335],
  "Optimizer iterations": 144,
  "Qubits": 9,
  "Total Algorithm duration [s]": 21.171,
  "Total Classic duration [s]": 10.925760019481181,
  "Total Quantum duration [s]": 10.245239980518818,
  "Expectation Value": -5.556216716766357,
  "Optimal Expectation Value": -5.571199893951416,
  "Optimizer params": [0.643710137584302, 0.47815307616368646, 0.6400864123488403, 0.47829858184862156, 0.4789315668699457, 0.6405057466282428, 0.4733276167877679, 0.47412821311316744, 0.6415101710550509],
  "QPU": "9000001",
  "Problem": "RH",
  "Size": 9,
  "P": 0,
  "Shots": 4096
}