{
  "Circuit execution durations [ms]": [45.57204246520996, 94.14887428283691, 49.1788387298584, 45.42851448059082, 45.8064079284668, 48.35915565490723, 45.816659927368164, 46.84305191040039, 45.859575271606445, 50.53353309631348, 50.71687698364258, 47.74332046508789, 47.68848419189453, 45.967817306518555, 92.79799461364746, 47.35565185546875, 45.14122009277344, 45.14431953430176, 46.83279991149902, 46.32449150085449, 45.540809631347656, 50.63486099243164, 51.817893981933594, 45.45331001281738, 45.6242561340332, 47.739505767822266, 46.30684852600098, 45.609474182128906, 49.94034767150879, 47.502994537353516, 52.542924880981445, 45.58968544006348, 48.14410209655762, 45.42875289916992, 45.57085037231445, 48.44474792480469, 49.62611198425293, 47.95980453491211, 47.23858833312988, 45.72558403015137, 47.643423080444336, 46.431779861450195, 45.53651809692383, 45.743465423583984, 45.105695724487305, 45.5777645111084, 45.237064361572266, 48.378944396972656, 43.34378242492676, 47.61624336242676, 47.38450050354004, 47.00493812561035, 52.635908126831055, 48.27237129211426, 45.6690788269043, 45.54390907287598, 47.20568656921387, 47.86419868469238, 48.29239845275879, 45.18532752990723, 50.38905143737793, 45.47262191772461, 45.12310028076172, 45.551300048828125, 49.04341697692871, 47.55759239196777, 45.19915580749512, 47.16205596923828, 96.00305557250977, 46.698570251464844, 51.66506767272949, 47.64437675476074, 51.422119140625, 45.679569244384766, 47.753095626831055, 48.932790756225586, 44.98887062072754, 47.25980758666992, 49.93486404418945, 47.05643653869629, 46.78654670715332, 96.32158279418945, 48.12335968017578, 46.65017127990723, 46.072959899902344, 45.459747314453125, 46.594858169555664],
  "Depth": 95.0,
  "Expectation Value": -5.01220703125,
  "Optimal Expectation Value": -6.0,
  "Optimizer durations [ms]": [306.221, 311.398, 266.349, 312.754, 263.745, 316.146, 269.682, 310.963, 266.088, 314.208, 269.44, 312.136, 266.962, 307.416, 312.081, 273.4, 313.561, 264.072, 317.977, 264.25, 312.248, 267.372, 318.124, 263.164, 312.515, 268.271, 307.93, 261.41, 308.415, 314.892, 270.196, 311.296, 265.74, 311.373, 263.399, 311.208, 277.902, 316.689, 266.649, 308.519, 267.6, 302.926, 311.339, 264.577, 311.716, 262.505, 311.733, 266.315, 307.105, 264.343, 310.145, 264.95, 314.264, 269.577, 305.211, 312.9, 263.213, 313.905, 266.197, 311.954, 267.921, 308.897, 261.935, 308.993, 268.354, 309.526, 262.376, 311.065, 314.53, 264.129, 320.316, 266.302, 315.566, 261.811, 319.34, 267.03, 308.13, 265.568, 310.949, 266.283, 305.547, 318.235, 264.515, 313.858, 263.234, 312.571, 263.862],
  "Optimizer iterations": 87,
  "Optimizer params": [0.7732156226484652, 0.1596369635322451, 0.8849738124038253, 0.888244358926971, 0.5582949401104116, 0.37304278821031606],
  "P": 3,
  "Problem": "MCP",
  "QJob durations [ms]": [112.30850219726563, 161.58771514892578, 115.29922485351563, 163.49506378173828, 114.10641670227051, 116.90425872802734, 119.61126327514648, 113.32559585571289, 115.32306671142578, 117.39945411682129, 119.70853805541992, 115.97657203674316, 116.61267280578613, 115.40484428405762, 161.5457534790039, 119.79246139526367, 162.4772548675537, 113.68584632873535, 167.68312454223633, 113.71374130249023, 114.86625671386719, 117.65742301940918, 119.87757682800293, 112.86306381225586, 112.36572265625, 117.19751358032227, 114.81237411499023, 111.62662506103516, 117.18440055847168, 165.16613960266113, 120.56827545166016, 161.1044406890869, 115.58985710144043, 113.86966705322266, 113.16490173339844, 115.66948890686035, 124.22347068786621, 117.00153350830078, 116.12915992736816, 113.74020576477051, 116.81747436523438, 112.81347274780273, 161.56935691833496, 114.41850662231445, 162.07385063171387, 113.10720443725586, 114.3643856048584, 115.21458625793457, 111.4203929901123, 114.90440368652344, 115.2811050415039, 115.0968074798584, 120.90587615966797, 117.0969009399414, 114.0139102935791, 163.08975219726563, 112.87665367126465, 164.02864456176758, 116.1966323852539, 113.37447166442871, 117.71655082702637, 111.95731163024902, 112.37096786499023, 114.11762237548828, 117.8884506225586, 115.70549011230469, 111.33193969726563, 113.74139785766602, 163.86651992797852, 113.6927604675293, 170.2859401702881, 116.07813835144043, 117.70296096801758, 112.33830451965332, 117.48695373535156, 116.12939834594727, 113.03591728210449, 116.16134643554688, 116.70565605163574, 116.0123348236084, 113.15631866455078, 165.16709327697754, 114.39943313598633, 164.3223762512207, 113.38043212890625, 114.04728889465332, 113.9824390411377],
  "QPU": "3000020",
  "Qubits": 5,
  "Queue durations [ms]": [0.0, 0.0, 0.0, 0.0, 0.0, 0.0, 0.0, 0.0, 0.0, 0.0, 0.0, 0.0, 0.0, 0.0, 0.0, 0.0, 0.0, 0.0, 0.0, 0.0, 0.0, 0.0, 0.0, 0.0, 0.0, 0.0, 0.0, 0.0, 0.0, 0.0, 0.0, 0.0, 0.0, 0.0, 0.0, 0.0, 0.0, 0.0, 0.0, 0.0, 0.0, 0.0, 0.0, 0.0, 0.0, 0.0, 0.0, 0.0, 0.0, 0.0, 0.0, 0.0, 0.0, 0.0, 0.0, 0.0, 0.0, 0.0, 0.0, 0.0, 0.0, 0.0, 0.0, 0.0, 0.0, 0.0, 0.0, 0.0, 0.0, 0.0, 0.0, 0.0, 0.0, 0.0, 0.0, 0.0, 0.0, 0.0, 0.0, 0.0, 0.0, 0.0, 0.0, 0.0, 0.0, 0.0, 0.0],
  "Shots": 4096,
  "Size": 5,
  "Total Algorithm duration [s]": 25.299,
  "Total Classic duration [s]": 14.53691480064392,
  "Total Quantum duration [s]": 10.762085199356079
}
