{
  "Circuit execution durations [ms]": [43.282270431518555, 93.05787086486816, 43.3351993560791, 47.240257263183594, 45.55654525756836, 45.359134674072266, 45.107126235961914, 45.142173767089844, 46.39577865600586, 46.46468162536621, 46.338796615600586, 45.54295539855957, 48.38204383850098, 47.234296798706055, 94.42853927612305, 47.667503356933594, 43.64490509033203, 42.3431396484375, 48.67076873779297, 42.97637939453125, 46.62346839904785, 46.04768753051758, 48.17938804626465, 49.19624328613281, 48.12741279602051, 48.47908020019531, 48.629045486450195, 46.124935150146484, 45.662641525268555, 46.03719711303711, 52.31523513793945, 48.985958099365234, 48.44856262207031, 45.441627502441406, 46.86856269836426, 45.7758903503418, 45.752763748168945, 46.668291091918945, 45.20010948181152, 47.527313232421875, 45.48764228820801, 46.86141014099121, 45.26972770690918, 46.67234420776367, 46.68068885803223, 47.362327575683594, 47.85633087158203, 43.340206146240234, 47.683000564575195, 47.2259521484375, 48.67243766784668, 45.52412033081055, 47.716617584228516, 45.85123062133789, 49.20768737792969, 46.96822166442871, 50.51565170288086, 47.707319259643555, 45.397043228149414, 48.11573028564453, 49.247026443481445, 47.92642593383789, 46.927690505981445, 47.08600044250488, 45.348405838012695, 49.02172088623047, 48.830270767211914, 46.27847671508789, 51.64146423339844, 46.17643356323242],
  "Depth": 95.0,
  "Expectation Value": -5.26220703125,
  "Optimal Expectation Value": -6.0,
  "Optimizer durations [ms]": [303.38, 309.588, 263.755, 314.51, 263.965, 310.549, 260.64, 311.645, 264.966, 312.547, 262.103, 305.888, 266.804, 311.873, 310.992, 267.328, 312.755, 258.458, 314.399, 260.856, 312.966, 263.441, 313.945, 267.975, 311.094, 267.524, 310.974, 263.523, 304.605, 315.118, 269.605, 311.751, 265.856, 310.42, 265.91, 311.311, 266.116, 309.08, 263.661, 308.598, 262.846, 307.213, 312.774, 263.845, 318.756, 266.598, 314.852, 263.223, 310.834, 263.603, 312.294, 265.519, 307.805, 262.9, 308.323, 315.247, 268.509, 313.691, 265.445, 312.203, 268.194, 312.203, 263.242, 308.576, 266.29, 310.819, 266.812, 305.684, 318.889, 264.992],
  "Optimizer iterations": 70,
  "Optimizer params": [0.969873252184625, 0.9782145977090672, 0.08766959230832727, 0.4599420685227364, 0.9964929426635788, 0.7031994370690379],
  "P": 3,
  "Problem": "MCP",
  "QJob durations [ms]": [108.91342163085938, 160.60137748718262, 113.7075424194336, 165.00401496887207, 114.22872543334961, 113.27600479125977, 111.17935180664063, 114.71080780029297, 114.73870277404785, 115.33951759338379, 112.59698867797852, 112.44916915893555, 117.4628734588623, 118.11709403991699, 161.26537322998047, 115.31496047973633, 162.57810592651367, 108.68668556213379, 116.17279052734375, 110.53323745727539, 114.22014236450195, 113.7840747833252, 116.73188209533691, 118.23701858520508, 116.46032333374023, 116.7607307434082, 118.08633804321289, 113.58261108398438, 114.44735527038574, 165.2543544769287, 119.39382553100586, 161.1011028289795, 115.78106880187988, 113.15536499023438, 116.0573959350586, 114.1808032989502, 114.3336296081543, 113.94906044006348, 113.74306678771973, 116.12343788146973, 113.15131187438965, 116.06740951538086, 163.34223747253418, 113.33417892456055, 162.733793258667, 116.63508415222168, 118.03579330444336, 113.18397521972656, 115.05007743835449, 113.79671096801758, 116.8358325958252, 114.81571197509766, 115.06867408752441, 113.677978515625, 118.2253360748291, 165.47608375549316, 118.71194839477539, 163.72346878051758, 114.36676979064941, 115.4775619506836, 117.80405044555664, 115.95988273620605, 113.27075958251953, 113.65556716918945, 115.11993408203125, 117.74015426635742, 116.98317527770996, 113.36350440979004, 169.31676864624023, 113.38543891906738],
  "QPU": "3000020",
  "Qubits": 5,
  "Queue durations [ms]": [0.0, 0.0, 0.0, 0.0, 0.0, 0.0, 0.0, 0.0, 0.0, 0.0, 0.0, 0.0, 0.0, 0.0, 0.0, 0.0, 0.0, 0.0, 0.0, 0.0, 0.0, 0.0, 0.0, 0.0, 0.0, 0.0, 0.0, 0.0, 0.0, 0.0, 0.0, 0.0, 0.0, 0.0, 0.0, 0.0, 0.0, 0.0, 0.0, 0.0, 0.0, 0.0, 0.0, 0.0, 0.0, 0.0, 0.0, 0.0, 0.0, 0.0, 0.0, 0.0, 0.0, 0.0, 0.0, 0.0, 0.0, 0.0, 0.0, 0.0, 0.0, 0.0, 0.0, 0.0, 0.0, 0.0, 0.0, 0.0, 0.0, 0.0],
  "Shots": 4096,
  "Size": 5,
  "Total Algorithm duration [s]": 20.302,
  "Total Classic duration [s]": 11.721430494308471,
  "Total Quantum duration [s]": 8.580569505691528
}
