{
  "Depth": 32.0,
  "Job durations [ms]": [6219.3920612335205, 6101.852893829346, 6774.223566055298, 6229.523420333862, 6118.9751625061035, 6114.488124847412, 6098.893165588379, 6129.159212112427, 6375.324726104736, 6077.443838119507, 6071.114540100098, 6067.6515102386475, 6078.608274459839, 6095.566034317017, 6022.528886795044, 6105.087041854858, 6237.6549243927, 6201.005697250366, 6098.422288894653, 6239.986896514893, 6259.904146194458, 6180.572748184204, 6147.248983383179, 6458.437919616699, 6471.235513687134, 6623.431205749512, 6712.979316711426, 6570.856094360352, 6209.683895111084, 6081.83479309082, 6149.440050125122, 6112.470865249634, 6177.660942077637, 6434.118986129761, 6450.996398925781, 6164.397239685059, 6394.49143409729, 6142.209768295288, 6214.8683071136475, 6537.922382354736, 6082.637071609497, 6235.0451946258545, 6428.529262542725, 6049.658536911011, 6093.9531326293945, 6209.3706130981445, 6255.596160888672, 6196.309328079224, 6762.02130317688, 6137.758493423462, 6308.521509170532, 6358.644723892212, 6023.392200469971, 6489.50982093811, 6211.850881576538, 6077.861785888672, 6297.306537628174, 6111.191272735596, 6505.593538284302, 6490.273714065552, 6147.062540054321, 6282.262563705444, 6464.55454826355, 6515.216827392578, 6179.0525913238525, 6331.870317459106, 6271.201610565186, 6098.57439994812, 6115.117073059082, 9471.622467041016, 6573.907136917114, 6240.8411502838135, 6485.016107559204, 6163.442611694336, 9693.994998931885, 6502.21848487854, 6336.709022521973, 6487.645864486694, 6168.631076812744, 6139.518022537231, 6163.5706424713135, 6174.884080886841, 6317.919731140137, 6218.912363052368, 6378.50546836853],
  "Optimizer durations [ms]": [28488.715, 29729.577, 31099.566, 29937.234, 29382.306, 30666.311, 20273.648, 21471.738, 27790.334, 20146.504, 31588.58, 28711.25, 19984.87, 30882.808, 29165.194, 101822.616, 179554.125, 89436.47, 59636.379, 99402.367, 20010.186, 120844.897, 100103.316, 220215.856, 99681.329, 89686.585, 150306.141, 99924.673, 290492.65, 99675.011, 220101.431, 89661.028, 180600.553, 90474.544, 178580.982, 180875.283, 89718.967, 180286.138, 89909.523, 189437.847, 71629.03, 219834.828, 209422.152, 239502.064, 19937.069, 90949.751, 89599.696, 89659.863, 290246.597, 100040.315, 299810.831, 140012.985, 130201.488, 99821.878, 301589.98, 89907.828, 18559.895, 90384.433, 18315.861, 291291.203, 90500.92, 21811.818, 98457.434, 230417.355, 99365.269, 91629.815, 89041.407, 288663.181, 100801.759, 317919.978, 98541.301, 320320.585, 39355.204, 101037.063, 597985.761, 20021.008, 130231.04, 191043.037, 98433.661, 290084.183, 490163.627, 31363.163, 90852.258, 217182.576, 100644.33],
  "Optimizer iterations": 85,
  "Qubits": 3,
  "Total Algorithm duration [s]": 10866.343,
  "Total Classic duration [s]": 10327.14405996132,
  "Total Quantum duration [s]": 539.198940038681,
  "Expectation Value": -1.76513671875,
  "Optimal Expectation Value": -2.0,
  "Optimizer params": [0.7533554131666659, 0.9664378161530547, 0.5313771553819717, 0.9228945557666701, 0.5696320997102817, 0.9433943309739149],
  "QPU": "4020017",
  "Problem": "MCP",
  "Size": 3,
  "P": 3,
  "Shots": 4096
}