{
  "Circuit execution durations [ms]": [42.095065116882324, 42.60575771331787, 41.31126403808594, 46.85068130493164, 43.3804988861084, 46.5395450592041, 44.8603630065918, 47.63531684875488, 44.10898685455322, 47.322630882263184, 44.25704479217529, 46.79238796234131, 41.85318946838379, 45.01140117645264],
  "Depth": 2.0,
  "Expectation Value": -0.5365367531776428,
  "Optimal Expectation Value": -0.574400007724762,
  "Optimizer durations [ms]": [530.646, 526.268, 532.606, 585.928, 532.74, 536.154, 536.86, 586.675, 534.655, 535.121, 534.087, 585.679, 528.921, 530.806],
  "Optimizer iterations": 14,
  "Optimizer params": [0.996268395880135],
  "P": 0,
  "Problem": "RH",
  "QJob durations [ms]": [48.5842227935791, 49.372196197509766, 47.796010971069336, 53.41231822967529, 49.88741874694824, 53.26652526855469, 51.374077796936035, 54.16548252105713, 50.58634281158447, 53.98428440093994, 50.69935321807861, 53.30538749694824, 48.287034034729004, 51.602959632873535],
  "QPU": "3000010",
  "Qubits": 1,
  "Queue durations [ms]": [0.0, 0.0, 0.0, 0.0, 0.0, 0.0, 0.0, 0.0, 0.0, 0.0, 0.0, 0.0, 0.0, 0.0],
  "Shots": 4096,
  "Size": 1,
  "Total Algorithm duration [s]": 7.617,
  "Total Classic duration [s]": 6.900676385879517,
  "Total Quantum duration [s]": 0.7163236141204834
}
