{
  "Depth": 167.0,
  "Job durations [ms]": [45.032999999999994, 45.328, 45.563, 45.403, 45.281, 45.324000000000005, 45.61, 44.201, 44.232, 45.877, 46.126, 45.189, 45.427, 45.412, 45.618, 45.23, 112.66900000000001, 45.281, 44.759, 45.057, 45.844, 45.221, 44.992999999999995, 44.919000000000004, 45.327, 45.141, 45.265, 45.504999999999995, 46.416, 44.88, 45.059000000000005, 46.292, 45.801, 45.113, 45.522, 44.791, 45.167, 44.799, 45.678000000000004, 45.647, 45.557, 44.661, 44.876, 110.654, 46.080999999999996, 45.17, 45.28, 46.521, 44.797, 44.697, 45.059000000000005, 45.485, 46.07, 45.023, 44.695, 45.0, 45.601, 44.943, 45.213, 45.583999999999996, 45.537, 44.818, 45.346, 111.217, 45.998999999999995, 44.552, 45.121, 44.799, 45.661, 45.332, 45.335, 44.836, 45.217, 44.83, 45.638999999999996, 45.324000000000005, 45.673, 45.169000000000004, 45.099000000000004, 45.252, 46.095, 45.150999999999996, 44.919000000000004, 44.794, 45.727999999999994, 44.887, 45.849000000000004, 45.835, 45.204, 44.675, 43.971000000000004],
  "Optimizer durations [ms]": [56.367, 56.89, 57.264, 56.729, 56.349, 56.443, 57.022, 55.419, 55.483, 57.091, 57.46, 56.601, 56.861, 56.827, 57.189, 56.415, 124.04, 56.823, 56.334, 56.396, 57.055, 56.645, 56.345, 56.141, 56.596, 56.589, 56.622, 57.232, 57.628, 56.308, 56.338, 57.473, 57.229, 56.11, 57.007, 56.192, 56.578, 56.247, 57.116, 56.573, 57.155, 55.975, 56.186, 122.005, 57.703, 56.519, 56.578, 57.87, 56.283, 56.173, 56.601, 57.034, 57.449, 56.519, 56.244, 56.162, 56.754, 56.457, 56.722, 56.835, 56.787, 56.132, 56.963, 122.782, 57.389, 55.565, 56.795, 56.216, 57.126, 57.634, 56.766, 56.384, 56.656, 56.104, 56.92, 56.771, 56.951, 56.556, 56.8, 56.445, 57.544, 121.98, 56.318, 56.384, 57.089, 56.43, 57.372, 57.229, 56.533, 56.091, 55.317],
  "Optimizer iterations": 91,
  "Qubits": 9,
  "Total Algorithm duration [s]": 5.421,
  "Total Classic duration [s]": 1.1021689999999982,
  "Total Quantum duration [s]": 4.318831000000002,
  "Expectation Value": -11.1875,
  "Optimal Expectation Value": -12.0,
  "Optimizer params": [0.9495879512302003, 0.8858561600133215, 0.9859957172396742, 0.5932387132394337, 0.8992595894150238, 0.1392596717178257],
  "QPU": "9000001",
  "Problem": "MCP",
  "Size": 9,
  "P": 3,
  "Shots": 4096
}