{
  "Depth": 2.0,
  "Expectation Value": -1.746999979019165,
  "Job durations [ms]": [0.24934999601100571, 0.2377499986323528, 0.07865000225137919, 0.2175999979954213, 0.08914999853004701, 0.0886999987415038, 0.08710000111022964, 0.07519999780924991, 0.08259999958681874, 0.08539999907952733, 0.08085000081337057, 0.09064999903785065, 0.07365000055870041, 0.08910000178730115, 0.07505000030505471, 0.07389999882434495, 0.13005000073462725, 0.08600000001024455, 0.27195000438950956, 0.07935000030556694, 0.10040000051958486, 0.07885000013629906, 0.09015000250656158, 0.08135000098263845, 0.09620000128052197, 0.11905000428669155, 0.09349999891128391, 0.20310000400058925, 0.08644999979878776, 0.08879999950295314, 0.07660000119358301, 0.08460000026389025, 0.07719999848632142, 0.0810999990790151],
  "Optimal Expectation Value": -1.746999979019165,
  "Optimizer durations [ms]": [21.743, 17.741, 19.946, 17.599, 16.537, 22.121, 10.843, 21.542, 20.454, 22.039, 10.635, 20.466, 19.908, 20.853, 17.913, 19.476, 20.293, 18.304, 18.151, 19.299, 16.087, 14.266, 22.005, 18.276, 17.018, 17.87, 18.76, 16.932, 12.898, 21.229, 11.851, 16.219, 17.092, 19.563],
  "Optimizer iterations": 34,
  "Optimizer params": [1.0, 0.503004294449108, 1.0],
  "P": 0,
  "Problem": "RH",
  "QPU": "7000000",
  "Qubits": 3,
  "Shots": 4096,
  "Size": 3,
  "Total Algorithm duration [s]": 0.615,
  "Total Classic duration [s]": 0.6113005999925372,
  "Total Quantum duration [s]": 0.0036994000074628275
}
