{
  "Depth": 2.0,
  "Expectation Value": -1.746999979019165,
  "Job durations [ms]": [0.30679998599225655, 0.0792499995441176, 0.2662999977474101, 0.24629999461467378, 0.17630000729695894, 0.08420000085607171, 0.09095000132219866, 0.07969999933266081, 0.20030000450788066, 0.08900000102585182, 0.3001999939442612, 0.255899994954234, 0.09379999755765311, 0.08465000064461492, 0.2320500061614439, 0.09010000212583691, 0.07894999725976959, 0.09450000288779847, 0.08240000170189887, 0.08610000077169389, 0.0868500028445851, 0.081900001532631, 0.08304999937536195, 0.08324999726028182, 0.09349999891128391, 0.24624999787192792, 0.09004999810713343, 0.07470000127796084, 0.08974999946076423, 0.07964999895193614, 0.17685000057099387, 0.0776999986555893, 0.08730000263312832, 0.07555000047432259],
  "Optimal Expectation Value": -1.746999979019165,
  "Optimizer durations [ms]": [14.711, 18.028, 17.561, 17.707, 19.729, 14.624, 21.652, 21.765, 17.035, 21.937, 20.102, 13.722, 17.971, 18.173, 18.255, 19.261, 17.968, 16.611, 17.077, 20.947, 20.497, 15.504, 21.901, 19.447, 11.493, 16.328, 11.328, 22.123, 9.527, 21.902, 19.048, 18.406, 21.951, 19.232],
  "Optimizer iterations": 34,
  "Optimizer params": [1.0, 0.503004294449108, 1.0],
  "P": 0,
  "Problem": "RH",
  "QPU": "7000000",
  "Qubits": 3,
  "Shots": 4096,
  "Size": 3,
  "Total Algorithm duration [s]": 0.613,
  "Total Classic duration [s]": 0.6085559000118228,
  "Total Quantum duration [s]": 0.004444099988177186
}
