{
  "Depth": 2.0,
  "Expectation Value": -1.746999979019165,
  "Job durations [ms]": [0.19400000383029692, 0.08719999823370017, 0.08495000292896293, 0.0853000019560568, 0.17940000179805793, 0.07565000123577192, 0.07510000068577938, 0.09245000183000229, 0.0793999970483128, 0.09144999785348773, 0.08495000292896293, 0.24649999613757245, 0.09635000242269598, 0.08579999848734587, 0.07734999962849542, 0.10769999789772555, 0.0776999986555893, 0.08104999869829044, 0.08510000043315813, 0.2454999994370155, 0.09295000199927017, 0.0808000004326459, 0.07959999857121147, 0.09694999971543439, 0.10974999895552173, 0.12174999574199319, 0.22870000248076394, 0.07890000051702373, 0.0886999987415038, 0.0881000014487654, 0.09110000246437266, 0.08734999937587418, 0.07594999988214113, 0.07745000038994476],
  "Optimal Expectation Value": -1.746999979019165,
  "Optimizer durations [ms]": [21.527, 17.587, 15.812, 17.975, 20.175, 17.157, 21.706, 17.351, 21.791, 14.529, 13.406, 21.112, 21.769, 9.241, 13.587, 20.664, 18.501, 13.905, 15.12, 19.469, 17.593, 17.148, 15.348, 19.855, 21.769, 14.62, 21.387, 21.987, 17.512, 15.246, 21.602, 9.566, 20.194, 21.23],
  "Optimizer iterations": 34,
  "Optimizer params": [1.0, 0.503004294449108, 1.0],
  "P": 0,
  "Problem": "RH",
  "QPU": "7000000",
  "Qubits": 3,
  "Shots": 4096,
  "Size": 3,
  "Total Algorithm duration [s]": 0.607,
  "Total Classic duration [s]": 0.6033690499971562,
  "Total Quantum duration [s]": 0.003630950002843747
}
