{
  "Depth": 2.0,
  "Expectation Value": -1.746999979019165,
  "Job durations [ms]": [0.08915000216802582, 0.08619999789516442, 0.09644999954616651, 0.07365000055870041, 0.07569999797851779, 0.09264999971492216, 0.08284999785246328, 0.07795000055921264, 0.0899499973456841, 0.16915000014705583, 0.16120000145747326, 0.08075000005192123, 0.08144999810610898, 0.07279999772435986, 0.08170000000973232, 0.08280000110971741, 0.08944999717641622, 0.20679999943240546, 0.0884000000951346, 0.07660000119358301, 0.08400000297115184, 0.08489999891025946, 0.08774999878369272, 0.07779999941703863, 0.07639999967068434, 0.0774000000092201, 0.07689999983995222, 0.07750000077066943, 0.07700000060140155, 0.07660000119358301, 0.08424999759881757, 0.09399999908055179, 0.08460000026389025, 0.08370000068680383],
  "Optimal Expectation Value": -1.746999979019165,
  "Optimizer durations [ms]": [15.532, 18.476, 19.713, 16.569, 16.497, 14.42, 21.884, 19.244, 19.301, 13.511, 19.859, 15.943, 14.43, 17.961, 18.146, 21.266, 10.871, 19.12, 12.9, 21.873, 18.769, 17.489, 13.072, 15.8, 21.612, 21.859, 18.825, 15.263, 17.131, 17.834, 17.767, 21.664, 14.648, 19.17],
  "Optimizer iterations": 34,
  "Optimizer params": [1.0, 0.503004294449108, 1.0],
  "P": 0,
  "Problem": "RH",
  "QPU": "7000000",
  "Qubits": 3,
  "Shots": 4096,
  "Size": 3,
  "Total Algorithm duration [s]": 0.598,
  "Total Classic duration [s]": 0.5949015500100795,
  "Total Quantum duration [s]": 0.003098449989920482
}
