{
  "Depth": 2.0,
  "Expectation Value": -1.746999979019165,
  "Job durations [ms]": [0.0866999980644323, 0.07959999857121147, 0.08139999772538431, 0.21264999668346718, 0.13065000166534446, 0.07949999780976214, 0.24759999359957874, 0.08745000013732351, 0.07654999717487954, 0.10624999777064659, 0.07100000220816582, 0.07605000064359047, 0.09405000309925526, 0.07795000055921264, 0.19895000150427222, 0.08275000072899275, 0.13490000492311083, 0.07874999937484972, 0.07929999992484227, 0.07859999823267572, 0.08000000161700882, 0.0884000000951346, 0.08410000009462237, 0.15430000348715112, 0.2329499948245939, 0.09064999903785065, 0.0911999995878432, 0.07605000064359047, 0.07684999945922755, 0.0961500008997973, 0.07734999962849542, 0.09190000128000975, 0.0882499989529606, 0.1247000000148546],
  "Optimal Expectation Value": -1.746999979019165,
  "Optimizer durations [ms]": [16.315, 20.419, 20.148, 15.42, 18.969, 16.78, 17.917, 18.968, 19.344, 12.24, 16.742, 18.075, 13.959, 18.742, 15.642, 8.953, 21.146, 17.001, 17.831, 17.286, 18.565, 15.788, 15.42, 12.647, 21.547, 15.741, 15.69, 17.168, 18.958, 14.96, 15.898, 17.826, 19.369, 18.493],
  "Optimizer iterations": 34,
  "Optimizer params": [1.0, 0.503004294449108, 1.0],
  "P": 0,
  "Problem": "RH",
  "QPU": "7000000",
  "Qubits": 3,
  "Shots": 4096,
  "Size": 3,
  "Total Algorithm duration [s]": 0.58,
  "Total Classic duration [s]": 0.5763865000099758,
  "Total Quantum duration [s]": 0.0036134999900241382
}
