{
  "Depth": 2.0,
  "Expectation Value": -1.746999979019165,
  "Job durations [ms]": [0.09294999836129136, 0.08125000022118911, 0.09235000106855296, 0.08879999950295314, 0.10304999887011945, 0.07929999992484227, 0.19939999765483662, 0.08044999776757322, 0.08454999988316558, 0.08505000005243346, 0.2079499899991788, 0.08150000212481245, 0.25904999347403646, 0.08539999907952733, 0.09744999988470227, 0.20419999782461673, 0.07715000174357556, 0.08479999814881012, 0.09330000102636404, 0.09014999886858277, 0.07809999806340784, 0.0882499989529606, 0.07819999882485718, 0.08635000267531723, 0.07790000017848797, 0.07484999878215604, 0.08295000225189142, 0.227550004638033, 0.21660000493284315, 0.08125000022118911, 0.0884000000951346, 0.07505000030505471, 0.09969999882741831, 0.08945000081439503],
  "Optimal Expectation Value": -1.746999979019165,
  "Optimizer durations [ms]": [20.407, 19.894, 20.38, 21.981, 20.972, 18.593, 21.392, 17.262, 18.636, 21.988, 21.383, 21.785, 18.999, 18.633, 16.809, 21.207, 17.383, 13.85, 17.804, 12.235, 15.722, 16.377, 17.535, 13.183, 21.375, 15.315, 17.569, 17.958, 14.866, 18.051, 21.784, 19.877, 19.527, 21.069],
  "Optimizer iterations": 34,
  "Optimizer params": [1.0, 0.503004294449108, 1.0],
  "P": 0,
  "Problem": "RH",
  "QPU": "7000000",
  "Qubits": 3,
  "Shots": 4096,
  "Size": 3,
  "Total Algorithm duration [s]": 0.631,
  "Total Classic duration [s]": 0.6272873000149557,
  "Total Quantum duration [s]": 0.00371269998504431
}
