{
  "Circuit execution durations [ms]": [19.02604103088379, 18.145322799682617, 82.8702449798584, 18.244504928588867, 18.42212677001953, 18.29051971435547, 18.306255340576172, 18.191814422607422, 18.314123153686523, 18.280506134033203, 18.091201782226563, 18.053531646728516, 18.358230590820313, 18.27263832092285, 18.10002326965332, 18.169403076171875, 18.37301254272461, 18.305301666259766, 18.23258399963379, 18.286705017089844, 18.290042877197266, 18.23735237121582, 18.251895904541016, 18.29695701599121, 18.201351165771484, 18.088340759277344, 18.449783325195313, 18.280982971191406, 18.304109573364258, 18.226146697998047, 18.17631721496582, 18.094778060913086, 81.50267601013184, 18.33200454711914, 18.944501876831055, 18.242359161376953, 18.37611198425293, 18.245220184326172, 18.262624740600586, 18.226146697998047, 18.27692985534668, 18.552541732788086, 18.386125564575195, 18.169403076171875, 18.468379974365234, 18.28765869140625, 18.373727798461914, 18.234968185424805, 18.27836036682129, 18.220901489257813, 18.261432647705078, 18.055200576782227, 18.40996742248535, 18.114089965820313, 18.662214279174805, 18.05853843688965, 18.45526695251465, 18.029212951660156, 18.23878288269043, 80.77764511108398, 18.064022064208984, 18.284320831298828, 18.14103126525879, 18.05710792541504, 18.256664276123047, 18.1884765625, 18.079042434692383, 18.15629005432129, 18.229246139526367, 17.953872680664063, 18.277645111083984, 18.279552459716797, 18.148183822631836, 18.24021339416504, 18.2187557220459, 18.226146697998047, 18.17154884338379, 18.10765266418457, 18.214941024780273, 18.36538314819336, 18.164873123168945, 18.118619918823242, 18.050670623779297, 18.26620101928711, 18.065214157104492, 18.20826530456543, 18.3718204498291, 18.34702491760254, 18.76521110534668, 18.36872100830078, 18.042564392089844, 18.500804901123047, 18.323421478271484, 18.232345581054688, 18.16701889038086, 17.963171005249023, 18.2645320892334, 18.146753311157227, 18.14556121826172, 18.432140350341797, 18.161296844482422, 18.233299255371094, 18.2034969329834, 18.269777297973633, 18.149137496948242, 18.074512481689453, 18.0513858795166, 18.019914627075195, 18.01276206970215, 18.210887908935547, 18.301010131835938, 18.24188232421875, 18.227338790893555, 18.2497501373291, 18.014192581176758, 18.054485321044922, 18.18060874938965, 18.31340789794922, 18.102645874023438, 18.091201782226563, 18.169641494750977, 18.300771713256836, 18.222332000732422, 17.995834350585938, 18.11504364013672, 18.294095993041992, 18.12148094177246, 18.182992935180664, 18.197059631347656, 18.10455322265625, 17.95673370361328, 18.05591583251953],
  "Depth": 41.0,
  "Expectation Value": -3.95263671875,
  "Optimal Expectation Value": -4.0,
  "Optimizer durations [ms]": [22.103, 21.054, 85.866, 21.192, 21.292, 21.262, 21.254, 21.131, 21.263, 21.285, 21.029, 21.002, 21.332, 21.278, 21.106, 21.035, 21.338, 21.231, 21.112, 21.21, 21.259, 21.172, 21.169, 21.202, 21.152, 21.074, 21.446, 21.15, 21.206, 21.153, 21.146, 21.056, 84.595, 21.415, 21.928, 21.234, 21.293, 21.209, 21.177, 21.076, 21.247, 21.581, 21.517, 21.111, 21.346, 21.31, 21.407, 21.135, 21.222, 21.175, 21.14, 20.99, 21.347, 21.027, 21.566, 20.93, 21.326, 20.951, 21.158, 83.942, 21.121, 21.232, 21.16, 21.032, 21.276, 21.171, 21.001, 21.062, 21.07, 20.929, 21.228, 21.335, 21.117, 21.203, 21.199, 21.129, 21.088, 21.1, 21.17, 21.341, 21.075, 21.025, 20.953, 21.153, 20.958, 21.165, 21.294, 21.424, 21.711, 21.31, 20.924, 21.382, 21.306, 21.207, 21.083, 20.875, 21.153, 21.076, 21.068, 21.317, 21.059, 21.23, 21.142, 21.245, 21.208, 20.983, 21.05, 20.882, 20.914, 21.172, 21.296, 21.178, 21.158, 21.173, 20.966, 20.953, 21.071, 21.2, 21.006, 21.094, 21.02, 21.293, 21.202, 20.933, 20.961, 21.236, 21.014, 21.066, 21.126, 21.08, 20.986, 21.111],
  "Optimizer iterations": 132,
  "Optimizer params": [0.20281923780003608, 0.11875852539698963, 0.5019502343192703, 0.9176708496825242, 0.9842223633478354, 0.9293994077735395],
  "P": 3,
  "Problem": "MCP",
  "QJob durations [ms]": [19.02604103088379, 18.145322799682617, 82.8702449798584, 18.244504928588867, 18.42212677001953, 18.29051971435547, 18.306255340576172, 18.191814422607422, 18.314123153686523, 18.280506134033203, 18.091201782226563, 18.053531646728516, 18.358230590820313, 18.27263832092285, 18.10002326965332, 18.169403076171875, 18.37301254272461, 18.305301666259766, 18.23258399963379, 18.286705017089844, 18.290042877197266, 18.23735237121582, 18.251895904541016, 18.29695701599121, 18.201351165771484, 18.088340759277344, 18.449783325195313, 18.280982971191406, 18.304109573364258, 18.226146697998047, 18.17631721496582, 18.094778060913086, 81.50267601013184, 18.33200454711914, 18.944501876831055, 18.242359161376953, 18.37611198425293, 18.245220184326172, 18.262624740600586, 18.226146697998047, 18.27692985534668, 18.552541732788086, 18.386125564575195, 18.169403076171875, 18.468379974365234, 18.28765869140625, 18.373727798461914, 18.234968185424805, 18.27836036682129, 18.220901489257813, 18.261432647705078, 18.055200576782227, 18.40996742248535, 18.114089965820313, 18.662214279174805, 18.05853843688965, 18.45526695251465, 18.029212951660156, 18.23878288269043, 80.77764511108398, 18.064022064208984, 18.284320831298828, 18.14103126525879, 18.05710792541504, 18.256664276123047, 18.1884765625, 18.079042434692383, 18.15629005432129, 18.229246139526367, 17.953872680664063, 18.277645111083984, 18.279552459716797, 18.148183822631836, 18.24021339416504, 18.2187557220459, 18.226146697998047, 18.17154884338379, 18.10765266418457, 18.214941024780273, 18.36538314819336, 18.164873123168945, 18.118619918823242, 18.050670623779297, 18.26620101928711, 18.065214157104492, 18.20826530456543, 18.3718204498291, 18.34702491760254, 18.76521110534668, 18.36872100830078, 18.042564392089844, 18.500804901123047, 18.323421478271484, 18.232345581054688, 18.16701889038086, 17.963171005249023, 18.2645320892334, 18.146753311157227, 18.14556121826172, 18.432140350341797, 18.161296844482422, 18.233299255371094, 18.2034969329834, 18.269777297973633, 18.149137496948242, 18.074512481689453, 18.0513858795166, 18.019914627075195, 18.01276206970215, 18.210887908935547, 18.301010131835938, 18.24188232421875, 18.227338790893555, 18.2497501373291, 18.014192581176758, 18.054485321044922, 18.18060874938965, 18.31340789794922, 18.102645874023438, 18.091201782226563, 18.169641494750977, 18.300771713256836, 18.222332000732422, 17.995834350585938, 18.11504364013672, 18.294095993041992, 18.12148094177246, 18.182992935180664, 18.197059631347656, 18.10455322265625, 17.95673370361328, 18.05591583251953],
  "QPU": "9000001",
  "Qubits": 4,
  "Queue durations [ms]": [0.0, 0.0, 0.0, 0.0, 0.0, 0.0, 0.0, 0.0, 0.0, 0.0, 0.0, 0.0, 0.0, 0.0, 0.0, 0.0, 0.0, 0.0, 0.0, 0.0, 0.0, 0.0, 0.0, 0.0, 0.0, 0.0, 0.0, 0.0, 0.0, 0.0, 0.0, 0.0, 0.0, 0.0, 0.0, 0.0, 0.0, 0.0, 0.0, 0.0, 0.0, 0.0, 0.0, 0.0, 0.0, 0.0, 0.0, 0.0, 0.0, 0.0, 0.0, 0.0, 0.0, 0.0, 0.0, 0.0, 0.0, 0.0, 0.0, 0.0, 0.0, 0.0, 0.0, 0.0, 0.0, 0.0, 0.0, 0.0, 0.0, 0.0, 0.0, 0.0, 0.0, 0.0, 0.0, 0.0, 0.0, 0.0, 0.0, 0.0, 0.0, 0.0, 0.0, 0.0, 0.0, 0.0, 0.0, 0.0, 0.0, 0.0, 0.0, 0.0, 0.0, 0.0, 0.0, 0.0, 0.0, 0.0, 0.0, 0.0, 0.0, 0.0, 0.0, 0.0, 0.0, 0.0, 0.0, 0.0, 0.0, 0.0, 0.0, 0.0, 0.0, 0.0, 0.0, 0.0, 0.0, 0.0, 0.0, 0.0, 0.0, 0.0, 0.0, 0.0, 0.0, 0.0, 0.0, 0.0, 0.0, 0.0, 0.0, 0.0],
  "Shots": 4096,
  "Size": 4,
  "Total Algorithm duration [s]": 2.986,
  "Total Classic duration [s]": 0.38884037590026876,
  "Total Quantum duration [s]": 2.5971596240997314
}
