{
  "Depth": 384.0,
  "Job durations [ms]": [85.549, 82.303, 87.586, 87.727, 191.839, 91.422, 80.694, 87.727, 82.761, 97.938, 92.62299999999999, 80.982, 87.15100000000001, 82.91999999999999, 170.931, 100.804, 101.869, 91.196, 93.068, 86.857, 89.247, 86.155, 86.631, 176.501, 83.471, 86.904, 82.58699999999999, 85.819, 80.18599999999999, 89.827, 85.271, 89.832, 84.841, 162.582, 86.975, 80.455, 86.982, 92.754, 82.488, 101.33200000000001, 98.70700000000001, 99.33699999999999, 109.58900000000001, 189.421, 84.108, 90.619, 83.88900000000001, 90.762, 81.795, 87.432, 103.97000000000001, 81.261, 162.29399999999998, 93.97800000000001, 86.451, 99.386, 88.024, 97.57499999999999, 80.39399999999999, 92.217, 90.406, 93.676, 92.459, 97.508, 93.614, 97.696, 82.052, 89.932, 83.11, 86.101, 91.898, 87.072, 185.881, 101.513, 92.458, 94.443],
  "Optimizer durations [ms]": [106.868, 103.645, 109.109, 108.845, 213.353, 112.436, 100.565, 107.842, 103.397, 118.853, 113.682, 101.941, 107.531, 103.637, 191.754, 125.155, 129.858, 113.028, 113.611, 113.068, 110.662, 106.886, 106.396, 197.195, 104.112, 107.54, 103.602, 106.966, 100.422, 109.771, 106.152, 109.561, 105.394, 188.583, 108.728, 100.404, 116.26, 114.464, 104.233, 127.547, 124.445, 122.622, 130.492, 211.087, 106.206, 111.549, 105.622, 114.025, 103.041, 109.7, 127.016, 101.931, 182.459, 115.434, 110.816, 121.913, 109.871, 121.644, 100.998, 113.718, 113.818, 119.938, 113.347, 197.156, 115.657, 119.613, 103.056, 113.246, 105.356, 112.486, 118.799, 110.132, 207.349, 123.355, 113.601, 118.12],
  "Optimizer iterations": 76,
  "Qubits": 10,
  "Total Algorithm duration [s]": 9.182,
  "Total Classic duration [s]": 1.7561850000000012,
  "Total Quantum duration [s]": 7.425814999999999,
  "Expectation Value": -3.178955078125,
  "Optimal Expectation Value": -4.0,
  "Optimizer params": [0.18103374485478216, 0.3005141279746473, 0.5909052113789344, 0.3727188300473027, 0.14059431432323702, 0.9052498781773785],
  "QPU": "9000001",
  "Problem": "DSP",
  "Size": 5,
  "P": 3,
  "Shots": 4096
}