{
  "Circuit execution durations [ms]": [1.7249999999999999, 1.7313, 1.7463, 1.7171, 1.7204, 1.6916, 1.9091, 1.6858000000000002, 1.7207, 1.7113, 1.7109, 1.7266, 1.7063, 1.7231, 1.7036, 1.7046, 1.7458, 1.7227, 1.7080000000000002, 1.7097, 1.7209, 1.7133999999999998, 1.7110999999999998, 1.7168, 1.7123, 1.7133, 1.7222, 1.701, 1.7084, 1.7765000000000002, 1.7222, 1.7181, 1.7187000000000001, 1.75, 1.7168, 1.7394, 1.7148, 1.7218, 1.7130999999999998, 1.7002, 1.6988, 1.7067, 1.7182, 1.738, 1.6972999999999998, 1.8921999999999999, 1.7059, 1.7664, 1.7076, 1.7278, 1.7144000000000001, 1.7442, 1.7260000000000002, 1.7338, 1.7402, 1.7326, 1.7126000000000001, 1.7281, 1.7239, 1.7470999999999999, 1.7175, 1.7629, 1.7277, 1.724, 1.7206000000000001, 1.7516, 1.7074, 1.7114, 1.7459, 1.7243, 1.7175999999999998, 1.7175, 1.7168, 1.7474, 1.7463, 1.9963, 1.7236, 1.9350999999999998, 2.0387, 1.6106, 2.0198, 2.0547, 2.0326, 2.0458, 2.0583],
  "Depth": 239.0,
  "Expectation Value": -17.791303634643555,
  "Optimal Expectation Value": -18.0,
  "Optimizer durations [ms]": [19.431, 19.311, 19.341, 24.029, 19.168, 18.877, 21.022, 28.411, 19.098, 18.958, 19.049, 19.105, 19.079, 19.905, 18.74, 19.073, 19.294, 18.971, 18.786, 18.877, 19.136, 19.06, 19.129, 18.988, 18.795, 19.083, 19.109, 18.955, 18.996, 19.643, 19.178, 19.165, 19.005, 19.299, 19.08, 19.321, 19.037, 19.019, 18.799, 18.729, 18.68, 18.932, 18.863, 19.247, 28.398, 20.77, 18.946, 19.637, 19.065, 19.304, 19.042, 19.408, 19.217, 19.181, 19.142, 19.019, 19.023, 19.044, 19.174, 19.241, 18.999, 19.465, 19.115, 19.027, 19.002, 19.227, 19.089, 18.834, 19.212, 19.048, 19.037, 19.079, 19.008, 19.209, 19.291, 21.903, 20.632, 21.634, 23.152, 27.074, 22.476, 22.436, 22.62, 22.512, 22.966],
  "Optimizer iterations": 85,
  "Optimizer params": [0.5547130469384505, 0.6335957422804261, 0.30460343369084003, 0.939968994765329, 0.4373435830352004, 0.15410850473367674],
  "P": 3,
  "Problem": "MCP",
  "QJob durations [ms]": [1.7249999999999999, 1.7313, 1.7463, 1.7171, 1.7204, 1.6916, 1.9091, 1.6858000000000002, 1.7207, 1.7113, 1.7109, 1.7266, 1.7063, 1.7231, 1.7036, 1.7046, 1.7458, 1.7227, 1.7080000000000002, 1.7097, 1.7209, 1.7133999999999998, 1.7110999999999998, 1.7168, 1.7123, 1.7133, 1.7222, 1.701, 1.7084, 1.7765000000000002, 1.7222, 1.7181, 1.7187000000000001, 1.75, 1.7168, 1.7394, 1.7148, 1.7218, 1.7130999999999998, 1.7002, 1.6988, 1.7067, 1.7182, 1.738, 1.6972999999999998, 1.8921999999999999, 1.7059, 1.7664, 1.7076, 1.7278, 1.7144000000000001, 1.7442, 1.7260000000000002, 1.7338, 1.7402, 1.7326, 1.7126000000000001, 1.7281, 1.7239, 1.7470999999999999, 1.7175, 1.7629, 1.7277, 1.724, 1.7206000000000001, 1.7516, 1.7074, 1.7114, 1.7459, 1.7243, 1.7175999999999998, 1.7175, 1.7168, 1.7474, 1.7463, 1.9963, 1.7236, 1.9350999999999998, 2.0387, 1.6106, 2.0198, 2.0547, 2.0326, 2.0458, 2.0583],
  "QPU": "7000000",
  "Qubits": 13,
  "Queue durations [ms]": [0.0, 0.0, 0.0, 0.0, 0.0, 0.0, 0.0, 0.0, 0.0, 0.0, 0.0, 0.0, 0.0, 0.0, 0.0, 0.0, 0.0, 0.0, 0.0, 0.0, 0.0, 0.0, 0.0, 0.0, 0.0, 0.0, 0.0, 0.0, 0.0, 0.0, 0.0, 0.0, 0.0, 0.0, 0.0, 0.0, 0.0, 0.0, 0.0, 0.0, 0.0, 0.0, 0.0, 0.0, 0.0, 0.0, 0.0, 0.0, 0.0, 0.0, 0.0, 0.0, 0.0, 0.0, 0.0, 0.0, 0.0, 0.0, 0.0, 0.0, 0.0, 0.0, 0.0, 0.0, 0.0, 0.0, 0.0, 0.0, 0.0, 0.0, 0.0, 0.0, 0.0, 0.0, 0.0, 0.0, 0.0, 0.0, 0.0, 0.0, 0.0, 0.0, 0.0, 0.0, 0.0],
  "Shots": 4096,
  "Size": 13,
  "Total Algorithm duration [s]": 1.687,
  "Total Classic duration [s]": 1.5379529,
  "Total Quantum duration [s]": 0.14904710000000002
}
