{
  "Circuit execution durations [ms]": [1.739, 1.6882, 1.7007999999999999, 1.7129, 1.7129999999999999, 1.7331, 1.7665, 1.7727000000000002, 1.7257, 1.7035, 1.7627000000000002, 2.1422, 1.7975, 1.7324, 1.7106999999999999, 1.7130999999999998, 1.7228, 1.6963, 1.7086, 1.9924000000000002, 1.7315, 1.7256, 1.7256, 1.7174, 1.7451999999999999, 1.7383, 1.7030999999999998, 1.7106999999999999, 1.7098, 1.7177, 1.7431, 1.7282, 1.7083000000000002, 1.7193, 1.7238, 1.7066, 1.7286000000000001, 1.7175999999999998, 1.9156, 1.7290999999999999, 1.7209, 1.694, 1.7171, 1.7166, 1.7299, 1.6998, 1.7195, 1.7216, 1.734, 1.7025000000000001, 1.7119, 1.7294999999999998, 1.7064000000000001, 1.7027999999999999, 1.7687, 1.7238, 1.7834, 1.7341, 1.7476, 1.6979, 1.7304, 1.7043, 1.7112, 1.9291, 1.6975, 1.73, 1.9686000000000001, 1.7223, 1.6946, 1.7988, 1.7167000000000001, 1.7191, 1.7377, 1.9957],
  "Depth": 239.0,
  "Expectation Value": -14.60912036895752,
  "Optimal Expectation Value": -18.0,
  "Optimizer durations [ms]": [19.443, 18.718, 18.988, 19.018, 19.007, 19.283, 19.39, 19.602, 19.141, 18.914, 19.63, 23.392, 23.413, 19.244, 18.972, 19.045, 19.204, 18.833, 18.802, 22.241, 19.107, 19.173, 19.257, 18.883, 19.132, 19.257, 18.927, 18.942, 19.058, 19.106, 19.15, 19.263, 18.791, 19.015, 19.009, 19.096, 19.29, 19.205, 21.074, 19.168, 18.885, 18.793, 18.899, 18.968, 19.218, 18.948, 18.971, 19.165, 19.08, 18.802, 19.015, 19.142, 18.945, 18.941, 19.611, 18.941, 20.296, 19.03, 19.348, 18.704, 19.216, 19.058, 18.804, 21.086, 18.989, 22.752, 21.372, 19.062, 18.826, 19.919, 22.249, 19.115, 19.271, 21.884],
  "Optimizer iterations": 74,
  "Optimizer params": [0.1947355832093865, 0.7771758448117684, 0.9163247993456, 0.9286970144130573, 0.39000343741282084, 0.9133731465950318],
  "P": 3,
  "Problem": "MCP",
  "QJob durations [ms]": [1.739, 1.6882, 1.7007999999999999, 1.7129, 1.7129999999999999, 1.7331, 1.7665, 1.7727000000000002, 1.7257, 1.7035, 1.7627000000000002, 2.1422, 1.7975, 1.7324, 1.7106999999999999, 1.7130999999999998, 1.7228, 1.6963, 1.7086, 1.9924000000000002, 1.7315, 1.7256, 1.7256, 1.7174, 1.7451999999999999, 1.7383, 1.7030999999999998, 1.7106999999999999, 1.7098, 1.7177, 1.7431, 1.7282, 1.7083000000000002, 1.7193, 1.7238, 1.7066, 1.7286000000000001, 1.7175999999999998, 1.9156, 1.7290999999999999, 1.7209, 1.694, 1.7171, 1.7166, 1.7299, 1.6998, 1.7195, 1.7216, 1.734, 1.7025000000000001, 1.7119, 1.7294999999999998, 1.7064000000000001, 1.7027999999999999, 1.7687, 1.7238, 1.7834, 1.7341, 1.7476, 1.6979, 1.7304, 1.7043, 1.7112, 1.9291, 1.6975, 1.73, 1.9686000000000001, 1.7223, 1.6946, 1.7988, 1.7167000000000001, 1.7191, 1.7377, 1.9957],
  "QPU": "7000000",
  "Qubits": 13,
  "Queue durations [ms]": [0.0, 0.0, 0.0, 0.0, 0.0, 0.0, 0.0, 0.0, 0.0, 0.0, 0.0, 0.0, 0.0, 0.0, 0.0, 0.0, 0.0, 0.0, 0.0, 0.0, 0.0, 0.0, 0.0, 0.0, 0.0, 0.0, 0.0, 0.0, 0.0, 0.0, 0.0, 0.0, 0.0, 0.0, 0.0, 0.0, 0.0, 0.0, 0.0, 0.0, 0.0, 0.0, 0.0, 0.0, 0.0, 0.0, 0.0, 0.0, 0.0, 0.0, 0.0, 0.0, 0.0, 0.0, 0.0, 0.0, 0.0, 0.0, 0.0, 0.0, 0.0, 0.0, 0.0, 0.0, 0.0, 0.0, 0.0, 0.0, 0.0, 0.0, 0.0, 0.0, 0.0, 0.0],
  "Shots": 4096,
  "Size": 13,
  "Total Algorithm duration [s]": 1.441,
  "Total Classic duration [s]": 1.3118028000000002,
  "Total Quantum duration [s]": 0.1291972
}
