{
  "Circuit execution durations [ms]": [1.754, 1.7183000000000002, 1.7631000000000001, 1.6981, 1.7138, 1.7152, 1.7352999999999998, 1.7149, 1.7026999999999999, 1.7112, 1.6904000000000001, 1.8308, 1.7232, 1.7228, 1.7002, 1.7116, 1.7103000000000002, 1.7184, 1.7399, 1.7154, 1.7395, 1.7328000000000001, 1.7721, 1.8329, 1.9707999999999999, 1.7301, 1.7810000000000001, 1.7226, 1.7193, 1.7251, 1.7062, 1.7128, 1.729, 1.7237, 1.7377, 1.7129, 1.7259, 1.7345, 1.7185, 1.6808999999999998, 1.7252999999999998, 1.7133, 1.724, 1.7128, 1.7125000000000001, 1.7127, 1.7213, 1.6845, 1.7231, 1.7116, 1.7095, 1.7106999999999999, 1.7278, 1.7191, 1.7313999999999998, 1.718, 1.6846, 1.8229, 1.7115, 1.9200000000000002, 1.7274, 1.7098, 1.7062, 1.7183000000000002, 1.7163, 1.7068999999999999, 1.7104],
  "Depth": 239.0,
  "Expectation Value": -17.339622497558594,
  "Optimal Expectation Value": -18.0,
  "Optimizer durations [ms]": [19.749, 18.978, 19.465, 18.798, 18.979, 18.818, 19.372, 18.867, 18.844, 19.033, 18.874, 20.011, 19.23, 19.193, 18.741, 19.025, 19.042, 18.998, 19.1, 19.011, 19.161, 19.094, 19.675, 24.991, 22.022, 19.188, 19.576, 19.095, 18.97, 19.179, 19.119, 19.031, 19.18, 18.993, 19.3, 18.872, 19.197, 19.348, 18.885, 23.5, 19.099, 19.119, 19.014, 18.995, 19.135, 19.147, 18.887, 18.662, 19.15, 18.821, 18.838, 18.982, 19.249, 19.076, 19.151, 19.091, 18.826, 20.1, 19.112, 21.124, 19.253, 19.091, 18.952, 19.021, 19.076, 18.774, 18.977],
  "Optimizer iterations": 67,
  "Optimizer params": [0.5157120245916282, 0.7772651061427591, 0.9366356965775308, 0.7890467278010379, 0.08265766729027378, 0.34173503709148795],
  "P": 3,
  "Problem": "MCP",
  "QJob durations [ms]": [1.754, 1.7183000000000002, 1.7631000000000001, 1.6981, 1.7138, 1.7152, 1.7352999999999998, 1.7149, 1.7026999999999999, 1.7112, 1.6904000000000001, 1.8308, 1.7232, 1.7228, 1.7002, 1.7116, 1.7103000000000002, 1.7184, 1.7399, 1.7154, 1.7395, 1.7328000000000001, 1.7721, 1.8329, 1.9707999999999999, 1.7301, 1.7810000000000001, 1.7226, 1.7193, 1.7251, 1.7062, 1.7128, 1.729, 1.7237, 1.7377, 1.7129, 1.7259, 1.7345, 1.7185, 1.6808999999999998, 1.7252999999999998, 1.7133, 1.724, 1.7128, 1.7125000000000001, 1.7127, 1.7213, 1.6845, 1.7231, 1.7116, 1.7095, 1.7106999999999999, 1.7278, 1.7191, 1.7313999999999998, 1.718, 1.6846, 1.8229, 1.7115, 1.9200000000000002, 1.7274, 1.7098, 1.7062, 1.7183000000000002, 1.7163, 1.7068999999999999, 1.7104],
  "QPU": "7000000",
  "Qubits": 13,
  "Queue durations [ms]": [0.0, 0.0, 0.0, 0.0, 0.0, 0.0, 0.0, 0.0, 0.0, 0.0, 0.0, 0.0, 0.0, 0.0, 0.0, 0.0, 0.0, 0.0, 0.0, 0.0, 0.0, 0.0, 0.0, 0.0, 0.0, 0.0, 0.0, 0.0, 0.0, 0.0, 0.0, 0.0, 0.0, 0.0, 0.0, 0.0, 0.0, 0.0, 0.0, 0.0, 0.0, 0.0, 0.0, 0.0, 0.0, 0.0, 0.0, 0.0, 0.0, 0.0, 0.0, 0.0, 0.0, 0.0, 0.0, 0.0, 0.0, 0.0, 0.0, 0.0, 0.0, 0.0, 0.0, 0.0, 0.0, 0.0, 0.0],
  "Shots": 4096,
  "Size": 13,
  "Total Algorithm duration [s]": 1.295,
  "Total Classic duration [s]": 1.1790102,
  "Total Quantum duration [s]": 0.11598980000000003
}
