{
  "Circuit execution durations [ms]": [1.7196, 1.7052, 1.6967, 1.7228, 1.706, 1.7462, 1.7355999999999998, 1.7339, 1.7106000000000001, 1.722, 1.7198, 1.7236, 1.7304, 1.7345, 1.7374999999999998, 1.7313, 1.7413, 1.7237, 1.7762, 1.7245, 1.7465, 1.7351, 1.7181, 1.7207999999999999, 1.7316, 1.727, 1.7275, 1.7152999999999998, 1.7301, 1.7193, 1.7403, 1.7135, 2.0211, 1.8469, 1.7172, 1.7403, 1.759, 1.7457, 1.7277, 1.7443, 1.7232, 1.7418, 1.724, 1.7319, 1.7122000000000002, 1.7279, 1.7049, 1.7294999999999998, 1.7201, 1.9177, 1.7343, 1.7308, 1.7405000000000002, 1.7525, 1.7490999999999999, 1.7063, 1.7259, 1.7726, 1.7201, 1.7003000000000001, 1.7429, 1.7309999999999999, 1.7327, 1.7274, 1.7065, 1.7332999999999998, 1.7334, 1.7736, 1.7672],
  "Depth": 239.0,
  "Expectation Value": -17.080459594726563,
  "Optimal Expectation Value": -18.0,
  "Optimizer durations [ms]": [19.4, 19.027, 18.919, 19.086, 18.865, 19.291, 19.16, 19.071, 18.85, 19.158, 18.97, 18.931, 19.303, 19.261, 19.114, 19.198, 19.29, 19.106, 19.515, 18.959, 19.36, 19.217, 19.136, 18.907, 19.144, 19.169, 19.32, 18.972, 19.317, 19.171, 19.42, 19.249, 23.476, 26.011, 19.11, 19.336, 19.498, 19.401, 18.982, 19.239, 19.307, 19.167, 19.207, 19.173, 18.842, 19.143, 18.936, 19.009, 18.967, 20.88, 19.263, 19.097, 19.27, 19.227, 19.408, 18.825, 19.11, 19.641, 19.185, 18.702, 19.243, 19.153, 19.317, 19.044, 19.049, 19.099, 19.172, 19.66, 19.554],
  "Optimizer iterations": 69,
  "Optimizer params": [0.7412388920783997, 0.13158918917179105, 0.6871718168258667, 0.9753473401069641, 0.9803987294435501, 0.8593603372573853],
  "P": 3,
  "Problem": "MCP",
  "QJob durations [ms]": [1.7196, 1.7052, 1.6967, 1.7228, 1.706, 1.7462, 1.7355999999999998, 1.7339, 1.7106000000000001, 1.722, 1.7198, 1.7236, 1.7304, 1.7345, 1.7374999999999998, 1.7313, 1.7413, 1.7237, 1.7762, 1.7245, 1.7465, 1.7351, 1.7181, 1.7207999999999999, 1.7316, 1.727, 1.7275, 1.7152999999999998, 1.7301, 1.7193, 1.7403, 1.7135, 2.0211, 1.8469, 1.7172, 1.7403, 1.759, 1.7457, 1.7277, 1.7443, 1.7232, 1.7418, 1.724, 1.7319, 1.7122000000000002, 1.7279, 1.7049, 1.7294999999999998, 1.7201, 1.9177, 1.7343, 1.7308, 1.7405000000000002, 1.7525, 1.7490999999999999, 1.7063, 1.7259, 1.7726, 1.7201, 1.7003000000000001, 1.7429, 1.7309999999999999, 1.7327, 1.7274, 1.7065, 1.7332999999999998, 1.7334, 1.7736, 1.7672],
  "QPU": "7000000",
  "Qubits": 13,
  "Queue durations [ms]": [0.0, 0.0, 0.0, 0.0, 0.0, 0.0, 0.0, 0.0, 0.0, 0.0, 0.0, 0.0, 0.0, 0.0, 0.0, 0.0, 0.0, 0.0, 0.0, 0.0, 0.0, 0.0, 0.0, 0.0, 0.0, 0.0, 0.0, 0.0, 0.0, 0.0, 0.0, 0.0, 0.0, 0.0, 0.0, 0.0, 0.0, 0.0, 0.0, 0.0, 0.0, 0.0, 0.0, 0.0, 0.0, 0.0, 0.0, 0.0, 0.0, 0.0, 0.0, 0.0, 0.0, 0.0, 0.0, 0.0, 0.0, 0.0, 0.0, 0.0, 0.0, 0.0, 0.0, 0.0, 0.0, 0.0, 0.0, 0.0, 0.0],
  "Shots": 4096,
  "Size": 13,
  "Total Algorithm duration [s]": 1.335,
  "Total Classic duration [s]": 1.2150177,
  "Total Quantum duration [s]": 0.11998229999999999
}
