{
  "Circuit execution durations [ms]": [1.7415, 1.7222, 1.7276, 1.7109, 1.7112, 1.7395, 1.7277, 1.722, 1.7525, 1.7487, 1.711, 1.7325000000000002, 1.7116, 1.6971, 1.7174, 1.7309, 1.7753999999999999, 1.6997, 1.7516999999999998, 1.7233999999999998, 1.7358, 1.7228, 1.7157, 1.6489, 1.7227, 1.7043, 1.7227, 1.74, 1.7316, 1.7049999999999998, 1.9163, 1.794, 1.7723, 1.7158, 1.7247000000000001, 1.7135, 1.7095, 1.7554, 1.6876, 1.706, 1.7902, 1.7198, 1.7495, 1.7338, 1.7332999999999998, 1.7366000000000001, 1.7305000000000001, 1.7165, 1.7203, 1.7072999999999998, 1.7236, 1.7049999999999998, 1.7178, 1.7191999999999998, 1.7387, 1.7053, 1.7123, 1.7123, 1.6915, 1.7159, 1.7225000000000001, 1.736, 1.7106000000000001, 1.7242, 1.6846, 1.7317, 1.7171, 1.7132, 1.6896, 1.9869, 1.7233999999999998, 1.7894, 1.6957, 1.7215],
  "Depth": 239.0,
  "Expectation Value": -15.901638984680176,
  "Optimal Expectation Value": -18.0,
  "Optimizer durations [ms]": [19.588, 18.938, 19.13, 18.809, 18.791, 19.385, 19.074, 19.014, 19.213, 19.274, 18.981, 19.276, 19.091, 18.694, 19.031, 19.361, 19.592, 18.951, 25.794, 19.107, 19.161, 19.144, 19.022, 23.248, 19.017, 18.968, 19.139, 22.185, 19.133, 18.77, 21.111, 24.815, 19.546, 18.942, 19.043, 19.073, 18.826, 19.232, 18.707, 18.992, 19.674, 19.184, 19.318, 19.418, 19.123, 19.317, 19.121, 18.99, 19.152, 18.917, 19.069, 18.984, 18.935, 18.991, 19.38, 19.066, 18.929, 18.865, 18.782, 18.88, 19.042, 19.404, 18.947, 19.211, 18.633, 19.215, 18.989, 19.264, 23.645, 25.497, 19.121, 19.859, 18.799, 19.678],
  "Optimizer iterations": 74,
  "Optimizer params": [0.4555234477698543, 0.10663317935855635, 0.6839111881000368, 0.7504923773290507, 0.07173939614980672, 0.15607818567532705],
  "P": 3,
  "Problem": "MCP",
  "QJob durations [ms]": [1.7415, 1.7222, 1.7276, 1.7109, 1.7112, 1.7395, 1.7277, 1.722, 1.7525, 1.7487, 1.711, 1.7325000000000002, 1.7116, 1.6971, 1.7174, 1.7309, 1.7753999999999999, 1.6997, 1.7516999999999998, 1.7233999999999998, 1.7358, 1.7228, 1.7157, 1.6489, 1.7227, 1.7043, 1.7227, 1.74, 1.7316, 1.7049999999999998, 1.9163, 1.794, 1.7723, 1.7158, 1.7247000000000001, 1.7135, 1.7095, 1.7554, 1.6876, 1.706, 1.7902, 1.7198, 1.7495, 1.7338, 1.7332999999999998, 1.7366000000000001, 1.7305000000000001, 1.7165, 1.7203, 1.7072999999999998, 1.7236, 1.7049999999999998, 1.7178, 1.7191999999999998, 1.7387, 1.7053, 1.7123, 1.7123, 1.6915, 1.7159, 1.7225000000000001, 1.736, 1.7106000000000001, 1.7242, 1.6846, 1.7317, 1.7171, 1.7132, 1.6896, 1.9869, 1.7233999999999998, 1.7894, 1.6957, 1.7215],
  "QPU": "7000000",
  "Qubits": 13,
  "Queue durations [ms]": [0.0, 0.0, 0.0, 0.0, 0.0, 0.0, 0.0, 0.0, 0.0, 0.0, 0.0, 0.0, 0.0, 0.0, 0.0, 0.0, 0.0, 0.0, 0.0, 0.0, 0.0, 0.0, 0.0, 0.0, 0.0, 0.0, 0.0, 0.0, 0.0, 0.0, 0.0, 0.0, 0.0, 0.0, 0.0, 0.0, 0.0, 0.0, 0.0, 0.0, 0.0, 0.0, 0.0, 0.0, 0.0, 0.0, 0.0, 0.0, 0.0, 0.0, 0.0, 0.0, 0.0, 0.0, 0.0, 0.0, 0.0, 0.0, 0.0, 0.0, 0.0, 0.0, 0.0, 0.0, 0.0, 0.0, 0.0, 0.0, 0.0, 0.0, 0.0, 0.0, 0.0, 0.0],
  "Shots": 4096,
  "Size": 13,
  "Total Algorithm duration [s]": 1.446,
  "Total Classic duration [s]": 1.3179751,
  "Total Quantum duration [s]": 0.1280249
}
