{
  "Circuit execution durations [ms]": [1.7376, 1.6948, 1.7083000000000002, 1.7267000000000001, 1.7042, 1.7217, 1.7470999999999999, 1.7168, 1.7064000000000001, 1.7292, 1.7264, 1.7183000000000002, 1.7409999999999999, 1.8583, 1.7749000000000001, 1.7289, 1.7158, 1.7191, 1.7237, 1.7377, 1.6972999999999998, 1.6977, 1.6961000000000002, 1.71, 1.7422, 1.7109, 1.7147, 1.7237, 1.7888, 1.7026000000000001, 1.7085, 1.6839, 1.09, 1.7281, 1.0867, 1.7266, 1.1105, 1.7359, 1.0936, 1.7149999999999999, 1.0876, 1.7071, 1.0933, 1.091, 1.7289, 1.0978999999999999, 1.0955, 1.6956, 1.7177, 1.7195, 1.6994, 1.7074, 1.7021, 1.7099000000000002, 1.7313, 1.7106000000000001, 1.7252, 1.7161, 1.6982, 1.7085, 1.7195, 1.7059, 1.7715999999999998, 1.7328000000000001, 1.7209, 1.7144000000000001, 1.7246, 1.7133999999999998, 1.747, 1.7258, 1.9605, 1.7193, 1.7139, 1.796, 1.7168999999999999, 1.9243999999999999, 1.7709, 1.7049, 1.7296, 1.6626, 1.7448, 1.7158, 1.895, 1.6878, 1.7012, 1.7334],
  "Depth": 239.0,
  "Expectation Value": -18.0,
  "Optimal Expectation Value": -18.0,
  "Optimizer durations [ms]": [19.239, 18.941, 18.952, 19.097, 18.872, 19.055, 19.201, 19.142, 18.975, 19.197, 19.172, 19.079, 19.204, 22.297, 24.456, 19.196, 19.054, 19.107, 18.954, 19.3, 18.831, 18.792, 18.814, 18.902, 19.344, 18.8, 18.976, 19.029, 19.659, 18.958, 18.984, 18.53, 12.808, 19.132, 12.739, 18.999, 13.04, 19.247, 12.791, 19.099, 12.762, 19.019, 12.823, 12.64, 19.016, 12.677, 12.943, 18.764, 18.99, 19.051, 18.989, 18.778, 18.861, 18.963, 19.227, 18.961, 18.959, 18.836, 18.82, 18.819, 19.122, 18.879, 19.439, 19.159, 18.994, 18.957, 19.023, 18.881, 19.243, 19.15, 21.361, 18.938, 19.006, 19.859, 20.195, 22.946, 19.604, 21.211, 19.198, 25.421, 19.182, 18.985, 20.895, 28.259, 18.993, 22.695],
  "Optimizer iterations": 86,
  "Optimizer params": [0.5442519979123489, 0.28918706220120305, 0.9746814733917162, 0.9596293238516427, 0.16376338076082464, 0.2271463049985179],
  "P": 3,
  "Problem": "MCP",
  "QJob durations [ms]": [1.7376, 1.6948, 1.7083000000000002, 1.7267000000000001, 1.7042, 1.7217, 1.7470999999999999, 1.7168, 1.7064000000000001, 1.7292, 1.7264, 1.7183000000000002, 1.7409999999999999, 1.8583, 1.7749000000000001, 1.7289, 1.7158, 1.7191, 1.7237, 1.7377, 1.6972999999999998, 1.6977, 1.6961000000000002, 1.71, 1.7422, 1.7109, 1.7147, 1.7237, 1.7888, 1.7026000000000001, 1.7085, 1.6839, 1.09, 1.7281, 1.0867, 1.7266, 1.1105, 1.7359, 1.0936, 1.7149999999999999, 1.0876, 1.7071, 1.0933, 1.091, 1.7289, 1.0978999999999999, 1.0955, 1.6956, 1.7177, 1.7195, 1.6994, 1.7074, 1.7021, 1.7099000000000002, 1.7313, 1.7106000000000001, 1.7252, 1.7161, 1.6982, 1.7085, 1.7195, 1.7059, 1.7715999999999998, 1.7328000000000001, 1.7209, 1.7144000000000001, 1.7246, 1.7133999999999998, 1.747, 1.7258, 1.9605, 1.7193, 1.7139, 1.796, 1.7168999999999999, 1.9243999999999999, 1.7709, 1.7049, 1.7296, 1.6626, 1.7448, 1.7158, 1.895, 1.6878, 1.7012, 1.7334],
  "QPU": "7000000",
  "Qubits": 13,
  "Queue durations [ms]": [0.0, 0.0, 0.0, 0.0, 0.0, 0.0, 0.0, 0.0, 0.0, 0.0, 0.0, 0.0, 0.0, 0.0, 0.0, 0.0, 0.0, 0.0, 0.0, 0.0, 0.0, 0.0, 0.0, 0.0, 0.0, 0.0, 0.0, 0.0, 0.0, 0.0, 0.0, 0.0, 0.0, 0.0, 0.0, 0.0, 0.0, 0.0, 0.0, 0.0, 0.0, 0.0, 0.0, 0.0, 0.0, 0.0, 0.0, 0.0, 0.0, 0.0, 0.0, 0.0, 0.0, 0.0, 0.0, 0.0, 0.0, 0.0, 0.0, 0.0, 0.0, 0.0, 0.0, 0.0, 0.0, 0.0, 0.0, 0.0, 0.0, 0.0, 0.0, 0.0, 0.0, 0.0, 0.0, 0.0, 0.0, 0.0, 0.0, 0.0, 0.0, 0.0, 0.0, 0.0, 0.0, 0.0],
  "Shots": 4096,
  "Size": 13,
  "Total Algorithm duration [s]": 1.621,
  "Total Classic duration [s]": 1.4779046,
  "Total Quantum duration [s]": 0.14309539999999998
}
