{
  "Depth": 41.0,
  "Job durations [ms]": [7.016225, 6.8652310000000005, 6.840268, 9.379832, 7.001782, 7.503362, 9.626029, 7.1081140000000005, 7.01661, 9.586869000000002, 9.570489, 9.605044, 13.116393, 9.438805, 6.5936140000000005, 6.764429000000001, 7.013682, 9.496856000000001, 6.752566000000001, 9.095078, 9.737062000000002, 7.182587000000001, 9.142280000000001, 7.172765, 6.9626660000000005, 13.040578, 7.164105, 9.154503000000002, 9.493703000000002, 6.991205000000001, 9.334513000000001, 9.346924000000001, 9.411009000000002, 6.439748000000001, 7.113386, 6.502578, 13.751313000000001, 9.460905, 9.457726000000001, 10.858957, 6.8674, 12.915511, 6.58316, 7.221026, 7.130115, 14.290064000000001, 9.394665, 6.905385000000001, 7.219954, 9.626040000000001, 9.441158, 9.365002, 9.500836, 7.0227960000000005, 6.6434120000000005, 9.251053, 7.027496, 9.585968000000001, 7.166009, 6.713351, 6.3895360000000005, 6.977585, 9.604511, 6.910732, 6.455898, 6.911798, 13.535459000000001, 9.265526000000001, 6.545269, 6.852342000000001, 6.8939770000000005, 13.281365000000001, 7.121525, 12.771649000000002, 6.525413, 6.9740340000000005, 6.864420000000001, 9.423451000000002, 7.492573000000001, 8.191731, 9.410499000000002, 7.0607240000000004, 7.127494, 22.062576, 13.145656, 9.453641000000001, 9.339722, 9.246991000000001, 6.431704000000001, 20.922701000000004, 9.59092, 9.397285, 9.400214, 9.335224000000002, 6.7504100000000005, 7.170408, 13.347193, 14.413692000000001, 6.9602960000000005, 6.923698000000001, 7.229915000000001, 9.525046, 6.85071, 6.802332000000001, 7.484694, 6.869383000000001, 6.442038000000001, 20.686964000000003, 9.295949000000002],
  "Optimizer durations [ms]": [14388.674, 8578.934, 7229.987, 9747.067, 6813.45, 8902.421, 10509.406, 8351.688, 70241.308, 69786.937, 7285.042, 124993.59, 9605.224, 70182.843, 7723.161, 70487.357, 8831.55, 10713.351, 7490.66, 8586.093, 6945.629, 7367.751, 21381.126, 7182.406, 114256.446, 9742.244, 8266.195, 7749.844, 6657.9, 8422.576, 8204.773, 31508.892, 34625.896, 7449.817, 7875.847, 7373.637, 36086.031, 14884.745, 8167.753, 137789.587, 7853.702, 8703.192, 14854.096, 8514.584, 7159.269, 7323.774, 10471.428, 7860.507, 6602.553, 19668.73, 165810.535, 72548.005, 10048.223, 8138.302, 7580.915, 11434.607, 10532.012, 10268.707, 7856.209, 8763.992, 7652.351, 6549.541, 132371.674, 9155.248, 8855.933, 7429.486, 7957.187, 6495.675, 7256.0, 7479.298, 7464.232, 6906.021, 13860.946, 34486.586, 8399.307, 135822.818, 8302.587, 7705.96, 6954.273, 8264.106, 7556.433, 7219.754, 7943.778, 62209.183, 9488.985, 8167.666, 33331.307, 9205.455, 6510.106, 64674.545, 8597.906, 70004.049, 7183.988, 33879.446, 7977.166, 7923.07, 7007.09, 7625.339, 7930.835, 7896.854, 7709.304, 33515.925, 7422.524, 6343.299, 63274.756, 36087.95, 7774.327, 9748.025, 7554.596],
  "Optimizer iterations": 109,
  "Qubits": 4,
  "Total Algorithm duration [s]": 2445.514,
  "Total Classic duration [s]": 2444.547352935,
  "Total Quantum duration [s]": 0.9666470649999996,
  "Expectation Value": -3.97412109375,
  "Optimal Expectation Value": -4.0,
  "Optimizer params": [0.607081534599248, 0.2550023750374612, 0.27941867068049303, 0.7513599803252988, 0.21615323749148238, 0.8740546278042576],
  "QPU": "4010001",
  "Problem": "MCP",
  "Size": 4,
  "P": 3,
  "Shots": 4096
}