{
  "Depth": 41.0,
  "Job durations [ms]": [6.962614, 7.165858000000001, 7.16746, 9.557574, 6.870866, 6.500758, 7.033314000000001, 6.99584, 9.350253, 9.833914, 9.342125, 9.534891, 9.380016000000001, 7.9815570000000005, 6.8754550000000005, 7.142627, 6.687856000000001, 7.9777070000000005, 9.642523, 6.6074090000000005, 6.895943000000001, 6.905012, 6.499414, 6.994359, 6.933303, 9.438234, 9.258282000000001, 12.714405000000001, 6.9903830000000005, 9.459632000000001, 7.121505, 7.2019020000000005, 9.392544000000001, 6.993792, 9.524575, 6.992814000000001, 9.353327, 9.455294000000002, 7.2704070000000005, 7.0030660000000005, 6.8808240000000005, 7.135684, 6.861724000000001, 9.218408, 6.566231, 14.482197000000001, 14.525582, 13.720715000000002, 6.993193000000001, 9.534405000000001, 9.647667, 9.299084, 6.931891000000001, 6.80589, 9.348063, 9.377744999999999, 7.372479, 7.253718, 9.717798000000002, 9.413595, 6.861581, 9.310231, 9.410968, 9.572891, 10.177949, 7.173530000000001, 6.672210000000001, 6.794441, 9.467605, 7.011139, 9.362845, 9.675678, 7.021953, 7.051236],
  "Optimizer durations [ms]": [13791.144, 9493.357, 7629.149, 13409.832, 5813.208, 63170.78, 6910.238, 14711.701, 37184.019, 6684.261, 7710.81, 73861.767, 9967.076, 8282.04, 7951.218, 7690.583, 8379.669, 8546.813, 7249.621, 116210.179, 8091.137, 9116.626, 56485.06, 7390.699, 10414.497, 9454.864, 7593.197, 7068.361, 8153.139, 70115.714, 9880.507, 9485.152, 7468.061, 7765.802, 67869.699, 7493.215, 38175.304, 14371.732, 7465.676, 7021.384, 70576.054, 7805.035, 7726.802, 7929.367, 7429.838, 8031.3, 9839.993, 7762.605, 7952.491, 71580.256, 10667.908, 71763.945, 9527.275, 10643.18, 64974.509, 9914.049, 10466.104, 69599.003, 21687.846, 8488.094, 7913.059, 10896.164, 77174.61, 11936.626, 8142.567, 8096.323, 7372.91, 6620.691, 69657.398, 9531.98, 77056.083, 8058.206, 7183.588, 7314.871],
  "Optimizer iterations": 74,
  "Qubits": 4,
  "Total Algorithm duration [s]": 1616.848,
  "Total Classic duration [s]": 1616.2303400399999,
  "Total Quantum duration [s]": 0.6176599600000001,
  "Expectation Value": -3.0498046875,
  "Optimal Expectation Value": -4.0,
  "Optimizer params": [0.9994497212003327, 0.05394642274131635, 0.8696734294809166, 0.0719482537294664, 0.007269737030965096, 0.9236227955096453],
  "QPU": "4010001",
  "Problem": "MCP",
  "Size": 4,
  "P": 3,
  "Shots": 4096
}