{
  "Circuit execution durations [ms]": [11.166930198669434, 11.24429702758789, 11.222004890441895, 11.288285255432129, 11.24274730682373, 11.102437973022461, 10.999202728271484, 10.930895805358887, 10.814189910888672, 10.949134826660156, 10.84589958190918, 10.776281356811523, 10.843038558959961, 10.912060737609863, 10.981559753417969, 10.913491249084473, 10.680794715881348, 10.992765426635742, 10.956525802612305, 10.828375816345215, 10.722994804382324, 10.909080505371094, 10.573625564575195, 10.663509368896484, 10.648131370544434, 10.95426082611084, 10.69784164428711, 10.548830032348633, 10.589957237243652, 10.600566864013672, 10.688543319702148, 10.970473289489746, 10.62774658203125, 10.596513748168945, 10.70868968963623, 10.609984397888184, 10.69331169128418, 10.573506355285645, 10.596990585327148, 10.53154468536377, 10.423541069030762, 10.694622993469238, 10.371208190917969, 10.717988014221191, 10.613799095153809, 10.567069053649902, 10.513067245483398, 10.696053504943848, 10.632753372192383, 10.614752769470215, 10.568976402282715, 10.571956634521484, 10.433316230773926, 10.536789894104004, 10.491490364074707, 10.707497596740723, 10.810256004333496, 10.649800300598145, 10.950803756713867, 10.765433311462402, 10.765671730041504, 10.745644569396973, 10.866522789001465, 10.98775863647461, 10.565757751464844, 10.574817657470703, 10.59865951538086, 10.879039764404297, 10.982871055603027, 10.616421699523926, 10.71178913116455, 10.70106029510498, 10.622978210449219, 10.726332664489746, 10.508298873901367, 10.656237602233887, 10.699748992919922, 11.005401611328125, 10.63847541809082, 10.430574417114258, 10.34402847290039, 10.448098182678223, 10.503768920898438, 10.880351066589355, 10.575056076049805, 10.60640811920166, 10.710597038269043, 10.504603385925293, 10.554790496826172, 10.715126991271973, 10.413885116577148, 10.476231575012207, 10.566234588623047, 10.532975196838379, 10.607719421386719, 10.700106620788574, 10.557413101196289, 10.601997375488281, 10.553240776062012, 10.490655899047852, 10.399699211120605, 10.458827018737793, 10.471105575561523, 10.46288013458252, 10.593533515930176, 10.489344596862793, 10.623931884765625, 10.58971881866455, 10.430335998535156, 10.557293891906738, 10.40792465209961, 10.473370552062988, 10.384321212768555, 10.426640510559082, 10.414361953735352, 10.607242584228516, 10.562419891357422, 10.534286499023438, 10.654091835021973, 10.542631149291992, 10.46907901763916, 10.48135757446289, 10.43844223022461, 10.425209999084473, 10.49339771270752, 10.44917106628418, 10.634660720825195, 10.43081283569336, 10.697722434997559, 10.567784309387207, 10.518431663513184, 10.550141334533691, 10.39266586303711, 10.578155517578125, 10.530591011047363, 10.477304458618164, 10.731220245361328, 10.55455207824707, 10.458588600158691, 10.559558868408203, 10.62023639678955, 10.489821434020996, 10.573983192443848, 10.461091995239258, 10.404825210571289, 10.671854019165039, 10.547518730163574, 10.721802711486816, 10.602712631225586, 10.567426681518555, 10.563015937805176, 10.49661636352539, 10.510683059692383, 10.608553886413574, 10.506629943847656, 10.381221771240234, 10.457634925842285, 10.561704635620117, 10.63549518585205, 10.4752779006958, 10.555148124694824, 10.542869567871094, 10.65528392791748, 10.501742362976074, 10.47968864440918, 10.583877563476563, 10.65075397491455, 10.657787322998047, 10.548949241638184, 10.691404342651367, 10.525822639465332, 10.387659072875977, 10.423064231872559, 10.430693626403809, 10.44762134552002, 10.403752326965332, 10.51485538482666, 10.562896728515625, 10.676980018615723, 10.532498359680176, 10.50567626953125, 10.404706001281738, 10.441899299621582, 10.604619979858398, 10.533809661865234, 10.701894760131836, 10.44762134552002, 10.671377182006836, 10.576009750366211, 10.454654693603516, 10.3684663772583, 10.526657104492188, 10.5438232421875, 10.635614395141602, 10.479569435119629, 10.411381721496582, 10.436177253723145, 10.586023330688477, 10.677337646484375, 10.56981086730957, 10.405421257019043, 10.456562042236328, 10.376691818237305, 10.426163673400879, 10.451793670654297, 10.374069213867188, 10.586023330688477, 10.633111000061035, 10.582447052001953, 10.358095169067383, 10.519146919250488, 10.4292631149292, 10.495781898498535, 10.425448417663574, 10.578393936157227, 10.419249534606934, 10.426998138427734, 10.445594787597656, 10.422229766845703, 10.441780090332031, 10.409951210021973, 10.423064231872559, 10.424017906188965, 10.521650314331055, 10.437369346618652, 10.397076606750488, 10.421156883239746, 10.527372360229492, 10.532736778259277, 10.596990585327148, 10.630130767822266, 10.42938232421875, 10.374069213867188, 10.538816452026367, 10.795950889587402, 10.4522705078125, 10.479927062988281, 10.451674461364746, 10.611414909362793, 10.800361633300781, 10.738134384155273, 10.40637493133545, 10.462641716003418, 10.417819023132324, 10.531187057495117, 10.58495044708252, 10.584235191345215, 10.497331619262695, 10.557293891906738, 10.491609573364258, 10.416865348815918, 10.454535484313965, 10.626435279846191, 10.588288307189941, 10.447144508361816, 10.69033145904541, 10.467290878295898, 10.498642921447754, 10.571002960205078, 10.527968406677246, 10.527849197387695, 10.341286659240723, 10.76364517211914, 10.692834854125977, 10.429859161376953, 10.49339771270752, 10.346293449401855, 10.66279411315918, 10.581612586975098, 10.578513145446777, 10.432124137878418, 10.552167892456055, 10.564446449279785, 10.52546501159668, 10.360360145568848, 10.713338851928711, 10.51032543182373, 10.604619979858398, 10.627388954162598, 10.65826416015625, 10.466337203979492, 10.510802268981934, 10.407328605651855, 10.401606559753418, 10.676264762878418, 10.71012020111084, 10.421037673950195, 10.634183883666992, 10.515332221984863, 10.387897491455078, 10.521292686462402, 10.304450988769531, 10.67817211151123, 10.664820671081543, 10.670185089111328, 10.467290878295898, 10.734081268310547, 10.426998138427734, 10.618925094604492, 10.367393493652344, 10.487914085388184, 10.5513334274292, 10.699033737182617, 10.679125785827637, 10.455965995788574, 10.605931282043457, 10.56969165802002, 10.447382926940918, 10.618090629577637, 10.681390762329102, 10.458707809448242, 10.342001914978027, 10.44011116027832, 10.484576225280762, 10.557889938354492, 10.577678680419922, 10.613799095153809, 10.653018951416016, 10.465383529663086, 10.41412353515625, 10.523796081542969, 10.503172874450684, 10.389089584350586, 10.646224021911621, 10.58816909790039, 10.733842849731445, 10.643362998962402, 10.527968406677246, 10.506987571716309, 10.415792465209961, 10.416030883789063, 10.65683364868164, 10.543107986450195, 10.690927505493164, 10.46764850616455, 10.488510131835938, 10.475873947143555, 10.517001152038574, 10.614514350891113, 10.502815246582031],
  "Depth": 16.5,
  "Expectation Value": -7.20361328125,
  "Optimal Expectation Value": -8.5667724609375,
  "Optimizer durations [ms]": [198.798, 199.706, 281.929, 199.438, 199.155, 282.854, 199.036, 198.697, 197.708, 282.978, 199.001, 198.966, 282.025, 199.191, 198.548, 282.535, 198.332, 198.422, 281.8, 199.281, 198.208, 281.674, 198.355, 198.067, 198.176, 283.23, 197.993, 197.256, 281.496, 198.966, 197.357, 282.568, 198.591, 197.654, 281.262, 197.834, 197.879, 281.658, 198.792, 197.204, 197.054, 282.685, 197.271, 197.814, 280.69, 197.882, 198.317, 281.665, 197.894, 197.912, 281.553, 199.849, 198.415, 280.579, 198.407, 198.047, 198.117, 281.991, 198.325, 198.489, 282.491, 198.791, 198.197, 285.685, 198.619, 199.863, 280.943, 198.656, 198.75, 281.433, 198.395, 197.808, 198.054, 283.725, 197.836, 198.016, 281.254, 198.839, 197.959, 282.346, 197.184, 196.805, 281.216, 198.456, 197.688, 281.436, 198.579, 198.573, 199.674, 282.254, 197.074, 197.815, 281.317, 198.197, 197.71, 281.848, 198.226, 197.86, 280.447, 198.511, 198.008, 281.331, 197.652, 197.923, 197.88, 282.08, 198.337, 197.408, 280.887, 198.442, 197.288, 281.596, 197.969, 197.944, 280.255, 198.37, 197.521, 281.581, 198.252, 200.085, 197.237, 282.312, 198.491, 197.821, 281.018, 197.5, 197.768, 282.173, 198.347, 197.679, 280.718, 197.98, 196.813, 281.446, 197.463, 197.905, 198.59, 282.326, 197.617, 198.009, 281.176, 197.992, 197.77, 281.242, 197.636, 198.161, 281.082, 197.84, 197.614, 281.157, 199.5, 197.978, 196.821, 282.422, 198.375, 197.197, 280.008, 198.181, 198.359, 281.307, 197.593, 197.278, 281.249, 197.848, 197.117, 281.141, 199.287, 198.484, 198.147, 283.239, 198.134, 197.195, 280.477, 198.622, 197.41, 280.966, 197.984, 198.082, 280.929, 197.693, 197.22, 281.527, 197.253, 200.187, 197.729, 282.941, 197.186, 198.264, 280.704, 197.716, 198.077, 281.898, 197.406, 198.167, 280.92, 197.572, 197.459, 280.775, 198.644, 198.079, 197.366, 282.325, 197.651, 197.168, 279.779, 197.301, 197.72, 282.447, 198.135, 196.98, 280.747, 197.596, 198.536, 281.08, 198.418, 197.071, 196.674, 282.149, 197.695, 196.996, 280.63, 198.146, 198.156, 281.423, 197.048, 197.33, 280.576, 198.359, 197.614, 281.145, 198.172, 198.675, 196.91, 282.246, 198.338, 198.371, 280.907, 197.91, 197.032, 282.026, 198.129, 197.512, 280.805, 198.156, 198.499, 281.227, 197.622, 197.05, 197.958, 282.864, 197.4, 196.913, 280.517, 198.633, 198.055, 281.288, 197.949, 198.442, 281.387, 197.829, 197.297, 281.073, 199.005, 198.053, 196.947, 281.838, 197.923, 197.676, 281.284, 198.239, 197.651, 282.267, 196.931, 197.906, 280.204, 198.809, 197.536, 280.889, 198.159, 197.708, 198.387, 282.187, 197.345, 197.769, 281.663, 198.159, 197.347, 282.029, 198.288, 198.653, 280.993, 197.219, 197.871, 281.801, 197.837, 197.271, 197.606, 281.553, 198.488, 197.162, 280.382, 198.357, 198.135, 282.054, 197.92, 197.789, 280.247, 197.822, 197.108, 281.183, 197.819, 197.358, 197.451, 282.156, 198.155, 197.253, 280.875, 198.565, 197.539, 280.682, 198.112, 198.554, 280.364, 197.756, 198.23, 283.308, 198.029, 197.793, 197.205, 282.471, 197.583, 197.993, 280.352, 198.814, 197.203, 281.073, 197.349, 198.023, 280.98, 197.42],
  "Optimizer iterations": 340,
  "Optimizer params": [0.431739949378904, 0.996484319579941, 0.4549282289525258, 0.998386414447528, 0.974681558936833, 0.9375239835924238, 0.9358301943232797, 0.8796417660148725, 0.4171407219053655, 0.9882974001572541, 0.8289326454727045, 0.59451949915836, 0.3282190332477453, 0.18811365914006253, 0.5183361162718212, 0.45968023455097645, 0.4260769061552833, 0.37918338699027776, 0.9876117134655844, 0.9999949741704413, 0.07726156128841041, 0.026680543064125675, 0.9661387422849075, 0.9729839330021941, 0.034777269819158664, 0.8529739127478574, 0.15640699268450803, 0.15068355332405334],
  "P": 0,
  "Problem": "IC",
  "QJob durations [ms]": [54.6269416809082, 54.9466609954834, 54.88169193267822, 54.732441902160645, 54.93879318237305, 54.50475215911865, 54.55052852630615, 54.22472953796387, 54.3292760848999, 54.347872734069824, 54.28493022918701, 54.51536178588867, 54.29041385650635, 54.534316062927246, 54.32283878326416, 54.49199676513672, 54.27896976470947, 54.634690284729004, 54.645657539367676, 54.274797439575195, 54.56244945526123, 54.395198822021484, 54.24332618713379, 54.1074275970459, 54.30722236633301, 54.34107780456543, 54.047226905822754, 54.031968116760254, 53.938984870910645, 54.62181568145752, 54.08287048339844, 54.660677909851074, 54.1529655456543, 54.14438247680664, 54.37755584716797, 53.945183753967285, 54.29422855377197, 54.05449867248535, 54.37445640563965, 54.06022071838379, 53.934335708618164, 54.11684513092041, 53.658127784729004, 54.180026054382324, 53.91395092010498, 54.20875549316406, 53.90441417694092, 54.20112609863281, 54.17907238006592, 54.10957336425781, 54.37207221984863, 54.044365882873535, 54.13615703582764, 53.964853286743164, 54.1607141494751, 54.04031276702881, 54.386138916015625, 54.110169410705566, 54.26526069641113, 54.410338401794434, 54.82494831085205, 54.39579486846924, 54.0691614151001, 55.295348167419434, 54.47065830230713, 54.59904670715332, 54.320454597473145, 54.18050289154053, 54.46898937225342, 54.0616512298584, 54.30901050567627, 54.01408672332764, 54.22163009643555, 54.12793159484863, 54.016828536987305, 54.276347160339355, 54.30185794830322, 54.5806884765625, 54.001808166503906, 53.97605895996094, 53.749680519104004, 53.89738082885742, 54.172635078430176, 54.27134037017822, 54.08918857574463, 54.14724349975586, 54.303765296936035, 54.31640148162842, 54.44622039794922, 53.992271423339844, 53.87747287750244, 54.027676582336426, 53.984642028808594, 54.1989803314209, 54.02100086212158, 54.26955223083496, 54.08453941345215, 54.207682609558105, 54.07404899597168, 54.05259132385254, 53.97212505340576, 53.919434547424316, 54.079532623291016, 54.02243137359619, 54.154276847839355, 53.92646789550781, 54.08430099487305, 54.09801006317139, 54.02803421020508, 54.18384075164795, 53.78234386444092, 54.19301986694336, 54.23438549041748, 53.94947528839111, 54.05306816101074, 54.04865741729736, 54.15380001068115, 54.1454553604126, 54.412126541137695, 54.81314659118652, 53.97224426269531, 54.02183532714844, 54.122209548950195, 54.17358875274658, 53.963422775268555, 54.04210090637207, 53.910255432128906, 54.09121513366699, 54.230570793151855, 54.11887168884277, 54.06081676483154, 53.956031799316406, 53.972601890563965, 54.11255359649658, 54.06022071838379, 53.98106575012207, 54.30150032043457, 54.11124229431152, 53.961753845214844, 54.22520637512207, 54.138779640197754, 54.15499210357666, 53.91252040863037, 54.030776023864746, 54.06224727630615, 54.218292236328125, 54.323673248291016, 54.005980491638184, 54.11863327026367, 53.99978160858154, 54.87668514251709, 53.864359855651855, 53.8712739944458, 54.12793159484863, 53.980350494384766, 53.92169952392578, 53.83956432342529, 54.14903163909912, 54.033756256103516, 54.04853820800781, 54.215312004089355, 54.00645732879639, 54.32116985321045, 53.832411766052246, 54.033637046813965, 54.033875465393066, 54.64673042297363, 54.1081428527832, 54.22401428222656, 54.27062511444092, 54.00407314300537, 53.9851188659668, 53.726792335510254, 54.1996955871582, 53.900957107543945, 53.936004638671875, 54.26454544067383, 54.123520851135254, 54.25560474395752, 53.90572547912598, 54.04388904571533, 54.00872230529785, 53.94542217254639, 54.10051345825195, 54.03101444244385, 54.19731140136719, 53.749799728393555, 54.35216426849365, 54.0928840637207, 54.24606800079346, 53.97152900695801, 54.228782653808594, 54.083824157714844, 54.258108139038086, 54.05759811401367, 53.78234386444092, 53.93052101135254, 53.968191146850586, 54.41391468048096, 54.000258445739746, 53.910017013549805, 53.98249626159668, 53.813815116882324, 54.02052402496338, 53.82096767425537, 53.872108459472656, 53.94589900970459, 54.43131923675537, 54.1614294052124, 53.81488800048828, 54.12650108337402, 53.74276638031006, 54.09646034240723, 54.033875465393066, 54.20529842376709, 53.70628833770752, 53.96533012390137, 53.871750831604004, 53.7489652633667, 53.96401882171631, 53.89988422393799, 54.09204959869385, 53.97653579711914, 54.05008792877197, 53.82120609283447, 54.03006076812744, 54.14891242980957, 53.90965938568115, 54.207801818847656, 54.137587547302246, 54.16560173034668, 54.45301532745361, 53.9548397064209, 53.908705711364746, 54.2072057723999, 54.21018600463867, 54.00252342224121, 54.01444435119629, 53.95948886871338, 54.32629585266113, 54.24392223358154, 53.92944812774658, 53.94542217254639, 53.967952728271484, 54.167747497558594, 53.85851860046387, 54.17776107788086, 53.87997627258301, 54.150938987731934, 53.85613441467285, 53.70044708251953, 53.93218994140625, 54.16274070739746, 54.25524711608887, 53.8254976272583, 54.24082279205322, 54.04388904571533, 54.25107479095459, 54.29553985595703, 53.88009548187256, 54.23915386199951, 53.88438701629639, 54.31163311004639, 54.02326583862305, 54.047584533691406, 53.95150184631348, 53.902626037597656, 54.22961711883545, 54.068922996520996, 54.239869117736816, 53.96866798400879, 54.13329601287842, 54.059505462646484, 54.175734519958496, 53.88486385345459, 54.15844917297363, 54.08918857574463, 54.05604839324951, 54.13520336151123, 54.10957336425781, 54.17799949645996, 53.761839866638184, 53.73084545135498, 54.09097671508789, 54.24928665161133, 54.2982816696167, 53.72798442840576, 54.22866344451904, 54.398179054260254, 54.19933795928955, 54.03316020965576, 53.6729097366333, 54.27241325378418, 54.1914701461792, 54.205894470214844, 53.87687683105469, 54.24392223358154, 53.974032402038574, 54.03411388397217, 53.948163986206055, 53.93791198730469, 54.166197776794434, 54.09872531890869, 54.30483818054199, 54.26907539367676, 54.16238307952881, 54.174184799194336, 53.73108386993408, 54.0928840637207, 54.14581298828125, 54.11362648010254, 53.783297538757324, 54.00669574737549, 53.91800403594971, 53.972721099853516, 54.1154146194458, 53.992390632629395, 54.19921875, 53.86245250701904, 53.9553165435791, 54.164886474609375, 54.56709861755371, 54.09038066864014, 53.96151542663574, 54.266929626464844, 54.32164669036865, 54.227590560913086, 53.89535427093506, 54.00288105010986, 53.844332695007324, 53.78258228302002, 54.23092842102051, 53.795576095581055, 54.52573299407959, 53.82704734802246, 53.96556854248047, 54.1304349899292, 54.05724048614502, 54.143428802490234, 53.76875400543213],
  "QPU": "3010008",
  "Qubits": 7,
  "Queue durations [ms]": [0.0, 0.0, 0.0, 0.0, 0.0, 0.0, 0.0, 0.0, 0.0, 0.0, 0.0, 0.0, 0.0, 0.0, 0.0, 0.0, 0.0, 0.0, 0.0, 0.0, 0.0, 0.0, 0.0, 0.0, 0.0, 0.0, 0.0, 0.0, 0.0, 0.0, 0.0, 0.0, 0.0, 0.0, 0.0, 0.0, 0.0, 0.0, 0.0, 0.0, 0.0, 0.0, 0.0, 0.0, 0.0, 0.0, 0.0, 0.0, 0.0, 0.0, 0.0, 0.0, 0.0, 0.0, 0.0, 0.0, 0.0, 0.0, 0.0, 0.0, 0.0, 0.0, 0.0, 0.0, 0.0, 0.0, 0.0, 0.0, 0.0, 0.0, 0.0, 0.0, 0.0, 0.0, 0.0, 0.0, 0.0, 0.0, 0.0, 0.0, 0.0, 0.0, 0.0, 0.0, 0.0, 0.0, 0.0, 0.0, 0.0, 0.0, 0.0, 0.0, 0.0, 0.0, 0.0, 0.0, 0.0, 0.0, 0.0, 0.0, 0.0, 0.0, 0.0, 0.0, 0.0, 0.0, 0.0, 0.0, 0.0, 0.0, 0.0, 0.0, 0.0, 0.0, 0.0, 0.0, 0.0, 0.0, 0.0, 0.0, 0.0, 0.0, 0.0, 0.0, 0.0, 0.0, 0.0, 0.0, 0.0, 0.0, 0.0, 0.0, 0.0, 0.0, 0.0, 0.0, 0.0, 0.0, 0.0, 0.0, 0.0, 0.0, 0.0, 0.0, 0.0, 0.0, 0.0, 0.0, 0.0, 0.0, 0.0, 0.0, 0.0, 0.0, 0.0, 0.0, 0.0, 0.0, 0.0, 0.0, 0.0, 0.0, 0.0, 0.0, 0.0, 0.0, 0.0, 0.0, 0.0, 0.0, 0.0, 0.0, 0.0, 0.0, 0.0, 0.0, 0.0, 0.0, 0.0, 0.0, 0.0, 0.0, 0.0, 0.0, 0.0, 0.0, 0.0, 0.0, 0.0, 0.0, 0.0, 0.0, 0.0, 0.0, 0.0, 0.0, 0.0, 0.0, 0.0, 0.0, 0.0, 0.0, 0.0, 0.0, 0.0, 0.0, 0.0, 0.0, 0.0, 0.0, 0.0, 0.0, 0.0, 0.0, 0.0, 0.0, 0.0, 0.0, 0.0, 0.0, 0.0, 0.0, 0.0, 0.0, 0.0, 0.0, 0.0, 0.0, 0.0, 0.0, 0.0, 0.0, 0.0, 0.0, 0.0, 0.0, 0.0, 0.0, 0.0, 0.0, 0.0, 0.0, 0.0, 0.0, 0.0, 0.0, 0.0, 0.0, 0.0, 0.0, 0.0, 0.0, 0.0, 0.0, 0.0, 0.0, 0.0, 0.0, 0.0, 0.0, 0.0, 0.0, 0.0, 0.0, 0.0, 0.0, 0.0, 0.0, 0.0, 0.0, 0.0, 0.0, 0.0, 0.0, 0.0, 0.0, 0.0, 0.0, 0.0, 0.0, 0.0, 0.0, 0.0, 0.0, 0.0, 0.0, 0.0, 0.0, 0.0, 0.0, 0.0, 0.0, 0.0, 0.0, 0.0, 0.0, 0.0, 0.0, 0.0, 0.0, 0.0, 0.0, 0.0, 0.0, 0.0, 0.0, 0.0, 0.0, 0.0, 0.0, 0.0, 0.0, 0.0, 0.0, 0.0, 0.0, 0.0, 0.0, 0.0, 0.0, 0.0, 0.0, 0.0, 0.0, 0.0, 0.0, 0.0, 0.0, 0.0, 0.0, 0.0, 0.0, 0.0, 0.0, 0.0, 0.0, 0.0, 0.0, 0.0, 0.0],
  "Shots": 4096,
  "Size": 7,
  "Total Algorithm duration [s]": 76.172,
  "Total Classic duration [s]": 57.770091721534726,
  "Total Quantum duration [s]": 18.40190827846527
}
