{
  "Circuit execution durations [ms]": [11.14344596862793, 11.146306991577148, 11.153817176818848, 11.180758476257324, 11.310815811157227, 10.961771011352539, 11.143684387207031, 11.554241180419922, 10.918140411376953, 10.98489761352539, 10.960102081298828, 10.937333106994629, 11.078715324401855, 11.047720909118652, 11.31904125213623, 11.101007461547852, 11.115670204162598, 11.14046573638916, 11.07776165008545, 11.062264442443848, 11.0626220703125, 10.859370231628418, 10.78033447265625, 10.798811912536621, 10.971546173095703, 11.09778881072998, 10.828733444213867, 10.880231857299805, 11.048078536987305, 10.751605033874512, 10.78486442565918, 10.794401168823242, 10.855317115783691, 10.635972023010254, 10.801434516906738, 10.951876640319824, 10.859489440917969, 10.832905769348145, 10.770916938781738, 10.789990425109863, 10.715484619140625, 10.908961296081543, 10.627150535583496, 10.634422302246094, 10.888814926147461, 10.956645011901855, 10.953545570373535, 10.646581649780273, 10.701656341552734, 10.542035102844238, 10.625362396240234, 10.658979415893555, 10.603666305541992, 10.97726821899414, 10.67960262298584, 10.692954063415527, 10.80334186553955, 10.815858840942383, 10.567784309387207, 10.812520980834961, 10.682225227355957, 10.859012603759766, 10.803699493408203, 10.544896125793457, 10.706305503845215, 10.583996772766113, 10.530352592468262, 10.944843292236328, 10.66899299621582, 10.717511177062988, 10.573029518127441, 10.61701774597168, 10.681509971618652, 10.659933090209961, 10.76054573059082, 10.61558723449707, 10.60783863067627, 10.400652885437012, 10.503888130187988, 10.724306106567383, 10.674715042114258, 10.457873344421387, 10.598301887512207, 10.559916496276855, 10.467529296875, 10.808110237121582, 10.552525520324707, 10.813355445861816, 10.548233985900879, 10.694622993469238, 10.531425476074219, 10.686755180358887, 10.58197021484375, 10.763764381408691, 10.540962219238281, 10.775089263916016, 10.617375373840332, 10.70261001586914, 10.573744773864746, 10.737061500549316, 10.533452033996582, 10.755181312561035, 10.705113410949707, 10.58197021484375, 10.608911514282227, 10.532736778259277, 10.59579849243164, 10.655403137207031, 10.654091835021973, 10.442256927490234, 10.70094108581543, 10.608315467834473, 10.64753532409668, 10.317206382751465, 10.712742805480957, 10.595321655273438, 10.860919952392578, 10.706782341003418, 10.545015335083008, 10.549545288085938, 10.495424270629883, 10.52093505859375, 10.663390159606934, 10.66136360168457, 10.827302932739258, 10.695219039916992, 10.729670524597168, 10.623574256896973, 10.76209545135498, 10.650634765625, 10.582566261291504, 10.518550872802734, 10.407447814941406, 10.814070701599121, 10.748505592346191, 10.646343231201172, 10.515213012695313, 10.493040084838867, 10.364413261413574, 10.33639907836914, 10.587334632873535, 10.434627532958984, 10.591387748718262, 10.491609573364258, 10.652780532836914, 10.315656661987305, 10.458946228027344, 10.347247123718262, 10.626792907714844, 10.602593421936035, 10.599613189697266, 10.417461395263672, 10.32721996307373, 10.738492012023926, 10.329484939575195, 10.569095611572266, 10.549306869506836, 10.572075843811035, 10.489940643310547, 10.594606399536133, 10.348081588745117, 10.39588451385498, 10.392189025878906, 10.5057954788208, 10.560750961303711, 10.259151458740234, 10.438203811645508, 10.378837585449219, 10.474205017089844, 10.382533073425293, 10.466814041137695, 10.466456413269043, 10.457158088684082, 10.376811027526855, 10.39433479309082, 10.435223579406738, 10.331034660339355, 10.449051856994629, 10.391592979431152, 10.334491729736328, 10.35773754119873, 10.426878929138184, 10.42473316192627, 10.617256164550781, 10.51950454711914, 10.468602180480957, 10.649681091308594, 10.518074035644531, 10.426044464111328, 10.617375373840332, 10.549545288085938, 10.59412956237793, 10.35618782043457, 10.378718376159668, 10.512590408325195, 10.536432266235352, 10.527968406677246, 10.415911674499512, 10.789990425109863, 10.599374771118164, 10.627269744873047, 10.28895378112793, 10.458827018737793, 10.390996932983398, 10.604381561279297, 10.504841804504395, 10.61248779296875, 10.41412353515625, 10.37454605102539, 10.467886924743652, 10.468482971191406, 10.488510131835938, 10.481953620910645, 10.551929473876953, 10.3684663772583, 10.431051254272461, 10.46597957611084, 10.490059852600098, 10.517001152038574, 10.599613189697266, 10.547399520874023, 10.362029075622559, 10.570764541625977, 10.358214378356934, 10.552287101745605, 10.700464248657227, 10.4600191116333, 10.489583015441895, 10.513782501220703, 10.470271110534668, 10.595321655273438, 10.637164115905762, 10.587453842163086, 10.574579238891602, 10.622620582580566, 10.415792465209961, 10.278105735778809, 10.381102561950684, 10.557293891906738, 10.553359985351563, 10.656595230102539, 10.62917709350586, 10.520100593566895, 10.574102401733398, 10.458946228027344, 10.408639907836914, 10.674595832824707, 10.54847240447998, 10.38825511932373, 10.514259338378906, 10.325074195861816, 10.424137115478516, 10.643482208251953, 10.57446002960205, 10.545849800109863, 10.453343391418457, 10.386347770690918, 10.511994361877441, 10.563492774963379, 10.575175285339355, 10.514497756958008, 10.422468185424805, 10.309100151062012, 10.532498359680176, 10.567784309387207, 10.601401329040527, 10.5210542678833, 10.697245597839355, 10.500907897949219, 10.568857192993164, 10.679483413696289, 10.484933853149414, 10.591864585876465, 10.672450065612793, 10.487794876098633, 10.549306869506836, 10.489821434020996, 10.564208030700684, 10.674118995666504, 10.374069213867188, 10.494709014892578, 10.3989839553833, 10.767459869384766, 10.735630989074707, 10.423421859741211, 10.557770729064941, 10.595202445983887, 10.619282722473145, 10.41269302368164, 10.348081588745117, 10.669350624084473, 10.482430458068848, 10.504484176635742, 10.568737983703613, 10.683059692382813, 10.511159896850586, 10.50877571105957, 10.651469230651855, 10.572314262390137, 10.814905166625977, 10.61713695526123, 10.498285293579102, 10.470867156982422, 10.51020622253418, 10.451555252075195, 10.45215129852295, 10.43248176574707, 10.567307472229004, 10.527849197387695, 10.444045066833496, 10.494828224182129, 10.406970977783203, 10.522127151489258, 10.533928871154785, 10.338783264160156, 10.772228240966797, 10.582566261291504, 10.35618782043457, 10.378003120422363, 10.45215129852295, 10.46764850616455, 10.373830795288086, 10.49816608428955, 10.486006736755371, 10.471820831298828, 10.561585426330566, 10.449528694152832, 10.288238525390625, 10.681509971618652, 10.39743423461914, 10.516166687011719, 10.50710678100586, 10.47825813293457, 10.555028915405273, 10.461091995239258, 10.480284690856934, 10.39135456085205, 10.424137115478516, 10.505437850952148, 10.58804988861084, 10.512948036193848, 10.449409484863281, 10.45536994934082, 10.413765907287598, 10.414958000183105, 10.527610778808594, 10.53011417388916, 10.441184043884277, 10.552167892456055, 10.614752769470215, 10.838627815246582, 10.558605194091797, 10.64920425415039, 10.561466217041016, 10.731935501098633, 10.486364364624023, 10.641098022460938, 10.529756546020508, 10.587215423583984, 10.658860206604004, 10.56969165802002, 10.648846626281738, 10.468482971191406, 10.557770729064941, 10.619521141052246, 10.373711585998535, 10.420680046081543, 10.494351387023926, 10.625839233398438, 10.694384574890137, 10.598301887512207, 10.532498359680176, 10.532617568969727, 11.403918266296387, 10.569214820861816, 10.574102401733398, 10.6658935546875, 10.562777519226074, 10.552406311035156, 10.597825050354004, 10.608315467834473, 10.515570640563965, 10.632634162902832, 10.458230972290039, 10.532617568969727, 10.617971420288086, 10.456681251525879, 10.513782501220703, 10.527491569519043, 10.740160942077637, 10.578036308288574, 10.440826416015625, 10.581612586975098, 10.58661937713623, 10.581612586975098, 10.660767555236816, 10.58650016784668, 10.714292526245117, 10.596275329589844, 10.622978210449219, 10.543584823608398, 10.616183280944824, 10.5055570602417, 10.52248477935791, 10.565638542175293, 10.503292083740234, 10.442256927490234, 10.510683059692383, 10.606646537780762, 10.396122932434082, 10.616779327392578, 10.698080062866211, 10.716795921325684, 10.417580604553223, 10.347604751586914, 10.5665922164917, 10.717034339904785, 10.569572448730469, 10.590791702270508, 10.609745979309082, 10.492920875549316, 10.507941246032715, 10.548830032348633, 10.537266731262207, 10.535717010498047, 10.605216026306152, 10.489583015441895, 10.681986808776855, 10.596871376037598, 10.632038116455078, 10.556221008300781, 10.662198066711426],
  "Depth": 16.5,
  "Expectation Value": -7.25927734375,
  "Optimal Expectation Value": -8.5667724609375,
  "Optimizer durations [ms]": [199.531, 282.973, 199.206, 198.856, 198.228, 282.349, 198.722, 199.443, 282.363, 198.884, 197.611, 282.017, 198.162, 197.832, 282.31, 198.84, 198.202, 281.461, 198.428, 198.362, 198.354, 282.778, 198.046, 197.981, 281.407, 198.626, 197.547, 281.959, 198.403, 198.749, 281.285, 197.872, 198.065, 281.329, 198.909, 199.253, 198.323, 283.508, 198.658, 198.224, 280.572, 198.973, 197.227, 281.13, 198.397, 198.202, 281.674, 198.08, 198.403, 280.988, 197.747, 198.038, 197.938, 282.032, 198.255, 197.314, 281.891, 199.35, 197.521, 280.686, 198.257, 197.86, 283.039, 197.008, 198.541, 282.064, 197.981, 198.442, 198.017, 281.892, 197.426, 197.434, 283.67, 198.233, 198.368, 281.053, 198.383, 197.076, 283.221, 198.815, 199.174, 197.365, 282.196, 198.321, 197.55, 280.618, 198.053, 198.121, 281.12, 198.092, 197.415, 281.09, 197.967, 198.537, 281.876, 198.747, 197.779, 197.662, 282.022, 198.718, 197.705, 280.365, 198.414, 197.104, 281.614, 198.119, 197.864, 280.526, 198.26, 196.974, 281.364, 198.526, 196.804, 197.45, 282.042, 197.949, 197.95, 283.915, 197.225, 198.125, 280.905, 197.617, 197.69, 283.228, 199.154, 198.649, 198.179, 281.816, 198.704, 198.016, 281.025, 197.884, 197.773, 282.073, 197.674, 198.393, 279.786, 197.805, 196.618, 280.834, 197.713, 197.249, 198.134, 281.761, 198.339, 197.535, 280.267, 198.679, 198.143, 281.822, 197.555, 197.382, 280.418, 197.831, 196.984, 281.1, 198.443, 198.253, 197.965, 283.075, 197.426, 196.585, 280.377, 198.725, 197.073, 280.834, 197.379, 196.99, 281.172, 197.832, 197.546, 280.623, 197.306, 197.387, 196.85, 281.43, 197.361, 197.327, 280.455, 197.502, 196.909, 280.925, 198.007, 197.613, 280.238, 197.742, 198.428, 281.126, 197.776, 197.974, 196.941, 282.178, 197.654, 197.441, 280.565, 197.667, 197.696, 280.819, 198.501, 197.413, 280.737, 197.092, 197.257, 280.646, 199.245, 198.028, 196.556, 281.376, 197.225, 197.099, 280.151, 197.976, 196.909, 281.525, 197.8, 196.981, 280.22, 197.805, 197.553, 280.94, 197.701, 197.661, 196.799, 281.886, 198.854, 198.106, 280.275, 197.982, 197.074, 281.011, 198.052, 198.007, 279.994, 197.338, 197.862, 280.287, 198.114, 197.376, 197.325, 281.537, 197.741, 198.428, 279.908, 198.419, 197.617, 281.686, 198.004, 197.393, 280.82, 197.302, 196.766, 280.455, 198.481, 198.305, 196.83, 281.862, 197.147, 197.276, 280.646, 197.58, 197.421, 281.457, 197.357, 197.573, 281.047, 198.196, 198.046, 281.506, 198.237, 197.595, 197.819, 281.519, 197.493, 198.035, 280.531, 198.318, 196.704, 280.89, 198.776, 197.551, 279.822, 197.532, 198.882, 282.784, 197.937, 197.463, 198.31, 281.626, 198.672, 196.903, 280.709, 197.827, 197.939, 281.317, 197.957, 198.105, 280.818, 199.043, 197.699, 282.34, 198.358, 197.647, 197.143, 281.868, 198.57, 197.045, 280.99, 198.462, 196.547, 281.94, 198.593, 197.222, 280.948, 198.657, 196.766, 281.137, 198.418, 197.545, 197.09, 282.257, 197.576, 197.025, 281.026, 197.377, 197.426, 282.894, 198.123, 198.04, 280.882, 197.584, 197.286, 280.801, 198.618, 197.397, 196.966, 281.847, 197.979, 197.296, 282.105, 198.234, 198.175, 281.66, 198.1, 197.828, 280.349, 199.541, 197.424, 280.53, 198.783, 198.458, 197.725, 283.49, 198.445, 197.54, 281.654, 197.487, 197.205, 281.648, 198.446, 198.083, 280.548, 197.928, 198.753, 281.714, 199.232, 197.951, 196.952, 281.832, 197.93, 198.238, 280.876, 198.317, 197.585, 283.393, 197.093, 197.395, 280.661, 197.8, 198.568, 281.296, 197.784, 196.942, 197.45, 281.356, 197.165, 198.091, 281.298, 198.917, 197.54, 281.631, 198.383, 197.899, 280.127, 197.478, 197.818, 281.542, 197.79, 198.002, 197.597, 283.295, 197.761, 197.727, 280.502, 198.962, 198.138, 281.333, 197.244, 197.987, 281.532, 197.548, 197.997, 281.485, 201.346, 202.444, 200.03, 284.106, 198.934, 198.016, 283.364, 198.369, 197.321, 282.047, 198.687, 197.654, 279.965, 197.586, 197.912, 281.693, 198.964, 197.368, 197.938, 284.606],
  "Optimizer iterations": 432,
  "Optimizer params": [0.03994620157012029, 0.07003993410716061, 0.02440765646004061, 0.42578940932571674, 0.9518546404389606, 0.48977898095339567, 0.4584148088182776, 0.9564941924474619, 0.7673432134651446, 0.11640725308310505, 0.18298058673717957, 0.6090147033275963, 0.898847646269833, 0.9606571276019428, 0.020148189305829452, 0.9752953042075184, 0.050857626201330976, 0.5160405264471436, 0.4752141521380062, 0.5343444671586798, 0.9964401635627919, 0.9045245698856095, 0.3561874137695134, 0.864924791272382, 0.9190637712836047, 0.16587895046742723, 0.7000119107827565, 0.9737664770707327],
  "P": 0,
  "Problem": "IC",
  "QJob durations [ms]": [54.75914478302002, 54.528236389160156, 54.729342460632324, 54.529547691345215, 54.61537837982178, 54.26657199859619, 54.47030067443848, 55.144429206848145, 54.32415008544922, 54.46922779083252, 54.207682609558105, 54.442524909973145, 54.479241371154785, 54.39472198486328, 54.87334728240967, 54.43215370178223, 54.70240116119385, 54.434776306152344, 54.63576316833496, 54.250359535217285, 54.535746574401855, 54.143309593200684, 54.12590503692627, 54.41582202911377, 54.46481704711914, 54.65090274810791, 54.08358573913574, 54.45849895477295, 54.43370342254639, 54.648637771606445, 54.36062812805176, 54.049134254455566, 54.48651313781738, 54.065585136413574, 54.43298816680908, 54.45551872253418, 54.41689491271973, 54.206013679504395, 54.3515682220459, 54.2987585067749, 53.96592617034912, 54.52096462249756, 53.827524185180664, 53.9853572845459, 54.346323013305664, 54.334282875061035, 54.46207523345947, 54.06630039215088, 54.24988269805908, 53.97772789001465, 54.17799949645996, 54.05998229980469, 54.12256717681885, 54.31318283081055, 54.22341823577881, 53.77078056335449, 54.3668270111084, 54.66914176940918, 53.800106048583984, 95.81136703491211, 54.02266979217529, 54.03316020965576, 54.093122482299805, 53.61676216125488, 54.221272468566895, 96.41170501708984, 54.166436195373535, 54.26645278930664, 54.22532558441162, 54.1607141494751, 54.07285690307617, 53.9858341217041, 54.430603981018066, 54.33619022369385, 54.5039176940918, 54.204702377319336, 54.039955139160156, 53.87401580810547, 53.99906635284424, 54.34608459472656, 54.139137268066406, 54.05163764953613, 53.920626640319824, 54.13854122161865, 54.07845973968506, 54.10408973693848, 54.12256717681885, 54.08215522766113, 54.028868675231934, 54.11934852600098, 53.987979888916016, 54.13472652435303, 53.989410400390625, 54.342031478881836, 54.271697998046875, 54.32605743408203, 54.14104461669922, 54.111599922180176, 54.03578281402588, 54.07559871673584, 53.99668216705322, 53.70640754699707, 54.2827844619751, 53.232431411743164, 54.22341823577881, 54.028987884521484, 54.051995277404785, 53.80451679229736, 54.0088415145874, 53.471922874450684, 95.98028659820557, 54.17311191558838, 53.46262454986572, 53.8330078125, 54.31246757507324, 54.096341133117676, 54.1762113571167, 54.51667308807373, 53.960561752319336, 54.1306734085083, 54.064035415649414, 53.84957790374756, 54.21566963195801, 54.14223670959473, 54.407596588134766, 54.13472652435303, 54.417967796325684, 53.92301082611084, 54.418206214904785, 54.19588088989258, 54.00824546813965, 54.04222011566162, 53.908348083496094, 54.312705993652344, 54.24237251281738, 54.242491722106934, 54.119229316711426, 53.77757549285889, 53.88832092285156, 53.737759590148926, 54.091572761535645, 53.84647846221924, 54.300785064697266, 53.85017395019531, 54.08215522766113, 53.84695529937744, 53.786277770996094, 54.01873588562012, 53.92634868621826, 54.11231517791748, 54.129719734191895, 53.88045310974121, 53.8179874420166, 53.971290588378906, 53.79045009613037, 53.89416217803955, 54.088473320007324, 53.984642028808594, 54.134249687194824, 54.20494079589844, 53.71391773223877, 53.89225482940674, 53.73203754425049, 54.21602725982666, 53.925275802612305, 53.79295349121094, 53.92467975616455, 53.92611026763916, 54.01611328125, 53.76076698303223, 53.99942398071289, 53.84516716003418, 53.96091938018799, 53.752779960632324, 53.849101066589355, 53.79486083984375, 53.80141735076904, 53.9625883102417, 53.77018451690674, 53.967952728271484, 53.60603332519531, 53.91800403594971, 54.201483726501465, 54.088473320007324, 54.09228801727295, 53.84218692779541, 54.50308322906494, 53.833723068237305, 53.99274826049805, 54.00717258453369, 53.88951301574707, 53.955674171447754, 53.62296104431152, 53.91192436218262, 54.1071891784668, 54.100632667541504, 53.88021469116211, 53.954243659973145, 54.35526371002197, 54.077982902526855, 54.19421195983887, 53.598999977111816, 54.00216579437256, 53.84504795074463, 54.26609516143799, 53.86757850646973, 53.983092308044434, 53.66027355194092, 53.64346504211426, 54.01766300201416, 53.66241931915283, 53.96068096160889, 53.88760566711426, 54.07083034515381, 54.024457931518555, 53.9623498916626, 54.08430099487305, 53.79343032836914, 54.24046516418457, 54.02052402496338, 54.155707359313965, 53.86662483215332, 53.975701332092285, 53.641438484191895, 54.53848838806152, 54.24237251281738, 53.83121967315674, 54.149746894836426, 53.86519432067871, 53.945183753967285, 54.30316925048828, 54.180264472961426, 54.038286209106445, 53.84981632232666, 54.209351539611816, 53.83038520812988, 53.95472049713135, 53.8557767868042, 53.97069454193115, 53.93338203430176, 53.97510528564453, 54.22711372375488, 53.984642028808594, 54.21149730682373, 53.76291275024414, 54.00228500366211, 54.2069673538208, 54.02874946594238, 54.14378643035889, 53.86364459991455, 53.89583110809326, 53.94017696380615, 54.305195808410645, 53.99668216705322, 53.98690700531006, 53.80737781524658, 53.67732048034668, 54.015517234802246, 53.99429798126221, 54.16750907897949, 53.84814739227295, 54.132938385009766, 53.80582809448242, 54.053425788879395, 54.13615703582764, 54.00848388671875, 54.241061210632324, 54.178476333618164, 54.11958694458008, 53.92348766326904, 54.225802421569824, 53.713202476501465, 53.96449565887451, 54.236531257629395, 53.93874645233154, 54.43310737609863, 53.67720127105713, 54.03125286102295, 54.41319942474365, 54.010748863220215, 53.9783239364624, 53.87997627258301, 54.42321300506592, 54.83996868133545, 54.09836769104004, 53.87723445892334, 54.36289310455322, 53.94768714904785, 54.02994155883789, 53.795456886291504, 54.106831550598145, 53.913235664367676, 53.755760192871094, 54.09359931945801, 54.293274879455566, 54.24678325653076, 54.37040328979492, 54.03006076812744, 54.27813529968262, 54.38876152038574, 54.166197776794434, 53.82049083709717, 53.97486686706543, 53.93719673156738, 53.94613742828369, 54.04031276702881, 53.90620231628418, 54.22830581665039, 53.704023361206055, 54.099321365356445, 54.0236234664917, 53.86674404144287, 54.358482360839844, 53.961753845214844, 54.04937267303467, 54.265499114990234, 54.282426834106445, 53.67922782897949, 54.041266441345215, 53.77197265625, 53.826212882995605, 53.89535427093506, 54.03101444244385, 54.018616676330566, 53.609609603881836, 54.555535316467285, 54.16238307952881, 53.8792610168457, 54.13389205932617, 53.70020866394043, 54.02684211730957, 53.85255813598633, 54.1689395904541, 53.83503437042236, 53.88295650482178, 54.00192737579346, 53.80868911743164, 53.949832916259766, 53.93874645233154, 54.289937019348145, 53.77018451690674, 53.93826961517334, 54.132699966430664, 53.99167537689209, 53.96461486816406, 53.937315940856934, 54.152727127075195, 53.95066738128662, 54.2529821395874, 54.0693998336792, 54.27134037017822, 53.782105445861816, 54.15546894073486, 54.123759269714355, 53.99787425994873, 54.02529239654541, 53.879618644714355, 54.10885810852051, 54.334044456481934, 54.26037311553955, 54.16715145111084, 53.93528938293457, 54.55315113067627, 54.04365062713623, 54.326415061950684, 53.83932590484619, 53.83646488189697, 53.88295650482178, 54.001450538635254, 54.361820220947266, 53.93719673156738, 54.265618324279785, 53.90942096710205, 54.96394634246826, 53.989291191101074, 54.03101444244385, 54.24034595489502, 53.778767585754395, 54.14557456970215, 54.03554439544678, 54.20684814453125, 53.72357368469238, 54.17323112487793, 53.73704433441162, 53.69150638580322, 54.12614345550537, 53.85327339172363, 54.23736572265625, 53.842902183532715, 54.39329147338867, 54.157137870788574, 53.986549377441406, 54.116249084472656, 53.82847785949707, 54.366111755371094, 54.152727127075195, 54.07226085662842, 54.0318489074707, 54.19778823852539, 54.445624351501465, 53.81965637207031, 54.117679595947266, 53.896546363830566, 54.24141883850098, 53.84171009063721, 53.91120910644531, 53.85422706604004, 54.14295196533203, 54.27658557891846, 53.72154712677002, 54.25143241882324, 54.22496795654297, 55.23121356964111, 54.95584011077881, 54.5046329498291, 54.12173271179199, 54.36599254608154, 54.20398712158203, 54.02553081512451, 54.258108139038086, 53.79140377044678, 54.050445556640625, 54.23760414123535, 54.07845973968506, 54.07094955444336, 54.02016639709473, 54.1224479675293, 54.2985200881958, 54.24630641937256, 53.992629051208496, 54.23104763031006, 54.24988269805908],
  "QPU": "3010008",
  "Qubits": 7,
  "Queue durations [ms]": [0.0, 0.0, 0.0, 0.0, 0.0, 0.0, 0.0, 0.0, 0.0, 0.0, 0.0, 0.0, 0.0, 0.0, 0.0, 0.0, 0.0, 0.0, 0.0, 0.0, 0.0, 0.0, 0.0, 0.0, 0.0, 0.0, 0.0, 0.0, 0.0, 0.0, 0.0, 0.0, 0.0, 0.0, 0.0, 0.0, 0.0, 0.0, 0.0, 0.0, 0.0, 0.0, 0.0, 0.0, 0.0, 0.0, 0.0, 0.0, 0.0, 0.0, 0.0, 0.0, 0.0, 0.0, 0.0, 0.0, 0.0, 0.0, 0.0, 0.0, 0.0, 0.0, 0.0, 0.0, 0.0, 0.0, 0.0, 0.0, 0.0, 0.0, 0.0, 0.0, 0.0, 0.0, 0.0, 0.0, 0.0, 0.0, 0.0, 0.0, 0.0, 0.0, 0.0, 0.0, 0.0, 0.0, 0.0, 0.0, 0.0, 0.0, 0.0, 0.0, 0.0, 0.0, 0.0, 0.0, 0.0, 0.0, 0.0, 0.0, 0.0, 0.0, 0.0, 0.0, 0.0, 0.0, 0.0, 0.0, 0.0, 0.0, 0.0, 0.0, 0.0, 0.0, 0.0, 0.0, 0.0, 0.0, 0.0, 0.0, 0.0, 0.0, 0.0, 0.0, 0.0, 0.0, 0.0, 0.0, 0.0, 0.0, 0.0, 0.0, 0.0, 0.0, 0.0, 0.0, 0.0, 0.0, 0.0, 0.0, 0.0, 0.0, 0.0, 0.0, 0.0, 0.0, 0.0, 0.0, 0.0, 0.0, 0.0, 0.0, 0.0, 0.0, 0.0, 0.0, 0.0, 0.0, 0.0, 0.0, 0.0, 0.0, 0.0, 0.0, 0.0, 0.0, 0.0, 0.0, 0.0, 0.0, 0.0, 0.0, 0.0, 0.0, 0.0, 0.0, 0.0, 0.0, 0.0, 0.0, 0.0, 0.0, 0.0, 0.0, 0.0, 0.0, 0.0, 0.0, 0.0, 0.0, 0.0, 0.0, 0.0, 0.0, 0.0, 0.0, 0.0, 0.0, 0.0, 0.0, 0.0, 0.0, 0.0, 0.0, 0.0, 0.0, 0.0, 0.0, 0.0, 0.0, 0.0, 0.0, 0.0, 0.0, 0.0, 0.0, 0.0, 0.0, 0.0, 0.0, 0.0, 0.0, 0.0, 0.0, 0.0, 0.0, 0.0, 0.0, 0.0, 0.0, 0.0, 0.0, 0.0, 0.0, 0.0, 0.0, 0.0, 0.0, 0.0, 0.0, 0.0, 0.0, 0.0, 0.0, 0.0, 0.0, 0.0, 0.0, 0.0, 0.0, 0.0, 0.0, 0.0, 0.0, 0.0, 0.0, 0.0, 0.0, 0.0, 0.0, 0.0, 0.0, 0.0, 0.0, 0.0, 0.0, 0.0, 0.0, 0.0, 0.0, 0.0, 0.0, 0.0, 0.0, 0.0, 0.0, 0.0, 0.0, 0.0, 0.0, 0.0, 0.0, 0.0, 0.0, 0.0, 0.0, 0.0, 0.0, 0.0, 0.0, 0.0, 0.0, 0.0, 0.0, 0.0, 0.0, 0.0, 0.0, 0.0, 0.0, 0.0, 0.0, 0.0, 0.0, 0.0, 0.0, 0.0, 0.0, 0.0, 0.0, 0.0, 0.0, 0.0, 0.0, 0.0, 0.0, 0.0, 0.0, 0.0, 0.0, 0.0, 0.0, 0.0, 0.0, 0.0, 0.0, 0.0, 0.0, 0.0, 0.0, 0.0, 0.0, 0.0, 0.0, 0.0, 0.0, 0.0, 0.0, 0.0, 0.0, 0.0, 0.0, 0.0, 0.0, 0.0, 0.0, 0.0, 0.0, 0.0, 0.0, 0.0, 0.0, 0.0, 0.0, 0.0, 0.0, 0.0, 0.0, 0.0, 0.0, 0.0, 0.0, 0.0, 0.0, 0.0, 0.0, 0.0, 0.0, 0.0, 0.0, 0.0, 0.0, 0.0, 0.0, 0.0, 0.0, 0.0, 0.0, 0.0, 0.0, 0.0, 0.0, 0.0, 0.0, 0.0, 0.0, 0.0, 0.0, 0.0, 0.0, 0.0, 0.0, 0.0, 0.0, 0.0, 0.0, 0.0, 0.0, 0.0, 0.0, 0.0, 0.0, 0.0, 0.0, 0.0, 0.0, 0.0, 0.0, 0.0, 0.0, 0.0, 0.0, 0.0, 0.0, 0.0, 0.0, 0.0, 0.0, 0.0, 0.0, 0.0, 0.0, 0.0, 0.0, 0.0, 0.0, 0.0, 0.0, 0.0, 0.0, 0.0, 0.0],
  "Shots": 4096,
  "Size": 7,
  "Total Algorithm duration [s]": 96.783,
  "Total Classic duration [s]": 73.29131067562103,
  "Total Quantum duration [s]": 23.491689324378967
}
