{
  "Circuit execution durations [ms]": [11.222481727600098, 11.177897453308105, 11.096000671386719, 11.29615306854248, 11.307597160339355, 11.460065841674805, 11.000871658325195, 11.069178581237793, 11.273503303527832, 11.067748069763184, 11.1922025680542, 11.120915412902832, 11.127710342407227, 11.284947395324707, 11.144518852233887, 11.260747909545898, 11.238932609558105, 11.25800609588623, 11.170744895935059, 11.005640029907227, 11.151432991027832, 11.140227317810059, 11.2990140914917, 11.287808418273926, 11.188983917236328, 11.234164237976074, 11.060118675231934, 11.398077011108398, 11.208653450012207, 11.0245943069458, 11.153817176818848, 11.16323471069336, 10.947704315185547, 11.066436767578125, 10.98644733428955, 11.226534843444824, 11.102437973022461, 10.976195335388184, 10.907769203186035, 10.777473449707031, 10.874629020690918, 10.738611221313477, 10.840773582458496, 10.750055313110352, 10.87641716003418, 11.009573936462402, 10.680675506591797, 10.968208312988281, 10.720610618591309, 10.916590690612793, 10.8872652053833, 10.860919952392578, 10.818004608154297, 10.74528694152832, 10.650277137756348, 10.846376419067383, 10.850787162780762, 10.880470275878906, 10.762810707092285, 10.815143585205078, 10.640740394592285, 10.891318321228027, 10.709643363952637, 10.574817657470703, 10.736227035522461, 10.670781135559082, 10.85960865020752, 10.876655578613281, 10.880351066589355, 10.996818542480469, 10.864496231079102, 10.836124420166016, 11.090397834777832, 10.92529296875, 10.849833488464355, 10.929107666015625, 10.92529296875, 11.061668395996094, 10.859847068786621, 10.93137264251709, 10.889410972595215, 10.897159576416016, 10.906338691711426, 10.745406150817871, 10.851621627807617, 11.043667793273926, 10.944247245788574, 10.826945304870605, 10.909438133239746, 10.704398155212402, 10.854005813598633, 10.986089706420898, 10.88857650756836, 11.038541793823242, 10.855555534362793, 11.015653610229492, 10.836243629455566, 10.846853256225586, 10.734796524047852, 10.991096496582031, 10.736227035522461, 11.010169982910156, 10.890364646911621, 10.687589645385742, 10.861873626708984, 10.860562324523926, 10.74683666229248, 10.96343994140625, 10.912656784057617, 11.015772819519043, 11.716723442077637, 10.940194129943848, 10.903120040893555, 10.75291633605957, 11.060118675231934, 11.016249656677246, 10.922551155090332, 10.820627212524414, 10.808110237121582, 10.936856269836426, 10.998725891113281, 10.927796363830566, 10.915756225585938, 10.656118392944336, 11.763453483581543, 10.748624801635742, 10.817527770996094, 10.832071304321289, 10.779500007629395, 10.748505592346191, 10.70404052734375, 10.9022855758667, 10.98942756652832, 10.983824729919434, 10.995984077453613, 10.989189147949219, 10.9788179397583, 10.738611221313477, 10.839700698852539, 10.758757591247559, 10.828614234924316, 10.823249816894531, 10.931015014648438, 10.875225067138672, 10.891318321228027, 10.781288146972656, 10.949850082397461, 10.778307914733887, 10.845065116882324, 10.817766189575195, 10.875344276428223, 10.85972785949707, 10.788440704345703, 10.837793350219727, 10.849833488464355, 11.107563972473145, 10.812997817993164, 10.646700859069824, 10.572433471679688, 10.583639144897461, 10.748028755187988, 10.766386985778809, 10.746121406555176, 10.723710060119629, 10.731697082519531, 10.826826095581055, 10.705709457397461, 10.721206665039063, 10.616660118103027, 10.73908805847168, 10.658979415893555, 10.588407516479492, 10.62154769897461, 10.504841804504395, 10.545015335083008, 10.631084442138672, 10.501861572265625, 10.652422904968262, 10.517001152038574, 10.515213012695313, 10.506868362426758, 10.558009147644043, 10.440230369567871, 10.65981388092041, 10.550141334533691, 10.540366172790527, 10.517358779907227, 10.52248477935791, 10.63990592956543, 10.697245597839355, 10.704994201660156, 10.672807693481445, 10.529756546020508, 10.621786117553711, 10.710358619689941, 10.684013366699219, 10.769486427307129, 10.652780532836914, 10.820984840393066, 10.57291030883789, 10.835051536560059, 10.802984237670898, 10.76650619506836, 10.53321361541748, 10.59114933013916, 10.641813278198242, 10.622620582580566, 10.515570640563965, 10.56969165802002, 10.527849197387695, 10.762214660644531, 10.809183120727539, 10.579466819763184, 10.719656944274902, 10.68103313446045, 10.657310485839844, 10.627985000610352, 10.824918746948242, 10.615110397338867, 10.527968406677246, 10.690450668334961, 10.522961616516113, 10.555148124694824, 10.603904724121094, 10.534167289733887, 10.646581649780273, 10.6126070022583, 10.716915130615234, 10.796785354614258, 10.599374771118164, 10.708451271057129, 10.77568531036377, 10.60330867767334, 10.525226593017578, 10.903716087341309, 10.651826858520508, 10.603904724121094, 10.648012161254883, 10.681748390197754, 10.688066482543945, 10.732650756835938, 10.630488395690918, 10.657668113708496, 10.830998420715332, 10.662317276000977, 10.691404342651367, 10.660529136657715, 10.62154769897461, 10.68568229675293, 10.527253150939941, 10.499835014343262, 10.564565658569336, 10.579466819763184, 10.774493217468262, 10.720252990722656, 10.596275329589844, 10.664820671081543, 10.586380958557129, 10.660767555236816, 10.564923286437988, 10.750889778137207, 10.63227653503418, 10.632038116455078, 10.692358016967773, 10.629773139953613, 10.5363130569458, 10.897397994995117, 10.677814483642578, 10.55896282196045, 10.44917106628418, 10.88106632232666, 10.587692260742188, 10.685563087463379, 10.715603828430176, 10.625600814819336, 10.866641998291016, 10.81705093383789, 10.577201843261719, 10.451197624206543, 10.549426078796387, 10.526657104492188, 10.616898536682129, 10.7649564743042, 10.807633399963379, 10.766744613647461, 10.747551918029785, 10.534882545471191, 10.667562484741211, 10.854125022888184, 10.753154754638672, 10.7496976852417, 10.601997375488281, 10.68425178527832, 10.507702827453613, 10.67507266998291, 10.76209545135498, 10.805964469909668, 10.712504386901855, 10.779500007629395, 10.915994644165039, 10.863184928894043, 10.63692569732666, 10.727524757385254, 10.703682899475098, 10.64455509185791, 10.556936264038086, 10.798096656799316, 10.649561882019043, 10.552406311035156, 10.452032089233398, 10.562419891357422, 10.76352596282959, 10.728955268859863, 10.733604431152344, 10.538339614868164, 10.681390762329102, 10.653376579284668, 10.588645935058594, 10.6353759765625, 10.486245155334473, 10.621309280395508, 10.643839836120605, 10.531187057495117, 10.541915893554688, 10.672807693481445, 10.63847541809082, 10.653018951416016, 10.652899742126465, 10.716438293457031, 10.71786880493164, 10.756850242614746, 10.759830474853516, 10.767102241516113, 10.64145565032959, 10.69784164428711, 10.738492012023926, 10.759234428405762, 10.831236839294434, 10.843873023986816, 10.549426078796387, 10.546088218688965, 10.706186294555664, 10.822892189025879, 10.573625564575195, 10.81836223602295, 10.938525199890137, 10.660409927368164, 10.793566703796387, 10.841965675354004, 10.784149169921875, 10.725975036621094, 10.628461837768555, 10.636448860168457, 10.660052299499512, 10.566473007202148, 10.592818260192871, 10.564208030700684, 10.639667510986328, 10.56063175201416, 10.685205459594727, 10.725975036621094, 10.596752166748047, 10.554790496826172, 10.56063175201416, 10.743379592895508, 10.638952255249023, 10.74206829071045, 10.74516773223877, 10.712981224060059, 10.70702075958252, 10.761857032775879, 10.755300521850586, 10.677933692932129, 10.579705238342285, 10.627508163452148, 10.51628589630127, 10.441064834594727, 10.646939277648926, 10.740995407104492, 10.636448860168457, 10.544657707214355, 10.649561882019043, 10.618090629577637, 10.789990425109863, 10.859966278076172, 10.841012001037598, 10.980606079101563, 10.912775993347168, 10.742783546447754, 10.56218147277832, 10.624408721923828, 10.642170906066895, 10.423064231872559, 10.63239574432373, 10.793328285217285, 10.819673538208008, 10.854601860046387, 10.80930233001709, 10.540604591369629, 10.84136962890625, 10.714888572692871, 10.632514953613281, 10.591387748718262, 10.722637176513672, 10.909080505371094, 10.662555694580078, 10.604262351989746, 10.952949523925781, 10.670065879821777, 10.846734046936035, 10.613441467285156, 10.487198829650879, 10.630607604980469, 10.67650318145752, 10.79857349395752, 10.915637016296387, 10.670304298400879, 10.625123977661133, 10.869622230529785, 10.558366775512695, 10.816216468811035, 10.585427284240723, 10.661005973815918, 10.695934295654297, 10.486364364624023, 10.667681694030762, 10.734319686889648, 10.652899742126465, 10.818958282470703, 10.946035385131836, 10.66744327545166, 10.695457458496094, 10.608673095703125, 10.617494583129883, 10.665416717529297, 10.634541511535645, 10.943174362182617, 10.709524154663086, 10.843634605407715, 10.940313339233398, 10.927081108093262, 10.779380798339844, 10.58506965637207, 10.588526725769043, 10.56516170501709, 10.55610179901123, 10.904192924499512, 10.855555534362793, 10.927677154541016, 10.843157768249512, 10.827302932739258, 10.464906692504883, 10.629773139953613, 10.506749153137207, 10.744333267211914, 10.836005210876465, 10.74361801147461, 10.895013809204102, 10.790467262268066, 10.822057723999023, 10.747909545898438, 10.558485984802246, 10.61403751373291, 10.523080825805664, 10.692834854125977, 10.661959648132324, 10.806798934936523, 10.575532913208008, 10.883212089538574, 10.81705093383789, 10.709881782531738, 10.641336441040039, 10.551095008850098, 10.50102710723877, 10.570049285888672, 10.846972465515137, 10.85054874420166, 10.74373722076416, 10.640501976013184, 10.812997817993164, 10.741591453552246, 10.651350021362305, 10.61403751373291, 10.532379150390625, 10.744929313659668, 10.57887077331543, 10.800719261169434, 10.865449905395508, 10.720014572143555, 10.820984840393066, 10.877490043640137, 10.66887378692627, 10.603904724121094, 10.4752779006958, 10.630488395690918, 10.768651962280273, 10.679125785827637, 10.818243026733398, 10.743856430053711, 10.910987854003906, 10.822296142578125, 10.851263999938965, 10.692358016967773, 10.57291030883789, 10.655403137207031, 10.425090789794922, 10.679125785827637, 10.76042652130127, 10.698199272155762, 10.626077651977539, 10.827064514160156, 10.748505592346191, 10.716676712036133, 10.736942291259766, 10.674476623535156, 10.641217231750488, 10.862350463867188, 10.586857795715332, 10.834813117980957, 10.737061500549316, 10.777115821838379, 10.578274726867676, 10.473489761352539, 10.631799697875977, 10.60473918914795, 10.753870010375977, 10.924935340881348, 10.621428489685059, 10.820508003234863, 10.700106620788574, 10.93292236328125, 10.823249816894531, 10.711073875427246, 10.667085647583008, 10.689735412597656, 10.767817497253418, 10.812759399414063, 10.864853858947754],
  "Depth": 16.5,
  "Expectation Value": -7.72607421875,
  "Optimal Expectation Value": -8.5667724609375,
  "Optimizer durations [ms]": [282.358, 199.921, 199.287, 283.804, 199.801, 199.802, 199.272, 283.266, 199.672, 198.961, 282.567, 199.82, 200.209, 283.264, 199.824, 200.367, 283.626, 199.975, 199.189, 287.251, 200.689, 200.831, 199.789, 283.897, 199.953, 199.85, 282.41, 200.548, 199.135, 283.753, 199.651, 198.781, 282.045, 199.533, 199.212, 282.801, 199.937, 199.075, 199.364, 283.403, 199.256, 198.332, 282.102, 200.857, 198.773, 282.233, 198.231, 199.439, 281.675, 198.605, 198.57, 282.321, 199.875, 198.774, 197.895, 283.001, 199.056, 198.948, 281.198, 199.103, 198.371, 282.937, 198.299, 197.635, 281.913, 198.33, 199.209, 282.073, 199.246, 198.861, 198.273, 282.941, 199.006, 198.92, 281.808, 198.235, 198.694, 282.145, 199.485, 197.772, 282.135, 197.531, 198.697, 284.402, 198.187, 198.112, 198.835, 284.072, 198.796, 197.102, 281.449, 199.278, 198.309, 282.028, 198.145, 198.856, 284.406, 198.877, 199.035, 282.033, 198.594, 199.819, 198.429, 280.918, 198.944, 199.251, 285.163, 197.856, 198.557, 280.647, 201.449, 198.231, 283.703, 198.008, 199.95, 200.109, 282.555, 199.364, 198.337, 284.607, 198.282, 198.568, 282.185, 198.09, 200.289, 286.401, 198.998, 198.149, 198.75, 283.165, 198.466, 199.821, 282.422, 200.216, 200.337, 284.219, 199.014, 199.536, 281.713, 199.669, 199.447, 283.55, 199.53, 199.594, 197.904, 284.405, 198.804, 198.434, 283.492, 200.809, 198.668, 281.92, 199.296, 198.45, 281.872, 199.511, 198.11, 281.877, 200.901, 197.466, 199.642, 283.942, 200.029, 199.015, 283.472, 199.007, 198.524, 282.229, 198.743, 198.914, 282.878, 198.881, 200.105, 283.918, 199.258, 198.796, 199.101, 283.812, 198.963, 198.804, 282.751, 199.492, 198.389, 281.264, 198.281, 199.77, 281.508, 198.782, 198.885, 283.342, 199.497, 200.861, 198.759, 283.472, 200.284, 197.791, 285.309, 199.312, 197.625, 281.55, 200.743, 199.885, 283.604, 200.81, 197.954, 285.237, 199.558, 198.972, 198.782, 286.745, 199.124, 197.329, 283.356, 198.705, 199.044, 285.511, 198.902, 198.916, 199.117, 282.51, 198.177, 199.291, 282.608, 199.534, 199.464, 286.381, 198.286, 198.819, 281.15, 197.939, 198.667, 282.077, 198.794, 196.756, 197.814, 283.415, 198.535, 197.347, 282.018, 198.365, 197.437, 281.929, 200.057, 197.949, 280.886, 199.78, 198.078, 281.983, 197.598, 197.569, 199.097, 281.86, 198.24, 198.761, 285.639, 198.238, 196.879, 283.379, 198.865, 198.503, 282.786, 198.545, 198.73, 282.35, 198.045, 197.277, 198.207, 281.891, 198.587, 198.935, 284.904, 200.089, 198.585, 281.368, 197.806, 199.041, 283.161, 199.131, 199.337, 199.025, 282.685, 198.43, 197.952, 281.254, 198.482, 199.964, 282.331, 198.787, 198.714, 281.546, 198.515, 199.444, 281.34, 198.676, 200.809, 198.286, 282.563, 198.807, 198.785, 281.521, 198.477, 201.028, 282.515, 198.057, 198.579, 283.24, 199.704, 199.214, 282.414, 199.056, 198.046, 198.027, 282.556, 199.6, 199.266, 283.721, 199.044, 198.912, 283.079, 198.275, 200.304, 281.53, 199.673, 199.925, 281.357, 201.756, 199.408, 198.829, 283.935, 198.57, 199.25, 280.989, 199.625, 199.792, 282.359, 199.433, 198.532, 282.305, 198.692, 197.484, 281.704, 200.77, 199.183, 199.504, 283.66, 198.435, 197.518, 282.953, 198.443, 199.193, 282.594, 199.833, 197.482, 280.318, 197.64, 197.892, 281.489, 199.686, 198.246, 198.717, 284.221, 198.145, 197.139, 280.561, 200.004, 199.701, 282.761, 198.324, 198.347, 281.656, 199.538, 199.02, 283.056, 199.76, 198.352, 199.543, 281.92, 197.849, 198.399, 281.822, 200.34, 197.963, 281.735, 198.195, 198.607, 281.492, 198.779, 199.549, 281.433, 198.654, 197.725, 198.056, 284.632, 198.569, 197.883, 281.006, 198.608, 198.656, 281.405, 198.732, 199.027, 282.083, 198.302, 197.908, 282.254, 198.872, 198.535, 198.215, 282.265, 198.694, 198.053, 281.019, 197.885, 197.858, 282.788, 200.46, 198.01, 280.464, 198.407, 197.569, 281.908, 197.875, 197.852, 198.423, 283.118, 198.494, 197.863, 281.775, 199.333, 198.04, 281.811, 198.906, 198.842, 282.404, 198.392, 197.367, 281.509, 199.585, 198.128, 197.411, 282.705, 198.582, 197.323, 280.543, 197.868, 198.121, 283.108, 198.006, 198.599, 281.696, 198.488, 197.374, 281.244, 197.469, 198.315, 198.042, 283.02, 198.322, 197.767, 282.26, 198.912, 197.771, 281.869, 197.596, 197.894, 281.538, 198.071, 197.943, 283.095, 199.163, 198.142, 197.692, 282.754, 198.464, 197.641, 281.214, 199.33, 198.278, 281.626, 198.28, 197.651, 281.629, 198.598, 197.112, 281.337, 199.152, 198.683, 198.26, 282.552, 197.91, 198.428, 281.716, 198.52, 196.854, 282.699, 199.726, 199.199, 281.667, 197.878, 198.946, 281.918, 199.125, 198.078, 196.842, 282.949, 197.436, 197.783, 281.045, 198.352, 198.023, 282.454, 197.792, 198.298, 282.03, 199.935, 197.707, 281.692, 198.03, 197.912, 198.38, 282.436, 197.763, 197.888, 281.174, 198.577, 198.031, 284.224, 198.135, 198.231, 281.342, 198.561, 198.712, 281.309, 197.979, 197.906, 198.031, 283.115, 198.983],
  "Optimizer iterations": 538,
  "Optimizer params": [0.9310072430117872, 0.05595171434487551, 0.4285317198809602, 0.5576344335137772, 0.12908226177000193, 0.9332726672479447, 0.509936777845301, 0.7879350061626453, 0.9009434936208018, 0.6325836116855607, 0.8185540186502289, 0.8891173766115743, 0.12028985729316465, 0.09490137087748061, 0.03095248494256168, 0.9599164896119464, 0.5590989134755947, 0.06272369103449837, 0.4850598961291634, 0.07592232275478707, 0.5583545687913969, 0.20342578738716846, 0.4882004361872155, 0.1429218609493623, 0.9181466236703469, 0.9589094466501117, 0.6538086277275817, 0.30232052921926783],
  "P": 0,
  "Problem": "IC",
  "QJob durations [ms]": [54.917216300964355, 54.77571487426758, 55.00054359436035, 54.8321008682251, 54.97777462005615, 54.87251281738281, 54.76045608520508, 54.541587829589844, 54.701805114746094, 54.71241474151611, 54.7943115234375, 54.81290817260742, 54.4816255569458, 54.87203598022461, 54.767489433288574, 55.09448051452637, 55.57703971862793, 54.700374603271484, 54.84271049499512, 55.52327632904053, 55.13358116149902, 54.88920211791992, 54.982900619506836, 54.85844612121582, 54.73029613494873, 54.97121810913086, 54.58629131317139, 55.16946315765381, 54.6032190322876, 54.818034172058105, 54.83806133270264, 54.656147956848145, 54.54814434051514, 54.53217029571533, 54.71765995025635, 54.68189716339111, 54.77583408355713, 54.395198822021484, 54.62503433227539, 54.1844367980957, 54.44490909576416, 54.45683002471924, 54.35657501220703, 55.46844005584717, 54.24857139587402, 54.588913917541504, 54.34870719909668, 54.64673042297363, 54.26836013793945, 54.23307418823242, 54.56995964050293, 54.324984550476074, 54.42619323730469, 54.14879322052002, 54.17025089263916, 54.375529289245605, 54.34620380401611, 54.74209785461426, 54.355502128601074, 54.42368984222412, 53.96628379821777, 54.588913917541504, 54.24916744232178, 54.09717559814453, 54.47542667388916, 54.02553081512451, 54.73518371582031, 54.36289310455322, 54.627060890197754, 54.35633659362793, 54.50761318206787, 54.35657501220703, 54.5809268951416, 54.71062660217285, 54.33619022369385, 54.067134857177734, 54.341912269592285, 96.21405601501465, 54.377079010009766, 54.387688636779785, 54.348111152648926, 53.37071418762207, 54.49533462524414, 54.49807643890381, 54.40187454223633, 54.083824157714844, 54.55029010772705, 54.26466464996338, 54.24654483795166, 53.916096687316895, 54.16440963745117, 54.85701560974121, 54.13925647735596, 96.00305557250977, 54.274797439575195, 54.257869720458984, 54.276347160339355, 54.395318031311035, 54.40878868103027, 96.26758098602295, 54.46314811706543, 54.48710918426514, 54.323673248291016, 53.64501476287842, 54.59952354431152, 54.33237552642822, 55.07922172546387, 53.74038219451904, 54.54230308532715, 53.498268127441406, 55.21833896636963, 53.992629051208496, 97.00274467468262, 54.28183078765869, 54.486751556396484, 54.668426513671875, 54.273247718811035, 54.46302890777588, 54.20994758605957, 54.772019386291504, 54.54421043395996, 54.47804927825928, 54.59702014923096, 54.010987281799316, 55.34815788269043, 54.192304611206055, 54.4896125793457, 54.343342781066895, 54.4736385345459, 54.17025089263916, 54.161787033081055, 54.95250225067139, 54.44371700286865, 55.00030517578125, 55.011749267578125, 55.14407157897949, 54.93819713592529, 54.773569107055664, 54.32403087615967, 54.396986961364746, 54.69965934753418, 54.74519729614258, 54.418087005615234, 54.60822582244873, 54.30471897125244, 54.8633337020874, 54.349660873413086, 54.4506311416626, 54.70263957977295, 55.231571197509766, 54.48043346405029, 54.35466766357422, 54.755210876464844, 54.51476573944092, 54.52775955200195, 54.19516563415527, 54.38816547393799, 54.259419441223145, 55.338501930236816, 53.93362045288086, 55.08911609649658, 54.476261138916016, 54.63266372680664, 54.692864418029785, 54.87775802612305, 54.578542709350586, 54.224252700805664, 54.238200187683105, 54.35681343078613, 54.21745777130127, 54.66771125793457, 54.372429847717285, 55.156588554382324, 54.23462390899658, 54.69107627868652, 54.323673248291016, 54.869651794433594, 54.718852043151855, 54.29792404174805, 54.36837673187256, 54.482221603393555, 54.53765392303467, 53.70032787322998, 53.824543952941895, 54.12924289703369, 54.99982833862305, 53.96628379821777, 54.46803569793701, 54.5353889465332, 96.95374965667725, 54.67700958251953, 54.81076240539551, 54.38268184661865, 54.34155464172363, 55.145859718322754, 53.9323091506958, 54.456114768981934, 54.68487739562988, 54.232239723205566, 54.29184436798096, 54.88550662994385, 55.12714385986328, 54.529786109924316, 55.25624752044678, 54.06320095062256, 97.47612476348877, 54.76939678192139, 54.67832088470459, 54.22532558441162, 55.219054222106934, 54.486870765686035, 53.943514823913574, 54.68881130218506, 54.35013771057129, 54.82137203216553, 54.956674575805664, 54.692745208740234, 54.52704429626465, 54.74519729614258, 53.92563343048096, 54.157257080078125, 54.87990379333496, 54.1841983795166, 54.3743371963501, 54.65078353881836, 55.460214614868164, 54.421186447143555, 54.439425468444824, 54.35442924499512, 54.026246070861816, 54.6875, 54.207563400268555, 54.283857345581055, 53.807973861694336, 54.459214210510254, 54.209232330322266, 53.98714542388916, 54.067015647888184, 54.38411235809326, 54.346323013305664, 54.02183532714844, 54.268836975097656, 54.98147010803223, 54.32450771331787, 54.19611930847168, 54.42917346954346, 54.31544780731201, 54.33094501495361, 53.79295349121094, 53.86543273925781, 54.4888973236084, 53.78127098083496, 54.31258678436279, 54.59856986999512, 54.84795570373535, 54.29375171661377, 53.76410484313965, 96.98450565338135, 54.1386604309082, 54.152488708496094, 54.06808853149414, 54.57329750061035, 54.36968803405762, 96.38571739196777, 54.17013168334961, 53.840041160583496, 54.46350574493408, 54.28469181060791, 54.21483516693115, 54.19158935546875, 54.60333824157715, 54.47578430175781, 54.13484573364258, 54.29816246032715, 53.98356914520264, 54.61311340332031, 54.20827865600586, 54.58486080169678, 54.6422004699707, 54.621100425720215, 54.077744483947754, 54.07512187957764, 54.17072772979736, 54.27956581115723, 54.329633712768555, 54.31687831878662, 54.12948131561279, 54.55219745635986, 54.48019504547119, 54.5198917388916, 54.161906242370605, 54.773688316345215, 54.23617362976074, 54.3593168258667, 54.49116230010986, 54.37874794006348, 54.109811782836914, 54.433584213256836, 54.49521541595459, 54.283738136291504, 54.402709007263184, 55.136799812316895, 54.320573806762695, 54.31866645812988, 54.376840591430664, 54.735660552978516, 54.503798484802246, 54.60560321807861, 54.3673038482666, 54.36503887176514, 54.03256416320801, 54.15916442871094, 54.042935371398926, 54.43108081817627, 54.52883243560791, 54.80468273162842, 54.53217029571533, 54.29887771606445, 54.73518371582031, 54.31103706359863, 54.903388023376465, 54.20064926147461, 54.29220199584961, 54.96013164520264, 54.177284240722656, 55.66084384918213, 54.41117286682129, 54.6727180480957, 54.347991943359375, 54.10778522491455, 54.9241304397583, 54.08751964569092, 54.78012561798096, 54.19802665710449, 54.38566207885742, 54.76343631744385, 54.53824996948242, 54.78775501251221, 54.067373275756836, 54.172635078430176, 54.14021015167236, 55.029869079589844, 54.58986759185791, 55.03988265991211, 54.395318031311035, 54.248690605163574, 54.176926612854004, 54.773926734924316, 54.509758949279785, 54.19445037841797, 54.54885959625244, 54.84449863433838, 54.13937568664551, 54.16607856750488, 53.79819869995117, 54.30126190185547, 53.966522216796875, 54.8478364944458, 54.15952205657959, 54.53670024871826, 54.506540298461914, 54.03923988342285, 53.932785987854004, 53.88152599334717, 54.94821071624756, 54.3367862701416, 54.23712730407715, 54.29732799530029, 54.15654182434082, 54.79109287261963, 54.43120002746582, 54.79550361633301, 54.74555492401123, 54.79896068572998, 54.31187152862549, 54.30102348327637, 53.95805835723877, 54.012298583984375, 54.5499324798584, 54.331064224243164, 54.43763732910156, 54.07083034515381, 54.183363914489746, 54.34238910675049, 54.47733402252197, 54.416656494140625, 54.346680641174316, 54.708123207092285, 54.174184799194336, 54.24165725708008, 53.96723747253418, 54.27563190460205, 54.000258445739746, 54.093241691589355, 54.29482460021973, 54.1529655456543, 54.3748140335083, 54.351806640625, 54.02827262878418, 54.439544677734375, 54.47232723236084, 54.4123649597168, 53.955793380737305, 54.289817810058594, 54.444193840026855, 54.30245399475098, 54.09526824951172, 54.40700054168701, 54.04388904571533, 54.30436134338379, 54.22711372375488, 54.041266441345215, 54.14402484893799, 53.94852161407471, 54.68559265136719, 55.21869659423828, 54.27145957946777, 54.213523864746094, 54.14557456970215, 54.13675308227539, 54.20637130737305, 54.2525053024292, 54.02719974517822, 54.186224937438965, 54.590821266174316, 54.1536808013916, 54.24237251281738, 54.203152656555176, 54.63671684265137, 54.26216125488281, 54.235100746154785, 54.24821376800537, 54.57770824432373, 54.2832612991333, 54.005980491638184, 54.19814586639404, 54.293274879455566, 54.529547691345215, 54.386258125305176, 54.299235343933105, 54.30436134338379, 54.11231517791748, 54.184675216674805, 53.955912590026855, 54.03876304626465, 54.05426025390625, 54.59630489349365, 54.393768310546875, 54.53896522521973, 54.43131923675537, 54.09038066864014, 54.08370494842529, 54.07977104187012, 53.992509841918945, 54.112792015075684, 54.29196357727051, 54.085373878479004, 54.26216125488281, 54.337382316589355, 54.360032081604004, 54.42988872528076, 53.79509925842285, 54.13699150085449, 54.17180061340332, 54.169535636901855, 54.19921875, 54.05914783477783, 54.225921630859375, 54.48305606842041, 54.4818639755249, 54.04031276702881, 54.152488708496094, 54.11112308502197, 54.08155918121338, 53.96592617034912, 54.23402786254883, 54.53765392303467, 54.0846586227417, 54.250359535217285, 54.358482360839844, 54.16393280029297, 54.39138412475586, 54.04698848724365, 54.11672592163086, 54.14319038391113, 54.57663536071777, 54.633259773254395, 54.33845520019531, 54.11851406097412, 54.18515205383301, 54.5274019241333, 54.21340465545654, 54.27873134613037, 53.75039577484131, 54.419636726379395, 54.33297157287598, 54.89766597747803, 54.356932640075684, 54.007530212402344, 54.650306701660156, 54.36527729034424, 54.61430549621582, 54.142117500305176, 53.990840911865234, 54.018616676330566, 53.78079414367676, 54.29661273956299, 54.285645484924316, 54.50570583343506, 53.99513244628906, 54.55195903778076, 54.22019958496094, 54.294586181640625, 54.50594425201416, 54.20100688934326, 54.18121814727783, 54.290175437927246, 54.27396297454834, 54.24082279205322, 54.55458164215088, 54.21137809753418, 54.03733253479004, 54.17609214782715, 54.059743881225586, 54.216861724853516, 53.99191379547119, 54.56507205963135, 54.17525768280029, 54.52847480773926, 54.226040840148926, 54.37874794006348, 54.401278495788574, 54.09538745880127, 54.08120155334473, 54.00204658508301, 54.35037612915039, 54.24678325653076, 54.39960956573486],
  "QPU": "3010008",
  "Qubits": 7,
  "Queue durations [ms]": [0.0, 0.0, 0.0, 0.0, 0.0, 0.0, 0.0, 0.0, 0.0, 0.0, 0.0, 0.0, 0.0, 0.0, 0.0, 0.0, 0.0, 0.0, 0.0, 0.0, 0.0, 0.0, 0.0, 0.0, 0.0, 0.0, 0.0, 0.0, 0.0, 0.0, 0.0, 0.0, 0.0, 0.0, 0.0, 0.0, 0.0, 0.0, 0.0, 0.0, 0.0, 0.0, 0.0, 0.0, 0.0, 0.0, 0.0, 0.0, 0.0, 0.0, 0.0, 0.0, 0.0, 0.0, 0.0, 0.0, 0.0, 0.0, 0.0, 0.0, 0.0, 0.0, 0.0, 0.0, 0.0, 0.0, 0.0, 0.0, 0.0, 0.0, 0.0, 0.0, 0.0, 0.0, 0.0, 0.0, 0.0, 0.0, 0.0, 0.0, 0.0, 0.0, 0.0, 0.0, 0.0, 0.0, 0.0, 0.0, 0.0, 0.0, 0.0, 0.0, 0.0, 0.0, 0.0, 0.0, 0.0, 0.0, 0.0, 0.0, 0.0, 0.0, 0.0, 0.0, 0.0, 0.0, 0.0, 0.0, 0.0, 0.0, 0.0, 0.0, 0.0, 0.0, 0.0, 0.0, 0.0, 0.0, 0.0, 0.0, 0.0, 0.0, 0.0, 0.0, 0.0, 0.0, 0.0, 0.0, 0.0, 0.0, 0.0, 0.0, 0.0, 0.0, 0.0, 0.0, 0.0, 0.0, 0.0, 0.0, 0.0, 0.0, 0.0, 0.0, 0.0, 0.0, 0.0, 0.0, 0.0, 0.0, 0.0, 0.0, 0.0, 0.0, 0.0, 0.0, 0.0, 0.0, 0.0, 0.0, 0.0, 0.0, 0.0, 0.0, 0.0, 0.0, 0.0, 0.0, 0.0, 0.0, 0.0, 0.0, 0.0, 0.0, 0.0, 0.0, 0.0, 0.0, 0.0, 0.0, 0.0, 0.0, 0.0, 0.0, 0.0, 0.0, 0.0, 0.0, 0.0, 0.0, 0.0, 0.0, 0.0, 0.0, 0.0, 0.0, 0.0, 0.0, 0.0, 0.0, 0.0, 0.0, 0.0, 0.0, 0.0, 0.0, 0.0, 0.0, 0.0, 0.0, 0.0, 0.0, 0.0, 0.0, 0.0, 0.0, 0.0, 0.0, 0.0, 0.0, 0.0, 0.0, 0.0, 0.0, 0.0, 0.0, 0.0, 0.0, 0.0, 0.0, 0.0, 0.0, 0.0, 0.0, 0.0, 0.0, 0.0, 0.0, 0.0, 0.0, 0.0, 0.0, 0.0, 0.0, 0.0, 0.0, 0.0, 0.0, 0.0, 0.0, 0.0, 0.0, 0.0, 0.0, 0.0, 0.0, 0.0, 0.0, 0.0, 0.0, 0.0, 0.0, 0.0, 0.0, 0.0, 0.0, 0.0, 0.0, 0.0, 0.0, 0.0, 0.0, 0.0, 0.0, 0.0, 0.0, 0.0, 0.0, 0.0, 0.0, 0.0, 0.0, 0.0, 0.0, 0.0, 0.0, 0.0, 0.0, 0.0, 0.0, 0.0, 0.0, 0.0, 0.0, 0.0, 0.0, 0.0, 0.0, 0.0, 0.0, 0.0, 0.0, 0.0, 0.0, 0.0, 0.0, 0.0, 0.0, 0.0, 0.0, 0.0, 0.0, 0.0, 0.0, 0.0, 0.0, 0.0, 0.0, 0.0, 0.0, 0.0, 0.0, 0.0, 0.0, 0.0, 0.0, 0.0, 0.0, 0.0, 0.0, 0.0, 0.0, 0.0, 0.0, 0.0, 0.0, 0.0, 0.0, 0.0, 0.0, 0.0, 0.0, 0.0, 0.0, 0.0, 0.0, 0.0, 0.0, 0.0, 0.0, 0.0, 0.0, 0.0, 0.0, 0.0, 0.0, 0.0, 0.0, 0.0, 0.0, 0.0, 0.0, 0.0, 0.0, 0.0, 0.0, 0.0, 0.0, 0.0, 0.0, 0.0, 0.0, 0.0, 0.0, 0.0, 0.0, 0.0, 0.0, 0.0, 0.0, 0.0, 0.0, 0.0, 0.0, 0.0, 0.0, 0.0, 0.0, 0.0, 0.0, 0.0, 0.0, 0.0, 0.0, 0.0, 0.0, 0.0, 0.0, 0.0, 0.0, 0.0, 0.0, 0.0, 0.0, 0.0, 0.0, 0.0, 0.0, 0.0, 0.0, 0.0, 0.0, 0.0, 0.0, 0.0, 0.0, 0.0, 0.0, 0.0, 0.0, 0.0, 0.0, 0.0, 0.0, 0.0, 0.0, 0.0, 0.0, 0.0, 0.0, 0.0, 0.0, 0.0, 0.0, 0.0, 0.0, 0.0, 0.0, 0.0, 0.0, 0.0, 0.0, 0.0, 0.0, 0.0, 0.0, 0.0, 0.0, 0.0, 0.0, 0.0, 0.0, 0.0, 0.0, 0.0, 0.0, 0.0, 0.0, 0.0, 0.0, 0.0, 0.0, 0.0, 0.0, 0.0, 0.0, 0.0, 0.0, 0.0, 0.0, 0.0, 0.0, 0.0, 0.0, 0.0, 0.0, 0.0, 0.0, 0.0, 0.0, 0.0, 0.0, 0.0, 0.0, 0.0, 0.0, 0.0, 0.0, 0.0, 0.0, 0.0, 0.0, 0.0, 0.0, 0.0, 0.0, 0.0, 0.0, 0.0, 0.0, 0.0, 0.0, 0.0, 0.0, 0.0, 0.0, 0.0, 0.0, 0.0, 0.0, 0.0, 0.0, 0.0, 0.0, 0.0, 0.0, 0.0, 0.0, 0.0, 0.0, 0.0, 0.0, 0.0, 0.0, 0.0, 0.0, 0.0, 0.0, 0.0, 0.0, 0.0, 0.0, 0.0, 0.0, 0.0, 0.0, 0.0, 0.0],
  "Shots": 4096,
  "Size": 7,
  "Total Algorithm duration [s]": 121.016,
  "Total Classic duration [s]": 91.40750333404542,
  "Total Quantum duration [s]": 29.60849666595459
}
