{
  "Depth": 26.5,
  "Expectation Value": -14.754279136657715,
  "Job durations [ms]": [0.7525499968323857, 0.7831999973859638, 0.7347000064328313, 0.7525999972131103, 0.9488500072620809, 0.8932999917306006, 0.7722000009380281, 0.8715500007383525, 0.7329500222112983, 0.7433000137098134, 0.7500999781768769, 0.7402999908663332, 0.7471500139217824, 0.752799998736009, 0.7767500064801425, 0.752799998736009, 0.7532000017818063, 0.7430999830830842, 0.7409999961964786, 0.7793499971739948, 0.7519500213675201, 0.7617000082973391, 0.9020499710459262, 0.7734500104561448, 0.7714499952271581, 0.7719999994151294, 0.7427000091411173, 0.7519499922636896, 0.7375499990303069, 0.7434500148519874, 0.746900012018159, 0.749250000808388, 0.7427499804180115, 0.7427000091411173, 0.7562999962829053, 0.7493500015698373, 0.746750010875985, 0.745249999454245, 0.7448999967891723, 0.7861999911256135, 0.7849000103306025, 0.8660999883431941, 0.7424999785143882, 0.6916999991517514, 0.7471500139217824, 0.7410999969579279, 0.7401999901048839, 0.7309000066015869, 0.7361499883700162, 0.7368999940808862, 0.7533000025432557, 0.9166999952867627, 0.8828499994706362, 0.746600009733811, 0.748649996239692, 0.7374499982688576, 0.742750009521842, 0.7373499975074083, 0.7427499804180115, 0.741700001526624, 0.9054499969352037, 0.9046999912243336, 0.7908999978099018, 0.9016999683808535, 0.7438999891746789, 0.7509500137530267, 0.7542499806731939, 0.7404999923892319, 0.7406500226352364, 0.7493500015698373, 0.7421000045724213, 0.7841000042390078, 0.7052999862935394, 0.7465000089723617, 0.745099998312071, 0.7512500160373747, 0.7498499762732536, 0.7573000038973987, 0.748049991670996, 0.745400000596419, 0.7772500102873892, 0.7792999967932701, 0.7612500048708171, 0.757550005801022, 0.7428000099025667, 0.742600008379668, 0.7454500009771436, 0.7382500043604523, 0.7416000007651746, 0.7702999864704907, 0.7480999920517206, 0.7596999930683523, 0.8112500072456896, 0.7498000049963593, 0.7484499947167933, 0.7397999870590866, 0.7448499964084476, 0.746600009733811, 0.7730500074103475, 0.7868999964557588, 0.7578500080853701, 0.7895999879110605, 0.7479499909095466, 0.74155000038445, 0.7496500038541853, 0.7538999780081213, 0.7786000205669552, 0.7451499986927956, 0.8162000158336014, 0.74305001180619, 0.7513999880757183, 0.7555499905720353, 0.7514999888371676, 0.7508999842684716, 0.7583500118926167, 0.7410999969579279, 0.93704997561872, 0.918849982554093, 0.7579499797429889, 0.8965000160969794, 0.9165499650407583, 0.7567499997094274, 0.7515000179409981, 0.745850004022941, 0.7588999869767576, 0.742150004953146, 0.7398500165436417, 0.7509500137530267, 0.74819999281317, 0.7602499972563237, 0.7510499854106456, 0.7661500130780041, 0.7579500088468194, 0.7421000045724213, 0.7588000153191388, 0.7444499933626503, 0.7411499973386526, 0.7703500159550458, 0.7469500123988837, 0.7406999939121306, 0.7355999841820449, 0.7482999935746193, 0.7335999980568886, 0.7444499933626503, 0.7406499935314059, 0.7481499924324453, 0.7440500194206834, 0.739800016162917, 0.7456000021193177, 0.9332000045105815, 0.8755500020924956, 0.73490000795573, 0.7571500027552247, 0.7360499876085669, 0.738450005883351, 0.7425000076182187, 0.7471499848179519, 0.748049991670996, 0.751899991882965, 0.7487499970011413, 0.7352500106208026, 0.7366999925579876, 0.7451499986927956, 0.7590999884996563, 0.7545000116806477, 0.7495000027120113, 0.7421000045724213, 0.7932999869808555, 0.7504000095650554, 0.75559999095276, 0.7361500174738467, 0.739350012736395, 0.7438500178977847, 0.7374999986495823, 0.9126000222750008, 0.9333500056527555, 0.8988999761641026, 0.8688499801792204, 0.7798500009812415, 0.7368499937001616, 0.7407999946735799, 0.7412999984808266, 0.7552500173915178, 0.7533500029239804, 0.74894999852404, 0.7409999961964786, 0.7357499853242189, 0.7403499912470579, 0.7388500089291483, 0.749099999666214, 0.7456000021193177, 0.7403999916277826, 0.7405499927699566, 0.7598499942105263, 0.743350014090538, 0.746450008591637, 0.8596000261604786, 0.7539500074926764, 0.7399499882012606, 0.7515499892178923, 0.753850006731227, 0.7397999870590866, 0.7478000188712031, 0.7377000001724809, 0.7330999942496419, 0.7411999977193773, 0.7462500070687383, 0.752499996451661, 0.7745999901089817, 0.8282999915536493, 0.8181000011973083, 0.7420500041916966, 0.7375999994110316, 0.7356000132858753, 0.7435999868903309, 0.7445499941240996, 0.7471500139217824, 0.7643999997526407, 0.7335499976761639, 0.7422500057145953, 0.738300004741177, 0.746300007449463, 0.7537500059697777, 0.7892000139690936, 0.7800000021234155, 0.7439999899361283, 0.7973999890964478, 0.7685000018682331, 0.749250000808388, 0.7463500078301877, 0.7327500206883997, 0.9112500119954348, 0.9175500017590821, 0.7795499986968935, 0.7815500139258802, 0.7367999933194369, 0.7459000044036657, 0.7405999931506813, 0.7372999971266836, 0.738900009309873, 0.7405999931506813, 0.7544000109191984, 0.773499981733039, 0.7505500107072294, 0.7619500102009624, 0.7358999864663929, 0.7559999939985573, 0.745400000596419, 0.7326999912038445, 0.7351500098593533, 0.7428000099025667, 0.7491500000469387, 0.745700002880767, 0.7349999796133488, 0.7369499944616109, 0.7353000110015273, 0.7449999975506216, 0.7442999922204763, 0.7520999934058636, 0.753100001020357, 0.7413499988615513, 0.733150023734197, 0.7461499772034585, 0.8150999783538282, 0.8123500156216323, 0.7691500068176538, 0.7532000017818063, 0.7464499794878066, 0.7395500142592937, 0.7462000066880137, 0.7499500061385334, 0.7425000076182187, 0.741850002668798, 0.7379000016953796, 0.7391499821096659, 0.7445000228472054, 0.7511999865528196, 0.7446999952662736, 0.7687500037718564, 0.7728500058874488, 0.7445999945048243, 0.7498000049963593, 0.7419500034302473, 0.8116000099107623, 0.7431999838445336, 0.7456000021193177, 0.7546000124420971, 0.747500016586855, 0.8769499836489558, 0.9077000140678138, 0.8985500026028603, 0.8667499932926148, 0.7311000081244856, 0.745550001738593, 0.7345500052906573, 0.7704499876126647, 0.7376499997917563, 0.7368499937001616, 0.739500013878569, 0.7441999914590269, 0.7477999897673726, 0.7691499777138233, 0.7433999853674322, 0.7594999915454537, 0.7407999946735799, 0.7457500032614917, 0.738600007025525, 0.7477999897673726, 0.7531500014010817, 0.7419000030495226, 0.7540500082541257, 0.7508500129915774, 0.7704999879933894, 0.742000003810972, 0.7428000099025667, 0.752049993025139, 0.7453500002156943, 0.7420500041916966, 0.7456499733962119, 0.7451499986927956, 0.7425500079989433, 0.8708999957889318, 0.7900499913375825, 0.7889499829616398, 0.758699985453859, 0.7508500129915774, 0.742600008379668, 0.7468999829143286, 0.7332499953918159, 0.7593499904032797, 0.7368999940808862, 0.7408000237774104, 0.7369499944616109, 0.737000023946166, 0.7410499965772033, 0.745400000596419, 0.7490499992854893, 0.7505500107072294, 0.7417500019073486, 0.7651000050827861, 0.7436999876517802, 0.7464000082109123, 0.7760500011499971, 0.8205000194720924, 0.7485999958589673, 0.7284999883268028, 0.7436499872710556, 0.9285499691031873, 0.9174000006169081, 0.7862999918870628, 0.8416000055149198, 0.7474999874830246, 0.7460500055458397, 0.7511999865528196, 0.7425500079989433, 0.7445999945048243, 0.7443000213243067, 0.7345500052906573, 0.7349499792326242, 0.7478499901480973, 0.7436000159941614, 0.7328499923460186, 0.7473499863408506, 0.745400000596419, 0.7282999868039042, 0.7425999792758375, 0.7409999961964786, 0.7399999885819852, 0.755149987526238, 0.7436999876517802, 0.7401499897241592, 0.7546500128228217, 0.7356999849434942, 0.7368499937001616, 0.7353999826591462, 0.7479999912902713, 0.74230000609532, 0.7488499977625906, 0.7418000022880733, 0.8397500205319375, 0.7307500054594129, 0.732100015738979, 0.7410499965772033, 0.7616000075358897, 0.7537500059697777, 0.7450499979313463, 0.7404999923892319, 0.753700005589053, 0.7452999998349696, 0.7304500031750649, 0.7337499991990626, 0.7388500089291483, 0.7476499886251986, 0.7362999895121902, 0.7473000150639564, 0.7369499944616109, 0.7478499901480973, 0.741700001526624, 0.760800001444295, 0.7676000241190195, 0.7536000048276037, 0.7483999943360686, 0.7756499981041998, 0.8581500151194632, 0.906300003407523, 0.9322999976575375, 0.8970999624580145, 0.919899990549311, 0.7472500146832317, 0.7423500064760447, 0.7484499947167933, 0.7414499996230006, 0.7444000220857561, 0.7501000072807074, 0.7384999771602452, 0.7919000054243952, 0.7356500136666, 0.7455000013578683, 0.7440999906975776, 0.7463500078301877, 0.7368999940808862, 0.745400000596419, 0.7323499885387719, 0.7280500140041113, 0.7542999810539186, 0.7325499900616705, 0.7980000227689743, 0.7489999989047647, 0.742600008379668, 0.7377000001724809, 0.7382000039797276, 0.747200014302507, 0.7464999798685312, 0.736100017093122, 0.7573500042781234, 0.7382999756373465, 0.7579500088468194, 0.7889499829616398, 0.7420999754685909, 0.745400000596419, 0.7505499816033989, 0.7883000071160495, 0.843449990497902, 0.752799998736009, 0.737000023946166, 0.7472499855794013, 0.7397000154014677, 0.739800016162917, 0.7509500137530267, 0.7405499927699566, 0.7499499770347029, 0.74155000038445, 0.7373999978881329, 0.7401500188279897, 0.7451999990735203, 0.7426999800372869, 0.7474000158254057, 0.7404999923892319, 0.7344000041484833, 0.7990500016603619, 0.9071999811567366, 0.7469499832950532, 0.77039998723194, 0.898300000699237, 0.9197999606840312, 0.895050005055964, 0.7364999910350889, 0.7384999771602452, 0.7371499959845096, 0.7472500146832317, 0.7348000071942806, 0.7454500009771436, 0.7448499964084476, 0.7561499951407313, 0.7328999927267432, 0.7505499816033989, 0.743200012948364, 0.7359000155702233, 0.7351499807555228, 0.7429500110447407, 0.7431499834638089, 0.7377500005532056, 0.7417500019073486, 0.745400000596419, 0.7444499933626503, 0.7431499834638089, 0.7777000137139112, 0.760800001444295, 0.8237000147346407, 0.7637999951839447, 0.7481499924324453, 0.738300004741177, 0.7542500097770244, 0.7431000121869147, 0.7425000076182187, 0.7388000085484236, 0.8363999950233847, 0.7398999878205359, 0.7547500135842711, 0.7570500019937754, 0.749400001950562, 0.7507000118494034, 0.7581000099889934, 0.7478500192519277, 0.745400000596419, 0.7505499816033989, 0.7405499927699566, 0.740100018447265, 0.7538000063505024, 0.7477999897673726, 0.7503499800805002, 0.7357000140473247, 0.7409000245388597, 0.7469999836757779, 0.7591999892611057, 0.7456000021193177, 0.7412999984808266, 0.7334999972954392, 0.7490499992854893, 0.7477999897673726, 0.7596500217914581, 0.988049985608086, 0.890900002559647, 0.9239500213880092, 0.7033500005491078, 0.7362499891314656, 0.7395500142592937, 0.744100019801408, 0.7425999792758375, 0.7832499977666885, 0.75045000994578, 0.7477499893866479, 0.755449989810586, 0.760499999159947, 0.7414499996230006, 0.7639500254299492, 0.7475499878637493, 0.7479999912902713, 0.7552499882876873, 0.7328000210691243, 0.7430000114254653, 0.7469500123988837, 0.750300008803606, 0.7419500034302473, 0.7429999823216349, 0.7394999847747386, 0.7269499765243381, 0.7731500081717968, 0.754699984099716, 0.7330499938689172, 0.746900012018159, 0.750750012230128, 0.7590499881189317, 0.7611499750055373, 0.7496500038541853, 0.8105500019155443, 0.7743500173091888, 0.7443999929819256, 0.7416000007651746, 0.7394499843940139, 0.7400000176858157, 0.7374499982688576, 0.7418000022880733, 0.7334000256378204, 0.7297999982256442, 0.7490499992854893, 0.7508000126108527, 0.7395499851554632, 0.742750009521842, 0.8116999815683812, 0.7379500020761043, 0.7359499868471175, 0.738900009309873, 0.7374499982688576, 0.7517999911215156, 0.744949997169897, 0.7713000231888145, 0.7869500259403139, 0.9209500276483595, 0.8925499860197306, 0.7760000007692724, 0.7514000171795487, 0.7801500032655895, 0.7486999966204166, 0.7471000135410577, 0.7558500219602138, 0.742450007237494, 0.7511499861720949, 0.74819999281317, 0.7435999868903309, 0.7544999825768173, 0.7508500129915774, 0.745700002880767, 0.7442999922204763, 0.7394000131171197, 0.749250000808388, 0.7467999821528792, 0.7372999971266836, 0.7447500247508287, 0.7309000066015869, 0.757400004658848, 0.7471500139217824, 0.8589999924879521, 0.7063000230118632, 0.9360999683849514, 0.8412500028498471, 0.918099976843223, 0.8973000221885741, 0.8868000295478851, 0.7713499944657087, 0.7727500051259995, 0.7626500155311078, 0.753850006731227, 0.7766999769955873, 0.764199998229742, 0.7596499926876277, 0.8749499975237995, 0.7451499986927956, 0.7870999979786575, 0.7924000092316419, 0.7748999923933297, 0.8625499904155731, 0.7609000022057444, 0.8454000053461641, 0.6844500021543354, 0.8652999822515994, 0.7955500041134655, 0.7360499876085669, 0.7377500005532056, 0.7497500046156347, 0.749850005377084, 0.7544000109191984, 0.7806000066921115, 0.7512000156566501, 0.7785999914631248, 0.7794499979354441, 0.7584999839309603, 0.867850030772388, 0.7314500107895583, 0.8080000116024166, 0.7740500150248408, 0.7587000145576894, 0.7592499896418303, 0.9307000145781785, 0.9199999913107604, 0.7477000181097537, 0.7644500001333654, 0.8043999841902405, 0.758399983169511, 0.7504000095650554, 0.7689000049140304, 0.7786500209476799, 0.7949499995447695, 0.7927999831736088, 0.7603999983984977, 0.7446000236086547, 0.8066000009421259, 0.8343500085175037, 0.7641499978490174, 0.7737500127404928, 0.7007000094745308, 0.8467999869026244, 0.9156500163953751, 0.7379000016953796, 0.7381999748758972, 0.8993999799713492, 0.7729500066488981, 0.8923500136006624, 0.6962500046938658, 0.7712499937042594, 0.7727000047452748, 0.7762499735690653, 0.7624499849043787, 0.8240999886766076, 0.7745499897282571, 0.7915000023785979, 0.7027499959804118, 0.7512499869335443, 0.7892499852459878, 0.7620000105816871, 0.6518499867524952, 0.7004500075709075, 0.7444499933626503, 0.9275000193156302, 0.8868000004440546, 0.7495000027120113, 0.8584500174038112, 0.7143000257201493, 0.7111500017344952, 0.7136499916668981, 0.7310000073630363, 0.7750000222586095, 0.7403499912470579, 0.7548000139649957, 0.755149987526238, 0.7460500055458397, 0.7438499887939543, 0.7489999989047647, 0.746000005165115, 0.752349995309487, 0.7543500105384737, 0.7789999945089221, 0.9441999718546867, 0.7614500063937157, 0.7432999846059829, 0.7626500155311078, 0.7238500111270696, 0.8101999992504716, 0.9482000023126602, 0.7072500011418015, 0.8755500020924956, 0.7002000056672841, 0.8216499991249293, 0.7574500050395727, 0.911449984414503, 0.7715499959886074, 0.7249000191222876, 0.7864999934099615, 0.8590999932494015, 0.7207999879028648, 0.7462000066880137, 0.7370999956037849, 0.8540499839000404, 0.7766500057186931, 0.7550999871455133, 0.7390999817289412, 0.751749990740791, 0.745400000596419, 0.7388999802060425, 0.7458000036422163, 0.7330999942496419, 0.7382000039797276, 0.7425500079989433, 0.7443499926012009, 0.7405000214930624, 0.8018499938771129, 0.7145499985199422, 0.7458000036422163, 0.7649499748367816, 0.7676999957766384, 0.7403499912470579, 0.7783500186633319, 0.7619999814778566, 0.7658999820705503, 0.7731000077910721, 0.6988999957684427, 0.8546000171918422, 0.7610500033479184, 0.8342500077560544, 0.7244499865919352, 0.7743499882053584, 0.7273000082932413, 0.7454500009771436, 0.7582000107504427, 0.7055999885778874, 0.8336000028066337, 0.8027500007301569, 0.9256000048480928, 0.7821500184945762, 0.8823499956633896, 0.8099999977275729, 0.9002499864436686, 0.8111999777611345, 0.7651500054635108, 0.7344000041484833, 0.84374999278225, 0.7472999859601259, 0.8506500162184238, 0.6913999968674034, 0.7249499903991818, 0.7968000136315823, 0.7637999951839447, 0.9079000155907124, 0.7755999977234751, 0.8063499990385026, 0.7477000181097537, 0.7471500139217824, 0.7925500103738159, 0.7518499915022403, 0.7695499807596207, 0.8572500082664192, 0.8607999770902097, 0.9040999866556376, 0.7474999874830246, 0.9011999645736068, 0.7960999791976064, 0.8426499844063073, 0.6952999974600971, 0.7459500047843903, 0.752499996451661, 0.783849973231554, 0.918399979127571, 0.7623500132467598, 0.7750000222586095, 0.7510999857913703, 0.8182999736163765, 0.9025500039570034, 0.8562500006519258, 0.7470499840565026, 0.8675499993842095, 0.731650012312457, 0.8650000090710819, 0.9123999916482717, 0.9306500141974539, 0.9187999821733683, 0.752199994167313, 0.7470000127796084, 0.7724999741185457, 0.7365000201389194, 0.7311000081244856, 0.7573000038973987, 0.74230000609532, 0.7515499892178923, 0.7454500009771436, 0.7502000080421567, 0.7520999934058636, 0.758999987738207, 0.7403999916277826, 0.7370999956037849, 0.7401499897241592, 0.8349499839823693, 0.7399499882012606, 0.7430499827023596, 0.7413499988615513, 0.752799998736009, 0.7473000150639564, 0.7684000011067837, 0.7479499909095466, 0.7677499961573631, 0.7412999984808266, 0.7442499918397516, 0.7774500118102878, 0.7592500187456608, 0.7414499996230006, 0.7431999838445336, 0.7469499832950532, 0.7425999792758375, 0.7729500066488981, 0.8497500093653798, 0.734450004529208, 0.738450005883351, 0.7329499931074679, 0.738000002456829, 0.737000023946166, 0.7922500080894679, 0.838849984575063, 0.8827999699860811, 0.7428499811794609, 0.7443999929819256, 0.7364999910350889, 0.7437499880325049, 0.742900010664016, 0.7434999861288816, 0.9214500023517758, 0.9111000108532608, 0.9047000203281641, 0.7360499876085669, 0.7428000099025667, 0.7622000121045858, 0.7736500119790435, 0.7448999967891723, 0.8174499962478876, 0.8518499962519854, 0.7862999918870628, 0.753100001020357, 0.739200011594221, 0.7351000094786286, 0.7439000182785094, 0.747200014302507, 0.7413499988615513, 0.7454500009771436, 0.7428000099025667, 0.7605999999213964, 0.7356499845627695, 0.7410999969579279, 0.7445999945048243, 0.7573000038973987, 0.7508499838877469, 0.748349993955344, 0.7476499886251986, 0.741399999242276, 0.7618000090587884, 0.739650015020743, 0.74380001751706, 0.746750010875985, 0.7623500132467598, 0.7352500106208026, 0.740250019589439, 0.7456999737769365, 0.7401999901048839, 0.7394999847747386, 0.7830999966245145, 0.74155000038445, 0.7431000121869147, 0.7653500069864094, 0.7298999989870936, 0.7463500078301877, 0.7382500043604523, 0.7403500203508884, 0.7637999951839447, 0.745700002880767, 0.7548000139649957, 0.7421499758493155, 0.7400000176858157, 0.7401499897241592, 0.7471999851986766, 0.7466999813914299, 0.74819999281317, 0.766849989304319, 0.753400003304705, 0.8694499847479165, 0.818450003862381, 0.7881500059738755, 0.8997999830171466, 0.6629999843426049, 0.6993999995756894, 0.7487499970011413, 0.7466500101145357, 0.7341500022448599, 0.754000007873401, 0.743500015232712, 0.7504000095650554, 0.7471499848179519, 0.7475500169675797, 0.738000002456829, 0.7371499959845096, 0.7377000001724809, 0.7393999840132892, 0.7483999943360686, 0.748649996239692, 0.739200011594221, 0.7424000068567693, 0.7387000077869743, 0.7443499926012009, 0.7705500174779445, 0.7459000044036657, 0.7379000016953796, 0.745850004022941, 0.7394999847747386, 0.7365999917965382, 0.7440999906975776, 0.7350000087171793, 0.7566999993287027, 0.8402499952353537, 0.7737499836366624, 0.734450004529208, 0.8199999865610152, 0.7310000073630363, 0.746900012018159, 0.7508000126108527, 0.7501000072807074, 0.7467000104952604, 0.750750012230128, 0.7624499849043787, 0.7475999882444739, 0.7404500211123377, 0.7525999972131103, 0.7385000062640756, 0.7474999874830246, 0.742150004953146, 0.769499980378896, 0.7372499967459589, 0.7478500192519277, 0.767299992730841, 0.7597999938298017, 0.7356499845627695, 0.7434500148519874, 0.7531999726779759, 0.754000007873401, 0.9567500383127481, 0.8892000187188387, 0.9050499938894063, 0.7714999956078827, 0.7515499892178923, 0.7117500063031912, 0.7780500163789839, 0.7369499944616109, 0.7575000054202974, 0.7466499810107052, 0.7482499931938946, 0.7475999882444739, 0.7335999980568886, 0.7433000137098134, 0.7528499991167337, 0.7477000181097537, 0.7473499863408506, 0.7503500091843307, 0.8085499866865575, 0.746750010875985, 0.7575000054202974, 0.7380999741144478, 0.741850002668798, 0.7438499887939543, 0.7353999826591462, 0.7407499942928553, 0.7460500055458397, 0.7393999840132892, 0.738750008167699, 0.741399999242276, 0.7483999943360686, 0.7643999997526407, 0.8176499977707863, 0.7704500167164952, 0.7074999739415944, 0.7385500066448003, 0.7417500019073486, 0.753700005589053, 0.7464000082109123, 0.7473499863408506, 0.7584500126540661, 0.7307000050786883, 0.7370999956037849, 0.7440499903168529, 0.7059499912429601, 0.7460999768227339, 0.748649996239692, 0.7487000257242471, 0.9044499893207103, 0.746150006307289, 0.7801500032655895, 0.7522999949287623, 0.7419500034302473, 0.7399000169243664, 0.7399000169243664, 0.735050009097904, 0.7479000196326524, 0.9173500002361834, 0.8908999734558165, 0.7322000165004283, 0.7677499961573631, 0.7435999868903309, 0.745099998312071, 0.764049997087568, 0.8081999840214849, 0.7462499779649079, 0.7487499970011413, 0.7360500167123973, 0.7744000176899135, 0.7342500030063093, 0.7390000100713223, 0.7377000001724809, 0.7454500009771436],
  "Optimal Expectation Value": -14.925971031188965,
  "Optimizer durations [ms]": [16.659, 17.006, 16.013, 16.417, 24.602, 19.324, 25.582, 22.674, 15.898, 15.97, 15.886, 16.285, 16.18, 16.007, 16.635, 16.425, 15.96, 16.83, 16.013, 16.744, 16.174, 16.677, 19.11, 20.494, 21.341, 29.165, 16.063, 16.147, 16.001, 16.278, 16.032, 16.192, 16.064, 15.868, 16.359, 16.489, 15.816, 16.297, 18.846, 16.906, 16.997, 18.712, 15.986, 28.624, 16.846, 17.672, 16.159, 28.248, 16.009, 17.021, 16.305, 20.457, 25.317, 18.194, 16.218, 16.342, 16.335, 16.042, 16.051, 16.489, 21.895, 19.257, 26.844, 27.299, 16.153, 16.197, 16.508, 16.366, 16.077, 16.175, 16.395, 16.96, 31.822, 16.207, 16.426, 16.55, 16.513, 16.469, 16.043, 16.348, 16.938, 16.937, 16.439, 16.612, 16.272, 16.268, 16.368, 16.228, 15.854, 16.698, 16.4, 16.699, 33.783, 16.354, 16.523, 16.082, 16.116, 16.199, 16.733, 21.721, 17.014, 17.111, 16.414, 15.93, 16.336, 16.647, 16.841, 16.343, 17.837, 24.475, 16.549, 16.22, 16.54, 16.488, 16.778, 16.259, 31.837, 19.98, 19.984, 20.687, 20.077, 16.311, 16.313, 16.568, 16.425, 16.394, 16.149, 16.688, 16.197, 16.471, 16.477, 16.69, 16.739, 16.219, 16.75, 16.284, 16.172, 16.752, 16.314, 16.329, 16.647, 16.297, 15.995, 16.443, 16.276, 16.513, 16.258, 16.075, 15.936, 20.274, 29.013, 16.974, 16.349, 16.07, 16.238, 16.3, 16.107, 16.439, 16.235, 16.17, 16.056, 15.829, 16.542, 16.396, 16.369, 16.519, 16.246, 17.189, 25.65, 16.488, 15.891, 16.181, 16.35, 15.939, 19.905, 20.312, 26.923, 18.956, 26.274, 16.004, 16.202, 16.321, 16.432, 16.49, 16.392, 16.046, 15.836, 16.221, 15.772, 16.417, 16.274, 16.183, 16.415, 16.729, 16.462, 16.436, 18.478, 16.528, 15.92, 16.261, 16.561, 16.139, 16.392, 16.156, 15.881, 16.322, 16.205, 16.319, 16.805, 17.889, 17.661, 18.339, 16.333, 16.196, 16.334, 28.263, 16.123, 16.734, 16.116, 27.209, 16.071, 16.292, 16.315, 22.849, 19.912, 20.476, 21.639, 16.664, 16.135, 16.624, 16.632, 31.068, 19.676, 26.844, 30.915, 16.296, 15.995, 16.282, 16.083, 16.258, 16.201, 16.564, 16.664, 20.149, 16.464, 16.35, 17.792, 15.983, 15.977, 15.935, 16.106, 16.142, 16.183, 16.068, 16.095, 15.999, 16.262, 16.243, 16.286, 16.184, 16.336, 16.307, 16.309, 17.511, 31.976, 16.974, 17.093, 16.258, 16.051, 16.163, 16.568, 16.349, 16.31, 16.116, 16.375, 16.364, 16.396, 16.132, 16.782, 16.763, 16.083, 16.419, 16.106, 17.951, 24.364, 16.424, 16.411, 16.257, 19.291, 19.789, 28.936, 18.688, 28.721, 16.403, 16.067, 16.596, 16.357, 16.394, 16.337, 16.011, 16.532, 16.713, 16.348, 16.523, 16.302, 16.197, 16.162, 16.233, 16.318, 16.288, 16.408, 16.389, 16.871, 16.16, 16.294, 16.18, 16.665, 16.293, 16.188, 16.194, 15.888, 18.672, 27.807, 17.051, 16.401, 16.077, 16.205, 16.168, 16.228, 16.217, 15.978, 16.073, 15.971, 16.026, 16.116, 16.093, 16.301, 16.255, 16.042, 16.534, 16.285, 16.491, 16.582, 17.984, 16.07, 16.152, 16.079, 31.718, 19.945, 26.269, 29.437, 16.74, 16.037, 16.678, 16.042, 16.102, 16.172, 15.781, 16.047, 21.413, 16.313, 19.294, 16.329, 16.217, 16.135, 16.2, 16.221, 16.114, 16.41, 16.358, 15.957, 16.668, 16.171, 16.23, 16.098, 16.275, 16.182, 16.353, 16.136, 18.046, 16.804, 24.959, 16.374, 16.68, 16.444, 16.417, 16.36, 19.594, 16.376, 16.148, 15.928, 26.755, 16.193, 16.353, 16.37, 31.241, 16.6, 16.329, 16.597, 17.035, 16.309, 16.85, 17.074, 18.719, 20.025, 25.268, 19.886, 21.726, 16.503, 16.194, 16.059, 16.247, 16.265, 16.318, 15.999, 17.246, 19.281, 16.468, 17.54, 16.25, 15.946, 16.126, 15.884, 16.039, 16.288, 16.207, 17.182, 16.597, 16.424, 16.986, 16.004, 16.079, 16.481, 15.991, 16.899, 15.991, 16.744, 33.247, 16.213, 16.212, 16.615, 17.192, 18.034, 16.337, 15.985, 16.363, 16.109, 16.161, 16.343, 16.275, 16.344, 16.494, 16.058, 16.301, 16.208, 16.397, 16.358, 16.159, 15.92, 17.504, 19.809, 16.387, 24.529, 20.78, 21.915, 29.108, 18.104, 16.257, 16.093, 16.474, 15.974, 16.388, 16.354, 16.439, 15.975, 16.156, 16.252, 16.324, 16.226, 16.178, 15.985, 16.214, 16.237, 16.774, 16.508, 16.234, 16.882, 16.451, 18.03, 16.626, 16.52, 16.256, 16.494, 16.118, 16.358, 28.498, 18.178, 16.158, 16.222, 16.246, 16.401, 16.383, 16.432, 16.305, 16.2, 16.477, 16.032, 16.351, 16.299, 16.12, 16.434, 16.407, 16.346, 16.229, 19.17, 16.406, 16.147, 16.232, 16.294, 16.161, 17.172, 24.843, 23.133, 21.815, 29.334, 16.172, 16.367, 16.278, 16.27, 16.895, 16.532, 16.52, 16.125, 16.427, 16.242, 16.867, 16.452, 16.403, 16.572, 16.321, 15.904, 16.289, 16.484, 16.373, 16.129, 16.05, 15.874, 16.97, 16.473, 15.784, 16.217, 16.281, 16.3, 16.389, 16.382, 17.523, 16.579, 20.383, 16.205, 16.099, 16.147, 28.035, 16.316, 16.091, 15.805, 28.274, 16.364, 16.065, 16.154, 32.135, 16.093, 16.148, 15.887, 16.021, 16.451, 16.642, 16.656, 17.412, 19.917, 19.787, 25.152, 23.828, 17.117, 16.062, 16.243, 16.55, 16.044, 16.443, 16.321, 28.221, 19.567, 16.308, 16.434, 16.54, 16.062, 16.2, 16.459, 16.053, 16.226, 16.365, 31.011, 26.885, 33.702, 32.463, 34.605, 27.875, 31.995, 27.583, 19.913, 25.258, 17.194, 28.435, 23.746, 30.82, 24.207, 25.152, 19.303, 31.092, 26.512, 22.433, 20.936, 18.55, 16.771, 30.548, 33.257, 24.581, 23.012, 21.551, 25.243, 21.093, 26.839, 29.065, 31.381, 22.735, 26.434, 20.345, 25.001, 18.998, 29.84, 25.652, 23.472, 16.841, 16.309, 31.169, 20.129, 23.619, 16.535, 32.528, 21.061, 27.624, 23.425, 23.413, 18.011, 22.082, 22.855, 24.986, 19.899, 17.969, 19.801, 26.878, 25.135, 24.717, 27.834, 29.238, 23.654, 25.517, 26.08, 24.654, 29.882, 24.718, 19.011, 17.511, 16.927, 29.662, 19.783, 27.245, 34.784, 16.346, 26.302, 24.23, 25.174, 31.53, 27.501, 30.628, 27.933, 20.737, 27.887, 26.484, 29.69, 25.868, 23.002, 20.467, 17.998, 19.158, 16.296, 16.27, 16.095, 16.388, 21.61, 16.28, 16.54, 16.865, 31.201, 16.678, 16.356, 16.916, 34.754, 29.846, 21.713, 29.22, 30.425, 23.792, 25.716, 21.238, 22.117, 19.297, 24.647, 29.266, 26.163, 30.607, 27.726, 22.962, 18.468, 17.049, 16.56, 15.922, 16.718, 16.415, 16.301, 16.223, 15.912, 15.962, 16.468, 16.358, 16.372, 17.349, 30.001, 16.201, 16.638, 16.5, 16.26, 16.831, 16.306, 20.31, 16.69, 20.467, 22.05, 23.115, 21.154, 23.422, 24.903, 27.438, 19.62, 16.797, 27.871, 19.55, 22.813, 22.424, 28.818, 30.924, 27.707, 21.969, 23.13, 16.883, 22.664, 32.642, 23.029, 26.629, 21.232, 27.657, 22.703, 17.442, 23.14, 25.269, 34.126, 21.17, 16.634, 24.646, 26.695, 25.564, 34.018, 24.159, 23.294, 19.637, 24.444, 18.916, 22.748, 21.526, 16.453, 24.998, 25.055, 20.021, 16.512, 27.877, 27.527, 20.144, 28.202, 23.712, 20.811, 35.25, 22.794, 29.731, 31.04, 26.944, 19.875, 21.592, 16.646, 24.333, 16.126, 15.87, 16.758, 16.149, 16.515, 16.415, 16.433, 16.461, 16.446, 16.161, 16.35, 16.319, 17.975, 16.322, 16.179, 16.026, 16.469, 16.212, 16.929, 16.212, 16.391, 16.238, 16.574, 17.346, 16.469, 16.422, 16.303, 16.063, 27.6, 16.9, 18.445, 16.117, 23.818, 15.852, 16.165, 15.918, 17.127, 32.39, 18.934, 16.06, 16.458, 16.132, 16.123, 16.023, 16.326, 26.415, 19.462, 20.068, 23.446, 23.896, 16.646, 16.816, 16.356, 17.715, 27.937, 18.558, 16.223, 16.016, 15.896, 16.312, 16.19, 16.177, 16.157, 16.122, 16.722, 16.109, 16.379, 16.165, 16.629, 16.447, 16.272, 16.423, 15.973, 16.65, 16.459, 16.029, 16.152, 30.279, 23.707, 16.005, 16.293, 16.189, 16.329, 16.883, 16.113, 16.245, 16.656, 16.072, 16.229, 16.153, 15.974, 16.657, 16.437, 16.593, 16.086, 16.129, 16.283, 16.753, 16.293, 16.391, 16.917, 16.543, 19.013, 17.855, 19.732, 25.587, 27.996, 23.885, 16.399, 16.158, 16.272, 16.329, 16.311, 16.406, 16.308, 16.153, 16.096, 16.088, 16.254, 16.21, 16.035, 16.442, 16.119, 16.274, 15.975, 16.33, 16.603, 16.321, 16.074, 16.152, 15.817, 15.86, 15.984, 16.388, 16.39, 18.109, 29.098, 15.979, 17.677, 17.516, 16.41, 16.213, 16.298, 16.22, 16.34, 16.535, 16.365, 16.068, 16.345, 16.047, 16.266, 15.98, 16.617, 16.09, 16.217, 16.824, 16.377, 16.199, 16.129, 16.458, 16.399, 30.074, 19.316, 28.582, 26.327, 16.197, 20.637, 17.444, 16.231, 16.593, 16.192, 16.266, 16.467, 15.905, 16.283, 16.395, 16.439, 16.276, 16.255, 17.768, 16.387, 16.467, 16.013, 16.345, 16.345, 15.975, 16.462, 16.135, 16.211, 16.172, 16.122, 16.205, 16.876, 17.998, 16.811, 21.983, 16.35, 15.995, 16.542, 16.535, 16.436, 20.537, 15.777, 17.354, 16.153, 28.145, 16.45, 17.058, 16.487, 30.835, 16.328, 17.2, 16.221, 16.131, 16.385, 16.029, 15.781, 16.466, 21.695, 19.484, 22.788, 27.01, 16.341, 16.144, 16.738, 18.413, 16.346, 16.104, 23.122, 16.753, 15.9, 16.185, 16.273, 16.313],
  "Optimizer iterations": 1042,
  "Optimizer params": [0.5486589355015172, 0.9264600931839239, 0.5789023873983614, 0.9122053192351356, 0.6849400349579107, 0.6423089011618986, 0.9192709630764433, 0.5889661404057843, 0.906218807310236, 0.5910575409684995, 0.9019708242159116, 0.596043007105048, 0.5531891682782645, 0.4842846276530109, 0.5668373110186014, 0.5361131234612714, 0.521542965773148, 0.5590120068479868, 0.4731439974812321, 0.506858525592106, 0.5167395447167957, 0.5478595040664123, 0.5643025349067943, 0.944419303720985, 0.5614210316746517, 0.5802732308026164, 0.558624447191113, 0.5350153049041086, 0.5285904146621035, 0.5155848896371779, 0.50724616755624, 0.5109138499240472, 0.5122209147373762, 0.5074758075095286, 0.488378829226961, 0.419529938446484, 0.544372951172536, 0.4979155134753837, 0.5333571981598088, 0.5073146113852102, 0.46729536233113467, 0.49486897482622455, 0.5374331251322684, 0.5157042156918941, 0.46090623500663164, 0.519051777473044, 0.4952619296982045, 0.42705049730817896],
  "P": 0,
  "Problem": "IC",
  "QPU": "7000000",
  "Qubits": 12,
  "Shots": 4096,
  "Size": 12,
  "Total Algorithm duration [s]": 19.506,
  "Total Classic duration [s]": 18.70801690038084,
  "Total Quantum duration [s]": 0.7979830996191595
}
