{
  "Depth": 26.5,
  "Expectation Value": -14.754279136657715,
  "Job durations [ms]": [0.8789499988779426, 0.7488499977625906, 0.7423500064760447, 0.7363499898929149, 0.7911499997135252, 0.8003500115592033, 0.843599991640076, 0.7579500088468194, 0.8695500146131963, 0.7838500023353845, 0.7630499894730747, 0.73490000795573, 0.7419000030495226, 0.9307500149589032, 0.92299998505041, 0.8970500202849507, 0.9094999986700714, 0.7343500037677586, 0.746900012018159, 0.8975999953690916, 0.745550001738593, 0.749099999666214, 0.7438500178977847, 0.7472500146832317, 0.7636000227648765, 0.7523999956902117, 0.7741499866824597, 0.7493000011891127, 0.7434999861288816, 0.7500999781768769, 0.7484499947167933, 0.7462000066880137, 0.748499995097518, 0.7536500052083284, 0.7426499796565622, 0.742900010664016, 0.7377000001724809, 0.7425000076182187, 0.7372499967459589, 0.7496500038541853, 0.7439499895554036, 0.7421000045724213, 0.7747500203549862, 0.7638499955646694, 0.8394999895244837, 0.7361499883700162, 0.7514000171795487, 0.7623499841429293, 0.7458499749191105, 0.8307500102091581, 0.7336499984376132, 0.7477500184904784, 0.7464999798685312, 0.7430000114254653, 0.7579500088468194, 0.7559499936178327, 0.7488999981433153, 0.7410499965772033, 0.7533000025432557, 0.750750012230128, 0.7538499776273966, 0.7532000017818063, 0.7987999997567385, 0.8040999819058925, 0.7448500255122781, 0.7433000137098134, 0.7568500004708767, 0.751749990740791, 0.7555499905720353, 0.7556499913334846, 0.746750010875985, 0.9323000267613679, 0.9014499955810606, 0.9113000123761594, 0.7916000031400472, 0.737850001314655, 0.7704500167164952, 0.7544999825768173, 0.7480999920517206, 0.7382500043604523, 0.759749993449077, 0.7719499990344048, 0.748499995097518, 0.7627999875694513, 0.7303500024136156, 0.7382000039797276, 0.7397499866783619, 0.7552000170107931, 0.7438499887939543, 0.7382000039797276, 0.743650016374886, 0.7410499965772033, 0.7498499762732536, 0.7462000066880137, 0.7818499871063977, 0.7406499935314059, 0.7614499772898853, 0.7407499942928553, 0.7408999954350293, 0.769949983805418, 0.7452999998349696, 0.8096499950625002, 0.8200999873224646, 0.7613500056322664, 0.7501000072807074, 0.7509500137530267, 0.7453500002156943, 0.7519499922636896, 0.7508000126108527, 0.745550001738593, 0.7484000234398991, 0.7527499983552843, 0.74894999852404, 0.7434499857481569, 0.7530000002589077, 0.7516999903600663, 0.7477499893866479, 0.7610000029671937, 0.7460500055458397, 0.7389500096905977, 0.9127000230364501, 0.7463499787263572, 0.7470999844372272, 0.7493000011891127, 0.7443999929819256, 0.7482000219170004, 0.7885000086389482, 0.7525999972131103, 0.763599993661046, 0.8372999727725983, 0.9426999895367771, 0.7756000268273056, 0.7001000049058348, 0.7731000077910721, 0.7502500084228814, 0.7582500111311674, 0.7502499793190509, 0.746450008591637, 0.740250019589439, 0.7884500082582235, 0.7590999884996563, 0.7573499751742929, 0.749850005377084, 0.7373499975074083, 0.7376499997917563, 0.7470999844372272, 0.756499997805804, 0.7434500148519874, 0.7397000154014677, 0.7499500061385334, 0.7378000009339303, 0.7465000089723617, 0.7550500158686191, 0.7511000148952007, 0.7414499996230006, 0.7428999815601856, 0.740700023015961, 0.7383999763987958, 0.7548000139649957, 0.7572000031359494, 0.7188500021584332, 0.7583500118926167, 0.752649997593835, 0.7553000177722424, 0.756950001232326, 0.7607000006828457, 0.7444499933626503, 0.7436999876517802, 0.7363500189967453, 0.744949997169897, 0.7307500054594129, 0.7365999917965382, 0.742000003810972, 0.7448999967891723, 0.7438999891746789, 0.7314000104088336, 0.8358499908354133, 0.7491500000469387, 0.7465000089723617, 0.7424000068567693, 0.747899990528822, 0.748649996239692, 0.7482499931938946, 0.7441499910783023, 0.764899974456057, 0.8973000221885741, 0.906150002265349, 0.7827499939594418, 0.7866499945521355, 0.8934000215958804, 0.7435499865096062, 0.7459000044036657, 0.7453500002156943, 0.7441499910783023, 0.7364500197581947, 0.7890500128269196, 0.7435999868903309, 0.7576000061817467, 0.7552499882876873, 0.7574500050395727, 0.7480000203941017, 0.7493000011891127, 0.7496500038541853, 0.7325000187847763, 0.750000006519258, 0.746450008591637, 0.7562999962829053, 0.747899990528822, 0.7691000064369291, 0.7431500125676394, 0.7576000061817467, 0.7436499872710556, 0.7432500133290887, 0.7496000034734607, 0.7855999865569174, 0.7510999857913703, 0.7476500177290291, 0.7916000031400472, 0.866499962285161, 0.7493500015698373, 0.7658500107936561, 0.7482999935746193, 0.752949999878183, 0.7404499920085073, 0.746150006307289, 0.75559999095276, 0.7456500025000423, 0.7405499927699566, 0.7373499975074083, 0.736100017093122, 0.7425500079989433, 0.7459000044036657, 0.7518499915022403, 0.7900999917183071, 0.7584500126540661, 0.752049993025139, 0.7428999815601856, 0.7328499923460186, 0.7751500234007835, 0.7473499863408506, 0.745400000596419, 0.7511999865528196, 0.7495000027120113, 0.8242499898187816, 0.8874000050127506, 0.7099499925971031, 0.8121999853756279, 0.9125999640673399, 0.7469999836757779, 0.7642999989911914, 0.738900009309873, 0.7434000144712627, 0.7434999861288816, 0.7335499976761639, 0.7380500028375536, 0.7536500052083284, 0.751749990740791, 0.754699984099716, 0.7456000021193177, 0.7479000196326524, 0.7420500041916966, 0.753100001020357, 0.7465000089723617, 0.7433999853674322, 0.75634999666363, 0.750600011087954, 0.7576000061817467, 0.7490499992854893, 0.7657000096514821, 0.7436999876517802, 0.7488499977625906, 0.7467499817721546, 0.7505500107072294, 0.7584499835502356, 0.7559999939985573, 0.8692000119481236, 0.7689500052947551, 0.7575000054202974, 0.7422499766107649, 0.7844500069040805, 0.7505000103265047, 0.7408999954350293, 0.7686500030104071, 0.7411999977193773, 0.7510000141337514, 0.7539500074926764, 0.7370999956037849, 0.7397500157821923, 0.7438500178977847, 0.7513500167988241, 0.7464999798685312, 0.76299998909235, 0.7786999922245741, 0.7317499839700758, 0.7582000107504427, 0.746300007449463, 0.7433999853674322, 0.7533000025432557, 0.7448499964084476, 0.7466999813914299, 0.748649996239692, 0.7946999976411462, 0.9202499641105533, 0.9150499827228487, 0.7912000000942498, 0.900649989489466, 0.7493500015698373, 0.7469500123988837, 0.7571000023745, 0.7573500042781234, 0.7553000177722424, 0.7492000004276633, 0.7738999847788364, 0.7274999807123095, 0.7418000022880733, 0.7461000059265643, 0.7447499956469983, 0.7472999859601259, 0.745700002880767, 0.7437499880325049, 0.7465500093530864, 0.7422499766107649, 0.7398500165436417, 0.7532000017818063, 0.7504000095650554, 0.7445999945048243, 0.7525999972131103, 0.7482000219170004, 0.7370999956037849, 0.7333499961532652, 0.7424999785143882, 0.752649997593835, 0.7500499777961522, 0.7372999971266836, 0.7841000042390078, 0.7397999870590866, 0.7396499859169126, 0.7811000104993582, 0.759149988880381, 0.7440500194206834, 0.741399999242276, 0.7578500080853701, 0.7422499766107649, 0.751599989598617, 0.7382000039797276, 0.759749993449077, 0.746000005165115, 0.7394500134978443, 0.7712000224273652, 0.7568500004708767, 0.7932000153232366, 0.8617499843239784, 0.7488499977625906, 0.7352500106208026, 0.7437000167556107, 0.7542999810539186, 0.743650016374886, 0.7423500064760447, 0.7437000167556107, 0.8052500197663903, 0.9046500199474394, 0.9062500030267984, 0.8879999804776162, 0.9002999868243933, 0.7364499906543642, 0.7532000017818063, 0.7944999961182475, 0.7757999992463738, 0.7525499968323857, 0.7352500106208026, 0.766399985877797, 0.741850002668798, 0.7771500095259398, 0.7614000060129911, 0.7404499920085073, 0.7721000001765788, 0.7434000144712627, 0.7629500178154558, 0.7411000260617584, 0.7471000135410577, 0.7510500145144761, 0.7674500229768455, 0.7423500064760447, 0.7377000001724809, 0.7488999981433153, 0.7345000049099326, 0.7473499863408506, 0.7487000257242471, 0.7341500022448599, 0.7455000013578683, 0.7374499982688576, 0.7639999967068434, 0.8009000157471746, 0.7127500139176846, 0.7624500140082091, 0.7438999891746789, 0.756950001232326, 0.7369499944616109, 0.7451499986927956, 0.746600009733811, 0.7456500025000423, 0.7574500050395727, 0.744949997169897, 0.7425000076182187, 0.7513999880757183, 0.7459000044036657, 0.7545000116806477, 0.7905499951448292, 0.8093499927781522, 0.7574500050395727, 0.7586500141769648, 0.7578000077046454, 0.8776500180829316, 0.910699978703633, 0.7656000088900328, 0.8639000297989696, 0.8931499905884266, 0.9085500205401331, 0.6902999884914607, 0.8444999984931201, 0.7862999918870628, 0.7611000037286431, 0.7408999954350293, 0.7350499799940735, 0.7412500272039324, 0.7349999796133488, 0.7508500129915774, 0.7548500143457204, 0.7414000283461064, 0.7527499983552843, 0.7504999812226743, 0.7611000037286431, 0.7468999829143286, 0.7381999748758972, 0.7482999935746193, 0.7485999958589673, 0.7673999934922904, 0.7441999914590269, 0.7407999946735799, 0.741249998100102, 0.7511500152759254, 0.7764500041957945, 0.7428000099025667, 0.7531500014010817, 0.7747999916318804, 0.7540999795310199, 0.7458999752998352, 0.7485500245820731, 0.9014000243041664, 0.7413499988615513, 0.740550021873787, 0.7370999956037849, 0.7400499889627099, 0.7478499901480973, 0.7592500187456608, 0.7568500004708767, 0.7493000011891127, 0.742000003810972, 0.745550001738593, 0.7406499935314059, 0.756800000090152, 0.740250019589439, 0.7470499840565026, 0.7377500005532056, 0.738600007025525, 0.7613000052515417, 0.745700002880767, 0.7367999933194369, 0.7443500217050314, 0.74230000609532, 0.7510000141337514, 0.7581500103697181, 0.7719999994151294, 0.7485499954782426, 0.8534500084351748, 0.8555500244256109, 0.962500023888424, 0.7478000188712031, 0.7528499991167337, 0.7519499922636896, 0.752949999878183, 0.7728500058874488, 0.752649997593835, 0.748649996239692, 0.7647000020369887, 0.7404499920085073, 0.746000005165115, 0.7364499906543642, 0.7486999966204166, 0.7532000017818063, 0.7547499844804406, 0.7434000144712627, 0.7521000225096941, 0.7474999874830246, 0.7420999754685909, 0.752199994167313, 0.7440499903168529, 0.7399000169243664, 0.7471999851986766, 0.755449989810586, 0.738150003599003, 0.7383500051219016, 0.7425499788951129, 0.7348000071942806, 0.7473499863408506, 0.7741500157862902, 0.75559999095276, 0.7818499871063977, 0.7756999984849244, 0.8999000128824264, 0.6712499889545143, 0.8401499944739044, 0.6839499983470887, 0.7539999787695706, 0.7499500061385334, 0.7730999786872417, 0.832949997857213, 0.7486000249627978, 0.7458000036422163, 0.7396999862976372, 0.7554000185336918, 0.7715499959886074, 0.7411499973386526, 0.7325000187847763, 0.7570999732706696, 0.7339000003412366, 0.7443500217050314, 0.7514999888371676, 0.753400003304705, 0.7496500038541853, 0.8608000061940402, 0.899500009836629, 0.7842500053811818, 0.8996999822556973, 0.7443000213243067, 0.7478499901480973, 0.7601499964948744, 0.7488999981433153, 0.7437500171363354, 0.7379000016953796, 0.741700001526624, 0.7411499973386526, 0.7659500115551054, 0.7745499897282571, 0.7774499827064574, 0.7552000170107931, 0.7361499883700162, 0.7488499977625906, 0.7445499941240996, 0.7464000082109123, 0.7475500169675797, 0.7360500167123973, 0.7523999956902117, 0.749550003092736, 0.7402999908663332, 0.7448499964084476, 0.7545000116806477, 0.738900009309873, 0.7467999821528792, 0.7425500079989433, 0.738000002456829, 0.7469999836757779, 0.8677000005263835, 0.7777000137139112, 0.6935000128578395, 0.7540499791502953, 0.7437499880325049, 0.7447000243701041, 0.7493500015698373, 0.7682499999646097, 0.7642499986104667, 0.741850002668798, 0.7481499924324453, 0.7491500000469387, 0.7508000126108527, 0.760349998017773, 0.8836499764584005, 0.742450007237494, 0.7537500059697777, 0.7741499866824597, 0.7531499722972512, 0.749250000808388, 0.7721500005573034, 0.7368999940808862, 0.7608999731019139, 0.7477499893866479, 0.7469500123988837, 0.7424000068567693, 0.750150007661432, 0.9071499807760119, 0.7287499902304262, 0.8140999998431653, 0.8244500204455107, 0.754699984099716, 0.7452999998349696, 0.742750009521842, 0.751299987314269, 0.8059499959927052, 0.742000003810972, 0.7432499842252582, 0.744100019801408, 0.7435999868903309, 0.7354000117629766, 0.7497500046156347, 0.7536000048276037, 0.7479500200133771, 0.7386999786831439, 0.7428500102832913, 0.7496500038541853, 0.7443499926012009, 0.743350014090538, 0.7345500052906573, 0.7419500034302473, 0.7730500074103475, 0.7534500036854297, 0.7647000020369887, 0.7612500048708171, 0.7334499969147146, 0.7471999851986766, 0.8467500156257302, 0.9276499913539737, 0.7630000181961805, 0.7407999946735799, 0.7373499975074083, 0.7573000038973987, 0.753100001020357, 0.7565499981865287, 0.7970000151544809, 0.7424000068567693, 0.747899990528822, 0.7476499886251986, 0.752949999878183, 0.7502500084228814, 0.7724500028416514, 0.742750009521842, 0.7403499912470579, 0.7363999902736396, 0.745550001738593, 0.7552499882876873, 0.7650500047020614, 0.7501000072807074, 0.7509999850299209, 0.7440999906975776, 0.7441999914590269, 0.755899993237108, 0.7556500204373151, 0.9212000004481524, 0.9387999889440835, 0.8071000047493726, 0.9063500037882477, 0.8081999840214849, 0.7541499799117446, 0.7435999868903309, 0.746900012018159, 0.746150006307289, 0.7417500019073486, 0.8061499975156039, 0.7470000127796084, 0.7615000067744404, 0.7489999989047647, 0.7374499982688576, 0.7474499871022999, 0.7401499897241592, 0.7547499844804406, 0.753250002162531, 0.7436499872710556, 0.7630500185769051, 0.7400000176858157, 0.7446000236086547, 0.7498499762732536, 0.7502500084228814, 0.7409999961964786, 0.7501499785576016, 0.7472999859601259, 0.7779500156175345, 0.7555499905720353, 0.7408999954350293, 0.7533000025432557, 0.7425000076182187, 0.7388000085484236, 0.7463499787263572, 0.773949985159561, 0.7989000005181879, 0.8730000117793679, 0.7627499871887267, 0.8222000033129007, 0.7514999888371676, 0.7830499962437898, 0.7776000129524618, 0.8668000227771699, 0.7635499932803214, 0.7331000233534724, 0.7539500074926764, 0.7579500088468194, 0.7801000028848648, 0.8461500401608646, 0.755449989810586, 0.7456500025000423, 0.7401999901048839, 0.759149988880381, 0.7434500148519874, 0.7419999747071415, 0.748649996239692, 0.7473999867215753, 0.9099500020965934, 0.9170499979518354, 0.6964500062167645, 0.9135000000242144, 0.7441499910783023, 0.8245000208262354, 0.7443499926012009, 0.7493000011891127, 0.746300007449463, 0.7482499931938946, 0.7413499988615513, 0.7409499958157539, 0.7720499997958541, 0.7559999939985573, 0.7344000041484833, 0.7518499915022403, 0.7329999934881926, 0.7512000156566501, 0.7474500162061304, 0.746450008591637, 0.7404999923892319, 0.7605499995406717, 0.7496000034734607, 0.751749990740791, 0.7422000053338706, 0.7511499861720949, 0.7516999903600663, 0.7412999984808266, 0.7576999778393656, 0.7312499801628292, 0.7469500123988837, 0.7714000239502639, 0.7240000122692436, 0.754150009015575, 0.7472500146832317, 0.7403499912470579, 0.7397999870590866, 0.7354499830398709, 0.7498000049963593, 0.7772000099066645, 0.7412999984808266, 0.8134499948937446, 0.745099998312071, 0.7501499785576016, 0.75045000994578, 0.7413499988615513, 0.770549988374114, 0.7513999880757183, 0.7703499868512154, 0.7434000144712627, 0.7539000071119517, 0.7431000121869147, 0.7483999943360686, 0.7576499774586409, 0.7433000137098134, 0.7432999846059829, 0.7469999836757779, 0.760950002586469, 0.8433999901171774, 0.8988500339910388, 0.7228000031318516, 0.9044499893207103, 0.746150006307289, 0.8004499832168221, 0.7493000011891127, 0.7556500204373151, 0.7453500002156943, 0.755149987526238, 0.7440999906975776, 0.7607500010635704, 0.7534500036854297, 0.7492000004276633, 0.7570000016130507, 0.7744500180706382, 0.7577500073239207, 0.7807500078342855, 0.7376499997917563, 0.7400999893434346, 0.7425999792758375, 0.755749992094934, 0.758399983169511, 0.7431500125676394, 0.763299991376698, 0.750000006519258, 0.753700005589053, 0.760199996875599, 0.7432499842252582, 0.7530500006396323, 0.7665999874006957, 0.8114500087685883, 0.7581499812658876, 0.7816999859642237, 0.7427000091411173, 0.7450499979313463, 0.7996000058483332, 0.748799997381866, 0.7828999951016158, 0.7446000236086547, 0.7432500133290887, 0.7509499846491963, 0.7441999914590269, 0.7352999818976969, 0.7479499909095466, 0.7319000142160803, 0.7356500136666, 0.7489999989047647, 0.7474499871022999, 0.7495000027120113, 0.7809499802533537, 0.7481499924324453, 0.7492000004276633, 0.741399999242276, 0.7436999876517802, 0.7512500160373747, 0.7442499918397516, 0.9182500070892274, 0.9225999820046127, 0.9221999789588153, 0.8063499990385026, 0.8070999756455421, 0.7414499996230006, 0.7489999989047647, 0.7495999743696302, 0.7555499905720353, 0.7699500129092485, 0.7450499979313463, 0.7522000232711434, 0.742900010664016, 0.7565499981865287, 0.743500015232712, 0.7551500166300684, 0.7664999866392463, 0.7881000055931509, 0.746600009733811, 0.750750012230128, 0.7511499861720949, 0.7415000000037253, 0.7478499901480973, 0.7480999920517206, 0.7411000260617584, 0.7580500096082687, 0.738300004741177, 0.7366999925579876, 0.7442499918397516, 0.7561499951407313, 0.7508500129915774, 0.8000500092748553, 0.7912500004749745, 0.9013500239234418, 0.7451499986927956, 0.7466499810107052, 0.7817499863449484, 0.7376499997917563, 0.7459000044036657, 0.6967500085011125, 0.7471500139217824, 0.7412999984808266, 0.755449989810586, 0.8099999977275729, 0.7908999978099018, 0.7347000064328313, 0.7511500152759254, 0.7711999933235347, 0.739200011594221, 0.739200011594221, 0.7508499838877469, 0.7448999967891723, 0.7405000214930624, 0.749099999666214, 0.7473499863408506, 0.7578999793622643, 0.8232499822042882, 0.9122499905060977, 0.8880000095814466, 0.7618999807164073, 0.9074000117834657, 0.7547999848611653, 0.7697000110056251, 0.7538000063505024, 0.745099998312071, 0.7397999870590866, 0.7522000232711434, 0.7403999916277826, 0.7511499861720949, 0.7591999892611057, 0.7351500098593533, 0.7502500084228814, 0.7323499885387719, 0.760800001444295, 0.748499995097518, 0.7451999990735203, 0.7361999887507409, 0.7479999912902713, 0.7406499935314059, 0.7607000006828457, 0.7492000004276633, 0.7375999994110316, 0.7510499854106456, 0.7524499960709363, 0.7436000159941614, 0.7409999961964786, 0.7422500057145953, 0.7753999962005764, 0.7528999994974583, 0.7661999843548983, 0.7444499933626503, 0.7577500073239207, 0.7419500034302473, 0.7628500170540065, 0.7464000082109123, 0.7437999884132296, 0.7539000071119517, 0.7453500002156943, 0.7544499821960926, 0.7646499725524336, 0.7512500160373747, 0.7553500181529671, 0.7414499996230006, 0.751749990740791, 0.7475500169675797, 0.770549988374114, 0.7536500052083284, 0.7398499874398112, 0.7337999995797873, 0.7527499983552843, 0.7451499986927956, 0.7578500080853701, 0.7358500151894987, 0.746450008591637, 0.7491500000469387, 0.9009500208776444, 0.8914500067476183, 0.7554000185336918, 0.9010000212583691, 0.8484499994665384, 0.7552500173915178, 0.7451499986927956, 0.7595499919261783, 0.7391500112134963, 0.7513000164180994, 0.738150003599003, 0.753550004446879, 0.7485000242013484, 0.7458499749191105, 0.744949997169897, 0.7317999843508005, 0.75559999095276, 0.7489999989047647, 0.7473499863408506, 0.7408999954350293, 0.7377500005532056, 0.752649997593835, 0.7499500061385334, 0.7480999920517206, 0.742450007237494, 0.7765500049572438, 0.7434499857481569, 0.7757999992463738, 0.6633000157307833, 0.7496000034734607, 0.7447499956469983, 0.8053999918047339, 0.7350999803747982, 0.7627500162925571, 0.7498999766539782, 0.7409999961964786, 0.7510000141337514, 0.7609000022057444, 0.7540999795310199, 0.7488999981433153, 0.7516999903600663, 0.7449999975506216, 0.7444999937433749, 0.7452999998349696, 0.7559999939985573, 0.776149972807616, 0.7333999965339899, 0.7397000154014677, 0.7482499931938946, 0.7443499926012009, 0.7357500144280493, 0.7422500057145953, 0.7505499816033989, 0.7516000187024474, 0.7476500177290291, 0.7520000217482448, 0.7465499802492559, 0.7569000008516014, 0.8693999843671918, 0.9034500108100474, 0.7966999837663025, 0.8973499934654683, 0.8436500211246312, 0.7417500019073486, 0.6882000016048551, 0.7501999789383262, 0.753850006731227, 0.7812999829184264, 0.752199994167313, 0.7536500052083284, 0.7405499927699566, 0.7399000169243664, 0.7363500189967453, 0.7866499945521355, 0.7382500043604523, 0.7516499899793416, 0.756499997805804, 0.7373499975074083, 0.7501000072807074, 0.7497500046156347, 0.7584999839309603, 0.758099980885163, 0.7550000154878944, 0.7462000066880137, 0.7452000281773508, 0.7540500082541257, 0.739350012736395, 0.7569000008516014, 0.7414499996230006, 0.7516499899793416, 0.7489999989047647, 0.7695000094827265, 0.7356500136666, 0.7520999934058636, 0.7757999992463738, 0.7404499920085073, 0.7337499991990626, 0.7426499796565622, 0.7456000021193177, 0.7300500001292676, 0.7624499849043787, 0.7366999925579876, 0.7379000016953796, 0.7463499787263572, 0.7375999994110316, 0.829399999929592, 0.8041499822866172, 0.7363999902736396],
  "Optimal Expectation Value": -14.925971031188965,
  "Optimizer durations [ms]": [19.317, 16.248, 16.08, 16.084, 17.065, 24.449, 19.241, 19.563, 34.321, 21.479, 30.964, 16.213, 16.189, 22.353, 19.938, 21.807, 21.392, 24.744, 16.021, 19.314, 16.015, 16.31, 16.093, 16.281, 16.37, 16.315, 17.261, 16.333, 16.293, 16.22, 16.0, 16.176, 16.27, 16.273, 16.257, 16.163, 15.917, 16.265, 15.805, 16.448, 16.149, 16.018, 17.198, 17.041, 18.007, 26.829, 16.433, 16.6, 16.374, 18.024, 16.714, 16.298, 16.424, 16.375, 16.641, 16.58, 16.489, 16.353, 16.585, 16.13, 16.438, 16.751, 17.29, 17.477, 16.185, 25.117, 16.513, 16.418, 16.224, 16.705, 16.213, 20.509, 19.569, 23.315, 19.393, 32.688, 17.016, 16.433, 16.33, 16.267, 16.558, 16.943, 16.467, 16.831, 16.065, 16.265, 16.158, 16.22, 16.371, 16.257, 16.078, 16.123, 16.574, 16.401, 17.022, 15.863, 16.631, 16.111, 16.274, 16.643, 16.363, 17.608, 29.403, 16.751, 16.39, 16.58, 16.247, 16.442, 16.373, 16.447, 16.588, 16.299, 16.393, 16.34, 16.06, 16.387, 16.45, 16.667, 16.518, 16.401, 19.634, 18.711, 16.407, 16.215, 19.312, 16.392, 17.024, 16.469, 16.515, 29.301, 21.395, 21.46, 24.502, 17.724, 16.473, 16.701, 16.448, 16.266, 16.982, 17.12, 16.538, 16.702, 16.676, 15.786, 16.119, 16.059, 16.618, 16.085, 16.181, 16.513, 15.998, 16.421, 16.698, 16.128, 16.111, 16.331, 16.121, 16.093, 16.465, 16.45, 32.101, 26.072, 16.372, 16.476, 16.361, 16.795, 16.376, 19.716, 16.15, 16.054, 15.894, 26.851, 16.161, 16.793, 16.165, 27.432, 18.648, 18.052, 16.297, 16.27, 16.021, 18.296, 16.237, 16.236, 16.784, 19.535, 19.624, 31.363, 19.066, 23.777, 16.163, 16.218, 16.444, 16.113, 16.255, 17.27, 16.254, 16.48, 16.754, 16.277, 16.596, 16.397, 16.271, 16.126, 16.433, 16.398, 16.403, 16.23, 16.631, 16.404, 16.431, 20.13, 16.428, 16.173, 17.177, 16.535, 16.692, 23.64, 21.334, 16.686, 16.844, 16.419, 16.509, 16.145, 16.345, 16.557, 16.325, 16.301, 16.045, 16.039, 16.354, 16.056, 16.13, 16.842, 16.835, 16.523, 16.164, 15.846, 17.071, 16.543, 22.475, 16.331, 16.144, 18.176, 20.086, 31.373, 21.221, 20.025, 16.505, 17.471, 16.098, 16.279, 16.378, 16.171, 15.959, 16.455, 16.513, 16.285, 16.009, 16.159, 16.404, 16.368, 16.31, 16.221, 16.584, 16.37, 16.422, 16.11, 16.743, 16.373, 16.205, 16.402, 16.24, 16.624, 21.927, 18.667, 25.465, 16.481, 16.202, 17.085, 16.429, 16.31, 17.72, 16.37, 16.163, 16.308, 15.904, 16.46, 16.172, 16.453, 16.305, 20.285, 16.778, 16.054, 16.606, 16.093, 16.278, 16.34, 16.18, 23.286, 16.092, 17.581, 20.032, 20.344, 25.36, 22.082, 16.468, 16.506, 16.216, 16.244, 16.4, 16.529, 16.683, 15.835, 16.27, 16.211, 16.219, 16.612, 16.196, 16.475, 16.287, 16.349, 16.049, 16.546, 16.471, 16.423, 16.402, 16.287, 16.123, 15.882, 16.124, 16.55, 16.3, 16.427, 19.872, 16.138, 20.958, 17.028, 16.76, 16.534, 16.339, 23.736, 16.27, 16.631, 16.394, 16.78, 21.25, 16.046, 16.953, 16.349, 23.84, 19.621, 16.344, 16.124, 16.394, 16.116, 16.084, 16.21, 19.953, 17.429, 24.407, 20.256, 24.654, 19.53, 16.92, 16.508, 17.379, 16.897, 16.317, 16.065, 16.644, 16.29, 16.767, 16.757, 16.34, 16.879, 16.19, 16.772, 16.214, 16.231, 16.128, 16.56, 16.395, 16.269, 16.191, 16.036, 16.182, 16.671, 15.902, 16.287, 16.359, 16.571, 27.62, 15.705, 16.572, 16.203, 16.378, 16.041, 16.554, 16.569, 16.469, 16.627, 16.454, 16.0, 16.343, 16.254, 16.454, 17.03, 18.71, 16.794, 19.257, 18.338, 20.322, 31.677, 19.266, 24.891, 20.924, 19.612, 29.612, 26.752, 18.096, 16.508, 16.241, 16.271, 16.48, 16.03, 16.437, 16.123, 16.294, 16.349, 16.365, 16.571, 16.384, 16.135, 16.513, 16.503, 16.861, 16.477, 16.284, 16.066, 16.252, 16.68, 16.357, 16.481, 16.935, 16.446, 23.947, 16.466, 30.88, 16.368, 16.05, 15.97, 16.32, 16.555, 16.676, 16.564, 16.498, 16.38, 16.488, 16.347, 16.705, 16.125, 19.482, 16.302, 16.477, 16.566, 16.176, 15.991, 16.334, 16.283, 16.318, 16.462, 16.88, 16.558, 28.807, 22.77, 23.387, 26.333, 16.487, 16.313, 16.54, 17.023, 16.4, 16.528, 16.559, 16.143, 16.193, 16.191, 16.332, 16.647, 16.536, 16.051, 16.451, 16.393, 16.208, 16.287, 16.276, 16.408, 24.673, 16.39, 16.316, 16.146, 16.308, 15.725, 16.533, 16.951, 16.287, 17.259, 16.902, 19.516, 29.279, 18.118, 21.503, 16.478, 16.035, 16.876, 18.152, 17.834, 16.411, 16.076, 16.619, 29.494, 19.049, 15.95, 16.402, 16.025, 16.434, 16.182, 16.537, 17.169, 18.39, 30.52, 27.988, 22.562, 16.429, 16.302, 16.471, 16.508, 16.454, 16.167, 16.384, 16.172, 16.819, 16.715, 16.996, 16.474, 15.979, 16.494, 16.279, 16.25, 16.357, 16.221, 16.37, 16.355, 16.311, 16.447, 16.39, 16.06, 16.238, 16.311, 16.28, 16.243, 18.64, 22.482, 15.589, 16.396, 16.297, 16.379, 16.283, 16.715, 16.457, 16.133, 15.982, 16.275, 16.579, 16.72, 19.311, 16.31, 16.614, 16.879, 16.306, 16.278, 16.774, 15.929, 16.496, 16.525, 16.923, 16.073, 16.532, 30.379, 29.935, 23.994, 30.917, 16.76, 16.583, 16.359, 16.068, 17.371, 16.033, 16.362, 16.396, 16.144, 15.794, 16.433, 16.211, 16.301, 16.197, 16.197, 16.165, 16.453, 16.576, 16.268, 16.415, 16.747, 16.319, 16.802, 16.698, 27.197, 16.178, 18.508, 26.755, 16.707, 16.143, 16.165, 16.285, 16.673, 16.505, 17.43, 16.445, 16.372, 16.435, 16.255, 16.625, 17.102, 16.417, 16.354, 16.313, 16.486, 16.65, 16.5, 16.361, 16.465, 16.358, 16.329, 16.668, 16.405, 28.218, 20.228, 26.408, 19.421, 17.5, 16.547, 16.037, 16.428, 16.041, 15.915, 17.767, 16.511, 16.477, 16.46, 15.987, 16.414, 16.352, 16.311, 16.578, 16.346, 17.434, 16.232, 16.441, 16.219, 16.166, 16.164, 16.683, 16.385, 16.829, 16.557, 16.311, 16.306, 18.325, 16.013, 21.566, 16.874, 17.263, 18.886, 16.541, 21.887, 16.537, 16.865, 16.845, 18.664, 16.88, 16.108, 16.197, 16.589, 23.214, 19.797, 16.344, 17.822, 16.291, 16.497, 16.239, 16.415, 16.472, 16.327, 23.325, 20.326, 28.51, 23.499, 16.433, 17.772, 16.394, 16.421, 16.261, 16.293, 15.998, 16.336, 17.025, 16.486, 16.089, 16.413, 16.026, 16.306, 16.435, 16.439, 16.325, 16.556, 16.139, 16.293, 16.153, 16.341, 16.357, 16.094, 16.567, 15.859, 16.11, 16.55, 31.785, 16.427, 16.575, 15.985, 16.064, 16.122, 16.576, 17.06, 16.35, 17.479, 16.209, 16.716, 16.395, 16.377, 16.944, 16.226, 16.65, 16.378, 16.478, 16.203, 16.55, 22.978, 18.877, 15.862, 16.332, 16.451, 26.396, 20.607, 27.056, 27.872, 16.358, 17.339, 16.346, 16.392, 15.946, 16.11, 16.459, 16.372, 16.566, 16.495, 16.619, 16.641, 16.556, 16.962, 16.324, 16.218, 16.414, 16.385, 23.509, 16.291, 16.574, 16.369, 16.222, 16.616, 19.57, 16.677, 16.76, 30.587, 16.533, 17.183, 16.322, 16.528, 17.363, 16.347, 17.195, 16.174, 16.081, 16.53, 20.458, 16.347, 16.242, 16.118, 16.078, 16.24, 16.53, 16.327, 16.864, 16.41, 16.477, 16.224, 16.13, 16.487, 16.48, 27.945, 19.913, 24.357, 32.269, 17.665, 16.214, 16.14, 16.257, 16.474, 16.958, 16.299, 16.332, 16.342, 16.57, 16.154, 16.64, 16.701, 17.16, 16.547, 16.445, 16.422, 16.329, 16.615, 16.363, 16.078, 16.286, 16.163, 16.136, 16.563, 16.702, 16.225, 17.29, 17.198, 19.45, 16.56, 16.284, 17.156, 16.024, 16.407, 25.953, 16.496, 16.424, 16.518, 24.405, 17.398, 17.673, 16.119, 30.045, 18.937, 16.056, 16.36, 16.397, 16.054, 16.595, 16.33, 16.316, 18.102, 19.557, 19.05, 21.896, 26.423, 16.829, 17.661, 16.165, 15.987, 16.166, 16.629, 16.407, 16.646, 16.37, 16.143, 16.85, 16.063, 16.468, 16.458, 16.306, 16.192, 16.513, 16.267, 16.659, 16.529, 16.112, 16.565, 16.306, 16.392, 16.331, 16.398, 17.49, 16.432, 31.899, 16.548, 16.484, 16.124, 16.794, 16.296, 16.361, 16.572, 16.256, 16.472, 16.684, 16.486, 16.694, 16.01, 16.607, 16.544, 16.989, 16.196, 16.322, 16.417, 16.57, 16.082, 16.475, 16.147, 16.467, 16.181, 19.632, 19.83, 28.355, 21.385, 23.237, 16.464, 23.461, 16.509, 16.196, 16.519, 16.15, 16.512, 16.413, 16.147, 16.452, 16.203, 16.535, 16.583, 16.118, 16.08, 16.02, 16.292, 16.697, 16.425, 16.1, 16.863, 16.366, 16.786, 25.806, 16.309, 16.356, 17.488, 27.601, 16.995, 16.537, 16.043, 16.309, 16.584, 16.46, 16.362, 16.321, 16.153, 16.4, 16.272, 16.347, 16.833, 16.205, 16.239, 16.132, 16.219, 16.085, 15.974, 16.5, 16.692, 16.378, 16.338, 16.391, 16.729, 30.102, 19.653, 27.566, 19.106, 18.379, 16.182, 34.647, 16.597, 16.809, 16.844, 16.633, 16.437, 16.022, 15.996, 15.998, 17.064, 16.28, 16.441, 16.63, 16.238, 16.428, 16.585, 16.728, 16.501, 16.429, 16.044, 16.886, 16.589, 16.03, 16.331, 16.184, 17.463, 16.235, 22.074, 16.125, 16.514, 16.889, 16.154, 22.622, 16.179, 16.31, 16.144, 16.641, 22.557, 16.024, 16.53, 16.125, 27.64, 22.048, 16.133],
  "Optimizer iterations": 1042,
  "Optimizer params": [0.5486589355015172, 0.9264600931839239, 0.5789023873983614, 0.9122053192351356, 0.6849400349579107, 0.6423089011618986, 0.9192709630764433, 0.5889661404057843, 0.906218807310236, 0.5910575409684995, 0.9019708242159116, 0.596043007105048, 0.5531891682782645, 0.4842846276530109, 0.5668373110186014, 0.5361131234612714, 0.521542965773148, 0.5590120068479868, 0.4731439974812321, 0.506858525592106, 0.5167395447167957, 0.5478595040664123, 0.5643025349067943, 0.944419303720985, 0.5614210316746517, 0.5802732308026164, 0.558624447191113, 0.5350153049041086, 0.5285904146621035, 0.5155848896371779, 0.50724616755624, 0.5109138499240472, 0.5122209147373762, 0.5074758075095286, 0.488378829226961, 0.419529938446484, 0.544372951172536, 0.4979155134753837, 0.5333571981598088, 0.5073146113852102, 0.46729536233113467, 0.49486897482622455, 0.5374331251322684, 0.5157042156918941, 0.46090623500663164, 0.519051777473044, 0.4952619296982045, 0.42705049730817896],
  "P": 0,
  "Problem": "IC",
  "QPU": "7000000",
  "Qubits": 12,
  "Shots": 4096,
  "Size": 12,
  "Total Algorithm duration [s]": 18.3,
  "Total Classic duration [s]": 17.505529250059045,
  "Total Quantum duration [s]": 0.794470749940956
}
