{
  "Depth": 26.5,
  "Expectation Value": -14.754279136657715,
  "Job durations [ms]": [0.7983499963302165, 0.7811000104993582, 0.7686000026296824, 0.7735500112175941, 0.7670499908272177, 0.7658999820705503, 0.7908499974291772, 0.7750999939162284, 0.7772500102873892, 0.7645000005140901, 0.777649984229356, 0.7595499919261783, 0.7747999916318804, 0.8515500230714679, 0.7671500206924975, 0.7932000153232366, 0.7710999925620854, 0.7554999901913106, 0.7952500018291175, 0.8059999963734299, 0.7650500047020614, 0.7936499896459281, 0.7443000213243067, 0.7509999850299209, 0.7596999930683523, 0.764049997087568, 0.8121999853756279, 0.8242499898187816, 0.8071000047493726, 0.8239999879151583, 0.8038499800022691, 0.8906500006560236, 0.7881500059738755, 0.7912500004749745, 0.8014499908313155, 0.7815500139258802, 0.753100001020357, 1.180849998490885, 0.7351500098593533, 0.7394999847747386, 0.7651500054635108, 0.8707499946467578, 0.9168500255327672, 0.9235500183422118, 0.9011000220198184, 0.8797500049695373, 0.6961000035516918, 0.7649000035598874, 0.7549499860033393, 0.748649996239692, 0.7676499953959137, 0.7721500005573034, 0.7615500071551651, 0.7539000071119517, 0.7597999938298017, 0.7474999874830246, 0.7518499915022403, 0.7402499904856086, 0.7540500082541257, 0.7441499910783023, 0.7546500128228217, 0.7430999830830842, 0.7573000038973987, 0.7579000084660947, 0.7522499945480376, 0.7471000135410577, 0.7673999934922904, 0.7601499964948744, 0.739650015020743, 0.7393999840132892, 0.7475499878637493, 0.7611000037286431, 0.7510500145144761, 0.7558499928563833, 0.7518499915022403, 0.7541999802924693, 0.7540499791502953, 0.7383500051219016, 0.7387000077869743, 0.7626499864272773, 0.7579500088468194, 0.7505000103265047, 0.7482999935746193, 0.797750020865351, 0.8310500124935061, 0.7639499963261187, 0.7687999750487506, 0.6892500096000731, 0.7895999879110605, 0.7543000101577491, 0.7707499898970127, 0.8076000085566193, 0.7573499751742929, 0.7430999830830842, 0.7801500032655895, 0.769799982663244, 0.7599499949719757, 0.7472999859601259, 0.7510500145144761, 0.7488999981433153, 0.7607500010635704, 0.9224500099662691, 0.9458500135224313, 0.9196500177495182, 0.8945999725256115, 0.7813499832991511, 0.7677999965380877, 0.7780499872751534, 0.7595499919261783, 0.8075999794527888, 0.7600999961141497, 0.7794999983161688, 0.7766999769955873, 0.7656000088900328, 0.772599974879995, 0.7673499931115657, 0.7893999863881618, 0.7718499982729554, 0.765799981309101, 0.7576000061817467, 0.7469999836757779, 0.7570500019937754, 0.7403499912470579, 0.7627999875694513, 0.741700001526624, 0.7605999999213964, 0.75045000994578, 0.7455000013578683, 0.7505999819841236, 0.7704999879933894, 0.7576000061817467, 0.7358499860856682, 0.7616000075358897, 0.7524499960709363, 0.7443499926012009, 0.7510999857913703, 0.7554999901913106, 0.754699984099716, 0.749250000808388, 0.7487499970011413, 0.7585000130347908, 0.7990000012796372, 0.7572000031359494, 0.7592499896418303, 0.756049994379282, 0.7503500091843307, 0.7448499964084476, 0.7646500016562641, 0.6566000229213387, 0.7749500218778849, 0.755299988668412, 0.797900022007525, 0.7365000201389194, 0.7590999884996563, 0.7438500178977847, 0.7630499894730747, 0.8169999928213656, 0.919749989407137, 0.8971499919425696, 0.9187499817926437, 0.8532000065315515, 0.8821500232443213, 0.761649978812784, 0.7647500024177134, 0.756049994379282, 0.7602999976370484, 0.7845000072848052, 0.7759500003885478, 0.7556999917142093, 0.7590000168420374, 0.7573000038973987, 0.7411499973386526, 0.744649994885549, 0.7409999961964786, 0.752649997593835, 0.7480999920517206, 0.7517999911215156, 0.7468000112567097, 0.7634999928995967, 0.7553500181529671, 0.7578499789815396, 0.7493000011891127, 0.748049991670996, 0.7449999975506216, 0.679899996612221, 0.7829999958630651, 0.7675000233575702, 0.7530500006396323, 0.763899995945394, 0.7798000006005168, 0.7637999951839447, 0.8135000243782997, 0.7636499940417707, 0.748499995097518, 0.7553499890491366, 0.7530500006396323, 0.7925000099930912, 0.7944499957375228, 0.7780500163789839, 0.7583000115118921, 0.756649998947978, 0.7937999907881021, 0.7524499960709363, 0.7939999923110008, 0.7545500120613724, 0.7513999880757183, 0.7391999824903905, 0.7476000173483044, 0.7475499878637493, 0.7469499832950532, 0.7581000099889934, 0.7540999795310199, 0.7595499919261783, 0.7842499762773514, 0.8690500108059496, 0.8964999869931489, 0.9098499722313136, 0.7750499935355037, 0.9300500096287578, 0.9084499906748533, 0.765649980166927, 0.7593499904032797, 0.7588000153191388, 0.7983499963302165, 0.7757499988656491, 0.7753999962005764, 0.7625000143889338, 0.7627499871887267, 0.7691500068176538, 0.7833999989088625, 0.7917500042822212, 0.7723000016994774, 0.756199995521456, 0.7510000141337514, 0.7388000085484236, 0.753550004446879, 0.748649996239692, 0.7455000013578683, 0.7397999870590866, 0.7554500189144164, 0.6917499995324761, 0.7730500074103475, 0.7642499986104667, 0.7499999774154276, 0.7416000007651746, 0.7701499853283167, 0.7499000057578087, 0.7623500132467598, 0.7639999967068434, 0.8292999991681427, 0.7386500074062496, 0.7390000100713223, 0.7651000050827861, 0.8595999970566481, 0.7994500047061592, 0.7549499860033393, 0.7774500118102878, 0.7830000249668956, 0.7491500000469387, 0.7541000086348504, 0.7467999821528792, 0.7717999978922307, 0.7560999947600067, 0.7621000113431364, 0.749550003092736, 0.7566999993287027, 0.7594999915454537, 0.74819999281317, 0.75559999095276, 0.7482999935746193, 0.7502000080421567, 0.7431499834638089, 0.8472000190522522, 0.8746999665163457, 0.7734500104561448, 0.8981500286608934, 0.7941999938338995, 0.7847999804653227, 0.7681999995838851, 0.7703499868512154, 0.7505499816033989, 0.7470000127796084, 0.755749992094934, 0.7499000057578087, 0.7315999828279018, 0.7570500019937754, 0.74894999852404, 0.7538499776273966, 0.7492000004276633, 0.7560999947600067, 0.7984999974723905, 0.7459000044036657, 0.7582999824080616, 0.7541000086348504, 0.7522499945480376, 0.7549500151071697, 0.7504000095650554, 0.7462499779649079, 0.7722500013187528, 0.767449993873015, 0.7425000076182187, 0.7575000054202974, 0.7571500027552247, 0.7547999848611653, 0.7399000169243664, 0.7510500145144761, 0.7375999994110316, 0.7538000063505024, 0.7563999970443547, 0.7546000124420971, 0.7604499987792224, 0.7570000016130507, 0.759749993449077, 0.7579999801237136, 0.7891499844845384, 0.7538000063505024, 0.7704000163357705, 0.7088000129442662, 0.7533500029239804, 0.7514000171795487, 0.7629499887116253, 0.7652500062249601, 0.760049995733425, 0.7385000062640756, 0.840049993712455, 0.7815000135451555, 0.7814500131644309, 0.7863999926485121, 0.9541500185150653, 0.9323000267613679, 0.8023999980650842, 0.9294000046793371, 0.7456500025000423, 0.7595500210300088, 0.7556999917142093, 0.7588000153191388, 0.7515499892178923, 0.8017999934963882, 0.7573000038973987, 0.7815999852027744, 0.7877000025473535, 0.7556499913334846, 0.7516999903600663, 0.7715499959886074, 0.7547499844804406, 0.7673499931115657, 0.745099998312071, 0.7652000058442354, 0.7484500238206238, 0.7697500113863498, 0.7528499991167337, 0.7496500038541853, 0.7549500151071697, 0.7571000023745, 0.7559499936178327, 0.7635499932803214, 0.7492000004276633, 0.7535000040661544, 0.7502999796997756, 0.7601499964948744, 0.7521499937865883, 0.7822000188753009, 0.7482999935746193, 0.7536000048276037, 0.8148000051733106, 0.7683500007260591, 0.8229500090237707, 0.6915499980095774, 0.7584500126540661, 0.7668999896850437, 0.757400004658848, 0.7717499975115061, 0.843299989355728, 0.7670999912079424, 0.7575000054202974, 0.7488499977625906, 0.7451499986927956, 0.7530000002589077, 0.7599499949719757, 0.7301500008907169, 0.7383999763987958, 0.7543999818153679, 0.7673499931115657, 0.7522999949287623, 0.7533500029239804, 0.9008499910123646, 0.8996999822556973, 0.7824500207789242, 0.7903499936219305, 0.7608500018250197, 0.7670499908272177, 0.760049995733425, 0.7643999997526407, 0.7515499892178923, 0.7717999978922307, 0.7400999893434346, 0.7599999953527004, 0.7541000086348504, 0.7516499899793416, 0.7738999847788364, 0.7463999791070819, 0.7652500062249601, 0.7672500214539468, 0.7339000003412366, 0.757250003516674, 0.7451499986927956, 0.7545999833382666, 0.760800001444295, 0.7773500110488385, 0.746600009733811, 0.7471500139217824, 0.7772000099066645, 0.7388500089291483, 0.7603999983984977, 0.746000005165115, 0.7557999924756587, 0.7741499866824597, 0.7541999802924693, 0.7485499954782426, 0.7462499779649079, 0.7773999823257327, 0.7550500158686191, 0.8131999929901212, 0.9224000095855445, 0.8776999893598258, 0.7715999963693321, 0.7978499925229698, 0.7666000165045261, 0.7908499974291772, 0.7571500027552247, 0.7437000167556107, 0.7531500014010817, 0.7513999880757183, 0.7886000094003975, 0.7811000104993582, 0.7859500183258206, 0.7524000247940421, 0.7608500018250197, 0.7633499917574227, 0.7505499816033989, 0.9139500034507364, 0.9205999958794564, 0.9064000041689724, 0.8089999901130795, 0.911449984414503, 0.7621999830007553, 0.7516499899793416, 0.7633999921381474, 0.8535999804735184, 0.7541999802924693, 0.7502000080421567, 0.7581000099889934, 0.75634999666363, 0.7577000069431961, 0.7479999912902713, 0.741249998100102, 0.7450499979313463, 0.7576500065624714, 0.7575000054202974, 0.756800000090152, 0.757250003516674, 0.7685000018682331, 0.7594500202685595, 0.755899993237108, 0.7563999970443547, 0.7533000025432557, 0.7472500146832317, 0.7938999915495515, 0.7590500172227621, 0.7602499972563237, 0.746900012018159, 0.745400000596419, 0.7547500135842711, 0.760800001444295, 0.7686500030104071, 0.7656500092707574, 0.7639499963261187, 0.7607500010635704, 0.760349998017773, 0.7636000227648765, 0.7599499949719757, 0.7810999813955277, 0.7936999900266528, 0.9031500376295298, 0.7731500081717968, 0.7913500012364239, 0.7822000188753009, 0.6852499791420996, 0.7385000062640756, 0.7405999931506813, 0.7590499881189317, 0.7661000126972795, 0.746750010875985, 0.7417500019073486, 0.759449991164729, 0.7551000162493438, 0.7695000094827265, 0.9041000157594681, 0.895350007340312, 0.8012500184122473, 0.7902499928604811, 0.7465000089723617, 0.7478499901480973, 0.733300024876371, 0.7655500085093081, 0.7666500168852508, 0.7677999965380877, 0.7767500064801425, 0.7539500074926764, 0.7508000126108527, 0.747500016586855, 0.7433499849867076, 0.7579500088468194, 0.7416000007651746, 0.7553999894298613, 0.760199996875599, 0.7490499992854893, 0.7640999974682927, 0.7462500070687383, 0.7583500118926167, 0.7520000217482448, 0.7609000022057444, 0.7981999951880425, 0.8607000054325908, 0.7288499909918755, 0.7909499981906265, 0.7846500084269792, 0.7781499880366027, 0.7893500151112676, 0.75559999095276, 0.774249987443909, 0.7662000134587288, 0.7677499961573631, 0.7803500047884881, 0.7753999962005764, 0.7671999919693917, 0.7738000131212175, 0.7649500039406121, 0.7942999945953488, 0.7751500234007835, 0.7596999930683523, 0.8143500017467886, 0.7690000056754798, 0.7665999874006957, 0.7840000034775585, 0.7623499841429293, 0.7732999802101403, 0.7738000131212175, 0.7788499933667481, 0.7846499793231487, 0.767299992730841, 0.7772500102873892, 0.8759000047575682, 0.9040500153787434, 0.7351500098593533, 0.9167499956674874, 0.7652499771211296, 0.7563999970443547, 0.7482999935746193, 0.7448999967891723, 0.7876500021666288, 0.9270000155083835, 0.752499996451661, 0.7563999970443547, 0.7573999755550176, 0.7510999857913703, 0.76149997767061, 0.7860000187065452, 0.7519499922636896, 0.7565499981865287, 0.7461000059265643, 0.7570000016130507, 0.7449999975506216, 0.7482999935746193, 0.7540999795310199, 0.7640999974682927, 0.7509999850299209, 0.752799998736009, 0.7455000013578683, 0.7515499892178923, 0.7551500166300684, 0.7469500123988837, 0.7477999897673726, 0.7395500142592937, 0.7650000043213367, 0.7541000086348504, 0.7643999997526407, 0.7584999839309603, 0.7688499754294753, 0.7479999912902713, 0.7611499750055373, 0.8283500210382044, 0.7717999978922307, 0.7147500000428408, 0.7605499995406717, 0.7502500084228814, 0.7423499773722142, 0.7476500177290291, 0.7494500023312867, 0.7761500019114465, 0.7543000101577491, 0.7528499991167337, 0.7704500167164952, 0.7471999851986766, 0.7462000066880137, 0.7557999924756587, 0.745550001738593, 0.768749974668026, 0.7670000195503235, 0.8935500227380544, 0.8553499937988818, 0.9200500207953155, 0.905699998838827, 0.7512000156566501, 0.7992999744601548, 0.753400003304705, 0.7642499986104667, 0.773949985159561, 0.770249986089766, 0.8036000072024763, 0.7807500078342855, 0.7605499995406717, 0.7662999851163477, 0.7417500019073486, 0.7651000050827861, 0.7565999985672534, 0.7999500085134059, 0.7742999878246337, 0.7716499967500567, 0.7468999829143286, 0.7421999762300402, 0.7523999956902117, 0.7635500223841518, 0.7861500198487192, 0.7727000047452748, 0.8227999787777662, 0.7487499970011413, 0.7525999972131103, 0.7679499976802617, 0.7539500074926764, 0.7788999937474728, 0.7568500004708767, 0.7639499963261187, 0.7533500029239804, 0.7463500078301877, 0.7895999879110605, 0.843449990497902, 0.9117000154219568, 0.7588500156998634, 0.8133999945130199, 0.8590499637648463, 0.8990499773062766, 0.7524499960709363, 0.7494500023312867, 0.7647000020369887, 0.7699999841861427, 0.7575000054202974, 0.7653000066056848, 0.753400003304705, 0.7510000141337514, 0.7477499893866479, 0.7708999910391867, 0.7272500079125166, 0.7699000125285238, 0.9511500247754157, 0.9555499709676951, 0.9146500087808818, 0.9109499806072563, 0.7938499911688268, 0.7681499992031604, 0.7479999912902713, 0.7430499827023596, 0.762849987950176, 0.7508000126108527, 0.7517999911215156, 0.7666500168852508, 0.8152500085998327, 0.7516499899793416, 0.8150000066962093, 0.7669499900657684, 0.7623499841429293, 0.7782999891787767, 0.7522499945480376, 0.7489999989047647, 0.7440999906975776, 0.7516499899793416, 0.7697000110056251, 0.7443999929819256, 0.7528999994974583, 0.7591000176034868, 0.7493500015698373, 0.7888000109232962, 0.748499995097518, 0.7680999988224357, 0.751599989598617, 0.7577000069431961, 0.7575999770779163, 0.7574499759357423, 0.749250000808388, 0.7557999924756587, 0.753100001020357, 0.747350015444681, 0.7829999958630651, 0.7858999888412654, 0.7682499999646097, 0.7954500033520162, 0.7835500000510365, 0.755149987526238, 0.7445999945048243, 0.819200009573251, 0.7637999951839447, 0.7405499927699566, 0.7582000107504427, 0.7445499941240996, 0.751599989598617, 0.7460500055458397, 0.7614499772898853, 0.7488999981433153, 0.7594500202685595, 0.7556499913334846, 0.7523999956902117, 0.8391999872401357, 0.9147000091616064, 0.9199499909300357, 0.9159500186797231, 0.9024500322993845, 0.7899499905761331, 0.7639999967068434, 0.7547999848611653, 0.7413499988615513, 0.9004500170703977, 0.8069000032264739, 0.7509499846491963, 0.8343499794136733, 0.689499982399866, 0.7833000272512436, 0.7867499953135848, 0.8234500128310174, 0.7699500129092485, 0.7685500022489578, 0.7730000070296228, 0.7534500036854297, 0.7557500211987644, 0.7666499877814204, 0.7493500015698373, 0.7719000277575105, 0.7531500014010817, 0.751299987314269, 0.7463500078301877, 0.753850006731227, 0.7451499986927956, 0.7510499854106456, 0.7551999879069626, 0.7830999966245145, 0.7475999882444739, 0.7437500171363354, 0.7659000111743808, 0.744649994885549, 0.7571500027552247, 0.7841000042390078, 0.8674500277265906, 0.7573000038973987, 0.7874000002630055, 0.7429999823216349, 0.7561499951407313, 0.7656500092707574, 0.7768500072415918, 0.7716499967500567, 0.7765500049572438, 0.7761500019114465, 0.7848500099498779, 0.8488500025123358, 0.7742999878246337, 0.7875500014051795, 0.7580000092275441, 0.7496500038541853, 0.7569000008516014, 0.9219500061590225, 0.911899987841025, 0.9247500274796039, 0.759449991164729, 0.7762500026728958, 0.7438499887939543, 0.8037500083446503, 0.7471500139217824, 0.762699986808002, 0.747200014302507, 0.7561500242445618, 0.7853000133763999, 0.7670999912079424, 0.7719999994151294, 0.7723500020802021, 0.7581499812658876, 0.7614000060129911, 0.7664999866392463, 0.7393000123556703, 0.7617500086780638, 0.7458000036422163, 0.7636999944224954, 0.7460499764420092, 0.7593999907840043, 0.7478000188712031, 0.7641499978490174, 0.7492000004276633, 0.7894000154919922, 0.836949999211356, 0.753550004446879, 0.7649000035598874, 0.7769500080030411, 0.7462500070687383, 0.7542499806731939, 0.7544000109191984, 0.7609000022057444, 0.7544499821960926, 0.7560999947600067, 0.7545999833382666, 0.7432999846059829, 0.8079499821178615, 0.8007500146050006, 0.7578500080853701, 0.7687999750487506, 0.7792999967932701, 0.7873499998822808, 0.7535999757237732, 0.74380001751706, 0.7515000179409981, 0.7512000156566501, 0.7817000150680542, 0.7710499921813607, 0.7752999954391271, 0.7836000004317611, 0.753100001020357, 0.7671000203117728, 0.8675999997649342, 0.9085999918170273, 0.8927499875426292, 0.9348499879706651, 0.7502000080421567, 0.7585999846924096, 0.7562999962829053, 0.759299990022555, 0.7504000095650554, 0.7539499783888459, 0.7552499882876873, 0.7670000195503235, 0.7730000070296228, 0.7464999798685312, 0.760800001444295, 0.7488999981433153, 0.7503499800805002, 0.7627999875694513, 0.7751999946776778, 0.7485999958589673, 0.748799997381866, 0.7540500082541257, 0.7415000000037253, 0.7594999915454537, 0.7475500169675797, 0.7442500209435821, 0.7472500146832317, 0.7498000049963593, 0.760049995733425, 0.7446999952662736, 0.74894999852404, 0.7539000071119517, 0.755149987526238, 0.7512000156566501, 0.760950002586469, 0.7604499987792224, 0.750300008803606, 0.7614000060129911, 0.7716999971307814, 0.7909999985713512, 0.7979499932844192, 0.7576500065624714, 0.7594999915454537, 0.740250019589439, 0.762849987950176, 0.742750009521842, 0.7994000043254346, 0.7533000025432557, 0.750750012230128, 0.7677999965380877, 0.748799997381866, 0.7701499853283167, 0.7493000011891127, 0.7543000101577491, 0.7584999839309603, 0.7497500046156347, 0.7406499935314059, 0.7535999757237732, 0.9329499735031277, 0.9036500123329461, 0.8229500090237707, 0.8882000111043453, 0.752649997593835, 0.7500999781768769, 0.755749992094934, 0.7567499997094274, 0.747350015444681, 0.7477999897673726, 0.7549499860033393, 0.7595499919261783, 0.7480999920517206, 0.7496500038541853, 0.7876000017859042, 0.8188499778043479, 0.7504999812226743, 0.7630500185769051, 0.8127499895635992, 0.7603999983984977, 0.7520999934058636, 0.7491500000469387, 0.7594000198878348, 0.7507999835070223, 0.7412999984808266, 0.756199995521456, 0.7713499944657087, 0.751599989598617, 0.763899995945394, 0.776149972807616, 0.7501000072807074, 0.7534500036854297, 0.7533500029239804, 0.7475999882444739, 0.7476499886251986, 0.7731500081717968, 0.7615999784320593, 0.7512500160373747, 0.7721500005573034, 0.7931499858386815, 0.8291999984066933, 0.758999987738207, 0.7621999830007553, 0.7601499964948744, 0.7571999740321189, 0.7667000172659755, 0.741850002668798, 0.7548500143457204, 0.7541499799117446, 0.7531500014010817, 0.7647000020369887, 0.7570500019937754, 0.764199998229742, 0.7672499923501164, 0.750150007661432, 0.7544500112999231, 0.7473000150639564, 0.9278999932575971, 0.900949991773814, 0.8935999649111181, 0.8965499873738736, 0.7796499994583428, 0.7784499903209507, 0.7762000022921711, 0.7776000129524618, 0.7756999984849244, 0.6702500104438514, 0.7462999783456326, 0.759749993449077, 0.7596999930683523, 0.7676499953959137, 0.7542999810539186, 0.7536499761044979, 0.750150007661432, 0.761949981097132, 0.7652500062249601, 0.7630499894730747, 0.7471999851986766, 0.7542999810539186, 0.7438499887939543, 0.7577000069431961, 0.7619000098202378, 0.7459500047843903, 0.7892500143498182, 0.7445499941240996, 0.7548000139649957, 0.754150009015575, 0.7609000022057444, 0.7580500096082687, 0.7587999862153083, 0.7554999901913106, 0.7570500019937754, 0.7513999880757183, 0.7612999761477113, 0.7475499878637493, 0.7656500092707574, 0.7559500227216631, 0.7558499928563833, 0.7798500009812415, 0.7983499963302165, 0.8523500000592321, 0.7634000212419778, 0.7081999792717397, 0.8103500003926456, 0.8754499722272158, 0.7585000130347908, 0.7923499797470868, 0.7892499852459878, 0.8550500206183642, 0.7523999956902117, 0.7494500023312867, 0.77039998723194, 0.9217500046361238, 0.9159999608527869, 0.7167499861679971, 0.963350001256913, 0.7884500082582235, 0.7809500093571842, 0.7581999816466123, 0.7824499916750938, 0.7722000009380281, 0.7740499859210104, 0.7654000073671341, 0.7558500219602138, 0.7750499935355037, 0.7699999841861427, 0.7836500008124858, 0.7956500048749149, 0.832949997857213, 0.8122499857563525, 0.7562499959021807, 0.7784000190440565, 0.7505999819841236, 0.7475500169675797, 0.7451999990735203, 0.7419000030495226, 0.7458000036422163, 0.7404499920085073, 0.7693999796174467, 0.7724000024609268, 0.7732000085525215, 0.7521500228904188, 0.7526999979745597, 0.7872499991208315, 0.7496500038541853, 0.7666500168852508, 0.7578000077046454, 0.7666000165045261, 0.7925999816507101, 0.7676500244997442, 0.8130499918479472],
  "Optimal Expectation Value": -14.925971031188965,
  "Optimizer durations [ms]": [17.238, 16.606, 17.05, 16.741, 16.592, 16.48, 16.915, 16.603, 17.086, 16.646, 16.932, 16.541, 16.988, 18.182, 16.794, 16.99, 16.59, 16.327, 17.361, 17.73, 16.694, 17.155, 16.071, 16.407, 16.727, 16.843, 17.275, 17.531, 17.524, 17.85, 23.922, 19.381, 17.182, 17.202, 17.39, 16.949, 16.998, 25.323, 39.968, 34.64, 27.241, 24.152, 23.979, 25.187, 20.424, 26.947, 22.376, 17.092, 16.25, 16.523, 16.476, 16.96, 16.819, 16.299, 16.77, 16.335, 16.297, 16.238, 16.501, 16.333, 16.53, 16.213, 16.289, 16.742, 16.297, 16.465, 17.074, 16.745, 16.543, 16.362, 16.565, 16.598, 16.77, 16.601, 16.608, 16.344, 17.086, 16.302, 16.534, 17.011, 16.944, 16.447, 16.62, 25.171, 19.01, 17.249, 16.958, 22.448, 17.15, 16.553, 16.966, 18.923, 16.501, 16.048, 17.146, 16.994, 16.497, 16.145, 16.421, 16.234, 17.073, 21.283, 20.073, 19.983, 22.642, 26.153, 16.705, 17.202, 16.652, 17.59, 16.373, 16.922, 16.619, 16.885, 16.798, 16.619, 17.339, 17.021, 16.716, 16.816, 17.187, 16.622, 16.44, 18.806, 16.295, 16.678, 16.075, 16.321, 16.337, 17.06, 16.464, 16.215, 16.484, 17.459, 16.408, 16.428, 17.09, 16.224, 16.532, 16.456, 17.452, 17.351, 16.7, 16.698, 19.803, 16.409, 16.375, 16.765, 25.708, 16.895, 16.264, 17.368, 26.346, 16.579, 16.454, 16.748, 24.04, 27.407, 19.263, 21.297, 22.387, 19.228, 25.791, 16.784, 16.706, 16.82, 16.709, 17.072, 16.723, 16.66, 16.572, 16.356, 16.883, 16.874, 18.476, 16.289, 16.21, 16.627, 16.486, 16.369, 16.958, 16.624, 16.01, 16.33, 15.397, 17.414, 16.695, 16.508, 16.647, 16.871, 16.442, 17.825, 17.523, 24.094, 16.428, 16.652, 17.345, 28.429, 17.075, 16.71, 16.639, 17.272, 16.766, 17.34, 16.395, 16.381, 16.204, 16.177, 16.111, 16.631, 16.674, 16.651, 16.413, 17.247, 18.619, 28.943, 20.405, 28.931, 20.574, 23.999, 17.201, 16.639, 16.682, 17.455, 16.966, 16.894, 16.499, 17.29, 16.732, 17.139, 17.595, 16.995, 17.092, 16.921, 16.69, 16.751, 16.21, 16.982, 16.441, 16.381, 15.938, 17.183, 16.832, 16.903, 16.269, 16.711, 16.487, 16.744, 16.6, 18.176, 16.169, 16.162, 17.22, 18.829, 29.87, 16.582, 16.921, 18.963, 16.623, 16.646, 19.045, 16.844, 16.565, 16.53, 16.325, 16.352, 16.769, 15.97, 16.326, 16.228, 16.66, 17.188, 22.499, 24.211, 27.419, 31.617, 23.756, 17.138, 16.897, 17.055, 16.762, 16.979, 16.754, 16.437, 16.535, 17.03, 16.857, 16.388, 16.314, 17.431, 17.335, 16.541, 16.92, 16.313, 16.605, 16.72, 16.517, 16.455, 19.167, 16.833, 15.992, 16.155, 16.48, 16.585, 16.089, 16.64, 16.125, 16.374, 16.582, 16.786, 16.824, 16.448, 19.245, 16.765, 16.947, 16.768, 17.356, 23.477, 16.48, 16.37, 16.799, 16.82, 21.992, 16.013, 18.136, 17.349, 28.47, 17.346, 25.853, 20.048, 33.991, 24.231, 16.631, 20.566, 16.518, 16.699, 16.313, 17.491, 16.688, 17.021, 17.237, 16.769, 16.479, 16.772, 16.138, 17.213, 16.199, 16.694, 16.212, 16.851, 16.547, 16.564, 16.705, 16.397, 16.49, 16.307, 16.507, 16.467, 16.457, 16.581, 16.37, 17.172, 16.185, 16.254, 17.403, 16.791, 29.944, 15.557, 16.381, 16.929, 16.553, 16.763, 18.131, 16.793, 16.626, 16.266, 17.448, 16.622, 16.63, 16.026, 16.566, 16.43, 17.248, 16.657, 16.699, 26.206, 19.623, 25.739, 30.205, 16.789, 17.945, 23.094, 16.82, 16.426, 16.726, 16.256, 16.417, 16.417, 16.313, 16.967, 16.239, 16.883, 17.001, 16.254, 16.543, 16.367, 16.66, 16.616, 16.955, 16.474, 16.385, 17.063, 16.085, 16.481, 16.193, 16.375, 16.705, 16.434, 16.428, 16.468, 17.1, 16.639, 17.687, 20.143, 28.945, 16.65, 25.471, 16.611, 17.397, 16.974, 16.426, 16.961, 16.655, 17.175, 16.819, 17.136, 16.518, 16.554, 17.952, 16.397, 19.743, 29.132, 19.657, 26.835, 22.216, 16.664, 16.617, 16.593, 18.975, 17.916, 16.462, 16.412, 16.679, 16.837, 16.444, 16.196, 16.435, 16.622, 16.758, 16.588, 16.504, 16.601, 16.719, 16.37, 16.348, 17.097, 16.605, 17.293, 16.95, 16.388, 16.428, 16.459, 16.304, 16.731, 17.04, 21.806, 16.937, 16.479, 16.86, 16.584, 16.516, 16.956, 17.248, 19.296, 16.657, 17.172, 16.991, 26.209, 16.347, 16.33, 16.558, 28.816, 15.987, 16.402, 16.765, 33.798, 17.071, 23.383, 19.172, 27.459, 27.967, 16.38, 16.825, 16.469, 17.132, 23.399, 16.777, 16.941, 16.503, 16.692, 16.345, 16.508, 16.786, 16.202, 16.404, 16.746, 16.043, 16.744, 16.275, 16.6, 16.306, 16.482, 17.374, 23.8, 33.701, 17.311, 17.144, 16.841, 17.076, 16.424, 16.779, 16.533, 16.777, 17.105, 30.579, 16.596, 16.936, 16.794, 17.191, 16.757, 16.695, 17.869, 16.671, 16.59, 16.831, 16.934, 16.792, 17.039, 16.924, 16.798, 16.849, 17.221, 30.282, 20.489, 25.75, 22.991, 18.788, 16.574, 17.621, 16.204, 17.052, 20.057, 16.133, 16.477, 16.694, 16.573, 16.695, 17.095, 16.541, 17.101, 16.64, 16.621, 16.139, 16.339, 16.584, 16.435, 16.375, 16.19, 16.29, 16.54, 16.419, 16.24, 16.406, 16.249, 17.74, 16.644, 16.644, 16.662, 16.879, 16.576, 16.726, 29.782, 16.892, 26.646, 16.494, 16.389, 16.222, 16.342, 16.321, 16.846, 16.738, 16.277, 16.844, 16.389, 16.282, 16.686, 16.265, 17.261, 16.674, 30.699, 20.061, 27.688, 23.639, 16.708, 17.291, 16.422, 16.61, 17.212, 16.74, 25.731, 16.734, 16.708, 16.644, 16.181, 16.488, 16.634, 17.285, 16.823, 16.664, 16.353, 16.31, 16.16, 16.509, 17.935, 16.983, 18.018, 16.526, 16.256, 16.795, 16.499, 16.722, 16.644, 16.528, 16.326, 16.3, 17.174, 18.386, 19.634, 16.595, 23.204, 18.335, 20.397, 16.555, 16.302, 29.094, 16.888, 16.461, 16.468, 27.34, 16.496, 16.356, 16.865, 32.103, 16.886, 23.594, 20.412, 34.288, 20.095, 17.321, 16.976, 16.504, 16.277, 16.675, 16.634, 16.365, 19.247, 17.736, 16.274, 17.618, 16.572, 16.365, 16.872, 16.4, 16.291, 16.278, 16.532, 16.507, 16.451, 16.433, 16.421, 16.266, 17.161, 16.506, 16.65, 16.303, 16.305, 16.664, 16.395, 16.186, 16.406, 16.303, 16.274, 16.917, 27.719, 17.119, 17.242, 19.028, 16.254, 16.337, 17.915, 16.646, 15.856, 16.431, 16.152, 16.567, 16.28, 16.783, 16.344, 16.722, 16.524, 16.393, 18.108, 19.844, 19.732, 22.485, 20.99, 17.993, 16.84, 16.808, 16.317, 34.345, 17.821, 16.362, 26.606, 15.168, 16.864, 17.289, 17.617, 17.008, 17.184, 16.803, 16.128, 16.694, 16.944, 16.52, 16.998, 16.191, 18.615, 16.346, 16.597, 16.356, 16.227, 16.754, 24.419, 16.238, 16.201, 16.51, 16.366, 16.56, 26.673, 18.568, 24.41, 17.107, 16.361, 16.611, 16.804, 18.635, 16.899, 16.969, 16.912, 17.306, 18.31, 16.855, 17.152, 16.644, 16.848, 19.628, 26.495, 19.628, 24.252, 28.779, 16.844, 16.191, 17.888, 16.53, 16.629, 16.267, 16.253, 16.878, 16.906, 19.564, 16.676, 16.455, 16.267, 16.611, 16.146, 16.413, 16.323, 16.852, 16.527, 16.648, 16.355, 16.802, 16.317, 17.447, 18.659, 16.842, 16.725, 16.802, 16.34, 16.336, 16.541, 16.615, 16.525, 16.364, 16.864, 16.412, 18.119, 17.525, 21.41, 16.989, 17.188, 17.257, 25.14, 16.481, 16.515, 16.52, 25.719, 16.9, 16.879, 17.106, 28.246, 17.502, 25.356, 19.614, 24.263, 21.546, 16.536, 16.558, 16.218, 16.38, 16.426, 16.835, 16.777, 18.169, 16.737, 16.293, 26.22, 16.503, 16.643, 16.54, 17.235, 16.301, 16.426, 16.672, 16.222, 16.67, 16.186, 16.21, 16.661, 16.238, 16.553, 16.078, 16.546, 16.771, 16.58, 16.451, 16.487, 16.549, 16.51, 16.745, 17.007, 31.535, 17.247, 16.635, 16.568, 16.22, 16.45, 16.1, 17.363, 16.537, 16.471, 16.827, 16.478, 16.873, 16.369, 16.726, 16.652, 16.434, 16.185, 16.707, 23.213, 19.771, 26.678, 30.223, 16.439, 16.457, 16.136, 16.807, 16.63, 16.245, 16.674, 16.731, 16.012, 16.042, 17.14, 17.96, 16.607, 16.8, 17.74, 16.573, 16.581, 16.257, 16.911, 16.455, 16.299, 16.366, 16.681, 16.374, 16.895, 16.785, 16.472, 17.17, 16.252, 16.047, 16.008, 16.727, 16.538, 16.358, 16.893, 29.51, 25.77, 16.563, 16.511, 16.569, 16.262, 16.795, 16.212, 16.501, 16.54, 16.529, 16.639, 16.479, 16.612, 16.752, 16.236, 16.42, 19.884, 26.444, 19.662, 30.66, 28.799, 17.049, 16.927, 17.203, 17.007, 16.997, 17.69, 16.256, 17.029, 16.989, 17.001, 16.548, 22.942, 17.288, 16.538, 16.863, 16.813, 16.468, 16.459, 16.206, 16.664, 16.529, 16.505, 17.062, 16.148, 16.346, 16.562, 16.52, 16.395, 16.829, 16.684, 16.454, 16.397, 16.611, 16.324, 16.712, 16.559, 20.27, 17.06, 17.427, 18.673, 16.575, 23.681, 17.563, 18.613, 16.574, 25.813, 17.094, 18.642, 17.122, 34.141, 16.678, 25.068, 19.718, 25.588, 24.801, 17.221, 17.082, 16.334, 17.061, 16.76, 16.937, 16.804, 16.788, 17.039, 16.859, 16.891, 17.299, 18.25, 17.598, 16.686, 16.971, 16.304, 16.16, 16.245, 16.258, 16.596, 16.863, 16.732, 17.31, 16.885, 16.092, 16.137, 24.619, 16.564, 16.591, 16.79, 16.513, 16.956, 16.876, 29.78],
  "Optimizer iterations": 1042,
  "Optimizer params": [0.5486589355015172, 0.9264600931839239, 0.5789023873983614, 0.9122053192351356, 0.6849400349579107, 0.6423089011618986, 0.9192709630764433, 0.5889661404057843, 0.906218807310236, 0.5910575409684995, 0.9019708242159116, 0.596043007105048, 0.5531891682782645, 0.4842846276530109, 0.5668373110186014, 0.5361131234612714, 0.521542965773148, 0.5590120068479868, 0.4731439974812321, 0.506858525592106, 0.5167395447167957, 0.5478595040664123, 0.5643025349067943, 0.944419303720985, 0.5614210316746517, 0.5802732308026164, 0.558624447191113, 0.5350153049041086, 0.5285904146621035, 0.5155848896371779, 0.50724616755624, 0.5109138499240472, 0.5122209147373762, 0.5074758075095286, 0.488378829226961, 0.419529938446484, 0.544372951172536, 0.4979155134753837, 0.5333571981598088, 0.5073146113852102, 0.46729536233113467, 0.49486897482622455, 0.5374331251322684, 0.5157042156918941, 0.46090623500663164, 0.519051777473044, 0.4952619296982045, 0.42705049730817896],
  "P": 0,
  "Problem": "IC",
  "QPU": "7000000",
  "Qubits": 12,
  "Shots": 4096,
  "Size": 12,
  "Total Algorithm duration [s]": 18.659,
  "Total Classic duration [s]": 17.85266030092351,
  "Total Quantum duration [s]": 0.8063396990764886
}
