{
  "Depth": 26.5,
  "Expectation Value": -14.754279136657715,
  "Job durations [ms]": [0.7713499944657087, 0.7510000141337514, 0.7709499914199114, 0.7404499920085073, 0.7583000115118921, 0.751599989598617, 0.7451499986927956, 0.7698000117670745, 0.8010499877855182, 0.7578999793622643, 0.7761500019114465, 0.9425999887753278, 0.7785000198055059, 0.7599499949719757, 0.7615000067744404, 0.747899990528822, 0.7863500213716179, 0.7920000061858445, 0.7410999969579279, 0.7951500010676682, 0.7541000086348504, 0.7640999974682927, 0.7540499791502953, 0.7694000087212771, 0.7577000069431961, 0.7549000147264451, 0.7571500027552247, 0.7375499990303069, 0.7495000027120113, 0.755749992094934, 0.7741999870631844, 0.760800001444295, 0.7624000136274844, 0.818600005004555, 0.7518499915022403, 0.7548000139649957, 0.7629499887116253, 0.9106500074267387, 0.9061999735422432, 0.8963499858509749, 0.8946499729063362, 0.7725500036031008, 0.7761000015307218, 0.7493000011891127, 0.7820499886292964, 0.7750999939162284, 0.7611500041093677, 0.7995999767445028, 0.7618499803356826, 0.7769000076223165, 0.7739999855402857, 0.8205999911297113, 0.7521500228904188, 0.75045000994578, 0.7648000027984381, 0.7376499997917563, 0.7550999871455133, 0.7423500064760447, 0.755749992094934, 0.7577999786008149, 0.7512000156566501, 0.7617500086780638, 0.7633000204805285, 0.7689500052947551, 0.753400003304705, 0.7598000229336321, 0.759449991164729, 0.7503500091843307, 0.7553500181529671, 0.7826999935787171, 0.7557500211987644, 0.7689500052947551, 0.7507999835070223, 0.7618000090587884, 0.7966499833855778, 0.8442999969702214, 0.7465000089723617, 0.8112499781418592, 0.7590499881189317, 0.7369999948423356, 0.7677499961573631, 0.7811000104993582, 0.7863500213716179, 0.7581500103697181, 0.7600500248372555, 0.7556499913334846, 0.7399999885819852, 0.7519500213675201, 0.7626499864272773, 0.7845500076655298, 0.7929500134196132, 0.7461000059265643, 0.9347499872092158, 0.8956000383477658, 0.8041999826673418, 0.8004000119399279, 0.7708500197622925, 0.760049995733425, 0.7502000080421567, 0.7652500062249601, 0.7440999906975776, 0.749099999666214, 0.7649999752175063, 0.7461499772034585, 0.7556499913334846, 0.7563999970443547, 0.7671500206924975, 0.7684500014875084, 0.7791499956510961, 0.757250003516674, 0.7604000275023282, 0.753850006731227, 0.766399985877797, 0.7528499991167337, 0.7510499854106456, 0.7533499738201499, 0.7542000093962997, 0.7465000089723617, 0.7479500200133771, 0.7462999783456326, 0.7852500129956752, 0.7518499915022403, 0.7560000231023878, 0.7552500173915178, 0.7501999789383262, 0.748349993955344, 0.7464000082109123, 0.7477500184904784, 0.7425500079989433, 0.7443000213243067, 0.7649500039406121, 0.7937999907881021, 0.7937999907881021, 0.7559000223409384, 0.7859500183258206, 0.7726000039838254, 0.7451999990735203, 0.7552499882876873, 0.7582999824080616, 0.7481499924324453, 0.7409499958157539, 0.739500013878569, 0.7570000016130507, 0.756649998947978, 0.7688500045333058, 0.7598000229336321, 0.7579500088468194, 0.7646500016562641, 0.8296000014524907, 0.8572499791625887, 0.8808000129647553, 0.7290999928954989, 0.918399979127571, 0.7542000093962997, 0.7688000041525811, 0.7617000082973391, 0.7910499989520758, 0.7508000126108527, 0.7774500118102878, 0.7950500003062189, 0.7599500240758061, 0.7502500084228814, 0.7512000156566501, 0.754000007873401, 0.7635499932803214, 0.7453500002156943, 0.7790999952703714, 0.7623500132467598, 0.7404499920085073, 0.7505500107072294, 0.744799996027723, 0.7528499991167337, 0.7665000157430768, 0.7541000086348504, 0.7502499793190509, 0.7370999956037849, 0.7723000016994774, 0.7615500071551651, 0.7429999823216349, 0.7345999765675515, 0.7579000084660947, 0.7414499996230006, 0.7623499841429293, 0.7505500107072294, 0.7560999947600067, 0.745249999454245, 0.7552000170107931, 0.8158499840646982, 0.7873499998822808, 0.7729500066488981, 0.746000005165115, 0.7816500146873295, 0.7553999894298613, 0.750750012230128, 0.7887000101618469, 0.7451999990735203, 0.7516499899793416, 0.7421999762300402, 0.7553000177722424, 0.7868500251788646, 0.7684500014875084, 0.766399985877797, 0.7683500007260591, 0.8039000094868243, 0.7726500043645501, 0.7691500068176538, 0.867100025061518, 0.8203000179491937, 0.7936499896459281, 0.9181000059470534, 0.7551999879069626, 0.7577500073239207, 0.756499997805804, 0.7474500162061304, 0.758399983169511, 0.759599992306903, 0.7718499982729554, 0.7747999916318804, 0.751599989598617, 0.8129499910864979, 0.8032500045374036, 0.7695499807596207, 0.8176500268746167, 0.7762000022921711, 0.7671000203117728, 0.7691500068176538, 0.7793499971739948, 0.7618500094395131, 0.758849986596033, 0.8069500036071986, 0.7358499860856682, 0.7823500200174749, 0.7908999978099018, 0.7485999958589673, 0.75634999666363, 0.7499000057578087, 0.7424499781336635, 0.7366999925579876, 0.7496500038541853, 0.749850005377084, 0.7357499853242189, 0.7947499980218709, 0.753400003304705, 0.758699985453859, 0.7509500137530267, 0.7930999854579568, 0.7800000021234155, 0.9023499733302742, 0.7757999992463738, 0.7538499776273966, 0.8178999996744096, 0.7434000144712627, 0.7386499783024192, 0.744799996027723, 0.767449993873015, 0.7707999902777374, 0.7474500162061304, 0.759749993449077, 0.7653000066056848, 0.8134999952744693, 0.8729500113986433, 0.9293000039178878, 0.8999999845400453, 0.7901999924797565, 0.9387499885633588, 0.7525000255554914, 0.7738499843981117, 0.7572000031359494, 0.7710999925620854, 0.7601499964948744, 0.7752499950584024, 0.7557500211987644, 0.7570499728899449, 0.7575000054202974, 0.7448499964084476, 0.7568500004708767, 0.7562499959021807, 0.750600011087954, 0.752949999878183, 0.7565499981865287, 0.749550003092736, 0.7729000062681735, 0.7686000026296824, 0.7605999999213964, 0.7595499919261783, 0.7639500254299492, 0.7601499964948744, 0.7654000073671341, 0.7630499894730747, 0.7374999986495823, 0.7633499917574227, 0.7843500061426312, 0.7546500128228217, 0.758849986596033, 0.7618499803356826, 0.7371000247076154, 0.754150009015575, 0.753850006731227, 0.7528499991167337, 0.7711499929428101, 0.8078999817371368, 0.7552499882876873, 0.7531999726779759, 0.750750012230128, 0.7648000027984381, 0.7867999956943095, 0.7773500110488385, 0.8356999896932393, 0.7514500175602734, 0.7402999908663332, 0.7494500023312867, 0.7645500008948147, 0.7602999976370484, 0.7493000011891127, 0.756049994379282, 0.755749992094934, 0.760349998017773, 0.7728500058874488, 0.7867999956943095, 0.911599985556677, 0.9025500039570034, 0.8937499660532922, 0.8778500196058303, 0.7610500033479184, 0.7802000036463141, 0.7667999889235944, 0.7653500069864094, 0.7680499984417111, 0.7626000151503831, 0.7784999907016754, 0.7592500187456608, 0.7812500116415322, 0.7485499954782426, 0.7703499868512154, 0.798350025434047, 0.7502000080421567, 0.7609999738633633, 0.7502999796997756, 0.7541999802924693, 0.7621500117238611, 0.7437999884132296, 0.7457500032614917, 0.746750010875985, 0.758999987738207, 0.7723000016994774, 0.7595499919261783, 0.7584999839309603, 0.7513500167988241, 0.7480999920517206, 0.7462000066880137, 0.7488000264856964, 0.7497499755118042, 0.7369499944616109, 0.755149987526238, 0.7539000071119517, 0.7607000006828457, 0.7539499783888459, 0.7368999940808862, 0.7981499948073179, 0.7640999974682927, 0.7499000057578087, 0.7620500109624118, 0.759149988880381, 0.7489999989047647, 0.7834999996703118, 0.7859000179450959, 0.7593499904032797, 0.7505500107072294, 0.7951500010676682, 0.7915500027593225, 0.753250002162531, 0.758399983169511, 0.7621499826200306, 0.7558500219602138, 0.7454500009771436, 0.7556499913334846, 0.9212500008288771, 0.8997500408440828, 0.9103000047616661, 0.7183999987319112, 0.7460500055458397, 0.7581000099889934, 0.7463999791070819, 0.749550003092736, 0.7516000187024474, 0.7467999821528792, 0.7593500195071101, 0.764199998229742, 0.7522499945480376, 0.7553500181529671, 0.746600009733811, 0.7560999947600067, 0.7882999780122191, 0.753550004446879, 0.7423999777529389, 0.749250000808388, 0.7707999902777374, 0.751899991882965, 0.7482999935746193, 0.7423999777529389, 0.7485499954782426, 0.7822000188753009, 0.7519500213675201, 0.7930999854579568, 0.7688500045333058, 0.7637999951839447, 0.7653000066056848, 0.7802000036463141, 0.7513999880757183, 0.7570999732706696, 0.7574500050395727, 0.7406499935314059, 0.7516000187024474, 0.757400004658848, 0.7621500117238611, 0.7585000130347908, 0.7422000053338706, 0.7493500015698373, 0.7722500013187528, 0.8008999866433442, 0.7548999856226146, 0.7532000017818063, 0.7623000128660351, 0.760199996875599, 0.76149997767061, 0.7539500074926764, 0.7565999985672534, 0.7734499813523144, 0.7662000134587288, 0.8116000099107623, 0.7672500214539468, 0.7587499858345836, 0.9046499617397785, 0.8937999955378473, 0.8239999879151583, 0.7426499796565622, 0.7894000154919922, 0.7810500101186335, 0.7715999963693321, 0.7701499853283167, 0.7736000115983188, 0.7723000016994774, 0.7725500036031008, 0.7652500062249601, 0.7615999784320593, 0.7662500138394535, 0.7825999928172678, 0.7630000181961805, 0.7848500099498779, 0.7698000117670745, 0.7622500124853104, 0.7794499979354441, 0.762549985665828, 0.7707499898970127, 0.7709000201430172, 0.7737000123597682, 0.7805500063113868, 0.7575000054202974, 0.7507999835070223, 0.7472499855794013, 0.7583499827887863, 0.7496499747503549, 0.7739000138826668, 0.7642999989911914, 0.742150004953146, 0.743200012948364, 0.7612499757669866, 0.7465000089723617, 0.7502000080421567, 0.7649000035598874, 0.8646000060252845, 0.8652500109747052, 0.7488000264856964, 0.7487499970011413, 0.762699986808002, 0.7427000091411173, 0.744949997169897, 0.7591000176034868, 0.8145500032696873, 0.746150006307289, 0.7467499817721546, 0.7552000170107931, 0.7482000219170004, 0.7728000055067241, 0.7491500000469387, 0.7469499832950532, 0.753250002162531, 0.7507999835070223, 0.7784499903209507, 0.9235000179614872, 0.8925000147428364, 0.7928999839350581, 0.7156000065151602, 0.7641000265721232, 0.7493499724660069, 0.7616500079166144, 0.7402999908663332, 0.7650500047020614, 0.7633999921381474, 0.7517000194638968, 0.7500500068999827, 0.7358500151894987, 0.7683500007260591, 0.7627999875694513, 0.7951500010676682, 0.7592499896418303, 0.7544000109191984, 0.822000001790002, 0.7533500029239804, 0.7545500120613724, 0.7541000086348504, 0.7547500135842711, 0.7580499805044383, 0.7954000029712915, 0.7531999726779759, 0.7605999999213964, 0.7535999757237732, 0.7546499837189913, 0.762099982239306, 0.7685500022489578, 0.7684000011067837, 0.7522999949287623, 0.7402999908663332, 0.7709499914199114, 0.7693000079598278, 0.7538000063505024, 0.7513500167988241, 0.825700000859797, 0.916049990337342, 0.749099999666214, 0.7519999926444143, 0.744949997169897, 0.750300008803606, 0.7881000055931509, 0.751749990740791, 0.7531999726779759, 0.767449993873015, 0.7475499878637493, 0.7432999846059829, 0.7903999940026551, 0.748349993955344, 0.7454500009771436, 0.7454500009771436, 0.7565499981865287, 0.7353499822784215, 0.7468999829143286, 0.8202999888453633, 0.9131000260822475, 0.7092499872669578, 0.9054499678313732, 0.7632499909959733, 0.747200014302507, 0.756800000090152, 0.7420499750878662, 0.7648500031791627, 0.7432500133290887, 0.759599992306903, 0.7398999878205359, 0.7474999874830246, 0.7554999901913106, 0.7590999884996563, 0.7408499950543046, 0.7403500203508884, 0.7462499779649079, 0.7553000177722424, 0.7554999901913106, 0.7716999971307814, 0.7740000146441162, 0.7492000004276633, 0.7813999836798757, 0.7676999957766384, 0.75559999095276, 0.7778500148560852, 0.749250000808388, 0.7431999838445336, 0.7532000017818063, 0.7500500068999827, 0.7560500234831125, 0.7630500185769051, 0.7645000005140901, 0.7465500093530864, 0.7619500102009624, 0.7692499784752727, 0.758549984311685, 0.76299998909235, 0.7497500046156347, 0.7409499958157539, 0.7514999888371676, 0.8080500119831413, 0.770999991800636, 0.7538000063505024, 0.7601000252179801, 0.7377500005532056, 0.82305000978522, 0.8025499992072582, 0.7411499973386526, 0.7543000101577491, 0.7516500190831721, 0.7642999989911914, 0.8247499936260283, 0.8596500265412033, 0.8799000061117113, 0.899800012120977, 0.7835500000510365, 0.7268499757628888, 0.7562499959021807, 0.747200014302507, 0.74894999852404, 0.7519499922636896, 0.7548000139649957, 0.7521499937865883, 0.7639500254299492, 0.8131499926093966, 0.7620500109624118, 0.7506999827455729, 0.7530500006396323, 0.747050013160333, 0.7485999958589673, 0.7815999852027744, 0.7420500041916966, 0.752199994167313, 0.7493500015698373, 0.7655000081285834, 0.7562499959021807, 0.7791500247549266, 0.7671000203117728, 0.7869999972172081, 0.7465000089723617, 0.7508500129915774, 0.7665999874006957, 0.7365499914158136, 0.7482499931938946, 0.7511499861720949, 0.7408999954350293, 0.7593999907840043, 0.7614500063937157, 0.760800001444295, 0.7515000179409981, 0.7760500011499971, 0.7603999983984977, 0.965000013820827, 0.8786499965935946, 0.7521499937865883, 0.7505000103265047, 0.7516499899793416, 0.7500500068999827, 0.7488999981433153, 0.7500499777961522, 0.7645000005140901, 0.7622000121045858, 0.7822499901521951, 0.8335000020451844, 0.7491500000469387, 0.7549000147264451, 0.7418000022880733, 0.7549500151071697, 0.744949997169897, 0.7581499812658876, 0.7628000166732818, 0.9191000135615468, 0.8960000122897327, 0.7985999982338399, 0.9056499984581023, 0.7485999958589673, 0.7855500152800232, 0.7437500171363354, 0.7579000084660947, 0.7596999930683523, 0.7731500081717968, 0.7744999893475324, 0.7411999977193773, 0.7637999951839447, 0.7559499936178327, 0.7479000196326524, 0.7904499943833798, 0.75559999095276, 0.7465500093530864, 0.751749990740791, 0.7676499953959137, 0.757400004658848, 0.7802000036463141, 0.7544500112999231, 0.7708500197622925, 0.7794499979354441, 0.762399984523654, 0.7397500157821923, 0.7688500045333058, 0.7586499850731343, 0.7461000059265643, 0.7513499876949936, 0.7457500032614917, 0.7486999966204166, 0.756950001232326, 0.766699988162145, 0.7642500277142972, 0.7588500156998634, 0.7455000013578683, 0.7531500014010817, 0.8035500068217516, 0.7576500065624714, 0.7520500221289694, 0.7497499755118042, 0.7480000203941017, 0.7533000025432557, 0.762099982239306, 0.7648000027984381, 0.7910999993328005, 0.7560500234831125, 0.744799996027723, 0.7919500058051199, 0.7778499857522547, 0.8020499954000115, 0.769499980378896, 0.7677999965380877, 0.7664499862585217, 0.7650500047020614, 0.9339999814983457, 0.9022999729495496, 0.7968499849084765, 0.9136000007856637, 0.7794499979354441, 0.8046000148169696, 0.7602999976370484, 0.7630999898537993, 0.7749000214971602, 0.7766500057186931, 0.7789500232320279, 0.7758499996270984, 0.7718999986536801, 0.7617000082973391, 0.7755999977234751, 0.7706000178586692, 0.7940000214148313, 0.7619000098202378, 0.7528999994974583, 0.7735000108368695, 0.7728000055067241, 0.7891499844845384, 0.7978999929036945, 0.75634999666363, 0.7578500080853701, 0.7545999833382666, 0.767299992730841, 0.7645500008948147, 0.746300007449463, 0.7645500008948147, 0.7496000034734607, 0.7545000116806477, 0.7461000059265643, 0.7574500050395727, 0.7802500040270388, 0.7470000127796084, 0.7474000158254057, 0.7471499848179519, 0.7615500071551651, 0.7828499947208911, 0.8381999796256423, 0.7413499988615513, 0.7601000252179801, 0.7542000093962997, 0.750000006519258, 0.7625000143889338, 0.7694000087212771, 0.7616500079166144, 0.756049994379282, 0.7422000053338706, 0.7914500019978732, 0.7744499889668077, 0.7789499941281974, 0.813300022855401, 0.7726500043645501, 0.7412999984808266, 0.9085499914363027, 0.9090500243473798, 0.9158499888144433, 0.8598999993409961, 0.6431500078178942, 0.7829999958630651, 0.7596499926876277, 0.7937000191304833, 0.7674000225961208, 0.74380001751706, 0.7781500171404332, 0.7565999985672534, 0.7570500019937754, 0.7806500070728362, 0.7508499838877469, 0.7627999875694513, 0.7482499931938946, 0.7636500231456012, 0.7462000066880137, 0.748799997381866, 0.6986499938648194, 0.7598500233143568, 0.8029500022530556, 0.8095999946817756, 0.7516000187024474, 0.7418000022880733, 0.7668999896850437, 0.7676499953959137, 0.7521499937865883, 0.7520999934058636, 0.7646500016562641, 0.7707500190008432, 0.7775499834679067, 0.7621500117238611, 0.7647500024177134, 0.7559499936178327, 0.7581999816466123, 0.7371499959845096, 0.7716999971307814, 0.7706500182393938, 0.843599991640076, 0.770549988374114, 0.7644500001333654, 0.7598499942105263, 0.7499500061385334, 0.7828500238247216, 0.7539500074926764, 0.7608500018250197, 0.7494500023312867, 0.7465000089723617, 0.7407999946735799, 0.7863499922677875, 0.743650016374886, 0.7607000006828457, 0.7590500172227621, 0.757550005801022, 0.7931999862194061, 0.881300016772002, 0.9115500433836132, 0.8826499979477376, 0.9038499847520143, 0.7636999944224954, 0.7424999785143882, 0.751749990740791, 0.751449988456443, 0.7439999899361283, 0.7677999965380877, 0.7568500004708767, 0.7906499959062785, 0.7535000040661544, 0.7567499997094274, 0.7616500079166144, 0.7694500091020018, 0.7583500118926167, 0.7505500107072294, 0.756049994379282, 0.7668500184081495, 0.8239999879151583, 0.7530500006396323, 0.7470999844372272, 0.7666500168852508, 0.7485499954782426, 0.7667500176467001, 0.7488499977625906, 0.7470000127796084, 0.7546500128228217, 0.7614500063937157, 0.7859999896027148, 0.7494500023312867, 0.7679499976802617, 0.7497999758925289, 0.7867499953135848, 0.7516499899793416, 0.7574500050395727, 0.7716499967500567, 0.8011999889276922, 0.8166499901562929, 0.7555499905720353, 0.7444999937433749, 0.7646500016562641, 0.7462500070687383, 0.756049994379282, 0.7712499937042594, 0.7569000008516014, 0.776599976234138, 0.762699986808002, 0.7570000016130507, 0.7563999970443547, 0.766999990446493, 0.7712499937042594, 0.7973499887157232, 0.7761000015307218, 0.8274999854620546, 0.8744499937165529, 0.8932499622460455, 0.7690500060562044, 0.912949995836243, 0.7919000054243952, 0.752049993025139, 0.7460499764420092, 0.7598499942105263, 0.8806000114418566, 0.7415000000037253, 0.7534500036854297, 0.748349993955344, 0.7436999876517802, 0.7550499867647886, 0.7467999821528792, 0.7516500190831721, 0.7590999884996563, 0.7673999934922904, 0.7528999994974583, 0.7532000017818063, 0.7779999868944287, 0.773049978306517, 0.7750000222586095, 0.7554999901913106, 0.7612000044900924, 0.7399999885819852, 0.7580500096082687, 0.7577000069431961, 0.7496500038541853, 0.7482499931938946, 0.749099999666214, 0.7642999989911914, 0.7438500178977847, 0.753850006731227, 0.7685500022489578, 0.7651500054635108, 0.7404500211123377, 0.738000002456829, 0.76964998152107, 0.767149991588667, 0.763899995945394, 0.7861000194679946, 0.8239500166382641, 0.7897499890532345, 0.7528999994974583, 0.763599993661046, 0.6167999817989767, 0.753250002162531, 0.7519999926444143, 0.7512500160373747, 0.7436000159941614, 0.7550500158686191, 0.7889500120654702, 0.7685000018682331, 0.8647500071674585, 0.7915000023785979, 0.9352499910164624, 0.9006500185932964, 0.9125000215135515, 0.7737499836366624, 0.7436499872710556, 0.7501000072807074, 0.7003500068094581, 0.7842000050004572, 0.758249982027337, 0.7857499876990914, 0.7571000023745, 0.7679999980609864, 0.7531500014010817, 0.7444499933626503, 0.7533500029239804, 0.748349993955344, 0.7487499970011413, 0.7590999884996563, 0.7514999888371676, 0.7376499997917563, 0.7613500056322664, 0.752049993025139, 0.74894999852404, 0.7646000012755394, 0.7651000050827861, 0.8145000028889626, 0.7707499898970127, 0.7505500107072294, 0.755299988668412, 0.7539499783888459, 0.7552500173915178, 0.7688000041525811, 0.7443999929819256, 0.755899993237108, 0.760950002586469, 0.7478499901480973, 0.7587999862153083, 0.7618000090587884, 0.9175000013783574, 0.7175000209826976, 0.8013500191736966, 0.7503999804612249, 0.752349995309487, 0.745249999454245, 0.7688999758102, 0.7564499974250793, 0.742900010664016, 0.7462000066880137, 0.7550999871455133, 0.7429999823216349, 0.7741499866824597, 0.7634999928995967, 0.750300008803606, 0.7419500034302473, 0.7528499991167337, 0.7483999943360686, 0.8174999966286123, 0.9142000053543597, 0.9063999750651419, 0.694699992891401, 0.9073499822989106, 0.753700005589053, 0.805000017862767, 0.7493000011891127, 0.7530500006396323, 0.7343500037677586, 0.756049994379282, 0.7673999934922904, 0.742600008379668, 0.7440999906975776, 0.7449999975506216, 0.7556499913334846, 0.7811999821569771, 0.759599992306903, 0.7778000144753605, 0.7577000069431961, 0.7431000121869147, 0.7514500175602734, 0.7596000214107335, 0.7537999772466719, 0.7680999988224357, 0.7420500041916966, 0.7419000030495226, 0.7607000006828457, 0.7601499964948744, 0.748799997381866, 0.7409499958157539, 0.759899994591251, 0.7596499926876277, 0.7586500141769648, 0.7634999928995967, 0.7457500032614917, 0.7597500225529075, 0.7624500140082091, 0.7580000092275441, 0.7884999795351177, 0.7378999725915492, 0.7467499817721546, 0.7423999777529389, 0.7590499881189317, 0.7470000127796084],
  "Optimal Expectation Value": -14.925971031188965,
  "Optimizer durations [ms]": [17.573, 16.025, 16.741, 15.82, 16.282, 16.654, 21.311, 16.489, 17.435, 16.393, 16.515, 26.926, 31.998, 21.849, 16.566, 16.218, 25.309, 17.3, 27.199, 17.536, 16.401, 16.76, 16.151, 16.684, 16.582, 15.947, 17.052, 16.112, 16.219, 16.081, 16.638, 16.514, 16.43, 17.41, 16.233, 16.419, 20.001, 25.894, 19.282, 26.789, 33.218, 16.59, 16.786, 16.821, 16.912, 16.895, 16.385, 16.956, 16.618, 16.923, 16.73, 18.283, 16.702, 16.362, 16.799, 16.232, 16.762, 16.737, 17.382, 16.612, 16.538, 16.774, 16.733, 16.949, 16.584, 17.504, 16.846, 16.33, 16.29, 17.071, 16.499, 16.669, 16.438, 16.448, 17.242, 22.109, 16.255, 21.259, 16.33, 16.321, 19.893, 16.923, 30.667, 16.333, 16.501, 16.484, 25.271, 16.442, 16.669, 17.086, 33.787, 16.505, 23.729, 19.594, 27.557, 26.349, 16.763, 16.597, 16.633, 16.749, 16.494, 17.029, 16.4, 16.05, 16.749, 16.772, 17.701, 16.905, 16.83, 16.379, 16.425, 16.467, 16.964, 16.555, 16.696, 16.602, 16.395, 16.653, 16.587, 16.728, 18.231, 16.482, 16.558, 16.546, 16.398, 16.129, 16.392, 16.244, 16.421, 16.617, 17.419, 27.51, 17.429, 20.102, 17.076, 17.054, 16.608, 17.081, 16.534, 17.169, 16.493, 16.208, 16.704, 16.607, 16.918, 16.479, 16.747, 16.78, 18.161, 30.182, 19.615, 25.076, 20.53, 18.487, 16.866, 16.561, 17.314, 16.778, 17.568, 17.463, 16.504, 16.389, 16.313, 16.691, 16.84, 16.251, 16.872, 16.632, 16.491, 16.556, 16.541, 16.644, 16.668, 16.562, 17.424, 16.016, 16.896, 18.407, 16.517, 16.184, 16.542, 16.524, 16.601, 16.388, 16.615, 25.731, 16.63, 17.525, 23.364, 16.97, 16.339, 21.912, 16.445, 16.766, 17.47, 16.682, 16.393, 16.166, 16.528, 16.908, 16.954, 19.282, 16.929, 17.289, 17.003, 21.385, 30.344, 20.317, 26.748, 29.506, 16.514, 16.694, 16.5, 16.464, 16.547, 16.47, 17.065, 16.9, 16.333, 17.488, 25.264, 16.799, 17.493, 16.837, 17.076, 16.763, 16.908, 16.401, 16.566, 17.648, 17.1, 17.418, 18.114, 16.29, 16.504, 16.532, 16.023, 15.853, 16.428, 16.555, 16.465, 17.149, 16.668, 16.731, 16.534, 17.378, 17.215, 19.431, 24.11, 16.45, 17.557, 20.733, 16.248, 16.42, 16.422, 26.659, 16.454, 16.381, 16.857, 29.237, 20.294, 24.748, 19.76, 27.376, 21.971, 16.592, 17.041, 16.376, 16.696, 16.817, 16.853, 16.663, 16.5, 16.573, 16.529, 16.644, 16.617, 16.289, 16.759, 16.522, 16.43, 16.814, 16.609, 16.726, 21.777, 16.94, 16.619, 16.782, 16.685, 16.428, 16.876, 16.84, 16.288, 16.45, 16.617, 16.239, 16.39, 16.555, 16.572, 16.988, 29.54, 16.274, 16.209, 16.422, 17.035, 17.441, 16.913, 18.059, 16.619, 16.504, 16.456, 16.667, 16.496, 16.227, 16.489, 16.394, 16.423, 16.743, 17.044, 20.472, 19.358, 27.139, 29.123, 16.659, 17.135, 16.759, 16.55, 16.977, 16.515, 16.827, 16.736, 16.799, 17.074, 17.0, 17.739, 16.43, 17.371, 16.218, 16.631, 16.685, 16.226, 16.503, 16.177, 16.627, 17.138, 17.573, 16.665, 16.537, 16.533, 16.429, 16.467, 16.66, 16.513, 16.44, 24.84, 16.606, 16.578, 30.793, 17.559, 16.705, 16.336, 16.465, 16.555, 17.84, 17.216, 16.91, 16.597, 16.558, 17.319, 17.231, 16.442, 16.775, 16.743, 16.282, 16.189, 16.86, 21.787, 19.534, 22.671, 33.794, 16.445, 16.491, 16.512, 16.438, 16.458, 16.361, 16.478, 16.635, 16.42, 16.616, 16.156, 16.321, 17.22, 16.284, 16.973, 16.473, 16.742, 16.63, 16.417, 16.429, 16.689, 17.044, 16.426, 17.011, 16.649, 16.76, 16.533, 17.001, 16.614, 16.554, 16.289, 16.657, 16.188, 16.689, 16.692, 16.686, 16.226, 17.906, 16.928, 17.516, 16.913, 16.304, 29.653, 18.055, 16.784, 16.6, 28.539, 16.73, 16.906, 17.506, 27.869, 17.934, 25.678, 19.378, 26.914, 28.297, 17.181, 17.016, 17.009, 17.149, 16.584, 16.781, 16.677, 16.856, 16.489, 16.947, 16.9, 16.696, 17.232, 16.798, 16.625, 16.808, 16.718, 16.86, 16.918, 16.789, 16.879, 17.241, 16.826, 16.731, 17.376, 16.361, 16.825, 16.438, 16.374, 16.485, 16.953, 16.29, 16.773, 16.991, 18.953, 32.142, 16.336, 16.633, 16.345, 16.338, 16.273, 16.784, 21.384, 16.408, 16.125, 16.769, 16.705, 16.61, 16.344, 16.321, 16.397, 16.554, 16.608, 25.545, 19.666, 26.159, 29.371, 16.673, 16.203, 16.439, 16.061, 16.547, 16.693, 16.247, 16.369, 16.265, 16.53, 16.566, 17.4, 16.711, 16.341, 17.692, 16.632, 16.555, 16.48, 16.605, 16.661, 17.361, 16.928, 16.56, 16.52, 16.368, 16.512, 16.843, 16.729, 16.971, 16.247, 16.949, 20.594, 16.508, 16.585, 18.879, 29.931, 16.283, 16.767, 16.527, 16.235, 17.257, 16.59, 16.588, 21.419, 16.176, 16.411, 17.2, 16.659, 16.404, 16.349, 16.463, 16.085, 18.853, 25.427, 19.81, 31.273, 29.629, 16.786, 17.258, 17.023, 16.35, 16.685, 16.536, 17.658, 16.272, 16.316, 16.544, 16.24, 16.753, 17.101, 16.386, 16.996, 16.526, 16.765, 21.448, 16.305, 17.153, 16.532, 16.453, 17.114, 16.266, 16.326, 16.365, 16.331, 16.393, 16.541, 16.628, 16.272, 16.699, 16.791, 16.614, 19.029, 16.548, 20.946, 16.556, 17.579, 16.968, 16.581, 25.057, 16.305, 17.543, 17.46, 32.064, 16.173, 16.691, 16.737, 24.796, 18.844, 29.605, 19.104, 26.981, 20.994, 16.403, 16.23, 16.318, 16.647, 16.519, 16.623, 16.61, 17.85, 16.743, 16.683, 16.427, 16.365, 16.555, 17.29, 16.239, 16.69, 16.586, 17.067, 16.594, 16.841, 16.65, 17.065, 16.543, 16.348, 16.721, 16.313, 16.409, 16.636, 16.15, 16.683, 16.886, 16.579, 16.402, 16.954, 16.542, 21.369, 29.018, 16.455, 16.433, 16.586, 16.571, 16.201, 16.585, 16.657, 16.72, 17.24, 18.125, 16.428, 16.549, 16.295, 16.31, 16.306, 16.716, 17.043, 26.115, 19.614, 27.576, 20.002, 16.824, 17.226, 16.224, 16.565, 16.761, 16.608, 16.852, 16.257, 16.75, 16.673, 15.999, 17.082, 16.463, 16.537, 16.6, 16.591, 16.644, 17.006, 16.76, 16.974, 17.153, 16.691, 16.181, 17.429, 16.384, 16.352, 16.239, 16.239, 16.301, 16.709, 16.91, 19.981, 16.721, 16.256, 16.455, 31.928, 16.824, 16.752, 16.479, 17.269, 16.437, 16.479, 16.498, 17.186, 16.631, 16.56, 25.608, 16.85, 17.333, 16.647, 16.634, 16.629, 19.729, 26.763, 19.422, 27.301, 23.793, 16.744, 17.489, 16.641, 16.793, 16.962, 16.858, 16.951, 17.094, 16.647, 16.64, 16.833, 16.807, 17.497, 16.598, 16.594, 16.938, 16.942, 17.548, 17.325, 16.924, 16.722, 16.623, 16.613, 16.83, 16.242, 16.68, 16.236, 16.459, 16.472, 16.436, 17.471, 16.495, 16.341, 16.312, 18.201, 16.969, 18.203, 17.217, 19.249, 16.514, 16.363, 16.601, 28.676, 16.562, 16.447, 16.402, 29.158, 17.014, 16.685, 17.467, 28.094, 16.42, 23.134, 19.441, 21.982, 26.525, 14.992, 16.979, 16.546, 17.552, 16.688, 17.32, 17.393, 16.489, 16.409, 16.966, 16.155, 16.641, 16.307, 16.971, 16.364, 16.614, 15.313, 16.556, 17.344, 20.959, 16.48, 16.073, 16.736, 16.664, 16.527, 16.731, 17.034, 16.962, 16.933, 16.513, 16.893, 16.41, 16.509, 16.136, 16.61, 27.171, 19.04, 17.059, 16.966, 16.609, 16.449, 17.024, 17.338, 16.646, 16.446, 16.611, 16.275, 17.904, 23.179, 16.534, 16.465, 16.645, 17.122, 29.211, 21.659, 25.077, 20.487, 18.295, 16.402, 16.786, 16.439, 16.277, 16.758, 16.721, 17.162, 16.439, 16.643, 16.648, 17.065, 16.442, 16.365, 16.663, 16.884, 29.893, 16.728, 16.274, 16.938, 16.286, 16.733, 16.409, 16.401, 16.649, 18.043, 17.135, 16.66, 16.929, 16.605, 20.302, 16.477, 16.601, 16.778, 30.112, 18.368, 16.617, 16.379, 16.664, 16.372, 16.893, 16.824, 17.141, 16.622, 16.845, 16.34, 16.571, 17.024, 24.664, 17.151, 16.629, 17.641, 31.403, 19.992, 19.793, 29.805, 17.34, 16.783, 17.028, 16.831, 19.271, 16.327, 16.63, 16.332, 16.41, 16.648, 16.45, 16.619, 16.639, 16.752, 16.42, 16.554, 17.275, 16.704, 16.84, 16.47, 16.704, 16.509, 16.641, 16.512, 16.686, 16.402, 16.086, 16.679, 16.239, 16.421, 17.235, 16.528, 16.39, 16.319, 16.964, 16.951, 17.028, 20.806, 17.882, 16.931, 19.061, 16.683, 28.088, 16.56, 16.3, 16.656, 27.606, 16.738, 17.087, 22.702, 29.667, 17.638, 26.066, 19.711, 24.737, 27.82, 16.621, 16.926, 15.716, 17.06, 16.47, 17.334, 16.732, 17.172, 17.378, 16.507, 16.212, 16.251, 16.579, 17.433, 16.688, 16.276, 17.134, 16.827, 16.66, 16.615, 17.119, 17.643, 16.745, 16.462, 16.552, 16.496, 16.571, 16.707, 16.175, 17.676, 16.403, 16.283, 16.683, 16.793, 19.69, 27.814, 17.558, 16.871, 16.419, 16.555, 17.254, 16.475, 15.968, 16.961, 17.074, 16.338, 17.284, 16.788, 16.751, 16.228, 25.087, 16.557, 18.037, 19.442, 19.648, 23.377, 26.116, 16.362, 18.461, 16.507, 16.72, 16.323, 16.784, 17.241, 16.211, 17.074, 16.094, 16.83, 17.552, 16.725, 16.788, 16.611, 16.001, 16.559, 17.636, 16.572, 16.434, 16.395, 16.261, 16.963, 16.799, 16.543, 16.501, 16.35, 18.295, 16.794, 16.672, 20.413, 16.275, 16.605, 16.664, 17.178, 28.797, 16.379, 16.172, 16.88, 16.385],
  "Optimizer iterations": 1042,
  "Optimizer params": [0.5486589355015172, 0.9264600931839239, 0.5789023873983614, 0.9122053192351356, 0.6849400349579107, 0.6423089011618986, 0.9192709630764433, 0.5889661404057843, 0.906218807310236, 0.5910575409684995, 0.9019708242159116, 0.596043007105048, 0.5531891682782645, 0.4842846276530109, 0.5668373110186014, 0.5361131234612714, 0.521542965773148, 0.5590120068479868, 0.4731439974812321, 0.506858525592106, 0.5167395447167957, 0.5478595040664123, 0.5643025349067943, 0.944419303720985, 0.5614210316746517, 0.5802732308026164, 0.558624447191113, 0.5350153049041086, 0.5285904146621035, 0.5155848896371779, 0.50724616755624, 0.5109138499240472, 0.5122209147373762, 0.5074758075095286, 0.488378829226961, 0.419529938446484, 0.544372951172536, 0.4979155134753837, 0.5333571981598088, 0.5073146113852102, 0.46729536233113467, 0.49486897482622455, 0.5374331251322684, 0.5157042156918941, 0.46090623500663164, 0.519051777473044, 0.4952619296982045, 0.42705049730817896],
  "P": 0,
  "Problem": "IC",
  "QPU": "7000000",
  "Qubits": 12,
  "Shots": 4096,
  "Size": 12,
  "Total Algorithm duration [s]": 18.58,
  "Total Classic duration [s]": 17.77731354995747,
  "Total Quantum duration [s]": 0.802686450042529
}
