{
  "Depth": 26.5,
  "Expectation Value": -14.754279136657715,
  "Job durations [ms]": [0.7792999967932701, 0.744100019801408, 0.7640999974682927, 0.8023499976843596, 0.7644500001333654, 0.8160999859683216, 0.7769499788992107, 0.8506499871145934, 0.7842000050004572, 0.7451999990735203, 0.7804500055499375, 0.8170999935828149, 0.8595999970566481, 0.7586500141769648, 0.7803500047884881, 0.5896999937249348, 0.7860999903641641, 0.7875500014051795, 0.7678499969188124, 0.961900019319728, 0.7844500069040805, 0.7744499889668077, 1.2288999860174954, 0.9270999871660024, 0.8797000045888126, 0.9116999863181263, 0.8288999961223453, 0.8121500140987337, 0.7869499968364835, 0.7843000057619065, 0.7739000138826668, 0.7736999832559377, 0.8166499901562929, 0.7829999958630651, 0.7877000025473535, 0.8603000023867935, 0.7711999933235347, 0.763599993661046, 0.7624500140082091, 0.7663499854970723, 0.7489000272471458, 0.80825001350604, 0.7647000020369887, 0.7952000014483929, 0.7610000029671937, 0.7678999972995371, 0.8406500273849815, 0.8730500121600926, 0.8198999857995659, 0.7191500044427812, 0.7963499811012298, 0.7617000082973391, 0.755449989810586, 0.7855000148992985, 0.7692500075791031, 0.8123999868985265, 0.769499980378896, 0.8090499904938042, 0.7750499935355037, 0.753550004446879, 0.8148000051733106, 0.8027000003494322, 0.7876000017859042, 0.764049997087568, 0.8315000159200281, 0.7676999957766384, 0.7608500018250197, 0.8015499915927649, 0.7683000003453344, 0.7840500038582832, 0.8331999997608364, 0.7528499991167337, 0.7641500269528478, 0.767599995015189, 0.7472500146832317, 0.9651000145822763, 1.0702500003390014, 1.1693499982357025, 0.8722000056877732, 0.766099983593449, 0.7677499961573631, 0.7537500059697777, 0.8304999792017043, 0.7764500041957945, 0.7994500047061592, 0.7642499986104667, 0.7911499997135252, 0.7762000022921711, 0.8305499795824289, 0.7734000100754201, 0.7993999752216041, 0.7580000092275441, 0.8165499893948436, 0.7927500118967146, 0.7806500070728362, 0.7715999963693321, 0.7691500068176538, 0.8457000076305121, 0.8179500000551343, 0.7958000060170889, 0.7713000231888145, 0.7871999987401068, 0.7513500167988241, 0.8269500103779137, 0.7773000106681138, 0.7897000177763402, 0.7724000024609268, 0.8083000138867646, 0.7625999860465527, 0.7525499968323857, 0.763299991376698, 0.7860999903641641, 0.7693000079598278, 0.8160000143107027, 0.7990500016603619, 0.7886000094003975, 0.6922500033397228, 0.7593999907840043, 0.7571000023745, 0.7485000242013484, 0.7739500142633915, 0.7741999870631844, 0.8004499832168221, 0.7504499808419496, 0.7833999989088625, 0.7611500041093677, 0.7706499891355634, 0.7929500134196132, 0.7962000090628862, 0.760950002586469, 0.9240499930456281, 0.9082499891519547, 0.7482499931938946, 0.9353999921586365, 0.8434999908786267, 0.8014999912120402, 0.763299991376698, 0.7592000183649361, 0.7676499953959137, 0.7702999864704907, 0.7956000044941902, 0.7902500219643116, 0.7576499774586409, 0.8194000110961497, 0.767449993873015, 0.7879999757278711, 0.7791999960318208, 0.7775500125717372, 0.7727500051259995, 0.7613999769091606, 0.7824000203981996, 0.7974499894771725, 0.7818999874871224, 0.808850018074736, 0.8510999905411154, 0.7625000143889338, 0.8004000119399279, 0.8014000195544213, 0.7823999912943691, 0.757400004658848, 0.832499994430691, 0.7772000099066645, 0.7846000080462545, 0.7695500098634511, 0.8876999781932682, 0.738150003599003, 0.7629000174347311, 0.8143500017467886, 0.7689000049140304, 0.766099983593449, 0.7747499912511557, 0.7782000175211579, 0.7593500195071101, 0.8031500037759542, 0.758849986596033, 0.814450002508238, 0.7604499987792224, 0.7019000186119229, 0.764049997087568, 0.7563999970443547, 0.8305500086862594, 0.7858499884605408, 0.7616500079166144, 0.7528999994974583, 0.8718000026419759, 0.7571500027552247, 0.7756999984849244, 0.9967500227503479, 0.7757999992463738, 0.7805500063113868, 0.7710499921813607, 0.7685500022489578, 0.773499981733039, 0.8582999871578068, 0.7932999869808555, 0.7691500068176538, 0.7684500014875084, 0.7600999961141497, 0.7742500165477395, 0.7630500185769051, 0.7986499986145645, 0.7645500008948147, 0.8552499930374324, 0.7695500098634511, 0.761799979954958, 0.7482999935746193, 0.7546499837189913, 0.8534499793313444, 0.8016999927349389, 0.7842500053811818, 0.7877000025473535, 0.769799982663244, 0.7591500179842114, 0.7681999995838851, 0.7634999928995967, 0.8272000122815371, 0.7859999896027148, 0.9661499934736639, 0.8064499997999519, 0.7626500155311078, 0.7574500050395727, 0.7880000048317015, 0.773499981733039, 0.8240000170189887, 0.7992000028025359, 0.7756500272080302, 0.7675499946344644, 0.7647000020369887, 0.8039000094868243, 0.8090499904938042, 0.756950001232326, 0.8001000096555799, 0.7739000138826668, 0.7610499742440879, 0.7552500173915178, 0.7739000138826668, 0.7750499935355037, 0.8398499921895564, 0.8633499965071678, 0.929499976336956, 0.8493500063195825, 0.9651000145822763, 0.8673500269651413, 0.7976500201039016, 0.7906000246293843, 0.9001500147860497, 0.7824999920558184, 0.7528999994974583, 0.7665000157430768, 0.7576000061817467, 0.8647000067867339, 0.766699988162145, 0.7916000031400472, 0.7694500091020018, 0.757550005801022, 0.759749993449077, 0.7969000143930316, 0.7580500096082687, 0.7967499841470271, 0.7663000142201781, 0.7811499817762524, 0.9083499608095735, 0.7617000082973391, 0.7670499908272177, 0.7589000160805881, 0.7507999835070223, 0.7986999989952892, 0.7741499866824597, 0.7993500039447099, 0.7609000022057444, 0.7819999882485718, 0.7752000237815082, 0.7757499988656491, 0.7765000045765191, 0.8138499979395419, 0.7773999823257327, 0.8563500305172056, 0.7762500026728958, 0.7862000202294439, 0.7862999918870628, 0.8487500017508864, 0.7645000005140901, 0.7783999899402261, 0.7633000204805285, 0.7860500190872699, 0.7795499986968935, 0.7438999891746789, 0.7573500042781234, 0.8030000026337802, 0.7464000082109123, 0.7678999972995371, 0.7635499932803214, 0.7618500094395131, 0.7593500195071101, 0.814750004792586, 0.9182000358123332, 0.9459999855607748, 0.8235500135924667, 0.7910999993328005, 0.8051000186242163, 0.766849989304319, 0.760650000302121, 0.7550499867647886, 0.7636499940417707, 0.7674500229768455, 0.7795499986968935, 0.7688000041525811, 0.7597999938298017, 0.7754999969620258, 0.8156000112649053, 0.7681499992031604, 0.7881500059738755, 0.7717999978922307, 0.7911499997135252, 0.7583000115118921, 0.7999499794095755, 0.7511500152759254, 0.7938999915495515, 0.8058499952312559, 0.7676499953959137, 0.76374999480322, 0.7649500039406121, 0.7698000117670745, 0.7463500078301877, 0.7939999923110008, 0.8560000278521329, 0.8173999958671629, 0.7725500036031008, 1.0964000248350203, 0.8309000113513321, 0.7643499993719161, 0.7630499894730747, 0.7873499998822808, 0.883800006704405, 0.8813500171527267, 0.8099499973468482, 0.7719999994151294, 0.8260500035248697, 0.7963500102050602, 0.821850000647828, 0.8070000039879233, 0.7314500107895583, 0.9470499935559928, 0.7420999754685909, 0.8594999962951988, 0.8992000366561115, 0.7725500036031008, 0.7536000048276037, 0.7536999764852226, 0.7794500270392746, 0.7723000016994774, 0.9522000036668032, 0.7855000148992985, 0.7765500049572438, 0.7502999796997756, 0.756199995521456, 0.7663500146009028, 0.8186500053852797, 0.8081999840214849, 0.7991500024218112, 0.7626000151503831, 0.8274000138044357, 0.7884499791543931, 0.7691000064369291, 0.8196000126190484, 0.8200999873224646, 0.9306499850936234, 0.7630499894730747, 0.7836000004317611, 0.7694000087212771, 0.8531000057701021, 0.8941000269260257, 0.765649980166927, 0.7591500179842114, 0.7627499871887267, 0.7833499985281378, 0.8132999937515706, 0.7592500187456608, 0.8194500114768744, 0.7867500244174153, 0.8265500073321164, 0.8052000193856657, 0.7682499999646097, 0.8078499813564122, 0.8104000007733703, 0.7735499821137637, 0.8619999862276018, 0.7786000205669552, 0.9151000122074038, 0.8046500151976943, 0.7836500008124858, 0.7840500038582832, 0.7821000181138515, 0.7699500129092485, 0.7951000006869435, 0.7858000171836466, 0.9369499748572707, 0.9052500245161355, 0.847149989567697, 0.7696000102441758, 0.8679999737069011, 0.7905999955255538, 0.8368499984499067, 0.7767500064801425, 0.7679999980609864, 0.880700012203306, 0.7691500068176538, 0.8500500116497278, 0.7761000015307218, 0.7982499955687672, 0.7735500112175941, 0.7832000264897943, 0.7541499799117446, 0.7855499861761928, 0.7718999986536801, 0.8048499876167625, 0.7940999930724502, 0.8510999905411154, 0.7773000106681138, 0.7728000055067241, 0.7709000201430172, 0.7618000090587884, 0.819350010715425, 0.7832499977666885, 0.821850000647828, 0.7579999801237136, 0.7641499978490174, 0.7696500106249005, 0.7681000279262662, 0.756199995521456, 0.7815999852027744, 0.7640999974682927, 0.8072000055108219, 0.7840500038582832, 0.7719499990344048, 0.760800001444295, 0.7964500109665096, 0.850699987495318, 0.824349990580231, 0.7897500181570649, 0.7615500071551651, 0.7822999905329198, 0.8043999841902405, 0.7763000030536205, 0.7924500096123666, 0.7833499985281378, 0.8072000055108219, 0.740700023015961, 0.7886999810580164, 0.766399985877797, 0.763899995945394, 0.7905499951448292, 0.970599998254329, 0.9076999849639833, 0.7862999918870628, 0.9857500263024122, 0.7226500019896775, 0.8428999863099307, 0.7865499937906861, 0.7852999842725694, 0.76374999480322, 0.7548000139649957, 0.7724500028416514, 0.7727500051259995, 0.8206499915104359, 0.7584999839309603, 0.7930500141810626, 0.7654000073671341, 0.748349993955344, 0.7966999837663025, 0.7893500151112676, 0.7520500221289694, 0.8128999907057732, 0.7743499882053584, 0.8492000051774085, 0.7817000150680542, 0.7725000032223761, 0.7622000121045858, 0.7661999843548983, 0.8250000246334821, 0.7862999918870628, 0.7967000128701329, 0.763449992518872, 0.770249986089766, 0.7760000007692724, 0.8003500115592033, 0.7770500087644905, 0.9016500262077898, 0.751749990740791, 0.7760500011499971, 0.7695000094827265, 0.7978500216268003, 0.7920499774627388, 0.7527499983552843, 0.8583000162616372, 0.7661000126972795, 0.8117499819491059, 0.7928999839350581, 0.7569499721284956, 0.7984499970916659, 0.7620499818585813, 0.7796499994583428, 0.7628500170540065, 0.835299986647442, 0.7725000032223761, 0.7678499969188124, 0.9331500041298568, 0.9476000268477947, 0.9055000264197588, 0.745400000596419, 0.7715499959886074, 0.756199995521456, 0.7992000028025359, 0.7688500045333058, 0.8072500058915466, 0.7793999975547194, 0.9378999820910394, 0.7639999967068434, 0.7868999964557588, 0.7964000105857849, 0.7617000082973391, 0.7661500130780041, 0.8396000193897635, 0.7907499966677278, 0.8241499890573323, 0.7467499817721546, 0.7571500027552247, 0.7364499906543642, 0.7579500088468194, 0.6594999867957085, 0.7801500032655895, 0.7535999757237732, 0.7629500178154558, 0.895200006198138, 0.7733500096946955, 0.7592499896418303, 0.7733999809715897, 0.8083500142674893, 0.7583000115118921, 0.8154499810189009, 0.7976500201039016, 0.7633999921381474, 0.7820999890100211, 0.8142000006046146, 0.7781499880366027, 0.9457000414840877, 1.1819000355899334, 0.8550000202376395, 0.7775999838486314, 0.7752499950584024, 0.7475999882444739, 0.7931499858386815, 0.7685500022489578, 0.7978999929036945, 0.7628000166732818, 0.7686500030104071, 0.7689000049140304, 0.7789499941281974, 0.7942999945953488, 0.7801500032655895, 0.770099984947592, 0.9563500061631203, 0.896250014193356, 0.7040000054985285, 0.9024499740917236, 0.7643499993719161, 0.8008000149857253, 0.7879500044509768, 0.7833999989088625, 0.7612500048708171, 0.7590500172227621, 0.7912500004749745, 0.7633999921381474, 0.8553999941796064, 0.7608500018250197, 0.8092999923974276, 0.7812000112608075, 0.7740499859210104, 0.7637999951839447, 0.7633499917574227, 0.7584000122733414, 0.7766500057186931, 0.7649000035598874, 0.7831499970052391, 0.758249982027337, 0.808850018074736, 0.7854499854147434, 0.7816499855834991, 0.7839000027161092, 0.7629499887116253, 0.7940999930724502, 0.7884500082582235, 0.763299991376698, 0.7647500024177134, 0.7547999848611653, 0.7559999939985573, 0.8090499904938042, 0.7551999879069626, 0.7937999907881021, 0.7724000024609268, 0.7660000119358301, 0.7685000018682331, 0.910999980987981, 0.9497000137344003, 0.7887500105425715, 0.8674999990034848, 0.749250000808388, 0.8186500053852797, 0.7639499963261187, 0.7553999894298613, 0.774399988586083, 0.7562500250060111, 0.7689000049140304, 0.7754999969620258, 0.7881499768700451, 0.7837000011932105, 0.7784499903209507, 0.8038000087253749, 0.913099996978417, 0.7436000159941614, 0.9095500281546265, 0.9102999756578356, 0.7549499860033393, 0.7567499997094274, 0.7614000060129911, 0.7797500002197921, 0.7441500201821327, 0.7776500133331865, 0.7518499915022403, 0.7857499876990914, 0.8137999975588173, 0.7845500076655298, 0.7677499961573631, 0.8145000028889626, 0.7800000021234155, 0.759599992306903, 0.7824999920558184, 0.9127500234171748, 0.7940999930724502, 0.7832999981474131, 0.7800000021234155, 0.7705500174779445, 0.7922999793663621, 0.7829999958630651, 0.7786499918438494, 0.7650500047020614, 0.8206000202335417, 0.7882500067353249, 0.7689000049140304, 0.7916000031400472, 0.767149991588667, 0.7623000128660351, 0.7516499899793416, 0.7963500102050602, 0.7518000202253461, 0.7825999928172678, 0.7782000175211579, 0.7741500157862902, 0.8535499800927937, 0.8617000130470842, 0.7840000034775585, 0.8163999882526696, 0.7590000168420374, 0.7992000028025359, 0.7793500262778252, 0.7648000027984381, 0.7598499942105263, 0.7396999862976372, 0.770099984947592, 0.7070499996189028, 0.756950001232326, 0.8011999889276922, 0.8023999980650842, 0.8479999960400164, 0.8022499969229102, 0.7122000097297132, 0.7979499932844192, 0.7747000199742615, 0.763599993661046, 0.770849990658462, 0.7694500091020018, 0.7598499942105263, 0.7941999938338995, 0.7903499936219305, 0.8512500207871199, 0.7701000140514225, 0.7722500013187528, 0.7801000028848648, 0.7918999763205647, 0.7890500128269196, 0.7858999888412654, 0.7597999938298017, 0.8302000060211867, 0.7966000121086836, 0.8081499836407602, 0.7802500040270388, 0.7667000172659755, 0.7698500121477991, 0.8005000127013773, 0.7899999909568578, 0.7137499924283475, 0.7581000099889934, 0.7889999833423644, 0.766099983593449, 0.8037000079639256, 0.7698500121477991, 0.8053499914240092, 0.8065000001806766, 0.7665999874006957, 0.7768000068608671, 0.7852499838918447, 0.8532500069122761, 0.7888500113040209, 0.7832499977666885, 0.8239999879151583, 0.758699985453859, 0.6159500044304878, 0.7800000021234155, 0.7851500122342259, 0.7900499913375825, 0.7719499990344048, 0.7718999986536801, 0.7740500150248408, 0.756950001232326, 0.7704499876126647, 0.8114000083878636, 0.9656500187702477, 0.7175499922595918, 0.7355500129051507, 0.8407499990426004, 0.751449988456443, 0.773799984017387, 0.744949997169897, 0.7549500151071697, 0.8389499853365123, 0.7871000270824879, 0.7772000099066645, 0.7728000055067241, 0.7447499956469983, 0.7581000099889934, 0.8120500133372843, 0.7613999769091606, 0.7886000094003975, 0.7715999963693321, 0.7786500209476799, 0.9074500121641904, 0.7827999943401664, 0.7560999947600067, 0.7957000052556396, 0.7710500212851912, 0.8078500104602426, 0.7807500078342855, 0.7798000006005168, 0.7793999975547194, 0.765799981309101, 0.7729000062681735, 0.8167499909177423, 0.7808499794919044, 0.7580000092275441, 1.02369996602647, 0.913399999262765, 0.8545499877072871, 0.819050008431077, 0.845799979288131, 0.7652999775018543, 0.8471500186715275, 0.7615499780513346, 0.7969000143930316, 0.797900022007525, 0.7842000050004572, 0.7719999994151294, 0.7820999890100211, 0.7702999864704907, 0.7786499918438494, 0.7773999823257327, 0.7967500132508576, 0.7831999973859638, 0.74155000038445, 0.9450500074308366, 0.9178000036627054, 0.9032500092871487, 0.7907499966677278, 0.7737000123597682, 0.7659999828319997, 0.7599499949719757, 0.7595499919261783, 0.7707499898970127, 0.7677999965380877, 0.7984999974723905, 0.770099984947592, 0.8262000046670437, 0.7627499871887267, 0.924749969271943, 0.7800499734003097, 0.7658000104129314, 0.7817000150680542, 0.8006499847397208, 0.767449993873015, 0.7587500149384141, 0.8629500225652009, 0.822750007500872, 0.8138999983202666, 0.7665000157430768, 0.7840000034775585, 0.7681999995838851, 0.683299993397668, 0.7788000220898539, 0.7724500028416514, 0.7804500055499375, 0.7838000019546598, 0.808100012363866, 0.7702000148128718, 0.7650500047020614, 0.7662000134587288, 0.754150009015575, 0.8147499756887555, 0.74819999281317, 0.8092999923974276, 0.7677999965380877, 0.891350005986169, 0.7577499782200903, 0.762699986808002, 0.7647000020369887, 0.7480999920517206, 0.7724000024609268, 0.7812499825377017, 0.7665999874006957, 0.7755999977234751, 0.7822999905329198, 0.772599974879995, 0.7695499807596207, 0.750000006519258, 0.9721499809529632, 0.8777999901212752, 0.8015999919734895, 0.9236999903805554, 0.7551500166300684, 0.8026499999687076, 0.7661499839741737, 0.7880000048317015, 0.756800000090152, 0.7627999875694513, 0.7616500079166144, 0.7894500158727169, 0.7754999969620258, 0.7840500038582832, 0.7732000085525215, 0.8415000047534704, 0.7743000169284642, 0.7832499977666885, 0.8592500234954059, 0.7538999780081213, 0.7459000044036657, 0.7693000079598278, 0.7953000022098422, 0.7631999906152487, 0.757400004658848, 0.7520500221289694, 0.7916000031400472, 0.7682499999646097, 0.8181499724742025, 0.7502000080421567, 0.7479499909095466, 0.7554500189144164, 0.7717999978922307, 0.7713999948464334, 0.7656500092707574, 0.8316999883390963, 0.7631000189576298, 0.7998000073712319, 0.760499999159947, 0.7859499892219901, 0.8911500044632703, 0.8695999858900905, 0.7983499963302165, 0.7721000001765788, 0.7915000023785979, 0.7704500167164952, 0.7730000070296228, 0.825549999717623, 0.7684500014875084, 0.758849986596033, 0.7972499879542738, 0.7720499997958541, 0.7912000000942498, 0.7614500063937157, 0.8694000134710222, 0.9165499650407583, 0.8953000069595873, 0.9544999629724771, 0.8631999953649938, 0.7698000117670745, 0.7504499808419496, 0.75484998524189, 0.7652000058442354, 0.7749999931547791, 0.8403999963775277, 0.7794999983161688, 0.825249997433275, 0.7743499882053584, 0.761799979954958, 0.7715999963693321, 0.7667999889235944, 0.7816499855834991, 0.7937000191304833, 0.7796999998390675, 0.7881500059738755, 0.760950002586469, 0.7458000036422163, 0.7285999890882522, 0.758249982027337, 0.818750006146729, 0.7615000067744404, 0.7932500157039613, 0.7753000245429575, 0.770099984947592, 0.7590500172227621, 0.7827499939594418, 0.7580500096082687, 0.7872999995015562, 0.7590499881189317, 0.8219999726861715, 0.7827499939594418, 0.7709500205237418, 0.7643999997526407, 0.7736999832559377, 0.7718999986536801, 0.8411000017076731, 0.8438499935436994, 0.7437999884132296, 0.7601499964948744, 0.7612000044900924, 0.7753499958198518, 0.7732499798294157, 0.7945999968796968, 0.7655500085093081, 0.7946999976411462, 0.7719499990344048, 0.7640999974682927, 0.7441500201821327, 0.759299990022555, 0.7511500152759254, 0.8019499946385622, 0.9370000043418258, 0.9178999753203243, 0.9151500125881284, 0.8725500374566764, 0.7771000091452152, 0.7549499860033393, 0.7688000041525811, 0.8556499960832298, 0.829249998787418, 0.7990500016603619, 0.767299992730841, 0.7646000012755394, 0.7643499993719161, 0.7917500042822212, 0.7739000138826668, 0.7918000046629459, 0.7804999768268317, 0.9025500039570034, 0.7587999862153083, 0.7661499839741737, 0.7890499837230891, 0.7991499733179808, 0.8292999991681427, 0.9024000028148293, 0.7908999978099018, 0.8595999970566481, 0.7752000237815082, 0.7657499809283763, 0.8162000158336014, 0.7598000229336321, 0.7861999911256135, 0.797900022007525, 0.7715999963693321, 0.7655000081285834, 0.7839500030968338, 0.7864499930292368, 0.7902500219643116, 0.6743999838363379, 0.742000003810972, 0.7870500267017633, 0.7714999956078827, 0.7493499724660069, 0.7616000075358897, 0.8036000072024763, 0.8867500000633299, 0.7879000040702522, 0.7695000094827265, 0.7884500082582235, 0.7786499918438494, 0.7728000055067241, 0.7917000039014965, 0.8005500130821019, 0.7667499885428697, 0.7645000005140901, 0.7813499832991511, 0.8991999784484506, 0.8091999916359782, 0.9474499966017902, 0.7764000038150698, 0.7621500117238611, 0.7589499873574823, 0.8425000123679638, 0.7685500022489578, 0.7876500021666288, 0.7643499993719161, 0.8128499903250486, 0.7580000092275441, 0.7651000050827861, 0.753850006731227, 0.7798500009812415, 0.7630000181961805, 0.7951500010676682, 0.821699999505654, 0.7858000171836466, 0.7796999998390675, 0.7654499786440283, 0.7913000008556992, 0.7685500022489578, 0.7615999784320593, 0.7791499956510961, 0.7613500056322664, 0.7505500107072294, 0.7966500124894083, 0.7712999940849841, 0.7996999775059521, 0.7728500058874488, 0.7684500014875084, 0.766249984735623, 0.7972000166773796, 0.9080500167328864, 0.7769500080030411, 0.7637999951839447, 0.7905000238679349, 0.7834500283934176, 0.9773499914444983, 0.8472000190522522, 0.8495500078424811, 0.7831999973859638, 0.7585999846924096],
  "Optimal Expectation Value": -14.925971031188965,
  "Optimizer durations [ms]": [17.215, 16.142, 16.186, 17.342, 16.644, 17.462, 16.908, 18.378, 19.442, 16.42, 20.577, 17.581, 18.084, 18.2, 16.543, 27.332, 16.797, 17.274, 16.559, 32.317, 17.608, 18.008, 28.708, 25.818, 27.409, 25.22, 19.789, 17.484, 17.006, 16.975, 16.828, 16.653, 17.891, 18.225, 17.052, 18.438, 16.771, 16.552, 16.608, 16.411, 16.349, 17.573, 16.54, 17.245, 16.347, 16.442, 18.054, 28.667, 18.793, 30.175, 21.632, 20.857, 16.764, 17.04, 16.627, 18.53, 16.712, 17.7, 17.033, 16.529, 18.098, 29.025, 17.252, 16.934, 18.095, 17.896, 16.581, 17.383, 16.812, 17.003, 17.98, 17.528, 18.385, 17.077, 16.451, 31.954, 23.476, 35.332, 31.14, 16.635, 16.731, 16.637, 18.284, 17.204, 17.486, 16.759, 16.874, 16.931, 18.356, 17.033, 17.489, 16.524, 18.122, 16.944, 16.994, 17.046, 17.04, 20.805, 17.93, 17.681, 16.958, 17.193, 16.716, 17.787, 17.184, 17.496, 17.46, 17.358, 16.57, 16.592, 16.787, 17.079, 16.845, 17.978, 17.569, 28.629, 15.878, 16.681, 16.85, 16.527, 17.464, 16.879, 17.569, 16.401, 16.864, 16.505, 16.802, 17.458, 17.522, 16.497, 28.843, 20.051, 30.957, 30.913, 18.689, 17.582, 16.907, 16.936, 16.571, 17.089, 17.992, 17.668, 16.562, 17.966, 16.635, 17.36, 16.788, 17.297, 16.701, 16.685, 17.004, 17.451, 17.18, 18.96, 18.189, 16.786, 17.686, 17.481, 17.103, 16.953, 23.332, 17.806, 17.102, 16.653, 19.277, 18.116, 16.966, 18.005, 16.876, 16.729, 18.393, 16.971, 21.061, 17.447, 16.255, 17.587, 16.865, 32.25, 16.57, 16.554, 17.841, 25.581, 16.274, 16.597, 25.221, 30.557, 23.875, 29.998, 17.204, 17.162, 16.68, 16.899, 16.825, 18.554, 18.987, 16.821, 16.881, 16.82, 17.012, 16.415, 17.575, 16.563, 18.746, 16.806, 16.86, 15.997, 16.271, 19.029, 17.359, 17.219, 17.522, 16.761, 16.706, 16.783, 27.218, 18.042, 17.276, 20.921, 17.681, 16.871, 16.648, 17.442, 16.682, 18.2, 35.578, 16.973, 16.867, 16.622, 17.472, 20.208, 16.604, 17.265, 16.797, 16.775, 16.41, 16.857, 16.811, 18.234, 28.363, 21.153, 29.92, 21.899, 21.124, 17.624, 17.761, 19.688, 17.727, 16.421, 17.003, 16.747, 18.957, 17.078, 17.166, 16.819, 16.753, 16.695, 17.238, 16.878, 17.415, 16.994, 16.827, 20.003, 16.885, 16.78, 16.471, 16.178, 17.561, 17.102, 17.746, 16.792, 17.15, 16.74, 17.042, 16.942, 17.343, 17.19, 18.848, 17.679, 17.449, 27.509, 18.573, 16.805, 17.196, 16.649, 17.264, 17.116, 17.808, 16.744, 18.025, 16.547, 16.827, 16.432, 16.77, 16.673, 31.263, 23.686, 31.815, 27.289, 19.028, 17.701, 16.998, 16.864, 16.32, 16.554, 16.947, 16.779, 16.822, 16.368, 17.088, 17.44, 16.738, 17.34, 18.523, 17.1, 16.614, 17.568, 20.105, 17.303, 20.904, 18.104, 16.546, 16.57, 17.105, 16.422, 17.274, 28.726, 29.511, 27.168, 29.479, 24.514, 20.566, 32.273, 31.602, 23.038, 25.399, 28.552, 20.33, 17.882, 17.254, 28.807, 17.552, 19.655, 30.38, 29.354, 22.508, 26.141, 16.782, 16.948, 17.873, 17.717, 19.097, 20.872, 17.372, 16.818, 16.267, 16.524, 16.71, 17.717, 17.575, 17.442, 16.552, 17.916, 17.282, 16.994, 17.941, 18.012, 21.101, 16.81, 17.038, 16.778, 18.735, 19.421, 16.805, 16.838, 16.81, 16.855, 17.919, 16.765, 17.794, 16.88, 18.012, 17.36, 34.723, 19.423, 17.539, 16.883, 19.012, 20.0, 20.171, 17.381, 16.882, 16.935, 17.148, 16.92, 17.088, 17.203, 29.958, 19.725, 19.97, 24.141, 19.225, 16.854, 18.368, 16.759, 16.741, 19.44, 16.837, 19.723, 16.849, 17.035, 17.109, 17.204, 16.525, 17.029, 16.931, 17.534, 17.42, 18.708, 19.722, 17.387, 17.118, 16.503, 23.708, 17.088, 17.746, 22.609, 16.81, 16.582, 16.904, 16.823, 17.315, 17.012, 17.896, 16.757, 16.581, 16.422, 17.666, 27.466, 18.026, 17.267, 16.614, 17.11, 17.521, 17.301, 17.011, 16.974, 17.618, 16.104, 17.367, 16.616, 16.657, 17.564, 21.942, 20.002, 29.706, 29.463, 16.112, 18.389, 17.975, 18.477, 16.88, 17.47, 16.784, 16.864, 17.683, 16.642, 16.974, 16.801, 16.59, 17.274, 17.314, 16.686, 17.644, 20.796, 18.544, 17.017, 16.885, 16.593, 27.274, 17.98, 17.331, 17.396, 16.79, 16.943, 16.755, 17.211, 16.868, 19.728, 18.251, 23.446, 16.593, 17.706, 17.132, 16.428, 19.556, 16.717, 17.666, 17.555, 16.536, 27.322, 16.655, 17.202, 16.462, 24.688, 16.722, 16.889, 27.191, 36.14, 20.303, 23.108, 16.731, 16.598, 17.332, 16.726, 17.445, 17.078, 20.323, 16.619, 17.032, 17.491, 16.564, 16.625, 18.1, 17.278, 17.864, 17.409, 16.563, 16.807, 17.574, 14.577, 17.212, 17.865, 18.253, 19.53, 16.693, 16.774, 20.636, 18.038, 16.706, 17.708, 17.476, 16.591, 17.021, 17.711, 16.929, 20.062, 25.925, 26.116, 16.755, 16.878, 16.361, 17.415, 16.806, 17.509, 16.901, 17.064, 16.885, 16.94, 17.352, 17.042, 16.864, 28.025, 19.438, 22.033, 21.767, 20.06, 17.521, 17.166, 17.047, 16.62, 16.497, 17.372, 16.845, 18.498, 16.825, 17.577, 17.086, 16.695, 16.734, 17.084, 16.683, 17.295, 20.378, 16.965, 16.45, 17.926, 17.184, 16.863, 16.944, 16.882, 24.26, 16.887, 16.688, 16.813, 16.595, 16.574, 17.397, 16.799, 17.227, 16.94, 16.603, 16.428, 19.626, 28.178, 16.886, 19.071, 16.493, 17.688, 16.334, 16.751, 16.553, 17.088, 16.989, 17.159, 17.107, 17.253, 16.766, 19.673, 20.758, 20.98, 24.303, 20.228, 16.883, 18.064, 16.843, 16.708, 16.454, 16.923, 16.542, 16.805, 17.782, 17.124, 16.765, 17.561, 17.043, 16.839, 17.248, 32.939, 17.396, 17.013, 16.999, 16.863, 17.149, 16.872, 16.932, 16.685, 18.613, 19.371, 16.567, 17.24, 16.657, 16.865, 16.392, 17.388, 16.321, 17.211, 16.989, 16.723, 18.253, 18.96, 25.24, 18.028, 17.45, 19.243, 16.897, 26.161, 16.652, 17.192, 16.868, 27.248, 16.47, 17.801, 32.117, 28.612, 28.664, 30.509, 17.378, 17.067, 16.59, 16.854, 16.839, 16.541, 17.268, 17.055, 18.313, 17.05, 16.527, 16.879, 17.002, 17.046, 17.35, 16.815, 18.124, 17.343, 17.409, 16.936, 16.958, 16.759, 17.314, 27.235, 32.828, 16.613, 17.413, 16.893, 17.285, 17.074, 17.766, 17.424, 16.835, 16.955, 17.343, 33.019, 17.086, 17.221, 17.913, 16.815, 14.041, 16.903, 17.087, 17.285, 16.83, 17.183, 18.344, 16.724, 16.987, 17.485, 21.892, 20.788, 21.189, 33.732, 17.64, 16.874, 16.813, 16.851, 18.612, 17.074, 16.752, 17.174, 16.131, 16.488, 17.746, 17.315, 17.082, 16.96, 16.716, 19.874, 17.233, 16.649, 17.312, 16.641, 17.722, 16.946, 16.896, 16.881, 16.454, 16.841, 17.607, 27.37, 16.598, 21.801, 45.872, 25.288, 28.572, 18.276, 29.797, 18.298, 16.502, 17.545, 17.2, 17.052, 17.017, 16.805, 16.761, 17.036, 17.262, 17.216, 16.752, 16.073, 31.713, 19.835, 25.44, 30.282, 16.998, 16.709, 16.503, 16.693, 16.701, 16.854, 17.038, 16.797, 18.013, 17.006, 20.222, 16.914, 16.742, 16.97, 17.52, 17.369, 16.622, 18.598, 23.867, 17.631, 16.726, 17.383, 16.961, 27.594, 27.24, 17.047, 17.24, 17.111, 17.259, 17.076, 16.48, 17.619, 17.134, 18.191, 16.71, 17.437, 16.654, 19.257, 16.739, 17.951, 16.836, 16.127, 17.016, 25.411, 16.441, 17.027, 16.829, 27.078, 16.993, 16.717, 29.667, 32.832, 22.367, 31.62, 16.585, 17.58, 16.694, 17.162, 16.434, 16.892, 16.624, 17.48, 16.863, 17.367, 16.953, 18.21, 16.925, 17.136, 18.831, 16.736, 17.252, 17.108, 17.946, 16.542, 16.758, 16.555, 17.38, 16.685, 29.176, 17.371, 17.696, 16.392, 19.863, 16.831, 16.752, 18.142, 16.452, 17.676, 16.625, 17.334, 24.652, 21.276, 17.26, 16.639, 17.887, 16.875, 17.074, 17.723, 16.708, 16.339, 17.219, 17.091, 17.319, 16.461, 20.194, 19.907, 19.522, 32.31, 26.939, 16.94, 16.365, 16.734, 16.811, 16.691, 17.99, 17.253, 17.951, 17.038, 16.801, 17.141, 16.626, 17.127, 17.19, 17.213, 17.022, 17.513, 16.724, 22.798, 16.907, 17.937, 16.534, 17.023, 16.836, 17.051, 16.687, 17.274, 16.475, 17.042, 16.572, 18.209, 17.076, 16.909, 16.838, 16.725, 17.477, 18.07, 28.223, 16.552, 16.618, 16.443, 17.253, 16.688, 17.083, 16.787, 17.282, 17.06, 16.782, 16.515, 16.646, 16.466, 17.25, 26.118, 19.602, 27.112, 31.212, 17.036, 16.719, 16.835, 18.707, 18.471, 17.395, 16.91, 16.553, 16.664, 17.497, 17.007, 16.855, 16.99, 19.47, 16.86, 17.191, 17.292, 17.032, 18.071, 19.447, 17.259, 18.615, 26.541, 16.732, 17.88, 16.758, 17.32, 17.178, 16.813, 16.976, 19.504, 16.822, 17.228, 15.366, 16.273, 17.102, 18.823, 16.796, 20.212, 17.731, 19.434, 17.773, 16.93, 29.223, 17.071, 17.178, 17.186, 25.773, 18.65, 16.621, 32.409, 24.511, 24.402, 23.587, 16.756, 16.779, 16.473, 18.237, 17.059, 16.84, 16.542, 18.08, 16.608, 16.724, 16.553, 16.932, 16.818, 19.836, 18.094, 17.033, 16.966, 16.897, 17.267, 18.321, 17.164, 18.229, 16.521, 16.512, 17.396, 20.119, 17.288, 16.852, 17.683, 16.944, 17.529, 19.405, 17.057, 16.923, 17.064, 17.137, 20.695, 31.125, 20.616, 16.898, 16.636],
  "Optimizer iterations": 1042,
  "Optimizer params": [0.5486589355015172, 0.9264600931839239, 0.5789023873983614, 0.9122053192351356, 0.6849400349579107, 0.6423089011618986, 0.9192709630764433, 0.5889661404057843, 0.906218807310236, 0.5910575409684995, 0.9019708242159116, 0.596043007105048, 0.5531891682782645, 0.4842846276530109, 0.5668373110186014, 0.5361131234612714, 0.521542965773148, 0.5590120068479868, 0.4731439974812321, 0.506858525592106, 0.5167395447167957, 0.5478595040664123, 0.5643025349067943, 0.944419303720985, 0.5614210316746517, 0.5802732308026164, 0.558624447191113, 0.5350153049041086, 0.5285904146621035, 0.5155848896371779, 0.50724616755624, 0.5109138499240472, 0.5122209147373762, 0.5074758075095286, 0.488378829226961, 0.419529938446484, 0.544372951172536, 0.4979155134753837, 0.5333571981598088, 0.5073146113852102, 0.46729536233113467, 0.49486897482622455, 0.5374331251322684, 0.5157042156918941, 0.46090623500663164, 0.519051777473044, 0.4952619296982045, 0.42705049730817896],
  "P": 0,
  "Problem": "IC",
  "QPU": "7000000",
  "Qubits": 12,
  "Shots": 4096,
  "Size": 12,
  "Total Algorithm duration [s]": 19.376,
  "Total Classic duration [s]": 18.549076549413964,
  "Total Quantum duration [s]": 0.8269234505860368
}
