{
  "Depth": 26.5,
  "Expectation Value": -14.754279136657715,
  "Job durations [ms]": [0.7738499843981117, 0.737850001314655, 0.7367499929387122, 0.7496500038541853, 0.8874000050127506, 0.8098499965853989, 0.74894999852404, 0.8751999994274229, 0.7852500129956752, 0.7506500114686787, 0.7686000026296824, 0.7664499862585217, 0.7378000009339303, 0.7463999791070819, 0.7327999919652939, 0.750750012230128, 0.7445000228472054, 0.7441999914590269, 0.739650015020743, 0.7351500098593533, 0.7541999802924693, 0.7433000137098134, 0.7552000170107931, 0.727800012100488, 0.7428999815601856, 0.7399999885819852, 0.76224998338148, 0.7443499926012009, 0.7802500040270388, 0.9465500188525766, 0.9076999849639833, 0.7697500113863498, 0.8965499873738736, 0.7405499927699566, 0.7426999800372869, 0.7441500201821327, 0.7452999998349696, 0.7507000118494034, 0.7428500102832913, 0.7594000198878348, 0.748049991670996, 0.7502500084228814, 0.7560500234831125, 0.7581500103697181, 0.752949999878183, 0.7308000058401376, 0.7517999911215156, 0.7368999940808862, 0.752949999878183, 0.7448999967891723, 0.7342499739024788, 0.7459500047843903, 0.7447499956469983, 0.749400001950562, 0.7326000195462257, 0.753400003304705, 0.7441499910783023, 0.7390000100713223, 0.7296999974641949, 0.7446999952662736, 0.7562999962829053, 0.7516499899793416, 0.7909499981906265, 0.7883000071160495, 0.8947499736677855, 0.7718999986536801, 0.7553999894298613, 0.7469499832950532, 0.736700021661818, 0.7373999978881329, 0.6228999991435558, 0.7363499898929149, 0.7501999789383262, 0.7425500079989433, 0.7141999958548695, 0.7979999936651438, 0.7392500119749457, 0.7539500074926764, 0.9064000041689724, 0.8011000172700733, 0.7504000095650554, 0.745400000596419, 0.7418000022880733, 0.7575000054202974, 0.7474499871022999, 0.7570000016130507, 0.8045999857131392, 0.9321000252384692, 0.9137500019278377, 0.8787499973550439, 0.878200022270903, 0.7576999778393656, 0.7420500041916966, 0.744649994885549, 0.7540999795310199, 0.7348000071942806, 0.7498000049963593, 0.7432499842252582, 0.7632000197190791, 0.7459000044036657, 0.7348000071942806, 0.7522499945480376, 0.7439000182785094, 0.7630500185769051, 0.7602499972563237, 0.7479500200133771, 0.7340500014834106, 0.7384000055026263, 0.7611000037286431, 0.7240000122692436, 0.7423500064760447, 0.7411000260617584, 0.7426500087603927, 0.749550003092736, 0.749250000808388, 0.7447499956469983, 0.7492000004276633, 0.7489999989047647, 0.7749499927740544, 0.798350025434047, 0.7838000019546598, 0.8747999963816255, 0.7352499815169722, 0.7505500107072294, 0.7564499974250793, 0.7472999859601259, 0.7378000009339303, 0.801300018792972, 0.742150004953146, 0.7437499880325049, 0.7267499750014395, 0.746300007449463, 0.7658499816898257, 0.7544500112999231, 0.7460500055458397, 0.7457999745383859, 0.746600009733811, 0.7520999934058636, 0.738750008167699, 0.7596999930683523, 0.7464999798685312, 0.757550005801022, 0.7445499941240996, 0.9068999788723886, 0.926849985262379, 0.8889499877113849, 0.9038499847520143, 0.9074000117834657, 0.7568500004708767, 0.7383499760180712, 0.7462500070687383, 0.7484000234398991, 0.7442499918397516, 0.7577999786008149, 0.7475499878637493, 0.738150003599003, 0.7494500023312867, 0.7476499886251986, 0.7421000045724213, 0.7544000109191984, 0.7451999990735203, 0.7504499808419496, 0.7397499866783619, 0.7475999882444739, 0.7324999896809459, 0.7539999787695706, 0.7408999954350293, 0.7686000026296824, 0.741399999242276, 0.7425000076182187, 0.7436999876517802, 0.745400000596419, 0.7441499910783023, 0.749250000808388, 0.750600011087954, 0.7418000022880733, 0.8671999967191368, 0.828649994218722, 0.7445500232279301, 0.7484000234398991, 0.7426999800372869, 0.7370999956037849, 0.7416000007651746, 0.739350012736395, 0.7357499853242189, 0.7490499992854893, 0.739200011594221, 0.7445999945048243, 0.744649994885549, 0.7463999791070819, 0.7643999997526407, 0.7376499997917563, 0.750000006519258, 0.749099999666214, 0.7421499758493155, 0.7457500032614917, 0.7509499846491963, 0.7761500019114465, 0.7377000001724809, 0.7650000043213367, 0.7488499977625906, 0.7610000029671937, 0.8272500126622617, 0.9202000219374895, 0.9143499773927033, 0.7856499869376421, 0.9045499900821596, 0.76374999480322, 0.7382000039797276, 0.7468500116374344, 0.7361500174738467, 0.7471500139217824, 0.7440999906975776, 0.7509999850299209, 0.7489999989047647, 0.7438499887939543, 0.740250019589439, 0.7601499964948744, 0.7360499876085669, 0.752799998736009, 0.7724500028416514, 0.7472499855794013, 0.7383999763987958, 0.7342000026255846, 0.7454500009771436, 0.7357500144280493, 0.7652499771211296, 0.755449989810586, 0.7428500102832913, 0.7676499953959137, 0.751749990740791, 0.7402999908663332, 0.7335499976761639, 0.746750010875985, 0.750600011087954, 0.7525999972131103, 0.8936499943956733, 0.8874000050127506, 0.7515000179409981, 0.7437999884132296, 0.7360999879892915, 0.739950017305091, 0.7412999984808266, 0.7442999922204763, 0.7398499874398112, 0.7433999853674322, 0.7439000182785094, 0.7761000015307218, 0.7639499963261187, 0.5651499814121053, 0.8040000102482736, 0.7422499766107649, 0.7400500180665404, 0.7519499922636896, 0.7457500032614917, 0.736100017093122, 0.7379000016953796, 0.7440000190399587, 0.9452000085730106, 0.8997500117402524, 0.8129000198096037, 0.7440500194206834, 0.7554000185336918, 0.7525999972131103, 0.7368499937001616, 0.7456500025000423, 0.755449989810586, 0.7734500104561448, 0.7380500028375536, 0.8085999870672822, 0.7537500059697777, 0.7604499987792224, 0.7423500064760447, 0.7583500118926167, 0.7476999890059233, 0.7481000211555511, 0.7514500175602734, 0.7593499904032797, 0.7510500145144761, 0.7424999785143882, 0.7451499986927956, 0.740550021873787, 0.7483999943360686, 0.7747500203549862, 0.754000007873401, 0.739350012736395, 0.7367499929387122, 0.7508999842684716, 0.7377500005532056, 0.7367499929387122, 0.7941499934531748, 0.8626500202808529, 0.7471499848179519, 0.7473000150639564, 0.7418499735649675, 0.7530000002589077, 0.7450499979313463, 0.7445999945048243, 0.7452999998349696, 0.7453500002156943, 0.7426500087603927, 0.748649996239692, 0.7478000188712031, 0.7507000118494034, 0.7431499834638089, 0.7623500132467598, 0.7473999867215753, 0.7440499903168529, 0.7396000146400183, 0.7405499927699566, 0.742600008379668, 0.7398999878205359, 0.7297999982256442, 0.74230000609532, 0.7403500203508884, 0.7537500059697777, 0.9151500125881284, 0.8997500117402524, 0.7790999952703714, 0.9061000018846244, 0.7321999873965979, 0.7515000179409981, 0.7422500057145953, 0.7407500233966857, 0.7395500142592937, 0.7541999802924693, 0.7443999929819256, 0.743200012948364, 0.7507000118494034, 0.7501000072807074, 0.7484499947167933, 0.8490500040352345, 0.7424000068567693, 0.7480999920517206, 0.774099986301735, 0.745700002880767, 0.7472999859601259, 0.7504000095650554, 0.8612500096205622, 0.7772000099066645, 0.7444500224664807, 0.7314000104088336, 0.7443499926012009, 0.7393000123556703, 0.7488499977625906, 0.7328999927267432, 0.746600009733811, 0.7581500103697181, 0.7756000268273056, 0.833400001283735, 0.7653500069864094, 0.7495999743696302, 0.7457500032614917, 0.8033000049181283, 0.7382000039797276, 0.7395999855361879, 0.7367499929387122, 0.7380499737337232, 0.7399999885819852, 0.737850001314655, 0.7425500079989433, 0.7433000137098134, 0.7384000055026263, 0.7397499866783619, 0.742150004953146, 0.7404999923892319, 0.7442499918397516, 0.7846000080462545, 0.7636999944224954, 0.7390999817289412, 0.7440499903168529, 0.74230000609532, 0.7395499851554632, 0.7391500112134963, 0.8161500154528767, 0.8600499713793397, 0.8326500246766955, 0.9057499992195517, 0.7765000045765191, 0.7385500066448003, 0.7399000169243664, 0.75559999095276, 0.7389500096905977, 0.7364499906543642, 0.738150003599003, 0.7523999956902117, 0.744949997169897, 0.7407999946735799, 0.7427000091411173, 0.7443000213243067, 0.7586499850731343, 0.7588000153191388, 0.7621500117238611, 0.7546500128228217, 0.7451999990735203, 0.8046500151976943, 0.7549000147264451, 0.7395500142592937, 0.7422500057145953, 0.7462999783456326, 0.7356000132858753, 0.74819999281317, 0.7508999842684716, 0.7454500009771436, 0.7343000033870339, 0.748499995097518, 0.760049995733425, 0.7577500073239207, 0.7347000064328313, 0.7685500022489578, 0.8038500091060996, 0.7928499835543334, 0.7485999958589673, 0.7393000123556703, 0.7397499866783619, 0.7431500125676394, 0.7451999990735203, 0.7423500064760447, 0.7580500096082687, 0.83710000035353, 0.7313999813050032, 0.7594999915454537, 0.7125500123947859, 0.7430999830830842, 0.735050009097904, 0.7398500165436417, 0.7425000076182187, 0.7364499906543642, 0.7332499953918159, 0.7456000021193177, 0.7710999925620854, 0.9110499813687056, 0.9197499603033066, 0.8920000109355897, 0.8721000049263239, 0.7480500207748264, 0.7245999877341092, 0.7354999834205955, 0.7337000279221684, 0.741850002668798, 0.7388000085484236, 0.7375499990303069, 0.7691500068176538, 0.7457500032614917, 0.7382500043604523, 0.749099999666214, 0.740250019589439, 0.7375999994110316, 0.774249987443909, 0.7611000037286431, 0.7488499977625906, 0.7397999870590866, 0.7493500015698373, 0.7411999977193773, 0.7441499910783023, 0.7400999893434346, 0.740700023015961, 0.7446999952662736, 0.7484499947167933, 0.7400999893434346, 0.7514500175602734, 0.7467999821528792, 0.7509499846491963, 0.7852500129956752, 0.7702000148128718, 0.7554000185336918, 0.7518499915022403, 0.7405999931506813, 0.7377000001724809, 0.7457500032614917, 0.7638499955646694, 0.7337499991990626, 0.7378000009339303, 0.7272000075317919, 0.745099998312071, 0.7341500022448599, 0.742150004953146, 0.7478499901480973, 0.7509499846491963, 0.7437499880325049, 0.741399999242276, 0.7420499750878662, 0.7406499935314059, 0.742000003810972, 0.74380001751706, 0.745400000596419, 0.745700002880767, 0.7490499992854893, 0.7498000049963593, 0.8245499921031296, 0.9128000237978995, 0.9070499800145626, 0.8504000143148005, 0.8015999919734895, 0.7661499839741737, 0.7454500009771436, 0.7677499961573631, 0.7373999978881329, 0.7385000062640756, 0.7438499887939543, 0.7445999945048243, 0.748049991670996, 0.7377500005532056, 0.7462500070687383, 0.7397999870590866, 0.7410499965772033, 0.7597999938298017, 0.7349499792326242, 0.7695500098634511, 0.753100001020357, 0.7530000002589077, 0.80825001350604, 0.7464000082109123, 0.7649999752175063, 0.748049991670996, 0.7474000158254057, 0.7436999876517802, 0.7394499843940139, 0.7537499768659472, 0.7504499808419496, 0.7301000005099922, 0.743650016374886, 0.8884999842848629, 0.8503500139340758, 0.7506499823648483, 0.7365499914158136, 0.7294499955605716, 0.7384000055026263, 0.7501999789383262, 0.7445499941240996, 0.7464999798685312, 0.752499996451661, 0.7447499956469983, 0.7437999884132296, 0.7411000260617584, 0.7462499779649079, 0.7375999994110316, 0.760650000302121, 0.7430999830830842, 0.7824500207789242, 0.7419499743264169, 0.7560500234831125, 0.7559999939985573, 0.7434999861288816, 0.7371999963652343, 0.7449999975506216, 0.7436000159941614, 0.7377000001724809, 0.9553000272717327, 0.902150000911206, 0.7804000051692128, 0.6846499745734036, 0.7685500022489578, 0.7435999868903309, 0.7359000155702233, 0.7382000039797276, 0.7458999752998352, 0.7399499882012606, 0.7503500091843307, 0.7508499838877469, 0.742150004953146, 0.753700005589053, 0.7377500005532056, 0.7381000032182783, 0.7468999829143286, 0.7480999920517206, 0.7693000079598278, 0.7722000009380281, 0.7601499964948744, 0.7363000186160207, 0.8073000062722713, 0.7401499897241592, 0.7456500025000423, 0.7480999920517206, 0.7494500023312867, 0.738750008167699, 0.7489999989047647, 0.7584499835502356, 0.7416500011458993, 0.7459000044036657, 0.8988999761641026, 0.7892000139690936, 0.8667499932926148, 0.770999991800636, 0.7490499992854893, 0.7365999917965382, 0.7451499986927956, 0.734450004529208, 0.735800014808774, 0.752799998736009, 0.7451499986927956, 0.7490499992854893, 0.756950001232326, 0.7395499851554632, 0.742000003810972, 0.7503999804612249, 0.7210000185295939, 0.7410499965772033, 0.7548500143457204, 0.738150003599003, 0.7484500238206238, 0.7474000158254057, 0.7500999781768769, 0.750300008803606, 0.8306500094477087, 0.9082999895326793, 0.8923500427044928, 0.8932500204537064, 0.7800000021234155, 0.7635499932803214, 0.7778000144753605, 0.7567499997094274, 0.738750008167699, 0.7432500133290887, 0.7385500066448003, 0.7292000227607787, 0.7616999791935086, 0.7399999885819852, 0.7408999954350293, 0.738300004741177, 0.7396999862976372, 0.7353000110015273, 0.731200008885935, 0.7760000007692724, 0.7402999908663332, 0.7545500120613724, 0.764049997087568, 0.7428499811794609, 0.740250019589439, 0.7418000022880733, 0.7510500145144761, 0.7407999946735799, 0.7458999752998352, 0.7488999981433153, 0.7403499912470579, 0.7426500087603927, 0.7507000118494034, 0.7321500161197037, 0.8040500106289983, 0.7415000000037253, 0.7391499821096659, 0.7405999931506813, 0.7357999857049435, 0.735200010240078, 0.7443999929819256, 0.7446999952662736, 0.7366499921772629, 0.7346500060521066, 0.7386500074062496, 0.7525999972131103, 0.7428000099025667, 0.7756499981041998, 0.7412500272039324, 0.7605999999213964, 0.7470499840565026, 0.7467000104952604, 0.7412999984808266, 0.7350000087171793, 0.7343000033870339, 0.7400500180665404, 0.7374999986495823, 0.7264000014401972, 0.7595500210300088, 0.9125000215135515, 0.8981999999377877, 0.9180000342894346, 0.814600003650412, 0.7391500112134963, 0.732700020307675, 0.7499499770347029, 0.7408000237774104, 0.7401499897241592, 0.7416500011458993, 0.7472499855794013, 0.7449999975506216, 0.7701000140514225, 0.7323500176426023, 0.73640001937747, 0.7342500030063093, 0.7356499845627695, 0.7431500125676394, 0.7440999906975776, 0.750900013372302, 0.7909999985713512, 0.8568500052206218, 0.7356000132858753, 0.7643499993719161, 0.762099982239306, 0.7403499912470579, 0.7583500118926167, 0.7514000171795487, 0.7420500041916966, 0.7433999853674322, 0.7408499950543046, 0.8869499724823982, 0.8706499938853085, 0.7706000178586692, 0.7579499797429889, 0.7516999903600663, 0.7580500096082687, 0.7448000251315534, 0.7508499838877469, 0.7379000016953796, 0.7398499874398112, 0.7392500119749457, 0.7482499931938946, 0.724550016457215, 0.7448999967891723, 0.7456500025000423, 0.7332999957725406, 0.7429999823216349, 0.745700002880767, 0.7449500262737274, 0.7553499890491366, 0.7407499942928553, 0.7517000194638968, 0.7599999953527004, 0.7527500274591148, 0.739050010452047, 0.7498000049963593, 0.7514000171795487, 0.9542999905534089, 0.9088499937206507, 0.7947000267449766, 0.9174000006169081, 0.7568500004708767, 0.757550005801022, 0.7571999740321189, 0.7479999912902713, 0.7397999870590866, 0.7409500249195844, 0.7722000009380281, 0.7625999860465527, 0.7669500191695988, 0.7516499899793416, 0.7501499785576016, 0.7338499999605119, 0.7538000063505024, 0.748349993955344, 0.7368499937001616, 0.7501499785576016, 0.745099998312071, 0.7603999983984977, 0.7509999850299209, 0.7615000067744404, 0.7401500188279897, 0.73490000795573, 0.7548000139649957, 0.7444499933626503, 0.752199994167313, 0.741249998100102, 0.7406999939121306, 0.8742999925743788, 0.7593499904032797, 0.7452999998349696, 0.7406499935314059, 0.7442999922204763, 0.7741000154055655, 0.7768000068608671, 0.8680499740876257, 0.7507499831262976, 0.6937000143807381, 0.736700021661818, 0.7399999885819852, 0.7526000263169408, 0.7837000011932105, 0.7403000199701637, 0.7382499752566218, 0.7389499805867672, 0.752949999878183, 0.7722000009380281, 0.76224998338148, 0.737450027372688, 0.7542499806731939, 0.7466499810107052, 0.7499500061385334, 0.7584999839309603, 0.743950018659234, 0.7681499992031604, 0.9201000211760402, 0.8952999778557569, 0.8040999819058925, 0.6895499827805907, 0.7469999836757779, 0.7478000188712031, 0.7597999938298017, 0.7520500221289694, 0.7479499909095466, 0.7486999966204166, 0.746150006307289, 0.7768000068608671, 0.74380001751706, 0.7537499768659472, 0.759299990022555, 0.7911499997135252, 0.7367999933194369, 0.7533000025432557, 0.7697500113863498, 0.7452999998349696, 0.7460500055458397, 0.7737000123597682, 0.9047500207088888, 0.742150004953146, 0.7391500112134963, 0.7357000140473247, 0.7447000243701041, 0.7407500233966857, 0.7503999804612249, 0.8435000199824572, 0.7384999771602452, 0.8151499787345529, 0.7368999940808862, 0.7631000189576298, 0.7361999887507409, 0.7490499992854893, 0.7392500119749457, 0.7519499922636896, 0.7433499849867076, 0.7488999981433153, 0.7406999939121306, 0.741399999242276, 0.7389999809674919, 0.734750006813556, 0.7369499944616109, 0.743500015232712, 0.7509500137530267, 0.7417500019073486, 0.7365499914158136, 0.7343500037677586, 0.7806000066921115, 0.7445000228472054, 0.753850006731227, 0.7551999879069626, 0.7644500001333654, 0.7773000106681138, 0.7408999954350293, 0.9345500147901475, 0.88900001719594, 0.9277000208385289, 0.7652999775018543, 0.7472999859601259, 0.7498000049963593, 0.7362499891314656, 0.7592499896418303, 0.7425000076182187, 0.7457999745383859, 0.748649996239692, 0.7639000250492245, 0.7423999777529389, 0.745099998312071, 0.7404499920085073, 0.740550021873787, 0.7525499968323857, 0.7628000166732818, 0.7373999978881329, 0.7431999838445336, 0.7715999963693321, 0.7443500217050314, 0.7331499946303666, 0.7402499904856086, 0.7811000104993582, 0.7508500129915774, 0.7646999729331583, 0.7428499811794609, 0.744100019801408, 0.7422000053338706, 0.8595999970566481, 0.7428000099025667, 0.7484499947167933, 0.7698499830439687, 0.863549968926236, 0.7487499970011413, 0.7363500189967453, 0.7482999935746193, 0.7433999853674322, 0.740250019589439, 0.7435999868903309, 0.7377000001724809, 0.7395499851554632, 0.7360000163316727, 0.7465000089723617, 0.743650016374886, 0.7434499857481569, 0.748049991670996, 0.7484499947167933, 0.7545000116806477, 0.7403499912470579, 0.74380001751706, 0.7384000055026263, 0.7630500185769051, 0.7660500123165548, 0.7424000068567693, 0.7471999851986766, 0.7370500243268907, 0.7670500199310482, 0.9265999833587557, 0.8880499808583409, 0.9091500251088291, 0.7956000044941902, 0.7519500213675201, 0.7431500125676394, 0.7461000059265643, 0.7452999998349696, 0.743650016374886, 0.7520999934058636, 0.753400003304705, 0.7495000027120113, 0.7589000160805881, 0.752949999878183, 0.7550000154878944, 0.7499000057578087, 0.7388499798253179, 0.7514500175602734, 0.7485999958589673, 0.7550999871455133, 0.7663499854970723, 0.743650016374886, 0.7463999791070819, 0.7560000231023878, 0.7452999998349696, 0.7579000084660947, 0.7679499976802617, 0.7786999922245741, 0.7493499724660069, 0.756950001232326, 0.746300007449463, 0.7375499990303069, 0.74819999281317, 0.7371499959845096, 0.742450007237494, 0.7570000016130507, 0.7568500004708767, 0.7841500046197325, 0.8690500108059496, 0.7427000091411173, 0.6849000055808574, 0.74230000609532, 0.7486999966204166, 0.7683500007260591, 0.8108000038191676, 0.7444499933626503, 0.7359499868471175, 0.7382500043604523, 0.7624500140082091, 0.7800500025041401, 0.6929500086698681, 0.731650012312457, 0.7519999926444143, 0.7476500177290291, 0.74155000038445, 0.7502500084228814, 0.7504499808419496, 0.7673000218346715, 0.9199999913107604, 0.9069499792531133, 0.8717000018805265, 0.708149978891015, 0.7835500000510365, 0.7342000026255846, 0.7411499973386526, 0.7508000126108527, 0.7513499876949936, 0.7697000110056251, 0.7444500224664807, 0.74894999852404, 0.7914000016171485, 0.7489999989047647, 0.7479499909095466, 0.7438500178977847, 0.7624999852851033, 0.8275500149466097, 0.747899990528822, 0.7474499871022999, 0.7430499827023596, 0.770699989516288, 0.7361999887507409, 0.7487000257242471, 0.7448499964084476, 0.8031500037759542, 0.742150004953146, 0.7451999990735203, 0.7825000211596489, 0.754699984099716, 0.7837000011932105, 0.7286999898497015, 0.7909999985713512, 0.8024999988265336, 0.7605499995406717, 0.7471999851986766, 0.7462500070687383, 0.7530000002589077, 0.728400016669184, 0.7347999780904502, 0.7416500011458993, 0.7434500148519874, 0.7540500082541257, 0.7536000048276037, 0.7417500019073486, 0.7392499828711152, 0.7499500061385334, 0.7643999997526407, 0.7468000112567097, 0.744949997169897, 0.759599992306903, 0.7734500104561448, 0.7483999943360686, 0.7496999751310796, 0.747350015444681, 0.743350014090538, 0.7425499788951129, 0.7395999855361879, 0.9223499801009893, 0.90230000205338, 0.7585999846924096, 0.7751999946776778, 0.7478500192519277, 0.7572000031359494, 0.7649500039406121, 0.7411999977193773, 0.743500015232712, 0.7371999963652343, 0.7561499951407313, 0.7533000025432557, 0.746600009733811, 0.7544000109191984, 0.742750009521842, 0.745249999454245, 0.7576500065624714, 0.7325000187847763, 0.7539000071119517, 0.7443499926012009, 0.7668500184081495, 0.7624500140082091, 0.750300008803606, 0.7410500256810337, 0.7373499975074083, 0.7462000066880137, 0.7563999970443547, 0.7479999912902713, 0.752199994167313, 0.741850002668798, 0.745550001738593],
  "Optimal Expectation Value": -14.925971031188965,
  "Optimizer durations [ms]": [16.729, 16.085, 15.94, 16.011, 30.804, 17.974, 15.822, 19.051, 22.744, 17.389, 22.4, 17.354, 22.219, 16.467, 15.688, 16.397, 16.253, 15.986, 15.87, 15.867, 16.038, 16.017, 16.044, 15.892, 16.248, 15.986, 16.245, 16.069, 16.991, 21.534, 19.536, 23.826, 20.118, 17.364, 16.07, 15.908, 15.969, 16.491, 15.977, 16.499, 16.092, 16.853, 16.331, 16.295, 16.162, 15.918, 16.409, 15.916, 16.369, 16.243, 16.072, 16.17, 16.373, 16.436, 16.068, 16.362, 16.234, 16.409, 15.807, 16.354, 16.639, 16.57, 16.868, 17.25, 19.293, 16.813, 16.705, 16.154, 16.218, 16.061, 24.546, 16.172, 17.715, 16.272, 25.439, 17.36, 18.398, 16.388, 30.137, 17.724, 16.735, 16.46, 16.097, 16.366, 17.02, 16.563, 17.741, 20.249, 19.376, 27.069, 22.871, 16.595, 16.114, 16.329, 16.47, 16.016, 16.313, 16.397, 16.776, 23.463, 16.382, 16.381, 16.752, 17.081, 16.556, 16.242, 27.814, 15.946, 16.736, 16.388, 16.226, 16.282, 16.392, 16.411, 16.358, 16.31, 16.22, 16.121, 16.894, 26.737, 17.273, 18.946, 15.705, 16.245, 16.583, 16.899, 16.114, 17.441, 16.468, 16.161, 29.91, 19.556, 16.836, 16.385, 16.214, 16.203, 16.281, 16.537, 16.164, 16.489, 16.266, 16.619, 16.28, 19.479, 20.162, 27.494, 20.255, 21.226, 16.529, 16.111, 16.631, 16.091, 16.501, 16.683, 16.296, 15.983, 16.443, 21.388, 16.336, 16.609, 16.341, 16.758, 16.065, 16.227, 16.172, 16.531, 16.284, 16.822, 16.27, 16.218, 16.448, 16.296, 16.249, 16.186, 16.351, 16.485, 18.811, 30.706, 20.624, 16.061, 16.321, 16.182, 16.092, 16.265, 16.02, 16.422, 16.039, 16.319, 16.394, 16.22, 16.822, 15.972, 16.337, 16.407, 16.244, 20.165, 16.057, 16.845, 16.174, 16.542, 16.112, 16.661, 20.394, 20.014, 21.207, 22.21, 21.534, 17.243, 16.267, 16.347, 16.347, 16.208, 16.436, 16.722, 16.235, 17.339, 23.013, 16.718, 16.123, 16.516, 17.216, 16.35, 16.259, 16.09, 16.277, 16.284, 26.801, 16.651, 16.298, 16.915, 16.294, 16.471, 15.928, 16.22, 16.269, 16.429, 23.007, 19.028, 16.334, 16.054, 22.082, 24.471, 16.016, 16.241, 16.164, 27.257, 16.331, 17.079, 16.651, 24.471, 17.809, 20.581, 16.162, 16.389, 16.308, 16.159, 15.995, 16.183, 22.846, 20.07, 22.665, 26.412, 16.442, 16.468, 16.307, 16.222, 16.582, 16.885, 16.24, 17.39, 16.149, 16.676, 16.749, 20.951, 16.109, 16.116, 16.397, 24.625, 16.352, 16.223, 16.501, 16.265, 16.183, 16.863, 16.237, 16.161, 15.945, 16.259, 16.577, 16.3, 27.539, 18.9, 16.056, 16.51, 16.337, 16.716, 16.24, 16.218, 16.421, 16.438, 16.352, 16.171, 16.147, 16.599, 16.412, 16.58, 16.293, 16.261, 16.675, 20.624, 16.392, 16.186, 15.945, 16.389, 16.327, 16.768, 21.624, 19.715, 25.714, 19.377, 18.265, 16.233, 16.153, 16.33, 16.341, 16.232, 16.093, 16.382, 16.687, 16.394, 16.423, 18.086, 23.498, 16.0, 16.914, 16.14, 16.221, 16.331, 18.761, 16.874, 16.152, 16.019, 16.243, 16.302, 16.234, 16.317, 16.405, 16.46, 17.244, 33.196, 16.635, 16.739, 16.343, 17.53, 16.192, 16.109, 16.299, 16.306, 16.195, 16.335, 16.281, 16.421, 16.08, 16.245, 16.166, 16.354, 16.193, 17.014, 16.509, 16.267, 16.388, 16.124, 15.983, 16.301, 23.972, 23.526, 28.271, 19.591, 17.774, 16.799, 16.075, 16.446, 16.236, 16.059, 16.885, 16.333, 16.427, 16.425, 16.308, 16.202, 16.385, 22.705, 16.641, 16.585, 16.25, 17.736, 16.513, 16.27, 16.206, 16.311, 15.983, 16.203, 16.318, 16.29, 15.963, 16.546, 16.435, 16.441, 16.151, 16.603, 17.361, 17.137, 19.409, 15.938, 28.384, 16.16, 16.929, 16.237, 26.045, 17.924, 16.909, 16.684, 31.541, 16.874, 16.247, 16.256, 16.09, 16.097, 16.151, 16.405, 16.938, 20.999, 19.689, 29.13, 27.971, 16.218, 15.723, 16.203, 15.943, 16.093, 16.282, 16.189, 16.944, 16.158, 16.216, 16.157, 16.229, 16.003, 16.885, 16.408, 19.758, 16.035, 16.415, 16.155, 16.28, 16.376, 16.104, 16.024, 16.213, 16.035, 16.67, 16.407, 16.463, 17.012, 26.749, 16.495, 16.636, 16.371, 16.008, 16.417, 17.544, 15.993, 16.229, 15.833, 16.339, 16.331, 16.259, 16.506, 16.455, 16.222, 16.591, 16.144, 16.146, 16.163, 15.935, 16.2, 16.464, 16.095, 16.439, 18.161, 19.587, 19.578, 27.092, 26.716, 16.597, 16.187, 16.883, 16.129, 16.097, 16.286, 16.434, 16.305, 16.1, 16.123, 16.264, 16.183, 16.57, 16.167, 16.549, 16.523, 16.305, 17.376, 16.181, 21.994, 16.546, 16.406, 16.072, 16.137, 16.434, 16.294, 15.955, 16.216, 19.394, 29.88, 16.205, 15.957, 15.961, 16.369, 16.536, 16.45, 16.258, 16.38, 16.102, 16.256, 16.19, 16.31, 16.046, 16.561, 16.286, 16.717, 16.143, 16.558, 16.599, 16.253, 16.161, 16.408, 16.063, 15.931, 29.529, 19.202, 26.075, 28.421, 16.773, 16.499, 15.953, 16.162, 16.152, 16.195, 16.554, 16.569, 16.286, 16.227, 16.045, 16.226, 16.315, 16.315, 16.681, 16.854, 16.84, 15.816, 17.389, 16.266, 16.187, 16.248, 16.306, 16.272, 16.507, 16.805, 16.108, 16.201, 19.221, 17.781, 18.744, 16.755, 17.319, 16.202, 16.334, 15.912, 29.07, 16.298, 16.198, 16.469, 26.29, 16.247, 16.345, 16.29, 32.415, 16.151, 16.626, 16.5, 16.24, 16.271, 16.221, 16.338, 17.699, 24.235, 19.541, 23.076, 27.241, 16.868, 16.855, 16.471, 16.021, 16.492, 16.162, 16.069, 16.409, 16.15, 15.976, 16.003, 15.978, 16.038, 15.934, 30.156, 16.442, 16.515, 16.706, 16.179, 16.141, 16.295, 16.472, 16.036, 16.202, 16.312, 16.212, 16.409, 17.722, 28.65, 17.514, 16.04, 16.099, 15.981, 16.483, 15.75, 16.221, 16.416, 16.198, 16.512, 16.126, 16.578, 16.029, 16.559, 16.702, 16.793, 16.112, 16.257, 18.225, 16.781, 16.272, 15.989, 15.99, 16.054, 17.189, 21.663, 19.541, 28.817, 27.192, 16.236, 15.937, 16.559, 16.089, 16.109, 16.102, 16.285, 16.026, 16.933, 15.937, 16.25, 16.247, 15.943, 16.061, 16.33, 16.519, 17.016, 18.488, 16.369, 16.908, 16.568, 16.321, 16.484, 16.618, 16.21, 15.937, 16.05, 19.229, 18.808, 26.008, 16.57, 16.526, 16.667, 16.496, 16.314, 19.359, 15.993, 16.117, 16.47, 15.567, 16.322, 16.159, 16.234, 16.045, 16.262, 16.275, 16.492, 16.332, 16.405, 16.801, 16.692, 16.252, 16.471, 16.314, 30.42, 19.462, 25.528, 20.749, 16.443, 16.514, 16.411, 16.06, 16.264, 16.15, 16.712, 16.884, 16.724, 16.331, 16.534, 15.805, 16.528, 16.633, 16.386, 16.375, 16.329, 16.743, 16.349, 18.621, 15.796, 16.266, 16.503, 16.29, 16.21, 16.088, 16.181, 19.0, 16.486, 15.984, 16.375, 19.807, 16.999, 16.948, 18.831, 16.508, 22.299, 16.191, 16.091, 16.204, 17.124, 19.782, 15.995, 16.584, 16.631, 28.322, 17.09, 18.085, 16.273, 16.277, 16.407, 16.62, 16.184, 16.83, 21.029, 19.442, 27.144, 24.932, 16.239, 16.324, 16.441, 16.598, 16.365, 16.062, 16.364, 16.948, 16.31, 16.26, 16.461, 17.012, 16.023, 16.358, 22.845, 16.294, 16.44, 27.46, 19.321, 16.229, 16.256, 16.192, 16.261, 16.309, 16.589, 18.421, 16.023, 18.51, 28.47, 16.523, 15.988, 16.41, 16.152, 16.2, 16.044, 16.519, 16.341, 16.247, 16.386, 16.083, 16.331, 16.154, 16.299, 16.488, 16.162, 16.024, 16.824, 16.423, 16.265, 16.422, 16.543, 16.962, 16.306, 28.623, 23.24, 20.413, 27.302, 16.24, 16.37, 15.703, 16.882, 16.382, 16.263, 16.05, 16.426, 16.209, 16.115, 16.386, 16.229, 16.153, 17.519, 15.922, 16.25, 16.84, 16.329, 16.26, 16.431, 16.966, 17.12, 16.512, 16.413, 15.988, 16.254, 18.66, 16.231, 16.251, 26.089, 19.791, 16.337, 16.145, 16.429, 16.452, 16.238, 16.386, 15.979, 16.187, 16.18, 16.126, 16.067, 16.343, 16.488, 16.126, 16.409, 16.348, 16.5, 20.835, 16.456, 16.673, 15.829, 16.243, 16.683, 16.693, 21.263, 19.297, 21.875, 23.34, 17.354, 16.153, 16.289, 16.172, 16.299, 16.454, 16.455, 16.081, 16.684, 16.387, 16.445, 16.404, 16.327, 16.223, 16.38, 16.423, 16.804, 16.299, 16.383, 16.64, 16.355, 16.735, 17.74, 17.027, 16.382, 16.83, 16.207, 16.553, 16.262, 17.193, 15.913, 21.81, 16.418, 17.293, 18.964, 16.066, 22.023, 16.377, 16.473, 16.572, 17.578, 20.124, 16.102, 16.256, 16.627, 27.156, 15.367, 19.953, 16.522, 16.299, 16.031, 16.38, 16.688, 16.876, 20.712, 19.362, 24.815, 23.207, 16.891, 16.206, 16.235, 16.231, 16.441, 16.708, 16.412, 16.473, 17.181, 16.523, 16.169, 16.346, 16.57, 18.044, 16.843, 16.528, 16.202, 17.721, 15.925, 16.321, 16.194, 17.479, 25.594, 16.039, 17.032, 16.474, 16.984, 16.302, 23.022, 21.91, 16.699, 16.452, 16.517, 16.292, 16.102, 16.057, 16.2, 16.067, 16.356, 16.532, 16.388, 16.187, 16.288, 16.713, 16.314, 16.077, 16.572, 17.028, 16.015, 16.306, 16.21, 16.213, 16.568, 16.174, 33.212, 19.361, 20.727, 28.942, 16.252, 16.516, 16.581, 16.188, 16.367, 16.386, 16.419, 16.342, 16.015, 16.52, 16.291, 16.313, 16.388, 16.061, 16.508, 16.236, 16.645, 16.661, 16.312, 16.298, 16.642, 16.403, 16.592, 23.454, 19.719, 16.393, 16.418],
  "Optimizer iterations": 1042,
  "Optimizer params": [0.5486589355015172, 0.9264600931839239, 0.5789023873983614, 0.9122053192351356, 0.6849400349579107, 0.6423089011618986, 0.9192709630764433, 0.5889661404057843, 0.906218807310236, 0.5910575409684995, 0.9019708242159116, 0.596043007105048, 0.5531891682782645, 0.4842846276530109, 0.5668373110186014, 0.5361131234612714, 0.521542965773148, 0.5590120068479868, 0.4731439974812321, 0.506858525592106, 0.5167395447167957, 0.5478595040664123, 0.5643025349067943, 0.944419303720985, 0.5614210316746517, 0.5802732308026164, 0.558624447191113, 0.5350153049041086, 0.5285904146621035, 0.5155848896371779, 0.50724616755624, 0.5109138499240472, 0.5122209147373762, 0.5074758075095286, 0.488378829226961, 0.419529938446484, 0.544372951172536, 0.4979155134753837, 0.5333571981598088, 0.5073146113852102, 0.46729536233113467, 0.49486897482622455, 0.5374331251322684, 0.5157042156918941, 0.46090623500663164, 0.519051777473044, 0.4952619296982045, 0.42705049730817896],
  "P": 0,
  "Problem": "IC",
  "QPU": "7000000",
  "Qubits": 12,
  "Shots": 4096,
  "Size": 12,
  "Total Algorithm duration [s]": 18.183,
  "Total Classic duration [s]": 17.39017639954819,
  "Total Quantum duration [s]": 0.7928236004518112
}
