{
  "Circuit execution durations [ms]": [2.915, 2.8796, 2.8998, 2.8661, 2.8765, 2.8548, 2.8731, 2.857, 2.8767, 2.8716000000000004, 2.8708, 2.8743000000000003, 2.8863, 2.8474, 2.8822, 2.8992, 2.9716, 2.7812, 2.8336, 2.8787000000000003, 2.7973, 2.8492, 2.8427000000000002, 2.9084, 2.8529, 3.0665, 3.1088999999999998, 2.8706, 2.8909000000000002, 2.882, 2.8457, 2.8931, 2.8925, 2.871, 2.8559, 2.8327999999999998, 2.9238, 2.8984, 2.8531, 2.8727, 2.8621, 2.8928000000000003, 2.8557, 2.8246, 2.8624, 2.8379, 2.835, 2.8238, 2.8712, 2.9872, 2.9606, 2.8811, 2.8594, 2.8687, 2.8918, 2.8499, 2.8538, 2.871, 2.863, 2.8842, 2.8548, 2.8673, 2.8983, 2.8677, 2.814, 2.89, 2.8286000000000002, 2.8905, 2.833, 2.9096, 2.8674, 2.8931999999999998, 2.8939999999999997, 2.8428, 2.8849, 2.8473, 2.8742, 2.9018, 2.8114, 2.9112, 2.875, 2.8378, 2.8354, 2.9585000000000004, 3.0789, 2.9274, 2.8738, 2.8811, 2.9102, 2.8906, 2.8803, 2.9099999999999997, 2.8592999999999997, 2.9145, 2.9261, 2.9156, 2.904, 2.9473, 2.8917, 2.92, 2.8498, 2.8706, 2.8693999999999997, 2.8901, 2.8905, 2.8933999999999997, 2.8614],
  "Depth": 458.0,
  "Expectation Value": -1.9916768074035645,
  "Optimal Expectation Value": -2.0,
  "Optimizer durations [ms]": [29.807, 29.285, 29.577, 29.356, 29.261, 28.879, 29.223, 29.115, 29.343, 29.025, 29.511, 29.185, 29.553, 28.921, 29.489, 29.259, 32.946, 35.595, 29.089, 29.233, 34.478, 29.089, 28.934, 29.546, 30.19, 35.97, 32.18, 29.119, 29.589, 29.292, 29.112, 29.462, 29.535, 29.052, 29.228, 28.713, 29.737, 29.631, 28.774, 29.408, 29.151, 29.266, 28.976, 28.988, 29.163, 28.982, 28.812, 28.906, 29.129, 30.623, 39.461, 29.354, 29.47, 29.229, 29.372, 29.163, 28.757, 29.197, 29.37, 29.375, 29.141, 30.249, 29.743, 29.484, 28.6, 29.42, 28.712, 29.409, 28.776, 29.775, 29.077, 29.553, 29.44, 29.211, 29.341, 28.996, 29.2, 29.828, 28.528, 29.406, 29.436, 28.688, 28.863, 30.209, 35.911, 29.921, 29.335, 29.221, 29.548, 29.321, 29.296, 29.784, 28.984, 29.707, 29.852, 33.504, 29.804, 30.05, 29.136, 29.957, 28.854, 29.486, 29.263, 29.133, 29.437, 29.64, 29.15],
  "Optimizer iterations": 107,
  "Optimizer params": [0.18263732042499617, 0.8424174189567566, 1.0, 7.752986507662711e-23, 0.023262975030096885, 0.051013600088999994],
  "P": 3,
  "Problem": "MIS",
  "QJob durations [ms]": [2.915, 2.8796, 2.8998, 2.8661, 2.8765, 2.8548, 2.8731, 2.857, 2.8767, 2.8716000000000004, 2.8708, 2.8743000000000003, 2.8863, 2.8474, 2.8822, 2.8992, 2.9716, 2.7812, 2.8336, 2.8787000000000003, 2.7973, 2.8492, 2.8427000000000002, 2.9084, 2.8529, 3.0665, 3.1088999999999998, 2.8706, 2.8909000000000002, 2.882, 2.8457, 2.8931, 2.8925, 2.871, 2.8559, 2.8327999999999998, 2.9238, 2.8984, 2.8531, 2.8727, 2.8621, 2.8928000000000003, 2.8557, 2.8246, 2.8624, 2.8379, 2.835, 2.8238, 2.8712, 2.9872, 2.9606, 2.8811, 2.8594, 2.8687, 2.8918, 2.8499, 2.8538, 2.871, 2.863, 2.8842, 2.8548, 2.8673, 2.8983, 2.8677, 2.814, 2.89, 2.8286000000000002, 2.8905, 2.833, 2.9096, 2.8674, 2.8931999999999998, 2.8939999999999997, 2.8428, 2.8849, 2.8473, 2.8742, 2.9018, 2.8114, 2.9112, 2.875, 2.8378, 2.8354, 2.9585000000000004, 3.0789, 2.9274, 2.8738, 2.8811, 2.9102, 2.8906, 2.8803, 2.9099999999999997, 2.8592999999999997, 2.9145, 2.9261, 2.9156, 2.904, 2.9473, 2.8917, 2.92, 2.8498, 2.8706, 2.8693999999999997, 2.8901, 2.8905, 2.8933999999999997, 2.8614],
  "QPU": "7000000",
  "Qubits": 11,
  "Queue durations [ms]": [0.0, 0.0, 0.0, 0.0, 0.0, 0.0, 0.0, 0.0, 0.0, 0.0, 0.0, 0.0, 0.0, 0.0, 0.0, 0.0, 0.0, 0.0, 0.0, 0.0, 0.0, 0.0, 0.0, 0.0, 0.0, 0.0, 0.0, 0.0, 0.0, 0.0, 0.0, 0.0, 0.0, 0.0, 0.0, 0.0, 0.0, 0.0, 0.0, 0.0, 0.0, 0.0, 0.0, 0.0, 0.0, 0.0, 0.0, 0.0, 0.0, 0.0, 0.0, 0.0, 0.0, 0.0, 0.0, 0.0, 0.0, 0.0, 0.0, 0.0, 0.0, 0.0, 0.0, 0.0, 0.0, 0.0, 0.0, 0.0, 0.0, 0.0, 0.0, 0.0, 0.0, 0.0, 0.0, 0.0, 0.0, 0.0, 0.0, 0.0, 0.0, 0.0, 0.0, 0.0, 0.0, 0.0, 0.0, 0.0, 0.0, 0.0, 0.0, 0.0, 0.0, 0.0, 0.0, 0.0, 0.0, 0.0, 0.0, 0.0, 0.0, 0.0, 0.0, 0.0, 0.0, 0.0, 0.0],
  "Shots": 4096,
  "Size": 8,
  "Total Algorithm duration [s]": 3.182,
  "Total Classic duration [s]": 2.8736152,
  "Total Quantum duration [s]": 0.30838479999999996
}
