{
  "Circuit execution durations [ms]": [2.8669, 2.8717, 2.8402000000000003, 2.8236, 2.8494, 2.8687, 2.8888, 2.853, 2.8613000000000004, 2.8607, 2.8395, 2.8511, 2.8765, 2.8389, 2.854, 2.8949000000000003, 2.9034, 2.8465000000000003, 2.8726, 3.0041, 2.9034, 2.8941000000000003, 2.9076000000000004, 2.8596, 2.8611999999999997, 2.8498, 2.8665000000000003, 2.8293, 2.8822, 2.8912, 3.143, 2.8741, 2.8430999999999997, 2.8669, 2.8720999999999997, 2.8601, 2.8687, 2.8775, 2.8552999999999997, 2.8409, 2.9292, 2.8598999999999997, 2.8430999999999997, 2.9695, 2.885, 2.8663, 2.8628, 2.9066, 2.853, 2.9202999999999997, 2.8703000000000003, 2.8622, 2.8453, 3.0648, 2.992, 2.8895, 2.8701999999999996, 2.8517, 2.8409, 2.8787000000000003, 2.8776, 2.8503, 2.8682, 2.9006000000000003, 2.8453, 2.8844, 2.8265000000000002, 2.8733999999999997, 2.9299999999999997, 2.8377, 2.871, 2.8451, 2.8714, 2.8472, 2.8051, 2.8563, 2.89, 2.8855999999999997, 2.8845, 2.8789000000000002, 2.8746, 2.8931, 2.8482999999999996, 2.8311, 2.8649999999999998, 2.8609999999999998, 2.9015999999999997, 2.8963, 2.9512, 2.9211, 2.92, 2.9659999999999997, 2.7748999999999997, 2.8720999999999997, 2.7415, 2.8915, 2.9972000000000003, 2.8808000000000002, 2.8630999999999998, 2.9072999999999998, 2.8506, 2.8586, 2.8750999999999998, 2.8603, 2.8823, 2.8526, 2.8919, 2.8486000000000002, 2.9072999999999998, 2.85, 2.9221999999999997, 2.8619000000000003, 2.848, 2.8697000000000004, 2.8864, 2.8529, 2.8638, 2.8677, 2.8436, 2.8614, 2.8701, 3.0676, 3.0136, 2.8501, 2.8352999999999997, 2.8902, 2.9032, 2.8461, 2.9189, 2.8952, 2.8505000000000003, 2.936, 2.8561, 2.854, 2.8636, 2.8902, 2.8731, 2.8584, 2.8666, 2.8452, 2.8417999999999997, 2.859, 2.8295999999999997, 2.8465000000000003, 2.863],
  "Depth": 458.0,
  "Expectation Value": -1.9789525270462036,
  "Optimal Expectation Value": -2.0,
  "Optimizer durations [ms]": [29.121, 29.37, 29.149, 28.704, 28.827, 29.339, 29.504, 29.034, 28.92, 29.309, 28.72, 29.334, 29.19, 28.972, 28.905, 29.466, 29.48, 29.047, 29.375, 30.566, 38.926, 29.74, 29.637, 29.081, 28.914, 29.274, 29.052, 28.932, 29.074, 29.859, 32.1, 29.262, 28.934, 29.242, 29.06, 29.143, 29.341, 29.389, 28.913, 29.014, 29.771, 29.198, 28.783, 30.191, 29.27, 29.178, 29.119, 29.741, 28.755, 29.784, 29.38, 28.842, 29.137, 31.111, 35.161, 29.317, 29.315, 28.986, 28.86, 29.339, 29.229, 29.28, 29.194, 29.236, 29.162, 29.275, 29.034, 29.166, 29.943, 28.837, 29.145, 29.213, 29.012, 28.957, 28.635, 29.017, 29.376, 29.366, 29.425, 29.267, 29.524, 29.159, 29.307, 28.526, 29.357, 29.11, 29.311, 29.737, 29.917, 29.959, 29.745, 30.169, 36.444, 31.75, 37.555, 29.197, 30.592, 38.949, 28.943, 29.8, 29.046, 28.852, 29.444, 29.116, 29.232, 29.02, 29.448, 29.068, 29.522, 29.073, 29.668, 29.269, 29.137, 29.244, 29.097, 29.23, 29.235, 29.092, 29.07, 29.11, 29.046, 36.21, 30.73, 28.872, 28.754, 29.566, 29.277, 29.218, 29.622, 29.449, 28.856, 30.034, 29.055, 29.187, 29.179, 29.489, 29.183, 28.928, 29.593, 28.764, 28.908, 29.166, 28.813, 29.179, 29.132],
  "Optimizer iterations": 145,
  "Optimizer params": [0.9782548458452228, 0.15036463268899775, 0.6180605497325342, 0.20321671298507205, 0.574970512716593, 0.5996014267562169],
  "P": 3,
  "Problem": "MIS",
  "QJob durations [ms]": [2.8669, 2.8717, 2.8402000000000003, 2.8236, 2.8494, 2.8687, 2.8888, 2.853, 2.8613000000000004, 2.8607, 2.8395, 2.8511, 2.8765, 2.8389, 2.854, 2.8949000000000003, 2.9034, 2.8465000000000003, 2.8726, 3.0041, 2.9034, 2.8941000000000003, 2.9076000000000004, 2.8596, 2.8611999999999997, 2.8498, 2.8665000000000003, 2.8293, 2.8822, 2.8912, 3.143, 2.8741, 2.8430999999999997, 2.8669, 2.8720999999999997, 2.8601, 2.8687, 2.8775, 2.8552999999999997, 2.8409, 2.9292, 2.8598999999999997, 2.8430999999999997, 2.9695, 2.885, 2.8663, 2.8628, 2.9066, 2.853, 2.9202999999999997, 2.8703000000000003, 2.8622, 2.8453, 3.0648, 2.992, 2.8895, 2.8701999999999996, 2.8517, 2.8409, 2.8787000000000003, 2.8776, 2.8503, 2.8682, 2.9006000000000003, 2.8453, 2.8844, 2.8265000000000002, 2.8733999999999997, 2.9299999999999997, 2.8377, 2.871, 2.8451, 2.8714, 2.8472, 2.8051, 2.8563, 2.89, 2.8855999999999997, 2.8845, 2.8789000000000002, 2.8746, 2.8931, 2.8482999999999996, 2.8311, 2.8649999999999998, 2.8609999999999998, 2.9015999999999997, 2.8963, 2.9512, 2.9211, 2.92, 2.9659999999999997, 2.7748999999999997, 2.8720999999999997, 2.7415, 2.8915, 2.9972000000000003, 2.8808000000000002, 2.8630999999999998, 2.9072999999999998, 2.8506, 2.8586, 2.8750999999999998, 2.8603, 2.8823, 2.8526, 2.8919, 2.8486000000000002, 2.9072999999999998, 2.85, 2.9221999999999997, 2.8619000000000003, 2.848, 2.8697000000000004, 2.8864, 2.8529, 2.8638, 2.8677, 2.8436, 2.8614, 2.8701, 3.0676, 3.0136, 2.8501, 2.8352999999999997, 2.8902, 2.9032, 2.8461, 2.9189, 2.8952, 2.8505000000000003, 2.936, 2.8561, 2.854, 2.8636, 2.8902, 2.8731, 2.8584, 2.8666, 2.8452, 2.8417999999999997, 2.859, 2.8295999999999997, 2.8465000000000003, 2.863],
  "QPU": "7000000",
  "Qubits": 11,
  "Queue durations [ms]": [0.0, 0.0, 0.0, 0.0, 0.0, 0.0, 0.0, 0.0, 0.0, 0.0, 0.0, 0.0, 0.0, 0.0, 0.0, 0.0, 0.0, 0.0, 0.0, 0.0, 0.0, 0.0, 0.0, 0.0, 0.0, 0.0, 0.0, 0.0, 0.0, 0.0, 0.0, 0.0, 0.0, 0.0, 0.0, 0.0, 0.0, 0.0, 0.0, 0.0, 0.0, 0.0, 0.0, 0.0, 0.0, 0.0, 0.0, 0.0, 0.0, 0.0, 0.0, 0.0, 0.0, 0.0, 0.0, 0.0, 0.0, 0.0, 0.0, 0.0, 0.0, 0.0, 0.0, 0.0, 0.0, 0.0, 0.0, 0.0, 0.0, 0.0, 0.0, 0.0, 0.0, 0.0, 0.0, 0.0, 0.0, 0.0, 0.0, 0.0, 0.0, 0.0, 0.0, 0.0, 0.0, 0.0, 0.0, 0.0, 0.0, 0.0, 0.0, 0.0, 0.0, 0.0, 0.0, 0.0, 0.0, 0.0, 0.0, 0.0, 0.0, 0.0, 0.0, 0.0, 0.0, 0.0, 0.0, 0.0, 0.0, 0.0, 0.0, 0.0, 0.0, 0.0, 0.0, 0.0, 0.0, 0.0, 0.0, 0.0, 0.0, 0.0, 0.0, 0.0, 0.0, 0.0, 0.0, 0.0, 0.0, 0.0, 0.0, 0.0, 0.0, 0.0, 0.0, 0.0, 0.0, 0.0, 0.0, 0.0, 0.0, 0.0, 0.0, 0.0, 0.0],
  "Shots": 4096,
  "Size": 8,
  "Total Algorithm duration [s]": 4.297,
  "Total Classic duration [s]": 3.8797606999999994,
  "Total Quantum duration [s]": 0.4172393000000001
}
