{
  "Circuit execution durations [ms]": [2.9467999999999996, 2.9109000000000003, 2.8627000000000002, 2.8386, 2.8636999999999997, 2.8838000000000004, 2.8236, 2.8821, 2.8514, 2.8579999999999997, 2.8822, 2.8529, 2.8918, 2.9064, 3.1313, 3.2407999999999997, 2.8263, 2.8859, 2.8890000000000002, 2.8757, 2.8512, 2.9018, 2.9139, 2.8438, 2.8847, 2.8898, 2.8592999999999997, 2.8762000000000003, 2.8447, 2.8594, 2.9137, 2.9099999999999997, 2.8888, 2.8415, 2.8703000000000003, 2.8462, 2.9033, 2.8397, 2.8531, 2.8594, 2.8746, 2.8584, 2.9108, 2.8501, 2.8236, 2.8604, 2.8519, 2.8873, 3.33, 2.8559, 2.8613000000000004, 2.9026, 2.8562000000000003, 2.8935, 2.843, 2.837, 2.8196, 2.878, 2.8489999999999998, 2.8747, 2.8326, 2.8254, 2.8392, 2.8629, 2.8367, 2.8746, 2.8538, 2.8417999999999997, 2.8798, 2.8384, 2.8687, 2.8576, 2.8897, 2.8688, 2.8718, 2.8503, 2.8279, 2.8264, 2.8551, 2.8341, 2.847, 2.8504, 2.8561, 2.9256, 2.84, 2.8613000000000004, 2.8436999999999997, 2.8343000000000003, 2.8413000000000004, 2.8779, 2.8682, 2.9812, 2.8855, 2.8514999999999997, 2.8286000000000002, 2.8341999999999996, 2.8691, 2.8799, 2.8617999999999997, 2.8964, 2.8657, 2.8563, 2.8633, 2.9091],
  "Depth": 458.0,
  "Expectation Value": -1.982872486114502,
  "Optimal Expectation Value": -2.0,
  "Optimizer durations [ms]": [30.043, 29.435, 29.148, 29.08, 29.403, 29.165, 28.685, 29.416, 29.314, 29.002, 29.535, 28.823, 29.423, 29.785, 31.834, 38.049, 29.043, 29.387, 29.13, 29.595, 28.933, 29.505, 29.787, 28.752, 29.613, 29.326, 32.566, 29.189, 29.17, 29.211, 29.585, 29.703, 29.518, 28.814, 29.352, 28.989, 29.282, 28.954, 29.319, 29.228, 29.109, 29.105, 29.761, 28.804, 29.066, 28.906, 29.125, 29.305, 33.84, 37.945, 28.946, 29.406, 29.207, 29.455, 28.753, 29.015, 28.882, 29.389, 29.049, 29.028, 31.158, 28.873, 28.674, 29.883, 28.753, 29.314, 28.979, 29.038, 29.411, 28.88, 29.158, 28.951, 29.484, 29.641, 28.974, 29.258, 28.694, 28.795, 29.175, 28.649, 29.12, 29.085, 29.004, 29.957, 28.996, 28.865, 29.15, 31.5, 30.11, 33.972, 29.261, 30.393, 39.053, 28.877, 29.028, 28.966, 29.133, 29.301, 29.047, 29.565, 29.147, 29.038, 29.198, 29.447],
  "Optimizer iterations": 104,
  "Optimizer params": [0.8838090847991069, 0.31223051257807, 0.658233314048871, 0.9999498399597858, 0.35922570804740095, 0.49794024214476257],
  "P": 3,
  "Problem": "MIS",
  "QJob durations [ms]": [2.9467999999999996, 2.9109000000000003, 2.8627000000000002, 2.8386, 2.8636999999999997, 2.8838000000000004, 2.8236, 2.8821, 2.8514, 2.8579999999999997, 2.8822, 2.8529, 2.8918, 2.9064, 3.1313, 3.2407999999999997, 2.8263, 2.8859, 2.8890000000000002, 2.8757, 2.8512, 2.9018, 2.9139, 2.8438, 2.8847, 2.8898, 2.8592999999999997, 2.8762000000000003, 2.8447, 2.8594, 2.9137, 2.9099999999999997, 2.8888, 2.8415, 2.8703000000000003, 2.8462, 2.9033, 2.8397, 2.8531, 2.8594, 2.8746, 2.8584, 2.9108, 2.8501, 2.8236, 2.8604, 2.8519, 2.8873, 3.33, 2.8559, 2.8613000000000004, 2.9026, 2.8562000000000003, 2.8935, 2.843, 2.837, 2.8196, 2.878, 2.8489999999999998, 2.8747, 2.8326, 2.8254, 2.8392, 2.8629, 2.8367, 2.8746, 2.8538, 2.8417999999999997, 2.8798, 2.8384, 2.8687, 2.8576, 2.8897, 2.8688, 2.8718, 2.8503, 2.8279, 2.8264, 2.8551, 2.8341, 2.847, 2.8504, 2.8561, 2.9256, 2.84, 2.8613000000000004, 2.8436999999999997, 2.8343000000000003, 2.8413000000000004, 2.8779, 2.8682, 2.9812, 2.8855, 2.8514999999999997, 2.8286000000000002, 2.8341999999999996, 2.8691, 2.8799, 2.8617999999999997, 2.8964, 2.8657, 2.8563, 2.8633, 2.9091],
  "QPU": "7000000",
  "Qubits": 11,
  "Queue durations [ms]": [0.0, 0.0, 0.0, 0.0, 0.0, 0.0, 0.0, 0.0, 0.0, 0.0, 0.0, 0.0, 0.0, 0.0, 0.0, 0.0, 0.0, 0.0, 0.0, 0.0, 0.0, 0.0, 0.0, 0.0, 0.0, 0.0, 0.0, 0.0, 0.0, 0.0, 0.0, 0.0, 0.0, 0.0, 0.0, 0.0, 0.0, 0.0, 0.0, 0.0, 0.0, 0.0, 0.0, 0.0, 0.0, 0.0, 0.0, 0.0, 0.0, 0.0, 0.0, 0.0, 0.0, 0.0, 0.0, 0.0, 0.0, 0.0, 0.0, 0.0, 0.0, 0.0, 0.0, 0.0, 0.0, 0.0, 0.0, 0.0, 0.0, 0.0, 0.0, 0.0, 0.0, 0.0, 0.0, 0.0, 0.0, 0.0, 0.0, 0.0, 0.0, 0.0, 0.0, 0.0, 0.0, 0.0, 0.0, 0.0, 0.0, 0.0, 0.0, 0.0, 0.0, 0.0, 0.0, 0.0, 0.0, 0.0, 0.0, 0.0, 0.0, 0.0, 0.0, 0.0],
  "Shots": 4096,
  "Size": 8,
  "Total Algorithm duration [s]": 3.085,
  "Total Classic duration [s]": 2.7858633999999998,
  "Total Quantum duration [s]": 0.2991366000000001
}
