{
  "Circuit execution durations [ms]": [2.834, 2.875, 2.8964, 2.8995, 2.8971, 2.8629, 2.9811, 2.8752999999999997, 2.866, 2.9264, 2.9202, 2.8945, 2.8836999999999997, 2.8417, 2.8859, 2.8794, 2.904, 2.904, 2.8967, 2.8774, 2.8952999999999998, 2.877, 2.8804999999999996, 2.8762000000000003, 2.8905, 2.897, 2.8777, 2.9257, 2.8969, 2.8924, 2.8823999999999996, 2.8789000000000002, 2.8585, 3.0963000000000003, 2.8842999999999996, 2.9026, 2.9126, 2.8967, 2.8914, 2.8443, 2.8895, 2.877, 2.8983, 2.8961, 2.9277, 2.886, 2.8857000000000004, 2.9363, 2.8974, 2.8652, 2.8938, 2.8960000000000004, 2.8651, 2.8701999999999996, 2.8819000000000004, 2.9036, 2.8508, 2.8531, 2.8795, 2.8648, 2.8885, 2.9308, 2.8892, 2.8517, 2.8339, 2.8698, 2.8957, 2.9672, 2.8958999999999997, 2.872, 2.8864, 2.8865000000000003, 2.8975, 2.8857000000000004, 2.8059000000000003, 2.8708, 3.0355999999999996, 2.8556, 3.0677, 2.8901, 2.8855, 2.8998, 2.8613000000000004, 2.8682999999999996],
  "Depth": 458.0,
  "Expectation Value": -1.9811551570892334,
  "Optimal Expectation Value": -2.0,
  "Optimizer durations [ms]": [28.911, 29.178, 29.433, 29.721, 29.626, 29.13, 30.141, 29.498, 29.081, 29.528, 30.053, 29.403, 29.231, 28.94, 29.374, 29.451, 29.331, 29.636, 29.406, 29.225, 29.724, 29.242, 29.327, 29.388, 29.176, 29.673, 29.206, 29.952, 29.52, 29.43, 29.436, 29.34, 29.137, 31.382, 38.718, 29.601, 29.758, 29.482, 29.523, 29.085, 29.327, 29.385, 29.424, 29.419, 29.891, 29.275, 29.562, 29.648, 29.79, 29.208, 29.481, 29.363, 29.12, 29.146, 29.65, 29.28, 29.404, 28.957, 29.353, 29.184, 29.284, 29.7, 29.587, 29.066, 28.762, 29.072, 29.828, 30.27, 29.184, 29.525, 29.421, 29.339, 29.313, 30.002, 37.942, 29.274, 30.982, 38.664, 31.237, 29.582, 29.133, 29.815, 29.23, 29.131],
  "Optimizer iterations": 84,
  "Optimizer params": [0.4083520029983658, 0.7375440511696545, 0.9104907618460613, 0.9131412232211563, 0.24348251279633387, 0.3323722718895973],
  "P": 3,
  "Problem": "MIS",
  "QJob durations [ms]": [2.834, 2.875, 2.8964, 2.8995, 2.8971, 2.8629, 2.9811, 2.8752999999999997, 2.866, 2.9264, 2.9202, 2.8945, 2.8836999999999997, 2.8417, 2.8859, 2.8794, 2.904, 2.904, 2.8967, 2.8774, 2.8952999999999998, 2.877, 2.8804999999999996, 2.8762000000000003, 2.8905, 2.897, 2.8777, 2.9257, 2.8969, 2.8924, 2.8823999999999996, 2.8789000000000002, 2.8585, 3.0963000000000003, 2.8842999999999996, 2.9026, 2.9126, 2.8967, 2.8914, 2.8443, 2.8895, 2.877, 2.8983, 2.8961, 2.9277, 2.886, 2.8857000000000004, 2.9363, 2.8974, 2.8652, 2.8938, 2.8960000000000004, 2.8651, 2.8701999999999996, 2.8819000000000004, 2.9036, 2.8508, 2.8531, 2.8795, 2.8648, 2.8885, 2.9308, 2.8892, 2.8517, 2.8339, 2.8698, 2.8957, 2.9672, 2.8958999999999997, 2.872, 2.8864, 2.8865000000000003, 2.8975, 2.8857000000000004, 2.8059000000000003, 2.8708, 3.0355999999999996, 2.8556, 3.0677, 2.8901, 2.8855, 2.8998, 2.8613000000000004, 2.8682999999999996],
  "QPU": "7000000",
  "Qubits": 11,
  "Queue durations [ms]": [0.0, 0.0, 0.0, 0.0, 0.0, 0.0, 0.0, 0.0, 0.0, 0.0, 0.0, 0.0, 0.0, 0.0, 0.0, 0.0, 0.0, 0.0, 0.0, 0.0, 0.0, 0.0, 0.0, 0.0, 0.0, 0.0, 0.0, 0.0, 0.0, 0.0, 0.0, 0.0, 0.0, 0.0, 0.0, 0.0, 0.0, 0.0, 0.0, 0.0, 0.0, 0.0, 0.0, 0.0, 0.0, 0.0, 0.0, 0.0, 0.0, 0.0, 0.0, 0.0, 0.0, 0.0, 0.0, 0.0, 0.0, 0.0, 0.0, 0.0, 0.0, 0.0, 0.0, 0.0, 0.0, 0.0, 0.0, 0.0, 0.0, 0.0, 0.0, 0.0, 0.0, 0.0, 0.0, 0.0, 0.0, 0.0, 0.0, 0.0, 0.0, 0.0, 0.0, 0.0],
  "Shots": 4096,
  "Size": 8,
  "Total Algorithm duration [s]": 2.503,
  "Total Classic duration [s]": 2.2600322,
  "Total Quantum duration [s]": 0.24296780000000007
}
