{
  "Circuit execution durations [ms]": [2.8558, 2.9377999999999997, 2.8634, 2.8629, 2.9803, 2.9103000000000003, 2.8686, 2.8696, 2.8586, 2.8635, 2.8388, 2.9026, 2.8638, 2.8430999999999997, 2.8857000000000004, 2.9049, 2.8522, 2.8535, 2.8407, 2.8587000000000002, 2.8935, 2.8886, 2.9023999999999996, 2.8851, 2.8914, 2.8592, 2.8714999999999997, 2.8605, 3.0229, 2.9463, 2.8815, 2.8876, 2.8939999999999997, 2.8406, 2.8883, 2.9039, 2.8584, 2.8609999999999998, 2.9283, 2.9246, 2.8867, 2.8748, 2.8863, 2.8611999999999997, 2.8789000000000002, 2.8939999999999997, 2.8874, 2.8901, 2.8790999999999998, 2.8776, 2.8677, 2.8382, 2.9022, 2.8892, 2.8955, 2.8487, 2.9843, 2.8915, 2.8987000000000003, 2.8838000000000004, 2.9063000000000003, 2.9160000000000004, 3.0252999999999997, 3.0345, 2.9151, 2.8371, 2.8738, 2.9034, 2.8957, 2.8682, 2.8627000000000002, 2.8589, 2.9083, 2.8827000000000003, 2.8814, 2.9126, 2.9207, 2.8823999999999996],
  "Depth": 458.0,
  "Expectation Value": -1.9782129526138306,
  "Optimal Expectation Value": -2.0,
  "Optimizer durations [ms]": [29.121, 29.935, 33.457, 31.791, 39.949, 29.99, 29.095, 29.176, 29.082, 29.151, 29.008, 29.459, 29.282, 28.835, 29.228, 29.663, 28.984, 29.259, 28.697, 29.284, 29.274, 29.748, 29.597, 29.411, 29.387, 29.166, 29.077, 29.077, 30.944, 39.573, 29.221, 29.42, 29.496, 28.762, 29.321, 29.56, 29.105, 29.284, 29.736, 29.821, 29.479, 29.177, 29.397, 28.846, 29.375, 29.619, 29.372, 29.541, 29.213, 29.159, 29.376, 29.062, 29.381, 29.347, 29.44, 29.092, 30.471, 29.376, 29.581, 29.205, 29.896, 29.609, 30.942, 35.545, 29.751, 28.922, 29.295, 29.517, 29.665, 29.184, 28.881, 29.093, 29.899, 29.265, 29.402, 29.661, 29.438, 29.473],
  "Optimizer iterations": 78,
  "Optimizer params": [0.4567866824402942, 0.16147480905056, 0.7797587119567746, 0.9850054895622241, 0.11005655998898627, 0.4367826753412371],
  "P": 3,
  "Problem": "MIS",
  "QJob durations [ms]": [2.8558, 2.9377999999999997, 2.8634, 2.8629, 2.9803, 2.9103000000000003, 2.8686, 2.8696, 2.8586, 2.8635, 2.8388, 2.9026, 2.8638, 2.8430999999999997, 2.8857000000000004, 2.9049, 2.8522, 2.8535, 2.8407, 2.8587000000000002, 2.8935, 2.8886, 2.9023999999999996, 2.8851, 2.8914, 2.8592, 2.8714999999999997, 2.8605, 3.0229, 2.9463, 2.8815, 2.8876, 2.8939999999999997, 2.8406, 2.8883, 2.9039, 2.8584, 2.8609999999999998, 2.9283, 2.9246, 2.8867, 2.8748, 2.8863, 2.8611999999999997, 2.8789000000000002, 2.8939999999999997, 2.8874, 2.8901, 2.8790999999999998, 2.8776, 2.8677, 2.8382, 2.9022, 2.8892, 2.8955, 2.8487, 2.9843, 2.8915, 2.8987000000000003, 2.8838000000000004, 2.9063000000000003, 2.9160000000000004, 3.0252999999999997, 3.0345, 2.9151, 2.8371, 2.8738, 2.9034, 2.8957, 2.8682, 2.8627000000000002, 2.8589, 2.9083, 2.8827000000000003, 2.8814, 2.9126, 2.9207, 2.8823999999999996],
  "QPU": "7000000",
  "Qubits": 11,
  "Queue durations [ms]": [0.0, 0.0, 0.0, 0.0, 0.0, 0.0, 0.0, 0.0, 0.0, 0.0, 0.0, 0.0, 0.0, 0.0, 0.0, 0.0, 0.0, 0.0, 0.0, 0.0, 0.0, 0.0, 0.0, 0.0, 0.0, 0.0, 0.0, 0.0, 0.0, 0.0, 0.0, 0.0, 0.0, 0.0, 0.0, 0.0, 0.0, 0.0, 0.0, 0.0, 0.0, 0.0, 0.0, 0.0, 0.0, 0.0, 0.0, 0.0, 0.0, 0.0, 0.0, 0.0, 0.0, 0.0, 0.0, 0.0, 0.0, 0.0, 0.0, 0.0, 0.0, 0.0, 0.0, 0.0, 0.0, 0.0, 0.0, 0.0, 0.0, 0.0, 0.0, 0.0, 0.0, 0.0, 0.0, 0.0, 0.0, 0.0],
  "Shots": 4096,
  "Size": 8,
  "Total Algorithm duration [s]": 2.326,
  "Total Classic duration [s]": 2.1005946,
  "Total Quantum duration [s]": 0.22540539999999995
}
