{
  "Circuit execution durations [ms]": [2.8886, 2.8627000000000002, 2.8781000000000003, 2.9114, 2.8645, 2.8628, 2.8783, 2.8784, 2.8984, 2.8262, 2.8918, 2.8682999999999996, 2.8508999999999998, 2.8487999999999998, 2.8861999999999997, 3.0628, 3.0608, 2.8633, 2.8466, 2.9346, 2.8842, 2.8668, 2.9057000000000004, 2.9169, 2.867, 2.9002, 2.8598, 2.8962, 2.8592999999999997, 2.8930000000000002, 2.8654, 2.8385, 2.8497000000000003, 2.8657, 2.8821, 2.8492, 2.8750999999999998, 2.8849, 2.8647, 2.8848, 2.8494, 2.8804999999999996, 2.8743000000000003, 2.8863, 2.8679, 2.8924, 2.8883, 2.8598, 2.8432, 2.9051, 2.7986, 2.8812, 2.882, 2.7712000000000003, 2.8601, 2.8049, 2.8516000000000004, 2.9082, 2.9849, 3.041, 2.8441, 2.8537, 2.8718, 2.8608000000000002, 2.8577, 2.8425, 2.8603, 2.8579, 2.8922000000000003, 2.9296, 2.8777, 2.8808000000000002, 2.8344, 2.8749000000000002, 2.8876, 2.8549, 2.8461, 2.8567, 2.8576, 2.8667, 2.8731, 2.9183, 3.0008, 2.935, 2.863, 2.862, 2.9156999999999997, 2.8440000000000003, 2.8632000000000004, 2.9283, 2.8912999999999998, 2.8736, 2.8698, 2.8706, 2.8655, 2.8602, 2.8687, 2.8789000000000002, 2.8931999999999998, 2.8355, 2.8844, 2.8882, 2.9005, 2.872, 2.8719, 2.8538],
  "Depth": 458.0,
  "Expectation Value": -1.9850636720657349,
  "Optimal Expectation Value": -2.0,
  "Optimizer durations [ms]": [29.204, 29.668, 29.248, 29.373, 29.28, 29.479, 29.24, 29.29, 29.542, 28.627, 29.575, 29.182, 29.07, 28.951, 29.28, 35.887, 31.709, 29.221, 28.885, 29.921, 29.46, 28.96, 29.542, 29.753, 29.019, 29.811, 29.297, 29.278, 29.224, 29.528, 29.016, 28.924, 28.989, 29.212, 29.103, 29.3, 29.352, 29.206, 29.122, 29.608, 28.878, 29.322, 29.285, 29.223, 29.226, 29.588, 29.349, 28.946, 29.148, 29.674, 36.275, 29.12, 29.705, 37.844, 29.15, 28.532, 28.846, 29.845, 39.953, 31.116, 28.872, 29.123, 29.352, 28.953, 29.237, 29.057, 28.943, 29.229, 29.534, 29.861, 29.177, 29.24, 29.15, 29.111, 29.414, 29.256, 28.817, 29.218, 28.96, 29.441, 29.087, 29.822, 30.61, 39.316, 29.21, 29.157, 29.468, 29.204, 29.125, 29.546, 29.65, 28.99, 29.705, 29.184, 29.27, 28.848, 29.492, 29.018, 29.706, 28.649, 29.638, 29.356, 29.417, 29.214, 29.381, 29.032],
  "Optimizer iterations": 106,
  "Optimizer params": [0.12206207011337122, 0.12109298579778283, 0.7284790462447392, 0.9958409879562898, 0.28489288493248915, 0.9996761783686723],
  "P": 3,
  "Problem": "MIS",
  "QJob durations [ms]": [2.8886, 2.8627000000000002, 2.8781000000000003, 2.9114, 2.8645, 2.8628, 2.8783, 2.8784, 2.8984, 2.8262, 2.8918, 2.8682999999999996, 2.8508999999999998, 2.8487999999999998, 2.8861999999999997, 3.0628, 3.0608, 2.8633, 2.8466, 2.9346, 2.8842, 2.8668, 2.9057000000000004, 2.9169, 2.867, 2.9002, 2.8598, 2.8962, 2.8592999999999997, 2.8930000000000002, 2.8654, 2.8385, 2.8497000000000003, 2.8657, 2.8821, 2.8492, 2.8750999999999998, 2.8849, 2.8647, 2.8848, 2.8494, 2.8804999999999996, 2.8743000000000003, 2.8863, 2.8679, 2.8924, 2.8883, 2.8598, 2.8432, 2.9051, 2.7986, 2.8812, 2.882, 2.7712000000000003, 2.8601, 2.8049, 2.8516000000000004, 2.9082, 2.9849, 3.041, 2.8441, 2.8537, 2.8718, 2.8608000000000002, 2.8577, 2.8425, 2.8603, 2.8579, 2.8922000000000003, 2.9296, 2.8777, 2.8808000000000002, 2.8344, 2.8749000000000002, 2.8876, 2.8549, 2.8461, 2.8567, 2.8576, 2.8667, 2.8731, 2.9183, 3.0008, 2.935, 2.863, 2.862, 2.9156999999999997, 2.8440000000000003, 2.8632000000000004, 2.9283, 2.8912999999999998, 2.8736, 2.8698, 2.8706, 2.8655, 2.8602, 2.8687, 2.8789000000000002, 2.8931999999999998, 2.8355, 2.8844, 2.8882, 2.9005, 2.872, 2.8719, 2.8538],
  "QPU": "7000000",
  "Qubits": 11,
  "Queue durations [ms]": [0.0, 0.0, 0.0, 0.0, 0.0, 0.0, 0.0, 0.0, 0.0, 0.0, 0.0, 0.0, 0.0, 0.0, 0.0, 0.0, 0.0, 0.0, 0.0, 0.0, 0.0, 0.0, 0.0, 0.0, 0.0, 0.0, 0.0, 0.0, 0.0, 0.0, 0.0, 0.0, 0.0, 0.0, 0.0, 0.0, 0.0, 0.0, 0.0, 0.0, 0.0, 0.0, 0.0, 0.0, 0.0, 0.0, 0.0, 0.0, 0.0, 0.0, 0.0, 0.0, 0.0, 0.0, 0.0, 0.0, 0.0, 0.0, 0.0, 0.0, 0.0, 0.0, 0.0, 0.0, 0.0, 0.0, 0.0, 0.0, 0.0, 0.0, 0.0, 0.0, 0.0, 0.0, 0.0, 0.0, 0.0, 0.0, 0.0, 0.0, 0.0, 0.0, 0.0, 0.0, 0.0, 0.0, 0.0, 0.0, 0.0, 0.0, 0.0, 0.0, 0.0, 0.0, 0.0, 0.0, 0.0, 0.0, 0.0, 0.0, 0.0, 0.0, 0.0, 0.0, 0.0, 0.0],
  "Shots": 4096,
  "Size": 8,
  "Total Algorithm duration [s]": 3.15,
  "Total Classic duration [s]": 2.8448069,
  "Total Quantum duration [s]": 0.3051930999999999
}
