{
  "Circuit execution durations [ms]": [7.1852, 7.0844000000000005, 7.1000000000000005, 7.1152999999999995, 7.2269, 7.1444, 6.8469999999999995, 7.1791, 6.9404, 7.1316, 7.1514999999999995, 7.0869, 7.0554, 7.0535, 7.1343, 7.1355, 7.165, 7.4074, 7.203, 7.0356000000000005, 7.1056, 7.1301000000000005, 7.0926, 7.085, 7.199, 7.0989, 7.0996999999999995, 7.1144, 7.0844000000000005, 7.0722, 7.2329, 6.8905, 7.1627, 7.0999, 7.1446000000000005, 7.1412, 7.0887, 7.0859, 7.1171999999999995, 7.1112, 7.1588, 7.115, 7.0713, 7.096, 7.1325, 7.1151, 6.9075999999999995, 7.1404, 6.912, 7.1317, 7.0863000000000005, 7.107600000000001, 7.126399999999999, 7.0952, 7.1459, 7.0842, 7.1770000000000005, 7.4948999999999995, 7.245900000000001, 7.0924, 7.159000000000001, 7.1624, 7.1237, 7.1138, 7.1625, 7.0515, 7.132000000000001, 7.1535, 7.1187000000000005, 7.1084, 7.212, 6.8861, 7.160200000000001, 7.0681, 7.1149000000000004, 7.1342, 7.1112, 7.1063, 7.1046, 7.1102, 7.177700000000001, 7.1014, 7.1036, 7.1581, 7.1381, 7.151, 7.2806, 7.2059999999999995, 6.923, 7.084499999999999, 7.1125, 7.0790999999999995, 7.0699, 7.1129, 7.11, 7.28, 7.1993],
  "Depth": 110.0,
  "Expectation Value": 17.15212059020996,
  "Optimal Expectation Value": -4.0,
  "Optimizer durations [ms]": [76.115, 74.517, 74.796, 74.811, 76.048, 75.033, 82.054, 79.043, 82.802, 74.997, 75.214, 74.665, 74.105, 74.138, 74.96, 75.091, 75.205, 77.95, 76.044, 73.853, 74.851, 75.075, 74.533, 74.546, 75.636, 74.621, 74.619, 75.023, 74.455, 74.296, 76.1, 82.404, 75.242, 74.631, 75.007, 75.11, 74.731, 74.517, 74.965, 74.729, 75.202, 74.847, 74.289, 74.494, 75.042, 74.813, 81.412, 77.942, 82.525, 75.021, 74.38, 74.721, 74.845, 74.668, 75.197, 74.337, 75.233, 78.778, 76.406, 74.621, 75.066, 75.278, 74.968, 74.932, 75.103, 74.139, 74.857, 75.207, 74.723, 74.697, 75.705, 82.431, 75.346, 74.54, 74.672, 75.038, 74.975, 74.86, 74.734, 74.884, 75.387, 74.727, 74.605, 75.377, 75.103, 77.802, 78.795, 75.753, 82.476, 74.382, 74.808, 74.365, 74.435, 74.972, 74.883, 76.42, 75.794],
  "Optimizer iterations": 97,
  "Optimizer params": [0.058995795921283, 0.752725344849205, 0.2030177488149196, 0.08765897771484657, 0.8981345840087429, 0.08172717297874285],
  "P": 3,
  "Problem": "TSP",
  "QJob durations [ms]": [7.1852, 7.0844000000000005, 7.1000000000000005, 7.1152999999999995, 7.2269, 7.1444, 6.8469999999999995, 7.1791, 6.9404, 7.1316, 7.1514999999999995, 7.0869, 7.0554, 7.0535, 7.1343, 7.1355, 7.165, 7.4074, 7.203, 7.0356000000000005, 7.1056, 7.1301000000000005, 7.0926, 7.085, 7.199, 7.0989, 7.0996999999999995, 7.1144, 7.0844000000000005, 7.0722, 7.2329, 6.8905, 7.1627, 7.0999, 7.1446000000000005, 7.1412, 7.0887, 7.0859, 7.1171999999999995, 7.1112, 7.1588, 7.115, 7.0713, 7.096, 7.1325, 7.1151, 6.9075999999999995, 7.1404, 6.912, 7.1317, 7.0863000000000005, 7.107600000000001, 7.126399999999999, 7.0952, 7.1459, 7.0842, 7.1770000000000005, 7.4948999999999995, 7.245900000000001, 7.0924, 7.159000000000001, 7.1624, 7.1237, 7.1138, 7.1625, 7.0515, 7.132000000000001, 7.1535, 7.1187000000000005, 7.1084, 7.212, 6.8861, 7.160200000000001, 7.0681, 7.1149000000000004, 7.1342, 7.1112, 7.1063, 7.1046, 7.1102, 7.177700000000001, 7.1014, 7.1036, 7.1581, 7.1381, 7.151, 7.2806, 7.2059999999999995, 6.923, 7.084499999999999, 7.1125, 7.0790999999999995, 7.0699, 7.1129, 7.11, 7.28, 7.1993],
  "QPU": "7000000",
  "Qubits": 16,
  "Queue durations [ms]": [0.0, 0.0, 0.0, 0.0, 0.0, 0.0, 0.0, 0.0, 0.0, 0.0, 0.0, 0.0, 0.0, 0.0, 0.0, 0.0, 0.0, 0.0, 0.0, 0.0, 0.0, 0.0, 0.0, 0.0, 0.0, 0.0, 0.0, 0.0, 0.0, 0.0, 0.0, 0.0, 0.0, 0.0, 0.0, 0.0, 0.0, 0.0, 0.0, 0.0, 0.0, 0.0, 0.0, 0.0, 0.0, 0.0, 0.0, 0.0, 0.0, 0.0, 0.0, 0.0, 0.0, 0.0, 0.0, 0.0, 0.0, 0.0, 0.0, 0.0, 0.0, 0.0, 0.0, 0.0, 0.0, 0.0, 0.0, 0.0, 0.0, 0.0, 0.0, 0.0, 0.0, 0.0, 0.0, 0.0, 0.0, 0.0, 0.0, 0.0, 0.0, 0.0, 0.0, 0.0, 0.0, 0.0, 0.0, 0.0, 0.0, 0.0, 0.0, 0.0, 0.0, 0.0, 0.0, 0.0, 0.0],
  "Shots": 4096,
  "Size": 4,
  "Total Algorithm duration [s]": 7.341,
  "Total Classic duration [s]": 6.6504437,
  "Total Quantum duration [s]": 0.6905563000000001
}
