{
  "Circuit execution durations [ms]": [7.0637, 7.0849, 7.0607999999999995, 7.1005, 7.119000000000001, 7.1031, 7.1521, 7.117100000000001, 7.0406, 7.0498, 7.1859, 7.1221000000000005, 7.1231, 7.1659999999999995, 7.4805, 7.0838, 7.1194, 7.0659, 7.1224, 7.0798, 7.0911, 7.1036, 7.1263000000000005, 7.1627, 6.9296, 7.0594, 7.0666, 7.136799999999999, 7.1524, 7.0571, 7.1262, 7.101, 7.0981000000000005, 7.0819, 7.0687, 7.1158, 7.1049, 7.4538, 7.2125, 7.0439, 7.0828999999999995, 7.087000000000001, 7.0775999999999994, 7.1055, 7.0964, 7.0885, 7.145099999999999, 7.061999999999999, 7.1184, 7.0564, 7.142, 7.09, 7.1795, 7.1066, 7.351800000000001, 7.0898, 7.0857, 7.092700000000001, 7.0557, 7.077100000000001, 7.142, 7.092700000000001, 7.090199999999999, 7.111, 7.3958, 7.1046, 7.0866999999999996, 7.0949, 7.1129, 7.083, 7.0687, 7.1363, 7.1019000000000005, 7.0958000000000006, 7.0607, 7.0806000000000004, 7.1102, 7.3278, 7.2764, 7.1098, 7.1552, 7.0886, 7.1324, 7.1452, 7.0995, 7.1322, 7.0009, 7.1485, 7.1075, 7.0866, 7.0475, 7.0947, 7.156, 7.2366, 7.2824, 7.3036, 7.0305, 7.084, 7.1379, 7.1124, 7.0818, 7.1158],
  "Depth": 110.0,
  "Expectation Value": 10.044427871704102,
  "Optimal Expectation Value": -4.0,
  "Optimizer durations [ms]": [74.833, 74.594, 74.405, 74.656, 74.96, 74.779, 75.159, 74.932, 74.155, 74.002, 75.677, 77.834, 75.007, 75.456, 78.676, 75.768, 74.982, 74.433, 74.794, 74.416, 74.449, 74.573, 74.998, 75.276, 82.469, 74.391, 74.328, 75.056, 75.351, 74.315, 74.845, 74.754, 74.6, 74.603, 74.181, 74.886, 74.609, 78.103, 75.884, 74.199, 74.387, 74.713, 74.244, 74.718, 74.575, 74.537, 75.038, 74.282, 74.742, 74.333, 75.203, 74.739, 75.54, 74.607, 79.122, 74.45, 74.514, 74.643, 74.228, 74.428, 75.118, 74.69, 74.444, 74.747, 77.609, 74.778, 74.402, 74.411, 74.821, 74.643, 74.53, 75.129, 74.819, 74.614, 74.435, 74.395, 74.694, 77.028, 77.585, 74.833, 75.173, 74.555, 74.986, 75.103, 74.588, 74.98, 73.769, 75.24, 74.844, 74.65, 74.271, 76.388, 75.182, 76.099, 76.641, 81.142, 73.99, 74.604, 75.094, 74.98, 74.436, 74.939],
  "Optimizer iterations": 102,
  "Optimizer params": [0.024046835125861935, 0.33125499027212396, 0.44876535871383005, 0.5544666257993396, 0.8036333510116683, 0.7423842443955648],
  "P": 3,
  "Problem": "TSP",
  "QJob durations [ms]": [7.0637, 7.0849, 7.0607999999999995, 7.1005, 7.119000000000001, 7.1031, 7.1521, 7.117100000000001, 7.0406, 7.0498, 7.1859, 7.1221000000000005, 7.1231, 7.1659999999999995, 7.4805, 7.0838, 7.1194, 7.0659, 7.1224, 7.0798, 7.0911, 7.1036, 7.1263000000000005, 7.1627, 6.9296, 7.0594, 7.0666, 7.136799999999999, 7.1524, 7.0571, 7.1262, 7.101, 7.0981000000000005, 7.0819, 7.0687, 7.1158, 7.1049, 7.4538, 7.2125, 7.0439, 7.0828999999999995, 7.087000000000001, 7.0775999999999994, 7.1055, 7.0964, 7.0885, 7.145099999999999, 7.061999999999999, 7.1184, 7.0564, 7.142, 7.09, 7.1795, 7.1066, 7.351800000000001, 7.0898, 7.0857, 7.092700000000001, 7.0557, 7.077100000000001, 7.142, 7.092700000000001, 7.090199999999999, 7.111, 7.3958, 7.1046, 7.0866999999999996, 7.0949, 7.1129, 7.083, 7.0687, 7.1363, 7.1019000000000005, 7.0958000000000006, 7.0607, 7.0806000000000004, 7.1102, 7.3278, 7.2764, 7.1098, 7.1552, 7.0886, 7.1324, 7.1452, 7.0995, 7.1322, 7.0009, 7.1485, 7.1075, 7.0866, 7.0475, 7.0947, 7.156, 7.2366, 7.2824, 7.3036, 7.0305, 7.084, 7.1379, 7.1124, 7.0818, 7.1158],
  "QPU": "7000000",
  "Qubits": 16,
  "Queue durations [ms]": [0.0, 0.0, 0.0, 0.0, 0.0, 0.0, 0.0, 0.0, 0.0, 0.0, 0.0, 0.0, 0.0, 0.0, 0.0, 0.0, 0.0, 0.0, 0.0, 0.0, 0.0, 0.0, 0.0, 0.0, 0.0, 0.0, 0.0, 0.0, 0.0, 0.0, 0.0, 0.0, 0.0, 0.0, 0.0, 0.0, 0.0, 0.0, 0.0, 0.0, 0.0, 0.0, 0.0, 0.0, 0.0, 0.0, 0.0, 0.0, 0.0, 0.0, 0.0, 0.0, 0.0, 0.0, 0.0, 0.0, 0.0, 0.0, 0.0, 0.0, 0.0, 0.0, 0.0, 0.0, 0.0, 0.0, 0.0, 0.0, 0.0, 0.0, 0.0, 0.0, 0.0, 0.0, 0.0, 0.0, 0.0, 0.0, 0.0, 0.0, 0.0, 0.0, 0.0, 0.0, 0.0, 0.0, 0.0, 0.0, 0.0, 0.0, 0.0, 0.0, 0.0, 0.0, 0.0, 0.0, 0.0, 0.0, 0.0, 0.0, 0.0, 0.0],
  "Shots": 4096,
  "Size": 4,
  "Total Algorithm duration [s]": 7.663,
  "Total Classic duration [s]": 6.9366146,
  "Total Quantum duration [s]": 0.7263853999999998
}
