{
  "Depth": 113.0,
  "Expectation Value": -7.495566368103027,
  "Job durations [ms]": [0.761, 0.8616999999999999, 0.7232999999999999, 1.1195000000000002, 0.7575000000000001, 0.723, 0.7409, 1.0526000000000002, 0.7596999999999999, 0.7121999999999999, 0.8793, 0.7255999999999999, 0.8679, 0.8286, 0.7144, 0.7327, 0.7433, 0.8088000000000001, 0.8049, 0.7333, 0.7376, 0.9947, 0.76, 0.7603, 0.7126, 0.8186, 0.7599, 0.7327, 0.7345, 0.8444, 0.7404999999999999, 0.8392999999999999, 0.7358, 0.8401, 0.7699999999999999, 0.6978000000000001, 0.7301, 0.7364999999999999, 0.8006000000000001, 0.7211, 0.7284, 0.7701, 0.8476, 0.7274, 0.7472, 0.7293, 1.011, 0.7575000000000001, 0.7463, 0.7197, 1.0196999999999998, 0.7253999999999999, 0.8503999999999999, 0.7387, 0.8333, 0.7565999999999999, 0.7165, 0.7184999999999999, 0.8111, 0.6989, 0.7385999999999999, 0.8744999999999999, 0.7212, 0.7485, 0.7182, 0.7293, 0.735, 0.7525999999999999, 0.7513, 0.8139, 0.8222, 0.7399, 0.8007, 0.721, 0.7110000000000001, 1.0932, 0.7409, 0.8108, 0.734, 0.7267, 0.7481, 0.8558, 0.7364999999999999, 0.8154, 0.8708, 0.8593999999999999, 0.833, 0.8165, 1.1212, 0.8235, 0.8166, 0.7412, 0.8521, 0.8775999999999999, 0.8365999999999999, 0.8333, 0.7858999999999999, 0.7592, 0.8920999999999999, 0.8051999999999999, 0.7313000000000001, 0.7291, 0.7349, 0.7541],
  "Optimal Expectation Value": -8.0,
  "Optimizer durations [ms]": [17.496, 13.783, 17.487, 14.342, 13.001, 17.338, 16.312, 14.126, 17.751, 17.133, 17.255, 16.37, 14.06, 13.49, 14.827, 17.564, 17.523, 13.365, 9.056, 17.394, 17.716, 16.888, 13.014, 17.432, 17.524, 9.485, 16.8, 17.707, 17.3, 9.49, 14.002, 16.189, 17.783, 14.427, 14.9, 12.376, 17.509, 14.004, 12.722, 17.335, 14.765, 16.352, 13.71, 16.433, 14.638, 13.826, 15.766, 13.84, 14.214, 17.492, 17.309, 14.13, 13.815, 17.52, 13.63, 17.777, 14.409, 14.555, 13.179, 12.364, 17.43, 13.914, 14.823, 17.616, 17.44, 17.289, 14.625, 12.748, 15.158, 8.993, 9.758, 14.767, 12.88, 15.067, 17.217, 13.679, 17.16, 9.462, 17.508, 17.498, 17.723, 13.689, 17.673, 11.261, 10.451, 13.461, 10.194, 13.6, 17.094, 13.429, 10.603, 17.149, 16.58, 12.898, 11.503, 11.332, 14.031, 17.896, 16.649, 13.389, 16.795, 17.302, 14.053, 16.186],
  "Optimizer iterations": 104,
  "Optimizer params": [0.9873649805588502, 0.8332772769630898, 0.04453397349074948, 0.128483211816115, 0.5829080887342776, 0.9179211973375363],
  "P": 3,
  "Problem": "MCP",
  "QPU": "7000000",
  "Qubits": 6,
  "Shots": 4096,
  "Size": 6,
  "Total Algorithm duration [s]": 1.554,
  "Total Classic duration [s]": 1.4717162,
  "Total Quantum duration [s]": 0.08228380000000003
}
