{
  "Depth": 113.0,
  "Expectation Value": -7.329057693481445,
  "Job durations [ms]": [0.7575000000000001, 0.7443000000000001, 0.7242000000000001, 0.7542, 0.7283, 0.7247, 0.7336, 1.0266, 0.717, 0.7619, 0.7301, 0.7323, 0.7255999999999999, 0.7263999999999999, 1.0433000000000001, 0.7268, 0.7511, 0.8369, 0.7182, 0.6738999999999999, 0.7303000000000001, 0.9734, 0.767, 0.6973, 0.9039999999999999, 0.7429, 0.6920999999999999, 0.7672, 0.8122999999999999, 0.727, 0.7253999999999999, 0.7052, 0.7474, 0.714, 0.7427999999999999, 0.7287, 0.7316, 0.9156000000000001, 1.0719, 0.7223, 0.7963, 0.7242999999999999, 0.7221000000000001, 0.7290000000000001, 0.7293, 0.7035, 0.7223, 0.7471, 0.7173, 0.7203, 0.7546999999999999, 0.7356, 0.7319, 0.9905, 0.7318, 0.7464000000000001, 0.7634, 0.7506999999999999, 0.7244, 0.731, 0.7157, 0.7429, 1.0675999999999999, 0.7345, 0.7293, 0.7236, 0.7359, 0.7261000000000001, 0.7377, 0.758, 0.7453, 0.7363, 0.734, 0.7434, 0.6685000000000001, 0.7071, 0.7286, 0.7599, 0.7306, 0.7161, 0.7364999999999999, 0.755, 0.7268, 0.7385999999999999, 0.7426, 0.7262, 0.7349, 0.7031000000000001, 0.7288, 0.7018000000000001, 0.7348, 0.7213999999999999, 0.71, 0.7406999999999999, 0.7165, 0.7307, 0.8155, 0.7288, 0.7213999999999999, 0.7259, 0.7278, 1.0238999999999998, 0.7091000000000001, 0.7931, 0.7343000000000001, 0.8069000000000001, 1.0627],
  "Optimal Expectation Value": -8.0,
  "Optimizer durations [ms]": [17.484, 17.685, 17.304, 15.005, 16.919, 17.373, 15.809, 14.714, 17.11, 17.618, 16.399, 17.452, 16.307, 17.564, 16.989, 16.111, 17.702, 13.671, 17.495, 17.08, 17.433, 16.701, 16.597, 17.207, 16.41, 17.454, 17.058, 16.832, 17.414, 17.403, 17.038, 13.851, 17.823, 13.128, 17.601, 16.417, 17.692, 17.164, 16.718, 15.771, 10.628, 17.409, 17.222, 17.333, 14.763, 14.595, 17.248, 17.677, 17.24, 13.887, 17.202, 14.34, 14.255, 16.917, 17.538, 16.66, 13.774, 16.999, 17.366, 17.417, 14.245, 16.044, 12.624, 17.41, 17.435, 17.528, 17.097, 14.926, 17.743, 17.906, 14.138, 17.425, 17.697, 17.54, 14.834, 17.446, 14.165, 14.099, 17.457, 16.561, 13.781, 17.555, 12.956, 13.76, 17.639, 14.632, 13.831, 15.635, 12.692, 14.353, 16.157, 17.539, 17.41, 17.605, 13.858, 17.421, 16.548, 16.467, 15.323, 13.36, 17.214, 16.886, 13.672, 13.082, 17.481, 13.133, 14.472],
  "Optimizer iterations": 107,
  "Optimizer params": [0.7550265729649828, 0.07258318450077986, 0.2069742001669594, 0.012296603832496832, 0.5813671387556232, 0.7932538005532195],
  "P": 3,
  "Problem": "MCP",
  "QPU": "7000000",
  "Qubits": 6,
  "Shots": 4096,
  "Size": 6,
  "Total Algorithm duration [s]": 1.726,
  "Total Classic duration [s]": 1.6446338999999999,
  "Total Quantum duration [s]": 0.08136610000000002
}
