{
  "Depth": 113.0,
  "Expectation Value": -7.802663803100586,
  "Job durations [ms]": [0.8076, 0.7203, 0.7252, 0.9045000000000001, 0.7208, 0.7228, 0.7412, 0.7255999999999999, 0.722, 0.5592, 0.9349999999999999, 0.7432, 0.7268, 0.7628999999999999, 0.7345, 1.026, 0.8311, 0.8621, 0.7314, 0.7316, 0.7241, 0.9046, 0.7259, 0.8206, 0.8136, 0.9288000000000001, 0.7475, 0.8151, 0.8288, 1.1123999999999998, 0.8076, 0.7083, 0.7527, 1.0042, 0.7259, 0.7226999999999999, 0.7272, 0.7242000000000001, 0.7337999999999999, 0.7641, 0.733, 0.7248, 0.731, 0.7129000000000001, 1.0669, 0.745, 0.7318, 0.7271, 0.8983, 0.7249, 0.7337, 0.7234, 0.7657999999999999, 0.739, 0.7324999999999999, 0.9240999999999999, 0.9472, 0.7065, 0.7178, 0.7172, 0.7216, 0.8861, 0.7274, 1.0924, 0.7081000000000001, 0.8025, 0.7241, 0.7133, 0.7417, 0.7127, 0.7363, 0.7221000000000001, 0.7154, 0.7293999999999999, 0.7391, 0.9806000000000001, 0.758, 0.7123, 1.0591000000000002, 0.7171000000000001, 0.7364, 0.8365, 1.1023, 0.7292000000000001, 0.8079, 0.7477, 0.8979, 0.7102, 0.743, 1.1317, 0.7232999999999999, 0.7203, 0.7741, 0.7299, 0.8210999999999999],
  "Optimal Expectation Value": -8.0,
  "Optimizer durations [ms]": [13.207, 17.419, 17.376, 14.061, 17.214, 17.609, 17.548, 14.883, 17.498, 10.673, 16.813, 16.174, 17.447, 16.649, 15.246, 16.11, 13.742, 15.201, 17.571, 16.478, 17.148, 12.087, 16.836, 13.492, 13.315, 16.413, 17.46, 13.463, 13.674, 13.555, 14.634, 14.3, 17.864, 12.871, 13.819, 17.151, 17.449, 13.153, 17.395, 17.632, 17.625, 17.508, 17.303, 16.815, 16.361, 17.351, 12.735, 17.525, 12.591, 17.488, 17.607, 13.532, 13.736, 17.661, 16.607, 16.826, 13.66, 17.083, 17.167, 16.752, 17.589, 16.699, 16.992, 14.27, 17.018, 16.773, 17.272, 16.401, 17.556, 14.047, 17.521, 12.977, 17.258, 17.704, 15.826, 16.929, 17.628, 14.416, 12.852, 17.405, 17.686, 12.868, 14.568, 17.508, 9.036, 17.659, 15.142, 15.734, 17.356, 16.732, 13.303, 17.383, 14.321, 17.51, 13.533],
  "Optimizer iterations": 95,
  "Optimizer params": [0.9004012049558231, 0.5583919309565052, 0.9369829334333158, 0.10018879761366159, 0.9799339874704295, 0.08076937934382938],
  "P": 3,
  "Problem": "MCP",
  "QPU": "7000000",
  "Qubits": 6,
  "Shots": 4096,
  "Size": 6,
  "Total Algorithm duration [s]": 1.502,
  "Total Classic duration [s]": 1.4270604,
  "Total Quantum duration [s]": 0.07493959999999998
}
