{
  "Depth": 113.0,
  "Expectation Value": -7.668639183044434,
  "Job durations [ms]": [0.7528, 0.7368, 0.7454000000000001, 0.7216, 0.8359, 0.833, 0.7313000000000001, 0.7301, 0.8272, 0.7413, 0.7369, 0.8130000000000001, 1.1216, 0.747, 0.7479, 0.8907, 0.7543, 0.9531999999999999, 0.733, 0.8109999999999999, 0.7656, 0.7426, 0.8468, 0.7184999999999999, 0.7309, 0.7591, 0.7374999999999999, 0.9211999999999999, 0.8519000000000001, 0.8218, 0.7273, 0.8080999999999999, 1.1614, 0.9939, 0.8275, 0.8128000000000001, 0.8069000000000001, 0.8984000000000001, 0.8113, 0.8206, 0.7248, 0.8603999999999999, 0.6552, 0.7298, 0.6828, 0.8687, 0.8801, 0.7308, 0.6267, 0.9042, 0.6927, 0.7357, 0.9510000000000001, 0.8647, 0.7384, 1.0552000000000001, 0.7099, 0.6993, 0.7431, 0.7321, 0.87, 0.7169, 0.7438, 0.733, 0.9684999999999999, 0.8119, 0.7277, 0.9112, 0.7475999999999999, 0.9528, 0.8662, 1.111, 0.741, 0.8165, 0.7403000000000001, 0.803, 0.728, 0.8729, 0.7337999999999999, 0.8126, 0.7324, 0.7427, 0.8164, 0.7274999999999999, 0.7385, 0.8184, 0.7347, 1.1193, 0.7709, 0.8463999999999999, 0.7969999999999999, 1.1623, 0.876, 0.7673, 0.7501, 1.1125, 1.0283, 0.8109000000000001, 0.8662, 0.8622000000000001, 0.7295999999999999, 0.8317],
  "Optimal Expectation Value": -8.0,
  "Optimizer durations [ms]": [17.429, 17.861, 17.305, 15.056, 13.752, 13.558, 17.574, 9.82, 13.433, 17.465, 17.533, 10.345, 17.081, 17.709, 13.887, 10.685, 12.986, 17.056, 15.38, 10.586, 14.462, 17.681, 13.708, 15.596, 16.967, 18.014, 17.325, 10.44, 14.105, 16.861, 14.78, 13.089, 16.743, 17.171, 13.672, 13.502, 9.147, 14.382, 13.683, 11.74, 15.426, 12.322, 11.751, 17.755, 16.823, 15.366, 14.271, 15.115, 11.654, 14.899, 17.115, 16.038, 14.823, 13.159, 14.466, 12.38, 17.233, 17.33, 17.491, 16.817, 14.093, 17.364, 14.221, 14.61, 15.037, 13.333, 17.731, 16.782, 17.538, 16.626, 13.036, 15.257, 17.456, 13.319, 17.791, 13.063, 17.466, 13.966, 17.328, 13.697, 17.714, 17.49, 13.423, 17.325, 14.16, 9.38, 15.265, 16.524, 16.753, 13.36, 9.032, 16.952, 13.887, 13.43, 16.765, 14.183, 16.334, 13.581, 16.667, 12.396, 17.486, 12.303],
  "Optimizer iterations": 102,
  "Optimizer params": [0.06071813595738199, 0.9320210712695579, 0.9202157916122367, 0.19980647508229302, 0.996743811994038, 0.3297818210621858],
  "P": 3,
  "Problem": "MCP",
  "QPU": "7000000",
  "Qubits": 6,
  "Shots": 4096,
  "Size": 6,
  "Total Algorithm duration [s]": 1.526,
  "Total Classic duration [s]": 1.4428363,
  "Total Quantum duration [s]": 0.08316370000000002
}
