{
  "Depth": 113.0,
  "Expectation Value": -7.561481475830078,
  "Job durations [ms]": [0.7649999999999999, 0.7564, 0.7324999999999999, 0.7378, 0.9158999999999999, 0.8277, 0.7494, 1.0532, 0.716, 0.7253000000000001, 0.7382000000000001, 0.8474999999999999, 1.1360999999999999, 0.7161, 1.0070000000000001, 0.7057, 0.7052999999999999, 0.7341, 0.6986, 0.832, 0.9498, 0.9379, 0.7632, 0.8312, 0.8817, 0.8642, 0.8506, 0.7376, 0.8309, 0.7492, 0.5942000000000001, 0.7361, 0.8308, 0.8398, 0.7263000000000001, 0.7274999999999999, 0.7163, 0.7954, 0.7596, 0.7199, 0.4209, 0.7523, 0.728, 0.8164, 0.7359, 0.737, 0.824, 0.8531, 0.8026, 0.8179, 0.7563, 0.8423, 0.7086, 0.7097, 1.1048, 0.93, 0.7259, 0.8248, 0.844, 1.2039, 0.9337, 0.8331999999999999, 0.9064, 0.8223, 0.8051, 0.8981, 0.7378, 0.8296, 1.0101, 0.7238, 0.7506, 0.7358, 0.7487, 1.1282, 0.847, 0.8006000000000001, 0.7577, 0.7371, 0.7163999999999999, 0.6845, 0.7651, 0.8331999999999999, 0.9744, 0.985, 0.7097, 0.735, 0.7121999999999999, 0.7622, 0.7315, 0.8336, 0.866, 0.6799, 0.7064, 0.8484, 0.7316, 0.7150000000000001, 0.8198, 0.7184, 1.1815, 0.7343999999999999, 0.7115, 0.9014, 1.0663, 0.716, 0.7402, 1.158, 0.821, 0.7389, 0.8392000000000001, 0.8333, 1.1068, 0.7096, 0.7144999999999999],
  "Optimal Expectation Value": -8.0,
  "Optimizer durations [ms]": [17.79, 17.498, 17.829, 14.576, 14.568, 13.558, 16.222, 14.511, 17.539, 17.355, 17.641, 12.584, 16.859, 12.431, 15.325, 17.219, 16.936, 12.751, 17.338, 13.681, 14.564, 13.984, 15.469, 13.647, 14.04, 16.393, 13.881, 14.166, 11.79, 17.756, 11.182, 17.304, 13.68, 13.477, 17.215, 17.619, 13.778, 14.733, 17.768, 17.356, 9.535, 17.555, 14.715, 13.579, 13.444, 17.632, 12.386, 13.885, 10.641, 12.63, 17.243, 13.795, 17.431, 17.314, 14.263, 16.936, 17.375, 13.606, 13.748, 17.464, 16.559, 9.622, 16.802, 13.685, 13.243, 14.276, 15.734, 13.614, 16.99, 16.53, 14.611, 17.878, 8.946, 16.782, 13.764, 13.635, 12.903, 14.51, 17.911, 16.976, 12.965, 13.584, 15.233, 17.003, 17.272, 17.375, 14.507, 16.716, 17.387, 13.458, 11.165, 12.382, 17.517, 13.747, 13.653, 17.516, 13.496, 17.18, 14.607, 16.131, 17.039, 14.662, 14.561, 17.269, 13.166, 15.546, 11.595, 13.638, 13.943, 13.727, 16.776, 13.271, 16.302],
  "Optimizer iterations": 113,
  "Optimizer params": [0.9560564110096833, 0.3462200440765545, 0.9289559057431032, 0.26101748815052905, 0.7870583467299894, 0.648450473698714],
  "P": 3,
  "Problem": "MCP",
  "QPU": "7000000",
  "Qubits": 6,
  "Shots": 4096,
  "Size": 6,
  "Total Algorithm duration [s]": 1.698,
  "Total Classic duration [s]": 1.6064129,
  "Total Quantum duration [s]": 0.09158709999999999
}
