{
  "Depth": 113.0,
  "Expectation Value": -7.838423728942871,
  "Job durations [ms]": [0.5539, 0.7259, 0.7240000000000001, 0.9268, 0.7519, 0.7314, 0.7199, 0.7302, 0.7259, 0.7976, 0.7207, 1.1486999999999998, 0.703, 0.9058999999999999, 0.8753, 0.7902, 0.744, 0.782, 0.7459, 0.7173, 0.8979, 0.7258, 0.7016, 0.9585, 0.7581, 0.7334, 0.7125, 0.9107, 0.7435, 0.7979, 1.0407000000000002, 0.7078, 0.7208, 0.7557, 0.7226999999999999, 0.7258, 0.7253000000000001, 1.0135, 0.7322, 0.9645, 0.739, 0.7303000000000001, 0.9517, 0.7081999999999999, 0.7334, 0.7293, 0.9696, 0.7125, 0.7265, 0.7086, 0.7169, 0.712, 0.7286, 0.7747, 0.747, 0.7126, 0.7438, 0.7058, 0.7525999999999999, 0.8077, 0.7431, 0.7010000000000001, 0.7115999999999999, 1.0808, 0.7334, 1.0947, 0.7184999999999999, 0.7172, 0.7253999999999999, 1.1092, 1.1134000000000002, 0.7255999999999999, 0.7273, 0.9509, 1.1139999999999999, 0.7306, 0.8739, 0.8165, 0.8252999999999999, 0.8080999999999999, 0.7197, 0.7356],
  "Optimal Expectation Value": -8.0,
  "Optimizer durations [ms]": [10.983, 17.388, 17.375, 14.733, 17.474, 17.258, 16.205, 16.848, 17.288, 13.225, 14.534, 16.722, 17.308, 16.799, 14.472, 13.708, 16.131, 16.784, 15.864, 17.321, 14.413, 17.303, 13.588, 12.382, 17.738, 17.475, 14.008, 12.162, 17.317, 13.365, 13.905, 15.091, 15.966, 17.451, 17.322, 15.0, 16.827, 17.087, 12.95, 15.965, 17.282, 17.533, 16.01, 17.177, 13.771, 17.537, 15.299, 15.947, 17.501, 17.077, 17.326, 16.439, 17.25, 18.037, 16.745, 15.941, 16.959, 17.009, 14.355, 9.247, 17.873, 16.345, 13.618, 16.892, 17.397, 16.845, 17.262, 17.385, 17.256, 13.164, 16.429, 15.756, 12.894, 15.52, 17.005, 17.378, 14.19, 11.922, 11.52, 13.273, 13.909, 15.15],
  "Optimizer iterations": 82,
  "Optimizer params": [0.5098643769256227, 0.03048416659203096, 0.34212654684820387, 0.05086995714109842, 0.3908491840773311, 0.6156392045252221],
  "P": 3,
  "Problem": "MCP",
  "QPU": "7000000",
  "Qubits": 6,
  "Shots": 4096,
  "Size": 6,
  "Total Algorithm duration [s]": 1.289,
  "Total Classic duration [s]": 1.223844,
  "Total Quantum duration [s]": 0.065156
}
