{
  "Depth": 113.0,
  "Expectation Value": -7.802371501922607,
  "Job durations [ms]": [0.7667, 0.7513, 0.8115, 0.7301, 0.7255999999999999, 0.7345, 0.8167, 0.7802, 0.7366, 0.8484, 1.0793000000000001, 0.9716, 0.7384, 0.7279, 1.1241, 0.7211, 0.7232000000000001, 0.8196, 0.7408, 0.8598, 0.7385999999999999, 0.9351999999999999, 0.8711, 0.722, 0.8487, 1.026, 0.7156, 0.7226, 0.7302, 0.851, 0.7114, 0.7221000000000001, 0.7618, 0.7173, 0.7239, 0.7142999999999999, 0.823, 0.7236, 0.7381, 0.8157000000000001, 0.7515999999999999, 0.7984, 0.7242000000000001, 0.6968, 0.8019999999999999, 0.7149, 0.7921999999999999, 0.8109000000000001, 0.7101, 0.9475, 0.602, 0.8215, 1.0997999999999999, 0.8064, 0.7212, 1.1653, 0.9455, 0.7655, 0.7293999999999999, 1.1279000000000001, 0.9734999999999999, 0.7089000000000001, 0.7676000000000001, 0.7306, 0.721, 0.8222, 0.7438, 0.8185, 0.8203, 0.7168, 0.7349, 0.7216, 0.7169, 0.9628, 0.7345999999999999, 0.8307, 0.7010000000000001, 1.1219, 0.906, 0.8154, 0.7377, 0.8441, 0.7426, 0.8104, 0.7337, 0.8154, 0.8136],
  "Optimal Expectation Value": -8.0,
  "Optimizer durations [ms]": [18.004, 17.802, 13.307, 15.05, 16.96, 17.799, 13.634, 15.772, 17.72, 13.917, 13.636, 14.906, 17.691, 17.385, 16.649, 13.713, 17.614, 13.253, 16.421, 10.736, 17.629, 16.945, 12.627, 17.472, 12.05, 16.81, 16.037, 17.305, 17.711, 11.09, 15.361, 17.47, 17.502, 14.124, 17.515, 17.578, 10.041, 16.735, 17.78, 10.634, 16.889, 14.728, 17.506, 17.089, 13.281, 16.619, 18.026, 9.216, 13.541, 12.974, 11.469, 9.124, 16.923, 12.791, 17.721, 16.836, 11.959, 16.816, 17.247, 14.407, 16.809, 17.167, 16.577, 14.571, 14.346, 11.059, 17.565, 14.806, 13.472, 17.334, 17.595, 14.313, 14.579, 12.629, 17.508, 13.814, 14.612, 16.197, 14.59, 13.483, 17.418, 13.686, 17.63, 13.313, 17.695, 10.768, 10.925],
  "Optimizer iterations": 87,
  "Optimizer params": [0.19547719019742707, 0.2594201507215087, 0.18518026398750298, 0.156405092528391, 0.4186031158547346, 0.5555116733641113],
  "P": 3,
  "Problem": "MCP",
  "QPU": "7000000",
  "Qubits": 6,
  "Shots": 4096,
  "Size": 6,
  "Total Algorithm duration [s]": 1.322,
  "Total Classic duration [s]": 1.2520808,
  "Total Quantum duration [s]": 0.06991920000000001
}
