{
  "Depth": 113.0,
  "Expectation Value": -7.613221645355225,
  "Job durations [ms]": [0.8082, 0.7404, 0.7808, 0.7326, 0.7315, 0.7397, 0.7126, 1.0972, 0.7241, 0.7388, 0.8861, 0.7266, 0.7201, 0.7683, 0.7293999999999999, 0.8285, 0.7121000000000001, 0.7373, 0.9789, 1.1239, 0.7521, 0.7112, 0.7224, 0.7309, 0.7069, 0.7525999999999999, 0.7167, 0.7181000000000001, 0.7485, 0.7246, 1.1128, 0.7397, 0.7200000000000001, 0.9289, 0.7965, 1.0473, 0.7163, 0.736, 0.7172, 0.6765, 0.8132, 1.0632000000000001, 0.7329, 0.7286, 0.7232000000000001, 0.7094, 0.7178, 0.7675, 0.9014, 0.7561, 0.7538, 0.7302, 0.8048000000000001, 0.7162, 1.0587000000000002, 0.7272, 0.7203, 0.87, 0.7461, 0.7396, 0.7443000000000001, 1.1785999999999999, 0.8825000000000001, 0.8180000000000001, 0.9215, 0.7258, 0.7192999999999999, 0.7373, 0.7624, 0.8218, 0.7295999999999999, 0.7404, 1.0338, 0.7084, 0.8125, 0.7281, 1.1174, 1.0096, 0.8006000000000001, 0.748, 0.8639, 0.7157, 0.7177, 0.737, 0.7039000000000001, 0.7464999999999999, 0.7187, 0.9963000000000001, 0.7618, 0.7453, 0.7348, 0.7175, 0.7312, 0.7351000000000001, 0.9618, 0.7351000000000001, 0.9942, 0.7384, 1.0069000000000001, 0.7019, 0.9634, 0.8754000000000001, 0.8257, 0.733, 0.7431, 0.7253999999999999, 0.9648, 0.7416, 1.0759, 0.7068000000000001, 0.815, 0.7226, 0.734, 0.7231, 0.7086, 0.8096, 0.7459, 0.9257, 0.9245, 0.8278, 1.0665, 0.741, 0.825, 0.8223, 0.9395, 0.9613999999999999, 0.8342, 0.7451, 0.7043],
  "Optimal Expectation Value": -8.0,
  "Optimizer durations [ms]": [13.543, 17.34, 18.0, 15.158, 17.492, 17.621, 15.568, 13.454, 14.538, 17.515, 16.924, 15.179, 17.482, 17.721, 14.835, 13.655, 17.269, 17.347, 17.423, 16.896, 17.629, 16.898, 17.232, 13.137, 17.253, 17.007, 16.984, 17.584, 17.308, 13.052, 13.183, 14.732, 17.291, 12.65, 12.814, 14.335, 17.268, 15.617, 17.319, 16.729, 13.556, 13.428, 17.233, 17.618, 17.409, 15.355, 14.008, 17.765, 16.848, 17.493, 15.774, 17.238, 15.398, 17.113, 16.069, 17.203, 17.466, 13.345, 15.096, 17.697, 17.625, 17.195, 16.896, 12.583, 14.779, 13.111, 13.808, 17.66, 16.969, 13.009, 17.347, 17.458, 16.876, 12.569, 13.414, 17.457, 14.963, 16.489, 13.304, 15.188, 14.145, 13.02, 17.029, 14.289, 16.784, 17.233, 17.153, 12.032, 17.555, 17.699, 16.072, 17.409, 17.31, 14.695, 16.929, 17.318, 15.56, 13.337, 13.693, 17.146, 13.417, 13.929, 12.453, 17.271, 15.009, 17.596, 16.684, 17.388, 14.301, 17.245, 13.198, 17.046, 15.934, 17.291, 14.525, 13.377, 16.997, 17.016, 16.96, 13.4, 16.905, 13.245, 13.604, 13.485, 16.913, 13.66, 13.607, 17.617, 17.208],
  "Optimizer iterations": 129,
  "Optimizer params": [0.18372365614698782, 0.10855499145619982, 0.9993931089969281, 0.6574828156035121, 0.2738714443225058, 0.661558928438047],
  "P": 3,
  "Problem": "MCP",
  "QPU": "7000000",
  "Qubits": 6,
  "Shots": 4096,
  "Size": 6,
  "Total Algorithm duration [s]": 2.036,
  "Total Classic duration [s]": 1.9322927,
  "Total Quantum duration [s]": 0.10370729999999999
}
