{
  "Circuit execution durations [ms]": [35.0, 29.0, 30.0, 28.0, 27.0, 28.0, 31.0, 27.0, 34.0, 27.0, 32.0, 28.0, 33.0, 30.0, 35.0, 19.0, 34.0, 28.0, 25.0, 37.0, 27.0, 25.0, 28.0, 32.0, 29.0, 45.0, 26.0, 47.0, 31.0, 26.0, 40.0, 31.0, 25.0, 27.0, 31.0, 32.0, 24.0, 29.0, 51.0, 29.0, 29.0, 28.0, 30.0, 28.0, 25.0, 30.0, 30.0, 29.0, 30.0, 29.0, 29.0, 26.0, 33.0, 30.0, 33.0, 30.0, 37.0, 29.0, 26.0, 28.0, 27.0, 32.0, 28.0, 32.0, 27.0, 32.0, 27.0, 28.0, 27.0, 37.0, 32.0, 40.0, 30.0, 35.0, 28.0, 24.0, 19.0, 22.0, 28.0, 33.0, 33.0, 32.0, 29.0, 34.0, 21.0, 32.0, 27.0, 33.0, 21.0, 29.0, 30.0, 31.0, 29.0, 23.0, 38.0, 47.0, 34.0, 39.0, 36.0, 26.0, 62.0, 41.0, 34.0],
  "Depth": 113.0,
  "Expectation Value": -7.07861328125,
  "Optimal Expectation Value": -8.0,
  "Optimizer durations [ms]": [5963.892, 6169.582, 6066.998, 5894.958, 6141.484, 6023.493, 6157.948, 5947.462, 5889.346, 6123.792, 6026.345, 5977.6, 5945.89, 5933.528, 5958.565, 6183.853, 5956.779, 5955.459, 5919.906, 5931.656, 5953.279, 5893.521, 5948.867, 5999.728, 5873.646, 6035.013, 5892.17, 5992.084, 5910.583, 5900.455, 5983.695, 5803.506, 5924.92, 5940.02, 5841.229, 5978.695, 5955.322, 5916.564, 6119.69, 6177.118, 6003.508, 5928.553, 5870.94, 5904.101, 6304.372, 6116.943, 5938.378, 5956.916, 5920.524, 5883.45, 6166.26, 5912.083, 6005.028, 6288.659, 6087.106, 6059.524, 5909.108, 6054.095, 6030.342, 5990.787, 6011.444, 6128.396, 5941.044, 6096.766, 5994.55, 5944.498, 6151.144, 5951.271, 5905.44, 5896.849, 6023.291, 5919.84, 6105.654, 6122.209, 5902.507, 5973.217, 5955.99, 6388.257, 5988.202, 5976.542, 6020.054, 5951.226, 5901.35, 5943.323, 5861.528, 6234.773, 5976.076, 6043.103, 5956.648, 5970.69, 5957.149, 6063.583, 5851.669, 5888.433, 5936.028, 6191.29, 5927.536, 5898.757, 6134.713, 5915.728, 6029.495, 5952.419, 6166.679],
  "Optimizer iterations": 103,
  "Optimizer params": [0.7331279088325785, 0.006540701683737896, 0.37859953084641845, 0.5927720344999249, 0.9650076642859445, 0.29734358689302376],
  "P": 3,
  "Problem": "MCP",
  "QJob durations [ms]": [5904.491424560547, 6109.766244888306, 6007.143497467041, 5836.065769195557, 6081.598997116089, 5963.43207359314, 6099.823951721191, 5886.761665344238, 5833.117961883545, 6065.515041351318, 5969.951629638672, 5919.3830490112305, 5887.5486850738525, 5873.0785846710205, 5899.575233459473, 6122.892141342163, 5898.051738739014, 5898.653984069824, 5862.323760986328, 5873.813629150391, 5893.966913223267, 5836.2085819244385, 5889.814615249634, 5940.7384395599365, 5815.167665481567, 5974.978685379028, 5832.993745803833, 5933.762073516846, 5851.471185684204, 5841.028213500977, 5926.455974578857, 5744.530200958252, 5868.127346038818, 5880.178213119507, 5783.643960952759, 5920.879125595093, 5895.283937454224, 5857.74564743042, 6060.3344440460205, 6119.376659393311, 5944.863557815552, 5869.169235229492, 5810.717344284058, 5844.407796859741, 6245.797157287598, 6058.030128479004, 5881.278038024902, 5897.672176361084, 5861.796855926514, 5823.564052581787, 6108.280658721924, 5853.596925735474, 5948.727369308472, 6227.8711795806885, 6028.665781021118, 5999.253988265991, 5848.737955093384, 5994.698047637939, 5971.743583679199, 5932.176113128662, 5951.961040496826, 6071.233034133911, 5881.369113922119, 6038.91921043396, 5935.975551605225, 5884.49764251709, 6092.03028678894, 5892.788648605347, 5846.939325332642, 5837.189674377441, 5965.9388065338135, 5861.342191696167, 6046.484470367432, 6062.0927810668945, 5844.097375869751, 5913.353681564331, 5895.468235015869, 6330.716371536255, 5929.79097366333, 5918.53141784668, 5962.0654582977295, 5892.803430557251, 5839.791059494019, 5885.77675819397, 5802.085638046265, 6179.051876068115, 5918.709993362427, 5984.516143798828, 5898.908376693726, 5909.883260726929, 5899.465560913086, 6003.077268600464, 5795.20320892334, 5829.319000244141, 5877.704858779907, 6130.703687667847, 5868.8859939575195, 5840.183734893799, 6075.740575790405, 5857.932806015015, 5969.353437423706, 5893.044233322144, 6107.162714004517],
  "QPU": "10000001",
  "Qubits": 6,
  "Queue durations [ms]": [0.0, 0.0, 0.0, 0.0, 0.0, 0.0, 0.0, 0.0, 0.0, 0.0, 0.0, 0.0, 0.0, 0.0, 0.0, 0.0, 0.0, 0.0, 0.0, 0.0, 0.0, 0.0, 0.0, 0.0, 0.0, 0.0, 0.0, 0.0, 0.0, 0.0, 0.0, 0.0, 0.0, 0.0, 0.0, 0.0, 0.0, 0.0, 0.0, 0.0, 0.0, 0.0, 0.0, 0.0, 0.0, 0.0, 0.0, 0.0, 0.0, 0.0, 0.0, 0.0, 0.0, 0.0, 0.0, 0.0, 0.0, 0.0, 0.0, 0.0, 0.0, 0.0, 0.0, 0.0, 0.0, 0.0, 0.0, 0.0, 0.0, 0.0, 0.0, 0.0, 0.0, 0.0, 0.0, 0.0, 0.0, 0.0, 0.0, 0.0, 0.0, 0.0, 0.0, 0.0, 0.0, 0.0, 0.0, 0.0, 0.0, 0.0, 0.0, 0.0, 0.0, 0.0, 0.0, 0.0, 0.0, 0.0, 0.0, 0.0, 0.0, 0.0, 0.0],
  "Shots": 4096,
  "Size": 6,
  "Total Algorithm duration [s]": 617.688,
  "Total Classic duration [s]": 6.055188453674305,
  "Total Quantum duration [s]": 611.6328115463257
}
