{
  "Depth": 257.0,
  "Expectation Value": -20.0,
  "Job durations [ms]": [1.7604, 1.7316, 1.7741, 1.7566000000000002, 1.7469000000000001, 1.8088, 1.7887, 1.7767, 1.7787, 1.7687, 1.7407, 1.7699, 1.7316, 1.0441, 1.9453, 1.0465, 1.9913999999999998, 1.0579999999999998, 1.0412, 1.7711000000000001, 1.4581, 1.7731999999999999, 1.7726, 1.7946, 1.8021, 1.7719, 1.9564000000000001, 1.7627000000000002, 1.7507, 1.7440000000000002, 2.0029000000000003, 1.7859, 1.785, 1.7726, 1.7692, 1.7399, 1.7422, 1.7611, 1.7654, 1.7557, 1.7796, 1.8095999999999999, 1.7802, 1.7427, 1.7698, 1.8443, 1.7651, 1.7765000000000002, 1.7681, 1.7635999999999998, 1.9873, 1.779, 1.7664, 2.0022, 2.1042, 1.7507, 1.7588000000000001, 1.7623, 1.7518, 1.7044, 1.7737, 1.6975, 1.7547000000000001, 1.7473, 1.7723, 1.8229, 1.7763, 1.7539, 1.7521, 1.7554999999999998, 1.7867, 1.7752, 1.7637, 1.746, 1.7722],
  "Optimal Expectation Value": -20.0,
  "Optimizer durations [ms]": [30.835, 30.677, 31.016, 28.129, 30.99, 31.296, 31.102, 31.041, 30.926, 31.029, 30.624, 32.105, 30.705, 23.862, 27.99, 23.939, 27.699, 23.673, 24.004, 30.95, 20.536, 31.169, 31.174, 26.429, 31.486, 30.928, 30.227, 27.182, 30.869, 30.814, 27.476, 31.153, 31.161, 31.276, 31.111, 30.736, 30.81, 30.921, 31.021, 30.956, 31.238, 31.609, 31.13, 30.552, 30.823, 31.835, 30.978, 31.111, 31.21, 30.901, 27.479, 30.913, 30.786, 30.438, 26.036, 30.843, 31.891, 31.044, 30.597, 30.411, 31.131, 30.453, 30.783, 31.047, 31.173, 31.654, 30.975, 31.119, 30.692, 31.109, 31.068, 31.04, 31.033, 30.704, 31.233],
  "Optimizer iterations": 75,
  "Optimizer params": [0.02977598127642509, 0.8301253506463417, 0.7419729777636597, 0.690322517940994, 0.2231755140102062, 0.4953048849383804],
  "P": 3,
  "Problem": "MCP",
  "QPU": "7000000",
  "Qubits": 14,
  "Shots": 4096,
  "Size": 14,
  "Total Algorithm duration [s]": 2.257,
  "Total Classic duration [s]": 2.1260862,
  "Total Quantum duration [s]": 0.13091380000000002
}
