{
  "Depth": 257.0,
  "Expectation Value": -18.9158878326416,
  "Job durations [ms]": [1.9285, 1.9147, 1.9474, 2.1232, 2.1005, 1.9358000000000002, 1.9992, 2.163, 1.928, 1.7583, 1.9429, 1.9127, 1.9109, 1.9694999999999998, 2.0072, 1.9395, 1.9635, 1.9128999999999998, 1.9402, 1.9471, 1.9281000000000001, 1.9433, 1.931, 1.9385999999999999, 1.9305999999999999, 1.9264, 1.9459, 1.9197000000000002, 1.9763, 1.8134, 1.9405, 1.9555000000000002, 1.9196, 1.9342000000000001, 1.9395, 1.9173, 2.0045, 1.9302, 1.9317, 1.9273, 1.9434, 1.9401, 1.9381, 1.9116, 1.9413, 1.9919, 1.9889999999999999, 1.9331, 1.9480000000000002, 2.1678, 1.9965, 2.0932, 1.9453, 1.9922, 1.9233, 1.9409, 1.9502],
  "Optimal Expectation Value": -20.0,
  "Optimizer durations [ms]": [24.154, 22.77, 22.908, 29.767, 25.974, 22.781, 24.876, 25.266, 27.69, 30.7, 23.09, 24.422, 22.685, 23.384, 23.86, 22.947, 23.311, 22.549, 22.76, 23.151, 22.753, 23.099, 22.991, 23.081, 23.105, 22.796, 22.868, 22.479, 23.23, 29.181, 22.952, 23.001, 22.73, 22.892, 22.875, 22.675, 23.7, 22.598, 22.924, 23.008, 23.521, 22.821, 22.989, 22.814, 23.111, 23.542, 30.968, 23.251, 22.997, 25.505, 28.422, 27.259, 23.251, 23.599, 28.522, 22.752, 23.098],
  "Optimizer iterations": 57,
  "Optimizer params": [0.7941691753070659, 0.8711898888173374, 0.7112361886578233, 0.5420918136125348, 0.6222610994369212, 0.5182598541920482],
  "P": 3,
  "Problem": "MCP",
  "QPU": "7000000",
  "Qubits": 14,
  "Shots": 4096,
  "Size": 14,
  "Total Algorithm duration [s]": 1.372,
  "Total Classic duration [s]": 1.2605555000000002,
  "Total Quantum duration [s]": 0.11144449999999997
}
