{
  "Depth": 257.0,
  "Expectation Value": -19.0,
  "Job durations [ms]": [1.8126, 1.742, 1.7566000000000002, 2.1738, 1.7876, 1.7473, 1.7752, 1.7861, 1.7556, 1.782, 1.7701, 1.7728, 1.7773999999999999, 1.7394, 1.7852000000000001, 1.758, 1.7486, 1.7683, 2.1978, 1.7712999999999999, 1.7783, 1.7319, 1.7167000000000001, 1.7685000000000002, 1.7374, 1.7526, 1.7679, 1.7483, 1.7703, 1.7351999999999999, 1.7711000000000001, 1.7387, 1.7477, 1.7825, 1.7244000000000002, 1.7509, 1.7489999999999999, 1.977, 1.7677999999999998, 1.7771, 1.9784, 2.0406, 1.7183000000000002, 1.758, 1.8034999999999999, 1.7828, 1.7799, 1.786, 1.7447000000000001, 1.7437, 1.7786, 1.7744, 1.7577999999999998, 1.7685000000000002, 1.7554999999999998, 1.7567, 1.9853, 1.7157, 1.7440000000000002, 1.9363, 1.7631000000000001, 1.7612, 1.7431, 1.7332999999999998, 1.7338, 1.7821, 1.7638, 1.7447000000000001, 1.7260000000000002, 1.7895999999999999, 1.7118, 1.7881, 1.7701, 1.7251, 1.7444, 1.7742, 1.957, 1.7577999999999998, 1.7511, 1.7762, 1.734, 1.7757999999999998, 1.7599, 1.7363000000000002, 1.7506],
  "Optimal Expectation Value": -20.0,
  "Optimizer durations [ms]": [31.234, 30.519, 30.91, 27.504, 31.253, 30.617, 31.104, 31.192, 30.759, 31.17, 31.071, 30.989, 31.107, 30.798, 31.102, 30.806, 30.899, 27.906, 30.788, 30.809, 31.045, 27.185, 30.416, 30.928, 30.524, 30.858, 30.905, 30.568, 30.921, 30.525, 30.833, 30.723, 30.637, 30.95, 30.593, 30.739, 30.888, 27.163, 30.873, 30.996, 30.253, 27.265, 30.398, 30.688, 31.059, 30.907, 31.052, 31.084, 30.438, 30.747, 30.855, 31.089, 30.793, 31.027, 30.889, 30.78, 27.293, 30.473, 30.551, 30.09, 28.165, 30.725, 30.644, 30.841, 30.653, 31.023, 30.729, 29.964, 30.579, 31.253, 30.493, 31.18, 30.97, 27.498, 31.888, 31.024, 30.62, 30.382, 30.415, 31.18, 26.465, 30.973, 31.101, 30.916, 30.682],
  "Optimizer iterations": 85,
  "Optimizer params": [0.6756592405406088, 0.10425823724201656, 0.5052234702145691, 0.7139186136691997, 0.7363672401240589, 0.22636454106412562],
  "P": 3,
  "Problem": "MCP",
  "QPU": "7000000",
  "Qubits": 14,
  "Shots": 4096,
  "Size": 14,
  "Total Algorithm duration [s]": 2.589,
  "Total Classic duration [s]": 2.4373372,
  "Total Quantum duration [s]": 0.1516628
}
