{
  "Depth": 257.0,
  "Expectation Value": -20.0,
  "Job durations [ms]": [1.8439999999999999, 1.7795, 1.7757, 1.9941999999999998, 1.7589000000000001, 1.7437, 1.7712999999999999, 1.7523, 1.7511, 1.7971000000000001, 1.0611, 1.0774000000000001, 1.779, 1.0515999999999999, 1.7649, 1.0453000000000001, 1.7832, 1.0612, 1.7773999999999999, 1.0378, 2.0181999999999998, 1.1178, 1.7742, 1.2844, 1.8917000000000002, 1.0565, 1.7423, 1.2843, 1.0323, 1.7887, 1.0346000000000002, 1.7855, 1.0702, 1.4399, 1.7448, 1.0544, 1.7539, 1.0878999999999999, 1.7734, 1.0674000000000001, 1.0181, 1.7863, 1.0732000000000002, 1.7744, 1.1169, 1.4432, 1.7862, 1.0399, 1.9491, 1.7891000000000001, 1.7673999999999999, 1.7757999999999998, 1.7684, 1.7411, 1.7643, 1.7542, 1.7596, 1.7341, 1.7105, 1.7427, 1.7439, 1.7677, 1.7689, 1.8024, 1.7483, 1.8541, 1.7949000000000002, 1.7481, 1.7551, 1.7584, 1.7736, 1.7691000000000001, 1.7706, 1.7481, 1.7518, 1.7630000000000001, 1.7304, 1.7473, 2.0125, 1.756, 1.7645, 1.7376],
  "Optimal Expectation Value": -20.0,
  "Optimizer durations [ms]": [31.436, 30.98, 30.778, 27.552, 30.885, 30.61, 31.078, 30.915, 30.872, 31.289, 23.812, 25.352, 31.221, 23.85, 30.802, 23.562, 28.484, 23.769, 31.211, 23.847, 27.291, 24.417, 30.827, 23.041, 30.895, 24.086, 30.008, 23.18, 23.613, 31.128, 23.522, 31.142, 23.794, 20.142, 27.956, 23.809, 30.465, 19.272, 30.929, 23.886, 23.615, 32.116, 24.036, 31.004, 24.322, 20.384, 31.143, 23.701, 30.108, 28.813, 30.559, 30.752, 27.261, 25.728, 30.926, 30.843, 30.778, 30.511, 30.214, 30.653, 30.737, 28.322, 27.985, 31.454, 30.722, 26.78, 31.294, 30.797, 31.0, 30.97, 31.07, 31.118, 30.777, 30.954, 30.617, 30.856, 30.619, 30.722, 27.849, 30.849, 30.793, 30.518],
  "Optimizer iterations": 82,
  "Optimizer params": [0.5858359188297795, 0.9999999999999999, 0.9902520365459617, 0.12583311898325278, 0.19948028524214187, 0.8274940596664583],
  "P": 3,
  "Problem": "MCP",
  "QPU": "7000000",
  "Qubits": 14,
  "Shots": 4096,
  "Size": 14,
  "Total Algorithm duration [s]": 2.33,
  "Total Classic duration [s]": 2.1984301,
  "Total Quantum duration [s]": 0.1315699
}
