{
  "Depth": 257.0,
  "Expectation Value": -16.094017028808594,
  "Job durations [ms]": [1.9456, 1.7570999999999999, 1.7445, 1.7649, 1.7873999999999999, 1.7642, 2.0132000000000003, 1.8233, 1.7897, 1.7675, 1.7329999999999999, 1.7857999999999998, 1.8163, 1.7815999999999999, 1.7612, 1.7611, 1.7496, 1.7602, 1.7585000000000002, 1.7497, 1.7725, 1.7590999999999999, 1.7442, 1.7753, 1.7763, 1.7803, 1.7832, 1.7392, 1.7696, 1.9909, 2.0574999999999997, 1.7912, 1.841, 1.9559, 1.7579, 1.7834, 1.7682, 1.7529, 1.7773999999999999, 1.7711000000000001, 1.7719, 1.7453, 1.758, 1.7496, 1.7210999999999999, 1.7693999999999999, 1.7185, 1.7836, 1.7808, 1.784, 1.7463, 1.7956, 1.7827, 1.7912, 1.8034999999999999, 1.7425, 1.7723, 1.7638],
  "Optimal Expectation Value": -20.0,
  "Optimizer durations [ms]": [28.072, 31.037, 30.752, 27.97, 31.202, 31.047, 30.253, 28.322, 31.115, 30.918, 30.49, 31.021, 30.909, 30.98, 30.962, 30.952, 30.703, 30.92, 32.101, 30.677, 30.873, 30.75, 32.069, 30.99, 31.048, 31.157, 28.206, 30.642, 30.992, 30.178, 27.438, 31.291, 31.54, 29.424, 30.874, 31.044, 30.854, 30.917, 31.161, 31.107, 31.008, 30.741, 30.975, 32.071, 30.518, 32.114, 30.427, 31.096, 31.035, 31.706, 30.981, 32.402, 31.211, 31.185, 31.304, 30.883, 30.91, 32.096],
  "Optimizer iterations": 58,
  "Optimizer params": [0.7668313665467391, 0.953018636721209, 0.19814835194993968, 0.27427984198406724, 0.8901586664655126, 0.8485026982858481],
  "P": 3,
  "Problem": "MCP",
  "QPU": "7000000",
  "Qubits": 14,
  "Shots": 4096,
  "Size": 14,
  "Total Algorithm duration [s]": 1.785,
  "Total Classic duration [s]": 1.6812584,
  "Total Quantum duration [s]": 0.10374160000000002
}
