{
  "Depth": 257.0,
  "Expectation Value": -19.6875,
  "Job durations [ms]": [1.7699, 1.7543000000000002, 1.7316, 1.7747, 1.7586, 1.7727000000000002, 1.7968000000000002, 1.9559999999999997, 1.7712999999999999, 1.7837, 1.9848999999999999, 1.7812, 1.7616, 1.7830000000000001, 1.0614999999999999, 1.753, 1.0604, 2.0140000000000002, 1.0471, 1.0690000000000002, 2.0362, 1.4317, 1.7995, 1.0588, 1.7411, 1.0268, 1.0344, 1.7556, 1.8137999999999999, 1.756, 1.7403, 1.796, 1.7883, 2.0244999999999997, 1.7849000000000002, 1.7489000000000001, 1.7885, 1.785, 1.7383, 1.7725, 1.7718, 1.7619999999999998, 1.7834, 1.7451, 1.7706, 1.7602, 1.7572, 1.7914999999999999, 1.8236, 1.7633, 1.7635999999999998, 1.7422, 1.7852000000000001, 1.7183000000000002, 1.7497, 1.7626, 1.7501, 1.7707000000000002, 2.1484, 1.7823, 1.796, 1.7471999999999999, 1.8034, 1.776, 1.7544, 1.7711999999999999, 1.7688000000000001, 1.7403, 1.7651999999999999, 1.7547000000000001, 1.7673999999999999, 1.7683],
  "Optimal Expectation Value": -20.0,
  "Optimizer durations [ms]": [30.854, 30.759, 30.781, 31.032, 30.874, 30.942, 31.31, 27.971, 30.989, 31.182, 27.518, 31.101, 30.816, 31.022, 20.915, 30.652, 25.094, 27.827, 23.98, 23.851, 30.122, 19.597, 31.39, 23.95, 29.896, 23.27, 22.946, 31.045, 29.345, 28.008, 31.009, 31.346, 31.116, 25.779, 31.232, 30.88, 31.113, 31.352, 30.897, 31.092, 31.126, 30.891, 31.361, 30.851, 30.987, 30.906, 31.078, 31.549, 31.581, 30.874, 31.051, 30.822, 31.084, 30.524, 30.716, 30.968, 30.9, 30.949, 27.15, 31.021, 31.121, 30.811, 28.19, 30.826, 31.244, 28.821, 31.044, 30.91, 31.228, 30.85, 31.115, 30.901],
  "Optimizer iterations": 72,
  "Optimizer params": [0.926173128105466, 0.17697600537428687, 0.5503229466900493, 0.07282760492689402, 0.39281476276573474, 0.32218341088836205],
  "P": 3,
  "Problem": "MCP",
  "QPU": "7000000",
  "Qubits": 14,
  "Shots": 4096,
  "Size": 14,
  "Total Algorithm duration [s]": 2.138,
  "Total Classic duration [s]": 2.0144789,
  "Total Quantum duration [s]": 0.1235211
}
