{
  "Depth": 4.5,
  "Expectation Value": -1.0,
  "Job durations [ms]": [0.07974999971338548, 0.10230000043520704, 0.07724999886704609, 0.07929999992484227, 0.076299998909235, 0.08449999950244091, 0.08040000102482736, 0.08834999971440993, 0.07389999882434495, 0.08259999958681874, 0.1727499984554015, 0.2227000004495494, 0.09890000001178123, 0.1389500030199997, 0.09594999937689863, 0.09625000166124664, 0.08650000017951243, 0.08615000115241855, 0.11594999887165613, 0.08715000149095431, 0.15294999684556387, 0.08244999844464473, 0.0794000006862916, 0.09649999992689118, 0.0790999984019436, 0.07229999755509198, 0.08145000174408779, 0.07745000038994476, 0.07590000313939527, 0.219899997318862, 0.07824999920558184, 0.07980000009411015, 0.08565000098315068, 0.10054999802378006, 0.09820000195759349, 0.07829999958630651, 0.08624999827588908],
  "Optimal Expectation Value": -1.0,
  "Optimizer durations [ms]": [18.978, 21.739, 20.041, 14.745, 21.04, 22.051, 14.499, 17.175, 17.781, 15.688, 17.179, 20.585, 18.059, 18.401, 14.777, 21.362, 19.977, 20.33, 20.002, 15.116, 17.766, 21.73, 21.931, 11.243, 20.012, 15.284, 17.855, 19.447, 17.842, 19.43, 21.139, 16.611, 21.715, 19.729, 14.927, 16.044, 21.783],
  "Optimizer iterations": 37,
  "Optimizer params": [0.5, 0.5, 0.5, 0.5],
  "P": 0,
  "Problem": "IC",
  "QPU": "7000000",
  "Qubits": 1,
  "Shots": 4096,
  "Size": 1,
  "Total Algorithm duration [s]": 0.684,
  "Total Classic duration [s]": 0.680349700006249,
  "Total Quantum duration [s]": 0.003650299993751105
}
