{
  "Depth": 4.5,
  "Expectation Value": -1.0,
  "Job durations [ms]": [0.16655000217724591, 0.1765999913914129, 0.08569999772589654, 0.07584999912069179, 0.10504999954719096, 0.0840499997138977, 0.0868500028445851, 0.08565000098315068, 0.07869999899412505, 0.07555000047432259, 0.07689999983995222, 0.18615000590216368, 0.08945000081439503, 0.13970000145491213, 0.08355000318260863, 0.15779999739606865, 0.08379999781027436, 0.08069999967119657, 0.17194999600178562, 0.16055000014603138, 0.08884999988367781, 0.2859499945770949, 0.07679999907850288, 0.19489999976940453, 0.07705000098212622, 0.08764999802224338, 0.20560000120894983, 0.09929999941959977, 0.07860000187065452, 0.1717000013741199, 0.09254999895347282, 0.07850000110920519, 0.08290000187116675, 0.08555000022170134, 0.07674999869777821, 0.09964999844669364, 0.08019999950192869],
  "Optimal Expectation Value": -1.0,
  "Optimizer durations [ms]": [17.832, 19.435, 17.351, 18.427, 18.07, 17.141, 22.145, 21.944, 15.757, 19.674, 17.251, 18.243, 15.448, 17.496, 10.243, 21.309, 19.357, 14.697, 14.189, 15.38, 21.854, 21.127, 17.756, 21.405, 15.619, 16.696, 21.317, 21.35, 20.804, 11.355, 18.472, 16.371, 19.887, 17.159, 13.903, 18.894, 21.5],
  "Optimizer iterations": 37,
  "Optimizer params": [0.5, 0.5, 0.5, 0.5],
  "P": 0,
  "Problem": "IC",
  "QPU": "7000000",
  "Qubits": 1,
  "Shots": 4096,
  "Size": 1,
  "Total Algorithm duration [s]": 0.666,
  "Total Classic duration [s]": 0.6617864000098198,
  "Total Quantum duration [s]": 0.004213599990180228
}
