{
  "Depth": 4.5,
  "Expectation Value": -1.0,
  "Job durations [ms]": [0.08819999857223593, 0.0744500030123163, 0.2765499957604334, 0.08024999988265336, 0.08614999751443975, 0.09054999827640131, 0.08494999929098412, 0.07745000038994476, 0.20249999943189323, 0.08415000047534704, 0.08330000127898529, 0.2097000033245422, 0.08594999962951988, 0.2822499955072999, 0.09589999899617396, 0.08750000051804818, 0.08615000115241855, 0.09045000115293078, 0.07724999886704609, 0.0775500011513941, 0.08299999899463728, 0.07384999844362028, 0.27159999808645807, 0.07795000055921264, 0.07684999945922755, 0.08549999984097667, 0.07750000077066943, 0.09934999980032444, 0.08594999962951988, 0.08959999831859022, 0.09465000039199367, 0.1908999984152615, 0.08600000001024455, 0.07410000034724362, 0.09380000119563192, 0.07624999852851033, 0.09344999853055924],
  "Optimal Expectation Value": -1.0,
  "Optimizer durations [ms]": [16.821, 20.678, 18.033, 19.617, 21.098, 21.73, 15.131, 21.627, 15.168, 14.376, 16.202, 15.701, 21.9, 15.498, 21.254, 17.095, 17.515, 8.814, 10.074, 19.187, 17.056, 21.839, 13.906, 13.801, 16.956, 15.182, 17.064, 14.317, 18.712, 18.175, 20.711, 20.114, 17.421, 21.623, 19.137, 16.916, 14.415],
  "Optimizer iterations": 37,
  "Optimizer params": [0.5, 0.5, 0.5, 0.5],
  "P": 0,
  "Problem": "IC",
  "QPU": "7000000",
  "Qubits": 1,
  "Shots": 4096,
  "Size": 1,
  "Total Algorithm duration [s]": 0.644,
  "Total Classic duration [s]": 0.6399485000144923,
  "Total Quantum duration [s]": 0.004051499985507689
}
