{
  "Depth": 4.5,
  "Expectation Value": -1.0,
  "Job durations [ms]": [0.2729499974520877, 0.1982000030693598, 0.09694999971543439, 0.08229999730247073, 0.08330000127898529, 0.07885000013629906, 0.21565000133705325, 0.07825000284356065, 0.08320000051753595, 0.08940000043367036, 0.10134999683941714, 0.07685000309720635, 0.1455999954487197, 0.26264999542036094, 0.07620000178576447, 0.0822000001790002, 0.07950000144774094, 0.0853000019560568, 0.18645000091055408, 0.09540000246488489, 0.19350000002305023, 0.07800000093993731, 0.09420000060345046, 0.07795000055921264, 0.08585000250604935, 0.07589999950141646, 0.07505000030505471, 0.08850000085658394, 0.08125000022118911, 0.07844999709050171, 0.22649999300483614, 0.07634999928995967, 0.08315000013681129, 0.0885500012373086, 0.17099999604397453, 0.0870000003487803, 0.08760000127949752],
  "Optimal Expectation Value": -1.0,
  "Optimizer durations [ms]": [21.483, 16.862, 17.576, 18.394, 18.215, 17.808, 16.718, 22.173, 20.671, 17.42, 13.645, 14.686, 16.67, 20.306, 19.542, 17.408, 18.551, 17.432, 18.884, 17.66, 17.714, 20.494, 18.6, 18.379, 18.239, 19.338, 21.993, 13.181, 19.857, 19.387, 17.653, 17.962, 21.7, 19.602, 17.234, 18.489, 18.157],
  "Optimizer iterations": 37,
  "Optimizer params": [0.5, 0.5, 0.5, 0.5],
  "P": 0,
  "Problem": "IC",
  "QPU": "7000000",
  "Qubits": 1,
  "Shots": 4096,
  "Size": 1,
  "Total Algorithm duration [s]": 0.68,
  "Total Classic duration [s]": 0.6757806500024163,
  "Total Quantum duration [s]": 0.004219349997583777
}
