{
  "Depth": 4.5,
  "Expectation Value": -1.0,
  "Job durations [ms]": [0.21835000370629132, 0.0794000006862916, 0.2799500034598168, 0.09504999979981221, 0.11205000191694126, 0.14675000056740828, 0.08164999962900765, 0.22205000277608633, 0.2692499947443139, 0.09134999709203839, 0.08549999984097667, 0.21830000332556665, 0.14829999781795777, 0.07534999895142391, 0.11995000022579916, 0.08489999891025946, 0.08789999992586672, 0.09700000009615906, 0.09710000085760839, 0.07845000072848052, 0.08159999924828298, 0.0886999987415038, 0.13535000107367523, 0.08270000034826808, 0.0758500027586706, 0.14084999929764308, 0.19719999181688763, 0.07994999759830534, 0.08789999992586672, 0.08795000030659139, 0.0839000022097025, 0.07609999738633633, 0.08514999717590399, 0.0885500012373086, 0.2813000028254464, 0.07864999861340038, 0.1324500008195173],
  "Optimal Expectation Value": -1.0,
  "Optimizer durations [ms]": [15.202, 17.742, 18.633, 14.99, 9.421, 16.705, 19.447, 15.296, 18.285, 17.68, 16.424, 21.333, 17.313, 17.316, 19.083, 14.522, 17.359, 12.578, 15.847, 19.421, 14.75, 18.85, 15.809, 21.653, 14.363, 12.589, 20.814, 15.335, 17.511, 13.293, 17.788, 13.01, 21.477, 10.749, 15.941, 15.923, 16.233],
  "Optimizer iterations": 37,
  "Optimizer params": [0.5, 0.5, 0.5, 0.5],
  "P": 0,
  "Problem": "IC",
  "QPU": "7000000",
  "Qubits": 1,
  "Shots": 4096,
  "Size": 1,
  "Total Algorithm duration [s]": 0.61,
  "Total Classic duration [s]": 0.6054272500035586,
  "Total Quantum duration [s]": 0.0045727499964414164
}
