{
  "Depth": 4.5,
  "Expectation Value": -1.0,
  "Job durations [ms]": [0.08019999950192869, 0.08224999692174606, 0.0792499995441176, 0.08729999899514951, 0.08159999924828298, 0.10104999819304794, 0.13475000378093682, 0.08900000102585182, 0.08729999899514951, 0.17235000632354058, 0.07745000038994476, 0.08100000195554458, 0.27060000502387993, 0.19820000670733862, 0.09140000111074187, 0.11810000432888046, 0.0834500024211593, 0.08225000055972487, 0.1053000014508143, 0.09270000009564683, 0.07859999823267572, 0.08555000022170134, 0.09575000149197876, 0.08665000132168643, 0.08499999967170879, 0.23160000273492187, 0.08675000208313577, 0.0900999984878581, 0.08309999975608662, 0.07810000170138665, 0.08425000123679638, 0.201149992790306, 0.32214999009738676, 0.08209999941755086, 0.08185000115190633, 0.17080000543501228, 0.08214999979827553],
  "Optimal Expectation Value": -1.0,
  "Optimizer durations [ms]": [21.374, 14.735, 17.447, 15.065, 19.893, 16.702, 21.595, 19.532, 17.77, 17.878, 19.573, 17.099, 17.919, 15.078, 17.249, 16.808, 13.581, 20.673, 17.479, 22.08, 14.074, 18.061, 14.314, 17.351, 15.464, 21.442, 21.133, 19.413, 15.727, 22.054, 16.71, 18.125, 16.973, 19.816, 17.028, 17.916, 17.668],
  "Optimizer iterations": 37,
  "Optimizer params": [0.5, 0.5, 0.5, 0.5],
  "P": 0,
  "Problem": "IC",
  "QPU": "7000000",
  "Qubits": 1,
  "Shots": 4096,
  "Size": 1,
  "Total Algorithm duration [s]": 0.662,
  "Total Classic duration [s]": 0.6577788499777962,
  "Total Quantum duration [s]": 0.004221150022203801
}
