{
  "Depth": 2.0,
  "Job durations [ms]": [16.69132709503174, 17.05455780029297, 16.819357872009277, 16.74354076385498, 17.272472381591797, 16.251683235168457, 17.191290855407715, 16.01886749267578, 16.91460609436035, 16.126394271850586, 15.61737060546875, 14.712333679199219, 14.590859413146973, 15.22219181060791, 15.11836051940918, 14.361143112182617, 14.666318893432617, 14.7247314453125, 14.789581298828125, 14.676928520202637, 15.878438949584961, 14.79184627532959, 17.792463302612305, 14.887332916259766, 14.541149139404297, 14.988064765930176, 14.597654342651367, 16.242027282714844, 14.917612075805664, 15.447378158569336, 14.990806579589844, 14.735221862792969, 14.657378196716309, 14.708518981933594, 14.485597610473633, 15.188932418823242, 15.647411346435547, 14.831185340881348, 14.724969863891602, 14.91999626159668, 14.681696891784668, 15.006065368652344, 14.917612075805664, 14.758467674255371, 14.88649845123291, 14.829277992248535, 16.315698623657227, 14.536738395690918, 14.372825622558594, 14.625191688537598, 15.142083168029785, 14.706969261169434, 14.55676555633545, 14.835953712463379, 14.755964279174805, 15.261054039001465, 15.186071395874023, 14.899015426635742, 14.813423156738281, 14.796018600463867, 14.296174049377441, 14.69731330871582, 14.684557914733887, 14.741301536560059, 14.784455299377441, 14.499187469482422, 14.676809310913086, 14.481544494628906, 14.704108238220215, 14.840483665466309, 15.303850173950195, 14.670610427856445, 14.868974685668945, 15.16425609588623, 14.845609664916992, 14.927506446838379, 14.833688735961914, 14.586091041564941, 15.02537727355957, 15.010833740234375, 14.766454696655273, 14.681696891784668, 14.369964599609375, 14.364004135131836, 14.725089073181152, 15.465021133422852, 14.778971672058105, 14.994144439697266, 14.879226684570312, 14.83619213104248, 14.472723007202148, 14.731884002685547, 14.317870140075684, 14.467954635620117, 14.318585395812988, 14.815330505371094, 14.71555233001709, 14.8773193359375, 15.10608196258545, 14.769554138183594, 14.702916145324707, 14.799237251281738, 14.90938663482666, 14.598727226257324, 14.949321746826172, 14.705896377563477, 14.318704605102539, 15.15209674835205, 15.12455940246582, 14.615297317504883, 14.72628116607666, 14.85753059387207, 14.703035354614258, 15.136957168579102, 15.73038101196289, 17.11881160736084, 14.517784118652344, 14.623761177062988, 15.366554260253906, 15.101432800292969, 15.329241752624512, 15.280485153198242, 15.078186988830566, 14.667391777038574, 15.346169471740723, 14.460921287536621, 15.024542808532715, 14.74153995513916, 14.727234840393066, 14.63615894317627, 15.205860137939453, 14.769673347473145, 15.038132667541504, 15.82491397857666, 14.81783390045166, 14.547228813171387, 14.919161796569824, 14.737844467163086, 14.699101448059082, 14.635682106018066, 14.688491821289062, 14.786958694458008, 14.705061912536621, 14.912247657775879, 14.72783088684082, 14.505267143249512, 14.645934104919434, 14.411330223083496, 14.4425630569458, 14.776349067687988, 15.078544616699219, 14.78421688079834, 14.569759368896484, 14.447450637817383, 15.0299072265625, 14.601588249206543, 15.134215354919434, 15.087604522705078, 14.905452728271484, 14.640331268310547, 14.67752456665039, 14.876604080200195, 14.621496200561523, 14.762401580810547, 14.885544776916504, 14.861583709716797, 15.033245086669922, 15.351653099060059, 14.757633209228516, 15.016317367553711, 14.676094055175781, 14.764189720153809, 14.693737030029297, 15.084624290466309, 14.958977699279785, 16.063570976257324, 14.832258224487305, 15.238046646118164],
  "Optimizer durations [ms]": [168.929, 229.719, 172.631, 166.319, 167.838, 221.308, 170.905, 160.751, 225.168, 169.223, 163.748, 162.841, 209.305, 161.297, 162.326, 164.492, 210.219, 159.871, 159.749, 158.525, 215.28, 167.46, 166.792, 216.752, 157.057, 159.293, 156.945, 223.488, 163.508, 162.446, 164.054, 209.49, 159.639, 156.633, 157.9, 217.357, 165.008, 158.255, 219.589, 164.205, 159.191, 164.041, 216.175, 159.76, 168.292, 164.958, 221.567, 160.05, 156.684, 157.162, 214.145, 165.07, 157.3, 210.664, 162.732, 164.328, 163.915, 216.094, 160.035, 168.356, 156.054, 211.623, 157.299, 157.618, 158.907, 211.186, 156.67, 158.816, 214.672, 160.328, 160.254, 163.384, 215.824, 164.088, 164.752, 163.121, 210.889, 162.117, 165.782, 159.231, 221.639, 160.814, 157.349, 205.208, 160.814, 160.342, 163.27, 213.883, 159.433, 161.523, 162.123, 209.149, 163.597, 158.017, 155.483, 211.206, 163.766, 160.56, 214.674, 163.905, 159.177, 162.166, 216.845, 160.984, 162.975, 163.785, 209.003, 165.996, 162.06, 159.105, 213.452, 162.633, 159.086, 231.349, 167.751, 167.888, 161.736, 207.026, 160.075, 160.626, 164.717, 212.567, 163.069, 163.183, 159.651, 211.563, 166.44, 161.001, 213.864, 163.516, 163.582, 160.924, 213.39, 161.44, 163.191, 160.71, 212.142, 157.519, 166.205, 158.813, 207.468, 161.435, 164.652, 209.756, 155.915, 160.057, 156.111, 205.974, 158.094, 168.141, 166.838, 209.43, 157.409, 159.39, 160.872, 213.666, 164.409, 160.711, 214.506, 158.551, 159.109, 163.445, 212.16, 166.079, 162.773, 163.903, 213.713, 164.493, 162.431, 160.104, 217.733, 157.801, 160.246, 213.39, 163.449, 163.747, 166.039, 215.47],
  "Optimizer iterations": 178,
  "Qubits": 9,
  "Total Algorithm duration [s]": 31.347,
  "Total Classic duration [s]": 28.678199765205385,
  "Total Quantum duration [s]": 2.6688002347946167,
  "Expectation Value": -5.570758819580078,
  "Optimal Expectation Value": -5.571199893951416,
  "Optimizer params": [0.9960018081964923, 0.5011853790961901, 1.0, 0.5033891141510506, 0.5007534139006083, 1.0, 0.5062920330435908, 0.5024014624857939, 0.9966971630608698],
  "QPU": "3010008",
  "Problem": "RH",
  "Size": 9,
  "P": 0,
  "Shots": 4096
}