{
  "Circuit execution durations [ms]": [105.68249225616455, 79.00643348693848, 80.25133609771729, 106.3145399093628, 80.6729793548584, 82.17191696166992, 80.63554763793945, 81.0396671295166, 79.10454273223877, 80.13665676116943, 84.07163619995117, 104.73859310150146, 78.9041519165039, 108.37030410766602, 79.8499584197998, 81.67910575866699, 80.28733730316162, 81.20036125183105, 82.94391632080078, 82.12387561798096, 82.28874206542969, 105.18741607666016, 80.67238330841064, 81.2913179397583, 104.04777526855469, 81.48705959320068, 104.99954223632813, 78.48310470581055, 82.34381675720215, 80.4978609085083, 78.81581783294678, 78.0421495437622, 79.67591285705566, 80.18219470977783, 80.04927635192871, 80.01971244812012, 78.91428470611572, 106.6749095916748, 79.19418811798096, 106.0565710067749, 81.15434646606445, 80.90901374816895, 105.71205615997314, 78.68480682373047, 80.15692234039307, 79.67543601989746, 80.91998100280762, 83.94742012023926, 79.1923999786377, 78.38618755340576, 107.74993896484375, 78.45211029052734, 105.31747341156006, 80.7260274887085, 81.91919326782227, 80.58559894561768, 81.66754245758057, 78.80198955535889, 81.4448595046997, 78.92143726348877, 109.89129543304443, 80.69849014282227, 79.37431335449219, 111.45281791687012, 78.07636260986328, 107.53965377807617, 83.26137065887451, 80.40642738342285, 105.2863597869873, 79.26023006439209, 80.86669445037842, 79.43534851074219, 79.28836345672607, 78.79900932312012, 85.3046178817749, 81.58648014068604, 111.92119121551514, 81.12180233001709, 105.24463653564453, 81.19428157806396, 79.72884178161621, 104.03966903686523, 79.60939407348633, 81.73060417175293, 83.87994766235352, 79.11396026611328, 83.19807052612305, 79.68366146087646, 80.1321268081665, 108.01875591278076, 80.00528812408447, 103.35278511047363, 82.84211158752441, 82.01587200164795, 105.7204008102417, 85.32881736755371, 83.90569686889648, 86.91227436065674, 83.58335494995117, 83.27221870422363, 82.70561695098877, 83.83941650390625, 107.74850845336914, 81.05754852294922, 107.4364185333252, 79.25760746002197, 82.55207538604736, 80.11341094970703, 79.7414779663086, 80.92117309570313, 81.43234252929688, 83.22262763977051, 109.42447185516357, 79.6271562576294, 82.5650691986084, 106.31716251373291, 78.33337783813477, 107.9258918762207, 81.73692226409912, 77.3380994796753, 78.8872241973877, 79.0565013885498, 78.64582538604736, 79.24056053161621, 77.92961597442627, 104.30777072906494, 79.66983318328857, 84.19930934906006, 107.75506496429443, 81.00974559783936, 110.55958271026611, 81.8490982055664, 80.82365989685059, 83.25588703155518, 81.96055889129639, 79.43284511566162, 84.10835266113281, 78.56214046478271, 80.9030532836914, 81.7415714263916, 80.71303367614746, 108.08682441711426, 79.35965061187744, 104.3020486831665, 81.72059059143066, 78.76574993133545, 109.82120037078857, 81.8713903427124, 81.68959617614746, 80.8185338973999, 80.16777038574219, 80.72292804718018, 78.3529281616211, 79.6513557434082, 106.72414302825928, 80.47223091125488, 105.51214218139648, 80.147385597229, 81.0176134109497, 80.3154706954956, 80.5521011352539, 80.60908317565918, 80.77824115753174, 79.70309257507324, 107.11753368377686, 80.52647113800049, 80.49964904785156, 107.8406572341919, 79.70106601715088, 105.90457916259766, 78.44746112823486, 80.39939403533936, 80.17289638519287, 79.32603359222412, 79.4219970703125, 81.36487007141113, 76.62630081176758, 106.35077953338623, 77.49199867248535, 79.78594303131104, 105.79311847686768, 80.63411712646484, 105.7901382446289, 79.08570766448975, 83.00995826721191, 106.7730188369751, 80.8192491531372, 79.58197593688965, 84.67423915863037, 82.21018314361572, 81.92920684814453, 82.33749866485596, 81.09796047210693, 108.28661918640137, 81.99560642242432, 104.95901107788086, 79.35202121734619, 79.50782775878906, 105.36861419677734, 77.04925537109375, 81.55179023742676, 80.34646511077881, 79.06877994537354, 79.75828647613525, 82.39555358886719, 80.97755908966064, 110.58127880096436, 79.86986637115479, 108.5735559463501, 78.83810997009277, 80.6344747543335, 107.1697473526001, 77.81028747558594, 79.35559749603271, 82.37481117248535, 81.87532424926758, 78.98640632629395, 79.30600643157959, 79.9553394317627, 106.25159740447998, 80.91843128204346, 106.97174072265625, 77.74698734283447, 80.81471920013428, 107.22172260284424, 78.0259370803833, 80.82830905914307, 79.71513271331787, 81.67088031768799, 81.04574680328369, 79.98800277709961, 81.03668689727783, 105.18908500671387, 82.89194107055664, 107.54168033599854, 81.573486328125, 79.13732528686523, 104.13956642150879, 82.01885223388672, 78.63104343414307, 80.91020584106445, 78.65798473358154, 84.5562219619751, 81.99989795684814, 82.20648765563965, 106.8880558013916, 83.11378955841064, 107.5747013092041, 82.1160078048706, 82.25035667419434, 105.3915023803711, 79.4140100479126, 79.15627956390381, 79.12278175354004, 80.38723468780518, 79.29587364196777, 80.41501045227051, 80.23059368133545, 107.04100131988525, 81.09080791473389, 105.90243339538574, 79.83672618865967, 78.70769500732422, 107.61642456054688, 76.61688327789307, 107.10740089416504, 80.6349515914917, 79.29730415344238, 80.6739330291748, 81.43258094787598, 81.40933513641357, 81.76171779632568, 80.10351657867432, 111.41419410705566, 80.025315284729, 80.77001571655273, 105.34393787384033, 81.64501190185547, 108.21700096130371, 79.27453517913818, 81.43079280853271, 78.39739322662354, 78.27842235565186, 80.01446723937988, 79.5813798904419, 81.72190189361572, 79.9633264541626, 79.47087287902832, 79.71060276031494, 103.80685329437256, 79.64038848876953, 106.61470890045166, 80.70957660675049, 79.07116413116455, 107.44202136993408, 81.29405975341797, 106.06706142425537, 79.65219020843506, 77.43024826049805, 79.89752292633057, 78.47201824188232, 80.89160919189453, 80.02018928527832, 81.78567886352539, 105.82399368286133, 80.04474639892578, 78.41944694519043, 104.48658466339111, 78.9262056350708, 107.82361030578613, 82.20577239990234, 80.91890811920166, 103.67202758789063, 80.0405740737915, 80.85417747497559, 82.4054479598999, 77.69203186035156, 79.88858222961426, 81.31170272827148, 79.50222492218018, 108.45136642456055, 78.85026931762695, 105.35955429077148, 82.74257183074951, 83.2371711730957, 107.52928256988525, 79.46527004241943, 82.70478248596191, 78.03964614868164, 80.05869388580322, 81.45570755004883, 78.68039608001709, 81.53259754180908, 109.03751850128174, 78.4679651260376, 106.68230056762695, 79.87749576568604, 81.05266094207764, 103.89578342437744, 80.43801784515381, 78.19247245788574, 79.71477508544922, 82.65244960784912, 78.66191864013672, 79.2461633682251, 81.08091354370117, 107.08069801330566, 79.81812953948975, 108.88051986694336, 82.77571201324463, 80.23262023925781, 106.57358169555664, 81.0467004776001, 85.03603935241699, 81.19094371795654, 82.13472366333008, 80.81674575805664, 81.49325847625732, 79.0475606918335, 79.73575592041016, 80.96659183502197, 105.7511568069458, 79.88107204437256, 80.12866973876953, 103.49655151367188, 81.86876773834229, 78.76455783843994, 83.54640007019043, 83.34803581237793, 79.93793487548828, 80.22451400756836, 80.41393756866455, 105.21376132965088, 79.68223094940186, 104.2865514755249, 81.09009265899658, 78.41169834136963, 78.82928848266602, 82.33511447906494, 81.91418647766113, 80.45482635498047, 79.28645610809326, 108.31844806671143, 80.78241348266602, 79.27310466766357, 103.53493690490723, 80.80923557281494, 107.17904567718506, 81.31599426269531, 79.24020290374756, 109.09569263458252, 79.76186275482178, 79.64134216308594, 79.92494106292725, 81.46297931671143, 77.7195692062378, 78.57179641723633, 78.28891277313232, 109.16304588317871, 82.680344581604, 109.0397834777832, 80.53708076477051, 81.33351802825928, 107.32519626617432, 78.08399200439453, 77.44693756103516, 81.95483684539795, 77.95155048370361, 80.13784885406494, 79.50234413146973, 77.77178287506104, 80.16002178192139, 78.76968383789063, 106.87494277954102, 79.32460308074951, 78.99701595306396, 106.57954216003418, 81.09986782073975, 105.11195659637451, 80.78467845916748, 79.12933826446533, 103.70802879333496, 79.76758480072021, 81.0624361038208, 79.97286319732666, 78.95565032958984, 79.99241352081299, 80.29365539550781, 80.4595947265625, 104.45845127105713, 80.60312271118164, 105.24237155914307, 82.83877372741699, 78.0339241027832, 105.41009902954102, 80.60908317565918, 81.29382133483887, 80.73294162750244, 80.97386360168457, 80.04772663116455, 80.10804653167725, 79.84066009521484, 109.05230045318604, 81.69245719909668, 108.82163047790527, 80.56426048278809, 79.49495315551758, 105.53240776062012, 85.013747215271, 80.83188533782959, 82.55589008331299, 81.15136623382568, 84.3350887298584, 84.38360691070557, 79.42819595336914, 104.77995872497559, 78.88579368591309, 108.03210735321045, 84.04016494750977, 78.15778255462646, 82.4427604675293, 87.29517459869385, 79.79857921600342, 84.24091339111328, 81.68816566467285, 109.60960388183594, 80.81138134002686, 80.86764812469482, 105.16214370727539, 79.2844295501709, 106.36544227600098, 81.34603500366211, 80.12843132019043, 80.1689624786377, 83.3890438079834, 79.72311973571777, 82.43656158447266, 79.40304279327393, 106.21964931488037, 79.22160625457764, 80.43980598449707, 108.04116725921631, 81.22944831848145, 104.57611083984375, 81.9014310836792, 81.0612440109253, 83.39118957519531, 79.68389987945557, 78.86242866516113, 82.36813545227051, 78.44746112823486, 78.70233058929443, 78.24373245239258],
  "Depth": 16.5,
  "Expectation Value": -4.6708984375,
  "Optimal Expectation Value": -8.5667724609375,
  "Optimizer durations [ms]": [764.874, 707.039, 761.123, 716.315, 754.48, 769.361, 711.936, 762.35, 714.779, 751.164, 770.359, 715.03, 751.588, 774.214, 715.307, 760.46, 720.702, 753.883, 767.531, 715.176, 766.645, 766.318, 712.524, 765.992, 714.219, 760.416, 762.475, 706.549, 766.161, 718.639, 745.143, 756.634, 703.52, 759.728, 715.067, 753.403, 757.756, 722.14, 752.684, 768.388, 712.225, 766.164, 716.815, 751.411, 764.05, 702.95, 761.932, 726.568, 744.826, 756.94, 721.512, 749.89, 765.439, 715.557, 761.752, 718.705, 754.795, 758.697, 710.916, 751.698, 778.183, 713.687, 760.391, 730.263, 755.215, 770.038, 719.534, 761.214, 716.869, 748.093, 773.872, 706.342, 755.32, 714.182, 763.925, 763.326, 734.503, 762.322, 764.546, 713.817, 761.811, 712.849, 752.285, 771.363, 715.183, 754.222, 723.55, 749.262, 768.227, 724.309, 755.928, 759.434, 715.486, 763.874, 719.174, 768.894, 785.568, 722.301, 773.021, 728.251, 767.055, 778.48, 729.01, 762.661, 769.684, 707.626, 763.851, 720.706, 753.077, 761.654, 711.592, 763.422, 777.58, 710.936, 767.29, 723.962, 749.085, 766.274, 713.142, 752.941, 716.608, 753.038, 759.718, 707.947, 751.359, 765.642, 713.633, 773.502, 721.957, 758.165, 777.875, 715.364, 761.572, 724.588, 754.488, 762.123, 721.487, 755.743, 719.38, 754.199, 762.809, 723.162, 754.255, 765.28, 716.997, 753.938, 729.336, 761.791, 766.9, 709.189, 756.465, 715.52, 743.736, 757.756, 719.41, 753.53, 762.791, 705.22, 760.453, 717.258, 751.702, 763.227, 708.254, 753.582, 770.312, 708.46, 757.824, 720.362, 753.689, 762.504, 703.777, 754.782, 713.942, 749.175, 760.911, 709.0, 747.257, 768.08, 700.745, 756.877, 713.94, 754.34, 761.928, 705.089, 765.307, 715.35, 753.445, 764.91, 723.973, 761.259, 720.64, 755.658, 763.473, 720.548, 762.789, 762.244, 707.163, 756.397, 714.319, 743.382, 765.129, 708.259, 750.885, 712.465, 753.155, 768.284, 728.676, 753.619, 770.071, 704.993, 763.301, 720.075, 747.934, 763.517, 716.616, 765.156, 718.812, 753.816, 762.078, 718.619, 761.769, 768.676, 705.744, 763.124, 723.396, 746.804, 767.327, 708.623, 758.544, 721.358, 755.733, 767.332, 716.164, 765.579, 771.821, 717.64, 759.264, 710.655, 761.139, 763.366, 708.199, 754.695, 725.407, 755.083, 766.761, 726.475, 765.285, 770.964, 722.065, 769.571, 717.396, 751.211, 763.486, 704.029, 752.216, 712.126, 750.884, 759.557, 717.881, 754.36, 765.565, 708.644, 755.866, 721.52, 747.461, 765.369, 709.647, 752.155, 718.426, 752.593, 763.382, 712.157, 753.514, 777.325, 706.897, 761.66, 715.557, 757.949, 771.957, 703.698, 761.883, 710.638, 746.606, 760.03, 704.283, 759.006, 712.343, 750.457, 759.048, 710.728, 759.885, 765.954, 708.531, 757.41, 718.583, 756.151, 762.868, 706.69, 751.045, 717.427, 745.227, 760.848, 707.295, 759.34, 767.679, 709.357, 756.737, 711.969, 748.714, 772.58, 712.434, 760.988, 710.579, 748.049, 763.784, 714.253, 751.002, 714.324, 753.869, 758.28, 723.007, 754.469, 764.855, 721.395, 766.162, 728.487, 747.145, 772.894, 706.177, 757.822, 719.964, 748.409, 765.855, 721.01, 752.743, 768.048, 712.579, 763.746, 714.343, 751.771, 762.959, 707.775, 762.984, 713.116, 751.043, 766.81, 722.768, 758.019, 774.274, 722.593, 765.615, 718.814, 758.162, 782.206, 712.638, 764.051, 724.525, 755.975, 759.82, 708.105, 759.412, 767.496, 713.045, 761.338, 712.567, 759.683, 762.523, 717.965, 768.39, 718.475, 747.788, 760.291, 713.67, 755.856, 763.537, 713.332, 755.955, 717.941, 757.155, 769.431, 709.583, 751.882, 774.801, 714.201, 760.862, 710.454, 760.163, 771.412, 714.853, 758.058, 723.079, 753.177, 760.518, 705.692, 755.531, 709.841, 746.301, 753.117, 722.584, 757.981, 772.965, 706.679, 758.045, 720.31, 748.629, 756.345, 709.826, 746.655, 716.413, 747.692, 757.175, 705.995, 752.259, 766.35, 709.753, 758.661, 715.145, 753.909, 761.42, 707.449, 756.037, 708.309, 750.19, 766.456, 707.971, 749.34, 715.024, 751.043, 759.559, 710.39, 754.951, 769.24, 714.65, 753.91, 712.363, 753.098, 767.582, 709.964, 755.994, 714.392, 746.946, 757.146, 724.385, 755.923, 770.093, 709.126, 755.436, 715.182, 758.387, 763.049, 713.759, 757.517, 760.957, 761.829, 767.465, 711.452, 764.309, 777.145, 724.89, 779.232, 725.822, 765.805, 768.552, 726.401, 761.905, 780.774, 717.718, 763.103, 718.818, 752.534, 767.194, 710.416, 760.377, 716.623, 765.338, 764.682, 712.201, 757.422, 771.52, 705.856, 762.515, 725.332, 759.671, 768.963, 718.061, 758.561, 722.351, 752.112, 762.913, 716.546, 763.543, 713.977, 750.022],
  "Optimizer iterations": 493,
  "Optimizer params": [0.4659961257434858, 0.9982145703431394, 0.05180340264562187, 0.947377892395964, 0.5383900420465622, 0.7237626628657676, 0.2261342149260574, 0.6384727300031536, 0.04788315905948564, 0.7733003348690584, 0.4036237924338964, 0.1948407783728288, 0.6688493966183633, 0.7650058256032528, 0.4895073064071038, 0.4286235377480361, 0.9427275742828541, 0.9279364683160148, 0.5187322649184681, 0.9574007248731008, 0.2636384916736362, 0.2311741754921709, 0.45842669812255515, 0.32997056747187203, 0.8993668287300539, 0.7828106137609153, 0.41049948810306985, 0.6026758534275695],
  "P": 0,
  "Problem": "IC",
  "QJob durations [ms]": [148.16296100616455, 121.24359607696533, 123.6271858215332, 148.45609664916992, 123.40223789215088, 151.62992477416992, 124.35746192932129, 124.3206262588501, 121.51336669921875, 122.89142608642578, 129.30333614349365, 147.5123167037964, 121.54662609100342, 152.8913974761963, 122.80094623565674, 124.3973970413208, 150.54059028625488, 124.79639053344727, 126.45947933197021, 125.72264671325684, 126.08611583709717, 148.3454704284668, 123.45576286315918, 124.18460845947266, 146.74770832061768, 124.57740306854248, 147.92323112487793, 120.66709995269775, 125.9986162185669, 149.81865882873535, 121.07682228088379, 120.66638469696045, 122.03001976013184, 123.87216091156006, 123.14367294311523, 124.00734424591064, 122.16508388519287, 151.38351917266846, 121.81210517883301, 149.11389350891113, 123.80790710449219, 125.48542022705078, 149.03545379638672, 121.13344669342041, 148.96154403686523, 121.84417247772217, 125.83935260772705, 128.60143184661865, 121.28400802612305, 120.758056640625, 151.7179012298584, 121.43385410308838, 148.15425872802734, 123.74258041381836, 124.71354007720947, 149.23298358917236, 125.25558471679688, 121.61648273468018, 124.67622756958008, 122.08211421966553, 153.9698839187622, 124.06504154205322, 121.81568145751953, 156.2643051147461, 120.74220180511475, 150.82406997680664, 127.63941287994385, 123.22115898132324, 148.13613891601563, 121.0559606552124, 150.97308158874512, 122.20406532287598, 122.8572130203247, 121.2228536605835, 129.66978549957275, 123.79169464111328, 156.7208766937256, 124.17149543762207, 148.2675075531006, 124.37152862548828, 122.87914752960205, 145.88749408721924, 121.50800228118896, 151.2446403503418, 127.68208980560303, 121.1237907409668, 127.13134288787842, 121.94585800170898, 124.14968013763428, 152.21285820007324, 122.91300296783447, 145.84672451019287, 126.25324726104736, 125.43880939483643, 148.856520652771, 129.5236349105835, 154.97541427612305, 131.06071949005127, 128.00049781799316, 127.34365463256836, 126.49369239807129, 127.89773941040039, 151.02660655975342, 125.79238414764404, 150.63869953155518, 122.22051620483398, 125.97334384918213, 150.48229694366455, 122.8177547454834, 122.66528606414795, 125.47338008880615, 126.81102752685547, 153.55348587036133, 122.39575386047363, 126.08182430267334, 150.3920555114746, 121.23751640319824, 150.39706230163574, 124.3736743927002, 120.13673782348633, 147.83263206481934, 122.48432636260986, 121.45256996154785, 121.90532684326172, 121.64449691772461, 147.80199527740479, 123.56245517730713, 129.0217638015747, 150.22015571594238, 123.92008304595947, 154.8980474472046, 125.45168399810791, 123.86906147003174, 153.4022092819214, 124.55761432647705, 121.9930648803711, 128.90076637268066, 121.80542945861816, 124.10497665405273, 124.93324279785156, 123.07989597320557, 151.63016319274902, 122.80547618865967, 146.47746086120605, 126.21772289276123, 120.8810806274414, 154.73592281341553, 126.29139423370361, 151.12555027008057, 124.53269958496094, 124.76897239685059, 123.40807914733887, 120.21541595458984, 122.45643138885498, 150.67434310913086, 123.61657619476318, 148.07593822479248, 122.54536151885986, 124.40383434295654, 149.4276523590088, 123.83174896240234, 124.46582317352295, 123.85916709899902, 122.63107299804688, 151.31092071533203, 123.63910675048828, 122.45428562164307, 151.32713317871094, 123.3835220336914, 148.45669269561768, 120.92173099517822, 122.79677391052246, 148.2381820678711, 123.32022190093994, 122.37668037414551, 124.51660633087158, 120.02360820770264, 150.29585361480713, 119.32814121246338, 121.53899669647217, 148.19586277008057, 123.0078935623169, 147.9412317276001, 122.06864356994629, 127.03478336334229, 148.9166021347046, 123.61502647399902, 149.58178997039795, 129.55975532531738, 125.2586841583252, 124.12309646606445, 125.74946880340576, 123.61454963684082, 151.7009735107422, 126.02341175079346, 147.6813554763794, 122.2982406616211, 122.90918827056885, 148.14603328704834, 118.85488033294678, 150.58910846710205, 124.17221069335938, 121.498703956604, 122.04217910766602, 125.00965595245361, 123.85940551757813, 153.23829650878906, 122.49720096588135, 151.27098560333252, 121.56820297241211, 124.63045120239258, 149.7025489807129, 120.30613422393799, 148.56958389282227, 126.18076801300049, 126.74903869628906, 121.6200590133667, 123.54183197021484, 122.77519702911377, 149.83737468719482, 124.11296367645264, 149.9013900756836, 120.76365947723389, 124.10175800323486, 151.14808082580566, 119.87614631652832, 149.63901042938232, 123.22914600372314, 124.97115135192871, 124.73690509796143, 124.06706809997559, 125.53727626800537, 147.53687381744385, 127.35116481781006, 151.16751194000244, 125.97775459289551, 121.70720100402832, 146.4555263519287, 125.6324052810669, 147.03834056854248, 123.78406524658203, 121.51134014129639, 127.43198871612549, 124.65870380401611, 125.48971176147461, 149.89101886749268, 127.85303592681885, 150.42424201965332, 127.13563442230225, 126.00398063659668, 148.7523317337036, 122.81763553619385, 148.07116985321045, 122.49612808227539, 122.2836971282959, 121.82116508483887, 123.7034797668457, 123.33953380584717, 149.28686618804932, 123.28088283538818, 149.20735359191895, 122.994065284729, 121.7886209487915, 151.18420124053955, 119.55416202545166, 149.5370864868164, 124.5880126953125, 121.49155139923096, 150.23601055145264, 124.58431720733643, 124.2130994796753, 125.89013576507568, 122.99191951751709, 155.68053722381592, 122.7790117263794, 124.20094013214111, 148.16975593566895, 125.2812147140503, 152.43816375732422, 121.16408348083496, 125.64277648925781, 146.44062519073486, 121.03533744812012, 122.66194820404053, 122.34330177307129, 124.91488456726074, 122.59721755981445, 123.27837944030762, 122.32351303100586, 146.14558219909668, 122.4132776260376, 149.57928657531738, 123.50738048553467, 122.2001314163208, 150.54452419281006, 124.94730949401855, 148.5154628753662, 122.25162982940674, 119.66192722320557, 149.5596170425415, 121.88506126403809, 123.34871292114258, 122.67351150512695, 124.52220916748047, 149.66332912445068, 123.32618236541748, 121.29044532775879, 147.43328094482422, 120.77367305755615, 152.50587463378906, 124.99988079071045, 125.07081031799316, 146.02768421173096, 122.11024761199951, 149.46317672729492, 127.36618518829346, 121.21856212615967, 122.37918376922607, 124.46129322052002, 122.00450897216797, 152.02534198760986, 121.46925926208496, 147.39811420440674, 126.79386138916016, 127.30634212493896, 152.0979404449463, 121.34730815887451, 127.03073024749756, 121.33979797363281, 122.7494478225708, 124.7488260269165, 120.54598331451416, 124.73249435424805, 151.65483951568604, 120.81360816955566, 149.38294887542725, 123.95691871643066, 124.91679191589355, 146.3160514831543, 123.08835983276367, 146.80814743041992, 122.67470359802246, 127.30598449707031, 121.85382843017578, 121.34337425231934, 123.87347221374512, 151.01826190948486, 122.45810031890869, 153.29885482788086, 128.22222709655762, 124.28653240203857, 149.37365055084229, 125.2204179763794, 156.3938856124878, 124.35293197631836, 125.8234977722168, 124.25088882446289, 124.17709827423096, 121.7341423034668, 123.04139137268066, 124.53699111938477, 148.55706691741943, 123.0611801147461, 123.40068817138672, 145.9786891937256, 125.76663494110107, 148.24354648590088, 127.24828720092773, 128.26800346374512, 123.421311378479, 122.91848659515381, 123.7553358078003, 147.63915538787842, 123.10326099395752, 146.93915843963623, 125.21672248840332, 121.5369701385498, 147.44031429290771, 126.22082233428955, 125.62859058380127, 123.91793727874756, 121.03796005249023, 151.910662651062, 123.38089942932129, 122.18344211578369, 145.8977460861206, 123.94082546234131, 151.11887454986572, 125.34832954406738, 121.01709842681885, 153.00869941711426, 122.71606922149658, 148.2381820678711, 122.70236015319824, 124.95255470275879, 120.06020545959473, 121.0167407989502, 120.86844444274902, 152.64248847961426, 125.47469139099121, 153.10978889465332, 123.37648868560791, 124.0997314453125, 150.47061443328857, 120.60546875, 146.0486650466919, 125.43344497680664, 119.85862255096436, 122.74718284606934, 122.4299669265747, 120.24247646331787, 123.49998950958252, 121.0927963256836, 149.62780475616455, 122.59674072265625, 122.63965606689453, 149.17826652526855, 123.34823608398438, 147.2378969192505, 123.39496612548828, 122.63071537017822, 145.79284191131592, 122.06900119781494, 149.73735809326172, 123.41201305389404, 121.09935283660889, 122.96271324157715, 123.5276460647583, 123.63755702972412, 146.44300937652588, 122.87819385528564, 148.44346046447754, 126.2369155883789, 121.05882167816162, 147.84419536590576, 123.83747100830078, 151.40867233276367, 125.0070333480835, 125.07295608520508, 123.55184555053711, 123.00288677215576, 122.77102470397949, 153.53739261627197, 124.19402599334717, 152.12726593017578, 123.56305122375488, 122.59960174560547, 149.09791946411133, 127.90608406066895, 123.89063835144043, 126.91378593444824, 124.37796592712402, 128.10611724853516, 129.01878356933594, 122.2461462020874, 147.1703052520752, 121.67561054229736, 151.55291557312012, 128.3242702484131, 120.27812004089355, 153.1456708908081, 130.5168867111206, 122.92134761810303, 127.93970108032227, 124.98247623443604, 154.3503999710083, 124.32396411895752, 124.10449981689453, 148.4522819519043, 121.307373046875, 149.38700199127197, 124.4974136352539, 123.24774265289307, 123.04317951202393, 128.30829620361328, 122.75135517120361, 125.57923793792725, 122.1686601638794, 149.6434211730957, 121.10638618469238, 124.16994571685791, 152.04966068267822, 125.1668930053711, 148.3696699142456, 126.1746883392334, 123.64113330841064, 151.10063552856445, 122.81215190887451, 122.6949691772461, 127.12991237640381, 121.32883071899414, 121.33753299713135, 120.23425102233887],
  "QPU": "3000010",
  "Qubits": 7,
  "Queue durations [ms]": [0.0, 0.0, 0.0, 0.0, 0.0, 0.0, 0.0, 0.0, 0.0, 0.0, 0.0, 0.0, 0.0, 0.0, 0.0, 0.0, 0.0, 0.0, 0.0, 0.0, 0.0, 0.0, 0.0, 0.0, 0.0, 0.0, 0.0, 0.0, 0.0, 0.0, 0.0, 0.0, 0.0, 0.0, 0.0, 0.0, 0.0, 0.0, 0.0, 0.0, 0.0, 0.0, 0.0, 0.0, 0.0, 0.0, 0.0, 0.0, 0.0, 0.0, 0.0, 0.0, 0.0, 0.0, 0.0, 0.0, 0.0, 0.0, 0.0, 0.0, 0.0, 0.0, 0.0, 0.0, 0.0, 0.0, 0.0, 0.0, 0.0, 0.0, 0.0, 0.0, 0.0, 0.0, 0.0, 0.0, 0.0, 0.0, 0.0, 0.0, 0.0, 0.0, 0.0, 0.0, 0.0, 0.0, 0.0, 0.0, 0.0, 0.0, 0.0, 0.0, 0.0, 0.0, 0.0, 0.0, 0.0, 0.0, 0.0, 0.0, 0.0, 0.0, 0.0, 0.0, 0.0, 0.0, 0.0, 0.0, 0.0, 0.0, 0.0, 0.0, 0.0, 0.0, 0.0, 0.0, 0.0, 0.0, 0.0, 0.0, 0.0, 0.0, 0.0, 0.0, 0.0, 0.0, 0.0, 0.0, 0.0, 0.0, 0.0, 0.0, 0.0, 0.0, 0.0, 0.0, 0.0, 0.0, 0.0, 0.0, 0.0, 0.0, 0.0, 0.0, 0.0, 0.0, 0.0, 0.0, 0.0, 0.0, 0.0, 0.0, 0.0, 0.0, 0.0, 0.0, 0.0, 0.0, 0.0, 0.0, 0.0, 0.0, 0.0, 0.0, 0.0, 0.0, 0.0, 0.0, 0.0, 0.0, 0.0, 0.0, 0.0, 0.0, 0.0, 0.0, 0.0, 0.0, 0.0, 0.0, 0.0, 0.0, 0.0, 0.0, 0.0, 0.0, 0.0, 0.0, 0.0, 0.0, 0.0, 0.0, 0.0, 0.0, 0.0, 0.0, 0.0, 0.0, 0.0, 0.0, 0.0, 0.0, 0.0, 0.0, 0.0, 0.0, 0.0, 0.0, 0.0, 0.0, 0.0, 0.0, 0.0, 0.0, 0.0, 0.0, 0.0, 0.0, 0.0, 0.0, 0.0, 0.0, 0.0, 0.0, 0.0, 0.0, 0.0, 0.0, 0.0, 0.0, 0.0, 0.0, 0.0, 0.0, 0.0, 0.0, 0.0, 0.0, 0.0, 0.0, 0.0, 0.0, 0.0, 0.0, 0.0, 0.0, 0.0, 0.0, 0.0, 0.0, 0.0, 0.0, 0.0, 0.0, 0.0, 0.0, 0.0, 0.0, 0.0, 0.0, 0.0, 0.0, 0.0, 0.0, 0.0, 0.0, 0.0, 0.0, 0.0, 0.0, 0.0, 0.0, 0.0, 0.0, 0.0, 0.0, 0.0, 0.0, 0.0, 0.0, 0.0, 0.0, 0.0, 0.0, 0.0, 0.0, 0.0, 0.0, 0.0, 0.0, 0.0, 0.0, 0.0, 0.0, 0.0, 0.0, 0.0, 0.0, 0.0, 0.0, 0.0, 0.0, 0.0, 0.0, 0.0, 0.0, 0.0, 0.0, 0.0, 0.0, 0.0, 0.0, 0.0, 0.0, 0.0, 0.0, 0.0, 0.0, 0.0, 0.0, 0.0, 0.0, 0.0, 0.0, 0.0, 0.0, 0.0, 0.0, 0.0, 0.0, 0.0, 0.0, 0.0, 0.0, 0.0, 0.0, 0.0, 0.0, 0.0, 0.0, 0.0, 0.0, 0.0, 0.0, 0.0, 0.0, 0.0, 0.0, 0.0, 0.0, 0.0, 0.0, 0.0, 0.0, 0.0, 0.0, 0.0, 0.0, 0.0, 0.0, 0.0, 0.0, 0.0, 0.0, 0.0, 0.0, 0.0, 0.0, 0.0, 0.0, 0.0, 0.0, 0.0, 0.0, 0.0, 0.0, 0.0, 0.0, 0.0, 0.0, 0.0, 0.0, 0.0, 0.0, 0.0, 0.0, 0.0, 0.0, 0.0, 0.0, 0.0, 0.0, 0.0, 0.0, 0.0, 0.0, 0.0, 0.0, 0.0, 0.0, 0.0, 0.0, 0.0, 0.0, 0.0, 0.0, 0.0, 0.0, 0.0, 0.0, 0.0, 0.0, 0.0, 0.0, 0.0, 0.0, 0.0, 0.0, 0.0, 0.0, 0.0, 0.0, 0.0, 0.0, 0.0, 0.0, 0.0, 0.0, 0.0, 0.0, 0.0, 0.0, 0.0, 0.0, 0.0, 0.0, 0.0, 0.0, 0.0, 0.0, 0.0, 0.0, 0.0, 0.0, 0.0, 0.0, 0.0, 0.0, 0.0, 0.0, 0.0, 0.0, 0.0, 0.0, 0.0, 0.0, 0.0, 0.0, 0.0, 0.0, 0.0, 0.0, 0.0, 0.0, 0.0, 0.0, 0.0, 0.0, 0.0, 0.0, 0.0, 0.0, 0.0, 0.0, 0.0, 0.0, 0.0, 0.0, 0.0, 0.0, 0.0, 0.0, 0.0, 0.0, 0.0, 0.0, 0.0, 0.0, 0.0, 0.0, 0.0, 0.0, 0.0],
  "Shots": 4096,
  "Size": 7,
  "Total Algorithm duration [s]": 366.283,
  "Total Classic duration [s]": 301.52873755264284,
  "Total Quantum duration [s]": 64.75426244735718
}
