{
  "Circuit execution durations [ms]": [56.564927101135254, 54.28028106689453, 79.49542999267578, 59.162020683288574, 59.099674224853516, 56.83600902557373, 58.132290840148926, 78.33588123321533, 54.868221282958984, 57.25240707397461, 53.50363254547119, 58.365583419799805, 58.26461315155029, 81.49683475494385, 54.611921310424805, 57.972073554992676, 56.96725845336914, 58.815836906433105, 78.92286777496338, 58.0441951751709, 59.62347984313965, 57.61289596557617, 55.7483434677124, 55.35876750946045, 79.3689489364624, 60.40012836456299, 59.04495716094971, 57.79731273651123, 59.487342834472656, 78.10819149017334, 52.20389366149902, 58.6857795715332, 56.44702911376953, 55.9920072555542, 56.45787715911865, 81.53295516967773, 54.65710163116455, 56.59973621368408, 57.21116065979004, 58.24613571166992, 83.97674560546875, 58.53903293609619],
  "Depth": 2.0,
  "Expectation Value": -2.222515106201172,
  "Optimal Expectation Value": -2.2741000652313232,
  "Optimizer durations [ms]": [604.378, 550.04, 556.832, 561.454, 604.537, 553.979, 560.84, 598.076, 554.522, 554.757, 552.212, 607.609, 560.774, 560.087, 554.46, 602.18, 562.694, 562.477, 603.766, 559.986, 556.888, 560.558, 601.844, 555.891, 555.861, 568.49, 604.668, 556.459, 564.371, 599.121, 548.321, 556.64, 560.573, 601.208, 560.863, 560.225, 554.555, 601.145, 556.863, 566.715, 610.853, 567.471],
  "Optimizer iterations": 42,
  "Optimizer params": [1.0, 0.5096301587915351, 0.9919599870341516, 0.5064503626558174],
  "P": 0,
  "Problem": "RH",
  "QJob durations [ms]": [67.20340251922607, 63.40646743774414, 88.58144283294678, 68.25268268585205, 68.23110580444336, 65.8949613571167, 67.20292568206787, 87.5176191329956, 64.0251636505127, 66.34712219238281, 62.60395050048828, 67.51668453216553, 67.39544868469238, 90.58856964111328, 63.74096870422363, 67.09134578704834, 66.02513790130615, 67.95954704284668, 88.0650281906128, 67.1764612197876, 68.78066062927246, 66.73014163970947, 64.8733377456665, 65.33586978912354, 88.89317512512207, 69.53012943267822, 68.20535659790039, 66.93077087402344, 68.65966320037842, 87.2194766998291, 61.33091449737549, 67.840576171875, 65.6212568283081, 65.14215469360352, 65.5902624130249, 90.62516689300537, 63.794493675231934, 65.77527523040771, 66.32101535797119, 67.38889217376709, 93.07074546813965, 67.64650344848633],
  "QPU": "3000013",
  "Qubits": 4,
  "Queue durations [ms]": [0.0, 0.0, 0.0, 0.0, 0.0, 0.0, 0.0, 0.0, 0.0, 0.0, 0.0, 0.0, 0.0, 0.0, 0.0, 0.0, 0.0, 0.0, 0.0, 0.0, 0.0, 0.0, 0.0, 0.0, 0.0, 0.0, 0.0, 0.0, 0.0, 0.0, 0.0, 0.0, 0.0, 0.0, 0.0, 0.0, 0.0, 0.0, 0.0, 0.0, 0.0, 0.0],
  "Shots": 4096,
  "Size": 4,
  "Total Algorithm duration [s]": 23.995,
  "Total Classic duration [s]": 21.02486812591553,
  "Total Quantum duration [s]": 2.9701318740844727
}
