{
  "Circuit execution durations [ms]": [0.11730000187526457, 0.2181999952881597, 0.11889999950653873, 0.1155499994638376, 0.11760000052163377, 0.31945000591804273, 0.14234999980544671, 0.21795000066049397, 0.310350013023708, 0.11945000005653128, 0.11644999904092401, 0.11635000191745348, 0.11689999882946722, 0.11715000073309056, 0.11829999857582152, 0.11504999929456972, 0.12599999899975955, 0.11549999908311293, 0.152900000102818, 0.11475000064820051, 0.11559999984456226, 0.11494999853312038, 0.11530000119819306, 0.1173999989987351, 0.11439999798312783, 0.13279999984661117, 0.11615000039455481, 0.11504999929456972, 0.11480000102892518, 0.2453499982948415, 0.12314999912632629, 0.11590000212891027, 0.11594999887165613, 0.12340000102994964, 0.11700000322889537, 0.12030000289087184, 0.1173999989987351, 0.11435000124038197, 0.11509999967529438, 0.1188000023830682, 0.12270000297576189, 0.12265000259503722, 0.11949999679927714, 0.11794999954872765, 0.11659999654511921, 0.1173999989987351, 0.1263999984075781, 0.1269000058528036, 0.12180000339867547, 0.11365000318619423, 0.11640000229817815, 0.1159999992523808, 0.11475000064820051, 0.12239999705343507, 0.12530000458355062, 0.12040000001434237, 0.12214999878779054, 0.1175500001409091, 0.11440000162110664, 0.11440000162110664, 0.11535000157891773, 0.11794999591074884, 0.11359999916749075, 0.11765000090235844, 0.11325000014039688, 0.11789999916800298, 0.11435000124038197, 0.11489999815239571, 0.11569999696803279, 0.11595000250963494, 0.11479999739094637, 0.11639999866019934, 0.11655000344035216, 0.1144499983638525, 0.12134999997215346, 0.11489999815239571, 0.1554000009491574, 0.12124999921070412, 0.12089999654563144, 0.11734999861801043, 0.12030000289087184, 0.1140000022132881, 0.11625000115600415, 0.1145999995060265, 0.11454999912530184, 0.11904999701073393, 0.11359999916749075, 0.12060000517521985, 0.1207999957841821, 0.12170000263722613, 0.11714999709511176, 0.11489999815239571, 0.13519999629352242, 0.11760000052163377, 0.11930000255233608, 0.11714999709511176, 0.11644999904092401, 0.1234499977726955, 0.11635000191745348, 0.11870000162161887, 0.13719999697059393, 0.12250000145286322, 0.11995000022579916, 0.11575000098673627, 0.12024999887216836, 0.11450000238255598, 0.1157000006060116, 0.11670000458252616, 0.11509999967529438, 0.12250000145286322, 0.11519999679876491, 0.11559999620658346, 0.11509999967529438, 0.1145999995060265, 0.11759999688365497, 0.11449999874457717, 0.11449999874457717, 0.11704999997164123, 0.11704999997164123, 0.11470000026747584, 0.1172500014945399, 0.11994999658782035, 0.11914999777218327, 0.12100000458303839, 0.11530000119819306, 0.11439999798312783, 0.11504999929456972, 0.12060000153724104, 0.1158499981102068, 0.11484999777167104, 0.1175500001409091, 0.11615000039455481, 0.1300999974773731, 0.12200000128359534, 0.11405000259401277, 0.1558500007377006, 0.17130000196630135, 0.11439999798312783, 0.11480000102892518, 0.12260000221431255, 0.12280000373721123, 0.12400000196066685],
  "Depth": 6.5,
  "Expectation Value": -2.2292566299438477,
  "Optimal Expectation Value": -2.2360680103302,
  "Optimizer durations [ms]": [4.38, 5.126, 3.669, 3.289, 3.467, 7.25, 17.497, 5.907, 7.28, 3.589, 3.375, 3.334, 3.407, 3.237, 3.44, 3.312, 3.6, 3.373, 4.162, 3.338, 3.489, 3.33, 3.278, 3.278, 3.269, 3.758, 3.319, 3.341, 3.307, 5.689, 3.789, 3.352, 3.371, 3.756, 3.359, 3.477, 3.35, 3.295, 3.28, 3.401, 3.463, 4.216, 3.431, 3.357, 3.382, 3.368, 3.592, 3.626, 3.432, 3.284, 3.323, 3.353, 3.898, 3.506, 3.51, 3.476, 3.559, 3.26, 3.271, 3.292, 3.351, 3.439, 3.243, 3.393, 3.306, 3.74, 3.266, 3.304, 3.345, 3.309, 3.32, 3.347, 3.312, 3.333, 3.448, 3.334, 4.19, 3.499, 4.021, 3.372, 3.435, 3.297, 3.373, 3.3, 3.184, 3.43, 3.272, 3.417, 3.467, 3.495, 3.423, 3.421, 3.792, 3.262, 3.441, 3.37, 6.618, 3.748, 3.323, 3.385, 3.966, 3.548, 3.42, 3.324, 3.674, 3.29, 3.305, 3.316, 3.589, 3.553, 3.326, 3.661, 3.295, 3.274, 3.36, 3.276, 3.283, 3.341, 3.371, 3.319, 3.334, 3.314, 3.386, 3.528, 3.292, 3.283, 3.302, 3.435, 3.393, 3.3, 3.273, 3.408, 3.674, 3.558, 3.271, 4.232, 4.49, 3.288, 3.33, 3.447, 3.64, 3.538],
  "Optimizer iterations": 142,
  "Optimizer params": [0.6590186234866557, 0.17567193195157813, 0.5229100225791343, 0.5372001708103522, 0.35113227768202426, 0.29103000661404066, 0.33527020211424036, 0.7491465329433628],
  "P": 0,
  "Problem": "IC",
  "QJob durations [ms]": [0.11730000187526457, 0.2181999952881597, 0.11889999950653873, 0.1155499994638376, 0.11760000052163377, 0.31945000591804273, 0.14234999980544671, 0.21795000066049397, 0.310350013023708, 0.11945000005653128, 0.11644999904092401, 0.11635000191745348, 0.11689999882946722, 0.11715000073309056, 0.11829999857582152, 0.11504999929456972, 0.12599999899975955, 0.11549999908311293, 0.152900000102818, 0.11475000064820051, 0.11559999984456226, 0.11494999853312038, 0.11530000119819306, 0.1173999989987351, 0.11439999798312783, 0.13279999984661117, 0.11615000039455481, 0.11504999929456972, 0.11480000102892518, 0.2453499982948415, 0.12314999912632629, 0.11590000212891027, 0.11594999887165613, 0.12340000102994964, 0.11700000322889537, 0.12030000289087184, 0.1173999989987351, 0.11435000124038197, 0.11509999967529438, 0.1188000023830682, 0.12270000297576189, 0.12265000259503722, 0.11949999679927714, 0.11794999954872765, 0.11659999654511921, 0.1173999989987351, 0.1263999984075781, 0.1269000058528036, 0.12180000339867547, 0.11365000318619423, 0.11640000229817815, 0.1159999992523808, 0.11475000064820051, 0.12239999705343507, 0.12530000458355062, 0.12040000001434237, 0.12214999878779054, 0.1175500001409091, 0.11440000162110664, 0.11440000162110664, 0.11535000157891773, 0.11794999591074884, 0.11359999916749075, 0.11765000090235844, 0.11325000014039688, 0.11789999916800298, 0.11435000124038197, 0.11489999815239571, 0.11569999696803279, 0.11595000250963494, 0.11479999739094637, 0.11639999866019934, 0.11655000344035216, 0.1144499983638525, 0.12134999997215346, 0.11489999815239571, 0.1554000009491574, 0.12124999921070412, 0.12089999654563144, 0.11734999861801043, 0.12030000289087184, 0.1140000022132881, 0.11625000115600415, 0.1145999995060265, 0.11454999912530184, 0.11904999701073393, 0.11359999916749075, 0.12060000517521985, 0.1207999957841821, 0.12170000263722613, 0.11714999709511176, 0.11489999815239571, 0.13519999629352242, 0.11760000052163377, 0.11930000255233608, 0.11714999709511176, 0.11644999904092401, 0.1234499977726955, 0.11635000191745348, 0.11870000162161887, 0.13719999697059393, 0.12250000145286322, 0.11995000022579916, 0.11575000098673627, 0.12024999887216836, 0.11450000238255598, 0.1157000006060116, 0.11670000458252616, 0.11509999967529438, 0.12250000145286322, 0.11519999679876491, 0.11559999620658346, 0.11509999967529438, 0.1145999995060265, 0.11759999688365497, 0.11449999874457717, 0.11449999874457717, 0.11704999997164123, 0.11704999997164123, 0.11470000026747584, 0.1172500014945399, 0.11994999658782035, 0.11914999777218327, 0.12100000458303839, 0.11530000119819306, 0.11439999798312783, 0.11504999929456972, 0.12060000153724104, 0.1158499981102068, 0.11484999777167104, 0.1175500001409091, 0.11615000039455481, 0.1300999974773731, 0.12200000128359534, 0.11405000259401277, 0.1558500007377006, 0.17130000196630135, 0.11439999798312783, 0.11480000102892518, 0.12260000221431255, 0.12280000373721123, 0.12400000196066685],
  "QPU": "7000000",
  "Qubits": 2,
  "Queue durations [ms]": [0.0, 0.0, 0.0, 0.0, 0.0, 0.0, 0.0, 0.0, 0.0, 0.0, 0.0, 0.0, 0.0, 0.0, 0.0, 0.0, 0.0, 0.0, 0.0, 0.0, 0.0, 0.0, 0.0, 0.0, 0.0, 0.0, 0.0, 0.0, 0.0, 0.0, 0.0, 0.0, 0.0, 0.0, 0.0, 0.0, 0.0, 0.0, 0.0, 0.0, 0.0, 0.0, 0.0, 0.0, 0.0, 0.0, 0.0, 0.0, 0.0, 0.0, 0.0, 0.0, 0.0, 0.0, 0.0, 0.0, 0.0, 0.0, 0.0, 0.0, 0.0, 0.0, 0.0, 0.0, 0.0, 0.0, 0.0, 0.0, 0.0, 0.0, 0.0, 0.0, 0.0, 0.0, 0.0, 0.0, 0.0, 0.0, 0.0, 0.0, 0.0, 0.0, 0.0, 0.0, 0.0, 0.0, 0.0, 0.0, 0.0, 0.0, 0.0, 0.0, 0.0, 0.0, 0.0, 0.0, 0.0, 0.0, 0.0, 0.0, 0.0, 0.0, 0.0, 0.0, 0.0, 0.0, 0.0, 0.0, 0.0, 0.0, 0.0, 0.0, 0.0, 0.0, 0.0, 0.0, 0.0, 0.0, 0.0, 0.0, 0.0, 0.0, 0.0, 0.0, 0.0, 0.0, 0.0, 0.0, 0.0, 0.0, 0.0, 0.0, 0.0, 0.0, 0.0, 0.0, 0.0, 0.0, 0.0, 0.0, 0.0, 0.0],
  "Shots": 4096,
  "Size": 2,
  "Total Algorithm duration [s]": 0.521,
  "Total Classic duration [s]": 0.5033243999817351,
  "Total Quantum duration [s]": 0.01767560001826496
}
