{
  "Circuit execution durations [ms]": [0.1640999980736524, 0.11704999997164123, 0.11715000073309056, 0.15209999764920212, 0.12085000344086438, 0.12014999811071903, 0.11610000365180895, 0.12425000386429019, 0.12095000420231372, 0.12605000301846303, 0.121900000522146, 0.12009999772999436, 0.11775000166380778, 0.12015000174869783, 0.11860000086016953, 0.12060000153724104, 0.1186500012408942, 0.12040000365232117, 0.11970000196015462, 0.11929999527637847, 0.15729999722680077, 0.11910000102943741, 0.1262500045413617, 0.12224999591126107, 0.11955000081798062, 0.3097999870078638, 0.3196500074409414, 0.27504999525262974, 0.12439999773050658, 0.11495000217109919, 0.11630000153672881, 0.11565000022528693, 0.11959999756072648, 0.1145999995060265, 0.11379999705241062, 0.1128999974753242, 0.11375000030966476, 0.12335000064922497, 0.11384999743313529, 0.11314999937894754, 0.11984999946434982, 0.11369999992894009, 0.14584999735234305, 0.11404999895603396, 0.11380000069038942, 0.112749999971129, 0.11859999722219072, 0.11860000086016953, 0.11440000162110664, 0.11404999895603396, 0.11694999921019189, 0.1251500034413766, 0.152299995534122, 0.11535000157891773, 0.11544999870238826, 0.1186500012408942, 0.11425000047893263, 0.11240000094403513, 0.11325000014039688, 0.11420000009820797, 0.11784999878727831, 0.11575000098673627, 0.11449999874457717, 0.112749999971129, 0.1523000028100796, 0.11389999781385995, 0.11649999942164868, 0.1141500033554621, 0.1141499997174833, 0.11314999937894754, 0.11280000035185367, 0.11269999959040433, 0.11394999819458462, 0.11350000204402022, 0.13255000521894544, 0.12069999866071157, 0.11999999696854502, 0.12134999633417465, 0.12090000382158905, 0.1233000039064791, 0.11325000014039688, 0.11349999840604141, 0.1130499986174982, 0.11654999980237335, 0.11390000145183876, 0.11884999912581407, 0.11335000090184622, 0.11314999937894754, 0.1203499996336177, 0.11470000026747584, 0.11319999975967221, 0.11525000081746839, 0.11345000166329555, 0.11240000094403513, 0.11335000090184622, 0.11340000128257088, 0.11789999553002417, 0.11654999980237335, 0.11705000360962003, 0.11525000081746839, 0.11774999802582897, 0.13020000187680125, 0.11729999823728576, 0.11664999692584388, 0.1158500017481856, 0.12085000344086438, 0.11325000014039688, 0.11610000001383014, 0.11450000238255598, 0.11420000009820797, 0.11390000145183876, 0.11294999785604887, 0.14984999870648608, 0.11420000009820797, 0.11344999802531675, 0.11384999743313529, 0.11649999942164868, 0.1172500014945399, 0.11470000026747584],
  "Depth": 6.5,
  "Expectation Value": -2.2363944053649902,
  "Optimal Expectation Value": -2.2360680103302,
  "Optimizer durations [ms]": [4.577, 3.287, 3.3, 4.189, 3.523, 3.309, 5.162, 7.442, 3.376, 4.25, 3.399, 3.379, 3.372, 3.366, 4.246, 3.486, 3.383, 3.403, 3.784, 3.347, 4.097, 3.287, 4.045, 3.393, 3.32, 6.902, 7.645, 6.579, 4.401, 3.333, 3.328, 3.325, 3.358, 3.333, 3.256, 3.235, 3.263, 3.691, 3.257, 3.268, 3.435, 3.261, 3.959, 3.272, 3.258, 3.223, 3.49, 3.426, 3.3, 3.276, 3.252, 3.552, 4.177, 3.329, 3.331, 3.407, 3.295, 3.238, 3.236, 3.291, 3.406, 3.269, 3.317, 3.257, 4.176, 3.344, 3.384, 3.271, 3.309, 3.272, 3.233, 3.227, 3.275, 3.3, 3.685, 3.519, 4.214, 3.464, 3.456, 3.469, 3.246, 3.262, 3.403, 3.331, 3.276, 3.476, 3.249, 3.93, 3.498, 3.306, 3.269, 3.388, 3.312, 3.227, 3.264, 3.277, 3.379, 3.386, 3.387, 3.35, 3.468, 3.641, 3.439, 3.35, 3.359, 3.448, 3.269, 3.249, 3.301, 3.271, 3.401, 3.247, 4.062, 3.348, 3.307, 3.31, 3.333, 3.354, 3.208],
  "Optimizer iterations": 119,
  "Optimizer params": [0.07207814085640747, 0.49795071449606965, 0.9942177873235513, 0.22844407648427717, 0.9939120155357191, 0.5059889502658771, 0.3387357966733541, 0.16092107841687098],
  "P": 0,
  "Problem": "IC",
  "QJob durations [ms]": [0.1640999980736524, 0.11704999997164123, 0.11715000073309056, 0.15209999764920212, 0.12085000344086438, 0.12014999811071903, 0.11610000365180895, 0.12425000386429019, 0.12095000420231372, 0.12605000301846303, 0.121900000522146, 0.12009999772999436, 0.11775000166380778, 0.12015000174869783, 0.11860000086016953, 0.12060000153724104, 0.1186500012408942, 0.12040000365232117, 0.11970000196015462, 0.11929999527637847, 0.15729999722680077, 0.11910000102943741, 0.1262500045413617, 0.12224999591126107, 0.11955000081798062, 0.3097999870078638, 0.3196500074409414, 0.27504999525262974, 0.12439999773050658, 0.11495000217109919, 0.11630000153672881, 0.11565000022528693, 0.11959999756072648, 0.1145999995060265, 0.11379999705241062, 0.1128999974753242, 0.11375000030966476, 0.12335000064922497, 0.11384999743313529, 0.11314999937894754, 0.11984999946434982, 0.11369999992894009, 0.14584999735234305, 0.11404999895603396, 0.11380000069038942, 0.112749999971129, 0.11859999722219072, 0.11860000086016953, 0.11440000162110664, 0.11404999895603396, 0.11694999921019189, 0.1251500034413766, 0.152299995534122, 0.11535000157891773, 0.11544999870238826, 0.1186500012408942, 0.11425000047893263, 0.11240000094403513, 0.11325000014039688, 0.11420000009820797, 0.11784999878727831, 0.11575000098673627, 0.11449999874457717, 0.112749999971129, 0.1523000028100796, 0.11389999781385995, 0.11649999942164868, 0.1141500033554621, 0.1141499997174833, 0.11314999937894754, 0.11280000035185367, 0.11269999959040433, 0.11394999819458462, 0.11350000204402022, 0.13255000521894544, 0.12069999866071157, 0.11999999696854502, 0.12134999633417465, 0.12090000382158905, 0.1233000039064791, 0.11325000014039688, 0.11349999840604141, 0.1130499986174982, 0.11654999980237335, 0.11390000145183876, 0.11884999912581407, 0.11335000090184622, 0.11314999937894754, 0.1203499996336177, 0.11470000026747584, 0.11319999975967221, 0.11525000081746839, 0.11345000166329555, 0.11240000094403513, 0.11335000090184622, 0.11340000128257088, 0.11789999553002417, 0.11654999980237335, 0.11705000360962003, 0.11525000081746839, 0.11774999802582897, 0.13020000187680125, 0.11729999823728576, 0.11664999692584388, 0.1158500017481856, 0.12085000344086438, 0.11325000014039688, 0.11610000001383014, 0.11450000238255598, 0.11420000009820797, 0.11390000145183876, 0.11294999785604887, 0.14984999870648608, 0.11420000009820797, 0.11344999802531675, 0.11384999743313529, 0.11649999942164868, 0.1172500014945399, 0.11470000026747584],
  "QPU": "7000000",
  "Qubits": 2,
  "Queue durations [ms]": [0.0, 0.0, 0.0, 0.0, 0.0, 0.0, 0.0, 0.0, 0.0, 0.0, 0.0, 0.0, 0.0, 0.0, 0.0, 0.0, 0.0, 0.0, 0.0, 0.0, 0.0, 0.0, 0.0, 0.0, 0.0, 0.0, 0.0, 0.0, 0.0, 0.0, 0.0, 0.0, 0.0, 0.0, 0.0, 0.0, 0.0, 0.0, 0.0, 0.0, 0.0, 0.0, 0.0, 0.0, 0.0, 0.0, 0.0, 0.0, 0.0, 0.0, 0.0, 0.0, 0.0, 0.0, 0.0, 0.0, 0.0, 0.0, 0.0, 0.0, 0.0, 0.0, 0.0, 0.0, 0.0, 0.0, 0.0, 0.0, 0.0, 0.0, 0.0, 0.0, 0.0, 0.0, 0.0, 0.0, 0.0, 0.0, 0.0, 0.0, 0.0, 0.0, 0.0, 0.0, 0.0, 0.0, 0.0, 0.0, 0.0, 0.0, 0.0, 0.0, 0.0, 0.0, 0.0, 0.0, 0.0, 0.0, 0.0, 0.0, 0.0, 0.0, 0.0, 0.0, 0.0, 0.0, 0.0, 0.0, 0.0, 0.0, 0.0, 0.0, 0.0, 0.0, 0.0, 0.0, 0.0, 0.0, 0.0],
  "Shots": 4096,
  "Size": 2,
  "Total Algorithm duration [s]": 0.426,
  "Total Classic duration [s]": 0.4112767499978654,
  "Total Quantum duration [s]": 0.014723250002134591
}
