{
  "Circuit execution durations [ms]": [0.11580000136746094, 0.1145999995060265, 0.14420000297832303, 0.11389999781385995, 0.11604999963310547, 0.11654999980237335, 0.11674999768729322, 0.11525000081746839, 0.13100000069243833, 0.11440000162110664, 0.11559999984456226, 0.12154999785707332, 0.12059999789926223, 0.16324999887729064, 0.1145999995060265, 0.11665000056382269, 0.11679999806801789, 0.16559999858145602, 0.11449999874457717, 0.11475000064820051, 0.11385000107111409, 0.12029999925289303, 0.11900000390596688, 0.11579999772948213, 0.12084999980288558, 0.12124999921070412, 0.12350000179139897, 0.11594999887165613, 0.11479999739094637, 0.11484999777167104, 0.1147499970102217, 0.11480000102892518, 0.11445000200183131, 0.11404999895603396, 0.11384999743313529, 0.12464999963412993, 0.11699999595293775, 0.1548000000184402, 0.11575000098673627, 0.12564999997266568, 0.11950000043725595, 0.12284999684197828, 0.11604999963310547, 0.11500000255182385, 0.1141499997174833, 0.12079999942216091, 0.1141499997174833, 0.11355000242474489, 0.11330000052112155, 0.12335000064922497, 0.11709999671438709, 0.11660000018309802, 0.11379999705241062, 0.11485000140964985, 0.11470000026747584, 0.11355000242474489, 0.11439999798312783, 0.11380000069038942, 0.11649999942164868, 0.11435000124038197, 0.11399999857530929, 0.13364999904297292, 0.11425000047893263, 0.11820000145235099, 0.11335000090184622, 0.11375000030966476, 0.11384999743313529, 0.13664999642060138, 0.1145999995060265, 0.11884999912581407, 0.11525000081746839, 0.11575000098673627, 0.11530000119819306, 0.11889999950653873, 0.11325000014039688, 0.12619999688467942, 0.12255000183358788, 0.11359999916749075, 0.11779999840655364, 0.11549999908311293, 0.11615000039455481, 0.11385000107111409, 0.11440000162110664, 0.1143000008596573, 0.14915000065229833, 0.11829999857582152, 0.11780000204453245, 0.1143000008596573, 0.11515000005601905, 0.15024999811430462, 0.11829999857582152, 0.11789999916800298, 0.11794999954872765, 0.11959999756072648, 0.12340000102994964, 0.32810000266181305, 0.10729999848990701, 0.3226999906473793, 0.12145000073360279, 0.12259999857633375, 0.11615000403253362, 0.11979999544564635, 0.1258000047528185, 0.1155499994638376, 0.11515000005601905, 0.11469999662949704, 0.18635000014910474, 0.12194999726489186, 0.11864999760291539, 0.1141499997174833, 0.11900000026798807, 0.1143000008596573, 0.11825000183307566, 0.11534999794093892, 0.15390000044135377, 0.12404999870341271, 0.1140000022132881, 0.11385000107111409, 0.11979999908362515, 0.11619999713730067, 0.11455000276328065, 0.12124999921070412, 0.11439999798312783, 0.1140000022132881, 0.11475000064820051, 0.11405000259401277, 0.11475000064820051, 0.11404999895603396, 0.11470000390545465, 0.11950000407523476, 0.11504999929456972, 0.11359999916749075, 0.11354999878676608, 0.11475000064820051, 0.11390000145183876, 0.11319999975967221, 0.11495000217109919, 0.11319999975967221, 0.12435000098776072, 0.11734999861801043, 0.11470000026747584, 0.11499999527586624, 0.13079999916953966, 0.11679999806801789, 0.12019999485346489, 0.1248500011570286, 0.11979999908362515, 0.11850000009872019, 0.11874999836436473, 0.11250000170548446, 0.11439999798312783, 0.11485000140964985, 0.11390000145183876, 0.11375000030966476, 0.11424999684095383, 0.11364999954821542, 0.11904999701073393, 0.11264999920967966, 0.11420000009820797, 0.11335000090184622, 0.11334999726386741, 0.16679999680491164],
  "Depth": 6.5,
  "Expectation Value": -2.2153804302215576,
  "Optimal Expectation Value": -2.2360680103302,
  "Optimizer durations [ms]": [3.395, 3.436, 4.121, 3.29, 3.365, 3.297, 3.447, 3.304, 3.642, 3.308, 3.312, 3.549, 3.365, 4.36, 3.323, 3.382, 3.399, 4.304, 3.309, 3.284, 3.266, 3.439, 3.548, 3.354, 3.431, 3.453, 3.533, 3.373, 3.296, 3.325, 3.322, 3.324, 3.3, 3.31, 3.261, 3.991, 3.342, 4.214, 3.359, 3.538, 3.416, 3.561, 3.319, 3.295, 3.258, 3.408, 3.273, 3.262, 3.489, 3.587, 3.44, 3.286, 3.337, 3.386, 3.291, 3.259, 3.253, 3.266, 3.407, 3.309, 3.186, 3.78, 3.298, 3.456, 3.269, 3.279, 3.295, 3.761, 3.278, 3.526, 3.305, 3.342, 3.291, 3.483, 3.277, 3.627, 3.585, 3.326, 3.291, 3.917, 3.285, 3.304, 3.282, 3.272, 4.09, 3.374, 3.357, 3.326, 3.308, 4.054, 3.401, 3.344, 3.377, 3.448, 3.547, 7.118, 12.231, 8.338, 5.553, 3.595, 3.361, 3.33, 3.575, 3.317, 3.322, 3.285, 4.729, 3.509, 3.334, 3.283, 3.416, 3.293, 3.426, 3.331, 4.136, 3.556, 3.278, 3.288, 3.483, 3.389, 3.28, 3.405, 3.29, 3.274, 3.343, 3.266, 3.809, 3.265, 3.677, 3.575, 3.321, 3.253, 3.271, 3.304, 3.249, 3.258, 3.325, 3.274, 3.577, 3.341, 3.315, 3.306, 3.691, 3.365, 3.504, 3.971, 3.471, 3.381, 3.326, 3.242, 3.645, 3.364, 3.285, 3.302, 3.276, 3.281, 3.428, 3.259, 3.302, 3.269, 3.406, 4.331],
  "Optimizer iterations": 162,
  "Optimizer params": [0.4259541638212614, 0.5123122324826489, 0.06175413776076689, 0.1918060690015061, 0.5035112817846754, 0.03772269269083142, 0.31520766820152085, 0.24192658181013618],
  "P": 0,
  "Problem": "IC",
  "QJob durations [ms]": [0.11580000136746094, 0.1145999995060265, 0.14420000297832303, 0.11389999781385995, 0.11604999963310547, 0.11654999980237335, 0.11674999768729322, 0.11525000081746839, 0.13100000069243833, 0.11440000162110664, 0.11559999984456226, 0.12154999785707332, 0.12059999789926223, 0.16324999887729064, 0.1145999995060265, 0.11665000056382269, 0.11679999806801789, 0.16559999858145602, 0.11449999874457717, 0.11475000064820051, 0.11385000107111409, 0.12029999925289303, 0.11900000390596688, 0.11579999772948213, 0.12084999980288558, 0.12124999921070412, 0.12350000179139897, 0.11594999887165613, 0.11479999739094637, 0.11484999777167104, 0.1147499970102217, 0.11480000102892518, 0.11445000200183131, 0.11404999895603396, 0.11384999743313529, 0.12464999963412993, 0.11699999595293775, 0.1548000000184402, 0.11575000098673627, 0.12564999997266568, 0.11950000043725595, 0.12284999684197828, 0.11604999963310547, 0.11500000255182385, 0.1141499997174833, 0.12079999942216091, 0.1141499997174833, 0.11355000242474489, 0.11330000052112155, 0.12335000064922497, 0.11709999671438709, 0.11660000018309802, 0.11379999705241062, 0.11485000140964985, 0.11470000026747584, 0.11355000242474489, 0.11439999798312783, 0.11380000069038942, 0.11649999942164868, 0.11435000124038197, 0.11399999857530929, 0.13364999904297292, 0.11425000047893263, 0.11820000145235099, 0.11335000090184622, 0.11375000030966476, 0.11384999743313529, 0.13664999642060138, 0.1145999995060265, 0.11884999912581407, 0.11525000081746839, 0.11575000098673627, 0.11530000119819306, 0.11889999950653873, 0.11325000014039688, 0.12619999688467942, 0.12255000183358788, 0.11359999916749075, 0.11779999840655364, 0.11549999908311293, 0.11615000039455481, 0.11385000107111409, 0.11440000162110664, 0.1143000008596573, 0.14915000065229833, 0.11829999857582152, 0.11780000204453245, 0.1143000008596573, 0.11515000005601905, 0.15024999811430462, 0.11829999857582152, 0.11789999916800298, 0.11794999954872765, 0.11959999756072648, 0.12340000102994964, 0.32810000266181305, 0.10729999848990701, 0.3226999906473793, 0.12145000073360279, 0.12259999857633375, 0.11615000403253362, 0.11979999544564635, 0.1258000047528185, 0.1155499994638376, 0.11515000005601905, 0.11469999662949704, 0.18635000014910474, 0.12194999726489186, 0.11864999760291539, 0.1141499997174833, 0.11900000026798807, 0.1143000008596573, 0.11825000183307566, 0.11534999794093892, 0.15390000044135377, 0.12404999870341271, 0.1140000022132881, 0.11385000107111409, 0.11979999908362515, 0.11619999713730067, 0.11455000276328065, 0.12124999921070412, 0.11439999798312783, 0.1140000022132881, 0.11475000064820051, 0.11405000259401277, 0.11475000064820051, 0.11404999895603396, 0.11470000390545465, 0.11950000407523476, 0.11504999929456972, 0.11359999916749075, 0.11354999878676608, 0.11475000064820051, 0.11390000145183876, 0.11319999975967221, 0.11495000217109919, 0.11319999975967221, 0.12435000098776072, 0.11734999861801043, 0.11470000026747584, 0.11499999527586624, 0.13079999916953966, 0.11679999806801789, 0.12019999485346489, 0.1248500011570286, 0.11979999908362515, 0.11850000009872019, 0.11874999836436473, 0.11250000170548446, 0.11439999798312783, 0.11485000140964985, 0.11390000145183876, 0.11375000030966476, 0.11424999684095383, 0.11364999954821542, 0.11904999701073393, 0.11264999920967966, 0.11420000009820797, 0.11335000090184622, 0.11334999726386741, 0.16679999680491164],
  "QPU": "7000000",
  "Qubits": 2,
  "Queue durations [ms]": [0.0, 0.0, 0.0, 0.0, 0.0, 0.0, 0.0, 0.0, 0.0, 0.0, 0.0, 0.0, 0.0, 0.0, 0.0, 0.0, 0.0, 0.0, 0.0, 0.0, 0.0, 0.0, 0.0, 0.0, 0.0, 0.0, 0.0, 0.0, 0.0, 0.0, 0.0, 0.0, 0.0, 0.0, 0.0, 0.0, 0.0, 0.0, 0.0, 0.0, 0.0, 0.0, 0.0, 0.0, 0.0, 0.0, 0.0, 0.0, 0.0, 0.0, 0.0, 0.0, 0.0, 0.0, 0.0, 0.0, 0.0, 0.0, 0.0, 0.0, 0.0, 0.0, 0.0, 0.0, 0.0, 0.0, 0.0, 0.0, 0.0, 0.0, 0.0, 0.0, 0.0, 0.0, 0.0, 0.0, 0.0, 0.0, 0.0, 0.0, 0.0, 0.0, 0.0, 0.0, 0.0, 0.0, 0.0, 0.0, 0.0, 0.0, 0.0, 0.0, 0.0, 0.0, 0.0, 0.0, 0.0, 0.0, 0.0, 0.0, 0.0, 0.0, 0.0, 0.0, 0.0, 0.0, 0.0, 0.0, 0.0, 0.0, 0.0, 0.0, 0.0, 0.0, 0.0, 0.0, 0.0, 0.0, 0.0, 0.0, 0.0, 0.0, 0.0, 0.0, 0.0, 0.0, 0.0, 0.0, 0.0, 0.0, 0.0, 0.0, 0.0, 0.0, 0.0, 0.0, 0.0, 0.0, 0.0, 0.0, 0.0, 0.0, 0.0, 0.0, 0.0, 0.0, 0.0, 0.0, 0.0, 0.0, 0.0, 0.0, 0.0, 0.0, 0.0, 0.0, 0.0, 0.0, 0.0, 0.0, 0.0, 0.0],
  "Shots": 4096,
  "Size": 2,
  "Total Algorithm duration [s]": 0.576,
  "Total Classic duration [s]": 0.5562542000506946,
  "Total Quantum duration [s]": 0.019745799949305365
}
