{
  "Circuit execution durations [ms]": [0.16479999612784013, 0.12414999582688324, 0.1237499964190647, 0.12490000517573208, 0.11449999874457717, 0.11689999882946722, 0.11425000047893263, 0.11485000140964985, 0.11645000267890282, 0.1142999972216785, 0.1448499970138073, 0.11300000187475234, 0.12045000039506704, 0.1143000008596573, 0.11625000115600415, 0.11744999937945977, 0.11420000009820797, 0.11335000090184622, 0.11390000145183876, 0.11349999840604141, 0.11435000124038197, 0.11404999895603396, 0.12194999726489186, 0.11995000022579916, 0.12010000136797316, 0.11399999857530929, 0.14170000213198364, 0.12155000149505213, 0.11420000009820797, 0.11519999679876491, 0.11935000293306075, 0.11380000069038942, 0.11369999992894009, 0.11359999916749075, 0.12270000297576189, 0.12225000318721868, 0.11549999908311293, 0.11615000039455481, 0.11665000056382269, 0.11985000310232863, 0.12084999980288558, 0.12055000479449518, 0.1248500011570286, 0.12745000276481733, 0.13509999553207308, 0.11679999806801789, 0.1159999992523808, 0.11470000026747584, 0.11905000064871274, 0.1220499980263412, 0.12109999806853011, 0.11820000145235099, 0.12534999768831767, 0.11770000492106192, 0.11575000098673627, 0.12274999971850775, 0.1186500012408942, 0.12360000255284831, 0.11844999608001672, 0.12089999654563144, 0.11820000145235099, 0.17115000082412735, 0.11780000204453245, 0.12059999789926223, 0.11840000297524966, 0.11770000128308311, 0.11715000073309056, 0.1173999989987351, 0.1526000014564488, 0.11799999629147351, 0.12180000339867547, 0.11765000090235844, 0.11535000157891773, 0.11940000331378542, 0.11580000136746094, 0.12150000111432746, 0.12015000174869783, 0.12604999574250542, 0.11615000039455481, 0.11615000039455481, 0.11520000043674372, 0.11530000119819306, 0.12115000208723359, 0.11764999726437964, 0.11564999658730812, 0.11589999849093147, 0.11730000187526457, 0.1220499980263412, 0.11825000183307566, 0.11804999667219818, 0.16799999866634607, 0.12104999768780544, 0.11805000031017698, 0.12259999857633375, 0.1188000023830682, 0.12865000462625176, 0.12015000174869783, 0.11999999696854502, 0.11694999921019189, 0.13580000086221844, 0.11744999937945977, 0.11610000001383014, 0.11650000305962749, 0.12029999925289303, 0.11875000200234354, 0.14385000031325035, 0.12044999675708823, 0.11730000187526457, 0.12279999646125361, 0.1203499996336177, 0.11870000162161887, 0.12984999557374977, 0.11760000415961258, 0.12310000238358043, 0.1187999987450894, 0.11970000196015462, 0.11765000090235844, 0.125299997307593, 0.11715000073309056, 0.2504999974917155, 0.12100000094505958, 0.11965000157942995, 0.1171000003523659, 0.12355000217212364],
  "Depth": 6.5,
  "Expectation Value": -2.235466480255127,
  "Optimal Expectation Value": -2.2360680103302,
  "Optimizer durations [ms]": [4.379, 3.678, 3.57, 3.601, 3.28, 3.548, 3.282, 3.317, 3.376, 3.339, 4.21, 3.236, 3.446, 3.27, 3.392, 3.327, 3.301, 3.276, 3.271, 3.328, 3.32, 3.634, 3.397, 3.377, 3.467, 3.364, 3.89, 3.445, 3.314, 3.293, 3.444, 3.248, 3.276, 3.269, 3.552, 3.404, 3.286, 3.281, 3.309, 3.489, 3.442, 3.397, 3.559, 3.609, 3.68, 3.395, 3.988, 3.263, 3.954, 3.42, 3.443, 3.318, 3.609, 3.311, 3.288, 3.567, 3.416, 4.26, 3.314, 3.381, 3.322, 4.516, 3.339, 3.445, 3.382, 3.311, 3.356, 3.304, 4.039, 3.309, 3.417, 3.415, 3.273, 3.336, 4.995, 7.566, 3.46, 3.608, 3.269, 3.748, 3.265, 3.299, 3.414, 3.347, 3.293, 3.277, 5.028, 3.585, 3.388, 3.373, 4.469, 3.415, 3.387, 3.428, 3.314, 3.593, 3.391, 3.413, 3.329, 3.709, 3.334, 3.259, 3.744, 3.455, 3.302, 3.789, 3.348, 3.278, 3.415, 3.379, 3.37, 3.621, 3.311, 4.105, 3.311, 3.362, 3.318, 3.504, 3.312, 5.586, 3.871, 3.417, 3.3, 3.544],
  "Optimizer iterations": 124,
  "Optimizer params": [0.6455765572198897, 0.3443076249363889, 0.9959692766372085, 0.5163118776567259, 0.6294066600748457, 0.18738540242597915, 0.4377125785767308, 0.5308684456636836],
  "P": 0,
  "Problem": "IC",
  "QJob durations [ms]": [0.16479999612784013, 0.12414999582688324, 0.1237499964190647, 0.12490000517573208, 0.11449999874457717, 0.11689999882946722, 0.11425000047893263, 0.11485000140964985, 0.11645000267890282, 0.1142999972216785, 0.1448499970138073, 0.11300000187475234, 0.12045000039506704, 0.1143000008596573, 0.11625000115600415, 0.11744999937945977, 0.11420000009820797, 0.11335000090184622, 0.11390000145183876, 0.11349999840604141, 0.11435000124038197, 0.11404999895603396, 0.12194999726489186, 0.11995000022579916, 0.12010000136797316, 0.11399999857530929, 0.14170000213198364, 0.12155000149505213, 0.11420000009820797, 0.11519999679876491, 0.11935000293306075, 0.11380000069038942, 0.11369999992894009, 0.11359999916749075, 0.12270000297576189, 0.12225000318721868, 0.11549999908311293, 0.11615000039455481, 0.11665000056382269, 0.11985000310232863, 0.12084999980288558, 0.12055000479449518, 0.1248500011570286, 0.12745000276481733, 0.13509999553207308, 0.11679999806801789, 0.1159999992523808, 0.11470000026747584, 0.11905000064871274, 0.1220499980263412, 0.12109999806853011, 0.11820000145235099, 0.12534999768831767, 0.11770000492106192, 0.11575000098673627, 0.12274999971850775, 0.1186500012408942, 0.12360000255284831, 0.11844999608001672, 0.12089999654563144, 0.11820000145235099, 0.17115000082412735, 0.11780000204453245, 0.12059999789926223, 0.11840000297524966, 0.11770000128308311, 0.11715000073309056, 0.1173999989987351, 0.1526000014564488, 0.11799999629147351, 0.12180000339867547, 0.11765000090235844, 0.11535000157891773, 0.11940000331378542, 0.11580000136746094, 0.12150000111432746, 0.12015000174869783, 0.12604999574250542, 0.11615000039455481, 0.11615000039455481, 0.11520000043674372, 0.11530000119819306, 0.12115000208723359, 0.11764999726437964, 0.11564999658730812, 0.11589999849093147, 0.11730000187526457, 0.1220499980263412, 0.11825000183307566, 0.11804999667219818, 0.16799999866634607, 0.12104999768780544, 0.11805000031017698, 0.12259999857633375, 0.1188000023830682, 0.12865000462625176, 0.12015000174869783, 0.11999999696854502, 0.11694999921019189, 0.13580000086221844, 0.11744999937945977, 0.11610000001383014, 0.11650000305962749, 0.12029999925289303, 0.11875000200234354, 0.14385000031325035, 0.12044999675708823, 0.11730000187526457, 0.12279999646125361, 0.1203499996336177, 0.11870000162161887, 0.12984999557374977, 0.11760000415961258, 0.12310000238358043, 0.1187999987450894, 0.11970000196015462, 0.11765000090235844, 0.125299997307593, 0.11715000073309056, 0.2504999974917155, 0.12100000094505958, 0.11965000157942995, 0.1171000003523659, 0.12355000217212364],
  "QPU": "7000000",
  "Qubits": 2,
  "Queue durations [ms]": [0.0, 0.0, 0.0, 0.0, 0.0, 0.0, 0.0, 0.0, 0.0, 0.0, 0.0, 0.0, 0.0, 0.0, 0.0, 0.0, 0.0, 0.0, 0.0, 0.0, 0.0, 0.0, 0.0, 0.0, 0.0, 0.0, 0.0, 0.0, 0.0, 0.0, 0.0, 0.0, 0.0, 0.0, 0.0, 0.0, 0.0, 0.0, 0.0, 0.0, 0.0, 0.0, 0.0, 0.0, 0.0, 0.0, 0.0, 0.0, 0.0, 0.0, 0.0, 0.0, 0.0, 0.0, 0.0, 0.0, 0.0, 0.0, 0.0, 0.0, 0.0, 0.0, 0.0, 0.0, 0.0, 0.0, 0.0, 0.0, 0.0, 0.0, 0.0, 0.0, 0.0, 0.0, 0.0, 0.0, 0.0, 0.0, 0.0, 0.0, 0.0, 0.0, 0.0, 0.0, 0.0, 0.0, 0.0, 0.0, 0.0, 0.0, 0.0, 0.0, 0.0, 0.0, 0.0, 0.0, 0.0, 0.0, 0.0, 0.0, 0.0, 0.0, 0.0, 0.0, 0.0, 0.0, 0.0, 0.0, 0.0, 0.0, 0.0, 0.0, 0.0, 0.0, 0.0, 0.0, 0.0, 0.0, 0.0, 0.0, 0.0, 0.0, 0.0, 0.0],
  "Shots": 4096,
  "Size": 2,
  "Total Algorithm duration [s]": 0.439,
  "Total Classic duration [s]": 0.4238603999816987,
  "Total Quantum duration [s]": 0.01513960001830128
}
