{
  "Circuit execution durations [ms]": [20.914316177368164, 20.794153213500977, 20.841479301452637, 20.942330360412598, 20.805716514587402, 20.981550216674805, 53.80046367645264, 21.013736724853516, 20.903587341308594, 20.90156078338623, 20.730257034301758, 20.9273099899292, 20.702481269836426, 20.785927772521973, 20.806074142456055, 20.75660228729248, 53.884267807006836, 20.89822292327881, 20.800352096557617, 20.803451538085938, 20.818114280700684, 20.745158195495605, 20.92897891998291, 20.99323272705078, 20.863771438598633, 21.012306213378906, 54.01718616485596, 20.752668380737305, 20.84171772003174, 20.829200744628906, 20.985841751098633, 20.93327045440674, 21.067261695861816, 20.920515060424805],
  "Depth": 2.0,
  "Expectation Value": -1.655124306678772,
  "Optimal Expectation Value": -1.746999979019165,
  "Optimizer durations [ms]": [44.002, 43.788, 43.853, 44.061, 43.728, 44.182, 109.889, 44.266, 43.962, 43.942, 43.621, 43.907, 43.466, 43.817, 43.84, 43.752, 110.085, 44.05, 43.829, 43.695, 43.785, 43.722, 43.974, 44.209, 43.961, 44.214, 110.293, 43.665, 43.778, 43.915, 44.209, 44.12, 44.545, 44.099],
  "Optimizer iterations": 34,
  "Optimizer params": [0.029398949469531706, 0.7906321713629891, 0.6395825335113073],
  "P": 0,
  "Problem": "RH",
  "QJob durations [ms]": [20.914316177368164, 20.794153213500977, 20.841479301452637, 20.942330360412598, 20.805716514587402, 20.981550216674805, 53.80046367645264, 21.013736724853516, 20.903587341308594, 20.90156078338623, 20.730257034301758, 20.9273099899292, 20.702481269836426, 20.785927772521973, 20.806074142456055, 20.75660228729248, 53.884267807006836, 20.89822292327881, 20.800352096557617, 20.803451538085938, 20.818114280700684, 20.745158195495605, 20.92897891998291, 20.99323272705078, 20.863771438598633, 21.012306213378906, 54.01718616485596, 20.752668380737305, 20.84171772003174, 20.829200744628906, 20.985841751098633, 20.93327045440674, 21.067261695861816, 20.920515060424805],
  "QPU": "9000001",
  "Qubits": 3,
  "Queue durations [ms]": [0.0, 0.0, 0.0, 0.0, 0.0, 0.0, 0.0, 0.0, 0.0, 0.0, 0.0, 0.0, 0.0, 0.0, 0.0, 0.0, 0.0, 0.0, 0.0, 0.0, 0.0, 0.0, 0.0, 0.0, 0.0, 0.0, 0.0, 0.0, 0.0, 0.0, 0.0, 0.0, 0.0, 0.0],
  "Shots": 4096,
  "Size": 3,
  "Total Algorithm duration [s]": 1.692,
  "Total Classic duration [s]": 0.8832969350814819,
  "Total Quantum duration [s]": 0.8087030649185181
}
