{
  "Circuit execution durations [ms]": [53.95066738128662, 20.980358123779297, 20.743250846862793, 20.852327346801758, 20.902633666992188, 20.907878875732422, 20.767688751220703, 20.849108695983887, 20.87879180908203, 20.88141441345215, 53.981781005859375, 20.67255973815918, 21.30270004272461, 20.798444747924805, 20.86162567138672, 20.98226547241211, 20.81465721130371, 20.93946933746338, 20.71678638458252, 20.94101905822754, 53.99644374847412, 20.975470542907715, 20.818352699279785, 20.824432373046875, 20.76268196105957, 20.875930786132813, 20.981669425964355, 20.782947540283203, 20.86615562438965, 20.938396453857422, 53.6881685256958, 20.9503173828125, 21.01576328277588, 20.734310150146484, 20.88165283203125, 20.711064338684082, 20.748257637023926, 20.77341079711914, 20.9120512008667, 20.877718925476074, 54.19182777404785],
  "Depth": 2.0,
  "Expectation Value": -1.7468361854553223,
  "Optimal Expectation Value": -1.746999979019165,
  "Optimizer durations [ms]": [110.395, 44.166, 43.742, 43.996, 44.082, 44.09, 43.799, 43.986, 44.02, 44.06, 110.271, 43.571, 44.821, 43.906, 43.921, 44.151, 43.834, 44.082, 43.643, 44.15, 110.356, 44.089, 43.854, 43.786, 43.865, 44.009, 44.196, 43.744, 43.943, 44.102, 109.727, 44.224, 44.139, 43.716, 44.016, 43.714, 43.766, 43.766, 44.03, 43.94, 110.714],
  "Optimizer iterations": 41,
  "Optimizer params": [0.9550456491244541, 0.15854978117238472, 0.9556417817017943],
  "P": 0,
  "Problem": "RH",
  "QJob durations [ms]": [53.95066738128662, 20.980358123779297, 20.743250846862793, 20.852327346801758, 20.902633666992188, 20.907878875732422, 20.767688751220703, 20.849108695983887, 20.87879180908203, 20.88141441345215, 53.981781005859375, 20.67255973815918, 21.30270004272461, 20.798444747924805, 20.86162567138672, 20.98226547241211, 20.81465721130371, 20.93946933746338, 20.71678638458252, 20.94101905822754, 53.99644374847412, 20.975470542907715, 20.818352699279785, 20.824432373046875, 20.76268196105957, 20.875930786132813, 20.981669425964355, 20.782947540283203, 20.86615562438965, 20.938396453857422, 53.6881685256958, 20.9503173828125, 21.01576328277588, 20.734310150146484, 20.88165283203125, 20.711064338684082, 20.748257637023926, 20.77341079711914, 20.9120512008667, 20.877718925476074, 54.19182777404785],
  "QPU": "9000001",
  "Qubits": 3,
  "Queue durations [ms]": [0.0, 0.0, 0.0, 0.0, 0.0, 0.0, 0.0, 0.0, 0.0, 0.0, 0.0, 0.0, 0.0, 0.0, 0.0, 0.0, 0.0, 0.0, 0.0, 0.0, 0.0, 0.0, 0.0, 0.0, 0.0, 0.0, 0.0, 0.0, 0.0, 0.0, 0.0, 0.0, 0.0, 0.0, 0.0, 0.0, 0.0, 0.0, 0.0, 0.0, 0.0],
  "Shots": 4096,
  "Size": 3,
  "Total Algorithm duration [s]": 2.134,
  "Total Classic duration [s]": 1.112967547416687,
  "Total Quantum duration [s]": 1.021032452583313
}
