{
  "Depth": 401.0,
  "Expectation Value": -1.8551150560379028,
  "Job durations [ms]": [2.4701, 2.5694, 2.4524999999999997, 2.5141999999999998, 2.5934, 2.5424, 2.4681, 2.4694000000000003, 2.5327, 2.5554, 2.4618, 2.5545, 2.5387, 2.4524, 2.4327, 2.4198, 2.4516, 2.8654, 2.42, 2.5233999999999996, 2.6639, 2.4497, 2.4808, 2.3952999999999998, 2.5574999999999997, 2.4334000000000002, 2.4474, 2.406, 2.5488, 2.4387, 2.4802, 2.4231000000000003, 2.4237, 2.4090000000000003, 2.4383999999999997, 2.44, 2.4183999999999997, 2.437, 2.5469, 2.5471, 2.4301, 2.4274999999999998, 2.4703, 2.4642, 2.5372, 2.4489, 2.4448, 2.5827, 2.4493, 2.4507000000000003, 2.5219, 2.4713000000000003, 2.4489, 2.4352, 2.5112, 2.4259, 2.5347999999999997, 2.4362, 2.4448999999999996, 2.5295, 2.3933, 2.4456, 2.4217, 2.5279, 2.3788, 2.4297, 2.4347000000000003, 2.4108, 2.3845, 2.42, 2.5152, 2.4731, 2.4522, 2.5471999999999997, 2.4737999999999998, 2.4124, 2.5573, 2.5177, 2.5477999999999996, 2.4428, 2.4101, 2.2204, 2.4248, 2.6197999999999997, 2.4088, 2.6442, 2.5477, 2.4886, 2.5808, 2.4137, 2.5046999999999997, 2.4492, 2.4407, 2.5596, 2.4362, 2.4239, 2.415, 2.5866000000000002, 2.4069, 2.8014, 2.4659, 2.5071, 2.3988, 2.4448999999999996, 2.4962999999999997, 2.4359, 2.4221, 2.5695, 2.5624, 2.6504, 2.4232, 2.4492, 2.4505999999999997, 2.4177999999999997, 2.4792, 2.8236, 2.8041],
  "Optimal Expectation Value": -2.0,
  "Optimizer durations [ms]": [35.014, 31.033, 35.029, 30.558, 28.284, 31.103, 34.815, 35.076, 28.031, 30.944, 34.732, 30.032, 28.504, 34.655, 34.553, 34.345, 34.735, 34.108, 34.317, 30.641, 31.164, 34.515, 34.944, 34.181, 30.874, 34.695, 34.697, 31.233, 31.072, 34.367, 35.069, 34.294, 34.422, 34.443, 34.757, 34.382, 34.669, 34.755, 30.847, 30.851, 26.608, 30.305, 34.85, 34.782, 30.72, 34.877, 34.742, 31.238, 34.689, 34.512, 30.939, 34.795, 31.907, 34.424, 30.304, 34.54, 30.742, 34.339, 34.534, 35.296, 34.048, 34.9, 34.369, 30.671, 33.898, 34.52, 31.803, 34.43, 29.167, 34.563, 34.622, 35.022, 34.701, 31.019, 31.215, 34.445, 30.999, 35.388, 30.929, 34.434, 34.423, 27.77, 34.553, 28.48, 34.444, 33.846, 30.676, 27.48, 31.236, 34.282, 28.395, 34.514, 34.509, 30.928, 34.586, 34.405, 34.146, 31.433, 29.663, 30.54, 30.079, 30.493, 34.192, 34.646, 30.375, 34.315, 31.861, 31.229, 31.056, 33.897, 34.602, 34.625, 30.042, 34.326, 35.224, 31.021, 33.617],
  "Optimizer iterations": 117,
  "Optimizer params": [1.0, 0.5526227413511462, 0.9569162228630282, 0.14549718274663975, 0.8275070028199808, 0.5885363171367646],
  "P": 3,
  "Problem": "MIS",
  "QPU": "7000000",
  "Qubits": 10,
  "Shots": 4096,
  "Size": 7,
  "Total Algorithm duration [s]": 3.841,
  "Total Classic duration [s]": 3.5500907,
  "Total Quantum duration [s]": 0.29090930000000015
}
