{
  "Depth": 401.0,
  "Expectation Value": -1.952043056488037,
  "Job durations [ms]": [2.4635, 2.2812, 2.303, 2.565, 2.6256999999999997, 2.4769, 2.4638, 2.4473, 2.4898, 2.4792, 2.4686999999999997, 2.4842000000000004, 2.4594, 2.4913000000000003, 2.5962, 2.4253, 2.5629, 2.4171, 2.5522, 2.4768, 2.4924999999999997, 2.4946, 2.4685, 2.4578, 2.5316, 2.4565, 2.4391, 2.4667, 2.4458, 2.4196999999999997, 2.4348, 2.402, 2.6170999999999998, 2.4356, 2.4383999999999997, 2.4356999999999998, 2.4594, 2.4156, 2.4718, 2.4105, 2.4213, 2.2704999999999997, 2.4608999999999996, 2.5347, 2.5702, 2.5278, 2.438, 2.399, 2.4611, 2.5213, 2.4545, 2.4402, 2.4954, 2.4915, 2.4396, 2.4236, 2.4596999999999998, 2.5191, 2.3744, 2.3993, 2.4034, 2.4831, 2.4865, 2.2842000000000002, 2.5387999999999997, 2.437, 2.4489, 2.5224, 2.6416999999999997, 2.5415, 2.454, 2.4521, 2.7725, 2.5858, 2.5281000000000002, 2.4513],
  "Optimal Expectation Value": -2.0,
  "Optimizer durations [ms]": [34.76, 28.221, 28.311, 31.115, 31.707, 34.673, 34.867, 34.651, 34.974, 35.038, 34.872, 30.888, 34.718, 30.25, 31.372, 34.6, 30.767, 34.302, 30.847, 32.607, 35.278, 34.995, 29.844, 34.794, 30.563, 34.816, 34.288, 35.016, 34.505, 34.093, 34.627, 34.446, 31.523, 34.655, 34.423, 34.606, 34.693, 34.325, 30.033, 31.798, 31.731, 27.814, 34.942, 30.519, 28.858, 30.408, 34.064, 34.198, 32.043, 30.333, 35.023, 34.636, 30.102, 34.85, 34.742, 34.522, 35.734, 32.45, 33.923, 34.133, 34.354, 27.684, 35.044, 28.421, 30.505, 31.758, 34.824, 30.366, 34.015, 34.975, 35.064, 34.765, 33.07, 31.336, 28.064, 34.773],
  "Optimizer iterations": 76,
  "Optimizer params": [0.23996398595103274, 0.2804015190355081, 0.998101597189109, 0.9951699743182273, 0.06345983385165123, 0.03952108142119332],
  "P": 3,
  "Problem": "MIS",
  "QPU": "7000000",
  "Qubits": 10,
  "Shots": 4096,
  "Size": 7,
  "Total Algorithm duration [s]": 2.5,
  "Total Classic duration [s]": 2.3121434,
  "Total Quantum duration [s]": 0.18785660000000007
}
