{
  "Depth": 401.0,
  "Expectation Value": -1.9451786279678345,
  "Job durations [ms]": [2.5374999999999996, 2.4267999999999996, 2.3979, 2.4092, 2.3966, 2.3904, 2.3808000000000002, 2.4099, 2.4221, 2.4071000000000002, 2.4248999999999996, 2.444, 2.4973, 2.4252000000000002, 2.4278, 2.4522, 2.3826, 2.4917, 2.7735, 2.439, 2.3813, 2.392, 2.422, 2.5265, 2.4241, 2.4264, 2.6584, 2.6262999999999996, 2.594, 2.4123, 2.3836, 2.453, 2.4279, 2.4183999999999997, 2.3917, 2.4067, 2.5088, 2.4280999999999997, 2.4306, 2.4112999999999998, 2.3568000000000002, 2.4727, 2.4325, 2.4486, 2.4258, 2.5277, 2.4423, 2.4798, 2.4255, 2.7001999999999997, 2.4196999999999997, 2.3531, 2.4161, 2.4383, 2.4224, 2.512, 2.4758, 2.4393000000000002, 2.4415, 2.447, 2.4351, 2.4204, 2.4166000000000003, 2.4248, 2.4177999999999997, 2.4174, 2.4450000000000003, 2.4448999999999996, 2.4026, 2.4308, 2.4139999999999997, 2.4933, 2.3912, 2.4124, 2.4451, 2.4343, 2.3927, 2.5532, 2.4312, 2.4821, 2.4114, 2.4444, 2.4055999999999997, 2.4636, 2.5231, 2.4553000000000003, 2.5022, 2.4723, 2.4182, 2.4335, 2.4366000000000003, 2.4368, 2.4313, 2.4678, 2.4116, 2.3916, 2.4072999999999998, 2.4475000000000002, 2.8523, 2.4355, 2.4053999999999998, 2.431, 2.4002],
  "Optimal Expectation Value": -2.0,
  "Optimizer durations [ms]": [30.717, 34.452, 34.506, 34.021, 34.341, 33.858, 33.989, 34.284, 34.105, 34.225, 34.266, 32.167, 30.239, 34.538, 34.311, 34.566, 33.992, 30.394, 30.699, 34.763, 33.917, 34.092, 34.551, 30.768, 34.458, 34.219, 31.25, 31.329, 31.362, 34.394, 34.177, 29.893, 34.258, 34.248, 33.889, 34.314, 35.364, 34.561, 34.548, 34.248, 33.608, 35.106, 34.586, 34.628, 34.282, 30.947, 31.733, 30.182, 34.369, 34.709, 34.204, 33.929, 34.04, 34.433, 34.786, 30.291, 34.957, 34.519, 34.929, 34.804, 34.362, 34.561, 34.531, 34.15, 34.329, 31.679, 32.39, 34.637, 34.348, 34.322, 34.194, 30.31, 30.925, 31.32, 34.574, 34.473, 33.87, 31.139, 34.337, 35.13, 31.435, 34.378, 34.217, 34.978, 30.567, 34.558, 35.168, 34.36, 34.418, 34.536, 34.795, 34.427, 34.443, 34.914, 34.239, 34.183, 34.003, 31.919, 33.703, 34.442, 34.566, 34.556, 34.243],
  "Optimizer iterations": 103,
  "Optimizer params": [0.28737782195477424, 0.9777196523998287, 0.00247513672829428, 0.2618222186158381, 1.0, 0.7360424698952808],
  "P": 3,
  "Problem": "MIS",
  "QPU": "7000000",
  "Qubits": 10,
  "Shots": 4096,
  "Size": 7,
  "Total Algorithm duration [s]": 3.466,
  "Total Classic duration [s]": 3.2136736000000004,
  "Total Quantum duration [s]": 0.2523263999999999
}
