{
  "Circuit execution durations [ms]": [88.23156356811523, 88.91916275024414, 88.20796012878418, 87.63313293457031, 88.14716339111328, 88.23466300964355, 87.07070350646973, 86.9147777557373, 87.11099624633789, 87.18013763427734, 88.36698532104492, 87.58997917175293, 157.09590911865234, 86.65585517883301, 86.88569068908691, 86.85922622680664, 86.95673942565918, 86.80415153503418, 86.91906929016113, 87.74113655090332, 87.33963966369629, 88.08708190917969, 86.79628372192383, 86.58170700073242, 86.73214912414551, 87.89873123168945, 87.2032642364502, 87.18490600585938, 87.00442314147949, 87.23998069763184, 87.45050430297852, 87.23926544189453, 87.11051940917969, 86.48872375488281, 87.79358863830566, 87.982177734375, 87.11957931518555, 87.10694313049316, 88.00435066223145, 87.48912811279297, 87.19992637634277, 87.80121803283691, 87.38088607788086, 87.49032020568848, 88.02294731140137, 87.3708724975586, 87.45694160461426, 86.59124374389648, 86.46893501281738, 87.13889122009277, 87.22329139709473, 152.28605270385742, 87.44025230407715, 87.0504379272461, 88.62996101379395, 86.49444580078125, 87.4629020690918, 87.01300621032715, 86.94291114807129, 87.45098114013672, 87.99338340759277, 87.15033531188965, 87.48316764831543, 153.17773818969727, 87.33820915222168, 87.43882179260254, 87.21256256103516, 87.43548393249512, 87.87870407104492, 87.33868598937988, 87.60762214660645, 86.43627166748047, 86.30585670471191, 87.16535568237305, 87.2950553894043, 152.81915664672852, 86.97104454040527, 87.89491653442383, 86.22145652770996, 87.46170997619629, 87.18132972717285, 86.62581443786621, 87.28861808776855, 87.89587020874023, 86.87186241149902, 87.25547790527344, 87.35060691833496, 153.52821350097656, 87.22758293151855, 87.92614936828613],
  "Depth": 275.0,
  "Expectation Value": -19.2919921875,
  "Optimal Expectation Value": -22.0,
  "Optimizer durations [ms]": [116.702, 117.742, 116.539, 116.155, 116.764, 116.634, 115.491, 115.501, 115.496, 115.74, 117.126, 116.084, 185.61, 115.369, 115.244, 115.363, 115.12, 114.895, 114.908, 116.248, 116.005, 116.809, 115.244, 114.927, 180.111, 116.766, 115.92, 115.877, 115.804, 115.836, 116.248, 116.226, 115.575, 114.885, 116.553, 116.474, 115.694, 115.583, 116.53, 115.844, 180.068, 116.483, 115.592, 115.962, 116.871, 115.952, 116.16, 114.913, 114.957, 115.58, 115.804, 180.978, 116.139, 115.424, 116.912, 114.659, 115.957, 115.517, 115.321, 116.114, 116.516, 115.562, 115.865, 181.926, 115.962, 115.957, 115.851, 115.795, 116.248, 115.8, 115.974, 114.574, 114.716, 115.824, 116.12, 181.331, 115.833, 117.544, 114.625, 116.029, 115.735, 115.146, 115.857, 116.619, 115.262, 115.873, 115.845, 181.892, 115.675, 116.271],
  "Optimizer iterations": 90,
  "Optimizer params": [0.14851763318418887, 0.8802407169522386, 0.5012843760249659, 0.37318438538801274, 0.6169499009048797, 0.5331170695280617],
  "P": 3,
  "Problem": "MCP",
  "QJob durations [ms]": [88.23156356811523, 88.91916275024414, 88.20796012878418, 87.63313293457031, 88.14716339111328, 88.23466300964355, 87.07070350646973, 86.9147777557373, 87.11099624633789, 87.18013763427734, 88.36698532104492, 87.58997917175293, 157.09590911865234, 86.65585517883301, 86.88569068908691, 86.85922622680664, 86.95673942565918, 86.80415153503418, 86.91906929016113, 87.74113655090332, 87.33963966369629, 88.08708190917969, 86.79628372192383, 86.58170700073242, 86.73214912414551, 87.89873123168945, 87.2032642364502, 87.18490600585938, 87.00442314147949, 87.23998069763184, 87.45050430297852, 87.23926544189453, 87.11051940917969, 86.48872375488281, 87.79358863830566, 87.982177734375, 87.11957931518555, 87.10694313049316, 88.00435066223145, 87.48912811279297, 87.19992637634277, 87.80121803283691, 87.38088607788086, 87.49032020568848, 88.02294731140137, 87.3708724975586, 87.45694160461426, 86.59124374389648, 86.46893501281738, 87.13889122009277, 87.22329139709473, 152.28605270385742, 87.44025230407715, 87.0504379272461, 88.62996101379395, 86.49444580078125, 87.4629020690918, 87.01300621032715, 86.94291114807129, 87.45098114013672, 87.99338340759277, 87.15033531188965, 87.48316764831543, 153.17773818969727, 87.33820915222168, 87.43882179260254, 87.21256256103516, 87.43548393249512, 87.87870407104492, 87.33868598937988, 87.60762214660645, 86.43627166748047, 86.30585670471191, 87.16535568237305, 87.2950553894043, 152.81915664672852, 86.97104454040527, 87.89491653442383, 86.22145652770996, 87.46170997619629, 87.18132972717285, 86.62581443786621, 87.28861808776855, 87.89587020874023, 86.87186241149902, 87.25547790527344, 87.35060691833496, 153.52821350097656, 87.22758293151855, 87.92614936828613],
  "QPU": "9000001",
  "Qubits": 15,
  "Queue durations [ms]": [0.0, 0.0, 0.0, 0.0, 0.0, 0.0, 0.0, 0.0, 0.0, 0.0, 0.0, 0.0, 0.0, 0.0, 0.0, 0.0, 0.0, 0.0, 0.0, 0.0, 0.0, 0.0, 0.0, 0.0, 0.0, 0.0, 0.0, 0.0, 0.0, 0.0, 0.0, 0.0, 0.0, 0.0, 0.0, 0.0, 0.0, 0.0, 0.0, 0.0, 0.0, 0.0, 0.0, 0.0, 0.0, 0.0, 0.0, 0.0, 0.0, 0.0, 0.0, 0.0, 0.0, 0.0, 0.0, 0.0, 0.0, 0.0, 0.0, 0.0, 0.0, 0.0, 0.0, 0.0, 0.0, 0.0, 0.0, 0.0, 0.0, 0.0, 0.0, 0.0, 0.0, 0.0, 0.0, 0.0, 0.0, 0.0, 0.0, 0.0, 0.0, 0.0, 0.0, 0.0, 0.0, 0.0, 0.0, 0.0, 0.0, 0.0],
  "Shots": 4096,
  "Size": 15,
  "Total Algorithm duration [s]": 10.889,
  "Total Classic duration [s]": 2.696928562164306,
  "Total Quantum duration [s]": 8.192071437835693
}
