{
  "Depth": 2.0,
  "Job durations [ms]": [1043.4317588806152, 1062.5038146972656, 1065.2960538864136, 1057.2925806045532, 1065.96040725708, 1057.8722953796387, 1048.9680767059326, 1064.6867752075195, 1060.6215000152588, 1202.138066291809, 1053.5049438476562, 1080.9437036514282, 1055.0453662872314, 1068.8387155532837, 1068.4473514556885, 1046.0436344146729, 1056.6375255584717, 1052.6107549667358, 1056.1498403549194, 1068.1301355361938, 1065.6267404556274, 1069.4022178649902, 1200.3448009490967, 1050.2339601516724, 1068.9202547073364, 1068.9479112625122, 1061.3394975662231, 1071.9627141952515, 1059.2167377471924, 1058.7244033813477, 1054.3153285980225, 1052.675724029541, 1054.466724395752, 1063.7969970703125, 1073.4889507293701, 1054.9463033676147, 1055.6455850601196, 1044.9107885360718, 1063.581943511963, 1068.7931776046753, 1057.267189025879, 1060.0701570510864, 1061.0214471817017, 1047.448754310608, 1068.9690113067627, 1041.4870977401733, 1065.907597541809, 1059.0473413467407, 1068.1343078613281, 1197.798490524292, 1059.0890645980835, 1056.802749633789, 1052.1398782730103, 1059.727668762207, 1055.3070306777954, 1067.2630071640015, 1055.7184219360352, 1053.5335540771484, 1218.5879945755005, 1170.7509756088257, 1064.2796754837036, 1069.6167945861816, 1060.9029531478882, 1057.9729080200195, 1069.9301958084106, 1065.0638341903687, 1057.1540594100952, 1060.1955652236938, 1214.985728263855, 1048.6531257629395, 1055.2339553833008, 1075.3531455993652, 1130.984902381897, 1130.1831007003784, 1052.893877029419, 1059.9168539047241, 1062.3400211334229, 1093.0951833724976, 1062.5026226043701, 1043.4634685516357, 1053.8116693496704, 1067.388415336609, 1058.3748817443848, 1054.2086362838745, 1066.07186794281, 1058.7126016616821, 1057.796835899353, 1056.9897890090942, 1064.0714168548584, 1059.0935945510864, 1063.5664463043213, 1066.6043758392334, 1061.5001916885376, 1072.1222162246704, 1060.8551502227783, 1047.183632850647, 1050.3603219985962, 1055.1822185516357, 1064.8624897003174, 1071.0151195526123, 1062.9878044128418, 1070.9583759307861, 1067.3009157180786, 1062.320351600647, 1066.512107849121, 1057.8221082687378, 1074.7238397598267, 1067.5188302993774, 1049.622893333435, 1067.7040815353394, 1069.9113607406616, 1077.3673057556152, 1049.2044687271118, 1052.0223379135132, 1064.4515752792358, 1055.8494329452515, 1215.3290510177612, 1066.469669342041, 1066.617727279663, 1062.7084970474243, 1056.3080310821533, 1058.6800575256348, 1049.9693155288696, 1059.3740940093994, 1048.421025276184, 1204.4390439987183, 1058.8409900665283, 1051.5145063400269, 1058.2808256149292, 1053.093671798706, 1059.7575902938843, 1051.9267320632935, 1042.8688526153564, 1056.3184022903442, 1064.9456977844238, 1055.6083917617798, 1060.7551336288452, 1067.4455165863037, 1064.959168434143, 1065.248966217041, 1059.3806505203247, 1062.3661279678345, 1054.7642707824707, 1061.8860721588135, 1051.0214567184448, 1065.8714771270752, 1069.5050954818726, 1226.262092590332, 1068.860650062561, 1048.8423109054565, 1051.8285036087036, 1070.5641508102417, 1061.6143941879272, 1051.117181777954, 1063.4610652923584, 1069.4432258605957, 1060.1756572723389, 1066.8554306030273, 1054.946780204773, 1060.8410835266113, 1213.8453722000122, 1063.1052255630493, 1126.5084743499756, 1135.1113319396973, 1057.9408407211304, 1045.8101034164429, 1059.194564819336, 1065.2737617492676, 1042.946219444275, 1066.8941736221313, 1064.7059679031372, 1044.844150543213, 1052.4531602859497, 1051.1490106582642, 1065.4752254486084, 1055.158019065857, 1076.0767459869385, 1055.1865100860596, 1068.0344104766846, 1045.7993745803833, 1061.4880323410034, 1061.2409114837646, 1062.9420280456543, 1065.13249874115, 1068.7508583068848, 1070.6675052642822, 1069.646954536438, 1054.2476177215576, 1054.1983842849731, 1064.9676322937012, 1060.670018196106, 1053.4082651138306, 1081.5343856811523, 1058.9797496795654, 1065.4600858688354, 1067.705750465393, 1062.181830406189, 1042.8822040557861, 1062.821865081787, 1067.833423614502, 1066.6289329528809, 1062.822937965393, 1053.1524419784546, 1046.5656518936157, 1049.4191646575928, 1059.4465732574463, 1066.0673379898071, 1056.4730167388916, 1060.0192546844482],
  "Optimizer durations [ms]": [4663.683, 4589.698, 4614.306, 4680.175, 4662.943, 4684.196, 4597.73, 4677.822, 4668.565, 4897.954, 4630.362, 4696.622, 4609.887, 4677.005, 4632.738, 4580.471, 4652.801, 4594.581, 4602.081, 4690.756, 4650.178, 4670.353, 4914.915, 4632.938, 4668.038, 4666.377, 4640.797, 4645.438, 4621.496, 4665.621, 4584.216, 4597.867, 4600.798, 4662.063, 4711.514, 4672.218, 4632.004, 4548.631, 4627.583, 4652.112, 4663.777, 4601.569, 4628.452, 4580.474, 4643.322, 4580.904, 4620.627, 4664.485, 4620.808, 4871.615, 4667.359, 4606.408, 4614.224, 4555.589, 4582.755, 4693.532, 4566.815, 4617.805, 4922.042, 4810.918, 4417.344, 4545.029, 4449.278, 4432.797, 4593.511, 4482.463, 4625.438, 4415.444, 4766.516, 4470.243, 4613.783, 4515.616, 4685.553, 4782.423, 4375.242, 4458.223, 4470.348, 4757.306, 4641.864, 4569.351, 4613.733, 4659.854, 4648.107, 4702.597, 4650.559, 4622.27, 4638.355, 4646.716, 4676.982, 4620.371, 4640.875, 4685.129, 4639.141, 4617.999, 4621.433, 4614.349, 4595.967, 4611.191, 4694.718, 4690.35, 4629.579, 4669.47, 4652.01, 4599.016, 4721.222, 4612.549, 4640.059, 3771.896, 3717.065, 3736.497, 3760.583, 3794.338, 3742.15, 3720.03, 3705.632, 3736.969, 4075.511, 3760.086, 3772.195, 3775.417, 3714.987, 3755.424, 3714.077, 3703.279, 3699.306, 4040.075, 3713.087, 3718.462, 3724.79, 3712.56, 3751.319, 3735.611, 3721.978, 3724.266, 3801.359, 3743.307, 3725.676, 3810.647, 3738.683, 3756.304, 3747.496, 3760.708, 3738.126, 3735.033, 3719.393, 3748.688, 3778.923, 4086.218, 3724.105, 3733.551, 3750.473, 3735.178, 3768.805, 3717.202, 3801.436, 3784.531, 3761.975, 3754.014, 3760.55, 3740.917, 4071.274, 3737.656, 3877.991, 3906.909, 3760.819, 3694.178, 3746.728, 3769.168, 3704.106, 3734.79, 3795.776, 3715.439, 3731.352, 3683.961, 3755.471, 3714.541, 3782.046, 3742.699, 3764.202, 3689.596, 3746.697, 3770.871, 3781.79, 3712.433, 3785.586, 3753.219, 3773.833, 3777.5, 3693.773, 3756.874, 3743.259, 3734.818, 3779.117, 3735.775, 3752.63, 3776.635, 3779.381, 3696.437, 3761.213, 3781.886, 3761.142, 3764.905, 3736.412, 3745.59, 3706.822, 3733.105, 3777.044, 3749.366, 3765.607],
  "Optimizer iterations": 209,
  "Qubits": 10,
  "Total Algorithm duration [s]": 879.399,
  "Total Classic duration [s]": 656.053335975647,
  "Total Quantum duration [s]": 223.34566402435303,
  "Expectation Value": -5.886298656463623,
  "Optimal Expectation Value": -5.893400192260742,
  "Optimizer params": [0.9996189550792528, 0.49980911622140556, 0.9997538791439697, 0.49342086466300894, 0.5131728062426052, 0.9938358497813254, 0.5042723838566995, 0.47899489877354134, 0.9935133149981749, 0.5022347704536848],
  "QPU": "6010003",
  "Problem": "RH",
  "Size": 10,
  "P": 0,
  "Shots": 4096
}