{
  "Circuit execution durations [ms]": [4.0136, 3.9536, 3.9168, 3.9091000000000005, 3.9251, 3.9151999999999996, 3.9151999999999996, 3.9055, 3.8795, 4.153300000000001, 3.9435, 3.9435, 4.0027, 3.9368, 3.8967, 3.9011, 3.9575, 3.9269, 3.9067, 3.8890000000000002, 3.8930000000000002, 3.9255, 3.935, 3.9419, 3.8645, 3.9325999999999994, 3.8992, 3.8899, 3.9690999999999996, 3.9458999999999995, 3.9376999999999995, 3.9486, 3.9252000000000002, 3.9389000000000003, 4.2505, 3.7995, 3.8131, 3.8425, 4.0199, 3.9271000000000003, 4.1545000000000005, 3.7986999999999997, 3.9195999999999995, 3.9132999999999996, 3.8989, 3.9962, 3.9471999999999996, 3.9914, 3.9608999999999996, 4.0148, 4.0498, 3.921, 3.9351000000000003, 3.9756, 3.9408000000000003, 3.952, 3.9595000000000002, 3.9712, 4.1132, 4.0923, 3.9501, 3.899, 3.898, 3.8928000000000003, 3.9227000000000003, 3.8757, 3.9301, 3.9521, 3.8731, 3.9072000000000005, 3.9411000000000005, 3.9414000000000002, 3.9744, 3.9713, 3.9838, 4.0079, 3.9363999999999995, 3.9705, 3.9858000000000002, 3.9490000000000003, 3.9907, 3.8697, 3.9490999999999996, 4.1539, 4.0388, 3.9840999999999998, 3.914, 3.9952, 3.9114, 3.9151999999999996, 3.9839, 4.0435, 3.9475, 3.9243000000000006],
  "Depth": 607.0,
  "Expectation Value": -4.2297468185424805,
  "Optimal Expectation Value": -6.0,
  "Optimizer durations [ms]": [40.887, 39.972, 40.02, 39.786, 39.671, 39.783, 39.926, 39.492, 39.528, 41.934, 47.759, 40.053, 40.504, 39.823, 39.552, 39.776, 40.285, 39.702, 39.821, 39.323, 39.689, 42.656, 40.139, 39.983, 39.526, 39.877, 39.605, 39.315, 40.679, 40.107, 40.079, 40.174, 39.711, 40.278, 42.928, 48.638, 48.379, 46.419, 40.669, 40.085, 42.284, 48.219, 39.602, 39.917, 39.674, 40.55, 40.059, 40.342, 40.436, 40.737, 41.144, 40.4, 40.078, 40.181, 40.197, 40.146, 40.252, 40.107, 41.956, 46.691, 43.009, 39.413, 39.768, 39.576, 39.772, 39.387, 39.795, 40.235, 39.364, 40.097, 39.854, 39.913, 40.361, 40.522, 40.364, 40.89, 39.92, 40.431, 40.516, 40.057, 40.571, 39.288, 40.199, 42.162, 47.756, 40.534, 39.839, 40.516, 39.709, 39.563, 40.488, 40.909, 40.091, 39.999],
  "Optimizer iterations": 94,
  "Optimizer params": [1.0, 0.08375307538975622, 1.0, 0.9993166597654054, 0.9357119591783949, 0.5560203737219248],
  "P": 3,
  "Problem": "DSP",
  "QJob durations [ms]": [4.0136, 3.9536, 3.9168, 3.9091000000000005, 3.9251, 3.9151999999999996, 3.9151999999999996, 3.9055, 3.8795, 4.153300000000001, 3.9435, 3.9435, 4.0027, 3.9368, 3.8967, 3.9011, 3.9575, 3.9269, 3.9067, 3.8890000000000002, 3.8930000000000002, 3.9255, 3.935, 3.9419, 3.8645, 3.9325999999999994, 3.8992, 3.8899, 3.9690999999999996, 3.9458999999999995, 3.9376999999999995, 3.9486, 3.9252000000000002, 3.9389000000000003, 4.2505, 3.7995, 3.8131, 3.8425, 4.0199, 3.9271000000000003, 4.1545000000000005, 3.7986999999999997, 3.9195999999999995, 3.9132999999999996, 3.8989, 3.9962, 3.9471999999999996, 3.9914, 3.9608999999999996, 4.0148, 4.0498, 3.921, 3.9351000000000003, 3.9756, 3.9408000000000003, 3.952, 3.9595000000000002, 3.9712, 4.1132, 4.0923, 3.9501, 3.899, 3.898, 3.8928000000000003, 3.9227000000000003, 3.8757, 3.9301, 3.9521, 3.8731, 3.9072000000000005, 3.9411000000000005, 3.9414000000000002, 3.9744, 3.9713, 3.9838, 4.0079, 3.9363999999999995, 3.9705, 3.9858000000000002, 3.9490000000000003, 3.9907, 3.8697, 3.9490999999999996, 4.1539, 4.0388, 3.9840999999999998, 3.914, 3.9952, 3.9114, 3.9151999999999996, 3.9839, 4.0435, 3.9475, 3.9243000000000006],
  "QPU": "7000000",
  "Qubits": 13,
  "Queue durations [ms]": [0.0, 0.0, 0.0, 0.0, 0.0, 0.0, 0.0, 0.0, 0.0, 0.0, 0.0, 0.0, 0.0, 0.0, 0.0, 0.0, 0.0, 0.0, 0.0, 0.0, 0.0, 0.0, 0.0, 0.0, 0.0, 0.0, 0.0, 0.0, 0.0, 0.0, 0.0, 0.0, 0.0, 0.0, 0.0, 0.0, 0.0, 0.0, 0.0, 0.0, 0.0, 0.0, 0.0, 0.0, 0.0, 0.0, 0.0, 0.0, 0.0, 0.0, 0.0, 0.0, 0.0, 0.0, 0.0, 0.0, 0.0, 0.0, 0.0, 0.0, 0.0, 0.0, 0.0, 0.0, 0.0, 0.0, 0.0, 0.0, 0.0, 0.0, 0.0, 0.0, 0.0, 0.0, 0.0, 0.0, 0.0, 0.0, 0.0, 0.0, 0.0, 0.0, 0.0, 0.0, 0.0, 0.0, 0.0, 0.0, 0.0, 0.0, 0.0, 0.0, 0.0, 0.0],
  "Shots": 4096,
  "Size": 8,
  "Total Algorithm duration [s]": 3.834,
  "Total Classic duration [s]": 3.4627194,
  "Total Quantum duration [s]": 0.37128059999999996
}
