{
  "Circuit execution durations [ms]": [1046.073317527771, 1022.8366851806641, 1059.9826574325562, 1026.0416269302368, 1015.612006187439, 1081.2177658081055, 1055.1365613937378, 1056.2622547149658, 1081.9072723388672, 1023.7593650817871, 1014.0656232833862, 996.2846040725708, 985.7312440872192, 1014.7767066955566, 982.7032089233398, 1031.1144590377808, 1067.7225589752197, 1083.4379196166992, 1034.1835021972656, 1048.2438802719116, 978.9000749588013, 978.4888029098511, 1109.1161966323853, 1048.3593940734863, 1029.6659469604492, 962.2340202331543, 1100.833535194397, 1055.453896522522, 978.890061378479, 1080.788254737854, 1004.7354698181152, 988.3571863174438, 994.2158460617065, 1051.5351295471191, 1012.7675533294678, 1021.7320919036865, 1060.297131538391, 1010.0686550140381, 1013.624906539917, 1036.8846654891968, 1031.299114227295, 1013.5469436645508, 1025.359869003296, 1035.7983112335205, 1031.015157699585, 1091.5231704711914, 1112.9361391067505, 1010.4341506958008, 1026.6848802566528, 1017.4599885940552, 980.8322191238403, 1038.3656024932861, 1025.4451036453247, 1009.2132091522217, 1099.2571115493774, 1047.0173358917236, 1188.0033016204834, 996.9843626022339, 1023.8515138626099, 1110.4406118392944, 1079.5239210128784, 1098.855972290039, 1052.0174503326416, 990.3422594070435, 1043.9976453781128, 1019.4410085678101, 1020.9721326828003, 1174.7639179229736, 1123.752474784851, 1089.785099029541, 1021.2035179138184, 1026.7531871795654, 1186.8400573730469, 1136.720895767212, 1086.640477180481, 1080.8637142181396, 1003.7585496902466, 1057.7259063720703, 1114.423394203186, 1125.3646612167358, 1046.5327501296997, 1060.6868267059326, 1008.1440210342407, 1029.5435190200806, 1006.3571929931641, 984.7768545150757, 1059.3175888061523, 1079.6198844909668, 1125.5075931549072, 1009.2258453369141, 1054.6009540557861, 1053.9584159851074, 1055.5914640426636, 1089.1855955123901, 986.9489669799805, 1009.5560550689697, 1057.3524236679077, 1042.8553819656372, 1015.9059762954712, 1070.926547050476, 1001.4159679412842, 1041.5501594543457, 1031.0420989990234, 1129.2651891708374, 1036.580204963684, 965.0430679321289, 1055.6937456130981, 998.1464147567749, 1271.2452411651611, 1057.1489334106445, 996.928334236145, 1065.455675125122, 1095.6095457077026, 1045.6078052520752, 1092.4221277236938, 1037.05894947052, 1003.8292407989502, 999.5814561843872, 1024.915099143982, 1046.059012413025, 980.931282043457, 1010.5350017547607, 1016.5246725082397, 1006.977915763855, 1028.9487838745117, 1032.6473712921143, 1061.5371465682983, 1060.5905055999756, 1083.7363004684448, 1019.8957920074463, 997.8036880493164, 1085.9520435333252, 1055.9751987457275, 1001.5103816986084, 981.7867279052734, 1081.3504457473755, 1020.6453800201416, 1061.3332986831665, 1109.5325946807861, 1159.6204042434692, 985.6057167053223, 1003.5793781280518, 1024.3146419525146, 1079.2906284332275, 1024.1974592208862, 1071.3046789169312, 1063.7032985687256, 1094.2879915237427, 1139.6238803863525, 1042.9342985153198, 1033.5923433303833, 1103.8715839385986, 1193.0960416793823, 1080.9208154678345, 981.5617799758911, 1195.2428817749023, 992.5992488861084, 1029.1639566421509, 1089.8771286010742, 987.5249862670898, 1169.2960262298584, 1102.8014421463013, 1017.4000263214111, 1044.0541505813599, 974.9906063079834, 1185.6842041015625, 1098.0770587921143, 1053.3639192581177, 1064.7125244140625, 1031.5444469451904, 1063.3544921875, 985.8559370040894, 1001.7907619476318, 1013.3298635482788, 1032.2834253311157, 1041.7240858078003, 1044.8440313339233, 1053.438663482666, 1032.0278406143188, 1073.981523513794, 1014.004111289978, 1140.0339603424072, 1054.4241666793823, 980.340838432312, 1027.7656316757202, 1008.2987546920776, 984.1494560241699, 1073.534607887268, 1040.7390594482422, 1051.6527891159058, 1065.6349658966064, 1038.1728410720825, 1047.9401350021362, 1072.9817152023315, 1075.0600099563599, 1042.3625707626343, 1028.1938314437866, 997.481107711792, 1027.9287099838257, 1010.9864473342896, 1055.1575422286987, 1029.3679237365723, 1001.0370016098022, 1032.8878164291382, 1055.4544925689697, 1080.6292295455933, 1028.2195806503296, 1013.5047435760498, 1053.7986755371094, 1092.3993587493896, 1017.2687768936157, 1005.5186748504639, 1022.0291614532471, 1036.3706350326538, 1017.5024271011353, 1025.9021520614624, 1033.1143140792847, 1022.1333503723145, 984.6256971359253, 1056.1573505401611, 1047.8383302688599, 993.6819076538086, 1019.5318460464478, 1017.3584222793579, 984.9631786346436, 1026.1249542236328, 1052.841067314148, 1029.8901796340942, 1062.0273351669312, 1000.1479387283325, 1110.8230352401733, 1024.3312120437622, 1028.0449390411377, 1004.5239925384521, 1073.5740661621094, 1052.0230531692505, 1051.6669750213623, 1048.119306564331, 1049.9683618545532, 976.7259359359741, 1008.3483457565308, 1028.4651517868042, 980.378270149231, 1004.7695636749268, 1068.2446956634521, 1085.5939388275146, 1070.500135421753, 991.459846496582, 1038.6613607406616, 1015.815258026123, 1040.4431819915771, 987.8674745559692, 1055.9892654418945, 1023.1224298477173, 1000.6103515625, 1040.9151315689087, 1075.0757455825806, 1048.2747554779053, 1010.4269981384277, 981.6873073577881, 1010.0736618041992, 1043.4843301773071, 965.6187295913696],
  "Depth": 12.5,
  "Expectation Value": -5.30810546875,
  "Optimal Expectation Value": -6.026674270629883,
  "Optimizer durations [ms]": [4160.264, 4003.314, 4171.703, 4106.423, 4051.607, 4194.618, 4344.775, 4134.93, 4160.216, 4029.404, 4012.22, 3980.994, 3983.083, 4063.256, 4034.513, 4037.597, 4133.402, 4190.616, 4122.098, 4072.168, 3987.881, 3976.704, 4439.257, 4108.661, 4069.789, 3996.463, 4198.183, 4045.678, 3987.713, 4212.605, 4035.012, 4016.972, 4040.12, 4070.79, 4073.494, 4016.002, 4165.829, 4068.703, 4028.449, 4105.61, 4066.031, 4011.121, 4062.807, 4166.391, 4109.948, 4202.858, 4278.049, 4044.405, 4053.502, 4059.879, 4010.94, 4086.738, 4005.054, 4009.092, 4184.978, 4247.772, 4437.295, 4040.839, 4042.415, 4214.382, 4234.34, 4272.317, 4115.363, 3952.374, 4090.371, 4050.306, 4107.765, 4429.058, 4428.505, 4207.079, 4088.209, 4056.21, 4508.276, 4272.696, 4258.637, 4145.705, 4113.603, 4112.043, 4233.569, 4267.531, 4112.462, 4123.285, 4068.241, 4066.306, 4057.738, 3962.848, 4140.274, 4135.795, 4307.553, 4038.761, 4089.088, 4177.995, 4120.387, 4200.169, 3977.521, 4027.41, 4098.426, 4085.815, 3975.835, 4265.475, 3971.047, 4041.488, 4131.893, 4307.902, 4072.011, 3971.28, 4080.19, 4092.423, 4720.686, 4089.599, 4058.753, 4098.667, 4239.768, 4037.098, 4251.598, 4047.184, 4029.665, 4032.734, 4063.152, 4177.674, 3993.321, 3996.305, 4096.05, 3973.903, 4123.131, 4084.148, 4202.433, 4123.128, 4193.27, 4033.754, 3989.912, 4162.151, 4155.329, 4062.702, 3977.811, 4247.27, 4047.229, 4143.879, 4324.975, 4339.367, 3960.08, 4011.428, 3991.954, 4256.582, 4063.473, 4116.194, 4111.613, 4202.81, 4370.24, 4164.628, 4116.445, 4224.479, 4369.899, 4241.972, 4026.911, 4391.216, 4074.095, 4128.551, 4301.147, 4152.357, 4519.053, 4245.003, 4011.273, 4183.868, 3954.141, 4380.408, 4197.74, 4158.463, 4129.289, 4063.993, 4136.946, 4042.306, 4057.686, 4164.512, 4107.019, 4096.384, 4122.699, 4072.921, 4080.809, 4158.758, 4033.034, 4349.78, 4105.515, 3927.933, 4136.017, 4043.054, 3890.553, 4212.826, 4085.982, 4196.028, 4135.356, 4024.676, 4131.106, 4167.188, 4206.036, 4059.56, 4088.119, 3939.414, 4052.905, 4023.562, 4151.419, 4136.366, 4094.692, 4061.776, 4214.578, 4114.649, 4110.338, 4007.888, 4123.589, 4221.144, 4008.373, 4014.567, 4056.043, 4100.502, 3987.303, 4117.302, 4095.016, 4073.117, 3961.782, 4159.167, 4089.673, 3994.151, 4044.204, 4027.209, 4116.221, 4038.445, 4129.954, 4040.661, 4109.981, 4014.503, 4257.606, 4080.82, 4059.486, 4020.505, 4190.308, 4116.033, 4147.873, 4120.773, 4137.878, 3934.52, 4123.225, 4081.805, 3967.222, 3973.226, 4186.447, 4252.551, 4268.61, 4009.903, 4028.823, 4052.315, 4043.027, 3948.883, 4154.807, 4076.267, 4052.549, 4084.962, 4184.207, 4128.045, 4004.707, 3933.851, 4006.941, 4090.857, 3909.58],
  "Optimizer iterations": 263,
  "Optimizer params": [0.5656687625293751, 0.4208978595979632, 0.9341930159812553, 0.5327015354657556, 0.5350716306797254, 0.5284308658079405, 0.9937622571365091, 0.042174523410389055, 0.12047064568658325, 0.7788487732612553, 0.435822001181285, 0.1001483642458891, 0.48599963154289744, 0.5053050894472421, 0.9725643841444759, 0.644801054013931, 0.8616120940957576, 0.6604323958709988, 0.9185762287225846, 0.9941651296787137],
  "P": 0,
  "Problem": "IC",
  "QJob durations [ms]": [2048.384189605713, 1976.2598276138306, 2066.0446882247925, 2018.777847290039, 2000.5669593811035, 2070.2052116394043, 2151.0744094848633, 2039.3403768539429, 2052.6572465896606, 1981.2184572219849, 1985.49485206604, 1969.6029424667358, 1971.0313081741333, 1982.1676015853882, 1984.552025794983, 1999.033808708191, 2043.5707569122314, 2069.5552825927734, 2038.020133972168, 2010.603427886963, 1966.0429954528809, 1961.015224456787, 2192.6742792129517, 2026.6810655593872, 2010.2893114089966, 1970.4164266586304, 2072.166681289673, 2002.3348331451416, 1968.4357643127441, 2051.6796112060547, 1991.3305044174194, 1982.7673435211182, 1993.6785697937012, 2010.0294351577759, 2015.4000520706177, 1976.8619537353516, 2057.58798122406, 2008.1037282943726, 1993.855357170105, 2028.2269716262817, 2004.2524337768555, 1985.012173652649, 2007.4657201766968, 2057.6480627059937, 2003.4449100494385, 2073.2465982437134, 2115.461826324463, 1989.364504814148, 1998.1526136398315, 1998.965859413147, 1984.2724800109863, 2022.4354267120361, 1980.698585510254, 1977.1960973739624, 2060.973048210144, 2097.6884365081787, 2189.8361444473267, 1992.292046546936, 1993.3080673217773, 2086.1998796463013, 2069.52166557312, 2108.6429357528687, 2029.6200513839722, 1942.2688484191895, 2013.8617753982544, 2004.6910047531128, 2025.6465673446655, 2188.4024143218994, 2186.11741065979, 2083.0758810043335, 2023.3643054962158, 2002.3038387298584, 2225.0128984451294, 2114.995837211609, 2104.787826538086, 2044.9799299240112, 2002.8574466705322, 2029.089093208313, 2088.651180267334, 2108.4094047546387, 2035.3058576583862, 2032.533884048462, 2006.5758228302002, 1998.0946779251099, 1989.2115592956543, 1957.051396369934, 2042.7762269973755, 2042.3864126205444, 2115.622401237488, 1992.8752183914185, 2023.5482454299927, 2061.593174934387, 2013.6735439300537, 2065.286159515381, 1956.2031030654907, 1986.2576723098755, 2024.6764421463013, 2015.2727365493774, 1951.3825178146362, 2103.3430099487305, 1963.646411895752, 1999.8881816864014, 2017.6632404327393, 2125.236392021179, 2000.4159212112427, 1961.0954523086548, 2005.303144454956, 2011.085033416748, 2323.249340057373, 2012.88902759552, 2008.847713470459, 2024.9720811843872, 2094.9779748916626, 1996.8465566635132, 2104.6040058135986, 1995.3778982162476, 1991.991400718689, 1965.4089212417603, 2000.4111528396606, 2056.763529777527, 1964.5382165908813, 1965.3452634811401, 2007.5095891952515, 1954.7264575958252, 2032.6833724975586, 2013.7128829956055, 2074.5251178741455, 2032.6051712036133, 2068.651795387268, 1985.5512380599976, 1965.7349586486816, 2049.574613571167, 2050.485372543335, 1984.2361211776733, 1965.2762413024902, 2078.282356262207, 1995.9170818328857, 2041.7171716690063, 2141.3276195526123, 2148.4721899032593, 1958.7832689285278, 1975.1787185668945, 1975.2936363220215, 2079.0276527404785, 1999.3277788162231, 2032.1084260940552, 2028.9998054504395, 2073.7117528915405, 2147.54319190979, 2059.199333190918, 2029.6703577041626, 2081.18736743927, 2155.418872833252, 2098.986506462097, 1986.5127801895142, 2173.9470958709717, 2012.8155946731567, 2036.0726118087769, 2100.5457639694214, 2025.983214378357, 2234.7164154052734, 2099.834442138672, 1976.6967296600342, 2062.5001192092896, 1952.1136283874512, 2164.7318601608276, 2076.716661453247, 2055.845260620117, 2032.3925018310547, 2010.0963115692139, 2044.9206829071045, 1987.0669841766357, 2000.2002716064453, 2049.2721796035767, 1998.1157779693604, 2026.9991159439087, 2033.0806970596313, 2012.5677585601807, 2012.6806497573853, 2049.9271154403687, 1992.7047491073608, 2147.224187850952, 2028.1615257263184, 1941.7970180511475, 2012.3661756515503, 1989.9332523345947, 1923.0374097824097, 2077.7645111083984, 2021.2631225585938, 2068.371057510376, 2046.183705329895, 1987.0504140853882, 2035.558819770813, 2046.1782217025757, 2074.443459510803, 2006.9797039031982, 2018.2257890701294, 1942.6392316818237, 2002.7326345443726, 1967.9089784622192, 2048.3824014663696, 2046.3595390319824, 2016.6957378387451, 2003.6698579788208, 2075.4551887512207, 2027.368426322937, 2033.5638523101807, 1981.8717241287231, 2034.529685974121, 2088.952898979187, 1976.5130281448364, 1974.9246835708618, 2006.6932439804077, 2025.6129503250122, 1961.6904258728027, 2008.2943439483643, 2026.362419128418, 2000.481128692627, 1952.149748802185, 2046.1235046386719, 2023.4748125076294, 1967.1297073364258, 1991.7470216751099, 1991.5752410888672, 2024.2433547973633, 1970.2712297439575, 2037.9406213760376, 1997.529149055481, 2032.8369140625, 1974.3306636810303, 2101.8855571746826, 2013.5853290557861, 2004.8266649246216, 1982.5268983840942, 2068.182945251465, 2022.607684135437, 2046.6102361679077, 2038.5282039642334, 2044.0187454223633, 1945.3814029693604, 2010.9304189682007, 2011.5925073623657, 1942.9931640625, 1960.381031036377, 2071.3207721710205, 2094.8145389556885, 2109.313726425171, 1982.2670221328735, 1992.5841093063354, 2003.1557083129883, 1999.1744756698608, 1944.6479082107544, 2041.3516759872437, 2011.0788345336914, 1996.9751834869385, 2012.6206874847412, 2037.9457473754883, 2032.8869819641113, 1960.510492324829, 1936.159610748291, 1973.9633798599243, 2022.2983360290527, 1931.636929512024],
  "QPU": "6010030",
  "Qubits": 5,
  "Shots": 4096,
  "Size": 5,
  "Total Algorithm duration [s]": 1081.737,
  "Total Classic duration [s]": 548.452985774994,
  "Total Quantum duration [s]": 533.2840142250061
}
