{
  "Depth": 80.0,
  "Expectation Value": -6.692515850067139,
  "Job durations [ms]": [11.7649, 3.9555, 10.175500000000001, 4.2379999999999995, 3.7359, 2.8167999999999997, 3.8064999999999998, 2.8720999999999997, 6.8525, 2.601, 1.7512, 4.3882, 3.0815, 2.5162999999999998, 2.9488000000000003, 2.8992, 5.7045, 2.504, 3.0659, 6.3939, 4.4140999999999995, 5.627199999999999, 3.2156, 3.5715, 11.526299999999999, 7.0206, 3.9166000000000003, 4.591600000000001, 3.1468, 3.2875, 18.198800000000002, 5.897600000000001, 13.078100000000001, 3.3726, 13.5847, 5.3283000000000005, 2.022, 2.2813999999999997, 3.8448, 6.3822, 4.4546, 2.5611, 1.8193000000000001, 6.7158, 6.9288, 6.827, 6.5766, 2.9493, 6.7256, 13.6038, 4.0561, 21.7234, 8.4753, 4.8452, 4.9316, 9.8515, 6.1511, 3.0589, 8.195400000000001, 3.0679000000000003, 2.3873, 1.8175000000000001, 2.7115, 3.5352, 5.6885, 9.7135, 7.9676, 7.6107, 3.7981, 2.1433, 5.1425, 5.8453, 6.6716, 15.7998, 5.7664, 5.6141000000000005, 7.3295, 5.2018, 20.0312, 3.9578, 3.0141999999999998, 6.7458, 2.9578, 2.1639, 3.0152, 15.152000000000001, 3.3153, 4.32, 2.7136],
  "Optimal Expectation Value": -3.0,
  "Optimizer durations [ms]": [117.973, 45.052, 119.029, 55.297, 50.806, 38.901, 48.752, 48.796, 88.684, 45.281, 32.624, 65.742, 41.226, 38.16, 50.281, 58.03, 69.189, 45.261, 38.283, 68.248, 51.495, 59.04, 36.96, 39.322, 119.565, 72.088, 42.763, 56.951, 35.022, 37.318, 212.294, 61.392, 136.015, 38.185, 144.71, 66.793, 34.043, 35.872, 59.712, 74.325, 47.071, 38.101, 23.352, 75.855, 79.154, 90.403, 88.617, 40.052, 79.911, 138.663, 45.23, 219.819, 86.857, 49.057, 49.925, 99.203, 63.982, 51.194, 86.475, 40.76, 36.61, 33.501, 37.807, 52.343, 80.634, 101.529, 91.142, 111.01, 42.827, 40.862, 61.742, 63.613, 92.987, 161.253, 64.614, 81.013, 106.726, 59.349, 201.065, 80.954, 33.902, 70.057, 32.262, 37.443, 44.977, 152.936, 58.475, 62.084, 30.754],
  "Optimizer iterations": 89,
  "Optimizer params": [0.9286441151442729, 0.4781169302216608, 0.43837497211747184, 0.30495569109916687, 0.715783020513586, 0.19287091047533567],
  "P": 3,
  "Problem": "TSP",
  "QPU": "7000000",
  "Qubits": 9,
  "Shots": 4096,
  "Size": 3,
  "Total Algorithm duration [s]": 6.197,
  "Total Classic duration [s]": 5.6789702,
  "Total Quantum duration [s]": 0.5180298
}
