{
  "Depth": 80.0,
  "Expectation Value": 0.9444855451583862,
  "Job durations [ms]": [4.1437, 2.2662, 1.2097, 2.6932, 7.0105, 4.1255, 3.7436000000000003, 1.9324, 2.7415, 2.1397, 3.6015, 3.1687, 3.3589, 3.9516999999999998, 3.2317, 2.4436, 2.2813, 2.4802, 3.1097, 3.214, 2.2832, 2.2437, 1.5177, 2.8042000000000002, 1.7018, 3.7429, 1.1383999999999999, 2.8312, 2.3611999999999997, 1.4759, 1.7792000000000001, 3.213, 7.2058, 5.5961, 3.3377, 2.8703000000000003, 1.692, 3.8019, 3.2889999999999997, 2.3489, 2.6789, 2.2728, 2.2879, 2.0942, 2.1216999999999997, 3.6308, 3.3920999999999997, 4.2613, 1.7933000000000001, 1.2429999999999999, 1.2607, 2.4413, 2.9657, 3.1552, 2.0747999999999998, 3.0315, 2.9202, 3.0612999999999997, 3.1312, 3.1285000000000003, 12.3194, 2.9718999999999998, 1.7357, 2.6183, 2.8088, 1.5354999999999999, 4.158799999999999, 2.2159, 2.7214, 3.6061, 3.4324999999999997, 3.0867999999999998, 1.7534, 1.9272, 10.3023, 1.6737, 3.6142000000000003, 1.3345, 1.132, 1.1785, 1.6538, 1.1761, 1.1701000000000001, 1.3829, 2.3222, 1.9283, 2.4922999999999997, 2.2289, 2.9735, 2.8192999999999997, 2.1258000000000004],
  "Optimal Expectation Value": -3.0,
  "Optimizer durations [ms]": [41.753, 31.937, 16.425, 31.437, 74.638, 46.964, 41.738, 25.704, 31.683, 31.64, 40.309, 33.997, 38.124, 41.862, 34.624, 28.749, 27.082, 46.463, 55.024, 60.067, 23.931, 27.345, 18.686, 30.343, 19.336, 39.724, 13.683, 30.57, 26.941, 15.036, 18.046, 32.416, 72.358, 59.749, 35.739, 45.783, 31.758, 48.319, 42.686, 33.472, 37.865, 34.988, 44.637, 32.436, 35.516, 51.116, 49.919, 71.311, 35.798, 24.599, 26.783, 32.946, 44.66, 47.407, 29.391, 32.782, 33.634, 35.15, 35.764, 36.203, 141.676, 68.486, 19.833, 44.651, 30.721, 25.892, 66.993, 47.254, 42.553, 54.437, 44.878, 47.947, 28.051, 31.473, 148.142, 28.671, 52.434, 25.209, 25.991, 20.212, 25.791, 21.671, 20.922, 22.895, 33.388, 29.599, 45.605, 44.94, 47.431, 53.292, 26.263],
  "Optimizer iterations": 91,
  "Optimizer params": [0.4706700564190633, 0.8098808913615079, 0.9999999999999999, 0.4507918812173764, 0.5930746394809479, 0.9991151358623722],
  "P": 3,
  "Problem": "TSP",
  "QPU": "7000000",
  "Qubits": 9,
  "Shots": 4096,
  "Size": 3,
  "Total Algorithm duration [s]": 3.586,
  "Total Classic duration [s]": 3.3245720999999997,
  "Total Quantum duration [s]": 0.26142790000000005
}
