{
  "Depth": 80.0,
  "Expectation Value": 6.970667839050293,
  "Job durations [ms]": [4.2785, 1.3591, 1.4761, 1.391, 1.4580000000000002, 2.281, 3.2401, 3.8474, 2.2737, 2.4382, 2.9477, 2.7986999999999997, 1.737, 3.1197, 2.6094, 3.0259, 1.6332, 1.7761, 1.6491, 2.4448, 2.5009, 2.0993, 1.7914999999999999, 1.0981999999999998, 1.7738, 1.4932, 1.674, 1.2415, 2.0555, 1.2508000000000001, 3.3892, 2.1351999999999998, 2.5959999999999996, 1.7843, 2.7477, 1.7402, 6.7746, 5.6726, 3.1586000000000003, 3.0969, 3.5473000000000003, 2.7751, 3.5644, 3.0370000000000004, 2.7247, 2.3581000000000003, 1.7428000000000001, 3.5383, 2.7727, 2.4975, 1.8513, 2.2386, 2.0747999999999998, 6.6479, 1.7254, 2.9704, 1.9567, 2.2481, 2.2106, 2.2563, 2.2905, 2.6164, 1.4382, 2.2328, 1.6137000000000001, 1.6991, 1.4435, 1.4007, 1.4141, 1.6175, 1.6401000000000001, 1.4251, 1.7378, 2.8636, 1.8175999999999999, 1.3195, 1.8129000000000002, 1.4918, 1.6757, 1.9808999999999999, 1.7464, 1.6766999999999999, 1.3911, 1.3359, 1.3081, 1.6978, 2.3107, 1.6385, 2.5100000000000002, 2.335, 1.5363, 1.486, 1.5016999999999998, 1.7319, 1.3593, 1.3188, 1.3697, 1.3979000000000001, 2.8796999999999997, 1.3749, 1.3403, 1.3597, 1.5292999999999999],
  "Optimal Expectation Value": -3.0,
  "Optimizer durations [ms]": [43.057, 15.866, 19.297, 16.314, 18.951, 25.205, 36.687, 44.231, 27.414, 26.828, 38.103, 36.459, 28.881, 38.335, 41.055, 40.867, 32.884, 28.97, 32.923, 35.552, 29.33, 25.808, 34.011, 15.65, 25.777, 19.26, 28.839, 16.853, 29.492, 17.064, 39.568, 36.735, 32.039, 33.197, 38.575, 33.139, 79.758, 61.489, 33.919, 43.338, 52.199, 37.946, 46.091, 41.572, 45.905, 44.864, 38.611, 54.87, 47.066, 43.757, 32.397, 41.157, 30.99, 87.946, 19.649, 30.35, 19.91, 49.028, 47.191, 47.51, 45.834, 57.304, 27.209, 29.938, 24.28, 23.911, 21.349, 20.175, 20.159, 25.511, 33.095, 24.132, 34.077, 32.977, 22.535, 17.726, 23.828, 19.454, 21.451, 25.093, 22.477, 21.834, 24.267, 25.845, 27.042, 41.149, 25.203, 25.017, 25.442, 23.721, 15.7, 15.179, 15.699, 17.691, 14.143, 13.681, 14.021, 14.307, 29.14, 14.106, 13.827, 13.977, 15.631],
  "Optimizer iterations": 103,
  "Optimizer params": [0.9268253298259389, 0.3495159845190102, 0.961059042724166, 0.586952909481055, 0.6161342834495595, 0.9303275473187279],
  "P": 3,
  "Problem": "TSP",
  "QPU": "7000000",
  "Qubits": 9,
  "Shots": 4096,
  "Size": 3,
  "Total Algorithm duration [s]": 3.179,
  "Total Classic duration [s]": 2.9527360999999996,
  "Total Quantum duration [s]": 0.22626390000000007
}
