{
  "Depth": 80.0,
  "Expectation Value": 5.965245246887207,
  "Job durations [ms]": [4.8982, 4.1182, 3.4922999999999997, 1.4842, 3.9558, 3.6743, 3.6028000000000002, 2.4522, 4.579599999999999, 3.3167999999999997, 6.8804, 2.1886, 1.8783, 1.7084, 1.7390999999999999, 4.5459000000000005, 1.6205, 3.3278000000000003, 5.0957, 2.8454, 1.8087000000000002, 3.8068, 1.6422999999999999, 2.3544, 2.2811, 2.815, 3.1891, 5.6249, 3.1591, 14.692200000000001, 5.2446, 8.7237, 4.484, 4.5687, 3.7230000000000003, 3.7507, 5.5678, 2.7062000000000004, 2.9864, 3.8165999999999998, 3.0791, 3.9709000000000003, 3.2347, 2.4375999999999998, 4.8925, 3.9627000000000003, 3.5932, 2.6399000000000004, 3.0395000000000003, 3.4401, 2.8711, 2.2300000000000004, 3.0833000000000004, 7.0367, 6.392799999999999, 1.9842000000000002, 1.8136, 2.2188, 2.3518, 1.6038000000000001, 2.2182999999999997, 1.8297, 2.3714, 1.8602, 1.5261, 1.5035, 1.5231000000000001, 2.9745000000000004, 1.6249, 3.8614, 3.9373000000000005, 2.8142, 3.7528, 1.9535, 2.4312, 1.6359000000000001, 1.8982999999999999, 1.7772000000000001, 1.9623000000000002, 1.9716999999999998, 1.7191, 1.9702000000000002, 1.9765999999999997, 1.5865],
  "Optimal Expectation Value": -3.0,
  "Optimizer durations [ms]": [49.548, 44.035, 39.317, 17.172, 67.149, 39.052, 36.469, 24.945, 46.392, 33.556, 79.372, 38.301, 27.432, 37.182, 37.735, 61.888, 34.283, 45.436, 58.288, 38.798, 30.323, 41.272, 31.108, 44.358, 47.008, 46.472, 66.649, 72.622, 45.579, 164.511, 67.415, 100.43, 45.341, 47.42, 45.235, 47.623, 56.053, 28.063, 42.197, 72.531, 42.596, 48.485, 41.458, 33.644, 59.662, 54.641, 54.315, 48.88, 49.24, 53.35, 57.523, 46.163, 38.839, 70.747, 64.323, 35.509, 43.431, 22.617, 23.845, 18.566, 26.465, 18.604, 24.229, 18.894, 19.691, 19.344, 19.579, 44.669, 18.648, 80.905, 68.118, 55.97, 57.985, 40.229, 39.331, 30.125, 42.595, 35.267, 36.644, 34.042, 37.027, 32.124, 33.479, 28.225],
  "Optimizer iterations": 84,
  "Optimizer params": [0.8045489243011231, 0.8360037682018253, 0.986268984197625, 0.5802685852945204, 0.9866628156097703, 0.941005198138475],
  "P": 3,
  "Problem": "TSP",
  "QPU": "7000000",
  "Qubits": 9,
  "Shots": 4096,
  "Size": 3,
  "Total Algorithm duration [s]": 3.768,
  "Total Classic duration [s]": 3.495094,
  "Total Quantum duration [s]": 0.27290600000000004
}
