{
  "Depth": 80.0,
  "Expectation Value": -3.389094591140747,
  "Job durations [ms]": [2.3925, 2.1327, 1.5324, 1.4299, 4.0186, 1.5801, 1.2313999999999998, 7.128299999999999, 3.04, 1.3468, 1.2986, 1.3108, 1.1900000000000002, 2.2794, 1.6282, 2.7201, 1.6325, 1.5375, 2.0503, 2.2967, 6.9527, 1.7118, 3.2390000000000003, 1.3797, 2.0077, 1.6467, 3.9078999999999997, 7.3846, 2.842, 3.3144, 2.1113999999999997, 4.0723, 1.8837000000000002, 2.2414, 2.1242, 2.9854, 2.6338, 5.7508, 1.7949000000000002, 1.9346, 1.7071, 2.3992, 2.7263, 2.4272, 2.1202, 1.8362999999999998, 2.57, 1.9144999999999999, 1.9916, 1.9499, 1.9070999999999998, 2.1269, 2.6781, 1.9504, 4.117100000000001, 1.8838, 2.0714, 2.0672, 1.7942, 2.2163999999999997, 1.6345, 1.6319, 2.2455000000000003, 2.1274, 2.491, 1.8001, 2.6704, 2.2758000000000003, 2.0312, 2.5557000000000003, 1.7995999999999999, 1.8313, 1.9713999999999998, 1.9493, 2.6904, 1.6743000000000001, 1.6978, 1.7464, 1.9217, 1.3758, 1.5115, 1.2302000000000002, 4.5639, 1.6379000000000001, 4.042, 1.6623, 1.2585000000000002, 1.7285, 1.9867000000000001, 1.5401, 1.1226, 3.1738, 1.2516999999999998, 3.9125999999999994, 1.174, 3.5141, 3.0463999999999998, 2.3268999999999997, 2.129, 2.9993, 2.399, 2.9611, 3.1254999999999997, 1.2101, 2.072, 1.2545, 1.2641, 1.2548, 1.2606, 1.9142000000000001, 2.0905, 1.3034999999999999, 1.2516, 1.1620000000000001, 1.1436, 1.1591, 2.0901, 1.9229, 1.7876],
  "Optimal Expectation Value": -3.0,
  "Optimizer durations [ms]": [24.184, 23.506, 17.498, 18.529, 42.381, 25.111, 14.741, 76.83, 32.91, 17.888, 15.434, 15.452, 26.94, 37.449, 20.555, 31.537, 20.779, 20.067, 32.898, 27.245, 78.864, 21.414, 44.594, 18.221, 24.473, 20.738, 44.517, 90.038, 45.944, 45.42, 30.214, 57.018, 28.37, 38.643, 25.629, 41.535, 36.394, 58.989, 32.532, 36.794, 29.994, 46.233, 42.73, 24.667, 21.667, 18.909, 30.226, 23.742, 20.422, 20.068, 19.63, 21.916, 27.367, 19.995, 41.698, 35.346, 21.352, 21.21, 18.437, 22.865, 16.958, 16.931, 23.075, 21.75, 26.386, 18.549, 27.271, 23.405, 20.812, 27.106, 18.638, 18.946, 20.29, 20.075, 27.391, 17.285, 18.88, 18.09, 23.945, 18.183, 25.781, 16.629, 47.964, 22.959, 47.703, 32.379, 16.857, 21.602, 30.637, 22.429, 18.434, 53.61, 17.998, 48.483, 20.793, 47.393, 47.322, 36.805, 34.028, 44.7, 37.981, 37.621, 44.251, 26.443, 25.047, 14.874, 17.049, 16.968, 16.919, 21.472, 32.426, 15.832, 21.678, 19.286, 15.751, 15.896, 25.239, 21.78, 28.117],
  "Optimizer iterations": 119,
  "Optimizer params": [0.30419099130115235, 0.9715207454210072, 0.8865847129448372, 0.8484579310579146, 0.2911679117720791, 0.8040190720249869],
  "P": 3,
  "Problem": "TSP",
  "QPU": "7000000",
  "Qubits": 9,
  "Shots": 4096,
  "Size": 3,
  "Total Algorithm duration [s]": 3.423,
  "Total Classic duration [s]": 3.154289,
  "Total Quantum duration [s]": 0.26871100000000003
}
