{
  "Depth": 132.0,
  "Expectation Value": -1.742053747177124,
  "Job durations [ms]": [0.8861, 0.8451, 0.9875, 1.3139, 0.8798, 0.8140000000000001, 0.9409000000000001, 1.0835000000000001, 0.9193, 0.856, 1.0871, 0.9602999999999999, 0.8528, 1.0971, 0.8677, 0.8331000000000001, 0.8664999999999999, 0.9858, 0.8815000000000001, 0.8949, 0.9246, 0.8321, 0.7673, 0.9116000000000001, 0.8011, 1.312, 0.8803, 1.0958999999999999, 0.8622000000000001, 1.0688, 0.8667, 0.844, 0.8754000000000001, 1.1938, 1.0755000000000001, 0.9136, 0.8814, 1.2405000000000002, 0.9391, 0.8344999999999999, 0.8835, 0.9616, 1.2485, 0.8639, 0.8767, 0.8912, 0.8773, 0.8796999999999999, 1.0434, 1.0953, 1.2605, 0.9167, 0.8675, 0.9380000000000001, 0.8350000000000001, 0.9379, 0.9451, 0.9745, 0.9185000000000001, 0.8447, 1.0935000000000001, 0.8685999999999999, 0.8609, 0.92, 0.847, 0.8719, 0.8524999999999999, 0.8896000000000001, 1.1636000000000002, 0.829, 0.9124, 0.8513000000000001, 1.0840999999999998, 0.9927, 0.8455999999999999, 0.9319999999999999, 1.0389, 0.8628, 0.9276, 0.9282999999999999, 0.8463999999999999, 0.9504999999999999, 0.9367, 0.8252999999999999, 0.8531, 0.8675, 0.9675, 0.9625, 0.8578, 0.8474, 0.8465, 0.8543, 0.9596, 0.8517, 0.858, 0.941, 0.9679000000000001, 0.8654999999999999, 0.9325, 0.8338, 0.858, 0.9608000000000001, 0.9515, 0.8955000000000001, 1.127, 1.2561, 0.8438, 0.9425, 0.9345, 0.915, 0.9592999999999999, 1.1943, 0.9748, 0.8385, 0.8125, 0.9504999999999999, 0.9097000000000001, 1.0801999999999998, 0.8325, 1.037, 0.9303, 0.9874, 0.8672000000000001, 0.8467, 0.9444, 1.1161999999999999, 0.83, 0.8212999999999999, 0.9282, 0.9511, 0.8488, 0.8378, 0.8659, 0.8373999999999999, 0.8607, 0.8182, 0.9955999999999999, 0.8597, 0.9602999999999999, 0.7674, 0.8631, 1.2007999999999999, 0.9013, 0.855, 0.7624, 1.034, 0.9319000000000001, 0.9289, 0.9391, 0.8585, 0.8462, 0.9538, 0.8614999999999999, 0.9294, 0.8432, 0.9669, 0.9404, 0.6415000000000001, 0.8587, 0.851, 0.856, 0.86, 1.0009000000000001, 0.8422, 0.8491, 0.9573999999999999, 1.0673, 0.8451, 0.8441, 0.8516, 0.8411, 0.8622000000000001, 0.8291999999999999, 0.8371999999999999, 0.9246, 0.7288, 1.1203999999999998, 0.9437, 0.8361, 0.8697, 0.9547, 0.9339, 0.8547, 0.8487, 0.8549, 0.9401999999999999, 0.8701, 0.9658, 0.8587, 0.8427, 0.853, 0.8489, 0.9437, 1.1176000000000001, 0.9647, 1.0359, 0.8512, 0.9556, 0.8769, 0.8458, 0.8692, 0.838, 0.8065, 0.8191, 0.8511000000000001, 0.8521, 0.8543, 1.0526000000000002, 0.8758, 0.8237, 0.856, 0.8582000000000001, 0.944, 0.8677, 0.8377, 0.9433, 0.9325],
  "Optimal Expectation Value": -2.0,
  "Optimizer durations [ms]": [18.889, 18.47, 15.221, 16.047, 18.796, 18.623, 14.754, 14.946, 14.439, 18.645, 15.891, 15.05, 18.52, 17.936, 15.649, 13.648, 18.743, 15.049, 18.852, 19.212, 14.604, 18.395, 17.971, 19.449, 13.406, 18.012, 16.277, 16.31, 18.659, 14.837, 18.83, 18.364, 19.131, 18.229, 18.194, 19.326, 17.272, 14.192, 14.748, 18.674, 17.901, 12.439, 18.288, 18.602, 18.597, 18.148, 17.066, 19.259, 18.19, 15.072, 18.249, 14.435, 17.264, 14.788, 17.52, 14.736, 13.442, 15.277, 14.457, 18.467, 14.11, 14.337, 18.278, 15.446, 18.359, 15.955, 18.212, 14.503, 17.636, 18.756, 9.97, 15.812, 17.064, 11.505, 16.954, 11.942, 15.58, 17.179, 14.728, 14.802, 16.869, 16.981, 14.649, 17.913, 18.115, 19.033, 12.222, 14.977, 18.815, 18.753, 15.796, 17.813, 14.101, 18.622, 18.434, 10.664, 14.214, 18.886, 14.674, 18.268, 18.824, 15.004, 14.917, 16.125, 18.219, 15.912, 18.572, 14.02, 14.808, 14.645, 13.054, 17.96, 14.78, 18.308, 18.566, 13.166, 12.087, 17.604, 15.066, 18.044, 12.115, 17.971, 18.399, 18.462, 13.798, 18.283, 14.136, 16.327, 14.699, 10.551, 18.55, 18.351, 17.813, 18.479, 18.55, 13.533, 15.644, 16.553, 15.066, 14.665, 18.255, 17.181, 11.151, 14.67, 17.929, 13.065, 10.919, 12.898, 11.61, 18.634, 18.491, 14.043, 15.492, 11.016, 18.28, 18.342, 14.526, 11.759, 18.706, 18.687, 18.824, 18.072, 18.576, 18.687, 17.282, 14.75, 17.976, 18.587, 18.755, 12.634, 17.829, 18.538, 18.525, 14.299, 14.331, 13.049, 15.081, 10.995, 18.354, 18.706, 12.46, 9.934, 16.511, 15.475, 18.832, 14.795, 17.653, 15.005, 18.612, 18.773, 17.677, 15.371, 12.181, 17.813, 11.89, 14.067, 18.718, 14.992, 13.846, 14.483, 17.178, 18.576, 17.871, 13.278, 17.45, 18.33, 17.923, 13.557, 18.946, 14.959, 18.405, 18.769, 14.63, 18.994, 15.332, 14.829, 10.657],
  "Optimizer iterations": 217,
  "Optimizer params": [0.9809836843538334, 0.7731888286492249, 0.437833329855418, 1.5297106803825642e-18, 0.09179055891271215, 0.8587570893605785],
  "P": 3,
  "Problem": "DSP",
  "QPU": "7000000",
  "Qubits": 6,
  "Shots": 4096,
  "Size": 3,
  "Total Algorithm duration [s]": 3.525,
  "Total Classic duration [s]": 3.325587,
  "Total Quantum duration [s]": 0.199413
}
