{
  "Depth": 132.0,
  "Expectation Value": -1.9161573648452759,
  "Job durations [ms]": [0.8634, 0.8428, 0.9526, 0.8577, 0.6861, 0.8561000000000001, 0.8939, 0.8385, 1.1366, 0.9344, 0.9399000000000001, 0.8632, 0.9319999999999999, 1.1259, 1.1534, 0.8545, 0.8566, 0.9457, 0.9711000000000001, 0.8552, 0.8264, 1.157, 0.8352999999999999, 0.9307, 0.8723, 1.2345, 0.9855, 0.9288000000000001, 0.6637000000000001, 0.9508, 0.9433999999999999, 0.8468, 0.8595, 0.8434, 0.9433, 0.8497, 0.8415, 0.9701, 0.8949, 0.9404, 0.9454, 0.8389, 0.8759, 0.8411, 0.8187, 0.9751, 0.959, 0.9726, 0.9248999999999999, 0.8399, 0.8645, 1.1368, 0.8775999999999999, 0.8484, 0.8529, 0.8295, 0.8599, 0.834, 0.8119, 0.8503000000000001, 0.8409, 0.8943, 0.8532000000000001, 0.9519, 0.8864, 1.1683, 0.8543, 0.6435, 1.0765, 0.8342999999999999, 0.8613, 1.2598, 1.2137, 0.9394, 0.9259000000000001, 0.8631, 1.2191999999999998, 0.9511, 0.9363, 0.983, 0.8641, 0.8935, 0.8661, 0.9501, 0.9902000000000001, 1.0203, 0.8506, 0.8519000000000001, 1.0233, 1.1264, 1.0385, 0.8476, 0.5046999999999999, 0.6593, 0.8375, 0.8677999999999999, 0.8756, 0.856, 0.8305, 0.9894000000000001, 0.8753, 1.0546, 0.8698999999999999, 0.9292, 1.1482, 0.8702, 0.9423, 0.8494, 0.8419, 0.8434999999999999, 0.9342, 0.8781, 1.0214, 0.8359, 0.847, 1.118, 0.8831000000000001, 0.9959999999999999, 0.8120999999999999, 0.7998999999999999, 0.8151999999999999, 1.1022, 0.9336, 0.9099, 0.8379000000000001, 0.9496, 0.9341, 0.8254, 0.9419, 0.9266, 0.8613, 0.9441, 1.1762000000000001, 0.933, 0.8154, 0.9307, 1.2143],
  "Optimal Expectation Value": -2.0,
  "Optimizer durations [ms]": [18.53, 18.625, 14.757, 16.362, 11.961, 18.716, 18.082, 18.507, 15.26, 14.696, 14.128, 17.338, 13.765, 18.187, 14.364, 15.592, 18.779, 14.592, 11.155, 18.75, 14.986, 18.101, 17.825, 14.655, 18.922, 13.938, 15.121, 16.248, 11.977, 14.783, 11.446, 18.751, 14.161, 18.565, 14.799, 16.129, 18.409, 15.084, 16.654, 12.663, 14.858, 18.699, 16.261, 18.638, 17.375, 14.835, 11.114, 14.713, 12.69, 18.333, 18.76, 17.945, 14.151, 16.829, 18.668, 15.392, 18.831, 17.364, 13.546, 17.186, 14.653, 16.632, 15.745, 14.628, 14.237, 16.9, 18.469, 11.765, 13.372, 15.271, 18.835, 18.131, 18.125, 11.717, 10.035, 18.789, 15.759, 14.722, 10.782, 15.257, 18.991, 14.092, 19.011, 14.865, 15.083, 16.636, 17.911, 16.257, 18.095, 14.149, 14.557, 18.125, 10.107, 11.745, 18.041, 18.565, 18.81, 16.096, 15.911, 17.994, 18.945, 18.044, 18.806, 13.306, 18.177, 18.829, 10.618, 15.781, 18.414, 14.616, 14.426, 18.937, 18.297, 18.266, 15.515, 13.363, 17.881, 14.439, 18.699, 18.038, 18.732, 18.267, 11.659, 15.107, 18.556, 12.534, 10.037, 18.525, 18.329, 13.598, 18.957, 16.847, 17.189, 14.808, 18.431, 14.731, 16.121],
  "Optimizer iterations": 137,
  "Optimizer params": [0.3076421364070332, 0.9587154494826985, 0.8017583118403, 0.2601864995840272, 0.5332047567352507, 0.3163287773181253],
  "P": 3,
  "Problem": "DSP",
  "QPU": "7000000",
  "Qubits": 6,
  "Shots": 4096,
  "Size": 3,
  "Total Algorithm duration [s]": 2.196,
  "Total Classic duration [s]": 2.0702637,
  "Total Quantum duration [s]": 0.12573630000000005
}
