{
  "Depth": 132.0,
  "Expectation Value": -1.8357771635055542,
  "Job durations [ms]": [1.0065, 0.8339000000000001, 0.8573, 0.8694, 0.8536, 0.8387, 1.0831, 0.8744, 0.8989999999999999, 0.8428, 0.8522, 1.2355999999999998, 0.8241, 1.0655000000000001, 0.842, 0.8651000000000001, 0.8571, 0.9456, 1.1511, 0.8545, 0.8501, 0.8423, 0.8907999999999999, 0.8449, 1.2302000000000002, 0.8597, 0.8407, 0.8507, 0.8466, 1.0956, 0.8348, 1.0158, 1.0357, 0.8632, 0.8463999999999999, 1.0281, 0.8484, 0.8592, 0.8582000000000001, 0.8355, 1.2273, 1.0985, 0.9724999999999999, 1.0149, 0.9411, 0.8542, 0.8409, 0.8571, 0.8432999999999999, 1.2528000000000001, 0.8224, 1.2322, 1.2497, 0.8449, 0.855, 0.8674000000000001, 0.8562, 0.8348, 0.8465, 0.8413999999999999, 0.8321, 0.841, 0.8216, 0.8413, 1.1444, 0.8301, 0.8523, 0.8432, 1.2642, 1.0809000000000002, 1.1479000000000001, 1.2432999999999998, 1.0637, 0.8503999999999999, 1.1753, 1.2221, 0.9272, 0.8577, 0.842, 0.9927, 0.9543, 0.8447, 0.9848000000000001, 1.0651, 0.8386, 0.8325, 0.8387, 0.8451, 0.9790999999999999, 0.9187000000000001, 0.8251000000000001, 0.839, 0.9216, 0.8534, 0.8388, 0.8602, 0.8442999999999999, 0.8795, 0.8519000000000001, 0.8089, 0.8451, 0.8438, 1.0736999999999999, 0.9251, 1.0244, 0.8180000000000001, 0.8593999999999999, 0.8473, 0.8622000000000001, 0.8241, 0.8204, 0.8133, 1.0846, 0.8854000000000001, 0.8612, 0.9119, 1.21, 1.1039, 0.8667, 1.279, 0.8453999999999999, 0.8737, 0.8392000000000001, 1.1787, 0.9036, 0.8543999999999999, 0.8875000000000001, 1.0064, 0.8437, 0.8675999999999999, 0.9318, 1.1969, 0.8533, 1.2432, 0.8476999999999999, 0.8515, 1.1291, 1.2388, 0.8473, 0.8318000000000001, 1.0825, 0.9143, 0.8438, 0.8459, 0.8539, 0.8685999999999999, 0.8472, 0.9404, 0.9836, 0.8535, 0.9512999999999999, 0.9878, 0.8441, 0.8458, 1.0235999999999998, 1.2609, 0.8533, 0.8548, 0.8581, 0.8609, 0.8720000000000001, 0.8742, 0.9299, 0.9179999999999999, 0.851, 0.8252999999999999, 0.846, 0.8545999999999999, 1.1203, 1.22, 0.8295, 0.8335, 0.8558, 0.883, 1.1527, 0.8691, 0.8339000000000001, 0.8593000000000001, 0.8613, 0.8407, 0.85, 1.2707, 0.8733000000000001, 0.846, 0.8961, 0.9934, 0.8592, 0.8586, 0.8281000000000001, 1.2696999999999998, 0.8572000000000001, 0.9357, 0.8659, 0.928, 0.8721, 0.876, 1.2451999999999999, 0.8586, 0.8611, 0.9033, 1.0211000000000001, 0.8627, 0.8479, 1.2085, 0.875, 0.8415, 1.3018999999999998, 0.8505, 0.8815999999999999, 0.865, 0.8689, 0.8586, 0.8597, 0.8308, 1.1324, 0.8162, 0.83, 0.8423, 1.054, 0.8584, 0.8418, 0.9520000000000001, 0.8926000000000001, 0.907, 0.8377, 0.8516, 0.9219999999999999, 0.8563000000000001, 0.8270000000000001, 0.8358, 0.8486, 0.8442999999999999, 0.8398, 0.8184, 0.9278, 1.2412, 1.065, 0.8516, 0.846, 0.9396, 0.8513999999999999, 0.8582000000000001, 1.2719, 1.0847, 0.8601000000000001, 0.85, 0.8487, 1.2236, 0.8398, 1.0774000000000001, 0.8664999999999999],
  "Optimal Expectation Value": -2.0,
  "Optimizer durations [ms]": [15.16, 18.238, 18.58, 16.588, 18.547, 18.821, 18.008, 18.528, 14.299, 18.398, 18.498, 17.962, 18.347, 18.17, 18.586, 15.955, 18.5, 14.913, 18.322, 18.823, 18.015, 18.631, 17.801, 18.695, 14.728, 18.843, 14.183, 18.772, 18.096, 18.481, 14.83, 18.081, 18.251, 18.255, 18.435, 18.124, 14.019, 18.901, 16.349, 18.526, 18.372, 17.936, 11.269, 15.692, 10.573, 14.36, 17.157, 17.085, 14.475, 18.133, 18.507, 13.717, 14.281, 18.773, 18.693, 15.633, 18.641, 16.832, 18.522, 16.457, 16.45, 14.882, 14.628, 15.51, 14.93, 18.429, 15.529, 18.575, 18.035, 16.839, 18.274, 18.344, 18.05, 15.982, 18.134, 18.087, 18.641, 18.849, 14.622, 12.093, 14.939, 18.489, 13.499, 18.079, 14.821, 18.469, 18.509, 16.868, 18.2, 14.579, 15.163, 18.643, 14.037, 16.272, 18.474, 17.94, 18.643, 18.961, 16.37, 18.032, 15.969, 18.421, 16.382, 10.075, 17.768, 18.554, 18.67, 15.941, 18.865, 18.447, 18.464, 17.965, 17.946, 19.11, 18.764, 17.756, 13.639, 15.178, 18.659, 18.326, 18.592, 18.815, 16.732, 17.528, 17.997, 18.549, 18.046, 18.396, 18.824, 18.069, 14.888, 18.291, 18.643, 15.089, 18.652, 17.255, 18.132, 13.977, 16.425, 18.335, 18.325, 11.754, 18.734, 18.415, 13.956, 15.161, 18.65, 11.653, 17.814, 18.874, 14.956, 16.907, 16.547, 18.679, 18.286, 18.109, 16.986, 17.939, 17.57, 18.021, 15.583, 18.879, 13.763, 14.528, 14.432, 17.606, 15.979, 14.638, 16.382, 13.988, 18.293, 15.145, 14.656, 18.58, 17.826, 17.218, 18.011, 18.28, 18.13, 18.618, 18.778, 14.919, 18.942, 18.581, 16.178, 17.747, 15.456, 17.843, 14.366, 18.117, 18.793, 11.661, 19.109, 13.317, 18.914, 17.335, 16.752, 18.503, 18.668, 18.086, 18.134, 18.656, 18.428, 18.213, 14.89, 18.611, 18.348, 14.021, 15.779, 18.987, 18.506, 16.241, 17.016, 18.217, 14.399, 18.678, 18.357, 18.761, 14.696, 17.398, 18.611, 14.864, 17.708, 15.45, 18.522, 18.442, 18.264, 14.123, 13.839, 15.945, 18.681, 18.252, 18.787, 15.74, 14.559, 18.231, 18.085, 18.707, 18.553, 14.37, 16.401, 18.549, 18.1, 15.857, 19.091, 15.242, 13.768, 17.953, 17.946, 18.05, 14.331],
  "Optimizer iterations": 251,
  "Optimizer params": [0.6163479577323344, 0.9591444435220586, 0.6493080542475704, 0.8281261382171392, 1.0, 0.7787983578016429],
  "P": 3,
  "Problem": "DSP",
  "QPU": "7000000",
  "Qubits": 6,
  "Shots": 4096,
  "Size": 3,
  "Total Algorithm duration [s]": 4.279,
  "Total Classic duration [s]": 4.0457517,
  "Total Quantum duration [s]": 0.2332482999999999
}
