{
  "Depth": 132.0,
  "Expectation Value": -1.850158929824829,
  "Job durations [ms]": [0.8727, 0.8654999999999999, 0.8661, 0.8552, 0.8635999999999999, 0.8337, 1.0668, 0.8197, 0.8407, 0.9274, 0.8227, 0.8804000000000001, 0.925, 0.8457, 0.8432, 0.8453, 0.8545999999999999, 0.8702, 1.1019, 0.8245, 1.0864, 1.1431, 0.8738, 0.8256, 0.8855, 1.0371, 0.9389, 0.8513999999999999, 0.8573, 0.8529, 1.2064000000000001, 0.8543999999999999, 1.2804, 1.0332, 0.8637, 0.8289000000000001, 0.8651000000000001, 0.824, 0.8476, 0.8524999999999999, 0.9351999999999999, 1.1425, 0.8623, 0.9380000000000001, 0.8318000000000001, 1.0046, 0.877, 0.8302999999999999, 0.8293, 1.1341, 0.8385, 0.9539000000000001, 1.0766, 0.8509, 0.848, 0.8536, 0.8439, 0.6823, 0.8656, 0.8465, 0.8685999999999999, 1.0, 0.9295, 0.8744, 1.2348000000000001, 0.8788999999999999, 0.8469, 0.8574, 0.9282999999999999, 0.9091, 0.8484999999999999, 0.9433, 0.8434999999999999, 0.8553999999999999, 0.8526, 1.1084, 0.8386, 0.8584, 0.851, 0.8476999999999999, 0.9444, 0.8548, 0.8668, 0.8402999999999999, 0.8337, 0.8549, 0.8653000000000001, 1.1261999999999999, 0.9384, 0.873, 0.8664000000000001, 1.1914, 1.1416, 0.8603000000000001, 0.9274, 0.9394, 0.9355, 0.8746999999999999, 0.9285, 0.8802, 1.0859999999999999, 0.8513999999999999, 0.9348, 0.9398, 0.9476, 0.8694, 0.8457, 1.0317, 1.0534999999999999, 0.8597, 0.8614999999999999, 0.8383, 0.9411, 1.2036, 1.2149999999999999, 0.8298, 1.0143000000000002, 0.8341000000000001, 0.9853999999999999, 0.8388, 0.8239000000000001, 0.8501, 0.8752, 1.0338999999999998, 0.9306, 0.8581, 0.8154, 0.8391, 0.9547, 0.8461000000000001, 0.9169, 0.8579, 0.8387, 0.9889, 0.8344, 1.1832, 0.8663, 0.8509, 0.8511000000000001, 0.8298, 0.9395, 0.8579, 0.8409, 0.8474, 0.9970000000000001, 0.861, 1.1755, 0.9264, 1.0612, 0.8553000000000001, 0.8466, 0.9407000000000001, 0.9886999999999999, 0.8486, 1.2387, 1.0905, 0.8369, 1.0325, 0.8703, 0.8545999999999999, 1.0769, 0.8444, 0.8331999999999999, 0.8442999999999999, 0.839, 0.8229, 0.8458, 1.1885999999999999, 0.9056, 0.9753999999999999, 0.8489, 0.8522, 0.8437, 0.8576],
  "Optimal Expectation Value": -2.0,
  "Optimizer durations [ms]": [18.668, 19.097, 18.67, 15.89, 18.882, 18.301, 18.352, 15.465, 18.526, 14.577, 15.608, 16.016, 14.296, 18.708, 16.781, 18.166, 18.877, 18.079, 17.321, 18.156, 18.665, 17.925, 18.876, 18.226, 18.243, 14.594, 14.952, 18.692, 14.266, 15.44, 17.918, 18.628, 18.382, 12.326, 14.384, 14.64, 14.961, 18.348, 14.887, 18.385, 10.77, 18.199, 17.698, 11.668, 18.768, 10.74, 16.426, 18.463, 18.612, 16.186, 18.581, 18.057, 18.365, 15.444, 18.722, 17.903, 17.038, 8.29, 18.61, 18.69, 14.722, 13.941, 14.729, 18.874, 15.4, 16.933, 16.482, 18.82, 14.358, 18.201, 18.624, 14.323, 16.056, 18.891, 18.068, 18.288, 18.509, 16.57, 18.709, 15.323, 14.79, 18.481, 18.9, 15.438, 17.133, 15.776, 18.798, 16.528, 10.673, 19.05, 18.652, 16.517, 16.244, 15.64, 11.93, 11.219, 14.887, 17.1, 14.599, 14.483, 13.509, 17.117, 14.985, 13.185, 13.67, 18.912, 18.659, 17.189, 17.761, 18.447, 16.951, 13.925, 14.256, 17.719, 18.077, 18.463, 18.044, 13.914, 18.24, 14.559, 18.444, 18.433, 17.945, 15.226, 13.012, 18.856, 18.276, 14.882, 10.699, 18.576, 17.667, 18.75, 16.002, 17.964, 15.039, 16.202, 16.641, 17.829, 16.192, 15.007, 14.624, 18.755, 18.646, 18.74, 15.597, 18.577, 14.48, 10.368, 18.274, 18.639, 15.012, 13.616, 17.917, 17.48, 13.826, 18.12, 18.619, 17.891, 15.865, 18.669, 15.56, 18.629, 14.853, 14.929, 18.392, 15.872, 18.534, 17.114, 19.491, 15.081, 18.725, 15.798, 18.048, 14.382],
  "Optimizer iterations": 174,
  "Optimizer params": [0.7530965392145632, 0.35933032514381363, 0.8947771248450683, 0.49919991755211374, 0.22872560771454173, 0.4777799649419264],
  "P": 3,
  "Problem": "DSP",
  "QPU": "7000000",
  "Qubits": 6,
  "Shots": 4096,
  "Size": 3,
  "Total Algorithm duration [s]": 2.889,
  "Total Classic duration [s]": 2.7294880999999998,
  "Total Quantum duration [s]": 0.15951190000000007
}
