{
  "Depth": 14.5,
  "Job durations [ms]": [77.99999788403511, 20.00000048428774, 18.499999307096004, 33.50000083446503, 50.4999989643693, 48.99999871850014, 37.00000047683716, 31.999999657273293, 19.499999471008778, 20.49999963492155, 21.499999798834324, 34.00000091642141, 38.999998942017555, 48.499999567866325, 28.999999165534973, 33.00000075250864, 20.999999716877937, 27.999999932944775, 44.999999925494194, 61.49999797344208, 38.50000165402889, 25.500000454485416, 28.999999165534973, 65.49999862909317, 24.000000208616257, 37.500000558793545, 28.50000001490116, 40.50000011920929, 55.49999978393316, 19.499999471008778, 33.49999897181988, 46.499998308718204, 33.00000075250864, 23.50000012665987, 21.499999798834324, 24.000000208616257, 44.00000162422657, 31.999999657273293, 30.000001192092896, 24.500000290572643, 42.49999951571226, 21.499999798834324, 37.99999970942736, 26.000000536441803, 42.500000447034836, 24.500000290572643, 22.000000812113285, 48.500001430511475, 46.50000110268593, 688.5000076144934, 26.999999769032, 38.99999987334013, 31.499999575316906, 20.999999716877937, 33.50000083446503, 35.00000108033419, 34.500000067055225, 37.500000558793545, 35.499999299645424, 44.50000077486038, 28.50000001490116, 40.9999992698431, 42.500000447034836, 53.999999538064, 35.99999938160181, 30.99999949336052, 18.99999938905239, 35.500000230968, 37.49999962747097, 38.00000064074993, 33.00000075250864, 38.49999979138374, 74.49999824166298, 35.499999299645424, 36.000000312924385, 41.50000028312206, 29.000000096857548, 40.50000011920929, 42.99999959766865, 45.00000178813934, 33.49999897181988, 32.49999973922968, 37.500000558793545, 36.999999545514584, 41.00000113248825, 51.500000059604645, 30.99999949336052, 45.500000938773155, 31.50000050663948, 30.500000342726707, 33.99999998509884, 38.00000064074993, 33.99999998509884, 35.00000108033419, 33.50000083446503, 41.50000028312206, 30.99999949336052, 33.50000083446503, 30.499999411404133, 42.500000447034836, 52.49999836087227, 39.000000804662704, 36.000000312924385, 54.9999987706542, 31.50000050663948, 30.500000342726707, 30.99999949336052, 36.4999994635582, 38.49999979138374, 35.00000014901161, 31.499999575316906, 37.49999962747097, 36.4999994635582, 20.49999963492155, 29.500000178813934, 39.000000804662704, 33.50000083446503, 38.50000165402889, 38.00000064074993, 38.00000064074993, 39.499999955296516, 31.000000424683094, 34.5000009983778, 30.99999949336052, 41.50000028312206, 43.50000061094761, 30.00000026077032, 32.99999888986349, 34.00000091642141, 39.000000804662704, 30.000001192092896, 36.000000312924385, 33.00000075250864, 32.00000058859587, 28.999999165534973, 30.499999411404133, 22.000000812113285, 32.999999821186066, 39.000000804662704, 35.500000230968, 35.00000014901161, 23.000000044703484, 38.49999979138374, 45.500000938773155, 37.500000558793545, 36.50000039488077, 34.500000067055225, 39.000000804662704, 42.49999858438969, 30.99999949336052, 35.99999938160181, 38.999998942017555, 32.49999973922968, 34.99999921768904, 36.50000039488077, 46.00000008940697, 43.49999874830246, 33.00000075250864, 54.499998688697815, 30.00000026077032, 33.999999053776264, 34.500000067055225, 30.99999949336052, 38.00000064074993, 36.4999994635582, 36.999999545514584, 33.49999990314245, 34.49999913573265, 32.999999821186066, 37.49999962747097, 34.5000009983778, 40.50000011920929, 35.500000230968, 34.5000009983778, 30.00000026077032, 31.50000050663948, 20.999999716877937, 34.5000009983778, 35.499999299645424, 36.500001326203346, 31.50000050663948, 35.500000230968, 32.500000670552254, 33.49999990314245, 41.999999433755875, 41.50000028312206, 33.99999998509884, 34.5000009983778, 31.000000424683094, 33.99999998509884, 50.49999989569187, 18.99999938905239, 33.00000075250864, 42.99999959766865, 43.50000061094761, 33.99999998509884, 43.49999874830246, 40.9999992698431, 39.499999955296516, 35.500000230968, 32.49999973922968, 119.99999918043613, 35.00000014901161, 31.999999657273293, 36.50000039488077, 36.00000124424696, 48.499999567866325, 30.00000026077032, 39.499999955296516, 36.50000039488077, 72.00000062584877, 34.500000067055225, 35.500000230968, 37.00000047683716, 32.500000670552254, 35.99999938160181, 33.99999998509884, 35.499999299645424, 32.999999821186066, 36.4999994635582, 32.49999973922968, 25.499999523162842, 42.49999858438969, 35.99999938160181, 47.49999940395355, 35.00000014901161, 31.000000424683094, 21.99999988079071, 30.499999411404133, 30.99999949336052, 39.49999902397394, 34.5000009983778, 32.500000670552254, 42.99999959766865, 37.00000047683716, 31.50000050663948, 38.49999979138374, 29.500000178813934, 32.999999821186066, 83.00000056624413, 32.999999821186066, 30.000001192092896, 37.99999970942736, 56.49999901652336, 29.999999329447746, 33.999999053776264, 37.00000047683716, 39.000000804662704, 31.999999657273293, 35.00000108033419, 33.49999990314245, 34.00000091642141, 33.49999990314245, 35.99999938160181, 31.50000050663948, 40.50000011920929, 44.49999891221523, 36.000000312924385, 28.999999165534973, 30.99999949336052, 32.500000670552254, 35.00000014901161, 38.49999979138374, 42.000001296401024, 33.999999053776264, 29.000000096857548, 26.000000536441803, 35.500000230968, 32.999999821186066, 32.500000670552254, 47.999998554587364, 24.999999441206455, 36.000000312924385, 32.49999973922968, 30.00000026077032, 29.500000178813934],
  "Optimizer durations [ms]": [12179.303, 12367.404, 12091.703, 12279.077, 12393.879, 12522.916, 12076.536, 12214.197, 12248.159, 12110.835, 12049.415, 12235.425, 12029.044, 12297.719, 12077.571, 12015.826, 12150.776, 12390.506, 12116.771, 18006.53, 12220.89, 12236.806, 12081.562, 12218.295, 12348.366, 12747.502, 12051.358, 11992.554, 12124.647, 12124.25, 12199.943, 13194.752, 12306.301, 12068.298, 12327.497, 12426.838, 11824.649, 11968.884, 12687.75, 12401.291, 12071.469, 12487.614, 12190.39, 12094.126, 12581.577, 12095.51, 12176.372, 12308.229, 12166.051, 12218.822, 12513.162, 12365.932, 12273.221, 12166.647, 12189.102, 12505.738, 17453.735, 12046.586, 17725.931, 12063.656, 13345.929, 17580.158, 12187.857, 17203.112, 12107.161, 17570.69, 12329.772, 12062.019, 12396.052, 12483.805, 12111.129, 12315.72, 12136.383, 12283.277, 12126.437, 12146.797, 12217.411, 12193.323, 12298.16, 12278.888, 12251.222, 12441.508, 12130.358, 12287.256, 12390.423, 17920.58, 12087.867, 12176.915, 12392.861, 12048.561, 12112.114, 12091.947, 12284.169, 12184.988, 12492.497, 12489.171, 12274.456, 12306.236, 12598.147, 12198.855, 12129.221, 12124.44, 12208.172, 12554.025, 12452.381, 12385.257, 12168.728, 12248.211, 12204.523, 12187.364, 12387.774, 12373.233, 12285.597, 12132.477, 12484.923, 12076.258, 12179.495, 12300.014, 12520.998, 12021.249, 12505.593, 12403.121, 12277.016, 12195.674, 12186.104, 12333.624, 12013.286, 12290.176, 12050.236, 12642.344, 12293.341, 12784.336, 12428.979, 12249.563, 12090.99, 12390.601, 12126.414, 12348.684, 12303.759, 12268.808, 12091.482, 12285.323, 12338.492, 12217.973, 12185.212, 12467.961, 12520.105, 12506.572, 12378.046, 12095.004, 12172.555, 12227.154, 12062.683, 12191.503, 12073.23, 12387.763, 12612.663, 12003.452, 12172.985, 12232.764, 12222.809, 12177.254, 12287.746, 12085.214, 12184.782, 12742.193, 12243.406, 12576.545, 12395.049, 12310.763, 12424.995, 12363.383, 12178.845, 12496.0, 11992.423, 12159.105, 12088.644, 12289.548, 12351.772, 12545.071, 12119.251, 12651.826, 12106.479, 12171.621, 12494.449, 12171.995, 12478.217, 12299.542, 12697.385, 12238.691, 12032.63, 12065.218, 12098.308, 12328.886, 12043.863, 12188.489, 12411.687, 12576.404, 12060.692, 12307.445, 12308.163, 12381.313, 12279.042, 12229.597, 12138.142, 12033.616, 12439.531, 12399.055, 12076.599, 12491.986, 12215.96, 12054.822, 12208.761, 12062.379, 12023.902, 12240.513, 12111.907, 12048.81, 12428.93, 12204.394, 12264.409, 12144.328, 12203.287, 12118.179, 12563.596, 11989.279, 12289.856, 12272.607, 12186.608, 12189.034, 12103.404, 12263.815, 12290.848, 12349.758, 12269.854, 12068.71, 12185.827, 12360.519, 12399.01, 12074.96, 12493.906, 13209.205, 14748.132, 12350.821, 12593.913, 12437.021, 12081.254, 12076.592, 12388.736, 12121.406, 12197.884, 12182.614, 12157.533, 12211.263, 12636.734, 12156.517, 12230.67, 12231.475, 12242.445, 12215.325, 12054.077, 12513.824, 12062.742, 12289.52, 12022.239, 12451.213, 12285.722, 12232.48, 12245.107, 12082.189, 12477.051, 12126.111, 12362.432, 12083.446, 12476.478, 12142.33],
  "Optimizer iterations": 276,
  "Qubits": 6,
  "Total Algorithm duration [s]": 3425.958,
  "Total Classic duration [s]": 3415.3269999878407,
  "Total Quantum duration [s]": 10.631000012159348,
  "Expectation Value": -5.5244140625,
  "Optimal Expectation Value": -7.296229839324951,
  "Optimizer params": [0.6585564649377891, 0.7661384880657498, 0.7557702709614265, 0.7791173680892618, 0.8053357881783935, 0.44663299577022825, 0.5002361603193799, 0.556005535151307, 0.497865848400304, 0.5039840778063438, 0.530110663206485, 0.46197439942364293, 0.4912244070228927, 0.4992185640907449, 0.483160426217523, 0.4850120436069763, 0.5029714421606564, 0.5085112990419003, 0.4948746734239095, 0.4850603907454503, 0.4923367522654756, 0.5026543664705301, 0.5138308977315915, 0.5024659747126384],
  "QPU": "10000001",
  "Problem": "IC",
  "Size": 6,
  "P": 0,
  "Shots": 4096
}