{
  "Depth": 14.5,
  "Job durations [ms]": [41.00000113248825, 46.50000110268593, 43.50000061094761, 41.999999433755875, 42.99999959766865, 45.500000938773155, 48.00000041723251, 42.500000447034836, 38.999998942017555, 47.49999940395355, 53.49999852478504, 48.00000041723251, 43.0000014603138, 47.5000012665987, 44.999999925494194, 44.50000077486038, 41.50000028312206, 40.50000011920929, 47.49999940395355, 47.5000012665987, 43.50000061094761, 39.499999955296516, 46.49999924004078, 43.50000061094761, 49.50000159442425, 41.999999433755875, 39.99999910593033, 39.499999955296516, 47.00000025331974, 46.00000008940697, 39.99999910593033, 46.00000008940697, 42.000001296401024, 50.999999046325684, 42.99999959766865, 40.9999992698431, 52.99999937415123, 51.00000090897083, 45.499999076128006, 42.000001296401024, 47.49999940395355, 40.50000011920929, 49.00000058114529, 43.50000061094761, 54.00000140070915, 40.50000011920929, 46.50000110268593, 42.99999959766865, 52.000001072883606, 43.50000061094761, 49.00000058114529, 41.00000113248825, 43.50000061094761, 50.999999046325684, 44.50000077486038, 41.00000113248825, 41.50000028312206, 43.50000061094761, 42.500000447034836, 41.00000113248825, 41.999999433755875, 41.999999433755875, 43.50000061094761, 51.99999921023846, 54.50000241398811, 59.49999764561653, 42.500000447034836, 41.00000113248825, 42.500000447034836, 49.00000058114529, 58.000000193715096, 48.00000041723251, 43.49999874830246, 49.00000058114529, 40.50000011920929, 46.50000110268593, 46.49999924004078, 46.50000110268593, 40.00000096857548, 39.499999955296516, 44.999999925494194, 39.499999955296516, 44.999999925494194, 44.999999925494194, 44.999999925494194, 44.49999891221523, 41.50000028312206, 42.000001296401024, 41.999999433755875, 49.00000058114529, 39.499999955296516, 41.50000028312206, 44.50000077486038, 44.50000077486038, 41.00000113248825, 43.99999976158142, 38.49999979138374, 39.99999910593033, 42.500000447034836, 46.49999924004078, 42.99999959766865, 44.50000077486038, 44.999999925494194, 46.50000110268593, 50.999999046325684, 58.50000120699406, 39.499999955296516, 48.500001430511475, 47.00000025331974, 39.99999910593033, 48.500001430511475, 55.99999986588955, 42.500000447034836, 43.99999976158142, 44.50000077486038, 45.499999076128006, 42.49999858438969, 42.500000447034836, 42.99999959766865, 41.50000028312206, 41.50000028312206, 46.49999924004078, 39.499999955296516, 43.99999976158142, 43.50000061094761, 46.00000008940697, 47.49999940395355, 51.500000059604645, 43.50000061094761, 48.500001430511475, 43.50000061094761, 50.00000074505806, 45.500000938773155, 46.49999924004078, 39.499999955296516, 46.49999924004078, 49.00000058114529, 42.500000447034836, 40.50000011920929, 43.0000014603138, 43.99999976158142, 40.9999992698431, 40.50000011920929, 45.500000938773155, 44.00000162422657, 46.00000008940697, 42.99999959766865, 41.999999433755875, 85.00000275671482, 41.50000028312206, 46.49999924004078, 40.50000011920929, 51.00000090897083, 44.999999925494194, 45.500000938773155, 44.50000077486038, 141.49999804794788, 37.49999962747097, 39.499999955296516, 44.49999891221523, 45.500000938773155, 42.99999959766865, 41.50000028312206, 44.49999891221523, 51.500000059604645, 53.49999852478504, 44.999999925494194, 40.00000096857548, 44.999999925494194, 43.50000061094761, 39.99999910593033, 41.50000028312206, 43.0000014603138, 41.50000028312206, 37.99999877810478, 43.50000061094761, 40.9999992698431, 48.00000041723251, 49.00000058114529, 40.00000096857548, 47.00000025331974, 54.999999701976776, 53.50000038743019, 39.499999955296516, 46.50000110268593, 47.49999940395355, 44.00000162422657, 47.5000012665987, 41.50000028312206, 47.5000012665987, 49.00000058114529, 42.500000447034836, 39.499999955296516, 45.499999076128006, 54.500000551342964, 43.50000061094761, 44.50000077486038, 45.500000938773155, 47.00000025331974, 47.49999940395355, 44.49999891221523, 44.999999925494194, 39.000000804662704, 51.99999921023846, 39.499999955296516, 42.500000447034836, 46.00000008940697, 43.50000061094761, 42.99999959766865, 48.00000041723251, 48.00000041723251, 42.500000447034836, 40.00000096857548, 43.99999976158142, 42.000001296401024, 48.99999871850014, 40.50000011920929, 44.50000077486038, 42.500000447034836, 44.49999891221523, 43.99999976158142, 45.500000938773155, 43.49999874830246, 40.9999992698431, 40.50000011920929, 42.99999959766865, 45.500000938773155, 40.50000011920929, 50.999999046325684, 46.00000008940697, 43.0000014603138, 44.999999925494194, 41.00000113248825, 44.00000162422657, 73.99999909102917, 42.500000447034836, 42.500000447034836, 51.99999921023846, 44.50000077486038, 43.99999976158142, 47.5000012665987, 37.49999962747097, 47.49999940395355, 42.000001296401024, 46.00000008940697, 40.00000096857548, 42.99999959766865, 49.99999888241291, 67.49999895691872, 49.99999888241291, 40.50000011920929, 40.50000011920929, 40.9999992698431, 47.49999940395355, 41.50000028312206, 38.49999979138374, 41.999999433755875, 62.5, 49.00000058114529, 42.500000447034836, 43.50000061094761, 41.50000028312206, 43.0000014603138, 48.00000041723251, 40.50000011920929, 40.50000011920929, 55.9999980032444, 43.99999976158142, 44.999999925494194, 52.50000022351742, 43.49999874830246, 39.499999955296516, 44.50000077486038, 49.4999997317791, 39.499999955296516, 44.999999925494194, 43.99999976158142, 42.500000447034836, 46.00000008940697, 41.50000028312206, 47.49999940395355, 40.00000096857548, 52.50000208616257, 42.500000447034836, 45.499999076128006, 43.50000061094761, 39.499999955296516, 44.50000077486038, 44.999999925494194, 58.000000193715096, 43.99999976158142, 46.00000008940697, 39.499999955296516, 37.00000047683716, 25.500000454485416, 50.4999989643693, 40.50000011920929, 34.5000009983778, 44.999999925494194, 25.500000454485416, 39.99999910593033, 21.99999988079071, 26.499999687075615, 64.00000117719173, 32.999999821186066, 36.999999545514584],
  "Optimizer durations [ms]": [12137.479, 12499.982, 13705.751, 12553.581, 12421.81, 12428.851, 13763.466, 12322.925, 12585.116, 12746.476, 12956.155, 12487.598, 12410.433, 12321.505, 13062.319, 12294.503, 12389.117, 12619.568, 12797.068, 13072.421, 12718.512, 12082.158, 12456.603, 13857.757, 12270.525, 12602.955, 12519.16, 12269.839, 12603.633, 12415.307, 12258.013, 12559.125, 13192.605, 17605.413, 12856.127, 13421.066, 12477.939, 12729.438, 12634.224, 13442.062, 12497.635, 12812.761, 12627.42, 12295.301, 12931.465, 13126.718, 12963.681, 12549.008, 12929.384, 13134.111, 12544.585, 12580.164, 12461.047, 12940.183, 18335.805, 12787.737, 12618.052, 12287.44, 13012.347, 12501.233, 12455.638, 12509.057, 12476.622, 12514.779, 12876.959, 18859.188, 13097.593, 12797.747, 12552.816, 12638.105, 13008.612, 12322.862, 13564.768, 13664.452, 13175.383, 12802.203, 12798.373, 12814.526, 12717.059, 12796.219, 12666.457, 13212.189, 12798.268, 12818.249, 12186.04, 12616.116, 12453.499, 12751.982, 12237.837, 12764.749, 13055.823, 12388.126, 12545.819, 17699.069, 12287.018, 12160.935, 12309.985, 12279.72, 12293.861, 12581.177, 12841.252, 17540.514, 23451.67, 12618.728, 13199.4, 12094.364, 12510.693, 12273.926, 12406.775, 12349.422, 12252.256, 12232.49, 12494.51, 12900.732, 12424.637, 12462.347, 12485.36, 12552.894, 12780.459, 12179.922, 12684.651, 12394.602, 12476.871, 12431.165, 12598.626, 13060.917, 12782.859, 12739.268, 12401.37, 12541.708, 12243.907, 12349.015, 12375.605, 12611.466, 12241.373, 12748.282, 12526.014, 12545.7, 12506.791, 12262.509, 12706.465, 12158.161, 12155.737, 12192.525, 12715.729, 12142.482, 12468.223, 12287.698, 12509.344, 12495.695, 12175.697, 12124.536, 12170.762, 12778.685, 12322.36, 12461.954, 12477.143, 12122.402, 12176.711, 12464.163, 12254.832, 12137.499, 12513.001, 12476.846, 12203.602, 12571.084, 12801.012, 12300.859, 12459.784, 12322.246, 12941.974, 12942.368, 12143.453, 12438.556, 12390.821, 12559.917, 12614.297, 12410.773, 12257.583, 12247.969, 12384.41, 12265.654, 12199.849, 12066.565, 12189.552, 12366.388, 12507.616, 12500.817, 12518.654, 12826.263, 12436.183, 12272.4, 12212.13, 12568.584, 12612.358, 12333.619, 12278.843, 12650.093, 12002.588, 12362.168, 12288.63, 12314.616, 12387.41, 12466.895, 12360.606, 12399.809, 12180.091, 12024.784, 12084.338, 12302.597, 12548.504, 12506.775, 12538.239, 12198.696, 12246.869, 12307.856, 12456.202, 12105.689, 12208.494, 12363.667, 12311.29, 12441.904, 12311.935, 12195.16, 12514.258, 12171.372, 12173.501, 12305.14, 12970.278, 12242.867, 12555.122, 12087.111, 12211.657, 12446.406, 12212.411, 12281.664, 12592.148, 12599.326, 12984.972, 12542.922, 12150.224, 12680.896, 12104.566, 12177.535, 12298.685, 12474.783, 12386.483, 12259.353, 12419.646, 12492.534, 11999.173, 12271.223, 12457.998, 12233.116, 12490.302, 12187.493, 12712.803, 12086.076, 12259.521, 12593.939, 12204.256, 12272.145, 12196.987, 12378.394, 12305.066, 12081.444, 12095.28, 12137.923, 12575.905, 12373.916, 12275.053, 12185.464, 12524.915, 12164.756, 12131.677, 12522.382, 12210.939, 12485.641, 12164.96, 12393.934, 12275.5, 12217.676, 12319.706, 12288.151, 12188.466, 12576.482, 17525.929, 38880.265, 17825.872, 12372.032, 12379.436, 12103.125, 12661.632, 12523.597, 12153.567, 12233.649, 12506.933, 12399.567, 12440.98, 12184.533, 12492.194, 12185.462, 12129.892, 12154.945, 12284.785, 12491.299],
  "Optimizer iterations": 306,
  "Qubits": 6,
  "Total Algorithm duration [s]": 3895.914,
  "Total Classic duration [s]": 3882.142499952704,
  "Total Quantum duration [s]": 13.771500047296286,
  "Expectation Value": -5.87109375,
  "Optimal Expectation Value": -7.296229839324951,
  "Optimizer params": [0.6641139523670136, 0.7769796196142652, 0.7787272059658149, 0.7215019761452245, 0.8421192188100616, 0.48620420789110097, 0.4956738702206641, 0.4758581769795118, 0.48631142536087524, 0.48633922676049285, 0.5200930260136034, 0.7651796602089199, 0.5065085253422698, 0.49279779853883837, 0.49763962835424386, 0.5079777254746718, 0.49575421417271287, 0.5293001364571808, 0.4750730603151984, 0.5159023119041247, 0.48362494501650327, 0.5125386720994515, 0.49839743678572435, 0.48674467046790626],
  "QPU": "10000001",
  "Problem": "IC",
  "Size": 6,
  "P": 0,
  "Shots": 4096
}