{
  "Depth": 109.0,
  "Expectation Value": -0.564208984375,
  "Job durations [ms]": [7229.379892349243, 10081.697225570679, 7513.134717941284, 7222.0563888549805, 7712.906122207642, 7247.843027114868, 7060.029983520508, 7207.629919052124, 7302.869558334351, 7047.579050064087, 7262.871980667114, 7522.4549770355225, 7058.2921504974365, 7151.774644851685, 7049.6766567230225, 7156.94260597229, 7138.304948806763, 7267.983198165894, 7149.794340133667, 7119.064092636108, 7157.573938369751, 7114.9561405181885, 7320.724010467529, 10148.040533065796, 7106.009960174561, 7186.859607696533, 6966.111660003662, 7301.970720291138, 7123.353481292725, 7281.171798706055, 7092.587471008301, 9516.713380813599, 7358.076810836792, 7341.804504394531, 7226.265430450439, 7105.129957199097, 7139.538764953613, 7432.063102722168, 7146.035432815552, 7214.920282363892, 7188.796520233154, 7900.9644985198975, 7715.134382247925, 7201.611280441284, 7083.070755004883, 7570.304393768311, 7225.838899612427, 7110.713243484497, 7294.480562210083, 7592.700242996216, 7876.6748905181885, 7138.711929321289, 7668.569803237915, 7796.696662902832, 7565.4616355896, 7803.152561187744, 7674.182415008545, 7785.513401031494, 7878.535032272339, 7720.472812652588, 7872.954845428467, 7623.778820037842, 7679.758548736572, 7642.961263656616, 7762.665748596191, 7571.585655212402, 7901.012897491455, 7805.054664611816, 7737.896203994751, 7840.919017791748, 7700.582265853882],
  "Optimal Expectation Value": -1.0,
  "Optimizer durations [ms]": [369052.49, 209498.718, 59481.106, 161437.733, 89182.299, 89419.524, 400585.373, 40116.013, 310696.56, 59000.212, 40487.527, 40829.485, 149600.576, 88942.978, 70358.65, 340530.248, 130620.785, 390080.137, 48398.206, 81446.645, 48593.172, 40130.716, 40024.797, 50156.656, 40233.933, 310878.47, 39080.767, 109825.686, 50552.045, 281954.412, 470973.695, 36973.834, 269489.61, 50179.533, 40307.624, 40351.444, 320508.607, 100263.259, 38501.975, 431358.285, 38566.205, 109992.582, 230705.975, 40033.547, 48774.407, 111306.712, 49834.563, 220036.166, 300916.181, 150029.5, 38826.305, 111453.6, 269295.559, 19847.449, 250593.166, 252805.098, 258393.089, 278617.062, 460954.05, 260629.965, 289688.649, 259449.576, 29707.378, 270093.296, 260837.436, 259579.437, 280424.36, 259329.092, 319043.091, 92958.527, 279467.507],
  "Optimizer iterations": 71,
  "Optimizer params": [0.5307870743020361, 0.7573029914064701, 0.30429055812720424, 0.9922284774308501, 0.5832766535191642, 0.8721723713917917],
  "P": 3,
  "Problem": "MIS",
  "QPU": "402002E",
  "Qubits": 5,
  "Shots": 4096,
  "Size": 4,
  "Total Algorithm duration [s]": 12082.293,
  "Total Classic duration [s]": 11549.580051677704,
  "Total Quantum duration [s]": 532.7129483222961
}
