{
  "Circuit execution durations [ms]": [0.7226999999999999, 0.6930000000000001, 0.7017, 0.6991, 0.6967, 0.6855, 0.6965, 0.7012, 0.7031000000000001, 0.6878, 0.7019, 0.6896, 0.6943, 0.6872999999999999, 0.6895, 0.7073, 0.695, 0.6922999999999999, 0.6885, 0.6849, 0.6960999999999999, 0.6796000000000001, 0.6890000000000001, 0.6842, 0.6859999999999999, 0.6913, 0.7088, 0.6946, 0.767, 0.6758, 0.7209, 0.6837, 0.7014, 0.6989, 0.699, 0.6868, 0.6887, 0.6939, 0.6844, 0.6826, 0.6962999999999999, 0.6985, 0.7075, 0.6981999999999999, 0.6823, 0.6926, 0.6836, 0.691, 0.6927, 0.6932, 0.6854, 0.7345, 0.6885, 0.6920999999999999, 0.694, 0.7165, 0.6859999999999999, 0.7115999999999999, 0.6937, 0.6883, 0.6891999999999999, 0.6801, 0.6964, 0.6981999999999999, 0.6974, 0.7019, 0.6847, 0.7022, 0.6895, 0.6913, 0.6893, 0.6887, 0.6502, 0.7799, 0.6928000000000001, 0.8489, 0.9557, 0.6891999999999999, 0.6867000000000001, 0.6776, 0.7343000000000001, 0.6928000000000001, 0.7347, 0.6819999999999999, 0.7262, 0.6825, 0.7031999999999999],
  "Depth": 95.0,
  "Expectation Value": -5.9666337966918945,
  "Optimal Expectation Value": -6.0,
  "Optimizer durations [ms]": [7.814, 7.242, 7.766, 7.524, 7.405, 7.363, 7.57, 7.325, 7.516, 7.27, 7.616, 7.596, 7.257, 7.514, 7.36, 7.405, 11.445, 7.237, 7.701, 7.073, 7.699, 7.139, 7.422, 7.272, 7.237, 7.423, 7.777, 7.18, 8.4, 7.225, 7.563, 7.466, 7.598, 7.344, 7.419, 7.657, 7.219, 7.613, 7.356, 7.066, 7.802, 7.227, 7.846, 7.395, 7.256, 7.621, 7.391, 7.118, 7.7, 7.452, 7.193, 7.954, 7.396, 7.717, 7.319, 7.677, 7.382, 7.649, 7.308, 7.506, 7.217, 7.182, 7.417, 7.636, 7.416, 7.829, 7.379, 7.256, 7.406, 7.382, 7.486, 7.302, 11.25, 8.403, 7.433, 9.037, 10.863, 7.248, 7.455, 10.526, 7.985, 7.337, 7.7, 7.486, 7.936, 7.122, 7.547],
  "Optimizer iterations": 87,
  "Optimizer params": [0.524449684821696, 0.9498401398055312, 0.9775452957584178, 0.09585623053879529, 0.05223449968880947, 0.8798768465512918],
  "P": 3,
  "Problem": "MCP",
  "QJob durations [ms]": [0.7226999999999999, 0.6930000000000001, 0.7017, 0.6991, 0.6967, 0.6855, 0.6965, 0.7012, 0.7031000000000001, 0.6878, 0.7019, 0.6896, 0.6943, 0.6872999999999999, 0.6895, 0.7073, 0.695, 0.6922999999999999, 0.6885, 0.6849, 0.6960999999999999, 0.6796000000000001, 0.6890000000000001, 0.6842, 0.6859999999999999, 0.6913, 0.7088, 0.6946, 0.767, 0.6758, 0.7209, 0.6837, 0.7014, 0.6989, 0.699, 0.6868, 0.6887, 0.6939, 0.6844, 0.6826, 0.6962999999999999, 0.6985, 0.7075, 0.6981999999999999, 0.6823, 0.6926, 0.6836, 0.691, 0.6927, 0.6932, 0.6854, 0.7345, 0.6885, 0.6920999999999999, 0.694, 0.7165, 0.6859999999999999, 0.7115999999999999, 0.6937, 0.6883, 0.6891999999999999, 0.6801, 0.6964, 0.6981999999999999, 0.6974, 0.7019, 0.6847, 0.7022, 0.6895, 0.6913, 0.6893, 0.6887, 0.6502, 0.7799, 0.6928000000000001, 0.8489, 0.9557, 0.6891999999999999, 0.6867000000000001, 0.6776, 0.7343000000000001, 0.6928000000000001, 0.7347, 0.6819999999999999, 0.7262, 0.6825, 0.7031999999999999],
  "QPU": "7000000",
  "Qubits": 5,
  "Queue durations [ms]": [0.0, 0.0, 0.0, 0.0, 0.0, 0.0, 0.0, 0.0, 0.0, 0.0, 0.0, 0.0, 0.0, 0.0, 0.0, 0.0, 0.0, 0.0, 0.0, 0.0, 0.0, 0.0, 0.0, 0.0, 0.0, 0.0, 0.0, 0.0, 0.0, 0.0, 0.0, 0.0, 0.0, 0.0, 0.0, 0.0, 0.0, 0.0, 0.0, 0.0, 0.0, 0.0, 0.0, 0.0, 0.0, 0.0, 0.0, 0.0, 0.0, 0.0, 0.0, 0.0, 0.0, 0.0, 0.0, 0.0, 0.0, 0.0, 0.0, 0.0, 0.0, 0.0, 0.0, 0.0, 0.0, 0.0, 0.0, 0.0, 0.0, 0.0, 0.0, 0.0, 0.0, 0.0, 0.0, 0.0, 0.0, 0.0, 0.0, 0.0, 0.0, 0.0, 0.0, 0.0, 0.0, 0.0, 0.0],
  "Shots": 4096,
  "Size": 5,
  "Total Algorithm duration [s]": 0.666,
  "Total Classic duration [s]": 0.6049973000000001,
  "Total Quantum duration [s]": 0.061002699999999986
}
