{
  "Circuit execution durations [ms]": [0.7253000000000001, 0.6949000000000001, 0.7023, 0.6719999999999999, 0.764, 0.6959, 0.7002, 0.6646, 0.6926, 0.6755, 0.7546, 0.683, 0.7033999999999999, 0.7159, 0.6898, 0.6835, 0.7016, 0.6970000000000001, 0.7163, 0.7018000000000001, 0.6887, 0.7115, 0.6974, 0.6829, 0.7071, 0.6932, 0.6994, 0.7184999999999999, 0.6833, 0.6944, 0.7057, 0.6926, 0.7111, 0.7184999999999999, 0.6907000000000001, 0.7923, 0.6933, 0.7231, 0.7136, 0.7723, 0.7022, 0.7167, 0.703, 0.851, 1.0579999999999998, 0.7812, 0.7967, 0.7161, 0.6891999999999999, 0.7154, 0.6925, 0.7213, 0.7059, 0.7216, 0.6980000000000001, 0.7008, 0.7031999999999999, 0.6937, 0.7059, 0.6999000000000001, 0.6885, 0.679, 0.6824, 0.6909000000000001, 0.6826, 0.7015, 0.7332000000000001, 0.687, 0.7644000000000001, 0.7010000000000001],
  "Depth": 95.0,
  "Expectation Value": -5.954946041107178,
  "Optimal Expectation Value": -6.0,
  "Optimizer durations [ms]": [7.843, 7.561, 7.457, 7.259, 8.031, 7.507, 7.387, 7.189, 7.547, 7.131, 8.168, 7.144, 7.705, 7.575, 7.581, 7.213, 7.531, 7.511, 7.531, 7.578, 7.273, 7.663, 7.496, 7.164, 7.467, 7.723, 7.179, 7.817, 7.138, 7.368, 7.422, 7.509, 7.505, 7.879, 7.383, 8.339, 7.898, 7.834, 7.452, 8.173, 7.383, 7.742, 7.553, 9.068, 15.887, 13.018, 9.052, 7.813, 7.125, 7.814, 7.127, 7.891, 7.488, 7.8, 7.493, 7.353, 7.48, 7.205, 7.609, 7.441, 7.573, 7.203, 7.245, 7.406, 7.532, 7.167, 8.011, 7.244, 8.22, 8.115],
  "Optimizer iterations": 70,
  "Optimizer params": [0.4120610299029367, 0.645316287963424, 0.9723749485372972, 0.6803188277466299, 0.5645390062547136, 0.40024341101375477],
  "P": 3,
  "Problem": "MCP",
  "QJob durations [ms]": [0.7253000000000001, 0.6949000000000001, 0.7023, 0.6719999999999999, 0.764, 0.6959, 0.7002, 0.6646, 0.6926, 0.6755, 0.7546, 0.683, 0.7033999999999999, 0.7159, 0.6898, 0.6835, 0.7016, 0.6970000000000001, 0.7163, 0.7018000000000001, 0.6887, 0.7115, 0.6974, 0.6829, 0.7071, 0.6932, 0.6994, 0.7184999999999999, 0.6833, 0.6944, 0.7057, 0.6926, 0.7111, 0.7184999999999999, 0.6907000000000001, 0.7923, 0.6933, 0.7231, 0.7136, 0.7723, 0.7022, 0.7167, 0.703, 0.851, 1.0579999999999998, 0.7812, 0.7967, 0.7161, 0.6891999999999999, 0.7154, 0.6925, 0.7213, 0.7059, 0.7216, 0.6980000000000001, 0.7008, 0.7031999999999999, 0.6937, 0.7059, 0.6999000000000001, 0.6885, 0.679, 0.6824, 0.6909000000000001, 0.6826, 0.7015, 0.7332000000000001, 0.687, 0.7644000000000001, 0.7010000000000001],
  "QPU": "7000000",
  "Qubits": 5,
  "Queue durations [ms]": [0.0, 0.0, 0.0, 0.0, 0.0, 0.0, 0.0, 0.0, 0.0, 0.0, 0.0, 0.0, 0.0, 0.0, 0.0, 0.0, 0.0, 0.0, 0.0, 0.0, 0.0, 0.0, 0.0, 0.0, 0.0, 0.0, 0.0, 0.0, 0.0, 0.0, 0.0, 0.0, 0.0, 0.0, 0.0, 0.0, 0.0, 0.0, 0.0, 0.0, 0.0, 0.0, 0.0, 0.0, 0.0, 0.0, 0.0, 0.0, 0.0, 0.0, 0.0, 0.0, 0.0, 0.0, 0.0, 0.0, 0.0, 0.0, 0.0, 0.0, 0.0, 0.0, 0.0, 0.0, 0.0, 0.0, 0.0, 0.0, 0.0, 0.0],
  "Shots": 4096,
  "Size": 5,
  "Total Algorithm duration [s]": 0.545,
  "Total Classic duration [s]": 0.49499340000000003,
  "Total Quantum duration [s]": 0.050006600000000005
}
