{
  "Circuit execution durations [ms]": [0.6954, 0.6993, 0.6854, 0.7192999999999999, 0.6903, 0.6912, 0.6809000000000001, 0.7816000000000001, 0.6834, 0.7014, 0.7109, 0.6930000000000001, 0.6904, 0.6955, 0.7009, 0.7012999999999999, 0.6887, 0.7033, 0.7915, 0.6914, 0.6948, 0.6887, 0.7098, 0.6918, 0.6941, 0.7156, 0.6837, 0.6799, 0.6885, 0.6832, 0.7039000000000001, 0.6817000000000001, 0.7736000000000001, 0.6819999999999999, 0.6983999999999999, 0.6924, 0.7004999999999999, 0.6464, 0.6929, 0.6896, 0.6962, 0.6870999999999999, 0.6987, 0.7276, 0.6832, 0.7019, 0.6866, 0.6766, 0.6345, 0.646, 0.7115, 0.7022, 0.7029, 0.6922999999999999, 0.69, 0.6925, 0.6889, 0.6108, 0.6784, 0.6922, 0.684, 0.7041999999999999, 0.6905, 0.6803, 0.7038, 0.7023, 0.7426, 0.6757],
  "Depth": 95.0,
  "Expectation Value": -5.980391979217529,
  "Optimal Expectation Value": -6.0,
  "Optimizer durations [ms]": [7.251, 7.686, 7.148, 7.981, 7.493, 7.295, 7.098, 8.57, 7.189, 7.767, 7.418, 7.318, 7.641, 7.48, 7.483, 7.37, 7.394, 7.551, 8.298, 7.495, 7.547, 7.389, 7.665, 7.472, 7.133, 7.794, 7.085, 7.559, 7.367, 7.319, 7.514, 7.217, 8.274, 7.697, 7.381, 7.541, 7.422, 14.024, 7.625, 7.427, 10.395, 7.339, 7.586, 7.655, 7.31, 7.455, 7.514, 7.167, 15.187, 9.432, 7.671, 7.563, 7.414, 8.209, 7.472, 7.123, 7.427, 15.978, 7.563, 7.296, 7.267, 7.711, 9.55, 7.316, 7.502, 7.475, 14.208, 15.775],
  "Optimizer iterations": 68,
  "Optimizer params": [0.10153875243016362, 0.49313113455047736, 0.928316973333842, 0.5522381569724614, 0.4702014273889439, 0.07488755562181297],
  "P": 3,
  "Problem": "MCP",
  "QJob durations [ms]": [0.6954, 0.6993, 0.6854, 0.7192999999999999, 0.6903, 0.6912, 0.6809000000000001, 0.7816000000000001, 0.6834, 0.7014, 0.7109, 0.6930000000000001, 0.6904, 0.6955, 0.7009, 0.7012999999999999, 0.6887, 0.7033, 0.7915, 0.6914, 0.6948, 0.6887, 0.7098, 0.6918, 0.6941, 0.7156, 0.6837, 0.6799, 0.6885, 0.6832, 0.7039000000000001, 0.6817000000000001, 0.7736000000000001, 0.6819999999999999, 0.6983999999999999, 0.6924, 0.7004999999999999, 0.6464, 0.6929, 0.6896, 0.6962, 0.6870999999999999, 0.6987, 0.7276, 0.6832, 0.7019, 0.6866, 0.6766, 0.6345, 0.646, 0.7115, 0.7022, 0.7029, 0.6922999999999999, 0.69, 0.6925, 0.6889, 0.6108, 0.6784, 0.6922, 0.684, 0.7041999999999999, 0.6905, 0.6803, 0.7038, 0.7023, 0.7426, 0.6757],
  "QPU": "7000000",
  "Qubits": 5,
  "Queue durations [ms]": [0.0, 0.0, 0.0, 0.0, 0.0, 0.0, 0.0, 0.0, 0.0, 0.0, 0.0, 0.0, 0.0, 0.0, 0.0, 0.0, 0.0, 0.0, 0.0, 0.0, 0.0, 0.0, 0.0, 0.0, 0.0, 0.0, 0.0, 0.0, 0.0, 0.0, 0.0, 0.0, 0.0, 0.0, 0.0, 0.0, 0.0, 0.0, 0.0, 0.0, 0.0, 0.0, 0.0, 0.0, 0.0, 0.0, 0.0, 0.0, 0.0, 0.0, 0.0, 0.0, 0.0, 0.0, 0.0, 0.0, 0.0, 0.0, 0.0, 0.0, 0.0, 0.0, 0.0, 0.0, 0.0, 0.0, 0.0, 0.0],
  "Shots": 4096,
  "Size": 5,
  "Total Algorithm duration [s]": 0.555,
  "Total Classic duration [s]": 0.5077299000000001,
  "Total Quantum duration [s]": 0.04727010000000001
}
