{
  "Circuit execution durations [ms]": [0.7159, 0.6967, 0.6217, 0.6253, 0.7146, 0.588, 0.6467, 0.8104, 0.7728999999999999, 0.7107, 0.7295, 0.7194, 0.6924, 0.7048, 0.7422000000000001, 0.6846000000000001, 0.6962999999999999, 0.7110000000000001, 0.6918, 0.7225, 0.6838000000000001, 0.7009, 0.6886, 0.7079, 0.6832, 0.6941, 0.6926, 0.6827, 0.695, 0.6903, 0.6935, 0.7021, 0.7038, 0.7018000000000001, 0.7046, 0.7025, 0.6920999999999999, 0.6869000000000001, 0.6748000000000001, 0.6893999999999999, 0.7026, 0.6825, 0.7014, 0.7078, 0.7062, 0.6761999999999999, 0.7388, 0.6956, 0.6909000000000001, 0.6927, 0.6928000000000001, 0.7008, 0.7085, 0.6970999999999999, 0.7076, 0.6869000000000001, 0.6985, 0.6999000000000001, 0.6863, 0.6941999999999999, 0.7064, 0.7134, 0.6998, 0.6688, 0.6922, 0.6854, 0.6930000000000001, 0.6981999999999999, 0.6802, 0.7142000000000001, 0.7041000000000001, 0.6878, 0.7442, 0.7149, 0.7110000000000001, 0.7142000000000001, 0.6947, 0.6835, 0.6845, 0.6922999999999999, 0.6999000000000001, 0.7045, 0.6987, 0.6848, 0.6991, 0.7, 0.6962999999999999, 0.7019, 0.7045, 0.6865, 0.7014, 0.6766, 0.6919, 0.7907],
  "Depth": 95.0,
  "Expectation Value": -5.9302897453308105,
  "Optimal Expectation Value": -6.0,
  "Optimizer durations [ms]": [7.83, 7.182, 16.284, 16.281, 9.953, 15.687, 16.774, 8.64, 8.454, 7.739, 7.754, 7.774, 7.413, 7.643, 7.739, 7.447, 7.196, 7.874, 7.309, 7.528, 7.743, 7.494, 7.277, 7.721, 7.178, 7.697, 7.366, 7.246, 7.516, 7.071, 7.653, 7.455, 7.632, 7.394, 7.615, 7.609, 7.303, 7.219, 7.355, 7.484, 7.632, 7.296, 7.48, 7.49, 7.678, 7.154, 7.967, 7.406, 7.163, 7.701, 7.388, 7.518, 7.535, 7.365, 7.543, 13.093, 7.486, 7.483, 7.433, 7.312, 7.519, 7.733, 7.211, 7.391, 7.477, 7.458, 7.328, 7.362, 7.212, 7.683, 7.836, 7.299, 7.785, 7.432, 7.742, 7.643, 7.514, 7.054, 7.619, 7.444, 7.458, 7.337, 7.438, 7.323, 7.518, 7.733, 7.28, 7.833, 7.564, 8.572, 7.551, 7.335, 7.088, 8.507],
  "Optimizer iterations": 94,
  "Optimizer params": [0.9339439063729686, 1.0, 0.8781828132121298, 0.5085021116336107, 0.9285004637195235, 0.571735692554162],
  "P": 3,
  "Problem": "MCP",
  "QJob durations [ms]": [0.7159, 0.6967, 0.6217, 0.6253, 0.7146, 0.588, 0.6467, 0.8104, 0.7728999999999999, 0.7107, 0.7295, 0.7194, 0.6924, 0.7048, 0.7422000000000001, 0.6846000000000001, 0.6962999999999999, 0.7110000000000001, 0.6918, 0.7225, 0.6838000000000001, 0.7009, 0.6886, 0.7079, 0.6832, 0.6941, 0.6926, 0.6827, 0.695, 0.6903, 0.6935, 0.7021, 0.7038, 0.7018000000000001, 0.7046, 0.7025, 0.6920999999999999, 0.6869000000000001, 0.6748000000000001, 0.6893999999999999, 0.7026, 0.6825, 0.7014, 0.7078, 0.7062, 0.6761999999999999, 0.7388, 0.6956, 0.6909000000000001, 0.6927, 0.6928000000000001, 0.7008, 0.7085, 0.6970999999999999, 0.7076, 0.6869000000000001, 0.6985, 0.6999000000000001, 0.6863, 0.6941999999999999, 0.7064, 0.7134, 0.6998, 0.6688, 0.6922, 0.6854, 0.6930000000000001, 0.6981999999999999, 0.6802, 0.7142000000000001, 0.7041000000000001, 0.6878, 0.7442, 0.7149, 0.7110000000000001, 0.7142000000000001, 0.6947, 0.6835, 0.6845, 0.6922999999999999, 0.6999000000000001, 0.7045, 0.6987, 0.6848, 0.6991, 0.7, 0.6962999999999999, 0.7019, 0.7045, 0.6865, 0.7014, 0.6766, 0.6919, 0.7907],
  "QPU": "7000000",
  "Qubits": 5,
  "Queue durations [ms]": [0.0, 0.0, 0.0, 0.0, 0.0, 0.0, 0.0, 0.0, 0.0, 0.0, 0.0, 0.0, 0.0, 0.0, 0.0, 0.0, 0.0, 0.0, 0.0, 0.0, 0.0, 0.0, 0.0, 0.0, 0.0, 0.0, 0.0, 0.0, 0.0, 0.0, 0.0, 0.0, 0.0, 0.0, 0.0, 0.0, 0.0, 0.0, 0.0, 0.0, 0.0, 0.0, 0.0, 0.0, 0.0, 0.0, 0.0, 0.0, 0.0, 0.0, 0.0, 0.0, 0.0, 0.0, 0.0, 0.0, 0.0, 0.0, 0.0, 0.0, 0.0, 0.0, 0.0, 0.0, 0.0, 0.0, 0.0, 0.0, 0.0, 0.0, 0.0, 0.0, 0.0, 0.0, 0.0, 0.0, 0.0, 0.0, 0.0, 0.0, 0.0, 0.0, 0.0, 0.0, 0.0, 0.0, 0.0, 0.0, 0.0, 0.0, 0.0, 0.0, 0.0, 0.0],
  "Shots": 4096,
  "Size": 5,
  "Total Algorithm duration [s]": 0.751,
  "Total Classic duration [s]": 0.6853450999999999,
  "Total Quantum duration [s]": 0.06565490000000003
}
