{
  "Circuit execution durations [ms]": [0.703, 0.7044, 0.6870999999999999, 0.6876, 0.6893999999999999, 0.6930999999999999, 0.6932, 0.7075, 0.7156, 0.6819000000000001, 0.6922999999999999, 0.7336, 0.7168, 0.6970999999999999, 0.6903, 0.8047, 0.6757, 0.7184999999999999, 0.6891, 0.6976, 0.695, 0.6934, 0.6870999999999999, 0.6907000000000001, 0.6970000000000001, 0.7175, 0.6853, 0.7131000000000001, 0.679, 0.7106, 0.704, 0.6947, 0.722, 0.6999000000000001, 0.678, 0.6966, 0.6952, 0.8147, 0.6959, 0.6813, 0.6797, 0.7917, 0.6928000000000001, 0.9202, 0.7062, 0.7025, 0.6756000000000001, 0.6743, 0.6039, 0.6836, 0.6849, 0.7021, 0.9148000000000001, 0.7060000000000001, 0.787, 0.6983, 1.0415999999999999, 0.6828, 0.6864, 0.7182, 0.6915, 0.9573, 0.6843, 0.4131, 0.6962, 0.6882, 0.6544, 0.7211, 0.7336, 0.6851, 0.6925, 0.7157, 0.7434, 0.6789, 0.7201, 0.6772, 0.694, 0.7, 0.6933, 0.6932, 0.6809000000000001, 0.7069, 0.6893, 0.6883, 0.7284, 0.6874, 0.6898, 0.6937, 0.6937, 0.6827, 0.6905, 0.6875, 0.7069, 0.6880000000000001, 0.7035, 0.7382000000000001, 0.6836, 0.7108, 0.6932, 0.6924, 0.6830999999999999, 0.6939, 0.7111, 0.6901999999999999, 0.7029, 0.6901, 0.7104],
  "Depth": 95.0,
  "Expectation Value": -5.907752513885498,
  "Optimal Expectation Value": -6.0,
  "Optimizer durations [ms]": [7.61, 7.527, 7.4, 7.073, 7.68, 7.209, 7.665, 7.274, 7.753, 7.339, 7.418, 7.857, 7.542, 7.367, 7.494, 8.493, 7.144, 7.859, 7.492, 7.431, 7.318, 7.413, 7.461, 7.385, 7.459, 7.666, 7.421, 7.495, 7.186, 7.796, 7.489, 7.368, 8.062, 7.395, 7.484, 7.354, 12.051, 8.62, 7.58, 7.379, 7.131, 8.598, 7.172, 9.853, 7.572, 7.507, 6.976, 7.496, 16.167, 7.441, 7.171, 7.597, 9.699, 7.417, 8.228, 7.541, 10.738, 12.164, 7.315, 7.532, 7.349, 10.386, 7.265, 5.093, 7.394, 7.347, 15.633, 10.695, 7.571, 7.424, 7.35, 7.771, 7.826, 7.636, 7.587, 7.261, 7.61, 7.512, 7.5, 7.254, 7.294, 7.64, 7.161, 7.766, 7.752, 7.328, 7.369, 7.555, 7.375, 7.317, 7.312, 7.314, 7.586, 7.423, 7.201, 7.916, 7.287, 7.51, 7.465, 7.35, 7.381, 7.508, 7.533, 7.45, 7.472, 7.386, 7.581],
  "Optimizer iterations": 107,
  "Optimizer params": [0.8955330750040836, 0.9871931197872397, 0.6872354049272138, 0.29316555438493497, 0.28749514018522976, 0.44822436368689716],
  "P": 3,
  "Problem": "MCP",
  "QJob durations [ms]": [0.703, 0.7044, 0.6870999999999999, 0.6876, 0.6893999999999999, 0.6930999999999999, 0.6932, 0.7075, 0.7156, 0.6819000000000001, 0.6922999999999999, 0.7336, 0.7168, 0.6970999999999999, 0.6903, 0.8047, 0.6757, 0.7184999999999999, 0.6891, 0.6976, 0.695, 0.6934, 0.6870999999999999, 0.6907000000000001, 0.6970000000000001, 0.7175, 0.6853, 0.7131000000000001, 0.679, 0.7106, 0.704, 0.6947, 0.722, 0.6999000000000001, 0.678, 0.6966, 0.6952, 0.8147, 0.6959, 0.6813, 0.6797, 0.7917, 0.6928000000000001, 0.9202, 0.7062, 0.7025, 0.6756000000000001, 0.6743, 0.6039, 0.6836, 0.6849, 0.7021, 0.9148000000000001, 0.7060000000000001, 0.787, 0.6983, 1.0415999999999999, 0.6828, 0.6864, 0.7182, 0.6915, 0.9573, 0.6843, 0.4131, 0.6962, 0.6882, 0.6544, 0.7211, 0.7336, 0.6851, 0.6925, 0.7157, 0.7434, 0.6789, 0.7201, 0.6772, 0.694, 0.7, 0.6933, 0.6932, 0.6809000000000001, 0.7069, 0.6893, 0.6883, 0.7284, 0.6874, 0.6898, 0.6937, 0.6937, 0.6827, 0.6905, 0.6875, 0.7069, 0.6880000000000001, 0.7035, 0.7382000000000001, 0.6836, 0.7108, 0.6932, 0.6924, 0.6830999999999999, 0.6939, 0.7111, 0.6901999999999999, 0.7029, 0.6901, 0.7104],
  "QPU": "7000000",
  "Qubits": 5,
  "Queue durations [ms]": [0.0, 0.0, 0.0, 0.0, 0.0, 0.0, 0.0, 0.0, 0.0, 0.0, 0.0, 0.0, 0.0, 0.0, 0.0, 0.0, 0.0, 0.0, 0.0, 0.0, 0.0, 0.0, 0.0, 0.0, 0.0, 0.0, 0.0, 0.0, 0.0, 0.0, 0.0, 0.0, 0.0, 0.0, 0.0, 0.0, 0.0, 0.0, 0.0, 0.0, 0.0, 0.0, 0.0, 0.0, 0.0, 0.0, 0.0, 0.0, 0.0, 0.0, 0.0, 0.0, 0.0, 0.0, 0.0, 0.0, 0.0, 0.0, 0.0, 0.0, 0.0, 0.0, 0.0, 0.0, 0.0, 0.0, 0.0, 0.0, 0.0, 0.0, 0.0, 0.0, 0.0, 0.0, 0.0, 0.0, 0.0, 0.0, 0.0, 0.0, 0.0, 0.0, 0.0, 0.0, 0.0, 0.0, 0.0, 0.0, 0.0, 0.0, 0.0, 0.0, 0.0, 0.0, 0.0, 0.0, 0.0, 0.0, 0.0, 0.0, 0.0, 0.0, 0.0, 0.0, 0.0, 0.0, 0.0],
  "Shots": 4096,
  "Size": 5,
  "Total Algorithm duration [s]": 0.84,
  "Total Classic duration [s]": 0.7643673999999999,
  "Total Quantum duration [s]": 0.07563260000000005
}
