{
  "Circuit execution durations [ms]": [0.6979, 0.7290000000000001, 0.6934, 0.6897, 0.6817000000000001, 0.6844, 0.6983, 0.6941, 0.7274, 0.7066, 0.6890000000000001, 0.6752, 0.6964, 0.6865, 0.6999000000000001, 0.7126, 0.6985, 0.7019, 0.6958, 0.6826, 0.6794, 0.7056, 0.7565999999999999, 0.6877, 0.7078, 0.6916, 0.6872999999999999, 0.6880999999999999, 0.6840999999999999, 0.7038, 0.7106, 0.6891, 0.7559, 0.6874, 0.7096, 0.7084, 0.6993, 0.696, 0.6922999999999999, 0.6981999999999999, 0.7182, 0.7006, 0.6807, 0.7002, 0.6972, 0.6919, 0.7088, 0.7096, 0.6966, 0.687, 0.6899000000000001, 0.6872999999999999, 0.7113, 0.6844, 0.6893999999999999, 0.7127, 0.7091000000000001, 0.7234, 0.69, 0.7226, 0.6948, 0.6947, 0.71, 0.7085, 0.7009, 0.695, 0.6944, 0.6930999999999999, 0.7054, 0.6819000000000001, 0.6930000000000001, 0.7081000000000001, 0.6780999999999999, 0.6968, 0.6985, 0.7004, 0.7044],
  "Depth": 95.0,
  "Expectation Value": -5.9302897453308105,
  "Optimal Expectation Value": -6.0,
  "Optimizer durations [ms]": [7.314, 7.968, 7.208, 7.741, 7.411, 7.248, 7.419, 7.265, 7.865, 7.306, 7.558, 7.657, 7.358, 7.458, 7.21, 7.695, 7.578, 7.281, 7.418, 7.543, 7.081, 7.607, 8.19, 7.254, 7.657, 7.341, 7.604, 7.045, 7.498, 7.446, 7.659, 7.403, 8.171, 7.361, 7.566, 7.618, 7.207, 12.908, 7.442, 7.43, 7.825, 7.189, 7.468, 7.425, 7.48, 7.539, 7.409, 7.651, 7.43, 7.345, 7.552, 7.036, 7.881, 7.437, 7.429, 7.609, 7.415, 10.74, 7.24, 7.855, 7.525, 7.16, 7.658, 7.738, 7.407, 7.493, 7.445, 7.464, 7.267, 7.4, 7.491, 8.196, 7.326, 7.261, 7.654, 7.497, 7.44],
  "Optimizer iterations": 77,
  "Optimizer params": [0.002929170852186504, 0.09372897760274845, 0.5483415555475885, 0.3513147697043422, 0.5423895871619604, 0.9868080575565286],
  "P": 3,
  "Problem": "MCP",
  "QJob durations [ms]": [0.6979, 0.7290000000000001, 0.6934, 0.6897, 0.6817000000000001, 0.6844, 0.6983, 0.6941, 0.7274, 0.7066, 0.6890000000000001, 0.6752, 0.6964, 0.6865, 0.6999000000000001, 0.7126, 0.6985, 0.7019, 0.6958, 0.6826, 0.6794, 0.7056, 0.7565999999999999, 0.6877, 0.7078, 0.6916, 0.6872999999999999, 0.6880999999999999, 0.6840999999999999, 0.7038, 0.7106, 0.6891, 0.7559, 0.6874, 0.7096, 0.7084, 0.6993, 0.696, 0.6922999999999999, 0.6981999999999999, 0.7182, 0.7006, 0.6807, 0.7002, 0.6972, 0.6919, 0.7088, 0.7096, 0.6966, 0.687, 0.6899000000000001, 0.6872999999999999, 0.7113, 0.6844, 0.6893999999999999, 0.7127, 0.7091000000000001, 0.7234, 0.69, 0.7226, 0.6948, 0.6947, 0.71, 0.7085, 0.7009, 0.695, 0.6944, 0.6930999999999999, 0.7054, 0.6819000000000001, 0.6930000000000001, 0.7081000000000001, 0.6780999999999999, 0.6968, 0.6985, 0.7004, 0.7044],
  "QPU": "7000000",
  "Qubits": 5,
  "Queue durations [ms]": [0.0, 0.0, 0.0, 0.0, 0.0, 0.0, 0.0, 0.0, 0.0, 0.0, 0.0, 0.0, 0.0, 0.0, 0.0, 0.0, 0.0, 0.0, 0.0, 0.0, 0.0, 0.0, 0.0, 0.0, 0.0, 0.0, 0.0, 0.0, 0.0, 0.0, 0.0, 0.0, 0.0, 0.0, 0.0, 0.0, 0.0, 0.0, 0.0, 0.0, 0.0, 0.0, 0.0, 0.0, 0.0, 0.0, 0.0, 0.0, 0.0, 0.0, 0.0, 0.0, 0.0, 0.0, 0.0, 0.0, 0.0, 0.0, 0.0, 0.0, 0.0, 0.0, 0.0, 0.0, 0.0, 0.0, 0.0, 0.0, 0.0, 0.0, 0.0, 0.0, 0.0, 0.0, 0.0, 0.0, 0.0],
  "Shots": 4096,
  "Size": 5,
  "Total Algorithm duration [s]": 0.585,
  "Total Classic duration [s]": 0.5311513999999999,
  "Total Quantum duration [s]": 0.05384859999999999
}
