{
  "Circuit execution durations [ms]": [0.7033, 0.6987, 0.7092999999999999, 0.6876, 0.6880999999999999, 0.6909000000000001, 0.6861, 0.7088, 0.699, 0.6879, 0.6930999999999999, 0.6905, 0.6926, 0.6811, 0.6849999999999999, 0.7052, 0.6834, 0.9047000000000001, 0.69, 0.6912, 0.6907000000000001, 0.6928000000000001, 0.6785, 0.6947, 0.6922999999999999, 0.6821, 0.6774, 0.6943, 0.6870999999999999, 0.6890000000000001, 0.7008, 0.7635, 0.6754, 0.7268, 0.7017, 0.6934, 0.6936000000000001, 0.6903, 0.6811, 0.704, 0.6986, 0.6903, 0.6893, 0.7044, 0.6866, 0.6853, 0.6817000000000001, 0.6945, 0.7241, 0.7014, 0.6869000000000001, 0.675, 0.6909000000000001, 0.7136, 0.6930999999999999, 0.6805, 0.6974, 0.6941999999999999, 0.7795000000000001, 0.6908, 0.7144, 0.7657999999999999, 0.7004999999999999, 0.6917, 0.6891, 0.6912, 0.82, 0.6806, 0.8809999999999999, 0.6840999999999999, 0.7443000000000001, 0.6677000000000001, 0.7081000000000001, 0.7071999999999999, 0.7006, 0.7045, 0.6886, 0.6862, 0.6979, 0.6829, 0.7044, 0.6827, 0.6929, 0.6938, 0.6867000000000001, 0.6879, 0.7048, 0.7060000000000001, 0.6874, 0.6969, 0.6809000000000001, 0.6970000000000001],
  "Depth": 95.0,
  "Expectation Value": -5.955990314483643,
  "Optimal Expectation Value": -6.0,
  "Optimizer durations [ms]": [9.461, 7.849, 7.484, 7.497, 7.085, 7.694, 7.304, 7.433, 7.798, 7.212, 7.323, 7.324, 7.383, 7.561, 7.21, 7.647, 7.129, 9.652, 7.248, 7.466, 7.557, 7.233, 7.21, 7.707, 7.331, 7.35, 7.172, 7.485, 7.617, 7.366, 7.579, 8.022, 7.315, 7.538, 7.631, 7.396, 7.568, 7.129, 7.251, 7.727, 7.403, 7.358, 7.401, 7.774, 7.059, 7.592, 7.416, 7.114, 8.049, 7.226, 7.694, 7.131, 7.38, 7.631, 7.164, 7.597, 7.484, 7.529, 8.241, 7.392, 7.509, 8.365, 7.603, 7.153, 7.387, 7.841, 8.73, 16.716, 14.719, 7.361, 7.854, 7.406, 7.429, 7.935, 7.305, 7.644, 7.216, 7.692, 7.424, 7.458, 7.401, 7.265, 7.578, 7.143, 7.488, 7.537, 7.366, 7.649, 7.329, 7.475, 7.408, 7.559],
  "Optimizer iterations": 92,
  "Optimizer params": [0.27342769195798927, 0.8781759369217355, 0.4092593241811126, 0.664989260379268, 0.2932593706658056, 0.9830975971671033],
  "P": 3,
  "Problem": "MCP",
  "QJob durations [ms]": [0.7033, 0.6987, 0.7092999999999999, 0.6876, 0.6880999999999999, 0.6909000000000001, 0.6861, 0.7088, 0.699, 0.6879, 0.6930999999999999, 0.6905, 0.6926, 0.6811, 0.6849999999999999, 0.7052, 0.6834, 0.9047000000000001, 0.69, 0.6912, 0.6907000000000001, 0.6928000000000001, 0.6785, 0.6947, 0.6922999999999999, 0.6821, 0.6774, 0.6943, 0.6870999999999999, 0.6890000000000001, 0.7008, 0.7635, 0.6754, 0.7268, 0.7017, 0.6934, 0.6936000000000001, 0.6903, 0.6811, 0.704, 0.6986, 0.6903, 0.6893, 0.7044, 0.6866, 0.6853, 0.6817000000000001, 0.6945, 0.7241, 0.7014, 0.6869000000000001, 0.675, 0.6909000000000001, 0.7136, 0.6930999999999999, 0.6805, 0.6974, 0.6941999999999999, 0.7795000000000001, 0.6908, 0.7144, 0.7657999999999999, 0.7004999999999999, 0.6917, 0.6891, 0.6912, 0.82, 0.6806, 0.8809999999999999, 0.6840999999999999, 0.7443000000000001, 0.6677000000000001, 0.7081000000000001, 0.7071999999999999, 0.7006, 0.7045, 0.6886, 0.6862, 0.6979, 0.6829, 0.7044, 0.6827, 0.6929, 0.6938, 0.6867000000000001, 0.6879, 0.7048, 0.7060000000000001, 0.6874, 0.6969, 0.6809000000000001, 0.6970000000000001],
  "QPU": "7000000",
  "Qubits": 5,
  "Queue durations [ms]": [0.0, 0.0, 0.0, 0.0, 0.0, 0.0, 0.0, 0.0, 0.0, 0.0, 0.0, 0.0, 0.0, 0.0, 0.0, 0.0, 0.0, 0.0, 0.0, 0.0, 0.0, 0.0, 0.0, 0.0, 0.0, 0.0, 0.0, 0.0, 0.0, 0.0, 0.0, 0.0, 0.0, 0.0, 0.0, 0.0, 0.0, 0.0, 0.0, 0.0, 0.0, 0.0, 0.0, 0.0, 0.0, 0.0, 0.0, 0.0, 0.0, 0.0, 0.0, 0.0, 0.0, 0.0, 0.0, 0.0, 0.0, 0.0, 0.0, 0.0, 0.0, 0.0, 0.0, 0.0, 0.0, 0.0, 0.0, 0.0, 0.0, 0.0, 0.0, 0.0, 0.0, 0.0, 0.0, 0.0, 0.0, 0.0, 0.0, 0.0, 0.0, 0.0, 0.0, 0.0, 0.0, 0.0, 0.0, 0.0, 0.0, 0.0, 0.0, 0.0],
  "Shots": 4096,
  "Size": 5,
  "Total Algorithm duration [s]": 0.709,
  "Total Classic duration [s]": 0.6444281,
  "Total Quantum duration [s]": 0.0645719
}
