{
  "Circuit execution durations [ms]": [0.7035, 0.6988, 0.71, 0.6876, 0.7343000000000001, 0.6906, 0.6941, 0.6824, 0.6896, 0.6864, 0.6807, 0.6851999999999999, 0.6957000000000001, 0.6872, 0.6835, 0.6746, 0.6764, 0.6898, 0.703, 0.6920999999999999, 0.6655, 0.6957000000000001, 0.6920000000000001, 0.6846000000000001, 0.6717, 0.7123999999999999, 0.6758, 0.7395, 0.6825, 0.7012999999999999, 0.6766, 0.6776, 0.6884, 0.6924, 0.6846000000000001, 0.6877, 0.6843, 0.6915, 0.6936000000000001, 0.7018000000000001, 0.6893, 0.6924, 0.6947, 0.6819999999999999, 0.6864, 0.6918, 0.7027, 0.6946, 0.6907000000000001, 0.7079, 0.6811999999999999, 0.6936000000000001, 0.7662, 0.6937, 0.8551, 0.6825, 0.8931, 0.6920999999999999, 0.6962999999999999, 0.6978000000000001, 0.7308, 0.6974, 0.6846000000000001, 0.6872999999999999, 0.7435999999999999, 0.6977, 0.7132, 0.6995, 0.6925, 0.6907000000000001, 0.6933, 0.6922999999999999, 0.7274, 0.7004, 0.6891, 0.6917, 0.6941999999999999],
  "Depth": 95.0,
  "Expectation Value": -5.965601921081543,
  "Optimal Expectation Value": -6.0,
  "Optimizer durations [ms]": [7.671, 7.457, 7.348, 7.409, 7.943, 7.232, 7.586, 7.372, 7.274, 7.36, 7.31, 7.422, 7.23, 7.596, 7.296, 7.228, 7.42, 7.234, 7.792, 7.126, 7.456, 7.633, 7.194, 7.195, 7.633, 7.47, 7.298, 7.779, 7.722, 7.385, 7.315, 7.288, 7.509, 7.319, 7.239, 7.596, 7.34, 7.068, 8.671, 7.216, 7.37, 7.698, 7.298, 7.579, 7.355, 7.31, 7.569, 7.17, 7.388, 7.4, 7.626, 7.341, 8.128, 7.351, 9.078, 16.758, 14.149, 8.074, 7.402, 7.472, 7.827, 7.402, 7.325, 7.479, 7.891, 7.576, 7.508, 7.602, 7.172, 7.709, 7.237, 7.548, 7.764, 7.231, 7.737, 7.128, 7.623],
  "Optimizer iterations": 77,
  "Optimizer params": [0.8647879347160382, 0.7513582171437277, 0.8323952116470463, 0.03419096982991697, 0.7102163590961982, 0.9346756682136927],
  "P": 3,
  "Problem": "MCP",
  "QJob durations [ms]": [0.7035, 0.6988, 0.71, 0.6876, 0.7343000000000001, 0.6906, 0.6941, 0.6824, 0.6896, 0.6864, 0.6807, 0.6851999999999999, 0.6957000000000001, 0.6872, 0.6835, 0.6746, 0.6764, 0.6898, 0.703, 0.6920999999999999, 0.6655, 0.6957000000000001, 0.6920000000000001, 0.6846000000000001, 0.6717, 0.7123999999999999, 0.6758, 0.7395, 0.6825, 0.7012999999999999, 0.6766, 0.6776, 0.6884, 0.6924, 0.6846000000000001, 0.6877, 0.6843, 0.6915, 0.6936000000000001, 0.7018000000000001, 0.6893, 0.6924, 0.6947, 0.6819999999999999, 0.6864, 0.6918, 0.7027, 0.6946, 0.6907000000000001, 0.7079, 0.6811999999999999, 0.6936000000000001, 0.7662, 0.6937, 0.8551, 0.6825, 0.8931, 0.6920999999999999, 0.6962999999999999, 0.6978000000000001, 0.7308, 0.6974, 0.6846000000000001, 0.6872999999999999, 0.7435999999999999, 0.6977, 0.7132, 0.6995, 0.6925, 0.6907000000000001, 0.6933, 0.6922999999999999, 0.7274, 0.7004, 0.6891, 0.6917, 0.6941999999999999],
  "QPU": "7000000",
  "Qubits": 5,
  "Queue durations [ms]": [0.0, 0.0, 0.0, 0.0, 0.0, 0.0, 0.0, 0.0, 0.0, 0.0, 0.0, 0.0, 0.0, 0.0, 0.0, 0.0, 0.0, 0.0, 0.0, 0.0, 0.0, 0.0, 0.0, 0.0, 0.0, 0.0, 0.0, 0.0, 0.0, 0.0, 0.0, 0.0, 0.0, 0.0, 0.0, 0.0, 0.0, 0.0, 0.0, 0.0, 0.0, 0.0, 0.0, 0.0, 0.0, 0.0, 0.0, 0.0, 0.0, 0.0, 0.0, 0.0, 0.0, 0.0, 0.0, 0.0, 0.0, 0.0, 0.0, 0.0, 0.0, 0.0, 0.0, 0.0, 0.0, 0.0, 0.0, 0.0, 0.0, 0.0, 0.0, 0.0, 0.0, 0.0, 0.0, 0.0, 0.0],
  "Shots": 4096,
  "Size": 5,
  "Total Algorithm duration [s]": 0.592,
  "Total Classic duration [s]": 0.5381452,
  "Total Quantum duration [s]": 0.05385480000000002
}
