{
  "Circuit execution durations [ms]": [18.035173416137695, 17.667055130004883, 17.88926124572754, 17.564058303833008, 17.624855041503906, 17.91691780090332, 17.900705337524414, 17.734527587890625, 17.756938934326172, 17.818927764892578, 17.726659774780273, 17.861127853393555, 17.725706100463867, 17.87853240966797, 17.788171768188477, 17.848730087280273, 17.747163772583008, 17.731428146362305, 17.759084701538086, 17.79794692993164, 17.741918563842773, 17.785072326660156, 17.898082733154297, 17.861127853393555, 17.670154571533203, 17.675399780273438, 17.809152603149414, 17.5931453704834, 17.627477645874023, 17.905235290527344, 17.734527587890625, 17.740726470947266, 17.876148223876953, 17.846107482910156, 17.621755599975586, 17.799854278564453, 17.65894889831543, 17.61031150817871, 17.537593841552734, 17.664194107055664, 17.93193817138672, 17.86518096923828, 17.52018928527832, 17.74001121520996, 17.751693725585938, 17.851591110229492, 17.665386199951172, 17.76909828186035, 17.886638641357422, 17.96555519104004, 17.611980438232422, 17.633438110351563, 17.74454116821289, 17.73381233215332, 17.81749725341797, 17.32921600341797, 17.7004337310791, 17.759323120117188, 17.682313919067383, 17.769813537597656, 18.062591552734375, 17.77791976928711, 17.783403396606445, 17.710447311401367, 17.772436141967773, 17.856597900390625, 17.717361450195313, 17.557621002197266, 17.821073532104492, 17.64082908630371, 17.77362823486328, 17.8372859954834, 17.76409149169922, 17.762184143066406, 17.648696899414063, 17.93217658996582, 17.850875854492188, 17.74883270263672, 17.69542694091797, 17.771005630493164, 17.856597900390625, 17.671585083007813, 17.61913299560547, 17.612695693969727, 17.67110824584961, 17.844438552856445, 17.864227294921875, 17.711162567138672, 17.789363861083984, 17.58718490600586],
  "Depth": 458.0,
  "Expectation Value": -1.943115234375,
  "Optimal Expectation Value": -2.0,
  "Optimizer durations [ms]": [395.073, 396.294, 308.148, 394.626, 309.179, 395.18, 308.815, 396.209, 308.119, 395.893, 309.777, 394.102, 308.405, 398.74, 308.847, 394.872, 308.555, 394.05, 311.435, 399.896, 309.007, 395.563, 308.874, 394.887, 311.886, 398.133, 308.6, 395.734, 308.477, 395.147, 310.079, 394.86, 309.149, 397.642, 308.983, 394.569, 311.069, 394.351, 308.614, 394.958, 308.589, 396.308, 311.51, 394.936, 309.59, 394.92, 309.328, 396.157, 309.696, 396.552, 310.47, 394.568, 308.234, 397.159, 312.142, 398.254, 308.814, 394.661, 309.389, 397.465, 309.891, 398.957, 311.287, 398.017, 309.502, 398.305, 311.735, 398.449, 308.827, 399.83, 309.756, 395.382, 311.254, 397.792, 309.997, 394.898, 310.928, 395.181, 310.218, 396.94, 308.82, 396.369, 310.171, 394.116, 310.941, 398.336, 309.025, 396.58, 310.614, 395.894],
  "Optimizer iterations": 90,
  "Optimizer params": [0.6595310273237519, 0.7248827033648421, 0.8347571292156435, 0.7070672413313891, 0.7815039983030952, 0.2560227633764979],
  "P": 3,
  "Problem": "MIS",
  "QJob durations [ms]": [201.28703117370605, 287.9211902618408, 200.50477981567383, 286.97919845581055, 201.4443874359131, 287.45555877685547, 200.9143829345703, 288.87391090393066, 200.5789279937744, 287.5964641571045, 201.98678970336914, 286.82851791381836, 200.90818405151367, 290.9412384033203, 200.9892463684082, 287.017822265625, 200.55460929870605, 286.5469455718994, 203.15933227539063, 290.44151306152344, 201.0939121246338, 287.68372535705566, 201.05576515197754, 287.1437072753906, 203.26733589172363, 289.7937297821045, 201.07102394104004, 288.1026268005371, 200.7460594177246, 287.3191833496094, 202.5914192199707, 287.1227264404297, 201.25818252563477, 289.6089553833008, 200.6850242614746, 286.59629821777344, 203.10568809509277, 286.9901657104492, 200.49333572387695, 287.2166633605957, 200.89983940124512, 288.42926025390625, 203.4473419189453, 287.2204780578613, 201.77102088928223, 287.34779357910156, 200.83093643188477, 288.65647315979004, 201.64752006530762, 288.4817123413086, 202.43597030639648, 286.7090702056885, 200.52194595336914, 289.68048095703125, 203.9353847503662, 289.65115547180176, 200.8659839630127, 286.9601249694824, 201.24387741088867, 289.34383392333984, 201.59530639648438, 290.28892517089844, 202.6047706604004, 289.96801376342773, 201.92646980285645, 290.2255058288574, 203.11355590820313, 290.09342193603516, 200.80184936523438, 292.3896312713623, 201.9665241241455, 287.43577003479004, 202.2535800933838, 288.69009017944336, 202.1198272705078, 287.128210067749, 202.06069946289063, 287.5175476074219, 202.4087905883789, 289.1662120819092, 201.15995407104492, 288.0983352661133, 202.3782730102539, 286.64326667785645, 203.19056510925293, 290.0888919830322, 201.43485069274902, 288.72084617614746, 202.24881172180176, 287.86516189575195],
  "QPU": "3010008",
  "Qubits": 11,
  "Queue durations [ms]": [0.0, 0.0, 0.0, 0.0, 0.0, 0.0, 0.0, 0.0, 0.0, 0.0, 0.0, 0.0, 0.0, 0.0, 0.0, 0.0, 0.0, 0.0, 0.0, 0.0, 0.0, 0.0, 0.0, 0.0, 0.0, 0.0, 0.0, 0.0, 0.0, 0.0, 0.0, 0.0, 0.0, 0.0, 0.0, 0.0, 0.0, 0.0, 0.0, 0.0, 0.0, 0.0, 0.0, 0.0, 0.0, 0.0, 0.0, 0.0, 0.0, 0.0, 0.0, 0.0, 0.0, 0.0, 0.0, 0.0, 0.0, 0.0, 0.0, 0.0, 0.0, 0.0, 0.0, 0.0, 0.0, 0.0, 0.0, 0.0, 0.0, 0.0, 0.0, 0.0, 0.0, 0.0, 0.0, 0.0, 0.0, 0.0, 0.0, 0.0, 0.0, 0.0, 0.0, 0.0, 0.0, 0.0, 0.0, 0.0, 0.0, 0.0],
  "Shots": 4096,
  "Size": 8,
  "Total Algorithm duration [s]": 31.853,
  "Total Classic duration [s]": 9.801460578918459,
  "Total Quantum duration [s]": 22.051539421081543
}
