{
  "Depth": 22.5,
  "Job durations [ms]": [4446.643352508545, 4333.414554595947, 4493.399620056152, 4506.101846694946, 4562.570333480835, 4400.193452835083, 4373.178005218506, 4460.970640182495, 4661.606311798096, 4413.047075271606, 4290.789604187012, 4349.138259887695, 4549.8504638671875, 4425.764083862305, 4421.491384506226, 4339.078426361084, 4515.254020690918, 4403.140068054199, 4398.921489715576, 4385.257005691528, 4516.444683074951, 4385.1377964019775, 4456.765174865723, 4339.843273162842, 4422.985553741455, 4396.981477737427, 4417.873382568359, 4314.677715301514, 4549.415111541748, 4353.048324584961, 4409.15060043335, 4439.371347427368, 4315.967082977295, 4322.24440574646, 4370.53918838501, 4453.594446182251, 4421.866416931152, 4410.6645584106445, 4485.013723373413, 4426.272869110107, 4429.696083068848, 4410.008192062378, 4402.099609375, 4339.799880981445, 4332.710742950439, 4464.106559753418, 4404.133319854736, 4447.983980178833, 4353.338241577148, 4359.212636947632, 4365.605354309082, 4503.049373626709, 4461.546421051025, 4350.687026977539, 4374.330759048462, 4389.546871185303, 4369.248867034912, 4556.673049926758, 4365.046501159668, 4356.074094772339, 4448.591470718384, 4414.41535949707, 4358.621120452881, 4402.576923370361, 4394.850254058838, 4438.7359619140625, 4378.331661224365, 4358.282804489136, 4503.159284591675, 4396.308183670044, 4377.678394317627, 4439.561367034912, 4376.663446426392, 4405.076265335083, 4547.800302505493, 4394.425868988037, 4524.287700653076, 4442.8606033325195, 4564.3510818481445, 4404.768466949463, 4392.256021499634, 4446.369886398315, 4412.9273891448975, 4415.960788726807, 4445.062875747681, 4348.127365112305, 4512.309312820435, 4354.068756103516, 4405.628681182861, 4433.303594589233, 4305.190324783325, 4447.690963745117, 4427.163600921631, 4386.2550258636475, 4345.815658569336, 4296.208381652832, 4463.994979858398, 4394.63996887207, 4372.86376953125, 4492.2685623168945, 4466.960906982422, 4392.188549041748, 4391.766309738159, 4418.973445892334, 4349.052429199219, 4308.646678924561, 4399.765491485596, 4470.06368637085, 4494.9963092803955, 4557.934284210205, 4403.485536575317, 4473.505020141602, 4310.834646224976, 4351.742267608643, 4420.3782081604, 4462.21399307251, 4315.206527709961, 4560.166835784912, 4446.956396102905, 5285.833120346069, 6090.327501296997, 5483.2422733306885, 4732.976675033569, 4408.916711807251, 4548.776865005493, 4417.484760284424, 4476.863861083984, 4354.884147644043, 4720.692873001099, 4455.965995788574, 4296.678781509399, 4385.830879211426, 4375.176906585693, 4418.399333953857, 4370.094776153564, 4371.857643127441, 4450.94633102417, 4400.433301925659, 4320.366382598877, 4354.23469543457, 4367.582082748413, 4434.502124786377, 4314.016819000244, 4633.005619049072, 4387.272596359253, 4344.4695472717285, 4270.409107208252, 4344.514846801758, 4556.268215179443, 4449.38063621521, 4359.90571975708, 4405.8518409729, 4391.742467880249, 4368.781566619873, 4348.062992095947, 4543.102025985718, 4308.086633682251, 4418.968439102173, 4434.888124465942, 4387.482643127441, 4418.057918548584, 4394.5629596710205, 4303.927898406982, 4379.227876663208, 4364.262580871582, 4383.1822872161865, 4317.530632019043, 4395.6618309021, 4473.726749420166, 4353.416204452515, 4566.32137298584, 4735.353946685791, 4601.945400238037, 4506.825685501099, 4318.500518798828, 4391.664266586304, 4406.195640563965, 4374.470233917236, 4599.154472351074, 4448.134183883667, 4411.07177734375, 4383.277416229248, 4425.417900085449, 4479.447841644287, 4339.261770248413, 4346.910715103149, 4277.517318725586, 4399.091720581055, 4387.99262046814, 4375.344753265381, 4395.282506942749, 4541.807651519775, 4331.173896789551, 4321.887254714966, 4339.234352111816, 4324.058771133423, 4348.211288452148, 4536.991596221924, 4413.472652435303, 4411.087274551392, 4398.356914520264, 4688.491344451904, 4410.606145858765, 4550.853252410889, 4414.06774520874, 4421.151876449585, 4487.147569656372, 4311.080455780029, 4396.258115768433, 4384.945392608643, 4330.913066864014, 4292.6318645477295, 4479.322910308838, 4424.015522003174, 4422.760009765625, 4390.608072280884, 4460.577011108398, 4320.352077484131, 4388.3843421936035, 4350.31795501709, 4452.277660369873, 4539.473056793213, 4517.024517059326, 4375.983715057373, 4369.24934387207, 4402.985572814941, 4396.262645721436, 4363.523006439209, 4427.981615066528, 4322.406053543091, 4420.572996139526, 4347.074031829834, 4473.122119903564, 4418.745517730713, 4618.460178375244, 4335.671186447144, 4363.128185272217, 4607.110261917114, 4541.9440269470215, 4433.073282241821, 4345.194339752197, 4432.063579559326, 4446.361303329468, 4250.020980834961, 4310.829401016235, 4504.836320877075, 4313.990831375122, 4347.867965698242, 4380.82480430603, 4615.8716678619385, 4268.6028480529785, 4372.316598892212, 4384.397268295288, 4341.458797454834, 4380.277395248413, 4306.042432785034, 4432.384967803955, 4341.962575912476, 4411.0260009765625, 4443.873405456543, 4313.967227935791, 4368.591785430908, 4411.404848098755, 4324.850082397461, 4528.159618377686, 4288.175582885742, 4368.05272102356, 4327.022552490234, 4324.924945831299, 4512.226104736328, 4329.035758972168, 4444.718360900879, 4394.449234008789, 4375.8134841918945, 4370.872259140015, 4430.057525634766, 4348.957061767578, 4406.063795089722, 4345.608234405518, 4477.842330932617, 4367.76065826416, 4531.801700592041, 4355.457305908203, 4401.7839431762695, 4360.23736000061, 4328.718185424805, 4333.371639251709, 4365.009784698486, 4400.5937576293945, 4460.986375808716, 4470.184326171875, 4440.702676773071, 4306.60605430603, 4501.921892166138, 4403.817653656006, 4423.770427703857, 4439.01252746582, 4460.868358612061, 4375.742673873901, 4407.17339515686, 4388.100147247314, 4395.838975906372, 4445.926904678345, 4288.690567016602, 4433.200120925903, 4449.243783950806, 4439.351558685303, 4485.640525817871, 4464.951038360596, 4362.133979797363, 4592.152118682861, 4340.681076049805, 4336.442232131958, 4775.527477264404, 4401.8964767456055, 4363.617420196533, 4396.794319152832, 4555.427551269531, 4316.0130977630615, 4329.292297363281, 4308.192491531372, 4427.693128585815, 4337.726593017578, 4382.702589035034, 4378.417015075684, 4315.530776977539, 4406.498670578003, 4340.651035308838, 4367.387294769287, 4388.43035697937, 4493.958473205566, 4354.775905609131, 4485.247850418091, 4417.324066162109, 4381.921052932739, 4330.873250961304, 4308.513164520264, 4368.10827255249, 4328.146934509277, 4329.121112823486, 4326.761245727539, 4554.920673370361, 4312.749862670898, 4324.166297912598, 4292.238235473633, 4355.704307556152, 4329.306125640869, 4303.79056930542, 4329.309701919556, 4430.070877075195, 4340.713262557983, 4318.063259124756, 4351.374864578247, 4374.13477897644, 4379.549026489258, 4360.289812088013, 4374.679088592529, 4304.229974746704, 4426.842927932739, 4440.022706985474, 4401.225566864014, 4393.622159957886, 4376.3251304626465, 4422.877311706543, 4452.076435089111, 4546.454668045044, 4300.663948059082, 4396.212816238403, 4377.304792404175, 4292.56272315979, 4340.08264541626, 4427.595615386963, 4329.068183898926, 4353.862285614014, 4371.617317199707, 4380.597352981567, 4466.6643142700195, 4368.579864501953, 4444.904327392578, 4285.555124282837, 4346.404790878296, 4424.3927001953125, 4353.860855102539, 4540.330648422241, 4458.146810531616, 4374.560832977295, 4318.748712539673, 4387.901782989502, 4525.3190994262695, 4576.9312381744385, 4418.369770050049, 4308.584928512573, 4335.080862045288, 4417.939186096191, 4473.342418670654, 4361.092567443848, 4379.253625869751, 4385.080099105835, 4401.888847351074, 4551.506042480469, 4385.462760925293, 4435.9588623046875, 4446.814775466919, 4337.644100189209, 4375.580787658691, 4402.914524078369, 4355.172634124756, 4300.9209632873535, 4515.982627868652, 4420.659303665161, 4354.474067687988, 4431.772470474243, 4447.033882141113, 4538.534641265869, 4414.466619491577, 4351.845502853394, 4419.335842132568, 4304.30793762207, 4362.912893295288, 4393.335342407227, 4436.428546905518, 4396.5163230896, 4363.460540771484, 4461.2743854522705, 4306.92195892334, 4365.309000015259],
  "Optimizer durations [ms]": [12481.522, 12198.512, 12593.511, 12563.297, 12717.07, 12339.414, 12374.268, 12476.653, 12947.144, 12347.676, 12101.928, 12259.383, 12617.303, 12393.865, 12380.464, 12241.75, 12560.232, 12348.576, 12349.004, 12280.573, 12574.519, 12299.432, 12442.691, 12197.472, 12366.434, 12335.24, 12359.818, 12191.675, 12637.023, 12194.379, 12350.185, 12424.108, 12157.998, 12175.591, 12272.04, 12440.084, 12401.068, 12356.174, 12528.668, 12376.002, 12417.565, 12345.408, 12295.863, 12189.815, 12188.299, 12486.575, 12336.782, 12407.91, 12201.965, 12232.885, 12254.829, 12522.978, 12458.421, 12205.015, 12266.035, 12260.417, 12281.508, 12633.004, 12282.676, 12183.042, 12452.172, 12353.513, 12284.388, 12317.189, 12329.732, 12384.451, 12290.379, 12237.913, 12545.392, 12331.562, 12317.783, 12375.761, 12325.486, 12325.162, 12621.392, 12346.463, 12573.897, 12446.901, 12666.241, 12365.249, 12308.952, 12440.97, 12327.892, 12381.116, 12416.337, 12225.803, 12567.23, 12270.633, 12341.904, 12447.118, 12157.976, 12404.173, 12370.549, 12345.529, 12193.032, 12143.992, 12435.285, 12356.345, 12283.435, 12540.22, 12723.155, 12355.431, 12293.854, 12390.884, 12196.558, 12132.765, 12325.025, 12490.323, 12513.243, 12684.035, 12309.348, 12508.198, 12143.992, 12251.266, 12325.481, 12472.023, 12133.565, 12676.225, 12438.656, 14472.37, 16570.488, 15394.302, 13031.213, 12348.818, 12640.565, 12351.792, 12508.124, 12229.098, 12961.147, 12381.006, 12104.169, 12265.458, 12267.687, 12333.709, 12269.53, 12253.872, 12418.619, 12319.571, 12177.544, 12225.225, 12277.794, 12395.21, 12188.539, 12754.537, 12316.787, 12184.666, 12075.097, 12193.496, 12635.281, 12407.324, 12235.091, 12320.98, 12304.829, 12252.64, 12205.459, 12584.018, 12121.825, 12330.749, 12372.128, 12270.766, 12354.071, 12285.697, 12085.779, 12267.278, 12235.138, 12266.324, 12146.135, 12329.022, 12447.292, 12181.293, 12670.217, 12989.312, 12738.182, 12516.697, 12158.387, 12356.85, 12340.885, 12264.373, 12709.131, 12407.574, 12327.539, 12290.077, 12359.953, 12419.664, 12175.451, 12200.934, 12051.273, 12346.052, 12316.142, 12272.686, 12324.97, 12658.053, 12170.008, 12129.253, 12160.808, 12173.978, 12203.135, 12576.318, 12349.35, 12354.011, 12325.28, 12990.409, 12365.689, 12658.417, 12335.583, 12377.351, 12511.146, 12155.635, 12339.14, 12306.868, 12209.104, 12089.236, 12527.697, 12380.283, 12374.513, 12332.931, 12503.597, 12173.707, 12325.659, 12236.938, 12453.372, 12575.094, 12641.988, 12298.071, 12285.963, 12357.056, 12353.604, 12243.504, 12427.5, 12142.154, 12397.549, 12188.068, 12517.185, 12384.163, 12762.395, 12209.369, 12254.671, 12726.979, 12601.046, 12354.438, 12196.961, 12359.745, 12402.139, 11995.957, 12127.929, 12509.167, 12134.388, 12198.215, 12260.13, 12780.951, 12052.638, 12250.017, 12232.384, 12196.55, 12257.491, 12123.876, 12388.503, 12222.067, 12319.032, 12418.144, 12151.869, 12240.179, 12344.083, 12180.447, 12600.738, 12120.902, 12279.315, 12186.02, 12151.516, 12626.52, 12170.546, 12387.214, 12318.87, 12306.111, 12265.544, 12385.503, 12225.655, 12361.41, 12212.81, 12443.576, 12247.913, 12577.799, 12210.386, 12322.642, 12255.561, 12184.088, 12207.501, 12249.444, 12301.998, 12489.996, 12458.166, 12419.595, 12119.103, 12544.545, 12324.531, 12391.59, 12395.014, 12411.932, 12290.77, 12315.177, 12273.386, 12307.997, 12443.368, 12095.647, 12390.603, 12444.015, 12395.881, 12517.482, 12450.535, 12249.879, 12716.174, 12223.137, 12201.585, 13086.549, 12363.246, 12259.411, 12321.555, 12621.177, 12150.54, 12127.136, 12110.222, 12385.808, 12199.057, 12285.617, 12282.919, 12121.357, 12343.163, 12207.776, 12261.486, 12291.99, 12524.834, 12245.173, 12532.366, 12404.824, 12265.853, 12135.162, 12124.159, 12234.928, 12191.942, 12174.973, 12179.339, 12614.77, 12136.617, 12198.957, 12082.701, 12230.139, 12180.476, 12125.175, 12184.673, 12399.172, 12192.374, 12122.447, 12240.715, 12270.098, 12279.286, 12243.683, 12260.305, 12108.749, 12339.515, 12401.234, 12311.042, 12309.796, 12266.445, 12387.531, 12425.492, 12620.411, 12113.455, 12322.034, 12244.532, 12083.324, 12207.138, 12376.372, 12173.82, 12231.071, 12261.572, 12278.041, 12457.286, 12249.554, 12411.112, 12104.821, 12214.845, 12365.526, 12237.881, 12607.961, 12448.93, 12251.692, 12143.85, 12292.403, 12574.519, 12677.522, 12338.972, 12117.53, 12166.216, 12364.575, 12455.069, 12226.754, 12292.609, 12278.369, 12311.985, 12612.021, 12299.075, 12383.059, 12409.969, 12203.683, 12295.194, 12323.805, 12204.353, 12123.243, 12585.026, 12355.939, 12247.974, 12354.138, 12373.69, 12599.759, 12353.435, 12209.993, 12362.548, 12109.125, 12244.478, 12303.211, 12416.192, 12312.239, 12256.09, 12426.627, 12149.959, 12255.509],
  "Optimizer iterations": 426,
  "Qubits": 10,
  "Total Algorithm duration [s]": 5266.4,
  "Total Classic duration [s]": 3385.3160864353176,
  "Total Quantum duration [s]": 1881.083913564682,
  "Expectation Value": -9.02490234375,
  "Optimal Expectation Value": -12.381489753723145,
  "Optimizer params": [0.7500501473640367, 0.749984249678433, 0.7500112298695135, 0.7495694629082744, 0.7499157602164539, 0.7529656849100853, 0.7500611424417032, 0.7499621000896275, 0.7501514071824706, 0.7498351144302206, 0.5000685158550622, 0.5000606150902654, 0.5004098760357203, 0.49955263629441476, 0.5000669618203318, 0.49994278779347295, 0.4992670821761772, 0.5000843789448008, 0.5002756744739668, 0.7500009935436641, 0.5082003572499527, 0.49986464459911, 0.5001629867951163, 0.4997393551995543, 0.49155780493301804, 0.4998787533317634, 0.49989681532938085, 0.4999890230152307, 0.49995450155545784, 0.5001349628802823, 0.4998904747944719, 0.5000153042147933, 0.49972307798032956, 0.5000527534383485, 0.5000511305559554, 0.49999344224786585, 0.4999049302409371, 0.49992894319515824, 0.4999537807295663, 0.49984735558278875],
  "QPU": "6010003",
  "Problem": "IC",
  "Size": 10,
  "P": 0,
  "Shots": 4096
}