{
  "Circuit execution durations [ms]": [323.8111734390259, 322.2604990005493, 325.25789737701416, 326.4819383621216, 318.8256025314331, 327.8583288192749, 324.56743717193604, 322.2464323043823, 321.74789905548096, 322.0158815383911, 325.4278898239136, 336.05456352233887, 321.4370012283325, 325.53768157958984, 321.43640518188477, 328.9201259613037, 330.7068347930908, 318.27569007873535, 328.4207582473755, 484.3639135360718, 330.51609992980957, 317.7788257598877, 328.6011219024658, 325.3958225250244, 332.52835273742676, 325.40059089660645, 323.2700824737549, 325.17552375793457, 326.2300491333008, 333.7923288345337, 325.03271102905273, 322.16107845306396, 320.8726644515991, 326.7099857330322, 325.95157623291016, 329.1475772857666, 329.1553258895874, 329.9487829208374, 328.1135559082031, 337.20505237579346, 332.1695327758789, 332.8765630722046, 324.0237236022949, 328.1341791152954, 331.79306983947754, 315.5883550643921, 334.5215320587158, 322.0876455307007, 317.03221797943115, 330.65271377563477, 326.1030912399292, 326.97784900665283, 321.01404666900635, 332.4352502822876, 324.30124282836914, 329.0860652923584, 336.4211320877075, 321.99347019195557, 321.74015045166016, 324.77867603302, 319.97787952423096, 339.5742177963257, 322.9718208312988, 329.6642303466797, 321.7768669128418, 319.68629360198975, 323.0624198913574, 333.50634574890137, 324.0203857421875, 323.57335090637207, 321.9379186630249, 320.72722911834717, 331.56704902648926, 332.4403762817383, 320.33634185791016, 325.187087059021, 325.74737071990967, 324.1978883743286, 322.86953926086426, 319.0423250198364, 325.78933238983154, 332.187294960022, 327.34382152557373, 318.2988166809082, 327.6629447937012, 328.32515239715576, 325.12378692626953, 323.43828678131104, 330.2643299102783, 322.38125801086426, 328.2872438430786, 321.9130039215088, 325.6798982620239, 328.5306692123413, 328.7695646286011, 327.6839256286621, 340.6919240951538, 333.25648307800293, 334.7616195678711, 327.9474973678589, 326.8994092941284, 342.69416332244873, 323.05729389190674, 333.40489864349365, 324.0312337875366, 326.96735858917236, 333.06217193603516, 334.194540977478, 329.6520709991455, 321.7747211456299, 320.1470375061035, 320.12295722961426, 326.3200521469116, 325.1429796218872, 321.40982151031494, 337.6798629760742, 329.70643043518066, 331.36725425720215, 333.8865041732788, 323.13060760498047, 332.81612396240234, 330.26301860809326, 336.8920087814331, 323.5278129577637, 330.52754402160645, 323.0396509170532, 335.3705406188965, 328.48381996154785, 323.6898183822632, 320.8491802215576, 331.7689895629883, 328.1592130661011, 330.6809663772583, 326.4578580856323, 320.69718837738037, 335.03472805023193, 327.48568058013916, 326.6880512237549, 322.5691318511963, 333.469033241272, 321.0179805755615, 333.1516981124878, 327.51595973968506, 325.0175714492798, 322.7430582046509, 328.64654064178467, 329.7281265258789, 333.6524963378906, 325.7331848144531, 320.59359550476074, 330.28340339660645, 326.2275457382202, 329.5247554779053, 327.02457904815674, 333.0901861190796, 331.0166597366333, 327.2968530654907, 324.1744041442871, 333.6902856826782, 330.64401149749756, 331.33673667907715, 330.9093713760376, 327.3271322250366, 323.79674911499023, 330.5835723876953, 325.9103298187256, 326.6836404800415, 336.1184597015381, 326.1486291885376, 325.9471654891968, 331.7321538925171, 328.8760185241699, 327.0162343978882, 322.4329948425293, 335.0362777709961, 329.83386516571045, 328.48572731018066, 323.4410285949707, 338.4685516357422, 322.399377822876, 328.25660705566406, 321.99275493621826, 334.2171907424927, 328.13727855682373, 326.05135440826416, 328.640341758728, 322.5722312927246, 329.54657077789307, 327.42345333099365, 327.2498846054077, 330.485463142395, 324.6805667877197, 327.739953994751, 329.20217514038086, 328.3579349517822, 324.2720365524292, 332.2676420211792, 326.59149169921875, 329.33199405670166, 330.780029296875, 331.0575485229492, 329.74207401275635, 325.87361335754395, 330.3893804550171, 329.6084403991699, 324.1819143295288, 326.399564743042, 319.70977783203125, 328.8097381591797, 332.21209049224854, 328.1921148300171, 328.78410816192627, 327.19969749450684, 338.7413024902344, 323.1140375137329, 333.274245262146, 482.5669527053833, 330.88624477386475, 325.628399848938, 331.7985534667969, 330.399751663208, 327.91924476623535, 326.83587074279785, 335.0379467010498, 323.66347312927246, 331.01630210876465, 326.4540433883667, 336.95852756500244, 474.38061237335205, 329.4476270675659, 322.59905338287354, 330.9391736984253, 317.3176050186157, 329.73694801330566, 326.37250423431396, 339.5272493362427, 362.6079559326172, 352.38146781921387, 342.2889709472656, 344.87199783325195, 336.96913719177246, 342.9834842681885, 344.8218107223511, 337.99922466278076, 347.3306894302368, 326.55513286590576, 328.5943269729614, 323.9710330963135, 325.24144649505615, 332.9414129257202, 337.52477169036865, 321.0347890853882, 327.79085636138916, 336.4173173904419, 328.5021781921387, 333.75370502471924, 324.44167137145996, 327.33631134033203, 329.98979091644287, 326.50673389434814, 330.9826850891113, 325.728178024292, 328.2109498977661, 331.48157596588135, 326.4197111129761, 323.7036466598511, 324.76484775543213, 490.7217025756836, 331.9777250289917, 330.30498027801514, 331.510066986084, 329.2914628982544, 326.25091075897217, 329.78594303131104, 331.2094211578369, 327.28326320648193, 328.37975025177, 323.6886262893677, 339.65933322906494, 340.82913398742676, 325.63936710357666, 323.66883754730225, 334.470272064209, 328.5259008407593, 337.5530242919922, 328.58288288116455, 337.0640277862549, 328.4398317337036, 328.4642696380615, 329.1192054748535, 324.87785816192627, 325.7575035095215, 322.1038579940796, 327.8772830963135, 317.72708892822266, 322.3518133163452, 336.55083179473877, 333.1509828567505, 330.87003231048584, 329.6055793762207, 331.1120271682739, 321.2890625, 344.37525272369385, 329.70738410949707, 322.285532951355, 325.7681131362915, 324.51605796813965, 325.28507709503174, 329.45990562438965, 329.40423488616943, 328.16803455352783, 327.90839672088623, 333.3534002304077, 340.19267559051514, 327.10790634155273, 332.5176239013672, 324.4178295135498, 330.9752941131592, 338.62006664276123, 326.19333267211914, 329.36036586761475, 333.1261873245239, 341.3928747177124, 329.9853801727295, 322.9212760925293, 323.16339015960693, 330.9208154678345, 325.54149627685547, 336.37940883636475, 334.4602584838867, 329.60033416748047, 327.4017572402954, 326.5873193740845, 478.0542850494385, 325.59680938720703, 323.5914707183838, 327.65722274780273, 326.58326625823975, 326.50458812713623, 329.7644853591919, 323.09699058532715, 335.9893560409546, 336.7912769317627, 323.1651782989502, 334.844708442688, 318.9948797225952, 329.75006103515625, 336.74657344818115, 328.24158668518066, 343.2621955871582, 333.18519592285156, 323.2686519622803, 329.1553258895874, 332.8961133956909, 327.1094560623169, 324.7823715209961, 326.88701152801514, 331.6687345504761, 331.90762996673584, 326.09736919403076, 480.37004470825195, 321.840763092041, 321.3294744491577, 340.5425548553467, 324.5527744293213, 335.74414253234863, 322.1186399459839, 334.21409130096436, 487.18392848968506, 327.49009132385254, 328.7780284881592, 323.47095012664795, 329.4179439544678, 333.29784870147705, 335.8062505722046, 332.0869207382202, 327.53443717956543, 629.108190536499, 326.43091678619385, 323.96864891052246, 327.80373096466064, 328.3543586730957, 342.2814607620239, 332.00132846832275, 328.5233974456787, 322.25096225738525, 323.6275911331177, 325.90246200561523, 327.77202129364014, 321.24340534210205, 328.59110832214355, 321.8526840209961, 326.96807384490967, 479.1555404663086, 333.7205648422241, 326.78520679473877, 330.2496671676636, 325.8969783782959, 327.986478805542, 330.3724527359009, 324.19002056121826, 334.57064628601074, 329.1527032852173, 330.5884599685669, 325.4488706588745, 320.7418918609619, 326.11262798309326, 336.70151233673096, 328.41408252716064, 328.90617847442627, 329.17606830596924, 323.7079381942749, 327.3460865020752, 326.6286849975586, 328.94575595855713, 321.54178619384766, 331.6408395767212, 333.321213722229, 323.7636089324951, 330.01458644866943, 328.72819900512695, 328.5031318664551, 333.087682723999, 332.77416229248047, 326.5037536621094, 334.179162979126, 330.3149938583374, 329.53476905822754, 480.9281826019287, 327.4495601654053, 323.6624002456665, 334.7717523574829, 324.35572147369385, 326.1563777923584, 331.18343353271484, 329.6017646789551, 329.4919729232788, 338.30130100250244, 332.30018615722656, 339.5923376083374, 327.8985023498535, 331.4560651779175, 353.4899950027466, 323.81439208984375, 325.1866102218628, 328.7559747695923, 331.7321538925171, 333.365797996521, 332.68606662750244, 332.0964574813843, 334.2733383178711, 331.9516181945801, 327.58402824401855, 337.47172355651855, 327.27932929992676, 331.8498134613037, 332.08775520324707, 331.35437965393066, 326.3857364654541, 334.49792861938477, 325.54948329925537, 329.7616243362427, 333.5953950881958, 329.2207717895508, 326.73704624176025, 331.30669593811035, 330.81769943237305, 328.1362056732178, 333.2369327545166, 332.4301242828369, 339.18213844299316, 329.9975395202637, 330.49190044403076, 333.659291267395, 329.33127880096436, 329.0659189224243, 332.6610326766968, 325.07598400115967, 325.620174407959, 334.5954418182373, 333.57465267181396, 322.0827579498291, 330.0809860229492, 329.68616485595703, 324.3589401245117, 337.98766136169434, 324.4413137435913, 334.8546028137207, 335.6529474258423, 324.4584798812866, 331.5659761428833, 320.6518888473511, 323.6846923828125, 327.2749185562134, 329.53953742980957, 331.8600654602051, 332.2324752807617, 325.61635971069336, 328.13262939453125, 326.30252838134766],
  "Depth": 16.5,
  "Expectation Value": -6.51318359375,
  "Optimal Expectation Value": -8.5667724609375,
  "Optimizer durations [ms]": [3127.629, 3124.983, 3164.285, 3127.916, 3101.503, 3136.078, 3165.816, 3102.879, 3161.281, 3123.002, 3153.606, 3188.129, 3133.823, 3149.724, 3212.459, 3152.913, 3163.255, 3165.824, 3151.139, 3502.744, 3178.148, 3161.618, 3212.873, 3144.056, 3176.039, 3191.637, 3162.239, 3213.631, 3212.682, 3169.391, 3174.754, 3197.438, 3132.687, 3207.523, 3191.115, 3141.434, 3167.533, 3199.189, 3151.812, 3262.618, 3185.806, 3231.556, 3211.11, 3180.548, 3160.411, 3174.805, 3185.792, 3134.879, 3158.63, 3141.081, 3190.966, 3191.03, 3130.488, 3196.691, 3137.076, 3153.185, 3191.639, 3116.412, 3173.634, 3172.059, 3108.932, 3201.373, 3140.18, 3164.57, 3215.956, 3112.658, 3124.849, 3202.841, 3115.784, 3142.969, 3230.653, 3121.641, 3163.613, 3229.903, 3146.627, 3146.564, 3231.415, 3144.923, 3138.647, 3156.648, 3141.706, 3156.875, 3230.858, 3130.464, 3192.835, 3164.558, 3143.813, 3203.623, 3226.694, 3128.325, 3232.116, 3103.617, 3110.563, 3162.189, 3133.623, 3192.778, 3214.365, 3145.934, 3199.883, 3152.699, 3142.189, 3270.308, 3122.29, 3135.078, 3182.826, 3127.233, 3163.313, 3234.614, 3141.844, 3123.996, 3143.647, 3147.433, 3127.396, 3194.614, 3158.268, 3149.702, 3146.058, 3190.998, 3161.758, 3166.337, 3208.571, 3152.801, 3183.002, 3146.935, 3147.599, 3177.951, 3211.402, 3143.54, 3145.745, 3155.452, 3151.155, 3155.372, 3224.39, 3129.741, 3172.86, 3162.424, 3137.188, 3148.045, 3226.39, 3151.813, 3145.759, 3177.225, 3136.606, 3147.472, 3204.022, 3160.72, 3149.658, 3183.524, 3144.575, 3128.364, 3216.215, 3123.925, 3149.154, 3207.923, 3149.712, 3145.006, 3213.549, 3149.614, 3166.688, 3173.407, 3172.886, 3178.327, 3205.374, 3154.85, 3185.585, 3163.706, 3146.571, 3212.618, 3153.675, 3204.643, 3197.53, 3146.742, 3147.446, 3152.148, 3178.204, 3214.495, 3188.991, 3135.292, 3168.339, 3176.379, 3149.843, 3165.17, 3230.953, 3121.476, 3127.296, 3157.061, 3148.646, 3203.444, 3164.655, 3137.274, 3156.475, 3160.922, 3131.359, 3190.563, 3162.087, 3123.388, 3141.341, 3150.55, 3178.29, 3188.494, 3156.946, 3162.74, 3141.782, 3134.675, 3174.318, 3139.175, 3195.47, 3143.448, 3167.348, 3202.831, 3148.114, 3160.11, 3204.087, 3178.25, 3154.431, 3205.623, 3449.314, 3169.812, 3211.394, 3159.448, 3179.528, 3189.06, 3136.994, 3185.885, 3206.802, 3155.65, 3117.054, 3188.268, 3412.266, 3127.355, 3222.663, 3152.345, 3106.631, 3199.355, 3139.033, 3168.18, 3267.785, 3181.81, 3194.327, 3152.148, 3148.516, 3168.205, 3151.722, 3211.861, 3190.109, 3131.606, 3167.001, 3123.148, 3163.84, 3189.898, 3223.468, 3113.971, 3164.728, 3196.958, 3138.043, 3193.379, 3134.136, 3143.181, 3145.94, 3167.263, 3146.082, 3188.267, 3177.358, 3138.694, 3140.63, 3157.581, 3131.53, 3557.937, 3139.626, 3149.913, 3191.57, 3123.575, 3140.984, 3217.817, 3152.018, 3155.721, 3190.598, 3113.141, 3211.871, 3212.867, 3184.392, 3166.496, 3167.77, 3162.526, 3198.284, 3123.925, 3223.883, 3166.481, 3138.621, 3152.126, 3167.576, 3145.533, 3172.117, 3159.155, 3123.17, 3145.197, 3184.399, 3149.207, 3201.703, 3180.864, 3158.252, 3165.548, 3191.49, 3152.247, 3215.397, 3137.134, 3142.543, 3184.889, 3160.726, 3145.879, 3263.236, 3145.024, 3215.419, 3189.865, 3141.371, 3199.419, 3129.645, 3197.602, 3205.917, 3132.758, 3143.131, 3198.944, 3176.491, 3194.519, 3151.182, 3111.259, 3158.612, 3168.082, 3168.717, 3231.097, 3132.319, 3143.839, 3153.519, 3422.422, 3104.83, 3217.353, 3149.103, 3156.804, 3148.428, 3152.252, 3152.793, 3222.675, 3163.757, 3152.846, 3155.87, 3111.315, 3163.061, 3205.538, 3123.773, 3202.602, 3147.956, 3118.516, 3181.601, 3157.768, 3180.44, 3157.432, 3141.284, 3166.152, 3172.418, 3143.26, 3502.902, 3150.269, 3132.419, 3193.51, 3149.651, 3176.75, 3159.828, 3195.17, 3461.286, 3151.776, 3196.813, 3146.498, 3207.513, 3204.057, 3169.447, 3158.19, 3176.189, 3757.096, 3192.402, 3166.332, 3134.34, 3164.555, 3213.03, 3174.111, 3193.688, 3165.199, 3122.126, 3157.052, 3168.48, 3143.931, 3139.01, 3202.371, 3147.047, 3446.655, 3220.366, 3156.998, 3163.993, 3226.786, 3135.997, 3162.556, 3153.944, 3170.697, 3138.994, 3232.436, 3172.239, 3177.925, 3118.0, 3182.388, 3164.374, 3214.921, 3176.207, 3149.476, 3149.981, 3190.585, 3142.047, 3183.445, 3176.693, 3154.209, 3127.651, 3182.108, 3150.416, 3176.999, 3181.639, 3144.252, 3153.138, 3164.848, 3141.855, 3160.915, 3526.73, 3127.129, 3141.7, 3181.026, 3137.409, 3126.083, 3224.311, 3134.22, 3160.589, 3218.24, 3164.771, 3176.891, 3216.159, 3139.251, 3214.148, 3162.51, 3144.21, 3149.526, 3249.929, 3179.192, 3157.418, 3197.586, 3186.681, 3187.03, 3178.457, 3170.248, 3175.08, 3163.001, 3156.033, 3186.966, 3210.785, 3173.14, 3188.098, 3165.431, 3177.305, 3206.646, 3149.15, 3210.028, 3192.572, 3159.292, 3158.56, 3186.711, 3155.629, 3191.996, 3183.804, 3143.468, 3147.881, 3165.938, 3150.787, 3215.001, 3168.345, 3154.867, 3171.946, 3182.739, 3139.75, 3212.498, 3181.264, 3171.916, 3156.679, 3193.395, 3165.227, 3197.013, 3181.37, 3123.674, 3169.98, 3127.99, 3181.357, 3233.424, 3172.613, 3136.667, 3208.181, 3166.813],
  "Optimizer iterations": 500,
  "Optimizer params": [0.5702539979170262, 0.9336145112453827, 0.0018333186382498451, 0.31086777539853716, 0.10045360957234538, 0.1031017500895902, 0.8580218950481144, 0.3381580877664347, 0.1379471842705449, 0.20034491416701541, 0.9623859558943453, 0.01900127420260557, 0.1411226875742067, 0.07781305329922211, 0.48553014269292477, 0.4765462827193291, 0.9795054981022033, 0.1666949918846907, 0.4482133201093426, 0.056520669375418685, 0.15822212719083234, 0.34483380307565625, 0.511849912566494, 0.3413016814914347, 0.30391309460988575, 0.820813851535578, 0.5554730532770177, 0.367093686851277],
  "P": 0,
  "Problem": "IC",
  "QJob durations [ms]": [1541.5328741073608, 1536.556601524353, 1538.2734537124634, 1542.3623323440552, 1528.9835929870605, 1546.3464260101318, 1561.0790252685547, 1529.8010110855103, 1558.4962368011475, 1539.9023294448853, 1550.7036447525024, 1568.2687759399414, 1536.415696144104, 1545.8736419677734, 1554.2328357696533, 1546.0041761398315, 1552.5606870651245, 1552.3779392242432, 1546.0844039916992, 1723.7759828567505, 1558.2754611968994, 1530.2557945251465, 1575.299620628357, 1542.5562858581543, 1558.64679813385, 1564.2502307891846, 1549.8676300048828, 1577.165961265564, 1576.1570930480957, 1555.5211305618286, 1557.0940971374512, 1568.723201751709, 1537.1845960617065, 1550.2374172210693, 1566.0291910171509, 1540.441393852234, 1555.8584928512573, 1570.8496570587158, 1544.9031591415405, 1580.1483392715454, 1564.0848875045776, 1580.756664276123, 1576.390266418457, 1558.3901405334473, 1550.381064414978, 1558.0817461013794, 1562.4020099639893, 1538.1250381469727, 1549.5463609695435, 1540.4218435287476, 1566.419005393982, 1545.0851917266846, 1536.8835926055908, 1568.9200162887573, 1537.7404689788818, 1547.6208925247192, 1566.204309463501, 1528.4271240234375, 1536.5514755249023, 1555.8725595474243, 1525.4536867141724, 1572.8248357772827, 1541.3519144058228, 1553.075909614563, 1578.532099723816, 1526.2380838394165, 1533.4718227386475, 1571.3800191879272, 1528.921127319336, 1541.895031929016, 1561.7860555648804, 1530.3616523742676, 1551.2291193008423, 1581.7946195602417, 1543.680191040039, 1543.3717966079712, 1564.3939971923828, 1542.2654151916504, 1538.4306907653809, 1549.5712757110596, 1541.5626764297485, 1547.3406314849854, 1586.3165855407715, 1535.129427909851, 1566.8091773986816, 1553.1033277511597, 1541.338562965393, 1572.873830795288, 1561.5500211715698, 1533.502459526062, 1586.8868827819824, 1520.8595991134644, 1525.7741212844849, 1554.139494895935, 1536.1597537994385, 1548.1435060501099, 1576.6866207122803, 1543.6675548553467, 1570.6334114074707, 1545.8062887191772, 1541.4953231811523, 1605.8536767959595, 1530.6419134140015, 1538.6371612548828, 1559.1762065887451, 1534.445881843567, 1555.4022789001465, 1564.7995471954346, 1541.7102575302124, 1530.522108078003, 1539.9359464645386, 1546.0530519485474, 1533.4471464157104, 1546.2816953659058, 1549.820899963379, 1544.487714767456, 1544.5231199264526, 1565.6123161315918, 1550.4446029663086, 1552.7188777923584, 1571.7666149139404, 1546.7032194137573, 1562.0741844177246, 1543.3145761489868, 1545.0884103775024, 1537.2633934020996, 1576.1789083480835, 1542.922019958496, 1540.7044887542725, 1548.5116243362427, 1546.0350513458252, 1547.4706888198853, 1562.041163444519, 1534.787654876709, 1556.7119121551514, 1552.3141622543335, 1536.739706993103, 1545.1486110687256, 1583.5808515548706, 1545.695424079895, 1543.9985990524292, 1558.647871017456, 1538.8126373291016, 1544.044852256775, 1549.988031387329, 1551.3603687286377, 1544.259786605835, 1564.1639232635498, 1543.3152914047241, 1533.8672399520874, 1556.856393814087, 1531.518578529358, 1544.2252159118652, 1574.1699934005737, 1546.451210975647, 1540.8517122268677, 1577.5545835494995, 1543.80464553833, 1553.5303354263306, 1556.5205812454224, 1555.2266836166382, 1559.4631433486938, 1551.2217283248901, 1546.9268560409546, 1565.1651620864868, 1551.8178939819336, 1542.824625968933, 1576.4727592468262, 1545.1292991638184, 1550.9010553359985, 1567.9429769515991, 1544.4908142089844, 1542.3669815063477, 1545.1903343200684, 1557.3375225067139, 1577.1009922027588, 1565.8138990402222, 1538.0715131759644, 1552.150845527649, 1556.2955141067505, 1545.8014011383057, 1529.794692993164, 1584.5814943313599, 1531.5091609954834, 1533.6205959320068, 1549.5949983596802, 1544.4917678833008, 1549.833059310913, 1552.6657104492188, 1538.6160612106323, 1548.2101440429688, 1550.907850265503, 1535.3662967681885, 1566.0898685455322, 1553.9470911026, 1532.4147939682007, 1541.039228439331, 1542.6936149597168, 1559.0959787368774, 1542.6406860351563, 1548.4000444412231, 1551.9044399261475, 1540.5362844467163, 1537.5053882598877, 1557.5182437896729, 1538.6781692504883, 1546.1591482162476, 1545.5816984176636, 1553.2268285751343, 1572.03209400177, 1544.256567955017, 1550.5064725875854, 1573.9558935165405, 1559.0832233428955, 1547.9451417922974, 1572.2659826278687, 1693.6383247375488, 1553.9093017578125, 1553.6807775497437, 1549.938440322876, 1560.2937936782837, 1564.0171766281128, 1539.6007299423218, 1564.8856163024902, 1552.6925325393677, 1548.478364944458, 1528.001070022583, 1564.742088317871, 1678.410530090332, 1537.239909172058, 1581.6844701766968, 1546.099066734314, 1523.672342300415, 1570.6216096878052, 1539.1925573349, 1555.059313774109, 1590.296983718872, 1569.2307949066162, 1575.714111328125, 1554.4965267181396, 1552.8626441955566, 1562.4226331710815, 1554.442048072815, 1559.3944787979126, 1565.079689025879, 1535.711407661438, 1554.112434387207, 1530.6888818740845, 1551.297664642334, 1565.6057596206665, 1581.0307264328003, 1527.7982950210571, 1552.5867938995361, 1569.1640377044678, 1540.0539636611938, 1543.7334775924683, 1538.2895469665527, 1540.7475233078003, 1542.6298379898071, 1554.5074939727783, 1542.9733991622925, 1542.658805847168, 1559.7913265228271, 1538.2777452468872, 1541.567087173462, 1548.0003356933594, 1538.175344467163, 1749.4066953659058, 1539.1325950622559, 1545.161247253418, 1566.4762258529663, 1531.3708782196045, 1541.5838956832886, 1557.350516319275, 1545.9184646606445, 1548.3769178390503, 1563.7816190719604, 1526.742935180664, 1576.3181447982788, 1575.9482383728027, 1541.7464971542358, 1553.1409978866577, 1554.6725988388062, 1553.8108348846436, 1568.3573484420776, 1532.4218273162842, 1582.2464227676392, 1552.9338121414185, 1540.4493808746338, 1546.1039543151855, 1554.2960166931152, 1543.4632301330566, 1533.7647199630737, 1550.5529642105103, 1531.9321155548096, 1539.8157835006714, 1562.5585317611694, 1544.3288087844849, 1548.8409996032715, 1560.957670211792, 1548.1756925582886, 1553.6909103393555, 1565.7800436019897, 1546.8422174453735, 1581.9321870803833, 1537.5794172286987, 1541.4314270019531, 1562.7151727676392, 1549.9930381774902, 1543.8215732574463, 1579.6699523925781, 1542.873740196228, 1578.0633687973022, 1564.421534538269, 1541.0690307617188, 1569.2933797836304, 1534.1452360153198, 1548.3485460281372, 1572.4248886108398, 1536.8521213531494, 1540.9947633743286, 1568.8021183013916, 1561.7433786392212, 1567.4930810928345, 1545.0184345245361, 1526.8194675445557, 1548.9944219589233, 1554.2351007461548, 1554.362416267395, 1563.4952783584595, 1537.2430086135864, 1541.6887998580933, 1550.4179000854492, 1682.3650598526, 1521.3813781738281, 1556.946039199829, 1544.6579456329346, 1547.473669052124, 1545.393466949463, 1545.5032587051392, 1549.941897392273, 1581.2106132507324, 1551.1271953582764, 1546.8958616256714, 1547.2747087478638, 1523.1194496154785, 1552.6340007781982, 1550.2965450286865, 1532.5428247451782, 1571.69508934021, 1543.7334775924683, 1530.0883054733276, 1560.2344274520874, 1548.3753681182861, 1537.9278659820557, 1547.9648113250732, 1541.3010120391846, 1550.4610538482666, 1556.1529397964478, 1542.5344705581665, 1721.767783164978, 1544.6553230285645, 1537.1137857437134, 1565.8376216888428, 1545.2501773834229, 1558.8932037353516, 1527.7949571609497, 1568.6150789260864, 1700.269341468811, 1545.8438396453857, 1569.3600177764893, 1542.2170162200928, 1553.555965423584, 1570.5475807189941, 1554.3792247772217, 1550.3634214401245, 1557.373046875, 1849.3196964263916, 1566.2022829055786, 1551.2282848358154, 1537.9530191421509, 1551.5702962875366, 1575.818657875061, 1556.0656785964966, 1544.365644454956, 1552.1925687789917, 1531.080961227417, 1547.1898317337036, 1554.9417734146118, 1539.5642518997192, 1539.9779081344604, 1549.963116645813, 1542.7144765853882, 1692.5008296966553, 1578.5387754440308, 1547.280192375183, 1552.7664422988892, 1581.8202495574951, 1537.4764204025269, 1551.9522428512573, 1546.004295349121, 1556.2772750854492, 1540.7249927520752, 1564.7825002670288, 1555.0224781036377, 1559.8056316375732, 1528.1836986541748, 1559.4401359558105, 1552.3852109909058, 1555.4065704345703, 1559.1282844543457, 1544.022798538208, 1544.5067882537842, 1565.8057928085327, 1539.6037101745605, 1562.0423555374146, 1558.9689016342163, 1545.2114343643188, 1531.6951274871826, 1561.4323616027832, 1543.8674688339233, 1537.451148033142, 1559.6709251403809, 1541.008472442627, 1547.2458600997925, 1551.307201385498, 1540.964126586914, 1550.3709316253662, 1711.593747138977, 1534.2849493026733, 1539.6190881729126, 1560.6513023376465, 1538.968801498413, 1532.4535369873047, 1583.0910205841064, 1537.192940711975, 1549.9229431152344, 1578.9371728897095, 1551.741361618042, 1558.08424949646, 1556.4683675765991, 1538.8671159744263, 1577.748417854309, 1551.3283014297485, 1542.272925376892, 1545.309066772461, 1572.5709199905396, 1559.7139596939087, 1548.590064048767, 1568.1644678115845, 1563.0557537078857, 1561.249852180481, 1558.5442781448364, 1555.2138090133667, 1555.8758974075317, 1552.189826965332, 1547.8495359420776, 1562.8697872161865, 1554.5189380645752, 1554.9262762069702, 1563.4739398956299, 1550.6341457366943, 1557.6300621032715, 1574.0023851394653, 1544.0856218338013, 1552.4070262908936, 1566.430687904358, 1548.2383966445923, 1549.2596626281738, 1562.8836154937744, 1546.5956926345825, 1566.4499998092651, 1561.1141920089722, 1541.2192344665527, 1544.3047285079956, 1550.4066944122314, 1544.7067022323608, 1555.8676719665527, 1552.1619319915771, 1547.7732419967651, 1554.0956258773804, 1560.9703063964844, 1540.2854681015015, 1553.5510778427124, 1561.1939430236816, 1555.5284023284912, 1547.7080345153809, 1566.5698051452637, 1551.9592761993408, 1568.5536861419678, 1560.7085227966309, 1530.998945236206, 1555.9502840042114, 1533.7718725204468, 1559.3302249908447, 1565.786361694336, 1554.4871091842651, 1538.1793975830078, 1573.108434677124, 1551.976203918457],
  "QPU": "6010013",
  "Qubits": 7,
  "Queue durations [ms]": [0.0, 0.0, 0.0, 0.0, 0.0, 0.0, 0.0, 0.0, 0.0, 0.0, 0.0, 0.0, 0.0, 0.0, 0.0, 0.0, 0.0, 0.0, 0.0, 0.0, 0.0, 0.0, 0.0, 0.0, 0.0, 0.0, 0.0, 0.0, 0.0, 0.0, 0.0, 0.0, 0.0, 0.0, 0.0, 0.0, 0.0, 0.0, 0.0, 0.0, 0.0, 0.0, 0.0, 0.0, 0.0, 0.0, 0.0, 0.0, 0.0, 0.0, 0.0, 0.0, 0.0, 0.0, 0.0, 0.0, 0.0, 0.0, 0.0, 0.0, 0.0, 0.0, 0.0, 0.0, 0.0, 0.0, 0.0, 0.0, 0.0, 0.0, 0.0, 0.0, 0.0, 0.0, 0.0, 0.0, 0.0, 0.0, 0.0, 0.0, 0.0, 0.0, 0.0, 0.0, 0.0, 0.0, 0.0, 0.0, 0.0, 0.0, 0.0, 0.0, 0.0, 0.0, 0.0, 0.0, 0.0, 0.0, 0.0, 0.0, 0.0, 0.0, 0.0, 0.0, 0.0, 0.0, 0.0, 0.0, 0.0, 0.0, 0.0, 0.0, 0.0, 0.0, 0.0, 0.0, 0.0, 0.0, 0.0, 0.0, 0.0, 0.0, 0.0, 0.0, 0.0, 0.0, 0.0, 0.0, 0.0, 0.0, 0.0, 0.0, 0.0, 0.0, 0.0, 0.0, 0.0, 0.0, 0.0, 0.0, 0.0, 0.0, 0.0, 0.0, 0.0, 0.0, 0.0, 0.0, 0.0, 0.0, 0.0, 0.0, 0.0, 0.0, 0.0, 0.0, 0.0, 0.0, 0.0, 0.0, 0.0, 0.0, 0.0, 0.0, 0.0, 0.0, 0.0, 0.0, 0.0, 0.0, 0.0, 0.0, 0.0, 0.0, 0.0, 0.0, 0.0, 0.0, 0.0, 0.0, 0.0, 0.0, 0.0, 0.0, 0.0, 0.0, 0.0, 0.0, 0.0, 0.0, 0.0, 0.0, 0.0, 0.0, 0.0, 0.0, 0.0, 0.0, 0.0, 0.0, 0.0, 0.0, 0.0, 0.0, 0.0, 0.0, 0.0, 0.0, 0.0, 0.0, 0.0, 0.0, 0.0, 0.0, 0.0, 0.0, 0.0, 0.0, 0.0, 0.0, 0.0, 0.0, 0.0, 0.0, 0.0, 0.0, 0.0, 0.0, 0.0, 0.0, 0.0, 0.0, 0.0, 0.0, 0.0, 0.0, 0.0, 0.0, 0.0, 0.0, 0.0, 0.0, 0.0, 0.0, 0.0, 0.0, 0.0, 0.0, 0.0, 0.0, 0.0, 0.0, 0.0, 0.0, 0.0, 0.0, 0.0, 0.0, 0.0, 0.0, 0.0, 0.0, 0.0, 0.0, 0.0, 0.0, 0.0, 0.0, 0.0, 0.0, 0.0, 0.0, 0.0, 0.0, 0.0, 0.0, 0.0, 0.0, 0.0, 0.0, 0.0, 0.0, 0.0, 0.0, 0.0, 0.0, 0.0, 0.0, 0.0, 0.0, 0.0, 0.0, 0.0, 0.0, 0.0, 0.0, 0.0, 0.0, 0.0, 0.0, 0.0, 0.0, 0.0, 0.0, 0.0, 0.0, 0.0, 0.0, 0.0, 0.0, 0.0, 0.0, 0.0, 0.0, 0.0, 0.0, 0.0, 0.0, 0.0, 0.0, 0.0, 0.0, 0.0, 0.0, 0.0, 0.0, 0.0, 0.0, 0.0, 0.0, 0.0, 0.0, 0.0, 0.0, 0.0, 0.0, 0.0, 0.0, 0.0, 0.0, 0.0, 0.0, 0.0, 0.0, 0.0, 0.0, 0.0, 0.0, 0.0, 0.0, 0.0, 0.0, 0.0, 0.0, 0.0, 0.0, 0.0, 0.0, 0.0, 0.0, 0.0, 0.0, 0.0, 0.0, 0.0, 0.0, 0.0, 0.0, 0.0, 0.0, 0.0, 0.0, 0.0, 0.0, 0.0, 0.0, 0.0, 0.0, 0.0, 0.0, 0.0, 0.0, 0.0, 0.0, 0.0, 0.0, 0.0, 0.0, 0.0, 0.0, 0.0, 0.0, 0.0, 0.0, 0.0, 0.0, 0.0, 0.0, 0.0, 0.0, 0.0, 0.0, 0.0, 0.0, 0.0, 0.0, 0.0, 0.0, 0.0, 0.0, 0.0, 0.0, 0.0, 0.0, 0.0, 0.0, 0.0, 0.0, 0.0, 0.0, 0.0, 0.0, 0.0, 0.0, 0.0, 0.0, 0.0, 0.0, 0.0, 0.0, 0.0, 0.0, 0.0, 0.0, 0.0, 0.0, 0.0, 0.0, 0.0, 0.0, 0.0, 0.0, 0.0, 0.0, 0.0, 0.0, 0.0, 0.0, 0.0, 0.0, 0.0, 0.0, 0.0, 0.0, 0.0, 0.0, 0.0, 0.0, 0.0, 0.0, 0.0, 0.0, 0.0, 0.0, 0.0, 0.0, 0.0, 0.0, 0.0, 0.0, 0.0, 0.0, 0.0, 0.0, 0.0, 0.0, 0.0, 0.0, 0.0, 0.0, 0.0, 0.0, 0.0, 0.0, 0.0, 0.0, 0.0, 0.0, 0.0, 0.0, 0.0, 0.0, 0.0, 0.0, 0.0, 0.0, 0.0, 0.0, 0.0, 0.0],
  "Shots": 4096,
  "Size": 7,
  "Total Algorithm duration [s]": 1587.012,
  "Total Classic duration [s]": 809.5131880397796,
  "Total Quantum duration [s]": 777.4988119602203
}
