{
  "Depth": 149.0,
  "Job durations [ms]": [14.166831970214844, 13.99683952331543, 13.954401016235352, 13.927936553955078, 13.887166976928711, 14.177799224853516, 13.992786407470703, 14.087200164794922, 13.670206069946289, 14.064311981201172, 14.122247695922852, 14.129638671875, 14.006853103637695, 14.164447784423828, 14.123916625976562, 13.973474502563477, 13.989686965942383, 14.072656631469727, 14.12200927734375, 14.152288436889648, 13.784408569335938, 13.90695571899414, 14.159917831420898, 14.174699783325195, 13.901472091674805, 13.714075088500977, 14.001846313476562, 13.893842697143555, 14.014482498168945, 13.78774642944336, 13.819456100463867, 14.123678207397461, 13.953208923339844, 13.67497444152832, 13.639688491821289, 13.966083526611328, 14.14942741394043, 14.089345932006836, 13.902425765991211, 13.822555541992188, 13.78941535949707, 13.630390167236328, 13.730764389038086, 14.154911041259766, 14.201164245605469, 14.100790023803711, 13.833999633789062, 14.05024528503418, 14.13583755493164, 13.94343376159668, 14.163970947265625, 14.190196990966797, 13.885736465454102, 14.178037643432617, 13.897180557250977, 13.996124267578125, 14.105796813964844, 13.763904571533203, 14.093399047851562, 14.10055160522461, 13.902902603149414, 13.582229614257812, 13.876676559448242, 14.115333557128906, 14.1143798828125, 13.908147811889648, 13.742685317993164, 14.265298843383789, 14.211654663085938, 14.049053192138672, 14.123201370239258, 13.891458511352539, 14.026641845703125, 14.069795608520508, 13.923883438110352, 13.97848129272461, 13.988018035888672, 14.226675033569336, 13.981103897094727, 13.484716415405273, 13.972997665405273, 14.005661010742188, 13.767480850219727, 14.109611511230469, 13.992071151733398, 13.886690139770508, 14.001607894897461, 14.00899887084961, 14.050006866455078, 13.570785522460938, 13.993501663208008, 14.086246490478516, 14.079093933105469, 14.507293701171875, 13.914823532104492, 14.007091522216797, 14.115571975708008, 13.960838317871094, 14.15705680847168, 14.032602310180664, 13.863563537597656, 14.229059219360352],
  "Optimizer durations [ms]": [186.635, 230.008, 190.021, 186.881, 189.347, 229.171, 185.933, 188.263, 187.521, 226.386, 188.146, 187.442, 187.766, 227.728, 189.676, 186.116, 227.614, 189.053, 187.077, 189.808, 230.521, 186.372, 189.932, 189.817, 226.226, 187.193, 188.596, 186.0, 227.465, 186.573, 185.69, 226.425, 189.686, 186.298, 187.707, 229.169, 186.357, 188.274, 188.919, 226.579, 188.409, 187.257, 186.219, 225.844, 188.824, 186.125, 227.25, 188.122, 188.999, 188.7, 231.366, 186.91, 188.354, 189.439, 227.275, 190.04, 188.14, 186.429, 225.859, 191.401, 186.322, 226.596, 189.201, 188.675, 189.846, 228.79, 186.069, 188.169, 189.379, 228.648, 189.551, 187.156, 186.295, 229.101, 188.861, 186.661, 228.234, 188.778, 187.951, 189.668, 228.649, 186.244, 188.336, 189.507, 226.593, 189.571, 188.036, 186.333, 228.063, 187.789, 186.996, 227.777, 188.259, 187.103, 190.068, 230.822, 186.44, 188.072, 188.704, 227.477, 188.874, 187.147],
  "Optimizer iterations": 102,
  "Qubits": 8,
  "Total Algorithm duration [s]": 20.256,
  "Total Classic duration [s]": 18.829016166687012,
  "Total Quantum duration [s]": 1.4269838333129883,
  "Expectation Value": -8.9326171875,
  "Optimal Expectation Value": -12.0,
  "Optimizer params": [0.76569181181004, 0.7798545836667634, 0.640968186123642, 0.6533407472142899, 0.14634010557469307, 0.5643028702447008],
  "QPU": "3010002",
  "Problem": "MCP",
  "Size": 8,
  "P": 3,
  "Shots": 4096
}