{
  "Circuit execution durations [ms]": [62.0, 80.0, 65.0, 61.0, 61.0, 61.0, 65.0, 58.0, 75.0, 80.0, 66.0, 79.0, 76.0, 66.0, 47.0, 83.0, 72.0, 69.0, 58.0, 85.0, 78.0, 82.0, 64.0, 56.0, 76.0, 78.0, 63.0, 81.0, 82.0, 54.0, 68.0, 98.0, 80.0, 82.0, 61.0, 80.0, 65.0, 64.0, 74.0, 78.0, 59.0, 83.0, 68.0, 60.0, 78.0, 53.0, 57.0, 58.0, 63.0, 82.0, 76.0, 68.0, 63.0, 78.0, 66.0, 58.0, 77.0, 66.0, 66.0, 60.0, 62.0, 66.0, 62.0, 78.0, 107.0, 77.0, 75.0, 67.0, 54.0, 78.0, 62.0, 77.0, 96.0, 58.0, 75.0, 57.0, 64.0, 76.0, 73.0, 72.0, 77.0, 62.0, 63.0, 74.0, 59.0, 58.0, 63.0, 76.0, 69.0, 85.0, 76.0, 68.0, 91.0, 71.0, 66.0, 63.0, 63.0, 84.0, 79.0, 85.0, 64.0, 50.0],
  "Depth": 185.0,
  "Expectation Value": -12.3349609375,
  "Optimal Expectation Value": -14.0,
  "Optimizer durations [ms]": [6280.294, 6216.002, 6375.565, 6335.15, 6383.791, 6608.152, 6242.287, 6349.499, 6350.887, 6546.762, 6361.536, 6436.766, 6424.644, 6271.295, 6354.148, 6419.848, 6528.661, 5981.105, 6313.954, 6114.607, 6393.239, 6153.454, 6016.148, 6507.917, 6301.73, 6498.238, 6452.354, 6536.488, 6160.092, 6404.707, 6597.034, 6299.686, 6246.547, 6334.667, 6375.957, 6393.958, 6338.238, 6456.735, 6549.466, 6350.939, 6226.627, 6569.18, 6127.684, 6014.56, 6501.206, 6295.012, 6192.19, 6352.125, 6417.771, 6493.582, 6461.532, 6553.127, 6229.808, 6348.186, 6083.513, 6509.432, 6294.118, 6514.549, 6342.692, 6548.845, 6279.684, 6360.333, 6198.236, 6243.907, 6088.502, 6618.968, 6245.023, 6355.9, 6342.164, 6246.982, 6095.333, 11825.375, 6191.797, 6053.076, 6447.896, 6494.014, 6340.47, 6226.476, 6476.221, 6046.288, 5983.868, 6512.678, 6471.334, 6338.861, 6182.114, 6605.082, 6123.008, 6133.942, 6115.089, 6307.946, 6323.85, 6473.546, 5956.626, 6383.463, 5907.278, 6532.763, 6454.482, 6330.105, 6420.422, 6354.323, 6279.993, 6206.674],
  "Optimizer iterations": 102,
  "Optimizer params": [0.6152656319369616, 0.8404463338551282, 0.8145629411943317, 0.4978984813516283, 0.6838006499754261, 0.08726425678161868],
  "P": 3,
  "Problem": "MCP",
  "QJob durations [ms]": [6216.626882553101, 6075.9382247924805, 6302.391529083252, 6259.591579437256, 6314.815998077393, 6469.645738601685, 6176.905632019043, 6277.703046798706, 6286.371231079102, 6472.5024700164795, 6285.563230514526, 6365.608692169189, 6273.715972900391, 6191.866397857666, 6278.764247894287, 6341.232776641846, 6365.549087524414, 5914.395809173584, 6252.161502838135, 6049.159288406372, 6326.040506362915, 6084.505558013916, 5951.705694198608, 6375.275135040283, 6239.138603210449, 6436.792373657227, 6390.303134918213, 6399.542570114136, 6084.799528121948, 6342.027425765991, 6535.048484802246, 6237.144470214844, 6182.945728302002, 6271.845102310181, 6238.77215385437, 6331.24566078186, 6276.214599609375, 6391.774892807007, 6410.499095916748, 6288.957595825195, 6161.901235580444, 6499.5362758636475, 6045.365571975708, 5951.416492462158, 6423.583745956421, 6160.279989242554, 6130.420684814453, 6289.8736000061035, 6355.9019565582275, 6356.5356731414795, 6374.725341796875, 6490.538835525513, 6166.830539703369, 6274.082660675049, 6018.576622009277, 6446.830034255981, 6143.613815307617, 6451.462745666504, 6261.629104614258, 6479.496002197266, 6143.740653991699, 6290.136098861694, 6116.198778152466, 6173.185586929321, 6024.540662765503, 6544.597148895264, 6184.089183807373, 6225.27551651001, 6277.333974838257, 6181.83970451355, 6032.9601764678955, 11660.929203033447, 6123.562335968018, 5979.669809341431, 6379.160165786743, 6423.921346664429, 6278.491735458374, 6152.857065200806, 6339.575290679932, 5972.879409790039, 5918.470859527588, 6450.76322555542, 6337.346792221069, 6275.368928909302, 6118.099689483643, 6540.257215499878, 6059.134960174561, 6064.620494842529, 6052.586078643799, 6124.090194702148, 6261.326313018799, 6402.104139328003, 5891.036510467529, 6244.596481323242, 5845.149040222168, 6470.381498336792, 6392.7881717681885, 6267.0440673828125, 6329.865455627441, 6290.034055709839, 6129.274845123291, 6135.995388031006],
  "QPU": "10000001",
  "Qubits": 10,
  "Queue durations [ms]": [0.0, 0.0, 0.0, 0.0, 0.0, 0.0, 0.0, 0.0, 0.0, 0.0, 0.0, 0.0, 0.0, 0.0, 0.0, 0.0, 0.0, 0.0, 0.0, 0.0, 0.0, 0.0, 0.0, 0.0, 0.0, 0.0, 0.0, 0.0, 0.0, 0.0, 0.0, 0.0, 0.0, 0.0, 0.0, 0.0, 0.0, 0.0, 0.0, 0.0, 0.0, 0.0, 0.0, 0.0, 0.0, 0.0, 0.0, 0.0, 0.0, 0.0, 0.0, 0.0, 0.0, 0.0, 0.0, 0.0, 0.0, 0.0, 0.0, 0.0, 0.0, 0.0, 0.0, 0.0, 0.0, 0.0, 0.0, 0.0, 0.0, 0.0, 0.0, 0.0, 0.0, 0.0, 0.0, 0.0, 0.0, 0.0, 0.0, 0.0, 0.0, 0.0, 0.0, 0.0, 0.0, 0.0, 0.0, 0.0, 0.0, 0.0, 0.0, 0.0, 0.0, 0.0, 0.0, 0.0, 0.0, 0.0, 0.0, 0.0, 0.0, 0.0],
  "Shots": 4096,
  "Size": 10,
  "Total Algorithm duration [s]": 650.912,
  "Total Classic duration [s]": 8.35903316688541,
  "Total Quantum duration [s]": 642.5529668331146
}
