{
  "Depth": 203.0,
  "Job durations [ms]": [22.912819000000002, 52.667157, 23.022686, 22.596796, 15.836108000000001, 22.625868, 15.892313000000001, 22.399409000000002, 22.738661, 15.893313000000003, 34.767637, 22.772678000000003, 16.221809, 22.979212000000004, 22.771639, 22.563591000000002, 34.405521, 23.061399, 23.384925000000003, 17.483695, 34.06786100000001, 22.732008, 33.868661, 23.329954, 17.587676, 23.345006, 22.444836000000002, 22.931323, 28.197225000000003, 17.194823000000003, 17.547918000000003, 22.897919, 15.867193000000002, 34.434946000000004, 22.787589, 33.435429, 22.640573, 34.053070000000005, 22.597787, 34.170165000000004, 33.682437, 17.701807, 15.941245, 16.199443000000002, 28.277231000000004, 23.125948, 23.051047, 22.848409, 17.320318, 34.872608, 33.868691, 33.812433000000006, 22.784653000000002, 28.253205000000005, 22.656346, 17.779168000000002, 22.814979, 22.65005, 22.657244, 34.237196000000004, 15.901013000000003, 16.014794000000002, 34.091758999999996, 34.071798, 33.969072000000004, 16.158903000000002, 15.739006999999999, 22.907041000000003, 30.935474, 15.856916000000002, 34.013018, 34.206143000000004, 33.82728, 22.926164000000004, 22.770897, 33.797993000000005, 22.696702000000002, 23.497571, 22.865536000000002, 28.405196, 34.085235000000004, 34.708026000000004, 28.255145000000002, 17.729189, 22.629905, 41.532579, 35.011369, 48.265519, 15.884115000000001, 22.598562, 47.900258, 23.442918, 19.152564, 17.64259, 48.41906300000001, 69.49897800000001, 28.169557, 51.473848000000004, 33.890064, 34.53664, 15.739953000000002],
  "Optimizer durations [ms]": [36466.464, 7549.649, 77117.99, 8797.403, 9932.754, 9314.311, 72316.883, 9155.718, 73720.636, 10969.809, 11213.984, 47641.754, 70519.025, 8393.457, 8540.993, 14846.18, 10049.862, 7687.59, 6680.635, 7938.898, 68104.384, 7129.418, 8141.765, 8557.44, 9358.537, 70269.578, 9505.477, 71182.68, 9040.286, 9041.343, 10166.051, 7887.31, 7914.76, 114773.333, 10216.184, 22707.475, 7698.662, 8582.947, 133360.711, 9408.981, 10711.523, 7456.035, 7624.119, 6474.049, 8014.652, 10585.343, 39782.134, 13925.121, 103619.231, 67114.709, 62513.412, 8405.69, 8877.479, 7765.518, 73240.409, 7548.442, 22661.623, 130092.236, 9114.993, 8702.964, 8852.036, 100432.966, 71545.625, 73483.294, 8657.103, 69629.05, 8148.348, 7558.317, 37904.955, 10004.194, 7380.376, 34883.554, 6773.007, 8087.707, 9367.035, 68133.149, 9414.703, 8851.161, 71631.252, 17811.54, 9453.195, 7415.488, 72713.787, 71527.514, 70810.305, 35152.152, 8242.805, 11405.728, 8007.431, 111023.639, 75359.111, 10041.819, 9881.514, 63806.867, 8726.207, 103949.458, 64080.148, 37464.858, 10739.599, 8790.274, 6817.76],
  "Optimizer iterations": 101,
  "Qubits": 11,
  "Total Algorithm duration [s]": 3170.09,
  "Total Classic duration [s]": 3167.40711799,
  "Total Quantum duration [s]": 2.6828820099999997,
  "Expectation Value": -13.75146484375,
  "Optimal Expectation Value": -16.0,
  "Optimizer params": [0.9952275755356461, 0.44685490834594305, 0.4655731134071333, 0.33651722373401743, 0.6182245016613158, 0.1429427445339012],
  "QPU": "4010001",
  "Problem": "MCP",
  "Size": 11,
  "P": 3,
  "Shots": 4096
}