{
  "Circuit execution durations [ms]": [52.93846130371094, 52.61945724487305, 52.858591079711914, 52.916526794433594, 52.94227600097656, 53.1001091003418, 52.910804748535156, 52.97231674194336, 52.916765213012695, 52.64592170715332, 52.84571647644043, 52.98185348510742, 53.11083793640137, 53.38144302368164, 52.85286903381348, 52.99782752990723, 52.96921730041504, 53.16329002380371, 52.96587944030762, 52.89101600646973, 53.058624267578125, 53.267717361450195, 53.16734313964844, 52.86002159118652, 53.252220153808594, 52.89769172668457, 53.34639549255371, 53.15685272216797, 52.97231674194336, 52.950143814086914, 53.076744079589844, 53.156137466430664, 52.95276641845703, 52.97446250915527, 52.76846885681152, 53.06291580200195, 53.05957794189453, 52.8867244720459, 53.099632263183594, 53.031206130981445, 53.148746490478516, 53.0393123626709, 52.97589302062988, 53.11274528503418, 53.13920974731445, 52.87623405456543, 53.02286148071289, 52.974700927734375, 52.87742614746094, 52.84857749938965, 52.904367446899414, 52.6731014251709, 52.860260009765625, 52.83045768737793, 53.25508117675781, 53.2078742980957, 53.03311347961426, 52.88887023925781, 52.805185317993164, 53.04908752441406, 53.57837677001953, 53.21860313415527, 53.061723709106445, 52.330732345581055, 53.24602127075195, 53.168535232543945, 52.9634952545166, 52.91557312011719, 52.7951717376709, 52.91914939880371, 53.133487701416016, 52.95753479003906, 52.941083908081055, 52.89053916931152, 53.17378044128418, 52.86002159118652, 53.05361747741699, 53.147077560424805, 53.198814392089844],
  "Depth": 682.0,
  "Expectation Value": -2.82470703125,
  "Optimal Expectation Value": -7.0,
  "Optimizer durations [ms]": [687.141, 596.75, 686.707, 680.409, 683.556, 596.208, 686.839, 684.911, 687.724, 601.571, 682.579, 687.188, 683.132, 602.86, 683.625, 680.083, 679.916, 692.408, 599.957, 687.865, 682.728, 682.274, 688.61, 603.733, 689.973, 682.302, 684.24, 599.074, 684.675, 680.549, 682.441, 598.084, 680.146, 678.41, 679.348, 686.114, 599.321, 682.996, 676.53, 681.504, 683.621, 596.16, 687.183, 682.027, 686.548, 596.5, 684.019, 678.689, 681.52, 597.581, 681.134, 677.254, 683.694, 688.042, 598.864, 687.605, 679.52, 682.2, 687.158, 598.505, 689.245, 687.558, 686.919, 596.347, 683.827, 681.549, 681.63, 602.067, 681.66, 676.01, 682.293, 688.552, 598.095, 686.851, 680.231, 680.335, 684.951, 597.825, 687.238],
  "Optimizer iterations": 79,
  "Optimizer params": [0.12572657676230772, 0.8034561652679996, 0.021538202183189598, 0.8376425420717589, 0.1286296188233394, 0.17493033144414835],
  "P": 3,
  "Problem": "DSP",
  "QJob durations [ms]": [541.1334037780762, 452.37278938293457, 453.06396484375, 453.2020092010498, 538.5985374450684, 451.57313346862793, 452.74996757507324, 456.9671154022217, 541.9394969940186, 456.3310146331787, 451.2670040130615, 458.40001106262207, 453.9780616760254, 457.69810676574707, 454.79393005371094, 455.28626441955566, 451.48181915283203, 546.8053817749023, 454.2829990386963, 456.1045169830322, 455.7986259460449, 453.63450050354004, 543.266773223877, 458.29272270202637, 453.4792900085449, 454.6058177947998, 539.6549701690674, 454.4486999511719, 452.9578685760498, 453.80568504333496, 454.64396476745605, 453.6633491516113, 452.41594314575195, 453.8581371307373, 451.11560821533203, 541.1217212677002, 454.58459854125977, 453.0651569366455, 451.3554573059082, 453.67431640625, 539.4675731658936, 451.4334201812744, 453.2761573791504, 453.52721214294434, 539.2711162567139, 451.88045501708984, 451.75814628601074, 452.0118236541748, 453.71556282043457, 452.78429985046387, 452.6047706604004, 452.6526927947998, 454.38075065612793, 542.8791046142578, 453.8547992706299, 455.41906356811523, 454.47278022766113, 454.20169830322266, 542.2177314758301, 452.90255546569824, 454.9102783203125, 457.3650360107422, 541.6824817657471, 452.38184928894043, 452.34060287475586, 454.4825553894043, 453.91154289245605, 457.20887184143066, 453.66954803466797, 452.2976875305176, 453.15027236938477, 544.060230255127, 453.43685150146484, 457.1504592895508, 454.41150665283203, 453.8435935974121, 539.7684574127197, 453.2201290130615, 453.0620574951172],
  "QPU": "3010008",
  "Qubits": 14,
  "Queue durations [ms]": [0.0, 0.0, 0.0, 0.0, 0.0, 0.0, 0.0, 0.0, 0.0, 0.0, 0.0, 0.0, 0.0, 0.0, 0.0, 0.0, 0.0, 0.0, 0.0, 0.0, 0.0, 0.0, 0.0, 0.0, 0.0, 0.0, 0.0, 0.0, 0.0, 0.0, 0.0, 0.0, 0.0, 0.0, 0.0, 0.0, 0.0, 0.0, 0.0, 0.0, 0.0, 0.0, 0.0, 0.0, 0.0, 0.0, 0.0, 0.0, 0.0, 0.0, 0.0, 0.0, 0.0, 0.0, 0.0, 0.0, 0.0, 0.0, 0.0, 0.0, 0.0, 0.0, 0.0, 0.0, 0.0, 0.0, 0.0, 0.0, 0.0, 0.0, 0.0, 0.0, 0.0, 0.0, 0.0, 0.0, 0.0, 0.0, 0.0],
  "Shots": 4096,
  "Size": 9,
  "Total Algorithm duration [s]": 52.485,
  "Total Classic duration [s]": 15.400461540222167,
  "Total Quantum duration [s]": 37.08453845977783
}
