{
  "Depth": 109.0,
  "Expectation Value": -1.9408602714538574,
  "Job durations [ms]": [0.7553, 0.8434999999999999, 0.7398, 1.0611, 0.8004, 0.7596999999999999, 0.8006000000000001, 0.7203, 0.7885, 0.78, 0.7161, 0.8287, 0.7396, 0.9673, 0.7491000000000001, 0.7681, 0.7545, 0.9863999999999999, 0.7092, 0.7977000000000001, 0.7212, 0.8348, 0.7854, 0.8489, 0.736, 1.0566, 1.0901, 0.7468, 0.7607, 0.7524, 0.7563, 0.804, 0.7434, 0.928, 0.8601000000000001, 1.0864, 0.7404999999999999, 0.7886, 0.798, 0.7643, 0.7414999999999999, 0.7335, 0.7649999999999999, 0.8061, 0.8104, 0.7314, 0.8279, 0.7309, 0.8589, 0.7385999999999999, 0.7631, 0.7392, 0.7321, 0.8073, 0.7259, 0.7599, 0.7475, 0.7491000000000001, 0.8054, 0.7404, 0.748, 0.7618, 0.7739, 0.748, 0.7533000000000001, 0.9219999999999999, 0.73, 0.737, 0.8124, 0.759, 0.7482, 0.7356, 0.7379, 0.7638, 0.7933, 0.7378, 0.7352, 0.7627, 0.8017000000000001, 0.7542, 0.7543, 0.7283, 0.7543, 0.7443000000000001, 0.8155, 0.7241, 0.7273, 0.7384, 0.8202, 0.7672, 0.8107, 0.7341, 0.7366999999999999, 0.7579, 0.7314, 0.7573000000000001, 0.7607999999999999, 0.7491000000000001, 0.8015, 0.7678, 0.7302, 0.7525999999999999, 0.731],
  "Optimal Expectation Value": -1.0,
  "Optimizer durations [ms]": [8.189, 8.808, 8.127, 10.991, 8.589, 7.998, 8.565, 14.162, 8.069, 8.349, 8.04, 8.816, 7.883, 10.178, 7.807, 9.262, 7.894, 15.456, 9.927, 8.266, 7.657, 9.12, 8.062, 9.059, 7.894, 10.952, 14.475, 7.788, 8.104, 7.983, 9.026, 8.435, 7.9, 9.625, 16.479, 16.091, 7.701, 8.494, 8.395, 8.321, 7.949, 7.695, 8.212, 8.394, 8.721, 7.638, 8.865, 8.049, 8.941, 7.808, 8.112, 8.006, 7.659, 8.735, 7.621, 8.054, 8.114, 7.749, 8.701, 7.754, 8.384, 8.059, 8.1, 8.307, 8.107, 9.554, 7.942, 7.877, 8.353, 8.233, 8.097, 7.856, 7.827, 8.314, 8.378, 7.73, 7.783, 8.257, 8.199, 8.276, 7.889, 8.008, 8.059, 7.667, 8.949, 7.927, 7.628, 7.997, 8.656, 8.169, 8.647, 7.929, 7.677, 8.415, 7.821, 8.071, 8.078, 8.05, 8.423, 7.952, 8.129, 7.919, 7.739],
  "Optimizer iterations": 103,
  "Optimizer params": [0.8183427605967057, 0.35116023642586924, 0.7738922482046209, 0.1751700374046317, 0.7093597742681641, 0.7410722745868122],
  "P": 3,
  "Problem": "MIS",
  "QPU": "7000000",
  "Qubits": 5,
  "Shots": 4096,
  "Size": 4,
  "Total Algorithm duration [s]": 0.889,
  "Total Classic duration [s]": 0.8083067,
  "Total Quantum duration [s]": 0.08069329999999998
}
