{
  "Depth": 8.5,
  "Job durations [ms]": [7.420182228088379, 7.282018661499023, 7.332444190979004, 7.283806800842285, 7.345438003540039, 7.518649101257324, 7.532596588134766, 7.307529449462891, 7.169961929321289, 7.452249526977539, 7.431387901306152, 7.344603538513184, 7.308483123779297, 7.302045822143555, 7.281064987182617, 7.393121719360352, 7.375121116638184, 7.346987724304199, 7.279157638549805, 7.29823112487793, 7.287740707397461, 7.406353950500488, 7.497072219848633, 7.346630096435547, 7.282137870788574, 7.341623306274414, 7.406473159790039, 7.586836814880371, 7.341623306274414, 7.400751113891602, 7.426261901855469, 7.409930229187012, 7.279038429260254, 7.366180419921875, 7.217168807983398, 7.275938987731934, 7.713913917541504, 7.474422454833984, 7.3364973068237305, 7.259368896484375, 7.171750068664551, 7.120609283447266, 7.166385650634766, 7.358074188232422, 7.364630699157715, 7.40659236907959, 7.38680362701416, 7.396936416625977, 7.732510566711426, 7.362246513366699, 7.249593734741211, 7.660150527954102, 7.262825965881348, 7.277250289916992, 7.324457168579102, 7.268190383911133, 7.388710975646973, 7.23111629486084, 7.2525739669799805, 7.359027862548828, 7.200956344604492, 7.285714149475098, 7.833361625671387, 7.448077201843262, 7.271289825439453, 7.312178611755371, 7.45701789855957, 7.802724838256836, 7.351517677307129, 7.404685020446777, 7.429361343383789, 7.371425628662109, 7.290124893188477, 7.348537445068359, 7.335305213928223, 7.332563400268555, 7.311820983886719, 7.289290428161621, 7.332444190979004, 7.332801818847656, 7.412433624267578, 7.2966814041137695, 7.303714752197266, 7.294058799743652, 7.572770118713379, 7.33494758605957, 7.381319999694824, 7.2345733642578125, 7.278800010681152, 7.252335548400879, 7.220268249511719, 7.436990737915039, 7.454156875610352, 7.3348283767700195, 7.317781448364258, 7.398366928100586, 7.357120513916016, 7.275700569152832, 7.177829742431641, 7.174372673034668, 7.430791854858398, 7.525801658630371, 7.245779037475586, 7.457733154296875, 7.23576545715332, 7.265567779541016, 7.57443904876709, 7.421374320983887, 7.537722587585449, 7.315397262573242, 7.336735725402832, 7.344961166381836, 7.4318647384643555, 7.33029842376709, 7.486581802368164, 7.148146629333496, 7.353305816650391, 7.163643836975098, 7.3136091232299805, 7.229328155517578, 7.328391075134277, 7.304072380065918, 7.324576377868652, 7.323503494262695, 7.176995277404785, 7.370114326477051, 7.239341735839844, 7.27236270904541, 7.235169410705566, 7.163763046264648, 7.539868354797363, 7.211565971374512, 7.291913032531738, 7.675886154174805, 7.422804832458496, 7.5141191482543945, 7.576584815979004, 7.551908493041992, 7.372736930847168, 7.36689567565918, 7.394194602966309, 7.301926612854004, 7.519364356994629, 7.186412811279297, 7.237076759338379, 7.312893867492676, 7.280230522155762, 7.151961326599121, 7.483124732971191, 7.330656051635742, 7.303357124328613, 7.358670234680176, 7.666826248168945, 7.396817207336426, 7.30133056640625, 7.255911827087402],
  "Optimizer durations [ms]": [141.594, 189.736, 142.528, 142.926, 142.814, 198.518, 146.325, 140.005, 141.252, 195.603, 145.732, 143.256, 192.013, 142.75, 139.844, 140.504, 191.114, 146.596, 141.4, 142.103, 189.335, 139.372, 146.374, 144.872, 187.937, 139.761, 143.708, 140.564, 192.902, 145.051, 144.315, 196.982, 147.315, 142.312, 141.234, 196.108, 144.702, 144.747, 148.958, 190.133, 140.258, 139.459, 139.57, 193.459, 139.851, 143.78, 139.907, 191.0, 141.404, 143.333, 139.639, 193.6, 141.125, 142.549, 147.314, 190.989, 142.314, 139.245, 201.992, 144.472, 144.577, 146.143, 198.376, 142.723, 143.943, 146.158, 197.461, 142.849, 143.495, 140.317, 195.911, 144.683, 143.93, 145.255, 199.39, 142.833, 139.483, 142.865, 190.552, 141.645, 144.666, 195.798, 143.677, 144.894, 149.026, 195.91, 146.085, 142.738, 140.855, 188.923, 141.633, 144.11, 145.82, 194.237, 152.271, 144.825, 143.758, 191.943, 140.788, 139.534, 143.895, 206.893, 145.193, 141.839, 138.81, 191.207, 140.271, 145.769, 192.471, 143.311, 145.356, 150.627, 197.545, 145.965, 142.825, 139.548, 189.291, 140.283, 143.994, 143.84, 194.016, 141.319, 148.744, 145.774, 194.104, 141.235, 141.887, 139.674, 190.566, 145.046, 148.264, 197.058, 141.448, 144.185, 145.06, 194.826, 140.798, 143.62, 141.8, 197.985, 140.494, 143.815, 142.398, 192.163, 141.043, 140.771, 140.139, 189.47, 145.942, 147.739, 147.783, 196.051, 144.912, 142.331, 143.715, 201.721],
  "Optimizer iterations": 156,
  "Qubits": 3,
  "Total Algorithm duration [s]": 24.439,
  "Total Classic duration [s]": 23.291456092834473,
  "Total Quantum duration [s]": 1.1475439071655273,
  "Expectation Value": -3.3662109375,
  "Optimal Expectation Value": -3.4939591884613037,
  "Optimizer params": [0.5830673460925494, 0.9142912271227973, 0.4792225671993706, 0.541741855136933, 0.47152660915374617, 0.7789203519493056, 0.5349594977037591, 0.5498490884732409, 0.5477985532213311, 0.43031512402081473, 0.5240036508397746, 0.46302901599342705],
  "QPU": "3010002",
  "Problem": "IC",
  "Size": 3,
  "P": 0,
  "Shots": 4096
}