{
  "Depth": 32.0,
  "Job durations [ms]": [8.151385000000001, 6.344274, 8.080486, 6.020761, 6.284715, 6.070593, 5.763915000000001, 11.071531, 11.775425, 8.255082999999999, 6.482272000000001, 8.210678000000001, 6.4298530000000005, 6.054524000000001, 6.212328, 5.888823, 5.481199, 8.253103000000001, 5.5933790000000005, 6.5783510000000005, 5.827857000000001, 11.845209, 8.31737, 5.857723, 8.275557000000001, 5.629886000000001, 11.573118000000001, 6.253339, 5.8668700000000005, 6.091614000000001, 6.054183, 8.094039, 5.9019070000000005, 8.362631, 18.40412, 8.112113, 6.018515000000001, 5.9944880000000005, 8.1513, 5.736919, 5.766567, 5.906852000000001, 5.4103200000000005, 5.9151810000000005, 6.238354000000001, 6.3961250000000005, 5.951361, 5.908848000000001, 6.033098000000001, 6.318001, 7.972321000000001, 8.212361000000001, 6.053053, 6.087667000000001, 8.045523000000001, 6.090427000000001, 8.163656, 5.662904000000001, 7.963426000000001, 6.026588, 5.908409000000001, 8.116334000000002, 5.967294000000001, 8.509081, 8.084508000000001, 5.956262000000001, 5.693181, 6.312946000000001, 8.303143],
  "Optimizer durations [ms]": [95881.746, 66496.795, 71870.003, 9583.052, 8002.046, 72140.016, 10004.288, 8449.676, 7491.276, 12199.4, 7634.604, 8059.748, 11520.473, 7905.64, 36062.497, 8822.256, 7817.555, 7043.142, 7991.568, 69498.118, 8435.964, 8771.036, 68882.069, 9897.53, 99962.989, 9237.322, 161558.093, 62593.719, 62687.328, 7513.644, 118461.895, 14308.611, 8084.711, 7046.985, 6739.45, 8911.938, 8194.641, 35244.365, 74356.525, 8875.327, 7737.356, 7941.06, 6707.684, 10026.717, 5786.804, 6335.375, 9385.229, 6132.201, 21954.603, 6767.448, 9960.829, 6651.283, 5768.044, 7722.487, 33085.759, 14526.138, 9274.685, 7833.926, 6683.436, 6745.877, 7372.897, 8633.962, 6588.956, 71549.47, 8435.017, 8695.08, 7795.853, 6983.822, 8438.913],
  "Optimizer iterations": 69,
  "Qubits": 3,
  "Total Algorithm duration [s]": 1655.759,
  "Total Classic duration [s]": 1655.266654773,
  "Total Quantum duration [s]": 0.49234522699999994,
  "Expectation Value": -2.0,
  "Optimal Expectation Value": -2.0,
  "Optimizer params": [0.6965704805094711, 0.9849696786103799, 0.9300051113007067, 0.7908378406095752, 0.3456138375324392, 0.7241687607971686],
  "QPU": "4010001",
  "Problem": "MCP",
  "Size": 3,
  "P": 3,
  "Shots": 4096
}