{
  "Circuit execution durations [ms]": [0.20460000087041408, 0.20780000340892002, 0.22345000616041943, 0.20430000586202368, 0.20714999845949933, 0.2211500031989999, 0.20789999689441174, 0.20494999625952914, 0.2043999993475154, 0.17475000640843064, 0.21180000476306304, 0.25194999761879444, 0.21240000205580145, 0.20265000057406723, 0.20655000116676092, 0.20450000010896474, 0.21269999706419185, 0.20814999879803509, 0.20450000010896474, 0.2069000038318336, 0.17645000480115414, 0.23790000705048442, 0.294850004138425, 0.2078500037896447, 0.20814999879803509, 0.20500000391621143, 0.20139999833190814, 0.22090000129537657, 0.20075000065844506, 0.21129999367985874, 0.21410000044852495, 0.21540000307140872, 0.21055000252090394, 0.20909999875584617, 0.2061500053969212, 0.20399999630171806, 0.20480000239331275, 0.20950000180164352, 0.20315000438131392, 0.21415000082924962, 0.20244999905116856, 0.21040000137872994, 0.2156000045943074, 0.20745000074384734, 0.20104999566683546, 0.222250004298985, 0.2142000012099743, 0.20344999938970432, 0.2151000007870607, 0.2106000029016286, 0.19890000112354755, 0.2045500004896894, 0.2021000036620535, 0.20125000446569175, 0.2121500001521781, 0.21515000116778538, 0.21160000324016437, 0.2165000041713938, 0.20585000311257318, 0.2084500010823831, 0.21540000307140872, 0.20944999414496124, 0.20724999922094867, 0.207349999982398, 0.21915000979788601, 0.21114999981364235, 0.207199998840224, 0.22930000704945996, 0.20940000104019418, 0.20104999566683546, 0.20165000023553148, 0.20280000171624124, 0.21159999596420676, 0.20260000019334257, 0.2023999986704439, 0.20185000175843015, 0.20305000361986458, 0.2045500004896894, 0.20125000446569175, 0.2174500041292049, 0.21269999706419185, 0.20355000015115365, 0.20339999900897965, 0.20249999943189323, 0.20344999938970432, 0.2023999986704439, 0.20699999731732532, 0.2032999982475303, 0.20835000032093376, 0.20450000010896474, 0.20355000015115365, 0.2081500060739927, 0.3391499994904734, 0.20915000641252846, 0.20699999731732532, 0.2062499988824129, 0.20209999638609588, 0.21449999621836469, 0.2108000044245273, 0.20310000400058925, 0.20379999477881938, 0.20220000442350283, 0.2018999948631972, 0.20219999714754522, 0.20694999693660066, 0.20769999537151307, 0.20765000226674601, 0.2056500015896745, 0.20599999697878957, 0.20629999926313758, 0.2146499973605387, 0.2023999986704439, 0.20480000239331275, 0.20170000061625615, 0.20974999642930925, 0.20339999900897965, 0.2027000009547919, 0.20640000002458692, 0.2056500015896745, 0.19950000569224358, 0.1993000041693449, 0.19895000150427222, 0.20059999951627105, 0.20170000061625615, 0.21270000434014946, 0.2210000020568259, 0.2167999991797842, 0.2247500015073456, 0.20590000349329785, 0.21010000637033954, 0.2025499998126179, 0.21040000137872994, 0.20504999702097848, 0.20415000471984968, 0.20869999571004882, 0.20324999786680564, 0.2022499975282699, 0.2055000004475005, 0.20229999790899456, 0.2013000048464164, 0.21150000247871503, 0.20645000040531158, 0.19720000273082405, 0.21050000214017928, 0.21334999473765492, 0.2197499998146668, 0.20170000061625615, 0.20404999668244272, 0.2101499994751066, 0.20370000129332766, 0.2078500037896447, 0.203650000912603, 0.20305000361986458, 0.20175000099698082, 0.2011499964282848, 0.33585000346647575, 0.21025000023655593, 0.3634000022429973, 0.1945000039995648, 0.210749996767845, 0.20974999642930925, 0.19669999892357737, 0.20724999922094867, 0.2045500004896894, 0.2014499987126328, 0.21075000404380262, 0.2223999981652014, 0.21520000154851004, 0.2028499948210083, 0.23069999588187784, 0.20504999702097848, 0.20220000442350283, 0.20724999922094867, 0.20244999905116856, 0.20879999647149816, 0.2078500037896447, 0.20260000019334257, 0.2062499988824129, 0.21150000247871503, 0.20765000226674601, 0.21130000095581636, 0.20909999875584617, 0.20339999900897965, 0.203650000912603, 0.20585000311257318, 0.20414999744389206, 0.20140000560786575, 0.20330000552348793, 0.1995999991777353, 0.20575000235112384, 0.2027000009547919, 0.20645000040531158, 0.2091999995172955, 0.20404999668244272, 0.20175000099698082, 0.203800002054777, 0.2042499982053414, 0.21234999439911917, 0.20515000505838543, 0.20154999947408214, 0.2562000008765608, 0.21830000332556665, 0.20180000137770548, 0.20429999858606607, 0.2029999959631823, 0.20080000103916973, 0.20165000023553148, 0.20205000328132883, 0.20924999989802018, 0.2053499993053265, 0.20249999943189323, 0.21174999710638076, 0.20740000036312267, 0.21009999909438193, 0.20344999938970432, 0.3802499923040159, 0.20935000065946952, 0.21225000091362745, 0.20360000053187832, 0.2043999993475154, 0.2094999945256859, 0.21274999744491652, 0.20134999795118347, 0.203650000912603, 0.20134999795118347, 0.20289999520173296, 0.2052000054391101, 0.20110000332351774, 0.20064999989699572, 0.20134999795118347, 0.2135499962605536, 0.20774999575223774, 0.21374999778345227, 0.2191500025219284, 0.20879999647149816, 0.2031499971053563, 0.20419999782461673, 0.19939999765483662, 0.21610000112559646, 0.20634999964386225, 0.21594999998342246, 0.21194999862927943, 0.20650000078603625, 0.20319999748608097, 0.22110000281827524, 0.2086000022245571, 0.20039999799337238, 0.2119999990100041, 0.20765000226674601, 0.2008500014198944, 0.210599995625671, 0.2112500005750917, 0.20260000019334257, 0.20539999968605116, 0.20710000535473228, 0.2103000006172806, 0.2299499901710078, 0.21320000087143853, 0.2088999972329475, 0.20729999960167333, 0.21209999977145344, 0.20514999778242782, 0.20344999938970432, 0.20399999630171806, 0.206899996555876, 0.20385000243550166, 0.21160000324016437, 0.20670000230893493, 0.2056500015896745, 0.20134999795118347, 0.2022500048042275, 0.2019500025198795, 0.20864999532932416, 0.2135500035365112, 0.20330000552348793, 0.2045500004896894, 0.20824999955948442, 0.2094999945256859, 0.21720000222558156, 0.20400000357767567, 0.20679999579442665, 0.21749999723397195, 0.247049996687565, 0.20814999879803509, 0.20415000471984968, 0.21019999985583127, 0.2066000015474856, 0.21869999909540638, 0.20574999507516623, 0.20945000142091885, 0.20474999473663047, 0.20950000180164352, 0.2014499987126328, 0.20569999469444156, 0.20310000400058925, 0.20280000171624124, 0.20385000243550166, 0.19899999460903928, 0.2008500014198944, 0.2022500048042275, 0.20234999828971922, 0.2005499991355464, 0.2011499964282848, 0.20360000053187832, 0.20294999558245763, 0.2136999974027276, 0.207199998840224, 0.2027000009547919, 0.20190000213915482, 0.20190000213915482, 0.20035000488860533, 0.20979999681003392, 0.20389999554026872, 0.20665000192821026, 0.21019999985583127, 0.21079999714856967, 0.20529999892460182, 0.21564999769907445, 0.20244999905116856, 0.2008500014198944, 0.20324999786680564, 0.20765000226674601, 0.21019999985583127, 0.20125000446569175, 0.2026999936788343, 0.20404999668244272, 0.20244999905116856, 0.20740000036312267, 0.20780000340892002, 0.20575000235112384, 0.2069000038318336, 0.20775000302819535, 0.20914999913657084, 0.21304999972926453, 0.21194999862927943, 0.20244999905116856, 0.2298500039614737, 0.20249999943189323, 0.20500000391621143, 0.20960000256309286, 0.20799999765586108, 0.2015999998548068, 0.21505000040633604, 0.2111000067088753, 0.20914999913657084, 0.17810000281315297, 0.34235000202897936, 0.23720000899629667, 0.20879999647149816, 0.2049000031547621, 0.20960000256309286, 0.20485000277403742, 0.2131000001099892, 0.21964999905321747, 0.19839999731630087, 0.20619999850168824, 0.2151000007870607, 0.2019500025198795, 0.20945000142091885, 0.21135000133654103, 0.20460000087041408, 0.20375000167405233, 0.20770000264747068, 0.2049000031547621, 0.20134999795118347, 0.20044999837409705, 0.20434999896679074, 0.20974999642930925, 0.21254999592201784, 0.21114999981364235, 0.203650000912603, 0.2067500026896596, 0.1999000014620833, 0.20679999579442665, 0.20385000243550166, 0.20104999566683546, 0.20220000442350283, 0.20419999782461673, 0.21064999600639567, 0.20684999617515132, 0.20470000163186342, 0.2015999998548068, 0.20619999850168824, 0.20415000471984968, 0.21255000319797546, 0.21764999837614596, 0.21710000146413222, 0.2118499978678301, 0.21615000150632113, 0.20430000586202368, 0.20809999841731042, 0.20360000053187832, 0.24839999969117343, 0.20894999761367217, 0.21389999892562628, 0.20614999812096357, 0.21145000209799036, 0.20980000408599153, 0.20080000103916973, 0.21395000658230856, 0.20149999909335747, 0.20539999968605116, 0.20924999989802018, 0.20184999448247254, 0.20375000167405233, 0.20914999913657084, 0.20700000459328294],
  "Depth": 10.5,
  "Expectation Value": -4.454856872558594,
  "Optimal Expectation Value": -4.75877046585083,
  "Optimizer durations [ms]": [5.128, 5.171, 5.184, 8.368, 5.082, 5.605, 5.032, 5.298, 5.06, 17.703, 5.4, 5.631, 5.471, 5.042, 4.992, 8.147, 5.383, 5.615, 5.366, 5.171, 15.717, 10.096, 7.185, 5.177, 5.122, 5.164, 7.808, 5.196, 5.34, 5.041, 5.097, 5.502, 5.19, 5.303, 5.191, 5.096, 4.976, 5.118, 5.206, 5.18, 5.065, 5.288, 5.374, 5.251, 4.977, 5.17, 5.379, 5.12, 4.972, 5.352, 5.116, 5.098, 5.069, 4.956, 5.133, 5.333, 5.171, 5.392, 5.016, 5.138, 5.338, 5.159, 5.313, 5.267, 5.241, 5.369, 5.092, 5.437, 5.18, 5.016, 4.95, 4.95, 5.295, 4.976, 15.452, 4.867, 4.894, 5.136, 4.988, 5.161, 5.356, 5.129, 4.955, 5.014, 5.017, 5.046, 5.11, 5.006, 5.054, 5.378, 4.969, 5.127, 7.91, 5.103, 5.058, 5.134, 4.997, 5.249, 5.267, 5.046, 4.942, 4.886, 4.851, 5.147, 5.218, 5.096, 5.149, 5.249, 5.203, 5.082, 5.416, 5.08, 5.045, 5.057, 5.217, 5.067, 5.078, 5.066, 5.048, 4.998, 4.93, 4.903, 4.894, 4.964, 5.187, 5.261, 5.645, 5.498, 5.263, 5.219, 5.155, 5.227, 5.065, 5.05, 5.216, 5.076, 5.039, 4.997, 5.03, 4.991, 5.071, 5.181, 5.006, 5.199, 5.109, 5.536, 5.662, 5.115, 5.042, 5.274, 5.103, 5.113, 5.078, 5.099, 4.95, 7.489, 10.939, 12.502, 5.074, 5.289, 5.099, 5.687, 5.129, 5.113, 5.015, 5.064, 5.488, 5.516, 5.165, 5.731, 5.22, 5.053, 5.14, 5.01, 5.245, 5.164, 5.447, 5.086, 5.079, 5.083, 5.151, 5.45, 5.035, 4.971, 5.026, 5.109, 4.967, 4.974, 4.891, 5.028, 4.963, 5.268, 5.193, 5.155, 5.044, 5.002, 5.016, 5.286, 5.051, 5.056, 5.916, 5.271, 5.381, 5.027, 4.978, 5.026, 4.946, 5.023, 5.234, 5.197, 4.986, 5.303, 5.085, 5.244, 4.992, 8.124, 5.223, 5.481, 5.045, 5.036, 5.824, 4.971, 5.292, 5.176, 4.965, 4.901, 4.978, 4.929, 4.912, 5.027, 5.333, 5.035, 5.099, 5.442, 5.175, 5.135, 5.035, 5.08, 5.29, 5.15, 5.276, 5.223, 5.209, 5.034, 5.312, 5.007, 5.116, 5.129, 5.277, 4.997, 5.056, 5.366, 5.017, 5.055, 5.104, 5.268, 5.535, 5.62, 5.383, 5.183, 5.414, 5.146, 5.129, 15.921, 5.14, 5.124, 5.144, 5.068, 5.126, 5.249, 5.021, 4.982, 5.368, 5.459, 5.116, 5.007, 5.147, 5.222, 5.485, 5.022, 4.953, 5.465, 5.854, 5.017, 5.137, 5.527, 5.108, 5.35, 5.176, 5.385, 4.983, 5.129, 5.227, 5.121, 4.988, 4.887, 4.911, 4.873, 5.027, 5.035, 4.809, 5.064, 5.025, 4.939, 4.999, 5.266, 5.079, 4.9, 4.9, 4.869, 4.825, 5.1, 4.954, 4.995, 5.11, 5.18, 5.058, 5.098, 5.064, 5.127, 5.009, 5.222, 5.048, 5.377, 4.941, 5.007, 4.901, 5.005, 4.975, 5.364, 5.116, 5.226, 5.244, 5.123, 5.434, 5.174, 5.678, 4.978, 4.949, 5.133, 5.23, 5.032, 5.001, 5.233, 5.258, 9.148, 19.441, 6.162, 5.232, 5.065, 5.113, 5.013, 4.994, 5.441, 5.014, 5.188, 5.021, 5.273, 5.139, 5.247, 5.108, 5.112, 5.189, 4.992, 4.989, 4.927, 4.91, 5.011, 5.637, 5.314, 5.007, 5.12, 5.022, 5.057, 5.101, 5.144, 4.967, 4.99, 5.147, 5.164, 5.097, 5.036, 5.084, 5.074, 5.168, 5.225, 5.332, 5.111, 5.321, 5.224, 5.222, 5.097, 5.714, 5.177, 5.262, 5.118, 5.323, 5.243, 5.004, 5.172, 5.142, 5.249, 5.188, 5.091, 5.03, 8.463, 5.066],
  "Optimizer iterations": 407,
  "Optimizer params": [0.056601172592880424, 0.9952406906505175, 0.8855158749635546, 0.25704218390911826, 0.7722894002857064, 0.13989714965863895, 0.5791454158977377, 0.09766324241129334, 0.045878726155540395, 0.08451739279261965, 0.8178641060314642, 0.7082276141052181, 0.6351673161525421, 0.5519604527347961, 0.0663262037554048, 0.1591407837548811],
  "P": 0,
  "Problem": "IC",
  "QJob durations [ms]": [0.20460000087041408, 0.20780000340892002, 0.22345000616041943, 0.20430000586202368, 0.20714999845949933, 0.2211500031989999, 0.20789999689441174, 0.20494999625952914, 0.2043999993475154, 0.17475000640843064, 0.21180000476306304, 0.25194999761879444, 0.21240000205580145, 0.20265000057406723, 0.20655000116676092, 0.20450000010896474, 0.21269999706419185, 0.20814999879803509, 0.20450000010896474, 0.2069000038318336, 0.17645000480115414, 0.23790000705048442, 0.294850004138425, 0.2078500037896447, 0.20814999879803509, 0.20500000391621143, 0.20139999833190814, 0.22090000129537657, 0.20075000065844506, 0.21129999367985874, 0.21410000044852495, 0.21540000307140872, 0.21055000252090394, 0.20909999875584617, 0.2061500053969212, 0.20399999630171806, 0.20480000239331275, 0.20950000180164352, 0.20315000438131392, 0.21415000082924962, 0.20244999905116856, 0.21040000137872994, 0.2156000045943074, 0.20745000074384734, 0.20104999566683546, 0.222250004298985, 0.2142000012099743, 0.20344999938970432, 0.2151000007870607, 0.2106000029016286, 0.19890000112354755, 0.2045500004896894, 0.2021000036620535, 0.20125000446569175, 0.2121500001521781, 0.21515000116778538, 0.21160000324016437, 0.2165000041713938, 0.20585000311257318, 0.2084500010823831, 0.21540000307140872, 0.20944999414496124, 0.20724999922094867, 0.207349999982398, 0.21915000979788601, 0.21114999981364235, 0.207199998840224, 0.22930000704945996, 0.20940000104019418, 0.20104999566683546, 0.20165000023553148, 0.20280000171624124, 0.21159999596420676, 0.20260000019334257, 0.2023999986704439, 0.20185000175843015, 0.20305000361986458, 0.2045500004896894, 0.20125000446569175, 0.2174500041292049, 0.21269999706419185, 0.20355000015115365, 0.20339999900897965, 0.20249999943189323, 0.20344999938970432, 0.2023999986704439, 0.20699999731732532, 0.2032999982475303, 0.20835000032093376, 0.20450000010896474, 0.20355000015115365, 0.2081500060739927, 0.3391499994904734, 0.20915000641252846, 0.20699999731732532, 0.2062499988824129, 0.20209999638609588, 0.21449999621836469, 0.2108000044245273, 0.20310000400058925, 0.20379999477881938, 0.20220000442350283, 0.2018999948631972, 0.20219999714754522, 0.20694999693660066, 0.20769999537151307, 0.20765000226674601, 0.2056500015896745, 0.20599999697878957, 0.20629999926313758, 0.2146499973605387, 0.2023999986704439, 0.20480000239331275, 0.20170000061625615, 0.20974999642930925, 0.20339999900897965, 0.2027000009547919, 0.20640000002458692, 0.2056500015896745, 0.19950000569224358, 0.1993000041693449, 0.19895000150427222, 0.20059999951627105, 0.20170000061625615, 0.21270000434014946, 0.2210000020568259, 0.2167999991797842, 0.2247500015073456, 0.20590000349329785, 0.21010000637033954, 0.2025499998126179, 0.21040000137872994, 0.20504999702097848, 0.20415000471984968, 0.20869999571004882, 0.20324999786680564, 0.2022499975282699, 0.2055000004475005, 0.20229999790899456, 0.2013000048464164, 0.21150000247871503, 0.20645000040531158, 0.19720000273082405, 0.21050000214017928, 0.21334999473765492, 0.2197499998146668, 0.20170000061625615, 0.20404999668244272, 0.2101499994751066, 0.20370000129332766, 0.2078500037896447, 0.203650000912603, 0.20305000361986458, 0.20175000099698082, 0.2011499964282848, 0.33585000346647575, 0.21025000023655593, 0.3634000022429973, 0.1945000039995648, 0.210749996767845, 0.20974999642930925, 0.19669999892357737, 0.20724999922094867, 0.2045500004896894, 0.2014499987126328, 0.21075000404380262, 0.2223999981652014, 0.21520000154851004, 0.2028499948210083, 0.23069999588187784, 0.20504999702097848, 0.20220000442350283, 0.20724999922094867, 0.20244999905116856, 0.20879999647149816, 0.2078500037896447, 0.20260000019334257, 0.2062499988824129, 0.21150000247871503, 0.20765000226674601, 0.21130000095581636, 0.20909999875584617, 0.20339999900897965, 0.203650000912603, 0.20585000311257318, 0.20414999744389206, 0.20140000560786575, 0.20330000552348793, 0.1995999991777353, 0.20575000235112384, 0.2027000009547919, 0.20645000040531158, 0.2091999995172955, 0.20404999668244272, 0.20175000099698082, 0.203800002054777, 0.2042499982053414, 0.21234999439911917, 0.20515000505838543, 0.20154999947408214, 0.2562000008765608, 0.21830000332556665, 0.20180000137770548, 0.20429999858606607, 0.2029999959631823, 0.20080000103916973, 0.20165000023553148, 0.20205000328132883, 0.20924999989802018, 0.2053499993053265, 0.20249999943189323, 0.21174999710638076, 0.20740000036312267, 0.21009999909438193, 0.20344999938970432, 0.3802499923040159, 0.20935000065946952, 0.21225000091362745, 0.20360000053187832, 0.2043999993475154, 0.2094999945256859, 0.21274999744491652, 0.20134999795118347, 0.203650000912603, 0.20134999795118347, 0.20289999520173296, 0.2052000054391101, 0.20110000332351774, 0.20064999989699572, 0.20134999795118347, 0.2135499962605536, 0.20774999575223774, 0.21374999778345227, 0.2191500025219284, 0.20879999647149816, 0.2031499971053563, 0.20419999782461673, 0.19939999765483662, 0.21610000112559646, 0.20634999964386225, 0.21594999998342246, 0.21194999862927943, 0.20650000078603625, 0.20319999748608097, 0.22110000281827524, 0.2086000022245571, 0.20039999799337238, 0.2119999990100041, 0.20765000226674601, 0.2008500014198944, 0.210599995625671, 0.2112500005750917, 0.20260000019334257, 0.20539999968605116, 0.20710000535473228, 0.2103000006172806, 0.2299499901710078, 0.21320000087143853, 0.2088999972329475, 0.20729999960167333, 0.21209999977145344, 0.20514999778242782, 0.20344999938970432, 0.20399999630171806, 0.206899996555876, 0.20385000243550166, 0.21160000324016437, 0.20670000230893493, 0.2056500015896745, 0.20134999795118347, 0.2022500048042275, 0.2019500025198795, 0.20864999532932416, 0.2135500035365112, 0.20330000552348793, 0.2045500004896894, 0.20824999955948442, 0.2094999945256859, 0.21720000222558156, 0.20400000357767567, 0.20679999579442665, 0.21749999723397195, 0.247049996687565, 0.20814999879803509, 0.20415000471984968, 0.21019999985583127, 0.2066000015474856, 0.21869999909540638, 0.20574999507516623, 0.20945000142091885, 0.20474999473663047, 0.20950000180164352, 0.2014499987126328, 0.20569999469444156, 0.20310000400058925, 0.20280000171624124, 0.20385000243550166, 0.19899999460903928, 0.2008500014198944, 0.2022500048042275, 0.20234999828971922, 0.2005499991355464, 0.2011499964282848, 0.20360000053187832, 0.20294999558245763, 0.2136999974027276, 0.207199998840224, 0.2027000009547919, 0.20190000213915482, 0.20190000213915482, 0.20035000488860533, 0.20979999681003392, 0.20389999554026872, 0.20665000192821026, 0.21019999985583127, 0.21079999714856967, 0.20529999892460182, 0.21564999769907445, 0.20244999905116856, 0.2008500014198944, 0.20324999786680564, 0.20765000226674601, 0.21019999985583127, 0.20125000446569175, 0.2026999936788343, 0.20404999668244272, 0.20244999905116856, 0.20740000036312267, 0.20780000340892002, 0.20575000235112384, 0.2069000038318336, 0.20775000302819535, 0.20914999913657084, 0.21304999972926453, 0.21194999862927943, 0.20244999905116856, 0.2298500039614737, 0.20249999943189323, 0.20500000391621143, 0.20960000256309286, 0.20799999765586108, 0.2015999998548068, 0.21505000040633604, 0.2111000067088753, 0.20914999913657084, 0.17810000281315297, 0.34235000202897936, 0.23720000899629667, 0.20879999647149816, 0.2049000031547621, 0.20960000256309286, 0.20485000277403742, 0.2131000001099892, 0.21964999905321747, 0.19839999731630087, 0.20619999850168824, 0.2151000007870607, 0.2019500025198795, 0.20945000142091885, 0.21135000133654103, 0.20460000087041408, 0.20375000167405233, 0.20770000264747068, 0.2049000031547621, 0.20134999795118347, 0.20044999837409705, 0.20434999896679074, 0.20974999642930925, 0.21254999592201784, 0.21114999981364235, 0.203650000912603, 0.2067500026896596, 0.1999000014620833, 0.20679999579442665, 0.20385000243550166, 0.20104999566683546, 0.20220000442350283, 0.20419999782461673, 0.21064999600639567, 0.20684999617515132, 0.20470000163186342, 0.2015999998548068, 0.20619999850168824, 0.20415000471984968, 0.21255000319797546, 0.21764999837614596, 0.21710000146413222, 0.2118499978678301, 0.21615000150632113, 0.20430000586202368, 0.20809999841731042, 0.20360000053187832, 0.24839999969117343, 0.20894999761367217, 0.21389999892562628, 0.20614999812096357, 0.21145000209799036, 0.20980000408599153, 0.20080000103916973, 0.21395000658230856, 0.20149999909335747, 0.20539999968605116, 0.20924999989802018, 0.20184999448247254, 0.20375000167405233, 0.20914999913657084, 0.20700000459328294],
  "QPU": "7000000",
  "Qubits": 4,
  "Queue durations [ms]": [0.0, 0.0, 0.0, 0.0, 0.0, 0.0, 0.0, 0.0, 0.0, 0.0, 0.0, 0.0, 0.0, 0.0, 0.0, 0.0, 0.0, 0.0, 0.0, 0.0, 0.0, 0.0, 0.0, 0.0, 0.0, 0.0, 0.0, 0.0, 0.0, 0.0, 0.0, 0.0, 0.0, 0.0, 0.0, 0.0, 0.0, 0.0, 0.0, 0.0, 0.0, 0.0, 0.0, 0.0, 0.0, 0.0, 0.0, 0.0, 0.0, 0.0, 0.0, 0.0, 0.0, 0.0, 0.0, 0.0, 0.0, 0.0, 0.0, 0.0, 0.0, 0.0, 0.0, 0.0, 0.0, 0.0, 0.0, 0.0, 0.0, 0.0, 0.0, 0.0, 0.0, 0.0, 0.0, 0.0, 0.0, 0.0, 0.0, 0.0, 0.0, 0.0, 0.0, 0.0, 0.0, 0.0, 0.0, 0.0, 0.0, 0.0, 0.0, 0.0, 0.0, 0.0, 0.0, 0.0, 0.0, 0.0, 0.0, 0.0, 0.0, 0.0, 0.0, 0.0, 0.0, 0.0, 0.0, 0.0, 0.0, 0.0, 0.0, 0.0, 0.0, 0.0, 0.0, 0.0, 0.0, 0.0, 0.0, 0.0, 0.0, 0.0, 0.0, 0.0, 0.0, 0.0, 0.0, 0.0, 0.0, 0.0, 0.0, 0.0, 0.0, 0.0, 0.0, 0.0, 0.0, 0.0, 0.0, 0.0, 0.0, 0.0, 0.0, 0.0, 0.0, 0.0, 0.0, 0.0, 0.0, 0.0, 0.0, 0.0, 0.0, 0.0, 0.0, 0.0, 0.0, 0.0, 0.0, 0.0, 0.0, 0.0, 0.0, 0.0, 0.0, 0.0, 0.0, 0.0, 0.0, 0.0, 0.0, 0.0, 0.0, 0.0, 0.0, 0.0, 0.0, 0.0, 0.0, 0.0, 0.0, 0.0, 0.0, 0.0, 0.0, 0.0, 0.0, 0.0, 0.0, 0.0, 0.0, 0.0, 0.0, 0.0, 0.0, 0.0, 0.0, 0.0, 0.0, 0.0, 0.0, 0.0, 0.0, 0.0, 0.0, 0.0, 0.0, 0.0, 0.0, 0.0, 0.0, 0.0, 0.0, 0.0, 0.0, 0.0, 0.0, 0.0, 0.0, 0.0, 0.0, 0.0, 0.0, 0.0, 0.0, 0.0, 0.0, 0.0, 0.0, 0.0, 0.0, 0.0, 0.0, 0.0, 0.0, 0.0, 0.0, 0.0, 0.0, 0.0, 0.0, 0.0, 0.0, 0.0, 0.0, 0.0, 0.0, 0.0, 0.0, 0.0, 0.0, 0.0, 0.0, 0.0, 0.0, 0.0, 0.0, 0.0, 0.0, 0.0, 0.0, 0.0, 0.0, 0.0, 0.0, 0.0, 0.0, 0.0, 0.0, 0.0, 0.0, 0.0, 0.0, 0.0, 0.0, 0.0, 0.0, 0.0, 0.0, 0.0, 0.0, 0.0, 0.0, 0.0, 0.0, 0.0, 0.0, 0.0, 0.0, 0.0, 0.0, 0.0, 0.0, 0.0, 0.0, 0.0, 0.0, 0.0, 0.0, 0.0, 0.0, 0.0, 0.0, 0.0, 0.0, 0.0, 0.0, 0.0, 0.0, 0.0, 0.0, 0.0, 0.0, 0.0, 0.0, 0.0, 0.0, 0.0, 0.0, 0.0, 0.0, 0.0, 0.0, 0.0, 0.0, 0.0, 0.0, 0.0, 0.0, 0.0, 0.0, 0.0, 0.0, 0.0, 0.0, 0.0, 0.0, 0.0, 0.0, 0.0, 0.0, 0.0, 0.0, 0.0, 0.0, 0.0, 0.0, 0.0, 0.0, 0.0, 0.0, 0.0, 0.0, 0.0, 0.0, 0.0, 0.0, 0.0, 0.0, 0.0, 0.0, 0.0, 0.0, 0.0, 0.0, 0.0, 0.0, 0.0, 0.0, 0.0, 0.0, 0.0, 0.0, 0.0, 0.0, 0.0, 0.0, 0.0, 0.0, 0.0, 0.0, 0.0, 0.0, 0.0, 0.0, 0.0, 0.0, 0.0, 0.0, 0.0, 0.0, 0.0, 0.0, 0.0, 0.0, 0.0, 0.0, 0.0, 0.0, 0.0, 0.0, 0.0, 0.0, 0.0, 0.0, 0.0, 0.0],
  "Shots": 4096,
  "Size": 4,
  "Total Algorithm duration [s]": 2.2,
  "Total Classic duration [s]": 2.1147487498848934,
  "Total Quantum duration [s]": 0.08525125011510681
}
