{
  "Circuit execution durations [ms]": [0.21129999367985874, 0.21910000214120373, 0.21615000150632113, 0.21574999846052378, 0.221950002014637, 0.21350000315578654, 0.20605000463547185, 0.2101499994751066, 0.20234999828971922, 0.20870000298600644, 0.20529999892460182, 0.20014999608974904, 0.21135000133654103, 0.20245000632712618, 0.20229999790899456, 0.20545000006677583, 0.20140000560786575, 0.20170000061625615, 0.203650000912603, 0.20465000125113875, 0.2001999964704737, 0.22944999363971874, 0.21349999587982893, 0.20389999554026872, 0.21674999879905954, 0.20064999989699572, 0.21050000214017928, 0.21684999956050888, 0.20840000070165843, 0.20464999397518113, 0.20895000488962978, 0.20489999587880448, 0.20470000163186342, 0.2077999961329624, 0.21175000438233837, 0.2060999977402389, 0.20634999964386225, 0.21269999706419185, 0.20165000023553148, 0.20450000010896474, 0.20650000078603625, 0.2032999982475303, 0.21845000446774065, 0.20809999841731042, 0.2028499948210083, 0.21630000264849514, 0.21079999714856967, 0.20300000323913991, 0.20134999795118347, 0.2104500017594546, 0.20119999680900946, 0.22294999507721514, 0.2055000004475005, 0.2027000009547919, 0.21895000099902973, 0.20280000171624124, 0.20390000281622633, 0.20610000501619652, 0.2040999970631674, 0.2040999970631674, 0.20835000032093376, 0.2103000006172806, 0.22075000015320256, 0.17420000222045928, 0.2160500007448718, 0.22569999418919906, 0.20390000281622633, 0.23459999647457153, 0.20154999947408214, 0.21264999668346718, 0.2031499971053563, 0.20755000150529668, 0.20214999676682055, 0.21645000379066914, 0.20265000057406723, 0.20304999634390697, 0.2647500004968606, 0.18925000040326267, 0.3099999958067201, 0.20479999511735514, 0.20334999862825498, 0.2118499978678301, 0.20414999744389206, 0.21454999659908935, 0.21299999934853986, 0.203800002054777, 0.19954999879701063, 0.20824999955948442, 0.20295000285841525, 0.20914999913657084, 0.20404999668244272, 0.20984999719075859, 0.20500000391621143, 0.20554999355226755, 0.20260000019334257, 0.2125000028172508, 0.2090499983751215, 0.21410000044852495, 0.20605000463547185, 0.21240000205580145, 0.21099999867146835, 0.21114999981364235, 0.22789999638916925, 0.20260000019334257, 0.20909999875584617, 0.20385000243550166, 0.21050000214017928, 0.2121500001521781, 0.20695000421255827, 0.21225000091362745, 0.20229999790899456, 0.21004999871365726, 0.20940000104019418, 0.21035000099800527, 0.20840000070165843, 0.21515000116778538, 0.2115499955834821, 0.20684999617515132, 0.20665000192821026, 0.20980000408599153, 0.2101499994751066, 0.2015999998548068, 0.20780000340892002, 0.21725000260630623, 0.2042499982053414, 0.20149999909335747, 0.20414999744389206, 0.20330000552348793, 0.20180000137770548, 0.21329999435693026, 0.20280000171624124, 0.20375000167405233, 0.20244999905116856, 0.20444999972824007, 0.20865000260528177, 0.2125999963027425, 0.20205000328132883, 0.2097000033245422, 0.20264999329810962, 0.2043999993475154, 0.20349999977042899, 0.20295000285841525, 0.2074999938486144, 0.2025499998126179, 0.20229999790899456, 0.2029999959631823, 0.20289999520173296, 0.20760000188602135, 0.2125999963027425, 0.20375000167405233, 0.2810500009218231, 0.2055000004475005, 0.22035000438336283, 0.20319999748608097, 0.20235000556567684, 0.203950003196951, 0.20265000057406723, 0.21050000214017928, 0.21275000472087413, 0.21299999934853986, 0.2101499994751066, 0.21109999943291768, 0.2108000044245273, 0.2095500021823682, 0.21274999744491652, 0.20835000032093376, 0.20864999532932416, 0.20930000027874485, 0.20755000150529668, 0.2199000009568408, 0.21869999909540638, 0.20290000247769058, 0.2019500025198795, 0.2132500012521632, 0.2087499960907735, 0.20344999938970432, 0.20645000040531158, 0.20774999575223774, 0.21099999867146835, 0.2058000027318485, 0.21515000116778538, 0.2101499994751066, 0.20570000197039917, 0.2057999954558909, 0.20619999850168824, 0.21179999748710543, 0.20390000281622633, 0.19895000150427222, 0.20984999719075859, 0.20165000023553148, 0.20369999401737005, 0.22234999778447673, 0.2148000057786703, 0.207349999982398, 0.21094999829074368, 0.20495000353548676, 0.20419999782461673, 0.2235999927506782, 0.20229999790899456, 0.2009999952861108, 0.20619999850168824, 0.20334999862825498, 0.20205000328132883, 0.20295000285841525, 0.21159999596420676, 0.20995000522816554, 0.20909999875584617, 0.20770000264747068, 0.20154999947408214, 0.2032000047620386, 0.21415000082924962, 0.20805000531254336, 0.21135000133654103, 0.2095500021823682, 0.21235000167507678, 0.20280000171624124, 0.2097000033245422, 0.20399999630171806, 0.20214999676682055, 0.2131000001099892, 0.21179999748710543, 0.2146499973605387, 0.21455000387504697, 0.20850000146310776, 0.21874999947613105, 0.20385000243550166, 0.20244999905116856, 0.20495000353548676, 0.20814999879803509, 0.2117000040016137, 0.2103000006172806, 0.21075000404380262, 0.20729999960167333, 0.20214999676682055, 0.20290000247769058, 0.20724999922094867, 0.21114999981364235, 0.20185000175843015, 0.1999000014620833, 0.2115499955834821, 0.20884999685222283, 0.20475000201258808, 0.20914999913657084, 0.203800002054777, 0.20154999947408214, 0.2106000029016286, 0.21659999765688553, 0.2088999972329475, 0.20724999922094867, 0.20974999642930925, 0.18464999448042363, 0.20604999735951424, 0.20740000036312267, 0.21004999871365726, 0.2117000040016137, 0.20555000082822517, 0.21194999862927943, 0.20899999799439684, 0.2267500021844171, 0.20489999587880448, 0.20940000104019418, 0.20590000349329785, 0.21094999829074368, 0.20444999972824007, 0.2604999972390942, 0.2062499988824129, 0.20339999900897965, 0.2477000016369857, 0.21374999778345227, 0.1986499992199242, 0.20965000294381753, 0.21120000019436702, 0.21630000264849514, 0.23470000451197848, 0.2192999963881448, 0.2087500033667311, 0.24834999931044877, 0.20260000019334257, 0.20324999786680564, 0.3196499892510474, 0.21424999431474134, 0.24369999300688505, 0.20460000087041408, 0.20260000019334257, 0.2797499982989393, 0.16760000289650634, 0.2138499985449016, 0.20809999841731042, 0.2544999952078797, 0.20909999875584617, 0.20805000531254336, 0.3375000014784746, 0.20339999900897965, 0.2502000061213039, 0.2094999945256859, 0.20355000015115365, 0.27540000155568123, 0.35894999018637463, 0.2318499973625876, 0.25284999719588086, 0.21395000658230856, 0.21209999977145344, 0.19094999879598618, 0.20760000188602135, 0.2177499991375953, 0.26590000197757035, 0.20340000628493726, 0.22515000455314294, 0.23535000946139917, 0.3317499940749258, 0.3089500023634173, 0.20200000290060416, 0.2045500004896894, 0.20104999566683546, 0.20334999862825498, 0.21070000366307795, 0.20629999926313758, 0.20305000361986458, 0.20814999879803509, 0.20614999812096357, 0.2088999972329475, 0.20539999968605116, 0.2008500014198944, 0.20650000078603625, 0.20419999782461673],
  "Depth": 10.5,
  "Expectation Value": -4.695839881896973,
  "Optimal Expectation Value": -4.75877046585083,
  "Optimizer durations [ms]": [5.334, 5.097, 5.587, 5.278, 5.254, 5.517, 4.994, 5.091, 5.221, 5.209, 5.019, 4.987, 5.12, 5.125, 4.963, 5.072, 4.882, 5.079, 5.116, 4.995, 5.014, 5.536, 7.658, 5.025, 5.087, 5.303, 5.028, 5.54, 5.275, 5.016, 5.194, 5.072, 5.028, 5.226, 5.229, 5.079, 5.166, 5.303, 5.097, 5.013, 5.145, 5.055, 5.234, 5.241, 5.016, 5.067, 5.501, 5.015, 5.004, 5.042, 5.18, 5.342, 5.101, 5.051, 5.435, 5.026, 4.991, 5.342, 5.131, 5.035, 5.124, 5.198, 5.56, 12.775, 5.162, 5.579, 5.084, 5.473, 5.114, 5.335, 5.263, 5.126, 5.007, 5.23, 5.104, 4.997, 6.113, 21.923, 8.03, 5.23, 5.062, 5.227, 4.985, 5.086, 5.461, 5.101, 4.93, 5.118, 4.98, 5.013, 5.186, 5.135, 5.194, 5.055, 5.135, 5.076, 5.245, 5.111, 5.153, 5.173, 5.221, 5.151, 5.553, 5.291, 5.126, 5.066, 5.104, 5.06, 5.286, 5.191, 5.298, 4.991, 5.256, 5.115, 5.247, 5.411, 5.321, 5.25, 5.079, 4.999, 5.122, 5.096, 5.185, 5.316, 5.067, 4.998, 5.02, 5.009, 4.98, 5.162, 5.048, 5.194, 5.071, 5.031, 5.102, 5.12, 10.996, 5.201, 5.054, 5.038, 5.174, 5.018, 5.073, 4.98, 4.946, 4.996, 5.002, 5.186, 5.17, 5.136, 6.735, 4.987, 5.113, 5.242, 5.098, 5.109, 5.207, 5.118, 5.19, 5.166, 5.366, 5.039, 5.256, 5.277, 5.162, 5.511, 5.104, 5.106, 5.068, 5.379, 5.209, 5.175, 5.135, 5.118, 5.239, 5.002, 5.06, 5.077, 5.414, 5.09, 5.013, 5.16, 5.247, 5.163, 5.192, 5.289, 5.152, 5.06, 5.085, 5.13, 4.972, 5.115, 5.245, 5.045, 5.108, 5.107, 5.102, 5.292, 5.139, 5.109, 5.075, 4.991, 4.964, 5.064, 5.103, 5.138, 5.166, 5.097, 5.068, 5.006, 5.155, 5.226, 5.37, 5.175, 5.208, 5.234, 5.392, 5.139, 5.001, 5.231, 5.222, 5.194, 5.328, 5.169, 5.504, 5.041, 4.922, 5.039, 5.251, 5.245, 5.253, 5.034, 5.078, 5.326, 5.024, 5.125, 5.21, 5.142, 5.029, 5.157, 5.226, 5.068, 5.214, 4.939, 5.011, 4.971, 5.36, 5.248, 5.074, 5.3, 15.559, 5.093, 5.671, 5.143, 5.145, 5.066, 5.556, 5.266, 5.545, 5.094, 5.13, 5.118, 5.463, 5.169, 6.079, 7.037, 5.229, 5.774, 5.299, 5.419, 15.861, 5.945, 5.133, 5.992, 7.63, 5.237, 5.914, 5.103, 5.014, 7.27, 5.103, 5.79, 5.053, 5.121, 6.401, 15.326, 5.191, 5.333, 5.898, 5.346, 5.152, 7.328, 5.309, 5.629, 5.421, 5.094, 6.606, 18.139, 5.571, 6.255, 5.427, 5.124, 6.893, 5.094, 5.283, 6.43, 5.091, 5.427, 15.207, 11.234, 7.1, 5.117, 5.024, 5.377, 7.329, 5.286, 5.365, 5.036, 5.113, 5.065, 5.285, 5.146, 4.945, 5.074, 5.276],
  "Optimizer iterations": 325,
  "Optimizer params": [0.5739926220857401, 0.42802220107433364, 0.4250056112546491, 0.4873141970918623, 0.9105240232318362, 0.0263965279078379, 0.51552120784669, 0.604290623074316, 0.4659318659006235, 0.9471132312749218, 0.9523915247412482, 0.04075940724176449, 0.39882816790373404, 0.5055079884718654, 0.5125632310222218, 0.01588239492216422],
  "P": 0,
  "Problem": "IC",
  "QJob durations [ms]": [0.21129999367985874, 0.21910000214120373, 0.21615000150632113, 0.21574999846052378, 0.221950002014637, 0.21350000315578654, 0.20605000463547185, 0.2101499994751066, 0.20234999828971922, 0.20870000298600644, 0.20529999892460182, 0.20014999608974904, 0.21135000133654103, 0.20245000632712618, 0.20229999790899456, 0.20545000006677583, 0.20140000560786575, 0.20170000061625615, 0.203650000912603, 0.20465000125113875, 0.2001999964704737, 0.22944999363971874, 0.21349999587982893, 0.20389999554026872, 0.21674999879905954, 0.20064999989699572, 0.21050000214017928, 0.21684999956050888, 0.20840000070165843, 0.20464999397518113, 0.20895000488962978, 0.20489999587880448, 0.20470000163186342, 0.2077999961329624, 0.21175000438233837, 0.2060999977402389, 0.20634999964386225, 0.21269999706419185, 0.20165000023553148, 0.20450000010896474, 0.20650000078603625, 0.2032999982475303, 0.21845000446774065, 0.20809999841731042, 0.2028499948210083, 0.21630000264849514, 0.21079999714856967, 0.20300000323913991, 0.20134999795118347, 0.2104500017594546, 0.20119999680900946, 0.22294999507721514, 0.2055000004475005, 0.2027000009547919, 0.21895000099902973, 0.20280000171624124, 0.20390000281622633, 0.20610000501619652, 0.2040999970631674, 0.2040999970631674, 0.20835000032093376, 0.2103000006172806, 0.22075000015320256, 0.17420000222045928, 0.2160500007448718, 0.22569999418919906, 0.20390000281622633, 0.23459999647457153, 0.20154999947408214, 0.21264999668346718, 0.2031499971053563, 0.20755000150529668, 0.20214999676682055, 0.21645000379066914, 0.20265000057406723, 0.20304999634390697, 0.2647500004968606, 0.18925000040326267, 0.3099999958067201, 0.20479999511735514, 0.20334999862825498, 0.2118499978678301, 0.20414999744389206, 0.21454999659908935, 0.21299999934853986, 0.203800002054777, 0.19954999879701063, 0.20824999955948442, 0.20295000285841525, 0.20914999913657084, 0.20404999668244272, 0.20984999719075859, 0.20500000391621143, 0.20554999355226755, 0.20260000019334257, 0.2125000028172508, 0.2090499983751215, 0.21410000044852495, 0.20605000463547185, 0.21240000205580145, 0.21099999867146835, 0.21114999981364235, 0.22789999638916925, 0.20260000019334257, 0.20909999875584617, 0.20385000243550166, 0.21050000214017928, 0.2121500001521781, 0.20695000421255827, 0.21225000091362745, 0.20229999790899456, 0.21004999871365726, 0.20940000104019418, 0.21035000099800527, 0.20840000070165843, 0.21515000116778538, 0.2115499955834821, 0.20684999617515132, 0.20665000192821026, 0.20980000408599153, 0.2101499994751066, 0.2015999998548068, 0.20780000340892002, 0.21725000260630623, 0.2042499982053414, 0.20149999909335747, 0.20414999744389206, 0.20330000552348793, 0.20180000137770548, 0.21329999435693026, 0.20280000171624124, 0.20375000167405233, 0.20244999905116856, 0.20444999972824007, 0.20865000260528177, 0.2125999963027425, 0.20205000328132883, 0.2097000033245422, 0.20264999329810962, 0.2043999993475154, 0.20349999977042899, 0.20295000285841525, 0.2074999938486144, 0.2025499998126179, 0.20229999790899456, 0.2029999959631823, 0.20289999520173296, 0.20760000188602135, 0.2125999963027425, 0.20375000167405233, 0.2810500009218231, 0.2055000004475005, 0.22035000438336283, 0.20319999748608097, 0.20235000556567684, 0.203950003196951, 0.20265000057406723, 0.21050000214017928, 0.21275000472087413, 0.21299999934853986, 0.2101499994751066, 0.21109999943291768, 0.2108000044245273, 0.2095500021823682, 0.21274999744491652, 0.20835000032093376, 0.20864999532932416, 0.20930000027874485, 0.20755000150529668, 0.2199000009568408, 0.21869999909540638, 0.20290000247769058, 0.2019500025198795, 0.2132500012521632, 0.2087499960907735, 0.20344999938970432, 0.20645000040531158, 0.20774999575223774, 0.21099999867146835, 0.2058000027318485, 0.21515000116778538, 0.2101499994751066, 0.20570000197039917, 0.2057999954558909, 0.20619999850168824, 0.21179999748710543, 0.20390000281622633, 0.19895000150427222, 0.20984999719075859, 0.20165000023553148, 0.20369999401737005, 0.22234999778447673, 0.2148000057786703, 0.207349999982398, 0.21094999829074368, 0.20495000353548676, 0.20419999782461673, 0.2235999927506782, 0.20229999790899456, 0.2009999952861108, 0.20619999850168824, 0.20334999862825498, 0.20205000328132883, 0.20295000285841525, 0.21159999596420676, 0.20995000522816554, 0.20909999875584617, 0.20770000264747068, 0.20154999947408214, 0.2032000047620386, 0.21415000082924962, 0.20805000531254336, 0.21135000133654103, 0.2095500021823682, 0.21235000167507678, 0.20280000171624124, 0.2097000033245422, 0.20399999630171806, 0.20214999676682055, 0.2131000001099892, 0.21179999748710543, 0.2146499973605387, 0.21455000387504697, 0.20850000146310776, 0.21874999947613105, 0.20385000243550166, 0.20244999905116856, 0.20495000353548676, 0.20814999879803509, 0.2117000040016137, 0.2103000006172806, 0.21075000404380262, 0.20729999960167333, 0.20214999676682055, 0.20290000247769058, 0.20724999922094867, 0.21114999981364235, 0.20185000175843015, 0.1999000014620833, 0.2115499955834821, 0.20884999685222283, 0.20475000201258808, 0.20914999913657084, 0.203800002054777, 0.20154999947408214, 0.2106000029016286, 0.21659999765688553, 0.2088999972329475, 0.20724999922094867, 0.20974999642930925, 0.18464999448042363, 0.20604999735951424, 0.20740000036312267, 0.21004999871365726, 0.2117000040016137, 0.20555000082822517, 0.21194999862927943, 0.20899999799439684, 0.2267500021844171, 0.20489999587880448, 0.20940000104019418, 0.20590000349329785, 0.21094999829074368, 0.20444999972824007, 0.2604999972390942, 0.2062499988824129, 0.20339999900897965, 0.2477000016369857, 0.21374999778345227, 0.1986499992199242, 0.20965000294381753, 0.21120000019436702, 0.21630000264849514, 0.23470000451197848, 0.2192999963881448, 0.2087500033667311, 0.24834999931044877, 0.20260000019334257, 0.20324999786680564, 0.3196499892510474, 0.21424999431474134, 0.24369999300688505, 0.20460000087041408, 0.20260000019334257, 0.2797499982989393, 0.16760000289650634, 0.2138499985449016, 0.20809999841731042, 0.2544999952078797, 0.20909999875584617, 0.20805000531254336, 0.3375000014784746, 0.20339999900897965, 0.2502000061213039, 0.2094999945256859, 0.20355000015115365, 0.27540000155568123, 0.35894999018637463, 0.2318499973625876, 0.25284999719588086, 0.21395000658230856, 0.21209999977145344, 0.19094999879598618, 0.20760000188602135, 0.2177499991375953, 0.26590000197757035, 0.20340000628493726, 0.22515000455314294, 0.23535000946139917, 0.3317499940749258, 0.3089500023634173, 0.20200000290060416, 0.2045500004896894, 0.20104999566683546, 0.20334999862825498, 0.21070000366307795, 0.20629999926313758, 0.20305000361986458, 0.20814999879803509, 0.20614999812096357, 0.2088999972329475, 0.20539999968605116, 0.2008500014198944, 0.20650000078603625, 0.20419999782461673],
  "QPU": "7000000",
  "Qubits": 4,
  "Queue durations [ms]": [0.0, 0.0, 0.0, 0.0, 0.0, 0.0, 0.0, 0.0, 0.0, 0.0, 0.0, 0.0, 0.0, 0.0, 0.0, 0.0, 0.0, 0.0, 0.0, 0.0, 0.0, 0.0, 0.0, 0.0, 0.0, 0.0, 0.0, 0.0, 0.0, 0.0, 0.0, 0.0, 0.0, 0.0, 0.0, 0.0, 0.0, 0.0, 0.0, 0.0, 0.0, 0.0, 0.0, 0.0, 0.0, 0.0, 0.0, 0.0, 0.0, 0.0, 0.0, 0.0, 0.0, 0.0, 0.0, 0.0, 0.0, 0.0, 0.0, 0.0, 0.0, 0.0, 0.0, 0.0, 0.0, 0.0, 0.0, 0.0, 0.0, 0.0, 0.0, 0.0, 0.0, 0.0, 0.0, 0.0, 0.0, 0.0, 0.0, 0.0, 0.0, 0.0, 0.0, 0.0, 0.0, 0.0, 0.0, 0.0, 0.0, 0.0, 0.0, 0.0, 0.0, 0.0, 0.0, 0.0, 0.0, 0.0, 0.0, 0.0, 0.0, 0.0, 0.0, 0.0, 0.0, 0.0, 0.0, 0.0, 0.0, 0.0, 0.0, 0.0, 0.0, 0.0, 0.0, 0.0, 0.0, 0.0, 0.0, 0.0, 0.0, 0.0, 0.0, 0.0, 0.0, 0.0, 0.0, 0.0, 0.0, 0.0, 0.0, 0.0, 0.0, 0.0, 0.0, 0.0, 0.0, 0.0, 0.0, 0.0, 0.0, 0.0, 0.0, 0.0, 0.0, 0.0, 0.0, 0.0, 0.0, 0.0, 0.0, 0.0, 0.0, 0.0, 0.0, 0.0, 0.0, 0.0, 0.0, 0.0, 0.0, 0.0, 0.0, 0.0, 0.0, 0.0, 0.0, 0.0, 0.0, 0.0, 0.0, 0.0, 0.0, 0.0, 0.0, 0.0, 0.0, 0.0, 0.0, 0.0, 0.0, 0.0, 0.0, 0.0, 0.0, 0.0, 0.0, 0.0, 0.0, 0.0, 0.0, 0.0, 0.0, 0.0, 0.0, 0.0, 0.0, 0.0, 0.0, 0.0, 0.0, 0.0, 0.0, 0.0, 0.0, 0.0, 0.0, 0.0, 0.0, 0.0, 0.0, 0.0, 0.0, 0.0, 0.0, 0.0, 0.0, 0.0, 0.0, 0.0, 0.0, 0.0, 0.0, 0.0, 0.0, 0.0, 0.0, 0.0, 0.0, 0.0, 0.0, 0.0, 0.0, 0.0, 0.0, 0.0, 0.0, 0.0, 0.0, 0.0, 0.0, 0.0, 0.0, 0.0, 0.0, 0.0, 0.0, 0.0, 0.0, 0.0, 0.0, 0.0, 0.0, 0.0, 0.0, 0.0, 0.0, 0.0, 0.0, 0.0, 0.0, 0.0, 0.0, 0.0, 0.0, 0.0, 0.0, 0.0, 0.0, 0.0, 0.0, 0.0, 0.0, 0.0, 0.0, 0.0, 0.0, 0.0, 0.0, 0.0, 0.0, 0.0, 0.0, 0.0, 0.0, 0.0, 0.0, 0.0, 0.0, 0.0, 0.0, 0.0, 0.0, 0.0, 0.0, 0.0, 0.0, 0.0, 0.0, 0.0, 0.0, 0.0, 0.0, 0.0, 0.0, 0.0, 0.0, 0.0, 0.0, 0.0, 0.0, 0.0, 0.0, 0.0, 0.0, 0.0, 0.0, 0.0, 0.0, 0.0, 0.0, 0.0, 0.0, 0.0, 0.0],
  "Shots": 4096,
  "Size": 4,
  "Total Algorithm duration [s]": 1.802,
  "Total Classic duration [s]": 1.7330559000514332,
  "Total Quantum duration [s]": 0.06894409994856687
}
