{
  "Circuit execution durations [ms]": [0.20385000243550166, 0.21019999985583127, 0.2193000036641024, 0.20584999583661556, 0.21569999807979912, 0.2032999982475303, 0.21830000332556665, 0.20319999748608097, 0.21530000230995938, 0.22064999939175323, 0.21949999791104347, 0.20319999748608097, 0.20585000311257318, 0.20309999672463164, 0.20165000023553148, 0.22389999503502622, 0.2035999932559207, 0.20200000290060416, 0.21200000628596172, 0.20234999828971922, 0.2005499991355464, 0.2049999966402538, 0.2970500063383952, 0.24945000768639147, 0.32545000431127846, 0.2762000076472759, 0.22575000912183896, 0.21505000040633604, 0.34220000088680536, 0.19415000133449212, 0.26074999914271757, 0.349000001733657, 0.33999999868683517, 0.17135000234702602, 0.23209999926621094, 0.38529999437741935, 0.16895000590011477, 0.16009999671950936, 0.17330000264337286, 0.17455000488553196, 0.3671000085887499, 0.35734998527914286, 0.38580001273658127, 0.20865000260528177, 0.21054999524494633, 0.17740000475896522, 0.381349993404001, 0.18954999541165307, 0.3850999928545207, 0.39605001074960455, 0.3943999981856905, 0.34095000592060387, 0.17234999540960416, 0.3594999870983884, 0.3866499973810278, 0.21220000053290278, 0.26390000857645646, 0.24185000074794516, 0.30855000659357756, 0.35694999678526074, 0.36264999653212726, 0.3589500120142475, 0.2490499900886789, 0.16915000014705583, 0.22049999824957922, 0.3587500104913488, 0.39155001286417246, 0.3487999929348007, 0.3474500044831075, 0.21304999972926453, 0.35069999285042286, 0.3881000084220432, 0.21410000044852495, 0.20634999964386225, 0.20280000171624124, 0.21195000590523705, 0.21564999769907445, 0.22250000620260835, 0.20870000298600644, 0.21175000438233837, 0.20740000036312267, 0.21085000480525196, 0.21700000070268288, 0.20385000243550166, 0.20229999790899456, 0.2050500042969361, 0.21194999862927943, 0.2085999949485995, 0.2052000054391101, 0.2134000023943372, 0.2091999995172955, 0.20495000353548676, 0.21845000446774065, 0.2132500012521632, 0.21174999710638076, 0.2129499989678152, 0.20699999731732532, 0.2097000033245422, 0.2014499987126328, 0.20370000129332766, 0.20729999960167333, 0.20855000184383243, 0.2096499956678599, 0.2037499943980947, 0.20244999905116856, 0.20355000015115365, 0.20300000323913991, 0.2099999983329326, 0.20770000264747068, 0.20844999380642548, 0.2145000034943223, 0.20684999617515132, 0.20930000027874485, 0.21230000129435211, 0.20475000201258808, 0.2058000027318485, 0.2023999986704439, 0.22029999672668055, 0.20190000213915482, 0.20020000374643132, 0.2011499964282848, 0.20670000230893493, 0.20790000417036936, 0.20965000294381753, 0.21135000133654103, 0.20979999681003392, 0.2091000060318038, 0.2193000036641024, 0.2145000034943223, 0.20755000150529668, 0.20634999964386225, 0.20324999786680564, 0.2062499988824129, 0.20819999917875975, 0.2045500004896894, 0.20134999795118347, 0.20170000061625615, 0.20049999875482172, 0.20309999672463164, 0.20950000180164352, 0.20265000057406723, 0.20519999816315249, 0.22235000506043434, 0.21740000374848023, 0.20369999401737005, 0.20570000197039917, 0.20600000425474718, 0.20950000180164352, 0.20370000129332766, 0.21260000357870013, 0.21669999841833487, 0.20809999841731042, 0.20080000103916973, 0.225800002226606, 0.2023999986704439, 0.20475000201258808, 0.21645000379066914, 0.2115499955834821, 0.20814999879803509, 0.20509999740170315, 0.20339999900897965, 0.39600000309292227, 0.20950000180164352, 0.21260000357870013, 0.20324999786680564, 0.20280000171624124, 0.22034999710740522, 0.2278500032844022, 0.20280000171624124, 0.21255000319797546, 0.20945000142091885, 0.2056500015896745, 0.20220000442350283, 0.20430000586202368, 0.21114999981364235, 0.21279999782564119, 0.20384999515954405, 0.20880000374745578, 0.3486500063445419, 0.20610000501619652, 0.2023999986704439, 0.20399999630171806, 0.20494999625952914, 0.2091999995172955, 0.20865000260528177, 0.21615000150632113, 0.21099999867146835, 0.20679999579442665, 0.21260000357870013, 0.20765000226674601, 0.21255000319797546, 0.20169999334029853, 0.20765000226674601, 0.20249999943189323, 0.20814999879803509, 0.2094999945256859, 0.20184999448247254, 0.2037499943980947, 0.20575000235112384, 0.20950000180164352, 0.20260000019334257, 0.21350000315578654, 0.20470000163186342, 0.210599995625671, 0.2126500039594248, 0.2032999982475303, 0.21410000044852495, 0.21459999697981402, 0.20945000142091885, 0.20880000374745578, 0.21869999909540638, 0.20989999757148325, 0.20695000421255827, 0.21520000154851004, 0.20370000129332766, 0.20344999938970432, 0.20824999955948442, 0.20044999837409705, 0.20924999989802018, 0.20699999731732532, 0.19910000264644623, 0.20339999900897965, 0.20780000340892002, 0.21345000277506188, 0.20840000070165843, 0.21579999884124845, 0.2134000023943372, 0.2082999999402091, 0.2118499978678301, 0.20260000019334257, 0.21040000137872994, 0.20619999850168824, 0.20809999841731042, 0.21240000205580145, 0.22499999613501132, 0.20389999554026872, 0.21004999871365726, 0.2135499962605536, 0.20080000103916973, 0.20300000323913991, 0.21779999951831996, 0.20755000150529668, 0.2084500010823831, 0.21109999943291768, 0.207349999982398, 0.20610000501619652, 0.33274999441346154, 0.2056499943137169, 0.21469999774126336, 0.2059500038740225, 0.20585000311257318, 0.21035000099800527, 0.20884999685222283, 0.20124999718973413, 0.20655000116676092, 0.20185000175843015, 0.20975000370526686, 0.20500000391621143, 0.21019999985583127, 0.207199998840224, 0.20770000264747068, 0.20559999393299222, 0.207500001124572, 0.21574999846052378, 0.25114999880315736, 0.20950000180164352, 0.21410000044852495, 0.17054999625543132, 0.2114000017172657, 0.20364999363664538, 0.20569999469444156, 0.20305000361986458, 0.20120000408496708, 0.2053499993053265, 0.20205000328132883, 0.20450000010896474, 0.20080000103916973, 0.19880000036209822, 0.1999000014620833, 0.2003499976126477, 0.20699999731732532, 0.21639999613398686, 0.20339999900897965, 0.20064999989699572, 0.20434999896679074, 0.20304999634390697, 0.2091999995172955, 0.21084999752929434, 0.20775000302819535, 0.20759999461006373, 0.19920000340789557, 0.20509999740170315, 0.20460000087041408, 0.24279999342979863, 0.20390000281622633, 0.20610000501619652, 0.20000000222353265, 0.19949999841628596, 0.2000499953282997, 0.2025499998126179, 0.20059999951627105, 0.20909999875584617, 0.2162000018870458, 0.2015999998548068, 0.20339999900897965, 0.21075000404380262, 0.2153999957954511, 0.2028500020969659, 0.20290000247769058, 0.20975000370526686, 0.2084500010823831, 0.2062499988824129, 0.20480000239331275, 0.2082999999402091, 0.20670000230893493, 0.20980000408599153, 0.20950000180164352, 0.21645000379066914, 0.20869999571004882, 0.22434999846154824, 0.20294999558245763, 0.20244999905116856, 0.23785000666975975, 0.20724999922094867, 0.20190000213915482, 0.2049000031547621, 0.21684999956050888, 0.20384999515954405, 0.204100004339125, 0.21165000362088904, 0.2042499982053414, 0.2513999934308231, 0.17929999739862978, 0.20339999900897965, 0.20650000078603625, 0.21389999892562628, 0.21734999609179795, 0.22005000209901482, 0.20884999685222283, 0.20474999473663047, 0.2370999936829321, 0.21330000163288787, 0.20339999900897965, 0.2025499998126179, 0.20665000192821026, 0.2091999995172955, 0.2195999986724928, 0.21735000336775556, 0.20840000070165843, 0.20760000188602135, 0.2020499960053712, 0.2096499956678599, 0.21359999664127827, 0.22244999854592606, 0.20200000290060416, 0.20304999634390697, 0.20124999718973413, 0.20545000006677583, 0.21624999499181286, 0.20509999740170315, 0.20009999570902437, 0.203800002054777, 0.20340000628493726, 0.20185000175843015, 0.20355000015115365, 0.20154999947408214, 0.20290000247769058, 0.20894999761367217, 0.20125000446569175, 0.2087500033667311, 0.21230000129435211, 0.20724999922094867, 0.20275000133551657, 0.20590000349329785, 0.20915000641252846, 0.20434999896679074, 0.2165000041713938, 0.21235000167507678, 0.21264999668346718, 0.20375000167405233, 0.2010000025620684, 0.2049000031547621, 0.2351000002818182, 0.33120000443886966, 0.21115000708959997, 0.21179999748710543, 0.21584999922197312, 0.210599995625671, 0.20975000370526686, 0.21639999613398686, 0.21149999520275742, 0.20039999799337238, 0.20804999803658575, 0.20385000243550166, 0.21600000036414713, 0.20134999795118347, 0.2055000004475005, 0.21425000159069896, 0.20709999807877466, 0.20980000408599153, 0.21160000324016437, 0.20965000294381753, 0.20145000598859042, 0.21779999951831996, 0.2031499971053563, 0.20280000171624124, 0.20849999418715015, 0.2045499932137318, 0.20029999723192304, 0.23594999947817996, 0.21194999862927943, 0.20950000180164352, 0.20340000628493726, 0.20940000104019418, 0.2112500005750917, 0.20460000087041408, 0.2138499985449016, 0.20205000328132883, 0.21090000518597662, 0.20470000163186342, 0.21455000387504697, 0.3423500165808946, 0.3543999991961755, 0.23839999630581588, 0.20699999731732532, 0.20850000146310776, 0.21879999985685572, 0.20250000670785084, 0.20029999723192304, 0.20849999418715015, 0.2007000002777204, 0.21004999871365726, 0.20604999735951424, 0.20924999989802018, 0.20645000040531158, 0.21449999621836469, 0.2125000028172508, 0.21600000036414713, 0.2229999954579398, 0.206899996555876, 0.207500001124572, 0.2138499985449016, 0.20914999913657084, 0.20375000167405233, 0.2087499960907735, 0.21040000137872994, 0.20855000184383243, 0.20309999672463164, 0.2018999948631972, 0.2115500028594397, 0.2117000040016137, 0.21079999714856967, 0.21520000154851004, 0.24710000434424728, 0.20699999731732532, 0.20339999900897965, 0.2167999991797842, 0.210899997910019, 0.20265000057406723, 0.20275000133551657, 0.2012999975704588, 0.2018999948631972, 0.20265000057406723, 0.21064999600639567, 0.20885000412818044, 0.20355000015115365, 0.21740000374848023, 0.2088999972329475, 0.21025000023655593, 0.20015000336570665, 0.2055000004475005, 0.2014499987126328, 0.2019500025198795, 0.20295000285841525, 0.20430000586202368, 0.2010000025620684, 0.20429999858606607, 0.2270499971928075, 0.20655000116676092, 0.20120000408496708, 0.20030000450788066, 0.2008500014198944, 0.2125999963027425, 0.20349999977042899, 0.21149999520275742, 0.20319999748608097, 0.2043999993475154, 0.21449999621836469, 0.2039499959209934, 0.2084500010823831, 0.22145000548334792, 0.21949999791104347, 0.2049999966402538, 0.20390000281622633, 0.21285000548232347, 0.20165000023553148, 0.2056500015896745, 0.20995000522816554, 0.2087500033667311, 0.21160000324016437, 0.2023999986704439, 0.20835000032093376, 0.2028499948210083, 0.2115500028594397, 0.20555000082822517, 0.20879999647149816, 0.21684999956050888, 0.20599999697878957, 0.2018999948631972, 0.20555000082822517, 0.20415000471984968, 0.20190000213915482, 0.2009999952861108, 0.20480000239331275, 0.20214999676682055],
  "Depth": 10.5,
  "Expectation Value": -3.8112361431121826,
  "Optimal Expectation Value": -4.75877046585083,
  "Optimizer durations [ms]": [5.112, 5.002, 5.44, 5.086, 5.455, 5.187, 5.336, 5.227, 5.275, 5.528, 5.441, 5.117, 5.146, 4.988, 5.014, 5.57, 5.035, 5.038, 5.098, 5.238, 5.123, 5.095, 9.055, 11.889, 8.722, 14.189, 15.737, 8.047, 10.638, 14.36, 12.388, 9.582, 8.865, 19.288, 12.654, 8.85, 22.071, 17.926, 9.079, 9.363, 8.242, 8.763, 13.556, 17.846, 15.89, 23.763, 9.349, 15.361, 14.072, 9.016, 9.72, 7.825, 9.489, 9.162, 18.424, 11.638, 6.648, 9.038, 9.183, 8.611, 8.098, 8.742, 11.158, 19.114, 16.735, 19.712, 17.043, 8.825, 11.61, 17.653, 11.38, 17.349, 5.262, 5.139, 5.22, 5.172, 5.347, 5.525, 5.211, 5.431, 5.192, 5.376, 5.274, 5.184, 5.06, 5.039, 5.204, 5.187, 5.112, 5.294, 5.227, 5.017, 5.235, 5.41, 5.375, 5.281, 5.045, 5.061, 5.155, 5.148, 5.16, 5.135, 5.095, 5.285, 4.925, 5.102, 5.042, 5.066, 5.257, 5.114, 5.13, 5.213, 5.146, 5.202, 5.117, 5.102, 6.818, 5.424, 5.0, 4.961, 5.043, 5.209, 5.168, 5.106, 5.185, 5.081, 5.319, 5.251, 5.6, 5.208, 5.069, 5.017, 5.061, 5.153, 5.064, 5.046, 5.025, 4.905, 5.055, 5.063, 5.176, 5.065, 5.361, 5.391, 5.083, 4.992, 5.208, 5.063, 5.182, 5.169, 5.362, 5.795, 5.271, 5.535, 4.952, 4.956, 5.264, 5.448, 5.236, 5.125, 14.762, 8.596, 5.27, 5.06, 5.422, 5.002, 5.388, 5.572, 5.124, 5.205, 5.195, 5.116, 5.13, 5.08, 5.261, 5.279, 5.045, 5.031, 7.824, 6.34, 5.013, 5.119, 5.103, 5.247, 5.155, 5.382, 5.184, 5.296, 5.324, 5.563, 5.371, 5.052, 5.04, 5.079, 5.081, 5.26, 5.091, 5.013, 5.052, 5.152, 5.081, 5.034, 5.229, 5.18, 5.444, 5.041, 5.197, 5.202, 5.225, 5.121, 5.53, 5.08, 5.306, 5.52, 4.991, 4.986, 5.147, 5.066, 5.216, 5.072, 5.094, 4.954, 5.033, 5.241, 5.321, 5.083, 5.288, 5.288, 5.28, 5.015, 5.204, 5.135, 4.987, 5.243, 5.701, 5.109, 5.143, 5.136, 5.14, 5.037, 5.178, 5.505, 5.169, 5.233, 5.093, 5.081, 7.751, 5.035, 5.25, 5.364, 5.04, 5.138, 14.284, 5.946, 5.212, 4.988, 8.549, 5.227, 5.209, 5.236, 5.058, 5.151, 5.266, 5.205, 6.078, 5.135, 5.293, 15.057, 9.069, 5.104, 5.023, 5.945, 4.947, 5.053, 6.553, 4.971, 5.945, 4.874, 4.848, 4.852, 17.051, 5.431, 5.018, 6.011, 5.01, 5.033, 7.164, 5.32, 5.069, 5.171, 5.171, 5.008, 11.833, 16.864, 9.645, 5.136, 4.934, 4.934, 4.943, 4.931, 4.982, 5.167, 5.204, 5.21, 5.059, 5.101, 5.218, 5.338, 5.51, 5.154, 5.38, 5.417, 5.092, 5.132, 5.344, 5.284, 5.0, 5.789, 5.259, 5.549, 5.04, 4.994, 5.505, 5.256, 5.09, 5.094, 5.258, 5.232, 5.05, 5.246, 5.068, 5.702, 21.167, 8.607, 15.304, 5.194, 5.334, 5.701, 5.053, 5.09, 5.501, 5.318, 5.276, 5.033, 5.203, 5.238, 5.205, 5.522, 5.129, 5.234, 5.071, 5.111, 5.038, 5.654, 4.976, 5.019, 4.938, 5.117, 5.288, 5.1, 4.932, 5.05, 4.989, 5.023, 5.019, 4.962, 4.99, 5.111, 5.059, 5.11, 5.36, 5.156, 5.148, 5.053, 5.325, 4.994, 5.316, 5.22, 5.397, 5.068, 4.956, 4.994, 5.778, 7.631, 5.292, 5.353, 5.025, 5.479, 5.119, 5.409, 5.101, 5.192, 5.199, 5.026, 5.189, 5.152, 5.094, 5.247, 5.172, 5.242, 5.205, 5.347, 5.045, 5.307, 5.12, 5.0, 5.064, 5.064, 4.988, 5.463, 5.43, 5.237, 5.058, 5.165, 5.095, 5.117, 5.228, 5.177, 5.302, 5.031, 5.034, 8.078, 21.314, 5.964, 5.073, 5.183, 5.287, 5.146, 4.938, 5.119, 5.028, 5.04, 5.304, 5.18, 5.085, 5.505, 5.131, 5.066, 5.362, 5.389, 5.366, 5.075, 5.297, 5.013, 5.043, 5.374, 5.064, 5.135, 4.996, 5.161, 5.189, 5.135, 5.285, 6.027, 5.299, 5.057, 5.59, 5.152, 5.209, 5.105, 5.005, 4.992, 4.996, 5.158, 5.172, 5.078, 5.189, 5.032, 5.418, 5.216, 5.06, 4.959, 4.968, 5.025, 4.985, 5.366, 5.135, 5.177, 6.869, 4.967, 4.945, 4.958, 5.3, 5.419, 5.219, 5.14, 5.06, 4.993, 5.103, 5.284, 5.656, 5.299, 5.199, 5.037, 5.3, 5.039, 5.059, 5.189, 5.099, 5.247, 5.253, 5.285, 5.017, 4.988, 5.354, 5.05, 5.353, 5.207, 5.013, 5.093, 5.06, 5.053, 5.059, 5.048, 4.875],
  "Optimizer iterations": 515,
  "Optimizer params": [0.14706981886807535, 0.21219959193554677, 0.09177300924435444, 0.0344521573619648, 0.0013865567041340563, 0.9747843290775597, 0.9842026471335378, 0.025931502465265405, 0.997672542368581, 0.5210367718216048, 0.0008810745452442355, 0.9704903059581443, 0.4964283130658519, 0.0009884482256696477, 0.5127970371625622, 0.5074055194746195],
  "P": 0,
  "Problem": "IC",
  "QJob durations [ms]": [0.20385000243550166, 0.21019999985583127, 0.2193000036641024, 0.20584999583661556, 0.21569999807979912, 0.2032999982475303, 0.21830000332556665, 0.20319999748608097, 0.21530000230995938, 0.22064999939175323, 0.21949999791104347, 0.20319999748608097, 0.20585000311257318, 0.20309999672463164, 0.20165000023553148, 0.22389999503502622, 0.2035999932559207, 0.20200000290060416, 0.21200000628596172, 0.20234999828971922, 0.2005499991355464, 0.2049999966402538, 0.2970500063383952, 0.24945000768639147, 0.32545000431127846, 0.2762000076472759, 0.22575000912183896, 0.21505000040633604, 0.34220000088680536, 0.19415000133449212, 0.26074999914271757, 0.349000001733657, 0.33999999868683517, 0.17135000234702602, 0.23209999926621094, 0.38529999437741935, 0.16895000590011477, 0.16009999671950936, 0.17330000264337286, 0.17455000488553196, 0.3671000085887499, 0.35734998527914286, 0.38580001273658127, 0.20865000260528177, 0.21054999524494633, 0.17740000475896522, 0.381349993404001, 0.18954999541165307, 0.3850999928545207, 0.39605001074960455, 0.3943999981856905, 0.34095000592060387, 0.17234999540960416, 0.3594999870983884, 0.3866499973810278, 0.21220000053290278, 0.26390000857645646, 0.24185000074794516, 0.30855000659357756, 0.35694999678526074, 0.36264999653212726, 0.3589500120142475, 0.2490499900886789, 0.16915000014705583, 0.22049999824957922, 0.3587500104913488, 0.39155001286417246, 0.3487999929348007, 0.3474500044831075, 0.21304999972926453, 0.35069999285042286, 0.3881000084220432, 0.21410000044852495, 0.20634999964386225, 0.20280000171624124, 0.21195000590523705, 0.21564999769907445, 0.22250000620260835, 0.20870000298600644, 0.21175000438233837, 0.20740000036312267, 0.21085000480525196, 0.21700000070268288, 0.20385000243550166, 0.20229999790899456, 0.2050500042969361, 0.21194999862927943, 0.2085999949485995, 0.2052000054391101, 0.2134000023943372, 0.2091999995172955, 0.20495000353548676, 0.21845000446774065, 0.2132500012521632, 0.21174999710638076, 0.2129499989678152, 0.20699999731732532, 0.2097000033245422, 0.2014499987126328, 0.20370000129332766, 0.20729999960167333, 0.20855000184383243, 0.2096499956678599, 0.2037499943980947, 0.20244999905116856, 0.20355000015115365, 0.20300000323913991, 0.2099999983329326, 0.20770000264747068, 0.20844999380642548, 0.2145000034943223, 0.20684999617515132, 0.20930000027874485, 0.21230000129435211, 0.20475000201258808, 0.2058000027318485, 0.2023999986704439, 0.22029999672668055, 0.20190000213915482, 0.20020000374643132, 0.2011499964282848, 0.20670000230893493, 0.20790000417036936, 0.20965000294381753, 0.21135000133654103, 0.20979999681003392, 0.2091000060318038, 0.2193000036641024, 0.2145000034943223, 0.20755000150529668, 0.20634999964386225, 0.20324999786680564, 0.2062499988824129, 0.20819999917875975, 0.2045500004896894, 0.20134999795118347, 0.20170000061625615, 0.20049999875482172, 0.20309999672463164, 0.20950000180164352, 0.20265000057406723, 0.20519999816315249, 0.22235000506043434, 0.21740000374848023, 0.20369999401737005, 0.20570000197039917, 0.20600000425474718, 0.20950000180164352, 0.20370000129332766, 0.21260000357870013, 0.21669999841833487, 0.20809999841731042, 0.20080000103916973, 0.225800002226606, 0.2023999986704439, 0.20475000201258808, 0.21645000379066914, 0.2115499955834821, 0.20814999879803509, 0.20509999740170315, 0.20339999900897965, 0.39600000309292227, 0.20950000180164352, 0.21260000357870013, 0.20324999786680564, 0.20280000171624124, 0.22034999710740522, 0.2278500032844022, 0.20280000171624124, 0.21255000319797546, 0.20945000142091885, 0.2056500015896745, 0.20220000442350283, 0.20430000586202368, 0.21114999981364235, 0.21279999782564119, 0.20384999515954405, 0.20880000374745578, 0.3486500063445419, 0.20610000501619652, 0.2023999986704439, 0.20399999630171806, 0.20494999625952914, 0.2091999995172955, 0.20865000260528177, 0.21615000150632113, 0.21099999867146835, 0.20679999579442665, 0.21260000357870013, 0.20765000226674601, 0.21255000319797546, 0.20169999334029853, 0.20765000226674601, 0.20249999943189323, 0.20814999879803509, 0.2094999945256859, 0.20184999448247254, 0.2037499943980947, 0.20575000235112384, 0.20950000180164352, 0.20260000019334257, 0.21350000315578654, 0.20470000163186342, 0.210599995625671, 0.2126500039594248, 0.2032999982475303, 0.21410000044852495, 0.21459999697981402, 0.20945000142091885, 0.20880000374745578, 0.21869999909540638, 0.20989999757148325, 0.20695000421255827, 0.21520000154851004, 0.20370000129332766, 0.20344999938970432, 0.20824999955948442, 0.20044999837409705, 0.20924999989802018, 0.20699999731732532, 0.19910000264644623, 0.20339999900897965, 0.20780000340892002, 0.21345000277506188, 0.20840000070165843, 0.21579999884124845, 0.2134000023943372, 0.2082999999402091, 0.2118499978678301, 0.20260000019334257, 0.21040000137872994, 0.20619999850168824, 0.20809999841731042, 0.21240000205580145, 0.22499999613501132, 0.20389999554026872, 0.21004999871365726, 0.2135499962605536, 0.20080000103916973, 0.20300000323913991, 0.21779999951831996, 0.20755000150529668, 0.2084500010823831, 0.21109999943291768, 0.207349999982398, 0.20610000501619652, 0.33274999441346154, 0.2056499943137169, 0.21469999774126336, 0.2059500038740225, 0.20585000311257318, 0.21035000099800527, 0.20884999685222283, 0.20124999718973413, 0.20655000116676092, 0.20185000175843015, 0.20975000370526686, 0.20500000391621143, 0.21019999985583127, 0.207199998840224, 0.20770000264747068, 0.20559999393299222, 0.207500001124572, 0.21574999846052378, 0.25114999880315736, 0.20950000180164352, 0.21410000044852495, 0.17054999625543132, 0.2114000017172657, 0.20364999363664538, 0.20569999469444156, 0.20305000361986458, 0.20120000408496708, 0.2053499993053265, 0.20205000328132883, 0.20450000010896474, 0.20080000103916973, 0.19880000036209822, 0.1999000014620833, 0.2003499976126477, 0.20699999731732532, 0.21639999613398686, 0.20339999900897965, 0.20064999989699572, 0.20434999896679074, 0.20304999634390697, 0.2091999995172955, 0.21084999752929434, 0.20775000302819535, 0.20759999461006373, 0.19920000340789557, 0.20509999740170315, 0.20460000087041408, 0.24279999342979863, 0.20390000281622633, 0.20610000501619652, 0.20000000222353265, 0.19949999841628596, 0.2000499953282997, 0.2025499998126179, 0.20059999951627105, 0.20909999875584617, 0.2162000018870458, 0.2015999998548068, 0.20339999900897965, 0.21075000404380262, 0.2153999957954511, 0.2028500020969659, 0.20290000247769058, 0.20975000370526686, 0.2084500010823831, 0.2062499988824129, 0.20480000239331275, 0.2082999999402091, 0.20670000230893493, 0.20980000408599153, 0.20950000180164352, 0.21645000379066914, 0.20869999571004882, 0.22434999846154824, 0.20294999558245763, 0.20244999905116856, 0.23785000666975975, 0.20724999922094867, 0.20190000213915482, 0.2049000031547621, 0.21684999956050888, 0.20384999515954405, 0.204100004339125, 0.21165000362088904, 0.2042499982053414, 0.2513999934308231, 0.17929999739862978, 0.20339999900897965, 0.20650000078603625, 0.21389999892562628, 0.21734999609179795, 0.22005000209901482, 0.20884999685222283, 0.20474999473663047, 0.2370999936829321, 0.21330000163288787, 0.20339999900897965, 0.2025499998126179, 0.20665000192821026, 0.2091999995172955, 0.2195999986724928, 0.21735000336775556, 0.20840000070165843, 0.20760000188602135, 0.2020499960053712, 0.2096499956678599, 0.21359999664127827, 0.22244999854592606, 0.20200000290060416, 0.20304999634390697, 0.20124999718973413, 0.20545000006677583, 0.21624999499181286, 0.20509999740170315, 0.20009999570902437, 0.203800002054777, 0.20340000628493726, 0.20185000175843015, 0.20355000015115365, 0.20154999947408214, 0.20290000247769058, 0.20894999761367217, 0.20125000446569175, 0.2087500033667311, 0.21230000129435211, 0.20724999922094867, 0.20275000133551657, 0.20590000349329785, 0.20915000641252846, 0.20434999896679074, 0.2165000041713938, 0.21235000167507678, 0.21264999668346718, 0.20375000167405233, 0.2010000025620684, 0.2049000031547621, 0.2351000002818182, 0.33120000443886966, 0.21115000708959997, 0.21179999748710543, 0.21584999922197312, 0.210599995625671, 0.20975000370526686, 0.21639999613398686, 0.21149999520275742, 0.20039999799337238, 0.20804999803658575, 0.20385000243550166, 0.21600000036414713, 0.20134999795118347, 0.2055000004475005, 0.21425000159069896, 0.20709999807877466, 0.20980000408599153, 0.21160000324016437, 0.20965000294381753, 0.20145000598859042, 0.21779999951831996, 0.2031499971053563, 0.20280000171624124, 0.20849999418715015, 0.2045499932137318, 0.20029999723192304, 0.23594999947817996, 0.21194999862927943, 0.20950000180164352, 0.20340000628493726, 0.20940000104019418, 0.2112500005750917, 0.20460000087041408, 0.2138499985449016, 0.20205000328132883, 0.21090000518597662, 0.20470000163186342, 0.21455000387504697, 0.3423500165808946, 0.3543999991961755, 0.23839999630581588, 0.20699999731732532, 0.20850000146310776, 0.21879999985685572, 0.20250000670785084, 0.20029999723192304, 0.20849999418715015, 0.2007000002777204, 0.21004999871365726, 0.20604999735951424, 0.20924999989802018, 0.20645000040531158, 0.21449999621836469, 0.2125000028172508, 0.21600000036414713, 0.2229999954579398, 0.206899996555876, 0.207500001124572, 0.2138499985449016, 0.20914999913657084, 0.20375000167405233, 0.2087499960907735, 0.21040000137872994, 0.20855000184383243, 0.20309999672463164, 0.2018999948631972, 0.2115500028594397, 0.2117000040016137, 0.21079999714856967, 0.21520000154851004, 0.24710000434424728, 0.20699999731732532, 0.20339999900897965, 0.2167999991797842, 0.210899997910019, 0.20265000057406723, 0.20275000133551657, 0.2012999975704588, 0.2018999948631972, 0.20265000057406723, 0.21064999600639567, 0.20885000412818044, 0.20355000015115365, 0.21740000374848023, 0.2088999972329475, 0.21025000023655593, 0.20015000336570665, 0.2055000004475005, 0.2014499987126328, 0.2019500025198795, 0.20295000285841525, 0.20430000586202368, 0.2010000025620684, 0.20429999858606607, 0.2270499971928075, 0.20655000116676092, 0.20120000408496708, 0.20030000450788066, 0.2008500014198944, 0.2125999963027425, 0.20349999977042899, 0.21149999520275742, 0.20319999748608097, 0.2043999993475154, 0.21449999621836469, 0.2039499959209934, 0.2084500010823831, 0.22145000548334792, 0.21949999791104347, 0.2049999966402538, 0.20390000281622633, 0.21285000548232347, 0.20165000023553148, 0.2056500015896745, 0.20995000522816554, 0.2087500033667311, 0.21160000324016437, 0.2023999986704439, 0.20835000032093376, 0.2028499948210083, 0.2115500028594397, 0.20555000082822517, 0.20879999647149816, 0.21684999956050888, 0.20599999697878957, 0.2018999948631972, 0.20555000082822517, 0.20415000471984968, 0.20190000213915482, 0.2009999952861108, 0.20480000239331275, 0.20214999676682055],
  "QPU": "7000000",
  "Qubits": 4,
  "Queue durations [ms]": [0.0, 0.0, 0.0, 0.0, 0.0, 0.0, 0.0, 0.0, 0.0, 0.0, 0.0, 0.0, 0.0, 0.0, 0.0, 0.0, 0.0, 0.0, 0.0, 0.0, 0.0, 0.0, 0.0, 0.0, 0.0, 0.0, 0.0, 0.0, 0.0, 0.0, 0.0, 0.0, 0.0, 0.0, 0.0, 0.0, 0.0, 0.0, 0.0, 0.0, 0.0, 0.0, 0.0, 0.0, 0.0, 0.0, 0.0, 0.0, 0.0, 0.0, 0.0, 0.0, 0.0, 0.0, 0.0, 0.0, 0.0, 0.0, 0.0, 0.0, 0.0, 0.0, 0.0, 0.0, 0.0, 0.0, 0.0, 0.0, 0.0, 0.0, 0.0, 0.0, 0.0, 0.0, 0.0, 0.0, 0.0, 0.0, 0.0, 0.0, 0.0, 0.0, 0.0, 0.0, 0.0, 0.0, 0.0, 0.0, 0.0, 0.0, 0.0, 0.0, 0.0, 0.0, 0.0, 0.0, 0.0, 0.0, 0.0, 0.0, 0.0, 0.0, 0.0, 0.0, 0.0, 0.0, 0.0, 0.0, 0.0, 0.0, 0.0, 0.0, 0.0, 0.0, 0.0, 0.0, 0.0, 0.0, 0.0, 0.0, 0.0, 0.0, 0.0, 0.0, 0.0, 0.0, 0.0, 0.0, 0.0, 0.0, 0.0, 0.0, 0.0, 0.0, 0.0, 0.0, 0.0, 0.0, 0.0, 0.0, 0.0, 0.0, 0.0, 0.0, 0.0, 0.0, 0.0, 0.0, 0.0, 0.0, 0.0, 0.0, 0.0, 0.0, 0.0, 0.0, 0.0, 0.0, 0.0, 0.0, 0.0, 0.0, 0.0, 0.0, 0.0, 0.0, 0.0, 0.0, 0.0, 0.0, 0.0, 0.0, 0.0, 0.0, 0.0, 0.0, 0.0, 0.0, 0.0, 0.0, 0.0, 0.0, 0.0, 0.0, 0.0, 0.0, 0.0, 0.0, 0.0, 0.0, 0.0, 0.0, 0.0, 0.0, 0.0, 0.0, 0.0, 0.0, 0.0, 0.0, 0.0, 0.0, 0.0, 0.0, 0.0, 0.0, 0.0, 0.0, 0.0, 0.0, 0.0, 0.0, 0.0, 0.0, 0.0, 0.0, 0.0, 0.0, 0.0, 0.0, 0.0, 0.0, 0.0, 0.0, 0.0, 0.0, 0.0, 0.0, 0.0, 0.0, 0.0, 0.0, 0.0, 0.0, 0.0, 0.0, 0.0, 0.0, 0.0, 0.0, 0.0, 0.0, 0.0, 0.0, 0.0, 0.0, 0.0, 0.0, 0.0, 0.0, 0.0, 0.0, 0.0, 0.0, 0.0, 0.0, 0.0, 0.0, 0.0, 0.0, 0.0, 0.0, 0.0, 0.0, 0.0, 0.0, 0.0, 0.0, 0.0, 0.0, 0.0, 0.0, 0.0, 0.0, 0.0, 0.0, 0.0, 0.0, 0.0, 0.0, 0.0, 0.0, 0.0, 0.0, 0.0, 0.0, 0.0, 0.0, 0.0, 0.0, 0.0, 0.0, 0.0, 0.0, 0.0, 0.0, 0.0, 0.0, 0.0, 0.0, 0.0, 0.0, 0.0, 0.0, 0.0, 0.0, 0.0, 0.0, 0.0, 0.0, 0.0, 0.0, 0.0, 0.0, 0.0, 0.0, 0.0, 0.0, 0.0, 0.0, 0.0, 0.0, 0.0, 0.0, 0.0, 0.0, 0.0, 0.0, 0.0, 0.0, 0.0, 0.0, 0.0, 0.0, 0.0, 0.0, 0.0, 0.0, 0.0, 0.0, 0.0, 0.0, 0.0, 0.0, 0.0, 0.0, 0.0, 0.0, 0.0, 0.0, 0.0, 0.0, 0.0, 0.0, 0.0, 0.0, 0.0, 0.0, 0.0, 0.0, 0.0, 0.0, 0.0, 0.0, 0.0, 0.0, 0.0, 0.0, 0.0, 0.0, 0.0, 0.0, 0.0, 0.0, 0.0, 0.0, 0.0, 0.0, 0.0, 0.0, 0.0, 0.0, 0.0, 0.0, 0.0, 0.0, 0.0, 0.0, 0.0, 0.0, 0.0, 0.0, 0.0, 0.0, 0.0, 0.0, 0.0, 0.0, 0.0, 0.0, 0.0, 0.0, 0.0, 0.0, 0.0, 0.0, 0.0, 0.0, 0.0, 0.0, 0.0, 0.0, 0.0, 0.0, 0.0, 0.0, 0.0, 0.0, 0.0, 0.0, 0.0, 0.0, 0.0, 0.0, 0.0, 0.0, 0.0, 0.0, 0.0, 0.0, 0.0, 0.0, 0.0, 0.0, 0.0, 0.0, 0.0, 0.0, 0.0, 0.0, 0.0, 0.0, 0.0, 0.0, 0.0, 0.0, 0.0, 0.0, 0.0, 0.0, 0.0, 0.0, 0.0, 0.0, 0.0, 0.0, 0.0, 0.0, 0.0, 0.0, 0.0, 0.0, 0.0, 0.0, 0.0, 0.0, 0.0, 0.0, 0.0, 0.0, 0.0, 0.0, 0.0, 0.0, 0.0, 0.0, 0.0, 0.0, 0.0, 0.0, 0.0, 0.0, 0.0, 0.0, 0.0, 0.0, 0.0, 0.0, 0.0, 0.0, 0.0, 0.0, 0.0, 0.0, 0.0, 0.0, 0.0, 0.0, 0.0, 0.0, 0.0, 0.0, 0.0, 0.0, 0.0, 0.0, 0.0, 0.0, 0.0, 0.0, 0.0, 0.0, 0.0, 0.0, 0.0],
  "Shots": 4096,
  "Size": 4,
  "Total Algorithm duration [s]": 3.175,
  "Total Classic duration [s]": 3.0628312998713225,
  "Total Quantum duration [s]": 0.1121687001286773
}
