{
  "Circuit execution durations [ms]": [0.2147999985027127, 0.21255000319797546, 0.21615000150632113, 0.21164999634493142, 0.20344999938970432, 0.20810000569326803, 0.20775000302819535, 0.20500000391621143, 0.2043999993475154, 0.20444999972824007, 0.21040000137872994, 0.20180000137770548, 0.21299999934853986, 0.2174500041292049, 0.21534999541472644, 0.21385000582085922, 0.203800002054777, 0.20855000184383243, 0.203650000912603, 0.21275000472087413, 0.2042499982053414, 0.21520000154851004, 0.2046999943559058, 0.20804999803658575, 0.20385000243550166, 0.20149999909335747, 0.20570000197039917, 0.20709999807877466, 0.20504999702097848, 0.21105000632815063, 0.21055000252090394, 0.20475000201258808, 0.2188500002375804, 0.17020000086631626, 0.20480000239331275, 0.20745000074384734, 0.20950000180164352, 0.2028500020969659, 0.20575000235112384, 0.20404999668244272, 0.20304999634390697, 0.2070500049740076, 0.210749996767845, 0.20355000015115365, 0.20724999922094867, 0.2093499933835119, 0.21179999748710543, 0.20304999634390697, 0.20844999380642548, 0.20279999444028363, 0.207199998840224, 0.20120000408496708, 0.20175000099698082, 0.20740000036312267, 0.20619999850168824, 0.20154999947408214, 0.2087499960907735, 0.20870000298600644, 0.2086000022245571, 0.2094999945256859, 0.2142000012099743, 0.20789999689441174, 0.203950003196951, 0.20194999524392188, 0.20199999562464654, 0.2032999982475303, 0.20334999862825498, 0.2007000002777204, 0.20585000311257318, 0.20139999833190814, 0.20089999452466145, 0.22514999727718532, 0.21720000222558156, 0.21349999587982893, 0.20429999858606607, 0.20074999338248745, 0.20199999562464654, 0.22979999630479142, 0.20529999892460182, 0.20760000188602135, 0.20489999587880448, 0.2015999998548068, 0.2055000004475005, 0.21725000260630623, 0.2091000060318038, 0.21165000362088904, 0.20559999393299222, 0.21660000493284315, 0.22639999951934442, 0.2049999966402538, 0.20545000006677583, 0.20894999761367217, 0.2158999996026978, 0.2018999948631972, 0.22175000049173832, 0.20575000235112384, 0.20914999913657084, 0.20954999490641057, 0.21254999592201784, 0.20969999604858458, 0.2117000040016137, 0.20385000243550166, 0.20175000099698082, 0.225800002226606, 0.20604999735951424, 0.20429999858606607, 0.2136999974027276, 0.21505000040633604, 0.2043999993475154, 0.21099999867146835, 0.21225000091362745, 0.20170000061625615, 0.2578999992692843, 0.20514999778242782, 0.20909999875584617, 0.25809999351622537, 0.20629999926313758, 0.21705000108340755, 0.2042499982053414, 0.20695000421255827, 0.21800000104121864, 0.24464999296469614, 0.2028499948210083, 0.21079999714856967, 0.24644999211886898, 0.2098500044667162, 0.206899996555876, 0.2142000012099743, 0.20125000446569175, 0.2517000029911287, 0.20205000328132883, 0.20649999351007864, 0.3763999920920469, 0.18524999904911965, 0.2049999966402538, 0.1943500028573908, 0.2132500012521632, 0.2132500012521632, 0.3441500084591098, 0.20650000078603625, 0.2593500030343421, 0.21719999494962394, 0.2032000047620386, 0.1873500004876405, 0.2091999995172955, 0.2202500036219135, 0.24909999774536118, 0.21040000137872994, 0.20430000586202368, 0.19615000201156363, 0.21109999943291768, 0.20559999393299222, 0.24979999579954892, 0.20339999900897965, 0.22519999765791, 0.20840000070165843, 0.34410000080242753, 0.2291999917360954, 0.20419999782461673, 0.21010000637033954, 0.20470000163186342, 0.21225000091362745, 0.20529999892460182, 0.2011500037042424, 0.20214999676682055, 0.21120000019436702, 0.2022499975282699, 0.20714999845949933, 0.2053499993053265, 0.20105000294279307, 0.20090000180061907, 0.20315000438131392, 0.2042499982053414, 0.21439999545691535, 0.20244999905116856, 0.207500001124572, 0.20324999786680564, 0.206899996555876, 0.22539999918080866, 0.21230000129435211, 0.20249999943189323, 0.20625000615837052, 0.2055000004475005, 0.20059999951627105, 0.20014999608974904, 0.20385000243550166, 0.2007000002777204, 0.22024999634595588, 0.20880000374745578, 0.2152499946532771, 0.21985000057611614, 0.20729999960167333, 0.20769999537151307, 0.20399999630171806, 0.20944999414496124, 0.2056500015896745, 0.2519000045140274, 0.20894999761367217, 0.2131000001099892, 0.2153999957954511, 0.20249999943189323, 0.21719999494962394, 0.20234999828971922, 0.20260000019334257, 0.20234999828971922, 0.21625000226777047, 0.20709999807877466, 0.21050000214017928, 0.1871999993454665, 0.21500000002561137, 0.20334999862825498, 0.20315000438131392, 0.20134999795118347, 0.20334999862825498, 0.20234999828971922, 0.20740000036312267, 0.22685000294586644, 0.21159999596420676, 0.20680000307038426, 0.2101500067510642, 0.20509999740170315, 0.20319999748608097, 0.21174999710638076, 0.21570000535575673, 0.21574999846052378, 0.20704999769805, 0.20470000163186342, 0.20619999850168824, 0.24400000256719068, 0.2019500025198795, 0.24604999634902924, 0.20180000137770548, 0.2015999998548068, 0.21399999968707561, 0.21700000070268288, 0.20814999879803509, 0.22894999710842967, 0.21425000159069896, 0.20555000082822517, 0.20194999524392188, 0.20349999977042899, 0.20465000125113875, 0.20765000226674601, 0.21434999507619068, 0.20344999938970432, 0.20390000281622633, 0.20855000184383243, 0.20840000070165843, 0.20344999938970432, 0.203800002054777, 0.20289999520173296, 0.21289999858709052, 0.2011500037042424, 0.20009999570902437, 0.22809999791206792, 0.21304999972926453, 0.20444999972824007, 0.2136999974027276, 0.21064999600639567, 0.21985000057611614, 0.21739999647252262, 0.20819999917875975, 0.20229999790899456, 0.2087499960907735, 0.2175999979954213, 0.20229999790899456, 0.2014499987126328, 0.21160000324016437, 0.21784999989904463, 0.20724999922094867, 0.20514999778242782, 0.20229999790899456, 0.20370000129332766, 0.20884999685222283, 0.2007000002777204, 0.20714999845949933, 0.21859999833395705, 0.20825000683544204, 0.20585000311257318, 0.2021000036620535, 0.22324999736156315, 0.20324999786680564, 0.20245000632712618, 0.20194999524392188, 0.20729999960167333, 0.20220000442350283, 0.20264999329810962, 0.20770000264747068, 0.21895000099902973, 0.20265000057406723, 0.21445000311359763, 0.31165000109467655, 0.2895499928854406, 0.21084999752929434, 0.20460000087041408, 0.2080000049318187, 0.2028500020969659, 0.20699999731732532, 0.20994999795220792, 0.2053499993053265, 0.20709999807877466, 0.20524999854387715, 0.2117000040016137, 0.20909999875584617, 0.20390000281622633, 0.20185000175843015, 0.20810000569326803, 0.20994999795220792, 0.20315000438131392, 0.20090000180061907, 0.20494999625952914, 0.20495000353548676, 0.2114000017172657, 0.21055000252090394, 0.207199998840224, 0.2028500020969659, 0.21190000552451238, 0.20879999647149816, 0.2095500021823682, 0.203650000912603, 0.20799999765586108, 0.20315000438131392, 0.203650000912603, 0.21254999592201784, 0.2032999982475303, 0.2104500017594546, 0.20229999790899456, 0.20280000171624124, 0.2087500033667311, 0.2018999948631972, 0.20465000125113875, 0.203800002054777, 0.20429999858606607, 0.2015999998548068, 0.21300000662449747, 0.20165000023553148, 0.20744999346788973, 0.2029999959631823, 0.20029999723192304, 0.2015999998548068, 0.2166499980376102, 0.20360000053187832, 0.21050000214017928, 0.21019999985583127, 0.21389999892562628, 0.21455000387504697, 0.20419999782461673, 0.21854999795323238, 0.2164999968954362, 0.20260000019334257, 0.2008500014198944, 0.20355000015115365, 0.203650000912603, 0.20205000328132883, 0.207199998840224, 0.207500001124572, 0.20569999469444156],
  "Depth": 10.5,
  "Expectation Value": -4.472827911376953,
  "Optimal Expectation Value": -4.75877046585083,
  "Optimizer durations [ms]": [5.321, 5.463, 5.289, 5.365, 5.179, 5.278, 5.281, 5.041, 4.985, 4.945, 5.143, 5.14, 5.14, 5.51, 5.25, 5.322, 5.045, 5.166, 5.129, 6.451, 5.15, 5.178, 5.203, 5.144, 5.098, 5.044, 5.112, 5.192, 5.006, 5.411, 5.095, 5.028, 5.277, 14.485, 5.166, 5.108, 5.361, 5.196, 5.098, 5.06, 5.478, 5.172, 4.997, 5.191, 5.247, 5.135, 5.268, 5.064, 5.23, 5.142, 5.04, 5.11, 5.032, 5.475, 5.071, 5.101, 5.149, 5.267, 5.217, 5.096, 5.447, 5.042, 5.088, 4.873, 4.938, 5.475, 4.94, 4.839, 4.967, 5.03, 4.966, 5.309, 5.438, 5.287, 5.104, 5.066, 4.925, 5.537, 5.145, 5.199, 5.219, 5.017, 5.3, 5.438, 5.2, 5.076, 5.362, 5.309, 5.869, 5.024, 5.233, 5.322, 5.21, 5.114, 5.61, 5.125, 5.02, 5.459, 5.063, 5.242, 5.33, 4.967, 4.89, 5.466, 5.091, 5.131, 5.028, 5.389, 5.125, 5.384, 5.195, 5.122, 6.014, 7.292, 4.998, 6.375, 5.289, 5.264, 15.044, 5.945, 5.269, 5.969, 7.56, 5.232, 5.81, 5.2, 5.324, 8.314, 5.313, 6.107, 5.047, 5.019, 7.902, 17.333, 4.951, 6.059, 5.212, 5.138, 7.883, 5.235, 5.96, 5.435, 5.122, 6.83, 18.021, 5.384, 5.865, 5.355, 5.17, 7.073, 5.48, 5.102, 5.902, 5.226, 5.307, 18.849, 8.218, 6.271, 4.978, 5.268, 5.384, 7.78, 5.181, 5.045, 5.042, 5.319, 5.089, 5.124, 5.123, 5.067, 5.029, 4.901, 4.937, 5.379, 5.101, 5.095, 4.927, 5.1, 5.529, 5.23, 5.147, 5.016, 5.051, 5.177, 5.031, 4.958, 4.892, 5.234, 5.204, 5.142, 5.767, 5.165, 5.156, 5.086, 5.082, 5.213, 5.734, 5.373, 5.078, 5.545, 5.002, 5.228, 5.114, 5.082, 4.973, 5.448, 5.104, 5.301, 14.609, 5.217, 5.073, 4.909, 5.004, 4.992, 4.914, 5.004, 5.387, 5.45, 5.005, 5.044, 5.123, 5.065, 5.099, 5.295, 5.174, 5.361, 5.049, 5.149, 5.671, 5.029, 6.006, 5.016, 5.055, 5.203, 5.355, 5.001, 5.793, 5.432, 5.066, 5.048, 5.017, 5.022, 5.176, 5.262, 5.144, 4.951, 5.201, 5.259, 5.123, 4.949, 4.983, 5.122, 4.768, 4.985, 5.504, 5.385, 5.066, 5.309, 5.015, 5.571, 5.403, 5.16, 5.035, 5.077, 5.468, 5.076, 5.039, 5.034, 5.486, 5.148, 5.164, 5.14, 5.029, 4.998, 5.235, 5.253, 5.542, 5.244, 5.288, 5.144, 5.097, 5.289, 5.041, 5.007, 4.978, 5.176, 5.092, 4.966, 5.574, 5.17, 11.902, 14.256, 7.148, 5.309, 5.049, 5.176, 5.06, 5.031, 5.525, 5.084, 5.143, 5.115, 5.05, 5.042, 5.099, 4.976, 5.175, 5.117, 5.076, 5.017, 4.953, 5.031, 5.224, 5.466, 5.008, 5.103, 5.174, 5.237, 5.13, 5.121, 5.248, 5.031, 4.921, 5.084, 5.071, 5.324, 5.073, 4.999, 5.033, 4.979, 5.017, 5.094, 5.066, 4.975, 5.335, 5.104, 5.099, 5.055, 5.058, 4.979, 5.331, 5.071, 5.199, 5.024, 5.159, 5.48, 5.029, 5.115, 5.427, 5.185, 10.394, 5.025, 4.953, 4.925, 5.093, 5.343, 5.115],
  "Optimizer iterations": 357,
  "Optimizer params": [0.025802878273657348, 0.4717439573113866, 0.5275455163080012, 0.6759831889625725, 0.8033242328920356, 0.4334021527139965, 0.730859588489056, 0.9573882697407964, 0.9057013201409856, 0.6317285180239067, 0.14141475731542014, 0.08237458185225238, 0.5339836237330207, 0.999920747441844, 0.9609787398235072, 0.4401614886734256],
  "P": 0,
  "Problem": "IC",
  "QJob durations [ms]": [0.2147999985027127, 0.21255000319797546, 0.21615000150632113, 0.21164999634493142, 0.20344999938970432, 0.20810000569326803, 0.20775000302819535, 0.20500000391621143, 0.2043999993475154, 0.20444999972824007, 0.21040000137872994, 0.20180000137770548, 0.21299999934853986, 0.2174500041292049, 0.21534999541472644, 0.21385000582085922, 0.203800002054777, 0.20855000184383243, 0.203650000912603, 0.21275000472087413, 0.2042499982053414, 0.21520000154851004, 0.2046999943559058, 0.20804999803658575, 0.20385000243550166, 0.20149999909335747, 0.20570000197039917, 0.20709999807877466, 0.20504999702097848, 0.21105000632815063, 0.21055000252090394, 0.20475000201258808, 0.2188500002375804, 0.17020000086631626, 0.20480000239331275, 0.20745000074384734, 0.20950000180164352, 0.2028500020969659, 0.20575000235112384, 0.20404999668244272, 0.20304999634390697, 0.2070500049740076, 0.210749996767845, 0.20355000015115365, 0.20724999922094867, 0.2093499933835119, 0.21179999748710543, 0.20304999634390697, 0.20844999380642548, 0.20279999444028363, 0.207199998840224, 0.20120000408496708, 0.20175000099698082, 0.20740000036312267, 0.20619999850168824, 0.20154999947408214, 0.2087499960907735, 0.20870000298600644, 0.2086000022245571, 0.2094999945256859, 0.2142000012099743, 0.20789999689441174, 0.203950003196951, 0.20194999524392188, 0.20199999562464654, 0.2032999982475303, 0.20334999862825498, 0.2007000002777204, 0.20585000311257318, 0.20139999833190814, 0.20089999452466145, 0.22514999727718532, 0.21720000222558156, 0.21349999587982893, 0.20429999858606607, 0.20074999338248745, 0.20199999562464654, 0.22979999630479142, 0.20529999892460182, 0.20760000188602135, 0.20489999587880448, 0.2015999998548068, 0.2055000004475005, 0.21725000260630623, 0.2091000060318038, 0.21165000362088904, 0.20559999393299222, 0.21660000493284315, 0.22639999951934442, 0.2049999966402538, 0.20545000006677583, 0.20894999761367217, 0.2158999996026978, 0.2018999948631972, 0.22175000049173832, 0.20575000235112384, 0.20914999913657084, 0.20954999490641057, 0.21254999592201784, 0.20969999604858458, 0.2117000040016137, 0.20385000243550166, 0.20175000099698082, 0.225800002226606, 0.20604999735951424, 0.20429999858606607, 0.2136999974027276, 0.21505000040633604, 0.2043999993475154, 0.21099999867146835, 0.21225000091362745, 0.20170000061625615, 0.2578999992692843, 0.20514999778242782, 0.20909999875584617, 0.25809999351622537, 0.20629999926313758, 0.21705000108340755, 0.2042499982053414, 0.20695000421255827, 0.21800000104121864, 0.24464999296469614, 0.2028499948210083, 0.21079999714856967, 0.24644999211886898, 0.2098500044667162, 0.206899996555876, 0.2142000012099743, 0.20125000446569175, 0.2517000029911287, 0.20205000328132883, 0.20649999351007864, 0.3763999920920469, 0.18524999904911965, 0.2049999966402538, 0.1943500028573908, 0.2132500012521632, 0.2132500012521632, 0.3441500084591098, 0.20650000078603625, 0.2593500030343421, 0.21719999494962394, 0.2032000047620386, 0.1873500004876405, 0.2091999995172955, 0.2202500036219135, 0.24909999774536118, 0.21040000137872994, 0.20430000586202368, 0.19615000201156363, 0.21109999943291768, 0.20559999393299222, 0.24979999579954892, 0.20339999900897965, 0.22519999765791, 0.20840000070165843, 0.34410000080242753, 0.2291999917360954, 0.20419999782461673, 0.21010000637033954, 0.20470000163186342, 0.21225000091362745, 0.20529999892460182, 0.2011500037042424, 0.20214999676682055, 0.21120000019436702, 0.2022499975282699, 0.20714999845949933, 0.2053499993053265, 0.20105000294279307, 0.20090000180061907, 0.20315000438131392, 0.2042499982053414, 0.21439999545691535, 0.20244999905116856, 0.207500001124572, 0.20324999786680564, 0.206899996555876, 0.22539999918080866, 0.21230000129435211, 0.20249999943189323, 0.20625000615837052, 0.2055000004475005, 0.20059999951627105, 0.20014999608974904, 0.20385000243550166, 0.2007000002777204, 0.22024999634595588, 0.20880000374745578, 0.2152499946532771, 0.21985000057611614, 0.20729999960167333, 0.20769999537151307, 0.20399999630171806, 0.20944999414496124, 0.2056500015896745, 0.2519000045140274, 0.20894999761367217, 0.2131000001099892, 0.2153999957954511, 0.20249999943189323, 0.21719999494962394, 0.20234999828971922, 0.20260000019334257, 0.20234999828971922, 0.21625000226777047, 0.20709999807877466, 0.21050000214017928, 0.1871999993454665, 0.21500000002561137, 0.20334999862825498, 0.20315000438131392, 0.20134999795118347, 0.20334999862825498, 0.20234999828971922, 0.20740000036312267, 0.22685000294586644, 0.21159999596420676, 0.20680000307038426, 0.2101500067510642, 0.20509999740170315, 0.20319999748608097, 0.21174999710638076, 0.21570000535575673, 0.21574999846052378, 0.20704999769805, 0.20470000163186342, 0.20619999850168824, 0.24400000256719068, 0.2019500025198795, 0.24604999634902924, 0.20180000137770548, 0.2015999998548068, 0.21399999968707561, 0.21700000070268288, 0.20814999879803509, 0.22894999710842967, 0.21425000159069896, 0.20555000082822517, 0.20194999524392188, 0.20349999977042899, 0.20465000125113875, 0.20765000226674601, 0.21434999507619068, 0.20344999938970432, 0.20390000281622633, 0.20855000184383243, 0.20840000070165843, 0.20344999938970432, 0.203800002054777, 0.20289999520173296, 0.21289999858709052, 0.2011500037042424, 0.20009999570902437, 0.22809999791206792, 0.21304999972926453, 0.20444999972824007, 0.2136999974027276, 0.21064999600639567, 0.21985000057611614, 0.21739999647252262, 0.20819999917875975, 0.20229999790899456, 0.2087499960907735, 0.2175999979954213, 0.20229999790899456, 0.2014499987126328, 0.21160000324016437, 0.21784999989904463, 0.20724999922094867, 0.20514999778242782, 0.20229999790899456, 0.20370000129332766, 0.20884999685222283, 0.2007000002777204, 0.20714999845949933, 0.21859999833395705, 0.20825000683544204, 0.20585000311257318, 0.2021000036620535, 0.22324999736156315, 0.20324999786680564, 0.20245000632712618, 0.20194999524392188, 0.20729999960167333, 0.20220000442350283, 0.20264999329810962, 0.20770000264747068, 0.21895000099902973, 0.20265000057406723, 0.21445000311359763, 0.31165000109467655, 0.2895499928854406, 0.21084999752929434, 0.20460000087041408, 0.2080000049318187, 0.2028500020969659, 0.20699999731732532, 0.20994999795220792, 0.2053499993053265, 0.20709999807877466, 0.20524999854387715, 0.2117000040016137, 0.20909999875584617, 0.20390000281622633, 0.20185000175843015, 0.20810000569326803, 0.20994999795220792, 0.20315000438131392, 0.20090000180061907, 0.20494999625952914, 0.20495000353548676, 0.2114000017172657, 0.21055000252090394, 0.207199998840224, 0.2028500020969659, 0.21190000552451238, 0.20879999647149816, 0.2095500021823682, 0.203650000912603, 0.20799999765586108, 0.20315000438131392, 0.203650000912603, 0.21254999592201784, 0.2032999982475303, 0.2104500017594546, 0.20229999790899456, 0.20280000171624124, 0.2087500033667311, 0.2018999948631972, 0.20465000125113875, 0.203800002054777, 0.20429999858606607, 0.2015999998548068, 0.21300000662449747, 0.20165000023553148, 0.20744999346788973, 0.2029999959631823, 0.20029999723192304, 0.2015999998548068, 0.2166499980376102, 0.20360000053187832, 0.21050000214017928, 0.21019999985583127, 0.21389999892562628, 0.21455000387504697, 0.20419999782461673, 0.21854999795323238, 0.2164999968954362, 0.20260000019334257, 0.2008500014198944, 0.20355000015115365, 0.203650000912603, 0.20205000328132883, 0.207199998840224, 0.207500001124572, 0.20569999469444156],
  "QPU": "7000000",
  "Qubits": 4,
  "Queue durations [ms]": [0.0, 0.0, 0.0, 0.0, 0.0, 0.0, 0.0, 0.0, 0.0, 0.0, 0.0, 0.0, 0.0, 0.0, 0.0, 0.0, 0.0, 0.0, 0.0, 0.0, 0.0, 0.0, 0.0, 0.0, 0.0, 0.0, 0.0, 0.0, 0.0, 0.0, 0.0, 0.0, 0.0, 0.0, 0.0, 0.0, 0.0, 0.0, 0.0, 0.0, 0.0, 0.0, 0.0, 0.0, 0.0, 0.0, 0.0, 0.0, 0.0, 0.0, 0.0, 0.0, 0.0, 0.0, 0.0, 0.0, 0.0, 0.0, 0.0, 0.0, 0.0, 0.0, 0.0, 0.0, 0.0, 0.0, 0.0, 0.0, 0.0, 0.0, 0.0, 0.0, 0.0, 0.0, 0.0, 0.0, 0.0, 0.0, 0.0, 0.0, 0.0, 0.0, 0.0, 0.0, 0.0, 0.0, 0.0, 0.0, 0.0, 0.0, 0.0, 0.0, 0.0, 0.0, 0.0, 0.0, 0.0, 0.0, 0.0, 0.0, 0.0, 0.0, 0.0, 0.0, 0.0, 0.0, 0.0, 0.0, 0.0, 0.0, 0.0, 0.0, 0.0, 0.0, 0.0, 0.0, 0.0, 0.0, 0.0, 0.0, 0.0, 0.0, 0.0, 0.0, 0.0, 0.0, 0.0, 0.0, 0.0, 0.0, 0.0, 0.0, 0.0, 0.0, 0.0, 0.0, 0.0, 0.0, 0.0, 0.0, 0.0, 0.0, 0.0, 0.0, 0.0, 0.0, 0.0, 0.0, 0.0, 0.0, 0.0, 0.0, 0.0, 0.0, 0.0, 0.0, 0.0, 0.0, 0.0, 0.0, 0.0, 0.0, 0.0, 0.0, 0.0, 0.0, 0.0, 0.0, 0.0, 0.0, 0.0, 0.0, 0.0, 0.0, 0.0, 0.0, 0.0, 0.0, 0.0, 0.0, 0.0, 0.0, 0.0, 0.0, 0.0, 0.0, 0.0, 0.0, 0.0, 0.0, 0.0, 0.0, 0.0, 0.0, 0.0, 0.0, 0.0, 0.0, 0.0, 0.0, 0.0, 0.0, 0.0, 0.0, 0.0, 0.0, 0.0, 0.0, 0.0, 0.0, 0.0, 0.0, 0.0, 0.0, 0.0, 0.0, 0.0, 0.0, 0.0, 0.0, 0.0, 0.0, 0.0, 0.0, 0.0, 0.0, 0.0, 0.0, 0.0, 0.0, 0.0, 0.0, 0.0, 0.0, 0.0, 0.0, 0.0, 0.0, 0.0, 0.0, 0.0, 0.0, 0.0, 0.0, 0.0, 0.0, 0.0, 0.0, 0.0, 0.0, 0.0, 0.0, 0.0, 0.0, 0.0, 0.0, 0.0, 0.0, 0.0, 0.0, 0.0, 0.0, 0.0, 0.0, 0.0, 0.0, 0.0, 0.0, 0.0, 0.0, 0.0, 0.0, 0.0, 0.0, 0.0, 0.0, 0.0, 0.0, 0.0, 0.0, 0.0, 0.0, 0.0, 0.0, 0.0, 0.0, 0.0, 0.0, 0.0, 0.0, 0.0, 0.0, 0.0, 0.0, 0.0, 0.0, 0.0, 0.0, 0.0, 0.0, 0.0, 0.0, 0.0, 0.0, 0.0, 0.0, 0.0, 0.0, 0.0, 0.0, 0.0, 0.0, 0.0, 0.0, 0.0, 0.0, 0.0, 0.0, 0.0, 0.0, 0.0, 0.0, 0.0, 0.0, 0.0, 0.0, 0.0, 0.0, 0.0, 0.0, 0.0, 0.0, 0.0, 0.0, 0.0, 0.0, 0.0, 0.0, 0.0, 0.0, 0.0, 0.0, 0.0, 0.0, 0.0, 0.0, 0.0, 0.0, 0.0, 0.0, 0.0, 0.0, 0.0, 0.0, 0.0, 0.0, 0.0],
  "Shots": 4096,
  "Size": 4,
  "Total Algorithm duration [s]": 1.969,
  "Total Classic duration [s]": 1.8937717501057196,
  "Total Quantum duration [s]": 0.07522824989428045
}
