{
  "Circuit execution durations [ms]": [0.22324999736156315, 0.21434999507619068, 0.20334999862825498, 0.20704999769805, 0.20389999554026872, 0.2045500004896894, 0.2125000028172508, 0.21255000319797546, 0.20575000235112384, 0.21054999524494633, 0.20479999511735514, 0.2008500014198944, 0.2066000015474856, 0.20110000332351774, 0.20385000243550166, 0.20989999757148325, 0.20519999816315249, 0.20165000023553148, 0.21084999752929434, 0.19935000455006957, 0.19904999498976395, 0.21025000023655593, 0.20914999913657084, 0.20289999520173296, 0.20384999515954405, 0.20784999651368707, 0.20700000459328294, 0.20575000235112384, 0.20309999672463164, 0.20104999566683546, 0.2059499965980649, 0.20584999583661556, 0.20229999790899456, 0.20979999681003392, 0.20774999575223774, 0.20994999795220792, 0.2268999960506335, 0.2111000067088753, 0.20885000412818044, 0.22244999126996845, 0.20789999689441174, 0.20645000040531158, 0.21180000476306304, 0.21505000040633604, 0.20710000535473228, 0.21225000091362745, 0.21085000480525196, 0.2167999991797842, 0.20399999630171806, 0.2024000059464015, 0.21469999774126336, 0.2015999998548068, 0.20344999938970432, 0.20500000391621143, 0.20265000057406723, 0.21335000201361254, 0.22430000535678118, 0.20494999625952914, 0.24059999850578606, 0.2176000052713789, 0.20460000087041408, 0.20435000624274835, 0.21660000493284315, 0.20485000277403742, 0.20604999735951424, 0.20375000167405233, 0.20514999778242782, 0.2077999961329624, 0.21284999820636585, 0.21594999998342246, 0.20670000230893493, 0.20760000188602135, 0.21020000713178888, 0.2029999959631823, 0.20414999744389206, 0.21445000311359763, 0.2091999995172955, 0.2136999974027276, 0.22205000277608633, 0.20434999896679074, 0.2074999938486144, 0.20809999841731042, 0.207199998840224, 0.20560000120894983, 0.2056500015896745, 0.20585000311257318, 0.2062499988824129, 0.20935000065946952, 0.21144999482203275, 0.2032999982475303, 0.20539999968605116, 0.20385000243550166, 0.2043999993475154, 0.21830000332556665, 0.20864999532932416, 0.20935000065946952, 0.21890000789426267, 0.20344999938970432, 0.21019999985583127, 0.23650000366615131, 0.20979999681003392, 0.20694999693660066, 0.2085999949485995, 0.204100004339125, 0.20399999630171806, 0.21209999977145344, 0.20819999917875975, 0.20545000006677583, 0.20804999803658575, 0.2116999967256561, 0.20884999685222283, 0.21890000061830506, 0.21830000332556665, 0.21225000091362745, 0.2177499991375953, 0.21299999934853986, 0.2052000054391101, 0.2052000054391101, 0.207349999982398, 0.20840000070165843, 0.21304999972926453, 0.20740000036312267, 0.203800002054777, 0.20480000239331275, 0.20265000057406723, 0.20684999617515132, 0.20674999541370198, 0.20759999461006373, 0.2072000061161816, 0.2058000027318485, 0.20864999532932416, 0.2049999966402538, 0.2081500060739927, 0.21164999634493142, 0.21050000214017928, 0.2061500053969212, 0.20840000070165843, 0.2026999936788343, 0.26455000624991953, 0.21430000197142363, 0.20840000070165843, 0.21130000095581636, 0.2131000001099892, 0.2059499965980649, 0.2085999949485995, 0.20430000586202368, 0.20510000467766076, 0.20770000264747068, 0.20234999828971922, 0.2028500020969659, 0.24074999964796007, 0.20529999892460182, 0.21194999862927943, 0.2153999957954511, 0.21645000379066914, 0.20555000082822517, 0.20680000307038426, 0.2049999966402538, 0.20604999735951424, 0.20295000285841525, 0.20984999719075859, 0.2055000004475005, 0.2134000023943372, 0.2155499969376251, 0.2165000041713938, 0.2179000002797693, 0.2055000004475005, 0.21415000082924962, 0.22080000053392723, 0.20584999583661556, 0.20914999913657084, 0.20935000065946952, 0.20515000505838543, 0.26149999757763, 0.1799000019673258, 0.3432999874348752, 0.20405000395840034, 0.2049000031547621, 0.2158999996026978, 0.21349999587982893, 0.21040000137872994, 0.2056500015896745, 0.2070500049740076, 0.2028499948210083, 0.2146499973605387, 0.20315000438131392, 0.2053499993053265, 0.21075000404380262, 0.20349999977042899, 0.20755000150529668, 0.21485000615939498, 0.2062499988824129, 0.21469999774126336, 0.2045500004896894, 0.20529999892460182, 0.2066000015474856, 0.20840000070165843, 0.20724999922094867, 0.20449999283300713, 0.20809999841731042, 0.20835000032093376, 0.20500000391621143, 0.20905000565107912, 0.21209999977145344, 0.2151000007870607, 0.210749996767845, 0.20245000632712618, 0.20514999778242782, 0.20465000125113875, 0.20569999469444156, 0.20460000087041408, 0.20404999668244272, 0.20924999989802018, 0.21194999862927943, 0.20450000010896474, 0.2042499982053414, 0.20604999735951424, 0.2116999967256561, 0.21050000214017928, 0.22149999858811498, 0.21830000332556665, 0.20940000104019418, 0.20515000505838543, 0.20590000349329785, 0.21194999862927943, 0.21230000129435211, 0.23890000011306256, 0.2065499938908033, 0.20710000535473228, 0.21655000455211848, 0.20419999782461673, 0.2061500053969212, 0.2062499988824129, 0.20324999786680564, 0.21040000137872994, 0.20724999922094867, 0.20430000586202368, 0.20334999862825498, 0.20619999850168824, 0.20510000467766076, 0.20180000137770548, 0.2148000057786703, 0.2042499982053414, 0.20495000353548676, 0.20295000285841525, 0.2177499991375953, 0.20360000053187832, 0.21425000159069896, 0.20324999786680564, 0.20865000260528177, 0.21104999905219302, 0.20680000307038426, 0.2042499982053414, 0.2039499959209934, 0.21055000252090394, 0.21320000087143853, 0.2015999998548068, 0.2049999966402538, 0.20665000192821026, 0.20969999604858458, 0.2132500012521632, 0.20450000010896474, 0.20199999562464654, 0.21484999888343737, 0.2056500015896745, 0.20470000163186342, 0.20865000260528177, 0.20704999769805, 0.24590000248281285, 0.20825000683544204, 0.21144999482203275, 0.20480000239331275, 0.21094999829074368, 0.20709999807877466, 0.20509999740170315, 0.20560000120894983, 0.20429999858606607, 0.203800002054777, 0.21035000099800527, 0.20619999850168824, 0.20510000467766076, 0.21964999905321747, 0.210899997910019, 0.20545000006677583, 0.21104999905219302, 0.20415000471984968, 0.2091999995172955, 0.23065000277711079, 0.20444999972824007, 0.20784999651368707, 0.2098500044667162, 0.2058000027318485, 0.20704999769805, 0.2192999963881448, 0.20170000061625615, 0.2046999943559058, 0.20575000235112384, 0.2025499998126179, 0.207199998840224, 0.21764999837614596, 0.2132500012521632, 0.2077999961329624, 0.21784999989904463, 0.20475000201258808, 0.2066000015474856, 0.20415000471984968, 0.20145000598859042, 0.2008500014198944, 0.20175000099698082, 0.20405000395840034, 0.20154999947408214, 0.20694999693660066, 0.20390000281622633, 0.20244999905116856, 0.20039999799337238, 0.20180000137770548, 0.2022499975282699, 0.1999000014620833, 0.20089999452466145, 0.200250004127156, 0.21104999905219302, 0.2333999946131371, 0.20529999892460182, 0.20810000569326803, 0.21165000362088904, 0.20619999850168824, 0.20294999558245763, 0.24074999237200245, 0.20344999938970432, 0.2077999961329624, 0.2088999972329475, 0.21040000137872994, 0.20429999858606607, 0.21120000019436702, 0.20775000302819535, 0.20405000395840034, 0.203800002054777, 0.21345000277506188, 0.20249999943189323, 0.20015000336570665, 0.20305000361986458, 0.2088999972329475, 0.20959999528713524, 0.203950003196951, 0.2089000045089051],
  "Depth": 10.5,
  "Expectation Value": -4.526792526245117,
  "Optimal Expectation Value": -4.75877046585083,
  "Optimizer durations [ms]": [5.657, 5.495, 5.031, 5.223, 5.165, 4.989, 5.197, 5.397, 5.106, 5.262, 5.057, 5.055, 5.052, 5.08, 4.928, 5.07, 5.007, 4.978, 5.167, 4.958, 4.882, 5.063, 5.42, 4.988, 4.999, 5.197, 5.233, 5.119, 5.017, 4.932, 5.055, 5.043, 5.044, 5.04, 5.215, 5.184, 5.517, 5.247, 5.182, 5.245, 5.441, 5.219, 5.185, 5.237, 5.062, 5.208, 9.475, 5.382, 5.145, 5.023, 5.151, 5.215, 5.103, 5.011, 5.058, 5.196, 5.373, 5.256, 5.659, 5.417, 5.162, 5.091, 16.409, 5.056, 5.032, 5.082, 5.121, 5.195, 5.128, 5.422, 5.123, 5.048, 5.332, 5.06, 5.006, 5.187, 5.135, 5.208, 5.444, 5.289, 4.997, 5.049, 5.197, 5.073, 5.165, 5.007, 5.009, 5.044, 5.192, 5.084, 5.069, 5.048, 5.007, 5.262, 5.25, 5.263, 5.28, 5.12, 5.266, 5.52, 5.068, 5.302, 5.212, 5.024, 5.081, 5.066, 5.322, 5.215, 5.133, 5.252, 5.166, 5.13, 5.401, 5.24, 5.414, 5.313, 5.101, 5.13, 5.085, 5.156, 5.348, 5.163, 5.016, 5.01, 5.089, 5.082, 5.138, 5.182, 5.026, 5.203, 5.096, 5.007, 5.067, 5.104, 5.302, 5.135, 5.122, 5.147, 6.023, 7.434, 5.279, 5.282, 5.216, 5.164, 5.162, 5.04, 5.084, 5.125, 5.037, 5.077, 5.565, 5.298, 5.092, 5.245, 5.256, 5.294, 5.352, 5.017, 5.024, 5.096, 5.115, 5.131, 5.032, 5.358, 5.324, 5.544, 5.119, 5.24, 5.323, 5.261, 5.111, 5.308, 5.256, 6.113, 23.321, 8.297, 5.038, 4.996, 4.971, 5.639, 5.073, 5.287, 5.174, 5.069, 5.181, 5.123, 5.069, 5.222, 5.059, 5.194, 5.44, 5.049, 5.376, 5.3, 5.152, 5.096, 5.255, 5.109, 5.058, 5.197, 5.174, 5.007, 5.109, 5.147, 5.267, 5.091, 5.244, 5.136, 5.142, 5.021, 5.02, 5.073, 5.161, 5.093, 5.134, 5.084, 5.122, 5.071, 5.083, 5.573, 5.209, 5.234, 5.133, 5.162, 5.099, 5.235, 5.778, 5.088, 5.087, 5.159, 5.239, 5.179, 5.291, 7.834, 5.185, 5.152, 5.038, 5.049, 5.103, 5.002, 4.99, 5.023, 5.367, 5.06, 5.432, 5.39, 5.133, 5.236, 11.945, 5.074, 5.234, 5.233, 5.103, 5.012, 5.184, 4.966, 5.285, 5.062, 5.123, 5.27, 5.274, 5.012, 4.87, 5.066, 5.119, 5.13, 5.342, 5.067, 5.853, 5.22, 5.057, 5.153, 5.224, 5.218, 5.026, 5.058, 5.032, 5.03, 5.219, 5.11, 5.003, 5.161, 5.033, 5.217, 5.183, 5.018, 5.325, 5.663, 5.159, 5.09, 5.155, 5.03, 5.066, 5.076, 5.277, 5.088, 5.165, 5.071, 5.013, 5.372, 5.298, 5.099, 5.228, 5.37, 5.169, 5.015, 5.022, 5.022, 4.873, 4.998, 5.076, 5.078, 5.038, 5.033, 5.035, 4.895, 4.854, 4.806, 5.237, 5.13, 5.065, 5.466, 5.165, 5.393, 4.999, 5.232, 4.961, 5.718, 5.059, 5.194, 5.107, 5.203, 5.087, 5.118, 5.262, 4.947, 4.997, 5.228, 5.039, 5.068, 5.047, 5.096, 5.362, 4.976, 5.153],
  "Optimizer iterations": 345,
  "Optimizer params": [0.4446610318014572, 0.5446079710911831, 0.9857249279067725, 0.09266975689162558, 0.9349660064665518, 0.5026742892051449, 0.46574422323038056, 0.8088296461706832, 0.5686530397347455, 0.9083394020213347, 0.6132573553983042, 0.9305669454010298, 0.9740538591903509, 0.4767386331618618, 0.028432280134298524, 0.30961404531763476],
  "P": 0,
  "Problem": "IC",
  "QJob durations [ms]": [0.22324999736156315, 0.21434999507619068, 0.20334999862825498, 0.20704999769805, 0.20389999554026872, 0.2045500004896894, 0.2125000028172508, 0.21255000319797546, 0.20575000235112384, 0.21054999524494633, 0.20479999511735514, 0.2008500014198944, 0.2066000015474856, 0.20110000332351774, 0.20385000243550166, 0.20989999757148325, 0.20519999816315249, 0.20165000023553148, 0.21084999752929434, 0.19935000455006957, 0.19904999498976395, 0.21025000023655593, 0.20914999913657084, 0.20289999520173296, 0.20384999515954405, 0.20784999651368707, 0.20700000459328294, 0.20575000235112384, 0.20309999672463164, 0.20104999566683546, 0.2059499965980649, 0.20584999583661556, 0.20229999790899456, 0.20979999681003392, 0.20774999575223774, 0.20994999795220792, 0.2268999960506335, 0.2111000067088753, 0.20885000412818044, 0.22244999126996845, 0.20789999689441174, 0.20645000040531158, 0.21180000476306304, 0.21505000040633604, 0.20710000535473228, 0.21225000091362745, 0.21085000480525196, 0.2167999991797842, 0.20399999630171806, 0.2024000059464015, 0.21469999774126336, 0.2015999998548068, 0.20344999938970432, 0.20500000391621143, 0.20265000057406723, 0.21335000201361254, 0.22430000535678118, 0.20494999625952914, 0.24059999850578606, 0.2176000052713789, 0.20460000087041408, 0.20435000624274835, 0.21660000493284315, 0.20485000277403742, 0.20604999735951424, 0.20375000167405233, 0.20514999778242782, 0.2077999961329624, 0.21284999820636585, 0.21594999998342246, 0.20670000230893493, 0.20760000188602135, 0.21020000713178888, 0.2029999959631823, 0.20414999744389206, 0.21445000311359763, 0.2091999995172955, 0.2136999974027276, 0.22205000277608633, 0.20434999896679074, 0.2074999938486144, 0.20809999841731042, 0.207199998840224, 0.20560000120894983, 0.2056500015896745, 0.20585000311257318, 0.2062499988824129, 0.20935000065946952, 0.21144999482203275, 0.2032999982475303, 0.20539999968605116, 0.20385000243550166, 0.2043999993475154, 0.21830000332556665, 0.20864999532932416, 0.20935000065946952, 0.21890000789426267, 0.20344999938970432, 0.21019999985583127, 0.23650000366615131, 0.20979999681003392, 0.20694999693660066, 0.2085999949485995, 0.204100004339125, 0.20399999630171806, 0.21209999977145344, 0.20819999917875975, 0.20545000006677583, 0.20804999803658575, 0.2116999967256561, 0.20884999685222283, 0.21890000061830506, 0.21830000332556665, 0.21225000091362745, 0.2177499991375953, 0.21299999934853986, 0.2052000054391101, 0.2052000054391101, 0.207349999982398, 0.20840000070165843, 0.21304999972926453, 0.20740000036312267, 0.203800002054777, 0.20480000239331275, 0.20265000057406723, 0.20684999617515132, 0.20674999541370198, 0.20759999461006373, 0.2072000061161816, 0.2058000027318485, 0.20864999532932416, 0.2049999966402538, 0.2081500060739927, 0.21164999634493142, 0.21050000214017928, 0.2061500053969212, 0.20840000070165843, 0.2026999936788343, 0.26455000624991953, 0.21430000197142363, 0.20840000070165843, 0.21130000095581636, 0.2131000001099892, 0.2059499965980649, 0.2085999949485995, 0.20430000586202368, 0.20510000467766076, 0.20770000264747068, 0.20234999828971922, 0.2028500020969659, 0.24074999964796007, 0.20529999892460182, 0.21194999862927943, 0.2153999957954511, 0.21645000379066914, 0.20555000082822517, 0.20680000307038426, 0.2049999966402538, 0.20604999735951424, 0.20295000285841525, 0.20984999719075859, 0.2055000004475005, 0.2134000023943372, 0.2155499969376251, 0.2165000041713938, 0.2179000002797693, 0.2055000004475005, 0.21415000082924962, 0.22080000053392723, 0.20584999583661556, 0.20914999913657084, 0.20935000065946952, 0.20515000505838543, 0.26149999757763, 0.1799000019673258, 0.3432999874348752, 0.20405000395840034, 0.2049000031547621, 0.2158999996026978, 0.21349999587982893, 0.21040000137872994, 0.2056500015896745, 0.2070500049740076, 0.2028499948210083, 0.2146499973605387, 0.20315000438131392, 0.2053499993053265, 0.21075000404380262, 0.20349999977042899, 0.20755000150529668, 0.21485000615939498, 0.2062499988824129, 0.21469999774126336, 0.2045500004896894, 0.20529999892460182, 0.2066000015474856, 0.20840000070165843, 0.20724999922094867, 0.20449999283300713, 0.20809999841731042, 0.20835000032093376, 0.20500000391621143, 0.20905000565107912, 0.21209999977145344, 0.2151000007870607, 0.210749996767845, 0.20245000632712618, 0.20514999778242782, 0.20465000125113875, 0.20569999469444156, 0.20460000087041408, 0.20404999668244272, 0.20924999989802018, 0.21194999862927943, 0.20450000010896474, 0.2042499982053414, 0.20604999735951424, 0.2116999967256561, 0.21050000214017928, 0.22149999858811498, 0.21830000332556665, 0.20940000104019418, 0.20515000505838543, 0.20590000349329785, 0.21194999862927943, 0.21230000129435211, 0.23890000011306256, 0.2065499938908033, 0.20710000535473228, 0.21655000455211848, 0.20419999782461673, 0.2061500053969212, 0.2062499988824129, 0.20324999786680564, 0.21040000137872994, 0.20724999922094867, 0.20430000586202368, 0.20334999862825498, 0.20619999850168824, 0.20510000467766076, 0.20180000137770548, 0.2148000057786703, 0.2042499982053414, 0.20495000353548676, 0.20295000285841525, 0.2177499991375953, 0.20360000053187832, 0.21425000159069896, 0.20324999786680564, 0.20865000260528177, 0.21104999905219302, 0.20680000307038426, 0.2042499982053414, 0.2039499959209934, 0.21055000252090394, 0.21320000087143853, 0.2015999998548068, 0.2049999966402538, 0.20665000192821026, 0.20969999604858458, 0.2132500012521632, 0.20450000010896474, 0.20199999562464654, 0.21484999888343737, 0.2056500015896745, 0.20470000163186342, 0.20865000260528177, 0.20704999769805, 0.24590000248281285, 0.20825000683544204, 0.21144999482203275, 0.20480000239331275, 0.21094999829074368, 0.20709999807877466, 0.20509999740170315, 0.20560000120894983, 0.20429999858606607, 0.203800002054777, 0.21035000099800527, 0.20619999850168824, 0.20510000467766076, 0.21964999905321747, 0.210899997910019, 0.20545000006677583, 0.21104999905219302, 0.20415000471984968, 0.2091999995172955, 0.23065000277711079, 0.20444999972824007, 0.20784999651368707, 0.2098500044667162, 0.2058000027318485, 0.20704999769805, 0.2192999963881448, 0.20170000061625615, 0.2046999943559058, 0.20575000235112384, 0.2025499998126179, 0.207199998840224, 0.21764999837614596, 0.2132500012521632, 0.2077999961329624, 0.21784999989904463, 0.20475000201258808, 0.2066000015474856, 0.20415000471984968, 0.20145000598859042, 0.2008500014198944, 0.20175000099698082, 0.20405000395840034, 0.20154999947408214, 0.20694999693660066, 0.20390000281622633, 0.20244999905116856, 0.20039999799337238, 0.20180000137770548, 0.2022499975282699, 0.1999000014620833, 0.20089999452466145, 0.200250004127156, 0.21104999905219302, 0.2333999946131371, 0.20529999892460182, 0.20810000569326803, 0.21165000362088904, 0.20619999850168824, 0.20294999558245763, 0.24074999237200245, 0.20344999938970432, 0.2077999961329624, 0.2088999972329475, 0.21040000137872994, 0.20429999858606607, 0.21120000019436702, 0.20775000302819535, 0.20405000395840034, 0.203800002054777, 0.21345000277506188, 0.20249999943189323, 0.20015000336570665, 0.20305000361986458, 0.2088999972329475, 0.20959999528713524, 0.203950003196951, 0.2089000045089051],
  "QPU": "7000000",
  "Qubits": 4,
  "Queue durations [ms]": [0.0, 0.0, 0.0, 0.0, 0.0, 0.0, 0.0, 0.0, 0.0, 0.0, 0.0, 0.0, 0.0, 0.0, 0.0, 0.0, 0.0, 0.0, 0.0, 0.0, 0.0, 0.0, 0.0, 0.0, 0.0, 0.0, 0.0, 0.0, 0.0, 0.0, 0.0, 0.0, 0.0, 0.0, 0.0, 0.0, 0.0, 0.0, 0.0, 0.0, 0.0, 0.0, 0.0, 0.0, 0.0, 0.0, 0.0, 0.0, 0.0, 0.0, 0.0, 0.0, 0.0, 0.0, 0.0, 0.0, 0.0, 0.0, 0.0, 0.0, 0.0, 0.0, 0.0, 0.0, 0.0, 0.0, 0.0, 0.0, 0.0, 0.0, 0.0, 0.0, 0.0, 0.0, 0.0, 0.0, 0.0, 0.0, 0.0, 0.0, 0.0, 0.0, 0.0, 0.0, 0.0, 0.0, 0.0, 0.0, 0.0, 0.0, 0.0, 0.0, 0.0, 0.0, 0.0, 0.0, 0.0, 0.0, 0.0, 0.0, 0.0, 0.0, 0.0, 0.0, 0.0, 0.0, 0.0, 0.0, 0.0, 0.0, 0.0, 0.0, 0.0, 0.0, 0.0, 0.0, 0.0, 0.0, 0.0, 0.0, 0.0, 0.0, 0.0, 0.0, 0.0, 0.0, 0.0, 0.0, 0.0, 0.0, 0.0, 0.0, 0.0, 0.0, 0.0, 0.0, 0.0, 0.0, 0.0, 0.0, 0.0, 0.0, 0.0, 0.0, 0.0, 0.0, 0.0, 0.0, 0.0, 0.0, 0.0, 0.0, 0.0, 0.0, 0.0, 0.0, 0.0, 0.0, 0.0, 0.0, 0.0, 0.0, 0.0, 0.0, 0.0, 0.0, 0.0, 0.0, 0.0, 0.0, 0.0, 0.0, 0.0, 0.0, 0.0, 0.0, 0.0, 0.0, 0.0, 0.0, 0.0, 0.0, 0.0, 0.0, 0.0, 0.0, 0.0, 0.0, 0.0, 0.0, 0.0, 0.0, 0.0, 0.0, 0.0, 0.0, 0.0, 0.0, 0.0, 0.0, 0.0, 0.0, 0.0, 0.0, 0.0, 0.0, 0.0, 0.0, 0.0, 0.0, 0.0, 0.0, 0.0, 0.0, 0.0, 0.0, 0.0, 0.0, 0.0, 0.0, 0.0, 0.0, 0.0, 0.0, 0.0, 0.0, 0.0, 0.0, 0.0, 0.0, 0.0, 0.0, 0.0, 0.0, 0.0, 0.0, 0.0, 0.0, 0.0, 0.0, 0.0, 0.0, 0.0, 0.0, 0.0, 0.0, 0.0, 0.0, 0.0, 0.0, 0.0, 0.0, 0.0, 0.0, 0.0, 0.0, 0.0, 0.0, 0.0, 0.0, 0.0, 0.0, 0.0, 0.0, 0.0, 0.0, 0.0, 0.0, 0.0, 0.0, 0.0, 0.0, 0.0, 0.0, 0.0, 0.0, 0.0, 0.0, 0.0, 0.0, 0.0, 0.0, 0.0, 0.0, 0.0, 0.0, 0.0, 0.0, 0.0, 0.0, 0.0, 0.0, 0.0, 0.0, 0.0, 0.0, 0.0, 0.0, 0.0, 0.0, 0.0, 0.0, 0.0, 0.0, 0.0, 0.0, 0.0, 0.0, 0.0, 0.0, 0.0, 0.0, 0.0, 0.0, 0.0, 0.0, 0.0, 0.0, 0.0, 0.0, 0.0, 0.0, 0.0, 0.0, 0.0, 0.0, 0.0, 0.0, 0.0, 0.0, 0.0, 0.0, 0.0, 0.0, 0.0, 0.0, 0.0, 0.0, 0.0, 0.0, 0.0, 0.0, 0.0, 0.0, 0.0],
  "Shots": 4096,
  "Size": 4,
  "Total Algorithm duration [s]": 1.83,
  "Total Classic duration [s]": 1.7578056999683032,
  "Total Quantum duration [s]": 0.07219430003169691
}
