{
  "Circuit execution durations [ms]": [0.4112, 0.3751, 0.3706, 0.3748, 0.3719, 0.3706, 0.3715, 0.37839999999999996, 0.37970000000000004, 0.3698, 0.3694, 0.3703, 0.3717, 0.3685, 0.3891, 0.371, 0.3694, 0.3682, 0.3689, 0.38010000000000005, 0.37, 0.3951, 0.3844, 0.392, 0.3695, 0.3688, 0.3702, 0.3699, 0.3687, 0.4038, 0.37560000000000004, 0.3914, 0.3744, 0.3703, 0.3729, 0.3689, 0.3721, 0.3844, 0.37270000000000003, 0.3733, 0.3725, 0.40700000000000003, 0.37429999999999997, 0.3816, 0.38230000000000003, 0.3747, 0.36860000000000004, 0.37070000000000003, 0.38739999999999997, 0.3789, 0.3787, 0.38010000000000005, 0.384, 0.3585, 0.4032, 0.37310000000000004, 0.3703, 0.3723, 0.3717, 0.3701, 0.37179999999999996, 0.3935, 0.3754, 0.3994, 0.3715, 0.3713, 0.38739999999999997, 0.38220000000000004, 0.392, 0.3792, 0.388, 0.38180000000000003, 0.3704, 0.3836, 0.37320000000000003, 0.3723, 0.3709, 0.3994, 0.3717, 0.3725, 0.3721, 0.3906, 0.3737, 0.3745, 0.3782, 0.3834, 0.43370000000000003, 0.3853],
  "Depth": 41.0,
  "Expectation Value": -2.9769721031188965,
  "Optimal Expectation Value": -4.0,
  "Optimizer durations [ms]": [4.857, 4.246, 4.179, 4.213, 4.362, 4.205, 4.186, 4.256, 4.286, 4.177, 4.163, 4.186, 4.207, 4.17, 4.364, 4.246, 4.159, 4.147, 4.162, 4.271, 4.166, 4.498, 4.403, 4.424, 4.165, 4.155, 4.187, 4.184, 4.167, 4.517, 4.246, 4.429, 4.23, 4.178, 4.206, 4.148, 4.175, 4.341, 4.209, 4.225, 4.208, 4.644, 4.264, 4.284, 4.311, 4.213, 4.167, 4.197, 4.342, 4.301, 4.277, 4.27, 4.334, 4.275, 4.636, 4.222, 4.173, 4.184, 4.199, 4.193, 4.186, 4.554, 4.25, 4.48, 4.2, 4.204, 4.26, 4.394, 4.426, 4.294, 4.457, 4.285, 4.184, 4.341, 4.225, 4.186, 4.197, 4.485, 4.187, 4.183, 4.212, 4.425, 4.216, 4.217, 4.27, 4.424, 4.883, 4.414],
  "Optimizer iterations": 88,
  "Optimizer params": [0.6484085407500719, 0.004128890166845952, 1.0, 0.23757684064726103, 0.37251218805823577, 0.8892387248098417],
  "P": 3,
  "Problem": "MCP",
  "QJob durations [ms]": [0.4112, 0.3751, 0.3706, 0.3748, 0.3719, 0.3706, 0.3715, 0.37839999999999996, 0.37970000000000004, 0.3698, 0.3694, 0.3703, 0.3717, 0.3685, 0.3891, 0.371, 0.3694, 0.3682, 0.3689, 0.38010000000000005, 0.37, 0.3951, 0.3844, 0.392, 0.3695, 0.3688, 0.3702, 0.3699, 0.3687, 0.4038, 0.37560000000000004, 0.3914, 0.3744, 0.3703, 0.3729, 0.3689, 0.3721, 0.3844, 0.37270000000000003, 0.3733, 0.3725, 0.40700000000000003, 0.37429999999999997, 0.3816, 0.38230000000000003, 0.3747, 0.36860000000000004, 0.37070000000000003, 0.38739999999999997, 0.3789, 0.3787, 0.38010000000000005, 0.384, 0.3585, 0.4032, 0.37310000000000004, 0.3703, 0.3723, 0.3717, 0.3701, 0.37179999999999996, 0.3935, 0.3754, 0.3994, 0.3715, 0.3713, 0.38739999999999997, 0.38220000000000004, 0.392, 0.3792, 0.388, 0.38180000000000003, 0.3704, 0.3836, 0.37320000000000003, 0.3723, 0.3709, 0.3994, 0.3717, 0.3725, 0.3721, 0.3906, 0.3737, 0.3745, 0.3782, 0.3834, 0.43370000000000003, 0.3853],
  "QPU": "7000000",
  "Qubits": 4,
  "Queue durations [ms]": [0.0, 0.0, 0.0, 0.0, 0.0, 0.0, 0.0, 0.0, 0.0, 0.0, 0.0, 0.0, 0.0, 0.0, 0.0, 0.0, 0.0, 0.0, 0.0, 0.0, 0.0, 0.0, 0.0, 0.0, 0.0, 0.0, 0.0, 0.0, 0.0, 0.0, 0.0, 0.0, 0.0, 0.0, 0.0, 0.0, 0.0, 0.0, 0.0, 0.0, 0.0, 0.0, 0.0, 0.0, 0.0, 0.0, 0.0, 0.0, 0.0, 0.0, 0.0, 0.0, 0.0, 0.0, 0.0, 0.0, 0.0, 0.0, 0.0, 0.0, 0.0, 0.0, 0.0, 0.0, 0.0, 0.0, 0.0, 0.0, 0.0, 0.0, 0.0, 0.0, 0.0, 0.0, 0.0, 0.0, 0.0, 0.0, 0.0, 0.0, 0.0, 0.0, 0.0, 0.0, 0.0, 0.0, 0.0, 0.0],
  "Shots": 4096,
  "Size": 4,
  "Total Algorithm duration [s]": 0.377,
  "Total Classic duration [s]": 0.3436924,
  "Total Quantum duration [s]": 0.03330760000000001
}
