{
  "Circuit execution durations [ms]": [0.3851, 0.3701, 0.3773, 0.3921, 0.36900000000000005, 0.38020000000000004, 0.3793, 0.3724, 0.3685, 0.3765, 0.44539999999999996, 0.3811, 0.4485, 0.39599999999999996, 0.3972, 0.367, 0.37320000000000003, 0.39239999999999997, 0.368, 0.3859, 0.3741, 0.3789, 0.37560000000000004, 0.3675, 0.4734, 0.37270000000000003, 0.36689999999999995, 0.3877, 0.3697, 0.3798, 0.3692, 0.36929999999999996, 0.3897, 0.36910000000000004, 0.37139999999999995, 0.3787, 0.36910000000000004, 0.37120000000000003, 0.3778, 0.36900000000000005, 0.36929999999999996, 0.3703, 0.3746, 0.37139999999999995, 0.3733, 0.3684, 0.3692, 0.37, 0.37070000000000003, 0.3705, 0.3704, 0.3741, 0.3891, 0.5939, 0.31139999999999995, 0.5927, 0.48260000000000003, 0.3836, 0.3716, 0.37139999999999995, 0.37310000000000004, 0.3723, 0.4366, 0.3767, 0.37629999999999997, 0.3723, 0.37320000000000003, 0.3795, 0.38939999999999997, 0.3721, 0.37560000000000004, 0.3745, 0.3704, 0.3709, 0.3833, 0.37589999999999996, 0.37560000000000004, 0.37070000000000003, 0.3722, 0.3703, 0.371, 0.39080000000000004, 0.36860000000000004, 0.37, 0.3702, 0.3725, 0.3701, 0.3694, 0.3931, 0.37770000000000004, 0.3717, 0.3737, 0.3749, 0.3741, 0.38420000000000004, 0.3882, 0.3753, 0.3697, 0.3702, 0.3724, 0.3852, 0.4011, 0.3794, 0.39, 0.3932, 0.3782, 0.3698, 0.368],
  "Depth": 41.0,
  "Expectation Value": -3.484818696975708,
  "Optimal Expectation Value": -4.0,
  "Optimizer durations [ms]": [4.498, 4.398, 4.313, 4.438, 4.187, 4.28, 4.286, 4.255, 4.165, 4.254, 4.98, 4.317, 5.029, 4.593, 4.504, 4.146, 4.294, 4.442, 4.176, 4.414, 4.275, 4.168, 4.356, 4.16, 4.908, 4.589, 4.149, 4.463, 4.195, 4.35, 4.175, 4.174, 4.423, 4.295, 4.199, 4.274, 4.187, 4.184, 4.266, 4.19, 4.185, 4.179, 4.233, 4.208, 4.188, 4.179, 4.205, 4.184, 4.177, 4.33, 4.184, 4.191, 4.456, 6.115, 13.089, 10.286, 5.338, 4.814, 4.217, 4.202, 4.228, 4.204, 4.893, 4.292, 4.335, 4.213, 4.218, 4.274, 4.475, 4.207, 4.27, 4.194, 4.186, 4.183, 4.319, 4.247, 4.254, 4.194, 4.37, 4.189, 4.185, 4.393, 4.162, 4.185, 4.186, 4.229, 4.201, 4.227, 4.456, 4.279, 4.206, 4.262, 4.257, 4.265, 4.369, 4.441, 4.29, 4.212, 4.19, 4.231, 4.403, 4.551, 4.309, 4.454, 4.506, 4.308, 4.176, 4.181],
  "Optimizer iterations": 108,
  "Optimizer params": [0.07212062157001704, 0.13014207332616937, 0.6784437482481743, 0.9853313135331968, 0.6165474431166911, 0.939104255089087],
  "P": 3,
  "Problem": "MCP",
  "QJob durations [ms]": [0.3851, 0.3701, 0.3773, 0.3921, 0.36900000000000005, 0.38020000000000004, 0.3793, 0.3724, 0.3685, 0.3765, 0.44539999999999996, 0.3811, 0.4485, 0.39599999999999996, 0.3972, 0.367, 0.37320000000000003, 0.39239999999999997, 0.368, 0.3859, 0.3741, 0.3789, 0.37560000000000004, 0.3675, 0.4734, 0.37270000000000003, 0.36689999999999995, 0.3877, 0.3697, 0.3798, 0.3692, 0.36929999999999996, 0.3897, 0.36910000000000004, 0.37139999999999995, 0.3787, 0.36910000000000004, 0.37120000000000003, 0.3778, 0.36900000000000005, 0.36929999999999996, 0.3703, 0.3746, 0.37139999999999995, 0.3733, 0.3684, 0.3692, 0.37, 0.37070000000000003, 0.3705, 0.3704, 0.3741, 0.3891, 0.5939, 0.31139999999999995, 0.5927, 0.48260000000000003, 0.3836, 0.3716, 0.37139999999999995, 0.37310000000000004, 0.3723, 0.4366, 0.3767, 0.37629999999999997, 0.3723, 0.37320000000000003, 0.3795, 0.38939999999999997, 0.3721, 0.37560000000000004, 0.3745, 0.3704, 0.3709, 0.3833, 0.37589999999999996, 0.37560000000000004, 0.37070000000000003, 0.3722, 0.3703, 0.371, 0.39080000000000004, 0.36860000000000004, 0.37, 0.3702, 0.3725, 0.3701, 0.3694, 0.3931, 0.37770000000000004, 0.3717, 0.3737, 0.3749, 0.3741, 0.38420000000000004, 0.3882, 0.3753, 0.3697, 0.3702, 0.3724, 0.3852, 0.4011, 0.3794, 0.39, 0.3932, 0.3782, 0.3698, 0.368],
  "QPU": "7000000",
  "Qubits": 4,
  "Queue durations [ms]": [0.0, 0.0, 0.0, 0.0, 0.0, 0.0, 0.0, 0.0, 0.0, 0.0, 0.0, 0.0, 0.0, 0.0, 0.0, 0.0, 0.0, 0.0, 0.0, 0.0, 0.0, 0.0, 0.0, 0.0, 0.0, 0.0, 0.0, 0.0, 0.0, 0.0, 0.0, 0.0, 0.0, 0.0, 0.0, 0.0, 0.0, 0.0, 0.0, 0.0, 0.0, 0.0, 0.0, 0.0, 0.0, 0.0, 0.0, 0.0, 0.0, 0.0, 0.0, 0.0, 0.0, 0.0, 0.0, 0.0, 0.0, 0.0, 0.0, 0.0, 0.0, 0.0, 0.0, 0.0, 0.0, 0.0, 0.0, 0.0, 0.0, 0.0, 0.0, 0.0, 0.0, 0.0, 0.0, 0.0, 0.0, 0.0, 0.0, 0.0, 0.0, 0.0, 0.0, 0.0, 0.0, 0.0, 0.0, 0.0, 0.0, 0.0, 0.0, 0.0, 0.0, 0.0, 0.0, 0.0, 0.0, 0.0, 0.0, 0.0, 0.0, 0.0, 0.0, 0.0, 0.0, 0.0, 0.0, 0.0],
  "Shots": 4096,
  "Size": 4,
  "Total Algorithm duration [s]": 0.482,
  "Total Classic duration [s]": 0.4406119,
  "Total Quantum duration [s]": 0.041388099999999976
}
