{
  "Circuit execution durations [ms]": [0.4078, 0.37570000000000003, 0.38230000000000003, 0.37379999999999997, 0.3695, 0.372, 0.373, 0.4009, 0.3765, 0.3729, 0.3789, 0.3964, 0.3755, 0.3995, 0.3764, 0.37310000000000004, 0.37270000000000003, 0.3735, 0.3715, 0.37579999999999997, 0.4002, 0.3775, 0.37589999999999996, 0.3713, 0.3725, 0.37429999999999997, 0.374, 0.4177, 0.3746, 0.3786, 0.37120000000000003, 0.443, 0.3754, 0.3706, 0.3716, 0.3709, 0.38630000000000003, 0.3735, 0.3766, 0.3741, 0.3725, 0.37389999999999995, 0.3741, 0.3877, 0.38029999999999997, 0.3875, 0.3765, 0.3944, 0.3856, 0.3966, 0.3749, 0.37570000000000003, 0.3967, 0.37379999999999997, 0.3709, 0.37120000000000003, 0.3836, 0.3746, 0.3807, 0.3886, 0.3765, 0.3746, 0.3746, 0.3751, 0.37829999999999997, 0.3781, 0.3735, 0.41619999999999996, 0.3831, 0.3778, 0.3848, 0.3776, 0.3726, 0.3728, 0.3768, 0.3733, 0.3742, 0.3734, 0.3764, 0.372, 0.3853, 0.38249999999999995, 0.3745, 0.37389999999999995, 0.3737, 0.3809, 0.3742, 0.3846, 0.39330000000000004, 0.374, 0.37589999999999996, 0.3872, 0.38949999999999996, 0.3729, 0.37829999999999997, 0.4824, 0.3956, 0.3753, 0.37560000000000004, 0.38420000000000004, 0.373, 0.38180000000000003, 0.38039999999999996, 0.3826, 0.3769, 0.3745, 0.3835, 0.39080000000000004, 0.37629999999999997, 0.3795, 0.37379999999999997, 0.3721],
  "Depth": 41.0,
  "Expectation Value": -4.0,
  "Optimal Expectation Value": -4.0,
  "Optimizer durations [ms]": [4.732, 4.221, 4.31, 4.266, 4.155, 4.31, 4.234, 4.593, 4.182, 4.192, 4.348, 4.498, 4.254, 4.455, 4.206, 4.227, 4.205, 4.234, 4.213, 4.237, 4.449, 4.225, 4.238, 4.796, 4.254, 4.237, 4.224, 4.741, 4.227, 4.205, 4.112, 4.84, 5.332, 4.105, 4.11, 4.108, 4.423, 4.232, 4.201, 4.235, 4.208, 4.224, 4.211, 4.363, 4.296, 4.36, 4.242, 4.505, 4.272, 4.432, 4.211, 4.357, 4.447, 4.145, 4.102, 4.12, 4.25, 4.169, 4.324, 4.319, 4.247, 4.235, 4.226, 4.163, 4.217, 4.165, 4.24, 4.735, 4.351, 4.277, 4.336, 4.274, 4.209, 4.203, 4.21, 4.233, 4.227, 4.239, 4.254, 4.195, 4.367, 4.247, 4.264, 4.218, 4.223, 4.274, 4.225, 4.325, 4.5, 4.237, 4.278, 4.442, 4.379, 4.2, 4.195, 5.113, 4.767, 4.254, 4.364, 4.346, 4.143, 4.369, 4.407, 4.411, 4.253, 4.236, 4.25, 4.464, 4.259, 4.268, 4.268, 4.209],
  "Optimizer iterations": 112,
  "Optimizer params": [0.17108203634569, 0.8631028291530066, 0.5284318342455356, 0.36331860189954923, 0.6133334145041087, 0.9517689222305457],
  "P": 3,
  "Problem": "MCP",
  "QJob durations [ms]": [0.4078, 0.37570000000000003, 0.38230000000000003, 0.37379999999999997, 0.3695, 0.372, 0.373, 0.4009, 0.3765, 0.3729, 0.3789, 0.3964, 0.3755, 0.3995, 0.3764, 0.37310000000000004, 0.37270000000000003, 0.3735, 0.3715, 0.37579999999999997, 0.4002, 0.3775, 0.37589999999999996, 0.3713, 0.3725, 0.37429999999999997, 0.374, 0.4177, 0.3746, 0.3786, 0.37120000000000003, 0.443, 0.3754, 0.3706, 0.3716, 0.3709, 0.38630000000000003, 0.3735, 0.3766, 0.3741, 0.3725, 0.37389999999999995, 0.3741, 0.3877, 0.38029999999999997, 0.3875, 0.3765, 0.3944, 0.3856, 0.3966, 0.3749, 0.37570000000000003, 0.3967, 0.37379999999999997, 0.3709, 0.37120000000000003, 0.3836, 0.3746, 0.3807, 0.3886, 0.3765, 0.3746, 0.3746, 0.3751, 0.37829999999999997, 0.3781, 0.3735, 0.41619999999999996, 0.3831, 0.3778, 0.3848, 0.3776, 0.3726, 0.3728, 0.3768, 0.3733, 0.3742, 0.3734, 0.3764, 0.372, 0.3853, 0.38249999999999995, 0.3745, 0.37389999999999995, 0.3737, 0.3809, 0.3742, 0.3846, 0.39330000000000004, 0.374, 0.37589999999999996, 0.3872, 0.38949999999999996, 0.3729, 0.37829999999999997, 0.4824, 0.3956, 0.3753, 0.37560000000000004, 0.38420000000000004, 0.373, 0.38180000000000003, 0.38039999999999996, 0.3826, 0.3769, 0.3745, 0.3835, 0.39080000000000004, 0.37629999999999997, 0.3795, 0.37379999999999997, 0.3721],
  "QPU": "7000000",
  "Qubits": 4,
  "Queue durations [ms]": [0.0, 0.0, 0.0, 0.0, 0.0, 0.0, 0.0, 0.0, 0.0, 0.0, 0.0, 0.0, 0.0, 0.0, 0.0, 0.0, 0.0, 0.0, 0.0, 0.0, 0.0, 0.0, 0.0, 0.0, 0.0, 0.0, 0.0, 0.0, 0.0, 0.0, 0.0, 0.0, 0.0, 0.0, 0.0, 0.0, 0.0, 0.0, 0.0, 0.0, 0.0, 0.0, 0.0, 0.0, 0.0, 0.0, 0.0, 0.0, 0.0, 0.0, 0.0, 0.0, 0.0, 0.0, 0.0, 0.0, 0.0, 0.0, 0.0, 0.0, 0.0, 0.0, 0.0, 0.0, 0.0, 0.0, 0.0, 0.0, 0.0, 0.0, 0.0, 0.0, 0.0, 0.0, 0.0, 0.0, 0.0, 0.0, 0.0, 0.0, 0.0, 0.0, 0.0, 0.0, 0.0, 0.0, 0.0, 0.0, 0.0, 0.0, 0.0, 0.0, 0.0, 0.0, 0.0, 0.0, 0.0, 0.0, 0.0, 0.0, 0.0, 0.0, 0.0, 0.0, 0.0, 0.0, 0.0, 0.0, 0.0, 0.0, 0.0, 0.0],
  "Shots": 4096,
  "Size": 4,
  "Total Algorithm duration [s]": 0.483,
  "Total Classic duration [s]": 0.440332,
  "Total Quantum duration [s]": 0.042668000000000005
}
