{
  "Circuit execution durations [ms]": [0.3778, 0.3697, 0.36769999999999997, 0.39849999999999997, 0.3715, 0.37, 0.4154, 0.3675, 0.372, 0.3675, 0.4313, 0.38029999999999997, 0.3782, 0.4827, 0.3983, 0.3687, 0.368, 0.3726, 0.37839999999999996, 0.37829999999999997, 0.4822, 0.3794, 0.3872, 0.3814, 0.38180000000000003, 0.3897, 0.37120000000000003, 0.3957, 0.3835, 0.37829999999999997, 0.375, 0.3749, 0.3793, 0.376, 0.3786, 0.3848, 0.386, 0.3729, 0.3729, 0.3703, 0.3697, 0.37310000000000004, 0.3687, 0.3695, 0.375, 0.3703, 0.386, 0.38499999999999995, 0.3785, 0.3858, 0.3717, 0.3812, 0.3845, 0.7401000000000001, 0.4138, 0.7291, 0.4323, 0.3753, 0.37310000000000004, 0.3856, 0.37310000000000004, 0.36769999999999997, 0.39490000000000003, 0.4103, 0.3762, 0.38539999999999996, 0.38670000000000004, 0.3886, 0.371, 0.3747, 0.3746, 0.3701, 0.3767, 0.388, 0.40259999999999996, 0.3834, 0.37270000000000003, 0.3858, 0.3835, 0.3709, 0.3717, 0.3771, 0.38699999999999996, 0.3722, 0.3754, 0.3728, 0.3765, 0.377, 0.43389999999999995, 0.41459999999999997, 0.4047, 0.3726, 0.3787, 0.3824],
  "Depth": 41.0,
  "Expectation Value": -3.886385917663574,
  "Optimal Expectation Value": -4.0,
  "Optimizer durations [ms]": [4.416, 4.148, 4.199, 4.475, 4.19, 4.156, 4.669, 4.147, 4.195, 4.146, 4.781, 4.262, 4.221, 5.212, 4.701, 4.164, 4.139, 4.222, 4.279, 4.228, 5.257, 4.378, 4.403, 4.323, 4.304, 4.488, 4.185, 4.554, 4.354, 4.23, 4.282, 4.221, 4.243, 4.199, 4.253, 4.31, 4.365, 4.179, 4.203, 4.168, 4.158, 4.178, 4.148, 4.103, 4.224, 4.193, 4.442, 4.339, 4.313, 4.328, 4.167, 4.331, 4.336, 7.825, 9.549, 11.818, 5.461, 4.356, 4.191, 4.334, 4.191, 4.128, 4.461, 4.574, 4.235, 4.388, 4.379, 4.398, 4.172, 4.21, 4.236, 4.168, 4.235, 4.484, 4.518, 4.36, 4.222, 4.298, 4.394, 4.174, 4.189, 4.375, 4.429, 4.181, 4.213, 4.21, 4.24, 4.241, 4.783, 4.624, 4.994, 9.871, 4.323, 4.307],
  "Optimizer iterations": 94,
  "Optimizer params": [0.06608773460903611, 0.3065733020523057, 0.6723743570726912, 0.8306190577771502, 0.6601377545978225, 0.9803785590851198],
  "P": 3,
  "Problem": "MCP",
  "QJob durations [ms]": [0.3778, 0.3697, 0.36769999999999997, 0.39849999999999997, 0.3715, 0.37, 0.4154, 0.3675, 0.372, 0.3675, 0.4313, 0.38029999999999997, 0.3782, 0.4827, 0.3983, 0.3687, 0.368, 0.3726, 0.37839999999999996, 0.37829999999999997, 0.4822, 0.3794, 0.3872, 0.3814, 0.38180000000000003, 0.3897, 0.37120000000000003, 0.3957, 0.3835, 0.37829999999999997, 0.375, 0.3749, 0.3793, 0.376, 0.3786, 0.3848, 0.386, 0.3729, 0.3729, 0.3703, 0.3697, 0.37310000000000004, 0.3687, 0.3695, 0.375, 0.3703, 0.386, 0.38499999999999995, 0.3785, 0.3858, 0.3717, 0.3812, 0.3845, 0.7401000000000001, 0.4138, 0.7291, 0.4323, 0.3753, 0.37310000000000004, 0.3856, 0.37310000000000004, 0.36769999999999997, 0.39490000000000003, 0.4103, 0.3762, 0.38539999999999996, 0.38670000000000004, 0.3886, 0.371, 0.3747, 0.3746, 0.3701, 0.3767, 0.388, 0.40259999999999996, 0.3834, 0.37270000000000003, 0.3858, 0.3835, 0.3709, 0.3717, 0.3771, 0.38699999999999996, 0.3722, 0.3754, 0.3728, 0.3765, 0.377, 0.43389999999999995, 0.41459999999999997, 0.4047, 0.3726, 0.3787, 0.3824],
  "QPU": "7000000",
  "Qubits": 4,
  "Queue durations [ms]": [0.0, 0.0, 0.0, 0.0, 0.0, 0.0, 0.0, 0.0, 0.0, 0.0, 0.0, 0.0, 0.0, 0.0, 0.0, 0.0, 0.0, 0.0, 0.0, 0.0, 0.0, 0.0, 0.0, 0.0, 0.0, 0.0, 0.0, 0.0, 0.0, 0.0, 0.0, 0.0, 0.0, 0.0, 0.0, 0.0, 0.0, 0.0, 0.0, 0.0, 0.0, 0.0, 0.0, 0.0, 0.0, 0.0, 0.0, 0.0, 0.0, 0.0, 0.0, 0.0, 0.0, 0.0, 0.0, 0.0, 0.0, 0.0, 0.0, 0.0, 0.0, 0.0, 0.0, 0.0, 0.0, 0.0, 0.0, 0.0, 0.0, 0.0, 0.0, 0.0, 0.0, 0.0, 0.0, 0.0, 0.0, 0.0, 0.0, 0.0, 0.0, 0.0, 0.0, 0.0, 0.0, 0.0, 0.0, 0.0, 0.0, 0.0, 0.0, 0.0, 0.0, 0.0],
  "Shots": 4096,
  "Size": 4,
  "Total Algorithm duration [s]": 0.429,
  "Total Classic duration [s]": 0.3922027,
  "Total Quantum duration [s]": 0.036797300000000005
}
