{
  "Circuit execution durations [ms]": [0.38, 0.3696, 0.36900000000000005, 0.4062, 0.3713, 0.3761, 0.3794, 0.3881, 0.3728, 0.3687, 0.3769, 0.3754, 0.3744, 0.3721, 0.3934, 0.3798, 0.3755, 0.36910000000000004, 0.373, 0.37120000000000003, 0.3688, 0.4728, 0.3692, 0.3667, 0.36719999999999997, 0.3762, 0.392, 0.3684, 0.39149999999999996, 0.3841, 0.3744, 0.3736, 0.3909, 0.3699, 0.3834, 0.36929999999999996, 0.36769999999999997, 0.37310000000000004, 0.3684, 0.38, 0.3747, 0.368, 0.368, 0.5006999999999999, 0.40190000000000003, 0.3766, 0.3826, 0.3749, 0.37389999999999995, 0.3805, 0.37579999999999997, 0.3876, 0.3799, 0.377, 0.3971, 0.37579999999999997, 0.37629999999999997, 0.3794, 0.37179999999999996, 0.368, 0.37879999999999997, 0.36860000000000004, 0.368, 0.3751, 0.39599999999999996, 0.3815, 0.38079999999999997, 0.3855, 0.38020000000000004, 0.3695, 0.36729999999999996, 0.3796, 0.36860000000000004, 0.3746, 0.3951, 0.3728, 0.3701, 0.3751, 0.3708, 0.3811, 0.3821, 0.3892, 0.3873, 0.3773, 0.3726, 0.37570000000000003, 0.5129, 0.3767, 0.38020000000000004, 0.3782],
  "Depth": 41.0,
  "Expectation Value": -4.0,
  "Optimal Expectation Value": -4.0,
  "Optimizer durations [ms]": [4.436, 4.131, 4.123, 4.53, 4.176, 4.223, 4.244, 4.382, 4.17, 4.118, 4.212, 4.243, 4.23, 4.177, 4.405, 4.268, 4.239, 4.116, 4.152, 4.139, 4.12, 4.964, 4.385, 4.092, 4.091, 4.214, 4.376, 4.122, 4.91, 4.432, 4.241, 4.199, 4.349, 4.152, 4.269, 4.134, 4.102, 4.173, 4.12, 4.221, 4.183, 4.107, 4.094, 5.443, 6.048, 4.256, 4.308, 4.225, 4.215, 4.273, 4.233, 4.433, 4.278, 4.237, 4.467, 4.225, 4.208, 4.233, 4.176, 4.117, 4.217, 4.111, 4.107, 4.174, 4.39, 4.25, 4.342, 4.416, 4.261, 4.143, 4.118, 4.237, 4.127, 4.115, 4.484, 4.167, 4.125, 4.196, 4.136, 4.282, 4.297, 4.467, 4.337, 4.23, 4.185, 4.182, 5.444, 4.569, 4.267, 4.241],
  "Optimizer iterations": 90,
  "Optimizer params": [0.06767060461016398, 0.017866203253730093, 0.8152603874824333, 0.628913763850431, 0.8447763409167814, 0.6804375428755389],
  "P": 3,
  "Problem": "MCP",
  "QJob durations [ms]": [0.38, 0.3696, 0.36900000000000005, 0.4062, 0.3713, 0.3761, 0.3794, 0.3881, 0.3728, 0.3687, 0.3769, 0.3754, 0.3744, 0.3721, 0.3934, 0.3798, 0.3755, 0.36910000000000004, 0.373, 0.37120000000000003, 0.3688, 0.4728, 0.3692, 0.3667, 0.36719999999999997, 0.3762, 0.392, 0.3684, 0.39149999999999996, 0.3841, 0.3744, 0.3736, 0.3909, 0.3699, 0.3834, 0.36929999999999996, 0.36769999999999997, 0.37310000000000004, 0.3684, 0.38, 0.3747, 0.368, 0.368, 0.5006999999999999, 0.40190000000000003, 0.3766, 0.3826, 0.3749, 0.37389999999999995, 0.3805, 0.37579999999999997, 0.3876, 0.3799, 0.377, 0.3971, 0.37579999999999997, 0.37629999999999997, 0.3794, 0.37179999999999996, 0.368, 0.37879999999999997, 0.36860000000000004, 0.368, 0.3751, 0.39599999999999996, 0.3815, 0.38079999999999997, 0.3855, 0.38020000000000004, 0.3695, 0.36729999999999996, 0.3796, 0.36860000000000004, 0.3746, 0.3951, 0.3728, 0.3701, 0.3751, 0.3708, 0.3811, 0.3821, 0.3892, 0.3873, 0.3773, 0.3726, 0.37570000000000003, 0.5129, 0.3767, 0.38020000000000004, 0.3782],
  "QPU": "7000000",
  "Qubits": 4,
  "Queue durations [ms]": [0.0, 0.0, 0.0, 0.0, 0.0, 0.0, 0.0, 0.0, 0.0, 0.0, 0.0, 0.0, 0.0, 0.0, 0.0, 0.0, 0.0, 0.0, 0.0, 0.0, 0.0, 0.0, 0.0, 0.0, 0.0, 0.0, 0.0, 0.0, 0.0, 0.0, 0.0, 0.0, 0.0, 0.0, 0.0, 0.0, 0.0, 0.0, 0.0, 0.0, 0.0, 0.0, 0.0, 0.0, 0.0, 0.0, 0.0, 0.0, 0.0, 0.0, 0.0, 0.0, 0.0, 0.0, 0.0, 0.0, 0.0, 0.0, 0.0, 0.0, 0.0, 0.0, 0.0, 0.0, 0.0, 0.0, 0.0, 0.0, 0.0, 0.0, 0.0, 0.0, 0.0, 0.0, 0.0, 0.0, 0.0, 0.0, 0.0, 0.0, 0.0, 0.0, 0.0, 0.0, 0.0, 0.0, 0.0, 0.0, 0.0, 0.0],
  "Shots": 4096,
  "Size": 4,
  "Total Algorithm duration [s]": 0.386,
  "Total Classic duration [s]": 0.3516886,
  "Total Quantum duration [s]": 0.034311400000000006
}
