{
  "Circuit execution durations [ms]": [0.374, 0.39540000000000003, 0.3573, 0.3866, 0.37070000000000003, 0.3697, 0.36910000000000004, 0.3792, 0.3833, 0.3704, 0.3687, 0.36719999999999997, 0.44470000000000004, 0.3819, 0.3815, 0.37310000000000004, 0.4438, 0.3787, 0.3684, 0.3715, 0.368, 0.3742, 0.3662, 0.36900000000000005, 0.3676, 0.367, 0.3753, 0.3676, 0.3676, 0.3872, 0.4191, 0.37, 0.3685, 0.38989999999999997, 0.523, 0.3733, 0.3667, 0.3928, 0.3745, 0.4403, 0.3768, 0.3723, 0.3663, 0.372, 0.37429999999999997, 0.3694, 0.37, 0.37379999999999997, 0.37070000000000003, 0.37070000000000003, 0.3779, 0.40099999999999997, 0.38989999999999997, 0.3768, 0.3709, 0.39120000000000005, 0.37879999999999997, 0.374, 0.3814, 0.6338999999999999, 0.4054, 0.3891, 0.3986, 0.3922, 0.3835, 0.513, 0.3275, 0.3816, 0.36769999999999997, 0.36900000000000005, 0.39649999999999996, 0.2275, 0.37429999999999997, 0.367, 0.3744, 0.3709, 0.3728, 0.3709, 0.3697, 0.38, 0.37560000000000004, 0.3737, 0.3754, 0.37310000000000004, 0.38989999999999997, 0.3798, 0.30929999999999996, 0.4022, 0.3869, 0.3836, 0.37829999999999997, 0.3713, 0.3698, 0.4747, 0.3725, 0.36860000000000004, 0.37560000000000004, 0.3729, 0.3723, 0.372, 0.3736, 0.3767, 0.3773, 0.3773, 0.3775, 0.3762, 0.3787, 0.2612, 0.37429999999999997, 0.3689, 0.3681, 0.3681, 0.3694, 0.3705, 0.375, 0.3736, 0.4801, 0.3773, 0.3678, 0.3684, 0.3709],
  "Depth": 41.0,
  "Expectation Value": -3.9549901485443115,
  "Optimal Expectation Value": -4.0,
  "Optimizer durations [ms]": [4.333, 4.413, 4.434, 4.462, 4.244, 4.138, 4.109, 4.319, 4.35, 4.151, 4.114, 4.108, 4.914, 4.362, 4.302, 4.167, 4.989, 4.323, 4.125, 4.164, 4.114, 4.21, 4.083, 4.1, 4.101, 4.1, 4.184, 4.109, 4.089, 4.401, 4.688, 4.14, 4.1, 4.37, 5.347, 4.548, 4.248, 4.434, 4.209, 4.866, 4.226, 4.166, 4.096, 4.139, 4.176, 4.128, 4.132, 4.173, 4.152, 4.138, 4.265, 4.66, 4.63, 4.219, 4.144, 4.401, 4.257, 4.232, 4.276, 6.761, 4.609, 4.348, 4.489, 4.528, 4.319, 5.384, 11.845, 4.515, 4.126, 4.117, 4.441, 5.718, 4.249, 4.1, 4.182, 4.15, 4.155, 4.139, 6.709, 4.311, 4.275, 4.852, 4.209, 4.21, 4.388, 7.258, 9.897, 4.662, 4.428, 4.275, 4.213, 4.154, 4.159, 5.113, 4.325, 4.103, 4.192, 4.169, 4.149, 4.158, 4.18, 4.251, 4.26, 4.255, 4.253, 4.232, 4.261, 3.373, 4.384, 4.116, 4.132, 4.108, 4.112, 4.138, 4.144, 4.603, 9.064, 5.828, 4.105, 4.125, 4.132],
  "Optimizer iterations": 121,
  "Optimizer params": [0.1792046896468145, 0.36537829281152256, 0.9998053007433413, 0.8201014587988119, 0.11723446643739861, 0.9995997902760726],
  "P": 3,
  "Problem": "MCP",
  "QJob durations [ms]": [0.374, 0.39540000000000003, 0.3573, 0.3866, 0.37070000000000003, 0.3697, 0.36910000000000004, 0.3792, 0.3833, 0.3704, 0.3687, 0.36719999999999997, 0.44470000000000004, 0.3819, 0.3815, 0.37310000000000004, 0.4438, 0.3787, 0.3684, 0.3715, 0.368, 0.3742, 0.3662, 0.36900000000000005, 0.3676, 0.367, 0.3753, 0.3676, 0.3676, 0.3872, 0.4191, 0.37, 0.3685, 0.38989999999999997, 0.523, 0.3733, 0.3667, 0.3928, 0.3745, 0.4403, 0.3768, 0.3723, 0.3663, 0.372, 0.37429999999999997, 0.3694, 0.37, 0.37379999999999997, 0.37070000000000003, 0.37070000000000003, 0.3779, 0.40099999999999997, 0.38989999999999997, 0.3768, 0.3709, 0.39120000000000005, 0.37879999999999997, 0.374, 0.3814, 0.6338999999999999, 0.4054, 0.3891, 0.3986, 0.3922, 0.3835, 0.513, 0.3275, 0.3816, 0.36769999999999997, 0.36900000000000005, 0.39649999999999996, 0.2275, 0.37429999999999997, 0.367, 0.3744, 0.3709, 0.3728, 0.3709, 0.3697, 0.38, 0.37560000000000004, 0.3737, 0.3754, 0.37310000000000004, 0.38989999999999997, 0.3798, 0.30929999999999996, 0.4022, 0.3869, 0.3836, 0.37829999999999997, 0.3713, 0.3698, 0.4747, 0.3725, 0.36860000000000004, 0.37560000000000004, 0.3729, 0.3723, 0.372, 0.3736, 0.3767, 0.3773, 0.3773, 0.3775, 0.3762, 0.3787, 0.2612, 0.37429999999999997, 0.3689, 0.3681, 0.3681, 0.3694, 0.3705, 0.375, 0.3736, 0.4801, 0.3773, 0.3678, 0.3684, 0.3709],
  "QPU": "7000000",
  "Qubits": 4,
  "Queue durations [ms]": [0.0, 0.0, 0.0, 0.0, 0.0, 0.0, 0.0, 0.0, 0.0, 0.0, 0.0, 0.0, 0.0, 0.0, 0.0, 0.0, 0.0, 0.0, 0.0, 0.0, 0.0, 0.0, 0.0, 0.0, 0.0, 0.0, 0.0, 0.0, 0.0, 0.0, 0.0, 0.0, 0.0, 0.0, 0.0, 0.0, 0.0, 0.0, 0.0, 0.0, 0.0, 0.0, 0.0, 0.0, 0.0, 0.0, 0.0, 0.0, 0.0, 0.0, 0.0, 0.0, 0.0, 0.0, 0.0, 0.0, 0.0, 0.0, 0.0, 0.0, 0.0, 0.0, 0.0, 0.0, 0.0, 0.0, 0.0, 0.0, 0.0, 0.0, 0.0, 0.0, 0.0, 0.0, 0.0, 0.0, 0.0, 0.0, 0.0, 0.0, 0.0, 0.0, 0.0, 0.0, 0.0, 0.0, 0.0, 0.0, 0.0, 0.0, 0.0, 0.0, 0.0, 0.0, 0.0, 0.0, 0.0, 0.0, 0.0, 0.0, 0.0, 0.0, 0.0, 0.0, 0.0, 0.0, 0.0, 0.0, 0.0, 0.0, 0.0, 0.0, 0.0, 0.0, 0.0, 0.0, 0.0, 0.0, 0.0, 0.0, 0.0],
  "Shots": 4096,
  "Size": 4,
  "Total Algorithm duration [s]": 0.548,
  "Total Classic duration [s]": 0.5019049000000001,
  "Total Quantum duration [s]": 0.046095099999999986
}
