{
  "Circuit execution durations [ms]": [0.4123, 0.3742, 0.3696, 0.37110000000000004, 0.3713, 0.4126, 0.3706, 0.38289999999999996, 0.37770000000000004, 0.3704, 0.37120000000000003, 0.3699, 0.3729, 0.3478, 0.3742, 0.36929999999999996, 0.3736, 0.371, 0.3898, 0.3742, 0.3728, 0.367, 0.3705, 0.3744, 0.3704, 0.3698, 0.3688, 0.37829999999999997, 0.37310000000000004, 0.3689, 0.3755, 0.37139999999999995, 0.3813, 0.3689, 0.373, 0.37, 0.3704, 0.3751, 0.4736, 0.3753, 0.37429999999999997, 0.3833, 0.37120000000000003, 0.3709, 0.3956, 0.3715, 0.372, 0.3722, 0.3703, 0.3703, 0.3699, 0.37139999999999995, 0.39189999999999997, 0.3765, 0.3839, 0.373, 0.3717, 0.3697, 0.382, 0.4011, 0.37320000000000003, 0.3713, 0.3745, 0.3717, 0.3715, 0.3769, 0.3734, 0.38029999999999997, 0.3687, 0.37179999999999996, 0.3721, 0.371, 0.3722, 0.4819, 0.381, 0.3687, 0.3716, 0.3811, 0.3723, 0.3716, 0.3832, 0.3706, 0.3896],
  "Depth": 41.0,
  "Expectation Value": -4.0,
  "Optimal Expectation Value": -4.0,
  "Optimizer durations [ms]": [4.714, 4.226, 4.173, 4.188, 4.191, 4.639, 4.213, 4.378, 4.269, 4.192, 4.184, 4.182, 4.213, 4.209, 4.398, 4.194, 4.22, 4.185, 4.481, 4.259, 4.231, 4.135, 4.168, 4.621, 4.175, 4.16, 4.148, 4.25, 4.196, 4.165, 4.243, 4.171, 4.251, 4.128, 4.18, 4.169, 4.15, 4.189, 5.204, 4.28, 4.176, 4.271, 4.152, 4.153, 4.476, 4.166, 4.17, 4.163, 4.949, 4.213, 4.149, 4.142, 4.379, 4.238, 4.299, 4.172, 4.153, 4.132, 4.395, 4.469, 8.896, 4.151, 4.211, 4.173, 4.158, 4.25, 4.189, 4.31, 4.135, 4.169, 4.163, 4.18, 4.165, 4.951, 4.725, 4.132, 4.167, 4.317, 4.239, 4.164, 4.28, 4.156, 4.347],
  "Optimizer iterations": 83,
  "Optimizer params": [0.9745489655857996, 0.9878157912629816, 0.6774108178666133, 0.3624281464323693, 0.653758253958698, 0.8233441701604958],
  "P": 3,
  "Problem": "MCP",
  "QJob durations [ms]": [0.4123, 0.3742, 0.3696, 0.37110000000000004, 0.3713, 0.4126, 0.3706, 0.38289999999999996, 0.37770000000000004, 0.3704, 0.37120000000000003, 0.3699, 0.3729, 0.3478, 0.3742, 0.36929999999999996, 0.3736, 0.371, 0.3898, 0.3742, 0.3728, 0.367, 0.3705, 0.3744, 0.3704, 0.3698, 0.3688, 0.37829999999999997, 0.37310000000000004, 0.3689, 0.3755, 0.37139999999999995, 0.3813, 0.3689, 0.373, 0.37, 0.3704, 0.3751, 0.4736, 0.3753, 0.37429999999999997, 0.3833, 0.37120000000000003, 0.3709, 0.3956, 0.3715, 0.372, 0.3722, 0.3703, 0.3703, 0.3699, 0.37139999999999995, 0.39189999999999997, 0.3765, 0.3839, 0.373, 0.3717, 0.3697, 0.382, 0.4011, 0.37320000000000003, 0.3713, 0.3745, 0.3717, 0.3715, 0.3769, 0.3734, 0.38029999999999997, 0.3687, 0.37179999999999996, 0.3721, 0.371, 0.3722, 0.4819, 0.381, 0.3687, 0.3716, 0.3811, 0.3723, 0.3716, 0.3832, 0.3706, 0.3896],
  "QPU": "7000000",
  "Qubits": 4,
  "Queue durations [ms]": [0.0, 0.0, 0.0, 0.0, 0.0, 0.0, 0.0, 0.0, 0.0, 0.0, 0.0, 0.0, 0.0, 0.0, 0.0, 0.0, 0.0, 0.0, 0.0, 0.0, 0.0, 0.0, 0.0, 0.0, 0.0, 0.0, 0.0, 0.0, 0.0, 0.0, 0.0, 0.0, 0.0, 0.0, 0.0, 0.0, 0.0, 0.0, 0.0, 0.0, 0.0, 0.0, 0.0, 0.0, 0.0, 0.0, 0.0, 0.0, 0.0, 0.0, 0.0, 0.0, 0.0, 0.0, 0.0, 0.0, 0.0, 0.0, 0.0, 0.0, 0.0, 0.0, 0.0, 0.0, 0.0, 0.0, 0.0, 0.0, 0.0, 0.0, 0.0, 0.0, 0.0, 0.0, 0.0, 0.0, 0.0, 0.0, 0.0, 0.0, 0.0, 0.0, 0.0],
  "Shots": 4096,
  "Size": 4,
  "Total Algorithm duration [s]": 0.359,
  "Total Classic duration [s]": 0.327662,
  "Total Quantum duration [s]": 0.031338000000000005
}
