{
  "Depth": 8.5,
  "Job durations [ms]": [0.17179999849759042, 0.167199999850709, 0.18714999896474183, 0.16060000052675605, 0.16740000137360767, 0.18950000230688602, 0.16589999722782522, 0.15939999866532162, 0.1800500031094998, 0.1591500040376559, 0.1627000019652769, 0.16630000027362257, 0.16950000281212851, 0.21430000924738124, 0.16704999870853499, 0.17125000158557668, 0.34300001425435767, 0.3434000100241974, 0.33909999910974875, 0.17654999828664586, 0.13919999764766544, 0.3495499913697131, 0.3391499922145158, 0.35665000905282795, 0.13605000276584178, 0.20154999947408214, 0.16190000314963982, 0.15610000264132395, 0.1727499984554015, 0.1628500031074509, 0.1611499974387698, 0.18974999693455175, 0.16365000192308798, 0.1651499987929128, 0.1637499954085797, 0.3687999997055158, 0.16090000281110406, 0.19239999528508633, 0.3518499943311326, 0.337949997629039, 0.17344999650958925, 0.1802500046323985, 0.2129500062437728, 0.16239999968092889, 0.2005499991355464, 0.21160000324016437, 0.19139999494655058, 0.1870499982032925, 0.1866000020527281, 0.16494999727001414, 0.16495000454597175, 0.1556999995955266, 0.18655000167200342, 0.17854999896371737, 0.1622500058147125, 0.19459999748505652, 0.1647000026423484, 0.19874999998137355, 0.16674999642418697, 0.16390000382671133, 0.1600499963387847, 0.16370000230381265, 0.15885000175330788, 0.2175999979954213, 0.16265000158455223, 0.1660999987507239, 0.18029999773716554, 0.3472499956842512, 0.16190000314963982, 0.17970000044442713, 0.16104999667732045, 0.204100004339125, 0.17279999883612618, 0.22739999985788018, 0.17300000035902485, 0.16434999997727573, 0.15980000171111897, 0.17434999608667567, 0.1611499974387698, 0.16185000276891515, 0.21040000137872994, 0.19654999778140336, 0.15934999828459695, 0.16545000107726082, 0.19305000023450702, 0.1621999981580302, 0.16084999515442178, 0.19099999917671084, 0.15885000175330788, 0.2189499937230721, 0.1656500026001595, 0.19764999888138846, 0.1632999992580153, 0.1880999989225529, 0.19749999773921445, 0.1597500013303943, 0.34589999995660037, 0.16830000095069408, 0.21810000180266798, 0.1749500006553717, 0.189350001164712, 0.16999999934341758, 0.16269999468931928, 0.16324999887729064, 0.1679499982856214, 0.1597500013303943, 0.16999999934341758, 0.16835000133141875, 0.17320000188192353, 0.16265000158455223, 0.16419999883510172, 0.15744999836897478, 0.20450000010896474, 0.1628500031074509, 0.1644000003580004, 0.2300000051036477, 0.15714999608462676, 0.15605000226059929, 0.15639999764971435, 0.17799999477574602, 0.1609499959158711, 0.15659999917261302, 0.16760000289650634, 0.1841000048443675, 0.16014999710023403, 0.1668499971856363, 0.17464999837102368, 0.15759999951114878, 0.15735000488348305, 0.16464999498566613, 0.19240000256104395, 0.15870000061113387, 0.15700000221841037, 0.21124999329913408, 0.22474999423138797, 0.16509999841218814, 0.17254999693250284, 0.19115000031888485, 0.16869999672053382, 0.17159999697469175, 0.16445000073872507, 0.15705000259913504, 0.16930000128922984, 0.19055000302614644, 0.16645000141579658, 0.17250000382773578, 0.16190000314963982, 0.2059500038740225, 0.19389999943086877, 0.17264999769395217, 0.1585000063641928, 0.1788000008673407, 0.23015000624582171, 0.32795000879559666, 0.17434999608667567, 0.16294999659294263, 0.16519999917363748, 0.19814999541267753, 0.20760000188602135, 0.16399999731220305, 0.16185000276891515, 0.28390000079525635, 0.16070000128820539, 0.1693500016699545, 0.17405000107828528, 0.1608500024303794, 0.16915000014705583, 0.2090499983751215, 0.1596000001882203, 0.1612999985809438, 0.1583499979460612, 0.1964999974006787, 0.1610000035725534, 0.17110000044340268, 0.15970000094966963, 0.2142000012099743, 0.16784999752417207, 0.1668499971856363, 0.16730000061215833, 0.16354999388568103, 0.1606499936315231, 0.18109999655280262, 0.20885000412818044, 0.3161999920848757, 0.1967999996850267, 0.17124999430961907, 0.15854999946895987, 0.16055000014603138, 0.1656500026001595, 0.21269998978823423, 0.21449999621836469, 0.1568000006955117, 0.1960500012501143, 0.16680000408086926, 0.170449995493982, 0.15940000594127923, 0.16954999591689557, 0.36979999276809394, 0.170899998920504, 0.21430000197142363, 0.1649999976507388, 0.15700000221841037, 0.16150000010384247, 0.19150000298395753, 0.15699999494245276],
  "Optimizer durations [ms]": [4.664, 4.993, 4.699, 4.768, 4.448, 4.83, 4.352, 4.097, 4.653, 4.669, 4.261, 4.322, 4.511, 5.283, 4.688, 4.501, 8.788, 10.155, 7.714, 7.767, 20.228, 7.823, 10.531, 12.826, 10.429, 12.522, 4.795, 4.129, 5.127, 4.394, 4.314, 5.221, 4.429, 4.272, 4.237, 8.439, 4.324, 4.844, 7.757, 15.099, 6.224, 4.953, 5.272, 4.384, 5.088, 5.078, 5.428, 4.719, 5.075, 4.362, 4.326, 4.194, 4.783, 4.988, 5.68, 5.188, 4.564, 5.047, 4.535, 4.896, 4.241, 4.203, 4.153, 5.285, 4.487, 4.378, 4.636, 7.525, 4.571, 4.604, 4.191, 5.068, 4.563, 5.389, 4.74, 4.368, 4.79, 4.587, 4.185, 4.205, 5.248, 5.038, 4.333, 4.304, 4.977, 4.34, 4.947, 4.986, 4.28, 5.243, 4.656, 5.012, 4.706, 4.837, 5.009, 4.251, 7.448, 5.557, 5.215, 4.619, 4.7, 4.702, 4.352, 4.288, 4.341, 4.181, 4.365, 4.428, 5.098, 4.396, 4.361, 4.188, 5.04, 4.313, 4.264, 5.231, 4.48, 4.059, 4.072, 4.678, 4.217, 4.255, 4.774, 4.853, 4.136, 4.36, 4.609, 4.906, 4.085, 4.295, 5.006, 4.167, 4.16, 5.162, 5.436, 4.637, 4.628, 4.838, 4.428, 4.528, 4.372, 4.204, 4.43, 5.027, 4.507, 4.439, 4.218, 5.134, 4.911, 4.448, 4.105, 4.769, 5.615, 8.305, 9.668, 4.272, 4.229, 5.237, 4.992, 4.529, 4.199, 6.704, 4.256, 4.368, 4.547, 4.349, 4.461, 5.105, 5.093, 4.244, 4.169, 5.081, 4.414, 4.428, 4.338, 5.229, 4.593, 4.273, 4.881, 4.485, 4.192, 4.547, 5.126, 7.08, 16.197, 10.247, 4.16, 4.28, 4.456, 4.973, 5.651, 4.224, 4.887, 4.289, 4.313, 4.091, 4.969, 8.395, 4.609, 4.976, 4.513, 4.102, 4.437, 4.854, 4.155],
  "Optimizer iterations": 205,
  "Qubits": 3,
  "Total Algorithm duration [s]": 1.069,
  "Total Classic duration [s]": 1.0306526000245357,
  "Total Quantum duration [s]": 0.038347399975464214,
  "Expectation Value": -3.4701857566833496,
  "Optimal Expectation Value": -3.4939591884613037,
  "Optimizer params": [0.581918248045578, 0.899846451975816, 0.6144061633385467, 0.4740238942208053, 0.4699615431126138, 0.5131135318404557, 0.5248334795199016, 0.5529121383150357, 0.6154404313337756, 0.47416022094264415, 0.49101389926131433, 0.5313683706003475],
  "QPU": "7000000",
  "Problem": "IC",
  "Size": 3,
  "P": 0,
  "Shots": 4096
}