{
  "Depth": 8.5,
  "Job durations [ms]": [0.17705000209389254, 0.17920000391313806, 0.2165000041713938, 0.16044999938458204, 0.16999999934341758, 0.20575000235112384, 0.16445000073872507, 0.16679999680491164, 0.15965000056894496, 0.20629999926313758, 0.17125000158557668, 0.16894999862415716, 0.2125999963027425, 0.16185000276891515, 0.1591500040376559, 0.17205000040121377, 0.1935499967657961, 0.16474999574711546, 0.17194999963976443, 0.17040000238921493, 0.1749500006553717, 0.16404999769292772, 0.17420000222045928, 0.1951000012923032, 0.16740000137360767, 0.17040000238921493, 0.1756999990902841, 0.1912500010803342, 0.19725000311154872, 0.1609499959158711, 0.19050000264542177, 0.1662499998928979, 0.16515000606887043, 0.1784999985829927, 0.16220000543398783, 0.16645000141579658, 0.16560000221943483, 0.21025000023655593, 0.16789999790489674, 0.17520000255899504, 0.1584999990882352, 0.16915000014705583, 0.16630000027362257, 0.17115000082412735, 0.16205000429181382, 0.23525000142399222, 0.1823999991756864, 0.16574999608565122, 0.2136999974027276, 0.1684500020928681, 0.16289999621221796, 0.1600500036147423, 0.1990000018849969, 0.1609499959158711, 0.20614999812096357, 0.1800499958335422, 0.16510000568814576, 0.15809999604243785, 0.22629999875789508, 0.1596000001882203, 0.1553999973111786, 0.16665000293869525, 0.32589998590992764, 0.15900000289548188, 0.17925000429386273, 0.167199999850709, 0.16865000361576676, 0.17125000158557668, 0.17079999815905467, 0.1629999969736673, 0.2135500035365112, 0.16445000073872507, 0.16830000095069408, 0.2025500070885755, 0.1609499959158711, 0.17544999718666077, 0.1611499974387698, 0.3351499981363304, 0.22194999473867938, 0.19809999503195286, 0.1664000010350719, 0.20165000023553148, 0.18555000133346766, 0.1655999949434772, 0.1563500045449473, 0.1651499987929128, 0.16945000243140385, 0.2025499998126179, 0.17054999625543132, 0.1731000011204742, 0.15980000171111897, 0.15685000107623637, 0.19910000264644623, 0.25084999651880935, 0.1696499966783449, 0.21700000070268288, 0.250899996899534, 0.21174999710638076, 0.20649999351007864, 0.21129999367985874, 0.16139999934239313, 0.16564999532420188, 0.20355000015115365, 0.16884999786270782, 0.22545000683749095, 0.34005000634351745, 0.3373500076122582, 0.16645000141579658, 0.27150000096298754, 0.23294999118661508, 0.2322000073036179, 0.22945000091567636, 0.17415000183973461, 0.21670000569429249, 0.21334999473765492, 0.22480000188807026, 0.21434999507619068, 0.20945000142091885, 0.19389999943086877, 0.20400000357767567, 0.22555000759894028, 0.21204999939072877, 0.19410000095376745, 0.1724499961710535, 0.14685000496683642, 0.15980000171111897, 0.17210000078193843, 0.1583499979460612, 0.22590000298805535, 0.1869000043370761, 0.16614999913144857, 0.17714999557938427, 0.16060000052675605, 0.15875000099185854, 0.1658000037423335, 0.17084999853977934, 0.16065000090748072, 0.171050000062678, 0.17069999739760533, 0.15770000027259812, 0.20610000501619652, 0.2010000025620684, 0.17520000255899504, 0.19150000298395753, 0.15949999942677096, 0.1687500043772161, 0.1627000019652769, 0.18659999477677047, 0.16859999595908448, 0.20340000628493726, 0.185349999810569, 0.18884999735746533, 0.16799999866634607, 0.16074999439297244, 0.19025000074179843, 0.18384999566478655, 0.19755000539589673, 0.20965001021977514, 0.1790000023902394, 0.1590999963809736, 0.16150000010384247, 0.2050500042969361, 0.1649999976507388, 0.1579000017954968, 0.15770000027259812, 0.17115000082412735, 0.17039999511325732, 0.1579000017954968, 0.23814999440219253, 0.16785000480012968, 0.16029999824240804, 0.15735000488348305, 0.19874999998137355, 0.1596000001882203, 0.16519999917363748, 0.18080000154441223, 0.1662499998928979, 0.16774999676272273, 0.17474999913247302, 0.19420000171521679, 0.16855000285431743, 0.16674999642418697, 0.17335000302409753, 0.16930000128922984, 0.20215000404277816, 0.3520499958540313, 0.15749999874969944, 0.1599000024725683, 0.1629999969736673, 0.16814999980852008, 0.16494999727001414, 0.25845000345725566, 0.21555000421358272, 0.1703000016277656, 0.18585000361781567, 0.16714999946998432, 0.20059999951627105, 0.17025000124704093, 0.16010000399546698, 0.19725000311154872, 0.2165000041713938, 0.19324999448144808, 0.16384999617002904, 0.19315000099595636, 0.16850000247359276],
  "Optimizer durations [ms]": [4.686, 4.648, 5.225, 5.134, 4.483, 5.144, 4.555, 4.469, 4.34, 5.123, 4.671, 4.415, 5.247, 4.427, 4.188, 4.408, 4.863, 4.392, 4.611, 4.77, 4.622, 4.285, 4.539, 4.905, 4.365, 4.414, 4.573, 4.889, 4.992, 4.387, 4.969, 4.403, 4.483, 4.668, 4.659, 4.633, 4.409, 5.336, 5.081, 4.616, 4.136, 4.601, 4.337, 4.57, 4.255, 5.582, 5.168, 4.741, 5.271, 4.541, 4.247, 4.147, 5.234, 4.392, 5.115, 5.105, 4.435, 4.172, 5.586, 7.146, 4.139, 4.321, 7.365, 5.87, 5.002, 5.017, 4.466, 4.639, 4.879, 4.194, 5.157, 5.038, 4.306, 5.138, 4.494, 4.508, 4.191, 7.463, 5.679, 5.058, 4.74, 5.172, 4.926, 4.4, 4.164, 4.311, 4.781, 5.064, 5.092, 4.635, 4.164, 4.047, 5.073, 7.077, 4.565, 5.34, 5.835, 17.885, 9.456, 5.063, 4.548, 4.45, 5.044, 4.344, 5.555, 12.056, 14.745, 11.171, 15.813, 7.018, 7.212, 5.475, 6.872, 13.599, 8.516, 5.912, 5.715, 5.152, 5.83, 5.24, 5.763, 5.215, 5.144, 7.04, 22.293, 11.947, 4.778, 4.36, 5.26, 5.738, 4.41, 4.631, 4.202, 4.085, 4.35, 4.422, 4.283, 4.47, 4.549, 4.165, 4.991, 5.178, 4.688, 4.988, 4.234, 5.164, 4.748, 4.747, 4.45, 5.015, 4.938, 4.987, 4.439, 4.182, 4.916, 4.689, 4.997, 5.085, 4.858, 4.251, 4.311, 4.977, 4.568, 4.105, 4.6, 4.439, 4.378, 4.092, 5.458, 4.677, 4.272, 4.093, 5.053, 4.325, 4.317, 6.156, 4.485, 4.363, 4.556, 4.961, 4.399, 4.485, 5.041, 4.498, 5.021, 7.861, 4.426, 4.624, 4.309, 4.46, 4.382, 6.093, 5.153, 4.847, 4.841, 4.505, 5.091, 4.894, 4.142, 5.003, 5.394, 5.136, 4.29, 5.027, 4.528],
  "Optimizer iterations": 205,
  "Qubits": 3,
  "Total Algorithm duration [s]": 1.086,
  "Total Classic duration [s]": 1.0480097999431892,
  "Total Quantum duration [s]": 0.03799020005681086,
  "Expectation Value": -3.4701857566833496,
  "Optimal Expectation Value": -3.4939591884613037,
  "Optimizer params": [0.581918248045578, 0.899846451975816, 0.6144061633385467, 0.4740238942208053, 0.4699615431126138, 0.5131135318404557, 0.5248334795199016, 0.5529121383150357, 0.6154404313337756, 0.47416022094264415, 0.49101389926131433, 0.5313683706003475],
  "QPU": "7000000",
  "Problem": "IC",
  "Size": 3,
  "P": 0,
  "Shots": 4096
}