{
  "Depth": 2.0,
  "Job durations [ms]": [0.06770000254618935, 0.06490000123449136, 0.06360000043059699, 0.06754999776603654, 0.09434999628865626, 0.06505000055767596, 0.06179999945743475, 0.06595000013476238],
  "Optimizer durations [ms]": [2.613, 2.327, 2.23, 2.296, 2.9, 2.292, 2.23, 2.326],
  "Optimizer iterations": 8,
  "Qubits": 1,
  "Total Algorithm duration [s]": 0.019,
  "Total Classic duration [s]": 0.018449100001584156,
  "Total Quantum duration [s]": 0.0005508999984158436,
  "Expectation Value": -0.574400007724762,
  "Optimal Expectation Value": -0.574400007724762,
  "Optimizer params": [1.0],
  "QPU": "7000000",
  "Problem": "RH",
  "Size": 1,
  "P": 0,
  "Shots": 4096
}