{
  "Depth": 8.4,
  "Job durations [ms]": [9.322071447968483, 10.78755734488368, 9.231958910822868, 10.740046482533216, 8.113032020628452, 8.240890875458717, 12.00731722638011, 6.9929225370287895, 10.684891603887081, 7.123433519154787, 9.96850561350584, 11.50937220081687, 9.00662885978818, 9.95816020295024, 10.446613188832998, 13.075597677379847, 11.15361861884594, 9.305181913077831, 13.02081998437643, 11.350869294255972, 7.387614529579878, 7.424402516335249, 9.741539787501097, 12.477557826787233, 8.306239359080791, 6.793042924255133, 7.9363671131432065, 5.769763141870499, 7.130898721516132, 7.046773657202721, 12.215455621480942, 8.3677738904953, 6.865731906145811, 8.47668033093214, 9.60112800821662, 8.09868136420846, 13.629719614982605, 9.550884738564491, 9.814337454736233, 9.715814795345068, 13.21379505097866, 10.122571978718042, 7.915262691676617, 7.2766331024467945, 8.288270700722933, 8.236509189009666, 8.401895873248577, 9.135197848081589, 8.42299610376358, 10.558616928756237, 13.90759227797389, 7.0397100411355495, 9.81372781097889, 7.593589834868908, 9.520266111940145, 9.840754140168428, 7.980513479560614, 10.88170362636447, 7.582640368491411, 7.012653909623623, 10.276848543435335, 7.5310127809643745, 11.635354720056057, 9.759840369224548, 8.049273397773504, 9.702969808131456, 8.66897152736783, 9.849652089178562, 8.542490471154451, 7.754251640290022, 7.7034262008965015, 9.116386342793703, 9.976022969931364, 8.341299928724766, 8.714357856661081, 10.43397607281804, 10.535135492682457, 7.155172433704138, 8.93104337155819, 9.475510381162167, 8.13003871589899, 10.459356848150492, 10.830202419310808, 9.391322266310453, 10.840551555156708, 9.54585513100028, 8.121345657855272, 8.023469988256693, 8.051662612706423, 10.535170324146748, 11.85482768341899, 15.433268807828426, 9.105690754950047, 9.014329873025417, 7.743322104215622, 6.683507654815912, 10.570816975086927, 8.574193343520164, 10.919640213251114, 8.76187551766634, 11.179355438798666, 11.028476990759373, 11.656241863965988, 8.772820234298706, 12.019030842930079, 8.176050242036581, 6.778701674193144, 11.364820320159197, 6.768634542822838, 11.399788409471512, 8.086518477648497, 13.084257952868938, 9.067787230014801, 12.457788549363613, 10.510731115937233, 10.649206582456827, 9.231062140315771, 9.388456214219332, 9.239055961370468, 8.511969540268183, 9.489842876791954, 11.624628771096468, 10.00077472999692, 11.054723244160414, 7.377622649073601, 12.296283058822155, 12.85367039963603, 10.169274918735027, 10.184668097645044, 9.845816064625978, 12.433705944567919, 9.448045957833529, 10.899128951132298, 8.6595737375319, 8.518510404974222, 8.333270438015461, 7.425623573362827, 6.625081971287727, 7.658090349286795, 9.780788514763117, 7.9388814978301525, 9.319002740085125, 10.98252423107624, 12.738904915750027, 11.218705400824547, 10.156129114329815, 12.798313796520233, 8.512919396162033, 8.317083306610584, 7.647157926112413, 8.704917319118977, 12.56205178797245, 9.338424913585186, 9.18031707406044, 7.657654490321875, 7.67575316131115, 9.858031664043665, 8.392028789967299, 6.46760743111372, 8.646651729941368, 7.952395733445883, 7.71792558953166, 8.740921132266521, 6.483929418027401, 9.088079910725355],
  "Optimizer durations [ms]": [39608.539, 37897.434, 41482.652, 54507.304, 125056.89, 91157.868, 54202.788, 92259.728, 48589.39, 38974.961, 35792.071, 103341.551, 43900.917, 37673.898, 38663.509, 65063.024, 131106.13, 39586.118, 38414.928, 106896.865, 44773.612, 86728.176, 106528.402, 123051.266, 37886.826, 38955.055, 114696.174, 39829.733, 35708.985, 94228.075, 42159.737, 130315.434, 38551.433, 102700.737, 38064.504, 116261.52, 100382.836, 40882.979, 35541.693, 37969.688, 78851.241, 109000.817, 39895.92, 96545.421, 37383.285, 37409.593, 79083.394, 38934.808, 35979.268, 39232.871, 103143.943, 42826.827, 126619.397, 40073.683, 35572.116, 77930.804, 38485.917, 62003.062, 99094.686, 68401.95, 53446.418, 100387.719, 37311.547, 96526.991, 41119.58, 65633.032, 126893.28, 40780.752, 44625.637, 35653.297, 36968.905, 97930.445, 35784.463, 107047.899, 36901.383, 124364.912, 54224.975, 94892.172, 103976.202, 37760.252, 151011.421, 40761.62, 37170.367, 34646.523, 36802.822, 113820.104, 41849.503, 38943.56, 93482.717, 38547.893, 98161.712, 50870.917, 34967.729, 36915.16, 100019.283, 38319.057, 65071.168, 71669.679, 47821.266, 124028.297, 40508.751, 40566.516, 157993.996, 40647.559, 119195.676, 105035.094, 41711.876, 44468.539, 91990.159, 38669.21, 41943.953, 35654.696, 133765.448, 39306.274, 36984.382, 91870.323, 37047.639, 64773.418, 96133.053, 103573.158, 41616.892, 91384.12, 66708.317, 35715.863, 50322.989, 39272.02, 99000.906, 103498.73, 38882.475, 93740.211, 40452.581, 64314.801, 105097.304, 91945.972, 104385.16, 40926.329, 43108.832, 36333.788, 106349.564, 38948.374, 63231.783, 36828.309, 67277.807, 115609.666, 158316.615, 38955.501, 35463.766, 111854.861, 40351.831, 36615.624, 94520.395, 40776.907, 87732.362, 36541.699, 102923.177, 38847.814, 94575.974, 163609.052, 38397.944, 96043.977, 36428.9, 36040.376, 90929.21, 107389.915, 66051.443],
  "Optimizer iterations": 165,
  "Qubits": 3,
  "Total Algorithm duration [s]": 11192.133,
  "Total Classic duration [s]": 11190.574975565813,
  "Total Quantum duration [s]": 1.5580244341865181,
  "Expectation Value": -3.41064453125,
  "Optimal Expectation Value": -3.4939591884613037,
  "Optimizer params": [0.5599640368507239, 0.9152708194655605, 0.5095294702441221, 0.6532753782128026, 0.3842310288549055, 0.4847601090967708, 0.5045951808371764, 0.5029585984036371, 0.5157898415615143, 0.6014925470659004, 0.583454033685067, 0.5790832106136843],
  "QPU": "4010001",
  "Problem": "IC",
  "Size": 3,
  "P": 0,
  "Shots": 4096
}