{
  "Depth": 743.0,
  "Expectation Value": -3.656845808029175,
  "Job durations [ms]": [6.1026, 6.2747, 6.2401, 6.327, 6.2544, 6.5752, 6.6366000000000005, 6.4478, 6.2855, 6.2499, 6.2705, 6.3420000000000005, 6.3513, 6.3331, 6.280799999999999, 6.3443, 6.298299999999999, 6.2977, 6.3014, 6.2955, 6.4615, 6.231000000000001, 6.4502, 6.2823, 6.3555, 6.3428, 6.1941, 6.135, 6.3296, 6.3326, 6.3057, 6.2802, 6.2682, 6.3716, 6.4446, 6.4562, 6.5491, 6.3032, 6.1016, 6.3079, 6.302300000000001, 6.3185, 6.3919, 6.2962, 6.281499999999999, 6.255199999999999, 6.3168, 6.3072, 6.2998, 6.3022, 6.3314, 6.672, 6.5043, 6.659199999999999, 6.2568, 6.3142, 6.2885, 6.249099999999999, 6.2688, 6.3248999999999995, 6.377, 6.302300000000001, 6.408600000000001, 6.0787, 6.3305, 6.3004999999999995, 6.6151, 6.095599999999999, 6.095599999999999, 6.3549, 6.4239, 6.3689, 6.4754000000000005, 6.385400000000001, 6.3043, 6.3035, 6.265, 6.3483, 6.3794, 6.3358, 6.3186, 6.6001, 6.370500000000001, 6.581, 6.3101, 6.3319, 6.2866, 6.269, 6.3195, 6.332199999999999, 6.3441, 6.4336, 6.3624, 6.2781, 6.351, 6.2971, 6.3018, 6.5262, 6.7223, 6.4178999999999995],
  "Optimal Expectation Value": -4.0,
  "Optimizer durations [ms]": [72.395, 64.759, 64.213, 65.278, 66.424, 67.71, 70.498, 66.354, 71.147, 64.481, 64.595, 65.353, 65.518, 65.16, 64.867, 65.463, 64.848, 64.829, 64.914, 64.796, 66.566, 72.702, 71.78, 64.93, 65.508, 65.363, 70.813, 72.78, 65.221, 65.193, 64.984, 64.696, 64.548, 65.613, 66.218, 66.713, 70.48, 65.637, 72.458, 64.923, 64.887, 64.971, 65.744, 64.938, 64.674, 64.312, 65.092, 64.868, 65.008, 64.719, 65.29, 68.913, 72.121, 68.35, 64.463, 65.055, 64.764, 64.268, 64.503, 65.017, 65.67, 64.964, 66.052, 72.275, 65.14, 64.938, 70.623, 72.713, 70.137, 65.266, 66.181, 65.584, 66.61, 66.286, 65.092, 64.93, 64.614, 70.787, 65.87, 65.372, 65.175, 72.995, 70.379, 67.698, 65.086, 65.155, 64.644, 64.615, 65.646, 70.483, 65.4, 66.238, 65.559, 64.61, 65.42, 64.802, 74.594, 72.066, 69.126, 66.42],
  "Optimizer iterations": 100,
  "Optimizer params": [0.6631943912519466, 0.9022164940834045, 0.30124531315758957, 0.47371889742311846, 0.9999529181421353, 0.5279807124714164],
  "P": 3,
  "Problem": "MIS",
  "QPU": "7000000",
  "Qubits": 16,
  "Shots": 4096,
  "Size": 13,
  "Total Algorithm duration [s]": 6.668,
  "Total Classic duration [s]": 6.0337449,
  "Total Quantum duration [s]": 0.6342550999999998
}
