{
  "Depth": 743.0,
  "Expectation Value": -3.6287841796875,
  "Job durations [ms]": [6.392799999999999, 6.4357, 6.3690999999999995, 6.3882, 6.359100000000001, 6.3834, 6.3813, 6.4868, 6.5224, 6.4069, 6.3776, 6.4235999999999995, 6.4849, 6.4464, 6.4599, 6.5188, 6.518999999999999, 6.316000000000001, 6.3637, 6.3628, 6.449800000000001, 6.624599999999999, 6.6699, 7.0613, 6.4813, 6.393000000000001, 6.3857, 6.4511, 6.418, 6.411700000000001, 6.423500000000001, 6.4424, 6.4884, 6.4474, 6.402200000000001, 6.450799999999999, 6.4507, 6.5168, 6.7235000000000005, 6.3232, 6.4424, 6.629300000000001, 6.585, 6.4544, 6.413600000000001, 6.4424, 6.411499999999999, 6.3888, 6.407, 6.452, 6.5026, 6.4512, 6.7732, 6.5417000000000005, 6.513, 6.4119, 6.3801, 6.5402000000000005, 6.397, 6.4293, 6.3969, 6.3273, 6.3742, 6.3661, 6.3978, 6.375900000000001, 6.3921, 6.7654000000000005, 6.9083, 6.3818, 6.4038, 6.3725, 6.4540999999999995, 6.4383, 6.3892999999999995, 6.4355, 6.4237, 6.5134, 6.4158, 6.4223, 6.3277, 6.4185, 6.5201, 6.3548, 6.4699, 6.502800000000001, 6.6368, 6.4727, 6.590000000000001, 6.4645, 6.3911999999999995, 6.3723, 6.3921, 6.4514000000000005, 6.4674, 6.4998000000000005, 6.4466, 6.8625, 6.6673, 6.4348, 6.4081, 6.422, 6.414000000000001, 6.5222, 6.4908],
  "Optimal Expectation Value": -4.0,
  "Optimizer durations [ms]": [65.957, 66.376, 65.661, 65.727, 65.535, 65.891, 65.689, 67.023, 77.008, 74.377, 65.532, 66.329, 67.612, 71.386, 66.532, 68.314, 67.268, 65.178, 65.836, 65.665, 66.424, 73.156, 68.883, 76.072, 72.798, 65.98, 65.873, 66.503, 66.38, 66.011, 66.211, 66.456, 66.767, 66.448, 65.955, 66.312, 66.538, 66.958, 71.376, 73.744, 66.224, 68.5, 68.092, 66.609, 66.215, 66.464, 66.079, 66.178, 66.141, 66.568, 67.12, 66.592, 69.744, 72.257, 68.3, 66.135, 65.773, 67.365, 65.847, 66.352, 65.908, 65.369, 65.907, 65.539, 65.997, 65.895, 66.043, 69.623, 71.397, 71.982, 66.185, 65.619, 66.762, 66.225, 65.941, 66.462, 66.047, 67.157, 66.061, 66.077, 65.4, 66.101, 67.341, 72.116, 70.953, 66.845, 69.504, 66.722, 68.061, 66.87, 66.06, 65.739, 66.066, 66.477, 66.717, 67.032, 66.36, 70.79, 72.702, 66.871, 66.164, 66.154, 65.971, 67.225, 66.883],
  "Optimizer iterations": 105,
  "Optimizer params": [0.02567056874666038, 0.2971312697567029, 0.3337132188953247, 0.5760080317005949, 0.989786031128497, 0.004971983263461738],
  "P": 3,
  "Problem": "MIS",
  "QPU": "7000000",
  "Qubits": 16,
  "Shots": 4096,
  "Size": 13,
  "Total Algorithm duration [s]": 7.079,
  "Total Classic duration [s]": 6.400064899999999,
  "Total Quantum duration [s]": 0.6789351
}
