{
  "Depth": 743.0,
  "Expectation Value": -3.63710880279541,
  "Job durations [ms]": [6.3753, 6.3146, 6.4057, 6.3597, 6.392, 6.3845, 6.7327, 6.2599, 6.2414000000000005, 6.414000000000001, 6.4447, 6.390899999999999, 6.4243, 6.43, 6.4083, 6.4315, 6.3671, 6.4528, 6.3896999999999995, 6.4193999999999996, 6.4622, 6.740600000000001, 6.2065, 6.4793, 6.4683, 6.4322, 6.3989, 6.2813, 6.5677, 6.4239, 6.4063, 6.3462, 6.3948, 6.4765, 6.3868, 6.4322, 6.8950000000000005, 6.6307, 6.5091, 6.4186, 6.4053, 6.4089, 6.5376, 6.4158, 6.5521, 6.436800000000001, 6.4005, 6.4167, 6.3643, 6.3865, 6.569, 6.895499999999999, 6.4377, 6.521199999999999, 6.3927000000000005, 6.4371, 6.4631, 6.3957, 6.3169, 6.4717, 6.4206, 6.4298, 6.3586, 6.4268, 6.432, 6.6136, 6.6495, 6.5484, 6.1796999999999995, 6.5655, 6.4057, 6.5168, 6.4415000000000004, 6.4952, 6.4748, 6.4356, 6.4192, 6.4606, 6.4542, 6.383, 6.6334, 6.3482, 6.7473, 6.3972, 6.3743, 6.4161, 6.3934999999999995, 6.5049, 6.430899999999999, 6.5222999999999995, 6.4627, 6.4578, 6.4279, 6.4393, 6.4271, 6.556, 6.6846, 6.7155000000000005, 6.5316, 6.4083, 6.4112, 6.444100000000001, 6.3697, 6.4791, 6.436800000000001, 6.408399999999999, 6.4085, 6.3786, 6.4164, 6.3923, 6.5885, 6.6521, 6.5008, 6.483, 6.4821, 6.4523, 6.5313, 6.6264, 6.4488, 6.44, 6.2395000000000005, 6.3945],
  "Optimal Expectation Value": -4.0,
  "Optimizer durations [ms]": [66.025, 65.546, 65.851, 65.374, 65.828, 66.192, 76.213, 74.166, 73.961, 66.173, 66.521, 66.026, 66.253, 66.182, 65.985, 66.376, 65.81, 66.551, 66.002, 66.33, 66.521, 69.297, 73.739, 66.941, 66.463, 66.363, 65.913, 74.516, 67.558, 68.898, 66.132, 65.489, 65.852, 66.614, 65.719, 66.302, 71.23, 73.165, 71.976, 66.361, 66.004, 66.111, 67.21, 65.998, 67.356, 66.414, 65.866, 66.928, 65.578, 65.778, 67.53, 72.234, 71.101, 70.025, 66.064, 66.359, 66.675, 65.921, 65.001, 66.526, 66.035, 66.303, 65.733, 66.365, 66.277, 68.233, 71.542, 69.273, 72.1, 67.479, 66.916, 66.95, 72.665, 68.364, 66.809, 66.416, 66.306, 66.738, 66.362, 65.949, 68.742, 73.527, 69.286, 66.212, 65.652, 66.086, 65.937, 66.933, 66.076, 67.161, 66.695, 66.381, 66.158, 66.236, 66.3, 67.649, 71.192, 69.236, 67.371, 66.055, 66.228, 66.415, 65.869, 66.897, 66.28, 67.331, 66.186, 65.765, 65.938, 65.841, 67.757, 68.75, 69.02, 67.994, 67.379, 66.587, 67.23, 73.031, 66.454, 66.51, 71.426, 65.991],
  "Optimizer iterations": 122,
  "Optimizer params": [0.29803314895067107, 0.13007885529677946, 1.0, 0.9999750034829701, 0.005581748336509694, 0.9925679676575427],
  "P": 3,
  "Problem": "MIS",
  "QPU": "7000000",
  "Qubits": 16,
  "Shots": 4096,
  "Size": 13,
  "Total Algorithm duration [s]": 8.235,
  "Total Classic duration [s]": 7.447404899999999,
  "Total Quantum duration [s]": 0.7875951000000003
}
