{
  "Depth": 743.0,
  "Expectation Value": -3.7305686473846436,
  "Job durations [ms]": [6.3171, 6.3972999999999995, 6.384, 6.4017, 6.4582, 6.9296, 6.228400000000001, 6.4192, 6.4374, 6.3277, 6.4104, 6.375, 6.4329, 6.3466, 6.4446, 6.4116, 6.3804, 6.4032, 6.3981, 6.414300000000001, 6.806699999999999, 6.7066, 6.4094, 6.4171000000000005, 6.3681, 6.3976, 6.356, 6.3967, 6.3772, 6.4289000000000005, 6.4906, 6.3668, 6.4573, 6.39, 6.3749, 6.6456, 6.5641, 6.4559999999999995, 6.4429, 6.6146, 6.5091, 6.4097, 6.3982, 6.3958, 6.392, 6.3479, 6.3945, 6.4227, 6.4478, 6.3664000000000005, 6.7441, 6.7271, 6.5214, 6.4536999999999995, 6.402900000000001, 6.489199999999999, 6.4372, 6.412, 6.3915, 6.4131, 6.405799999999999, 6.3919, 6.4622, 6.3955, 6.3845, 6.7104, 6.7699, 6.4395, 6.4291, 6.4005, 6.4164, 6.4192, 6.3727, 6.414300000000001, 6.32, 6.4862, 6.3718, 6.4337, 6.4567000000000005, 6.3622000000000005, 6.5753, 6.6927, 6.1977, 6.5461, 6.619, 6.466600000000001, 6.6867, 6.6842999999999995, 6.4922, 6.479699999999999, 6.427300000000001, 6.6899999999999995, 6.6342, 6.4509, 6.6657, 6.453, 6.2362],
  "Optimal Expectation Value": -4.0,
  "Optimizer durations [ms]": [65.484, 66.225, 65.718, 65.905, 66.645, 71.261, 73.67, 66.219, 66.178, 65.423, 65.928, 65.682, 66.06, 65.523, 66.396, 66.208, 65.625, 66.015, 66.121, 66.183, 70.057, 69.377, 70.023, 66.303, 65.63, 65.804, 65.421, 65.832, 65.704, 66.081, 66.91, 65.623, 66.531, 65.848, 65.808, 68.527, 72.536, 66.622, 66.403, 68.298, 70.065, 66.025, 65.821, 65.749, 65.991, 65.534, 66.006, 66.034, 66.582, 65.433, 69.426, 69.759, 67.996, 66.677, 65.991, 66.869, 66.268, 66.129, 65.706, 65.967, 66.038, 66.064, 66.503, 66.242, 65.812, 69.261, 74.95, 67.928, 66.262, 65.789, 66.293, 66.353, 65.885, 66.163, 65.026, 66.952, 65.777, 66.48, 66.595, 65.67, 67.523, 69.589, 73.052, 67.251, 68.171, 72.722, 68.806, 76.796, 76.521, 76.486, 67.825, 68.99, 68.437, 66.672, 69.759, 76.318, 74.001],
  "Optimizer iterations": 97,
  "Optimizer params": [0.5776406208832527, 0.11837084198279385, 1.0, 0.8391455679258263, 0.6096870297779058, 0.2785877571978122],
  "P": 3,
  "Problem": "MIS",
  "QPU": "7000000",
  "Qubits": 16,
  "Shots": 4096,
  "Size": 13,
  "Total Algorithm duration [s]": 6.554,
  "Total Classic duration [s]": 5.9272988,
  "Total Quantum duration [s]": 0.6267012000000001
}
