{
  "Depth": 743.0,
  "Expectation Value": -3.5411911010742188,
  "Job durations [ms]": [6.3895, 6.396599999999999, 6.3762, 6.3563, 6.4265, 6.4259, 6.4937, 6.4371, 6.4478, 6.4773000000000005, 6.481800000000001, 6.4885, 6.4069, 6.4445, 6.4319, 7.0379, 6.570399999999999, 6.3709, 6.4562, 6.3690999999999995, 6.3036, 6.4057, 6.4192, 6.4391, 6.4948999999999995, 6.4437, 6.4672, 6.4284, 6.3767, 6.4438, 6.859299999999999, 6.153, 6.1604, 6.5088, 6.7261, 6.4003000000000005, 6.4006, 6.4107, 6.440300000000001, 6.448899999999999, 6.3826, 6.498399999999999, 6.4452, 6.3972, 6.441, 6.5551, 6.5172, 6.401, 6.5339, 6.335699999999999, 6.4113, 6.4559999999999995, 6.407900000000001, 6.3922, 6.3229999999999995, 6.2807, 6.4437, 6.3709, 6.4128, 6.5823, 6.6555, 6.3745, 6.423500000000001, 6.3952, 6.4786, 6.4174999999999995, 6.4282, 6.4075, 6.3652999999999995, 6.455, 6.4932, 6.4009, 6.4139, 6.409800000000001, 6.5699, 6.8084, 6.4524, 6.4463, 6.2332, 6.6079, 6.4483, 6.4139, 6.424, 6.403, 6.4791, 6.4065, 6.4091000000000005, 6.3957, 6.3932, 6.7922, 6.3508000000000004, 6.442, 6.4354, 6.4074, 6.4043, 6.433999999999999, 6.49, 6.4746, 6.396599999999999, 6.436599999999999, 6.4771, 6.3466, 6.4926, 6.5186, 6.8395, 6.4214, 6.3933, 6.443499999999999, 6.398],
  "Optimal Expectation Value": -4.0,
  "Optimizer durations [ms]": [75.691, 66.984, 65.765, 65.547, 66.401, 66.083, 66.963, 66.334, 66.475, 66.803, 66.848, 66.826, 65.978, 66.251, 66.156, 75.629, 72.669, 65.797, 66.427, 65.592, 65.151, 65.984, 66.238, 66.19, 66.997, 66.544, 66.816, 66.172, 65.817, 66.328, 70.546, 71.058, 73.122, 67.071, 69.147, 65.878, 66.118, 66.095, 66.235, 66.427, 66.04, 67.066, 66.374, 66.053, 73.622, 74.33, 68.998, 66.034, 67.309, 65.435, 66.122, 66.717, 66.052, 65.98, 65.167, 71.197, 66.293, 65.733, 65.928, 67.649, 73.233, 70.75, 66.09, 66.085, 66.695, 66.159, 66.269, 66.019, 65.821, 66.398, 67.055, 65.895, 66.206, 66.079, 67.533, 70.279, 71.01, 70.454, 73.057, 73.225, 66.38, 65.985, 66.263, 66.194, 66.916, 65.852, 66.194, 65.943, 65.985, 69.908, 75.38, 66.478, 66.19, 66.049, 65.838, 66.343, 66.942, 66.676, 66.677, 66.427, 66.706, 65.432, 66.945, 67.293, 70.447, 75.925, 66.188, 66.996, 65.982],
  "Optimizer iterations": 109,
  "Optimizer params": [1.0, 0.5304745383828396, 0.32063395933442407, 1.0, 0.000193670082127015, 0.7494003776193912],
  "P": 3,
  "Problem": "MIS",
  "QPU": "7000000",
  "Qubits": 16,
  "Shots": 4096,
  "Size": 13,
  "Total Algorithm duration [s]": 7.358,
  "Total Classic duration [s]": 6.6549922,
  "Total Quantum duration [s]": 0.7030078000000001
}
