{
  "Depth": 743.0,
  "Expectation Value": -3.6270806789398193,
  "Job durations [ms]": [6.4052, 6.3762, 6.406000000000001, 6.4146, 6.482500000000001, 6.4046, 6.391800000000001, 6.4164, 6.4258, 6.4389, 6.6876, 6.3864, 6.4398, 6.484400000000001, 6.5298, 6.5582, 6.6648000000000005, 6.4549, 6.4510000000000005, 6.4757, 6.4672, 6.4826, 6.4484, 6.4293, 6.4246, 6.7275, 6.4226, 6.7021, 6.4729, 6.4439, 6.4801, 6.428999999999999, 6.5412, 6.4284, 6.4452, 6.4769, 6.39, 6.452699999999999, 6.4126, 6.4807, 6.8267, 6.6916, 6.4867, 6.3669, 6.4481, 6.3945, 6.4665, 6.4348, 6.4460999999999995, 6.3765, 6.3991, 6.4043, 6.4634, 6.3803, 6.4623, 6.7767, 6.6306, 6.509799999999999, 6.4780999999999995, 6.5202, 6.570399999999999, 6.6056, 6.394, 6.3858999999999995, 6.4407, 6.4585, 6.4703, 6.3991, 6.3991999999999996, 6.4462, 6.7226, 6.7472, 6.527500000000001, 6.3576, 6.3709999999999996, 6.4997, 6.4702, 6.3926, 6.4206, 6.4455, 6.3867, 6.4355, 6.3603000000000005, 6.3826, 6.442, 6.8557999999999995, 6.4027, 6.5373, 6.3971, 6.4049, 6.4942, 6.494599999999999, 6.3876, 6.3298, 6.5198, 6.4226, 6.4493, 6.3968, 6.479699999999999, 6.5004, 6.7463999999999995, 6.5447, 6.4101, 6.5297, 6.439699999999999, 6.576700000000001, 6.516, 6.4263, 6.3711, 6.4531, 6.5463, 6.3626000000000005, 6.4976, 6.377800000000001, 6.5269, 6.8092, 6.7089, 6.4474, 6.3971, 6.6019, 7.080699999999999, 7.3635, 6.9791, 6.7767, 6.6402, 6.7547, 6.8484, 6.7665, 6.8893, 7.031899999999999, 7.0865, 6.658200000000001, 6.696599999999999, 6.8049, 6.7883, 6.7795, 6.8458, 6.7574000000000005, 6.920100000000001, 6.787, 6.691800000000001, 6.7191, 6.7809, 7.0412, 6.8954, 6.7199],
  "Optimal Expectation Value": -4.0,
  "Optimizer durations [ms]": [66.269, 65.606, 66.969, 65.951, 66.778, 65.912, 65.759, 65.964, 66.019, 66.285, 68.709, 70.199, 66.224, 66.739, 71.961, 67.675, 69.299, 66.525, 66.576, 66.712, 66.741, 66.945, 66.515, 66.344, 66.268, 69.15, 74.296, 73.849, 71.812, 66.265, 66.827, 66.41, 67.358, 66.246, 66.662, 66.837, 65.781, 66.655, 65.918, 66.801, 71.575, 71.04, 71.836, 65.475, 66.429, 65.743, 66.777, 66.234, 66.565, 65.607, 66.05, 65.841, 66.831, 65.845, 66.725, 70.342, 71.278, 67.075, 66.831, 67.279, 70.914, 72.804, 66.446, 65.788, 66.231, 66.569, 66.804, 65.858, 65.892, 67.048, 74.226, 75.487, 71.153, 65.695, 65.841, 67.074, 66.68, 65.898, 66.173, 66.571, 65.915, 66.408, 65.58, 65.925, 66.455, 70.93, 75.621, 68.807, 66.144, 66.581, 67.038, 67.204, 65.882, 65.384, 67.098, 66.197, 66.585, 66.021, 66.762, 68.768, 69.669, 72.548, 67.921, 67.447, 66.408, 67.706, 70.902, 66.105, 65.576, 66.424, 67.279, 65.482, 67.005, 65.701, 67.402, 70.052, 73.863, 66.673, 66.083, 68.152, 73.042, 75.739, 72.002, 72.611, 68.221, 69.646, 71.667, 74.756, 71.098, 78.071, 75.376, 73.722, 69.065, 70.12, 70.148, 74.673, 70.753, 69.75, 74.788, 70.882, 69.948, 69.421, 71.96, 72.779, 73.332, 74.223],
  "Optimizer iterations": 146,
  "Optimizer params": [0.24402699942329856, 0.008786222766533191, 1.0, 0.009475615415071316, 0.06489238174339688, 0.966554149032488],
  "P": 3,
  "Problem": "MIS",
  "QPU": "7000000",
  "Qubits": 16,
  "Shots": 4096,
  "Size": 13,
  "Total Algorithm duration [s]": 9.988,
  "Total Classic duration [s]": 9.0321871,
  "Total Quantum duration [s]": 0.9558128999999999
}
