{
  "Depth": 18.5,
  "Job durations [ms]": [1986.2889051437378, 1986.5343570709229, 2051.6018867492676, 2034.3221426010132, 1934.1975450515747, 1911.0701084136963, 1907.1180820465088, 1943.4841871261597, 1962.9658460617065, 1976.1699438095093, 1944.0745115280151, 1975.7497310638428, 1969.2384004592896, 2038.745641708374, 1929.5390844345093, 1936.8228912353516, 1920.5749034881592, 1943.8104629516602, 1928.8043975830078, 1965.3362035751343, 1953.234076499939, 1975.240707397461, 1929.253101348877, 1934.3302249908447, 1975.2826690673828, 1947.4737644195557, 1925.7450103759766, 1972.1466302871704, 1959.4146013259888, 1912.8336906433105, 1903.17702293396, 2115.9764528274536, 2193.4527158737183, 1965.161681175232, 2089.331269264221, 1980.2870750427246, 1971.1225032806396, 1957.749366760254, 1943.3754682540894, 1993.1453466415405, 1951.3229131698608, 1971.1475372314453, 1950.6454467773438, 1998.1935024261475, 1954.9951553344727, 1959.2525959014893, 1999.2588758468628, 1966.1916494369507, 1930.8677911758423, 1988.9580011367798, 1950.3434896469116, 1933.6649179458618, 1963.606357574463, 1999.7859001159668, 1960.852026939392, 2025.0746011734009, 1980.1256656646729, 1970.707654953003, 1936.6352558135986, 1928.3589124679565, 1915.3249263763428, 1952.4472951889038, 1934.7721338272095, 1912.272334098816, 2121.762990951538, 1967.9367542266846, 1958.530068397522, 1988.1551265716553, 1894.4785594940186, 1899.2793560028076, 2099.8668670654297, 1908.0851078033447, 1929.8436641693115, 2187.7232789993286, 1903.6186933517456, 1966.8320417404175, 2000.5594491958618, 1983.867883682251, 1949.3447542190552, 1937.2584819793701, 1951.9480466842651, 1999.6885061264038, 1924.2695569992065, 1970.3052043914795, 1963.5077714920044, 1943.7915086746216, 1942.0015811920166, 1902.1024703979492, 1904.1662216186523, 1997.1754550933838, 1876.2186765670776, 1922.8447675704956, 1871.8194961547852, 1971.6633558273315, 1917.04523563385, 2083.091139793396, 1913.4591817855835, 1943.70436668396, 1964.3524885177612, 1963.5313749313354, 1959.9391222000122, 1977.7368307113647, 1911.3277196884155, 1920.1594591140747, 1965.050458908081, 1957.3323726654053, 1917.5670146942139, 1912.0131731033325, 1934.8440170288086, 1955.2478790283203, 1918.848156929016, 1974.4973182678223, 2089.7414684295654, 1918.2496070861816, 1939.9842023849487, 1960.9806537628174, 1902.7249813079834, 1947.021722793579, 1987.9419803619385, 1961.8827104568481, 1884.3694925308228, 2096.080183982849, 1975.770115852356, 2110.405921936035, 1985.9850406646729, 2055.8894872665405, 2083.063244819641, 1914.2061471939087, 2104.3787002563477, 1896.0586786270142, 1977.0679473876953, 1994.1623210906982, 1938.865065574646, 1963.7917280197144, 1950.8987665176392, 1946.9202756881714, 1937.5733137130737, 1980.6874990463257, 1904.6982526779175, 1976.4587879180908, 1927.0098209381104, 1931.7268133163452, 1967.7784442901611, 1920.2289581298828, 2021.302342414856, 1955.896496772766, 1976.7000675201416, 1946.3142156600952, 2077.4461030960083, 2002.8363466262817, 1982.757329940796, 1952.463984489441, 1917.0979261398315, 1973.9348888397217, 1949.6772289276123, 1906.562328338623, 1992.0032024383545, 2000.4539489746094, 1936.7913007736206, 1975.3081798553467, 1942.3553943634033, 1916.150450706482, 1917.669415473938, 2116.0968542099, 1925.2352714538574, 1946.0538625717163, 2101.608633995056, 1918.6601638793945, 1938.1871223449707, 2001.8844604492188, 1972.1012115478516, 1948.2877254486084, 1951.0425329208374, 1968.0145978927612, 1949.8361349105835, 1918.473243713379, 2023.6306190490723, 1958.2442045211792, 1941.7723417282104, 1955.3654193878174, 1963.446021080017, 1910.4470014572144, 1965.3494358062744, 1919.2534685134888, 2050.8623123168945, 1922.0718145370483, 2148.473620414734, 1890.5069828033447, 2051.6819953918457, 1952.4333477020264, 1953.4789323806763, 1908.1612825393677, 1998.8932609558105, 1904.289722442627, 1890.6478881835938, 1913.5061502456665, 1951.665759086609, 1955.3885459899902, 1914.5528078079224, 2026.932716369629, 1964.559555053711, 1990.7586574554443, 1961.3803625106812, 1981.3381433486938, 1953.2411098480225, 1958.1630229949951, 1949.1790533065796, 1924.1256713867188, 1954.9462795257568, 1925.1455068588257, 1904.112458229065, 1945.307731628418, 1948.5572576522827, 1983.6746454238892, 1917.5876379013062, 1981.6020727157593, 1948.067307472229, 1925.8437156677246, 2074.327230453491, 1977.523684501648, 2117.8873777389526, 1931.4072132110596, 1938.199520111084, 1910.6760025024414, 1887.518048286438, 1976.1232137680054, 1969.4361686706543, 1906.6791534423828, 1902.672529220581, 2138.554096221924, 1948.8410949707031, 1952.589750289917, 1917.237639427185, 1958.7855339050293, 1995.248794555664, 1987.8325462341309, 1947.1849203109741, 1964.1072750091553, 1912.8121137619019, 1925.5844354629517, 1937.585949897766, 1888.3419036865234, 1950.6289958953857, 1930.1248788833618, 1956.0539722442627, 2081.46333694458, 1958.6316347122192, 1955.2912712097168, 1946.0035562515259, 2047.9414463043213, 1910.1026058197021, 1989.3884658813477, 1926.0655641555786, 1892.9487466812134, 2074.8811960220337, 1971.4401960372925, 1982.672095298767, 1971.2657928466797, 2077.827215194702, 1963.4798765182495, 2005.0466060638428, 1918.5737371444702, 1898.6045122146606, 1952.5364637374878, 1969.680666923523, 1918.0231094360352, 1913.8716459274292, 1985.8148097991943, 1911.4242792129517, 1954.2871713638306, 1946.3156461715698, 1897.1452713012695, 1960.7131481170654, 1962.746024131775, 1982.8532934188843, 1944.4059133529663, 1946.050524711609, 1930.5367469787598, 1945.8459615707397, 1912.9093885421753, 2009.2442035675049, 1977.851152420044, 1919.7978973388672, 1946.050524711609, 1965.8271074295044, 1970.8436727523804, 1929.6826124191284, 1933.8613748550415, 1891.9562101364136, 1941.0346746444702, 1929.1499853134155, 1910.972237586975, 1932.9166412353516, 1902.2384881973267, 1910.9545946121216, 1903.0685424804688, 1911.2920761108398, 1928.7660121917725, 1961.2510204315186, 1923.9968061447144, 1964.5612239837646, 1982.292890548706, 1952.7206420898438, 1951.5379667282104, 1962.8373384475708, 2006.729006767273, 1934.7034692764282, 1903.6190509796143, 1954.564929008484, 1957.9311609268188],
  "Optimizer durations [ms]": [6661.125, 6721.619, 6815.354, 6819.86, 6565.315, 6560.404, 6541.051, 6623.607, 6629.228, 6715.372, 6579.623, 6648.95, 6675.228, 6805.991, 6569.433, 6581.59, 6572.825, 6593.932, 6605.515, 6668.2, 6604.215, 6689.616, 6578.884, 6576.25, 6677.637, 6592.752, 6584.056, 6641.254, 6659.361, 6527.169, 6545.19, 6922.936, 7151.267, 6636.637, 6914.522, 6701.559, 6676.604, 6647.047, 6597.139, 6711.627, 6640.055, 6681.109, 6585.473, 6764.597, 6632.356, 6661.926, 6669.915, 6646.469, 6540.246, 6719.375, 6607.375, 6547.849, 6635.55, 6704.481, 6618.161, 6733.164, 6682.139, 6619.173, 6595.918, 6518.902, 6551.752, 6586.307, 6578.858, 6489.31, 6917.436, 6624.4, 6604.238, 6733.474, 6439.62, 6504.941, 6883.375, 6551.669, 6562.065, 7093.904, 6486.192, 6674.016, 6677.653, 6704.258, 6577.745, 6560.14, 6614.474, 6690.789, 6563.021, 6632.399, 6632.663, 6577.695, 6599.316, 6474.556, 6483.503, 6724.971, 6437.627, 6562.72, 6462.061, 6664.711, 6544.021, 6875.711, 6531.915, 6559.646, 6675.396, 6632.132, 6590.077, 6678.415, 6520.265, 6546.734, 6618.063, 6633.185, 6519.373, 6530.556, 6575.133, 6588.324, 6555.488, 6693.769, 6854.42, 6538.146, 6581.044, 6641.041, 6502.341, 6571.047, 6661.818, 6618.939, 6480.449, 6885.551, 6673.074, 6919.538, 6711.202, 6822.789, 6874.62, 6491.28, 6942.319, 6488.012, 6657.015, 6706.511, 6562.016, 6695.111, 6584.356, 6602.197, 6580.143, 6707.249, 6521.334, 6668.219, 6611.888, 6573.683, 6739.241, 6534.63, 6778.081, 6592.483, 6656.496, 6610.722, 6841.687, 6741.483, 6679.22, 6625.781, 6503.999, 6686.972, 6599.246, 6527.631, 6689.91, 6708.339, 6566.427, 6660.196, 6602.911, 6508.038, 6551.727, 6918.99, 6581.066, 6584.823, 6910.477, 6524.85, 6609.903, 6711.392, 6685.896, 6553.999, 6622.184, 6644.956, 6612.599, 6516.289, 6782.19, 6591.496, 6595.739, 6589.501, 6642.652, 6512.166, 6646.224, 6538.028, 6829.557, 6541.597, 7059.908, 6444.63, 6796.432, 6576.836, 6588.878, 6541.555, 6711.217, 6490.145, 6475.115, 6539.313, 6623.33, 6581.5, 6517.012, 6806.575, 6631.426, 6703.964, 6611.214, 6652.703, 6599.543, 6630.395, 6618.839, 6527.706, 6608.868, 6593.379, 6470.366, 6607.959, 6602.797, 6714.625, 6526.557, 6680.5, 6588.778, 6607.898, 6864.494, 6675.626, 6931.514, 6569.647, 6583.764, 6547.072, 6463.28, 6674.677, 6661.407, 6517.661, 6471.416, 7014.209, 6616.367, 6621.907, 6504.992, 6639.617, 6668.156, 6652.034, 6627.156, 6613.853, 6515.331, 6521.997, 6598.462, 6437.757, 6620.859, 6537.58, 6647.734, 6851.963, 6642.326, 6593.332, 6609.428, 6773.645, 6538.743, 6653.25, 6599.805, 6451.225, 6876.043, 6627.369, 6653.517, 6657.867, 6901.601, 6602.821, 6728.189, 6488.902, 6505.625, 6556.282, 6652.668, 6513.005, 6503.503, 6687.122, 6508.596, 6618.608, 6586.775, 6467.906, 6629.654, 6649.995, 6641.955, 6604.249, 6598.959, 6576.359, 6581.666, 6556.595, 6701.393, 6646.583, 6525.945, 6577.101, 6641.339, 6660.868, 6540.276, 6587.46, 6448.083, 6572.55, 6573.596, 6506.86, 6555.082, 6481.502, 6523.779, 6483.507, 6543.209, 6548.743, 6634.363, 6497.74, 6613.249, 6689.836, 6609.272, 6610.949, 6598.734, 6752.815, 6552.333, 6504.06, 6586.219, 6603.868],
  "Optimizer iterations": 310,
  "Qubits": 8,
  "Total Algorithm duration [s]": 2054.653,
  "Total Classic duration [s]": 1446.7421628265379,
  "Total Quantum duration [s]": 607.9108371734619,
  "Expectation Value": -7.17822265625,
  "Optimal Expectation Value": -9.83795166015625,
  "Optimizer params": [0.7500718709414482, 0.7499262337860033, 0.7500623714207048, 0.7500077983378306, 0.7484182908436797, 0.7464317611106787, 0.7750671432989577, 0.5024922352404081, 0.5005201671924268, 0.5446107128668386, 0.5041381797757766, 0.5030836112858801, 0.47945089196593405, 0.5009199172436823, 0.5033374528444443, 0.7532719467834791, 0.500009668652297, 0.49999800684524826, 0.5000603244142668, 0.49999299729577984, 0.5000013092021582, 0.49997363681769597, 0.49993101410269447, 0.49998134388755927, 0.4999968090220287, 0.5000081085679847, 0.5000209698728154, 0.5000684939172487, 0.5000189324543849, 0.500013211511261, 0.5000016334194344, 0.5000438017649448],
  "QPU": "6010003",
  "Problem": "IC",
  "Size": 8,
  "P": 0,
  "Shots": 4096
}