{
  "Depth": 18.5,
  "Job durations [ms]": [1955.0600051879883, 2089.3200635910034, 1945.2695846557617, 2128.644108772278, 2044.3148612976074, 2128.1996965408325, 2000.097393989563, 2068.0164098739624, 1972.5443124771118, 1983.9284420013428, 2150.2104997634888, 2227.473735809326, 2002.3778676986694, 1950.434684753418, 2155.069351196289, 1910.235047340393, 2091.9114351272583, 2021.0624933242798, 1984.1079711914062, 2289.9272441864014, 1992.189645767212, 1896.1032629013062, 2101.333975791931, 2158.5854291915894, 2218.2570695877075, 2581.7389488220215, 2193.701982498169, 1957.8850269317627, 1990.8607006072998, 1934.637427330017, 2070.2940225601196, 2070.007801055908, 2195.945620536804, 1979.0152311325073, 1936.4877939224243, 1926.9089698791504, 1942.9725408554077, 1927.9441833496094, 1932.0712089538574, 1964.2914533615112, 1910.2224111557007, 2091.0420417785645, 1955.3120136260986, 1905.0339460372925, 1955.7034969329834, 1894.1540718078613, 1981.1891317367554, 2131.469488143921, 1991.2123680114746, 2051.9033670425415, 1945.0592994689941, 2115.5648231506348, 2088.389277458191, 1947.413444519043, 1922.4493503570557, 2121.3968992233276, 1975.5593538284302, 2159.411311149597, 1991.7417764663696, 1969.805121421814, 2214.6975994110107, 2016.8505907058716, 1958.5720300674438, 1934.7649812698364, 1943.8711404800415, 1988.3946180343628, 2000.6142854690552, 1873.6335039138794, 2085.47306060791, 1913.442611694336, 1976.879358291626, 1996.415376663208, 2428.9615154266357, 2003.0224323272705, 1971.7059135437012, 1968.308925628662, 2183.013677597046, 2074.063777923584, 2317.454695701599, 1991.4978742599487, 1930.5226802825928, 1906.9911241531372, 2140.352964401245, 1920.8277463912964, 1923.3859777450562, 2068.5153007507324, 1932.204008102417, 2163.4161472320557, 1916.7110919952393, 1935.8707666397095, 1935.0788593292236, 1906.4323902130127, 1923.2035875320435, 2048.731207847595, 1930.9720993041992, 1989.0897274017334, 1951.0153532028198, 2041.7659282684326, 1915.553092956543, 1992.7239418029785, 2169.8055267333984, 1922.228455543518, 1931.2788248062134, 2144.536852836609, 1935.463547706604, 1956.770658493042, 2153.4091234207153, 1998.5827207565308, 2165.203332901001, 1998.8270998001099, 2156.264901161194, 2229.938268661499, 2149.685263633728, 2002.0360946655273, 2299.677014350891, 2132.641315460205, 2252.130627632141, 2446.0160732269287, 2508.3532333374023, 2259.09960269928, 2462.4903202056885, 2178.3851385116577, 2253.376245498657, 2145.0480222702026, 2117.0434951782227, 2109.7476482391357, 2011.1135244369507, 2207.5228691101074, 2076.7180919647217, 2021.195650100708, 1995.8038330078125, 2044.2787408828735, 1987.4904155731201, 2135.021448135376, 2200.4761695861816, 1978.1309366226196, 2059.822201728821, 2174.8387813568115, 1987.3406887054443, 1964.309811592102, 2178.205728530884, 1955.87956905365, 1962.7685546875, 1961.7419242858887, 1949.6222734451294, 2061.607003211975, 1967.7619934082031, 2020.9003686904907, 2060.851812362671, 1949.0395784378052, 1964.4750356674194, 1994.45378780365, 2236.5710735321045, 2162.578821182251, 2559.211015701294, 2138.0319595336914, 2015.5137777328491, 2010.2931261062622, 2010.6959342956543, 1999.7447729110718, 2012.8722190856934, 1984.8129749298096, 1935.4010820388794, 1970.621943473816, 1981.0681343078613, 2072.265148162842, 1992.8948879241943, 2088.911533355713, 1934.399127960205, 1915.0171279907227, 1987.0784282684326, 2025.2333879470825, 2059.4654083251953, 1944.328784942627, 1986.2654209136963, 1992.4547672271729, 2016.6409015655518, 1977.5183200836182, 1961.328387260437, 2011.803388595581, 1924.8729944229126, 1921.0361242294312, 1914.5643711090088, 1886.6028785705566, 1890.7132148742676, 1977.445125579834, 1971.3594913482666, 1863.7046813964844, 1917.8413152694702, 2066.1009550094604, 1954.5984268188477, 1898.277759552002, 1912.4423265457153, 1954.3105363845825, 1953.371524810791, 1970.022439956665, 2014.9083137512207, 1891.2992477416992, 1933.834195137024, 2046.9260215759277, 1900.6632566452026, 1918.6153411865234, 1908.6010456085205, 1893.324375152588, 1907.4757099151611, 1995.9590435028076, 1937.4828338623047, 1922.6833581924438, 1957.4686288833618, 1928.6832809448242, 1923.8275289535522, 2090.2254581451416, 2111.1849546432495, 1912.3504161834717, 1905.083417892456, 1930.9933185577393, 1924.255132675171, 1937.940239906311, 1902.5194644927979, 1947.6814270019531, 1946.2748765945435, 1937.3576641082764, 1948.9814043045044, 1947.796106338501, 1906.1552286148071, 1950.0318765640259, 1978.6921739578247, 2050.852656364441, 1881.6512823104858, 1937.2605085372925, 1922.7368831634521, 1914.789319038391, 1967.1045541763306, 1897.2489833831787, 1912.9598140716553, 1864.3752336502075, 1970.1734781265259, 1889.4755840301514, 1884.8592042922974, 1918.1069135665894, 1880.5112838745117, 1938.194990158081, 1959.7828388214111, 1945.725440979004, 1911.1264944076538, 2139.819860458374, 1887.8767490386963, 1888.4385824203491, 1937.1551275253296, 2091.6911363601685, 1953.8938999176025, 1883.132815361023, 1900.6916284561157, 1938.3574724197388, 1901.5408754348755, 1930.2561283111572, 1946.8272924423218, 2111.7615699768066, 2060.570240020752, 1873.410701751709, 1912.6558303833008, 1914.480447769165, 1879.6995878219604, 1946.2521076202393, 1914.71529006958, 1972.8459119796753, 1925.9109497070312, 1930.3275346755981, 1896.83198928833, 1874.3337392807007, 1887.7655267715454, 1923.5644340515137, 1933.9860677719116, 1873.9275932312012, 1908.4006547927856, 1895.4956531524658, 1920.2373027801514, 1926.138162612915, 1926.628589630127, 1963.4250402450562, 1896.5483903884888, 1927.3364543914795, 1976.502776145935, 2037.8602743148804, 1888.4079456329346, 1943.8823461532593, 1930.1838874816895, 1929.4463396072388, 2072.0618963241577, 1969.8094129562378, 1941.0719871520996, 2084.786057472229, 1930.6522607803345, 1972.9965925216675, 1924.300193786621, 1905.4933786392212, 1932.8081607818604, 1955.7359218597412, 1915.6980514526367, 1924.7711896896362, 1948.937177658081, 1908.3112478256226, 1923.1959581375122, 1928.9476871490479, 1910.6980562210083, 1974.7226238250732, 1900.9064435958862, 1945.9761381149292, 1935.7832670211792, 1888.795018196106, 1893.5844898223877, 1894.575595855713, 2107.1701049804688, 1923.132300376892, 1875.6901025772095, 1892.1629190444946, 1902.3202657699585, 1902.2146463394165, 1906.4090251922607, 1976.5628576278687, 1961.024284362793, 1897.4658250808716, 1953.0820846557617, 1874.9969005584717, 1915.1746034622192, 1946.2543725967407, 2010.5623006820679, 1983.1602573394775, 1973.2881784439087, 1996.042013168335, 1895.6239223480225, 2079.0274143218994, 1948.883295059204, 1947.5035667419434, 1832.8343629837036, 1967.858910560608, 1957.0176601409912, 1910.1101160049438, 1912.1265411376953, 1887.3286247253418, 1929.633617401123, 1904.5346975326538, 1944.3988800048828, 1964.173436164856, 1945.5682039260864, 1946.264386177063, 1935.628890991211, 1889.841079711914, 1903.1785726547241, 2094.4037437438965, 1887.5081539154053, 2062.0537996292114, 2258.1958770751953, 1902.6585817337036, 1949.6067762374878, 1921.1806058883667, 1896.8501091003418, 1921.6567277908325, 1895.556092262268, 2065.6036138534546, 1936.562180519104, 1922.566294670105, 1905.1127433776855, 1909.239649772644, 1934.7156286239624, 1901.4064073562622, 1925.7687330245972, 1891.621708869934, 1914.2652750015259, 1925.649881362915, 2057.4207305908203, 1897.2296714782715, 2136.0138654708862, 1905.5562019348145, 1930.3337335586548, 1905.8012962341309, 1921.0847616195679, 1910.5780124664307, 1870.755672454834, 1918.654203414917, 1897.104263305664, 1901.9900560379028, 2105.0899028778076, 1982.6644659042358, 1892.5219774246216, 1931.167483329773, 1960.766077041626, 1912.6712083816528, 1941.4881467819214, 1905.5774211883545, 1910.2569818496704, 1932.6645135879517, 1889.020323753357, 1950.1677751541138, 1915.6194925308228, 1942.4068927764893, 1930.040717124939, 1904.4479131698608, 1861.5195751190186, 1902.9687643051147, 1914.749264717102, 1936.181664466858, 1891.4045095443726, 1984.884262084961, 1941.0275220870972, 1883.0132484436035, 1948.1234550476074, 1917.9444313049316, 1979.0420532226562, 1875.7036924362183, 1946.1088180541992, 1907.2868824005127, 1925.0609874725342, 2232.399582862854, 2062.916874885559, 1904.852271080017, 1903.382658958435, 1930.3817749023438, 1927.6797771453857, 1919.9434518814087, 1981.135368347168, 1924.4798421859741, 1910.072922706604, 1938.9952421188354, 1957.5271606445312, 2072.2001791000366, 1970.7263708114624, 1909.6688032150269, 2022.1238136291504, 1963.6743068695068, 1950.7348537445068, 1878.021240234375, 1910.1450443267822, 1900.0617265701294, 1938.416600227356, 1878.9299726486206, 1930.5084943771362, 1877.0192861557007, 2086.0061645507812, 1899.6257781982422, 1939.168095588684, 1946.7108249664307, 2057.5222969055176, 1978.927493095398, 2043.1822538375854, 1913.7216806411743, 2038.4942293167114, 1934.3432188034058, 1948.4394788742065, 1904.1680097579956, 1942.5112009048462, 1918.412685394287, 1961.222529411316, 1935.716152191162, 1893.2727575302124, 1895.012378692627, 1922.6632118225098, 1921.3552474975586, 1917.0362949371338, 1891.7156457901, 1899.413824081421, 1908.0246686935425, 1907.7712297439575, 2040.759801864624, 2014.4621133804321, 1927.3842573165894, 1960.7024192810059, 2010.178804397583, 1911.3094806671143, 1950.067639350891, 1937.2024536132812, 1952.6139497756958, 1943.2356357574463, 1942.8648948669434, 1977.2131443023682, 2061.8958473205566, 1881.2583684921265, 1906.0407876968384, 1943.2309865951538, 2062.1821880340576, 1962.145209312439, 1925.0692129135132, 1905.1215648651123, 1925.5024194717407, 1896.4768648147583, 1932.448387145996, 1935.0022077560425, 1889.5328044891357, 1884.6529722213745, 1878.7455558776855, 1882.182002067566, 1960.1948261260986, 1913.0072593688965, 2052.6857376098633, 2101.3872623443604, 1911.57865524292, 1918.0701971054077, 1973.5928773880005, 1883.476972579956, 1879.8528909683228, 1974.590539932251, 1927.8185367584229, 1888.9944553375244, 1889.4284963607788, 1894.5598602294922, 1939.6336078643799, 2024.3148803710938, 1912.6838445663452, 1913.0016565322876, 1924.9329566955566, 1953.8726806640625, 1903.6256074905396, 1898.4848260879517, 2028.9357900619507, 1948.0363130569458, 1977.0413637161255, 1916.9971942901611, 1923.9634275436401, 1919.751524925232, 2085.8170986175537, 1867.5577640533447, 1898.4270095825195, 1911.878228187561, 1902.7748107910156, 1907.4009656906128, 1876.9164085388184, 1916.628122329712, 2083.6100578308105, 1927.017331123352, 1911.2390279769897, 1868.6102628707886, 1945.8346366882324, 1877.9574632644653, 1936.1214637756348, 1877.3047924041748, 1921.3593006134033, 1905.7135581970215, 2039.5277738571167, 1952.0951509475708, 1920.3945398330688, 1933.3616495132446, 1894.3170309066772],
  "Optimizer durations [ms]": [6592.121, 7044.028, 6579.298, 6982.259, 7120.808, 6966.351, 6795.344, 6993.822, 6694.825, 6716.216, 7158.657, 7200.332, 6719.126, 6648.748, 7044.966, 6556.78, 6954.848, 6965.586, 6720.593, 7462.328, 6737.19, 6500.356, 7043.876, 7599.75, 7526.599, 8215.203, 7704.752, 6893.969, 6752.534, 6566.154, 6986.11, 7101.349, 7166.406, 6656.513, 6570.667, 6576.483, 6609.764, 6585.468, 6601.674, 6657.599, 6495.341, 6971.18, 6588.426, 6541.998, 6638.934, 6521.246, 6677.011, 6982.041, 6670.988, 6903.559, 6631.132, 6993.405, 6883.455, 6601.494, 6599.101, 6963.827, 6698.71, 7140.354, 7228.995, 6651.775, 7472.735, 6838.822, 6620.873, 6562.206, 6617.463, 6686.051, 6758.85, 6438.798, 6942.681, 6532.699, 6662.795, 6832.438, 7717.64, 6898.564, 6720.899, 6720.178, 7178.65, 7023.359, 7358.657, 6772.513, 6590.184, 6592.802, 7027.897, 6556.157, 6566.799, 6916.966, 6573.469, 7076.294, 6531.455, 6610.29, 6573.404, 6569.53, 6547.643, 6850.835, 6576.107, 6730.903, 6638.28, 6992.341, 6533.032, 6750.701, 7345.816, 6574.553, 6573.173, 7042.937, 6652.131, 6675.423, 7106.863, 7049.119, 7295.186, 6970.497, 7258.426, 7246.722, 7174.051, 7147.554, 7786.642, 7206.886, 7359.874, 8149.927, 8289.205, 7559.888, 7949.869, 7248.195, 7555.262, 7317.509, 7099.617, 7441.107, 7117.878, 7254.625, 7027.78, 7259.171, 6876.312, 7076.728, 6822.686, 7332.851, 7307.927, 6784.089, 6972.183, 7449.938, 6846.162, 6706.443, 7176.638, 6757.406, 6703.065, 6645.447, 6662.584, 6933.97, 6727.99, 6829.036, 6925.723, 6705.669, 6665.883, 6780.095, 7293.826, 7237.695, 8448.215, 7153.477, 6859.446, 6847.645, 6826.51, 6738.844, 6863.63, 6772.273, 6732.173, 6750.613, 6795.329, 6945.67, 6797.169, 6886.416, 6602.732, 6545.129, 6715.924, 6757.227, 6873.722, 6604.547, 6690.263, 6719.046, 6729.902, 6680.897, 6632.032, 6720.993, 6596.64, 6552.08, 6512.928, 6511.394, 6474.019, 6675.377, 6635.449, 6414.517, 6555.192, 6824.806, 6640.021, 6503.627, 6522.631, 6600.32, 6613.388, 6633.008, 6777.211, 6469.995, 6560.247, 6800.193, 6491.623, 6569.818, 6496.652, 6502.514, 6519.149, 6736.2, 6566.151, 6583.137, 6629.469, 6586.622, 6535.033, 6864.759, 7153.211, 6484.724, 6514.689, 6564.822, 6551.592, 6597.91, 6507.639, 6580.56, 6619.673, 6599.132, 6620.809, 6614.086, 6509.595, 6600.758, 6690.055, 6831.721, 6469.101, 6563.21, 6572.018, 6539.325, 6669.076, 6474.995, 6565.363, 6431.3, 6673.278, 6467.772, 6486.245, 6524.692, 6493.249, 6571.741, 6627.887, 6608.647, 6502.08, 7366.085, 6648.946, 6501.921, 6674.604, 6937.206, 6585.26, 6480.165, 6471.033, 6619.273, 6483.121, 6589.124, 6585.257, 6965.32, 6821.697, 6423.825, 6526.776, 6544.521, 6446.566, 6615.319, 6495.359, 6660.65, 6544.119, 6530.076, 6508.27, 6424.625, 6481.412, 6522.713, 6580.939, 6435.446, 6540.895, 6474.392, 6569.86, 6546.634, 6567.234, 6606.55, 6502.11, 6569.605, 6658.507, 6788.539, 6477.22, 6651.083, 6546.45, 6568.402, 6875.112, 6637.361, 6547.965, 6890.508, 6540.295, 6663.077, 6540.511, 6515.082, 6540.974, 6643.65, 6516.373, 6524.59, 6612.888, 6485.433, 6582.651, 6542.559, 6511.256, 6654.16, 6499.892, 6592.919, 6596.833, 6463.446, 6496.884, 6491.821, 6929.926, 6539.041, 6431.132, 6506.513, 6501.982, 6500.699, 6479.902, 6634.232, 6632.147, 6462.074, 6637.142, 6421.22, 6515.444, 6578.082, 6762.951, 6657.376, 6653.57, 6673.037, 6534.883, 6840.388, 6647.813, 6620.613, 6383.488, 6637.99, 6646.208, 6524.019, 6528.78, 6438.275, 6556.662, 6495.094, 6630.907, 6605.439, 6592.24, 6597.515, 6568.853, 6458.18, 6512.747, 6881.197, 6463.695, 6825.513, 7228.945, 6477.167, 6580.749, 6573.526, 6473.055, 6545.664, 6458.506, 6803.167, 6607.827, 6536.563, 6503.879, 6505.942, 6601.464, 6470.358, 6583.249, 6478.971, 6555.397, 6530.081, 6839.683, 6458.759, 6992.872, 6490.913, 6582.883, 6494.874, 6553.152, 6521.869, 6417.838, 6542.694, 6456.054, 6500.956, 6901.838, 6671.995, 6468.176, 6578.935, 6638.4, 6536.739, 6573.065, 6507.444, 6501.169, 6593.831, 6469.753, 6612.093, 6502.431, 6621.681, 6543.917, 6523.504, 6393.986, 6543.954, 6497.851, 6581.348, 6444.768, 6689.673, 6548.382, 6427.778, 6592.011, 6508.745, 6677.211, 6418.019, 6602.921, 6485.244, 6564.952, 7161.867, 6828.973, 6481.268, 6521.071, 6546.361, 6574.319, 6551.897, 6670.132, 6564.451, 6522.416, 6596.063, 6602.487, 6847.368, 6686.371, 6499.104, 6743.952, 6600.02, 6582.336, 6460.692, 6524.029, 6490.589, 6550.926, 6466.811, 6552.422, 6468.079, 6823.434, 6502.652, 6547.446, 6599.552, 6777.081, 6643.876, 6834.534, 6516.425, 6787.468, 6544.709, 6631.247, 6494.921, 6601.897, 6512.774, 6638.001, 6563.178, 6522.509, 6463.983, 6566.348, 6553.671, 6502.972, 6485.667, 6456.075, 6486.313, 6528.448, 6771.722, 6749.485, 6532.273, 6636.261, 6711.117, 6526.61, 6582.298, 6628.072, 6594.264, 6589.416, 6589.016, 6668.825, 6831.742, 6445.683, 6480.531, 6597.024, 6825.686, 6652.769, 6534.443, 6522.016, 6533.806, 6458.92, 6570.277, 6543.506, 6449.799, 6463.868, 6417.658, 6456.471, 6596.156, 6545.444, 6792.908, 6911.244, 6496.754, 6543.22, 6652.51, 6448.896, 6465.397, 6623.242, 6587.172, 6423.226, 6472.888, 6455.829, 6548.491, 6771.718, 6523.904, 6521.534, 6529.882, 6633.191, 6485.72, 6519.269, 6762.034, 6624.231, 6630.981, 6520.488, 6563.375, 6527.61, 6858.671, 6399.457, 6490.15, 6511.013, 6540.015, 6512.788, 6464.496, 6510.596, 6899.041, 6539.382, 6498.706, 6437.497, 6556.699, 6465.282, 6557.152, 6465.733, 6513.535, 6532.936, 6754.488, 6587.216, 6531.719, 6548.269, 6509.031],
  "Optimizer iterations": 542,
  "Qubits": 8,
  "Total Algorithm duration [s]": 3627.899,
  "Total Classic duration [s]": 2557.255946468353,
  "Total Quantum duration [s]": 1070.6430535316467,
  "Expectation Value": -8.970703125,
  "Optimal Expectation Value": -9.83795166015625,
  "Optimizer params": [0.6202576492273103, 0.780308744916868, 0.7781908444646453, 0.7534944125133174, 0.7495141819870328, 0.74621958905902, 0.7524201694686045, 0.7430206311793867, 0.4351053897306637, 0.5247257836163478, 0.5044245895718462, 0.5178091709242474, 0.47393360928997075, 0.48964242295278393, 0.5109330809170438, 0.5277962967971727, 0.526568087083016, 0.558870697022283, 0.5945735527677979, 0.6016909508569251, 0.5962656795861744, 0.6019310061647326, 0.5910408432377882, 0.6264662075500547, 0.4445283089709644, 0.5319110678056227, 0.47888983283254255, 0.45616492436883327, 0.5084039260494033, 0.5191919634811575, 0.49454887936997705, 0.505106224724763],
  "QPU": "6010003",
  "Problem": "IC",
  "Size": 8,
  "P": 0,
  "Shots": 4096
}