{
  "Depth": 6.5,
  "Expectation Value": -2.2271616458892822,
  "Job durations [ms]": [0.2327499933016952, 0.035799999750452116, 0.03319999996165279, 0.11094999717897736, 0.045700000555370934, 0.033850000363599975, 0.02834999941114802, 0.028699999347736593, 0.028250000468688086, 0.029399999220913742, 0.03919999926438322, 0.04305000038584694, 1.3273499716888182, 0.02809999932651408, 0.03014999947481556, 0.08335000075021526, 0.029100000574544538, 0.0896500023372937, 0.06540000140375923, 0.522399990586564, 0.6745500140823424, 0.7043500081636012, 0.6135999919933965, 0.5464499990921468, 0.677050011290703, 0.21254999410302844, 0.036499999623629265, 0.04515000000537839, 0.03950000063923653, 0.04019999869342428, 0.0333500001943321, 0.039599999581696466, 0.03529999958118424, 0.035200000638724305, 0.03879999894706998, 0.03435000053286785, 0.03330000072310213, 0.0351999988197349, 0.0350500013155397, 0.033850001273094676, 0.04200000148557592, 0.03930000093532726, 0.039149999793153256, 0.040600001739221625, 0.0395500010199612, 0.032949999877018854, 0.03199999991920777, 0.03184999968652846, 0.031549999221169855, 0.03190000006725313, 0.03190000006725313, 0.031450001188204624, 0.0318000011247932, 0.03355000080773607, 0.037450001400429755, 0.3800000131377601, 0.034100001357728615, 0.031200001103570685, 0.0305499997921288, 0.031549999221169855, 0.031800000215298496, 0.03065000055357814, 0.03354999989824137, 0.02995000068040099, 0.04430000080901664, 0.04099999932805076, 0.041650000639492646, 0.040049999370239675, 0.039450000258511864, 0.04130000070290407, 0.031000000490166713, 0.039599999581696466, 0.036299999919719994, 0.042300000131945126, 0.045900000259280205, 0.05014999806007836, 0.06814999869675376, 0.6085500099288765, 0.03135000042675529, 0.0319499995384831, 0.048150000111490954, 0.07505000030505471, 0.04489999992074445, 0.06505000055767596, 0.061100001403247006, 0.05945000157225877, 0.2580500058684265, 0.04189999890513718, 0.06440000106522348, 0.04180000178166665, 0.28175000079500023, 0.1673500028118724, 0.07999999979801942, 0.06450000000768341, 0.46189999557100236, 0.04914999954053201, 0.09420000060345046, 0.05774999954155646, 2.028250046350877, 0.11705000360962003, 0.06899999971210491, 0.04470000021683518, 0.042749999920488335, 0.049250000301981345, 0.06190000021888409, 1.858599991464871, 0.5549499946937431, 0.03809999907389283, 0.036499999623629265, 0.04375000025902409, 0.038750000385334715, 0.08319999687955715],
  "Optimal Expectation Value": -2.2360680103302,
  "Optimizer durations [ms]": [27.034, 7.322, 9.371, 9.474, 10.8, 7.567, 7.566, 6.077, 8.571, 7.569, 13.028, 23.882, 45.858, 4.771, 7.905, 4.239, 11.871, 53.879, 55.484, 38.974, 41.509, 45.589, 50.208, 41.744, 36.427, 26.424, 45.266, 19.488, 9.525, 10.917, 8.724, 13.108, 9.268, 9.287, 9.279, 9.265, 9.114, 9.279, 9.282, 9.219, 9.447, 12.393, 8.973, 9.411, 9.079, 9.195, 8.911, 9.034, 9.26, 9.09, 8.859, 9.098, 8.831, 9.151, 6.992, 44.092, 7.372, 8.853, 8.875, 8.813, 9.047, 9.074, 19.091, 13.841, 32.045, 35.735, 29.751, 27.982, 27.905, 27.797, 17.26, 29.143, 31.605, 20.773, 32.516, 31.157, 40.826, 46.204, 14.063, 11.099, 23.893, 41.996, 41.699, 44.57, 55.353, 55.557, 15.83, 1.802, 3.109, 2.358, 7.596, 5.782, 5.282, 11.442, 38.024, 8.168, 55.49, 44.512, 65.45, 11.317, 9.852, 10.997, 11.082, 8.494, 11.457, 53.71, 27.896, 14.657, 8.12, 8.065, 8.705, 9.607],
  "Optimizer iterations": 112,
  "Optimizer params": [0.16046478716781104, 0.6751844952725624, 1.0, 0.5408033719325196, 0.8621731209380404, 0.7028637971382273, 0.33610260437215495, 0.0850621009785884],
  "P": 0,
  "Problem": "IC",
  "QPU": "7000000",
  "Qubits": 2,
  "Shots": 4096,
  "Size": 2,
  "Total Algorithm duration [s]": 2.228,
  "Total Classic duration [s]": 2.2117148499500474,
  "Total Quantum duration [s]": 0.01628515004995279
}
