{
  "Depth": 6.5,
  "Expectation Value": -2.2242825031280518,
  "Job durations [ms]": [0.05830000191053841, 0.0596999980189139, 0.10239999755867757, 0.05425000017567072, 0.04085000000486616, 0.051799999710056, 0.047050001739989966, 0.044400001570465975, 0.13870000111637637, 0.04160000025876798, 0.047199999244185165, 0.04160000025876798, 0.6444500158977462, 0.03264999941166025, 0.03474999903119169, 0.035200000638724305, 0.05189999865251593, 0.044299998990027234, 0.040099999750964344, 0.041500001316308044, 0.04199999966658652, 0.04059999992023222, 0.042150000808760524, 0.0442000000475673, 0.03150000065943459, 0.03270000070187962, 0.033149999580928124, 0.03879999985656468, 0.03764999928534962, 0.0747499998396961, 0.04015000013168901, 0.8402000185014913, 0.77704997966066, 0.07485000060114544, 0.2633499971125275, 1.0288500343449414, 0.6845500247436576, 0.05529999907594174, 0.6096000252000522, 0.24130000747391023, 0.49349998698744457, 0.04075000106240623, 0.0349000001733657, 0.05604999932984356, 0.035600000046542846, 0.0516500003868714, 0.046749999455641955, 0.04425000042829197, 1.3937999538029544, 0.03440000000409782, 0.481250002849265, 0.03339999966556206, 0.035450000723358244, 0.03380000089237001, 0.03509999987727497, 0.052400001550267916, 0.07544999971287325, 0.040299999454873614, 0.04070000068168156, 0.04955000076733995, 0.04289999924367294, 0.04034999983559828, 0.0397000003431458, 0.03974999890488107, 0.04310000076657161, 0.04129999979340937, 0.03710000055434648, 0.03990000004705507, 0.039799999285605736, 0.040949998947326094, 0.04075000106240623, 0.054799998906673864, 0.03825000021606684, 0.040249999074148946, 0.05610000152955763, 0.03929999911633786, 0.03980000110459514, 0.03285000093455892, 0.03825000021606684, 0.03285000002506422, 0.03389999983482994, 0.03324999943288276, 0.034949999644595664, 0.03329999981360743, 0.03434999962337315, 0.03330000072310213, 0.03670000023703324, 0.0412499994126847, 0.03615000059653539, 0.03564999951777281, 0.03909999941242859, 0.03915000070264796, 0.04479999915929511, 0.04580000131682027, 0.0503999999637017, 0.7422500038956059, 0.11305000225547701, 0.651950016617775, 0.9987999801523983, 0.027349999982106965, 0.23404999319609487, 0.025850000383798033, 0.32864999047887977, 0.03390000074432464, 0.5297499919834081, 0.032300000384566374, 0.031150000722846016, 0.4051000123581616, 0.031149999813351315, 0.5151000041223597, 0.03319999996165279, 0.4015500044260989, 0.03285000093455892, 0.5241999797362951, 0.03295000169600826, 0.04040000021632295, 0.47855001230345806, 0.02685000072233379, 0.02654999934748048, 0.2889499965021969, 0.06044999827281572, 0.503199994454917, 0.19655000505736098, 0.3205999992133002],
  "Optimal Expectation Value": -2.2360680103302,
  "Optimizer durations [ms]": [33.253, 36.349, 28.111, 27.048, 12.606, 32.046, 18.686, 18.945, 11.283, 8.8, 8.598, 7.926, 26.277, 13.29, 7.529, 19.741, 20.674, 8.075, 11.254, 21.874, 5.355, 12.841, 16.561, 9.321, 13.852, 16.091, 11.986, 10.37, 27.639, 9.907, 9.581, 29.868, 58.174, 26.496, 21.004, 50.608, 44.928, 49.886, 50.481, 46.425, 38.703, 19.492, 11.665, 24.814, 18.078, 30.491, 21.703, 20.105, 50.867, 13.394, 16.971, 8.526, 18.207, 7.009, 12.95, 8.544, 7.202, 3.97, 1.246, 1.395, 5.442, 1.205, 1.439, 5.93, 7.417, 1.245, 1.144, 6.87, 1.205, 1.314, 1.162, 1.601, 1.479, 15.83, 5.575, 5.245, 9.568, 1.397, 1.371, 1.243, 1.211, 1.217, 1.27, 1.234, 1.225, 13.519, 20.903, 21.437, 22.572, 21.35, 23.429, 21.531, 24.137, 23.275, 32.056, 38.927, 16.372, 37.251, 43.989, 4.994, 10.885, 5.026, 10.962, 5.144, 14.96, 4.995, 4.929, 12.405, 5.144, 14.981, 5.105, 12.427, 5.117, 14.881, 5.124, 15.106, 13.994, 4.878, 4.884, 10.23, 5.52, 14.514, 17.791, 19.997],
  "Optimizer iterations": 124,
  "Optimizer params": [0.9244862922659409, 0.4422895933795914, 0.03328963994977515, 0.047757636985260934, 0.9999938915455908, 0.5539253679157129, 0.8778226729287375, 0.08438814107847897],
  "P": 0,
  "Problem": "IC",
  "QPU": "7000000",
  "Qubits": 2,
  "Shots": 4096,
  "Size": 2,
  "Total Algorithm duration [s]": 1.917,
  "Total Classic duration [s]": 1.898148199960444,
  "Total Quantum duration [s]": 0.01885180003955611
}
