{
  "Depth": 6.5,
  "Expectation Value": -2.2315077781677246,
  "Job durations [ms]": [0.4935500182909891, 0.07434999861288816, 0.033600000278966036, 0.11934999565710314, 0.08729999899514951, 0.4367500005173497, 0.21994999951857608, 0.3040500123461243, 0.028599999495781958, 0.31489999673794955, 0.5085000175313326, 1.4318499834189424, 1.182050007628277, 0.32675000693416223, 1.6538999461772619, 0.04745000114780851, 0.4547999869828345, 4.030099953524768, 0.46815000860078726, 0.053699999625678174, 0.5876999712199904, 0.46645001384604257, 0.04315000114729628, 0.43790000199805945, 0.06215000212250743, 0.03634999939094996, 0.03564999951777281, 0.03525000101944897, 0.034749999940686394, 0.04460000036488054, 0.6349000032059848, 0.03484999979264103, 0.03595000089262612, 0.03619999915827066, 0.03389999983482994, 0.03190000006725313, 0.030849999347992707, 0.03324999943288276, 0.03325000034237746, 0.029100000574544538, 0.033599999369471334, 0.03554999966581818, 0.0336499988407013, 0.040550001358496957, 0.03369999922142597, 0.03149999974993989, 0.03370000013092067, 0.03380000089237001, 0.03470000046945643, 0.03479999941191636, 0.042949999624397606, 0.04065000030095689, 0.03429999924264848, 0.03425000068091322, 0.033650000659690704, 0.034750000850181095, 0.03485000070213573, 0.034949999644595664, 0.03265000032115495, 0.0411000000895001, 0.033999998777289875, 0.03400000059627928, 0.032250000003841706, 0.034949999644595664, 0.034050000067509245, 0.03619999915827066, 0.03204999939043773, 0.3931499923055526, 0.03279999964433955, 0.03405000097700395, 0.031150000722846016, 0.03655000000435393, 0.03374999960215064, 0.04030000127386302, 0.03454999932728242, 0.03389999892533524, 0.03625000044849003, 0.035799999750452116, 0.03554999966581818, 0.034300000152143184, 0.03460000061750179, 0.034649999179237057, 0.03599999945436139, 0.03544999890436884, 0.03739999920071568, 0.04439999975147657, 0.07044999983918387, 0.03655000000435393, 0.36624999120249413, 1.1527499518706463, 0.10445000043546315, 0.03859999924316071, 0.037799998608534224, 0.038950000089243986, 1.2682500237133354, 0.05520000013348181, 1.0458000178914517, 0.8128000190481544, 0.4675999971368583, 0.04315000114729628, 0.0395499992009718, 0.46460001067316625, 0.36430001273402013, 0.474900003609946, 0.03735000063898042, 0.03615000059653539, 0.03515000116749434, 0.035650001336762216, 0.038350000977516174, 0.03619999915827066, 0.03234999985579634, 0.3902500075128046, 0.06354999914037762, 0.14265000027080532, 0.03775000004679896, 0.04225000157020986, 0.03839999953925144, 0.9998500172514468, 0.048200001401710324, 0.036450001061894, 0.06385000051523093, 0.06229999962670263, 1.6838999508763663, 0.2602500026114285, 0.04755000009026844, 0.0502500006405171, 0.03615000059653539, 0.038550000681425445, 0.040249999074148946, 0.03384999945410527, 0.05459999829326989, 0.12620000234164763, 0.03395000021555461, 0.0319500004479778, 0.0366000003850786, 0.16259999938483816, 0.03615000059653539, 0.03805000051215757, 0.03804999869316816, 0.03330000072310213, 0.03229999947507167, 0.03204999939043773, 0.03215000015188707, 0.03079999987676274, 0.03345000004628673, 0.031799999305803794, 0.03079999896726804, 0.03149999974993989, 0.03304999972897349, 0.03159999869239982, 0.03035000008821953, 0.030800000786257442, 0.032899999496294186, 0.03580000065994682, 0.031200000194075983, 0.05355000030249357, 0.04540000009001233, 0.032949999877018854, 0.03085000025748741, 0.033400000575056765, 0.032449999707750976, 0.03125000057480065],
  "Optimal Expectation Value": -2.2360680103302,
  "Optimizer durations [ms]": [41.715, 4.985, 1.309, 3.099, 4.214, 9.409, 12.89, 6.706, 1.186, 36.608, 19.058, 37.505, 36.61, 11.266, 75.434, 43.295, 43.841, 124.125, 37.154, 28.156, 31.801, 38.826, 18.296, 45.673, 32.834, 8.025, 1.455, 1.512, 1.58, 29.773, 28.916, 7.329, 9.293, 12.836, 1.285, 1.189, 1.171, 3.138, 1.218, 1.133, 1.297, 4.882, 1.597, 1.594, 1.387, 1.41, 1.393, 8.587, 1.412, 1.407, 1.581, 1.676, 1.406, 1.427, 1.603, 2.861, 1.411, 9.208, 9.139, 1.61, 1.394, 1.45, 1.357, 5.057, 1.465, 1.436, 1.354, 11.084, 3.997, 1.227, 1.218, 1.335, 1.323, 1.365, 3.156, 1.268, 9.189, 2.474, 1.258, 1.236, 3.159, 1.291, 3.684, 1.335, 9.613, 2.588, 17.729, 23.755, 39.447, 60.002, 30.598, 15.804, 24.62, 8.331, 56.689, 28.076, 47.571, 44.319, 28.013, 16.164, 21.019, 18.788, 32.754, 31.842, 18.588, 1.329, 1.252, 1.27, 1.599, 1.345, 1.313, 8.422, 2.163, 19.203, 16.79, 11.833, 1.445, 31.47, 14.098, 23.259, 8.196, 10.08, 58.386, 27.599, 26.017, 8.378, 9.962, 10.521, 9.375, 9.694, 9.712, 11.809, 9.738, 9.255, 7.195, 21.672, 15.583, 1.12, 12.495, 1.212, 1.227, 1.145, 1.064, 1.048, 1.163, 1.136, 1.112, 1.07, 1.168, 8.486, 1.194, 1.113, 1.154, 1.393, 1.063, 1.678, 3.717, 1.145, 1.038, 10.48, 1.096, 1.075],
  "Optimizer iterations": 162,
  "Optimizer params": [0.7860181794139351, 0.799556734308486, 0.011839115534938776, 0.5557847410924943, 0.20732214911542848, 0.7517089202523849, 0.15697674429164668, 0.472404318781083],
  "P": 0,
  "Problem": "IC",
  "QPU": "7000000",
  "Qubits": 2,
  "Shots": 4096,
  "Size": 2,
  "Total Algorithm duration [s]": 2.011,
  "Total Classic duration [s]": 1.9814492500741254,
  "Total Quantum duration [s]": 0.029550749925874698
}
