{
  "Depth": 6.5,
  "Expectation Value": -2.222715139389038,
  "Job durations [ms]": [0.03420000030018855, 0.03469999865046702, 0.032949999877018854, 0.029150000045774505, 0.030950001018936746, 0.03874999856634531, 0.035150000257999636, 0.027299999601382297, 0.033600000278966036, 0.033999998777289875, 0.03130000095552532, 0.034750000850181095, 0.03425000068091322, 0.029600000743812416, 0.028699999347736593, 0.03274999926361488, 0.03215000015188707, 0.043849999201484025, 0.037599998904624954, 0.03310000101919286, 0.035850000131176785, 0.03330000072310213, 0.030750000405532774, 0.030000000151630957, 0.18869999621529132, 0.026949999664793722, 0.3504499909467995, 0.17080000179703347, 0.49014999967766926, 0.028450000172597356, 0.5757999897468835, 0.061100001403247006, 0.026599999728205148, 0.026000000616477337, 0.02685000072233379, 0.02700000004551839, 0.027200000658922363, 0.02564999977039406, 0.02390000008745119, 0.031599999601894524, 0.02655000025697518, 0.026300000172341242, 0.02550000044720946, 0.028399999791872688, 0.02415000017208513, 0.025999999706982635, 0.025950000235752668, 0.03015000038431026, 0.02570000015111873, 0.02525000036257552, 0.025750000531843398, 0.02719999974942766, 0.02970000059576705, 0.026300000172341242, 0.026599999728205148, 0.025249999453080818, 0.02609999955893727, 0.04914999954053201, 0.08990000242192764, 0.026400000024295878, 0.02764999953797087, 0.026100000468431972, 0.12400000196066685, 0.026750000870379154, 0.04179999996267725, 0.03155000104015926, 0.09180000051856041, 0.24919999850681052, 0.043650000407069456, 0.02764999953797087, 0.036949999412172474, 0.07170000026235357, 0.15845000416447874, 0.027950000003329478, 0.027049999516748358, 0.044299998990027234, 0.22050000552553684, 0.20134999795118347, 0.043149999328306876, 0.27585000862018205, 0.06610000127693638, 0.03280000055383425, 0.12469999819586519, 0.0336499988407013, 0.03625000044849003, 0.03310000010969816, 0.03280000055383425, 0.05464999958348926, 0.151400006870972, 0.032449999707750976, 0.1317000032940996, 0.03234999985579634, 0.0319500004479778, 0.030100000913080294, 0.03234999894630164, 0.07569999797851779, 0.03164999998261919, 0.030449999030679464, 0.033099999200203456, 0.05435000093712006, 0.03640000068116933, 0.03730000025825575, 0.0960000024861074, 0.0289999998130952, 0.06089999988034833, 0.08745000013732351, 0.5791000148747116, 0.04824999996344559, 0.03235000076529104, 0.03149999974993989, 0.03060000017285347, 0.03439999909460312, 0.04620000072463881],
  "Optimal Expectation Value": -2.2360680103302,
  "Optimizer durations [ms]": [17.392, 20.026, 17.188, 17.035, 21.16, 28.992, 19.06, 53.897, 21.266, 17.768, 17.613, 17.474, 17.632, 17.927, 17.588, 17.845, 17.8, 17.768, 22.094, 17.854, 17.182, 17.689, 17.536, 17.834, 22.712, 9.3, 16.296, 20.773, 43.45, 31.243, 67.005, 38.724, 6.012, 1.219, 3.136, 1.45, 1.685, 1.422, 3.606, 1.552, 1.436, 1.328, 1.215, 7.276, 1.505, 1.214, 1.264, 1.305, 1.257, 1.292, 1.258, 3.527, 1.343, 1.5, 1.388, 1.295, 1.417, 1.751, 3.131, 1.323, 3.246, 1.216, 3.421, 1.192, 1.603, 1.331, 2.796, 5.918, 1.731, 1.496, 1.731, 2.428, 15.542, 1.301, 1.13, 1.949, 16.46, 12.729, 19.78, 28.957, 6.049, 1.263, 3.156, 1.292, 1.303, 1.265, 1.261, 1.712, 4.842, 1.223, 3.243, 1.208, 1.18, 1.207, 1.204, 2.082, 1.038, 1.011, 1.078, 1.512, 1.187, 1.145, 2.352, 1.365, 1.625, 2.172, 12.414, 1.405, 1.065, 1.172, 1.502, 1.092, 1.338],
  "Optimizer iterations": 113,
  "Optimizer params": [0.9253974061082223, 0.06094420958052131, 0.9981482544168645, 0.9572638007520888, 1.0, 0.9356393326185426, 0.3488392089521079, 0.1492996935079242],
  "P": 0,
  "Problem": "IC",
  "QPU": "7000000",
  "Qubits": 2,
  "Shots": 4096,
  "Size": 2,
  "Total Algorithm duration [s]": 0.986,
  "Total Classic duration [s]": 0.9784493499738673,
  "Total Quantum duration [s]": 0.007550650026132644
}
