{
  "Depth": 6.5,
  "Expectation Value": -1.9997683763504028,
  "Job durations [ms]": [0.15390000498882728, 0.5666500073857605, 0.34839998988900334, 0.3892500044457847, 0.3749999996216502, 0.02550000044720946, 0.24979999943752773, 0.1524500039522536, 0.5054500070400536, 0.26574999719741754, 0.1400500041199848, 0.1155500021923217, 0.9064999903785065, 0.3130000113742426, 0.30499999411404133, 0.2516999957151711, 0.8177499948942568, 0.7048499828670174, 0.0304000004689442, 0.09054999827640131, 0.0835999999253545, 0.07734999871900072, 0.05674999920302071, 0.3512999992381083, 0.029949999770906288, 0.4920999990645214, 0.027549999686016236, 0.560500013307319, 0.3336500094519579, 0.07324999751290306, 0.030100000003585592, 0.2682999984244816, 0.09899999804474646, 0.22494999211630784, 0.16525000319234096, 0.33039999016182264, 0.49539999963599257, 0.10919999658653978, 0.05889999920327682, 0.03079999987676274, 0.22120000357972458, 0.03035000008821953, 0.027099999897473026, 0.02635000055306591, 0.3442499892116757, 0.14659999578725547, 0.05129999954078812, 0.03690000085043721, 0.035000000934815034, 0.036450001061894, 0.40565000199421775, 0.047649999032728374, 0.03715000093507115, 0.039000000469968654, 0.04024999998364365, 0.042300000131945126, 0.039849999666330405, 0.026599999728205148, 0.026100000468431972, 0.036750000617757905, 0.5648000151268207, 0.04135000017413404, 0.4703500017058104, 0.23490000239689834, 0.2831499896274181, 0.0944500006880844, 0.09174999831884634, 0.0351999988197349, 0.2999499993165955, 0.03440000000409782, 0.05145000068296213, 0.08800000068731606, 0.6770500185666606, 0.05340000097930897, 0.0669999990350334, 0.48234999121632427, 2.85360001726076, 0.6860499852336943, 0.06964999920455739, 0.25815000662987586, 0.20259999291738495, 0.39709999691694975, 0.07829999958630651, 0.1844000034907367, 0.04355000055511482, 0.23564999719383195, 0.6317499719443731, 0.7576500283903442, 0.13199999739299528, 0.06765000034647528, 0.7784499757690355, 0.08860000161803328, 0.08560000060242601, 0.08920000254875049, 0.09565000073052943, 0.09869999848888256, 0.609750011790311, 0.047649999032728374, 0.05385000076785218, 0.24840000514814164, 0.03995000042777974, 0.9037000218086177, 0.7521499937865883, 0.44565000280272216, 0.6160499760881066, 0.28900000324938446, 0.2994499991473276],
  "Optimal Expectation Value": -2.2360680103302,
  "Optimizer durations [ms]": [7.749, 19.966, 15.878, 16.619, 12.009, 4.919, 9.359, 7.576, 21.763, 9.782, 12.329, 11.076, 24.635, 14.667, 14.543, 13.489, 22.862, 20.926, 7.194, 8.192, 8.33, 7.99, 17.624, 23.237, 16.674, 22.319, 5.17, 31.46, 23.897, 17.082, 17.155, 26.219, 17.88, 25.318, 23.672, 16.291, 18.704, 10.762, 18.453, 22.154, 21.167, 17.136, 17.045, 17.579, 24.074, 31.729, 23.885, 22.555, 22.585, 22.826, 30.802, 31.617, 23.908, 38.017, 23.879, 23.906, 22.385, 12.69, 7.156, 17.887, 29.943, 30.334, 30.502, 17.387, 14.689, 11.729, 9.516, 8.356, 13.705, 10.572, 23.988, 15.58, 22.49, 29.791, 24.577, 40.465, 91.515, 48.326, 48.529, 13.65, 57.796, 63.995, 35.003, 64.248, 8.708, 11.57, 24.237, 40.66, 19.503, 21.365, 61.451, 41.877, 44.221, 41.795, 36.954, 36.854, 49.451, 33.159, 23.797, 17.429, 12.928, 54.78, 71.807, 37.365, 36.144, 30.439, 29.122],
  "Optimizer iterations": 107,
  "Optimizer params": [0.9999999999999999, 0.032475703343921934, 0.9858528161382799, 0.36133021096213375, 0.9634918611463791, 0.9935380956487273, 0.515330199149347, 0.6409313576964322],
  "P": 0,
  "Problem": "IC",
  "QPU": "7000000",
  "Qubits": 2,
  "Shots": 4096,
  "Size": 2,
  "Total Algorithm duration [s]": 2.641,
  "Total Classic duration [s]": 2.6129879500153184,
  "Total Quantum duration [s]": 0.028012049984681653
}
