{
  "Depth": 6.5,
  "Expectation Value": -2.2361416816711426,
  "Job durations [ms]": [0.30640000113635324, 0.04844999966735486, 0.033400000575056765, 0.5674499843735248, 0.04140000055485871, 0.05109999983687885, 0.04380000063974876, 0.3553500046109548, 0.2155499951186357, 0.21655000637110788, 0.04239999998389976, 0.4082500072399853, 0.5330999829311622, 0.6115499963925686, 0.038750000385334715, 0.036299999919719994, 0.44424999214243144, 0.035599999137048144, 0.028499999643827323, 0.03925000055460259, 0.04104999970877543, 0.03879999985656468, 0.0349000001733657, 0.031600000511389226, 0.03724999987753108, 0.24299999859067611, 0.1431500022590626, 0.033850000363599975, 0.029099998755555134, 0.6822499717600294, 0.03625000044849003, 0.039149999793153256, 0.028949999432370532, 0.03395000021555461, 0.02949999998236308, 0.028299999939918052, 0.041000000237545464, 0.04814999920199625, 0.03795000066020293, 0.03699999979289714, 0.03569999898900278, 0.03174999983457383, 0.029099999665049836, 0.029999999242136255, 0.029599999834317714, 0.03479999941191636, 0.030700000024808105, 0.030649999644083437, 0.04020000051241368, 0.040500000068277586, 0.042100000428035855, 0.042800000301213004, 0.04214999898977112, 0.09745000170369167, 0.03889999970851932, 0.3062000123463804, 0.08290000005217735, 0.2201999959652312, 0.06344999928842299, 0.0855999969644472, 0.09240000326826703, 0.04760000047099311, 0.2860999957192689, 0.1953999999386724, 0.037849999898753595, 0.17585000023245811, 0.10879999899771065, 0.8123499865178019, 0.22479999552160734, 0.19404999420657987, 1.0204499994870275, 0.39349998587567825, 0.6586500094272196, 0.3463500033831224, 0.21749999723397195, 0.04425000042829197, 0.030750000405532774, 0.029099999665049836, 0.04995000017515849, 0.030100000913080294, 0.12900000365334563, 0.3120499968645163, 0.04890000036539277, 0.148899998748675, 0.03834999915852677, 0.3747999926417833, 0.05985000098007731, 0.037150000025576446, 0.5230500100878999, 0.2604000128485495, 0.5490499897859991, 0.02944999960163841, 0.3397499949642224, 1.5538000352535164, 0.8104000007733703, 0.2296999991813209, 0.04330000047048088, 0.04290000106266234, 0.7810000242898241, 0.640350001049228, 0.6448499916587025, 0.03269999888289021, 1.473850046750158, 0.04059999992023222, 0.5064500091975788, 0.03640000068116933, 0.03925000055460259, 0.036299999919719994, 0.04924999939248664, 0.03600000036385609, 0.037650001104339026, 0.03484999979264103, 0.034949999644595664, 0.042749999920488335],
  "Optimal Expectation Value": -2.2360680103302,
  "Optimizer durations [ms]": [38.817, 32.397, 8.615, 47.19, 22.343, 37.751, 26.884, 33.565, 27.92, 55.491, 47.223, 25.174, 27.499, 36.47, 31.995, 29.551, 26.14, 25.648, 18.212, 21.244, 27.658, 21.634, 22.233, 21.257, 21.088, 25.285, 23.185, 21.027, 9.002, 44.038, 31.704, 23.526, 15.575, 20.567, 11.801, 9.265, 23.384, 33.571, 29.159, 20.661, 17.155, 18.908, 6.439, 13.687, 8.384, 13.763, 13.98, 11.257, 26.333, 18.081, 23.443, 22.123, 25.03, 23.625, 17.237, 40.439, 22.841, 45.408, 29.607, 25.289, 24.127, 32.35, 35.731, 33.848, 30.564, 30.794, 18.572, 31.453, 16.879, 19.717, 30.296, 22.417, 35.183, 36.69, 26.08, 18.376, 10.012, 7.314, 5.561, 18.887, 18.196, 25.756, 13.969, 11.563, 24.376, 23.361, 14.644, 26.631, 32.715, 28.107, 23.853, 12.814, 13.732, 41.919, 39.117, 24.605, 28.755, 21.486, 49.867, 19.593, 24.232, 7.495, 36.573, 32.008, 17.121, 1.445, 1.11, 1.014, 1.313, 1.045, 1.036, 1.02, 0.967, 1.181],
  "Optimizer iterations": 114,
  "Optimizer params": [0.07324704763629895, 0.5014437476134236, 0.19201686496635978, 0.13678065693020253, 0.9999190782483743, 0.5015086985219378, 0.47893721207186885, 0.8325512630456351],
  "P": 0,
  "Problem": "IC",
  "QPU": "7000000",
  "Qubits": 2,
  "Shots": 4096,
  "Size": 2,
  "Total Algorithm duration [s]": 2.606,
  "Total Classic duration [s]": 2.583878899972893,
  "Total Quantum duration [s]": 0.022121100027106877
}
