{
  "Circuit execution durations [ms]": [56.444644927978516, 55.76372146606445, 212.2044563293457, 55.24885654449463, 55.48059940338135, 56.57517910003662, 51.98872089385986, 51.824331283569336, 51.92422866821289, 55.61649799346924, 55.27079105377197, 55.002450942993164, 56.16629123687744, 55.960893630981445, 55.629611015319824, 205.78515529632568, 55.62770366668701, 61.15615367889404, 55.68253993988037, 55.120110511779785, 55.70411682128906, 52.382469177246094, 51.98037624359131, 209.41627025604248, 55.23860454559326, 55.26089668273926, 213.85037899017334, 51.785826683044434, 55.001139640808105, 55.0004243850708, 55.32801151275635, 59.900641441345215, 55.15408515930176, 55.13274669647217, 54.92091178894043, 55.19533157348633, 55.16552925109863, 51.73981189727783, 52.04486846923828, 55.082082748413086, 55.05025386810303, 54.791808128356934, 54.88443374633789, 55.88245391845703, 54.81362342834473, 55.14359474182129, 54.91209030151367, 54.669976234436035, 208.3582878112793, 55.09209632873535, 55.25791645050049, 55.177927017211914, 55.75716495513916, 55.43553829193115, 56.71703815460205, 212.807297706604, 58.56204032897949, 57.88981914520264, 55.79054355621338],
  "Depth": 2.0,
  "Expectation Value": -0.6075600385665894,
  "Optimal Expectation Value": -2.2741000652313232,
  "Optimizer durations [ms]": [1617.131, 1551.987, 1887.534, 1560.534, 1579.381, 1598.52, 1539.616, 1586.509, 1559.66, 1576.067, 1542.158, 1571.606, 1582.623, 1587.093, 1590.933, 1875.891, 1580.856, 1571.842, 1573.278, 1572.437, 1598.563, 1559.985, 1529.088, 1880.649, 1572.346, 1570.821, 1917.462, 1538.549, 1591.569, 1565.465, 1571.587, 1565.182, 1558.523, 1593.861, 1562.16, 1540.868, 1564.122, 1554.49, 1553.563, 1558.589, 1572.16, 1564.728, 1567.661, 1567.292, 1534.404, 1569.959, 1586.123, 1538.471, 1874.362, 1563.855, 1563.34, 1551.206, 1618.146, 1596.73, 1587.889, 1943.407, 1653.698, 1644.465, 1596.414],
  "Optimizer iterations": 59,
  "Optimizer params": [0.0014634072504496089, 0.9769029799962552, 1.0, 0.5044683373145729],
  "P": 0,
  "Problem": "RH",
  "QJob durations [ms]": [782.5729846954346, 762.0530128479004, 929.669976234436, 766.3825750350952, 775.5553722381592, 785.628080368042, 756.091833114624, 766.8064832687378, 765.7901048660278, 774.2345333099365, 757.3848962783813, 771.9154357910156, 777.5784730911255, 765.4588222503662, 781.5924882888794, 924.1155385971069, 776.4880657196045, 771.652102470398, 772.8245258331299, 772.048830986023, 772.696852684021, 766.2084102630615, 750.7883310317993, 926.4918565750122, 772.320032119751, 771.8135118484497, 932.7777624130249, 755.445122718811, 782.0897102355957, 768.8406705856323, 771.924614906311, 768.8614130020142, 765.3795480728149, 770.8959579467773, 767.1171426773071, 756.6993236541748, 768.2008743286133, 763.5155916213989, 763.0212306976318, 753.5154819488525, 772.0547914505005, 768.5236930847168, 769.9998617172241, 769.8502540588379, 753.1359195709229, 770.9686756134033, 767.2796249389648, 755.3822994232178, 923.3890771865845, 768.1264877319336, 767.7698135375977, 761.745810508728, 782.8209400177002, 784.116268157959, 779.8751592636108, 957.5899839401245, 812.2845888137817, 808.3457946777344, 784.5364809036255],
  "QPU": "6010013",
  "Qubits": 4,
  "Queue durations [ms]": [0.0, 0.0, 0.0, 0.0, 0.0, 0.0, 0.0, 0.0, 0.0, 0.0, 0.0, 0.0, 0.0, 0.0, 0.0, 0.0, 0.0, 0.0, 0.0, 0.0, 0.0, 0.0, 0.0, 0.0, 0.0, 0.0, 0.0, 0.0, 0.0, 0.0, 0.0, 0.0, 0.0, 0.0, 0.0, 0.0, 0.0, 0.0, 0.0, 0.0, 0.0, 0.0, 0.0, 0.0, 0.0, 0.0, 0.0, 0.0, 0.0, 0.0, 0.0, 0.0, 0.0, 0.0, 0.0, 0.0, 0.0, 0.0, 0.0],
  "Shots": 4096,
  "Size": 4,
  "Total Algorithm duration [s]": 94.747,
  "Total Classic duration [s]": 48.30475690078735,
  "Total Quantum duration [s]": 46.44224309921265
}
