{
  "Circuit execution durations [ms]": [0.07634999928995967, 0.07465000089723617, 0.07420000110869296, 0.07425000148941763, 0.07380000170087442, 0.07465000089723617, 0.07824999920558184, 0.07299999924725853, 0.07759999789413996, 0.0744499993743375, 0.07394999920506962, 0.07230000119307078, 0.07069999992381781, 0.07370000093942508, 0.07550000009359792, 0.07479999840143137, 0.07410000034724362, 0.07375000132014975, 0.07384999844362028, 0.07329999789362773, 0.07379999806289561, 0.07505000030505471, 0.07370000093942508, 0.07985000047483481, 0.08284999785246328, 0.07944999742903747, 0.07510000068577938, 0.08394999895244837, 0.0716499998816289, 0.07059999916236848, 0.06985000072745606, 0.07014999937382527, 0.06935000055818819, 0.0698000003467314, 0.07020000339252874, 0.07620000178576447, 0.07650000043213367, 0.07449999975506216, 0.07455000013578683, 0.07455000013578683, 0.07409999670926481],
  "Depth": 2.0,
  "Expectation Value": -1.4067308902740479,
  "Optimal Expectation Value": -1.4114999771118164,
  "Optimizer durations [ms]": [2.461, 2.482, 2.363, 2.374, 2.417, 2.59, 2.519, 2.372, 2.436, 2.345, 2.376, 2.301, 2.318, 2.337, 2.434, 2.364, 2.36, 2.347, 2.344, 2.357, 2.388, 2.453, 2.345, 2.491, 2.618, 2.582, 2.438, 2.613, 2.344, 2.268, 2.257, 2.329, 2.286, 2.302, 2.31, 2.644, 2.582, 2.504, 2.482, 2.612, 2.638],
  "Optimizer iterations": 41,
  "Optimizer params": [0.02091453463539786, 0.49967271589139833],
  "P": 0,
  "Problem": "RH",
  "QJob durations [ms]": [0.07634999928995967, 0.07465000089723617, 0.07420000110869296, 0.07425000148941763, 0.07380000170087442, 0.07465000089723617, 0.07824999920558184, 0.07299999924725853, 0.07759999789413996, 0.0744499993743375, 0.07394999920506962, 0.07230000119307078, 0.07069999992381781, 0.07370000093942508, 0.07550000009359792, 0.07479999840143137, 0.07410000034724362, 0.07375000132014975, 0.07384999844362028, 0.07329999789362773, 0.07379999806289561, 0.07505000030505471, 0.07370000093942508, 0.07985000047483481, 0.08284999785246328, 0.07944999742903747, 0.07510000068577938, 0.08394999895244837, 0.0716499998816289, 0.07059999916236848, 0.06985000072745606, 0.07014999937382527, 0.06935000055818819, 0.0698000003467314, 0.07020000339252874, 0.07620000178576447, 0.07650000043213367, 0.07449999975506216, 0.07455000013578683, 0.07455000013578683, 0.07409999670926481],
  "QPU": "7000000",
  "Qubits": 2,
  "Queue durations [ms]": [0.0, 0.0, 0.0, 0.0, 0.0, 0.0, 0.0, 0.0, 0.0, 0.0, 0.0, 0.0, 0.0, 0.0, 0.0, 0.0, 0.0, 0.0, 0.0, 0.0, 0.0, 0.0, 0.0, 0.0, 0.0, 0.0, 0.0, 0.0, 0.0, 0.0, 0.0, 0.0, 0.0, 0.0, 0.0, 0.0, 0.0, 0.0, 0.0, 0.0, 0.0],
  "Shots": 4096,
  "Size": 2,
  "Total Algorithm duration [s]": 0.099,
  "Total Classic duration [s]": 0.09594710000403575,
  "Total Quantum duration [s]": 0.0030528999959642533
}
