{
  "Circuit execution durations [ms]": [0.07639999967068434, 0.07544999971287325, 0.09675000183051452, 0.07300000288523734, 0.07249999907799065, 0.07209999967017211, 0.08214999979827553, 0.0748999991628807, 0.07530000220867805, 0.07330000153160654, 0.07934999666758813, 0.07315000038943253, 0.07360000017797574, 0.0718000010238029, 0.07254999945871532, 0.073050003265962, 0.07230000119307078, 0.07490000280085951, 0.07465000089723617, 0.07189999814727344, 0.07109999933163635, 0.07225000081234612, 0.07325000115088187, 0.07389999882434495],
  "Depth": 2.0,
  "Expectation Value": -1.4114999771118164,
  "Optimal Expectation Value": -1.4114999771118164,
  "Optimizer durations [ms]": [2.394, 2.771, 2.775, 2.28, 2.293, 2.545, 2.653, 2.399, 2.376, 2.359, 2.545, 2.309, 2.318, 2.325, 2.356, 2.48, 2.308, 2.372, 2.371, 2.307, 2.315, 2.339, 2.687, 2.526],
  "Optimizer iterations": 24,
  "Optimizer params": [1.0, 0.5025629946032576],
  "P": 0,
  "Problem": "RH",
  "QJob durations [ms]": [0.07639999967068434, 0.07544999971287325, 0.09675000183051452, 0.07300000288523734, 0.07249999907799065, 0.07209999967017211, 0.08214999979827553, 0.0748999991628807, 0.07530000220867805, 0.07330000153160654, 0.07934999666758813, 0.07315000038943253, 0.07360000017797574, 0.0718000010238029, 0.07254999945871532, 0.073050003265962, 0.07230000119307078, 0.07490000280085951, 0.07465000089723617, 0.07189999814727344, 0.07109999933163635, 0.07225000081234612, 0.07325000115088187, 0.07389999882434495],
  "QPU": "7000000",
  "Qubits": 2,
  "Queue durations [ms]": [0.0, 0.0, 0.0, 0.0, 0.0, 0.0, 0.0, 0.0, 0.0, 0.0, 0.0, 0.0, 0.0, 0.0, 0.0, 0.0, 0.0, 0.0, 0.0, 0.0, 0.0, 0.0, 0.0, 0.0],
  "Shots": 4096,
  "Size": 2,
  "Total Algorithm duration [s]": 0.058,
  "Total Classic duration [s]": 0.056200399990309964,
  "Total Quantum duration [s]": 0.0017996000096900389
}
