{
  "Circuit execution durations [ms]": [0.07515000106650405, 0.07439999899361283, 0.08734999937587418, 0.0730499996279832, 0.07270000060088933, 0.07679999907850288, 0.07634999928995967, 0.07420000110869296, 0.09359999967273325, 0.07325000115088187, 0.07254999945871532, 0.07294999886653386, 0.07220000043162145, 0.07189999814727344, 0.0719499985279981, 0.08394999895244837, 0.07250000271596946, 0.0719499985279981, 0.0716499998816289, 0.07110000296961516, 0.07240000195452012],
  "Depth": 2.0,
  "Expectation Value": -1.4072918891906738,
  "Optimal Expectation Value": -1.4114999771118164,
  "Optimizer durations [ms]": [2.522, 2.902, 2.814, 2.41, 2.355, 2.46, 2.41, 2.364, 2.813, 2.456, 2.37, 2.373, 2.36, 2.404, 2.341, 2.691, 2.404, 2.387, 2.36, 2.316, 2.383],
  "Optimizer iterations": 21,
  "Optimizer params": [0.019843810026574225, 0.49916011615984685],
  "P": 0,
  "Problem": "RH",
  "QJob durations [ms]": [0.07515000106650405, 0.07439999899361283, 0.08734999937587418, 0.0730499996279832, 0.07270000060088933, 0.07679999907850288, 0.07634999928995967, 0.07420000110869296, 0.09359999967273325, 0.07325000115088187, 0.07254999945871532, 0.07294999886653386, 0.07220000043162145, 0.07189999814727344, 0.0719499985279981, 0.08394999895244837, 0.07250000271596946, 0.0719499985279981, 0.0716499998816289, 0.07110000296961516, 0.07240000195452012],
  "QPU": "7000000",
  "Qubits": 2,
  "Queue durations [ms]": [0.0, 0.0, 0.0, 0.0, 0.0, 0.0, 0.0, 0.0, 0.0, 0.0, 0.0, 0.0, 0.0, 0.0, 0.0, 0.0, 0.0, 0.0, 0.0, 0.0, 0.0],
  "Shots": 4096,
  "Size": 2,
  "Total Algorithm duration [s]": 0.051,
  "Total Classic duration [s]": 0.04941804999960004,
  "Total Quantum duration [s]": 0.0015819500003999565
}
