{
  "Circuit execution durations [ms]": [0.1823499951569829, 0.07499999992433004, 0.07955000182846561, 0.07555000047432259, 0.06634999954258092, 0.07479999840143137, 0.07394999920506962, 0.07235000157379545, 0.07280000136233866, 0.07525000182795338, 0.07484999878215604, 0.07484999878215604, 0.07520000144722871, 0.07199999890872277, 0.07159999950090423, 0.07199999890872277, 0.07199999890872277, 0.07310000000870787, 0.07209999967017211, 0.07199999890872277, 0.0657500004308531, 0.06749999920430128, 0.06909999865456484, 0.0654499999654945, 0.07750000077066943, 0.07485000242013484, 0.07985000047483481, 0.07370000093942508, 0.07225000081234612, 0.07374999768217094, 0.07760000153211877, 0.0744499993743375, 0.07470000127796084],
  "Depth": 2.0,
  "Expectation Value": -1.4114999771118164,
  "Optimal Expectation Value": -1.4114999771118164,
  "Optimizer durations [ms]": [6.123, 2.715, 2.624, 2.658, 2.361, 2.403, 2.37, 2.343, 2.347, 2.364, 2.388, 2.451, 2.469, 2.461, 2.398, 2.41, 2.398, 2.411, 2.432, 2.405, 2.227, 2.403, 2.417, 2.228, 2.553, 2.405, 2.61, 2.491, 2.431, 2.433, 2.43, 2.365, 2.373],
  "Optimizer iterations": 33,
  "Optimizer params": [0.0, 0.5026863109096759],
  "P": 0,
  "Problem": "RH",
  "QJob durations [ms]": [0.1823499951569829, 0.07499999992433004, 0.07955000182846561, 0.07555000047432259, 0.06634999954258092, 0.07479999840143137, 0.07394999920506962, 0.07235000157379545, 0.07280000136233866, 0.07525000182795338, 0.07484999878215604, 0.07484999878215604, 0.07520000144722871, 0.07199999890872277, 0.07159999950090423, 0.07199999890872277, 0.07199999890872277, 0.07310000000870787, 0.07209999967017211, 0.07199999890872277, 0.0657500004308531, 0.06749999920430128, 0.06909999865456484, 0.0654499999654945, 0.07750000077066943, 0.07485000242013484, 0.07985000047483481, 0.07370000093942508, 0.07225000081234612, 0.07374999768217094, 0.07760000153211877, 0.0744499993743375, 0.07470000127796084],
  "QPU": "7000000",
  "Qubits": 2,
  "Queue durations [ms]": [0.0, 0.0, 0.0, 0.0, 0.0, 0.0, 0.0, 0.0, 0.0, 0.0, 0.0, 0.0, 0.0, 0.0, 0.0, 0.0, 0.0, 0.0, 0.0, 0.0, 0.0, 0.0, 0.0, 0.0, 0.0, 0.0, 0.0, 0.0, 0.0, 0.0, 0.0, 0.0, 0.0],
  "Shots": 4096,
  "Size": 2,
  "Total Algorithm duration [s]": 0.083,
  "Total Classic duration [s]": 0.0804759000033373,
  "Total Quantum duration [s]": 0.0025240999966626987
}
