{
  "Circuit execution durations [ms]": [0.07550000009359792, 0.07494999954360537, 0.07689999983995222, 0.07269999696291052, 0.12569999671541154, 0.07294999886653386, 0.07339999865507707, 0.07374999768217094, 0.07389999882434495, 0.07130000085453503, 0.28080000629415736, 0.06734999988111667, 0.07870000263210386, 0.07564999759779312, 0.07639999967068434, 0.0731999971321784, 0.07230000119307078, 0.1174000008177245, 0.07145000199670903, 0.07054999878164381, 0.06409999878087547, 0.06385000051523093, 0.06319999920378905, 0.07250000271596946, 0.2228499943157658, 0.07354999979725108, 0.07284999810508452, 0.06399999983841553, 0.06334999852697365],
  "Depth": 2.0,
  "Expectation Value": -1.4114999771118164,
  "Optimal Expectation Value": -1.4114999771118164,
  "Optimizer durations [ms]": [2.61, 2.506, 2.9, 2.46, 3.634, 2.375, 2.364, 2.38, 2.352, 2.311, 6.148, 9.924, 4.121, 2.5, 2.555, 2.355, 2.329, 3.234, 2.319, 2.283, 2.144, 2.186, 2.281, 2.359, 5.105, 2.691, 2.286, 2.229, 2.208],
  "Optimizer iterations": 29,
  "Optimizer params": [0.0, 0.5013515141343089],
  "P": 0,
  "Problem": "RH",
  "QJob durations [ms]": [0.07550000009359792, 0.07494999954360537, 0.07689999983995222, 0.07269999696291052, 0.12569999671541154, 0.07294999886653386, 0.07339999865507707, 0.07374999768217094, 0.07389999882434495, 0.07130000085453503, 0.28080000629415736, 0.06734999988111667, 0.07870000263210386, 0.07564999759779312, 0.07639999967068434, 0.0731999971321784, 0.07230000119307078, 0.1174000008177245, 0.07145000199670903, 0.07054999878164381, 0.06409999878087547, 0.06385000051523093, 0.06319999920378905, 0.07250000271596946, 0.2228499943157658, 0.07354999979725108, 0.07284999810508452, 0.06399999983841553, 0.06334999852697365],
  "QPU": "7000000",
  "Qubits": 2,
  "Queue durations [ms]": [0.0, 0.0, 0.0, 0.0, 0.0, 0.0, 0.0, 0.0, 0.0, 0.0, 0.0, 0.0, 0.0, 0.0, 0.0, 0.0, 0.0, 0.0, 0.0, 0.0, 0.0, 0.0, 0.0, 0.0, 0.0, 0.0, 0.0, 0.0, 0.0],
  "Shots": 4096,
  "Size": 2,
  "Total Algorithm duration [s]": 0.087,
  "Total Classic duration [s]": 0.08446490001416532,
  "Total Quantum duration [s]": 0.0025350999858346768
}
