{
  "Circuit execution durations [ms]": [0.0789500008977484, 0.07499999992433004, 0.07265000022016466, 0.07265000022016466, 0.07210000330815092, 0.07225000081234612, 0.07529999857069924, 0.07189999814727344, 0.07719999848632142, 0.072750000981614, 0.07174999700509943, 0.0714999987394549, 0.07130000085453503, 0.0716499998816289, 0.07139999797800556, 0.07404999996651895, 0.07234999793581665, 0.06974999996600673, 0.07300000288523734, 0.07610000102431513, 0.07900000127847306, 0.07914999878266826, 0.07854999785195105, 0.07280000136233866, 0.07255000309669413, 0.0733499982743524, 0.07800000093993731, 0.07394999920506962],
  "Depth": 2.0,
  "Expectation Value": -1.4114999771118164,
  "Optimal Expectation Value": -1.4114999771118164,
  "Optimizer durations [ms]": [2.712, 2.828, 2.554, 2.482, 2.503, 2.384, 2.56, 2.374, 2.527, 2.421, 2.371, 2.43, 2.384, 2.437, 2.369, 2.529, 2.396, 2.366, 2.395, 2.545, 2.528, 2.782, 2.678, 2.375, 2.362, 2.376, 2.48, 2.52],
  "Optimizer iterations": 28,
  "Optimizer params": [0.9958771242189306, 0.5000009141374886],
  "P": 0,
  "Problem": "RH",
  "QJob durations [ms]": [0.0789500008977484, 0.07499999992433004, 0.07265000022016466, 0.07265000022016466, 0.07210000330815092, 0.07225000081234612, 0.07529999857069924, 0.07189999814727344, 0.07719999848632142, 0.072750000981614, 0.07174999700509943, 0.0714999987394549, 0.07130000085453503, 0.0716499998816289, 0.07139999797800556, 0.07404999996651895, 0.07234999793581665, 0.06974999996600673, 0.07300000288523734, 0.07610000102431513, 0.07900000127847306, 0.07914999878266826, 0.07854999785195105, 0.07280000136233866, 0.07255000309669413, 0.0733499982743524, 0.07800000093993731, 0.07394999920506962],
  "QPU": "7000000",
  "Qubits": 2,
  "Queue durations [ms]": [0.0, 0.0, 0.0, 0.0, 0.0, 0.0, 0.0, 0.0, 0.0, 0.0, 0.0, 0.0, 0.0, 0.0, 0.0, 0.0, 0.0, 0.0, 0.0, 0.0, 0.0, 0.0, 0.0, 0.0, 0.0, 0.0, 0.0, 0.0],
  "Shots": 4096,
  "Size": 2,
  "Total Algorithm duration [s]": 0.069,
  "Total Classic duration [s]": 0.06692905000140309,
  "Total Quantum duration [s]": 0.002070949998596916
}
