{
  "Circuit execution durations [ms]": [0.2104499981214758, 0.0957000011112541, 0.10620000102790073, 0.07490000280085951, 0.07599999662488699, 0.07949999780976214, 0.07800000093993731, 0.09804999717744067, 0.07339999865507707, 0.07329999789362773, 0.07340000229305588, 0.07239999831654131, 0.07095000182744116, 0.07505000030505471, 0.07190000178525224, 0.07175000064307824, 0.07340000229305588, 0.07259999983943999, 0.07280000136233866, 0.07399999958579428, 0.07425000148941763, 0.0733499982743524, 0.0746000005165115, 0.0792499995441176, 0.07829999958630651, 0.07815000208211131, 0.07429999823216349, 0.07349999941652641, 0.07375000132014975, 0.07435000225086696, 0.07425000148941763, 0.07505000030505471, 0.07774999903631397, 0.07510000068577938, 0.07524999818997458, 0.07584999912069179, 0.07555000047432259, 0.07370000093942508, 0.07410000034724362, 0.07515000106650405, 0.07425000148941763, 0.07425000148941763, 0.07354999979725108, 0.07404999996651895, 0.07404999996651895, 0.07834999996703118, 0.07329999789362773, 0.07384999844362028, 0.07235000157379545, 0.07480000203941017, 0.07400000322377309, 0.07439999899361283, 0.07490000280085951, 0.07449999975506216, 0.07339999865507707, 0.07484999878215604, 0.07404999996651895, 0.0730499996279832, 0.0764499964134302, 0.07505000030505471],
  "Depth": 2.0,
  "Expectation Value": -1.4114999771118164,
  "Optimal Expectation Value": -1.4114999771118164,
  "Optimizer durations [ms]": [5.612, 2.991, 3.076, 2.421, 2.415, 2.506, 2.494, 2.934, 2.42, 2.47, 2.392, 2.404, 2.348, 2.479, 2.344, 2.343, 2.517, 2.369, 2.365, 2.483, 2.517, 2.388, 2.453, 2.471, 2.617, 2.76, 2.576, 2.347, 2.348, 2.426, 2.369, 2.403, 2.459, 2.394, 2.376, 2.562, 2.399, 2.375, 2.34, 2.421, 2.361, 2.354, 2.365, 2.358, 2.369, 2.477, 2.358, 2.393, 2.355, 2.374, 2.361, 2.375, 2.398, 2.402, 2.346, 2.453, 2.383, 2.385, 2.493, 2.517],
  "Optimizer iterations": 60,
  "Optimizer params": [1.0, 0.5047811526428152],
  "P": 0,
  "Problem": "RH",
  "QJob durations [ms]": [0.2104499981214758, 0.0957000011112541, 0.10620000102790073, 0.07490000280085951, 0.07599999662488699, 0.07949999780976214, 0.07800000093993731, 0.09804999717744067, 0.07339999865507707, 0.07329999789362773, 0.07340000229305588, 0.07239999831654131, 0.07095000182744116, 0.07505000030505471, 0.07190000178525224, 0.07175000064307824, 0.07340000229305588, 0.07259999983943999, 0.07280000136233866, 0.07399999958579428, 0.07425000148941763, 0.0733499982743524, 0.0746000005165115, 0.0792499995441176, 0.07829999958630651, 0.07815000208211131, 0.07429999823216349, 0.07349999941652641, 0.07375000132014975, 0.07435000225086696, 0.07425000148941763, 0.07505000030505471, 0.07774999903631397, 0.07510000068577938, 0.07524999818997458, 0.07584999912069179, 0.07555000047432259, 0.07370000093942508, 0.07410000034724362, 0.07515000106650405, 0.07425000148941763, 0.07425000148941763, 0.07354999979725108, 0.07404999996651895, 0.07404999996651895, 0.07834999996703118, 0.07329999789362773, 0.07384999844362028, 0.07235000157379545, 0.07480000203941017, 0.07400000322377309, 0.07439999899361283, 0.07490000280085951, 0.07449999975506216, 0.07339999865507707, 0.07484999878215604, 0.07404999996651895, 0.0730499996279832, 0.0764499964134302, 0.07505000030505471],
  "QPU": "7000000",
  "Qubits": 2,
  "Queue durations [ms]": [0.0, 0.0, 0.0, 0.0, 0.0, 0.0, 0.0, 0.0, 0.0, 0.0, 0.0, 0.0, 0.0, 0.0, 0.0, 0.0, 0.0, 0.0, 0.0, 0.0, 0.0, 0.0, 0.0, 0.0, 0.0, 0.0, 0.0, 0.0, 0.0, 0.0, 0.0, 0.0, 0.0, 0.0, 0.0, 0.0, 0.0, 0.0, 0.0, 0.0, 0.0, 0.0, 0.0, 0.0, 0.0, 0.0, 0.0, 0.0, 0.0, 0.0, 0.0, 0.0, 0.0, 0.0, 0.0, 0.0, 0.0, 0.0, 0.0, 0.0],
  "Shots": 4096,
  "Size": 2,
  "Total Algorithm duration [s]": 0.15,
  "Total Classic duration [s]": 0.14531324999406933,
  "Total Quantum duration [s]": 0.004686750005930662
}
