{
  "Circuit execution durations [ms]": [0.07505000030505471, 0.07394999920506962, 0.07714999810559675, 0.07425000148941763, 0.07425000148941763, 0.07215000005089678, 0.08480000178678893, 0.072750000981614, 0.08225000055972487, 0.07700000060140155, 0.08114999945973977, 0.08084999717539176, 0.08055000216700137, 0.07370000093942508, 0.07499999992433004, 0.07440000263159163, 0.07415000072796829, 0.07470000127796084, 0.07299999924725853, 0.07429999823216349, 0.07389999882434495, 0.07344999903580174, 0.07409999670926481, 0.07394999920506962, 0.07324999751290306, 0.07385000208159909, 0.07410000034724362, 0.07289999848580919, 0.1465499990445096, 0.07439999899361283, 0.07550000009359792, 0.07340000229305588],
  "Depth": 2.0,
  "Expectation Value": -1.4100970029830933,
  "Optimal Expectation Value": -1.4114999771118164,
  "Optimizer durations [ms]": [2.426, 2.354, 2.472, 2.415, 2.363, 2.363, 2.54, 2.289, 2.543, 2.428, 2.552, 2.552, 2.514, 2.402, 2.492, 2.419, 2.334, 2.385, 2.36, 2.378, 2.33, 2.353, 2.4, 2.371, 2.318, 2.355, 2.401, 2.361, 6.565, 2.538, 2.471, 2.409],
  "Optimizer iterations": 32,
  "Optimizer params": [0.012162095153995172, 0.5039568605035074],
  "P": 0,
  "Problem": "RH",
  "QJob durations [ms]": [0.07505000030505471, 0.07394999920506962, 0.07714999810559675, 0.07425000148941763, 0.07425000148941763, 0.07215000005089678, 0.08480000178678893, 0.072750000981614, 0.08225000055972487, 0.07700000060140155, 0.08114999945973977, 0.08084999717539176, 0.08055000216700137, 0.07370000093942508, 0.07499999992433004, 0.07440000263159163, 0.07415000072796829, 0.07470000127796084, 0.07299999924725853, 0.07429999823216349, 0.07389999882434495, 0.07344999903580174, 0.07409999670926481, 0.07394999920506962, 0.07324999751290306, 0.07385000208159909, 0.07410000034724362, 0.07289999848580919, 0.1465499990445096, 0.07439999899361283, 0.07550000009359792, 0.07340000229305588],
  "QPU": "7000000",
  "Qubits": 2,
  "Queue durations [ms]": [0.0, 0.0, 0.0, 0.0, 0.0, 0.0, 0.0, 0.0, 0.0, 0.0, 0.0, 0.0, 0.0, 0.0, 0.0, 0.0, 0.0, 0.0, 0.0, 0.0, 0.0, 0.0, 0.0, 0.0, 0.0, 0.0, 0.0, 0.0, 0.0, 0.0, 0.0, 0.0],
  "Shots": 4096,
  "Size": 2,
  "Total Algorithm duration [s]": 0.081,
  "Total Classic duration [s]": 0.07851525000101538,
  "Total Quantum duration [s]": 0.0024847499989846256
}
