{
  "Circuit execution durations [ms]": [0.0760000002628658, 0.08804999743006192, 0.0746000005165115, 0.07404999996651895, 0.08340000204043463, 0.07330000153160654, 0.07329999789362773, 0.07415000072796829, 0.07274999734363519, 0.06355000004987232, 0.07584999912069179, 0.07390000246232376, 0.07269999696291052, 0.07299999924725853, 0.07285000174306333, 0.0719499985279981, 0.07199999890872277, 0.06564999966940377, 0.06365000081132166, 0.07324999751290306, 0.0733499982743524, 0.07244999869726598, 0.0744499993743375],
  "Depth": 2.0,
  "Expectation Value": -1.4114999771118164,
  "Optimal Expectation Value": -1.4114999771118164,
  "Optimizer durations [ms]": [2.805, 2.681, 2.398, 2.36, 2.729, 2.473, 2.509, 2.413, 2.36, 2.249, 2.408, 2.414, 2.364, 2.461, 2.368, 2.408, 2.602, 2.275, 2.273, 2.466, 2.414, 2.355, 2.444],
  "Optimizer iterations": 23,
  "Optimizer params": [7.703719777548943e-34, 0.49999238995009826],
  "P": 0,
  "Problem": "RH",
  "QJob durations [ms]": [0.0760000002628658, 0.08804999743006192, 0.0746000005165115, 0.07404999996651895, 0.08340000204043463, 0.07330000153160654, 0.07329999789362773, 0.07415000072796829, 0.07274999734363519, 0.06355000004987232, 0.07584999912069179, 0.07390000246232376, 0.07269999696291052, 0.07299999924725853, 0.07285000174306333, 0.0719499985279981, 0.07199999890872277, 0.06564999966940377, 0.06365000081132166, 0.07324999751290306, 0.0733499982743524, 0.07244999869726598, 0.0744499993743375],
  "QPU": "7000000",
  "Qubits": 2,
  "Queue durations [ms]": [0.0, 0.0, 0.0, 0.0, 0.0, 0.0, 0.0, 0.0, 0.0, 0.0, 0.0, 0.0, 0.0, 0.0, 0.0, 0.0, 0.0, 0.0, 0.0, 0.0, 0.0, 0.0, 0.0],
  "Shots": 4096,
  "Size": 2,
  "Total Algorithm duration [s]": 0.056,
  "Total Classic duration [s]": 0.054311800010924345,
  "Total Quantum duration [s]": 0.001688199989075656
}
