{
  "Circuit execution durations [ms]": [1723.347544670105, 1672.494649887085, 1803.6309480667114, 1724.123477935791, 1649.2079496383667, 1653.9690494537354, 1723.7613201141357, 1625.1029968261719, 1709.8489999771118, 2015.0290727615356, 1656.5765142440796, 1600.1776456832886, 2452.075958251953, 1673.1582880020142, 1599.264144897461, 1675.4812002182007, 1644.8746919631958, 1664.5758152008057, 1653.714656829834, 1683.6345195770264, 1740.2981519699097, 1695.8221197128296, 1865.6315803527832, 1652.3642539978027, 1735.9426021575928, 1743.4040307998657, 1644.603967666626, 1755.2140951156616, 1633.47589969635, 1699.6984481811523, 1604.1079759597778, 1830.7812213897705, 2672.6622581481934, 2005.611538887024, 1679.4153451919556, 1614.0618324279785, 1606.2343120574951, 1675.176978111267, 1604.7333478927612, 1543.3824062347412, 1950.7226943969727, 2574.828028678894, 1662.7219915390015, 1842.3852920532227, 1636.4024877548218, 2706.4757347106934, 1725.828766822815, 1846.9117879867554, 1647.719144821167, 1567.0456886291504, 1771.952509880066, 1588.5908603668213, 2802.48761177063, 3089.872717857361, 1542.7577495574951, 1663.8060808181763, 1677.510142326355, 1816.8026208877563, 1687.278389930725, 1658.5428714752197],
  "Depth": 2.0,
  "Expectation Value": -1.9283180236816406,
  "Optimal Expectation Value": -2.2741000652313232,
  "Optimizer durations [ms]": [17405.872, 16836.283, 19104.49, 17269.935, 17104.618, 16859.919, 17185.521, 17048.263, 17315.632, 20054.178, 19324.779, 16959.004, 19015.499, 16810.503, 16827.917, 17001.352, 17335.927, 17349.643, 17550.428, 17347.843, 18186.38, 18515.033, 18609.141, 17372.086, 17439.281, 17009.318, 17632.501, 17509.034, 17399.939, 17353.701, 17564.149, 19663.554, 20025.405, 17975.062, 19643.331, 17027.31, 17197.708, 18061.249, 16584.286, 16752.481, 18169.351, 19867.833, 17644.746, 17328.471, 17470.838, 20799.629, 17974.645, 18611.068, 17147.479, 17132.247, 20092.011, 17809.505, 19892.962, 20100.388, 16974.713, 17414.648, 20863.259, 17618.344, 17026.958, 17218.76],
  "Optimizer iterations": 60,
  "Optimizer params": [3.7191416587647078e-25, 0.48930796369389346, 7.824347428093437e-06, 0.40781420092244647],
  "P": 0,
  "Problem": "RH",
  "QJob durations [ms]": [8676.79500579834, 8394.858837127686, 9517.393112182617, 8596.75121307373, 8522.579669952393, 8361.777782440186, 8569.321632385254, 8498.69441986084, 8633.896827697754, 10004.055500030518, 9639.147281646729, 8455.0142288208, 9475.847244262695, 8379.662990570068, 8389.742851257324, 8478.49416732788, 8646.043300628662, 8646.921157836914, 8753.024101257324, 8646.967887878418, 9070.033073425293, 9234.405994415283, 9281.14366531372, 8660.820007324219, 8693.838596343994, 8433.82978439331, 8793.190956115723, 8731.077194213867, 8665.537357330322, 8650.458335876465, 8752.379894256592, 9807.388305664063, 9985.476016998291, 8958.436965942383, 9797.24645614624, 8489.6240234375, 8574.841976165771, 9006.352424621582, 8264.476299285889, 8339.324951171875, 9054.65316772461, 9910.969257354736, 8796.759128570557, 8638.373851776123, 8701.242923736572, 10337.22972869873, 8916.650295257568, 9281.713008880615, 8547.572612762451, 8539.079189300537, 10017.426490783691, 8876.502990722656, 9922.529220581055, 10016.560077667236, 8461.64608001709, 8683.775424957275, 10407.65380859375, 8775.081634521484, 8489.701747894287, 8586.099624633789],
  "QPU": "6020004",
  "Qubits": 4,
  "Shots": 4096,
  "Size": 4,
  "Total Algorithm duration [s]": 1076.386,
  "Total Classic duration [s]": 539.9479082450866,
  "Total Quantum duration [s]": 536.4380917549133
}
