{
  "Circuit execution durations [ms]": [2.462, 2.351, 2.3703000000000003, 2.3653, 2.4025000000000003, 2.4304, 2.3468999999999998, 2.3687, 2.3933, 2.3829, 2.3699, 2.4033, 2.3882, 2.3956, 2.6197999999999997, 2.4044000000000003, 2.3752999999999997, 2.5246, 2.3558, 2.391, 2.3779, 2.4585000000000004, 2.3878, 2.3406, 2.3441, 2.3895, 2.3766, 2.3933, 2.3749000000000002, 2.4244000000000003, 2.3815, 2.4648, 2.3616, 2.3884000000000003, 2.4343, 2.3584, 2.3828, 2.3931, 2.3982, 2.4135, 2.3835, 2.3924, 2.3790999999999998, 2.3909000000000002, 2.4023999999999996, 2.4183999999999997, 2.3723, 2.3639, 2.449, 2.3725, 2.7985, 2.3443, 2.3915, 2.382, 2.3834, 2.3854, 2.3821, 2.3758999999999997, 2.3893999999999997, 2.3767, 2.3492, 2.3645, 2.3926, 2.3566, 2.3868, 2.3693999999999997, 2.405, 2.3709, 2.382, 2.3981, 2.368, 2.3914, 2.4147000000000003, 2.3669, 2.3836999999999997, 2.3823999999999996, 2.3806000000000003, 2.4055999999999997, 2.4334000000000002, 2.4226, 2.3752, 2.3811999999999998, 2.3904, 2.4027, 2.4933, 2.4093999999999998, 2.4177, 2.4063, 2.4034, 2.4188, 2.4409, 2.524, 2.5914, 2.4263000000000003, 2.3813, 2.4055, 2.3989, 2.4077, 2.3952999999999998, 2.4026, 2.3633, 2.3938, 2.4337],
  "Depth": 384.0,
  "Expectation Value": -3.357072591781616,
  "Optimal Expectation Value": -4.0,
  "Optimizer durations [ms]": [25.035, 23.968, 24.384, 24.232, 24.563, 24.96, 23.931, 24.234, 24.384, 24.123, 24.315, 24.595, 25.083, 24.402, 26.518, 24.86, 24.873, 25.745, 24.321, 25.943, 24.263, 25.055, 33.935, 33.425, 33.86, 24.397, 24.142, 24.505, 24.213, 24.687, 24.523, 25.232, 23.941, 24.69, 24.624, 24.189, 24.4, 24.385, 24.754, 24.596, 24.371, 24.401, 24.194, 24.529, 24.618, 24.439, 24.31, 24.179, 25.211, 23.995, 28.68, 33.423, 24.272, 24.375, 24.308, 24.564, 24.27, 24.19, 24.295, 24.214, 24.07, 24.593, 24.398, 27.808, 24.332, 24.299, 24.394, 24.272, 24.496, 24.163, 24.427, 24.158, 25.008, 24.285, 24.2, 24.197, 24.46, 24.693, 24.928, 24.601, 24.238, 24.331, 24.534, 24.464, 25.344, 24.677, 24.719, 24.355, 24.771, 24.792, 24.745, 35.232, 27.105, 24.841, 24.016, 24.814, 24.374, 24.557, 24.382, 24.602, 24.26, 24.379, 24.876],
  "Optimizer iterations": 103,
  "Optimizer params": [0.29998644503023686, 0.026948604335484645, 0.4679709203008828, 0.11678617918462568, 0.38677989788830364, 0.8352567217487954],
  "P": 3,
  "Problem": "DSP",
  "QJob durations [ms]": [2.462, 2.351, 2.3703000000000003, 2.3653, 2.4025000000000003, 2.4304, 2.3468999999999998, 2.3687, 2.3933, 2.3829, 2.3699, 2.4033, 2.3882, 2.3956, 2.6197999999999997, 2.4044000000000003, 2.3752999999999997, 2.5246, 2.3558, 2.391, 2.3779, 2.4585000000000004, 2.3878, 2.3406, 2.3441, 2.3895, 2.3766, 2.3933, 2.3749000000000002, 2.4244000000000003, 2.3815, 2.4648, 2.3616, 2.3884000000000003, 2.4343, 2.3584, 2.3828, 2.3931, 2.3982, 2.4135, 2.3835, 2.3924, 2.3790999999999998, 2.3909000000000002, 2.4023999999999996, 2.4183999999999997, 2.3723, 2.3639, 2.449, 2.3725, 2.7985, 2.3443, 2.3915, 2.382, 2.3834, 2.3854, 2.3821, 2.3758999999999997, 2.3893999999999997, 2.3767, 2.3492, 2.3645, 2.3926, 2.3566, 2.3868, 2.3693999999999997, 2.405, 2.3709, 2.382, 2.3981, 2.368, 2.3914, 2.4147000000000003, 2.3669, 2.3836999999999997, 2.3823999999999996, 2.3806000000000003, 2.4055999999999997, 2.4334000000000002, 2.4226, 2.3752, 2.3811999999999998, 2.3904, 2.4027, 2.4933, 2.4093999999999998, 2.4177, 2.4063, 2.4034, 2.4188, 2.4409, 2.524, 2.5914, 2.4263000000000003, 2.3813, 2.4055, 2.3989, 2.4077, 2.3952999999999998, 2.4026, 2.3633, 2.3938, 2.4337],
  "QPU": "7000000",
  "Qubits": 10,
  "Queue durations [ms]": [0.0, 0.0, 0.0, 0.0, 0.0, 0.0, 0.0, 0.0, 0.0, 0.0, 0.0, 0.0, 0.0, 0.0, 0.0, 0.0, 0.0, 0.0, 0.0, 0.0, 0.0, 0.0, 0.0, 0.0, 0.0, 0.0, 0.0, 0.0, 0.0, 0.0, 0.0, 0.0, 0.0, 0.0, 0.0, 0.0, 0.0, 0.0, 0.0, 0.0, 0.0, 0.0, 0.0, 0.0, 0.0, 0.0, 0.0, 0.0, 0.0, 0.0, 0.0, 0.0, 0.0, 0.0, 0.0, 0.0, 0.0, 0.0, 0.0, 0.0, 0.0, 0.0, 0.0, 0.0, 0.0, 0.0, 0.0, 0.0, 0.0, 0.0, 0.0, 0.0, 0.0, 0.0, 0.0, 0.0, 0.0, 0.0, 0.0, 0.0, 0.0, 0.0, 0.0, 0.0, 0.0, 0.0, 0.0, 0.0, 0.0, 0.0, 0.0, 0.0, 0.0, 0.0, 0.0, 0.0, 0.0, 0.0, 0.0, 0.0, 0.0, 0.0, 0.0],
  "Shots": 4096,
  "Size": 5,
  "Total Algorithm duration [s]": 2.583,
  "Total Classic duration [s]": 2.3355335000000004,
  "Total Quantum duration [s]": 0.24746649999999998
}
