{
  "Circuit execution durations [ms]": [2.4819, 2.3781000000000003, 2.3848, 2.4198, 2.4833, 2.4467999999999996, 2.3758999999999997, 2.4524999999999997, 2.3976, 2.3794, 2.3775, 2.3726, 2.4036999999999997, 2.4303, 2.4002, 2.3952999999999998, 2.3684000000000003, 2.3971, 2.3630999999999998, 2.4131, 2.3691, 2.4055, 2.4126999999999996, 2.3941000000000003, 2.3985, 2.3948, 2.4131, 2.418, 2.3946, 2.4158999999999997, 2.4078, 2.4089, 2.4322, 2.4882, 2.4871, 2.5098, 2.426, 2.3887, 2.4061, 2.4186, 2.4039, 2.4032, 2.4303, 2.4435, 2.4196999999999997, 2.4004, 2.442, 2.4311, 2.4182, 2.4057000000000004, 2.4013, 2.3823, 2.4096, 2.4368, 2.3804999999999996, 2.4215999999999998, 2.462, 2.4106, 2.4041, 2.4135, 2.385, 2.4156, 2.4147000000000003, 2.4341, 2.4036999999999997, 2.3992, 2.4443, 2.3952, 2.404, 2.3965, 2.4317, 2.4307, 2.4215, 2.3874999999999997, 2.5319000000000003, 2.6518, 2.3904, 2.4421999999999997, 2.3756, 2.4811, 2.4696000000000002, 2.3776, 2.3643, 2.3847, 2.3942, 2.3939, 2.3688, 2.3747, 2.3873, 2.3859, 2.3707, 2.3771999999999998, 2.3822],
  "Depth": 384.0,
  "Expectation Value": -2.762932062149048,
  "Optimal Expectation Value": -4.0,
  "Optimizer durations [ms]": [25.232, 24.533, 26.742, 24.689, 25.274, 34.346, 28.343, 25.031, 24.551, 24.102, 24.304, 24.277, 24.635, 24.866, 24.331, 24.346, 24.284, 24.705, 24.195, 24.53, 24.023, 24.877, 24.602, 24.5, 24.172, 24.657, 24.648, 24.706, 24.404, 24.675, 24.8, 24.468, 24.891, 25.489, 34.766, 26.204, 24.81, 24.5, 24.633, 24.64, 24.571, 24.771, 24.714, 25.132, 24.454, 24.775, 24.896, 25.325, 24.689, 24.366, 24.457, 24.642, 24.664, 24.676, 24.246, 24.978, 25.195, 24.521, 24.396, 24.884, 24.188, 24.767, 24.597, 24.94, 24.265, 24.708, 24.778, 24.654, 24.485, 24.361, 24.946, 24.891, 24.63, 24.245, 35.659, 26.945, 24.766, 24.684, 24.308, 25.611, 25.026, 24.51, 24.09, 24.357, 24.686, 24.18, 24.446, 24.165, 24.459, 24.576, 24.24, 24.347, 24.317],
  "Optimizer iterations": 93,
  "Optimizer params": [0.8591167709361169, 0.32753796608954316, 0.11131685736021275, 0.5506372223893519, 0.5130248762741256, 0.49253420818269417],
  "P": 3,
  "Problem": "DSP",
  "QJob durations [ms]": [2.4819, 2.3781000000000003, 2.3848, 2.4198, 2.4833, 2.4467999999999996, 2.3758999999999997, 2.4524999999999997, 2.3976, 2.3794, 2.3775, 2.3726, 2.4036999999999997, 2.4303, 2.4002, 2.3952999999999998, 2.3684000000000003, 2.3971, 2.3630999999999998, 2.4131, 2.3691, 2.4055, 2.4126999999999996, 2.3941000000000003, 2.3985, 2.3948, 2.4131, 2.418, 2.3946, 2.4158999999999997, 2.4078, 2.4089, 2.4322, 2.4882, 2.4871, 2.5098, 2.426, 2.3887, 2.4061, 2.4186, 2.4039, 2.4032, 2.4303, 2.4435, 2.4196999999999997, 2.4004, 2.442, 2.4311, 2.4182, 2.4057000000000004, 2.4013, 2.3823, 2.4096, 2.4368, 2.3804999999999996, 2.4215999999999998, 2.462, 2.4106, 2.4041, 2.4135, 2.385, 2.4156, 2.4147000000000003, 2.4341, 2.4036999999999997, 2.3992, 2.4443, 2.3952, 2.404, 2.3965, 2.4317, 2.4307, 2.4215, 2.3874999999999997, 2.5319000000000003, 2.6518, 2.3904, 2.4421999999999997, 2.3756, 2.4811, 2.4696000000000002, 2.3776, 2.3643, 2.3847, 2.3942, 2.3939, 2.3688, 2.3747, 2.3873, 2.3859, 2.3707, 2.3771999999999998, 2.3822],
  "QPU": "7000000",
  "Qubits": 10,
  "Queue durations [ms]": [0.0, 0.0, 0.0, 0.0, 0.0, 0.0, 0.0, 0.0, 0.0, 0.0, 0.0, 0.0, 0.0, 0.0, 0.0, 0.0, 0.0, 0.0, 0.0, 0.0, 0.0, 0.0, 0.0, 0.0, 0.0, 0.0, 0.0, 0.0, 0.0, 0.0, 0.0, 0.0, 0.0, 0.0, 0.0, 0.0, 0.0, 0.0, 0.0, 0.0, 0.0, 0.0, 0.0, 0.0, 0.0, 0.0, 0.0, 0.0, 0.0, 0.0, 0.0, 0.0, 0.0, 0.0, 0.0, 0.0, 0.0, 0.0, 0.0, 0.0, 0.0, 0.0, 0.0, 0.0, 0.0, 0.0, 0.0, 0.0, 0.0, 0.0, 0.0, 0.0, 0.0, 0.0, 0.0, 0.0, 0.0, 0.0, 0.0, 0.0, 0.0, 0.0, 0.0, 0.0, 0.0, 0.0, 0.0, 0.0, 0.0, 0.0, 0.0, 0.0, 0.0],
  "Shots": 4096,
  "Size": 5,
  "Total Algorithm duration [s]": 2.33,
  "Total Classic duration [s]": 2.1055008,
  "Total Quantum duration [s]": 0.2244992
}
