{
  "Circuit execution durations [ms]": [2.3771, 2.3602, 2.4055999999999997, 2.3981, 2.3893, 2.3758, 2.3396, 2.3682999999999996, 2.3859, 2.4234999999999998, 2.3733999999999997, 2.3851, 2.3849, 2.4484, 2.3891, 2.3822, 2.3991, 2.3985, 2.3648, 2.3725, 2.359, 2.3815, 2.3839, 2.4762, 2.5818, 2.3725, 2.3974, 2.3744, 2.4214, 2.4215999999999998, 2.3737, 2.4193000000000002, 2.3583, 2.4014, 2.4977, 2.4543999999999997, 2.4643, 2.4067, 2.3917, 2.4233000000000002, 2.4145999999999996, 2.3998, 2.3766, 2.3994, 2.3975, 2.3886, 2.3911000000000002, 2.3646000000000003, 2.4085, 2.3886, 2.3663, 2.3832, 2.4232, 2.3906, 2.4265, 2.388, 2.39, 2.3625, 2.4076000000000004, 2.4018, 2.3781000000000003, 2.4427, 2.3936, 2.4289, 2.4926000000000004, 2.604, 2.3653, 2.3842999999999996, 2.3832, 2.4099999999999997, 2.3796, 2.4028, 2.3811, 2.3949000000000003, 2.3864, 2.3798999999999997, 2.3904, 2.3770000000000002, 2.3788, 2.4444, 2.3986, 2.3603, 2.3832, 2.4112, 2.3708, 2.3895, 2.4237, 2.3747, 2.3955, 2.4227, 2.3756, 2.3606, 2.3855, 2.3667, 2.4214, 2.381, 2.4273, 2.3725, 2.3883, 2.3813, 2.3895, 2.3712999999999997, 2.3571999999999997, 2.4026, 2.4646, 2.7066999999999997, 2.5918, 2.3676, 2.3891, 2.3922000000000003, 2.4452, 2.3738, 2.4124, 2.3903000000000003, 2.3808000000000002, 2.3804999999999996, 2.3846000000000003, 2.4086, 2.386, 2.4257, 2.4111, 2.3726, 2.3624, 2.3777999999999997, 2.407, 2.3981, 2.4048, 2.3752999999999997, 2.3957, 2.4133, 2.4196999999999997, 2.4215, 2.3646000000000003, 2.3841, 2.4467999999999996, 2.3736, 2.3912999999999998, 2.3952, 2.3808000000000002, 2.3931, 2.3795, 2.3825000000000003, 2.3849],
  "Depth": 384.0,
  "Expectation Value": -3.2952592372894287,
  "Optimal Expectation Value": -4.0,
  "Optimizer durations [ms]": [24.277, 24.279, 24.548, 24.186, 24.63, 24.308, 23.761, 24.152, 24.413, 24.468, 24.152, 24.41, 24.303, 24.919, 24.428, 24.538, 24.238, 24.463, 24.39, 24.082, 24.351, 24.214, 24.37, 25.331, 26.394, 24.696, 25.265, 24.295, 24.547, 28.348, 24.128, 24.661, 26.0, 24.579, 25.184, 34.427, 25.306, 24.545, 24.542, 24.458, 24.636, 24.579, 24.257, 24.235, 24.579, 24.627, 24.353, 23.93, 24.777, 24.114, 24.261, 24.405, 24.997, 24.221, 24.909, 24.267, 24.21, 24.328, 24.627, 24.381, 24.435, 24.99, 24.474, 24.529, 35.024, 26.487, 24.186, 24.675, 24.274, 24.574, 24.052, 24.537, 24.501, 24.484, 24.155, 24.649, 24.429, 24.087, 24.17, 25.097, 24.385, 24.25, 24.015, 24.648, 24.344, 24.488, 24.509, 24.494, 24.426, 24.599, 24.252, 24.198, 24.291, 24.103, 24.831, 24.084, 24.733, 24.468, 24.343, 24.222, 24.419, 24.049, 24.236, 24.588, 25.335, 33.808, 27.155, 24.119, 24.331, 24.642, 24.848, 24.201, 24.816, 24.118, 24.642, 24.339, 24.271, 24.7, 29.285, 24.937, 24.469, 24.182, 24.158, 24.225, 24.599, 24.422, 24.532, 24.544, 24.173, 24.618, 24.509, 24.882, 24.051, 24.508, 24.836, 24.22, 24.649, 24.335, 24.494, 24.509, 24.203, 24.402, 24.281],
  "Optimizer iterations": 143,
  "Optimizer params": [0.5386497359319575, 0.9023007624875569, 0.8403384959472215, 0.9472413798454736, 0.2725652846920471, 0.9177536262083694],
  "P": 3,
  "Problem": "DSP",
  "QJob durations [ms]": [2.3771, 2.3602, 2.4055999999999997, 2.3981, 2.3893, 2.3758, 2.3396, 2.3682999999999996, 2.3859, 2.4234999999999998, 2.3733999999999997, 2.3851, 2.3849, 2.4484, 2.3891, 2.3822, 2.3991, 2.3985, 2.3648, 2.3725, 2.359, 2.3815, 2.3839, 2.4762, 2.5818, 2.3725, 2.3974, 2.3744, 2.4214, 2.4215999999999998, 2.3737, 2.4193000000000002, 2.3583, 2.4014, 2.4977, 2.4543999999999997, 2.4643, 2.4067, 2.3917, 2.4233000000000002, 2.4145999999999996, 2.3998, 2.3766, 2.3994, 2.3975, 2.3886, 2.3911000000000002, 2.3646000000000003, 2.4085, 2.3886, 2.3663, 2.3832, 2.4232, 2.3906, 2.4265, 2.388, 2.39, 2.3625, 2.4076000000000004, 2.4018, 2.3781000000000003, 2.4427, 2.3936, 2.4289, 2.4926000000000004, 2.604, 2.3653, 2.3842999999999996, 2.3832, 2.4099999999999997, 2.3796, 2.4028, 2.3811, 2.3949000000000003, 2.3864, 2.3798999999999997, 2.3904, 2.3770000000000002, 2.3788, 2.4444, 2.3986, 2.3603, 2.3832, 2.4112, 2.3708, 2.3895, 2.4237, 2.3747, 2.3955, 2.4227, 2.3756, 2.3606, 2.3855, 2.3667, 2.4214, 2.381, 2.4273, 2.3725, 2.3883, 2.3813, 2.3895, 2.3712999999999997, 2.3571999999999997, 2.4026, 2.4646, 2.7066999999999997, 2.5918, 2.3676, 2.3891, 2.3922000000000003, 2.4452, 2.3738, 2.4124, 2.3903000000000003, 2.3808000000000002, 2.3804999999999996, 2.3846000000000003, 2.4086, 2.386, 2.4257, 2.4111, 2.3726, 2.3624, 2.3777999999999997, 2.407, 2.3981, 2.4048, 2.3752999999999997, 2.3957, 2.4133, 2.4196999999999997, 2.4215, 2.3646000000000003, 2.3841, 2.4467999999999996, 2.3736, 2.3912999999999998, 2.3952, 2.3808000000000002, 2.3931, 2.3795, 2.3825000000000003, 2.3849],
  "QPU": "7000000",
  "Qubits": 10,
  "Queue durations [ms]": [0.0, 0.0, 0.0, 0.0, 0.0, 0.0, 0.0, 0.0, 0.0, 0.0, 0.0, 0.0, 0.0, 0.0, 0.0, 0.0, 0.0, 0.0, 0.0, 0.0, 0.0, 0.0, 0.0, 0.0, 0.0, 0.0, 0.0, 0.0, 0.0, 0.0, 0.0, 0.0, 0.0, 0.0, 0.0, 0.0, 0.0, 0.0, 0.0, 0.0, 0.0, 0.0, 0.0, 0.0, 0.0, 0.0, 0.0, 0.0, 0.0, 0.0, 0.0, 0.0, 0.0, 0.0, 0.0, 0.0, 0.0, 0.0, 0.0, 0.0, 0.0, 0.0, 0.0, 0.0, 0.0, 0.0, 0.0, 0.0, 0.0, 0.0, 0.0, 0.0, 0.0, 0.0, 0.0, 0.0, 0.0, 0.0, 0.0, 0.0, 0.0, 0.0, 0.0, 0.0, 0.0, 0.0, 0.0, 0.0, 0.0, 0.0, 0.0, 0.0, 0.0, 0.0, 0.0, 0.0, 0.0, 0.0, 0.0, 0.0, 0.0, 0.0, 0.0, 0.0, 0.0, 0.0, 0.0, 0.0, 0.0, 0.0, 0.0, 0.0, 0.0, 0.0, 0.0, 0.0, 0.0, 0.0, 0.0, 0.0, 0.0, 0.0, 0.0, 0.0, 0.0, 0.0, 0.0, 0.0, 0.0, 0.0, 0.0, 0.0, 0.0, 0.0, 0.0, 0.0, 0.0, 0.0, 0.0, 0.0, 0.0, 0.0, 0.0],
  "Shots": 4096,
  "Size": 5,
  "Total Algorithm duration [s]": 3.543,
  "Total Classic duration [s]": 3.1996045000000004,
  "Total Quantum duration [s]": 0.3433954999999998
}
