{
  "Circuit execution durations [ms]": [2.3893999999999997, 2.3421000000000003, 2.4927, 2.6671, 2.4118, 2.3854, 2.3763, 2.4415999999999998, 2.3546, 2.3739, 2.3719, 2.3693, 2.363, 2.3701999999999996, 2.3864, 2.3736, 2.3931999999999998, 2.3958999999999997, 2.3724000000000003, 2.3924, 2.3587000000000002, 2.3756, 2.368, 2.3682999999999996, 2.3912999999999998, 2.3629, 2.3899, 2.4224, 2.3887, 2.3802, 2.3985, 2.3855, 2.4452, 2.3817, 2.3633, 2.3879, 2.3719, 2.3830999999999998, 2.4145999999999996, 2.3815, 2.3783, 2.4, 2.3815, 2.4034999999999997, 2.3440000000000003, 2.3796999999999997, 2.5542, 2.3522, 2.391, 2.5731, 2.3998, 2.3744, 2.3814, 2.469, 2.8717, 2.5328999999999997, 2.3993, 2.3789000000000002, 2.462, 2.3873, 2.3788, 2.3954, 2.4090000000000003, 2.3716000000000004, 2.3729, 2.3722000000000003, 2.3943, 2.3609, 2.4036, 2.3579, 2.3944, 2.3581000000000003, 2.3855, 2.3986, 2.3855, 2.4012000000000002, 2.3873, 2.3645, 2.3442, 2.3931, 2.4427, 2.3630999999999998, 2.3815, 2.8697000000000004, 2.5863, 2.3813, 2.3996, 2.3771999999999998, 2.4042999999999997, 2.3798999999999997, 2.3822, 2.3594000000000004, 2.4107, 2.4334000000000002, 2.3862, 2.396, 2.3739999999999997, 2.3836, 2.4377999999999997, 2.3888999999999996, 2.3973000000000004, 2.355, 2.3948, 2.3598999999999997, 2.3589, 2.4021, 2.3826, 2.4224, 2.3491, 2.4034, 2.4096, 2.4059, 2.4045, 2.3495, 2.4033, 2.4207, 2.3626, 2.3806000000000003, 2.3981],
  "Depth": 384.0,
  "Expectation Value": -3.75,
  "Optimal Expectation Value": -4.0,
  "Optimizer durations [ms]": [24.398, 24.295, 34.751, 27.934, 24.591, 24.278, 24.468, 25.11, 23.984, 24.116, 24.205, 24.357, 24.189, 24.408, 24.228, 24.363, 24.49, 24.453, 24.253, 24.456, 24.071, 24.203, 24.048, 24.427, 24.144, 24.366, 24.278, 24.603, 24.601, 23.992, 24.539, 24.379, 25.375, 24.296, 23.97, 25.475, 24.523, 24.15, 24.903, 24.02, 24.642, 24.528, 24.23, 24.391, 31.008, 25.427, 25.987, 24.231, 27.379, 26.298, 24.391, 24.505, 24.36, 25.28, 34.327, 26.012, 24.526, 24.077, 25.508, 24.074, 24.437, 24.693, 24.453, 24.242, 24.081, 24.353, 24.674, 24.189, 24.236, 24.282, 24.292, 24.083, 24.49, 24.36, 24.284, 24.782, 24.257, 24.015, 24.386, 24.135, 24.96, 24.02, 24.728, 31.022, 29.913, 24.546, 24.216, 24.604, 24.536, 24.466, 24.132, 24.405, 24.642, 24.865, 24.447, 24.52, 24.264, 24.422, 24.922, 24.257, 24.646, 24.049, 24.376, 23.966, 24.275, 24.486, 24.344, 24.869, 23.957, 24.586, 24.594, 24.615, 24.462, 32.496, 24.274, 25.063, 24.224, 24.272, 24.424],
  "Optimizer iterations": 119,
  "Optimizer params": [0.4161151495399538, 0.5435519127057642, 0.37636588310375735, 0.2236774514133749, 0.4455451039192027, 0.8846552182647238],
  "P": 3,
  "Problem": "DSP",
  "QJob durations [ms]": [2.3893999999999997, 2.3421000000000003, 2.4927, 2.6671, 2.4118, 2.3854, 2.3763, 2.4415999999999998, 2.3546, 2.3739, 2.3719, 2.3693, 2.363, 2.3701999999999996, 2.3864, 2.3736, 2.3931999999999998, 2.3958999999999997, 2.3724000000000003, 2.3924, 2.3587000000000002, 2.3756, 2.368, 2.3682999999999996, 2.3912999999999998, 2.3629, 2.3899, 2.4224, 2.3887, 2.3802, 2.3985, 2.3855, 2.4452, 2.3817, 2.3633, 2.3879, 2.3719, 2.3830999999999998, 2.4145999999999996, 2.3815, 2.3783, 2.4, 2.3815, 2.4034999999999997, 2.3440000000000003, 2.3796999999999997, 2.5542, 2.3522, 2.391, 2.5731, 2.3998, 2.3744, 2.3814, 2.469, 2.8717, 2.5328999999999997, 2.3993, 2.3789000000000002, 2.462, 2.3873, 2.3788, 2.3954, 2.4090000000000003, 2.3716000000000004, 2.3729, 2.3722000000000003, 2.3943, 2.3609, 2.4036, 2.3579, 2.3944, 2.3581000000000003, 2.3855, 2.3986, 2.3855, 2.4012000000000002, 2.3873, 2.3645, 2.3442, 2.3931, 2.4427, 2.3630999999999998, 2.3815, 2.8697000000000004, 2.5863, 2.3813, 2.3996, 2.3771999999999998, 2.4042999999999997, 2.3798999999999997, 2.3822, 2.3594000000000004, 2.4107, 2.4334000000000002, 2.3862, 2.396, 2.3739999999999997, 2.3836, 2.4377999999999997, 2.3888999999999996, 2.3973000000000004, 2.355, 2.3948, 2.3598999999999997, 2.3589, 2.4021, 2.3826, 2.4224, 2.3491, 2.4034, 2.4096, 2.4059, 2.4045, 2.3495, 2.4033, 2.4207, 2.3626, 2.3806000000000003, 2.3981],
  "QPU": "7000000",
  "Qubits": 10,
  "Queue durations [ms]": [0.0, 0.0, 0.0, 0.0, 0.0, 0.0, 0.0, 0.0, 0.0, 0.0, 0.0, 0.0, 0.0, 0.0, 0.0, 0.0, 0.0, 0.0, 0.0, 0.0, 0.0, 0.0, 0.0, 0.0, 0.0, 0.0, 0.0, 0.0, 0.0, 0.0, 0.0, 0.0, 0.0, 0.0, 0.0, 0.0, 0.0, 0.0, 0.0, 0.0, 0.0, 0.0, 0.0, 0.0, 0.0, 0.0, 0.0, 0.0, 0.0, 0.0, 0.0, 0.0, 0.0, 0.0, 0.0, 0.0, 0.0, 0.0, 0.0, 0.0, 0.0, 0.0, 0.0, 0.0, 0.0, 0.0, 0.0, 0.0, 0.0, 0.0, 0.0, 0.0, 0.0, 0.0, 0.0, 0.0, 0.0, 0.0, 0.0, 0.0, 0.0, 0.0, 0.0, 0.0, 0.0, 0.0, 0.0, 0.0, 0.0, 0.0, 0.0, 0.0, 0.0, 0.0, 0.0, 0.0, 0.0, 0.0, 0.0, 0.0, 0.0, 0.0, 0.0, 0.0, 0.0, 0.0, 0.0, 0.0, 0.0, 0.0, 0.0, 0.0, 0.0, 0.0, 0.0, 0.0, 0.0, 0.0, 0.0],
  "Shots": 4096,
  "Size": 5,
  "Total Algorithm duration [s]": 2.965,
  "Total Classic duration [s]": 2.6789163,
  "Total Quantum duration [s]": 0.28608369999999983
}
