{
  "Circuit execution durations [ms]": [0.13380000018514693, 0.1279499992961064, 0.11814999743364751, 0.1141499997174833, 0.11509999967529438, 0.11449999874457717, 0.11314999937894754, 0.11294999785604887, 0.11369999992894009, 0.1124500013247598, 0.11480000102892518, 0.11610000001383014, 0.11390000145183876, 0.11494999853312038, 0.11235000056331046, 0.11760000052163377, 0.11264999920967966, 0.11445000200183131, 0.11344999802531675, 0.11210000229766592, 0.11240000094403513, 0.12790000255336054, 0.11409999933675863, 0.11530000119819306, 0.11409999933675863, 0.11180000001331791, 0.116149996756576, 0.11454999912530184, 0.11269999959040433, 0.11934999929508194, 0.11264999920967966, 0.1159999992523808, 0.1126000024669338, 0.11160000212839805, 0.11235000056331046, 0.11235000056331046, 0.11620000077527948, 0.11174999963259324, 0.11209999865968712, 0.12094999692635611, 0.11330000052112155, 0.11250000170548446, 0.11170000288984738, 0.11359999916749075, 0.1141499997174833, 0.11244999768678099, 0.11530000119819306, 0.11235000056331046, 0.11409999933675863, 0.11169999925186858, 0.11240000094403513, 0.11330000052112155, 0.11700000322889537, 0.12325000352575444, 0.11694999557221308, 0.11525000081746839, 0.11264999920967966, 0.11604999599512666, 0.11420000009820797, 0.11264999920967966, 0.11219999942113645, 0.11319999975967221, 0.11939999967580661, 0.1124500013247598, 0.11349999840604141, 0.11155000174767338, 0.13295000098878518, 0.11305000225547701, 0.11204999827896245, 0.11720000111381523, 0.11255000208620913, 0.11195000115549192, 0.11169999925186858, 0.11074999929405749, 0.11280000035185367, 0.11160000212839805, 0.11269999959040433, 0.12230000356794335, 0.11375000030966476, 0.11230000018258579, 0.11749999976018444, 0.11704999997164123, 0.11360000280546956, 0.12040000001434237, 0.11185000039404258, 0.11504999929456972, 0.11539999832166359, 0.112599998828955, 0.11264999920967966, 0.11214999904041179, 0.11675000132527202, 0.11525000081746839, 0.1192499985336326, 0.11350000204402022, 0.11925000217161141, 0.12144999709562398, 0.11155000174767338, 0.11219999942113645, 0.11285000073257834, 0.11114999870187603, 0.11300000187475234, 0.11169999925186858, 0.11254999844823033, 0.11174999963259324, 0.12509999942267314, 0.11930000255233608, 0.11954999718000181, 0.1171000039903447, 0.11369999992894009, 0.10465000013937242, 0.17309999748249538, 0.11814999743364751, 0.11560000348254107, 0.12045000039506704, 0.11690000246744603, 0.1142999972216785, 0.11375000030966476, 0.11294999785604887, 0.13984999895910732, 0.11224999980186112],
  "Depth": 6.5,
  "Expectation Value": -2.235905647277832,
  "Optimal Expectation Value": -2.2360680103302,
  "Optimizer durations [ms]": [3.912, 3.758, 3.3, 3.257, 3.27, 3.338, 3.18, 3.206, 3.216, 3.13, 3.251, 3.442, 3.185, 3.249, 3.345, 3.32, 3.171, 3.295, 3.212, 3.138, 3.188, 3.56, 3.24, 3.294, 3.404, 3.132, 3.322, 3.16, 3.159, 3.35, 3.135, 3.259, 3.148, 3.121, 3.14, 3.161, 3.247, 3.168, 3.223, 3.676, 3.199, 3.158, 3.124, 3.183, 3.183, 3.155, 3.326, 3.138, 3.309, 3.152, 3.133, 3.209, 3.306, 3.565, 3.29, 3.313, 3.236, 3.255, 3.266, 3.226, 3.223, 3.22, 3.303, 3.157, 3.237, 3.216, 3.609, 3.236, 3.215, 3.251, 3.15, 3.218, 3.249, 3.215, 3.264, 3.183, 3.236, 3.957, 3.265, 3.234, 4.375, 3.325, 3.274, 3.404, 3.268, 3.149, 3.412, 3.257, 3.243, 3.255, 3.269, 3.24, 3.536, 3.248, 3.295, 3.39, 3.198, 3.216, 3.236, 3.214, 3.251, 3.213, 3.236, 3.257, 3.601, 3.347, 3.417, 3.351, 3.243, 6.139, 14.682, 6.634, 3.265, 3.555, 3.281, 3.259, 3.275, 3.268, 3.81, 3.226],
  "Optimizer iterations": 120,
  "Optimizer params": [0.6151201317165426, 0.3644294249330746, 0.9998048959715922, 0.48644291607717877, 0.5891739976488192, 0.15832475049130884, 0.6651070516780092, 0.3514700848324532],
  "P": 0,
  "Problem": "IC",
  "QJob durations [ms]": [0.13380000018514693, 0.1279499992961064, 0.11814999743364751, 0.1141499997174833, 0.11509999967529438, 0.11449999874457717, 0.11314999937894754, 0.11294999785604887, 0.11369999992894009, 0.1124500013247598, 0.11480000102892518, 0.11610000001383014, 0.11390000145183876, 0.11494999853312038, 0.11235000056331046, 0.11760000052163377, 0.11264999920967966, 0.11445000200183131, 0.11344999802531675, 0.11210000229766592, 0.11240000094403513, 0.12790000255336054, 0.11409999933675863, 0.11530000119819306, 0.11409999933675863, 0.11180000001331791, 0.116149996756576, 0.11454999912530184, 0.11269999959040433, 0.11934999929508194, 0.11264999920967966, 0.1159999992523808, 0.1126000024669338, 0.11160000212839805, 0.11235000056331046, 0.11235000056331046, 0.11620000077527948, 0.11174999963259324, 0.11209999865968712, 0.12094999692635611, 0.11330000052112155, 0.11250000170548446, 0.11170000288984738, 0.11359999916749075, 0.1141499997174833, 0.11244999768678099, 0.11530000119819306, 0.11235000056331046, 0.11409999933675863, 0.11169999925186858, 0.11240000094403513, 0.11330000052112155, 0.11700000322889537, 0.12325000352575444, 0.11694999557221308, 0.11525000081746839, 0.11264999920967966, 0.11604999599512666, 0.11420000009820797, 0.11264999920967966, 0.11219999942113645, 0.11319999975967221, 0.11939999967580661, 0.1124500013247598, 0.11349999840604141, 0.11155000174767338, 0.13295000098878518, 0.11305000225547701, 0.11204999827896245, 0.11720000111381523, 0.11255000208620913, 0.11195000115549192, 0.11169999925186858, 0.11074999929405749, 0.11280000035185367, 0.11160000212839805, 0.11269999959040433, 0.12230000356794335, 0.11375000030966476, 0.11230000018258579, 0.11749999976018444, 0.11704999997164123, 0.11360000280546956, 0.12040000001434237, 0.11185000039404258, 0.11504999929456972, 0.11539999832166359, 0.112599998828955, 0.11264999920967966, 0.11214999904041179, 0.11675000132527202, 0.11525000081746839, 0.1192499985336326, 0.11350000204402022, 0.11925000217161141, 0.12144999709562398, 0.11155000174767338, 0.11219999942113645, 0.11285000073257834, 0.11114999870187603, 0.11300000187475234, 0.11169999925186858, 0.11254999844823033, 0.11174999963259324, 0.12509999942267314, 0.11930000255233608, 0.11954999718000181, 0.1171000039903447, 0.11369999992894009, 0.10465000013937242, 0.17309999748249538, 0.11814999743364751, 0.11560000348254107, 0.12045000039506704, 0.11690000246744603, 0.1142999972216785, 0.11375000030966476, 0.11294999785604887, 0.13984999895910732, 0.11224999980186112],
  "QPU": "7000000",
  "Qubits": 2,
  "Queue durations [ms]": [0.0, 0.0, 0.0, 0.0, 0.0, 0.0, 0.0, 0.0, 0.0, 0.0, 0.0, 0.0, 0.0, 0.0, 0.0, 0.0, 0.0, 0.0, 0.0, 0.0, 0.0, 0.0, 0.0, 0.0, 0.0, 0.0, 0.0, 0.0, 0.0, 0.0, 0.0, 0.0, 0.0, 0.0, 0.0, 0.0, 0.0, 0.0, 0.0, 0.0, 0.0, 0.0, 0.0, 0.0, 0.0, 0.0, 0.0, 0.0, 0.0, 0.0, 0.0, 0.0, 0.0, 0.0, 0.0, 0.0, 0.0, 0.0, 0.0, 0.0, 0.0, 0.0, 0.0, 0.0, 0.0, 0.0, 0.0, 0.0, 0.0, 0.0, 0.0, 0.0, 0.0, 0.0, 0.0, 0.0, 0.0, 0.0, 0.0, 0.0, 0.0, 0.0, 0.0, 0.0, 0.0, 0.0, 0.0, 0.0, 0.0, 0.0, 0.0, 0.0, 0.0, 0.0, 0.0, 0.0, 0.0, 0.0, 0.0, 0.0, 0.0, 0.0, 0.0, 0.0, 0.0, 0.0, 0.0, 0.0, 0.0, 0.0, 0.0, 0.0, 0.0, 0.0, 0.0, 0.0, 0.0, 0.0, 0.0, 0.0],
  "Shots": 4096,
  "Size": 2,
  "Total Algorithm duration [s]": 0.412,
  "Total Classic duration [s]": 0.3981228999943705,
  "Total Quantum duration [s]": 0.013877100005629472
}
