{
  "Circuit execution durations [ms]": [0.3300500029581599, 0.11575000098673627, 0.11535000157891773, 0.11760000052163377, 0.11615000039455481, 0.11680000170599669, 0.1157000006060116, 0.11525000081746839, 0.11594999887165613, 0.11349999840604141, 0.1200500009872485, 0.11844999971799552, 0.11694999921019189, 0.1155499994638376, 0.11565000022528693, 0.11470000026747584, 0.1155499994638376, 0.11929999891435727, 0.1660999987507239, 0.11655000344035216, 0.11535000157891773, 0.11679999806801789, 0.11664999692584388, 0.11565000022528693, 0.11450000238255598, 0.11475000064820051, 0.12924999828101136, 0.11565000022528693, 0.11545000234036706, 0.11595000250963494, 0.11935000293306075, 0.11855000047944486, 0.11420000009820797, 0.11764999726437964, 0.11480000102892518, 0.11539999832166359, 0.11520000043674372, 0.11689999882946722, 0.11489999815239571, 0.11559999984456226, 0.12129999959142879, 0.1157000006060116, 0.11439999798312783, 0.11394999819458462, 0.11389999781385995, 0.1221999991685152, 0.11489999815239571, 0.11619999713730067, 0.11470000026747584, 0.11549999908311293, 0.14179999561747536, 0.12145000073360279, 0.12680000145337544, 0.1201999984914437, 0.12955000420333818, 0.1169500028481707, 0.11509999967529438, 0.11565000022528693, 0.1154000019596424, 0.11684999844874255, 0.11470000026747584, 0.11454999912530184, 0.11394999819458462, 0.11470000026747584, 0.11819999781437218, 0.1144499983638525, 0.11440000162110664, 0.11684999844874255, 0.23820000205887482, 0.10769999789772555, 0.21639999613398686, 0.16360000154236332, 0.12925000191899016, 0.12095000056433491, 0.1110500015784055, 0.1283999954466708, 0.11489999815239571, 0.11590000212891027, 0.11390000145183876, 0.13794999904348515, 0.11964999794145115, 0.11749999612220563, 0.11910000102943741, 0.1259499986190349, 0.11824999819509685, 0.11705000360962003, 0.11610000001383014, 0.11645000267890282, 0.1206499982799869, 0.11435000124038197, 0.11330000052112155, 0.11349999840604141, 0.11285000073257834, 0.1172499978565611, 0.11279999671387486, 0.11310000263620168, 0.11335000090184622, 0.11520000043674372, 0.11344999802531675, 0.1231500027643051, 0.11390000145183876, 0.11270000322838314, 0.11250000170548446, 0.12124999921070412, 0.12495000191847794, 0.12489999789977446, 0.12814999718102627, 0.11345000166329555, 0.11385000107111409, 0.11355000242474489, 0.11399999857530929, 0.11720000111381523, 0.112599998828955, 0.112749999971129, 0.11299999823677354, 0.11225000343983993, 0.1124500013247598, 0.11204999827896245, 0.11235000056331046, 0.11319999975967221, 0.11314999937894754, 0.12144999709562398, 0.12364999929559417, 0.11210000229766592, 0.11210000229766592, 0.11529999756021425, 0.11590000212891027, 0.11269999959040433, 0.11404999895603396, 0.11709999671438709, 0.11850000009872019, 0.11489999815239571, 0.11390000145183876, 0.1126000024669338, 0.11299999823677354, 0.11495000217109919, 0.11654999616439454, 0.11845000335597433, 0.1173999989987351, 0.1128999974753242, 0.12100000094505958, 0.11480000102892518, 0.11470000026747584, 0.11480000102892518, 0.11704999997164123, 0.1143000008596573, 0.11515000005601905, 0.11910000102943741, 0.11735000225598924, 0.11385000107111409, 0.11360000280546956, 0.1126000024669338, 0.1140000022132881, 0.12215000242576934, 0.11485000140964985, 0.12424999658833258, 0.12570000399136916, 0.1249999986612238, 0.15900000289548188, 0.11694999921019189, 0.11249999806750566, 0.1130499986174982, 0.11295000149402767, 0.11375000030966476, 0.11064999853260815, 0.112749999971129, 0.11174999963259324, 0.11435000124038197, 0.11140000060549937, 0.11330000052112155, 0.11264999920967966, 0.11254999844823033, 0.1147499970102217, 0.11294999785604887, 0.11209999865968712, 0.11344999802531675, 0.11395000183256343, 0.112599998828955, 0.11190000077476725, 0.12080000306013972, 0.11780000204453245, 0.12169999899924733, 0.11295000149402767, 0.1130499986174982, 0.11440000162110664, 0.11310000263620168, 0.11264999920967966, 0.11344999802531675, 0.11205000191694126, 0.11840000297524966, 0.11285000073257834, 0.11349999840604141, 0.1124500013247598, 0.11394999819458462, 0.12329999663052149, 0.12055000115651637, 0.1143000008596573, 0.11855000047944486, 0.1230000016221311, 0.11615000039455481, 0.11565000022528693, 0.11494999853312038, 0.11269999959040433, 0.11655000344035216, 0.11420000009820797, 0.11210000229766592, 0.11369999992894009, 0.11740000263671391, 0.12110000170650892, 0.11915000141016208, 0.11019999874406494, 0.11420000009820797, 0.11309999899822287, 0.11539999832166359, 0.11195000115549192, 0.11285000073257834, 0.11235000056331046, 0.11455000276328065, 0.11425000047893263, 0.1415999977325555, 0.11480000102892518, 0.12409999908413738, 0.11919999815290794],
  "Depth": 6.5,
  "Expectation Value": -2.2198338508605957,
  "Optimal Expectation Value": -2.2360680103302,
  "Optimizer durations [ms]": [16.495, 4.243, 3.274, 3.328, 4.13, 4.238, 4.203, 3.584, 3.23, 3.222, 3.328, 3.415, 3.502, 3.295, 3.244, 3.233, 3.229, 3.296, 4.255, 3.28, 3.213, 3.255, 3.299, 3.27, 3.226, 3.229, 3.554, 3.279, 3.232, 3.291, 3.339, 3.475, 3.232, 3.295, 3.284, 3.234, 3.748, 3.304, 3.266, 3.25, 3.342, 3.225, 3.203, 3.22, 3.201, 3.393, 3.22, 3.27, 3.226, 3.31, 3.883, 3.404, 3.627, 3.326, 3.586, 3.293, 3.246, 3.256, 3.301, 3.31, 3.242, 3.24, 3.242, 3.195, 3.338, 3.265, 3.223, 3.394, 5.716, 18.264, 6.35, 5.467, 3.822, 3.491, 6.403, 4.11, 3.269, 3.245, 3.263, 3.907, 3.418, 3.372, 3.4, 3.56, 3.489, 3.304, 3.298, 3.301, 3.484, 3.262, 3.185, 3.208, 3.172, 3.251, 3.383, 3.276, 3.296, 3.304, 3.277, 3.567, 3.256, 3.257, 3.247, 3.604, 3.545, 3.527, 3.629, 3.266, 3.245, 3.187, 3.172, 3.241, 3.158, 3.126, 3.141, 3.117, 3.481, 3.247, 3.225, 3.237, 3.144, 3.398, 3.654, 3.255, 3.265, 3.309, 3.306, 3.27, 3.285, 3.253, 3.263, 3.2, 3.201, 3.177, 3.15, 3.193, 3.362, 3.419, 3.446, 4.969, 3.446, 3.196, 3.21, 3.182, 3.261, 3.355, 3.32, 3.42, 3.354, 3.27, 3.235, 3.224, 3.287, 3.436, 3.361, 3.552, 3.526, 3.504, 4.251, 3.311, 3.25, 3.262, 3.292, 3.232, 3.184, 3.24, 3.216, 3.299, 3.218, 3.432, 3.242, 3.228, 3.368, 3.264, 3.274, 3.289, 3.327, 3.25, 3.294, 3.41, 3.347, 3.506, 6.618, 3.26, 3.309, 3.273, 3.232, 3.265, 3.282, 3.344, 3.155, 3.165, 3.113, 3.29, 3.512, 3.466, 3.212, 3.45, 3.558, 3.451, 3.294, 3.239, 3.249, 3.345, 3.288, 3.244, 3.236, 3.363, 3.525, 3.425, 3.229, 3.185, 3.209, 3.314, 3.284, 3.226, 3.237, 3.304, 3.285, 3.869, 3.283, 3.497, 3.389],
  "Optimizer iterations": 223,
  "Optimizer params": [0.3323748587912348, 0.3285258870371904, 0.028380137827421784, 0.03671050598991272, 0.6549181242598702, 0.7789319612589543, 0.8990561427821908, 0.5507451253788439],
  "P": 0,
  "Problem": "IC",
  "QJob durations [ms]": [0.3300500029581599, 0.11575000098673627, 0.11535000157891773, 0.11760000052163377, 0.11615000039455481, 0.11680000170599669, 0.1157000006060116, 0.11525000081746839, 0.11594999887165613, 0.11349999840604141, 0.1200500009872485, 0.11844999971799552, 0.11694999921019189, 0.1155499994638376, 0.11565000022528693, 0.11470000026747584, 0.1155499994638376, 0.11929999891435727, 0.1660999987507239, 0.11655000344035216, 0.11535000157891773, 0.11679999806801789, 0.11664999692584388, 0.11565000022528693, 0.11450000238255598, 0.11475000064820051, 0.12924999828101136, 0.11565000022528693, 0.11545000234036706, 0.11595000250963494, 0.11935000293306075, 0.11855000047944486, 0.11420000009820797, 0.11764999726437964, 0.11480000102892518, 0.11539999832166359, 0.11520000043674372, 0.11689999882946722, 0.11489999815239571, 0.11559999984456226, 0.12129999959142879, 0.1157000006060116, 0.11439999798312783, 0.11394999819458462, 0.11389999781385995, 0.1221999991685152, 0.11489999815239571, 0.11619999713730067, 0.11470000026747584, 0.11549999908311293, 0.14179999561747536, 0.12145000073360279, 0.12680000145337544, 0.1201999984914437, 0.12955000420333818, 0.1169500028481707, 0.11509999967529438, 0.11565000022528693, 0.1154000019596424, 0.11684999844874255, 0.11470000026747584, 0.11454999912530184, 0.11394999819458462, 0.11470000026747584, 0.11819999781437218, 0.1144499983638525, 0.11440000162110664, 0.11684999844874255, 0.23820000205887482, 0.10769999789772555, 0.21639999613398686, 0.16360000154236332, 0.12925000191899016, 0.12095000056433491, 0.1110500015784055, 0.1283999954466708, 0.11489999815239571, 0.11590000212891027, 0.11390000145183876, 0.13794999904348515, 0.11964999794145115, 0.11749999612220563, 0.11910000102943741, 0.1259499986190349, 0.11824999819509685, 0.11705000360962003, 0.11610000001383014, 0.11645000267890282, 0.1206499982799869, 0.11435000124038197, 0.11330000052112155, 0.11349999840604141, 0.11285000073257834, 0.1172499978565611, 0.11279999671387486, 0.11310000263620168, 0.11335000090184622, 0.11520000043674372, 0.11344999802531675, 0.1231500027643051, 0.11390000145183876, 0.11270000322838314, 0.11250000170548446, 0.12124999921070412, 0.12495000191847794, 0.12489999789977446, 0.12814999718102627, 0.11345000166329555, 0.11385000107111409, 0.11355000242474489, 0.11399999857530929, 0.11720000111381523, 0.112599998828955, 0.112749999971129, 0.11299999823677354, 0.11225000343983993, 0.1124500013247598, 0.11204999827896245, 0.11235000056331046, 0.11319999975967221, 0.11314999937894754, 0.12144999709562398, 0.12364999929559417, 0.11210000229766592, 0.11210000229766592, 0.11529999756021425, 0.11590000212891027, 0.11269999959040433, 0.11404999895603396, 0.11709999671438709, 0.11850000009872019, 0.11489999815239571, 0.11390000145183876, 0.1126000024669338, 0.11299999823677354, 0.11495000217109919, 0.11654999616439454, 0.11845000335597433, 0.1173999989987351, 0.1128999974753242, 0.12100000094505958, 0.11480000102892518, 0.11470000026747584, 0.11480000102892518, 0.11704999997164123, 0.1143000008596573, 0.11515000005601905, 0.11910000102943741, 0.11735000225598924, 0.11385000107111409, 0.11360000280546956, 0.1126000024669338, 0.1140000022132881, 0.12215000242576934, 0.11485000140964985, 0.12424999658833258, 0.12570000399136916, 0.1249999986612238, 0.15900000289548188, 0.11694999921019189, 0.11249999806750566, 0.1130499986174982, 0.11295000149402767, 0.11375000030966476, 0.11064999853260815, 0.112749999971129, 0.11174999963259324, 0.11435000124038197, 0.11140000060549937, 0.11330000052112155, 0.11264999920967966, 0.11254999844823033, 0.1147499970102217, 0.11294999785604887, 0.11209999865968712, 0.11344999802531675, 0.11395000183256343, 0.112599998828955, 0.11190000077476725, 0.12080000306013972, 0.11780000204453245, 0.12169999899924733, 0.11295000149402767, 0.1130499986174982, 0.11440000162110664, 0.11310000263620168, 0.11264999920967966, 0.11344999802531675, 0.11205000191694126, 0.11840000297524966, 0.11285000073257834, 0.11349999840604141, 0.1124500013247598, 0.11394999819458462, 0.12329999663052149, 0.12055000115651637, 0.1143000008596573, 0.11855000047944486, 0.1230000016221311, 0.11615000039455481, 0.11565000022528693, 0.11494999853312038, 0.11269999959040433, 0.11655000344035216, 0.11420000009820797, 0.11210000229766592, 0.11369999992894009, 0.11740000263671391, 0.12110000170650892, 0.11915000141016208, 0.11019999874406494, 0.11420000009820797, 0.11309999899822287, 0.11539999832166359, 0.11195000115549192, 0.11285000073257834, 0.11235000056331046, 0.11455000276328065, 0.11425000047893263, 0.1415999977325555, 0.11480000102892518, 0.12409999908413738, 0.11919999815290794],
  "QPU": "7000000",
  "Qubits": 2,
  "Queue durations [ms]": [0.0, 0.0, 0.0, 0.0, 0.0, 0.0, 0.0, 0.0, 0.0, 0.0, 0.0, 0.0, 0.0, 0.0, 0.0, 0.0, 0.0, 0.0, 0.0, 0.0, 0.0, 0.0, 0.0, 0.0, 0.0, 0.0, 0.0, 0.0, 0.0, 0.0, 0.0, 0.0, 0.0, 0.0, 0.0, 0.0, 0.0, 0.0, 0.0, 0.0, 0.0, 0.0, 0.0, 0.0, 0.0, 0.0, 0.0, 0.0, 0.0, 0.0, 0.0, 0.0, 0.0, 0.0, 0.0, 0.0, 0.0, 0.0, 0.0, 0.0, 0.0, 0.0, 0.0, 0.0, 0.0, 0.0, 0.0, 0.0, 0.0, 0.0, 0.0, 0.0, 0.0, 0.0, 0.0, 0.0, 0.0, 0.0, 0.0, 0.0, 0.0, 0.0, 0.0, 0.0, 0.0, 0.0, 0.0, 0.0, 0.0, 0.0, 0.0, 0.0, 0.0, 0.0, 0.0, 0.0, 0.0, 0.0, 0.0, 0.0, 0.0, 0.0, 0.0, 0.0, 0.0, 0.0, 0.0, 0.0, 0.0, 0.0, 0.0, 0.0, 0.0, 0.0, 0.0, 0.0, 0.0, 0.0, 0.0, 0.0, 0.0, 0.0, 0.0, 0.0, 0.0, 0.0, 0.0, 0.0, 0.0, 0.0, 0.0, 0.0, 0.0, 0.0, 0.0, 0.0, 0.0, 0.0, 0.0, 0.0, 0.0, 0.0, 0.0, 0.0, 0.0, 0.0, 0.0, 0.0, 0.0, 0.0, 0.0, 0.0, 0.0, 0.0, 0.0, 0.0, 0.0, 0.0, 0.0, 0.0, 0.0, 0.0, 0.0, 0.0, 0.0, 0.0, 0.0, 0.0, 0.0, 0.0, 0.0, 0.0, 0.0, 0.0, 0.0, 0.0, 0.0, 0.0, 0.0, 0.0, 0.0, 0.0, 0.0, 0.0, 0.0, 0.0, 0.0, 0.0, 0.0, 0.0, 0.0, 0.0, 0.0, 0.0, 0.0, 0.0, 0.0, 0.0, 0.0, 0.0, 0.0, 0.0, 0.0, 0.0, 0.0, 0.0, 0.0, 0.0, 0.0, 0.0, 0.0, 0.0, 0.0, 0.0, 0.0, 0.0, 0.0, 0.0, 0.0, 0.0, 0.0, 0.0, 0.0],
  "Shots": 4096,
  "Size": 2,
  "Total Algorithm duration [s]": 0.79,
  "Total Classic duration [s]": 0.7634707499810611,
  "Total Quantum duration [s]": 0.02652925001893891
}
