{
  "Circuit execution durations [ms]": [0.11535000157891773, 0.12685000547207892, 0.1749500042933505, 0.12145000073360279, 0.11749999976018444, 0.1200500009872485, 0.19009999596164562, 0.11634999827947468, 0.1144499983638525, 0.11435000124038197, 0.11434999760240316, 0.112900001113303, 0.112749999971129, 0.11280000035185367, 0.11300000187475234, 0.1200500009872485, 0.112900001113303, 0.11185000039404258, 0.11530000119819306, 0.11364999954821542, 0.112749999971129, 0.11965000157942995, 0.11929999891435727, 0.12029999925289303, 0.12375000005704351, 0.112900001113303, 0.11559999984456226, 0.1159999992523808, 0.11440000162110664, 0.1143000008596573, 0.11500000255182385, 0.11670000094454736, 0.11439999798312783, 0.11590000212891027, 0.11354999878676608, 0.1155499994638376, 0.11644999904092401, 0.1155500031018164, 0.11604999963310547, 0.11910000102943741, 0.1791499998944346, 0.11824999819509685, 0.1155499994638376, 0.23439999495167285, 0.1352500039502047, 0.2028500020969659, 0.16804999904707074, 0.1157000006060116, 0.11589999849093147, 0.11549999908311293, 0.11515000005601905, 0.12060000153724104, 0.1159999992523808, 0.11520000043674372, 0.11625000115600415, 0.11490000179037452, 0.11590000212891027, 0.11549999908311293, 0.11640000229817815, 0.11545000234036706, 0.12560000322991982, 0.11339999764459208, 0.1154000019596424, 0.11525000081746839, 0.11060000178986229, 0.11674999768729322, 0.11615000039455481, 0.118500003736699, 0.11719999747583643, 0.11784999878727831, 0.11690000246744603, 0.11920000179088674, 0.11870000162161887, 0.1186500012408942, 0.12110000534448773, 0.12349999815342017, 0.12599999899975955, 0.12274999608052894, 0.11675000132527202, 0.1158499981102068, 0.1157000006060116, 0.11744999574148096, 0.1157000006060116, 0.1175500001409091, 0.12254999819560908, 0.12040000001434237, 0.11789999916800298, 0.1189499998872634, 0.11744999937945977, 0.11624999751802534, 0.12715000048046932, 0.12360000255284831, 0.1169500028481707, 0.11729999823728576, 0.116149996756576, 0.11559999984456226, 0.11450000238255598, 0.12114999844925478, 0.11449999874457717, 0.11539999832166359, 0.1158500017481856, 0.11550000272109173, 0.1155499994638376, 0.11565000022528693, 0.11785000242525712, 0.14104999718256295, 0.1155499994638376, 0.1158499981102068, 0.1159999992523808, 0.11575000098673627, 0.1755499979481101, 0.11529999756021425, 0.11450000238255598, 0.11604999963310547, 0.11534999794093892, 0.11515000005601905, 0.11375000030966476, 0.11630000153672881, 0.11844999971799552, 0.11844999971799552, 0.11530000119819306, 0.1173999989987351, 0.11635000191745348, 0.11565000022528693, 0.1218999968841672, 0.11504999929456972, 0.11655000344035216, 0.11670000094454736, 0.1294999965466559, 0.12324999624979682, 0.12179999612271786, 0.12024999523418956, 0.11694999921019189, 0.1468499976908788, 0.11660000018309802, 0.12045000039506704, 0.1126000024669338, 0.12074999904143624, 0.11544999870238826, 0.1250000022992026, 0.11815000107162632, 0.11639999866019934, 0.11785000242525712, 0.11499999891384505, 0.11124999946332537, 0.11449999874457717, 0.11434999760240316, 0.11600000289035961, 0.11544999870238826, 0.11699999595293775, 0.11805000394815579, 0.12185000014142133, 0.11644999904092401, 0.11530000119819306, 0.11499999891384505, 0.11525000081746839, 0.11730000187526457, 0.11505000293254852, 0.1147499970102217, 0.11615000039455481, 0.11635000191745348, 0.12200000128359534, 0.11160000212839805],
  "Depth": 6.5,
  "Expectation Value": -2.2306482791900635,
  "Optimal Expectation Value": -2.2360680103302,
  "Optimizer durations [ms]": [14.454, 3.508, 4.621, 3.454, 3.298, 3.364, 4.729, 3.316, 4.774, 3.276, 3.272, 3.245, 3.232, 3.236, 3.236, 3.435, 3.304, 3.237, 13.108, 5.629, 3.391, 3.448, 3.409, 3.289, 3.596, 3.317, 3.259, 3.227, 3.253, 3.209, 3.235, 3.278, 3.203, 3.225, 3.21, 3.255, 3.942, 3.227, 3.271, 3.309, 4.647, 3.44, 3.334, 5.733, 13.036, 8.952, 5.405, 3.819, 3.268, 3.227, 3.229, 3.365, 3.281, 3.272, 3.326, 3.247, 3.299, 3.27, 3.306, 3.272, 3.773, 3.247, 3.291, 3.243, 3.097, 3.217, 8.282, 3.338, 3.42, 3.405, 3.453, 3.34, 3.269, 3.332, 3.466, 3.399, 3.607, 3.713, 3.338, 3.28, 3.27, 3.372, 3.234, 3.321, 3.488, 3.41, 3.352, 3.462, 3.407, 3.311, 3.61, 3.418, 3.317, 3.357, 3.28, 3.27, 3.263, 3.414, 3.27, 3.294, 3.277, 3.262, 3.292, 3.219, 3.315, 3.767, 3.285, 3.24, 3.234, 3.245, 4.47, 3.221, 3.334, 3.238, 3.253, 3.244, 3.242, 3.237, 3.395, 3.466, 3.252, 3.355, 3.262, 3.234, 3.477, 3.281, 3.254, 3.266, 3.622, 3.502, 3.47, 3.408, 3.323, 4.418, 3.308, 3.528, 3.318, 3.379, 3.312, 3.571, 3.378, 3.269, 3.437, 3.241, 3.08, 3.226, 3.199, 3.271, 3.26, 3.395, 3.374, 3.476, 3.294, 3.229, 3.226, 3.26, 3.299, 3.223, 3.207, 3.28, 3.262, 3.606, 3.177],
  "Optimizer iterations": 163,
  "Optimizer params": [0.084239412579353, 0.9932297573299838, 0.8116542439348909, 0.5160480972157062, 0.9991728471313376, 0.0, 0.41228541978630484, 0.7785698137309991],
  "P": 0,
  "Problem": "IC",
  "QJob durations [ms]": [0.11535000157891773, 0.12685000547207892, 0.1749500042933505, 0.12145000073360279, 0.11749999976018444, 0.1200500009872485, 0.19009999596164562, 0.11634999827947468, 0.1144499983638525, 0.11435000124038197, 0.11434999760240316, 0.112900001113303, 0.112749999971129, 0.11280000035185367, 0.11300000187475234, 0.1200500009872485, 0.112900001113303, 0.11185000039404258, 0.11530000119819306, 0.11364999954821542, 0.112749999971129, 0.11965000157942995, 0.11929999891435727, 0.12029999925289303, 0.12375000005704351, 0.112900001113303, 0.11559999984456226, 0.1159999992523808, 0.11440000162110664, 0.1143000008596573, 0.11500000255182385, 0.11670000094454736, 0.11439999798312783, 0.11590000212891027, 0.11354999878676608, 0.1155499994638376, 0.11644999904092401, 0.1155500031018164, 0.11604999963310547, 0.11910000102943741, 0.1791499998944346, 0.11824999819509685, 0.1155499994638376, 0.23439999495167285, 0.1352500039502047, 0.2028500020969659, 0.16804999904707074, 0.1157000006060116, 0.11589999849093147, 0.11549999908311293, 0.11515000005601905, 0.12060000153724104, 0.1159999992523808, 0.11520000043674372, 0.11625000115600415, 0.11490000179037452, 0.11590000212891027, 0.11549999908311293, 0.11640000229817815, 0.11545000234036706, 0.12560000322991982, 0.11339999764459208, 0.1154000019596424, 0.11525000081746839, 0.11060000178986229, 0.11674999768729322, 0.11615000039455481, 0.118500003736699, 0.11719999747583643, 0.11784999878727831, 0.11690000246744603, 0.11920000179088674, 0.11870000162161887, 0.1186500012408942, 0.12110000534448773, 0.12349999815342017, 0.12599999899975955, 0.12274999608052894, 0.11675000132527202, 0.1158499981102068, 0.1157000006060116, 0.11744999574148096, 0.1157000006060116, 0.1175500001409091, 0.12254999819560908, 0.12040000001434237, 0.11789999916800298, 0.1189499998872634, 0.11744999937945977, 0.11624999751802534, 0.12715000048046932, 0.12360000255284831, 0.1169500028481707, 0.11729999823728576, 0.116149996756576, 0.11559999984456226, 0.11450000238255598, 0.12114999844925478, 0.11449999874457717, 0.11539999832166359, 0.1158500017481856, 0.11550000272109173, 0.1155499994638376, 0.11565000022528693, 0.11785000242525712, 0.14104999718256295, 0.1155499994638376, 0.1158499981102068, 0.1159999992523808, 0.11575000098673627, 0.1755499979481101, 0.11529999756021425, 0.11450000238255598, 0.11604999963310547, 0.11534999794093892, 0.11515000005601905, 0.11375000030966476, 0.11630000153672881, 0.11844999971799552, 0.11844999971799552, 0.11530000119819306, 0.1173999989987351, 0.11635000191745348, 0.11565000022528693, 0.1218999968841672, 0.11504999929456972, 0.11655000344035216, 0.11670000094454736, 0.1294999965466559, 0.12324999624979682, 0.12179999612271786, 0.12024999523418956, 0.11694999921019189, 0.1468499976908788, 0.11660000018309802, 0.12045000039506704, 0.1126000024669338, 0.12074999904143624, 0.11544999870238826, 0.1250000022992026, 0.11815000107162632, 0.11639999866019934, 0.11785000242525712, 0.11499999891384505, 0.11124999946332537, 0.11449999874457717, 0.11434999760240316, 0.11600000289035961, 0.11544999870238826, 0.11699999595293775, 0.11805000394815579, 0.12185000014142133, 0.11644999904092401, 0.11530000119819306, 0.11499999891384505, 0.11525000081746839, 0.11730000187526457, 0.11505000293254852, 0.1147499970102217, 0.11615000039455481, 0.11635000191745348, 0.12200000128359534, 0.11160000212839805],
  "QPU": "7000000",
  "Qubits": 2,
  "Queue durations [ms]": [0.0, 0.0, 0.0, 0.0, 0.0, 0.0, 0.0, 0.0, 0.0, 0.0, 0.0, 0.0, 0.0, 0.0, 0.0, 0.0, 0.0, 0.0, 0.0, 0.0, 0.0, 0.0, 0.0, 0.0, 0.0, 0.0, 0.0, 0.0, 0.0, 0.0, 0.0, 0.0, 0.0, 0.0, 0.0, 0.0, 0.0, 0.0, 0.0, 0.0, 0.0, 0.0, 0.0, 0.0, 0.0, 0.0, 0.0, 0.0, 0.0, 0.0, 0.0, 0.0, 0.0, 0.0, 0.0, 0.0, 0.0, 0.0, 0.0, 0.0, 0.0, 0.0, 0.0, 0.0, 0.0, 0.0, 0.0, 0.0, 0.0, 0.0, 0.0, 0.0, 0.0, 0.0, 0.0, 0.0, 0.0, 0.0, 0.0, 0.0, 0.0, 0.0, 0.0, 0.0, 0.0, 0.0, 0.0, 0.0, 0.0, 0.0, 0.0, 0.0, 0.0, 0.0, 0.0, 0.0, 0.0, 0.0, 0.0, 0.0, 0.0, 0.0, 0.0, 0.0, 0.0, 0.0, 0.0, 0.0, 0.0, 0.0, 0.0, 0.0, 0.0, 0.0, 0.0, 0.0, 0.0, 0.0, 0.0, 0.0, 0.0, 0.0, 0.0, 0.0, 0.0, 0.0, 0.0, 0.0, 0.0, 0.0, 0.0, 0.0, 0.0, 0.0, 0.0, 0.0, 0.0, 0.0, 0.0, 0.0, 0.0, 0.0, 0.0, 0.0, 0.0, 0.0, 0.0, 0.0, 0.0, 0.0, 0.0, 0.0, 0.0, 0.0, 0.0, 0.0, 0.0, 0.0, 0.0, 0.0, 0.0, 0.0, 0.0],
  "Shots": 4096,
  "Size": 2,
  "Total Algorithm duration [s]": 0.599,
  "Total Classic duration [s]": 0.5793527499861957,
  "Total Quantum duration [s]": 0.019647250013804296
}
