{
  "Circuit execution durations [ms]": [0.11970000196015462, 0.11300000187475234, 0.12769999739248306, 0.12129999959142879, 0.11369999992894009, 0.12665000031120144, 0.1141499997174833, 0.11799999629147351, 0.1159999992523808, 0.11319999975967221, 0.11354999878676608, 0.11475000064820051, 0.11744999937945977, 0.11169999925186858, 0.1166500042018015, 0.11509999967529438, 0.11295000149402767, 0.11869999798364006, 0.11409999933675863, 0.11234999692533165, 0.11299999823677354, 0.12124999557272531, 0.1216000018757768, 0.11604999963310547, 0.11785000242525712, 0.11859999722219072, 0.12179999976069666, 0.11520000043674372, 0.11285000073257834, 0.112599998828955, 0.12369999603834003, 0.11319999975967221, 0.11210000229766592, 0.11085000005550683, 0.11280000035185367, 0.11230000018258579, 0.11235000056331046, 0.1124500013247598, 0.11250000170548446, 0.11265000284765847, 0.12584999785758555, 0.11280000035185367, 0.12170000263722613, 0.11209999865968712, 0.11735000225598924, 0.11509999967529438, 0.11285000073257834, 0.11235000056331046, 0.11305000225547701, 0.1124500013247598, 0.11305000225547701, 0.11280000035185367, 0.11249999806750566, 0.11855000047944486, 0.1128999974753242, 0.11235000056331046, 0.11870000162161887, 0.11244999768678099, 0.11224999980186112, 0.1144499983638525, 0.112749999971129, 0.11250000170548446, 0.11610000001383014, 0.11300000187475234, 0.11399999857530929, 0.11380000069038942, 0.11219999942113645, 0.1203499996336177, 0.11390000145183876, 0.11354999878676608, 0.11279999671387486, 0.11244999768678099, 0.11660000382107683, 0.11310000263620168, 0.1140000022132881, 0.11670000458252616, 0.11915000141016208, 0.12494999828049913, 0.11730000187526457, 0.11200000153621659, 0.11325000014039688, 0.11110000195913017, 0.15254999743774533, 0.11309999899822287, 0.11265000284765847, 0.11210000229766592, 0.11319999975967221, 0.11475000064820051, 0.112900001113303, 0.11715000437106937, 0.11420000009820797, 0.11335000090184622, 0.11684999844874255, 0.11385000107111409, 0.112749999971129, 0.11294999785604887, 0.11309999899822287, 0.11484999777167104, 0.11164999887114391, 0.11285000073257834, 0.11115000233985484, 0.11345000166329555, 0.11204999827896245, 0.11364999954821542, 0.11269999959040433, 0.11834999895654619, 0.11314999937894754, 0.11250000170548446, 0.30139999944367446],
  "Depth": 6.5,
  "Expectation Value": -2.234978199005127,
  "Optimal Expectation Value": -2.2360680103302,
  "Optimizer durations [ms]": [3.623, 3.255, 3.62, 3.441, 3.365, 3.918, 3.344, 3.525, 3.407, 3.249, 3.267, 3.288, 3.385, 3.199, 3.309, 3.25, 3.336, 3.442, 3.247, 3.224, 3.233, 3.421, 3.53, 3.199, 3.32, 3.452, 3.45, 3.315, 3.268, 3.24, 3.952, 3.257, 3.174, 3.22, 3.212, 3.3, 3.303, 3.243, 3.248, 3.27, 3.424, 3.233, 3.518, 3.253, 3.323, 3.23, 3.23, 3.232, 3.239, 3.17, 3.245, 3.253, 3.096, 3.442, 3.765, 3.223, 3.446, 3.228, 3.303, 3.284, 3.236, 3.263, 3.273, 3.229, 4.202, 3.269, 3.239, 3.417, 3.234, 3.273, 3.287, 3.289, 3.278, 3.255, 3.247, 3.371, 3.364, 3.451, 3.351, 3.246, 3.265, 3.185, 4.12, 3.198, 3.251, 3.219, 3.318, 3.222, 3.248, 3.566, 3.282, 3.333, 3.37, 3.199, 3.249, 3.222, 3.226, 3.302, 3.207, 3.264, 3.222, 3.248, 3.261, 3.275, 3.236, 3.335, 3.277, 3.276, 6.518],
  "Optimizer iterations": 109,
  "Optimizer params": [0.9254950935580879, 0.48211586021279035, 0.8379444603406688, 0.969725437686302, 0.9964159076389791, 0.521781463913072, 0.8542826721582442, 0.3109463103282648],
  "P": 0,
  "Problem": "IC",
  "QJob durations [ms]": [0.11970000196015462, 0.11300000187475234, 0.12769999739248306, 0.12129999959142879, 0.11369999992894009, 0.12665000031120144, 0.1141499997174833, 0.11799999629147351, 0.1159999992523808, 0.11319999975967221, 0.11354999878676608, 0.11475000064820051, 0.11744999937945977, 0.11169999925186858, 0.1166500042018015, 0.11509999967529438, 0.11295000149402767, 0.11869999798364006, 0.11409999933675863, 0.11234999692533165, 0.11299999823677354, 0.12124999557272531, 0.1216000018757768, 0.11604999963310547, 0.11785000242525712, 0.11859999722219072, 0.12179999976069666, 0.11520000043674372, 0.11285000073257834, 0.112599998828955, 0.12369999603834003, 0.11319999975967221, 0.11210000229766592, 0.11085000005550683, 0.11280000035185367, 0.11230000018258579, 0.11235000056331046, 0.1124500013247598, 0.11250000170548446, 0.11265000284765847, 0.12584999785758555, 0.11280000035185367, 0.12170000263722613, 0.11209999865968712, 0.11735000225598924, 0.11509999967529438, 0.11285000073257834, 0.11235000056331046, 0.11305000225547701, 0.1124500013247598, 0.11305000225547701, 0.11280000035185367, 0.11249999806750566, 0.11855000047944486, 0.1128999974753242, 0.11235000056331046, 0.11870000162161887, 0.11244999768678099, 0.11224999980186112, 0.1144499983638525, 0.112749999971129, 0.11250000170548446, 0.11610000001383014, 0.11300000187475234, 0.11399999857530929, 0.11380000069038942, 0.11219999942113645, 0.1203499996336177, 0.11390000145183876, 0.11354999878676608, 0.11279999671387486, 0.11244999768678099, 0.11660000382107683, 0.11310000263620168, 0.1140000022132881, 0.11670000458252616, 0.11915000141016208, 0.12494999828049913, 0.11730000187526457, 0.11200000153621659, 0.11325000014039688, 0.11110000195913017, 0.15254999743774533, 0.11309999899822287, 0.11265000284765847, 0.11210000229766592, 0.11319999975967221, 0.11475000064820051, 0.112900001113303, 0.11715000437106937, 0.11420000009820797, 0.11335000090184622, 0.11684999844874255, 0.11385000107111409, 0.112749999971129, 0.11294999785604887, 0.11309999899822287, 0.11484999777167104, 0.11164999887114391, 0.11285000073257834, 0.11115000233985484, 0.11345000166329555, 0.11204999827896245, 0.11364999954821542, 0.11269999959040433, 0.11834999895654619, 0.11314999937894754, 0.11250000170548446, 0.30139999944367446],
  "QPU": "7000000",
  "Qubits": 2,
  "Queue durations [ms]": [0.0, 0.0, 0.0, 0.0, 0.0, 0.0, 0.0, 0.0, 0.0, 0.0, 0.0, 0.0, 0.0, 0.0, 0.0, 0.0, 0.0, 0.0, 0.0, 0.0, 0.0, 0.0, 0.0, 0.0, 0.0, 0.0, 0.0, 0.0, 0.0, 0.0, 0.0, 0.0, 0.0, 0.0, 0.0, 0.0, 0.0, 0.0, 0.0, 0.0, 0.0, 0.0, 0.0, 0.0, 0.0, 0.0, 0.0, 0.0, 0.0, 0.0, 0.0, 0.0, 0.0, 0.0, 0.0, 0.0, 0.0, 0.0, 0.0, 0.0, 0.0, 0.0, 0.0, 0.0, 0.0, 0.0, 0.0, 0.0, 0.0, 0.0, 0.0, 0.0, 0.0, 0.0, 0.0, 0.0, 0.0, 0.0, 0.0, 0.0, 0.0, 0.0, 0.0, 0.0, 0.0, 0.0, 0.0, 0.0, 0.0, 0.0, 0.0, 0.0, 0.0, 0.0, 0.0, 0.0, 0.0, 0.0, 0.0, 0.0, 0.0, 0.0, 0.0, 0.0, 0.0, 0.0, 0.0, 0.0, 0.0],
  "Shots": 4096,
  "Size": 2,
  "Total Algorithm duration [s]": 0.366,
  "Total Classic duration [s]": 0.35324924998532514,
  "Total Quantum duration [s]": 0.01275075001467485
}
