{
  "Circuit execution durations [ms]": [25.500000454485416, 24.999999441206455, 31.000000424683094, 23.000000044703484, 24.000000208616257, 24.500000290572643, 24.000000208616257, 24.000000208616257, 29.000001028180122, 32.99999888986349, 26.000000536441803, 22.499999962747097, 22.499999962747097, 24.500000290572643, 25.00000037252903, 30.499999411404133, 26.000000536441803, 34.49999913573265, 22.499999962747097, 23.50000012665987, 24.500000290572643, 25.99999960511923, 69.0000019967556, 25.00000037252903, 111.50000058114529, 25.00000037252903, 34.00000091642141, 36.50000039488077, 46.999999321997166, 24.000000208616257, 27.500000782310963, 21.499999798834324, 32.49999973922968, 25.500000454485416, 20.999999716877937, 22.499999962747097, 23.50000012665987, 23.000000044703484, 22.499999962747097, 27.499999850988388, 22.499999962747097, 21.99999988079071, 23.000000044703484, 21.499999798834324, 28.00000086426735, 23.000000044703484, 21.499999798834324, 23.000000044703484, 37.99999970942736, 79.00000270456076, 28.00000086426735, 23.000000044703484, 21.99999988079071, 20.999999716877937, 23.000000044703484, 60.999998822808266, 22.499999962747097, 25.500000454485416, 33.00000075250864, 24.000000208616257, 23.000000044703484, 29.500000178813934, 29.999999329447746, 36.50000039488077, 23.50000012665987, 26.999999769032, 21.99999988079071, 47.00000025331974, 26.999999769032, 23.50000012665987, 21.99999988079071, 21.99999988079071, 22.499999962747097, 21.499999798834324, 24.000000208616257, 38.49999979138374, 112.49999888241291, 21.99999988079071, 23.000000044703484, 28.50000001490116, 21.499999798834324, 23.50000012665987, 24.000000208616257, 20.999999716877937, 24.000000208616257, 33.49999990314245, 25.99999960511923, 23.50000012665987, 24.000000208616257, 26.499999687075615, 23.000000044703484, 27.000000700354576, 24.500000290572643, 28.50000001490116, 31.000000424683094, 29.000000096857548, 24.500000290572643, 47.999998554587364, 26.999999769032, 23.50000012665987, 72.00000062584877, 24.000000208616257, 50.000001676380634, 26.000000536441803, 21.99999988079071, 28.500000946223736, 27.000000700354576, 23.50000012665987, 26.000000536441803, 58.00000112503767, 23.50000012665987, 23.000000044703484, 21.99999988079071, 24.000000208616257, 37.00000047683716, 25.500000454485416, 42.500000447034836, 25.00000037252903, 35.00000014901161, 26.000000536441803, 26.000000536441803, 30.99999949336052, 22.499999962747097, 24.500000290572643, 24.000000208616257],
  "Depth": 2.0,
  "Expectation Value": -4.270891189575195,
  "Optimal Expectation Value": -4.281300067901611,
  "Optimizer durations [ms]": [12100.088, 12016.924, 12101.889, 12351.588, 12623.26, 12527.49, 12227.188, 12146.541, 12244.399, 12219.018, 12002.095, 12071.999, 12087.602, 12012.963, 12006.492, 11922.973, 12378.902, 12197.777, 12115.227, 17337.866, 12136.844, 12305.032, 12026.341, 12098.448, 12043.713, 12279.153, 12212.025, 11977.363, 12195.719, 12482.37, 12248.271, 12150.251, 12003.625, 12007.971, 12104.197, 12217.874, 12188.988, 12079.423, 11969.501, 12013.904, 12134.972, 12389.053, 11986.232, 11950.497, 12204.034, 11924.071, 12160.856, 12168.334, 12185.884, 11918.73, 11996.887, 12262.813, 12077.078, 12108.772, 12113.729, 13978.933, 11961.437, 12061.921, 12134.041, 11981.32, 12312.488, 11978.787, 12344.28, 12159.962, 12123.023, 12142.473, 13966.146, 12334.147, 12034.321, 12243.32, 12120.464, 11973.57, 12071.412, 12243.899, 14212.484, 12179.425, 12017.9, 11981.844, 12262.01, 11953.992, 12018.026, 12162.201, 11963.084, 12131.836, 12216.185, 12516.828, 12307.505, 12100.13, 12101.19, 12143.591, 11975.277, 12042.601, 12219.304, 11999.413, 11972.9, 12264.745, 12539.66, 12103.563, 12007.612, 12146.255, 12158.148, 12171.709, 12137.572, 12088.895, 12362.589, 12032.146, 12493.511, 14189.497, 12042.432, 12144.915, 12205.058, 11999.79, 12341.782, 12019.65, 12156.782, 12274.203, 12252.994, 11943.943, 11984.948, 12046.759, 12139.316, 11920.97, 11999.503, 12126.113, 12158.544],
  "Optimizer iterations": 125,
  "Optimizer params": [2.710505431213761e-20, 0.5083338452033689, 0.9858474887777625, 0.4804894038528074, 0.5018022342733431, 0.0006481866415103917, 0.49209545061970505],
  "P": 0,
  "Problem": "RH",
  "QJob durations [ms]": [5986.796617507935, 5967.901706695557, 6010.513067245483, 6135.445594787598, 6249.511957168579, 6222.92423248291, 6072.620630264282, 6032.627582550049, 6059.831142425537, 6068.669319152832, 5960.7648849487305, 5995.338439941406, 5980.431318283081, 5965.514898300171, 5962.1782302856445, 5921.322345733643, 6126.769781112671, 6058.4282875061035, 6016.835927963257, 8628.647804260254, 6005.6211948394775, 6111.7963790893555, 5971.874952316284, 6008.398771286011, 5959.137916564941, 6099.345922470093, 6064.828395843506, 5947.962760925293, 6035.607099533081, 6200.384140014648, 6083.318710327148, 6034.9626541137695, 5939.036130905151, 5963.50359916687, 6011.375427246094, 6067.669153213501, 6032.206058502197, 5998.841285705566, 5943.552494049072, 5966.629981994629, 6003.590106964111, 6153.741836547852, 5952.282667160034, 5934.800386428833, 6040.008544921875, 5920.665740966797, 6040.108203887939, 6043.094873428345, 6029.697895050049, 5918.319940567017, 5957.846403121948, 6091.046333312988, 5976.067304611206, 6013.371467590332, 6016.41583442688, 6948.915004730225, 5917.755126953125, 5990.225315093994, 6025.058031082153, 5949.572324752808, 6094.575881958008, 5948.930263519287, 6131.6869258880615, 6039.636135101318, 5998.82173538208, 6030.921459197998, 6942.598819732666, 6126.817226409912, 5954.987525939941, 6080.682754516602, 6019.563436508179, 5946.278095245361, 5973.15526008606, 6081.164836883545, 7064.919948577881, 6049.2424964904785, 5946.988821029663, 5950.311660766602, 6090.391635894775, 5936.576843261719, 5945.934772491455, 6040.320158004761, 5940.817594528198, 6025.588035583496, 6045.531511306763, 6217.441558837891, 6112.868070602417, 6009.793758392334, 5987.696409225464, 6031.051397323608, 5947.376251220703, 5981.129884719849, 6046.683549880981, 5959.014654159546, 5946.09260559082, 6091.662406921387, 6207.046747207642, 6010.87760925293, 5963.215112686157, 6032.520055770874, 6016.647815704346, 6044.906377792358, 6028.017044067383, 6004.374742507935, 6118.693828582764, 5975.243091583252, 6206.5160274505615, 7053.988218307495, 5958.720922470093, 6030.837297439575, 6062.045097351074, 5960.082054138184, 6107.9912185668945, 5969.194412231445, 6037.766695022583, 6096.605062484741, 6064.388751983643, 5930.368661880493, 5951.756715774536, 5982.860088348389, 6007.128715515137, 5919.374227523804, 5958.733558654785, 6022.218465805054, 6017.150640487671],
  "QPU": "10000001",
  "Qubits": 7,
  "Queue durations [ms]": [0.0, 0.0, 0.0, 0.0, 0.0, 0.0, 0.0, 0.0, 0.0, 0.0, 0.0, 0.0, 0.0, 0.0, 0.0, 0.0, 0.0, 0.0, 0.0, 0.0, 0.0, 0.0, 0.0, 0.0, 0.0, 0.0, 0.0, 0.0, 0.0, 0.0, 0.0, 0.0, 0.0, 0.0, 0.0, 0.0, 0.0, 0.0, 0.0, 0.0, 0.0, 0.0, 0.0, 0.0, 0.0, 0.0, 0.0, 0.0, 0.0, 0.0, 0.0, 0.0, 0.0, 0.0, 0.0, 0.0, 0.0, 0.0, 0.0, 0.0, 0.0, 0.0, 0.0, 0.0, 0.0, 0.0, 0.0, 0.0, 0.0, 0.0, 0.0, 0.0, 0.0, 0.0, 0.0, 0.0, 0.0, 0.0, 0.0, 0.0, 0.0, 0.0, 0.0, 0.0, 0.0, 0.0, 0.0, 0.0, 0.0, 0.0, 0.0, 0.0, 0.0, 0.0, 0.0, 0.0, 0.0, 0.0, 0.0, 0.0, 0.0, 0.0, 0.0, 0.0, 0.0, 0.0, 0.0, 0.0, 0.0, 0.0, 0.0, 0.0, 0.0, 0.0, 0.0, 0.0, 0.0, 0.0, 0.0, 0.0, 0.0, 0.0, 0.0, 0.0, 0.0],
  "Shots": 4096,
  "Size": 7,
  "Total Algorithm duration [s]": 1530.112,
  "Total Classic duration [s]": 770.8437662239076,
  "Total Quantum duration [s]": 759.2682337760925
}
