{
  "Circuit execution durations [ms]": [11.500000022351742, 13.500000350177288, 10.999999940395355, 13.999999966472387, 15.49999974668026, 17.999999690800905, 12.000000104308128, 12.500000186264515, 14.499999582767487, 11.500000022351742, 12.500000186264515, 12.999999802559614, 13.499999884516, 13.000000268220901, 13.499999884516, 13.500000350177288, 14.999999664723873, 18.000000156462193, 20.00000048428774, 14.000000432133675, 14.500000514090061, 12.500000186264515, 13.000000268220901, 14.000000432133675, 11.500000022351742, 14.999999664723873, 15.500000212341547, 14.999999664723873, 14.500000514090061, 12.000000104308128, 12.500000186264515, 16.499999910593033, 24.00000113993883, 10.999999940395355, 20.49999963492155, 12.500000186264515, 13.000000268220901, 12.000000104308128, 12.000000104308128, 13.499999884516, 13.000000268220901, 15.999999828636646, 12.500000186264515, 16.499999910593033, 13.499999884516, 16.499999444931746, 16.00000075995922, 12.000000104308128, 12.000000104308128, 12.500000186264515, 13.499999884516, 13.000000268220901, 14.500000514090061, 13.499999884516, 13.499999884516, 15.999999828636646, 13.999999966472387, 15.000000596046448, 12.500000186264515, 13.500000350177288, 12.500000186264515, 12.999999802559614, 13.999999966472387, 13.000000268220901, 13.999999966472387, 12.000000104308128, 12.000000104308128, 20.999999716877937, 12.500000186264515, 14.000000432133675, 16.999999526888132, 17.500000074505806, 15.999999828636646, 12.000000104308128, 12.499999720603228, 20.49999963492155, 11.500000022351742, 13.499999884516, 16.499999910593033, 13.000000268220901, 12.999999802559614, 10.999999940395355, 12.500000186264515, 12.499999720603228, 12.500000186264515, 11.500000022351742, 11.500000022351742, 12.000000104308128, 10.999999940395355, 22.50000089406967, 19.499999471008778, 14.000000432133675, 16.00000075995922, 13.000000268220901, 13.499999884516, 12.500000186264515, 12.000000104308128, 12.000000104308128, 15.999999828636646, 16.499999444931746, 14.500000048428774, 15.49999974668026, 11.500000022351742, 12.999999802559614, 13.000000268220901, 14.500000048428774, 11.500000022351742, 15.500000678002834, 14.999999664723873, 13.500000350177288, 14.999999664723873, 11.500000022351742, 11.500000022351742, 14.999999664723873, 12.000000104308128, 17.500000074505806, 12.000000104308128, 15.999999828636646, 13.500000350177288, 11.500000022351742, 13.000000268220901, 11.500000022351742, 14.000000432133675, 15.49999974668026, 12.500000186264515, 12.000000104308128, 14.000000432133675, 12.000000104308128, 12.500000186264515, 14.500000048428774, 11.500000022351742, 13.000000268220901, 10.999999940395355, 11.500000022351742, 14.999999664723873, 15.999999828636646, 15.500000678002834, 13.000000268220901, 12.000000104308128, 13.000000268220901, 13.499999884516, 27.999999932944775, 14.000000432133675, 14.500000514090061, 15.49999974668026, 12.500000186264515, 10.999999940395355, 12.500000186264515, 13.999999966472387],
  "Depth": 8.5,
  "Expectation Value": -3.2705078125,
  "Optimal Expectation Value": -3.4939591884613037,
  "Optimizer durations [ms]": [11668.288, 11628.427, 11737.846, 11613.871, 11969.739, 11611.349, 11877.659, 11621.733, 12039.812, 11719.278, 11624.298, 11678.785, 11715.822, 11536.949, 11584.292, 11956.723, 11830.098, 11581.812, 11808.811, 11909.181, 11839.064, 11706.281, 11843.138, 11775.603, 11641.058, 11633.75, 11897.14, 11636.512, 11793.114, 11769.082, 11767.622, 11843.456, 11706.367, 11901.587, 11677.46, 11582.336, 11700.33, 11838.375, 11808.446, 11966.12, 11753.89, 11683.029, 11869.873, 11623.722, 11745.4, 11701.495, 11848.807, 11658.186, 11815.323, 11577.625, 11632.219, 11748.662, 11535.228, 11775.309, 11847.62, 11887.816, 11800.255, 11823.997, 11661.785, 11906.438, 11909.272, 12100.229, 11584.044, 11682.966, 11686.621, 11607.744, 11672.207, 11671.637, 11850.243, 11957.086, 11916.099, 11664.265, 11874.064, 11789.646, 11731.884, 11698.737, 11601.844, 11646.534, 11794.622, 11725.74, 11789.178, 11594.004, 11888.189, 11694.67, 11604.807, 11798.588, 11783.91, 11736.798, 11657.628, 11707.879, 11972.235, 11862.328, 11725.354, 11624.274, 11777.255, 11678.533, 12093.162, 12199.244, 11701.969, 11704.873, 11555.692, 11644.701, 11653.987, 11860.983, 11860.88, 11658.308, 11918.749, 11666.013, 11646.467, 11613.777, 11677.277, 11635.699, 11573.071, 11579.722, 11847.101, 11901.516, 11881.136, 11733.327, 11569.906, 11736.355, 11701.013, 11918.368, 11822.36, 11748.706, 12011.0, 11814.576, 11747.999, 11875.578, 11848.323, 11736.601, 11896.921, 11691.621, 12012.731, 11867.298, 11677.314, 11859.214, 11816.943, 11657.232, 11692.685, 11882.606, 11885.49, 11586.504, 11730.031, 11594.765, 11724.6, 11613.75, 11754.89, 11609.048, 12193.282],
  "Optimizer iterations": 149,
  "Optimizer params": [0.9361550687789291, 0.9430004488926411, 0.6012901936756131, 0.4569688157561689, 0.8385719735842716, 0.4506395480340765, 0.9883221292924403, 0.07470642234167876, 0.5552496840405027, 0.7742304358959545, 0.29181934458612446, 0.991602152914796],
  "P": 0,
  "Problem": "IC",
  "QJob durations [ms]": [5784.6479415893555, 5764.755010604858, 5818.151950836182, 5731.3172817230225, 5936.06424331665, 5757.973909378052, 5888.375520706177, 5734.485149383545, 5973.170280456543, 5809.794664382935, 5764.108896255493, 5766.212463378906, 5808.372974395752, 5720.359802246094, 5742.434978485107, 5898.037433624268, 5865.200757980347, 5744.349241256714, 5856.073379516602, 5876.039266586304, 5873.163938522339, 5803.0736446380615, 5872.286319732666, 5812.68310546875, 5772.454500198364, 5773.147344589233, 5899.8703956604, 5741.930961608887, 5849.348783493042, 5835.238218307495, 5835.01124382019, 5843.8520431518555, 5804.2051792144775, 5902.292251586914, 5789.896011352539, 5715.134143829346, 5802.266836166382, 5872.107028961182, 5855.42106628418, 5904.601573944092, 5828.420400619507, 5793.695449829102, 5885.577201843262, 5735.892295837402, 5827.12984085083, 5801.780700683594, 5878.473281860352, 5757.825613021851, 5858.815431594849, 5737.627983093262, 5766.970872879028, 5799.77560043335, 5722.348213195801, 5839.313983917236, 5878.105401992798, 5867.310523986816, 5850.125074386597, 5866.127014160156, 5781.966209411621, 5879.485607147217, 5907.989978790283, 6000.757217407227, 5743.805408477783, 5766.106367111206, 5794.618844985962, 5756.094932556152, 5788.391828536987, 5757.28178024292, 5879.602432250977, 5931.323528289795, 5909.940958023071, 5759.739398956299, 5888.649463653564, 5846.102237701416, 5817.887306213379, 5773.664474487305, 5751.595973968506, 5778.2883644104, 5849.159002304077, 5786.741256713867, 5848.054885864258, 5749.23849105835, 5895.021438598633, 5769.664525985718, 5752.14409828186, 5850.685596466064, 5842.16570854187, 5793.369770050049, 5781.968593597412, 5805.8435916900635, 5937.285900115967, 5855.107545852661, 5813.769817352295, 5763.61083984375, 5839.648246765137, 5761.419296264648, 6001.000165939331, 6051.877975463867, 5801.182508468628, 5775.687217712402, 5729.673385620117, 5773.487329483032, 5779.042720794678, 5856.760501861572, 5879.437446594238, 5781.852245330811, 5912.316799163818, 5757.497787475586, 5772.5183963775635, 5760.615825653076, 5788.562297821045, 5740.917921066284, 5737.200975418091, 5742.152690887451, 5874.653100967407, 5872.253179550171, 5891.741752624512, 5817.296504974365, 5735.662460327148, 5791.490077972412, 5800.373554229736, 5910.038471221924, 5862.534523010254, 5794.213771820068, 5957.4596881866455, 5860.090255737305, 5825.249433517456, 5858.633518218994, 5873.984336853027, 5818.612337112427, 5898.038387298584, 5770.205497741699, 5957.3564529418945, 5888.893604278564, 5791.139364242554, 5853.933811187744, 5859.039545059204, 5780.951499938965, 5797.022581100464, 5863.328695297241, 5895.346164703369, 5744.3687915802, 5817.519187927246, 5721.253871917725, 5812.427282333374, 5756.885766983032, 5829.068183898926, 5725.580215454102, 6047.80125617981],
  "QPU": "10000001",
  "Qubits": 3,
  "Queue durations [ms]": [0.0, 0.0, 0.0, 0.0, 0.0, 0.0, 0.0, 0.0, 0.0, 0.0, 0.0, 0.0, 0.0, 0.0, 0.0, 0.0, 0.0, 0.0, 0.0, 0.0, 0.0, 0.0, 0.0, 0.0, 0.0, 0.0, 0.0, 0.0, 0.0, 0.0, 0.0, 0.0, 0.0, 0.0, 0.0, 0.0, 0.0, 0.0, 0.0, 0.0, 0.0, 0.0, 0.0, 0.0, 0.0, 0.0, 0.0, 0.0, 0.0, 0.0, 0.0, 0.0, 0.0, 0.0, 0.0, 0.0, 0.0, 0.0, 0.0, 0.0, 0.0, 0.0, 0.0, 0.0, 0.0, 0.0, 0.0, 0.0, 0.0, 0.0, 0.0, 0.0, 0.0, 0.0, 0.0, 0.0, 0.0, 0.0, 0.0, 0.0, 0.0, 0.0, 0.0, 0.0, 0.0, 0.0, 0.0, 0.0, 0.0, 0.0, 0.0, 0.0, 0.0, 0.0, 0.0, 0.0, 0.0, 0.0, 0.0, 0.0, 0.0, 0.0, 0.0, 0.0, 0.0, 0.0, 0.0, 0.0, 0.0, 0.0, 0.0, 0.0, 0.0, 0.0, 0.0, 0.0, 0.0, 0.0, 0.0, 0.0, 0.0, 0.0, 0.0, 0.0, 0.0, 0.0, 0.0, 0.0, 0.0, 0.0, 0.0, 0.0, 0.0, 0.0, 0.0, 0.0, 0.0, 0.0, 0.0, 0.0, 0.0, 0.0, 0.0, 0.0, 0.0, 0.0, 0.0, 0.0, 0.0],
  "Shots": 4096,
  "Size": 3,
  "Total Algorithm duration [s]": 1751.884,
  "Total Classic duration [s]": 884.186353143692,
  "Total Quantum duration [s]": 867.697646856308
}
