{
  "Depth": 5.0,
  "Job durations [ms]": [7013.890266418457, 6661.682605743408, 6635.508060455322, 6630.467414855957, 6620.884418487549, 6614.672660827637, 6702.240943908691, 6829.798698425293, 6651.001930236816, 6663.178443908691, 6683.9399337768555, 6778.038024902344, 6674.771308898926, 6615.2496337890625, 6629.239082336426, 6626.194477081299, 6809.194564819336, 6570.69730758667, 6638.774871826172, 6603.132724761963, 6822.666168212891, 6665.813446044922, 6609.494209289551, 6648.568630218506, 6790.186882019043, 6905.888557434082, 6605.462074279785, 6747.373580932617, 6636.14559173584, 6665.47966003418, 6559.764862060547, 6616.127967834473],
  "Optimizer durations [ms]": [19876.508, 19676.782, 20311.358, 20853.567, 19111.446, 19442.002, 20684.044, 20293.398, 19404.687, 19763.246, 20570.92, 19919.636, 20030.772, 21219.764, 21165.104, 18426.828, 20266.786, 18360.452, 20338.596, 24711.398, 15210.253, 20170.213, 19932.765, 29607.388, 31036.906, 89975.776, 19513.043, 19948.861, 20667.121, 18957.383, 25865.389, 18809.168],
  "Optimizer iterations": 32,
  "Qubits": 1,
  "Total Algorithm duration [s]": 734.121,
  "Total Classic duration [s]": 520.1954709968567,
  "Total Quantum duration [s]": 213.9255290031433,
  "Expectation Value": -0.974609375,
  "Optimal Expectation Value": -1.0,
  "Optimizer params": [0.49978446073510824, 0.5000001267490101, 0.5001093337830114, 0.5000639448125668],
  "QPU": "402001B",
  "Problem": "IC",
  "Size": 1,
  "P": 0,
  "Shots": 4096
}