{
  "Depth": 293.0,
  "Expectation Value": -24.0,
  "Job durations [ms]": [2.9726000000000004, 2.9440999999999997, 2.9527, 2.9667, 2.9099999999999997, 2.9291, 2.9261999999999997, 1.8252, 3.1651000000000002, 2.0017, 1.7975999999999999, 2.9158999999999997, 1.8291, 2.9379, 2.954, 2.9221, 2.9363, 2.9708, 1.7985, 1.8185, 2.9322, 1.8239, 1.8201, 2.8494, 2.9742, 2.9556999999999998, 3.0059, 2.941, 2.9290000000000003, 2.9955, 2.9256, 3.0107, 2.9358, 3.02, 2.9337999999999997, 2.9089, 3.0533, 3.009, 2.9462, 2.9313, 2.9383, 2.947, 2.9261999999999997, 2.9208, 3.0991999999999997, 3.0125, 2.9267999999999996, 2.9331, 2.9206000000000003, 3.1283000000000003, 2.9746, 2.9236, 2.9433, 2.9245, 2.9385000000000003, 2.9672, 2.9118, 2.9392, 2.9332, 2.9367, 2.9808, 2.9612000000000003, 2.9764, 2.9996, 2.9584, 2.956, 2.9891, 2.947],
  "Optimal Expectation Value": -24.0,
  "Optimizer durations [ms]": [75.617, 74.567, 74.316, 74.509, 74.276, 74.453, 73.309, 63.331, 77.008, 70.479, 63.45, 73.384, 63.129, 74.182, 76.059, 73.096, 74.572, 75.027, 63.059, 62.919, 74.004, 63.674, 63.197, 81.318, 75.341, 74.655, 75.803, 74.555, 75.97, 75.587, 74.299, 75.818, 73.933, 75.04, 74.398, 74.857, 84.946, 75.64, 74.164, 74.656, 74.605, 73.835, 77.368, 73.28, 75.651, 75.098, 74.549, 73.891, 74.213, 81.973, 79.286, 74.315, 74.271, 73.581, 74.353, 74.437, 79.208, 74.112, 74.668, 73.511, 75.086, 74.815, 74.799, 81.046, 73.644, 74.32, 78.115, 74.9],
  "Optimizer iterations": 68,
  "Optimizer params": [0.08892459445991877, 0.12995574995875359, 0.8907663226127623, 0.8472797870635985, 0.22260236740112305, 0.38462871313095093],
  "P": 3,
  "Problem": "MCP",
  "QPU": "7000000",
  "Qubits": 16,
  "Shots": 4096,
  "Size": 16,
  "Total Algorithm duration [s]": 5.035,
  "Total Classic duration [s]": 4.8427105,
  "Total Quantum duration [s]": 0.19228949999999997
}
