{
  "Depth": 293.0,
  "Expectation Value": -22.85714340209961,
  "Job durations [ms]": [3.2163, 3.099, 3.0617, 3.0436, 2.9981999999999998, 3.0745999999999998, 3.2372, 1.8464, 3.0860000000000003, 1.9867000000000001, 3.0928, 1.9443, 3.0112, 1.9485999999999999, 1.9038, 3.1875, 1.9754999999999998, 3.0141, 1.8898000000000001, 3.1177, 1.8949, 3.0260000000000002, 1.9721, 1.8917000000000002, 3.0449, 3.0507, 3.048, 3.161, 3.0218, 3.0425999999999997, 3.0482, 3.0228, 3.0043, 3.074, 3.0089, 3.0023, 2.9968, 3.0442, 3.0563000000000002, 3.0705, 3.1675, 3.2567, 3.1148000000000002, 3.0284999999999997, 3.0296, 2.9333, 3.1368, 3.0153, 3.0318, 3.0411, 2.9640999999999997, 3.0695, 3.1878, 3.1555, 3.0824, 3.0841000000000003, 2.9566000000000003, 3.0728, 3.0463999999999998, 3.0541, 3.1162, 2.9804, 2.9394, 3.0864, 3.0225999999999997, 3.2462, 2.9962, 3.1355, 3.0121, 3.0258, 3.0412, 3.0481000000000003],
  "Optimal Expectation Value": -24.0,
  "Optimizer durations [ms]": [80.147, 76.431, 76.887, 76.3, 75.379, 75.865, 77.55, 64.826, 76.793, 65.819, 77.662, 66.123, 80.066, 65.325, 69.478, 77.459, 65.278, 75.832, 64.497, 77.177, 64.579, 76.327, 65.326, 64.206, 76.509, 75.373, 83.499, 77.036, 82.317, 76.669, 76.194, 75.916, 75.598, 76.398, 75.518, 75.658, 75.491, 76.711, 76.632, 82.774, 76.965, 78.323, 76.45, 76.232, 76.117, 80.644, 76.286, 75.835, 76.089, 76.786, 74.953, 76.354, 77.42, 76.778, 81.08, 76.599, 80.842, 76.446, 76.25, 76.31, 77.38, 75.584, 75.509, 77.06, 75.673, 78.036, 76.586, 82.049, 75.482, 76.218, 76.2, 89.11],
  "Optimizer iterations": 72,
  "Optimizer params": [0.2871783748269081, 0.9950714111328125, 0.13042714446783066, 0.9866083822078889, 0.0919262059032917, 0.7715633511543275],
  "P": 3,
  "Problem": "MCP",
  "QPU": "7000000",
  "Qubits": 16,
  "Shots": 4096,
  "Size": 16,
  "Total Algorithm duration [s]": 5.451,
  "Total Classic duration [s]": 5.241704199999999,
  "Total Quantum duration [s]": 0.20929580000000003
}
