{
  "Depth": 293.0,
  "Expectation Value": -24.0,
  "Job durations [ms]": [3.0514, 3.0322, 3.0141, 3.0101, 3.0436, 3.1077000000000004, 3.2269, 2.9385000000000003, 3.0828, 3.0105, 3.0373, 3.1063, 1.8636, 3.0595000000000003, 1.8461, 3.0988, 3.0292000000000003, 3.0393999999999997, 2.0927, 1.8522, 3.3087, 1.8375, 1.8894, 3.012, 1.9187, 2.9979, 2.9794, 3.0962, 3.022, 2.8454, 3.0624, 3.0991, 3.1670000000000003, 3.27, 3.2316, 2.9817, 2.9594, 5.4578, 3.0382000000000002, 3.0238, 3.0136, 2.9521, 3.0709999999999997, 3.1612, 3.0044999999999997, 2.9634, 3.2396, 2.7996000000000003, 3.0029000000000003, 3.0024, 3.0623, 2.9802, 3.0382000000000002, 2.9932000000000003, 3.0657, 2.9853, 3.0806, 2.9922, 3.0603000000000002, 3.3273, 2.7311, 3.0062, 3.0197000000000003, 3.0691, 2.9821999999999997, 3.0599999999999996, 2.9976],
  "Optimal Expectation Value": -24.0,
  "Optimizer durations [ms]": [78.617, 76.259, 76.236, 77.011, 76.865, 77.261, 84.175, 77.9, 76.068, 75.284, 77.66, 75.563, 64.12, 75.508, 65.374, 76.966, 75.707, 75.473, 66.379, 64.83, 79.168, 64.342, 64.526, 75.458, 64.803, 74.983, 75.917, 77.948, 76.047, 81.88, 76.698, 76.443, 78.427, 78.726, 77.99, 80.114, 79.072, 104.056, 77.496, 76.34, 75.205, 75.326, 77.12, 77.35, 76.9, 77.87, 79.431, 81.795, 75.762, 76.366, 75.589, 76.091, 75.942, 75.738, 76.984, 75.633, 76.401, 76.634, 76.331, 82.65, 82.027, 75.194, 76.258, 78.315, 75.816, 74.78, 75.865],
  "Optimizer iterations": 67,
  "Optimizer params": [0.2982076353191386, 0.9923013669905485, 0.12070212204118003, 0.49558952192183536, 0.310747385809255, 0.6213862355584036],
  "P": 3,
  "Problem": "MCP",
  "QPU": "7000000",
  "Qubits": 16,
  "Shots": 4096,
  "Size": 16,
  "Total Algorithm duration [s]": 5.113,
  "Total Classic duration [s]": 4.914597400000001,
  "Total Quantum duration [s]": 0.19840260000000004
}
