{
  "Depth": 293.0,
  "Expectation Value": -24.0,
  "Job durations [ms]": [2.9952, 3.0071999999999997, 2.9413, 2.9449, 2.9507000000000003, 2.9742, 2.9767, 2.9652, 1.8309000000000002, 2.994, 1.8676000000000001, 3.2166, 1.5582, 2.996, 2.0346, 2.9242, 1.8602, 2.9529, 1.8198, 1.8247, 2.9351, 1.8745, 2.9228, 1.8404, 2.9366000000000003, 3.1132999999999997, 2.9594, 1.8158, 3.1579, 1.8047, 1.8278999999999999, 1.8168, 2.9480999999999997, 1.8359999999999999, 2.9474, 3.0287, 2.9421999999999997, 1.8333, 2.9559, 1.6446, 1.5584, 2.9442, 1.8167, 2.9518999999999997, 1.8136, 1.7982, 2.9454, 2.9381, 2.9518, 3.034, 2.9313, 2.9232, 2.936, 3.0585999999999998, 2.8014, 2.9637000000000002, 3.0079, 2.9694000000000003, 2.9475000000000002, 2.9363, 2.9902, 2.9455, 2.9515000000000002, 2.9239, 2.9486999999999997, 2.941, 2.9269000000000003, 3.1795999999999998, 3.0276, 2.9531, 2.9427, 2.9347000000000003, 2.9276, 3.0493, 2.9429, 2.9547000000000003],
  "Optimal Expectation Value": -24.0,
  "Optimizer durations [ms]": [74.008, 75.053, 74.606, 74.507, 74.329, 73.975, 75.285, 73.802, 63.423, 74.999, 64.117, 77.344, 70.81, 77.649, 64.863, 74.564, 63.633, 74.422, 63.116, 63.914, 74.034, 66.03, 73.839, 63.42, 74.395, 76.232, 81.166, 63.473, 76.742, 63.128, 63.182, 63.067, 74.217, 62.664, 75.11, 75.525, 74.263, 63.781, 74.282, 70.346, 70.812, 73.47, 63.244, 75.431, 63.279, 63.017, 73.91, 74.521, 74.973, 74.731, 73.804, 74.618, 74.947, 75.448, 82.7, 75.096, 75.18, 75.248, 73.995, 74.461, 74.67, 73.326, 74.555, 73.987, 74.716, 74.373, 74.799, 76.896, 74.695, 74.412, 74.698, 74.384, 74.669, 75.308, 74.36, 75.539],
  "Optimizer iterations": 76,
  "Optimizer params": [0.3563830256462097, 0.9979698657989502, 0.035666439682245255, 0.7837537293782585, 0.19839639091262531, 0.6785126404132845],
  "P": 3,
  "Problem": "MCP",
  "QPU": "7000000",
  "Qubits": 16,
  "Shots": 4096,
  "Size": 16,
  "Total Algorithm duration [s]": 5.495,
  "Total Classic duration [s]": 5.2924560000000005,
  "Total Quantum duration [s]": 0.202544
}
