{
  "Depth": 293.0,
  "Expectation Value": -24.0,
  "Job durations [ms]": [2.9418, 3.0768, 3.2109, 2.7298999999999998, 2.9654, 2.9160000000000004, 3.0187999999999997, 2.958, 2.9843, 2.9972000000000003, 2.9665, 2.9602, 2.9716, 3.0186, 3.0086000000000004, 2.827, 3.3177, 2.9997000000000003, 3.1050999999999997, 2.9192, 2.9324, 2.9144, 2.9695, 2.9661, 1.8036, 2.9684, 1.8399, 1.8294, 3.0301, 1.9021000000000001, 3.0785, 1.8303, 2.9136, 1.8054, 2.9928, 1.8326, 1.8121999999999998, 2.9513, 2.9290000000000003, 2.9921, 2.9945000000000004, 2.9774, 2.9298, 3.0042, 3.0229, 2.9637000000000002, 2.9585000000000004, 3.0195, 2.9419, 2.96, 2.9846999999999997, 2.9295, 2.9329, 2.9399, 2.9467, 2.9337999999999997, 2.9815, 3.197, 2.9799, 2.9377999999999997, 2.9514, 2.9716, 2.9305999999999996, 2.9692, 2.9211, 2.9705, 2.9489, 3.0712],
  "Optimal Expectation Value": -24.0,
  "Optimizer durations [ms]": [75.122, 76.076, 77.307, 82.092, 74.842, 73.989, 75.102, 74.374, 74.77, 74.986, 74.581, 74.896, 74.487, 75.113, 74.828, 80.656, 81.959, 75.097, 76.367, 74.493, 74.045, 74.064, 74.281, 74.58, 62.752, 74.607, 63.661, 62.781, 75.57, 66.25, 81.634, 63.909, 74.724, 63.631, 74.427, 62.914, 62.125, 74.746, 74.311, 75.0, 74.979, 75.032, 73.584, 75.085, 77.829, 74.889, 74.551, 75.051, 73.956, 73.442, 74.186, 74.004, 74.662, 74.564, 74.834, 75.468, 75.157, 76.854, 74.815, 74.334, 74.776, 74.718, 74.149, 76.694, 74.322, 74.748, 74.604, 75.932],
  "Optimizer iterations": 68,
  "Optimizer params": [0.7404384613037109, 0.20221278071403503, 0.920914351940155, 0.6847565174102783, 0.6531303524971008, 0.5072654783725739],
  "P": 3,
  "Problem": "MCP",
  "QPU": "7000000",
  "Qubits": 16,
  "Shots": 4096,
  "Size": 16,
  "Total Algorithm duration [s]": 5.028,
  "Total Classic duration [s]": 4.834542399999999,
  "Total Quantum duration [s]": 0.19345759999999998
}
