{
  "Depth": 293.0,
  "Expectation Value": -24.0,
  "Job durations [ms]": [3.0762, 3.1232, 3.0233, 3.1031, 2.9483, 3.0486, 3.0065, 1.8475, 1.8818000000000001, 3.1029999999999998, 1.8944, 3.0412, 1.9748, 3.4116, 1.8998000000000002, 3.0278, 2.0111, 3.0743, 1.8867999999999998, 3.0582000000000003, 1.858, 2.9945000000000004, 1.8602, 1.863, 3.0103, 1.9767000000000001, 3.0823, 2.0148, 3.0101, 1.9241, 1.7307, 1.8417999999999999, 3.0739, 1.9024, 3.1029, 1.8634000000000002, 2.9654, 1.8828, 3.0655, 1.9025999999999998, 3.0301, 1.6663999999999999, 1.9273, 3.1331, 3.0972, 3.0098, 3.0579, 3.0319000000000003, 3.1494, 3.0514, 3.0387999999999997, 3.0672, 3.2016, 3.0154, 3.1438, 3.0513, 2.856, 3.1362, 3.1268, 3.0699, 3.0299, 3.0193, 3.0762, 3.1093, 2.9209, 3.2916, 2.8407, 2.8539, 3.0891, 2.9960999999999998, 3.0450999999999997, 3.0429, 3.0728, 3.033],
  "Optimal Expectation Value": -24.0,
  "Optimizer durations [ms]": [77.799, 77.004, 75.971, 77.633, 85.028, 76.048, 75.617, 63.795, 65.215, 77.791, 66.335, 78.466, 65.098, 82.245, 64.639, 80.561, 66.013, 76.569, 64.684, 76.269, 64.183, 76.238, 64.183, 63.965, 75.667, 65.002, 77.496, 66.525, 76.709, 73.193, 75.708, 65.286, 75.459, 64.885, 83.009, 63.377, 75.308, 65.897, 77.007, 63.859, 76.971, 71.363, 66.025, 77.327, 78.222, 75.24, 76.761, 75.912, 77.24, 76.898, 77.334, 76.435, 77.308, 77.773, 77.325, 77.675, 78.393, 78.279, 76.625, 75.552, 76.119, 81.306, 76.205, 77.836, 85.174, 85.457, 85.879, 79.842, 76.942, 76.465, 76.003, 76.555, 76.889, 77.84],
  "Optimizer iterations": 74,
  "Optimizer params": [0.3281829431653023, 0.5262346863746643, 0.5564437508583069, 0.4165012836456299, 0.18550119436915669, 0.9068039059638977],
  "P": 3,
  "Problem": "MCP",
  "QPU": "7000000",
  "Qubits": 16,
  "Shots": 4096,
  "Size": 16,
  "Total Algorithm duration [s]": 5.519,
  "Total Classic duration [s]": 5.3173508,
  "Total Quantum duration [s]": 0.20164919999999995
}
