{
  "Depth": 293.0,
  "Expectation Value": -24.0,
  "Job durations [ms]": [2.9692, 2.9816000000000003, 2.96, 3.1954000000000002, 2.9775, 2.9562, 2.9581999999999997, 2.9369, 1.8265, 2.9367, 1.8245, 2.9788, 1.8388, 2.9520000000000004, 1.8972, 3.0252999999999997, 1.9265, 2.8027, 1.8293000000000001, 2.9926000000000004, 1.812, 2.9600999999999997, 1.8256, 1.8644, 2.9667, 1.8234, 2.9941, 1.8072, 2.9936, 1.8276, 1.8308, 1.8164, 3.089, 1.7933999999999999, 2.9668, 3.0114, 2.983, 2.9595, 3.0617, 2.9823, 2.956, 2.9389, 2.9677000000000002, 2.967, 3.1083, 2.8750999999999998, 3.0685000000000002, 2.9448, 2.9495, 3.0095, 2.9497, 2.9754, 2.9476, 2.9663, 2.9697999999999998, 2.9773, 2.9748, 3.0202, 2.9713000000000003, 2.8057999999999996, 3.1068, 3.178, 3.0076, 2.9608999999999996, 2.9805, 2.9565, 2.9676, 2.9508, 2.9914, 2.9428, 3.012, 3.0631, 2.7995],
  "Optimal Expectation Value": -24.0,
  "Optimizer durations [ms]": [74.572, 75.325, 74.736, 77.715, 75.074, 74.201, 74.899, 73.963, 64.915, 73.669, 62.753, 74.552, 62.991, 74.434, 64.496, 75.334, 64.445, 84.291, 62.769, 74.692, 62.446, 74.822, 63.524, 62.835, 74.314, 62.437, 74.653, 62.427, 74.674, 63.731, 62.575, 63.352, 80.545, 62.951, 74.782, 75.041, 75.004, 73.723, 75.707, 74.851, 74.696, 73.84, 73.435, 75.009, 75.431, 83.256, 77.062, 74.288, 74.738, 74.41, 74.374, 74.989, 73.362, 74.462, 74.166, 75.24, 74.579, 74.746, 77.728, 83.501, 75.45, 76.904, 75.801, 73.911, 75.051, 74.56, 75.32, 74.703, 75.174, 73.874, 75.089, 77.571, 82.939],
  "Optimizer iterations": 73,
  "Optimizer params": [0.5787770450115204, 0.23142795264720917, 0.12978169880807397, 0.8830721974372864, 0.22365641593933105, 0.9011321067810059],
  "P": 3,
  "Problem": "MCP",
  "QPU": "7000000",
  "Qubits": 16,
  "Shots": 4096,
  "Size": 16,
  "Total Algorithm duration [s]": 5.333,
  "Total Classic duration [s]": 5.1326041,
  "Total Quantum duration [s]": 0.20039590000000002
}
