{
  "Circuit execution durations [ms]": [0.1445500020054169, 0.14869999722577631, 0.15020000137155876, 0.1414499965903815, 0.13669999680132605, 0.14234999980544671, 0.13589999798568897, 0.13604999912786298, 0.3000000069732778, 0.14519999967887998, 0.145800004247576, 0.1442500033590477, 0.13994999608257785, 0.13675000082002953, 0.1388000018778257, 0.1368000012007542, 0.1421999986632727, 0.13715000022784807, 0.1366500000585802, 0.13794999904348515, 0.13715000386582687, 0.13574999684351496, 0.13500000204658136, 0.13789999866276048, 0.12554999921121635, 0.22090000129537657, 0.22170000011101365, 0.15124999845284037, 0.13985000259708613, 0.1378499982820358, 0.13920000128564425, 0.15150000399444252, 0.13760000365437008, 0.1538500000606291, 0.13659999967785552, 0.13644999853568152, 0.1357000001007691, 0.13649999891640618, 0.13579999722423963, 0.13660000331583433, 0.13519999629352242, 0.1366500000585802, 0.1358499976049643, 0.14495000141323544, 0.13700000272365287, 0.13815000056638382, 0.13565000335802324, 0.13604999912786298, 0.15029999849502929, 0.14055000065127388, 0.13574999684351496, 0.13860000035492703, 0.1372500009892974, 0.14675000420538709, 0.14324999938253313, 0.1414499965903815, 0.13515000318875536, 0.14089999967836775, 0.1356999964627903, 0.13460000263876282, 0.13699999908567406, 0.1384999995934777, 0.13729999773204327, 0.1375499996356666, 0.1295000038226135, 0.1368000012007542, 0.13930000204709359, 0.14894999912939966, 0.13904999650549144, 0.13619999663205817, 0.14095000005909242, 0.14089999967836775, 0.13579999722423963, 0.13014999785809778, 0.13535000107367523, 0.1361499998893123, 0.13524999667424709, 0.13535000107367523, 0.13659999967785552, 0.1361499998893123, 0.13729999773204327, 0.13620000027003698, 0.1438000035705045, 0.13979999857838266, 0.14224999904399738, 0.13640000179293565, 0.1499499994679354, 0.13064999802736565, 0.13594999836641364, 0.1298000024689827, 0.1412999990861863, 0.1633000028959941, 0.1354000014543999, 0.1416000050085131, 0.14199999714037403, 0.13590000162366778, 0.1382000009471085, 0.13734999811276793, 0.14125000234344043, 0.13810000018565916, 0.1362999973935075, 0.13630000103148632, 0.13630000103148632, 0.1367999975627754, 0.1400499968440272, 0.1427000024705194, 0.14234999980544671, 0.1406500014127232, 0.14790000204811804, 0.14125000234344043, 0.14125000234344043, 0.1359999987471383, 0.14240000018617138, 0.13610000314656645, 0.1401999979862012, 0.13580000086221844, 0.14864999684505165, 0.13620000027003698, 0.1383500020892825, 0.13715000022784807, 0.13644999853568152, 0.13689999832422473, 0.139749998197658, 0.13625000065076165, 0.1361499998893123, 0.13669999680132605, 0.13789999866276048, 0.1356999964627903, 0.13634999777423218, 0.13545000183512457, 0.1361499998893123, 0.13589999798568897, 0.13564999608206563, 0.13604999912786298, 0.13649999891640618, 0.1442499997210689, 0.14110000483924523, 0.13610000314656645, 0.13544999819714576, 0.14335000014398247, 0.13564999608206563, 0.13670000407728367, 0.13590000162366778, 0.14000000010128133, 0.13730000137002207, 0.1374000021314714, 0.13645000217366032, 0.13860000035492703, 0.13530000069295056, 0.13670000043930486, 0.1355499989585951, 0.13884999862057157, 0.1374000021314714, 0.13655000293510966, 0.14140000348561443, 0.13830000170855783, 0.1418999963789247, 0.14435000048251823, 0.14395000107469968, 0.14240000018617138, 0.13704999946639873, 0.14475000352831557, 0.1352500003122259, 0.14335000014398247, 0.13689999832422473, 0.13729999773204327, 0.13559999570134096, 0.1383499984513037, 0.13604999912786298, 0.1369499987049494, 0.13544999819714576, 0.136500002554385, 0.13644999853568152, 0.13670000043930486, 0.1358499976049643, 0.1401999979862012, 0.1358499976049643, 0.13704999946639873, 0.13620000027003698, 0.13745000251219608, 0.13675000082002953, 0.13704999946639873, 0.1366500000585802, 0.1373999984934926, 0.17020000086631626, 0.13785000192001462, 0.13744999887421727, 0.25689999529276974, 0.1557000032335054, 0.15169999824138358, 0.14525000005960464, 0.24095000117085874, 0.14109999756328762],
  "Depth": 2.0,
  "Expectation Value": -5.561611175537109,
  "Optimal Expectation Value": -5.571199893951416,
  "Optimizer durations [ms]": [3.909, 4.052, 4.068, 3.839, 3.706, 3.826, 3.741, 3.771, 6.911, 4.345, 3.972, 4.088, 3.883, 3.782, 3.807, 4.609, 4.033, 3.759, 3.698, 3.666, 3.775, 3.745, 3.714, 3.809, 18.024, 7.622, 5.887, 4.617, 3.757, 3.77, 3.794, 9.957, 3.817, 4.079, 3.792, 3.778, 3.759, 3.789, 3.745, 3.77, 3.745, 3.768, 3.814, 4.016, 3.782, 3.788, 3.723, 3.74, 4.05, 3.864, 3.742, 3.833, 3.817, 4.037, 3.963, 3.881, 3.79, 3.823, 3.755, 3.735, 3.817, 3.771, 3.784, 3.811, 3.599, 3.792, 3.791, 4.028, 3.923, 3.957, 3.891, 3.8, 3.765, 3.631, 3.745, 3.802, 3.776, 3.749, 3.78, 3.799, 3.799, 3.758, 3.952, 3.83, 4.018, 3.787, 3.939, 3.675, 3.76, 3.644, 3.922, 4.289, 3.726, 3.921, 3.887, 3.745, 3.769, 3.753, 3.834, 3.813, 3.744, 3.768, 3.877, 3.779, 3.875, 3.898, 4.18, 3.884, 4.061, 3.878, 3.827, 3.804, 3.968, 3.76, 3.796, 3.852, 3.945, 3.716, 3.656, 3.646, 3.637, 3.669, 3.713, 3.753, 3.727, 3.775, 3.675, 3.691, 3.746, 3.737, 3.8, 3.741, 3.779, 3.806, 3.78, 3.765, 3.848, 3.772, 3.761, 3.972, 3.766, 3.756, 3.678, 3.668, 3.754, 3.791, 3.764, 3.774, 3.757, 3.777, 3.87, 3.858, 3.794, 3.868, 4.073, 4.389, 3.992, 3.98, 4.026, 4.235, 3.609, 4.009, 3.739, 3.879, 3.733, 3.723, 3.774, 3.78, 3.716, 3.743, 3.7, 3.701, 3.712, 3.727, 3.749, 3.803, 3.713, 3.656, 3.653, 3.716, 3.732, 3.731, 3.74, 3.822, 4.951, 3.811, 3.752, 6.124, 15.893, 20.199, 4.053, 5.505, 4.224],
  "Optimizer iterations": 193,
  "Optimizer params": [0.0014515827995149285, 0.4975926385076265, 0.0014578343777411629, 0.49692725055485454, 0.5007176254023684, 0.001816747110579661, 0.5028424406182466, 0.48375743769118, 0.020889352899614088],
  "P": 0,
  "Problem": "RH",
  "QJob durations [ms]": [0.1445500020054169, 0.14869999722577631, 0.15020000137155876, 0.1414499965903815, 0.13669999680132605, 0.14234999980544671, 0.13589999798568897, 0.13604999912786298, 0.3000000069732778, 0.14519999967887998, 0.145800004247576, 0.1442500033590477, 0.13994999608257785, 0.13675000082002953, 0.1388000018778257, 0.1368000012007542, 0.1421999986632727, 0.13715000022784807, 0.1366500000585802, 0.13794999904348515, 0.13715000386582687, 0.13574999684351496, 0.13500000204658136, 0.13789999866276048, 0.12554999921121635, 0.22090000129537657, 0.22170000011101365, 0.15124999845284037, 0.13985000259708613, 0.1378499982820358, 0.13920000128564425, 0.15150000399444252, 0.13760000365437008, 0.1538500000606291, 0.13659999967785552, 0.13644999853568152, 0.1357000001007691, 0.13649999891640618, 0.13579999722423963, 0.13660000331583433, 0.13519999629352242, 0.1366500000585802, 0.1358499976049643, 0.14495000141323544, 0.13700000272365287, 0.13815000056638382, 0.13565000335802324, 0.13604999912786298, 0.15029999849502929, 0.14055000065127388, 0.13574999684351496, 0.13860000035492703, 0.1372500009892974, 0.14675000420538709, 0.14324999938253313, 0.1414499965903815, 0.13515000318875536, 0.14089999967836775, 0.1356999964627903, 0.13460000263876282, 0.13699999908567406, 0.1384999995934777, 0.13729999773204327, 0.1375499996356666, 0.1295000038226135, 0.1368000012007542, 0.13930000204709359, 0.14894999912939966, 0.13904999650549144, 0.13619999663205817, 0.14095000005909242, 0.14089999967836775, 0.13579999722423963, 0.13014999785809778, 0.13535000107367523, 0.1361499998893123, 0.13524999667424709, 0.13535000107367523, 0.13659999967785552, 0.1361499998893123, 0.13729999773204327, 0.13620000027003698, 0.1438000035705045, 0.13979999857838266, 0.14224999904399738, 0.13640000179293565, 0.1499499994679354, 0.13064999802736565, 0.13594999836641364, 0.1298000024689827, 0.1412999990861863, 0.1633000028959941, 0.1354000014543999, 0.1416000050085131, 0.14199999714037403, 0.13590000162366778, 0.1382000009471085, 0.13734999811276793, 0.14125000234344043, 0.13810000018565916, 0.1362999973935075, 0.13630000103148632, 0.13630000103148632, 0.1367999975627754, 0.1400499968440272, 0.1427000024705194, 0.14234999980544671, 0.1406500014127232, 0.14790000204811804, 0.14125000234344043, 0.14125000234344043, 0.1359999987471383, 0.14240000018617138, 0.13610000314656645, 0.1401999979862012, 0.13580000086221844, 0.14864999684505165, 0.13620000027003698, 0.1383500020892825, 0.13715000022784807, 0.13644999853568152, 0.13689999832422473, 0.139749998197658, 0.13625000065076165, 0.1361499998893123, 0.13669999680132605, 0.13789999866276048, 0.1356999964627903, 0.13634999777423218, 0.13545000183512457, 0.1361499998893123, 0.13589999798568897, 0.13564999608206563, 0.13604999912786298, 0.13649999891640618, 0.1442499997210689, 0.14110000483924523, 0.13610000314656645, 0.13544999819714576, 0.14335000014398247, 0.13564999608206563, 0.13670000407728367, 0.13590000162366778, 0.14000000010128133, 0.13730000137002207, 0.1374000021314714, 0.13645000217366032, 0.13860000035492703, 0.13530000069295056, 0.13670000043930486, 0.1355499989585951, 0.13884999862057157, 0.1374000021314714, 0.13655000293510966, 0.14140000348561443, 0.13830000170855783, 0.1418999963789247, 0.14435000048251823, 0.14395000107469968, 0.14240000018617138, 0.13704999946639873, 0.14475000352831557, 0.1352500003122259, 0.14335000014398247, 0.13689999832422473, 0.13729999773204327, 0.13559999570134096, 0.1383499984513037, 0.13604999912786298, 0.1369499987049494, 0.13544999819714576, 0.136500002554385, 0.13644999853568152, 0.13670000043930486, 0.1358499976049643, 0.1401999979862012, 0.1358499976049643, 0.13704999946639873, 0.13620000027003698, 0.13745000251219608, 0.13675000082002953, 0.13704999946639873, 0.1366500000585802, 0.1373999984934926, 0.17020000086631626, 0.13785000192001462, 0.13744999887421727, 0.25689999529276974, 0.1557000032335054, 0.15169999824138358, 0.14525000005960464, 0.24095000117085874, 0.14109999756328762],
  "QPU": "7000000",
  "Qubits": 9,
  "Queue durations [ms]": [0.0, 0.0, 0.0, 0.0, 0.0, 0.0, 0.0, 0.0, 0.0, 0.0, 0.0, 0.0, 0.0, 0.0, 0.0, 0.0, 0.0, 0.0, 0.0, 0.0, 0.0, 0.0, 0.0, 0.0, 0.0, 0.0, 0.0, 0.0, 0.0, 0.0, 0.0, 0.0, 0.0, 0.0, 0.0, 0.0, 0.0, 0.0, 0.0, 0.0, 0.0, 0.0, 0.0, 0.0, 0.0, 0.0, 0.0, 0.0, 0.0, 0.0, 0.0, 0.0, 0.0, 0.0, 0.0, 0.0, 0.0, 0.0, 0.0, 0.0, 0.0, 0.0, 0.0, 0.0, 0.0, 0.0, 0.0, 0.0, 0.0, 0.0, 0.0, 0.0, 0.0, 0.0, 0.0, 0.0, 0.0, 0.0, 0.0, 0.0, 0.0, 0.0, 0.0, 0.0, 0.0, 0.0, 0.0, 0.0, 0.0, 0.0, 0.0, 0.0, 0.0, 0.0, 0.0, 0.0, 0.0, 0.0, 0.0, 0.0, 0.0, 0.0, 0.0, 0.0, 0.0, 0.0, 0.0, 0.0, 0.0, 0.0, 0.0, 0.0, 0.0, 0.0, 0.0, 0.0, 0.0, 0.0, 0.0, 0.0, 0.0, 0.0, 0.0, 0.0, 0.0, 0.0, 0.0, 0.0, 0.0, 0.0, 0.0, 0.0, 0.0, 0.0, 0.0, 0.0, 0.0, 0.0, 0.0, 0.0, 0.0, 0.0, 0.0, 0.0, 0.0, 0.0, 0.0, 0.0, 0.0, 0.0, 0.0, 0.0, 0.0, 0.0, 0.0, 0.0, 0.0, 0.0, 0.0, 0.0, 0.0, 0.0, 0.0, 0.0, 0.0, 0.0, 0.0, 0.0, 0.0, 0.0, 0.0, 0.0, 0.0, 0.0, 0.0, 0.0, 0.0, 0.0, 0.0, 0.0, 0.0, 0.0, 0.0, 0.0, 0.0, 0.0, 0.0, 0.0, 0.0, 0.0, 0.0, 0.0, 0.0],
  "Shots": 4096,
  "Size": 9,
  "Total Algorithm duration [s]": 0.802,
  "Total Classic duration [s]": 0.7746152000039292,
  "Total Quantum duration [s]": 0.027384799996070797
}
