{
  "Circuit execution durations [ms]": [0.15264999819919467, 0.1449999981559813, 0.15194999650702812, 0.14220000230125152, 0.1382000009471085, 0.13854999633622356, 0.14075000217417255, 0.13970000145491213, 0.1420500011590775, 0.13959999705548398, 0.14674999692942947, 0.13920000128564425, 0.13814999692840502, 0.13904999650549144, 0.1394500031892676, 0.13920000128564425, 0.1390999968862161, 0.1391000005241949, 0.15220000204863027, 0.1424000038241502, 0.13949999993201345, 0.13929999840911478, 0.14139999620965682, 0.1458000006095972, 0.14975000158301555, 0.1463999979023356, 0.14910000027157366, 0.15349999739555642, 0.13914999726694077, 0.13939999917056412, 0.14000000010128133, 0.13930000204709359, 0.1405000002705492, 0.13839999883202836, 0.14060000103199854, 0.14024999836692587, 0.13994999608257785, 0.14070000179344788, 0.13970000145491213, 0.14445000124396756, 0.13984999895910732, 0.1489000023866538, 0.14075000217417255, 0.1412999990861863, 0.13940000280854292, 0.16994999896269292, 0.13874999785912223, 0.14274999557528645, 0.14120000196271576, 0.14685000132885762, 0.14184999963617884, 0.13955000031273812, 0.13940000280854292, 0.143749999551801, 0.1432999997632578, 0.13944999955128878, 0.1400500041199848, 0.14095000005909242, 0.13940000280854292, 0.13875000149710104, 0.13874999785912223, 0.1388000018778257, 0.14525000005960464, 0.13934999878983945, 0.13794999904348515, 0.14105000445852056, 0.14110000120126642, 0.13955000031273812, 0.1386499970976729, 0.1392499980283901, 0.16460000188089907, 0.14165000175125897, 0.14089999967836775, 0.1417500025127083, 0.13995000335853547, 0.13915000090491958, 0.1435999947716482, 0.15019999773357995, 0.1463999979023356, 0.14250000094762072, 0.15055000403663144, 0.14725000073667616, 0.1391000005241949, 0.13930000204709359, 0.1446999958716333, 0.14744999862159602, 0.13899999976274557, 0.13854999633622356, 0.14250000094762072, 0.13985000259708613, 0.13934999878983945, 0.1372500009892974, 0.13920000128564425, 0.1392499980283901, 0.14450000162469223, 0.13749999925494194, 0.13684999794350006, 0.1640999980736524, 0.1388000018778257, 0.1379000023007393, 0.13804999616695568, 0.1386500007356517, 0.13859999671694823, 0.13750000289292075, 0.13670000043930486, 0.13705000310437754, 0.1412999990861863, 0.14399999781744555, 0.1413000027241651, 0.14104999718256295, 0.14010000086273067, 0.13729999773204327, 0.14584999735234305, 0.1441000022168737, 0.13944999955128878, 0.13795000268146396, 0.13779999790131114, 0.13719999697059393, 0.13795000268146396, 0.14120000196271576, 0.1366500000585802, 0.13564999972004443, 0.1411500015819911, 0.13630000466946512, 0.1360000023851171, 0.13744999887421727, 0.1419000000169035, 0.13745000251219608, 0.13669999680132605, 0.14714999997522682, 0.14944999566068873, 0.14574999659089372, 0.14815000031376258, 0.13860000399290584, 0.1399000029778108, 0.13899999976274557, 0.13950000356999226, 0.1386500007356517, 0.14620000001741573, 0.13984999895910732, 0.1386499970976729, 0.13875000149710104, 0.1411500015819911, 0.13869999747839756, 0.13875000149710104, 0.13839999883202836, 0.13905000014347024, 0.1420499975210987, 0.13900000340072438, 0.13789999502478167, 0.14054999701329507, 0.22024999270797707, 0.13639999815495685, 0.14679999731015414, 0.14509999891743064, 0.13970000145491213, 0.13934999878983945, 0.13944999955128878, 0.14229999942472205, 0.14474999625235796, 0.140350002766354, 0.13780000517726876, 0.13644999853568152, 0.13755000327364542, 0.13750000289292075, 0.1378499982820358, 0.1380499998049345, 0.13830000170855783, 0.1374000021314714, 0.1414500002283603, 0.1476499965065159, 0.14055000065127388, 0.13934999878983945, 0.13915000090491958, 0.13854999997420236, 0.13939999917056412, 0.14319999900180846, 0.1412999990861863, 0.14320000263978727, 0.14149999697110616, 0.14209999790182337, 0.13840000247000717, 0.14519999967887998, 0.14120000196271576, 0.13950000356999226, 0.14055000428925268, 0.2476499976182822, 0.15474999963771552, 0.20584999583661556, 0.14579999697161838, 0.13919999764766544, 0.1445500020054169, 0.13889999900129624, 0.16899999900488183, 0.14045000352780335, 0.14170000213198364, 0.14155000098980963, 0.14000000010128133, 0.13889999900129624, 0.13824999768985435, 0.1413000027241651, 0.1433000034012366, 0.14569999984814785, 0.14574999659089372, 0.14020000162418, 0.14254999769036658, 0.1386499970976729, 0.1375499996356666, 0.13950000356999226, 0.13874999785912223, 0.13869999747839756, 0.13969999781693332, 0.1374000021314714, 0.13995000335853547, 0.1383499984513037, 0.13779999790131114, 0.1375499959976878, 0.14324999938253313, 0.1391000005241949, 0.13869999747839756, 0.13770000441581942, 0.1386500007356517, 0.13715000386582687, 0.13810000018565916, 0.13810000018565916, 0.1397500018356368, 0.13844999921275303, 0.13785000192001462, 0.13760000001639128, 0.13994999608257785, 0.14060000466997735, 0.14564999582944438, 0.1462500003981404, 0.1411500052199699, 0.15115000496734865, 0.14179999925545417, 0.13860000035492703, 0.13944999591330998, 0.1427000024705194, 0.1405000002705492, 0.14280000323196873, 0.14804999955231324, 0.14260000534704886, 0.14030000238562934, 0.14020000162418, 0.17004999972414225, 0.1424999973096419, 0.17939999452210031, 0.1438999970559962, 0.1405000002705492, 0.1416000013705343, 0.13899999976274557, 0.149049999890849, 0.15559999883407727, 0.14829999781795777, 0.14535000082105398, 0.14879999798722565, 0.13885000225855038, 0.13794999904348515, 0.14620000001741573, 0.14704999921377748, 0.15019999409560114, 0.1390999968862161, 0.14029999874765053, 0.1412999990861863, 0.13984999895910732, 0.14059999739401974, 0.14075000217417255, 0.1424000038241502, 0.14494999777525663, 0.14095000005909242, 0.14184999963617884, 0.167199999850709, 0.13915000090491958, 0.13930000204709359, 0.14645000192103907, 0.14240000018617138, 0.14954999642213807, 0.14384999667527154, 0.1380500034429133, 0.14084999929764308, 0.1389500030199997, 0.13884999862057157, 0.13915000090491958, 0.13869999747839756, 0.14569999984814785, 0.14495000141323544, 0.14375000318977982, 0.14120000196271576, 0.13950000356999226, 0.13890000263927504, 0.15094999980647117, 0.1391000005241949, 0.13235000005806796, 0.13889999536331743, 0.1412999990861863, 0.14384999667527154, 0.14229999942472205, 0.13985000259708613, 0.14510000255540945, 0.1406500014127232, 0.13919999764766544, 0.14409999857889488, 0.14084999929764308, 0.14039999950909987, 0.1460999992559664, 0.1460999992559664, 0.14844999896013178, 0.13899999976274557, 0.14840000221738592, 0.13940000280854292, 0.13795000268146396, 0.13940000280854292, 0.1383500020892825, 0.13844999921275303, 0.13889999536331743, 0.1410000040777959, 0.13885000225855038, 0.13659999967785552, 0.15730000450275838, 0.1414500002283603, 0.14179999925545417, 0.14055000065127388, 0.1447000031475909, 0.1382000045850873, 0.13860000399290584, 0.1390999968862161, 0.13930000204709359, 0.1387999982398469, 0.13829999807057902, 0.1379000023007393, 0.14585000099032186, 0.1380500034429133, 0.13940000280854292, 0.13779999790131114, 0.15115000132936984, 0.13910000416217372, 0.1388000018778257, 0.13825000132783316, 0.13949999629403464, 0.13830000170855783, 0.15115000132936984, 0.14020000162418, 0.14999999984866008, 0.14119999832473695, 0.13899999612476677, 0.14080000255489722, 0.16694999794708565, 0.1386500007356517, 0.13905000014347024, 0.13875000149710104, 0.14110000120126642, 0.1389500030199997, 0.13919999764766544, 0.14149999697110616, 0.14164999811328016, 0.1427000024705194, 0.145650003105402, 0.14714999997522682, 0.15919999714242294, 0.14075000217417255, 0.13844999921275303, 0.14955000369809568, 0.3267499996582046, 0.1480999962950591, 0.1420500011590775, 0.14100000043981709, 0.14109999756328762, 0.14555000234395266, 0.14520000331685878, 0.14039999950909987, 0.1401999979862012, 0.1391500045428984, 0.1431499986210838, 0.14000000373926014, 0.1391000005241949, 0.13935000242781825, 0.1420500011590775, 0.13905000014347024, 0.1389499993820209, 0.15065000479808077, 0.13720000060857274, 0.14464999912888743, 0.14494999777525663, 0.2337500045541674, 0.14195000403560698, 0.1408500029356219, 0.1410000040777959, 0.14224999540601857, 0.14265000208979473, 0.13839999883202836, 0.13860000399290584, 0.13964999743620865, 0.1400500041199848, 0.13944999955128878, 0.13859999671694823, 0.13860000399290584, 0.13994999972055666, 0.143599998409627, 0.13939999917056412, 0.14105000082054175, 0.13815000056638382, 0.152900000102818, 0.13994999972055666, 0.14214999828254804, 0.14970000484026968, 0.13955000031273812, 0.13965000471216626, 0.14054999701329507, 0.13845000285073183, 0.13955000031273812, 0.13969999781693332, 0.14109999756328762, 0.1521500016679056, 0.14954999642213807, 0.14575000022887252, 0.13854999633622356, 0.1396000006934628, 0.1386500007356517, 0.13885000225855038, 0.14029999874765053, 0.13844999921275303, 0.1374000021314714, 0.13915000090491958, 0.14519999604090117, 0.1383500020892825, 0.13859999671694823, 0.15054999676067382, 0.1442500033590477, 0.13884999862057157, 0.13869999747839756, 0.14350000128615648, 0.22619999435846694, 0.14169999849400483, 0.13644999853568152, 0.13749999925494194, 0.2784999960567802, 0.13744999887421727, 0.13620000027003698, 0.1372499973513186, 0.13840000247000717],
  "Depth": 2.0,
  "Expectation Value": -5.568947792053223,
  "Optimal Expectation Value": -5.571199893951416,
  "Optimizer durations [ms]": [4.385, 4.007, 4.326, 3.847, 3.789, 3.821, 3.977, 3.753, 3.789, 3.736, 4.513, 3.772, 3.774, 3.811, 3.809, 3.754, 3.737, 3.779, 4.397, 3.907, 3.733, 3.769, 3.763, 3.886, 4.058, 3.908, 3.991, 4.139, 3.739, 3.82, 3.784, 3.749, 3.715, 3.759, 3.873, 6.964, 3.736, 3.767, 3.747, 3.887, 3.767, 3.948, 3.781, 3.781, 3.742, 4.361, 3.759, 3.916, 3.823, 3.959, 3.851, 3.73, 3.755, 3.858, 3.82, 3.732, 3.706, 3.788, 3.745, 3.725, 3.7, 3.789, 3.891, 3.8, 3.731, 3.754, 3.819, 3.752, 3.717, 3.73, 4.432, 3.833, 3.863, 4.47, 3.995, 3.795, 3.927, 4.019, 3.899, 3.851, 4.008, 3.929, 3.807, 3.72, 4.024, 3.997, 3.772, 3.765, 3.893, 3.804, 3.737, 3.709, 3.788, 4.07, 3.819, 3.763, 3.694, 4.469, 3.805, 3.784, 3.724, 3.838, 3.815, 3.772, 3.73, 3.71, 3.874, 4.001, 3.88, 4.038, 3.843, 3.754, 3.929, 4.065, 3.777, 3.7, 3.723, 3.73, 3.757, 3.805, 3.745, 3.76, 3.846, 3.708, 3.72, 3.756, 3.832, 3.709, 3.728, 3.943, 4.192, 3.854, 3.91, 3.745, 3.831, 3.73, 3.705, 3.725, 4.069, 3.781, 3.719, 4.713, 3.773, 3.743, 3.738, 3.739, 3.85, 3.899, 3.793, 3.744, 3.779, 5.472, 16.394, 4.238, 3.868, 3.741, 3.727, 3.762, 3.8, 3.906, 3.857, 3.74, 3.737, 3.736, 3.766, 3.773, 3.741, 3.783, 3.727, 3.919, 4.36, 3.784, 3.739, 3.741, 3.714, 3.742, 4.31, 3.913, 5.063, 3.868, 3.875, 3.778, 3.882, 3.809, 3.752, 3.783, 5.633, 21.781, 6.331, 4.038, 3.784, 4.043, 3.754, 4.529, 3.894, 3.913, 3.87, 3.737, 3.819, 3.782, 3.833, 3.904, 3.908, 3.974, 4.108, 3.816, 3.763, 3.724, 3.795, 3.767, 3.763, 3.776, 3.757, 3.992, 3.722, 3.776, 3.746, 3.834, 3.735, 3.735, 3.739, 3.768, 3.762, 3.791, 3.742, 3.927, 3.848, 3.729, 3.723, 3.801, 3.765, 4.071, 4.044, 3.893, 4.177, 3.823, 3.762, 4.456, 3.948, 3.82, 3.901, 4.043, 3.847, 3.807, 3.758, 4.457, 3.792, 4.57, 4.349, 4.163, 3.782, 3.791, 3.961, 4.329, 4.047, 3.895, 4.003, 3.758, 3.73, 3.883, 3.917, 4.125, 3.818, 3.867, 3.812, 3.77, 3.783, 3.88, 3.853, 4.004, 3.918, 3.829, 4.37, 3.769, 3.796, 4.093, 4.036, 4.012, 3.912, 3.762, 3.897, 3.76, 3.756, 3.775, 3.781, 7.516, 3.994, 3.936, 3.789, 3.764, 3.777, 4.077, 3.789, 3.657, 3.788, 3.783, 4.083, 3.955, 3.895, 4.001, 3.879, 3.852, 3.995, 3.839, 3.843, 3.95, 3.964, 4.249, 3.76, 4.031, 3.809, 3.752, 3.787, 3.766, 3.757, 3.745, 3.83, 3.77, 3.746, 4.421, 3.847, 3.808, 3.869, 3.905, 3.727, 3.754, 3.775, 3.933, 3.792, 3.754, 3.734, 3.911, 3.777, 3.798, 3.731, 4.046, 3.77, 3.78, 3.784, 3.798, 4.061, 4.189, 3.812, 4.172, 3.796, 3.778, 3.825, 4.331, 3.785, 3.773, 3.764, 3.832, 3.765, 3.764, 3.844, 3.862, 3.89, 3.908, 4.07, 4.3, 3.985, 3.754, 4.137, 7.307, 11.168, 3.917, 3.88, 3.888, 4.013, 3.918, 3.798, 3.811, 3.776, 3.874, 3.784, 3.732, 3.787, 3.794, 3.773, 3.742, 3.994, 3.783, 3.967, 3.875, 5.68, 3.897, 3.785, 3.755, 4.08, 3.885, 3.8, 3.795, 3.869, 3.76, 3.76, 3.728, 3.744, 3.779, 3.882, 3.749, 3.877, 3.744, 4.048, 3.753, 3.959, 4.174, 3.789, 3.858, 3.805, 3.719, 3.862, 3.782, 3.869, 4.217, 4.014, 3.909, 3.757, 3.764, 3.76, 3.736, 3.8, 3.739, 3.755, 3.74, 3.926, 3.79, 3.767, 4.243, 3.995, 3.754, 3.78, 3.964, 5.373, 4.317, 3.785, 3.814, 6.291, 3.917, 3.772, 3.789, 3.823],
  "Optimizer iterations": 441,
  "Optimizer params": [0.9997609238717254, 0.5034534817595404, 0.9966111184413792, 0.5020237156774444, 0.5016803082525015, 0.9960342412973797, 0.499616485465937, 0.480935176469895, 0.002601770254698044],
  "P": 0,
  "Problem": "RH",
  "QJob durations [ms]": [0.15264999819919467, 0.1449999981559813, 0.15194999650702812, 0.14220000230125152, 0.1382000009471085, 0.13854999633622356, 0.14075000217417255, 0.13970000145491213, 0.1420500011590775, 0.13959999705548398, 0.14674999692942947, 0.13920000128564425, 0.13814999692840502, 0.13904999650549144, 0.1394500031892676, 0.13920000128564425, 0.1390999968862161, 0.1391000005241949, 0.15220000204863027, 0.1424000038241502, 0.13949999993201345, 0.13929999840911478, 0.14139999620965682, 0.1458000006095972, 0.14975000158301555, 0.1463999979023356, 0.14910000027157366, 0.15349999739555642, 0.13914999726694077, 0.13939999917056412, 0.14000000010128133, 0.13930000204709359, 0.1405000002705492, 0.13839999883202836, 0.14060000103199854, 0.14024999836692587, 0.13994999608257785, 0.14070000179344788, 0.13970000145491213, 0.14445000124396756, 0.13984999895910732, 0.1489000023866538, 0.14075000217417255, 0.1412999990861863, 0.13940000280854292, 0.16994999896269292, 0.13874999785912223, 0.14274999557528645, 0.14120000196271576, 0.14685000132885762, 0.14184999963617884, 0.13955000031273812, 0.13940000280854292, 0.143749999551801, 0.1432999997632578, 0.13944999955128878, 0.1400500041199848, 0.14095000005909242, 0.13940000280854292, 0.13875000149710104, 0.13874999785912223, 0.1388000018778257, 0.14525000005960464, 0.13934999878983945, 0.13794999904348515, 0.14105000445852056, 0.14110000120126642, 0.13955000031273812, 0.1386499970976729, 0.1392499980283901, 0.16460000188089907, 0.14165000175125897, 0.14089999967836775, 0.1417500025127083, 0.13995000335853547, 0.13915000090491958, 0.1435999947716482, 0.15019999773357995, 0.1463999979023356, 0.14250000094762072, 0.15055000403663144, 0.14725000073667616, 0.1391000005241949, 0.13930000204709359, 0.1446999958716333, 0.14744999862159602, 0.13899999976274557, 0.13854999633622356, 0.14250000094762072, 0.13985000259708613, 0.13934999878983945, 0.1372500009892974, 0.13920000128564425, 0.1392499980283901, 0.14450000162469223, 0.13749999925494194, 0.13684999794350006, 0.1640999980736524, 0.1388000018778257, 0.1379000023007393, 0.13804999616695568, 0.1386500007356517, 0.13859999671694823, 0.13750000289292075, 0.13670000043930486, 0.13705000310437754, 0.1412999990861863, 0.14399999781744555, 0.1413000027241651, 0.14104999718256295, 0.14010000086273067, 0.13729999773204327, 0.14584999735234305, 0.1441000022168737, 0.13944999955128878, 0.13795000268146396, 0.13779999790131114, 0.13719999697059393, 0.13795000268146396, 0.14120000196271576, 0.1366500000585802, 0.13564999972004443, 0.1411500015819911, 0.13630000466946512, 0.1360000023851171, 0.13744999887421727, 0.1419000000169035, 0.13745000251219608, 0.13669999680132605, 0.14714999997522682, 0.14944999566068873, 0.14574999659089372, 0.14815000031376258, 0.13860000399290584, 0.1399000029778108, 0.13899999976274557, 0.13950000356999226, 0.1386500007356517, 0.14620000001741573, 0.13984999895910732, 0.1386499970976729, 0.13875000149710104, 0.1411500015819911, 0.13869999747839756, 0.13875000149710104, 0.13839999883202836, 0.13905000014347024, 0.1420499975210987, 0.13900000340072438, 0.13789999502478167, 0.14054999701329507, 0.22024999270797707, 0.13639999815495685, 0.14679999731015414, 0.14509999891743064, 0.13970000145491213, 0.13934999878983945, 0.13944999955128878, 0.14229999942472205, 0.14474999625235796, 0.140350002766354, 0.13780000517726876, 0.13644999853568152, 0.13755000327364542, 0.13750000289292075, 0.1378499982820358, 0.1380499998049345, 0.13830000170855783, 0.1374000021314714, 0.1414500002283603, 0.1476499965065159, 0.14055000065127388, 0.13934999878983945, 0.13915000090491958, 0.13854999997420236, 0.13939999917056412, 0.14319999900180846, 0.1412999990861863, 0.14320000263978727, 0.14149999697110616, 0.14209999790182337, 0.13840000247000717, 0.14519999967887998, 0.14120000196271576, 0.13950000356999226, 0.14055000428925268, 0.2476499976182822, 0.15474999963771552, 0.20584999583661556, 0.14579999697161838, 0.13919999764766544, 0.1445500020054169, 0.13889999900129624, 0.16899999900488183, 0.14045000352780335, 0.14170000213198364, 0.14155000098980963, 0.14000000010128133, 0.13889999900129624, 0.13824999768985435, 0.1413000027241651, 0.1433000034012366, 0.14569999984814785, 0.14574999659089372, 0.14020000162418, 0.14254999769036658, 0.1386499970976729, 0.1375499996356666, 0.13950000356999226, 0.13874999785912223, 0.13869999747839756, 0.13969999781693332, 0.1374000021314714, 0.13995000335853547, 0.1383499984513037, 0.13779999790131114, 0.1375499959976878, 0.14324999938253313, 0.1391000005241949, 0.13869999747839756, 0.13770000441581942, 0.1386500007356517, 0.13715000386582687, 0.13810000018565916, 0.13810000018565916, 0.1397500018356368, 0.13844999921275303, 0.13785000192001462, 0.13760000001639128, 0.13994999608257785, 0.14060000466997735, 0.14564999582944438, 0.1462500003981404, 0.1411500052199699, 0.15115000496734865, 0.14179999925545417, 0.13860000035492703, 0.13944999591330998, 0.1427000024705194, 0.1405000002705492, 0.14280000323196873, 0.14804999955231324, 0.14260000534704886, 0.14030000238562934, 0.14020000162418, 0.17004999972414225, 0.1424999973096419, 0.17939999452210031, 0.1438999970559962, 0.1405000002705492, 0.1416000013705343, 0.13899999976274557, 0.149049999890849, 0.15559999883407727, 0.14829999781795777, 0.14535000082105398, 0.14879999798722565, 0.13885000225855038, 0.13794999904348515, 0.14620000001741573, 0.14704999921377748, 0.15019999409560114, 0.1390999968862161, 0.14029999874765053, 0.1412999990861863, 0.13984999895910732, 0.14059999739401974, 0.14075000217417255, 0.1424000038241502, 0.14494999777525663, 0.14095000005909242, 0.14184999963617884, 0.167199999850709, 0.13915000090491958, 0.13930000204709359, 0.14645000192103907, 0.14240000018617138, 0.14954999642213807, 0.14384999667527154, 0.1380500034429133, 0.14084999929764308, 0.1389500030199997, 0.13884999862057157, 0.13915000090491958, 0.13869999747839756, 0.14569999984814785, 0.14495000141323544, 0.14375000318977982, 0.14120000196271576, 0.13950000356999226, 0.13890000263927504, 0.15094999980647117, 0.1391000005241949, 0.13235000005806796, 0.13889999536331743, 0.1412999990861863, 0.14384999667527154, 0.14229999942472205, 0.13985000259708613, 0.14510000255540945, 0.1406500014127232, 0.13919999764766544, 0.14409999857889488, 0.14084999929764308, 0.14039999950909987, 0.1460999992559664, 0.1460999992559664, 0.14844999896013178, 0.13899999976274557, 0.14840000221738592, 0.13940000280854292, 0.13795000268146396, 0.13940000280854292, 0.1383500020892825, 0.13844999921275303, 0.13889999536331743, 0.1410000040777959, 0.13885000225855038, 0.13659999967785552, 0.15730000450275838, 0.1414500002283603, 0.14179999925545417, 0.14055000065127388, 0.1447000031475909, 0.1382000045850873, 0.13860000399290584, 0.1390999968862161, 0.13930000204709359, 0.1387999982398469, 0.13829999807057902, 0.1379000023007393, 0.14585000099032186, 0.1380500034429133, 0.13940000280854292, 0.13779999790131114, 0.15115000132936984, 0.13910000416217372, 0.1388000018778257, 0.13825000132783316, 0.13949999629403464, 0.13830000170855783, 0.15115000132936984, 0.14020000162418, 0.14999999984866008, 0.14119999832473695, 0.13899999612476677, 0.14080000255489722, 0.16694999794708565, 0.1386500007356517, 0.13905000014347024, 0.13875000149710104, 0.14110000120126642, 0.1389500030199997, 0.13919999764766544, 0.14149999697110616, 0.14164999811328016, 0.1427000024705194, 0.145650003105402, 0.14714999997522682, 0.15919999714242294, 0.14075000217417255, 0.13844999921275303, 0.14955000369809568, 0.3267499996582046, 0.1480999962950591, 0.1420500011590775, 0.14100000043981709, 0.14109999756328762, 0.14555000234395266, 0.14520000331685878, 0.14039999950909987, 0.1401999979862012, 0.1391500045428984, 0.1431499986210838, 0.14000000373926014, 0.1391000005241949, 0.13935000242781825, 0.1420500011590775, 0.13905000014347024, 0.1389499993820209, 0.15065000479808077, 0.13720000060857274, 0.14464999912888743, 0.14494999777525663, 0.2337500045541674, 0.14195000403560698, 0.1408500029356219, 0.1410000040777959, 0.14224999540601857, 0.14265000208979473, 0.13839999883202836, 0.13860000399290584, 0.13964999743620865, 0.1400500041199848, 0.13944999955128878, 0.13859999671694823, 0.13860000399290584, 0.13994999972055666, 0.143599998409627, 0.13939999917056412, 0.14105000082054175, 0.13815000056638382, 0.152900000102818, 0.13994999972055666, 0.14214999828254804, 0.14970000484026968, 0.13955000031273812, 0.13965000471216626, 0.14054999701329507, 0.13845000285073183, 0.13955000031273812, 0.13969999781693332, 0.14109999756328762, 0.1521500016679056, 0.14954999642213807, 0.14575000022887252, 0.13854999633622356, 0.1396000006934628, 0.1386500007356517, 0.13885000225855038, 0.14029999874765053, 0.13844999921275303, 0.1374000021314714, 0.13915000090491958, 0.14519999604090117, 0.1383500020892825, 0.13859999671694823, 0.15054999676067382, 0.1442500033590477, 0.13884999862057157, 0.13869999747839756, 0.14350000128615648, 0.22619999435846694, 0.14169999849400483, 0.13644999853568152, 0.13749999925494194, 0.2784999960567802, 0.13744999887421727, 0.13620000027003698, 0.1372499973513186, 0.13840000247000717],
  "QPU": "7000000",
  "Qubits": 9,
  "Queue durations [ms]": [0.0, 0.0, 0.0, 0.0, 0.0, 0.0, 0.0, 0.0, 0.0, 0.0, 0.0, 0.0, 0.0, 0.0, 0.0, 0.0, 0.0, 0.0, 0.0, 0.0, 0.0, 0.0, 0.0, 0.0, 0.0, 0.0, 0.0, 0.0, 0.0, 0.0, 0.0, 0.0, 0.0, 0.0, 0.0, 0.0, 0.0, 0.0, 0.0, 0.0, 0.0, 0.0, 0.0, 0.0, 0.0, 0.0, 0.0, 0.0, 0.0, 0.0, 0.0, 0.0, 0.0, 0.0, 0.0, 0.0, 0.0, 0.0, 0.0, 0.0, 0.0, 0.0, 0.0, 0.0, 0.0, 0.0, 0.0, 0.0, 0.0, 0.0, 0.0, 0.0, 0.0, 0.0, 0.0, 0.0, 0.0, 0.0, 0.0, 0.0, 0.0, 0.0, 0.0, 0.0, 0.0, 0.0, 0.0, 0.0, 0.0, 0.0, 0.0, 0.0, 0.0, 0.0, 0.0, 0.0, 0.0, 0.0, 0.0, 0.0, 0.0, 0.0, 0.0, 0.0, 0.0, 0.0, 0.0, 0.0, 0.0, 0.0, 0.0, 0.0, 0.0, 0.0, 0.0, 0.0, 0.0, 0.0, 0.0, 0.0, 0.0, 0.0, 0.0, 0.0, 0.0, 0.0, 0.0, 0.0, 0.0, 0.0, 0.0, 0.0, 0.0, 0.0, 0.0, 0.0, 0.0, 0.0, 0.0, 0.0, 0.0, 0.0, 0.0, 0.0, 0.0, 0.0, 0.0, 0.0, 0.0, 0.0, 0.0, 0.0, 0.0, 0.0, 0.0, 0.0, 0.0, 0.0, 0.0, 0.0, 0.0, 0.0, 0.0, 0.0, 0.0, 0.0, 0.0, 0.0, 0.0, 0.0, 0.0, 0.0, 0.0, 0.0, 0.0, 0.0, 0.0, 0.0, 0.0, 0.0, 0.0, 0.0, 0.0, 0.0, 0.0, 0.0, 0.0, 0.0, 0.0, 0.0, 0.0, 0.0, 0.0, 0.0, 0.0, 0.0, 0.0, 0.0, 0.0, 0.0, 0.0, 0.0, 0.0, 0.0, 0.0, 0.0, 0.0, 0.0, 0.0, 0.0, 0.0, 0.0, 0.0, 0.0, 0.0, 0.0, 0.0, 0.0, 0.0, 0.0, 0.0, 0.0, 0.0, 0.0, 0.0, 0.0, 0.0, 0.0, 0.0, 0.0, 0.0, 0.0, 0.0, 0.0, 0.0, 0.0, 0.0, 0.0, 0.0, 0.0, 0.0, 0.0, 0.0, 0.0, 0.0, 0.0, 0.0, 0.0, 0.0, 0.0, 0.0, 0.0, 0.0, 0.0, 0.0, 0.0, 0.0, 0.0, 0.0, 0.0, 0.0, 0.0, 0.0, 0.0, 0.0, 0.0, 0.0, 0.0, 0.0, 0.0, 0.0, 0.0, 0.0, 0.0, 0.0, 0.0, 0.0, 0.0, 0.0, 0.0, 0.0, 0.0, 0.0, 0.0, 0.0, 0.0, 0.0, 0.0, 0.0, 0.0, 0.0, 0.0, 0.0, 0.0, 0.0, 0.0, 0.0, 0.0, 0.0, 0.0, 0.0, 0.0, 0.0, 0.0, 0.0, 0.0, 0.0, 0.0, 0.0, 0.0, 0.0, 0.0, 0.0, 0.0, 0.0, 0.0, 0.0, 0.0, 0.0, 0.0, 0.0, 0.0, 0.0, 0.0, 0.0, 0.0, 0.0, 0.0, 0.0, 0.0, 0.0, 0.0, 0.0, 0.0, 0.0, 0.0, 0.0, 0.0, 0.0, 0.0, 0.0, 0.0, 0.0, 0.0, 0.0, 0.0, 0.0, 0.0, 0.0, 0.0, 0.0, 0.0, 0.0, 0.0, 0.0, 0.0, 0.0, 0.0, 0.0, 0.0, 0.0, 0.0, 0.0, 0.0, 0.0, 0.0, 0.0, 0.0, 0.0, 0.0, 0.0, 0.0, 0.0, 0.0, 0.0, 0.0, 0.0, 0.0, 0.0, 0.0, 0.0, 0.0, 0.0, 0.0, 0.0, 0.0, 0.0, 0.0, 0.0, 0.0, 0.0, 0.0, 0.0, 0.0, 0.0, 0.0, 0.0, 0.0, 0.0, 0.0, 0.0, 0.0, 0.0, 0.0, 0.0, 0.0, 0.0, 0.0, 0.0, 0.0, 0.0, 0.0, 0.0, 0.0, 0.0, 0.0, 0.0, 0.0, 0.0, 0.0, 0.0, 0.0, 0.0, 0.0, 0.0, 0.0, 0.0, 0.0, 0.0, 0.0, 0.0, 0.0, 0.0, 0.0, 0.0, 0.0, 0.0, 0.0, 0.0, 0.0, 0.0],
  "Shots": 4096,
  "Size": 9,
  "Total Algorithm duration [s]": 1.766,
  "Total Classic duration [s]": 1.7027092999636952,
  "Total Quantum duration [s]": 0.06329070003630477
}
