{
  "Circuit execution durations [ms]": [0.16370000230381265, 0.14125000234344043, 0.13944999591330998, 0.13970000145491213, 0.1541500023449771, 0.139899999339832, 0.14015000488143414, 0.13934999878983945, 0.14525000005960464, 0.13995000335853547, 0.13829999807057902, 0.14024999836692587, 0.14295000073616393, 0.1395499966747593, 0.14059999739401974, 0.1330499981122557, 0.14240000018617138, 0.13899999976274557, 0.13979999857838266, 0.13944999955128878, 0.1413000027241651, 0.15130000247154385, 0.1468499976908788, 0.13965000107418746, 0.148899998748675, 0.13824999768985435, 0.13970000145491213, 0.13955000395071693, 0.14119999832473695, 0.1415999977325555, 0.1458000006095972, 0.1441999957023654, 0.14574999659089372, 0.1429999974789098, 0.14070000179344788, 0.13980000221636146, 0.13485000090440735, 0.1401999979862012, 0.14039999950909987, 0.14059999739401974, 0.14475000352831557, 0.1370999962091446, 0.1389500030199997, 0.14274999921326526, 0.1423499961674679, 0.13955000395071693, 0.14009999722475186, 0.1389499993820209, 0.14010000450070947, 0.1384999995934777, 0.14194999675964937, 0.13984999895910732, 0.14060000103199854, 0.13995000335853547, 0.13984999532112852, 0.13934999878983945, 0.14060000103199854, 0.13780000153928995, 0.13874999785912223, 0.1383499984513037, 0.13904999650549144, 0.13919999764766544, 0.13899999976274557, 0.13965000107418746, 0.14060000103199854, 0.14169999849400483, 0.14740000187885016, 0.13930000204709359, 0.1847000021371059, 0.13905000014347024, 0.13900000340072438, 0.1386499970976729, 0.13829999807057902, 0.13809999654768035, 0.13774999752058648, 0.13830000170855783, 0.15435000386787578, 0.13815000420436263, 0.13829999807057902, 0.13884999862057157, 0.1472000039939303, 0.139899999339832, 0.16969999705906957, 0.14364999879035167, 0.1538500000606291, 0.14245000056689605, 0.13955000031273812, 0.1414499965903815, 0.1520000005257316, 0.14010000450070947, 0.14089999967836775, 0.13859999671694823, 0.13929999840911478, 0.1389499993820209, 0.1392499980283901, 0.13869999747839756, 0.13944999955128878, 0.13900000340072438, 0.14164999811328016, 0.1397500018356368, 0.13940000280854292, 0.13904999650549144, 0.1413000027241651, 0.13810000382363796, 0.15114999769139104, 0.14020000162418, 0.13670000407728367, 0.14200000077835284, 0.13950000356999226, 0.1400500041199848, 0.13884999862057157, 0.12880000213044696, 0.1377500047965441, 0.14340000416268595, 0.14120000196271576, 0.1395499966747593, 0.13984999532112852, 0.13900000340072438, 0.13874999785912223, 0.13659999967785552, 0.1434500009054318, 0.13869999747839756, 0.149049999890849, 0.14025000200490467, 0.13935000242781825, 0.14020000162418, 0.1428500036126934, 0.14060000103199854, 0.20865000624326058, 0.14664999980595894, 0.19085000167251565, 0.140350002766354, 0.11995000386377797, 0.1962000060302671, 0.14320000263978727, 0.14044999625184573, 0.1403499954903964, 0.32419999479316175, 0.14510000255540945, 0.14319999536382966, 0.16789999790489674, 0.1406500014127232, 0.14044999988982454, 0.14014999760547653, 0.12119999519200064, 0.14105000082054175, 0.1467000001866836, 0.19409999367780983, 0.14120000196271576, 0.14375000318977982, 0.14194999675964937, 0.3104999996139668, 0.13969999781693332, 0.1431499986210838, 0.139749998197658, 0.20524999490589835, 0.14250000094762072, 0.13965000107418746, 0.14074999853619374, 0.2605500012577977, 0.14829999417997897, 0.14614999963669106, 0.14584999735234305, 0.1551000023027882, 0.13915000090491958, 0.1473500014981255, 0.26094999338965863, 0.2740500058280304, 0.14505000217468478, 0.14055000065127388, 0.2212999970652163, 0.1464000015403144, 0.139749998197658, 0.13770000077784061, 0.12494999828049913, 0.14075000217417255, 0.14010000086273067, 0.19609999799286015, 0.1392499980283901, 0.140350002766354],
  "Depth": 2.0,
  "Expectation Value": -5.5708723068237305,
  "Optimal Expectation Value": -5.571199893951416,
  "Optimizer durations [ms]": [4.442, 3.804, 3.728, 3.727, 4.038, 3.782, 3.749, 3.779, 4.426, 3.779, 3.704, 3.834, 3.93, 3.779, 3.785, 3.624, 3.914, 3.738, 3.736, 3.775, 3.814, 4.154, 4.14, 3.962, 4.023, 3.754, 3.845, 3.8, 3.829, 3.838, 3.968, 3.923, 4.09, 4.033, 3.83, 3.781, 3.678, 3.765, 3.787, 3.783, 3.894, 3.705, 3.78, 3.869, 3.816, 3.74, 3.723, 3.765, 3.772, 3.738, 3.824, 3.778, 3.849, 3.729, 3.748, 3.719, 3.776, 3.744, 3.783, 3.766, 3.794, 3.724, 3.735, 3.726, 3.771, 3.892, 4.116, 3.739, 4.7, 3.789, 3.75, 3.786, 3.772, 3.764, 3.769, 3.767, 4.118, 3.764, 3.767, 3.788, 3.921, 3.809, 4.372, 3.879, 4.172, 3.881, 3.764, 3.881, 4.141, 3.821, 3.835, 3.873, 3.783, 3.778, 3.808, 3.793, 3.784, 3.769, 3.814, 3.746, 3.754, 3.726, 3.781, 3.717, 3.996, 3.797, 3.896, 3.924, 3.783, 3.788, 3.791, 15.681, 3.857, 3.861, 3.816, 3.778, 3.805, 3.822, 3.762, 3.742, 3.984, 3.764, 4.097, 3.775, 3.723, 5.105, 7.866, 3.838, 5.265, 4.05, 4.874, 3.77, 13.23, 4.981, 4.0, 3.833, 3.818, 7.02, 4.062, 3.866, 4.363, 3.829, 3.805, 3.803, 6.661, 3.814, 4.119, 4.994, 3.786, 3.972, 3.851, 7.05, 14.167, 3.888, 3.738, 5.133, 3.853, 3.827, 3.879, 5.845, 4.164, 3.948, 3.939, 5.108, 3.958, 3.923, 6.154, 16.171, 4.358, 3.774, 5.21, 4.072, 3.792, 3.781, 6.473, 3.81, 3.838, 4.921, 3.774, 3.854],
  "Optimizer iterations": 180,
  "Optimizer params": [0.9995007365567736, 0.4968993058980991, 0.9925162535861959, 0.5009977249743037, 0.49510548847125885, 0.0028188161059962084, 0.4991640753112868, 0.5032806934370987, 0.004258567829471856],
  "P": 0,
  "Problem": "RH",
  "QJob durations [ms]": [0.16370000230381265, 0.14125000234344043, 0.13944999591330998, 0.13970000145491213, 0.1541500023449771, 0.139899999339832, 0.14015000488143414, 0.13934999878983945, 0.14525000005960464, 0.13995000335853547, 0.13829999807057902, 0.14024999836692587, 0.14295000073616393, 0.1395499966747593, 0.14059999739401974, 0.1330499981122557, 0.14240000018617138, 0.13899999976274557, 0.13979999857838266, 0.13944999955128878, 0.1413000027241651, 0.15130000247154385, 0.1468499976908788, 0.13965000107418746, 0.148899998748675, 0.13824999768985435, 0.13970000145491213, 0.13955000395071693, 0.14119999832473695, 0.1415999977325555, 0.1458000006095972, 0.1441999957023654, 0.14574999659089372, 0.1429999974789098, 0.14070000179344788, 0.13980000221636146, 0.13485000090440735, 0.1401999979862012, 0.14039999950909987, 0.14059999739401974, 0.14475000352831557, 0.1370999962091446, 0.1389500030199997, 0.14274999921326526, 0.1423499961674679, 0.13955000395071693, 0.14009999722475186, 0.1389499993820209, 0.14010000450070947, 0.1384999995934777, 0.14194999675964937, 0.13984999895910732, 0.14060000103199854, 0.13995000335853547, 0.13984999532112852, 0.13934999878983945, 0.14060000103199854, 0.13780000153928995, 0.13874999785912223, 0.1383499984513037, 0.13904999650549144, 0.13919999764766544, 0.13899999976274557, 0.13965000107418746, 0.14060000103199854, 0.14169999849400483, 0.14740000187885016, 0.13930000204709359, 0.1847000021371059, 0.13905000014347024, 0.13900000340072438, 0.1386499970976729, 0.13829999807057902, 0.13809999654768035, 0.13774999752058648, 0.13830000170855783, 0.15435000386787578, 0.13815000420436263, 0.13829999807057902, 0.13884999862057157, 0.1472000039939303, 0.139899999339832, 0.16969999705906957, 0.14364999879035167, 0.1538500000606291, 0.14245000056689605, 0.13955000031273812, 0.1414499965903815, 0.1520000005257316, 0.14010000450070947, 0.14089999967836775, 0.13859999671694823, 0.13929999840911478, 0.1389499993820209, 0.1392499980283901, 0.13869999747839756, 0.13944999955128878, 0.13900000340072438, 0.14164999811328016, 0.1397500018356368, 0.13940000280854292, 0.13904999650549144, 0.1413000027241651, 0.13810000382363796, 0.15114999769139104, 0.14020000162418, 0.13670000407728367, 0.14200000077835284, 0.13950000356999226, 0.1400500041199848, 0.13884999862057157, 0.12880000213044696, 0.1377500047965441, 0.14340000416268595, 0.14120000196271576, 0.1395499966747593, 0.13984999532112852, 0.13900000340072438, 0.13874999785912223, 0.13659999967785552, 0.1434500009054318, 0.13869999747839756, 0.149049999890849, 0.14025000200490467, 0.13935000242781825, 0.14020000162418, 0.1428500036126934, 0.14060000103199854, 0.20865000624326058, 0.14664999980595894, 0.19085000167251565, 0.140350002766354, 0.11995000386377797, 0.1962000060302671, 0.14320000263978727, 0.14044999625184573, 0.1403499954903964, 0.32419999479316175, 0.14510000255540945, 0.14319999536382966, 0.16789999790489674, 0.1406500014127232, 0.14044999988982454, 0.14014999760547653, 0.12119999519200064, 0.14105000082054175, 0.1467000001866836, 0.19409999367780983, 0.14120000196271576, 0.14375000318977982, 0.14194999675964937, 0.3104999996139668, 0.13969999781693332, 0.1431499986210838, 0.139749998197658, 0.20524999490589835, 0.14250000094762072, 0.13965000107418746, 0.14074999853619374, 0.2605500012577977, 0.14829999417997897, 0.14614999963669106, 0.14584999735234305, 0.1551000023027882, 0.13915000090491958, 0.1473500014981255, 0.26094999338965863, 0.2740500058280304, 0.14505000217468478, 0.14055000065127388, 0.2212999970652163, 0.1464000015403144, 0.139749998197658, 0.13770000077784061, 0.12494999828049913, 0.14075000217417255, 0.14010000086273067, 0.19609999799286015, 0.1392499980283901, 0.140350002766354],
  "QPU": "7000000",
  "Qubits": 9,
  "Queue durations [ms]": [0.0, 0.0, 0.0, 0.0, 0.0, 0.0, 0.0, 0.0, 0.0, 0.0, 0.0, 0.0, 0.0, 0.0, 0.0, 0.0, 0.0, 0.0, 0.0, 0.0, 0.0, 0.0, 0.0, 0.0, 0.0, 0.0, 0.0, 0.0, 0.0, 0.0, 0.0, 0.0, 0.0, 0.0, 0.0, 0.0, 0.0, 0.0, 0.0, 0.0, 0.0, 0.0, 0.0, 0.0, 0.0, 0.0, 0.0, 0.0, 0.0, 0.0, 0.0, 0.0, 0.0, 0.0, 0.0, 0.0, 0.0, 0.0, 0.0, 0.0, 0.0, 0.0, 0.0, 0.0, 0.0, 0.0, 0.0, 0.0, 0.0, 0.0, 0.0, 0.0, 0.0, 0.0, 0.0, 0.0, 0.0, 0.0, 0.0, 0.0, 0.0, 0.0, 0.0, 0.0, 0.0, 0.0, 0.0, 0.0, 0.0, 0.0, 0.0, 0.0, 0.0, 0.0, 0.0, 0.0, 0.0, 0.0, 0.0, 0.0, 0.0, 0.0, 0.0, 0.0, 0.0, 0.0, 0.0, 0.0, 0.0, 0.0, 0.0, 0.0, 0.0, 0.0, 0.0, 0.0, 0.0, 0.0, 0.0, 0.0, 0.0, 0.0, 0.0, 0.0, 0.0, 0.0, 0.0, 0.0, 0.0, 0.0, 0.0, 0.0, 0.0, 0.0, 0.0, 0.0, 0.0, 0.0, 0.0, 0.0, 0.0, 0.0, 0.0, 0.0, 0.0, 0.0, 0.0, 0.0, 0.0, 0.0, 0.0, 0.0, 0.0, 0.0, 0.0, 0.0, 0.0, 0.0, 0.0, 0.0, 0.0, 0.0, 0.0, 0.0, 0.0, 0.0, 0.0, 0.0, 0.0, 0.0, 0.0, 0.0, 0.0, 0.0, 0.0, 0.0, 0.0, 0.0, 0.0, 0.0],
  "Shots": 4096,
  "Size": 9,
  "Total Algorithm duration [s]": 0.769,
  "Total Classic duration [s]": 0.742368400005711,
  "Total Quantum duration [s]": 0.02663159999428899
}
