{
  "Circuit execution durations [ms]": [0.1518499993835576, 0.1407999952789396, 0.17789999401429668, 0.14025000200490467, 0.13934999878983945, 0.14149999697110616, 0.1413000027241651, 0.14480000027106144, 0.1458000006095972, 0.13904999650549144, 0.13925000166636892, 0.1383499984513037, 0.15254999743774533, 0.13984999895910732, 0.13785000192001462, 0.14704999921377748, 0.1388000018778257, 0.13925000166636892, 0.13994999972055666, 0.15005000022938475, 0.13905000014347024, 0.14155000098980963, 0.14089999604038894, 0.14599999849451706, 0.13979999857838266, 0.1384999995934777, 0.13950000356999226, 0.1455999954487197, 0.14884999836795032, 0.13829999807057902, 0.14275000285124406, 0.1467000001866836, 0.13969999781693332, 0.13840000247000717, 0.14290000399341807, 0.14400000145542435, 0.14044999625184573, 0.13869999747839756, 0.1386499970976729, 0.1399000029778108, 0.13860000399290584, 0.14030000238562934, 0.1395499966747593, 0.14335000378196128, 0.14474999625235796, 0.14430000010179356, 0.1407999989169184, 0.14105000082054175, 0.1448500006517861, 0.13829999807057902, 0.13855000361218117, 0.13930000204709359, 0.13889999900129624, 0.13860000035492703, 0.1389499993820209, 0.13839999883202836, 0.13829999807057902, 0.13949999993201345, 0.13860000399290584, 0.15980000171111897, 0.1397500018356368, 0.13829999807057902, 0.15705000259913504, 0.20234999465174042, 0.14680000458611175, 0.13959999705548398, 0.139749998197658, 0.1380499998049345, 0.18849999469239265, 0.1448499970138073, 0.14134999946691096, 0.14009999722475186, 0.14114999794401228, 0.13925000166636892, 0.13889999900129624, 0.14335000378196128, 0.14290000035543926, 0.13949999993201345, 0.19824999617412686, 0.13884999862057157, 0.14140000348561443, 0.14015000488143414, 0.2612000062072184, 0.14319999900180846, 0.22154999169288203, 0.1372499973513186, 0.13745000251219608, 0.1380500034429133, 0.13970000145491213, 0.13904999650549144, 0.1406500014127232, 0.13825000496581197, 0.1413000027241651, 0.14120000196271576, 0.23780000265105627, 0.14075000217417255, 0.15265000183717348, 0.14224999904399738, 0.18930000078398734, 0.14539999756379984, 0.14349999764817767, 0.2207000034104567, 0.12440000136848539, 0.14245000420487486, 0.14000000010128133, 0.19349999638507143, 0.1405000002705492, 0.13925000166636892, 0.14014999760547653, 0.24769999436102808, 0.14030000238562934, 0.14385000395122916, 0.1403499991283752, 0.19615000201156363, 0.14394999743672088, 0.1483999949414283, 0.14584999735234305, 0.28870000096503645, 0.14709999959450215, 0.14169999849400483, 0.1412999990861863, 0.19315000463393517, 0.1414499965903815, 0.140050000482006, 0.13920000128564425, 0.12535000132629648, 0.14055000065127388, 0.1432999997632578, 0.19644999701995403, 0.1448500006517861, 0.1403499954903964, 0.14110000483924523, 0.12549999883049168, 0.12984999921172857, 0.20814999879803509, 0.139749998197658, 0.14000000010128133, 0.14059999739401974, 0.1403499991283752],
  "Depth": 2.0,
  "Expectation Value": -5.5635809898376465,
  "Optimal Expectation Value": -5.571199893951416,
  "Optimizer durations [ms]": [4.443, 3.904, 4.646, 4.289, 4.526, 3.799, 3.874, 3.96, 3.987, 3.778, 3.772, 3.785, 4.251, 3.877, 3.737, 3.889, 3.748, 3.763, 3.766, 3.977, 3.725, 3.936, 3.784, 4.171, 3.808, 3.773, 3.794, 4.159, 4.066, 3.763, 3.982, 3.994, 3.798, 3.792, 4.077, 3.849, 3.789, 3.717, 3.704, 3.765, 3.77, 3.825, 3.807, 3.977, 4.016, 3.902, 3.847, 3.784, 3.902, 3.746, 3.712, 3.821, 3.726, 3.721, 3.778, 3.714, 3.723, 3.784, 3.725, 4.169, 3.729, 3.699, 4.128, 5.054, 7.171, 12.686, 3.759, 3.742, 4.824, 4.003, 3.807, 3.758, 4.348, 3.715, 3.717, 5.234, 7.3, 3.762, 4.983, 3.822, 3.911, 3.757, 6.106, 10.306, 5.085, 4.102, 3.736, 5.086, 6.542, 3.799, 4.831, 3.755, 3.904, 3.851, 5.612, 4.195, 4.227, 3.83, 4.836, 3.96, 3.843, 5.249, 17.881, 4.063, 3.798, 4.896, 3.807, 3.763, 3.809, 5.764, 3.95, 3.79, 3.753, 4.909, 3.889, 3.955, 3.945, 7.487, 13.337, 3.858, 3.787, 4.832, 3.812, 3.791, 3.758, 6.434, 3.858, 3.918, 4.952, 4.115, 3.802, 3.737, 6.519, 18.203, 6.421, 4.093, 3.792, 3.752, 3.75],
  "Optimizer iterations": 139,
  "Optimizer params": [0.9999999999999997, 0.5003570759912066, 0.9943532573010873, 0.49942091071298456, 0.5036815739289344, 0.9784823140528377, 0.4971426446627982, 0.49871764642461147, 1.0],
  "P": 0,
  "Problem": "RH",
  "QJob durations [ms]": [0.1518499993835576, 0.1407999952789396, 0.17789999401429668, 0.14025000200490467, 0.13934999878983945, 0.14149999697110616, 0.1413000027241651, 0.14480000027106144, 0.1458000006095972, 0.13904999650549144, 0.13925000166636892, 0.1383499984513037, 0.15254999743774533, 0.13984999895910732, 0.13785000192001462, 0.14704999921377748, 0.1388000018778257, 0.13925000166636892, 0.13994999972055666, 0.15005000022938475, 0.13905000014347024, 0.14155000098980963, 0.14089999604038894, 0.14599999849451706, 0.13979999857838266, 0.1384999995934777, 0.13950000356999226, 0.1455999954487197, 0.14884999836795032, 0.13829999807057902, 0.14275000285124406, 0.1467000001866836, 0.13969999781693332, 0.13840000247000717, 0.14290000399341807, 0.14400000145542435, 0.14044999625184573, 0.13869999747839756, 0.1386499970976729, 0.1399000029778108, 0.13860000399290584, 0.14030000238562934, 0.1395499966747593, 0.14335000378196128, 0.14474999625235796, 0.14430000010179356, 0.1407999989169184, 0.14105000082054175, 0.1448500006517861, 0.13829999807057902, 0.13855000361218117, 0.13930000204709359, 0.13889999900129624, 0.13860000035492703, 0.1389499993820209, 0.13839999883202836, 0.13829999807057902, 0.13949999993201345, 0.13860000399290584, 0.15980000171111897, 0.1397500018356368, 0.13829999807057902, 0.15705000259913504, 0.20234999465174042, 0.14680000458611175, 0.13959999705548398, 0.139749998197658, 0.1380499998049345, 0.18849999469239265, 0.1448499970138073, 0.14134999946691096, 0.14009999722475186, 0.14114999794401228, 0.13925000166636892, 0.13889999900129624, 0.14335000378196128, 0.14290000035543926, 0.13949999993201345, 0.19824999617412686, 0.13884999862057157, 0.14140000348561443, 0.14015000488143414, 0.2612000062072184, 0.14319999900180846, 0.22154999169288203, 0.1372499973513186, 0.13745000251219608, 0.1380500034429133, 0.13970000145491213, 0.13904999650549144, 0.1406500014127232, 0.13825000496581197, 0.1413000027241651, 0.14120000196271576, 0.23780000265105627, 0.14075000217417255, 0.15265000183717348, 0.14224999904399738, 0.18930000078398734, 0.14539999756379984, 0.14349999764817767, 0.2207000034104567, 0.12440000136848539, 0.14245000420487486, 0.14000000010128133, 0.19349999638507143, 0.1405000002705492, 0.13925000166636892, 0.14014999760547653, 0.24769999436102808, 0.14030000238562934, 0.14385000395122916, 0.1403499991283752, 0.19615000201156363, 0.14394999743672088, 0.1483999949414283, 0.14584999735234305, 0.28870000096503645, 0.14709999959450215, 0.14169999849400483, 0.1412999990861863, 0.19315000463393517, 0.1414499965903815, 0.140050000482006, 0.13920000128564425, 0.12535000132629648, 0.14055000065127388, 0.1432999997632578, 0.19644999701995403, 0.1448500006517861, 0.1403499954903964, 0.14110000483924523, 0.12549999883049168, 0.12984999921172857, 0.20814999879803509, 0.139749998197658, 0.14000000010128133, 0.14059999739401974, 0.1403499991283752],
  "QPU": "7000000",
  "Qubits": 9,
  "Queue durations [ms]": [0.0, 0.0, 0.0, 0.0, 0.0, 0.0, 0.0, 0.0, 0.0, 0.0, 0.0, 0.0, 0.0, 0.0, 0.0, 0.0, 0.0, 0.0, 0.0, 0.0, 0.0, 0.0, 0.0, 0.0, 0.0, 0.0, 0.0, 0.0, 0.0, 0.0, 0.0, 0.0, 0.0, 0.0, 0.0, 0.0, 0.0, 0.0, 0.0, 0.0, 0.0, 0.0, 0.0, 0.0, 0.0, 0.0, 0.0, 0.0, 0.0, 0.0, 0.0, 0.0, 0.0, 0.0, 0.0, 0.0, 0.0, 0.0, 0.0, 0.0, 0.0, 0.0, 0.0, 0.0, 0.0, 0.0, 0.0, 0.0, 0.0, 0.0, 0.0, 0.0, 0.0, 0.0, 0.0, 0.0, 0.0, 0.0, 0.0, 0.0, 0.0, 0.0, 0.0, 0.0, 0.0, 0.0, 0.0, 0.0, 0.0, 0.0, 0.0, 0.0, 0.0, 0.0, 0.0, 0.0, 0.0, 0.0, 0.0, 0.0, 0.0, 0.0, 0.0, 0.0, 0.0, 0.0, 0.0, 0.0, 0.0, 0.0, 0.0, 0.0, 0.0, 0.0, 0.0, 0.0, 0.0, 0.0, 0.0, 0.0, 0.0, 0.0, 0.0, 0.0, 0.0, 0.0, 0.0, 0.0, 0.0, 0.0, 0.0, 0.0, 0.0, 0.0, 0.0, 0.0, 0.0, 0.0, 0.0],
  "Shots": 4096,
  "Size": 9,
  "Total Algorithm duration [s]": 0.633,
  "Total Classic duration [s]": 0.6122125500207476,
  "Total Quantum duration [s]": 0.020787449979252415
}
