{
  "Circuit execution durations [ms]": [0.1414500002283603, 0.13780000517726876, 0.1383500020892825, 0.14740000187885016, 0.1419000000169035, 0.13859999671694823, 0.13940000280854292, 0.14414999532164074, 0.14030000238562934, 0.13965000107418746, 0.13789999866276048, 0.14260000170907006, 0.1382000009471085, 0.13705000310437754, 0.14754999574506655, 0.1373999984934926, 0.15579999308101833, 0.14229999578674324, 0.13745000251219608, 0.1425500013283454, 0.14785000166739337, 0.1388000018778257, 0.13915000090491958, 0.13840000247000717, 0.13824999768985435, 0.13935000242781825, 0.14520000331685878, 0.13770000077784061, 0.13795000268146396, 0.1389500030199997, 0.1374000021314714, 0.1370999998471234, 0.14010000086273067, 0.13560000297729857, 0.1375499996356666, 0.1412999990861863, 0.15425000310642645, 0.13979999857838266, 0.13939999917056412, 0.13624999701278284, 0.13929999840911478, 0.1451499956601765, 0.14414999895961955, 0.14479999663308263, 0.139899999339832, 0.14165000175125897, 0.1389499993820209, 0.1386499970976729, 0.14644999828306027, 0.13869999747839756, 0.13704999946639873, 0.13715000022784807, 0.136650003696559, 0.13934999515186064, 0.14000000373926014, 0.1431499986210838, 0.13755000327364542, 0.1367999975627754, 0.13765000403509475, 0.1411500015819911, 0.1459499981137924, 0.14024999836692587, 0.13729999773204327, 0.14060000103199854, 0.14339999688672833, 0.13770000077784061, 0.13734999811276793, 0.13935000242781825, 0.13825000496581197, 0.1388000018778257, 0.13855000361218117, 0.13929999840911478, 0.13969999781693332, 0.1382000009471085, 0.13730000137002207, 0.1369499987049494, 0.13760000365437008, 0.13799999942420982, 0.13715000022784807, 0.13625000065076165, 0.13674999718205072, 0.13819999730912969, 0.1421999986632727, 0.1415999977325555, 0.13720000060857274, 0.1376999971398618, 0.13689999832422473, 0.1369499987049494, 0.13900000340072438, 0.13970000145491213, 0.1382000009471085, 0.13735000175074674, 0.13939999917056412, 0.1367999975627754, 0.14105000082054175, 0.14260000170907006, 0.143749999551801, 0.14150000060908496, 0.13765000039711595, 0.14169999849400483, 0.1368000012007542, 0.14210000153980218, 0.13699999908567406, 0.13639999815495685, 0.13925000166636892, 0.14564999946742319, 0.1384999995934777, 0.1396000006934628, 0.13949999993201345, 0.1389499993820209, 0.13905000014347024, 0.13915000090491958, 0.1388000018778257, 0.13839999883202836, 0.14535000082105398, 0.13685000158147886, 0.1369499987049494, 0.1369499987049494, 0.1382000009471085, 0.13854999997420236, 0.13770000441581942, 0.13755000327364542, 0.13734999811276793, 0.13855000361218117, 0.13829999807057902, 0.13914999726694077, 0.13689999832422473, 0.13780000153928995, 0.14155000462778844, 0.13770000077784061, 0.14229999578674324, 0.13785000192001462, 0.13755000327364542, 0.13749999925494194, 0.1379000023007393, 0.1384999995934777, 0.136800004838733, 0.13765000039711595, 0.1379000023007393, 0.20370000129332766, 0.14239999654819258, 0.1419000000169035, 0.14399999781744555, 0.1396000006934628, 0.16834999769343995, 0.1383499984513037, 0.14604999887524173, 0.23454999609384686, 0.15454999811481684, 0.13925000166636892, 0.13660000331583433, 0.13640000179293565, 0.13704999946639873, 0.13775000115856528, 0.13644999853568152, 0.1416000050085131, 0.13674999718205072, 0.13575000411947258, 0.13670000043930486, 0.14495000505121425, 0.13670000043930486, 0.13720000424655154, 0.13675000082002953, 0.1384999959554989, 0.13964999743620865, 0.13580000086221844, 0.1976000021386426, 0.1453000004403293, 0.1369500023429282, 0.13630000103148632, 0.13635000141221099, 0.13660000331583433, 0.14290000399341807, 0.1371000034851022, 0.1419000000169035, 0.136500002554385, 0.13625000065076165, 0.13624999701278284, 0.1369500023429282, 0.1378499982820358, 0.13799999942420982, 0.15050000365590677, 0.1353999978164211, 0.14154999735183083],
  "Depth": 2.0,
  "Expectation Value": -5.571199893951416,
  "Optimal Expectation Value": -5.571199893951416,
  "Optimizer durations [ms]": [3.932, 3.682, 3.908, 3.947, 3.864, 3.767, 3.76, 3.858, 3.889, 3.751, 3.713, 3.814, 3.7, 3.65, 3.859, 3.655, 4.213, 3.898, 3.67, 3.86, 4.212, 3.852, 3.875, 3.956, 3.89, 3.82, 3.864, 3.784, 3.815, 3.742, 3.748, 3.7, 3.743, 3.643, 3.671, 3.752, 4.083, 3.733, 3.725, 3.632, 4.008, 4.56, 3.866, 4.431, 3.865, 3.799, 3.75, 3.764, 3.968, 3.651, 3.652, 3.664, 3.643, 3.747, 3.713, 3.782, 4.067, 3.733, 3.749, 3.8, 3.879, 3.728, 3.658, 3.847, 3.814, 3.695, 3.814, 3.712, 3.704, 3.71, 3.694, 3.682, 3.731, 3.818, 3.659, 3.641, 3.666, 3.739, 3.669, 3.644, 3.666, 3.711, 3.94, 3.733, 3.702, 3.723, 3.645, 3.667, 3.7, 3.731, 3.686, 3.859, 3.744, 3.735, 3.794, 3.881, 3.899, 3.765, 3.7, 3.826, 3.731, 3.883, 3.659, 3.668, 3.883, 3.916, 3.72, 3.793, 3.788, 3.738, 4.13, 3.736, 3.715, 3.696, 3.847, 3.677, 3.664, 3.658, 3.681, 3.78, 3.679, 3.669, 3.818, 3.729, 3.717, 3.864, 3.698, 3.84, 3.783, 3.659, 3.802, 3.705, 3.658, 3.788, 3.691, 3.751, 3.627, 3.686, 3.705, 7.406, 3.897, 3.878, 3.795, 3.827, 4.371, 3.737, 3.893, 14.574, 12.929, 7.669, 3.767, 3.773, 4.817, 3.766, 3.799, 3.875, 6.172, 3.777, 3.757, 3.877, 3.762, 3.77, 3.78, 3.897, 7.752, 3.751, 6.247, 10.889, 3.801, 3.764, 3.757, 3.782, 3.797, 5.906, 3.939, 3.764, 3.734, 3.873, 3.756, 3.803, 3.748, 4.042, 3.8, 3.849],
  "Optimizer iterations": 184,
  "Optimizer params": [0.0033537638769595072, 0.4983403311381541, 1.0, 0.4960527758173408, 0.49743248135192436, 0.998417422013095, 0.4971218207347388, 0.4962458939708103, 1.0],
  "P": 0,
  "Problem": "RH",
  "QJob durations [ms]": [0.1414500002283603, 0.13780000517726876, 0.1383500020892825, 0.14740000187885016, 0.1419000000169035, 0.13859999671694823, 0.13940000280854292, 0.14414999532164074, 0.14030000238562934, 0.13965000107418746, 0.13789999866276048, 0.14260000170907006, 0.1382000009471085, 0.13705000310437754, 0.14754999574506655, 0.1373999984934926, 0.15579999308101833, 0.14229999578674324, 0.13745000251219608, 0.1425500013283454, 0.14785000166739337, 0.1388000018778257, 0.13915000090491958, 0.13840000247000717, 0.13824999768985435, 0.13935000242781825, 0.14520000331685878, 0.13770000077784061, 0.13795000268146396, 0.1389500030199997, 0.1374000021314714, 0.1370999998471234, 0.14010000086273067, 0.13560000297729857, 0.1375499996356666, 0.1412999990861863, 0.15425000310642645, 0.13979999857838266, 0.13939999917056412, 0.13624999701278284, 0.13929999840911478, 0.1451499956601765, 0.14414999895961955, 0.14479999663308263, 0.139899999339832, 0.14165000175125897, 0.1389499993820209, 0.1386499970976729, 0.14644999828306027, 0.13869999747839756, 0.13704999946639873, 0.13715000022784807, 0.136650003696559, 0.13934999515186064, 0.14000000373926014, 0.1431499986210838, 0.13755000327364542, 0.1367999975627754, 0.13765000403509475, 0.1411500015819911, 0.1459499981137924, 0.14024999836692587, 0.13729999773204327, 0.14060000103199854, 0.14339999688672833, 0.13770000077784061, 0.13734999811276793, 0.13935000242781825, 0.13825000496581197, 0.1388000018778257, 0.13855000361218117, 0.13929999840911478, 0.13969999781693332, 0.1382000009471085, 0.13730000137002207, 0.1369499987049494, 0.13760000365437008, 0.13799999942420982, 0.13715000022784807, 0.13625000065076165, 0.13674999718205072, 0.13819999730912969, 0.1421999986632727, 0.1415999977325555, 0.13720000060857274, 0.1376999971398618, 0.13689999832422473, 0.1369499987049494, 0.13900000340072438, 0.13970000145491213, 0.1382000009471085, 0.13735000175074674, 0.13939999917056412, 0.1367999975627754, 0.14105000082054175, 0.14260000170907006, 0.143749999551801, 0.14150000060908496, 0.13765000039711595, 0.14169999849400483, 0.1368000012007542, 0.14210000153980218, 0.13699999908567406, 0.13639999815495685, 0.13925000166636892, 0.14564999946742319, 0.1384999995934777, 0.1396000006934628, 0.13949999993201345, 0.1389499993820209, 0.13905000014347024, 0.13915000090491958, 0.1388000018778257, 0.13839999883202836, 0.14535000082105398, 0.13685000158147886, 0.1369499987049494, 0.1369499987049494, 0.1382000009471085, 0.13854999997420236, 0.13770000441581942, 0.13755000327364542, 0.13734999811276793, 0.13855000361218117, 0.13829999807057902, 0.13914999726694077, 0.13689999832422473, 0.13780000153928995, 0.14155000462778844, 0.13770000077784061, 0.14229999578674324, 0.13785000192001462, 0.13755000327364542, 0.13749999925494194, 0.1379000023007393, 0.1384999995934777, 0.136800004838733, 0.13765000039711595, 0.1379000023007393, 0.20370000129332766, 0.14239999654819258, 0.1419000000169035, 0.14399999781744555, 0.1396000006934628, 0.16834999769343995, 0.1383499984513037, 0.14604999887524173, 0.23454999609384686, 0.15454999811481684, 0.13925000166636892, 0.13660000331583433, 0.13640000179293565, 0.13704999946639873, 0.13775000115856528, 0.13644999853568152, 0.1416000050085131, 0.13674999718205072, 0.13575000411947258, 0.13670000043930486, 0.14495000505121425, 0.13670000043930486, 0.13720000424655154, 0.13675000082002953, 0.1384999959554989, 0.13964999743620865, 0.13580000086221844, 0.1976000021386426, 0.1453000004403293, 0.1369500023429282, 0.13630000103148632, 0.13635000141221099, 0.13660000331583433, 0.14290000399341807, 0.1371000034851022, 0.1419000000169035, 0.136500002554385, 0.13625000065076165, 0.13624999701278284, 0.1369500023429282, 0.1378499982820358, 0.13799999942420982, 0.15050000365590677, 0.1353999978164211, 0.14154999735183083],
  "QPU": "7000000",
  "Qubits": 9,
  "Queue durations [ms]": [0.0, 0.0, 0.0, 0.0, 0.0, 0.0, 0.0, 0.0, 0.0, 0.0, 0.0, 0.0, 0.0, 0.0, 0.0, 0.0, 0.0, 0.0, 0.0, 0.0, 0.0, 0.0, 0.0, 0.0, 0.0, 0.0, 0.0, 0.0, 0.0, 0.0, 0.0, 0.0, 0.0, 0.0, 0.0, 0.0, 0.0, 0.0, 0.0, 0.0, 0.0, 0.0, 0.0, 0.0, 0.0, 0.0, 0.0, 0.0, 0.0, 0.0, 0.0, 0.0, 0.0, 0.0, 0.0, 0.0, 0.0, 0.0, 0.0, 0.0, 0.0, 0.0, 0.0, 0.0, 0.0, 0.0, 0.0, 0.0, 0.0, 0.0, 0.0, 0.0, 0.0, 0.0, 0.0, 0.0, 0.0, 0.0, 0.0, 0.0, 0.0, 0.0, 0.0, 0.0, 0.0, 0.0, 0.0, 0.0, 0.0, 0.0, 0.0, 0.0, 0.0, 0.0, 0.0, 0.0, 0.0, 0.0, 0.0, 0.0, 0.0, 0.0, 0.0, 0.0, 0.0, 0.0, 0.0, 0.0, 0.0, 0.0, 0.0, 0.0, 0.0, 0.0, 0.0, 0.0, 0.0, 0.0, 0.0, 0.0, 0.0, 0.0, 0.0, 0.0, 0.0, 0.0, 0.0, 0.0, 0.0, 0.0, 0.0, 0.0, 0.0, 0.0, 0.0, 0.0, 0.0, 0.0, 0.0, 0.0, 0.0, 0.0, 0.0, 0.0, 0.0, 0.0, 0.0, 0.0, 0.0, 0.0, 0.0, 0.0, 0.0, 0.0, 0.0, 0.0, 0.0, 0.0, 0.0, 0.0, 0.0, 0.0, 0.0, 0.0, 0.0, 0.0, 0.0, 0.0, 0.0, 0.0, 0.0, 0.0, 0.0, 0.0, 0.0, 0.0, 0.0, 0.0, 0.0, 0.0, 0.0, 0.0, 0.0, 0.0],
  "Shots": 4096,
  "Size": 9,
  "Total Algorithm duration [s]": 0.744,
  "Total Classic duration [s]": 0.7180774499514373,
  "Total Quantum duration [s]": 0.025922550048562698
}
