{
  "Circuit execution durations [ms]": [0.17814999591792002, 0.14244999692891724, 0.14290000035543926, 0.1387999982398469, 0.1508999994257465, 0.14195000039762817, 0.14364999879035167, 0.13965000107418746, 0.14090000331634656, 0.13959999705548398, 0.14230000306270085, 0.13925000166636892, 0.13969999781693332, 0.13829999807057902, 0.1427000024705194, 0.1482500010752119, 0.1401999979862012, 0.13964999743620865, 0.13939999917056412, 0.15065000116010197, 0.13984999895910732, 0.13854999997420236, 0.15179999900283292, 0.14010000086273067, 0.13714999658986926, 0.14029999874765053, 0.1521500016679056, 0.14000000010128133, 0.1389499993820209, 0.13789999866276048, 0.14105000082054175, 0.14244999692891724, 0.13654999929713085, 0.14000000010128133, 0.14220000230125152, 0.1391000005241949, 0.1391000005241949, 0.13859999671694823, 0.14009999722475186, 0.13965000107418746, 0.13955000031273812, 0.14184999963617884, 0.1400499968440272, 0.140050000482006, 0.1385000032314565, 0.13789999866276048, 0.1451499992981553, 0.14240000018617138, 0.13869999747839756, 0.14844999896013178, 0.14664999980595894, 0.14885000200592913, 0.14385000031325035, 0.14464999912888743, 0.1473499978601467, 0.14239999654819258, 0.1391000005241949, 0.1464000015403144, 0.149049999890849, 0.14014999760547653, 0.13825000132783316, 0.1397500018356368, 0.13905000378144905, 0.1453000004403293, 0.14095000005909242, 0.14884999836795032, 0.15160000111791305, 0.14134999582893215, 0.14055000065127388, 0.1400499968440272, 0.14105000082054175, 0.14635000115958974, 0.14074999853619374, 0.14135000310488977, 0.14070000179344788, 0.14015000124345534, 0.13919999764766544, 0.13949999993201345, 0.13929999840911478, 0.1417500025127083, 0.13899999976274557, 0.14105000082054175, 0.13854999997420236, 0.14480000027106144, 0.14024999836692587, 0.1406499977747444, 0.1389500030199997, 0.1436000020476058, 0.1399000029778108, 0.13970000145491213, 0.13885000225855038, 0.14024999836692587, 0.13944999955128878, 0.14000000010128133, 0.14680000094813295, 0.14119999832473695, 0.14010000086273067, 0.1386499970976729, 0.13889999900129624, 0.18080000154441223, 0.14295000073616393, 0.13965000107418746, 0.14044999988982454, 0.14180000289343297, 0.14390000069397502, 0.1452999968023505, 0.14620000001741573, 0.14419999934034422, 0.13854999633622356, 0.14199999714037403, 0.14339999688672833, 0.13929999840911478, 0.13860000035492703, 0.1394500031892676, 0.14290000399341807, 0.14510000255540945, 0.14044999988982454, 0.13965000107418746, 0.1997499930439517, 0.1417499988747295, 0.1414500038663391, 0.13965000107418746, 0.13979999857838266, 0.1407999989169184, 0.14000000373926014, 0.14015000124345534, 0.15144999633776024, 0.1399000029778108, 0.13860000035492703, 0.13980000221636146, 0.2725000013015233, 0.1315000008617062, 0.22049999824957922, 0.1648499965085648, 0.14110000120126642, 0.14099999680183828, 0.14264999845181592, 0.23335000150837004, 0.1411500015819911, 0.13999999646330252, 0.14109999756328762, 0.1400499968440272, 0.14124999870546162, 0.1473499978601467, 0.14535000082105398, 0.140050000482006, 0.14480000390904024, 0.1413000027241651, 0.1412999990861863, 0.13979999857838266, 0.14105000082054175, 0.13860000035492703, 0.1394500031892676, 0.14109999756328762, 0.1497999983257614, 0.14404999819817021, 0.14604999887524173, 0.14264999845181592, 0.1484500025981106, 0.14430000010179356, 0.14265000208979473, 0.13980000221636146, 0.1389499957440421, 0.13885000225855038, 0.13889999900129624],
  "Depth": 2.0,
  "Expectation Value": -5.571039199829102,
  "Optimal Expectation Value": -5.571199893951416,
  "Optimizer durations [ms]": [4.976, 3.849, 3.841, 3.727, 4.104, 3.844, 3.854, 3.75, 3.772, 3.719, 3.906, 3.78, 3.794, 3.724, 3.835, 4.021, 3.921, 3.768, 3.775, 4.049, 3.771, 3.75, 4.128, 3.773, 3.762, 3.828, 4.027, 3.764, 3.773, 3.712, 3.787, 3.81, 3.766, 3.762, 3.794, 3.719, 3.784, 3.741, 3.788, 3.79, 3.901, 3.952, 3.834, 3.807, 3.741, 3.72, 3.916, 3.849, 3.755, 4.035, 4.05, 3.958, 3.828, 3.854, 3.935, 3.809, 3.721, 4.007, 3.933, 3.734, 3.691, 3.717, 3.981, 4.017, 3.792, 4.023, 4.063, 3.853, 3.782, 3.78, 3.756, 3.985, 3.772, 3.838, 3.876, 3.761, 3.712, 3.749, 3.738, 3.996, 3.72, 3.827, 3.75, 3.862, 3.743, 3.788, 3.75, 3.777, 3.739, 3.734, 3.718, 3.742, 3.719, 3.813, 4.086, 4.517, 3.79, 3.748, 3.784, 4.534, 3.8, 3.729, 3.763, 3.815, 3.9, 3.884, 4.098, 4.838, 4.7, 4.307, 3.814, 3.759, 3.678, 3.747, 3.975, 4.087, 3.774, 3.74, 5.033, 3.891, 3.825, 3.798, 3.852, 3.733, 3.76, 3.762, 3.983, 3.724, 3.698, 3.744, 6.208, 19.689, 6.345, 4.496, 3.806, 3.763, 3.815, 5.558, 3.955, 3.79, 3.763, 3.758, 3.792, 3.923, 3.892, 3.777, 4.031, 3.784, 3.764, 3.752, 3.802, 3.77, 3.798, 3.819, 4.122, 3.871, 3.947, 3.849, 4.109, 3.886, 3.842, 3.773, 3.718, 3.696, 3.756],
  "Optimizer iterations": 165,
  "Optimizer params": [0.9991608199297355, 0.4986327001843651, 0.997097375404419, 0.5033321898904307, 0.49620848284845875, 0.0018548486483969454, 0.49874274929819984, 0.4930785553595913, 0.9953507252722283],
  "P": 0,
  "Problem": "RH",
  "QJob durations [ms]": [0.17814999591792002, 0.14244999692891724, 0.14290000035543926, 0.1387999982398469, 0.1508999994257465, 0.14195000039762817, 0.14364999879035167, 0.13965000107418746, 0.14090000331634656, 0.13959999705548398, 0.14230000306270085, 0.13925000166636892, 0.13969999781693332, 0.13829999807057902, 0.1427000024705194, 0.1482500010752119, 0.1401999979862012, 0.13964999743620865, 0.13939999917056412, 0.15065000116010197, 0.13984999895910732, 0.13854999997420236, 0.15179999900283292, 0.14010000086273067, 0.13714999658986926, 0.14029999874765053, 0.1521500016679056, 0.14000000010128133, 0.1389499993820209, 0.13789999866276048, 0.14105000082054175, 0.14244999692891724, 0.13654999929713085, 0.14000000010128133, 0.14220000230125152, 0.1391000005241949, 0.1391000005241949, 0.13859999671694823, 0.14009999722475186, 0.13965000107418746, 0.13955000031273812, 0.14184999963617884, 0.1400499968440272, 0.140050000482006, 0.1385000032314565, 0.13789999866276048, 0.1451499992981553, 0.14240000018617138, 0.13869999747839756, 0.14844999896013178, 0.14664999980595894, 0.14885000200592913, 0.14385000031325035, 0.14464999912888743, 0.1473499978601467, 0.14239999654819258, 0.1391000005241949, 0.1464000015403144, 0.149049999890849, 0.14014999760547653, 0.13825000132783316, 0.1397500018356368, 0.13905000378144905, 0.1453000004403293, 0.14095000005909242, 0.14884999836795032, 0.15160000111791305, 0.14134999582893215, 0.14055000065127388, 0.1400499968440272, 0.14105000082054175, 0.14635000115958974, 0.14074999853619374, 0.14135000310488977, 0.14070000179344788, 0.14015000124345534, 0.13919999764766544, 0.13949999993201345, 0.13929999840911478, 0.1417500025127083, 0.13899999976274557, 0.14105000082054175, 0.13854999997420236, 0.14480000027106144, 0.14024999836692587, 0.1406499977747444, 0.1389500030199997, 0.1436000020476058, 0.1399000029778108, 0.13970000145491213, 0.13885000225855038, 0.14024999836692587, 0.13944999955128878, 0.14000000010128133, 0.14680000094813295, 0.14119999832473695, 0.14010000086273067, 0.1386499970976729, 0.13889999900129624, 0.18080000154441223, 0.14295000073616393, 0.13965000107418746, 0.14044999988982454, 0.14180000289343297, 0.14390000069397502, 0.1452999968023505, 0.14620000001741573, 0.14419999934034422, 0.13854999633622356, 0.14199999714037403, 0.14339999688672833, 0.13929999840911478, 0.13860000035492703, 0.1394500031892676, 0.14290000399341807, 0.14510000255540945, 0.14044999988982454, 0.13965000107418746, 0.1997499930439517, 0.1417499988747295, 0.1414500038663391, 0.13965000107418746, 0.13979999857838266, 0.1407999989169184, 0.14000000373926014, 0.14015000124345534, 0.15144999633776024, 0.1399000029778108, 0.13860000035492703, 0.13980000221636146, 0.2725000013015233, 0.1315000008617062, 0.22049999824957922, 0.1648499965085648, 0.14110000120126642, 0.14099999680183828, 0.14264999845181592, 0.23335000150837004, 0.1411500015819911, 0.13999999646330252, 0.14109999756328762, 0.1400499968440272, 0.14124999870546162, 0.1473499978601467, 0.14535000082105398, 0.140050000482006, 0.14480000390904024, 0.1413000027241651, 0.1412999990861863, 0.13979999857838266, 0.14105000082054175, 0.13860000035492703, 0.1394500031892676, 0.14109999756328762, 0.1497999983257614, 0.14404999819817021, 0.14604999887524173, 0.14264999845181592, 0.1484500025981106, 0.14430000010179356, 0.14265000208979473, 0.13980000221636146, 0.1389499957440421, 0.13885000225855038, 0.13889999900129624],
  "QPU": "7000000",
  "Qubits": 9,
  "Queue durations [ms]": [0.0, 0.0, 0.0, 0.0, 0.0, 0.0, 0.0, 0.0, 0.0, 0.0, 0.0, 0.0, 0.0, 0.0, 0.0, 0.0, 0.0, 0.0, 0.0, 0.0, 0.0, 0.0, 0.0, 0.0, 0.0, 0.0, 0.0, 0.0, 0.0, 0.0, 0.0, 0.0, 0.0, 0.0, 0.0, 0.0, 0.0, 0.0, 0.0, 0.0, 0.0, 0.0, 0.0, 0.0, 0.0, 0.0, 0.0, 0.0, 0.0, 0.0, 0.0, 0.0, 0.0, 0.0, 0.0, 0.0, 0.0, 0.0, 0.0, 0.0, 0.0, 0.0, 0.0, 0.0, 0.0, 0.0, 0.0, 0.0, 0.0, 0.0, 0.0, 0.0, 0.0, 0.0, 0.0, 0.0, 0.0, 0.0, 0.0, 0.0, 0.0, 0.0, 0.0, 0.0, 0.0, 0.0, 0.0, 0.0, 0.0, 0.0, 0.0, 0.0, 0.0, 0.0, 0.0, 0.0, 0.0, 0.0, 0.0, 0.0, 0.0, 0.0, 0.0, 0.0, 0.0, 0.0, 0.0, 0.0, 0.0, 0.0, 0.0, 0.0, 0.0, 0.0, 0.0, 0.0, 0.0, 0.0, 0.0, 0.0, 0.0, 0.0, 0.0, 0.0, 0.0, 0.0, 0.0, 0.0, 0.0, 0.0, 0.0, 0.0, 0.0, 0.0, 0.0, 0.0, 0.0, 0.0, 0.0, 0.0, 0.0, 0.0, 0.0, 0.0, 0.0, 0.0, 0.0, 0.0, 0.0, 0.0, 0.0, 0.0, 0.0, 0.0, 0.0, 0.0, 0.0, 0.0, 0.0, 0.0, 0.0, 0.0, 0.0, 0.0, 0.0],
  "Shots": 4096,
  "Size": 9,
  "Total Algorithm duration [s]": 0.661,
  "Total Classic duration [s]": 0.6371642500270682,
  "Total Quantum duration [s]": 0.023835749972931808
}
