{
  "Circuit execution durations [ms]": [0.16450000111944973, 0.14509999891743064, 0.15700000221841037, 0.13969999781693332, 0.14365000242833048, 0.13859999671694823, 0.13995000335853547, 0.1382000045850873, 0.1386500007356517, 0.14074999853619374, 0.1405000002705492, 0.1404999966325704, 0.14124999870546162, 0.14074999853619374, 0.13830000170855783, 0.1395499966747593, 0.14135000310488977, 0.14310000187833793, 0.1396000043314416, 0.13824999768985435, 0.1407999989169184, 0.13889999900129624, 0.13875000149710104, 0.13854999633622356, 0.15815000006114133, 0.1415999977325555, 0.1414500002283603, 0.13969999781693332, 0.1444000045012217, 0.14000000010128133, 0.13980000221636146, 0.14000000373926014, 0.1405000002705492, 0.1399000029778108, 0.1383500020892825, 0.139899999339832, 0.14179999925545417, 0.1389500030199997, 0.13944999591330998, 0.13915000090491958, 0.14279999595601112, 0.14320000263978727, 0.13929999840911478, 0.1389500030199997, 0.1389500030199997, 0.13980000221636146, 0.13934999515186064, 0.14555000234395266, 0.14014999760547653, 0.14384999667527154, 0.1420500011590775, 0.15654999879188836, 0.1468499976908788, 0.14575000022887252, 0.14259999807109125, 0.1395499966747593, 0.13999999646330252, 0.1388000018778257, 0.13884999862057157, 0.1587999977346044, 0.13994999972055666, 0.13869999747839756, 0.14445000124396756, 0.1630000042496249, 0.14184999963617884, 0.13745000251219608, 0.1358499976049643, 0.1417500025127083, 0.14430000373977236, 0.14150000424706377, 0.13300000136950985, 0.15279999934136868, 0.15084999904502183, 0.13994999972055666, 0.1324499971815385, 0.14195000039762817, 0.14319999900180846, 0.13940000280854292, 0.1391500045428984, 0.13994999608257785, 0.1383499984513037, 0.13970000145491213, 0.13970000145491213, 0.13915000090491958, 0.13310000213095918, 0.13934999878983945, 0.13915000090491958, 0.14415000259759836, 0.14009999722475186, 0.14230000306270085, 0.140350002766354, 0.19160000374540687, 0.1404999966325704, 0.13910000416217372, 0.1407999989169184, 0.14000000373926014, 0.1414499965903815, 0.14089999604038894, 0.13969999781693332, 0.13950000356999226, 0.13955000031273812, 0.13940000280854292, 0.14715000361320563, 0.15675000031478703, 0.1646999990043696, 0.14915000065229833, 0.14634999752161093, 0.17159999697469175, 0.13890000263927504, 0.1389500030199997, 0.13915000090491958, 0.13825000132783316, 0.14254999769036658, 0.1447000031475909, 0.1394500031892676, 0.14305000149761327, 0.13934999878983945, 0.13925000530434772, 0.13885000225855038, 0.14184999963617884, 0.14000000373926014, 0.148899998748675, 0.13885000225855038, 0.13870000111637637, 0.13844999921275303, 0.13934999878983945, 0.13870000111637637, 0.13969999781693332, 0.14240000018617138, 0.14074999853619374, 0.13925000166636892, 0.13915000090491958, 0.1389499993820209, 0.13889999900129624, 0.13854999997420236, 0.14630000077886507, 0.14209999790182337, 0.15050000001792796, 0.140350002766354, 0.1400499968440272, 0.13989999570185319, 0.14150000060908496, 0.14014999760547653, 0.14265000208979473, 0.13934999878983945, 0.14140000348561443, 0.14615000327466987, 0.1429999974789098, 0.14459999874816276, 0.1416000013705343, 0.1399000029778108, 0.14080000255489722, 0.13885000225855038, 0.13980000221636146, 0.1430000047548674, 0.14570000348612666, 0.14029999874765053, 0.149049999890849, 0.14409999857889488, 0.13959999705548398, 0.14245000056689605, 0.13930000204709359, 0.1391000005241949, 0.13860000399290584, 0.15084999904502183, 0.14080000255489722, 0.13949999993201345, 0.14290000035543926, 0.14459999874816276, 0.140050000482006, 0.13920000128564425, 0.14000000010128133, 0.1400499968440272, 0.13944999955128878, 0.14524999642162584, 0.14435000048251823, 0.1490500035288278, 0.13994999608257785, 0.13950000356999226, 0.14095000369707122, 0.28100000781705603, 0.1400499968440272, 0.19130000146105886, 0.14059999739401974, 0.13484999726642855, 0.14585000099032186, 0.14119999832473695, 0.14245000056689605, 0.1409499964211136, 0.13920000128564425, 0.1414500002283603, 0.1370999998471234, 0.1329000006080605, 0.13310000213095918, 0.13899999976274557, 0.13689999832422473, 0.13955000031273812, 0.13899999976274557, 0.1449999981559813, 0.25764999372768216, 0.14884999836795032, 0.1414500038663391, 0.19469999824650586, 0.13949999993201345, 0.139749998197658, 0.13920000128564425, 0.26109999453183264, 0.149350002175197, 0.21099999867146835, 0.15269999857991934, 0.14195000039762817, 0.2332499934709631, 0.14155000098980963, 0.14244999692891724, 0.14060000103199854, 0.15424999946844764, 0.13995000335853547, 0.14029999874765053, 0.24374999702558853, 0.15110000094864517, 0.14109999756328762, 0.14459999511018395, 0.19700000120792538, 0.14220000230125152, 0.14110000120126642, 0.22260000332607888, 0.1286999977310188, 0.14879999798722565, 0.14054999701329507, 0.1424999973096419, 0.1406500014127232, 0.13789999866276048, 0.14234999980544671, 0.2733999936026521, 0.149200001033023, 0.12734999836538918, 0.18009999257628806, 0.12909999713883735, 0.13494999802787788, 0.13224999929661863, 0.264300007984275, 0.15350000467151403, 0.13795000268146396, 0.13844999921275303, 0.1973000034922734, 0.1407999989169184, 0.14234999980544671, 0.13999999646330252, 0.1238999975612387, 0.14864999684505165, 0.14100000043981709, 0.19560000146157108, 0.14139999620965682, 0.14039999950909987, 0.13939999917056412, 0.1260999997612089, 0.28374999965308234, 0.2541999929235317, 0.14559999908669852, 0.1424999973096419, 0.1459500017517712, 0.1494999996793922, 0.14930000179447234, 0.14859999646432698, 0.143749999551801, 0.14725000073667616, 0.14074999853619374, 0.1384999995934777, 0.13899999976274557, 0.14120000196271576, 0.14015000124345534, 0.1368000012007542, 0.1391000005241949, 0.13789999866276048, 0.13800000306218863, 0.13829999807057902, 0.1383499984513037, 0.1408500029356219, 0.1391000005241949, 0.1386500007356517, 0.13749999925494194, 0.13734999811276793, 0.1408500029356219, 0.1392499980283901, 0.1555499984533526, 0.13949999993201345, 0.14555000234395266, 0.14195000039762817, 0.14324999938253313, 0.13980000221636146, 0.13950000356999226, 0.1442500033590477, 0.14385000031325035, 0.14200000077835284, 0.15124999481486157, 0.13935000242781825, 0.1521499980299268, 0.1417499988747295, 0.14195000039762817, 0.14155000098980963, 0.18415000158711337, 0.13970000145491213, 0.14179999925545417, 0.14010000450070947, 0.1513499992142897, 0.1462499967601616, 0.1442499997210689, 0.1405000002705492, 0.1548000000184402, 0.13984999895910732, 0.14214999828254804, 0.14070000179344788, 0.14209999790182337, 0.14229999942472205, 0.14769999688724056, 0.14894999912939966, 0.15920000441838056, 0.13915000090491958, 0.1384999959554989, 0.13919999764766544, 0.139749998197658, 0.13469999976223335, 0.13240000043879263, 0.13855000361218117, 0.139899999339832, 0.13884999862057157, 0.13870000475435518, 0.14214999828254804, 0.13785000192001462, 0.14015000124345534, 0.15395000082207844, 0.1414500002283603, 0.2815000043483451, 0.14864999684505165, 0.1428499999747146, 0.13984999895910732, 0.1409499964211136, 0.14184999963617884, 0.1412999990861863, 0.14264999845181592, 0.1424999973096419, 0.13920000128564425, 0.13250000120024197, 0.1412999990861863, 0.13955000395071693, 0.13955000395071693, 0.1389499993820209, 0.1431500022590626, 0.14024999836692587, 0.13935000242781825, 0.143749999551801, 0.14125000234344043, 0.14915000429027714, 0.1416000013705343, 0.14119999832473695, 0.16424999557784759, 0.14015000124345534, 0.139749998197658, 0.14229999578674324, 0.1496499971835874, 0.1417499988747295, 0.14119999832473695, 0.1428499999747146, 0.14405000183614902, 0.13890000263927504, 0.14024999836692587, 0.13989999570185319, 0.14889999511069618, 0.1510500042058993, 0.1508999994257465, 0.14089999967836775, 0.1445499983674381, 0.1414500002283603, 0.13929999840911478, 0.1438999970559962, 0.14099999680183828, 0.13915000090491958, 0.14519999604090117, 0.13985000259708613, 0.14929999815649353, 0.14125000234344043, 0.14155000462778844, 0.1389499993820209, 0.14324999938253313, 0.1447000031475909, 0.13940000280854292, 0.1379000023007393, 0.14030000238562934, 0.14195000039762817, 0.13745000251219608, 0.1372500009892974, 0.13715000022784807, 0.1368000012007542, 0.13699999544769526, 0.13604999912786298, 0.13670000043930486, 0.1406500014127232, 0.13675000082002953, 0.13644999853568152, 0.14370000280905515, 0.13524999667424709, 0.1378499982820358, 0.13609999950858764, 0.17004999972414225, 0.13824999768985435, 0.13604999912786298, 0.13524999667424709, 0.1444000008632429, 0.1358500012429431, 0.13659999967785552, 0.13689999832422473, 0.15284999972209334, 0.13589999798568897, 0.1358499976049643, 0.13589999798568897, 0.16419999883510172, 0.13899999976274557, 0.26035000337287784, 0.1279500029340852, 0.14660000306321308, 0.13764999675913714, 0.13844999921275303, 0.1372500009892974, 0.14944999929866754],
  "Depth": 2.0,
  "Expectation Value": -4.522281646728516,
  "Optimal Expectation Value": -5.571199893951416,
  "Optimizer durations [ms]": [4.764, 3.928, 4.328, 3.748, 3.826, 3.723, 3.757, 3.639, 3.849, 3.786, 3.781, 3.761, 3.867, 3.778, 3.706, 3.734, 3.825, 3.918, 3.781, 3.709, 3.801, 3.749, 3.722, 3.756, 4.17, 3.963, 3.888, 3.77, 3.947, 3.802, 3.732, 3.765, 3.865, 3.774, 3.764, 3.796, 3.906, 3.826, 3.778, 3.788, 3.921, 3.853, 3.757, 3.736, 3.866, 3.822, 3.787, 4.044, 5.27, 7.877, 3.827, 4.163, 3.943, 3.934, 3.864, 3.826, 3.755, 3.739, 3.739, 4.155, 3.76, 3.75, 4.048, 4.314, 3.87, 3.682, 3.701, 3.788, 4.001, 3.84, 3.713, 4.144, 4.154, 3.868, 3.595, 3.899, 3.882, 3.776, 3.78, 3.807, 3.801, 3.799, 3.734, 3.731, 3.603, 3.731, 3.718, 3.839, 3.753, 3.921, 3.788, 5.014, 3.86, 3.773, 3.85, 3.798, 3.827, 3.783, 3.76, 3.736, 3.758, 3.76, 4.04, 4.197, 4.457, 4.212, 4.057, 4.543, 3.785, 3.802, 3.792, 3.757, 3.94, 3.982, 3.822, 3.808, 3.75, 3.835, 3.774, 3.757, 3.766, 3.966, 3.771, 3.758, 3.782, 3.793, 3.8, 4.003, 3.79, 3.754, 3.738, 3.734, 3.744, 3.798, 3.798, 3.986, 3.918, 4.108, 3.796, 3.775, 3.785, 3.808, 3.764, 3.822, 3.777, 3.997, 4.04, 3.9, 3.939, 3.818, 3.745, 3.805, 3.778, 3.82, 3.859, 3.884, 3.794, 5.238, 16.064, 3.774, 3.823, 3.749, 3.707, 3.784, 3.97, 3.771, 3.764, 4.023, 3.871, 3.757, 3.751, 3.785, 3.824, 3.787, 3.936, 4.088, 4.359, 3.784, 3.747, 3.792, 6.468, 3.967, 4.798, 3.788, 3.782, 3.923, 3.773, 4.069, 3.812, 3.853, 3.901, 3.819, 3.627, 3.618, 3.777, 3.71, 3.76, 3.702, 4.049, 6.108, 5.085, 3.941, 4.957, 3.838, 3.784, 3.814, 6.07, 10.529, 5.161, 4.236, 3.848, 5.581, 5.45, 3.868, 4.793, 4.099, 3.777, 3.746, 5.515, 4.471, 3.875, 3.922, 4.968, 3.824, 3.784, 5.38, 19.21, 4.319, 3.882, 4.97, 3.863, 3.795, 3.905, 6.272, 4.218, 3.638, 4.665, 3.671, 3.684, 3.621, 6.083, 17.143, 3.743, 3.693, 4.908, 3.794, 3.789, 3.805, 6.534, 4.092, 3.772, 4.876, 3.787, 3.753, 3.739, 6.7, 20.164, 7.344, 4.169, 3.954, 3.903, 3.967, 3.985, 4.073, 4.0, 4.038, 3.777, 3.75, 3.719, 3.897, 3.751, 3.739, 3.797, 3.764, 3.777, 3.737, 3.758, 4.313, 3.745, 3.73, 3.68, 3.718, 8.272, 3.729, 4.072, 3.718, 4.03, 3.95, 3.803, 3.807, 3.801, 4.033, 4.028, 3.809, 4.153, 3.771, 4.029, 3.783, 3.81, 3.863, 4.705, 3.789, 3.813, 3.791, 4.172, 4.022, 3.998, 3.832, 4.259, 3.899, 3.947, 3.822, 3.757, 3.829, 4.025, 3.964, 4.295, 3.733, 3.766, 3.777, 3.781, 3.631, 3.585, 3.731, 3.747, 3.713, 3.745, 3.788, 3.806, 3.951, 4.211, 3.843, 6.542, 4.4, 3.745, 3.937, 3.826, 3.816, 3.756, 3.82, 3.802, 3.75, 3.595, 3.74, 3.742, 3.785, 3.708, 3.805, 3.744, 3.768, 3.861, 3.799, 4.034, 3.745, 3.913, 4.4, 3.904, 3.876, 3.82, 4.079, 3.796, 3.842, 3.911, 3.864, 3.776, 3.768, 3.763, 4.1, 4.124, 4.075, 3.892, 3.983, 3.841, 3.734, 3.925, 3.835, 3.773, 3.947, 3.742, 4.109, 3.891, 3.957, 3.876, 3.929, 3.903, 3.799, 3.797, 4.602, 4.059, 3.81, 3.786, 3.824, 3.762, 3.791, 3.737, 3.768, 3.958, 3.741, 3.841, 3.917, 3.722, 3.835, 3.774, 4.473, 3.84, 3.776, 3.788, 3.953, 3.804, 3.823, 3.749, 4.145, 3.744, 3.792, 3.763, 4.354, 3.755, 5.996, 16.189, 4.319, 3.788, 3.82, 3.802, 4.069],
  "Optimizer iterations": 424,
  "Optimizer params": [0.004360784562470981, 0.4991524592588719, 0.0030692149392547974, 0.9712335636466627, 0.4806903703391216, 2.602085213965211e-18, 0.4995037775571143, 0.5011244053854219, 0.9962303063048528],
  "P": 0,
  "Problem": "RH",
  "QJob durations [ms]": [0.16450000111944973, 0.14509999891743064, 0.15700000221841037, 0.13969999781693332, 0.14365000242833048, 0.13859999671694823, 0.13995000335853547, 0.1382000045850873, 0.1386500007356517, 0.14074999853619374, 0.1405000002705492, 0.1404999966325704, 0.14124999870546162, 0.14074999853619374, 0.13830000170855783, 0.1395499966747593, 0.14135000310488977, 0.14310000187833793, 0.1396000043314416, 0.13824999768985435, 0.1407999989169184, 0.13889999900129624, 0.13875000149710104, 0.13854999633622356, 0.15815000006114133, 0.1415999977325555, 0.1414500002283603, 0.13969999781693332, 0.1444000045012217, 0.14000000010128133, 0.13980000221636146, 0.14000000373926014, 0.1405000002705492, 0.1399000029778108, 0.1383500020892825, 0.139899999339832, 0.14179999925545417, 0.1389500030199997, 0.13944999591330998, 0.13915000090491958, 0.14279999595601112, 0.14320000263978727, 0.13929999840911478, 0.1389500030199997, 0.1389500030199997, 0.13980000221636146, 0.13934999515186064, 0.14555000234395266, 0.14014999760547653, 0.14384999667527154, 0.1420500011590775, 0.15654999879188836, 0.1468499976908788, 0.14575000022887252, 0.14259999807109125, 0.1395499966747593, 0.13999999646330252, 0.1388000018778257, 0.13884999862057157, 0.1587999977346044, 0.13994999972055666, 0.13869999747839756, 0.14445000124396756, 0.1630000042496249, 0.14184999963617884, 0.13745000251219608, 0.1358499976049643, 0.1417500025127083, 0.14430000373977236, 0.14150000424706377, 0.13300000136950985, 0.15279999934136868, 0.15084999904502183, 0.13994999972055666, 0.1324499971815385, 0.14195000039762817, 0.14319999900180846, 0.13940000280854292, 0.1391500045428984, 0.13994999608257785, 0.1383499984513037, 0.13970000145491213, 0.13970000145491213, 0.13915000090491958, 0.13310000213095918, 0.13934999878983945, 0.13915000090491958, 0.14415000259759836, 0.14009999722475186, 0.14230000306270085, 0.140350002766354, 0.19160000374540687, 0.1404999966325704, 0.13910000416217372, 0.1407999989169184, 0.14000000373926014, 0.1414499965903815, 0.14089999604038894, 0.13969999781693332, 0.13950000356999226, 0.13955000031273812, 0.13940000280854292, 0.14715000361320563, 0.15675000031478703, 0.1646999990043696, 0.14915000065229833, 0.14634999752161093, 0.17159999697469175, 0.13890000263927504, 0.1389500030199997, 0.13915000090491958, 0.13825000132783316, 0.14254999769036658, 0.1447000031475909, 0.1394500031892676, 0.14305000149761327, 0.13934999878983945, 0.13925000530434772, 0.13885000225855038, 0.14184999963617884, 0.14000000373926014, 0.148899998748675, 0.13885000225855038, 0.13870000111637637, 0.13844999921275303, 0.13934999878983945, 0.13870000111637637, 0.13969999781693332, 0.14240000018617138, 0.14074999853619374, 0.13925000166636892, 0.13915000090491958, 0.1389499993820209, 0.13889999900129624, 0.13854999997420236, 0.14630000077886507, 0.14209999790182337, 0.15050000001792796, 0.140350002766354, 0.1400499968440272, 0.13989999570185319, 0.14150000060908496, 0.14014999760547653, 0.14265000208979473, 0.13934999878983945, 0.14140000348561443, 0.14615000327466987, 0.1429999974789098, 0.14459999874816276, 0.1416000013705343, 0.1399000029778108, 0.14080000255489722, 0.13885000225855038, 0.13980000221636146, 0.1430000047548674, 0.14570000348612666, 0.14029999874765053, 0.149049999890849, 0.14409999857889488, 0.13959999705548398, 0.14245000056689605, 0.13930000204709359, 0.1391000005241949, 0.13860000399290584, 0.15084999904502183, 0.14080000255489722, 0.13949999993201345, 0.14290000035543926, 0.14459999874816276, 0.140050000482006, 0.13920000128564425, 0.14000000010128133, 0.1400499968440272, 0.13944999955128878, 0.14524999642162584, 0.14435000048251823, 0.1490500035288278, 0.13994999608257785, 0.13950000356999226, 0.14095000369707122, 0.28100000781705603, 0.1400499968440272, 0.19130000146105886, 0.14059999739401974, 0.13484999726642855, 0.14585000099032186, 0.14119999832473695, 0.14245000056689605, 0.1409499964211136, 0.13920000128564425, 0.1414500002283603, 0.1370999998471234, 0.1329000006080605, 0.13310000213095918, 0.13899999976274557, 0.13689999832422473, 0.13955000031273812, 0.13899999976274557, 0.1449999981559813, 0.25764999372768216, 0.14884999836795032, 0.1414500038663391, 0.19469999824650586, 0.13949999993201345, 0.139749998197658, 0.13920000128564425, 0.26109999453183264, 0.149350002175197, 0.21099999867146835, 0.15269999857991934, 0.14195000039762817, 0.2332499934709631, 0.14155000098980963, 0.14244999692891724, 0.14060000103199854, 0.15424999946844764, 0.13995000335853547, 0.14029999874765053, 0.24374999702558853, 0.15110000094864517, 0.14109999756328762, 0.14459999511018395, 0.19700000120792538, 0.14220000230125152, 0.14110000120126642, 0.22260000332607888, 0.1286999977310188, 0.14879999798722565, 0.14054999701329507, 0.1424999973096419, 0.1406500014127232, 0.13789999866276048, 0.14234999980544671, 0.2733999936026521, 0.149200001033023, 0.12734999836538918, 0.18009999257628806, 0.12909999713883735, 0.13494999802787788, 0.13224999929661863, 0.264300007984275, 0.15350000467151403, 0.13795000268146396, 0.13844999921275303, 0.1973000034922734, 0.1407999989169184, 0.14234999980544671, 0.13999999646330252, 0.1238999975612387, 0.14864999684505165, 0.14100000043981709, 0.19560000146157108, 0.14139999620965682, 0.14039999950909987, 0.13939999917056412, 0.1260999997612089, 0.28374999965308234, 0.2541999929235317, 0.14559999908669852, 0.1424999973096419, 0.1459500017517712, 0.1494999996793922, 0.14930000179447234, 0.14859999646432698, 0.143749999551801, 0.14725000073667616, 0.14074999853619374, 0.1384999995934777, 0.13899999976274557, 0.14120000196271576, 0.14015000124345534, 0.1368000012007542, 0.1391000005241949, 0.13789999866276048, 0.13800000306218863, 0.13829999807057902, 0.1383499984513037, 0.1408500029356219, 0.1391000005241949, 0.1386500007356517, 0.13749999925494194, 0.13734999811276793, 0.1408500029356219, 0.1392499980283901, 0.1555499984533526, 0.13949999993201345, 0.14555000234395266, 0.14195000039762817, 0.14324999938253313, 0.13980000221636146, 0.13950000356999226, 0.1442500033590477, 0.14385000031325035, 0.14200000077835284, 0.15124999481486157, 0.13935000242781825, 0.1521499980299268, 0.1417499988747295, 0.14195000039762817, 0.14155000098980963, 0.18415000158711337, 0.13970000145491213, 0.14179999925545417, 0.14010000450070947, 0.1513499992142897, 0.1462499967601616, 0.1442499997210689, 0.1405000002705492, 0.1548000000184402, 0.13984999895910732, 0.14214999828254804, 0.14070000179344788, 0.14209999790182337, 0.14229999942472205, 0.14769999688724056, 0.14894999912939966, 0.15920000441838056, 0.13915000090491958, 0.1384999959554989, 0.13919999764766544, 0.139749998197658, 0.13469999976223335, 0.13240000043879263, 0.13855000361218117, 0.139899999339832, 0.13884999862057157, 0.13870000475435518, 0.14214999828254804, 0.13785000192001462, 0.14015000124345534, 0.15395000082207844, 0.1414500002283603, 0.2815000043483451, 0.14864999684505165, 0.1428499999747146, 0.13984999895910732, 0.1409499964211136, 0.14184999963617884, 0.1412999990861863, 0.14264999845181592, 0.1424999973096419, 0.13920000128564425, 0.13250000120024197, 0.1412999990861863, 0.13955000395071693, 0.13955000395071693, 0.1389499993820209, 0.1431500022590626, 0.14024999836692587, 0.13935000242781825, 0.143749999551801, 0.14125000234344043, 0.14915000429027714, 0.1416000013705343, 0.14119999832473695, 0.16424999557784759, 0.14015000124345534, 0.139749998197658, 0.14229999578674324, 0.1496499971835874, 0.1417499988747295, 0.14119999832473695, 0.1428499999747146, 0.14405000183614902, 0.13890000263927504, 0.14024999836692587, 0.13989999570185319, 0.14889999511069618, 0.1510500042058993, 0.1508999994257465, 0.14089999967836775, 0.1445499983674381, 0.1414500002283603, 0.13929999840911478, 0.1438999970559962, 0.14099999680183828, 0.13915000090491958, 0.14519999604090117, 0.13985000259708613, 0.14929999815649353, 0.14125000234344043, 0.14155000462778844, 0.1389499993820209, 0.14324999938253313, 0.1447000031475909, 0.13940000280854292, 0.1379000023007393, 0.14030000238562934, 0.14195000039762817, 0.13745000251219608, 0.1372500009892974, 0.13715000022784807, 0.1368000012007542, 0.13699999544769526, 0.13604999912786298, 0.13670000043930486, 0.1406500014127232, 0.13675000082002953, 0.13644999853568152, 0.14370000280905515, 0.13524999667424709, 0.1378499982820358, 0.13609999950858764, 0.17004999972414225, 0.13824999768985435, 0.13604999912786298, 0.13524999667424709, 0.1444000008632429, 0.1358500012429431, 0.13659999967785552, 0.13689999832422473, 0.15284999972209334, 0.13589999798568897, 0.1358499976049643, 0.13589999798568897, 0.16419999883510172, 0.13899999976274557, 0.26035000337287784, 0.1279500029340852, 0.14660000306321308, 0.13764999675913714, 0.13844999921275303, 0.1372500009892974, 0.14944999929866754],
  "QPU": "7000000",
  "Qubits": 9,
  "Queue durations [ms]": [0.0, 0.0, 0.0, 0.0, 0.0, 0.0, 0.0, 0.0, 0.0, 0.0, 0.0, 0.0, 0.0, 0.0, 0.0, 0.0, 0.0, 0.0, 0.0, 0.0, 0.0, 0.0, 0.0, 0.0, 0.0, 0.0, 0.0, 0.0, 0.0, 0.0, 0.0, 0.0, 0.0, 0.0, 0.0, 0.0, 0.0, 0.0, 0.0, 0.0, 0.0, 0.0, 0.0, 0.0, 0.0, 0.0, 0.0, 0.0, 0.0, 0.0, 0.0, 0.0, 0.0, 0.0, 0.0, 0.0, 0.0, 0.0, 0.0, 0.0, 0.0, 0.0, 0.0, 0.0, 0.0, 0.0, 0.0, 0.0, 0.0, 0.0, 0.0, 0.0, 0.0, 0.0, 0.0, 0.0, 0.0, 0.0, 0.0, 0.0, 0.0, 0.0, 0.0, 0.0, 0.0, 0.0, 0.0, 0.0, 0.0, 0.0, 0.0, 0.0, 0.0, 0.0, 0.0, 0.0, 0.0, 0.0, 0.0, 0.0, 0.0, 0.0, 0.0, 0.0, 0.0, 0.0, 0.0, 0.0, 0.0, 0.0, 0.0, 0.0, 0.0, 0.0, 0.0, 0.0, 0.0, 0.0, 0.0, 0.0, 0.0, 0.0, 0.0, 0.0, 0.0, 0.0, 0.0, 0.0, 0.0, 0.0, 0.0, 0.0, 0.0, 0.0, 0.0, 0.0, 0.0, 0.0, 0.0, 0.0, 0.0, 0.0, 0.0, 0.0, 0.0, 0.0, 0.0, 0.0, 0.0, 0.0, 0.0, 0.0, 0.0, 0.0, 0.0, 0.0, 0.0, 0.0, 0.0, 0.0, 0.0, 0.0, 0.0, 0.0, 0.0, 0.0, 0.0, 0.0, 0.0, 0.0, 0.0, 0.0, 0.0, 0.0, 0.0, 0.0, 0.0, 0.0, 0.0, 0.0, 0.0, 0.0, 0.0, 0.0, 0.0, 0.0, 0.0, 0.0, 0.0, 0.0, 0.0, 0.0, 0.0, 0.0, 0.0, 0.0, 0.0, 0.0, 0.0, 0.0, 0.0, 0.0, 0.0, 0.0, 0.0, 0.0, 0.0, 0.0, 0.0, 0.0, 0.0, 0.0, 0.0, 0.0, 0.0, 0.0, 0.0, 0.0, 0.0, 0.0, 0.0, 0.0, 0.0, 0.0, 0.0, 0.0, 0.0, 0.0, 0.0, 0.0, 0.0, 0.0, 0.0, 0.0, 0.0, 0.0, 0.0, 0.0, 0.0, 0.0, 0.0, 0.0, 0.0, 0.0, 0.0, 0.0, 0.0, 0.0, 0.0, 0.0, 0.0, 0.0, 0.0, 0.0, 0.0, 0.0, 0.0, 0.0, 0.0, 0.0, 0.0, 0.0, 0.0, 0.0, 0.0, 0.0, 0.0, 0.0, 0.0, 0.0, 0.0, 0.0, 0.0, 0.0, 0.0, 0.0, 0.0, 0.0, 0.0, 0.0, 0.0, 0.0, 0.0, 0.0, 0.0, 0.0, 0.0, 0.0, 0.0, 0.0, 0.0, 0.0, 0.0, 0.0, 0.0, 0.0, 0.0, 0.0, 0.0, 0.0, 0.0, 0.0, 0.0, 0.0, 0.0, 0.0, 0.0, 0.0, 0.0, 0.0, 0.0, 0.0, 0.0, 0.0, 0.0, 0.0, 0.0, 0.0, 0.0, 0.0, 0.0, 0.0, 0.0, 0.0, 0.0, 0.0, 0.0, 0.0, 0.0, 0.0, 0.0, 0.0, 0.0, 0.0, 0.0, 0.0, 0.0, 0.0, 0.0, 0.0, 0.0, 0.0, 0.0, 0.0, 0.0, 0.0, 0.0, 0.0, 0.0, 0.0, 0.0, 0.0, 0.0, 0.0, 0.0, 0.0, 0.0, 0.0, 0.0, 0.0, 0.0, 0.0, 0.0, 0.0, 0.0, 0.0, 0.0, 0.0, 0.0, 0.0, 0.0, 0.0, 0.0, 0.0, 0.0, 0.0, 0.0, 0.0, 0.0, 0.0, 0.0, 0.0, 0.0, 0.0, 0.0, 0.0, 0.0, 0.0, 0.0, 0.0, 0.0, 0.0, 0.0, 0.0, 0.0, 0.0, 0.0, 0.0, 0.0, 0.0, 0.0, 0.0, 0.0, 0.0, 0.0, 0.0, 0.0, 0.0, 0.0, 0.0, 0.0, 0.0, 0.0, 0.0, 0.0, 0.0, 0.0, 0.0, 0.0, 0.0, 0.0, 0.0, 0.0, 0.0],
  "Shots": 4096,
  "Size": 9,
  "Total Algorithm duration [s]": 1.77,
  "Total Classic duration [s]": 1.708010249999934,
  "Total Quantum duration [s]": 0.061989750000066124
}
