{
  "Circuit execution durations [ms]": [0.1514999967184849, 0.15115000132936984, 0.15070000154082663, 0.15744999836897478, 0.13824999768985435, 0.13749999925494194, 0.13759999637841247, 0.14140000348561443, 0.13690000196220353, 0.1354000014543999, 0.13630000103148632, 0.14974999794503674, 0.13940000280854292, 0.1358500012429431, 0.13515000318875536, 0.13994999972055666, 0.13794999540550634, 0.13594999836641364, 0.13779999790131114, 0.13775000115856528, 0.136500002554385, 0.14100000043981709, 0.14100000043981709, 0.14854999972158112, 0.1387999982398469, 0.1351000028080307, 0.13485000090440735, 0.1355500025965739, 0.13624999701278284, 0.15239999993355013, 0.13575000411947258, 0.1354000014543999, 0.1370999998471234, 0.1293499990424607, 0.13469999976223335, 0.1351000028080307, 0.1373999984934926, 0.13535000107367523, 0.1378499982820358, 0.13564999608206563, 0.14309999824035913, 0.13760000365437008, 0.13515000318875536, 0.13535000107367523, 0.1355500025965739, 0.13979999857838266, 0.13704999582841992, 0.1387999982398469, 0.13649999527842738, 0.13620000027003698, 0.13549999857787043, 0.1360000023851171, 0.26050000815303065, 0.14260000170907006, 0.13475000378093682, 0.1355499989585951, 0.13625000065076165, 0.13580000086221844, 0.13659999967785552, 0.13624999701278284, 0.13574999684351496, 0.13950000356999226, 0.13639999815495685, 0.1347499965049792, 0.13674999718205072, 0.14405000183614902, 0.13574999684351496, 0.13670000043930486, 0.13505000242730603, 0.1359999951091595, 0.1359999951091595, 0.14509999891743064, 0.14295000073616393, 0.13669999680132605, 0.13505000242730603, 0.13500000204658136, 0.1369500023429282, 0.14120000196271576, 0.136500002554385, 0.1356999964627903, 0.13565000335802324, 0.1384999995934777, 0.13755000327364542, 0.13574999684351496, 0.13609999950858764, 0.14024999836692587, 0.14584999735234305, 0.1375499996356666, 0.1380499998049345, 0.13655000293510966, 0.13179999950807542, 0.1359999951091595, 0.13610000314656645, 0.13520000356948003, 0.1442499997210689, 0.14210000153980218, 0.13579999722423963, 0.13530000069295056, 0.1358500012429431, 0.13649999891640618, 0.13655000293510966, 0.13929999840911478, 0.14325000302051194, 0.14335000014398247, 0.15069999790284783, 0.13564999972004443, 0.14114999794401228, 0.13639999815495685, 0.13610000314656645, 0.13545000183512457, 0.21135000133654103, 0.13854999997420236, 0.13564999972004443, 0.14089999967836775, 0.13874999785912223, 0.14024999836692587, 0.1494999996793922, 0.234800001635449, 0.1510500005679205, 0.2284500005771406, 0.19449999672360718, 0.14429999646381475, 0.13979999857838266, 0.14559999908669852, 0.17334999574813992, 0.14060000103199854, 0.14475000352831557, 0.1402000052621588, 0.14039999950909987, 0.14040000314707868, 0.13995000335853547, 0.14000000010128133, 0.15560000247205608, 0.14614999599871226, 0.1485499960836023, 0.13970000145491213, 0.14770000052521937, 0.13970000145491213, 0.14000000373926014, 0.13949999993201345, 0.1436000020476058, 0.14020000162418, 0.14009999722475186, 0.13964999743620865, 0.1405000002705492, 0.14039999950909987, 0.13905000378144905, 0.13854999633622356, 0.14104999718256295, 0.16055000014603138, 0.14264999845181592, 0.14139999620965682, 0.14479999663308263, 0.1425500013283454, 0.14644999828306027, 0.14644999828306027, 0.15179999900283292, 0.14250000458559953, 0.14055000065127388, 0.1387999982398469, 0.1431499986210838, 0.13980000221636146, 0.13964999743620865, 0.1397500018356368, 0.15334999989136122, 0.1370999998471234, 0.1459499981137924, 0.1411500015819911, 0.1395499966747593, 0.14229999942472205, 0.1448500006517861],
  "Depth": 2.0,
  "Expectation Value": -4.929694652557373,
  "Optimal Expectation Value": -5.571199893951416,
  "Optimizer durations [ms]": [4.573, 4.085, 4.153, 4.399, 3.777, 3.771, 3.812, 3.966, 3.774, 3.719, 3.788, 4.08, 3.83, 3.747, 3.745, 3.859, 3.859, 3.753, 3.796, 3.843, 3.725, 3.861, 3.877, 3.989, 3.811, 3.72, 3.706, 3.862, 3.759, 4.082, 3.745, 3.765, 3.837, 3.639, 3.751, 3.781, 3.779, 3.754, 3.861, 3.723, 3.878, 3.778, 3.746, 3.713, 3.811, 3.821, 3.81, 3.891, 3.779, 3.674, 3.736, 3.829, 6.28, 13.944, 3.733, 3.779, 3.721, 3.737, 3.748, 3.74, 3.729, 3.829, 3.895, 3.766, 3.736, 3.861, 3.751, 3.752, 3.718, 3.733, 3.759, 4.151, 4.013, 3.757, 3.782, 3.733, 3.752, 3.781, 3.773, 3.748, 3.77, 3.72, 3.799, 3.74, 3.788, 3.979, 4.095, 3.822, 3.822, 3.858, 3.621, 3.772, 3.73, 3.718, 4.049, 3.995, 3.77, 3.764, 3.721, 3.801, 3.777, 3.845, 3.922, 3.94, 4.043, 3.733, 3.74, 3.673, 3.754, 3.782, 5.191, 3.865, 3.677, 3.876, 4.006, 3.822, 4.133, 5.672, 16.187, 7.983, 5.467, 4.024, 3.824, 3.917, 4.743, 3.764, 3.929, 3.808, 3.832, 3.784, 3.745, 3.714, 4.162, 4.063, 4.041, 3.875, 4.12, 3.77, 3.733, 3.666, 3.9, 3.809, 3.792, 3.789, 3.824, 3.819, 3.776, 3.756, 3.84, 4.377, 3.923, 3.796, 3.887, 3.797, 3.904, 3.899, 4.241, 3.956, 3.772, 3.815, 3.832, 3.739, 3.756, 3.733, 4.078, 3.736, 4.06, 3.845, 3.769, 3.83, 3.946],
  "Optimizer iterations": 171,
  "Optimizer params": [0.9999999999999998, 0.4973644135008228, 0.9957285279631358, 0.5037519855736535, 0.4951724691286679, 7.029928167766419e-18, 0.4962425600064643, 0.9487769887872525, 0.0026298693946406712],
  "P": 0,
  "Problem": "RH",
  "QJob durations [ms]": [0.1514999967184849, 0.15115000132936984, 0.15070000154082663, 0.15744999836897478, 0.13824999768985435, 0.13749999925494194, 0.13759999637841247, 0.14140000348561443, 0.13690000196220353, 0.1354000014543999, 0.13630000103148632, 0.14974999794503674, 0.13940000280854292, 0.1358500012429431, 0.13515000318875536, 0.13994999972055666, 0.13794999540550634, 0.13594999836641364, 0.13779999790131114, 0.13775000115856528, 0.136500002554385, 0.14100000043981709, 0.14100000043981709, 0.14854999972158112, 0.1387999982398469, 0.1351000028080307, 0.13485000090440735, 0.1355500025965739, 0.13624999701278284, 0.15239999993355013, 0.13575000411947258, 0.1354000014543999, 0.1370999998471234, 0.1293499990424607, 0.13469999976223335, 0.1351000028080307, 0.1373999984934926, 0.13535000107367523, 0.1378499982820358, 0.13564999608206563, 0.14309999824035913, 0.13760000365437008, 0.13515000318875536, 0.13535000107367523, 0.1355500025965739, 0.13979999857838266, 0.13704999582841992, 0.1387999982398469, 0.13649999527842738, 0.13620000027003698, 0.13549999857787043, 0.1360000023851171, 0.26050000815303065, 0.14260000170907006, 0.13475000378093682, 0.1355499989585951, 0.13625000065076165, 0.13580000086221844, 0.13659999967785552, 0.13624999701278284, 0.13574999684351496, 0.13950000356999226, 0.13639999815495685, 0.1347499965049792, 0.13674999718205072, 0.14405000183614902, 0.13574999684351496, 0.13670000043930486, 0.13505000242730603, 0.1359999951091595, 0.1359999951091595, 0.14509999891743064, 0.14295000073616393, 0.13669999680132605, 0.13505000242730603, 0.13500000204658136, 0.1369500023429282, 0.14120000196271576, 0.136500002554385, 0.1356999964627903, 0.13565000335802324, 0.1384999995934777, 0.13755000327364542, 0.13574999684351496, 0.13609999950858764, 0.14024999836692587, 0.14584999735234305, 0.1375499996356666, 0.1380499998049345, 0.13655000293510966, 0.13179999950807542, 0.1359999951091595, 0.13610000314656645, 0.13520000356948003, 0.1442499997210689, 0.14210000153980218, 0.13579999722423963, 0.13530000069295056, 0.1358500012429431, 0.13649999891640618, 0.13655000293510966, 0.13929999840911478, 0.14325000302051194, 0.14335000014398247, 0.15069999790284783, 0.13564999972004443, 0.14114999794401228, 0.13639999815495685, 0.13610000314656645, 0.13545000183512457, 0.21135000133654103, 0.13854999997420236, 0.13564999972004443, 0.14089999967836775, 0.13874999785912223, 0.14024999836692587, 0.1494999996793922, 0.234800001635449, 0.1510500005679205, 0.2284500005771406, 0.19449999672360718, 0.14429999646381475, 0.13979999857838266, 0.14559999908669852, 0.17334999574813992, 0.14060000103199854, 0.14475000352831557, 0.1402000052621588, 0.14039999950909987, 0.14040000314707868, 0.13995000335853547, 0.14000000010128133, 0.15560000247205608, 0.14614999599871226, 0.1485499960836023, 0.13970000145491213, 0.14770000052521937, 0.13970000145491213, 0.14000000373926014, 0.13949999993201345, 0.1436000020476058, 0.14020000162418, 0.14009999722475186, 0.13964999743620865, 0.1405000002705492, 0.14039999950909987, 0.13905000378144905, 0.13854999633622356, 0.14104999718256295, 0.16055000014603138, 0.14264999845181592, 0.14139999620965682, 0.14479999663308263, 0.1425500013283454, 0.14644999828306027, 0.14644999828306027, 0.15179999900283292, 0.14250000458559953, 0.14055000065127388, 0.1387999982398469, 0.1431499986210838, 0.13980000221636146, 0.13964999743620865, 0.1397500018356368, 0.15334999989136122, 0.1370999998471234, 0.1459499981137924, 0.1411500015819911, 0.1395499966747593, 0.14229999942472205, 0.1448500006517861],
  "QPU": "7000000",
  "Qubits": 9,
  "Queue durations [ms]": [0.0, 0.0, 0.0, 0.0, 0.0, 0.0, 0.0, 0.0, 0.0, 0.0, 0.0, 0.0, 0.0, 0.0, 0.0, 0.0, 0.0, 0.0, 0.0, 0.0, 0.0, 0.0, 0.0, 0.0, 0.0, 0.0, 0.0, 0.0, 0.0, 0.0, 0.0, 0.0, 0.0, 0.0, 0.0, 0.0, 0.0, 0.0, 0.0, 0.0, 0.0, 0.0, 0.0, 0.0, 0.0, 0.0, 0.0, 0.0, 0.0, 0.0, 0.0, 0.0, 0.0, 0.0, 0.0, 0.0, 0.0, 0.0, 0.0, 0.0, 0.0, 0.0, 0.0, 0.0, 0.0, 0.0, 0.0, 0.0, 0.0, 0.0, 0.0, 0.0, 0.0, 0.0, 0.0, 0.0, 0.0, 0.0, 0.0, 0.0, 0.0, 0.0, 0.0, 0.0, 0.0, 0.0, 0.0, 0.0, 0.0, 0.0, 0.0, 0.0, 0.0, 0.0, 0.0, 0.0, 0.0, 0.0, 0.0, 0.0, 0.0, 0.0, 0.0, 0.0, 0.0, 0.0, 0.0, 0.0, 0.0, 0.0, 0.0, 0.0, 0.0, 0.0, 0.0, 0.0, 0.0, 0.0, 0.0, 0.0, 0.0, 0.0, 0.0, 0.0, 0.0, 0.0, 0.0, 0.0, 0.0, 0.0, 0.0, 0.0, 0.0, 0.0, 0.0, 0.0, 0.0, 0.0, 0.0, 0.0, 0.0, 0.0, 0.0, 0.0, 0.0, 0.0, 0.0, 0.0, 0.0, 0.0, 0.0, 0.0, 0.0, 0.0, 0.0, 0.0, 0.0, 0.0, 0.0, 0.0, 0.0, 0.0, 0.0, 0.0, 0.0, 0.0, 0.0, 0.0, 0.0, 0.0, 0.0],
  "Shots": 4096,
  "Size": 9,
  "Total Algorithm duration [s]": 0.691,
  "Total Classic duration [s]": 0.666619100008771,
  "Total Quantum duration [s]": 0.024380899991228944
}
