{
  "Circuit execution durations [ms]": [0.15785000141477212, 0.14725000073667616, 0.14119999832473695, 0.13955000031273812, 0.13845000285073183, 0.15659999553463422, 0.14074999853619374, 0.1397500018356368, 0.14000000010128133, 0.1487500012444798, 0.14259999807109125, 0.14010000086273067, 0.13915000090491958, 0.14055000428925268, 0.14234999980544671, 0.1394500031892676, 0.14095000005909242, 0.14250000094762072, 0.14090000331634656, 0.13970000509289093, 0.13965000107418746, 0.1397500018356368, 0.14050000390852802, 0.1400500041199848, 0.14119999832473695, 0.1401999979862012, 0.13989999570185319, 0.13839999519404955, 0.14480000390904024, 0.13929999840911478, 0.14030000238562934, 0.13934999878983945, 0.13875000513507985, 0.13889999900129624, 0.14220000230125152, 0.1399000029778108, 0.14000000010128133, 0.13939999917056412, 0.18785000429488719, 0.1412999990861863, 0.14409999857889488, 0.1425500013283454, 0.14075000217417255, 0.13939999917056412, 0.14095000005909242, 0.13915000090491958, 0.13985000259708613, 0.14059999739401974, 0.14400000145542435, 0.140350002766354, 0.14859999646432698, 0.1462499967601616, 0.1460999992559664, 0.14259999807109125, 0.13965000107418746, 0.1389499993820209, 0.13904999650549144, 0.13979999857838266, 0.14540000120177865, 0.1391000005241949, 0.13939999917056412, 0.13934999878983945, 0.1480999999330379, 0.13889999900129624, 0.13915000090491958, 0.14354999802890234, 0.18020000425167382, 0.13929999840911478, 0.13935000242781825, 0.13935000242781825, 0.14350000128615648, 0.13939999917056412, 0.14465000276686624, 0.13969999781693332, 0.13825000132783316, 0.13905000014347024, 0.13944999955128878, 0.13854999633622356, 0.15175000589806587, 0.1401999979862012, 0.13904999650549144, 0.1431499986210838, 0.14545000158250332, 0.13920000128564425, 0.1403499991283752, 0.13915000090491958, 0.1396000006934628, 0.1386500007356517, 0.13905000014347024, 0.14040000314707868, 0.1430000011168886, 0.14109999756328762, 0.1431500022590626, 0.13965000107418746, 0.14435000048251823, 0.13949999993201345, 0.1399000029778108, 0.13939999917056412, 0.14089999967836775, 0.14279999959398992, 0.13934999878983945, 0.14100000043981709, 0.13905000378144905, 0.13929999840911478, 0.1387999982398469, 0.14575000022887252, 0.14334999650600366, 0.14519999967887998, 0.14024999836692587, 0.13959999705548398, 0.14169999485602602, 0.13995000335853547, 0.14084999565966427, 0.13920000128564425, 0.1389499993820209, 0.1477999976486899, 0.1416000013705343, 0.1454499979445245, 0.2646000066306442, 0.2643999978317879, 0.2465499928803183, 0.14634999752161093, 0.1409499964211136, 0.14095000005909242, 0.16170000162674114, 0.1417500025127083, 0.1390999968862161, 0.14039999950909987, 0.14444999760598876, 0.14320000263978727, 0.14095000005909242, 0.14055000065127388, 0.1449999981559813, 0.14279999595601112, 0.1403499991283752, 0.14139999984763563, 0.14564999946742319, 0.1413000027241651, 0.14324999938253313, 0.14075000217417255, 0.1434500009054318, 0.1392499980283901, 0.13944999955128878, 0.13934999878983945, 0.1684500020928681, 0.1384999995934777, 0.13765000403509475, 0.13844999557477422, 0.13860000035492703, 0.13829999807057902, 0.1383499984513037, 0.1430000011168886, 0.14984999870648608, 0.13875000149710104, 0.1397500018356368, 0.1383500020892825, 0.1465499990445096, 0.14215000192052685, 0.14385000031325035, 0.14369999917107634, 0.14044999625184573, 0.13810000018565916, 0.1378499982820358, 0.13854999997420236, 0.140050000482006, 0.13745000251219608, 0.1386499970976729, 0.14305000149761327, 0.15205000090645626, 0.14054999701329507, 0.1387999982398469, 0.13915000090491958, 0.14860000010230578, 0.13980000221636146, 0.1383500020892825, 0.14280000323196873, 0.1403499991283752, 0.14199999714037403, 0.14955000006011687, 0.14170000213198364, 0.14695000209030695, 0.14039999950909987, 0.13829999807057902, 0.1397500018356368, 0.14464999912888743, 0.14014999760547653, 0.14105000082054175, 0.13949999993201345, 0.1455999954487197, 0.1396000043314416, 0.1431499986210838, 0.14100000043981709, 0.14074999853619374, 0.13860000035492703, 0.1400499968440272, 0.13940000280854292, 0.14000000010128133, 0.14044999625184573, 0.14015000124345534, 0.139749998197658, 0.14645000192103907, 0.14494999777525663, 0.13980000221636146, 0.1396000006934628, 0.14865000048303045, 0.14014999760547653, 0.14304999785963446, 0.14109999756328762, 0.1514999967184849, 0.14429999646381475, 0.14620000001741573, 0.14584999735234305, 0.1468499976908788, 0.13905000014347024, 0.13949999993201345, 0.14134999582893215, 0.14365000242833048, 0.14165000175125897, 0.14109999756328762, 0.15549999807262793, 0.14959999680286273, 0.24124999617924914, 0.15624999650754035, 0.14139999984763563, 0.13970000145491213, 0.14090000331634656, 0.14080000255489722, 0.1397500018356368, 0.13965000107418746, 0.14464999549090862, 0.14155000098980963, 0.13794999540550634, 0.1380499998049345, 0.13844999921275303, 0.13775000115856528, 0.13640000179293565, 0.13635000141221099, 0.14114999794401228, 0.14424999608309008, 0.1447000031475909, 0.13774999752058648, 0.1417499988747295, 0.13760000001639128, 0.13730000137002207, 0.1369499987049494, 0.2539999950386118, 0.18874999295803718, 0.14184999963617884, 0.1519999968877528, 0.13919999764766544, 0.13870000111637637, 0.13874999785912223, 0.14010000086273067, 0.13714999658986926, 0.13654999565915205, 0.14449999434873462, 0.13840000247000717, 0.13700000272365287, 0.14309999824035913, 0.14089999604038894, 0.14265000208979473, 0.13730000137002207, 0.13749999925494194, 0.14274999921326526, 0.19055000666412525, 0.13994999972055666, 0.13730000137002207, 0.13720000060857274, 0.13745000251219608, 0.13750000289292075, 0.1354000014543999, 0.1364499948977027, 0.1384999995934777, 0.14134999946691096, 0.14275000285124406, 0.14260000170907006, 0.1424000038241502, 0.1377500047965441, 0.1402000052621588, 0.1355500025965739, 0.14044999988982454, 0.13764999675913714, 0.13750000289292075, 0.13644999853568152, 0.13625000065076165, 0.13590000162366778, 0.13999999646330252, 0.1369500023429282, 0.1358500012429431, 0.14364999879035167, 0.14235000344342552, 0.13689999832422473, 0.13654999929713085, 0.1391000005241949, 0.13610000314656645, 0.13860000035492703, 0.13729999773204327, 0.13800000306218863, 0.13564999972004443, 0.14634999752161093, 0.14294999709818512, 0.14335000378196128, 0.14200000441633165, 0.14245000056689605, 0.14210000153980218, 0.14140000348561443, 0.13844999921275303, 0.1371000034851022, 0.14815000031376258, 0.1396000006934628, 0.13699999908567406, 0.13534999743569642, 0.13934999878983945, 0.13794999540550634, 0.13795000268146396, 0.14369999917107634, 0.14015000124345534, 0.14760000340174884, 0.13829999807057902, 0.13875000149710104, 0.13744999523623846, 0.13785000192001462, 0.13809999654768035, 0.14230000306270085, 0.14250000094762072, 0.14814999667578377, 0.14569999984814785, 0.14234999980544671, 0.14340000052470714, 0.14139999984763563, 0.1373999984934926, 0.1426999988325406, 0.143599998409627, 0.1454499979445245, 0.13670000407728367, 0.13970000145491213, 0.13690000196220353, 0.14010000086273067, 0.137999995786231, 0.13814999692840502, 0.14335000014398247, 0.1420500011590775, 0.1446999958716333, 0.13544999819714576, 0.13839999883202836, 0.13980000221636146, 0.13719999697059393, 0.13730000500800088, 0.14059999739401974, 0.14244999692891724, 0.14235000344342552, 0.14084999929764308, 0.13934999878983945, 0.14194999675964937, 0.1424000038241502, 0.1379000023007393, 0.13635000141221099, 0.13935000242781825, 0.13839999883202836, 0.13760000001639128, 0.1383499984513037, 0.13699999544769526, 0.13854999997420236, 0.13550000221584924, 0.13475000378093682, 0.13699999908567406, 0.14200000077835284, 0.13735000175074674, 0.13869999747839756, 0.16495000454597175, 0.26435000472702086, 0.243800001044292, 0.23165000311564654, 0.14714999997522682, 0.13899999976274557, 0.13939999917056412, 0.14234999980544671, 0.13944999955128878, 0.1437499959138222, 0.14489999739453197, 0.14569999984814785, 0.14319999900180846, 0.14209999790182337, 0.14390000069397502, 0.14109999756328762, 0.13675000082002953, 0.13605000276584178, 0.136800004838733, 0.14224999904399738, 0.1375499996356666, 0.13645000217366032, 0.1369499987049494, 0.14390000069397502, 0.13689999832422473, 0.1362999973935075, 0.13699999908567406, 0.13745000251219608, 0.1367999975627754, 0.13780000153928995, 0.13934999878983945, 0.14350000128615648, 0.1379000023007393, 0.13674999718205072, 0.13674999718205072, 0.15195000014500692, 0.13689999832422473, 0.14225000268197618, 0.13744999887421727, 0.1386500007356517, 0.13689999832422473, 0.13659999603987671, 0.13670000043930486, 0.13609999587060884, 0.13604999912786298, 0.1446999958716333, 0.1532500027678907, 0.13770000077784061, 0.13705000310437754, 0.13720000060857274, 0.14069999815546907, 0.13760000001639128, 0.13720000424655154, 0.13534999743569642, 0.1372500009892974, 0.1397500018356368, 0.14345000454341061, 0.14429999646381475, 0.13794999904348515, 0.136800004838733, 0.140350002766354, 0.14235000344342552, 0.13839999883202836, 0.14024999836692587, 0.14165000175125897, 0.14365000242833048, 0.14139999984763563, 0.14009999722475186, 0.13845000285073183, 0.14584999735234305, 0.1389500030199997, 0.13719999697059393, 0.14774999726796523, 0.13829999807057902, 0.1376999971398618, 0.1378499982820358, 0.13775000115856528, 0.13809999654768035, 0.13714999658986926, 0.13760000365437008, 0.1368000012007542, 0.1370999962091446, 0.13780000153928995, 0.13755000327364542, 0.13630000103148632, 0.13494999802787788, 0.13685000158147886, 0.1379000023007393, 0.15004999659140594, 0.13779999790131114, 0.1370999998471234, 0.13720000060857274, 0.14434999684453942, 0.13885000225855038, 0.13699999908567406, 0.13750000289292075, 0.13630000103148632, 0.13560000297729857, 0.14679999731015414, 0.13870000111637637, 0.145500001963228, 0.13715000022784807, 0.1445500020054169, 0.14980000196374021, 0.14715000361320563, 0.1372500009892974, 0.13770000077784061, 0.13699999544769526, 0.1420500011590775, 0.1380499998049345, 0.13744999887421727, 0.13720000424655154, 0.14679999731015414, 0.13860000399290584, 0.15214999439194798, 0.1369499987049494, 0.13705000310437754, 0.13934999878983945, 0.14199999714037403, 0.1447000031475909, 0.14820000069448724, 0.14134999946691096, 0.1367999975627754, 0.13625000428874046, 0.13855000361218117, 0.13705000310437754, 0.13589999798568897, 0.3130000113742426, 0.10409999958937988, 0.14069999815546907, 0.13795000268146396, 0.1383499984513037, 0.14215000192052685, 0.1563500045449473, 0.13845000285073183, 0.14170000213198364, 0.13575000411947258, 0.13760000365437008, 0.14264999845181592, 0.14435000048251823, 0.14339999688672833, 0.15450000137207098, 0.13735000175074674, 0.1362000039080158, 0.1369500023429282, 0.1405000002705492, 0.13720000060857274, 0.14474999625235796, 0.13715000022784807, 0.13780000153928995, 0.136650003696559, 0.1391000005241949, 0.13899999976274557, 0.13770000441581942, 0.13730000137002207, 0.14820000069448724, 0.13825000132783316, 0.14295000073616393, 0.13855000361218117, 0.1369499987049494, 0.13770000077784061, 0.13684999794350006, 0.13874999785912223, 0.13734999811276793, 0.13634999777423218, 0.13684999794350006, 0.13625000065076165, 0.13995000335853547, 0.13609999950858764, 0.13634999777423218, 0.14220000230125152, 0.13594999836641364, 0.13659999967785552, 0.13884999862057157, 0.13749999925494194, 0.13644999853568152, 0.13969999781693332, 0.14305000149761327, 0.1497999983257614, 0.1425500013283454, 0.13689999832422473, 0.1360000023851171, 0.16599999798927456, 0.1404999966325704, 0.13714999658986926, 0.14109999756328762, 0.1372499973513186, 0.13705000310437754, 0.13675000082002953, 0.13615000352729112, 0.15064999752212316, 0.13719999697059393, 0.13530000069295056, 0.13670000407728367, 0.14074999853619374, 0.1383500020892825, 0.13749999925494194, 0.1379000023007393, 0.13744999887421727, 0.13869999747839756, 0.14050000390852802, 0.1383500020892825, 0.13930000204709359, 0.13715000022784807, 0.13514999955077656, 0.13669999680132605, 0.14339999688672833, 0.13644999853568152, 0.13654999929713085, 0.16260000120382756, 0.13800000306218863, 0.13640000179293565, 0.14480000027106144, 0.13734999811276793, 0.13639999815495685, 0.1377500047965441, 0.13660000331583433, 0.14575000386685133, 0.1417499988747295, 0.14645000192103907, 0.13685000158147886, 0.1370999998471234, 0.13544999819714576, 0.14699999883305281, 0.1394500031892676, 0.14060000466997735, 0.14874999760650098, 0.13839999883202836, 0.1387999982398469, 0.14365000242833048, 0.1435999947716482, 0.1449999981559813, 0.14279999959398992, 0.13645000217366032, 0.13670000043930486, 0.13675000445800833, 0.1370999998471234, 0.13715000386582687, 0.13594999836641364, 0.13634999777423218, 0.1355499989585951, 0.16495000090799294, 0.13810000018565916, 0.13794999904348515, 0.1414500002283603, 0.1407999989169184, 0.13560000297729857, 0.1372499973513186, 0.13530000069295056, 0.13479999688570388, 0.13919999764766544, 0.16414999845437706, 0.16324999887729064, 0.14069999815546907, 0.221800000872463, 0.1504500032751821, 0.13609999950858764, 0.1445500020054169, 0.14110000120126642, 0.14260000170907006, 0.1372499973513186, 0.2565499999036547, 0.14645000192103907, 0.2115500028594397, 0.14335000014398247, 0.14295000073616393, 0.2241000001959037, 0.15749999874969944, 0.1431499986210838, 0.19299999985378236, 0.14495000141323544, 0.13929999840911478, 0.13810000018565916, 0.26145000447286293, 0.1507499982835725, 0.13809999654768035, 0.13764999675913714, 0.13299999773153104, 0.13860000035492703, 0.1327499994658865, 0.14139999984763563, 0.15675000031478703, 0.1462499967601616, 0.14105000082054175, 0.13794999904348515, 0.19054999575018883, 0.13700000272365287, 0.13625000065076165, 0.13484999726642855, 0.16880000475794077, 0.14980000560171902, 0.13704999946639873, 0.1382000009471085, 0.16419999883510172, 0.13935000242781825, 0.13734999811276793, 0.29644999449374154, 0.149500003317371, 0.14739999824087135, 0.13655000293510966, 0.19159999283147044, 0.1358500012429431, 0.1397500018356368, 0.13949999993201345, 0.30020000122021884, 0.13715000022784807, 0.13605000276584178, 0.19814999905065633, 0.1382000009471085, 0.13935000242781825, 0.1407999952789396, 0.2639499944052659, 0.34109999251086265, 0.20260000019334257, 0.19549999706214294, 0.1512000017100945, 0.14184999963617884, 0.13855000361218117, 0.13780000153928995, 0.13885000225855038, 0.13935000242781825, 0.1373999984934926, 0.1607000049261842, 0.13799999942420982, 0.13655000293510966, 0.1367999975627754, 0.1370999998471234, 0.13749999925494194, 0.13530000069295056, 0.13714999658986926, 0.15139999595703557, 0.1361499998893123, 0.14480000027106144, 0.1453000004403293, 0.1493499948992394, 0.1540000012028031, 0.14084999929764308, 0.1430000011168886, 0.13770000441581942, 0.13859999671694823, 0.1374000021314714, 0.18855000598705374, 0.13870000111637637, 0.13669999680132605, 0.13830000170855783, 0.16040000264183618, 0.143599998409627, 0.13859999671694823, 0.13735000175074674, 0.13699999908567406, 0.13809999654768035, 0.1386500007356517, 0.14475000352831557, 0.14324999938253313, 0.1400500041199848, 0.13860000035492703, 0.1379000023007393, 0.14659999578725547, 0.1442500033590477, 0.14220000230125152, 0.1217500030179508, 0.14294999709818512, 0.1490499962528702, 0.14059999739401974, 0.19020000036107376, 0.13965000471216626, 0.13955000395071693, 0.14254999769036658, 0.14070000179344788, 0.14055000428925268, 0.1630000042496249, 0.14099999680183828, 0.14139999984763563, 0.14135000310488977, 0.1428499999747146, 0.1405000002705492, 0.14760000340174884, 0.14010000086273067, 0.13995000335853547, 0.14805000319029205, 0.14104999718256295, 0.13935000242781825, 0.1430000011168886, 0.1407999989169184, 0.1661000023887027, 0.1459499981137924, 0.14084999929764308, 0.1403499954903964, 0.14080000255489722, 0.1401999979862012, 0.13845000285073183, 0.14054999701329507, 0.13999999646330252, 0.13985000259708613, 0.13965000107418746, 0.13915000090491958, 0.1394500031892676, 0.13889999900129624, 0.1472000003559515, 0.1649999976507388, 0.14125000234344043, 0.14264999845181592, 0.14024999836692587, 0.14399999781744555, 0.1411500015819911, 0.14055000065127388, 0.1472000003559515, 0.14335000014398247, 0.1391500045428984, 0.14989999544923194, 0.1437499959138222, 0.14650000230176374, 0.14644999828306027, 0.15689999781898223, 0.13985000259708613, 0.13804999616695568, 0.14195000039762817, 0.14104999718256295, 0.14020000162418, 0.13969999781693332, 0.14214999828254804, 0.1415999977325555, 0.14150000060908496, 0.14099999680183828, 0.14069999815546907, 0.14369999917107634, 0.14044999988982454, 0.14119999832473695, 0.1400499968440272, 0.14074999853619374, 0.1403499991283752, 0.14099999680183828, 0.13999999646330252, 0.14424999608309008, 0.14070000179344788, 0.1389500030199997, 0.13839999883202836, 0.14614999963669106, 0.14110000120126642, 0.13969999781693332, 0.1384999995934777, 0.1414500002283603, 0.1465500026824884, 0.14679999731015414, 0.13944999955128878, 0.140050000482006, 0.149200001033023, 0.14029999874765053, 0.14044999988982454, 0.13810000382363796, 0.14464999912888743, 0.1383499984513037, 0.14015000488143414, 0.13955000031273812, 0.14234999980544671, 0.14354999802890234, 0.14650000230176374, 0.1425500013283454, 0.1507499982835725, 0.13984999532112852, 0.13940000280854292, 0.1434500009054318, 0.14150000060908496, 0.14800000280956738, 0.1452999968023505, 0.14695000209030695, 0.145650003105402, 0.13994999608257785, 0.1392499980283901, 0.13750000289292075, 0.13875000149710104, 0.13984999895910732, 0.13839999883202836, 0.13715000386582687, 0.1403499991283752, 0.136500002554385, 0.13550000221584924, 0.13620000027003698, 0.1437499959138222, 0.13705000310437754, 0.14245000420487486, 0.14279999959398992, 0.14659999578725547, 0.1376999971398618, 0.13689999832422473, 0.13989999570185319, 0.14840000221738592, 0.15295000048354268, 0.1386500007356517, 0.1387999982398469, 0.3451999873504974, 0.13140000373823568, 0.23569999757455662, 0.1507499982835725, 0.13925000166636892, 0.1414500038663391, 0.13869999747839756, 0.14010000086273067, 0.14029999874765053, 0.13889999900129624, 0.14015000124345534, 0.13770000077784061, 0.136500002554385, 0.13735000175074674, 0.14530000407830812, 0.14504999853670597, 0.13819999730912969, 0.13715000022784807, 0.13845000285073183, 0.13789999866276048, 0.1389499993820209, 0.13630000103148632, 0.1453000004403293, 0.13760000365437008, 0.13730000137002207, 0.13815000056638382, 0.14044999625184573, 0.1427000024705194, 0.14510000255540945, 0.14240000018617138, 0.13609999587060884, 0.136800004838733, 0.13760000365437008, 0.1367999975627754, 0.1367999975627754, 0.14659999578725547, 0.14154999735183083, 0.14210000153980218, 0.13775000115856528, 0.14000000010128133, 0.13690000196220353, 0.1369499987049494, 0.1366500000585802, 0.14500000543193892, 0.1368000012007542, 0.13604999548988417, 0.1366500000585802, 0.13654999929713085, 0.1373999984934926, 0.13700000272365287, 0.13619999663205817, 0.1362000039080158, 0.14399999781744555, 0.1379000023007393, 0.13744999887421727, 0.1454499979445245, 0.13760000001639128, 0.13799999942420982, 0.1483999985794071, 0.14504999853670597, 0.14024999836692587, 0.14495000141323544, 0.1375499996356666, 0.1384999995934777, 0.13819999730912969, 0.13745000251219608, 0.14149999697110616, 0.14340000052470714, 0.13749999925494194, 0.13809999654768035, 0.1370999998471234, 0.14050000390852802, 0.1369499987049494, 0.1375499996356666, 0.1376999971398618, 0.14754999574506655, 0.1396000006934628, 0.13859999671694823, 0.1380500034429133, 0.18309999722987413, 0.14279999595601112, 0.1458000006095972, 0.14879999798722565, 0.1475000026402995, 0.13714999658986926, 0.13839999883202836, 0.13674999718205072, 0.1390999968862161, 0.1361499962513335, 0.1369499987049494, 0.13690000196220353, 0.13804999616695568, 0.13795000268146396, 0.14290000035543926, 0.13760000365437008, 0.13704999946639873, 0.1372499973513186, 0.13574999684351496, 0.13934999878983945, 0.13715000022784807, 0.13780000153928995, 0.13794999904348515, 0.14759999612579122, 0.15239999629557133, 0.13760000001639128, 0.1383499984513037, 0.14540000120177865, 0.13860000399290584, 0.13854999997420236, 0.13765000039711595, 0.13905000014347024, 0.1389500030199997, 0.13840000247000717, 0.1375499996356666, 0.15079999866429716, 0.13889999536331743, 0.1369499987049494, 0.13979999857838266, 0.14435000048251823, 0.13765000039711595, 0.13950000356999226, 0.1394500031892676, 0.13905000378144905, 0.14319999900180846, 0.13840000247000717, 0.14080000255489722, 0.1431499986210838, 0.13939999917056412, 0.140350002766354, 0.1388000018778257, 0.139749998197658, 0.1382000009471085, 0.14059999739401974, 0.14324999938253313, 0.1448499970138073, 0.1454499979445245, 0.1383500020892825, 0.13749999925494194, 0.1530499976070132, 0.14394999743672088, 0.13655000293510966, 0.13594999836641364, 0.1369500023429282, 0.14120000196271576, 0.1432999997632578, 0.13704999582841992, 0.13620000027003698, 0.13949999993201345, 0.1436000020476058, 0.13854999997420236, 0.13749999925494194, 0.13715000386582687, 0.13664999642060138, 0.13774999752058648, 0.13744999887421727, 0.1406500014127232, 0.13745000251219608, 0.13770000077784061, 0.1367999975627754, 0.13875000513507985, 0.13730000137002207, 0.13664999642060138, 0.13720000060857274, 0.15839999832678586, 0.13944999955128878, 0.14234999980544671, 0.13979999857838266, 0.14709999959450215, 0.1373999984934926, 0.13814999692840502, 0.1391000005241949, 0.1477999976486899, 0.139899999339832, 0.13939999917056412, 0.1385000032314565, 0.14044999988982454, 0.13770000077784061, 0.13779999790131114, 0.1384999995934777, 0.13779999790131114, 0.13804999616695568, 0.13730000137002207, 0.14719999671797268, 0.14009999722475186, 0.13779999790131114, 0.14649999866378494, 0.14719999671797268, 0.15545000132988207, 0.1448500006517861, 0.13760000001639128, 0.13815000056638382, 0.1427000024705194, 0.14025000200490467, 0.14324999938253313, 0.1445500020054169, 0.14589999773306772, 0.1509000030637253, 0.13885000225855038, 0.14399999781744555, 0.14825000471319072, 0.140050000482006, 0.13780000153928995, 0.13660000331583433, 0.13939999917056412, 0.13845000285073183, 0.13789999866276048, 0.13574999684351496, 0.13874999785912223, 0.13829999807057902, 0.1372500009892974, 0.13785000192001462, 0.13760000001639128, 0.13979999857838266, 0.13770000077784061, 0.13889999900129624, 0.14114999794401228, 0.15084999904502183, 0.14280000323196873, 0.13775000115856528, 0.13860000035492703, 0.13815000056638382, 0.143149994983105, 0.15084999904502183, 0.1428499999747146, 0.13829999807057902, 0.14320000263978727, 0.14385000395122916, 0.15730000450275838, 0.15420000272570178, 0.13844999921275303, 0.13669999680132605, 0.14194999675964937, 0.14010000086273067, 0.13824999768985435, 0.13840000247000717, 0.13670000043930486, 0.13815000420436263, 0.13704999946639873, 0.14495000141323544, 0.1523000028100796, 0.14519999967887998, 0.14354999802890234, 0.13870000111637637, 0.1380499998049345, 0.1372500009892974, 0.13764999675913714, 0.13705000310437754, 0.13860000035492703, 0.14409999857889488, 0.16385000344598666, 0.14290000035543926, 0.14414999895961955, 0.1387999982398469, 0.13765000039711595, 0.13644999853568152, 0.23514999702456407, 0.2815000043483451, 0.207349999982398, 0.14545000158250332, 0.14080000255489722, 0.13825000132783316, 0.16505000166944228, 0.1417499988747295, 0.14025000200490467, 0.1375499996356666, 0.1446999958716333, 0.13670000043930486, 0.13719999697059393, 0.1403499991283752, 0.1400499968440272, 0.13699999908567406, 0.13825000132783316, 0.1370999962091446, 0.13624999701278284, 0.13699999908567406, 0.1380499998049345, 0.14660000306321308, 0.13874999785912223, 0.13780000153928995, 0.1370999962091446, 0.13689999832422473, 0.14069999815546907, 0.13765000039711595, 0.13704999946639873, 0.13715000022784807, 0.13674999718205072, 0.13690000196220353, 0.13730000137002207, 0.1364499948977027, 0.1372500009892974, 0.14039999587112106, 0.13640000179293565, 0.13704999946639873, 0.13825000132783316, 0.14225000268197618, 0.13619999663205817, 0.1368000012007542, 0.13674999718205072, 0.13604999912786298, 0.1468499976908788, 0.13745000251219608],
  "Depth": 2.0,
  "Expectation Value": -5.556558132171631,
  "Optimal Expectation Value": -5.571199893951416,
  "Optimizer durations [ms]": [4.286, 3.936, 3.785, 3.723, 3.773, 4.261, 3.805, 3.779, 3.751, 3.997, 3.91, 3.873, 3.787, 4.245, 3.816, 3.749, 3.837, 3.867, 3.783, 3.755, 3.74, 3.749, 3.775, 3.74, 3.806, 3.768, 3.799, 3.712, 4.006, 3.821, 3.767, 3.739, 3.773, 3.744, 3.874, 3.758, 3.724, 3.747, 4.742, 4.185, 3.914, 3.829, 3.794, 3.77, 3.778, 3.794, 3.768, 3.782, 3.849, 3.727, 4.192, 3.932, 3.892, 3.877, 3.768, 3.722, 3.719, 3.733, 3.874, 3.725, 3.728, 3.76, 3.94, 3.74, 3.75, 3.86, 4.866, 3.735, 3.812, 3.746, 3.89, 3.753, 4.053, 3.795, 3.715, 3.717, 3.739, 3.739, 4.04, 3.784, 3.727, 3.851, 3.889, 3.746, 3.779, 3.728, 3.817, 3.824, 3.715, 3.816, 4.405, 3.747, 3.934, 3.759, 4.17, 3.79, 3.746, 3.758, 3.813, 3.952, 3.746, 3.743, 3.706, 3.707, 3.775, 3.924, 3.84, 3.906, 3.77, 3.77, 3.799, 3.75, 3.757, 3.711, 3.846, 4.085, 3.826, 4.003, 5.985, 21.117, 7.87, 4.281, 3.83, 3.878, 4.202, 3.806, 3.79, 3.814, 3.912, 3.981, 3.782, 3.816, 3.866, 3.871, 3.874, 3.909, 4.015, 3.801, 3.82, 3.802, 3.847, 3.76, 3.783, 3.746, 4.348, 3.774, 3.774, 3.737, 3.758, 3.716, 3.917, 3.842, 4.027, 3.764, 3.829, 3.75, 4.148, 3.854, 3.863, 3.941, 3.786, 3.764, 3.744, 3.758, 4.287, 3.795, 3.73, 4.038, 4.033, 3.817, 3.764, 3.774, 3.972, 3.789, 3.722, 3.903, 3.786, 3.807, 4.11, 3.859, 4.002, 3.856, 3.795, 3.868, 4.036, 3.887, 3.838, 3.795, 3.925, 3.769, 3.827, 3.821, 3.8, 3.748, 3.745, 3.77, 3.766, 3.799, 3.817, 3.77, 4.046, 3.896, 3.765, 3.765, 4.012, 3.801, 3.839, 3.819, 4.022, 3.901, 3.905, 3.914, 4.341, 8.198, 3.98, 3.778, 3.931, 3.935, 3.862, 4.095, 4.044, 5.675, 10.997, 3.827, 3.715, 3.797, 3.743, 3.746, 3.749, 3.861, 3.696, 3.707, 3.727, 3.881, 3.739, 3.7, 3.716, 3.834, 4.11, 3.95, 3.718, 3.852, 3.832, 3.736, 3.708, 5.947, 5.019, 3.956, 4.022, 3.781, 3.772, 3.781, 3.799, 3.728, 3.816, 4.045, 3.762, 4.009, 3.894, 3.864, 3.954, 3.718, 3.819, 3.971, 4.925, 4.232, 3.745, 3.744, 3.739, 3.736, 3.728, 3.699, 3.785, 3.863, 3.851, 3.834, 3.851, 3.805, 3.749, 3.663, 3.794, 3.793, 3.753, 3.731, 3.719, 3.648, 3.935, 3.802, 3.703, 3.856, 3.744, 3.691, 3.746, 3.76, 3.715, 3.808, 3.766, 3.744, 3.866, 4.029, 3.932, 3.908, 3.905, 3.888, 3.89, 3.885, 3.78, 3.746, 4.007, 3.869, 3.731, 3.632, 3.795, 3.792, 3.877, 3.957, 3.775, 3.937, 3.755, 3.697, 3.742, 3.768, 3.756, 3.986, 3.972, 3.968, 3.936, 3.889, 3.869, 3.792, 3.697, 4.066, 4.009, 3.864, 3.658, 3.75, 3.765, 3.796, 3.759, 3.861, 3.912, 3.973, 3.909, 3.746, 3.695, 3.795, 3.749, 3.725, 3.934, 3.919, 3.9, 3.867, 3.857, 3.905, 3.964, 3.712, 3.673, 3.761, 3.762, 3.76, 3.72, 3.76, 3.774, 3.687, 3.666, 3.728, 3.838, 3.706, 3.796, 4.254, 6.323, 21.057, 6.527, 4.097, 3.785, 3.748, 4.493, 3.776, 3.843, 3.94, 3.934, 3.802, 3.894, 4.012, 3.825, 3.734, 3.71, 3.735, 3.829, 3.721, 3.732, 3.716, 4.148, 3.745, 3.708, 3.749, 3.74, 3.714, 3.698, 3.816, 3.815, 3.76, 3.685, 3.722, 3.986, 3.864, 3.862, 3.75, 3.758, 3.704, 3.699, 3.642, 3.665, 3.534, 4.078, 4.16, 4.363, 3.742, 3.72, 3.798, 3.743, 3.766, 3.732, 3.738, 3.808, 3.833, 3.952, 3.734, 3.753, 3.817, 3.981, 3.808, 3.793, 3.863, 3.889, 3.797, 3.729, 3.821, 3.987, 3.798, 3.714, 3.94, 3.74, 3.72, 3.669, 3.9, 3.639, 3.738, 3.715, 3.662, 3.653, 3.651, 3.672, 3.644, 3.608, 3.701, 3.738, 4.254, 3.74, 3.717, 3.717, 4.151, 3.792, 3.727, 3.681, 3.659, 4.155, 5.708, 3.695, 3.918, 3.726, 4.008, 3.932, 3.946, 3.742, 3.732, 3.707, 3.987, 3.734, 3.684, 3.689, 3.93, 3.815, 4.115, 3.756, 3.702, 3.718, 3.784, 3.89, 3.966, 3.775, 3.698, 3.706, 3.825, 3.694, 3.703, 7.075, 13.075, 3.765, 3.773, 3.798, 3.847, 4.257, 3.767, 3.846, 3.635, 4.102, 3.98, 3.933, 3.938, 4.13, 3.708, 3.625, 3.672, 3.785, 3.724, 3.903, 3.755, 3.95, 3.737, 3.813, 3.814, 3.774, 3.747, 4.026, 3.755, 4.009, 4.117, 3.707, 3.791, 3.738, 3.852, 3.728, 3.729, 3.713, 3.727, 3.829, 3.717, 3.734, 3.941, 3.711, 3.673, 3.714, 3.803, 3.75, 3.803, 3.943, 4.033, 3.858, 3.734, 3.721, 4.407, 3.84, 3.747, 3.891, 3.74, 3.754, 3.78, 3.713, 4.137, 3.782, 3.679, 3.762, 3.803, 3.797, 3.769, 3.745, 3.79, 3.795, 4.008, 3.778, 3.807, 3.75, 3.741, 3.757, 3.863, 3.647, 3.702, 4.258, 3.812, 3.754, 3.831, 3.758, 3.829, 3.744, 3.719, 4.033, 3.897, 4.0, 3.753, 3.756, 4.257, 4.182, 3.844, 3.801, 4.038, 3.78, 3.806, 3.961, 3.92, 4.037, 3.901, 3.693, 3.73, 3.753, 3.689, 3.682, 3.705, 3.636, 3.647, 4.396, 3.889, 3.759, 3.977, 3.885, 3.822, 3.759, 3.665, 3.627, 3.835, 4.427, 4.294, 3.826, 5.349, 5.99, 3.664, 5.056, 3.864, 3.887, 3.989, 6.006, 11.119, 5.313, 3.934, 4.022, 5.407, 6.196, 3.908, 4.965, 3.982, 3.787, 3.71, 6.08, 4.172, 3.762, 4.8, 3.604, 3.692, 3.55, 5.106, 15.347, 6.292, 3.83, 3.699, 4.742, 3.677, 3.684, 3.63, 6.066, 4.147, 3.749, 5.128, 4.518, 3.775, 3.829, 7.497, 13.522, 4.042, 3.752, 4.835, 3.709, 3.744, 3.808, 6.653, 4.098, 3.646, 4.883, 3.758, 3.757, 3.805, 6.03, 14.862, 8.347, 5.556, 4.308, 3.85, 3.767, 3.859, 3.746, 3.751, 3.71, 4.204, 3.738, 3.741, 3.731, 3.751, 3.76, 3.736, 3.727, 4.033, 3.728, 4.076, 3.921, 4.106, 8.191, 3.833, 3.849, 3.762, 3.767, 3.764, 4.743, 3.759, 3.734, 3.736, 4.249, 3.855, 3.781, 3.765, 4.04, 3.775, 3.864, 3.95, 3.968, 3.902, 3.768, 3.757, 4.156, 4.056, 5.301, 14.068, 3.947, 4.005, 3.818, 4.816, 3.797, 3.808, 3.776, 3.894, 3.817, 4.264, 3.801, 3.861, 3.772, 3.821, 3.88, 3.988, 3.842, 3.778, 4.015, 3.851, 3.97, 3.85, 3.783, 4.357, 3.957, 3.794, 3.783, 3.858, 3.78, 3.73, 3.815, 3.836, 3.777, 3.762, 3.765, 3.738, 3.738, 4.006, 4.296, 3.94, 3.986, 3.898, 3.924, 3.86, 4.118, 3.953, 3.857, 3.812, 3.971, 3.858, 3.922, 3.909, 4.156, 3.802, 3.739, 3.841, 3.855, 3.82, 3.748, 3.901, 3.816, 3.84, 3.849, 3.816, 3.832, 3.79, 3.873, 3.773, 3.84, 3.786, 3.782, 3.767, 4.156, 3.849, 3.82, 3.789, 3.897, 3.757, 3.742, 3.943, 3.814, 3.92, 3.917, 3.727, 3.814, 4.016, 3.787, 3.785, 3.761, 3.856, 3.752, 3.739, 3.82, 3.906, 3.954, 4.0, 3.865, 4.062, 3.782, 3.769, 3.865, 3.849, 4.043, 3.966, 4.071, 3.908, 3.765, 3.784, 3.766, 3.854, 3.874, 3.782, 3.784, 3.82, 3.694, 3.669, 3.554, 3.956, 3.768, 3.95, 3.944, 3.942, 3.681, 3.685, 4.527, 4.088, 4.212, 3.754, 3.781, 7.926, 17.019, 6.648, 4.427, 3.747, 3.865, 4.463, 3.919, 3.973, 3.849, 3.828, 3.776, 3.725, 3.762, 4.265, 3.913, 3.714, 3.755, 3.811, 3.789, 3.768, 3.781, 4.005, 3.749, 3.749, 3.769, 3.877, 3.883, 3.981, 3.831, 3.82, 3.752, 3.761, 3.725, 3.734, 3.934, 3.85, 3.84, 3.743, 3.799, 3.759, 3.847, 3.756, 3.843, 3.668, 3.722, 3.696, 3.7, 3.704, 3.676, 3.682, 3.689, 3.981, 3.786, 3.728, 3.909, 3.762, 3.874, 4.301, 3.891, 3.899, 3.982, 3.696, 3.704, 3.755, 3.725, 3.849, 3.896, 3.757, 3.763, 3.728, 3.828, 3.75, 3.762, 3.763, 3.932, 3.81, 3.762, 3.774, 4.677, 3.799, 3.938, 4.03, 3.975, 3.762, 3.742, 3.737, 3.821, 3.658, 3.675, 3.727, 3.957, 3.756, 3.846, 3.755, 3.783, 9.154, 3.838, 3.766, 3.671, 3.674, 3.693, 3.948, 4.179, 3.731, 3.784, 4.189, 3.754, 3.671, 3.658, 3.767, 3.732, 3.78, 3.811, 4.208, 3.746, 3.656, 3.737, 4.022, 3.754, 3.816, 3.777, 3.913, 3.924, 3.753, 3.82, 3.904, 3.766, 3.789, 3.785, 3.776, 3.749, 3.823, 3.873, 3.919, 3.925, 3.779, 3.731, 4.094, 3.873, 3.723, 3.719, 3.673, 3.851, 3.851, 3.717, 3.759, 3.798, 4.039, 3.766, 3.714, 3.896, 3.751, 3.743, 3.74, 3.948, 3.716, 3.755, 3.73, 3.741, 3.736, 3.732, 3.709, 4.136, 3.768, 3.851, 3.746, 3.948, 3.685, 3.981, 3.798, 4.129, 3.806, 3.814, 3.772, 3.827, 3.779, 3.779, 3.771, 3.769, 3.768, 3.672, 3.983, 3.833, 3.735, 4.118, 4.035, 4.265, 3.902, 3.702, 3.736, 3.731, 3.777, 4.029, 3.931, 3.972, 4.056, 3.764, 3.997, 4.084, 3.809, 3.73, 3.656, 3.808, 3.803, 3.761, 3.758, 3.792, 3.778, 3.752, 3.76, 3.821, 3.879, 3.749, 4.081, 4.168, 4.167, 3.964, 3.761, 3.795, 3.745, 4.003, 4.101, 3.917, 3.784, 3.963, 4.009, 4.222, 4.264, 3.735, 3.67, 3.948, 3.827, 3.781, 3.741, 3.677, 3.726, 3.769, 3.927, 4.112, 3.95, 3.896, 3.789, 3.766, 3.772, 3.723, 3.682, 3.746, 3.909, 4.264, 3.841, 3.946, 3.799, 3.774, 3.765, 5.912, 22.121, 6.822, 4.048, 3.825, 3.787, 4.355, 5.028, 3.864, 3.727, 4.025, 3.708, 3.72, 3.824, 3.778, 3.75, 3.767, 3.728, 3.731, 3.719, 3.751, 4.15, 3.773, 3.754, 3.806, 3.702, 3.825, 3.731, 3.75, 3.748, 3.724, 3.71, 3.789, 3.765, 3.727, 3.834, 3.724, 3.734, 3.662, 3.883, 3.734, 3.724, 3.729, 3.837, 3.964, 3.678],
  "Optimizer iterations": 1160,
  "Optimizer params": [0.0022995622846287223, 0.4977625916472433, 0.0020106361793751125, 0.5018391499621195, 0.5006435471292631, 0.9952199226637712, 0.5033875488901751, 0.45210150389545256, 0.9959721986539766],
  "P": 0,
  "Problem": "RH",
  "QJob durations [ms]": [0.15785000141477212, 0.14725000073667616, 0.14119999832473695, 0.13955000031273812, 0.13845000285073183, 0.15659999553463422, 0.14074999853619374, 0.1397500018356368, 0.14000000010128133, 0.1487500012444798, 0.14259999807109125, 0.14010000086273067, 0.13915000090491958, 0.14055000428925268, 0.14234999980544671, 0.1394500031892676, 0.14095000005909242, 0.14250000094762072, 0.14090000331634656, 0.13970000509289093, 0.13965000107418746, 0.1397500018356368, 0.14050000390852802, 0.1400500041199848, 0.14119999832473695, 0.1401999979862012, 0.13989999570185319, 0.13839999519404955, 0.14480000390904024, 0.13929999840911478, 0.14030000238562934, 0.13934999878983945, 0.13875000513507985, 0.13889999900129624, 0.14220000230125152, 0.1399000029778108, 0.14000000010128133, 0.13939999917056412, 0.18785000429488719, 0.1412999990861863, 0.14409999857889488, 0.1425500013283454, 0.14075000217417255, 0.13939999917056412, 0.14095000005909242, 0.13915000090491958, 0.13985000259708613, 0.14059999739401974, 0.14400000145542435, 0.140350002766354, 0.14859999646432698, 0.1462499967601616, 0.1460999992559664, 0.14259999807109125, 0.13965000107418746, 0.1389499993820209, 0.13904999650549144, 0.13979999857838266, 0.14540000120177865, 0.1391000005241949, 0.13939999917056412, 0.13934999878983945, 0.1480999999330379, 0.13889999900129624, 0.13915000090491958, 0.14354999802890234, 0.18020000425167382, 0.13929999840911478, 0.13935000242781825, 0.13935000242781825, 0.14350000128615648, 0.13939999917056412, 0.14465000276686624, 0.13969999781693332, 0.13825000132783316, 0.13905000014347024, 0.13944999955128878, 0.13854999633622356, 0.15175000589806587, 0.1401999979862012, 0.13904999650549144, 0.1431499986210838, 0.14545000158250332, 0.13920000128564425, 0.1403499991283752, 0.13915000090491958, 0.1396000006934628, 0.1386500007356517, 0.13905000014347024, 0.14040000314707868, 0.1430000011168886, 0.14109999756328762, 0.1431500022590626, 0.13965000107418746, 0.14435000048251823, 0.13949999993201345, 0.1399000029778108, 0.13939999917056412, 0.14089999967836775, 0.14279999959398992, 0.13934999878983945, 0.14100000043981709, 0.13905000378144905, 0.13929999840911478, 0.1387999982398469, 0.14575000022887252, 0.14334999650600366, 0.14519999967887998, 0.14024999836692587, 0.13959999705548398, 0.14169999485602602, 0.13995000335853547, 0.14084999565966427, 0.13920000128564425, 0.1389499993820209, 0.1477999976486899, 0.1416000013705343, 0.1454499979445245, 0.2646000066306442, 0.2643999978317879, 0.2465499928803183, 0.14634999752161093, 0.1409499964211136, 0.14095000005909242, 0.16170000162674114, 0.1417500025127083, 0.1390999968862161, 0.14039999950909987, 0.14444999760598876, 0.14320000263978727, 0.14095000005909242, 0.14055000065127388, 0.1449999981559813, 0.14279999595601112, 0.1403499991283752, 0.14139999984763563, 0.14564999946742319, 0.1413000027241651, 0.14324999938253313, 0.14075000217417255, 0.1434500009054318, 0.1392499980283901, 0.13944999955128878, 0.13934999878983945, 0.1684500020928681, 0.1384999995934777, 0.13765000403509475, 0.13844999557477422, 0.13860000035492703, 0.13829999807057902, 0.1383499984513037, 0.1430000011168886, 0.14984999870648608, 0.13875000149710104, 0.1397500018356368, 0.1383500020892825, 0.1465499990445096, 0.14215000192052685, 0.14385000031325035, 0.14369999917107634, 0.14044999625184573, 0.13810000018565916, 0.1378499982820358, 0.13854999997420236, 0.140050000482006, 0.13745000251219608, 0.1386499970976729, 0.14305000149761327, 0.15205000090645626, 0.14054999701329507, 0.1387999982398469, 0.13915000090491958, 0.14860000010230578, 0.13980000221636146, 0.1383500020892825, 0.14280000323196873, 0.1403499991283752, 0.14199999714037403, 0.14955000006011687, 0.14170000213198364, 0.14695000209030695, 0.14039999950909987, 0.13829999807057902, 0.1397500018356368, 0.14464999912888743, 0.14014999760547653, 0.14105000082054175, 0.13949999993201345, 0.1455999954487197, 0.1396000043314416, 0.1431499986210838, 0.14100000043981709, 0.14074999853619374, 0.13860000035492703, 0.1400499968440272, 0.13940000280854292, 0.14000000010128133, 0.14044999625184573, 0.14015000124345534, 0.139749998197658, 0.14645000192103907, 0.14494999777525663, 0.13980000221636146, 0.1396000006934628, 0.14865000048303045, 0.14014999760547653, 0.14304999785963446, 0.14109999756328762, 0.1514999967184849, 0.14429999646381475, 0.14620000001741573, 0.14584999735234305, 0.1468499976908788, 0.13905000014347024, 0.13949999993201345, 0.14134999582893215, 0.14365000242833048, 0.14165000175125897, 0.14109999756328762, 0.15549999807262793, 0.14959999680286273, 0.24124999617924914, 0.15624999650754035, 0.14139999984763563, 0.13970000145491213, 0.14090000331634656, 0.14080000255489722, 0.1397500018356368, 0.13965000107418746, 0.14464999549090862, 0.14155000098980963, 0.13794999540550634, 0.1380499998049345, 0.13844999921275303, 0.13775000115856528, 0.13640000179293565, 0.13635000141221099, 0.14114999794401228, 0.14424999608309008, 0.1447000031475909, 0.13774999752058648, 0.1417499988747295, 0.13760000001639128, 0.13730000137002207, 0.1369499987049494, 0.2539999950386118, 0.18874999295803718, 0.14184999963617884, 0.1519999968877528, 0.13919999764766544, 0.13870000111637637, 0.13874999785912223, 0.14010000086273067, 0.13714999658986926, 0.13654999565915205, 0.14449999434873462, 0.13840000247000717, 0.13700000272365287, 0.14309999824035913, 0.14089999604038894, 0.14265000208979473, 0.13730000137002207, 0.13749999925494194, 0.14274999921326526, 0.19055000666412525, 0.13994999972055666, 0.13730000137002207, 0.13720000060857274, 0.13745000251219608, 0.13750000289292075, 0.1354000014543999, 0.1364499948977027, 0.1384999995934777, 0.14134999946691096, 0.14275000285124406, 0.14260000170907006, 0.1424000038241502, 0.1377500047965441, 0.1402000052621588, 0.1355500025965739, 0.14044999988982454, 0.13764999675913714, 0.13750000289292075, 0.13644999853568152, 0.13625000065076165, 0.13590000162366778, 0.13999999646330252, 0.1369500023429282, 0.1358500012429431, 0.14364999879035167, 0.14235000344342552, 0.13689999832422473, 0.13654999929713085, 0.1391000005241949, 0.13610000314656645, 0.13860000035492703, 0.13729999773204327, 0.13800000306218863, 0.13564999972004443, 0.14634999752161093, 0.14294999709818512, 0.14335000378196128, 0.14200000441633165, 0.14245000056689605, 0.14210000153980218, 0.14140000348561443, 0.13844999921275303, 0.1371000034851022, 0.14815000031376258, 0.1396000006934628, 0.13699999908567406, 0.13534999743569642, 0.13934999878983945, 0.13794999540550634, 0.13795000268146396, 0.14369999917107634, 0.14015000124345534, 0.14760000340174884, 0.13829999807057902, 0.13875000149710104, 0.13744999523623846, 0.13785000192001462, 0.13809999654768035, 0.14230000306270085, 0.14250000094762072, 0.14814999667578377, 0.14569999984814785, 0.14234999980544671, 0.14340000052470714, 0.14139999984763563, 0.1373999984934926, 0.1426999988325406, 0.143599998409627, 0.1454499979445245, 0.13670000407728367, 0.13970000145491213, 0.13690000196220353, 0.14010000086273067, 0.137999995786231, 0.13814999692840502, 0.14335000014398247, 0.1420500011590775, 0.1446999958716333, 0.13544999819714576, 0.13839999883202836, 0.13980000221636146, 0.13719999697059393, 0.13730000500800088, 0.14059999739401974, 0.14244999692891724, 0.14235000344342552, 0.14084999929764308, 0.13934999878983945, 0.14194999675964937, 0.1424000038241502, 0.1379000023007393, 0.13635000141221099, 0.13935000242781825, 0.13839999883202836, 0.13760000001639128, 0.1383499984513037, 0.13699999544769526, 0.13854999997420236, 0.13550000221584924, 0.13475000378093682, 0.13699999908567406, 0.14200000077835284, 0.13735000175074674, 0.13869999747839756, 0.16495000454597175, 0.26435000472702086, 0.243800001044292, 0.23165000311564654, 0.14714999997522682, 0.13899999976274557, 0.13939999917056412, 0.14234999980544671, 0.13944999955128878, 0.1437499959138222, 0.14489999739453197, 0.14569999984814785, 0.14319999900180846, 0.14209999790182337, 0.14390000069397502, 0.14109999756328762, 0.13675000082002953, 0.13605000276584178, 0.136800004838733, 0.14224999904399738, 0.1375499996356666, 0.13645000217366032, 0.1369499987049494, 0.14390000069397502, 0.13689999832422473, 0.1362999973935075, 0.13699999908567406, 0.13745000251219608, 0.1367999975627754, 0.13780000153928995, 0.13934999878983945, 0.14350000128615648, 0.1379000023007393, 0.13674999718205072, 0.13674999718205072, 0.15195000014500692, 0.13689999832422473, 0.14225000268197618, 0.13744999887421727, 0.1386500007356517, 0.13689999832422473, 0.13659999603987671, 0.13670000043930486, 0.13609999587060884, 0.13604999912786298, 0.1446999958716333, 0.1532500027678907, 0.13770000077784061, 0.13705000310437754, 0.13720000060857274, 0.14069999815546907, 0.13760000001639128, 0.13720000424655154, 0.13534999743569642, 0.1372500009892974, 0.1397500018356368, 0.14345000454341061, 0.14429999646381475, 0.13794999904348515, 0.136800004838733, 0.140350002766354, 0.14235000344342552, 0.13839999883202836, 0.14024999836692587, 0.14165000175125897, 0.14365000242833048, 0.14139999984763563, 0.14009999722475186, 0.13845000285073183, 0.14584999735234305, 0.1389500030199997, 0.13719999697059393, 0.14774999726796523, 0.13829999807057902, 0.1376999971398618, 0.1378499982820358, 0.13775000115856528, 0.13809999654768035, 0.13714999658986926, 0.13760000365437008, 0.1368000012007542, 0.1370999962091446, 0.13780000153928995, 0.13755000327364542, 0.13630000103148632, 0.13494999802787788, 0.13685000158147886, 0.1379000023007393, 0.15004999659140594, 0.13779999790131114, 0.1370999998471234, 0.13720000060857274, 0.14434999684453942, 0.13885000225855038, 0.13699999908567406, 0.13750000289292075, 0.13630000103148632, 0.13560000297729857, 0.14679999731015414, 0.13870000111637637, 0.145500001963228, 0.13715000022784807, 0.1445500020054169, 0.14980000196374021, 0.14715000361320563, 0.1372500009892974, 0.13770000077784061, 0.13699999544769526, 0.1420500011590775, 0.1380499998049345, 0.13744999887421727, 0.13720000424655154, 0.14679999731015414, 0.13860000399290584, 0.15214999439194798, 0.1369499987049494, 0.13705000310437754, 0.13934999878983945, 0.14199999714037403, 0.1447000031475909, 0.14820000069448724, 0.14134999946691096, 0.1367999975627754, 0.13625000428874046, 0.13855000361218117, 0.13705000310437754, 0.13589999798568897, 0.3130000113742426, 0.10409999958937988, 0.14069999815546907, 0.13795000268146396, 0.1383499984513037, 0.14215000192052685, 0.1563500045449473, 0.13845000285073183, 0.14170000213198364, 0.13575000411947258, 0.13760000365437008, 0.14264999845181592, 0.14435000048251823, 0.14339999688672833, 0.15450000137207098, 0.13735000175074674, 0.1362000039080158, 0.1369500023429282, 0.1405000002705492, 0.13720000060857274, 0.14474999625235796, 0.13715000022784807, 0.13780000153928995, 0.136650003696559, 0.1391000005241949, 0.13899999976274557, 0.13770000441581942, 0.13730000137002207, 0.14820000069448724, 0.13825000132783316, 0.14295000073616393, 0.13855000361218117, 0.1369499987049494, 0.13770000077784061, 0.13684999794350006, 0.13874999785912223, 0.13734999811276793, 0.13634999777423218, 0.13684999794350006, 0.13625000065076165, 0.13995000335853547, 0.13609999950858764, 0.13634999777423218, 0.14220000230125152, 0.13594999836641364, 0.13659999967785552, 0.13884999862057157, 0.13749999925494194, 0.13644999853568152, 0.13969999781693332, 0.14305000149761327, 0.1497999983257614, 0.1425500013283454, 0.13689999832422473, 0.1360000023851171, 0.16599999798927456, 0.1404999966325704, 0.13714999658986926, 0.14109999756328762, 0.1372499973513186, 0.13705000310437754, 0.13675000082002953, 0.13615000352729112, 0.15064999752212316, 0.13719999697059393, 0.13530000069295056, 0.13670000407728367, 0.14074999853619374, 0.1383500020892825, 0.13749999925494194, 0.1379000023007393, 0.13744999887421727, 0.13869999747839756, 0.14050000390852802, 0.1383500020892825, 0.13930000204709359, 0.13715000022784807, 0.13514999955077656, 0.13669999680132605, 0.14339999688672833, 0.13644999853568152, 0.13654999929713085, 0.16260000120382756, 0.13800000306218863, 0.13640000179293565, 0.14480000027106144, 0.13734999811276793, 0.13639999815495685, 0.1377500047965441, 0.13660000331583433, 0.14575000386685133, 0.1417499988747295, 0.14645000192103907, 0.13685000158147886, 0.1370999998471234, 0.13544999819714576, 0.14699999883305281, 0.1394500031892676, 0.14060000466997735, 0.14874999760650098, 0.13839999883202836, 0.1387999982398469, 0.14365000242833048, 0.1435999947716482, 0.1449999981559813, 0.14279999959398992, 0.13645000217366032, 0.13670000043930486, 0.13675000445800833, 0.1370999998471234, 0.13715000386582687, 0.13594999836641364, 0.13634999777423218, 0.1355499989585951, 0.16495000090799294, 0.13810000018565916, 0.13794999904348515, 0.1414500002283603, 0.1407999989169184, 0.13560000297729857, 0.1372499973513186, 0.13530000069295056, 0.13479999688570388, 0.13919999764766544, 0.16414999845437706, 0.16324999887729064, 0.14069999815546907, 0.221800000872463, 0.1504500032751821, 0.13609999950858764, 0.1445500020054169, 0.14110000120126642, 0.14260000170907006, 0.1372499973513186, 0.2565499999036547, 0.14645000192103907, 0.2115500028594397, 0.14335000014398247, 0.14295000073616393, 0.2241000001959037, 0.15749999874969944, 0.1431499986210838, 0.19299999985378236, 0.14495000141323544, 0.13929999840911478, 0.13810000018565916, 0.26145000447286293, 0.1507499982835725, 0.13809999654768035, 0.13764999675913714, 0.13299999773153104, 0.13860000035492703, 0.1327499994658865, 0.14139999984763563, 0.15675000031478703, 0.1462499967601616, 0.14105000082054175, 0.13794999904348515, 0.19054999575018883, 0.13700000272365287, 0.13625000065076165, 0.13484999726642855, 0.16880000475794077, 0.14980000560171902, 0.13704999946639873, 0.1382000009471085, 0.16419999883510172, 0.13935000242781825, 0.13734999811276793, 0.29644999449374154, 0.149500003317371, 0.14739999824087135, 0.13655000293510966, 0.19159999283147044, 0.1358500012429431, 0.1397500018356368, 0.13949999993201345, 0.30020000122021884, 0.13715000022784807, 0.13605000276584178, 0.19814999905065633, 0.1382000009471085, 0.13935000242781825, 0.1407999952789396, 0.2639499944052659, 0.34109999251086265, 0.20260000019334257, 0.19549999706214294, 0.1512000017100945, 0.14184999963617884, 0.13855000361218117, 0.13780000153928995, 0.13885000225855038, 0.13935000242781825, 0.1373999984934926, 0.1607000049261842, 0.13799999942420982, 0.13655000293510966, 0.1367999975627754, 0.1370999998471234, 0.13749999925494194, 0.13530000069295056, 0.13714999658986926, 0.15139999595703557, 0.1361499998893123, 0.14480000027106144, 0.1453000004403293, 0.1493499948992394, 0.1540000012028031, 0.14084999929764308, 0.1430000011168886, 0.13770000441581942, 0.13859999671694823, 0.1374000021314714, 0.18855000598705374, 0.13870000111637637, 0.13669999680132605, 0.13830000170855783, 0.16040000264183618, 0.143599998409627, 0.13859999671694823, 0.13735000175074674, 0.13699999908567406, 0.13809999654768035, 0.1386500007356517, 0.14475000352831557, 0.14324999938253313, 0.1400500041199848, 0.13860000035492703, 0.1379000023007393, 0.14659999578725547, 0.1442500033590477, 0.14220000230125152, 0.1217500030179508, 0.14294999709818512, 0.1490499962528702, 0.14059999739401974, 0.19020000036107376, 0.13965000471216626, 0.13955000395071693, 0.14254999769036658, 0.14070000179344788, 0.14055000428925268, 0.1630000042496249, 0.14099999680183828, 0.14139999984763563, 0.14135000310488977, 0.1428499999747146, 0.1405000002705492, 0.14760000340174884, 0.14010000086273067, 0.13995000335853547, 0.14805000319029205, 0.14104999718256295, 0.13935000242781825, 0.1430000011168886, 0.1407999989169184, 0.1661000023887027, 0.1459499981137924, 0.14084999929764308, 0.1403499954903964, 0.14080000255489722, 0.1401999979862012, 0.13845000285073183, 0.14054999701329507, 0.13999999646330252, 0.13985000259708613, 0.13965000107418746, 0.13915000090491958, 0.1394500031892676, 0.13889999900129624, 0.1472000003559515, 0.1649999976507388, 0.14125000234344043, 0.14264999845181592, 0.14024999836692587, 0.14399999781744555, 0.1411500015819911, 0.14055000065127388, 0.1472000003559515, 0.14335000014398247, 0.1391500045428984, 0.14989999544923194, 0.1437499959138222, 0.14650000230176374, 0.14644999828306027, 0.15689999781898223, 0.13985000259708613, 0.13804999616695568, 0.14195000039762817, 0.14104999718256295, 0.14020000162418, 0.13969999781693332, 0.14214999828254804, 0.1415999977325555, 0.14150000060908496, 0.14099999680183828, 0.14069999815546907, 0.14369999917107634, 0.14044999988982454, 0.14119999832473695, 0.1400499968440272, 0.14074999853619374, 0.1403499991283752, 0.14099999680183828, 0.13999999646330252, 0.14424999608309008, 0.14070000179344788, 0.1389500030199997, 0.13839999883202836, 0.14614999963669106, 0.14110000120126642, 0.13969999781693332, 0.1384999995934777, 0.1414500002283603, 0.1465500026824884, 0.14679999731015414, 0.13944999955128878, 0.140050000482006, 0.149200001033023, 0.14029999874765053, 0.14044999988982454, 0.13810000382363796, 0.14464999912888743, 0.1383499984513037, 0.14015000488143414, 0.13955000031273812, 0.14234999980544671, 0.14354999802890234, 0.14650000230176374, 0.1425500013283454, 0.1507499982835725, 0.13984999532112852, 0.13940000280854292, 0.1434500009054318, 0.14150000060908496, 0.14800000280956738, 0.1452999968023505, 0.14695000209030695, 0.145650003105402, 0.13994999608257785, 0.1392499980283901, 0.13750000289292075, 0.13875000149710104, 0.13984999895910732, 0.13839999883202836, 0.13715000386582687, 0.1403499991283752, 0.136500002554385, 0.13550000221584924, 0.13620000027003698, 0.1437499959138222, 0.13705000310437754, 0.14245000420487486, 0.14279999959398992, 0.14659999578725547, 0.1376999971398618, 0.13689999832422473, 0.13989999570185319, 0.14840000221738592, 0.15295000048354268, 0.1386500007356517, 0.1387999982398469, 0.3451999873504974, 0.13140000373823568, 0.23569999757455662, 0.1507499982835725, 0.13925000166636892, 0.1414500038663391, 0.13869999747839756, 0.14010000086273067, 0.14029999874765053, 0.13889999900129624, 0.14015000124345534, 0.13770000077784061, 0.136500002554385, 0.13735000175074674, 0.14530000407830812, 0.14504999853670597, 0.13819999730912969, 0.13715000022784807, 0.13845000285073183, 0.13789999866276048, 0.1389499993820209, 0.13630000103148632, 0.1453000004403293, 0.13760000365437008, 0.13730000137002207, 0.13815000056638382, 0.14044999625184573, 0.1427000024705194, 0.14510000255540945, 0.14240000018617138, 0.13609999587060884, 0.136800004838733, 0.13760000365437008, 0.1367999975627754, 0.1367999975627754, 0.14659999578725547, 0.14154999735183083, 0.14210000153980218, 0.13775000115856528, 0.14000000010128133, 0.13690000196220353, 0.1369499987049494, 0.1366500000585802, 0.14500000543193892, 0.1368000012007542, 0.13604999548988417, 0.1366500000585802, 0.13654999929713085, 0.1373999984934926, 0.13700000272365287, 0.13619999663205817, 0.1362000039080158, 0.14399999781744555, 0.1379000023007393, 0.13744999887421727, 0.1454499979445245, 0.13760000001639128, 0.13799999942420982, 0.1483999985794071, 0.14504999853670597, 0.14024999836692587, 0.14495000141323544, 0.1375499996356666, 0.1384999995934777, 0.13819999730912969, 0.13745000251219608, 0.14149999697110616, 0.14340000052470714, 0.13749999925494194, 0.13809999654768035, 0.1370999998471234, 0.14050000390852802, 0.1369499987049494, 0.1375499996356666, 0.1376999971398618, 0.14754999574506655, 0.1396000006934628, 0.13859999671694823, 0.1380500034429133, 0.18309999722987413, 0.14279999595601112, 0.1458000006095972, 0.14879999798722565, 0.1475000026402995, 0.13714999658986926, 0.13839999883202836, 0.13674999718205072, 0.1390999968862161, 0.1361499962513335, 0.1369499987049494, 0.13690000196220353, 0.13804999616695568, 0.13795000268146396, 0.14290000035543926, 0.13760000365437008, 0.13704999946639873, 0.1372499973513186, 0.13574999684351496, 0.13934999878983945, 0.13715000022784807, 0.13780000153928995, 0.13794999904348515, 0.14759999612579122, 0.15239999629557133, 0.13760000001639128, 0.1383499984513037, 0.14540000120177865, 0.13860000399290584, 0.13854999997420236, 0.13765000039711595, 0.13905000014347024, 0.1389500030199997, 0.13840000247000717, 0.1375499996356666, 0.15079999866429716, 0.13889999536331743, 0.1369499987049494, 0.13979999857838266, 0.14435000048251823, 0.13765000039711595, 0.13950000356999226, 0.1394500031892676, 0.13905000378144905, 0.14319999900180846, 0.13840000247000717, 0.14080000255489722, 0.1431499986210838, 0.13939999917056412, 0.140350002766354, 0.1388000018778257, 0.139749998197658, 0.1382000009471085, 0.14059999739401974, 0.14324999938253313, 0.1448499970138073, 0.1454499979445245, 0.1383500020892825, 0.13749999925494194, 0.1530499976070132, 0.14394999743672088, 0.13655000293510966, 0.13594999836641364, 0.1369500023429282, 0.14120000196271576, 0.1432999997632578, 0.13704999582841992, 0.13620000027003698, 0.13949999993201345, 0.1436000020476058, 0.13854999997420236, 0.13749999925494194, 0.13715000386582687, 0.13664999642060138, 0.13774999752058648, 0.13744999887421727, 0.1406500014127232, 0.13745000251219608, 0.13770000077784061, 0.1367999975627754, 0.13875000513507985, 0.13730000137002207, 0.13664999642060138, 0.13720000060857274, 0.15839999832678586, 0.13944999955128878, 0.14234999980544671, 0.13979999857838266, 0.14709999959450215, 0.1373999984934926, 0.13814999692840502, 0.1391000005241949, 0.1477999976486899, 0.139899999339832, 0.13939999917056412, 0.1385000032314565, 0.14044999988982454, 0.13770000077784061, 0.13779999790131114, 0.1384999995934777, 0.13779999790131114, 0.13804999616695568, 0.13730000137002207, 0.14719999671797268, 0.14009999722475186, 0.13779999790131114, 0.14649999866378494, 0.14719999671797268, 0.15545000132988207, 0.1448500006517861, 0.13760000001639128, 0.13815000056638382, 0.1427000024705194, 0.14025000200490467, 0.14324999938253313, 0.1445500020054169, 0.14589999773306772, 0.1509000030637253, 0.13885000225855038, 0.14399999781744555, 0.14825000471319072, 0.140050000482006, 0.13780000153928995, 0.13660000331583433, 0.13939999917056412, 0.13845000285073183, 0.13789999866276048, 0.13574999684351496, 0.13874999785912223, 0.13829999807057902, 0.1372500009892974, 0.13785000192001462, 0.13760000001639128, 0.13979999857838266, 0.13770000077784061, 0.13889999900129624, 0.14114999794401228, 0.15084999904502183, 0.14280000323196873, 0.13775000115856528, 0.13860000035492703, 0.13815000056638382, 0.143149994983105, 0.15084999904502183, 0.1428499999747146, 0.13829999807057902, 0.14320000263978727, 0.14385000395122916, 0.15730000450275838, 0.15420000272570178, 0.13844999921275303, 0.13669999680132605, 0.14194999675964937, 0.14010000086273067, 0.13824999768985435, 0.13840000247000717, 0.13670000043930486, 0.13815000420436263, 0.13704999946639873, 0.14495000141323544, 0.1523000028100796, 0.14519999967887998, 0.14354999802890234, 0.13870000111637637, 0.1380499998049345, 0.1372500009892974, 0.13764999675913714, 0.13705000310437754, 0.13860000035492703, 0.14409999857889488, 0.16385000344598666, 0.14290000035543926, 0.14414999895961955, 0.1387999982398469, 0.13765000039711595, 0.13644999853568152, 0.23514999702456407, 0.2815000043483451, 0.207349999982398, 0.14545000158250332, 0.14080000255489722, 0.13825000132783316, 0.16505000166944228, 0.1417499988747295, 0.14025000200490467, 0.1375499996356666, 0.1446999958716333, 0.13670000043930486, 0.13719999697059393, 0.1403499991283752, 0.1400499968440272, 0.13699999908567406, 0.13825000132783316, 0.1370999962091446, 0.13624999701278284, 0.13699999908567406, 0.1380499998049345, 0.14660000306321308, 0.13874999785912223, 0.13780000153928995, 0.1370999962091446, 0.13689999832422473, 0.14069999815546907, 0.13765000039711595, 0.13704999946639873, 0.13715000022784807, 0.13674999718205072, 0.13690000196220353, 0.13730000137002207, 0.1364499948977027, 0.1372500009892974, 0.14039999587112106, 0.13640000179293565, 0.13704999946639873, 0.13825000132783316, 0.14225000268197618, 0.13619999663205817, 0.1368000012007542, 0.13674999718205072, 0.13604999912786298, 0.1468499976908788, 0.13745000251219608],
  "QPU": "7000000",
  "Qubits": 9,
  "Queue durations [ms]": [0.0, 0.0, 0.0, 0.0, 0.0, 0.0, 0.0, 0.0, 0.0, 0.0, 0.0, 0.0, 0.0, 0.0, 0.0, 0.0, 0.0, 0.0, 0.0, 0.0, 0.0, 0.0, 0.0, 0.0, 0.0, 0.0, 0.0, 0.0, 0.0, 0.0, 0.0, 0.0, 0.0, 0.0, 0.0, 0.0, 0.0, 0.0, 0.0, 0.0, 0.0, 0.0, 0.0, 0.0, 0.0, 0.0, 0.0, 0.0, 0.0, 0.0, 0.0, 0.0, 0.0, 0.0, 0.0, 0.0, 0.0, 0.0, 0.0, 0.0, 0.0, 0.0, 0.0, 0.0, 0.0, 0.0, 0.0, 0.0, 0.0, 0.0, 0.0, 0.0, 0.0, 0.0, 0.0, 0.0, 0.0, 0.0, 0.0, 0.0, 0.0, 0.0, 0.0, 0.0, 0.0, 0.0, 0.0, 0.0, 0.0, 0.0, 0.0, 0.0, 0.0, 0.0, 0.0, 0.0, 0.0, 0.0, 0.0, 0.0, 0.0, 0.0, 0.0, 0.0, 0.0, 0.0, 0.0, 0.0, 0.0, 0.0, 0.0, 0.0, 0.0, 0.0, 0.0, 0.0, 0.0, 0.0, 0.0, 0.0, 0.0, 0.0, 0.0, 0.0, 0.0, 0.0, 0.0, 0.0, 0.0, 0.0, 0.0, 0.0, 0.0, 0.0, 0.0, 0.0, 0.0, 0.0, 0.0, 0.0, 0.0, 0.0, 0.0, 0.0, 0.0, 0.0, 0.0, 0.0, 0.0, 0.0, 0.0, 0.0, 0.0, 0.0, 0.0, 0.0, 0.0, 0.0, 0.0, 0.0, 0.0, 0.0, 0.0, 0.0, 0.0, 0.0, 0.0, 0.0, 0.0, 0.0, 0.0, 0.0, 0.0, 0.0, 0.0, 0.0, 0.0, 0.0, 0.0, 0.0, 0.0, 0.0, 0.0, 0.0, 0.0, 0.0, 0.0, 0.0, 0.0, 0.0, 0.0, 0.0, 0.0, 0.0, 0.0, 0.0, 0.0, 0.0, 0.0, 0.0, 0.0, 0.0, 0.0, 0.0, 0.0, 0.0, 0.0, 0.0, 0.0, 0.0, 0.0, 0.0, 0.0, 0.0, 0.0, 0.0, 0.0, 0.0, 0.0, 0.0, 0.0, 0.0, 0.0, 0.0, 0.0, 0.0, 0.0, 0.0, 0.0, 0.0, 0.0, 0.0, 0.0, 0.0, 0.0, 0.0, 0.0, 0.0, 0.0, 0.0, 0.0, 0.0, 0.0, 0.0, 0.0, 0.0, 0.0, 0.0, 0.0, 0.0, 0.0, 0.0, 0.0, 0.0, 0.0, 0.0, 0.0, 0.0, 0.0, 0.0, 0.0, 0.0, 0.0, 0.0, 0.0, 0.0, 0.0, 0.0, 0.0, 0.0, 0.0, 0.0, 0.0, 0.0, 0.0, 0.0, 0.0, 0.0, 0.0, 0.0, 0.0, 0.0, 0.0, 0.0, 0.0, 0.0, 0.0, 0.0, 0.0, 0.0, 0.0, 0.0, 0.0, 0.0, 0.0, 0.0, 0.0, 0.0, 0.0, 0.0, 0.0, 0.0, 0.0, 0.0, 0.0, 0.0, 0.0, 0.0, 0.0, 0.0, 0.0, 0.0, 0.0, 0.0, 0.0, 0.0, 0.0, 0.0, 0.0, 0.0, 0.0, 0.0, 0.0, 0.0, 0.0, 0.0, 0.0, 0.0, 0.0, 0.0, 0.0, 0.0, 0.0, 0.0, 0.0, 0.0, 0.0, 0.0, 0.0, 0.0, 0.0, 0.0, 0.0, 0.0, 0.0, 0.0, 0.0, 0.0, 0.0, 0.0, 0.0, 0.0, 0.0, 0.0, 0.0, 0.0, 0.0, 0.0, 0.0, 0.0, 0.0, 0.0, 0.0, 0.0, 0.0, 0.0, 0.0, 0.0, 0.0, 0.0, 0.0, 0.0, 0.0, 0.0, 0.0, 0.0, 0.0, 0.0, 0.0, 0.0, 0.0, 0.0, 0.0, 0.0, 0.0, 0.0, 0.0, 0.0, 0.0, 0.0, 0.0, 0.0, 0.0, 0.0, 0.0, 0.0, 0.0, 0.0, 0.0, 0.0, 0.0, 0.0, 0.0, 0.0, 0.0, 0.0, 0.0, 0.0, 0.0, 0.0, 0.0, 0.0, 0.0, 0.0, 0.0, 0.0, 0.0, 0.0, 0.0, 0.0, 0.0, 0.0, 0.0, 0.0, 0.0, 0.0, 0.0, 0.0, 0.0, 0.0, 0.0, 0.0, 0.0, 0.0, 0.0, 0.0, 0.0, 0.0, 0.0, 0.0, 0.0, 0.0, 0.0, 0.0, 0.0, 0.0, 0.0, 0.0, 0.0, 0.0, 0.0, 0.0, 0.0, 0.0, 0.0, 0.0, 0.0, 0.0, 0.0, 0.0, 0.0, 0.0, 0.0, 0.0, 0.0, 0.0, 0.0, 0.0, 0.0, 0.0, 0.0, 0.0, 0.0, 0.0, 0.0, 0.0, 0.0, 0.0, 0.0, 0.0, 0.0, 0.0, 0.0, 0.0, 0.0, 0.0, 0.0, 0.0, 0.0, 0.0, 0.0, 0.0, 0.0, 0.0, 0.0, 0.0, 0.0, 0.0, 0.0, 0.0, 0.0, 0.0, 0.0, 0.0, 0.0, 0.0, 0.0, 0.0, 0.0, 0.0, 0.0, 0.0, 0.0, 0.0, 0.0, 0.0, 0.0, 0.0, 0.0, 0.0, 0.0, 0.0, 0.0, 0.0, 0.0, 0.0, 0.0, 0.0, 0.0, 0.0, 0.0, 0.0, 0.0, 0.0, 0.0, 0.0, 0.0, 0.0, 0.0, 0.0, 0.0, 0.0, 0.0, 0.0, 0.0, 0.0, 0.0, 0.0, 0.0, 0.0, 0.0, 0.0, 0.0, 0.0, 0.0, 0.0, 0.0, 0.0, 0.0, 0.0, 0.0, 0.0, 0.0, 0.0, 0.0, 0.0, 0.0, 0.0, 0.0, 0.0, 0.0, 0.0, 0.0, 0.0, 0.0, 0.0, 0.0, 0.0, 0.0, 0.0, 0.0, 0.0, 0.0, 0.0, 0.0, 0.0, 0.0, 0.0, 0.0, 0.0, 0.0, 0.0, 0.0, 0.0, 0.0, 0.0, 0.0, 0.0, 0.0, 0.0, 0.0, 0.0, 0.0, 0.0, 0.0, 0.0, 0.0, 0.0, 0.0, 0.0, 0.0, 0.0, 0.0, 0.0, 0.0, 0.0, 0.0, 0.0, 0.0, 0.0, 0.0, 0.0, 0.0, 0.0, 0.0, 0.0, 0.0, 0.0, 0.0, 0.0, 0.0, 0.0, 0.0, 0.0, 0.0, 0.0, 0.0, 0.0, 0.0, 0.0, 0.0, 0.0, 0.0, 0.0, 0.0, 0.0, 0.0, 0.0, 0.0, 0.0, 0.0, 0.0, 0.0, 0.0, 0.0, 0.0, 0.0, 0.0, 0.0, 0.0, 0.0, 0.0, 0.0, 0.0, 0.0, 0.0, 0.0, 0.0, 0.0, 0.0, 0.0, 0.0, 0.0, 0.0, 0.0, 0.0, 0.0, 0.0, 0.0, 0.0, 0.0, 0.0, 0.0, 0.0, 0.0, 0.0, 0.0, 0.0, 0.0, 0.0, 0.0, 0.0, 0.0, 0.0, 0.0, 0.0, 0.0, 0.0, 0.0, 0.0, 0.0, 0.0, 0.0, 0.0, 0.0, 0.0, 0.0, 0.0, 0.0, 0.0, 0.0, 0.0, 0.0, 0.0, 0.0, 0.0, 0.0, 0.0, 0.0, 0.0, 0.0, 0.0, 0.0, 0.0, 0.0, 0.0, 0.0, 0.0, 0.0, 0.0, 0.0, 0.0, 0.0, 0.0, 0.0, 0.0, 0.0, 0.0, 0.0, 0.0, 0.0, 0.0, 0.0, 0.0, 0.0, 0.0, 0.0, 0.0, 0.0, 0.0, 0.0, 0.0, 0.0, 0.0, 0.0, 0.0, 0.0, 0.0, 0.0, 0.0, 0.0, 0.0, 0.0, 0.0, 0.0, 0.0, 0.0, 0.0, 0.0, 0.0, 0.0, 0.0, 0.0, 0.0, 0.0, 0.0, 0.0, 0.0, 0.0, 0.0, 0.0, 0.0, 0.0, 0.0, 0.0, 0.0, 0.0, 0.0, 0.0, 0.0, 0.0, 0.0, 0.0, 0.0, 0.0, 0.0, 0.0, 0.0, 0.0, 0.0, 0.0, 0.0, 0.0, 0.0, 0.0, 0.0, 0.0, 0.0, 0.0, 0.0, 0.0, 0.0, 0.0, 0.0, 0.0, 0.0, 0.0, 0.0, 0.0, 0.0, 0.0, 0.0, 0.0, 0.0, 0.0, 0.0, 0.0, 0.0, 0.0, 0.0, 0.0, 0.0, 0.0, 0.0, 0.0, 0.0, 0.0, 0.0, 0.0, 0.0, 0.0, 0.0, 0.0, 0.0, 0.0, 0.0, 0.0, 0.0, 0.0, 0.0, 0.0, 0.0, 0.0, 0.0, 0.0, 0.0, 0.0, 0.0, 0.0, 0.0, 0.0, 0.0, 0.0, 0.0, 0.0, 0.0, 0.0, 0.0, 0.0, 0.0, 0.0, 0.0, 0.0, 0.0, 0.0, 0.0, 0.0, 0.0, 0.0, 0.0, 0.0, 0.0, 0.0, 0.0, 0.0, 0.0, 0.0, 0.0, 0.0, 0.0, 0.0, 0.0, 0.0, 0.0, 0.0, 0.0, 0.0, 0.0, 0.0, 0.0, 0.0, 0.0, 0.0, 0.0, 0.0, 0.0, 0.0, 0.0, 0.0, 0.0, 0.0, 0.0, 0.0, 0.0, 0.0, 0.0, 0.0, 0.0, 0.0, 0.0, 0.0, 0.0, 0.0, 0.0, 0.0, 0.0, 0.0, 0.0, 0.0, 0.0, 0.0, 0.0, 0.0, 0.0, 0.0, 0.0, 0.0, 0.0, 0.0, 0.0, 0.0, 0.0, 0.0, 0.0, 0.0, 0.0, 0.0, 0.0, 0.0, 0.0, 0.0, 0.0, 0.0, 0.0, 0.0, 0.0, 0.0, 0.0, 0.0, 0.0, 0.0, 0.0, 0.0, 0.0, 0.0, 0.0, 0.0, 0.0, 0.0, 0.0, 0.0, 0.0, 0.0, 0.0, 0.0, 0.0, 0.0, 0.0, 0.0, 0.0, 0.0, 0.0, 0.0, 0.0, 0.0, 0.0, 0.0, 0.0, 0.0, 0.0, 0.0, 0.0, 0.0, 0.0, 0.0, 0.0, 0.0, 0.0, 0.0, 0.0, 0.0, 0.0, 0.0, 0.0, 0.0, 0.0, 0.0, 0.0, 0.0, 0.0, 0.0, 0.0, 0.0, 0.0, 0.0, 0.0, 0.0, 0.0, 0.0, 0.0, 0.0, 0.0, 0.0, 0.0, 0.0, 0.0, 0.0, 0.0, 0.0, 0.0, 0.0, 0.0, 0.0, 0.0, 0.0, 0.0, 0.0, 0.0, 0.0, 0.0, 0.0, 0.0, 0.0, 0.0, 0.0, 0.0, 0.0, 0.0, 0.0, 0.0, 0.0, 0.0, 0.0, 0.0, 0.0, 0.0, 0.0, 0.0, 0.0, 0.0, 0.0, 0.0, 0.0, 0.0, 0.0, 0.0, 0.0, 0.0, 0.0, 0.0, 0.0, 0.0, 0.0, 0.0, 0.0, 0.0, 0.0, 0.0, 0.0, 0.0, 0.0, 0.0, 0.0, 0.0, 0.0, 0.0, 0.0, 0.0, 0.0, 0.0, 0.0, 0.0, 0.0, 0.0, 0.0, 0.0, 0.0, 0.0, 0.0, 0.0, 0.0, 0.0, 0.0, 0.0, 0.0, 0.0, 0.0, 0.0, 0.0, 0.0, 0.0, 0.0, 0.0, 0.0, 0.0, 0.0, 0.0, 0.0, 0.0, 0.0, 0.0, 0.0, 0.0, 0.0, 0.0, 0.0, 0.0, 0.0, 0.0, 0.0, 0.0, 0.0, 0.0, 0.0, 0.0, 0.0, 0.0, 0.0, 0.0, 0.0, 0.0, 0.0, 0.0, 0.0, 0.0, 0.0, 0.0, 0.0, 0.0, 0.0, 0.0, 0.0, 0.0, 0.0, 0.0, 0.0, 0.0, 0.0, 0.0, 0.0],
  "Shots": 4096,
  "Size": 9,
  "Total Algorithm duration [s]": 4.682,
  "Total Classic duration [s]": 4.515231300042826,
  "Total Quantum duration [s]": 0.16676869995717425
}
