{
  "Circuit execution durations [ms]": [0.1429999974789098, 0.13854999997420236, 0.13774999752058648, 0.1378499982820358, 0.13930000204709359, 0.13644999853568152, 0.13675000082002953, 0.1362999973935075, 0.14474999989033677, 0.13765000039711595, 0.13590000162366778, 0.13534999743569642, 0.1366500000585802, 0.13889999900129624, 0.13760000001639128, 0.13590000162366778, 0.2371500013396144, 0.3625499884947203, 0.33469998743385077, 0.1462499931221828, 0.1419000036548823, 0.14259999807109125, 0.18014999295701273, 0.13840000247000717, 0.1373999984934926, 0.1380500034429133, 0.14179999561747536, 0.14364999879035167, 0.14394999743672088, 0.1400499968440272, 0.1601999974809587, 0.14195000403560698, 0.13870000111637637, 0.13734999811276793, 0.1406499977747444, 0.13719999697059393, 0.14265000208979473, 0.13744999887421727, 0.13979999857838266, 0.13914999726694077, 0.1359999987471383, 0.13639999815495685, 0.143149994983105, 0.13675000082002953, 0.13755000327364542, 0.13830000170855783, 0.13984999895910732, 0.13799999942420982, 0.13830000170855783, 0.14239999654819258, 0.14230000306270085, 0.1466999965487048, 0.13685000158147886, 0.13659999603987671, 0.15319999874918722, 0.14309999824035913, 0.1420500011590775, 0.13870000111637637, 0.17890000526676886, 0.13770000077784061, 0.13705000310437754, 0.13644999853568152, 0.14465000276686624, 0.13729999773204327, 0.13620000027003698, 0.14000000010128133, 0.13905000378144905, 0.13634999777423218, 0.13675000082002953, 0.13704999946639873, 0.15175000226008706, 0.2632999967318028, 0.1499499994679354, 0.14224999904399738, 0.1431500022590626, 0.13655000293510966, 0.14649999866378494, 0.13560000297729857, 0.15284999972209334, 0.13910000416217372, 0.1376999971398618, 0.13765000039711595, 0.14090000331634656, 0.13779999790131114, 0.1358499976049643, 0.13949999993201345, 0.14685000496683642, 0.13720000060857274, 0.1380499998049345, 0.13660000331583433, 0.14000000010128133, 0.1368000012007542, 0.1357000001007691, 0.14205000479705632, 0.13670000043930486, 0.13640000179293565, 0.13559999933931977, 0.13450000187731348, 0.14535000082105398, 0.14504999853670597, 0.13729999773204327, 0.14294999709818512, 0.14365000242833048, 0.15729999722680077, 0.1352500039502047, 0.16614999913144857, 0.1404999966325704, 0.13574999684351496, 0.13634999777423218, 0.1362999973935075, 0.1430000047548674, 0.1414499965903815, 0.13609999950858764, 0.13625000065076165, 0.1358499976049643, 0.13910000416217372, 0.1359999951091595, 0.15194999650702812, 0.13855000361218117, 0.13875000149710104, 0.14229999578674324, 0.1375499959976878, 0.13744999523623846, 0.13779999790131114, 0.1361499998893123, 0.13715000386582687, 0.1369499987049494, 0.1357000001007691, 0.13649999527842738, 0.13669999680132605, 0.14110000483924523, 0.1362000039080158, 0.13444999785861, 0.13544999819714576, 0.13699999544769526, 0.13564999972004443, 0.13605000276584178, 0.13699999908567406, 0.13594999836641364, 0.13580000086221844, 0.1357000001007691, 0.13684999794350006, 0.14155000098980963, 0.1463999979023356, 0.14080000255489722, 0.1431500022590626, 0.13930000204709359, 0.13670000407728367, 0.1367999975627754, 0.13714999658986926, 0.1379000023007393, 0.13824999768985435, 0.1380499998049345, 0.14445000124396756, 0.14600000213249587, 0.14245000056689605, 0.16405000133090653, 0.13794999540550634, 0.145500001963228, 0.13770000441581942, 0.13720000424655154, 0.13765000039711595, 0.13515000318875536, 0.13559999933931977, 0.1360000023851171, 0.14149999697110616, 0.13595000200439245, 0.13624999701278284, 0.13645000217366032, 0.13885000225855038, 0.14020000162418, 0.13800000306218863, 0.13765000039711595, 0.13635000141221099, 0.13605000276584178, 0.1409499964211136, 0.13689999832422473, 0.1358499976049643, 0.13620000027003698, 0.13575000411947258, 0.13609999950858764, 0.1361499998893123, 0.13580000450019725, 0.1415999977325555, 0.13799999942420982],
  "Depth": 2.0,
  "Expectation Value": -5.567089557647705,
  "Optimal Expectation Value": -5.571199893951416,
  "Optimizer durations [ms]": [4.283, 3.791, 3.766, 3.733, 3.792, 3.655, 3.671, 3.618, 3.873, 3.801, 3.705, 3.725, 3.752, 3.783, 3.789, 3.743, 5.968, 17.751, 10.135, 5.394, 4.258, 3.943, 4.686, 3.743, 3.72, 3.71, 3.831, 3.978, 3.845, 3.734, 4.421, 3.872, 3.874, 3.737, 3.803, 3.726, 3.968, 3.739, 3.812, 3.713, 3.693, 3.668, 3.783, 3.68, 3.663, 3.791, 3.771, 3.815, 3.76, 3.858, 3.928, 4.232, 3.754, 3.723, 4.179, 3.994, 3.922, 3.848, 4.549, 3.706, 3.674, 3.792, 3.949, 3.754, 3.753, 3.799, 3.791, 3.739, 3.749, 3.693, 4.065, 6.125, 4.331, 3.907, 3.974, 3.746, 4.019, 3.759, 4.203, 3.818, 3.687, 3.682, 3.874, 3.767, 3.698, 3.812, 3.991, 3.768, 3.767, 3.747, 3.959, 3.775, 3.729, 4.023, 3.755, 3.751, 3.745, 3.699, 4.038, 4.009, 3.759, 3.929, 3.988, 4.072, 3.663, 4.403, 3.751, 3.634, 3.654, 3.669, 4.042, 3.834, 3.669, 3.639, 3.666, 7.803, 3.656, 4.045, 3.813, 3.806, 3.833, 3.692, 3.672, 3.702, 3.644, 3.682, 3.666, 3.742, 3.753, 3.748, 3.836, 3.707, 3.752, 3.738, 3.761, 3.731, 3.748, 3.796, 3.8, 3.732, 3.723, 3.744, 4.102, 4.121, 3.867, 3.943, 3.877, 3.745, 3.762, 3.743, 3.776, 3.686, 3.709, 3.853, 3.957, 3.9, 4.254, 3.706, 4.501, 3.819, 3.679, 3.755, 3.831, 3.735, 3.748, 3.884, 3.771, 3.664, 3.796, 3.766, 3.831, 3.781, 3.786, 3.784, 3.756, 3.847, 3.667, 3.628, 3.69, 3.636, 3.673, 3.652, 3.68, 3.843, 3.732],
  "Optimizer iterations": 185,
  "Optimizer params": [0.9968605058554793, 0.49525231462430697, 0.02276147368124585, 0.49777085491133866, 0.5043549336649409, 0.008556653250870553, 0.5035143997683672, 0.5018144222757952, 0.9952954529143837],
  "P": 0,
  "Problem": "RH",
  "QJob durations [ms]": [0.1429999974789098, 0.13854999997420236, 0.13774999752058648, 0.1378499982820358, 0.13930000204709359, 0.13644999853568152, 0.13675000082002953, 0.1362999973935075, 0.14474999989033677, 0.13765000039711595, 0.13590000162366778, 0.13534999743569642, 0.1366500000585802, 0.13889999900129624, 0.13760000001639128, 0.13590000162366778, 0.2371500013396144, 0.3625499884947203, 0.33469998743385077, 0.1462499931221828, 0.1419000036548823, 0.14259999807109125, 0.18014999295701273, 0.13840000247000717, 0.1373999984934926, 0.1380500034429133, 0.14179999561747536, 0.14364999879035167, 0.14394999743672088, 0.1400499968440272, 0.1601999974809587, 0.14195000403560698, 0.13870000111637637, 0.13734999811276793, 0.1406499977747444, 0.13719999697059393, 0.14265000208979473, 0.13744999887421727, 0.13979999857838266, 0.13914999726694077, 0.1359999987471383, 0.13639999815495685, 0.143149994983105, 0.13675000082002953, 0.13755000327364542, 0.13830000170855783, 0.13984999895910732, 0.13799999942420982, 0.13830000170855783, 0.14239999654819258, 0.14230000306270085, 0.1466999965487048, 0.13685000158147886, 0.13659999603987671, 0.15319999874918722, 0.14309999824035913, 0.1420500011590775, 0.13870000111637637, 0.17890000526676886, 0.13770000077784061, 0.13705000310437754, 0.13644999853568152, 0.14465000276686624, 0.13729999773204327, 0.13620000027003698, 0.14000000010128133, 0.13905000378144905, 0.13634999777423218, 0.13675000082002953, 0.13704999946639873, 0.15175000226008706, 0.2632999967318028, 0.1499499994679354, 0.14224999904399738, 0.1431500022590626, 0.13655000293510966, 0.14649999866378494, 0.13560000297729857, 0.15284999972209334, 0.13910000416217372, 0.1376999971398618, 0.13765000039711595, 0.14090000331634656, 0.13779999790131114, 0.1358499976049643, 0.13949999993201345, 0.14685000496683642, 0.13720000060857274, 0.1380499998049345, 0.13660000331583433, 0.14000000010128133, 0.1368000012007542, 0.1357000001007691, 0.14205000479705632, 0.13670000043930486, 0.13640000179293565, 0.13559999933931977, 0.13450000187731348, 0.14535000082105398, 0.14504999853670597, 0.13729999773204327, 0.14294999709818512, 0.14365000242833048, 0.15729999722680077, 0.1352500039502047, 0.16614999913144857, 0.1404999966325704, 0.13574999684351496, 0.13634999777423218, 0.1362999973935075, 0.1430000047548674, 0.1414499965903815, 0.13609999950858764, 0.13625000065076165, 0.1358499976049643, 0.13910000416217372, 0.1359999951091595, 0.15194999650702812, 0.13855000361218117, 0.13875000149710104, 0.14229999578674324, 0.1375499959976878, 0.13744999523623846, 0.13779999790131114, 0.1361499998893123, 0.13715000386582687, 0.1369499987049494, 0.1357000001007691, 0.13649999527842738, 0.13669999680132605, 0.14110000483924523, 0.1362000039080158, 0.13444999785861, 0.13544999819714576, 0.13699999544769526, 0.13564999972004443, 0.13605000276584178, 0.13699999908567406, 0.13594999836641364, 0.13580000086221844, 0.1357000001007691, 0.13684999794350006, 0.14155000098980963, 0.1463999979023356, 0.14080000255489722, 0.1431500022590626, 0.13930000204709359, 0.13670000407728367, 0.1367999975627754, 0.13714999658986926, 0.1379000023007393, 0.13824999768985435, 0.1380499998049345, 0.14445000124396756, 0.14600000213249587, 0.14245000056689605, 0.16405000133090653, 0.13794999540550634, 0.145500001963228, 0.13770000441581942, 0.13720000424655154, 0.13765000039711595, 0.13515000318875536, 0.13559999933931977, 0.1360000023851171, 0.14149999697110616, 0.13595000200439245, 0.13624999701278284, 0.13645000217366032, 0.13885000225855038, 0.14020000162418, 0.13800000306218863, 0.13765000039711595, 0.13635000141221099, 0.13605000276584178, 0.1409499964211136, 0.13689999832422473, 0.1358499976049643, 0.13620000027003698, 0.13575000411947258, 0.13609999950858764, 0.1361499998893123, 0.13580000450019725, 0.1415999977325555, 0.13799999942420982],
  "QPU": "7000000",
  "Qubits": 9,
  "Queue durations [ms]": [0.0, 0.0, 0.0, 0.0, 0.0, 0.0, 0.0, 0.0, 0.0, 0.0, 0.0, 0.0, 0.0, 0.0, 0.0, 0.0, 0.0, 0.0, 0.0, 0.0, 0.0, 0.0, 0.0, 0.0, 0.0, 0.0, 0.0, 0.0, 0.0, 0.0, 0.0, 0.0, 0.0, 0.0, 0.0, 0.0, 0.0, 0.0, 0.0, 0.0, 0.0, 0.0, 0.0, 0.0, 0.0, 0.0, 0.0, 0.0, 0.0, 0.0, 0.0, 0.0, 0.0, 0.0, 0.0, 0.0, 0.0, 0.0, 0.0, 0.0, 0.0, 0.0, 0.0, 0.0, 0.0, 0.0, 0.0, 0.0, 0.0, 0.0, 0.0, 0.0, 0.0, 0.0, 0.0, 0.0, 0.0, 0.0, 0.0, 0.0, 0.0, 0.0, 0.0, 0.0, 0.0, 0.0, 0.0, 0.0, 0.0, 0.0, 0.0, 0.0, 0.0, 0.0, 0.0, 0.0, 0.0, 0.0, 0.0, 0.0, 0.0, 0.0, 0.0, 0.0, 0.0, 0.0, 0.0, 0.0, 0.0, 0.0, 0.0, 0.0, 0.0, 0.0, 0.0, 0.0, 0.0, 0.0, 0.0, 0.0, 0.0, 0.0, 0.0, 0.0, 0.0, 0.0, 0.0, 0.0, 0.0, 0.0, 0.0, 0.0, 0.0, 0.0, 0.0, 0.0, 0.0, 0.0, 0.0, 0.0, 0.0, 0.0, 0.0, 0.0, 0.0, 0.0, 0.0, 0.0, 0.0, 0.0, 0.0, 0.0, 0.0, 0.0, 0.0, 0.0, 0.0, 0.0, 0.0, 0.0, 0.0, 0.0, 0.0, 0.0, 0.0, 0.0, 0.0, 0.0, 0.0, 0.0, 0.0, 0.0, 0.0, 0.0, 0.0, 0.0, 0.0, 0.0, 0.0, 0.0, 0.0, 0.0, 0.0, 0.0, 0.0],
  "Shots": 4096,
  "Size": 9,
  "Total Algorithm duration [s]": 0.737,
  "Total Classic duration [s]": 0.7104605000412557,
  "Total Quantum duration [s]": 0.026539499958744273
}
