{
  "Depth": 239.0,
  "Job durations [ms]": [85.63, 87.563, 85.552, 82.925, 83.26400000000001, 83.919, 83.8, 85.657, 86.8, 86.37400000000001, 85.657, 84.755, 76.962, 69.65599999999999, 69.43900000000001, 67.973, 68.214, 68.65499999999999, 68.687, 134.436, 68.46199999999999, 68.485, 68.29, 68.366, 67.997, 69.123, 68.613, 71.7, 68.106, 68.623, 68.678, 69.568, 68.687, 135.49, 68.252, 68.788, 68.40599999999999, 68.742, 68.73, 69.048, 68.627, 68.20700000000001, 68.87, 68.854, 69.93299999999999, 74.859, 68.838, 135.041, 68.29899999999999, 67.037, 67.231, 67.148, 67.292, 67.415, 67.319, 68.221, 68.27, 67.606, 68.178, 67.971, 70.488, 69.353, 68.327, 68.601, 135.91, 71.52600000000001, 66.939, 67.884, 66.98700000000001, 67.426, 67.724, 67.74, 67.408, 66.871, 66.54400000000001, 67.378, 67.496, 67.673, 137.59199999999998, 67.27900000000001, 68.86399999999999, 68.169, 67.29400000000001, 66.886, 67.96000000000001, 69.88, 67.672, 67.78, 67.53, 67.213, 67.371, 67.383, 133.885, 66.75, 67.018, 67.271, 67.73700000000001, 67.414, 67.369, 67.349, 67.84700000000001, 67.023, 67.55, 67.29499999999999, 68.245, 69.09400000000001, 68.263, 69.294, 68.413, 134.776, 68.011, 68.952, 68.55600000000001, 68.52600000000001, 68.033, 69.07000000000001],
  "Optimizer durations [ms]": [110.429, 112.22, 110.248, 190.152, 108.227, 108.558, 108.128, 112.728, 111.895, 111.574, 110.401, 109.285, 101.261, 89.608, 89.388, 87.888, 88.271, 88.926, 88.567, 154.16, 90.148, 88.448, 87.666, 88.097, 87.915, 89.24, 88.46, 91.759, 88.178, 88.478, 88.884, 89.063, 88.711, 155.169, 87.834, 88.737, 88.164, 88.71, 88.468, 89.157, 88.461, 88.405, 88.778, 88.901, 90.304, 95.376, 89.662, 155.047, 88.203, 87.203, 86.978, 86.474, 87.374, 87.159, 86.84, 88.081, 87.833, 87.202, 87.745, 87.181, 90.058, 89.084, 87.558, 88.13, 155.77, 92.974, 86.686, 87.591, 86.457, 86.843, 87.343, 87.445, 87.009, 85.951, 86.237, 87.1, 86.965, 87.034, 157.024, 86.867, 88.43, 88.064, 87.28, 86.445, 87.255, 89.52, 87.529, 87.425, 86.927, 86.703, 86.898, 86.487, 153.058, 86.505, 86.551, 86.908, 87.315, 87.035, 86.972, 86.624, 87.262, 86.809, 86.796, 86.589, 87.679, 89.291, 88.089, 89.131, 88.138, 154.749, 87.921, 88.889, 88.366, 88.154, 87.681, 89.481],
  "Optimizer iterations": 116,
  "Qubits": 13,
  "Total Algorithm duration [s]": 11.041,
  "Total Classic duration [s]": 2.4428230000000024,
  "Total Quantum duration [s]": 8.598176999999998,
  "Expectation Value": -16.94775390625,
  "Optimal Expectation Value": -18.0,
  "Optimizer params": [0.748880002865302, 0.17654944721801857, 0.8007431669118767, 0.4805989029127171, 0.9346438849206462, 0.9917897462570392],
  "QPU": "9000001",
  "Problem": "MCP",
  "Size": 13,
  "P": 3,
  "Shots": 4096
}