{
  "Depth": 239.0,
  "Job durations [ms]": [137.30200000000002, 68.095, 68.19600000000001, 68.632, 68.893, 69.68299999999999, 69.845, 70.455, 70.427, 94.033, 69.09700000000001, 68.161, 69.073, 68.31099999999999, 138.07500000000002, 68.794, 67.607, 67.081, 67.16, 71.458, 71.40100000000001, 68.985, 70.044, 68.729, 69.43, 70.491, 70.063, 68.042, 134.31799999999998, 69.252, 68.828, 68.721, 68.187, 69.017, 68.21900000000001, 67.958, 68.714, 69.792, 68.498, 68.336, 68.04499999999999, 135.47899999999998, 68.801, 69.856, 67.603, 67.508, 67.809, 67.718, 69.517, 68.36, 68.661, 68.978, 68.36699999999999, 68.396, 68.365, 68.221, 68.028, 67.981, 133.83900000000003, 67.93, 69.66, 71.086, 69.964, 67.084, 67.094, 66.235, 66.459, 66.521, 66.469, 66.998, 66.819, 66.658, 133.25300000000001, 68.19500000000001, 69.735, 68.20400000000001, 68.833, 67.89, 68.555, 68.54599999999999, 68.448, 68.231, 67.777, 68.06, 74.71600000000001, 67.61, 133.852, 67.107, 67.03399999999999, 67.05600000000001, 83.554, 83.803, 83.816, 84.188],
  "Optimizer durations [ms]": [157.486, 87.881, 88.097, 88.21, 88.683, 89.726, 89.934, 90.645, 90.672, 121.344, 89.103, 88.341, 88.879, 88.251, 158.144, 88.655, 87.452, 86.665, 86.595, 90.938, 91.82, 89.032, 90.182, 88.715, 89.936, 90.543, 90.352, 87.87, 154.301, 89.062, 88.91, 88.897, 87.892, 89.257, 88.185, 87.965, 88.648, 89.793, 88.334, 88.032, 87.676, 155.548, 88.938, 89.901, 87.445, 87.421, 87.554, 87.502, 89.359, 88.303, 88.305, 88.602, 88.237, 88.299, 88.125, 88.016, 88.045, 87.941, 153.36, 87.787, 89.476, 90.98, 89.879, 86.739, 86.896, 86.06, 86.326, 86.495, 85.735, 86.6, 86.027, 86.547, 152.681, 87.874, 89.857, 88.13, 88.514, 87.848, 88.738, 88.622, 88.313, 88.184, 87.552, 87.805, 94.5, 87.171, 153.188, 86.803, 86.806, 86.812, 103.699, 108.297, 108.459, 109.044],
  "Optimizer iterations": 94,
  "Qubits": 13,
  "Total Algorithm duration [s]": 8.886,
  "Total Classic duration [s]": 1.8896250000000014,
  "Total Quantum duration [s]": 6.996374999999998,
  "Expectation Value": -16.95947265625,
  "Optimal Expectation Value": -18.0,
  "Optimizer params": [0.93912794721679, 0.9634562477657763, 0.6055649587996098, 0.7512957172055649, 0.6967018017538149, 0.8049030457101707],
  "QPU": "9000001",
  "Problem": "MCP",
  "Size": 13,
  "P": 3,
  "Shots": 4096
}