{
  "Depth": 2.0,
  "Job durations [ms]": [6880.680084228516, 6934.615135192871, 6889.040470123291, 7034.388542175293, 6981.1906814575195, 6935.1959228515625, 6908.5540771484375, 6968.5211181640625, 6891.019821166992, 6852.34260559082, 6838.853359222412, 6974.13444519043],
  "Optimizer durations [ms]": [17931.343, 19533.88, 20017.355, 19609.476, 20253.818, 20340.656, 19614.193, 19950.326, 20291.191, 19624.277, 20047.349, 19914.968],
  "Optimizer iterations": 12,
  "Qubits": 1,
  "Total Algorithm duration [s]": 237.128,
  "Total Classic duration [s]": 154.03946373748778,
  "Total Quantum duration [s]": 83.0885362625122,
  "Expectation Value": -0.565985918045044,
  "Optimal Expectation Value": -0.574400007724762,
  "Optimizer params": [0.999791510451853],
  "QPU": "402001B",
  "Problem": "RH",
  "Size": 1,
  "P": 0,
  "Shots": 4096
}