{
  "Circuit execution durations [ms]": [0.24960000882856548, 0.257949999650009, 0.25579999783076346, 0.24890000349842012, 0.3649499994935468, 0.24760000815149397, 0.24309999571414664, 0.28949999978067353, 0.2481499977875501, 0.27660000341711566, 0.2474999928381294, 0.25034999271156266, 0.28810000367229804, 0.24589999520685524, 0.24214999575633556, 0.28544999804580584, 0.40425000042887405, 0.2536000101827085, 0.2556500112405047, 0.2590999938547611, 0.24729999131523073, 0.2505999873392284, 0.24924999161157757, 0.2513999934308231, 0.24509999639121816, 0.2769999991869554, 0.2714000074774958, 0.2499000111129135, 0.2558999985922128, 0.2472500054864213, 0.2528500044718385, 0.25440000172238797, 0.2439499949105084, 0.25910000840667635, 0.2506000018911436, 0.24525000480934978, 0.28574999305419624, 0.255300008575432, 0.2949999980046414, 0.24944999313447624, 0.2502999996067956, 0.25150000874418765, 0.25010001263581216, 0.24454999947920442, 0.24865000159479678, 0.2476499939803034, 0.24704998941160738, 0.25485000514891, 0.24324999685632065, 0.2506499949959107, 0.24239999038400128, 0.25055000151041895, 0.24610000400571153, 0.2508000034140423, 0.252050012932159, 0.2720000047702342, 0.27660000341711566, 0.2466000078129582, 0.2756999965640716, 0.2503499999875203, 0.2516999957151711, 0.25859999004751444, 0.2574499958427623, 0.24804999702610075, 0.25040000036824495, 0.2460999967297539, 0.25754999660421163, 0.24960000882856548, 0.2528500044718385, 0.2540499990573153, 0.2469000028213486, 0.25340000865980983, 0.2481499977875501, 0.25984999956563115, 0.2446000071358867, 0.2508000034140423, 0.23860000510467216, 0.25019999884534627, 0.2781000002869405, 0.24480000138282776, 0.2531000063754618, 0.24655000015627593, 0.251750010647811, 0.2489500038791448, 0.265800001216121, 0.24745000700931996, 0.25425000058021396, 0.24554999981774017, 0.25099999038502574, 0.2544999879319221, 0.2487500023562461, 0.2531000063754618, 0.24789999588392675, 0.2494000073056668, 0.24319999647559598, 0.24629999097669497, 0.24960000155260786, 0.24304999533342198, 0.27769999724114314, 0.2571499935584143, 0.24794999626465142, 0.247049996687565, 0.2494000073056668, 0.24649999977555126, 0.25045000802492723, 0.25385001208633184, 0.2508999896235764, 0.25070000265259296, 0.24959999427665025, 0.24680000205989927, 0.24974999541882426, 0.2426999999443069, 0.2480000039213337, 0.24700000358279794, 0.3049500082852319, 0.4192500055069104, 0.2867499861167744, 0.2792000013869256, 0.2452000044286251, 0.25364999601151794, 0.25010000535985455, 0.25275000371038914, 0.24885000311769545, 0.24685000971658155, 0.2442499971948564, 0.25074999575736, 0.2540499990573153, 0.251300007221289, 0.25195000489475206, 0.25164999533444643, 0.2333999946131371, 0.3809999907389283, 0.24894998932722956, 0.2537499967729673, 0.2443999983370304, 0.25055000151041895, 0.2538000117056072, 0.24670000129844993, 0.25534999440424144, 0.24890000349842012, 0.2716000090003945, 0.25010001263581216, 0.2538499975344166, 0.2573999954620376, 0.2453500055707991, 0.24464999296469614, 0.24590000248281285, 0.25150000874418765, 0.2518499968573451, 0.247199997829739, 0.24794999626465142, 0.25674999051261693, 0.25105000531766564, 0.25224999990314245, 0.24834999931044877, 0.2466000005370006, 0.26714999694377184, 0.2419500015093945, 0.2518499968573451, 0.2421000026515685, 0.2804500036290847, 0.24714999017305672, 0.25004999770317227, 0.26089999300893396, 0.24324999685632065, 0.24339999072253704, 0.25710000772960484, 0.25525000819470733, 0.25784999888855964, 0.2504500007489696, 0.2510499907657504, 0.2750999992713332, 0.24935000692494214, 0.25040000764420256, 0.2499999973224476, 0.25334999372716993, 0.3744000132428482, 0.24455000675516203, 0.2535999956307933, 0.25364999601151794, 0.2530999918235466, 0.2503499999875203, 0.24370000028284267, 0.2487500023562461, 0.25505000667180866, 0.25084999651880935, 0.24155000573955476, 0.24735000624787062, 0.24824999854899943, 0.24510000366717577, 0.24629999097669497, 0.2459499955875799, 0.24685000244062394, 0.28044999635312706, 0.24695000320207328, 0.2426999926683493, 0.24605000362498686, 0.24670000129844993, 0.24774999474175274, 0.2484500000718981, 0.2514000007067807, 0.25445000210311264, 0.2449000094202347, 0.24960000155260786, 0.24554999254178256, 0.2458500093780458, 0.2516999957151711, 0.2421000026515685, 0.25055000151041895, 0.2520499983802438, 0.24765000125626102, 0.2479999966453761, 0.2572000084910542, 0.26494999474380165, 0.2800000074785203, 0.2510999911464751, 0.2634999982547015, 0.25105000531766564, 0.2534500090405345, 0.28500000189524144, 0.2578999992692843, 0.25564999668858945, 0.25185001140926033, 0.25129999266937375, 0.2552500009187497, 0.2477000089129433, 0.28279999969527125, 0.24634999863337725, 0.2513999934308231, 0.24680000205989927, 0.24665000091772527, 0.24380000832024962, 0.257949999650009, 0.24789999588392675, 0.25090000417549163, 0.24480000138282776, 0.2572999947005883, 0.2490499973646365, 0.24670000129844993, 0.29439999343594536, 0.25850000383798033, 0.2524499941500835, 0.2468499878887087, 0.24499999562976882, 0.2599500003270805, 0.25845000345725566, 0.261199995293282, 0.2510499907657504, 0.26015000184997916, 0.2494000000297092, 0.243800001044292, 0.25085000379476696, 0.2756999965640716, 0.2482999989297241, 0.2583999958005734, 0.2523500006645918, 0.25019999884534627, 0.24685000244062394, 0.27230000705458224, 0.24530000519007444, 0.24295000184793025, 0.2460999967297539, 0.24539999867556617, 0.24959999427665025, 0.2538999979151413, 0.280700005532708, 0.2597499988041818, 0.25599999935366213, 0.24870000197552145, 0.25100000493694097, 0.24874998780433089, 0.27535000117495656, 0.2642499894136563, 0.24900000425986946, 0.26399998751003295, 0.258850006503053, 0.2535999956307933, 0.2483000062056817, 0.25549999554641545, 0.24574999406468123, 0.26559999969322234, 0.26124999567400664, 0.255000006291084, 0.2532500002416782, 0.24524999753339216, 0.2558000123826787, 0.24429999757558107, 0.2532500075176358, 0.3813500079559162, 0.2310999989276752, 0.34219999361084774, 0.2517000102670863, 0.25594999897293746, 0.2553999947849661, 0.2801999944495037, 0.24259999918285757, 0.25755000388016924, 0.2514000079827383, 0.2545000024838373, 0.24560000019846484, 0.2735500020207837, 0.24945000041043386, 0.25440000172238797, 0.2537499967729673, 0.2502999996067956, 0.2598999999463558, 0.2508000034140423, 0.2747999969869852, 0.2507500030333176, 0.25555001047905535, 0.2514999941922724, 0.24905000464059412, 0.24979999579954892, 0.2598999999463558, 0.2556999970693141, 0.2728000035858713, 0.246749994403217, 0.2557499974500388, 0.2531500067561865, 0.2500500122550875, 0.2807999917422421, 0.25245000870199874, 0.24570000095991418, 0.25085000379476696, 0.2484499927959405, 0.23485000565415248, 0.28134998865425587, 0.2661499966052361, 0.2553999947849661, 0.265950002358295, 0.25830000231508166, 0.24919999850681052, 0.25779999850783497, 0.2598999999463558, 0.2520499983802438, 0.371300004189834, 0.2550999925006181, 0.24669999402249232, 0.24415000370936468, 0.24935000692494214, 0.2530000056140125, 0.24864999431883916, 0.2523500006645918, 0.2528500044718385, 0.24730000586714596, 0.25669999013189226, 0.2826999989338219, 0.2588499919511378, 0.25689999165479094, 0.2540499990573153, 0.24920000578276813, 0.25255000218749046, 0.2547499898355454, 0.24760000815149397, 0.2474999928381294, 0.25485000514891, 0.25090000417549163, 0.25224999990314245, 0.25409999943803996, 0.28040000324836, 0.30250000418163836, 0.25364999601151794, 0.2928000030806288, 0.3165499947499484, 0.2802499948302284, 0.24970000959001482, 0.25144999381154776, 0.2490499973646365, 0.24390000180574134, 0.2527999968151562, 0.24695000320207328, 0.2879999956348911, 0.24339999799849465, 0.24465000751661137, 0.25630000163801014, 0.24915000540204346, 0.2518499968573451, 0.24980001035146415, 0.25335000827908516, 0.25475000438746065, 0.24930000654421747, 0.24845000734785572, 0.2455500070936978, 0.2512500068405643, 0.24110000231303275, 0.24735000624787062, 0.2508000034140423, 0.25430000096093863, 0.25440000172238797, 0.24644999211886898, 0.24954999389592558, 0.2597999991849065, 0.24605000362498686, 0.2486000012140721, 0.2498499961802736, 0.25040000036824495, 0.2476499939803034, 0.27469999622553587, 0.2496999950380996, 0.24670000857440755, 0.2450500032864511, 0.243950002186466, 0.24629999825265259, 0.24845000734785572, 0.2715499940677546, 0.24880000273697078, 0.25349999486934394, 0.2506500022718683, 0.24685000971658155, 0.2507499884814024, 0.25430000096093863, 0.27534999389899895, 0.31930000841384754, 0.2543500013416633, 0.25329999334644526, 0.2537499967729673, 0.25314999220427126, 0.2927000023191795, 0.24695000320207328, 0.25240000104531646, 0.24724999821046367, 0.258100000792183],
  "Depth": 12.5,
  "Expectation Value": -5.24544095993042,
  "Optimal Expectation Value": -6.026674270629883,
  "Optimizer durations [ms]": [9.37, 6.066, 6.966, 5.894, 8.22, 16.842, 6.124, 7.035, 5.557, 6.791, 7.887, 5.908, 6.792, 5.941, 7.793, 16.67, 10.498, 11.379, 6.511, 5.855, 6.064, 6.178, 6.067, 5.735, 6.005, 6.99, 6.344, 6.192, 5.993, 6.223, 5.957, 5.933, 6.927, 6.049, 5.926, 6.171, 6.837, 6.1, 6.721, 6.175, 5.87, 6.297, 5.797, 6.286, 5.926, 6.551, 5.925, 6.069, 5.854, 5.982, 5.873, 6.347, 5.813, 6.058, 5.917, 6.739, 6.647, 5.905, 6.363, 6.13, 5.986, 5.971, 6.254, 6.011, 6.056, 5.904, 6.016, 6.003, 6.195, 6.041, 6.043, 6.306, 6.11, 6.018, 6.417, 5.924, 6.279, 5.961, 6.359, 6.163, 5.968, 6.028, 6.182, 5.911, 6.353, 5.903, 6.319, 5.975, 6.14, 6.058, 6.247, 5.801, 6.292, 5.792, 6.088, 5.933, 5.994, 5.916, 6.678, 6.012, 5.844, 6.171, 5.979, 5.882, 6.066, 6.156, 6.006, 6.18, 5.92, 5.876, 6.108, 6.414, 6.136, 6.037, 7.028, 9.402, 6.798, 6.862, 5.933, 6.364, 6.022, 6.082, 6.141, 5.954, 6.166, 6.396, 5.977, 6.002, 6.033, 6.297, 24.607, 8.322, 5.991, 5.981, 5.902, 6.017, 6.33, 5.858, 6.246, 5.767, 6.766, 6.306, 6.033, 6.407, 5.817, 5.954, 5.937, 6.411, 5.992, 5.698, 5.95, 6.478, 5.729, 6.013, 6.442, 5.649, 6.604, 6.064, 5.912, 6.196, 6.74, 6.157, 5.782, 6.485, 5.672, 6.097, 6.336, 6.074, 6.272, 5.982, 6.113, 6.562, 5.782, 6.368, 5.853, 5.987, 8.217, 5.863, 6.229, 6.077, 6.507, 6.276, 5.591, 6.318, 5.997, 6.192, 6.54, 6.118, 5.813, 5.969, 6.212, 5.656, 6.173, 6.606, 5.811, 6.158, 5.741, 6.188, 6.025, 6.433, 6.144, 6.247, 6.126, 5.789, 5.926, 6.086, 5.914, 6.117, 6.043, 6.193, 5.858, 5.988, 6.162, 6.472, 6.753, 5.754, 6.464, 5.991, 6.166, 6.752, 6.245, 6.149, 5.837, 6.073, 6.393, 5.74, 6.915, 6.315, 5.862, 6.161, 5.745, 6.253, 6.169, 5.945, 6.215, 5.844, 6.045, 5.946, 6.181, 7.199, 5.978, 6.311, 5.97, 6.026, 6.072, 6.609, 6.421, 5.945, 5.896, 6.176, 6.034, 5.93, 6.517, 6.349, 6.187, 6.247, 6.166, 7.595, 6.297, 6.466, 6.02, 6.614, 5.979, 6.162, 5.929, 6.666, 6.445, 6.099, 6.363, 5.93, 6.066, 6.612, 6.173, 6.182, 6.398, 6.005, 6.098, 10.573, 6.211, 5.973, 6.201, 6.436, 5.921, 6.46, 5.916, 5.951, 6.185, 5.912, 8.61, 20.472, 8.178, 6.001, 6.18, 6.179, 6.464, 6.547, 5.983, 6.017, 6.386, 5.663, 6.465, 6.085, 6.173, 6.444, 6.152, 6.181, 5.757, 6.847, 6.033, 5.83, 6.24, 5.878, 6.146, 6.08, 6.117, 6.546, 6.05, 6.147, 6.013, 6.189, 6.537, 6.084, 6.029, 6.284, 5.638, 6.848, 6.537, 6.756, 5.778, 6.427, 6.174, 6.181, 6.077, 6.225, 6.244, 8.286, 6.024, 6.221, 5.981, 5.973, 5.862, 6.354, 5.755, 6.475, 5.919, 5.973, 6.736, 6.111, 6.139, 6.34, 6.046, 5.812, 6.127, 5.872, 5.9, 6.104, 6.015, 6.108, 6.159, 6.774, 7.163, 6.287, 6.942, 11.627, 7.114, 6.207, 5.811, 5.939, 6.242, 5.909, 5.957, 6.795, 5.88, 6.225, 6.172, 6.093, 5.913, 6.06, 5.776, 6.528, 5.885, 6.04, 5.896, 6.014, 6.708, 5.903, 6.236, 6.062, 6.038, 6.073, 5.933, 6.261, 5.836, 5.944, 6.203, 6.021, 6.167, 6.179, 6.053, 6.033, 5.85, 5.951, 6.297, 5.938, 6.41, 6.228, 5.72, 6.047, 6.264, 6.103, 6.02, 6.326, 7.764, 5.849, 6.339, 6.182, 6.125, 7.048, 5.97, 5.868, 6.286, 6.198],
  "Optimizer iterations": 422,
  "Optimizer params": [0.07266507610045349, 0.003604735626025901, 1.0, 0.9999999999999999, 0.9317053918351003, 0.20075093816895434, 0.28415291612723237, 0.5506408484916624, 0.8435116862487205, 0.6495448254214237, 0.9994995113250799, 0.021438834949541706, 0.9999999999999999, 0.9341005430971049, 0.961332461215396, 0.5259846787374078, 0.2700115967341062, 0.3556321227244655, 0.017910732284003455, 0.24760208654187887],
  "P": 0,
  "Problem": "IC",
  "QJob durations [ms]": [0.24960000882856548, 0.257949999650009, 0.25579999783076346, 0.24890000349842012, 0.3649499994935468, 0.24760000815149397, 0.24309999571414664, 0.28949999978067353, 0.2481499977875501, 0.27660000341711566, 0.2474999928381294, 0.25034999271156266, 0.28810000367229804, 0.24589999520685524, 0.24214999575633556, 0.28544999804580584, 0.40425000042887405, 0.2536000101827085, 0.2556500112405047, 0.2590999938547611, 0.24729999131523073, 0.2505999873392284, 0.24924999161157757, 0.2513999934308231, 0.24509999639121816, 0.2769999991869554, 0.2714000074774958, 0.2499000111129135, 0.2558999985922128, 0.2472500054864213, 0.2528500044718385, 0.25440000172238797, 0.2439499949105084, 0.25910000840667635, 0.2506000018911436, 0.24525000480934978, 0.28574999305419624, 0.255300008575432, 0.2949999980046414, 0.24944999313447624, 0.2502999996067956, 0.25150000874418765, 0.25010001263581216, 0.24454999947920442, 0.24865000159479678, 0.2476499939803034, 0.24704998941160738, 0.25485000514891, 0.24324999685632065, 0.2506499949959107, 0.24239999038400128, 0.25055000151041895, 0.24610000400571153, 0.2508000034140423, 0.252050012932159, 0.2720000047702342, 0.27660000341711566, 0.2466000078129582, 0.2756999965640716, 0.2503499999875203, 0.2516999957151711, 0.25859999004751444, 0.2574499958427623, 0.24804999702610075, 0.25040000036824495, 0.2460999967297539, 0.25754999660421163, 0.24960000882856548, 0.2528500044718385, 0.2540499990573153, 0.2469000028213486, 0.25340000865980983, 0.2481499977875501, 0.25984999956563115, 0.2446000071358867, 0.2508000034140423, 0.23860000510467216, 0.25019999884534627, 0.2781000002869405, 0.24480000138282776, 0.2531000063754618, 0.24655000015627593, 0.251750010647811, 0.2489500038791448, 0.265800001216121, 0.24745000700931996, 0.25425000058021396, 0.24554999981774017, 0.25099999038502574, 0.2544999879319221, 0.2487500023562461, 0.2531000063754618, 0.24789999588392675, 0.2494000073056668, 0.24319999647559598, 0.24629999097669497, 0.24960000155260786, 0.24304999533342198, 0.27769999724114314, 0.2571499935584143, 0.24794999626465142, 0.247049996687565, 0.2494000073056668, 0.24649999977555126, 0.25045000802492723, 0.25385001208633184, 0.2508999896235764, 0.25070000265259296, 0.24959999427665025, 0.24680000205989927, 0.24974999541882426, 0.2426999999443069, 0.2480000039213337, 0.24700000358279794, 0.3049500082852319, 0.4192500055069104, 0.2867499861167744, 0.2792000013869256, 0.2452000044286251, 0.25364999601151794, 0.25010000535985455, 0.25275000371038914, 0.24885000311769545, 0.24685000971658155, 0.2442499971948564, 0.25074999575736, 0.2540499990573153, 0.251300007221289, 0.25195000489475206, 0.25164999533444643, 0.2333999946131371, 0.3809999907389283, 0.24894998932722956, 0.2537499967729673, 0.2443999983370304, 0.25055000151041895, 0.2538000117056072, 0.24670000129844993, 0.25534999440424144, 0.24890000349842012, 0.2716000090003945, 0.25010001263581216, 0.2538499975344166, 0.2573999954620376, 0.2453500055707991, 0.24464999296469614, 0.24590000248281285, 0.25150000874418765, 0.2518499968573451, 0.247199997829739, 0.24794999626465142, 0.25674999051261693, 0.25105000531766564, 0.25224999990314245, 0.24834999931044877, 0.2466000005370006, 0.26714999694377184, 0.2419500015093945, 0.2518499968573451, 0.2421000026515685, 0.2804500036290847, 0.24714999017305672, 0.25004999770317227, 0.26089999300893396, 0.24324999685632065, 0.24339999072253704, 0.25710000772960484, 0.25525000819470733, 0.25784999888855964, 0.2504500007489696, 0.2510499907657504, 0.2750999992713332, 0.24935000692494214, 0.25040000764420256, 0.2499999973224476, 0.25334999372716993, 0.3744000132428482, 0.24455000675516203, 0.2535999956307933, 0.25364999601151794, 0.2530999918235466, 0.2503499999875203, 0.24370000028284267, 0.2487500023562461, 0.25505000667180866, 0.25084999651880935, 0.24155000573955476, 0.24735000624787062, 0.24824999854899943, 0.24510000366717577, 0.24629999097669497, 0.2459499955875799, 0.24685000244062394, 0.28044999635312706, 0.24695000320207328, 0.2426999926683493, 0.24605000362498686, 0.24670000129844993, 0.24774999474175274, 0.2484500000718981, 0.2514000007067807, 0.25445000210311264, 0.2449000094202347, 0.24960000155260786, 0.24554999254178256, 0.2458500093780458, 0.2516999957151711, 0.2421000026515685, 0.25055000151041895, 0.2520499983802438, 0.24765000125626102, 0.2479999966453761, 0.2572000084910542, 0.26494999474380165, 0.2800000074785203, 0.2510999911464751, 0.2634999982547015, 0.25105000531766564, 0.2534500090405345, 0.28500000189524144, 0.2578999992692843, 0.25564999668858945, 0.25185001140926033, 0.25129999266937375, 0.2552500009187497, 0.2477000089129433, 0.28279999969527125, 0.24634999863337725, 0.2513999934308231, 0.24680000205989927, 0.24665000091772527, 0.24380000832024962, 0.257949999650009, 0.24789999588392675, 0.25090000417549163, 0.24480000138282776, 0.2572999947005883, 0.2490499973646365, 0.24670000129844993, 0.29439999343594536, 0.25850000383798033, 0.2524499941500835, 0.2468499878887087, 0.24499999562976882, 0.2599500003270805, 0.25845000345725566, 0.261199995293282, 0.2510499907657504, 0.26015000184997916, 0.2494000000297092, 0.243800001044292, 0.25085000379476696, 0.2756999965640716, 0.2482999989297241, 0.2583999958005734, 0.2523500006645918, 0.25019999884534627, 0.24685000244062394, 0.27230000705458224, 0.24530000519007444, 0.24295000184793025, 0.2460999967297539, 0.24539999867556617, 0.24959999427665025, 0.2538999979151413, 0.280700005532708, 0.2597499988041818, 0.25599999935366213, 0.24870000197552145, 0.25100000493694097, 0.24874998780433089, 0.27535000117495656, 0.2642499894136563, 0.24900000425986946, 0.26399998751003295, 0.258850006503053, 0.2535999956307933, 0.2483000062056817, 0.25549999554641545, 0.24574999406468123, 0.26559999969322234, 0.26124999567400664, 0.255000006291084, 0.2532500002416782, 0.24524999753339216, 0.2558000123826787, 0.24429999757558107, 0.2532500075176358, 0.3813500079559162, 0.2310999989276752, 0.34219999361084774, 0.2517000102670863, 0.25594999897293746, 0.2553999947849661, 0.2801999944495037, 0.24259999918285757, 0.25755000388016924, 0.2514000079827383, 0.2545000024838373, 0.24560000019846484, 0.2735500020207837, 0.24945000041043386, 0.25440000172238797, 0.2537499967729673, 0.2502999996067956, 0.2598999999463558, 0.2508000034140423, 0.2747999969869852, 0.2507500030333176, 0.25555001047905535, 0.2514999941922724, 0.24905000464059412, 0.24979999579954892, 0.2598999999463558, 0.2556999970693141, 0.2728000035858713, 0.246749994403217, 0.2557499974500388, 0.2531500067561865, 0.2500500122550875, 0.2807999917422421, 0.25245000870199874, 0.24570000095991418, 0.25085000379476696, 0.2484499927959405, 0.23485000565415248, 0.28134998865425587, 0.2661499966052361, 0.2553999947849661, 0.265950002358295, 0.25830000231508166, 0.24919999850681052, 0.25779999850783497, 0.2598999999463558, 0.2520499983802438, 0.371300004189834, 0.2550999925006181, 0.24669999402249232, 0.24415000370936468, 0.24935000692494214, 0.2530000056140125, 0.24864999431883916, 0.2523500006645918, 0.2528500044718385, 0.24730000586714596, 0.25669999013189226, 0.2826999989338219, 0.2588499919511378, 0.25689999165479094, 0.2540499990573153, 0.24920000578276813, 0.25255000218749046, 0.2547499898355454, 0.24760000815149397, 0.2474999928381294, 0.25485000514891, 0.25090000417549163, 0.25224999990314245, 0.25409999943803996, 0.28040000324836, 0.30250000418163836, 0.25364999601151794, 0.2928000030806288, 0.3165499947499484, 0.2802499948302284, 0.24970000959001482, 0.25144999381154776, 0.2490499973646365, 0.24390000180574134, 0.2527999968151562, 0.24695000320207328, 0.2879999956348911, 0.24339999799849465, 0.24465000751661137, 0.25630000163801014, 0.24915000540204346, 0.2518499968573451, 0.24980001035146415, 0.25335000827908516, 0.25475000438746065, 0.24930000654421747, 0.24845000734785572, 0.2455500070936978, 0.2512500068405643, 0.24110000231303275, 0.24735000624787062, 0.2508000034140423, 0.25430000096093863, 0.25440000172238797, 0.24644999211886898, 0.24954999389592558, 0.2597999991849065, 0.24605000362498686, 0.2486000012140721, 0.2498499961802736, 0.25040000036824495, 0.2476499939803034, 0.27469999622553587, 0.2496999950380996, 0.24670000857440755, 0.2450500032864511, 0.243950002186466, 0.24629999825265259, 0.24845000734785572, 0.2715499940677546, 0.24880000273697078, 0.25349999486934394, 0.2506500022718683, 0.24685000971658155, 0.2507499884814024, 0.25430000096093863, 0.27534999389899895, 0.31930000841384754, 0.2543500013416633, 0.25329999334644526, 0.2537499967729673, 0.25314999220427126, 0.2927000023191795, 0.24695000320207328, 0.25240000104531646, 0.24724999821046367, 0.258100000792183],
  "QPU": "7000000",
  "Qubits": 5,
  "Queue durations [ms]": [0.0, 0.0, 0.0, 0.0, 0.0, 0.0, 0.0, 0.0, 0.0, 0.0, 0.0, 0.0, 0.0, 0.0, 0.0, 0.0, 0.0, 0.0, 0.0, 0.0, 0.0, 0.0, 0.0, 0.0, 0.0, 0.0, 0.0, 0.0, 0.0, 0.0, 0.0, 0.0, 0.0, 0.0, 0.0, 0.0, 0.0, 0.0, 0.0, 0.0, 0.0, 0.0, 0.0, 0.0, 0.0, 0.0, 0.0, 0.0, 0.0, 0.0, 0.0, 0.0, 0.0, 0.0, 0.0, 0.0, 0.0, 0.0, 0.0, 0.0, 0.0, 0.0, 0.0, 0.0, 0.0, 0.0, 0.0, 0.0, 0.0, 0.0, 0.0, 0.0, 0.0, 0.0, 0.0, 0.0, 0.0, 0.0, 0.0, 0.0, 0.0, 0.0, 0.0, 0.0, 0.0, 0.0, 0.0, 0.0, 0.0, 0.0, 0.0, 0.0, 0.0, 0.0, 0.0, 0.0, 0.0, 0.0, 0.0, 0.0, 0.0, 0.0, 0.0, 0.0, 0.0, 0.0, 0.0, 0.0, 0.0, 0.0, 0.0, 0.0, 0.0, 0.0, 0.0, 0.0, 0.0, 0.0, 0.0, 0.0, 0.0, 0.0, 0.0, 0.0, 0.0, 0.0, 0.0, 0.0, 0.0, 0.0, 0.0, 0.0, 0.0, 0.0, 0.0, 0.0, 0.0, 0.0, 0.0, 0.0, 0.0, 0.0, 0.0, 0.0, 0.0, 0.0, 0.0, 0.0, 0.0, 0.0, 0.0, 0.0, 0.0, 0.0, 0.0, 0.0, 0.0, 0.0, 0.0, 0.0, 0.0, 0.0, 0.0, 0.0, 0.0, 0.0, 0.0, 0.0, 0.0, 0.0, 0.0, 0.0, 0.0, 0.0, 0.0, 0.0, 0.0, 0.0, 0.0, 0.0, 0.0, 0.0, 0.0, 0.0, 0.0, 0.0, 0.0, 0.0, 0.0, 0.0, 0.0, 0.0, 0.0, 0.0, 0.0, 0.0, 0.0, 0.0, 0.0, 0.0, 0.0, 0.0, 0.0, 0.0, 0.0, 0.0, 0.0, 0.0, 0.0, 0.0, 0.0, 0.0, 0.0, 0.0, 0.0, 0.0, 0.0, 0.0, 0.0, 0.0, 0.0, 0.0, 0.0, 0.0, 0.0, 0.0, 0.0, 0.0, 0.0, 0.0, 0.0, 0.0, 0.0, 0.0, 0.0, 0.0, 0.0, 0.0, 0.0, 0.0, 0.0, 0.0, 0.0, 0.0, 0.0, 0.0, 0.0, 0.0, 0.0, 0.0, 0.0, 0.0, 0.0, 0.0, 0.0, 0.0, 0.0, 0.0, 0.0, 0.0, 0.0, 0.0, 0.0, 0.0, 0.0, 0.0, 0.0, 0.0, 0.0, 0.0, 0.0, 0.0, 0.0, 0.0, 0.0, 0.0, 0.0, 0.0, 0.0, 0.0, 0.0, 0.0, 0.0, 0.0, 0.0, 0.0, 0.0, 0.0, 0.0, 0.0, 0.0, 0.0, 0.0, 0.0, 0.0, 0.0, 0.0, 0.0, 0.0, 0.0, 0.0, 0.0, 0.0, 0.0, 0.0, 0.0, 0.0, 0.0, 0.0, 0.0, 0.0, 0.0, 0.0, 0.0, 0.0, 0.0, 0.0, 0.0, 0.0, 0.0, 0.0, 0.0, 0.0, 0.0, 0.0, 0.0, 0.0, 0.0, 0.0, 0.0, 0.0, 0.0, 0.0, 0.0, 0.0, 0.0, 0.0, 0.0, 0.0, 0.0, 0.0, 0.0, 0.0, 0.0, 0.0, 0.0, 0.0, 0.0, 0.0, 0.0, 0.0, 0.0, 0.0, 0.0, 0.0, 0.0, 0.0, 0.0, 0.0, 0.0, 0.0, 0.0, 0.0, 0.0, 0.0, 0.0, 0.0, 0.0, 0.0, 0.0, 0.0, 0.0, 0.0, 0.0, 0.0, 0.0, 0.0, 0.0, 0.0, 0.0, 0.0, 0.0, 0.0, 0.0, 0.0, 0.0, 0.0, 0.0, 0.0, 0.0, 0.0, 0.0, 0.0, 0.0, 0.0, 0.0, 0.0, 0.0, 0.0, 0.0, 0.0, 0.0, 0.0, 0.0, 0.0, 0.0, 0.0, 0.0, 0.0, 0.0, 0.0, 0.0, 0.0, 0.0, 0.0, 0.0, 0.0, 0.0, 0.0, 0.0, 0.0, 0.0],
  "Shots": 4096,
  "Size": 5,
  "Total Algorithm duration [s]": 2.696,
  "Total Classic duration [s]": 2.5877179499039777,
  "Total Quantum duration [s]": 0.10828205009602243
}
