{
  "Circuit execution durations [ms]": [0.2546500036260113, 0.2655500065884553, 0.27424999279901385, 0.24900000425986946, 0.25040000036824495, 0.25880000612232834, 0.2527999895391986, 0.25510000705253333, 0.2424000049359165, 0.24354999914066866, 0.2529500052332878, 0.24720000510569662, 0.24590000248281285, 0.24760000815149397, 0.24370000028284267, 0.2480000039213337, 0.2524500014260411, 0.24760000087553635, 0.2541499998187646, 0.24945000041043386, 0.25340000865980983, 0.2460999967297539, 0.2495500084478408, 0.2528999903006479, 0.25340000865980983, 0.2740499912761152, 0.24544999905629084, 0.2519999979995191, 0.25969999842345715, 0.2503499999875203, 0.2493499923730269, 0.24870000197552145, 0.24899998970795423, 0.2516000022296794, 0.2471999905537814, 0.2512500068405643, 0.24709998979233205, 0.2528000040911138, 0.2494000000297092, 0.24709998979233205, 0.24149999808287248, 0.24855000083334744, 0.24544999905629084, 0.25009999808389693, 0.25740001001395285, 0.2751499996520579, 0.2601000014692545, 0.24494999524904415, 0.24735000624787062, 0.2945000014733523, 0.25019999884534627, 0.2516999957151711, 0.2461500043864362, 0.24680000205989927, 0.26124999567400664, 0.2489500038791448, 0.25954999728128314, 0.30374999914783984, 0.2834499900927767, 0.2543499867897481, 0.26205000176560134, 0.25209999876096845, 0.25219999224646017, 0.2560499997343868, 0.2600999941932969, 0.247349998971913, 0.25024999922607094, 0.25004999770317227, 0.24914999085012823, 0.2513999934308231, 0.24929999926825985, 0.27630000113276765, 0.24794999626465142, 0.24659999326104298, 0.24944999313447624, 0.24110000231303275, 0.2450500032864511, 0.2477999951224774, 0.26500000240048394, 0.24804999702610075, 0.243649999902118, 0.35539999953471124, 0.24939999275375158, 0.23604999296367168, 0.24169999232981354, 0.24745000700931996, 0.2484500000718981, 0.35120000393362716, 0.24700000358279794, 0.2943500003311783, 0.24499999562976882, 0.25440000172238797, 0.385600003937725, 0.2443999910610728, 0.29290000384207815, 0.27770000451710075, 0.28700000257231295, 0.22164999973028898, 0.24234999727923423, 0.24929999199230224, 0.26559999969322234, 0.2425499915261753, 0.3702999820234254, 0.25385001208633184, 0.2835000050254166, 0.24739999935263768, 0.27009999757865444, 0.23890000011306256, 0.25024999922607094, 0.28915000439155847, 0.27474999660626054, 0.2682499907677993, 0.2479999966453761, 0.2465499928803183, 0.2998999989358708, 0.261950001004152, 0.39789999573258683, 0.2864499983843416, 0.41450001299381256, 0.27925000176765025, 0.2555999963078648, 0.24665000819368288, 0.25019999884534627, 0.25195000489475206, 0.25370001094415784, 0.25179999647662044, 0.2464500066707842, 0.24529999063815922, 0.28125000244472176, 0.2508000034140423, 0.24745000700931996, 0.24530000519007444, 0.27830000180983916, 0.24375000066356733, 0.2507500030333176, 0.24885000311769545, 0.25040000036824495, 0.2487500023562461, 0.2494999935152009, 0.24854999355738983, 0.24390000908169895, 0.2420999953756109, 0.2523000002838671, 0.2504500007489696, 0.24790001043584198, 0.2855000057024881, 0.24115000269375741, 0.2447500010021031, 0.2593500103102997, 0.2455500070936978, 0.2629000009619631, 0.25594999897293746, 0.2763500015134923, 0.2931000053649768, 0.2505000011296943, 0.2523500006645918, 0.2556500112405047, 0.2464499993948266, 0.2531000063754618, 0.2443000048515387, 0.2581999870017171, 0.24300000950461254, 0.24695000320207328, 0.250299992330838, 0.2477000089129433, 0.2744000084931031, 0.2464500066707842, 0.2477000089129433, 0.2638000005390495, 0.2524500014260411, 0.25255000218749046, 0.2516999957151711, 0.2467500016791746, 0.24334999761777, 0.24710000434424728, 0.240100001974497, 0.24170000688172877, 0.2506499949959107, 0.25779999850783497, 0.25009999808389693, 0.2470500039635226, 0.2529500052332878, 0.24865000159479678, 0.25120000645983964, 0.24935000692494214, 0.2774499953375198, 0.27245000092079863, 0.24544999178033322, 0.24850000045262277, 0.24604999634902924, 0.2484500000718981, 0.3656499902717769, 0.24729999859118834, 0.243499998759944, 0.24710000434424728, 0.2457999944454059, 0.2453499982948415, 0.24824999854899943, 0.27340000815456733, 0.2501499984646216, 0.24850000045262277, 0.25135000760201365, 0.2487500023562461, 0.25440000172238797, 0.24750000739004463, 0.24659999326104298, 0.2522999930079095, 0.25085000379476696, 0.36600001476472244, 0.2469000028213486, 0.2524500014260411, 0.3109500030404888, 0.24879999546101317, 0.25165000261040404, 0.24670000129844993, 0.25445000210311264, 0.24759999359957874, 0.27019999106414616, 0.25555001047905535, 0.2565500035416335, 0.24954999389592558, 0.24459999258397147, 0.2498499961802736, 0.246899995545391, 0.2811499944073148, 0.24360000679735094, 0.24905000464059412, 0.24720000510569662, 0.25269999605370685, 0.2734000008786097, 0.27395000506658107, 0.348599991411902, 0.362899991159793, 0.24860000849002972, 0.26020000223070383, 0.247049996687565, 0.24680000933585688, 0.24739999207668006, 0.24839999969117343, 0.25015001301653683, 0.28330000350251794, 0.24634999863337725, 0.24405000294791535, 0.24870000197552145, 0.251600009505637, 0.247049996687565, 0.24580000899732113, 0.27845000295201316, 0.24325000413227826, 0.2506500022718683, 0.2423999976599589, 0.24649999249959365, 0.2489500038791448, 0.2511000056983903, 0.2805500116664916, 0.2613500037114136, 0.25749999622348696, 0.25290000485256314, 0.2477999951224774, 0.24569999368395656, 0.2785499964375049, 0.2501499984646216, 0.2474000066285953, 0.25505000667180866, 0.24545000633224845, 0.246899995545391, 0.24915000540204346, 0.2823999966494739, 0.2525000018067658, 0.24870000197552145, 0.25344999448861927, 0.24950000806711614, 0.24694999592611566, 0.2830000012181699, 0.25009999808389693, 0.2447500082780607, 0.25475000438746065, 0.24685000244062394, 0.43969998660031706, 0.27984999178443104, 0.25305000599473715, 0.25120000645983964, 0.24185000074794516, 0.2535999956307933, 0.24340000527445227, 0.2538000117056072, 0.2758999980869703, 0.2516999957151711, 0.25194999761879444, 0.24404999567195773, 0.2506000018911436, 0.25430000096093863, 0.24644999211886898, 0.2469000028213486, 0.2482999989297241, 0.24750000739004463, 0.2460000032442622, 0.24830001348163933, 0.24745000700931996, 0.24509999639121816, 0.25475000438746065, 0.24534999101888388, 0.25079998886212707, 0.2491000050213188, 0.24419999681413174, 0.2510499907657504, 0.27329999284120277, 0.2481500050635077, 0.24954999389592558, 0.26804999652085826, 0.24915000540204346, 0.24855000083334744, 0.2836999992723577, 0.25009999808389693, 0.24899999698391184, 0.2931500057457015, 0.25209999876096845, 0.2565500035416335, 0.24570000095991418, 0.28369999199640006, 0.25009999808389693, 0.24354999186471105, 0.25630000163801014, 0.24545000633224845, 0.24450000637443736, 0.2545000024838373, 0.2543500013416633, 0.25055000151041895, 0.24744999973336235, 0.2555000100983307, 0.24185000074794516, 0.24610000400571153, 0.30744999821763486, 0.24620000476716086, 0.24249999114545062, 0.24790000315988436, 0.24279999342979863, 0.2570000069681555, 0.24819999816827476, 0.2481499977875501, 0.24994999694172293, 0.25394999829586595, 0.24819999089231715, 0.24485000176355243, 0.24784999550320208, 0.27674999728333205, 0.2481499977875501, 0.24644999211886898, 0.2597999991849065, 0.2496999950380996, 0.2704499929677695, 0.26280000747647136, 0.24929999926825985, 0.24759999359957874, 0.24639999901410192, 0.2630499948281795, 0.2545999886933714, 0.24694999592611566, 0.2811499944073148, 0.24244999804068357, 0.26354999863542616, 0.2432000037515536, 0.2448499944875948, 0.24890000349842012, 0.24470000062137842, 0.25024999922607094, 0.26559999969322234, 0.4201499978080392, 0.2633499898365699, 0.24855000810930505, 0.2474999928381294, 0.24375000066356733, 0.25164999533444643, 0.24935000692494214, 0.25070000265259296, 0.2529499906813726, 0.24760000087553635, 0.26479999360162765, 0.24539999867556617, 0.24575000134063885, 0.2519999979995191, 0.24924999888753518, 0.24664999364176765, 0.258700005360879, 0.28160000510979444, 0.25009999808389693, 0.2455500070936978, 0.2504500007489696, 0.2515499945729971, 0.24289999419124797, 0.2514000079827383, 0.41030001011677086, 0.3344000069773756, 0.25845000345725566, 0.27799999224953353, 0.28605000261450186, 0.25340000865980983, 0.25984999956563115, 0.24580000172136351, 0.25019999884534627, 0.2562000008765608, 0.27129999216413125, 0.247199997829739, 0.2597499988041818, 0.24714999017305672, 0.2453500055707991, 0.2483000062056817, 0.26450000586919487, 0.24060000578174368, 0.24404999567195773, 0.25594999897293746, 0.24819999816827476, 0.24544999905629084, 0.24480000865878537, 0.2782500014291145, 0.2679999961401336, 0.24924999161157757, 0.276850005320739, 0.2566500043030828, 0.25969999842345715, 0.25969999842345715, 0.2482999989297241, 0.2476499939803034, 0.24900000425986946, 0.24784999550320208, 0.2636499993968755, 0.24745000700931996, 0.2661500038811937, 0.24569999368395656, 0.24540000595152378, 0.25425000058021396, 0.24824999854899943, 0.2429000087431632, 0.2482999989297241, 0.28049999673385173, 0.24915000540204346, 0.2511000056983903, 0.272299992502667, 0.25364999601151794, 0.2614000113680959, 0.2610000083222985, 0.2460999967297539, 0.2539000124670565, 0.24939999275375158, 0.2491999912308529, 0.2518999972380698, 0.24735000624787062, 0.277150007605087, 0.24689998826943338, 0.26015000184997916, 0.24640001356601715, 0.251049998041708, 0.2456500005791895, 0.27039999986300245, 0.24794999626465142, 0.2494999935152009, 0.2448499944875948, 0.2536999963922426, 0.24775000929366797],
  "Depth": 12.5,
  "Expectation Value": -5.801372528076172,
  "Optimal Expectation Value": -6.026674270629883,
  "Optimizer durations [ms]": [6.09, 6.086, 6.805, 6.007, 5.882, 7.123, 5.971, 6.281, 5.904, 6.055, 6.268, 6.076, 6.569, 5.95, 6.114, 5.735, 6.413, 5.757, 6.208, 6.361, 5.899, 6.184, 5.686, 6.283, 5.998, 6.459, 5.859, 6.373, 6.118, 5.968, 6.079, 6.097, 6.414, 6.17, 5.734, 6.089, 6.428, 5.735, 6.135, 5.826, 6.114, 5.965, 6.052, 5.968, 6.103, 6.695, 5.995, 5.916, 6.219, 6.939, 6.158, 5.946, 5.854, 5.962, 6.449, 6.12, 6.123, 7.008, 6.71, 6.303, 6.424, 6.208, 6.109, 5.829, 6.432, 6.236, 6.026, 5.828, 6.077, 6.061, 6.152, 6.694, 5.938, 5.985, 5.747, 5.982, 6.233, 6.162, 6.365, 6.015, 8.603, 7.734, 6.213, 7.838, 11.351, 6.678, 5.715, 8.203, 5.965, 6.942, 5.89, 6.151, 8.301, 6.013, 6.733, 6.537, 7.029, 12.577, 9.309, 5.905, 7.173, 5.954, 8.14, 5.869, 6.979, 5.806, 6.854, 22.22, 6.079, 6.84, 6.428, 6.287, 7.778, 5.867, 6.913, 6.392, 9.045, 21.435, 9.408, 6.574, 6.193, 5.702, 5.997, 6.327, 6.005, 6.154, 5.936, 6.078, 6.91, 5.822, 6.059, 5.865, 6.949, 6.159, 5.786, 6.048, 6.178, 6.063, 6.087, 6.367, 5.961, 6.125, 5.827, 6.305, 5.942, 6.614, 5.817, 6.137, 6.146, 6.126, 6.118, 6.152, 6.825, 6.849, 5.863, 6.213, 5.975, 6.23, 5.863, 6.163, 6.107, 5.967, 5.933, 5.855, 6.351, 6.455, 6.1, 5.907, 6.381, 6.025, 5.977, 5.942, 6.14, 5.701, 5.897, 5.847, 6.136, 5.992, 6.312, 5.986, 6.283, 6.275, 6.036, 5.788, 6.1, 6.785, 6.541, 5.844, 6.167, 5.99, 6.135, 8.032, 6.043, 5.913, 5.855, 5.82, 5.98, 5.85, 6.922, 6.051, 6.039, 5.952, 6.208, 5.867, 6.007, 6.604, 6.101, 6.202, 8.068, 6.09, 6.079, 7.342, 5.75, 6.044, 6.021, 5.931, 6.099, 6.465, 6.299, 6.05, 5.947, 6.235, 5.935, 5.979, 6.457, 6.201, 5.999, 5.954, 6.165, 6.609, 6.292, 23.65, 9.055, 6.002, 6.153, 6.161, 5.967, 5.972, 6.094, 6.117, 6.635, 5.793, 6.051, 6.205, 5.926, 6.008, 6.065, 6.399, 7.173, 5.811, 6.069, 5.901, 5.895, 6.25, 6.261, 6.585, 5.878, 6.377, 5.744, 6.27, 6.747, 5.904, 6.016, 5.987, 6.093, 6.031, 6.018, 6.557, 6.13, 5.936, 6.266, 5.887, 5.849, 7.645, 6.018, 6.056, 5.933, 6.043, 9.44, 6.666, 6.067, 5.908, 5.962, 6.01, 6.215, 5.83, 6.872, 5.959, 5.832, 6.095, 6.195, 5.907, 5.975, 6.153, 5.661, 6.235, 6.052, 5.731, 6.22, 6.741, 5.959, 6.171, 6.011, 5.84, 5.919, 6.114, 6.783, 5.722, 6.224, 6.237, 6.123, 5.821, 6.985, 5.85, 6.216, 6.889, 6.237, 6.018, 6.284, 6.608, 5.972, 6.131, 5.893, 5.965, 6.06, 6.297, 6.123, 5.979, 6.748, 5.875, 6.547, 6.087, 7.425, 5.67, 6.161, 5.882, 5.911, 6.2, 6.061, 6.157, 6.193, 6.004, 5.802, 6.421, 5.966, 6.547, 6.145, 6.113, 6.248, 5.825, 6.557, 6.386, 5.991, 6.205, 5.644, 6.667, 6.028, 5.926, 6.577, 5.96, 6.032, 6.139, 5.818, 6.017, 6.087, 6.866, 6.041, 9.357, 6.651, 6.034, 5.942, 6.456, 6.35, 5.79, 5.82, 6.262, 5.937, 6.237, 6.214, 5.908, 5.656, 6.181, 6.144, 6.312, 6.772, 5.865, 5.996, 6.188, 6.075, 6.167, 6.2, 18.408, 10.057, 6.976, 6.69, 6.749, 5.808, 6.364, 5.994, 6.227, 6.007, 6.281, 6.167, 6.135, 5.889, 6.159, 6.03, 6.3, 6.78, 5.687, 6.333, 5.703, 5.96, 5.953, 6.574, 6.603, 6.061, 6.799, 5.834, 6.151, 6.707, 5.821, 6.01, 6.132, 5.848, 6.081, 6.044, 7.212, 6.001, 5.991, 6.126, 5.722, 6.132, 6.189, 6.526, 6.391, 6.045, 6.404, 9.996, 6.126, 6.377, 5.912, 6.134, 5.991, 6.354, 6.045, 5.812, 6.729, 5.765, 6.227, 6.262, 5.693, 5.942, 6.827, 6.026, 5.739, 6.2, 5.967, 5.923],
  "Optimizer iterations": 459,
  "Optimizer params": [0.06903278586836122, 0.5634047329957367, 0.9694350252420453, 0.4212184405083134, 0.44447592421129506, 0.4608429146855375, 0.06125460816888179, 0.5998835729001722, 0.9907572535012563, 0.07510521285698521, 0.9569685801539823, 0.4416583752187162, 0.5634386662474206, 0.5877010085489923, 0.9083179905605404, 0.502530816868237, 0.5471510705653032, 0.9686721371393775, 0.06171704207469242, 0.4135321442073142],
  "P": 0,
  "Problem": "IC",
  "QJob durations [ms]": [0.2546500036260113, 0.2655500065884553, 0.27424999279901385, 0.24900000425986946, 0.25040000036824495, 0.25880000612232834, 0.2527999895391986, 0.25510000705253333, 0.2424000049359165, 0.24354999914066866, 0.2529500052332878, 0.24720000510569662, 0.24590000248281285, 0.24760000815149397, 0.24370000028284267, 0.2480000039213337, 0.2524500014260411, 0.24760000087553635, 0.2541499998187646, 0.24945000041043386, 0.25340000865980983, 0.2460999967297539, 0.2495500084478408, 0.2528999903006479, 0.25340000865980983, 0.2740499912761152, 0.24544999905629084, 0.2519999979995191, 0.25969999842345715, 0.2503499999875203, 0.2493499923730269, 0.24870000197552145, 0.24899998970795423, 0.2516000022296794, 0.2471999905537814, 0.2512500068405643, 0.24709998979233205, 0.2528000040911138, 0.2494000000297092, 0.24709998979233205, 0.24149999808287248, 0.24855000083334744, 0.24544999905629084, 0.25009999808389693, 0.25740001001395285, 0.2751499996520579, 0.2601000014692545, 0.24494999524904415, 0.24735000624787062, 0.2945000014733523, 0.25019999884534627, 0.2516999957151711, 0.2461500043864362, 0.24680000205989927, 0.26124999567400664, 0.2489500038791448, 0.25954999728128314, 0.30374999914783984, 0.2834499900927767, 0.2543499867897481, 0.26205000176560134, 0.25209999876096845, 0.25219999224646017, 0.2560499997343868, 0.2600999941932969, 0.247349998971913, 0.25024999922607094, 0.25004999770317227, 0.24914999085012823, 0.2513999934308231, 0.24929999926825985, 0.27630000113276765, 0.24794999626465142, 0.24659999326104298, 0.24944999313447624, 0.24110000231303275, 0.2450500032864511, 0.2477999951224774, 0.26500000240048394, 0.24804999702610075, 0.243649999902118, 0.35539999953471124, 0.24939999275375158, 0.23604999296367168, 0.24169999232981354, 0.24745000700931996, 0.2484500000718981, 0.35120000393362716, 0.24700000358279794, 0.2943500003311783, 0.24499999562976882, 0.25440000172238797, 0.385600003937725, 0.2443999910610728, 0.29290000384207815, 0.27770000451710075, 0.28700000257231295, 0.22164999973028898, 0.24234999727923423, 0.24929999199230224, 0.26559999969322234, 0.2425499915261753, 0.3702999820234254, 0.25385001208633184, 0.2835000050254166, 0.24739999935263768, 0.27009999757865444, 0.23890000011306256, 0.25024999922607094, 0.28915000439155847, 0.27474999660626054, 0.2682499907677993, 0.2479999966453761, 0.2465499928803183, 0.2998999989358708, 0.261950001004152, 0.39789999573258683, 0.2864499983843416, 0.41450001299381256, 0.27925000176765025, 0.2555999963078648, 0.24665000819368288, 0.25019999884534627, 0.25195000489475206, 0.25370001094415784, 0.25179999647662044, 0.2464500066707842, 0.24529999063815922, 0.28125000244472176, 0.2508000034140423, 0.24745000700931996, 0.24530000519007444, 0.27830000180983916, 0.24375000066356733, 0.2507500030333176, 0.24885000311769545, 0.25040000036824495, 0.2487500023562461, 0.2494999935152009, 0.24854999355738983, 0.24390000908169895, 0.2420999953756109, 0.2523000002838671, 0.2504500007489696, 0.24790001043584198, 0.2855000057024881, 0.24115000269375741, 0.2447500010021031, 0.2593500103102997, 0.2455500070936978, 0.2629000009619631, 0.25594999897293746, 0.2763500015134923, 0.2931000053649768, 0.2505000011296943, 0.2523500006645918, 0.2556500112405047, 0.2464499993948266, 0.2531000063754618, 0.2443000048515387, 0.2581999870017171, 0.24300000950461254, 0.24695000320207328, 0.250299992330838, 0.2477000089129433, 0.2744000084931031, 0.2464500066707842, 0.2477000089129433, 0.2638000005390495, 0.2524500014260411, 0.25255000218749046, 0.2516999957151711, 0.2467500016791746, 0.24334999761777, 0.24710000434424728, 0.240100001974497, 0.24170000688172877, 0.2506499949959107, 0.25779999850783497, 0.25009999808389693, 0.2470500039635226, 0.2529500052332878, 0.24865000159479678, 0.25120000645983964, 0.24935000692494214, 0.2774499953375198, 0.27245000092079863, 0.24544999178033322, 0.24850000045262277, 0.24604999634902924, 0.2484500000718981, 0.3656499902717769, 0.24729999859118834, 0.243499998759944, 0.24710000434424728, 0.2457999944454059, 0.2453499982948415, 0.24824999854899943, 0.27340000815456733, 0.2501499984646216, 0.24850000045262277, 0.25135000760201365, 0.2487500023562461, 0.25440000172238797, 0.24750000739004463, 0.24659999326104298, 0.2522999930079095, 0.25085000379476696, 0.36600001476472244, 0.2469000028213486, 0.2524500014260411, 0.3109500030404888, 0.24879999546101317, 0.25165000261040404, 0.24670000129844993, 0.25445000210311264, 0.24759999359957874, 0.27019999106414616, 0.25555001047905535, 0.2565500035416335, 0.24954999389592558, 0.24459999258397147, 0.2498499961802736, 0.246899995545391, 0.2811499944073148, 0.24360000679735094, 0.24905000464059412, 0.24720000510569662, 0.25269999605370685, 0.2734000008786097, 0.27395000506658107, 0.348599991411902, 0.362899991159793, 0.24860000849002972, 0.26020000223070383, 0.247049996687565, 0.24680000933585688, 0.24739999207668006, 0.24839999969117343, 0.25015001301653683, 0.28330000350251794, 0.24634999863337725, 0.24405000294791535, 0.24870000197552145, 0.251600009505637, 0.247049996687565, 0.24580000899732113, 0.27845000295201316, 0.24325000413227826, 0.2506500022718683, 0.2423999976599589, 0.24649999249959365, 0.2489500038791448, 0.2511000056983903, 0.2805500116664916, 0.2613500037114136, 0.25749999622348696, 0.25290000485256314, 0.2477999951224774, 0.24569999368395656, 0.2785499964375049, 0.2501499984646216, 0.2474000066285953, 0.25505000667180866, 0.24545000633224845, 0.246899995545391, 0.24915000540204346, 0.2823999966494739, 0.2525000018067658, 0.24870000197552145, 0.25344999448861927, 0.24950000806711614, 0.24694999592611566, 0.2830000012181699, 0.25009999808389693, 0.2447500082780607, 0.25475000438746065, 0.24685000244062394, 0.43969998660031706, 0.27984999178443104, 0.25305000599473715, 0.25120000645983964, 0.24185000074794516, 0.2535999956307933, 0.24340000527445227, 0.2538000117056072, 0.2758999980869703, 0.2516999957151711, 0.25194999761879444, 0.24404999567195773, 0.2506000018911436, 0.25430000096093863, 0.24644999211886898, 0.2469000028213486, 0.2482999989297241, 0.24750000739004463, 0.2460000032442622, 0.24830001348163933, 0.24745000700931996, 0.24509999639121816, 0.25475000438746065, 0.24534999101888388, 0.25079998886212707, 0.2491000050213188, 0.24419999681413174, 0.2510499907657504, 0.27329999284120277, 0.2481500050635077, 0.24954999389592558, 0.26804999652085826, 0.24915000540204346, 0.24855000083334744, 0.2836999992723577, 0.25009999808389693, 0.24899999698391184, 0.2931500057457015, 0.25209999876096845, 0.2565500035416335, 0.24570000095991418, 0.28369999199640006, 0.25009999808389693, 0.24354999186471105, 0.25630000163801014, 0.24545000633224845, 0.24450000637443736, 0.2545000024838373, 0.2543500013416633, 0.25055000151041895, 0.24744999973336235, 0.2555000100983307, 0.24185000074794516, 0.24610000400571153, 0.30744999821763486, 0.24620000476716086, 0.24249999114545062, 0.24790000315988436, 0.24279999342979863, 0.2570000069681555, 0.24819999816827476, 0.2481499977875501, 0.24994999694172293, 0.25394999829586595, 0.24819999089231715, 0.24485000176355243, 0.24784999550320208, 0.27674999728333205, 0.2481499977875501, 0.24644999211886898, 0.2597999991849065, 0.2496999950380996, 0.2704499929677695, 0.26280000747647136, 0.24929999926825985, 0.24759999359957874, 0.24639999901410192, 0.2630499948281795, 0.2545999886933714, 0.24694999592611566, 0.2811499944073148, 0.24244999804068357, 0.26354999863542616, 0.2432000037515536, 0.2448499944875948, 0.24890000349842012, 0.24470000062137842, 0.25024999922607094, 0.26559999969322234, 0.4201499978080392, 0.2633499898365699, 0.24855000810930505, 0.2474999928381294, 0.24375000066356733, 0.25164999533444643, 0.24935000692494214, 0.25070000265259296, 0.2529499906813726, 0.24760000087553635, 0.26479999360162765, 0.24539999867556617, 0.24575000134063885, 0.2519999979995191, 0.24924999888753518, 0.24664999364176765, 0.258700005360879, 0.28160000510979444, 0.25009999808389693, 0.2455500070936978, 0.2504500007489696, 0.2515499945729971, 0.24289999419124797, 0.2514000079827383, 0.41030001011677086, 0.3344000069773756, 0.25845000345725566, 0.27799999224953353, 0.28605000261450186, 0.25340000865980983, 0.25984999956563115, 0.24580000172136351, 0.25019999884534627, 0.2562000008765608, 0.27129999216413125, 0.247199997829739, 0.2597499988041818, 0.24714999017305672, 0.2453500055707991, 0.2483000062056817, 0.26450000586919487, 0.24060000578174368, 0.24404999567195773, 0.25594999897293746, 0.24819999816827476, 0.24544999905629084, 0.24480000865878537, 0.2782500014291145, 0.2679999961401336, 0.24924999161157757, 0.276850005320739, 0.2566500043030828, 0.25969999842345715, 0.25969999842345715, 0.2482999989297241, 0.2476499939803034, 0.24900000425986946, 0.24784999550320208, 0.2636499993968755, 0.24745000700931996, 0.2661500038811937, 0.24569999368395656, 0.24540000595152378, 0.25425000058021396, 0.24824999854899943, 0.2429000087431632, 0.2482999989297241, 0.28049999673385173, 0.24915000540204346, 0.2511000056983903, 0.272299992502667, 0.25364999601151794, 0.2614000113680959, 0.2610000083222985, 0.2460999967297539, 0.2539000124670565, 0.24939999275375158, 0.2491999912308529, 0.2518999972380698, 0.24735000624787062, 0.277150007605087, 0.24689998826943338, 0.26015000184997916, 0.24640001356601715, 0.251049998041708, 0.2456500005791895, 0.27039999986300245, 0.24794999626465142, 0.2494999935152009, 0.2448499944875948, 0.2536999963922426, 0.24775000929366797],
  "QPU": "7000000",
  "Qubits": 5,
  "Queue durations [ms]": [0.0, 0.0, 0.0, 0.0, 0.0, 0.0, 0.0, 0.0, 0.0, 0.0, 0.0, 0.0, 0.0, 0.0, 0.0, 0.0, 0.0, 0.0, 0.0, 0.0, 0.0, 0.0, 0.0, 0.0, 0.0, 0.0, 0.0, 0.0, 0.0, 0.0, 0.0, 0.0, 0.0, 0.0, 0.0, 0.0, 0.0, 0.0, 0.0, 0.0, 0.0, 0.0, 0.0, 0.0, 0.0, 0.0, 0.0, 0.0, 0.0, 0.0, 0.0, 0.0, 0.0, 0.0, 0.0, 0.0, 0.0, 0.0, 0.0, 0.0, 0.0, 0.0, 0.0, 0.0, 0.0, 0.0, 0.0, 0.0, 0.0, 0.0, 0.0, 0.0, 0.0, 0.0, 0.0, 0.0, 0.0, 0.0, 0.0, 0.0, 0.0, 0.0, 0.0, 0.0, 0.0, 0.0, 0.0, 0.0, 0.0, 0.0, 0.0, 0.0, 0.0, 0.0, 0.0, 0.0, 0.0, 0.0, 0.0, 0.0, 0.0, 0.0, 0.0, 0.0, 0.0, 0.0, 0.0, 0.0, 0.0, 0.0, 0.0, 0.0, 0.0, 0.0, 0.0, 0.0, 0.0, 0.0, 0.0, 0.0, 0.0, 0.0, 0.0, 0.0, 0.0, 0.0, 0.0, 0.0, 0.0, 0.0, 0.0, 0.0, 0.0, 0.0, 0.0, 0.0, 0.0, 0.0, 0.0, 0.0, 0.0, 0.0, 0.0, 0.0, 0.0, 0.0, 0.0, 0.0, 0.0, 0.0, 0.0, 0.0, 0.0, 0.0, 0.0, 0.0, 0.0, 0.0, 0.0, 0.0, 0.0, 0.0, 0.0, 0.0, 0.0, 0.0, 0.0, 0.0, 0.0, 0.0, 0.0, 0.0, 0.0, 0.0, 0.0, 0.0, 0.0, 0.0, 0.0, 0.0, 0.0, 0.0, 0.0, 0.0, 0.0, 0.0, 0.0, 0.0, 0.0, 0.0, 0.0, 0.0, 0.0, 0.0, 0.0, 0.0, 0.0, 0.0, 0.0, 0.0, 0.0, 0.0, 0.0, 0.0, 0.0, 0.0, 0.0, 0.0, 0.0, 0.0, 0.0, 0.0, 0.0, 0.0, 0.0, 0.0, 0.0, 0.0, 0.0, 0.0, 0.0, 0.0, 0.0, 0.0, 0.0, 0.0, 0.0, 0.0, 0.0, 0.0, 0.0, 0.0, 0.0, 0.0, 0.0, 0.0, 0.0, 0.0, 0.0, 0.0, 0.0, 0.0, 0.0, 0.0, 0.0, 0.0, 0.0, 0.0, 0.0, 0.0, 0.0, 0.0, 0.0, 0.0, 0.0, 0.0, 0.0, 0.0, 0.0, 0.0, 0.0, 0.0, 0.0, 0.0, 0.0, 0.0, 0.0, 0.0, 0.0, 0.0, 0.0, 0.0, 0.0, 0.0, 0.0, 0.0, 0.0, 0.0, 0.0, 0.0, 0.0, 0.0, 0.0, 0.0, 0.0, 0.0, 0.0, 0.0, 0.0, 0.0, 0.0, 0.0, 0.0, 0.0, 0.0, 0.0, 0.0, 0.0, 0.0, 0.0, 0.0, 0.0, 0.0, 0.0, 0.0, 0.0, 0.0, 0.0, 0.0, 0.0, 0.0, 0.0, 0.0, 0.0, 0.0, 0.0, 0.0, 0.0, 0.0, 0.0, 0.0, 0.0, 0.0, 0.0, 0.0, 0.0, 0.0, 0.0, 0.0, 0.0, 0.0, 0.0, 0.0, 0.0, 0.0, 0.0, 0.0, 0.0, 0.0, 0.0, 0.0, 0.0, 0.0, 0.0, 0.0, 0.0, 0.0, 0.0, 0.0, 0.0, 0.0, 0.0, 0.0, 0.0, 0.0, 0.0, 0.0, 0.0, 0.0, 0.0, 0.0, 0.0, 0.0, 0.0, 0.0, 0.0, 0.0, 0.0, 0.0, 0.0, 0.0, 0.0, 0.0, 0.0, 0.0, 0.0, 0.0, 0.0, 0.0, 0.0, 0.0, 0.0, 0.0, 0.0, 0.0, 0.0, 0.0, 0.0, 0.0, 0.0, 0.0, 0.0, 0.0, 0.0, 0.0, 0.0, 0.0, 0.0, 0.0, 0.0, 0.0, 0.0, 0.0, 0.0, 0.0, 0.0, 0.0, 0.0, 0.0, 0.0, 0.0, 0.0, 0.0, 0.0, 0.0, 0.0, 0.0, 0.0, 0.0, 0.0, 0.0, 0.0, 0.0, 0.0, 0.0, 0.0, 0.0, 0.0, 0.0, 0.0, 0.0, 0.0, 0.0, 0.0, 0.0, 0.0, 0.0, 0.0, 0.0, 0.0, 0.0, 0.0, 0.0, 0.0, 0.0, 0.0, 0.0, 0.0, 0.0, 0.0, 0.0, 0.0, 0.0, 0.0, 0.0, 0.0, 0.0, 0.0, 0.0],
  "Shots": 4096,
  "Size": 5,
  "Total Algorithm duration [s]": 2.946,
  "Total Classic duration [s]": 2.827628849914705,
  "Total Quantum duration [s]": 0.11837115008529508
}
