{
  "Circuit execution durations [ms]": [0.2521999995224178, 0.2803999959724024, 0.25260000256821513, 0.2669000095920637, 0.2531000063754618, 0.27555000269785523, 0.25070000265259296, 0.2498499961802736, 0.24885000311769545, 0.24865000159479678, 0.25194999761879444, 0.2749999985098839, 0.24865000159479678, 0.24714999744901434, 0.24849999317666516, 0.2449000021442771, 0.24370000028284267, 0.24359999952139333, 0.25299999833805487, 0.2498500034562312, 0.24559999292250723, 0.2833500038832426, 0.2457999944454059, 0.2572999947005883, 0.2457000082358718, 0.2716000017244369, 0.24780000967439264, 0.24939999275375158, 0.24834999931044877, 0.2535499952500686, 0.24489999486831948, 0.2732499997364357, 0.24670000129844993, 0.24950000806711614, 0.24414999643340707, 0.24915000540204346, 0.24415000370936468, 0.2558999985922128, 0.277150007605087, 0.24744999245740473, 0.2505000011296943, 0.24905000464059412, 0.2539999986765906, 0.2452000044286251, 0.2464499993948266, 0.41909998981282115, 0.24765000125626102, 0.2485499862814322, 0.24670000129844993, 0.24824999854899943, 0.24849999317666516, 0.24370000028284267, 0.24465000751661137, 0.2469000028213486, 0.2529500052332878, 0.24634999863337725, 0.2592000018921681, 0.2693499918677844, 0.24614999711047858, 0.2470500039635226, 0.25504999211989343, 0.24385000142501667, 0.24575000134063885, 0.2513999934308231, 0.2689499960979447, 0.2521499991416931, 0.2501499984646216, 0.24730000586714596, 0.24485000176355243, 0.25055000151041895, 0.2420999953756109, 0.2855500060832128, 0.24359999952139333, 0.2568500058259815, 0.24809999740682542, 0.24775000201771036, 0.2707499952521175, 0.23364999651676044, 0.37570000858977437, 0.24950000806711614, 0.23990000045159832, 0.2578999992692843, 0.24264999956358224, 0.2544999879319221, 0.24839999241521582, 0.24169999232981354, 0.25195000489475206, 0.2494999935152009, 0.25720000121509656, 0.2532500075176358, 0.24715000472497195, 0.24315001064678654, 0.24110000231303275, 0.24370000755880028, 0.21695000032195821, 0.2515499945729971, 0.24539999867556617, 0.2582000015536323, 0.2569999924162403, 0.2514000007067807, 0.29085000278428197, 0.24784999550320208, 0.2443000048515387, 0.2444500059937127, 0.24524999753339216, 0.25329999334644526, 0.24855000083334744, 0.24330000451300293, 0.24014999507926404, 0.24529999791411683, 0.2436500071780756, 0.2394499970250763, 0.24435000523226336, 0.28234999626874924, 0.2506500022718683, 0.24905000464059412, 0.24359999952139333, 0.24669999402249232, 0.2485999939381145, 0.2440999960526824, 0.2757500042207539, 0.24869999469956383, 0.25004999770317227, 0.23889999283710495, 0.24879998818505555, 0.2506500022718683, 0.27709999994840473, 0.2521499991416931, 0.2536000029067509, 0.24890000349842012, 0.2835500054061413, 0.25070000265259296, 0.26315001014154404, 0.2499999973224476, 0.251150006079115, 0.24590000248281285, 0.2543500013416633, 0.2535499952500686, 0.2537500113248825, 0.27430000045569614, 0.2574500103946775, 0.2532499929657206, 0.2504500007489696, 0.24580000172136351, 0.25800000003073364, 0.2606000052765012, 0.24820000544423237, 0.2573999954620376, 0.2526500029489398, 0.2674999996088445, 0.25534999440424144, 0.25954999728128314, 0.2862499968614429, 0.24399999529123306, 0.2541499998187646, 0.2481499977875501, 0.2529499906813726, 0.2474999928381294, 0.25764999736566097, 0.25174999609589577, 0.24960000155260786, 0.25329999334644526, 0.25040000036824495, 0.24744999245740473, 0.24450000637443736, 0.27645000227494165, 0.24759999359957874, 0.2467500016791746, 0.24795000354060903, 0.2506500095478259, 0.2533999941078946, 0.2477999951224774, 0.2520499983802438, 0.2538999979151413, 0.2481499977875501, 0.24854999355738983, 0.2450499960104935, 0.24820001272019, 0.24685000244062394, 0.24874998780433089, 0.24669999402249232, 0.2453500055707991, 0.246899995545391, 0.29179999546613544, 0.25469998945482075, 0.2698499956750311, 0.2476499939803034, 0.2497000023140572, 0.2672500122571364, 0.24589999520685524, 0.25159999495372176, 0.25064998771995306, 0.25320000713691115, 0.26500000240048394, 0.24280000070575625, 0.2492500061634928, 0.2533999941078946, 0.2561999863246456, 0.2820499939844012, 0.2486000012140721, 0.2450500032864511, 0.29105000430718064, 0.4327500064391643, 0.25645000278018415, 0.25275000371038914, 0.25055000151041895, 0.24865000159479678, 0.24739999207668006, 0.2499999973224476, 0.24789999588392675, 0.251300007221289, 0.280100000964012, 0.2489500038791448, 0.2531500067561865, 0.23940000392030925, 0.24774999474175274, 0.247199997829739, 0.24235000455519184, 0.2515500018489547, 0.24655000015627593, 0.24755000049481168, 0.24095000117085874, 0.25255000218749046, 0.24680000933585688, 0.2484500000718981, 0.25039999309228733, 0.2487500023562461, 0.2436500071780756, 0.2505000011296943, 0.2489500038791448, 0.2486000012140721, 0.27985000633634627, 0.25689999893074855, 0.2486500088707544, 0.2425499988021329, 0.27150000096298754, 0.2245499999844469, 0.4009000113001093, 0.2481499977875501, 0.2493499923730269, 0.24509999639121816, 0.2773500091279857, 0.24964999465737492, 0.2523500006645918, 0.2501499984646216, 0.25350000214530155, 0.24695000320207328, 0.2780499926302582, 0.2451999971526675, 0.2572999947005883, 0.24339999799849465, 0.24839999241521582, 0.2538499975344166, 0.2858499938156456, 0.259000007645227, 0.2556999970693141, 0.25395000557182357, 0.2524500014260411, 0.24370000755880028, 0.2458500093780458, 0.2542500078561716, 0.2531500067561865, 0.2443999983370304, 0.2847500072675757, 0.24560000019846484, 0.25290000485256314, 0.24819999816827476, 0.2739999981713481, 0.2503499999875203, 0.24845000734785572, 0.2518999972380698, 0.25610000011511147, 0.25090000417549163, 0.251750010647811, 0.25249998725485057, 0.2764999953797087, 0.24890000349842012, 0.2527999895391986, 0.2440000098431483, 0.24900000425986946, 0.27055000828113407, 0.25135000760201365, 0.24465000751661137, 0.3897500137099996, 0.25519999326206744, 0.2460999967297539, 0.24385000870097429, 0.2506500022718683, 0.24515000404790044, 0.24080000002868474, 0.25610000011511147, 0.2558999985922128, 0.2507499884814024, 0.37770000199088827, 0.2555999963078648, 0.25055000151041895, 0.2538499975344166, 0.2511000056983903, 0.25299999833805487, 0.24580000172136351, 0.24979999579954892, 0.2521000133128837, 0.24664999364176765, 0.27570000384002924, 0.2503499999875203, 0.2537499967729673, 0.27939999563386664, 0.26024998805951327, 0.2566499897511676, 0.2521499991416931, 0.2508000034140423, 0.25615000049583614, 0.2597499988041818, 0.2477999951224774, 0.24634999863337725, 0.2539999986765906, 0.25224999990314245, 0.2512499922886491, 0.2523000002838671, 0.27815000794362277, 0.24920000578276813, 0.2502999996067956, 0.2600500010885298, 0.24824999854899943, 0.2536000101827085, 0.2530999990995042, 0.2456499933032319, 0.2542000001994893, 0.2558000123826787, 0.24294999457197264, 0.24560000747442245, 0.2490499973646365, 0.2743500081123784, 0.24979999579954892, 0.2481499977875501, 0.24280000798171386, 0.24804999702610075, 0.24724999821046367, 0.2519999979995191, 0.2810000005410984, 0.25845000345725566, 0.2509500045562163, 0.25135000760201365, 0.2534500090405345, 0.25305000599473715, 0.34714999492280185, 0.25535000895615667, 0.2489500038791448, 0.2526500029489398, 0.24909999774536118, 0.24865000159479678, 0.2505000011296943, 0.2523000002838671, 0.25555001047905535, 0.24809999740682542, 0.2589999930933118, 0.24500000290572643, 0.2521999995224178, 0.2802500093821436, 0.2649500092957169, 0.25085000379476696, 0.24869998742360622, 0.2573999954620376, 0.25159999495372176, 0.25174999609589577, 0.24639999901410192, 0.25260000256821513, 0.25445000210311264, 0.2559000058681704, 0.2549499913584441, 0.2381999947829172, 0.2577499981271103, 0.24639999901410192, 0.25409999943803996, 0.2517000102670863, 0.25349999486934394, 0.2521999995224178, 0.2627500070957467, 0.2502999996067956, 0.2798999994411133, 0.2475500077707693, 0.25874999118968844, 0.24695000320207328, 0.24899999698391184, 0.2562500085332431, 0.2524499868741259, 0.25504999211989343, 0.26035000337287784, 0.24375000066356733, 0.25270000332966447, 0.2745500023593195, 0.25024999922607094, 0.24745000700931996, 0.25159999495372176, 0.37360001442721114, 0.24929999199230224, 0.28050000400980935, 0.25255000218749046, 0.2449000094202347, 0.2343500018469058, 0.24824999854899943, 0.2487500023562461, 0.3607500038924627, 0.2522000067983754, 0.28789999487344176, 0.24339999799849465, 0.24759999359957874, 0.3837999975075945, 0.2494999935152009, 0.28744999872287735, 0.24834999931044877, 0.2861499960999936, 0.37910000537522137, 0.25290000485256314, 0.2816499982145615, 0.2562500012572855, 0.3049500082852319, 0.26869999419432133, 0.25445000210311264, 0.24444999871775508, 0.2499999973224476, 0.3460500010987744, 0.21700000070268288, 0.24780000967439264, 0.2921499981312081, 0.25705000734888017, 0.2461500043864362, 0.2228500015917234, 0.2509500045562163, 0.29815000016242266, 0.25094999000430107, 0.3006999904755503, 0.3169999981764704, 0.2284500005771406, 0.25335000827908516, 0.26030000299215317, 0.2539999986765906, 0.2549500059103593, 0.2681500045582652, 0.2523000002838671, 0.2571499935584143, 0.25254998763557523, 0.24695000320207328, 0.25159999495372176, 0.2529500052332878, 0.283950001175981, 0.255300008575432, 0.24885000311769545, 0.2536999963922426, 0.2523000002838671, 0.25845000345725566, 0.2761999930953607, 0.27504999161465093, 0.2537499967729673, 0.25209999876096845, 0.27359998784959316, 0.25019999884534627, 0.2604000037536025, 0.2504500007489696, 0.25784999888855964, 0.24880000273697078, 0.2487500023562461, 0.2475500077707693, 0.26024998805951327, 0.2534500090405345, 0.2603999892016873, 0.25815000117290765, 0.2538499975344166, 0.25314999220427126, 0.2475500077707693, 0.24480000138282776, 0.24639999901410192, 0.2589000068837777, 0.2580499931355007, 0.2512500068405643, 0.27725000109057873, 0.2489500038791448, 0.25439998717047274],
  "Depth": 12.5,
  "Expectation Value": -5.711943626403809,
  "Optimal Expectation Value": -6.026674270629883,
  "Optimizer durations [ms]": [6.234, 6.488, 6.256, 6.187, 6.291, 6.668, 5.936, 6.319, 6.129, 5.711, 6.057, 6.771, 6.004, 5.824, 6.009, 5.855, 5.967, 6.149, 5.863, 6.385, 5.936, 6.812, 5.757, 6.194, 5.952, 6.715, 6.031, 5.833, 6.219, 5.987, 5.895, 6.474, 5.939, 6.247, 5.839, 6.283, 6.091, 5.795, 6.823, 6.007, 5.934, 6.134, 5.805, 6.07, 6.18, 9.149, 6.252, 6.056, 6.007, 6.259, 5.841, 6.587, 5.684, 6.155, 5.999, 6.251, 6.143, 6.499, 5.911, 5.89, 6.152, 5.767, 6.392, 6.01, 6.409, 6.236, 5.947, 5.716, 5.966, 6.01, 5.847, 7.142, 5.568, 6.32, 6.196, 5.999, 6.483, 20.344, 9.004, 5.822, 6.019, 6.288, 5.921, 6.099, 5.745, 6.14, 6.403, 6.161, 6.347, 6.126, 5.647, 6.018, 6.222, 5.62, 9.714, 6.211, 7.714, 6.208, 6.593, 6.108, 6.928, 5.869, 6.254, 5.745, 6.154, 5.847, 6.199, 6.438, 5.919, 5.847, 5.925, 5.88, 6.176, 6.632, 5.83, 6.185, 5.829, 6.117, 6.362, 5.975, 6.719, 5.799, 5.92, 7.908, 6.936, 6.444, 6.537, 6.271, 6.038, 5.783, 6.716, 6.145, 6.446, 5.862, 6.154, 5.858, 6.299, 6.037, 6.12, 6.594, 6.277, 5.991, 6.094, 5.835, 6.2, 6.171, 6.043, 6.088, 6.618, 6.561, 5.978, 6.435, 6.612, 6.031, 6.064, 6.292, 5.931, 6.092, 6.263, 5.859, 6.306, 6.191, 5.994, 5.995, 5.759, 6.748, 5.851, 5.917, 6.197, 6.203, 6.089, 5.671, 6.28, 6.306, 6.023, 5.617, 6.164, 5.782, 6.089, 6.582, 5.857, 6.212, 5.739, 7.371, 5.928, 6.655, 5.557, 5.921, 6.574, 5.879, 6.171, 5.923, 5.937, 6.265, 5.961, 6.336, 5.751, 6.503, 6.494, 6.123, 5.779, 6.884, 9.481, 5.954, 6.294, 5.831, 6.298, 6.068, 5.996, 5.892, 6.059, 6.629, 5.954, 6.189, 6.146, 5.999, 5.699, 5.919, 6.591, 6.087, 5.717, 5.951, 6.294, 6.161, 6.676, 5.795, 5.87, 6.153, 6.085, 5.973, 5.762, 6.78, 6.125, 6.023, 5.891, 6.817, 22.761, 9.029, 5.994, 6.014, 6.622, 6.401, 6.19, 5.812, 6.219, 5.843, 6.124, 6.437, 5.988, 6.356, 5.788, 5.988, 6.215, 6.793, 6.217, 6.175, 6.367, 5.705, 6.006, 6.005, 6.294, 6.097, 5.779, 6.977, 5.941, 6.139, 5.978, 6.698, 5.773, 6.29, 6.054, 6.118, 6.067, 6.008, 6.2, 6.842, 5.896, 5.997, 5.912, 5.955, 6.512, 5.919, 5.633, 8.85, 6.105, 5.704, 6.208, 6.536, 5.806, 5.903, 6.093, 6.263, 5.927, 8.749, 6.056, 6.218, 5.898, 6.212, 6.132, 6.128, 6.157, 5.617, 6.255, 6.593, 6.222, 6.034, 6.638, 6.427, 6.083, 6.052, 6.395, 6.26, 6.202, 5.927, 5.983, 6.905, 6.197, 5.962, 6.197, 6.722, 5.918, 6.165, 6.118, 6.082, 5.973, 6.272, 6.262, 6.133, 5.93, 5.861, 6.272, 5.809, 6.276, 6.343, 5.976, 6.621, 6.14, 6.051, 6.077, 6.624, 6.335, 5.958, 6.085, 6.122, 5.901, 8.129, 5.811, 6.335, 6.064, 5.777, 5.884, 6.388, 5.724, 6.45, 5.905, 6.137, 5.782, 6.227, 6.711, 6.188, 14.641, 6.028, 6.205, 5.824, 6.533, 5.838, 6.01, 5.995, 6.364, 5.996, 6.381, 6.17, 5.962, 6.217, 6.339, 5.931, 6.208, 5.958, 6.073, 6.515, 6.181, 6.012, 5.946, 6.245, 6.173, 6.069, 6.049, 5.894, 6.113, 6.169, 6.676, 5.8, 6.152, 6.068, 8.519, 5.717, 6.676, 6.179, 6.088, 16.277, 5.958, 6.313, 7.853, 6.294, 6.601, 5.853, 6.148, 8.355, 6.275, 6.783, 5.82, 6.94, 21.073, 5.929, 7.227, 6.22, 6.795, 6.808, 6.057, 6.198, 5.81, 8.117, 15.961, 5.98, 6.945, 6.322, 5.659, 8.696, 6.052, 6.947, 5.956, 7.166, 20.96, 10.418, 8.044, 6.277, 5.937, 6.26, 6.259, 6.217, 6.236, 5.684, 6.271, 5.771, 6.396, 6.902, 6.015, 6.077, 6.286, 6.149, 5.932, 6.555, 6.883, 5.929, 6.239, 6.533, 5.8, 6.373, 6.37, 6.453, 6.029, 6.372, 5.785, 6.259, 6.716, 6.21, 6.307, 6.12, 5.888, 6.099, 6.666, 6.25, 6.02, 6.306, 6.014, 6.462, 6.003, 6.179],
  "Optimizer iterations": 478,
  "Optimizer params": [0.9276784003658632, 0.4450799720388105, 0.9374829694272175, 0.01718634264987453, 0.05018230961255239, 0.08296316254213934, 0.7963902851287227, 0.030332469096598324, 0.7022454310435216, 0.09125089334047982, 0.9867400133128077, 0.5002230857981799, 0.5029769758091037, 0.9994085845308762, 0.9625015799905079, 0.31048153879986085, 0.5989244794697454, 0.20256764150883638, 0.7714201947781343, 0.5511680794903222],
  "P": 0,
  "Problem": "IC",
  "QJob durations [ms]": [0.2521999995224178, 0.2803999959724024, 0.25260000256821513, 0.2669000095920637, 0.2531000063754618, 0.27555000269785523, 0.25070000265259296, 0.2498499961802736, 0.24885000311769545, 0.24865000159479678, 0.25194999761879444, 0.2749999985098839, 0.24865000159479678, 0.24714999744901434, 0.24849999317666516, 0.2449000021442771, 0.24370000028284267, 0.24359999952139333, 0.25299999833805487, 0.2498500034562312, 0.24559999292250723, 0.2833500038832426, 0.2457999944454059, 0.2572999947005883, 0.2457000082358718, 0.2716000017244369, 0.24780000967439264, 0.24939999275375158, 0.24834999931044877, 0.2535499952500686, 0.24489999486831948, 0.2732499997364357, 0.24670000129844993, 0.24950000806711614, 0.24414999643340707, 0.24915000540204346, 0.24415000370936468, 0.2558999985922128, 0.277150007605087, 0.24744999245740473, 0.2505000011296943, 0.24905000464059412, 0.2539999986765906, 0.2452000044286251, 0.2464499993948266, 0.41909998981282115, 0.24765000125626102, 0.2485499862814322, 0.24670000129844993, 0.24824999854899943, 0.24849999317666516, 0.24370000028284267, 0.24465000751661137, 0.2469000028213486, 0.2529500052332878, 0.24634999863337725, 0.2592000018921681, 0.2693499918677844, 0.24614999711047858, 0.2470500039635226, 0.25504999211989343, 0.24385000142501667, 0.24575000134063885, 0.2513999934308231, 0.2689499960979447, 0.2521499991416931, 0.2501499984646216, 0.24730000586714596, 0.24485000176355243, 0.25055000151041895, 0.2420999953756109, 0.2855500060832128, 0.24359999952139333, 0.2568500058259815, 0.24809999740682542, 0.24775000201771036, 0.2707499952521175, 0.23364999651676044, 0.37570000858977437, 0.24950000806711614, 0.23990000045159832, 0.2578999992692843, 0.24264999956358224, 0.2544999879319221, 0.24839999241521582, 0.24169999232981354, 0.25195000489475206, 0.2494999935152009, 0.25720000121509656, 0.2532500075176358, 0.24715000472497195, 0.24315001064678654, 0.24110000231303275, 0.24370000755880028, 0.21695000032195821, 0.2515499945729971, 0.24539999867556617, 0.2582000015536323, 0.2569999924162403, 0.2514000007067807, 0.29085000278428197, 0.24784999550320208, 0.2443000048515387, 0.2444500059937127, 0.24524999753339216, 0.25329999334644526, 0.24855000083334744, 0.24330000451300293, 0.24014999507926404, 0.24529999791411683, 0.2436500071780756, 0.2394499970250763, 0.24435000523226336, 0.28234999626874924, 0.2506500022718683, 0.24905000464059412, 0.24359999952139333, 0.24669999402249232, 0.2485999939381145, 0.2440999960526824, 0.2757500042207539, 0.24869999469956383, 0.25004999770317227, 0.23889999283710495, 0.24879998818505555, 0.2506500022718683, 0.27709999994840473, 0.2521499991416931, 0.2536000029067509, 0.24890000349842012, 0.2835500054061413, 0.25070000265259296, 0.26315001014154404, 0.2499999973224476, 0.251150006079115, 0.24590000248281285, 0.2543500013416633, 0.2535499952500686, 0.2537500113248825, 0.27430000045569614, 0.2574500103946775, 0.2532499929657206, 0.2504500007489696, 0.24580000172136351, 0.25800000003073364, 0.2606000052765012, 0.24820000544423237, 0.2573999954620376, 0.2526500029489398, 0.2674999996088445, 0.25534999440424144, 0.25954999728128314, 0.2862499968614429, 0.24399999529123306, 0.2541499998187646, 0.2481499977875501, 0.2529499906813726, 0.2474999928381294, 0.25764999736566097, 0.25174999609589577, 0.24960000155260786, 0.25329999334644526, 0.25040000036824495, 0.24744999245740473, 0.24450000637443736, 0.27645000227494165, 0.24759999359957874, 0.2467500016791746, 0.24795000354060903, 0.2506500095478259, 0.2533999941078946, 0.2477999951224774, 0.2520499983802438, 0.2538999979151413, 0.2481499977875501, 0.24854999355738983, 0.2450499960104935, 0.24820001272019, 0.24685000244062394, 0.24874998780433089, 0.24669999402249232, 0.2453500055707991, 0.246899995545391, 0.29179999546613544, 0.25469998945482075, 0.2698499956750311, 0.2476499939803034, 0.2497000023140572, 0.2672500122571364, 0.24589999520685524, 0.25159999495372176, 0.25064998771995306, 0.25320000713691115, 0.26500000240048394, 0.24280000070575625, 0.2492500061634928, 0.2533999941078946, 0.2561999863246456, 0.2820499939844012, 0.2486000012140721, 0.2450500032864511, 0.29105000430718064, 0.4327500064391643, 0.25645000278018415, 0.25275000371038914, 0.25055000151041895, 0.24865000159479678, 0.24739999207668006, 0.2499999973224476, 0.24789999588392675, 0.251300007221289, 0.280100000964012, 0.2489500038791448, 0.2531500067561865, 0.23940000392030925, 0.24774999474175274, 0.247199997829739, 0.24235000455519184, 0.2515500018489547, 0.24655000015627593, 0.24755000049481168, 0.24095000117085874, 0.25255000218749046, 0.24680000933585688, 0.2484500000718981, 0.25039999309228733, 0.2487500023562461, 0.2436500071780756, 0.2505000011296943, 0.2489500038791448, 0.2486000012140721, 0.27985000633634627, 0.25689999893074855, 0.2486500088707544, 0.2425499988021329, 0.27150000096298754, 0.2245499999844469, 0.4009000113001093, 0.2481499977875501, 0.2493499923730269, 0.24509999639121816, 0.2773500091279857, 0.24964999465737492, 0.2523500006645918, 0.2501499984646216, 0.25350000214530155, 0.24695000320207328, 0.2780499926302582, 0.2451999971526675, 0.2572999947005883, 0.24339999799849465, 0.24839999241521582, 0.2538499975344166, 0.2858499938156456, 0.259000007645227, 0.2556999970693141, 0.25395000557182357, 0.2524500014260411, 0.24370000755880028, 0.2458500093780458, 0.2542500078561716, 0.2531500067561865, 0.2443999983370304, 0.2847500072675757, 0.24560000019846484, 0.25290000485256314, 0.24819999816827476, 0.2739999981713481, 0.2503499999875203, 0.24845000734785572, 0.2518999972380698, 0.25610000011511147, 0.25090000417549163, 0.251750010647811, 0.25249998725485057, 0.2764999953797087, 0.24890000349842012, 0.2527999895391986, 0.2440000098431483, 0.24900000425986946, 0.27055000828113407, 0.25135000760201365, 0.24465000751661137, 0.3897500137099996, 0.25519999326206744, 0.2460999967297539, 0.24385000870097429, 0.2506500022718683, 0.24515000404790044, 0.24080000002868474, 0.25610000011511147, 0.2558999985922128, 0.2507499884814024, 0.37770000199088827, 0.2555999963078648, 0.25055000151041895, 0.2538499975344166, 0.2511000056983903, 0.25299999833805487, 0.24580000172136351, 0.24979999579954892, 0.2521000133128837, 0.24664999364176765, 0.27570000384002924, 0.2503499999875203, 0.2537499967729673, 0.27939999563386664, 0.26024998805951327, 0.2566499897511676, 0.2521499991416931, 0.2508000034140423, 0.25615000049583614, 0.2597499988041818, 0.2477999951224774, 0.24634999863337725, 0.2539999986765906, 0.25224999990314245, 0.2512499922886491, 0.2523000002838671, 0.27815000794362277, 0.24920000578276813, 0.2502999996067956, 0.2600500010885298, 0.24824999854899943, 0.2536000101827085, 0.2530999990995042, 0.2456499933032319, 0.2542000001994893, 0.2558000123826787, 0.24294999457197264, 0.24560000747442245, 0.2490499973646365, 0.2743500081123784, 0.24979999579954892, 0.2481499977875501, 0.24280000798171386, 0.24804999702610075, 0.24724999821046367, 0.2519999979995191, 0.2810000005410984, 0.25845000345725566, 0.2509500045562163, 0.25135000760201365, 0.2534500090405345, 0.25305000599473715, 0.34714999492280185, 0.25535000895615667, 0.2489500038791448, 0.2526500029489398, 0.24909999774536118, 0.24865000159479678, 0.2505000011296943, 0.2523000002838671, 0.25555001047905535, 0.24809999740682542, 0.2589999930933118, 0.24500000290572643, 0.2521999995224178, 0.2802500093821436, 0.2649500092957169, 0.25085000379476696, 0.24869998742360622, 0.2573999954620376, 0.25159999495372176, 0.25174999609589577, 0.24639999901410192, 0.25260000256821513, 0.25445000210311264, 0.2559000058681704, 0.2549499913584441, 0.2381999947829172, 0.2577499981271103, 0.24639999901410192, 0.25409999943803996, 0.2517000102670863, 0.25349999486934394, 0.2521999995224178, 0.2627500070957467, 0.2502999996067956, 0.2798999994411133, 0.2475500077707693, 0.25874999118968844, 0.24695000320207328, 0.24899999698391184, 0.2562500085332431, 0.2524499868741259, 0.25504999211989343, 0.26035000337287784, 0.24375000066356733, 0.25270000332966447, 0.2745500023593195, 0.25024999922607094, 0.24745000700931996, 0.25159999495372176, 0.37360001442721114, 0.24929999199230224, 0.28050000400980935, 0.25255000218749046, 0.2449000094202347, 0.2343500018469058, 0.24824999854899943, 0.2487500023562461, 0.3607500038924627, 0.2522000067983754, 0.28789999487344176, 0.24339999799849465, 0.24759999359957874, 0.3837999975075945, 0.2494999935152009, 0.28744999872287735, 0.24834999931044877, 0.2861499960999936, 0.37910000537522137, 0.25290000485256314, 0.2816499982145615, 0.2562500012572855, 0.3049500082852319, 0.26869999419432133, 0.25445000210311264, 0.24444999871775508, 0.2499999973224476, 0.3460500010987744, 0.21700000070268288, 0.24780000967439264, 0.2921499981312081, 0.25705000734888017, 0.2461500043864362, 0.2228500015917234, 0.2509500045562163, 0.29815000016242266, 0.25094999000430107, 0.3006999904755503, 0.3169999981764704, 0.2284500005771406, 0.25335000827908516, 0.26030000299215317, 0.2539999986765906, 0.2549500059103593, 0.2681500045582652, 0.2523000002838671, 0.2571499935584143, 0.25254998763557523, 0.24695000320207328, 0.25159999495372176, 0.2529500052332878, 0.283950001175981, 0.255300008575432, 0.24885000311769545, 0.2536999963922426, 0.2523000002838671, 0.25845000345725566, 0.2761999930953607, 0.27504999161465093, 0.2537499967729673, 0.25209999876096845, 0.27359998784959316, 0.25019999884534627, 0.2604000037536025, 0.2504500007489696, 0.25784999888855964, 0.24880000273697078, 0.2487500023562461, 0.2475500077707693, 0.26024998805951327, 0.2534500090405345, 0.2603999892016873, 0.25815000117290765, 0.2538499975344166, 0.25314999220427126, 0.2475500077707693, 0.24480000138282776, 0.24639999901410192, 0.2589000068837777, 0.2580499931355007, 0.2512500068405643, 0.27725000109057873, 0.2489500038791448, 0.25439998717047274],
  "QPU": "7000000",
  "Qubits": 5,
  "Queue durations [ms]": [0.0, 0.0, 0.0, 0.0, 0.0, 0.0, 0.0, 0.0, 0.0, 0.0, 0.0, 0.0, 0.0, 0.0, 0.0, 0.0, 0.0, 0.0, 0.0, 0.0, 0.0, 0.0, 0.0, 0.0, 0.0, 0.0, 0.0, 0.0, 0.0, 0.0, 0.0, 0.0, 0.0, 0.0, 0.0, 0.0, 0.0, 0.0, 0.0, 0.0, 0.0, 0.0, 0.0, 0.0, 0.0, 0.0, 0.0, 0.0, 0.0, 0.0, 0.0, 0.0, 0.0, 0.0, 0.0, 0.0, 0.0, 0.0, 0.0, 0.0, 0.0, 0.0, 0.0, 0.0, 0.0, 0.0, 0.0, 0.0, 0.0, 0.0, 0.0, 0.0, 0.0, 0.0, 0.0, 0.0, 0.0, 0.0, 0.0, 0.0, 0.0, 0.0, 0.0, 0.0, 0.0, 0.0, 0.0, 0.0, 0.0, 0.0, 0.0, 0.0, 0.0, 0.0, 0.0, 0.0, 0.0, 0.0, 0.0, 0.0, 0.0, 0.0, 0.0, 0.0, 0.0, 0.0, 0.0, 0.0, 0.0, 0.0, 0.0, 0.0, 0.0, 0.0, 0.0, 0.0, 0.0, 0.0, 0.0, 0.0, 0.0, 0.0, 0.0, 0.0, 0.0, 0.0, 0.0, 0.0, 0.0, 0.0, 0.0, 0.0, 0.0, 0.0, 0.0, 0.0, 0.0, 0.0, 0.0, 0.0, 0.0, 0.0, 0.0, 0.0, 0.0, 0.0, 0.0, 0.0, 0.0, 0.0, 0.0, 0.0, 0.0, 0.0, 0.0, 0.0, 0.0, 0.0, 0.0, 0.0, 0.0, 0.0, 0.0, 0.0, 0.0, 0.0, 0.0, 0.0, 0.0, 0.0, 0.0, 0.0, 0.0, 0.0, 0.0, 0.0, 0.0, 0.0, 0.0, 0.0, 0.0, 0.0, 0.0, 0.0, 0.0, 0.0, 0.0, 0.0, 0.0, 0.0, 0.0, 0.0, 0.0, 0.0, 0.0, 0.0, 0.0, 0.0, 0.0, 0.0, 0.0, 0.0, 0.0, 0.0, 0.0, 0.0, 0.0, 0.0, 0.0, 0.0, 0.0, 0.0, 0.0, 0.0, 0.0, 0.0, 0.0, 0.0, 0.0, 0.0, 0.0, 0.0, 0.0, 0.0, 0.0, 0.0, 0.0, 0.0, 0.0, 0.0, 0.0, 0.0, 0.0, 0.0, 0.0, 0.0, 0.0, 0.0, 0.0, 0.0, 0.0, 0.0, 0.0, 0.0, 0.0, 0.0, 0.0, 0.0, 0.0, 0.0, 0.0, 0.0, 0.0, 0.0, 0.0, 0.0, 0.0, 0.0, 0.0, 0.0, 0.0, 0.0, 0.0, 0.0, 0.0, 0.0, 0.0, 0.0, 0.0, 0.0, 0.0, 0.0, 0.0, 0.0, 0.0, 0.0, 0.0, 0.0, 0.0, 0.0, 0.0, 0.0, 0.0, 0.0, 0.0, 0.0, 0.0, 0.0, 0.0, 0.0, 0.0, 0.0, 0.0, 0.0, 0.0, 0.0, 0.0, 0.0, 0.0, 0.0, 0.0, 0.0, 0.0, 0.0, 0.0, 0.0, 0.0, 0.0, 0.0, 0.0, 0.0, 0.0, 0.0, 0.0, 0.0, 0.0, 0.0, 0.0, 0.0, 0.0, 0.0, 0.0, 0.0, 0.0, 0.0, 0.0, 0.0, 0.0, 0.0, 0.0, 0.0, 0.0, 0.0, 0.0, 0.0, 0.0, 0.0, 0.0, 0.0, 0.0, 0.0, 0.0, 0.0, 0.0, 0.0, 0.0, 0.0, 0.0, 0.0, 0.0, 0.0, 0.0, 0.0, 0.0, 0.0, 0.0, 0.0, 0.0, 0.0, 0.0, 0.0, 0.0, 0.0, 0.0, 0.0, 0.0, 0.0, 0.0, 0.0, 0.0, 0.0, 0.0, 0.0, 0.0, 0.0, 0.0, 0.0, 0.0, 0.0, 0.0, 0.0, 0.0, 0.0, 0.0, 0.0, 0.0, 0.0, 0.0, 0.0, 0.0, 0.0, 0.0, 0.0, 0.0, 0.0, 0.0, 0.0, 0.0, 0.0, 0.0, 0.0, 0.0, 0.0, 0.0, 0.0, 0.0, 0.0, 0.0, 0.0, 0.0, 0.0, 0.0, 0.0, 0.0, 0.0, 0.0, 0.0, 0.0, 0.0, 0.0, 0.0, 0.0, 0.0, 0.0, 0.0, 0.0, 0.0, 0.0, 0.0, 0.0, 0.0, 0.0, 0.0, 0.0, 0.0, 0.0, 0.0, 0.0, 0.0, 0.0, 0.0, 0.0, 0.0, 0.0, 0.0, 0.0, 0.0, 0.0, 0.0, 0.0, 0.0, 0.0, 0.0, 0.0, 0.0, 0.0, 0.0, 0.0, 0.0, 0.0, 0.0, 0.0, 0.0, 0.0, 0.0, 0.0, 0.0, 0.0, 0.0, 0.0, 0.0, 0.0, 0.0, 0.0, 0.0, 0.0, 0.0, 0.0],
  "Shots": 4096,
  "Size": 5,
  "Total Algorithm duration [s]": 3.075,
  "Total Classic duration [s]": 2.952148499901523,
  "Total Quantum duration [s]": 0.12285150009847712
}
