{
  "Circuit execution durations [ms]": [61.88631057739258, 61.28072738647461, 61.85007095336914, 60.70137023925781, 60.61744689941406, 60.76955795288086, 59.83090400695801, 61.34533882141113, 60.064077377319336, 59.62395668029785, 60.597896575927734, 128.12471389770508, 60.012102127075195, 59.91554260253906, 60.35733222961426, 59.874773025512695, 59.389352798461914, 59.821367263793945, 59.61179733276367, 59.78727340698242, 60.08601188659668, 59.629201889038086, 60.4097843170166, 60.117244720458984, 60.00804901123047, 59.50021743774414, 124.46379661560059, 59.88812446594238, 59.947967529296875, 60.40048599243164, 59.79585647583008, 59.89837646484375, 59.479713439941406, 59.82184410095215, 60.13345718383789, 60.20379066467285, 60.17947196960449, 60.4708194732666, 59.84926223754883, 60.01639366149902, 60.08291244506836, 59.82017517089844, 124.78971481323242, 60.149431228637695, 60.55569648742676, 60.613393783569336, 60.29462814331055, 60.053348541259766, 59.6158504486084, 60.384273529052734, 59.79776382446289, 60.35327911376953, 59.53216552734375, 59.96131896972656, 60.13131141662598, 60.391902923583984, 60.14728546142578, 59.911489486694336, 59.850215911865234, 59.66830253601074, 123.91281127929688, 59.78965759277344, 60.012102127075195, 59.71336364746094, 60.45651435852051, 60.29224395751953, 59.55648422241211, 59.853315353393555, 59.92412567138672, 60.230255126953125, 60.487985610961914, 60.72854995727539, 60.20998954772949, 59.84640121459961, 59.633731842041016, 123.77238273620605, 59.54122543334961, 60.10079383850098, 60.07242202758789, 60.04691123962402, 60.07504463195801, 59.903860092163086, 59.96394157409668, 60.03546714782715, 59.98539924621582, 60.585975646972656, 60.155630111694336, 59.32760238647461, 59.838056564331055, 59.62538719177246, 124.03297424316406, 60.58311462402344, 60.15300750732422, 60.31060218811035, 60.35184860229492, 59.9515438079834, 59.30161476135254, 60.04142761230469, 59.79657173156738, 59.83257293701172, 59.97276306152344, 59.29923057556152, 59.623003005981445, 59.860944747924805, 59.76128578186035, 59.494972229003906, 125.38313865661621, 59.760332107543945, 59.87906455993652, 60.31322479248047, 59.80324745178223, 60.004472732543945, 60.19997596740723, 60.24527549743652, 60.003042221069336, 60.382843017578125, 59.54122543334961, 59.340715408325195, 60.17732620239258, 59.801340103149414, 60.23454666137695, 60.26411056518555, 60.01019477844238, 59.99302864074707, 124.12476539611816, 60.33039093017578, 60.237884521484375, 59.94725227355957, 59.86332893371582, 60.52708625793457, 59.75532531738281, 60.43863296508789, 59.8301887512207, 60.31680107116699, 59.74912643432617, 60.49799919128418, 59.441566467285156, 59.35525894165039, 60.265541076660156, 123.98982048034668, 59.94462966918945, 60.62483787536621, 60.40382385253906, 60.269832611083984, 60.12129783630371, 59.76986885070801, 60.041189193725586, 60.22524833679199, 60.71877479553223],
  "Depth": 221.0,
  "Expectation Value": -15.298828125,
  "Optimal Expectation Value": -18.0,
  "Optimizer durations [ms]": [79.021, 78.156, 79.1, 77.187, 77.061, 77.277, 76.455, 77.96, 76.588, 76.255, 77.109, 145.123, 76.805, 76.52, 77.031, 76.783, 75.951, 76.351, 76.27, 76.306, 76.708, 76.235, 77.299, 76.965, 76.81, 76.13, 141.115, 76.672, 76.58, 77.011, 76.435, 76.497, 76.288, 76.391, 76.854, 76.9, 76.798, 77.091, 76.583, 76.701, 76.747, 76.488, 141.308, 76.902, 77.581, 77.487, 77.093, 76.921, 76.487, 77.088, 76.563, 77.108, 76.197, 76.68, 76.676, 76.972, 76.858, 76.538, 76.483, 76.62, 140.767, 76.596, 76.517, 76.355, 77.042, 76.674, 76.251, 76.542, 76.571, 76.971, 77.141, 77.119, 76.903, 76.574, 76.314, 140.706, 76.396, 76.864, 76.773, 76.728, 76.676, 76.604, 76.764, 76.589, 76.601, 77.414, 76.833, 75.958, 76.345, 76.321, 140.489, 77.476, 76.809, 77.138, 77.106, 76.559, 76.038, 77.08, 76.775, 76.557, 76.622, 75.945, 76.291, 76.568, 76.317, 76.081, 142.027, 76.401, 76.408, 77.241, 76.611, 76.746, 76.787, 77.016, 76.691, 77.079, 76.117, 75.959, 76.759, 76.586, 76.802, 76.957, 76.74, 76.957, 141.004, 77.21, 76.99, 76.672, 76.623, 77.138, 76.532, 77.157, 76.427, 76.957, 76.461, 77.249, 76.145, 75.933, 76.77, 140.682, 76.768, 77.13, 77.104, 76.825, 76.505, 76.375, 76.822, 77.057, 77.649],
  "Optimizer iterations": 149,
  "Optimizer params": [0.9375891468745451, 0.5919886032017124, 0.7990355974371963, 0.5897857760927326, 0.04535327806647117, 0.5426378343520072],
  "P": 3,
  "Problem": "MCP",
  "QJob durations [ms]": [61.88631057739258, 61.28072738647461, 61.85007095336914, 60.70137023925781, 60.61744689941406, 60.76955795288086, 59.83090400695801, 61.34533882141113, 60.064077377319336, 59.62395668029785, 60.597896575927734, 128.12471389770508, 60.012102127075195, 59.91554260253906, 60.35733222961426, 59.874773025512695, 59.389352798461914, 59.821367263793945, 59.61179733276367, 59.78727340698242, 60.08601188659668, 59.629201889038086, 60.4097843170166, 60.117244720458984, 60.00804901123047, 59.50021743774414, 124.46379661560059, 59.88812446594238, 59.947967529296875, 60.40048599243164, 59.79585647583008, 59.89837646484375, 59.479713439941406, 59.82184410095215, 60.13345718383789, 60.20379066467285, 60.17947196960449, 60.4708194732666, 59.84926223754883, 60.01639366149902, 60.08291244506836, 59.82017517089844, 124.78971481323242, 60.149431228637695, 60.55569648742676, 60.613393783569336, 60.29462814331055, 60.053348541259766, 59.6158504486084, 60.384273529052734, 59.79776382446289, 60.35327911376953, 59.53216552734375, 59.96131896972656, 60.13131141662598, 60.391902923583984, 60.14728546142578, 59.911489486694336, 59.850215911865234, 59.66830253601074, 123.91281127929688, 59.78965759277344, 60.012102127075195, 59.71336364746094, 60.45651435852051, 60.29224395751953, 59.55648422241211, 59.853315353393555, 59.92412567138672, 60.230255126953125, 60.487985610961914, 60.72854995727539, 60.20998954772949, 59.84640121459961, 59.633731842041016, 123.77238273620605, 59.54122543334961, 60.10079383850098, 60.07242202758789, 60.04691123962402, 60.07504463195801, 59.903860092163086, 59.96394157409668, 60.03546714782715, 59.98539924621582, 60.585975646972656, 60.155630111694336, 59.32760238647461, 59.838056564331055, 59.62538719177246, 124.03297424316406, 60.58311462402344, 60.15300750732422, 60.31060218811035, 60.35184860229492, 59.9515438079834, 59.30161476135254, 60.04142761230469, 59.79657173156738, 59.83257293701172, 59.97276306152344, 59.29923057556152, 59.623003005981445, 59.860944747924805, 59.76128578186035, 59.494972229003906, 125.38313865661621, 59.760332107543945, 59.87906455993652, 60.31322479248047, 59.80324745178223, 60.004472732543945, 60.19997596740723, 60.24527549743652, 60.003042221069336, 60.382843017578125, 59.54122543334961, 59.340715408325195, 60.17732620239258, 59.801340103149414, 60.23454666137695, 60.26411056518555, 60.01019477844238, 59.99302864074707, 124.12476539611816, 60.33039093017578, 60.237884521484375, 59.94725227355957, 59.86332893371582, 60.52708625793457, 59.75532531738281, 60.43863296508789, 59.8301887512207, 60.31680107116699, 59.74912643432617, 60.49799919128418, 59.441566467285156, 59.35525894165039, 60.265541076660156, 123.98982048034668, 59.94462966918945, 60.62483787536621, 60.40382385253906, 60.269832611083984, 60.12129783630371, 59.76986885070801, 60.041189193725586, 60.22524833679199, 60.71877479553223],
  "QPU": "9000001",
  "Qubits": 12,
  "Queue durations [ms]": [0.0, 0.0, 0.0, 0.0, 0.0, 0.0, 0.0, 0.0, 0.0, 0.0, 0.0, 0.0, 0.0, 0.0, 0.0, 0.0, 0.0, 0.0, 0.0, 0.0, 0.0, 0.0, 0.0, 0.0, 0.0, 0.0, 0.0, 0.0, 0.0, 0.0, 0.0, 0.0, 0.0, 0.0, 0.0, 0.0, 0.0, 0.0, 0.0, 0.0, 0.0, 0.0, 0.0, 0.0, 0.0, 0.0, 0.0, 0.0, 0.0, 0.0, 0.0, 0.0, 0.0, 0.0, 0.0, 0.0, 0.0, 0.0, 0.0, 0.0, 0.0, 0.0, 0.0, 0.0, 0.0, 0.0, 0.0, 0.0, 0.0, 0.0, 0.0, 0.0, 0.0, 0.0, 0.0, 0.0, 0.0, 0.0, 0.0, 0.0, 0.0, 0.0, 0.0, 0.0, 0.0, 0.0, 0.0, 0.0, 0.0, 0.0, 0.0, 0.0, 0.0, 0.0, 0.0, 0.0, 0.0, 0.0, 0.0, 0.0, 0.0, 0.0, 0.0, 0.0, 0.0, 0.0, 0.0, 0.0, 0.0, 0.0, 0.0, 0.0, 0.0, 0.0, 0.0, 0.0, 0.0, 0.0, 0.0, 0.0, 0.0, 0.0, 0.0, 0.0, 0.0, 0.0, 0.0, 0.0, 0.0, 0.0, 0.0, 0.0, 0.0, 0.0, 0.0, 0.0, 0.0, 0.0, 0.0, 0.0, 0.0, 0.0, 0.0, 0.0, 0.0, 0.0, 0.0, 0.0, 0.0],
  "Shots": 4096,
  "Size": 12,
  "Total Algorithm duration [s]": 12.02,
  "Total Classic duration [s]": 2.4879610729217525,
  "Total Quantum duration [s]": 9.532038927078247
}
