{
  "Circuit execution durations [ms]": [35.382747650146484, 35.27355194091797, 35.1710319519043, 35.430908203125, 35.39323806762695, 35.30740737915039, 35.41445732116699, 35.25900840759277, 35.31837463378906, 35.553932189941406, 35.28618812561035, 35.2635383605957, 35.36725044250488, 35.35962104797363, 35.49051284790039, 35.10308265686035, 35.2020263671875, 35.26115417480469, 35.64739227294922, 35.398244857788086, 35.47835350036621, 35.605430603027344, 35.32719612121582, 35.428762435913086, 35.457611083984375, 35.38036346435547, 35.156965255737305, 35.46929359436035, 35.19725799560547, 35.09068489074707, 35.4008674621582, 35.059452056884766, 36.33999824523926, 35.49647331237793, 35.21466255187988, 35.3550910949707, 35.373687744140625, 35.61902046203613, 35.184621810913086, 35.538673400878906, 35.395145416259766, 35.38107872009277, 35.29834747314453, 35.48431396484375, 35.303354263305664, 35.62426567077637, 35.485267639160156, 35.192251205444336, 35.31932830810547, 35.48622131347656, 35.42733192443848, 35.445213317871094, 35.62593460083008, 35.256147384643555, 35.47501564025879, 35.57324409484863, 35.160064697265625, 35.49623489379883, 35.35890579223633, 35.48550605773926, 35.21227836608887, 35.256147384643555, 35.48860549926758, 35.27402877807617, 35.41374206542969, 35.677433013916016, 35.32123565673828, 35.20965576171875, 35.43877601623535, 35.58516502380371, 35.280466079711914, 35.095930099487305],
  "Depth": 257.0,
  "Expectation Value": -14.779296875,
  "Optimal Expectation Value": -20.0,
  "Optimizer durations [ms]": [311.678, 350.412, 311.492, 355.261, 312.742, 311.802, 350.792, 311.419, 353.109, 312.867, 311.572, 349.886, 312.248, 353.562, 311.696, 312.445, 348.281, 311.17, 352.811, 311.736, 350.763, 312.768, 311.795, 354.424, 312.447, 351.38, 311.941, 312.787, 351.271, 311.784, 350.747, 311.042, 313.466, 350.988, 312.426, 351.121, 311.897, 311.978, 349.409, 311.164, 350.567, 311.78, 311.304, 350.5, 311.994, 355.463, 312.372, 311.678, 350.148, 312.691, 353.152, 311.366, 312.108, 350.085, 312.141, 352.79, 312.142, 312.051, 349.358, 312.607, 354.067, 313.415, 314.212, 348.287, 312.409, 355.134, 311.838, 350.849, 312.685, 312.017, 352.728, 311.433],
  "Optimizer iterations": 72,
  "Optimizer params": [0.7372242897301401, 0.6011678951576651, 0.2149484558373287, 0.7618146604975804, 0.5154367890741215, 0.9323403750380982],
  "P": 3,
  "Problem": "MCP",
  "QJob durations [ms]": [230.61680793762207, 231.12773895263672, 230.67498207092285, 274.6872901916504, 231.78863525390625, 230.42607307434082, 230.51023483276367, 230.76248168945313, 272.1707820892334, 232.04469680786133, 230.27563095092773, 230.62586784362793, 231.09102249145508, 230.74626922607422, 230.98039627075195, 231.6591739654541, 230.47351837158203, 230.37314414978027, 230.9877872467041, 230.70669174194336, 270.158052444458, 231.78791999816895, 231.03713989257813, 232.50985145568848, 231.35900497436523, 270.0614929199219, 230.84115982055664, 231.8899631500244, 230.47900199890137, 231.38809204101563, 269.1223621368408, 230.87501525878906, 232.44857788085938, 230.804443359375, 230.7910919189453, 270.52831649780273, 230.4666042327881, 231.41217231750488, 230.61704635620117, 230.48043251037598, 269.55246925354004, 230.90815544128418, 230.67927360534668, 230.8204174041748, 231.07028007507324, 274.10387992858887, 231.07004165649414, 230.40080070495605, 230.83209991455078, 231.76836967468262, 272.3734378814697, 230.926513671875, 231.13346099853516, 230.27634620666504, 230.86237907409668, 230.90457916259766, 231.0962677001953, 230.9892177581787, 230.91959953308105, 231.37402534484863, 231.51421546936035, 232.60068893432617, 233.11567306518555, 230.75556755065918, 231.41717910766602, 232.61213302612305, 230.6227684020996, 270.1082229614258, 231.86945915222168, 231.17542266845703, 232.06019401550293, 230.1180362701416],
  "QPU": "3010008",
  "Qubits": 14,
  "Queue durations [ms]": [0.0, 0.0, 0.0, 0.0, 0.0, 0.0, 0.0, 0.0, 0.0, 0.0, 0.0, 0.0, 0.0, 0.0, 0.0, 0.0, 0.0, 0.0, 0.0, 0.0, 0.0, 0.0, 0.0, 0.0, 0.0, 0.0, 0.0, 0.0, 0.0, 0.0, 0.0, 0.0, 0.0, 0.0, 0.0, 0.0, 0.0, 0.0, 0.0, 0.0, 0.0, 0.0, 0.0, 0.0, 0.0, 0.0, 0.0, 0.0, 0.0, 0.0, 0.0, 0.0, 0.0, 0.0, 0.0, 0.0, 0.0, 0.0, 0.0, 0.0, 0.0, 0.0, 0.0, 0.0, 0.0, 0.0, 0.0, 0.0, 0.0, 0.0, 0.0, 0.0],
  "Shots": 4096,
  "Size": 14,
  "Total Algorithm duration [s]": 23.618,
  "Total Classic duration [s]": 6.576181858062743,
  "Total Quantum duration [s]": 17.041818141937256
}
