{
  "Depth": 18.5,
  "Job durations [ms]": [13.376235961914062, 13.452410697937012, 13.423323631286621, 13.107895851135254, 13.460278511047363, 13.017773628234863, 13.133645057678223, 12.317180633544922, 11.713981628417969, 12.367486953735352, 12.512922286987305, 12.738704681396484, 13.49031925201416, 12.644052505493164, 12.496232986450195, 15.937328338623047, 15.844464302062988, 17.135143280029297, 17.635822296142578, 16.121506690979004, 17.90177822113037, 16.179680824279785, 14.418244361877441, 13.133525848388672, 12.58540153503418, 13.52071762084961, 12.97914981842041, 12.495160102844238, 12.37177848815918, 13.323426246643066, 12.290000915527344, 12.223243713378906, 12.463569641113281, 12.396693229675293, 12.581706047058105, 15.359282493591309, 12.602090835571289, 15.289306640625, 14.910578727722168, 12.31241226196289, 16.0980224609375, 13.661742210388184, 12.833595275878906, 12.410879135131836, 12.727499008178711, 12.511253356933594, 12.352466583251953, 12.494206428527832, 12.772440910339355, 12.43746280670166, 12.42828369140625, 12.359023094177246, 12.339949607849121, 13.177037239074707, 12.378692626953125, 12.723088264465332, 12.458205223083496, 12.629866600036621, 14.924883842468262, 12.453079223632812, 12.288689613342285, 12.50755786895752, 12.389302253723145, 15.819191932678223, 15.698075294494629, 16.813278198242188, 16.15762710571289, 15.998601913452148, 15.938162803649902, 18.14711093902588, 15.208721160888672, 12.614011764526367, 12.352228164672852, 12.822866439819336, 12.4589204788208, 12.341141700744629, 14.07778263092041, 15.691161155700684, 15.757322311401367, 16.494393348693848, 15.683889389038086, 15.711784362792969, 15.7012939453125, 15.474200248718262, 15.66767692565918, 16.58451557159424, 15.899419784545898, 15.614151954650879, 15.736103057861328, 15.891671180725098, 15.793561935424805, 15.957355499267578, 15.758156776428223, 15.525221824645996, 15.622735023498535, 16.008973121643066, 15.91503620147705, 15.698790550231934, 15.085339546203613, 13.777375221252441, 12.99583911895752, 11.949777603149414, 13.701677322387695, 15.874028205871582, 15.520930290222168, 15.50590991973877, 15.526413917541504, 15.639424324035645, 15.763163566589355, 15.776634216308594, 15.917539596557617, 15.805244445800781, 15.696287155151367, 15.512347221374512, 15.526056289672852, 15.442490577697754, 15.674471855163574, 15.470266342163086, 15.637397766113281, 15.600323677062988, 15.480995178222656, 15.592217445373535, 15.651345252990723, 15.600442886352539, 12.289762496948242, 12.145757675170898, 12.258410453796387, 12.101411819458008, 12.234687805175781, 12.232780456542969, 12.215614318847656, 12.433767318725586, 12.167692184448242, 12.533783912658691, 12.236952781677246, 12.64190673828125, 12.269377708435059, 12.298107147216797, 12.095212936401367, 12.335062026977539, 11.963725090026855, 12.104630470275879, 11.939525604248047, 12.14134693145752, 12.268304824829102, 12.323141098022461, 12.303590774536133, 12.346267700195312, 12.22217082977295, 12.229084968566895, 12.045979499816895, 12.148499488830566, 12.264132499694824, 12.380123138427734, 12.284040451049805, 12.247323989868164, 12.19797134399414, 12.29238510131836, 12.278556823730469, 12.650132179260254, 12.197375297546387, 12.082934379577637, 12.079834938049316, 12.137532234191895, 12.163996696472168, 12.198448181152344, 12.275218963623047, 16.38472080230713, 12.16280460357666, 12.168645858764648, 12.042045593261719, 12.233495712280273, 12.021780014038086, 12.231707572937012, 12.266159057617188, 12.275218963623047, 12.185931205749512, 12.101531028747559, 12.144804000854492, 12.037277221679688, 12.346506118774414, 11.994123458862305, 12.243032455444336, 12.111783027648926, 12.047052383422852, 12.019872665405273, 12.024879455566406, 12.338519096374512, 11.931657791137695, 12.282609939575195, 12.405991554260254, 12.30764389038086, 12.158632278442383, 13.03112506866455, 12.215018272399902, 12.08353042602539, 11.92629337310791, 12.122869491577148, 12.293577194213867, 12.328863143920898, 12.105703353881836, 12.387871742248535, 12.290120124816895, 12.103915214538574, 12.357711791992188, 12.012362480163574, 12.14754581451416, 12.022137641906738, 11.949896812438965, 12.013673782348633, 12.137889862060547, 12.406468391418457, 13.088822364807129, 12.253761291503906, 12.070894241333008, 12.171387672424316, 12.195110321044922, 12.146949768066406, 11.945486068725586, 13.750433921813965, 11.964917182922363, 11.945843696594238, 12.39776611328125, 12.346029281616211, 12.034058570861816, 12.496709823608398, 12.238740921020508, 11.915802955627441, 11.99197769165039, 12.0469331741333, 12.014150619506836, 12.315034866333008, 12.554526329040527, 12.026667594909668, 12.175798416137695, 12.149453163146973, 12.195229530334473, 12.435555458068848, 12.501001358032227, 12.579202651977539, 12.31241226196289, 12.264728546142578, 11.995911598205566, 12.353897094726562, 12.039780616760254, 12.01176643371582, 12.137055397033691, 12.072920799255371, 12.30466365814209, 12.00723648071289, 12.16733455657959, 12.325525283813477, 12.182235717773438, 12.293338775634766, 12.335777282714844, 12.270331382751465, 12.271285057067871, 12.383222579956055, 12.11249828338623, 12.159943580627441, 12.146234512329102, 12.235522270202637, 12.509703636169434, 12.190580368041992, 12.293577194213867, 12.146234512329102, 12.034893035888672, 12.046337127685547, 12.326598167419434, 11.97659969329834, 12.33363151550293, 12.076497077941895, 12.012839317321777, 12.178897857666016, 12.209653854370117, 12.191534042358398, 12.2450590133667, 12.131929397583008, 12.32290267944336, 12.428045272827148, 12.008428573608398, 12.034296989440918, 12.065291404724121, 12.116432189941406, 12.078642845153809, 12.175202369689941, 12.159109115600586, 12.020111083984375, 12.179374694824219, 12.188076972961426, 12.02857494354248, 12.25888729095459, 12.113451957702637, 12.14909553527832, 12.37499713897705, 12.09115982055664, 12.070894241333008, 12.041091918945312, 12.15517520904541, 12.096643447875977, 12.450933456420898, 12.16268539428711, 11.904001235961914, 12.034773826599121, 12.151956558227539, 12.115955352783203, 12.135744094848633, 12.312889099121094, 12.085318565368652, 11.991620063781738, 11.95836067199707, 13.170719146728516, 13.28420639038086, 12.254834175109863, 12.180566787719727, 12.188315391540527, 12.06362247467041, 11.992573738098145, 12.04824447631836, 12.364387512207031, 12.295246124267578, 12.074470520019531, 12.357592582702637, 12.260913848876953, 12.108206748962402, 12.082099914550781, 12.001991271972656, 12.503981590270996, 12.182474136352539, 14.013051986694336, 15.516161918640137, 15.428662300109863, 15.271186828613281, 15.520811080932617, 15.46335220336914, 15.301704406738281, 15.35797119140625, 12.204766273498535, 12.229204177856445, 12.460589408874512, 12.253165245056152, 11.883139610290527, 11.915206909179688, 12.142062187194824, 11.976242065429688, 12.166023254394531, 11.899709701538086, 12.134075164794922, 12.122631072998047, 12.037277221679688, 12.249231338500977, 12.14754581451416, 12.125730514526367, 12.471437454223633, 12.276768684387207, 12.203574180603027, 12.187719345092773, 12.740850448608398, 12.544512748718262, 12.259125709533691, 12.310981750488281, 12.358546257019043, 12.281417846679688, 12.041568756103516, 12.217521667480469, 12.335896492004395, 12.42983341217041, 12.270808219909668, 12.22074031829834, 12.06052303314209, 12.31694221496582, 12.070178985595703, 11.98732852935791, 12.296795845031738, 12.224674224853516, 12.399435043334961, 12.217044830322266, 12.296557426452637, 12.216448783874512, 12.419819831848145, 12.495994567871094, 12.15982437133789, 12.22383975982666, 12.075304985046387, 12.288808822631836, 12.22217082977295, 12.344837188720703, 12.202858924865723, 12.336492538452148, 12.272477149963379, 12.171387672424316, 12.354373931884766, 12.454509735107422, 12.503385543823242, 12.045979499816895, 12.44509220123291, 12.06660270690918, 12.068033218383789, 11.833786964416504, 12.022972106933594, 11.97516918182373, 12.083649635314941, 12.189865112304688, 12.208104133605957, 12.157678604125977, 12.07733154296875, 12.437939643859863, 12.1384859085083, 12.261271476745605, 11.98422908782959, 12.000322341918945, 12.010455131530762, 12.012720108032227, 12.011289596557617, 12.218832969665527, 12.230396270751953, 12.107133865356445, 12.108445167541504, 12.11535930633545, 12.189388275146484, 12.139558792114258, 12.077569961547852, 12.024402618408203, 12.047648429870605, 12.199044227600098, 12.064933776855469, 12.230753898620605, 12.265443801879883, 11.94298267364502, 12.036442756652832, 12.124300003051758, 12.138605117797852, 12.186169624328613, 12.277841567993164, 12.241125106811523, 12.01331615447998, 12.331962585449219, 12.30156421661377, 12.328386306762695, 12.208223342895508, 12.127041816711426, 12.319087982177734, 12.109160423278809, 12.52436637878418, 12.075304985046387, 12.199878692626953, 12.207984924316406, 12.199163436889648, 12.179851531982422, 12.0164155960083, 12.297749519348145, 12.18724250793457, 12.207269668579102, 12.159466743469238, 11.940240859985352, 12.198090553283691, 12.122869491577148, 11.9553804397583, 12.298226356506348, 12.218594551086426, 12.10939884185791, 12.18259334564209, 12.153029441833496, 12.041807174682617, 12.104630470275879],
  "Optimizer durations [ms]": [216.818, 262.784, 218.194, 222.117, 338.108, 221.226, 221.919, 273.298, 215.487, 215.961, 260.057, 217.776, 239.272, 262.138, 240.334, 268.713, 314.237, 288.994, 281.426, 327.662, 285.276, 295.48, 353.01, 244.653, 225.458, 274.514, 247.087, 231.977, 263.954, 238.144, 216.43, 269.714, 214.582, 218.339, 271.812, 277.564, 244.493, 277.423, 245.2, 227.515, 281.036, 229.68, 224.606, 272.215, 222.092, 219.654, 276.668, 230.217, 244.841, 305.58, 234.799, 223.982, 276.972, 221.98, 237.475, 289.459, 226.201, 223.259, 304.96, 222.845, 215.661, 264.293, 217.109, 246.921, 315.374, 264.355, 271.821, 319.63, 273.063, 275.325, 314.632, 226.821, 217.385, 268.973, 216.286, 215.831, 273.332, 259.793, 261.698, 334.795, 264.119, 266.656, 316.473, 260.71, 260.667, 324.969, 277.496, 261.075, 317.972, 266.287, 265.36, 337.661, 276.609, 262.25, 316.235, 267.303, 265.526, 329.68, 243.009, 221.769, 298.475, 217.611, 235.293, 321.643, 265.137, 261.92, 324.673, 265.215, 264.226, 317.87, 265.95, 262.674, 317.66, 260.01, 259.139, 311.735, 261.068, 264.391, 314.869, 265.319, 260.601, 317.034, 262.773, 263.531, 292.195, 217.66, 217.894, 265.357, 215.779, 217.35, 285.253, 219.222, 215.183, 263.015, 219.298, 217.343, 266.142, 218.904, 214.497, 260.519, 215.321, 214.594, 261.146, 214.21, 214.061, 261.802, 217.741, 216.972, 261.495, 215.24, 216.015, 263.195, 218.334, 216.994, 261.923, 217.324, 224.637, 262.233, 217.703, 224.329, 266.776, 214.339, 218.194, 260.044, 214.167, 214.83, 261.056, 224.28, 224.903, 262.289, 228.69, 217.042, 261.819, 214.284, 215.469, 261.282, 216.235, 214.601, 259.008, 218.138, 217.959, 260.284, 214.264, 215.093, 259.262, 214.679, 215.329, 260.534, 214.492, 215.496, 263.537, 217.496, 216.223, 275.384, 227.106, 216.604, 260.31, 214.485, 216.194, 262.826, 217.029, 215.739, 270.152, 217.537, 227.065, 261.081, 215.872, 214.602, 259.898, 214.098, 214.565, 265.398, 219.132, 216.12, 263.886, 220.427, 217.015, 263.277, 216.947, 219.994, 261.484, 214.608, 217.636, 262.961, 223.601, 217.952, 263.322, 215.338, 215.394, 259.644, 214.544, 216.253, 260.634, 217.089, 217.824, 261.812, 216.68, 219.444, 263.178, 217.999, 217.881, 266.423, 214.475, 215.251, 260.454, 213.516, 217.094, 260.155, 214.95, 214.364, 263.741, 218.094, 219.451, 262.706, 217.837, 219.612, 262.309, 217.798, 217.147, 267.53, 217.392, 216.536, 262.729, 217.707, 216.23, 259.448, 213.75, 217.071, 260.904, 213.559, 215.308, 260.135, 217.931, 218.183, 262.425, 217.147, 217.892, 264.25, 221.095, 215.384, 260.175, 214.209, 214.312, 259.127, 214.199, 214.396, 263.257, 214.656, 214.237, 262.035, 216.42, 214.691, 267.116, 217.243, 222.587, 259.376, 214.982, 214.904, 262.784, 219.885, 218.313, 262.971, 216.535, 215.215, 259.81, 213.863, 216.029, 263.481, 214.464, 215.022, 259.422, 217.583, 218.632, 262.006, 217.593, 219.718, 262.381, 215.989, 215.368, 261.244, 215.105, 214.533, 260.923, 214.761, 216.815, 263.576, 216.718, 217.476, 269.988, 237.189, 260.095, 312.866, 267.465, 261.302, 310.029, 258.156, 259.602, 265.265, 217.896, 217.521, 264.709, 214.246, 214.738, 263.161, 214.994, 214.934, 262.04, 214.314, 215.302, 260.05, 216.042, 216.999, 261.707, 216.697, 216.434, 264.298, 216.0, 218.965, 263.71, 217.279, 217.431, 263.651, 214.875, 214.568, 260.078, 215.261, 215.388, 260.115, 214.925, 214.399, 259.913, 217.384, 218.001, 260.189, 214.998, 218.804, 262.078, 218.332, 216.442, 262.505, 220.505, 217.215, 263.47, 220.567, 218.297, 263.841, 217.704, 217.095, 262.859, 219.403, 216.383, 261.548, 218.243, 220.304, 262.57, 217.746, 216.881, 260.198, 213.653, 217.234, 261.064, 217.678, 218.378, 262.409, 216.937, 216.422, 260.353, 214.225, 218.952, 260.086, 214.17, 214.44, 260.04, 214.599, 215.281, 258.699, 213.923, 215.705, 261.616, 218.36, 217.907, 263.842, 216.303, 214.701, 260.038, 215.768, 215.552, 260.335, 213.803, 214.232, 263.376, 214.738, 217.667, 259.732, 214.755, 214.134, 264.144, 220.212, 219.378, 265.285, 215.754, 215.378, 262.292, 217.736, 223.992, 262.809, 216.896, 217.564, 262.535, 217.487, 219.159, 262.366, 217.32, 219.245, 260.0, 214.416, 217.328, 260.218, 223.88, 217.754, 262.494, 217.161, 218.516, 265.146, 218.506],
  "Optimizer iterations": 465,
  "Qubits": 8,
  "Total Algorithm duration [s]": 112.251,
  "Total Classic duration [s]": 106.28434820270539,
  "Total Quantum duration [s]": 5.966651797294617,
  "Expectation Value": -8.29931640625,
  "Optimal Expectation Value": -9.83795166015625,
  "Optimizer params": [0.6257049420440012, 0.8108249862969655, 0.7571716059874469, 0.7106424721599385, 0.8344036915580422, 0.6017040411439065, 0.9329963399325596, 0.5331905543554567, 0.5560948576270858, 0.45265726798408307, 0.5161272313660062, 0.522603342239333, 0.4985142942700385, 0.4447809715735495, 0.5275522643316769, 0.7907009468841523, 0.4819050449862935, 0.4734029014436222, 0.48101240672810963, 0.5204224548578674, 0.48894966387652417, 0.47944513775262615, 0.5078744866713413, 0.4848025621244597, 0.5410578862753705, 0.548358057733608, 0.5169287518928477, 0.5116202857942852, 0.510142441160062, 0.4605199052844812, 0.5300516746152161, 0.4428993443804718],
  "QPU": "3010008",
  "Problem": "IC",
  "Size": 8,
  "P": 0,
  "Shots": 4096
}