{
  "Circuit execution durations [ms]": [33.14805030822754, 35.678982734680176, 32.54711627960205, 34.10303592681885, 32.50384330749512, 33.95724296569824, 32.918453216552734, 32.50253200531006, 32.61697292327881, 31.149983406066895, 54.70919609069824, 31.363606452941895, 35.616159439086914, 30.680298805236816, 31.998276710510254, 33.777832984924316, 56.85579776763916, 33.08510780334473, 35.13944149017334, 33.8597297668457, 33.057451248168945, 33.79380702972412, 32.06324577331543, 32.83548355102539, 32.78529644012451, 33.94138813018799, 34.57462787628174, 34.12282466888428, 31.499147415161133, 33.72502326965332, 33.114075660705566, 34.7747802734375, 32.77695178985596, 32.537102699279785, 31.856536865234375, 32.88543224334717, 32.48393535614014, 32.66406059265137, 31.586766242980957, 31.946301460266113, 32.06908702850342, 32.50277042388916, 33.5240364074707, 32.47809410095215, 33.78415107727051, 32.99093246459961, 31.999707221984863, 31.181931495666504, 32.289981842041016, 31.443238258361816, 31.650304794311523, 55.913448333740234, 31.48806095123291, 34.4010591506958, 34.71970558166504, 34.76536273956299, 57.88600444793701, 30.297279357910156, 32.036542892456055, 32.508254051208496, 34.53660011291504, 32.160282135009766, 32.44435787200928, 33.29825401306152, 31.523942947387695, 34.180641174316406, 31.964659690856934, 28.56886386871338, 31.969785690307617, 32.67991542816162, 31.8453311920166, 34.74283218383789, 32.0667028427124, 34.77954864501953, 34.05427932739258, 31.928539276123047, 34.88790988922119, 30.79676628112793, 32.529354095458984, 32.237887382507324, 31.406164169311523, 32.61232376098633, 33.69796276092529, 31.757235527038574, 31.79037570953369, 32.18710422515869, 34.937262535095215, 32.68694877624512, 31.276583671569824, 31.487464904785156, 33.41662883758545, 56.63919448852539, 35.181283950805664, 32.0357084274292, 33.873796463012695, 32.796382904052734, 31.053900718688965, 56.41639232635498, 31.664729118347168, 31.880497932434082, 32.251834869384766, 35.306572914123535, 32.09578990936279, 30.06458282470703, 31.61764144897461, 33.67948532104492, 35.31932830810547, 32.93108940124512, 31.702876091003418, 35.662174224853516, 31.827688217163086, 34.21497344970703, 34.76524353027344, 33.4089994430542, 33.18893909454346, 31.195759773254395, 32.991647720336914, 32.38987922668457, 35.575151443481445, 33.081889152526855, 31.178593635559082, 33.69319438934326, 31.477689743041992, 32.697081565856934, 32.61077404022217, 33.50234031677246, 33.49745273590088, 30.582547187805176, 31.400680541992188, 33.058881759643555, 34.19971466064453, 33.0580472946167, 33.66219997406006, 31.920313835144043, 31.464815139770508, 33.18047523498535, 32.0887565612793, 57.91449546813965, 32.38809108734131, 35.059452056884766, 27.94361114501953, 31.760692596435547, 32.678961753845215, 56.81431293487549, 32.34410285949707, 31.122565269470215, 32.092928886413574, 33.216118812561035, 33.96964073181152, 35.37344932556152, 33.71620178222656, 28.76460552215576, 31.198859214782715, 32.12583065032959, 34.380555152893066, 32.103657722473145, 32.06050395965576, 32.60302543640137, 34.00826454162598, 31.496286392211914, 31.8526029586792, 35.05730628967285, 32.38046169281006, 34.85095500946045, 29.95884418487549, 33.71632099151611, 33.93447399139404, 31.914353370666504, 33.222079277038574, 31.487464904785156, 33.316850662231445, 33.42700004577637, 57.7850341796875, 31.769633293151855, 31.273245811462402, 32.14132785797119, 30.866265296936035, 32.335638999938965, 55.00590801239014, 32.30011463165283, 32.398343086242676, 33.91063213348389, 32.303571701049805, 56.55193328857422, 33.20467472076416, 31.826496124267578, 35.25698184967041, 31.668424606323242, 32.71818161010742, 34.699201583862305, 31.898856163024902, 32.72652626037598, 33.33640098571777, 32.580018043518066, 31.850218772888184, 30.425071716308594, 30.201196670532227, 36.611318588256836, 31.597137451171875, 31.795620918273926, 34.18374061584473, 32.20391273498535, 34.28542613983154, 32.34684467315674, 32.094597816467285, 34.023284912109375, 30.198216438293457, 56.064486503601074, 30.63178062438965, 32.36401081085205, 31.5701961517334, 31.769752502441406, 30.660390853881836, 55.690765380859375, 32.54592418670654, 31.817913055419922, 31.21793270111084, 31.813740730285645, 32.227277755737305, 33.49494934082031, 32.55486488342285, 32.349586486816406, 31.656742095947266, 29.924392700195313, 31.902670860290527, 32.5624942779541, 32.57119655609131, 30.896544456481934, 31.71253204345703, 33.069491386413574, 33.46097469329834, 29.835104942321777, 29.76679801940918, 31.47125244140625, 31.570076942443848, 30.99381923675537, 32.889723777770996, 30.568718910217285, 33.48195552825928, 32.88161754608154, 31.31425380706787, 32.483816146850586, 32.20546245574951, 33.409833908081055, 32.771944999694824, 34.93201732635498, 32.41407871246338, 32.69755840301514, 37.44614124298096, 33.04243087768555, 36.083102226257324, 32.404303550720215, 32.34267234802246, 35.78388690948486, 34.32798385620117, 33.32984447479248, 32.346129417419434, 31.39519691467285, 34.03425216674805, 33.23197364807129],
  "Depth": 10.5,
  "Expectation Value": -3.533203125,
  "Optimal Expectation Value": -4.75877046585083,
  "Optimizer durations [ms]": [339.108, 390.209, 336.951, 385.57, 339.78, 385.335, 337.656, 384.157, 336.255, 382.111, 380.875, 335.1, 389.168, 331.344, 381.589, 339.474, 383.582, 338.087, 389.49, 338.894, 385.055, 337.068, 379.269, 384.75, 335.013, 385.893, 338.838, 382.988, 333.032, 387.454, 337.446, 387.402, 335.731, 381.079, 383.01, 335.78, 384.065, 337.274, 378.186, 336.142, 385.25, 335.969, 386.422, 337.253, 385.883, 386.308, 335.579, 383.899, 336.645, 380.27, 339.537, 383.372, 334.839, 387.545, 340.002, 386.339, 388.849, 331.273, 384.332, 333.969, 385.636, 334.14, 380.05, 337.071, 381.905, 339.079, 380.509, 326.714, 380.244, 383.162, 334.921, 386.995, 334.304, 386.026, 339.258, 385.78, 341.693, 380.894, 336.696, 382.451, 380.881, 337.713, 386.964, 334.638, 381.694, 335.449, 388.503, 337.199, 380.498, 334.691, 383.166, 383.478, 341.553, 383.834, 338.094, 383.118, 333.332, 383.598, 332.746, 382.271, 335.092, 393.398, 334.844, 379.204, 382.626, 337.822, 388.101, 335.869, 379.625, 342.348, 382.482, 338.714, 387.371, 336.918, 382.134, 382.258, 335.468, 383.817, 341.095, 381.253, 338.64, 388.052, 334.295, 386.964, 338.797, 390.391, 386.048, 332.098, 382.749, 338.205, 386.008, 340.991, 386.28, 335.432, 382.74, 335.81, 381.249, 386.358, 336.853, 387.229, 327.043, 380.206, 335.408, 385.273, 334.769, 383.084, 334.95, 382.512, 337.977, 385.464, 386.832, 326.821, 378.457, 337.367, 384.04, 333.788, 384.136, 335.379, 384.541, 333.979, 380.495, 388.608, 336.046, 386.515, 331.177, 383.161, 337.828, 383.239, 337.611, 380.838, 337.27, 385.088, 385.603, 335.64, 381.063, 336.58, 378.342, 336.033, 380.893, 334.171, 383.391, 337.562, 381.929, 382.561, 338.11, 382.632, 341.063, 381.012, 334.693, 383.759, 333.36, 383.73, 342.052, 381.484, 332.693, 375.3, 379.517, 342.967, 380.051, 333.68, 384.145, 335.713, 389.961, 335.344, 383.887, 338.999, 383.86, 383.502, 332.611, 382.948, 334.935, 378.76, 333.093, 382.013, 334.817, 383.219, 332.629, 379.537, 334.458, 383.051, 384.303, 334.903, 381.252, 330.484, 378.991, 335.087, 385.885, 332.585, 380.693, 336.926, 382.744, 380.174, 330.655, 378.623, 335.214, 377.262, 335.308, 382.181, 338.721, 384.161, 333.807, 383.447, 382.999, 339.959, 384.143, 340.222, 383.608, 336.007, 394.007, 337.803, 391.207, 336.246, 382.074, 387.665, 340.398, 385.09, 335.922, 380.328, 338.374, 385.99],
  "Optimizer iterations": 260,
  "Optimizer params": [0.9492860065852587, 0.4975308014047781, 0.5841379055673851, 0.8304806865387121, 0.5416269115123721, 0.9915565095092188, 0.2902925740479894, 0.010081140368403668, 0.07106138055769276, 0.6342566920795633, 0.04500426430834224, 0.3403637024887882, 0.041856808226492334, 0.08589988112729698, 0.18529408088359045, 0.17892331609679096],
  "P": 0,
  "Problem": "IC",
  "QJob durations [ms]": [54.4276237487793, 57.0453405380249, 54.59463596343994, 56.081533432006836, 55.19533157348633, 78.98592948913574, 54.56256866455078, 54.10468578338623, 54.90767955780029, 52.94239521026611, 76.64656639099121, 53.766846656799316, 56.97357654571533, 52.2921085357666, 53.63821983337402, 56.33389949798584, 78.51934432983398, 54.58080768585205, 56.5413236618042, 55.76443672180176, 54.56280708312988, 55.29499053955078, 53.92181873321533, 54.40258979797363, 54.16572093963623, 55.45008182525635, 55.94468116760254, 55.60016632080078, 53.06124687194824, 55.45687675476074, 54.8931360244751, 56.582093238830566, 54.263949394226074, 54.598093032836914, 53.494811058044434, 54.35967445373535, 54.587364196777344, 54.37445640563965, 52.9552698135376, 53.536057472229004, 78.3909559249878, 54.45599555969238, 55.17458915710449, 54.67581748962402, 55.867552757263184, 78.46641540527344, 53.56109142303467, 54.856181144714355, 54.32093143463135, 53.476929664611816, 53.60209941864014, 78.32777500152588, 53.94244194030762, 56.19370937347412, 56.82039260864258, 56.67567253112793, 79.1172981262207, 51.50043964385986, 54.11982536315918, 53.87520790100098, 55.82559108734131, 53.74026298522949, 54.177284240722656, 54.91912364959717, 53.18593978881836, 56.05924129486084, 53.522586822509766, 50.23694038391113, 53.81906032562256, 54.18527126312256, 53.275108337402344, 56.43105506896973, 53.34937572479248, 56.426286697387695, 55.88650703430176, 78.70829105377197, 56.48517608642578, 52.1395206451416, 54.42500114440918, 54.65829372406006, 76.82061195373535, 54.39341068267822, 55.126070976257324, 53.296804428100586, 53.73525619506836, 53.98380756378174, 80.5293321609497, 54.314613342285156, 53.029417991638184, 53.601622581481934, 54.99458312988281, 78.65214347839355, 57.05916881561279, 54.316043853759766, 55.86564540863037, 54.460763931274414, 53.01308631896973, 78.51123809814453, 52.9179573059082, 53.321242332458496, 54.19301986694336, 57.082176208496094, 53.95078659057617, 51.57577991485596, 53.03013324737549, 55.56082725524902, 57.43825435638428, 54.47232723236084, 53.82966995239258, 57.28638172149658, 53.502559661865234, 55.86528778076172, 56.47003650665283, 55.26316165924072, 54.796576499938965, 52.69968509674072, 54.441213607788086, 54.19921875, 56.809067726135254, 54.482340812683105, 52.98817157745361, 80.16538619995117, 53.19845676422119, 54.85188961029053, 54.480910301208496, 55.328369140625, 79.0548324584961, 51.89073085784912, 53.517937660217285, 55.00805377960205, 55.92155456542969, 54.82614040374756, 79.12218570709229, 54.20684814453125, 53.39038372039795, 54.8022985458374, 54.34870719909668, 80.02030849456787, 55.00614643096924, 56.2896728515625, 50.089240074157715, 53.49695682525635, 54.834604263305664, 78.83286476135254, 54.11648750305176, 52.81484127044678, 53.859710693359375, 54.755449295043945, 55.42707443237305, 56.731462478637695, 55.34815788269043, 49.964070320129395, 52.672505378723145, 53.74705791473389, 56.11777305603027, 53.581833839416504, 53.86698246002197, 54.21042442321777, 55.16409873962402, 53.076744079589844, 53.80082130432129, 56.330084800720215, 54.1074275970459, 56.31411075592041, 51.36704444885254, 54.92854118347168, 55.26423454284668, 53.763747215270996, 55.12070655822754, 52.95276641845703, 55.121421813964844, 55.40907382965088, 79.74541187286377, 54.462432861328125, 53.42912673950195, 54.466843605041504, 53.19201946258545, 54.21864986419678, 77.06832885742188, 53.98082733154297, 54.2525053024292, 55.155158042907715, 54.18205261230469, 78.2010555267334, 54.53932285308838, 53.39610576629639, 57.10911750793457, 53.80356311798096, 54.29196357727051, 56.08344078063965, 53.522706031799316, 54.43549156188965, 54.62837219238281, 53.838253021240234, 53.19333076477051, 52.012085914611816, 52.2305965423584, 58.07018280029297, 52.951931953430176, 53.014159202575684, 55.84096908569336, 53.44521999359131, 80.64305782318115, 54.10182476043701, 53.725242614746094, 56.03599548339844, 52.08134651184082, 78.23944091796875, 52.847862243652344, 54.353952407836914, 53.61199378967285, 53.25615406036377, 52.803754806518555, 77.57651805877686, 54.03280258178711, 53.452372550964355, 52.98459529876709, 53.052663803100586, 54.051876068115234, 55.30703067779541, 54.134249687194824, 53.87771129608154, 53.67124080657959, 51.74732208251953, 53.81214618682861, 54.17978763580322, 54.47947978973389, 52.5127649307251, 53.34031581878662, 54.532647132873535, 54.89182472229004, 51.317691802978516, 51.366209983825684, 52.6576042175293, 53.09438705444336, 52.291035652160645, 54.2140007019043, 77.1399736404419, 55.08708953857422, 54.32450771331787, 52.91032791137695, 54.44490909576416, 77.82208919525146, 55.51159381866455, 54.34286594390869, 56.39207363128662, 53.9473295211792, 54.57472801208496, 59.89706516265869, 55.04012107849121, 57.4873685836792, 53.90655994415283, 54.13007736206055, 57.2432279586792, 56.40733242034912, 54.92734909057617, 53.68757247924805, 53.36570739746094, 55.593013763427734, 79.0930986404419],
  "QPU": "3000020",
  "Qubits": 4,
  "Queue durations [ms]": [0.0, 0.0, 0.0, 0.0, 0.0, 0.0, 0.0, 0.0, 0.0, 0.0, 0.0, 0.0, 0.0, 0.0, 0.0, 0.0, 0.0, 0.0, 0.0, 0.0, 0.0, 0.0, 0.0, 0.0, 0.0, 0.0, 0.0, 0.0, 0.0, 0.0, 0.0, 0.0, 0.0, 0.0, 0.0, 0.0, 0.0, 0.0, 0.0, 0.0, 0.0, 0.0, 0.0, 0.0, 0.0, 0.0, 0.0, 0.0, 0.0, 0.0, 0.0, 0.0, 0.0, 0.0, 0.0, 0.0, 0.0, 0.0, 0.0, 0.0, 0.0, 0.0, 0.0, 0.0, 0.0, 0.0, 0.0, 0.0, 0.0, 0.0, 0.0, 0.0, 0.0, 0.0, 0.0, 0.0, 0.0, 0.0, 0.0, 0.0, 0.0, 0.0, 0.0, 0.0, 0.0, 0.0, 0.0, 0.0, 0.0, 0.0, 0.0, 0.0, 0.0, 0.0, 0.0, 0.0, 0.0, 0.0, 0.0, 0.0, 0.0, 0.0, 0.0, 0.0, 0.0, 0.0, 0.0, 0.0, 0.0, 0.0, 0.0, 0.0, 0.0, 0.0, 0.0, 0.0, 0.0, 0.0, 0.0, 0.0, 0.0, 0.0, 0.0, 0.0, 0.0, 0.0, 0.0, 0.0, 0.0, 0.0, 0.0, 0.0, 0.0, 0.0, 0.0, 0.0, 0.0, 0.0, 0.0, 0.0, 0.0, 0.0, 0.0, 0.0, 0.0, 0.0, 0.0, 0.0, 0.0, 0.0, 0.0, 0.0, 0.0, 0.0, 0.0, 0.0, 0.0, 0.0, 0.0, 0.0, 0.0, 0.0, 0.0, 0.0, 0.0, 0.0, 0.0, 0.0, 0.0, 0.0, 0.0, 0.0, 0.0, 0.0, 0.0, 0.0, 0.0, 0.0, 0.0, 0.0, 0.0, 0.0, 0.0, 0.0, 0.0, 0.0, 0.0, 0.0, 0.0, 0.0, 0.0, 0.0, 0.0, 0.0, 0.0, 0.0, 0.0, 0.0, 0.0, 0.0, 0.0, 0.0, 0.0, 0.0, 0.0, 0.0, 0.0, 0.0, 0.0, 0.0, 0.0, 0.0, 0.0, 0.0, 0.0, 0.0, 0.0, 0.0, 0.0, 0.0, 0.0, 0.0, 0.0, 0.0, 0.0, 0.0, 0.0, 0.0, 0.0, 0.0, 0.0, 0.0, 0.0, 0.0, 0.0, 0.0, 0.0, 0.0, 0.0, 0.0, 0.0, 0.0, 0.0, 0.0, 0.0, 0.0, 0.0, 0.0, 0.0, 0.0, 0.0, 0.0, 0.0, 0.0, 0.0, 0.0, 0.0, 0.0, 0.0, 0.0],
  "Shots": 4096,
  "Size": 4,
  "Total Algorithm duration [s]": 94.103,
  "Total Classic duration [s]": 79.33589728164672,
  "Total Quantum duration [s]": 14.767102718353271
}
