{
  "Depth": 834.0,
  "Expectation Value": -6.425777435302734,
  "Job durations [ms]": [7.0557, 7.2682, 7.279100000000001, 7.4578, 7.0998, 7.1533, 7.086399999999999, 7.2232, 7.1366, 7.104100000000001, 7.1165, 7.2127, 7.1447, 7.1071, 7.1667, 7.610399999999999, 7.5421000000000005, 7.1274, 7.1555, 7.222, 7.122, 7.173, 7.0962000000000005, 7.1029, 7.0779, 7.1254, 7.1577, 7.1062, 7.1457, 7.4510000000000005, 7.0161, 7.193, 7.479, 7.2587, 7.1288, 7.2124, 7.1277, 7.046, 7.1151, 7.1464, 7.0976, 7.1444, 7.5375, 7.552, 6.9633, 7.1184, 7.0992, 7.1417, 7.0918, 7.1773, 7.158399999999999, 7.1011, 7.2297, 7.184, 7.116199999999999, 7.211399999999999, 7.2527, 7.0402, 7.098199999999999, 7.1745, 7.0951, 7.1387, 7.1186, 7.1208, 7.0992, 7.0919, 7.1627, 7.0933, 7.1568, 7.1938, 7.5073, 6.9104, 6.8791, 7.0229, 7.1673, 7.1291, 7.1023, 7.1098, 7.0987, 7.0927999999999995, 7.1061, 7.1634, 7.2269, 7.2268, 7.3416999999999994, 7.2298, 7.537699999999999, 7.0503, 7.1215, 7.0887, 7.093, 7.1744, 7.1428, 7.1009, 7.1126000000000005, 7.0952, 7.6515, 7.4108, 7.1366, 7.2445, 7.1571],
  "Optimal Expectation Value": -8.0,
  "Optimizer durations [ms]": [72.679, 74.385, 84.325, 79.84, 72.89, 73.293, 72.735, 74.214, 73.368, 73.058, 72.848, 74.017, 73.27, 72.991, 73.687, 78.07, 77.661, 73.79, 73.44, 77.98, 73.178, 73.601, 72.709, 72.751, 72.702, 73.268, 73.527, 73.094, 73.497, 76.538, 81.733, 73.808, 76.716, 74.581, 73.294, 74.137, 73.283, 72.329, 73.011, 73.575, 72.872, 73.259, 77.39, 77.729, 78.057, 73.13, 73.51, 73.199, 72.741, 73.791, 73.337, 72.837, 74.371, 73.776, 72.945, 73.985, 84.065, 79.818, 72.993, 73.763, 72.934, 73.14, 72.97, 73.109, 72.775, 72.796, 73.542, 73.038, 73.588, 73.747, 81.302, 81.056, 80.407, 81.914, 73.471, 73.329, 72.779, 72.863, 72.899, 72.762, 72.851, 73.322, 74.312, 83.626, 77.834, 77.6, 78.822, 81.038, 73.167, 72.832, 72.725, 73.437, 73.316, 72.953, 73.03, 72.661, 78.473, 75.994, 73.29, 74.379, 73.555],
  "Optimizer iterations": 101,
  "Optimizer params": [0.9999999999999999, 0.9999999999999998, 0.7101506472914585, 0.7133760062913546, 0.17980647500426084, 0.0898098857800684],
  "P": 3,
  "Problem": "DSP",
  "QPU": "7000000",
  "Qubits": 16,
  "Shots": 4096,
  "Size": 11,
  "Total Algorithm duration [s]": 7.551,
  "Total Classic duration [s]": 6.826257,
  "Total Quantum duration [s]": 0.724743
}
