{
  "Depth": 834.0,
  "Expectation Value": -4.938775539398193,
  "Job durations [ms]": [7.1122, 7.1805, 7.5026, 7.5816, 7.141, 7.1846000000000005, 7.1387, 6.9768, 7.1644, 7.1136, 7.1251, 7.054399999999999, 7.0866, 7.1386, 7.1405, 7.2813, 7.2103, 7.350899999999999, 7.1833, 7.076899999999999, 7.2837, 7.118799999999999, 7.1635, 7.0793, 7.1735, 7.1173, 7.081600000000001, 7.1332, 7.203, 7.249700000000001, 7.537699999999999, 6.9376999999999995, 6.9334, 6.9944999999999995, 7.148, 7.1261, 7.1625, 7.0841, 7.1163, 7.1261, 7.1314, 7.0968, 7.3331, 7.3325, 7.2694, 7.0878, 7.3856, 7.0295000000000005, 6.9553, 7.1341, 7.1358999999999995, 7.1401, 7.1902, 7.1591, 7.1585, 7.184399999999999, 7.3326, 6.995, 7.2206, 7.1161, 7.195799999999999, 7.1277, 7.1304, 7.1229, 7.186599999999999, 7.0744, 7.1876, 7.1632, 7.260199999999999, 7.199, 7.5310999999999995, 6.8869, 7.1261, 7.0968, 7.167, 7.1855, 7.185300000000001, 7.1308, 7.1289, 7.1057999999999995, 7.1198, 7.1078, 7.2826, 7.2783, 7.2562, 7.1637, 7.1493, 7.1237],
  "Optimal Expectation Value": -8.0,
  "Optimizer durations [ms]": [73.186, 73.777, 76.856, 79.353, 75.688, 73.71, 73.385, 79.107, 73.564, 73.046, 73.187, 72.523, 72.917, 73.401, 73.376, 74.864, 83.627, 80.501, 73.669, 72.615, 74.588, 73.075, 73.363, 72.589, 73.564, 73.07, 72.758, 73.247, 73.998, 74.44, 77.26, 80.995, 80.73, 81.496, 73.371, 73.218, 73.582, 72.698, 72.949, 73.146, 73.173, 73.105, 75.115, 83.192, 75.574, 72.743, 75.669, 81.975, 81.061, 73.327, 73.061, 73.21, 73.934, 73.471, 73.392, 74.277, 84.87, 81.426, 74.195, 75.074, 73.963, 73.135, 73.208, 73.144, 73.84, 72.673, 73.649, 73.531, 74.561, 73.981, 77.682, 80.274, 78.084, 82.444, 73.562, 73.807, 73.925, 73.193, 73.049, 73.015, 73.066, 73.011, 74.776, 84.405, 75.737, 73.688, 73.395, 73.018],
  "Optimizer iterations": 88,
  "Optimizer params": [0.8125173488232394, 0.6731584401135107, 0.5356903495709793, 0.43432408145749263, 0.818137719511899, 0.6001689621450866],
  "P": 3,
  "Problem": "DSP",
  "QPU": "7000000",
  "Qubits": 16,
  "Shots": 4096,
  "Size": 11,
  "Total Algorithm duration [s]": 6.614,
  "Total Classic duration [s]": 5.9834247,
  "Total Quantum duration [s]": 0.6305753000000003
}
