{
  "Depth": 834.0,
  "Expectation Value": -5.9358110427856445,
  "Job durations [ms]": [7.2522, 7.1964999999999995, 7.1918, 7.4076, 7.5341000000000005, 7.1957, 7.3491, 7.3345, 6.9524, 7.262700000000001, 7.2267, 7.194500000000001, 7.2334000000000005, 7.230300000000001, 7.2013, 7.2083, 7.6399, 7.451499999999999, 7.0079, 7.208799999999999, 7.2419, 7.245, 7.2311, 7.1912, 7.313400000000001, 7.2862, 7.2141, 7.1886, 7.2233, 7.4383, 7.5572, 7.007700000000001, 7.208799999999999, 7.2724, 7.2324, 6.9666, 7.23, 7.1764, 7.2183, 7.228, 7.1979, 7.2297, 7.2728, 7.5221, 7.114, 7.236000000000001, 7.4444, 7.323600000000001, 7.242400000000001, 7.2807, 7.1843, 7.1915, 7.2998, 7.2193, 7.202, 7.2086, 7.6038, 7.6829, 7.188199999999999, 7.2071000000000005, 7.203, 7.188199999999999, 7.2431, 7.1983999999999995, 7.2172, 7.2661999999999995, 7.1711, 7.2119, 7.2272, 7.3045, 7.3383, 7.0542, 7.1859, 7.2847, 7.221, 7.2829, 7.2043, 7.227, 7.1712, 7.2288, 7.196, 7.2275, 7.199599999999999, 7.405, 7.5814, 7.2019],
  "Optimal Expectation Value": -8.0,
  "Optimizer durations [ms]": [74.349, 73.811, 74.068, 77.38, 78.908, 73.945, 75.724, 79.768, 80.392, 74.464, 74.255, 73.729, 74.074, 74.149, 73.941, 73.922, 78.484, 84.579, 79.754, 73.859, 74.4, 74.224, 74.244, 73.902, 74.96, 74.705, 74.06, 73.728, 74.096, 76.295, 80.535, 81.796, 73.887, 74.661, 74.126, 81.279, 74.098, 73.819, 74.188, 74.13, 73.716, 74.258, 74.631, 76.963, 77.404, 74.276, 76.48, 75.793, 74.513, 74.622, 73.584, 73.785, 74.8, 73.922, 73.993, 73.983, 77.805, 83.658, 75.365, 73.958, 73.85, 73.667, 74.311, 73.808, 73.969, 74.606, 73.47, 74.004, 74.211, 77.133, 84.924, 82.306, 73.739, 74.795, 74.247, 74.75, 73.907, 74.279, 73.556, 74.15, 73.943, 74.214, 74.438, 75.966, 77.771, 79.405],
  "Optimizer iterations": 86,
  "Optimizer params": [0.8975319740828027, 0.6903259618587825, 0.4176420507292417, 0.1725768305279128, 0.8677552458038226, 0.13502236187086447],
  "P": 3,
  "Problem": "DSP",
  "QPU": "7000000",
  "Qubits": 16,
  "Shots": 4096,
  "Size": 11,
  "Total Algorithm duration [s]": 6.497,
  "Total Classic duration [s]": 5.8729583,
  "Total Quantum duration [s]": 0.6240417000000001
}
