{
  "Depth": 834.0,
  "Expectation Value": -6.3098368644714355,
  "Job durations [ms]": [7.2432, 7.2097999999999995, 7.1403, 7.1563, 7.2985999999999995, 7.5014, 7.0593, 7.1789000000000005, 7.2349, 6.9604, 7.1307, 7.1815999999999995, 7.175, 7.1877, 7.1913, 7.1385, 7.1727, 7.1519, 7.586200000000001, 7.5729999999999995, 7.1533, 7.126399999999999, 7.1982, 9.126199999999999, 7.4414, 7.209700000000001, 7.3746, 7.4799999999999995, 7.4937, 7.4874, 7.4377, 7.6868, 7.3352, 7.1206000000000005, 7.1179, 7.1694, 7.1448, 7.23, 7.1943, 7.166399999999999, 7.1254, 7.1213, 7.1663, 7.109, 7.1667, 7.892400000000001, 7.6356, 7.6742, 7.6844, 7.5201, 7.2242, 7.4439, 7.4422999999999995, 7.15, 7.217300000000001, 7.6502, 7.4439, 7.844500000000001, 7.6902, 7.0072, 7.1578, 7.1982, 7.1831000000000005, 7.1772, 7.1625, 7.1776, 7.274100000000001, 7.254700000000001, 7.4062, 7.4168, 7.7397, 7.2572, 7.4434000000000005, 7.3915999999999995, 7.4468, 7.1049, 7.1997, 7.1613, 7.1182, 7.1342, 7.164000000000001, 7.3995, 7.223, 8.1044, 7.4225, 7.1894, 7.1744, 6.9645, 7.1393, 7.169700000000001, 7.1707, 7.2262, 7.1699, 7.1906, 7.1573, 7.182799999999999, 7.4313, 7.5741000000000005, 7.2627999999999995, 7.2092, 7.2165, 7.1739999999999995, 7.2086, 7.1476, 7.1427000000000005, 7.1538, 7.2292, 7.1101, 7.1907000000000005, 7.181, 7.790100000000001, 7.454],
  "Optimal Expectation Value": -8.0,
  "Optimizer durations [ms]": [74.462, 74.151, 73.381, 73.513, 75.032, 76.731, 82.049, 73.874, 74.06, 81.172, 73.385, 73.569, 73.7, 73.74, 73.846, 73.169, 73.496, 73.405, 82.23, 78.605, 73.583, 73.135, 73.704, 94.327, 82.691, 79.094, 75.918, 76.699, 77.028, 77.121, 76.436, 86.129, 75.587, 73.035, 73.198, 75.291, 73.134, 74.369, 73.787, 73.63, 73.197, 73.172, 73.656, 75.619, 73.713, 81.091, 84.464, 83.856, 78.816, 82.217, 82.505, 81.181, 81.074, 83.283, 82.718, 83.452, 77.147, 85.214, 84.064, 79.997, 73.736, 73.998, 73.907, 73.701, 73.542, 73.823, 74.562, 74.54, 76.175, 80.905, 84.407, 84.651, 81.396, 76.513, 81.173, 82.592, 74.106, 73.422, 72.949, 73.235, 73.509, 75.984, 74.096, 83.75, 81.943, 73.636, 74.638, 81.523, 73.305, 73.41, 73.573, 74.524, 73.736, 73.781, 73.488, 73.683, 76.221, 82.124, 74.477, 74.064, 73.967, 73.692, 73.97, 75.192, 73.387, 73.457, 74.27, 72.868, 73.939, 73.829, 80.031, 80.088],
  "Optimizer iterations": 112,
  "Optimizer params": [1.0, 0.4738327617117483, 0.07624826671706764, 0.954411664764788, 0.8633007536673014, 0.162444365427372],
  "P": 3,
  "Problem": "DSP",
  "QPU": "7000000",
  "Qubits": 16,
  "Shots": 4096,
  "Size": 11,
  "Total Algorithm duration [s]": 8.593,
  "Total Classic duration [s]": 7.7746961,
  "Total Quantum duration [s]": 0.8183039000000002
}
