{
  "Depth": 834.0,
  "Expectation Value": -4.486978530883789,
  "Job durations [ms]": [7.2167, 7.129, 7.2006, 7.1399, 7.6333, 7.5016, 7.1633000000000004, 7.1667, 7.136799999999999, 7.215400000000001, 7.2251, 7.115, 7.1286, 7.2028, 7.2483, 7.1447, 7.0872, 7.2802999999999995, 7.1919, 7.036899999999999, 7.2462, 7.190099999999999, 7.1598, 7.2027, 7.1599, 7.149, 7.1684, 7.1193, 7.1793, 7.1938, 7.1821, 7.4257, 7.5307, 7.1569, 7.1827000000000005, 6.9963, 7.1667, 7.1113, 7.1442, 7.1276, 7.1539, 7.1573, 7.2066, 7.112, 7.3955, 7.2112, 6.9056, 7.175199999999999, 7.1081, 7.1519, 7.1269, 7.1841, 7.1253, 7.2341999999999995, 7.2052000000000005, 7.288399999999999, 7.1914, 7.2007, 7.2105, 6.9679, 7.1132, 7.2187, 7.1412, 7.163, 7.1240000000000006, 7.179600000000001, 7.1735999999999995, 7.180899999999999, 7.227, 7.2499, 7.1709, 7.2028, 7.512300000000001, 6.9382, 6.9001, 7.0505, 7.1764, 7.204000000000001, 7.1455, 7.1485],
  "Optimal Expectation Value": -8.0,
  "Optimizer durations [ms]": [74.278, 73.227, 74.004, 73.314, 78.176, 77.244, 73.39, 73.554, 73.141, 73.824, 74.042, 73.027, 73.205, 73.863, 74.236, 73.347, 72.727, 74.75, 83.447, 82.106, 74.481, 73.985, 73.616, 73.782, 73.542, 73.223, 73.567, 72.93, 73.551, 73.81, 73.82, 76.028, 77.439, 73.271, 73.88, 81.449, 73.49, 78.552, 73.261, 73.313, 73.391, 73.471, 73.845, 73.049, 75.823, 83.722, 80.565, 73.644, 73.109, 73.207, 73.179, 73.698, 73.001, 74.18, 74.01, 74.887, 73.719, 73.892, 83.591, 81.332, 73.029, 73.975, 73.284, 73.59, 73.205, 73.803, 73.552, 74.657, 74.138, 74.445, 73.577, 74.106, 77.599, 80.9, 80.496, 82.083, 73.586, 73.87, 73.293, 73.667],
  "Optimizer iterations": 80,
  "Optimizer params": [0.8669934847033216, 0.7620873500243919, 0.5735361833391647, 0.19856191842156987, 0.7332064294412567, 0.9686412947089189],
  "P": 3,
  "Problem": "DSP",
  "QPU": "7000000",
  "Qubits": 16,
  "Shots": 4096,
  "Size": 11,
  "Total Algorithm duration [s]": 6.0,
  "Total Classic duration [s]": 5.425511,
  "Total Quantum duration [s]": 0.574489
}
