{
  "Depth": 834.0,
  "Expectation Value": -4.380906581878662,
  "Job durations [ms]": [7.196, 7.1986, 7.2026, 7.1456, 7.3145, 7.2023, 7.171399999999999, 7.286, 7.3553999999999995, 7.3704, 7.252599999999999, 7.266, 7.3148, 7.2489, 7.2211, 7.2119, 7.2589999999999995, 7.1975, 7.1928, 7.2252, 7.3072, 7.2783, 7.4511, 7.5241, 7.2714, 7.334700000000001, 7.023, 7.1976, 7.2753000000000005, 7.2169, 7.3382, 7.2071000000000005, 7.2123, 7.1827000000000005, 7.2825, 7.4849, 7.6932, 7.2440999999999995, 7.1788, 7.2719000000000005, 7.2002999999999995, 7.1805, 7.1711, 7.286499999999999, 7.254499999999999, 7.2062, 7.2302, 7.3193, 7.3139, 7.306100000000001, 6.9943, 7.2364999999999995, 7.2237, 7.196400000000001, 7.2546, 7.2414000000000005, 7.2307, 7.3166, 7.3333, 7.2431, 7.2802999999999995, 7.1978, 7.4294, 7.5269, 7.2639000000000005, 7.311, 7.0157, 7.1615, 7.3258, 7.235, 7.2821, 7.1689, 7.2241, 7.1743, 7.1949, 7.436599999999999, 7.7659, 7.3961, 7.2459999999999996, 7.203099999999999, 7.196, 7.253, 7.216, 7.1694, 7.3125, 7.186299999999999, 7.2344, 7.251600000000001, 7.2801, 7.6494, 7.0618, 7.179600000000001],
  "Optimal Expectation Value": -8.0,
  "Optimizer durations [ms]": [73.823, 73.826, 73.89, 78.149, 74.932, 73.872, 73.594, 74.659, 75.469, 84.252, 79.247, 74.427, 74.921, 74.5, 74.123, 73.805, 74.374, 73.965, 73.754, 74.084, 75.083, 74.684, 76.525, 77.183, 74.636, 75.193, 80.893, 73.855, 74.504, 74.056, 75.327, 74.029, 74.082, 73.534, 74.88, 76.924, 80.442, 77.16, 74.092, 74.595, 73.866, 73.593, 73.553, 74.699, 74.351, 73.95, 74.058, 74.919, 75.146, 84.765, 81.567, 74.155, 74.2, 73.704, 74.493, 74.319, 74.168, 75.146, 75.087, 74.238, 74.707, 73.755, 76.803, 79.295, 74.584, 75.749, 81.671, 73.567, 75.258, 74.356, 74.82, 73.594, 74.245, 73.569, 73.927, 76.331, 84.311, 77.717, 74.405, 74.07, 73.812, 74.372, 74.073, 73.649, 75.026, 73.69, 74.045, 74.478, 74.639, 83.336, 81.874, 73.842],
  "Optimizer iterations": 92,
  "Optimizer params": [0.723982344950363, 0.6051935557593892, 0.540596196746583, 0.01093131891315833, 0.226580244825446, 0.41915012527189294],
  "P": 3,
  "Problem": "DSP",
  "QPU": "7000000",
  "Qubits": 16,
  "Shots": 4096,
  "Size": 11,
  "Total Algorithm duration [s]": 6.942,
  "Total Classic duration [s]": 6.2736235,
  "Total Quantum duration [s]": 0.6683765
}
