{
  "Circuit execution durations [ms]": [2.2864, 2.29, 2.2719, 2.285, 2.2756, 2.2614, 2.3041, 2.2748, 2.2926, 2.2880000000000003, 1.4407, 1.4566, 2.1736, 1.4362000000000001, 2.2915, 1.441, 2.2967, 1.4484000000000001, 2.3248, 1.48, 2.2802000000000002, 1.4937, 2.3080000000000003, 1.4358000000000002, 2.2895, 1.4249, 2.2677, 1.4763, 2.2779, 1.4356, 1.4423000000000001, 2.2504, 2.2829, 2.2906, 2.265, 1.4446999999999999, 1.46, 1.4396, 2.2872, 1.4649999999999999, 2.303, 2.2880000000000003, 2.2767, 2.3040000000000003, 2.2855000000000003, 2.2895, 2.2901000000000002, 2.2776, 2.3281, 2.3089, 1.4395, 2.2778, 1.4819, 2.2728, 1.4606000000000001, 2.2957, 1.2194, 1.4483, 2.3081, 1.2748, 1.4453, 2.2927999999999997, 2.2729, 2.2799, 2.2458, 2.2926, 2.342, 2.2947, 2.27, 2.2832, 2.2801, 2.2811, 2.2748999999999997, 2.2738, 2.2851999999999997, 2.384, 2.2935999999999996, 2.2945, 2.3007, 2.2536, 2.3208, 2.2723999999999998, 2.2698, 2.3472, 2.3443, 2.2979, 2.3042000000000002, 2.2689, 2.2926],
  "Depth": 275.0,
  "Expectation Value": -22.0,
  "Optimal Expectation Value": -22.0,
  "Optimizer durations [ms]": [30.338, 30.366, 30.205, 30.026, 30.069, 29.844, 30.213, 30.231, 30.121, 30.142, 21.675, 22.149, 38.689, 21.604, 30.165, 21.675, 30.046, 21.8, 30.418, 22.117, 30.132, 22.128, 30.155, 21.59, 34.108, 21.166, 30.038, 21.686, 30.057, 21.405, 21.606, 29.884, 30.128, 30.094, 29.983, 21.714, 21.715, 21.687, 30.239, 21.699, 30.817, 29.883, 30.236, 30.115, 29.988, 30.204, 30.338, 29.77, 30.575, 30.273, 23.804, 33.505, 22.189, 29.987, 21.929, 33.319, 29.223, 22.007, 30.242, 29.346, 21.757, 30.332, 30.179, 30.22, 29.67, 30.147, 30.443, 30.04, 29.815, 30.08, 29.912, 30.203, 30.052, 30.125, 30.049, 31.015, 30.203, 30.257, 30.088, 29.873, 30.335, 30.116, 29.896, 30.807, 36.908, 30.131, 30.32, 29.745, 30.137],
  "Optimizer iterations": 89,
  "Optimizer params": [0.11789308208861697, 0.9686220753549263, 0.8222052051326818, 0.3741439916023924, 0.6606850795499615, 0.5152095321762769],
  "P": 3,
  "Problem": "MCP",
  "QJob durations [ms]": [2.2864, 2.29, 2.2719, 2.285, 2.2756, 2.2614, 2.3041, 2.2748, 2.2926, 2.2880000000000003, 1.4407, 1.4566, 2.1736, 1.4362000000000001, 2.2915, 1.441, 2.2967, 1.4484000000000001, 2.3248, 1.48, 2.2802000000000002, 1.4937, 2.3080000000000003, 1.4358000000000002, 2.2895, 1.4249, 2.2677, 1.4763, 2.2779, 1.4356, 1.4423000000000001, 2.2504, 2.2829, 2.2906, 2.265, 1.4446999999999999, 1.46, 1.4396, 2.2872, 1.4649999999999999, 2.303, 2.2880000000000003, 2.2767, 2.3040000000000003, 2.2855000000000003, 2.2895, 2.2901000000000002, 2.2776, 2.3281, 2.3089, 1.4395, 2.2778, 1.4819, 2.2728, 1.4606000000000001, 2.2957, 1.2194, 1.4483, 2.3081, 1.2748, 1.4453, 2.2927999999999997, 2.2729, 2.2799, 2.2458, 2.2926, 2.342, 2.2947, 2.27, 2.2832, 2.2801, 2.2811, 2.2748999999999997, 2.2738, 2.2851999999999997, 2.384, 2.2935999999999996, 2.2945, 2.3007, 2.2536, 2.3208, 2.2723999999999998, 2.2698, 2.3472, 2.3443, 2.2979, 2.3042000000000002, 2.2689, 2.2926],
  "QPU": "7000000",
  "Qubits": 15,
  "Queue durations [ms]": [0.0, 0.0, 0.0, 0.0, 0.0, 0.0, 0.0, 0.0, 0.0, 0.0, 0.0, 0.0, 0.0, 0.0, 0.0, 0.0, 0.0, 0.0, 0.0, 0.0, 0.0, 0.0, 0.0, 0.0, 0.0, 0.0, 0.0, 0.0, 0.0, 0.0, 0.0, 0.0, 0.0, 0.0, 0.0, 0.0, 0.0, 0.0, 0.0, 0.0, 0.0, 0.0, 0.0, 0.0, 0.0, 0.0, 0.0, 0.0, 0.0, 0.0, 0.0, 0.0, 0.0, 0.0, 0.0, 0.0, 0.0, 0.0, 0.0, 0.0, 0.0, 0.0, 0.0, 0.0, 0.0, 0.0, 0.0, 0.0, 0.0, 0.0, 0.0, 0.0, 0.0, 0.0, 0.0, 0.0, 0.0, 0.0, 0.0, 0.0, 0.0, 0.0, 0.0, 0.0, 0.0, 0.0, 0.0, 0.0, 0.0],
  "Shots": 4096,
  "Size": 15,
  "Total Algorithm duration [s]": 2.533,
  "Total Classic duration [s]": 2.3489743,
  "Total Quantum duration [s]": 0.18402570000000001
}
