{
  "Depth": 2.0,
  "Job durations [ms]": [27.681000530719757, 28.157999739050865, 27.641499415040016, 27.778499759733677, 28.36150024086237, 28.655500151216984, 61.38650141656399, 27.808000333607197, 27.875499799847603, 27.25300006568432, 27.208000421524048, 27.123000472784042, 27.14500017464161, 59.95299853384495, 27.09400001913309, 26.98999922722578, 27.22600009292364, 27.014500461518764, 27.192000299692154, 27.3029999807477, 27.084000408649445, 60.17650105059147, 27.20949985086918, 27.696999721229076, 27.500499971210957, 27.525000274181366, 27.381000109016895, 27.239499613642693, 61.01300101727247, 27.25550066679716, 27.270499616861343, 27.42249984294176, 27.29749958962202, 27.451499365270138, 27.445499785244465, 60.391999781131744, 29.088499955832958, 27.211499400436878, 27.353999204933643, 27.2019999101758, 27.24249940365553, 27.304000221192837, 28.951999731361866, 63.47900163382292, 28.68750039488077, 30.32650053501129, 29.302500188350677, 37.7424992620945, 29.02049943804741, 27.837499976158142, 62.97150067985058, 27.61800028383732, 33.282000571489334, 32.02399984002113, 32.704999670386314, 30.54200019687414],
  "Optimizer durations [ms]": [58.086, 59.157, 58.196, 58.669, 59.722, 60.249, 126.13, 58.632, 58.41, 57.181, 56.869, 56.66, 56.72, 122.829, 56.972, 56.578, 56.756, 56.497, 57.148, 57.15, 56.699, 123.308, 57.39, 58.373, 57.787, 57.715, 57.424, 57.074, 124.884, 56.986, 57.125, 57.661, 57.079, 57.403, 57.446, 123.309, 61.117, 57.521, 57.329, 57.045, 57.0, 57.315, 61.095, 130.021, 60.798, 64.181, 62.544, 78.978, 62.005, 58.712, 129.215, 58.46, 69.89, 67.504, 68.695, 64.44],
  "Optimizer iterations": 56,
  "Qubits": 4,
  "Total Algorithm duration [s]": 3.79,
  "Total Classic duration [s]": 1.9758984977006913,
  "Total Quantum duration [s]": 1.8141015022993088,
  "Expectation Value": -2.2735273838043213,
  "Optimal Expectation Value": -2.2741000652313232,
  "Optimizer params": [0.636522773992793, 0.47657145368478737, 0.6375680353383653, 0.4759959759411471],
  "QPU": "9000001",
  "Problem": "RH",
  "Size": 4,
  "P": 0,
  "Shots": 4096
}