{
  "Depth": 287.0,
  "Expectation Value": -1.0,
  "Job durations [ms]": [12.034177780151367, 12.172937393188477, 12.345314025878906, 12.436389923095703, 11.949777603149414, 12.330055236816406, 12.117624282836914, 12.131214141845703, 11.998176574707031, 12.52436637878418, 11.977672576904297, 12.024879455566406, 12.555122375488281, 11.924266815185547, 12.309074401855469, 12.018680572509766, 12.10331916809082, 11.926412582397461, 12.32600212097168, 12.200117111206055, 12.112140655517578, 12.045621871948242, 11.95669174194336, 11.949539184570313, 12.394189834594727, 12.59469985961914, 11.875152587890625, 12.169122695922852, 12.100458145141602, 12.505292892456055, 11.993408203125, 11.940717697143555, 11.893510818481445, 11.968135833740234, 12.456417083740234, 11.92927360534668, 12.039899826049805, 12.525081634521484, 12.135982513427734, 12.078046798706055, 11.78598403930664, 12.232542037963867, 12.10784912109375, 12.30168342590332, 11.880159378051758, 12.414216995239258, 12.123346328735352, 12.401819229125977, 12.380361557006836, 12.266397476196289, 12.060165405273438, 12.204408645629883, 12.290477752685547, 12.00246810913086, 12.281417846679688, 11.881113052368164, 11.983633041381836, 12.006521224975586, 11.920452117919922, 12.119293212890625, 12.433290481567383, 12.01176643371582, 12.131929397583008, 12.026309967041016, 11.938095092773438, 12.078523635864258, 11.951684951782227, 12.309551239013672, 12.10165023803711, 11.996269226074219, 12.071847915649414, 11.991500854492188, 12.27879524230957, 12.357234954833984, 12.078046798706055, 12.087583541870117],
  "Optimal Expectation Value": -1.0,
  "Optimizer durations [ms]": [251.215, 207.838, 208.465, 250.771, 208.8, 207.778, 247.395, 207.132, 251.684, 209.873, 209.193, 250.458, 208.026, 207.438, 248.293, 208.099, 252.041, 208.015, 210.508, 250.375, 207.881, 208.15, 248.622, 207.91, 252.566, 207.94, 208.061, 251.415, 207.651, 208.21, 247.328, 207.671, 252.209, 207.635, 208.312, 250.281, 207.931, 208.224, 247.799, 207.751, 252.289, 207.803, 207.818, 250.193, 207.85, 208.076, 247.583, 208.312, 252.832, 208.132, 207.832, 250.446, 208.553, 208.006, 247.968, 207.633, 252.188, 208.964, 207.539, 253.118, 209.015, 207.963, 248.71, 207.804, 254.405, 207.742, 209.068, 250.086, 208.069, 207.609, 247.336, 207.693, 252.447, 207.676, 208.19, 249.911],
  "Optimizer iterations": 76,
  "Optimizer params": [0.5851817767427718, 0.2976964221481318, 0.8371629968696187, 0.4913693229085441, 0.8154568801415002, 0.9781273580075784],
  "P": 3,
  "Problem": "MIS",
  "QPU": "3010008",
  "Qubits": 8,
  "Shots": 4096,
  "Size": 5,
  "Total Algorithm duration [s]": 17.043,
  "Total Classic duration [s]": 16.12044264602661,
  "Total Quantum duration [s]": 0.9225573539733887
}
