{
  "Depth": 113.0,
  "Job durations [ms]": [0.8509, 0.8328, 0.8249000000000001, 0.8876, 0.83, 0.8058, 0.884, 0.828, 0.8917, 1.1808999999999998, 0.8094, 1.1112, 1.1068, 1.0262, 0.9277000000000001, 1.1047, 0.916, 0.8185, 0.9767, 0.8595, 0.8722, 0.8616999999999999, 0.7961, 1.1628999999999998, 1.1393, 0.8971, 0.8051999999999999, 0.6611, 0.5864, 0.6648000000000001, 0.8932, 0.5805, 0.7671, 0.7862, 1.0705, 0.8023, 0.9399000000000001, 0.9963000000000001, 0.6242, 1.13, 1.0562, 0.6478999999999999, 0.5955999999999999, 0.8228000000000001, 0.6019000000000001, 0.8312, 0.6447, 0.778, 0.747, 0.7801, 0.7377, 0.7605999999999999, 0.7232999999999999, 0.7636999999999999, 0.9134, 0.8975, 0.9259999999999999, 0.8098, 0.7429, 0.79, 0.7496999999999999, 0.8968999999999999, 0.8083, 0.8981, 0.7592, 0.7921, 0.9127000000000001, 0.9429, 0.7425, 0.7501, 0.8532000000000001, 0.7414000000000001, 0.781, 0.762, 0.8248, 0.7655, 0.7861, 0.7451, 0.7793, 0.6891999999999999, 0.7936, 0.6878, 0.7376, 0.7484, 0.7822, 0.7343000000000001, 0.7646000000000001, 0.7469, 0.7333, 0.7917, 0.7015, 0.756],
  "Optimizer durations [ms]": [8.867, 9.449, 8.738, 9.417, 9.075, 8.433, 9.458, 8.642, 9.425, 17.104, 13.577, 15.17, 16.233, 17.258, 14.405, 12.434, 12.477, 8.921, 10.297, 8.919, 9.629, 9.147, 8.502, 12.152, 12.135, 9.613, 13.35, 15.369, 15.954, 14.312, 9.482, 11.237, 8.617, 8.204, 12.679, 15.441, 15.777, 11.427, 13.091, 13.488, 11.799, 12.906, 11.94, 10.482, 16.021, 12.242, 10.131, 8.912, 8.023, 8.49, 7.698, 8.158, 7.987, 8.256, 9.944, 9.543, 9.987, 8.706, 8.0, 8.332, 8.095, 9.522, 9.092, 9.903, 8.086, 9.194, 9.577, 10.082, 9.253, 8.508, 8.949, 7.89, 8.633, 8.176, 8.618, 8.053, 8.446, 8.057, 8.385, 7.499, 8.397, 12.191, 7.638, 8.005, 8.628, 7.824, 8.068, 7.933, 8.387, 8.268, 8.242, 8.061],
  "Optimizer iterations": 92,
  "Qubits": 6,
  "Total Algorithm duration [s]": 0.941,
  "Total Classic duration [s]": 0.8649613999999999,
  "Total Quantum duration [s]": 0.07603860000000001,
  "Expectation Value": -7.692307472229004,
  "Optimal Expectation Value": -8.0,
  "Optimizer params": [0.9332520413875757, 0.9999034030320463, 0.8452166790412972, 0.4013258544163724, 0.7580175279202308, 0.5227009811315625],
  "QPU": "7000000",
  "Problem": "MCP",
  "Size": 6,
  "P": 3,
  "Shots": 4096
}