{
  "Depth": 82.0,
  "Expectation Value": -1.0,
  "Job durations [ms]": [0.5923999999999999, 0.5717, 0.6348, 0.5781000000000001, 0.6794, 0.5888, 0.5955, 0.642, 0.5966, 0.6156999999999999, 0.5745, 0.5976, 0.5612, 0.5854, 0.5683, 0.5646, 0.6243000000000001, 0.5647, 0.5922, 0.6246999999999999, 0.5889, 0.607, 0.5873, 0.5934999999999999, 0.596, 0.6192, 0.6238, 0.5816, 0.6453, 0.5902000000000001, 0.588, 0.5759, 0.5819, 0.6027, 0.6129, 0.5986, 0.6382, 0.6101, 0.5228, 0.607, 0.5838, 0.6043999999999999, 0.5913, 0.593, 0.6418, 0.5802999999999999, 0.5836, 0.5992000000000001, 0.5947, 0.6293, 0.5860000000000001, 0.609, 0.5928, 0.6040000000000001, 0.6008, 0.5794, 0.6591, 0.5831999999999999, 0.6679999999999999, 0.5851, 0.5888, 0.6192, 0.6349, 0.6591, 0.5955, 0.6973, 0.6055, 0.6217, 0.6417, 0.5864, 0.6045, 0.5875, 0.5772, 0.5913, 0.6011000000000001, 0.5984, 0.5838, 0.6047, 0.5925, 0.5905, 0.6614, 0.5833, 0.6062, 0.6124999999999999, 0.6515, 0.5902000000000001, 0.6163, 0.6398, 0.5869, 0.5629, 0.5967, 0.603],
  "Optimal Expectation Value": -1.0,
  "Optimizer durations [ms]": [7.721, 6.256, 6.936, 6.425, 7.343, 6.165, 6.572, 6.779, 6.652, 6.583, 6.155, 6.565, 6.222, 6.332, 6.396, 5.877, 6.771, 6.246, 6.476, 6.457, 6.606, 6.684, 6.159, 6.437, 6.308, 6.578, 6.715, 6.402, 7.117, 6.416, 6.031, 6.632, 5.994, 6.591, 6.447, 6.636, 6.923, 6.723, 10.956, 6.794, 6.365, 6.574, 6.33, 6.287, 7.074, 6.426, 6.132, 6.574, 6.539, 6.76, 6.251, 6.577, 6.223, 6.7, 6.571, 6.373, 7.39, 6.249, 7.16, 6.429, 6.295, 6.601, 7.117, 7.111, 6.381, 7.348, 6.539, 6.861, 6.577, 6.763, 6.368, 6.316, 6.56, 6.382, 6.439, 6.495, 6.155, 6.82, 6.261, 6.454, 7.053, 6.431, 6.565, 6.649, 7.129, 6.396, 6.385, 6.924, 6.474, 7.09, 6.301, 6.881],
  "Optimizer iterations": 92,
  "Optimizer params": [0.09475947005373678, 0.4529968128585673, 0.17846349801594663, 0.018017358035234042, 0.9999632496789125, 7.950922939435649e-18],
  "P": 3,
  "Problem": "MIS",
  "QPU": "7000000",
  "Qubits": 4,
  "Shots": 4096,
  "Size": 3,
  "Total Algorithm duration [s]": 0.609,
  "Total Classic duration [s]": 0.5535154999999999,
  "Total Quantum duration [s]": 0.0554845
}
