{
  "Depth": 18.5,
  "Expectation Value": -8.982430458068848,
  "Job durations [ms]": [0.4097500059287995, 0.3952999977627769, 0.5837500066263601, 0.5773000011686236, 0.4233499930705875, 0.5239500023890287, 0.39770000148564577, 0.3878999996231869, 0.4875499871559441, 0.3964500065194443, 0.38595001387875527, 0.3756499936571345, 0.3929499944206327, 0.5657500005327165, 0.4147500003455207, 0.3979500033892691, 0.382099999114871, 0.40424999315291643, 0.39429999014828354, 0.40204999095294625, 0.39319999632425606, 0.38889999268576503, 0.5513500072993338, 0.4634500073734671, 0.39465000736527145, 0.4484999954001978, 0.4130000015720725, 0.3956000000471249, 0.4125499981455505, 0.41220001003239304, 0.382099999114871, 0.4045999958179891, 0.5283000064082444, 0.3902000025846064, 0.38764999771956354, 0.5674999847542495, 0.5896499933442101, 0.39400000241585076, 0.38594999932684004, 0.3947500081267208, 0.41900000360328704, 0.5532000068342313, 0.4063500091433525, 0.3914499975508079, 0.38964999839663506, 0.40859999717213213, 0.4636000085156411, 0.39304999518208206, 0.5081499984953552, 0.41930000588763505, 0.38294999103527516, 0.5987000040477142, 0.4744000034406781, 0.37784999585710466, 0.3885500045726076, 0.37989999691490084, 0.5199500155868009, 0.39370000013150275, 0.3886500053340569, 0.39554999966640025, 0.39674999425187707, 0.5428499862318859, 0.382099999114871, 0.4195000074105337, 0.3912999964086339, 0.5113500083098188, 0.3996500017819926, 0.3871999942930415, 0.38564999704249203, 0.4530999867711216, 0.3862000012304634, 0.42209999810438603, 0.4854500002693385, 0.39539999852422625, 0.4134499904466793, 0.39260000630747527, 0.450549996457994, 0.4249499907018617, 0.47944999823812395, 0.38270000368356705, 0.4980499797966331, 0.5252499831840396, 0.39755000034347177, 0.40604999230708927, 0.3880500007653609, 0.38455000321846455, 0.37799999699927866, 0.3801499988185242, 0.38049998693168163, 0.41634999797679484, 0.3924000047845766, 0.38690000656060874, 0.38559999666176736, 0.43140001071151346, 0.38070000300649554, 0.45939999108668417, 0.3886500053340569, 0.38825000228825957, 0.3804500011028722, 0.38720000884495676, 0.571900003706105, 0.42660000326577574, 0.4124500119360164, 0.3869500069413334, 0.3926999925170094, 0.39465000736527145, 0.39164999907370657, 0.3889499930664897, 0.4250000056345016, 0.3868500061798841, 0.3997000021627173, 0.384749990189448, 0.5903499986743554, 0.38129999302327633, 0.3912000101990998, 0.4201499978080392, 0.39289999403990805, 0.40630000876262784, 0.4302500019548461, 0.38324999331962317, 0.41989999590441585, 0.5517500103451312, 0.5508500034920871, 0.5067999882157892, 0.39324999670498073, 0.4318999999668449, 0.3892499953508377, 0.4054000019095838, 0.4118000069865957, 0.3991999983554706, 0.3887000057147816, 0.3996500017819926, 0.5732000136049464, 0.5622500029858202, 0.4178000090178102, 0.38139999378472567, 0.42630000098142773, 0.3871000080835074, 0.39164999907370657, 0.3888000064762309, 0.388149986974895, 0.38314999255817384, 0.42875000508502126, 0.47989998711273074, 0.421799995820038, 0.38699999277014285, 0.4467499820748344, 0.39450000622309744, 0.4729000065708533, 0.3856999974232167, 0.49554998986423016, 0.38755001151002944, 0.5781499930890277, 0.3859999997075647, 0.5252999981166795, 0.4070000140927732, 0.45789999421685934, 0.3964000061387196, 0.3922500036424026, 0.4038499901071191, 0.3890000079991296, 0.576749982428737, 0.39715001184958965, 0.5943500145804137, 0.4174000059720129, 0.4072500014444813, 0.3876999981002882, 0.40025000635068864, 0.4161500110058114, 0.48919999971985817, 0.39605000347364694, 0.3946999931940809, 0.4022499924758449, 0.5271500122034922, 0.39850000757724047, 0.38225000025704503, 0.556800005142577, 0.4177000082563609, 0.5145499890204519, 0.41694998799357563, 0.38519999361597, 0.5240000173216686, 0.3894500114256516, 0.3958000015700236, 0.4007499956060201, 0.38684999162796885, 0.5295999872032553, 0.5365999968489632, 0.39420000393874943, 0.40129999979399145, 0.38905000837985426, 0.3967500088037923, 0.5559999990509823, 0.3939000016544014, 0.3894499968737364, 0.43990000267513096, 0.46535000728908926, 0.46424999891314656, 0.4089499998372048, 0.39650000690016896, 0.4862500063609332, 0.4007499956060201, 0.5829499859828502, 0.38795000000391155, 0.4097500059287995, 0.38684999162796885, 0.3963000053772703, 0.5464499845402315, 0.3847500047413632, 0.3804500011028722, 0.42074998782482, 0.541649991646409, 0.38055000186432153, 0.3899000003002584, 0.38344999484252185, 0.38150000909809023, 0.4254500090610236, 0.535350016434677, 0.48585000331513584, 0.5947499885223806, 0.37760000850539654, 0.460449984529987, 0.49130001571029425, 0.4026500100735575, 0.3913500113412738, 0.39870000910013914, 0.4384500061860308, 0.3882000019075349, 0.5274499853840098, 0.38840000343043357, 0.44695001270156354, 0.4091000009793788, 0.5190500087337568, 0.3870999935315922, 0.47855000593699515, 0.39319999632425606, 0.39575000118929893, 0.41665000026114285, 0.41680000140331686, 0.3804000007221475, 0.5127000040374696, 0.37775000964757055, 0.39030000334605575, 0.37259999953676015, 0.4972500028088689, 0.40270001045428216, 0.49384999147150666, 0.39435000508092344, 0.382099999114871, 0.38795000000391155, 0.4538999928627163, 0.5454500060295686, 0.3925500059267506, 0.3905500052496791, 0.38154999492689967, 0.38219999987632036, 0.3862000012304634, 0.3838499978883192, 0.3948500088881701, 0.385049992473796, 0.37910000537522137, 0.46880000445526093, 0.4222999996272847, 0.4817000008188188, 0.39185000059660524, 0.44645000889431685, 0.4378500016173348, 0.39075000677257776, 0.4153500049142167, 0.411000000895001, 0.3896999987773597, 0.5291499983286485, 0.39104999450501055, 0.5187000060686842, 0.3767000016523525, 0.49545000365469605, 0.4470999992918223, 0.3863500023726374, 0.3837999975075945, 0.5746500100940466, 0.40240000816993415, 0.39724999805912375, 0.39149999793153256, 0.39149999793153256, 0.4060500068590045, 0.3838499978883192, 0.4126499989069998, 0.3831000067293644, 0.3865999897243455, 0.42189999658148736, 0.4371499962871894, 0.3875499969581142, 0.47119997907429934, 0.39585000195074826, 0.40374998934566975, 0.4037000035168603, 0.3921999887097627, 0.3852499939966947, 0.38514999323524535, 0.4260499990778044, 0.39570000080857426, 0.39274999289773405, 0.3958999877795577, 0.38640000275336206, 0.38529999437741935, 0.3900499868905172, 0.38094999035820365, 0.3774499928113073, 0.3835499956039712, 0.38419998600147665, 0.3833999944617972, 0.3812500071944669, 0.45340000360738486, 0.4556499916361645, 0.39700001070741564, 0.3883500030497089, 0.3917499998351559, 0.44334999984130263, 0.3831000067293644, 0.3811000060522929, 0.3895499976351857, 0.45795000914949924, 0.41960000817198306, 0.3978500026278198, 0.407600004109554, 0.3919000009773299, 0.42394999763928354, 0.39239999023266137, 0.38810000114608556, 0.3809000045293942, 0.413799993111752, 0.4004499933216721, 0.3900500014424324, 0.38655000389553607, 0.41804999636951834, 0.38434998714365065, 0.46430001384578645, 0.3942500043194741, 0.3932999970857054, 0.5154999962542206, 0.377949996618554, 0.3600999916670844, 0.5296500166878104, 0.5724999791709706, 0.5332000000635162, 0.42609999945852906, 0.417949995608069, 0.6236000044737011, 0.4820999893127009, 0.3929999948013574, 0.3809000045293942, 0.3872500092256814, 0.3831000067293644, 0.42019999818876386, 0.38115000643301755, 0.48474999493919313, 0.4618500097421929, 0.4015000013168901, 0.37555000744760036, 0.41414999577682465, 0.5522500141523778, 0.37825001345481724, 0.37310000334400684, 0.37680000241380185, 0.3788499889196828, 0.4790999955730513, 0.377349992049858, 0.4097499913768843, 0.392149988329038, 0.43929999810643494, 0.37769999471493065, 0.37894998968113214, 0.36690001434180886, 0.45715000305790454, 0.37804999738000333, 0.38469998980872333, 0.48990000505000353, 0.4228000034345314, 0.41024999518413097, 0.3846000035991892, 0.5270000110613182, 0.5974499945295975, 0.5587000050581992, 0.40940000326372683, 0.5675000138580799, 0.37540000630542636, 0.43754999933298677, 0.4155000060563907, 0.3921999887097627, 0.374850002117455, 0.3844500024570152, 0.3779500111704692, 0.5912500055273995, 0.375300005543977, 0.3829000052064657, 0.381649995688349, 0.3821499994955957, 0.3784500004258007, 0.4665500018745661, 0.37754999357275665, 0.3732999903149903, 0.37540000630542636, 0.47304999316111207, 0.3711000026669353, 0.5667999939760193, 0.39010000182315707, 0.4194000066490844, 0.525400013430044, 0.4370499955257401, 0.46359997941181064, 0.3821499994955957, 0.3844499879051, 0.4470999992918223, 0.5509999900823459, 0.3810500056715682, 0.4142500110901892, 0.3728000010596588, 0.3790500049944967, 0.3802999999606982, 0.5432500038295984, 0.38714999391231686, 0.38779999886173755, 0.39664999349042773, 0.5578999844146892, 0.39465000736527145, 0.37149999116081744, 0.37769999471493065, 0.3765500005101785, 0.4209000035189092, 0.5253499984974042, 0.4923000087728724, 0.3715000057127327, 0.3495999990263954, 0.367600005120039, 0.40905000059865415, 0.375300005543977, 0.36920000275131315, 0.37584999518003315, 0.5706000083591789, 0.5301499913912266, 0.3865000035148114, 0.3782999992836267, 0.3791499912040308, 0.37715000507887453, 0.38315000711008906, 0.39530001231469214, 0.382099999114871, 0.39169999945443124, 0.3831000067293644, 0.4184499994153157, 0.3868000057991594, 0.42224999924656004, 0.4226000019116327, 0.38315000711008906, 0.3929499944206327, 0.5596999981207773, 0.37865000194869936, 0.5154999962542206, 0.38409999979194254, 0.41725000482983887, 0.38359999598469585, 0.3770000039367005, 0.3836999967461452, 0.37740000698249787, 0.3897499991580844, 0.46159999328665435, 0.39185000059660524, 0.450999999884516, 0.36109999928157777, 0.3767000016523525, 0.3914499975508079, 0.3810500056715682, 0.47620000259485096, 0.3725499991560355, 0.48159998550545424, 0.39864999416749924, 0.37960000918246806, 0.3847500047413632, 0.44484999671112746, 0.4692999937105924, 0.38240000139921904, 0.418249997892417, 0.382099999114871, 0.36970000655855983, 0.5506000015884638, 0.38440000207629055, 0.37104998773429543, 0.3858499985653907, 0.546300012501888, 0.42919999395962805, 0.381949997972697, 0.37710000469814986, 0.37855000118725, 0.4626500012818724, 0.3825000021606684, 0.3796499950112775, 0.4302500019548461, 0.38795000000391155, 0.4167000006418675, 0.43354999797884375, 0.38144999416545033, 0.37810001231264323, 0.3837999975075945, 0.3833499940810725, 0.5016000068280846, 0.37224999687168747, 0.3807500033872202, 0.3872499946737662, 0.4144000122323632, 0.37959999463055283, 0.38189999759197235, 0.4665500018745661, 0.41665000026114285, 0.4123499966226518, 0.3878499992424622, 0.3927500074496493, 0.3756500082090497, 0.3659999929368496, 0.3911499952664599, 0.38819998735561967, 0.3064500051550567, 0.37634999898727983, 0.37275000067893416, 0.3947000077459961, 0.46594998275395483, 0.37554999289568514, 0.3789000038523227, 0.3826500033028424, 0.48309998237527907, 0.3613500011852011, 0.36034999357070774, 0.36985000770073384, 0.48669999523554, 0.34455000422894955, 0.5488500028150156, 0.3733500052476302],
  "Optimal Expectation Value": -9.83795166015625,
  "Optimizer durations [ms]": [26.666, 28.223, 23.035, 25.074, 23.696, 23.145, 23.785, 27.81, 24.406, 23.925, 24.679, 27.888, 20.177, 25.754, 21.054, 24.316, 24.306, 23.18, 25.637, 22.635, 24.357, 24.405, 27.429, 25.201, 24.572, 24.163, 25.06, 19.473, 28.087, 21.077, 23.145, 28.143, 22.877, 27.804, 27.629, 24.461, 27.319, 21.502, 19.103, 24.028, 19.916, 24.245, 25.82, 28.256, 15.78, 22.461, 23.778, 23.95, 19.504, 19.841, 24.114, 21.502, 23.846, 23.477, 28.018, 25.773, 25.834, 21.386, 23.544, 22.016, 24.93, 23.384, 28.058, 20.817, 24.67, 23.398, 27.489, 27.342, 24.713, 18.864, 20.421, 22.471, 23.192, 26.758, 15.952, 22.483, 19.568, 19.213, 26.617, 26.275, 27.627, 21.548, 23.529, 20.713, 25.164, 25.799, 27.357, 22.321, 27.906, 18.538, 24.553, 23.265, 15.637, 24.055, 27.951, 24.218, 21.313, 27.866, 27.629, 25.777, 24.473, 16.316, 22.035, 26.044, 27.639, 27.188, 21.294, 27.525, 19.935, 24.979, 23.799, 24.774, 23.31, 27.98, 20.557, 19.346, 25.865, 22.417, 24.091, 23.439, 18.795, 22.144, 26.838, 24.461, 23.955, 23.67, 27.896, 27.719, 28.184, 26.105, 23.201, 27.214, 26.005, 27.717, 19.404, 26.957, 19.406, 17.503, 25.837, 21.293, 20.251, 22.523, 17.655, 27.342, 21.477, 27.865, 20.16, 23.845, 19.485, 28.177, 24.611, 27.872, 24.65, 25.521, 24.087, 24.476, 21.675, 20.032, 27.882, 19.862, 27.956, 24.1, 24.696, 20.106, 20.299, 28.078, 25.284, 21.303, 19.025, 26.732, 28.041, 21.889, 23.544, 23.825, 23.506, 25.489, 26.105, 19.315, 25.433, 22.539, 21.666, 27.21, 26.541, 26.59, 25.557, 27.543, 24.596, 22.02, 22.975, 28.011, 25.772, 23.741, 23.858, 24.369, 27.691, 28.171, 20.054, 24.585, 21.3, 27.447, 22.899, 25.516, 22.794, 25.266, 24.053, 26.428, 27.829, 27.716, 24.496, 20.711, 23.503, 20.932, 23.149, 26.305, 22.7, 24.978, 21.055, 25.126, 22.918, 26.832, 26.64, 18.575, 25.332, 28.191, 24.637, 23.057, 25.955, 23.163, 24.137, 24.076, 23.559, 28.077, 26.211, 25.267, 26.64, 26.327, 20.927, 27.635, 17.574, 26.293, 23.539, 22.663, 23.686, 26.632, 27.452, 24.895, 18.098, 25.519, 27.676, 21.624, 26.468, 23.083, 25.171, 26.191, 27.044, 23.014, 26.778, 27.965, 28.566, 27.166, 28.17, 24.908, 19.833, 16.685, 24.789, 27.773, 23.67, 22.828, 21.905, 25.115, 23.525, 22.762, 20.131, 27.705, 18.943, 19.555, 20.482, 22.48, 24.791, 24.493, 28.362, 27.541, 22.782, 27.739, 25.664, 22.964, 21.016, 20.497, 27.839, 24.745, 23.89, 27.443, 25.46, 23.413, 22.696, 28.14, 20.071, 17.667, 24.954, 17.766, 26.357, 24.619, 24.253, 24.011, 23.142, 24.241, 26.17, 22.445, 25.691, 25.805, 23.435, 26.574, 24.373, 27.154, 27.91, 27.933, 20.519, 20.376, 23.487, 26.733, 21.605, 25.171, 23.602, 25.856, 23.258, 24.039, 23.873, 28.15, 24.062, 23.331, 22.129, 26.033, 22.702, 27.441, 21.694, 26.044, 27.897, 20.018, 21.619, 25.739, 23.613, 22.099, 26.763, 22.805, 27.283, 23.657, 22.226, 26.576, 27.122, 15.542, 26.66, 26.641, 21.8, 23.379, 25.406, 22.453, 22.156, 24.311, 27.957, 21.233, 24.964, 25.797, 22.212, 23.614, 19.396, 25.261, 28.331, 16.657, 26.53, 27.588, 27.777, 20.403, 21.345, 22.753, 21.263, 24.817, 24.979, 21.286, 20.544, 27.805, 24.852, 21.947, 27.374, 23.854, 23.998, 22.463, 22.464, 18.117, 25.459, 20.556, 22.183, 22.299, 27.71, 21.766, 26.22, 25.793, 22.686, 26.202, 26.603, 24.478, 27.601, 18.774, 26.204, 27.615, 27.129, 15.802, 16.566, 24.344, 22.016, 24.365, 25.813, 27.566, 25.173, 21.054, 23.98, 19.431, 27.562, 20.536, 27.409, 20.239, 22.764, 28.044, 20.075, 27.492, 24.505, 26.718, 22.025, 27.858, 16.346, 27.475, 27.239, 25.777, 19.931, 24.021, 23.579, 27.439, 19.784, 24.121, 27.322, 27.6, 22.638, 21.244, 19.933, 26.319, 25.436, 25.081, 25.487, 28.165, 25.491, 21.999, 23.028, 18.038, 21.445, 19.954, 23.985, 20.979, 27.945, 26.329, 23.177, 21.308, 26.526, 26.625, 22.609, 25.106, 19.315, 26.076, 27.829, 24.319, 26.461, 26.419, 27.205, 22.256, 24.068, 26.868, 21.194, 27.509, 20.707, 28.144, 25.309, 25.378, 23.862, 20.401, 26.087, 20.689, 27.247, 21.929, 23.0, 25.1, 24.883, 24.311, 27.797, 25.04, 23.324, 24.955, 24.356, 24.811, 22.989, 24.634, 22.928, 21.31, 27.159, 25.929, 26.684, 20.52, 27.951, 26.5, 20.169, 20.004, 24.122, 27.939, 26.064, 20.535, 19.599, 23.438, 20.06, 23.967, 20.397, 26.229, 26.082, 27.977, 18.378, 27.98, 25.165, 22.182, 22.228, 27.735, 27.569, 27.319, 27.211, 28.308, 27.772, 27.774, 27.299, 26.525, 26.806, 21.461],
  "Optimizer iterations": 536,
  "Optimizer params": [0.5864570890903569, 0.8558209423624834, 0.7831240502012543, 0.6254283413822017, 0.9025949803712235, 0.5831279957393972, 0.9242910437484992, 0.5214584412188178, 0.5083128564159443, 0.49368691765834044, 0.490278512796076, 0.5183339995733829, 0.5004355895166198, 0.4753264144197246, 0.5378589948584087, 0.8542258222307401, 0.5057861561169369, 0.5042286203640712, 0.5042595400589389, 0.5068071847742204, 0.5010382008941906, 0.5055646447508485, 0.49150284058643345, 0.4959252609891009, 0.5025344597907015, 0.5064767236005513, 0.5195425843911363, 0.5044783216571217, 0.5125041799743042, 0.5090686733298946, 0.468053648312166, 0.4982390409531173],
  "P": 0,
  "Problem": "IC",
  "QPU": "7000000",
  "Qubits": 8,
  "Shots": 4096,
  "Size": 8,
  "Total Algorithm duration [s]": 12.927,
  "Total Classic duration [s]": 12.70072134993493,
  "Total Quantum duration [s]": 0.2262786500650691
}
