{
  "Depth": 18.5,
  "Expectation Value": -8.982430458068848,
  "Job durations [ms]": [0.5586999905062839, 0.42204999772366136, 0.4773499967996031, 0.3694000042742118, 0.4143499972997233, 0.5847500142408535, 0.46290000318549573, 0.382099999114871, 0.4488500126171857, 0.37599999632220715, 0.38610000046901405, 0.375150004401803, 0.444350007455796, 0.4187500016996637, 0.4196499940007925, 0.38409999979194254, 0.40905000059865415, 0.5065500154159963, 0.3921000025002286, 0.3837999975075945, 0.3740499960258603, 0.5307500105118379, 0.4261499998392537, 0.38484999095089734, 0.41870000131893903, 0.47140000970102847, 0.3811000060522929, 0.3812000068137422, 0.534099992364645, 0.5247000080998987, 0.39715001184958965, 0.5376500048441812, 0.39069999183993787, 0.3905500052496791, 0.39435000508092344, 0.384899991331622, 0.39059999107848853, 0.3826000029221177, 0.4521000082604587, 0.4313000099500641, 0.5234999844105914, 0.5707999807782471, 0.4279500135453418, 0.5513500072993338, 0.48490001063328236, 0.39665000804234296, 0.5778000049758703, 0.4200000112177804, 0.5429499869933352, 0.4198499955236912, 0.39254999137483537, 0.38145000871736556, 0.3871500084642321, 0.38889999268576503, 0.42004999704658985, 0.3863000019919127, 0.5328500119503587, 0.3978500026278198, 0.38655000389553607, 0.38469998980872333, 0.3924000047845766, 0.43495000863913447, 0.4994999908376485, 0.4002499917987734, 0.5297000025166199, 0.3899999865097925, 0.450549996457994, 0.4004500078735873, 0.4315999976824969, 0.3852500085486099, 0.6007999909343198, 0.5339500057743862, 0.4123499966226518, 0.43554999865591526, 0.3880000003846362, 0.45074998342897743, 0.39960000140126795, 0.5117499968037009, 0.3880000003846362, 0.3870999935315922, 0.39185000059660524, 0.5110999918542802, 0.3852499939966947, 0.39149999793153256, 0.5809499998576939, 0.5183000030228868, 0.4958500067004934, 0.37939999310765415, 0.3766000008909032, 0.6144500075606629, 0.4907500115223229, 0.39835000643506646, 0.4341000021668151, 0.3949999954784289, 0.3828999906545505, 0.545550006791018, 0.425199992605485, 0.5538499972317368, 0.38740001036785543, 0.5420500092441216, 0.5897999944863841, 0.5418999935500324, 0.3835499956039712, 0.3832500078715384, 0.3921000025002286, 0.4278999986127019, 0.43354999797884375, 0.4736499977298081, 0.3768500027945265, 0.4304000030970201, 0.45924998994451016, 0.3982500056736171, 0.5365499819163233, 0.5342999938875437, 0.5460499960463494, 0.5207499925745651, 0.4262000002199784, 0.5515999946510419, 0.38610000046901405, 0.3802499995799735, 0.4154999915044755, 0.3837500116787851, 0.46794998343102634, 0.36684999940916896, 0.5265999934636056, 0.39755000034347177, 0.3708000003825873, 0.3904999903170392, 0.5167499912204221, 0.4282000008970499, 0.3720499953487888, 0.39215000288095325, 0.4059000057168305, 0.4118000069865957, 0.5535499949473888, 0.4750499938381836, 0.436950009316206, 0.3838500124402344, 0.38225000025704503, 0.42645000212360173, 0.42034999933093786, 0.38204999873414636, 0.41880000208038837, 0.5856500065419823, 0.39215000288095325, 0.4345500055933371, 0.3956500004278496, 0.37855000118725, 0.3880000003846362, 0.5521499988390133, 0.38904999382793903, 0.3843500016955659, 0.38660000427626073, 0.38640000275336206, 0.39929999911691993, 0.5531500064535066, 0.40580000495538116, 0.3804000007221475, 0.38404999941121787, 0.41944999247789383, 0.5421999958343804, 0.4760999872814864, 0.41194999357685447, 0.40699999954085797, 0.5812000017613173, 0.39224998909048736, 0.41384999349247664, 0.39665000804234296, 0.38394999864976853, 0.4048999981023371, 0.38565001159440726, 0.3824499872280285, 0.38815000152681023, 0.40940000326372683, 0.4292999947210774, 0.573049983358942, 0.49014999240171164, 0.3998000029241666, 0.38574999780394137, 0.39914999797474593, 0.3848000051220879, 0.39250000554602593, 0.3877499984810129, 0.519900000654161, 0.3914499975508079, 0.3750999894691631, 0.4828500095754862, 0.42684999061748385, 0.36765000550076365, 0.5259500030661002, 0.4251500067766756, 0.3929000085918233, 0.3876000118907541, 0.5785500106867403, 0.38889999268576503, 0.39265000668819994, 0.4016500024590641, 0.5232000112300739, 0.4306499904487282, 0.4189500032225624, 0.38329999370034784, 0.4820500180358067, 0.557700011995621, 0.3798500110860914, 0.5535999953281134, 0.3878499992424622, 0.3924999909941107, 0.41385000804439187, 0.5469500174513087, 0.4066499968757853, 0.39069999183993787, 0.40010000520851463, 0.4383999912533909, 0.42224999924656004, 0.4124999977648258, 0.4282500012777746, 0.4229500045767054, 0.4261499998392537, 0.5705999938072637, 0.38335000863298774, 0.3907999926013872, 0.5298500036587939, 0.3770000039367005, 0.3785499866353348, 0.42794999899342656, 0.41635001252871007, 0.5289499968057498, 0.3883500030497089, 0.3789000038523227, 0.38324999331962317, 0.3718499938258901, 0.5707500095013529, 0.37634999898727983, 0.39844999264460057, 0.38189999759197235, 0.3844499879051, 0.38670000503771007, 0.4191000043647364, 0.3919500013580546, 0.537949992576614, 0.39844999264460057, 0.3880500007653609, 0.5225500062806532, 0.3906500060111284, 0.39080000715330243, 0.5566999898292124, 0.38109999150037766, 0.38035000034142286, 0.4303499881643802, 0.36684999940916896, 0.4104999970877543, 0.38079998921602964, 0.49590000708121806, 0.6104500062065199, 0.3718499938258901, 0.38729999505449086, 0.6042500026524067, 0.3889499930664897, 0.37989999691490084, 0.37805001193191856, 0.43405000178609043, 0.38225000025704503, 0.5203999899094924, 0.3853999951388687, 0.4232500068610534, 0.608350004767999, 0.4800999886356294, 0.44964998960494995, 0.5900999822188169, 0.3930500097339973, 0.5596999835688621, 0.3763000131584704, 0.3913500113412738, 0.3799499972956255, 0.4195000074105337, 0.47395001456607133, 0.38409999979194254, 0.3902999887941405, 0.5343499942682683, 0.39185000059660524, 0.37834999966435134, 0.542099995072931, 0.3902500029653311, 0.42070000199601054, 0.4783000040333718, 0.38550001045223325, 0.3893999964930117, 0.41194999357685447, 0.39310001011472195, 0.37850000080652535, 0.3888000064762309, 0.3815500094788149, 0.417949995608069, 0.39644999196752906, 0.526549993082881, 0.38330000825226307, 0.41090000013355166, 0.40469999657943845, 0.5034499918110669, 0.38004999805707484, 0.4122499958612025, 0.3871999942930415, 0.4504999960772693, 0.3868000057991594, 0.37779999547638, 0.3866499901050702, 0.3972999984398484, 0.3971999976783991, 0.3801499988185242, 0.5874999915249646, 0.38749999657738954, 0.3836000105366111, 0.39539999852422625, 0.3923500044038519, 0.47415001608897, 0.37590001011267304, 0.3997000021627173, 0.391999987186864, 0.5031999899074435, 0.38690000656060874, 0.550000011571683, 0.3833499940810725, 0.5294499860610813, 0.4023999936180189, 0.384299986762926, 0.38640000275336206, 0.4659999976865947, 0.3902500029653311, 0.38964999839663506, 0.3867499908665195, 0.388599990401417, 0.45105000026524067, 0.4243500006850809, 0.374549999833107, 0.37874998815823346, 0.5747000104747713, 0.4951000155415386, 0.37754999357275665, 0.38004999805707484, 0.3676499909488484, 0.41349999082740396, 0.37384999450296164, 0.38735000998713076, 0.5188999930396676, 0.37995001184754074, 0.4166999860899523, 0.490099992020987, 0.40084999636746943, 0.3795000084210187, 0.37855000118725, 0.3850999928545207, 0.3959499881602824, 0.3731500037247315, 0.47849999100435525, 0.5164000031072646, 0.3665500116767362, 0.41700000292621553, 0.5890000174986199, 0.5021999968448654, 0.44935000187251717, 0.4656000091927126, 0.4491500003496185, 0.3947999939555302, 0.39089999336283654, 0.3818500117631629, 0.3866500046569854, 0.5446999857667834, 0.40084999636746943, 0.4028999974252656, 0.3899000003002584, 0.41194999357685447, 0.37290000182110816, 0.3878499992424622, 0.3851000074064359, 0.41464999958407134, 0.5185499903745949, 0.385349994758144, 0.38505000702571124, 0.37054999847896397, 0.3846000035991892, 0.41140000394079834, 0.5408500001067296, 0.3889500076184049, 0.41125000279862434, 0.48070000775624067, 0.38519999361597, 0.37819999852217734, 0.5021500110160559, 0.40085001091938466, 0.5579999851761386, 0.3932999970857054, 0.5169000069145113, 0.42749999556690454, 0.39164999907370657, 0.3799999976763502, 0.378249998902902, 0.44675001117866486, 0.37850000080652535, 0.42899999243672937, 0.403750003897585, 0.3865000035148114, 0.5072499916423112, 0.3852499939966947, 0.5237499863142148, 0.39074999222066253, 0.3824500017799437, 0.38159999530762434, 0.4241499991621822, 0.5812500021420419, 0.3904000041075051, 0.4643499996745959, 0.3897499991580844, 0.38440000207629055, 0.5137499974807724, 0.39039998955558985, 0.38219999987632036, 0.3711000026669353, 0.38579999818466604, 0.5774500023107976, 0.40794999222271144, 0.3829500055871904, 0.41375000728294253, 0.3841500001726672, 0.4126499989069998, 0.3922000032616779, 0.3883500030497089, 0.3904000041075051, 0.4093999887118116, 0.4252500075381249, 0.4003000067314133, 0.3797000099439174, 0.3878999996231869, 0.564350004424341, 0.5601500160992146, 0.3808000037679449, 0.46759998076595366, 0.5853500042576343, 0.40565000381320715, 0.39494999509770423, 0.4498999915085733, 0.39400000241585076, 0.3853999951388687, 0.38165001024026424, 0.3799999976763502, 0.586000009207055, 0.378099997760728, 0.49020000733435154, 0.5692999984603375, 0.42379999649710953, 0.3943499905290082, 0.44225000601727515, 0.3790499904425815, 0.6086999928811565, 0.3882000019075349, 0.4855499864788726, 0.37704998976550996, 0.39054999069776386, 0.4542500100797042, 0.43134999577887356, 0.3922000032616779, 0.38139999378472567, 0.410549997468479, 0.4737499839393422, 0.37465000059455633, 0.42794999899342656, 0.37539999175351113, 0.36860001273453236, 0.37379999412223697, 0.38299999141599983, 0.4739500000141561, 0.39650000690016896, 0.4875000158790499, 0.42919999395962805, 0.37599999632220715, 0.49249999574385583, 0.39585000195074826, 0.37895000423304737, 0.3821499994955957, 0.38404999941121787, 0.5765500100096688, 0.4028999974252656, 0.39430000470019877, 0.38285000482574105, 0.3833499940810725, 0.3818499972112477, 0.3809000045293942, 0.3917499998351559, 0.3954499989049509, 0.3858499985653907, 0.4983000108040869, 0.3853000089293346, 0.42189999658148736, 0.45950000640004873, 0.3971999976783991, 0.542099995072931, 0.5179500003578141, 0.4552000027615577, 0.3800500126089901, 0.3893000102834776, 0.3985999937867746, 0.36454999644774944, 0.41880000208038837, 0.3795500088017434, 0.3750500036403537, 0.3978999884566292, 0.5797999911010265, 0.3894499968737364, 0.3682999958982691, 0.40745000296738, 0.4251000063959509, 0.3891500091413036, 0.3815500094788149, 0.38359999598469585, 0.5432000034488738, 0.3826500033028424, 0.41649999911896884, 0.3904999903170392, 0.39185000059660524, 0.38219999987632036, 0.3804500011028722, 0.4647000168915838, 0.3934499982278794, 0.39450000622309744, 0.3941000031773001, 0.3824500017799437, 0.4232499923091382, 0.5540999845834449, 0.38469998980872333, 0.3987500094808638, 0.39334999746643007, 0.3848000051220879, 0.39575000118929893, 0.3932999970857054, 0.3852499939966947, 0.4322000022511929, 0.40254999476019293],
  "Optimal Expectation Value": -9.83795166015625,
  "Optimizer durations [ms]": [25.342, 18.711, 22.969, 27.632, 24.74, 27.165, 21.604, 26.174, 21.205, 22.024, 24.494, 27.576, 24.216, 25.185, 20.577, 25.842, 26.771, 19.629, 18.94, 24.716, 27.706, 23.165, 17.503, 26.437, 26.09, 23.869, 24.125, 23.904, 27.552, 22.972, 25.653, 25.887, 23.622, 26.001, 27.924, 25.523, 20.813, 22.77, 24.266, 25.371, 25.578, 26.986, 20.397, 24.402, 23.169, 23.732, 27.032, 22.967, 20.534, 25.317, 21.635, 25.365, 21.624, 28.093, 16.59, 23.693, 25.271, 26.29, 18.985, 25.173, 19.597, 24.25, 21.077, 26.704, 27.513, 24.298, 20.771, 21.634, 26.711, 25.522, 27.348, 22.665, 24.913, 17.395, 27.886, 25.412, 28.209, 25.145, 27.187, 26.659, 24.741, 23.556, 21.941, 20.023, 27.494, 25.469, 21.297, 23.475, 26.038, 20.675, 27.161, 27.998, 16.732, 25.046, 24.041, 25.235, 24.993, 23.667, 23.215, 23.612, 25.008, 27.058, 25.5, 24.304, 28.15, 20.46, 20.938, 23.073, 22.491, 21.24, 19.676, 24.708, 24.388, 23.393, 25.829, 24.907, 20.183, 22.822, 22.478, 27.693, 22.938, 20.373, 22.152, 27.927, 25.629, 24.4, 24.268, 25.729, 27.316, 23.468, 24.615, 23.335, 25.903, 20.133, 22.57, 25.115, 20.515, 27.932, 21.472, 25.692, 19.578, 23.212, 23.781, 25.232, 23.216, 19.779, 27.997, 19.96, 28.05, 26.455, 25.834, 22.394, 24.1, 19.398, 26.056, 22.728, 22.486, 26.158, 20.593, 19.576, 21.734, 22.989, 26.63, 21.567, 21.807, 26.315, 23.278, 25.364, 20.824, 25.242, 23.439, 20.674, 23.536, 28.117, 20.14, 23.701, 25.448, 25.797, 23.772, 20.683, 27.143, 27.625, 23.862, 24.845, 21.246, 23.686, 22.929, 24.166, 23.791, 27.364, 27.514, 24.766, 23.707, 24.325, 23.472, 22.41, 27.972, 23.779, 22.468, 17.479, 19.442, 27.225, 23.861, 27.915, 22.626, 24.747, 22.095, 18.166, 25.838, 24.796, 23.29, 24.906, 26.944, 22.299, 23.423, 20.335, 23.961, 22.453, 25.296, 24.358, 25.537, 19.882, 23.287, 25.737, 19.634, 19.99, 27.077, 23.877, 27.531, 24.97, 23.453, 26.871, 20.461, 28.226, 25.607, 24.813, 23.244, 23.982, 22.052, 27.29, 28.11, 25.248, 23.29, 24.0, 23.985, 25.831, 19.987, 23.593, 23.047, 21.303, 27.07, 23.105, 24.985, 27.556, 24.676, 27.39, 24.137, 25.908, 24.203, 23.911, 27.358, 25.272, 24.361, 27.906, 17.213, 27.935, 27.393, 25.208, 20.705, 21.815, 25.394, 26.948, 28.044, 21.263, 27.092, 21.908, 24.938, 23.421, 22.435, 24.838, 25.774, 27.3, 25.558, 27.234, 27.32, 25.658, 25.79, 23.665, 25.146, 23.283, 22.506, 26.519, 17.677, 25.409, 27.434, 20.171, 25.175, 23.869, 23.778, 21.667, 24.331, 25.443, 23.435, 18.683, 24.753, 19.547, 25.859, 27.046, 21.288, 26.743, 25.173, 23.766, 22.022, 28.111, 22.255, 24.745, 22.393, 22.623, 21.437, 22.775, 24.557, 27.733, 22.823, 18.744, 27.191, 27.645, 27.095, 24.826, 28.241, 20.959, 27.685, 22.387, 21.544, 25.62, 25.4, 22.7, 23.634, 21.073, 25.973, 20.085, 23.987, 22.817, 25.063, 21.373, 25.055, 27.359, 24.301, 23.066, 27.291, 19.741, 27.302, 21.486, 22.837, 27.222, 24.808, 21.193, 18.967, 25.412, 25.159, 22.306, 27.516, 25.195, 20.164, 20.839, 21.58, 23.576, 22.789, 24.504, 24.782, 26.652, 26.447, 26.398, 27.869, 22.197, 16.431, 26.806, 22.967, 25.093, 27.443, 23.625, 19.196, 27.418, 25.51, 17.486, 26.847, 21.741, 27.853, 23.446, 25.216, 24.708, 22.422, 25.425, 21.967, 20.954, 27.529, 25.742, 20.991, 19.639, 20.333, 25.151, 23.708, 23.547, 20.203, 22.71, 17.591, 20.734, 25.038, 22.943, 27.285, 24.783, 22.614, 21.952, 23.276, 27.14, 27.968, 23.264, 22.238, 26.042, 21.262, 26.968, 25.825, 20.652, 27.972, 27.236, 26.209, 26.474, 21.766, 27.06, 18.467, 27.967, 25.718, 27.702, 24.325, 27.304, 21.786, 22.566, 24.668, 27.376, 26.1, 27.166, 20.727, 28.01, 23.302, 25.336, 22.813, 24.965, 22.775, 25.12, 22.049, 27.366, 24.223, 24.0, 22.83, 27.809, 25.434, 28.049, 23.302, 21.118, 18.791, 25.82, 20.71, 20.163, 27.214, 23.313, 22.169, 22.604, 26.389, 22.805, 23.259, 19.612, 17.739, 23.048, 20.179, 24.642, 23.294, 24.594, 24.732, 23.438, 27.457, 25.106, 24.747, 26.634, 27.402, 22.606, 26.221, 22.45, 26.3, 27.476, 23.323, 22.321, 25.813, 23.671, 27.654, 27.609, 35.212, 24.017, 25.28, 22.748, 27.214, 24.423, 23.405, 18.767, 24.282, 24.048, 27.843, 20.328, 27.835, 23.362, 25.124, 23.266, 23.456, 26.781, 25.341, 24.996, 20.19, 28.585, 22.644, 23.023, 23.548, 24.429, 24.58, 21.433, 24.533, 23.681, 22.035, 15.251, 23.57, 23.259, 24.746, 22.019, 26.475, 23.71, 26.614, 22.166, 23.227, 24.635],
  "Optimizer iterations": 536,
  "Optimizer params": [0.5864570890903569, 0.8558209423624834, 0.7831240502012543, 0.6254283413822017, 0.9025949803712235, 0.5831279957393972, 0.9242910437484992, 0.5214584412188178, 0.5083128564159443, 0.49368691765834044, 0.490278512796076, 0.5183339995733829, 0.5004355895166198, 0.4753264144197246, 0.5378589948584087, 0.8542258222307401, 0.5057861561169369, 0.5042286203640712, 0.5042595400589389, 0.5068071847742204, 0.5010382008941906, 0.5055646447508485, 0.49150284058643345, 0.4959252609891009, 0.5025344597907015, 0.5064767236005513, 0.5195425843911363, 0.5044783216571217, 0.5125041799743042, 0.5090686733298946, 0.468053648312166, 0.4982390409531173],
  "P": 0,
  "Problem": "IC",
  "QPU": "7000000",
  "Qubits": 8,
  "Shots": 4096,
  "Size": 8,
  "Total Algorithm duration [s]": 12.892,
  "Total Classic duration [s]": 12.661770150072872,
  "Total Quantum duration [s]": 0.23022984992712736
}
