{
  "Circuit execution durations [ms]": [7.303953170776367, 7.302284240722656, 7.293462753295898, 7.274866104125977, 7.106900215148926, 7.183670997619629, 7.319927215576172, 7.153630256652832, 7.1201324462890625, 7.175087928771973, 7.100582122802734, 7.195234298706055, 7.203221321105957, 7.222652435302734, 7.0552825927734375, 7.220029830932617, 7.218480110168457, 7.121443748474121, 7.231235504150391, 7.210016250610352, 7.241368293762207, 7.319211959838867, 7.26771354675293, 7.208347320556641, 7.239103317260742, 7.202506065368652, 7.169008255004883, 7.178783416748047, 7.177114486694336, 7.313847541809082, 7.1659088134765625, 7.1353912353515625, 7.143974304199219, 7.15184211730957, 7.271289825439453, 7.235288619995117, 7.246494293212891, 7.263064384460449, 7.265806198120117, 7.2879791259765625, 7.1190595626831055, 7.201552391052246, 7.248878479003906, 7.178306579589844, 7.20977783203125, 7.1860551834106445, 7.256031036376953, 7.256150245666504, 7.170915603637695, 7.110714912414551, 7.106900215148926, 7.305383682250977, 7.163286209106445, 7.216930389404297, 7.185220718383789, 7.178544998168945, 7.213234901428223, 7.228612899780273, 7.172703742980957, 7.29823112487793, 7.167935371398926, 7.430553436279297, 7.225632667541504, 7.27081298828125, 7.302761077880859, 7.229089736938477, 7.229089736938477, 7.24947452545166, 7.2432756423950195, 7.139682769775391, 7.191061973571777, 7.220625877380371, 7.256507873535156, 7.166624069213867, 7.257580757141113, 7.138848304748535, 7.174968719482422, 7.178902626037598, 7.219910621643066, 7.146120071411133, 7.261037826538086, 7.247328758239746, 7.2318315505981445, 7.313013076782227],
  "Depth": 2.0,
  "Expectation Value": -0.9233884215354919,
  "Optimal Expectation Value": -1.746999979019165,
  "Optimizer durations [ms]": [109.29, 191.925, 108.492, 108.651, 108.01, 191.0, 107.454, 106.581, 107.701, 189.147, 106.051, 107.389, 106.584, 191.259, 106.657, 107.477, 107.538, 190.238, 107.281, 107.94, 107.097, 191.322, 105.182, 104.936, 106.492, 191.288, 104.693, 104.625, 105.737, 191.808, 108.078, 104.931, 104.963, 104.618, 189.405, 105.336, 106.324, 107.091, 192.888, 106.794, 105.909, 106.545, 190.04, 106.06, 105.983, 106.404, 189.588, 108.199, 107.019, 106.552, 189.524, 106.755, 106.625, 105.428, 191.679, 107.852, 106.026, 104.115, 187.835, 107.941, 104.373, 105.025, 190.268, 107.834, 106.915, 107.285, 189.872, 105.891, 107.59, 105.117, 192.709, 106.901, 107.304, 105.965, 190.482, 105.707, 107.94, 106.682, 189.757, 106.806, 106.821, 106.798, 108.336, 190.179],
  "Optimizer iterations": 84,
  "Optimizer params": [0.0, 0.25192395387111355, 0.0008869457292093236],
  "P": 0,
  "Problem": "RH",
  "QJob durations [ms]": [16.175031661987305, 16.083240509033203, 15.822291374206543, 15.870809555053711, 15.687704086303711, 15.275001525878906, 15.365839004516602, 14.94896411895752, 14.85300064086914, 15.019059181213379, 14.69433307647705, 14.940857887268066, 14.79649543762207, 14.951705932617188, 14.737725257873535, 14.893412590026855, 14.933109283447266, 14.901280403137207, 14.892220497131348, 15.35940170288086, 15.329360961914063, 14.81783390045166, 14.285564422607422, 14.223814010620117, 15.041947364807129, 15.364646911621094, 14.204025268554688, 14.286398887634277, 14.5721435546875, 57.28447437286377, 15.355825424194336, 14.184951782226563, 14.194250106811523, 14.222860336303711, 14.729619026184082, 14.448285102844238, 14.794111251831055, 15.376091003417969, 15.598773956298828, 14.843940734863281, 14.544010162353516, 15.22839069366455, 14.71555233001709, 14.59050178527832, 14.629721641540527, 14.57226276397705, 14.852046966552734, 15.442848205566406, 15.422940254211426, 14.841675758361816, 14.799952507019043, 14.887571334838867, 14.8240327835083, 14.534473419189453, 15.364885330200195, 15.530705451965332, 14.39976692199707, 14.217734336853027, 14.440774917602539, 15.401482582092285, 14.178752899169922, 14.451742172241211, 14.704346656799316, 15.388846397399902, 14.70792293548584, 15.29228687286377, 14.752864837646484, 14.5951509475708, 15.382528305053711, 14.229416847229004, 15.453934669494629, 15.192389488220215, 15.342354774475098, 14.467239379882813, 15.323638916015625, 14.505743980407715, 15.6935453414917, 15.063881874084473, 56.47480487823486, 15.02227783203125, 15.080690383911133, 15.02835750579834, 15.80822467803955, 15.202045440673828],
  "QPU": "3010008",
  "Qubits": 3,
  "Queue durations [ms]": [0.0, 0.0, 0.0, 0.0, 0.0, 0.0, 0.0, 0.0, 0.0, 0.0, 0.0, 0.0, 0.0, 0.0, 0.0, 0.0, 0.0, 0.0, 0.0, 0.0, 0.0, 0.0, 0.0, 0.0, 0.0, 0.0, 0.0, 0.0, 0.0, 0.0, 0.0, 0.0, 0.0, 0.0, 0.0, 0.0, 0.0, 0.0, 0.0, 0.0, 0.0, 0.0, 0.0, 0.0, 0.0, 0.0, 0.0, 0.0, 0.0, 0.0, 0.0, 0.0, 0.0, 0.0, 0.0, 0.0, 0.0, 0.0, 0.0, 0.0, 0.0, 0.0, 0.0, 0.0, 0.0, 0.0, 0.0, 0.0, 0.0, 0.0, 0.0, 0.0, 0.0, 0.0, 0.0, 0.0, 0.0, 0.0, 0.0, 0.0, 0.0, 0.0, 0.0, 0.0],
  "Shots": 4096,
  "Size": 3,
  "Total Algorithm duration [s]": 10.719,
  "Total Classic duration [s]": 9.37905527973175,
  "Total Quantum duration [s]": 1.3399447202682495
}
