{
  "Depth": 203.0,
  "Job durations [ms]": [56.163, 55.485, 54.695, 55.477, 55.047, 55.239999999999995, 54.726, 54.551, 54.973, 55.004999999999995, 122.553, 54.217, 54.580999999999996, 54.741, 54.574, 54.241, 54.294000000000004, 60.616, 55.246, 55.148999999999994, 54.932, 54.495000000000005, 54.314, 54.746, 54.172, 54.867, 54.627, 54.622, 118.854, 54.349000000000004, 54.835, 55.126000000000005, 55.625, 55.172, 56.199, 56.647999999999996, 56.726, 56.092999999999996, 55.864, 55.292, 55.374, 55.21, 56.209, 56.425999999999995, 57.95, 55.065000000000005, 55.150999999999996, 55.529, 56.135, 56.719, 55.942, 56.023, 55.802, 55.7, 67.42399999999999, 58.825, 55.724000000000004, 55.862, 55.238, 55.861000000000004, 123.08, 56.016999999999996, 55.427, 55.436, 54.836000000000006, 54.623, 54.67, 54.891000000000005, 54.93, 54.977, 54.733, 56.603, 56.75, 55.803, 55.842000000000006, 56.888, 56.231, 55.695, 57.028000000000006, 55.944, 55.048, 54.830999999999996, 54.993, 55.775, 56.275, 54.827, 61.348, 58.566, 55.336000000000006, 55.444, 55.190999999999995, 54.517, 55.440000000000005, 54.692, 55.515, 57.261, 58.579, 56.494, 54.701, 54.775, 56.247, 54.71, 54.93, 54.822, 57.298, 55.694, 55.516999999999996, 54.760999999999996, 55.174, 80.81099999999999],
  "Optimizer durations [ms]": [71.144, 70.081, 69.251, 70.217, 70.067, 70.121, 69.351, 69.457, 69.763, 70.004, 137.683, 69.489, 69.492, 69.439, 69.685, 69.323, 69.307, 75.661, 70.215, 70.094, 69.835, 69.43, 69.459, 69.647, 68.865, 69.965, 69.603, 69.434, 133.435, 69.262, 69.912, 70.051, 70.918, 70.192, 71.26, 71.756, 71.901, 71.325, 71.242, 70.6, 70.814, 70.461, 71.28, 71.382, 138.589, 70.165, 70.126, 70.837, 71.345, 71.943, 71.315, 71.199, 71.139, 70.814, 82.756, 75.038, 70.886, 70.889, 70.618, 71.134, 138.728, 71.238, 70.386, 70.382, 69.715, 69.439, 69.649, 69.837, 69.76, 69.741, 69.56, 71.517, 72.035, 70.869, 70.986, 72.138, 71.566, 70.921, 72.179, 71.344, 136.397, 70.01, 70.317, 70.953, 71.398, 70.0, 76.391, 73.758, 70.669, 70.607, 69.925, 69.326, 70.169, 69.793, 70.345, 72.188, 74.331, 71.439, 139.273, 69.736, 71.546, 69.832, 70.008, 69.862, 74.436, 70.764, 70.869, 69.858, 70.569, 96.0],
  "Optimizer iterations": 110,
  "Qubits": 11,
  "Total Algorithm duration [s]": 8.213,
  "Total Classic duration [s]": 1.8617230000000005,
  "Total Quantum duration [s]": 6.351276999999999,
  "Expectation Value": -14.30029296875,
  "Optimal Expectation Value": -16.0,
  "Optimizer params": [0.9905779955365961, 0.6190634972887359, 0.8709489930803016, 0.6817491050357952, 0.8645459783458695, 0.947489385598787],
  "QPU": "9000001",
  "Problem": "MCP",
  "Size": 11,
  "P": 3,
  "Shots": 4096
}