{
  "Circuit execution durations [ms]": [9.824752807617188, 9.728312492370605, 9.789109230041504, 9.733319282531738, 9.752273559570313, 9.975194931030273, 9.969353675842285, 9.968400001525879, 9.851455688476563, 9.905815124511719, 9.917616844177246, 9.80830192565918, 9.851217269897461, 9.842514991760254, 9.751319885253906, 9.868502616882324, 9.818673133850098, 9.741544723510742, 9.845495223999023, 9.727001190185547, 9.876132011413574, 9.757161140441895, 9.776592254638672, 9.700775146484375, 9.837746620178223, 9.806513786315918, 9.762883186340332, 9.873270988464355, 10.140299797058105, 9.858489036560059, 9.848475456237793, 9.8646879196167, 9.899258613586426, 9.722113609313965, 9.792685508728027, 9.844064712524414, 9.970307350158691, 9.800195693969727, 9.884953498840332, 10.031580924987793, 9.842157363891602, 9.928584098815918, 9.960412979125977, 9.914159774780273, 9.949803352355957, 9.97006893157959, 9.797215461730957, 9.804368019104004, 9.932279586791992, 9.799599647521973, 9.818315505981445, 9.69088077545166, 9.743452072143555, 9.827136993408203, 9.748458862304688, 9.725809097290039, 9.932398796081543, 9.81593132019043, 9.718894958496094, 9.75954532623291, 9.728074073791504, 9.938716888427734, 9.735107421875, 9.974479675292969, 9.760856628417969, 9.82201099395752, 9.837150573730469, 10.110974311828613, 9.804248809814453, 9.749770164489746, 9.849309921264648, 9.837031364440918, 9.827971458435059, 9.775996208190918, 9.663939476013184, 9.920716285705566, 9.836554527282715, 9.929060935974121, 9.901165962219238, 9.830713272094727, 9.950757026672363, 9.8649263381958, 9.830832481384277, 9.732961654663086, 9.685516357421875, 9.772419929504395, 9.812712669372559],
  "Depth": 2.0,
  "Expectation Value": -3.5569939613342285,
  "Optimal Expectation Value": -3.5925002098083496,
  "Optimizer durations [ms]": [126.592, 127.64, 210.712, 126.59, 126.797, 129.035, 209.445, 127.157, 127.438, 126.651, 210.893, 126.802, 127.653, 126.67, 211.637, 126.754, 126.714, 126.667, 210.674, 128.366, 126.612, 126.838, 209.052, 127.061, 126.495, 126.668, 210.953, 126.674, 128.443, 127.111, 210.482, 126.813, 127.563, 210.085, 126.777, 127.399, 126.923, 209.504, 126.723, 127.64, 126.877, 208.972, 127.35, 127.775, 128.74, 211.998, 126.939, 126.688, 126.794, 210.488, 127.043, 126.677, 126.418, 209.448, 126.302, 126.555, 126.637, 212.481, 126.743, 126.416, 126.89, 209.968, 126.868, 126.987, 211.203, 126.716, 126.913, 127.479, 209.649, 127.573, 127.008, 126.474, 208.91, 126.45, 126.061, 127.101, 211.819, 127.827, 127.366, 126.566, 209.988, 126.801, 126.278, 127.152, 209.701, 126.684, 126.572],
  "Optimizer iterations": 87,
  "Optimizer params": [0.04207660709395328, 0.5014098188960036, 0.9990601483257336, 0.5135007697448074, 0.48445292180734323, 0.027639304783636336],
  "P": 0,
  "Problem": "RH",
  "QJob durations [ms]": [24.065256118774414, 24.102210998535156, 24.251580238342285, 24.115920066833496, 24.05989170074463, 24.384021759033203, 24.277210235595703, 24.22475814819336, 24.09064769744873, 24.294257164001465, 24.858593940734863, 23.98979663848877, 24.067044258117676, 24.051189422607422, 66.23685359954834, 24.11794662475586, 24.222254753112793, 23.966073989868164, 24.16086196899414, 24.080395698547363, 24.07395839691162, 24.121522903442383, 23.566603660583496, 23.92745018005371, 24.053573608398438, 24.069905281066895, 24.048805236816406, 24.242281913757324, 24.584531784057617, 24.27375316619873, 24.114489555358887, 24.056673049926758, 24.205327033996582, 24.186134338378906, 24.217724800109863, 24.062514305114746, 24.309396743774414, 24.092793464660645, 24.09660816192627, 24.221301078796387, 24.23083782196045, 24.199604988098145, 24.13463592529297, 24.190545082092285, 24.22499656677246, 66.22028350830078, 23.991703987121582, 24.17314052581787, 24.11198616027832, 24.111270904541016, 24.155497550964355, 23.883461952209473, 23.96249771118164, 24.03879165649414, 23.943305015563965, 23.93949031829834, 24.1011381149292, 24.150967597961426, 24.137377738952637, 23.951053619384766, 24.109840393066406, 24.27375316619873, 23.981451988220215, 24.193763732910156, 24.275660514831543, 24.218201637268066, 24.076104164123535, 24.471282958984375, 24.19102191925049, 24.01268482208252, 24.083971977233887, 24.19590950012207, 24.127960205078125, 23.983359336853027, 23.81742000579834, 24.14405345916748, 66.11144542694092, 24.280548095703125, 24.30880069732666, 24.08909797668457, 24.23107624053955, 24.139046669006348, 24.004697799682617, 23.941755294799805, 23.944973945617676, 24.059534072875977, 23.991107940673828],
  "QPU": "3010008",
  "Qubits": 6,
  "Queue durations [ms]": [0.0, 0.0, 0.0, 0.0, 0.0, 0.0, 0.0, 0.0, 0.0, 0.0, 0.0, 0.0, 0.0, 0.0, 0.0, 0.0, 0.0, 0.0, 0.0, 0.0, 0.0, 0.0, 0.0, 0.0, 0.0, 0.0, 0.0, 0.0, 0.0, 0.0, 0.0, 0.0, 0.0, 0.0, 0.0, 0.0, 0.0, 0.0, 0.0, 0.0, 0.0, 0.0, 0.0, 0.0, 0.0, 0.0, 0.0, 0.0, 0.0, 0.0, 0.0, 0.0, 0.0, 0.0, 0.0, 0.0, 0.0, 0.0, 0.0, 0.0, 0.0, 0.0, 0.0, 0.0, 0.0, 0.0, 0.0, 0.0, 0.0, 0.0, 0.0, 0.0, 0.0, 0.0, 0.0, 0.0, 0.0, 0.0, 0.0, 0.0, 0.0, 0.0, 0.0, 0.0, 0.0, 0.0, 0.0],
  "Shots": 4096,
  "Size": 6,
  "Total Algorithm duration [s]": 12.883,
  "Total Classic duration [s]": 10.657746775627135,
  "Total Quantum duration [s]": 2.2252532243728638
}
