{
  "Depth": 131.0,
  "Job durations [ms]": [6436.678886413574, 6360.990047454834, 6351.267337799072, 6383.747100830078, 6637.97926902771, 6501.675844192505, 6351.3758182525635, 6334.593772888184, 6366.069793701172, 6397.331714630127, 6409.801006317139, 6386.543273925781, 6370.676517486572, 6406.765460968018, 6515.118598937988, 6317.250490188599, 6360.834121704102, 6275.033235549927, 6422.298908233643, 6510.67042350769, 6536.8242263793945, 6396.542549133301, 6431.421518325806, 6352.9510498046875, 6328.545093536377, 6361.855983734131, 6417.83332824707, 6408.378124237061, 6542.5684452056885, 6323.352575302124, 6408.66494178772, 6341.279745101929, 6380.75852394104, 6454.1754722595215, 6356.379270553589, 6421.534299850464, 6487.62583732605, 6718.0962562561035, 6343.015670776367, 6484.236478805542, 6410.896062850952, 6373.993158340454, 6378.471851348877, 6282.184362411499, 6397.107362747192, 6425.824880599976, 6403.66530418396, 6303.3998012542725, 6312.05153465271, 6350.463628768921, 6345.143556594849, 6325.413703918457, 6447.8888511657715, 6543.221235275269, 6446.263313293457, 6396.438837051392, 6439.241170883179, 6346.312761306763, 6305.166244506836, 6425.839900970459, 6432.1489334106445, 6406.380891799927, 6297.788858413696, 6414.955377578735, 6287.035703659058, 6359.050750732422, 6772.2320556640625, 6351.765394210815, 6315.296173095703, 6446.201324462891, 6653.77950668335, 6451.590776443481, 6380.429744720459, 6343.585968017578, 6395.232439041138, 6391.758918762207, 6481.242418289185, 6540.33899307251, 6370.133399963379, 6412.928104400635, 6385.979175567627, 6335.0653648376465, 6351.449728012085, 6405.078649520874, 6439.407110214233, 6354.827642440796, 6398.779630661011, 6351.572751998901, 6411.900520324707, 6374.702930450439, 6365.9913539886475],
  "Optimizer durations [ms]": [8621.324, 8583.285, 8534.737, 8615.436, 8819.256, 8689.79, 8520.63, 8509.13, 8572.185, 8600.76, 8595.297, 8586.602, 8573.895, 8618.985, 8708.337, 8516.356, 8545.072, 8517.664, 8598.039, 8693.761, 8713.955, 8573.668, 8604.13, 8590.712, 8538.618, 8539.546, 8614.555, 8608.517, 8719.582, 8520.517, 8675.588, 8533.435, 8566.139, 8638.786, 8547.895, 8620.957, 8669.446, 8896.118, 8561.164, 8658.461, 8603.822, 8562.685, 8555.987, 8526.198, 8583.199, 8616.881, 8594.764, 8491.641, 8484.129, 8533.776, 8627.592, 8485.307, 8628.27, 8715.167, 8629.44, 8576.751, 8613.26, 8596.157, 8504.899, 8597.833, 8647.069, 8608.548, 8473.148, 8587.749, 8520.032, 8525.737, 8942.984, 8533.659, 8538.664, 8627.097, 8844.156, 8644.405, 8554.68, 8530.408, 8597.821, 8568.389, 8668.357, 8726.429, 8604.323, 8603.918, 8584.664, 8498.828, 8527.045, 8582.336, 8664.229, 8574.91, 8580.126, 8541.208, 8597.699, 8570.721, 8551.85],
  "Optimizer iterations": 91,
  "Qubits": 7,
  "Total Algorithm duration [s]": 782.561,
  "Total Classic duration [s]": 199.6306408748627,
  "Total Quantum duration [s]": 582.9303591251373,
  "Expectation Value": -8.84716796875,
  "Optimal Expectation Value": -10.0,
  "Optimizer params": [0.7462296433820158, 0.10774977526894086, 0.7019554833382714, 0.9881673568766517, 0.12510713304720492, 0.7900884958217831],
  "QPU": "6010003",
  "Problem": "MCP",
  "Size": 7,
  "P": 3,
  "Shots": 4096
}