{
  "Depth": 109.0,
  "Expectation Value": -1.921142578125,
  "Job durations [ms]": [8.993387222290039, 8.94618034362793, 9.079456329345703, 8.955001831054688, 8.931398391723633, 8.919954299926758, 9.24992561340332, 8.820295333862305, 9.000539779663086, 8.83173942565918, 8.699178695678711, 9.009122848510742, 8.725166320800781, 9.011507034301758, 9.046077728271484, 9.033203125, 8.842945098876953, 8.855581283569336, 8.861064910888672, 9.143829345703125, 8.748531341552734, 8.845329284667969, 8.855342864990234, 9.036540985107422, 8.732318878173828, 10.353565216064453, 8.84699821472168, 8.734941482543945, 9.036779403686523, 8.748769760131836, 9.036779403686523, 8.796215057373047, 8.857011795043945, 8.770942687988281, 8.829355239868164, 8.767127990722656, 8.832693099975586, 8.872032165527344, 8.786916732788086, 8.82267951965332, 8.784770965576172, 9.14454460144043, 9.063959121704102, 8.743762969970703, 9.032487869262695, 8.898496627807617, 8.976221084594727, 8.902549743652344, 9.041786193847656, 8.927106857299805, 8.93092155456543, 9.173870086669922, 9.192466735839844, 9.084224700927734, 8.738040924072266, 8.926630020141602, 8.704662322998047, 8.88967514038086, 8.947134017944336, 8.960723876953125, 8.848190307617188, 9.03940200805664, 9.042024612426758, 8.855581283569336, 8.846521377563477, 9.079694747924805, 8.825063705444336, 8.657693862915039, 8.540153503417969, 8.896589279174805, 9.11855697631836, 9.03630256652832, 8.819103240966797, 9.038209915161133, 9.019613265991211, 8.793830871582031, 9.069204330444336, 8.843660354614258, 8.936643600463867, 9.083747863769531, 9.037971496582031, 8.865594863891602, 8.913516998291016],
  "Optimal Expectation Value": -1.0,
  "Optimizer durations [ms]": [179.51, 179.597, 179.515, 219.919, 179.627, 178.888, 181.053, 219.144, 179.495, 179.197, 178.821, 220.947, 179.167, 179.584, 179.409, 219.946, 179.561, 179.132, 179.223, 179.142, 219.237, 178.865, 180.067, 178.632, 220.557, 181.365, 179.334, 178.795, 218.406, 178.577, 179.215, 178.629, 219.853, 178.963, 179.045, 178.504, 219.678, 178.843, 178.576, 179.029, 178.907, 220.808, 182.636, 179.16, 179.076, 219.35, 179.125, 179.278, 179.484, 218.088, 178.888, 179.133, 178.942, 218.363, 179.329, 178.898, 179.207, 219.149, 179.98, 180.245, 178.93, 219.678, 179.51, 179.156, 179.113, 180.539, 218.007, 178.404, 178.196, 178.776, 219.063, 178.832, 179.127, 178.714, 218.647, 178.629, 178.964, 178.985, 218.765, 179.118, 179.962, 178.862, 219.721],
  "Optimizer iterations": 83,
  "Optimizer params": [0.5671196659301972, 0.9989946962004255, 0.9823256834322267, 0.881751784988449, 0.5116855788112664, 0.20687444937674423],
  "P": 3,
  "Problem": "MIS",
  "QPU": "3010002",
  "Qubits": 5,
  "Shots": 4096,
  "Size": 4,
  "Total Algorithm duration [s]": 15.68,
  "Total Classic duration [s]": 14.93846266746521,
  "Total Quantum duration [s]": 0.74153733253479
}
