{
  "Depth": 95.0,
  "Job durations [ms]": [6468.4157371521, 6637.104749679565, 7097.584009170532, 6439.602851867676, 6517.2882080078125, 6338.907718658447, 6531.181335449219, 6518.276691436768, 6462.2437953948975, 6404.715776443481, 6495.125770568848, 6456.872463226318, 6557.638168334961, 6881.180286407471, 6548.4302043914795, 6584.645509719849, 6752.707958221436, 6916.6412353515625, 6524.784803390503, 6596.837520599365, 6566.9920444488525, 6486.37056350708, 6575.324773788452, 6523.526191711426, 6375.840902328491, 6448.025465011597, 6489.290475845337, 6396.961212158203, 6625.009298324585, 6455.281496047974, 6569.209814071655, 6867.96760559082, 6565.924406051636, 6953.122138977051, 6409.621953964233, 6440.84358215332, 6922.835111618042, 6386.594295501709, 6362.017869949341, 6403.244256973267, 6859.695196151733, 6730.976819992065, 6713.201999664307, 6672.483921051025, 6454.885244369507, 6514.610290527344, 6386.840581893921, 6894.777059555054, 6844.74778175354, 6748.33345413208, 6479.084491729736, 7036.524057388306, 6451.689004898071, 6487.084627151489, 6459.573268890381, 6507.100343704224, 6838.679313659668, 6894.57631111145, 6435.343265533447, 6681.663990020752, 6541.6059494018555, 6828.279495239258, 6425.17876625061, 6614.711046218872, 6410.598278045654, 6780.464649200439, 6466.068983078003, 6424.740314483643, 6497.344970703125, 6506.890296936035, 6545.845985412598, 6490.313529968262, 6482.9511642456055, 6456.09712600708, 6789.151906967163, 6933.647871017456, 6386.76118850708, 6388.37456703186, 6722.103834152222, 6417.358636856079, 6665.219068527222, 6377.326011657715, 6432.478427886963],
  "Optimizer durations [ms]": [28654.858, 41508.811, 39564.301, 39224.391, 39945.123, 40735.219, 39815.648, 40002.038, 50038.102, 40124.485, 40108.904, 39383.575, 30839.052, 39011.295, 41022.631, 39623.78, 40547.048, 39163.46, 40061.028, 29195.32, 40462.726, 30134.223, 41033.271, 59148.608, 30110.525, 40135.54, 39315.824, 40367.112, 39586.157, 30500.173, 40092.569, 29256.902, 50842.135, 39788.639, 29963.763, 39432.5, 40804.532, 40176.06, 29439.985, 40024.382, 39868.375, 40088.909, 52276.521, 38296.63, 29745.551, 40595.482, 39395.789, 59457.124, 40390.252, 40115.442, 40770.068, 40195.651, 39164.197, 40011.705, 40514.095, 39623.154, 39521.649, 40786.123, 39487.866, 39934.831, 40272.773, 39253.674, 50606.819, 40139.714, 39860.982, 39700.926, 40121.534, 30347.314, 39203.053, 30783.011, 39737.313, 40216.931, 40304.956, 38804.036, 41045.498, 39453.494, 150899.656, 39233.831, 39664.149, 40104.604, 41016.775, 39750.165, 29617.921],
  "Optimizer iterations": 83,
  "Qubits": 5,
  "Total Algorithm duration [s]": 3379.563,
  "Total Classic duration [s]": 2833.333428657532,
  "Total Quantum duration [s]": 546.2295713424683,
  "Expectation Value": -4.97509765625,
  "Optimal Expectation Value": -6.0,
  "Optimizer params": [0.1805518636609773, 0.12607414562291647, 0.49543771826766053, 0.7604891282048104, 0.9847519212802477, 0.9350019699247317],
  "QPU": "4020017",
  "Problem": "MCP",
  "Size": 5,
  "P": 3,
  "Shots": 4096
}