{
  "Circuit execution durations [ms]": [1695.5933570861816, 1575.1583576202393, 1600.9914875030518, 1841.6802883148193, 1545.8989143371582, 1564.0263557434082, 1541.1701202392578, 1536.020278930664, 1528.6195278167725, 1725.8107662200928, 1905.5981636047363, 1889.545202255249, 1685.2965354919434, 1581.378698348999, 1834.362506866455, 1581.4125537872314, 1940.4466152191162, 1914.51096534729, 1955.707311630249, 1565.3128623962402, 1532.0727825164795, 1443.8331127166748, 1550.2479076385498, 1600.9364128112793, 1531.6293239593506, 1463.1335735321045, 1787.2543334960938, 1958.7953090667725, 1579.9431800842285, 1478.1608581542969, 1579.1714191436768, 1433.258056640625, 1762.6087665557861, 1727.5052070617676, 1538.2180213928223, 1928.7214279174805, 1408.7073802947998, 1718.8024520874023, 1564.3045902252197, 1521.4695930480957, 1537.3823642730713, 1527.235746383667, 1619.9731826782227, 1868.0551052093506, 1621.0834980010986, 1650.3009796142578, 1534.2416763305664, 1604.2888164520264, 1580.3136825561523, 1296.3042259216309, 1780.4315090179443, 1572.4997520446777, 1609.3461513519287, 1726.4657020568848, 1658.1816673278809, 1594.0442085266113, 1711.1377716064453, 1343.2228565216064, 1978.7983894348145, 1761.939525604248, 1305.0687313079834, 1526.2343883514404, 1729.853630065918, 1557.1691989898682, 1682.2376251220703, 1518.364429473877, 1650.1648426055908, 1532.2797298431396, 1709.0034484863281, 1311.5909099578857, 1575.8132934570313, 1528.4960269927979, 1693.868637084961, 1693.5327053070068, 1336.8051052093506, 1775.217056274414, 1863.2683753967285, 1553.4603595733643, 1582.7696323394775, 1670.3176498413086, 1454.0753364562988, 1656.1388969421387, 1895.46799659729, 1520.615816116333, 1831.078052520752, 1563.7469291687012, 1829.7357559204102, 1673.4869480133057, 1633.1815719604492, 1547.248125076294, 1684.7198009490967, 1909.1084003448486, 1835.0839614868164, 1524.0576267242432, 1449.704647064209, 1506.5319538116455, 1627.6271343231201, 1605.9412956237793, 1636.7831230163574, 1516.0496234893799, 1682.2750568389893, 1900.3045558929443, 1488.6298179626465, 1724.7405052185059, 1518.4409618377686, 1586.2963199615479, 1737.452745437622, 1643.0156230926514, 1596.6014862060547, 1693.9117908477783, 1373.0425834655762, 1573.491096496582, 1421.332597732544, 1644.359827041626, 1526.0975360870361, 1551.8662929534912, 1626.582145690918, 1539.381504058838, 1626.4667510986328, 1508.976936340332, 1522.3126411437988, 1523.216724395752, 1684.7951412200928, 1785.888671875, 1774.761438369751, 1649.2249965667725, 1309.2775344848633, 1523.5662460327148, 1857.6629161834717, 2332.0178985595703, 1886.7552280426025, 1617.356777191162, 1763.5984420776367, 1781.9328308105469, 1579.418659210205, 1677.690029144287, 1644.688367843628, 1624.2420673370361, 1610.2604866027832, 1883.185625076294, 1626.939296722412, 1576.0841369628906, 1873.4276294708252, 1755.990743637085, 1729.193925857544, 1439.9335384368896, 1846.3876247406006, 1755.3751468658447, 1534.8865985870361, 1948.9378929138184, 1581.568717956543, 1335.0796699523926, 1608.9198589324951, 1897.7012634277344, 1680.8428764343262, 1683.5522651672363, 1610.7909679412842, 1799.9026775360107, 1654.9534797668457, 1600.7397174835205, 1649.0788459777832, 1634.7579956054688, 1674.2491722106934, 1873.8982677459717, 1602.5183200836182, 1691.1628246307373, 1553.3878803253174, 1926.1627197265625, 1886.7690563201904, 1700.1066207885742, 1644.0091133117676, 1356.337308883667, 1580.1115036010742, 1671.8595027923584, 1771.0261344909668, 1546.325922012329, 1638.5431289672852, 1748.6515045166016, 1843.9676761627197, 1643.7861919403076, 1494.9495792388916, 1576.664686203003, 1551.3010025024414, 1586.909294128418, 1623.5849857330322, 1703.1056880950928, 1530.853033065796, 1546.1623668670654, 1617.4092292785645, 1539.4132137298584, 1656.8224430084229, 1578.7220001220703, 1576.4133930206299, 1531.7480564117432, 1626.9774436950684, 1380.2478313446045, 1600.0590324401855, 1617.16890335083, 1590.543508529663, 1665.9376621246338, 1890.0716304779053, 1617.276668548584, 1427.0660877227783, 1602.8659343719482, 1796.410322189331, 1433.2613945007324, 1727.851152420044, 1613.6577129364014, 1611.9840145111084, 1623.0762004852295, 1558.5613250732422, 1649.163007736206, 1560.1274967193604, 1553.7734031677246, 1531.3999652862549, 1552.4120330810547, 1596.5380668640137, 1528.7206172943115, 1640.8097743988037, 1784.0466499328613, 1605.6725978851318, 1519.0424919128418, 1528.371810913086, 1655.6150913238525, 1277.1379947662354, 1602.640151977539, 1587.0060920715332, 1420.445442199707, 1360.996961593628, 1863.8296127319336, 1869.8256015777588, 1623.2333183288574, 1695.4591274261475, 1598.0322360992432, 1358.4635257720947, 1544.3148612976074, 1666.1245822906494, 1520.2035903930664, 1827.5372982025146, 1797.553300857544, 1642.0576572418213, 1559.8175525665283, 1524.277687072754, 1573.214054107666, 1333.9745998382568, 1308.518886566162, 1625.8015632629395, 1658.8146686553955, 1752.394676208496, 2075.094699859619, 1589.0254974365234, 1939.0764236450195, 1804.0881156921387, 1564.5928382873535, 1735.823392868042, 1766.2522792816162, 1659.4526767730713, 1598.672866821289, 1596.9269275665283, 1284.1911315917969, 1658.2300662994385, 1911.8051528930664, 1778.3229351043701, 1690.3176307678223, 1757.8556537628174, 1379.380226135254, 1545.224905014038, 1527.066707611084, 1677.8278350830078, 1730.9775352478027, 1560.927391052246, 1642.5228118896484, 1604.116678237915, 1539.027214050293, 1612.5218868255615, 1575.6032466888428, 1618.941307067871, 1851.3154983520508, 1305.2058219909668, 1707.198143005371, 1618.645429611206, 1697.4706649780273, 1538.949966430664, 1359.8220348358154, 1775.883674621582, 1516.0796642303467, 1536.0689163208008, 1542.7367687225342, 1564.8589134216309, 1904.996633529663, 1546.9295978546143, 1706.0320377349854, 1569.5278644561768, 1570.3191757202148, 1538.6240482330322, 1586.5206718444824, 1603.933334350586, 1661.9913578033447, 1517.6427364349365, 1542.421579360962, 1547.112226486206, 1574.892282485962, 1772.834062576294, 1578.761100769043, 1528.3026695251465, 1592.7205085754395, 1612.2627258300781, 1650.181770324707, 1524.88112449646, 1741.6789531707764, 1852.3221015930176, 1300.105094909668, 1604.65407371521, 1639.2326354980469, 1512.5479698181152, 1676.4330863952637, 1610.2683544158936, 1612.757682800293, 1543.306589126587, 1535.6290340423584, 1560.0223541259766, 1841.8359756469727, 1661.4370346069336, 1395.8067893981934, 1907.4084758758545, 1571.0251331329346, 1583.8100910186768, 1746.8440532684326, 1538.658857345581, 1630.1445960998535, 1686.8975162506104, 1784.1641902923584, 1563.248872756958, 1577.8050422668457, 1701.7316818237305, 1557.464838027954, 1501.2133121490479, 1607.104778289795, 1439.6271705627441, 1786.60249710083, 1557.9912662506104, 1687.896966934204, 1734.4481945037842, 1751.7845630645752, 1580.5981159210205, 1837.9945755004883, 1647.7339267730713, 1686.9590282440186, 1575.3252506256104, 1745.8198070526123, 1579.6868801116943, 1640.2831077575684, 1346.8825817108154, 1636.202096939087, 1596.9281196594238, 1623.173475265503, 1746.558427810669, 1334.9545001983643, 1614.067792892456, 1340.738296508789, 1764.223575592041, 1519.434928894043, 1382.91597366333, 1514.6794319152832, 1580.2397727966309, 1607.8717708587646, 1435.4393482208252, 1610.5000972747803, 1533.48970413208, 1625.4916191101074, 1570.2433586120605, 1619.7781562805176, 1728.8427352905273, 1293.4114933013916, 1605.503797531128, 1601.2306213378906, 1530.390739440918, 1890.7191753387451, 1813.0238056182861, 1688.4748935699463, 1561.305284500122, 1656.7740440368652, 1773.4673023223877, 1526.3261795043945, 1638.6654376983643, 1434.8671436309814, 1347.5561141967773, 1538.7485027313232, 1606.482982635498, 1516.3891315460205, 1525.7041454315186, 1667.3204898834229, 1577.9404640197754, 1846.7626571655273, 1590.4362201690674, 1568.889856338501, 1613.0719184875488, 1357.548713684082, 1584.7396850585938, 1478.7092208862305, 1674.9835014343262, 1533.2648754119873, 1596.3256359100342, 1710.158109664917, 1560.8904361724854, 1515.233039855957, 1313.7664794921875, 1470.60227394104, 1381.399154663086, 1495.1179027557373, 1604.0599346160889, 1540.1902198791504, 1595.0310230255127, 1515.6891345977783, 1572.6418495178223, 1667.5772666931152, 1543.4849262237549, 1837.3198509216309, 1459.928274154663, 1729.2671203613281, 1718.508243560791, 1574.2993354797363, 1666.3696765899658, 1805.1784038543701, 1390.9261226654053, 1351.7787456512451, 1508.1043243408203, 1621.786117553711, 1850.583553314209, 1897.0444202423096, 1279.8912525177002, 1643.1376934051514, 1622.708797454834, 1567.9872035980225, 1343.67036819458, 1742.3548698425293, 1599.6925830841064, 1353.989601135254, 1578.5808563232422, 1533.400297164917, 1262.883186340332, 1351.5748977661133, 1508.5804462432861, 1304.5079708099365, 1715.2221202850342, 1552.0644187927246, 1608.2072257995605, 1621.5927600860596, 1548.9819049835205, 1759.5641613006592, 1587.2244834899902, 1378.6890506744385, 1641.9734954833984, 1570.1279640197754, 1571.8867778778076, 1537.6813411712646, 1363.2779121398926, 1489.5603656768799, 1488.990306854248, 1586.8120193481445, 1444.530963897705, 1304.5310974121094, 1658.2527160644531, 1566.9827461242676, 1740.5221462249756, 1536.487340927124, 1698.204517364502, 1505.0978660583496, 1688.4398460388184, 1655.2903652191162, 1684.934139251709, 1647.8948593139648, 1530.149221420288, 1454.352617263794, 1625.2312660217285, 1596.468448638916, 1865.720272064209, 1597.3172187805176, 1656.6545963287354, 1509.0222358703613, 1655.5795669555664, 1847.1193313598633, 1755.8543682098389, 1560.603141784668, 1664.454460144043, 1655.7245254516602, 1699.4414329528809, 1529.2222499847412, 1584.3050479888916, 1662.2424125671387, 1703.338623046875, 1781.040906906128, 1453.2184600830078, 2102.2114753723145, 1880.4283142089844, 1633.446455001831, 1736.1855506896973, 1587.6226425170898, 1782.2213172912598, 1661.41676902771, 1662.6372337341309, 2000.3466606140137, 1520.8699703216553, 1656.5685272216797, 1728.3287048339844, 1784.4650745391846, 1749.359369277954, 1610.4443073272705, 1527.167558670044],
  "Depth": 32.0,
  "Expectation Value": -1.99951171875,
  "Optimal Expectation Value": -2.0,
  "Optimizer durations [ms]": [2334.808, 2479.811, 2656.55, 2461.365, 2879.912, 2481.92, 2542.856, 2658.621, 2499.87, 2607.797, 2674.519, 2315.98, 2182.762, 2360.108, 2513.028, 2642.556, 2713.789, 2157.049, 2504.627, 2575.428, 2480.195, 2158.894, 2542.317, 2408.295, 2141.123, 2402.542, 2308.502, 2015.789, 2304.911, 2301.439, 2105.128, 2531.421, 2504.184, 2495.609, 2547.249, 2328.497, 2708.837, 2475.619, 2231.679, 2496.575, 2551.591, 2501.02, 2494.648, 2133.283, 2252.378, 2414.626, 2412.944, 2310.366, 2077.691, 2500.123, 2547.938, 2580.04, 2305.167, 2573.867, 2383.28, 2626.794, 2450.648, 2633.614, 2594.773, 2295.056, 2247.235, 2435.962, 2355.289, 2737.771, 2496.534, 2447.454, 2304.435, 2649.619, 2642.786, 2658.139, 2455.219, 2492.523, 2458.659, 2520.991, 2426.091, 2505.954, 2505.741, 2553.254, 2563.177, 2698.944, 3043.517, 2804.892, 2556.42, 2753.288, 2573.925, 2567.356, 2737.933, 2456.017, 2855.49, 2439.425, 2502.016, 2813.837, 2717.344, 2535.516, 2506.755, 2439.623],
  "Optimizer iterations": 96,
  "Optimizer params": [0.9952780363524418, 0.5328775484735339, 0.6371109580048898, 0.856637243506171, 0.45005886352293817, 0.9825717663951317],
  "P": 3,
  "Problem": "MCP",
  "QJob durations [ms]": [2321.98429107666, 2471.207857131958, 2645.5750465393066, 2450.5321979522705, 2870.797634124756, 2473.3729362487793, 2534.1851711273193, 2645.8404064178467, 2489.8476600646973, 2598.5770225524902, 2665.616512298584, 2305.734872817993, 2174.0829944610596, 2351.647138595581, 2500.40602684021, 2633.086681365967, 2702.3544311523438, 2148.1571197509766, 2496.234893798828, 2565.859317779541, 2469.31529045105, 2146.5346813201904, 2533.400774002075, 2398.982286453247, 2132.500410079956, 2388.237714767456, 2298.574924468994, 2006.8278312683105, 2296.0774898529053, 2292.5519943237305, 2096.590280532837, 2522.242307662964, 2494.0438270568848, 2472.590446472168, 2533.397674560547, 2315.0174617767334, 2697.813034057617, 2465.9335613250732, 2209.743022918701, 2484.684944152832, 2540.2514934539795, 2488.144874572754, 2485.3451251983643, 2123.9445209503174, 2243.7894344329834, 2340.6758308410645, 2400.7821083068848, 2297.4648475646973, 2068.098306655884, 2490.7915592193604, 2539.5565032958984, 2568.349599838257, 2296.4744567871094, 2561.6724491119385, 2371.3736534118652, 2593.6827659606934, 2441.695213317871, 2561.004877090454, 2582.7412605285645, 2285.254955291748, 2237.8761768341064, 2425.1346588134766, 2345.9866046905518, 2725.304365158081, 2485.2588176727295, 2438.6470317840576, 2295.354127883911, 2639.793634414673, 2623.0196952819824, 2583.1522941589355, 2442.943572998047, 2482.6290607452393, 2445.075035095215, 2511.6231441497803, 2417.243003845215, 2497.185468673706, 2496.063232421875, 2544.332504272461, 2548.999547958374, 2686.1732006073, 3026.6213417053223, 2795.344829559326, 2545.6700325012207, 2744.159698486328, 2562.722682952881, 2557.7855110168457, 2722.0675945281982, 2446.2783336639404, 2845.245838165283, 2430.593967437744, 2493.1983947753906, 2803.473711013794, 2708.7597846984863, 2524.9249935150146, 2496.7312812805176, 2428.72953414917],
  "QPU": "6010030",
  "Qubits": 3,
  "Shots": 4096,
  "Size": 3,
  "Total Algorithm duration [s]": 238.831,
  "Total Classic duration [s]": 1.2456432876586803,
  "Total Quantum duration [s]": 237.5853567123413
}
