{
  "Depth": 2.0,
  "Job durations [ms]": [20.954499952495098, 20.829499699175358, 20.941000431776047, 53.883000276982784, 20.84450051188469, 20.618999376893044, 20.686999894678593, 20.778000354766846, 20.967000164091587, 20.697999745607376, 20.837499760091305, 20.907499827444553, 20.886999554932117, 54.48150169104338, 20.919499918818474, 20.998500287532806, 20.848000422120094, 21.14799991250038, 20.87949961423874, 20.910500548779964, 21.10449969768524, 20.761500112712383, 53.19600086659193, 20.563500002026558, 20.803499966859818, 20.344999618828297, 22.958500310778618, 21.042500622570515, 20.656999200582504, 20.88399976491928, 20.72950080037117, 20.891000516712666, 54.398500360548496, 20.914999768137932, 20.887999795377254, 20.92199958860874, 21.00900001823902, 20.856999792158604, 21.052000112831593, 20.89950069785118, 20.732500590384007, 21.027499809861183, 53.98050043731928, 20.746500231325626, 21.100499667227268, 21.0804995149374, 21.436000242829323, 21.098999306559563, 20.97650058567524],
  "Optimizer durations [ms]": [43.967, 43.741, 43.981, 110.109, 44.129, 43.56, 43.622, 43.87, 43.982, 43.54, 43.758, 44.09, 43.907, 111.454, 44.093, 44.106, 43.863, 44.527, 43.923, 44.007, 44.282, 43.695, 108.46, 43.615, 44.079, 43.003, 48.159, 44.452, 43.484, 43.989, 43.667, 43.955, 111.051, 44.278, 43.972, 43.996, 44.13, 43.848, 44.437, 43.908, 43.619, 44.263, 110.231, 43.859, 44.589, 44.432, 45.015, 44.37, 44.309],
  "Optimizer iterations": 49,
  "Qubits": 3,
  "Total Algorithm duration [s]": 2.491,
  "Total Classic duration [s]": 1.2999239960536362,
  "Total Quantum duration [s]": 1.191076003946364,
  "Expectation Value": -1.7456200122833252,
  "Optimal Expectation Value": -1.746999979019165,
  "Optimizer params": [0.6379277399020347, 0.47615173407772793, 0.6398098163486996],
  "QPU": "9000001",
  "Problem": "RH",
  "Size": 3,
  "P": 0,
  "Shots": 4096
}