{
  "Depth": 10.5,
  "Job durations [ms]": [36.000000312924385, 31.50000050663948, 32.500000670552254, 29.49999924749136, 35.00000014901161, 34.5000009983778, 36.000000312924385, 31.999999657273293, 33.999999053776264, 32.00000151991844, 32.500000670552254, 35.50000116229057, 33.99999998509884, 31.999999657273293, 32.500000670552254, 30.499999411404133, 38.999998942017555, 32.500000670552254, 36.4999994635582, 38.49999979138374, 31.50000050663948, 32.49999973922968, 34.5000009983778, 32.00000058859587, 38.49999979138374, 35.50000116229057, 31.999999657273293, 32.500000670552254, 30.500000342726707, 35.00000014901161, 31.50000050663948, 31.999999657273293, 33.000001683831215, 32.499998807907104, 33.49999897181988, 32.500000670552254, 33.50000083446503, 33.000001683831215, 33.49999897181988, 31.50000050663948, 30.499999411404133, 35.00000014901161, 30.499999411404133, 36.000000312924385, 31.50000050663948, 30.99999949336052, 30.500000342726707, 34.5000009983778, 30.499999411404133, 32.00000058859587, 37.99999877810478, 32.00000058859587, 34.49999913573265, 30.500000342726707, 32.499998807907104, 113.9999981969595, 32.00000058859587, 31.000000424683094, 34.500000067055225, 32.500000670552254, 31.999999657273293, 38.999998942017555, 32.500000670552254, 31.999999657273293, 33.000001683831215, 33.99999998509884, 33.50000083446503, 32.00000151991844, 35.50000116229057, 34.500000067055225, 31.50000050663948, 35.00000014901161, 36.000000312924385, 31.00000135600567, 80.49999922513962, 35.00000014901161, 33.49999897181988, 32.999999821186066, 32.500000670552254, 32.500000670552254, 30.499999411404133, 36.000000312924385, 32.49999973922968, 30.99999949336052, 32.500000670552254, 31.50000050663948, 45.500000938773155, 32.500000670552254, 30.500000342726707, 31.999999657273293, 33.49999990314245, 50.00000074505806, 35.499999299645424, 30.499999411404133, 41.000000201165676, 33.000001683831215, 31.499999575316906, 33.99999998509884, 31.999999657273293, 32.00000058859587, 30.99999949336052, 29.999999329447746, 29.999999329447746, 30.99999949336052, 38.49999979138374, 29.999999329447746, 30.000001192092896, 32.500000670552254, 36.000000312924385, 36.000000312924385, 29.500000178813934, 36.4999994635582, 34.49999913573265, 31.499999575316906, 30.99999949336052, 31.999999657273293, 30.000001192092896, 32.500000670552254, 33.000001683831215, 32.999999821186066, 32.500000670552254, 34.5000009983778, 31.499999575316906, 33.000001683831215, 32.00000151991844, 32.49999973922968, 38.50000165402889, 34.5000009983778, 36.4999994635582, 32.49999973922968, 32.00000058859587, 31.000000424683094, 36.000000312924385, 31.999999657273293, 44.50000077486038, 33.000001683831215, 33.50000083446503, 33.99999998509884, 35.00000014901161, 38.49999979138374, 30.99999949336052, 33.000001683831215, 37.00000047683716, 38.00000064074993, 29.500000178813934, 31.000000424683094, 32.00000151991844, 38.50000165402889, 34.00000184774399, 31.50000050663948, 32.00000151991844, 34.5000009983778, 31.000000424683094, 34.00000184774399, 33.99999998509884, 31.499999575316906, 32.500000670552254, 32.500000670552254, 33.49999897181988, 35.00000014901161, 33.50000083446503, 36.4999994635582, 32.500000670552254, 33.49999897181988, 37.50000149011612, 161.4999994635582, 51.500001922249794, 36.000000312924385, 32.500000670552254, 33.49999897181988, 39.000000804662704, 36.4999994635582, 32.999999821186066, 76.50000043213367, 36.4999994635582, 35.50000116229057, 31.000000424683094, 35.00000014901161, 39.000000804662704, 214.9999961256981, 36.4999994635582, 36.99999861419201, 30.99999949336052, 42.99999959766865, 32.500000670552254, 31.999999657273293, 30.499999411404133, 31.000000424683094, 34.49999913573265, 35.50000116229057, 36.4999994635582, 32.999999821186066, 35.50000116229057, 32.500000670552254, 35.00000014901161, 35.99999938160181, 37.00000047683716, 32.999999821186066, 33.50000083446503, 33.99999998509884, 33.99999998509884, 32.00000058859587, 32.99999888986349, 35.00000014901161, 36.4999994635582, 36.000000312924385, 36.4999994635582, 32.00000058859587, 32.999999821186066, 33.50000083446503, 33.999999053776264, 34.49999913573265, 37.00000047683716, 37.50000149011612, 39.99999910593033, 36.000000312924385, 29.999999329447746, 31.999999657273293, 40.00000096857548, 33.000001683831215, 41.999999433755875],
  "Optimizer durations [ms]": [12077.126, 11882.253, 12289.877, 12091.215, 12373.679, 12289.172, 12086.588, 12196.951, 12068.388, 12186.866, 12081.106, 12699.543, 12387.041, 12076.395, 11996.799, 12179.192, 11922.042, 12289.552, 12142.998, 12770.421, 12322.764, 11888.332, 12068.739, 12288.138, 12255.71, 12321.386, 12288.31, 11979.874, 12082.785, 12084.014, 12113.686, 12133.408, 12105.273, 11980.691, 12128.195, 12346.161, 12083.135, 11796.653, 11959.668, 12191.805, 12086.079, 12075.459, 12083.148, 11980.463, 12082.893, 12022.899, 12080.8, 12150.522, 12027.026, 12242.247, 12244.593, 12467.809, 11791.296, 12030.957, 12198.892, 12069.772, 12130.732, 11838.324, 12178.347, 12196.992, 11965.673, 12086.538, 12032.983, 12076.602, 12047.074, 12176.714, 11930.728, 12155.141, 12164.554, 12042.159, 12069.086, 12083.66, 11859.437, 12020.761, 12071.281, 12026.515, 12288.529, 12242.068, 11965.144, 12173.74, 11953.282, 11979.921, 11879.475, 12334.478, 12042.415, 11974.178, 11907.743, 12055.583, 12110.874, 11850.866, 12287.195, 12466.484, 11844.928, 11933.009, 11883.762, 12108.365, 12059.468, 11887.149, 12033.032, 12124.213, 11878.78, 12092.312, 12015.143, 12142.716, 11827.829, 12139.599, 12076.41, 12284.3, 11882.927, 12060.973, 11930.399, 12258.309, 12082.286, 11879.416, 12029.659, 12239.418, 12305.465, 12372.757, 12083.571, 12407.363, 12064.902, 11950.29, 12016.793, 12177.688, 12093.324, 11973.598, 11918.784, 11991.786, 12136.514, 12390.121, 12288.266, 12292.518, 12077.484, 12226.009, 12146.076, 12389.932, 11948.638, 12260.942, 12244.098, 11982.033, 12004.282, 11855.513, 11981.074, 12197.01, 12175.809, 12101.778, 11898.17, 12145.045, 12082.478, 12003.394, 11954.301, 11821.708, 11984.984, 12038.604, 11877.189, 11980.978, 12083.393, 11989.216, 12283.326, 12081.047, 11977.177, 11984.168, 12198.741, 12149.973, 12037.148, 12409.247, 12029.712, 12596.459, 11980.783, 11985.34, 12105.681, 12113.128, 12128.475, 12186.761, 12087.98, 12078.303, 12083.398, 11933.867, 12028.375, 12184.211, 12090.712, 12007.668, 11903.683, 12127.498, 12288.988, 12080.746, 12208.435, 12002.803, 12005.052, 11909.487, 12355.322, 12121.361, 11921.97, 12045.342, 12180.885, 12186.082, 12082.222, 12188.754, 11979.944, 12066.252, 12117.769, 12046.97, 11697.315, 12487.205, 11977.168, 12227.092, 12249.35, 12084.243, 12332.457, 11835.965, 12288.885, 12063.796, 12001.648, 11670.94, 11695.619, 11971.386, 11928.874, 11792.917, 11957.195, 11728.767, 11721.758],
  "Optimizer iterations": 221,
  "Qubits": 4,
  "Total Algorithm duration [s]": 2671.688,
  "Total Classic duration [s]": 2663.716499959037,
  "Total Quantum duration [s]": 7.971500040963292,
  "Expectation Value": -4.3125,
  "Optimal Expectation Value": -4.75877046585083,
  "Optimizer params": [0.6387904471772721, 0.8232536431179588, 0.702969298860944, 0.8532916800765079, 0.49652295654985346, 0.517558147635028, 0.5002465001213665, 0.5198408804323439, 0.5673433768066347, 0.5812478363111248, 0.5540685904358716, 0.5877168934601767, 0.46669495460157967, 0.5051870271749455, 0.5165083753604608, 0.4772270235783932],
  "QPU": "10000001",
  "Problem": "IC",
  "Size": 4,
  "P": 0,
  "Shots": 4096
}