{
  "Depth": 10.5,
  "Job durations [ms]": [35.99999938160181, 33.000001683831215, 35.00000014901161, 33.99999998509884, 32.500000670552254, 33.49999897181988, 33.50000083446503, 33.999999053776264, 30.99999949336052, 31.499999575316906, 33.000001683831215, 29.999999329447746, 35.00000014901161, 32.500000670552254, 33.50000083446503, 34.5000009983778, 35.00000014901161, 31.499999575316906, 32.500000670552254, 29.999999329447746, 34.5000009983778, 33.50000083446503, 30.500000342726707, 36.000000312924385, 31.000000424683094, 33.99999998509884, 32.500000670552254, 30.499999411404133, 29.999999329447746, 29.49999924749136, 33.50000083446503, 30.500000342726707, 32.999999821186066, 34.5000009983778, 32.500000670552254, 29.49999924749136, 34.00000184774399, 29.49999924749136, 32.500000670552254, 34.5000009983778, 32.500000670552254, 32.500000670552254, 31.50000050663948, 33.000001683831215, 33.999999053776264, 32.500000670552254, 36.4999994635582, 30.499999411404133, 29.49999924749136, 79.99999728053808, 31.499999575316906, 33.000001683831215, 35.00000014901161, 31.999999657273293, 34.5000009983778, 33.000001683831215, 31.50000050663948, 31.999999657273293, 29.999999329447746, 31.499999575316906, 33.49999897181988, 29.999999329447746, 33.49999897181988, 30.99999949336052, 36.000000312924385, 36.4999994635582, 32.99999888986349, 31.999999657273293, 36.000000312924385, 31.999999657273293, 29.999999329447746, 34.5000009983778, 30.500000342726707, 32.999999821186066, 31.000000424683094, 32.500000670552254, 28.50000001490116, 34.49999913573265, 32.00000058859587, 32.500000670552254, 30.499999411404133, 35.499999299645424, 31.999999657273293, 33.000001683831215, 32.00000151991844, 31.999999657273293, 35.50000116229057, 34.99999921768904, 30.499999411404133, 35.500000230968, 34.5000009983778, 34.5000009983778, 32.500000670552254, 36.500001326203346, 32.500000670552254, 31.999999657273293, 41.50000028312206, 32.49999973922968, 31.499999575316906, 35.00000014901161, 32.49999973922968, 29.999999329447746, 32.999999821186066, 34.49999913573265, 32.999999821186066, 44.999999925494194, 34.49999913573265, 31.999999657273293, 34.5000009983778, 32.99999888986349, 32.00000151991844, 30.99999949336052, 30.99999949336052, 34.5000009983778, 32.500000670552254, 33.50000083446503, 34.49999913573265, 30.99999949336052, 31.499999575316906, 30.499999411404133, 30.99999949336052, 32.500000670552254, 35.499999299645424, 33.50000083446503, 37.99999877810478, 32.00000151991844, 29.999999329447746, 33.49999990314245, 29.999999329447746, 38.999998942017555, 33.000001683831215, 34.99999921768904, 34.5000009983778, 32.49999973922968, 32.999999821186066, 33.000001683831215, 31.50000050663948, 34.49999913573265, 31.50000050663948, 39.49999902397394, 31.50000050663948, 30.499999411404133, 31.000000424683094, 35.50000116229057, 35.50000116229057, 33.50000083446503, 35.500000230968, 30.499999411404133, 32.999999821186066, 32.999999821186066, 38.00000064074993, 29.999999329447746, 31.499999575316906, 33.99999998509884, 32.00000058859587, 31.499999575316906, 34.5000009983778, 31.50000050663948, 30.499999411404133, 30.99999949336052, 35.499999299645424, 33.50000083446503, 39.499999955296516, 33.000001683831215, 32.500000670552254, 30.99999949336052, 33.99999998509884, 32.999999821186066, 34.49999913573265, 32.999999821186066, 32.500000670552254, 34.5000009983778, 37.49999962747097, 36.000000312924385, 31.000000424683094, 34.49999913573265, 31.50000050663948, 31.999999657273293, 30.499999411404133, 30.499999411404133, 30.99999949336052, 32.00000151991844, 34.00000184774399, 31.999999657273293, 34.49999913573265, 30.99999949336052, 30.99999949336052, 33.49999897181988, 33.49999897181988, 29.999999329447746, 29.500000178813934, 31.999999657273293, 31.999999657273293, 34.5000009983778, 32.99999888986349, 175.00000819563866, 31.50000050663948, 30.499999411404133, 32.999999821186066, 31.50000050663948, 30.499999411404133, 30.500000342726707, 39.99999910593033, 34.5000009983778, 32.00000058859587, 34.49999913573265, 31.50000050663948, 30.499999411404133, 30.000001192092896, 31.000000424683094, 35.00000014901161, 32.999999821186066, 34.00000184774399, 35.500000230968, 34.500000067055225, 33.49999990314245, 31.499999575316906, 36.4999994635582, 50.50000175833702, 30.99999949336052, 35.999998450279236, 32.500000670552254, 33.50000083446503, 35.499999299645424, 33.49999990314245],
  "Optimizer durations [ms]": [11981.171, 11876.528, 12082.913, 11979.544, 12307.506, 11883.947, 12478.25, 12197.487, 12209.317, 12038.596, 12084.401, 12375.905, 11899.392, 11933.908, 11720.849, 11738.097, 11667.895, 12122.462, 11879.204, 11979.58, 11982.327, 11878.471, 12185.922, 12083.102, 11981.451, 11984.53, 12078.883, 12083.661, 12080.22, 12297.006, 12077.889, 11980.965, 11923.789, 11832.318, 12185.429, 12032.691, 11827.824, 12083.548, 12439.38, 11931.626, 11732.314, 12025.297, 12421.487, 11995.038, 12220.63, 12203.967, 12088.926, 11876.45, 11982.175, 11981.203, 12286.548, 12080.47, 12188.753, 12082.732, 12023.968, 12142.891, 11981.56, 12108.059, 12161.816, 12082.196, 11879.429, 12135.169, 12042.765, 11969.535, 12082.669, 11879.383, 12082.671, 11981.61, 12507.222, 12086.969, 11731.202, 11727.216, 11822.898, 11894.702, 11806.924, 11981.031, 11658.692, 11617.186, 11780.253, 11730.526, 11865.294, 11736.657, 11667.377, 12044.727, 11616.742, 11704.625, 12404.509, 11721.426, 12036.399, 11987.762, 12115.627, 12042.653, 12080.64, 12290.8, 12162.589, 12312.019, 12126.984, 11933.415, 12060.252, 12311.348, 12105.102, 11963.796, 12184.999, 12082.225, 12187.271, 12315.818, 11949.531, 12115.007, 12092.574, 12141.652, 12290.662, 12086.564, 12083.571, 11981.065, 12185.642, 12185.749, 12098.05, 12067.664, 11847.741, 12012.436, 11980.997, 12394.687, 12078.07, 12288.691, 12381.133, 11989.721, 12294.094, 12171.261, 11888.503, 11979.985, 12056.509, 12094.485, 11843.691, 11867.453, 12246.824, 11982.525, 12100.129, 12065.975, 12083.934, 11979.459, 12101.129, 12414.933, 12143.47, 11878.838, 11981.154, 12035.811, 12233.977, 12232.246, 12036.297, 11980.986, 12249.402, 11916.213, 11876.156, 12083.077, 12393.629, 12000.525, 12064.668, 11980.097, 11836.154, 12061.209, 12249.352, 12391.442, 12438.835, 12035.343, 12209.901, 12059.118, 12286.831, 11982.378, 12812.32, 11885.624, 12063.764, 12420.577, 12053.371, 11877.258, 12409.151, 12208.418, 12039.625, 12083.454, 12309.819, 17082.657, 12184.991, 11980.419, 12288.264, 12084.161, 12287.657, 12082.564, 12080.593, 11984.636, 11984.924, 12078.734, 11980.923, 12180.547, 11986.196, 12262.137, 12311.055, 11823.504, 11784.107, 11753.092, 12139.953, 12071.265, 12209.462, 12197.265, 11753.029, 11710.192, 12017.504, 11680.192, 11670.138, 11732.754, 11963.17, 12131.409, 12195.423, 11872.385, 12032.001, 12112.47, 12218.761, 11919.153, 12082.242, 12288.266, 12243.341, 12129.131, 11975.285, 12088.492, 12184.483, 12084.457, 12251.166],
  "Optimizer iterations": 225,
  "Qubits": 4,
  "Total Algorithm duration [s]": 2717.89,
  "Total Classic duration [s]": 2710.2619999771564,
  "Total Quantum duration [s]": 7.62800002284348,
  "Expectation Value": -3.7724609375,
  "Optimal Expectation Value": -4.75877046585083,
  "Optimizer params": [0.6029134239381224, 0.7513333734491112, 0.8776215410095755, 0.5213922748880799, 0.4835545314234047, 0.4920522678414234, 0.6109471662879378, 0.47492147226675235, 0.49327633311209274, 0.5105363237567537, 0.47945377951271195, 0.5263098873798293, 0.4731074113621282, 0.4807807898087444, 0.485451904114469, 0.3668290785766667],
  "QPU": "10000001",
  "Problem": "IC",
  "Size": 4,
  "P": 0,
  "Shots": 4096
}