{
  "Depth": 10.5,
  "Job durations [ms]": [31.499999575316906, 39.499999955296516, 33.99999998509884, 38.49999979138374, 40.50000011920929, 31.999999657273293, 33.999999053776264, 33.99999998509884, 35.00000014901161, 47.49999847263098, 33.50000083446503, 32.00000058859587, 33.99999998509884, 33.99999998509884, 33.49999897181988, 32.49999973922968, 34.500000067055225, 35.00000014901161, 30.500000342726707, 29.999999329447746, 33.49999990314245, 29.999999329447746, 30.500000342726707, 29.999999329447746, 37.500000558793545, 37.49999962747097, 32.00000151991844, 29.999999329447746, 30.499999411404133, 29.999999329447746, 36.50000039488077, 32.00000058859587, 31.50000050663948, 31.000000424683094, 35.00000014901161, 34.49999913573265, 29.999999329447746, 33.49999897181988, 34.49999913573265, 32.00000058859587, 31.000000424683094, 30.99999949336052, 32.500000670552254, 29.999999329447746, 39.99999910593033, 32.00000151991844, 35.00000014901161, 34.49999913573265, 31.499999575316906, 32.499998807907104, 30.499999411404133, 31.50000050663948, 36.500001326203346, 33.000001683831215, 34.99999921768904, 36.000000312924385, 33.50000083446503, 32.999999821186066, 42.500000447034836, 37.49999962747097, 33.50000083446503, 34.500000067055225, 36.000000312924385, 38.00000064074993, 37.50000149011612, 33.99999998509884, 32.500000670552254, 32.500000670552254, 31.499999575316906, 36.500001326203346, 32.500000670552254, 33.99999998509884, 37.00000047683716, 29.49999924749136, 34.49999913573265, 35.499999299645424, 31.999999657273293, 32.00000058859587, 31.50000050663948, 33.000001683831215, 32.49999973922968, 34.99999921768904, 35.50000116229057, 31.499999575316906, 31.499999575316906, 36.500001326203346, 33.50000083446503, 38.49999979138374, 33.49999897181988, 33.50000083446503, 33.99999998509884, 32.999999821186066, 40.50000011920929, 35.00000014901161, 34.5000009983778, 32.999999821186066, 37.50000149011612, 34.5000009983778, 35.00000014901161, 37.49999962747097, 32.999999821186066, 31.499999575316906, 36.4999994635582, 37.00000047683716, 33.49999897181988, 32.999999821186066, 31.499999575316906, 30.99999949336052, 36.000000312924385, 30.499999411404133, 35.00000014901161, 30.99999949336052, 34.49999913573265, 35.50000116229057, 35.00000014901161, 33.49999897181988, 33.50000083446503, 32.500000670552254, 34.49999913573265, 35.99999938160181, 33.99999998509884, 29.999999329447746, 33.000001683831215, 40.00000096857548, 32.500000670552254, 41.50000028312206, 31.999999657273293, 31.999999657273293, 41.999999433755875, 40.00000096857548, 36.500001326203346, 32.500000670552254, 36.000000312924385, 36.4999994635582, 32.500000670552254, 35.50000116229057, 32.500000670552254, 31.000000424683094, 31.50000050663948, 36.500001326203346, 33.50000083446503, 32.500000670552254, 35.00000014901161, 38.00000064074993, 35.499999299645424, 43.0000014603138, 38.00000064074993, 31.50000050663948, 32.49999973922968, 56.49999901652336, 31.999999657273293, 33.49999897181988, 33.50000083446503, 31.999999657273293, 33.49999897181988, 32.999999821186066, 52.49999836087227, 34.5000009983778, 32.500000670552254, 32.999999821186066, 31.50000050663948, 98.99999760091305, 33.50000083446503, 29.999999329447746, 32.00000058859587, 37.49999962747097, 30.499999411404133, 32.999999821186066, 32.00000151991844, 33.50000083446503, 33.99999998509884, 34.5000009983778, 34.00000184774399, 39.000000804662704, 33.99999998509884, 30.499999411404133, 37.00000047683716, 31.000000424683094, 32.500000670552254, 38.49999979138374, 38.00000064074993, 30.499999411404133, 35.00000014901161, 35.499999299645424, 33.99999998509884, 34.49999913573265, 31.499999575316906, 32.999999821186066, 35.00000014901161, 35.499999299645424, 31.50000050663948, 31.50000050663948, 31.000000424683094, 35.00000014901161, 35.00000014901161, 31.499999575316906, 33.49999897181988, 33.50000083446503, 32.500000670552254, 36.4999994635582, 35.500000230968, 32.499998807907104, 40.50000011920929, 32.999999821186066, 32.500000670552254, 34.5000009983778, 34.500000067055225, 36.000000312924385, 32.500000670552254, 36.000000312924385, 30.499999411404133, 32.00000058859587, 37.49999962747097, 33.000001683831215, 34.500000067055225, 33.000001683831215, 33.999999053776264, 33.50000083446503, 32.00000151991844, 33.99999998509884, 33.000001683831215, 34.00000184774399, 38.00000064074993, 38.49999979138374, 35.00000014901161, 32.999999821186066, 33.50000083446503, 31.50000050663948, 32.500000670552254, 35.50000116229057, 34.49999913573265, 31.000000424683094],
  "Optimizer durations [ms]": [11906.972, 12768.301, 11978.664, 12007.954, 11660.469, 11748.779, 11696.561, 11747.55, 12026.796, 11879.515, 11713.537, 11640.629, 11643.366, 11715.704, 11695.213, 11780.975, 11964.892, 11643.564, 12161.664, 12021.51, 11978.83, 12277.338, 12055.241, 12143.532, 12124.604, 11981.739, 12181.175, 11912.823, 11991.498, 11939.061, 12126.09, 12045.97, 12077.87, 11788.943, 12009.772, 12142.91, 12056.541, 11907.414, 12286.589, 12083.11, 11712.415, 12044.562, 12019.814, 12656.99, 11983.001, 11877.91, 12082.119, 12101.156, 11965.806, 12082.964, 11933.298, 12233.346, 12185.516, 12184.677, 12096.531, 12070.053, 12131.783, 11829.627, 11982.155, 12182.253, 12005.453, 12163.2, 12309.783, 12164.989, 12025.436, 12038.005, 12287.384, 12114.274, 12015.382, 12021.355, 12037.955, 12256.874, 11850.741, 12287.687, 11892.842, 12129.083, 12228.166, 12185.602, 12287.114, 12183.407, 12320.319, 12112.928, 12331.953, 12344.393, 12021.041, 12095.369, 12132.074, 12027.928, 11878.445, 12010.533, 12297.604, 11984.975, 11937.809, 12106.192, 11857.842, 11996.443, 12167.986, 12226.147, 11940.727, 12191.604, 11953.176, 12120.693, 11919.413, 12434.922, 12197.526, 12175.253, 11879.228, 12082.453, 11981.726, 12186.943, 11914.935, 12043.662, 12254.607, 12421.009, 12087.11, 12185.491, 12020.092, 12086.903, 12040.971, 11980.525, 12085.093, 12196.967, 12169.147, 12087.081, 11981.042, 12194.486, 12278.216, 12289.003, 11879.171, 12308.462, 11855.638, 11927.409, 11831.035, 12285.399, 12085.118, 12387.643, 12702.363, 12085.407, 12296.165, 12072.874, 12287.746, 12026.63, 12043.888, 12275.831, 12089.081, 12082.424, 12107.155, 12266.294, 12286.266, 11876.415, 12494.251, 12289.432, 12083.219, 11866.821, 12353.148, 12026.218, 11983.73, 12089.103, 12078.591, 12077.582, 12293.398, 12197.434, 12273.463, 12086.923, 12083.949, 11870.28, 11988.932, 12403.724, 12070.202, 11980.033, 12111.782, 12331.56, 11905.774, 12219.772, 12052.691, 12196.111, 11970.536, 11996.436, 12196.739, 12022.127, 12736.645, 12172.044, 12046.011, 12307.658, 12226.913, 12070.534, 11828.144, 12339.122, 11910.932, 12111.162, 12031.505, 12128.121, 11943.862, 12067.765, 11878.265, 12318.944, 11950.387, 11979.612, 12183.119, 12036.049, 12031.064, 11982.163, 12387.232, 12189.03, 12090.613, 12297.866, 11990.804, 12465.925, 11980.815, 12181.552, 11987.227, 12283.302, 11925.146, 12197.037, 12028.506, 12184.366, 12187.015, 11981.122, 12288.022, 12184.533, 12092.12, 12481.363, 11984.414, 12082.665, 12186.999, 11981.112, 12272.873, 12272.968, 12119.9, 12303.27, 11984.186, 12167.623],
  "Optimizer iterations": 232,
  "Qubits": 4,
  "Total Algorithm duration [s]": 2805.276,
  "Total Classic duration [s]": 2797.273499970719,
  "Total Quantum duration [s]": 8.002500029280782,
  "Expectation Value": -4.529296875,
  "Optimal Expectation Value": -4.75877046585083,
  "Optimizer params": [0.5700434155036035, 0.8289872366472515, 0.6918258926413737, 0.7933953155760569, 0.44007187980182694, 0.49696063593764755, 0.48193344539039135, 0.5301227706398567, 0.45975651246941646, 0.5316762862243746, 0.575866322519823, 0.6192916386629206, 0.472253191938896, 0.49034558777785625, 0.4686230224874665, 0.49781470780788073],
  "QPU": "10000001",
  "Problem": "IC",
  "Size": 4,
  "P": 0,
  "Shots": 4096
}