{
  "Depth": 14.0,
  "Job durations [ms]": [6319.726467132568, 6102.594375610352, 6173.6578941345215, 6042.377233505249, 6339.675426483154, 6045.101881027222, 6008.458375930786, 6127.3510456085205, 6080.235719680786, 5994.432687759399, 6029.917478561401, 6126.532554626465, 6139.905214309692, 6137.628555297852, 6030.497312545776, 6033.826112747192, 5960.741996765137, 6022.277593612671, 6044.718980789185, 6055.2427768707275, 6035.942316055298, 6086.859703063965, 6017.847299575806, 6014.865398406982, 6040.842294692993, 6110.727548599243, 6006.550550460815, 6086.905479431152, 6091.421842575073, 6061.129093170166, 6111.038446426392, 6385.869026184082, 6113.535165786743, 6033.478736877441, 5961.705923080444, 6179.772853851318, 6710.454940795898, 6040.576219558716, 6005.983591079712, 6053.08723449707, 6005.443334579468, 6026.97229385376, 6158.6174964904785, 6347.099304199219, 6045.531272888184, 6064.610481262207, 6128.990888595581, 6010.68639755249, 6041.295766830444, 6050.479412078857, 6452.059507369995, 6348.51336479187, 6052.25396156311, 6142.98152923584, 6062.229633331299, 6378.549575805664, 6128.036975860596, 6166.712522506714, 6042.803525924683, 6057.636976242065, 6136.579751968384, 6081.976890563965, 6031.69584274292, 6091.526508331299, 6037.513256072998, 6140.419483184814, 6007.154941558838, 6096.26841545105, 6042.666673660278, 6142.017126083374, 6016.990661621094, 6165.4345989227295, 6336.761951446533, 6115.174293518066, 5942.771673202515, 6045.088768005371, 6329.514741897583, 6097.318172454834, 6112.159013748169, 6047.704696655273, 6073.800563812256, 5997.561454772949, 6394.084930419922, 6048.213720321655, 6053.608179092407, 6080.5041790008545, 6066.763401031494, 6365.366697311401, 5987.19048500061, 5984.084129333496, 6162.270307540894, 6018.573999404907],
  "Optimizer durations [ms]": [2247586.463, 50789.108, 268599.786, 30065.657, 19889.999, 30355.609, 29371.906, 30017.056, 29630.149, 30048.875, 30422.88, 29987.998, 30609.649, 29963.556, 29674.402, 29921.49, 30042.089, 30064.736, 30129.243, 30387.746, 40023.483, 29581.001, 30160.956, 29089.432, 30760.497, 30083.074, 30470.461, 29640.893, 29909.005, 29643.095, 30644.09, 30008.188, 29700.32, 30090.285, 28742.468, 20512.947, 20751.031, 29077.547, 21358.512, 18440.806, 21480.406, 28596.358, 20550.004, 21942.37, 28810.23, 19339.584, 20640.318, 18569.487, 21035.394, 20168.433, 29935.763, 29602.139, 19834.223, 19332.321, 30468.917, 20585.637, 19831.477, 20294.08, 19473.069, 20068.374, 20492.322, 30310.832, 20061.075, 19385.444, 20020.169, 19714.38, 19988.948, 21421.229, 20240.537, 29491.353, 19801.14, 29215.021, 20061.79, 30231.574, 29986.539, 19869.745, 19647.474, 20787.961, 29125.224, 21159.175, 39723.605, 19457.327, 20595.447, 19783.411, 29503.892, 19711.155, 19914.973, 30157.866, 30882.298, 29019.638, 30859.131, 29081.011],
  "Optimizer iterations": 92,
  "Qubits": 2,
  "Total Algorithm duration [s]": 4866.506,
  "Total Classic duration [s]": 4304.582242923737,
  "Total Quantum duration [s]": 561.9237570762634,
  "Expectation Value": -0.90625,
  "Optimal Expectation Value": -1.0,
  "Optimizer params": [0.9086358343050499, 0.34857466238246393, 0.9504328071149858, 0.7815431699017331, 0.9803221041838693, 0.18346049486991162],
  "QPU": "4020017",
  "Problem": "MCP",
  "Size": 2,
  "P": 3,
  "Shots": 4096
}