{
  "Depth": 14.0,
  "Job durations [ms]": [6052.649259567261, 6009.234428405762, 5974.797487258911, 6043.572902679443, 6000.633478164673, 6203.749895095825, 5989.060640335083, 6025.8684158325195, 6006.224870681763, 6036.992073059082, 6032.747745513916, 6411.162376403809, 6121.0596561431885, 6299.341440200806, 6352.210998535156, 6278.59091758728, 6096.687316894531, 6121.819734573364, 6039.976119995117, 6143.594741821289, 6008.6212158203125, 6088.077545166016, 6046.528339385986, 5986.258268356323, 6025.771856307983, 6026.923656463623, 6060.477733612061, 6301.500082015991, 6071.516752243042, 6531.996726989746, 6064.374208450317, 6103.620290756226, 6135.483026504517, 6021.578073501587, 6063.799858093262, 6067.784786224365, 6029.855012893677, 6132.911443710327, 6042.6390171051025, 6094.8450565338135, 6292.476177215576, 6098.820924758911, 6099.618911743164, 6275.564193725586, 6046.453237533569, 6249.055624008179, 6098.4392166137695, 6265.260457992554, 6002.1796226501465, 6007.567405700684, 6165.662050247192, 6080.502986907959, 6125.126361846924, 6129.6446323394775, 6086.916923522949, 6083.327531814575, 6121.671438217163, 6013.649225234985, 6019.335985183716, 6011.9054317474365, 5982.673168182373, 6000.238656997681, 5958.65535736084, 5971.646547317505, 6042.590618133545, 5974.508762359619, 6065.267086029053, 6018.133878707886, 6064.913511276245, 6105.293273925781, 7045.807838439941, 6516.036510467529, 5954.106569290161, 5982.7516078948975, 6079.934597015381, 6365.172624588013, 6197.450399398804, 6355.374097824097, 6462.379932403564, 6115.591287612915, 6276.694059371948],
  "Optimizer durations [ms]": [389956.233, 300297.931, 20221.648, 229551.165, 69582.181, 100529.457, 300986.794, 38367.084, 19929.821, 21407.816, 299292.549, 300609.981, 29783.397, 19536.44, 20277.51, 29566.503, 29426.055, 20794.393, 19635.59, 30974.718, 29035.038, 19942.889, 30885.79, 29207.908, 20679.021, 28777.213, 30394.308, 20309.204, 31121.393, 49460.472, 300156.021, 309419.468, 19821.928, 240460.078, 20097.764, 90535.052, 59756.828, 58997.956, 50427.119, 50202.467, 49718.932, 19795.213, 301034.285, 389372.999, 299489.315, 300892.969, 29115.818, 290026.597, 20935.54, 230476.847, 19465.478, 100605.147, 309153.407, 329263.305, 331525.823, 28838.973, 340955.897, 300149.645, 19232.506, 231044.05, 109567.471, 99431.269, 300667.089, 299435.315, 369952.685, 50568.789, 18732.792, 291214.718, 299613.287, 2321767.749, 29188.413, 300347.717, 259386.929, 100712.877, 299826.204, 300489.78, 299816.879, 300051.026, 2490711.815, 279207.836, 301219.533],
  "Optimizer iterations": 81,
  "Qubits": 2,
  "Total Algorithm duration [s]": 16843.418,
  "Total Classic duration [s]": 16347.465063827516,
  "Total Quantum duration [s]": 495.95293617248535,
  "Expectation Value": -0.915771484375,
  "Optimal Expectation Value": -1.0,
  "Optimizer params": [0.2893521728489941, 0.43461508455962855, 0.10093908686831315, 0.18647184069193323, 0.9989340661675472, 0.22929402000518162],
  "QPU": "4020017",
  "Problem": "MCP",
  "Size": 2,
  "P": 3,
  "Shots": 4096
}