{
  "Depth": 4.5,
  "Job durations [ms]": [41.141498601064086, 7.796499878168106, 7.764999754726887, 7.7454999554902315, 7.581500103697181, 7.80349993146956, 7.610500091686845, 7.658499991521239, 7.61099997907877, 7.542500039562583, 7.733499864116311, 7.883999962359667, 7.725000148639083, 7.734500104561448, 7.883000187575817, 7.574999937787652, 7.790999952703714, 7.783500012010336, 7.865499705076218, 7.695499807596207, 7.799999788403511, 7.719999877735972, 7.463499903678894, 7.669999962672591, 7.688499987125397, 7.717999862506986, 7.688999874517322, 7.622499950230122, 7.599000120535493, 7.725999923422933, 42.25850012153387, 7.887499872595072, 7.764999754726887, 7.780999876558781, 7.715000072494149, 7.749500218778849, 7.553499890491366, 7.515500066801906, 7.571499794721603, 7.7130000572651625, 7.645000005140901, 7.796499878168106],
  "Optimizer durations [ms]": [84.219, 17.448, 17.415, 17.128, 16.756, 17.152, 16.901, 16.919, 16.771, 16.585, 17.003, 17.295, 16.979, 17.031, 17.283, 16.714, 17.163, 17.111, 17.312, 16.938, 17.206, 16.983, 16.492, 17.056, 17.036, 17.203, 17.024, 16.809, 16.758, 17.002, 86.305, 17.663, 17.029, 17.21, 17.504, 17.02, 16.673, 16.574, 16.776, 17.031, 16.889, 17.036],
  "Optimizer iterations": 42,
  "Qubits": 1,
  "Total Algorithm duration [s]": 0.851,
  "Total Classic duration [s]": 0.45942550313100217,
  "Total Quantum duration [s]": 0.3915744968689978,
  "Expectation Value": -1.0,
  "Optimal Expectation Value": -1.0,
  "Optimizer params": [0.3242833860525137, 0.48449208430877583, 0.3228518861425545, 0.49868779174920413],
  "QPU": "9000001",
  "Problem": "IC",
  "Size": 1,
  "P": 0,
  "Shots": 4096
}