{
  "Circuit execution durations [ms]": [0.3056, 0.5715, 0.3117, 0.29300000000000004, 0.2926, 0.5984, 0.3411, 0.3121, 0.3642, 0.301, 0.3035, 0.2985, 0.3011, 0.3028, 0.3139, 0.29550000000000004, 0.3921, 0.3004, 0.2964, 0.30269999999999997, 0.5009, 0.3069, 0.3004, 0.29710000000000003, 0.3157, 0.5067, 0.3175, 0.38029999999999997, 0.39399999999999996, 0.3056, 0.3658, 0.30019999999999997, 0.4566, 0.3128, 0.29619999999999996, 0.2959, 0.305, 0.29779999999999995, 0.2972, 0.2953, 0.3153, 0.4867, 0.3424, 0.30160000000000003, 0.4138, 0.2988, 0.2965, 0.29750000000000004, 0.3142, 0.5008, 0.6066999999999999, 0.4199, 0.30029999999999996, 0.2989, 0.2993, 0.3009, 0.3139, 0.29550000000000004, 0.29540000000000005, 0.30660000000000004, 0.3049, 0.373, 0.2974, 0.2963, 0.29819999999999997, 0.2973, 0.2969, 0.2974, 0.2983, 0.2963, 0.2964, 0.2963, 0.3452, 0.35609999999999997, 0.2986, 0.3209, 0.2977, 0.3004, 0.29819999999999997, 0.2956, 0.2968, 0.4217, 0.3042],
  "Depth": 32.0,
  "Expectation Value": -2.0,
  "Optimal Expectation Value": -2.0,
  "Optimizer durations [ms]": [4.036, 6.075, 3.718, 3.383, 3.685, 6.33, 4.27, 3.834, 4.287, 3.522, 3.515, 3.481, 3.501, 3.531, 3.676, 3.445, 4.468, 3.469, 3.405, 3.473, 5.432, 3.76, 3.502, 3.447, 3.67, 5.176, 3.86, 4.465, 4.536, 3.619, 4.111, 3.43, 5.14, 3.639, 3.401, 3.442, 3.55, 3.472, 3.449, 3.446, 3.659, 5.261, 4.324, 3.517, 4.768, 3.436, 3.398, 3.42, 3.631, 5.155, 7.022, 4.778, 3.498, 3.472, 3.479, 3.435, 3.699, 3.449, 3.427, 3.644, 3.508, 4.17, 3.424, 3.4, 3.421, 3.394, 3.399, 3.4, 3.423, 3.397, 3.397, 3.378, 3.941, 4.08, 3.438, 3.68, 3.506, 3.479, 3.428, 3.379, 3.402, 4.947, 3.533],
  "Optimizer iterations": 83,
  "Optimizer params": [0.1741509850503077, 0.31217362966257495, 0.6269915025315753, 0.38348957319398197, 0.1470577604126531, 0.9650015224698736],
  "P": 3,
  "Problem": "MCP",
  "QJob durations [ms]": [0.3056, 0.5715, 0.3117, 0.29300000000000004, 0.2926, 0.5984, 0.3411, 0.3121, 0.3642, 0.301, 0.3035, 0.2985, 0.3011, 0.3028, 0.3139, 0.29550000000000004, 0.3921, 0.3004, 0.2964, 0.30269999999999997, 0.5009, 0.3069, 0.3004, 0.29710000000000003, 0.3157, 0.5067, 0.3175, 0.38029999999999997, 0.39399999999999996, 0.3056, 0.3658, 0.30019999999999997, 0.4566, 0.3128, 0.29619999999999996, 0.2959, 0.305, 0.29779999999999995, 0.2972, 0.2953, 0.3153, 0.4867, 0.3424, 0.30160000000000003, 0.4138, 0.2988, 0.2965, 0.29750000000000004, 0.3142, 0.5008, 0.6066999999999999, 0.4199, 0.30029999999999996, 0.2989, 0.2993, 0.3009, 0.3139, 0.29550000000000004, 0.29540000000000005, 0.30660000000000004, 0.3049, 0.373, 0.2974, 0.2963, 0.29819999999999997, 0.2973, 0.2969, 0.2974, 0.2983, 0.2963, 0.2964, 0.2963, 0.3452, 0.35609999999999997, 0.2986, 0.3209, 0.2977, 0.3004, 0.29819999999999997, 0.2956, 0.2968, 0.4217, 0.3042],
  "QPU": "7000000",
  "Qubits": 3,
  "Queue durations [ms]": [0.0, 0.0, 0.0, 0.0, 0.0, 0.0, 0.0, 0.0, 0.0, 0.0, 0.0, 0.0, 0.0, 0.0, 0.0, 0.0, 0.0, 0.0, 0.0, 0.0, 0.0, 0.0, 0.0, 0.0, 0.0, 0.0, 0.0, 0.0, 0.0, 0.0, 0.0, 0.0, 0.0, 0.0, 0.0, 0.0, 0.0, 0.0, 0.0, 0.0, 0.0, 0.0, 0.0, 0.0, 0.0, 0.0, 0.0, 0.0, 0.0, 0.0, 0.0, 0.0, 0.0, 0.0, 0.0, 0.0, 0.0, 0.0, 0.0, 0.0, 0.0, 0.0, 0.0, 0.0, 0.0, 0.0, 0.0, 0.0, 0.0, 0.0, 0.0, 0.0, 0.0, 0.0, 0.0, 0.0, 0.0, 0.0, 0.0, 0.0, 0.0, 0.0, 0.0],
  "Shots": 4096,
  "Size": 3,
  "Total Algorithm duration [s]": 0.32,
  "Total Classic duration [s]": 0.2921649,
  "Total Quantum duration [s]": 0.027835100000000005
}
