{
  "Depth": 572.0,
  "Expectation Value": -2.7953317165374756,
  "Job durations [ms]": [3.5538000000000003, 3.5885000000000002, 3.5408000000000004, 3.5683, 3.5395000000000003, 3.5166, 3.7036000000000002, 3.7242, 3.6895000000000002, 3.6322, 3.7773, 3.5702, 3.6105, 3.5370000000000004, 3.5218, 3.5886, 3.5116, 3.7122, 3.7008, 3.5856999999999997, 3.6928, 3.5903, 3.5409, 3.5848999999999998, 3.5479000000000003, 3.5351, 3.5644, 3.8872, 3.5893, 3.5631999999999997, 3.5745999999999998, 3.5842, 3.791, 3.5801000000000003, 3.5852000000000004, 3.5827, 3.622, 3.7279999999999998, 3.5643, 3.6275, 3.5913, 3.6254999999999997, 3.6776999999999997, 3.5463999999999998, 3.6059, 3.5475, 3.5392, 3.4972, 3.5578, 3.6001000000000003, 3.5875, 3.5346, 3.5850999999999997, 3.5739, 3.5438, 3.5113000000000003, 3.5761, 3.5149, 3.4876, 3.5223, 3.6234, 3.5769, 3.6266, 3.5392, 3.5406, 3.6059, 3.518, 3.5892, 3.5726999999999998, 3.535, 3.5439, 3.5660000000000003, 3.5791, 3.7284],
  "Optimal Expectation Value": -3.0,
  "Optimizer durations [ms]": [46.095, 46.562, 45.569, 46.094, 43.965, 45.63, 42.542, 42.803, 42.41, 46.531, 44.689, 46.015, 46.524, 45.863, 45.646, 46.118, 45.587, 42.686, 42.54, 46.171, 42.279, 46.052, 45.931, 46.347, 45.89, 45.694, 45.963, 44.396, 46.216, 46.045, 46.157, 46.144, 43.314, 46.282, 46.061, 46.028, 46.751, 42.608, 45.952, 46.641, 46.217, 46.77, 42.335, 45.586, 46.402, 45.821, 45.518, 45.394, 45.645, 46.296, 46.155, 45.705, 46.356, 45.99, 45.965, 45.519, 46.09, 45.373, 45.266, 45.42, 46.468, 46.085, 46.779, 45.645, 46.078, 46.448, 45.522, 46.233, 46.022, 45.524, 45.944, 45.972, 46.196, 42.834],
  "Optimizer iterations": 74,
  "Optimizer params": [0.24627989844452758, 0.6508101951547656, 0.05634031828231727, 0.9934459878464421, 0.998080548383993, 0.003864127134472692],
  "P": 3,
  "Problem": "MIS",
  "QPU": "7000000",
  "Qubits": 13,
  "Shots": 4096,
  "Size": 10,
  "Total Algorithm duration [s]": 3.366,
  "Total Classic duration [s]": 3.1001211,
  "Total Quantum duration [s]": 0.2658789
}
