{
  "Depth": 572.0,
  "Expectation Value": -2.747236490249634,
  "Job durations [ms]": [3.5641000000000003, 3.5591, 3.536, 3.5869, 3.5652, 3.5755, 3.597, 3.6691, 3.5569, 3.9816000000000003, 3.5515999999999996, 3.6158, 3.8861, 3.5258, 3.5637, 3.5752, 3.5490999999999997, 3.5456, 3.4968, 3.6614999999999998, 3.5805, 3.5514, 3.6573, 3.5346, 3.5942000000000003, 3.6107, 3.7024, 3.6253, 3.5507999999999997, 3.5326, 3.6096, 3.5692, 3.6033, 3.5636, 3.6199, 3.7664999999999997, 3.5251, 3.5732, 3.5616, 3.5598, 3.5222, 3.5820000000000003, 3.5692, 3.5945, 3.5913999999999997, 3.5913, 3.6242, 3.6247, 3.6081, 3.5751, 3.6229, 3.7053, 3.5545, 3.6140999999999996, 3.6084, 3.6136, 3.5863, 3.6062999999999996, 3.5385, 3.5817, 3.6383, 3.5742, 3.6215, 3.5326, 3.6712, 3.6917999999999997, 3.5733, 3.5878, 3.5726, 3.5237, 3.5562, 3.7116, 3.5647, 3.59, 3.5966, 3.5299, 3.5702, 3.5366, 3.6441999999999997, 3.5837, 3.5722, 3.4934, 3.5620000000000003, 3.6144, 3.5951999999999997, 3.5984, 3.7039, 3.6017, 3.5987, 3.5593999999999997, 3.5686, 3.6099, 3.5855, 3.6023, 3.5353, 3.5681, 3.5883, 3.5724, 3.563, 3.6971, 3.7680000000000002, 3.5589, 3.6062999999999996, 3.542, 3.6687, 3.518, 3.6196, 3.6019, 3.5693, 3.5765, 3.6752, 3.6017, 3.5965, 3.6828, 3.5951999999999997, 3.5655, 3.6513],
  "Optimal Expectation Value": -3.0,
  "Optimizer durations [ms]": [45.814, 45.948, 45.824, 46.082, 45.98, 46.169, 46.342, 47.095, 45.84, 41.272, 45.811, 46.497, 46.719, 45.632, 46.058, 46.163, 45.679, 45.605, 45.233, 42.261, 46.216, 45.826, 42.003, 45.792, 46.357, 46.486, 42.661, 46.429, 45.759, 45.406, 46.447, 46.12, 46.481, 45.751, 46.612, 43.247, 45.641, 46.043, 45.988, 45.819, 45.338, 46.196, 45.859, 46.234, 46.231, 45.979, 46.676, 46.477, 46.293, 45.981, 46.535, 42.626, 45.764, 46.535, 46.38, 46.443, 46.212, 46.125, 45.92, 46.221, 46.762, 46.052, 46.491, 45.535, 42.326, 42.185, 46.264, 41.4, 45.91, 45.533, 46.002, 47.494, 45.979, 46.212, 46.334, 45.434, 46.119, 45.912, 46.814, 46.191, 45.885, 45.507, 47.056, 46.486, 46.294, 46.12, 42.366, 46.234, 46.342, 45.933, 45.859, 46.423, 46.17, 46.538, 45.47, 46.172, 46.199, 46.048, 45.969, 42.434, 47.843, 46.01, 46.15, 45.755, 46.757, 45.309, 46.638, 46.387, 45.959, 46.213, 42.279, 46.29, 46.074, 47.129, 46.301, 45.741, 46.972],
  "Optimizer iterations": 117,
  "Optimizer params": [0.999820260978701, 0.2313337653138922, 1.115200425810205e-17, 0.9995094426749428, 0.3411786282234864, 0.9999999999999999],
  "P": 3,
  "Problem": "MIS",
  "QPU": "7000000",
  "Qubits": 13,
  "Shots": 4096,
  "Size": 10,
  "Total Algorithm duration [s]": 5.353,
  "Total Classic duration [s]": 4.9319736,
  "Total Quantum duration [s]": 0.42102639999999975
}
