{
  "Depth": 572.0,
  "Expectation Value": -2.788853406906128,
  "Job durations [ms]": [3.6917, 3.5547, 3.5777, 3.6951, 3.6873, 3.6311999999999998, 3.4886, 3.5675, 3.66, 3.8706, 3.7037, 3.7624, 3.7169999999999996, 3.5806, 3.5655, 3.5599999999999996, 3.5387999999999997, 3.6869, 3.6261, 3.5547999999999997, 3.6143, 3.5835, 3.533, 3.7092, 3.6622999999999997, 3.6673, 3.5769, 3.6088999999999998, 3.6035, 3.7263, 3.7785, 3.5766999999999998, 3.5646, 3.6981, 3.6955999999999998, 3.7234, 3.7024, 3.5039, 3.7098999999999998, 3.5997, 3.6866999999999996, 3.6849000000000003, 3.5753999999999997, 3.7179, 3.7385, 3.6772, 3.5012, 3.8013, 3.576, 3.5825, 3.6059, 3.5237, 3.5347999999999997, 3.6838, 3.7052, 3.6804, 3.5667, 3.7065, 3.5925000000000002, 3.7548999999999997, 3.6925, 3.577, 3.5859, 3.5894999999999997, 3.5587, 3.6671, 3.6134, 3.6027, 3.5331, 3.6986, 3.5225999999999997, 3.5639, 3.6725999999999996, 3.754, 3.5114, 3.5128999999999997, 3.8817, 3.5195, 3.6513999999999998, 3.5542, 3.5576000000000003, 3.73, 3.7235, 3.5252999999999997, 3.7315, 3.7369, 3.5634, 3.5714, 3.5959999999999996, 3.7106, 3.5153, 3.7262, 3.6119, 3.7365, 3.5473000000000003, 3.7226, 3.7404, 3.5698000000000003, 3.5395000000000003, 3.5623, 3.5718, 3.5728, 3.608, 3.5903, 3.7179, 3.5404, 3.597],
  "Optimal Expectation Value": -3.0,
  "Optimizer durations [ms]": [42.737, 45.967, 46.233, 42.479, 42.189, 46.85, 40.264, 46.112, 47.06, 44.299, 42.638, 43.227, 42.837, 46.026, 46.224, 46.105, 45.784, 42.382, 46.574, 45.866, 46.482, 46.246, 45.749, 42.702, 47.247, 45.04, 46.419, 46.612, 46.562, 43.022, 43.456, 46.228, 46.038, 42.607, 42.578, 42.885, 42.333, 45.312, 42.52, 46.25, 42.423, 42.281, 46.252, 42.805, 42.916, 42.094, 40.707, 43.661, 46.318, 46.432, 46.614, 45.483, 45.468, 42.557, 42.599, 42.195, 46.163, 42.438, 46.314, 43.261, 42.502, 46.108, 46.119, 46.364, 46.097, 42.365, 41.626, 41.526, 45.695, 42.308, 45.488, 46.011, 42.085, 43.201, 45.583, 45.581, 44.427, 45.667, 41.96, 46.176, 45.977, 42.923, 42.607, 45.538, 42.644, 43.021, 45.981, 45.986, 46.346, 42.74, 45.398, 42.894, 46.53, 43.119, 45.959, 43.942, 42.722, 46.154, 45.719, 46.016, 46.125, 45.888, 46.614, 46.071, 42.96, 45.826, 46.237],
  "Optimizer iterations": 107,
  "Optimizer params": [0.4300099989975313, 0.855331142971467, 0.995079428421989, 0.9949867579476384, 0.15260388049350124, 0.47829796112804945],
  "P": 3,
  "Problem": "MIS",
  "QPU": "7000000",
  "Qubits": 13,
  "Shots": 4096,
  "Size": 10,
  "Total Algorithm duration [s]": 4.766,
  "Total Classic duration [s]": 4.3773669,
  "Total Quantum duration [s]": 0.3886330999999998
}
