{
  "Depth": 572.0,
  "Expectation Value": -2.7452714443206787,
  "Job durations [ms]": [3.5867, 3.5677, 3.5603000000000002, 3.5912, 3.5772999999999997, 3.5505, 3.565, 3.5211, 3.5170000000000003, 3.4668, 3.5246, 3.5528, 3.5596, 3.5472, 3.6587, 3.5565, 3.5046, 3.5146, 3.5122, 3.4903999999999997, 3.5726, 3.6172, 3.5834, 3.5059, 3.5062, 3.5192, 3.5687, 3.7184000000000004, 3.5033999999999996, 3.5635, 3.5116, 3.5755, 3.5374999999999996, 3.599, 3.529, 3.63, 3.5087, 3.5734, 3.5867999999999998, 3.5029000000000003, 3.5447, 3.5751, 3.5477999999999996, 3.5174999999999996, 3.516, 3.4290000000000003, 3.5177, 3.5343, 3.6006, 3.7085999999999997, 3.4978000000000002, 3.5726, 3.6916, 3.5734, 3.5997, 3.5563000000000002, 3.5495, 3.5507, 3.6738999999999997, 3.5395000000000003, 3.6024999999999996, 3.5917000000000003, 3.5089, 3.4810000000000003, 3.4962, 3.453, 3.5178000000000003, 3.5176000000000003, 3.5421, 3.5265, 3.5105, 3.4754, 3.4742, 3.4412000000000003, 3.5764, 3.5337, 3.4664, 3.543, 3.5736000000000003, 3.354, 3.4912, 3.5215, 3.5444, 3.5711, 3.5402, 3.5102, 3.542, 3.4194999999999998, 3.4261999999999997, 3.581, 3.4186, 3.4501000000000004, 3.5493, 3.3625, 3.3883, 3.4978000000000002, 3.5010000000000003, 3.5057, 3.4485, 3.4363, 3.5308, 3.5005, 3.397, 3.4333, 3.3855, 3.4524, 3.4423, 3.7112, 3.423, 3.5067000000000004, 3.2216, 3.4966, 3.2551, 3.3351, 3.368, 3.5231, 3.5498000000000003, 3.4627, 3.4638999999999998, 3.4683, 3.4481, 3.5241000000000002],
  "Optimal Expectation Value": -3.0,
  "Optimizer durations [ms]": [46.176, 46.033, 45.84, 46.138, 46.201, 46.019, 46.129, 45.527, 45.482, 44.988, 45.498, 45.952, 45.759, 45.989, 42.07, 46.313, 45.372, 45.443, 45.517, 45.351, 46.067, 46.568, 46.18, 45.463, 45.353, 45.58, 46.038, 42.633, 45.377, 46.084, 45.539, 46.187, 45.599, 46.392, 45.717, 46.516, 45.653, 46.193, 46.29, 45.467, 45.963, 46.106, 45.769, 45.838, 45.561, 44.502, 45.385, 45.621, 46.375, 47.585, 45.266, 46.34, 42.251, 46.194, 46.196, 45.906, 45.94, 45.822, 42.052, 45.858, 46.206, 46.562, 45.514, 45.25, 45.531, 44.942, 45.705, 45.396, 45.966, 45.627, 45.631, 45.287, 45.279, 44.688, 45.942, 45.567, 45.127, 45.861, 45.998, 43.867, 45.59, 45.758, 45.589, 46.19, 45.873, 45.548, 45.749, 44.55, 44.937, 46.267, 44.757, 44.947, 45.891, 44.127, 44.312, 45.393, 45.558, 45.589, 44.962, 44.746, 45.58, 45.635, 44.459, 44.884, 44.167, 45.151, 44.674, 42.805, 44.699, 45.348, 43.104, 45.443, 42.695, 44.054, 43.914, 45.833, 40.934, 45.029, 44.976, 45.057, 44.927, 45.467],
  "Optimizer iterations": 122,
  "Optimizer params": [8.371418017463543e-06, 0.9760404229164124, 0.9999999999999999, 0.1421871229532533, 0.34816066654397454, 0.0004244725547929843],
  "P": 3,
  "Problem": "MIS",
  "QPU": "7000000",
  "Qubits": 13,
  "Shots": 4096,
  "Size": 10,
  "Total Algorithm duration [s]": 5.532,
  "Total Classic duration [s]": 5.1027758,
  "Total Quantum duration [s]": 0.42922420000000017
}
