{
  "Depth": 572.0,
  "Expectation Value": -2.845738172531128,
  "Job durations [ms]": [3.575, 3.5974000000000004, 3.7589, 3.5569, 3.5953, 3.5969, 3.5455, 3.6725, 3.6155, 3.5752, 3.6037, 3.5984, 3.5907999999999998, 3.5411, 3.7193, 3.5664, 3.6143, 3.5507999999999997, 3.5896, 3.7163999999999997, 3.5961000000000003, 3.8209, 3.6154, 3.6594, 3.7491, 3.7077999999999998, 3.5953999999999997, 3.7313, 3.5991999999999997, 3.5363, 3.5786, 3.7049000000000003, 3.59, 3.6033, 3.7282, 3.7266, 3.5611, 3.7561999999999998, 3.7342, 3.6288, 3.5959, 3.5393, 3.5631999999999997, 3.5463, 3.8945999999999996, 3.5883, 3.798, 3.709, 3.5255, 3.5791, 3.7178, 3.7126, 3.5403000000000002, 3.5972, 3.5734999999999997, 3.5991, 3.7265, 3.6124, 3.5863, 3.5752, 3.6045000000000003, 3.5736000000000003, 3.7026, 3.6064000000000003, 3.5756, 3.5539, 3.7651, 3.5376000000000003, 3.5991999999999997, 3.6142000000000003, 3.5365, 3.5693, 3.6647, 3.7272999999999996, 3.5683, 3.6510000000000002, 3.7309, 3.7716999999999996, 3.5971, 3.6334, 3.7245999999999997, 4.001, 3.7704, 3.7058, 3.5897, 3.7223, 3.529, 3.5796, 3.754, 3.5783, 3.595, 3.7483999999999997, 3.5804, 3.7111, 3.5399, 3.572, 3.5365, 3.5318, 3.7538, 3.5775, 3.5726999999999998, 3.5959, 3.6869, 3.5837999999999997, 3.6388000000000003, 3.5951, 3.5696, 3.6380000000000003, 3.5443, 3.741, 3.5256, 3.4739, 3.5292000000000003, 3.5347999999999997, 3.5672, 3.7683, 3.6020000000000003, 3.6786000000000003, 3.6075999999999997, 3.7407],
  "Optimal Expectation Value": -3.0,
  "Optimizer durations [ms]": [45.87, 46.405, 42.91, 46.05, 46.315, 46.193, 45.984, 42.223, 46.372, 46.234, 46.365, 46.294, 46.248, 45.911, 42.859, 46.123, 46.579, 45.962, 46.338, 42.492, 46.095, 43.572, 46.388, 47.335, 43.093, 42.718, 46.209, 42.663, 46.513, 45.691, 46.043, 42.688, 46.166, 46.332, 42.844, 42.872, 46.13, 43.235, 42.783, 46.852, 46.242, 45.583, 46.309, 45.977, 44.367, 46.29, 43.746, 42.707, 45.633, 45.996, 47.916, 42.751, 45.784, 46.386, 41.302, 46.157, 42.82, 46.467, 46.332, 46.051, 46.472, 46.182, 42.653, 46.221, 46.39, 41.069, 43.127, 45.805, 46.283, 46.647, 45.772, 46.206, 42.17, 42.672, 46.134, 41.914, 42.878, 43.242, 46.127, 46.891, 42.848, 45.323, 43.266, 42.678, 46.436, 42.737, 45.492, 46.34, 43.185, 45.964, 46.381, 42.941, 46.272, 42.826, 45.633, 46.136, 40.834, 45.735, 43.106, 46.15, 46.224, 46.16, 42.535, 46.202, 46.653, 46.394, 46.178, 46.856, 45.636, 42.889, 45.834, 45.317, 45.776, 45.694, 46.144, 43.328, 46.47, 47.056, 46.644, 43.058],
  "Optimizer iterations": 120,
  "Optimizer params": [0.9472235891596535, 0.6052046601182011, 0.6068844582902928, 0.2152040899178466, 0.6608289153278618, 0.6485985784467365],
  "P": 3,
  "Problem": "MIS",
  "QPU": "7000000",
  "Qubits": 13,
  "Shots": 4096,
  "Size": 10,
  "Total Algorithm duration [s]": 5.407,
  "Total Classic duration [s]": 4.9711392,
  "Total Quantum duration [s]": 0.43586080000000005
}
