{
  "Depth": 572.0,
  "Expectation Value": -2.7953317165374756,
  "Job durations [ms]": [3.5300000000000002, 3.5403000000000002, 3.5643, 3.5587, 3.5751, 3.5132000000000003, 3.6148000000000002, 3.5346, 3.558, 3.5328999999999997, 3.5308, 3.5127, 3.5839000000000003, 3.5808, 3.5571, 3.534, 3.5946, 3.5842, 3.5733, 3.5279000000000003, 3.5723000000000003, 3.5633000000000004, 3.5758, 3.5396, 3.5316, 3.5624, 3.5604, 3.5572, 3.5972, 3.4843, 3.5634, 3.5997999999999997, 3.5599999999999996, 3.6048, 3.5848999999999998, 3.5726, 3.5583, 3.628, 3.6759000000000004, 3.6409, 3.5801000000000003, 3.5455, 3.5189000000000004, 3.5747999999999998, 3.5991999999999997, 3.6346, 3.7081000000000004, 3.5734999999999997, 3.5393999999999997, 3.5351, 3.6096, 3.5660000000000003, 3.5308, 3.5435000000000003, 3.5967, 3.5322, 3.5848, 3.7237, 3.5277, 3.5609, 3.5925000000000002, 3.5921, 3.5328999999999997, 3.5368, 3.5732, 3.5114, 3.595, 3.548, 3.5874, 3.5598, 3.6207000000000003, 3.5327, 3.5636, 3.5681, 3.5846, 3.5202, 3.6671, 3.5006999999999997, 3.5119000000000002, 3.5898000000000003, 3.5481000000000003, 3.7593, 3.6886, 3.6277000000000004, 3.6908000000000003, 3.6888, 3.5154, 3.5249, 3.5808, 3.7201, 3.5863, 3.5966, 3.5606999999999998, 3.6541, 3.5338000000000003, 3.6181, 3.557, 3.689, 3.5509999999999997, 3.5807, 3.5892, 3.5745999999999998],
  "Optimal Expectation Value": -3.0,
  "Optimizer durations [ms]": [45.798, 45.587, 45.945, 45.821, 46.192, 45.485, 46.493, 45.81, 46.074, 45.652, 45.825, 45.36, 46.118, 46.068, 45.931, 45.745, 46.382, 46.285, 46.119, 45.513, 46.002, 45.832, 46.193, 45.859, 45.808, 45.74, 45.988, 46.067, 46.156, 45.31, 46.083, 46.422, 45.89, 46.18, 46.253, 45.953, 45.835, 46.756, 42.207, 41.773, 46.047, 45.654, 45.546, 46.166, 46.574, 46.801, 42.555, 46.16, 45.575, 45.747, 46.551, 46.106, 45.78, 45.755, 46.492, 45.608, 46.125, 47.891, 45.705, 46.102, 46.423, 46.284, 45.703, 45.604, 46.047, 45.581, 46.403, 45.984, 46.132, 46.093, 46.628, 45.79, 45.722, 46.187, 46.061, 45.786, 42.145, 45.118, 45.527, 46.079, 46.079, 42.942, 42.417, 46.583, 42.42, 42.532, 45.314, 45.54, 45.993, 42.674, 45.966, 46.322, 45.982, 42.111, 45.58, 46.926, 45.944, 47.381, 46.006, 46.179, 46.255, 46.139],
  "Optimizer iterations": 102,
  "Optimizer params": [0.27382766393724073, 0.9258764744254596, 0.9999997063826966, 0.9914672613539747, 0.05074655113894441, 0.07353048617828267],
  "P": 3,
  "Problem": "MIS",
  "QPU": "7000000",
  "Qubits": 13,
  "Shots": 4096,
  "Size": 10,
  "Total Algorithm duration [s]": 4.658,
  "Total Classic duration [s]": 4.2930569,
  "Total Quantum duration [s]": 0.3649431000000002
}
