{
  "Depth": 572.0,
  "Expectation Value": -2.7960689067840576,
  "Job durations [ms]": [3.5924, 3.6153, 3.6109, 3.5844, 3.5842, 3.6098, 3.5959999999999996, 3.5656, 3.6094999999999997, 3.6719, 3.5793, 3.561, 3.5577, 3.5856, 3.579, 3.6108, 3.6023, 3.5173, 3.5732, 3.5743, 3.5975, 3.6213, 3.646, 3.5968, 3.6065, 3.569, 3.6113, 3.5667, 3.6053, 3.5259, 3.5831, 3.6206, 3.6018, 3.5763000000000003, 3.5298, 3.6416999999999997, 3.5997999999999997, 3.6010999999999997, 3.5558, 3.5867999999999998, 3.6872, 3.6085000000000003, 3.7348, 3.5805, 3.6512, 3.6111, 3.5724, 3.5843, 3.6328, 3.7481, 3.6064000000000003, 3.5934999999999997, 3.6177, 3.5444, 3.6015, 3.5444, 3.6107, 3.6252, 3.6654999999999998, 3.5757, 3.749, 3.6736999999999997, 3.5976, 3.7012, 3.5972999999999997, 3.5934, 3.6004, 3.5818, 3.5755, 3.5932, 3.614, 3.7514, 3.5906000000000002, 3.732, 3.5322, 3.6754000000000002, 3.5982000000000003, 3.5585999999999998, 3.6148000000000002, 3.5114, 3.5363, 3.5281000000000002, 3.5904000000000003, 3.527, 3.5595000000000003, 3.7489, 3.5951, 3.6292, 3.6136, 3.5913, 3.6389],
  "Optimal Expectation Value": -3.0,
  "Optimizer durations [ms]": [46.326, 46.29, 46.497, 45.903, 46.126, 46.48, 46.543, 45.821, 46.529, 46.974, 46.281, 45.814, 45.934, 46.006, 46.48, 46.692, 46.256, 45.546, 46.136, 46.09, 46.485, 46.62, 46.653, 46.371, 46.548, 45.816, 46.469, 45.909, 46.37, 45.558, 46.199, 46.294, 46.419, 45.923, 45.724, 46.684, 46.177, 46.521, 45.872, 46.112, 42.398, 46.54, 43.087, 46.241, 46.846, 46.468, 46.165, 46.337, 46.711, 42.889, 46.398, 46.083, 46.653, 45.764, 46.293, 45.959, 46.494, 46.539, 47.06, 45.9, 43.226, 46.865, 46.168, 42.596, 46.363, 46.279, 46.156, 46.285, 45.897, 46.233, 46.193, 43.305, 46.205, 42.869, 45.399, 46.821, 46.416, 45.876, 46.283, 45.23, 45.789, 45.58, 46.207, 45.587, 45.756, 43.075, 46.475, 46.703, 46.541, 46.184, 46.699],
  "Optimizer iterations": 91,
  "Optimizer params": [0.2785982010635257, 0.9905876232528947, 0.03502130847606629, 0.9992801692531065, 1.0, 0.9999319925953255],
  "P": 3,
  "Problem": "MIS",
  "QPU": "7000000",
  "Qubits": 13,
  "Shots": 4096,
  "Size": 10,
  "Total Algorithm duration [s]": 4.181,
  "Total Classic duration [s]": 3.8529805,
  "Total Quantum duration [s]": 0.3280195
}
