{
  "Depth": 572.0,
  "Expectation Value": -2.757307767868042,
  "Job durations [ms]": [3.5978, 3.7145, 3.5521, 3.7047999999999996, 3.6448, 3.7686, 3.5962, 3.5798, 3.5657, 3.7331, 3.7168, 3.4800999999999997, 3.5421, 3.5799, 3.7091, 3.7672, 3.7042, 3.5650999999999997, 3.7336, 3.5739, 3.7231, 3.5364, 3.5301, 3.5869, 3.7793, 3.5148, 3.6177, 3.8804, 3.7911, 3.6897, 3.5318, 3.5452, 3.7687, 3.5918, 3.5817, 3.6270000000000002, 3.4964000000000004, 3.5518, 3.6307, 3.7529999999999997, 3.6619, 3.5523, 3.6013, 3.5629, 3.6767000000000003, 3.5374, 3.5562, 3.5274, 3.5694, 3.7126, 3.5, 3.5263999999999998, 3.7041, 3.5166, 3.9448, 3.6103, 3.7418, 3.5836, 3.5947999999999998, 3.6131, 3.5888, 3.7723, 3.5763000000000003, 3.6180000000000003, 3.7107, 3.5796, 3.5825, 3.7255000000000003, 3.5122, 3.5751, 3.5751, 3.5963000000000003, 3.5623, 3.749, 3.7326, 3.5561, 3.5677, 3.529, 3.6278, 3.7337, 3.6154, 3.6627, 3.5569, 3.6214, 3.5038, 3.6119, 3.5578, 3.6191, 3.5639, 3.7622, 3.7535, 3.6722, 3.5657, 3.6961, 3.9162, 3.8671, 3.6227, 3.6153],
  "Optimal Expectation Value": -3.0,
  "Optimizer durations [ms]": [46.452, 42.663, 45.74, 42.771, 47.007, 43.299, 46.368, 46.28, 46.104, 42.841, 42.673, 40.36, 45.837, 46.37, 42.453, 43.313, 42.66, 46.153, 42.869, 45.966, 42.789, 45.759, 45.452, 46.029, 43.377, 45.506, 46.648, 44.624, 43.579, 42.52, 45.782, 45.861, 43.18, 46.364, 45.948, 46.466, 40.589, 45.854, 46.689, 43.176, 42.243, 46.064, 46.362, 46.093, 42.399, 45.791, 45.888, 45.624, 46.107, 42.716, 45.525, 45.739, 43.319, 45.61, 45.109, 46.564, 42.871, 46.247, 46.406, 46.48, 46.197, 43.067, 46.258, 46.366, 42.863, 46.309, 46.179, 42.93, 45.351, 46.362, 46.297, 46.567, 46.075, 44.044, 42.828, 45.971, 46.096, 40.813, 46.708, 42.877, 46.573, 42.166, 46.004, 46.532, 45.587, 46.384, 46.235, 46.469, 46.066, 43.154, 43.056, 46.917, 45.806, 47.424, 44.728, 44.114, 46.515, 46.775],
  "Optimizer iterations": 98,
  "Optimizer params": [0.9864505229003964, 0.9915614066120224, 0.9781156690713398, 0.857373907512787, 0.7325311704576901, 0.38661253082944186],
  "P": 3,
  "Problem": "MIS",
  "QPU": "7000000",
  "Qubits": 13,
  "Shots": 4096,
  "Size": 10,
  "Total Algorithm duration [s]": 4.408,
  "Total Classic duration [s]": 4.051894900000001,
  "Total Quantum duration [s]": 0.3561050999999999
}
