{
  "Circuit execution durations [ms]": [926.4037609100342, 899.3260860443115, 913.3285284042358, 949.6327638626099, 870.0101375579834, 876.803994178772, 880.7797431945801, 899.3358612060547, 959.1213464736938, 883.2927942276001, 940.6970739364624, 898.6034393310547, 925.3968000411987, 961.2345695495605, 904.6331644058228, 877.5215148925781, 875.8819103240967, 882.1251392364502, 877.0570755004883, 914.0769243240356, 915.7288074493408, 889.4332647323608, 885.5547904968262, 888.1269693374634, 886.5833282470703, 892.2853469848633, 910.6831550598145, 883.1746578216553, 890.2537822723389, 884.3177556991577, 861.9059324264526, 888.6704444885254, 842.1874046325684, 905.1008224487305, 773.0400562286377, 916.9038534164429, 849.249005317688, 923.5213994979858, 811.6016387939453, 920.7173585891724, 835.9529972076416, 919.6581840515137, 940.1888847351074, 943.0220127105713, 896.354079246521, 900.9053707122803, 861.8594408035278, 900.7235765457153, 867.219090461731, 863.3801937103271, 905.2616357803345, 855.6531667709351, 916.8020486831665, 955.3846120834351, 860.0037097930908, 867.6962852478027, 856.0751676559448, 902.1847248077393, 894.7403430938721, 893.6934471130371, 870.0426816940308, 874.5325803756714, 836.0629081726074, 894.6701288223267, 951.372504234314, 884.0025663375854, 906.6622257232666, 897.0208168029785, 870.9977865219116, 906.7075252532959, 883.5978507995605, 903.7473201751709, 957.1375846862793, 992.4969673156738, 908.2813262939453, 886.088490486145, 899.9391794204712, 934.5376491546631, 894.1589593887329, 911.1377000808716, 860.5233430862427, 893.4952020645142, 911.0429286956787, 940.7016038894653, 869.1102266311646, 942.9035186767578, 1028.1838178634644, 913.8690233230591, 852.7311086654663, 816.2027597427368, 860.3676557540894, 939.8159980773926, 829.0588855743408, 916.4720773696899, 931.8927526473999, 906.8050384521484, 868.7299489974976, 882.6924562454224, 906.5674543380737, 948.9197731018066, 898.9942073822021, 898.1107473373413, 978.5293340682983, 997.3498582839966, 902.5125503540039, 916.4901971817017, 934.5701932907104, 920.7476377487183, 877.3729801177979, 916.4998531341553, 915.9761667251587, 881.3594579696655, 896.101713180542, 851.1571884155273, 932.1287870407104, 882.420539855957, 876.3079643249512, 900.6533622741699, 882.5041055679321, 891.1195993423462, 831.356406211853, 963.712215423584, 868.560791015625, 879.5088529586792, 896.7107534408569, 875.2541542053223, 883.7606906890869, 934.958815574646, 971.1923599243164, 862.7820014953613, 890.8714056015015, 880.0443410873413, 906.9782495498657, 930.56321144104, 931.2616586685181, 915.292501449585, 943.3567523956299, 937.1511936187744, 902.8447866439819, 886.8168592453003, 895.8059549331665, 908.6744785308838, 968.2700634002686, 939.6500587463379, 893.0284976959229, 1004.8055648803711, 994.011640548706, 933.3781003952026, 930.3940534591675, 891.1030292510986, 965.873122215271, 895.0890302658081, 909.5442295074463, 890.276312828064, 948.9016532897949, 922.7668046951294, 936.3613128662109, 926.45263671875, 902.9043912887573, 937.2270107269287, 968.9080715179443, 893.6694860458374, 888.1804943084717, 963.1979465484619, 907.4525833129883, 920.5019474029541, 928.5131692886353, 949.228048324585, 882.0281028747559, 923.5503673553467, 939.2306804656982],
  "Depth": 2.0,
  "Expectation Value": -5.500964641571045,
  "Optimal Expectation Value": -5.571199893951416,
  "Optimizer durations [ms]": [3206.667, 3095.925, 3079.498, 3189.551, 3053.013, 3063.994, 3044.721, 3134.917, 3318.442, 3103.163, 3197.627, 3085.241, 3250.489, 3312.893, 3169.284, 3060.691, 3032.524, 3115.616, 3033.383, 3132.449, 3167.361, 3156.58, 3118.055, 3022.879, 3102.237, 3098.196, 3139.052, 3038.672, 3067.243, 3024.991, 2984.447, 3060.121, 3018.257, 3116.117, 2884.973, 3192.359, 2967.3, 3144.346, 2953.277, 3194.349, 2919.772, 3198.352, 3318.995, 3176.887, 3043.93, 3184.546, 3009.517, 3031.836, 2999.79, 2985.222, 3182.322, 2972.499, 3136.403, 3216.402, 3078.571, 3018.738, 2998.815, 3059.343, 3132.129, 3100.636, 2974.86, 3035.921, 2984.287, 3067.895, 3164.448, 3150.943, 3099.93, 3096.346, 3004.035, 3088.211, 3059.551, 3112.998, 3198.172, 3361.944, 3073.631, 3020.299, 3113.718, 3172.522, 3037.833, 3173.612, 3040.396, 3113.081, 3115.394, 3263.254, 3080.319, 3175.333, 3441.646, 3234.629, 2952.776, 2872.571, 3075.711, 3168.21, 2920.124, 3162.26, 3209.725, 3103.612, 3042.884, 3003.604, 3113.839, 3176.602, 3165.749, 3176.766, 3311.295, 3368.65, 3188.973, 3216.157, 3171.166, 3159.366, 3003.333, 3142.333, 3105.976, 3045.459, 3197.301, 3050.932, 3226.606, 3009.185, 3010.361, 3100.659, 3049.464, 3153.755, 2989.205, 3313.054, 3099.883, 3083.589, 3082.686, 3062.88, 3015.71, 3171.104, 3290.151, 3028.215, 3084.557, 3015.835, 3100.26, 3201.253, 3192.282, 3102.071, 3187.468, 3255.733, 3051.704, 3058.639, 3062.808, 3179.664, 3259.205, 3176.481, 3115.614, 3282.97, 3386.771, 3224.919, 3176.58, 3045.812, 3283.853, 3042.425, 3073.923, 3057.299, 3154.916, 3113.046, 3180.626, 3244.406, 3321.573, 3107.207, 3220.144, 3132.779, 3023.893, 3212.193, 3127.428, 3121.068, 3186.655, 3200.079, 3022.869, 3115.795, 3246.768],
  "Optimizer iterations": 171,
  "Optimizer params": [0.9938014039543744, 0.4967609061408106, 0.0031909075841298523, 0.5102618807473852, 0.5090309608987579, 0.0008496000042034253, 0.5004134040308768, 0.3995871370449561, 0.9976781393130842],
  "P": 0,
  "Problem": "RH",
  "QJob durations [ms]": [1575.7176876068115, 1520.248532295227, 1512.6690864562988, 1567.484974861145, 1498.36266040802, 1504.3197870254517, 1488.0883693695068, 1537.7439260482788, 1631.7391395568848, 1522.466540336609, 1566.4288997650146, 1513.4488344192505, 1597.2702503204346, 1626.2651681900024, 1555.818796157837, 1503.1299591064453, 1488.5677099227905, 1529.8984050750732, 1478.7625074386597, 1538.018822669983, 1556.050419807434, 1550.9958267211914, 1530.1140546798706, 1482.242465019226, 1522.6194858551025, 1518.8853740692139, 1541.496992111206, 1491.3734197616577, 1505.1805973052979, 1484.2166900634766, 1464.7446870803833, 1498.948335647583, 1480.112075805664, 1529.2638540267944, 1413.3427143096924, 1566.6409730911255, 1455.6671380996704, 1544.524073600769, 1445.4431533813477, 1570.0472593307495, 1432.178020477295, 1558.8091611862183, 1629.2527914047241, 1535.660743713379, 1494.4835901260376, 1564.7163391113281, 1476.9964218139648, 1488.9148473739624, 1472.8474617004395, 1463.2914066314697, 1555.6401014328003, 1457.9883813858032, 1535.6481075286865, 1580.5144309997559, 1494.3033456802368, 1477.2011041641235, 1472.0039367675781, 1502.2729635238647, 1537.8910303115845, 1522.4792957305908, 1460.2656364440918, 1489.8887872695923, 1464.4675254821777, 1506.493330001831, 1553.486943244934, 1547.4339723587036, 1520.3006267547607, 1520.8392143249512, 1474.4411706924438, 1517.0091390609741, 1501.7330646514893, 1510.958194732666, 1570.3673362731934, 1653.4918546676636, 1507.5576305389404, 1481.7605018615723, 1529.470443725586, 1557.4493408203125, 1488.3975982666016, 1558.8878393173218, 1492.0727014541626, 1528.451681137085, 1528.7052392959595, 1604.275107383728, 1512.1407508850098, 1557.6478242874146, 1692.0862197875977, 1589.9748802185059, 1448.668122291565, 1406.1939716339111, 1510.0796222686768, 1553.8963079452515, 1429.9684762954712, 1553.906798362732, 1576.7258405685425, 1524.1342782974243, 1493.8002824783325, 1474.8648405075073, 1527.9219150543213, 1560.0634813308716, 1538.0303859710693, 1561.3187551498413, 1625.6853342056274, 1647.638440132141, 1565.8437013626099, 1578.8109302520752, 1557.7538013458252, 1551.1826276779175, 1474.3866920471191, 1542.7496433258057, 1515.3816938400269, 1495.846152305603, 1570.2165365219116, 1496.913194656372, 1585.6176614761353, 1476.3597249984741, 1478.1930446624756, 1517.6234245300293, 1481.4510345458984, 1546.4489459991455, 1466.869831085205, 1627.9197931289673, 1517.4168348312378, 1507.6243877410889, 1514.4777297973633, 1502.0524263381958, 1479.811668395996, 1557.368278503418, 1599.453330039978, 1470.1484441757202, 1511.8000507354736, 1475.591778755188, 1522.1853256225586, 1572.4773406982422, 1568.26913356781, 1523.9441394805908, 1566.3952827453613, 1599.7906923294067, 1497.6816177368164, 1500.4204511642456, 1503.7685632705688, 1562.4243021011353, 1599.1419553756714, 1558.9817762374878, 1529.5124053955078, 1613.7573719024658, 1649.1219997406006, 1582.8702449798584, 1558.4357976913452, 1491.9894933700562, 1614.0466928482056, 1491.4385080337524, 1508.7707042694092, 1500.6567239761353, 1539.3905639648438, 1526.4829397201538, 1560.5204105377197, 1593.2034254074097, 1633.0500841140747, 1523.7476825714111, 1580.18159866333, 1538.1324291229248, 1483.358383178711, 1574.2939710617065, 1536.121129989624, 1530.4423570632935, 1565.3870105743408, 1572.3291635513306, 1484.3722581863403, 1527.0377397537231, 1595.2469110488892],
  "QPU": "6010030",
  "Qubits": 9,
  "Shots": 4096,
  "Size": 9,
  "Total Algorithm duration [s]": 533.492,
  "Total Classic duration [s]": 271.83290352058407,
  "Total Quantum duration [s]": 261.6590964794159
}
