{
  "Circuit execution durations [ms]": [924.9731302261353, 931.6409826278687, 950.1852989196777, 884.5745325088501, 893.5524225234985, 920.4236268997192, 900.2758264541626, 896.721601486206, 873.7798929214478, 948.7353563308716, 894.8395252227783, 929.6624660491943, 934.9799156188965, 902.9183387756348, 892.3929929733276, 841.1316871643066, 830.957293510437, 837.3194932937622, 907.310962677002, 845.5256223678589, 935.936450958252, 868.2316541671753, 883.919358253479, 873.2854127883911, 836.3487720489502, 901.2504816055298, 856.1092615127563, 949.5134353637695, 854.2541265487671, 921.0574626922607, 910.5119705200195, 914.9765968322754, 858.2829236984253, 886.9916200637817, 978.6401987075806, 917.662501335144, 873.672366142273, 877.9259920120239, 930.3725957870483, 874.1962909698486, 879.3246746063232, 855.2706241607666, 960.2409601211548, 904.9698114395142, 838.5287523269653, 914.2991304397583, 874.6334314346313, 971.0215330123901, 852.6002168655396, 862.9523515701294, 878.7992000579834, 947.6925134658813, 901.4898538589478, 902.7140140533447, 913.9615297317505, 894.444465637207, 881.8858861923218, 898.507833480835, 895.19202709198, 929.1059970855713, 940.8743381500244, 1014.8755311965942, 958.6347341537476, 888.9138698577881, 925.3530502319336, 895.3479528427124, 900.1942873001099, 924.6547222137451, 876.9272565841675, 892.4195766448975, 889.9703025817871, 884.4702243804932, 923.4511852264404, 927.4411201477051, 926.7737865447998, 902.1551609039307, 880.7016611099243, 929.9525022506714, 894.6394920349121, 915.2947664260864, 880.6335926055908, 902.4006128311157, 891.3754224777222, 894.0194845199585, 854.141354560852, 824.3764638900757, 905.5618047714233, 865.4230833053589, 903.9351940155029, 931.9909811019897, 958.4373235702515, 1003.6814212799072, 872.0443248748779, 935.9118938446045, 906.3055515289307, 868.2651519775391, 864.3255233764648, 910.9663963317871, 907.8972339630127, 926.0146617889404, 911.3271236419678, 922.539234161377, 891.1173343658447, 917.6833629608154, 855.6901216506958, 897.6956605911255, 927.3761510848999, 985.5365753173828, 909.5966815948486, 938.1901025772095, 955.4356336593628, 919.553279876709, 898.2833623886108, 895.6669569015503, 871.7496395111084, 903.9802551269531, 897.4207639694214, 921.3563203811646, 1012.5538110733032, 937.1658563613892, 892.8241729736328, 919.8633432388306, 901.3853073120117, 904.9705266952515, 912.9645824432373, 892.0269012451172, 943.2963132858276, 868.1614398956299, 930.6511878967285, 901.1949300765991, 926.306962966919, 938.5004043579102, 956.2734365463257, 899.1109132766724, 886.893630027771],
  "Depth": 2.0,
  "Expectation Value": -4.188168525695801,
  "Optimal Expectation Value": -5.571199893951416,
  "Optimizer durations [ms]": [3210.669, 3194.77, 3226.884, 3054.517, 3114.262, 3133.245, 3144.69, 3159.953, 2999.909, 3279.998, 3187.792, 3243.345, 3188.703, 3101.618, 3095.523, 3036.839, 2917.131, 3030.669, 3101.885, 3031.607, 3119.492, 2987.515, 3100.05, 3054.712, 3115.791, 3210.619, 2974.408, 3315.954, 3063.552, 3150.925, 3187.632, 3185.337, 3111.232, 3203.145, 3245.231, 3248.589, 3040.503, 3096.279, 3150.595, 3013.273, 3090.491, 3105.735, 3183.828, 3178.298, 2927.64, 3108.542, 3106.916, 3320.766, 3035.614, 3085.649, 3001.821, 3176.375, 3105.426, 3207.649, 3286.84, 3044.385, 3040.297, 3112.741, 3060.783, 3181.208, 3199.504, 3288.571, 3261.327, 3069.067, 3167.249, 3073.355, 3087.111, 3183.397, 3036.824, 3124.041, 3096.996, 3017.626, 3201.268, 3204.148, 3126.734, 3137.943, 3107.223, 3157.268, 3039.061, 3150.584, 3047.923, 3069.312, 3064.83, 3107.763, 3035.734, 2948.267, 3135.63, 2995.034, 3183.988, 3253.602, 3343.932, 3310.587, 3008.025, 3141.112, 3182.454, 3053.958, 3001.713, 3208.048, 3120.582, 3200.707, 3073.115, 3081.51, 3081.776, 3085.762, 3001.834, 3202.622, 3277.364, 3310.544, 3157.962, 3110.115, 3315.662, 3225.185, 3077.196, 3109.098, 3044.747, 3160.052, 3091.507, 3106.688, 3379.312, 3195.228, 3078.367, 3178.208, 3075.341, 3099.267, 3123.886, 3198.433, 3146.673, 3043.972, 3169.347, 3181.934, 3224.487, 3129.995, 3202.508, 3126.282, 3048.255],
  "Optimizer iterations": 135,
  "Optimizer params": [0.9987956786501133, 0.492689508682688, 0.028184952421984284, 0.49359776932653826, 0.49889941516810027, 0.00039968702512445, 0.9886752495071666, 0.4962157884260589, 0.9927920524294919],
  "P": 0,
  "Problem": "RH",
  "QJob durations [ms]": [1572.2718238830566, 1564.6547079086304, 1582.6430320739746, 1495.177149772644, 1521.3329792022705, 1533.3878993988037, 1539.7698879241943, 1548.3620166778564, 1469.6210622787476, 1609.0881824493408, 1563.9920234680176, 1590.4202461242676, 1564.094066619873, 1520.3660726547241, 1515.5996084213257, 1469.9069261550903, 1425.4157543182373, 1479.3243408203125, 1519.7124481201172, 1485.9806299209595, 1529.713749885559, 1463.591456413269, 1519.5778608322144, 1495.1907396316528, 1527.3696184158325, 1574.8108625411987, 1455.6074142456055, 1625.119924545288, 1487.9463911056519, 1527.603030204773, 1564.0612840652466, 1562.1644258499146, 1522.8325128555298, 1569.8907375335693, 1592.7127599716187, 1592.934012413025, 1488.9920949935913, 1507.6061487197876, 1545.6132888793945, 1475.8766889572144, 1511.4816427230835, 1522.7352380752563, 1559.7237348556519, 1558.6696863174438, 1433.6296319961548, 1522.4041938781738, 1516.4824724197388, 1630.06591796875, 1486.0891103744507, 1512.2792720794678, 1471.3923931121826, 1558.6518049240112, 1519.966721534729, 1569.6969032287598, 1611.8731498718262, 1492.4683570861816, 1490.3476238250732, 1526.3787508010864, 1498.2880353927612, 1552.7454614639282, 1567.9103136062622, 1612.0645999908447, 1591.2320613861084, 1503.9020776748657, 1552.9965162277222, 1505.0983428955078, 1511.7121934890747, 1561.6692304611206, 1488.3822202682495, 1528.0059576034546, 1504.1154623031616, 1478.3740043640137, 1551.6505241394043, 1570.8619356155396, 1533.2398414611816, 1538.130283355713, 1523.0443477630615, 1546.9322204589844, 1487.125277519226, 1544.2510843276978, 1492.5620555877686, 1501.960277557373, 1499.0439414978027, 1522.2985744476318, 1486.0780239105225, 1439.8773908615112, 1535.5515480041504, 1467.031478881836, 1554.3973445892334, 1593.0873155593872, 1638.8483047485352, 1615.0623559951782, 1474.22194480896, 1537.044644355774, 1557.6419830322266, 1496.7888593673706, 1465.9124612808228, 1572.8706121444702, 1529.868483543396, 1555.3632974624634, 1504.2929649353027, 1510.5962753295898, 1507.7457427978516, 1512.5083923339844, 1468.4662818908691, 1566.1437511444092, 1607.6178550720215, 1620.3391551971436, 1547.9649305343628, 1524.8452425003052, 1625.647783279419, 1567.5588846206665, 1506.1544179916382, 1520.5763578414917, 1487.7992868423462, 1548.5081672668457, 1515.8181190490723, 1522.2458839416504, 1658.5720777511597, 1566.4700269699097, 1508.2151889801025, 1558.12406539917, 1506.8247318267822, 1518.4608697891235, 1531.1788320541382, 1568.9295530319214, 1541.8400764465332, 1489.021897315979, 1551.450252532959, 1560.9983205795288, 1581.5421342849731, 1532.3866605758667, 1570.5233812332153, 1531.5861701965332, 1493.0758476257324],
  "QPU": "6010030",
  "Qubits": 9,
  "Shots": 4096,
  "Size": 9,
  "Total Algorithm duration [s]": 422.646,
  "Total Classic duration [s]": 215.73005506610872,
  "Total Quantum duration [s]": 206.9159449338913
}
