{
  "Circuit execution durations [ms]": [910.7745885848999, 902.1178483963013, 894.2710161209106, 931.6979646682739, 981.4324378967285, 915.3162240982056, 893.5489654541016, 886.9383335113525, 921.4391708374023, 898.5105752944946, 913.9621257781982, 913.8643741607666, 912.3798608779907, 886.7424726486206, 919.7877645492554, 987.4254465103149, 898.5044956207275, 920.5137491226196, 908.139705657959, 918.0241823196411, 920.0949668884277, 905.8767557144165, 923.2722520828247, 937.4170303344727, 948.2241868972778, 921.2809801101685, 973.6297130584717, 872.976541519165, 913.6327505111694, 899.060845375061, 969.9023962020874, 922.7902889251709, 896.8466520309448, 903.5226106643677, 896.721363067627, 934.5570802688599, 898.1121778488159, 877.0241737365723, 984.6209287643433, 895.0040340423584, 891.8212652206421, 874.3925094604492, 879.1811466217041, 902.0253419876099, 894.9366807937622, 952.5142908096313, 914.9994850158691, 911.7028713226318, 969.178318977356, 942.7608251571655, 916.5414571762085, 879.5195817947388, 881.9528818130493, 898.8505601882935, 892.6559686660767, 875.4103183746338, 860.9044551849365, 935.4363679885864, 848.6247062683105, 875.206708908081, 903.8105010986328, 923.0124950408936, 1000.3269910812378, 879.4177770614624, 876.2925863265991, 928.502082824707, 925.6879091262817, 864.7525310516357, 950.93834400177, 826.9679546356201, 921.6262102127075, 904.6056270599365, 968.3729410171509, 913.9881134033203, 868.8746690750122, 904.9324989318848, 930.6399822235107, 954.7470808029175, 908.2895517349243, 923.4524965286255, 924.3185520172119, 951.5066146850586, 905.2201509475708, 969.9094295501709, 908.2620143890381, 983.7642908096313, 917.1644449234009, 901.0378122329712, 884.1630220413208, 900.9089469909668, 939.5450353622437, 903.6335945129395, 915.3443574905396, 943.1802034378052, 885.7800960540771, 929.8272132873535, 969.8102474212646, 907.6129198074341, 917.2730445861816, 872.1716403961182, 891.6759490966797, 878.0862092971802, 917.8789854049683, 926.7938137054443, 887.4466419219971, 964.1819000244141, 897.8097438812256, 979.5833826065063, 1017.3277854919434, 900.9647369384766, 950.0070810317993, 874.4552135467529, 941.9577121734619, 861.7019653320313, 887.5732421875, 904.1900634765625, 935.2916479110718, 893.0068016052246, 933.7265491485596, 969.9223041534424, 933.0954551696777, 897.4727392196655, 887.6737356185913, 914.3054485321045, 907.8322649002075, 868.1323528289795, 927.4578094482422, 873.7779855728149, 961.2261056900024, 908.5227251052856, 905.0496816635132, 1003.6098957061768, 938.4410381317139, 892.6438093185425, 898.2280492782593, 860.4968786239624, 871.0334300994873, 989.567756652832, 918.400764465332, 937.70432472229, 930.243730545044, 887.9721164703369, 911.2493991851807, 963.5516405105591, 894.7281837463379, 865.962028503418, 902.857780456543, 903.2876491546631, 868.2332038879395, 874.7291564941406, 923.1477975845337, 888.7325525283813, 860.5561256408691, 875.9191036224365, 882.0275068283081, 895.8348035812378, 938.7446641921997, 978.0130386352539, 965.4889106750488, 929.1073083877563],
  "Depth": 2.0,
  "Expectation Value": -5.512909889221191,
  "Optimal Expectation Value": -5.571199893951416,
  "Optimizer durations [ms]": [3224.676, 3060.721, 3165.201, 3264.42, 3289.59, 3206.011, 3184.946, 3160.549, 3217.982, 3103.897, 3094.416, 3171.224, 3107.021, 3181.594, 3142.667, 3336.704, 3187.295, 3103.731, 3109.696, 3096.617, 3153.492, 3157.309, 3086.944, 3161.54, 3150.253, 3188.993, 3266.237, 3069.959, 3118.526, 3141.377, 3342.775, 3168.136, 3091.915, 3157.344, 3232.919, 3133.328, 3085.628, 3019.205, 3329.412, 3068.304, 3116.555, 3181.172, 3002.791, 3093.836, 3018.38, 3225.179, 3195.936, 3059.624, 3341.792, 3130.717, 3192.042, 3049.037, 3003.305, 3060.793, 3179.461, 3083.625, 2981.647, 3216.546, 2962.073, 3073.023, 3128.896, 3111.634, 3284.105, 3151.498, 3011.656, 3164.054, 3152.941, 3051.649, 3188.977, 2924.324, 3145.03, 3071.027, 3311.423, 3214.528, 3039.264, 3175.412, 3207.98, 3161.941, 3162.078, 3287.388, 3180.989, 3185.404, 3086.301, 3223.171, 3255.836, 3278.72, 3162.03, 3104.821, 3016.179, 3034.984, 3191.361, 3151.183, 3213.486, 3135.863, 3166.969, 3170.037, 3180.029, 3067.633, 3211.926, 3111.399, 3124.011, 3018.995, 3087.806, 3306.7, 3103.625, 3166.794, 3131.431, 3204.527, 3431.457, 3100.589, 3194.83, 3056.223, 3217.767, 3027.475, 3048.679, 3222.337, 3168.12, 3156.689, 3132.265, 3292.052, 3250.817, 3163.399, 3157.446, 3123.94, 3059.992, 2996.924, 3143.01, 3033.41, 3238.882, 3093.571, 3132.767, 3409.885, 3204.716, 3134.898, 3060.513, 2955.524, 3058.787, 3240.833, 3099.296, 3325.116, 3159.626, 3156.461, 3178.075, 3188.138, 3066.295, 2978.422, 3208.645, 3135.699, 3020.435, 3002.573, 3213.441, 3072.799, 2964.97, 3143.69, 3046.29, 3082.283, 3356.044, 3282.359, 3249.795, 3173.691],
  "Optimizer iterations": 160,
  "Optimizer params": [0.9771174858388644, 0.5009861534744673, 0.9999875778298278, 0.5063820948435201, 0.47849735597674764, 0.004556694967356927, 0.44969729031220934, 0.4892987206336404, 0.027603489759161298],
  "P": 0,
  "Problem": "RH",
  "QJob durations [ms]": [1583.2058191299438, 1501.8573999404907, 1554.7112226486206, 1603.6368608474731, 1616.6828870773315, 1575.6287574768066, 1563.3978843688965, 1548.3676195144653, 1577.7326822280884, 1524.8953104019165, 1519.1961526870728, 1558.0289363861084, 1523.7396955490112, 1561.9103908538818, 1543.1560277938843, 1636.1078023910522, 1563.6529922485352, 1522.9970216751099, 1527.1042585372925, 1520.0865268707275, 1549.4866371154785, 1549.849510192871, 1516.0679817199707, 1552.3988008499146, 1546.889305114746, 1565.883994102478, 1600.2471446990967, 1507.3130130767822, 1531.8236351013184, 1542.8088903427124, 1643.9459323883057, 1556.593418121338, 1518.0119276046753, 1550.463080406189, 1589.1469717025757, 1537.1664762496948, 1514.9182081222534, 1480.7512760162354, 1637.5596523284912, 1506.606101989746, 1530.3770303726196, 1560.9939098358154, 1466.9197797775269, 1508.32998752594, 1481.137990951538, 1585.2406024932861, 1567.9633617401123, 1500.8940696716309, 1643.0779695510864, 1537.1756553649902, 1567.5196647644043, 1495.6836700439453, 1473.268747329712, 1502.4768114089966, 1562.4094009399414, 1514.6253108978271, 1461.6681337356567, 1579.954981803894, 1452.721118927002, 1508.553147315979, 1534.757375717163, 1527.2101163864136, 1613.452434539795, 1533.4924459457397, 1465.9817218780518, 1552.4826049804688, 1547.3146438598633, 1497.7736473083496, 1566.868543624878, 1430.7341575622559, 1544.459581375122, 1507.89475440979, 1626.8184185028076, 1577.4123668670654, 1475.4644632339478, 1560.1555109024048, 1576.4294862747192, 1551.943063735962, 1551.3238906860352, 1611.5344762802124, 1563.0136728286743, 1562.8242492675781, 1515.4286623001099, 1583.1607580184937, 1598.8715887069702, 1608.5271835327148, 1553.356409072876, 1522.709608078003, 1479.4193506240845, 1490.0121688842773, 1568.1196451187134, 1533.2025289535522, 1577.4143934249878, 1540.1184558868408, 1555.9155941009521, 1556.593656539917, 1562.7628564834595, 1503.4438371658325, 1578.0746936798096, 1528.6222696304321, 1535.0295305252075, 1478.5888195037842, 1513.2635831832886, 1622.464656829834, 1524.4724750518799, 1556.5096139907837, 1538.4790897369385, 1573.2421875, 1680.3622245788574, 1520.391583442688, 1563.6308193206787, 1497.944951057434, 1581.849217414856, 1486.6113662719727, 1496.6429471969604, 1581.104040145874, 1549.007773399353, 1550.9694814682007, 1538.0719900131226, 1617.691159248352, 1597.8413820266724, 1552.6150465011597, 1551.0371923446655, 1534.8823070526123, 1501.6412734985352, 1470.9638357162476, 1544.1211462020874, 1488.8489246368408, 1588.4052515029907, 1517.906665802002, 1537.9722118377686, 1677.5593757629395, 1571.9386339187622, 1539.5861864089966, 1501.8962621688843, 1450.143575668335, 1499.6564388275146, 1593.5770273208618, 1521.6845273971558, 1635.2174282073975, 1550.5101680755615, 1543.4719324111938, 1560.6220960617065, 1564.0063285827637, 1505.3809881210327, 1459.732174873352, 1568.6604976654053, 1538.3501052856445, 1483.0994606018066, 1472.8519916534424, 1576.2678384780884, 1507.5531005859375, 1455.0312757492065, 1543.5123443603516, 1493.4619665145874, 1512.2044086456299, 1649.3209600448608, 1612.008810043335, 1596.6508388519287, 1555.3244352340698],
  "QPU": "6010030",
  "Qubits": 9,
  "Shots": 4096,
  "Size": 9,
  "Total Algorithm duration [s]": 503.53,
  "Total Classic duration [s]": 256.43804123878476,
  "Total Quantum duration [s]": 247.0919587612152
}
