{
  "Circuit execution durations [ms]": [2.6005, 2.4666, 2.4835, 2.4732, 2.4991000000000003, 2.5064, 2.4978000000000002, 2.5031, 2.5035000000000003, 2.4779, 2.4838999999999998, 2.4979, 2.4971, 2.6177, 2.5113000000000003, 2.4883, 2.4941, 2.4987, 2.5333, 2.4972000000000003, 2.4979, 2.4791000000000003, 2.4799, 2.4825, 2.5423, 2.5484, 2.503, 2.5094000000000003, 2.5503, 2.5987, 2.7914, 2.5525, 2.5149999999999997, 2.5067000000000004, 2.4983, 2.4783, 2.4926000000000004, 2.4871, 2.4681, 2.4556, 2.5221, 2.524, 2.507, 2.5054000000000003, 2.5046999999999997, 2.469, 2.5298, 2.5447, 2.5008, 2.5206999999999997, 2.502, 2.4736, 2.5341, 2.5187, 2.4827999999999997, 2.4973, 2.5006, 2.5128, 2.4901, 2.5114, 2.4732, 2.5044, 2.4892, 2.4789999999999996, 2.4673, 2.519, 2.4929, 2.502, 2.5044, 2.4884, 2.4859999999999998, 2.4935, 2.4991000000000003, 2.4672, 2.5157000000000003, 2.4865999999999997, 2.5032, 2.4914, 2.6109, 2.5897, 2.4941, 2.5208, 2.4832, 2.4833, 2.5455, 2.4724],
  "Depth": 401.0,
  "Expectation Value": -1.9576810598373413,
  "Optimal Expectation Value": -2.0,
  "Optimizer durations [ms]": [26.68, 25.078, 25.287, 25.864, 25.645, 25.543, 25.651, 25.242, 25.817, 25.279, 25.181, 25.574, 25.337, 26.784, 25.725, 25.388, 25.568, 25.407, 25.937, 25.481, 25.602, 25.285, 25.158, 25.516, 25.891, 26.042, 25.51, 25.662, 26.06, 36.088, 28.47, 26.189, 25.642, 25.489, 25.719, 25.127, 25.426, 25.331, 25.466, 24.995, 25.668, 25.662, 25.693, 25.56, 25.706, 25.263, 25.764, 25.936, 25.512, 25.613, 25.666, 25.452, 25.87, 25.455, 25.296, 25.765, 25.378, 25.75, 25.124, 25.634, 25.409, 25.465, 25.716, 25.002, 25.3, 25.714, 25.495, 25.556, 25.503, 30.19, 29.212, 25.724, 25.302, 26.138, 25.639, 25.367, 25.604, 25.22, 26.933, 35.956, 25.392, 25.75, 25.272, 25.2, 25.945, 25.674],
  "Optimizer iterations": 86,
  "Optimizer params": [0.9995841328016876, 0.8481161627267646, 0.34936802043183823, 0.9995851365004007, 0.012151948165597986, 0.9906630365716038],
  "P": 3,
  "Problem": "MIS",
  "QJob durations [ms]": [2.6005, 2.4666, 2.4835, 2.4732, 2.4991000000000003, 2.5064, 2.4978000000000002, 2.5031, 2.5035000000000003, 2.4779, 2.4838999999999998, 2.4979, 2.4971, 2.6177, 2.5113000000000003, 2.4883, 2.4941, 2.4987, 2.5333, 2.4972000000000003, 2.4979, 2.4791000000000003, 2.4799, 2.4825, 2.5423, 2.5484, 2.503, 2.5094000000000003, 2.5503, 2.5987, 2.7914, 2.5525, 2.5149999999999997, 2.5067000000000004, 2.4983, 2.4783, 2.4926000000000004, 2.4871, 2.4681, 2.4556, 2.5221, 2.524, 2.507, 2.5054000000000003, 2.5046999999999997, 2.469, 2.5298, 2.5447, 2.5008, 2.5206999999999997, 2.502, 2.4736, 2.5341, 2.5187, 2.4827999999999997, 2.4973, 2.5006, 2.5128, 2.4901, 2.5114, 2.4732, 2.5044, 2.4892, 2.4789999999999996, 2.4673, 2.519, 2.4929, 2.502, 2.5044, 2.4884, 2.4859999999999998, 2.4935, 2.4991000000000003, 2.4672, 2.5157000000000003, 2.4865999999999997, 2.5032, 2.4914, 2.6109, 2.5897, 2.4941, 2.5208, 2.4832, 2.4833, 2.5455, 2.4724],
  "QPU": "7000000",
  "Qubits": 10,
  "Queue durations [ms]": [0.0, 0.0, 0.0, 0.0, 0.0, 0.0, 0.0, 0.0, 0.0, 0.0, 0.0, 0.0, 0.0, 0.0, 0.0, 0.0, 0.0, 0.0, 0.0, 0.0, 0.0, 0.0, 0.0, 0.0, 0.0, 0.0, 0.0, 0.0, 0.0, 0.0, 0.0, 0.0, 0.0, 0.0, 0.0, 0.0, 0.0, 0.0, 0.0, 0.0, 0.0, 0.0, 0.0, 0.0, 0.0, 0.0, 0.0, 0.0, 0.0, 0.0, 0.0, 0.0, 0.0, 0.0, 0.0, 0.0, 0.0, 0.0, 0.0, 0.0, 0.0, 0.0, 0.0, 0.0, 0.0, 0.0, 0.0, 0.0, 0.0, 0.0, 0.0, 0.0, 0.0, 0.0, 0.0, 0.0, 0.0, 0.0, 0.0, 0.0, 0.0, 0.0, 0.0, 0.0, 0.0, 0.0],
  "Shots": 4096,
  "Size": 7,
  "Total Algorithm duration [s]": 2.232,
  "Total Classic duration [s]": 2.0162178,
  "Total Quantum duration [s]": 0.21578220000000004
}
