{
  "Circuit execution durations [ms]": [2.4695, 2.4364999999999997, 2.5278, 2.5084, 2.5125, 2.7682, 2.5208, 2.5281000000000002, 2.5650999999999997, 2.6145, 2.438, 2.5342, 2.4983, 2.5117, 2.6538, 2.6603999999999997, 2.678, 2.4873, 2.6469, 2.4962, 2.4819999999999998, 2.5184, 2.529, 2.5016000000000003, 2.5136999999999996, 2.5319000000000003, 2.5206, 2.4978000000000002, 2.4927, 2.4889, 2.4911, 2.564, 2.5276, 2.532, 2.4958, 2.4836, 2.5147, 2.5355, 2.5058, 2.5012, 2.5037000000000003, 2.5136, 2.4594, 2.6691000000000003, 2.6789, 2.5212, 2.5364, 2.503, 2.4932000000000003, 2.5171, 2.4855, 2.4632, 2.5258, 2.4703, 2.5378000000000003, 2.5154, 2.5538000000000003, 2.4715000000000003, 2.4962, 2.5132000000000003, 2.4930999999999996, 2.5109, 2.4556, 2.5281000000000002, 2.5261, 2.513, 2.5102, 2.5379, 2.4965, 2.5577, 2.506, 2.5043, 2.4717, 2.5157000000000003, 2.5151000000000003, 2.5345, 2.5068, 2.5013, 2.5614000000000003, 2.5097, 2.4762999999999997, 2.5075000000000003, 2.6536, 2.9425, 2.4773, 2.4671, 2.4831, 2.4916, 2.497, 2.5241000000000002, 2.5096, 2.5006999999999997, 2.5009, 2.505, 2.4751, 2.5336999999999996, 2.4837000000000002, 2.4913000000000003, 2.493, 2.4993, 2.4818000000000002, 2.5463],
  "Depth": 401.0,
  "Expectation Value": -1.961096167564392,
  "Optimal Expectation Value": -2.0,
  "Optimizer durations [ms]": [25.19, 24.741, 25.999, 25.647, 25.797, 28.025, 25.94, 25.793, 26.825, 26.675, 34.732, 25.68, 25.558, 27.398, 26.927, 27.125, 32.079, 25.443, 26.768, 25.756, 25.3, 25.615, 25.722, 25.728, 25.606, 25.905, 25.568, 25.601, 25.5, 25.343, 25.416, 26.058, 25.833, 25.71, 25.661, 25.387, 25.36, 26.116, 25.48, 25.545, 25.511, 25.414, 25.106, 27.484, 31.852, 26.264, 25.915, 25.769, 25.294, 25.704, 25.435, 25.035, 25.681, 25.392, 25.852, 25.745, 26.164, 25.058, 25.661, 25.525, 25.657, 25.475, 25.263, 25.677, 25.89, 25.378, 25.867, 26.187, 25.37, 25.805, 25.75, 25.291, 25.546, 25.653, 25.684, 25.638, 25.948, 25.332, 26.342, 25.723, 24.982, 25.906, 27.046, 35.156, 25.31, 25.022, 25.456, 25.515, 25.398, 25.694, 25.596, 25.562, 25.551, 25.635, 25.038, 25.853, 27.014, 25.505, 25.242, 25.454, 25.593, 25.727],
  "Optimizer iterations": 102,
  "Optimizer params": [0.07253309539140436, 0.5241533693286818, 1.0, 0.9999988001060788, 0.2680674252686853, 0.9900035973798964],
  "P": 3,
  "Problem": "MIS",
  "QJob durations [ms]": [2.4695, 2.4364999999999997, 2.5278, 2.5084, 2.5125, 2.7682, 2.5208, 2.5281000000000002, 2.5650999999999997, 2.6145, 2.438, 2.5342, 2.4983, 2.5117, 2.6538, 2.6603999999999997, 2.678, 2.4873, 2.6469, 2.4962, 2.4819999999999998, 2.5184, 2.529, 2.5016000000000003, 2.5136999999999996, 2.5319000000000003, 2.5206, 2.4978000000000002, 2.4927, 2.4889, 2.4911, 2.564, 2.5276, 2.532, 2.4958, 2.4836, 2.5147, 2.5355, 2.5058, 2.5012, 2.5037000000000003, 2.5136, 2.4594, 2.6691000000000003, 2.6789, 2.5212, 2.5364, 2.503, 2.4932000000000003, 2.5171, 2.4855, 2.4632, 2.5258, 2.4703, 2.5378000000000003, 2.5154, 2.5538000000000003, 2.4715000000000003, 2.4962, 2.5132000000000003, 2.4930999999999996, 2.5109, 2.4556, 2.5281000000000002, 2.5261, 2.513, 2.5102, 2.5379, 2.4965, 2.5577, 2.506, 2.5043, 2.4717, 2.5157000000000003, 2.5151000000000003, 2.5345, 2.5068, 2.5013, 2.5614000000000003, 2.5097, 2.4762999999999997, 2.5075000000000003, 2.6536, 2.9425, 2.4773, 2.4671, 2.4831, 2.4916, 2.497, 2.5241000000000002, 2.5096, 2.5006999999999997, 2.5009, 2.505, 2.4751, 2.5336999999999996, 2.4837000000000002, 2.4913000000000003, 2.493, 2.4993, 2.4818000000000002, 2.5463],
  "QPU": "7000000",
  "Qubits": 10,
  "Queue durations [ms]": [0.0, 0.0, 0.0, 0.0, 0.0, 0.0, 0.0, 0.0, 0.0, 0.0, 0.0, 0.0, 0.0, 0.0, 0.0, 0.0, 0.0, 0.0, 0.0, 0.0, 0.0, 0.0, 0.0, 0.0, 0.0, 0.0, 0.0, 0.0, 0.0, 0.0, 0.0, 0.0, 0.0, 0.0, 0.0, 0.0, 0.0, 0.0, 0.0, 0.0, 0.0, 0.0, 0.0, 0.0, 0.0, 0.0, 0.0, 0.0, 0.0, 0.0, 0.0, 0.0, 0.0, 0.0, 0.0, 0.0, 0.0, 0.0, 0.0, 0.0, 0.0, 0.0, 0.0, 0.0, 0.0, 0.0, 0.0, 0.0, 0.0, 0.0, 0.0, 0.0, 0.0, 0.0, 0.0, 0.0, 0.0, 0.0, 0.0, 0.0, 0.0, 0.0, 0.0, 0.0, 0.0, 0.0, 0.0, 0.0, 0.0, 0.0, 0.0, 0.0, 0.0, 0.0, 0.0, 0.0, 0.0, 0.0, 0.0, 0.0, 0.0, 0.0],
  "Shots": 4096,
  "Size": 7,
  "Total Algorithm duration [s]": 2.657,
  "Total Classic duration [s]": 2.3994915,
  "Total Quantum duration [s]": 0.2575085
}
