{
  "Circuit execution durations [ms]": [2.5045, 2.7173000000000003, 2.7797, 2.5040999999999998, 2.5011, 2.5013, 2.4551, 2.5191, 2.7431, 2.5068, 2.5040999999999998, 2.5621, 2.4819, 2.5133, 2.4768, 2.49, 2.4977, 2.4794, 2.5009, 2.4997000000000003, 2.5415, 2.5561999999999996, 2.5347999999999997, 2.4882, 2.5331, 2.4987, 2.5468, 2.5006, 2.4696000000000002, 2.4807, 2.4781, 2.5010000000000003, 2.6009, 2.4909, 2.4776, 2.5103, 2.4758, 2.4686999999999997, 2.488, 2.4937, 2.9808999999999997, 2.4929, 2.5141999999999998, 2.4745, 2.5146, 2.4994, 2.5209, 2.4948, 2.4922999999999997, 2.4636, 2.505, 2.4976, 2.5296, 2.4774, 2.4743, 2.5205, 2.4989, 2.4684, 2.5336999999999996, 2.4589999999999996, 2.492, 2.4959000000000002, 2.4964000000000004, 2.5374, 2.4985, 2.5219, 2.4914, 2.5153, 2.5231, 2.5214, 2.4613, 2.5212, 2.507, 2.4718, 2.4762, 2.5290999999999997, 2.4821999999999997, 2.4922, 2.4672, 2.8113, 2.6506, 2.5907999999999998, 2.4697, 2.5799999999999996, 2.4092, 2.5768, 2.4954, 2.4876, 2.5977, 2.6234, 2.5281000000000002, 2.5317, 2.4798, 2.5148, 2.4929, 2.512, 2.5135, 2.504, 2.4874, 2.489, 2.4785, 2.5101, 2.4835, 2.4472, 2.574, 2.4924, 2.487, 2.5043, 2.4736, 2.4884999999999997, 2.4707000000000003, 2.4979, 2.4819999999999998, 2.4627999999999997, 2.5278, 2.5156, 2.5031, 2.6048999999999998, 2.5585, 2.5029000000000003, 2.5228, 2.5057, 2.4976, 2.5033999999999996, 2.4989, 2.487, 2.5202, 2.5593999999999997, 2.5236, 2.5077, 2.519, 2.4888000000000003, 2.48, 2.4889, 2.5178000000000003, 2.4832, 2.4956, 2.4788, 2.4977, 2.5022, 2.5391, 2.4874, 2.5299, 2.4873, 2.5042, 2.5268, 2.4884],
  "Depth": 401.0,
  "Expectation Value": -1.8852739334106445,
  "Optimal Expectation Value": -2.0,
  "Optimizer durations [ms]": [25.485, 27.995, 34.898, 25.512, 25.606, 25.41, 25.177, 25.731, 27.96, 25.436, 25.465, 26.456, 25.028, 25.676, 25.412, 25.74, 25.518, 25.129, 25.479, 25.57, 26.003, 25.982, 25.79, 25.503, 25.843, 25.388, 26.15, 25.613, 25.123, 25.193, 25.548, 25.463, 26.451, 25.72, 24.995, 25.751, 25.212, 25.536, 25.494, 25.642, 30.056, 34.305, 25.704, 25.332, 25.609, 25.214, 25.91, 25.545, 25.361, 24.913, 25.53, 25.709, 25.755, 25.237, 25.131, 25.905, 25.291, 25.215, 25.969, 25.235, 25.33, 25.581, 25.19, 25.931, 25.527, 25.634, 25.429, 25.645, 25.717, 25.711, 24.985, 25.74, 25.569, 25.426, 25.172, 25.759, 25.434, 25.418, 25.363, 28.349, 27.126, 26.275, 25.575, 26.246, 34.017, 26.577, 25.331, 25.671, 26.679, 26.854, 35.149, 25.727, 25.507, 25.839, 25.324, 25.696, 25.45, 25.643, 25.357, 25.565, 25.26, 25.844, 25.124, 25.142, 26.333, 25.458, 25.323, 25.702, 25.0, 25.56, 25.037, 25.651, 25.34, 24.966, 25.861, 25.737, 25.279, 26.852, 35.557, 25.529, 25.68, 25.664, 25.203, 25.807, 25.411, 25.47, 25.713, 26.008, 25.857, 25.648, 25.688, 25.274, 25.59, 25.143, 26.118, 25.388, 25.432, 25.245, 25.487, 25.515, 26.055, 25.279, 25.751, 25.454, 25.467, 25.792, 25.469],
  "Optimizer iterations": 147,
  "Optimizer params": [0.9513244800700754, 0.5590878990344241, 0.7146418587083105, 0.6568772830364882, 0.9957917544475955, 0.3710817981632172],
  "P": 3,
  "Problem": "MIS",
  "QJob durations [ms]": [2.5045, 2.7173000000000003, 2.7797, 2.5040999999999998, 2.5011, 2.5013, 2.4551, 2.5191, 2.7431, 2.5068, 2.5040999999999998, 2.5621, 2.4819, 2.5133, 2.4768, 2.49, 2.4977, 2.4794, 2.5009, 2.4997000000000003, 2.5415, 2.5561999999999996, 2.5347999999999997, 2.4882, 2.5331, 2.4987, 2.5468, 2.5006, 2.4696000000000002, 2.4807, 2.4781, 2.5010000000000003, 2.6009, 2.4909, 2.4776, 2.5103, 2.4758, 2.4686999999999997, 2.488, 2.4937, 2.9808999999999997, 2.4929, 2.5141999999999998, 2.4745, 2.5146, 2.4994, 2.5209, 2.4948, 2.4922999999999997, 2.4636, 2.505, 2.4976, 2.5296, 2.4774, 2.4743, 2.5205, 2.4989, 2.4684, 2.5336999999999996, 2.4589999999999996, 2.492, 2.4959000000000002, 2.4964000000000004, 2.5374, 2.4985, 2.5219, 2.4914, 2.5153, 2.5231, 2.5214, 2.4613, 2.5212, 2.507, 2.4718, 2.4762, 2.5290999999999997, 2.4821999999999997, 2.4922, 2.4672, 2.8113, 2.6506, 2.5907999999999998, 2.4697, 2.5799999999999996, 2.4092, 2.5768, 2.4954, 2.4876, 2.5977, 2.6234, 2.5281000000000002, 2.5317, 2.4798, 2.5148, 2.4929, 2.512, 2.5135, 2.504, 2.4874, 2.489, 2.4785, 2.5101, 2.4835, 2.4472, 2.574, 2.4924, 2.487, 2.5043, 2.4736, 2.4884999999999997, 2.4707000000000003, 2.4979, 2.4819999999999998, 2.4627999999999997, 2.5278, 2.5156, 2.5031, 2.6048999999999998, 2.5585, 2.5029000000000003, 2.5228, 2.5057, 2.4976, 2.5033999999999996, 2.4989, 2.487, 2.5202, 2.5593999999999997, 2.5236, 2.5077, 2.519, 2.4888000000000003, 2.48, 2.4889, 2.5178000000000003, 2.4832, 2.4956, 2.4788, 2.4977, 2.5022, 2.5391, 2.4874, 2.5299, 2.4873, 2.5042, 2.5268, 2.4884],
  "QPU": "7000000",
  "Qubits": 10,
  "Queue durations [ms]": [0.0, 0.0, 0.0, 0.0, 0.0, 0.0, 0.0, 0.0, 0.0, 0.0, 0.0, 0.0, 0.0, 0.0, 0.0, 0.0, 0.0, 0.0, 0.0, 0.0, 0.0, 0.0, 0.0, 0.0, 0.0, 0.0, 0.0, 0.0, 0.0, 0.0, 0.0, 0.0, 0.0, 0.0, 0.0, 0.0, 0.0, 0.0, 0.0, 0.0, 0.0, 0.0, 0.0, 0.0, 0.0, 0.0, 0.0, 0.0, 0.0, 0.0, 0.0, 0.0, 0.0, 0.0, 0.0, 0.0, 0.0, 0.0, 0.0, 0.0, 0.0, 0.0, 0.0, 0.0, 0.0, 0.0, 0.0, 0.0, 0.0, 0.0, 0.0, 0.0, 0.0, 0.0, 0.0, 0.0, 0.0, 0.0, 0.0, 0.0, 0.0, 0.0, 0.0, 0.0, 0.0, 0.0, 0.0, 0.0, 0.0, 0.0, 0.0, 0.0, 0.0, 0.0, 0.0, 0.0, 0.0, 0.0, 0.0, 0.0, 0.0, 0.0, 0.0, 0.0, 0.0, 0.0, 0.0, 0.0, 0.0, 0.0, 0.0, 0.0, 0.0, 0.0, 0.0, 0.0, 0.0, 0.0, 0.0, 0.0, 0.0, 0.0, 0.0, 0.0, 0.0, 0.0, 0.0, 0.0, 0.0, 0.0, 0.0, 0.0, 0.0, 0.0, 0.0, 0.0, 0.0, 0.0, 0.0, 0.0, 0.0, 0.0, 0.0, 0.0, 0.0, 0.0, 0.0],
  "Shots": 4096,
  "Size": 7,
  "Total Algorithm duration [s]": 3.819,
  "Total Classic duration [s]": 3.4491604,
  "Total Quantum duration [s]": 0.3698396000000001
}
