{
  "Circuit execution durations [ms]": [2.545, 2.4844, 2.4974, 2.4986, 2.4737999999999998, 2.4878, 2.4962999999999997, 2.4781, 2.5027999999999997, 2.5231, 2.4810000000000003, 2.4938, 2.4965, 2.4909, 2.5022, 2.4962999999999997, 2.4962, 2.5542, 2.4987999999999997, 2.5117999999999996, 2.5033999999999996, 2.5094000000000003, 2.5365, 2.5045, 2.5339, 2.5002, 2.5114, 2.5022, 2.5328999999999997, 2.4865999999999997, 2.5126, 2.5225999999999997, 2.4749, 2.4917, 2.493, 2.5093, 2.4678999999999998, 2.4955, 2.5276, 2.4616, 2.8379999999999996, 2.6779, 2.4939, 2.5025999999999997, 2.4906, 2.7255000000000003, 2.5179, 2.5252, 2.7109, 2.8323, 2.4756, 2.4986, 2.5, 2.4678999999999998, 2.536, 2.5044, 2.496, 2.5132000000000003, 2.5068, 2.5168, 2.5122, 2.4914, 2.5333, 2.5878, 2.5248, 2.5206, 2.509, 2.5138000000000003, 2.4862, 2.5366999999999997, 2.5193, 2.4792, 2.5027999999999997, 2.5051, 2.4717, 2.4979999999999998, 2.5008, 2.9488000000000003, 2.4276, 2.5115, 2.5093, 2.4884999999999997, 2.5217, 2.5172, 2.4959000000000002, 2.5198, 2.5495, 2.4901],
  "Depth": 401.0,
  "Expectation Value": -1.9594032764434814,
  "Optimal Expectation Value": -2.0,
  "Optimizer durations [ms]": [26.584, 25.502, 25.543, 25.494, 25.23, 25.547, 25.37, 25.268, 25.439, 25.952, 25.065, 25.892, 25.55, 25.337, 25.576, 25.159, 25.753, 26.19, 25.42, 25.751, 25.628, 25.495, 25.997, 25.345, 26.0, 25.461, 25.524, 25.652, 25.907, 25.355, 25.729, 25.452, 25.272, 25.439, 25.541, 25.691, 25.157, 25.464, 25.519, 28.171, 28.655, 27.06, 25.715, 25.403, 31.577, 27.774, 25.526, 25.745, 27.811, 28.766, 34.934, 25.441, 25.711, 25.086, 26.038, 25.36, 25.785, 25.563, 25.594, 25.664, 25.705, 25.357, 25.822, 26.371, 25.869, 25.616, 25.706, 25.612, 25.524, 25.771, 25.761, 25.26, 25.709, 25.373, 25.495, 25.588, 25.391, 30.127, 34.46, 25.519, 25.674, 25.472, 25.689, 25.615, 25.495, 25.594, 26.047, 25.456],
  "Optimizer iterations": 88,
  "Optimizer params": [1.0, 0.7202437520027161, 0.0023157129608570516, 0.7658007171605952, 0.3500592970984343, 0.2385887181232009],
  "P": 3,
  "Problem": "MIS",
  "QJob durations [ms]": [2.545, 2.4844, 2.4974, 2.4986, 2.4737999999999998, 2.4878, 2.4962999999999997, 2.4781, 2.5027999999999997, 2.5231, 2.4810000000000003, 2.4938, 2.4965, 2.4909, 2.5022, 2.4962999999999997, 2.4962, 2.5542, 2.4987999999999997, 2.5117999999999996, 2.5033999999999996, 2.5094000000000003, 2.5365, 2.5045, 2.5339, 2.5002, 2.5114, 2.5022, 2.5328999999999997, 2.4865999999999997, 2.5126, 2.5225999999999997, 2.4749, 2.4917, 2.493, 2.5093, 2.4678999999999998, 2.4955, 2.5276, 2.4616, 2.8379999999999996, 2.6779, 2.4939, 2.5025999999999997, 2.4906, 2.7255000000000003, 2.5179, 2.5252, 2.7109, 2.8323, 2.4756, 2.4986, 2.5, 2.4678999999999998, 2.536, 2.5044, 2.496, 2.5132000000000003, 2.5068, 2.5168, 2.5122, 2.4914, 2.5333, 2.5878, 2.5248, 2.5206, 2.509, 2.5138000000000003, 2.4862, 2.5366999999999997, 2.5193, 2.4792, 2.5027999999999997, 2.5051, 2.4717, 2.4979999999999998, 2.5008, 2.9488000000000003, 2.4276, 2.5115, 2.5093, 2.4884999999999997, 2.5217, 2.5172, 2.4959000000000002, 2.5198, 2.5495, 2.4901],
  "QPU": "7000000",
  "Qubits": 10,
  "Queue durations [ms]": [0.0, 0.0, 0.0, 0.0, 0.0, 0.0, 0.0, 0.0, 0.0, 0.0, 0.0, 0.0, 0.0, 0.0, 0.0, 0.0, 0.0, 0.0, 0.0, 0.0, 0.0, 0.0, 0.0, 0.0, 0.0, 0.0, 0.0, 0.0, 0.0, 0.0, 0.0, 0.0, 0.0, 0.0, 0.0, 0.0, 0.0, 0.0, 0.0, 0.0, 0.0, 0.0, 0.0, 0.0, 0.0, 0.0, 0.0, 0.0, 0.0, 0.0, 0.0, 0.0, 0.0, 0.0, 0.0, 0.0, 0.0, 0.0, 0.0, 0.0, 0.0, 0.0, 0.0, 0.0, 0.0, 0.0, 0.0, 0.0, 0.0, 0.0, 0.0, 0.0, 0.0, 0.0, 0.0, 0.0, 0.0, 0.0, 0.0, 0.0, 0.0, 0.0, 0.0, 0.0, 0.0, 0.0, 0.0, 0.0],
  "Shots": 4096,
  "Size": 7,
  "Total Algorithm duration [s]": 2.295,
  "Total Classic duration [s]": 2.0729106,
  "Total Quantum duration [s]": 0.2220894
}
