{
  "Circuit execution durations [ms]": [8347.580194473267, 8278.815746307373, 8578.038215637207, 7912.979602813721, 8476.15122795105, 8469.377994537354, 8156.54730796814, 8420.958042144775, 8323.773860931396, 8291.560411453247, 8330.368757247925, 8320.412158966064, 8084.599018096924, 8316.635608673096, 8146.929740905762, 8661.216020584106, 8440.353393554688, 8227.378606796265, 8297.361135482788, 8422.058820724487, 8271.512031555176, 8539.331436157227, 8112.604141235352, 8229.080200195313, 8775.061845779419, 8394.314289093018, 8378.477573394775, 8180.799245834351, 7915.433645248413, 8341.521263122559, 8430.296659469604, 8675.62222480774, 9275.713443756104, 9136.32321357727, 8262.796640396118, 8413.458824157715, 8518.536806106567, 8481.731653213501, 8217.461585998535, 8571.47240638733, 8391.013860702515, 7942.67201423645, 8504.210472106934, 8422.62053489685, 8327.63957977295, 7933.805704116821, 8291.914463043213, 8075.063943862915, 8139.652490615845, 7977.684497833252, 8464.351415634155, 8428.205490112305, 8267.361164093018, 8521.051168441772, 8316.983222961426, 8108.353614807129, 8557.408094406128, 8696.356058120728, 8056.234359741211, 8425.236701965332, 8210.687160491943, 8643.617630004883, 7936.692476272583, 8171.286106109619, 8260.153532028198, 8526.813268661499, 8531.444311141968, 8506.527423858643, 8158.233404159546, 8247.740983963013, 8181.640148162842, 8675.052165985107, 8748.811483383179, 8393.29981803894, 8323.118209838867, 8331.060886383057],
  "Depth": 59.0,
  "Expectation Value": -0.9994903206825256,
  "Optimal Expectation Value": -1.0,
  "Optimizer durations [ms]": [10834.86, 10778.094, 11086.29, 10364.422, 10968.349, 10956.113, 10641.467, 10928.215, 10796.171, 10770.598, 10837.639, 10803.64, 10545.434, 10790.227, 10692.037, 11131.726, 10935.24, 10726.751, 10778.494, 10889.19, 10792.432, 11052.787, 10562.325, 10708.898, 11272.607, 10883.326, 10894.014, 10651.156, 10430.817, 10808.993, 10932.445, 11250.486, 12026.306, 11905.817, 10856.513, 10995.922, 11015.438, 11002.653, 10740.056, 11102.873, 10896.279, 10442.378, 11043.648, 10926.864, 10845.743, 10463.239, 10767.137, 10553.679, 10641.614, 10514.41, 10943.363, 10943.205, 10778.448, 11022.516, 10788.587, 10629.971, 11039.519, 11157.534, 10555.457, 10910.716, 10665.458, 11184.762, 10413.328, 10642.479, 10746.764, 11057.994, 11080.289, 10993.73, 10667.606, 10701.725, 10656.156, 11170.727, 11265.806, 10882.253, 10780.016, 10836.689],
  "Optimizer iterations": 76,
  "Optimizer params": [0.9763262947831904, 0.6703013653896733, 0.8551933838285143, 0.8152803437422053, 0.5010469733807632, 0.5923178895462681],
  "P": 3,
  "Problem": "DSP",
  "QJob durations [ms]": [10807.161808013916, 10750.771522521973, 11013.923406600952, 10337.04423904419, 10941.145896911621, 10928.988456726074, 10613.912105560303, 10900.95567703247, 10769.579410552979, 10743.767738342285, 10810.476541519165, 10776.732444763184, 10518.096685409546, 10763.001680374146, 10665.365219116211, 11104.554414749146, 10908.350944519043, 10699.838161468506, 10751.438856124878, 10862.056255340576, 10764.952898025513, 11025.060892105103, 10535.049676895142, 10681.464433670044, 11245.315790176392, 10856.143712997437, 10866.68872833252, 10624.06325340271, 10403.90133857727, 10781.615495681763, 10905.072212219238, 11156.92687034607, 11997.53737449646, 10718.160629272461, 10826.263904571533, 10967.925071716309, 10988.117694854736, 10973.39153289795, 10712.404727935791, 11075.095415115356, 10868.96538734436, 10411.638021469116, 11016.362428665161, 10899.991273880005, 10818.524599075317, 10436.145782470703, 10740.064859390259, 10526.562690734863, 10614.189147949219, 10487.317323684692, 10916.51177406311, 10916.03684425354, 10751.436233520508, 10995.824813842773, 10761.441230773926, 10602.662563323975, 11012.118339538574, 11130.095481872559, 10528.101444244385, 10883.699417114258, 10638.241529464722, 11157.647609710693, 10386.52515411377, 10615.10968208313, 10719.269752502441, 11030.957221984863, 11010.066747665405, 10964.715480804443, 10640.354633331299, 10674.484252929688, 10629.018068313599, 11143.703937530518, 11238.76667022705, 10855.162382125854, 10752.9296875, 10809.154510498047],
  "QPU": "6010003",
  "Qubits": 4,
  "Queue durations [ms]": [0.0, 0.0, 0.0, 0.0, 0.0, 0.0, 0.0, 0.0, 0.0, 0.0, 0.0, 0.0, 0.0, 0.0, 0.0, 0.0, 0.0, 0.0, 0.0, 0.0, 0.0, 0.0, 0.0, 0.0, 0.0, 0.0, 0.0, 0.0, 0.0, 0.0, 0.0, 0.0, 0.0, 0.0, 0.0, 0.0, 0.0, 0.0, 0.0, 0.0, 0.0, 0.0, 0.0, 0.0, 0.0, 0.0, 0.0, 0.0, 0.0, 0.0, 0.0, 0.0, 0.0, 0.0, 0.0, 0.0, 0.0, 0.0, 0.0, 0.0, 0.0, 0.0, 0.0, 0.0, 0.0, 0.0, 0.0, 0.0, 0.0, 0.0, 0.0, 0.0, 0.0, 0.0, 0.0, 0.0],
  "Shots": 4096,
  "Size": 2,
  "Total Algorithm duration [s]": 825.751,
  "Total Classic duration [s]": 3.394889904022193,
  "Total Quantum duration [s]": 822.3561100959778
}
