{
  "Depth": 221.0,
  "Expectation Value": -16.04790496826172,
  "Job durations [ms]": [1.4341, 1.5090999999999999, 1.3592000000000002, 1.3508, 1.4202, 1.4149, 1.4219, 1.4397, 1.3686, 1.4401, 1.4051, 1.6865999999999999, 1.4937, 1.6582000000000001, 1.6013, 1.5589, 1.3885, 1.374, 1.4394, 1.4451, 1.4143000000000001, 1.3916, 1.438, 1.4239000000000002, 1.4296, 1.3925999999999998, 1.3893, 1.4341, 1.3988, 1.3584999999999998, 1.3256, 1.4016, 1.3943, 1.3902999999999999, 1.3679000000000001, 1.4557, 1.4155000000000002, 1.3939, 1.3941999999999999, 1.3971, 1.4430999999999998, 1.3803999999999998, 1.4606000000000001, 1.5039, 1.5671000000000002, 1.5463, 1.3044, 1.7602, 1.4345, 1.4285999999999999, 1.2931, 1.3911, 1.4643, 1.4382, 1.4623, 1.4594, 1.4158, 1.3764999999999998, 1.4401, 1.4273, 1.3927, 1.5446, 1.3787999999999998, 1.3885, 1.3892, 1.3974, 1.4974999999999998, 1.3974, 2.0165, 1.5839999999999999, 1.8809, 2.9444, 1.6319, 1.5897000000000001, 1.5766, 1.7934999999999999, 1.3329, 1.5317, 1.5881999999999998, 1.5401, 1.4664000000000001, 1.6020999999999999, 1.5001, 1.342, 1.6126999999999998, 1.4993, 1.4744000000000002, 1.3751, 1.4517, 1.4698, 1.563, 1.573, 1.4507999999999999, 1.5378, 1.5736, 1.5378, 1.5579, 1.6797, 1.4305999999999999, 1.4289, 1.6079, 1.5266, 1.4847000000000001, 1.4705, 1.4497, 1.6172, 1.4968],
  "Optimal Expectation Value": -18.0,
  "Optimizer durations [ms]": [25.556, 21.123, 24.514, 24.323, 25.357, 25.191, 25.121, 25.183, 24.683, 25.261, 22.387, 21.699, 25.848, 25.081, 24.323, 21.604, 24.69, 23.797, 22.716, 21.638, 25.105, 24.588, 24.229, 24.938, 25.099, 24.637, 24.914, 25.372, 22.468, 24.093, 24.36, 25.094, 24.838, 23.72, 24.527, 21.287, 24.981, 24.311, 24.687, 25.108, 25.366, 22.318, 25.557, 18.974, 21.585, 21.506, 23.811, 24.864, 21.025, 20.538, 23.776, 24.758, 25.604, 25.112, 23.675, 22.248, 25.046, 24.639, 25.245, 22.822, 24.889, 20.256, 24.698, 24.726, 24.743, 22.287, 25.412, 24.919, 30.904, 25.115, 29.559, 40.492, 27.078, 26.701, 26.748, 23.188, 24.196, 25.883, 24.669, 22.075, 25.279, 27.043, 25.641, 24.205, 26.909, 25.665, 24.665, 24.546, 25.351, 25.612, 23.786, 26.436, 25.167, 26.321, 26.56, 26.315, 26.287, 24.121, 25.268, 25.204, 26.913, 26.992, 21.502, 23.412, 25.314, 22.904, 22.749],
  "Optimizer iterations": 107,
  "Optimizer params": [0.030488001202723856, 0.2733708140114147, 0.40142100499087024, 0.2973397382635533, 0.43094089344705944, 0.5991490676444114],
  "P": 3,
  "Problem": "MCP",
  "QPU": "7000000",
  "Qubits": 12,
  "Shots": 4096,
  "Size": 12,
  "Total Algorithm duration [s]": 2.635,
  "Total Classic duration [s]": 2.4756099999999996,
  "Total Quantum duration [s]": 0.15938999999999995
}
