{
  "Depth": 221.0,
  "Expectation Value": -15.578240394592285,
  "Job durations [ms]": [1.4532, 1.555, 1.6619, 1.5211999999999999, 1.5915000000000001, 1.6, 1.5708, 1.4677, 1.5429, 1.5443, 1.5734, 1.4721, 1.729, 1.5504, 1.5774000000000001, 1.4586, 1.6144, 1.5640999999999998, 1.6229, 1.6831, 1.5756, 1.6252, 1.6839, 1.5653, 1.5698, 1.6123, 1.8651, 1.4395, 1.4331, 1.4607, 1.5738, 1.5717999999999999, 1.5642, 1.5835000000000001, 1.4587999999999999, 1.8063, 1.5471000000000001, 1.5514999999999999, 1.4289, 1.5786, 1.8525, 1.572, 1.4906, 1.5623, 1.5285, 1.4188, 1.5722, 1.582, 1.3824, 1.5712, 1.5867, 1.4323000000000001, 1.5663, 1.47, 1.5806, 1.5768, 1.5494, 1.5265, 1.5656999999999999, 1.5614, 1.5534999999999999, 1.4441, 1.5635000000000001, 1.5687, 1.5574000000000001, 1.4527999999999999, 1.4722, 1.5709, 1.4636, 1.7328999999999999, 1.7506, 1.5651, 1.4529, 1.5877000000000001, 1.4494, 1.4464000000000001, 1.4392999999999998, 1.639, 1.8897, 1.5911, 1.7248, 1.4416, 1.6626, 1.4566, 1.4576, 1.4008, 1.4812, 1.557],
  "Optimal Expectation Value": -18.0,
  "Optimizer durations [ms]": [25.182, 21.591, 22.742, 20.845, 21.719, 22.117, 21.684, 22.972, 16.924, 21.319, 21.848, 25.229, 24.858, 21.611, 21.767, 24.839, 22.608, 20.679, 22.278, 24.63, 21.843, 23.015, 24.849, 21.728, 19.321, 20.218, 24.699, 25.267, 21.093, 25.428, 17.921, 18.687, 20.718, 19.453, 25.324, 24.872, 21.349, 21.668, 24.972, 22.018, 22.386, 21.71, 21.076, 17.136, 24.847, 20.273, 18.686, 21.746, 20.02, 21.802, 22.091, 22.341, 21.558, 25.569, 18.956, 21.737, 21.545, 17.036, 21.656, 18.054, 18.762, 20.555, 17.821, 21.52, 21.523, 24.62, 21.866, 17.608, 25.586, 19.899, 24.707, 18.218, 21.248, 21.814, 21.65, 23.646, 25.441, 25.01, 24.955, 25.028, 23.324, 22.624, 19.561, 25.341, 25.385, 24.78, 20.896, 21.343],
  "Optimizer iterations": 88,
  "Optimizer params": [0.8468019010959005, 0.2322072103641399, 0.18178240038961843, 0.9873313919498607, 0.36836754582018316, 0.8549373555878329],
  "P": 3,
  "Problem": "MCP",
  "QPU": "7000000",
  "Qubits": 12,
  "Shots": 4096,
  "Size": 12,
  "Total Algorithm duration [s]": 1.936,
  "Total Classic duration [s]": 1.7988298999999999,
  "Total Quantum duration [s]": 0.13717010000000004
}
