{
  "Depth": 221.0,
  "Expectation Value": -15.835206031799316,
  "Job durations [ms]": [1.4765, 1.4707999999999999, 1.5674000000000001, 1.5083, 1.5808, 1.5486, 1.4607, 1.5972, 1.5812000000000002, 1.5765, 1.5617, 1.6927, 1.5627, 1.4607999999999999, 1.4542, 1.572, 1.589, 1.4497, 1.5581, 1.4391, 1.4488, 1.4729, 1.5745, 1.4394, 1.8787, 1.5395, 1.5013999999999998, 1.6272, 1.5585, 1.4459, 1.4733999999999998, 1.5601, 1.4907, 1.5583, 1.8692, 1.4388, 1.5697, 1.5626, 1.6056, 1.5391000000000001, 1.5271, 1.5564, 1.439, 1.554, 1.5479999999999998, 1.3252, 1.5564, 1.5547, 1.7261, 1.4509, 1.8796, 1.4584000000000001, 1.5628, 1.4425, 1.5740999999999998, 1.6451, 1.5373999999999999, 1.8362, 1.5499, 1.613, 1.4455, 1.4368, 1.5668, 1.5859999999999999, 1.7781, 1.4661, 1.5367, 1.5545, 1.5920999999999998, 1.8083, 1.4569999999999999, 1.5473999999999999, 1.5984, 1.8486, 1.5686, 1.5543, 1.8489, 1.5639, 1.5887, 1.6941, 1.4709, 1.555, 1.5748, 1.4421, 1.549, 1.5472000000000001, 1.5349000000000002, 1.4792, 1.5203, 1.5283, 1.5603, 1.5579],
  "Optimal Expectation Value": -18.0,
  "Optimizer durations [ms]": [25.828, 25.642, 21.507, 23.118, 18.181, 21.505, 25.615, 17.81, 21.934, 21.743, 21.787, 22.143, 21.593, 23.337, 25.432, 20.507, 21.967, 25.557, 21.382, 23.084, 25.368, 25.705, 23.847, 25.202, 24.958, 20.508, 23.027, 22.407, 19.335, 24.631, 24.921, 17.377, 25.041, 17.83, 24.818, 25.296, 21.59, 21.785, 21.574, 21.361, 17.372, 20.158, 25.019, 21.648, 17.293, 19.136, 17.054, 21.726, 23.481, 22.167, 24.902, 24.165, 21.658, 24.084, 20.141, 24.537, 19.022, 24.238, 18.399, 22.189, 25.342, 21.994, 21.772, 21.924, 25.054, 22.743, 23.086, 21.607, 21.402, 20.949, 25.308, 21.597, 22.112, 20.671, 17.463, 21.67, 23.472, 21.656, 21.74, 19.892, 25.57, 20.227, 19.182, 25.312, 16.959, 20.939, 20.48, 21.154, 19.724, 17.988, 21.646, 21.46],
  "Optimizer iterations": 92,
  "Optimizer params": [0.5853718271301107, 0.9283371471818024, 0.44102306107934636, 0.6868072949581702, 0.49755577579813054, 0.33158898418565574],
  "P": 3,
  "Problem": "MCP",
  "QPU": "7000000",
  "Qubits": 12,
  "Shots": 4096,
  "Size": 12,
  "Total Algorithm duration [s]": 2.026,
  "Total Classic duration [s]": 1.8824401999999998,
  "Total Quantum duration [s]": 0.1435598
}
