{
  "Depth": 221.0,
  "Expectation Value": -15.674113273620605,
  "Job durations [ms]": [1.5932, 1.4517, 1.4755, 1.691, 1.4418, 1.6897, 1.6724999999999999, 1.4215, 1.4549, 1.4019, 1.5139, 1.4502, 1.4398, 1.5125, 1.4076, 1.4247999999999998, 1.4189, 1.4524, 1.774, 1.4871999999999999, 1.4465999999999999, 1.4476, 1.4597, 1.443, 1.4527999999999999, 1.4319, 1.4188, 1.4385999999999999, 1.6721, 1.6694, 1.7133, 1.4707999999999999, 1.7927, 1.6985999999999999, 1.7445, 1.4394, 1.4744000000000002, 1.4414, 1.4538000000000002, 1.4204, 1.6988999999999999, 1.4557, 1.4521, 1.4534, 1.8326, 1.7717, 1.4334, 1.6260999999999999, 1.4151, 1.4466999999999999, 1.4729999999999999, 1.5628, 1.6392, 1.4649999999999999, 1.4526000000000001, 1.6906, 1.4317, 1.4572999999999998, 1.6, 1.4424, 1.6325999999999998, 1.6508, 1.8719999999999999, 1.4445000000000001, 1.4302, 1.4488999999999999, 1.7967, 1.6419, 1.4355, 1.6528, 1.4625000000000001, 1.742, 1.675, 1.4279, 1.7551, 1.4405, 1.4471, 1.4419000000000002, 1.6964000000000001, 1.4639, 1.6142999999999998, 1.4212, 1.7034, 1.4299, 1.6041, 1.4297, 1.7021, 1.4578, 1.4487, 1.4627, 1.434, 1.4379, 1.6982, 1.5562, 1.4384000000000001, 1.4851, 1.8533, 1.4562, 1.4568, 1.459, 1.4662, 1.4378, 1.4307, 1.459, 1.7126000000000001, 1.8406, 1.4383, 1.4584000000000001, 1.4496, 1.4647, 1.4293, 1.4607999999999999, 1.659, 1.4613],
  "Optimal Expectation Value": -18.0,
  "Optimizer durations [ms]": [21.904, 25.182, 25.599, 21.878, 25.339, 22.979, 24.515, 22.516, 25.555, 24.83, 23.186, 23.236, 25.123, 22.198, 25.016, 25.088, 25.183, 25.533, 21.897, 23.541, 25.185, 24.041, 21.328, 25.316, 25.398, 21.501, 25.093, 25.233, 20.709, 23.215, 22.568, 25.558, 24.919, 24.733, 20.652, 25.376, 24.763, 24.306, 24.899, 22.37, 24.836, 25.421, 25.277, 25.452, 23.63, 21.922, 25.183, 21.286, 23.604, 25.441, 25.612, 24.584, 21.94, 25.442, 25.288, 24.782, 25.177, 25.663, 24.249, 25.294, 24.631, 24.595, 24.487, 25.163, 24.57, 24.776, 22.066, 24.29, 20.38, 24.266, 23.365, 24.639, 24.902, 21.391, 24.745, 22.727, 25.325, 25.253, 22.519, 25.256, 23.514, 25.177, 22.796, 25.257, 22.763, 25.131, 24.526, 25.267, 23.866, 25.467, 25.279, 20.673, 20.173, 21.598, 25.494, 25.727, 23.008, 24.679, 25.499, 25.483, 25.412, 22.397, 25.177, 25.29, 24.91, 21.665, 25.218, 25.529, 22.466, 25.559, 25.09, 25.358, 21.012, 23.963],
  "Optimizer iterations": 114,
  "Optimizer params": [0.9216826640093745, 0.844396800651794, 0.1302489665130624, 0.5422091715584835, 0.03509596608281205, 0.07840900943783087],
  "P": 3,
  "Problem": "MCP",
  "QPU": "7000000",
  "Qubits": 12,
  "Shots": 4096,
  "Size": 12,
  "Total Algorithm duration [s]": 2.747,
  "Total Classic duration [s]": 2.5722194,
  "Total Quantum duration [s]": 0.17478059999999998
}
