{
  "Circuit execution durations [ms]": [57.14082717895508, 51.43618583679199, 77.57878303527832, 51.82170867919922, 54.137229919433594, 76.6674280166626, 52.944183349609375, 54.60190773010254, 51.680564880371094, 76.4857530593872, 62.868714332580566, 50.02737045288086, 76.67529582977295, 55.361270904541016, 52.51586437225342, 51.48208141326904, 82.16333389282227, 52.971720695495605, 53.96676063537598, 75.83403587341309, 52.92093753814697, 53.37023735046387, 54.06391620635986, 77.62002944946289, 52.6505708694458, 54.39186096191406, 79.16891574859619, 51.32746696472168, 53.450822830200195, 51.10371112823486, 77.47220993041992, 54.34703826904297, 52.97493934631348, 78.58085632324219, 53.495049476623535, 51.068663597106934, 51.885247230529785, 76.31099224090576, 51.314711570739746, 50.792813301086426, 74.8831033706665, 54.03411388397217, 52.575111389160156, 51.67412757873535, 86.62080764770508, 53.09462547302246, 53.29585075378418, 76.63536071777344, 51.520347595214844, 52.31332778930664, 56.47444725036621, 79.23007011413574, 53.18737030029297, 52.29926109313965, 75.07503032684326, 54.2299747467041, 54.79872226715088, 53.23803424835205, 77.2240161895752, 52.20043659210205, 52.30820178985596, 76.78699493408203, 53.93803119659424, 53.14302444458008, 50.59206485748291, 75.32155513763428, 54.141879081726074, 51.07724666595459, 76.73990726470947, 50.484418869018555, 54.837822914123535, 52.31797695159912, 77.23069190979004, 64.60511684417725, 51.871657371520996, 77.66866683959961, 52.30236053466797, 52.398085594177246, 51.378488540649414, 75.12366771697998, 54.29685115814209, 53.32612991333008, 76.97463035583496, 53.08330059051514, 53.72202396392822, 50.523996353149414, 75.41656494140625, 53.80904674530029, 52.49297618865967, 75.55711269378662, 54.59189414978027, 53.07316780090332, 51.06484889984131],
  "Depth": 2.0,
  "Expectation Value": -1.8852423429489136,
  "Optimal Expectation Value": -3.5925002098083496,
  "Optimizer durations [ms]": [627.291, 527.923, 535.723, 534.577, 532.466, 574.911, 563.987, 559.494, 567.048, 559.724, 588.599, 541.97, 582.699, 543.905, 546.626, 527.975, 544.058, 538.909, 533.441, 575.41, 536.1, 542.821, 531.711, 536.457, 536.966, 564.658, 583.866, 528.363, 531.767, 523.504, 530.481, 534.002, 533.276, 586.959, 535.953, 529.904, 529.9, 528.021, 526.981, 524.273, 569.606, 532.625, 527.465, 543.563, 557.539, 555.179, 532.79, 584.13, 529.28, 528.783, 557.373, 538.744, 535.354, 530.003, 572.488, 555.865, 572.132, 561.43, 532.21, 531.507, 536.118, 574.625, 538.015, 532.731, 522.289, 531.218, 545.716, 537.388, 574.767, 528.903, 538.545, 524.495, 531.782, 556.027, 532.547, 580.297, 532.792, 532.726, 533.137, 530.417, 543.745, 535.639, 584.771, 533.508, 537.007, 522.907, 527.242, 538.801, 527.017, 571.007, 561.069, 526.788, 521.952],
  "Optimizer iterations": 93,
  "Optimizer params": [0.9992932329643779, 0.9822810180870569, 1.4107210911313012e-20, 0.5083844646144466, 0.48552882042500883, 0.0],
  "P": 0,
  "Problem": "RH",
  "QJob durations [ms]": [68.73011589050293, 61.989665031433105, 87.98253536224365, 62.196969985961914, 64.5838975906372, 87.03815937042236, 63.42947483062744, 64.95940685272217, 62.23273277282715, 87.42141723632813, 74.0736722946167, 60.515403747558594, 87.0208740234375, 65.95659255981445, 63.33017349243164, 61.85603141784668, 92.69392490386963, 63.347578048706055, 64.36324119567871, 86.19046211242676, 63.29977512359619, 63.98332118988037, 64.40937519073486, 88.00840377807617, 63.144564628601074, 64.90635871887207, 89.76411819458008, 61.61391735076904, 63.15755844116211, 61.23530864715576, 87.73505687713623, 64.5512342453003, 63.17782402038574, 89.12193775177002, 63.82906436920166, 61.22410297393799, 62.2410774230957, 86.55846118927002, 61.490654945373535, 61.156272888183594, 85.13438701629639, 64.39125537872314, 62.65079975128174, 62.3166561126709, 96.89176082611084, 63.98141384124756, 63.62318992614746, 87.05723285675049, 61.876654624938965, 62.64197826385498, 67.87610054016113, 89.57624435424805, 63.713788986206055, 62.67440319061279, 85.31391620635986, 64.77868556976318, 65.37914276123047, 63.716888427734375, 87.61250972747803, 62.53492832183838, 62.836289405822754, 87.04900741577148, 64.24665451049805, 62.92438507080078, 61.02931499481201, 85.65127849578857, 64.62717056274414, 61.69891357421875, 87.25714683532715, 60.59253215789795, 64.90731239318848, 62.44230270385742, 87.69714832305908, 74.83983039855957, 62.45112419128418, 87.90647983551025, 62.530517578125, 62.50452995300293, 61.739206314086914, 85.21139621734619, 65.42503833770752, 63.44568729400635, 87.49067783355713, 63.21597099304199, 64.25809860229492, 60.77098846435547, 85.85739135742188, 63.55452537536621, 62.79003620147705, 85.67047119140625, 65.02056121826172, 62.73031234741211, 60.69016456604004],
  "QPU": "3000013",
  "Qubits": 6,
  "Queue durations [ms]": [0.0, 0.0, 0.0, 0.0, 0.0, 0.0, 0.0, 0.0, 0.0, 0.0, 0.0, 0.0, 0.0, 0.0, 0.0, 0.0, 0.0, 0.0, 0.0, 0.0, 0.0, 0.0, 0.0, 0.0, 0.0, 0.0, 0.0, 0.0, 0.0, 0.0, 0.0, 0.0, 0.0, 0.0, 0.0, 0.0, 0.0, 0.0, 0.0, 0.0, 0.0, 0.0, 0.0, 0.0, 0.0, 0.0, 0.0, 0.0, 0.0, 0.0, 0.0, 0.0, 0.0, 0.0, 0.0, 0.0, 0.0, 0.0, 0.0, 0.0, 0.0, 0.0, 0.0, 0.0, 0.0, 0.0, 0.0, 0.0, 0.0, 0.0, 0.0, 0.0, 0.0, 0.0, 0.0, 0.0, 0.0, 0.0, 0.0, 0.0, 0.0, 0.0, 0.0, 0.0, 0.0, 0.0, 0.0, 0.0, 0.0, 0.0, 0.0, 0.0, 0.0],
  "Shots": 4096,
  "Size": 6,
  "Total Algorithm duration [s]": 50.676,
  "Total Classic duration [s]": 44.13667488193512,
  "Total Quantum duration [s]": 6.53932511806488
}
