{
  "Depth": 203.0,
  "Expectation Value": -14.125785827636719,
  "Job durations [ms]": [1.3599, 1.3351000000000002, 1.3293000000000001, 1.5038, 1.3249, 1.3136, 1.58, 1.4469999999999998, 1.3242, 1.3007, 1.5927, 1.3256, 1.3274000000000001, 1.4617, 1.6337000000000002, 1.3178, 1.3409, 1.3233, 1.4252, 1.2952000000000001, 1.3021, 1.3062, 1.6242999999999999, 1.3343999999999998, 1.2934, 1.6775, 1.7125000000000001, 1.322, 1.3293000000000001, 1.3794, 1.4022999999999999, 1.3182, 1.7341, 1.3906999999999998, 1.3282999999999998, 1.3028, 1.7035, 1.3323, 1.4203, 1.2878, 1.3046, 1.2851, 1.3500999999999999, 1.3145, 1.3107, 1.3132000000000001, 1.3121, 1.3438, 1.3091000000000002, 1.2934, 1.3088, 1.3047, 1.3113000000000001, 1.667, 1.3309000000000002, 1.3191, 1.2979, 1.3252, 1.7365, 1.2951, 1.4025999999999998, 1.2886, 1.4727, 1.3144, 1.4193, 1.4191, 1.3105, 1.5138, 1.2905, 1.3054, 1.3172, 1.3222, 1.431, 1.2759, 1.2906, 1.3815, 1.6505999999999998, 1.3034, 1.2983, 1.3587, 1.3735, 1.3301999999999998, 1.289],
  "Optimal Expectation Value": -16.0,
  "Optimizer durations [ms]": [23.977, 23.689, 23.597, 20.339, 23.559, 23.693, 22.791, 19.953, 23.74, 23.46, 20.536, 23.751, 23.88, 23.164, 19.242, 19.188, 23.988, 23.746, 17.306, 23.52, 23.327, 20.622, 22.035, 20.113, 23.553, 22.82, 21.054, 23.776, 23.182, 20.672, 19.792, 23.782, 23.148, 20.416, 22.662, 23.624, 20.834, 19.842, 23.325, 23.448, 21.267, 22.174, 21.45, 23.703, 22.387, 23.754, 22.428, 20.576, 19.142, 23.545, 22.921, 23.1, 23.546, 23.096, 22.891, 19.866, 19.836, 23.911, 23.165, 23.642, 23.238, 19.759, 22.441, 22.504, 23.104, 22.858, 23.64, 19.342, 22.75, 22.633, 19.563, 21.135, 19.804, 23.071, 23.305, 23.231, 23.039, 23.09, 20.857, 23.13, 23.105, 23.259, 23.369],
  "Optimizer iterations": 83,
  "Optimizer params": [0.2627913557128596, 0.0024356332031047027, 0.12419879696432531, 0.9363553593950629, 0.9715488512475864, 0.054856893602243426],
  "P": 3,
  "Problem": "MCP",
  "QPU": "7000000",
  "Qubits": 11,
  "Shots": 4096,
  "Size": 11,
  "Total Algorithm duration [s]": 1.847,
  "Total Classic duration [s]": 1.7322445,
  "Total Quantum duration [s]": 0.11475550000000004
}
