{
  "Depth": 203.0,
  "Expectation Value": -14.740260124206543,
  "Job durations [ms]": [1.4459, 1.2734, 1.3351000000000002, 1.506, 1.431, 1.2971000000000001, 1.5282, 1.4694, 1.3084, 1.8134, 1.2702, 1.2999, 1.3021, 1.3162, 1.3558999999999999, 1.3167, 1.5768, 1.3472, 1.3161, 1.2953000000000001, 1.5759999999999998, 1.3219, 1.5543, 1.3173, 1.4885, 1.5527, 1.3289, 1.2999, 1.4108, 1.7065, 1.4122, 1.3179999999999998, 1.4154, 1.4354, 1.3124, 1.4154, 1.2881, 1.5050000000000001, 1.4532, 1.5532, 1.4128, 1.314, 1.7103000000000002, 1.3023, 1.6901, 1.3071000000000002, 1.4553, 1.4128, 1.4751, 1.3393000000000002, 1.3116, 1.5929, 1.466, 1.2872999999999999, 1.2823000000000002, 1.4479, 1.2844, 1.327, 1.4524, 1.5321, 1.4299, 1.5238, 1.5395999999999999, 1.3151, 1.3214, 1.2895, 1.3226, 1.2964, 1.678, 1.3048, 1.3256, 1.3251000000000002, 1.3113000000000001, 1.3010000000000002, 1.5387, 1.2847, 1.2976999999999999, 1.3852, 1.3071000000000002, 1.3268, 1.3303, 1.42, 1.3266, 1.6891, 1.3014999999999999, 1.3089, 1.2844, 1.6325999999999998],
  "Optimal Expectation Value": -16.0,
  "Optimizer durations [ms]": [20.113, 23.204, 23.705, 20.495, 20.047, 23.534, 22.953, 19.918, 23.647, 23.567, 22.63, 23.503, 23.486, 23.656, 22.984, 23.68, 23.018, 20.735, 23.646, 19.583, 22.791, 19.833, 23.049, 23.738, 22.534, 22.847, 23.907, 23.232, 19.727, 20.102, 19.76, 20.279, 23.142, 15.628, 19.061, 19.882, 23.282, 22.899, 22.973, 23.176, 19.9, 23.552, 23.11, 22.176, 23.111, 23.593, 20.168, 16.7, 18.934, 23.087, 21.522, 22.831, 22.613, 23.465, 23.405, 21.591, 23.454, 23.716, 23.112, 23.119, 22.992, 22.669, 23.022, 23.116, 23.548, 19.095, 19.743, 22.808, 22.991, 20.651, 21.118, 23.578, 23.426, 22.354, 22.818, 23.1, 19.57, 20.917, 22.019, 23.679, 19.606, 17.896, 21.882, 18.417, 20.05, 23.41, 18.968, 22.88],
  "Optimizer iterations": 88,
  "Optimizer params": [0.9953010490259938, 0.9573815555992872, 0.15345012448015383, 0.974385741170471, 0.5711222831147741, 0.36285431914969796],
  "P": 3,
  "Problem": "MCP",
  "QPU": "7000000",
  "Qubits": 11,
  "Shots": 4096,
  "Size": 11,
  "Total Algorithm duration [s]": 1.929,
  "Total Classic duration [s]": 1.8054099000000001,
  "Total Quantum duration [s]": 0.12359010000000001
}
