{
  "Depth": 20.5,
  "Job durations [ms]": [2910.66837310791, 2860.303521156311, 3013.6207342147827, 2873.0714321136475, 2854.806900024414, 3384.2607736587524, 2823.367118835449, 2871.8007802963257, 3023.33664894104, 2884.2729330062866, 2827.7652263641357, 2845.8330631256104, 2958.1871032714844, 2836.9003534317017, 2962.9690647125244, 2852.152943611145, 2866.8209314346313, 2892.479658126831, 2838.542103767395, 2900.9591341018677, 2967.5803184509277, 2863.2044792175293, 2817.0143365859985, 2838.596820831299, 3018.080234527588, 2787.511944770813, 2917.291760444641, 2858.4760427474976, 2845.919370651245, 2901.0385274887085, 2790.5486822128296, 2860.829710960388, 2992.5891160964966, 2902.884602546692, 2896.9428539276123, 2865.182399749756, 2808.3081245422363, 2968.3879613876343, 3063.4058713912964, 3015.447974205017, 2945.593237876892, 3034.6529483795166, 2946.2538957595825, 2960.9477519989014, 2909.785509109497, 2813.3230209350586, 2857.906460762024, 2892.79305934906, 2896.9972133636475, 2790.82989692688, 2807.5286149978638, 2829.0406465530396, 2808.062434196472, 2836.2687826156616, 2956.1394453048706, 2895.098090171814, 2812.954306602478, 2833.702564239502, 2839.026927947998, 2786.8465185165405, 2852.677583694458, 2780.3653478622437, 2761.760354042053, 2957.133650779724, 2874.3001222610474, 2866.2474155426025, 2758.2119703292847, 2910.2169275283813, 2807.2569370269775, 2861.364483833313, 2811.379551887512, 2774.4044065475464, 2846.5694189071655, 2970.5487489700317, 3010.6035470962524, 3410.476326942444, 2893.742799758911, 3344.4769382476807, 3104.4598817825317, 2934.008002281189, 2802.9123544692993, 2889.8109197616577, 3516.7949199676514, 3456.6694498062134, 2974.953770637512, 2876.2528896331787, 2957.132339477539, 2865.777015686035, 2989.9332523345947, 2947.440981864929, 2956.813097000122, 2977.695107460022, 2824.326753616333, 2890.14732837677, 3090.98219871521, 2910.273551940918, 2873.1170892715454, 2946.3024139404297, 2874.2064237594604, 3096.155881881714, 2884.074807167053, 2884.531855583191, 3043.668270111084, 2845.6908464431763, 2920.3890562057495, 3057.952642440796, 2868.5405254364014, 2929.7733306884766, 2909.1885089874268, 2936.089515686035, 2961.614727973938, 2818.7590837478638, 2842.94593334198, 2922.7060079574585, 2886.687755584717, 2891.2376165390015, 2920.9996461868286, 2960.9044790267944, 2886.784553527832, 2855.131983757019, 2990.802049636841, 2908.3356857299805, 2925.9287118911743, 2830.6761980056763, 2893.5576677322388, 3044.0003871917725, 2887.592554092407, 2922.614812850952, 2926.9171953201294, 2851.1956930160522, 2848.6063480377197, 2858.757257461548, 2864.076256752014, 2829.352855682373, 2806.278944015503, 2919.2830324172974, 2852.5418043136597, 2868.2154417037964, 2900.105595588684, 2950.963020324707, 2903.065323829651, 2952.5946378707886, 2864.8931980133057, 2873.373866081238, 2894.6187496185303, 2829.172730445862, 2884.3977451324463, 2872.1773624420166, 3009.889841079712, 2944.6005821228027, 2924.081802368164, 2900.9865522384644, 3197.593092918396, 2891.2802934646606, 2800.3785610198975, 2986.3693714141846, 2967.434525489807, 2937.6492500305176, 3113.3742332458496, 2932.901978492737, 2873.5746145248413, 2876.1483430862427, 2834.0179920196533, 2859.4077825546265, 3029.8163890838623, 2903.0994176864624, 2918.514132499695, 2878.3793449401855, 3086.1377716064453, 2959.50984954834, 2899.563431739807, 2927.1124601364136, 2930.7905435562134, 2835.9663486480713, 3045.142650604248, 2867.744207382202, 2922.598958015442, 2921.203374862671, 3072.5101232528687, 2848.4034538269043, 3040.9098863601685, 2912.2668504714966, 2861.4845275878906, 3113.3681535720825, 2891.6993141174316, 2848.490357398987, 3000.301718711853, 2839.357852935791, 2925.9543418884277, 2782.8731536865234, 2816.126823425293, 2895.7111835479736, 2884.6436738967896, 2921.074151992798, 2984.1374158859253, 2904.078245162964, 2910.5727672576904, 2878.4360885620117, 2911.158800125122, 2872.5043535232544, 2931.603789329529, 2939.510703086853, 3266.774892807007, 2828.0175924301147, 3011.2591981887817, 2886.414647102356, 2873.4958171844482, 2890.5019760131836, 2901.5227556228638, 2961.616039276123, 3006.8439245224, 2873.966097831726, 2980.4275035858154, 2879.8677921295166, 2826.2360095977783, 2876.177191734314, 2890.0556564331055, 2859.279990196228, 2872.4217414855957, 2931.1976432800293, 2915.371060371399, 2895.318865776062, 2897.199869155884, 2903.5801887512207, 2904.0393829345703, 2893.1576013565063, 2910.1617336273193, 2888.676643371582, 2898.994565010071, 2872.0195293426514, 2816.6836500167847, 2952.793598175049, 2834.298253059387, 3082.035541534424, 2880.1132440567017, 2960.4647159576416, 3206.6173553466797, 2814.8226737976074, 2921.4872121810913, 2999.659299850464, 2967.8521156311035, 2901.5430212020874, 2931.8517446517944, 2863.945484161377, 2871.093511581421, 2943.500518798828, 2927.5293350219727, 2923.4254360198975, 2958.0609798431396, 2847.3243713378906, 2861.156463623047, 2815.4003620147705, 2929.4049739837646, 3010.6202363967896, 3056.160569190979, 2948.064088821411, 2902.1893739700317, 3119.1015243530273, 2813.6088848114014, 2969.7600603103638, 2924.0927696228027, 2854.0138006210327, 2851.673483848572, 2871.0936307907104, 3096.468687057495, 2936.1437559127808, 2882.8150033950806, 2893.7712907791138, 2941.317319869995, 2873.2086420059204, 2844.904899597168, 2918.1495904922485, 2877.950072288513, 2860.7161045074463, 3035.3903770446777, 2875.0014305114746, 3026.9744396209717, 2849.528670310974, 2858.5036993026733, 3019.1667079925537, 2920.4976558685303, 2918.018341064453, 2892.888069152832, 3038.560152053833, 2867.949604988098, 2896.2931632995605, 2869.056224822998, 2866.9484853744507, 2881.9947242736816, 2842.5633907318115, 2836.633801460266, 2929.257392883301, 2875.548839569092, 2965.32142162323, 2859.763741493225, 2912.6261472702026, 2867.6095008850098, 2861.5201711654663, 3007.038116455078, 3067.8281784057617, 2837.8826379776, 2937.907099723816, 2944.9738264083862, 2848.369359970093, 2929.710030555725, 3048.600435256958, 2903.0561447143555, 2841.495990753174, 2899.8968601226807, 3062.865376472473, 2927.9263019561768, 2921.610951423645, 2883.548617362976, 2923.4423637390137, 2926.323652267456, 2796.3470220565796, 3063.7444257736206, 2964.191198348999, 2941.0550594329834, 2894.4512605667114, 3016.4910554885864, 2997.3284006118774, 2865.808606147766, 2909.3374013900757, 2938.7874603271484, 2908.5516929626465, 2879.374384880066, 2894.742488861084, 2963.104248046875, 2906.5524339675903, 2899.748206138611, 2884.7779035568237, 2881.2512159347534, 2927.0578622817993, 2907.3009490966797, 2978.7391424179077, 3022.7246284484863, 2885.2269649505615, 2846.421003341675, 2910.2784395217896, 2856.348395347595, 2881.8167448043823, 2876.946210861206, 2872.8302717208862, 2955.2594423294067, 2874.722719192505, 2897.7807760238647, 2901.79705619812, 2827.960968017578, 2896.900534629822, 2902.1564722061157, 3227.872848510742, 2981.106162071228, 2828.7328481674194, 2895.0114250183105, 2922.5701093673706, 2931.6818714141846, 2940.109133720398, 2872.3117113113403, 2872.0110654830933, 2955.478310585022, 2935.578942298889, 3207.223415374756, 2883.3813667297363, 2829.245686531067, 2905.897378921509, 3020.5583572387695, 2909.4672203063965, 3150.546431541443, 2966.3734436035156, 2901.430368423462, 3027.0477533340454, 2918.358564376831, 2890.772819519043, 3041.6070222854614, 2943.008065223694, 2873.2935190200806, 3108.9396476745605, 2942.4201250076294, 2907.5443744659424, 2874.350070953369, 2897.6796865463257, 2903.4945964813232, 2874.2384910583496, 2803.2498359680176, 2939.5699501037598, 3072.167992591858, 2873.848080635071, 3012.6631259918213, 3230.8918237686157, 2785.97092628479, 2878.1726360321045, 2844.0853357315063, 3043.2047843933105, 2861.250877380371, 2961.9741439819336, 2800.1487255096436, 2852.9770374298096, 2903.8583040237427, 2899.478316307068, 2891.032576560974, 3006.723642349243, 2987.884044647217, 2870.2527284622192, 2977.1755933761597, 2893.321752548218, 2869.3950176239014, 3025.8378982543945, 2951.7738819122314, 2929.989814758301, 2895.6685066223145, 3105.2699089050293, 2857.6289415359497, 3047.2350120544434, 3001.758337020874, 2838.3806943893433, 2906.47554397583, 2926.33056640625, 3050.2965450286865, 3042.0069694519043, 2916.008710861206, 2863.020658493042, 2831.753730773926, 2847.9599952697754, 2887.8997564315796, 2793.461799621582, 2972.0300436019897, 2860.9702587127686, 3373.610019683838, 3263.9914751052856, 2920.206665992737, 2953.3917903900146, 2851.3031005859375, 2888.206362724304, 2914.900779724121, 2920.335054397583, 2907.5803756713867, 3159.021496772766, 2887.4982595443726, 2823.764443397522, 3068.4465169906616, 2903.4993648529053, 2940.6204223632812, 2888.8959884643555, 2913.9082431793213, 2922.082543373108, 3185.2506399154663, 2933.910131454468, 2911.821484565735, 2851.858139038086, 2962.1455669403076, 2956.1043977737427, 2919.7356700897217, 2895.082116127014, 2864.7167682647705, 3004.0429830551147, 2911.6640090942383, 2833.240866661072, 2892.1109437942505, 2875.515103340149, 2936.6958141326904, 2912.434220314026, 2908.858299255371, 3085.774064064026, 2843.3966636657715, 3065.803050994873, 3073.5976696014404, 2957.1787118911743, 2956.986665725708, 2947.4380016326904, 2937.7284049987793, 2978.9119958877563, 2830.546498298645, 2904.624819755554, 2903.419017791748, 2885.18226146698, 2892.5273418426514, 3050.4461526870728, 2884.483575820923, 2884.235620498657, 3057.0470094680786, 2906.7821502685547, 2867.944836616516, 2989.042639732361, 2933.485507965088, 2865.1562929153442, 2909.197688102722, 2896.0388898849487, 2927.5656938552856, 3044.678807258606, 2893.6232328414917, 2971.7310667037964, 2881.9358348846436, 3150.9180068969727, 2876.0735988616943, 3035.816550254822, 2899.702787399292, 2913.9198064804077, 3035.049319267273, 2881.598472595215, 2849.106550216675, 2922.3586320877075, 2949.1822719573975, 2870.2473640441895, 2849.9218225479126, 2898.888945579529, 2905.535936355591, 2929.975390434265, 2852.781653404236, 2887.7930641174316, 2930.7507276535034, 2844.782590866089, 2843.2159423828125, 2962.9989862442017, 2828.0869722366333, 3094.2227840423584, 2916.111707687378, 2881.2520503997803, 2924.998164176941, 3170.301675796509, 2854.3899059295654, 2841.2818908691406, 2870.012044906616, 2877.6872158050537, 2902.3271799087524, 2902.401089668274, 2960.3331089019775, 2863.786816596985, 2924.1944551467896, 2922.428011894226, 2809.6941709518433, 2882.5005292892456, 2976.0533571243286, 2875.403881072998, 2898.15616607666, 2891.470789909363, 3065.7308101654053, 2838.838815689087, 2963.3864164352417, 2890.288829803467, 2817.2632455825806, 3062.722086906433, 2850.1808643341064, 2872.5496530532837, 2830.2290439605713, 3051.753044128418, 2893.776059150696, 2965.6542539596558, 2934.131979942322, 2831.4883708953857, 2917.926549911499, 2860.745072364807, 2857.8248023986816, 2828.26828956604, 2897.815227508545, 3074.2697715759277, 2869.770407676697, 2952.9517889022827, 2932.6058626174927, 2897.1234560012817, 2966.0799503326416, 2927.7766942977905, 2928.009033203125, 2921.7288494110107, 2905.4001569747925],
  "Optimizer durations [ms]": [8988.405, 8799.359, 9403.789, 9195.196, 8832.586, 9949.866, 8793.754, 8808.101, 9312.917, 8887.843, 8762.118, 8840.781, 9306.518, 8752.291, 9038.936, 8813.86, 8875.101, 8906.297, 8789.419, 8869.269, 9048.847, 8861.307, 8709.641, 8750.49, 9135.803, 8615.292, 8933.202, 8957.931, 8776.251, 8904.079, 8617.302, 8811.683, 9090.132, 8927.383, 8969.453, 8826.774, 8693.754, 8971.79, 9466.201, 9397.411, 9035.877, 9135.055, 8988.06, 9126.591, 8903.81, 8702.592, 8754.307, 8858.069, 8969.209, 8627.217, 8710.546, 8698.714, 8689.666, 8717.953, 8990.886, 8893.62, 8742.629, 8774.675, 8828.311, 8694.821, 8809.485, 8649.207, 8600.802, 8953.825, 8864.272, 8817.046, 8560.959, 8936.652, 8695.635, 8833.356, 8726.013, 8617.679, 8807.591, 9043.463, 9148.171, 10575.593, 9054.578, 9816.562, 9601.739, 8954.91, 8696.569, 8822.342, 10536.451, 10213.422, 9437.358, 9078.623, 9126.98, 8861.864, 9172.667, 9152.903, 9087.605, 9133.526, 8797.06, 8934.082, 9314.241, 8989.569, 8870.346, 9047.11, 8916.127, 9381.638, 8929.335, 9002.433, 9249.403, 8831.256, 9015.73, 9251.257, 8908.693, 9023.551, 8990.422, 9002.086, 9090.569, 8786.416, 8801.984, 9042.274, 8902.573, 8949.739, 9016.302, 9029.67, 8966.8, 8828.774, 9128.476, 8979.676, 9339.306, 8861.644, 8972.041, 9339.905, 8924.274, 9019.345, 9018.931, 8868.504, 8824.618, 8833.712, 8861.569, 8777.353, 8748.653, 9020.425, 8827.747, 8869.685, 8950.382, 9127.327, 8997.715, 9074.08, 8874.018, 8885.527, 8953.789, 8789.984, 8846.998, 8884.631, 9182.61, 9010.83, 8981.763, 8958.478, 9626.607, 8912.549, 8746.844, 9149.661, 9050.611, 9087.052, 9406.519, 8994.96, 8933.65, 8921.529, 8781.499, 8871.007, 9229.501, 8934.196, 9008.178, 8937.569, 9361.159, 9058.36, 8986.034, 9037.134, 9029.839, 8866.968, 9239.668, 8928.19, 9020.491, 8969.702, 9319.725, 8872.898, 9198.021, 9009.933, 8868.391, 9367.688, 8930.826, 8877.753, 9134.999, 8829.972, 8998.117, 8677.425, 8790.829, 8965.573, 8873.408, 9032.636, 9249.918, 8973.653, 8989.631, 8925.039, 8951.79, 8929.258, 9050.011, 9035.128, 10062.871, 8846.91, 9172.213, 8942.34, 8933.354, 8896.855, 9005.328, 9090.702, 9136.171, 8912.06, 9048.411, 8965.869, 8827.287, 8852.862, 8921.888, 8890.274, 8873.422, 9029.714, 9022.026, 8922.688, 8936.621, 8896.38, 8967.123, 8970.234, 8907.931, 8929.019, 8906.676, 8940.498, 8764.391, 9092.834, 8809.388, 9301.007, 8971.06, 9109.119, 9836.634, 8812.586, 8983.671, 9131.276, 9109.781, 9058.825, 9100.307, 8930.046, 8891.15, 9034.174, 9044.862, 8983.753, 9100.724, 8874.789, 8866.837, 8776.414, 9007.058, 9136.393, 9264.589, 9090.454, 8939.51, 9377.31, 8760.24, 9112.844, 8951.503, 8882.912, 8855.645, 8838.593, 9348.355, 9039.916, 8884.281, 8999.336, 9074.452, 8865.11, 8815.151, 9030.032, 8846.325, 8889.638, 9304.345, 8853.46, 9342.938, 8878.859, 8830.312, 9246.306, 9062.282, 9002.829, 9000.114, 9184.679, 8887.83, 8977.215, 8833.667, 8905.066, 8936.223, 8838.078, 8830.292, 8976.111, 8874.239, 9065.73, 8858.642, 8981.066, 8936.861, 8865.892, 9171.753, 9266.89, 8851.734, 9057.493, 9003.775, 8862.369, 8982.509, 9301.599, 8964.031, 8853.304, 8950.008, 9274.375, 8991.134, 8996.819, 8991.331, 9029.601, 9070.044, 8787.299, 9249.443, 9114.47, 9045.622, 8949.373, 9139.314, 9116.353, 8864.107, 8996.492, 9083.626, 9002.596, 8845.609, 9018.632, 9100.222, 8934.646, 9022.757, 8905.897, 8990.103, 9061.195, 8977.927, 9125.374, 9214.117, 8894.482, 8821.749, 9000.9, 8914.565, 8920.846, 8914.323, 8980.858, 9079.189, 8936.938, 8949.613, 8963.968, 8973.068, 8950.489, 8924.296, 9758.449, 9188.791, 8804.304, 8938.423, 8979.011, 9085.137, 9072.628, 8866.637, 8912.949, 9100.206, 9012.388, 9593.788, 8914.998, 8895.993, 8965.78, 9295.976, 8982.155, 9427.276, 9121.769, 8961.914, 9252.791, 8998.494, 8994.109, 9224.591, 9067.02, 8890.549, 9386.527, 9101.96, 9005.574, 8884.19, 8959.003, 8946.568, 8828.596, 8741.266, 9010.101, 9260.271, 8878.52, 9160.459, 9644.153, 8739.601, 8909.922, 8840.045, 9255.247, 8882.437, 9141.846, 8738.01, 8831.831, 8984.197, 8953.767, 8919.162, 9181.427, 9097.335, 8857.395, 9115.117, 8942.149, 8908.894, 9236.16, 9097.936, 9034.676, 8958.389, 9437.743, 8846.446, 9240.769, 9130.694, 8876.698, 8961.496, 9011.29, 9232.24, 9222.202, 9020.214, 8869.189, 8800.857, 8801.463, 8951.551, 8739.149, 9138.563, 8947.085, 10088.269, 9779.985, 8985.904, 9086.927, 8867.079, 8909.279, 8989.314, 9007.024, 8978.676, 9490.004, 8923.777, 8762.112, 9314.052, 8979.025, 9020.181, 8912.813, 9008.664, 8983.704, 9535.209, 9028.435, 8953.091, 8930.018, 9081.013, 9080.79, 9073.582, 8936.806, 8899.508, 9189.07, 8969.669, 8829.769, 9047.233, 8891.111, 9040.021, 9069.874, 8963.985, 9586.756, 8841.488, 9259.96, 9315.436, 9075.9, 9094.011, 9082.771, 9042.022, 9113.264, 8821.67, 8944.873, 9017.516, 9034.337, 8938.267, 9319.041, 8974.291, 8888.283, 9354.389, 9073.759, 8872.347, 9152.646, 9070.003, 8905.362, 8957.877, 9030.384, 9047.891, 9223.544, 8926.123, 9103.576, 8929.462, 9718.377, 8907.544, 9254.013, 8956.682, 9022.394, 9238.768, 8865.3, 8855.584, 9017.01, 9076.737, 8947.127, 8913.716, 8972.35, 9008.635, 9065.889, 8871.041, 8970.186, 9037.602, 8845.023, 8864.1, 9056.003, 8828.979, 9381.363, 9042.272, 8957.744, 9047.221, 9517.008, 8863.876, 9152.522, 8849.282, 8969.194, 8973.516, 8945.972, 9137.477, 8866.164, 9036.034, 9011.429, 8720.304, 8963.236, 9137.911, 8882.391, 8967.827, 8937.932, 9336.399, 8881.441, 9039.381, 8940.953, 8758.498, 9287.039, 8880.224, 8913.168, 8774.222, 9252.14, 8930.883, 9172.902, 9055.905, 8837.13, 8979.98, 8917.164, 8862.07, 8765.831, 8994.042, 9356.912, 8868.209, 9088.382, 9040.786, 8920.813, 9138.793, 9064.067, 9001.735, 9019.469, 8989.171],
  "Optimizer iterations": 565,
  "Qubits": 9,
  "Total Algorithm duration [s]": 5091.722,
  "Total Classic duration [s]": 3440.057926532745,
  "Total Quantum duration [s]": 1651.6640734672546,
  "Expectation Value": -9.23876953125,
  "Optimal Expectation Value": -11.109565734863281,
  "Optimizer params": [0.772101762110057, 0.7419794919961469, 0.7465776489856412, 0.7274170147433865, 0.7748832758808764, 0.6804547054879079, 0.7983676748317077, 0.7286296294444682, 0.7626611189064625, 0.4878169757275285, 0.505666227123651, 0.47233753493795244, 0.5182740970009603, 0.524598836026346, 0.5181984489446728, 0.5212256589823239, 0.5007325765683686, 0.5307407843842097, 0.5815268794735994, 0.6153969932742783, 0.5591486373989089, 0.5601104481927209, 0.5279670415023936, 0.590899953674421, 0.5671129800346154, 0.610203768117386, 0.7573985731747405, 0.5310833809100663, 0.4581700851260438, 0.4994939280319785, 0.5027437549287203, 0.5008665237283509, 0.5074289801884743, 0.4944294020831652, 0.5342677567176795, 0.5905024149095691],
  "QPU": "6010003",
  "Problem": "IC",
  "Size": 9,
  "P": 0,
  "Shots": 4096
}