{
  "Circuit execution durations [ms]": [0.30679999999999996, 0.2928, 0.292, 0.28800000000000003, 0.3166, 0.2877, 0.6022, 0.5925, 0.4236, 0.5231, 0.3099, 0.289, 0.3123, 0.29090000000000005, 0.2889, 0.2869, 0.2858, 0.2881, 0.30469999999999997, 0.2869, 0.2858, 0.2881, 0.29109999999999997, 0.29329999999999995, 0.2928, 0.2875, 0.2998, 0.321, 0.3531, 0.2882, 0.3018, 0.2914, 0.3097, 0.2979, 0.2908, 0.2967, 0.29159999999999997, 0.29359999999999997, 0.29750000000000004, 0.2981, 0.2995, 0.2893, 0.28669999999999995, 0.2862, 0.2845, 0.2899, 0.2886, 0.2874, 0.2878, 0.29109999999999997, 0.2873, 0.28850000000000003, 0.2879, 0.2889, 0.29119999999999996, 0.28850000000000003, 0.2887, 0.2888, 0.2952, 0.3013, 0.2913, 0.28850000000000003, 0.2965, 0.28850000000000003, 0.2878],
  "Depth": 32.0,
  "Expectation Value": -2.0,
  "Optimal Expectation Value": -2.0,
  "Optimizer durations [ms]": [3.773, 3.521, 3.409, 3.35, 3.603, 3.334, 6.221, 11.985, 11.298, 5.783, 4.072, 3.45, 3.691, 3.436, 3.417, 3.324, 3.345, 3.344, 3.561, 3.332, 3.34, 3.321, 3.433, 3.433, 3.388, 3.345, 3.427, 3.669, 3.988, 3.408, 3.528, 3.275, 3.739, 3.534, 3.385, 3.546, 3.397, 3.398, 3.56, 3.424, 3.33, 3.468, 3.295, 3.277, 3.272, 3.33, 3.319, 3.334, 3.326, 3.332, 3.304, 3.298, 3.303, 3.325, 3.346, 3.32, 3.304, 3.37, 3.381, 3.488, 3.338, 3.319, 3.399, 3.325, 3.304],
  "Optimizer iterations": 65,
  "Optimizer params": [0.888496795129613, 0.9397154381030669, 0.9671003997205581, 0.9835070138120391, 0.17818034360125834, 0.4517651214002025],
  "P": 3,
  "Problem": "MCP",
  "QJob durations [ms]": [0.30679999999999996, 0.2928, 0.292, 0.28800000000000003, 0.3166, 0.2877, 0.6022, 0.5925, 0.4236, 0.5231, 0.3099, 0.289, 0.3123, 0.29090000000000005, 0.2889, 0.2869, 0.2858, 0.2881, 0.30469999999999997, 0.2869, 0.2858, 0.2881, 0.29109999999999997, 0.29329999999999995, 0.2928, 0.2875, 0.2998, 0.321, 0.3531, 0.2882, 0.3018, 0.2914, 0.3097, 0.2979, 0.2908, 0.2967, 0.29159999999999997, 0.29359999999999997, 0.29750000000000004, 0.2981, 0.2995, 0.2893, 0.28669999999999995, 0.2862, 0.2845, 0.2899, 0.2886, 0.2874, 0.2878, 0.29109999999999997, 0.2873, 0.28850000000000003, 0.2879, 0.2889, 0.29119999999999996, 0.28850000000000003, 0.2887, 0.2888, 0.2952, 0.3013, 0.2913, 0.28850000000000003, 0.2965, 0.28850000000000003, 0.2878],
  "QPU": "7000000",
  "Qubits": 3,
  "Queue durations [ms]": [0.0, 0.0, 0.0, 0.0, 0.0, 0.0, 0.0, 0.0, 0.0, 0.0, 0.0, 0.0, 0.0, 0.0, 0.0, 0.0, 0.0, 0.0, 0.0, 0.0, 0.0, 0.0, 0.0, 0.0, 0.0, 0.0, 0.0, 0.0, 0.0, 0.0, 0.0, 0.0, 0.0, 0.0, 0.0, 0.0, 0.0, 0.0, 0.0, 0.0, 0.0, 0.0, 0.0, 0.0, 0.0, 0.0, 0.0, 0.0, 0.0, 0.0, 0.0, 0.0, 0.0, 0.0, 0.0, 0.0, 0.0, 0.0, 0.0, 0.0, 0.0, 0.0, 0.0, 0.0, 0.0],
  "Shots": 4096,
  "Size": 3,
  "Total Algorithm duration [s]": 0.244,
  "Total Classic duration [s]": 0.2239116,
  "Total Quantum duration [s]": 0.020088399999999996
}
