{
  "Circuit execution durations [ms]": [0.3013, 0.2917, 0.31139999999999995, 0.3049, 0.2915, 0.2902, 0.2914, 0.30069999999999997, 0.28659999999999997, 0.2948, 0.3098, 0.2983, 0.29300000000000004, 0.2887, 0.2902, 0.2893, 0.43, 0.2884, 0.28800000000000003, 0.2868, 0.2917, 0.2888, 0.2983, 0.3008, 0.298, 0.3011, 0.3017, 0.2988, 0.3014, 0.29460000000000003, 0.2889, 0.2886, 0.289, 0.2872, 0.298, 0.2881, 0.2922, 0.2873, 0.2918, 0.2876, 0.2882, 0.2913, 0.2876, 0.2894, 0.28909999999999997, 0.28509999999999996, 0.2869, 0.2888, 0.3085, 0.30660000000000004, 0.29819999999999997, 0.2915, 0.1969, 0.49739999999999995, 0.2665, 0.5228, 0.3813, 0.2899, 0.2883, 0.29500000000000004, 0.299, 0.2914, 0.29, 0.29500000000000004, 0.294, 0.2915, 0.2898, 0.289, 0.29100000000000004, 0.3109],
  "Depth": 32.0,
  "Expectation Value": -2.0,
  "Optimal Expectation Value": -2.0,
  "Optimizer durations [ms]": [3.604, 3.359, 3.558, 3.66, 3.389, 3.353, 3.371, 3.529, 3.354, 3.505, 3.619, 3.705, 3.665, 3.338, 3.351, 3.354, 4.836, 3.5, 3.422, 3.365, 3.395, 3.358, 3.44, 3.447, 3.415, 3.45, 3.572, 3.443, 3.425, 3.395, 3.369, 3.376, 3.376, 3.303, 3.442, 3.368, 3.384, 3.346, 3.411, 3.349, 3.37, 3.39, 3.349, 3.371, 3.369, 3.315, 3.37, 4.941, 3.642, 3.629, 3.546, 4.994, 7.205, 8.169, 7.674, 5.985, 4.917, 3.399, 3.365, 3.574, 3.475, 3.419, 3.389, 3.434, 3.449, 3.408, 3.391, 3.383, 3.517, 3.617],
  "Optimizer iterations": 70,
  "Optimizer params": [0.9263902340170936, 0.25094711480145215, 0.9332795800813534, 0.9512863203961901, 0.8390879629294143, 0.769923910461412],
  "P": 3,
  "Problem": "MCP",
  "QJob durations [ms]": [0.3013, 0.2917, 0.31139999999999995, 0.3049, 0.2915, 0.2902, 0.2914, 0.30069999999999997, 0.28659999999999997, 0.2948, 0.3098, 0.2983, 0.29300000000000004, 0.2887, 0.2902, 0.2893, 0.43, 0.2884, 0.28800000000000003, 0.2868, 0.2917, 0.2888, 0.2983, 0.3008, 0.298, 0.3011, 0.3017, 0.2988, 0.3014, 0.29460000000000003, 0.2889, 0.2886, 0.289, 0.2872, 0.298, 0.2881, 0.2922, 0.2873, 0.2918, 0.2876, 0.2882, 0.2913, 0.2876, 0.2894, 0.28909999999999997, 0.28509999999999996, 0.2869, 0.2888, 0.3085, 0.30660000000000004, 0.29819999999999997, 0.2915, 0.1969, 0.49739999999999995, 0.2665, 0.5228, 0.3813, 0.2899, 0.2883, 0.29500000000000004, 0.299, 0.2914, 0.29, 0.29500000000000004, 0.294, 0.2915, 0.2898, 0.289, 0.29100000000000004, 0.3109],
  "QPU": "7000000",
  "Qubits": 3,
  "Queue durations [ms]": [0.0, 0.0, 0.0, 0.0, 0.0, 0.0, 0.0, 0.0, 0.0, 0.0, 0.0, 0.0, 0.0, 0.0, 0.0, 0.0, 0.0, 0.0, 0.0, 0.0, 0.0, 0.0, 0.0, 0.0, 0.0, 0.0, 0.0, 0.0, 0.0, 0.0, 0.0, 0.0, 0.0, 0.0, 0.0, 0.0, 0.0, 0.0, 0.0, 0.0, 0.0, 0.0, 0.0, 0.0, 0.0, 0.0, 0.0, 0.0, 0.0, 0.0, 0.0, 0.0, 0.0, 0.0, 0.0, 0.0, 0.0, 0.0, 0.0, 0.0, 0.0, 0.0, 0.0, 0.0, 0.0, 0.0, 0.0, 0.0, 0.0, 0.0],
  "Shots": 4096,
  "Size": 3,
  "Total Algorithm duration [s]": 0.262,
  "Total Classic duration [s]": 0.24090820000000002,
  "Total Quantum duration [s]": 0.0210918
}
