{
  "Circuit execution durations [ms]": [0.3167, 0.6897, 0.2854, 0.35760000000000003, 0.6064, 0.31, 0.3001, 0.3028, 0.30069999999999997, 0.2903, 0.29159999999999997, 0.32039999999999996, 0.2919, 0.2973, 0.3019, 0.31930000000000003, 0.2908, 0.2879, 0.2887, 0.39239999999999997, 0.29109999999999997, 0.2887, 0.2882, 0.28909999999999997, 0.2898, 0.2886, 0.2874, 0.2883, 0.3024, 0.27080000000000004, 0.2919, 0.2964, 0.2902, 0.2899, 0.2889, 0.2876, 0.31139999999999995, 0.2915, 0.3094, 0.2967, 0.29329999999999995, 0.29359999999999997, 0.3092, 0.2914, 0.2899, 0.5247, 0.29619999999999996, 0.3063, 0.2921, 0.4192, 0.2895, 0.2939, 0.2919, 0.2921, 0.2928, 0.2895, 0.2899, 0.3034, 0.30889999999999995, 0.2904, 0.29119999999999996, 0.2894, 0.2963, 0.314],
  "Depth": 32.0,
  "Expectation Value": -2.0,
  "Optimal Expectation Value": -2.0,
  "Optimizer durations [ms]": [3.879, 7.246, 12.88, 8.649, 6.961, 3.836, 3.499, 3.584, 3.506, 3.376, 3.379, 4.868, 8.638, 3.512, 3.536, 3.72, 3.376, 3.334, 3.36, 4.418, 3.367, 3.357, 3.342, 3.383, 3.402, 3.354, 3.318, 3.342, 3.472, 7.151, 3.393, 3.41, 3.328, 3.324, 3.31, 3.31, 3.556, 3.338, 3.642, 3.486, 3.415, 3.43, 3.53, 3.334, 3.32, 5.709, 3.524, 3.538, 3.366, 4.632, 3.358, 3.373, 3.366, 3.368, 3.369, 3.321, 3.348, 3.516, 3.544, 3.326, 3.36, 3.331, 3.398, 3.576],
  "Optimizer iterations": 64,
  "Optimizer params": [0.436585289700145, 0.6191926736023183, 0.2819988410775305, 0.22001305349986086, 0.750698039985045, 0.49600959434184827],
  "P": 3,
  "Problem": "MCP",
  "QJob durations [ms]": [0.3167, 0.6897, 0.2854, 0.35760000000000003, 0.6064, 0.31, 0.3001, 0.3028, 0.30069999999999997, 0.2903, 0.29159999999999997, 0.32039999999999996, 0.2919, 0.2973, 0.3019, 0.31930000000000003, 0.2908, 0.2879, 0.2887, 0.39239999999999997, 0.29109999999999997, 0.2887, 0.2882, 0.28909999999999997, 0.2898, 0.2886, 0.2874, 0.2883, 0.3024, 0.27080000000000004, 0.2919, 0.2964, 0.2902, 0.2899, 0.2889, 0.2876, 0.31139999999999995, 0.2915, 0.3094, 0.2967, 0.29329999999999995, 0.29359999999999997, 0.3092, 0.2914, 0.2899, 0.5247, 0.29619999999999996, 0.3063, 0.2921, 0.4192, 0.2895, 0.2939, 0.2919, 0.2921, 0.2928, 0.2895, 0.2899, 0.3034, 0.30889999999999995, 0.2904, 0.29119999999999996, 0.2894, 0.2963, 0.314],
  "QPU": "7000000",
  "Qubits": 3,
  "Queue durations [ms]": [0.0, 0.0, 0.0, 0.0, 0.0, 0.0, 0.0, 0.0, 0.0, 0.0, 0.0, 0.0, 0.0, 0.0, 0.0, 0.0, 0.0, 0.0, 0.0, 0.0, 0.0, 0.0, 0.0, 0.0, 0.0, 0.0, 0.0, 0.0, 0.0, 0.0, 0.0, 0.0, 0.0, 0.0, 0.0, 0.0, 0.0, 0.0, 0.0, 0.0, 0.0, 0.0, 0.0, 0.0, 0.0, 0.0, 0.0, 0.0, 0.0, 0.0, 0.0, 0.0, 0.0, 0.0, 0.0, 0.0, 0.0, 0.0, 0.0, 0.0, 0.0, 0.0, 0.0, 0.0],
  "Shots": 4096,
  "Size": 3,
  "Total Algorithm duration [s]": 0.256,
  "Total Classic duration [s]": 0.23587070000000002,
  "Total Quantum duration [s]": 0.0201293
}
