{
  "Circuit execution durations [ms]": [0.29819999999999997, 0.30610000000000004, 0.292, 0.3173, 0.297, 0.2877, 0.32449999999999996, 0.29500000000000004, 0.2921, 0.2915, 0.2901, 0.29050000000000004, 0.2888, 0.2899, 0.30519999999999997, 0.5626, 0.3247, 0.2972, 0.2878, 0.2923, 0.2901, 0.2904, 0.29050000000000004, 0.2915, 0.2546, 0.3055, 0.28850000000000003, 0.29050000000000004, 0.306, 0.2906, 0.2938, 0.2901, 0.2899, 0.2894, 0.2894, 0.28959999999999997, 0.2893, 0.29119999999999996, 0.28850000000000003, 0.30219999999999997, 0.2917, 0.29359999999999997, 0.29550000000000004, 0.2919, 0.2943, 0.2922, 0.29050000000000004, 0.3233, 0.23299999999999998, 0.29500000000000004, 0.2993, 0.2928, 0.29460000000000003, 0.2918, 0.29540000000000005, 0.2992, 0.2938, 0.5014000000000001, 0.32130000000000003, 0.30929999999999996, 0.29710000000000003, 0.2932, 0.2921, 0.2929, 0.2968, 0.5067, 0.3098, 0.3004, 0.3072, 0.3001, 0.2947, 0.2958, 0.2941, 0.29619999999999996, 0.2947, 0.2317, 0.31320000000000003, 0.29510000000000003, 0.4317],
  "Depth": 32.0,
  "Expectation Value": -2.0,
  "Optimal Expectation Value": -2.0,
  "Optimizer durations [ms]": [3.621, 3.629, 3.406, 3.64, 3.422, 3.33, 3.721, 3.474, 3.431, 3.389, 3.384, 3.395, 3.346, 3.362, 3.644, 6.089, 3.901, 3.445, 3.384, 3.478, 3.368, 3.371, 3.386, 3.391, 11.978, 3.61, 3.366, 3.388, 3.55, 3.38, 3.424, 4.391, 3.373, 3.361, 3.362, 3.355, 3.351, 3.365, 3.383, 6.569, 3.418, 3.49, 3.446, 3.382, 3.519, 3.388, 3.374, 3.716, 12.266, 5.935, 3.553, 3.375, 3.405, 3.378, 3.415, 3.457, 3.398, 5.221, 4.027, 3.663, 3.456, 3.45, 5.293, 3.416, 3.695, 5.534, 3.669, 3.503, 3.575, 3.495, 3.431, 3.399, 3.403, 3.434, 4.917, 9.059, 9.04, 3.47, 4.811],
  "Optimizer iterations": 79,
  "Optimizer params": [0.9186075834805644, 0.2519187919201027, 0.2795275470369901, 0.04326523136123556, 0.24918185979968746, 0.39272463984368594],
  "P": 3,
  "Problem": "MCP",
  "QJob durations [ms]": [0.29819999999999997, 0.30610000000000004, 0.292, 0.3173, 0.297, 0.2877, 0.32449999999999996, 0.29500000000000004, 0.2921, 0.2915, 0.2901, 0.29050000000000004, 0.2888, 0.2899, 0.30519999999999997, 0.5626, 0.3247, 0.2972, 0.2878, 0.2923, 0.2901, 0.2904, 0.29050000000000004, 0.2915, 0.2546, 0.3055, 0.28850000000000003, 0.29050000000000004, 0.306, 0.2906, 0.2938, 0.2901, 0.2899, 0.2894, 0.2894, 0.28959999999999997, 0.2893, 0.29119999999999996, 0.28850000000000003, 0.30219999999999997, 0.2917, 0.29359999999999997, 0.29550000000000004, 0.2919, 0.2943, 0.2922, 0.29050000000000004, 0.3233, 0.23299999999999998, 0.29500000000000004, 0.2993, 0.2928, 0.29460000000000003, 0.2918, 0.29540000000000005, 0.2992, 0.2938, 0.5014000000000001, 0.32130000000000003, 0.30929999999999996, 0.29710000000000003, 0.2932, 0.2921, 0.2929, 0.2968, 0.5067, 0.3098, 0.3004, 0.3072, 0.3001, 0.2947, 0.2958, 0.2941, 0.29619999999999996, 0.2947, 0.2317, 0.31320000000000003, 0.29510000000000003, 0.4317],
  "QPU": "7000000",
  "Qubits": 3,
  "Queue durations [ms]": [0.0, 0.0, 0.0, 0.0, 0.0, 0.0, 0.0, 0.0, 0.0, 0.0, 0.0, 0.0, 0.0, 0.0, 0.0, 0.0, 0.0, 0.0, 0.0, 0.0, 0.0, 0.0, 0.0, 0.0, 0.0, 0.0, 0.0, 0.0, 0.0, 0.0, 0.0, 0.0, 0.0, 0.0, 0.0, 0.0, 0.0, 0.0, 0.0, 0.0, 0.0, 0.0, 0.0, 0.0, 0.0, 0.0, 0.0, 0.0, 0.0, 0.0, 0.0, 0.0, 0.0, 0.0, 0.0, 0.0, 0.0, 0.0, 0.0, 0.0, 0.0, 0.0, 0.0, 0.0, 0.0, 0.0, 0.0, 0.0, 0.0, 0.0, 0.0, 0.0, 0.0, 0.0, 0.0, 0.0, 0.0, 0.0, 0.0],
  "Shots": 4096,
  "Size": 3,
  "Total Algorithm duration [s]": 0.32,
  "Total Classic duration [s]": 0.2959145,
  "Total Quantum duration [s]": 0.0240855
}
