{
  "Depth": 275.0,
  "Job durations [ms]": [91.93700000000001, 88.23, 88.14099999999999, 88.802, 88.84, 89.583, 89.744, 88.825, 89.22, 88.527, 89.726, 89.967, 89.338, 158.29399999999998, 88.224, 87.752, 88.587, 89.06400000000001, 88.545, 89.718, 88.172, 88.559, 89.18299999999999, 88.05499999999999, 88.51100000000001, 155.254, 87.435, 88.635, 88.235, 88.857, 88.184, 88.335, 88.196, 88.477, 88.063, 89.067, 88.776, 88.737, 155.682, 88.394, 88.972, 87.97399999999999, 87.16799999999999, 87.791, 87.012, 87.65100000000001, 86.46, 86.833, 86.755, 86.78800000000001, 153.488, 87.782, 88.17, 88.102, 88.834, 88.452, 88.465, 87.88, 88.759, 88.309, 90.158, 88.60600000000001, 155.835, 88.19200000000001, 89.67500000000001, 88.475, 90.032, 88.66300000000001, 89.992, 88.813, 89.512, 90.044, 88.54299999999999, 88.16, 153.527, 86.581, 87.432, 86.998, 87.062, 88.116, 86.946, 87.414, 87.434],
  "Optimizer durations [ms]": [120.872, 117.139, 116.937, 117.896, 117.824, 118.119, 118.168, 118.016, 118.07, 117.441, 118.49, 119.027, 118.098, 186.959, 117.141, 116.411, 117.759, 118.281, 116.87, 118.603, 116.88, 117.357, 117.801, 116.794, 117.456, 184.415, 116.774, 117.826, 116.895, 117.923, 116.711, 117.46, 117.604, 117.602, 116.823, 118.319, 117.517, 117.545, 184.413, 117.592, 117.372, 117.007, 115.263, 116.353, 115.425, 116.526, 115.312, 115.468, 115.547, 115.764, 181.95, 117.133, 118.68, 116.796, 117.667, 117.409, 117.421, 116.975, 117.772, 117.515, 119.133, 117.761, 184.944, 117.085, 118.212, 117.009, 118.902, 117.582, 119.098, 117.966, 118.557, 118.805, 116.802, 117.269, 182.149, 115.188, 116.077, 115.491, 115.686, 117.056, 115.373, 115.705, 115.314],
  "Optimizer iterations": 83,
  "Qubits": 15,
  "Total Algorithm duration [s]": 10.136,
  "Total Classic duration [s]": 2.3942739999999985,
  "Total Quantum duration [s]": 7.741726000000001,
  "Expectation Value": -18.3876953125,
  "Optimal Expectation Value": -22.0,
  "Optimizer params": [0.9823237608468872, 0.9223098224120655, 0.13900627410468158, 0.8799653089067834, 0.6336500735879455, 0.6859494026705196],
  "QPU": "9000001",
  "Problem": "MCP",
  "Size": 15,
  "P": 3,
  "Shots": 4096
}