{
  "Depth": 275.0,
  "Job durations [ms]": [90.26299999999999, 158.165, 88.131, 88.816, 88.409, 89.08000000000001, 87.77300000000001, 88.786, 89.122, 89.047, 88.52, 88.723, 88.324, 89.348, 89.158, 88.711, 88.71600000000001, 88.367, 87.85900000000001, 87.973, 86.93599999999999, 88.953, 88.16300000000001, 88.983, 154.501, 89.928, 88.169, 88.1, 86.851, 87.20899999999999, 87.23, 91.21, 88.565, 89.489, 87.753, 88.477, 158.395, 87.446, 88.587, 89.654, 88.051, 88.703, 89.514, 89.244, 88.324, 89.157, 87.309, 87.54599999999999, 153.95700000000002, 89.80799999999999, 88.488, 88.492, 87.945, 92.732, 86.958, 87.405, 86.89, 87.18599999999999, 87.603, 87.006, 156.07399999999998, 92.89999999999999, 89.068, 89.057, 89.279, 88.728, 89.90299999999999, 89.66300000000001, 90.411, 88.348, 91.774, 88.359, 154.875, 88.44, 89.25, 89.195, 88.30399999999999, 89.03, 90.681, 88.842, 89.634, 88.79299999999999, 89.725, 88.438, 157.10299999999998, 88.96900000000001, 88.316, 88.824, 89.885, 88.936],
  "Optimizer durations [ms]": [119.521, 186.848, 117.204, 117.977, 116.907, 118.063, 116.681, 117.885, 117.958, 118.04, 117.363, 117.497, 117.248, 184.456, 118.266, 117.506, 117.417, 116.483, 116.489, 116.106, 115.903, 118.536, 116.397, 117.554, 182.778, 118.861, 117.201, 116.863, 114.493, 115.791, 116.083, 120.025, 117.262, 118.686, 116.284, 118.732, 186.843, 116.494, 117.581, 118.593, 116.244, 117.264, 118.581, 118.234, 117.48, 118.27, 115.745, 116.762, 182.44, 119.2, 117.24, 117.47, 116.37, 121.618, 115.822, 116.285, 115.628, 115.786, 115.866, 115.603, 184.669, 121.779, 118.125, 118.148, 117.671, 117.091, 118.585, 118.686, 119.412, 117.596, 120.602, 117.362, 183.871, 117.621, 118.081, 118.371, 116.882, 117.457, 120.708, 118.053, 118.218, 117.964, 118.367, 117.466, 185.507, 118.276, 117.057, 117.973, 118.643, 117.352],
  "Optimizer iterations": 90,
  "Qubits": 15,
  "Total Algorithm duration [s]": 11.122,
  "Total Classic duration [s]": 2.6609880000000015,
  "Total Quantum duration [s]": 8.461011999999998,
  "Expectation Value": -19.8134765625,
  "Optimal Expectation Value": -22.0,
  "Optimizer params": [0.4455542372284887, 0.9738334440292401, 0.8874931596576854, 0.8248638242163732, 0.20787284243465667, 0.3122382961828234],
  "QPU": "9000001",
  "Problem": "MCP",
  "Size": 15,
  "P": 3,
  "Shots": 4096
}