{
  "Depth": 275.0,
  "Job durations [ms]": [87.379, 87.135, 87.607, 87.087, 87.33200000000001, 87.495, 87.155, 87.937, 86.987, 86.717, 86.279, 90.22099999999999, 157.44, 86.657, 86.953, 87.87599999999999, 87.321, 87.40299999999999, 87.985, 88.378, 87.91499999999999, 89.78, 87.726, 88.03099999999999, 87.99600000000001, 88.213, 87.488, 87.982, 87.84599999999999, 89.16799999999999, 87.792, 87.688, 87.927, 88.655, 89.389, 88.44200000000001, 87.124, 86.59400000000001, 87.129, 86.615, 87.532, 87.033, 87.605, 87.67, 87.282, 87.66300000000001, 87.818, 87.104, 86.625, 86.968, 87.497, 152.092, 86.673, 86.652, 86.358, 86.767, 87.20899999999999, 87.15, 87.034, 86.256, 87.47099999999999, 88.27799999999999, 88.28, 156.714, 89.503, 89.247, 88.377, 88.116, 89.80499999999999, 90.465, 88.795, 89.086, 87.673, 88.42899999999999, 87.976, 155.081, 89.938, 88.073, 88.791, 89.057, 88.128, 88.812, 88.333, 88.709, 87.94399999999999, 88.047, 87.248, 154.142, 86.576, 87.11000000000001, 87.875, 87.802, 87.253, 87.672, 88.087, 86.521, 86.327, 86.715, 87.97099999999999, 155.318],
  "Optimizer durations [ms]": [115.438, 115.404, 116.13, 115.935, 115.853, 116.208, 115.867, 116.284, 115.459, 115.405, 114.334, 122.34, 186.006, 115.377, 115.647, 116.643, 115.953, 116.076, 116.76, 117.583, 117.027, 118.828, 116.526, 116.517, 182.785, 117.619, 116.632, 116.94, 117.117, 118.033, 116.925, 116.883, 117.066, 117.444, 118.678, 117.506, 115.627, 115.311, 115.802, 114.621, 180.44, 115.041, 116.409, 116.271, 115.919, 115.6, 115.913, 115.181, 115.24, 115.889, 116.534, 180.662, 115.904, 115.229, 115.084, 114.701, 116.342, 115.304, 115.034, 115.043, 115.41, 117.188, 117.259, 185.683, 118.181, 118.116, 117.333, 117.06, 118.567, 119.464, 117.69, 118.208, 117.022, 117.64, 117.102, 183.886, 118.667, 116.495, 117.816, 118.383, 117.118, 117.733, 117.213, 117.929, 117.117, 117.321, 116.556, 182.527, 115.024, 115.162, 116.371, 116.596, 116.251, 116.461, 116.295, 115.378, 115.444, 115.419, 117.205, 183.869],
  "Optimizer iterations": 100,
  "Qubits": 15,
  "Total Algorithm duration [s]": 12.19,
  "Total Classic duration [s]": 3.0084230000000023,
  "Total Quantum duration [s]": 9.181576999999997,
  "Expectation Value": -19.3154296875,
  "Optimal Expectation Value": -22.0,
  "Optimizer params": [0.6351917647051807, 0.8128392086539004, 0.6593232310607479, 0.9179707892440672, 0.4608519981770296, 0.3771629216749932],
  "QPU": "9000001",
  "Problem": "MCP",
  "Size": 15,
  "P": 3,
  "Shots": 4096
}