{
  "Circuit execution durations [ms]": [164804.7070503235, 165776.11112594604, 162509.3297958374, 162907.17792510986, 163894.48285102844, 162563.61484527588, 161491.2097454071, 161316.734790802, 161539.27993774414, 161233.00886154175, 162344.16270256042, 160788.30766677856, 162240.8106327057, 161557.17015266418, 162270.4894542694, 162158.1678390503, 160803.44009399414, 162552.18863487244, 161829.21934127808, 163163.62380981445, 163299.02005195618, 164284.85798835754, 164755.10692596436, 163372.56336212158, 162880.0220489502, 160935.43314933777, 161550.8849620819, 161964.35165405273, 161610.95666885376, 161511.88468933105, 161005.97405433655, 162740.79179763794, 161776.2644290924, 161434.4301223755, 161694.32425498962, 163526.75819396973, 161537.39404678345, 161340.05546569824, 161833.91451835632, 161979.45141792297, 161869.87280845642, 161796.20122909546, 161834.76901054382, 161684.04984474182, 161454.53357696533, 161487.01429367065, 162491.16730690002, 163006.502866745, 161745.8348274231, 162005.0666332245, 162314.22805786133, 161160.96949577332, 162396.00610733032, 161804.92401123047, 161349.33400154114, 160938.17234039307, 160966.8366909027, 162640.9285068512, 161112.41126060486, 162012.305021286, 162417.875289917, 161417.20628738403, 162018.30625534058, 162449.54705238342, 162374.31836128235, 162741.9810295105, 161814.608335495, 35889225.15845299, 164472.80716896057, 166669.17490959167, 166693.4094429016, 162445.59478759766, 162317.88730621338, 163663.54203224182, 162720.92270851135, 161643.65458488464, 160355.70859909058, 161163.60926628113, 162357.6157093048, 161284.7580909729, 160050.07314682007, 161240.53835868835, 161368.41654777527, 161491.03021621704],
  "Depth": 257.0,
  "Expectation Value": -18.29638671875,
  "Optimal Expectation Value": -20.0,
  "Optimizer durations [ms]": [169115.561, 170153.436, 166797.472, 167233.285, 168173.601, 166849.922, 165779.386, 165587.449, 165807.162, 165524.176, 166631.498, 165126.059, 166509.447, 165845.55, 166583.255, 166445.411, 165069.42, 166827.755, 166112.421, 167443.152, 167661.482, 168585.388, 169135.906, 167682.254, 167277.652, 165263.7, 165863.34, 166268.047, 165909.15, 165858.29, 165318.688, 167002.579, 166105.89, 165727.69, 166028.724, 167789.211, 165812.652, 165629.74, 166169.642, 166281.491, 166150.318, 166056.983, 166099.888, 166009.56, 165723.037, 165747.41, 166796.562, 167280.921, 166022.069, 166275.621, 166586.95, 165446.57, 166695.479, 166120.187, 165661.363, 165253.223, 165322.655, 166926.419, 165399.016, 166333.763, 166697.568, 165819.209, 166355.778, 166769.102, 166686.444, 167045.555, 166161.958, 35893711.686, 168753.112, 170971.251, 171046.712, 166828.425, 166625.591, 167944.181, 166990.729, 165972.901, 164626.582, 165453.249, 166654.179, 165586.896, 164351.302, 165531.652, 165627.166, 165753.089],
  "Optimizer iterations": 84,
  "Optimizer params": [0.3717655012159627, 0.9116026789691083, 0.2493752030243977, 0.5300248831515096, 0.470518778213311, 0.6314661944049428],
  "P": 3,
  "Problem": "MCP",
  "QJob durations [ms]": [169094.74301338196, 170087.0246887207, 166777.87733078003, 167212.3987674713, 168153.13601493835, 166829.16569709778, 165758.47935676575, 165567.05117225647, 165785.5942249298, 165503.2856464386, 166604.60829734802, 165105.22270202637, 166488.4569644928, 165823.98891448975, 166562.2763633728, 166424.41868782043, 165048.43378067017, 166806.41341209412, 166091.3920402527, 167422.42097854614, 167640.55681228638, 168564.15677070618, 169114.5884990692, 167660.47358512878, 167211.47537231445, 165243.15857887268, 165842.90170669556, 166247.70426750183, 165888.10348510742, 165837.77618408203, 165298.35414886475, 166982.03897476196, 166085.27636528015, 165706.9845199585, 166008.34918022156, 167768.89657974243, 165792.08707809448, 165609.68923568726, 166148.9896774292, 166254.25672531128, 166129.71210479736, 166036.08965873718, 166079.4162750244, 165989.1836643219, 165702.60000228882, 165727.61225700378, 166768.80884170532, 167260.68902015686, 166001.61600112915, 166255.024433136, 166566.74027442932, 165425.9693622589, 166675.03094673157, 166099.59077835083, 165640.59948921204, 165232.58066177368, 165257.39884376526, 166905.46584129333, 165378.37719917297, 166313.09127807617, 166677.13618278503, 165798.93231391907, 166335.768699646, 166749.02939796448, 166666.0873889923, 167025.5789756775, 166140.88797569275, 35893690.11878967, 168732.12027549744, 170950.6664276123, 171019.50883865356, 166807.25932121277, 166605.31091690063, 167923.74563217163, 166969.97380256653, 165952.7599811554, 164605.69834709167, 165432.64436721802, 166634.39083099365, 165522.8409767151, 164330.67798614502, 165511.21258735657, 165606.76860809326, 165732.47146606445],
  "QPU": "6010013",
  "Qubits": 14,
  "Queue durations [ms]": [0.0, 0.0, 0.0, 0.0, 0.0, 0.0, 0.0, 0.0, 0.0, 0.0, 0.0, 0.0, 0.0, 0.0, 0.0, 0.0, 0.0, 0.0, 0.0, 0.0, 0.0, 0.0, 0.0, 0.0, 0.0, 0.0, 0.0, 0.0, 0.0, 0.0, 0.0, 0.0, 0.0, 0.0, 0.0, 0.0, 0.0, 0.0, 0.0, 0.0, 0.0, 0.0, 0.0, 0.0, 0.0, 0.0, 0.0, 0.0, 0.0, 0.0, 0.0, 0.0, 0.0, 0.0, 0.0, 0.0, 0.0, 0.0, 0.0, 0.0, 0.0, 0.0, 0.0, 0.0, 0.0, 0.0, 0.0, 0.0, 0.0, 0.0, 0.0, 0.0, 0.0, 0.0, 0.0, 0.0, 0.0, 0.0, 0.0, 0.0, 0.0, 0.0, 0.0, 0.0],
  "Shots": 4096,
  "Size": 14,
  "Total Algorithm duration [s]": 49714.86,
  "Total Classic duration [s]": 1.9406071758276084,
  "Total Quantum duration [s]": 49712.91939282417
}
