{
  "Circuit execution durations [ms]": [54.51369285583496, 58.29966068267822, 55.26375770568848, 78.12511920928955, 53.755998611450195, 54.74138259887695, 57.00647830963135, 56.322574615478516, 78.49359512329102, 59.03911590576172, 54.059743881225586, 54.25381660461426, 57.28626251220703, 55.03344535827637, 83.96744728088379, 54.43704128265381, 53.50017547607422, 54.56972122192383, 57.03568458557129, 77.72016525268555, 54.072022438049316, 51.74112319946289, 54.50260639190674, 54.7257661819458, 55.211782455444336, 80.57761192321777, 52.64925956726074, 58.002591133117676, 57.898640632629395, 54.583191871643066, 77.79181003570557, 58.48574638366699, 54.65972423553467, 55.69350719451904, 55.046796798706055, 54.24618721008301, 80.95967769622803, 55.15623092651367, 52.35469341278076, 54.57162857055664],
  "Depth": 2.0,
  "Expectation Value": -1.7164127826690674,
  "Optimal Expectation Value": -1.746999979019165,
  "Optimizer durations [ms]": [551.716, 603.129, 554.268, 552.995, 549.867, 591.17, 552.075, 556.688, 596.499, 560.64, 545.788, 550.571, 600.44, 549.83, 562.985, 550.95, 590.585, 546.389, 555.695, 595.503, 556.085, 540.634, 550.246, 600.83, 550.007, 559.668, 546.345, 599.151, 554.02, 551.725, 595.874, 561.363, 547.506, 554.465, 600.768, 547.993, 556.882, 552.508, 589.318, 547.868],
  "Optimizer iterations": 40,
  "Optimizer params": [0.9960742778148368, 0.4979482679375611, 0.9967387964293429],
  "P": 0,
  "Problem": "RH",
  "QJob durations [ms]": [62.75177001953125, 66.5128231048584, 63.382625579833984, 86.2894058227539, 61.900973320007324, 62.917232513427734, 65.20318984985352, 64.56220149993896, 86.8159532546997, 67.19589233398438, 62.2251033782959, 62.44552135467529, 65.51527976989746, 63.19880485534668, 92.19861030578613, 62.67869472503662, 61.68925762176514, 62.769532203674316, 65.20891189575195, 85.90853214263916, 62.259674072265625, 59.900760650634766, 62.665343284606934, 63.04430961608887, 63.378214836120605, 88.70995044708252, 60.84620952606201, 66.18285179138184, 66.04158878326416, 62.752723693847656, 85.95478534698486, 66.89488887786865, 62.923550605773926, 65.22846221923828, 63.22026252746582, 62.43705749511719, 89.50221538543701, 63.301920890808105, 60.58025360107422, 63.018202781677246],
  "QPU": "3000013",
  "Qubits": 3,
  "Queue durations [ms]": [0.0, 0.0, 0.0, 0.0, 0.0, 0.0, 0.0, 0.0, 0.0, 0.0, 0.0, 0.0, 0.0, 0.0, 0.0, 0.0, 0.0, 0.0, 0.0, 0.0, 0.0, 0.0, 0.0, 0.0, 0.0, 0.0, 0.0, 0.0, 0.0, 0.0, 0.0, 0.0, 0.0, 0.0, 0.0, 0.0, 0.0, 0.0, 0.0, 0.0],
  "Shots": 4096,
  "Size": 3,
  "Total Algorithm duration [s]": 22.581,
  "Total Classic duration [s]": 19.87078645801544,
  "Total Quantum duration [s]": 2.710213541984558
}
