{
  "Depth": 401.0,
  "Expectation Value": -1.9274691343307495,
  "Job durations [ms]": [139328.83286476135, 140576.59554481506, 138540.0824546814, 137990.36574363708, 138123.15797805786, 140231.81176185608, 139842.17643737793, 139807.70564079285, 140356.57024383545, 139602.41103172302, 139665.22932052612, 29309174.191474915, 139501.71780586243, 141862.00404167175, 140717.41271018982, 140176.75614356995, 140232.79929161072, 138345.26300430298, 140073.19974899292, 139723.1888771057, 143345.0219631195, 142734.95817184448, 141627.0945072174, 139879.26983833313, 141125.77748298645, 141956.47716522217, 139295.8812713623, 140803.65586280823, 141480.0009727478, 139653.63335609436, 139810.0187778473, 139041.87726974487, 141848.62542152405, 138238.3370399475, 140658.1470966339, 140643.32342147827, 140676.87582969666, 139541.55659675598, 142119.34661865234, 140358.08992385864, 142326.24769210815, 141672.98913002014, 142341.54558181763, 144015.9113407135, 142318.94278526306, 146199.00131225586, 143151.44395828247, 139873.1279373169, 139787.12272644043, 140837.23044395447, 141976.6709804535, 139707.8619003296, 141411.80229187012, 140692.08908081055, 138892.46916770935, 137653.62739562988, 139147.38035202026, 138790.70711135864, 138405.71808815002, 138401.41534805298, 140994.49920654297, 141675.05049705505, 141367.06590652466, 142553.77650260925, 139682.03353881836, 140617.2661781311, 140157.77802467346, 145241.81008338928, 139755.75733184814, 138485.53895950317, 143956.49099349976, 141881.20651245117, 140410.96472740173, 142941.45584106445, 139549.1967201233, 137896.5425491333, 138697.2529888153, 140573.70948791504, 142783.11681747437, 140698.62341880798, 144600.97527503967, 145072.97778129578, 144796.1082458496, 145187.837600708, 144786.99278831482, 151212.9511833191, 141514.51086997986, 141282.61423110962, 141793.6246395111, 138470.20077705383, 146571.35367393494, 140920.87626457214, 146197.3044872284, 140398.01597595215, 139114.77899551392, 143992.75040626526, 143343.38641166687, 140203.29475402832, 139015.37489891052, 138766.89624786377, 139495.19681930542, 139484.8062992096, 139285.2966785431, 140175.28104782104, 138950.23918151855, 140023.20790290833, 140232.69152641296, 138850.1980304718, 139269.87767219543, 138861.20057106018, 138657.0816040039, 140159.7671508789, 139242.6323890686, 139477.84757614136, 138374.12905693054, 140851.3994216919, 139214.5209312439, 139520.8978652954, 138853.8200855255, 139474.4038581848, 139527.73690223694, 139577.71396636963, 141426.3255596161, 138033.4005355835, 138830.20091056824, 139974.40099716187],
  "Optimal Expectation Value": -2.0,
  "Optimizer durations [ms]": [158863.101, 160239.443, 158081.949, 157547.979, 157686.904, 159831.338, 159445.847, 159508.859, 160042.504, 159212.162, 159171.427, 29328755.11, 159163.024, 161774.965, 160322.357, 159698.695, 160081.703, 157862.185, 159568.603, 159342.376, 162965.555, 162437.519, 161458.87, 159782.0, 160894.95, 161690.126, 159049.128, 160620.894, 161118.604, 159371.036, 159434.278, 158718.503, 161536.729, 158024.751, 160358.648, 160296.811, 160754.936, 159446.211, 162120.846, 160399.532, 162441.179, 161757.851, 162378.888, 164220.705, 162528.614, 165939.405, 164347.506, 159367.858, 159505.712, 160619.082, 161827.862, 159700.509, 161167.947, 160292.889, 158429.06, 156539.622, 158849.007, 158339.882, 157923.686, 158013.347, 160563.897, 161404.953, 160959.505, 162165.113, 159324.987, 160448.382, 159941.631, 165415.988, 159306.814, 158061.253, 163493.649, 162631.63, 160303.975, 162746.36, 159077.576, 157622.957, 158223.381, 160316.696, 162712.432, 160516.327, 165385.897, 165681.071, 165156.082, 165690.606, 165814.506, 171525.424, 161782.156, 161150.287, 161970.8, 158521.693, 166883.831, 160835.515, 166351.973, 160485.728, 158794.425, 163794.219, 163326.364, 160106.085, 158781.812, 158374.257, 159308.742, 159189.67, 158847.622, 159952.101, 158744.596, 159523.988, 160059.306, 158441.805, 158958.594, 158580.695, 157991.083, 159640.623, 158676.298, 159005.804, 157973.185, 160339.245, 158837.023, 159076.065, 158398.93, 158979.847, 158930.253, 159113.002, 160886.168, 157637.718, 158384.188, 159456.771],
  "Optimizer iterations": 126,
  "Optimizer params": [0.9997448384243194, 0.1447444292866637, 0.00900810049709325, 0.614729282543405, 0.2617301769878241, 0.39434932222386165],
  "P": 3,
  "Problem": "MIS",
  "QPU": "6010003",
  "Qubits": 10,
  "Shots": 4096,
  "Size": 7,
  "Total Algorithm duration [s]": 49391.454,
  "Total Classic duration [s]": 2492.155018333433,
  "Total Quantum duration [s]": 46899.298981666565
}
