{
  "Circuit execution durations [ms]": [44.45624351501465, 57.28471279144287, 44.041991233825684, 56.61976337432861, 44.46876049041748, 44.704556465148926, 44.80862617492676, 44.5021390914917, 44.39270496368408, 45.249223709106445, 44.0218448638916, 48.161864280700684, 44.61479187011719, 44.506192207336426, 45.1655387878418, 45.07720470428467, 44.83211040496826, 44.761061668395996, 44.52347755432129, 44.25621032714844, 44.05057430267334, 44.89612579345703, 44.909000396728516, 44.80898380279541, 45.06480693817139, 58.55083465576172, 44.71242427825928, 44.80910301208496, 44.23642158508301, 44.47972774505615, 44.2887544631958, 44.436097145080566, 44.12245750427246, 44.211626052856445, 43.91622543334961, 44.15392875671387, 43.71750354766846, 44.20042037963867, 44.11947727203369, 43.80190372467041, 43.668389320373535, 44.731855392456055, 44.47376728057861, 43.718695640563965, 44.368863105773926, 43.912649154663086, 56.54430389404297, 44.550299644470215, 56.594014167785645, 43.81382465362549, 43.5943603515625, 43.43152046203613, 44.16632652282715, 48.13253879547119, 45.22359371185303, 43.56026649475098, 43.830037117004395, 44.143080711364746, 45.35794258117676, 43.23375225067139, 44.73674297332764, 43.68889331817627, 44.1744327545166, 43.86782646179199, 44.6629524230957, 44.266581535339355, 44.13473606109619, 44.066548347473145, 56.33819103240967, 43.53296756744385, 56.25724792480469, 44.518470764160156, 44.318199157714844, 44.01099681854248, 44.229984283447266, 44.422149658203125, 45.50015926361084, 44.19147968292236, 44.69776153564453, 44.8305606842041, 44.11590099334717, 45.17769813537598, 43.84160041809082, 44.43526268005371, 44.39735412597656, 44.32368278503418, 44.09623146057129, 44.621825218200684, 44.597744941711426, 44.20268535614014, 44.007182121276855, 57.61981010437012, 44.07358169555664, 44.10982131958008, 44.660091400146484, 43.96641254425049, 48.532724380493164, 44.89624500274658, 44.74747180938721, 44.402360916137695, 44.12245750427246, 44.49319839477539, 44.469475746154785, 44.10099983215332, 43.77889633178711, 44.516682624816895],
  "Depth": 6.5,
  "Expectation Value": -2.20458984375,
  "Optimal Expectation Value": -2.2360680103302,
  "Optimizer durations [ms]": [7940.974, 7922.214, 8594.393, 8257.839, 8259.285, 8098.399, 7951.012, 8252.398, 8881.887, 8232.753, 8306.177, 8042.346, 7831.904, 8003.208, 7976.831, 8306.502, 8205.235, 9109.369, 8144.034, 8037.753, 8075.498, 8135.176, 8264.886, 8139.16, 8253.977, 8150.634, 8006.629, 8286.841, 8700.265, 8222.655, 8028.211, 8186.632, 8441.399, 8233.228, 8111.884, 8109.831, 9001.391, 8332.011, 8054.427, 8223.364, 8074.478, 8045.592, 8177.79, 8289.822, 8071.642, 8070.112, 7841.081, 9020.024, 8086.484, 8026.755, 13287.085, 8282.687, 8578.44, 8132.85, 7940.074, 7798.125, 7949.916, 8201.998, 8042.002, 8088.722, 8413.323, 8347.509, 8289.826, 10204.663, 8475.043, 8054.545, 8102.975, 8239.944, 8224.146, 8461.826, 8219.728, 8526.425, 8190.644, 8024.637, 9136.586, 8602.553, 8127.886, 8173.501, 9809.884, 8532.763, 8019.113, 7968.665, 8115.843, 8847.209, 8318.086, 7971.094, 8028.775, 8125.955, 8533.307, 7938.814, 7885.78, 8029.157, 8058.386, 8742.327, 8337.332, 8324.471, 8037.134, 8197.012, 7832.039, 8248.809, 8191.186, 8051.664, 7970.355, 8921.821, 8194.101, 8218.729],
  "Optimizer iterations": 106,
  "Optimizer params": [0.43507765130805054, 0.9994845355621799, 0.41001125667284033, 0.8034475534433506, 0.5059578005367618, 0.47756779756763623, 0.4864382229179759, 0.8961818946760011],
  "P": 0,
  "Problem": "IC",
  "QJob durations [ms]": [3961.4391326904297, 3950.517416000366, 4287.369251251221, 4119.245767593384, 4120.310544967651, 4040.0118827819824, 3966.3491249084473, 4116.824746131897, 4431.235313415527, 4106.770992279053, 4143.300533294678, 4011.9614601135254, 3905.550241470337, 3991.8609857559204, 3978.1922101974487, 4143.50438117981, 4092.2117233276367, 4545.459747314453, 4062.3221397399902, 4009.4975233078003, 4028.0390977859497, 4045.774221420288, 4123.168468475342, 4047.8010177612305, 4117.13981628418, 4066.009998321533, 3992.773175239563, 4133.637428283691, 4339.802026748657, 4101.908087730408, 4004.181146621704, 4083.0774307250977, 4210.766553878784, 4105.812311172485, 4046.5314388275146, 4045.6305742263794, 4491.389989852905, 4156.460285186768, 4016.875386238098, 4101.817011833191, 4027.367115020752, 4012.7129554748535, 4067.4402713775635, 4135.528802871704, 4013.396739959717, 4025.1193046569824, 3910.869836807251, 4499.988079071045, 4033.4339141845703, 4003.5996437072754, 6632.53927230835, 4131.005525588989, 4279.448747634888, 4056.502103805542, 3959.4212770462036, 3889.3063068389893, 3965.098023414612, 4091.268539428711, 4011.1206769943237, 4034.5306396484375, 4196.869134902954, 4164.284706115723, 4134.484052658081, 5092.008352279663, 4227.577447891235, 4017.1351432800293, 4028.7307500839233, 4110.141277313232, 4102.314829826355, 4220.98982334137, 4100.417137145996, 4253.218173980713, 4085.7657194137573, 4002.686381340027, 4558.682680130005, 4290.521860122681, 4054.4066429138184, 4076.2734413146973, 4895.210027694702, 4256.821632385254, 4000.0237226486206, 3973.9277362823486, 4047.7778911590576, 4413.80512714386, 4149.298906326294, 3975.383758544922, 4004.5052766799927, 4040.90678691864, 4256.559371948242, 3947.3947286605835, 3932.920455932617, 4004.7799348831177, 4019.176125526428, 4360.989093780518, 4158.487319946289, 4152.8143882751465, 4009.130120277405, 4088.8724327087402, 3906.474709510803, 4114.558219909668, 4086.0486030578613, 4016.3053274154663, 3975.1670360565186, 4450.695753097534, 4087.4218940734863, 4099.6822118759155],
  "QPU": "6000004",
  "Qubits": 2,
  "Queue durations [ms]": [0.0, 0.0, 0.0, 0.0, 0.0, 0.0, 0.0, 0.0, 0.0, 0.0, 0.0, 0.0, 0.0, 0.0, 0.0, 0.0, 0.0, 0.0, 0.0, 0.0, 0.0, 0.0, 0.0, 0.0, 0.0, 0.0, 0.0, 0.0, 0.0, 0.0, 0.0, 0.0, 0.0, 0.0, 0.0, 0.0, 0.0, 0.0, 0.0, 0.0, 0.0, 0.0, 0.0, 0.0, 0.0, 0.0, 0.0, 0.0, 0.0, 0.0, 0.0, 0.0, 0.0, 0.0, 0.0, 0.0, 0.0, 0.0, 0.0, 0.0, 0.0, 0.0, 0.0, 0.0, 0.0, 0.0, 0.0, 0.0, 0.0, 0.0, 0.0, 0.0, 0.0, 0.0, 0.0, 0.0, 0.0, 0.0, 0.0, 0.0, 0.0, 0.0, 0.0, 0.0, 0.0, 0.0, 0.0, 0.0, 0.0, 0.0, 0.0, 0.0, 0.0, 0.0, 0.0, 0.0, 0.0, 0.0, 0.0, 0.0, 0.0, 0.0, 0.0, 0.0, 0.0, 0.0],
  "Shots": 4096,
  "Size": 2,
  "Total Algorithm duration [s]": 880.585,
  "Total Classic duration [s]": 441.42112549304966,
  "Total Quantum duration [s]": 439.1638745069504
}
