{
  "Circuit execution durations [ms]": [4928.599119186401, 5009.086608886719, 4910.278558731079, 4929.732322692871, 4976.6130447387695, 4958.195924758911, 5018.205404281616, 4846.177339553833, 5088.333606719971, 5077.929735183716, 4937.171936035156, 4886.121511459351, 4893.3398723602295, 4973.7708568573, 5083.603620529175, 4934.893369674683, 5139.638662338257, 5728.470087051392, 5153.477430343628, 5023.713111877441, 4962.258100509644, 5050.196647644043, 5045.117378234863, 5009.0484619140625, 4977.784633636475, 4869.937896728516, 5068.002462387085, 4854.288339614868, 4886.917591094971, 5086.544752120972, 4980.572938919067, 4912.247896194458, 4970.531702041626, 4946.829795837402, 4916.121482849121, 5666.249513626099, 5549.939870834351, 5634.242057800293, 5021.739721298218, 5002.437353134155, 4886.726379394531, 5019.047737121582, 5049.226760864258, 5618.906021118164, 5686.69056892395, 4872.839450836182, 5023.989677429199, 5844.73180770874, 4991.950035095215, 4932.253122329712, 4971.864700317383, 5028.377056121826, 4952.678918838501, 5141.668319702148, 4948.741674423218, 4911.540508270264, 5767.069101333618, 5064.854145050049, 4865.442752838135, 5021.748065948486, 4913.9463901519775, 4939.489126205444, 4925.1463413238525, 4980.82423210144, 4953.773498535156, 4837.824821472168, 4954.218149185181, 5057.293653488159, 4909.548759460449, 4970.285654067993, 5666.086196899414, 5002.020359039307, 4912.325143814087, 4900.994062423706, 4960.530757904053, 4974.6458530426025, 5048.59471321106, 4931.480169296265, 5020.004510879517, 4990.547657012939, 4970.277547836304, 5011.926889419556, 5009.07301902771, 4916.234016418457, 4921.677112579346, 4991.748332977295, 4987.299680709839, 5146.207809448242, 4944.7338581085205, 4945.851802825928, 5790.356636047363, 4931.088924407959, 5640.02799987793],
  "Depth": 41.0,
  "Expectation Value": -2.5966796875,
  "Optimal Expectation Value": -4.0,
  "Optimizer durations [ms]": [16796.629, 21551.408, 22733.157, 16109.102, 21417.444, 21149.228, 16801.296, 27047.737, 15138.241, 21893.973, 16889.802, 21482.621, 22189.095, 17588.857, 21581.682, 21013.279, 20995.882, 124432.816, 21280.005, 21814.631, 21829.398, 27824.922, 21510.211, 17597.652, 21827.609, 21503.876, 16183.54, 22757.616, 16969.073, 20792.772, 23481.679, 16346.952, 22120.516, 17146.28, 22179.64, 21806.364, 17582.133, 21539.32, 16685.716, 22425.158, 18193.973, 21230.115, 40065.169, 21989.997, 16384.926, 22633.635, 20786.891, 16589.243, 21500.484, 23223.924, 15972.269, 22143.25, 16363.802, 22241.016, 21400.26, 16799.143, 22113.917, 22937.358, 15564.785, 22232.086, 16372.875, 22225.302, 20279.685, 22218.798, 16113.72, 21665.948, 21094.961, 22015.259, 15572.008, 21297.371, 22857.224, 16485.739, 41761.295, 17198.123, 64192.117, 15579.265, 60616.672, 22284.842, 27974.349, 20422.251, 20275.369, 21238.139, 21748.353, 39728.168, 18224.516, 21495.463, 15986.287, 21052.305, 22852.875, 28189.562, 21077.668, 21929.097, 16074.214],
  "Optimizer iterations": 93,
  "Optimizer params": [0.6463175510236608, 0.9801760183890499, 0.24536006340960578, 0.6414023519754194, 0.6258317484543109, 0.9602959814646661],
  "P": 3,
  "Problem": "MCP",
  "QJob durations [ms]": [16749.051332473755, 21497.36475944519, 22665.3048992157, 16036.851644515991, 21339.054346084595, 21063.624620437622, 16667.187213897705, 26979.5401096344, 15074.516534805298, 21832.310676574707, 16815.147638320923, 21354.640245437622, 22132.498502731323, 17527.400255203247, 21519.188165664673, 20938.55881690979, 20870.447158813477, 124375.04124641418, 21226.374626159668, 21753.349781036377, 21749.70006942749, 27768.84961128235, 21455.960988998413, 17517.03906059265, 21753.607034683228, 21448.344707489014, 16124.767780303955, 22695.50919532776, 16888.046264648438, 20733.39867591858, 23421.260356903076, 16261.956214904785, 21990.238904953003, 17095.805644989014, 22115.55242538452, 21747.737407684326, 17526.968955993652, 21392.66037940979, 16600.207805633545, 22372.254133224487, 18130.06591796875, 21146.520376205444, 39929.63171005249, 21933.97831916809, 16327.911853790283, 22574.244737625122, 20727.29730606079, 16529.6893119812, 21444.04435157776, 23169.432640075684, 15915.648460388184, 22086.716413497925, 16311.833143234253, 22173.260927200317, 21348.148345947266, 16744.13824081421, 22057.605028152466, 22881.799697875977, 15431.85806274414, 22175.557374954224, 16317.25263595581, 22168.980598449707, 20218.069076538086, 22081.618785858154, 16035.06588935852, 21608.856916427612, 21039.79229927063, 21960.51836013794, 15441.340923309326, 21231.321811676025, 22795.31693458557, 16428.763151168823, 41701.76863670349, 17072.859048843384, 64118.274211883545, 15517.979860305786, 60558.52484703064, 22218.579292297363, 27893.68176460266, 20359.45749282837, 20189.024686813354, 21177.0601272583, 21664.036512374878, 39672.64699935913, 18166.751861572266, 21438.145875930786, 15930.384874343872, 20993.802309036255, 22780.994176864624, 28051.105737686157, 20998.6629486084, 21846.632957458496, 16016.823291778564],
  "QPU": "4020020",
  "Qubits": 4,
  "Queue durations [ms]": [474.0, 709.0, 576.0, 1404.0, 795.0, 2163.0, 585.0, 614.0, 766.0, 748.0, 912.0, 809.0, 592.0, 915.0, 574.0, 880.0, 777.0, 104720.0, 4913.0, 581.0, 2341.0, 3130.0, 562.0, 1168.0, 738.0, 615.0, 3424.0, 874.0, 1275.0, 702.0, 869.0, 706.0, 829.0, 563.0, 1045.0, 1012.9999999999999, 769.0, 821.0, 747.0, 757.0, 951.0, 2171.0, 20509.0, 499.0, 813.0, 971.0, 685.0, 786.0, 1014.9999999999999, 936.0, 687.0, 733.0, 900.0, 682.0, 859.0, 537.0, 934.0, 1051.0, 777.0, 817.0, 554.0, 903.0, 720.0, 492.0, 540.0, 596.0, 918.0, 633.0, 916.0, 966.0, 731.0, 948.0, 744.0, 664.0, 38957.0, 2792.0, 770.0, 908.0, 5689.0, 595.0, 4026.0, 5515.0, 3572.0, 15883.0, 2537.0, 4080.0, 3136.0, 868.0, 5954.0, 5726.0, 729.0, 682.0, 887.0],
  "Shots": 4096,
  "Size": 4,
  "Total Algorithm duration [s]": 2138.483,
  "Total Classic duration [s]": 6.672204692840751,
  "Total Quantum duration [s]": 2131.8107953071594
}
