{
  "Circuit execution durations [ms]": [26.419703, 57.078345000000006, 45.964236, 41.703838, 53.740145000000005, 56.065205999999996, 48.410874, 25.976301, 27.556672000000002, 26.68167, 26.686275, 26.242145, 26.903414, 26.647541, 27.575029, 27.532194999999998, 26.277366, 26.353367, 54.04625, 44.334906000000004, 54.117931, 26.400924, 28.398029, 26.510053, 53.81167, 30.916779, 26.503471, 26.520128, 54.602332000000004, 26.561296000000002, 26.597092999999997, 26.295582000000003, 26.137195, 26.613467, 54.043927, 26.715122, 26.373092, 54.631704000000006, 26.038942, 26.244963, 26.112024, 27.068169, 26.112707, 26.526322, 26.412991, 26.422739, 26.657773, 26.819025, 26.189985, 54.515063000000005, 26.944891, 26.524684999999998, 26.385423000000003, 47.026284000000004, 26.443607, 54.188295, 54.323149, 54.425108, 46.366108000000004, 26.083748, 26.285862, 54.818526, 29.154773, 27.072732, 26.530330000000003, 28.382915, 55.209769, 26.833148, 26.616238, 26.315686000000003, 26.415265, 26.222171999999997, 26.065910000000002, 26.602921000000002, 27.477453, 54.18324, 26.254136000000003, 26.401294, 26.396561, 26.355719, 54.616567999999994],
  "Depth": 221.0,
  "Expectation Value": -14.685546875,
  "Optimal Expectation Value": -18.0,
  "Optimizer durations [ms]": [8221.705, 70765.192, 7718.454, 8352.963, 35846.066, 8292.728, 8162.74, 7330.304, 46194.363, 8193.357, 8627.75, 76460.268, 24103.688, 8284.152, 8600.002, 25003.534, 72569.546, 9376.047, 9490.336, 10719.903, 9175.71, 9407.842, 7844.919, 8783.288, 7413.94, 12165.763, 18191.797, 29486.889, 8763.494, 7598.256, 7971.535, 15080.458, 25119.053, 8112.404, 8840.53, 11902.918, 9188.994, 8087.399, 7332.257, 20409.564, 9570.54, 79382.83, 7925.815, 7851.948, 10344.5, 8122.851, 31912.145, 14632.136, 34210.496, 11755.235, 9139.804, 9106.116, 12308.985, 9971.595, 36012.614, 35339.344, 9015.517, 11604.597, 9687.084, 86364.326, 8254.599, 9258.336, 8655.882, 7408.146, 7575.116, 11503.575, 62548.288, 26620.516, 13171.736, 15384.879, 8515.64, 9011.371, 66159.922, 32046.545, 13142.662, 10562.945, 35420.872, 12030.775, 7336.252, 6967.868, 8255.851],
  "Optimizer iterations": 81,
  "Optimizer params": [0.991286947460886, 0.7570791492045645, 0.911052755564135, 0.8250601978318505, 0.49498393397238766, 0.9228069217258649],
  "P": 3,
  "Problem": "MCP",
  "QJob durations [ms]": [8129.548788070679, 70580.14798164368, 7623.624563217163, 8261.693477630615, 35680.30333518982, 8201.91240310669, 8075.0572681427, 7234.707593917847, 46103.8932800293, 8099.731206893921, 8538.434743881226, 76371.45066261292, 23930.50503730774, 8192.91090965271, 8507.799863815308, 24828.112840652466, 72478.64532470703, 9283.617496490479, 9397.282361984253, 10628.148555755615, 9085.431337356567, 9319.318771362305, 7751.736640930176, 8607.10597038269, 7323.604106903076, 12069.566488265991, 18020.57981491089, 29397.427558898926, 8676.197052001953, 7422.406435012817, 7880.117416381836, 14990.038633346558, 25025.381326675415, 8015.511989593506, 8662.467241287231, 11812.967538833618, 9094.717979431152, 7912.664175033569, 7239.489555358887, 20319.2777633667, 9391.93320274353, 79292.13404655457, 7829.945802688599, 7763.631582260132, 10253.838539123535, 8028.775215148926, 31819.33331489563, 14543.840169906616, 34026.1447429657, 11663.449048995972, 9047.265768051147, 8926.64647102356, 12216.091632843018, 9880.7053565979, 35844.566345214844, 35242.24829673767, 8922.082424163818, 11508.633613586426, 9596.845149993896, 86184.93032455444, 8162.193059921265, 9165.976524353027, 8482.749938964844, 7317.408323287964, 7485.075235366821, 11333.446741104126, 62459.17558670044, 26530.89690208435, 13081.951141357422, 15297.48010635376, 8425.534963607788, 8922.71637916565, 66071.37131690979, 31865.622758865356, 13044.109582901001, 10470.982789993286, 35243.9329624176, 11938.726663589478, 7240.492343902588, 6874.162912368774, 8163.738250732422],
  "QPU": "4010001",
  "Qubits": 12,
  "Queue durations [ms]": [1082.0, 61931.0, 742.0, 1120.0, 2176.0, 1215.0, 1052.0, 727.0, 29132.0, 1073.0, 770.0, 1052.0, 3809.0, 1094.0, 825.0, 584.0, 1282.0, 2093.0, 1030.0, 1031.0, 569.0, 1825.0, 1254.0, 1261.0, 639.0, 1313.0, 5146.0, -1000.0, 865.0, 970.0, 1152.0, 997.0, 2068.0, 1000.9999999999999, -1000.0, 2094.0, 2033.9999999999998, 923.0, 1010.9999999999999, 732.0, 1205.0, 1214.0, 775.0, 895.0, 3721.0, 1201.0, 901.0, 1165.0, 27394.0, 2317.0, 1177.0, 1093.0, 4281.0, 1126.0, 6772.0, 27801.0, 1269.0, 1124.0, 1155.0, 69679.0, 1090.0, 2041.9999999999998, 1572.0, 723.0, 1420.0, 4186.0, 55096.0, 11134.0, 6170.0, 744.0, 2086.0, 2082.0, 54645.0, 923.0, 756.0, 1257.0, 1557.0, 991.0, 1006.9999999999999, 615.0, 1126.0],
  "Shots": 4096,
  "Size": 12,
  "Total Algorithm duration [s]": 1527.28,
  "Total Classic duration [s]": 8.945678977966281,
  "Total Quantum duration [s]": 1518.3343210220337
}
