{
  "Depth": 401.0,
  "Expectation Value": -1.962646484375,
  "Job durations [ms]": [15.465736389160156, 15.204668045043945, 15.31529426574707, 15.245437622070313, 15.247821807861328, 15.533924102783203, 15.514135360717773, 15.489578247070313, 15.455007553100586, 15.378236770629883, 15.424966812133789, 15.321016311645508, 15.50602912902832, 15.674829483032227, 15.164852142333984, 15.446901321411133, 15.68150520324707, 15.372753143310547, 15.65861701965332, 15.293121337890625, 15.665292739868164, 15.17796516418457, 15.494346618652344, 15.499591827392578, 15.49839973449707, 15.727758407592773, 15.355348587036133, 15.355825424194336, 15.345573425292969, 15.630006790161133, 15.378713607788086, 15.227079391479492, 15.28477668762207, 15.208244323730469, 15.37632942199707, 15.289783477783203, 15.551567077636719, 15.719413757324219, 15.167236328125, 15.397310256958008, 15.597343444824219, 15.053510665893555, 15.39158821105957, 15.494108200073242, 15.841484069824219, 15.17629623413086, 15.259742736816406, 15.472888946533203, 15.967130661010742, 15.224695205688477, 15.666007995605469, 15.343189239501953, 15.49386978149414, 15.427827835083008, 15.853643417358398, 15.222311019897461, 15.660524368286133, 15.458106994628906, 15.345335006713867, 15.218734741210938, 15.638589859008789, 15.382528305053711, 15.709877014160156, 15.358448028564453, 15.241622924804688, 15.814781188964844, 15.102148056030273, 15.465021133422852, 15.570640563964844, 15.31362533569336, 15.283823013305664, 15.599966049194336, 15.523910522460938, 15.265941619873047, 15.650272369384766, 15.358448028564453, 15.573501586914063, 15.260457992553711, 15.715360641479492, 15.376567840576172, 15.36870002746582, 15.639543533325195],
  "Optimal Expectation Value": -2.0,
  "Optimizer durations [ms]": [318.106, 274.886, 317.599, 274.194, 274.603, 315.374, 273.961, 316.546, 273.908, 317.939, 274.299, 317.619, 275.115, 313.598, 274.175, 313.642, 273.996, 313.11, 275.502, 314.918, 273.969, 314.349, 273.735, 315.037, 273.977, 315.462, 275.351, 315.606, 275.404, 315.546, 273.665, 317.634, 273.989, 316.057, 273.675, 318.249, 275.407, 316.63, 274.216, 316.962, 274.284, 318.844, 273.814, 325.054, 276.249, 317.986, 273.904, 317.893, 274.599, 318.512, 275.113, 273.884, 316.368, 273.921, 317.342, 274.111, 317.438, 273.948, 311.601, 273.758, 313.511, 273.993, 313.56, 273.652, 312.713, 274.757, 313.647, 275.331, 314.117, 273.813, 314.092, 274.373, 314.733, 273.751, 314.971, 273.489, 317.495, 274.262, 318.099, 274.127, 316.537, 274.524],
  "Optimizer iterations": 82,
  "Optimizer params": [0.006324204987811695, 1.0, 0.9996165577438705, 0.274247754473903, 0.34793194121788085, 1.0],
  "P": 3,
  "Problem": "MIS",
  "QPU": "3010008",
  "Qubits": 10,
  "Shots": 4096,
  "Size": 7,
  "Total Algorithm duration [s]": 24.166,
  "Total Classic duration [s]": 22.899872890472412,
  "Total Quantum duration [s]": 1.266127109527588
}
