{
  "Circuit execution durations [ms]": [18.0, 18.0, 13.0, 24.0, 26.0, 20.0, 20.0, 32.0, 19.0, 20.0, 19.0, 21.0, 22.0, 23.0, 20.0, 23.0, 15.0, 26.0, 22.0, 21.0, 22.0, 20.0, 20.0, 24.0, 19.0, 29.0, 20.0, 24.0, 21.0, 21.0, 27.0, 25.0, 23.0, 19.0, 20.0, 24.0, 15.0, 18.0, 36.0, 22.0, 22.0, 24.0, 19.0, 21.0, 20.0, 18.0, 18.0, 18.0, 20.0, 13.0, 22.0, 27.0, 26.0, 23.0, 21.0, 21.0, 24.0, 15.0, 19.0, 25.0, 20.0, 22.0, 19.0, 29.0, 36.0, 24.0, 26.0, 19.0, 22.0, 20.0, 27.0, 21.0, 22.0, 21.0, 26.0, 14.0, 21.0, 14.0, 22.0, 20.0, 16.0, 13.0, 22.0, 15.0, 24.0, 20.0, 20.0, 22.0, 15.0, 14.0, 23.0, 20.0, 22.0, 13.0, 67.0, 19.0, 21.0, 20.0, 23.0, 22.0, 19.0, 15.0, 21.0, 27.0, 25.0, 21.0, 26.0, 21.0],
  "Depth": 82.0,
  "Expectation Value": -0.911376953125,
  "Optimal Expectation Value": -1.0,
  "Optimizer durations [ms]": [6018.329, 6007.108, 5919.751, 6117.365, 5985.501, 5882.554, 5966.909, 5920.232, 5980.72, 5993.543, 5853.439, 5917.098, 5879.435, 6203.796, 5953.178, 6113.532, 5861.908, 5964.128, 5983.795, 5938.893, 5872.526, 6051.066, 5974.483, 6001.665, 6109.366, 5887.712, 5860.95, 5910.856, 5872.11, 6137.153, 5861.347, 6026.539, 5953.303, 6043.799, 6284.839, 5955.134, 5890.656, 5926.699, 5908.207, 6134.365, 5891.499, 5943.244, 5881.081, 6118.548, 5956.808, 6022.124, 5827.683, 5953.5, 5947.545, 5921.724, 5930.502, 5951.097, 5941.024, 5939.493, 5941.045, 5949.0, 6145.204, 5977.38, 5901.865, 5885.59, 6090.283, 5901.47, 5944.457, 5875.908, 5951.385, 6058.05, 5990.046, 6049.43, 6023.907, 6100.058, 6038.538, 5892.579, 5804.408, 6067.416, 6178.267, 5932.184, 5961.253, 6079.952, 6095.6, 5836.071, 6047.032, 5880.259, 5911.564, 5932.602, 5915.645, 6073.395, 6033.609, 5826.882, 5920.371, 5835.172, 5989.833, 5906.749, 5956.164, 5957.254, 5925.131, 5940.537, 5945.502, 5910.397, 5953.632, 6098.387, 5999.624, 5886.162, 5826.761, 6045.146, 5903.919, 5897.145, 6029.523, 6178.793],
  "Optimizer iterations": 108,
  "Optimizer params": [0.9211665100733419, 0.9213472258947012, 0.9987653337006, 0.46759223076240564, 1.0, 0.9938848856225732],
  "P": 3,
  "Problem": "MIS",
  "QJob durations [ms]": [5905.197620391846, 5946.291923522949, 5856.796503067017, 6060.705184936523, 5925.193548202515, 5825.626373291016, 5840.6383991241455, 5858.256578445435, 5908.1995487213135, 5932.920455932617, 5793.105125427246, 5861.101388931274, 5763.435363769531, 6145.328998565674, 5896.409034729004, 6054.62121963501, 5802.916049957275, 5902.731895446777, 5867.652177810669, 5878.329515457153, 5809.863567352295, 5989.915370941162, 5918.261289596558, 5943.23468208313, 6048.039197921753, 5827.437400817871, 5800.242185592651, 5848.227024078369, 5809.841156005859, 6069.600343704224, 5802.938222885132, 5906.925201416016, 5891.160488128662, 5990.082025527954, 6231.726884841919, 5893.741607666016, 5829.486131668091, 5808.57515335083, 5846.792697906494, 6072.370767593384, 5833.346843719482, 5884.483337402344, 5822.10111618042, 6001.953601837158, 5894.482374191284, 5963.299989700317, 5764.539480209351, 5892.202854156494, 5888.308048248291, 5806.000471115112, 5872.902393341064, 5890.944719314575, 5883.350849151611, 5877.659559249878, 5879.671096801758, 5889.308452606201, 6084.043741226196, 5920.783758163452, 5847.424030303955, 5828.525066375732, 6029.805421829224, 5844.671964645386, 5822.979688644409, 5815.062522888184, 5890.0415897369385, 6000.256061553955, 5932.034969329834, 5987.693309783936, 5904.644250869751, 6040.128469467163, 5978.394031524658, 5836.275339126587, 5743.973016738892, 6006.953954696655, 6059.305429458618, 5873.93856048584, 5903.46622467041, 6017.5042152404785, 6032.381296157837, 5781.18109703064, 5930.280923843384, 5820.4803466796875, 5850.2357006073, 5879.549741744995, 5858.4229946136475, 6015.333890914917, 5916.682720184326, 5768.085718154907, 5862.192153930664, 5775.211811065674, 5927.785158157349, 5848.253965377808, 5896.486282348633, 5841.235160827637, 5867.337703704834, 5877.996921539307, 5888.806343078613, 5844.671726226807, 5893.6967849731445, 5981.691360473633, 5937.66188621521, 5822.26037979126, 5767.882823944092, 5989.358186721802, 5844.928026199341, 5779.865264892578, 5972.179651260376, 6117.943286895752],
  "QPU": "10000001",
  "Qubits": 4,
  "Queue durations [ms]": [0.0, 0.0, 0.0, 0.0, 0.0, 0.0, 0.0, 0.0, 0.0, 0.0, 0.0, 0.0, 0.0, 0.0, 0.0, 0.0, 0.0, 0.0, 0.0, 0.0, 0.0, 0.0, 0.0, 0.0, 0.0, 0.0, 0.0, 0.0, 0.0, 0.0, 0.0, 0.0, 0.0, 0.0, 0.0, 0.0, 0.0, 0.0, 0.0, 0.0, 0.0, 0.0, 0.0, 0.0, 0.0, 0.0, 0.0, 0.0, 0.0, 0.0, 0.0, 0.0, 0.0, 0.0, 0.0, 0.0, 0.0, 0.0, 0.0, 0.0, 0.0, 0.0, 0.0, 0.0, 0.0, 0.0, 0.0, 0.0, 0.0, 0.0, 0.0, 0.0, 0.0, 0.0, 0.0, 0.0, 0.0, 0.0, 0.0, 0.0, 0.0, 0.0, 0.0, 0.0, 0.0, 0.0, 0.0, 0.0, 0.0, 0.0, 0.0, 0.0, 0.0, 0.0, 0.0, 0.0, 0.0, 0.0, 0.0, 0.0, 0.0, 0.0, 0.0, 0.0, 0.0, 0.0, 0.0, 0.0],
  "Shots": 4096,
  "Size": 3,
  "Total Algorithm duration [s]": 644.748,
  "Total Classic duration [s]": 7.38154158401494,
  "Total Quantum duration [s]": 637.3664584159851
}
