{
  "Circuit execution durations [ms]": [3.3121, 3.3429, 3.3489, 3.3718, 3.3276999999999997, 3.3546, 3.3413000000000004, 3.3683, 3.3229, 3.3564, 3.3317, 3.3153, 3.307, 3.3707, 3.3526, 3.4865, 3.313, 3.3719, 3.4065, 3.3467000000000002, 3.3520999999999996, 3.3558, 3.3601, 3.3664, 3.3446000000000002, 3.3263, 3.3514, 3.2922, 3.3467000000000002, 3.3926, 3.3709000000000002, 3.3829, 3.3586, 3.3397, 3.3313, 3.3767, 3.4484, 3.3401, 3.3642, 3.3532, 3.3842999999999996, 3.3742, 3.3387000000000002, 3.3557, 3.3733999999999997, 3.3295, 3.35, 3.337, 3.4237, 3.3306, 3.3912999999999998, 3.3414, 3.4024, 3.484, 3.3683, 3.3457, 3.3335, 3.3395, 3.351, 3.3836999999999997, 3.3257, 3.3471, 3.3709000000000002, 3.3523, 3.3551, 3.3446000000000002, 3.3726, 3.3883, 3.3529, 3.3888, 3.339, 3.4086, 3.3358, 3.3790999999999998, 3.4516, 3.3704, 3.4087, 3.3563, 3.3692, 3.3646000000000003, 3.3310000000000004, 3.3684000000000003, 3.3385, 3.3458, 3.3827000000000003, 3.3423, 3.3516000000000004, 3.3362000000000003, 3.4111, 3.3522, 3.3349, 3.3609999999999998, 3.3122, 3.3452, 3.3773],
  "Depth": 532.0,
  "Expectation Value": -3.984293222427368,
  "Optimal Expectation Value": -5.0,
  "Optimizer durations [ms]": [33.625, 34.274, 33.955, 34.072, 34.067, 33.976, 34.082, 34.144, 33.858, 34.094, 33.908, 33.56, 33.745, 34.345, 34.08, 35.246, 43.398, 34.316, 34.485, 34.131, 34.107, 34.074, 34.052, 34.421, 33.733, 34.048, 33.986, 33.546, 34.056, 34.492, 33.989, 34.838, 34.125, 33.685, 34.017, 34.391, 35.034, 33.87, 34.198, 34.108, 34.108, 34.549, 33.762, 34.212, 34.436, 33.828, 35.005, 33.972, 34.714, 33.629, 34.429, 34.779, 34.38, 44.755, 34.229, 34.326, 33.903, 33.944, 34.014, 34.399, 33.658, 34.189, 34.033, 34.165, 33.919, 34.212, 34.274, 34.207, 34.204, 34.462, 33.994, 34.576, 33.917, 34.17, 44.851, 34.098, 34.745, 34.075, 34.348, 37.167, 33.901, 34.192, 33.743, 36.682, 34.497, 33.956, 33.909, 33.909, 34.647, 34.213, 33.741, 34.36, 33.703, 33.743, 34.398],
  "Optimizer iterations": 95,
  "Optimizer params": [0.45088443924519983, 0.13931283561109084, 1.0, 0.22616059786999637, 0.06692368816939129, 0.2907154168119365],
  "P": 3,
  "Problem": "DSP",
  "QJob durations [ms]": [3.3121, 3.3429, 3.3489, 3.3718, 3.3276999999999997, 3.3546, 3.3413000000000004, 3.3683, 3.3229, 3.3564, 3.3317, 3.3153, 3.307, 3.3707, 3.3526, 3.4865, 3.313, 3.3719, 3.4065, 3.3467000000000002, 3.3520999999999996, 3.3558, 3.3601, 3.3664, 3.3446000000000002, 3.3263, 3.3514, 3.2922, 3.3467000000000002, 3.3926, 3.3709000000000002, 3.3829, 3.3586, 3.3397, 3.3313, 3.3767, 3.4484, 3.3401, 3.3642, 3.3532, 3.3842999999999996, 3.3742, 3.3387000000000002, 3.3557, 3.3733999999999997, 3.3295, 3.35, 3.337, 3.4237, 3.3306, 3.3912999999999998, 3.3414, 3.4024, 3.484, 3.3683, 3.3457, 3.3335, 3.3395, 3.351, 3.3836999999999997, 3.3257, 3.3471, 3.3709000000000002, 3.3523, 3.3551, 3.3446000000000002, 3.3726, 3.3883, 3.3529, 3.3888, 3.339, 3.4086, 3.3358, 3.3790999999999998, 3.4516, 3.3704, 3.4087, 3.3563, 3.3692, 3.3646000000000003, 3.3310000000000004, 3.3684000000000003, 3.3385, 3.3458, 3.3827000000000003, 3.3423, 3.3516000000000004, 3.3362000000000003, 3.4111, 3.3522, 3.3349, 3.3609999999999998, 3.3122, 3.3452, 3.3773],
  "QPU": "7000000",
  "Qubits": 12,
  "Queue durations [ms]": [0.0, 0.0, 0.0, 0.0, 0.0, 0.0, 0.0, 0.0, 0.0, 0.0, 0.0, 0.0, 0.0, 0.0, 0.0, 0.0, 0.0, 0.0, 0.0, 0.0, 0.0, 0.0, 0.0, 0.0, 0.0, 0.0, 0.0, 0.0, 0.0, 0.0, 0.0, 0.0, 0.0, 0.0, 0.0, 0.0, 0.0, 0.0, 0.0, 0.0, 0.0, 0.0, 0.0, 0.0, 0.0, 0.0, 0.0, 0.0, 0.0, 0.0, 0.0, 0.0, 0.0, 0.0, 0.0, 0.0, 0.0, 0.0, 0.0, 0.0, 0.0, 0.0, 0.0, 0.0, 0.0, 0.0, 0.0, 0.0, 0.0, 0.0, 0.0, 0.0, 0.0, 0.0, 0.0, 0.0, 0.0, 0.0, 0.0, 0.0, 0.0, 0.0, 0.0, 0.0, 0.0, 0.0, 0.0, 0.0, 0.0, 0.0, 0.0, 0.0, 0.0, 0.0, 0.0],
  "Shots": 4096,
  "Size": 7,
  "Total Algorithm duration [s]": 3.28,
  "Total Classic duration [s]": 2.9607870999999997,
  "Total Quantum duration [s]": 0.31921289999999997
}
