{
  "Circuit execution durations [ms]": [3.3498, 3.3830999999999998, 3.3364000000000003, 3.3454, 3.3736, 3.4148, 3.3481, 3.359, 3.3815, 3.392, 3.3945, 3.3466, 3.3481, 3.3872, 3.3709000000000002, 3.4194999999999998, 3.4143, 3.3738, 3.3636, 3.3622, 3.3714, 3.5261, 3.3658, 3.3882, 3.3064999999999998, 3.54, 3.3719, 3.3711, 3.348, 3.3666, 3.373, 3.3952999999999998, 3.3619000000000003, 3.3517, 3.3952, 3.3701, 3.3829, 3.3684000000000003, 3.6399000000000004, 3.3915, 3.3817999999999997, 3.3639, 3.3808000000000002, 3.3564, 3.4177999999999997, 3.3601, 3.5251, 3.4039, 3.3755, 3.3465000000000003, 3.4149, 3.3882, 3.3884000000000003, 3.3436999999999997, 3.3867, 3.3609999999999998, 3.4175, 3.3446000000000002, 3.382, 3.3335, 3.3965, 3.4139, 3.3664, 3.3992, 3.3616, 3.3559, 3.3744, 3.4233000000000002, 3.3554, 3.3855, 3.4185000000000003, 3.3724, 3.3985, 3.3154999999999997, 3.3712999999999997, 3.539, 3.3674, 3.3839, 3.4264, 3.4267999999999996, 3.3806000000000003, 3.4097, 3.392, 3.3728, 3.4078, 3.3958, 3.3718, 3.4404000000000003],
  "Depth": 532.0,
  "Expectation Value": -3.9753730297088623,
  "Optimal Expectation Value": -5.0,
  "Optimizer durations [ms]": [34.073, 34.414, 33.893, 34.062, 34.37, 34.736, 34.602, 34.658, 34.574, 34.44, 34.363, 34.243, 34.039, 34.469, 34.111, 34.885, 34.571, 34.292, 34.017, 34.442, 34.068, 36.089, 34.254, 34.417, 33.653, 35.963, 43.807, 34.332, 33.897, 34.416, 34.213, 34.285, 34.389, 34.037, 34.522, 34.223, 34.285, 34.226, 36.985, 34.406, 34.509, 33.921, 34.65, 34.119, 34.619, 34.209, 35.651, 44.209, 34.144, 34.027, 34.822, 34.514, 34.184, 33.947, 34.501, 34.394, 34.598, 33.901, 34.256, 34.034, 34.233, 34.946, 34.368, 34.549, 34.194, 34.087, 34.44, 34.497, 34.388, 34.381, 34.695, 34.296, 34.473, 33.794, 34.12, 36.118, 43.636, 34.692, 34.671, 34.898, 34.158, 34.813, 34.478, 34.02, 34.848, 34.577, 34.002, 34.962],
  "Optimizer iterations": 88,
  "Optimizer params": [0.624031892091501, 0.8893974916608537, 0.41098344758157695, 0.3240448548200827, 0.8897424675820128, 0.8754533938921594],
  "P": 3,
  "Problem": "DSP",
  "QJob durations [ms]": [3.3498, 3.3830999999999998, 3.3364000000000003, 3.3454, 3.3736, 3.4148, 3.3481, 3.359, 3.3815, 3.392, 3.3945, 3.3466, 3.3481, 3.3872, 3.3709000000000002, 3.4194999999999998, 3.4143, 3.3738, 3.3636, 3.3622, 3.3714, 3.5261, 3.3658, 3.3882, 3.3064999999999998, 3.54, 3.3719, 3.3711, 3.348, 3.3666, 3.373, 3.3952999999999998, 3.3619000000000003, 3.3517, 3.3952, 3.3701, 3.3829, 3.3684000000000003, 3.6399000000000004, 3.3915, 3.3817999999999997, 3.3639, 3.3808000000000002, 3.3564, 3.4177999999999997, 3.3601, 3.5251, 3.4039, 3.3755, 3.3465000000000003, 3.4149, 3.3882, 3.3884000000000003, 3.3436999999999997, 3.3867, 3.3609999999999998, 3.4175, 3.3446000000000002, 3.382, 3.3335, 3.3965, 3.4139, 3.3664, 3.3992, 3.3616, 3.3559, 3.3744, 3.4233000000000002, 3.3554, 3.3855, 3.4185000000000003, 3.3724, 3.3985, 3.3154999999999997, 3.3712999999999997, 3.539, 3.3674, 3.3839, 3.4264, 3.4267999999999996, 3.3806000000000003, 3.4097, 3.392, 3.3728, 3.4078, 3.3958, 3.3718, 3.4404000000000003],
  "QPU": "7000000",
  "Qubits": 12,
  "Queue durations [ms]": [0.0, 0.0, 0.0, 0.0, 0.0, 0.0, 0.0, 0.0, 0.0, 0.0, 0.0, 0.0, 0.0, 0.0, 0.0, 0.0, 0.0, 0.0, 0.0, 0.0, 0.0, 0.0, 0.0, 0.0, 0.0, 0.0, 0.0, 0.0, 0.0, 0.0, 0.0, 0.0, 0.0, 0.0, 0.0, 0.0, 0.0, 0.0, 0.0, 0.0, 0.0, 0.0, 0.0, 0.0, 0.0, 0.0, 0.0, 0.0, 0.0, 0.0, 0.0, 0.0, 0.0, 0.0, 0.0, 0.0, 0.0, 0.0, 0.0, 0.0, 0.0, 0.0, 0.0, 0.0, 0.0, 0.0, 0.0, 0.0, 0.0, 0.0, 0.0, 0.0, 0.0, 0.0, 0.0, 0.0, 0.0, 0.0, 0.0, 0.0, 0.0, 0.0, 0.0, 0.0, 0.0, 0.0, 0.0, 0.0],
  "Shots": 4096,
  "Size": 7,
  "Total Algorithm duration [s]": 3.06,
  "Total Classic duration [s]": 2.7618551,
  "Total Quantum duration [s]": 0.2981449
}
