{
  "Circuit execution durations [ms]": [3.3766, 3.3455999999999997, 3.3982, 3.4455, 3.5855, 3.3727, 3.3795, 3.3468, 3.3501, 3.3444, 3.3762000000000003, 3.3249999999999997, 3.3348, 3.3741000000000003, 3.3546, 3.3605, 3.352, 3.3645, 3.3671, 3.3714, 3.3750999999999998, 3.3360999999999996, 3.4267, 3.3608000000000002, 3.4213, 3.4186, 3.3392, 3.3565, 3.3687, 3.3836, 3.368, 3.3958999999999997, 3.3808000000000002, 3.346, 3.3397, 3.3733999999999997, 3.3566, 3.4088, 3.3584, 3.4311, 3.3461, 3.3579999999999997, 3.3556, 3.3757, 3.3636, 3.3373, 3.3548, 3.3761, 3.3777999999999997, 3.3852, 3.351, 3.369, 3.3563, 3.4341, 3.4608999999999996, 3.3901, 3.4485, 3.4145, 3.4055, 3.3766, 3.3684000000000003, 3.3911000000000002, 3.35, 3.3866, 3.3779, 3.3316, 3.3674999999999997, 3.3526, 3.4004, 3.3930000000000002, 3.3916, 3.3443, 3.4099999999999997, 3.3796999999999997, 3.4231000000000003, 3.3176, 3.4188, 3.4486999999999997, 3.3941000000000003, 3.3506, 3.3771, 3.3604, 3.4058, 3.3853, 3.3588, 3.3436999999999997, 3.3417999999999997, 3.4102, 3.3777999999999997, 3.4212000000000002, 3.4497, 3.5140000000000002],
  "Depth": 532.0,
  "Expectation Value": -3.17423677444458,
  "Optimal Expectation Value": -5.0,
  "Optimizer durations [ms]": [34.189, 34.13, 34.731, 34.824, 41.247, 35.233, 34.164, 33.908, 34.089, 34.019, 34.329, 33.691, 34.06, 34.11, 34.32, 33.943, 34.249, 34.34, 34.303, 34.247, 34.259, 34.018, 34.559, 34.225, 34.969, 44.322, 33.872, 34.154, 34.033, 34.425, 34.281, 34.759, 34.245, 33.851, 34.004, 34.171, 34.298, 34.389, 34.445, 34.893, 34.106, 33.98, 34.141, 34.181, 34.142, 34.118, 34.104, 34.209, 34.271, 34.527, 34.139, 34.148, 34.167, 34.835, 44.791, 34.397, 34.986, 34.742, 34.725, 34.048, 34.637, 34.54, 34.072, 35.14, 34.349, 33.783, 34.379, 33.794, 34.836, 34.504, 34.209, 33.978, 34.564, 34.501, 34.717, 33.549, 34.764, 35.128, 34.634, 33.989, 34.225, 34.383, 34.502, 34.479, 33.899, 34.243, 33.692, 34.685, 34.649, 36.606, 35.347, 45.203],
  "Optimizer iterations": 92,
  "Optimizer params": [0.2442403270942018, 0.40170238638969663, 0.01787027155584446, 0.12830289353618884, 0.8164795467670302, 0.8125900393927865],
  "P": 3,
  "Problem": "DSP",
  "QJob durations [ms]": [3.3766, 3.3455999999999997, 3.3982, 3.4455, 3.5855, 3.3727, 3.3795, 3.3468, 3.3501, 3.3444, 3.3762000000000003, 3.3249999999999997, 3.3348, 3.3741000000000003, 3.3546, 3.3605, 3.352, 3.3645, 3.3671, 3.3714, 3.3750999999999998, 3.3360999999999996, 3.4267, 3.3608000000000002, 3.4213, 3.4186, 3.3392, 3.3565, 3.3687, 3.3836, 3.368, 3.3958999999999997, 3.3808000000000002, 3.346, 3.3397, 3.3733999999999997, 3.3566, 3.4088, 3.3584, 3.4311, 3.3461, 3.3579999999999997, 3.3556, 3.3757, 3.3636, 3.3373, 3.3548, 3.3761, 3.3777999999999997, 3.3852, 3.351, 3.369, 3.3563, 3.4341, 3.4608999999999996, 3.3901, 3.4485, 3.4145, 3.4055, 3.3766, 3.3684000000000003, 3.3911000000000002, 3.35, 3.3866, 3.3779, 3.3316, 3.3674999999999997, 3.3526, 3.4004, 3.3930000000000002, 3.3916, 3.3443, 3.4099999999999997, 3.3796999999999997, 3.4231000000000003, 3.3176, 3.4188, 3.4486999999999997, 3.3941000000000003, 3.3506, 3.3771, 3.3604, 3.4058, 3.3853, 3.3588, 3.3436999999999997, 3.3417999999999997, 3.4102, 3.3777999999999997, 3.4212000000000002, 3.4497, 3.5140000000000002],
  "QPU": "7000000",
  "Qubits": 12,
  "Queue durations [ms]": [0.0, 0.0, 0.0, 0.0, 0.0, 0.0, 0.0, 0.0, 0.0, 0.0, 0.0, 0.0, 0.0, 0.0, 0.0, 0.0, 0.0, 0.0, 0.0, 0.0, 0.0, 0.0, 0.0, 0.0, 0.0, 0.0, 0.0, 0.0, 0.0, 0.0, 0.0, 0.0, 0.0, 0.0, 0.0, 0.0, 0.0, 0.0, 0.0, 0.0, 0.0, 0.0, 0.0, 0.0, 0.0, 0.0, 0.0, 0.0, 0.0, 0.0, 0.0, 0.0, 0.0, 0.0, 0.0, 0.0, 0.0, 0.0, 0.0, 0.0, 0.0, 0.0, 0.0, 0.0, 0.0, 0.0, 0.0, 0.0, 0.0, 0.0, 0.0, 0.0, 0.0, 0.0, 0.0, 0.0, 0.0, 0.0, 0.0, 0.0, 0.0, 0.0, 0.0, 0.0, 0.0, 0.0, 0.0, 0.0, 0.0, 0.0, 0.0, 0.0],
  "Shots": 4096,
  "Size": 7,
  "Total Algorithm duration [s]": 3.199,
  "Total Classic duration [s]": 2.8879495,
  "Total Quantum duration [s]": 0.31105049999999984
}
