{
  "Circuit execution durations [ms]": [3.4732000000000003, 3.3416, 3.3564, 3.3497000000000003, 3.3771999999999998, 3.3066, 3.3758, 3.3426, 3.3463999999999996, 3.3538, 3.3662, 3.3602, 3.3821, 3.346, 3.372, 3.3494, 3.3806000000000003, 3.4223, 3.354, 3.3604, 3.5354, 3.3283, 3.3491, 3.4362, 3.3512, 3.3476999999999997, 3.3865000000000003, 3.3563, 3.3467000000000002, 3.3598999999999997, 3.3398999999999996, 3.3969, 3.3387000000000002, 3.3604, 3.3779, 3.4004, 3.3554, 3.4255, 3.3729, 3.3371, 3.3575, 3.3392, 3.4167, 3.3834999999999997, 3.3792, 3.3453, 3.3895, 3.3454, 3.3622, 3.5745, 3.6096, 3.3683, 3.4463, 3.3792, 3.3638000000000003, 3.3739999999999997, 3.3507, 3.3944, 3.3688, 3.366, 3.3594, 3.4123, 3.4364, 3.3907999999999996, 3.433, 3.3971, 3.5112, 3.3614, 3.4251, 3.3776, 3.4367, 3.4299999999999997, 3.3676, 3.3697000000000004, 3.3682, 3.3729, 3.3666, 3.3793, 3.4168, 3.6061, 3.3331, 3.3789, 3.2534, 3.3590999999999998, 3.2741, 3.4408, 3.5262000000000002, 3.3499, 3.3966, 3.4147000000000003, 3.4608999999999996, 3.3754000000000004, 3.3995, 3.3983, 3.4495, 3.3833, 3.3674, 3.3745, 3.6047000000000002, 3.4097, 3.3809, 3.3716000000000004, 3.3433, 3.3607, 3.4121, 3.3476999999999997, 3.4868, 3.7989, 3.375, 3.3920999999999997, 3.4102, 3.3664, 3.4172, 3.407, 3.3439, 3.3890000000000002, 3.3232, 3.3919, 3.3739999999999997, 3.3537, 3.3581000000000003, 3.4242, 3.3765, 3.4051, 3.3569, 3.3948, 3.4808999999999997, 3.3686, 3.4089, 3.391, 3.3552999999999997, 3.3800000000000003, 3.3419, 3.3806000000000003, 3.4032],
  "Depth": 532.0,
  "Expectation Value": -3.690688371658325,
  "Optimal Expectation Value": -5.0,
  "Optimizer durations [ms]": [35.12, 34.115, 34.378, 34.017, 34.339, 33.734, 34.391, 33.951, 34.002, 34.026, 34.24, 34.298, 34.218, 34.116, 34.361, 33.757, 34.547, 34.859, 34.129, 34.255, 35.816, 43.464, 33.994, 34.923, 34.041, 33.799, 34.369, 34.131, 34.024, 34.282, 33.977, 34.522, 33.877, 34.157, 34.507, 34.277, 34.281, 34.854, 34.212, 33.743, 34.491, 33.837, 34.656, 34.352, 34.714, 33.974, 34.418, 34.222, 33.893, 36.342, 41.93, 34.208, 34.726, 34.718, 34.445, 34.197, 34.014, 34.497, 34.351, 36.272, 34.022, 34.675, 34.786, 34.409, 34.688, 34.52, 35.667, 34.231, 34.565, 34.35, 34.838, 35.078, 34.067, 34.284, 34.1, 34.535, 33.978, 34.458, 34.787, 36.612, 33.805, 34.497, 41.982, 34.021, 41.63, 35.022, 45.432, 33.946, 34.654, 34.424, 35.393, 34.24, 34.324, 34.839, 34.982, 34.442, 34.296, 34.207, 36.421, 34.946, 34.377, 34.014, 34.208, 34.03, 34.558, 34.122, 35.682, 43.747, 34.164, 34.6, 34.614, 34.355, 34.657, 34.729, 33.697, 34.514, 34.048, 34.504, 34.054, 34.297, 33.856, 35.061, 34.233, 34.36, 34.247, 34.629, 35.368, 34.187, 34.36, 34.567, 34.077, 34.381, 33.872, 34.202, 34.505],
  "Optimizer iterations": 135,
  "Optimizer params": [0.41103492654045615, 0.953087826932807, 0.4836642717544642, 0.5060892857094647, 0.9013825108004108, 0.8122709183818274],
  "P": 3,
  "Problem": "DSP",
  "QJob durations [ms]": [3.4732000000000003, 3.3416, 3.3564, 3.3497000000000003, 3.3771999999999998, 3.3066, 3.3758, 3.3426, 3.3463999999999996, 3.3538, 3.3662, 3.3602, 3.3821, 3.346, 3.372, 3.3494, 3.3806000000000003, 3.4223, 3.354, 3.3604, 3.5354, 3.3283, 3.3491, 3.4362, 3.3512, 3.3476999999999997, 3.3865000000000003, 3.3563, 3.3467000000000002, 3.3598999999999997, 3.3398999999999996, 3.3969, 3.3387000000000002, 3.3604, 3.3779, 3.4004, 3.3554, 3.4255, 3.3729, 3.3371, 3.3575, 3.3392, 3.4167, 3.3834999999999997, 3.3792, 3.3453, 3.3895, 3.3454, 3.3622, 3.5745, 3.6096, 3.3683, 3.4463, 3.3792, 3.3638000000000003, 3.3739999999999997, 3.3507, 3.3944, 3.3688, 3.366, 3.3594, 3.4123, 3.4364, 3.3907999999999996, 3.433, 3.3971, 3.5112, 3.3614, 3.4251, 3.3776, 3.4367, 3.4299999999999997, 3.3676, 3.3697000000000004, 3.3682, 3.3729, 3.3666, 3.3793, 3.4168, 3.6061, 3.3331, 3.3789, 3.2534, 3.3590999999999998, 3.2741, 3.4408, 3.5262000000000002, 3.3499, 3.3966, 3.4147000000000003, 3.4608999999999996, 3.3754000000000004, 3.3995, 3.3983, 3.4495, 3.3833, 3.3674, 3.3745, 3.6047000000000002, 3.4097, 3.3809, 3.3716000000000004, 3.3433, 3.3607, 3.4121, 3.3476999999999997, 3.4868, 3.7989, 3.375, 3.3920999999999997, 3.4102, 3.3664, 3.4172, 3.407, 3.3439, 3.3890000000000002, 3.3232, 3.3919, 3.3739999999999997, 3.3537, 3.3581000000000003, 3.4242, 3.3765, 3.4051, 3.3569, 3.3948, 3.4808999999999997, 3.3686, 3.4089, 3.391, 3.3552999999999997, 3.3800000000000003, 3.3419, 3.3806000000000003, 3.4032],
  "QPU": "7000000",
  "Qubits": 12,
  "Queue durations [ms]": [0.0, 0.0, 0.0, 0.0, 0.0, 0.0, 0.0, 0.0, 0.0, 0.0, 0.0, 0.0, 0.0, 0.0, 0.0, 0.0, 0.0, 0.0, 0.0, 0.0, 0.0, 0.0, 0.0, 0.0, 0.0, 0.0, 0.0, 0.0, 0.0, 0.0, 0.0, 0.0, 0.0, 0.0, 0.0, 0.0, 0.0, 0.0, 0.0, 0.0, 0.0, 0.0, 0.0, 0.0, 0.0, 0.0, 0.0, 0.0, 0.0, 0.0, 0.0, 0.0, 0.0, 0.0, 0.0, 0.0, 0.0, 0.0, 0.0, 0.0, 0.0, 0.0, 0.0, 0.0, 0.0, 0.0, 0.0, 0.0, 0.0, 0.0, 0.0, 0.0, 0.0, 0.0, 0.0, 0.0, 0.0, 0.0, 0.0, 0.0, 0.0, 0.0, 0.0, 0.0, 0.0, 0.0, 0.0, 0.0, 0.0, 0.0, 0.0, 0.0, 0.0, 0.0, 0.0, 0.0, 0.0, 0.0, 0.0, 0.0, 0.0, 0.0, 0.0, 0.0, 0.0, 0.0, 0.0, 0.0, 0.0, 0.0, 0.0, 0.0, 0.0, 0.0, 0.0, 0.0, 0.0, 0.0, 0.0, 0.0, 0.0, 0.0, 0.0, 0.0, 0.0, 0.0, 0.0, 0.0, 0.0, 0.0, 0.0, 0.0, 0.0, 0.0, 0.0],
  "Shots": 4096,
  "Size": 7,
  "Total Algorithm duration [s]": 4.701,
  "Total Classic duration [s]": 4.2432272,
  "Total Quantum duration [s]": 0.4577728000000001
}
