{
  "Circuit execution durations [ms]": [3.3486000000000002, 3.3687, 3.3446000000000002, 3.385, 3.3685, 3.3802, 3.3758, 3.4324999999999997, 3.3836999999999997, 3.4117, 3.4102, 3.3609999999999998, 3.3967, 3.3378, 3.4044000000000003, 3.343, 3.4213, 3.3449999999999998, 3.4, 3.5984, 3.3022, 3.3931, 3.3960000000000004, 3.3697000000000004, 3.3869, 3.3616, 3.3925, 3.363, 3.3501999999999996, 3.3784, 3.3717, 3.3417999999999997, 3.3749000000000002, 3.3646000000000003, 3.4417, 3.3511, 3.4133, 3.3728, 3.3750999999999998, 3.3569, 3.3379, 3.3519, 3.4055, 3.3649, 3.3376, 3.3602, 3.3832, 3.3466, 3.5431, 3.3413000000000004, 3.3558, 3.4316, 3.3758, 3.3501, 3.3326, 3.3430999999999997, 3.3845, 3.3501999999999996, 3.3525, 3.3916, 3.3636999999999997, 3.3792, 3.387, 3.3697000000000004, 3.3733999999999997, 3.4152, 3.3436, 3.3832, 3.3426, 3.3594, 3.3741000000000003, 3.3668, 3.3793, 3.3626, 3.3386, 3.3594],
  "Depth": 532.0,
  "Expectation Value": -3.2404844760894775,
  "Optimal Expectation Value": -5.0,
  "Optimizer durations [ms]": [33.982, 34.207, 33.996, 34.736, 34.278, 34.054, 34.521, 34.849, 34.363, 34.708, 34.495, 34.166, 34.65, 33.947, 34.514, 33.935, 34.558, 34.228, 34.475, 36.452, 43.147, 34.357, 34.752, 34.073, 34.523, 34.347, 34.396, 34.214, 34.037, 34.567, 34.203, 33.905, 34.154, 34.424, 35.773, 33.924, 34.777, 34.416, 34.208, 34.137, 33.898, 33.944, 34.823, 34.114, 33.681, 34.228, 34.369, 33.92, 36.175, 43.33, 34.166, 35.014, 34.019, 34.306, 33.631, 34.243, 34.231, 34.194, 36.876, 34.569, 34.191, 34.357, 34.525, 34.272, 34.13, 34.842, 34.001, 34.205, 34.256, 34.07, 34.217, 34.299, 34.071, 34.482, 33.99, 34.051],
  "Optimizer iterations": 76,
  "Optimizer params": [0.7610122999990339, 0.5994932829653083, 0.9134673115454114, 0.5361461945314285, 0.3173361948261934, 0.36138619323178905],
  "P": 3,
  "Problem": "DSP",
  "QJob durations [ms]": [3.3486000000000002, 3.3687, 3.3446000000000002, 3.385, 3.3685, 3.3802, 3.3758, 3.4324999999999997, 3.3836999999999997, 3.4117, 3.4102, 3.3609999999999998, 3.3967, 3.3378, 3.4044000000000003, 3.343, 3.4213, 3.3449999999999998, 3.4, 3.5984, 3.3022, 3.3931, 3.3960000000000004, 3.3697000000000004, 3.3869, 3.3616, 3.3925, 3.363, 3.3501999999999996, 3.3784, 3.3717, 3.3417999999999997, 3.3749000000000002, 3.3646000000000003, 3.4417, 3.3511, 3.4133, 3.3728, 3.3750999999999998, 3.3569, 3.3379, 3.3519, 3.4055, 3.3649, 3.3376, 3.3602, 3.3832, 3.3466, 3.5431, 3.3413000000000004, 3.3558, 3.4316, 3.3758, 3.3501, 3.3326, 3.3430999999999997, 3.3845, 3.3501999999999996, 3.3525, 3.3916, 3.3636999999999997, 3.3792, 3.387, 3.3697000000000004, 3.3733999999999997, 3.4152, 3.3436, 3.3832, 3.3426, 3.3594, 3.3741000000000003, 3.3668, 3.3793, 3.3626, 3.3386, 3.3594],
  "QPU": "7000000",
  "Qubits": 12,
  "Queue durations [ms]": [0.0, 0.0, 0.0, 0.0, 0.0, 0.0, 0.0, 0.0, 0.0, 0.0, 0.0, 0.0, 0.0, 0.0, 0.0, 0.0, 0.0, 0.0, 0.0, 0.0, 0.0, 0.0, 0.0, 0.0, 0.0, 0.0, 0.0, 0.0, 0.0, 0.0, 0.0, 0.0, 0.0, 0.0, 0.0, 0.0, 0.0, 0.0, 0.0, 0.0, 0.0, 0.0, 0.0, 0.0, 0.0, 0.0, 0.0, 0.0, 0.0, 0.0, 0.0, 0.0, 0.0, 0.0, 0.0, 0.0, 0.0, 0.0, 0.0, 0.0, 0.0, 0.0, 0.0, 0.0, 0.0, 0.0, 0.0, 0.0, 0.0, 0.0, 0.0, 0.0, 0.0, 0.0, 0.0, 0.0],
  "Shots": 4096,
  "Size": 7,
  "Total Algorithm duration [s]": 2.631,
  "Total Classic duration [s]": 2.3743876,
  "Total Quantum duration [s]": 0.25661239999999996
}
