{
  "Circuit execution durations [ms]": [3.3211999999999997, 3.4616, 3.3963, 3.3923, 3.3974, 3.3872, 3.3352, 3.3314, 3.3739999999999997, 3.4001, 3.3748, 3.4074999999999998, 3.4762999999999997, 3.3457, 3.3481, 3.3329, 3.3040000000000003, 3.3998, 3.3833, 3.3619000000000003, 3.3947000000000003, 3.369, 3.4697, 3.3422, 3.3506, 3.3514, 3.3800000000000003, 3.3342, 3.3575, 3.3561, 3.4129, 3.3691, 3.3158, 3.334, 3.4083, 3.3379999999999996, 3.3983, 3.3933, 3.4096, 3.4741, 3.3563, 3.3822, 3.3739, 3.3499, 3.3882, 3.3559, 3.3611999999999997, 3.3771999999999998, 3.349, 3.3478000000000003, 3.3609, 3.3455999999999997, 3.3935, 3.3484000000000003, 3.3181, 3.3887, 3.3249999999999997, 3.4207, 3.3547, 3.4415, 3.4323, 3.3383000000000003, 3.3541, 3.3794, 3.3313, 3.3518, 3.3614, 3.3275, 3.3481, 3.3686, 3.3294, 3.3405, 3.3429, 3.363, 3.4337999999999997, 3.3326, 3.3684000000000003, 3.3849, 3.3709000000000002, 3.3526, 3.3930000000000002, 3.3438, 3.3658, 3.3563, 3.3377, 3.3696, 3.3554, 3.4129, 3.3701999999999996, 3.5268, 3.3768000000000002, 3.3961, 3.415, 3.3652, 3.3949000000000003, 3.3693, 3.376],
  "Depth": 532.0,
  "Expectation Value": -3.6811091899871826,
  "Optimal Expectation Value": -5.0,
  "Optimizer durations [ms]": [33.816, 35.201, 44.166, 34.288, 34.732, 34.258, 33.923, 33.997, 34.311, 34.661, 34.061, 34.799, 35.024, 34.294, 33.858, 34.102, 33.573, 34.342, 34.677, 33.927, 34.773, 34.209, 35.293, 34.072, 33.962, 34.044, 34.151, 34.146, 33.859, 34.16, 34.822, 34.33, 33.456, 34.038, 34.657, 33.705, 34.578, 36.681, 34.54, 44.659, 34.363, 34.272, 34.297, 34.098, 34.336, 33.964, 34.134, 34.546, 34.049, 33.939, 34.142, 33.888, 34.549, 34.157, 33.784, 34.211, 33.986, 34.671, 34.261, 34.714, 44.643, 33.661, 34.273, 34.375, 33.745, 34.116, 34.045, 34.072, 33.958, 34.228, 33.719, 34.134, 33.823, 34.349, 34.934, 33.62, 34.479, 34.438, 34.292, 34.043, 34.278, 34.014, 34.263, 34.151, 33.892, 34.352, 34.186, 34.772, 34.405, 45.326, 34.383, 34.63, 34.734, 34.156, 34.505, 34.002, 34.685],
  "Optimizer iterations": 97,
  "Optimizer params": [0.5473839684455787, 0.21050798335058585, 0.7903042380145735, 0.24639343255568538, 0.2668821774738426, 0.9880666164730652],
  "P": 3,
  "Problem": "DSP",
  "QJob durations [ms]": [3.3211999999999997, 3.4616, 3.3963, 3.3923, 3.3974, 3.3872, 3.3352, 3.3314, 3.3739999999999997, 3.4001, 3.3748, 3.4074999999999998, 3.4762999999999997, 3.3457, 3.3481, 3.3329, 3.3040000000000003, 3.3998, 3.3833, 3.3619000000000003, 3.3947000000000003, 3.369, 3.4697, 3.3422, 3.3506, 3.3514, 3.3800000000000003, 3.3342, 3.3575, 3.3561, 3.4129, 3.3691, 3.3158, 3.334, 3.4083, 3.3379999999999996, 3.3983, 3.3933, 3.4096, 3.4741, 3.3563, 3.3822, 3.3739, 3.3499, 3.3882, 3.3559, 3.3611999999999997, 3.3771999999999998, 3.349, 3.3478000000000003, 3.3609, 3.3455999999999997, 3.3935, 3.3484000000000003, 3.3181, 3.3887, 3.3249999999999997, 3.4207, 3.3547, 3.4415, 3.4323, 3.3383000000000003, 3.3541, 3.3794, 3.3313, 3.3518, 3.3614, 3.3275, 3.3481, 3.3686, 3.3294, 3.3405, 3.3429, 3.363, 3.4337999999999997, 3.3326, 3.3684000000000003, 3.3849, 3.3709000000000002, 3.3526, 3.3930000000000002, 3.3438, 3.3658, 3.3563, 3.3377, 3.3696, 3.3554, 3.4129, 3.3701999999999996, 3.5268, 3.3768000000000002, 3.3961, 3.415, 3.3652, 3.3949000000000003, 3.3693, 3.376],
  "QPU": "7000000",
  "Qubits": 12,
  "Queue durations [ms]": [0.0, 0.0, 0.0, 0.0, 0.0, 0.0, 0.0, 0.0, 0.0, 0.0, 0.0, 0.0, 0.0, 0.0, 0.0, 0.0, 0.0, 0.0, 0.0, 0.0, 0.0, 0.0, 0.0, 0.0, 0.0, 0.0, 0.0, 0.0, 0.0, 0.0, 0.0, 0.0, 0.0, 0.0, 0.0, 0.0, 0.0, 0.0, 0.0, 0.0, 0.0, 0.0, 0.0, 0.0, 0.0, 0.0, 0.0, 0.0, 0.0, 0.0, 0.0, 0.0, 0.0, 0.0, 0.0, 0.0, 0.0, 0.0, 0.0, 0.0, 0.0, 0.0, 0.0, 0.0, 0.0, 0.0, 0.0, 0.0, 0.0, 0.0, 0.0, 0.0, 0.0, 0.0, 0.0, 0.0, 0.0, 0.0, 0.0, 0.0, 0.0, 0.0, 0.0, 0.0, 0.0, 0.0, 0.0, 0.0, 0.0, 0.0, 0.0, 0.0, 0.0, 0.0, 0.0, 0.0, 0.0],
  "Shots": 4096,
  "Size": 7,
  "Total Algorithm duration [s]": 3.366,
  "Total Classic duration [s]": 3.0388349000000003,
  "Total Quantum duration [s]": 0.32716509999999976
}
