{
  "Circuit execution durations [ms]": [3.4012000000000002, 3.3655, 3.3725, 3.3683, 3.3539, 3.4112, 3.3678, 3.3617, 3.3407, 3.3643, 3.3971, 3.3679, 3.3716000000000004, 3.3416, 3.3537, 3.3998, 3.3633, 3.4424, 3.42, 3.3904, 3.3848, 3.3733999999999997, 3.3815999999999997, 3.3616, 3.3671, 3.3683, 3.3969, 3.3931999999999998, 3.3600000000000003, 3.3785, 3.3585, 3.3403, 3.4074, 3.3958, 3.4052000000000002, 3.4097, 3.3683, 3.3590999999999998, 3.401, 3.4284, 3.3699, 3.366, 3.3677, 3.3903000000000003, 3.372, 3.3444, 3.4308, 3.4358, 3.3849, 3.4375, 3.3628, 3.3958, 3.3641, 3.3830999999999998, 3.3554, 3.3552, 3.4034, 3.3663, 3.3529, 3.3800000000000003, 3.336, 3.3752, 3.3543000000000003, 3.3777999999999997, 3.3359, 3.3603, 3.3830999999999998, 3.4286, 3.3590999999999998, 3.3405, 3.3889, 3.3899, 3.3574, 3.3817, 3.3729, 3.3446000000000002, 3.402, 3.3865000000000003, 3.4034, 3.3809, 3.3533999999999997, 3.3742, 3.3211, 3.4072999999999998, 3.5029000000000003, 3.3454, 3.3941000000000003, 3.3749000000000002, 3.362, 3.3661, 3.3616, 3.4072],
  "Depth": 532.0,
  "Expectation Value": -3.2117443084716797,
  "Optimal Expectation Value": -5.0,
  "Optimizer durations [ms]": [34.664, 34.138, 34.176, 34.355, 34.122, 34.77, 34.057, 34.255, 33.778, 34.37, 34.446, 34.074, 34.258, 34.15, 33.881, 34.762, 33.902, 35.213, 44.239, 34.424, 34.436, 34.162, 34.578, 33.963, 34.158, 34.548, 34.51, 34.381, 34.11, 34.38, 34.023, 33.949, 34.608, 34.527, 34.344, 34.809, 34.251, 34.037, 34.46, 35.444, 34.131, 34.229, 34.335, 34.44, 33.978, 34.165, 34.627, 44.676, 34.378, 34.857, 34.305, 34.324, 33.994, 34.684, 34.36, 33.817, 34.696, 34.184, 33.849, 34.498, 33.864, 34.064, 34.386, 34.398, 33.895, 34.085, 34.371, 34.738, 34.273, 33.948, 34.415, 34.208, 34.273, 34.16, 34.406, 33.848, 34.505, 34.369, 34.61, 34.34, 34.069, 34.11, 39.029, 34.667, 44.937, 34.334, 34.236, 34.568, 34.225, 34.107, 34.263, 34.319],
  "Optimizer iterations": 92,
  "Optimizer params": [0.7656491832153361, 0.6319813553372114, 0.8851907078430404, 0.9751206933196959, 0.6148055474370355, 0.9593376406601516],
  "P": 3,
  "Problem": "DSP",
  "QJob durations [ms]": [3.4012000000000002, 3.3655, 3.3725, 3.3683, 3.3539, 3.4112, 3.3678, 3.3617, 3.3407, 3.3643, 3.3971, 3.3679, 3.3716000000000004, 3.3416, 3.3537, 3.3998, 3.3633, 3.4424, 3.42, 3.3904, 3.3848, 3.3733999999999997, 3.3815999999999997, 3.3616, 3.3671, 3.3683, 3.3969, 3.3931999999999998, 3.3600000000000003, 3.3785, 3.3585, 3.3403, 3.4074, 3.3958, 3.4052000000000002, 3.4097, 3.3683, 3.3590999999999998, 3.401, 3.4284, 3.3699, 3.366, 3.3677, 3.3903000000000003, 3.372, 3.3444, 3.4308, 3.4358, 3.3849, 3.4375, 3.3628, 3.3958, 3.3641, 3.3830999999999998, 3.3554, 3.3552, 3.4034, 3.3663, 3.3529, 3.3800000000000003, 3.336, 3.3752, 3.3543000000000003, 3.3777999999999997, 3.3359, 3.3603, 3.3830999999999998, 3.4286, 3.3590999999999998, 3.3405, 3.3889, 3.3899, 3.3574, 3.3817, 3.3729, 3.3446000000000002, 3.402, 3.3865000000000003, 3.4034, 3.3809, 3.3533999999999997, 3.3742, 3.3211, 3.4072999999999998, 3.5029000000000003, 3.3454, 3.3941000000000003, 3.3749000000000002, 3.362, 3.3661, 3.3616, 3.4072],
  "QPU": "7000000",
  "Qubits": 12,
  "Queue durations [ms]": [0.0, 0.0, 0.0, 0.0, 0.0, 0.0, 0.0, 0.0, 0.0, 0.0, 0.0, 0.0, 0.0, 0.0, 0.0, 0.0, 0.0, 0.0, 0.0, 0.0, 0.0, 0.0, 0.0, 0.0, 0.0, 0.0, 0.0, 0.0, 0.0, 0.0, 0.0, 0.0, 0.0, 0.0, 0.0, 0.0, 0.0, 0.0, 0.0, 0.0, 0.0, 0.0, 0.0, 0.0, 0.0, 0.0, 0.0, 0.0, 0.0, 0.0, 0.0, 0.0, 0.0, 0.0, 0.0, 0.0, 0.0, 0.0, 0.0, 0.0, 0.0, 0.0, 0.0, 0.0, 0.0, 0.0, 0.0, 0.0, 0.0, 0.0, 0.0, 0.0, 0.0, 0.0, 0.0, 0.0, 0.0, 0.0, 0.0, 0.0, 0.0, 0.0, 0.0, 0.0, 0.0, 0.0, 0.0, 0.0, 0.0, 0.0, 0.0, 0.0],
  "Shots": 4096,
  "Size": 7,
  "Total Algorithm duration [s]": 3.192,
  "Total Classic duration [s]": 2.8811585,
  "Total Quantum duration [s]": 0.3108415000000001
}
