{
  "Circuit execution durations [ms]": [3.4137, 3.3813, 3.3865000000000003, 3.432, 3.3771, 3.3704, 3.3975, 3.3419, 3.3554, 3.3748, 3.3849, 3.4141000000000004, 3.3800000000000003, 3.3958, 3.3750999999999998, 3.5069, 3.3523, 3.3914, 3.4053999999999998, 3.5428, 3.3958999999999997, 3.3333, 3.3668, 3.3736, 3.3083, 3.3574, 3.4114, 3.4313, 3.3982, 3.3604, 3.3912, 3.4171, 3.3613, 3.3841, 3.3535, 3.3952999999999998, 3.3378, 3.3789, 3.4223, 3.4145999999999996, 3.5358, 3.4911, 3.3626, 3.4015, 3.3467000000000002, 3.359, 3.3777, 3.3305000000000002, 3.353, 3.3604, 3.3407, 3.3733, 3.3674999999999997, 3.3565, 3.3849, 3.4164, 3.4014, 3.3145000000000002, 3.3467000000000002, 3.353, 3.33, 3.4116, 3.3466, 3.3479, 3.3773, 3.2953, 3.3304, 3.3667, 3.3784, 3.4491, 3.4665, 3.3373, 3.3736, 3.4059, 3.3485, 3.3552999999999997, 3.3522, 3.3671, 3.3741000000000003, 3.3761, 3.3754000000000004, 3.3573, 3.3834, 3.3482, 3.3745, 3.347, 3.3548, 3.3614, 3.3699, 3.3584, 3.4067, 3.3581000000000003, 3.4393000000000002, 3.3565, 3.3532, 3.3712999999999997, 3.3495, 3.3848, 3.3920999999999997, 3.348, 3.3693, 3.4999, 3.3861999999999997, 3.3593, 3.3754000000000004, 3.3491, 3.4031000000000002, 3.4908, 3.3793, 3.3596, 3.3768000000000002, 3.3655, 3.3727, 3.3802, 3.348, 3.4002],
  "Depth": 532.0,
  "Expectation Value": -3.0748636722564697,
  "Optimal Expectation Value": -5.0,
  "Optimizer durations [ms]": [39.588, 34.246, 34.593, 34.857, 34.397, 34.167, 34.51, 33.984, 33.837, 34.455, 34.319, 34.792, 34.271, 34.478, 34.35, 35.618, 34.287, 34.365, 34.611, 35.888, 44.319, 33.754, 34.449, 34.072, 33.849, 34.05, 34.762, 34.597, 34.698, 33.919, 34.588, 34.715, 34.035, 34.43, 33.963, 34.612, 33.738, 34.512, 34.526, 34.712, 35.886, 40.342, 34.191, 34.529, 33.79, 34.237, 34.3, 34.073, 33.799, 34.307, 33.941, 34.151, 34.292, 34.112, 34.471, 34.789, 34.448, 33.69, 34.124, 33.922, 34.043, 34.434, 34.001, 34.306, 34.111, 33.463, 34.009, 33.954, 34.453, 35.097, 44.575, 33.979, 34.546, 34.442, 33.903, 34.149, 34.202, 34.233, 34.179, 34.345, 34.328, 34.074, 34.108, 34.24, 34.26, 33.833, 34.184, 34.272, 34.274, 34.008, 34.672, 33.945, 35.083, 34.169, 33.833, 34.372, 34.003, 34.514, 34.356, 34.256, 36.041, 35.288, 34.306, 34.379, 34.086, 38.821, 34.707, 45.126, 34.365, 33.908, 34.513, 34.214, 34.202, 34.437, 33.905, 34.779],
  "Optimizer iterations": 116,
  "Optimizer params": [0.46290053404941683, 0.8661051839887809, 0.15985124603201933, 0.8904233138611648, 0.08104123270822533, 0.025493695768457194],
  "P": 3,
  "Problem": "DSP",
  "QJob durations [ms]": [3.4137, 3.3813, 3.3865000000000003, 3.432, 3.3771, 3.3704, 3.3975, 3.3419, 3.3554, 3.3748, 3.3849, 3.4141000000000004, 3.3800000000000003, 3.3958, 3.3750999999999998, 3.5069, 3.3523, 3.3914, 3.4053999999999998, 3.5428, 3.3958999999999997, 3.3333, 3.3668, 3.3736, 3.3083, 3.3574, 3.4114, 3.4313, 3.3982, 3.3604, 3.3912, 3.4171, 3.3613, 3.3841, 3.3535, 3.3952999999999998, 3.3378, 3.3789, 3.4223, 3.4145999999999996, 3.5358, 3.4911, 3.3626, 3.4015, 3.3467000000000002, 3.359, 3.3777, 3.3305000000000002, 3.353, 3.3604, 3.3407, 3.3733, 3.3674999999999997, 3.3565, 3.3849, 3.4164, 3.4014, 3.3145000000000002, 3.3467000000000002, 3.353, 3.33, 3.4116, 3.3466, 3.3479, 3.3773, 3.2953, 3.3304, 3.3667, 3.3784, 3.4491, 3.4665, 3.3373, 3.3736, 3.4059, 3.3485, 3.3552999999999997, 3.3522, 3.3671, 3.3741000000000003, 3.3761, 3.3754000000000004, 3.3573, 3.3834, 3.3482, 3.3745, 3.347, 3.3548, 3.3614, 3.3699, 3.3584, 3.4067, 3.3581000000000003, 3.4393000000000002, 3.3565, 3.3532, 3.3712999999999997, 3.3495, 3.3848, 3.3920999999999997, 3.348, 3.3693, 3.4999, 3.3861999999999997, 3.3593, 3.3754000000000004, 3.3491, 3.4031000000000002, 3.4908, 3.3793, 3.3596, 3.3768000000000002, 3.3655, 3.3727, 3.3802, 3.348, 3.4002],
  "QPU": "7000000",
  "Qubits": 12,
  "Queue durations [ms]": [0.0, 0.0, 0.0, 0.0, 0.0, 0.0, 0.0, 0.0, 0.0, 0.0, 0.0, 0.0, 0.0, 0.0, 0.0, 0.0, 0.0, 0.0, 0.0, 0.0, 0.0, 0.0, 0.0, 0.0, 0.0, 0.0, 0.0, 0.0, 0.0, 0.0, 0.0, 0.0, 0.0, 0.0, 0.0, 0.0, 0.0, 0.0, 0.0, 0.0, 0.0, 0.0, 0.0, 0.0, 0.0, 0.0, 0.0, 0.0, 0.0, 0.0, 0.0, 0.0, 0.0, 0.0, 0.0, 0.0, 0.0, 0.0, 0.0, 0.0, 0.0, 0.0, 0.0, 0.0, 0.0, 0.0, 0.0, 0.0, 0.0, 0.0, 0.0, 0.0, 0.0, 0.0, 0.0, 0.0, 0.0, 0.0, 0.0, 0.0, 0.0, 0.0, 0.0, 0.0, 0.0, 0.0, 0.0, 0.0, 0.0, 0.0, 0.0, 0.0, 0.0, 0.0, 0.0, 0.0, 0.0, 0.0, 0.0, 0.0, 0.0, 0.0, 0.0, 0.0, 0.0, 0.0, 0.0, 0.0, 0.0, 0.0, 0.0, 0.0, 0.0, 0.0, 0.0, 0.0],
  "Shots": 4096,
  "Size": 7,
  "Total Algorithm duration [s]": 4.029,
  "Total Classic duration [s]": 3.6368596999999996,
  "Total Quantum duration [s]": 0.3921403000000001
}
