{
  "Circuit execution durations [ms]": [3.3441, 3.4477, 3.4047, 3.4136, 3.7723, 3.4499, 3.372, 3.3763, 3.3907, 3.415, 3.4033, 3.3783, 3.3928000000000003, 3.3844000000000003, 3.4091, 3.3803, 3.3274, 3.3609999999999998, 3.3739999999999997, 3.363, 3.3752, 3.3914, 3.3731, 3.4151, 3.3427000000000002, 3.3841, 3.3806000000000003, 3.3939999999999997, 3.349, 3.4009, 3.3834, 3.3654, 3.4061, 3.8253, 3.474, 3.3706, 3.4385000000000003, 3.4033, 3.3848, 3.3804, 3.37, 3.35, 3.4051, 3.3611999999999997, 3.3961, 3.3988, 3.3547, 3.3876, 3.4248999999999996, 3.3538, 3.373, 3.3844000000000003, 3.3893999999999997, 3.3979, 3.3749000000000002, 3.3943, 3.3621, 3.4018, 3.3683, 3.3486000000000002, 3.4068, 3.3937, 3.6884, 3.3647, 3.4545, 3.3711, 3.3750999999999998, 3.4155, 3.3595, 3.4349, 3.4484, 3.4029, 3.3716000000000004, 3.3439, 3.385, 3.3582, 3.4117, 3.3958, 3.3583, 3.3586, 3.3845, 3.3899, 3.3614, 3.3527, 3.3476, 3.3845, 3.3287, 3.3966, 3.4160000000000004, 3.3948, 3.4562, 3.4840999999999998],
  "Depth": 532.0,
  "Expectation Value": -2.935595750808716,
  "Optimal Expectation Value": -5.0,
  "Optimizer durations [ms]": [33.876, 35.216, 34.624, 34.835, 38.281, 41.984, 34.19, 34.396, 34.304, 34.861, 34.543, 34.257, 34.481, 34.473, 34.712, 34.287, 33.821, 33.894, 34.374, 34.215, 34.52, 34.633, 34.235, 34.442, 34.18, 34.352, 34.179, 34.759, 33.902, 34.35, 34.635, 34.002, 34.775, 38.757, 41.427, 34.263, 35.094, 34.672, 34.366, 34.308, 34.346, 33.772, 34.81, 34.088, 34.519, 34.455, 34.012, 34.572, 34.646, 34.124, 34.261, 34.293, 34.6, 34.519, 34.405, 34.222, 34.389, 34.586, 34.209, 34.08, 34.547, 34.377, 37.524, 39.044, 34.882, 34.291, 34.516, 34.711, 38.77, 34.983, 44.715, 34.431, 34.345, 33.893, 34.456, 33.911, 34.712, 34.557, 33.955, 34.293, 34.486, 34.428, 34.066, 33.887, 34.229, 34.246, 33.89, 34.467, 34.526, 34.409, 35.015, 40.404],
  "Optimizer iterations": 92,
  "Optimizer params": [0.9535258041064666, 0.07713328950292421, 0.01420488919465749, 0.16629343565362623, 0.743736642113772, 0.7947554883858091],
  "P": 3,
  "Problem": "DSP",
  "QJob durations [ms]": [3.3441, 3.4477, 3.4047, 3.4136, 3.7723, 3.4499, 3.372, 3.3763, 3.3907, 3.415, 3.4033, 3.3783, 3.3928000000000003, 3.3844000000000003, 3.4091, 3.3803, 3.3274, 3.3609999999999998, 3.3739999999999997, 3.363, 3.3752, 3.3914, 3.3731, 3.4151, 3.3427000000000002, 3.3841, 3.3806000000000003, 3.3939999999999997, 3.349, 3.4009, 3.3834, 3.3654, 3.4061, 3.8253, 3.474, 3.3706, 3.4385000000000003, 3.4033, 3.3848, 3.3804, 3.37, 3.35, 3.4051, 3.3611999999999997, 3.3961, 3.3988, 3.3547, 3.3876, 3.4248999999999996, 3.3538, 3.373, 3.3844000000000003, 3.3893999999999997, 3.3979, 3.3749000000000002, 3.3943, 3.3621, 3.4018, 3.3683, 3.3486000000000002, 3.4068, 3.3937, 3.6884, 3.3647, 3.4545, 3.3711, 3.3750999999999998, 3.4155, 3.3595, 3.4349, 3.4484, 3.4029, 3.3716000000000004, 3.3439, 3.385, 3.3582, 3.4117, 3.3958, 3.3583, 3.3586, 3.3845, 3.3899, 3.3614, 3.3527, 3.3476, 3.3845, 3.3287, 3.3966, 3.4160000000000004, 3.3948, 3.4562, 3.4840999999999998],
  "QPU": "7000000",
  "Qubits": 12,
  "Queue durations [ms]": [0.0, 0.0, 0.0, 0.0, 0.0, 0.0, 0.0, 0.0, 0.0, 0.0, 0.0, 0.0, 0.0, 0.0, 0.0, 0.0, 0.0, 0.0, 0.0, 0.0, 0.0, 0.0, 0.0, 0.0, 0.0, 0.0, 0.0, 0.0, 0.0, 0.0, 0.0, 0.0, 0.0, 0.0, 0.0, 0.0, 0.0, 0.0, 0.0, 0.0, 0.0, 0.0, 0.0, 0.0, 0.0, 0.0, 0.0, 0.0, 0.0, 0.0, 0.0, 0.0, 0.0, 0.0, 0.0, 0.0, 0.0, 0.0, 0.0, 0.0, 0.0, 0.0, 0.0, 0.0, 0.0, 0.0, 0.0, 0.0, 0.0, 0.0, 0.0, 0.0, 0.0, 0.0, 0.0, 0.0, 0.0, 0.0, 0.0, 0.0, 0.0, 0.0, 0.0, 0.0, 0.0, 0.0, 0.0, 0.0, 0.0, 0.0, 0.0, 0.0],
  "Shots": 4096,
  "Size": 7,
  "Total Algorithm duration [s]": 3.215,
  "Total Classic duration [s]": 2.9022097,
  "Total Quantum duration [s]": 0.3127903000000001
}
