{
  "Depth": 607.0,
  "Job durations [ms]": [34.00564193725586, 34.26241874694824, 32.716989517211914, 33.21552276611328, 33.434391021728516, 31.947612762451172, 40.482282638549805, 33.44154357910156, 32.51481056213379, 36.397457122802734, 34.04808044433594, 34.19208526611328, 32.75942802429199, 33.928871154785156, 33.42914581298828, 33.13112258911133, 38.69366645812988, 37.91165351867676, 38.53750228881836, 32.26184844970703, 33.23006629943848, 38.62762451171875, 38.89799118041992, 38.57564926147461, 32.483816146850586, 33.13446044921875, 33.57243537902832, 38.591861724853516, 38.53726387023926, 38.85293006896973, 33.159732818603516, 32.83500671386719, 33.06984901428223, 32.994985580444336, 32.9439640045166, 33.495187759399414, 38.69462013244629, 38.81406784057617, 38.238525390625, 33.112525939941406, 32.975196838378906, 32.80496597290039, 33.598899841308594, 33.72025489807129, 33.00595283508301, 33.12492370605469, 32.9287052154541, 34.31439399719238, 33.121585845947266, 32.81521797180176, 33.197641372680664, 33.55813026428223, 38.192033767700195, 38.24353218078613, 38.15031051635742, 33.484458923339844, 32.80520439147949, 33.286333084106445, 32.38844871520996, 32.51910209655762, 32.67860412597656, 34.089088439941406, 32.11402893066406, 32.732248306274414, 33.158302307128906, 34.26051139831543, 32.22823143005371, 32.553911209106445, 33.066749572753906, 33.45799446105957, 32.40466117858887, 34.25025939941406, 38.483619689941406, 38.736581802368164, 38.26737403869629, 33.731937408447266, 32.64260292053223, 34.5454216003418, 33.5385799407959, 34.97910499572754, 33.89906883239746, 32.98807144165039, 34.92474555969238, 38.58184814453125, 38.00821304321289, 38.6202335357666, 33.21051597595215, 32.38201141357422],
  "Optimizer durations [ms]": [609.694, 604.91, 545.846, 593.576, 594.974, 599.415, 566.066, 594.005, 607.733, 605.08, 630.984, 566.933, 609.823, 593.926, 595.494, 541.42, 628.879, 729.534, 709.782, 619.868, 586.649, 650.205, 708.657, 717.799, 586.4, 591.905, 596.4, 642.489, 666.174, 701.124, 690.502, 595.57, 540.881, 595.97, 595.014, 603.615, 709.661, 637.28, 697.084, 601.765, 615.046, 555.171, 608.852, 591.705, 604.768, 568.891, 586.188, 605.317, 604.002, 603.206, 542.196, 603.173, 700.955, 703.206, 639.23, 615.674, 590.598, 597.745, 546.026, 591.911, 597.715, 595.84, 605.633, 542.711, 596.117, 604.329, 595.084, 561.246, 607.395, 597.067, 616.53, 549.637, 657.821, 723.146, 700.557, 638.65, 589.907, 650.855, 630.933, 656.337, 573.597, 627.678, 613.507, 639.02, 643.932, 702.744, 668.8, 594.582],
  "Optimizer iterations": 88,
  "Qubits": 13,
  "Total Algorithm duration [s]": 54.318,
  "Total Classic duration [s]": 51.27205554771423,
  "Total Quantum duration [s]": 3.0459444522857666,
  "Expectation Value": -3.408935546875,
  "Optimal Expectation Value": -6.0,
  "Optimizer params": [0.7980939050931757, 0.7592950497116876, 0.29467344134230133, 0.9907075864773123, 0.5403077460253563, 0.9692158955611936],
  "QPU": "3010008",
  "Problem": "DSP",
  "Size": 8,
  "P": 3,
  "Shots": 4096
}