{
  "Depth": 2.0,
  "Job durations [ms]": [6235.237598419189, 6059.510231018066, 6353.984355926514, 6053.577184677124, 5997.588634490967, 6054.812908172607, 6163.738250732422, 6104.316711425781, 6022.698879241943, 6050.399541854858, 6018.643140792847, 6006.977796554565, 5933.433055877686, 6025.760650634766, 6344.980239868164, 5969.564914703369, 6213.176012039185, 6037.965297698975, 6091.22371673584, 6025.507926940918, 5971.367359161377, 6130.263090133667, 6267.657995223999, 6295.278787612915, 6176.816940307617, 6061.922788619995, 6087.611675262451, 6026.641130447388, 5996.870756149292, 6139.495849609375, 6583.95528793335, 6131.269693374634, 6178.1628131866455, 6012.463569641113, 6058.657646179199, 6142.232418060303],
  "Optimizer durations [ms]": [118773.61, 110823.225, 140670.907, 110136.338, 109399.261, 110314.289, 199927.931, 110084.872, 110430.161, 209145.255, 190158.554, 109806.695, 110581.74, 120205.392, 129306.053, 110426.337, 110417.033, 109264.996, 121598.046, 199563.13, 109933.82, 109354.096, 110748.634, 139125.543, 200124.858, 120122.357, 129890.18, 39656.465, 40104.61, 200947.434, 119467.795, 109325.859, 109551.74, 110491.572, 199988.835, 110800.978],
  "Optimizer iterations": 36,
  "Qubits": 3,
  "Total Algorithm duration [s]": 4600.668,
  "Total Classic duration [s]": 4380.644235151291,
  "Total Quantum duration [s]": 220.0237648487091,
  "Expectation Value": -1.554523229598999,
  "Optimal Expectation Value": -1.746999979019165,
  "Optimizer params": [1.0, 0.49976109869565755, 0.9158997828622799],
  "QPU": "4020017",
  "Problem": "RH",
  "Size": 3,
  "P": 0,
  "Shots": 4096
}