{
  "Circuit execution durations [ms]": [38.408298045396805, 127.77625396847725, 38.355011492967606, 97.69271686673164, 96.92589193582535, 58.0627154558897, 55.055106058716774, 47.77367040514946, 48.19303937256336, 94.73674185574055, 80.61026409268379, 34.480273723602295, 82.90419355034828, 92.53113716840744, 79.22329008579254, 62.680164352059364, 56.109802797436714, 68.33418644964695, 39.20930624008179, 36.871541291475296, 37.707461044192314, 74.06982034444809, 82.45412446558475, 94.27956864237785, 102.79616713523865, 109.81805995106697, 58.612313121557236, 28.782994486391544, 59.35277417302132, 51.36888846755028, 74.02126491069794, 61.58684380352497, 37.242282181978226, 66.01035036146641, 84.39283072948456, 68.73824633657932, 35.71518696844578, 33.6109260097146, 39.26471434533596, 79.53384146094322, 29.047073796391487, 35.650210455060005, 38.06610032916069, 61.820657923817635, 91.43896028399467, 72.65610434114933, 57.486750185489655, 70.68811915814877, 67.65338033437729, 38.32061402499676, 41.003286838531494, 81.5148614346981, 70.25093398988247, 83.17543566226959, 62.86420859396458, 57.3047511279583, 81.17085322737694, 91.36851131916046, 25.392471812665462, 36.44506633281708, 75.20416378974915, 40.74648208916187, 44.57578994333744, 41.85389168560505, 122.38799408078194, 81.38247020542622, 41.61619022488594, 68.71780753135681, 37.827350199222565, 32.52316452562809, 44.27365958690643, 67.5794668495655, 115.29389768838882, 32.83772058784962, 43.1048683822155, 81.62025175988674, 49.02697913348675, 38.70297595858574, 38.59393671154976, 50.995247438549995, 37.49679774045944, 72.90664222091436, 41.353763081133366, 39.62281346321106, 53.48355229943991, 81.3361220061779, 39.334652945399284, 27.129855006933212, 25.60582384467125, 69.5233978331089, 38.366710767149925, 63.913218677043915, 17.436664551496506, 65.35741593688726, 27.45418157428503, 28.909344226121902, 28.498145751655102, 17.690172418951988, 39.7785734385252, 26.55755914747715, 38.21529261767864, 51.493048667907715, 44.955817982554436, 70.77925093472004, 34.39719136804342, 30.8487331494689, 41.90073162317276, 29.54687550663948, 24.983362294733524, 78.45311984419823, 28.04871555417776, 44.51620392501354, 28.977944515645504, 34.85190495848656, 40.17268121242523, 45.77539302408695, 47.29798622429371, 38.75870257616043, 28.62487267702818, 83.08684639632702, 35.71251593530178, 46.53939791023731, 38.72090205550194, 24.694494903087616, 29.67565506696701, 28.549364767968655, 30.819104053080082, 18.091914243996143, 37.07609139382839, 26.034812442958355, 81.66340552270412, 38.776058703660965, 26.86908282339573, 44.57185044884682, 35.881828516721725, 35.98485887050629, 58.938413858413696, 28.586565516889095, 17.680734395980835, 38.96775282919407, 38.172055035829544, 40.7687034457922, 41.54913313686848, 29.04055267572403, 28.740115463733673, 26.707137934863567, 88.82571198046207, 52.297862246632576, 39.237966760993004, 86.63336373865604, 33.72492827475071, 44.79651711881161, 30.208815820515156, 77.64283381402493, 37.58003190159798, 17.529072239995003, 23.851880803704262, 26.839053258299828, 17.543279565870762, 28.519202955067158, 27.969742193818092, 69.85915265977383, 36.177849397063255, 54.18242886662483, 38.64448796957731, 58.01807530224323, 43.98712515830994, 28.24440225958824, 27.707219123840332, 78.76227982342243, 18.09638272970915, 46.3855741545558, 17.506343312561512, 67.85235926508904, 17.549852840602398, 28.811768628656864, 27.832417748868465, 58.72310511767864, 54.31807227432728, 18.10048148036003, 26.60579327493906, 26.70847997069359, 40.10738246142864, 17.49491784721613, 38.65370340645313, 17.83006265759468, 48.359181731939316, 38.50187174975872, 30.17046581953764, 63.90662118792534, 17.457138746976852, 17.73073710501194, 28.131344355642796, 55.40106073021889, 31.116253696382046, 17.73704867810011, 28.428527526557446, 17.43426453322172, 37.68737055361271, 66.61580596119165, 28.713691979646683, 27.71884761750698, 39.948565885424614, 38.72273489832878, 17.764832824468613, 23.305201902985573, 36.908430978655815, 40.896665304899216, 39.1119010746479, 35.104505717754364, 39.41476345062256, 35.58446280658245, 38.60080800950527, 43.39943453669548, 36.595992743968964, 28.64974830299616, 39.108945056796074, 39.10723887383938, 63.87976557016373, 53.62856015563011, 26.99392195791006, 36.75486519932747, 17.5782460719347, 39.42419774830341, 37.12916560471058, 24.410976096987724, 28.425623662769794, 62.59789131581783, 39.01077248156071, 44.361986219882965, 30.894014053046703, 28.65365706384182, 37.15238720178604, 39.06852565705776, 28.385844081640244, 38.08873891830444, 55.38155697286129, 32.397979870438576, 30.758816748857498, 27.69900392740965, 39.70669582486153, 38.409072905778885, 34.458618611097336, 28.790030628442764, 33.97917654365301, 69.31569799780846, 39.72374275326729, 67.21251457929611, 28.78913003951311, 35.878950729966164, 44.65533792972565, 38.46167307347059, 17.715811729431152, 30.24797886610031, 27.805982157588005, 39.23003003001213, 34.53387040644884, 69.20171342790127, 33.32203067839146, 32.8863887116313, 27.563001960515976, 21.440275013446808, 17.56417006254196, 34.358846955001354, 29.530653730034828, 49.04593527317047, 36.699697375297546, 36.10602766275406, 53.121913224458694, 39.22316059470177, 28.28768640756607, 36.78206726908684, 39.34363275766373, 27.85578928887844, 24.009485729038715, 36.58217936754227, 39.433155208826065, 35.891405306756496, 36.52981482446194, 37.97166049480438, 38.546908646821976, 36.34491190314293, 17.602812498807907, 55.310407653450966, 18.036872148513794, 42.62988083064556, 17.74672418832779, 29.26247287541628, 29.184295795857906, 38.764700293540955, 34.51466467231512, 26.805690489709377, 38.31298463046551, 36.7769543081522, 27.626654133200645, 36.91647760570049, 38.09774573892355, 25.908850133419037, 35.78998148441315, 52.49457620084286, 38.83100301027298, 36.91384196281433, 38.264237344264984, 39.702681824564934, 25.8439714089036, 32.19670709222555, 24.312620982527733, 34.292176365852356, 37.010278552770615, 36.47737577557564, 27.606605552136898, 48.781054094433784, 37.663400173187256, 35.27039662003517, 36.763329058885574, 26.821859180927277, 36.59101203083992, 37.07478940486908, 28.442760929465294, 36.09166853129864, 39.079487323760986, 25.81380493938923, 37.10590302944183, 27.258768677711487, 26.888439431786537, 26.275228708982468, 24.895216338336468, 17.360378988087177, 23.930199444293976, 20.90589329600334, 38.90710324048996, 34.10616796463728, 28.580158948898315, 26.388369500637054, 39.41358998417854, 25.018438696861267, 28.661128133535385, 23.876193910837173, 38.82305882871151, 27.67613995820284, 25.583664886653423, 18.104531802237034, 38.7259665876627, 35.94415821135044, 18.034971319139004, 27.5800209492445, 17.565639689564705, 17.53506436944008, 34.96864717453718, 29.36100121587515, 27.558756060898304, 17.742070369422436, 18.044736236333847, 17.320665530860424, 17.649699933826923, 17.76513922959566, 27.61237695813179, 17.4547228962183, 24.78940412402153, 28.50749809294939, 28.608832508325577, 28.7394430488348, 17.356595024466515, 17.443004995584488, 17.818637192249298, 17.425070516765118, 17.51730963587761, 17.5512433052063, 27.977431192994118, 17.531946301460266, 28.785969130694866, 17.589815892279148, 17.370560206472874, 17.361516132950783, 18.80699396133423, 18.058205023407936, 17.58608967065811, 17.465632408857346, 27.523904107511044, 29.587658122181892, 36.82411648333073, 40.60613363981247, 26.137351989746094, 28.04476674646139, 31.045399606227875, 29.22429610043764, 39.81995768845081, 33.834315836429596, 37.449002265930176, 38.43528591096401, 29.963381588459015, 35.176703706383705, 39.05249014496803, 33.19648839533329, 32.98087324947119, 36.20440512895584, 36.65691614151001, 35.34650057554245, 26.393317617475986, 25.672716088593006, 41.24225117266178, 36.06200031936169, 39.070844650268555, 37.13989071547985, 17.32846163213253, 28.41180469840765, 32.111380249261856, 35.267019644379616, 36.734724417328835, 28.109127655625343, 22.46619015932083, 34.69741530716419, 22.956124506890774, 24.724910967051983, 37.368470802903175, 26.48425567895174, 38.84548507630825, 36.535656079649925, 43.48110221326351, 34.978809766471386, 39.946917444467545, 33.009566366672516, 44.89849787205458, 34.57795176655054, 36.60009242594242, 28.19810900837183, 26.423705741763115, 28.00838742405176, 32.13181719183922, 37.71636448800564, 38.63155469298363, 34.261506982147694, 39.467014372348785, 17.8396413102746, 36.61762550473213, 26.777682825922966, 38.92494738101959, 38.418782874941826, 39.43812474608421, 25.962689891457558, 37.7949345856905, 36.53118200600147, 38.69304992258549, 23.53209163993597, 35.194192081689835, 33.03501661866903, 24.45807307958603, 37.75286115705967, 28.948921710252762, 28.839532285928726, 38.5864581912756, 29.23599537461996, 27.79681421816349, 37.04940527677536, 28.11124362051487, 38.89792785048485, 28.907161206007004, 33.66803005337715, 37.2140035033226, 27.205456979572773, 35.939792171120644, 38.77043165266514, 28.02039124071598, 26.476080529391766, 23.79313949495554, 24.806690402328968, 18.909328617155552, 37.60837949812412, 27.873757295310497, 37.364233285188675, 40.29393196105957, 35.313257947564125, 34.998517483472824, 28.719072230160236, 36.72385774552822, 40.08042812347412, 17.743648029863834, 28.504776768386364, 27.485370635986328, 27.863995172083378, 38.967300206422806, 38.75197656452656, 26.604299433529377, 27.789327315986156, 38.9411523938179, 38.76403905451298, 36.26892529428005, 36.17155738174915, 36.78523749113083, 36.70139983296394, 26.843012310564518, 25.85495635867119, 36.40800900757313, 34.756897017359734, 33.68613310158253, 27.784966863691807, 38.76354731619358, 28.624966740608215, 35.14162264764309, 34.95258465409279, 26.73147711902857, 31.56079910695553, 38.98248448967934, 38.74213062226772, 34.77573115378618, 28.720369562506676, 28.69260124862194, 24.340440519154072, 36.70267574489117, 17.611902207136154, 37.33871877193451, 37.533337250351906, 37.760622799396515, 35.40338668972254, 37.11001202464104, 28.522626496851444, 36.637600511312485, 27.08432450890541, 27.84824650734663, 26.943635195493698, 33.9767774567008, 34.975298680365086, 29.11380212754011, 32.585302367806435, 36.812422797083855, 36.81959770619869, 26.662807911634445, 17.49966572970152, 33.54439698159695, 29.892737045884132, 26.95680968463421, 37.26894035935402, 17.40507036447525, 31.545312143862247, 35.229090601205826, 24.628045968711376, 28.274654410779476, 27.743523009121418, 27.551635168492794, 28.47613487392664, 17.5535399466753, 39.27820734679699, 36.382341757416725, 48.66291023790836, 42.89555363357067, 17.65501406043768, 39.070019498467445, 25.581125169992447, 17.476866953074932, 31.696987338364124, 39.212366566061974, 25.469505228102207, 27.323300018906593, 44.77793164551258, 17.485461197793484, 27.730757370591164, 25.922750122845173, 29.164736159145832, 26.951128616929054, 17.367349937558174, 28.634853661060333, 28.47062796354294, 29.021846130490303, 39.48223032057285, 17.450792714953423, 59.907589107751846, 39.127252995967865, 25.020159780979156, 38.05842995643616, 17.492059618234634, 24.327341467142105, 35.06952151656151, 36.46383807063103, 28.43897882848978, 28.04348897188902, 28.811932541429996, 36.86079569160938, 35.22104397416115, 17.68487226217985, 24.815923534333706, 33.529091626405716, 17.65672955662012, 47.20313288271427, 17.55179464817047, 27.54885610193014, 47.96700179576874, 46.48776538670063, 27.790511026978493, 35.89561767876148, 38.864798843860626, 28.42987421900034, 38.84398937225342, 23.370521143078804, 52.41594463586807, 21.143960766494274, 17.51066744327545, 35.485029220581055, 38.57459221035242, 29.76488508284092, 38.88331539928913, 25.802883319556713, 39.13534618914127, 27.27323118597269, 30.518662184476852, 33.1981023773551, 28.74818444252014, 17.37383008003235, 25.70913080126047, 38.711510598659515, 38.759881630539894, 29.030242934823036, 26.08256135135889, 23.717974312603474, 38.33147883415222, 17.35940482467413, 26.451900601387024, 28.068121522665024, 28.624416328966618, 29.22215312719345, 28.45846302807331, 26.33787039667368, 38.73125649988651, 25.78927855938673, 37.07311302423477, 28.6250626668334, 28.296655043959618, 27.893465012311935, 17.61676836758852, 33.373912796378136, 21.912057884037495, 35.87781358510256, 28.235698118805885, 17.784208059310913, 17.991983331739902, 27.126477099955082, 36.422839388251305, 37.1248759329319, 23.057508282363415, 27.132040821015835, 27.760110795497894, 27.347811497747898, 17.42609217762947, 33.30865688621998, 28.010454960167408, 29.069973155856133, 25.453124195337296, 26.968516409397125, 27.468116022646427, 42.21953637897968, 17.561543732881546, 33.711738884449005, 38.858192041516304, 39.40237499773502, 25.495698675513268, 24.063516408205032, 32.43669401854277, 38.32535445690155, 22.938787005841732, 63.78399208188057, 35.67676059901714, 17.745369113981724, 25.86871199309826, 40.129415690898895, 29.514922760426998, 38.87046501040459, 38.97320479154587, 25.24104993790388, 28.455195017158985, 32.75704476982355, 26.446678675711155, 38.609422743320465, 31.57015983015299, 28.556428849697113, 26.820771396160126, 45.92781700193882, 36.93966381251812, 23.246322758495808, 17.439760267734528, 37.16000355780125, 37.738751620054245, 25.70217289030552, 26.5585295855999, 34.8520465195179, 28.970818035304546, 36.95947118103504, 28.211450204253197, 62.81795725226402, 18.58719438314438, 26.691637001931667, 35.24444438517094, 25.884320959448814, 33.96492637693882, 23.59821740537882, 17.533427104353905, 17.606990411877632, 37.63049468398094],
  "Depth": 22.5,
  "Expectation Value": -9.50927734375,
  "Optimal Expectation Value": -12.381489753723145,
  "Optimizer durations [ms]": [15840.302, 82153.545, 18049.672, 17180.568, 15693.155, 78610.232, 15277.058, 15713.988, 16079.318, 16152.571, 43183.348, 41971.282, 107172.978, 16325.872, 18619.503, 73503.609, 16294.863, 18192.789, 86971.154, 18004.668, 14887.574, 104039.934, 15464.855, 16290.349, 18589.497, 46188.952, 16194.446, 71672.265, 43352.3, 106590.927, 16858.022, 16388.877, 84905.922, 16616.407, 29684.434, 74213.14, 25604.524, 16872.939, 15391.52, 72457.809, 17001.75, 16469.175, 72586.322, 14561.03, 15823.721, 14820.7, 15771.293, 17744.469, 60389.852, 15106.323, 17353.779, 17106.722, 15311.474, 73426.972, 72052.923, 15752.876, 16579.381, 14670.37, 15913.662, 73205.429, 22758.343, 15608.617, 17843.191, 78181.526, 19804.706, 15602.175, 14737.227, 45194.68, 17954.65, 15624.833, 16580.639, 120735.954, 73402.14, 15051.273, 25444.125, 16113.873, 37441.372, 22563.813, 29338.177, 17390.075, 15119.383, 84275.392, 17108.418, 15475.359, 87215.938, 25607.234, 94618.632, 19194.502, 76943.146, 15320.142, 15812.968, 14163.645, 15081.601, 73670.532, 32847.289, 73266.497, 17827.788, 15461.836, 15420.437, 71636.533, 37859.534, 17637.373, 15142.583, 77355.369, 17519.091, 23994.793, 53670.531, 21357.379, 13961.618, 14433.295, 77763.322, 26342.503, 105696.941, 15922.327, 15530.885, 77735.053, 22889.021, 15160.328, 105163.695, 16133.861, 6680728.994, 21497.491, 18365.277, 17385.675, 45338.124, 19603.914, 27182.503, 22242.326, 72581.903, 17153.165, 104721.485, 16587.24, 15126.697, 82038.594, 17008.54, 42406.74, 75966.218, 15094.851, 17742.09, 77434.912, 19476.36, 17787.912, 89510.789, 31215.954, 79488.605, 16729.1, 21870.951, 14842.583, 68882.042, 18185.555, 101836.94, 17371.167, 77098.396, 30659.7, 15789.805, 42315.738, 45209.696, 15194.852, 14600.302, 16249.112, 16581.011, 16448.02, 15720.35, 15921.051, 20231.645, 15956.215, 17917.787, 14697.933, 68271.414, 14797.952, 15789.562, 19582.502, 51328.75, 103418.799, 32026.989, 16401.82, 14203.483, 105612.837, 16855.497, 15503.97, 76598.403, 15267.976, 17956.748, 18062.515, 18126.358, 46156.185, 15269.106, 16186.8, 15256.877, 16247.021, 14917.893, 15229.264, 39070.809, 14535.583, 15514.476, 15155.48, 77477.13, 13615.509, 15715.443, 84211.505, 14618.619, 16961.851, 14316.759, 77344.418, 14539.505, 14472.662, 17469.573, 22178.836, 13663.885, 15892.048, 16203.724, 76146.851, 30249.72, 21667.631, 13605.362, 16132.389, 20024.467, 42079.797, 20659.743, 15945.247, 18326.243, 69143.443, 15647.578, 14410.606, 14191.822, 15276.092, 14324.951, 68606.563, 15714.18, 15462.675, 80392.763, 14742.989, 14741.799, 15116.186, 15974.417, 75968.639, 14891.594, 28149.212, 69665.853, 27368.588, 95235.828, 14142.254, 14765.632, 78349.393, 15605.589, 14192.662, 14106.275, 71573.945, 14943.435, 14888.896, 15204.043, 17327.681, 47331.369, 31432.355, 14788.612, 18467.76, 76396.488, 16266.425, 15382.625, 92331.68, 14781.72, 15231.662, 14828.188, 68026.909, 17403.921, 14563.268, 69653.33, 16309.583, 14321.199, 13281.764, 13578.845, 15544.38, 70719.871, 15707.259, 14380.91, 15718.956, 80722.531, 15590.528, 15428.369, 71944.808, 14018.487, 13608.885, 87471.87, 14204.405, 28777.495, 103063.822, 14501.676, 16177.36, 76374.434, 13754.743, 19885.271, 25852.605, 52549.068, 26785.895, 70410.933, 15185.668, 17261.181, 15697.122, 14635.874, 103270.957, 14318.947, 15320.793, 80410.044, 15374.684, 15020.546, 15364.021, 69942.634, 18124.006, 15614.947, 101790.133, 15248.061, 67012.679, 19426.567, 15003.326, 15231.444, 15411.827, 77372.347, 18533.886, 103017.822, 14259.222, 14693.439, 70660.868, 14539.398, 13516.761, 25453.7, 20191.85, 46453.599, 14580.387, 14423.145, 14556.102, 74352.176, 18856.372, 15086.5, 13448.204, 14356.343, 76240.928, 15662.114, 13993.369, 15327.655, 80963.792, 16511.674, 95188.214, 15849.282, 14261.698, 14218.632, 75278.174, 14066.106, 15862.48, 80246.285, 14382.089, 14780.105, 105146.222, 14655.262, 73844.692, 19000.017, 15749.653, 17911.686, 77616.169, 14575.741, 13793.174, 16831.163, 51348.507, 24946.004, 14359.492, 14894.642, 15806.209, 82980.054, 14567.071, 19603.19, 16359.837, 71801.38, 15120.767, 112689.144, 24077.464, 14281.709, 77325.539, 23034.457, 15233.775, 72147.981, 13621.499, 18986.024, 15241.765, 71802.371, 14230.055, 14665.261, 14184.891, 75804.082, 15958.031, 13730.146, 81656.907, 16485.882, 15061.766, 78621.427, 16220.844, 15646.533, 14014.106, 14450.951, 68240.509, 28761.534, 14487.056, 15769.199, 72403.527, 14656.968, 133358.237, 15280.663, 71276.214, 14909.224, 78928.024, 34722.624, 18659.038, 14177.453, 14229.064, 72032.582, 24230.466, 21434.085, 74843.606, 17864.48, 16034.938, 13686.727, 68219.227, 15068.962, 135457.492, 26690.592, 70805.411, 13388.585, 16830.189, 40800.041, 156905.816, 15283.845, 33615.779, 72865.408, 41722.582, 15065.089, 75022.881, 16665.838, 13966.304, 69763.873, 42433.38, 71810.54, 32069.406, 15191.673, 76658.077, 29464.003, 14845.456, 16137.489, 73092.712, 15733.278, 14309.956, 15435.812, 78516.654, 14979.719, 20070.188, 16801.922, 84487.411, 16128.489, 16554.395, 18726.935, 81649.62, 71927.545, 20416.28, 34768.768, 59334.592, 42177.531, 15595.979, 77214.207, 23879.68, 28491.473, 18015.732, 47752.769, 19423.337, 14664.262, 20441.938, 26768.634, 49606.876, 16221.799, 16971.156, 14842.976, 77505.68, 14689.198, 16534.265, 16621.645, 79401.198, 26509.104, 23132.634, 166263.229, 25999.14, 17174.951, 18209.897, 103196.434, 88559.866, 21489.291, 30696.193, 26305.061, 50338.729, 28147.32, 22463.207, 70857.642, 15836.356, 133334.691, 71183.234, 37666.26, 17206.482, 15919.272, 80707.262, 92155.839, 18059.302, 16814.192, 14805.281, 70708.862, 17576.27, 14472.245, 76510.134, 15199.118, 24390.172, 27745.405, 71362.42, 15803.627, 15571.338, 14997.476, 70474.643, 15514.573, 17915.129, 76661.204, 17323.513, 15361.505, 17398.061, 19547.265, 85969.269, 31876.502, 77836.463, 14872.174, 13984.412, 75085.212, 17896.878, 15321.847, 15497.478, 72520.889, 15008.052, 19586.713, 15808.951, 93702.263, 51959.229, 78116.851, 43243.363, 53893.769, 17481.516, 78290.548, 16545.18, 16670.215, 73460.77, 36634.454, 22366.137, 81236.541, 17408.944, 20738.796, 14053.224, 69821.083, 25207.794, 16580.747, 68528.65, 14393.597, 14909.42, 15603.077, 15706.311, 81790.889, 15055.526, 75582.624, 16266.037, 15040.576, 17402.294, 14288.01, 15207.841, 55536.588, 19565.821, 16591.215, 77117.498, 27662.851, 15998.683, 100414.909, 14560.964, 14970.227, 69956.395, 27105.86, 15065.232, 70739.726, 28871.362, 14712.338, 15821.062, 73578.336, 16005.118, 16315.859, 16379.253, 70052.053, 19112.682, 15437.804, 15919.738, 73984.507, 14979.894, 15393.78, 14425.095, 80144.521, 17092.352, 17552.556, 14595.156, 75589.76, 14848.808, 25429.667, 69470.582, 14096.647, 13558.302, 15684.277, 83078.636, 15762.213, 106076.912, 14736.151, 15611.135, 77631.43, 16517.408, 94963.447, 16599.827, 15561.215, 15124.373, 90127.362, 15708.848, 98669.271, 14760.807, 15626.434, 24748.83, 76875.583, 17196.47, 16316.262, 86485.006, 18042.429, 14888.42, 69474.711, 15980.783, 14229.604, 26252.206, 97706.248, 15694.154, 97400.575, 15225.063, 15619.534, 83093.465, 15219.029, 13834.422, 16509.879, 80754.255, 20261.429, 85138.679, 71164.989, 51774.717, 20599.559, 14280.904, 74318.101, 17403.543, 16244.387, 17754.552, 73646.081, 17822.076, 15674.389, 86959.492, 14396.717, 26977.484, 77500.007, 18735.327, 16109.196, 15833.919, 77170.207, 15340.529, 76200.152, 29080.29, 22016.732, 80720.534, 14446.262, 15306.857, 15417.225, 75780.494, 15873.142, 13450.302, 13638.396, 75934.162, 21036.884, 14549.023, 78861.517, 15556.039, 19040.092, 18026.635, 72087.58, 14619.701, 16616.846, 16055.322, 77135.235, 14947.745, 15530.347, 14234.514],
  "Optimizer iterations": 696,
  "Optimizer params": [0.670261585502781, 0.6662684446002494, 0.7658690902472478, 0.9284396945311131, 0.41413323200027163, 0.5135346824784847, 0.8990410185288675, 0.9628696143457283, 0.08052482901223332, 0.9831105491034293, 0.7633885781245866, 0.05518383485387147, 0.1936945439317724, 0.9925568443362073, 0.9901455541014018, 0.6132004602261223, 0.03477838592637503, 0.040104121190450946, 0.5910217235926901, 0.12006336749223229, 0.296512821145201, 0.9818205830671567, 0.9796125599736369, 0.9053680605164528, 0.5427082647460637, 0.9519111290954289, 0.5055020619197736, 0.9515366444851698, 0.9986892020804005, 0.9527501804677467, 0.7070083383439101, 0.021721724493688907, 0.5336343973746248, 0.9010889939977891, 0.933867384224627, 0.572222771603158, 0.24827357085114535, 0.7559721854241098, 0.69069288861052, 0.6795434326052548],
  "P": 0,
  "Problem": "IC",
  "QJob durations [ms]": [7857.178211212158, 41010.8847618103, 8906.033754348755, 8524.113178253174, 7780.876398086548, 39192.28172302246, 7578.711986541748, 7786.945343017578, 7976.9768714904785, 8011.958360671997, 21478.55043411255, 20922.40571975708, 53517.81964302063, 8050.896167755127, 9248.323917388916, 36684.428215026855, 8085.3776931762695, 9031.629085540771, 43422.80960083008, 8887.00008392334, 7375.083684921265, 51951.844692230225, 7624.353408813477, 8082.236051559448, 9176.07593536377, 23027.316331863403, 8034.053802490234, 35722.87344932556, 21613.03949356079, 53232.29789733887, 8317.616701126099, 8132.805824279785, 42388.76152038574, 8190.899848937988, 14777.761459350586, 37038.42782974243, 12691.521883010864, 8369.191646575928, 7630.67364692688, 36113.24071884155, 8433.685779571533, 8124.504566192627, 36224.5397567749, 7217.528820037842, 7803.855180740356, 7344.757080078125, 7821.984767913818, 8806.017398834229, 30130.824089050293, 7488.513231277466, 8563.836097717285, 8486.895561218262, 7592.473745346069, 36596.386432647705, 35966.37535095215, 7809.077262878418, 8222.126483917236, 7273.360729217529, 7838.120222091675, 36538.60521316528, 11313.227653503418, 7691.548824310303, 8854.660034179688, 39026.100158691406, 9791.556358337402, 7737.730026245117, 7304.117441177368, 22482.203483581543, 8911.563873291016, 7748.898267745972, 8226.678848266602, 60301.560401916504, 36585.64901351929, 7463.259220123291, 12659.926176071167, 7943.149089813232, 18652.27699279785, 11221.858024597168, 14600.257873535156, 8630.768775939941, 7496.052980422974, 42017.64011383057, 8489.83907699585, 7676.093578338623, 43488.12484741211, 12736.879348754883, 47185.07957458496, 9528.732299804688, 38406.84652328491, 7544.16561126709, 7840.080738067627, 7019.7343826293945, 7475.778102874756, 36771.68846130371, 16355.730533599854, 36517.26055145264, 8852.106094360352, 7667.213201522827, 7590.139865875244, 35757.67111778259, 18864.495038986206, 8759.390830993652, 7503.045558929443, 38562.29782104492, 8696.820735931396, 11937.798976898193, 26725.247383117676, 10610.452651977539, 6915.358066558838, 7098.773956298828, 38813.74549865723, 13102.834701538086, 52736.96708679199, 7899.016857147217, 7704.484224319458, 38755.27501106262, 11378.122568130493, 7463.961601257324, 52518.54753494263, 8002.467632293701, 3340252.2807121277, 10681.870222091675, 9120.926856994629, 8578.025341033936, 22607.484817504883, 9739.073753356934, 13470.580101013184, 11059.822082519531, 36224.74670410156, 8461.674213409424, 52296.40197753906, 8231.235027313232, 7446.694374084473, 40959.346771240234, 8385.067462921143, 21140.252590179443, 37919.79217529297, 7433.24613571167, 8805.938959121704, 38657.68241882324, 9622.161388397217, 8829.39863204956, 44693.61877441406, 15486.107349395752, 39681.105613708496, 8299.92151260376, 10815.776109695435, 7358.677387237549, 34378.058433532715, 8979.846954345703, 50856.014251708984, 8565.432071685791, 38482.70058631897, 15264.661312103271, 7773.623466491699, 21099.796295166016, 22545.69149017334, 7533.672094345093, 7242.982864379883, 8058.847427368164, 8171.348094940186, 8158.429384231567, 7792.841196060181, 7837.733507156372, 10051.267862319946, 7915.331602096558, 8891.691446304321, 7282.717704772949, 34019.28806304932, 7338.754653930664, 7828.673362731934, 9675.679206848145, 25600.153923034668, 51644.004821777344, 15889.753103256226, 8138.487815856934, 7036.236047744751, 52690.67573547363, 8363.642692565918, 7696.812152862549, 38186.458349227905, 7571.760177612305, 8857.044696807861, 8964.789867401123, 9000.041961669922, 22958.972454071045, 7571.04229927063, 8028.704643249512, 7564.886093139648, 8058.30192565918, 7395.8845138549805, 7497.132301330566, 19471.704959869385, 7208.454132080078, 7644.783496856689, 7515.2716636657715, 38669.56901550293, 6742.518424987793, 7793.179988861084, 41988.993644714355, 7243.34454536438, 8419.977188110352, 7044.183254241943, 38606.93550109863, 7209.033727645874, 7110.99648475647, 8670.898914337158, 11026.068210601807, 6716.07780456543, 7880.672454833984, 8041.491746902466, 37962.047815322876, 15059.698104858398, 10717.767238616943, 6744.966983795166, 7999.508380889893, 9896.38876914978, 20975.685119628906, 10267.539978027344, 7854.43639755249, 9100.375175476074, 34512.17555999756, 7704.220533370972, 7140.694379806519, 7030.097961425781, 7523.345470428467, 7105.15832901001, 34238.86823654175, 7740.45991897583, 7666.9745445251465, 40080.83248138428, 7303.561210632324, 7304.99792098999, 7442.86036491394, 7921.804428100586, 37925.17328262329, 7326.642274856567, 14017.016410827637, 34769.54746246338, 13559.961318969727, 47552.02627182007, 7013.612747192383, 7266.075134277344, 39111.84906959534, 7740.76771736145, 6976.079940795898, 6988.007545471191, 35666.4605140686, 7408.408164978027, 7383.0506801605225, 7483.433961868286, 8602.920532226563, 23600.47435760498, 15590.457439422607, 7330.7788372039795, 9169.996738433838, 38073.805809020996, 8069.422721862793, 7627.264976501465, 46047.51491546631, 7331.665515899658, 7551.359415054321, 7296.744585037231, 33954.001903533936, 8580.231666564941, 7217.32759475708, 34763.540267944336, 8037.575960159302, 7100.978851318359, 6583.009481430054, 6678.06601524353, 7708.4801197052, 35290.61317443848, 7734.176158905029, 7133.854627609253, 7795.551300048828, 40240.27395248413, 7724.636554718018, 7649.394750595093, 35851.70650482178, 6941.8535232543945, 6686.8791580200195, 43672.45435714722, 7037.777900695801, 14272.488117218018, 51472.17655181885, 7194.016933441162, 7968.576431274414, 38119.62842941284, 6811.685800552368, 9823.765516281128, 12861.999988555908, 26208.104610443115, 13279.852390289307, 35144.0224647522, 7529.412031173706, 8515.60926437378, 7789.658308029175, 7194.672107696533, 51569.36001777649, 7101.4039516448975, 7542.358875274658, 40138.16833496094, 7622.323751449585, 7391.06822013855, 7616.98842048645, 34907.7091217041, 8939.697742462158, 7748.992443084717, 50829.96988296509, 7504.356145858765, 33443.48907470703, 9656.148433685303, 7383.338928222656, 7552.289962768555, 7581.243991851807, 38621.21057510376, 9201.68399810791, 51390.30933380127, 7070.704460144043, 7283.622741699219, 35209.26642417908, 7201.414346694946, 6693.160772323608, 12607.616901397705, 10028.46622467041, 23163.059949874878, 7172.184467315674, 7146.930932998657, 7213.066577911377, 37054.1787147522, 9363.172054290771, 7417.490720748901, 6656.93473815918, 7116.042137145996, 38001.094818115234, 7767.75050163269, 6931.947708129883, 7539.961814880371, 40415.25220870972, 8188.408851623535, 47477.230072021484, 7861.946821212769, 7066.20979309082, 6988.772869110107, 37572.261810302734, 6970.013618469238, 7807.845115661621, 40059.66329574585, 7069.002628326416, 7328.219175338745, 52511.79838180542, 7204.178094863892, 36857.02872276306, 9437.767028808594, 7759.30380821228, 8890.038967132568, 38742.61498451233, 7163.058042526245, 6831.935882568359, 8351.030826568604, 25551.130771636963, 12409.70754623413, 7114.899158477783, 7323.392868041992, 7837.423086166382, 41427.95658111572, 7221.853256225586, 9733.016729354858, 8056.990623474121, 35844.90394592285, 7499.947071075439, 56225.45623779297, 11976.320743560791, 7079.715013504028, 38600.61550140381, 11457.024574279785, 7550.415754318237, 35960.90364456177, 6743.028879165649, 9425.395965576172, 7497.469663619995, 35836.54546737671, 6993.06583404541, 7275.690078735352, 7025.083541870117, 37786.948919296265, 7913.461923599243, 6800.541162490845, 40762.986183166504, 8179.7051429748535, 7467.656850814819, 39187.16597557068, 8050.555229187012, 7760.318756103516, 6887.171268463135, 7165.590047836304, 34061.25783920288, 14316.454887390137, 7179.505348205566, 7761.640787124634, 36144.068241119385, 7263.307332992554, 66558.7363243103, 7574.601888656616, 35573.40335845947, 7327.445268630981, 39403.63693237305, 17297.142028808594, 9204.591751098633, 7021.953344345093, 7050.725221633911, 35896.223068237305, 12048.810482025146, 10597.081661224365, 37353.67679595947, 8867.698669433594, 7894.435405731201, 6779.818058013916, 34043.13087463379, 7416.869640350342, 67669.23522949219, 13284.651041030884, 35278.73396873474, 6629.496812820435, 8349.784851074219, 20276.774406433105, 78389.32418823242, 7582.846164703369, 16683.910846710205, 36365.7808303833, 20744.616985321045, 7464.56241607666, 37445.478200912476, 8212.241172790527, 6926.128387451172, 34816.85709953308, 21091.153144836426, 35840.28625488281, 15975.141525268555, 7471.380949020386, 38268.1519985199, 14666.529178619385, 7299.541234970093, 8002.166271209717, 36481.76670074463, 7741.856098175049, 7089.2534255981445, 7650.392532348633, 39130.62286376953, 7432.2991371154785, 9969.610691070557, 8336.384057998657, 42179.598808288574, 7940.217733383179, 8209.278106689453, 9298.079013824463, 40695.133686065674, 35899.024963378906, 10146.673679351807, 17262.067317962646, 29601.502418518066, 21028.128147125244, 7674.724817276001, 38542.853355407715, 11875.860691070557, 14127.620697021484, 8943.603992462158, 23811.24210357666, 9594.810009002686, 7263.507843017578, 10153.855800628662, 13259.330749511719, 24738.475799560547, 8049.462080001831, 8420.137166976929, 7359.808444976807, 38636.32798194885, 7284.677028656006, 8203.929901123047, 8190.799713134766, 39637.43782043457, 13188.365459442139, 11503.168106079102, 83061.84005737305, 12939.684391021729, 8458.084106445313, 9042.974472045898, 51536.14044189453, 44162.87326812744, 10679.913997650146, 15224.954605102539, 13088.217735290527, 25091.214179992676, 13949.015617370605, 11165.245056152344, 35366.1572933197, 7857.048511505127, 66601.26876831055, 35527.212142944336, 18711.193084716797, 8540.178298950195, 7896.913290023804, 40231.353759765625, 46015.78187942505, 8962.430477142334, 8285.782814025879, 7333.974838256836, 35287.30797767639, 8725.628852844238, 7166.404962539673, 38130.7373046875, 7533.0491065979, 12132.168292999268, 13747.784614562988, 35618.12210083008, 7839.195728302002, 7661.755084991455, 7438.264846801758, 35171.82230949402, 7631.165504455566, 8890.48147201538, 38267.749547958374, 8540.38143157959, 7615.824222564697, 8635.461568832397, 9647.571086883545, 42919.75545883179, 15873.680114746094, 38855.22222518921, 7370.448589324951, 6867.612838745117, 37483.60562324524, 8881.961822509766, 7535.571575164795, 7686.923027038574, 36191.89167022705, 7378.755331039429, 9730.38911819458, 7840.841293334961, 46725.396156311035, 25921.690940856934, 38998.85177612305, 21496.335744857788, 26881.081581115723, 8613.28125, 39085.339069366455, 8204.702615737915, 8217.370986938477, 36663.886070251465, 18250.57315826416, 11064.006805419922, 40551.33056640625, 8635.37311553955, 10247.746706008911, 6962.252378463745, 34849.063873291016, 12465.466499328613, 8228.853225708008, 34199.76449012756, 7072.501420974731, 7395.58744430542, 7734.652280807495, 7789.861679077148, 40832.07082748413, 7469.342231750488, 37668.62106323242, 8070.964097976685, 7456.226825714111, 8579.492568969727, 7077.832937240601, 7542.54150390625, 27639.602422714233, 9711.334943771362, 8237.725734710693, 38436.092376708984, 13764.969110488892, 7877.999305725098, 50141.021728515625, 7216.033458709717, 7365.551233291626, 34911.94152832031, 13489.923000335693, 7469.325542449951, 35306.93483352661, 14377.035140991211, 7229.081153869629, 7844.791412353516, 36724.634647369385, 7879.28318977356, 8093.777894973755, 8126.631736755371, 34962.55683898926, 9489.953994750977, 7597.547769546509, 7893.696308135986, 36926.99861526489, 7362.6720905303955, 7629.345893859863, 7151.97229385376, 39943.17054748535, 8483.295440673828, 8712.950706481934, 7175.572395324707, 37729.81595993042, 7362.342357635498, 12647.71819114685, 34673.11334609985, 6985.412120819092, 6651.724338531494, 7775.906324386597, 41472.859382629395, 7757.873058319092, 52967.530727386475, 7306.853294372559, 7741.949558258057, 38747.83754348755, 8137.6237869262695, 47421.04959487915, 8232.704639434814, 7656.984090805054, 7503.207683563232, 45008.066177368164, 7729.257583618164, 49273.29063415527, 7314.058780670166, 7681.713581085205, 12307.058811187744, 38370.617628097534, 8472.973823547363, 8091.055393218994, 43179.03995513916, 8954.378843307495, 7378.63826751709, 34610.368967056274, 7927.272081375122, 7049.509525299072, 12995.899200439453, 48788.56372833252, 7783.475637435913, 48565.15026092529, 7550.3575801849365, 7748.247861862183, 41481.900691986084, 7548.559665679932, 6848.474979400635, 8124.971389770508, 40311.14625930786, 10068.63784790039, 42439.67628479004, 35517.49873161316, 25825.481414794922, 10170.07303237915, 7075.193881988525, 37096.49658203125, 8577.765703201294, 8054.940938949585, 8818.767070770264, 36695.37043571472, 8848.657131195068, 7775.262832641602, 43353.057861328125, 7133.062124252319, 13428.831815719604, 38623.44217300415, 9302.300453186035, 7991.335153579712, 7855.053424835205, 38524.26862716675, 7543.107509613037, 38038.17009925842, 14474.328994750977, 10881.811380386353, 40293.970823287964, 7158.1292152404785, 7524.540424346924, 7641.356468200684, 37826.995849609375, 7816.616773605347, 6667.5450801849365, 6754.3463706970215, 37841.77041053772, 10455.865144729614, 7207.689523696899, 39299.92151260376, 7712.419509887695, 9454.56600189209, 8884.681224822998, 35977.20003128052, 7242.980003356934, 8184.432029724121, 7966.855049133301, 38504.048109054565, 7347.251415252686, 7700.395107269287, 7052.555561065674],
  "QPU": "4010001",
  "Qubits": 10,
  "Queue durations [ms]": [890.500009059906, 1421.999990940094, 1428.49999666214, 1853.0000448226929, 1203.0000388622284, 32035.999357700348, 956.000030040741, 918.500006198883, 1353.0000448226929, 1111.0000014305115, 1041.4999723434448, 756.9999992847443, 46829.50162887573, 1220.0000286102295, 1579.9999833106995, 29649.499654769897, 1030.4999947547913, 2352.4999022483826, 35941.00093841553, 1824.9999284744263, 705.5000066757202, 29661.50063276291, 1055.999994277954, 1149.4999527931213, 958.0000042915344, 16294.499635696411, 1597.000002861023, 1061.4999830722809, 1252.4999976158142, 30002.49946117401, 1824.0000009536743, 1154.4999480247498, 4833.500146865845, 1249.4999766349792, 3087.000012397766, 30151.000261306763, 1079.9999833106995, 1067.5000250339508, 797.5000143051147, 29377.000331878662, 1929.5000433921814, 1630.5000185966492, 28837.99934387207, 743.0000007152557, 1151.4999866485596, 922.9999780654907, 1027.4999737739563, 2479.999899864197, 1354.4999659061432, 834.9999785423279, 1632.0000290870667, 1583.5000276565552, 1002.5000274181366, 29828.000128269196, 1380.9999823570251, 765.500009059906, 1580.4999470710754, 809.5000088214874, 1189.0000104904175, 1450.5000412464142, 1014.9999856948853, 952.4999558925629, 2499.0000128746033, 1345.5000221729279, 3222.5000858306885, 1022.4999785423279, 1138.9999985694885, 15241.50025844574, 2452.0000219345093, 913.0000174045563, 1479.9999594688416, 48370.001912117004, 29442.99989938736, 1047.9999780654907, -7.499992847442627, 1157.9999923706055, 839.9999737739563, 4123.9999532699585, 1555.5000007152557, 1028.9999842643738, -187.5, 32283.500611782074, 1316.5000081062317, 1029.9999713897705, 1675.5000352859497, 1093.4999883174896, 31509.50002670288, 2314.5000338554382, 812.0000064373016, 921.999990940094, 1040.9999787807465, 847.000002861023, 1069.5000290870667, 28173.000693321228, 8874.999582767487, 27703.499734401703, 1078.499972820282, 974.0000367164612, 854.9999892711639, 29182.50024318695, 1039.4999980926514, 2164.9999618530273, 867.000013589859, 1447.4999606609344, 1849.5000004768372, 1030.5000245571136, 15139.99992609024, 1880.9999823570251, 661.0000133514404, 960.999995470047, 31822.50040769577, -99.99999403953552, 42334.500312805176, 1168.999969959259, 1265.500009059906, 31825.499773025513, 869.4999814033508, 924.4999885559082, 30823.000192642212, 1291.0000085830688, 3674.000024795532, 756.9999992847443, 1472.5000262260437, 1057.99999833107, 1233.5000038146973, 2679.0000200271606, 982.5000166893005, 4178.500086069107, 28439.999043941498, 1505.9999823570251, 30971.000611782074, 1420.9999740123749, 844.0000116825104, 1140.00004529953, 1142.9999768733978, 1806.9999814033508, 31537.000447511673, 828.499972820282, 1395.9999978542328, 31936.50072813034, 3204.9999833106995, 1672.5000739097595, 32117.000699043274, 912.9999876022339, 29257.499933242798, 1167.9999828338623, 991.0000264644623, 1146.4999914169312, 867.000013589859, 2697.499990463257, 32102.50037908554, 1064.0000104904175, 1032.499998807907, 1438.9999508857727, 204.99998331069946, 944.9999928474426, 1439.0000104904175, 1154.5000076293945, 912.4999940395355, 1919.0000295639038, 1564.0000104904175, 1600.9999811649323, 1385.0000500679016, 1450.9999752044678, 1473.9999771118164, 1233.5000038146973, 1262.5000178813934, 789.000004529953, 930.9999942779541, 1069.9999928474426, 917.9999828338623, 3050.0000715255737, 14807.999789714813, 1626.5000104904175, 1048.9999651908875, 1748.4999895095825, 872.9999959468842, 32181.000590324402, 1576.4999687671661, 1012.499988079071, 928.9999902248383, 824.999988079071, 2096.000075340271, 2250.5000233650208, 2065.999925136566, 16190.499901771545, 1031.000018119812, 1696.999967098236, 985.5000078678131, 1185.0000023841858, 861.0000014305115, 1126.499980688095, 906.5000116825104, 1118.99995803833, 1356.4999997615814, 914.9999916553497, 32030.500054359436, 941.5000081062317, 1193.0000185966492, 28396.499395370483, 989.0000224113464, 1008.4999799728394, 730.0000190734863, 32397.50075340271, 699.4999945163727, 700.0000178813934, 2687.500059604645, 3208.000063896179, 898.499995470047, 1370.4999685287476, 2036.5000367164612, 31364.000141620636, 7483.499884605408, 1552.9999732971191, 627.5000125169754, 1500.499963760376, 947.9999840259552, 14771.00020647049, 1419.5000231266022, 1488.4999990463257, 923.9999949932098, 821.0000097751617, 1204.0000259876251, 926.499992609024, 993.0000305175781, 885.0000202655792, 925.5000054836273, 28178.000807762146, 753.000020980835, 1162.500023841858, 31954.00059223175, 1033.9999794960022, 931.4999878406525, 1064.9999976158142, 1342.0000076293945, 27909.00045633316, 1151.4999866485596, 817.499965429306, 25092.50083565712, 6050.000071525574, 27996.999382972717, 800.000011920929, 804.999977350235, 2533.499926328659, 1542.9999828338623, 715.499997138977, 917.5000190734863, 1686.9999766349792, 1069.000005722046, 789.000004529953, 985.4999780654907, 1355.5000126361847, 1488.4999990463257, 6261.000096797943, 991.0000264644623, 872.0000088214874, 31536.000549793243, 1635.4999840259552, 1577.50004529953, 1551.5000522136688, 1334.500014781952, 967.0000374317169, 798.4999716281891, 953.499972820282, 2596.4999198913574, 1049.4999587535858, 1653.499960899353, 1605.4999828338623, 1123.4999895095825, 895.0000107288361, 1012.5000178813934, 1511.5000307559967, 28736.000061035156, 1024.4999527931213, 861.4999949932098, 1736.5000247955322, 33878.500670194626, 1493.4999346733093, 1216.4999842643738, 29459.499835968018, 1013.5000050067902, 767.0000195503235, 839.9999737739563, 783.0000221729279, 1567.5000250339508, 2265.500009059906, 817.9999887943268, 968.500018119812, 31489.49906229973, 815.4999911785126, 3186.0000491142273, 594.4999903440475, 19721.00004553795, -94.9999988079071, 28545.999884605408, 979.0000021457672, 1729.9999594688416, 1582.00004696846, 1072.4999904632568, 942.5000250339508, 1035.0000262260437, 1309.000015258789, 33834.49882268906, 1319.000005722046, 1151.0000228881836, 766.4999961853027, 1072.4999904632568, 2046.0000038146973, 898.0000019073486, 31262.000739574432, 1383.5000097751617, 866.0000264644623, 2798.0000376701355, 1114.5000159740448, 999.5000064373016, 1065.4999911785126, 32040.999710559845, 3360.5000972747803, 44557.50027298927, 793.9999997615814, 1290.0000214576721, 28612.000703811646, 978.9999723434448, 842.0000076293945, 1467.4999713897705, 3732.5000762939453, 1404.5000672340393, 750.9999871253967, 946.5000033378601, 1004.0000081062317, 28524.500221014023, 3153.500109910965, 1044.9999868869781, 688.5000169277191, 875.9999871253967, 31260.00028848648, 1069.4999992847443, 757.4999928474426, 1327.9999792575836, 33733.49905014038, 1995.0000643730164, 31273.49963784218, 1954.5000195503235, 758.0000162124634, 958.9999914169312, 31323.49994778633, 1032.499998807907, 1775.4999995231628, 29822.999507188797, 1120.0000047683716, 1040.499985218048, 46251.999884843826, 752.0000040531158, 460.50000190734863, 2972.499907016754, 1180.4999709129333, 1415.499985218048, 31347.500443458557, 1116.4999604225159, 528.0000120401382, 1205.5000364780426, 15533.000409603119, 940.4999911785126, 1084.9999785423279, 868.5000240802765, 1583.0000042915344, 34838.001787662506, 759.4999969005585, 425.49997568130493, 1509.499967098236, 28840.49928188324, 1143.500030040741, 997.5000023841858, 1687.5, 893.0000066757202, 32085.500240325928, 1354.4999659061432, 832.0000171661377, 28862.500697374344, 669.4999933242798, 2972.499966621399, 1245.5000281333923, 1483.5000038146973, 1036.9999706745148, 1021.0000276565552, 769.4999873638153, 30725.4998087883, 891.4999961853027, 777.5000035762787, 34298.00081253052, 1911.4999771118164, 1163.9999747276306, 33028.00112962723, 1571.50000333786, 1395.000010728836, 867.000013589859, 1405.5000245571136, 1304.500013589859, 8516.000270843506, 686.4999830722809, 1414.0000343322754, 717.5000011920929, 838.4999930858612, 29699.99986886978, 928.9999604225159, 1407.9999923706055, 932.5000047683716, 29047.000646591187, 886.9999945163727, 1658.5000157356262, 936.5000128746033, 738.999992609024, 1604.0000319480896, 956.000030040741, 965.9999907016754, 1464.5000100135803, 2573.4998881816864, 1528.5000503063202, 945.499986410141, 914.5000278949738, 775.4999995231628, 7939.000189304352, 1351.9999980926514, 28691.50084257126, 791.4999723434448, 1460.9999656677246, 886.000007390976, 55962.99934387207, 1165.5000448226929, 6398.000180721283, 28320.500016212463, 939.5000040531158, 826.9999921321869, 27341.99982881546, 1609.5000505447388, 734.499990940094, -150.9999930858612, 868.5000240802765, 29339.500069618225, 9488.499879837036, 1133.5000395774841, 31494.000732898712, 4569.999933242798, 875.9999871253967, 1387.5000178813934, 29061.49923801422, 947.9999840259552, 1126.0000169277191, 1120.9999918937683, 32018.999218940735, 1002.5000274181366, 2885.999917984009, 1649.0000486373901, 31433.49978327751, 1010.4999840259552, 1337.5000059604645, 2951.5000581741333, 3582.4999809265137, 1450.5000114440918, 1698.9999413490295, 9903.499841690063, 2091.00005030632, 921.999990940094, 1262.499988079071, 31109.999179840088, 1433.4999918937683, 1671.9999313354492, 1511.000007390976, 2044.5000529289246, 2628.499925136566, 882.4999928474426, 1157.5000286102295, 1180.4999709129333, 14424.999922513962, 1149.0000486373901, 796.0000038146973, 756.9999992847443, 31449.49972629547, 860.4999780654907, 1665.5000448226929, 1222.9999899864197, 32266.999125480652, 1538.9999747276306, 1897.4999785423279, 76407.99671411514, 2314.5000338554382, 1267.4999833106995, 2804.0000200271606, 32080.499172210693, 28380.000948905945, 518.0000066757202, 2621.9999492168427, 953.9999961853027, 1169.5000231266022, 2030.4999351501465, 1457.5000405311584, 1355.0000190734863, 906.499981880188, 32073.499143123627, 1036.5000069141388, 891.0000026226044, 1695.9999799728394, 1356.4999997615814, 3095.4999327659607, 33578.49895954132, 1935.0000023841858, 1351.500004529953, 958.4999978542328, 28655.99998831749, 1915.499985218048, 914.499968290329, 31505.49978017807, 897.0000147819519, 1018.5000002384186, 7214.499950408936, 6851.999998092651, 1528.0000269412994, 1532.4999690055847, 933.9999854564667, 28154.499650001526, 1026.500016450882, 2726.5000343322754, 31956.99906349182, 1623.4999299049377, 945.9999799728394, 1551.9999861717224, 2353.999972343445, 28249.999910593033, 1773.9999890327454, 32218.50085258484, 867.499977350235, 951.9999921321869, 28437.500715255737, 1507.4999928474426, 972.4999964237213, 1009.4999670982361, 28636.5002989769, 1009.0000331401825, 2888.499915599823, 1483.5000038146973, 1535.999983549118, 2966.5000438690186, 31438.500583171844, 14843.999683856964, 16095.50029039383, 731.000006198883, 32389.99906182289, 729.4999957084656, 1764.5000219345093, 1802.5000095367432, 1403.499960899353, 4492.999881505966, 2839.4998908042908, 1592.5000309944153, 2614.4999265670776, 924.9999821186066, 1114.4999861717224, 4399.499803781509, 1923.999935388565, 27828.49931716919, 942.9999887943268, 789.9999916553497, 1135.5000138282776, 829.5000195503235, 27562.50062584877, 1062.0000064373016, 834.0000212192535, 1521.0000276565552, 671.4999973773956, 1640.500009059906, 745.0000047683716, 911.9999706745148, 2183.5000216960907, 863.4999990463257, 1547.0000505447388, 31590.00027179718, 7723.000019788742, 1038.9999747276306, 9620.999813079834, 1256.500005722046, 924.4999885559082, 28510.50055027008, 1145.5000042915344, 1017.9999768733978, 1083.5000276565552, 994.0000176429749, 357.9999804496765, 664.4999980926514, 2453.499913215637, 1067.00000166893, 1341.4999842643738, 992.5000369548798, 28545.500725507736, 930.9999942779541, 1339.5000100135803, 1478.5000085830688, 30679.999351501465, 740.5000030994415, 1382.0000290870667, 983.0000102519989, 32519.500732421875, 1587.9999995231628, 1453.5000324249268, 659.9999964237213, 31401.499897241592, 1046.999990940094, 709.0000212192535, 28614.00067806244, 969.9999690055847, 855.9999763965607, 1054.4999837875366, 3918.999969959259, 949.5000243186951, 46445.0007379055, 751.4999806880951, 1297.4999845027924, 31948.49920272827, 1304.0000200271606, 8622.499734163284, 1328.000009059906, 1125.499963760376, 1041.5000021457672, 2734.499990940094, 869.5000112056732, 28559.49905514717, 1083.9999914169312, 1426.9999861717224, 2425.5000352859497, 32043.49920153618, 1055.0000071525574, 1430.499941110611, 29110.99946498871, 2269.9999809265137, 1078.499972820282, 28324.999541044235, 1315.500020980835, 915.0000214576721, 1198.500007390976, -1000.0, 972.000002861023, 28425.500720739365, 1060.0000023841858, 1398.9999890327454, 4066.0001039505005, 833.9999914169312, 613.0000054836273, 1344.5000052452087, 32961.49969100952, 1193.5000121593475, 31327.999472618103, 1372.9999661445618, 106.50002956390381, 858.9999973773956, 963.9999866485596, 28271.999657154083, 933.9999854564667, 1331.499993801117, 734.9999845027924, 29671.99981212616, 2453.000068664551, 1802.0000457763672, 8405.00009059906, 835.0000083446503, 1133.4999799728394, 797.0000207424164, 2510.9999775886536, 1237.999975681305, 1092.0000076293945, 1493.499994277954, 879.50000166893, 31478.000938892365, 989.9999797344208, 939.9999976158142, 29202.500373125076, 961.5000188350677, 1445.0000524520874, 1448.0000138282776, 31676.9996881485, 1493.5000240802765, 878.4999847412109, 831.9999873638153, 31393.499791622162, 4305.000066757202, 797.0000207424164, 32898.0005979538, 1378.5000443458557, 3017.0000791549683, 2399.9999165534973, 1037.0000302791595, 735.5000078678131, 1635.4999542236328, 1782.0000052452087, 1434.499979019165, 960.999995470047, 1417.000025510788, 911.5000069141388],
  "Shots": 4096,
  "Size": 10,
  "Total Algorithm duration [s]": 31470.315,
  "Total Classic duration [s]": 15791.772894086836,
  "Total Quantum duration [s]": 15678.542105913162
}
