{
  "Circuit execution durations [ms]": [217.01359748840332, 141.6611671447754, 141.93153381347656, 141.54410362243652, 140.63286781311035, 140.93732833862305, 140.96736907958984, 210.37817001342773, 141.36123657226563, 141.3412094116211, 141.25990867614746, 140.81573486328125, 140.87986946105957, 141.71433448791504, 141.2508487701416, 141.2816047668457, 142.29202270507813, 140.71965217590332, 141.0658359527588, 140.81525802612305, 210.64472198486328, 141.2944793701172, 141.1147117614746, 142.43602752685547, 140.54059982299805, 140.66720008850098, 141.3872241973877, 210.48736572265625, 141.3412094116211, 141.74866676330566, 141.3426399230957, 142.52734184265137, 141.80684089660645, 140.48242568969727, 210.0527286529541, 142.28558540344238, 140.5494213104248, 141.33167266845703, 141.03055000305176, 140.52104949951172, 141.02554321289063, 141.4487361907959, 141.0384178161621, 140.99836349487305, 141.2649154663086, 140.13338088989258, 140.70534706115723, 209.92445945739746, 140.84148406982422, 140.69414138793945, 140.83051681518555, 141.1001682281494, 141.05510711669922, 140.80142974853516, 209.855318069458, 141.18432998657227, 140.93923568725586, 140.55275917053223, 140.8395767211914, 141.2220001220703, 141.52145385742188, 140.71917533874512, 141.39938354492188, 142.17305183410645, 140.38658142089844, 141.51620864868164, 140.85650444030762, 211.2421989440918, 140.90490341186523, 141.65139198303223, 141.88480377197266, 142.87066459655762, 141.4341926574707, 141.2496566772461, 209.78879928588867],
  "Depth": 607.0,
  "Expectation Value": -3.16357421875,
  "Optimal Expectation Value": -6.0,
  "Optimizer durations [ms]": [253.871, 178.59, 178.654, 177.662, 177.039, 176.977, 178.006, 247.229, 177.812, 178.17, 177.614, 177.085, 177.153, 178.478, 245.408, 178.236, 179.136, 177.669, 177.588, 177.631, 247.162, 177.817, 177.514, 179.001, 176.693, 176.588, 177.488, 246.274, 177.887, 178.565, 177.507, 178.901, 178.692, 176.431, 246.86, 179.125, 176.675, 177.797, 177.239, 176.678, 177.806, 245.368, 177.276, 177.66, 177.599, 176.354, 177.116, 245.932, 177.149, 176.81, 177.427, 177.34, 177.772, 177.104, 246.62, 177.717, 177.163, 176.525, 177.225, 177.597, 177.921, 244.946, 177.935, 179.017, 176.875, 177.96, 177.109, 247.582, 177.408, 177.73, 178.659, 179.524, 177.754, 177.612, 246.297],
  "Optimizer iterations": 75,
  "Optimizer params": [0.9689594654116208, 0.5148058514884166, 0.9718169673409925, 0.6818964056153919, 0.6437683090459206, 0.984978358396777],
  "P": 3,
  "Problem": "DSP",
  "QJob durations [ms]": [217.01359748840332, 141.6611671447754, 141.93153381347656, 141.54410362243652, 140.63286781311035, 140.93732833862305, 140.96736907958984, 210.37817001342773, 141.36123657226563, 141.3412094116211, 141.25990867614746, 140.81573486328125, 140.87986946105957, 141.71433448791504, 141.2508487701416, 141.2816047668457, 142.29202270507813, 140.71965217590332, 141.0658359527588, 140.81525802612305, 210.64472198486328, 141.2944793701172, 141.1147117614746, 142.43602752685547, 140.54059982299805, 140.66720008850098, 141.3872241973877, 210.48736572265625, 141.3412094116211, 141.74866676330566, 141.3426399230957, 142.52734184265137, 141.80684089660645, 140.48242568969727, 210.0527286529541, 142.28558540344238, 140.5494213104248, 141.33167266845703, 141.03055000305176, 140.52104949951172, 141.02554321289063, 141.4487361907959, 141.0384178161621, 140.99836349487305, 141.2649154663086, 140.13338088989258, 140.70534706115723, 209.92445945739746, 140.84148406982422, 140.69414138793945, 140.83051681518555, 141.1001682281494, 141.05510711669922, 140.80142974853516, 209.855318069458, 141.18432998657227, 140.93923568725586, 140.55275917053223, 140.8395767211914, 141.2220001220703, 141.52145385742188, 140.71917533874512, 141.39938354492188, 142.17305183410645, 140.38658142089844, 141.51620864868164, 140.85650444030762, 211.2421989440918, 140.90490341186523, 141.65139198303223, 141.88480377197266, 142.87066459655762, 141.4341926574707, 141.2496566772461, 209.78879928588867],
  "QPU": "9000001",
  "Qubits": 13,
  "Queue durations [ms]": [0.0, 0.0, 0.0, 0.0, 0.0, 0.0, 0.0, 0.0, 0.0, 0.0, 0.0, 0.0, 0.0, 0.0, 0.0, 0.0, 0.0, 0.0, 0.0, 0.0, 0.0, 0.0, 0.0, 0.0, 0.0, 0.0, 0.0, 0.0, 0.0, 0.0, 0.0, 0.0, 0.0, 0.0, 0.0, 0.0, 0.0, 0.0, 0.0, 0.0, 0.0, 0.0, 0.0, 0.0, 0.0, 0.0, 0.0, 0.0, 0.0, 0.0, 0.0, 0.0, 0.0, 0.0, 0.0, 0.0, 0.0, 0.0, 0.0, 0.0, 0.0, 0.0, 0.0, 0.0, 0.0, 0.0, 0.0, 0.0, 0.0, 0.0, 0.0, 0.0, 0.0, 0.0, 0.0],
  "Shots": 4096,
  "Size": 8,
  "Total Algorithm duration [s]": 14.156,
  "Total Classic duration [s]": 2.9364896831512457,
  "Total Quantum duration [s]": 11.219510316848755
}
