{
  "Circuit execution durations [ms]": [54.31234836578369, 87.12577819824219, 53.925514221191406, 54.032325744628906, 54.12590503692627, 86.95447444915771, 53.59697341918945, 53.94136905670166, 53.928494453430176, 87.25476264953613, 53.88617515563965, 53.77602577209473, 54.094672203063965, 87.16762065887451, 53.84194850921631, 53.951382637023926, 53.92932891845703, 87.77320384979248, 53.9623498916626, 54.63123321533203, 53.838133811950684, 86.91871166229248, 53.884148597717285, 53.68232727050781, 54.07118797302246, 87.06343173980713, 53.800106048583984, 53.94279956817627, 54.23307418823242, 86.72511577606201, 54.08167839050293, 54.0621280670166, 53.78603935241699, 87.58270740509033, 54.2219877243042, 54.53288555145264, 53.91955375671387, 87.29755878448486, 53.754568099975586, 53.858399391174316, 54.227352142333984, 87.19074726104736, 53.928256034851074, 53.96437644958496, 53.865790367126465, 87.08560466766357, 54.0463924407959, 53.72512340545654, 53.79974842071533, 87.3945951461792, 53.70950698852539, 54.03602123260498, 54.099082946777344, 86.9370698928833, 53.77602577209473, 53.989410400390625, 53.79891395568848, 87.57460117340088, 54.61394786834717, 53.72178554534912, 53.92789840698242, 86.96901798248291, 53.72917652130127, 53.35879325866699, 53.98368835449219, 87.00478076934814, 53.61056327819824, 53.7724494934082, 53.79354953765869, 86.78460121154785, 53.93779277801514, 54.00717258453369, 54.08978462219238, 86.90810203552246, 53.871989250183105, 53.85780334472656, 53.75850200653076, 86.80999279022217, 54.02719974517822, 53.61747741699219, 53.92777919769287, 87.11636066436768, 53.682923316955566, 53.694844245910645, 53.873538970947266, 87.08512783050537, 53.86781692504883, 53.7569522857666, 53.87556552886963, 86.87734603881836, 53.54940891265869, 53.47740650177002, 53.67076396942139, 87.11075782775879, 53.81321907043457, 53.742289543151855, 53.88307571411133, 86.77566051483154, 53.79080772399902, 53.67624759674072, 53.79164218902588, 87.05580234527588],
  "Depth": 2.0,
  "Expectation Value": -4.526218414306641,
  "Optimal Expectation Value": -4.610499858856201,
  "Optimizer durations [ms]": [113.24, 178.375, 112.086, 112.087, 112.266, 178.023, 111.272, 111.905, 111.881, 178.608, 111.951, 111.507, 112.384, 178.499, 111.874, 111.951, 111.935, 179.813, 112.287, 113.347, 111.691, 177.883, 112.019, 111.549, 112.35, 178.409, 111.71, 111.913, 112.593, 177.554, 112.307, 112.174, 111.752, 179.351, 112.699, 113.216, 111.95, 178.851, 111.555, 111.873, 112.486, 178.767, 112.047, 112.097, 111.906, 178.343, 112.43, 111.757, 111.737, 179.155, 111.719, 112.157, 112.245, 178.118, 111.697, 111.964, 111.743, 179.449, 113.43, 111.633, 111.841, 178.158, 111.647, 110.865, 112.582, 178.661, 111.203, 111.637, 111.725, 177.714, 112.485, 112.274, 112.452, 178.089, 111.953, 111.855, 111.611, 177.684, 112.318, 111.464, 112.033, 178.504, 111.529, 111.475, 111.756, 178.298, 112.209, 111.696, 112.022, 177.928, 111.294, 110.974, 111.427, 178.794, 112.04, 112.289, 112.039, 177.791, 111.786, 111.423, 111.641, 178.426],
  "Optimizer iterations": 102,
  "Optimizer params": [0.9757397587976901, 0.8027730469318345, 0.6306297869481735, 0.4834627625870966, 0.7807341558034339, 0.6339386018188484, 0.7974100420423493, 0.4699333770608018],
  "P": 0,
  "Problem": "RH",
  "QJob durations [ms]": [54.31234836578369, 87.12577819824219, 53.925514221191406, 54.032325744628906, 54.12590503692627, 86.95447444915771, 53.59697341918945, 53.94136905670166, 53.928494453430176, 87.25476264953613, 53.88617515563965, 53.77602577209473, 54.094672203063965, 87.16762065887451, 53.84194850921631, 53.951382637023926, 53.92932891845703, 87.77320384979248, 53.9623498916626, 54.63123321533203, 53.838133811950684, 86.91871166229248, 53.884148597717285, 53.68232727050781, 54.07118797302246, 87.06343173980713, 53.800106048583984, 53.94279956817627, 54.23307418823242, 86.72511577606201, 54.08167839050293, 54.0621280670166, 53.78603935241699, 87.58270740509033, 54.2219877243042, 54.53288555145264, 53.91955375671387, 87.29755878448486, 53.754568099975586, 53.858399391174316, 54.227352142333984, 87.19074726104736, 53.928256034851074, 53.96437644958496, 53.865790367126465, 87.08560466766357, 54.0463924407959, 53.72512340545654, 53.79974842071533, 87.3945951461792, 53.70950698852539, 54.03602123260498, 54.099082946777344, 86.9370698928833, 53.77602577209473, 53.989410400390625, 53.79891395568848, 87.57460117340088, 54.61394786834717, 53.72178554534912, 53.92789840698242, 86.96901798248291, 53.72917652130127, 53.35879325866699, 53.98368835449219, 87.00478076934814, 53.61056327819824, 53.7724494934082, 53.79354953765869, 86.78460121154785, 53.93779277801514, 54.00717258453369, 54.08978462219238, 86.90810203552246, 53.871989250183105, 53.85780334472656, 53.75850200653076, 86.80999279022217, 54.02719974517822, 53.61747741699219, 53.92777919769287, 87.11636066436768, 53.682923316955566, 53.694844245910645, 53.873538970947266, 87.08512783050537, 53.86781692504883, 53.7569522857666, 53.87556552886963, 86.87734603881836, 53.54940891265869, 53.47740650177002, 53.67076396942139, 87.11075782775879, 53.81321907043457, 53.742289543151855, 53.88307571411133, 86.77566051483154, 53.79080772399902, 53.67624759674072, 53.79164218902588, 87.05580234527588],
  "QPU": "9000001",
  "Qubits": 8,
  "Queue durations [ms]": [0.0, 0.0, 0.0, 0.0, 0.0, 0.0, 0.0, 0.0, 0.0, 0.0, 0.0, 0.0, 0.0, 0.0, 0.0, 0.0, 0.0, 0.0, 0.0, 0.0, 0.0, 0.0, 0.0, 0.0, 0.0, 0.0, 0.0, 0.0, 0.0, 0.0, 0.0, 0.0, 0.0, 0.0, 0.0, 0.0, 0.0, 0.0, 0.0, 0.0, 0.0, 0.0, 0.0, 0.0, 0.0, 0.0, 0.0, 0.0, 0.0, 0.0, 0.0, 0.0, 0.0, 0.0, 0.0, 0.0, 0.0, 0.0, 0.0, 0.0, 0.0, 0.0, 0.0, 0.0, 0.0, 0.0, 0.0, 0.0, 0.0, 0.0, 0.0, 0.0, 0.0, 0.0, 0.0, 0.0, 0.0, 0.0, 0.0, 0.0, 0.0, 0.0, 0.0, 0.0, 0.0, 0.0, 0.0, 0.0, 0.0, 0.0, 0.0, 0.0, 0.0, 0.0, 0.0, 0.0, 0.0, 0.0, 0.0, 0.0, 0.0, 0.0],
  "Shots": 4096,
  "Size": 8,
  "Total Algorithm duration [s]": 13.149,
  "Total Classic duration [s]": 6.788131546020507,
  "Total Quantum duration [s]": 6.360868453979492
}
