{
  "Depth": 2.0,
  "Job durations [ms]": [0.08759999764151871, 0.08480000178678893, 0.0915000018721912, 0.085299998318078, 0.1325999983237125, 0.0853000019560568, 0.08270000034826808, 0.08964999869931489, 0.0865500005602371, 0.3065000018978026, 0.2886000038415659, 0.2233500017609913, 0.08674999844515696, 0.08779999916441739, 0.08690000322530977, 0.08760000127949752, 0.11884999912581407, 0.0882500025909394, 0.1021999996737577, 0.08565000098315068, 0.08420000085607171, 0.09314999988419004, 0.09169999975711107, 0.08845000047585927, 0.10829999882844277, 0.0838999985717237, 0.09589999899617396, 0.0865500005602371, 0.0822000001790002, 0.08570000136387534, 0.09185000089928508, 0.08494999929098412, 0.08750000051804818, 0.08365000030607916],
  "Optimizer durations [ms]": [2.908, 2.686, 2.794, 2.874, 3.61, 2.689, 2.624, 2.857, 2.807, 7.229, 20.609, 6.445, 3.572, 2.668, 2.85, 2.787, 3.573, 2.788, 3.104, 2.684, 2.683, 3.095, 2.846, 2.836, 3.238, 2.656, 2.868, 2.9, 2.584, 2.711, 2.929, 2.645, 2.877, 2.672],
  "Optimizer iterations": 34,
  "Qubits": 3,
  "Total Algorithm duration [s]": 0.123,
  "Total Classic duration [s]": 0.11936354998801835,
  "Total Quantum duration [s]": 0.003636450011981651,
  "Expectation Value": -1.746999979019165,
  "Optimal Expectation Value": -1.746999979019165,
  "Optimizer params": [1.0, 0.503004294449108, 1.0],
  "QPU": "7000000",
  "Problem": "RH",
  "Size": 3,
  "P": 0,
  "Shots": 4096
}