{
  "Circuit execution durations [ms]": [35.779476165771484, 35.517334938049316, 36.1638069152832, 36.18824481964111, 34.09302234649658, 34.659504890441895, 35.36999225616455, 32.504916191101074, 35.05909442901611, 34.12771224975586, 37.767648696899414, 34.017086029052734, 34.67714786529541, 36.1478328704834, 34.870147705078125, 35.011887550354004, 35.176634788513184, 34.955501556396484, 35.57538986206055, 34.79814529418945, 37.479281425476074, 35.20703315734863, 34.34717655181885, 33.85782241821289, 35.17913818359375, 32.3718786239624, 34.02149677276611, 36.47172451019287, 34.07490253448486, 36.47589683532715, 31.797409057617188, 37.24944591522217, 34.95681285858154, 35.0804328918457, 35.36093235015869, 34.73854064941406, 33.89179706573486, 33.599853515625, 36.34905815124512, 37.6276969909668, 35.45248508453369, 36.161065101623535, 33.66398811340332, 38.44571113586426, 35.001277923583984, 37.589430809020996, 36.91887855529785, 34.6684455871582, 34.1951847076416, 34.78860855102539, 37.679314613342285, 34.14046764373779, 36.14687919616699, 36.60941123962402, 36.15462779998779, 34.83319282531738, 37.560105323791504, 35.76970100402832, 34.853577613830566, 35.395264625549316, 35.15267372131348, 35.02023220062256, 35.591959953308105, 33.561110496520996, 34.552693367004395, 32.979488372802734, 35.58194637298584, 36.41557693481445, 32.54568576812744, 33.699750900268555, 35.405635833740234, 35.78531742095947, 37.39321231842041, 36.2241268157959, 36.4917516708374, 33.87868404388428, 34.935712814331055, 35.044312477111816, 33.95843505859375, 34.37483310699463, 34.02519226074219, 33.92434120178223, 36.707282066345215, 33.76972675323486, 33.902645111083984, 33.50651264190674, 32.973647117614746, 33.83982181549072, 35.17961502075195, 34.571051597595215, 35.93802452087402, 33.77509117126465, 34.359097480773926, 34.86323356628418, 33.70106220245361, 32.80675411224365, 34.8505973815918, 35.361528396606445, 35.12859344482422, 33.90681743621826, 34.96444225311279, 34.79146957397461, 33.32674503326416, 33.97083282470703, 34.871816635131836, 35.02023220062256, 35.411953926086426, 36.057472229003906, 33.10751914978027, 35.82870960235596, 35.511136054992676, 35.24041175842285, 32.43899345397949, 33.9430570602417, 33.93912315368652, 33.11324119567871, 36.66329383850098, 34.19315814971924, 33.99026393890381, 36.2858772277832, 37.21892833709717, 35.64584255218506, 35.87639331817627, 33.17749500274658, 33.81824493408203, 34.71636772155762, 33.90240669250488, 32.742857933044434, 34.232258796691895, 33.605337142944336, 35.436272621154785, 35.84694862365723, 34.3325138092041, 35.973429679870605, 35.70568561553955, 32.48274326324463, 33.54620933532715, 33.81669521331787, 36.55803203582764, 34.186720848083496, 32.880306243896484, 33.79249572753906, 33.9968204498291, 37.33372688293457, 34.20603275299072, 35.6287956237793, 36.69607639312744, 35.7668399810791, 32.392263412475586, 37.244319915771484, 35.95876693725586, 34.5996618270874, 34.459829330444336, 33.76567363739014, 34.891486167907715, 33.34534168243408, 37.01627254486084, 35.790443420410156, 35.54677963256836, 36.969542503356934, 34.63780879974365, 34.65735912322998, 35.36498546600342, 34.77001190185547, 34.7437858581543, 33.4630012512207, 35.14087200164795, 33.19811820983887, 36.293983459472656, 34.677743911743164, 35.24649143218994, 35.57741641998291, 34.8435640335083, 35.05098819732666, 33.004164695739746, 32.950520515441895, 33.89167785644531, 34.942626953125, 36.52632236480713, 33.71429443359375, 37.687063217163086, 38.18941116333008, 35.69948673248291, 37.02712059020996, 32.06169605255127, 34.84833240509033, 35.28571128845215, 35.10737419128418, 35.79258918762207, 34.11126136779785, 35.10391712188721, 33.32364559173584, 34.83426570892334, 59.52763557434082, 34.075379371643066, 35.16960144042969, 35.308122634887695, 36.23354434967041, 35.1334810256958, 34.23631191253662, 33.391356468200684, 33.98704528808594, 34.53421592712402, 33.96761417388916, 37.194252014160156, 33.28227996826172, 33.3479642868042, 35.04371643066406, 32.99868106842041, 35.38346290588379, 33.82766246795654, 37.25624084472656, 33.07497501373291, 33.7296724319458, 35.35294532775879, 35.27975082397461, 34.126996994018555, 37.76562213897705, 35.12835502624512, 34.76893901824951, 37.07778453826904, 34.946322441101074],
  "Depth": 12.5,
  "Expectation Value": -3.06640625,
  "Optimal Expectation Value": -6.026674270629883,
  "Optimizer durations [ms]": [403.978, 403.609, 356.176, 403.41, 352.785, 400.396, 354.349, 395.812, 403.3, 352.85, 405.471, 352.575, 401.735, 403.662, 352.69, 400.484, 353.73, 401.504, 355.491, 399.816, 406.607, 354.154, 399.986, 351.961, 401.807, 397.648, 351.513, 407.05, 352.124, 403.959, 347.927, 405.462, 401.467, 355.76, 399.461, 353.161, 400.336, 398.74, 357.218, 411.49, 359.39, 407.362, 350.086, 409.019, 402.879, 358.847, 406.09, 353.347, 410.293, 403.898, 358.904, 405.076, 359.404, 409.33, 358.637, 399.63, 407.604, 355.327, 398.6, 354.273, 402.04, 402.728, 355.051, 396.932, 352.706, 398.438, 354.763, 405.726, 397.495, 351.974, 401.191, 354.836, 407.587, 405.144, 357.467, 398.246, 353.489, 400.629, 352.446, 400.012, 400.874, 351.585, 403.047, 351.467, 399.862, 400.256, 351.43, 396.844, 354.219, 400.35, 355.964, 398.734, 399.847, 352.635, 397.212, 348.524, 400.895, 403.313, 354.421, 397.925, 356.864, 401.264, 351.587, 396.756, 402.148, 353.539, 399.468, 355.481, 398.645, 402.887, 355.226, 399.822, 348.85, 401.379, 353.187, 396.842, 404.551, 352.509, 397.414, 356.243, 410.387, 402.442, 355.881, 396.391, 350.223, 401.802, 351.482, 396.519, 401.483, 352.082, 403.66, 355.743, 400.76, 411.322, 355.1, 395.502, 351.823, 399.914, 356.528, 398.98, 398.873, 351.681, 403.535, 358.554, 399.774, 402.983, 358.064, 401.098, 349.133, 407.671, 355.042, 403.701, 401.348, 351.481, 401.625, 350.6, 406.435, 405.552, 354.446, 404.044, 353.541, 400.274, 354.753, 401.382, 402.727, 352.148, 399.804, 349.721, 405.219, 401.809, 355.599, 402.177, 354.199, 401.046, 350.169, 396.41, 399.902, 353.795, 403.325, 351.289, 408.523, 410.739, 354.567, 404.671, 348.584, 400.36, 353.957, 400.461, 403.994, 353.076, 399.504, 350.526, 407.728, 401.211, 352.248, 400.245, 355.293, 404.659, 354.441, 400.065, 397.07, 351.989, 398.387, 352.454, 406.503, 399.238, 349.393, 400.345, 349.873, 402.623, 352.693, 404.159, 399.398, 352.087, 401.405, 354.089, 400.413, 407.025, 353.955, 399.144, 359.762, 402.101],
  "Optimizer iterations": 222,
  "Optimizer params": [0.4748229423734179, 0.1088863640053091, 0.12805809297235274, 0.0723002542280853, 0.2631510527046034, 0.0830341258755928, 0.02093585129411328, 0.478418002439029, 0.6354425292978272, 0.5433201707139441, 0.600921333939968, 0.5965802157012291, 0.33661889184546995, 0.7445505496277276, 0.3800922281227847, 0.9490762115841238, 0.05357259465718512, 0.9476974689539649, 0.5923512034789054, 0.08385591346869592],
  "P": 0,
  "Problem": "IC",
  "QJob durations [ms]": [62.763094902038574, 87.11302280426025, 63.06564807891846, 63.25364112854004, 60.840725898742676, 61.664700508117676, 62.37006187438965, 59.385061264038086, 62.19768524169922, 60.985684394836426, 64.9416446685791, 61.08999252319336, 61.814069747924805, 87.65733242034912, 61.65480613708496, 62.07263469696045, 61.904191970825195, 62.17074394226074, 62.63875961303711, 61.56587600708008, 64.50927257537842, 61.965346336364746, 62.75451183319092, 60.84275245666504, 62.26146221160889, 84.18166637420654, 60.86719036102295, 63.51971626281738, 60.92429161071777, 63.64119052886963, 58.9526891708374, 64.02802467346191, 62.158942222595215, 62.12508678436279, 62.5072717666626, 61.65897846221924, 60.98341941833496, 85.02304553985596, 63.22455406188965, 64.99111652374268, 63.35890293121338, 63.27986717224121, 60.74655055999756, 65.35553932189941, 62.006235122680664, 64.42666053771973, 64.31114673614502, 61.87570095062256, 62.161803245544434, 87.6997709274292, 64.50891494750977, 63.477516174316406, 63.18235397338867, 65.47510623931885, 63.294172286987305, 61.657071113586426, 64.6141767501831, 62.52849102020264, 61.91658973693848, 62.43860721588135, 62.27874755859375, 86.64345741271973, 62.38114833831787, 60.60326099395752, 61.327219009399414, 59.99636650085449, 62.523603439331055, 64.125657081604, 59.610843658447266, 60.549139976501465, 62.40057945251465, 62.49189376831055, 64.52596187591553, 87.63635158538818, 63.373684883117676, 60.826897621154785, 61.662912368774414, 62.10887432098389, 60.98735332489014, 61.29622459411621, 61.16485595703125, 60.79423427581787, 63.90058994293213, 60.79220771789551, 61.00726127624512, 85.06989479064941, 59.80730056762695, 60.65809726715088, 61.89870834350586, 61.64288520812988, 63.266754150390625, 60.56535243988037, 61.28954887390137, 61.50209903717041, 61.279296875, 59.558749198913574, 61.91754341125488, 86.98081970214844, 62.01660633087158, 60.93239784240723, 61.8441104888916, 62.05630302429199, 60.23681163787842, 60.50395965576172, 62.02256679534912, 61.74492835998535, 62.45315074920654, 62.8741979598999, 60.21702289581299, 87.04531192779541, 62.027812004089355, 62.05642223358154, 59.117913246154785, 61.18488311767578, 61.502933502197266, 59.96835231781006, 63.402771949768066, 61.05482578277588, 60.93752384185791, 63.28415870666504, 64.2547607421875, 86.98117733001709, 62.600135803222656, 60.16242504119873, 60.271263122558594, 61.8588924407959, 60.872435569763184, 59.763431549072266, 61.26701831817627, 60.42647361755371, 62.51382827758789, 62.88182735443115, 61.406493186950684, 87.61250972747803, 62.51335144042969, 59.540629386901855, 60.35482883453369, 61.014413833618164, 63.719987869262695, 61.0508918762207, 59.886813163757324, 60.500264167785645, 60.9891414642334, 64.31257724761963, 61.27464771270752, 86.92586421966553, 64.25070762634277, 62.71195411682129, 59.27455425262451, 64.5296573638916, 62.93690204620361, 61.483025550842285, 61.49172782897949, 60.57250499725342, 63.24625015258789, 60.31942367553711, 64.08488750457764, 87.68820762634277, 62.372684478759766, 63.967227935791016, 61.97965145111084, 61.6147518157959, 62.40200996398926, 61.722517013549805, 61.81776523590088, 60.163140296936035, 62.224626541137695, 60.135602951049805, 63.32659721374512, 86.20297908782959, 62.070369720458984, 62.55960464477539, 61.82360649108887, 62.22736835479736, 60.11831760406494, 59.94844436645508, 60.917019844055176, 61.83743476867676, 64.08178806304932, 60.647010803222656, 64.75567817687988, 89.70320224761963, 62.424540519714355, 64.19491767883301, 58.814048767089844, 62.00110912322998, 62.1027946472168, 62.00754642486572, 62.896013259887695, 60.98127365112305, 61.93673610687256, 60.51146984100342, 61.841607093811035, 86.2114429473877, 61.20932102203369, 61.907291412353516, 62.34395503997803, 63.025593757629395, 62.10172176361084, 61.139702796936035, 60.54079532623291, 60.842275619506836, 61.66362762451172, 60.96839904785156, 64.42475318908691, 84.64694023132324, 60.19556522369385, 62.3246431350708, 59.73196029663086, 62.577009201049805, 60.672879219055176, 64.05818462371826, 60.20975112915039, 60.487985610961914, 62.442660331726074, 62.24524974822998, 61.30707263946533, 89.01166915893555, 61.777353286743164, 61.8363618850708, 64.1484260559082, 62.06321716308594],
  "QPU": "3000020",
  "Qubits": 5,
  "Queue durations [ms]": [0.0, 0.0, 0.0, 0.0, 0.0, 0.0, 0.0, 0.0, 0.0, 0.0, 0.0, 0.0, 0.0, 0.0, 0.0, 0.0, 0.0, 0.0, 0.0, 0.0, 0.0, 0.0, 0.0, 0.0, 0.0, 0.0, 0.0, 0.0, 0.0, 0.0, 0.0, 0.0, 0.0, 0.0, 0.0, 0.0, 0.0, 0.0, 0.0, 0.0, 0.0, 0.0, 0.0, 0.0, 0.0, 0.0, 0.0, 0.0, 0.0, 0.0, 0.0, 0.0, 0.0, 0.0, 0.0, 0.0, 0.0, 0.0, 0.0, 0.0, 0.0, 0.0, 0.0, 0.0, 0.0, 0.0, 0.0, 0.0, 0.0, 0.0, 0.0, 0.0, 0.0, 0.0, 0.0, 0.0, 0.0, 0.0, 0.0, 0.0, 0.0, 0.0, 0.0, 0.0, 0.0, 0.0, 0.0, 0.0, 0.0, 0.0, 0.0, 0.0, 0.0, 0.0, 0.0, 0.0, 0.0, 0.0, 0.0, 0.0, 0.0, 0.0, 0.0, 0.0, 0.0, 0.0, 0.0, 0.0, 0.0, 0.0, 0.0, 0.0, 0.0, 0.0, 0.0, 0.0, 0.0, 0.0, 0.0, 0.0, 0.0, 0.0, 0.0, 0.0, 0.0, 0.0, 0.0, 0.0, 0.0, 0.0, 0.0, 0.0, 0.0, 0.0, 0.0, 0.0, 0.0, 0.0, 0.0, 0.0, 0.0, 0.0, 0.0, 0.0, 0.0, 0.0, 0.0, 0.0, 0.0, 0.0, 0.0, 0.0, 0.0, 0.0, 0.0, 0.0, 0.0, 0.0, 0.0, 0.0, 0.0, 0.0, 0.0, 0.0, 0.0, 0.0, 0.0, 0.0, 0.0, 0.0, 0.0, 0.0, 0.0, 0.0, 0.0, 0.0, 0.0, 0.0, 0.0, 0.0, 0.0, 0.0, 0.0, 0.0, 0.0, 0.0, 0.0, 0.0, 0.0, 0.0, 0.0, 0.0, 0.0, 0.0, 0.0, 0.0, 0.0, 0.0, 0.0, 0.0, 0.0, 0.0, 0.0, 0.0, 0.0, 0.0, 0.0, 0.0, 0.0, 0.0, 0.0, 0.0, 0.0, 0.0, 0.0, 0.0, 0.0, 0.0, 0.0, 0.0, 0.0, 0.0],
  "Shots": 4096,
  "Size": 5,
  "Total Algorithm duration [s]": 84.794,
  "Total Classic duration [s]": 70.57249042415619,
  "Total Quantum duration [s]": 14.221509575843811
}
