{
  "Circuit execution durations [ms]": [49.17871952056885, 50.07922649383545, 50.757765769958496, 75.15788078308105, 50.57203769683838, 77.98182964324951, 48.340797424316406, 53.65288257598877, 73.52077960968018],
  "Depth": 2.0,
  "Expectation Value": -0.5567304491996765,
  "Optimal Expectation Value": -0.574400007724762,
  "Optimizer durations [ms]": [534.389, 578.651, 536.593, 535.762, 539.689, 589.201, 534.137, 540.206, 535.807],
  "Optimizer iterations": 9,
  "Optimizer params": [0.0],
  "P": 0,
  "Problem": "RH",
  "QJob durations [ms]": [55.382609367370605, 56.270480155944824, 57.00647830963135, 79.65326309204102, 56.74159526824951, 84.17201042175293, 54.59403991699219, 59.83304977416992, 79.71394062042236],
  "QPU": "300002E",
  "Qubits": 1,
  "Queue durations [ms]": [0.0, 0.0, 0.0, 0.0, 0.0, 0.0, 0.0, 0.0, 0.0],
  "Shots": 4096,
  "Size": 1,
  "Total Algorithm duration [s]": 4.924,
  "Total Classic duration [s]": 4.340632533073426,
  "Total Quantum duration [s]": 0.5833674669265747
}
