{
  "Depth": 14.0,
  "Expectation Value": -1.0,
  "Job durations [ms]": [0.1593, 0.1516, 0.1617, 0.1493, 0.1673, 0.1429, 0.14200000000000002, 0.1938, 0.1874, 0.14770000000000003, 0.14400000000000002, 0.1762, 0.4674, 0.1905, 0.2199, 0.13899999999999998, 0.12689999999999999, 0.1447, 0.2056, 0.1789, 0.2859, 0.2266, 0.49839999999999995, 0.1304, 0.1727, 0.1474, 0.13970000000000002, 0.1626, 0.146, 0.1389, 0.14129999999999998, 0.1772, 0.17029999999999998, 0.4198, 0.1332, 0.1298, 0.1404, 0.13219999999999998, 0.1379, 0.1561, 0.1771, 0.1739, 0.3793, 0.2517, 0.1605, 0.1783, 0.2208, 0.1361, 0.1775, 0.1961, 0.17029999999999998, 0.3215, 0.16970000000000002, 0.17650000000000002, 0.1803, 0.1608, 0.1761, 0.1467, 0.1363, 0.1438, 0.17880000000000001, 0.1754, 0.2471, 0.145, 0.43179999999999996, 0.12669999999999998, 0.13640000000000002, 0.2341, 0.1973, 0.3623],
  "Optimal Expectation Value": -1.0,
  "Optimizer durations [ms]": [11.88, 11.402, 11.832, 8.89, 11.843, 11.457, 11.143, 5.25, 7.353, 11.509, 11.561, 6.911, 7.641, 7.541, 10.852, 11.323, 6.631, 8.197, 7.7, 4.461, 10.982, 5.743, 10.498, 11.139, 7.255, 6.758, 9.569, 11.779, 7.673, 8.279, 9.323, 7.267, 3.791, 7.305, 11.36, 11.234, 11.591, 11.197, 11.565, 11.657, 7.419, 7.094, 9.811, 8.102, 2.499, 2.813, 4.795, 7.756, 7.029, 5.566, 7.091, 10.776, 3.872, 7.118, 7.229, 3.459, 7.263, 11.343, 7.235, 11.462, 4.98, 7.154, 7.909, 11.261, 10.818, 10.559, 11.623, 10.874, 4.961, 10.956],
  "Optimizer iterations": 70,
  "Optimizer params": [0.10193189110377372, 0.19797811394893702, 0.7302884960485905, 0.8539481845297631, 0.5381992645938054, 0.7931019212107654],
  "P": 3,
  "Problem": "MCP",
  "QPU": "7000000",
  "Qubits": 2,
  "Shots": 4096,
  "Size": 2,
  "Total Algorithm duration [s]": 0.602,
  "Total Classic duration [s]": 0.5885488999999999,
  "Total Quantum duration [s]": 0.013451100000000004
}
