{
  "Depth": 14.0,
  "Expectation Value": -1.0,
  "Job durations [ms]": [0.15789999999999998, 0.16369999999999998, 0.1506, 0.42910000000000004, 0.1643, 0.1496, 0.1516, 0.5, 0.14129999999999998, 0.1349, 0.1564, 0.1516, 0.1476, 0.1459, 0.1445, 0.1389, 0.1422, 0.1478, 0.1542, 0.4289, 0.12940000000000002, 0.1679, 0.14129999999999998, 0.1514, 0.1323, 0.1453, 0.1241, 0.4646, 0.152, 0.1326, 0.1616, 0.1365, 0.2157, 0.1409, 0.1408, 0.1871, 0.14200000000000002, 0.14980000000000002, 0.1381, 0.1353, 0.1393, 0.1406, 0.19249999999999998, 0.13620000000000002, 0.36929999999999996, 0.1496, 0.1536, 0.31629999999999997, 0.146, 0.12689999999999999, 0.1643, 0.37429999999999997, 0.1641, 0.1447, 0.3772, 0.46690000000000004, 0.1474, 0.1514, 0.1623, 0.1464, 0.1595, 0.29910000000000003, 0.1464, 0.15239999999999998, 0.13970000000000002, 0.5078, 0.1743, 0.1388, 0.1394, 0.5234000000000001, 0.1493, 0.1445, 0.1831, 0.1403, 0.13620000000000002, 0.1328, 0.13219999999999998, 0.1445],
  "Optimal Expectation Value": -1.0,
  "Optimizer durations [ms]": [11.551, 11.956, 11.429, 8.213, 11.852, 11.561, 9.708, 10.967, 11.291, 11.49, 9.333, 8.383, 7.393, 11.729, 10.757, 8.633, 11.599, 11.839, 11.477, 8.256, 11.887, 7.241, 9.097, 9.274, 11.299, 11.908, 7.872, 10.537, 9.603, 9.796, 9.162, 11.408, 10.594, 11.396, 11.588, 4.829, 8.277, 11.445, 11.346, 8.666, 8.954, 11.707, 10.481, 11.764, 10.503, 11.81, 11.183, 10.712, 11.627, 11.311, 10.273, 11.019, 8.818, 11.963, 9.194, 11.206, 11.57, 11.683, 11.098, 9.45, 11.937, 10.898, 7.631, 7.67, 11.668, 10.346, 8.93, 11.467, 11.473, 11.198, 8.866, 11.618, 7.235, 11.532, 6.878, 8.187, 7.553, 11.565],
  "Optimizer iterations": 78,
  "Optimizer params": [0.5977885836480327, 0.3995595680721798, 0.8132882078412605, 0.5682377855773915, 0.4153262504805893, 0.19631175750469676],
  "P": 3,
  "Problem": "MCP",
  "QPU": "7000000",
  "Qubits": 2,
  "Shots": 4096,
  "Size": 2,
  "Total Algorithm duration [s]": 0.799,
  "Total Classic duration [s]": 0.7840973,
  "Total Quantum duration [s]": 0.014902700000000001
}
