{
  "Depth": 14.0,
  "Expectation Value": -1.0,
  "Job durations [ms]": [0.1553, 0.1466, 0.1714, 0.1604, 0.14229999999999998, 0.1485, 0.1509, 0.13549999999999998, 0.4719, 0.1283, 0.1393, 0.1403, 0.1512, 0.1549, 0.1332, 0.1436, 0.14809999999999998, 0.14200000000000002, 0.1412, 0.1789, 0.1641, 0.1383, 0.1459, 0.1545, 0.12760000000000002, 0.14109999999999998, 0.1271, 0.1737, 0.1471, 0.12860000000000002, 0.13449999999999998, 0.1428, 0.4169, 0.2671, 0.15, 0.25930000000000003, 0.13210000000000002, 0.1718, 0.1459, 0.5206, 0.13779999999999998, 0.1326, 0.1739, 0.1402, 0.13540000000000002, 0.1442, 0.1462, 0.14559999999999998, 0.1305, 0.12940000000000002, 0.2219, 0.1649, 0.1402, 0.1471, 0.1285, 0.1291, 0.1479, 0.1467, 0.4333, 0.2198, 0.39809999999999995, 0.5497, 0.1408, 0.1403, 0.32489999999999997, 0.1385, 0.4883, 0.2702, 0.13899999999999998, 0.1386, 0.1503, 0.1424, 0.18009999999999998, 0.1459, 0.1281, 0.15259999999999999, 0.16369999999999998, 0.15990000000000001, 0.132, 0.1393, 0.1466, 0.48939999999999995, 0.12999999999999998],
  "Optimal Expectation Value": -1.0,
  "Optimizer durations [ms]": [11.451, 11.6, 7.074, 7.115, 11.333, 11.543, 7.306, 11.069, 8.206, 11.408, 11.413, 7.355, 11.57, 11.44, 10.53, 11.421, 11.412, 11.582, 8.731, 7.129, 2.33, 11.362, 11.617, 11.701, 11.103, 11.604, 10.95, 7.122, 7.147, 8.049, 11.695, 11.542, 11.003, 10.928, 11.513, 10.731, 11.412, 3.227, 11.3, 8.863, 11.612, 11.536, 7.142, 10.716, 11.616, 10.437, 8.592, 11.308, 8.134, 6.146, 7.522, 11.513, 8.396, 11.477, 9.264, 11.395, 8.792, 11.629, 10.876, 7.742, 11.005, 10.693, 11.624, 7.903, 10.977, 11.343, 9.869, 6.628, 11.546, 9.852, 9.385, 11.425, 10.943, 8.649, 11.162, 11.0, 7.107, 4.183, 7.894, 7.458, 9.184, 10.769, 10.383],
  "Optimizer iterations": 83,
  "Optimizer params": [0.1803128757069693, 0.239445486090842, 0.9025259500439953, 0.501965442573978, 0.4035625909498884, 0.9803595706361693],
  "P": 3,
  "Problem": "MCP",
  "QPU": "7000000",
  "Qubits": 2,
  "Shots": 4096,
  "Size": 2,
  "Total Algorithm duration [s]": 0.812,
  "Total Classic duration [s]": 0.7966433,
  "Total Quantum duration [s]": 0.015356699999999997
}
