{
  "Depth": 14.0,
  "Expectation Value": -1.0,
  "Job durations [ms]": [0.1666, 0.1516, 0.1403, 0.32939999999999997, 0.14400000000000002, 0.4979, 0.1472, 0.5142, 0.14200000000000002, 0.2665, 0.13540000000000002, 0.5314, 0.1454, 0.1285, 0.1409, 0.4756, 0.1495, 0.13899999999999998, 0.294, 0.4748, 0.1794, 0.1554, 0.14129999999999998, 0.14650000000000002, 0.1346, 0.165, 0.16119999999999998, 0.1595, 0.1379, 0.1512, 0.13549999999999998, 0.2241, 0.4702, 0.1373, 0.13369999999999999, 0.4179, 0.1664, 0.1629, 0.1434, 0.1374, 0.2122, 0.1404, 0.12940000000000002, 0.1395, 0.45740000000000003, 0.18919999999999998, 0.1627, 0.118, 0.17200000000000001, 0.1608, 0.1371, 0.4056, 0.1313, 0.23299999999999998, 0.15990000000000001, 0.17300000000000001, 0.13870000000000002, 0.1416, 0.13549999999999998, 0.1268, 0.1391, 0.4744, 0.1342, 0.185, 0.1584, 0.13970000000000002, 0.1426, 0.1409, 0.1507, 0.40049999999999997, 0.1422, 0.1351, 0.133, 0.13540000000000002],
  "Optimal Expectation Value": -1.0,
  "Optimizer durations [ms]": [11.923, 11.743, 11.662, 8.016, 11.545, 10.38, 11.513, 10.252, 9.182, 8.091, 11.112, 10.692, 11.447, 11.443, 7.786, 7.379, 11.416, 11.542, 11.028, 8.412, 7.33, 11.761, 9.958, 7.587, 11.353, 7.093, 6.941, 4.036, 8.873, 11.682, 11.101, 10.018, 8.01, 7.423, 11.229, 10.208, 3.982, 7.097, 11.551, 11.271, 8.238, 7.807, 11.624, 11.581, 7.057, 3.078, 7.034, 6.346, 6.373, 4.309, 11.407, 11.099, 10.798, 9.741, 11.508, 7.305, 11.234, 10.971, 11.229, 6.987, 9.76, 8.934, 8.342, 12.094, 11.792, 11.612, 10.084, 11.916, 11.827, 10.687, 11.499, 11.235, 11.275, 11.567],
  "Optimizer iterations": 74,
  "Optimizer params": [0.9880564101631971, 0.9500220220915043, 0.9735051176973454, 0.7661325363341202, 0.34655180768407184, 0.5425172938093479],
  "P": 3,
  "Problem": "MCP",
  "QPU": "7000000",
  "Qubits": 2,
  "Shots": 4096,
  "Size": 2,
  "Total Algorithm duration [s]": 0.713,
  "Total Classic duration [s]": 0.6979497,
  "Total Quantum duration [s]": 0.0150503
}
