{
  "Depth": 14.0,
  "Expectation Value": -1.0,
  "Job durations [ms]": [0.1842, 0.1597, 0.16890000000000002, 0.16, 0.14679999999999999, 0.14750000000000002, 0.1483, 0.14459999999999998, 0.5482, 0.14479999999999998, 0.3289, 0.5267, 0.1865, 0.1396, 0.1793, 0.16679999999999998, 0.1301, 0.15080000000000002, 0.19790000000000002, 0.3268, 0.1394, 0.1532, 0.1582, 0.5099, 0.14459999999999998, 0.1471, 0.1409, 0.1375, 0.3255, 0.13999999999999999, 0.1422, 0.1311, 0.30019999999999997, 0.16890000000000002, 0.3042, 0.16540000000000002, 0.5006999999999999, 0.19870000000000002, 0.1496, 0.2185, 0.1371, 0.1035, 0.281, 0.1382, 0.1351, 0.1437, 0.128, 0.1389, 0.1709, 0.1632, 0.16, 0.491, 0.129, 0.1177, 0.2119, 0.15589999999999998, 0.1558, 0.1627, 0.1133, 0.36519999999999997, 0.1634, 0.1328, 0.1963, 0.164, 0.5234000000000001, 0.1847, 0.1436, 0.2195, 0.1587, 0.5668, 0.13290000000000002, 0.1325, 0.1437, 0.4177, 0.1827, 0.1736, 0.1403, 0.3931, 0.2014, 0.1762, 0.1356, 0.1398, 0.1393, 0.1327, 0.49989999999999996, 0.2384, 0.13290000000000002, 0.19799999999999998, 0.1642, 0.15510000000000002, 0.16440000000000002, 0.2584, 0.1298, 0.1384, 0.23149999999999998, 0.4366, 0.1429, 0.32699999999999996, 0.1356],
  "Optimal Expectation Value": -1.0,
  "Optimizer durations [ms]": [11.874, 11.685, 7.222, 7.015, 9.459, 8.955, 11.36, 11.566, 10.614, 11.399, 11.106, 8.154, 3.729, 11.435, 7.297, 3.889, 11.157, 9.499, 7.889, 8.56, 8.076, 7.307, 11.745, 10.904, 7.932, 8.975, 11.559, 11.544, 8.646, 10.92, 11.296, 11.341, 8.218, 7.176, 4.124, 7.133, 10.204, 7.56, 11.299, 8.19, 11.029, 6.333, 10.852, 11.307, 11.615, 11.439, 11.566, 11.287, 7.363, 6.902, 2.433, 9.712, 11.446, 11.285, 10.172, 10.21, 6.093, 7.063, 6.38, 10.878, 10.403, 8.545, 7.465, 6.898, 10.785, 6.548, 11.37, 4.603, 3.079, 10.882, 11.019, 11.239, 7.511, 8.305, 3.4, 7.237, 11.42, 10.881, 8.546, 7.26, 11.194, 9.79, 11.055, 11.532, 10.994, 10.935, 7.986, 7.93, 4.926, 2.378, 3.119, 7.893, 11.25, 11.279, 6.76, 10.977, 11.467, 10.65, 10.964],
  "Optimizer iterations": 99,
  "Optimizer params": [0.4413977598372017, 0.8745747904772122, 0.9999999999999998, 0.9349944477070171, 0.8389689490579011, 0.41652732957465244],
  "P": 3,
  "Problem": "MCP",
  "QPU": "7000000",
  "Qubits": 2,
  "Shots": 4096,
  "Size": 2,
  "Total Algorithm duration [s]": 0.893,
  "Total Classic duration [s]": 0.8723879,
  "Total Quantum duration [s]": 0.0206121
}
