{
  "Depth": 14.0,
  "Expectation Value": -1.0,
  "Job durations [ms]": [0.1623, 0.1467, 0.178, 0.1629, 0.5297000000000001, 0.2882, 0.14889999999999998, 0.153, 0.42860000000000004, 0.1292, 0.1492, 0.1597, 0.1706, 0.136, 0.15109999999999998, 0.3587, 0.14200000000000002, 0.14550000000000002, 0.2329, 0.15660000000000002, 0.13369999999999999, 0.15410000000000001, 0.323, 0.318, 0.1547, 0.1617, 0.1763, 0.1605, 0.13219999999999998, 0.1379, 0.3199, 0.2688, 0.1371, 0.158, 0.4711, 0.1236, 0.1682, 0.1296, 0.3957, 0.1369, 0.1326, 0.1369, 0.48950000000000005, 0.1358, 0.2456, 0.134, 0.13369999999999999, 0.1427, 0.1304, 0.1381, 0.1328, 0.415, 0.49200000000000005, 0.1406, 0.1336, 0.124, 0.1891, 0.13660000000000003, 0.1656, 0.13620000000000002, 0.1348, 0.1349, 0.2271, 0.1376, 0.48250000000000004, 0.3255, 0.1396, 0.14750000000000002, 0.287, 0.2421, 0.1375, 0.1328, 0.1341],
  "Optimal Expectation Value": -1.0,
  "Optimizer durations [ms]": [11.889, 11.643, 8.734, 5.802, 8.746, 8.411, 11.309, 11.565, 9.087, 11.631, 11.615, 7.474, 12.218, 11.496, 10.693, 9.206, 6.706, 10.508, 11.16, 10.58, 8.817, 11.445, 10.528, 8.78, 11.528, 7.047, 3.746, 8.567, 10.763, 11.579, 10.988, 10.134, 6.701, 11.635, 11.138, 11.327, 10.863, 11.486, 10.75, 7.884, 11.523, 11.256, 10.497, 11.492, 10.665, 7.836, 11.574, 7.203, 11.423, 8.617, 8.864, 8.945, 10.911, 10.858, 11.337, 10.956, 6.457, 7.849, 11.894, 9.377, 10.833, 10.923, 7.868, 10.932, 10.915, 9.048, 7.616, 10.433, 11.178, 10.824, 11.777, 9.937, 8.788],
  "Optimizer iterations": 73,
  "Optimizer params": [0.5465920251412002, 0.42474213270123656, 0.7946345739012838, 0.1866391770756983, 0.36212084178519266, 0.8824217778978262],
  "P": 3,
  "Problem": "MCP",
  "QPU": "7000000",
  "Qubits": 2,
  "Shots": 4096,
  "Size": 2,
  "Total Algorithm duration [s]": 0.726,
  "Total Classic duration [s]": 0.7111613999999999,
  "Total Quantum duration [s]": 0.014838599999999997
}
