{
  "Depth": 14.0,
  "Expectation Value": -1.0,
  "Job durations [ms]": [0.1673, 0.3472, 0.1659, 0.31589999999999996, 0.1675, 0.14650000000000002, 0.14129999999999998, 0.4803, 0.1523, 0.1549, 0.1922, 0.3773, 0.13779999999999998, 0.1514, 0.1376, 0.4885, 0.1339, 0.1701, 0.1555, 0.24330000000000002, 0.1545, 0.1706, 0.4682, 0.13899999999999998, 0.4115, 0.1334, 0.1314, 0.3261, 0.1673, 0.31, 0.2034, 0.1346, 0.1422, 0.1369, 0.2171, 0.5253, 0.1957, 0.1351, 0.2368, 0.3206, 0.18239999999999998, 0.1304, 0.16349999999999998, 0.126, 0.1311, 0.36410000000000003, 0.1532, 0.31339999999999996, 0.13770000000000002, 0.1862, 0.13620000000000002, 0.1613, 0.34959999999999997, 0.1466, 0.1754, 0.131, 0.1418, 0.13660000000000003, 0.2762, 0.1539],
  "Optimal Expectation Value": -1.0,
  "Optimizer durations [ms]": [11.816, 9.02, 7.048, 8.69, 6.374, 11.406, 11.723, 8.423, 10.321, 11.52, 7.674, 7.728, 11.5, 11.774, 7.173, 11.258, 7.629, 7.211, 11.62, 11.028, 9.925, 7.205, 11.553, 10.578, 6.655, 11.348, 11.644, 11.029, 7.091, 10.777, 10.802, 11.436, 11.412, 11.72, 7.443, 10.563, 7.451, 7.974, 9.844, 6.745, 6.874, 11.4, 12.013, 11.228, 9.094, 10.272, 7.844, 7.668, 10.004, 7.366, 10.98, 7.101, 5.962, 11.414, 11.806, 10.207, 9.558, 11.384, 10.381, 11.746],
  "Optimizer iterations": 60,
  "Optimizer params": [0.9503788675298596, 0.9168711176195197, 0.28614779951963193, 0.027097220961347302, 0.11117083516505245, 0.6857218146324158],
  "P": 3,
  "Problem": "MCP",
  "QPU": "7000000",
  "Qubits": 2,
  "Shots": 4096,
  "Size": 2,
  "Total Algorithm duration [s]": 0.578,
  "Total Classic duration [s]": 0.565217,
  "Total Quantum duration [s]": 0.012783000000000003
}
