{
  "Depth": 8.5,
  "Job durations [ms]": [45.94049975275993, 12.639000080525875, 12.980500236153603, 13.262500055134296, 13.505499809980392, 13.347500003874302, 13.318999670445919, 13.431500177830458, 13.41150002554059, 13.056000228971243, 12.32700003311038, 12.600999791175127, 12.515499722212553, 12.256499845534563, 12.723499909043312, 12.518999632447958, 45.673000160604715, 12.630500365048647, 12.40850007161498, 12.751500122249126, 12.659500353038311, 12.40200037136674, 12.540999799966812, 12.49199965968728, 12.543499935418367, 12.389999814331532, 12.196499854326248, 12.491500005126, 12.546000070869923, 45.67099828273058, 12.783500365912914, 12.545000296086073, 12.58500013500452, 12.821000069379807, 13.076500035822392, 12.911999598145485, 12.378999963402748, 12.644000351428986, 12.606499716639519, 12.709999922662973, 13.02050007507205, 12.618000153452158, 12.708500027656555, 12.580000329762697, 12.594500090926886, 12.732999864965677, 12.494500260800123, 12.883999850600958, 12.826499994844198, 12.64949981123209, 12.51649996265769, 12.657500337809324, 12.870999984443188, 12.873999774456024, 12.772500049322844, 12.707499787211418, 12.688500341027975, 13.170000165700912, 12.857499998062849, 12.84900028258562, 12.569000013172626, 12.653999961912632, 12.784000020474195, 12.40900019183755, 12.732499744743109, 12.827000115066767, 12.498500291258097, 12.615500018000603, 12.764000333845615, 12.44099996984005, 12.688000220805407, 12.782000005245209, 12.66700029373169, 12.765500228852034, 12.550499755889177, 12.6049998216331, 12.725000269711018, 12.50250032171607, 12.596999760717154, 12.662000022828579, 12.511999811977148, 12.902999762445688, 13.988499995321035, 12.734999880194664, 12.471499852836132, 12.823999859392643, 12.678999919444323, 12.515000067651272, 12.689999770373106, 12.236999813467264, 12.660000007599592, 12.54249969497323, 12.927999719977379, 12.40250002592802, 12.556999921798706, 47.05649893730879, 12.840000446885824, 12.608999852091074, 12.599499896168709, 12.470500078052282, 12.474500108510256, 12.788000050932169, 12.95100012794137, 12.703499756753445, 12.964500114321709, 12.951500248163939, 13.105500023812056, 12.997500132769346, 13.037499971687794, 13.050499837845564, 12.501500081270933, 12.802499812096357, 12.632499914616346, 12.556999921798706, 12.7874999307096, 12.885000091046095, 12.74399971589446, 12.9380002617836, 12.714500073343515, 12.668999843299389, 12.972999829798937, 12.565500102937222, 12.666499707847834, 12.589000165462494, 12.809500098228455, 12.791500426828861, 12.795499991625547, 12.620499823242426, 12.853500433266163, 12.62350007891655, 12.451999820768833, 45.55750032886863, 12.873999774456024, 12.810499873012304, 12.449500150978565, 13.00349971279502, 12.703499756753445, 12.542500160634518, 12.581999879330397, 12.646000366657972, 12.682999949902296, 12.913500424474478, 12.719499878585339, 12.797999661415815, 12.582499999552965, 12.773999944329262, 12.774499598890543, 12.543499935418367, 12.802499812096357, 12.80099991708994, 12.577999848872423, 12.532999739050865, 12.815000023692846, 13.226999901235104, 12.742499820888042, 12.50449987128377, 46.5060006827116, 12.876000255346298, 12.651000171899796, 12.713000178337097, 12.926500290632248, 12.622499838471413, 13.085999991744757, 12.577499728649855, 12.678000144660473, 12.657499872148037, 12.583999894559383, 12.821499723941088, 12.701000086963177, 12.708000373095274],
  "Optimizer durations [ms]": [95.116, 28.23, 29.251, 30.142, 31.027, 30.304, 30.173, 30.449, 30.51, 29.792, 27.681, 28.198, 28.08, 27.512, 28.434, 28.02, 94.716, 28.316, 27.75, 28.541, 28.535, 27.912, 28.098, 28.163, 28.499, 27.768, 27.449, 28.172, 28.226, 94.448, 28.76, 28.188, 28.316, 28.672, 29.407, 28.843, 27.671, 28.371, 28.098, 28.34, 29.132, 28.196, 28.545, 28.287, 28.324, 28.457, 28.173, 28.939, 28.75, 28.318, 28.246, 28.343, 28.929, 28.963, 28.492, 28.575, 28.407, 29.635, 28.823, 28.626, 28.211, 28.249, 28.546, 27.734, 28.52, 28.646, 28.194, 28.232, 28.469, 27.912, 28.466, 28.65, 28.554, 28.456, 28.136, 28.348, 28.453, 27.927, 28.229, 28.421, 28.055, 28.864, 31.298, 28.502, 27.966, 28.763, 28.474, 28.096, 28.465, 27.595, 28.33, 28.38, 29.498, 28.064, 28.431, 97.567, 29.28, 28.597, 28.439, 27.937, 28.281, 28.836, 29.406, 28.573, 29.088, 29.33, 29.649, 29.558, 29.559, 29.426, 28.052, 28.57, 28.325, 28.055, 28.525, 28.826, 28.608, 28.886, 28.437, 28.437, 28.972, 28.244, 28.37, 28.13, 28.698, 29.065, 28.901, 28.211, 28.771, 28.487, 27.839, 94.193, 28.847, 28.738, 28.033, 29.104, 28.467, 28.031, 28.144, 28.163, 28.432, 29.053, 28.84, 28.549, 28.208, 28.734, 28.723, 28.051, 28.702, 28.674, 28.008, 28.238, 28.561, 29.938, 28.561, 28.153, 96.214, 29.126, 28.206, 28.569, 28.819, 28.204, 29.223, 28.103, 28.505, 28.206, 28.171, 28.561, 28.4, 28.264],
  "Optimizer iterations": 170,
  "Qubits": 3,
  "Total Algorithm duration [s]": 5.259,
  "Total Classic duration [s]": 2.8955075018256906,
  "Total Quantum duration [s]": 2.3634924981743097,
  "Expectation Value": -3.1123046875,
  "Optimal Expectation Value": -3.4939591884613037,
  "Optimizer params": [0.4842780312017567, 0.6089355127681781, 0.5749518164262301, 0.5327160245010643, 0.641316969139448, 0.4619441216315692, 0.4755875600002133, 0.7456626335134604, 0.8718424074303601, 0.5802792167032494, 0.4900885857336736, 0.4500176663580829],
  "QPU": "9000001",
  "Problem": "IC",
  "Size": 3,
  "P": 0,
  "Shots": 4096
}