{
  "Circuit execution durations [ms]": [17.743825912475586, 17.508983612060547, 17.84801483154297, 17.808914184570313, 18.02825927734375, 17.760276794433594, 17.925024032592773, 17.828702926635742, 17.7767276763916, 17.64392852783203, 17.773866653442383, 17.826318740844727, 17.94147491455078, 17.983436584472656, 17.955780029296875, 17.894983291625977, 19.2413330078125, 17.989635467529297, 18.024682998657227, 17.91071891784668, 17.725467681884766, 18.014907836914063, 17.91667938232422, 17.82703399658203, 17.800569534301758, 18.015146255493164, 17.96436309814453, 17.742156982421875, 17.945528030395508, 17.841100692749023, 17.76409149169922, 17.8070068359375, 17.850160598754883, 17.906904220581055, 17.760038375854492, 17.72141456604004, 17.955303192138672, 17.963886260986328, 17.852783203125, 17.98844337463379, 17.719745635986328, 17.78578758239746, 17.775297164916992, 17.73667335510254, 17.63749122619629, 17.820119857788086, 17.755985260009766, 17.688512802124023, 17.69423484802246, 17.728805541992188, 17.66204833984375, 17.857789993286133, 17.583847045898438, 17.810821533203125, 17.936229705810547, 17.709970474243164, 17.681121826171875, 17.876148223876953, 17.719507217407227, 17.69232749938965, 17.88163185119629, 17.659425735473633, 17.739534378051758, 17.730236053466797, 17.72904396057129, 17.820358276367188, 17.61317253112793, 17.730236053466797, 17.906665802001953, 17.412900924682617, 17.80557632446289, 17.774105072021484, 17.74001121520996, 17.809391021728516, 17.730712890625, 17.581462860107422, 17.72332191467285, 17.87710189819336, 17.935991287231445, 17.731428146362305, 17.692089080810547, 17.666339874267578, 17.48824119567871, 17.623424530029297, 17.566919326782227, 17.843008041381836, 17.743349075317383, 17.804384231567383, 17.701148986816406, 17.88163185119629, 17.610788345336914, 17.780780792236328, 17.754316329956055, 17.68016815185547, 17.568349838256836, 17.418384552001953, 17.786741256713867, 17.77172088623047, 17.79794692993164, 17.737865447998047, 17.77338981628418, 17.553329467773438, 17.682313919067383, 17.588138580322266, 17.665863037109375, 17.77338981628418, 17.643213272094727, 17.49730110168457],
  "Depth": 203.0,
  "Expectation Value": -13.921875,
  "Optimal Expectation Value": -16.0,
  "Optimizer durations [ms]": [240.639, 279.912, 243.698, 240.847, 241.64, 281.263, 241.492, 239.974, 281.081, 240.431, 241.896, 280.878, 241.094, 242.063, 281.449, 242.329, 242.645, 281.405, 240.956, 241.471, 281.633, 241.294, 241.351, 283.431, 241.183, 241.336, 277.913, 240.816, 242.198, 279.887, 240.41, 241.484, 279.054, 241.363, 240.3, 280.333, 241.587, 241.774, 278.431, 241.779, 240.763, 279.476, 240.26, 240.685, 278.764, 240.423, 240.241, 280.297, 241.688, 240.503, 278.807, 240.6, 240.709, 279.533, 240.647, 240.7, 280.008, 240.259, 240.539, 279.914, 240.575, 240.827, 279.809, 240.46, 240.684, 279.342, 240.11, 240.606, 279.055, 239.927, 240.171, 280.108, 240.25, 240.656, 279.241, 240.266, 240.623, 279.832, 240.826, 240.669, 280.751, 240.507, 240.648, 280.095, 240.458, 240.417, 278.836, 240.413, 240.795, 279.809, 240.366, 240.818, 278.706, 240.114, 240.348, 279.001, 240.476, 240.218, 280.086, 239.828, 240.166, 280.058, 241.083, 241.043, 278.781, 240.836, 241.028, 279.25],
  "Optimizer iterations": 108,
  "Optimizer params": [0.2392372639408288, 0.9248350553438038, 0.9434447428320747, 0.540924062877136, 0.9311199251510438, 0.9687340824190663],
  "P": 3,
  "Problem": "MCP",
  "QJob durations [ms]": [171.92864418029785, 211.3361358642578, 174.3302345275879, 172.2264289855957, 172.63484001159668, 172.3639965057373, 172.14226722717285, 171.87833786010742, 172.42836952209473, 171.5381145477295, 172.71924018859863, 172.35040664672852, 172.4553108215332, 172.5625991821289, 173.0327606201172, 172.83129692077637, 173.53487014770508, 172.8222370147705, 171.91648483276367, 172.0893383026123, 172.4870204925537, 171.91743850708008, 172.1341609954834, 174.56722259521484, 172.50609397888184, 172.63484001159668, 172.2416877746582, 171.9982624053955, 173.56610298156738, 172.898530960083, 171.50092124938965, 172.55520820617676, 172.35493659973145, 171.8728542327881, 172.0747947692871, 172.86181449890137, 172.81365394592285, 172.7619171142578, 172.20568656921387, 172.56951332092285, 172.2888946533203, 173.4004020690918, 171.7851161956787, 172.49584197998047, 172.14298248291016, 171.91600799560547, 171.80705070495605, 172.6987361907959, 173.69556427001953, 172.23238945007324, 172.3027229309082, 172.46651649475098, 172.13201522827148, 172.79386520385742, 172.4839210510254, 172.21617698669434, 172.64461517333984, 171.8308925628662, 172.67465591430664, 172.84417152404785, 171.88024520874023, 172.38593101501465, 173.2156276702881, 171.9033718109131, 172.2853183746338, 172.8990077972412, 171.82207107543945, 172.02281951904297, 172.91259765625, 171.33736610412598, 172.00088500976563, 172.97744750976563, 171.92554473876953, 172.33777046203613, 172.28126525878906, 171.73099517822266, 172.19185829162598, 173.03895950317383, 172.1961498260498, 172.45721817016602, 174.01599884033203, 172.24955558776855, 172.01805114746094, 172.8188991546631, 171.7383861541748, 172.23095893859863, 172.55043983459473, 171.952486038208, 171.99206352233887, 173.1705665588379, 171.91028594970703, 172.24383354187012, 172.01519012451172, 171.64301872253418, 172.1022129058838, 172.71709442138672, 171.92649841308594, 171.98634147644043, 172.77932167053223, 171.80585861206055, 171.79608345031738, 172.9128360748291, 172.15967178344727, 171.91028594970703, 171.8008518218994, 172.1961498260498, 172.70851135253906, 172.6224422454834],
  "QPU": "3010008",
  "Qubits": 11,
  "Queue durations [ms]": [0.0, 0.0, 0.0, 0.0, 0.0, 0.0, 0.0, 0.0, 0.0, 0.0, 0.0, 0.0, 0.0, 0.0, 0.0, 0.0, 0.0, 0.0, 0.0, 0.0, 0.0, 0.0, 0.0, 0.0, 0.0, 0.0, 0.0, 0.0, 0.0, 0.0, 0.0, 0.0, 0.0, 0.0, 0.0, 0.0, 0.0, 0.0, 0.0, 0.0, 0.0, 0.0, 0.0, 0.0, 0.0, 0.0, 0.0, 0.0, 0.0, 0.0, 0.0, 0.0, 0.0, 0.0, 0.0, 0.0, 0.0, 0.0, 0.0, 0.0, 0.0, 0.0, 0.0, 0.0, 0.0, 0.0, 0.0, 0.0, 0.0, 0.0, 0.0, 0.0, 0.0, 0.0, 0.0, 0.0, 0.0, 0.0, 0.0, 0.0, 0.0, 0.0, 0.0, 0.0, 0.0, 0.0, 0.0, 0.0, 0.0, 0.0, 0.0, 0.0, 0.0, 0.0, 0.0, 0.0, 0.0, 0.0, 0.0, 0.0, 0.0, 0.0, 0.0, 0.0, 0.0, 0.0, 0.0, 0.0],
  "Shots": 4096,
  "Size": 11,
  "Total Algorithm duration [s]": 27.418,
  "Total Classic duration [s]": 8.759726541519164,
  "Total Quantum duration [s]": 18.658273458480835
}
