{
  "Depth": 6.333333333333333,
  "Job durations [ms]": [12.25180272012949, 7.5617350327471895, 6.951840439190467, 4.854837277283271, 7.208339869976044, 10.740490319828192, 11.326615853856007, 8.240269031375647, 11.786186446746191, 8.675179754694303, 10.80651069059968, 14.03925009071827, 7.382253184914589, 7.429651295145352, 12.37086703379949, 5.59548195451498, 4.754696972668171, 9.618692255268494, 8.331481367349625, 10.13068916896979, 9.022697961578766, 7.260217641790708, 6.234199739992619, 6.818191924442847, 9.611494528750578, 8.120775998880466, 7.676140405237675, 12.268390661726395, 13.598602886001268, 10.420090208450953, 9.355037628362576, 11.45285771538814, 9.058025510360798, 13.237218062082926, 10.536713215212027, 10.548766857633987, 12.227459189792475, 10.157040785998106, 8.945948599527279, 10.465798589090506, 8.115045726299286, 6.049877498298883, 8.18451556066672, 9.356045164167881, 13.821116959055265, 8.131147672732672, 8.058211455742518, 12.901218608021736, 10.268981258074442, 10.437694533417622, 11.585623801996311, 9.54416518410047, 6.876465709259112, 6.812314347674449, 8.812355032811562, 10.607351083308458, 10.087286898245415, 6.9196512922644615, 9.049633362640938, 10.649695837249359, 8.329570759087801, 9.126862976700068, 6.850192012886207, 6.834955886006355, 10.325553826987743, 9.617238771170378, 11.021159123629332, 9.371797243754068, 11.904410707453886, 6.684612948447466, 4.893944753954808, 9.235889029999575, 7.747180604686339, 5.12520441164573, 6.672063376754522, 7.499215503533681, 7.369791933645804, 9.321941683689753, 5.6673202974100905],
  "Optimizer durations [ms]": [80880.271, 30928.828, 167208.926, 51180.781, 28963.587, 116744.219, 147894.608, 172967.768, 26630.505, 23618.81, 99854.748, 93260.955, 92516.104, 102366.743, 88755.498, 98949.867, 31137.265, 21741.684, 188819.389, 84867.252, 177425.122, 47687.481, 121102.583, 158793.036, 55534.563, 90427.581, 27287.162, 150523.03, 97073.553, 136219.498, 83770.674, 159518.297, 31479.73, 28704.754, 52996.346, 215773.348, 90620.717, 28968.858, 47386.663, 141088.059, 90749.654, 138301.813, 149415.586, 26455.94, 86952.275, 29932.851, 27245.529, 94651.008, 79477.884, 74396.402, 126260.957, 88927.77, 29676.867, 82775.698, 21000.584, 189968.86, 328816.014, 39184.823, 88674.432, 28072.466, 164108.625, 202422.002, 92069.213, 26000.0, 154362.395, 164355.513, 27002.37, 250139.274, 28623.729, 23547.608, 60540.099, 147561.102, 91505.678, 140902.206, 27378.068, 134558.618, 122034.739, 60880.711, 84678.411],
  "Optimizer iterations": 79,
  "Qubits": 2,
  "Total Algorithm duration [s]": 7515.276,
  "Total Classic duration [s]": 7514.559060158293,
  "Total Quantum duration [s]": 0.7169398417075477,
  "Expectation Value": -0.9658203125,
  "Optimal Expectation Value": -2.2360680103302,
  "Optimizer params": [0.7484881115071438, 0.49605937695787106, 0.49701864431542375, 0.7624957905551373, 0.5270025872026345, 0.492265669413666, 0.49370632906731937, 0.48638094106383484],
  "QPU": "4010001",
  "Problem": "IC",
  "Size": 2,
  "P": 0,
  "Shots": 4096
}