{
  "Depth": 6.333333333333333,
  "Job durations [ms]": [7.955630775541067, 10.32529336710771, 6.986303720623255, 8.782728419949612, 10.60904935002327, 4.633689144005378, 6.894870661199093, 5.2014921481410665, 5.042997654527426, 8.473188616335392, 10.075458170225223, 12.562897056341171, 8.298490817348162, 4.995560583968957, 9.639447399725517, 7.823580565551916, 8.1561755699416, 5.4110875353217125, 8.946309642245373, 8.59382702037692, 4.993988045801719, 5.428164731711149, 8.492965872089068, 6.799559419353803, 6.667175485442082, 8.239623624831438, 12.326827427993218, 8.208957345535358, 8.231214402864376, 6.44896396746238, 4.754996703316768, 5.076211877167225, 8.182559783260027, 8.285617145399252, 6.813547108322382, 10.307997775574526, 6.360648199915886, 6.873927855243285, 10.144610889256, 10.236501848946014, 5.869571585208178, 7.001710124313831, 11.540140956640244, 5.570343074699243, 8.379732413838306, 8.316623357435068, 6.737187349547942, 4.926775582134724, 6.800068697581689, 8.466645454367002, 6.680336936066548, 5.5262612489362555, 6.85787433758378, 5.674495982627074, 7.434316910803318, 6.099828518927097, 5.984557482103507, 6.296996027231216, 6.791260403891404, 7.406442426145077, 6.808034920444091, 6.312697349737088, 5.521515694757302, 7.491191383451223, 6.0232907223204775, 6.074599921703339, 7.3108381281296415, 9.214732640733322, 6.962037955721219, 7.350476613889138, 7.435911800712347, 6.159438751637936, 10.781207587569952, 6.897497611741225, 7.305695520093043, 6.992745989312728, 8.07820912450552, 8.010027464479208, 6.11135767151912, 7.428913066784541, 7.930921235432228, 6.410634455581506, 8.048395005365213, 6.906515297790368],
  "Optimizer durations [ms]": [158020.872, 154409.652, 88106.956, 90289.66, 81235.234, 89086.074, 102544.468, 88030.53, 54822.697, 152393.114, 202486.648, 102461.687, 87476.942, 58878.679, 120286.612, 330963.929, 25635.705, 130907.877, 93718.334, 145998.023, 106339.598, 89526.077, 153869.588, 91104.634, 80711.159, 92303.157, 143188.266, 83551.592, 98995.979, 43315.799, 23501.401, 165434.428, 88102.354, 27198.924, 137961.582, 23606.551, 196257.481, 46744.456, 120247.375, 121589.64, 26731.21, 25783.573, 25284.758, 152617.683, 31850.185, 80936.287, 114304.287, 88474.222, 26250.677, 98489.948, 28463.071, 23384.668, 93319.825, 80804.862, 37052.55, 112345.822, 53734.821, 150813.481, 32442.872, 30578.693, 85683.587, 85950.383, 91129.041, 171216.703, 29334.102, 87059.512, 70472.402, 44486.354, 114972.005, 154866.699, 120703.965, 29838.273, 95225.14, 113143.895, 25238.234, 92276.545, 93375.837, 86622.719, 158499.855, 88450.409, 101960.174, 130521.541, 25559.335, 51522.124],
  "Optimizer iterations": 84,
  "Qubits": 2,
  "Total Algorithm duration [s]": 7753.076,
  "Total Classic duration [s]": 7752.451789807488,
  "Total Quantum duration [s]": 0.6242101925114792,
  "Expectation Value": -2.11962890625,
  "Optimal Expectation Value": -2.2360680103302,
  "Optimizer params": [0.6269032657716286, 0.8384911665334791, 0.5182776570176241, 0.484646882657334, 0.5558067837949848, 0.6761238708247687, 0.45488745231305405, 0.4937743142960341],
  "QPU": "4010001",
  "Problem": "IC",
  "Size": 2,
  "P": 0,
  "Shots": 4096
}