{
  "Depth": 6.333333333333333,
  "Job durations [ms]": [12.071808489660421, 5.1319462557633715, 11.751616994539896, 5.038942055155833, 6.869099413355191, 10.755589542289576, 10.182416221747795, 8.284599365045628, 10.805491358041763, 10.116536791125933, 13.648357552786669, 5.656527976195018, 4.931082638601462, 9.025223397960266, 9.62771646057566, 8.402789942920208, 6.144602006922166, 8.259812680383524, 8.804941084235907, 5.858582289268573, 5.519417424996694, 6.056103855371475, 5.059800421198209, 6.0705519281327724, 7.348078613479932, 6.747900663564603, 6.675800463805596, 8.864594778666893, 9.247381084909042, 7.032578034947316, 5.523660996307929, 5.384677400191625, 6.741580242911975, 5.555254096786181, 8.927064792563518, 6.749655430515607, 6.706605044504006, 6.778197518239419, 9.28001788755258, 4.84977647041281, 6.788398915280898, 10.470958581815163, 10.488405047605434, 9.64667865385612, 8.546968301137289, 6.201123973975579, 5.689167883247137, 6.121739589919646, 18.13301785538594, 9.728613309562206, 10.811811157812675, 5.41109327847759, 4.985222592949867, 9.57909831777215, 10.116749132672945, 8.565977370987335, 6.23353539655606, 9.842458181083202, 6.869914631048839, 6.0518295504152775, 6.319205742329359, 8.693909582992395, 6.13006033624212, 7.662461915363868, 9.287469554692507, 6.762586223582427, 14.263664372265339, 10.218384365240732, 11.131581229468187, 7.372767509271701, 8.891090595473846, 9.089778487881025, 7.452004433919986, 9.438005896906057, 5.384684385110934, 6.8503400931755705, 5.425699055194855, 7.260599018385013, 6.291971076279879, 4.910314766069253, 7.542422662178676],
  "Optimizer durations [ms]": [161130.552, 157849.044, 94508.761, 27566.788, 50850.416, 138950.731, 101048.84, 25760.305, 38692.19, 89572.549, 87455.106, 33195.512, 95058.916, 87078.278, 276858.578, 26158.014, 86545.797, 30157.629, 37463.409, 80433.266, 112736.236, 74960.511, 28096.011, 92869.267, 115947.331, 63524.791, 88419.997, 104269.648, 36730.222, 153921.654, 118197.237, 255354.957, 41404.067, 232080.386, 29832.256, 86345.906, 179531.913, 186302.732, 24401.751, 23808.12, 81002.993, 92880.605, 26865.223, 26787.016, 97489.005, 91417.133, 26254.814, 86791.392, 93316.292, 94158.319, 83182.716, 86402.802, 234776.213, 27901.921, 90168.894, 29186.971, 125671.659, 155178.462, 51163.902, 87018.806, 47979.026, 45150.947, 148828.502, 101284.836, 134581.04, 298001.261, 37400.293, 228408.416, 93583.768, 144992.853, 150359.346, 84769.818, 33269.53, 103930.037, 77296.235, 22288.485, 25832.877, 92834.455, 82974.768, 26435.32, 72247.922],
  "Optimizer iterations": 81,
  "Qubits": 2,
  "Total Algorithm duration [s]": 7515.134,
  "Total Classic duration [s]": 7514.490851857311,
  "Total Quantum duration [s]": 0.6431481426892183,
  "Expectation Value": -1.98388671875,
  "Optimal Expectation Value": -2.2360680103302,
  "Optimizer params": [0.5087498788412695, 0.750926431201748, 0.4512461353570059, 0.5174858040364714, 0.496991925437307, 0.7541055415526673, 0.4932078111448833, 0.7478803642359901],
  "QPU": "4010001",
  "Problem": "IC",
  "Size": 2,
  "P": 0,
  "Shots": 4096
}