{
  "Depth": 2.0,
  "Job durations [ms]": [9.986730758100748, 10.835037799552083, 6.22694892808795, 6.903134984895587, 6.769955158233643, 9.557315148413181, 7.699386449530721, 5.783342523500323, 4.858802072703838, 7.641051663085818, 7.3703068774193525, 4.921319428831339, 7.240557577461004, 6.156611489132047, 4.973928444087505, 4.877680679783225, 9.790950454771519, 6.735270377248526, 4.6421135775744915, 7.484671659767628, 4.566780989989638, 4.871031502261758, 5.737765459343791, 7.618562551215291, 5.8921040035784245, 6.2107243575155735, 4.697834840044379, 4.904107889160514, 7.668802514672279, 5.791475996375084],
  "Optimizer durations [ms]": [81386.556, 31650.238, 16325.12, 78742.54, 19183.852, 18281.581, 15234.631, 15460.742, 82236.463, 71291.356, 22934.811, 134458.761, 17306.229, 19300.13, 15443.626, 28619.856, 42820.316, 16380.241, 72256.222, 22408.316, 18613.878, 105793.165, 147113.385, 19126.071, 18947.813, 17897.944, 15610.481, 81438.577, 18695.482, 17284.271],
  "Optimizer iterations": 30,
  "Qubits": 2,
  "Total Algorithm duration [s]": 1282.242,
  "Total Classic duration [s]": 1282.0435856938436,
  "Total Quantum duration [s]": 0.19841430615633726,
  "Expectation Value": -1.410658597946167,
  "Optimal Expectation Value": -1.4114999771118164,
  "Optimizer params": [0.9905594978723792, 0.5033671551769449],
  "QPU": "4010001",
  "Problem": "RH",
  "Size": 2,
  "P": 0,
  "Shots": 4096
}