{
  "Depth": 2.0,
  "Job durations [ms]": [5.596127826720476, 5.733993137255311, 5.8559689205139875, 5.652669118717313, 10.182005818933249, 6.728034699335694, 5.831892602145672, 5.6600000243633986, 6.742750992998481, 4.497261950746179, 7.7582544181495905, 6.96820393204689, 8.49612639285624, 4.957373486831784, 5.711891921237111, 4.839831497520208, 6.693860981613398, 6.633481942117214, 4.8380650114268064, 5.990874953567982, 7.525519467890263, 5.674245534464717, 5.700757494196296],
  "Optimizer durations [ms]": [80042.761, 81200.972, 18062.453, 23164.396, 15797.904, 15048.638, 113537.884, 17179.217, 70229.769, 19439.367, 16895.057, 23439.489, 101228.969, 16854.954, 55184.556, 15983.602, 39829.798, 112303.813, 18947.496, 88259.792, 17054.558, 17162.994, 104560.576],
  "Optimizer iterations": 23,
  "Qubits": 2,
  "Total Algorithm duration [s]": 1081.409,
  "Total Classic duration [s]": 1081.2647308078745,
  "Total Quantum duration [s]": 0.14426919212564826,
  "Expectation Value": -1.4114999771118164,
  "Optimal Expectation Value": -1.4114999771118164,
  "Optimizer params": [1.0, 0.5019943910536473],
  "QPU": "4010001",
  "Problem": "RH",
  "Size": 2,
  "P": 0,
  "Shots": 4096
}