{
  "Depth": 2.0,
  "Job durations [ms]": [13.18967342376709, 12.862205505371094, 13.011932373046875, 13.317346572875977, 12.986183166503906, 12.86172866821289, 13.162612915039062, 13.033390045166016, 13.23556900024414, 13.70394229888916, 13.941168785095215, 13.125061988830566, 13.124823570251465, 12.751460075378418, 12.659192085266113, 13.415932655334473, 13.359546661376953, 13.74363899230957, 13.507246971130371, 14.769196510314941, 12.799382209777832, 13.0997896194458, 12.740254402160645, 13.090729713439941, 13.210415840148926, 12.902975082397461, 13.125061988830566, 12.723445892333984, 13.381242752075195, 12.966036796569824, 13.086915016174316, 12.861251831054688, 12.873172760009766, 13.282179832458496, 13.394832611083984, 13.274431228637695, 13.37730884552002, 13.232707977294922, 13.142585754394531, 13.11790943145752, 13.721466064453125, 13.432025909423828, 12.80200481414795, 13.375163078308105, 13.54992389678955, 13.453841209411621, 13.347148895263672, 13.656973838806152, 13.70382308959961, 13.408541679382324, 13.220667839050293, 13.04173469543457, 13.109207153320312, 13.289570808410645, 13.315558433532715, 13.416290283203125, 13.584375381469727, 13.69023323059082, 13.302326202392578, 13.395547866821289, 13.563752174377441, 13.349533081054688, 13.050079345703125, 13.511300086975098, 12.85099983215332, 12.732982635498047, 12.601852416992188, 12.740492820739746, 12.830734252929688, 12.938976287841797, 12.98975944519043, 12.926697731018066, 12.91501522064209, 14.002799987792969, 13.851284980773926, 14.396309852600098, 13.375997543334961, 13.491272926330566, 13.301372528076172, 13.047099113464355, 13.29660415649414, 13.324260711669922, 13.281702995300293, 13.231039047241211, 12.948870658874512, 12.967705726623535, 13.282299041748047, 13.360381126403809, 12.76707649230957, 12.981534004211426, 12.824773788452148, 12.833595275878906, 12.734174728393555, 13.33606243133545, 13.543128967285156, 13.602256774902344, 13.858199119567871, 13.300180435180664, 13.680338859558105, 14.230012893676758, 13.572931289672852, 13.52381706237793, 13.46278190612793, 13.362884521484375, 15.55478572845459, 13.390183448791504, 12.907147407531738, 14.830470085144043, 13.541340827941895, 14.86063003540039, 16.379714012145996, 14.666438102722168, 13.14854621887207, 14.119625091552734, 13.900279998779297, 13.865113258361816, 13.737082481384277, 13.503670692443848, 13.434648513793945, 13.08286190032959, 14.273643493652344, 15.309929847717285, 16.123175621032715, 17.409563064575195, 16.880393028259277, 17.847418785095215, 17.370104789733887, 17.0363187789917, 16.393065452575684, 16.79694652557373, 17.35854148864746, 15.920042991638184, 15.953660011291504, 13.72981071472168, 14.56141471862793, 13.616800308227539, 14.250993728637695],
  "Optimizer durations [ms]": [198.888, 148.274, 149.262, 146.838, 190.508, 144.371, 147.172, 147.173, 198.792, 165.578, 158.953, 215.345, 157.187, 152.801, 153.409, 209.887, 155.33, 153.346, 156.712, 203.233, 149.21, 152.269, 145.715, 201.991, 150.449, 147.639, 199.738, 156.242, 151.978, 154.465, 200.277, 147.179, 148.13, 153.114, 199.129, 151.466, 150.694, 149.468, 210.213, 159.714, 166.084, 206.056, 148.8, 150.246, 151.947, 216.176, 151.146, 157.377, 154.488, 205.114, 159.55, 151.26, 152.15, 205.804, 155.819, 154.55, 207.367, 166.474, 150.285, 153.127, 211.18, 151.605, 155.31, 151.481, 188.04, 144.953, 143.995, 144.431, 190.596, 144.148, 151.435, 196.04, 147.12, 150.131, 178.801, 220.982, 152.229, 150.552, 152.284, 192.63, 164.91, 160.414, 162.451, 207.413, 150.114, 150.233, 206.807, 151.278, 152.855, 149.571, 197.919, 151.36, 151.927, 150.121, 212.937, 157.712, 158.477, 149.384, 204.118, 164.902, 161.449, 218.491, 155.043, 156.359, 166.17, 223.222, 154.284, 163.61, 158.012, 261.105, 200.171, 189.927, 176.141, 246.09, 168.869, 235.658, 230.504, 157.608, 166.364, 153.952, 217.611, 172.994, 186.137, 195.207, 264.097, 200.495, 197.91, 189.137, 269.35, 187.033, 197.725, 264.004, 206.967, 161.954, 183.559, 216.517, 201.875],
  "Optimizer iterations": 137,
  "Qubits": 8,
  "Total Algorithm duration [s]": 23.924,
  "Total Classic duration [s]": 22.04920980834961,
  "Total Quantum duration [s]": 1.8747901916503906,
  "Expectation Value": -4.609043598175049,
  "Optimal Expectation Value": -4.610499858856201,
  "Optimizer params": [0.9984625133465053, 0.500023166514242, 0.9977868627989603, 0.5042450436016735, 0.5024359612187342, 0.9975440314199959, 0.5029919527988006, 0.4952919455403908],
  "QPU": "3010002",
  "Problem": "RH",
  "Size": 8,
  "P": 0,
  "Shots": 4096
}