{
  "Circuit execution durations [ms]": [111.25016212463379, 57.88135528564453, 61.85412406921387, 59.73935127258301, 56.58769607543945, 62.58416175842285, 64.46552276611328, 64.84794616699219, 57.91902542114258, 60.28127670288086, 60.50729751586914, 64.35465812683105, 57.250022888183594, 56.471824645996094, 56.52046203613281, 56.621551513671875, 58.060407638549805, 56.98084831237793, 55.58919906616211, 61.74182891845703, 58.98284912109375, 56.57172203063965, 56.78081512451172, 56.195735931396484, 64.91589546203613, 105.84092140197754, 59.11684036254883, 57.76405334472656, 58.212995529174805, 104.3691635131836, 56.42986297607422, 60.08720397949219, 57.44123458862305, 106.84323310852051, 56.5190315246582, 56.003570556640625, 56.62989616394043, 59.65566635131836, 59.426069259643555, 59.17620658874512, 56.554555892944336, 56.687116622924805, 56.15663528442383, 57.69228935241699, 58.75682830810547, 57.26480484008789, 59.09228324890137, 60.22310256958008, 59.71884727478027, 56.02908134460449, 57.561635971069336, 60.03403663635254, 56.64777755737305, 59.64493751525879, 106.77266120910645, 55.36174774169922, 58.88795852661133, 57.50608444213867, 105.83829879760742, 60.08434295654297, 57.67631530761719, 58.27140808105469, 108.44087600708008, 56.30016326904297, 61.669111251831055, 56.777238845825195, 105.93724250793457, 59.664011001586914, 59.56912040710449, 57.672977447509766, 56.46109580993652, 57.550907135009766, 57.12127685546875, 57.60908126831055, 56.79631233215332, 60.33658981323242, 56.65779113769531, 56.38241767883301, 57.51967430114746, 59.517860412597656, 60.6989860534668, 56.688785552978516, 56.1220645904541, 57.088375091552734, 60.49776077270508, 55.66239356994629, 56.96988105773926, 106.90665245056152, 58.52365493774414, 57.56855010986328, 56.96463584899902, 106.27198219299316, 55.9537410736084, 57.38949775695801, 59.09442901611328],
  "Depth": 95.0,
  "Expectation Value": -5.37841796875,
  "Optimal Expectation Value": -6.0,
  "Optimizer durations [ms]": [377.443, 326.236, 375.715, 373.317, 374.256, 335.696, 377.293, 380.2, 381.919, 324.114, 373.249, 380.37, 373.166, 321.51, 363.012, 366.405, 371.354, 321.354, 359.177, 367.78, 371.116, 321.235, 362.019, 365.753, 375.427, 370.032, 322.711, 367.053, 380.686, 369.374, 319.718, 368.661, 367.797, 370.104, 319.95, 362.76, 366.024, 374.36, 324.439, 365.883, 364.487, 371.104, 319.4, 365.137, 367.297, 370.19, 321.349, 366.788, 365.759, 366.517, 321.928, 363.517, 365.411, 367.523, 369.712, 316.879, 366.706, 368.602, 369.344, 324.931, 365.458, 370.245, 372.74, 318.793, 408.909, 371.041, 370.583, 329.384, 372.001, 368.72, 371.671, 320.957, 366.99, 367.605, 372.196, 326.02, 362.565, 364.298, 363.231, 324.663, 366.02, 372.766, 369.111, 322.254, 366.785, 363.484, 371.502, 370.418, 322.345, 366.005, 367.885, 370.52, 320.418, 365.952, 369.85],
  "Optimizer iterations": 95,
  "Optimizer params": [0.6955142720164318, 0.9448894649722156, 0.9288761209510539, 0.531402026729784, 0.9563870979943617, 0.05921322557870877],
  "P": 3,
  "Problem": "MCP",
  "QJob durations [ms]": [182.01136589050293, 128.42917442321777, 132.28631019592285, 130.0210952758789, 178.77554893493652, 134.9787712097168, 134.52696800231934, 134.3390941619873, 183.1374168395996, 128.326416015625, 131.4260959625244, 137.41135597229004, 177.0339012145996, 126.86562538146973, 125.9465217590332, 128.5247802734375, 176.94854736328125, 126.88374519348145, 123.64983558654785, 130.93304634094238, 127.53748893737793, 127.09808349609375, 126.58381462097168, 125.47421455383301, 134.901762008667, 174.50594902038574, 128.0803680419922, 128.4656524658203, 127.11477279663086, 174.50714111328125, 125.81562995910645, 129.75811958312988, 127.64334678649902, 176.34272575378418, 125.59199333190918, 124.5870590209961, 125.9920597076416, 180.2692413330078, 128.46755981445313, 128.5104751586914, 125.74124336242676, 176.6989231109619, 124.67122077941895, 126.21116638183594, 129.02212142944336, 175.5223274230957, 127.0906925201416, 130.7697296142578, 128.72648239135742, 125.0615119934082, 126.78861618041992, 128.20696830749512, 126.29508972167969, 124.1757869720459, 175.492525100708, 123.2447624206543, 126.50227546691895, 127.8374195098877, 175.3849983215332, 129.31394577026367, 126.33371353149414, 127.27212905883789, 177.77180671691895, 124.84526634216309, 134.28831100463867, 126.27649307250977, 174.26109313964844, 131.65712356567383, 129.23264503479004, 128.21078300476074, 176.36775970458984, 126.58286094665527, 126.63054466247559, 127.55417823791504, 177.60705947875977, 131.544828414917, 125.63180923461914, 126.11055374145508, 168.6532497406006, 129.77099418640137, 129.3954849243164, 125.57578086853027, 126.4650821685791, 127.83169746398926, 131.13069534301758, 124.79615211486816, 130.0332546234131, 176.29241943359375, 127.59542465209961, 126.37472152709961, 126.58500671386719, 176.29528045654297, 125.95987319946289, 127.43949890136719, 128.8440227508545],
  "QPU": "300001B",
  "Qubits": 5,
  "Queue durations [ms]": [0.0, 0.0, 0.0, 0.0, 0.0, 0.0, 0.0, 0.0, 0.0, 0.0, 0.0, 0.0, 0.0, 0.0, 0.0, 0.0, 0.0, 0.0, 0.0, 0.0, 0.0, 0.0, 0.0, 0.0, 0.0, 0.0, 0.0, 0.0, 0.0, 0.0, 0.0, 0.0, 0.0, 0.0, 0.0, 0.0, 0.0, 0.0, 0.0, 0.0, 0.0, 0.0, 0.0, 0.0, 0.0, 0.0, 0.0, 0.0, 0.0, 0.0, 0.0, 0.0, 0.0, 0.0, 0.0, 0.0, 0.0, 0.0, 0.0, 0.0, 0.0, 0.0, 0.0, 0.0, 0.0, 0.0, 0.0, 0.0, 0.0, 0.0, 0.0, 0.0, 0.0, 0.0, 0.0, 0.0, 0.0, 0.0, 0.0, 0.0, 0.0, 0.0, 0.0, 0.0, 0.0, 0.0, 0.0, 0.0, 0.0, 0.0, 0.0, 0.0, 0.0, 0.0, 0.0],
  "Shots": 4096,
  "Size": 5,
  "Total Algorithm duration [s]": 34.054,
  "Total Classic duration [s]": 20.914321521759035,
  "Total Quantum duration [s]": 13.139678478240967
}
