{
  "Circuit execution durations [ms]": [57.60955810546875, 57.96480178833008, 57.46865272521973, 58.61091613769531, 59.44418907165527, 57.14106559753418, 57.778358459472656, 56.36453628540039, 61.41543388366699, 61.000823974609375, 57.341814041137695, 58.071136474609375, 61.1109733581543, 56.32162094116211, 62.01815605163574, 58.115243911743164, 55.77731132507324, 57.157039642333984, 59.884071350097656, 58.3796501159668, 109.10940170288086, 57.41429328918457, 60.17756462097168, 57.034969329833984, 109.23504829406738, 56.691646575927734, 57.428836822509766, 57.671308517456055, 110.54801940917969, 58.039188385009766, 57.81126022338867, 57.69848823547363, 109.03716087341309, 60.11223793029785, 58.90965461730957, 59.12423133850098, 107.9397201538086, 58.09307098388672, 62.6072883605957, 58.48431587219238, 110.38613319396973, 57.6474666595459, 57.11007118225098, 60.45174598693848, 109.72309112548828, 56.807518005371094, 59.118032455444336, 57.9838752746582, 57.89542198181152, 57.08813667297363, 57.41095542907715, 56.60223960876465, 57.840824127197266, 62.70861625671387, 57.23929405212402, 56.999921798706055, 61.33270263671875, 59.07487869262695, 56.8850040435791, 60.87803840637207, 58.25352668762207, 57.45720863342285, 60.099124908447266, 60.873985290527344, 58.51101875305176, 109.61031913757324, 59.479713439941406, 56.54120445251465, 58.32934379577637, 109.65514183044434, 61.789512634277344, 59.98063087463379, 56.86306953430176, 109.12799835205078, 58.997154235839844, 57.816505432128906, 57.97433853149414, 108.78515243530273, 59.174299240112305, 56.70046806335449, 59.42034721374512, 110.01968383789063, 57.26003646850586, 56.9915771484375],
  "Depth": 95.0,
  "Expectation Value": -5.00341796875,
  "Optimal Expectation Value": -6.0,
  "Optimizer durations [ms]": [322.339, 368.349, 371.699, 380.079, 330.212, 368.551, 372.571, 372.216, 328.835, 371.195, 371.388, 375.344, 343.34, 368.429, 375.933, 375.489, 319.009, 364.72, 371.801, 371.634, 373.812, 322.064, 371.94, 372.071, 374.668, 321.354, 372.795, 374.858, 375.332, 322.592, 372.143, 374.841, 378.718, 328.243, 372.495, 372.674, 375.214, 322.609, 378.203, 375.066, 377.943, 324.978, 371.067, 374.669, 374.936, 325.343, 372.544, 373.967, 378.377, 323.884, 367.782, 369.317, 377.13, 329.266, 367.085, 368.719, 394.316, 341.989, 373.187, 373.246, 372.609, 326.312, 369.444, 375.189, 374.32, 377.117, 326.291, 370.28, 376.258, 376.884, 329.113, 370.641, 373.83, 376.696, 325.897, 372.279, 372.14, 372.596, 326.594, 368.168, 372.462, 376.612, 322.426, 365.855],
  "Optimizer iterations": 84,
  "Optimizer params": [0.7511002706477495, 0.6539949442931797, 0.03645400922172342, 0.9408537707618253, 0.8175426299279276, 0.9323398745304121],
  "P": 3,
  "Problem": "MCP",
  "QJob durations [ms]": [127.60376930236816, 127.84886360168457, 127.29787826538086, 183.05397033691406, 131.6366195678711, 125.98443031311035, 128.1454563140869, 175.57644844055176, 131.97970390319824, 130.7508945465088, 129.4851303100586, 179.19397354125977, 146.5907096862793, 127.16913223266602, 133.8944435119629, 128.5243034362793, 124.42755699157715, 127.73513793945313, 129.23550605773926, 128.01885604858398, 178.35354804992676, 125.6711483001709, 129.89497184753418, 126.36065483093262, 178.29513549804688, 125.36859512329102, 127.62689590454102, 128.14950942993164, 179.98766899108887, 127.63166427612305, 127.70962715148926, 129.45914268493652, 181.29801750183105, 130.48267364501953, 128.92889976501465, 129.0304660797119, 177.37150192260742, 127.42757797241211, 133.9561939239502, 129.60147857666016, 180.50765991210938, 127.8996467590332, 128.25250625610352, 130.31554222106934, 179.26907539367676, 127.63118743896484, 129.44388389587402, 129.39119338989258, 181.89668655395508, 126.82223320007324, 126.57308578491211, 125.72431564331055, 180.25922775268555, 132.33661651611328, 126.84297561645508, 126.73735618591309, 196.7775821685791, 133.29601287841797, 128.8602352142334, 130.87105751037598, 128.13162803649902, 128.60679626464844, 129.2581558227539, 132.3244571685791, 129.64415550231934, 179.93903160095215, 129.33635711669922, 126.30653381347656, 129.54330444335938, 179.54587936401367, 133.06331634521484, 128.7534236907959, 126.74641609191895, 179.10194396972656, 128.97300720214844, 128.13091278076172, 128.07607650756836, 177.34074592590332, 130.24592399597168, 126.43671035766602, 128.18193435668945, 179.20422554016113, 127.74300575256348, 125.20408630371094],
  "QPU": "300001B",
  "Qubits": 5,
  "Queue durations [ms]": [0.0, 0.0, 0.0, 0.0, 0.0, 0.0, 0.0, 0.0, 0.0, 0.0, 0.0, 0.0, 0.0, 0.0, 0.0, 0.0, 0.0, 0.0, 0.0, 0.0, 0.0, 0.0, 0.0, 0.0, 0.0, 0.0, 0.0, 0.0, 0.0, 0.0, 0.0, 0.0, 0.0, 0.0, 0.0, 0.0, 0.0, 0.0, 0.0, 0.0, 0.0, 0.0, 0.0, 0.0, 0.0, 0.0, 0.0, 0.0, 0.0, 0.0, 0.0, 0.0, 0.0, 0.0, 0.0, 0.0, 0.0, 0.0, 0.0, 0.0, 0.0, 0.0, 0.0, 0.0, 0.0, 0.0, 0.0, 0.0, 0.0, 0.0, 0.0, 0.0, 0.0, 0.0, 0.0, 0.0, 0.0, 0.0, 0.0, 0.0, 0.0, 0.0, 0.0, 0.0],
  "Shots": 4096,
  "Size": 5,
  "Total Algorithm duration [s]": 30.384,
  "Total Classic duration [s]": 18.627695735931397,
  "Total Quantum duration [s]": 11.756304264068604
}
