{
  "Depth": 457.0,
  "Expectation Value": -3.045062780380249,
  "Job durations [ms]": [2.7908999999999997, 2.7805999999999997, 2.8000999999999996, 2.7583, 2.7652, 2.8665000000000003, 2.7961, 2.8148, 2.749, 2.7388, 2.7491, 2.7656, 2.7956, 2.7773, 2.7881, 2.7819, 2.7415, 2.7604, 2.7935999999999996, 2.8297, 2.7758000000000003, 2.7756, 2.7759, 2.7973, 2.8527, 2.7699000000000003, 2.7732, 2.791, 2.7847000000000004, 2.8137000000000003, 2.8163, 2.7645, 2.7731000000000003, 2.8005, 2.7566, 2.9502, 2.7903, 2.7729999999999997, 2.7603, 2.769, 2.7662, 2.7927, 2.7239999999999998, 2.7641, 2.7784, 2.7573, 2.7927999999999997, 2.7436000000000003, 2.7838, 2.7882, 2.8851, 2.8784, 2.7236000000000002, 2.7707, 2.8055, 2.77, 2.8102, 2.7926, 2.7605, 2.4831, 2.9264, 2.8092, 2.7879, 2.7249000000000003, 2.774, 2.8080000000000003, 2.7468000000000004, 2.8222, 2.8228, 2.76, 2.7487000000000004, 2.7859, 2.7572, 2.8430999999999997, 2.7644, 2.7012, 2.8842, 2.8316, 2.8388, 2.7548999999999997, 2.7776, 2.8084, 2.7667, 2.7977000000000003, 2.8485, 2.8481, 2.8501, 2.7645999999999997, 2.7938, 2.7889999999999997, 2.7899000000000003],
  "Optimal Expectation Value": -4.0,
  "Optimizer durations [ms]": [38.0, 38.178, 38.402, 37.449, 37.776, 38.915, 38.467, 38.405, 37.689, 37.646, 37.792, 37.974, 37.963, 38.342, 37.872, 38.089, 37.614, 37.867, 38.171, 38.359, 37.97, 38.149, 37.983, 38.275, 38.694, 37.996, 37.736, 38.06, 38.106, 38.08, 38.159, 38.107, 37.776, 38.225, 37.926, 34.877, 38.117, 38.0, 37.588, 38.023, 37.94, 38.14, 37.489, 37.863, 38.34, 37.573, 38.493, 37.553, 38.301, 38.232, 34.171, 39.17, 37.243, 37.924, 38.081, 38.009, 38.539, 38.008, 37.637, 35.443, 34.932, 38.403, 38.264, 37.403, 38.192, 38.364, 37.764, 38.21, 38.537, 37.927, 37.443, 37.85, 37.57, 33.884, 37.683, 37.098, 34.46, 38.662, 38.732, 37.872, 37.998, 33.421, 37.955, 38.216, 33.642, 38.824, 38.513, 37.65, 38.418, 38.047, 38.034],
  "Optimizer iterations": 91,
  "Optimizer params": [0.8680067753502091, 0.4624240974817312, 0.9373454958925552, 0.8575354799167446, 0.6053877870179056, 0.8861537248765301],
  "P": 3,
  "Problem": "DSP",
  "QPU": "7000000",
  "Qubits": 11,
  "Shots": 4096,
  "Size": 6,
  "Total Algorithm duration [s]": 3.433,
  "Total Classic duration [s]": 3.1793959,
  "Total Quantum duration [s]": 0.2536041
}
