{
  "Depth": 457.0,
  "Expectation Value": -2.754966974258423,
  "Job durations [ms]": [2.7989, 2.8352999999999997, 2.7811, 2.7893000000000003, 2.7935999999999996, 2.8034000000000003, 2.779, 2.8024, 2.7977000000000003, 2.785, 2.8235, 2.7809000000000004, 2.7798, 2.7784, 2.8462, 2.8487999999999998, 2.8097, 2.7876, 2.7716, 2.778, 2.8095, 2.7896, 2.7356, 2.7998, 2.8227, 2.8074, 2.8057, 2.8817999999999997, 2.8011, 2.7837, 2.7786, 2.8895, 2.9123, 2.8049, 2.7172, 2.8346, 2.7965, 2.8005999999999998, 2.7732, 2.7853, 2.8045999999999998, 2.7812, 2.7521, 2.776, 2.7943, 2.8004000000000002, 2.7793, 2.8073, 2.9906, 2.8468999999999998, 2.7813999999999997, 2.9187000000000003, 2.765, 2.7817, 2.7258, 2.8161, 2.8693, 2.7887, 2.8808000000000002, 2.8782, 2.8115, 2.798, 2.7809000000000004, 2.8495, 2.8333, 2.8146999999999998, 2.8366, 2.8056, 2.9237, 2.8298, 2.8125, 2.7918000000000003, 2.7945, 2.8415, 2.7872, 2.8157, 2.7817, 2.9462, 2.7716, 2.7809000000000004, 2.7832, 2.7856, 2.7893000000000003, 2.7913, 2.7657, 2.7591, 2.7662, 2.8803, 2.7883999999999998, 2.7858, 2.8045999999999998, 2.8057999999999996, 2.8165999999999998, 2.8182, 2.8105, 2.8463999999999996, 2.8081, 2.8367, 2.8171, 2.9246, 2.8116, 2.7504999999999997, 2.7606, 2.7835, 2.7969000000000004, 2.755, 2.7721999999999998, 2.7862, 2.7507, 2.7788, 2.7832999999999997, 2.7736, 2.8031, 2.7483, 2.7946, 2.784, 2.7950000000000004, 2.7761, 2.749, 2.7548999999999997, 2.7843, 2.7628000000000004, 2.7651, 2.8204, 2.7859, 2.7282, 2.7683999999999997, 2.7472, 2.7521, 2.8695, 2.7678999999999996, 2.7292, 2.7625, 2.8596, 2.7889999999999997, 2.8036, 2.8733999999999997, 2.8000999999999996, 2.7762, 2.781, 2.8024999999999998, 2.8219, 2.8017, 2.8519, 2.7507, 2.7534, 2.7689, 2.7913, 2.8696, 2.8298, 2.7409, 2.767, 2.8049, 2.8064, 2.7998, 2.8842999999999996, 2.7791, 2.7758000000000003, 2.8075, 2.8011999999999997, 2.7782, 2.7682, 2.7869, 2.8864, 2.7716, 2.7881, 2.7905, 2.7915, 2.7355, 2.7572, 2.7973999999999997, 2.785, 2.7988, 2.8133, 2.7697, 2.9196, 2.7266, 2.6932, 2.7298999999999998, 2.7885, 2.7662, 2.7869, 2.8463999999999996, 2.8576, 2.9082, 2.7933, 2.7693000000000003, 2.7702999999999998, 2.7794999999999996, 2.7883999999999998, 2.8145000000000002, 2.8345000000000002, 2.8101, 2.8284, 2.8084, 2.8171, 2.8176],
  "Optimal Expectation Value": -4.0,
  "Optimizer durations [ms]": [37.988, 38.592, 38.371, 38.255, 38.167, 38.331, 37.934, 38.365, 38.249, 38.177, 38.212, 38.025, 38.149, 38.166, 38.631, 39.132, 38.152, 38.416, 37.911, 38.199, 38.41, 38.22, 37.616, 38.184, 38.691, 38.221, 38.28, 34.358, 38.202, 37.996, 38.082, 34.396, 34.283, 38.112, 37.515, 38.377, 38.053, 38.085, 38.223, 38.174, 38.004, 38.048, 37.793, 38.164, 38.174, 38.291, 38.238, 38.246, 35.606, 38.887, 38.152, 34.566, 37.812, 38.065, 37.43, 38.273, 38.843, 38.134, 34.172, 33.941, 38.389, 38.26, 38.014, 38.779, 38.328, 38.536, 38.493, 38.174, 39.69, 38.545, 38.372, 38.037, 38.048, 38.507, 38.158, 38.373, 37.864, 34.995, 38.156, 38.074, 37.947, 38.201, 38.054, 37.915, 37.875, 37.882, 37.754, 34.299, 38.078, 37.793, 38.292, 38.199, 38.121, 38.324, 38.194, 38.462, 38.222, 38.882, 38.487, 34.623, 38.311, 37.49, 37.773, 38.044, 38.389, 37.876, 37.863, 38.339, 37.68, 37.962, 37.937, 37.673, 37.979, 37.727, 38.076, 38.207, 38.123, 38.148, 37.699, 37.988, 37.829, 37.986, 37.777, 33.758, 37.804, 37.479, 37.753, 37.852, 37.626, 38.637, 37.953, 37.48, 37.858, 33.939, 38.25, 38.321, 33.88, 38.456, 37.81, 38.011, 38.19, 38.338, 38.227, 38.758, 37.502, 37.83, 37.992, 38.162, 39.205, 38.337, 37.672, 38.041, 38.041, 38.341, 38.225, 34.188, 38.298, 37.986, 38.344, 38.157, 38.059, 37.897, 38.221, 34.348, 37.69, 37.977, 38.191, 38.051, 37.563, 37.877, 38.189, 38.022, 38.131, 38.31, 37.657, 39.31, 37.774, 37.561, 37.574, 37.866, 38.228, 37.953, 33.837, 33.816, 34.611, 38.181, 37.989, 37.672, 37.9, 38.076, 38.366, 38.647, 38.091, 38.498, 38.294, 38.18, 38.626],
  "Optimizer iterations": 197,
  "Optimizer params": [0.8788759663088569, 0.6500970756513361, 0.2194713311716253, 0.9762591202398297, 0.7892078171991669, 0.7788408072241836],
  "P": 3,
  "Problem": "DSP",
  "QPU": "7000000",
  "Qubits": 11,
  "Shots": 4096,
  "Size": 6,
  "Total Algorithm duration [s]": 7.444,
  "Total Classic duration [s]": 6.8922554,
  "Total Quantum duration [s]": 0.5517446000000001
}
