{
  "Depth": 457.0,
  "Expectation Value": -3.057079315185547,
  "Job durations [ms]": [2.7719, 2.7171000000000003, 2.7893000000000003, 2.7481, 2.7706, 2.8081, 2.8003, 2.8821, 2.8022, 2.7288, 2.6294, 2.6479, 2.6091, 2.6663, 2.7729999999999997, 2.7881, 2.7521999999999998, 2.7731000000000003, 2.7796000000000003, 2.8112, 2.7707, 2.7476000000000003, 2.8673, 2.7723999999999998, 2.8731, 2.7676, 2.7991, 2.7737, 2.7647, 2.7466, 2.7399999999999998, 2.7794, 2.7812, 2.7896, 2.7468000000000004, 2.7508, 2.7604, 2.7445, 2.7578, 2.7701000000000002, 2.7923, 2.8827000000000003, 2.7649, 2.7697, 2.7721999999999998, 2.8167, 2.7598000000000003, 2.8647, 2.8750999999999998, 2.7994, 2.7901, 2.6986, 2.7752, 2.7242, 2.7135000000000002, 2.7443, 2.8879, 2.7639, 2.8005999999999998, 2.7866, 2.7991, 2.79, 2.7902, 2.8081, 2.8038, 2.7437, 2.7306, 2.7835, 2.7828000000000004, 2.7935999999999996, 2.821, 2.7755, 2.8082, 2.8062, 2.7878, 2.9339, 2.8115, 2.8069, 2.7744000000000004, 2.7659, 2.7962, 2.7744000000000004, 2.7739000000000003, 2.7431, 2.8031, 2.7772, 2.8458, 2.9137999999999997, 2.7807, 2.7896, 2.797, 2.7859, 2.7583, 2.7561, 2.8057, 2.7664999999999997, 2.8801],
  "Optimal Expectation Value": -4.0,
  "Optimizer durations [ms]": [37.823, 37.2, 38.329, 37.821, 37.792, 38.061, 38.358, 33.965, 38.101, 37.335, 36.578, 36.954, 36.391, 37.082, 37.731, 37.925, 37.768, 38.069, 38.029, 38.621, 37.912, 37.903, 38.658, 37.989, 34.086, 37.821, 38.096, 37.852, 37.893, 37.751, 37.355, 37.874, 38.187, 38.065, 37.828, 37.62, 37.691, 37.535, 37.574, 37.747, 38.353, 34.003, 37.992, 37.921, 38.072, 33.627, 37.831, 33.983, 34.106, 37.459, 38.088, 36.967, 37.937, 37.307, 37.326, 37.533, 39.182, 37.959, 38.189, 37.942, 38.308, 38.27, 38.006, 38.36, 38.338, 37.365, 37.664, 38.05, 37.847, 38.246, 38.188, 37.878, 38.52, 38.439, 38.071, 34.611, 38.695, 38.305, 38.059, 37.979, 38.204, 37.977, 37.95, 37.815, 38.378, 37.914, 38.849, 34.45, 38.183, 38.234, 38.121, 38.171, 37.795, 37.848, 38.017, 37.752, 34.181],
  "Optimizer iterations": 97,
  "Optimizer params": [0.3830112444820307, 0.5149107564557517, 0.011231724900364837, 0.03696192301167558, 0.6790354548390486, 0.9888860624967406],
  "P": 3,
  "Problem": "DSP",
  "QPU": "7000000",
  "Qubits": 11,
  "Shots": 4096,
  "Size": 6,
  "Total Algorithm duration [s]": 3.644,
  "Total Classic duration [s]": 3.3742017,
  "Total Quantum duration [s]": 0.2697983000000001
}
