{
  "Circuit execution durations [ms]": [119.79949474334717, 119.76897716522217, 120.4385757446289, 119.94171142578125, 119.51780319213867, 120.20933628082275, 119.71259117126465, 119.21310424804688, 141.87610149383545, 120.14484405517578, 119.96197700500488, 120.22256851196289, 119.85433101654053, 119.70150470733643, 119.97342109680176, 124.67348575592041, 119.30930614471436, 119.19784545898438, 119.40896511077881, 119.4523572921753, 119.35937404632568, 119.73965167999268, 119.71831321716309, 119.82691287994385, 119.29464340209961, 120.89395523071289, 142.46118068695068, 119.78256702423096, 119.1105842590332, 119.93026733398438, 120.08178234100342, 119.75336074829102, 119.77577209472656, 123.74615669250488, 119.48645114898682, 120.52202224731445, 119.37355995178223, 119.48668956756592, 119.62389945983887, 119.62127685546875, 276.4681577682495, 120.8733320236206, 119.62604522705078, 119.80307102203369, 120.3620433807373, 120.04208564758301, 119.54498291015625, 120.53120136260986, 119.71902847290039, 120.42343616485596, 125.20456314086914, 119.73464488983154, 119.70674991607666, 141.83032512664795, 119.91393566131592, 119.48764324188232, 120.70608139038086, 119.3702220916748, 119.89235877990723, 119.55177783966064, 119.84193325042725, 119.56226825714111, 119.57740783691406, 120.2307939529419, 119.476318359375, 119.66884136199951, 120.27180194854736, 120.46098709106445, 123.78537654876709, 119.46463584899902, 119.8509931564331, 141.8452262878418, 119.61424350738525, 119.61722373962402, 119.4314956665039, 120.10776996612549, 119.43197250366211, 119.67718601226807, 120.75388431549072, 119.24660205841064, 120.25892734527588, 119.48871612548828, 119.48847770690918, 119.98569965362549, 119.65036392211914, 120.13638019561768, 125.94151496887207, 275.23529529571533, 119.97222900390625, 121.68288230895996, 121.20318412780762, 120.11301517486572, 120.33963203430176, 119.65250968933105, 120.30029296875, 121.15478515625, 270.3554630279541, 141.58976078033447, 120.08368968963623, 120.2782392501831, 120.10800838470459, 120.31924724578857, 120.16487121582031, 124.67551231384277, 119.56143379211426, 120.13399600982666, 119.52066421508789, 119.7885274887085, 120.45764923095703, 120.66495418548584, 119.55320835113525, 120.25749683380127, 120.3376054763794, 120.2096939086914, 120.47827243804932, 142.0820951461792, 119.89855766296387, 120.86749076843262, 120.18108367919922, 119.80092525482178, 119.43721771240234],
  "Depth": 2.0,
  "Expectation Value": -4.214382171630859,
  "Optimal Expectation Value": -4.281300067901611,
  "Optimizer durations [ms]": [1769.143, 1698.857, 1718.8, 1723.769, 1723.326, 1726.599, 1695.373, 1724.473, 1768.265, 1710.624, 1701.605, 1731.266, 1724.665, 1722.946, 1724.702, 1707.584, 1726.379, 1765.129, 1724.994, 1733.37, 1695.149, 1717.377, 1724.681, 1720.705, 1691.687, 1729.48, 1768.394, 1721.033, 1717.541, 1696.334, 1728.131, 1719.616, 1728.504, 1699.942, 1717.421, 1722.808, 1740.972, 1721.222, 1723.687, 1726.931, 2009.021, 1729.941, 1719.047, 1694.657, 1760.796, 1723.091, 1726.707, 1690.467, 1718.481, 1720.237, 1737.231, 1712.671, 1700.3, 1771.325, 1718.999, 1723.23, 1722.665, 1696.158, 1720.008, 1716.408, 1720.424, 1728.073, 1736.45, 1722.485, 1735.084, 1719.467, 1727.069, 1704.063, 1726.354, 1725.429, 1697.926, 1768.635, 1725.81, 1723.553, 1739.196, 1694.601, 1720.949, 1728.541, 1729.499, 1730.452, 1701.018, 1775.677, 1727.444, 1730.632, 1693.829, 1734.714, 1747.45, 2041.387, 1737.857, 1747.535, 1742.343, 1751.106, 1738.304, 1738.198, 1699.677, 1746.17, 2031.309, 1771.208, 1729.375, 1698.679, 1728.113, 1730.438, 1725.382, 1711.858, 1725.585, 1733.098, 1767.974, 1724.769, 1695.353, 1724.326, 1729.955, 1734.363, 1699.743, 1729.681, 1731.838, 1781.11, 1692.129, 1730.554, 1726.153, 1724.176, 1700.898],
  "Optimizer iterations": 121,
  "Optimizer params": [0.9937727183632402, 0.5055862961001883, 0.9888550789172896, 0.5145746460670251, 0.4778009153346444, 0.9554012232886623, 0.5460592103570464],
  "P": 0,
  "Problem": "RH",
  "QJob durations [ms]": [842.5378799438477, 829.7076225280762, 839.614987373352, 842.1022891998291, 841.9766426086426, 843.440055847168, 827.9484510421753, 842.548131942749, 864.4043207168579, 835.3818655014038, 830.9537172317505, 845.6646203994751, 842.4309492111206, 841.6504859924316, 842.4938917160034, 833.7279558181763, 843.0678844451904, 840.7484292984009, 842.5651788711548, 846.8021154403687, 827.7186155319214, 839.0442132949829, 842.6111936569214, 840.6076431274414, 825.9576559066772, 844.8477983474731, 864.5812273025513, 840.668797492981, 838.9596939086914, 828.5516500473022, 843.8756465911865, 839.9298191070557, 844.3386554718018, 830.1421403884888, 838.908314704895, 841.5423631668091, 850.6473302841187, 840.8030271530151, 842.1497344970703, 843.8129425048828, 984.7759008407593, 845.1617956161499, 839.6762609481812, 827.5198936462402, 838.7480974197388, 841.7778015136719, 843.3672189712524, 825.4977464675903, 839.37668800354, 840.1516675949097, 848.9288091659546, 836.4640474319458, 830.2347660064697, 865.8456802368164, 839.5605087280273, 841.5929079055786, 841.327428817749, 828.2648324966431, 840.0813341140747, 838.3115530014038, 840.3680324554443, 843.9823389053345, 826.6483545303345, 841.2902355194092, 847.543478012085, 839.8240804672241, 843.7085151672363, 832.1211338043213, 843.306303024292, 842.6759243011475, 829.0621042251587, 864.4890785217285, 842.9584503173828, 841.6740894317627, 849.364161491394, 827.4778127670288, 840.4719829559326, 844.6042537689209, 844.9788093566895, 845.2694416046143, 830.7275772094727, 867.9206371307373, 843.7578678131104, 845.6234931945801, 827.1607160568237, 847.3048210144043, 852.8925180435181, 1000.7055997848511, 848.9111661911011, 832.0523500442505, 850.5929708480835, 855.0784587860107, 849.051833152771, 849.0900993347168, 829.4787406921387, 853.0222177505493, 995.8419799804688, 865.6215667724609, 844.8607921600342, 829.4999599456787, 843.9463376998901, 844.8315858840942, 842.8668975830078, 835.9999656677246, 842.9168462753296, 846.450686454773, 842.4514532089233, 842.4384593963623, 827.7608156204224, 842.3433303833008, 844.9103832244873, 847.3272323608398, 829.6246528625488, 844.7918891906738, 846.0265398025513, 870.6953525543213, 826.026439666748, 845.300555229187, 843.2806730270386, 841.8056964874268, 830.5126428604126],
  "QPU": "6010013",
  "Qubits": 7,
  "Queue durations [ms]": [0.0, 0.0, 0.0, 0.0, 0.0, 0.0, 0.0, 0.0, 0.0, 0.0, 0.0, 0.0, 0.0, 0.0, 0.0, 0.0, 0.0, 0.0, 0.0, 0.0, 0.0, 0.0, 0.0, 0.0, 0.0, 0.0, 0.0, 0.0, 0.0, 0.0, 0.0, 0.0, 0.0, 0.0, 0.0, 0.0, 0.0, 0.0, 0.0, 0.0, 0.0, 0.0, 0.0, 0.0, 0.0, 0.0, 0.0, 0.0, 0.0, 0.0, 0.0, 0.0, 0.0, 0.0, 0.0, 0.0, 0.0, 0.0, 0.0, 0.0, 0.0, 0.0, 0.0, 0.0, 0.0, 0.0, 0.0, 0.0, 0.0, 0.0, 0.0, 0.0, 0.0, 0.0, 0.0, 0.0, 0.0, 0.0, 0.0, 0.0, 0.0, 0.0, 0.0, 0.0, 0.0, 0.0, 0.0, 0.0, 0.0, 0.0, 0.0, 0.0, 0.0, 0.0, 0.0, 0.0, 0.0, 0.0, 0.0, 0.0, 0.0, 0.0, 0.0, 0.0, 0.0, 0.0, 0.0, 0.0, 0.0, 0.0, 0.0, 0.0, 0.0, 0.0, 0.0, 0.0, 0.0, 0.0, 0.0, 0.0, 0.0],
  "Shots": 4096,
  "Size": 7,
  "Total Algorithm duration [s]": 209.68,
  "Total Classic duration [s]": 107.3805467414856,
  "Total Quantum duration [s]": 102.2994532585144
}
