{
  "Circuit execution durations [ms]": [73.39131832122803, 50.16350746154785, 53.01523208618164, 73.0811357498169, 51.607608795166016, 53.13897132873535, 49.26919937133789, 74.93257522583008, 52.06131935119629, 73.35233688354492, 49.627065658569336, 49.4004487991333, 47.29437828063965, 51.46157741546631, 50.21083354949951, 48.56157302856445, 74.96082782745361, 49.64005947113037, 73.3339786529541, 50.40144920349121, 51.50747299194336, 51.782965660095215, 50.81343650817871, 48.555970191955566, 50.689101219177246, 74.51033592224121, 51.580071449279785, 73.8600492477417, 50.52793025970459, 56.414008140563965, 50.28867721557617, 47.62625694274902, 54.284095764160156, 48.83885383605957, 75.51062107086182, 48.987507820129395, 48.76363277435303, 50.35543441772461, 51.84376239776611, 50.05156993865967, 74.73504543304443, 50.93514919281006, 48.19357395172119, 73.25136661529541, 50.777435302734375, 51.66447162628174, 51.83887481689453, 79.08940315246582, 49.386024475097656, 77.33154296875, 50.96018314361572, 47.81997203826904, 49.09467697143555, 48.409342765808105, 49.87144470214844, 49.143433570861816, 73.00901412963867, 47.522783279418945, 52.281856536865234, 49.74663257598877, 49.02350902557373, 48.06685447692871],
  "Depth": 2.0,
  "Expectation Value": -2.114875555038452,
  "Optimal Expectation Value": -2.2741000652313232,
  "Optimizer durations [ms]": [545.085, 503.278, 502.044, 498.772, 501.914, 550.938, 492.612, 501.481, 503.74, 541.507, 497.176, 492.724, 493.745, 501.669, 539.696, 498.75, 499.64, 502.148, 542.475, 503.725, 497.509, 508.103, 499.169, 540.046, 497.27, 503.252, 502.401, 547.833, 500.19, 507.875, 500.205, 494.913, 548.586, 494.702, 502.081, 496.979, 542.753, 500.0, 497.041, 499.381, 546.624, 502.906, 495.934, 501.123, 499.841, 544.467, 502.451, 509.721, 499.253, 550.257, 501.779, 491.003, 496.464, 495.329, 540.148, 495.193, 496.173, 493.62, 550.461, 499.915, 491.904, 497.906],
  "Optimizer iterations": 62,
  "Optimizer params": [0.00653781760102794, 0.5052972475340085, 0.04665895494227807, 0.49622594897984607],
  "P": 0,
  "Problem": "RH",
  "QJob durations [ms]": [82.19790458679199, 58.884620666503906, 61.77937984466553, 82.08227157592773, 60.449838638305664, 62.10732460021973, 57.959914207458496, 83.870530128479, 60.74881553649902, 81.57694339752197, 58.62462520599365, 58.15756320953369, 56.11610412597656, 60.13774871826172, 58.82573127746582, 57.372093200683594, 83.95349979400635, 58.27736854553223, 82.01372623443604, 59.444427490234375, 60.16576290130615, 60.64045429229736, 59.529900550842285, 57.56533145904541, 59.31663513183594, 83.37247371673584, 60.17422676086426, 82.4650526046753, 59.61203575134277, 65.1019811630249, 59.08238887786865, 56.513309478759766, 63.0570650100708, 57.53171443939209, 84.30004119873047, 57.79004096984863, 57.63423442840576, 59.067487716674805, 60.66083908081055, 59.13209915161133, 83.58776569366455, 59.83257293701172, 57.70087242126465, 82.92174339294434, 59.62514877319336, 60.427308082580566, 60.58657169342041, 88.07134628295898, 58.14528465270996, 86.11071109771729, 59.879422187805176, 56.859612464904785, 57.88695812225342, 57.390570640563965, 58.88986587524414, 57.95156955718994, 81.77900314331055, 56.464195251464844, 62.25597858428955, 58.75515937805176, 57.89148807525635, 57.12616443634033],
  "QPU": "3000017",
  "Qubits": 4,
  "Queue durations [ms]": [0.0, 0.0, 0.0, 0.0, 0.0, 0.0, 0.0, 0.0, 0.0, 0.0, 0.0, 0.0, 0.0, 0.0, 0.0, 0.0, 0.0, 0.0, 0.0, 0.0, 0.0, 0.0, 0.0, 0.0, 0.0, 0.0, 0.0, 0.0, 0.0, 0.0, 0.0, 0.0, 0.0, 0.0, 0.0, 0.0, 0.0, 0.0, 0.0, 0.0, 0.0, 0.0, 0.0, 0.0, 0.0, 0.0, 0.0, 0.0, 0.0, 0.0, 0.0, 0.0, 0.0, 0.0, 0.0, 0.0, 0.0, 0.0, 0.0, 0.0, 0.0, 0.0],
  "Shots": 4096,
  "Size": 4,
  "Total Algorithm duration [s]": 31.595,
  "Total Classic duration [s]": 27.587567181587218,
  "Total Quantum duration [s]": 4.007432818412781
}
