{
  "Depth": 16.5,
  "Job durations [ms]": [0.3870499931508675, 0.4104999970877543, 0.418249997892417, 0.36279999767430127, 0.4332999815233052, 0.35990000469610095, 0.3870000073220581, 0.35909999860450625, 0.3639499918790534, 0.40460001036990434, 0.36094999813940376, 0.3622499934863299, 0.37029999657534063, 0.35325001226738095, 0.40079999598674476, 0.3668999997898936, 0.36345000262372196, 0.3662999952211976, 0.41635001252871007, 0.3567500098142773, 0.39829999150242656, 0.3689500008476898, 0.40410000656265765, 0.4019999905722216, 0.3610499989008531, 0.3565499937394634, 0.35909999860450625, 0.36064999585505575, 0.3605499950936064, 0.3799999976763502, 0.36034999357070774, 0.3931499959435314, 0.3956000000471249, 0.3696999920066446, 0.3555000002961606, 0.38359999598469585, 0.3624499950092286, 0.411600005463697, 0.384599989047274, 0.39585000195074826, 0.38484999095089734, 0.3978500026278198, 0.3892999957315624, 0.3949999954784289, 0.534849998075515, 0.5248500092420727, 0.40874999831430614, 0.5477500089909881, 0.5271500122034922, 0.4181500116828829, 0.35930000012740493, 0.37540000630542636, 0.36700000055134296, 0.4020000051241368, 0.3630499995779246, 0.4237000102875754, 0.4559500084724277, 0.38279998989310116, 0.4268999909982085, 0.38690000656060874, 0.3935999993700534, 0.3985499934060499, 0.4767499922309071, 0.36559998989105225, 0.3640000068116933, 0.3635000030044466, 0.4007499956060201, 0.428449988248758, 0.35689999640453607, 0.5092499923193827, 0.3584500082070008, 0.42019999818876386, 0.36530000215861946, 0.5084999866085127, 0.3905000048689544, 0.4656999808503315, 0.49375000526197255, 0.3544000064721331, 0.3528499946696684, 0.38655000389553607, 0.35104999551549554, 0.36145000194665045, 0.3559500037226826, 0.49414999375585467, 0.5142499867361039, 0.35709999792743474, 0.4116500058444217, 0.3646499972091988, 0.3445499896770343, 0.36099999852012843, 0.3909499937435612, 0.3584000078262761, 0.3699500084621832, 0.4209500184515491, 0.3543499915394932, 0.37534999137278646, 0.36859999818261713, 0.3714499907800928, 0.35909999860450625, 0.35620000562630594, 0.38899999344721437, 0.434300018241629, 0.4109500005142763, 0.35435000609140843, 0.3802999999606982, 0.41110000165645033, 0.35254999238532037, 0.3844499879051, 0.35695001133717597, 0.3570499975467101, 0.3826999891316518, 0.43229998846072704, 0.36809999437537044, 0.3576500021154061, 0.36515000101644546, 0.3601000062189996, 0.36125000042375177, 0.3559500037226826, 0.3966999938711524, 0.3625999961514026, 0.3583999932743609, 0.3607499966165051, 0.36440000985749066, 0.40145000093616545, 0.3858999989461154, 0.37164999230299145, 0.38795000000391155, 0.4013500001747161, 0.4021499917143956, 0.3585499944165349, 0.38394999864976853, 0.3532999980961904, 0.4130500019527972, 0.3536000003805384, 0.3525000065565109, 0.36195000575389713, 0.3579499898478389, 0.3556000010576099, 0.36284999805502594, 0.3657999914139509, 0.3506499924696982, 0.5454499914776534, 0.3625999961514026, 0.3797000099439174, 0.34004999906755984, 0.3391999925952405, 0.43080000614281744, 0.5331499996827915, 0.3251499874750152, 0.4008999967481941, 0.3942500043194741, 0.35724999906960875, 0.41355000576004386, 0.40550000267103314, 0.43080000614281744, 0.3609000123105943, 0.3547500091372058, 0.42369998118374497, 0.35999999090563506, 0.36210000689607114, 0.5102499999338761, 0.35439999192021787, 0.35635000676847994, 0.3665000112960115, 0.4037000035168603, 0.37290000182110816, 0.3583499928936362, 0.3809999907389283, 0.35605000448413193, 0.40535000152885914, 0.3892499953508377, 0.36299999919719994, 0.38765001227147877, 0.33904999145306647, 0.3623999946285039, 0.3605999954743311, 0.35370000114198774, 0.3638500056695193, 0.39319999632425606, 0.3618000046117231, 0.3588499967008829, 0.43309999455232173, 0.37379999412223697, 0.39334999746643007, 0.3562500060070306, 0.3939500020351261, 0.363900006050244, 0.4033500008517876, 0.520500005222857, 0.35894999746233225, 0.3684499970404431, 0.3638499911176041, 0.404050006181933, 0.39254999137483537, 0.36264999653212726, 0.4350500094005838, 0.4283500020392239, 0.3625499957706779, 0.40454999543726444, 0.3617000038502738, 0.3890000079991296, 0.4022999928565696, 0.36085001192986965, 0.38670000503771007, 0.3598000039346516, 0.3715000057127327, 0.36700000055134296, 0.3697500069392845, 0.3551499976310879, 0.3776500088861212, 0.4048999981023371, 0.3763999993680045, 0.4079500067746267, 0.42285000381525606, 0.3824499872280285, 0.3612000000430271, 0.3794499934883788, 0.37420001171994954, 0.3625999961514026, 0.36824999551754445, 0.3637000045273453, 0.3598500043153763, 0.3622000076575205, 0.407600004109554, 0.36125000042375177, 0.36874999932479113, 0.3617000038502738, 0.36789999285247177, 0.3553499991539866, 0.381199992261827, 0.36189999082125723, 0.3846000035991892, 0.4050999996252358, 0.36270001146476716, 0.3630999999586493, 0.3517500008456409, 0.37125000380910933, 0.36299999919719994, 0.3601500065997243, 0.3711000026669353, 0.38699999277014285, 0.39695001032669097, 0.35790000401902944, 0.3978500026278198, 0.3991999983554706, 0.3823000006377697, 0.3627500118454918, 0.5494999932125211, 0.33290000283159316, 0.5156499973963946, 0.5102999857626855, 0.5157999985385686, 0.33554999390617013, 0.44839999463874847, 0.42705000669229776, 0.5043499986641109, 0.3658500063465908, 0.45089999912306666, 0.41029999556485564, 0.35740000021178275, 0.4870000120718032, 0.39894999645184726, 0.3641499934019521, 0.4102500097360462, 0.3557500021997839, 0.41634999797679484, 0.3601000062189996, 0.3534499992383644, 0.3569999971659854, 0.3624500095611438, 0.37000000884290785, 0.35414999001659453, 0.3793499927269295, 0.35244999162387103, 0.37570000858977437, 0.3576500021154061, 0.36284999805502594, 0.3591999993659556, 0.34389999927952886, 0.4044999950565398, 0.3536500007612631, 0.40114999865181744, 0.3607499966165051, 0.44040000648237765, 0.3536500007612631, 0.3818500117631629, 0.35674999526236206, 0.40609999268781394, 0.4006999952252954, 0.41930000588763505, 0.35334999847691506, 0.3614999877754599, 0.40055000863503665, 0.36035000812262297, 0.41989999590441585, 0.3536000003805384, 0.3929499944206327, 0.3585499944165349, 0.4017000028397888, 0.3557499876478687, 0.35799999022856355, 0.39629999082535505, 0.35975000355392694, 0.40064999484457076, 0.3440000000409782, 0.3589999978430569, 0.4002999921794981, 0.3647499979706481, 0.3756500082090497, 0.3648999991128221, 0.39474999357480556, 0.40189998981077224, 0.36269999691285193, 0.3534499992383644, 0.3618000046117231, 0.3561999910743907, 0.34759999834932387, 0.36094999813940376, 0.40794999222271144, 0.3635500033851713, 0.4401499900268391, 0.3540500038070604, 0.3846500039799139, 0.3669500001706183, 0.4155000060563907, 0.3676999913295731, 0.39495000964961946, 0.3546499938238412, 0.38404999941121787, 0.3593500005081296, 0.39185000059660524, 0.3702000103658065, 0.3563999925972894, 0.3667999990284443, 0.3836499963654205, 0.3723999980138615, 0.3753500059247017, 0.367900007404387, 0.4023999936180189, 0.3555000002961606, 0.36114999966230243, 0.37229999725241214, 0.35844999365508556, 0.4200000112177804, 0.3571999986888841, 0.43229998846072704, 0.3644499956863001, 0.4295000107958913, 0.39835000643506646, 0.4022999928565696, 0.3635500033851713, 0.36959999124519527, 0.4985499836038798, 0.4295499966247007, 0.5101499991724268, 0.374549999833107, 0.43465000635478646, 0.5070500046713278, 0.4275999963283539, 0.45980000868439674, 0.41090000013355166, 0.3404999879421666, 0.4590500029735267, 0.3759499959414825, 0.3893999964930117, 0.47005001397337765, 0.46189999557100236, 0.3641499934019521, 0.36439999530557543, 0.3904499899363145, 0.4454000008990988, 0.38594999932684004, 0.4270000063115731, 0.3573499998310581, 0.3655499895103276, 0.3500500024529174, 0.40744998841546476, 0.5186000053072348, 0.3598000039346516, 0.5811999726574868, 0.36589999217540026, 0.3634000022429973, 0.35844999365508556, 0.46890000521671027, 0.3586999955587089, 0.41194999357685447, 0.3651000006357208, 0.3819000121438876, 0.4237000102875754, 0.3658500063465908, 0.3809500049101189, 0.4830999969271943, 0.42970001231878996, 0.3570499975467101, 0.3963000053772703, 0.37000000884290785, 0.4215499939164147, 0.3677000058814883, 0.4030999989481643, 0.36034999357070774, 0.38410001434385777, 0.370850000763312, 0.35785000363830477, 0.36994999391026795, 0.349049994838424, 0.3628999984357506, 0.38564999704249203, 0.3579500043997541, 0.3777499950956553, 0.4017000028397888, 0.35170000046491623, 0.35844999365508556, 0.3622499934863299, 0.3622499934863299, 0.3623000084189698, 0.36955000541638583, 0.3657999914139509, 0.49709998711477965, 0.3777499950956553, 0.3734499914571643, 0.37885000347159803, 0.3548500098986551, 0.35945000126957893, 0.39939999987836927, 0.36705000093206763, 0.38309999217744917, 0.35930000012740493, 0.36874999932479113, 0.374099996406585, 0.38904999382793903, 0.35539999953471124, 0.38670000503771007, 0.40860001172404736, 0.40785000601317734, 0.36454999644774944, 0.3904000041075051, 0.39010000182315707, 0.4027999966638163, 0.35659999412018806, 0.35435000609140843, 0.3627500118454918, 0.3581500059226528, 0.3595000016503036, 0.36815000930801034, 0.36809999437537044, 0.39000000106170774, 0.4719499993370846, 0.35775000287685543, 0.35940000088885427, 0.36375000490806997, 0.3565499937394634, 0.5771500000264496, 0.527149997651577, 0.4942499799653888, 0.3971499972976744, 0.328350011841394, 0.37510000402107835, 0.4491500003496185, 0.42589998338371515, 0.34834998950827867, 0.36630000977311283, 0.3539000026648864, 0.3736500075319782, 0.3545499930623919, 0.3853000089293346, 0.3514499985612929, 0.43405001633800566, 0.41200000850949436, 0.3563000063877553, 0.4032500000903383, 0.36049999471288174, 0.4262000147718936, 0.3597000031732023, 0.40055000863503665, 0.35799999022856355, 0.4168500017840415, 0.4118000069865957, 0.3569999971659854, 0.3775500081246719, 0.35354999999981374, 0.3662000090116635, 0.40770000487100333, 0.3699999942909926, 0.37489998794626445, 0.36070001078769565, 0.35829999251291156, 0.3711000026669353, 0.3657000052044168, 0.40869999793358147, 0.364200008334592, 0.3580499906092882, 0.36160000308882445, 0.3627499972935766, 0.35784998908638954, 0.3635000030044466, 0.36199999158270657, 0.43065000500064343, 0.3716500068549067, 0.4047499969601631, 0.35880001087207347, 0.3515499993227422, 0.36815000930801034, 0.3895999980159104, 0.3596499882405624, 0.3961500042350963, 0.43739999819081277, 0.4109500005142763, 0.3576000017346814, 0.35709999792743474, 0.3599499905249104, 0.3642999945441261, 0.36669999826699495, 0.36619999445974827, 0.3575000009732321, 0.3731500037247315, 0.35865000972989947, 0.4088499990757555, 0.3642999945441261, 0.35170000046491623, 0.35940000088885427, 0.3545499930623919, 0.40330000047106296, 0.35785000363830477, 0.3714499907800928, 0.3615500027080998, 0.4848500102525577, 0.367750006262213, 0.3689500008476898, 0.3904499899363145, 0.3995500010205433, 0.3706499992404133, 0.3599500050768256, 0.3638500056695193, 0.3584000078262761, 0.36255001032259315, 0.37555000744760036, 0.36114999966230243, 0.36815000930801034, 0.36299999919719994, 0.3593500005081296, 0.3620999923441559, 0.35570000181905925, 0.36205000651534647, 0.3557500021997839, 0.4134500049985945, 0.374549999833107, 0.3757999947993085, 0.3789000038523227, 0.4536500055110082, 0.3662999952211976, 0.38285000482574105, 0.40034999256022274, 0.3548499953467399, 0.36830001045018435, 0.35385000228416175, 0.35349999961908907, 0.3529499954311177, 0.5189999938011169, 0.5228000081842765, 0.3380499983904883, 0.5089499900350347, 0.4163999983575195, 0.5279499891912565, 0.5327499966369942, 0.35379998735152185, 0.413799993111752, 0.3571499983081594, 0.38764999771956354, 0.36450001061894, 0.35859999479725957, 0.5134500097483397, 0.37779999547638, 0.43339999683666974, 0.36955000541638583, 0.35955000203102827, 0.38580001273658127, 0.3537499869707972, 0.40544998773839325, 0.3826000029221177, 0.35465000837575644, 0.37355000677052885, 0.3536500007612631, 0.41629999759607017, 0.36344998807180673, 0.3978000022470951, 0.35180000122636557, 0.424599988036789, 0.36225000803824514, 0.4225499869789928, 0.3683499962789938, 0.39739999920129776, 0.3775500081246719, 0.3591499989852309, 0.40019999141804874, 0.35740000021178275, 0.40600000647827983, 0.37120000342838466, 0.4018500039819628, 0.36499999987427145, 0.38755001151002944, 0.40839999564923346, 0.36935000389348716, 0.3552999987732619, 0.3640000068116933, 0.414399997680448, 0.3795500088017434, 0.37179999344516546, 0.36219999310560524, 0.35585000296123326, 0.4025999951409176, 0.4433499852893874, 0.3582499921321869, 0.4257500113453716, 0.3996500017819926, 0.36470001214183867, 0.36845001159235835, 0.3542500053299591, 0.36249999538995326, 0.40699999954085797, 0.37075000000186265, 0.3573499998310581, 0.3657000052044168, 0.35954998747911304, 0.4020000051241368, 0.36859999818261713, 0.36169998929835856, 0.37009999505244195, 0.36359998921398073, 0.41900000360328704, 0.35805000516120344, 0.38914999458938837, 0.367600005120039, 0.39914999797474593, 0.39244999061338603, 0.41105000127572566, 0.3600999916670844, 0.44689999776892364, 0.3566000086721033],
  "Optimizer durations [ms]": [8.896, 8.863, 9.196, 8.273, 19.901, 8.02, 8.95, 8.305, 8.21, 9.495, 8.272, 8.247, 8.601, 7.952, 9.189, 8.559, 8.476, 8.558, 9.3, 8.3, 9.043, 8.584, 8.929, 9.572, 8.759, 7.869, 8.745, 8.342, 8.262, 8.7, 8.272, 9.062, 8.849, 8.517, 8.092, 9.671, 8.318, 9.159, 9.027, 8.843, 8.842, 8.959, 8.926, 9.184, 13.449, 15.363, 26.317, 22.326, 24.139, 9.748, 8.253, 8.669, 8.352, 9.132, 8.388, 9.248, 9.667, 8.638, 9.688, 8.671, 17.359, 8.937, 10.47, 8.346, 8.538, 8.476, 9.517, 9.525, 8.064, 11.329, 17.34, 9.227, 8.552, 11.066, 8.655, 20.46, 16.834, 8.271, 8.161, 8.613, 8.382, 8.844, 8.392, 10.534, 26.248, 10.367, 9.444, 8.227, 8.043, 8.425, 8.801, 8.253, 8.652, 9.095, 8.262, 8.956, 8.171, 9.117, 7.953, 8.253, 20.341, 9.949, 9.257, 8.19, 8.77, 16.997, 8.568, 8.709, 8.198, 9.738, 8.85, 9.507, 8.268, 8.053, 8.454, 8.395, 7.986, 8.394, 8.93, 8.428, 8.827, 8.214, 8.923, 8.966, 8.689, 8.551, 9.164, 8.766, 9.138, 8.232, 8.759, 8.117, 9.535, 8.27, 8.65, 8.358, 8.106, 8.336, 8.184, 8.693, 8.221, 11.997, 8.326, 26.751, 13.979, 16.777, 16.269, 20.874, 12.604, 8.924, 9.244, 8.252, 9.313, 8.897, 9.733, 8.263, 17.383, 24.196, 8.946, 8.567, 10.952, 7.891, 8.413, 8.453, 9.161, 8.418, 8.097, 8.932, 8.815, 9.077, 8.978, 8.108, 8.906, 13.365, 8.423, 8.328, 8.182, 8.335, 8.937, 8.44, 8.186, 9.657, 8.586, 9.007, 7.994, 9.26, 8.282, 9.111, 11.373, 8.152, 8.409, 8.201, 9.345, 8.818, 8.514, 9.543, 9.332, 8.587, 9.012, 8.555, 8.502, 9.178, 8.529, 8.887, 8.471, 8.781, 8.135, 8.772, 8.285, 8.458, 9.284, 20.988, 8.74, 9.139, 8.832, 8.411, 8.53, 8.883, 9.075, 8.368, 8.362, 8.463, 8.17, 9.277, 8.202, 8.409, 8.537, 8.471, 8.262, 8.675, 8.232, 8.663, 9.207, 7.979, 8.398, 8.174, 8.746, 8.422, 8.135, 8.49, 9.007, 8.801, 8.319, 9.109, 9.064, 11.54, 8.773, 11.903, 16.617, 11.35, 22.322, 11.481, 20.559, 9.963, 9.419, 12.015, 15.506, 9.921, 9.206, 8.346, 10.657, 24.366, 9.348, 9.297, 8.597, 9.346, 8.113, 9.881, 8.241, 8.655, 8.312, 8.16, 8.517, 8.146, 8.696, 8.283, 8.252, 8.419, 19.523, 8.72, 8.293, 8.943, 8.564, 9.284, 8.047, 8.932, 8.17, 9.068, 8.971, 9.728, 7.976, 8.712, 8.792, 11.285, 9.388, 8.407, 8.866, 8.035, 9.203, 9.051, 8.033, 9.196, 8.636, 8.838, 8.253, 8.108, 9.038, 8.097, 8.901, 8.25, 9.023, 8.774, 8.208, 8.365, 8.356, 7.977, 8.089, 8.405, 18.562, 8.561, 9.582, 8.408, 8.706, 8.366, 9.149, 8.789, 8.705, 8.176, 8.689, 9.141, 9.184, 8.459, 8.014, 8.142, 8.779, 8.999, 8.662, 8.51, 8.978, 8.266, 8.339, 8.42, 8.571, 9.301, 8.213, 9.151, 8.549, 9.286, 9.05, 8.856, 8.637, 8.217, 11.057, 18.736, 20.121, 21.032, 9.386, 15.064, 11.193, 9.855, 9.276, 12.703, 13.44, 8.41, 8.962, 9.972, 17.176, 8.046, 17.836, 8.763, 9.948, 8.755, 9.39, 8.389, 9.694, 8.981, 9.204, 11.252, 17.47, 12.425, 23.152, 8.363, 8.792, 22.025, 8.139, 9.234, 8.958, 8.686, 9.698, 8.23, 16.828, 16.191, 12.463, 8.135, 9.502, 8.393, 9.528, 8.293, 9.321, 8.077, 9.218, 9.051, 8.227, 8.355, 7.93, 9.277, 17.777, 8.338, 8.624, 8.954, 8.216, 8.155, 8.405, 8.463, 8.344, 8.254, 8.735, 10.814, 12.663, 8.668, 8.775, 8.074, 8.334, 9.021, 8.311, 8.766, 8.19, 9.048, 8.744, 8.889, 8.153, 8.595, 9.31, 8.737, 8.398, 8.821, 8.919, 9.395, 8.04, 8.162, 8.651, 7.913, 8.662, 8.245, 8.543, 8.798, 10.52, 8.237, 8.055, 8.5, 7.967, 16.453, 13.386, 15.901, 18.051, 16.588, 12.229, 9.827, 9.484, 13.483, 13.287, 8.111, 8.564, 8.034, 9.521, 27.315, 9.827, 9.432, 8.004, 9.407, 8.33, 9.199, 8.157, 9.226, 8.004, 9.414, 9.074, 8.145, 8.701, 8.509, 22.429, 9.295, 8.432, 9.763, 8.537, 8.308, 8.486, 8.376, 9.139, 8.092, 8.465, 8.28, 8.379, 8.329, 8.338, 8.291, 9.658, 8.174, 9.358, 8.238, 8.436, 8.751, 8.903, 8.539, 9.065, 9.294, 9.547, 8.155, 8.309, 8.477, 8.366, 8.616, 8.411, 8.305, 8.201, 8.159, 8.943, 8.728, 7.761, 8.502, 8.277, 8.953, 8.368, 8.486, 8.251, 10.78, 12.244, 8.888, 8.977, 9.063, 8.518, 8.1, 8.473, 8.114, 8.536, 8.523, 8.319, 8.194, 8.276, 8.619, 8.203, 8.178, 8.211, 8.408, 8.988, 8.795, 8.679, 8.614, 9.996, 8.371, 8.877, 9.015, 12.204, 8.683, 7.934, 8.301, 7.985, 14.161, 16.316, 22.16, 13.542, 24.528, 11.759, 11.623, 8.014, 9.153, 8.25, 8.541, 8.751, 9.001, 11.107, 22.698, 10.543, 8.553, 7.969, 8.853, 8.454, 8.806, 8.862, 8.309, 8.239, 8.325, 9.138, 8.352, 8.929, 8.279, 9.335, 8.13, 11.09, 11.742, 8.848, 8.483, 8.638, 9.056, 8.24, 8.809, 8.499, 8.962, 8.324, 8.866, 9.104, 8.521, 8.054, 9.175, 10.478, 8.849, 8.171, 8.647, 8.679, 9.023, 9.366, 8.381, 9.587, 9.064, 9.063, 8.013, 8.626, 8.125, 9.156, 8.477, 8.159, 8.377, 8.188, 9.328, 8.497, 8.248, 8.593, 8.239, 9.69, 7.986, 8.847, 8.474, 9.128, 8.933, 17.398, 8.021, 9.837, 8.194],
  "Optimizer iterations": 638,
  "Qubits": 7,
  "Total Algorithm duration [s]": 6.218,
  "Total Classic duration [s]": 5.971244100182201,
  "Total Quantum duration [s]": 0.24675589981779922,
  "Expectation Value": -8.353697776794434,
  "Optimal Expectation Value": -8.5667724609375,
  "Optimizer params": [0.572721291665347, 0.9024662376836341, 0.6785313298949086, 0.7893811807542698, 0.7290897987179834, 0.7523783646661041, 0.7453570247727953, 0.4859115635446754, 0.5718672577314775, 0.4946433329429458, 0.5159360543247906, 0.5004830334417124, 0.48912978583202155, 0.998986163253378, 0.5171392935411186, 0.4997567218696099, 0.44185607487067585, 0.419092180006001, 0.412738913105743, 0.4071913122786259, 0.3531614716417262, 0.5658037544625741, 0.4188135543088138, 0.5091979104522715, 0.48819494275697706, 0.5034594601370111, 0.49584078585657476, 0.48947580827385984],
  "QPU": "7000000",
  "Problem": "IC",
  "Size": 7,
  "P": 0,
  "Shots": 4096
}