{
  "Circuit execution durations [ms]": [1.5762, 1.5722, 1.5614999999999999, 1.5686, 1.5633000000000001, 1.5732000000000002, 1.5388000000000002, 1.5523, 1.5545, 1.5398, 1.5414, 1.5510000000000002, 1.5508, 1.5431, 1.542, 1.5466, 1.5399, 1.5684, 1.5362, 1.6759, 1.9208999999999998, 1.7276, 1.5541, 1.5558, 1.5972, 1.5476999999999999, 1.5456999999999999, 1.5537, 1.538, 1.5492, 1.5529000000000002, 1.5613000000000001, 1.5445, 1.5502999999999998, 1.5806, 1.536, 1.5447, 1.5613000000000001, 1.5404, 1.6454, 1.5445, 1.5448, 1.5464, 1.5501, 1.5517, 1.5495, 1.5484, 1.5238, 1.5655000000000001, 1.553, 1.5558, 1.5299999999999998, 1.5264, 1.6031000000000002, 1.5516, 1.567, 1.5413000000000001, 1.5429, 1.5425, 1.5495, 1.5238, 1.5978999999999999, 1.5387, 1.5595999999999999, 1.5845, 1.5768, 1.5381, 1.5327, 1.5631, 1.5307000000000002, 1.5433999999999999, 1.5392, 1.5439, 1.5526, 1.5729, 1.5562, 1.5301, 1.5756999999999999, 1.55, 1.8642, 1.5334999999999999],
  "Depth": 221.0,
  "Expectation Value": -15.863337516784668,
  "Optimal Expectation Value": -18.0,
  "Optimizer durations [ms]": [17.341, 16.8, 16.641, 16.567, 16.72, 16.898, 16.537, 16.613, 16.754, 16.453, 16.554, 16.534, 16.966, 16.368, 16.537, 16.4, 16.549, 16.758, 16.385, 17.844, 25.6, 18.52, 16.645, 16.651, 17.168, 16.728, 16.375, 16.635, 16.505, 16.522, 16.647, 16.585, 16.614, 16.536, 16.775, 16.4, 16.447, 16.533, 16.295, 17.409, 16.672, 16.65, 16.562, 16.563, 16.692, 16.54, 16.561, 16.154, 16.675, 16.542, 16.564, 16.488, 16.448, 17.228, 16.715, 16.646, 16.525, 16.536, 16.653, 16.696, 16.33, 17.121, 16.455, 16.747, 16.961, 16.973, 16.306, 16.515, 16.729, 16.41, 16.486, 16.576, 16.474, 16.729, 17.004, 16.72, 16.486, 16.905, 16.395, 19.565, 25.97],
  "Optimizer iterations": 81,
  "Optimizer params": [0.8697564224237343, 0.41930260199096536, 0.6892027850061069, 0.9957136963085302, 0.9221420899043353, 0.1842453037329048],
  "P": 3,
  "Problem": "MCP",
  "QJob durations [ms]": [1.5762, 1.5722, 1.5614999999999999, 1.5686, 1.5633000000000001, 1.5732000000000002, 1.5388000000000002, 1.5523, 1.5545, 1.5398, 1.5414, 1.5510000000000002, 1.5508, 1.5431, 1.542, 1.5466, 1.5399, 1.5684, 1.5362, 1.6759, 1.9208999999999998, 1.7276, 1.5541, 1.5558, 1.5972, 1.5476999999999999, 1.5456999999999999, 1.5537, 1.538, 1.5492, 1.5529000000000002, 1.5613000000000001, 1.5445, 1.5502999999999998, 1.5806, 1.536, 1.5447, 1.5613000000000001, 1.5404, 1.6454, 1.5445, 1.5448, 1.5464, 1.5501, 1.5517, 1.5495, 1.5484, 1.5238, 1.5655000000000001, 1.553, 1.5558, 1.5299999999999998, 1.5264, 1.6031000000000002, 1.5516, 1.567, 1.5413000000000001, 1.5429, 1.5425, 1.5495, 1.5238, 1.5978999999999999, 1.5387, 1.5595999999999999, 1.5845, 1.5768, 1.5381, 1.5327, 1.5631, 1.5307000000000002, 1.5433999999999999, 1.5392, 1.5439, 1.5526, 1.5729, 1.5562, 1.5301, 1.5756999999999999, 1.55, 1.8642, 1.5334999999999999],
  "QPU": "7000000",
  "Qubits": 12,
  "Queue durations [ms]": [0.0, 0.0, 0.0, 0.0, 0.0, 0.0, 0.0, 0.0, 0.0, 0.0, 0.0, 0.0, 0.0, 0.0, 0.0, 0.0, 0.0, 0.0, 0.0, 0.0, 0.0, 0.0, 0.0, 0.0, 0.0, 0.0, 0.0, 0.0, 0.0, 0.0, 0.0, 0.0, 0.0, 0.0, 0.0, 0.0, 0.0, 0.0, 0.0, 0.0, 0.0, 0.0, 0.0, 0.0, 0.0, 0.0, 0.0, 0.0, 0.0, 0.0, 0.0, 0.0, 0.0, 0.0, 0.0, 0.0, 0.0, 0.0, 0.0, 0.0, 0.0, 0.0, 0.0, 0.0, 0.0, 0.0, 0.0, 0.0, 0.0, 0.0, 0.0, 0.0, 0.0, 0.0, 0.0, 0.0, 0.0, 0.0, 0.0, 0.0, 0.0],
  "Shots": 4096,
  "Size": 12,
  "Total Algorithm duration [s]": 1.371,
  "Total Classic duration [s]": 1.2442016,
  "Total Quantum duration [s]": 0.12679839999999998
}
