{
  "Circuit execution durations [ms]": [1.5701999999999998, 1.5509, 1.5534, 1.552, 1.5479999999999998, 1.5854000000000001, 1.5475, 1.5482, 1.5656999999999999, 1.5645, 1.5510000000000002, 1.5301, 1.5523, 1.5603, 1.5554, 1.5579999999999998, 1.5734, 1.5421, 1.5591, 1.5484, 1.5617, 1.5526, 1.5614999999999999, 1.5563, 1.5728, 1.537, 1.5579, 1.5705, 1.5534999999999999, 1.5616, 1.5628, 1.5399, 1.5668, 1.5616, 1.5912000000000002, 1.5412, 1.5571000000000002, 1.5410000000000001, 1.5920999999999998, 1.5526, 1.5459, 1.5295, 1.5392, 1.5395, 1.5611, 1.5564, 1.56, 1.5383, 1.5656, 1.5671000000000002, 1.5598, 1.5927, 1.5601, 1.5763, 1.5483, 1.7477, 1.5589, 1.5499, 1.5659, 1.5492, 1.5478, 1.5579999999999998, 1.5786, 1.5518999999999998, 1.5563, 1.5544, 1.5759999999999998, 1.5568, 1.542, 1.5403, 1.5479999999999998, 1.607],
  "Depth": 221.0,
  "Expectation Value": -15.944000244140625,
  "Optimal Expectation Value": -18.0,
  "Optimizer durations [ms]": [16.975, 16.615, 16.572, 16.754, 16.671, 17.017, 16.624, 16.657, 16.591, 16.564, 16.719, 16.35, 16.588, 16.664, 16.596, 17.809, 16.854, 16.334, 16.759, 16.708, 16.837, 16.435, 16.577, 16.522, 16.678, 16.276, 16.73, 16.743, 16.59, 16.735, 16.65, 16.522, 16.878, 16.634, 16.902, 16.451, 16.77, 16.865, 17.174, 16.707, 16.616, 16.478, 16.376, 16.33, 16.826, 16.443, 16.68, 16.497, 16.785, 16.713, 16.473, 16.972, 16.763, 16.689, 26.026, 20.832, 16.727, 16.559, 16.871, 16.545, 16.61, 16.708, 16.785, 16.602, 16.749, 16.706, 16.638, 16.61, 16.526, 16.506, 16.414, 17.095],
  "Optimizer iterations": 72,
  "Optimizer params": [0.6041254769460073, 0.9447465751548025, 0.5899068979237466, 0.9071882353055849, 0.9949720337370213, 0.030874473603021334],
  "P": 3,
  "Problem": "MCP",
  "QJob durations [ms]": [1.5701999999999998, 1.5509, 1.5534, 1.552, 1.5479999999999998, 1.5854000000000001, 1.5475, 1.5482, 1.5656999999999999, 1.5645, 1.5510000000000002, 1.5301, 1.5523, 1.5603, 1.5554, 1.5579999999999998, 1.5734, 1.5421, 1.5591, 1.5484, 1.5617, 1.5526, 1.5614999999999999, 1.5563, 1.5728, 1.537, 1.5579, 1.5705, 1.5534999999999999, 1.5616, 1.5628, 1.5399, 1.5668, 1.5616, 1.5912000000000002, 1.5412, 1.5571000000000002, 1.5410000000000001, 1.5920999999999998, 1.5526, 1.5459, 1.5295, 1.5392, 1.5395, 1.5611, 1.5564, 1.56, 1.5383, 1.5656, 1.5671000000000002, 1.5598, 1.5927, 1.5601, 1.5763, 1.5483, 1.7477, 1.5589, 1.5499, 1.5659, 1.5492, 1.5478, 1.5579999999999998, 1.5786, 1.5518999999999998, 1.5563, 1.5544, 1.5759999999999998, 1.5568, 1.542, 1.5403, 1.5479999999999998, 1.607],
  "QPU": "7000000",
  "Qubits": 12,
  "Queue durations [ms]": [0.0, 0.0, 0.0, 0.0, 0.0, 0.0, 0.0, 0.0, 0.0, 0.0, 0.0, 0.0, 0.0, 0.0, 0.0, 0.0, 0.0, 0.0, 0.0, 0.0, 0.0, 0.0, 0.0, 0.0, 0.0, 0.0, 0.0, 0.0, 0.0, 0.0, 0.0, 0.0, 0.0, 0.0, 0.0, 0.0, 0.0, 0.0, 0.0, 0.0, 0.0, 0.0, 0.0, 0.0, 0.0, 0.0, 0.0, 0.0, 0.0, 0.0, 0.0, 0.0, 0.0, 0.0, 0.0, 0.0, 0.0, 0.0, 0.0, 0.0, 0.0, 0.0, 0.0, 0.0, 0.0, 0.0, 0.0, 0.0, 0.0, 0.0, 0.0, 0.0],
  "Shots": 4096,
  "Size": 12,
  "Total Algorithm duration [s]": 1.214,
  "Total Classic duration [s]": 1.1016639,
  "Total Quantum duration [s]": 0.11233609999999997
}
