{
  "Circuit execution durations [ms]": [1.5698, 1.5479999999999998, 1.5479999999999998, 1.5612, 1.5977999999999999, 1.5231000000000001, 1.5576999999999999, 1.5551, 1.5526, 1.5717999999999999, 1.5489, 1.5505, 1.5563, 1.5682, 1.5513000000000001, 1.5362, 1.5508, 1.5414, 1.5409, 1.5327, 1.6163, 1.547, 1.6462, 1.7019, 1.5556999999999999, 1.5456999999999999, 1.5453999999999999, 1.5524, 1.5565, 1.5610000000000002, 1.5729, 1.5323, 1.5417, 1.556, 1.5605, 1.555, 1.557, 1.5617, 1.5402, 1.6064, 1.5495999999999999, 1.5576999999999999, 1.5545, 1.5436, 1.5646, 1.5456999999999999, 1.5571000000000002, 1.5581, 1.577, 1.5545, 1.5568, 1.5711, 1.5546, 1.5658, 1.5585, 1.5476999999999999, 1.5595999999999999, 1.5453000000000001, 1.5491000000000001, 1.5418, 1.5669, 1.5579, 1.5442, 1.5444, 1.565, 1.5528, 1.5588, 1.5498, 1.5471000000000001, 1.5499, 1.5621999999999998, 1.5514000000000001, 1.5510000000000002, 1.5463, 1.5339, 1.5703, 1.5945, 1.55, 1.5451, 1.5523, 1.5675999999999999, 1.5751000000000002, 1.5578, 1.5412, 1.542, 1.5662, 1.4314, 1.5315, 1.5439, 1.5483, 1.5891, 1.5429, 1.5417, 1.5614, 1.4733, 1.5561, 1.5637999999999999],
  "Depth": 221.0,
  "Expectation Value": -15.581977844238281,
  "Optimal Expectation Value": -18.0,
  "Optimizer durations [ms]": [17.149, 16.705, 16.567, 16.759, 17.174, 16.409, 16.697, 16.493, 16.461, 16.819, 16.617, 16.719, 16.623, 16.852, 16.604, 16.557, 16.651, 16.496, 16.547, 16.419, 17.115, 16.509, 22.575, 22.099, 16.498, 16.571, 16.321, 16.581, 16.559, 16.556, 16.876, 16.246, 16.63, 16.608, 16.668, 16.639, 16.567, 16.748, 16.67, 17.318, 16.569, 16.517, 16.717, 16.505, 16.737, 16.568, 16.728, 16.666, 16.712, 16.719, 16.504, 16.972, 16.577, 16.744, 16.704, 16.714, 16.831, 16.699, 16.655, 16.602, 16.795, 16.736, 16.444, 16.667, 16.605, 16.523, 16.577, 16.713, 16.486, 16.366, 16.703, 16.634, 16.565, 16.544, 16.248, 16.839, 17.103, 16.612, 16.738, 16.413, 16.684, 16.765, 16.79, 16.299, 20.333, 16.918, 15.36, 16.347, 16.592, 16.641, 20.356, 16.372, 16.418, 16.776, 24.36, 16.814, 16.854],
  "Optimizer iterations": 97,
  "Optimizer params": [0.887738066096134, 0.06665238500313042, 0.039186686310682936, 0.41826525774897594, 0.9898036791423108, 0.538762068110699],
  "P": 3,
  "Problem": "MCP",
  "QJob durations [ms]": [1.5698, 1.5479999999999998, 1.5479999999999998, 1.5612, 1.5977999999999999, 1.5231000000000001, 1.5576999999999999, 1.5551, 1.5526, 1.5717999999999999, 1.5489, 1.5505, 1.5563, 1.5682, 1.5513000000000001, 1.5362, 1.5508, 1.5414, 1.5409, 1.5327, 1.6163, 1.547, 1.6462, 1.7019, 1.5556999999999999, 1.5456999999999999, 1.5453999999999999, 1.5524, 1.5565, 1.5610000000000002, 1.5729, 1.5323, 1.5417, 1.556, 1.5605, 1.555, 1.557, 1.5617, 1.5402, 1.6064, 1.5495999999999999, 1.5576999999999999, 1.5545, 1.5436, 1.5646, 1.5456999999999999, 1.5571000000000002, 1.5581, 1.577, 1.5545, 1.5568, 1.5711, 1.5546, 1.5658, 1.5585, 1.5476999999999999, 1.5595999999999999, 1.5453000000000001, 1.5491000000000001, 1.5418, 1.5669, 1.5579, 1.5442, 1.5444, 1.565, 1.5528, 1.5588, 1.5498, 1.5471000000000001, 1.5499, 1.5621999999999998, 1.5514000000000001, 1.5510000000000002, 1.5463, 1.5339, 1.5703, 1.5945, 1.55, 1.5451, 1.5523, 1.5675999999999999, 1.5751000000000002, 1.5578, 1.5412, 1.542, 1.5662, 1.4314, 1.5315, 1.5439, 1.5483, 1.5891, 1.5429, 1.5417, 1.5614, 1.4733, 1.5561, 1.5637999999999999],
  "QPU": "7000000",
  "Qubits": 12,
  "Queue durations [ms]": [0.0, 0.0, 0.0, 0.0, 0.0, 0.0, 0.0, 0.0, 0.0, 0.0, 0.0, 0.0, 0.0, 0.0, 0.0, 0.0, 0.0, 0.0, 0.0, 0.0, 0.0, 0.0, 0.0, 0.0, 0.0, 0.0, 0.0, 0.0, 0.0, 0.0, 0.0, 0.0, 0.0, 0.0, 0.0, 0.0, 0.0, 0.0, 0.0, 0.0, 0.0, 0.0, 0.0, 0.0, 0.0, 0.0, 0.0, 0.0, 0.0, 0.0, 0.0, 0.0, 0.0, 0.0, 0.0, 0.0, 0.0, 0.0, 0.0, 0.0, 0.0, 0.0, 0.0, 0.0, 0.0, 0.0, 0.0, 0.0, 0.0, 0.0, 0.0, 0.0, 0.0, 0.0, 0.0, 0.0, 0.0, 0.0, 0.0, 0.0, 0.0, 0.0, 0.0, 0.0, 0.0, 0.0, 0.0, 0.0, 0.0, 0.0, 0.0, 0.0, 0.0, 0.0, 0.0, 0.0, 0.0],
  "Shots": 4096,
  "Size": 12,
  "Total Algorithm duration [s]": 1.64,
  "Total Classic duration [s]": 1.4890861,
  "Total Quantum duration [s]": 0.1509139
}
