{
  "Circuit execution durations [ms]": [1.583, 1.5541, 1.5995, 1.5624, 1.5501, 1.5552000000000001, 1.5431, 1.5512, 1.5478, 1.5484, 1.5674000000000001, 1.552, 1.5499, 1.5509, 1.6599, 1.5614999999999999, 1.5732000000000002, 1.5286, 1.7141000000000002, 1.5466, 1.5583, 1.5724, 1.5399999999999998, 1.55, 1.5510000000000002, 1.5569, 1.5222, 1.5629000000000002, 1.556, 1.5284, 1.5387, 1.5442, 1.5412, 1.5398, 1.5987, 1.5567, 1.5598999999999998, 1.547, 1.5399999999999998, 1.5471000000000001, 1.556, 1.5958, 1.5558, 1.5558, 1.5753, 1.5428, 1.5269000000000001, 1.55, 1.5476, 1.5469, 1.5289, 1.5393, 1.5463, 1.5257999999999998, 1.5372000000000001, 1.5437, 1.5659999999999998, 1.536, 1.545, 1.549, 1.5499, 1.5584, 1.5546, 1.5514000000000001, 1.5832000000000002, 1.5759999999999998, 1.5508, 1.5543, 1.5447, 1.5302, 1.5332, 1.5854000000000001, 1.5412, 1.6224, 1.5469, 1.5513000000000001, 1.5644, 1.5619, 1.5514999999999999, 1.5673, 1.6628999999999998, 1.6303999999999998, 1.5636, 1.5439, 1.4307, 1.6171, 1.5292000000000001, 1.5649, 1.4400000000000002, 1.6196, 1.552, 1.5646, 1.5486],
  "Depth": 221.0,
  "Expectation Value": -16.206029891967773,
  "Optimal Expectation Value": -18.0,
  "Optimizer durations [ms]": [17.113, 16.666, 17.109, 16.719, 16.538, 16.475, 16.426, 16.426, 16.4, 16.502, 16.867, 16.602, 16.727, 16.658, 17.868, 16.696, 16.819, 26.103, 21.279, 16.446, 16.711, 16.777, 16.535, 16.655, 16.5, 16.574, 16.308, 16.799, 16.703, 16.491, 16.318, 16.541, 16.572, 16.583, 17.151, 16.497, 16.577, 16.69, 16.478, 16.668, 16.686, 16.867, 16.546, 16.511, 16.953, 16.343, 16.408, 16.578, 16.602, 16.668, 16.468, 16.273, 16.372, 16.295, 16.466, 16.426, 16.766, 16.62, 16.526, 16.715, 16.591, 16.625, 16.617, 16.666, 16.949, 16.874, 16.75, 16.606, 16.637, 16.455, 16.551, 16.932, 16.342, 17.426, 16.39, 16.556, 16.851, 16.696, 16.694, 20.569, 17.568, 17.423, 19.221, 16.567, 24.11, 17.26, 19.09, 16.759, 25.128, 17.379, 18.522, 16.611, 26.032],
  "Optimizer iterations": 93,
  "Optimizer params": [0.9446877383094909, 0.5898240837344445, 0.7453144280128571, 0.32192200428928874, 0.3322615370334744, 0.019252376647479127],
  "P": 3,
  "Problem": "MCP",
  "QJob durations [ms]": [1.583, 1.5541, 1.5995, 1.5624, 1.5501, 1.5552000000000001, 1.5431, 1.5512, 1.5478, 1.5484, 1.5674000000000001, 1.552, 1.5499, 1.5509, 1.6599, 1.5614999999999999, 1.5732000000000002, 1.5286, 1.7141000000000002, 1.5466, 1.5583, 1.5724, 1.5399999999999998, 1.55, 1.5510000000000002, 1.5569, 1.5222, 1.5629000000000002, 1.556, 1.5284, 1.5387, 1.5442, 1.5412, 1.5398, 1.5987, 1.5567, 1.5598999999999998, 1.547, 1.5399999999999998, 1.5471000000000001, 1.556, 1.5958, 1.5558, 1.5558, 1.5753, 1.5428, 1.5269000000000001, 1.55, 1.5476, 1.5469, 1.5289, 1.5393, 1.5463, 1.5257999999999998, 1.5372000000000001, 1.5437, 1.5659999999999998, 1.536, 1.545, 1.549, 1.5499, 1.5584, 1.5546, 1.5514000000000001, 1.5832000000000002, 1.5759999999999998, 1.5508, 1.5543, 1.5447, 1.5302, 1.5332, 1.5854000000000001, 1.5412, 1.6224, 1.5469, 1.5513000000000001, 1.5644, 1.5619, 1.5514999999999999, 1.5673, 1.6628999999999998, 1.6303999999999998, 1.5636, 1.5439, 1.4307, 1.6171, 1.5292000000000001, 1.5649, 1.4400000000000002, 1.6196, 1.552, 1.5646, 1.5486],
  "QPU": "7000000",
  "Qubits": 12,
  "Queue durations [ms]": [0.0, 0.0, 0.0, 0.0, 0.0, 0.0, 0.0, 0.0, 0.0, 0.0, 0.0, 0.0, 0.0, 0.0, 0.0, 0.0, 0.0, 0.0, 0.0, 0.0, 0.0, 0.0, 0.0, 0.0, 0.0, 0.0, 0.0, 0.0, 0.0, 0.0, 0.0, 0.0, 0.0, 0.0, 0.0, 0.0, 0.0, 0.0, 0.0, 0.0, 0.0, 0.0, 0.0, 0.0, 0.0, 0.0, 0.0, 0.0, 0.0, 0.0, 0.0, 0.0, 0.0, 0.0, 0.0, 0.0, 0.0, 0.0, 0.0, 0.0, 0.0, 0.0, 0.0, 0.0, 0.0, 0.0, 0.0, 0.0, 0.0, 0.0, 0.0, 0.0, 0.0, 0.0, 0.0, 0.0, 0.0, 0.0, 0.0, 0.0, 0.0, 0.0, 0.0, 0.0, 0.0, 0.0, 0.0, 0.0, 0.0, 0.0, 0.0, 0.0, 0.0],
  "Shots": 4096,
  "Size": 12,
  "Total Algorithm duration [s]": 1.601,
  "Total Classic duration [s]": 1.4561731,
  "Total Quantum duration [s]": 0.14482689999999995
}
