{
  "Circuit execution durations [ms]": [1.5675999999999999, 1.553, 1.5463, 1.5545, 1.5465, 1.5967, 1.5478, 1.7814, 1.5569, 1.5397, 1.5383, 1.5608, 1.5482, 1.5365000000000002, 1.5476, 1.5936, 1.5455, 1.5315, 1.5485, 1.5463, 1.5582, 1.5378, 1.5777, 1.6051, 1.5381, 1.5282, 1.536, 1.5497, 1.5488, 1.5343, 1.5521, 1.5231999999999999, 1.5341, 1.5514000000000001, 1.5368000000000002, 1.5444, 1.5494, 1.5357999999999998, 1.5437999999999998, 1.5473999999999999, 1.5459, 1.5389, 1.5485, 1.549, 1.5414999999999999, 1.5344, 1.5545, 1.5322, 1.5207, 1.5329, 1.5349000000000002, 1.5373999999999999, 1.5234999999999999, 1.5345, 1.5623, 1.5597, 1.5388000000000002, 1.5441, 1.5425, 1.5565, 1.5861, 1.5659, 1.5211999999999999, 1.5466, 1.5514000000000001, 1.5693000000000001, 1.557, 1.5541, 1.5468000000000002, 1.6259, 1.6161, 1.7684, 1.5476999999999999, 1.461, 1.6482999999999999, 1.5625, 1.5614999999999999, 1.4443, 1.6286, 1.5693000000000001, 1.5907, 1.5214, 1.735, 1.5357, 1.5791, 1.5509, 1.5372000000000001, 1.5687, 1.5385],
  "Depth": 221.0,
  "Expectation Value": -16.061647415161133,
  "Optimal Expectation Value": -18.0,
  "Optimizer durations [ms]": [16.931, 16.585, 16.535, 16.739, 16.523, 17.055, 22.855, 21.897, 16.483, 16.322, 16.492, 16.648, 16.659, 16.294, 16.363, 17.028, 16.567, 16.235, 16.727, 16.54, 16.528, 16.442, 16.734, 16.973, 16.504, 16.356, 16.581, 16.546, 16.591, 16.599, 16.56, 16.378, 16.521, 16.552, 16.679, 16.375, 16.745, 16.542, 16.482, 16.664, 16.546, 16.444, 16.505, 16.661, 16.419, 16.5, 16.531, 16.441, 16.319, 16.394, 16.284, 16.453, 16.32, 16.432, 16.634, 16.57, 16.255, 16.577, 16.596, 16.504, 17.009, 16.81, 16.382, 16.598, 16.652, 16.864, 16.743, 16.569, 18.085, 17.166, 17.213, 18.858, 16.761, 25.252, 17.394, 19.415, 16.812, 25.116, 17.172, 18.373, 16.905, 22.332, 22.967, 16.248, 17.07, 16.666, 16.505, 16.624, 16.388],
  "Optimizer iterations": 89,
  "Optimizer params": [0.8978378782096912, 0.37384998375166767, 0.15899457407924764, 0.5477350919585241, 0.037590974009413816, 0.9696021179193844],
  "P": 3,
  "Problem": "MCP",
  "QJob durations [ms]": [1.5675999999999999, 1.553, 1.5463, 1.5545, 1.5465, 1.5967, 1.5478, 1.7814, 1.5569, 1.5397, 1.5383, 1.5608, 1.5482, 1.5365000000000002, 1.5476, 1.5936, 1.5455, 1.5315, 1.5485, 1.5463, 1.5582, 1.5378, 1.5777, 1.6051, 1.5381, 1.5282, 1.536, 1.5497, 1.5488, 1.5343, 1.5521, 1.5231999999999999, 1.5341, 1.5514000000000001, 1.5368000000000002, 1.5444, 1.5494, 1.5357999999999998, 1.5437999999999998, 1.5473999999999999, 1.5459, 1.5389, 1.5485, 1.549, 1.5414999999999999, 1.5344, 1.5545, 1.5322, 1.5207, 1.5329, 1.5349000000000002, 1.5373999999999999, 1.5234999999999999, 1.5345, 1.5623, 1.5597, 1.5388000000000002, 1.5441, 1.5425, 1.5565, 1.5861, 1.5659, 1.5211999999999999, 1.5466, 1.5514000000000001, 1.5693000000000001, 1.557, 1.5541, 1.5468000000000002, 1.6259, 1.6161, 1.7684, 1.5476999999999999, 1.461, 1.6482999999999999, 1.5625, 1.5614999999999999, 1.4443, 1.6286, 1.5693000000000001, 1.5907, 1.5214, 1.735, 1.5357, 1.5791, 1.5509, 1.5372000000000001, 1.5687, 1.5385],
  "QPU": "7000000",
  "Qubits": 12,
  "Queue durations [ms]": [0.0, 0.0, 0.0, 0.0, 0.0, 0.0, 0.0, 0.0, 0.0, 0.0, 0.0, 0.0, 0.0, 0.0, 0.0, 0.0, 0.0, 0.0, 0.0, 0.0, 0.0, 0.0, 0.0, 0.0, 0.0, 0.0, 0.0, 0.0, 0.0, 0.0, 0.0, 0.0, 0.0, 0.0, 0.0, 0.0, 0.0, 0.0, 0.0, 0.0, 0.0, 0.0, 0.0, 0.0, 0.0, 0.0, 0.0, 0.0, 0.0, 0.0, 0.0, 0.0, 0.0, 0.0, 0.0, 0.0, 0.0, 0.0, 0.0, 0.0, 0.0, 0.0, 0.0, 0.0, 0.0, 0.0, 0.0, 0.0, 0.0, 0.0, 0.0, 0.0, 0.0, 0.0, 0.0, 0.0, 0.0, 0.0, 0.0, 0.0, 0.0, 0.0, 0.0, 0.0, 0.0, 0.0, 0.0, 0.0, 0.0],
  "Shots": 4096,
  "Size": 12,
  "Total Algorithm duration [s]": 1.527,
  "Total Classic duration [s]": 1.3883585999999999,
  "Total Quantum duration [s]": 0.13864140000000008
}
