{
  "Circuit execution durations [ms]": [1.5625, 1.544, 1.5421, 1.5413000000000001, 1.5339, 1.5754, 1.5518999999999998, 1.5644, 1.5625, 1.5532, 1.5508, 1.5495, 1.5494, 1.5452000000000001, 1.555, 1.553, 1.5476, 1.5524, 1.5410000000000001, 1.5473999999999999, 1.5784, 1.6025, 1.5624, 1.5388000000000002, 1.5501, 1.5614999999999999, 1.5549, 1.5505, 1.5395999999999999, 1.537, 1.5482, 1.5584, 1.547, 1.5544, 1.5306, 1.5467, 1.8186, 1.5186, 1.6621, 1.5767000000000002, 1.5518999999999998, 1.605, 1.5389, 1.5499, 1.5257999999999998, 1.553, 1.6093, 1.5172, 1.5483, 1.5439, 1.5392, 1.568, 1.6708, 1.5482, 1.5553, 1.5554, 1.5422, 1.5839999999999999, 1.5413000000000001, 1.5472000000000001, 1.5447, 1.5304, 1.5892, 1.5428, 1.5463, 1.5498, 1.5330000000000001, 1.57, 1.5444, 1.5356, 1.5542, 1.5414999999999999, 1.5544, 1.5476999999999999, 1.5521, 1.5589, 1.5508, 1.5913, 1.5816000000000001, 1.5617999999999999, 1.5408, 1.5555, 1.5544],
  "Depth": 221.0,
  "Expectation Value": -13.957585334777832,
  "Optimal Expectation Value": -18.0,
  "Optimizer durations [ms]": [16.848, 16.714, 16.577, 16.663, 16.406, 16.774, 16.544, 16.707, 16.634, 16.45, 16.821, 16.564, 16.657, 16.581, 16.629, 16.735, 16.567, 16.527, 16.533, 16.631, 16.703, 17.202, 16.855, 16.609, 16.4, 16.574, 16.598, 16.422, 16.309, 16.264, 16.592, 16.803, 16.33, 16.761, 16.383, 16.591, 19.187, 25.261, 17.989, 16.855, 16.56, 16.939, 16.317, 16.544, 16.35, 16.458, 17.145, 16.343, 16.528, 16.519, 16.686, 16.864, 17.798, 16.404, 16.729, 16.487, 16.642, 18.097, 16.632, 16.628, 16.655, 16.324, 16.778, 16.483, 16.694, 16.592, 16.413, 16.673, 16.503, 16.243, 16.66, 16.595, 16.449, 16.588, 16.463, 16.775, 16.569, 16.946, 16.755, 16.527, 16.59, 16.473, 16.458],
  "Optimizer iterations": 83,
  "Optimizer params": [0.25112752244688114, 0.07602361654223108, 0.5001118198495881, 0.8023799543633864, 0.3107907136495614, 0.05091327531853438],
  "P": 3,
  "Problem": "MCP",
  "QJob durations [ms]": [1.5625, 1.544, 1.5421, 1.5413000000000001, 1.5339, 1.5754, 1.5518999999999998, 1.5644, 1.5625, 1.5532, 1.5508, 1.5495, 1.5494, 1.5452000000000001, 1.555, 1.553, 1.5476, 1.5524, 1.5410000000000001, 1.5473999999999999, 1.5784, 1.6025, 1.5624, 1.5388000000000002, 1.5501, 1.5614999999999999, 1.5549, 1.5505, 1.5395999999999999, 1.537, 1.5482, 1.5584, 1.547, 1.5544, 1.5306, 1.5467, 1.8186, 1.5186, 1.6621, 1.5767000000000002, 1.5518999999999998, 1.605, 1.5389, 1.5499, 1.5257999999999998, 1.553, 1.6093, 1.5172, 1.5483, 1.5439, 1.5392, 1.568, 1.6708, 1.5482, 1.5553, 1.5554, 1.5422, 1.5839999999999999, 1.5413000000000001, 1.5472000000000001, 1.5447, 1.5304, 1.5892, 1.5428, 1.5463, 1.5498, 1.5330000000000001, 1.57, 1.5444, 1.5356, 1.5542, 1.5414999999999999, 1.5544, 1.5476999999999999, 1.5521, 1.5589, 1.5508, 1.5913, 1.5816000000000001, 1.5617999999999999, 1.5408, 1.5555, 1.5544],
  "QPU": "7000000",
  "Qubits": 12,
  "Queue durations [ms]": [0.0, 0.0, 0.0, 0.0, 0.0, 0.0, 0.0, 0.0, 0.0, 0.0, 0.0, 0.0, 0.0, 0.0, 0.0, 0.0, 0.0, 0.0, 0.0, 0.0, 0.0, 0.0, 0.0, 0.0, 0.0, 0.0, 0.0, 0.0, 0.0, 0.0, 0.0, 0.0, 0.0, 0.0, 0.0, 0.0, 0.0, 0.0, 0.0, 0.0, 0.0, 0.0, 0.0, 0.0, 0.0, 0.0, 0.0, 0.0, 0.0, 0.0, 0.0, 0.0, 0.0, 0.0, 0.0, 0.0, 0.0, 0.0, 0.0, 0.0, 0.0, 0.0, 0.0, 0.0, 0.0, 0.0, 0.0, 0.0, 0.0, 0.0, 0.0, 0.0, 0.0, 0.0, 0.0, 0.0, 0.0, 0.0, 0.0, 0.0, 0.0, 0.0, 0.0],
  "Shots": 4096,
  "Size": 12,
  "Total Algorithm duration [s]": 1.393,
  "Total Classic duration [s]": 1.2636145,
  "Total Quantum duration [s]": 0.1293855
}
