{
  "Circuit execution durations [ms]": [1361.1176013946533, 1259.246826171875, 1328.603744506836, 1359.2731952667236, 1307.6236248016357, 1397.5672721862793, 1314.0342235565186, 1363.2652759552002, 1317.845106124878, 1276.442289352417, 1328.169584274292, 1318.7837600708008, 1371.4041709899902, 1444.3600177764893, 1391.9172286987305, 1298.621416091919, 1348.6294746398926, 1269.0987586975098, 1327.4197578430176, 1308.2740306854248, 1312.4361038208008, 1364.9377822875977, 1237.8230094909668, 1370.0597286224365, 1350.008487701416, 1308.1717491149902, 1326.8983364105225, 1368.3912754058838, 1310.62650680542, 1325.4249095916748, 1245.0120449066162, 1328.0272483825684, 1337.3181819915771, 1262.7599239349365, 1363.572597503662, 1354.7265529632568, 1363.948106765747, 1323.9021301269531, 1288.863182067871, 1333.4949016571045, 1353.7559509277344, 1297.5819110870361, 1322.2603797912598, 1230.0305366516113, 1344.7108268737793, 1383.2876682281494, 1225.2013683319092, 1327.5599479675293, 1342.0796394348145, 1292.7253246307373, 1312.605857849121, 1263.8311386108398, 1430.1495552062988, 1315.0403499603271, 1335.7863426208496, 1377.2222995758057, 1376.000165939331, 1372.385025024414, 1315.1311874389648, 1280.7056903839111, 1341.7322635650635, 1307.1978092193604, 1333.211898803711, 1305.8021068572998, 1311.3524913787842, 1381.1261653900146, 1396.5234756469727, 1308.0596923828125, 1294.3956851959229, 1314.3880367279053, 1330.5580615997314, 1294.9204444885254, 1302.2723197937012, 1373.992681503296, 1288.853406906128, 1341.6049480438232, 1317.1842098236084, 1335.5591297149658, 1412.217378616333, 1316.2963390350342, 1297.8565692901611, 1351.975440979004, 1288.0184650421143, 1262.4499797821045, 1313.6646747589111, 1254.561424255371, 1308.4535598754883, 1326.6746997833252],
  "Depth": 82.0,
  "Expectation Value": -0.999755859375,
  "Optimal Expectation Value": -1.0,
  "Optimizer durations [ms]": [4363.937, 4238.717, 4388.111, 4327.727, 4304.57, 4372.772, 4288.391, 4379.781, 4327.37, 4249.345, 4337.775, 4299.294, 4414.604, 4416.88, 4394.596, 4280.531, 4346.381, 4283.798, 4359.39, 4267.955, 4312.894, 4333.536, 4307.256, 4373.763, 4349.414, 4309.391, 4364.923, 4336.178, 4330.666, 4308.287, 4250.593, 4292.479, 4428.112, 4288.822, 4360.903, 4324.827, 4378.55, 4352.427, 4299.625, 4309.88, 4356.039, 4288.581, 4306.828, 4288.633, 4312.81, 4389.995, 4189.914, 4301.962, 4359.756, 4294.401, 4291.988, 4266.18, 4458.58, 4326.704, 4334.151, 4351.268, 4389.796, 4350.797, 4359.732, 4255.579, 4309.979, 4294.729, 4330.807, 4347.149, 4300.985, 4387.324, 4469.872, 4284.65, 4349.538, 4315.974, 4346.369, 4263.715, 4312.0, 4328.045, 4297.976, 4332.066, 4329.905, 4300.58, 4421.035, 4308.432, 4284.757, 4389.897, 4263.582, 4320.641, 4287.822, 4260.783, 4286.857, 4352.967],
  "Optimizer iterations": 88,
  "Optimizer params": [0.36920172878557234, 0.9544405585898574, 0.8362044124586885, 0.9861130364775841, 0.02482082335381288, 0.09631768613355306],
  "P": 3,
  "Problem": "MIS",
  "QJob durations [ms]": [4342.972278594971, 4218.713998794556, 4368.208408355713, 4308.523893356323, 4283.852338790894, 4352.714538574219, 4268.436670303345, 4359.8997592926025, 4307.571887969971, 4229.552984237671, 4317.845344543457, 4279.2205810546875, 4394.301652908325, 4396.888971328735, 4374.593734741211, 4260.404825210571, 4326.420307159424, 4263.36145401001, 4339.295387268066, 4248.330593109131, 4292.842864990234, 4313.760757446289, 4286.879777908325, 4353.5003662109375, 4328.855514526367, 4289.034128189087, 4345.0493812561035, 4316.448926925659, 4310.397148132324, 4288.198471069336, 4230.497121810913, 4271.813631057739, 4364.498853683472, 4268.824577331543, 4339.754104614258, 4304.232358932495, 4358.325719833374, 4288.531303405762, 4279.378890991211, 4289.442300796509, 4335.735559463501, 4268.587827682495, 4286.811828613281, 4268.011808395386, 4292.386531829834, 4370.113134384155, 4169.189929962158, 4281.9037437438965, 4339.685916900635, 4273.859262466431, 4271.910190582275, 4246.0386753082275, 4438.5035037994385, 4306.57434463501, 4314.046382904053, 4331.162452697754, 4369.803428649902, 4330.698490142822, 4339.465856552124, 4234.273910522461, 4289.689302444458, 4274.724006652832, 4310.480356216431, 4326.859951019287, 4280.61318397522, 4367.252588272095, 4449.699640274048, 4264.565467834473, 4329.474687576294, 4295.4723834991455, 4325.02555847168, 4243.49308013916, 4291.927337646484, 4308.334827423096, 4277.9834270477295, 4311.545848846436, 4309.600591659546, 4280.386686325073, 4401.257514953613, 4288.102626800537, 4264.0135288238525, 4369.867324829102, 4243.547439575195, 4256.842851638794, 4267.800569534302, 4240.875005722046, 4267.185926437378, 4332.693576812744],
  "QPU": "6010013",
  "Qubits": 4,
  "Queue durations [ms]": [0.0, 0.0, 0.0, 0.0, 0.0, 0.0, 0.0, 0.0, 0.0, 0.0, 0.0, 0.0, 0.0, 0.0, 0.0, 0.0, 0.0, 0.0, 0.0, 0.0, 0.0, 0.0, 0.0, 0.0, 0.0, 0.0, 0.0, 0.0, 0.0, 0.0, 0.0, 0.0, 0.0, 0.0, 0.0, 0.0, 0.0, 0.0, 0.0, 0.0, 0.0, 0.0, 0.0, 0.0, 0.0, 0.0, 0.0, 0.0, 0.0, 0.0, 0.0, 0.0, 0.0, 0.0, 0.0, 0.0, 0.0, 0.0, 0.0, 0.0, 0.0, 0.0, 0.0, 0.0, 0.0, 0.0, 0.0, 0.0, 0.0, 0.0, 0.0, 0.0, 0.0, 0.0, 0.0, 0.0, 0.0, 0.0, 0.0, 0.0, 0.0, 0.0, 0.0, 0.0, 0.0, 0.0, 0.0, 0.0],
  "Shots": 4096,
  "Size": 3,
  "Total Algorithm duration [s]": 380.806,
  "Total Classic duration [s]": 1.9065461215972732,
  "Total Quantum duration [s]": 378.8994538784027
}
