{
  "Circuit execution durations [ms]": [1334.996223449707, 1313.6858940124512, 1275.6986618041992, 1351.3522148132324, 1289.8156642913818, 1300.7252216339111, 1338.1547927856445, 1310.640573501587, 1359.433889389038, 1330.6424617767334, 1246.1879253387451, 1326.6088962554932, 1378.6373138427734, 1333.777666091919, 1310.2047443389893, 1275.5119800567627, 1355.6458950042725, 1314.6748542785645, 1280.6730270385742, 1325.9692192077637, 1376.5008449554443, 1311.2661838531494, 1364.448070526123, 1232.5818538665771, 1404.6602249145508, 1288.1081104278564, 1274.8637199401855, 1343.4741497039795, 1385.1797580718994, 1451.3821601867676, 1351.5360355377197, 1270.1466083526611, 1302.778720855713, 1326.9619941711426, 1247.1222877502441, 1405.6291580200195, 1214.026927947998, 1312.091588973999, 1333.6811065673828, 1239.4318580627441, 1278.9289951324463, 1307.9407215118408, 1336.5833759307861, 1326.4563083648682, 1270.5841064453125, 1316.0264492034912, 1337.3692035675049, 1292.0191287994385, 1321.5875625610352, 1313.1167888641357, 1360.898494720459, 1378.314733505249, 1280.4832458496094, 1318.2346820831299, 1334.8841667175293, 1254.8551559448242, 1307.8198432922363, 1310.8112812042236, 1321.1605548858643, 1361.483097076416, 1290.095567703247, 1324.0535259246826, 1304.1527271270752, 1260.8184814453125, 1378.8292407989502, 1303.6117553710938, 1340.350866317749, 1357.1772575378418, 1295.638084411621, 1316.192388534546, 1389.4386291503906, 1316.295862197876, 1298.1655597686768, 1269.3042755126953, 1348.8566875457764, 1403.975009918213, 1316.748857498169, 1356.997013092041, 1333.6217403411865, 1319.166660308838, 1354.123830795288, 1313.6019706726074, 1339.397668838501, 1343.9981937408447, 1340.0931358337402, 1382.2283744812012, 1253.044605255127, 1351.3765335083008, 1325.6769180297852, 1272.505521774292, 1279.313564300537, 1336.2829685211182, 1351.0158061981201],
  "Depth": 82.0,
  "Expectation Value": -0.999755859375,
  "Optimal Expectation Value": -1.0,
  "Optimizer durations [ms]": [4297.165, 4325.367, 4248.558, 4409.768, 4329.852, 4320.856, 4312.54, 4341.694, 4307.891, 4372.282, 4229.529, 4350.191, 4359.999, 4372.707, 4335.695, 4308.982, 4324.923, 4327.976, 4249.44, 4410.209, 4381.037, 4311.655, 4353.375, 4267.609, 4395.764, 4285.816, 4270.61, 4366.235, 4360.637, 4483.754, 4347.386, 4300.266, 4272.316, 4366.705, 4263.531, 4419.876, 4183.792, 4331.667, 4298.422, 4309.958, 4230.592, 4278.005, 4304.17, 4338.921, 4278.269, 4345.032, 4310.241, 4319.074, 4328.57, 4308.559, 4406.124, 4384.368, 4295.497, 4279.294, 4360.687, 4272.426, 4299.383, 4306.994, 4357.085, 4356.032, 4358.787, 4303.864, 4303.437, 4282.433, 4369.32, 4343.652, 4343.752, 4384.629, 4282.601, 4311.337, 4449.541, 4301.891, 4312.626, 4252.417, 4385.852, 4387.103, 4323.783, 4339.741, 4343.854, 4296.711, 4362.855, 4301.533, 4342.435, 4328.754, 4356.367, 4432.225, 4271.49, 4334.311, 4356.313, 4275.57, 4410.022, 4371.033, 4304.588],
  "Optimizer iterations": 93,
  "Optimizer params": [0.009472054483480586, 0.7873260329640637, 0.9580029487695064, 0.409063748035566, 0.31922406338754367, 1.0],
  "P": 3,
  "Problem": "MIS",
  "QJob durations [ms]": [4275.602579116821, 4305.376052856445, 4228.639841079712, 4389.981269836426, 4309.910774230957, 4300.482273101807, 4292.458295822144, 4321.343421936035, 4288.09666633606, 4352.299213409424, 4209.171295166016, 4330.079793930054, 4339.7932052612305, 4352.521657943726, 4314.427852630615, 4288.871765136719, 4305.181264877319, 4308.17437171936, 4229.117393493652, 4389.800548553467, 4361.111164093018, 4291.168928146362, 4333.322048187256, 4247.7827072143555, 4375.895261764526, 4265.585660934448, 4250.549793243408, 4345.903396606445, 4340.946912765503, 4464.202880859375, 4327.461719512939, 4279.965877532959, 4251.80196762085, 4346.487522125244, 4200.87742805481, 4399.643898010254, 4163.70415687561, 4311.582803726196, 4278.144836425781, 4246.097087860107, 4210.456609725952, 4258.00895690918, 4284.269571304321, 4318.617820739746, 4257.974624633789, 4324.887752532959, 4289.935827255249, 4299.154281616211, 4308.626174926758, 4286.79347038269, 4385.996341705322, 4364.145517349243, 4274.927377700806, 4259.352922439575, 4340.775012969971, 4252.235174179077, 4278.545379638672, 4286.6010665893555, 4336.421966552734, 4335.946559906006, 4338.798999786377, 4283.454895019531, 4283.379793167114, 4262.198686599731, 4348.475217819214, 4322.508335113525, 4323.4710693359375, 4364.400148391724, 4262.596130371094, 4291.101455688477, 4429.4116497039795, 4281.359910964966, 4292.293310165405, 4232.346534729004, 4365.742444992065, 4367.281675338745, 4302.915334701538, 4319.126844406128, 4323.612689971924, 4276.295900344849, 4342.831611633301, 4281.458377838135, 4322.0343589782715, 4308.579206466675, 4336.392641067505, 4368.43466758728, 4250.434160232544, 4314.187526702881, 4336.07292175293, 4255.54633140564, 4346.555471420288, 4350.594282150269, 4284.303665161133],
  "QPU": "6010013",
  "Qubits": 4,
  "Queue durations [ms]": [0.0, 0.0, 0.0, 0.0, 0.0, 0.0, 0.0, 0.0, 0.0, 0.0, 0.0, 0.0, 0.0, 0.0, 0.0, 0.0, 0.0, 0.0, 0.0, 0.0, 0.0, 0.0, 0.0, 0.0, 0.0, 0.0, 0.0, 0.0, 0.0, 0.0, 0.0, 0.0, 0.0, 0.0, 0.0, 0.0, 0.0, 0.0, 0.0, 0.0, 0.0, 0.0, 0.0, 0.0, 0.0, 0.0, 0.0, 0.0, 0.0, 0.0, 0.0, 0.0, 0.0, 0.0, 0.0, 0.0, 0.0, 0.0, 0.0, 0.0, 0.0, 0.0, 0.0, 0.0, 0.0, 0.0, 0.0, 0.0, 0.0, 0.0, 0.0, 0.0, 0.0, 0.0, 0.0, 0.0, 0.0, 0.0, 0.0, 0.0, 0.0, 0.0, 0.0, 0.0, 0.0, 0.0, 0.0, 0.0, 0.0, 0.0, 0.0, 0.0, 0.0],
  "Shots": 4096,
  "Size": 3,
  "Total Algorithm duration [s]": 402.59,
  "Total Classic duration [s]": 2.0545657539367426,
  "Total Quantum duration [s]": 400.53543424606323
}
