{
  "Depth": 2.0,
  "Expectation Value": -2.7446999549865723,
  "Job durations [ms]": [0.16184999913093634, 0.10900000052060932, 0.11799999992945231, 0.16120000145747326, 0.10420000035082921, 0.17329999900539406, 0.08924999929149635, 0.08829999933368526, 0.10320000001229346, 0.1079500034393277, 0.3089500132773537, 0.09589999899617396, 0.11285000073257834, 0.14134999946691096, 0.1049999991664663, 0.09694999971543439, 0.10710000424296595, 0.11905000064871274, 0.13729999773204327, 0.09934999980032444, 0.17194999963976443, 0.13039999976172112, 0.23379999765893444, 0.09795000005397014, 0.09764999776962213, 0.1801999933377374, 0.10005000149249099, 0.10254999870085157, 0.10884999937843531, 0.09639999916544184, 0.10199999815085903, 0.09670000144978985, 0.10800000018207356, 0.08884999988367781, 0.11445000200183131, 0.09495000267634168, 0.09925000267685391, 0.09779999891179614, 0.10259999908157624, 0.10864999785553664, 0.0941500002227258, 0.1130499986174982, 0.10235000081593171, 0.15484999676118605, 0.10150000161956996, 0.28049999673385173, 0.09554999996908009, 0.09545000284560956, 0.07259999983943999, 0.10909999764407985, 0.30434999644057825, 0.12209999840706587, 0.1304500037804246, 0.09339999814983457, 0.1140000022132881, 0.08969999908003956, 0.1083999995898921, 0.19785000040428713, 0.10784999903989956, 0.11844999608001672, 0.0961500008997973, 0.3161999848089181, 0.08969999908003956, 0.10724999810918234, 0.13970000509289093, 0.09539999882690609, 0.103750000562286, 0.09979999958886765, 0.09914999827742577, 0.17315000150119886, 0.09005000174511224, 0.1020500021695625, 0.0943000013648998, 0.10384999768575653, 0.09644999954616651, 0.10755000039353035, 0.2563500020187348, 0.09750000026542693, 0.09354999929200858, 0.11180000001331791, 0.10269999984302558],
  "Optimal Expectation Value": -2.7446999549865723,
  "Optimizer durations [ms]": [21.503, 14.654, 12.242, 14.087, 15.157, 21.418, 14.662, 17.195, 19.45, 17.675, 18.006, 17.57, 21.652, 18.93, 22.106, 21.901, 13.948, 16.052, 16.041, 15.395, 20.344, 18.162, 20.23, 21.088, 14.881, 16.62, 14.538, 17.993, 17.957, 13.566, 17.987, 18.6, 15.75, 18.312, 20.823, 13.24, 19.407, 21.143, 17.513, 14.783, 18.907, 14.554, 10.127, 18.697, 16.321, 21.548, 16.999, 18.191, 12.508, 17.996, 18.241, 18.286, 17.524, 17.963, 21.874, 22.039, 10.658, 12.956, 14.448, 15.422, 18.128, 19.666, 21.699, 19.805, 20.846, 18.131, 18.9, 19.804, 17.844, 16.463, 19.208, 21.921, 21.746, 18.203, 19.314, 12.344, 17.28, 19.821, 17.295, 18.344, 13.082],
  "Optimizer iterations": 81,
  "Optimizer params": [0.9964222984865884, 0.49508147762804805, 0.9982545310330109, 0.5010916170559346, 0.49817007564461896],
  "P": 0,
  "Problem": "RH",
  "QPU": "7000000",
  "Qubits": 5,
  "Shots": 4096,
  "Size": 5,
  "Total Algorithm duration [s]": 1.427,
  "Total Classic duration [s]": 1.416944850014581,
  "Total Quantum duration [s]": 0.01005514998541912
}
