{
  "Depth": 2.0,
  "Expectation Value": -2.7446999549865723,
  "Job durations [ms]": [0.09935000343830325, 0.1064000025507994, 0.0961500008997973, 0.11224999980186112, 0.09109999882639386, 0.10770000153570436, 0.09085000056074932, 0.0932000002649147, 0.08845000047585927, 0.08990000060293823, 0.09270000009564683, 0.09180000051856041, 0.19890000476152636, 0.08960000195656903, 0.09574999785399996, 0.10594999912427738, 0.10394999844720587, 0.09779999891179614, 0.09789999967324547, 0.17899999875226058, 0.10779999865917489, 0.09569999747327529, 0.11534999794093892, 0.09375000081490725, 0.2096499956678599, 0.10290000136592425, 0.09634999878471717, 0.09789999967324547, 0.10245000157738104, 0.09795000005397014, 0.0975500006461516, 0.09940000018104911, 0.3027500060852617, 0.2056499943137169, 0.10620000102790073, 0.10989999645971693, 0.2692500056582503, 0.18379999528406188, 0.0961500008997973, 0.19794999388977885, 0.10284999734722078, 0.10429999747429974, 0.10349999865866266, 0.11010000162059441, 0.27794999186880887, 0.09194999802275561, 0.08945000081439503, 0.10200000178883784, 0.20510000103968196, 0.24855000810930505, 0.09915000191540457, 0.2574499958427623, 0.094600000011269, 0.26429999343235977, 0.09864999810815789, 0.22750000425730832, 0.09100000170292333, 0.09235000106855296, 0.09345000216853805, 0.2929500078607816, 0.10444999861647375, 0.10130000009667128, 0.08435000199824572, 0.09365000005345792, 0.09839999984251335, 0.2845999915734865, 0.301349995424971, 0.11340000128257088, 0.0932000002649147, 0.09639999916544184, 0.10370000018156134, 0.12430000060703605, 0.14239999654819258, 0.09205000242218375, 0.1653500039537903, 0.09309999950346537, 0.10385000496171415, 0.09395000233780593, 0.10449999899719842, 0.09475000115344301, 0.09354999929200858],
  "Optimal Expectation Value": -2.7446999549865723,
  "Optimizer durations [ms]": [16.78, 15.343, 18.29, 17.931, 15.778, 14.626, 18.564, 16.024, 18.14, 22.182, 17.468, 17.098, 16.819, 20.586, 22.218, 9.441, 20.781, 20.965, 15.663, 17.657, 16.637, 17.159, 17.694, 22.154, 18.921, 14.766, 21.456, 19.011, 19.297, 17.15, 19.026, 19.896, 21.254, 18.226, 14.828, 19.599, 12.119, 13.017, 18.802, 15.468, 17.401, 20.613, 15.242, 12.537, 20.169, 22.292, 14.182, 15.638, 13.513, 18.773, 19.267, 16.147, 21.818, 19.481, 20.656, 19.435, 18.713, 17.738, 19.32, 19.443, 22.132, 14.732, 12.61, 14.136, 21.753, 21.264, 14.209, 19.478, 16.642, 20.085, 17.901, 15.942, 21.572, 22.233, 16.393, 17.59, 18.775, 15.499, 21.509, 17.848, 19.877],
  "Optimizer iterations": 81,
  "Optimizer params": [0.9964222984865884, 0.49508147762804805, 0.9982545310330109, 0.5010916170559346, 0.49817007564461896],
  "P": 0,
  "Problem": "RH",
  "QPU": "7000000",
  "Qubits": 5,
  "Shots": 4096,
  "Size": 5,
  "Total Algorithm duration [s]": 1.453,
  "Total Classic duration [s]": 1.4424531500031008,
  "Total Quantum duration [s]": 0.010546849996899255
}
