{
  "Depth": 2.0,
  "Expectation Value": -2.7446999549865723,
  "Job durations [ms]": [0.0927500004763715, 0.09575000149197876, 0.23540000256616622, 0.08929999967222102, 0.2645999993546866, 0.10534999819356017, 0.2596500053186901, 0.09729999874252826, 0.09999999747378752, 0.1127499963331502, 0.109350003185682, 0.09365000005345792, 0.09040000077220611, 0.10214999929303303, 0.09030000001075678, 0.10060000204248354, 0.15239999993355013, 0.10694999946281314, 0.0995499976852443, 0.2211499959230423, 0.1045500030159019, 0.09975000284612179, 0.09480000153416768, 0.09700000009615906, 0.11100000119768083, 0.27600000612437725, 0.1045500030159019, 0.10214999929303303, 0.09425000098417513, 0.10275000022375025, 0.26775000151246786, 0.19150000298395753, 0.16220000179600902, 0.09970000246539712, 0.10354999903938733, 0.1764999979059212, 0.254550002864562, 0.09340000178781338, 0.09900000077323057, 0.08604999675299041, 0.09425000098417513, 0.10695000310079195, 0.09225000030710362, 0.11335000090184622, 0.09299999874201603, 0.10445000225445256, 0.09394999869982712, 0.25734999871929176, 0.10269999984302558, 0.09944999692379497, 0.09805000081541948, 0.2672499977052212, 0.0973999995039776, 0.2662999941094313, 0.08624999827588908, 0.09544999920763075, 0.09929999941959977, 0.10975000259350054, 0.11409999933675863, 0.10710000060498714, 0.2066000051854644, 0.10904999726335518, 0.11980000272160396, 0.11025000276276842, 0.16080000204965472, 0.0978499992925208, 0.1048500016622711, 0.2839500048139598, 0.10290000136592425, 0.26140000409213826, 0.09040000077220611, 0.09130000034929253, 0.10019999899668619, 0.09524999768473208, 0.301349995424971, 0.09655000030761585, 0.09884999963105656, 0.08874999912222847, 0.09705000047688372, 0.10140000085812062, 0.09969999882741831],
  "Optimal Expectation Value": -2.7446999549865723,
  "Optimizer durations [ms]": [18.75, 19.771, 17.971, 17.436, 19.32, 21.644, 19.579, 17.21, 17.07, 16.582, 22.157, 14.44, 20.992, 15.051, 21.883, 18.341, 21.581, 14.314, 18.544, 15.695, 13.986, 17.692, 17.674, 22.175, 14.851, 19.762, 20.624, 17.78, 19.998, 17.062, 21.447, 18.914, 12.417, 21.53, 13.623, 17.47, 21.281, 20.008, 21.74, 18.097, 22.056, 17.498, 22.241, 21.199, 19.764, 19.758, 21.161, 20.993, 15.439, 17.689, 20.194, 20.107, 20.167, 16.251, 17.711, 19.905, 18.486, 13.52, 18.273, 19.724, 14.821, 17.773, 12.07, 18.734, 16.232, 17.935, 18.838, 13.604, 13.95, 18.772, 19.079, 13.54, 11.678, 19.247, 21.564, 21.707, 14.514, 17.68, 19.133, 19.141, 17.651],
  "Optimizer iterations": 81,
  "Optimizer params": [0.9964222984865884, 0.49508147762804805, 0.9982545310330109, 0.5010916170559346, 0.49817007564461896],
  "P": 0,
  "Problem": "RH",
  "QPU": "7000000",
  "Qubits": 5,
  "Shots": 4096,
  "Size": 5,
  "Total Algorithm duration [s]": 1.476,
  "Total Classic duration [s]": 1.465342749970092,
  "Total Quantum duration [s]": 0.010657250029908027
}
