{
  "Depth": 2.0,
  "Expectation Value": -2.7446999549865723,
  "Job durations [ms]": [0.1644000039959792, 0.1336999994236976, 0.10114999895449728, 0.2342000007047318, 0.1048500016622711, 0.09660000068834051, 0.13684999794350006, 0.09399999908055179, 0.23555000734631903, 0.09099999806494452, 0.09550000322633423, 0.09489999865763821, 0.10215000293101184, 0.2539999986765906, 0.10565000411588699, 0.2330999996047467, 0.1188000023830682, 0.08909999814932235, 0.10574999760137871, 0.08275000072899275, 0.10449999899719842, 0.18310000450583175, 0.27469999622553587, 0.10185000064666383, 0.09514999692328274, 0.09380000119563192, 0.27829999817186035, 0.10744999599410221, 0.10264999946230091, 0.09354999929200858, 0.14480000390904024, 0.09349999891128391, 0.09964999844669364, 0.10545000259298831, 0.09439999848837033, 0.10399999882793054, 0.13375000344240107, 0.2773500091279857, 0.10274999658577144, 0.1007999999274034, 0.09764999776962213, 0.21165000362088904, 0.08990000060293823, 0.0975500006461516, 0.08850000085658394, 0.09095000132219866, 0.10849999671336263, 0.2269000033265911, 0.09140000111074187, 0.256199997238582, 0.18644999363459647, 0.22895000438438728, 0.10109999857377261, 0.20724999922094867, 0.09710000085760839, 0.09760000102687627, 0.0933499977691099, 0.2647500004968606, 0.10699999984353781, 0.09710000085760839, 0.09074999979929999, 0.10554999607848004, 0.24559999292250723, 0.1006500024232082, 0.17895000564749353, 0.09250000221072696, 0.2856999963114504, 0.28884999846923165, 0.09185000089928508, 0.09254999895347282, 0.09720000161905773, 0.10919999840552919, 0.10059999476652592, 0.14379999993252568, 0.10209999891230837, 0.26915000489680097, 0.1548000000184402, 0.10595000276225619, 0.10960000145132653, 0.09384999793837778, 0.09805000081541948],
  "Optimal Expectation Value": -2.7446999549865723,
  "Optimizer durations [ms]": [17.043, 17.643, 19.409, 20.677, 16.967, 19.829, 15.334, 21.9, 14.199, 20.888, 21.06, 22.136, 12.699, 20.502, 16.389, 18.434, 16.371, 18.0, 22.295, 13.478, 15.111, 18.31, 17.387, 18.683, 18.42, 18.235, 21.356, 14.332, 13.841, 21.852, 19.744, 20.558, 20.48, 15.79, 22.318, 15.199, 14.476, 22.362, 20.59, 17.732, 19.272, 21.89, 18.762, 18.26, 18.096, 18.816, 18.775, 20.875, 21.914, 21.179, 14.311, 19.418, 22.286, 17.692, 19.017, 14.316, 17.914, 16.857, 17.696, 17.092, 13.46, 18.292, 16.686, 19.082, 14.548, 22.254, 16.837, 18.604, 14.104, 20.178, 20.43, 16.374, 12.066, 16.431, 17.746, 21.59, 21.652, 13.152, 13.452, 22.323, 14.621],
  "Optimizer iterations": 81,
  "Optimizer params": [0.9964222984865884, 0.49508147762804805, 0.9982545310330109, 0.5010916170559346, 0.49817007564461896],
  "P": 0,
  "Problem": "RH",
  "QPU": "7000000",
  "Qubits": 5,
  "Shots": 4096,
  "Size": 5,
  "Total Algorithm duration [s]": 1.47,
  "Total Classic duration [s]": 1.4588373999892792,
  "Total Quantum duration [s]": 0.01116260001072078
}
