{
  "Depth": 515.0,
  "Expectation Value": -2.33203125,
  "Job durations [ms]": [118.237, 117.99600000000001, 118.89800000000001, 118.946, 118.785, 118.908, 119.306, 118.99, 120.989, 119.355, 118.69, 119.495, 195.636, 118.282, 118.45100000000001, 119.375, 118.23899999999999, 119.525, 119.25, 119.283, 194.727, 118.62, 118.729, 118.437, 118.908, 119.057, 118.82, 120.173, 119.018, 195.271, 118.879, 118.96900000000001, 119.06400000000001, 120.86800000000001, 119.227, 118.912, 119.299, 195.895, 119.155, 118.904, 119.02300000000001, 118.47, 119.206, 118.57600000000001, 119.035, 119.58399999999999, 194.82, 119.32, 118.722, 119.478, 119.507, 119.327, 118.51299999999999, 118.883, 195.53, 119.289, 118.389, 118.82600000000001, 118.408, 119.324, 119.052, 119.393, 118.711, 119.45899999999999, 118.20700000000001, 118.597, 118.70400000000001, 118.912, 119.077, 118.854, 195.36800000000002, 118.706, 119.456, 118.711, 118.823, 119.335, 119.195, 196.167, 118.38600000000001, 118.879, 118.51299999999999, 118.566, 118.854, 119.284, 119.39099999999999, 118.666],
  "Optimal Expectation Value": -3.0,
  "Optimizer durations [ms]": [147.38, 147.319, 149.138, 148.042, 148.093, 225.009, 148.512, 148.277, 150.233, 149.302, 148.032, 148.828, 225.714, 147.333, 148.118, 148.872, 148.692, 149.015, 148.652, 149.454, 225.282, 147.705, 147.565, 148.316, 148.303, 149.097, 148.67, 150.204, 149.199, 224.573, 148.018, 147.983, 148.933, 150.512, 149.173, 148.875, 149.312, 225.434, 148.334, 148.364, 148.505, 147.792, 149.566, 148.754, 149.241, 149.705, 224.966, 148.292, 147.843, 148.866, 149.043, 150.432, 147.796, 149.563, 225.013, 148.246, 147.716, 148.72, 147.85, 148.586, 148.251, 149.577, 148.998, 224.538, 147.302, 147.972, 148.916, 148.21, 149.77, 148.49, 224.928, 147.786, 149.242, 147.894, 148.505, 148.615, 148.627, 227.139, 147.476, 148.443, 148.001, 148.193, 148.218, 149.338, 148.55, 148.493],
  "Optimizer iterations": 86,
  "Optimizer params": [0.2547336568556637, 0.837327405398301, 0.8499885482884186, 0.2719817430313264, 0.40243373840244395, 0.030382461115496317],
  "P": 3,
  "Problem": "MIS",
  "QPU": "9000001",
  "Qubits": 12,
  "Shots": 4096,
  "Size": 9,
  "Total Algorithm duration [s]": 13.545,
  "Total Classic duration [s]": 2.6999360000000046,
  "Total Quantum duration [s]": 10.845063999999995
}
