{
  "Circuit execution durations [ms]": [18.50000023841858, 19.999999552965164, 18.50000023841858, 17.999999225139618, 18.000000156462193, 18.99999938905239, 21.499999798834324, 23.000000044703484, 19.500000402331352, 24.500000290572643, 25.499999523162842, 22.499999962747097, 18.50000023841858, 25.500000454485416, 16.99999999254942, 22.499999962747097, 67.49999849125743, 18.50000023841858, 19.999999552965164, 18.99999938905239, 24.000000208616257, 18.499999307096004, 18.99999938905239, 16.99999999254942, 20.999999716877937, 20.999999716877937, 18.000000156462193, 17.500000074505806, 19.499999471008778, 17.999999225139618, 27.000000700354576, 28.500000946223736, 17.500000074505806, 19.499999471008778, 19.499999471008778, 25.99999960511923, 18.99999938905239, 18.99999938905239, 20.49999963492155, 18.499999307096004, 19.499999471008778, 18.000000156462193, 26.000000536441803, 21.99999988079071, 25.00000037252903, 20.49999963492155, 17.500000074505806, 20.49999963492155, 18.000000156462193, 23.50000012665987, 18.99999938905239, 18.99999938905239, 18.499999307096004, 25.99999960511923, 21.99999988079071, 18.99999938905239, 18.499999307096004, 21.499999798834324, 25.499999523162842, 16.99999999254942, 18.499999307096004, 21.5000007301569, 18.50000023841858, 18.99999938905239, 20.999999716877937, 18.499999307096004, 19.499999471008778, 27.000000700354576, 18.50000023841858, 22.499999962747097, 31.999999657273293, 24.500000290572643, 17.999999225139618, 19.999999552965164, 20.49999963492155, 26.499999687075615, 20.999999716877937, 20.49999963492155, 19.499999471008778, 45.500000938773155, 26.000000536441803, 18.000000156462193, 19.499999471008778, 21.99999988079071, 26.499999687075615, 17.500000074505806, 21.499999798834324, 19.000000320374966],
  "Depth": 2.0,
  "Expectation Value": -2.739912509918213,
  "Optimal Expectation Value": -2.7446999549865723,
  "Optimizer durations [ms]": [11992.578, 11936.924, 11773.797, 11906.476, 11985.738, 11775.265, 11819.827, 11763.309, 12049.905, 11873.536, 11725.747, 12031.619, 11898.718, 11745.156, 11766.967, 12008.993, 12014.133, 11737.632, 11864.587, 11794.405, 11918.316, 11742.655, 11944.597, 11965.816, 11886.828, 11750.197, 11775.109, 11800.827, 11770.412, 11986.227, 11983.084, 12012.968, 13034.592, 12068.153, 12276.975, 11857.253, 11967.182, 11823.757, 11827.732, 11815.374, 11791.684, 12076.308, 12593.535, 12167.752, 12066.113, 11773.914, 11802.609, 11754.223, 11968.599, 12013.602, 11780.106, 11963.888, 12024.499, 11815.151, 11785.535, 11939.39, 11839.004, 11800.084, 11701.287, 11896.066, 11856.969, 12108.78, 11793.871, 11922.684, 12601.778, 12154.65, 11589.275, 11828.986, 11902.775, 11765.837, 11783.882, 12414.601, 11778.973, 11803.949, 11872.494, 11805.565, 11642.13, 12312.57, 11771.472, 12114.757, 11723.926, 12508.057, 12157.0, 12170.422, 12058.225, 11976.193, 11993.769, 11786.183],
  "Optimizer iterations": 88,
  "Optimizer params": [0.0073849454438246875, 0.5037523325077913, 0.9804737690700341, 0.5048879358173871, 0.48991867876047057],
  "P": 0,
  "Problem": "RH",
  "QJob durations [ms]": [5925.089120864868, 5924.0217208862305, 5842.6055908203125, 5908.555030822754, 5922.896146774292, 5843.785762786865, 5868.6842918396, 5834.7344398498535, 5952.1777629852295, 5891.891241073608, 5819.078683853149, 5971.485376358032, 5878.714084625244, 5827.334880828857, 5841.665983200073, 5961.399078369141, 5937.404632568359, 5825.8631229400635, 5885.855913162231, 5849.912881851196, 5888.963937759399, 5827.906608581543, 5925.119161605835, 5941.013336181641, 5869.1246509552, 5834.2766761779785, 5845.352411270142, 5855.730772018433, 5813.9238357543945, 5949.004411697388, 5947.8747844696045, 5961.058616638184, 6474.588632583618, 5961.242198944092, 6091.984748840332, 5887.088775634766, 5938.80295753479, 5843.543767929077, 5868.870735168457, 5862.626075744629, 5851.18293762207, 5965.014696121216, 6254.120349884033, 6036.977052688599, 5988.016128540039, 5815.240383148193, 5859.177589416504, 5830.186605453491, 5936.822891235352, 5936.697721481323, 5842.198848724365, 5938.781023025513, 5966.873645782471, 5863.45911026001, 5850.04997253418, 5924.172401428223, 5874.921083450317, 5828.427791595459, 5803.941488265991, 5905.531644821167, 5883.780241012573, 5979.96711730957, 5851.162433624268, 5915.770769119263, 6254.256010055542, 6005.966424942017, 5749.962329864502, 5866.761922836304, 5907.178640365601, 5814.4824504852295, 5846.449375152588, 6164.385795593262, 5843.168020248413, 5832.62300491333, 5889.624834060669, 5856.800317764282, 5778.914213180542, 6110.836505889893, 5817.415714263916, 6016.02840423584, 5820.3113079071045, 6210.213899612427, 6009.5460414886475, 6041.634082794189, 5985.516548156738, 5947.190999984741, 5922.677040100098, 5847.946643829346],
  "QPU": "10000001",
  "Qubits": 5,
  "Queue durations [ms]": [0.0, 0.0, 0.0, 0.0, 0.0, 0.0, 0.0, 0.0, 0.0, 0.0, 0.0, 0.0, 0.0, 0.0, 0.0, 0.0, 0.0, 0.0, 0.0, 0.0, 0.0, 0.0, 0.0, 0.0, 0.0, 0.0, 0.0, 0.0, 0.0, 0.0, 0.0, 0.0, 0.0, 0.0, 0.0, 0.0, 0.0, 0.0, 0.0, 0.0, 0.0, 0.0, 0.0, 0.0, 0.0, 0.0, 0.0, 0.0, 0.0, 0.0, 0.0, 0.0, 0.0, 0.0, 0.0, 0.0, 0.0, 0.0, 0.0, 0.0, 0.0, 0.0, 0.0, 0.0, 0.0, 0.0, 0.0, 0.0, 0.0, 0.0, 0.0, 0.0, 0.0, 0.0, 0.0, 0.0, 0.0, 0.0, 0.0, 0.0, 0.0, 0.0, 0.0, 0.0, 0.0, 0.0, 0.0, 0.0],
  "Shots": 4096,
  "Size": 5,
  "Total Algorithm duration [s]": 1050.426,
  "Total Classic duration [s]": 529.6823827037811,
  "Total Quantum duration [s]": 520.7436172962189
}
