{
  "Circuit execution durations [ms]": [55.67598342895508, 61.377525329589844, 59.76510047912598, 64.28408622741699, 60.60218811035156, 61.501502990722656, 62.93630599975586, 58.53748321533203, 57.96360969543457, 55.74202537536621, 112.90454864501953, 63.52066993713379, 62.03794479370117, 62.40224838256836, 113.5401725769043, 63.45558166503906, 62.690019607543945, 61.138153076171875, 55.95088005065918, 61.54894828796387, 60.98294258117676, 57.517290115356445, 55.62138557434082, 55.829763412475586, 65.00029563903809, 107.6962947845459, 58.606863021850586, 60.33754348754883, 63.47250938415527, 60.49036979675293, 61.90681457519531, 55.42755126953125, 59.699296951293945, 67.08049774169922, 60.781240463256836, 59.317588806152344, 59.510231018066406, 59.70644950866699, 62.71553039550781, 61.81669235229492, 118.13640594482422, 63.43865394592285, 56.47563934326172, 60.42194366455078, 61.36369705200195, 59.50808525085449, 56.36882781982422, 62.15620040893555, 61.789751052856445, 59.6623420715332, 55.59182167053223, 57.85202980041504, 61.9962215423584, 59.131622314453125, 60.128211975097656, 112.73837089538574, 56.864261627197266, 56.16426467895508, 59.676408767700195, 60.44173240661621, 59.606313705444336, 55.81235885620117, 62.94727325439453, 65.8872127532959, 62.02125549316406, 55.85622787475586, 64.78309631347656, 59.775590896606445, 55.8476448059082, 59.6773624420166, 114.31193351745605, 63.7667179107666, 61.636924743652344, 62.22987174987793, 58.28857421875, 63.065290451049805, 59.49711799621582, 62.32762336730957, 55.63926696777344, 62.105655670166016, 57.21426010131836, 58.30883979797363, 61.32197380065918, 55.963754653930664, 60.95767021179199, 114.38703536987305, 61.23661994934082, 61.905860900878906, 58.90035629272461, 108.45112800598145, 55.449485778808594, 61.965227127075195, 65.05990028381348, 62.07275390625, 64.86964225769043, 61.39063835144043, 62.00551986694336],
  "Depth": 41.0,
  "Expectation Value": -3.4794921875,
  "Optimal Expectation Value": -4.0,
  "Optimizer durations [ms]": [342.215, 352.336, 348.499, 306.769, 346.8, 349.098, 356.706, 303.024, 346.256, 342.466, 356.702, 307.027, 352.149, 356.074, 355.325, 306.625, 354.739, 355.886, 297.319, 347.151, 349.482, 350.17, 296.426, 343.661, 355.321, 351.124, 299.71, 350.353, 357.847, 301.813, 349.664, 346.665, 356.266, 309.791, 347.612, 348.155, 353.197, 302.635, 351.349, 353.338, 359.508, 305.684, 347.269, 354.718, 303.351, 344.398, 347.731, 359.075, 305.349, 346.316, 345.675, 353.632, 304.344, 345.848, 351.254, 350.528, 297.937, 351.787, 352.584, 302.387, 346.716, 346.664, 356.642, 309.736, 348.682, 344.456, 358.73, 301.814, 343.005, 353.855, 357.345, 304.973, 350.559, 354.779, 296.204, 348.648, 350.044, 355.627, 300.813, 343.262, 341.274, 354.49, 304.732, 343.9, 355.975, 356.194, 298.275, 352.311, 350.701, 352.495, 298.975, 353.307, 358.541, 304.234, 351.795, 349.716, 355.328],
  "Optimizer iterations": 97,
  "Optimizer params": [0.8020918930811884, 0.6352798162938703, 0.8729355854179326, 0.1892202599199037, 8.455023232146738e-05, 0.11936832985252974],
  "P": 3,
  "Problem": "MCP",
  "QJob durations [ms]": [96.48752212524414, 102.61368751525879, 96.31943702697754, 105.07059097290039, 101.50957107543945, 101.06110572814941, 155.28321266174316, 98.97112846374512, 98.97518157958984, 91.58182144165039, 153.7799835205078, 104.9199104309082, 102.99301147460938, 103.62029075622559, 154.62327003479004, 104.9191951751709, 103.70850563049316, 101.6082763671875, 96.08316421508789, 101.90200805664063, 101.56989097595215, 148.66971969604492, 95.28160095214844, 97.05543518066406, 105.87906837463379, 148.55432510375977, 98.91271591186523, 100.85940361022949, 105.14950752258301, 100.01516342163086, 103.46651077270508, 97.22638130187988, 100.08692741394043, 108.24728012084961, 101.3648509979248, 99.1828441619873, 151.61633491516113, 100.22950172424316, 103.70635986328125, 103.20758819580078, 158.34784507751465, 104.15792465209961, 98.44303131103516, 103.43647003173828, 101.77898406982422, 100.4495620727539, 98.93321990966797, 107.02133178710938, 103.30772399902344, 100.31294822692871, 96.59481048583984, 151.8099308013916, 102.99038887023926, 99.03073310852051, 102.01597213745117, 149.28603172302246, 96.53568267822266, 103.33585739135742, 100.30293464660645, 100.83866119384766, 102.77843475341797, 96.95672988891602, 104.20608520507813, 108.40654373168945, 102.27251052856445, 96.42505645751953, 157.55295753479004, 99.49970245361328, 95.17312049865723, 99.92170333862305, 155.11369705200195, 103.6384105682373, 101.61519050598145, 103.29365730285645, 94.48909759521484, 103.97458076477051, 99.44272041320801, 103.17635536193848, 95.87502479553223, 97.64337539672852, 93.47009658813477, 98.30904006958008, 102.81538963317871, 96.63128852844238, 101.12500190734863, 154.95634078979492, 97.34439849853516, 103.0724048614502, 99.41911697387695, 150.00271797180176, 95.35837173461914, 103.10912132263184, 106.28819465637207, 102.1730899810791, 105.24964332580566, 102.00166702270508, 154.2055606842041],
  "QPU": "3000013",
  "Qubits": 4,
  "Queue durations [ms]": [0.0, 0.0, 0.0, 0.0, 0.0, 0.0, 0.0, 0.0, 0.0, 0.0, 0.0, 0.0, 0.0, 0.0, 0.0, 0.0, 0.0, 0.0, 0.0, 0.0, 0.0, 0.0, 0.0, 0.0, 0.0, 0.0, 0.0, 0.0, 0.0, 0.0, 0.0, 0.0, 0.0, 0.0, 0.0, 0.0, 0.0, 0.0, 0.0, 0.0, 0.0, 0.0, 0.0, 0.0, 0.0, 0.0, 0.0, 0.0, 0.0, 0.0, 0.0, 0.0, 0.0, 0.0, 0.0, 0.0, 0.0, 0.0, 0.0, 0.0, 0.0, 0.0, 0.0, 0.0, 0.0, 0.0, 0.0, 0.0, 0.0, 0.0, 0.0, 0.0, 0.0, 0.0, 0.0, 0.0, 0.0, 0.0, 0.0, 0.0, 0.0, 0.0, 0.0, 0.0, 0.0, 0.0, 0.0, 0.0, 0.0, 0.0, 0.0, 0.0, 0.0, 0.0, 0.0, 0.0, 0.0],
  "Shots": 4096,
  "Size": 4,
  "Total Algorithm duration [s]": 32.842,
  "Total Classic duration [s]": 22.3297712726593,
  "Total Quantum duration [s]": 10.512228727340698
}
