{
  "Circuit execution durations [ms]": [113.30699920654297, 62.621355056762695, 56.168556213378906, 64.44215774536133, 55.782318115234375, 62.993526458740234, 57.94811248779297, 55.997610092163086, 62.00432777404785, 57.66773223876953, 56.264400482177734, 55.61542510986328, 59.69405174255371, 57.12771415710449, 57.6939582824707, 114.21585083007813, 62.31975555419922, 61.85770034790039, 61.774253845214844, 60.16278266906738, 59.14664268493652, 60.49704551696777, 55.65905570983887, 59.62181091308594, 61.704158782958984, 57.86895751953125, 56.12063407897949, 56.74338340759277, 65.5660629272461, 59.42702293395996, 108.6876392364502, 59.7836971282959, 64.71037864685059, 56.8232536315918, 57.4643611907959, 61.133384704589844, 62.9429817199707, 59.28778648376465, 56.17952346801758, 61.22279167175293, 59.48781967163086, 62.82448768615723, 59.866905212402344, 61.490535736083984, 59.908151626586914, 113.96527290344238, 61.42091751098633, 57.90376663208008, 61.541080474853516, 60.11343002319336, 56.46777153015137, 59.378862380981445, 61.339378356933594, 58.75849723815918, 65.31763076782227, 62.24679946899414, 59.65018272399902, 57.44600296020508, 59.68117713928223, 61.73396110534668, 108.49380493164063, 57.04760551452637, 60.559749603271484, 58.669328689575195, 114.08329010009766, 60.38379669189453, 56.02002143859863, 62.80875205993652, 56.05435371398926, 63.23099136352539, 61.88821792602539, 61.89537048339844, 60.895681381225586, 64.07546997070313, 63.596248626708984, 113.2049560546875, 63.14420700073242, 64.59569931030273, 60.84465980529785, 59.55052375793457, 60.90354919433594, 65.12570381164551, 55.94038963317871, 60.26911735534668, 63.27342987060547, 60.06431579589844, 59.91244316101074, 58.82716178894043],
  "Depth": 41.0,
  "Expectation Value": -3.38720703125,
  "Optimal Expectation Value": -4.0,
  "Optimizer durations [ms]": [355.736, 303.665, 345.067, 357.042, 291.928, 349.932, 346.46, 348.914, 304.616, 344.985, 345.234, 349.735, 296.179, 343.861, 347.824, 355.708, 303.738, 353.271, 350.64, 301.385, 349.121, 349.88, 350.029, 302.61, 347.016, 345.745, 350.828, 300.056, 352.567, 350.278, 345.995, 296.635, 352.463, 349.242, 299.975, 339.597, 352.442, 352.341, 298.859, 347.726, 347.092, 356.702, 301.084, 347.209, 351.953, 356.974, 301.493, 346.999, 356.677, 301.134, 347.035, 349.894, 354.095, 300.957, 348.051, 350.733, 353.669, 300.576, 345.937, 349.962, 350.126, 298.325, 349.937, 351.2, 351.647, 304.702, 346.298, 356.126, 299.144, 350.658, 351.197, 362.062, 307.199, 347.339, 354.889, 355.197, 299.488, 355.405, 352.004, 305.542, 346.682, 356.522, 346.398, 303.777, 344.42, 349.919, 353.626, 296.144],
  "Optimizer iterations": 88,
  "Optimizer params": [0.08093517194960428, 0.15256349105083117, 0.7927393176506441, 0.8824137333073937, 0.6071372369221076, 0.3361848303212675],
  "P": 3,
  "Problem": "MCP",
  "QJob durations [ms]": [153.7799835205078, 103.2407283782959, 96.30751609802246, 104.95686531066895, 91.45665168762207, 104.85482215881348, 97.97525405883789, 97.14913368225098, 103.12676429748535, 98.29306602478027, 97.49913215637207, 148.53906631469727, 94.88344192504883, 97.65195846557617, 97.91111946105957, 153.70559692382813, 102.65398025512695, 102.25868225097656, 97.80573844909668, 100.13604164123535, 100.12269020080566, 100.50821304321289, 97.2144603729248, 100.00944137573242, 102.06842422485352, 98.66881370544434, 149.15800094604492, 97.0454216003418, 104.92992401123047, 99.23911094665527, 144.728422164917, 94.58494186401367, 104.41040992736816, 96.93241119384766, 98.5867977142334, 96.60649299621582, 103.14536094665527, 99.94816780090332, 97.12600708007813, 101.8221378326416, 99.7929573059082, 155.70569038391113, 99.46870803833008, 101.51553153991699, 101.13954544067383, 154.35433387756348, 100.6460189819336, 98.13284873962402, 101.84431076049805, 100.2347469329834, 97.37539291381836, 99.9302864074707, 102.53167152404785, 99.79939460754395, 100.91996192932129, 102.86903381347656, 100.32296180725098, 97.99313545227051, 100.25525093078613, 101.62472724914551, 148.8778591156006, 97.65934944152832, 102.01191902160645, 99.29847717285156, 149.74570274353027, 101.58634185791016, 96.45843505859375, 103.66368293762207, 97.0616340637207, 104.07090187072754, 101.75585746765137, 156.71968460083008, 101.84526443481445, 100.27599334716797, 104.29739952087402, 153.09953689575195, 98.10519218444824, 105.28135299682617, 101.04966163635254, 100.24023056030273, 101.48501396179199, 106.46843910217285, 92.95654296875, 101.14026069641113, 98.53386878967285, 100.55661201477051, 100.83222389221191, 94.76804733276367],
  "QPU": "3000013",
  "Qubits": 4,
  "Queue durations [ms]": [0.0, 0.0, 0.0, 0.0, 0.0, 0.0, 0.0, 0.0, 0.0, 0.0, 0.0, 0.0, 0.0, 0.0, 0.0, 0.0, 0.0, 0.0, 0.0, 0.0, 0.0, 0.0, 0.0, 0.0, 0.0, 0.0, 0.0, 0.0, 0.0, 0.0, 0.0, 0.0, 0.0, 0.0, 0.0, 0.0, 0.0, 0.0, 0.0, 0.0, 0.0, 0.0, 0.0, 0.0, 0.0, 0.0, 0.0, 0.0, 0.0, 0.0, 0.0, 0.0, 0.0, 0.0, 0.0, 0.0, 0.0, 0.0, 0.0, 0.0, 0.0, 0.0, 0.0, 0.0, 0.0, 0.0, 0.0, 0.0, 0.0, 0.0, 0.0, 0.0, 0.0, 0.0, 0.0, 0.0, 0.0, 0.0, 0.0, 0.0, 0.0, 0.0, 0.0, 0.0, 0.0, 0.0, 0.0, 0.0],
  "Shots": 4096,
  "Size": 4,
  "Total Algorithm duration [s]": 29.643,
  "Total Classic duration [s]": 20.275656812667847,
  "Total Quantum duration [s]": 9.367343187332153
}
