{
  "Depth": 149.0,
  "Job durations [ms]": [39.411406, 21.972582, 40.741585, 17.035488, 25.675956000000003, 22.457364000000002, 43.864342, 14.190561, 20.967867000000002, 16.260868000000002, 37.107798, 16.0237, 14.246606, 12.721033000000002, 21.204064000000002, 15.487185, 19.351273000000003, 24.253669000000002, 53.923008, 12.195290000000002, 23.530699000000002, 21.171106, 19.615576000000004, 22.540032, 61.337791, 20.147946, 56.781077, 14.202190000000002, 20.268174, 31.994681000000003, 14.360228000000001, 23.514623, 21.903155, 16.635398000000002, 16.76101, 24.524019000000003, 36.254211, 44.052957000000006, 14.342324, 16.718602000000004, 19.557252000000002, 14.225643000000002, 16.804669, 52.252639, 21.926342, 68.41562100000002, 14.346255000000001, 29.308645000000002, 45.257419, 15.646162000000002, 20.027207, 14.245500000000002, 15.881681000000002, 15.947220000000002, 20.282468, 23.840355, 24.410879, 86.822536, 15.976462, 16.114009000000003, 14.623747000000002, 14.204921, 28.180812000000003, 21.202954000000002, 17.976621, 24.538016000000002, 12.790371, 20.069381, 38.256551, 19.453396, 26.556175, 18.979417, 80.85903800000001, 16.188757000000003, 15.827969000000001, 16.059734000000002, 28.000792, 16.739914000000002, 15.638984000000002, 62.819933000000006, 80.980357, 15.740157000000002, 19.767821, 15.704410000000003, 37.561241, 11.71369, 24.700143, 15.190191, 14.819029, 26.151304, 48.133411, 14.549756, 20.037100000000002, 57.87446, 20.016841, 19.987919, 18.924465, 18.568249],
  "Optimizer durations [ms]": [8865.542, 9167.027, 38107.287, 8964.852, 7981.119, 9259.513, 8364.136, 37812.304, 7717.156, 64726.91, 10457.12, 36640.715, 7669.648, 73590.307, 9215.113, 8935.583, 9687.146, 126742.072, 15797.942, 10936.758, 7586.578, 36475.274, 125415.805, 38979.343, 9100.801, 7462.206, 7560.752, 69419.03, 133278.769, 132157.308, 108659.787, 9201.775, 7876.688, 7359.021, 135961.798, 23983.581, 64921.902, 8014.112, 71724.117, 9302.393, 12282.266, 8333.231, 8051.588, 15314.403, 7204.769, 62600.923, 11337.751, 146211.634, 118220.118, 8689.253, 8845.855, 68937.006, 10029.806, 112738.81, 8672.305, 22435.286, 9828.529, 69006.401, 9697.993, 36699.014, 72139.913, 72342.05, 7239.872, 121599.388, 8483.81, 8732.157, 10854.747, 33606.625, 102651.534, 11355.847, 23431.987, 100986.051, 72736.493, 10797.061, 8037.363, 107197.263, 9239.485, 70874.907, 10268.914, 66313.635, 70560.324, 8118.902, 8624.776, 23193.379, 126388.237, 8537.196, 9097.6, 62239.623, 7804.216, 78783.071, 16758.982, 134151.162, 118697.91, 9838.842, 72325.029, 8824.411, 37128.584, 71217.468],
  "Optimizer iterations": 98,
  "Qubits": 8,
  "Total Algorithm duration [s]": 4081.395,
  "Total Classic duration [s]": 4078.844575565,
  "Total Quantum duration [s]": 2.5504244350000005,
  "Expectation Value": -10.47216796875,
  "Optimal Expectation Value": -12.0,
  "Optimizer params": [0.6421577828601039, 0.9394117612105748, 0.9674568785000847, 0.8806041448309186, 0.6047746769040654, 1.0],
  "QPU": "4010001",
  "Problem": "MCP",
  "Size": 8,
  "P": 3,
  "Shots": 4096
}