{
  "Circuit execution durations [ms]": [27.559399604797363, 27.46105194091797, 27.368903160095215, 64.92424011230469, 27.202725410461426, 27.170419692993164, 27.256369590759277, 27.176737785339355, 27.445077896118164, 27.325868606567383, 27.530550956726074, 27.337312698364258, 27.324438095092773, 27.262091636657715, 27.30870246887207, 27.213692665100098, 27.19736099243164, 27.33933925628662, 63.64703178405762, 27.10282802581787, 27.558088302612305, 27.209162712097168, 27.208685874938965, 27.170419692993164, 27.388334274291992, 27.058005332946777, 27.45997905731201, 27.12225914001465, 27.127981185913086, 27.165770530700684, 27.1226167678833, 27.066469192504883, 27.07803249359131, 27.068138122558594, 27.379631996154785, 27.077794075012207, 27.25684642791748, 27.463436126708984, 27.519702911376953, 27.48429775238037, 27.222752571105957, 27.557373046875, 27.300119400024414, 27.20487117767334, 27.175307273864746, 27.29630470275879, 27.316927909851074, 27.068376541137695, 27.042150497436523, 27.399420738220215, 27.07350254058838, 27.140021324157715, 27.439475059509277, 27.227282524108887, 27.298808097839355, 26.9930362701416, 27.311086654663086, 27.421116828918457, 27.419209480285645, 27.059555053710938, 27.27794647216797, 27.10866928100586, 27.084827423095703, 27.26566791534424, 27.023673057556152, 27.137160301208496, 27.238011360168457, 27.114152908325195, 27.14097499847412, 27.316808700561523, 27.936935424804688, 27.168631553649902, 27.085542678833008, 27.33933925628662, 27.974247932434082, 27.649402618408203, 27.588963508605957, 27.788758277893066, 27.382731437683105, 27.38785743713379, 27.173161506652832, 27.384519577026367, 27.32217311859131, 27.17411518096924, 27.60183811187744, 27.48239040374756, 27.17304229736328, 27.218222618103027, 26.998043060302734, 27.27031707763672, 27.23240852355957, 27.544617652893066, 27.317523956298828, 27.179241180419922, 27.288079261779785, 27.118921279907227, 27.41098403930664, 63.27855587005615, 27.136564254760742, 27.196526527404785, 27.456164360046387, 27.32837200164795, 27.34816074371338, 27.20654010772705, 27.37724781036377, 27.289628982543945, 27.03845500946045, 27.300715446472168, 27.448654174804688, 27.302861213684082, 27.117609977722168, 27.214884757995605, 27.14836597442627, 27.33445167541504, 27.23383903503418, 27.248859405517578, 27.284622192382813, 27.29618549346924, 27.385592460632324, 27.137160301208496, 27.322769165039063, 27.099251747131348, 27.318477630615234, 27.542710304260254, 27.27675437927246, 27.226805686950684, 27.216315269470215, 27.05860137939453, 27.152657508850098, 27.152657508850098, 27.344942092895508, 27.12082862854004, 27.27675437927246, 27.338862419128418, 27.118444442749023, 27.52077579498291, 27.17304229736328, 27.039408683776855, 27.309417724609375, 63.36379051208496, 27.192354202270508, 27.59385108947754, 27.22620964050293, 27.39250659942627, 27.065515518188477, 27.167201042175293, 27.452826499938965, 27.327299118041992, 27.033567428588867, 27.161121368408203, 27.013659477233887, 27.165651321411133, 27.388930320739746, 27.292490005493164, 27.44770050048828, 27.24301815032959, 27.23681926727295, 27.324676513671875, 27.434229850769043, 27.292251586914063, 27.626991271972656, 27.384638786315918, 27.21107006072998, 27.562379837036133, 27.244210243225098, 27.336955070495605, 27.403712272644043, 27.342677116394043, 63.76791000366211, 27.269363403320313, 27.212858200073242, 27.23062038421631, 27.28438377380371, 27.195334434509277, 27.31919288635254, 27.262449264526367, 27.01413631439209, 27.324557304382324, 27.24277973175049, 27.21381187438965, 27.20201015472412, 26.996374130249023, 27.332067489624023, 27.286529541015625, 27.410387992858887, 27.230024337768555, 27.23240852355957, 27.193665504455566, 27.47631072998047, 27.27484703063965, 64.0726089477539, 27.452588081359863, 27.615785598754883, 27.171850204467773, 27.47344970703125, 27.432918548583984, 27.10127830505371, 27.275681495666504, 27.407050132751465, 27.07982063293457, 27.248620986938477, 27.509570121765137, 27.470111846923828, 27.262210845947266, 27.037978172302246, 27.33147144317627, 27.160167694091797, 27.156472206115723, 64.19110298156738, 27.274012565612793, 27.44126319885254, 27.184724807739258, 27.356743812561035, 27.253150939941406, 27.358293533325195, 27.15468406677246, 27.576327323913574, 27.21107006072998, 27.408361434936523, 27.36961841583252, 27.42946147918701, 27.006149291992188, 27.175068855285645, 27.59408950805664, 63.34853172302246, 27.417302131652832, 27.114152908325195, 27.14359760284424, 27.211308479309082, 26.930809020996094, 27.00626850128174, 27.373552322387695, 27.160048484802246, 27.089476585388184, 27.121782302856445, 26.98040008544922, 27.15301513671875, 27.274608612060547, 27.004122734069824, 27.060389518737793, 27.1608829498291, 27.369260787963867, 27.41384506225586, 27.272462844848633, 27.195453643798828, 27.20046043395996, 27.035951614379883, 27.207255363464355, 27.38058567047119, 27.32539176940918, 27.046799659729004, 27.188897132873535, 27.18961238861084, 27.47213840484619, 27.19569206237793, 27.061820030212402, 27.190089225769043, 27.206063270568848, 27.286529541015625, 27.325153350830078, 27.08578109741211, 27.431130409240723, 27.414917945861816, 27.35137939453125, 27.22489833831787, 27.1451473236084, 27.27687358856201, 27.15480327606201, 26.99577808380127, 27.481913566589355, 27.088642120361328, 27.164459228515625, 27.28724479675293, 27.20046043395996, 27.089357376098633, 27.110934257507324, 27.141451835632324, 27.187466621398926, 27.211308479309082, 27.36043930053711, 27.115821838378906, 27.245521545410156, 27.02498435974121, 27.269959449768066, 27.43375301361084, 27.24146842956543, 27.061939239501953, 27.196288108825684, 27.125835418701172, 27.080535888671875, 27.185559272766113, 27.32110023498535, 27.147889137268066, 27.251839637756348, 27.1756649017334, 27.280807495117188, 27.02772617340088, 27.089238166809082, 27.03237533569336, 27.406811714172363, 27.099251747131348, 27.152061462402344, 63.57872486114502, 27.43208408355713, 27.278900146484375, 27.22322940826416, 27.65977382659912, 27.044057846069336, 26.89969539642334, 27.29332447052002, 27.083516120910645, 27.212023735046387, 27.170419692993164, 27.2749662399292, 26.92735195159912, 27.19259262084961, 27.086853981018066, 27.251482009887695, 27.078628540039063, 27.24325656890869, 27.333855628967285, 27.31955051422119, 27.263402938842773, 27.04918384552002, 27.0693302154541, 27.07219123840332, 27.30274200439453, 27.261972427368164, 27.123332023620605, 27.15003490447998, 27.3970365524292, 27.240514755249023, 27.141690254211426, 27.419567108154297, 27.17149257659912, 27.147769927978516, 27.29201316833496, 27.099132537841797, 27.228474617004395, 27.218937873840332, 27.28414535522461, 27.316689491271973, 27.425408363342285, 27.376174926757813, 64.10670280456543, 27.248024940490723, 27.23395824432373, 27.32682228088379, 27.230262756347656, 27.119994163513184, 26.927709579467773, 27.440786361694336, 27.257323265075684, 27.185916900634766, 27.271270751953125, 27.449727058410645, 27.443647384643555, 27.092695236206055, 27.21714973449707, 27.304887771606445, 26.952028274536133, 27.26125717163086, 27.507781982421875, 27.321577072143555, 27.223944664001465, 27.161121368408203, 27.288198471069336, 27.11308002471924, 27.06587314605713, 27.26924419403076, 27.1989107131958, 27.374744415283203, 27.392148971557617, 63.65680694580078, 27.057647705078125, 27.170777320861816, 28.142333030700684, 27.263164520263672, 27.059316635131836, 27.27639675140381, 27.13799476623535, 27.390360832214355, 27.137160301208496, 27.474641799926758, 27.324795722961426, 27.031660079956055, 27.161121368408203, 27.400732040405273, 27.035951614379883, 27.39131450653076, 27.369379997253418, 27.289628982543945, 27.36663818359375, 27.501821517944336, 27.2524356842041, 64.01467323303223, 27.242660522460938, 27.225613594055176, 27.344584465026855, 27.29165554046631, 27.07648277282715, 27.103424072265625, 27.248382568359375, 27.076125144958496, 27.430057525634766, 27.41420269012451, 27.36353874206543, 27.362346649169922, 27.275919914245605, 27.301669120788574, 27.132272720336914, 27.47976779937744, 27.22311019897461, 64.2244815826416, 27.167320251464844, 27.49323844909668, 27.214407920837402, 27.24325656890869, 27.640461921691895, 27.01246738433838, 27.373433113098145, 28.03671360015869, 27.479887008666992, 27.30274200439453, 27.37259864807129, 27.154207229614258, 27.234911918640137, 27.204036712646484, 63.301682472229004, 27.27532386779785, 27.144193649291992, 27.276158332824707, 27.199387550354004, 27.097105979919434, 27.184247970581055, 27.159929275512695, 27.245402336120605, 27.11498737335205, 27.060389518737793, 27.170419692993164, 27.118206024169922, 27.062535285949707, 27.13191509246826, 27.17602252960205, 27.141571044921875, 27.164340019226074, 27.180790901184082, 27.2446870803833, 27.188777923583984, 26.955246925354004, 27.251839637756348, 27.083754539489746, 27.083158493041992, 27.06921100616455, 27.20022201538086, 27.475357055664063, 27.109980583190918, 27.173519134521484, 27.118563652038574, 27.18663215637207, 26.93307399749756, 27.01699733734131, 27.04322338104248, 27.202963829040527, 27.025818824768066, 27.239203453063965, 27.118921279907227, 27.44460105895996, 27.370810508728027, 27.079105377197266, 27.037978172302246, 27.186989784240723, 27.249693870544434, 26.964306831359863, 27.18377113342285, 27.056336402893066, 27.090072631835938, 27.300119400024414, 27.163028717041016, 27.326226234436035, 27.36353874206543, 27.07803249359131, 27.05967426300049, 27.1683931350708, 27.154922485351563, 27.0230770111084, 27.37581729888916, 27.055978775024414, 27.134060859680176, 27.23109722137451, 27.022480964660645, 27.063965797424316, 27.18949317932129, 27.308225631713867, 27.29809284210205, 27.303218841552734, 27.27186679840088, 27.179479598999023, 27.287840843200684, 28.009533882141113, 27.33457088470459, 27.05705165863037, 27.088522911071777, 27.109146118164063, 27.112245559692383, 27.168631553649902, 27.216672897338867, 63.31527233123779, 27.18973159790039, 27.156829833984375, 27.222394943237305, 27.174830436706543, 27.14407444000244, 26.8632173538208, 27.083992958068848],
  "Depth": 18.5,
  "Expectation Value": -7.66015625,
  "Optimal Expectation Value": -9.83795166015625,
  "Optimizer durations [ms]": [64.124, 64.028, 63.913, 139.136, 63.409, 63.296, 63.536, 63.381, 63.99, 63.745, 63.989, 63.781, 63.614, 63.568, 63.659, 63.499, 63.42, 63.748, 136.476, 63.463, 64.09, 63.578, 63.404, 63.375, 64.018, 63.212, 63.92, 63.32, 63.319, 63.404, 63.419, 63.159, 63.445, 63.345, 64.113, 63.36, 63.989, 64.486, 64.268, 64.186, 63.699, 64.102, 63.858, 63.616, 63.545, 63.765, 63.818, 63.265, 63.215, 64.234, 63.551, 63.602, 64.041, 63.598, 63.865, 63.192, 63.812, 63.949, 64.071, 63.307, 63.829, 63.518, 63.391, 63.613, 63.251, 63.487, 63.687, 63.471, 63.468, 63.924, 64.994, 63.78, 63.42, 63.867, 65.463, 64.926, 64.411, 64.84, 63.909, 64.085, 63.642, 64.397, 64.012, 63.414, 64.453, 64.227, 63.53, 63.681, 63.144, 63.751, 63.661, 64.455, 63.792, 63.596, 63.773, 63.487, 64.085, 135.918, 63.519, 63.618, 64.0, 63.632, 63.928, 63.578, 63.861, 63.652, 63.373, 63.717, 64.132, 63.711, 63.398, 63.938, 63.495, 63.827, 63.742, 63.776, 63.745, 63.852, 64.077, 63.483, 63.918, 63.3, 63.853, 64.354, 63.773, 63.599, 63.601, 63.442, 63.589, 63.529, 63.784, 63.461, 63.812, 63.929, 63.364, 64.299, 63.55, 63.163, 63.942, 135.974, 63.669, 64.398, 63.897, 63.911, 63.203, 63.598, 63.935, 63.922, 63.142, 63.454, 63.168, 63.565, 63.957, 63.811, 64.012, 63.646, 63.668, 63.876, 64.092, 63.832, 64.28, 63.936, 63.639, 64.643, 63.811, 63.894, 64.052, 63.753, 136.661, 63.776, 63.52, 63.423, 63.864, 63.702, 63.724, 63.728, 63.245, 63.882, 63.677, 63.614, 63.589, 63.247, 63.818, 63.704, 64.05, 63.623, 63.649, 63.592, 64.145, 63.587, 137.493, 64.129, 64.673, 63.488, 64.109, 63.954, 63.349, 63.622, 64.052, 63.369, 63.545, 64.25, 64.057, 63.786, 63.328, 63.758, 63.465, 63.587, 137.825, 63.833, 64.006, 63.508, 63.767, 63.605, 63.781, 63.44, 64.294, 63.975, 64.134, 63.82, 64.011, 63.195, 63.44, 64.359, 136.041, 64.15, 63.458, 63.439, 63.582, 63.072, 63.315, 63.925, 63.526, 63.311, 63.416, 62.971, 63.448, 63.601, 63.067, 63.391, 63.481, 64.016, 63.781, 63.707, 63.674, 63.586, 63.26, 63.671, 64.497, 63.888, 63.281, 63.452, 63.502, 64.206, 63.6, 63.429, 63.407, 63.543, 63.76, 63.811, 63.348, 64.108, 64.07, 63.87, 63.759, 63.956, 63.96, 63.596, 63.304, 64.065, 63.312, 63.538, 63.709, 63.601, 63.406, 63.42, 63.618, 63.598, 63.619, 63.89, 63.431, 63.624, 63.155, 63.685, 64.056, 63.627, 63.323, 63.503, 63.532, 63.194, 63.586, 63.84, 63.408, 63.593, 63.541, 63.679, 63.571, 63.418, 63.216, 63.975, 63.389, 63.758, 136.359, 64.06, 63.712, 63.418, 64.502, 63.093, 62.917, 63.801, 63.372, 63.615, 63.555, 63.762, 63.118, 63.541, 63.269, 63.682, 63.329, 63.756, 63.82, 63.842, 63.799, 63.342, 63.327, 63.297, 63.807, 63.833, 63.388, 63.599, 64.062, 63.823, 63.452, 64.044, 63.589, 63.558, 63.772, 63.468, 63.523, 63.736, 63.636, 63.715, 64.313, 63.829, 137.587, 63.719, 63.686, 63.824, 63.644, 63.321, 63.082, 63.946, 63.669, 63.486, 63.713, 64.081, 64.014, 63.604, 63.634, 63.773, 62.956, 63.671, 64.062, 63.857, 63.562, 63.556, 63.744, 63.414, 63.38, 63.679, 63.467, 63.917, 64.024, 136.73, 63.334, 63.43, 65.43, 63.628, 63.318, 63.697, 63.494, 63.821, 63.433, 64.11, 63.873, 63.149, 63.333, 64.128, 63.342, 63.999, 63.8, 63.686, 64.115, 64.207, 63.668, 137.427, 63.615, 63.655, 63.862, 63.714, 63.291, 63.402, 63.773, 63.405, 63.99, 64.002, 63.835, 63.808, 63.771, 63.815, 63.347, 64.119, 63.592, 137.855, 63.432, 64.092, 63.759, 63.698, 64.533, 63.259, 63.962, 65.291, 64.106, 63.809, 64.013, 63.461, 63.695, 63.541, 136.09, 63.788, 63.378, 64.009, 63.501, 63.417, 63.416, 63.466, 63.822, 63.424, 63.313, 63.345, 63.374, 63.335, 63.618, 63.528, 63.329, 63.491, 63.557, 63.846, 63.636, 63.043, 63.681, 63.363, 63.251, 63.188, 63.582, 64.017, 63.522, 63.502, 63.479, 63.596, 62.908, 63.178, 63.377, 63.68, 63.117, 63.616, 63.363, 64.018, 64.014, 63.373, 63.161, 63.47, 63.714, 63.102, 63.487, 63.204, 63.338, 63.805, 63.55, 64.312, 63.997, 63.857, 63.316, 63.875, 63.529, 63.252, 64.105, 63.278, 63.519, 63.598, 63.304, 63.288, 63.467, 63.867, 64.202, 64.009, 63.74, 63.61, 63.709, 65.285, 63.911, 63.219, 63.329, 63.501, 63.393, 63.48, 63.624, 135.97, 63.604, 63.512, 63.738, 63.491, 63.519, 62.85, 63.419],
  "Optimizer iterations": 515,
  "Optimizer params": [0.9705223432291307, 0.14935361380148288, 0.16886931010244116, 0.7875172642204387, 0.575300391490438, 0.9625368512015667, 0.4515281857745194, 0.4564641084245948, 0.05930967714614761, 0.8133418185546842, 0.5670309084195908, 0.16084053338642984, 0.8221623842974416, 0.6469356526171226, 0.8194613379271328, 0.18509915882578917, 0.6323176812544798, 0.17018305544096504, 0.03778846077258903, 0.9740718338845004, 0.19463733052409243, 0.8661218126515405, 0.4930218765480331, 0.6617087398394267, 0.46954264199160173, 0.2890576253584675, 0.03520888287912166, 0.9694324337313089, 0.04742140793041813, 0.08575620212705184, 0.6381601511486864, 0.014219952525152907],
  "P": 0,
  "Problem": "IC",
  "QJob durations [ms]": [27.559399604797363, 27.46105194091797, 27.368903160095215, 64.92424011230469, 27.202725410461426, 27.170419692993164, 27.256369590759277, 27.176737785339355, 27.445077896118164, 27.325868606567383, 27.530550956726074, 27.337312698364258, 27.324438095092773, 27.262091636657715, 27.30870246887207, 27.213692665100098, 27.19736099243164, 27.33933925628662, 63.64703178405762, 27.10282802581787, 27.558088302612305, 27.209162712097168, 27.208685874938965, 27.170419692993164, 27.388334274291992, 27.058005332946777, 27.45997905731201, 27.12225914001465, 27.127981185913086, 27.165770530700684, 27.1226167678833, 27.066469192504883, 27.07803249359131, 27.068138122558594, 27.379631996154785, 27.077794075012207, 27.25684642791748, 27.463436126708984, 27.519702911376953, 27.48429775238037, 27.222752571105957, 27.557373046875, 27.300119400024414, 27.20487117767334, 27.175307273864746, 27.29630470275879, 27.316927909851074, 27.068376541137695, 27.042150497436523, 27.399420738220215, 27.07350254058838, 27.140021324157715, 27.439475059509277, 27.227282524108887, 27.298808097839355, 26.9930362701416, 27.311086654663086, 27.421116828918457, 27.419209480285645, 27.059555053710938, 27.27794647216797, 27.10866928100586, 27.084827423095703, 27.26566791534424, 27.023673057556152, 27.137160301208496, 27.238011360168457, 27.114152908325195, 27.14097499847412, 27.316808700561523, 27.936935424804688, 27.168631553649902, 27.085542678833008, 27.33933925628662, 27.974247932434082, 27.649402618408203, 27.588963508605957, 27.788758277893066, 27.382731437683105, 27.38785743713379, 27.173161506652832, 27.384519577026367, 27.32217311859131, 27.17411518096924, 27.60183811187744, 27.48239040374756, 27.17304229736328, 27.218222618103027, 26.998043060302734, 27.27031707763672, 27.23240852355957, 27.544617652893066, 27.317523956298828, 27.179241180419922, 27.288079261779785, 27.118921279907227, 27.41098403930664, 63.27855587005615, 27.136564254760742, 27.196526527404785, 27.456164360046387, 27.32837200164795, 27.34816074371338, 27.20654010772705, 27.37724781036377, 27.289628982543945, 27.03845500946045, 27.300715446472168, 27.448654174804688, 27.302861213684082, 27.117609977722168, 27.214884757995605, 27.14836597442627, 27.33445167541504, 27.23383903503418, 27.248859405517578, 27.284622192382813, 27.29618549346924, 27.385592460632324, 27.137160301208496, 27.322769165039063, 27.099251747131348, 27.318477630615234, 27.542710304260254, 27.27675437927246, 27.226805686950684, 27.216315269470215, 27.05860137939453, 27.152657508850098, 27.152657508850098, 27.344942092895508, 27.12082862854004, 27.27675437927246, 27.338862419128418, 27.118444442749023, 27.52077579498291, 27.17304229736328, 27.039408683776855, 27.309417724609375, 63.36379051208496, 27.192354202270508, 27.59385108947754, 27.22620964050293, 27.39250659942627, 27.065515518188477, 27.167201042175293, 27.452826499938965, 27.327299118041992, 27.033567428588867, 27.161121368408203, 27.013659477233887, 27.165651321411133, 27.388930320739746, 27.292490005493164, 27.44770050048828, 27.24301815032959, 27.23681926727295, 27.324676513671875, 27.434229850769043, 27.292251586914063, 27.626991271972656, 27.384638786315918, 27.21107006072998, 27.562379837036133, 27.244210243225098, 27.336955070495605, 27.403712272644043, 27.342677116394043, 63.76791000366211, 27.269363403320313, 27.212858200073242, 27.23062038421631, 27.28438377380371, 27.195334434509277, 27.31919288635254, 27.262449264526367, 27.01413631439209, 27.324557304382324, 27.24277973175049, 27.21381187438965, 27.20201015472412, 26.996374130249023, 27.332067489624023, 27.286529541015625, 27.410387992858887, 27.230024337768555, 27.23240852355957, 27.193665504455566, 27.47631072998047, 27.27484703063965, 64.0726089477539, 27.452588081359863, 27.615785598754883, 27.171850204467773, 27.47344970703125, 27.432918548583984, 27.10127830505371, 27.275681495666504, 27.407050132751465, 27.07982063293457, 27.248620986938477, 27.509570121765137, 27.470111846923828, 27.262210845947266, 27.037978172302246, 27.33147144317627, 27.160167694091797, 27.156472206115723, 64.19110298156738, 27.274012565612793, 27.44126319885254, 27.184724807739258, 27.356743812561035, 27.253150939941406, 27.358293533325195, 27.15468406677246, 27.576327323913574, 27.21107006072998, 27.408361434936523, 27.36961841583252, 27.42946147918701, 27.006149291992188, 27.175068855285645, 27.59408950805664, 63.34853172302246, 27.417302131652832, 27.114152908325195, 27.14359760284424, 27.211308479309082, 26.930809020996094, 27.00626850128174, 27.373552322387695, 27.160048484802246, 27.089476585388184, 27.121782302856445, 26.98040008544922, 27.15301513671875, 27.274608612060547, 27.004122734069824, 27.060389518737793, 27.1608829498291, 27.369260787963867, 27.41384506225586, 27.272462844848633, 27.195453643798828, 27.20046043395996, 27.035951614379883, 27.207255363464355, 27.38058567047119, 27.32539176940918, 27.046799659729004, 27.188897132873535, 27.18961238861084, 27.47213840484619, 27.19569206237793, 27.061820030212402, 27.190089225769043, 27.206063270568848, 27.286529541015625, 27.325153350830078, 27.08578109741211, 27.431130409240723, 27.414917945861816, 27.35137939453125, 27.22489833831787, 27.1451473236084, 27.27687358856201, 27.15480327606201, 26.99577808380127, 27.481913566589355, 27.088642120361328, 27.164459228515625, 27.28724479675293, 27.20046043395996, 27.089357376098633, 27.110934257507324, 27.141451835632324, 27.187466621398926, 27.211308479309082, 27.36043930053711, 27.115821838378906, 27.245521545410156, 27.02498435974121, 27.269959449768066, 27.43375301361084, 27.24146842956543, 27.061939239501953, 27.196288108825684, 27.125835418701172, 27.080535888671875, 27.185559272766113, 27.32110023498535, 27.147889137268066, 27.251839637756348, 27.1756649017334, 27.280807495117188, 27.02772617340088, 27.089238166809082, 27.03237533569336, 27.406811714172363, 27.099251747131348, 27.152061462402344, 63.57872486114502, 27.43208408355713, 27.278900146484375, 27.22322940826416, 27.65977382659912, 27.044057846069336, 26.89969539642334, 27.29332447052002, 27.083516120910645, 27.212023735046387, 27.170419692993164, 27.2749662399292, 26.92735195159912, 27.19259262084961, 27.086853981018066, 27.251482009887695, 27.078628540039063, 27.24325656890869, 27.333855628967285, 27.31955051422119, 27.263402938842773, 27.04918384552002, 27.0693302154541, 27.07219123840332, 27.30274200439453, 27.261972427368164, 27.123332023620605, 27.15003490447998, 27.3970365524292, 27.240514755249023, 27.141690254211426, 27.419567108154297, 27.17149257659912, 27.147769927978516, 27.29201316833496, 27.099132537841797, 27.228474617004395, 27.218937873840332, 27.28414535522461, 27.316689491271973, 27.425408363342285, 27.376174926757813, 64.10670280456543, 27.248024940490723, 27.23395824432373, 27.32682228088379, 27.230262756347656, 27.119994163513184, 26.927709579467773, 27.440786361694336, 27.257323265075684, 27.185916900634766, 27.271270751953125, 27.449727058410645, 27.443647384643555, 27.092695236206055, 27.21714973449707, 27.304887771606445, 26.952028274536133, 27.26125717163086, 27.507781982421875, 27.321577072143555, 27.223944664001465, 27.161121368408203, 27.288198471069336, 27.11308002471924, 27.06587314605713, 27.26924419403076, 27.1989107131958, 27.374744415283203, 27.392148971557617, 63.65680694580078, 27.057647705078125, 27.170777320861816, 28.142333030700684, 27.263164520263672, 27.059316635131836, 27.27639675140381, 27.13799476623535, 27.390360832214355, 27.137160301208496, 27.474641799926758, 27.324795722961426, 27.031660079956055, 27.161121368408203, 27.400732040405273, 27.035951614379883, 27.39131450653076, 27.369379997253418, 27.289628982543945, 27.36663818359375, 27.501821517944336, 27.2524356842041, 64.01467323303223, 27.242660522460938, 27.225613594055176, 27.344584465026855, 27.29165554046631, 27.07648277282715, 27.103424072265625, 27.248382568359375, 27.076125144958496, 27.430057525634766, 27.41420269012451, 27.36353874206543, 27.362346649169922, 27.275919914245605, 27.301669120788574, 27.132272720336914, 27.47976779937744, 27.22311019897461, 64.2244815826416, 27.167320251464844, 27.49323844909668, 27.214407920837402, 27.24325656890869, 27.640461921691895, 27.01246738433838, 27.373433113098145, 28.03671360015869, 27.479887008666992, 27.30274200439453, 27.37259864807129, 27.154207229614258, 27.234911918640137, 27.204036712646484, 63.301682472229004, 27.27532386779785, 27.144193649291992, 27.276158332824707, 27.199387550354004, 27.097105979919434, 27.184247970581055, 27.159929275512695, 27.245402336120605, 27.11498737335205, 27.060389518737793, 27.170419692993164, 27.118206024169922, 27.062535285949707, 27.13191509246826, 27.17602252960205, 27.141571044921875, 27.164340019226074, 27.180790901184082, 27.2446870803833, 27.188777923583984, 26.955246925354004, 27.251839637756348, 27.083754539489746, 27.083158493041992, 27.06921100616455, 27.20022201538086, 27.475357055664063, 27.109980583190918, 27.173519134521484, 27.118563652038574, 27.18663215637207, 26.93307399749756, 27.01699733734131, 27.04322338104248, 27.202963829040527, 27.025818824768066, 27.239203453063965, 27.118921279907227, 27.44460105895996, 27.370810508728027, 27.079105377197266, 27.037978172302246, 27.186989784240723, 27.249693870544434, 26.964306831359863, 27.18377113342285, 27.056336402893066, 27.090072631835938, 27.300119400024414, 27.163028717041016, 27.326226234436035, 27.36353874206543, 27.07803249359131, 27.05967426300049, 27.1683931350708, 27.154922485351563, 27.0230770111084, 27.37581729888916, 27.055978775024414, 27.134060859680176, 27.23109722137451, 27.022480964660645, 27.063965797424316, 27.18949317932129, 27.308225631713867, 27.29809284210205, 27.303218841552734, 27.27186679840088, 27.179479598999023, 27.287840843200684, 28.009533882141113, 27.33457088470459, 27.05705165863037, 27.088522911071777, 27.109146118164063, 27.112245559692383, 27.168631553649902, 27.216672897338867, 63.31527233123779, 27.18973159790039, 27.156829833984375, 27.222394943237305, 27.174830436706543, 27.14407444000244, 26.8632173538208, 27.083992958068848],
  "QPU": "9000001",
  "Qubits": 8,
  "Queue durations [ms]": [0.0, 0.0, 0.0, 0.0, 0.0, 0.0, 0.0, 0.0, 0.0, 0.0, 0.0, 0.0, 0.0, 0.0, 0.0, 0.0, 0.0, 0.0, 0.0, 0.0, 0.0, 0.0, 0.0, 0.0, 0.0, 0.0, 0.0, 0.0, 0.0, 0.0, 0.0, 0.0, 0.0, 0.0, 0.0, 0.0, 0.0, 0.0, 0.0, 0.0, 0.0, 0.0, 0.0, 0.0, 0.0, 0.0, 0.0, 0.0, 0.0, 0.0, 0.0, 0.0, 0.0, 0.0, 0.0, 0.0, 0.0, 0.0, 0.0, 0.0, 0.0, 0.0, 0.0, 0.0, 0.0, 0.0, 0.0, 0.0, 0.0, 0.0, 0.0, 0.0, 0.0, 0.0, 0.0, 0.0, 0.0, 0.0, 0.0, 0.0, 0.0, 0.0, 0.0, 0.0, 0.0, 0.0, 0.0, 0.0, 0.0, 0.0, 0.0, 0.0, 0.0, 0.0, 0.0, 0.0, 0.0, 0.0, 0.0, 0.0, 0.0, 0.0, 0.0, 0.0, 0.0, 0.0, 0.0, 0.0, 0.0, 0.0, 0.0, 0.0, 0.0, 0.0, 0.0, 0.0, 0.0, 0.0, 0.0, 0.0, 0.0, 0.0, 0.0, 0.0, 0.0, 0.0, 0.0, 0.0, 0.0, 0.0, 0.0, 0.0, 0.0, 0.0, 0.0, 0.0, 0.0, 0.0, 0.0, 0.0, 0.0, 0.0, 0.0, 0.0, 0.0, 0.0, 0.0, 0.0, 0.0, 0.0, 0.0, 0.0, 0.0, 0.0, 0.0, 0.0, 0.0, 0.0, 0.0, 0.0, 0.0, 0.0, 0.0, 0.0, 0.0, 0.0, 0.0, 0.0, 0.0, 0.0, 0.0, 0.0, 0.0, 0.0, 0.0, 0.0, 0.0, 0.0, 0.0, 0.0, 0.0, 0.0, 0.0, 0.0, 0.0, 0.0, 0.0, 0.0, 0.0, 0.0, 0.0, 0.0, 0.0, 0.0, 0.0, 0.0, 0.0, 0.0, 0.0, 0.0, 0.0, 0.0, 0.0, 0.0, 0.0, 0.0, 0.0, 0.0, 0.0, 0.0, 0.0, 0.0, 0.0, 0.0, 0.0, 0.0, 0.0, 0.0, 0.0, 0.0, 0.0, 0.0, 0.0, 0.0, 0.0, 0.0, 0.0, 0.0, 0.0, 0.0, 0.0, 0.0, 0.0, 0.0, 0.0, 0.0, 0.0, 0.0, 0.0, 0.0, 0.0, 0.0, 0.0, 0.0, 0.0, 0.0, 0.0, 0.0, 0.0, 0.0, 0.0, 0.0, 0.0, 0.0, 0.0, 0.0, 0.0, 0.0, 0.0, 0.0, 0.0, 0.0, 0.0, 0.0, 0.0, 0.0, 0.0, 0.0, 0.0, 0.0, 0.0, 0.0, 0.0, 0.0, 0.0, 0.0, 0.0, 0.0, 0.0, 0.0, 0.0, 0.0, 0.0, 0.0, 0.0, 0.0, 0.0, 0.0, 0.0, 0.0, 0.0, 0.0, 0.0, 0.0, 0.0, 0.0, 0.0, 0.0, 0.0, 0.0, 0.0, 0.0, 0.0, 0.0, 0.0, 0.0, 0.0, 0.0, 0.0, 0.0, 0.0, 0.0, 0.0, 0.0, 0.0, 0.0, 0.0, 0.0, 0.0, 0.0, 0.0, 0.0, 0.0, 0.0, 0.0, 0.0, 0.0, 0.0, 0.0, 0.0, 0.0, 0.0, 0.0, 0.0, 0.0, 0.0, 0.0, 0.0, 0.0, 0.0, 0.0, 0.0, 0.0, 0.0, 0.0, 0.0, 0.0, 0.0, 0.0, 0.0, 0.0, 0.0, 0.0, 0.0, 0.0, 0.0, 0.0, 0.0, 0.0, 0.0, 0.0, 0.0, 0.0, 0.0, 0.0, 0.0, 0.0, 0.0, 0.0, 0.0, 0.0, 0.0, 0.0, 0.0, 0.0, 0.0, 0.0, 0.0, 0.0, 0.0, 0.0, 0.0, 0.0, 0.0, 0.0, 0.0, 0.0, 0.0, 0.0, 0.0, 0.0, 0.0, 0.0, 0.0, 0.0, 0.0, 0.0, 0.0, 0.0, 0.0, 0.0, 0.0, 0.0, 0.0, 0.0, 0.0, 0.0, 0.0, 0.0, 0.0, 0.0, 0.0, 0.0, 0.0, 0.0, 0.0, 0.0, 0.0, 0.0, 0.0, 0.0, 0.0, 0.0, 0.0, 0.0, 0.0, 0.0, 0.0, 0.0, 0.0, 0.0, 0.0, 0.0, 0.0, 0.0, 0.0, 0.0, 0.0, 0.0, 0.0, 0.0, 0.0, 0.0, 0.0, 0.0, 0.0, 0.0, 0.0, 0.0, 0.0, 0.0, 0.0, 0.0, 0.0, 0.0, 0.0, 0.0, 0.0, 0.0, 0.0, 0.0, 0.0, 0.0, 0.0, 0.0, 0.0, 0.0, 0.0, 0.0, 0.0, 0.0, 0.0, 0.0, 0.0, 0.0, 0.0, 0.0, 0.0, 0.0, 0.0, 0.0, 0.0, 0.0, 0.0, 0.0, 0.0, 0.0, 0.0, 0.0, 0.0, 0.0, 0.0, 0.0, 0.0, 0.0, 0.0, 0.0, 0.0, 0.0, 0.0, 0.0, 0.0, 0.0, 0.0, 0.0, 0.0, 0.0, 0.0, 0.0, 0.0, 0.0, 0.0, 0.0, 0.0, 0.0],
  "Shots": 4096,
  "Size": 8,
  "Total Algorithm duration [s]": 33.897,
  "Total Classic duration [s]": 19.317175671577452,
  "Total Quantum duration [s]": 14.579824328422546
}
