{
  "Circuit execution durations [ms]": [68.51363182067871, 68.9997673034668, 66.81323051452637, 68.30692291259766, 66.14923477172852, 65.98019599914551, 66.22171401977539, 64.7273063659668, 64.63384628295898, 65.82307815551758, 66.42603874206543, 64.75949287414551, 64.82195854187012, 65.89269638061523, 67.0020580291748, 67.69561767578125, 67.43526458740234, 67.54469871520996, 64.55516815185547, 70.15347480773926, 66.53165817260742, 65.59967994689941, 66.98966026306152, 66.55120849609375, 67.17324256896973, 66.91598892211914, 65.23513793945313, 67.71683692932129, 66.38383865356445, 65.1705265045166, 66.9252872467041, 68.98665428161621, 68.04060935974121, 65.63949584960938, 66.18452072143555, 69.54121589660645, 66.17951393127441, 67.28458404541016, 67.28291511535645, 66.22195243835449, 65.7355785369873, 69.33093070983887, 66.38884544372559, 69.79131698608398, 66.59197807312012, 66.14136695861816, 68.2075023651123, 65.66429138183594, 65.96493721008301, 67.14034080505371, 68.93444061279297, 68.34244728088379, 66.80440902709961, 66.03860855102539, 66.4832592010498, 66.40505790710449, 67.38567352294922, 68.12143325805664, 66.35522842407227, 65.82307815551758, 66.43080711364746, 67.22450256347656, 68.18199157714844, 67.49200820922852, 66.30778312683105, 68.59540939331055, 66.53332710266113, 66.90096855163574, 69.45991516113281, 66.5278434753418, 68.51935386657715, 68.20344924926758, 68.90058517456055, 66.54739379882813, 69.63586807250977, 69.1072940826416, 67.08216667175293, 66.4675235748291, 66.04528427124023, 68.41897964477539, 68.9082145690918, 66.41364097595215, 68.26519966125488, 67.17801094055176, 67.1992301940918, 67.25668907165527, 66.93315505981445, 67.49176979064941, 67.54064559936523, 68.29142570495605],
  "Depth": 113.0,
  "Expectation Value": -6.68115234375,
  "Optimal Expectation Value": -8.0,
  "Optimizer durations [ms]": [344.717, 391.822, 390.642, 403.84, 342.745, 386.353, 390.542, 391.972, 340.349, 384.768, 389.082, 392.604, 340.184, 388.574, 392.703, 398.505, 344.802, 388.16, 388.336, 395.46, 344.314, 387.356, 389.152, 395.375, 346.53, 387.491, 389.416, 395.835, 346.805, 388.686, 392.185, 399.966, 347.643, 389.546, 394.21, 401.06, 344.948, 391.187, 392.26, 396.584, 340.995, 396.242, 390.059, 398.119, 343.703, 387.322, 389.542, 391.659, 343.781, 392.767, 398.626, 396.989, 346.86, 388.637, 389.39, 399.294, 346.269, 391.093, 393.67, 397.678, 347.566, 390.002, 393.4, 398.953, 348.131, 393.299, 395.38, 397.997, 353.767, 392.054, 390.677, 396.087, 350.784, 391.021, 395.472, 404.455, 352.115, 387.542, 393.919, 400.963, 351.341, 388.016, 392.308, 399.551, 344.064, 385.423, 395.354, 395.636, 346.733, 388.402],
  "Optimizer iterations": 90,
  "Optimizer params": [0.9311554581714536, 0.07624762319679748, 0.546105102678687, 0.8522874949725165, 0.49597368431717115, 0.09129744673113485],
  "P": 3,
  "Problem": "MCP",
  "QJob durations [ms]": [153.43976020812988, 155.9896469116211, 152.6181697845459, 209.54179763793945, 150.8309841156006, 150.80738067626953, 151.78442001342773, 199.65481758117676, 149.14846420288086, 149.97148513793945, 152.47225761413574, 201.3685703277588, 148.82898330688477, 152.53615379333496, 154.1576385498047, 204.18763160705566, 153.12647819519043, 153.08380126953125, 149.52564239501953, 204.4661045074463, 152.5442600250244, 150.94566345214844, 153.93400192260742, 203.627347946167, 153.7015438079834, 151.5028476715088, 150.38824081420898, 202.17204093933105, 152.91571617126465, 150.1624584197998, 153.32484245300293, 206.39848709106445, 153.61595153808594, 151.21865272521973, 153.32269668579102, 207.57794380187988, 151.30114555358887, 152.9853343963623, 153.1693935394287, 202.75211334228516, 149.8880386352539, 160.59637069702148, 151.54027938842773, 206.65597915649414, 151.22270584106445, 152.39715576171875, 153.0625820159912, 200.575590133667, 151.72410011291504, 153.31721305847168, 154.67238426208496, 205.0931453704834, 152.59361267089844, 152.36520767211914, 153.08260917663574, 204.79273796081543, 153.855562210083, 153.8410186767578, 153.09476852416992, 203.45520973205566, 153.0930995941162, 155.27749061584473, 155.89547157287598, 203.4931182861328, 153.4719467163086, 155.42006492614746, 151.66616439819336, 204.34331893920898, 158.6153507232666, 152.59075164794922, 154.7243595123291, 205.03783226013184, 156.40664100646973, 153.30767631530762, 155.8830738067627, 209.58805084228516, 156.62336349487305, 151.57842636108398, 152.41169929504395, 205.5811882019043, 157.63592720031738, 150.66194534301758, 152.38380432128906, 205.1255702972412, 152.22835540771484, 151.05104446411133, 153.9328098297119, 203.76825332641602, 154.84070777893066, 152.4817943572998],
  "QPU": "3000013",
  "Qubits": 6,
  "Queue durations [ms]": [0.0, 0.0, 0.0, 0.0, 0.0, 0.0, 0.0, 0.0, 0.0, 0.0, 0.0, 0.0, 0.0, 0.0, 0.0, 0.0, 0.0, 0.0, 0.0, 0.0, 0.0, 0.0, 0.0, 0.0, 0.0, 0.0, 0.0, 0.0, 0.0, 0.0, 0.0, 0.0, 0.0, 0.0, 0.0, 0.0, 0.0, 0.0, 0.0, 0.0, 0.0, 0.0, 0.0, 0.0, 0.0, 0.0, 0.0, 0.0, 0.0, 0.0, 0.0, 0.0, 0.0, 0.0, 0.0, 0.0, 0.0, 0.0, 0.0, 0.0, 0.0, 0.0, 0.0, 0.0, 0.0, 0.0, 0.0, 0.0, 0.0, 0.0, 0.0, 0.0, 0.0, 0.0, 0.0, 0.0, 0.0, 0.0, 0.0, 0.0, 0.0, 0.0, 0.0, 0.0, 0.0, 0.0, 0.0, 0.0, 0.0, 0.0],
  "Shots": 4096,
  "Size": 6,
  "Total Algorithm duration [s]": 34.289,
  "Total Classic duration [s]": 19.38695355796814,
  "Total Quantum duration [s]": 14.90204644203186
}
