{
  "Circuit execution durations [ms]": [0.5698, 0.5425, 0.46940000000000004, 0.49260000000000004, 0.5128, 0.5114, 0.4782, 0.5095, 0.5072, 0.4665, 0.5421, 0.4921, 0.484, 0.4843, 0.4914, 0.5321, 0.48979999999999996, 0.47100000000000003, 0.4763, 0.48040000000000005, 0.4727, 0.47590000000000005, 0.5101, 0.4692, 0.4705, 0.48769999999999997, 0.4705, 0.4969, 0.481, 0.5297000000000001, 0.4709, 0.4795, 0.4803, 0.48910000000000003, 0.4806, 0.47350000000000003, 0.47659999999999997, 0.4753, 0.47419999999999995, 0.4797, 0.48919999999999997, 0.4661, 0.47409999999999997, 0.4858, 0.5321, 0.4806, 0.4847, 0.47409999999999997, 0.48119999999999996, 0.4726, 0.4848, 0.4781, 0.5242, 0.47140000000000004, 0.5725, 0.4794, 0.4859, 0.49169999999999997, 0.467, 0.4885, 0.5339999999999999, 0.4864, 0.4789, 0.4842, 0.47169999999999995, 0.4773, 0.4836, 0.5303, 0.49010000000000004, 0.48569999999999997, 0.4971, 0.49739999999999995, 0.4833],
  "Depth": 59.0,
  "Expectation Value": -1.0,
  "Optimal Expectation Value": -1.0,
  "Optimizer durations [ms]": [6.316, 5.661, 5.49, 5.313, 5.817, 5.438, 5.51, 5.574, 5.664, 5.556, 5.571, 5.85, 5.007, 5.582, 5.225, 6.022, 5.473, 5.206, 5.126, 5.337, 5.316, 5.22, 5.838, 4.978, 5.328, 5.382, 5.371, 5.361, 5.474, 5.749, 5.18, 5.334, 5.302, 5.279, 5.243, 5.205, 5.584, 5.404, 5.453, 5.523, 5.117, 5.338, 5.305, 5.46, 5.652, 5.492, 5.401, 5.086, 5.291, 5.401, 5.164, 5.382, 5.85, 5.19, 6.1, 5.599, 5.245, 5.455, 5.167, 5.222, 6.003, 5.329, 5.147, 5.555, 5.132, 5.182, 5.457, 5.734, 5.388, 5.367, 5.37, 5.431, 5.346],
  "Optimizer iterations": 73,
  "Optimizer params": [0.4886632401890661, 0.385615342880296, 0.3834007155579272, 0.28403984466126364, 0.29367345885154617, 0.4630907315589655],
  "P": 3,
  "Problem": "DSP",
  "QJob durations [ms]": [0.5698, 0.5425, 0.46940000000000004, 0.49260000000000004, 0.5128, 0.5114, 0.4782, 0.5095, 0.5072, 0.4665, 0.5421, 0.4921, 0.484, 0.4843, 0.4914, 0.5321, 0.48979999999999996, 0.47100000000000003, 0.4763, 0.48040000000000005, 0.4727, 0.47590000000000005, 0.5101, 0.4692, 0.4705, 0.48769999999999997, 0.4705, 0.4969, 0.481, 0.5297000000000001, 0.4709, 0.4795, 0.4803, 0.48910000000000003, 0.4806, 0.47350000000000003, 0.47659999999999997, 0.4753, 0.47419999999999995, 0.4797, 0.48919999999999997, 0.4661, 0.47409999999999997, 0.4858, 0.5321, 0.4806, 0.4847, 0.47409999999999997, 0.48119999999999996, 0.4726, 0.4848, 0.4781, 0.5242, 0.47140000000000004, 0.5725, 0.4794, 0.4859, 0.49169999999999997, 0.467, 0.4885, 0.5339999999999999, 0.4864, 0.4789, 0.4842, 0.47169999999999995, 0.4773, 0.4836, 0.5303, 0.49010000000000004, 0.48569999999999997, 0.4971, 0.49739999999999995, 0.4833],
  "QPU": "7000000",
  "Qubits": 4,
  "Queue durations [ms]": [0.0, 0.0, 0.0, 0.0, 0.0, 0.0, 0.0, 0.0, 0.0, 0.0, 0.0, 0.0, 0.0, 0.0, 0.0, 0.0, 0.0, 0.0, 0.0, 0.0, 0.0, 0.0, 0.0, 0.0, 0.0, 0.0, 0.0, 0.0, 0.0, 0.0, 0.0, 0.0, 0.0, 0.0, 0.0, 0.0, 0.0, 0.0, 0.0, 0.0, 0.0, 0.0, 0.0, 0.0, 0.0, 0.0, 0.0, 0.0, 0.0, 0.0, 0.0, 0.0, 0.0, 0.0, 0.0, 0.0, 0.0, 0.0, 0.0, 0.0, 0.0, 0.0, 0.0, 0.0, 0.0, 0.0, 0.0, 0.0, 0.0, 0.0, 0.0, 0.0, 0.0],
  "Shots": 4096,
  "Size": 2,
  "Total Algorithm duration [s]": 0.396,
  "Total Classic duration [s]": 0.3601687,
  "Total Quantum duration [s]": 0.0358313
}
