{
  "Depth": 2.0,
  "Job durations [ms]": [6090.022087097168, 6113.913059234619, 6139.951705932617, 6075.013637542725, 5982.236623764038, 6597.217082977295, 6264.368295669556, 6124.004602432251, 6300.971031188965, 6150.180101394653, 6260.37335395813, 6306.2896728515625, 6149.6522426605225, 6101.428031921387, 6281.825065612793, 6116.173505783081, 6095.826625823975, 6105.985403060913, 6081.634521484375, 6338.769435882568, 6231.565952301025, 6491.8272495269775, 6139.7693157196045, 6302.783489227295, 6199.339389801025, 6124.876976013184, 6059.02361869812, 6169.242382049561, 6205.682277679443, 6257.442951202393, 6322.774887084961, 6257.529258728027, 6391.425132751465, 6122.7593421936035, 6205.710411071777, 6060.324192047119, 6103.567361831665, 6152.99916267395, 6090.781688690186, 6232.171535491943, 6365.272760391235, 6465.291738510132, 6102.314472198486, 6165.596723556519, 6361.379861831665, 6131.92343711853, 6143.117189407349, 6166.186332702637, 6265.564680099487, 6068.569660186768],
  "Optimizer durations [ms]": [59359.706, 50379.774, 89733.715, 59748.466, 60191.981, 2079910.856, 130158.195, 69540.523, 60574.907, 60072.924, 90391.95, 60775.6, 70429.646, 69419.11, 88867.965, 50097.296, 59731.38, 40318.212, 90253.608, 69436.396, 90059.028, 230566.988, 249575.5, 40310.818, 40021.447, 39714.775, 39790.703, 40682.491, 40191.476, 39897.862, 39785.402, 60278.856, 69341.073, 100115.937, 80946.661, 88946.285, 90302.159, 59818.091, 100150.242, 69736.409, 79976.091, 441871.485, 39126.231, 39649.553, 100949.461, 48807.682, 40329.207, 40264.615, 39021.18, 60116.367],
  "Optimizer iterations": 50,
  "Qubits": 4,
  "Total Algorithm duration [s]": 5949.736,
  "Total Classic duration [s]": 5639.703350482941,
  "Total Quantum duration [s]": 310.0326495170593,
  "Expectation Value": -2.132533311843872,
  "Optimal Expectation Value": -2.2741000652313232,
  "Optimizer params": [0.9978887858952625, 0.4987676451740585, 0.9943460944825446, 0.4827382722658396],
  "QPU": "4020017",
  "Problem": "RH",
  "Size": 4,
  "P": 0,
  "Shots": 4096
}