{
  "Depth": 2.0,
  "Job durations [ms]": [6191.606760025024, 6012.63952255249, 6269.826412200928, 6187.866926193237, 6489.84956741333, 6794.746875762939, 6040.700674057007, 6099.496364593506, 6012.564182281494, 6235.458135604858, 6096.013784408569, 6235.620975494385, 6226.548910140991, 6221.966981887817, 6046.627759933472, 6251.427173614502, 6032.493352890015, 6347.408771514893, 6065.090656280518, 5958.5723876953125, 6291.645288467407, 6314.394474029541, 6257.6744556427, 6165.908575057983, 6508.980751037598, 5937.670707702637, 6250.817060470581, 6346.860408782959, 6192.193269729614, 6146.033763885498, 6258.569002151489, 6153.137445449829, 5988.003253936768, 6090.813636779785, 5975.47173500061, 5991.794586181641, 6221.4601039886475, 6482.309818267822, 6606.749534606934, 6303.774356842041, 6073.314666748047, 6084.031105041504, 6170.7282066345215, 6293.072938919067, 6113.940715789795, 6387.901782989502, 6710.714340209961, 6028.528213500977, 6016.623973846436, 6213.323593139648],
  "Optimizer durations [ms]": [2910420.32, 2689394.405, 3352227.256, 25090523.858, 2688791.942, 3000366.085, 4258062.655, 4690510.111, 1449365.288, 3220755.03, 3159251.891, 3091243.313, 3960674.621, 2820401.982, 3199868.145, 2750007.871, 3020544.777, 3250769.073, 2299740.203, 129905.178, 308898.234, 180845.61, 299473.424, 280456.806, 290400.843, 139751.754, 159465.376, 140907.324, 139069.023, 171389.168, 129239.484, 1499938.337, 140457.07, 129357.716, 149663.152, 141909.786, 149209.029, 138859.905, 141098.511, 129208.082, 140693.881, 170815.187, 158393.827, 220474.595, 140726.809, 460383.408, 138794.133, 140458.819, 120094.368, 139768.555],
  "Optimizer iterations": 50,
  "Qubits": 4,
  "Total Algorithm duration [s]": 87723.026,
  "Total Classic duration [s]": 87412.63303206062,
  "Total Quantum duration [s]": 310.39296793937683,
  "Expectation Value": -2.1346216201782227,
  "Optimal Expectation Value": -2.2741000652313232,
  "Optimizer params": [0.9928600231473714, 0.519765590509957, 0.9706855814497193, 0.48798242560950267],
  "QPU": "4020017",
  "Problem": "RH",
  "Size": 4,
  "P": 0,
  "Shots": 4096
}