{
  "Depth": 2.0,
  "Job durations [ms]": [11.986795347183943, 18.925623036921024, 14.07923549413681, 9.07756807282567, 10.738716460764408, 15.113957924768329, 11.880964739248157, 11.85971382074058, 10.479205287992954, 9.124091360718012, 9.113293373957276, 10.972662828862667, 8.68687592446804, 8.781976997852325, 8.85314168408513, 9.32288565672934, 11.859455611556768, 11.867511086165905, 10.240229312330484, 9.01270005851984, 13.146445620805025, 14.806060120463371, 10.350654134526849, 10.05656085908413, 13.20124976336956, 7.3582029435783625, 12.984076049178839, 10.371227748692036, 12.192020192742348, 10.566753800958395, 11.779962806031108, 11.902789119631052, 15.918290242552757, 14.526781626045704, 17.97685958445072, 7.237153826281428, 11.771999998018146, 9.229527553543448, 11.717364192008972, 7.342390948906541, 20.017669536173344, 11.637631803750992, 9.336934890598059, 13.015399221330881, 11.480103246867657, 15.00116940587759, 16.062185633927584, 8.80562444217503, 16.027184203267097, 8.715689182281494, 11.593734612688422, 11.946016922593117, 9.16481320746243, 7.6583740301430225, 10.587557218968868, 16.77444390952587, 7.335802540183067, 7.244471460580826, 14.487880747765303, 8.922782726585865, 16.693378798663616, 9.012788534164429, 10.222022421658039, 14.575558248907328],
  "Optimizer durations [ms]": [19792.8, 15216.807, 14568.748, 71364.622, 15764.105, 15195.372, 16415.452, 74751.069, 16751.732, 15279.406, 72659.688, 15610.994, 14731.267, 15361.866, 15126.704, 71232.689, 15713.027, 17300.682, 14499.315, 77717.82, 43345.846, 16090.244, 15636.717, 16651.768, 13076.084, 15051.73, 16942.155, 22355.745, 76882.745, 18723.26, 16210.733, 70859.739, 15086.557, 15236.084, 16307.325, 16338.831, 75680.487, 36702.815, 13015.855, 15955.866, 46750.538, 15254.457, 17597.405, 14697.282, 76253.19, 15325.3, 16986.137, 87051.173, 21934.711, 14702.002, 13999.167, 14625.969, 15261.515, 36220.101, 18173.769, 33904.04, 71320.568, 15215.133, 16478.316, 14883.61, 15506.663, 18019.096, 31134.961, 21691.665],
  "Optimizer iterations": 64,
  "Qubits": 5,
  "Total Algorithm duration [s]": 1814.191,
  "Total Classic duration [s]": 1813.4482678078432,
  "Total Quantum duration [s]": 0.7427321921568364,
  "Expectation Value": -2.7443723678588867,
  "Optimal Expectation Value": -2.7446999549865723,
  "Optimizer params": [0.9996336375089256, 0.4995740665098081, 0.9975759437580931, 0.49746564119244036, 0.5034609265448672],
  "QPU": "4010001",
  "Problem": "RH",
  "Size": 5,
  "P": 0,
  "Shots": 4096
}