{
  "Circuit execution durations [ms]": [107.02204704284668, 39.56174850463867, 39.368391036987305, 40.163278579711914, 39.192914962768555, 38.89107704162598, 38.87009620666504, 38.9866828918457, 39.42704200744629, 39.20936584472656, 39.418697357177734, 39.47782516479492, 40.06075859069824, 39.3979549407959, 38.861751556396484, 40.16733169555664, 39.4597053527832, 39.29948806762695, 39.891958236694336, 39.61348533630371, 102.66375541687012, 39.27350044250488, 39.58487510681152, 39.08133506774902, 39.719343185424805, 38.96212577819824, 38.58160972595215, 39.45302963256836, 39.34144973754883, 38.87677192687988, 39.30211067199707, 39.73555564880371, 39.446353912353516, 39.37244415283203, 39.520263671875, 39.173126220703125, 39.910078048706055, 38.97666931152344, 38.96784782409668, 102.91123390197754, 39.362192153930664, 39.83044624328613, 39.27016258239746, 39.191246032714844, 39.00933265686035, 39.37649726867676, 39.34979438781738, 39.43014144897461, 39.17694091796875, 39.44253921508789, 39.50309753417969, 39.721012115478516, 39.148807525634766, 39.45636749267578, 39.29424285888672, 40.16733169555664, 38.78068923950195, 38.959503173828125, 39.02602195739746, 39.02578353881836, 39.61038589477539, 38.985252380371094, 39.89529609680176, 39.59298133850098, 39.685726165771484, 39.13521766662598, 102.78558731079102, 39.74628448486328, 38.94305229187012, 38.92922401428223, 39.41798210144043, 39.14809226989746, 39.591312408447266, 40.12942314147949, 39.13092613220215, 39.750099182128906, 38.96498680114746, 39.20769691467285, 39.48712348937988, 39.71552848815918, 38.74373435974121, 39.167165756225586, 39.612531661987305, 39.73507881164551, 39.510250091552734, 39.19363021850586, 102.15425491333008, 39.88981246948242],
  "Depth": 149.0,
  "Expectation Value": -8.90625,
  "Optimal Expectation Value": -12.0,
  "Optimizer durations [ms]": [116.891, 49.246, 48.79, 49.715, 48.479, 48.071, 48.291, 48.297, 48.799, 48.566, 48.78, 48.912, 49.44, 48.751, 48.16, 49.515, 48.851, 48.586, 49.455, 49.07, 112.255, 48.916, 48.991, 48.438, 48.981, 48.257, 47.947, 48.833, 48.526, 48.311, 48.738, 49.226, 48.66, 48.814, 48.904, 48.412, 49.328, 48.231, 48.269, 112.394, 49.051, 49.33, 48.648, 48.56, 48.446, 48.777, 48.752, 48.663, 48.527, 48.908, 48.93, 49.172, 48.476, 48.769, 48.676, 49.697, 48.191, 48.45, 48.403, 48.464, 48.994, 48.36, 49.236, 49.039, 49.123, 48.581, 112.125, 49.31, 48.396, 48.286, 48.697, 48.529, 48.847, 49.461, 48.327, 49.052, 48.304, 48.671, 48.956, 49.028, 48.052, 49.197, 49.086, 49.275, 49.028, 48.622, 111.438, 49.271],
  "Optimizer iterations": 88,
  "Optimizer params": [0.6153955708965848, 0.7981932832916344, 0.5589122181117518, 0.4394419584768967, 0.20754324622722506, 0.5244403175090755],
  "P": 3,
  "Problem": "MCP",
  "QJob durations [ms]": [107.02204704284668, 39.56174850463867, 39.368391036987305, 40.163278579711914, 39.192914962768555, 38.89107704162598, 38.87009620666504, 38.9866828918457, 39.42704200744629, 39.20936584472656, 39.418697357177734, 39.47782516479492, 40.06075859069824, 39.3979549407959, 38.861751556396484, 40.16733169555664, 39.4597053527832, 39.29948806762695, 39.891958236694336, 39.61348533630371, 102.66375541687012, 39.27350044250488, 39.58487510681152, 39.08133506774902, 39.719343185424805, 38.96212577819824, 38.58160972595215, 39.45302963256836, 39.34144973754883, 38.87677192687988, 39.30211067199707, 39.73555564880371, 39.446353912353516, 39.37244415283203, 39.520263671875, 39.173126220703125, 39.910078048706055, 38.97666931152344, 38.96784782409668, 102.91123390197754, 39.362192153930664, 39.83044624328613, 39.27016258239746, 39.191246032714844, 39.00933265686035, 39.37649726867676, 39.34979438781738, 39.43014144897461, 39.17694091796875, 39.44253921508789, 39.50309753417969, 39.721012115478516, 39.148807525634766, 39.45636749267578, 39.29424285888672, 40.16733169555664, 38.78068923950195, 38.959503173828125, 39.02602195739746, 39.02578353881836, 39.61038589477539, 38.985252380371094, 39.89529609680176, 39.59298133850098, 39.685726165771484, 39.13521766662598, 102.78558731079102, 39.74628448486328, 38.94305229187012, 38.92922401428223, 39.41798210144043, 39.14809226989746, 39.591312408447266, 40.12942314147949, 39.13092613220215, 39.750099182128906, 38.96498680114746, 39.20769691467285, 39.48712348937988, 39.71552848815918, 38.74373435974121, 39.167165756225586, 39.612531661987305, 39.73507881164551, 39.510250091552734, 39.19363021850586, 102.15425491333008, 39.88981246948242],
  "QPU": "9000001",
  "Qubits": 8,
  "Queue durations [ms]": [0.0, 0.0, 0.0, 0.0, 0.0, 0.0, 0.0, 0.0, 0.0, 0.0, 0.0, 0.0, 0.0, 0.0, 0.0, 0.0, 0.0, 0.0, 0.0, 0.0, 0.0, 0.0, 0.0, 0.0, 0.0, 0.0, 0.0, 0.0, 0.0, 0.0, 0.0, 0.0, 0.0, 0.0, 0.0, 0.0, 0.0, 0.0, 0.0, 0.0, 0.0, 0.0, 0.0, 0.0, 0.0, 0.0, 0.0, 0.0, 0.0, 0.0, 0.0, 0.0, 0.0, 0.0, 0.0, 0.0, 0.0, 0.0, 0.0, 0.0, 0.0, 0.0, 0.0, 0.0, 0.0, 0.0, 0.0, 0.0, 0.0, 0.0, 0.0, 0.0, 0.0, 0.0, 0.0, 0.0, 0.0, 0.0, 0.0, 0.0, 0.0, 0.0, 0.0, 0.0, 0.0, 0.0, 0.0, 0.0],
  "Shots": 4096,
  "Size": 8,
  "Total Algorithm duration [s]": 4.613,
  "Total Classic duration [s]": 0.8274241333007817,
  "Total Quantum duration [s]": 3.7855758666992188
}
