{
  "Circuit execution durations [ms]": [55.69744110107422, 33.33258628845215, 55.312275886535645, 33.687710762023926, 55.46677112579346, 33.6531400680542, 55.780649185180664, 34.006595611572266, 56.4577579498291, 33.177733421325684, 59.99410152435303, 33.27775001525879, 54.92424964904785, 32.762765884399414, 56.563377380371094, 33.69712829589844, 55.08005619049072, 33.53142738342285, 56.25474452972412, 33.38658809661865, 60.050010681152344, 34.06715393066406],
  "Depth": 2.0,
  "Expectation Value": -1.4114999771118164,
  "Optimal Expectation Value": -1.4114999771118164,
  "Optimizer durations [ms]": [8199.712, 8067.178, 7840.644, 8987.861, 8350.593, 8207.304, 7954.408, 8102.873, 8048.699, 8706.147, 8282.256, 7940.407, 8681.615, 7919.898, 8237.366, 8356.438, 8635.927, 7920.251, 8110.372, 8296.551, 9351.11, 8217.163],
  "Optimizer iterations": 22,
  "Optimizer params": [1.0, 0.5011089290675298],
  "P": 0,
  "Problem": "RH",
  "QJob durations [ms]": [4091.8112993240356, 4025.584101676941, 3912.695050239563, 4486.138582229614, 4167.671203613281, 4095.90220451355, 3969.4764614105225, 4043.6081886291504, 4016.6244506835938, 4345.305681228638, 4133.35919380188, 3962.4661207199097, 4333.102703094482, 3952.2138833999634, 4111.132025718689, 4170.468330383301, 4310.273170471191, 3952.4046182632446, 4047.386050224304, 4140.449047088623, 4667.851448059082, 4100.7020473480225],
  "QPU": "6000004",
  "Qubits": 2,
  "Queue durations [ms]": [0.0, 0.0, 0.0, 0.0, 0.0, 0.0, 0.0, 0.0, 0.0, 0.0, 0.0, 0.0, 0.0, 0.0, 0.0, 0.0, 0.0, 0.0, 0.0, 0.0, 0.0, 0.0],
  "Shots": 4096,
  "Size": 2,
  "Total Algorithm duration [s]": 182.414,
  "Total Classic duration [s]": 91.3773741378784,
  "Total Quantum duration [s]": 91.03662586212158
}
