{
  "Circuit execution durations [ms]": [33.48565101623535, 63.901543617248535, 33.625125885009766, 55.62245845794678, 32.41229057312012, 55.73379993438721, 30.471324920654297, 54.30042743682861, 34.134626388549805, 54.88574504852295, 30.117034912109375, 53.91192436218262, 30.122876167297363, 55.74750900268555, 33.60128402709961, 56.50043487548828, 33.39076042175293, 56.39684200286865, 33.066630363464355, 55.425405502319336, 33.06162357330322, 57.01255798339844, 33.78105163574219, 55.837273597717285, 33.75577926635742, 62.80708312988281, 33.83636474609375],
  "Depth": 2.0,
  "Expectation Value": -1.408334493637085,
  "Optimal Expectation Value": -1.4114999771118164,
  "Optimizer durations [ms]": [8002.264, 9068.691, 8133.041, 8101.668, 8174.753, 8290.968, 7920.256, 8107.494, 8283.71, 9014.089, 7900.996, 8136.565, 8238.516, 8091.735, 8788.435, 7884.622, 8641.141, 9674.161, 7890.35, 7924.981, 8315.866, 8510.259, 9924.225, 8096.601, 7776.341, 8152.339, 8086.497],
  "Optimizer iterations": 27,
  "Optimizer params": [0.010460652582031854, 0.5088577444144213],
  "P": 0,
  "Problem": "RH",
  "QJob durations [ms]": [3992.623209953308, 4525.033473968506, 4058.727741241455, 4042.9844856262207, 4078.8166522979736, 4136.7363929748535, 3952.3285627365112, 4045.6260442733765, 4134.003162384033, 4499.377727508545, 3942.7571296691895, 4060.0022077560425, 4111.3386154174805, 4038.1667613983154, 4386.399269104004, 3934.4416856765747, 4312.675952911377, 4829.410552978516, 3937.1612071990967, 3954.718828201294, 4150.156021118164, 4247.253656387329, 4954.068422317505, 4037.7113819122314, 3880.387783050537, 4068.256139755249, 4035.2824926376343],
  "QPU": "6000004",
  "Qubits": 2,
  "Queue durations [ms]": [0.0, 0.0, 0.0, 0.0, 0.0, 0.0, 0.0, 0.0, 0.0, 0.0, 0.0, 0.0, 0.0, 0.0, 0.0, 0.0, 0.0, 0.0, 0.0, 0.0, 0.0, 0.0, 0.0, 0.0, 0.0, 0.0, 0.0],
  "Shots": 4096,
  "Size": 2,
  "Total Algorithm duration [s]": 225.13,
  "Total Classic duration [s]": 112.78355443954467,
  "Total Quantum duration [s]": 112.34644556045532
}
