{
  "Circuit execution durations [ms]": [56.44083023071289, 33.49900245666504, 57.07395076751709, 33.26416015625, 56.96296691894531, 33.77425670623779, 56.29324913024902, 33.05315971374512, 57.08670616149902, 33.44714641571045, 56.45596981048584, 33.35928916931152, 56.28526210784912, 33.570289611816406, 57.294249534606934, 33.6306095123291, 56.490182876586914, 33.53571891784668, 56.55109882354736, 33.40315818786621, 56.319355964660645, 33.12110900878906, 57.01589584350586, 33.469557762145996, 56.1908483505249, 35.01176834106445, 58.76147747039795, 34.91926193237305, 58.99465084075928, 33.8057279586792, 61.130642890930176],
  "Depth": 2.0,
  "Expectation Value": -1.4063233137130737,
  "Optimal Expectation Value": -1.4114999771118164,
  "Optimizer durations [ms]": [7990.723, 8112.996, 8096.494, 7860.51, 8027.579, 8170.058, 7909.649, 8048.34, 8089.419, 8132.126, 7983.766, 8084.945, 7999.045, 8375.447, 8330.312, 7932.514, 8035.809, 8022.194, 8180.533, 7957.621, 8065.522, 8076.807, 8244.808, 8270.224, 8042.388, 7938.505, 8124.895, 8431.655, 8119.906, 8573.943, 8251.82],
  "Optimizer iterations": 31,
  "Optimizer params": [0.02175580444129194, 0.4951100068177141],
  "P": 0,
  "Problem": "RH",
  "QJob durations [ms]": [3987.0212078094482, 4048.185348510742, 4040.2997732162476, 3922.271490097046, 4005.8624744415283, 4077.012062072754, 3946.832299232483, 4016.2609815597534, 4036.8642807006836, 4058.1389665603638, 3984.0112924575806, 4034.6853733062744, 3991.6521310806274, 4179.566264152527, 4157.217264175415, 3958.1209421157837, 4009.9380016326904, 4003.141403198242, 4081.687092781067, 3970.780849456787, 4024.775266647339, 4030.5697917938232, 4114.289999008179, 4127.0153522491455, 4013.298273086548, 3961.2555503845215, 4054.3729066848755, 4207.652926445007, 4051.9208908081055, 4278.735876083374, 4118.015766143799],
  "QPU": "6000004",
  "Qubits": 2,
  "Queue durations [ms]": [0.0, 0.0, 0.0, 0.0, 0.0, 0.0, 0.0, 0.0, 0.0, 0.0, 0.0, 0.0, 0.0, 0.0, 0.0, 0.0, 0.0, 0.0, 0.0, 0.0, 0.0, 0.0, 0.0, 0.0, 0.0, 0.0, 0.0, 0.0, 0.0, 0.0, 0.0],
  "Shots": 4096,
  "Size": 2,
  "Total Algorithm duration [s]": 251.48,
  "Total Classic duration [s]": 125.98854790210723,
  "Total Quantum duration [s]": 125.49145209789276
}
