{
  "Depth": 185.0,
  "Job durations [ms]": [396.0, 327.0, 366.0, 373.0, 388.0, 405.0, 278.0, 471.0, 357.0, 409.0, 418.0, 360.0, 451.0, 269.0, 403.0, 323.0, 434.0, 391.0, 372.0, 350.0, 280.0, 367.0, 338.0, 283.0, 350.0, 357.0, 358.0, 367.0, 394.0, 354.0, 398.0, 364.0, 271.0, 356.0, 364.0, 271.0, 205.0, 353.0, 357.0, 331.0, 376.0, 344.0, 378.0, 360.0, 421.0, 374.0, 372.0, 413.0, 418.0, 363.0, 460.0, 469.0, 447.0, 467.0, 350.0, 417.0, 492.0, 322.0, 331.0, 343.0, 368.0, 381.0, 734.0, 342.0, 351.0, 301.0, 356.0, 455.0, 598.0, 417.0, 386.0, 284.0, 323.0, 390.0, 328.0, 345.0],
  "Optimizer durations [ms]": [5803.067, 5759.384, 5753.928, 5917.722, 6020.667, 5824.204, 6008.233, 5784.891, 5813.249, 5808.884, 5888.503, 5862.82, 5815.514, 5792.092, 6008.354, 5897.278, 6041.694, 5944.366, 6044.908, 5887.823, 5844.726, 5953.929, 5834.855, 5877.657, 5877.341, 5792.089, 5785.491, 5770.394, 5870.072, 5794.783, 5984.924, 5761.164, 5934.881, 5766.071, 5827.362, 5846.879, 5953.197, 5795.26, 5848.671, 5879.901, 5949.532, 5967.595, 5822.089, 5781.928, 5791.223, 6585.68, 6326.418, 7123.071, 6362.998, 6121.607, 5880.691, 5840.718, 5829.13, 5854.453, 5823.515, 5963.451, 5771.302, 6064.923, 5960.815, 5863.635, 5781.591, 6052.467, 5773.05, 5846.748, 5830.907, 5826.933, 5771.308, 5957.949, 5841.627, 5775.313, 5840.857, 5983.648, 5782.825, 5814.919, 5778.617, 6046.502],
  "Optimizer iterations": 76,
  "Qubits": 10,
  "Total Algorithm duration [s]": 449.067,
  "Total Classic duration [s]": 420.532,
  "Total Quantum duration [s]": 28.535,
  "Expectation Value": -12.98193359375,
  "Optimal Expectation Value": -14.0,
  "Optimizer params": [0.3685955368515045, 0.9064205994405541, 0.25995503960575517, 0.5370760249705935, 0.4651835951474271, 0.6161224880668348],
  "QPU": "10000001",
  "Problem": "MCP",
  "Size": 10,
  "P": 3,
  "Shots": 4096
}