{
  "Depth": 22.5,
  "Job durations [ms]": [0.6328999879769981, 0.5719999899156392, 0.6324500136543065, 0.6694500043522567, 0.6300499953795224, 0.5903499841224402, 0.7795999990776181, 0.7634500216227025, 0.7861499907448888, 0.755899993237108, 0.7054499874357134, 0.6838499975856394, 0.7614000060129911, 0.6724499980919063, 0.6972000119276345, 0.759599992306903, 0.7138999935705215, 0.7282000151462853, 0.6360000115819275, 0.5704500072170049, 0.5882999976165593, 0.5754500161856413, 0.5941999843344092, 0.6235500040929765, 0.5844999977853149, 0.576700025703758, 0.6046999769750983, 0.7031999994069338, 0.7790999952703714, 0.6926499772816896, 0.6252500170376152, 0.6526000215671957, 0.6368499889504164, 0.6231500010471791, 0.6270000012591481, 0.6129499815870076, 0.5691499973181635, 0.5755500169470906, 0.5903500132262707, 0.5785499815829098, 0.586300011491403, 0.5862999823875725, 0.6057500140741467, 0.60374999884516, 0.7532999734394252, 0.7430999830830842, 0.7339000003412366, 0.7346999773290008, 0.6490499945357442, 0.6148999964352697, 0.6222999945748597, 0.5764999950770289, 0.5797000194434077, 0.5933000065851957, 0.5565500177908689, 0.6957500008866191, 0.5984499875921756, 0.6058500148355961, 0.6341500265989453, 0.590150011703372, 0.5775000026915222, 0.5702000053133816, 0.5690499965567142, 0.5925999721512198, 0.5724999937228858, 0.5643999902531505, 0.5895499780308455, 0.5723999929614365, 0.5737500032410026, 0.6446000188589096, 0.5780500068794936, 0.5647499929182231, 0.5767999973613769, 0.5668000085279346, 0.5666500073857605, 0.6056999845895916, 0.5825999833177775, 0.5684000207111239, 0.5981499853078276, 0.583950022701174, 0.5691999976988882, 0.5919999966863543, 0.6315500068012625, 0.5550000059884042, 0.6027999916113913, 0.599449995206669, 0.5774500023107976, 0.589400005992502, 0.5877499934285879, 0.5381499940995127, 0.5835499905515462, 0.6807500030845404, 0.6136999872978777, 0.5661499744746834, 0.6145999941509217, 0.5757999897468835, 0.582600012421608, 0.5636499845422804, 0.5656499997712672, 0.7111500017344952, 0.6759999960195273, 0.6227999983821064, 0.6911999953445047, 0.679299992043525, 0.680950004607439, 0.671050016535446, 0.7055999885778874, 0.6223999953363091, 0.6545500073116273, 0.6219499919097871, 0.6123999773990363, 0.5770999996457249, 0.5792500160168856, 0.5728999967686832, 0.5623999750241637, 0.5247000080998987, 0.6814999796915799, 0.7178999949246645, 0.7370499952230603, 0.651950016617775, 0.5807999987155199, 0.5888500018045306, 0.5894500063732266, 0.5797500198241323, 0.5821999802719802, 0.5741500062867999, 0.5689999961759895, 0.6279000081121922, 0.5734500009566545, 0.5719499895349145, 0.5985000170767307, 0.5651999963447452, 0.5827000131830573, 0.604950007982552, 0.5742500070482492, 0.5877499934285879, 0.5671499820891768, 0.5698500026483089, 0.5659000016748905, 0.5734000005759299, 0.5636000132653862, 0.59045001398772, 0.598699989495799, 0.5659500020556152, 0.5755499878432602, 0.5652999971061945, 0.5704000068362802, 0.5833499890286475, 0.5723500216845423, 0.5715999868698418, 0.5718999891541898, 0.5750000127591193, 0.5811500013805926, 0.5676999862771481, 0.5648999940603971, 0.5985000170767307, 0.5700500041712075, 0.5743000074289739, 0.5742000066675246, 0.5663500051014125, 0.5707500095013529, 0.5733500001952052, 0.5856000061612576, 0.5664500058628619, 0.5881499964743853, 0.5764999950770289, 0.5770999996457249, 0.5747500108554959, 0.5938000103924423, 0.5747999821323901, 0.5736000020988286, 0.6334999925456941, 0.5677000153809786, 0.5738500040024519, 0.5734500009566545, 0.5794500175397843, 0.5730500270146877, 0.5615999980363995, 0.5734500009566545, 0.5855000053998083, 0.6517500150948763, 0.5889000021852553, 0.5783499800600111, 0.5879999953322113, 0.7434999861288816, 0.618099991697818, 0.5635499837808311, 0.5681000184267759, 0.531600002432242, 0.5368500133045018, 0.747200014302507, 0.538849999429658, 0.5908499879296869, 0.5756499886047095, 0.5933999782428145, 0.6458499992731959, 0.6842500006314367, 0.6361500127241015, 0.5734500009566545, 0.6478999857790768, 0.5723499925807118, 0.6038499996066093, 0.6119500030763447, 0.5654499982483685, 0.7121000089682639, 0.5312499852152541, 0.5882999976165593, 0.6084500055294484, 0.5703499773517251, 0.5281000048853457, 0.6310000026132911, 0.5786500114481896, 0.6556499865837395, 0.6528999947477132, 0.69039998925291, 0.668799999402836, 0.6544499774463475, 0.7045000093057752, 0.6445999897550792, 0.676199997542426, 0.6659499777015299, 0.6058499857317656, 0.7208499882835895, 0.7426500087603927, 0.6213999877218157, 0.5807999987155199, 0.6123499770183116, 0.5926000012550503, 0.6361500127241015, 0.5785499815829098, 0.5851999740116298, 0.600049999775365, 0.6093000120017678, 0.6328499875962734, 0.590900017414242, 0.5776500038336962, 0.5800999933853745, 0.7447499956469983, 0.5796499899588525, 0.5745000089518726, 0.7848000095691532, 0.592500000493601, 0.7222499989438802, 0.5581500008702278, 0.7817499863449484, 0.596199999563396, 0.6441500154323876, 0.5401000089477748, 0.5558000120799989, 0.5927499732933939, 0.5808499990962446, 0.8127999899443239, 0.7500499777961522, 0.5669999809470028, 0.6585500086657703, 0.6714999908581376, 0.6790999905206263, 0.5670000100508332, 0.5563999875448644, 0.5003500118618831, 0.5146499897819012, 0.5596499831881374, 0.9145999792963266, 0.5619500007014722, 0.5934999790042639, 0.4853499849559739, 0.5303499929141253, 0.6604499940294772, 0.5257500160951167, 0.5424499977380037, 0.6743499834556133, 0.5089999904157594, 0.5227499932516366, 0.5328000115696341, 0.5097499961266294, 0.5407500138971955, 0.7099999929778278, 0.6135000148788095, 0.510900019435212, 0.5381999944802374, 0.5671500111930072, 0.5491500196512789, 0.521700014360249, 0.5134500097483397, 0.5430000019259751, 0.5363500094972551, 0.5332999862730503, 0.5051500047557056, 0.6802999996580184, 0.5893500056117773, 0.524650007719174, 0.5213500116951764, 0.6580000044777989, 0.5164500034879893, 0.5187999922782183, 0.5272500275168568, 0.5142999871168286, 0.5151000077603385, 0.5275000003166497, 0.6187999970279634, 0.6568000244442374, 0.6150999979581684, 0.5826499836985022, 0.7767500064801425, 0.6941000174265355, 0.5847499996889383, 0.5748499825131148, 0.589250004850328, 0.7569000008516014, 0.7587500149384141, 0.5767499969806522, 0.7828999951016158, 0.5768999981228262, 0.6982000195421278, 0.6771499756723642, 0.6517500150948763, 0.6955499993637204, 0.6713499897159636, 0.7200000109151006, 0.7746000192128122, 0.7506500114686787, 0.7822499901521951, 0.74380001751706, 0.7288499909918755, 0.6405000167433172, 0.7438499887939543, 0.7474999874830246, 0.7677000248804688, 0.7695500098634511, 0.7734000100754201, 0.7849500107113272, 0.7414499996230006, 0.7453500002156943, 0.6136999872978777, 0.6325000140350312, 0.6051999807823449, 0.5847499996889383, 0.5835500196553767, 0.5693999992217869, 0.6420999998226762, 0.6139999895822257, 0.5912999913562089, 0.6237000052351505, 0.7348500075750053, 0.5816000048071146, 0.5845499981660396, 0.7080500072333962, 0.6724499980919063, 0.7140499947126955, 0.5522000137716532, 0.5507000023499131, 0.5657000001519918, 0.5391000013332814, 0.5505000008270144, 0.5625500052701682, 0.5570999928750098, 0.6200000061653554, 0.5917499947827309, 0.7187000010162592, 0.6357999809551984, 0.6037999992258847, 0.5856000061612576, 0.5591999797616154, 0.5668500089086592, 0.6697500066366047, 0.662600010400638, 0.6474999827332795, 0.6833500228822231, 0.6802499992772937, 0.7258499972522259, 0.7166500145103782, 0.6330999894998968, 0.6293000187724829, 0.748349993955344, 0.683899997966364, 0.6931000098120421, 0.6510500097647309, 0.7643999997526407, 0.7368499937001616, 0.7724000024609268, 0.7925000099930912, 0.7711000216659158, 0.7757999992463738, 0.7808500085957348, 0.7697000110056251, 0.6314000056590885, 0.7633500208612531, 0.8244499622378498, 0.7645000005140901, 0.6927999784238636, 0.7280000136233866, 0.5713999853469431, 0.5702499765902758, 0.5735500017181039, 0.5935000081080943, 0.6292000180110335, 0.5727500247303396, 0.5791999865323305, 0.5877999938093126, 0.5727499956265092, 0.6778000097256154, 0.6206000107340515, 0.5686499935109168, 0.5987000185996294, 0.578750012209639, 0.5727499956265092, 0.5798999918624759, 0.5692499980796129, 0.5628000071737915, 0.6052500102669001, 0.5689999961759895, 0.6133999850135297, 0.5813999741803855, 0.5685499927494675, 0.6266500276979059, 0.8182000019587576, 0.5240999889792874, 0.587500020628795, 0.5728999967686832, 0.6073499971535057, 0.5710000114049762, 0.5726999952457845, 0.5945499869994819, 0.6365499866660684, 0.7463499787263572, 0.5657500005327165, 0.6274500046856701, 0.6490999949164689, 0.5662500043399632, 0.590750016272068, 0.6250500155147165, 0.6123500061221421, 0.6581500056199729, 0.6920000014360994, 0.589100003708154, 0.598849990637973, 0.6074999982956797, 0.5837499920744449, 0.6475500122178346, 0.6128000095486641, 0.621799990767613, 0.5843999970238656, 0.5514499789569527, 0.6702999817207456, 0.6380499980878085, 0.676049996400252, 0.7488999981433153, 0.7368499937001616, 0.5590500077232718, 0.5113999941386282, 0.6493999972008169, 0.6784499855712056, 0.74305001180619, 0.585700006922707, 0.6004000024404377, 0.6692000024486333, 0.6444999889936298, 0.5718500178772956, 0.5760999920312315, 0.569150026421994, 0.743650016374886, 0.6212499865796417, 0.589250004850328, 0.5764499946963042, 0.5829499859828502, 0.6514000124298036, 0.5911499902140349, 0.5744500085711479, 0.578600011067465, 0.7257499964907765, 0.7152000034693629, 0.6665999826509506, 0.6379499973263592, 0.7254499942064285, 0.6264999974519014, 0.6613500008825213, 0.610849994700402, 0.5768499977421016, 0.5787000118289143, 0.6617500039283186, 0.539999979082495, 0.5452999903354794, 0.5256999866105616, 0.541049987077713, 0.534099992364645, 0.582150008995086, 0.7238000107463449, 0.7890499837230891, 0.7628999883309007, 0.5702000053133816, 0.6968499801587313, 0.5587000050581992, 0.5500499974004924, 0.5755499878432602, 0.6531000253744423, 0.6229999999050051, 0.6293499900493771, 0.7087000121828169, 0.7654000073671341, 1.0771499946713448, 0.5368999991333112, 0.6410499918274581, 0.519749999511987, 0.5041499971412122, 0.5547000037040561, 0.6441499863285571, 0.5075999943073839, 0.5137500120326877, 0.516200001584366, 0.5118999979458749, 0.5021999968448654, 0.5115999956615269, 0.5769499985035509, 0.5184000183362514, 0.5253500130493194, 0.5264999927021563, 0.5207499925745651, 0.5339999916031957, 0.6884500035084784, 0.6615000020246953, 0.6327499868348241, 0.5323000077623874, 0.7233000069390982, 0.5222000181674957, 0.652250018902123, 0.5470500036608428, 0.5278000026009977, 0.5605499900411814, 0.5882499972358346, 0.601400010054931, 0.5956499953754246, 0.6935500132385641, 0.5460499960463494, 0.5473000055644661, 0.5264999927021563, 0.4904500092379749, 0.5214499833527952, 0.5879999953322113, 0.5424499977380037, 0.5426499992609024, 0.7272499788086861, 0.6513500120490789, 0.6057500140741467, 0.7361999887507409, 0.74155000038445, 0.6562999915331602, 0.575350015424192, 0.6487499922513962, 0.5678499874193221, 0.6941500178072602, 0.5787499831058085, 0.5776000034529716, 0.5722499918192625, 0.6487499922513962, 0.5800499930046499, 0.583800021559, 0.5657000001519918, 0.5689999961759895, 0.5740499764215201, 0.5840999947395176, 0.6001500005368143, 0.5993500235490501, 0.6092999828979373, 0.5699000030290335, 0.5619000003207475, 0.5802999949082732, 0.5761999927926809, 0.5646499921567738, 0.5983499868307263, 0.5655999993905425, 0.5688000237569213, 0.5839000223204494, 0.5913499917369336, 0.6097000150475651, 0.5988999910186976, 0.5564000166486949, 0.5696000007446855, 0.5662500043399632, 0.6786500161979347, 0.5679000169038773, 0.5637000140268356, 0.5792500160168856, 0.5668999801855534, 0.5746000097133219, 0.6051500095054507, 0.5702000053133816, 0.5706500087399036, 0.5755500169470906, 0.5732499994337559, 0.600200000917539, 0.5780500068794936, 0.5749500123783946, 0.6544500065501779, 0.7335499976761639, 0.5631500098388642, 0.5736000020988286, 0.7472500146832317, 0.5603999888990074, 0.5885999999009073, 0.5707999807782471, 0.6032499950379133, 0.5982499860692769, 0.5706500087399036, 0.6998000026214868, 0.5865999846719205, 0.5867000145372003, 0.5842499958816916, 0.5707999807782471, 0.5650499952025712, 0.5819500074721873, 0.6064000190235674, 0.7239000115077943, 0.5733500001952052, 0.5859500088263303, 0.5647499929182231, 0.5680499889422208, 0.58305001584813, 0.5710000114049762, 0.5719000182580203, 0.5754999874625355, 0.6048499781172723, 0.5723999929614365, 0.5723499925807118, 0.6032500241417438, 0.5611000233329833, 0.5895000067539513, 0.5911000189371407, 0.5661499744746834, 0.5691999976988882, 0.578600011067465, 0.5711999838240445, 0.5809499998576939, 0.608200003625825, 0.5822000093758106, 0.6599999906029552, 0.5995000246912241, 0.5682499904651195, 0.5722999921999872, 0.5689000245183706, 0.5975499807391316, 0.5869500164408237, 0.583950022701174, 0.5847499996889383, 0.5693499988410622, 0.5762000218965113, 0.6733500049449503, 0.5907499871682376, 0.5738499748986214, 0.5977499822620302, 0.5732999998144805, 0.5716999876312912, 0.6190999993123114, 0.5686499935109168, 0.5705000075977296, 0.5698500026483089, 0.5806999979540706, 0.5720999906770885, 0.5983999872114509, 0.5837000207975507, 0.5762999935541302, 0.5915499932598323, 0.6675999902654439, 0.6357499805744737, 0.6812000065110624, 0.7573000038973987],
  "Optimizer durations [ms]": [14.28, 28.874, 13.56, 14.403, 13.541, 12.878, 24.943, 16.836, 16.878, 19.615, 15.73, 18.915, 16.818, 14.673, 14.959, 15.902, 15.572, 15.71, 13.447, 12.617, 12.926, 12.632, 12.911, 12.955, 12.921, 12.549, 13.722, 14.844, 18.194, 14.462, 14.194, 14.409, 13.695, 13.331, 13.292, 13.131, 12.725, 12.601, 12.996, 12.592, 12.426, 12.974, 13.296, 13.064, 23.798, 23.756, 20.775, 23.073, 14.076, 13.103, 15.97, 12.519, 12.714, 12.758, 26.765, 15.359, 12.869, 13.195, 13.717, 12.822, 12.845, 12.271, 12.33, 13.265, 12.334, 12.601, 12.402, 12.667, 12.399, 13.76, 14.674, 12.279, 12.555, 12.362, 12.312, 12.906, 12.68, 12.463, 12.931, 16.516, 12.148, 12.733, 13.699, 12.224, 13.094, 12.801, 12.668, 12.992, 12.907, 26.481, 12.558, 16.604, 13.146, 12.327, 12.992, 12.793, 12.534, 12.364, 12.461, 15.072, 14.782, 13.321, 15.254, 14.706, 14.842, 16.581, 15.296, 16.189, 17.394, 14.271, 13.281, 12.694, 12.216, 12.561, 26.016, 24.877, 21.042, 15.264, 20.501, 16.662, 12.475, 12.8, 12.719, 12.502, 29.184, 12.589, 12.593, 13.716, 12.565, 12.337, 12.84, 12.51, 12.4, 15.084, 12.732, 12.515, 12.336, 12.475, 12.305, 12.303, 12.519, 18.972, 13.101, 12.296, 12.49, 12.448, 12.436, 12.42, 12.615, 14.939, 12.507, 12.45, 12.473, 12.201, 12.404, 13.065, 12.261, 12.567, 12.175, 12.161, 12.406, 12.618, 12.582, 12.457, 12.621, 12.294, 12.354, 12.452, 12.991, 12.671, 12.599, 19.772, 12.435, 12.62, 13.262, 12.528, 12.474, 11.794, 12.618, 12.496, 13.736, 12.443, 12.537, 12.45, 15.956, 32.25, 23.594, 17.18, 17.653, 16.654, 19.055, 17.439, 13.982, 14.248, 14.952, 13.899, 16.719, 14.037, 20.869, 13.762, 12.504, 12.701, 16.66, 11.984, 15.584, 27.875, 12.981, 13.073, 13.174, 24.82, 13.492, 12.723, 19.63, 14.6, 19.773, 19.252, 15.665, 17.434, 14.824, 14.5, 15.521, 14.247, 15.733, 16.043, 13.529, 12.79, 12.896, 12.946, 13.498, 12.65, 12.831, 12.767, 14.288, 13.731, 12.58, 12.672, 12.587, 21.655, 12.541, 14.345, 17.418, 29.403, 23.614, 33.34, 26.42, 24.987, 34.789, 29.159, 29.04, 31.244, 30.595, 27.011, 38.137, 32.724, 32.749, 21.258, 30.616, 31.49, 32.194, 30.947, 31.179, 24.221, 28.006, 28.707, 25.004, 30.148, 27.187, 24.299, 22.423, 31.199, 27.276, 27.623, 25.97, 31.014, 16.822, 24.089, 29.751, 28.031, 30.849, 31.036, 29.89, 27.748, 28.433, 30.38, 28.236, 30.518, 24.916, 30.483, 24.081, 19.496, 27.409, 25.348, 25.987, 27.92, 20.976, 27.762, 26.831, 26.74, 21.802, 26.275, 29.396, 29.279, 28.291, 28.606, 25.054, 25.274, 25.906, 24.071, 16.596, 16.248, 30.938, 21.647, 28.794, 14.652, 15.085, 14.534, 15.281, 14.461, 15.573, 16.874, 16.083, 16.904, 16.964, 15.359, 14.317, 15.791, 21.114, 19.925, 22.647, 20.805, 18.347, 16.02, 15.993, 13.813, 13.862, 16.405, 12.781, 19.075, 12.162, 13.415, 13.007, 17.142, 13.425, 16.092, 16.578, 12.669, 15.411, 15.284, 15.538, 29.448, 26.129, 32.151, 31.109, 23.248, 25.622, 31.97, 32.498, 23.553, 29.53, 26.159, 30.593, 34.301, 26.948, 32.477, 16.45, 16.178, 18.754, 15.363, 17.063, 17.985, 15.591, 15.33, 13.638, 16.586, 14.563, 15.069, 27.787, 17.11, 16.513, 16.623, 17.451, 16.658, 17.301, 17.355, 17.147, 20.052, 20.257, 20.245, 17.716, 26.522, 19.155, 12.396, 12.58, 12.617, 12.587, 13.765, 12.444, 12.931, 12.419, 12.457, 14.713, 13.262, 12.539, 13.188, 12.459, 12.356, 18.1, 12.243, 12.555, 13.044, 12.249, 13.312, 12.675, 12.487, 13.342, 17.585, 26.354, 17.779, 12.239, 13.237, 29.816, 18.3, 13.065, 13.892, 16.34, 12.226, 13.631, 13.907, 12.409, 12.97, 13.385, 15.761, 13.933, 15.02, 12.718, 13.299, 13.156, 12.826, 14.934, 13.501, 13.356, 12.982, 20.148, 30.26, 15.812, 15.863, 21.02, 16.285, 12.616, 12.332, 13.961, 14.525, 30.552, 13.257, 13.491, 14.32, 14.32, 12.446, 14.003, 13.304, 16.979, 23.338, 13.071, 12.762, 13.989, 14.089, 12.92, 12.608, 12.514, 15.575, 15.588, 14.43, 13.639, 27.08, 13.937, 14.095, 27.033, 20.796, 20.961, 30.45, 26.47, 23.983, 26.988, 21.724, 28.309, 30.471, 36.011, 28.982, 25.375, 32.209, 30.791, 23.343, 32.017, 27.456, 32.765, 30.159, 31.83, 32.703, 31.575, 42.64, 34.41, 26.23, 31.212, 28.999, 15.481, 30.016, 24.291, 28.02, 27.668, 18.821, 27.55, 27.603, 30.039, 24.358, 19.674, 20.934, 28.639, 25.721, 18.918, 29.941, 29.497, 30.283, 29.143, 29.055, 27.81, 17.953, 29.609, 28.857, 30.36, 30.536, 31.352, 26.192, 17.201, 28.839, 30.944, 29.72, 28.527, 21.192, 29.791, 23.377, 20.485, 20.619, 13.428, 15.871, 15.986, 14.078, 12.808, 20.41, 12.672, 15.112, 19.327, 12.645, 12.61, 13.772, 12.613, 16.928, 12.501, 12.507, 12.314, 13.933, 12.935, 12.862, 13.333, 12.537, 12.335, 12.339, 12.651, 12.487, 12.979, 12.503, 12.504, 12.484, 12.702, 17.84, 13.05, 12.321, 12.352, 12.044, 14.197, 12.444, 12.19, 12.688, 12.667, 12.615, 12.779, 12.411, 12.245, 12.707, 12.576, 12.933, 12.257, 12.575, 26.863, 15.833, 25.168, 20.812, 21.067, 12.307, 12.625, 12.721, 12.948, 12.77, 23.11, 16.775, 12.598, 12.832, 12.449, 12.479, 11.943, 12.829, 13.071, 15.495, 20.415, 13.488, 12.336, 12.699, 12.771, 12.064, 12.574, 12.49, 13.17, 12.704, 12.339, 12.832, 12.478, 12.698, 12.9, 12.077, 12.386, 22.324, 12.383, 12.87, 12.813, 12.653, 14.454, 13.113, 12.512, 12.554, 12.08, 12.854, 12.606, 12.752, 12.703, 12.358, 12.514, 14.87, 13.056, 12.622, 12.878, 12.514, 12.443, 13.261, 12.518, 12.492, 12.729, 12.373, 12.229, 13.241, 12.84, 12.808, 12.857, 14.781, 23.994, 15.091, 17.81],
  "Optimizer iterations": 665,
  "Qubits": 10,
  "Total Algorithm duration [s]": 11.759,
  "Total Classic duration [s]": 11.350387950000353,
  "Total Quantum duration [s]": 0.40861204999964684,
  "Expectation Value": -11.725332260131836,
  "Optimal Expectation Value": -12.381489753723145,
  "Optimizer params": [0.6246633813274521, 0.7531435198648029, 0.8825860291625288, 0.5973132603870538, 0.9138193802899177, 0.5786732725204399, 0.9210416233010846, 0.5739268894455781, 0.928750541362174, 0.5230347464923389, 0.5881368420089945, 0.5082296774788189, 0.48515929615642994, 0.5075802453453513, 0.49166272855972865, 0.5109443987220287, 0.47707914212655306, 0.4832561162654332, 0.5118755819999761, 0.8182522703283708, 0.49592421412823146, 0.5113117389548966, 0.5125491607497626, 0.5059737689895625, 0.5168099523337403, 0.5390403239953934, 0.5419495138967398, 0.5470675863715656, 0.5446238932575402, 0.5377223286427739, 0.5851332838289995, 0.5348002789275812, 0.5214684786159155, 0.5197846587524925, 0.5032244079669423, 0.4956381987432077, 0.526496988094955, 0.5004025263005667, 0.49077288021883403, 0.46767341173047183],
  "QPU": "7000000",
  "Problem": "IC",
  "Size": 10,
  "P": 0,
  "Shots": 4096
}