{
  "Depth": 22.5,
  "Job durations [ms]": [0.6007000047247857, 0.5615499976556748, 0.5655499990098178, 0.5814000032842159, 0.5717500171158463, 0.5716000159736723, 0.5885499995201826, 0.5644500197377056, 0.5694999999832362, 0.5735500017181039, 0.5572499940171838, 0.5637999856844544, 0.5635999841615558, 0.5641999887302518, 0.5706500087399036, 0.5567999905906618, 0.5993499944452196, 0.6715000199619681, 0.5832500173710287, 0.5877500225324184, 0.5755500169470906, 0.5741000059060752, 0.5759000196121633, 0.5810500006191432, 0.5672000115737319, 0.6224500248208642, 0.5680999893229455, 0.568700022995472, 0.585550005780533, 0.5757500184699893, 0.5662499752361327, 0.5775500030722469, 0.5734000005759299, 0.5723999929614365, 0.5624000041279942, 0.590000010561198, 0.5706000083591789, 0.5734000005759299, 0.6425000028684735, 0.5850000015925616, 0.5660500028170645, 0.5632000102195889, 0.5636000132653862, 0.5706999800167978, 0.7346500060521066, 0.5705499788746238, 0.6119500030763447, 0.5685999931301922, 0.5650499952025712, 0.5640499875880778, 0.5726999952457845, 0.607599999057129, 0.5579999997280538, 0.5637500144075602, 0.5880999960936606, 0.5729499971494079, 0.6025500188115984, 0.6257000204641372, 0.5187999922782183, 0.5430000019259751, 0.7521000225096941, 0.7409999961964786, 0.7336499984376132, 0.6592499848920852, 0.5634500121232122, 0.5670000100508332, 0.5851500027347356, 0.5928500031586736, 0.5586500046774745, 0.7332499953918159, 0.5733500001952052, 0.5666000070050359, 0.5701000045519322, 0.5690999969374388, 0.5542500002775341, 0.593400007346645, 0.5773000011686236, 0.5761499924119562, 0.593550008488819, 0.5743000074289739, 0.5600500153377652, 0.583650020416826, 0.5831999878864735, 0.596950005274266, 0.5689499957952648, 0.5691999976988882, 0.5816000048071146, 0.5741000059060752, 0.5931999767199159, 0.5745500093325973, 0.5666999786626548, 0.5939500115346164, 0.6552499835379422, 0.5811500013805926, 0.5989499913994223, 0.5741500062867999, 0.5692999984603375, 0.5704500072170049, 0.5896500078961253, 0.5756499886047095, 0.5854500050190836, 0.5725999944843352, 0.5689499957952648, 0.5816500051878393, 0.5842499958816916, 0.5667500081472099, 0.5670999817084521, 0.5907000158913434, 0.5779000057373196, 0.5690499965567142, 0.5875999922864139, 0.5754500161856413, 0.5731499986723065, 0.5680499889422208, 0.5819000070914626, 0.5524999869521707, 0.599749997491017, 0.604950007982552, 0.5761999927926809, 0.6287499854806811, 0.595749996136874, 0.5809499998576939, 0.5652999971061945, 0.6009000062476844, 0.5621000018436462, 0.5712499842047691, 0.5658000009134412, 0.5735000013373792, 0.5594499816652387, 0.5677000153809786, 0.6617500039283186, 0.5761500215157866, 0.5701499758288264, 0.7430499827023596, 0.7200000109151006, 0.687899999320507, 0.6761499971617013, 0.5841999955009669, 0.6605999951716512, 0.6373500218614936, 0.676800002111122, 0.5782500084023923, 0.5665000062435865, 0.5994999955873936, 0.5682499904651195, 0.5612500244751573, 0.7306999759748578, 0.5980500136502087, 0.5625500052701682, 0.5636000132653862, 0.675449991831556, 0.6215999892447144, 0.5654999986290932, 0.5592999805230647, 0.5789999850094318, 0.693949987180531, 0.6189499981701374, 0.6350000039674342, 0.5406500131357461, 0.610249990131706, 0.6051999807823449, 0.5648999940603971, 0.5678500165231526, 0.7446999952662736, 0.5624000041279942, 0.7045499805826694, 0.6065000197850168, 0.5865500133950263, 0.5828999856021255, 0.5661500035785139, 0.5617999995592982, 0.6501000025309622, 0.5827499844599515, 0.5831499875057489, 0.5979499837849289, 0.6546499789692461, 0.5747500108554959, 0.5993499944452196, 0.5745999806094915, 0.5740500055253506, 0.6019999855197966, 0.5693499988410622, 0.5645999917760491, 0.5714499857276678, 0.5699500034097582, 0.5772000004071742, 0.5711500125471503, 0.5812500021420419, 0.5851500027347356, 0.596800004132092, 0.6071000243537128, 0.5892000044696033, 0.5607499915640801, 0.5978999834042042, 0.6095000135246664, 0.5760499916505069, 0.5844999977853149, 0.5689500248990953, 0.5740500055253506, 0.6116500007919967, 0.5689499957952648, 0.5713500140700489, 0.6217000191099942, 0.5792499869130552, 0.5656499997712672, 0.6442000158131123, 0.6662500090897083, 0.5539499979931861, 0.7317499839700758, 0.7658000104129314, 0.6405500171240419, 0.6073999975342304, 0.6900000153109431, 0.5656499997712672, 0.5667499790433794, 0.6708500150125474, 0.5314000009093434, 0.5736000020988286, 0.5749499832745641, 0.5816500051878393, 0.5650500243064016, 0.5716000159736723, 0.565150025067851, 0.5960999988019466, 0.5658500012941658, 0.5735500017181039, 0.6029499927535653, 0.5589500069618225, 0.6011500081513077, 0.5726999952457845, 0.5693999992217869, 0.5661000031977892, 0.5700499750673771, 0.5802999949082732, 0.5683999916072935, 0.5684500210918486, 0.5948499892838299, 0.5760999920312315, 0.6227000267244875, 0.6595999875571579, 0.5813000025227666, 0.5747499817516655, 0.604800006840378, 0.5763999943155795, 0.5674000130966306, 0.5744499794673175, 0.5716499872505665, 0.6080000021029264, 0.5707000091206282, 0.5660000024363399, 0.5778000049758703, 0.5835999909322709, 0.5987500189803541, 0.5725000228267163, 0.5716499872505665, 0.5778000049758703, 0.5806999979540706, 0.5708999815396965, 0.5715499864891171, 0.5793000163976103, 0.5897999799344689, 0.5761499924119562, 0.5688999954145402, 0.5807499983347952, 0.5685999931301922, 0.5637999856844544, 0.605949986493215, 0.5753000150434673, 0.5945999873802066, 0.5764499946963042, 0.5717000167351216, 0.5818500067107379, 0.5677499866578728, 0.565300026210025, 0.5769499985035509, 0.5658500012941658, 0.5648499936796725, 0.5751999851781875, 0.5619500007014722, 0.5730999982915819, 0.7727500051259995, 0.7391000108327717, 0.760950002586469, 0.6277999782469124, 0.672049995046109, 0.6222499941941351, 0.6650499999523163, 0.5712500133085996, 0.5637999856844544, 0.6558500172104686, 0.6949999951757491, 0.5715000152122229, 0.5652499967254698, 0.5705999792553484, 0.5834500188939273, 0.5657500005327165, 0.5670000100508332, 0.5681999900843948, 0.596049998421222, 0.5615999980363995, 0.6182999932207167, 0.6067500216886401, 0.5635500128846616, 0.5659500020556152, 0.5683499912265688, 0.6160999764688313, 0.5836999916937202, 0.5715999868698418, 0.5692499980796129, 0.5786499823443592, 0.5648499936796725, 0.6420499994419515, 0.5658000009134412, 0.5605999904219061, 0.5689999961759895, 0.5736999737564474, 0.5898999806959182, 0.7224500004667789, 0.5668000085279346, 0.5799000209663063, 0.60299999313429, 0.5690999969374388, 0.5851999740116298, 0.5953499930910766, 0.5740500055253506, 0.5729999975301325, 0.5800499930046499, 0.5801499937660992, 0.5768999981228262, 0.572250020923093, 0.5751500139012933, 0.5632500106003135, 0.5740000051446259, 0.5959499976597726, 0.5670000100508332, 0.5835499905515462, 0.6214000168256462, 0.6033499957993627, 0.5788500129710883, 0.5873499903827906, 0.605799985351041, 0.5714500148314983, 0.5689499957952648, 0.5701500049326569, 0.5656999710481614, 0.5644500197377056, 0.5727999960072339, 0.5628499784506857, 0.5717000167351216, 0.5848500004503876, 0.6754999922122806, 0.5859499797224998, 0.6486999918706715, 0.5800499930046499, 0.6319000094663352, 0.7270500063896179, 0.6037999992258847, 0.5793999880552292, 0.6363499851431698, 0.6211499858181924, 0.6776000082027167, 0.5800500221084803, 0.5667500081472099, 0.5746000097133219, 0.5746500100940466, 0.5752999859396368, 0.5914000212214887, 0.5917499947827309, 0.5642499891109765, 0.5638999864459038, 0.5984500166960061, 0.5764999950770289, 0.6893500103615224, 0.5776000034529716, 0.5701000045519322, 0.6898499850649387, 0.6337500235531479, 0.5806000262964517, 0.5668999801855534, 0.6186499958857894, 0.5658500012941658, 0.5725999944843352, 0.5674499843735248, 0.6682500243186951, 0.5682999908458441, 0.6580500048585236, 0.6081500032451004, 0.5798499914817512, 0.5723999929614365, 0.5768499977421016, 0.5756499886047095, 0.5726499948650599, 0.5648500227835029, 0.5768999981228262, 0.5730999982915819, 0.5719999899156392, 0.610849994700402, 0.5756000173278153, 0.5707499803975224, 0.597250007558614, 0.5640999879688025, 0.593700009630993, 0.5940499831922352, 0.5648999940603971, 0.5615999980363995, 0.5657000001519918, 0.5855999770574272, 0.5727499956265092, 0.599749997491017, 0.597250007558614, 0.5660499737132341, 0.5661500035785139, 0.6184499943628907, 0.5827499844599515, 0.5799999926239252, 0.5987499898765236, 0.5638499860651791, 0.5760000203736126, 0.5872999900020659, 0.5718500178772956, 0.5692499980796129, 0.5673000123351812, 0.5754999874625355, 0.6351500051096082, 0.5810500006191432, 0.6362999847624451, 0.7416500011458993, 0.7287999906111509, 0.6992999988142401, 0.7263500010594726, 0.7957500056363642, 0.6363999855238944, 0.6561999907717109, 0.5673499836120754, 0.5698500026483089, 0.5620500014629215, 0.5633000109810382, 0.740250019589439, 0.6557500164490193, 0.5739499756600708, 0.598699989495799, 0.5711000121664256, 0.5885499995201826, 0.5712999845854938, 0.5577000265475363, 0.5684499919880182, 0.5672000115737319, 0.5597999843303114, 0.5709499819204211, 0.5640000163111836, 0.592500000493601, 0.5682500195689499, 0.5768999981228262, 0.6040000007487833, 0.5748999828938395, 0.5683499912265688, 0.5818500067107379, 0.5599000141955912, 0.5661000031977892, 0.5807499983347952, 0.575200014282018, 0.5748499825131148, 0.5612499953713268, 0.5649499944411218, 0.5709000106435269, 0.5747500108554959, 0.5964000010862947, 0.5733500001952052, 0.599599996348843, 0.6197500042617321, 0.5622500029858202, 0.5694499996025115, 0.5996999971102923, 0.5713500140700489, 0.5653499974869192, 0.5775000026915222, 0.5770999996457249, 0.5740500055253506, 0.5711999838240445, 0.5724999937228858, 0.5775000026915222, 0.5727499956265092, 0.5841499951202422, 0.5589500069618225, 0.5691999976988882, 0.6132499838713557, 0.5727499956265092, 0.5715000152122229, 0.5973000079393387, 0.5632000102195889, 0.5651999963447452, 0.5872499896213412, 0.5655999993905425, 0.5746500100940466, 0.5697500018868595, 0.66230000811629, 0.5696000007446855, 0.5781500076409429, 0.5680500180460513, 0.5773000011686236, 0.5777500045951456, 0.7351500098593533, 0.7517500198446214, 0.7309000066015869, 0.6671499868389219, 0.6478000141214579, 0.6549999816343188, 0.736700021661818, 0.6570500263478607, 0.5677000153809786, 0.5716499872505665, 0.6004000024404377, 0.5868500156793743, 0.6057499849703163, 0.5697499727830291, 0.5759999912697822, 0.5740500055253506, 0.5593500100076199, 0.5767999973613769, 0.5972000071778893, 0.5645499913953245, 0.6400000129360706, 0.6016499828547239, 0.572100019780919, 0.5675499851349741, 0.6019000138621777, 0.5795500183012336, 0.5801999941468239, 0.5973000079393387, 0.5770999996457249, 0.5683000199496746, 0.5681999900843948, 0.5738500040024519, 0.5665500066243112, 0.5765999958384782, 0.5716499872505665, 0.580550025915727, 0.5730499979108572, 0.5699000030290335, 0.5825999833177775, 0.5732499994337559, 0.5646499921567738, 0.5691999976988882, 0.5813500029034913, 0.6089500093366951, 0.5800499930046499, 0.5689999961759895, 0.596049998421222, 0.5604999896604568, 0.5771500000264496, 0.5866999854333699, 0.575200014282018, 0.5620000010821968, 0.5752499855589122, 0.5999499990139157, 0.5662000039592385, 0.5657000001519918, 0.6738499796483666, 0.5692999984603375, 0.5763999943155795, 0.6020499859005213, 0.5986500182189047, 0.5605999904219061, 0.5683499912265688, 0.5720499902963638, 0.5784999812021852, 0.5914499924983829, 0.5972000071778893, 0.5742500070482492, 0.5676500150002539, 0.6078500009607524, 0.5700499750673771, 0.5720999906770885, 0.6023000169079751, 0.5968999757897109, 0.5665499775204808, 0.7204499852377921, 0.5426499992609024, 0.6999500037636608, 0.6989999965298921, 0.5897500086575747, 0.6964500062167645, 0.6531000253744423, 0.5991999933030456, 0.5652999971061945, 0.5790999857708812, 0.5601499869953841, 0.6483999895863235, 0.5474000063259155, 0.5710000114049762, 0.5714000144507736, 0.5986499891150743, 0.70444997982122, 0.6377999961841851, 0.6936500140000135, 0.5808499990962446, 0.5701000045519322, 0.6999500037636608, 0.6321000109892339, 0.6195000023581088, 0.5608000210486352, 0.6417999975383282, 0.6091000104788691, 0.5880000244360417, 0.5635000125039369, 0.7434999861288816, 0.5643000185955316, 0.6927999784238636, 0.6367500172927976, 0.5770499992650002, 0.5748999828938395, 0.5788000125903636, 0.5737500032410026, 0.7503500091843307, 0.5843500257469714, 0.6043000030331314, 0.5745999806094915, 0.5731999990530312, 0.5676500150002539, 0.5905499856453389, 0.5784500099252909, 0.5842499958816916, 0.5849000008311123, 0.5742500070482492, 0.5741000059060752, 0.5623500037472695, 0.5760999920312315, 0.5778499762527645, 0.5714499857276678, 0.5717999883927405, 0.5674999847542495, 0.5788000125903636, 0.6030999938957393, 0.5712500133085996, 0.5658500012941658, 0.5959999980404973, 0.5789999850094318, 0.5710000114049762, 0.5683499912265688, 0.5642500182148069, 0.5699000030290335, 0.6222999945748597, 0.5588000058196485, 0.5743000074289739, 0.5803999956697226, 0.5985000170767307, 0.5662500043399632, 0.591050018556416, 0.6191499996930361, 0.7282000151462853, 0.7103499956429005, 0.5617999995592982, 0.7292500231415033, 0.660100020468235, 0.6316500075627118, 0.6607499963138252, 0.5712499842047691, 0.5645500204991549, 0.5687999946530908, 0.5611999949906021, 0.5850500019732863, 0.5703500064555556, 0.5951999919489026, 0.5776500038336962, 0.5674500134773552],
  "Optimizer durations [ms]": [18.102, 12.472, 12.239, 13.01, 12.332, 12.38, 12.702, 12.339, 12.203, 12.531, 12.12, 12.321, 12.337, 12.228, 12.15, 12.23, 13.226, 14.496, 12.483, 13.0, 12.174, 12.099, 12.575, 12.606, 12.213, 13.49, 12.004, 12.295, 12.506, 12.492, 12.643, 12.38, 12.376, 12.358, 12.075, 12.763, 12.287, 12.611, 13.315, 12.8, 12.306, 12.186, 12.389, 12.45, 19.346, 12.306, 13.151, 12.406, 12.081, 12.352, 12.338, 13.215, 12.306, 12.193, 12.973, 12.45, 13.153, 13.46, 25.603, 18.644, 16.382, 22.808, 15.897, 17.118, 12.053, 12.463, 12.628, 13.057, 25.429, 15.979, 12.35, 12.377, 12.4, 12.272, 12.228, 12.795, 12.47, 12.681, 12.654, 12.324, 12.344, 12.488, 12.54, 12.718, 12.451, 12.695, 12.858, 12.412, 13.167, 12.217, 12.254, 12.77, 13.974, 12.626, 12.973, 12.223, 12.044, 12.523, 12.748, 12.561, 12.451, 12.494, 11.97, 12.678, 13.083, 12.451, 12.409, 12.765, 12.506, 12.7, 12.58, 12.475, 12.524, 12.78, 13.187, 12.259, 12.817, 13.135, 12.382, 13.842, 13.038, 12.597, 12.322, 12.976, 12.28, 12.551, 12.136, 12.715, 12.144, 12.305, 14.872, 12.371, 12.218, 17.072, 15.658, 20.123, 14.37, 17.268, 15.319, 13.874, 18.703, 12.572, 12.535, 12.756, 12.321, 12.365, 15.456, 18.044, 14.913, 12.288, 14.427, 13.249, 12.111, 24.69, 13.537, 15.064, 13.389, 13.499, 20.208, 13.27, 12.952, 12.376, 12.279, 29.417, 12.531, 15.06, 12.815, 12.665, 12.602, 12.272, 12.273, 13.869, 12.379, 12.668, 12.951, 13.696, 12.515, 13.008, 12.328, 12.519, 12.917, 12.073, 12.855, 12.522, 12.54, 12.415, 12.501, 12.726, 12.871, 12.559, 13.292, 12.47, 12.405, 12.94, 13.157, 12.115, 12.702, 12.498, 12.369, 13.231, 12.286, 12.454, 13.434, 12.59, 12.168, 13.671, 26.167, 27.29, 21.097, 19.721, 13.824, 13.055, 16.327, 12.448, 12.59, 28.206, 16.943, 12.328, 12.596, 12.376, 12.066, 12.171, 12.028, 13.192, 12.389, 12.472, 13.106, 12.242, 12.828, 12.628, 12.495, 12.06, 12.621, 12.332, 12.621, 12.203, 13.204, 12.052, 13.474, 14.253, 12.614, 12.247, 13.027, 12.291, 12.077, 12.619, 12.271, 13.171, 12.631, 12.869, 12.391, 12.705, 12.882, 12.572, 12.294, 12.388, 12.493, 12.524, 12.071, 12.465, 12.717, 12.699, 12.336, 12.976, 12.113, 12.959, 13.392, 12.373, 12.879, 12.65, 12.576, 12.544, 12.359, 12.361, 12.664, 12.438, 12.375, 12.435, 12.189, 12.356, 19.986, 15.624, 24.81, 24.296, 24.538, 13.266, 18.248, 12.296, 12.076, 14.118, 29.78, 12.428, 12.374, 12.525, 12.619, 12.423, 12.407, 12.471, 13.169, 12.037, 13.496, 12.868, 12.139, 12.526, 12.273, 13.251, 12.544, 12.31, 12.538, 12.326, 13.664, 13.87, 12.194, 12.123, 12.283, 12.491, 12.692, 15.715, 16.035, 12.64, 13.11, 12.603, 12.482, 12.953, 12.674, 12.443, 12.681, 12.598, 12.533, 12.372, 12.7, 12.184, 12.375, 12.979, 11.887, 12.703, 13.611, 12.912, 12.324, 12.728, 13.162, 12.303, 12.311, 12.106, 12.312, 12.21, 12.439, 12.317, 12.219, 12.529, 14.792, 12.58, 13.584, 12.823, 21.298, 15.916, 16.556, 19.076, 27.743, 13.486, 17.481, 12.883, 12.0, 12.482, 12.448, 12.07, 25.208, 12.686, 12.419, 15.684, 13.614, 12.502, 14.771, 19.119, 12.696, 14.795, 13.514, 12.66, 20.376, 13.096, 12.327, 12.721, 12.252, 30.515, 12.124, 14.097, 13.133, 12.716, 12.608, 12.414, 12.618, 12.35, 12.046, 12.469, 12.23, 12.488, 13.118, 12.111, 12.715, 13.08, 12.112, 12.694, 13.082, 12.374, 12.372, 12.388, 12.811, 12.511, 12.95, 13.042, 12.604, 12.305, 13.125, 13.011, 12.26, 12.829, 12.146, 12.758, 12.557, 12.576, 12.364, 12.462, 12.505, 13.646, 12.738, 13.707, 16.073, 15.696, 23.604, 15.9, 23.978, 17.689, 14.069, 12.716, 12.116, 12.599, 17.366, 20.857, 14.444, 12.594, 12.522, 12.462, 12.633, 12.439, 11.936, 12.351, 12.6, 12.034, 12.604, 11.98, 13.229, 12.719, 12.303, 12.894, 12.334, 12.178, 13.075, 12.049, 12.494, 12.38, 12.658, 16.388, 11.98, 12.327, 12.285, 12.477, 12.994, 12.338, 12.829, 15.233, 12.363, 12.186, 13.403, 12.389, 12.233, 12.594, 12.441, 12.408, 12.674, 12.57, 12.697, 12.259, 12.29, 12.446, 12.247, 13.195, 12.65, 12.173, 12.63, 12.364, 12.534, 12.901, 12.436, 12.379, 12.273, 14.251, 12.635, 12.766, 12.456, 12.672, 12.376, 15.61, 17.777, 21.466, 19.22, 17.824, 16.316, 16.293, 17.771, 12.576, 12.213, 12.936, 27.423, 13.279, 12.535, 12.293, 12.358, 12.357, 12.213, 13.179, 12.364, 13.891, 13.112, 12.284, 12.538, 13.03, 12.537, 12.491, 12.728, 12.662, 12.477, 12.554, 12.35, 12.415, 12.835, 12.34, 17.399, 12.405, 12.564, 12.569, 12.286, 12.229, 12.408, 13.218, 12.948, 12.497, 12.499, 12.989, 12.04, 12.798, 12.409, 12.218, 12.16, 12.626, 12.873, 12.521, 12.346, 14.202, 12.308, 12.637, 12.706, 12.841, 12.014, 12.505, 12.382, 12.644, 12.722, 13.103, 12.435, 12.029, 13.42, 12.498, 12.492, 13.183, 12.756, 12.455, 15.69, 17.419, 26.693, 19.351, 19.801, 15.362, 14.02, 21.041, 12.319, 12.569, 14.031, 13.983, 22.766, 12.107, 12.901, 13.096, 15.281, 13.788, 14.846, 20.671, 12.412, 14.86, 13.6, 13.07, 19.435, 13.78, 14.144, 12.555, 25.239, 16.113, 12.22, 14.59, 13.831, 12.617, 12.646, 12.632, 12.431, 15.821, 12.597, 12.781, 12.829, 12.224, 12.24, 12.802, 12.548, 12.669, 12.25, 12.548, 12.56, 12.419, 12.732, 12.606, 12.017, 12.416, 12.624, 12.623, 13.196, 12.324, 12.554, 12.782, 12.299, 12.55, 12.257, 12.254, 12.365, 13.492, 12.525, 12.367, 12.556, 13.067, 12.082, 13.06, 19.077, 15.491, 18.671, 26.601, 18.918, 15.184, 13.805, 26.895, 12.291, 27.522, 15.376, 12.393, 12.779, 12.449, 12.584, 12.702, 12.441],
  "Optimizer iterations": 665,
  "Qubits": 10,
  "Total Algorithm duration [s]": 9.084,
  "Total Classic duration [s]": 8.689029299855232,
  "Total Quantum duration [s]": 0.39497070014476776,
  "Expectation Value": -11.725332260131836,
  "Optimal Expectation Value": -12.381489753723145,
  "Optimizer params": [0.6246633813274521, 0.7531435198648029, 0.8825860291625288, 0.5973132603870538, 0.9138193802899177, 0.5786732725204399, 0.9210416233010846, 0.5739268894455781, 0.928750541362174, 0.5230347464923389, 0.5881368420089945, 0.5082296774788189, 0.48515929615642994, 0.5075802453453513, 0.49166272855972865, 0.5109443987220287, 0.47707914212655306, 0.4832561162654332, 0.5118755819999761, 0.8182522703283708, 0.49592421412823146, 0.5113117389548966, 0.5125491607497626, 0.5059737689895625, 0.5168099523337403, 0.5390403239953934, 0.5419495138967398, 0.5470675863715656, 0.5446238932575402, 0.5377223286427739, 0.5851332838289995, 0.5348002789275812, 0.5214684786159155, 0.5197846587524925, 0.5032244079669423, 0.4956381987432077, 0.526496988094955, 0.5004025263005667, 0.49077288021883403, 0.46767341173047183],
  "QPU": "7000000",
  "Problem": "IC",
  "Size": 10,
  "P": 0,
  "Shots": 4096
}