{
  "Circuit execution durations [ms]": [15.000000596046448, 13.500000350177288, 13.499999884516, 12.500000186264515, 14.500000048428774, 10.499999858438969, 11.500000022351742, 10.999999940395355, 13.999999966472387, 10.999999940395355, 12.500000186264515, 12.000000104308128, 12.500000186264515, 12.500000186264515, 13.500000350177288, 13.000000268220901, 11.500000022351742, 16.499999910593033, 12.000000104308128, 13.500000350177288, 12.000000104308128, 10.999999940395355, 12.500000186264515, 12.999999802559614, 12.000000104308128, 16.99999999254942, 12.500000186264515, 12.500000186264515, 12.500000186264515, 12.499999720603228, 15.999999828636646, 10.999999940395355, 13.499999884516, 12.000000104308128, 11.500000022351742, 12.000000104308128, 16.499999910593033, 18.499999772757292, 13.500000350177288, 12.000000104308128, 12.500000186264515, 14.999999664723873, 12.500000186264515, 14.500000048428774, 10.999999940395355, 12.499999720603228, 12.999999802559614, 14.000000432133675, 12.499999720603228, 13.9999995008111, 16.99999999254942, 14.499999582767487, 14.999999664723873, 13.500000350177288, 12.000000104308128, 11.500000022351742, 12.000000104308128, 14.000000432133675, 15.49999974668026, 11.500000022351742, 10.499999858438969, 10.999999940395355, 11.500000022351742, 13.000000268220901, 12.999999802559614, 12.000000104308128, 12.499999720603228, 12.000000104308128, 21.499999798834324, 14.999999664723873, 14.000000432133675, 14.999999664723873, 14.499999582767487, 10.999999940395355, 18.000000156462193, 13.500000350177288, 12.000000104308128, 14.500000048428774, 10.999999940395355, 10.999999940395355, 12.499999720603228, 13.499999884516, 13.000000268220901, 11.500000022351742, 13.000000268220901, 15.999999828636646, 23.50000012665987, 12.000000104308128, 12.499999720603228, 10.999999940395355, 12.000000104308128, 12.000000104308128, 10.499999858438969, 13.500000350177288, 12.000000104308128, 16.499999910593033, 12.500000186264515, 27.4999993853271],
  "Depth": 6.5,
  "Expectation Value": -0.98974609375,
  "Optimal Expectation Value": -2.2360680103302,
  "Optimizer durations [ms]": [11668.014, 11664.178, 11722.255, 11908.674, 12081.196, 11762.516, 11673.085, 11668.866, 11671.098, 11571.687, 11569.797, 11744.897, 11769.155, 12033.169, 11638.128, 11682.227, 11849.214, 11908.335, 11822.209, 11673.952, 11609.391, 11787.93, 11928.611, 11624.808, 12179.114, 11733.105, 11935.003, 11655.218, 11661.098, 12138.007, 11966.023, 11647.588, 11845.177, 12190.208, 11753.804, 11670.166, 11625.776, 11625.004, 11755.103, 11609.034, 11992.723, 11912.112, 11616.618, 11754.384, 11740.355, 11888.479, 11869.154, 11977.433, 11879.27, 11751.836, 11673.699, 12029.228, 11938.169, 11710.621, 11637.569, 11682.247, 11682.085, 11672.497, 11684.793, 11779.857, 11635.671, 11674.134, 11740.615, 11686.552, 11632.468, 11889.38, 11690.75, 11818.754, 11892.462, 11697.014, 12012.516, 11653.767, 11933.463, 11784.416, 11675.494, 11764.522, 11688.115, 11791.304, 11913.622, 12018.947, 11633.855, 11742.413, 11956.352, 11587.367, 11709.18, 11935.182, 11943.876, 11691.296, 11637.135, 11600.828, 11885.812, 11755.469, 11900.468, 11634.273, 11973.066, 11605.924, 12199.596, 12157.299],
  "Optimizer iterations": 98,
  "Optimizer params": [0.7518225602123813, 0.9872859508060763, 0.2781450836076047, 0.9441817930475472, 0.48536148534250934, 0.9865803178467127, 0.7020563558893516, 0.4246350570576402],
  "P": 0,
  "Problem": "IC",
  "QJob durations [ms]": [5759.476900100708, 5783.159494400024, 5815.743923187256, 5906.320571899414, 5957.68928527832, 5834.0559005737305, 5788.976669311523, 5787.845611572266, 5759.337425231934, 5737.627744674683, 5735.987424850464, 5824.796438217163, 5811.067819595337, 5969.6855545043945, 5771.4684009552, 5793.225526809692, 5877.785682678223, 5905.539274215698, 5863.053798675537, 5790.850877761841, 5756.840229034424, 5819.390773773193, 5918.644428253174, 5764.889240264893, 6040.933132171631, 5793.739795684814, 5919.544219970703, 5780.758619308472, 5783.1878662109375, 5995.084762573242, 5934.051990509033, 5774.9505043029785, 5874.43733215332, 6021.115064620972, 5829.782009124756, 5787.4650955200195, 5766.855716705322, 5739.965915679932, 5832.416772842407, 5754.871368408203, 5952.6002407073975, 5880.677700042725, 5759.829044342041, 5826.390027999878, 5823.080778121948, 5869.159936904907, 5886.288642883301, 5939.855575561523, 5891.148567199707, 5799.43323135376, 5787.637710571289, 5966.24493598938, 5921.164751052856, 5779.442310333252, 5772.783041000366, 5793.079376220703, 5795.666456222534, 5760.862588882446, 5794.614791870117, 5843.251466751099, 5771.915674209595, 5760.636329650879, 5824.1729736328125, 5794.171094894409, 5770.4176902771, 5893.813133239746, 5800.8997440338135, 5860.626935958862, 5898.021697998047, 5799.894332885742, 5930.1862716674805, 5779.382705688477, 5917.535781860352, 5843.604564666748, 5762.933015823364, 5834.724426269531, 5798.86531829834, 5847.293376922607, 5880.665302276611, 5963.144302368164, 5767.60458946228, 5825.619220733643, 5902.031183242798, 5746.584415435791, 5806.561470031738, 5921.510219573975, 5895.448923110962, 5796.858310699463, 5771.053314208984, 5754.577398300171, 5871.819496154785, 5830.599784851074, 5902.350902557373, 5772.143840789795, 5912.5707149505615, 5756.441116333008, 6051.210880279541, 6031.376361846924],
  "QPU": "10000001",
  "Qubits": 2,
  "Queue durations [ms]": [0.0, 0.0, 0.0, 0.0, 0.0, 0.0, 0.0, 0.0, 0.0, 0.0, 0.0, 0.0, 0.0, 0.0, 0.0, 0.0, 0.0, 0.0, 0.0, 0.0, 0.0, 0.0, 0.0, 0.0, 0.0, 0.0, 0.0, 0.0, 0.0, 0.0, 0.0, 0.0, 0.0, 0.0, 0.0, 0.0, 0.0, 0.0, 0.0, 0.0, 0.0, 0.0, 0.0, 0.0, 0.0, 0.0, 0.0, 0.0, 0.0, 0.0, 0.0, 0.0, 0.0, 0.0, 0.0, 0.0, 0.0, 0.0, 0.0, 0.0, 0.0, 0.0, 0.0, 0.0, 0.0, 0.0, 0.0, 0.0, 0.0, 0.0, 0.0, 0.0, 0.0, 0.0, 0.0, 0.0, 0.0, 0.0, 0.0, 0.0, 0.0, 0.0, 0.0, 0.0, 0.0, 0.0, 0.0, 0.0, 0.0, 0.0, 0.0, 0.0, 0.0, 0.0, 0.0, 0.0, 0.0, 0.0],
  "Shots": 4096,
  "Size": 2,
  "Total Algorithm duration [s]": 1155.039,
  "Total Classic duration [s]": 582.7839028491974,
  "Total Quantum duration [s]": 572.2550971508026
}
