{
  "Depth": 20.5,
  "Job durations [ms]": [16.2656307220459, 16.260266304016113, 16.051530838012695, 16.150951385498047, 16.132235527038574, 17.724275588989258, 15.883684158325195, 15.378713607788086, 15.266180038452148, 13.142704963684082, 14.794707298278809, 14.70804214477539, 14.820218086242676, 14.887213706970215, 15.064716339111328, 14.983892440795898, 14.641404151916504, 14.789342880249023, 14.995574951171875, 14.998435974121094, 14.987349510192871, 14.968276023864746, 14.600634574890137, 14.919877052307129, 14.916658401489258, 15.2435302734375, 15.218257904052734, 15.10322093963623, 14.978647232055664, 14.943599700927734, 14.863014221191406, 14.767765998840332, 14.916658401489258, 15.127420425415039, 15.012383460998535, 15.08939266204834, 15.066742897033691, 14.78731632232666, 16.99995994567871, 14.757156372070312, 15.124917030334473, 15.827178955078125, 14.76597785949707, 14.936447143554688, 14.927148818969727, 14.875054359436035, 14.747977256774902, 14.55533504486084, 15.164017677307129, 14.599323272705078, 14.682888984680176, 14.76430892944336, 15.000581741333008, 14.886140823364258, 14.93847370147705, 14.802098274230957, 14.719724655151367, 14.673471450805664, 14.830946922302246, 14.89400863647461, 17.138361930847168, 15.364289283752441, 14.902472496032715, 14.799952507019043, 15.144824981689453, 15.071749687194824, 14.991521835327148, 14.988064765930176, 14.870166778564453, 14.620184898376465, 14.613032341003418, 14.674067497253418, 14.833331108093262, 14.942288398742676, 14.927029609680176, 14.811873435974121, 15.01309871673584, 14.700174331665039, 14.733672142028809, 14.758467674255371, 14.859199523925781, 14.631509780883789, 15.859246253967285, 14.593243598937988, 15.090703964233398, 15.333890914916992, 15.064716339111328, 14.892339706420898, 14.698624610900879, 14.778852462768555, 14.811158180236816, 14.740228652954102, 14.821887016296387, 14.945626258850098, 16.70992374420166, 14.79184627532959, 14.874935150146484, 17.418861389160156, 14.910459518432617, 14.793157577514648, 15.1900053024292, 14.872431755065918, 14.821290969848633, 15.017390251159668, 14.999866485595703, 14.923810958862305, 14.793038368225098, 14.909863471984863, 14.908075332641602, 15.87224006652832, 14.886021614074707, 15.108823776245117, 15.150070190429688, 14.94443416595459, 15.170454978942871, 15.024423599243164, 14.960289001464844, 14.71257209777832, 14.84072208404541, 14.815211296081543, 14.8695707321167, 15.114068984985352, 14.783263206481934, 14.884233474731445, 15.0984525680542, 15.027761459350586, 14.981508255004883, 14.914155006408691, 14.959573745727539, 15.130400657653809, 14.952301979064941, 14.739274978637695, 14.828681945800781, 15.263199806213379, 14.938592910766602, 14.987945556640625, 16.445159912109375, 15.212059020996094, 14.936327934265137, 14.978885650634766, 15.059351921081543, 15.015482902526855, 15.013813972473145, 15.042543411254883, 15.018105506896973, 15.04504680633545, 15.15352725982666, 15.21611213684082, 15.065193176269531, 14.802098274230957, 14.716029167175293, 14.752030372619629, 14.88351821899414, 14.919757843017578, 15.090584754943848, 15.648603439331055, 14.674663543701172, 14.774799346923828, 14.699816703796387, 14.832377433776855, 16.74950122833252, 14.994978904724121, 15.143871307373047, 15.001177787780762, 15.143990516662598, 14.894723892211914, 15.227556228637695, 14.806389808654785, 14.630913734436035, 14.707446098327637, 14.712214469909668, 15.200018882751465, 15.4036283493042, 15.052199363708496, 15.027284622192383, 14.90771770477295, 15.454649925231934, 15.34879207611084, 14.971256256103516, 14.850258827209473, 14.814615249633789, 15.001058578491211, 15.009403228759766, 14.944911003112793, 15.102267265319824, 15.110015869140625, 14.98270034790039, 14.934182167053223, 15.078306198120117, 14.93370532989502, 14.85586166381836, 14.58895206451416, 18.352031707763672, 18.476486206054688, 18.47696304321289, 18.475055694580078, 18.537282943725586, 18.645882606506348, 16.936659812927246, 14.904260635375977, 14.914989471435547, 15.301108360290527, 14.947652816772461, 15.07878303527832, 14.659285545349121, 15.08796215057373, 14.984846115112305, 14.968037605285645, 14.812946319580078, 15.141487121582031, 15.139102935791016, 15.012979507446289, 14.972329139709473, 18.06962490081787, 14.889001846313477, 14.952301979064941, 14.8698091506958, 15.428900718688965, 15.0604248046875, 15.310168266296387, 15.059709548950195, 14.98556137084961, 14.898300170898438, 14.82856273651123, 14.687895774841309, 14.629364013671875, 14.922142028808594, 15.169024467468262, 15.222668647766113, 14.978170394897461, 14.629364013671875, 14.963150024414062, 14.76442813873291, 15.226483345031738, 14.59193229675293, 15.092134475708008, 14.948368072509766, 14.933943748474121, 15.022754669189453, 14.649271965026855, 14.728188514709473, 14.516234397888184, 14.93072509765625, 15.073060989379883, 14.894723892211914, 15.165209770202637, 14.905929565429688, 15.190482139587402, 15.250325202941895, 14.90938663482666, 14.728069305419922, 14.838576316833496, 14.911174774169922, 14.963388442993164, 14.813661575317383, 14.840126037597656, 14.934659004211426, 14.904379844665527, 14.917731285095215, 14.98103141784668, 15.070080757141113, 14.723420143127441, 14.881134033203125, 14.97805118560791, 14.757156372070312, 14.786005020141602, 14.99485969543457, 14.85598087310791, 14.954328536987305, 14.844536781311035, 14.932632446289062, 15.032291412353516, 14.731645584106445, 15.05124568939209, 14.862537384033203, 15.157818794250488, 15.119671821594238, 15.301823616027832, 14.909505844116211, 14.751791954040527, 14.689087867736816, 14.616608619689941, 14.86814022064209, 14.886260032653809, 14.680862426757812, 15.120506286621094, 14.946460723876953, 14.904379844665527, 15.466094017028809, 14.799714088439941, 15.228509902954102, 14.82844352722168, 15.221953392028809, 14.918208122253418, 15.056133270263672, 14.644026756286621, 14.619946479797363, 14.801621437072754, 14.805793762207031, 14.54782485961914, 14.972805976867676, 15.133261680603027, 14.830231666564941, 14.976978302001953, 14.631390571594238, 16.06452465057373, 14.871716499328613, 15.1139497756958, 14.985322952270508, 16.290903091430664, 14.983892440795898, 14.995098114013672, 15.046119689941406, 14.96875286102295, 14.989018440246582, 14.813542366027832, 15.110611915588379, 14.918804168701172, 14.634847640991211, 14.683246612548828, 14.790534973144531, 15.018224716186523, 15.037178993225098, 14.629364013671875, 14.62864875793457, 15.095949172973633, 14.82546329498291, 14.881253242492676, 15.13981819152832, 14.932632446289062, 15.086054801940918, 15.097260475158691, 14.854192733764648, 15.101313591003418, 15.015125274658203, 15.096902847290039, 15.035033226013184, 15.118241310119629, 14.91856575012207, 14.790177345275879, 15.054702758789062, 14.972805976867676, 14.678359031677246, 15.256404876708984, 14.9916410446167, 15.258193016052246, 14.868021011352539, 15.034317970275879, 14.952659606933594, 15.082836151123047, 14.827370643615723, 14.996886253356934, 15.025138854980469, 15.062928199768066, 14.831900596618652, 14.984846115112305, 14.980077743530273, 14.814376831054688, 15.195846557617188, 15.06805419921875, 14.942646026611328, 14.874696731567383, 14.980196952819824, 15.025973320007324, 15.15960693359375, 14.64831829071045, 14.817237854003906, 14.777302742004395, 14.572858810424805, 14.723420143127441, 14.672636985778809, 14.688611030578613, 14.716148376464844, 15.129566192626953, 14.95206356048584, 14.99640941619873, 14.768600463867188, 14.712691307067871, 14.710426330566406, 15.6935453414917, 14.86515998840332, 14.893293380737305, 14.843463897705078, 15.174627304077148, 14.92297649383545, 15.067100524902344, 15.156149864196777, 14.967679977416992, 15.203475952148438, 14.556527137756348, 14.971137046813965, 15.025615692138672, 15.11538028717041, 14.980792999267578, 15.022993087768555, 14.734029769897461],
  "Optimizer durations [ms]": [288.984, 237.386, 239.13, 286.973, 237.37, 239.151, 285.299, 234.81, 235.602, 283.584, 234.243, 233.042, 287.754, 234.734, 234.442, 282.711, 234.171, 233.887, 284.19, 235.682, 235.646, 284.354, 235.877, 234.723, 283.791, 236.125, 242.164, 283.491, 234.723, 234.031, 285.497, 233.544, 234.696, 284.817, 235.718, 236.222, 285.767, 237.501, 250.601, 285.339, 243.208, 239.79, 284.281, 237.661, 235.827, 289.487, 234.339, 236.875, 287.991, 236.525, 238.71, 287.805, 235.116, 239.384, 283.836, 236.614, 236.48, 285.553, 237.496, 236.444, 290.619, 237.72, 237.155, 283.888, 237.808, 238.911, 290.916, 239.205, 236.082, 282.016, 233.42, 233.087, 280.872, 238.328, 237.264, 286.781, 236.594, 235.289, 283.433, 235.437, 236.462, 286.292, 238.805, 236.873, 286.751, 238.364, 237.711, 283.078, 237.194, 240.045, 286.298, 234.169, 236.016, 287.674, 240.604, 235.203, 282.975, 248.643, 243.178, 284.097, 239.32, 240.838, 282.567, 237.302, 237.564, 282.809, 234.302, 234.819, 280.808, 238.978, 236.934, 285.592, 238.808, 237.546, 285.712, 238.332, 237.795, 282.068, 234.49, 234.33, 286.724, 236.488, 237.881, 289.152, 242.184, 238.957, 286.994, 236.995, 244.595, 288.973, 238.034, 244.978, 286.981, 239.311, 238.48, 287.145, 243.089, 239.531, 284.327, 239.426, 239.522, 284.532, 237.324, 239.548, 285.973, 239.862, 238.931, 284.951, 240.96, 235.099, 279.59, 236.406, 239.379, 284.614, 238.315, 253.94, 282.996, 234.099, 234.356, 280.487, 248.174, 237.81, 285.092, 238.524, 238.819, 283.355, 238.0, 238.405, 281.188, 234.144, 234.728, 282.88, 240.34, 237.601, 284.027, 237.659, 239.917, 285.515, 238.058, 238.601, 287.94, 236.772, 237.912, 285.328, 265.89, 248.729, 290.495, 238.357, 236.859, 279.462, 234.539, 235.775, 324.779, 281.959, 281.68, 338.657, 284.036, 284.186, 338.747, 239.237, 238.931, 285.744, 239.229, 239.118, 283.041, 237.743, 241.625, 283.597, 237.548, 238.465, 286.965, 238.761, 236.855, 292.024, 241.627, 236.119, 284.173, 239.526, 237.702, 285.048, 238.141, 238.838, 282.449, 235.065, 233.573, 282.324, 238.347, 239.624, 298.956, 235.831, 235.058, 280.249, 234.677, 235.28, 283.564, 241.551, 236.992, 284.53, 239.538, 233.474, 279.244, 233.872, 238.888, 283.63, 236.69, 238.899, 284.558, 239.703, 238.798, 283.222, 235.898, 234.515, 279.998, 234.977, 237.865, 281.5, 237.975, 238.659, 287.148, 238.043, 240.591, 284.926, 242.483, 238.205, 284.433, 237.898, 239.091, 284.215, 237.078, 239.878, 285.817, 238.394, 246.788, 284.69, 239.837, 238.041, 283.94, 244.387, 238.27, 279.843, 234.815, 234.047, 284.12, 234.235, 234.534, 282.618, 239.283, 241.178, 285.534, 238.097, 239.159, 283.857, 237.998, 236.319, 282.133, 237.054, 234.11, 281.703, 245.868, 234.446, 280.286, 235.277, 236.277, 280.575, 234.486, 237.725, 284.115, 238.195, 237.643, 286.247, 238.216, 238.715, 284.881, 237.359, 238.607, 282.469, 238.003, 236.546, 282.928, 234.594, 234.05, 281.557, 238.571, 233.82, 279.675, 237.597, 237.716, 288.609, 239.198, 243.27, 285.422, 245.361, 234.818, 280.845, 235.347, 241.757, 284.692, 239.893, 237.801, 283.173, 237.456, 237.434, 284.985, 239.189, 238.456, 285.163, 238.527, 237.812, 283.452, 244.4, 237.71, 285.589, 237.825, 238.758, 284.039, 237.922, 237.664, 289.015, 239.896, 239.565, 284.021, 239.43, 237.802, 284.283, 237.529, 235.902, 279.399, 234.862, 233.568, 289.887, 233.813, 233.898, 278.891, 245.731, 237.419, 285.137, 236.887, 242.659, 279.278, 236.223, 234.821, 284.227, 238.154, 245.076, 284.152, 238.238, 238.932, 283.606, 237.944, 235.718, 284.495, 252.411, 237.589, 287.262, 238.603, 236.595],
  "Optimizer iterations": 396,
  "Qubits": 9,
  "Total Algorithm duration [s]": 100.744,
  "Total Classic duration [s]": 94.77712146663666,
  "Total Quantum duration [s]": 5.966878533363342,
  "Expectation Value": -8.01416015625,
  "Optimal Expectation Value": -11.109565734863281,
  "Optimizer params": [0.7346788195763421, 0.7458517883849775, 0.7541486427093926, 0.7442663567807325, 0.7454162315797476, 0.7466550752631667, 0.7455019131993418, 0.7642972656195117, 0.49943247266684576, 0.4930537441616137, 0.5068645738411205, 0.49351609699821086, 0.49316063554087985, 0.49358944358729107, 0.49323751394635, 0.4932469844203286, 0.49336155779017904, 0.49938126064143856, 0.4946504739768317, 0.4804052064030074, 0.4875038997213388, 0.4866291951558368, 0.4873768384210185, 0.4878741901138458, 0.4855853913829682, 0.4857694656620191, 0.49315111523967403, 0.4970655047400817, 0.4885290325489695, 0.4860420577912126, 0.4857370045544444, 0.4866320279223261, 0.48676947990131203, 0.48587103182873637, 0.49710716082125533, 0.491116662173763],
  "QPU": "3010002",
  "Problem": "IC",
  "Size": 9,
  "P": 0,
  "Shots": 4096
}