{
  "Depth": 2.0,
  "Job durations [ms]": [14.283000025898218, 14.15749965235591, 13.868500012904406, 47.78300039470196, 14.23700014129281, 14.039500150829554, 14.241500291973352, 14.343500137329102, 14.109500218182802, 14.061500318348408, 14.110999647527933, 14.13699984550476, 14.330500271171331, 14.808999840170145, 14.040499925613403, 14.026000164449215, 14.17549978941679, 14.273500069975853, 46.75199883058667, 14.261499978601933, 14.267500024288893, 14.212500303983688, 14.233499765396118, 14.343000017106533, 14.160499908030033, 14.070000033825636],
  "Optimizer durations [ms]": [30.629, 30.171, 29.49, 97.783, 30.438, 29.68, 30.197, 30.345, 29.917, 29.844, 29.873, 29.979, 30.307, 31.272, 29.663, 29.682, 30.09, 30.286, 95.349, 30.283, 30.231, 30.078, 30.346, 30.707, 29.931, 29.787],
  "Optimizer iterations": 26,
  "Qubits": 2,
  "Total Algorithm duration [s]": 0.916,
  "Total Classic duration [s]": 0.4806720002405346,
  "Total Quantum duration [s]": 0.43532799975946546,
  "Expectation Value": -1.4114999771118164,
  "Optimal Expectation Value": -1.4114999771118164,
  "Optimizer params": [0.6368340900552701, 0.4776879664683172],
  "QPU": "9000001",
  "Problem": "RH",
  "Size": 2,
  "P": 0,
  "Shots": 4096
}