{
  "Depth": 2.0,
  "Expectation Value": -1.4114999771118164,
  "Job durations [ms]": [0.08250000246334821, 0.07055000241962261, 0.07104999895091169, 0.08470000102533959, 0.07519999780924991, 0.07949999780976214, 0.07580000237794593, 0.07420000110869296, 0.18929999714600854, 0.06969999958528206, 0.2638000041770283, 0.08089999755611643, 0.07934999666758813, 0.08059999890974723, 0.07560000085504726, 0.07330000153160654, 0.07085000106599182, 0.10060000204248354, 0.07064999954309314, 0.23219999638968147, 0.06804999793530442, 0.06885000038892031],
  "Optimal Expectation Value": -1.4114999771118164,
  "Optimizer durations [ms]": [17.041, 17.69, 17.149, 18.985, 17.042, 21.835, 14.232, 21.328, 13.166, 19.603, 17.065, 18.125, 17.344, 16.21, 18.348, 11.583, 21.875, 11.247, 21.013, 16.959, 21.365, 19.284],
  "Optimizer iterations": 22,
  "Optimizer params": [1.0, 0.5009344868654901],
  "P": 0,
  "Problem": "RH",
  "QPU": "7000000",
  "Qubits": 2,
  "Shots": 4096,
  "Size": 2,
  "Total Algorithm duration [s]": 0.388,
  "Total Classic duration [s]": 0.38586275000224124,
  "Total Quantum duration [s]": 0.0021372499977587722
}
