{
  "Depth": 2.0,
  "Expectation Value": -1.4114999771118164,
  "Job durations [ms]": [0.24950000079115853, 0.1749500079313293, 0.07964999895193614, 0.07620000178576447, 0.0760000002628658, 0.07884999649832025, 0.22855000133858994, 0.07480000203941017, 0.0789500008977484, 0.1666000061959494, 0.13014999785809778, 0.08259999958681874, 0.07495000318158418, 0.07985000047483481, 0.0747499980207067, 0.16254999354714528, 0.2555999999458436, 0.12559999959194101, 0.07075000030454248, 0.07040000127744861, 0.07634999928995967, 0.22944999727769755],
  "Optimal Expectation Value": -1.4114999771118164,
  "Optimizer durations [ms]": [20.827, 21.058, 13.123, 11.412, 13.599, 11.433, 21.14, 11.325, 19.39, 15.702, 20.614, 21.42, 14.901, 21.271, 21.083, 13.634, 14.274, 17.776, 19.891, 20.534, 15.661, 15.87],
  "Optimizer iterations": 22,
  "Optimizer params": [1.0, 0.5009344868654901],
  "P": 0,
  "Problem": "RH",
  "QPU": "7000000",
  "Qubits": 2,
  "Shots": 4096,
  "Size": 2,
  "Total Algorithm duration [s]": 0.375,
  "Total Classic duration [s]": 0.3722829499929503,
  "Total Quantum duration [s]": 0.002717050007049693
}
