{
  "Depth": 2.0,
  "Expectation Value": -1.4114999771118164,
  "Job durations [ms]": [0.08864999836077914, 0.07834999996703118, 0.17714999921736307, 0.07080000068526715, 0.2254999963042792, 0.07720000212430023, 0.06930000017746352, 0.08340000204043463, 0.11780000204453245, 0.07919999916339293, 0.07470000127796084, 0.08405000335187651, 0.07605000064359047, 0.07365000055870041, 0.2755499954218976, 0.08915000216802582, 0.10609999662847258, 0.08270000034826808, 0.08200000229408033, 0.06955000208108686, 0.07004999861237593, 0.07564999759779312],
  "Optimal Expectation Value": -1.4114999771118164,
  "Optimizer durations [ms]": [16.904, 19.263, 16.324, 19.264, 19.457, 21.529, 13.658, 21.522, 19.612, 21.345, 18.515, 17.596, 13.609, 9.079, 20.215, 22.078, 21.255, 17.65, 21.766, 21.145, 14.134, 20.107],
  "Optimizer iterations": 22,
  "Optimizer params": [1.0, 0.5009344868654901],
  "P": 0,
  "Problem": "RH",
  "QPU": "7000000",
  "Qubits": 2,
  "Shots": 4096,
  "Size": 2,
  "Total Algorithm duration [s]": 0.406,
  "Total Classic duration [s]": 0.40377344999893106,
  "Total Quantum duration [s]": 0.002226550001068972
}
