{
  "Depth": 2.0,
  "Expectation Value": -1.4114999771118164,
  "Job durations [ms]": [0.17615000251680613, 0.0789500008977484, 0.0822000001790002, 0.07795000055921264, 0.0730499996279832, 0.07259999983943999, 0.1709000025584828, 0.27039999986300245, 0.07395000284304842, 0.08639999941806309, 0.1628499958314933, 0.19149999934597872, 0.06845000098110177, 0.07874999937484972, 0.2706499944906682, 0.06835000021965243, 0.07824999920558184, 0.2611500021885149, 0.07885000013629906, 0.06724999911966734, 0.07144999835873023, 0.07904999802121893],
  "Optimal Expectation Value": -1.4114999771118164,
  "Optimizer durations [ms]": [19.235, 20.693, 14.14, 18.221, 13.767, 20.942, 19.402, 19.79, 19.279, 19.688, 13.306, 17.145, 18.97, 18.707, 15.939, 15.562, 17.185, 20.274, 16.153, 19.385, 19.003, 20.02],
  "Optimizer iterations": 22,
  "Optimizer params": [1.0, 0.5009344868654901],
  "P": 0,
  "Problem": "RH",
  "QPU": "7000000",
  "Qubits": 2,
  "Shots": 4096,
  "Size": 2,
  "Total Algorithm duration [s]": 0.396,
  "Total Classic duration [s]": 0.3933609000044235,
  "Total Quantum duration [s]": 0.0026390999955765437
}
