{
  "Circuit execution durations [ms]": [1.2908, 1.2588, 1.2898, 1.2838999999999998, 1.2777, 1.2692, 1.2752, 1.3069, 1.2618, 1.289, 1.2809, 1.2834, 1.2671, 1.2841, 1.2635999999999998, 1.2832, 1.2789, 1.2662, 1.2698, 1.2693999999999999, 1.2607, 1.2975, 1.2806, 1.2865000000000002, 1.2750000000000001, 1.2666000000000002, 1.2867, 1.2837, 1.2821, 1.2619, 1.181, 1.2432, 1.2718, 1.2776, 1.277, 1.2619, 1.5537, 1.2828, 1.2729, 1.5172, 1.3358, 1.4977, 1.2299, 1.3728, 1.4894, 1.3653, 1.4829, 1.4936, 1.5443, 1.2495, 1.2661, 1.2574, 1.2693999999999999, 1.2532999999999999, 1.2792999999999999, 1.2498, 1.2597, 1.2615, 1.2771, 1.2688000000000001, 1.2673, 1.3436, 1.2931, 1.3308, 1.2567, 1.276, 1.2648, 1.2796999999999998, 1.2899999999999998, 1.2675, 1.3016, 1.2567, 1.2582, 1.2703, 1.251, 1.2943, 1.322, 1.2833, 1.2893, 1.2658, 1.2743, 1.277, 1.2706, 1.2728, 1.2782, 1.2662, 1.2669000000000001, 1.2598, 1.3335000000000001, 1.2792999999999999, 1.2567, 1.2731000000000001, 1.2768, 1.2817, 1.2718, 1.2803, 1.2692, 1.2784, 1.2757, 1.3269, 1.2754999999999999, 1.5043000000000002, 1.2683, 1.2511, 1.2831, 1.2702, 1.271, 1.3278999999999999, 1.259, 1.2651, 1.2644, 1.2848],
  "Depth": 185.0,
  "Expectation Value": -12.3645601272583,
  "Optimal Expectation Value": -14.0,
  "Optimizer durations [ms]": [13.489, 13.429, 13.591, 13.219, 13.458, 13.229, 13.352, 13.816, 12.99, 13.717, 13.447, 13.461, 13.335, 13.427, 13.217, 13.351, 13.195, 13.444, 13.226, 13.335, 13.138, 13.612, 13.556, 13.395, 13.146, 13.195, 13.475, 13.539, 14.499, 13.31, 21.454, 13.247, 13.945, 13.366, 16.438, 13.191, 16.192, 17.734, 13.183, 15.911, 13.787, 15.491, 16.511, 14.358, 15.555, 14.327, 15.547, 22.442, 17.063, 12.821, 13.374, 18.088, 13.071, 13.436, 13.364, 13.015, 12.915, 13.413, 13.32, 13.172, 13.322, 13.924, 13.563, 13.714, 13.288, 13.379, 13.202, 13.293, 13.244, 13.459, 13.683, 12.913, 13.306, 13.418, 12.814, 13.682, 13.758, 13.408, 13.459, 13.084, 13.259, 13.312, 13.588, 13.418, 13.375, 13.017, 13.39, 13.263, 13.887, 13.272, 12.995, 13.333, 13.143, 13.656, 13.22, 13.307, 13.307, 13.305, 13.407, 13.589, 23.088, 17.858, 13.151, 13.193, 13.355, 13.295, 13.327, 13.619, 13.408, 13.227, 13.181, 13.297],
  "Optimizer iterations": 112,
  "Optimizer params": [0.7600505784007119, 0.9376233087726231, 0.9313312179799781, 0.7642026674607939, 0.14655575255109346, 0.14094726953345152],
  "P": 3,
  "Problem": "MCP",
  "QJob durations [ms]": [1.2908, 1.2588, 1.2898, 1.2838999999999998, 1.2777, 1.2692, 1.2752, 1.3069, 1.2618, 1.289, 1.2809, 1.2834, 1.2671, 1.2841, 1.2635999999999998, 1.2832, 1.2789, 1.2662, 1.2698, 1.2693999999999999, 1.2607, 1.2975, 1.2806, 1.2865000000000002, 1.2750000000000001, 1.2666000000000002, 1.2867, 1.2837, 1.2821, 1.2619, 1.181, 1.2432, 1.2718, 1.2776, 1.277, 1.2619, 1.5537, 1.2828, 1.2729, 1.5172, 1.3358, 1.4977, 1.2299, 1.3728, 1.4894, 1.3653, 1.4829, 1.4936, 1.5443, 1.2495, 1.2661, 1.2574, 1.2693999999999999, 1.2532999999999999, 1.2792999999999999, 1.2498, 1.2597, 1.2615, 1.2771, 1.2688000000000001, 1.2673, 1.3436, 1.2931, 1.3308, 1.2567, 1.276, 1.2648, 1.2796999999999998, 1.2899999999999998, 1.2675, 1.3016, 1.2567, 1.2582, 1.2703, 1.251, 1.2943, 1.322, 1.2833, 1.2893, 1.2658, 1.2743, 1.277, 1.2706, 1.2728, 1.2782, 1.2662, 1.2669000000000001, 1.2598, 1.3335000000000001, 1.2792999999999999, 1.2567, 1.2731000000000001, 1.2768, 1.2817, 1.2718, 1.2803, 1.2692, 1.2784, 1.2757, 1.3269, 1.2754999999999999, 1.5043000000000002, 1.2683, 1.2511, 1.2831, 1.2702, 1.271, 1.3278999999999999, 1.259, 1.2651, 1.2644, 1.2848],
  "QPU": "7000000",
  "Qubits": 10,
  "Queue durations [ms]": [0.0, 0.0, 0.0, 0.0, 0.0, 0.0, 0.0, 0.0, 0.0, 0.0, 0.0, 0.0, 0.0, 0.0, 0.0, 0.0, 0.0, 0.0, 0.0, 0.0, 0.0, 0.0, 0.0, 0.0, 0.0, 0.0, 0.0, 0.0, 0.0, 0.0, 0.0, 0.0, 0.0, 0.0, 0.0, 0.0, 0.0, 0.0, 0.0, 0.0, 0.0, 0.0, 0.0, 0.0, 0.0, 0.0, 0.0, 0.0, 0.0, 0.0, 0.0, 0.0, 0.0, 0.0, 0.0, 0.0, 0.0, 0.0, 0.0, 0.0, 0.0, 0.0, 0.0, 0.0, 0.0, 0.0, 0.0, 0.0, 0.0, 0.0, 0.0, 0.0, 0.0, 0.0, 0.0, 0.0, 0.0, 0.0, 0.0, 0.0, 0.0, 0.0, 0.0, 0.0, 0.0, 0.0, 0.0, 0.0, 0.0, 0.0, 0.0, 0.0, 0.0, 0.0, 0.0, 0.0, 0.0, 0.0, 0.0, 0.0, 0.0, 0.0, 0.0, 0.0, 0.0, 0.0, 0.0, 0.0, 0.0, 0.0, 0.0, 0.0],
  "Shots": 4096,
  "Size": 10,
  "Total Algorithm duration [s]": 1.561,
  "Total Classic duration [s]": 1.4160704,
  "Total Quantum duration [s]": 0.1449295999999999
}
