{
  "Circuit execution durations [ms]": [1.4939, 1.3075, 1.5279, 1.2599, 1.299, 1.2741, 1.2913, 1.2692, 1.2639, 1.3082, 1.2683, 1.2773999999999999, 1.2905, 1.2683, 1.2807000000000002, 1.2796999999999998, 1.2780999999999998, 1.2857999999999998, 1.2627000000000002, 1.2722, 1.2592, 1.2960999999999998, 1.2767, 1.2623, 1.2868, 1.2937999999999998, 1.285, 1.2792999999999999, 1.2588, 1.2752, 1.2818, 1.2638, 1.2658, 1.2746000000000002, 1.2895999999999999, 1.2673, 1.3422, 1.2675, 1.2825, 1.2637, 1.2861, 1.2725, 1.2762, 1.2757, 1.2706, 1.2723, 1.2752, 1.2641, 1.2535999999999998, 1.2597, 1.3081, 1.2737, 1.2992, 1.2969, 1.2792999999999999, 1.451, 1.2684, 1.2749000000000001, 1.2910000000000001, 1.302, 1.3298999999999999, 1.2734, 1.2635999999999998, 1.2632999999999999, 1.2734, 1.2577, 1.2971000000000001, 1.252],
  "Depth": 185.0,
  "Expectation Value": -12.579386711120605,
  "Optimal Expectation Value": -14.0,
  "Optimizer durations [ms]": [15.399, 23.517, 16.442, 13.196, 15.957, 13.251, 13.531, 13.154, 13.206, 13.819, 13.19, 13.371, 13.295, 13.349, 13.384, 13.234, 13.524, 13.437, 13.354, 13.058, 13.193, 13.681, 13.366, 13.023, 13.65, 13.393, 13.266, 13.378, 13.275, 13.241, 13.63, 13.185, 13.027, 13.41, 13.602, 13.245, 14.067, 13.288, 13.364, 13.203, 13.489, 13.193, 13.236, 13.145, 13.491, 13.37, 13.127, 13.364, 13.188, 13.181, 13.706, 13.253, 13.388, 13.625, 23.121, 17.419, 13.309, 13.298, 13.409, 13.507, 13.828, 13.319, 13.379, 12.975, 13.777, 12.923, 13.512, 13.104],
  "Optimizer iterations": 68,
  "Optimizer params": [0.3099719767658751, 0.568389089257247, 0.1750909443725213, 0.0022031010316794918, 0.40318749108910285, 0.0005773237177680577],
  "P": 3,
  "Problem": "MCP",
  "QJob durations [ms]": [1.4939, 1.3075, 1.5279, 1.2599, 1.299, 1.2741, 1.2913, 1.2692, 1.2639, 1.3082, 1.2683, 1.2773999999999999, 1.2905, 1.2683, 1.2807000000000002, 1.2796999999999998, 1.2780999999999998, 1.2857999999999998, 1.2627000000000002, 1.2722, 1.2592, 1.2960999999999998, 1.2767, 1.2623, 1.2868, 1.2937999999999998, 1.285, 1.2792999999999999, 1.2588, 1.2752, 1.2818, 1.2638, 1.2658, 1.2746000000000002, 1.2895999999999999, 1.2673, 1.3422, 1.2675, 1.2825, 1.2637, 1.2861, 1.2725, 1.2762, 1.2757, 1.2706, 1.2723, 1.2752, 1.2641, 1.2535999999999998, 1.2597, 1.3081, 1.2737, 1.2992, 1.2969, 1.2792999999999999, 1.451, 1.2684, 1.2749000000000001, 1.2910000000000001, 1.302, 1.3298999999999999, 1.2734, 1.2635999999999998, 1.2632999999999999, 1.2734, 1.2577, 1.2971000000000001, 1.252],
  "QPU": "7000000",
  "Qubits": 10,
  "Queue durations [ms]": [0.0, 0.0, 0.0, 0.0, 0.0, 0.0, 0.0, 0.0, 0.0, 0.0, 0.0, 0.0, 0.0, 0.0, 0.0, 0.0, 0.0, 0.0, 0.0, 0.0, 0.0, 0.0, 0.0, 0.0, 0.0, 0.0, 0.0, 0.0, 0.0, 0.0, 0.0, 0.0, 0.0, 0.0, 0.0, 0.0, 0.0, 0.0, 0.0, 0.0, 0.0, 0.0, 0.0, 0.0, 0.0, 0.0, 0.0, 0.0, 0.0, 0.0, 0.0, 0.0, 0.0, 0.0, 0.0, 0.0, 0.0, 0.0, 0.0, 0.0, 0.0, 0.0, 0.0, 0.0, 0.0, 0.0, 0.0, 0.0],
  "Shots": 4096,
  "Size": 10,
  "Total Algorithm duration [s]": 0.939,
  "Total Classic duration [s]": 0.8514085,
  "Total Quantum duration [s]": 0.08759149999999995
}
