{
  "Circuit execution durations [ms]": [1.3066, 1.3049, 1.2897, 1.2798, 1.2698, 1.2584, 1.2792000000000001, 1.2705, 1.2837, 1.2712, 1.2723, 1.2738999999999998, 1.2752, 1.2715999999999998, 1.2986, 1.2696, 1.3741, 1.2806, 1.2669000000000001, 1.2886, 1.2639, 1.2654999999999998, 1.2747, 1.3336999999999999, 1.2645, 1.3305, 1.3059, 1.2635999999999998, 1.2553, 1.2523, 1.2684, 1.2742, 1.2504, 1.2834, 1.2725, 1.2715, 1.2573, 1.2676, 1.2783, 1.2921, 1.2654999999999998, 1.2698, 1.2767, 1.2568, 1.2651999999999999, 1.2579, 1.3427, 1.2854999999999999, 1.2773, 1.2675, 1.2721, 1.2785, 1.2804, 1.3546, 1.2464, 1.2792000000000001, 1.2595, 1.2551999999999999, 1.2784, 1.2572, 1.2737, 1.3102, 1.2537, 1.56, 1.3028, 1.2558999999999998, 1.2588, 1.2866, 1.3574, 1.3012, 1.276, 1.2685000000000002, 1.2949000000000002, 1.2685000000000002, 1.5653],
  "Depth": 185.0,
  "Expectation Value": -12.53995418548584,
  "Optimal Expectation Value": -14.0,
  "Optimizer durations [ms]": [13.653, 13.755, 13.328, 13.508, 13.129, 13.288, 13.403, 13.088, 13.513, 13.139, 13.263, 13.354, 13.421, 13.474, 13.703, 13.344, 14.348, 13.471, 13.405, 13.335, 13.401, 12.989, 13.573, 13.727, 13.353, 13.666, 13.844, 13.304, 12.884, 13.345, 13.0, 13.604, 13.079, 13.507, 13.391, 13.243, 13.099, 13.375, 13.119, 13.612, 13.176, 13.305, 13.434, 13.091, 13.024, 13.112, 14.209, 13.181, 13.415, 13.37, 13.124, 13.468, 13.251, 13.959, 13.283, 13.136, 18.638, 12.891, 13.426, 13.013, 15.179, 13.759, 13.111, 16.689, 13.477, 13.055, 13.175, 13.452, 21.18, 13.527, 13.438, 13.263, 13.305, 22.957, 17.253],
  "Optimizer iterations": 75,
  "Optimizer params": [1.0, 0.15567489188980532, 0.22751937142251707, 0.816625023840296, 0.13318401131883503, 0.40656043498316635],
  "P": 3,
  "Problem": "MCP",
  "QJob durations [ms]": [1.3066, 1.3049, 1.2897, 1.2798, 1.2698, 1.2584, 1.2792000000000001, 1.2705, 1.2837, 1.2712, 1.2723, 1.2738999999999998, 1.2752, 1.2715999999999998, 1.2986, 1.2696, 1.3741, 1.2806, 1.2669000000000001, 1.2886, 1.2639, 1.2654999999999998, 1.2747, 1.3336999999999999, 1.2645, 1.3305, 1.3059, 1.2635999999999998, 1.2553, 1.2523, 1.2684, 1.2742, 1.2504, 1.2834, 1.2725, 1.2715, 1.2573, 1.2676, 1.2783, 1.2921, 1.2654999999999998, 1.2698, 1.2767, 1.2568, 1.2651999999999999, 1.2579, 1.3427, 1.2854999999999999, 1.2773, 1.2675, 1.2721, 1.2785, 1.2804, 1.3546, 1.2464, 1.2792000000000001, 1.2595, 1.2551999999999999, 1.2784, 1.2572, 1.2737, 1.3102, 1.2537, 1.56, 1.3028, 1.2558999999999998, 1.2588, 1.2866, 1.3574, 1.3012, 1.276, 1.2685000000000002, 1.2949000000000002, 1.2685000000000002, 1.5653],
  "QPU": "7000000",
  "Qubits": 10,
  "Queue durations [ms]": [0.0, 0.0, 0.0, 0.0, 0.0, 0.0, 0.0, 0.0, 0.0, 0.0, 0.0, 0.0, 0.0, 0.0, 0.0, 0.0, 0.0, 0.0, 0.0, 0.0, 0.0, 0.0, 0.0, 0.0, 0.0, 0.0, 0.0, 0.0, 0.0, 0.0, 0.0, 0.0, 0.0, 0.0, 0.0, 0.0, 0.0, 0.0, 0.0, 0.0, 0.0, 0.0, 0.0, 0.0, 0.0, 0.0, 0.0, 0.0, 0.0, 0.0, 0.0, 0.0, 0.0, 0.0, 0.0, 0.0, 0.0, 0.0, 0.0, 0.0, 0.0, 0.0, 0.0, 0.0, 0.0, 0.0, 0.0, 0.0, 0.0, 0.0, 0.0, 0.0, 0.0, 0.0, 0.0],
  "Shots": 4096,
  "Size": 10,
  "Total Algorithm duration [s]": 1.034,
  "Total Classic duration [s]": 0.9374293,
  "Total Quantum duration [s]": 0.09657069999999995
}
