{
  "Circuit execution durations [ms]": [1.282, 1.2665, 1.3002999999999998, 1.4086, 1.2811000000000001, 1.2731999999999999, 1.2531, 1.2558999999999998, 1.2817, 1.2658, 1.2634, 1.2771, 1.2635999999999998, 1.2787, 1.2861, 1.2712, 1.2695, 1.2894, 1.2589000000000001, 1.2593999999999999, 1.2705, 1.2761, 1.2657, 1.2817, 1.2628, 1.2464, 1.2829, 1.2703, 1.248, 1.2635999999999998, 1.2598, 1.2698, 1.2624, 1.2601, 1.2477, 1.2606, 1.2717, 1.2619, 1.2661, 1.2607, 1.2631999999999999, 1.2683, 1.2947, 1.2692999999999999, 1.2463000000000002, 1.2397, 1.2696999999999998, 1.2606, 1.3102, 1.2682, 1.3129000000000002, 1.2873999999999999, 1.4458, 1.2639, 1.2789, 1.2776, 1.2622, 1.3314, 1.2731999999999999, 1.278, 1.2706, 1.2489999999999999, 1.2836, 1.2817, 1.278, 1.2844, 1.2834, 1.2826, 1.2999, 1.2953999999999999, 1.2891000000000001, 1.2831, 1.2628, 1.28, 1.2717, 1.2299, 1.2622, 1.3124, 1.2796, 1.2915999999999999, 1.2734, 1.2672, 1.2619, 1.2577, 1.2562, 1.2504, 1.2882, 1.2647, 1.2647, 1.2709],
  "Depth": 185.0,
  "Expectation Value": -13.320548057556152,
  "Optimal Expectation Value": -14.0,
  "Optimizer durations [ms]": [13.47, 13.322, 13.669, 14.68, 13.444, 13.086, 13.262, 13.207, 13.522, 13.143, 13.229, 13.375, 13.653, 13.293, 13.178, 13.55, 13.369, 13.44, 12.987, 13.259, 13.119, 13.465, 13.186, 13.46, 13.137, 13.109, 13.496, 13.212, 12.924, 13.179, 13.014, 13.278, 13.328, 13.258, 12.829, 13.302, 13.408, 12.984, 13.415, 13.171, 13.093, 13.243, 13.402, 13.318, 13.079, 12.745, 13.25, 13.403, 13.68, 13.332, 13.468, 21.498, 19.194, 13.158, 13.409, 13.234, 13.134, 14.053, 13.095, 13.518, 13.346, 13.095, 13.16, 13.548, 13.512, 13.42, 13.245, 13.279, 13.602, 13.378, 13.663, 13.463, 13.14, 13.279, 13.399, 16.442, 13.225, 13.462, 13.365, 13.689, 13.091, 13.338, 13.4, 13.143, 13.113, 13.063, 13.463, 13.204, 13.25, 13.248],
  "Optimizer iterations": 90,
  "Optimizer params": [0.9419795703322746, 0.5861076038443983, 0.24329172794159643, 0.5235508422517785, 0.7095862145820536, 0.4666295867137743],
  "P": 3,
  "Problem": "MCP",
  "QJob durations [ms]": [1.282, 1.2665, 1.3002999999999998, 1.4086, 1.2811000000000001, 1.2731999999999999, 1.2531, 1.2558999999999998, 1.2817, 1.2658, 1.2634, 1.2771, 1.2635999999999998, 1.2787, 1.2861, 1.2712, 1.2695, 1.2894, 1.2589000000000001, 1.2593999999999999, 1.2705, 1.2761, 1.2657, 1.2817, 1.2628, 1.2464, 1.2829, 1.2703, 1.248, 1.2635999999999998, 1.2598, 1.2698, 1.2624, 1.2601, 1.2477, 1.2606, 1.2717, 1.2619, 1.2661, 1.2607, 1.2631999999999999, 1.2683, 1.2947, 1.2692999999999999, 1.2463000000000002, 1.2397, 1.2696999999999998, 1.2606, 1.3102, 1.2682, 1.3129000000000002, 1.2873999999999999, 1.4458, 1.2639, 1.2789, 1.2776, 1.2622, 1.3314, 1.2731999999999999, 1.278, 1.2706, 1.2489999999999999, 1.2836, 1.2817, 1.278, 1.2844, 1.2834, 1.2826, 1.2999, 1.2953999999999999, 1.2891000000000001, 1.2831, 1.2628, 1.28, 1.2717, 1.2299, 1.2622, 1.3124, 1.2796, 1.2915999999999999, 1.2734, 1.2672, 1.2619, 1.2577, 1.2562, 1.2504, 1.2882, 1.2647, 1.2647, 1.2709],
  "QPU": "7000000",
  "Qubits": 10,
  "Queue durations [ms]": [0.0, 0.0, 0.0, 0.0, 0.0, 0.0, 0.0, 0.0, 0.0, 0.0, 0.0, 0.0, 0.0, 0.0, 0.0, 0.0, 0.0, 0.0, 0.0, 0.0, 0.0, 0.0, 0.0, 0.0, 0.0, 0.0, 0.0, 0.0, 0.0, 0.0, 0.0, 0.0, 0.0, 0.0, 0.0, 0.0, 0.0, 0.0, 0.0, 0.0, 0.0, 0.0, 0.0, 0.0, 0.0, 0.0, 0.0, 0.0, 0.0, 0.0, 0.0, 0.0, 0.0, 0.0, 0.0, 0.0, 0.0, 0.0, 0.0, 0.0, 0.0, 0.0, 0.0, 0.0, 0.0, 0.0, 0.0, 0.0, 0.0, 0.0, 0.0, 0.0, 0.0, 0.0, 0.0, 0.0, 0.0, 0.0, 0.0, 0.0, 0.0, 0.0, 0.0, 0.0, 0.0, 0.0, 0.0, 0.0, 0.0, 0.0],
  "Shots": 4096,
  "Size": 10,
  "Total Algorithm duration [s]": 1.215,
  "Total Classic duration [s]": 1.1001979,
  "Total Quantum duration [s]": 0.11480210000000002
}
