{
  "Circuit execution durations [ms]": [1.2705, 1.2625, 1.2598, 1.2574, 1.2621, 1.2516, 1.2768, 1.2675, 1.2499, 1.2547000000000001, 1.2625, 1.2677999999999998, 1.277, 1.2635, 1.2730000000000001, 1.2729, 1.2646, 1.2709, 1.2778, 1.2784, 1.2470999999999999, 1.2638, 1.2734999999999999, 1.2754, 1.2831, 1.2934, 1.2910000000000001, 1.2738999999999998, 1.3832, 1.2584, 1.254, 1.2682, 1.26, 1.26, 1.3457000000000001, 1.2912, 1.3596000000000001, 1.2823000000000002, 1.2677, 1.2677, 1.2741, 1.2632999999999999, 1.2722, 1.339, 1.2783, 1.2679, 1.2704000000000002, 1.2788000000000002, 1.2638, 1.2629, 1.2952000000000001, 1.2643000000000002, 1.2804, 1.2532, 1.2616, 1.2662, 1.2718, 1.2901, 1.2731999999999999, 1.2731000000000001, 1.2579, 1.2687, 1.2579, 1.2581, 1.2597, 1.2848, 1.3213000000000001, 1.2924, 1.5347, 1.2742, 1.2754, 1.2815, 1.2910000000000001, 1.2614, 1.2715, 1.2807000000000002, 1.2705],
  "Depth": 185.0,
  "Expectation Value": -13.501355171203613,
  "Optimal Expectation Value": -14.0,
  "Optimizer durations [ms]": [13.378, 13.103, 13.226, 13.179, 13.046, 12.931, 13.574, 13.051, 13.384, 13.221, 13.246, 13.254, 13.078, 13.313, 13.379, 13.428, 13.276, 17.886, 13.621, 13.105, 13.029, 13.356, 13.249, 13.196, 13.329, 13.629, 13.591, 13.046, 14.428, 13.267, 13.328, 13.147, 13.207, 12.943, 14.072, 13.308, 14.467, 13.219, 13.425, 13.046, 13.447, 13.224, 13.155, 13.865, 13.301, 13.473, 13.251, 13.182, 13.426, 13.042, 13.709, 13.019, 13.549, 13.009, 13.365, 13.017, 13.591, 13.416, 13.304, 13.428, 13.001, 13.453, 13.002, 13.348, 13.068, 13.642, 13.843, 23.128, 18.317, 13.489, 13.091, 13.378, 13.669, 13.023, 13.382, 13.167, 13.367],
  "Optimizer iterations": 77,
  "Optimizer params": [0.6457811836737067, 0.9436082684413397, 0.7879149484375328, 0.8873866214061644, 0.3100811894883635, 0.5203159193874006],
  "P": 3,
  "Problem": "MCP",
  "QJob durations [ms]": [1.2705, 1.2625, 1.2598, 1.2574, 1.2621, 1.2516, 1.2768, 1.2675, 1.2499, 1.2547000000000001, 1.2625, 1.2677999999999998, 1.277, 1.2635, 1.2730000000000001, 1.2729, 1.2646, 1.2709, 1.2778, 1.2784, 1.2470999999999999, 1.2638, 1.2734999999999999, 1.2754, 1.2831, 1.2934, 1.2910000000000001, 1.2738999999999998, 1.3832, 1.2584, 1.254, 1.2682, 1.26, 1.26, 1.3457000000000001, 1.2912, 1.3596000000000001, 1.2823000000000002, 1.2677, 1.2677, 1.2741, 1.2632999999999999, 1.2722, 1.339, 1.2783, 1.2679, 1.2704000000000002, 1.2788000000000002, 1.2638, 1.2629, 1.2952000000000001, 1.2643000000000002, 1.2804, 1.2532, 1.2616, 1.2662, 1.2718, 1.2901, 1.2731999999999999, 1.2731000000000001, 1.2579, 1.2687, 1.2579, 1.2581, 1.2597, 1.2848, 1.3213000000000001, 1.2924, 1.5347, 1.2742, 1.2754, 1.2815, 1.2910000000000001, 1.2614, 1.2715, 1.2807000000000002, 1.2705],
  "QPU": "7000000",
  "Qubits": 10,
  "Queue durations [ms]": [0.0, 0.0, 0.0, 0.0, 0.0, 0.0, 0.0, 0.0, 0.0, 0.0, 0.0, 0.0, 0.0, 0.0, 0.0, 0.0, 0.0, 0.0, 0.0, 0.0, 0.0, 0.0, 0.0, 0.0, 0.0, 0.0, 0.0, 0.0, 0.0, 0.0, 0.0, 0.0, 0.0, 0.0, 0.0, 0.0, 0.0, 0.0, 0.0, 0.0, 0.0, 0.0, 0.0, 0.0, 0.0, 0.0, 0.0, 0.0, 0.0, 0.0, 0.0, 0.0, 0.0, 0.0, 0.0, 0.0, 0.0, 0.0, 0.0, 0.0, 0.0, 0.0, 0.0, 0.0, 0.0, 0.0, 0.0, 0.0, 0.0, 0.0, 0.0, 0.0, 0.0, 0.0, 0.0, 0.0, 0.0],
  "Shots": 4096,
  "Size": 10,
  "Total Algorithm duration [s]": 1.046,
  "Total Classic duration [s]": 0.9475381,
  "Total Quantum duration [s]": 0.09846189999999998
}
