{
  "Circuit execution durations [ms]": [4.9078, 4.8656999999999995, 4.8769, 4.9724, 4.9373000000000005, 4.9172, 4.8770999999999995, 4.9542, 4.9596, 4.9399999999999995, 4.9062, 4.9514, 4.984999999999999, 4.825699999999999, 4.9067, 5.001399999999999, 4.9195, 4.9003, 4.9533, 4.893599999999999, 4.9148000000000005, 4.889799999999999, 4.914499999999999, 4.8646, 4.8877, 4.8767000000000005, 4.9299, 4.9591, 4.8641, 4.9698, 4.9624999999999995, 4.891699999999999, 4.9048, 4.954, 4.8985, 4.954400000000001, 4.9588, 4.9138, 4.916, 4.9657, 4.9235, 4.882499999999999, 4.9528, 4.8765, 4.9459, 4.9175, 4.9868999999999994, 4.8521, 4.9487000000000005, 4.8735, 4.9108, 4.9349, 4.942, 4.922499999999999, 4.934, 4.9178, 4.8646, 4.9078, 4.915, 4.8704, 4.907500000000001, 4.902, 4.9018999999999995, 4.9093, 4.9181, 4.942399999999999, 4.9116, 4.9233, 4.9609, 4.9188, 4.9449000000000005, 4.9073, 5.1678999999999995, 5.108, 4.9252, 4.9781, 4.9494, 4.9215, 4.8849],
  "Depth": 686.0,
  "Expectation Value": -3.2156620025634766,
  "Optimal Expectation Value": -4.0,
  "Optimizer durations [ms]": [50.36, 49.662, 49.92, 50.831, 50.483, 50.307, 49.937, 50.724, 52.168, 50.617, 50.599, 50.702, 50.87, 58.999, 50.172, 51.189, 50.175, 50.143, 50.82, 50.11, 50.215, 50.027, 50.226, 49.737, 49.991, 50.021, 50.516, 56.981, 49.744, 50.688, 50.856, 49.955, 50.19, 50.73, 50.134, 50.76, 50.752, 50.365, 50.28, 50.846, 50.338, 50.11, 50.785, 49.893, 50.708, 50.197, 51.087, 59.212, 50.581, 49.979, 50.199, 50.345, 50.534, 50.415, 50.474, 50.415, 49.651, 50.086, 50.24, 49.667, 50.309, 50.19, 50.047, 50.223, 50.121, 50.703, 50.082, 50.588, 52.271, 50.524, 50.692, 50.775, 52.807, 53.928, 50.492, 50.983, 50.562, 50.308, 49.928],
  "Optimizer iterations": 79,
  "Optimizer params": [0.008481521477258466, 0.3044561230028738, 0.9998451513903769, 0.736968051949256, 0.30558499021930924, 0.008916266216849348],
  "P": 3,
  "Problem": "MIS",
  "QJob durations [ms]": [4.9078, 4.8656999999999995, 4.8769, 4.9724, 4.9373000000000005, 4.9172, 4.8770999999999995, 4.9542, 4.9596, 4.9399999999999995, 4.9062, 4.9514, 4.984999999999999, 4.825699999999999, 4.9067, 5.001399999999999, 4.9195, 4.9003, 4.9533, 4.893599999999999, 4.9148000000000005, 4.889799999999999, 4.914499999999999, 4.8646, 4.8877, 4.8767000000000005, 4.9299, 4.9591, 4.8641, 4.9698, 4.9624999999999995, 4.891699999999999, 4.9048, 4.954, 4.8985, 4.954400000000001, 4.9588, 4.9138, 4.916, 4.9657, 4.9235, 4.882499999999999, 4.9528, 4.8765, 4.9459, 4.9175, 4.9868999999999994, 4.8521, 4.9487000000000005, 4.8735, 4.9108, 4.9349, 4.942, 4.922499999999999, 4.934, 4.9178, 4.8646, 4.9078, 4.915, 4.8704, 4.907500000000001, 4.902, 4.9018999999999995, 4.9093, 4.9181, 4.942399999999999, 4.9116, 4.9233, 4.9609, 4.9188, 4.9449000000000005, 4.9073, 5.1678999999999995, 5.108, 4.9252, 4.9781, 4.9494, 4.9215, 4.8849],
  "QPU": "7000000",
  "Qubits": 15,
  "Queue durations [ms]": [0.0, 0.0, 0.0, 0.0, 0.0, 0.0, 0.0, 0.0, 0.0, 0.0, 0.0, 0.0, 0.0, 0.0, 0.0, 0.0, 0.0, 0.0, 0.0, 0.0, 0.0, 0.0, 0.0, 0.0, 0.0, 0.0, 0.0, 0.0, 0.0, 0.0, 0.0, 0.0, 0.0, 0.0, 0.0, 0.0, 0.0, 0.0, 0.0, 0.0, 0.0, 0.0, 0.0, 0.0, 0.0, 0.0, 0.0, 0.0, 0.0, 0.0, 0.0, 0.0, 0.0, 0.0, 0.0, 0.0, 0.0, 0.0, 0.0, 0.0, 0.0, 0.0, 0.0, 0.0, 0.0, 0.0, 0.0, 0.0, 0.0, 0.0, 0.0, 0.0, 0.0, 0.0, 0.0, 0.0, 0.0, 0.0, 0.0],
  "Shots": 4096,
  "Size": 12,
  "Total Algorithm duration [s]": 4.012,
  "Total Classic duration [s]": 3.6228947999999996,
  "Total Quantum duration [s]": 0.38910520000000004
}
