{
  "Circuit execution durations [ms]": [4.9721, 4.9929, 4.9614, 5.1518, 5.0561, 4.9700999999999995, 4.9866, 4.973, 4.9819, 4.9872, 4.9382, 4.9284, 4.9793, 4.9754, 4.956300000000001, 4.9804, 4.9642, 4.9902999999999995, 5.0064, 4.9854, 4.9711, 4.992, 4.9299, 5.0186, 4.9752, 4.957999999999999, 5.005199999999999, 4.7304, 5.1971, 5.1399, 4.9119, 5.0404, 4.970300000000001, 5.025, 4.9394, 4.926, 4.9965, 4.9632000000000005, 4.9965, 4.95, 4.9891, 4.9777, 5.130199999999999, 4.9273, 4.953, 4.9777, 4.9486, 4.9401, 4.995699999999999, 4.983, 4.9866, 4.9338999999999995, 4.9662, 5.0938, 5.0124, 4.9404, 4.962000000000001, 4.9342, 4.9932, 4.9152, 4.9736, 4.9834, 4.9798, 4.941, 4.9594000000000005, 5.029299999999999, 5.057200000000001, 4.9794, 4.962000000000001, 4.9762, 4.9719999999999995, 4.9753, 4.9597, 4.9845999999999995, 4.9777, 4.9769000000000005, 4.9549, 4.9912, 5.025, 4.9746, 4.9287, 5.0291, 4.9931, 5.0561, 4.7583, 4.983099999999999, 4.957, 4.9379, 4.9947, 5.0072, 4.992500000000001, 4.9981, 4.9838000000000005, 4.9575000000000005, 4.958200000000001, 4.9601999999999995, 4.9315, 4.9704, 4.9897, 4.9604, 4.972200000000001, 5.0907, 4.9593, 4.9411000000000005, 4.919899999999999, 4.9681, 4.9835, 4.9305, 4.9706, 4.914899999999999, 4.9632000000000005, 4.9622, 4.968400000000001, 5.0103, 4.9707, 4.9516, 4.9636000000000005, 4.952500000000001, 4.9631, 4.9402, 5.1246, 4.8119, 5.025499999999999, 4.9634, 4.999, 5.0483, 4.9354000000000005, 4.9998000000000005, 4.9403, 4.949],
  "Depth": 686.0,
  "Expectation Value": -3.2791213989257813,
  "Optimal Expectation Value": -4.0,
  "Optimizer durations [ms]": [51.039, 51.033, 50.899, 52.559, 56.702, 50.686, 50.8, 51.008, 50.909, 53.993, 50.342, 50.378, 51.031, 50.745, 50.808, 50.966, 50.755, 51.106, 51.342, 51.135, 50.73, 50.927, 50.442, 53.293, 50.908, 50.551, 51.297, 58.246, 53.107, 54.816, 50.469, 51.487, 50.864, 51.397, 50.44, 50.52, 51.052, 50.607, 50.976, 50.513, 51.05, 50.844, 52.633, 57.862, 50.816, 50.864, 50.498, 50.659, 51.05, 55.491, 51.061, 50.288, 50.712, 52.171, 51.171, 50.667, 50.78, 50.521, 51.101, 50.107, 51.066, 51.245, 60.777, 51.261, 50.771, 51.563, 51.805, 50.997, 50.868, 50.817, 50.991, 50.759, 50.56, 50.974, 50.882, 50.797, 50.824, 51.093, 51.358, 50.701, 50.363, 51.566, 51.131, 51.501, 58.403, 50.87, 50.76, 60.233, 51.601, 51.038, 51.027, 50.911, 50.835, 50.792, 50.681, 50.757, 50.324, 50.842, 51.06, 50.679, 50.956, 57.082, 50.786, 50.405, 50.492, 50.999, 50.916, 50.532, 50.685, 50.49, 50.581, 50.776, 50.935, 51.122, 50.883, 50.609, 50.641, 50.565, 50.852, 50.676, 52.257, 58.755, 51.262, 50.863, 51.059, 51.536, 50.598, 51.13, 50.689, 50.667],
  "Optimizer iterations": 130,
  "Optimizer params": [0.24640208966802254, 0.5382820532269288, 1.0, 0.9999977076983474, 0.04434973143357736, 0.989354972066653],
  "P": 3,
  "Problem": "MIS",
  "QJob durations [ms]": [4.9721, 4.9929, 4.9614, 5.1518, 5.0561, 4.9700999999999995, 4.9866, 4.973, 4.9819, 4.9872, 4.9382, 4.9284, 4.9793, 4.9754, 4.956300000000001, 4.9804, 4.9642, 4.9902999999999995, 5.0064, 4.9854, 4.9711, 4.992, 4.9299, 5.0186, 4.9752, 4.957999999999999, 5.005199999999999, 4.7304, 5.1971, 5.1399, 4.9119, 5.0404, 4.970300000000001, 5.025, 4.9394, 4.926, 4.9965, 4.9632000000000005, 4.9965, 4.95, 4.9891, 4.9777, 5.130199999999999, 4.9273, 4.953, 4.9777, 4.9486, 4.9401, 4.995699999999999, 4.983, 4.9866, 4.9338999999999995, 4.9662, 5.0938, 5.0124, 4.9404, 4.962000000000001, 4.9342, 4.9932, 4.9152, 4.9736, 4.9834, 4.9798, 4.941, 4.9594000000000005, 5.029299999999999, 5.057200000000001, 4.9794, 4.962000000000001, 4.9762, 4.9719999999999995, 4.9753, 4.9597, 4.9845999999999995, 4.9777, 4.9769000000000005, 4.9549, 4.9912, 5.025, 4.9746, 4.9287, 5.0291, 4.9931, 5.0561, 4.7583, 4.983099999999999, 4.957, 4.9379, 4.9947, 5.0072, 4.992500000000001, 4.9981, 4.9838000000000005, 4.9575000000000005, 4.958200000000001, 4.9601999999999995, 4.9315, 4.9704, 4.9897, 4.9604, 4.972200000000001, 5.0907, 4.9593, 4.9411000000000005, 4.919899999999999, 4.9681, 4.9835, 4.9305, 4.9706, 4.914899999999999, 4.9632000000000005, 4.9622, 4.968400000000001, 5.0103, 4.9707, 4.9516, 4.9636000000000005, 4.952500000000001, 4.9631, 4.9402, 5.1246, 4.8119, 5.025499999999999, 4.9634, 4.999, 5.0483, 4.9354000000000005, 4.9998000000000005, 4.9403, 4.949],
  "QPU": "7000000",
  "Qubits": 15,
  "Queue durations [ms]": [0.0, 0.0, 0.0, 0.0, 0.0, 0.0, 0.0, 0.0, 0.0, 0.0, 0.0, 0.0, 0.0, 0.0, 0.0, 0.0, 0.0, 0.0, 0.0, 0.0, 0.0, 0.0, 0.0, 0.0, 0.0, 0.0, 0.0, 0.0, 0.0, 0.0, 0.0, 0.0, 0.0, 0.0, 0.0, 0.0, 0.0, 0.0, 0.0, 0.0, 0.0, 0.0, 0.0, 0.0, 0.0, 0.0, 0.0, 0.0, 0.0, 0.0, 0.0, 0.0, 0.0, 0.0, 0.0, 0.0, 0.0, 0.0, 0.0, 0.0, 0.0, 0.0, 0.0, 0.0, 0.0, 0.0, 0.0, 0.0, 0.0, 0.0, 0.0, 0.0, 0.0, 0.0, 0.0, 0.0, 0.0, 0.0, 0.0, 0.0, 0.0, 0.0, 0.0, 0.0, 0.0, 0.0, 0.0, 0.0, 0.0, 0.0, 0.0, 0.0, 0.0, 0.0, 0.0, 0.0, 0.0, 0.0, 0.0, 0.0, 0.0, 0.0, 0.0, 0.0, 0.0, 0.0, 0.0, 0.0, 0.0, 0.0, 0.0, 0.0, 0.0, 0.0, 0.0, 0.0, 0.0, 0.0, 0.0, 0.0, 0.0, 0.0, 0.0, 0.0, 0.0, 0.0, 0.0, 0.0, 0.0, 0.0],
  "Shots": 4096,
  "Size": 12,
  "Total Algorithm duration [s]": 6.696,
  "Total Classic duration [s]": 6.0489912,
  "Total Quantum duration [s]": 0.6470088000000004
}
