{
  "Circuit execution durations [ms]": [5.2849, 4.9727, 4.9411000000000005, 4.9474, 4.771100000000001, 4.9068000000000005, 4.9472, 5.0425, 4.965, 4.931299999999999, 4.9882, 4.9156, 4.9786, 4.961799999999999, 4.951, 4.9619, 4.9927, 4.9283, 4.9766, 5.0559, 5.0548, 4.9662999999999995, 4.9353, 4.982399999999999, 4.988099999999999, 4.9856, 4.9539, 5.0203, 4.9551, 4.9768, 4.9397, 4.9616, 4.9676, 4.9416, 4.9447, 5.007000000000001, 4.9539, 4.9325, 4.9686, 4.9615, 4.911300000000001, 4.9648, 4.9042, 5.0008, 5.0022, 4.827299999999999, 4.9785, 4.9685, 4.9439, 4.9418, 4.9283, 4.9673, 4.9444, 4.9836, 4.9697, 4.9516, 4.951, 4.9598, 5.0, 5.1284, 4.9331000000000005, 4.9426000000000005, 4.971, 4.9467, 4.9558, 4.9472, 4.9553, 4.9398, 4.9482, 4.9585, 4.9566, 4.9413, 4.9688, 4.939, 4.9566, 5.002000000000001, 4.9638, 4.9512, 5.0972, 5.0211, 4.9162, 4.9567, 4.894500000000001, 4.9741, 4.9328, 4.9508, 4.9537, 4.929, 4.9982999999999995, 4.9809, 4.9268, 4.9624],
  "Depth": 686.0,
  "Expectation Value": -3.214902639389038,
  "Optimal Expectation Value": -4.0,
  "Optimizer durations [ms]": [54.762, 50.983, 50.419, 50.598, 49.138, 50.269, 50.7, 51.474, 50.809, 50.515, 51.052, 50.272, 50.916, 50.63, 50.772, 50.758, 51.175, 50.434, 50.924, 51.761, 56.483, 50.722, 50.358, 50.838, 50.972, 51.005, 50.816, 51.329, 50.672, 50.93, 50.416, 50.727, 50.905, 50.668, 50.447, 51.281, 50.494, 50.349, 50.662, 50.906, 56.495, 50.849, 51.019, 51.123, 51.036, 58.962, 50.924, 50.9, 50.754, 50.677, 50.586, 50.738, 50.702, 50.959, 50.985, 50.71, 50.625, 50.713, 51.117, 57.134, 50.373, 50.629, 50.842, 50.652, 50.778, 50.683, 50.637, 50.511, 50.533, 50.762, 50.749, 50.363, 50.974, 50.625, 50.581, 51.142, 50.663, 50.497, 52.142, 56.284, 50.278, 50.755, 49.918, 51.083, 50.514, 50.65, 50.833, 50.378, 51.256, 50.926, 50.448, 50.859],
  "Optimizer iterations": 92,
  "Optimizer params": [0.9990559344875316, 0.8143801471055852, 0.3013563299811038, 1.0, 0.0002025194709100473, 0.970459350901584],
  "P": 3,
  "Problem": "MIS",
  "QJob durations [ms]": [5.2849, 4.9727, 4.9411000000000005, 4.9474, 4.771100000000001, 4.9068000000000005, 4.9472, 5.0425, 4.965, 4.931299999999999, 4.9882, 4.9156, 4.9786, 4.961799999999999, 4.951, 4.9619, 4.9927, 4.9283, 4.9766, 5.0559, 5.0548, 4.9662999999999995, 4.9353, 4.982399999999999, 4.988099999999999, 4.9856, 4.9539, 5.0203, 4.9551, 4.9768, 4.9397, 4.9616, 4.9676, 4.9416, 4.9447, 5.007000000000001, 4.9539, 4.9325, 4.9686, 4.9615, 4.911300000000001, 4.9648, 4.9042, 5.0008, 5.0022, 4.827299999999999, 4.9785, 4.9685, 4.9439, 4.9418, 4.9283, 4.9673, 4.9444, 4.9836, 4.9697, 4.9516, 4.951, 4.9598, 5.0, 5.1284, 4.9331000000000005, 4.9426000000000005, 4.971, 4.9467, 4.9558, 4.9472, 4.9553, 4.9398, 4.9482, 4.9585, 4.9566, 4.9413, 4.9688, 4.939, 4.9566, 5.002000000000001, 4.9638, 4.9512, 5.0972, 5.0211, 4.9162, 4.9567, 4.894500000000001, 4.9741, 4.9328, 4.9508, 4.9537, 4.929, 4.9982999999999995, 4.9809, 4.9268, 4.9624],
  "QPU": "7000000",
  "Qubits": 15,
  "Queue durations [ms]": [0.0, 0.0, 0.0, 0.0, 0.0, 0.0, 0.0, 0.0, 0.0, 0.0, 0.0, 0.0, 0.0, 0.0, 0.0, 0.0, 0.0, 0.0, 0.0, 0.0, 0.0, 0.0, 0.0, 0.0, 0.0, 0.0, 0.0, 0.0, 0.0, 0.0, 0.0, 0.0, 0.0, 0.0, 0.0, 0.0, 0.0, 0.0, 0.0, 0.0, 0.0, 0.0, 0.0, 0.0, 0.0, 0.0, 0.0, 0.0, 0.0, 0.0, 0.0, 0.0, 0.0, 0.0, 0.0, 0.0, 0.0, 0.0, 0.0, 0.0, 0.0, 0.0, 0.0, 0.0, 0.0, 0.0, 0.0, 0.0, 0.0, 0.0, 0.0, 0.0, 0.0, 0.0, 0.0, 0.0, 0.0, 0.0, 0.0, 0.0, 0.0, 0.0, 0.0, 0.0, 0.0, 0.0, 0.0, 0.0, 0.0, 0.0, 0.0, 0.0],
  "Shots": 4096,
  "Size": 12,
  "Total Algorithm duration [s]": 4.704,
  "Total Classic duration [s]": 4.2472826999999995,
  "Total Quantum duration [s]": 0.45671730000000016
}
