{
  "Circuit execution durations [ms]": [4.9198, 4.9425, 4.9515, 4.987, 5.004899999999999, 4.9483, 5.1079, 4.7574000000000005, 4.966, 4.984, 5.020700000000001, 4.995699999999999, 5.005599999999999, 4.9937000000000005, 4.9959999999999996, 4.934, 4.984299999999999, 4.980499999999999, 5.0202, 4.9889, 5.0017000000000005, 5.0186, 4.9624999999999995, 4.981400000000001, 4.9022, 5.0015, 5.2322999999999995, 5.1616, 4.9584, 4.9801, 5.0064, 4.9551, 4.9762, 4.9622, 4.957, 4.9858, 4.9353, 4.9949, 4.947100000000001, 4.935700000000001, 4.9984, 5.0548, 4.9749, 4.9464, 4.9541, 5.0177, 4.9969, 5.0104, 4.971, 5.1116, 4.952, 5.2775, 5.0371, 4.989000000000001, 4.9893, 4.9893, 5.0280000000000005, 4.953, 4.9518, 4.9531, 4.9717, 4.9856, 4.993799999999999, 4.9581, 4.982, 5.2419, 5.0779, 4.990900000000001, 4.9743, 4.9582999999999995, 4.980700000000001, 4.9812, 5.011500000000001, 4.9528, 5.032, 4.9649, 5.0111, 5.0309, 4.9927, 4.9443, 4.9548, 5.0118, 5.0034, 4.9547, 5.0256, 5.215199999999999, 4.986199999999999, 5.0036000000000005, 5.0095, 5.0531999999999995, 4.9541, 4.9649, 4.9355, 4.978, 4.957999999999999, 4.984299999999999, 5.023, 4.9709, 4.9616, 4.9562, 5.008699999999999, 5.0197, 4.9649, 4.951, 5.0168, 4.9923, 5.0136, 4.9997, 4.9307, 5.007700000000001, 5.2524, 5.0874, 4.9761],
  "Depth": 686.0,
  "Expectation Value": -3.2851147651672363,
  "Optimal Expectation Value": -4.0,
  "Optimizer durations [ms]": [50.279, 50.58, 50.697, 51.128, 51.256, 50.743, 52.36, 58.197, 50.734, 50.817, 51.448, 51.24, 51.382, 51.096, 51.214, 50.518, 51.042, 50.925, 51.303, 51.143, 51.344, 51.416, 50.635, 50.811, 50.355, 51.222, 53.455, 53.211, 50.874, 50.953, 51.395, 50.606, 50.886, 50.8, 50.619, 50.965, 50.347, 51.121, 50.49, 50.447, 51.197, 54.046, 50.785, 50.611, 50.798, 51.337, 51.097, 55.262, 50.713, 52.39, 50.829, 54.08, 51.807, 50.977, 50.919, 51.017, 51.363, 50.841, 50.893, 50.772, 50.907, 50.976, 51.064, 50.599, 51.004, 53.636, 57.318, 50.987, 50.788, 50.715, 51.043, 50.921, 52.032, 50.584, 51.561, 50.922, 51.1, 51.511, 50.931, 50.768, 50.639, 51.129, 51.205, 50.692, 51.52, 58.339, 51.071, 50.979, 51.144, 51.801, 50.611, 50.757, 50.624, 50.785, 50.584, 51.008, 51.195, 50.856, 50.756, 50.675, 51.231, 51.166, 50.743, 50.755, 51.18, 51.115, 51.243, 56.012, 50.529, 51.217, 54.39, 52.328, 50.869],
  "Optimizer iterations": 113,
  "Optimizer params": [0.06547684981860477, 0.9953158263709195, 0.3327593802180917, 0.6377236577640519, 1.0, 0.037798591258332175],
  "P": 3,
  "Problem": "MIS",
  "QJob durations [ms]": [4.9198, 4.9425, 4.9515, 4.987, 5.004899999999999, 4.9483, 5.1079, 4.7574000000000005, 4.966, 4.984, 5.020700000000001, 4.995699999999999, 5.005599999999999, 4.9937000000000005, 4.9959999999999996, 4.934, 4.984299999999999, 4.980499999999999, 5.0202, 4.9889, 5.0017000000000005, 5.0186, 4.9624999999999995, 4.981400000000001, 4.9022, 5.0015, 5.2322999999999995, 5.1616, 4.9584, 4.9801, 5.0064, 4.9551, 4.9762, 4.9622, 4.957, 4.9858, 4.9353, 4.9949, 4.947100000000001, 4.935700000000001, 4.9984, 5.0548, 4.9749, 4.9464, 4.9541, 5.0177, 4.9969, 5.0104, 4.971, 5.1116, 4.952, 5.2775, 5.0371, 4.989000000000001, 4.9893, 4.9893, 5.0280000000000005, 4.953, 4.9518, 4.9531, 4.9717, 4.9856, 4.993799999999999, 4.9581, 4.982, 5.2419, 5.0779, 4.990900000000001, 4.9743, 4.9582999999999995, 4.980700000000001, 4.9812, 5.011500000000001, 4.9528, 5.032, 4.9649, 5.0111, 5.0309, 4.9927, 4.9443, 4.9548, 5.0118, 5.0034, 4.9547, 5.0256, 5.215199999999999, 4.986199999999999, 5.0036000000000005, 5.0095, 5.0531999999999995, 4.9541, 4.9649, 4.9355, 4.978, 4.957999999999999, 4.984299999999999, 5.023, 4.9709, 4.9616, 4.9562, 5.008699999999999, 5.0197, 4.9649, 4.951, 5.0168, 4.9923, 5.0136, 4.9997, 4.9307, 5.007700000000001, 5.2524, 5.0874, 4.9761],
  "QPU": "7000000",
  "Qubits": 15,
  "Queue durations [ms]": [0.0, 0.0, 0.0, 0.0, 0.0, 0.0, 0.0, 0.0, 0.0, 0.0, 0.0, 0.0, 0.0, 0.0, 0.0, 0.0, 0.0, 0.0, 0.0, 0.0, 0.0, 0.0, 0.0, 0.0, 0.0, 0.0, 0.0, 0.0, 0.0, 0.0, 0.0, 0.0, 0.0, 0.0, 0.0, 0.0, 0.0, 0.0, 0.0, 0.0, 0.0, 0.0, 0.0, 0.0, 0.0, 0.0, 0.0, 0.0, 0.0, 0.0, 0.0, 0.0, 0.0, 0.0, 0.0, 0.0, 0.0, 0.0, 0.0, 0.0, 0.0, 0.0, 0.0, 0.0, 0.0, 0.0, 0.0, 0.0, 0.0, 0.0, 0.0, 0.0, 0.0, 0.0, 0.0, 0.0, 0.0, 0.0, 0.0, 0.0, 0.0, 0.0, 0.0, 0.0, 0.0, 0.0, 0.0, 0.0, 0.0, 0.0, 0.0, 0.0, 0.0, 0.0, 0.0, 0.0, 0.0, 0.0, 0.0, 0.0, 0.0, 0.0, 0.0, 0.0, 0.0, 0.0, 0.0, 0.0, 0.0, 0.0, 0.0, 0.0, 0.0],
  "Shots": 4096,
  "Size": 12,
  "Total Algorithm duration [s]": 5.81,
  "Total Classic duration [s]": 5.245336699999999,
  "Total Quantum duration [s]": 0.5646633
}
