{
  "Circuit execution durations [ms]": [4.9196, 5.1523, 5.132000000000001, 4.9089, 4.9387, 4.9364, 4.9065, 4.925, 4.9302, 4.9169, 4.9379, 4.9466, 4.942, 4.906899999999999, 4.9205000000000005, 4.9104, 4.9371, 5.0023, 4.9214, 4.9677999999999995, 4.9387, 4.9706, 4.916799999999999, 4.938599999999999, 4.9215, 4.916300000000001, 5.0583, 5.0464, 4.943099999999999, 5.0191, 4.9272, 4.9522, 4.9823, 4.9711, 4.9868, 4.9501, 4.9113999999999995, 4.9308, 4.9655000000000005, 4.952500000000001, 5.0100999999999996, 4.9397, 4.9198, 4.9356, 4.9486, 4.9311, 4.9085, 4.919, 4.9761, 4.8922, 4.9322, 4.9781, 4.9167000000000005, 4.9707, 4.9346, 4.9274000000000004, 4.918200000000001, 4.9796, 4.9171, 4.9271, 5.0508999999999995, 4.7513, 4.978, 4.899, 4.9224000000000006, 5.056, 4.941, 4.9167000000000005, 4.874, 4.9226, 4.8876, 4.9597, 4.9284, 4.9005, 4.929, 4.9284, 4.915100000000001, 4.9356, 4.9451, 4.9125000000000005, 4.9334, 4.9595, 4.9238, 4.9568, 4.9791, 4.9868999999999994, 4.8694999999999995, 4.9115, 5.0342, 4.9676, 4.9735, 4.9333, 4.9388000000000005, 4.940499999999999, 4.9042, 4.946899999999999, 4.9232, 4.9333, 4.938, 4.9401, 5.495500000000001, 4.9711, 4.9316, 4.9648, 4.946, 4.9847, 4.940499999999999, 4.9387, 4.9387, 4.919, 4.9092, 4.91, 5.0072, 4.973, 4.908799999999999, 4.9536, 4.916799999999999, 4.9607, 4.9092, 4.9822, 5.084, 4.9156, 4.941, 4.9212, 4.9553],
  "Depth": 686.0,
  "Expectation Value": -3.3106772899627686,
  "Optimal Expectation Value": -4.0,
  "Optimizer durations [ms]": [50.287, 52.703, 53.304, 50.287, 50.582, 50.508, 50.235, 50.348, 50.33, 50.457, 50.564, 50.602, 50.469, 50.062, 50.376, 50.463, 50.633, 51.161, 50.32, 50.968, 50.578, 50.8, 54.351, 50.637, 51.524, 50.479, 52.13, 56.526, 50.697, 51.279, 50.323, 50.682, 51.127, 50.935, 51.083, 50.839, 50.076, 50.472, 50.928, 50.748, 51.379, 60.231, 50.387, 50.472, 50.623, 50.619, 50.302, 50.185, 50.819, 50.036, 50.63, 50.748, 50.214, 50.694, 50.357, 50.516, 50.159, 50.869, 50.19, 50.577, 51.744, 58.447, 51.008, 50.159, 50.442, 52.4, 50.452, 50.373, 49.882, 50.478, 49.998, 50.917, 50.234, 50.047, 50.302, 50.295, 50.3, 50.508, 50.581, 50.406, 50.49, 50.709, 50.228, 55.426, 51.841, 51.044, 59.452, 50.328, 51.493, 50.874, 50.772, 50.557, 50.663, 50.64, 50.047, 50.725, 50.284, 50.596, 50.55, 50.703, 56.124, 50.788, 50.317, 50.82, 50.567, 51.066, 50.479, 50.533, 50.445, 50.301, 50.116, 50.097, 51.246, 50.857, 50.272, 50.734, 50.232, 50.817, 50.253, 50.948, 56.805, 50.409, 50.568, 50.485, 50.769],
  "Optimizer iterations": 125,
  "Optimizer params": [0.3113574943425688, 0.9264527440449789, 0.9999813499468305, 0.8783533832918794, 0.2896155897039976, 0.21752949271943117],
  "P": 3,
  "Problem": "MIS",
  "QJob durations [ms]": [4.9196, 5.1523, 5.132000000000001, 4.9089, 4.9387, 4.9364, 4.9065, 4.925, 4.9302, 4.9169, 4.9379, 4.9466, 4.942, 4.906899999999999, 4.9205000000000005, 4.9104, 4.9371, 5.0023, 4.9214, 4.9677999999999995, 4.9387, 4.9706, 4.916799999999999, 4.938599999999999, 4.9215, 4.916300000000001, 5.0583, 5.0464, 4.943099999999999, 5.0191, 4.9272, 4.9522, 4.9823, 4.9711, 4.9868, 4.9501, 4.9113999999999995, 4.9308, 4.9655000000000005, 4.952500000000001, 5.0100999999999996, 4.9397, 4.9198, 4.9356, 4.9486, 4.9311, 4.9085, 4.919, 4.9761, 4.8922, 4.9322, 4.9781, 4.9167000000000005, 4.9707, 4.9346, 4.9274000000000004, 4.918200000000001, 4.9796, 4.9171, 4.9271, 5.0508999999999995, 4.7513, 4.978, 4.899, 4.9224000000000006, 5.056, 4.941, 4.9167000000000005, 4.874, 4.9226, 4.8876, 4.9597, 4.9284, 4.9005, 4.929, 4.9284, 4.915100000000001, 4.9356, 4.9451, 4.9125000000000005, 4.9334, 4.9595, 4.9238, 4.9568, 4.9791, 4.9868999999999994, 4.8694999999999995, 4.9115, 5.0342, 4.9676, 4.9735, 4.9333, 4.9388000000000005, 4.940499999999999, 4.9042, 4.946899999999999, 4.9232, 4.9333, 4.938, 4.9401, 5.495500000000001, 4.9711, 4.9316, 4.9648, 4.946, 4.9847, 4.940499999999999, 4.9387, 4.9387, 4.919, 4.9092, 4.91, 5.0072, 4.973, 4.908799999999999, 4.9536, 4.916799999999999, 4.9607, 4.9092, 4.9822, 5.084, 4.9156, 4.941, 4.9212, 4.9553],
  "QPU": "7000000",
  "Qubits": 15,
  "Queue durations [ms]": [0.0, 0.0, 0.0, 0.0, 0.0, 0.0, 0.0, 0.0, 0.0, 0.0, 0.0, 0.0, 0.0, 0.0, 0.0, 0.0, 0.0, 0.0, 0.0, 0.0, 0.0, 0.0, 0.0, 0.0, 0.0, 0.0, 0.0, 0.0, 0.0, 0.0, 0.0, 0.0, 0.0, 0.0, 0.0, 0.0, 0.0, 0.0, 0.0, 0.0, 0.0, 0.0, 0.0, 0.0, 0.0, 0.0, 0.0, 0.0, 0.0, 0.0, 0.0, 0.0, 0.0, 0.0, 0.0, 0.0, 0.0, 0.0, 0.0, 0.0, 0.0, 0.0, 0.0, 0.0, 0.0, 0.0, 0.0, 0.0, 0.0, 0.0, 0.0, 0.0, 0.0, 0.0, 0.0, 0.0, 0.0, 0.0, 0.0, 0.0, 0.0, 0.0, 0.0, 0.0, 0.0, 0.0, 0.0, 0.0, 0.0, 0.0, 0.0, 0.0, 0.0, 0.0, 0.0, 0.0, 0.0, 0.0, 0.0, 0.0, 0.0, 0.0, 0.0, 0.0, 0.0, 0.0, 0.0, 0.0, 0.0, 0.0, 0.0, 0.0, 0.0, 0.0, 0.0, 0.0, 0.0, 0.0, 0.0, 0.0, 0.0, 0.0, 0.0, 0.0, 0.0],
  "Shots": 4096,
  "Size": 12,
  "Total Algorithm duration [s]": 6.383,
  "Total Classic duration [s]": 5.7642326,
  "Total Quantum duration [s]": 0.6187674000000002
}
