{
  "Depth": 5.0,
  "Job durations [ms]": [4.18210681527853, 3.8623730652034283, 3.7971329875290394, 4.008871968835592, 7.719970773905516, 3.792107105255127, 3.560116980224848, 3.912028856575489, 8.048358373343945, 3.654811065644026, 8.21723323315382, 3.936119843274355, 3.905388992279768, 8.185663260519505, 13.106374070048332, 7.435574196279049, 3.902199910953641, 8.216438814997673, 3.809289075434208, 3.8699479773640633, 3.714226884767413, 3.85871808975935, 8.118515834212303, 4.386118147522211, 3.997635096311569, 8.000499568879604, 8.81081074476242, 3.810619004070759, 9.831300005316734, 3.893702058121562, 3.900822950527072, 4.031857009977102, 4.005268216133118, 3.8768050726503134, 3.8756579160690308],
  "Optimizer durations [ms]": [9846.201, 8087.408, 7839.512, 8358.953, 6822.918, 7664.114, 7900.507, 70583.272, 9443.86, 7479.832, 8963.377, 7379.1, 60739.685, 6968.632, 6590.431, 35286.383, 7840.018, 7098.662, 7087.126, 7494.907, 7006.542, 7390.32, 21643.516, 33815.269, 7972.351, 10594.706, 8507.9, 9736.991, 7766.305, 7824.957, 7368.457, 7669.308, 7435.904, 10939.059, 7672.272],
  "Optimizer iterations": 35,
  "Qubits": 1,
  "Total Algorithm duration [s]": 462.818,
  "Total Classic duration [s]": 462.6287653360348,
  "Total Quantum duration [s]": 0.18923466396518052,
  "Expectation Value": -1.0,
  "Optimal Expectation Value": -1.0,
  "Optimizer params": [0.5, 0.5, 0.5, 0.5],
  "QPU": "4010001",
  "Problem": "IC",
  "Size": 1,
  "P": 0,
  "Shots": 4096
}