{
  "Depth": 5.0,
  "Job durations [ms]": [4.695631098002195, 3.902090946212411, 12.064918875694275, 7.505249232053757, 3.994524944573641, 3.9092828519642353, 3.917706198990345, 4.004483111202717, 3.754338948056102, 7.479219231754541, 3.8399449549615383, 7.3832250200212, 7.4827480129897594, 3.9708148688077927, 12.075072154402733, 4.064588807523251, 8.38252529501915, 3.8464649114757776, 4.086116794496775, 6.858740001916885, 3.9299270138144493, 12.569631449878216, 4.007075913250446, 8.241388015449047, 5.187219940125942, 5.153721198439598, 5.349529907107353, 7.791974116116762, 5.548521876335144, 7.92299211025238, 5.203185137361288, 8.361190557479858, 6.170483771711588, 3.768912050873041, 5.742852110415697, 7.657833863049746],
  "Optimizer durations [ms]": [8096.383, 21064.576, 12277.311, 69181.201, 35140.65, 8064.407, 8733.923, 8606.426, 6528.291, 8377.414, 7378.055, 7983.297, 33279.468, 34461.847, 35772.55, 35054.828, 68558.922, 8595.609, 7576.403, 6650.974, 6973.829, 7064.664, 9007.988, 8262.247, 68301.503, 10069.954, 7369.108, 8001.093, 7125.98, 8211.308, 6636.186, 6016.739, 6235.018, 6771.577, 7356.206, 6701.296],
  "Optimizer iterations": 36,
  "Qubits": 1,
  "Total Algorithm duration [s]": 611.487,
  "Total Classic duration [s]": 611.2671758747082,
  "Total Quantum duration [s]": 0.21982412529177964,
  "Expectation Value": -1.0,
  "Optimal Expectation Value": -1.0,
  "Optimizer params": [0.5, 0.5, 0.5, 0.5],
  "QPU": "4010001",
  "Problem": "IC",
  "Size": 1,
  "P": 0,
  "Shots": 4096
}