{
  "Depth": 2.0,
  "Expectation Value": -0.574400007724762,
  "Job durations [ms]": [0.06749999738531187, 0.072750000981614, 0.059899999541812576, 0.06185000165714882, 0.0671500001772074, 0.06790000043110922, 0.06520000169984996, 0.07639999967068434],
  "Optimal Expectation Value": -0.574400007724762,
  "Optimizer durations [ms]": [17.149, 16.162, 19.417, 15.263, 20.804, 11.258, 15.608, 21.362],
  "Optimizer iterations": 8,
  "Optimizer params": [1.0],
  "P": 0,
  "Problem": "RH",
  "QPU": "7000000",
  "Qubits": 1,
  "Shots": 4096,
  "Size": 1,
  "Total Algorithm duration [s]": 0.137,
  "Total Classic duration [s]": 0.13646134999845527,
  "Total Quantum duration [s]": 0.0005386500015447382
}
