{
  "Depth": 2.0,
  "Expectation Value": -0.574400007724762,
  "Job durations [ms]": [0.22924999939277768, 0.07215000005089678, 0.06089999988034833, 0.13055000090389512, 0.08250000246334821, 0.05730000157200266, 0.06275000123423524, 0.06415000098058954],
  "Optimal Expectation Value": -0.574400007724762,
  "Optimizer durations [ms]": [18.576, 18.955, 20.885, 14.104, 20.724, 13.637, 13.8, 20.393],
  "Optimizer iterations": 8,
  "Optimizer params": [1.0],
  "P": 0,
  "Problem": "RH",
  "QPU": "7000000",
  "Qubits": 1,
  "Shots": 4096,
  "Size": 1,
  "Total Algorithm duration [s]": 0.141,
  "Total Classic duration [s]": 0.1402404499935219,
  "Total Quantum duration [s]": 0.0007595500064780936
}
