{
  "Depth": 2.0,
  "Expectation Value": -0.574400007724762,
  "Job durations [ms]": [0.06279999979597051, 0.06425000174203888, 0.07774999903631397, 0.06204999954206869, 0.07105000258889049, 0.07465000089723617, 0.07004999861237593, 0.06105000102252234],
  "Optimal Expectation Value": -0.574400007724762,
  "Optimizer durations [ms]": [17.44, 13.45, 16.937, 14.884, 11.184, 21.792, 15.732, 15.266],
  "Optimizer iterations": 8,
  "Optimizer params": [1.0],
  "P": 0,
  "Problem": "RH",
  "QPU": "7000000",
  "Qubits": 1,
  "Shots": 4096,
  "Size": 1,
  "Total Algorithm duration [s]": 0.126,
  "Total Classic duration [s]": 0.12545634999676258,
  "Total Quantum duration [s]": 0.000543650003237417
}
