{
  "Depth": 2.0,
  "Expectation Value": -0.574400007724762,
  "Job durations [ms]": [0.06589999975403771, 0.06194999878061935, 0.08075000005192123, 0.24569999732193537, 0.06909999865456484, 0.05754999983764719, 0.0651500013191253, 0.06330000178422779],
  "Optimal Expectation Value": -0.574400007724762,
  "Optimizer durations [ms]": [19.746, 12.517, 20.039, 20.11, 21.516, 12.772, 16.778, 12.196],
  "Optimizer iterations": 8,
  "Optimizer params": [1.0],
  "P": 0,
  "Problem": "RH",
  "QPU": "7000000",
  "Qubits": 1,
  "Shots": 4096,
  "Size": 1,
  "Total Algorithm duration [s]": 0.135,
  "Total Classic duration [s]": 0.13429060000249593,
  "Total Quantum duration [s]": 0.0007093999975040788
}
