{
  "Depth": 2.0,
  "Expectation Value": -0.574400007724762,
  "Job durations [ms]": [0.08584999886807054, 0.10604999806673732, 0.061400001868605614, 0.16384999980800785, 0.08170000000973232, 0.09100000170292333, 0.0626500004727859, 0.06794999899284448],
  "Optimal Expectation Value": -0.574400007724762,
  "Optimizer durations [ms]": [16.606, 17.453, 17.436, 17.248, 13.474, 18.575, 21.592, 18.585],
  "Optimizer iterations": 8,
  "Optimizer params": [1.0],
  "P": 0,
  "Problem": "RH",
  "QPU": "7000000",
  "Qubits": 1,
  "Shots": 4096,
  "Size": 1,
  "Total Algorithm duration [s]": 0.14,
  "Total Classic duration [s]": 0.1392795500002103,
  "Total Quantum duration [s]": 0.0007204499997897074
}
