{
  "Circuit execution durations [ms]": [0.21864999871468171, 0.38744999619666487, 0.3083499977947213, 0.18865000311052427, 0.33260000782320276, 0.2442499971948564, 0.24219999613706023, 0.19260000408394262, 0.18655000167200342, 0.17895000200951472, 0.19020000036107376, 0.24359999952139333, 0.23924999550217763, 0.2450499960104935, 0.24425000447081402, 0.26169999910052866, 0.24179999309126288, 0.24089999351417646, 0.2375999974901788, 0.24545000633224845, 0.23254999541677535, 0.24169999960577115, 0.2733999936026521, 0.23455000336980447, 0.24760000815149397, 0.24459999985992908, 0.264899994363077, 0.2433500048937276, 0.2451999971526675, 0.23999999393709004, 0.2518999972380698, 0.24729999131523073, 0.2563499947427772, 0.2426999999443069, 0.23504999990109354, 0.24160000612027943, 0.2617499994812533, 0.24329999723704532, 0.24250000569736585, 0.24270000722026452, 0.24249999842140824, 0.240400004258845, 0.25365000328747556, 0.24304999533342198, 0.2425499988021329, 0.23910000891191885, 0.2424000049359165, 0.23039999359752983, 0.2422499965177849, 0.24440000561298802, 0.23960000544320792, 0.2447500010021031, 0.24000000121304765, 0.24454999947920442, 0.24110000231303275, 0.24894999660318717, 0.2427500076009892, 0.24744999973336235, 0.26229998911730945, 0.2419500015093945, 0.243800001044292, 0.24509999639121816, 0.24220000341301784, 0.240250003116671, 0.2830500015988946, 0.24034999660216272, 0.23910000163596123, 0.2390000008745119, 0.2428499938105233, 0.2374500036239624, 0.2152500019292347, 0.24139999004546553, 0.23830000282032415, 0.2437999937683344, 0.24204999499488622, 0.24154999846359715, 0.24944999313447624, 0.23495000641560182, 0.2395999981672503, 0.24124999617924914, 0.261799999861978, 0.2399500081082806, 0.24029999622143805, 0.24125000345520675, 0.23835000320104882, 0.24415000370936468, 0.26250000519212335, 0.26104999415110797, 0.24130000383593142, 0.23569999757455662, 0.23820000933483243, 0.25794999237405136, 0.23920000239741057, 0.2457999944454059, 0.24235000455519184, 0.24159999884432182, 0.240100001974497, 0.27600000612437725, 0.23945000430103391, 0.231999991228804, 0.24105000193230808, 0.24494999524904415, 0.24110000231303275, 0.24390000180574134, 0.24310000299010426, 0.23815000167815015, 0.24950000079115853, 0.24479999410687014, 0.24569999368395656, 0.2427500076009892, 0.24709999706828967, 0.24539999867556617, 0.2614499971969053, 0.24465000024065375, 0.240550005401019, 0.243800001044292, 0.24259999918285757, 0.24130000383593142, 0.24750000011408702, 0.23680000595049933, 0.243499998759944, 0.25984999228967354, 0.24045000463956967, 0.24185000802390277, 0.2605499903438613, 0.2422499965177849, 0.24110000231303275, 0.3004000100190751, 0.3376000022399239, 0.24110000231303275, 0.2456499933032319, 0.24280000070575625, 0.24014999507926404, 0.24334999761777, 0.2387000058661215, 0.24280000798171386, 0.23784999939380214, 0.26839999918593094, 0.22629999148193747, 0.2430500026093796, 0.24020000273594633, 0.24915000540204346, 0.24465000024065375, 0.23945000430103391, 0.26149999757763, 0.24805000430205837, 0.23765000514686108, 0.2479999966453761, 0.24065000616246834, 0.2396500058239326, 0.24110000231303275, 0.24485000176355243, 0.23894999321782961, 0.24214999575633556, 0.2397499993094243, 0.24344999837921932, 0.24695000320207328, 0.23925001005409285, 0.24539999867556617, 0.23835000320104882, 0.26169999910052866, 0.24339999072253704, 0.24465000024065375, 0.2410000015515834, 0.25335000100312755, 0.2414499904261902, 0.2629000009619631, 0.24215000303229317, 0.24205000227084383, 0.24219999613706023, 0.24485000176355243, 0.24119999579852447, 0.24824999854899943, 0.24440000561298802, 0.24264999956358224, 0.2403999969828874, 0.24575000134063885, 0.2436500071780756, 0.24665000091772527, 0.24459999985992908, 0.24500000290572643, 0.24164999194908887, 0.24459999258397147, 0.24164999922504649, 0.24295000184793025, 0.24145000497810543, 0.2430500026093796, 0.24854999355738983, 0.24349999148398638, 0.24924999888753518, 0.19674999930430204, 0.36660001205746084, 0.4065500106662512, 0.23920000239741057, 0.24319999647559598, 0.24249999842140824, 0.3845000101136975, 0.3039500006707385, 0.3456999984337017, 0.3020000076503493, 0.16220000179600902, 0.1684500020928681, 0.2796500048134476, 0.1731000011204742, 0.1634500004001893, 0.1645500015001744, 0.16680000408086926, 0.2405499981250614, 0.23969999892869964, 0.2392999958829023, 0.24434999068034813, 0.2451999971526675, 0.24119999579852447, 0.24220000341301784, 0.24420000409008935, 0.2573000019765459, 0.26029998844023794, 0.24170000688172877, 0.24154999118763953, 0.24474999372614548, 0.2414499904261902, 0.2308999974047765, 0.24235000455519184, 0.2429999949526973, 0.24204999499488622, 0.2391499947407283, 0.2257999949506484, 0.2375999974901788, 0.2397499920334667, 0.24205000227084383, 0.3194500022800639, 0.35764998756349087, 0.17644999752519652, 0.18280000222148374, 0.17144999583251774, 0.27099999715574086, 0.3368500038050115, 0.3539500030456111, 0.3685000046971254, 0.2903500062529929, 0.36159999581286684, 0.3770499970414676, 0.3730999887920916, 0.16560000221943483, 0.31740000122226775, 0.17814999591792002, 0.3138499960186891, 0.182400006451644, 0.3854999886243604, 0.37850000808248296, 0.2440999960526824, 0.23180000425782055, 0.24215000303229317, 0.2690999972401187, 0.24140000459738076, 0.2616499914438464, 0.23784999939380214, 0.24784999550320208, 0.25445000937907025, 0.24500000290572643, 0.17180000577354804, 0.3514500058372505, 0.24179999309126288, 0.2443999983370304, 0.24185000074794516, 0.24185000074794516, 0.23984999279491603, 0.225650001084432, 0.24259999918285757, 0.24074999237200245, 0.24104999465635046, 0.23839999630581588, 0.24124999617924914, 0.2410000015515834, 0.24325000413227826, 0.24189999385271221, 0.24200000189011917, 0.2424000049359165, 0.26605000311974436, 0.2445499922032468, 0.24560000747442245, 0.24074999964796007, 0.250899996899534, 0.24215000303229317, 0.2506500022718683, 0.23940000392030925, 0.258400003076531, 0.24385000870097429, 0.24539999867556617, 0.22614999761572108, 0.24149999808287248, 0.24024999584071338, 0.23995000083232298, 0.2422499965177849, 0.25710000772960484, 0.2432000037515536, 0.24015000235522166, 0.23259999579750001, 0.2426000064588152, 0.24694999592611566, 0.2403999969828874, 0.24044999736361206, 0.24220000341301784, 0.26745000650407746, 0.24149999808287248, 0.2595000041765161, 0.24149999808287248, 0.2422500037937425, 0.2390000008745119, 0.2383499959250912, 0.2430500026093796, 0.24200000189011917, 0.240550005401019, 0.24184999347198755, 0.2411499954177998, 0.2400499943178147, 0.24894999660318717, 0.23844999668654054, 0.2415000053588301, 0.2413500042166561, 0.24169999960577115, 0.2425499915261753, 0.2624500048113987, 0.24249999842140824, 0.24384999414905906, 0.2435000060359016, 0.24509999639121816, 0.24399999529123306, 0.26280000020051375, 0.24295000184793025, 0.24235000455519184, 0.24589999520685524, 0.2406999992672354, 0.2460000032442622, 0.24049999774433672, 0.24450000637443736, 0.24214999575633556, 0.2274999933433719, 0.23884999245638028, 0.24034999660216272, 0.24340000527445227, 0.2464499993948266, 0.2426999999443069, 0.24094999389490113, 0.26000000070780516, 0.2417499927105382, 0.2397499993094243, 0.24385000142501667, 0.23780000628903508, 0.24375000793952495, 0.240700006543193, 0.24589999520685524, 0.24164999922504649, 0.2485999939381145, 0.240400004258845],
  "Depth": 2.0,
  "Expectation Value": -6.969244003295898,
  "Optimal Expectation Value": -8.960200309753418,
  "Optimizer durations [ms]": [9.773, 15.103, 25.015, 22.177, 9.884, 17.769, 15.243, 22.072, 20.366, 23.17, 15.807, 7.556, 7.053, 7.347, 7.038, 7.674, 7.316, 7.105, 7.31, 7.078, 7.777, 7.064, 7.97, 7.377, 7.486, 7.089, 7.851, 7.309, 7.399, 7.101, 7.442, 7.496, 7.669, 9.917, 7.107, 7.257, 7.427, 7.323, 7.334, 7.239, 7.217, 7.342, 7.585, 7.133, 7.269, 6.964, 7.324, 7.875, 7.292, 7.463, 7.271, 7.145, 7.416, 7.105, 7.174, 7.413, 7.21, 7.447, 7.493, 7.2, 7.185, 7.365, 7.413, 7.183, 8.234, 7.152, 7.178, 7.282, 7.232, 7.361, 7.913, 7.396, 7.275, 7.343, 7.09, 7.176, 7.562, 7.321, 7.2, 7.343, 7.726, 7.167, 7.348, 7.258, 7.375, 7.229, 7.638, 7.683, 7.201, 7.068, 7.205, 7.696, 7.429, 7.503, 7.249, 7.456, 7.415, 7.909, 7.253, 7.508, 7.33, 7.201, 7.352, 7.232, 7.268, 7.212, 7.322, 7.292, 8.076, 7.357, 7.16, 7.406, 7.598, 7.381, 7.604, 7.458, 7.215, 7.32, 7.379, 7.287, 7.499, 7.604, 7.168, 7.141, 7.535, 7.334, 7.242, 24.581, 9.412, 7.294, 7.185, 7.407, 7.221, 7.341, 7.315, 7.09, 7.186, 7.925, 7.46, 7.191, 7.283, 7.534, 7.267, 7.196, 7.549, 7.405, 7.177, 7.304, 7.317, 7.245, 7.17, 7.149, 7.25, 7.151, 7.299, 7.593, 7.668, 7.197, 7.336, 7.175, 7.815, 7.085, 7.09, 7.166, 7.401, 7.405, 7.786, 10.043, 7.279, 7.22, 7.055, 7.067, 7.466, 7.216, 7.309, 7.036, 7.512, 7.276, 7.482, 7.335, 7.353, 7.186, 7.597, 7.339, 7.213, 7.122, 7.041, 7.434, 7.29, 7.777, 12.662, 10.877, 14.009, 7.532, 7.41, 7.488, 11.22, 10.253, 12.856, 10.758, 20.117, 14.273, 23.393, 23.543, 21.226, 20.587, 11.65, 13.912, 7.214, 7.293, 7.207, 7.07, 7.361, 7.382, 7.29, 7.792, 7.78, 7.41, 7.493, 7.126, 7.395, 7.846, 7.236, 7.297, 7.284, 7.185, 7.663, 7.057, 6.97, 7.256, 19.915, 21.502, 20.791, 17.461, 11.714, 13.313, 20.986, 9.579, 9.921, 13.263, 9.728, 10.667, 12.364, 17.261, 24.563, 24.976, 15.36, 10.256, 10.497, 10.261, 7.448, 17.924, 7.211, 7.774, 7.4, 7.672, 7.386, 7.39, 7.637, 7.881, 22.706, 9.543, 9.67, 7.421, 7.49, 7.218, 7.394, 7.616, 7.262, 7.379, 7.203, 7.154, 7.274, 7.04, 7.244, 7.258, 7.119, 7.055, 7.654, 7.455, 7.383, 7.28, 7.451, 7.324, 7.52, 7.287, 7.767, 7.33, 7.289, 7.737, 7.479, 7.195, 7.141, 7.169, 7.612, 7.154, 6.959, 7.583, 7.289, 7.435, 7.191, 7.258, 7.393, 7.601, 7.477, 7.654, 7.122, 7.409, 7.294, 7.179, 7.078, 7.499, 7.327, 7.182, 7.159, 7.103, 7.423, 7.009, 7.263, 7.04, 7.09, 7.271, 7.669, 7.42, 7.308, 7.281, 7.156, 7.285, 7.753, 7.078, 7.304, 7.676, 7.103, 7.433, 7.537, 7.202, 7.12, 7.957, 7.077, 7.666, 7.179, 7.269, 7.109, 7.075, 7.829, 7.231, 7.134, 7.348, 12.063, 7.46, 7.172, 7.227, 6.973, 7.374, 7.171],
  "Optimizer iterations": 355,
  "Optimizer params": [0.0018018860569500236, 0.49588965590448614, 0.9963756158653818, 0.4986348948686031, 0.4949662719316812, 0.0021421298813917625, 0.9800829637223895, 0.4960613782541292, 0.005113703145379326, 0.9348896289071505, 0.9990006024827158, 0.9985648874546077, 0.9992700414220888, 0.4995965431921065],
  "P": 0,
  "Problem": "RH",
  "QJob durations [ms]": [0.21864999871468171, 0.38744999619666487, 0.3083499977947213, 0.18865000311052427, 0.33260000782320276, 0.2442499971948564, 0.24219999613706023, 0.19260000408394262, 0.18655000167200342, 0.17895000200951472, 0.19020000036107376, 0.24359999952139333, 0.23924999550217763, 0.2450499960104935, 0.24425000447081402, 0.26169999910052866, 0.24179999309126288, 0.24089999351417646, 0.2375999974901788, 0.24545000633224845, 0.23254999541677535, 0.24169999960577115, 0.2733999936026521, 0.23455000336980447, 0.24760000815149397, 0.24459999985992908, 0.264899994363077, 0.2433500048937276, 0.2451999971526675, 0.23999999393709004, 0.2518999972380698, 0.24729999131523073, 0.2563499947427772, 0.2426999999443069, 0.23504999990109354, 0.24160000612027943, 0.2617499994812533, 0.24329999723704532, 0.24250000569736585, 0.24270000722026452, 0.24249999842140824, 0.240400004258845, 0.25365000328747556, 0.24304999533342198, 0.2425499988021329, 0.23910000891191885, 0.2424000049359165, 0.23039999359752983, 0.2422499965177849, 0.24440000561298802, 0.23960000544320792, 0.2447500010021031, 0.24000000121304765, 0.24454999947920442, 0.24110000231303275, 0.24894999660318717, 0.2427500076009892, 0.24744999973336235, 0.26229998911730945, 0.2419500015093945, 0.243800001044292, 0.24509999639121816, 0.24220000341301784, 0.240250003116671, 0.2830500015988946, 0.24034999660216272, 0.23910000163596123, 0.2390000008745119, 0.2428499938105233, 0.2374500036239624, 0.2152500019292347, 0.24139999004546553, 0.23830000282032415, 0.2437999937683344, 0.24204999499488622, 0.24154999846359715, 0.24944999313447624, 0.23495000641560182, 0.2395999981672503, 0.24124999617924914, 0.261799999861978, 0.2399500081082806, 0.24029999622143805, 0.24125000345520675, 0.23835000320104882, 0.24415000370936468, 0.26250000519212335, 0.26104999415110797, 0.24130000383593142, 0.23569999757455662, 0.23820000933483243, 0.25794999237405136, 0.23920000239741057, 0.2457999944454059, 0.24235000455519184, 0.24159999884432182, 0.240100001974497, 0.27600000612437725, 0.23945000430103391, 0.231999991228804, 0.24105000193230808, 0.24494999524904415, 0.24110000231303275, 0.24390000180574134, 0.24310000299010426, 0.23815000167815015, 0.24950000079115853, 0.24479999410687014, 0.24569999368395656, 0.2427500076009892, 0.24709999706828967, 0.24539999867556617, 0.2614499971969053, 0.24465000024065375, 0.240550005401019, 0.243800001044292, 0.24259999918285757, 0.24130000383593142, 0.24750000011408702, 0.23680000595049933, 0.243499998759944, 0.25984999228967354, 0.24045000463956967, 0.24185000802390277, 0.2605499903438613, 0.2422499965177849, 0.24110000231303275, 0.3004000100190751, 0.3376000022399239, 0.24110000231303275, 0.2456499933032319, 0.24280000070575625, 0.24014999507926404, 0.24334999761777, 0.2387000058661215, 0.24280000798171386, 0.23784999939380214, 0.26839999918593094, 0.22629999148193747, 0.2430500026093796, 0.24020000273594633, 0.24915000540204346, 0.24465000024065375, 0.23945000430103391, 0.26149999757763, 0.24805000430205837, 0.23765000514686108, 0.2479999966453761, 0.24065000616246834, 0.2396500058239326, 0.24110000231303275, 0.24485000176355243, 0.23894999321782961, 0.24214999575633556, 0.2397499993094243, 0.24344999837921932, 0.24695000320207328, 0.23925001005409285, 0.24539999867556617, 0.23835000320104882, 0.26169999910052866, 0.24339999072253704, 0.24465000024065375, 0.2410000015515834, 0.25335000100312755, 0.2414499904261902, 0.2629000009619631, 0.24215000303229317, 0.24205000227084383, 0.24219999613706023, 0.24485000176355243, 0.24119999579852447, 0.24824999854899943, 0.24440000561298802, 0.24264999956358224, 0.2403999969828874, 0.24575000134063885, 0.2436500071780756, 0.24665000091772527, 0.24459999985992908, 0.24500000290572643, 0.24164999194908887, 0.24459999258397147, 0.24164999922504649, 0.24295000184793025, 0.24145000497810543, 0.2430500026093796, 0.24854999355738983, 0.24349999148398638, 0.24924999888753518, 0.19674999930430204, 0.36660001205746084, 0.4065500106662512, 0.23920000239741057, 0.24319999647559598, 0.24249999842140824, 0.3845000101136975, 0.3039500006707385, 0.3456999984337017, 0.3020000076503493, 0.16220000179600902, 0.1684500020928681, 0.2796500048134476, 0.1731000011204742, 0.1634500004001893, 0.1645500015001744, 0.16680000408086926, 0.2405499981250614, 0.23969999892869964, 0.2392999958829023, 0.24434999068034813, 0.2451999971526675, 0.24119999579852447, 0.24220000341301784, 0.24420000409008935, 0.2573000019765459, 0.26029998844023794, 0.24170000688172877, 0.24154999118763953, 0.24474999372614548, 0.2414499904261902, 0.2308999974047765, 0.24235000455519184, 0.2429999949526973, 0.24204999499488622, 0.2391499947407283, 0.2257999949506484, 0.2375999974901788, 0.2397499920334667, 0.24205000227084383, 0.3194500022800639, 0.35764998756349087, 0.17644999752519652, 0.18280000222148374, 0.17144999583251774, 0.27099999715574086, 0.3368500038050115, 0.3539500030456111, 0.3685000046971254, 0.2903500062529929, 0.36159999581286684, 0.3770499970414676, 0.3730999887920916, 0.16560000221943483, 0.31740000122226775, 0.17814999591792002, 0.3138499960186891, 0.182400006451644, 0.3854999886243604, 0.37850000808248296, 0.2440999960526824, 0.23180000425782055, 0.24215000303229317, 0.2690999972401187, 0.24140000459738076, 0.2616499914438464, 0.23784999939380214, 0.24784999550320208, 0.25445000937907025, 0.24500000290572643, 0.17180000577354804, 0.3514500058372505, 0.24179999309126288, 0.2443999983370304, 0.24185000074794516, 0.24185000074794516, 0.23984999279491603, 0.225650001084432, 0.24259999918285757, 0.24074999237200245, 0.24104999465635046, 0.23839999630581588, 0.24124999617924914, 0.2410000015515834, 0.24325000413227826, 0.24189999385271221, 0.24200000189011917, 0.2424000049359165, 0.26605000311974436, 0.2445499922032468, 0.24560000747442245, 0.24074999964796007, 0.250899996899534, 0.24215000303229317, 0.2506500022718683, 0.23940000392030925, 0.258400003076531, 0.24385000870097429, 0.24539999867556617, 0.22614999761572108, 0.24149999808287248, 0.24024999584071338, 0.23995000083232298, 0.2422499965177849, 0.25710000772960484, 0.2432000037515536, 0.24015000235522166, 0.23259999579750001, 0.2426000064588152, 0.24694999592611566, 0.2403999969828874, 0.24044999736361206, 0.24220000341301784, 0.26745000650407746, 0.24149999808287248, 0.2595000041765161, 0.24149999808287248, 0.2422500037937425, 0.2390000008745119, 0.2383499959250912, 0.2430500026093796, 0.24200000189011917, 0.240550005401019, 0.24184999347198755, 0.2411499954177998, 0.2400499943178147, 0.24894999660318717, 0.23844999668654054, 0.2415000053588301, 0.2413500042166561, 0.24169999960577115, 0.2425499915261753, 0.2624500048113987, 0.24249999842140824, 0.24384999414905906, 0.2435000060359016, 0.24509999639121816, 0.24399999529123306, 0.26280000020051375, 0.24295000184793025, 0.24235000455519184, 0.24589999520685524, 0.2406999992672354, 0.2460000032442622, 0.24049999774433672, 0.24450000637443736, 0.24214999575633556, 0.2274999933433719, 0.23884999245638028, 0.24034999660216272, 0.24340000527445227, 0.2464499993948266, 0.2426999999443069, 0.24094999389490113, 0.26000000070780516, 0.2417499927105382, 0.2397499993094243, 0.24385000142501667, 0.23780000628903508, 0.24375000793952495, 0.240700006543193, 0.24589999520685524, 0.24164999922504649, 0.2485999939381145, 0.240400004258845],
  "QPU": "7000000",
  "Qubits": 14,
  "Queue durations [ms]": [0.0, 0.0, 0.0, 0.0, 0.0, 0.0, 0.0, 0.0, 0.0, 0.0, 0.0, 0.0, 0.0, 0.0, 0.0, 0.0, 0.0, 0.0, 0.0, 0.0, 0.0, 0.0, 0.0, 0.0, 0.0, 0.0, 0.0, 0.0, 0.0, 0.0, 0.0, 0.0, 0.0, 0.0, 0.0, 0.0, 0.0, 0.0, 0.0, 0.0, 0.0, 0.0, 0.0, 0.0, 0.0, 0.0, 0.0, 0.0, 0.0, 0.0, 0.0, 0.0, 0.0, 0.0, 0.0, 0.0, 0.0, 0.0, 0.0, 0.0, 0.0, 0.0, 0.0, 0.0, 0.0, 0.0, 0.0, 0.0, 0.0, 0.0, 0.0, 0.0, 0.0, 0.0, 0.0, 0.0, 0.0, 0.0, 0.0, 0.0, 0.0, 0.0, 0.0, 0.0, 0.0, 0.0, 0.0, 0.0, 0.0, 0.0, 0.0, 0.0, 0.0, 0.0, 0.0, 0.0, 0.0, 0.0, 0.0, 0.0, 0.0, 0.0, 0.0, 0.0, 0.0, 0.0, 0.0, 0.0, 0.0, 0.0, 0.0, 0.0, 0.0, 0.0, 0.0, 0.0, 0.0, 0.0, 0.0, 0.0, 0.0, 0.0, 0.0, 0.0, 0.0, 0.0, 0.0, 0.0, 0.0, 0.0, 0.0, 0.0, 0.0, 0.0, 0.0, 0.0, 0.0, 0.0, 0.0, 0.0, 0.0, 0.0, 0.0, 0.0, 0.0, 0.0, 0.0, 0.0, 0.0, 0.0, 0.0, 0.0, 0.0, 0.0, 0.0, 0.0, 0.0, 0.0, 0.0, 0.0, 0.0, 0.0, 0.0, 0.0, 0.0, 0.0, 0.0, 0.0, 0.0, 0.0, 0.0, 0.0, 0.0, 0.0, 0.0, 0.0, 0.0, 0.0, 0.0, 0.0, 0.0, 0.0, 0.0, 0.0, 0.0, 0.0, 0.0, 0.0, 0.0, 0.0, 0.0, 0.0, 0.0, 0.0, 0.0, 0.0, 0.0, 0.0, 0.0, 0.0, 0.0, 0.0, 0.0, 0.0, 0.0, 0.0, 0.0, 0.0, 0.0, 0.0, 0.0, 0.0, 0.0, 0.0, 0.0, 0.0, 0.0, 0.0, 0.0, 0.0, 0.0, 0.0, 0.0, 0.0, 0.0, 0.0, 0.0, 0.0, 0.0, 0.0, 0.0, 0.0, 0.0, 0.0, 0.0, 0.0, 0.0, 0.0, 0.0, 0.0, 0.0, 0.0, 0.0, 0.0, 0.0, 0.0, 0.0, 0.0, 0.0, 0.0, 0.0, 0.0, 0.0, 0.0, 0.0, 0.0, 0.0, 0.0, 0.0, 0.0, 0.0, 0.0, 0.0, 0.0, 0.0, 0.0, 0.0, 0.0, 0.0, 0.0, 0.0, 0.0, 0.0, 0.0, 0.0, 0.0, 0.0, 0.0, 0.0, 0.0, 0.0, 0.0, 0.0, 0.0, 0.0, 0.0, 0.0, 0.0, 0.0, 0.0, 0.0, 0.0, 0.0, 0.0, 0.0, 0.0, 0.0, 0.0, 0.0, 0.0, 0.0, 0.0, 0.0, 0.0, 0.0, 0.0, 0.0, 0.0, 0.0, 0.0, 0.0, 0.0, 0.0, 0.0, 0.0, 0.0, 0.0, 0.0, 0.0, 0.0, 0.0, 0.0, 0.0, 0.0, 0.0, 0.0, 0.0, 0.0, 0.0, 0.0, 0.0, 0.0, 0.0, 0.0, 0.0, 0.0, 0.0, 0.0, 0.0, 0.0, 0.0, 0.0, 0.0, 0.0, 0.0, 0.0, 0.0, 0.0, 0.0, 0.0, 0.0, 0.0, 0.0, 0.0, 0.0],
  "Shots": 4096,
  "Size": 14,
  "Total Algorithm duration [s]": 3.062,
  "Total Classic duration [s]": 2.9740357000392685,
  "Total Quantum duration [s]": 0.0879642999607313
}
