{
  "Circuit execution durations [ms]": [57.44576454162598, 57.329654693603516, 54.569125175476074, 58.03358554840088, 56.40685558319092, 80.36339282989502, 56.35416507720947, 82.77416229248047, 56.942105293273926, 56.80882930755615, 55.74607849121094, 59.34774875640869, 58.786749839782715, 56.23984336853027, 58.68685245513916, 53.93195152282715, 57.92272090911865, 58.229684829711914, 80.09624481201172, 57.396650314331055, 81.00605010986328, 58.49349498748779, 56.76090717315674, 57.58821964263916, 53.228139877319336, 56.314826011657715, 58.96914005279541, 57.404518127441406, 56.359052658081055, 57.486891746520996, 56.751251220703125, 84.2447280883789, 55.75549602508545, 80.28757572174072, 57.221055030822754, 58.35223197937012, 54.75306510925293, 60.33647060394287, 55.70220947265625, 57.111144065856934, 57.21473693847656, 55.008888244628906, 56.751132011413574, 55.75275421142578, 82.52811431884766, 56.398987770080566, 86.04085445404053, 56.56445026397705, 57.749271392822266, 57.40177631378174, 54.02100086212158, 57.729363441467285, 59.41653251647949, 56.944966316223145, 55.078983306884766, 56.06365203857422, 55.6943416595459, 80.6812047958374, 56.81324005126953, 82.59379863739014, 54.894328117370605, 58.34174156188965, 56.0603141784668, 58.51709842681885, 55.50336837768555, 57.9448938369751, 56.807518005371094, 53.22444438934326, 54.71956729888916, 55.56654930114746, 85.30247211456299, 54.27408218383789, 80.58786392211914, 58.35676193237305, 58.77208709716797, 59.39781665802002, 57.72972106933594, 57.338595390319824, 57.14261531829834, 54.7642707824707, 58.63356590270996],
  "Depth": 2.0,
  "Expectation Value": -2.638742446899414,
  "Optimal Expectation Value": -2.7446999549865723,
  "Optimizer durations [ms]": [557.818, 562.666, 555.312, 607.176, 557.045, 557.706, 560.661, 607.65, 559.812, 554.919, 557.209, 564.531, 606.975, 555.718, 564.217, 554.607, 604.267, 559.606, 558.639, 564.511, 606.236, 568.06, 554.015, 560.273, 550.877, 600.037, 559.316, 563.117, 557.6, 603.77, 556.763, 565.778, 558.465, 604.705, 559.788, 556.357, 555.8, 566.291, 600.925, 556.419, 560.494, 557.303, 601.999, 554.726, 561.548, 559.913, 614.807, 558.279, 557.871, 561.017, 553.442, 602.842, 562.453, 560.626, 556.019, 602.421, 553.296, 559.86, 561.606, 606.547, 557.553, 557.69, 558.19, 560.684, 603.3, 560.951, 560.51, 555.296, 601.469, 554.447, 568.391, 555.949, 607.972, 561.81, 561.129, 563.798, 561.562, 604.106, 559.269, 556.042, 563.782],
  "Optimizer iterations": 81,
  "Optimizer params": [1.0, 0.4928695978032774, 0.0032077935740470074, 0.49340134299315586, 0.5123254420103115],
  "P": 0,
  "Problem": "RH",
  "QJob durations [ms]": [67.15703010559082, 92.48542785644531, 64.35096263885498, 68.10319423675537, 66.2010908126831, 90.13628959655762, 66.14935398101807, 92.7278995513916, 66.7186975479126, 66.68901443481445, 65.50920009613037, 68.6044692993164, 68.66872310638428, 66.00499153137207, 93.45865249633789, 63.691020011901855, 67.90292263031006, 68.0316686630249, 89.7970199584961, 67.62814521789551, 90.89481830596924, 68.21060180664063, 66.45381450653076, 67.3443078994751, 62.97743320465088, 65.99533557891846, 68.64798069000244, 92.38958358764648, 66.06745719909668, 67.47353076934814, 66.52581691741943, 94.06554698944092, 65.40966033935547, 90.25466442108154, 66.95222854614258, 68.198561668396, 64.93628025054932, 70.12057304382324, 65.43636322021484, 66.87712669372559, 92.12064743041992, 64.68033790588379, 66.79332256317139, 65.41168689727783, 92.25630760192871, 66.17820262908936, 95.9620475769043, 66.34855270385742, 67.52979755401611, 67.02041625976563, 64.08822536468506, 67.39211082458496, 69.08929347991943, 91.82572364807129, 64.7134780883789, 66.1325454711914, 65.5142068862915, 90.38424491882324, 66.63405895233154, 92.4382209777832, 64.6822452545166, 67.96705722808838, 66.37048721313477, 68.21262836456299, 65.32478332519531, 67.88623332977295, 91.70937538146973, 63.03238868713379, 64.70942497253418, 65.30189514160156, 95.01492977142334, 63.924551010131836, 90.53468704223633, 68.05789470672607, 68.60160827636719, 69.13995742797852, 67.3452615737915, 67.14129447937012, 66.97487831115723, 89.59543704986572, 68.37999820709229],
  "QPU": "300002E",
  "Qubits": 5,
  "Queue durations [ms]": [0.0, 0.0, 0.0, 0.0, 0.0, 0.0, 0.0, 0.0, 0.0, 0.0, 0.0, 0.0, 0.0, 0.0, 0.0, 0.0, 0.0, 0.0, 0.0, 0.0, 0.0, 0.0, 0.0, 0.0, 0.0, 0.0, 0.0, 0.0, 0.0, 0.0, 0.0, 0.0, 0.0, 0.0, 0.0, 0.0, 0.0, 0.0, 0.0, 0.0, 0.0, 0.0, 0.0, 0.0, 0.0, 0.0, 0.0, 0.0, 0.0, 0.0, 0.0, 0.0, 0.0, 0.0, 0.0, 0.0, 0.0, 0.0, 0.0, 0.0, 0.0, 0.0, 0.0, 0.0, 0.0, 0.0, 0.0, 0.0, 0.0, 0.0, 0.0, 0.0, 0.0, 0.0, 0.0, 0.0, 0.0, 0.0, 0.0, 0.0, 0.0],
  "Shots": 4096,
  "Size": 5,
  "Total Algorithm duration [s]": 46.116,
  "Total Classic duration [s]": 40.23833209609985,
  "Total Quantum duration [s]": 5.8776679039001465
}
