{
  "Depth": 59.0,
  "Expectation Value": -1.0,
  "Job durations [ms]": [0.5408999999999999, 0.40650000000000003, 0.4822, 0.6307, 0.4756, 0.3956, 0.6488, 0.3887, 0.40440000000000004, 0.4083, 0.4043, 0.48069999999999996, 0.40099999999999997, 0.4041, 0.4165, 0.3852, 0.4209, 0.3973, 0.6761999999999999, 0.5002, 0.4078, 0.4083, 0.4885, 0.5442, 0.48069999999999996, 0.41209999999999997, 0.3869, 0.4061, 0.4127, 0.45389999999999997, 0.4016, 0.3935, 0.3945, 0.3997, 0.3865, 0.4012, 0.40099999999999997, 0.4327, 0.5301, 0.3998, 0.3917, 0.5175, 0.4478, 0.7964, 0.4167, 0.455, 0.6099, 0.3994, 0.4004, 0.3821, 0.496, 0.7885, 0.7945, 0.415, 0.4943, 0.38939999999999997, 0.6842, 0.6296, 0.7252, 0.49050000000000005, 0.4, 0.4075, 0.3996, 0.3951, 0.4647, 0.40230000000000005, 0.4046, 0.4104, 0.393, 0.48910000000000003, 0.3971, 0.4097, 0.3942, 0.4863, 0.7818, 0.4078, 0.4013, 0.7774, 0.408, 0.5042, 0.4125, 0.5325, 0.3964, 0.6258, 0.4056],
  "Optimal Expectation Value": -1.0,
  "Optimizer durations [ms]": [10.888, 13.956, 10.283, 10.737, 10.103, 14.147, 13.717, 11.248, 14.312, 14.291, 11.639, 7.321, 14.041, 14.358, 11.72, 14.054, 14.08, 13.886, 10.729, 10.351, 14.193, 13.671, 9.948, 10.479, 10.245, 10.152, 14.101, 12.855, 14.472, 12.227, 10.423, 14.043, 13.761, 11.052, 12.1, 14.139, 12.435, 13.415, 10.049, 12.434, 11.949, 9.233, 12.806, 13.485, 12.675, 13.484, 13.526, 11.792, 10.599, 13.497, 13.322, 13.676, 13.575, 11.573, 10.275, 10.393, 13.556, 11.864, 14.076, 10.134, 13.951, 13.807, 14.227, 9.264, 13.477, 9.764, 10.151, 14.083, 13.757, 10.228, 9.797, 10.595, 13.866, 9.986, 10.093, 11.161, 14.21, 12.584, 10.642, 10.298, 14.187, 13.345, 13.901, 10.225, 12.253],
  "Optimizer iterations": 85,
  "Optimizer params": [0.7607966442672396, 0.08971140344486594, 1.0, 0.4393139582724029, 0.6285204382606898, 0.15358411507787711],
  "P": 3,
  "Problem": "DSP",
  "QPU": "7000000",
  "Qubits": 4,
  "Shots": 4096,
  "Size": 2,
  "Total Algorithm duration [s]": 1.037,
  "Total Classic duration [s]": 0.9969591,
  "Total Quantum duration [s]": 0.040040899999999977
}
