{
  "Depth": 59.0,
  "Expectation Value": -1.0,
  "Job durations [ms]": [0.4419, 0.5203, 0.2921, 0.4212, 0.3983, 0.2306, 0.5197999999999999, 0.5143, 0.5058, 0.4199, 0.39399999999999996, 0.5762999999999999, 0.4324, 0.4993, 0.6082000000000001, 0.39530000000000004, 0.38680000000000003, 0.4082, 0.4083, 0.40509999999999996, 0.3846, 0.3831, 0.3916, 0.426, 0.7923, 0.3969, 0.3907, 0.4081, 0.7242000000000001, 0.6243000000000001, 0.4093, 0.5056, 0.634, 0.506, 0.7038, 0.408, 0.7883, 0.4309, 0.4013, 0.5102, 0.397, 0.392, 0.7309, 0.3852, 0.3943, 0.38289999999999996, 0.3993, 0.5181, 0.3956, 0.39790000000000003, 0.41800000000000004, 0.5093, 0.40349999999999997, 0.4904, 0.3995, 0.6314, 0.3852, 0.4036, 0.4421, 0.6393, 0.41459999999999997, 0.3911, 0.7418, 0.41459999999999997, 0.4813, 0.3851, 0.41659999999999997, 0.3964, 0.5093, 0.40759999999999996, 0.687, 0.39649999999999996, 0.3877, 0.4929, 0.3991],
  "Optimal Expectation Value": -1.0,
  "Optimizer durations [ms]": [14.536, 10.67, 8.181, 13.104, 11.114, 7.498, 10.675, 9.983, 7.311, 12.67, 14.013, 7.07, 11.263, 7.103, 11.108, 14.043, 11.076, 13.914, 14.263, 10.393, 10.723, 12.009, 13.733, 11.352, 10.001, 14.254, 10.334, 13.951, 11.954, 13.557, 14.055, 10.424, 13.487, 10.574, 13.445, 14.376, 12.036, 14.395, 14.247, 10.559, 9.903, 13.932, 9.96, 12.348, 14.18, 11.48, 14.208, 10.348, 13.878, 13.946, 14.286, 7.699, 14.214, 8.774, 11.21, 13.544, 9.169, 11.779, 14.532, 13.254, 13.758, 13.826, 9.658, 14.331, 6.441, 14.32, 9.307, 11.169, 6.142, 13.861, 10.276, 14.082, 13.094, 10.636, 10.575],
  "Optimizer iterations": 75,
  "Optimizer params": [0.5356117513958654, 0.32477823676699163, 0.9104234143753737, 0.49371299227270743, 0.8504071514524484, 0.6997244079117209],
  "P": 3,
  "Problem": "DSP",
  "QPU": "7000000",
  "Qubits": 4,
  "Shots": 4096,
  "Size": 2,
  "Total Algorithm duration [s]": 0.883,
  "Total Classic duration [s]": 0.8479656,
  "Total Quantum duration [s]": 0.035034400000000014
}
