{
  "Depth": 59.0,
  "Expectation Value": -1.0,
  "Job durations [ms]": [0.4193, 0.40099999999999997, 0.4129, 0.7917, 0.4022, 0.40719999999999995, 0.5545, 0.4013, 0.40709999999999996, 0.40650000000000003, 0.7385999999999999, 0.6218, 0.3941, 0.4057, 0.5324, 0.5634, 0.4138, 0.4021, 0.4034, 0.4215, 0.4022, 0.4157, 0.4128, 0.4148, 0.39239999999999997, 0.40440000000000004, 0.40850000000000003, 0.4858, 0.3904, 0.7833, 0.4144, 0.4331, 0.4031, 0.6758, 0.4374, 0.3969, 0.7784, 0.4108, 0.40190000000000003, 0.40709999999999996, 0.4836, 0.4823, 0.4133, 0.3903, 0.7511, 0.393, 0.4873, 0.39130000000000004, 0.4029, 0.46, 0.6413, 0.39149999999999996, 0.6091, 0.4001, 0.386, 0.3939, 0.4036, 0.39130000000000004, 0.3905, 0.4022, 0.49379999999999996, 0.6393, 0.3906, 0.3815, 0.39740000000000003, 0.39149999999999996, 0.3875, 0.6091, 0.38289999999999996, 0.455, 0.39780000000000004, 0.38020000000000004, 0.4169, 0.4061, 0.3966, 0.3898, 0.4827, 0.48000000000000004, 0.5403, 0.5364, 0.3948, 0.4206],
  "Optimal Expectation Value": -1.0,
  "Optimizer durations [ms]": [14.422, 14.153, 14.397, 10.364, 14.208, 14.544, 13.6, 11.652, 14.598, 14.228, 10.491, 13.472, 14.008, 14.192, 10.329, 13.595, 14.275, 12.304, 9.515, 14.151, 14.268, 10.514, 12.657, 12.38, 12.122, 12.094, 9.588, 10.34, 9.741, 14.354, 10.527, 14.401, 14.463, 10.191, 9.861, 13.853, 13.558, 14.134, 11.061, 14.286, 7.086, 9.662, 12.96, 14.026, 13.39, 11.021, 7.157, 14.259, 13.893, 11.547, 13.812, 13.995, 13.39, 14.161, 12.655, 13.959, 14.304, 11.698, 13.927, 12.864, 10.218, 13.738, 12.195, 13.886, 14.162, 14.228, 11.069, 13.367, 10.901, 13.614, 14.103, 13.285, 11.836, 13.864, 13.274, 13.075, 10.071, 13.559, 13.007, 10.117, 14.077, 13.371],
  "Optimizer iterations": 82,
  "Optimizer params": [0.9540202264916662, 0.9236041554749584, 0.21124811712085492, 0.6269943675487382, 0.15309171949678782, 0.05336910207730181],
  "P": 3,
  "Problem": "DSP",
  "QPU": "7000000",
  "Qubits": 4,
  "Shots": 4096,
  "Size": 2,
  "Total Algorithm duration [s]": 1.037,
  "Total Classic duration [s]": 0.9993949,
  "Total Quantum duration [s]": 0.0376051
}
