{
  "Depth": 59.0,
  "Expectation Value": -1.0,
  "Job durations [ms]": [0.444, 0.3998, 0.3957, 0.4106, 0.48500000000000004, 0.4149, 0.6242, 0.49410000000000004, 0.3151, 0.5109, 0.5267, 0.3929, 0.2919, 0.3934, 0.5699000000000001, 0.5014000000000001, 0.48529999999999995, 0.39120000000000005, 0.4078, 0.3918, 0.491, 0.4237, 0.45649999999999996, 0.3926, 0.4129, 0.6599, 0.5212, 0.7702, 0.3907, 0.6736, 0.4111, 0.5508000000000001, 0.3964, 0.4844, 0.49870000000000003, 0.4986, 0.3873, 0.3936, 0.3988, 0.3947, 0.46940000000000004, 0.7251, 0.4915, 0.3937, 0.3952, 0.4271, 0.5902999999999999, 0.3903, 0.5058, 0.3928, 0.48899999999999993, 0.4113, 0.5009, 0.3944, 0.3967, 0.4223, 0.4889, 0.4165, 0.49260000000000004, 0.3906, 0.5038, 0.4008, 0.37829999999999997, 0.8069000000000001, 0.3831],
  "Optimal Expectation Value": -1.0,
  "Optimizer durations [ms]": [14.643, 13.901, 14.276, 11.645, 10.081, 14.406, 13.277, 7.448, 8.677, 10.428, 12.731, 13.65, 8.283, 13.863, 12.509, 6.525, 10.162, 9.897, 10.561, 12.967, 10.206, 10.532, 13.716, 9.919, 11.059, 13.567, 7.069, 13.507, 13.981, 12.259, 12.417, 13.641, 11.785, 12.986, 5.71, 10.275, 14.143, 14.154, 14.162, 11.622, 12.899, 13.412, 6.631, 10.497, 13.956, 14.44, 13.653, 13.861, 10.416, 14.189, 9.995, 14.038, 7.182, 14.338, 13.37, 12.145, 8.987, 14.533, 10.366, 10.089, 6.129, 14.136, 13.925, 13.464, 11.277],
  "Optimizer iterations": 65,
  "Optimizer params": [0.9089198615321015, 0.020032900426536288, 0.4614158848599369, 0.4065596246647081, 0.6686202479568502, 0.08982435080730537],
  "P": 3,
  "Problem": "DSP",
  "QPU": "7000000",
  "Qubits": 4,
  "Shots": 4096,
  "Size": 2,
  "Total Algorithm duration [s]": 0.764,
  "Total Classic duration [s]": 0.7338894,
  "Total Quantum duration [s]": 0.030110600000000005
}
