{
  "Depth": 59.0,
  "Expectation Value": -1.0,
  "Job durations [ms]": [0.4868, 0.417, 0.4033, 0.6428, 0.40440000000000004, 0.47550000000000003, 0.382, 0.3664, 0.3595, 0.49799999999999994, 0.3734, 0.3733, 0.4157, 0.5372, 0.5169, 0.6294, 0.38630000000000003, 0.3467, 0.5860000000000001, 0.4022, 0.3869, 0.5109999999999999, 0.3747, 0.5761, 0.3762, 0.3787, 0.7036, 0.3836, 0.5336, 0.3713, 0.7208, 0.4757, 0.3787, 0.7818999999999999, 0.7702, 0.389, 0.3794, 0.3884, 0.7311000000000001, 0.395, 0.633, 0.728, 0.3917, 0.3889, 0.393, 0.38739999999999997, 0.3859, 0.39149999999999996, 0.38489999999999996, 0.4008, 0.3859, 0.4212, 0.4801, 0.6969, 0.3977, 0.39, 0.4874, 0.6321, 0.38499999999999995, 0.4772, 0.4703, 0.5871000000000001, 0.40349999999999997, 0.3751, 0.7741, 0.5373, 0.48519999999999996, 0.3922, 0.3781, 0.3883, 0.3896, 0.6106, 0.2992, 0.8132, 0.3881, 0.4794, 0.4008, 0.3836, 0.3885, 0.7391, 0.3982, 0.7307, 0.4043, 0.5779],
  "Optimal Expectation Value": -1.0,
  "Optimizer durations [ms]": [10.298, 14.388, 14.227, 11.021, 14.28, 9.909, 11.704, 12.956, 13.714, 15.159, 13.82, 13.916, 14.399, 10.809, 10.554, 11.701, 13.793, 13.455, 13.271, 14.105, 14.047, 10.522, 9.64, 10.984, 13.909, 13.776, 9.084, 13.965, 13.396, 9.774, 9.867, 10.015, 13.712, 13.64, 9.869, 13.889, 13.794, 12.859, 10.128, 13.915, 13.533, 13.455, 13.732, 13.971, 11.371, 9.312, 11.538, 13.636, 14.08, 9.968, 13.858, 10.605, 10.21, 9.327, 10.622, 11.358, 13.482, 13.201, 10.852, 10.384, 13.432, 14.042, 14.178, 10.159, 12.975, 7.592, 9.636, 13.864, 12.608, 14.166, 14.077, 13.494, 8.43, 13.668, 14.047, 6.253, 13.494, 14.04, 10.438, 13.402, 14.29, 11.425, 14.291, 13.486],
  "Optimizer iterations": 84,
  "Optimizer params": [0.5870561936621378, 0.08324932460027869, 0.3958550958180207, 0.6032686086595372, 0.8010846461224052, 0.7582447303683009],
  "P": 3,
  "Problem": "DSP",
  "QPU": "7000000",
  "Qubits": 4,
  "Shots": 4096,
  "Size": 2,
  "Total Algorithm duration [s]": 1.034,
  "Total Classic duration [s]": 0.9939583000000001,
  "Total Quantum duration [s]": 0.04004170000000001
}
