{
  "Depth": 59.0,
  "Expectation Value": -1.0,
  "Job durations [ms]": [0.4956, 0.3996, 0.4048, 0.49529999999999996, 0.4779, 0.4288, 0.4883, 0.4095, 0.4876, 0.5469999999999999, 0.703, 0.4158, 0.3944, 0.4075, 0.395, 0.39149999999999996, 0.3754, 0.5670999999999999, 0.39809999999999995, 0.38680000000000003, 0.3935, 0.3898, 0.4937, 0.3993, 0.38880000000000003, 0.6007, 0.34959999999999997, 0.4216, 0.7188, 0.7224, 0.3796, 0.39530000000000004, 0.48319999999999996, 0.7952, 0.3896, 0.3878, 0.3907, 0.5013, 0.3938, 0.49589999999999995, 0.39990000000000003, 0.39609999999999995, 0.40230000000000005, 0.4083, 0.39399999999999996, 0.4796, 0.3821, 0.3962, 0.5117999999999999, 0.3947, 0.38470000000000004, 0.3882, 0.4173, 0.3887, 0.38249999999999995, 0.3909, 0.4879],
  "Optimal Expectation Value": -1.0,
  "Optimizer durations [ms]": [10.081, 14.394, 14.174, 10.181, 9.914, 14.444, 9.983, 9.852, 10.227, 10.956, 13.639, 10.546, 13.92, 14.028, 12.682, 12.392, 13.884, 13.335, 12.1, 13.575, 13.993, 12.245, 13.482, 13.007, 14.091, 13.502, 13.662, 14.435, 13.686, 12.884, 13.913, 9.801, 10.109, 13.343, 14.003, 13.671, 9.789, 10.396, 13.041, 10.137, 12.244, 13.971, 13.907, 13.522, 9.427, 6.186, 14.196, 14.282, 13.311, 11.481, 13.888, 9.99, 11.405, 12.381, 13.88, 12.937, 10.179],
  "Optimizer iterations": 57,
  "Optimizer params": [0.6125076115131378, 0.9271379430221005, 0.5783934833209986, 0.9722546935081482, 0.12074583768844604, 0.5864567756652832],
  "P": 3,
  "Problem": "DSP",
  "QPU": "7000000",
  "Qubits": 4,
  "Shots": 4096,
  "Size": 2,
  "Total Algorithm duration [s]": 0.704,
  "Total Classic duration [s]": 0.6784352,
  "Total Quantum duration [s]": 0.0255648
}
