{
  "Circuit execution durations [ms]": [7260.587692260742, 7058.005571365356, 7157.7746868133545, 6896.132469177246, 6956.112623214722, 6925.671577453613, 6812.271595001221, 7071.438312530518, 6968.8403606414795, 6979.166030883789, 7055.119037628174, 6996.638774871826, 7088.5162353515625, 6761.256694793701, 7031.476736068726, 6802.67858505249, 6907.022953033447, 6731.4863204956055, 6984.520673751831, 6827.618837356567, 6768.131971359253, 6812.663555145264, 6746.323347091675, 6676.766395568848, 6883.918285369873, 6861.093759536743, 6911.732196807861, 6936.097621917725, 6731.347560882568, 6877.154350280762, 6776.387691497803, 6725.7843017578125, 6941.868782043457, 6772.186756134033, 6721.335172653198, 7123.877763748169, 6873.923063278198, 6788.494825363159, 6744.194507598877, 7067.369222640991, 6886.7857456207275, 7056.380987167358, 7173.339366912842, 7100.623846054077, 7048.829793930054, 6708.436727523804, 6653.988599777222, 7016.349315643311, 7278.541326522827, 7124.737977981567, 7048.661470413208, 6742.265224456787, 6750.152111053467, 6859.895706176758, 6969.295978546143, 7111.843109130859, 7008.266448974609, 6767.267465591431, 6890.709400177002, 6769.88959312439, 6744.410037994385, 6854.155778884888, 6816.524982452393, 6849.762439727783, 7028.534173965454, 6896.894454956055, 6831.140041351318, 6829.257965087891, 6752.688407897949, 6780.353546142578, 6972.159862518311, 6771.305799484253, 6838.217258453369, 6844.4983959198, 6749.032497406006, 6754.70495223999, 6752.598285675049, 6776.124477386475, 7002.12550163269, 7106.062650680542, 6722.20778465271, 6874.882459640503, 7181.641578674316, 6738.259553909302, 6711.979389190674, 6775.415420532227, 6881.35838508606, 6704.371929168701, 6670.528888702393, 6682.719707489014, 6779.301166534424, 7014.765739440918, 6768.3868408203125, 6778.470516204834, 6867.022514343262, 6891.067028045654, 6708.963394165039, 7093.947410583496, 6977.442979812622, 7057.93309211731, 6914.97540473938, 6741.0688400268555, 6882.958889007568, 6930.517196655273, 6745.894432067871, 6774.888038635254, 6775.909423828125, 6734.314203262329, 6854.312181472778, 6766.190052032471, 6757.418632507324, 6736.801862716675, 6717.011451721191, 6808.085680007935, 6830.429315567017, 6656.400203704834, 6740.350008010864, 6759.158611297607, 6702.050685882568, 6786.993503570557, 6707.707643508911, 6792.358875274658, 6775.8002281188965, 6904.180526733398, 6757.306098937988, 7032.958030700684, 6675.178527832031, 6729.588985443115, 6857.990980148315, 6681.819438934326, 6672.102212905884, 6636.727809906006, 6733.870029449463, 6747.081756591797, 6786.352634429932, 6760.752439498901, 6820.703983306885, 6811.3203048706055, 6716.120481491089, 6834.90514755249, 6760.855436325073, 6960.438966751099, 6972.342967987061, 6712.338209152222, 6718.130588531494, 6672.3527908325195, 6662.195920944214, 6715.646743774414, 6705.487489700317, 6777.524948120117, 6760.133981704712, 6808.373928070068, 6700.414657592773, 6950.71816444397, 7144.612550735474, 6756.976127624512, 6801.152467727661, 6713.387250900269, 6796.041488647461, 6760.109424591064, 6830.2037715911865, 6777.451038360596, 6787.207126617432, 6760.328054428101, 6776.634216308594, 6851.775646209717, 6764.89782333374, 6681.126594543457, 6802.783966064453, 6856.1365604400635, 6828.336000442505, 6758.946657180786, 7028.541088104248, 6932.406902313232, 6901.854038238525, 6732.699155807495, 6859.273433685303, 6799.667596817017, 6696.725606918335, 6711.628198623657, 6769.1779136657715, 6975.36563873291, 6635.892868041992, 6868.3180809021, 6688.657283782959, 6719.7020053863525, 6782.937288284302, 6846.604824066162, 6831.000804901123, 7121.044397354126, 7075.122594833374, 7065.669298171997, 6976.1481285095215, 6701.587200164795, 6798.202753067017, 6866.471767425537, 6977.264642715454, 6820.988416671753, 6692.241191864014, 6868.636608123779, 7011.919021606445, 6852.002143859863, 6864.869117736816, 6849.796295166016, 6809.837818145752, 6804.983377456665, 7174.810886383057, 6765.106201171875, 6840.576410293579, 6858.0381870269775, 6763.744354248047, 6704.17332649231, 6835.224151611328, 7069.764137268066, 7308.414459228516, 7170.334577560425, 6697.296619415283, 6732.027053833008, 6961.189031600952, 6815.014839172363, 6853.271484375, 6740.305423736572, 6771.625995635986, 6895.284175872803, 7033.981800079346, 6830.829620361328, 7045.9489822387695, 6959.219455718994, 6841.1900997161865, 6940.191268920898, 6694.501638412476, 6719.141960144043, 6808.876037597656, 6685.798645019531, 6744.662046432495, 6782.106161117554, 7135.575771331787, 7052.680253982544, 6748.824834823608, 6863.551616668701, 6768.093109130859, 6860.186576843262, 6784.044027328491, 6653.8543701171875, 6988.913297653198, 6705.245733261108, 6730.520486831665, 6701.64155960083, 6796.5989112854, 6800.166368484497, 7009.381294250488, 6893.721342086792, 6738.732099533081, 6813.478469848633, 6826.34162902832],
  "Depth": 12.5,
  "Expectation Value": -2.39306640625,
  "Optimal Expectation Value": -6.026674270629883,
  "Optimizer durations [ms]": [112999.048, 62753.653, 37090.213, 43414.194, 76084.107, 39785.269, 40502.363, 49660.598, 40963.537, 39423.211, 39013.342, 39750.73, 40428.492, 39845.398, 45355.491, 37679.964, 52024.523, 35023.199, 60005.661, 39731.905, 40544.71, 41783.937, 38913.379, 39217.051, 39940.394, 40032.98, 39611.907, 43640.456, 37274.334, 44953.594, 34918.863, 44267.18, 35297.915, 39748.958, 50702.537, 50514.957, 38956.088, 54683.62, 35125.075, 50072.128, 41068.705, 39216.38, 39830.468, 40246.048, 39736.015, 40662.705, 39822.577, 39724.796, 40961.087, 38855.903, 41017.073, 39021.706, 40138.475, 40242.907, 49267.687, 40478.172, 39486.639, 40661.238, 40201.958, 56143.513, 45572.22, 37884.411, 40714.938, 39056.694, 40760.203, 39112.395, 53761.09, 38195.232, 38968.848, 40409.188, 69309.845, 49715.907, 42547.814, 38910.285, 38913.131, 39731.587, 40556.249, 40242.579, 39212.312, 40356.93, 49862.387, 40140.954, 194167.615, 40228.157, 35205.025, 40674.857, 39936.895, 39951.328, 40499.056, 49501.11, 39730.783, 55398.307, 34924.921, 40660.604, 38120.781, 40709.586, 39974.376, 40818.098, 62868.879, 36150.174, 40547.256, 39263.915, 52078.203, 37849.688, 40178.75, 40549.073, 41476.76, 39112.238, 50696.019, 38861.279, 39472.345, 41160.046, 39218.346, 39941.029, 40341.395, 40447.671, 39321.29, 39936.896, 40553.225, 39933.519, 39321.855, 40653.057, 39833.462, 39430.014, 41881.374, 78849.612, 40650.88, 68814.922, 50287.966, 40027.672, 39421.569, 40139.847, 41063.399, 39122.696, 40032.063, 39936.083, 41576.09, 38706.122, 49577.644, 60219.076, 39611.51, 40391.253, 40608.261, 39833.431, 40653.153, 48738.426, 56942.405, 353792.088, 39425.066, 40346.956, 44027.105, 45471.353, 44542.009, 35942.344, 41276.088, 38288.826, 60313.302, 60825.27, 38626.411, 43088.935, 37784.97, 40146.6, 39013.561, 45154.275, 35640.589, 39015.218, 40340.382, 39834.233, 140907.601, 39529.099, 39932.157, 40554.458, 41891.746, 37361.221, 42905.782, 40966.798, 46590.764, 39630.61, 40449.549, 40339.775, 39270.433, 40102.575, 39818.679, 40245.642, 40505.041, 39170.281, 50223.593, 40402.923, 39831.342, 44847.654, 35370.506, 39497.442, 62653.461, 49003.925, 38931.341, 40085.931, 39914.31, 39000.508, 40206.727, 41426.261, 38703.53, 40244.536, 42492.218, 52433.759, 35024.579, 40345.515, 39774.845, 40606.568, 49452.718, 45691.702, 34190.048, 40146.059, 40035.638, 40645.859, 43525.794, 35333.23, 40545.999, 50066.635, 40059.654, 52623.577, 37686.171, 39528.351, 39779.44, 41117.155, 39618.817, 39645.399, 60389.261, 49783.621, 40033.158, 60107.875, 49562.122, 50381.002, 39733.18, 81264.771, 38453.279, 50879.102, 49261.211, 40552.033, 39523.388, 56071.829, 34225.502, 39445.909, 40339.976, 45265.811, 55194.71, 39730.502, 39937.192, 40140.521, 49761.715, 200292.812, 39053.307, 44609.959, 35738.622, 48534.579, 41283.082],
  "Optimizer iterations": 255,
  "Optimizer params": [0.9874633441838272, 0.4822646743674725, 0.8340889562093277, 0.9856489414731793, 0.8712503635692824, 0.3890100614515145, 0.27883731602515666, 0.9291778276586425, 0.6393510298149678, 0.542803494351932, 0.9547118665247006, 0.6244251452423231, 0.5835327840084589, 0.4514492110013835, 0.9538016071141114, 0.9222446695829767, 0.5896607767480477, 0.6610776632769507, 0.14074133414293083, 0.6014892289516488],
  "P": 0,
  "Problem": "IC",
  "QJob durations [ms]": [47203.83358001709, 31319.437980651855, 18473.15216064453, 21642.92049407959, 37949.38850402832, 19833.654403686523, 20185.468673706055, 24730.484008789063, 20421.735763549805, 19639.283180236816, 19409.279823303223, 19813.60912322998, 20152.67276763916, 19855.26180267334, 22617.843627929688, 18768.681526184082, 25942.12532043457, 17414.011001586914, 29942.59548187256, 19791.110038757324, 20205.178260803223, 20835.19744873047, 19391.959190368652, 19516.042709350586, 19909.650802612305, 19938.518524169922, 19746.501922607422, 21751.38282775879, 18584.83600616455, 22422.361373901367, 17365.598678588867, 22063.21430206299, 17578.83930206299, 19800.071716308594, 25289.93511199951, 25197.047233581543, 19379.12940979004, 27287.14942932129, 17505.748748779297, 24969.338417053223, 20464.59197998047, 19540.4109954834, 19861.090660095215, 20029.42180633545, 19794.706344604492, 20263.310432434082, 19835.53695678711, 19792.503356933594, 20416.765213012695, 19334.928512573242, 20455.269813537598, 19453.84693145752, 20008.31413269043, 20065.28377532959, 24571.70295715332, 20167.604446411133, 19644.951820373535, 20258.74137878418, 20043.350219726563, 28014.083862304688, 22727.19383239746, 18875.63419342041, 20256.173133850098, 19470.134735107422, 20323.28701019287, 19501.994132995605, 26816.00856781006, 19041.08428955078, 19415.43674468994, 20093.685150146484, 34592.721939086914, 24797.738075256348, 21215.139389038086, 19392.796516418457, 19380.657196044922, 19769.583702087402, 20221.14372253418, 20047.36042022705, 19551.60903930664, 20102.760314941406, 24863.019943237305, 20012.639045715332, 96985.8627319336, 20053.421020507813, 17541.196823120117, 20264.54257965088, 19911.662101745605, 19911.060333251953, 20138.705253601074, 24692.898750305176, 19797.935485839844, 27640.45238494873, 17392.276763916016, 20261.642456054688, 18995.291709899902, 20253.345489501953, 19920.75824737549, 20351.309776306152, 31377.638816833496, 18018.88084411621, 20207.653999328613, 19534.013748168945, 25964.58148956299, 18861.552238464355, 20012.256622314453, 20214.659690856934, 20668.2071685791, 19485.998153686523, 25250.913619995117, 19368.000984191895, 19662.83893585205, 20525.879859924316, 19541.189193725586, 19909.140586853027, 20074.21588897705, 20152.103424072266, 19592.00382232666, 19909.0633392334, 20218.557357788086, 19907.161712646484, 19603.102684020996, 20229.537963867188, 19857.27596282959, 19658.67328643799, 20871.621131896973, 39365.61393737793, 20242.856979370117, 34309.77535247803, 25076.75266265869, 19956.86435699463, 19644.472122192383, 20009.958267211914, 20478.169441223145, 19502.56061553955, 19922.34706878662, 19910.91823577881, 20732.341766357422, 19296.703338623047, 24726.65309906006, 30052.376747131348, 19701.916694641113, 20130.75828552246, 20247.013092041016, 19847.15175628662, 20273.052215576172, 24299.837112426758, 28412.09602355957, 176801.95426940918, 19645.80726623535, 20108.731269836426, 21957.65209197998, 22671.60987854004, 22209.097862243652, 17861.609935760498, 20563.85612487793, 19078.024864196777, 30099.21169281006, 30350.313186645508, 19258.72802734375, 21472.346305847168, 18776.718139648438, 20006.436347961426, 19438.770294189453, 22511.24095916748, 17760.726928710938, 19451.873779296875, 20073.774337768555, 19863.88111114502, 70398.30684661865, 19706.99691772461, 19908.133506774902, 20207.040786743164, 20887.6953125, 18586.96746826172, 21381.524085998535, 20413.36441040039, 23235.301971435547, 19757.230758666992, 20157.87982940674, 20060.569763183594, 19581.42852783203, 19994.991302490234, 19843.494415283203, 20067.008018493652, 20194.24819946289, 19504.72640991211, 25015.27976989746, 20133.41236114502, 19855.162620544434, 22358.495712280273, 17615.464210510254, 19682.08599090576, 31218.716621398926, 24444.45514678955, 19405.052185058594, 19981.472969055176, 19890.41042327881, 19443.95923614502, 20025.98762512207, 20614.564895629883, 19268.333435058594, 20057.384490966797, 21186.805725097656, 26150.24757385254, 17453.567028045654, 20065.893173217773, 19828.95851135254, 20247.830390930176, 24664.19219970703, 22773.287773132324, 17021.430015563965, 20009.201049804688, 19902.12059020996, 20261.306762695313, 21708.18328857422, 17596.46987915039, 20214.736938476563, 24967.65899658203, 19936.285972595215, 26231.98413848877, 18770.424842834473, 19706.342697143555, 19833.3158493042, 20500.28419494629, 19745.145797729492, 19712.60356903076, 30138.811111450195, 24830.780029296875, 19962.30697631836, 29997.427940368652, 24726.90200805664, 25084.62905883789, 19812.78419494629, 40578.75633239746, 19154.033184051514, 25373.523712158203, 24572.46971130371, 20220.243453979492, 19665.11821746826, 27981.92310333252, 17047.130584716797, 19660.61496734619, 20091.893196105957, 22576.91764831543, 27502.23731994629, 19808.164596557617, 19911.7374420166, 20010.85090637207, 24816.54453277588, 100081.63738250732, 19471.372604370117, 22208.3158493042, 17813.262939453125, 24193.67027282715, 20570.326805114746],
  "QPU": "402001B",
  "Qubits": 5,
  "Queue durations [ms]": [924.4999885559082, 1018.0000066757202, 900.9999930858612, 816.0000145435333, 791.9999957084656, 906.5000116825104, 1126.9999742507935, 938.4999871253967, 868.9999878406525, 1038.9999747276306, 994.5000112056732, 699.4999945163727, 992.000013589859, 973.5000133514404, 926.9999861717224, 949.0000009536743, 950.4999816417694, 1059.499979019165, 932.99999833107, 888.0000412464142, 745.9999918937683, 914.9999916553497, 3346.5000092983246, 1012.5000178813934, 911.4999771118164, 953.9999663829803, 1022.0000147819519, 1029.0000140666962, 735.5000078678131, 924.9999821186066, 1434.499979019165, 983.4999740123749, 754.9999952316284, 939.5000040531158, 1106.4999997615814, 1080.9999704360962, 2655.00009059906, 8828.500151634216, 988.0000054836273, 760.0000202655792, 921.4999675750732, 947.9999840259552, 1013.0000114440918, 965.0000333786011, 1134.9999904632568, 1098.499983549118, 1059.9999725818634, 1746.000051498413, 926.5000224113464, 878.9999783039093, 879.0000081062317, 928.9999902248383, 1081.499993801117, 1030.9999883174896, 683.9999854564667, 856.9999933242798, 2104.0000319480896, 962.5000059604645, 3939.0000700950623, 13.499975204467773, 1049.5000183582306, 960.0000083446503, 1107.5000166893005, 909.0000092983246, 3126.499980688095, 1000.9999871253967, 1180.999994277954, 873.4999895095825, 949.999988079071, 936.4999830722809, 7069.00018453598, 4596.000134944916, 956.0000002384186, 861.9999885559082, 1038.4999513626099, 1011.5000009536743, 884.0000033378601, 1122.0000386238098, 776.4999866485596, 881.9999992847443, 820.9999799728394, 864.999994635582, 552.499994635582, 996.999979019165, 878.9999783039093, 813.0000233650208, 883.5000097751617, 840.0000035762787, 753.5000145435333, 968.0000245571136, 808.9999854564667, 1141.9999599456787, 1085.5000019073486, 1064.0000104904175, 1083.0000042915344, 1113.4999990463257, 1018.9999639987946, 856.000006198883, 11303.000450134277, 1070.9999799728394, 921.0000038146973, 3553.999960422516, 4680.500030517578, 932.4999749660492, 1014.9999856948853, 951.4999985694885, 899.4999825954437, 910.4999899864197, 853.0000150203705, 1208.4999680519104, 1032.499998807907, 995.000034570694, 843.500018119812, 1430.9999644756317, 1065.500020980835, 1031.499981880188, 1123.0000257492065, 1041.9999957084656, 840.9999907016754, 1158.0000519752502, 1166.0000085830688, 861.9999885559082, 784.0000092983246, 821.5000033378601, 1153.9999842643738, 928.4999966621399, 905.5000245571136, 1017.4999833106995, 876.5000104904175, 1003.000020980835, 690.4999911785126, 845.4999923706055, 1001.4999806880951, 786.5000069141388, 984.9999845027924, 733.9999973773956, 820.499986410141, 981.4999997615814, 1066.5000081062317, 1240.0000095367432, 993.9999878406525, 1041.9999957084656, 1027.500033378601, 733.5000038146973, 1040.0000214576721, 1245.0000047683716, 835.0000083446503, 936.4999830722809, 1490.4999732971191, 895.9999978542328, 913.0000174045563, 1049.4999885559082, 1108.9999675750732, 1153.5000205039978, 750.4999935626984, 1016.0000026226044, 10231.99987411499, 964.4999802112579, 966.0000205039978, 996.4999854564667, 747.0000088214874, 1057.4999749660492, 1027.4999737739563, 986.4999949932098, 901.4999866485596, 1057.0000410079956, 888.5000050067902, 953.000009059906, 776.9999802112579, 7152.499973773956, 1041.5000021457672, 711.9999825954437, 1824.9999582767487, 1265.999972820282, 1002.5000274181366, 1055.0000071525574, 1150.4999995231628, 852.9999852180481, 1210.0000381469727, 1433.5000216960907, 865.5000030994415, 1108.9999973773956, 1156.5000414848328, 794.4999933242798, 1009.4999969005585, 1119.5000410079956, 986.0000014305115, 966.4999842643738, 906.9999754428864, 798.9999949932098, 893.999993801117, 1126.0000467300415, 1027.0000100135803, 1233.5000038146973, 3507.9999566078186, 1031.000018119812, 840.5000269412994, 994.5000112056732, 895.0000107288361, 1156.499981880188, 793.0000126361847, 1020.499974489212, 1117.4999475479126, 949.4999945163727, 1078.5000026226044, 963.4999930858612, 820.499986410141, 1003.000020980835, 912.4999940395355, 885.9999775886536, 872.0000088214874, 839.5000100135803, 948.0000138282776, 1283.9999794960022, 681.5000176429749, 999.5000064373016, 801.9999861717224, 938.9999806880951, 833.4999978542328, 1084.4999849796295, 803.4999966621399, 1206.499993801117, 781.5000116825104, 1260.0000202655792, 916.9999659061432, 904.5000076293945, 812.5, 1173.9999651908875, 835.999995470047, 1133.0000162124634, 1142.4999833106995, 1009.0000033378601, 791.0000085830688, 7196.499884128571, 1200.5000114440918, 1231.9999933242798, 2108.5000038146973, 794.9999868869781, 767.9999768733978, 962.9999995231628, 1126.9999742507935, 1066.0000145435333, 1097.5000262260437, 968.4999883174896, 1049.4999885559082, 953.9999961853027, 1001.9999742507935, 881.9999992847443, 952.4999856948853, 1307.4999451637268, 988.4999692440033, 1024.5000422000885, 975.4999876022339, 852.9999852180481, 810.4999959468842],
  "Shots": 4096,
  "Size": 5,
  "Total Algorithm duration [s]": 11742.569,
  "Total Classic duration [s]": 5898.099085086822,
  "Total Quantum duration [s]": 5844.4699149131775
}
