{
  "Depth": 2.0,
  "Expectation Value": -4.281300067901611,
  "Job durations [ms]": [0.1107500029320363, 0.11194999751751311, 0.11569999696803279, 0.10719999772845767, 0.12095000056433491, 0.10989999645971693, 0.10859999747481197, 0.10914999802480452, 0.11690000246744603, 0.29614999948535115, 0.10200000178883784, 0.18850000560632907, 0.10149999798159115, 0.10864999785553664, 0.31510000553680584, 0.12039999637636356, 0.11250000170548446, 0.1302499949815683, 0.12029999561491422, 0.11089999679825269, 0.2891000040108338, 0.1155500031018164, 0.23409999266732484, 0.11319999975967221, 0.1061000039044302, 0.19720000636880286, 0.1003500001388602, 0.32225000904873013, 0.1248499975190498, 0.12615000377991237, 0.10955000107060187, 0.10439999823574908, 0.11765000090235844, 0.23839999630581588, 0.1066999975591898, 0.11015000200131908, 0.10399999882793054, 0.10140000085812062, 0.11525000081746839, 0.18209999689133838, 0.11140000424347818, 0.17315000150119886, 0.2647500004968606, 0.1083999995898921, 0.26079999952344224, 0.2666000073077157, 0.11160000212839805, 0.2963999977509957, 0.11984999946434982, 0.11815000107162632, 0.15590000111842528, 0.1270500033569988, 0.10425000073155388, 0.26819999766303226, 0.12885000251117162, 0.11814999743364751, 0.10494999878574163, 0.21285000548232347, 0.10435000149300322, 0.15064999752212316, 0.10149999798159115, 0.13220000255387276, 0.27415000658947974, 0.12199999764561653, 0.12114999844925478, 0.12419999984558672, 0.11345000166329555, 0.13115000183461234, 0.11420000373618677, 0.11389999781385995, 0.3057999929296784, 0.12434999734978192, 0.26619999698596075, 0.10675000157789327, 0.11535000157891773, 0.12154999785707332, 0.29149999318178743, 0.3341999981785193, 0.15379999967990443, 0.11094999717897736, 0.12504999540396966, 0.12390000119921751, 0.10449999899719842, 0.2823000031639822, 0.10644999929354526, 0.1082500020856969, 0.2067500026896596, 0.26325000362703577, 0.10770000153570436, 0.12680000145337544, 0.11100000119768083, 0.10830000246642157, 0.20435000624274835, 0.28775000464520417, 0.1234500014106743, 0.18360000103712082, 0.1233000002685003, 0.2620000050228555, 0.12079999942216091, 0.11449999874457717, 0.10675000157789327, 0.19530000281520188, 0.1200500009872485, 0.11249999806750566, 0.10704999658628367, 0.10750000001280569, 0.2984999955515377, 0.10715000098571181, 0.12799999967683107],
  "Optimal Expectation Value": -4.281300067901611,
  "Optimizer durations [ms]": [16.367, 17.8, 22.2, 19.78, 14.772, 21.623, 20.518, 18.054, 18.252, 17.428, 19.164, 19.215, 21.724, 17.878, 21.386, 22.388, 19.626, 14.054, 12.939, 19.291, 21.338, 15.843, 20.895, 14.294, 17.523, 20.805, 20.955, 18.055, 19.741, 17.959, 22.535, 18.688, 21.857, 18.776, 21.712, 17.917, 22.125, 17.061, 17.838, 20.514, 17.632, 18.874, 10.119, 14.203, 20.924, 12.198, 16.045, 15.511, 15.173, 19.272, 17.897, 19.499, 18.266, 21.877, 11.015, 22.157, 17.213, 21.574, 18.643, 17.484, 19.11, 18.717, 17.86, 19.002, 17.952, 17.903, 15.152, 21.906, 20.799, 15.643, 21.159, 13.788, 21.747, 19.596, 17.791, 16.528, 18.166, 20.527, 21.418, 22.241, 17.921, 11.436, 20.612, 16.723, 21.586, 22.423, 16.003, 13.728, 20.83, 14.858, 21.483, 20.186, 22.083, 16.899, 18.919, 18.458, 15.773, 16.816, 13.772, 16.429, 18.699, 15.631, 22.463, 14.946, 20.196, 22.233, 17.678, 21.862, 15.397],
  "Optimizer iterations": 109,
  "Optimizer params": [0.9998626385719026, 0.4963523948316793, 0.9955959496015788, 0.4958650400952745, 0.5037237229097362, 0.9999999999999999, 0.5026266567631889],
  "P": 0,
  "Problem": "RH",
  "QPU": "7000000",
  "Qubits": 7,
  "Shots": 4096,
  "Size": 7,
  "Total Algorithm duration [s]": 2.009,
  "Total Classic duration [s]": 1.9922027499724062,
  "Total Quantum duration [s]": 0.01679725002759369
}
