{
  "Depth": 2.0,
  "Expectation Value": -4.281300067901611,
  "Job durations [ms]": [0.3200999926775694, 0.12115000208723359, 0.11454999912530184, 0.25159999495372176, 0.10894999650190584, 0.10790000305860303, 0.11685000208672136, 0.11649999578366987, 0.10510000356589444, 0.30330000299727544, 0.10349999865866266, 0.11389999781385995, 0.2477999951224774, 0.10439999823574908, 0.1050000028044451, 0.13084999955026433, 0.1885999990918208, 0.21529999503400177, 0.11314999937894754, 0.192149993381463, 0.10260000271955505, 0.11509999967529438, 0.10634999853209592, 0.11635000191745348, 0.10429999747429974, 0.11985000310232863, 0.25474999347352423, 0.11889999950653873, 0.13265000234241597, 0.15645000530639663, 0.12229999629198574, 0.14015000488143414, 0.11829999857582152, 0.09975000284612179, 0.11435000124038197, 0.11549999544513412, 0.11210000229766592, 0.11745000301743858, 0.11425000047893263, 0.10450000263517722, 0.11185000403202139, 0.10985000335494988, 0.1111999990826007, 0.10494999878574163, 0.1081000009435229, 0.1427000024705194, 0.11235000056331046, 0.10735000250861049, 0.17320000188192353, 0.2703499994822778, 0.11984999946434982, 0.10785000267787836, 0.1130499986174982, 0.2233500017609913, 0.12264999895705841, 0.12024999523418956, 0.10409999958937988, 0.10569999722065404, 0.11639999866019934, 0.10539999857428484, 0.10984999971697107, 0.11550000272109173, 0.12335000064922497, 0.10580000162008218, 0.10629999815137126, 0.1835999937611632, 0.11594999887165613, 0.12134999997215346, 0.2209999947808683, 0.11989999620709568, 0.12274999971850775, 0.1279499992961064, 0.1279499992961064, 0.11069999891333282, 0.2596499980427325, 0.10320000001229346, 0.3012000015587546, 0.1145999995060265, 0.12249999781488441, 0.10554999971645884, 0.12724999760393985, 0.12054999751853757, 0.14090000331634656, 0.13040000339969993, 0.13309999849298038, 0.210749996767845, 0.10934999954770319, 0.10725000174716115, 0.1145999995060265, 0.1079500034393277, 0.11019999874406494, 0.14195000403560698, 0.23275000421563163, 0.1808500019251369, 0.11240000094403513, 0.13169999874662608, 0.10164999912376516, 0.103750000562286, 0.11699999959091656, 0.12540000170702115, 0.12385000081849284, 0.12114999844925478, 0.1237499964190647, 0.12164999861852266, 0.10429999747429974, 0.11539999832166359, 0.1038999980664812, 0.11164999887114391, 0.12179999976069666],
  "Optimal Expectation Value": -4.281300067901611,
  "Optimizer durations [ms]": [17.888, 9.874, 17.918, 21.765, 19.639, 22.35, 19.273, 13.846, 19.2, 17.08, 20.098, 21.87, 19.526, 22.135, 13.696, 18.632, 18.329, 20.417, 18.782, 21.472, 22.387, 17.77, 19.875, 19.561, 22.173, 18.002, 16.9, 22.423, 13.702, 21.912, 15.568, 21.875, 12.646, 22.266, 22.555, 19.455, 16.462, 19.442, 18.782, 17.34, 22.474, 19.477, 18.217, 20.127, 18.862, 18.15, 21.772, 19.428, 14.472, 22.191, 18.274, 14.556, 17.817, 21.609, 16.436, 22.35, 17.75, 16.481, 18.193, 14.226, 19.219, 17.164, 18.49, 17.956, 19.171, 18.289, 17.974, 13.196, 18.71, 18.527, 22.633, 21.605, 18.36, 18.831, 20.624, 15.913, 20.448, 20.51, 15.032, 14.726, 15.542, 14.248, 12.703, 13.64, 15.506, 17.347, 16.183, 17.2, 19.925, 18.32, 18.9, 16.679, 17.44, 21.869, 14.908, 21.96, 20.016, 19.778, 12.991, 15.121, 15.232, 16.423, 18.13, 17.98, 19.024, 22.528, 18.115, 19.107, 15.79],
  "Optimizer iterations": 109,
  "Optimizer params": [0.9998626385719026, 0.4963523948316793, 0.9955959496015788, 0.4958650400952745, 0.5037237229097362, 0.9999999999999999, 0.5026266567631889],
  "P": 0,
  "Problem": "RH",
  "QPU": "7000000",
  "Qubits": 7,
  "Shots": 4096,
  "Size": 7,
  "Total Algorithm duration [s]": 1.997,
  "Total Classic duration [s]": 1.9822170500344074,
  "Total Quantum duration [s]": 0.014782949965592707
}
