{
  "Depth": 2.0,
  "Expectation Value": -4.281300067901611,
  "Job durations [ms]": [0.12880000213044696, 0.12210000204504468, 0.30849999166093767, 0.11340000128257088, 0.10299999848939478, 0.11905000064871274, 0.24215000303229317, 0.1176999976451043, 0.11284999709459953, 0.20069999300176278, 0.1097999993362464, 0.10454999937792309, 0.12390000119921751, 0.1333499967586249, 0.12694999895757064, 0.09945000056177378, 0.10779999865917489, 0.11309999899822287, 0.30604999483330175, 0.1175500001409091, 0.11935000293306075, 0.33275000168941915, 0.11244999768678099, 0.11929999891435727, 0.12179999612271786, 0.10615000064717606, 0.11520000407472253, 0.1005000012810342, 0.11715000073309056, 0.1078000022971537, 0.1145999995060265, 0.11034999988623895, 0.309199996991083, 0.10595000276225619, 0.10604999988572672, 0.11694999921019189, 0.11239999730605632, 0.11344999802531675, 0.10735000250861049, 0.10880000263568945, 0.21379999816417694, 0.11124999946332537, 0.28900000688736327, 0.11074999929405749, 0.2792999948724173, 0.11350000204402022, 0.3064499978790991, 0.10885000301641412, 0.125449998449767, 0.12434999734978192, 0.11480000102892518, 0.13534999743569642, 0.10939999992842786, 0.2467500053171534, 0.1007999999274034, 0.12304999836487696, 0.121900000522146, 0.11000000085914508, 0.1016000023810193, 0.12095000056433491, 0.10090000068885274, 0.11615000039455481, 0.11445000200183131, 0.10480000128154643, 0.10804999692481942, 0.10859999747481197, 0.10624999777064659, 0.11970000196015462, 0.11280000035185367, 0.1145999995060265, 0.11734999861801043, 0.2898499988077674, 0.1067000011971686, 0.11874999836436473, 0.11040000026696362, 0.2241000038338825, 0.2776000037556514, 0.19715000235009938, 0.15835000158404, 0.11154999810969457, 0.11450000238255598, 0.2338499980396591, 0.11285000073257834, 0.10759999713627622, 0.10890000339713879, 0.10584999836282805, 0.12060000153724104, 0.27630000113276765, 0.1141499997174833, 0.27069999487139285, 0.11670000458252616, 0.11255000208620913, 0.1099500004784204, 0.10719999772845767, 0.11375000030966476, 0.2960499987239018, 0.28745000599883497, 0.283199995465111, 0.11765000090235844, 0.09915000191540457, 0.11994999658782035, 0.19964999955845997, 0.1266999970539473, 0.15034999887575395, 0.10975000259350054, 0.12505000267992727, 0.10169999950448982, 0.10404999920865521, 0.1062500050466042],
  "Optimal Expectation Value": -4.281300067901611,
  "Optimizer durations [ms]": [18.272, 16.8, 20.518, 19.67, 17.356, 22.579, 19.552, 19.135, 21.59, 17.269, 17.878, 21.12, 16.698, 21.155, 13.832, 18.829, 18.494, 15.383, 20.923, 15.609, 20.96, 16.202, 22.481, 9.898, 14.481, 17.839, 16.871, 19.027, 15.375, 22.235, 18.202, 20.108, 18.638, 22.341, 19.717, 19.043, 15.489, 22.034, 17.829, 15.066, 21.915, 18.632, 17.375, 19.199, 15.877, 18.55, 21.614, 17.728, 15.58, 14.027, 22.48, 16.581, 22.448, 16.91, 14.001, 14.486, 10.766, 22.099, 18.853, 18.663, 14.719, 22.3, 18.161, 20.657, 18.233, 14.884, 20.636, 21.374, 17.745, 19.574, 18.1, 17.157, 18.096, 19.344, 17.77, 21.579, 18.506, 17.31, 19.83, 17.504, 19.228, 15.099, 22.285, 21.007, 19.216, 22.111, 19.413, 21.744, 18.19, 21.444, 20.098, 21.59, 20.237, 18.592, 19.489, 20.435, 19.013, 19.677, 22.303, 16.497, 22.368, 15.203, 15.005, 15.699, 18.903, 15.169, 19.663, 19.856, 22.376],
  "Optimizer iterations": 109,
  "Optimizer params": [0.9998626385719026, 0.4963523948316793, 0.9955959496015788, 0.4958650400952745, 0.5037237229097362, 0.9999999999999999, 0.5026266567631889],
  "P": 0,
  "Problem": "RH",
  "QPU": "7000000",
  "Qubits": 7,
  "Shots": 4096,
  "Size": 7,
  "Total Algorithm duration [s]": 2.029,
  "Total Classic duration [s]": 2.013193900003447,
  "Total Quantum duration [s]": 0.015806099996552803
}
