{
  "Depth": 20.5,
  "Job durations [ms]": [31.29000123590231, 30.755000188946724, 30.714500695466995, 31.170500442385674, 31.235499307513237, 30.90899996459484, 31.42399899661541, 30.76549991965294, 30.692500062286854, 30.747000128030777, 63.680498860776424, 30.76850064098835, 30.927998945116997, 30.903998762369156, 30.84149956703186, 30.810999684035778, 31.002999283373356, 30.742499977350235, 30.539500527083874, 30.98099958151579, 30.821000225842, 30.850999988615513, 31.083500012755394, 30.711499974131584, 30.724499374628067, 30.862499959766865, 31.338999047875404, 30.688999220728874, 30.91849945485592, 30.74099961668253, 30.72699997574091, 30.787000432610512, 30.857499688863754, 30.869499780237675, 30.61950020492077, 30.648499727249146, 30.724499374628067, 30.868500471115112, 30.709000304341316, 30.59599921107292, 31.634501181542873, 31.14349953830242, 30.639500357210636, 31.004500575363636, 30.7375006377697, 30.973000451922417, 30.813000164926052, 31.30600042641163, 30.497999861836433, 30.907001346349716, 30.53699992597103, 30.803498812019825, 30.9044998139143, 30.711499974131584, 31.0054998844862, 30.983000062406063, 30.547000467777252, 30.80799989402294, 30.620500445365906, 30.748500488698483, 30.912000685930252, 30.98900057375431, 30.49950022250414, 30.588500201702118, 30.893499962985516, 30.718999914824963, 30.813499353826046, 31.211000867187977, 30.697999522089958, 30.767500400543213, 30.80799989402294, 30.629999935626984, 30.847000889480114, 30.880000442266464, 31.008499674499035, 30.255500227212906, 30.32200038433075, 30.963999219238758, 30.706999823451042, 30.44900018721819, 30.49399983137846, 30.56549932807684, 63.4184991940856, 30.622499994933605, 30.36750014871359, 30.458999797701836, 30.467000789940357, 30.3549999371171, 30.480999499559402, 30.96000012010336, 30.793501064181328, 30.946998856961727, 30.910500325262547, 31.036000698804855, 30.99299967288971, 30.628999695181847, 30.62049951404333, 30.803999863564968, 30.615000054240227, 30.810998752713203, 30.835000798106194, 30.986499041318893, 30.476000159978867, 30.69499973207712, 30.50650004297495, 30.66099900752306, 31.333500519394875, 30.72500042617321, 30.899999663233757, 30.993999913334846, 30.7005001232028, 30.73399979621172, 30.894000083208084, 30.86200077086687, 30.819499865174294, 31.136498786509037, 30.37000074982643, 30.44299967586994, 30.544999986886978, 30.938000418245792, 63.59200086444616, 30.323000624775887, 30.56700062006712, 30.75999952852726, 30.590499751269817, 30.57699929922819, 30.350499786436558, 30.764499679207802, 30.788999050855637, 30.543499626219273, 30.44299967586994, 30.830999836325645, 30.634500086307526, 30.74549976736307, 30.404499731957912, 30.74599988758564, 30.510999262332916, 30.420999974012375, 30.528000555932522, 30.68150021135807, 30.642499215900898, 30.71300033479929, 30.58650065213442, 30.694499611854553, 31.10400028526783, 30.868499539792538, 63.92450071871281, 30.714500695466995, 30.8694988489151, 30.792499892413616, 30.614000745117664, 31.15149959921837, 30.660499818623066, 30.672000721096992, 30.838999897241592, 30.928000807762146, 30.765500850975513, 30.81249911338091, 31.11949935555458, 30.83449974656105, 30.998499132692814, 30.755500309169292, 30.822500586509705, 30.89550044387579, 30.840501189231873, 30.717999674379826, 64.02199808508158, 30.56900016963482, 30.9220002964139, 30.84450028836727, 30.94550035893917, 31.046499498188496, 30.87650053203106, 30.892000533640385, 30.824500136077404, 30.964001081883907, 31.487999483942986, 30.578499659895897, 31.001499854028225, 30.947498977184296, 30.760500580072403, 31.071499921381474, 64.49850089848042, 31.274499371647835, 30.967500060796738, 30.883499421179295, 30.882499180734158, 30.92349972575903, 31.001999974250793, 31.733499839901924, 31.15599974989891, 30.92299960553646, 30.725499615073204, 31.11299965530634, 30.787000432610512, 30.729999765753746, 31.381500884890556, 63.38049843907356, 30.792499892413616, 30.80299962311983, 30.64749948680401, 30.981499701738358, 30.77699989080429, 30.585499480366707, 30.732999555766582, 30.578999780118465, 30.85050079971552, 30.91949876397848, 30.750500038266182, 30.84550052881241, 30.447999946773052, 31.020999886095524, 30.81599995493889, 30.87450098246336, 30.854000709950924, 30.994500033557415, 30.826500616967678, 30.949000269174576, 30.89949954301119, 30.59300035238266, 31.08649980276823, 30.769500881433487, 31.04700054973364, 30.835499987006187, 30.713499523699284, 30.770001001656055, 31.083500012755394, 30.43899964541197, 30.957000330090523, 30.93400038778782, 30.782999470829964, 31.049500219523907, 30.692500062286854, 30.736500397324562, 30.810500495135784, 31.047499738633633, 30.547499656677246, 30.357500538229942, 30.360499396920204, 30.89000005275011, 30.919499695301056, 30.45549988746643, 30.44500108808279, 30.558500438928604, 30.447999946773052, 30.56150022894144, 30.417999252676964, 30.706999823451042, 30.402500182390213, 30.566000379621983, 34.810999408364296, 30.621999874711037, 30.384499579668045, 30.32150026410818, 30.406000092625618, 30.47250024974346, 30.628000386059284, 30.36700002849102, 30.515000224113464, 30.54750058799982, 30.14450054615736, 30.36550059914589, 30.282999388873577, 30.379999428987503, 30.85599932819605, 30.5375000461936, 30.91149963438511, 30.88549990206957, 64.31449949741364, 31.07949998229742, 30.824500136077404, 30.71449976414442, 30.500500462949276, 31.001499854028225, 30.958499759435654, 31.01699985563755, 30.68549931049347, 33.743999898433685, 30.78449983149767, 30.598499812185764, 30.513000674545765, 30.5570000782609, 30.526500195264816, 30.372499488294125, 30.623999424278736, 30.76800052076578, 30.483500100672245, 30.66950011998415, 30.30950017273426, 30.414000153541565, 30.345999635756016, 30.821499414741993, 30.711499974131584, 30.655999667942524, 30.392500571906567, 30.42250033468008, 30.515500344336033, 30.435499735176563, 30.543499626219273, 30.665500089526176, 30.37599939852953, 30.53199965506792, 30.632500536739826, 30.436000786721706, 30.77149949967861, 30.535999685525894, 63.787498511374, 30.48000019043684, 30.74049949645996, 30.822500586509705, 30.465499497950077, 30.933999456465244, 30.61050083488226, 30.655999667942524, 30.667000450193882, 30.439999885857105, 30.46800009906292, 30.433500185608864, 34.17599946260452, 30.70600051432848, 30.662999488413334, 30.451499857008457, 30.456000007689, 30.461999587714672, 30.650999397039413, 30.5995000526309, 30.371000058948994, 30.57099971920252, 30.47449979931116, 30.353499576449394, 30.470499768853188, 30.71300033479929, 63.78799956291914, 30.741500668227673, 31.207499094307423, 30.648999847471714, 31.043999828398228, 30.917000025510788, 30.805500224232674, 30.918500386178493, 31.13000001758337, 30.802499502897263, 30.962499789893627, 30.717000365257263, 30.642499215900898, 30.387000180780888, 30.392499640583992, 30.664999969303608, 30.816000886261463, 30.423499643802643, 30.41949961334467, 30.702500604093075, 66.01000111550093, 30.211000703275204, 30.902999453246593, 30.553000047802925, 30.44349979609251, 30.794999562203884, 30.97200021147728, 30.489499680697918, 30.93400038778782, 31.081000342965126, 30.602000653743744, 30.904999002814293, 30.96850123256445, 30.99150024354458, 31.270500272512436, 30.79099953174591, 64.1595022752881, 30.557500198483467, 30.456000007689, 30.48500046133995, 30.61399981379509, 30.874500051140785, 30.989999882876873, 31.0655003413558, 30.963500030338764, 31.033500097692013, 31.43800050020218, 31.160499900579453, 30.854499898850918, 30.84649983793497, 63.77200037240982, 31.332499347627163, 30.704999342560768, 31.328500248491764, 30.54950013756752, 30.73799889534712, 30.720999464392662, 30.687999911606312, 30.47950007021427, 30.397499911487103, 30.385499820113182, 30.531500466167927, 30.87749984115362, 30.93699924647808, 30.986499972641468, 30.82350082695484, 30.605499632656574, 30.616500414907932, 31.153500080108643, 30.899500474333763, 30.7219997048378, 31.080500222742558, 30.75150027871132, 31.648999080061913, 30.51349986344576, 30.50599992275238, 31.172499991953373, 30.94749990850687, 30.654000118374825, 30.87749984115362, 32.09199942648411, 30.628999695181847, 30.684000812470913, 30.651499517261982, 30.810000374913216, 30.84299899637699, 30.974000692367554, 31.403999775648117, 30.554999597370625, 30.910499393939972, 30.800500884652138, 30.81049956381321, 30.85200022906065, 30.77750001102686, 30.54800070822239, 30.230999924242496, 30.511999502778053, 30.637500807642937, 30.288999900221825, 30.527000315487385, 30.75999952852726, 30.40499985218048, 30.161499977111816, 30.721000395715237, 30.67450039088726, 30.538499355316162, 30.64800053834915, 30.381500720977783, 30.893499962985516, 30.80200031399727, 30.785500071942806, 30.683000572025776, 30.639000236988068, 30.79400025308132, 32.31600113213062, 30.748500488698483, 31.09700046479702, 30.72550054639578, 30.461500398814678, 30.872500501573086, 30.912499874830246, 31.15450032055378, 65.17450045794249, 31.106499955058098, 30.99650051444769, 30.59250023216009, 30.635000206530094, 30.85250034928322, 30.63799999654293, 30.861500650644302, 30.656499788165092, 31.098498962819576, 31.139999628067017, 30.554000288248062, 34.87800061702728, 31.279999762773514, 31.081500463187695, 30.87050002068281, 30.305499210953712, 30.13250045478344, 30.722499825060368, 30.93350026756525, 30.539000406861305, 30.811000615358353, 30.642000027000904, 30.6985005736351, 30.53249977529049, 30.97750060260296, 33.75800047069788, 30.41050024330616, 30.25250043720007, 30.38599994033575, 30.32700065523386, 30.483500100672245, 30.23699950426817, 30.691499821841717, 30.642999336123466, 30.69549985229969, 30.627500265836716, 30.791500583291054, 64.58600051701069, 30.611999332904816, 30.6209996342659, 30.637499876320362, 30.717999674379826, 30.818498693406582, 30.541500076651573, 30.865500681102276, 31.41049947589636, 30.648499727249146, 30.811000615358353, 30.558999627828598, 30.988500453531742, 30.91450035572052, 32.42400009185076, 30.595500022172928, 30.8054992929101, 30.962000600993633, 30.665500089526176, 30.706499703228474, 30.894500203430653, 30.735500156879425, 30.54649941623211, 30.710999853909016, 30.578999780118465, 30.9664998203516, 64.07050136476755, 30.933501198887825, 30.654500238597393, 30.556000769138336, 30.280999839305878, 30.946500599384308, 30.811499804258347, 30.53500037640333, 30.980000272393227, 30.602000653743744, 30.28199914842844, 30.653499998152256, 30.330000445246696, 30.445500276982784, 30.646000057458878, 32.64150023460388, 30.48000019043684, 30.949999578297138, 30.655499547719955, 30.617999844253063, 65.56500121951103, 30.59250023216009, 31.336000189185143, 30.85099905729294, 30.452999286353588, 30.691499821841717, 31.09500091522932, 30.527000315487385, 30.66300041973591, 30.693999491631985, 30.921999365091324, 30.849499627947807, 30.904999934136868, 30.475500039756298, 30.85050079971552, 31.203999184072018, 64.88699931651354, 30.746000818908215, 30.58550041168928, 30.721500515937805, 30.904999934136868, 30.507000163197517, 30.319000594317913, 30.507000163197517, 30.413500033318996, 30.536500737071037, 30.48000019043684, 30.952000059187412, 30.636999756097794, 30.55250085890293, 30.830000527203083, 63.84299974888563, 30.62049951404333, 30.60399927198887, 30.74000123888254, 30.900999903678894, 30.857999809086323, 30.58100026100874, 30.34499939531088, 30.680499970912933, 30.573000200092793, 30.474500730633736, 30.83750046789646, 30.551500618457794, 30.737999826669693, 31.033999286592007, 30.51100019365549, 30.806000344455242, 30.98199889063835, 30.84849938750267, 33.73049944639206, 30.63349984586239, 30.991499312222004, 31.088500283658504, 30.881999991834164, 30.58949951082468, 30.50450049340725, 30.782999470829964],
  "Optimizer durations [ms]": [73.807, 72.511, 72.305, 73.107, 72.942, 72.544, 73.634, 72.279, 72.03, 72.038, 138.288, 72.243, 73.075, 72.541, 72.711, 72.283, 72.666, 72.112, 71.632, 72.747, 72.473, 72.426, 72.93, 72.123, 72.149, 72.381, 73.695, 72.187, 72.834, 72.583, 72.408, 72.245, 72.312, 72.682, 71.946, 72.031, 72.11, 72.59, 72.353, 72.032, 74.603, 73.185, 72.453, 73.216, 72.766, 73.041, 72.429, 73.63, 71.638, 72.505, 71.931, 72.388, 72.651, 72.358, 73.421, 72.754, 72.131, 72.537, 72.046, 72.449, 72.716, 73.238, 71.623, 71.927, 72.449, 72.203, 72.327, 73.176, 72.941, 72.307, 73.289, 72.155, 72.472, 73.361, 72.849, 71.375, 71.336, 72.495, 72.184, 71.65, 71.926, 72.176, 138.834, 72.292, 71.323, 71.801, 71.586, 71.503, 72.033, 72.476, 72.372, 72.656, 72.805, 72.934, 72.778, 72.497, 72.234, 72.733, 72.054, 72.311, 72.461, 72.738, 71.791, 71.995, 71.668, 71.986, 73.492, 72.325, 72.801, 73.029, 72.557, 72.295, 72.501, 72.45, 72.56, 73.246, 71.626, 71.802, 71.724, 72.692, 137.96, 71.91, 71.922, 72.333, 71.899, 72.056, 71.278, 72.274, 72.412, 72.074, 71.554, 72.265, 72.02, 72.251, 71.541, 72.587, 72.068, 71.832, 72.128, 72.061, 71.967, 72.079, 71.933, 72.446, 73.065, 72.634, 138.606, 72.134, 72.815, 72.465, 71.97, 73.137, 72.472, 72.054, 72.452, 72.545, 72.246, 72.473, 73.147, 72.493, 72.905, 72.287, 72.831, 72.995, 72.753, 72.53, 139.054, 72.038, 72.547, 72.622, 72.886, 72.96, 72.598, 72.401, 72.385, 73.109, 74.061, 72.251, 73.848, 72.725, 72.162, 72.726, 140.073, 73.452, 72.718, 72.5, 72.319, 72.652, 73.203, 74.322, 73.651, 72.875, 72.424, 73.009, 72.325, 72.832, 73.726, 137.532, 72.634, 72.586, 73.885, 73.31, 72.295, 72.067, 72.335, 71.917, 72.62, 72.887, 72.761, 72.933, 71.736, 72.843, 72.305, 72.611, 72.333, 73.442, 72.653, 72.935, 72.904, 72.062, 72.892, 72.409, 73.013, 72.421, 71.966, 72.162, 73.342, 71.556, 72.651, 72.995, 72.611, 73.398, 72.152, 72.076, 72.505, 72.951, 71.869, 71.521, 71.701, 72.451, 72.538, 71.652, 72.139, 73.669, 71.783, 72.155, 71.583, 72.128, 72.098, 71.839, 80.938, 71.902, 71.529, 71.331, 71.673, 71.7, 72.107, 72.207, 71.811, 72.092, 71.374, 71.601, 71.297, 71.355, 72.803, 72.419, 72.883, 72.591, 139.691, 73.144, 72.825, 72.189, 72.02, 73.005, 72.508, 72.821, 72.154, 78.655, 72.484, 71.854, 71.576, 72.059, 72.016, 71.875, 72.398, 72.456, 71.922, 72.042, 71.265, 71.524, 71.423, 73.435, 72.194, 72.319, 71.521, 71.517, 71.658, 71.655, 72.083, 71.999, 72.1, 71.926, 72.016, 71.546, 72.228, 72.262, 138.69, 71.507, 72.095, 72.186, 71.777, 72.89, 71.895, 72.441, 72.304, 71.568, 71.549, 71.521, 79.221, 72.123, 72.077, 71.67, 71.706, 71.878, 72.136, 72.402, 71.522, 72.42, 72.172, 71.684, 71.594, 72.322, 138.585, 72.131, 73.197, 72.121, 72.759, 72.538, 72.925, 72.533, 73.333, 72.559, 72.989, 72.307, 72.192, 71.538, 71.756, 72.049, 72.179, 71.444, 71.64, 72.363, 143.069, 71.375, 72.747, 72.01, 71.65, 72.22, 72.787, 71.525, 72.9, 72.842, 72.11, 72.806, 73.099, 73.02, 73.677, 72.544, 139.379, 71.697, 71.684, 72.108, 71.928, 72.379, 72.698, 72.797, 72.791, 74.095, 73.816, 73.42, 72.611, 72.476, 138.259, 73.715, 72.363, 73.39, 71.756, 72.075, 72.168, 72.091, 72.191, 71.548, 71.856, 72.116, 72.501, 72.597, 72.762, 72.403, 72.286, 71.966, 73.12, 72.545, 72.427, 73.49, 72.872, 74.036, 71.874, 72.009, 73.207, 72.811, 72.15, 72.594, 75.65, 72.282, 72.175, 72.124, 72.25, 72.455, 73.762, 73.557, 72.115, 72.882, 72.524, 72.359, 72.393, 72.524, 72.255, 71.289, 71.823, 71.956, 71.166, 71.877, 72.733, 71.594, 70.999, 72.624, 72.556, 71.836, 71.869, 72.242, 72.763, 72.276, 72.485, 71.927, 72.289, 73.593, 76.203, 73.295, 73.382, 73.538, 72.253, 73.974, 73.315, 74.093, 142.094, 73.544, 73.565, 72.514, 72.542, 72.921, 72.43, 72.815, 72.586, 73.191, 73.12, 72.343, 80.945, 74.375, 73.545, 73.747, 73.327, 71.134, 72.636, 72.861, 72.225, 72.839, 72.562, 72.284, 71.888, 72.763, 78.437, 71.683, 71.422, 71.461, 71.68, 71.875, 71.723, 72.462, 72.585, 72.57, 72.035, 72.356, 140.624, 72.325, 71.925, 71.965, 72.001, 72.488, 72.034, 72.763, 73.531, 72.177, 72.359, 71.789, 72.756, 72.59, 75.758, 72.156, 72.328, 72.526, 71.88, 72.226, 72.952, 72.843, 71.827, 72.42, 72.087, 72.954, 138.758, 72.899, 72.344, 71.895, 71.585, 72.563, 72.852, 72.149, 72.969, 71.74, 71.45, 72.346, 71.38, 71.569, 72.15, 75.996, 71.978, 72.594, 72.083, 71.944, 141.852, 72.275, 73.429, 72.538, 71.904, 72.057, 73.146, 71.742, 72.241, 72.466, 72.575, 72.323, 72.58, 71.615, 72.616, 73.485, 140.576, 72.915, 71.662, 72.093, 72.58, 72.023, 71.633, 71.907, 71.536, 72.046, 72.002, 72.841, 72.411, 71.867, 72.735, 138.534, 71.793, 71.857, 72.096, 72.894, 72.485, 71.768, 71.37, 72.232, 72.02, 71.984, 72.442, 72.169, 72.656, 72.917, 71.797, 72.413, 73.057, 72.558, 80.546, 72.636, 75.181, 74.296, 73.203, 72.576, 72.093, 72.862],
  "Optimizer iterations": 596,
  "Qubits": 9,
  "Total Algorithm duration [s]": 44.486,
  "Total Classic duration [s]": 25.501187994576988,
  "Total Quantum duration [s]": 18.98481200542301,
  "Expectation Value": -9.68505859375,
  "Optimal Expectation Value": -11.109565734863281,
  "Optimizer params": [0.5020940227631718, 0.8157038178070838, 0.7979931330538893, 0.4685330193078094, 0.8006530810747743, 0.4830216341844164, 0.6410893027057742, 0.6044380509790858, 0.4692699607594422, 0.4868470370639013, 0.5971802798962736, 0.44303538308430906, 0.6739591640372814, 0.4890759144196882, 0.715365839782369, 0.4482844489998294, 0.8220199013937367, 0.5312784620292287, 0.4853542840501698, 0.6312973653649521, 0.666359841236169, 0.6868561682101338, 0.6682082278724494, 0.6760614243851658, 0.8509162345268598, 0.710629127403802, 0.5181172724250758, 0.5305311184149959, 0.5912206446126588, 0.4771886663672065, 0.48578567073218837, 0.48960782150951815, 0.5041693363764147, 0.46891050377772664, 0.5006301754765151, 0.5060825158397145],
  "QPU": "9000001",
  "Problem": "IC",
  "Size": 9,
  "P": 0,
  "Shots": 4096
}