{
  "Depth": 20.5,
  "Job durations [ms]": [30.635500326752663, 30.64549993723631, 30.458000488579273, 30.46800009906292, 30.626499094069004, 30.567999929189682, 30.167999677360058, 30.791498720645905, 30.82949947565794, 63.66549991071224, 30.59149906039238, 30.96899949014187, 30.438000336289406, 30.521499924361706, 30.630500055849552, 30.692999251186848, 30.526000075042248, 30.5375000461936, 30.83800058811903, 30.4520009085536, 30.809500254690647, 30.527500435709953, 30.64200095832348, 30.519999563694, 63.48799914121628, 32.14900102466345, 30.7839997112751, 30.778500251471996, 30.691000632941723, 30.999500304460526, 30.98099958151579, 31.054500490427017, 30.6404996663332, 33.50749984383583, 30.743500217795372, 30.740500427782536, 30.58800008147955, 30.496499501168728, 31.130000948905945, 30.674499459564686, 30.73549922555685, 30.77350091189146, 31.04200027883053, 30.71599919348955, 30.8034997433424, 31.31949994713068, 30.64149897545576, 30.495000071823597, 30.560499988496304, 31.037500128149986, 30.826499685645103, 30.79000022262335, 30.71499988436699, 31.19650110602379, 30.68349976092577, 30.696500092744827, 30.794999562203884, 30.722999945282936, 30.94350080937147, 31.56250063329935, 30.539000406861305, 30.573000200092793, 30.792499892413616, 30.821499414741993, 30.97050078213215, 30.87749984115362, 30.34800011664629, 30.767500400543213, 30.310500413179398, 30.54250031709671, 30.380000360310078, 30.35449981689453, 30.437499284744263, 30.433500185608864, 30.26500064879656, 30.755000188946724, 30.42399976402521, 30.47950007021427, 30.294000171124935, 31.177999451756477, 31.24949987977743, 30.833999626338482, 30.68650048226118, 30.828500166535378, 31.070499680936337, 30.96799924969673, 31.1314994469285, 30.625000596046448, 30.365999788045883, 30.494000762701035, 30.501000583171844, 30.829000286757946, 30.899999663233757, 30.887499451637268, 30.645500868558884, 63.88249900192022, 30.84450028836727, 30.65949957817793, 30.739499256014824, 30.798999592661858, 30.651500448584557, 31.01699985563755, 30.473499558866024, 30.617999844253063, 31.024998985230923, 30.39549943059683, 31.15049935877323, 30.729500576853752, 30.656500719487667, 31.133499927818775, 30.85150010883808, 31.034499406814575, 31.012500636279583, 30.901500023901463, 30.915500596165657, 30.856999568641186, 30.876999720931053, 30.82749992609024, 30.988000333309174, 30.764000490307808, 30.484000220894814, 30.997000634670258, 30.932500027120113, 30.767000280320644, 30.876999720931053, 30.953500419855118, 31.26099891960621, 31.142499297857285, 30.553500168025494, 30.70100024342537, 31.099499203264713, 30.658000148832798, 30.6560005992651, 63.69350105524063, 30.667499639093876, 30.86400032043457, 30.96149954944849, 30.906500294804573, 30.881499871611595, 30.519999563694, 30.85950016975403, 30.708500184118748, 30.744999647140503, 30.536499805748463, 30.898500233888626, 30.3335003554821, 30.478999949991703, 30.62400035560131, 30.512499623000622, 30.544999986886978, 30.797000974416733, 30.613000504672527, 30.528999865055084, 30.696500092744827, 30.635000206530094, 30.623000115156174, 31.016500666737556, 30.39800003170967, 30.691499821841717, 63.73149901628494, 30.358499847352505, 30.51100019365549, 30.561001040041447, 30.29399923980236, 30.471500009298325, 30.811999924480915, 32.901499420404434, 30.99650051444769, 31.050000339746475, 30.50149977207184, 30.786000192165375, 30.873499810695648, 31.298999674618244, 30.748999677598476, 30.917500145733356, 31.0035003349185, 30.79649992287159, 30.523499473929405, 30.884000472724438, 64.580999314785, 31.492499634623528, 30.91500047594309, 30.831499956548214, 30.507500283420086, 30.840500257909298, 30.912999995052814, 30.930000357329845, 30.948500148952007, 30.799499712884426, 30.76549991965294, 30.638499185442924, 30.592499300837517, 30.635499395430088, 30.577500350773335, 30.83449974656105, 64.12699818611145, 30.77949956059456, 30.646000057458878, 30.899999663233757, 30.540499836206436, 30.875999480485916, 30.87949939072132, 30.741499736905098, 30.705000273883343, 30.51299974322319, 30.832499265670776, 30.796498991549015, 31.02750051766634, 30.763499438762665, 63.43249883502722, 30.55349923670292, 30.351500026881695, 30.265499837696552, 30.920499935746193, 30.360999517142773, 30.550500378012657, 30.671000480651855, 30.339499935507774, 30.425500124692917, 30.43149970471859, 30.642000027000904, 30.720999464392662, 30.659000389277935, 30.503000132739544, 30.457000248134136, 30.544000677764416, 30.69350030273199, 31.223000027239323, 30.571499839425087, 30.84500040858984, 30.930000357329845, 30.56399989873171, 30.611999332904816, 30.894500203430653, 31.504499725997448, 30.697000212967396, 31.048500910401344, 30.819500796496868, 30.95499984920025, 31.000499613583088, 30.657000839710236, 32.21500013023615, 30.299000442028046, 30.476500280201435, 30.64899891614914, 30.478499829769135, 30.592000111937523, 30.441000126302242, 31.002501025795937, 30.925999395549297, 31.018500216305256, 30.970999971032143, 30.881499871611595, 30.880999751389027, 30.707500874996185, 30.900499783456326, 30.371000058948994, 30.64800053834915, 30.68399988114834, 30.719499103724957, 30.498499982059002, 31.007999554276466, 31.254999339580536, 31.05300012975931, 30.102000571787357, 30.351500026881695, 30.371000058948994, 30.277499929070473, 30.05949966609478, 33.5485003888607, 30.77550046145916, 30.699499882757664, 31.128499656915665, 30.664000660181046, 30.61000071465969, 31.186499632894993, 31.564999371767044, 30.7375006377697, 30.640999786555767, 30.90700041502714, 30.941500328481197, 64.07200079411268, 30.475500039756298, 30.338999815285206, 30.46299982815981, 30.207999981939793, 30.509499832987785, 30.497999861836433, 30.490499921143055, 30.345999635756016, 30.82749992609024, 30.201499350368977, 30.399499461054802, 30.342000536620617, 30.403999611735344, 30.608500353991985, 30.938000418245792, 30.870499089360237, 31.079000793397427, 31.11299965530634, 30.63600044697523, 31.169000081717968, 31.243999488651752, 31.312501057982445, 30.71750048547983, 30.82999959588051, 30.922500416636467, 30.47950007021427, 31.168500892817974, 30.67700006067753, 30.62400035560131, 30.813499353826046, 30.65550047904253, 30.592999421060085, 30.916498973965645, 30.999000184237957, 30.80850001424551, 30.907499603927135, 30.616999603807926, 63.531001098454, 30.637000687420368, 30.454999767243862, 30.482000671327114, 30.376999638974667, 30.460000038146973, 30.34299984574318, 30.426000244915485, 30.785500071942806, 30.526500195264816, 30.74799943715334, 30.349500477313995, 30.67149966955185, 30.834000557661057, 30.60699999332428, 30.32200038433075, 30.643999576568604, 30.549999326467514, 30.804499983787537, 30.930000357329845, 30.654000118374825, 30.669999308884144, 30.640999786555767, 30.658500269055367, 31.102499924600124, 31.318499706685543, 64.05000016093254, 30.6404996663332, 31.252000480890274, 30.55000025779009, 30.916000716388226, 30.526500195264816, 30.187999829649925, 30.444500036537647, 30.52499983459711, 30.319000594317913, 30.843500047922134, 31.266999430954456, 31.32349904626608, 30.887998640537262, 30.75249958783388, 30.83950001746416, 30.831499956548214, 30.69049958139658, 30.82050010561943, 30.819500796496868, 64.0744986012578, 30.759500339627266, 30.972500331699848, 30.78449983149767, 30.94550035893917, 31.547999009490013, 31.316500157117844, 30.949500389397144, 31.12449962645769, 30.876999720931053, 30.67700006067753, 33.538999035954475, 31.002500094473362, 30.478499829769135, 30.409999191761017, 30.31450044363737, 63.69300093501806, 30.768499709665775, 31.18449915200472, 30.660999938845634, 30.557500198483467, 31.019999645650387, 30.880999751389027, 31.096999533474445, 31.196000054478645, 30.253499746322632, 30.596000142395496, 30.507000163197517, 30.395000241696835, 30.671500600874424, 30.706499703228474, 65.68100024014711, 30.71449976414442, 30.704000033438206, 30.838999897241592, 30.526000075042248, 30.817500315606594, 30.664500780403614, 30.72550054639578, 31.15450032055378, 30.617499724030495, 30.57150077074766, 31.07649926096201, 30.75799997895956, 31.13599866628647, 30.87949939072132, 31.068000942468643, 30.716500245034695, 30.563500709831715, 30.83599917590618, 30.626999214291573, 30.447999946773052, 30.39999958127737, 30.104000121355057, 30.314499512314796, 30.171500518918037, 30.715500004589558, 30.352000147104263, 30.11199925094843, 30.194999650120735, 30.229500494897366, 30.292999930679798, 30.47449979931116, 30.529499985277653, 30.390500091016293, 30.64150083810091, 30.713999643921852, 30.364999547600746, 30.765999108552933, 30.333000235259533, 30.20650055259466, 30.41550051420927, 30.571499839425087, 30.536499805748463, 30.376499518752098, 30.121500603854656, 30.775999650359154, 30.63949942588806, 30.217000283300877, 30.90600110590458, 30.854499898850918, 30.811499804258347, 30.658499337732792, 30.63799999654293, 30.974000692367554, 32.451500184834, 30.414000153541565, 30.44349979609251, 30.63100017607212, 30.26149980723858, 30.31149972230196, 30.62400035560131, 30.355999246239662, 30.851999297738075, 30.755999498069286, 31.070999801158905, 31.094000674784184, 30.644499696791172, 30.810999684035778, 30.98099958151579, 31.530999578535557, 30.44549934566021, 64.00849856436253, 31.060501001775265, 30.861999839544296, 30.96000012010336, 30.75249958783388, 30.7239992544055, 30.260500498116016, 30.664500780403614, 30.41199967265129, 30.41000012308359, 30.5375000461936, 30.791000463068485, 30.809500254690647, 30.40300030261278, 30.31700011342764, 30.23499995470047, 30.41100036352873, 30.518999323248863, 31.396999955177307, 30.89050017297268, 30.801499262452126, 30.732999555766582, 31.281000934541225, 31.011500395834446, 31.213998794555664, 31.481999903917313, 30.88200092315674, 30.79000022262335, 30.63999954611063, 31.061500310897827, 31.030500307679176, 30.623000115156174, 30.627000145614147, 30.4189994931221, 30.553500168025494, 30.641499906778336, 30.546500347554684, 30.176999978721142, 63.7385006994009, 30.774999409914017, 30.517499893903732, 30.41800018399954, 30.511999502778053, 30.515500344336033, 30.57749941945076, 30.570000410079956, 30.658000148832798, 30.584500171244144, 30.77249974012375, 30.446999706327915, 30.44900018721819, 30.416499823331833, 30.404500663280487, 30.71250021457672, 31.113999895751476, 30.62549978494644, 30.46050015836954, 30.806999653577805, 30.61950020492077, 30.96000012010336, 30.824500136077404, 30.46600054949522, 31.00499976426363, 31.240499578416348, 64.01549838483334, 30.98950069397688, 31.42350073903799, 31.03250078856945, 30.941001139581203, 30.73150012642145, 30.791000463068485, 30.60199972242117, 30.61399981379509, 30.627500265836716, 30.573000200092793, 30.89149948209524, 30.69749940186739, 30.302000232040882, 30.558999627828598, 30.314499512314796, 30.441000126302242, 30.93150071799755, 30.640999786555767, 30.48849944025278, 63.69449943304062, 31.82549960911274, 30.704500153660774, 30.76850064098835, 30.929500237107277, 30.976001173257828, 30.792499892413616, 31.19550086557865, 30.802499502897263, 31.085499562323093, 30.74749931693077, 30.84000013768673],
  "Optimizer durations [ms]": [72.471, 72.065, 71.841, 71.895, 71.812, 72.361, 71.158, 72.458, 72.458, 138.002, 71.963, 72.62, 71.329, 71.675, 71.842, 71.744, 71.702, 71.95, 73.017, 71.982, 72.317, 71.586, 72.048, 71.788, 137.939, 75.088, 72.23, 72.045, 72.022, 72.617, 72.503, 73.44, 71.878, 78.16, 72.091, 72.201, 71.829, 71.943, 73.577, 72.552, 72.378, 72.274, 73.286, 72.36, 72.486, 73.936, 72.022, 71.796, 72.064, 72.758, 72.513, 72.578, 72.428, 73.007, 72.283, 72.03, 72.305, 72.348, 72.728, 74.304, 72.05, 72.244, 72.526, 72.257, 72.779, 72.66, 71.657, 72.247, 71.243, 71.645, 71.375, 71.417, 72.002, 71.661, 71.446, 72.72, 71.64, 71.621, 71.273, 73.216, 73.416, 72.958, 72.301, 72.46, 73.3, 72.67, 73.797, 72.099, 71.811, 71.726, 71.728, 72.557, 72.644, 72.553, 72.307, 138.646, 72.371, 72.057, 72.191, 73.739, 72.097, 73.39, 71.968, 71.965, 73.024, 71.736, 73.794, 73.083, 72.37, 73.079, 72.482, 72.774, 72.696, 73.075, 72.709, 72.983, 72.771, 72.389, 72.736, 72.584, 71.672, 72.948, 73.135, 72.261, 72.447, 72.824, 73.763, 73.323, 71.777, 72.578, 73.095, 72.135, 72.524, 138.684, 72.142, 72.352, 72.636, 72.563, 72.552, 72.12, 72.759, 72.023, 72.547, 72.023, 72.43, 71.366, 71.608, 72.191, 71.873, 71.773, 72.389, 71.766, 71.767, 72.401, 72.026, 71.847, 73.05, 71.563, 72.057, 138.386, 71.739, 71.886, 72.032, 71.006, 71.434, 72.416, 76.778, 73.051, 72.885, 72.178, 72.342, 72.624, 73.346, 72.344, 72.926, 72.947, 72.381, 71.734, 72.537, 140.412, 73.684, 72.463, 72.605, 72.099, 72.553, 72.572, 72.406, 72.722, 72.158, 72.441, 71.958, 71.803, 72.153, 72.224, 72.677, 139.077, 72.435, 71.829, 72.412, 71.794, 72.611, 72.438, 72.445, 72.647, 71.629, 72.261, 72.688, 72.993, 72.399, 138.19, 71.891, 71.387, 70.883, 72.725, 71.652, 71.796, 71.9, 71.537, 71.425, 71.718, 72.482, 72.322, 72.417, 71.945, 71.596, 71.667, 72.328, 73.226, 71.994, 72.601, 72.706, 71.784, 71.978, 72.953, 74.213, 72.4, 73.356, 72.838, 72.835, 73.011, 72.108, 75.328, 71.352, 72.067, 72.295, 71.786, 71.784, 71.95, 73.138, 72.8, 73.34, 73.374, 73.072, 73.267, 72.535, 72.76, 71.499, 72.097, 72.129, 72.055, 71.864, 73.709, 73.424, 73.601, 71.417, 71.486, 71.458, 71.312, 70.892, 78.098, 72.351, 72.329, 72.903, 72.145, 72.094, 73.642, 74.282, 72.742, 71.996, 72.688, 72.668, 139.003, 71.802, 71.405, 71.527, 70.951, 71.698, 71.596, 72.191, 71.688, 72.712, 71.171, 71.803, 71.423, 72.083, 71.932, 73.138, 72.507, 72.967, 73.134, 72.03, 73.24, 73.656, 73.626, 72.518, 72.698, 72.674, 71.709, 73.338, 72.114, 72.288, 72.543, 72.043, 72.141, 72.643, 72.682, 72.683, 72.875, 72.317, 138.296, 71.87, 71.678, 71.666, 71.462, 71.931, 71.285, 71.521, 72.205, 72.754, 72.7, 71.622, 72.392, 72.649, 71.877, 71.316, 71.961, 71.741, 72.631, 72.893, 71.888, 72.234, 71.978, 72.211, 73.424, 73.74, 139.063, 72.233, 73.116, 71.723, 72.656, 71.969, 71.347, 71.721, 71.75, 71.467, 72.251, 73.814, 73.224, 72.915, 72.596, 72.636, 72.461, 72.017, 72.461, 72.898, 139.288, 72.256, 72.78, 72.542, 72.916, 73.931, 73.785, 73.01, 73.09, 72.329, 71.989, 77.974, 72.898, 71.619, 71.872, 71.329, 138.128, 72.657, 72.964, 72.413, 71.919, 72.852, 72.431, 72.874, 73.049, 71.367, 72.065, 71.835, 71.621, 72.085, 72.126, 142.491, 72.623, 72.511, 72.58, 71.656, 72.338, 72.044, 72.438, 73.201, 71.975, 72.069, 73.095, 72.419, 73.472, 72.671, 73.296, 72.378, 71.911, 72.517, 71.877, 72.343, 71.591, 70.827, 71.478, 70.96, 72.342, 71.713, 71.497, 71.084, 71.467, 71.865, 71.797, 71.764, 71.516, 71.89, 72.214, 71.566, 72.176, 71.407, 71.172, 71.607, 72.2, 71.951, 71.843, 71.174, 72.402, 72.077, 71.248, 72.554, 73.758, 72.627, 72.177, 72.421, 72.784, 75.875, 71.988, 71.695, 72.351, 71.276, 71.22, 72.031, 71.414, 72.841, 72.507, 73.003, 72.886, 72.1, 72.375, 73.164, 73.885, 71.687, 139.254, 72.787, 72.481, 72.685, 72.608, 72.365, 71.203, 72.152, 71.483, 71.485, 72.178, 72.313, 72.693, 71.929, 71.497, 71.155, 71.478, 71.811, 74.085, 73.028, 72.617, 72.163, 73.388, 72.998, 73.673, 73.883, 72.67, 72.948, 72.252, 73.126, 72.957, 71.876, 72.185, 71.495, 71.818, 72.11, 71.777, 71.198, 138.523, 72.218, 71.997, 71.607, 71.768, 71.729, 72.1, 71.826, 72.231, 71.991, 72.419, 71.492, 71.803, 72.055, 71.611, 72.253, 73.248, 72.51, 71.753, 72.899, 72.091, 72.925, 72.804, 71.804, 72.944, 73.174, 139.398, 72.963, 73.758, 73.381, 72.877, 72.212, 72.108, 71.841, 71.958, 71.954, 71.998, 72.598, 71.926, 71.304, 72.287, 71.319, 71.668, 72.804, 72.005, 71.671, 138.116, 74.51, 72.165, 72.409, 72.899, 72.747, 72.503, 73.659, 72.464, 72.962, 72.486, 72.604],
  "Optimizer iterations": 563,
  "Qubits": 9,
  "Total Algorithm duration [s]": 41.944,
  "Total Classic duration [s]": 24.035762509197,
  "Total Quantum duration [s]": 17.908237490803003,
  "Expectation Value": -10.1806640625,
  "Optimal Expectation Value": -11.109565734863281,
  "Optimizer params": [0.4974370981093235, 0.919227534425037, 0.5088075472943397, 0.6047518107740171, 0.4940066750560236, 0.9132772837852499, 0.5408409578311679, 0.567968266568885, 0.543114880700807, 0.7914291525177444, 0.8017459365384045, 0.7636943497097551, 0.787240600456515, 0.7603234227522379, 0.4847191933160839, 0.7740701541240409, 0.4849121458005941, 0.47826078938277816, 0.46347892013620096, 0.4817457943399132, 0.4869958957503125, 0.4849301933886632, 0.47167462638353863, 0.4855066088550894, 0.5053826795678865, 0.5101377094834838, 0.5083385870028039, 0.4789449432460308, 0.47100583057378775, 0.45873977344038397, 0.4657001007159268, 0.4681401888978906, 0.47803935172378875, 0.4705720998473577, 0.48655766640627435, 0.4906262867356868],
  "QPU": "9000001",
  "Problem": "IC",
  "Size": 9,
  "P": 0,
  "Shots": 4096
}