{
  "Depth": 686.0,
  "Expectation Value": -3.203857421875,
  "Job durations [ms]": [30.585765838623047, 30.476808547973633, 30.585050582885742, 30.508756637573242, 32.80973434448242, 41.08095169067383, 30.651569366455078, 54.90899085998535, 30.508756637573242, 30.372142791748047, 30.361175537109375, 30.488014221191406, 31.56113624572754, 31.409025192260742, 30.606985092163086, 30.58767318725586, 33.69569778442383, 31.10647201538086, 31.498193740844727, 31.00109100341797, 30.481338500976563, 30.98773956298828, 30.678272247314453, 30.695676803588867, 30.742645263671875, 30.840396881103516, 31.350374221801758, 31.182289123535156, 31.00872039794922, 30.678272247314453, 30.587196350097656, 30.542612075805664, 30.788421630859375, 31.624555587768555, 31.626224517822266, 31.3873291015625, 30.902624130249023, 31.032323837280273, 30.788421630859375, 36.543846130371094, 31.1431884765625, 36.321401596069336, 30.238866806030273, 34.05499458312988, 30.710220336914063, 30.215978622436523, 30.852079391479492, 30.4107666015625, 31.405925750732422, 30.77101707458496, 30.562162399291992, 30.513763427734375, 30.95865249633789, 30.356884002685547, 30.94029426574707, 34.410953521728516, 30.751466751098633, 30.506372451782227, 30.55739402770996, 30.681610107421875, 30.790090560913086, 30.608654022216797, 31.295299530029297, 30.871152877807617, 30.957937240600586, 30.34043312072754, 30.423402786254883, 30.544757843017578, 31.041860580444336, 30.63797950744629, 30.840396881103516, 30.843734741210938, 30.809402465820313, 30.411481857299805, 30.537128448486328, 30.49445152282715, 31.543731689453125, 31.31389617919922, 30.402183532714844, 30.76481819152832, 31.206846237182617, 30.963897705078125, 30.64131736755371, 30.609130859375, 31.799793243408203, 31.7535400390625, 30.524015426635742, 30.93576431274414, 30.46727180480957, 30.693531036376953, 30.659198760986328],
  "Optimal Expectation Value": -4.0,
  "Optimizer durations [ms]": [448.357, 488.023, 489.102, 491.444, 495.046, 457.92, 494.16, 515.293, 493.735, 448.175, 490.059, 487.691, 496.698, 449.124, 492.649, 494.54, 495.889, 494.103, 448.598, 493.496, 489.783, 494.834, 447.761, 490.973, 489.707, 495.363, 448.324, 491.767, 494.22, 492.942, 493.02, 448.081, 490.582, 490.391, 492.845, 449.226, 490.268, 488.329, 492.399, 454.195, 489.609, 499.464, 488.903, 495.891, 453.282, 491.251, 490.112, 492.64, 450.862, 491.242, 496.555, 491.721, 494.089, 448.056, 494.836, 493.09, 494.314, 447.387, 491.199, 489.229, 495.501, 447.717, 492.298, 495.971, 492.146, 493.231, 447.472, 493.55, 489.824, 496.657, 446.968, 492.099, 488.686, 494.149, 448.159, 491.111, 495.108, 491.54, 491.633, 447.49, 492.525, 489.068, 492.832, 447.943, 490.975, 490.1, 492.259, 448.684, 488.431, 494.319, 490.498],
  "Optimizer iterations": 91,
  "Optimizer params": [1.0, 0.32852784994144185, 0.30742066762494225, 1.0, 0.021054914900553685, 0.6866908549131548],
  "P": 3,
  "Problem": "MIS",
  "QPU": "3010008",
  "Qubits": 15,
  "Shots": 4096,
  "Size": 12,
  "Total Algorithm duration [s]": 43.921,
  "Total Classic duration [s]": 41.059635635375976,
  "Total Quantum duration [s]": 2.8613643646240234
}
