{
  "Depth": 686.0,
  "Expectation Value": -3.21240234375,
  "Job durations [ms]": [30.594587326049805, 30.614852905273438, 31.33559226989746, 38.4976863861084, 30.570030212402344, 30.31182289123535, 30.57408332824707, 30.559301376342773, 30.266761779785156, 31.36277198791504, 30.657052993774414, 30.819177627563477, 31.011581420898438, 30.699491500854492, 30.907869338989258, 31.229496002197266, 30.83491325378418, 56.166648864746094, 30.84707260131836, 31.132221221923828, 30.582904815673828, 30.69329261779785, 30.498504638671875, 31.536102294921875, 30.809640884399414, 30.67946434020996, 30.70807456970215, 30.73406219482422, 45.97210884094238, 30.18331527709961, 30.575037002563477, 30.815839767456055, 30.823945999145508, 30.759811401367188, 32.59921073913574, 30.665159225463867, 31.55374526977539, 30.468463897705078, 30.741453170776367, 30.566692352294922, 36.26585006713867, 30.59983253479004, 30.6246280670166, 31.015634536743164, 30.642032623291016, 30.623674392700195, 30.6093692779541, 30.472755432128906, 31.449317932128906, 30.606746673583984, 31.55684471130371, 31.36897087097168, 30.78174591064453, 30.830860137939453, 30.535459518432617, 31.51226043701172, 31.51988983154297, 30.640125274658203, 30.853748321533203, 30.944108963012695, 30.663251876831055, 30.75408935546875, 30.841350555419922, 30.490398406982422, 31.34322166442871, 30.860424041748047, 30.467748641967773, 31.270265579223633, 30.80463409423828, 30.632972717285156, 30.81679344177246, 30.98297119140625, 30.643939971923828, 30.855178833007813, 30.5023193359375, 30.524492263793945, 30.419349670410156, 30.489444732666016, 31.10218048095703, 30.733823776245117, 31.455516815185547, 31.03780746459961, 30.58314323425293, 30.384302139282227, 30.845165252685547, 30.552387237548828, 31.77809715270996, 31.411170959472656, 41.16010665893555, 30.737638473510742, 30.364513397216797, 30.529022216796875, 30.934572219848633, 30.634403228759766, 31.42070770263672, 30.81512451171875, 30.661821365356445, 30.644893646240234, 29.964685440063477, 30.225276947021484, 30.69448471069336, 31.24094009399414, 31.351327896118164, 30.83062171936035, 30.584335327148438, 30.744314193725586, 30.919790267944336, 30.791044235229492, 30.720233917236328, 31.612396240234375, 30.991792678833008, 30.67755699157715, 30.99989891052246, 30.635356903076172],
  "Optimal Expectation Value": -4.0,
  "Optimizer durations [ms]": [492.429, 492.183, 493.027, 455.457, 489.655, 487.404, 493.912, 447.174, 489.701, 494.607, 491.089, 492.106, 450.012, 491.203, 488.863, 492.824, 448.522, 515.677, 487.924, 491.291, 493.415, 447.39, 492.099, 493.321, 493.754, 447.687, 491.586, 488.54, 509.543, 446.609, 490.646, 496.656, 490.323, 493.939, 449.619, 492.734, 490.376, 492.806, 447.61, 490.784, 493.485, 491.741, 448.51, 490.602, 493.911, 489.744, 493.178, 447.348, 491.672, 495.325, 494.807, 449.267, 491.423, 496.137, 491.876, 497.785, 448.448, 495.052, 491.013, 493.31, 448.558, 489.746, 487.661, 493.719, 448.982, 492.167, 495.715, 491.896, 493.465, 446.89, 494.646, 489.28, 494.827, 447.59, 490.333, 488.072, 494.288, 447.469, 491.706, 494.841, 492.653, 493.13, 447.867, 491.939, 488.76, 493.127, 448.647, 491.212, 497.388, 493.229, 447.159, 490.543, 493.81, 491.388, 493.086, 448.948, 491.785, 489.659, 492.575, 447.662, 490.965, 496.865, 493.695, 493.756, 447.366, 492.021, 490.124, 493.749, 448.338, 491.777, 487.973, 493.766, 448.501, 491.491],
  "Optimizer iterations": 114,
  "Optimizer params": [1.0, 0.1837210733560873, 0.3870699990334924, 0.02291131824641005, 0.1007767122494469, 0.570347969397066],
  "P": 3,
  "Problem": "MIS",
  "QPU": "3010008",
  "Qubits": 15,
  "Shots": 4096,
  "Size": 12,
  "Total Algorithm duration [s]": 55.016,
  "Total Classic duration [s]": 51.43745299911499,
  "Total Quantum duration [s]": 3.5785470008850098
}
