{
  "Depth": 2.0,
  "Job durations [ms]": [17.97199249267578, 20.20430564880371, 20.15364170074463, 19.75572109222412, 19.79207992553711, 19.76299285888672, 19.790291786193848, 19.816160202026367, 19.70219612121582, 19.454360008239746, 17.151594161987305, 14.655113220214844, 14.523148536682129, 14.841437339782715, 15.874266624450684, 14.377236366271973, 14.295220375061035, 14.203548431396484, 14.79184627532959, 14.51098918914795, 14.406204223632812, 14.567732810974121, 15.793800354003906, 14.69886302947998, 15.208721160888672, 14.779925346374512, 17.14324951171875, 15.796303749084473, 14.821767807006836, 14.66071605682373, 14.784455299377441, 14.643073081970215, 15.804409980773926, 14.737606048583984, 14.971375465393066, 14.68360424041748, 15.0071382522583, 14.875650405883789, 14.68205451965332, 14.773964881896973, 14.731526374816895, 15.16580581665039, 14.61338996887207, 14.839768409729004, 14.887571334838867, 14.86659049987793, 14.913439750671387, 14.90640640258789, 14.913320541381836, 14.920830726623535, 14.768123626708984, 15.017509460449219, 14.618396759033203, 14.805316925048828, 14.24860954284668, 14.216899871826172, 14.531373977661133, 14.855027198791504, 15.144586563110352, 14.886617660522461, 14.501094818115234, 14.909982681274414, 14.733672142028809, 15.149712562561035, 14.476776123046875, 14.556407928466797, 14.45019245147705, 14.336228370666504, 14.954805374145508, 14.518976211547852, 14.63305950164795, 15.085220336914062, 14.403939247131348, 14.363408088684082, 14.548778533935547, 15.69211483001709, 14.868617057800293, 15.339255332946777, 14.902234077453613, 15.291333198547363, 15.143156051635742, 14.690876007080078, 15.361309051513672, 15.076398849487305, 15.119671821594238, 18.095731735229492, 14.197587966918945, 14.305710792541504, 14.684200286865234, 14.985084533691406, 15.308260917663574, 15.022039413452148, 15.044212341308594, 15.15495777130127, 14.946579933166504, 15.076637268066406, 14.967679977416992, 14.40274715423584, 14.862775802612305, 15.392780303955078, 14.816045761108398, 15.036463737487793, 14.646172523498535, 15.025138854980469, 17.28999614715576, 19.407272338867188, 14.72485065460205, 14.50490951538086, 14.452338218688965, 14.561653137207031, 15.14136791229248, 14.725327491760254, 14.899373054504395, 14.6714448928833, 15.13361930847168, 14.295697212219238, 15.047430992126465, 14.882445335388184, 17.293691635131836, 15.364646911621094, 14.6867036819458, 14.687180519104004, 16.916871070861816, 16.061067581176758, 14.380335807800293, 14.600872993469238, 15.203475952148438, 17.6926851272583, 15.868782997131348, 14.956355094909668, 14.979124069213867, 14.88947868347168, 14.63174819946289, 14.639973640441895, 15.418291091918945, 16.332507133483887, 15.090465545654297, 15.212416648864746, 14.99950885772705, 15.283465385437012, 15.22684097290039, 14.528036117553711, 14.751434326171875, 14.64700698852539, 15.237808227539062, 14.980554580688477, 14.94753360748291, 18.854141235351562, 14.583587646484375, 14.490246772766113, 14.68801498413086, 15.277624130249023, 14.954924583435059, 14.980077743530273, 15.015363693237305, 14.99783992767334, 15.223264694213867, 14.63460922241211, 14.56594467163086, 14.376997947692871, 14.8392915725708, 15.191078186035156, 15.094161033630371, 15.430331230163574, 14.936208724975586, 14.78886604309082, 14.44864273071289, 14.728307723999023, 14.871835708618164, 14.50502872467041, 14.652729034423828, 15.052556991577148, 16.12067222595215],
  "Optimizer durations [ms]": [224.283, 191.631, 191.695, 189.84, 243.641, 195.326, 199.956, 195.667, 253.74, 197.351, 179.018, 215.288, 159.904, 159.943, 164.332, 210.022, 155.673, 161.799, 156.795, 204.596, 155.301, 161.579, 161.933, 209.424, 165.59, 162.026, 220.616, 164.58, 166.127, 164.324, 207.769, 160.859, 162.567, 159.314, 208.93, 163.226, 164.597, 158.988, 207.493, 159.946, 158.046, 221.278, 158.257, 162.128, 159.473, 224.151, 159.52, 165.324, 165.88, 210.974, 163.63, 162.174, 158.557, 202.803, 154.648, 154.823, 206.921, 155.185, 158.777, 157.073, 201.796, 158.582, 160.044, 160.144, 205.469, 155.875, 154.597, 156.829, 203.304, 158.659, 160.056, 213.854, 156.133, 155.363, 155.183, 216.974, 159.527, 160.947, 161.433, 207.264, 162.156, 157.503, 161.222, 205.893, 163.874, 168.201, 206.652, 153.861, 155.99, 158.127, 211.25, 161.73, 161.561, 166.698, 216.658, 162.115, 160.819, 161.905, 214.511, 166.189, 160.967, 206.228, 156.349, 159.482, 169.366, 231.384, 165.553, 164.385, 160.975, 218.01, 166.243, 161.201, 157.577, 206.17, 161.288, 156.145, 211.693, 165.476, 164.596, 171.345, 213.327, 156.159, 165.183, 163.738, 205.51, 156.472, 163.643, 171.923, 222.687, 166.373, 164.442, 217.577, 160.298, 162.259, 165.814, 220.974, 162.69, 163.219, 161.509, 222.388, 162.592, 157.804, 159.963, 212.725, 163.811, 163.0, 223.804, 173.986, 158.857, 159.73, 215.522, 164.89, 162.651, 165.114, 216.997, 164.617, 164.235, 160.801, 208.897, 159.966, 160.885, 219.863, 160.873, 170.316, 166.291, 215.152, 159.935, 158.297, 166.178, 215.28, 165.898, 167.778, 169.251],
  "Optimizer iterations": 173,
  "Qubits": 9,
  "Total Algorithm duration [s]": 30.651,
  "Total Classic duration [s]": 28.00305316543579,
  "Total Quantum duration [s]": 2.647946834564209,
  "Expectation Value": -5.564678192138672,
  "Optimal Expectation Value": -5.571199893951416,
  "Optimizer params": [1.0, 0.49854310765980486, 0.9871451065549632, 0.5159267070409804, 0.4945534560588127, 0.9994845141587398, 0.4938329760983058, 0.5185993008068757, 1.0],
  "QPU": "3010002",
  "Problem": "RH",
  "Size": 9,
  "P": 0,
  "Shots": 4096
}