{
  "Depth": 2.0,
  "Job durations [ms]": [16.841888427734375, 16.66426658630371, 17.70305633544922, 16.719460487365723, 16.91293716430664, 16.78776741027832, 17.31407642364502, 16.45362377166748, 16.339421272277832, 15.296459197998047, 14.803528785705566, 14.436841011047363, 14.484763145446777, 14.78433609008789, 14.446139335632324, 14.843583106994629, 14.409661293029785, 16.27671718597412, 14.87421989440918, 14.627456665039062, 14.952421188354492, 15.107154846191406, 14.90163803100586, 14.750480651855469, 15.406250953674316, 14.963150024414062, 14.990448951721191, 14.611601829528809, 16.10708236694336, 15.103697776794434, 14.836788177490234, 14.994502067565918, 15.179991722106934, 15.33353328704834, 15.695929527282715, 15.12157917022705, 15.357017517089844, 14.868974685668945, 15.146136283874512, 14.803528785705566, 14.874577522277832, 14.754891395568848, 14.69576358795166, 14.90771770477295, 14.886021614074707, 14.76287841796875, 16.629815101623535, 14.790892601013184, 14.554142951965332, 14.968276023864746, 14.716506004333496, 14.726519584655762, 15.117764472961426, 14.830708503723145, 14.983177185058594, 14.742493629455566, 14.673709869384766, 14.500141143798828, 14.645218849182129, 14.494776725769043, 14.586091041564941, 14.808177947998047, 14.543652534484863, 14.693498611450195, 14.639019966125488, 14.852643013000488, 14.434456825256348, 14.644145965576172, 14.380693435668945, 14.573812484741211, 14.628767967224121, 14.522433280944824, 14.402031898498535, 14.330506324768066, 15.014886856079102, 14.692068099975586, 14.565110206604004, 14.41645622253418, 14.847636222839355, 14.930367469787598, 14.340639114379883, 16.38627052307129, 14.588236808776855, 14.515280723571777, 14.673113822937012, 14.967918395996094, 14.581680297851562, 14.705181121826172, 15.0374174118042, 14.751195907592773, 15.066266059875488, 15.125870704650879, 14.856934547424316, 14.502525329589844, 14.834165573120117, 14.478445053100586, 14.599442481994629, 15.62201976776123, 15.036225318908691, 14.544486999511719, 14.43779468536377, 16.09981060028076, 14.360904693603516, 15.225529670715332, 15.949249267578125, 14.66071605682373, 16.51787757873535, 14.814972877502441, 14.751672744750977, 14.828205108642578, 14.511346817016602, 14.4500732421875, 14.773011207580566, 15.013694763183594, 14.736413955688477, 15.058040618896484, 14.712810516357422, 14.586329460144043, 14.78886604309082, 14.59968090057373, 14.671921730041504, 15.797972679138184, 14.909029006958008, 14.608025550842285, 14.492630958557129, 14.726996421813965, 14.617681503295898, 14.76585865020752, 15.030145645141602, 14.924883842468262, 14.77062702178955, 15.045762062072754, 14.929890632629395, 14.452457427978516, 14.135956764221191, 14.288067817687988, 14.804840087890625, 14.40882682800293, 14.468908309936523, 14.951586723327637, 14.860749244689941, 14.707088470458984, 14.912009239196777, 14.764189720153809, 14.817476272583008, 15.207171440124512, 14.8240327835083, 14.764189720153809, 14.465570449829102, 14.860391616821289, 14.554023742675781, 14.64533805847168, 15.287518501281738, 14.79029655456543, 14.611124992370605, 14.444231986999512, 14.913797378540039, 14.622330665588379, 14.556646347045898, 14.691710472106934, 14.773368835449219, 14.60409164428711, 14.403343200683594, 14.887452125549316, 14.447331428527832, 14.97805118560791, 14.968633651733398, 14.745354652404785, 14.822125434875488, 14.98723030090332, 14.626860618591309],
  "Optimizer durations [ms]": [232.549, 167.231, 171.645, 221.239, 170.416, 174.985, 171.793, 224.212, 175.06, 161.168, 160.452, 216.139, 162.768, 165.557, 164.041, 215.869, 164.877, 163.035, 211.979, 167.874, 161.049, 162.53, 216.434, 160.814, 171.761, 168.409, 221.225, 163.703, 164.165, 163.852, 216.964, 165.063, 163.213, 216.432, 166.185, 165.545, 166.992, 225.604, 166.336, 161.168, 166.405, 217.499, 161.531, 162.812, 161.861, 216.854, 174.081, 167.692, 210.358, 161.614, 160.526, 162.1, 218.046, 166.005, 161.384, 158.475, 214.457, 159.062, 163.878, 159.22, 205.86, 163.449, 158.686, 210.03, 160.968, 165.392, 160.905, 212.22, 162.489, 164.12, 164.465, 210.734, 158.895, 159.834, 162.539, 213.572, 158.613, 157.553, 214.667, 158.435, 159.552, 162.966, 218.414, 158.85, 160.641, 163.003, 212.961, 161.202, 163.668, 159.272, 215.647, 165.072, 165.872, 210.049, 156.607, 157.88, 156.661, 207.459, 160.529, 157.781, 158.153, 218.123, 157.869, 169.094, 169.232, 210.368, 165.967, 160.571, 214.708, 163.385, 158.872, 156.647, 216.111, 162.189, 161.301, 164.014, 212.116, 161.553, 161.833, 160.387, 210.974, 168.462, 160.57, 206.657, 160.023, 159.189, 157.8, 220.027, 160.974, 160.993, 162.948, 213.678, 163.199, 161.819, 154.963, 207.429, 157.695, 157.662, 211.276, 164.285, 159.955, 160.316, 217.791, 158.753, 159.739, 159.609, 209.037, 161.877, 159.035, 160.614, 218.662, 161.34, 159.36, 211.074, 157.991, 156.949, 162.879, 214.875, 158.631, 159.305, 160.531, 223.409, 160.331, 156.578, 156.558, 211.481, 164.577, 159.384, 212.873, 162.155, 159.241],
  "Optimizer iterations": 171,
  "Qubits": 9,
  "Total Algorithm duration [s]": 30.169,
  "Total Classic duration [s]": 27.613549322128296,
  "Total Quantum duration [s]": 2.555450677871704,
  "Expectation Value": -5.562662601470947,
  "Optimal Expectation Value": -5.571199893951416,
  "Optimizer params": [0.9902938374484516, 0.5027288847175303, 0.9913826881938815, 0.49831578531393855, 0.49398566523906745, 0.9966024683657894, 0.5036137315923683, 0.5304465025542215, 1.0],
  "QPU": "3010002",
  "Problem": "RH",
  "Size": 9,
  "P": 0,
  "Shots": 4096
}