{
  "Depth": 458.0,
  "Expectation Value": -1.9581600427627563,
  "Job durations [ms]": [2.8762000000000003, 2.8939999999999997, 2.8785, 2.8398999999999996, 2.8842, 2.8956, 2.8785999999999996, 2.8865000000000003, 2.9893, 2.9141000000000004, 2.8513, 2.8375000000000004, 2.7773, 2.8672, 2.8923, 2.8635, 2.9063000000000003, 2.9952, 2.9267999999999996, 2.8706, 2.9015999999999997, 2.9459, 2.8409, 2.8682, 2.8413000000000004, 2.8836999999999997, 2.867, 2.8724000000000003, 2.9328000000000003, 2.8596, 2.8558, 2.8788, 2.9494000000000002, 2.885, 2.8961, 2.8748, 2.8655, 2.8135999999999997, 2.8943, 2.869, 2.8484000000000003, 2.9987999999999997, 2.9922999999999997, 2.92, 2.9408, 2.8566, 2.891, 2.832, 2.8854, 2.8581000000000003, 2.853, 2.9305999999999996, 2.8581000000000003, 2.9045, 2.8777, 2.8884000000000003, 2.8632000000000004, 2.8611999999999997, 2.97, 2.8827000000000003, 2.8162000000000003, 2.8857000000000004, 2.8547, 2.8594, 2.8417, 2.8607, 2.8587000000000002, 2.8306999999999998, 2.8609999999999998, 2.8963, 2.854, 2.8571999999999997, 2.8364000000000003, 2.8958, 2.8197, 2.9646999999999997, 2.8828, 2.8901, 2.8673, 2.8468, 2.9328000000000003, 2.9018, 2.863, 2.8581000000000003, 2.8965, 2.8792, 2.8622, 2.8404, 2.8657, 2.8949000000000003, 2.8777999999999997, 2.9168000000000003, 2.8882, 2.9456, 2.8622, 2.9406, 2.891, 2.8270999999999997, 2.8439, 2.847, 2.8657, 2.842, 2.8413000000000004, 2.8411, 2.8853, 2.9126, 2.9351, 2.8523, 2.8752, 2.8883, 2.8698, 2.8495, 2.9611, 2.9827, 2.8281],
  "Optimal Expectation Value": -2.0,
  "Optimizer durations [ms]": [29.308, 29.396, 29.409, 28.883, 30.066, 29.365, 29.263, 29.342, 30.549, 34.058, 28.92, 28.795, 38.117, 29.028, 29.432, 29.029, 29.703, 39.991, 31.234, 29.205, 29.563, 30.115, 28.66, 29.504, 28.817, 29.409, 29.233, 29.312, 29.839, 28.853, 29.221, 29.288, 30.127, 29.328, 29.623, 29.077, 29.151, 28.604, 29.675, 29.232, 29.123, 30.52, 35.157, 29.857, 29.998, 29.129, 29.278, 28.932, 29.318, 29.19, 29.12, 29.94, 28.939, 29.525, 29.309, 29.265, 29.184, 29.472, 30.24, 29.298, 28.554, 29.59, 28.762, 29.376, 28.855, 29.226, 28.803, 29.222, 28.887, 29.356, 29.311, 29.297, 28.579, 29.714, 28.426, 30.446, 38.837, 29.501, 29.353, 29.0, 29.592, 29.581, 29.373, 29.286, 29.531, 29.326, 29.123, 29.025, 29.112, 29.61, 29.001, 30.007, 29.22, 30.201, 28.879, 30.084, 29.299, 28.803, 29.409, 29.097, 29.022, 28.843, 29.237, 28.782, 29.333, 29.731, 29.827, 28.981, 29.455, 29.414, 29.267, 29.522, 30.256, 30.481, 33.653],
  "Optimizer iterations": 115,
  "Optimizer params": [0.8983495731377357, 0.5967847850688661, 0.8659984559129134, 0.8753725178791107, 0.6754163586454839, 0.40721074853841954],
  "P": 3,
  "Problem": "MIS",
  "QPU": "7000000",
  "Qubits": 11,
  "Shots": 4096,
  "Size": 8,
  "Total Algorithm duration [s]": 3.421,
  "Total Classic duration [s]": 3.0896217999999998,
  "Total Quantum duration [s]": 0.3313782
}
