{
  "Circuit execution durations [ms]": [51.603078842163086, 53.75182628631592, 52.51812934875488, 53.68626117706299, 51.57899856567383, 50.93741416931152, 51.44345760345459, 51.26464366912842, 50.98438262939453, 76.22456550598145, 53.01177501678467, 51.34427547454834, 51.09238624572754, 52.33585834503174, 53.46786975860596, 50.60994625091553, 52.034974098205566, 52.4982213973999, 52.9329776763916, 53.724050521850586, 52.463650703430176, 51.97465419769287, 77.1552324295044, 51.708102226257324, 53.212523460388184, 52.74975299835205, 51.72884464263916, 50.86338520050049, 55.53257465362549, 52.6731014251709, 51.18393898010254, 51.6510009765625, 50.884246826171875, 51.0786771774292, 53.51090431213379, 75.47450065612793, 51.06055736541748, 51.848411560058594, 52.54018306732178, 52.000999450683594, 53.7266731262207, 51.17762088775635, 77.13675498962402, 54.06355857849121, 51.41472816467285, 51.560401916503906, 50.76265335083008, 53.31528186798096, 52.41572856903076, 51.10931396484375, 52.043795585632324, 51.030755043029785, 76.96294784545898, 51.69677734375, 51.23245716094971, 74.93281364440918, 53.014516830444336, 53.566813468933105, 51.75459384918213, 57.33358860015869, 53.66373062133789, 51.427602767944336, 52.19423770904541, 51.84793472290039, 51.92852020263672, 76.99477672576904, 51.6510009765625, 51.92220211029053, 76.13646984100342, 53.4367561340332, 51.68473720550537, 52.15811729431152, 51.582932472229004, 52.745699882507324, 52.796363830566406, 53.49278450012207, 53.34067344665527, 52.57916450500488, 75.02424716949463, 54.52299118041992],
  "Depth": 2.0,
  "Expectation Value": -2.5686697959899902,
  "Optimal Expectation Value": -2.7446999549865723,
  "Optimizer durations [ms]": [534.193, 582.53, 538.941, 537.165, 534.807, 578.701, 535.425, 528.428, 533.281, 581.717, 538.259, 530.638, 535.6, 536.473, 583.254, 532.082, 531.071, 537.479, 583.631, 539.32, 534.947, 534.726, 585.145, 536.934, 533.515, 538.831, 532.813, 573.208, 539.631, 531.907, 534.531, 581.713, 533.236, 525.532, 537.314, 580.126, 535.221, 531.969, 538.25, 536.578, 579.445, 531.014, 539.523, 540.58, 574.825, 535.421, 525.694, 538.997, 580.879, 533.964, 530.067, 531.809, 583.185, 537.962, 530.205, 536.838, 536.75, 580.385, 534.222, 566.288, 539.373, 579.627, 534.891, 528.024, 534.466, 581.238, 534.26, 531.435, 538.272, 538.961, 576.548, 531.4, 526.458, 535.233, 582.207, 539.644, 533.158, 538.44, 578.555, 542.128],
  "Optimizer iterations": 80,
  "Optimizer params": [0.0, 0.5348410421435792, 0.988276182518565, 0.5017483966592807, 0.48169738358415876],
  "P": 0,
  "Problem": "RH",
  "QJob durations [ms]": [61.10954284667969, 63.15124034881592, 61.97214126586914, 63.31288814544678, 61.09952926635742, 84.27691459655762, 60.81962585449219, 60.69183349609375, 60.401082038879395, 85.60025691986084, 62.75832653045654, 60.765624046325684, 60.579657554626465, 61.83445453643799, 62.915921211242676, 60.00804901123047, 61.69009208679199, 61.87891960144043, 86.35091781616211, 63.08948993682861, 61.82217597961426, 61.4011287689209, 86.51590347290039, 61.18154525756836, 62.566161155700684, 62.215209007263184, 61.13433837890625, 60.106635093688965, 64.95034694671631, 62.24644184112549, 60.48715114593506, 61.0814094543457, 60.32228469848633, 60.00971794128418, 62.89041042327881, 85.52336692810059, 60.50670146942139, 61.31935119628906, 62.06333637237549, 61.470627784729004, 62.73782253265381, 60.49799919128418, 86.08722686767578, 63.50231170654297, 60.689449310302734, 60.9210729598999, 60.3715181350708, 62.8206729888916, 85.28828620910645, 60.51063537597656, 61.45906448364258, 60.399770736694336, 85.88075637817383, 60.61375141143799, 60.631632804870605, 84.32269096374512, 62.41202354431152, 62.9199743270874, 61.03479862213135, 67.18206405639648, 63.12358379364014, 84.29110050201416, 61.58912181854248, 61.133623123168945, 61.47289276123047, 85.89744567871094, 60.549259185791016, 61.287641525268555, 85.52670478820801, 62.8511905670166, 61.31136417388916, 61.62095069885254, 60.70506572723389, 62.11245059967041, 85.76488494873047, 62.91043758392334, 62.714457511901855, 62.068819999694824, 84.41531658172607, 63.45188617706299],
  "QPU": "300001B",
  "Qubits": 5,
  "Queue durations [ms]": [0.0, 0.0, 0.0, 0.0, 0.0, 0.0, 0.0, 0.0, 0.0, 0.0, 0.0, 0.0, 0.0, 0.0, 0.0, 0.0, 0.0, 0.0, 0.0, 0.0, 0.0, 0.0, 0.0, 0.0, 0.0, 0.0, 0.0, 0.0, 0.0, 0.0, 0.0, 0.0, 0.0, 0.0, 0.0, 0.0, 0.0, 0.0, 0.0, 0.0, 0.0, 0.0, 0.0, 0.0, 0.0, 0.0, 0.0, 0.0, 0.0, 0.0, 0.0, 0.0, 0.0, 0.0, 0.0, 0.0, 0.0, 0.0, 0.0, 0.0, 0.0, 0.0, 0.0, 0.0, 0.0, 0.0, 0.0, 0.0, 0.0, 0.0, 0.0, 0.0, 0.0, 0.0, 0.0, 0.0, 0.0, 0.0, 0.0, 0.0],
  "Shots": 4096,
  "Size": 5,
  "Total Algorithm duration [s]": 43.681,
  "Total Classic duration [s]": 38.41179752922058,
  "Total Quantum duration [s]": 5.269202470779419
}
