{
  "Circuit execution durations [ms]": [0.9368, 0.8933, 0.9195, 0.9304, 0.9259999999999999, 0.905, 0.9152, 0.8952, 0.9231, 0.9087999999999999, 0.8997, 0.9044, 0.9255, 0.9174, 0.9123, 0.9093, 0.9248000000000001, 0.9264, 0.9104, 0.9198000000000001, 0.9214, 0.9232, 0.9261999999999999, 0.9137000000000001, 0.9211999999999999, 0.9043, 0.9441, 0.9114, 0.9289, 0.9168, 0.9132, 0.9642000000000001, 0.91, 0.9155, 0.9327, 0.9437, 0.9244, 0.9185000000000001, 0.9128, 0.8996, 0.9235, 0.905, 0.9055, 0.9193, 0.9253, 0.9223, 0.9145, 1.0142, 0.9183, 0.9321, 0.9398, 0.9087000000000001, 0.9172, 0.9338000000000001, 0.9222, 1.2359, 0.9054, 1.1166, 0.921, 0.9024, 0.9150999999999999, 0.8982, 0.9099, 0.9403, 0.9318, 0.9267000000000001, 0.9121999999999999, 0.916, 0.9086, 0.91, 0.9198999999999999, 0.9092],
  "Depth": 131.0,
  "Expectation Value": -9.108014106750488,
  "Optimal Expectation Value": -10.0,
  "Optimizer durations [ms]": [9.864, 9.413, 9.652, 9.728, 9.753, 9.762, 9.453, 9.719, 9.861, 9.301, 9.647, 9.571, 9.501, 9.883, 9.492, 9.871, 9.696, 9.818, 9.312, 9.669, 9.813, 9.897, 9.468, 9.909, 9.5, 9.706, 9.817, 9.737, 9.889, 9.684, 9.736, 10.258, 9.427, 10.11, 9.598, 10.147, 9.573, 9.844, 9.718, 9.596, 9.469, 9.941, 9.238, 9.753, 9.622, 9.781, 9.804, 10.819, 9.683, 9.525, 10.045, 9.604, 9.705, 9.915, 9.703, 13.101, 18.299, 14.057, 9.563, 9.785, 9.407, 9.598, 9.563, 9.816, 9.985, 9.923, 9.382, 9.709, 9.693, 9.602, 9.715, 9.624],
  "Optimizer iterations": 72,
  "Optimizer params": [0.979575074022366, 0.9974646826485093, 0.4433150320275002, 0.057804663936949593, 0.08458357896132322, 0.8547509359639066],
  "P": 3,
  "Problem": "MCP",
  "QJob durations [ms]": [0.9368, 0.8933, 0.9195, 0.9304, 0.9259999999999999, 0.905, 0.9152, 0.8952, 0.9231, 0.9087999999999999, 0.8997, 0.9044, 0.9255, 0.9174, 0.9123, 0.9093, 0.9248000000000001, 0.9264, 0.9104, 0.9198000000000001, 0.9214, 0.9232, 0.9261999999999999, 0.9137000000000001, 0.9211999999999999, 0.9043, 0.9441, 0.9114, 0.9289, 0.9168, 0.9132, 0.9642000000000001, 0.91, 0.9155, 0.9327, 0.9437, 0.9244, 0.9185000000000001, 0.9128, 0.8996, 0.9235, 0.905, 0.9055, 0.9193, 0.9253, 0.9223, 0.9145, 1.0142, 0.9183, 0.9321, 0.9398, 0.9087000000000001, 0.9172, 0.9338000000000001, 0.9222, 1.2359, 0.9054, 1.1166, 0.921, 0.9024, 0.9150999999999999, 0.8982, 0.9099, 0.9403, 0.9318, 0.9267000000000001, 0.9121999999999999, 0.916, 0.9086, 0.91, 0.9198999999999999, 0.9092],
  "QPU": "7000000",
  "Qubits": 7,
  "Queue durations [ms]": [0.0, 0.0, 0.0, 0.0, 0.0, 0.0, 0.0, 0.0, 0.0, 0.0, 0.0, 0.0, 0.0, 0.0, 0.0, 0.0, 0.0, 0.0, 0.0, 0.0, 0.0, 0.0, 0.0, 0.0, 0.0, 0.0, 0.0, 0.0, 0.0, 0.0, 0.0, 0.0, 0.0, 0.0, 0.0, 0.0, 0.0, 0.0, 0.0, 0.0, 0.0, 0.0, 0.0, 0.0, 0.0, 0.0, 0.0, 0.0, 0.0, 0.0, 0.0, 0.0, 0.0, 0.0, 0.0, 0.0, 0.0, 0.0, 0.0, 0.0, 0.0, 0.0, 0.0, 0.0, 0.0, 0.0, 0.0, 0.0, 0.0, 0.0, 0.0, 0.0],
  "Shots": 4096,
  "Size": 7,
  "Total Algorithm duration [s]": 0.715,
  "Total Classic duration [s]": 0.64827,
  "Total Quantum duration [s]": 0.06672999999999998
}
