{
  "Circuit execution durations [ms]": [0.9188, 0.9460999999999999, 0.9134, 0.924, 0.9267000000000001, 0.8865999999999999, 0.9146, 0.9171, 0.9224, 0.9219999999999999, 0.9267000000000001, 0.9182, 0.9204, 0.9, 0.9143, 0.9081, 0.9091, 0.9104, 0.9138, 0.9432, 0.9824, 0.9126, 0.9139, 0.9141, 1.2461, 0.9243, 0.91, 0.9129, 0.9077999999999999, 0.9292, 0.9074000000000001, 0.9145, 0.9033, 0.9277000000000001, 0.9079, 0.9037999999999999, 0.919, 0.9123, 0.9599, 0.9123, 0.9377, 0.9286, 0.9206000000000001, 0.905, 0.9093, 0.9233, 0.9095000000000001, 0.9099, 0.8944, 0.9175, 0.9167, 0.9240999999999999, 0.8963000000000001, 0.9138, 0.9137000000000001, 0.9007000000000001, 0.92, 0.9025, 0.9154, 0.9188999999999999, 0.9036, 0.9060999999999999, 0.9155, 0.9036, 0.9223, 0.9769, 0.9108999999999999, 0.9219999999999999, 0.9057, 0.9166000000000001, 0.9126, 0.9349000000000001, 0.9192, 0.92, 0.9104, 0.9304, 0.9083, 0.9063, 0.9066000000000001, 0.9037999999999999, 0.9144, 0.9408, 0.9157, 0.9023, 0.9190999999999999, 0.9100999999999999, 0.9145, 0.9563],
  "Depth": 131.0,
  "Expectation Value": -8.877367973327637,
  "Optimal Expectation Value": -10.0,
  "Optimizer durations [ms]": [9.67, 10.028, 9.891, 9.44, 9.987, 10.089, 9.612, 9.389, 10.068, 9.676, 9.473, 9.892, 9.623, 9.738, 9.316, 9.694, 9.829, 9.343, 9.841, 10.021, 10.369, 9.724, 9.568, 9.429, 13.222, 9.694, 9.564, 9.661, 9.607, 9.662, 9.536, 9.501, 9.599, 9.817, 9.655, 9.416, 9.778, 9.612, 9.905, 9.947, 9.769, 9.777, 9.485, 9.649, 9.509, 10.023, 9.433, 9.665, 9.342, 10.003, 9.837, 9.612, 9.584, 9.612, 9.639, 9.509, 9.494, 9.736, 9.676, 9.729, 9.492, 9.809, 9.516, 9.67, 9.768, 9.982, 9.928, 9.803, 9.836, 9.615, 9.677, 9.779, 9.752, 9.539, 9.742, 9.755, 9.554, 9.646, 9.377, 9.571, 9.762, 9.885, 9.77, 9.758, 9.655, 9.652, 9.57, 10.184],
  "Optimizer iterations": 88,
  "Optimizer params": [0.9712164777652633, 0.36844346334045475, 0.33405674497323035, 0.999523122063918, 0.7136117419607496, 0.1864312995634158],
  "P": 3,
  "Problem": "MCP",
  "QJob durations [ms]": [0.9188, 0.9460999999999999, 0.9134, 0.924, 0.9267000000000001, 0.8865999999999999, 0.9146, 0.9171, 0.9224, 0.9219999999999999, 0.9267000000000001, 0.9182, 0.9204, 0.9, 0.9143, 0.9081, 0.9091, 0.9104, 0.9138, 0.9432, 0.9824, 0.9126, 0.9139, 0.9141, 1.2461, 0.9243, 0.91, 0.9129, 0.9077999999999999, 0.9292, 0.9074000000000001, 0.9145, 0.9033, 0.9277000000000001, 0.9079, 0.9037999999999999, 0.919, 0.9123, 0.9599, 0.9123, 0.9377, 0.9286, 0.9206000000000001, 0.905, 0.9093, 0.9233, 0.9095000000000001, 0.9099, 0.8944, 0.9175, 0.9167, 0.9240999999999999, 0.8963000000000001, 0.9138, 0.9137000000000001, 0.9007000000000001, 0.92, 0.9025, 0.9154, 0.9188999999999999, 0.9036, 0.9060999999999999, 0.9155, 0.9036, 0.9223, 0.9769, 0.9108999999999999, 0.9219999999999999, 0.9057, 0.9166000000000001, 0.9126, 0.9349000000000001, 0.9192, 0.92, 0.9104, 0.9304, 0.9083, 0.9063, 0.9066000000000001, 0.9037999999999999, 0.9144, 0.9408, 0.9157, 0.9023, 0.9190999999999999, 0.9100999999999999, 0.9145, 0.9563],
  "QPU": "7000000",
  "Qubits": 7,
  "Queue durations [ms]": [0.0, 0.0, 0.0, 0.0, 0.0, 0.0, 0.0, 0.0, 0.0, 0.0, 0.0, 0.0, 0.0, 0.0, 0.0, 0.0, 0.0, 0.0, 0.0, 0.0, 0.0, 0.0, 0.0, 0.0, 0.0, 0.0, 0.0, 0.0, 0.0, 0.0, 0.0, 0.0, 0.0, 0.0, 0.0, 0.0, 0.0, 0.0, 0.0, 0.0, 0.0, 0.0, 0.0, 0.0, 0.0, 0.0, 0.0, 0.0, 0.0, 0.0, 0.0, 0.0, 0.0, 0.0, 0.0, 0.0, 0.0, 0.0, 0.0, 0.0, 0.0, 0.0, 0.0, 0.0, 0.0, 0.0, 0.0, 0.0, 0.0, 0.0, 0.0, 0.0, 0.0, 0.0, 0.0, 0.0, 0.0, 0.0, 0.0, 0.0, 0.0, 0.0, 0.0, 0.0, 0.0, 0.0, 0.0, 0.0],
  "Shots": 4096,
  "Size": 7,
  "Total Algorithm duration [s]": 0.857,
  "Total Classic duration [s]": 0.7759359,
  "Total Quantum duration [s]": 0.08106410000000001
}
