{
  "Circuit execution durations [ms]": [0.9453, 0.9226, 0.9368, 0.9238000000000001, 0.898, 0.9255, 0.9007000000000001, 0.9060999999999999, 0.9213, 0.9071, 0.9222, 0.9129999999999999, 0.9228, 0.9166000000000001, 0.9325, 0.9584, 0.9148000000000001, 0.8869, 0.9255, 0.9467, 0.9342, 0.9259000000000001, 0.9095000000000001, 0.9207, 0.9114, 0.9419, 0.8955000000000001, 0.9037000000000001, 0.9380999999999999, 0.9129999999999999, 0.9150999999999999, 0.9226, 0.9032, 0.8997999999999999, 0.914, 0.9277000000000001, 0.9265, 0.9092, 0.9097999999999999, 1.0601, 0.9243, 1.1213, 0.9349999999999999, 0.9182, 0.9252, 0.9332, 0.9256, 0.9351999999999999, 0.9129, 0.9169999999999999, 0.9652999999999999, 0.9233, 0.9502, 0.9347, 0.9363, 0.9244, 0.9117, 0.9674, 0.9346, 0.9254, 0.9259000000000001, 0.9164000000000001, 0.9256, 0.9391999999999999, 0.9280999999999999, 0.9188999999999999, 0.9363, 0.9129, 0.9237, 0.9188999999999999, 0.9184, 0.9071, 0.9766, 0.9093, 0.9104, 0.9185000000000001, 0.9342, 0.9198999999999999, 0.9286, 0.925, 0.9204, 0.9348, 0.93, 0.8949, 0.9077, 0.9055, 0.9875999999999999, 0.9092, 0.9365],
  "Depth": 131.0,
  "Expectation Value": -8.82699966430664,
  "Optimal Expectation Value": -10.0,
  "Optimizer durations [ms]": [9.946, 9.813, 9.804, 9.669, 9.702, 9.549, 9.553, 9.942, 9.68, 9.537, 9.737, 9.355, 9.963, 9.346, 9.872, 10.125, 9.479, 10.169, 9.627, 9.816, 9.812, 9.769, 9.662, 9.684, 9.52, 9.934, 9.588, 9.213, 9.923, 9.762, 9.685, 9.748, 9.193, 9.758, 9.677, 9.647, 9.893, 9.618, 9.579, 11.066, 19.333, 15.38, 9.831, 9.805, 9.738, 9.95, 9.564, 9.874, 9.869, 9.402, 10.271, 9.529, 10.044, 9.857, 9.947, 9.633, 9.762, 10.174, 9.653, 9.677, 9.924, 9.496, 9.712, 9.849, 9.822, 9.668, 9.845, 9.455, 9.961, 9.728, 9.682, 9.627, 10.311, 9.522, 9.517, 9.831, 13.238, 9.459, 9.796, 9.749, 9.721, 9.793, 9.562, 9.84, 9.516, 9.496, 10.355, 9.72, 9.72],
  "Optimizer iterations": 89,
  "Optimizer params": [0.8533909182837603, 0.0881088649549723, 0.7483997367647359, 0.6164332553019565, 0.17202759781471846, 0.02302733569150506],
  "P": 3,
  "Problem": "MCP",
  "QJob durations [ms]": [0.9453, 0.9226, 0.9368, 0.9238000000000001, 0.898, 0.9255, 0.9007000000000001, 0.9060999999999999, 0.9213, 0.9071, 0.9222, 0.9129999999999999, 0.9228, 0.9166000000000001, 0.9325, 0.9584, 0.9148000000000001, 0.8869, 0.9255, 0.9467, 0.9342, 0.9259000000000001, 0.9095000000000001, 0.9207, 0.9114, 0.9419, 0.8955000000000001, 0.9037000000000001, 0.9380999999999999, 0.9129999999999999, 0.9150999999999999, 0.9226, 0.9032, 0.8997999999999999, 0.914, 0.9277000000000001, 0.9265, 0.9092, 0.9097999999999999, 1.0601, 0.9243, 1.1213, 0.9349999999999999, 0.9182, 0.9252, 0.9332, 0.9256, 0.9351999999999999, 0.9129, 0.9169999999999999, 0.9652999999999999, 0.9233, 0.9502, 0.9347, 0.9363, 0.9244, 0.9117, 0.9674, 0.9346, 0.9254, 0.9259000000000001, 0.9164000000000001, 0.9256, 0.9391999999999999, 0.9280999999999999, 0.9188999999999999, 0.9363, 0.9129, 0.9237, 0.9188999999999999, 0.9184, 0.9071, 0.9766, 0.9093, 0.9104, 0.9185000000000001, 0.9342, 0.9198999999999999, 0.9286, 0.925, 0.9204, 0.9348, 0.93, 0.8949, 0.9077, 0.9055, 0.9875999999999999, 0.9092, 0.9365],
  "QPU": "7000000",
  "Qubits": 7,
  "Queue durations [ms]": [0.0, 0.0, 0.0, 0.0, 0.0, 0.0, 0.0, 0.0, 0.0, 0.0, 0.0, 0.0, 0.0, 0.0, 0.0, 0.0, 0.0, 0.0, 0.0, 0.0, 0.0, 0.0, 0.0, 0.0, 0.0, 0.0, 0.0, 0.0, 0.0, 0.0, 0.0, 0.0, 0.0, 0.0, 0.0, 0.0, 0.0, 0.0, 0.0, 0.0, 0.0, 0.0, 0.0, 0.0, 0.0, 0.0, 0.0, 0.0, 0.0, 0.0, 0.0, 0.0, 0.0, 0.0, 0.0, 0.0, 0.0, 0.0, 0.0, 0.0, 0.0, 0.0, 0.0, 0.0, 0.0, 0.0, 0.0, 0.0, 0.0, 0.0, 0.0, 0.0, 0.0, 0.0, 0.0, 0.0, 0.0, 0.0, 0.0, 0.0, 0.0, 0.0, 0.0, 0.0, 0.0, 0.0, 0.0, 0.0, 0.0],
  "Shots": 4096,
  "Size": 7,
  "Total Algorithm duration [s]": 0.886,
  "Total Classic duration [s]": 0.8034498,
  "Total Quantum duration [s]": 0.08255020000000002
}
