{
  "Circuit execution durations [ms]": [0.9227000000000001, 0.9497000000000001, 0.9185000000000001, 0.8976999999999999, 0.9036, 0.9175, 0.9190999999999999, 0.9338000000000001, 0.8996, 0.9165, 0.9033, 0.9056, 1.0514999999999999, 0.9133, 0.9071, 0.9072, 0.9179, 0.9125, 0.8926000000000001, 0.9152, 0.9248999999999999, 0.9219999999999999, 0.9084, 0.9523999999999999, 0.9079, 0.9047999999999999, 0.9054, 0.9129, 0.9131, 0.9165, 0.9066000000000001, 0.9096, 0.9121999999999999, 0.9287, 0.9263, 0.9228, 0.8630000000000001, 0.9707, 0.9154, 0.9034, 0.9303, 0.9219, 0.9194, 0.9315, 0.9112, 0.9218, 0.9152, 0.8983, 0.902, 0.9168, 0.9216, 0.9232, 0.9037999999999999, 0.9498, 0.9169, 0.9013, 0.9219999999999999, 0.9211999999999999, 0.9104, 0.9043, 0.9031, 0.9223, 0.9682999999999999, 0.9525, 0.9082, 0.9207, 0.9256, 0.8941, 0.9024, 0.8957, 0.9086, 0.9254, 0.9097000000000001, 0.9208999999999999, 0.9154, 0.9211, 0.9150999999999999, 0.9334, 0.919, 0.9394, 0.9018999999999999, 0.9131, 0.9309000000000001, 0.9198999999999999, 0.9265, 0.9015, 0.9205, 0.9491, 0.9418, 0.9208000000000001, 0.9171, 0.9137000000000001, 0.9311, 0.9217, 0.9082, 0.9197, 0.9359000000000001, 0.9237, 0.9223, 0.9141, 0.9309999999999999, 0.9153, 0.9077999999999999, 0.9190999999999999, 0.9103, 0.9087999999999999, 0.9203, 0.924, 0.9238000000000001, 0.9108999999999999, 0.9108, 0.9068999999999999, 0.9301, 0.9181, 0.925, 0.919, 0.9166000000000001, 0.9097999999999999, 0.9055, 0.9280999999999999, 0.9177000000000001, 0.9068, 0.9136, 0.9081, 0.9156000000000001],
  "Depth": 131.0,
  "Expectation Value": -8.92246150970459,
  "Optimal Expectation Value": -10.0,
  "Optimizer durations [ms]": [9.842, 9.971, 9.631, 9.689, 9.35, 9.887, 9.347, 10.174, 9.486, 9.617, 9.357, 9.794, 10.736, 9.841, 9.394, 9.898, 9.641, 9.43, 9.682, 9.625, 9.863, 9.602, 9.508, 10.061, 9.307, 9.869, 9.658, 9.42, 9.529, 9.874, 9.539, 9.673, 9.645, 9.54, 10.034, 19.331, 13.701, 10.483, 9.733, 9.236, 10.183, 9.643, 9.672, 9.692, 9.806, 9.697, 9.631, 9.53, 9.463, 9.734, 9.701, 9.938, 9.644, 10.118, 9.549, 9.79, 9.728, 9.739, 9.522, 9.384, 9.551, 9.859, 10.271, 9.915, 9.541, 9.842, 9.627, 9.74, 9.239, 9.622, 9.652, 9.666, 10.869, 9.665, 9.922, 9.525, 9.842, 9.635, 9.741, 10.034, 9.448, 9.579, 9.78, 9.504, 9.889, 9.651, 9.724, 9.99, 9.841, 9.862, 9.476, 9.865, 9.709, 9.719, 9.73, 9.666, 9.853, 9.868, 9.593, 9.693, 9.674, 9.879, 9.434, 9.898, 9.663, 9.435, 9.717, 9.721, 9.789, 9.556, 9.488, 9.777, 9.693, 9.589, 9.941, 9.701, 9.702, 9.554, 9.598, 9.695, 9.509, 9.801, 9.532, 9.791, 9.548],
  "Optimizer iterations": 125,
  "Optimizer params": [0.674796349765662, 0.640154696604985, 0.019572909157104565, 0.4961274893104482, 0.2739046036162916, 0.815176897139176],
  "P": 3,
  "Problem": "MCP",
  "QJob durations [ms]": [0.9227000000000001, 0.9497000000000001, 0.9185000000000001, 0.8976999999999999, 0.9036, 0.9175, 0.9190999999999999, 0.9338000000000001, 0.8996, 0.9165, 0.9033, 0.9056, 1.0514999999999999, 0.9133, 0.9071, 0.9072, 0.9179, 0.9125, 0.8926000000000001, 0.9152, 0.9248999999999999, 0.9219999999999999, 0.9084, 0.9523999999999999, 0.9079, 0.9047999999999999, 0.9054, 0.9129, 0.9131, 0.9165, 0.9066000000000001, 0.9096, 0.9121999999999999, 0.9287, 0.9263, 0.9228, 0.8630000000000001, 0.9707, 0.9154, 0.9034, 0.9303, 0.9219, 0.9194, 0.9315, 0.9112, 0.9218, 0.9152, 0.8983, 0.902, 0.9168, 0.9216, 0.9232, 0.9037999999999999, 0.9498, 0.9169, 0.9013, 0.9219999999999999, 0.9211999999999999, 0.9104, 0.9043, 0.9031, 0.9223, 0.9682999999999999, 0.9525, 0.9082, 0.9207, 0.9256, 0.8941, 0.9024, 0.8957, 0.9086, 0.9254, 0.9097000000000001, 0.9208999999999999, 0.9154, 0.9211, 0.9150999999999999, 0.9334, 0.919, 0.9394, 0.9018999999999999, 0.9131, 0.9309000000000001, 0.9198999999999999, 0.9265, 0.9015, 0.9205, 0.9491, 0.9418, 0.9208000000000001, 0.9171, 0.9137000000000001, 0.9311, 0.9217, 0.9082, 0.9197, 0.9359000000000001, 0.9237, 0.9223, 0.9141, 0.9309999999999999, 0.9153, 0.9077999999999999, 0.9190999999999999, 0.9103, 0.9087999999999999, 0.9203, 0.924, 0.9238000000000001, 0.9108999999999999, 0.9108, 0.9068999999999999, 0.9301, 0.9181, 0.925, 0.919, 0.9166000000000001, 0.9097999999999999, 0.9055, 0.9280999999999999, 0.9177000000000001, 0.9068, 0.9136, 0.9081, 0.9156000000000001],
  "QPU": "7000000",
  "Qubits": 7,
  "Queue durations [ms]": [0.0, 0.0, 0.0, 0.0, 0.0, 0.0, 0.0, 0.0, 0.0, 0.0, 0.0, 0.0, 0.0, 0.0, 0.0, 0.0, 0.0, 0.0, 0.0, 0.0, 0.0, 0.0, 0.0, 0.0, 0.0, 0.0, 0.0, 0.0, 0.0, 0.0, 0.0, 0.0, 0.0, 0.0, 0.0, 0.0, 0.0, 0.0, 0.0, 0.0, 0.0, 0.0, 0.0, 0.0, 0.0, 0.0, 0.0, 0.0, 0.0, 0.0, 0.0, 0.0, 0.0, 0.0, 0.0, 0.0, 0.0, 0.0, 0.0, 0.0, 0.0, 0.0, 0.0, 0.0, 0.0, 0.0, 0.0, 0.0, 0.0, 0.0, 0.0, 0.0, 0.0, 0.0, 0.0, 0.0, 0.0, 0.0, 0.0, 0.0, 0.0, 0.0, 0.0, 0.0, 0.0, 0.0, 0.0, 0.0, 0.0, 0.0, 0.0, 0.0, 0.0, 0.0, 0.0, 0.0, 0.0, 0.0, 0.0, 0.0, 0.0, 0.0, 0.0, 0.0, 0.0, 0.0, 0.0, 0.0, 0.0, 0.0, 0.0, 0.0, 0.0, 0.0, 0.0, 0.0, 0.0, 0.0, 0.0, 0.0, 0.0, 0.0, 0.0, 0.0, 0.0],
  "Shots": 4096,
  "Size": 7,
  "Total Algorithm duration [s]": 1.228,
  "Total Classic duration [s]": 1.1131878,
  "Total Quantum duration [s]": 0.11481220000000003
}
