{
  "Circuit execution durations [ms]": [0.9732999999999999, 0.9084, 0.9228, 0.9240999999999999, 0.9211999999999999, 0.9970000000000001, 0.9108, 0.8735, 0.9131, 1.1142, 0.9113, 0.9129, 1.1737, 0.9453, 0.9018, 1.2310999999999999, 0.875, 0.9559, 0.9162, 0.9208999999999999, 1.1134000000000002, 0.8947, 1.0593, 0.9103, 0.9923, 0.9225, 0.9113, 1.0144, 0.919, 0.9186, 1.1779, 0.9188999999999999, 0.9027, 0.9131, 0.9176, 0.9217, 0.8925, 0.8968, 0.9382, 0.9163, 0.9154, 0.9132, 0.9179, 0.9054, 0.9192, 0.9104, 0.9143, 0.9188, 0.9005000000000001, 0.9156000000000001, 0.9118, 0.8972, 0.9206000000000001, 0.9039999999999999, 0.9411, 0.884, 0.9153, 0.9146, 0.9071, 0.9128, 0.8987999999999999, 0.9304, 0.9215, 0.8861, 0.9079999999999999, 0.9169, 0.9113, 0.9127000000000001, 0.912, 0.9158999999999999, 0.9194, 0.9146, 0.9142, 0.9201, 0.9190999999999999, 0.9094, 0.9136, 0.9106, 0.896, 0.9068999999999999, 0.9108999999999999],
  "Depth": 131.0,
  "Expectation Value": -9.275260925292969,
  "Optimal Expectation Value": -10.0,
  "Optimizer durations [ms]": [10.288, 9.721, 9.464, 9.998, 9.844, 10.257, 10.022, 15.979, 9.779, 11.854, 9.628, 9.562, 12.337, 9.932, 9.253, 13.123, 15.889, 10.372, 9.491, 11.56, 11.378, 9.684, 17.623, 9.555, 10.674, 9.572, 9.756, 10.644, 9.689, 19.065, 17.144, 9.793, 9.853, 9.356, 9.892, 9.648, 9.641, 10.598, 9.728, 9.963, 9.329, 9.886, 9.741, 9.428, 9.577, 9.892, 9.653, 9.877, 9.337, 9.882, 9.316, 9.515, 9.846, 9.635, 9.746, 9.691, 9.33, 9.776, 9.845, 9.424, 9.71, 9.556, 9.725, 9.625, 9.518, 9.596, 9.392, 9.727, 9.689, 9.808, 9.379, 9.982, 9.317, 9.751, 9.706, 9.651, 9.667, 9.565, 9.399, 9.476, 9.607],
  "Optimizer iterations": 81,
  "Optimizer params": [0.9508210496861578, 0.020498652108636044, 0.07177447487938517, 0.12144071825873977, 0.829570352453794, 0.9523514433176995],
  "P": 3,
  "Problem": "MCP",
  "QJob durations [ms]": [0.9732999999999999, 0.9084, 0.9228, 0.9240999999999999, 0.9211999999999999, 0.9970000000000001, 0.9108, 0.8735, 0.9131, 1.1142, 0.9113, 0.9129, 1.1737, 0.9453, 0.9018, 1.2310999999999999, 0.875, 0.9559, 0.9162, 0.9208999999999999, 1.1134000000000002, 0.8947, 1.0593, 0.9103, 0.9923, 0.9225, 0.9113, 1.0144, 0.919, 0.9186, 1.1779, 0.9188999999999999, 0.9027, 0.9131, 0.9176, 0.9217, 0.8925, 0.8968, 0.9382, 0.9163, 0.9154, 0.9132, 0.9179, 0.9054, 0.9192, 0.9104, 0.9143, 0.9188, 0.9005000000000001, 0.9156000000000001, 0.9118, 0.8972, 0.9206000000000001, 0.9039999999999999, 0.9411, 0.884, 0.9153, 0.9146, 0.9071, 0.9128, 0.8987999999999999, 0.9304, 0.9215, 0.8861, 0.9079999999999999, 0.9169, 0.9113, 0.9127000000000001, 0.912, 0.9158999999999999, 0.9194, 0.9146, 0.9142, 0.9201, 0.9190999999999999, 0.9094, 0.9136, 0.9106, 0.896, 0.9068999999999999, 0.9108999999999999],
  "QPU": "7000000",
  "Qubits": 7,
  "Queue durations [ms]": [0.0, 0.0, 0.0, 0.0, 0.0, 0.0, 0.0, 0.0, 0.0, 0.0, 0.0, 0.0, 0.0, 0.0, 0.0, 0.0, 0.0, 0.0, 0.0, 0.0, 0.0, 0.0, 0.0, 0.0, 0.0, 0.0, 0.0, 0.0, 0.0, 0.0, 0.0, 0.0, 0.0, 0.0, 0.0, 0.0, 0.0, 0.0, 0.0, 0.0, 0.0, 0.0, 0.0, 0.0, 0.0, 0.0, 0.0, 0.0, 0.0, 0.0, 0.0, 0.0, 0.0, 0.0, 0.0, 0.0, 0.0, 0.0, 0.0, 0.0, 0.0, 0.0, 0.0, 0.0, 0.0, 0.0, 0.0, 0.0, 0.0, 0.0, 0.0, 0.0, 0.0, 0.0, 0.0, 0.0, 0.0, 0.0, 0.0, 0.0, 0.0],
  "Shots": 4096,
  "Size": 7,
  "Total Algorithm duration [s]": 0.836,
  "Total Classic duration [s]": 0.7603584,
  "Total Quantum duration [s]": 0.07564159999999999
}
