{
  "Depth": 59.0,
  "Expectation Value": -0.488037109375,
  "Job durations [ms]": [4945.375442504883, 4799.858808517456, 4910.373687744141, 4831.787109375, 4985.599040985107, 4765.56658744812, 5076.613426208496, 4826.24626159668, 4797.821521759033, 4898.655652999878, 5027.742624282837, 4775.247573852539, 4987.3387813568115, 4864.135980606079, 4730.855226516724, 4737.724781036377, 4942.927598953247, 4879.374980926514, 4942.282915115356, 4821.48551940918, 4806.157112121582, 6852.71143913269, 4848.067998886108, 4852.405548095703, 4874.5715618133545, 4935.354948043823, 5083.966016769409, 4972.223520278931, 5051.012277603149, 4680.283784866333, 4832.321643829346, 4868.44801902771, 4814.012050628662, 5037.509202957153, 5028.659105300903, 4977.761030197144, 4853.110790252686, 4850.783109664917, 4898.681879043579, 4911.632061004639, 4986.313819885254, 4800.785064697266, 4836.248874664307, 4805.921792984009, 6375.1232624053955, 5063.899040222168, 4968.264818191528, 4806.1370849609375, 4840.207815170288, 4934.092283248901, 4720.237731933594, 4849.944114685059, 4887.122631072998, 4905.558347702026, 4913.487195968628, 4834.982633590698, 5064.4543170928955, 5138.489007949829, 4714.344024658203, 4828.6943435668945, 4875.589370727539, 4806.334018707275, 4841.233968734741, 4991.9984340667725, 4729.980230331421, 5000.7030963897705, 4873.314619064331, 4819.482326507568, 6183.02583694458, 4921.164989471436, 5012.578725814819, 4979.902505874634, 5056.271553039551, 4972.485542297363, 4676.77640914917],
  "Optimal Expectation Value": -1.0,
  "Optimizer durations [ms]": [28873.622, 14529.608, 18352.975, 20267.866, 20046.696, 19974.721, 20065.553, 20184.324, 19937.276, 20311.169, 19733.723, 20171.523, 19641.109, 20065.011, 20043.889, 20675.718, 18965.417, 21531.522, 18981.092, 20233.2, 19477.161, 20619.624, 19585.719, 20227.021, 20033.428, 19588.35, 20899.066, 19440.086, 20494.153, 19668.003, 22253.281, 17117.472, 21219.059, 19508.02, 19701.278, 29758.461, 20951.594, 19568.403, 19478.745, 20340.744, 19908.394, 19655.905, 20824.243, 19146.099, 20753.77, 19894.152, 19423.627, 20902.571, 19718.246, 19506.452, 20187.182, 20050.445, 21374.72, 18415.211, 19696.766, 20552.764, 20274.109, 19628.88, 20492.975, 20565.917, 18693.169, 19677.992, 19800.58, 21190.219, 19575.052, 19482.924, 21107.923, 18893.47, 21071.988, 19839.314, 19270.892, 20418.689, 19882.736, 20041.606, 19862.15],
  "Optimizer iterations": 75,
  "Optimizer params": [0.3351975429711279, 0.9420097542963501, 0.29387005357823126, 0.5419412419828613, 0.47756430449484394, 0.6288997103967504],
  "P": 3,
  "Problem": "DSP",
  "QPU": "402002E",
  "Qubits": 4,
  "Shots": 4096,
  "Size": 2,
  "Total Algorithm duration [s]": 1512.296,
  "Total Classic duration [s]": 1140.704163547516,
  "Total Quantum duration [s]": 371.59183645248413
}
