{
  "Depth": 458.0,
  "Expectation Value": -1.982872486114502,
  "Job durations [ms]": [2.8192999999999997, 2.8693999999999997, 2.8032, 2.7555, 2.7716, 2.763, 2.7981, 2.813, 2.7878, 2.7811, 2.8226, 2.8111, 2.7932, 2.8871, 2.7996000000000003, 2.7803, 2.7645, 2.8528, 2.8059000000000003, 2.8249999999999997, 2.7618, 2.7682, 2.7813, 2.7461, 2.7301, 2.8062, 2.7905, 2.7445, 2.9751, 2.7851, 2.8270999999999997, 2.8054, 2.807, 2.8273, 2.8276, 2.7979, 2.8191, 2.8218, 2.8251, 2.8822, 2.7864999999999998, 2.7906, 2.8165999999999998, 2.8251, 2.8864, 2.9018, 2.8154, 2.8368, 2.8621, 2.9747, 2.8117, 2.7985, 2.8318000000000003, 2.7893000000000003, 2.7967999999999997, 2.8013, 2.7915, 2.7896, 2.7979, 2.8057999999999996, 2.7667, 2.8449, 2.8229, 2.9758, 2.8077, 2.8557, 2.7765, 2.7523, 2.7805999999999997, 2.8319, 2.8931999999999998, 2.7946, 2.7882, 2.7927, 2.8653, 2.7901, 2.7557, 2.7793, 2.7911, 2.7786999999999997, 2.7782, 2.8474, 2.8089999999999997, 2.8014, 2.8011, 2.7908999999999997, 2.7807, 2.9084, 2.8084, 2.8108, 2.8034000000000003, 2.7856, 2.8141, 2.7725, 2.8912, 2.7728, 2.7818, 2.8449, 2.8161, 2.8208, 2.8848, 3.1399000000000004, 2.7707, 2.7967999999999997],
  "Optimal Expectation Value": -2.0,
  "Optimizer durations [ms]": [38.181, 38.949, 38.215, 37.649, 38.202, 37.641, 37.98, 38.316, 38.06, 38.052, 38.33, 38.241, 38.421, 34.376, 38.095, 37.786, 37.891, 38.638, 38.361, 38.442, 37.827, 37.85, 37.949, 37.575, 37.331, 38.434, 37.986, 37.71, 35.084, 38.255, 38.282, 38.256, 38.179, 38.786, 33.411, 33.394, 38.176, 38.532, 38.609, 34.357, 37.93, 38.011, 38.177, 38.548, 34.166, 34.435, 38.475, 38.812, 38.987, 35.29, 38.347, 38.103, 38.833, 38.04, 38.193, 38.083, 38.332, 38.165, 38.274, 38.216, 37.877, 38.752, 38.614, 34.926, 38.447, 38.803, 38.241, 37.761, 38.031, 38.603, 34.226, 38.223, 38.008, 38.205, 38.895, 38.265, 37.536, 38.081, 38.088, 37.913, 38.223, 38.713, 38.465, 38.379, 38.164, 38.19, 38.003, 34.527, 38.334, 38.371, 38.264, 38.283, 38.421, 37.961, 34.415, 38.054, 38.08, 38.551, 38.232, 38.418, 34.243, 36.68, 38.172, 38.174],
  "Optimizer iterations": 104,
  "Optimizer params": [0.8838090847991069, 0.31223051257807, 0.658233314048871, 0.9999498399597858, 0.35922570804740095, 0.49794024214476257],
  "P": 3,
  "Problem": "MIS",
  "QPU": "7000000",
  "Qubits": 11,
  "Shots": 4096,
  "Size": 8,
  "Total Algorithm duration [s]": 3.924,
  "Total Classic duration [s]": 3.6311807,
  "Total Quantum duration [s]": 0.29281929999999995
}
