{
  "Depth": 458.0,
  "Expectation Value": -1.9850636720657349,
  "Job durations [ms]": [2.7767999999999997, 2.8507, 2.8089999999999997, 2.8868, 2.8207, 2.7964, 2.7605, 2.7997, 2.9173, 2.8736, 2.7693000000000003, 2.7672, 2.7628000000000004, 2.8275, 2.6989, 2.8327999999999998, 2.885, 2.8262, 2.7771, 2.8967, 2.7897999999999996, 2.9063000000000003, 2.7887, 2.7517, 2.8638, 2.7331, 2.8669, 2.7555, 2.7541, 2.7659, 2.9589, 2.775, 2.7368, 2.9585000000000004, 2.7632999999999996, 2.7821000000000002, 2.7742999999999998, 2.7816, 2.7927999999999997, 2.8712, 2.7407999999999997, 2.7588999999999997, 2.7748999999999997, 2.8017, 2.9149000000000003, 2.7517, 2.9272, 2.7424, 2.7943, 2.7888, 2.7757, 2.8623, 2.8121, 2.9205, 2.7831, 2.799, 2.7816, 2.7675, 2.847, 2.69, 2.8525, 2.7997, 2.7704, 2.8897, 2.7950000000000004, 2.7815000000000003, 2.7657, 2.7483999999999997, 2.7458, 2.7777000000000003, 2.7794999999999996, 2.8982, 2.77, 2.7579000000000002, 2.8308999999999997, 2.7791, 2.7451, 2.8955, 2.9101, 2.9055, 2.8823999999999996, 2.8043, 2.915, 2.7068, 2.7799, 2.9139, 2.8881, 2.7588999999999997, 2.7885, 2.7979, 2.8849, 2.7922, 2.7783, 2.8225, 2.7721999999999998, 2.9903, 2.8854, 2.7731000000000003, 2.6628, 2.8077, 2.7897, 2.7824999999999998, 2.7401999999999997, 2.7483999999999997, 2.7858, 2.7824999999999998],
  "Optimal Expectation Value": -2.0,
  "Optimizer durations [ms]": [38.154, 34.058, 38.378, 33.972, 38.47, 37.839, 37.503, 38.214, 34.504, 34.088, 37.973, 37.857, 37.613, 38.696, 32.454, 38.431, 34.265, 38.612, 37.948, 34.329, 38.206, 34.764, 38.127, 37.743, 34.25, 37.471, 34.141, 37.808, 37.916, 33.129, 35.058, 38.111, 37.583, 34.864, 37.598, 37.976, 37.882, 38.076, 37.926, 35.053, 37.51, 37.689, 37.863, 38.155, 34.527, 37.679, 34.612, 37.623, 38.229, 38.114, 38.098, 39.104, 38.352, 34.473, 38.153, 38.336, 38.1, 37.821, 33.902, 32.306, 34.159, 38.129, 37.636, 35.121, 38.085, 38.096, 37.708, 37.896, 37.688, 38.0, 37.772, 34.563, 37.834, 37.622, 38.857, 37.915, 37.358, 34.75, 34.638, 39.135, 34.913, 38.407, 34.509, 37.041, 38.122, 34.593, 34.254, 37.819, 38.054, 38.422, 34.125, 38.215, 38.187, 38.521, 37.818, 35.481, 34.18, 37.805, 31.933, 38.289, 38.126, 37.934, 37.747, 37.561, 38.177, 37.775],
  "Optimizer iterations": 106,
  "Optimizer params": [0.12206207011337122, 0.12109298579778283, 0.7284790462447392, 0.9958409879562898, 0.28489288493248915, 0.9996761783686723],
  "P": 3,
  "Problem": "MIS",
  "QPU": "7000000",
  "Qubits": 11,
  "Shots": 4096,
  "Size": 8,
  "Total Algorithm duration [s]": 3.908,
  "Total Classic duration [s]": 3.6102279,
  "Total Quantum duration [s]": 0.2977721000000001
}
