{
  "Depth": 458.0,
  "Expectation Value": -1.9916768074035645,
  "Job durations [ms]": [2.9104, 2.8043, 2.8, 2.7597, 2.7451, 2.7656, 2.7908999999999997, 2.7897, 2.7618, 2.7667, 2.7862, 2.8745, 2.7662, 2.833, 2.7411, 2.8617, 2.7597, 2.7978, 2.7704, 2.8246, 2.8092, 2.7680000000000002, 2.7707, 2.8156000000000003, 2.7762, 2.7169, 2.7619, 2.8067, 2.7734, 2.7845999999999997, 2.8044, 2.8508, 2.821, 2.7877, 2.7925, 2.8246, 2.8217, 2.8045, 2.7620999999999998, 2.8034000000000003, 2.7347, 2.7885, 2.8219, 2.7985, 2.7493000000000003, 2.7744000000000004, 2.8357, 2.8251, 2.7604, 2.8094, 2.8069, 2.783, 2.8114, 2.7948999999999997, 2.8800000000000003, 2.7864999999999998, 2.7493000000000003, 2.7765, 2.7729999999999997, 2.7948999999999997, 2.7807, 2.8562000000000003, 2.7603, 2.8240000000000003, 2.7969000000000004, 2.7782, 2.8789000000000002, 2.7776, 2.8179, 2.7753, 2.7341, 2.7759, 2.7914, 2.7027, 2.7123, 2.7482, 2.7312, 2.8073, 2.7420999999999998, 2.8023000000000002, 2.8156000000000003, 2.8013, 2.7509, 2.7685, 2.7618, 2.7914, 2.7922, 2.7571000000000003, 2.7788, 2.8175000000000003, 2.7696, 2.803, 2.7902, 2.7866, 2.7585, 2.7984, 2.7874000000000003, 2.7717, 2.7866, 2.886, 2.7401, 2.7643, 2.7754, 2.8712999999999997, 2.785, 2.7561],
  "Optimal Expectation Value": -2.0,
  "Optimizer durations [ms]": [39.323, 33.626, 38.311, 37.868, 37.719, 38.066, 38.103, 38.121, 37.857, 38.301, 38.078, 39.143, 37.996, 38.269, 37.759, 38.868, 37.706, 38.059, 37.949, 38.422, 38.083, 37.784, 38.292, 38.426, 37.938, 37.558, 37.917, 38.388, 38.053, 38.081, 38.442, 38.593, 38.501, 38.32, 38.081, 38.397, 38.516, 38.329, 37.767, 38.558, 37.31, 38.067, 38.2, 38.237, 37.658, 38.175, 38.572, 38.507, 37.792, 38.294, 38.471, 38.187, 38.228, 38.251, 34.392, 38.001, 37.827, 38.104, 38.088, 38.281, 38.028, 34.033, 37.803, 38.553, 38.185, 37.734, 34.315, 37.948, 38.119, 37.836, 37.783, 37.893, 38.161, 37.247, 37.243, 37.671, 37.575, 38.266, 37.759, 38.091, 38.447, 38.42, 37.524, 37.891, 37.801, 38.091, 38.202, 37.633, 38.077, 38.433, 37.63, 38.29, 38.124, 38.009, 37.636, 38.398, 38.034, 37.647, 38.159, 38.794, 37.726, 37.965, 37.916, 34.151, 38.234, 37.772],
  "Optimizer iterations": 106,
  "Optimizer params": [0.9557397844142026, 0.6335525704762934, 0.25291805942881784, 0.9999398608243056, 0.004193106136836856, 0.7748573632929566],
  "P": 3,
  "Problem": "MIS",
  "QPU": "7000000",
  "Qubits": 11,
  "Shots": 4096,
  "Size": 8,
  "Total Algorithm duration [s]": 4.017,
  "Total Classic duration [s]": 3.7213216,
  "Total Quantum duration [s]": 0.2956784000000002
}
