{
  "Depth": 458.0,
  "Expectation Value": -1.993147373199463,
  "Job durations [ms]": [2.7914, 2.7759, 2.7661000000000002, 2.9284, 2.7659, 2.8939999999999997, 2.8573, 2.8476999999999997, 2.7763, 2.7752, 2.7731000000000003, 2.7566, 2.9204, 2.9154, 2.7742999999999998, 2.8186, 2.8276, 2.7651, 2.8053000000000003, 2.7335, 2.8562000000000003, 2.8537, 2.8005, 2.828, 2.8924, 2.7828000000000004, 2.7933, 2.2620999999999998, 2.7663, 2.9082, 2.7971, 2.8758999999999997, 2.8676, 2.5975, 2.7685, 2.898, 2.9280999999999997, 2.7959, 2.9139999999999997, 2.9137999999999997, 2.877, 2.9227, 2.9074999999999998, 2.895, 2.8771999999999998, 2.7996000000000003, 2.6948, 2.7626999999999997, 2.9413, 2.7675, 2.7729999999999997, 2.8493, 2.8163, 2.8203, 2.8175000000000003, 2.7977000000000003, 2.7623, 2.9348, 2.8132, 2.7829, 2.7786999999999997, 3.1532999999999998, 2.7476000000000003, 2.751, 2.7534, 2.775, 2.8789000000000002, 2.872, 2.7914, 2.7358000000000002, 2.7733, 2.8658, 2.7775, 2.7783, 2.8692, 2.7793, 2.8095, 2.8918, 2.8040000000000003, 2.948, 2.8117, 2.8040000000000003, 3.1879, 2.9163, 2.876, 2.7592, 2.9713000000000003, 2.762, 2.7862, 2.81, 2.8896, 2.7687, 2.8154, 2.835, 2.7815000000000003, 2.9106, 2.7713, 2.7737, 2.6557, 2.7774, 2.7620999999999998],
  "Optimal Expectation Value": -2.0,
  "Optimizer durations [ms]": [38.064, 37.98, 36.384, 34.383, 37.645, 34.325, 33.91, 38.838, 37.887, 37.875, 38.106, 37.661, 34.765, 34.644, 38.101, 38.358, 33.786, 37.568, 38.525, 37.603, 33.844, 33.815, 38.377, 38.55, 34.362, 38.15, 38.177, 27.971, 37.718, 34.551, 38.236, 33.988, 34.13, 31.406, 37.952, 34.317, 34.531, 38.14, 34.516, 34.609, 39.055, 34.831, 34.457, 34.444, 33.981, 38.394, 37.181, 37.888, 34.807, 37.63, 38.101, 38.653, 38.168, 38.569, 38.476, 38.194, 38.12, 34.857, 38.485, 38.022, 38.038, 36.829, 32.798, 37.848, 37.731, 37.758, 34.375, 33.999, 38.446, 37.663, 37.996, 34.02, 37.904, 33.12, 34.351, 37.928, 38.588, 34.297, 38.336, 34.901, 38.528, 38.308, 37.639, 34.562, 34.351, 37.624, 35.141, 37.635, 38.062, 38.023, 34.718, 32.79, 38.478, 38.285, 38.177, 34.454, 37.806, 37.719, 31.893, 38.093, 37.571],
  "Optimizer iterations": 101,
  "Optimizer params": [0.15346151777119202, 0.8525959647727405, 0.9599350800200933, 0.12961957738015598, 0.18017834283949458, 0.8787011291617971],
  "P": 3,
  "Problem": "MIS",
  "QPU": "7000000",
  "Qubits": 11,
  "Shots": 4096,
  "Size": 8,
  "Total Algorithm duration [s]": 3.682,
  "Total Classic duration [s]": 3.3970599999999997,
  "Total Quantum duration [s]": 0.2849400000000001
}
