{
  "Depth": 458.0,
  "Expectation Value": -1.989968180656433,
  "Job durations [ms]": [2.791, 2.8177, 2.8415, 2.7908, 2.7691999999999997, 2.7786999999999997, 2.7534, 2.7904, 2.7359, 2.8615, 2.9556, 2.8126, 2.7757, 2.7959, 2.7487000000000004, 2.7548, 2.7663, 2.7231, 2.8276, 2.7764, 2.7353, 2.7182999999999997, 2.856, 2.7591, 2.8436, 2.7926, 2.7812, 2.7691999999999997, 2.7587, 2.7967999999999997, 2.7923, 2.7922, 2.8041, 2.7677, 2.8457, 2.7771, 2.7908999999999997, 2.7881, 2.7851, 2.6437, 2.8364000000000003, 2.8013, 2.8019, 2.7729, 2.7958000000000003, 2.7714, 2.7657, 2.6814, 2.7643, 2.7542, 2.7859, 2.799, 2.8286000000000002, 2.8067, 2.7967999999999997, 2.7831, 2.7103, 2.7889, 2.7207, 2.7407999999999997, 2.8064, 2.8066, 2.7126, 2.7555, 2.7769, 2.7483999999999997, 2.7628000000000004, 2.8413000000000004, 2.7766, 2.7745, 2.8268999999999997, 2.7716, 2.7441, 2.7862, 2.745, 2.7823, 2.7107, 2.8907, 2.7753, 2.7915, 2.7666, 2.748, 2.7551, 2.7818, 2.7935999999999996, 2.7824999999999998, 2.8714, 2.7041999999999997, 2.7547, 2.7645999999999997, 2.7601999999999998, 2.7666, 2.7729, 2.8022],
  "Optimal Expectation Value": -2.0,
  "Optimizer durations [ms]": [38.103, 38.417, 38.792, 37.904, 37.903, 38.061, 37.561, 38.006, 37.677, 33.921, 34.926, 38.425, 37.77, 38.291, 37.492, 37.881, 38.149, 37.286, 38.58, 37.947, 37.579, 37.579, 33.886, 37.9, 33.657, 38.265, 38.014, 37.625, 37.742, 38.119, 38.028, 37.923, 38.316, 37.959, 38.544, 37.891, 38.039, 37.876, 38.259, 31.936, 38.635, 38.305, 38.158, 37.851, 38.263, 38.012, 37.933, 37.284, 37.821, 37.89, 38.029, 38.331, 33.829, 38.504, 38.021, 37.967, 37.326, 38.118, 37.518, 37.472, 38.197, 38.402, 37.552, 37.749, 38.056, 37.752, 37.892, 38.83, 37.883, 38.044, 38.406, 38.203, 37.459, 38.172, 37.54, 37.815, 37.496, 33.984, 38.009, 37.862, 37.898, 37.453, 37.877, 37.701, 38.074, 38.062, 34.162, 37.178, 37.841, 37.732, 37.81, 37.697, 37.673, 38.201],
  "Optimizer iterations": 94,
  "Optimizer params": [0.8918926663652764, 0.2938461132005915, 0.15604951870872869, 0.27728963477914964, 0.3475561062387427, 0.6644126347834038],
  "P": 3,
  "Problem": "MIS",
  "QPU": "7000000",
  "Qubits": 11,
  "Shots": 4096,
  "Size": 8,
  "Total Algorithm duration [s]": 3.534,
  "Total Classic duration [s]": 3.2726191,
  "Total Quantum duration [s]": 0.2613809
}
