{
  "Depth": 458.0,
  "Expectation Value": -1.9914342164993286,
  "Job durations [ms]": [2.8127, 2.8319, 2.798, 2.7851, 2.7669, 2.8451, 2.8027, 2.751, 2.8861, 2.8049, 2.7494, 2.8089999999999997, 2.8486000000000002, 2.7945, 2.7981, 2.8192999999999997, 2.784, 2.769, 2.783, 2.7883999999999998, 2.7501, 2.9478, 2.77, 2.797, 2.7805999999999997, 2.8411, 2.7702999999999998, 2.7580999999999998, 2.7603, 2.8082, 2.7438, 2.8427000000000002, 2.7396, 2.7616, 2.7638, 2.7376, 2.7578, 2.8176, 2.7372, 2.8225, 2.7767999999999997, 2.9061, 2.7819, 2.7721999999999998, 2.7895, 2.7892, 2.7729, 2.7793, 2.7758000000000003, 2.7971, 2.734, 2.7295000000000003, 2.7382, 2.8104, 2.7632, 2.8471, 2.782, 2.8022, 2.8815, 2.7683, 2.7762, 2.794, 2.8933999999999997, 2.7908999999999997, 2.751, 2.763, 2.8062, 2.8148, 2.8173, 2.8535, 2.7975, 2.7748999999999997, 2.807, 2.794, 2.8617999999999997, 2.7625, 2.7856, 2.8107, 2.8172, 2.8146],
  "Optimal Expectation Value": -2.0,
  "Optimizer durations [ms]": [38.452, 38.53, 37.981, 37.981, 37.987, 38.536, 38.006, 37.61, 34.292, 33.334, 37.524, 38.204, 33.797, 38.145, 38.243, 38.18, 38.017, 38.148, 37.877, 38.214, 37.605, 39.881, 38.014, 38.262, 37.839, 38.562, 38.057, 37.882, 37.785, 37.982, 37.659, 33.7, 37.596, 37.819, 38.08, 37.52, 37.745, 38.203, 37.402, 38.61, 38.101, 34.477, 37.872, 37.804, 38.52, 38.079, 37.964, 38.052, 38.025, 38.161, 37.645, 37.562, 37.629, 38.204, 38.072, 38.704, 37.861, 38.181, 34.196, 37.784, 38.204, 38.309, 34.448, 38.063, 37.909, 37.82, 38.227, 38.434, 38.443, 38.756, 38.068, 38.052, 38.356, 38.161, 39.027, 37.606, 38.025, 38.148, 38.396, 38.447],
  "Optimizer iterations": 80,
  "Optimizer params": [0.9978496354243169, 0.49888764960299214, 0.4128305889863709, 0.023707513356567202, 0.19005974124644096, 0.5202323682108333],
  "P": 3,
  "Problem": "MIS",
  "QPU": "7000000",
  "Qubits": 11,
  "Shots": 4096,
  "Size": 8,
  "Total Algorithm duration [s]": 3.019,
  "Total Classic duration [s]": 2.7953813000000003,
  "Total Quantum duration [s]": 0.22361869999999995
}
