{
  "Depth": 458.0,
  "Expectation Value": -1.9733235836029053,
  "Job durations [ms]": [2.9486, 2.7975, 2.7815000000000003, 2.8013, 2.7317, 2.7838, 2.7634, 2.7623, 2.8023000000000002, 2.8838000000000004, 2.7867, 2.8852, 2.8914, 2.7654, 2.7567999999999997, 2.8625, 2.7702999999999998, 2.8077, 2.806, 2.8103, 2.7556, 2.7355, 2.7529, 2.7626999999999997, 2.7585, 2.7298999999999998, 2.7682, 2.7188999999999997, 2.7399999999999998, 2.7714, 2.8293, 2.7861000000000002, 2.7883, 2.7688, 2.7329, 2.8057999999999996, 2.8674999999999997, 2.7485999999999997, 2.7688, 2.8969, 2.7832999999999997, 2.8016, 2.7802000000000002, 2.8242, 2.8701, 2.7636000000000003, 2.7737, 2.7281, 2.7748, 2.94, 2.8102, 2.8767, 2.782, 2.7927999999999997, 2.7332, 2.779, 2.7669, 2.763, 2.7887, 2.8544, 2.7858, 2.779, 2.7535, 2.7377000000000002, 2.7894, 2.7813999999999997, 2.7906, 2.7888, 2.8996, 2.8056, 2.7899000000000003, 2.7744000000000004, 2.7854, 2.8389, 2.7513, 2.8506, 2.8855999999999997, 2.887, 2.787, 2.7555, 2.8248, 2.7654],
  "Optimal Expectation Value": -2.0,
  "Optimizer durations [ms]": [35.011, 38.459, 38.078, 38.204, 37.488, 38.181, 37.753, 37.908, 38.194, 34.412, 38.1, 39.005, 34.191, 37.853, 37.717, 34.033, 37.954, 38.426, 38.061, 38.597, 37.735, 37.479, 37.795, 37.837, 37.811, 37.623, 38.036, 37.171, 37.975, 37.746, 38.612, 38.018, 38.258, 37.888, 37.816, 38.198, 34.238, 37.718, 37.94, 34.336, 38.046, 38.125, 37.88, 38.434, 34.231, 37.894, 38.079, 37.592, 37.942, 39.598, 38.479, 34.055, 38.003, 38.13, 37.69, 37.92, 37.907, 37.652, 37.438, 38.789, 37.966, 37.942, 37.55, 37.684, 37.986, 38.045, 38.157, 38.181, 34.543, 38.429, 38.253, 38.052, 38.218, 38.397, 37.913, 38.864, 38.848, 34.596, 38.261, 37.694, 38.669, 37.817],
  "Optimizer iterations": 82,
  "Optimizer params": [0.9161772441865935, 0.7682207326245215, 0.37310772286862054, 0.5264759824766866, 0.6850884511084205, 0.48413362224534146],
  "P": 3,
  "Problem": "MIS",
  "QPU": "7000000",
  "Qubits": 11,
  "Shots": 4096,
  "Size": 8,
  "Total Algorithm duration [s]": 3.083,
  "Total Classic duration [s]": 2.8537212000000003,
  "Total Quantum duration [s]": 0.2292788
}
