{
  "Circuit execution durations [ms]": [96.74382209777832, 61.12384796142578, 61.02252006530762, 60.628533363342285, 93.64283084869385, 60.437798500061035, 60.40322780609131, 93.78552436828613, 60.59074401855469, 60.369133949279785, 93.5976505279541, 60.98020076751709, 60.43803691864014, 60.79089641571045, 93.6802625656128, 60.410499572753906, 60.2567195892334, 93.5896635055542, 60.40942668914795, 60.346364974975586, 93.69444847106934, 60.44304370880127, 60.80293655395508, 60.49048900604248, 93.91045570373535, 60.4938268661499, 60.35947799682617, 93.76907348632813, 60.512661933898926, 60.59408187866211, 93.70851516723633, 60.43839454650879, 60.526251792907715, 60.346126556396484, 93.87314319610596, 61.19656562805176, 60.442447662353516, 93.66428852081299, 60.43660640716553, 60.521602630615234, 93.7795639038086, 60.39285659790039, 60.59086322784424, 93.45638751983643, 60.755014419555664, 60.433030128479004, 60.597777366638184, 94.02310848236084, 60.302138328552246, 60.5621337890625, 93.7955379486084, 60.61744689941406, 60.544729232788086, 93.58060359954834, 60.66691875457764, 60.28592586517334, 60.94837188720703, 93.80209445953369, 60.60326099395752, 60.55402755737305, 93.69146823883057, 60.7755184173584, 60.48893928527832, 93.49703788757324, 60.440778732299805, 60.47534942626953, 60.391783714294434, 93.9713716506958, 61.28692626953125, 60.68062782287598, 94.05577182769775, 60.599565505981445, 60.38236618041992, 93.65487098693848, 60.472965240478516, 60.59765815734863, 60.463666915893555, 93.7732458114624, 60.47868728637695, 60.54949760437012, 93.77884864807129, 60.32562255859375, 60.758113861083984, 93.34778785705566, 61.19072437286377, 60.4405403137207, 60.456275939941406, 93.43230724334717, 60.49215793609619, 60.62972545623779, 93.56582164764404, 60.526132583618164, 60.453176498413086, 93.8633680343628, 60.509681701660156, 60.42301654815674, 93.4290885925293, 60.58847904205322, 60.3795051574707, 60.61863899230957, 93.82236003875732, 60.231804847717285, 60.29963493347168, 94.26236152648926, 60.695648193359375, 60.591816902160645, 93.66345405578613, 60.46128273010254, 60.54246425628662, 60.368895530700684, 93.78659725189209, 60.16838550567627, 60.54246425628662, 93.52147579193115, 60.683608055114746, 60.38165092468262, 93.55199337005615, 60.58621406555176, 60.64200401306152, 60.451507568359375, 93.61016750335693, 60.23836135864258, 60.62126159667969, 93.73080730438232, 61.0119104385376, 60.900330543518066, 93.64449977874756, 60.69505214691162, 60.46402454376221, 60.42122840881348, 93.9105749130249, 60.60385704040527, 60.63950061798096, 93.79065036773682, 60.658931732177734, 60.4480504989624, 93.41549873352051, 60.706257820129395, 60.60338020324707, 60.485124588012695, 93.68753433227539, 60.28640270233154, 60.33957004547119, 93.5746431350708, 60.55951118469238, 60.69517135620117, 94.83253955841064, 60.64248085021973, 60.557007789611816, 92.99659729003906, 60.47654151916504, 60.65487861633301, 60.67657470703125, 93.82593631744385, 60.283541679382324, 60.60826778411865, 93.67954730987549, 60.69803237915039, 60.463547706604004, 93.60992908477783, 60.399770736694336, 60.59753894805908, 60.45961380004883, 93.54114532470703, 60.210347175598145, 60.69672107696533, 93.92011165618896, 60.80985069274902, 60.50705909729004, 93.69945526123047, 60.419440269470215, 60.53328514099121, 60.6083869934082, 93.84095668792725, 60.434818267822266, 60.364603996276855, 93.59395503997803, 60.82892417907715, 60.334205627441406, 93.56379508972168, 60.5548620223999, 60.643672943115234, 60.187339782714844, 93.99795532226563, 60.6541633605957, 60.46473979949951, 94.28155422210693, 60.63711643218994, 60.55426597595215, 93.60229969024658, 60.43195724487305, 60.69052219390869, 60.48238277435303, 93.8107967376709, 60.98330020904541, 60.60206890106201, 93.67704391479492, 60.48572063446045],
  "Depth": 2.0,
  "Expectation Value": -3.8328375816345215,
  "Optimal Expectation Value": -5.571199893951416,
  "Optimizer durations [ms]": [199.337, 127.395, 127.379, 126.424, 192.164, 125.292, 125.683, 192.35, 125.851, 125.387, 191.802, 126.7, 125.755, 126.111, 192.035, 125.309, 125.098, 191.822, 125.44, 125.275, 192.108, 125.423, 126.07, 125.51, 192.471, 125.468, 125.13, 192.399, 125.632, 125.638, 192.12, 125.516, 125.555, 125.186, 192.711, 126.802, 125.344, 191.998, 125.387, 125.459, 192.239, 125.338, 125.637, 191.531, 126.079, 125.361, 125.708, 192.808, 125.262, 125.745, 192.073, 126.043, 125.577, 191.868, 126.236, 125.11, 126.418, 192.177, 125.642, 125.937, 191.88, 126.238, 125.483, 191.528, 125.499, 125.464, 125.227, 192.601, 127.45, 126.247, 192.773, 125.763, 125.441, 191.954, 125.683, 125.902, 125.519, 192.41, 125.501, 125.646, 192.079, 124.985, 125.995, 191.208, 126.961, 125.281, 125.389, 191.504, 125.485, 125.862, 192.035, 125.503, 125.467, 192.277, 125.698, 125.121, 191.632, 125.717, 125.165, 125.684, 192.138, 124.861, 125.016, 193.26, 125.947, 125.774, 191.723, 125.417, 125.393, 125.243, 192.491, 124.693, 125.585, 191.617, 125.902, 125.199, 191.689, 125.91, 125.743, 125.341, 192.088, 125.153, 125.87, 192.066, 126.649, 126.244, 191.893, 125.94, 125.53, 125.312, 192.51, 126.055, 125.789, 192.157, 125.883, 125.285, 191.302, 125.899, 125.673, 125.622, 192.456, 125.19, 125.196, 191.931, 125.987, 125.827, 194.226, 125.917, 125.63, 190.508, 125.448, 125.918, 126.091, 192.275, 125.387, 125.559, 191.874, 125.848, 125.581, 191.885, 125.44, 125.69, 125.5, 191.775, 124.894, 126.104, 192.334, 126.235, 125.467, 192.0, 125.545, 125.499, 126.036, 192.402, 125.396, 125.177, 191.778, 126.218, 125.101, 191.916, 125.696, 125.732, 124.89, 192.701, 125.696, 125.462, 193.4, 126.073, 125.984, 191.772, 125.561, 126.068, 125.412, 192.746, 126.623, 125.604, 192.006, 125.48],
  "Optimizer iterations": 198,
  "Optimizer params": [0.9517977693779651, 0.06429764179724642, 0.325223345474177, 0.48629829499090527, 0.17657997258952512, 0.952931148393802, 0.47632811752745824, 0.9958945650624076, 0.01934169127680239],
  "P": 0,
  "Problem": "RH",
  "QJob durations [ms]": [96.74382209777832, 61.12384796142578, 61.02252006530762, 60.628533363342285, 93.64283084869385, 60.437798500061035, 60.40322780609131, 93.78552436828613, 60.59074401855469, 60.369133949279785, 93.5976505279541, 60.98020076751709, 60.43803691864014, 60.79089641571045, 93.6802625656128, 60.410499572753906, 60.2567195892334, 93.5896635055542, 60.40942668914795, 60.346364974975586, 93.69444847106934, 60.44304370880127, 60.80293655395508, 60.49048900604248, 93.91045570373535, 60.4938268661499, 60.35947799682617, 93.76907348632813, 60.512661933898926, 60.59408187866211, 93.70851516723633, 60.43839454650879, 60.526251792907715, 60.346126556396484, 93.87314319610596, 61.19656562805176, 60.442447662353516, 93.66428852081299, 60.43660640716553, 60.521602630615234, 93.7795639038086, 60.39285659790039, 60.59086322784424, 93.45638751983643, 60.755014419555664, 60.433030128479004, 60.597777366638184, 94.02310848236084, 60.302138328552246, 60.5621337890625, 93.7955379486084, 60.61744689941406, 60.544729232788086, 93.58060359954834, 60.66691875457764, 60.28592586517334, 60.94837188720703, 93.80209445953369, 60.60326099395752, 60.55402755737305, 93.69146823883057, 60.7755184173584, 60.48893928527832, 93.49703788757324, 60.440778732299805, 60.47534942626953, 60.391783714294434, 93.9713716506958, 61.28692626953125, 60.68062782287598, 94.05577182769775, 60.599565505981445, 60.38236618041992, 93.65487098693848, 60.472965240478516, 60.59765815734863, 60.463666915893555, 93.7732458114624, 60.47868728637695, 60.54949760437012, 93.77884864807129, 60.32562255859375, 60.758113861083984, 93.34778785705566, 61.19072437286377, 60.4405403137207, 60.456275939941406, 93.43230724334717, 60.49215793609619, 60.62972545623779, 93.56582164764404, 60.526132583618164, 60.453176498413086, 93.8633680343628, 60.509681701660156, 60.42301654815674, 93.4290885925293, 60.58847904205322, 60.3795051574707, 60.61863899230957, 93.82236003875732, 60.231804847717285, 60.29963493347168, 94.26236152648926, 60.695648193359375, 60.591816902160645, 93.66345405578613, 60.46128273010254, 60.54246425628662, 60.368895530700684, 93.78659725189209, 60.16838550567627, 60.54246425628662, 93.52147579193115, 60.683608055114746, 60.38165092468262, 93.55199337005615, 60.58621406555176, 60.64200401306152, 60.451507568359375, 93.61016750335693, 60.23836135864258, 60.62126159667969, 93.73080730438232, 61.0119104385376, 60.900330543518066, 93.64449977874756, 60.69505214691162, 60.46402454376221, 60.42122840881348, 93.9105749130249, 60.60385704040527, 60.63950061798096, 93.79065036773682, 60.658931732177734, 60.4480504989624, 93.41549873352051, 60.706257820129395, 60.60338020324707, 60.485124588012695, 93.68753433227539, 60.28640270233154, 60.33957004547119, 93.5746431350708, 60.55951118469238, 60.69517135620117, 94.83253955841064, 60.64248085021973, 60.557007789611816, 92.99659729003906, 60.47654151916504, 60.65487861633301, 60.67657470703125, 93.82593631744385, 60.283541679382324, 60.60826778411865, 93.67954730987549, 60.69803237915039, 60.463547706604004, 93.60992908477783, 60.399770736694336, 60.59753894805908, 60.45961380004883, 93.54114532470703, 60.210347175598145, 60.69672107696533, 93.92011165618896, 60.80985069274902, 60.50705909729004, 93.69945526123047, 60.419440269470215, 60.53328514099121, 60.6083869934082, 93.84095668792725, 60.434818267822266, 60.364603996276855, 93.59395503997803, 60.82892417907715, 60.334205627441406, 93.56379508972168, 60.5548620223999, 60.643672943115234, 60.187339782714844, 93.99795532226563, 60.6541633605957, 60.46473979949951, 94.28155422210693, 60.63711643218994, 60.55426597595215, 93.60229969024658, 60.43195724487305, 60.69052219390869, 60.48238277435303, 93.8107967376709, 60.98330020904541, 60.60206890106201, 93.67704391479492, 60.48572063446045],
  "QPU": "9000001",
  "Qubits": 9,
  "Queue durations [ms]": [0.0, 0.0, 0.0, 0.0, 0.0, 0.0, 0.0, 0.0, 0.0, 0.0, 0.0, 0.0, 0.0, 0.0, 0.0, 0.0, 0.0, 0.0, 0.0, 0.0, 0.0, 0.0, 0.0, 0.0, 0.0, 0.0, 0.0, 0.0, 0.0, 0.0, 0.0, 0.0, 0.0, 0.0, 0.0, 0.0, 0.0, 0.0, 0.0, 0.0, 0.0, 0.0, 0.0, 0.0, 0.0, 0.0, 0.0, 0.0, 0.0, 0.0, 0.0, 0.0, 0.0, 0.0, 0.0, 0.0, 0.0, 0.0, 0.0, 0.0, 0.0, 0.0, 0.0, 0.0, 0.0, 0.0, 0.0, 0.0, 0.0, 0.0, 0.0, 0.0, 0.0, 0.0, 0.0, 0.0, 0.0, 0.0, 0.0, 0.0, 0.0, 0.0, 0.0, 0.0, 0.0, 0.0, 0.0, 0.0, 0.0, 0.0, 0.0, 0.0, 0.0, 0.0, 0.0, 0.0, 0.0, 0.0, 0.0, 0.0, 0.0, 0.0, 0.0, 0.0, 0.0, 0.0, 0.0, 0.0, 0.0, 0.0, 0.0, 0.0, 0.0, 0.0, 0.0, 0.0, 0.0, 0.0, 0.0, 0.0, 0.0, 0.0, 0.0, 0.0, 0.0, 0.0, 0.0, 0.0, 0.0, 0.0, 0.0, 0.0, 0.0, 0.0, 0.0, 0.0, 0.0, 0.0, 0.0, 0.0, 0.0, 0.0, 0.0, 0.0, 0.0, 0.0, 0.0, 0.0, 0.0, 0.0, 0.0, 0.0, 0.0, 0.0, 0.0, 0.0, 0.0, 0.0, 0.0, 0.0, 0.0, 0.0, 0.0, 0.0, 0.0, 0.0, 0.0, 0.0, 0.0, 0.0, 0.0, 0.0, 0.0, 0.0, 0.0, 0.0, 0.0, 0.0, 0.0, 0.0, 0.0, 0.0, 0.0, 0.0, 0.0, 0.0, 0.0, 0.0, 0.0, 0.0, 0.0, 0.0, 0.0, 0.0, 0.0, 0.0, 0.0, 0.0],
  "Shots": 4096,
  "Size": 9,
  "Total Algorithm duration [s]": 28.878,
  "Total Classic duration [s]": 14.895189860343933,
  "Total Quantum duration [s]": 13.982810139656067
}
