{
  "Depth": 8.4,
  "Job durations [ms]": [41.79999977350235, 44.40000057220459, 46.800000220537186, 44.00000050663948, 48.00000041723251, 49.800000339746475, 62.00000047683716, 46.60000056028366, 46.19999974966049, 49.19999912381172, 47.200001031160355, 47.999999672174454, 45.40000036358833, 45.19999995827675, 47.80000001192093, 52.19999998807907, 51.59999951720238, 45.000001043081284, 53.200000524520874, 48.60000014305115, 49.60000142455101, 48.79999905824661, 46.99999988079071, 50.40000006556511, 43.59999969601631, 49.400000274181366, 50.80000087618828, 48.40000048279762, 60.200000554323196, 49.400000274181366, 64.99999985098839, 64.19999971985817, 56.8000003695488, 46.800000220537186, 46.99999988079071, 45.79999968409538, 43.20000037550926, 48.59999939799309, 38.39999996125698, 45.000000298023224, 54.39999997615814, 46.20000049471855, 59.00000110268593, 46.39999940991402, 47.40000069141388, 49.59999918937683, 51.59999951720238, 46.400000154972076, 47.80000001192093, 62.39999905228615, 46.400000900030136, 50.199999660253525, 47.599999606609344, 49.00000020861626, 50.200001150369644, 50.40000081062317, 51.20000019669533, 49.19999986886978, 44.799999706447124, 44.200000166893005, 50.99999979138374, 46.800000220537186, 48.60000014305115, 55.800000578165054, 44.600000232458115, 44.40000131726265, 49.59999993443489, 50.80000087618828, 46.400000154972076, 50.599999725818634, 46.400000154972076, 49.60000067949295, 51.80000066757202, 47.80000001192093, 45.40000110864639, 45.60000076889992, 45.80000042915344, 45.80000042915344, 45.79999968409538, 48.40000048279762, 54.59999963641167, 49.19999986886978, 49.400000274181366, 50.00000074505806, 46.99999988079071, 43.799999356269836, 44.600000232458115, 44.40000057220459, 47.200001031160355, 47.999999672174454, 46.800000220537186, 44.599999487400055, 47.200000286102295, 47.600000351667404, 46.59999907016754, 53.599999845027924, 45.60000002384186, 46.20000049471855, 45.80000042915344, 45.80000042915344, 48.9999994635582, 44.39999982714653, 44.39999982714653, 47.600000351667404, 51.39999985694885, 47.39999994635582, 51.0000005364418, 47.200001031160355, 49.19999986886978, 46.00000083446503, 45.19999995827675, 60.79999953508377, 45.80000042915344, 44.79999989271164, 47.80000001192093, 45.79999968409538, 46.00000008940697, 46.800000220537186, 47.600000351667404, 46.5999998152256, 50.99999979138374, 52.000000327825546, 48.80000054836273, 47.600001096725464, 46.99999988079071, 48.20000007748604, 51.79999992251396, 45.99999934434891, 44.80000138282776, 51.80000066757202, 45.80000042915344, 42.19999983906746, 48.00000041723251, 45.5999992787838, 48.2000008225441, 46.800000220537186, 45.60000076889992, 58.799999952316284, 51.0000005364418, 49.19999912381172, 45.60000002384186, 37.20000050961971, 50.199999660253525, 46.799999475479126, 45.19999995827675, 42.80000105500221, 50.99999979138374, 47.40000069141388, 69.19999942183495, 45.60000002384186, 45.40000036358833, 46.99999988079071, 41.200000047683716, 43.799999356269836, 47.200000286102295, 54.600001126527786, 47.199999541044235, 44.8000006377697, 53.99999991059303, 45.60000076889992, 46.00000008940697],
  "Optimizer durations [ms]": [29528.254, 28674.266, 28470.47, 28590.297, 28655.449, 28927.71, 28359.776, 28525.666, 28602.359, 28428.39, 28617.443, 28558.457, 33829.647, 28690.187, 28447.502, 29180.901, 29595.381, 28731.981, 28812.784, 29122.437, 28440.284, 28256.438, 28534.264, 29188.736, 28883.975, 28380.054, 28634.347, 29657.376, 28822.642, 28557.688, 28914.002, 29696.775, 33808.435, 28576.703, 28926.986, 28970.741, 28346.827, 28706.827, 28518.665, 28692.385, 28554.478, 28701.131, 28550.334, 28947.603, 28921.456, 28931.391, 28809.993, 28292.87, 29468.601, 28863.77, 28523.564, 28382.351, 28522.5, 28831.804, 28878.143, 28594.766, 33788.145, 28962.621, 28602.721, 28574.264, 28571.496, 28483.478, 28366.333, 28878.696, 37425.884, 36119.661, 28480.601, 29070.187, 28420.016, 28753.322, 28535.604, 28641.773, 28640.011, 28529.858, 29171.278, 28541.643, 28744.369, 28383.544, 28511.624, 28688.237, 28476.262, 29825.433, 28510.689, 28756.996, 28712.151, 28623.428, 28552.709, 28567.438, 28820.616, 28491.277, 28623.438, 28525.217, 28534.531, 28429.027, 28763.57, 28786.385, 28795.518, 28487.062, 29216.553, 28596.52, 28671.577, 28474.704, 28361.132, 34169.689, 28638.497, 28477.235, 28288.995, 28608.051, 28655.495, 28557.436, 29198.424, 28622.348, 28712.708, 28573.695, 28457.748, 28436.512, 29021.469, 28709.328, 28668.879, 28916.31, 28402.493, 28885.504, 29890.29, 28712.666, 28748.564, 28735.628, 28578.389, 28537.234, 28601.331, 28804.28, 28534.536, 28773.615, 28418.691, 28740.777, 28885.796, 28922.047, 29123.661, 28887.807, 28680.275, 28603.303, 28676.169, 28771.985, 28602.484, 28751.182, 28753.038, 28646.896, 28836.876, 28652.427, 29186.96, 28798.161, 28694.024, 28722.231, 28351.895, 28644.118, 28957.935, 28909.963, 28448.451, 28707.223, 28471.299, 28463.322, 28456.013],
  "Optimizer iterations": 161,
  "Qubits": 3,
  "Total Algorithm duration [s]": 4659.808,
  "Total Classic duration [s]": 4652.020399973907,
  "Total Quantum duration [s]": 7.787600026093424,
  "Expectation Value": -3.35693359375,
  "Optimal Expectation Value": -3.4939591884613037,
  "Optimizer params": [0.5521456072450559, 0.9312684553865219, 0.5027447797127406, 0.5393213743319363, 0.41691487501206587, 0.4808503889197149, 0.44435597179368175, 0.4289881181023814, 0.4535972899258541, 0.45326633673744293, 0.5581980477518509, 0.5353720905922832],
  "QPU": "10000001",
  "Problem": "IC",
  "Size": 3,
  "P": 0,
  "Shots": 4096
}