{
  "Depth": 74.0,
  "Expectation Value": -0.11876408010721207,
  "Job durations [ms]": [4.5816, 4.5659, 4.5714, 4.5329999999999995, 4.6736, 4.6587, 4.5746, 4.3726, 4.5868, 4.7359, 4.7932, 4.4992, 4.568, 4.5576, 4.5793, 4.6175, 4.7024, 4.5453, 4.5614, 4.5674, 4.6022, 4.559699999999999, 4.5653999999999995, 4.5991, 4.5961, 4.7996, 4.581499999999999, 4.5953, 4.5652, 4.6206, 4.5522, 4.6397, 4.582, 4.555400000000001, 4.6058, 4.570399999999999, 4.567200000000001, 4.6039, 4.5627, 4.5989, 4.5679, 4.6288, 4.5643, 4.6025, 4.5939, 4.5757, 4.5359, 4.5658, 4.5607, 4.582199999999999, 4.4931, 4.5865, 4.650600000000001, 4.5998, 4.5863, 4.5864, 4.5751, 4.6188, 4.3984000000000005, 4.5678, 4.582400000000001, 4.5863, 4.5683, 4.567200000000001, 4.5779000000000005, 4.5569, 4.632, 4.6323, 4.5943, 4.6422, 4.5913, 4.5912, 4.6966, 4.6251, 4.5643, 4.581, 4.5779000000000005, 4.5572, 4.571000000000001, 4.523499999999999, 4.5657, 4.5774, 4.5559, 4.5494, 4.5857, 4.5259, 4.5933, 4.740600000000001, 4.6110999999999995, 4.6048, 4.6064, 4.5524, 4.556100000000001, 4.5314, 4.6119, 4.556100000000001, 4.5703000000000005, 4.5632, 4.6079, 4.6169, 4.6057, 4.5222, 4.585, 4.579599999999999, 4.6053, 4.566, 4.5514, 4.6004000000000005, 4.765000000000001, 4.7505999999999995, 4.5466999999999995, 4.5585, 4.5909, 4.5788, 4.5986, 4.5772, 4.6239, 4.6241, 4.5337, 4.6309000000000005, 4.604699999999999, 4.5703000000000005, 4.5526, 4.5586, 4.6056, 4.561100000000001, 4.5566, 4.5771, 4.5725, 4.6532, 4.3235, 4.6493, 4.5513, 4.6158, 4.619, 4.7381, 4.5668999999999995, 4.53, 4.629300000000001, 4.5645, 4.5502, 4.6378, 4.5607, 4.5887, 4.6334, 4.601, 4.5888, 4.4941, 4.5947000000000005, 4.5791, 4.417199999999999, 4.6262, 4.6004000000000005, 4.576099999999999, 4.5632, 4.5966000000000005, 4.5992999999999995, 4.585999999999999, 4.5969, 4.5941, 4.5868, 4.5911, 4.782, 4.601, 4.521800000000001, 4.5847999999999995, 4.638599999999999, 4.5794, 4.5763, 4.6108, 4.6512, 4.655399999999999, 4.5701, 4.5734, 4.5447, 4.5589, 4.6056, 4.6088, 4.5583, 4.5823, 4.5831, 4.5719, 4.5933, 4.5691999999999995, 4.5988, 4.5585, 4.6189, 4.5817000000000005, 4.5871, 4.575, 4.582199999999999, 4.68, 4.6229000000000005, 4.563000000000001, 4.6541999999999994, 4.6095, 4.5934, 4.7871, 4.607, 4.619, 4.5979],
  "Optimal Expectation Value": -4.0,
  "Optimizer durations [ms]": [48.049, 47.781, 47.934, 47.545, 48.939, 48.727, 48.002, 55.379, 47.724, 49.635, 50.145, 52.014, 47.834, 47.638, 47.756, 48.277, 49.141, 47.552, 47.76, 47.842, 47.94, 47.629, 47.646, 48.065, 48.101, 50.291, 50.726, 48.118, 47.855, 48.183, 47.722, 48.448, 48.214, 47.691, 48.329, 47.794, 47.816, 48.107, 47.748, 47.973, 47.886, 48.369, 47.685, 48.277, 48.055, 48.153, 57.164, 48.022, 47.815, 47.908, 47.508, 47.933, 48.432, 48.248, 48.015, 48.048, 47.719, 48.098, 53.331, 47.841, 47.938, 47.877, 47.953, 47.842, 47.959, 47.654, 48.989, 48.466, 49.408, 48.401, 48.018, 52.928, 49.677, 49.488, 47.747, 47.875, 47.927, 47.546, 47.955, 47.423, 47.657, 47.926, 47.827, 47.739, 47.796, 47.445, 48.102, 49.555, 52.929, 48.032, 48.002, 47.686, 47.788, 47.505, 48.189, 47.619, 47.655, 47.814, 48.16, 48.229, 48.263, 47.384, 47.99, 47.997, 48.346, 47.715, 47.439, 48.23, 49.828, 50.747, 47.543, 47.485, 48.063, 47.725, 48.097, 47.817, 48.345, 48.262, 47.621, 48.315, 48.335, 47.584, 47.506, 47.645, 48.002, 47.628, 47.646, 47.734, 47.97, 48.524, 54.528, 48.641, 52.372, 48.101, 48.251, 54.538, 47.896, 47.221, 48.168, 47.724, 47.603, 48.334, 47.683, 47.794, 48.526, 48.318, 47.894, 47.248, 47.91, 50.163, 55.877, 48.466, 48.163, 47.86, 47.865, 48.044, 48.32, 47.96, 47.954, 48.255, 47.99, 48.071, 49.855, 48.251, 47.378, 47.819, 48.382, 47.894, 47.91, 48.062, 48.75, 53.611, 47.76, 47.925, 47.516, 47.978, 48.213, 48.296, 47.676, 47.894, 48.071, 48.092, 48.185, 47.721, 48.142, 47.816, 48.445, 47.812, 48.136, 47.925, 47.828, 49.095, 48.212, 47.903, 48.483, 48.291, 52.151, 50.127, 52.938, 48.089, 48.17],
  "Optimizer iterations": 201,
  "Optimizer params": [0.8927562117058889, 0.21990540187865276, 0.0005626605998595188, 0.26094978853005635, 1.0, 0.13983048225771083],
  "P": 3,
  "Problem": "TSP",
  "QPU": "7000000",
  "Qubits": 16,
  "Shots": 4096,
  "Size": 4,
  "Total Algorithm duration [s]": 9.745,
  "Total Classic duration [s]": 8.822375899999999,
  "Total Quantum duration [s]": 0.9226240999999996
}
