{
  "Circuit execution durations [ms]": [45.84789276123047, 47.795653343200684, 45.24731636047363, 70.65880298614502, 44.739365577697754, 45.64023017883301, 70.55032253265381, 45.55535316467285, 44.704318046569824],
  "Depth": 2.0,
  "Expectation Value": -0.5614984631538391,
  "Optimal Expectation Value": -0.574400007724762,
  "Optimizer durations [ms]": [513.863, 511.038, 512.265, 556.232, 511.126, 508.456, 516.731, 511.412, 553.544],
  "Optimizer iterations": 9,
  "Optimizer params": [0.0],
  "P": 0,
  "Problem": "RH",
  "QJob durations [ms]": [51.869988441467285, 53.817152976989746, 51.52428150177002, 75.03199577331543, 50.75681209564209, 51.60379409790039, 76.5756368637085, 51.50115489959717, 50.71699619293213],
  "QPU": "300001B",
  "Qubits": 1,
  "Queue durations [ms]": [0.0, 0.0, 0.0, 0.0, 0.0, 0.0, 0.0, 0.0, 0.0],
  "Shots": 4096,
  "Size": 1,
  "Total Algorithm duration [s]": 4.694,
  "Total Classic duration [s]": 4.180602187156677,
  "Total Quantum duration [s]": 0.5133978128433228
}
