{
  "Circuit execution durations [ms]": [21.255850791931152, 21.42930030822754, 21.169662475585938, 21.208763122558594, 21.26169204711914, 21.172046661376953, 21.272659301757813, 21.21710777282715, 21.28291130065918, 21.28589153289795, 21.23582363128662, 21.1489200592041, 21.17919921875, 21.152019500732422, 21.2477445602417, 21.258234977722168, 21.42322063446045, 21.146178245544434, 21.054863929748535, 21.26014232635498, 21.150827407836914, 21.146178245544434, 21.155238151550293, 21.33655548095703, 21.22354507446289, 21.1336612701416, 21.182894706726074, 21.138310432434082, 57.34062194824219, 21.3167667388916, 21.2247371673584, 21.12436294555664, 21.146178245544434, 21.13795280456543, 21.34239673614502, 21.76642417907715, 21.218538284301758, 21.194815635681152, 21.213531494140625, 21.106839179992676, 21.242618560791016, 21.265149116516113, 21.2324857711792, 21.289944648742676, 21.20184898376465, 21.121740341186523, 21.17753028869629, 21.259188652038574, 21.006464958190918, 21.268010139465332, 21.35300636291504, 21.106839179992676, 21.248221397399902, 21.203160285949707, 21.378517150878906, 21.250009536743164, 21.188855171203613, 21.206259727478027, 21.280527114868164, 21.312355995178223, 21.390795707702637, 21.17908000946045, 21.124839782714844, 21.152257919311523, 21.337509155273438, 21.300911903381348, 21.305084228515625, 21.18980884552002, 21.102547645568848, 21.23570442199707, 57.57284164428711, 21.168112754821777, 21.1104154586792, 21.147608757019043, 21.282196044921875, 21.184444427490234, 21.060824394226074, 21.091222763061523, 21.109461784362793, 21.14582061767578, 21.16239070892334, 21.871566772460938, 21.109580993652344, 21.376490592956543, 21.057724952697754, 21.150946617126465, 21.305441856384277, 21.277546882629395, 21.22366428375244, 21.256446838378906, 21.28446102142334, 21.20828628540039, 21.265506744384766, 21.26598358154297, 21.213173866271973, 21.417737007141113, 21.45254611968994, 21.30758762359619, 21.24917507171631, 57.40070343017578, 21.31032943725586, 21.240949630737305, 21.191120147705078, 21.08168601989746, 21.14415168762207, 21.22211456298828, 21.60167694091797, 21.20387554168701, 21.183371543884277, 21.22664451599121, 20.971179008483887, 21.209001541137695, 21.172642707824707, 21.23129367828369, 21.126747131347656, 21.142125129699707, 21.150708198547363, 21.14284038543701, 21.242618560791016, 21.317481994628906, 21.079421043395996, 57.65247344970703, 21.2327241897583, 21.175265312194824, 21.38984203338623, 21.241188049316406, 21.268248558044434, 21.279335021972656, 21.169304847717285, 21.21150493621826, 21.180391311645508, 21.137237548828125, 21.196365356445313, 21.296024322509766, 21.323442459106445, 21.284103393554688, 21.15941047668457, 21.111249923706055, 21.384358406066895, 57.926297187805176, 21.12436294555664, 21.050333976745605, 21.196365356445313, 21.14880084991455, 21.068334579467773, 21.3620662689209, 21.236896514892578, 21.010994911193848, 21.142959594726563, 21.138787269592285, 21.22950553894043, 21.387696266174316, 21.36814594268799, 21.343231201171875, 57.15680122375488, 21.294116973876953, 21.19922637939453, 21.2252140045166, 21.231651306152344, 20.989179611206055, 21.149754524230957, 21.024584770202637, 21.066904067993164, 21.096229553222656, 21.188735961914063, 21.037697792053223, 21.215200424194336, 21.157503128051758, 21.232247352600098, 21.091580390930176, 21.133899688720703, 21.201610565185547, 21.013379096984863, 21.264314651489258, 21.152615547180176, 21.14856243133545, 21.42655849456787, 21.1026668548584, 21.15929126739502, 21.185994148254395, 21.126747131347656, 21.156907081604004, 21.199822425842285, 21.189451217651367, 21.08156681060791, 21.060585975646973, 21.21102809906006, 21.324872970581055, 21.366357803344727, 21.24643325805664, 21.274805068969727, 21.381139755249023, 21.790504455566406, 21.65818214416504, 21.196961402893066, 21.19624614715576, 21.213769912719727, 21.174192428588867, 21.276116371154785, 21.19302749633789, 21.217703819274902, 21.225929260253906, 21.196961402893066, 21.147608757019043, 21.013259887695313, 21.323442459106445, 21.21436595916748, 21.25692367553711, 21.2630033493042, 21.365880966186523, 21.268248558044434, 21.34525775909424, 21.25227451324463, 21.387338638305664, 21.071195602416992, 21.2935209274292, 21.219730377197266, 21.1942195892334, 21.21126651763916, 21.847009658813477, 21.2099552154541, 21.431446075439453, 21.172523498535156, 21.30281925201416, 21.34239673614502, 21.26169204711914, 21.313071250915527, 21.863937377929688, 21.91150188446045, 21.149396896362305, 21.38686180114746, 58.04717540740967, 21.944880485534668, 21.430611610412598, 21.207809448242188, 21.281123161315918, 21.92974090576172, 21.253585815429688, 21.129965782165527, 21.132588386535645, 21.090030670166016, 21.169662475585938, 21.15023136138916, 21.08001708984375, 21.109938621520996, 21.15941047668457, 21.132469177246094, 21.04473114013672, 21.281957626342773, 21.206140518188477, 21.191000938415527, 21.161675453186035, 21.091938018798828, 21.115541458129883, 21.091699600219727, 21.13628387451172, 21.249771118164063, 21.313190460205078, 21.019458770751953, 21.247029304504395, 21.16870880126953, 21.142005920410156, 21.38698101043701, 21.313905715942383, 21.194815635681152, 21.28911018371582, 21.285533905029297, 21.332621574401855, 21.32260799407959, 21.199822425842285, 21.19457721710205, 21.251559257507324, 21.21567726135254, 57.45530128479004, 21.419405937194824, 21.17466926574707, 21.212100982666016, 21.175503730773926, 21.294832229614258, 21.1641788482666, 21.264195442199707, 21.154403686523438, 21.008729934692383, 21.34239673614502, 21.413683891296387, 21.047592163085938, 21.19743824005127, 21.21758460998535, 21.18813991546631, 21.05128765106201, 21.297097206115723, 21.091222763061523, 21.21138572692871, 21.231651306152344, 21.21412754058838, 21.271944046020508, 21.311283111572266, 21.12579345703125, 21.011948585510254, 21.28314971923828, 21.260976791381836, 21.171092987060547, 57.66797065734863, 21.30889892578125, 21.236181259155273, 21.134614944458008, 21.24786376953125, 21.343111991882324, 21.09205722808838, 21.124958992004395, 21.203994750976563, 21.320700645446777, 21.244287490844727, 21.222710609436035, 21.182656288146973, 21.13950252532959, 21.162986755371094, 21.222472190856934, 21.912813186645508, 21.172523498535156, 21.124839782714844, 21.172285079956055, 21.538138389587402, 21.22676372528076, 57.83951282501221, 21.375060081481934, 21.293997764587402, 21.17180824279785, 21.300196647644043, 21.39604091644287, 21.31175994873047, 21.323204040527344, 21.376490592956543, 21.20530605316162, 21.400094032287598, 21.12436294555664, 21.06499671936035, 21.216869354248047, 21.234869956970215, 21.271824836730957, 21.279454231262207, 21.250605583190918, 57.81912803649902, 21.303772926330566, 21.311283111572266, 21.24166488647461, 21.179556846618652],
  "Depth": 14.5,
  "Expectation Value": -5.6826171875,
  "Optimal Expectation Value": -7.296229839324951,
  "Optimizer durations [ms]": [48.957, 49.091, 48.719, 48.945, 48.831, 48.857, 48.88, 48.814, 48.874, 49.054, 48.906, 48.706, 48.83, 48.616, 48.826, 48.913, 49.266, 48.723, 48.596, 48.82, 48.706, 48.748, 48.711, 48.984, 48.824, 48.698, 48.834, 48.737, 121.243, 49.112, 48.941, 48.677, 48.6, 48.658, 48.979, 50.114, 48.771, 48.771, 48.784, 48.564, 48.899, 49.11, 48.951, 48.913, 48.835, 48.606, 48.767, 48.959, 48.423, 48.847, 49.119, 48.607, 48.951, 48.86, 49.264, 48.95, 48.967, 48.77, 49.012, 49.014, 49.32, 48.827, 48.751, 48.718, 49.123, 48.929, 49.001, 48.805, 48.674, 49.054, 121.669, 48.671, 48.676, 48.696, 48.834, 48.655, 48.514, 48.504, 48.598, 48.717, 48.621, 50.068, 48.659, 49.179, 48.475, 48.61, 49.079, 48.973, 48.893, 49.019, 49.041, 48.812, 48.933, 49.017, 48.876, 49.347, 49.37, 48.936, 48.857, 121.276, 48.943, 48.808, 48.678, 48.617, 48.572, 48.771, 49.44, 48.789, 48.759, 48.878, 48.343, 48.821, 48.653, 48.852, 48.636, 48.784, 48.792, 48.594, 48.837, 48.997, 48.587, 121.819, 48.744, 48.696, 49.21, 48.802, 48.968, 48.993, 48.734, 48.688, 48.641, 48.495, 48.646, 48.929, 49.025, 48.978, 48.81, 48.629, 49.187, 122.66, 48.618, 48.513, 48.667, 48.607, 48.576, 49.045, 48.708, 48.582, 48.556, 48.668, 48.798, 49.099, 49.28, 49.151, 120.967, 48.885, 48.812, 48.95, 48.99, 48.322, 48.63, 48.32, 48.43, 48.527, 48.766, 48.441, 48.757, 48.754, 48.862, 48.482, 48.665, 48.891, 48.497, 48.974, 48.736, 48.717, 49.211, 48.669, 48.688, 48.809, 48.707, 48.698, 48.791, 48.829, 48.616, 48.525, 48.91, 49.119, 49.082, 48.874, 49.003, 49.213, 50.238, 50.203, 49.106, 48.91, 48.922, 48.702, 48.86, 48.848, 48.869, 48.929, 48.865, 48.825, 48.399, 49.093, 48.83, 49.111, 48.897, 49.138, 48.959, 49.074, 48.968, 49.283, 48.386, 49.148, 48.922, 48.657, 48.828, 50.083, 48.888, 49.28, 48.688, 48.877, 49.19, 48.922, 49.024, 50.738, 51.042, 48.905, 49.327, 122.57, 50.53, 49.398, 48.865, 48.949, 50.577, 48.936, 48.597, 48.754, 48.531, 48.733, 48.762, 48.398, 48.593, 48.672, 48.734, 48.561, 48.872, 48.747, 48.771, 48.781, 48.515, 48.58, 48.727, 48.59, 48.913, 49.115, 48.463, 48.942, 48.78, 48.68, 49.228, 48.972, 48.757, 49.06, 49.067, 49.312, 48.992, 48.824, 48.853, 48.839, 48.939, 121.562, 49.285, 48.694, 48.627, 48.724, 49.07, 48.792, 48.813, 48.642, 48.5, 48.955, 49.178, 48.428, 48.771, 48.865, 48.822, 48.465, 48.893, 48.626, 48.777, 49.111, 48.86, 48.945, 49.075, 48.56, 48.446, 49.085, 48.908, 48.748, 121.869, 49.048, 48.891, 48.65, 48.814, 48.999, 48.624, 48.644, 48.663, 48.954, 48.943, 48.848, 48.807, 48.763, 48.543, 48.827, 50.094, 48.737, 48.697, 48.683, 49.502, 48.841, 122.157, 49.329, 48.844, 48.722, 48.906, 49.029, 48.883, 48.918, 49.118, 48.654, 49.23, 48.624, 48.605, 48.985, 48.768, 48.95, 48.931, 48.918, 122.2, 48.994, 48.891, 48.723, 48.74],
  "Optimizer iterations": 347,
  "Optimizer params": [0.4971485454275518, 0.6715697415400048, 0.517662742962801, 0.9389244685968596, 0.813728400987435, 0.7927076503177869, 0.7837057393232281, 0.20591151066098837, 0.10560971442900051, 0.6593526497960587, 0.34240075516744684, 0.6198721527812451, 0.4779226959576106, 0.45874773040298533, 0.9931207485877588, 0.1943218166838835, 0.13967992985675745, 0.29501189301828606, 0.6296978740488856, 0.634810035328162, 0.9880277191682894, 0.7908698577401145, 0.9599915787989378, 0.6628833475548895],
  "P": 0,
  "Problem": "IC",
  "QJob durations [ms]": [21.255850791931152, 21.42930030822754, 21.169662475585938, 21.208763122558594, 21.26169204711914, 21.172046661376953, 21.272659301757813, 21.21710777282715, 21.28291130065918, 21.28589153289795, 21.23582363128662, 21.1489200592041, 21.17919921875, 21.152019500732422, 21.2477445602417, 21.258234977722168, 21.42322063446045, 21.146178245544434, 21.054863929748535, 21.26014232635498, 21.150827407836914, 21.146178245544434, 21.155238151550293, 21.33655548095703, 21.22354507446289, 21.1336612701416, 21.182894706726074, 21.138310432434082, 57.34062194824219, 21.3167667388916, 21.2247371673584, 21.12436294555664, 21.146178245544434, 21.13795280456543, 21.34239673614502, 21.76642417907715, 21.218538284301758, 21.194815635681152, 21.213531494140625, 21.106839179992676, 21.242618560791016, 21.265149116516113, 21.2324857711792, 21.289944648742676, 21.20184898376465, 21.121740341186523, 21.17753028869629, 21.259188652038574, 21.006464958190918, 21.268010139465332, 21.35300636291504, 21.106839179992676, 21.248221397399902, 21.203160285949707, 21.378517150878906, 21.250009536743164, 21.188855171203613, 21.206259727478027, 21.280527114868164, 21.312355995178223, 21.390795707702637, 21.17908000946045, 21.124839782714844, 21.152257919311523, 21.337509155273438, 21.300911903381348, 21.305084228515625, 21.18980884552002, 21.102547645568848, 21.23570442199707, 57.57284164428711, 21.168112754821777, 21.1104154586792, 21.147608757019043, 21.282196044921875, 21.184444427490234, 21.060824394226074, 21.091222763061523, 21.109461784362793, 21.14582061767578, 21.16239070892334, 21.871566772460938, 21.109580993652344, 21.376490592956543, 21.057724952697754, 21.150946617126465, 21.305441856384277, 21.277546882629395, 21.22366428375244, 21.256446838378906, 21.28446102142334, 21.20828628540039, 21.265506744384766, 21.26598358154297, 21.213173866271973, 21.417737007141113, 21.45254611968994, 21.30758762359619, 21.24917507171631, 57.40070343017578, 21.31032943725586, 21.240949630737305, 21.191120147705078, 21.08168601989746, 21.14415168762207, 21.22211456298828, 21.60167694091797, 21.20387554168701, 21.183371543884277, 21.22664451599121, 20.971179008483887, 21.209001541137695, 21.172642707824707, 21.23129367828369, 21.126747131347656, 21.142125129699707, 21.150708198547363, 21.14284038543701, 21.242618560791016, 21.317481994628906, 21.079421043395996, 57.65247344970703, 21.2327241897583, 21.175265312194824, 21.38984203338623, 21.241188049316406, 21.268248558044434, 21.279335021972656, 21.169304847717285, 21.21150493621826, 21.180391311645508, 21.137237548828125, 21.196365356445313, 21.296024322509766, 21.323442459106445, 21.284103393554688, 21.15941047668457, 21.111249923706055, 21.384358406066895, 57.926297187805176, 21.12436294555664, 21.050333976745605, 21.196365356445313, 21.14880084991455, 21.068334579467773, 21.3620662689209, 21.236896514892578, 21.010994911193848, 21.142959594726563, 21.138787269592285, 21.22950553894043, 21.387696266174316, 21.36814594268799, 21.343231201171875, 57.15680122375488, 21.294116973876953, 21.19922637939453, 21.2252140045166, 21.231651306152344, 20.989179611206055, 21.149754524230957, 21.024584770202637, 21.066904067993164, 21.096229553222656, 21.188735961914063, 21.037697792053223, 21.215200424194336, 21.157503128051758, 21.232247352600098, 21.091580390930176, 21.133899688720703, 21.201610565185547, 21.013379096984863, 21.264314651489258, 21.152615547180176, 21.14856243133545, 21.42655849456787, 21.1026668548584, 21.15929126739502, 21.185994148254395, 21.126747131347656, 21.156907081604004, 21.199822425842285, 21.189451217651367, 21.08156681060791, 21.060585975646973, 21.21102809906006, 21.324872970581055, 21.366357803344727, 21.24643325805664, 21.274805068969727, 21.381139755249023, 21.790504455566406, 21.65818214416504, 21.196961402893066, 21.19624614715576, 21.213769912719727, 21.174192428588867, 21.276116371154785, 21.19302749633789, 21.217703819274902, 21.225929260253906, 21.196961402893066, 21.147608757019043, 21.013259887695313, 21.323442459106445, 21.21436595916748, 21.25692367553711, 21.2630033493042, 21.365880966186523, 21.268248558044434, 21.34525775909424, 21.25227451324463, 21.387338638305664, 21.071195602416992, 21.2935209274292, 21.219730377197266, 21.1942195892334, 21.21126651763916, 21.847009658813477, 21.2099552154541, 21.431446075439453, 21.172523498535156, 21.30281925201416, 21.34239673614502, 21.26169204711914, 21.313071250915527, 21.863937377929688, 21.91150188446045, 21.149396896362305, 21.38686180114746, 58.04717540740967, 21.944880485534668, 21.430611610412598, 21.207809448242188, 21.281123161315918, 21.92974090576172, 21.253585815429688, 21.129965782165527, 21.132588386535645, 21.090030670166016, 21.169662475585938, 21.15023136138916, 21.08001708984375, 21.109938621520996, 21.15941047668457, 21.132469177246094, 21.04473114013672, 21.281957626342773, 21.206140518188477, 21.191000938415527, 21.161675453186035, 21.091938018798828, 21.115541458129883, 21.091699600219727, 21.13628387451172, 21.249771118164063, 21.313190460205078, 21.019458770751953, 21.247029304504395, 21.16870880126953, 21.142005920410156, 21.38698101043701, 21.313905715942383, 21.194815635681152, 21.28911018371582, 21.285533905029297, 21.332621574401855, 21.32260799407959, 21.199822425842285, 21.19457721710205, 21.251559257507324, 21.21567726135254, 57.45530128479004, 21.419405937194824, 21.17466926574707, 21.212100982666016, 21.175503730773926, 21.294832229614258, 21.1641788482666, 21.264195442199707, 21.154403686523438, 21.008729934692383, 21.34239673614502, 21.413683891296387, 21.047592163085938, 21.19743824005127, 21.21758460998535, 21.18813991546631, 21.05128765106201, 21.297097206115723, 21.091222763061523, 21.21138572692871, 21.231651306152344, 21.21412754058838, 21.271944046020508, 21.311283111572266, 21.12579345703125, 21.011948585510254, 21.28314971923828, 21.260976791381836, 21.171092987060547, 57.66797065734863, 21.30889892578125, 21.236181259155273, 21.134614944458008, 21.24786376953125, 21.343111991882324, 21.09205722808838, 21.124958992004395, 21.203994750976563, 21.320700645446777, 21.244287490844727, 21.222710609436035, 21.182656288146973, 21.13950252532959, 21.162986755371094, 21.222472190856934, 21.912813186645508, 21.172523498535156, 21.124839782714844, 21.172285079956055, 21.538138389587402, 21.22676372528076, 57.83951282501221, 21.375060081481934, 21.293997764587402, 21.17180824279785, 21.300196647644043, 21.39604091644287, 21.31175994873047, 21.323204040527344, 21.376490592956543, 21.20530605316162, 21.400094032287598, 21.12436294555664, 21.06499671936035, 21.216869354248047, 21.234869956970215, 21.271824836730957, 21.279454231262207, 21.250605583190918, 57.81912803649902, 21.303772926330566, 21.311283111572266, 21.24166488647461, 21.179556846618652],
  "QPU": "9000001",
  "Qubits": 6,
  "Queue durations [ms]": [0.0, 0.0, 0.0, 0.0, 0.0, 0.0, 0.0, 0.0, 0.0, 0.0, 0.0, 0.0, 0.0, 0.0, 0.0, 0.0, 0.0, 0.0, 0.0, 0.0, 0.0, 0.0, 0.0, 0.0, 0.0, 0.0, 0.0, 0.0, 0.0, 0.0, 0.0, 0.0, 0.0, 0.0, 0.0, 0.0, 0.0, 0.0, 0.0, 0.0, 0.0, 0.0, 0.0, 0.0, 0.0, 0.0, 0.0, 0.0, 0.0, 0.0, 0.0, 0.0, 0.0, 0.0, 0.0, 0.0, 0.0, 0.0, 0.0, 0.0, 0.0, 0.0, 0.0, 0.0, 0.0, 0.0, 0.0, 0.0, 0.0, 0.0, 0.0, 0.0, 0.0, 0.0, 0.0, 0.0, 0.0, 0.0, 0.0, 0.0, 0.0, 0.0, 0.0, 0.0, 0.0, 0.0, 0.0, 0.0, 0.0, 0.0, 0.0, 0.0, 0.0, 0.0, 0.0, 0.0, 0.0, 0.0, 0.0, 0.0, 0.0, 0.0, 0.0, 0.0, 0.0, 0.0, 0.0, 0.0, 0.0, 0.0, 0.0, 0.0, 0.0, 0.0, 0.0, 0.0, 0.0, 0.0, 0.0, 0.0, 0.0, 0.0, 0.0, 0.0, 0.0, 0.0, 0.0, 0.0, 0.0, 0.0, 0.0, 0.0, 0.0, 0.0, 0.0, 0.0, 0.0, 0.0, 0.0, 0.0, 0.0, 0.0, 0.0, 0.0, 0.0, 0.0, 0.0, 0.0, 0.0, 0.0, 0.0, 0.0, 0.0, 0.0, 0.0, 0.0, 0.0, 0.0, 0.0, 0.0, 0.0, 0.0, 0.0, 0.0, 0.0, 0.0, 0.0, 0.0, 0.0, 0.0, 0.0, 0.0, 0.0, 0.0, 0.0, 0.0, 0.0, 0.0, 0.0, 0.0, 0.0, 0.0, 0.0, 0.0, 0.0, 0.0, 0.0, 0.0, 0.0, 0.0, 0.0, 0.0, 0.0, 0.0, 0.0, 0.0, 0.0, 0.0, 0.0, 0.0, 0.0, 0.0, 0.0, 0.0, 0.0, 0.0, 0.0, 0.0, 0.0, 0.0, 0.0, 0.0, 0.0, 0.0, 0.0, 0.0, 0.0, 0.0, 0.0, 0.0, 0.0, 0.0, 0.0, 0.0, 0.0, 0.0, 0.0, 0.0, 0.0, 0.0, 0.0, 0.0, 0.0, 0.0, 0.0, 0.0, 0.0, 0.0, 0.0, 0.0, 0.0, 0.0, 0.0, 0.0, 0.0, 0.0, 0.0, 0.0, 0.0, 0.0, 0.0, 0.0, 0.0, 0.0, 0.0, 0.0, 0.0, 0.0, 0.0, 0.0, 0.0, 0.0, 0.0, 0.0, 0.0, 0.0, 0.0, 0.0, 0.0, 0.0, 0.0, 0.0, 0.0, 0.0, 0.0, 0.0, 0.0, 0.0, 0.0, 0.0, 0.0, 0.0, 0.0, 0.0, 0.0, 0.0, 0.0, 0.0, 0.0, 0.0, 0.0, 0.0, 0.0, 0.0, 0.0, 0.0, 0.0, 0.0, 0.0, 0.0, 0.0, 0.0, 0.0, 0.0, 0.0, 0.0, 0.0, 0.0, 0.0, 0.0, 0.0, 0.0, 0.0, 0.0, 0.0, 0.0, 0.0, 0.0, 0.0, 0.0, 0.0, 0.0, 0.0, 0.0, 0.0, 0.0, 0.0, 0.0, 0.0, 0.0, 0.0, 0.0, 0.0, 0.0, 0.0, 0.0, 0.0, 0.0, 0.0, 0.0, 0.0, 0.0, 0.0, 0.0, 0.0, 0.0, 0.0],
  "Shots": 4096,
  "Size": 6,
  "Total Algorithm duration [s]": 17.763,
  "Total Classic duration [s]": 9.994097102165224,
  "Total Quantum duration [s]": 7.768902897834778
}
