{
  "Depth": 293.0,
  "Job durations [ms]": [26.274442672729492, 25.691986083984375, 25.772571563720703, 25.447845458984375, 26.39031410217285, 26.508331298828125, 26.080846786499023, 25.964736938476562, 25.859355926513672, 26.454448699951172, 26.109933853149414, 25.892257690429688, 25.817394256591797, 26.19338035583496, 25.64859390258789, 25.89559555053711, 26.28040313720703, 25.8023738861084, 25.54631233215332, 26.079893112182617, 63.38191032409668, 25.979995727539062, 58.47764015197754, 25.597095489501953, 26.04222297668457, 38.79189491271973, 25.835037231445312, 25.529146194458008, 25.61807632446289, 27.402877807617188, 44.5249080657959, 25.702238082885742, 25.902986526489258, 25.933027267456055, 25.56920051574707, 26.062965393066406, 25.83479881286621, 26.211977005004883, 25.362014770507812, 45.89200019836426, 62.3621940612793, 25.84075927734375, 26.35812759399414, 25.80118179321289, 27.033567428588867, 55.44590950012207, 25.592327117919922, 25.617122650146484, 25.84075927734375, 46.84877395629883, 43.61462593078613, 25.581836700439453, 25.839567184448242, 25.50220489501953, 25.83003044128418, 25.728225708007812, 25.726318359375, 25.838375091552734, 25.605440139770508, 26.00550651550293, 25.390625, 25.43926239013672, 25.748491287231445, 25.97951889038086, 25.57063102722168, 25.818586349487305, 25.719881057739258, 26.564598083496094, 25.644779205322266, 25.629281997680664, 25.6040096282959, 25.54631233215332, 25.67148208618164, 25.7718563079834, 25.842905044555664, 25.661230087280273, 25.61473846435547, 25.68364143371582, 40.97700119018555, 25.36940574645996, 25.673627853393555, 25.961637496948242, 28.630971908569336, 54.665327072143555, 25.54774284362793, 25.646686553955078, 26.45397186279297, 25.588274002075195, 25.363445281982422, 25.239229202270508, 25.663375854492188, 25.62427520751953, 25.707006454467773, 26.009321212768555],
  "Optimizer durations [ms]": [382.515, 377.333, 422.467, 381.707, 417.128, 380.216, 421.902, 379.103, 420.785, 380.935, 377.881, 416.66, 378.044, 415.009, 379.788, 418.806, 376.904, 422.773, 380.173, 377.844, 457.513, 378.759, 448.099, 381.862, 417.681, 390.956, 378.8, 423.126, 377.812, 421.411, 399.949, 417.785, 380.227, 422.3, 375.792, 379.753, 418.638, 378.897, 418.839, 396.5, 452.562, 379.526, 376.617, 416.327, 379.447, 450.661, 379.143, 422.241, 379.52, 396.509, 437.924, 379.85, 419.307, 380.614, 418.765, 375.722, 376.042, 418.24, 375.548, 419.972, 378.214, 416.454, 377.115, 377.17, 414.939, 380.035, 419.817, 376.962, 424.022, 379.084, 376.781, 419.969, 378.238, 417.726, 379.356, 420.474, 376.371, 419.113, 397.374, 376.402, 421.737, 379.58, 417.876, 410.423, 417.379, 375.811, 380.065, 417.699, 379.555, 419.598, 379.903, 420.453, 377.023, 381.297],
  "Optimizer iterations": 94,
  "Qubits": 16,
  "Total Algorithm duration [s]": 37.491,
  "Total Classic duration [s]": 34.788600984573364,
  "Total Quantum duration [s]": 2.7023990154266357,
  "Expectation Value": -21.2080078125,
  "Optimal Expectation Value": -24.0,
  "Optimizer params": [0.3530057105115408, 0.5590622355842573, 0.41824017751357107, 0.12038344885685535, 0.4686650762676095, 0.673648594610766],
  "QPU": "3010008",
  "Problem": "MCP",
  "Size": 16,
  "P": 3,
  "Shots": 4096
}