{
  "Circuit execution durations [ms]": [254.03475761413574, 176.73707008361816, 176.41782760620117, 177.1082878112793, 177.7949333190918, 176.069974899292, 176.4061450958252, 244.84586715698242, 177.03986167907715, 176.35178565979004, 176.75375938415527, 176.04780197143555, 176.36799812316895, 176.3911247253418, 176.16581916809082, 176.45955085754395, 176.31030082702637, 176.62787437438965, 176.89013481140137, 176.28216743469238, 245.2685832977295, 176.6059398651123, 177.07204818725586, 175.27103424072266, 175.07243156433105, 176.1460304260254, 176.6033172607422, 176.79834365844727, 177.23917961120605, 176.29265785217285, 176.2089729309082, 176.28216743469238, 175.62150955200195, 245.27335166931152, 176.43284797668457, 176.3741970062256, 176.4371395111084, 176.65410041809082, 176.58615112304688, 176.70178413391113, 177.5984764099121, 175.94361305236816, 176.20110511779785, 176.66959762573242, 175.86302757263184, 176.8479347229004, 246.12045288085938, 176.71918869018555, 175.80461502075195, 176.67770385742188, 176.15723609924316, 175.95767974853516, 177.5188446044922, 177.67882347106934, 175.7333278656006, 176.38659477233887, 176.27263069152832, 175.33373832702637, 177.28471755981445, 245.1040744781494, 176.1176586151123, 175.91476440429688, 175.94027519226074, 177.14619636535645, 176.26714706420898, 176.21803283691406, 175.91285705566406, 176.24688148498535, 176.5768527984619, 176.5122413635254, 176.3134002685547, 176.40137672424316, 244.68684196472168, 177.30975151062012, 175.60195922851563, 176.1910915374756, 177.58488655090332, 175.57668685913086, 175.67753791809082, 244.74430084228516, 176.3770580291748, 176.33509635925293, 176.7137050628662, 175.88162422180176, 176.2373447418213, 246.13046646118164, 176.29623413085938, 175.99844932556152, 176.05161666870117, 175.61769485473633, 175.9181022644043, 175.7829189300537, 246.22797966003418, 175.70734024047852],
  "Depth": 629.0,
  "Expectation Value": -2.884765625,
  "Optimal Expectation Value": -3.0,
  "Optimizer durations [ms]": [293.781, 215.67, 215.023, 215.763, 217.027, 214.993, 215.831, 283.21, 216.077, 215.175, 215.203, 214.921, 215.478, 215.69, 282.591, 215.18, 215.092, 215.502, 216.005, 215.231, 283.891, 215.917, 215.816, 213.976, 213.53, 214.813, 215.346, 283.373, 216.354, 214.862, 215.366, 215.174, 214.135, 283.953, 215.08, 214.667, 215.974, 215.577, 215.516, 215.635, 283.808, 215.081, 215.333, 215.792, 214.315, 216.282, 284.783, 215.663, 214.464, 215.191, 215.273, 214.863, 216.431, 284.521, 214.508, 215.333, 214.623, 214.293, 215.947, 283.724, 215.773, 214.66, 215.011, 216.163, 215.451, 214.894, 284.272, 215.111, 215.238, 215.578, 215.171, 215.227, 283.906, 216.97, 214.205, 214.909, 216.623, 214.223, 214.243, 283.792, 215.713, 215.44, 215.39, 215.077, 214.965, 285.323, 214.832, 214.735, 214.506, 214.409, 214.342, 214.423, 285.204, 214.219],
  "Optimizer iterations": 94,
  "Optimizer params": [0.015109771485087109, 0.9339059826811189, 0.8755166767399126, 0.9853205438263297, 0.3789051761407322, 0.9503178387270538],
  "P": 3,
  "Problem": "MIS",
  "QJob durations [ms]": [254.03475761413574, 176.73707008361816, 176.41782760620117, 177.1082878112793, 177.7949333190918, 176.069974899292, 176.4061450958252, 244.84586715698242, 177.03986167907715, 176.35178565979004, 176.75375938415527, 176.04780197143555, 176.36799812316895, 176.3911247253418, 176.16581916809082, 176.45955085754395, 176.31030082702637, 176.62787437438965, 176.89013481140137, 176.28216743469238, 245.2685832977295, 176.6059398651123, 177.07204818725586, 175.27103424072266, 175.07243156433105, 176.1460304260254, 176.6033172607422, 176.79834365844727, 177.23917961120605, 176.29265785217285, 176.2089729309082, 176.28216743469238, 175.62150955200195, 245.27335166931152, 176.43284797668457, 176.3741970062256, 176.4371395111084, 176.65410041809082, 176.58615112304688, 176.70178413391113, 177.5984764099121, 175.94361305236816, 176.20110511779785, 176.66959762573242, 175.86302757263184, 176.8479347229004, 246.12045288085938, 176.71918869018555, 175.80461502075195, 176.67770385742188, 176.15723609924316, 175.95767974853516, 177.5188446044922, 177.67882347106934, 175.7333278656006, 176.38659477233887, 176.27263069152832, 175.33373832702637, 177.28471755981445, 245.1040744781494, 176.1176586151123, 175.91476440429688, 175.94027519226074, 177.14619636535645, 176.26714706420898, 176.21803283691406, 175.91285705566406, 176.24688148498535, 176.5768527984619, 176.5122413635254, 176.3134002685547, 176.40137672424316, 244.68684196472168, 177.30975151062012, 175.60195922851563, 176.1910915374756, 177.58488655090332, 175.57668685913086, 175.67753791809082, 244.74430084228516, 176.3770580291748, 176.33509635925293, 176.7137050628662, 175.88162422180176, 176.2373447418213, 246.13046646118164, 176.29623413085938, 175.99844932556152, 176.05161666870117, 175.61769485473633, 175.9181022644043, 175.7829189300537, 246.22797966003418, 175.70734024047852],
  "QPU": "9000001",
  "Qubits": 14,
  "Queue durations [ms]": [0.0, 0.0, 0.0, 0.0, 0.0, 0.0, 0.0, 0.0, 0.0, 0.0, 0.0, 0.0, 0.0, 0.0, 0.0, 0.0, 0.0, 0.0, 0.0, 0.0, 0.0, 0.0, 0.0, 0.0, 0.0, 0.0, 0.0, 0.0, 0.0, 0.0, 0.0, 0.0, 0.0, 0.0, 0.0, 0.0, 0.0, 0.0, 0.0, 0.0, 0.0, 0.0, 0.0, 0.0, 0.0, 0.0, 0.0, 0.0, 0.0, 0.0, 0.0, 0.0, 0.0, 0.0, 0.0, 0.0, 0.0, 0.0, 0.0, 0.0, 0.0, 0.0, 0.0, 0.0, 0.0, 0.0, 0.0, 0.0, 0.0, 0.0, 0.0, 0.0, 0.0, 0.0, 0.0, 0.0, 0.0, 0.0, 0.0, 0.0, 0.0, 0.0, 0.0, 0.0, 0.0, 0.0, 0.0, 0.0, 0.0, 0.0, 0.0, 0.0, 0.0, 0.0],
  "Shots": 4096,
  "Size": 11,
  "Total Algorithm duration [s]": 21.272,
  "Total Classic duration [s]": 3.9938654155731186,
  "Total Quantum duration [s]": 17.27813458442688
}
