{
  "Circuit execution durations [ms]": [176.61142349243164, 176.14054679870605, 176.30910873413086, 246.31261825561523, 175.74715614318848, 176.4838695526123, 176.6819953918457, 177.2150993347168, 176.45025253295898, 176.2983798980713, 244.8129653930664, 177.7181625366211, 176.82695388793945, 175.31466484069824, 176.53536796569824, 176.34963989257813, 175.7965087890625, 176.32770538330078, 176.97715759277344, 176.49173736572266, 175.8124828338623, 176.50961875915527, 175.71043968200684, 244.94194984436035, 176.65743827819824, 178.02691459655762, 176.4514446258545, 177.03652381896973, 175.95601081848145, 176.41234397888184, 175.83084106445313, 175.86231231689453, 175.39358139038086, 175.9202480316162, 175.31681060791016, 175.4436492919922, 245.62501907348633, 176.2375831604004, 175.09055137634277, 176.90682411193848, 175.90856552124023, 176.43427848815918, 176.7411231994629, 175.43292045593262, 176.60284042358398, 176.24258995056152, 177.03843116760254, 175.4593849182129, 175.6606101989746, 245.5301284790039, 175.86731910705566, 175.63533782958984, 176.2409210205078, 175.92287063598633, 176.83982849121094, 176.4512062072754, 175.92930793762207, 176.7287254333496, 175.5213737487793, 176.41401290893555, 176.05113983154297, 175.94027519226074, 245.15151977539063, 176.11002922058105, 176.12171173095703, 175.83680152893066, 176.42664909362793, 175.68516731262207, 176.69939994812012, 176.33676528930664, 176.28121376037598, 176.40209197998047, 176.8653392791748, 175.91428756713867, 176.12171173095703, 245.56779861450195, 175.90975761413574, 176.62334442138672, 177.41060256958008, 176.1624813079834, 176.64051055908203, 176.01919174194336, 243.81542205810547, 177.2174835205078, 176.81407928466797, 175.91619491577148, 175.56476593017578, 176.20062828063965, 245.75161933898926, 177.10399627685547, 177.2172451019287, 176.8348217010498, 175.31895637512207, 176.37920379638672, 175.4758358001709, 245.48006057739258, 177.63638496398926],
  "Depth": 629.0,
  "Expectation Value": -2.918701171875,
  "Optimal Expectation Value": -3.0,
  "Optimizer durations [ms]": [215.463, 214.903, 215.044, 285.024, 214.742, 215.997, 215.795, 215.898, 215.302, 215.09, 283.622, 216.329, 215.787, 213.616, 215.749, 215.012, 214.321, 282.412, 216.284, 215.051, 214.314, 215.014, 214.35, 283.244, 215.318, 216.912, 215.833, 215.55, 214.28, 215.423, 281.796, 214.33, 214.175, 214.419, 213.605, 213.838, 284.305, 215.173, 213.53, 215.671, 214.141, 215.593, 215.37, 281.995, 216.217, 214.687, 216.131, 214.245, 214.3, 284.424, 215.005, 214.652, 214.91, 214.623, 215.341, 215.428, 282.551, 215.851, 213.906, 214.911, 214.511, 214.516, 283.648, 215.075, 215.697, 214.4, 215.267, 214.214, 215.826, 283.843, 214.922, 215.156, 215.326, 214.789, 215.108, 284.704, 214.992, 215.401, 217.203, 214.328, 215.354, 214.815, 282.564, 215.703, 215.72, 214.152, 213.784, 214.567, 284.02, 215.955, 215.889, 215.63, 213.802, 215.199, 213.998, 284.01, 216.126],
  "Optimizer iterations": 97,
  "Optimizer params": [0.23010954776516884, 0.10667663250334417, 0.9828219153635661, 0.3028405930211805, 0.1120647363989431, 0.9950761764434876],
  "P": 3,
  "Problem": "MIS",
  "QJob durations [ms]": [176.61142349243164, 176.14054679870605, 176.30910873413086, 246.31261825561523, 175.74715614318848, 176.4838695526123, 176.6819953918457, 177.2150993347168, 176.45025253295898, 176.2983798980713, 244.8129653930664, 177.7181625366211, 176.82695388793945, 175.31466484069824, 176.53536796569824, 176.34963989257813, 175.7965087890625, 176.32770538330078, 176.97715759277344, 176.49173736572266, 175.8124828338623, 176.50961875915527, 175.71043968200684, 244.94194984436035, 176.65743827819824, 178.02691459655762, 176.4514446258545, 177.03652381896973, 175.95601081848145, 176.41234397888184, 175.83084106445313, 175.86231231689453, 175.39358139038086, 175.9202480316162, 175.31681060791016, 175.4436492919922, 245.62501907348633, 176.2375831604004, 175.09055137634277, 176.90682411193848, 175.90856552124023, 176.43427848815918, 176.7411231994629, 175.43292045593262, 176.60284042358398, 176.24258995056152, 177.03843116760254, 175.4593849182129, 175.6606101989746, 245.5301284790039, 175.86731910705566, 175.63533782958984, 176.2409210205078, 175.92287063598633, 176.83982849121094, 176.4512062072754, 175.92930793762207, 176.7287254333496, 175.5213737487793, 176.41401290893555, 176.05113983154297, 175.94027519226074, 245.15151977539063, 176.11002922058105, 176.12171173095703, 175.83680152893066, 176.42664909362793, 175.68516731262207, 176.69939994812012, 176.33676528930664, 176.28121376037598, 176.40209197998047, 176.8653392791748, 175.91428756713867, 176.12171173095703, 245.56779861450195, 175.90975761413574, 176.62334442138672, 177.41060256958008, 176.1624813079834, 176.64051055908203, 176.01919174194336, 243.81542205810547, 177.2174835205078, 176.81407928466797, 175.91619491577148, 175.56476593017578, 176.20062828063965, 245.75161933898926, 177.10399627685547, 177.2172451019287, 176.8348217010498, 175.31895637512207, 176.37920379638672, 175.4758358001709, 245.48006057739258, 177.63638496398926],
  "QPU": "9000001",
  "Qubits": 14,
  "Queue durations [ms]": [0.0, 0.0, 0.0, 0.0, 0.0, 0.0, 0.0, 0.0, 0.0, 0.0, 0.0, 0.0, 0.0, 0.0, 0.0, 0.0, 0.0, 0.0, 0.0, 0.0, 0.0, 0.0, 0.0, 0.0, 0.0, 0.0, 0.0, 0.0, 0.0, 0.0, 0.0, 0.0, 0.0, 0.0, 0.0, 0.0, 0.0, 0.0, 0.0, 0.0, 0.0, 0.0, 0.0, 0.0, 0.0, 0.0, 0.0, 0.0, 0.0, 0.0, 0.0, 0.0, 0.0, 0.0, 0.0, 0.0, 0.0, 0.0, 0.0, 0.0, 0.0, 0.0, 0.0, 0.0, 0.0, 0.0, 0.0, 0.0, 0.0, 0.0, 0.0, 0.0, 0.0, 0.0, 0.0, 0.0, 0.0, 0.0, 0.0, 0.0, 0.0, 0.0, 0.0, 0.0, 0.0, 0.0, 0.0, 0.0, 0.0, 0.0, 0.0, 0.0, 0.0, 0.0, 0.0, 0.0, 0.0],
  "Shots": 4096,
  "Size": 11,
  "Total Algorithm duration [s]": 21.887,
  "Total Classic duration [s]": 4.096849834442139,
  "Total Quantum duration [s]": 17.79015016555786
}
