{
  "Circuit execution durations [ms]": [4.6488, 4.5358, 4.504099999999999, 4.595, 4.502800000000001, 4.498399999999999, 4.5514, 4.5155, 4.5092, 4.5227, 4.5253000000000005, 4.5547, 4.6035, 4.5519, 4.3858, 4.5691999999999995, 4.5287, 4.5812, 4.5493, 4.6062, 4.5763, 4.5785, 4.5252, 4.5057, 4.546900000000001, 4.5259, 4.5916999999999994, 4.5096, 4.5958, 4.563000000000001, 4.5256, 4.5437, 4.7332, 4.4218, 4.5445, 4.511, 4.5316, 4.4883, 4.5428999999999995, 4.5313, 4.5308, 4.683599999999999, 4.606, 4.5924, 4.544099999999999, 4.5291999999999994, 4.52, 4.5659, 4.5545, 4.5548, 4.5373, 4.5534, 4.5388, 4.5717, 5.0868, 4.6326, 4.5537, 4.564, 4.5961, 4.5509, 4.5451, 4.571000000000001, 4.5513, 4.6067, 4.5217, 4.6116, 4.540299999999999, 4.6466, 4.5456, 4.570399999999999, 4.5409, 4.4983, 4.5335, 4.5509, 4.509, 4.6006, 4.5661, 4.5566, 4.5924, 4.5825, 4.594799999999999, 4.7995],
  "Depth": 682.0,
  "Expectation Value": -3.585955858230591,
  "Optimal Expectation Value": -7.0,
  "Optimizer durations [ms]": [47.468, 45.953, 45.793, 46.535, 45.884, 45.678, 46.288, 45.887, 45.966, 46.018, 45.82, 46.176, 48.538, 46.278, 53.016, 46.504, 45.965, 56.327, 46.177, 46.862, 46.533, 46.498, 46.006, 45.635, 46.304, 45.901, 46.68, 45.804, 46.804, 46.379, 46.114, 46.168, 48.159, 54.577, 46.027, 45.699, 46.023, 45.708, 46.129, 46.136, 45.921, 47.611, 46.637, 46.696, 46.252, 45.902, 45.986, 46.345, 46.285, 46.221, 46.101, 46.154, 46.281, 46.576, 51.672, 48.919, 46.458, 46.444, 46.721, 46.297, 46.215, 46.286, 46.146, 46.861, 45.912, 46.915, 45.993, 47.282, 46.363, 46.582, 46.125, 45.805, 46.158, 46.167, 45.829, 46.776, 46.386, 48.638, 46.679, 46.559, 53.919, 48.729],
  "Optimizer iterations": 82,
  "Optimizer params": [0.393553202176996, 0.8909302242680485, 0.5829157617054812, 0.9565755632608903, 0.16600419389373042, 0.07902519110229708],
  "P": 3,
  "Problem": "DSP",
  "QJob durations [ms]": [4.6488, 4.5358, 4.504099999999999, 4.595, 4.502800000000001, 4.498399999999999, 4.5514, 4.5155, 4.5092, 4.5227, 4.5253000000000005, 4.5547, 4.6035, 4.5519, 4.3858, 4.5691999999999995, 4.5287, 4.5812, 4.5493, 4.6062, 4.5763, 4.5785, 4.5252, 4.5057, 4.546900000000001, 4.5259, 4.5916999999999994, 4.5096, 4.5958, 4.563000000000001, 4.5256, 4.5437, 4.7332, 4.4218, 4.5445, 4.511, 4.5316, 4.4883, 4.5428999999999995, 4.5313, 4.5308, 4.683599999999999, 4.606, 4.5924, 4.544099999999999, 4.5291999999999994, 4.52, 4.5659, 4.5545, 4.5548, 4.5373, 4.5534, 4.5388, 4.5717, 5.0868, 4.6326, 4.5537, 4.564, 4.5961, 4.5509, 4.5451, 4.571000000000001, 4.5513, 4.6067, 4.5217, 4.6116, 4.540299999999999, 4.6466, 4.5456, 4.570399999999999, 4.5409, 4.4983, 4.5335, 4.5509, 4.509, 4.6006, 4.5661, 4.5566, 4.5924, 4.5825, 4.594799999999999, 4.7995],
  "QPU": "7000000",
  "Qubits": 14,
  "Queue durations [ms]": [0.0, 0.0, 0.0, 0.0, 0.0, 0.0, 0.0, 0.0, 0.0, 0.0, 0.0, 0.0, 0.0, 0.0, 0.0, 0.0, 0.0, 0.0, 0.0, 0.0, 0.0, 0.0, 0.0, 0.0, 0.0, 0.0, 0.0, 0.0, 0.0, 0.0, 0.0, 0.0, 0.0, 0.0, 0.0, 0.0, 0.0, 0.0, 0.0, 0.0, 0.0, 0.0, 0.0, 0.0, 0.0, 0.0, 0.0, 0.0, 0.0, 0.0, 0.0, 0.0, 0.0, 0.0, 0.0, 0.0, 0.0, 0.0, 0.0, 0.0, 0.0, 0.0, 0.0, 0.0, 0.0, 0.0, 0.0, 0.0, 0.0, 0.0, 0.0, 0.0, 0.0, 0.0, 0.0, 0.0, 0.0, 0.0, 0.0, 0.0, 0.0, 0.0],
  "Shots": 4096,
  "Size": 9,
  "Total Algorithm duration [s]": 3.844,
  "Total Classic duration [s]": 3.469766,
  "Total Quantum duration [s]": 0.37423400000000007
}
