{
  "Circuit execution durations [ms]": [4.5542, 4.5168, 4.5624, 4.5614, 4.561, 4.5281, 4.6016, 4.548800000000001, 4.5975, 4.7401, 4.4482, 4.5437, 4.5553, 4.5537, 4.5674, 4.5756, 4.551699999999999, 4.5819, 4.617999999999999, 4.5829, 4.5333, 4.5149, 4.5415, 4.5578, 4.5623000000000005, 4.5710999999999995, 4.5674, 4.5018, 4.5489, 4.5421000000000005, 4.5458, 5.1303, 4.7341, 4.4111, 4.5541, 4.551699999999999, 4.5411, 4.565600000000001, 4.5901, 4.5121, 4.6051, 4.5534, 4.5157, 4.5896, 4.6171, 4.5537, 4.5937, 4.687, 4.5208, 4.593, 4.5525, 4.5663, 4.5712, 4.5734, 4.5672999999999995, 4.5798000000000005, 4.5144, 4.583699999999999, 4.7822000000000005, 4.6414, 4.5408, 4.5972, 4.560899999999999, 4.5884, 4.5434, 4.568, 4.596699999999999, 4.561, 4.5414, 4.586200000000001, 4.625299999999999, 4.5772, 4.5752, 4.7177, 4.5734, 4.561599999999999, 4.568, 4.6022],
  "Depth": 682.0,
  "Expectation Value": -4.3212151527404785,
  "Optimal Expectation Value": -7.0,
  "Optimizer durations [ms]": [46.378, 45.763, 46.355, 46.538, 46.273, 45.88, 46.849, 46.336, 46.672, 48.174, 54.941, 46.296, 46.371, 46.328, 46.428, 46.639, 46.303, 46.655, 46.927, 46.681, 46.033, 46.006, 46.353, 46.492, 46.551, 46.542, 46.6, 45.836, 46.262, 46.228, 46.167, 52.068, 48.551, 54.629, 46.517, 46.33, 46.272, 46.242, 46.745, 46.034, 46.923, 46.195, 45.926, 46.561, 46.951, 46.238, 46.636, 47.573, 45.978, 46.893, 46.245, 46.384, 46.415, 46.43, 46.464, 46.648, 46.016, 49.711, 48.553, 53.898, 46.095, 46.882, 46.223, 46.854, 46.178, 46.492, 46.709, 46.516, 46.264, 46.621, 47.016, 46.613, 46.612, 48.112, 56.283, 46.309, 46.591, 46.719],
  "Optimizer iterations": 78,
  "Optimizer params": [0.8869388918651239, 0.6559180218298734, 0.37191379369185307, 0.9744290113701439, 0.9472777584177426, 0.9718746524441457],
  "P": 3,
  "Problem": "DSP",
  "QJob durations [ms]": [4.5542, 4.5168, 4.5624, 4.5614, 4.561, 4.5281, 4.6016, 4.548800000000001, 4.5975, 4.7401, 4.4482, 4.5437, 4.5553, 4.5537, 4.5674, 4.5756, 4.551699999999999, 4.5819, 4.617999999999999, 4.5829, 4.5333, 4.5149, 4.5415, 4.5578, 4.5623000000000005, 4.5710999999999995, 4.5674, 4.5018, 4.5489, 4.5421000000000005, 4.5458, 5.1303, 4.7341, 4.4111, 4.5541, 4.551699999999999, 4.5411, 4.565600000000001, 4.5901, 4.5121, 4.6051, 4.5534, 4.5157, 4.5896, 4.6171, 4.5537, 4.5937, 4.687, 4.5208, 4.593, 4.5525, 4.5663, 4.5712, 4.5734, 4.5672999999999995, 4.5798000000000005, 4.5144, 4.583699999999999, 4.7822000000000005, 4.6414, 4.5408, 4.5972, 4.560899999999999, 4.5884, 4.5434, 4.568, 4.596699999999999, 4.561, 4.5414, 4.586200000000001, 4.625299999999999, 4.5772, 4.5752, 4.7177, 4.5734, 4.561599999999999, 4.568, 4.6022],
  "QPU": "7000000",
  "Qubits": 14,
  "Queue durations [ms]": [0.0, 0.0, 0.0, 0.0, 0.0, 0.0, 0.0, 0.0, 0.0, 0.0, 0.0, 0.0, 0.0, 0.0, 0.0, 0.0, 0.0, 0.0, 0.0, 0.0, 0.0, 0.0, 0.0, 0.0, 0.0, 0.0, 0.0, 0.0, 0.0, 0.0, 0.0, 0.0, 0.0, 0.0, 0.0, 0.0, 0.0, 0.0, 0.0, 0.0, 0.0, 0.0, 0.0, 0.0, 0.0, 0.0, 0.0, 0.0, 0.0, 0.0, 0.0, 0.0, 0.0, 0.0, 0.0, 0.0, 0.0, 0.0, 0.0, 0.0, 0.0, 0.0, 0.0, 0.0, 0.0, 0.0, 0.0, 0.0, 0.0, 0.0, 0.0, 0.0, 0.0, 0.0, 0.0, 0.0, 0.0, 0.0],
  "Shots": 4096,
  "Size": 9,
  "Total Algorithm duration [s]": 3.673,
  "Total Classic duration [s]": 3.3158267,
  "Total Quantum duration [s]": 0.3571732999999999
}
