{
  "Circuit execution durations [ms]": [4.5395, 4.534, 4.6009, 4.5428999999999995, 4.5672999999999995, 4.5582, 4.600199999999999, 4.5767999999999995, 4.517099999999999, 4.561599999999999, 4.5538, 4.5495, 4.563000000000001, 4.579899999999999, 4.6132, 4.5918, 4.555, 4.561100000000001, 4.5601, 4.5907, 4.5696, 4.564, 4.536700000000001, 4.8037, 4.49, 4.5463, 4.566, 4.5378, 4.5401, 4.5461, 4.5461, 4.5321, 4.5773, 4.5833, 4.5461, 4.5513, 4.576700000000001, 4.589, 4.5875, 4.5649999999999995, 4.5762, 4.5541, 4.5886, 4.5352, 4.578600000000001, 4.8563, 4.5573999999999995, 4.5638, 4.553, 4.5416, 4.5744, 4.5907, 4.5712, 4.5613, 4.5664, 4.5697, 4.5615, 4.5492, 4.590000000000001, 4.5782, 4.5514, 4.5499, 4.5847, 4.4951, 4.5360000000000005, 4.521599999999999, 4.5572, 4.5729999999999995, 4.5756, 4.6033, 4.5567, 4.3894, 4.8483, 4.523499999999999, 4.5905, 4.5518, 4.5760000000000005, 4.5629, 4.4855, 4.5821000000000005, 4.5390999999999995, 4.5378, 4.509799999999999, 4.6171, 4.5585, 4.5748999999999995, 4.5453, 4.5902, 4.7328, 4.5379000000000005],
  "Depth": 682.0,
  "Expectation Value": -4.189614295959473,
  "Optimal Expectation Value": -7.0,
  "Optimizer durations [ms]": [46.345, 46.255, 49.745, 46.251, 46.255, 46.642, 46.749, 46.362, 55.417, 46.51, 46.148, 46.44, 46.577, 46.418, 47.014, 46.554, 46.215, 46.488, 46.518, 46.767, 46.355, 46.548, 46.113, 48.641, 54.17, 46.199, 46.407, 46.103, 46.217, 46.234, 46.282, 46.117, 46.531, 46.635, 46.087, 46.382, 46.565, 46.773, 46.687, 46.355, 46.485, 46.318, 46.616, 46.086, 46.662, 54.047, 46.172, 46.442, 46.466, 46.007, 46.563, 46.646, 46.604, 46.281, 46.313, 46.488, 46.511, 46.266, 46.636, 46.524, 46.218, 46.093, 46.574, 45.639, 45.941, 46.078, 46.451, 46.493, 46.484, 46.612, 46.149, 53.53, 49.231, 53.086, 46.571, 46.238, 46.68, 46.216, 45.734, 46.608, 46.184, 46.112, 45.718, 47.026, 46.413, 46.419, 46.267, 46.624, 52.872, 46.19],
  "Optimizer iterations": 90,
  "Optimizer params": [0.2635886371712976, 0.6623298583101533, 0.15001013256007442, 0.5018092741006475, 0.1090872242115268, 0.5190133725833707],
  "P": 3,
  "Problem": "DSP",
  "QJob durations [ms]": [4.5395, 4.534, 4.6009, 4.5428999999999995, 4.5672999999999995, 4.5582, 4.600199999999999, 4.5767999999999995, 4.517099999999999, 4.561599999999999, 4.5538, 4.5495, 4.563000000000001, 4.579899999999999, 4.6132, 4.5918, 4.555, 4.561100000000001, 4.5601, 4.5907, 4.5696, 4.564, 4.536700000000001, 4.8037, 4.49, 4.5463, 4.566, 4.5378, 4.5401, 4.5461, 4.5461, 4.5321, 4.5773, 4.5833, 4.5461, 4.5513, 4.576700000000001, 4.589, 4.5875, 4.5649999999999995, 4.5762, 4.5541, 4.5886, 4.5352, 4.578600000000001, 4.8563, 4.5573999999999995, 4.5638, 4.553, 4.5416, 4.5744, 4.5907, 4.5712, 4.5613, 4.5664, 4.5697, 4.5615, 4.5492, 4.590000000000001, 4.5782, 4.5514, 4.5499, 4.5847, 4.4951, 4.5360000000000005, 4.521599999999999, 4.5572, 4.5729999999999995, 4.5756, 4.6033, 4.5567, 4.3894, 4.8483, 4.523499999999999, 4.5905, 4.5518, 4.5760000000000005, 4.5629, 4.4855, 4.5821000000000005, 4.5390999999999995, 4.5378, 4.509799999999999, 4.6171, 4.5585, 4.5748999999999995, 4.5453, 4.5902, 4.7328, 4.5379000000000005],
  "QPU": "7000000",
  "Qubits": 14,
  "Queue durations [ms]": [0.0, 0.0, 0.0, 0.0, 0.0, 0.0, 0.0, 0.0, 0.0, 0.0, 0.0, 0.0, 0.0, 0.0, 0.0, 0.0, 0.0, 0.0, 0.0, 0.0, 0.0, 0.0, 0.0, 0.0, 0.0, 0.0, 0.0, 0.0, 0.0, 0.0, 0.0, 0.0, 0.0, 0.0, 0.0, 0.0, 0.0, 0.0, 0.0, 0.0, 0.0, 0.0, 0.0, 0.0, 0.0, 0.0, 0.0, 0.0, 0.0, 0.0, 0.0, 0.0, 0.0, 0.0, 0.0, 0.0, 0.0, 0.0, 0.0, 0.0, 0.0, 0.0, 0.0, 0.0, 0.0, 0.0, 0.0, 0.0, 0.0, 0.0, 0.0, 0.0, 0.0, 0.0, 0.0, 0.0, 0.0, 0.0, 0.0, 0.0, 0.0, 0.0, 0.0, 0.0, 0.0, 0.0, 0.0, 0.0, 0.0, 0.0],
  "Shots": 4096,
  "Size": 9,
  "Total Algorithm duration [s]": 4.227,
  "Total Classic duration [s]": 3.8157534,
  "Total Quantum duration [s]": 0.4112465999999999
}
