{
  "Circuit execution durations [ms]": [24.34408664703369, 24.403691291809082, 23.98395538330078, 24.80792999267578, 24.349212646484375, 24.7955322265625, 25.005221366882324, 24.72400665283203, 26.15189552307129, 25.560736656188965, 24.199843406677246, 24.394869804382324, 25.012850761413574, 24.921178817749023, 24.66726303100586, 24.533987045288086, 24.693608283996582, 24.66714382171631, 24.821162223815918, 25.678277015686035, 24.872660636901855, 25.214672088623047, 24.96469020843506, 24.19734001159668, 24.741768836975098, 25.45785903930664, 25.41220188140869, 24.303555488586426, 24.53136444091797, 24.051189422607422, 24.526119232177734, 24.785876274108887, 25.089025497436523, 24.934887886047363, 25.292158126831055, 25.236010551452637, 24.465203285217285, 24.44314956665039, 25.153517723083496, 24.547934532165527, 25.258541107177734, 24.83665943145752, 24.77443218231201, 25.14350414276123, 25.07007122039795, 25.78902244567871, 25.22408962249756],
  "Depth": 4.5,
  "Expectation Value": -1.0,
  "Optimal Expectation Value": -1.0,
  "Optimizer durations [ms]": [7621.593, 8283.685, 7562.663, 8117.863, 7771.123, 8253.997, 7670.22, 7621.779, 7390.686, 7724.393, 8076.238, 7416.322, 8166.217, 7807.518, 8113.002, 8428.818, 8103.641, 8247.444, 7402.454, 8259.166, 8666.829, 8546.515, 7591.168, 7617.359, 7838.583, 8305.046, 7549.908, 8150.346, 7711.864, 8259.144, 7536.139, 8169.467, 8419.664, 7673.627, 8018.984, 7816.272, 8158.017, 10333.507, 8018.527, 8424.645, 7856.628, 8094.581, 8151.345, 9421.257, 7725.991, 8130.694, 7914.403],
  "Optimizer iterations": 47,
  "Optimizer params": [0.9999999999999998, 0.15817997231786815, 0.9997133138009915, 0.9691016293730439],
  "P": 0,
  "Problem": "IC",
  "QJob durations [ms]": [3805.061459541321, 4122.83992767334, 3775.0942707061768, 4039.5374298095703, 3879.1468143463135, 4108.115196228027, 3828.832507133484, 3791.72682762146, 3689.1123056411743, 3843.647241592407, 4031.722903251648, 3689.298391342163, 4076.848030090332, 3885.0557804107666, 4050.256609916687, 4195.529460906982, 4045.565128326416, 4105.225563049316, 3694.8838233947754, 4110.834121704102, 4327.195882797241, 4254.644870758057, 3789.14213180542, 3789.2295122146606, 3913.0066633224487, 4132.989406585693, 3768.4760093688965, 4056.7169189453125, 3849.6713638305664, 4111.164093017578, 3761.667013168335, 4065.6298398971558, 4203.452825546265, 3818.3841705322266, 4002.817392349243, 3889.4615173339844, 4072.651743888855, 5148.304462432861, 4002.8254985809326, 4192.905902862549, 3921.851396560669, 4029.174566268921, 4069.269895553589, 4691.880226135254, 3856.645941734314, 4045.631766319275, 3950.676441192627],
  "QPU": "6000004",
  "Qubits": 1,
  "Queue durations [ms]": [0.0, 0.0, 0.0, 0.0, 0.0, 0.0, 0.0, 0.0, 0.0, 0.0, 0.0, 0.0, 0.0, 0.0, 0.0, 0.0, 0.0, 0.0, 0.0, 0.0, 0.0, 0.0, 0.0, 0.0, 0.0, 0.0, 0.0, 0.0, 0.0, 0.0, 0.0, 0.0, 0.0, 0.0, 0.0, 0.0, 0.0, 0.0, 0.0, 0.0, 0.0, 0.0, 0.0, 0.0, 0.0, 0.0, 0.0],
  "Shots": 4096,
  "Size": 1,
  "Total Algorithm duration [s]": 378.14,
  "Total Classic duration [s]": 189.6561987543106,
  "Total Quantum duration [s]": 188.4838012456894
}
