{
  "Depth": 12.5,
  "Job durations [ms]": [9.324193000793457, 9.141206741333008, 9.12940502166748, 9.282827377319336, 9.206056594848633, 9.20712947845459, 9.171009063720703, 9.08517837524414, 9.941697120666504, 9.337186813354492, 9.234309196472168, 10.11812686920166, 9.248852729797363, 9.181857109069824, 9.264826774597168, 9.108662605285645, 9.068012237548828, 9.381771087646484, 9.14144515991211, 9.3766450881958, 9.410977363586426, 9.338617324829102, 9.103178977966309, 9.30631160736084, 9.170174598693848, 9.057044982910156, 9.271860122680664, 9.173393249511719, 9.186506271362305, 9.069442749023438, 9.389162063598633, 9.185433387756348, 9.26065444946289, 9.337544441223145, 9.042501449584961, 9.264349937438965, 10.159492492675781, 9.210348129272461, 9.250283241271973, 9.131312370300293, 9.278059005737305, 9.14454460144043, 9.055495262145996, 9.165287017822266, 9.376168251037598, 9.046673774719238, 8.943438529968262, 8.96298885345459, 9.216666221618652, 8.988261222839355, 9.692668914794922, 9.223699569702148, 9.243011474609375, 9.189367294311523, 9.3461275100708, 9.108662605285645, 9.090185165405273, 9.079813957214355, 9.723782539367676, 9.25588607788086, 9.148478507995605, 9.127974510192871, 9.128093719482422, 9.130120277404785, 9.904265403747559, 9.173750877380371, 9.094715118408203, 9.210824966430664, 9.194016456604004, 9.221911430358887, 9.19342041015625, 9.336471557617188, 9.268641471862793, 9.163141250610352, 9.157299995422363, 9.1933012008667, 9.10031795501709, 9.184479713439941, 9.039878845214844, 9.14466381072998, 9.314537048339844, 9.224534034729004, 9.154081344604492, 9.244084358215332, 9.253144264221191, 9.149551391601562, 9.03332233428955, 9.170770645141602, 9.3461275100708, 9.1933012008667, 9.269237518310547, 9.108543395996094, 9.319424629211426, 9.286046028137207, 9.291768074035645, 9.292125701904297, 9.168148040771484, 9.113669395446777, 9.295463562011719, 9.314417839050293, 9.28795337677002, 9.17041301727295, 9.317278861999512, 9.111642837524414, 9.26661491394043, 9.137868881225586, 9.150385856628418, 9.132623672485352, 9.404778480529785, 9.228348731994629, 9.097695350646973, 9.007811546325684, 9.110093116760254, 8.870482444763184, 9.221792221069336, 9.309530258178711, 9.163737297058105, 9.312629699707031, 9.263277053833008, 9.179949760437012, 8.95226001739502, 9.260892868041992, 9.284257888793945, 9.0562105178833, 9.102940559387207, 9.379386901855469, 8.939146995544434, 8.970856666564941, 9.325742721557617, 9.19342041015625, 9.084701538085938, 9.165525436401367, 9.348034858703613, 9.271621704101562, 9.243488311767578, 9.339570999145508, 9.021520614624023, 9.302020072937012, 9.062409400939941, 9.022355079650879, 9.159326553344727, 9.243249893188477, 9.238362312316895, 9.256482124328613, 9.43136215209961, 9.148359298706055, 9.125828742980957, 9.146809577941895, 9.040594100952148, 9.75954532623291, 9.100675582885742, 9.261608123779297, 9.176850318908691, 9.23776626586914, 9.171724319458008, 9.288787841796875, 9.230971336364746, 9.187579154968262, 9.13095474243164, 8.978724479675293, 9.047389030456543, 9.16135311126709, 9.000062942504883, 9.155035018920898, 9.027242660522461, 9.076714515686035, 9.159326553344727, 9.181976318359375, 9.355783462524414, 9.120821952819824, 9.136557579040527, 9.163498878479004, 9.311676025390625, 9.095907211303711, 9.143710136413574, 9.29415225982666, 8.93247127532959, 9.09721851348877, 9.07588005065918, 9.080767631530762, 8.964896202087402, 9.065508842468262, 9.170770645141602, 8.974194526672363, 9.146571159362793, 9.016871452331543, 8.916974067687988, 9.161949157714844, 9.046554565429688, 9.034514427185059, 9.134769439697266, 8.9493989944458, 9.101629257202148, 9.230971336364746, 9.100556373596191, 9.04548168182373, 9.050130844116211, 9.141087532043457, 9.274125099182129, 9.23001766204834, 8.912086486816406, 8.959293365478516, 9.27591323852539, 9.015679359436035, 8.88669490814209, 9.294509887695312, 8.88514518737793, 9.014248847961426, 9.25147533416748, 9.045243263244629, 9.173393249511719, 9.249567985534668, 9.297370910644531, 9.092330932617188, 9.016633033752441, 9.025931358337402, 8.851289749145508, 9.1322660446167, 9.036540985107422, 9.17959213256836, 9.183645248413086, 9.030699729919434, 9.166479110717773, 9.102582931518555, 9.136199951171875, 9.084939956665039, 9.048819541931152, 9.120345115661621, 9.219646453857422, 9.024739265441895, 9.313583374023438, 9.079694747924805, 9.251594543457031, 9.053945541381836, 9.163260459899902, 8.936524391174316, 9.15837287902832, 8.931398391723633, 9.213685989379883, 9.209632873535156, 8.995532989501953, 9.21630859375, 9.1172456741333, 9.092092514038086, 9.332537651062012, 9.144902229309082, 9.114623069763184, 9.145140647888184, 9.101510047912598, 9.074568748474121, 9.082198143005371, 9.12928581237793, 8.900046348571777, 9.425044059753418, 9.084939956665039, 9.03475284576416, 9.263992309570312, 9.213089942932129, 9.140729904174805, 9.22095775604248, 9.105682373046875, 9.210467338562012, 9.25135612487793, 9.208202362060547, 9.128928184509277, 9.125113487243652, 9.028792381286621, 9.02092456817627, 9.056448936462402, 9.046196937561035, 9.216904640197754, 8.938431739807129, 9.029984474182129, 9.232044219970703, 9.4757080078125, 9.020805358886719, 9.186148643493652, 9.147405624389648, 9.116530418395996, 9.07289981842041, 9.20259952545166, 9.009838104248047, 9.186983108520508, 9.15837287902832, 9.14454460144043, 9.07599925994873, 9.273290634155273, 8.983612060546875, 8.968234062194824, 9.229779243469238, 9.135127067565918, 9.047865867614746, 9.308099746704102, 8.843421936035156, 9.095907211303711, 8.972525596618652, 9.197235107421875, 9.252190589904785, 9.114265441894531, 9.017705917358398, 8.946418762207031, 9.194016456604004, 9.059548377990723, 9.097814559936523, 9.12940502166748, 9.114742279052734, 9.089469909667969, 9.009838104248047, 9.070992469787598, 9.14454460144043, 9.253263473510742, 8.93247127532959, 8.963584899902344, 9.171843528747559, 9.02712345123291, 8.935809135437012, 9.011983871459961, 9.129762649536133, 9.19044017791748, 9.138345718383789, 9.105205535888672, 9.357929229736328, 9.315848350524902, 9.199023246765137, 9.197354316711426, 9.269952774047852, 9.142279624938965, 9.613633155822754, 9.029150009155273, 9.058117866516113, 9.098529815673828, 9.282469749450684, 9.614944458007812, 9.381771087646484, 9.404182434082031],
  "Optimizer durations [ms]": [167.853, 207.824, 164.922, 168.984, 165.0, 216.334, 167.258, 166.317, 213.923, 167.314, 165.908, 168.203, 212.113, 166.605, 173.38, 170.382, 208.02, 166.994, 166.798, 212.66, 166.566, 167.662, 166.902, 212.425, 167.59, 167.26, 211.446, 166.8, 166.797, 168.228, 218.934, 167.428, 167.579, 171.114, 213.048, 167.762, 172.959, 211.801, 165.222, 167.76, 168.059, 212.714, 168.084, 168.922, 166.992, 216.759, 164.243, 164.119, 211.111, 165.237, 166.445, 165.455, 212.229, 166.579, 165.824, 209.121, 165.663, 171.605, 168.502, 212.302, 167.723, 171.101, 164.964, 210.147, 167.384, 166.293, 210.351, 168.063, 167.388, 167.719, 213.73, 167.274, 167.681, 169.471, 209.541, 165.131, 164.761, 210.323, 165.96, 165.298, 166.416, 213.292, 168.993, 167.3, 212.864, 168.229, 167.473, 168.12, 212.865, 167.89, 168.048, 166.827, 212.274, 168.005, 168.334, 217.722, 167.271, 167.132, 167.322, 212.299, 167.082, 167.328, 167.91, 212.113, 167.602, 166.371, 213.392, 168.049, 168.636, 167.714, 213.686, 165.118, 165.416, 208.255, 165.317, 166.509, 165.79, 210.881, 168.157, 168.125, 166.049, 213.658, 167.425, 166.89, 209.622, 165.202, 164.166, 164.888, 209.513, 168.166, 167.725, 167.153, 213.485, 167.711, 167.217, 213.137, 167.7, 167.486, 166.186, 210.087, 167.745, 167.586, 211.398, 167.823, 171.849, 166.889, 210.006, 165.462, 164.739, 166.239, 212.038, 169.456, 165.684, 211.126, 165.338, 165.861, 164.792, 210.655, 165.185, 166.59, 165.285, 210.065, 165.61, 164.795, 209.321, 165.587, 165.842, 165.808, 210.629, 164.428, 165.301, 209.364, 165.739, 165.096, 167.895, 211.507, 168.231, 167.108, 166.15, 218.844, 166.092, 165.359, 213.89, 165.306, 166.702, 166.13, 211.968, 165.652, 166.035, 165.371, 212.869, 166.414, 165.61, 213.862, 166.159, 166.024, 169.527, 213.658, 167.276, 167.395, 211.734, 166.022, 167.268, 173.946, 210.651, 166.494, 165.246, 165.33, 213.541, 165.47, 166.501, 214.118, 167.35, 171.27, 165.364, 212.989, 166.659, 166.165, 166.375, 215.321, 165.634, 165.667, 214.024, 165.824, 167.133, 166.626, 215.273, 167.273, 166.67, 212.404, 175.507, 167.521, 167.334, 215.082, 167.075, 166.715, 166.929, 214.318, 167.578, 169.006, 221.256, 166.163, 166.212, 165.813, 213.73, 166.507, 166.332, 166.61, 213.633, 166.041, 166.892, 213.672, 167.834, 168.761, 165.935, 215.505, 167.956, 166.045, 216.154, 168.417, 167.181, 166.93, 214.442, 170.859, 166.603, 165.891, 214.776, 166.423, 165.994, 214.226, 166.557, 170.16, 165.785, 214.156, 172.908, 167.582, 167.72, 216.234, 167.145, 166.825, 216.342, 166.332, 165.747, 166.752, 214.337, 165.901, 167.032, 212.857, 166.011, 177.698, 166.781, 214.307, 166.379, 165.529, 166.993, 213.881, 173.469, 168.487, 212.817, 162.872, 164.144, 163.045, 208.105, 164.532, 164.185, 166.321, 215.39, 167.084, 166.478, 215.456, 167.859, 166.89, 166.32, 214.499, 166.649, 166.447, 214.22, 166.163, 166.437, 166.52, 213.818, 168.105, 168.166, 166.801, 212.546, 167.618, 169.217, 226.663, 173.951, 168.742, 169.128, 214.968, 168.329, 168.505, 167.664],
  "Optimizer iterations": 335,
  "Qubits": 5,
  "Total Algorithm duration [s]": 60.209,
  "Total Classic duration [s]": 57.136807927131656,
  "Total Quantum duration [s]": 3.072192072868347,
  "Expectation Value": -5.17724609375,
  "Optimal Expectation Value": -6.026674270629883,
  "Optimizer params": [0.6385461609230924, 0.7393945150527723, 0.781251429481587, 0.7434952595112821, 0.2913136772504924, 0.5085883207654516, 0.5181099535200154, 0.5348414815768182, 0.48193057207929463, 0.515337568516565, 0.5219121348144622, 0.41539641030960417, 0.4524155862281586, 0.4115714678188841, 0.4353297501003597, 0.5228114289755582, 0.497747994008243, 0.47564018756371085, 0.48682319272826824, 0.5043031206244981],
  "QPU": "3010002",
  "Problem": "IC",
  "Size": 5,
  "P": 0,
  "Shots": 4096
}